<?xml version="1.0"?>
<!DOCTYPE svg PUBLIC '-//W3C//DTD SVG 1.0//EN'
          'http://www.w3.org/TR/2001/REC-SVG-20010904/DTD/svg10.dtd'>
<svg xmlns:xlink="http://www.w3.org/1999/xlink" style="fill-opacity:1; color-rendering:auto; color-interpolation:auto; text-rendering:auto; stroke:black; stroke-linecap:square; stroke-miterlimit:10; shape-rendering:auto; stroke-opacity:1; fill:black; stroke-dasharray:none; font-weight:normal; stroke-width:1; font-family:'Dialog'; font-style:normal; stroke-linejoin:miter; font-size:12px; stroke-dashoffset:0; image-rendering:auto;" xmlns="http://www.w3.org/2000/svg"
><!--Generated by the Batik Graphics2D SVG Generator--><defs id="genericDefs"
  /><g
  ><defs id="defs1"
    ><clipPath clipPathUnits="userSpaceOnUse" id="clipPath1"
      ><path d="M914 53 L936 53 L936 75 L914 75 L914 53 Z"
      /></clipPath
      ><clipPath clipPathUnits="userSpaceOnUse" id="clipPath2"
      ><path style="fill-rule:evenodd;" d="M873 53 L884 64 L873 75 L862 64 Z"
      /></clipPath
      ><clipPath clipPathUnits="userSpaceOnUse" id="clipPath3"
      ><path d="M810 53 L832 53 L832 75 L810 75 L810 53 Z"
      /></clipPath
      ><clipPath clipPathUnits="userSpaceOnUse" id="clipPath4"
      ><path style="fill-rule:evenodd;" d="M769 53 L780 64 L769 75 L758 64 Z"
      /></clipPath
      ><clipPath clipPathUnits="userSpaceOnUse" id="clipPath5"
      ><path d="M706 53 L728 53 L728 75 L706 75 L706 53 Z"
      /></clipPath
      ><clipPath clipPathUnits="userSpaceOnUse" id="clipPath6"
      ><path style="fill-rule:evenodd;" d="M665 53 L676 64 L665 75 L654 64 Z"
      /></clipPath
      ><clipPath clipPathUnits="userSpaceOnUse" id="clipPath7"
      ><path d="M602 53 L624 53 L624 75 L602 75 L602 53 Z"
      /></clipPath
      ><clipPath clipPathUnits="userSpaceOnUse" id="clipPath8"
      ><path style="fill-rule:evenodd;" d="M561 53 L572 64 L561 75 L550 64 Z"
      /></clipPath
      ><clipPath clipPathUnits="userSpaceOnUse" id="clipPath9"
      ><path d="M498 53 L520 53 L520 75 L498 75 L498 53 Z"
      /></clipPath
      ><clipPath clipPathUnits="userSpaceOnUse" id="clipPath10"
      ><path style="fill-rule:evenodd;" d="M457 53 L468 64 L457 75 L446 64 Z"
      /></clipPath
      ><clipPath clipPathUnits="userSpaceOnUse" id="clipPath11"
      ><path d="M394 53 L416 53 L416 75 L394 75 L394 53 Z"
      /></clipPath
      ><clipPath clipPathUnits="userSpaceOnUse" id="clipPath12"
      ><path style="fill-rule:evenodd;" d="M353 53 L364 64 L353 75 L342 64 Z"
      /></clipPath
      ><clipPath clipPathUnits="userSpaceOnUse" id="clipPath13"
      ><path d="M290 53 L312 53 L312 75 L290 75 L290 53 Z"
      /></clipPath
      ><clipPath clipPathUnits="userSpaceOnUse" id="clipPath14"
      ><path style="fill-rule:evenodd;" d="M249 53 L260 64 L249 75 L238 64 Z"
      /></clipPath
      ><clipPath clipPathUnits="userSpaceOnUse" id="clipPath15"
      ><path d="M186 53 L208 53 L208 75 L186 75 L186 53 Z"
      /></clipPath
      ><clipPath clipPathUnits="userSpaceOnUse" id="clipPath16"
      ><path style="fill-rule:evenodd;" d="M145 53 L156 64 L145 75 L134 64 Z"
      /></clipPath
      ><clipPath clipPathUnits="userSpaceOnUse" id="clipPath17"
      ><path d="M82 53 L104 53 L104 75 L82 75 L82 53 Z"
      /></clipPath
      ><clipPath clipPathUnits="userSpaceOnUse" id="clipPath18"
      ><path style="fill-rule:evenodd;" d="M41 53 L52 64 L41 75 L30 64 Z"
      /></clipPath
    ></defs
    ><g style="fill:white; text-rendering:optimizeSpeed; stroke:white;"
    ><rect x="0" width="1018" height="128" y="0" style="stroke:none;"
    /></g
    ><g style="text-rendering:optimizeSpeed;" ID="l-1:1,2"
    ><polygon style="fill:none;" points=" 977 64 925 64"
    /></g
    ><g style="text-rendering:optimizeSpeed;" ID="r-1:1"
    ><path style="fill:none;" d="M977 53 C971.5 58.5 982.5 69.5 977 75"
    /></g
    ><g style="text-rendering:optimizeSpeed;" ID="l-1:2,3"
    ><polygon style="fill:none;" points=" 925 64 873 64"
    /></g
    ><g ID="r-1:2" style="fill:white; text-rendering:optimizeSpeed; stroke:white;"
    ><rect x="914" y="53" width="22" style="clip-path:url(#clipPath1); stroke:none;" height="22"
      /><polygon style="fill:rgb(0,144,188); clip-path:url(#clipPath1); stroke:none;" points=" 914 53 936 53 936 75"
      /><polygon style="fill:none; clip-path:url(#clipPath1); stroke:black;" points=" 914 53 936 53 936 75"
      /><rect x="914" y="53" width="22" style="fill:none; stroke:black;" height="22"
    /></g
    ><g ID="r-1:4" style="fill:white; text-rendering:optimizeSpeed; font-size:14px; stroke:white;"
    ><rect x="917" width="14" height="10" y="81" style="stroke:none;"
      /><path d="M918.1621 92 L918.1621 90.8174 Q918.75 89.4434 920.541 87.8232 L921.3135 87.1328 Q922.8037 85.7861 922.8037 84.46 Q922.8037 83.6123 922.2944 83.127 Q921.7852 82.6416 920.8965 82.6416 Q919.8438 82.6416 918.415 83.4551 L918.415 82.2656 Q919.7617 81.6299 921.0879 81.6299 Q922.5098 81.6299 923.3711 82.3955 Q924.2324 83.1611 924.2324 84.4258 Q924.2324 85.335 923.7983 86.0391 Q923.3643 86.7432 922.1816 87.748 L921.6621 88.1924 Q920.042 89.5664 919.7891 90.8174 L924.1846 90.8174 L924.1846 92 ZM929.1406 92.2529 Q928.1221 92.2529 926.5361 91.8086 L926.5361 90.3867 Q928.2451 91.1797 929.3457 91.1797 Q930.1934 91.1797 930.7095 90.7354 Q931.2256 90.291 931.2256 89.5664 Q931.2256 88.9717 930.8872 88.5547 Q930.5488 88.1377 929.6396 87.625 L928.9424 87.2217 Q927.6504 86.4834 927.1206 85.8306 Q926.5908 85.1777 926.5908 84.3096 Q926.5908 83.1406 927.4385 82.3853 Q928.2861 81.6299 929.5986 81.6299 Q930.7676 81.6299 932.0664 82.0195 L932.0664 83.332 Q930.4668 82.7031 929.6807 82.7031 Q928.9355 82.7031 928.4502 83.0996 Q927.9648 83.4961 927.9648 84.0977 Q927.9648 84.6035 928.3203 84.9932 Q928.6758 85.3828 929.6191 85.9229 L930.3438 86.333 Q931.6562 87.0781 932.1758 87.7412 Q932.6953 88.4043 932.6953 89.334 Q932.6953 90.6533 931.7212 91.4531 Q930.7471 92.2529 929.1406 92.2529 Z" style="fill:black; stroke:none;"
    /></g
    ><g ID="r-1:5" style="fill:white; text-rendering:optimizeSpeed; font-size:14px; stroke:white;"
    ><rect x="917" width="14" height="10" y="35" style="stroke:none;"
      /><path d="M919.4062 40.7568 Q920.3701 39.5059 921.833 39.5059 Q923.1592 39.5059 924.0034 40.3843 Q924.8477 41.2627 924.8477 42.6367 Q924.8477 44.2158 923.9009 45.2344 Q922.9541 46.2529 921.498 46.2529 Q919.8232 46.2529 918.8799 44.9062 Q917.9365 43.5596 917.9365 41.167 Q917.9365 38.5352 919.02 37.0791 Q920.1035 35.623 922.0723 35.623 Q922.9746 35.623 924.3281 36.0059 L924.3281 37.1816 Q922.8994 36.6348 921.9902 36.6348 Q919.4062 36.6348 919.4062 40.7568 ZM923.4941 42.9375 Q923.4941 41.7891 922.978 41.1328 Q922.4619 40.4766 921.5459 40.4766 Q920.6914 40.4766 920.0762 41.0508 Q919.4609 41.625 919.4609 42.4316 Q919.4609 43.7031 920.0454 44.4722 Q920.6299 45.2412 921.5938 45.2412 Q922.4619 45.2412 922.978 44.6157 Q923.4941 43.9902 923.4941 42.9375 ZM929.1406 46.2529 Q928.1221 46.2529 926.5361 45.8086 L926.5361 44.3867 Q928.2451 45.1797 929.3457 45.1797 Q930.1934 45.1797 930.7095 44.7354 Q931.2256 44.291 931.2256 43.5664 Q931.2256 42.9717 930.8872 42.5547 Q930.5488 42.1377 929.6396 41.625 L928.9424 41.2217 Q927.6504 40.4834 927.1206 39.8306 Q926.5908 39.1777 926.5908 38.3096 Q926.5908 37.1406 927.4385 36.3853 Q928.2861 35.6299 929.5986 35.6299 Q930.7676 35.6299 932.0664 36.0195 L932.0664 37.332 Q930.4668 36.7031 929.6807 36.7031 Q928.9355 36.7031 928.4502 37.0996 Q927.9648 37.4961 927.9648 38.0977 Q927.9648 38.6035 928.3203 38.9932 Q928.6758 39.3828 929.6191 39.9229 L930.3438 40.333 Q931.6562 41.0781 932.1758 41.7412 Q932.6953 42.4043 932.6953 43.334 Q932.6953 44.6533 931.7212 45.4531 Q930.7471 46.2529 929.1406 46.2529 Z" style="fill:black; stroke:none;"
    /></g
    ><g style="text-rendering:optimizeSpeed;" ID="l-1:3,6"
    ><polygon style="fill:none;" points=" 873 64 821 64"
    /></g
    ><g ID="r-1:3" style="fill:white; text-rendering:optimizeSpeed; stroke:white;"
    ><polygon style="stroke:none; clip-path:url(#clipPath2);" points=" 873 53 884 64 873 75 862 64"
      /><rect x="862" y="64" width="22" style="clip-path:url(#clipPath2); fill:rgb(161,122,77); stroke:none;" height="11"
      /><rect x="862" y="64" width="22" style="clip-path:url(#clipPath2); fill:none; stroke:black;" height="11"
      /><polygon style="fill:none; stroke:black;" points=" 873 53 884 64 873 75 862 64"
    /></g
    ><g ID="r-1:7" style="fill:white; text-rendering:optimizeSpeed; font-size:14px; stroke:white;"
    ><rect x="865" width="14" height="10" y="81" style="stroke:none;"
      /><path d="M866.1621 92 L866.1621 90.8174 Q866.75 89.4434 868.541 87.8232 L869.3135 87.1328 Q870.8037 85.7861 870.8037 84.46 Q870.8037 83.6123 870.2944 83.127 Q869.7852 82.6416 868.8965 82.6416 Q867.8438 82.6416 866.415 83.4551 L866.415 82.2656 Q867.7617 81.6299 869.0879 81.6299 Q870.5098 81.6299 871.3711 82.3955 Q872.2324 83.1611 872.2324 84.4258 Q872.2324 85.335 871.7983 86.0391 Q871.3643 86.7432 870.1816 87.748 L869.6621 88.1924 Q868.042 89.5664 867.7891 90.8174 L872.1846 90.8174 L872.1846 92 ZM877.1406 92.2529 Q876.1221 92.2529 874.5361 91.8086 L874.5361 90.3867 Q876.2451 91.1797 877.3457 91.1797 Q878.1934 91.1797 878.7095 90.7354 Q879.2256 90.291 879.2256 89.5664 Q879.2256 88.9717 878.8872 88.5547 Q878.5488 88.1377 877.6396 87.625 L876.9424 87.2217 Q875.6504 86.4834 875.1206 85.8306 Q874.5908 85.1777 874.5908 84.3096 Q874.5908 83.1406 875.4385 82.3853 Q876.2861 81.6299 877.5986 81.6299 Q878.7676 81.6299 880.0664 82.0195 L880.0664 83.332 Q878.4668 82.7031 877.6807 82.7031 Q876.9355 82.7031 876.4502 83.0996 Q875.9648 83.4961 875.9648 84.0977 Q875.9648 84.6035 876.3203 84.9932 Q876.6758 85.3828 877.6191 85.9229 L878.3438 86.333 Q879.6562 87.0781 880.1758 87.7412 Q880.6953 88.4043 880.6953 89.334 Q880.6953 90.6533 879.7212 91.4531 Q878.7471 92.2529 877.1406 92.2529 Z" style="fill:black; stroke:none;"
    /></g
    ><g style="text-rendering:optimizeSpeed;" ID="l-1:6,8"
    ><polygon style="fill:none;" points=" 821 64 769 64"
    /></g
    ><g ID="r-1:6" style="fill:white; text-rendering:optimizeSpeed; stroke:white;"
    ><rect x="810" y="53" width="22" style="clip-path:url(#clipPath3); stroke:none;" height="22"
      /><polygon style="fill:rgb(0,144,188); clip-path:url(#clipPath3); stroke:none;" points=" 810 53 832 53 832 75"
      /><polygon style="fill:none; clip-path:url(#clipPath3); stroke:black;" points=" 810 53 832 53 832 75"
      /><rect x="810" y="53" width="22" style="fill:none; stroke:black;" height="22"
    /></g
    ><g ID="r-1:9" style="fill:white; text-rendering:optimizeSpeed; font-size:14px; stroke:white;"
    ><rect x="813" width="14" height="10" y="81" style="stroke:none;"
      /><path d="M814.1621 92 L814.1621 90.8174 Q814.75 89.4434 816.541 87.8232 L817.3135 87.1328 Q818.8037 85.7861 818.8037 84.46 Q818.8037 83.6123 818.2944 83.127 Q817.7852 82.6416 816.8965 82.6416 Q815.8438 82.6416 814.415 83.4551 L814.415 82.2656 Q815.7617 81.6299 817.0879 81.6299 Q818.5098 81.6299 819.3711 82.3955 Q820.2324 83.1611 820.2324 84.4258 Q820.2324 85.335 819.7983 86.0391 Q819.3643 86.7432 818.1816 87.748 L817.6621 88.1924 Q816.042 89.5664 815.7891 90.8174 L820.1846 90.8174 L820.1846 92 ZM825.1406 92.2529 Q824.1221 92.2529 822.5361 91.8086 L822.5361 90.3867 Q824.2451 91.1797 825.3457 91.1797 Q826.1934 91.1797 826.7095 90.7354 Q827.2256 90.291 827.2256 89.5664 Q827.2256 88.9717 826.8872 88.5547 Q826.5488 88.1377 825.6396 87.625 L824.9424 87.2217 Q823.6504 86.4834 823.1206 85.8306 Q822.5908 85.1777 822.5908 84.3096 Q822.5908 83.1406 823.4385 82.3853 Q824.2861 81.6299 825.5986 81.6299 Q826.7676 81.6299 828.0664 82.0195 L828.0664 83.332 Q826.4668 82.7031 825.6807 82.7031 Q824.9355 82.7031 824.4502 83.0996 Q823.9648 83.4961 823.9648 84.0977 Q823.9648 84.6035 824.3203 84.9932 Q824.6758 85.3828 825.6191 85.9229 L826.3438 86.333 Q827.6562 87.0781 828.1758 87.7412 Q828.6953 88.4043 828.6953 89.334 Q828.6953 90.6533 827.7212 91.4531 Q826.7471 92.2529 825.1406 92.2529 Z" style="fill:black; stroke:none;"
    /></g
    ><g ID="r-1:10" style="fill:white; text-rendering:optimizeSpeed; font-size:14px; stroke:white;"
    ><rect x="813" width="14" height="10" y="35" style="stroke:none;"
      /><path d="M815.4062 40.7568 Q816.3701 39.5059 817.833 39.5059 Q819.1592 39.5059 820.0034 40.3843 Q820.8477 41.2627 820.8477 42.6367 Q820.8477 44.2158 819.9009 45.2344 Q818.9541 46.2529 817.498 46.2529 Q815.8232 46.2529 814.8799 44.9062 Q813.9365 43.5596 813.9365 41.167 Q813.9365 38.5352 815.02 37.0791 Q816.1035 35.623 818.0723 35.623 Q818.9746 35.623 820.3281 36.0059 L820.3281 37.1816 Q818.8994 36.6348 817.9902 36.6348 Q815.4062 36.6348 815.4062 40.7568 ZM819.4941 42.9375 Q819.4941 41.7891 818.978 41.1328 Q818.4619 40.4766 817.5459 40.4766 Q816.6914 40.4766 816.0762 41.0508 Q815.4609 41.625 815.4609 42.4316 Q815.4609 43.7031 816.0454 44.4722 Q816.6299 45.2412 817.5938 45.2412 Q818.4619 45.2412 818.978 44.6157 Q819.4941 43.9902 819.4941 42.9375 ZM825.1406 46.2529 Q824.1221 46.2529 822.5361 45.8086 L822.5361 44.3867 Q824.2451 45.1797 825.3457 45.1797 Q826.1934 45.1797 826.7095 44.7354 Q827.2256 44.291 827.2256 43.5664 Q827.2256 42.9717 826.8872 42.5547 Q826.5488 42.1377 825.6396 41.625 L824.9424 41.2217 Q823.6504 40.4834 823.1206 39.8306 Q822.5908 39.1777 822.5908 38.3096 Q822.5908 37.1406 823.4385 36.3853 Q824.2861 35.6299 825.5986 35.6299 Q826.7676 35.6299 828.0664 36.0195 L828.0664 37.332 Q826.4668 36.7031 825.6807 36.7031 Q824.9355 36.7031 824.4502 37.0996 Q823.9648 37.4961 823.9648 38.0977 Q823.9648 38.6035 824.3203 38.9932 Q824.6758 39.3828 825.6191 39.9229 L826.3438 40.333 Q827.6562 41.0781 828.1758 41.7412 Q828.6953 42.4043 828.6953 43.334 Q828.6953 44.6533 827.7212 45.4531 Q826.7471 46.2529 825.1406 46.2529 Z" style="fill:black; stroke:none;"
    /></g
    ><g style="text-rendering:optimizeSpeed;" ID="l-1:8,11"
    ><polygon style="fill:none;" points=" 769 64 717 64"
    /></g
    ><g ID="r-1:8" style="fill:white; text-rendering:optimizeSpeed; stroke:white;"
    ><polygon style="stroke:none; clip-path:url(#clipPath4);" points=" 769 53 780 64 769 75 758 64"
      /><rect x="758" y="64" width="22" style="clip-path:url(#clipPath4); fill:rgb(161,122,77); stroke:none;" height="11"
      /><rect x="758" y="64" width="22" style="clip-path:url(#clipPath4); fill:none; stroke:black;" height="11"
      /><polygon style="fill:none; stroke:black;" points=" 769 53 780 64 769 75 758 64"
    /></g
    ><g ID="r-1:12" style="fill:white; text-rendering:optimizeSpeed; font-size:14px; stroke:white;"
    ><rect x="761" width="14" height="10" y="81" style="stroke:none;"
      /><path d="M762.1621 92 L762.1621 90.8174 Q762.75 89.4434 764.541 87.8232 L765.3135 87.1328 Q766.8037 85.7861 766.8037 84.46 Q766.8037 83.6123 766.2944 83.127 Q765.7852 82.6416 764.8965 82.6416 Q763.8438 82.6416 762.415 83.4551 L762.415 82.2656 Q763.7617 81.6299 765.0879 81.6299 Q766.5098 81.6299 767.3711 82.3955 Q768.2324 83.1611 768.2324 84.4258 Q768.2324 85.335 767.7983 86.0391 Q767.3643 86.7432 766.1816 87.748 L765.6621 88.1924 Q764.042 89.5664 763.7891 90.8174 L768.1846 90.8174 L768.1846 92 ZM773.1406 92.2529 Q772.1221 92.2529 770.5361 91.8086 L770.5361 90.3867 Q772.2451 91.1797 773.3457 91.1797 Q774.1934 91.1797 774.7095 90.7354 Q775.2256 90.291 775.2256 89.5664 Q775.2256 88.9717 774.8872 88.5547 Q774.5488 88.1377 773.6396 87.625 L772.9424 87.2217 Q771.6504 86.4834 771.1206 85.8306 Q770.5908 85.1777 770.5908 84.3096 Q770.5908 83.1406 771.4385 82.3853 Q772.2861 81.6299 773.5986 81.6299 Q774.7676 81.6299 776.0664 82.0195 L776.0664 83.332 Q774.4668 82.7031 773.6807 82.7031 Q772.9355 82.7031 772.4502 83.0996 Q771.9648 83.4961 771.9648 84.0977 Q771.9648 84.6035 772.3203 84.9932 Q772.6758 85.3828 773.6191 85.9229 L774.3438 86.333 Q775.6562 87.0781 776.1758 87.7412 Q776.6953 88.4043 776.6953 89.334 Q776.6953 90.6533 775.7212 91.4531 Q774.7471 92.2529 773.1406 92.2529 Z" style="fill:black; stroke:none;"
    /></g
    ><g style="text-rendering:optimizeSpeed;" ID="l-1:11,13"
    ><polygon style="fill:none;" points=" 717 64 665 64"
    /></g
    ><g ID="r-1:11" style="fill:white; text-rendering:optimizeSpeed; stroke:white;"
    ><rect x="706" y="53" width="22" style="clip-path:url(#clipPath5); stroke:none;" height="22"
      /><polygon style="fill:rgb(0,144,188); clip-path:url(#clipPath5); stroke:none;" points=" 706 53 728 53 728 75"
      /><polygon style="fill:none; clip-path:url(#clipPath5); stroke:black;" points=" 706 53 728 53 728 75"
      /><rect x="706" y="53" width="22" style="fill:none; stroke:black;" height="22"
    /></g
    ><g ID="r-1:14" style="fill:white; text-rendering:optimizeSpeed; font-size:14px; stroke:white;"
    ><rect x="709" width="14" height="10" y="81" style="stroke:none;"
      /><path d="M710.1621 92 L710.1621 90.8174 Q710.75 89.4434 712.541 87.8232 L713.3135 87.1328 Q714.8037 85.7861 714.8037 84.46 Q714.8037 83.6123 714.2944 83.127 Q713.7852 82.6416 712.8965 82.6416 Q711.8438 82.6416 710.415 83.4551 L710.415 82.2656 Q711.7617 81.6299 713.0879 81.6299 Q714.5098 81.6299 715.3711 82.3955 Q716.2324 83.1611 716.2324 84.4258 Q716.2324 85.335 715.7983 86.0391 Q715.3643 86.7432 714.1816 87.748 L713.6621 88.1924 Q712.042 89.5664 711.7891 90.8174 L716.1846 90.8174 L716.1846 92 ZM721.1406 92.2529 Q720.1221 92.2529 718.5361 91.8086 L718.5361 90.3867 Q720.2451 91.1797 721.3457 91.1797 Q722.1934 91.1797 722.7095 90.7354 Q723.2256 90.291 723.2256 89.5664 Q723.2256 88.9717 722.8872 88.5547 Q722.5488 88.1377 721.6396 87.625 L720.9424 87.2217 Q719.6504 86.4834 719.1206 85.8306 Q718.5908 85.1777 718.5908 84.3096 Q718.5908 83.1406 719.4385 82.3853 Q720.2861 81.6299 721.5986 81.6299 Q722.7676 81.6299 724.0664 82.0195 L724.0664 83.332 Q722.4668 82.7031 721.6807 82.7031 Q720.9355 82.7031 720.4502 83.0996 Q719.9648 83.4961 719.9648 84.0977 Q719.9648 84.6035 720.3203 84.9932 Q720.6758 85.3828 721.6191 85.9229 L722.3438 86.333 Q723.6562 87.0781 724.1758 87.7412 Q724.6953 88.4043 724.6953 89.334 Q724.6953 90.6533 723.7212 91.4531 Q722.7471 92.2529 721.1406 92.2529 Z" style="fill:black; stroke:none;"
    /></g
    ><g ID="r-1:15" style="fill:white; text-rendering:optimizeSpeed; font-size:14px; stroke:white;"
    ><rect x="709" width="14" height="10" y="35" style="stroke:none;"
      /><path d="M711.4062 40.7568 Q712.3701 39.5059 713.833 39.5059 Q715.1592 39.5059 716.0034 40.3843 Q716.8477 41.2627 716.8477 42.6367 Q716.8477 44.2158 715.9009 45.2344 Q714.9541 46.2529 713.498 46.2529 Q711.8232 46.2529 710.8799 44.9062 Q709.9365 43.5596 709.9365 41.167 Q709.9365 38.5352 711.02 37.0791 Q712.1035 35.623 714.0723 35.623 Q714.9746 35.623 716.3281 36.0059 L716.3281 37.1816 Q714.8994 36.6348 713.9902 36.6348 Q711.4062 36.6348 711.4062 40.7568 ZM715.4941 42.9375 Q715.4941 41.7891 714.978 41.1328 Q714.4619 40.4766 713.5459 40.4766 Q712.6914 40.4766 712.0762 41.0508 Q711.4609 41.625 711.4609 42.4316 Q711.4609 43.7031 712.0454 44.4722 Q712.6299 45.2412 713.5938 45.2412 Q714.4619 45.2412 714.978 44.6157 Q715.4941 43.9902 715.4941 42.9375 ZM721.1406 46.2529 Q720.1221 46.2529 718.5361 45.8086 L718.5361 44.3867 Q720.2451 45.1797 721.3457 45.1797 Q722.1934 45.1797 722.7095 44.7354 Q723.2256 44.291 723.2256 43.5664 Q723.2256 42.9717 722.8872 42.5547 Q722.5488 42.1377 721.6396 41.625 L720.9424 41.2217 Q719.6504 40.4834 719.1206 39.8306 Q718.5908 39.1777 718.5908 38.3096 Q718.5908 37.1406 719.4385 36.3853 Q720.2861 35.6299 721.5986 35.6299 Q722.7676 35.6299 724.0664 36.0195 L724.0664 37.332 Q722.4668 36.7031 721.6807 36.7031 Q720.9355 36.7031 720.4502 37.0996 Q719.9648 37.4961 719.9648 38.0977 Q719.9648 38.6035 720.3203 38.9932 Q720.6758 39.3828 721.6191 39.9229 L722.3438 40.333 Q723.6562 41.0781 724.1758 41.7412 Q724.6953 42.4043 724.6953 43.334 Q724.6953 44.6533 723.7212 45.4531 Q722.7471 46.2529 721.1406 46.2529 Z" style="fill:black; stroke:none;"
    /></g
    ><g style="text-rendering:optimizeSpeed;" ID="l-1:13,16"
    ><polygon style="fill:none;" points=" 665 64 613 64"
    /></g
    ><g ID="r-1:13" style="fill:white; text-rendering:optimizeSpeed; stroke:white;"
    ><polygon style="stroke:none; clip-path:url(#clipPath6);" points=" 665 53 676 64 665 75 654 64"
      /><rect x="654" y="64" width="22" style="clip-path:url(#clipPath6); fill:rgb(161,122,77); stroke:none;" height="11"
      /><rect x="654" y="64" width="22" style="clip-path:url(#clipPath6); fill:none; stroke:black;" height="11"
      /><polygon style="fill:none; stroke:black;" points=" 665 53 676 64 665 75 654 64"
    /></g
    ><g ID="r-1:17" style="fill:white; text-rendering:optimizeSpeed; font-size:14px; stroke:white;"
    ><rect x="657" width="14" height="10" y="81" style="stroke:none;"
      /><path d="M658.1621 92 L658.1621 90.8174 Q658.75 89.4434 660.541 87.8232 L661.3135 87.1328 Q662.8037 85.7861 662.8037 84.46 Q662.8037 83.6123 662.2944 83.127 Q661.7852 82.6416 660.8965 82.6416 Q659.8438 82.6416 658.415 83.4551 L658.415 82.2656 Q659.7617 81.6299 661.0879 81.6299 Q662.5098 81.6299 663.3711 82.3955 Q664.2324 83.1611 664.2324 84.4258 Q664.2324 85.335 663.7983 86.0391 Q663.3643 86.7432 662.1816 87.748 L661.6621 88.1924 Q660.042 89.5664 659.7891 90.8174 L664.1846 90.8174 L664.1846 92 ZM669.1406 92.2529 Q668.1221 92.2529 666.5361 91.8086 L666.5361 90.3867 Q668.2451 91.1797 669.3457 91.1797 Q670.1934 91.1797 670.7095 90.7354 Q671.2256 90.291 671.2256 89.5664 Q671.2256 88.9717 670.8872 88.5547 Q670.5488 88.1377 669.6396 87.625 L668.9424 87.2217 Q667.6504 86.4834 667.1206 85.8306 Q666.5908 85.1777 666.5908 84.3096 Q666.5908 83.1406 667.4385 82.3853 Q668.2861 81.6299 669.5986 81.6299 Q670.7676 81.6299 672.0664 82.0195 L672.0664 83.332 Q670.4668 82.7031 669.6807 82.7031 Q668.9355 82.7031 668.4502 83.0996 Q667.9648 83.4961 667.9648 84.0977 Q667.9648 84.6035 668.3203 84.9932 Q668.6758 85.3828 669.6191 85.9229 L670.3438 86.333 Q671.6562 87.0781 672.1758 87.7412 Q672.6953 88.4043 672.6953 89.334 Q672.6953 90.6533 671.7212 91.4531 Q670.7471 92.2529 669.1406 92.2529 Z" style="fill:black; stroke:none;"
    /></g
    ><g style="text-rendering:optimizeSpeed;" ID="l-1:16,18"
    ><polygon style="fill:none;" points=" 613 64 561 64"
    /></g
    ><g ID="r-1:16" style="fill:white; text-rendering:optimizeSpeed; stroke:white;"
    ><rect x="602" y="53" width="22" style="clip-path:url(#clipPath7); stroke:none;" height="22"
      /><polygon style="fill:rgb(0,144,188); clip-path:url(#clipPath7); stroke:none;" points=" 602 53 624 53 624 75"
      /><polygon style="fill:none; clip-path:url(#clipPath7); stroke:black;" points=" 602 53 624 53 624 75"
      /><rect x="602" y="53" width="22" style="fill:none; stroke:black;" height="22"
    /></g
    ><g ID="r-1:19" style="fill:white; text-rendering:optimizeSpeed; font-size:14px; stroke:white;"
    ><rect x="605" width="14" height="10" y="81" style="stroke:none;"
      /><path d="M606.1621 92 L606.1621 90.8174 Q606.75 89.4434 608.541 87.8232 L609.3135 87.1328 Q610.8037 85.7861 610.8037 84.46 Q610.8037 83.6123 610.2944 83.127 Q609.7852 82.6416 608.8965 82.6416 Q607.8438 82.6416 606.415 83.4551 L606.415 82.2656 Q607.7617 81.6299 609.0879 81.6299 Q610.5098 81.6299 611.3711 82.3955 Q612.2324 83.1611 612.2324 84.4258 Q612.2324 85.335 611.7983 86.0391 Q611.3643 86.7432 610.1816 87.748 L609.6621 88.1924 Q608.042 89.5664 607.7891 90.8174 L612.1846 90.8174 L612.1846 92 ZM617.1406 92.2529 Q616.1221 92.2529 614.5361 91.8086 L614.5361 90.3867 Q616.2451 91.1797 617.3457 91.1797 Q618.1934 91.1797 618.7095 90.7354 Q619.2256 90.291 619.2256 89.5664 Q619.2256 88.9717 618.8872 88.5547 Q618.5488 88.1377 617.6396 87.625 L616.9424 87.2217 Q615.6504 86.4834 615.1206 85.8306 Q614.5908 85.1777 614.5908 84.3096 Q614.5908 83.1406 615.4385 82.3853 Q616.2861 81.6299 617.5986 81.6299 Q618.7676 81.6299 620.0664 82.0195 L620.0664 83.332 Q618.4668 82.7031 617.6807 82.7031 Q616.9355 82.7031 616.4502 83.0996 Q615.9648 83.4961 615.9648 84.0977 Q615.9648 84.6035 616.3203 84.9932 Q616.6758 85.3828 617.6191 85.9229 L618.3438 86.333 Q619.6562 87.0781 620.1758 87.7412 Q620.6953 88.4043 620.6953 89.334 Q620.6953 90.6533 619.7212 91.4531 Q618.7471 92.2529 617.1406 92.2529 Z" style="fill:black; stroke:none;"
    /></g
    ><g ID="r-1:20" style="fill:white; text-rendering:optimizeSpeed; font-size:14px; stroke:white;"
    ><rect x="605" width="14" height="10" y="35" style="stroke:none;"
      /><path d="M607.4062 40.7568 Q608.3701 39.5059 609.833 39.5059 Q611.1592 39.5059 612.0034 40.3843 Q612.8477 41.2627 612.8477 42.6367 Q612.8477 44.2158 611.9009 45.2344 Q610.9541 46.2529 609.498 46.2529 Q607.8232 46.2529 606.8799 44.9062 Q605.9365 43.5596 605.9365 41.167 Q605.9365 38.5352 607.02 37.0791 Q608.1035 35.623 610.0723 35.623 Q610.9746 35.623 612.3281 36.0059 L612.3281 37.1816 Q610.8994 36.6348 609.9902 36.6348 Q607.4062 36.6348 607.4062 40.7568 ZM611.4941 42.9375 Q611.4941 41.7891 610.978 41.1328 Q610.4619 40.4766 609.5459 40.4766 Q608.6914 40.4766 608.0762 41.0508 Q607.4609 41.625 607.4609 42.4316 Q607.4609 43.7031 608.0454 44.4722 Q608.6299 45.2412 609.5938 45.2412 Q610.4619 45.2412 610.978 44.6157 Q611.4941 43.9902 611.4941 42.9375 ZM617.1406 46.2529 Q616.1221 46.2529 614.5361 45.8086 L614.5361 44.3867 Q616.2451 45.1797 617.3457 45.1797 Q618.1934 45.1797 618.7095 44.7354 Q619.2256 44.291 619.2256 43.5664 Q619.2256 42.9717 618.8872 42.5547 Q618.5488 42.1377 617.6396 41.625 L616.9424 41.2217 Q615.6504 40.4834 615.1206 39.8306 Q614.5908 39.1777 614.5908 38.3096 Q614.5908 37.1406 615.4385 36.3853 Q616.2861 35.6299 617.5986 35.6299 Q618.7676 35.6299 620.0664 36.0195 L620.0664 37.332 Q618.4668 36.7031 617.6807 36.7031 Q616.9355 36.7031 616.4502 37.0996 Q615.9648 37.4961 615.9648 38.0977 Q615.9648 38.6035 616.3203 38.9932 Q616.6758 39.3828 617.6191 39.9229 L618.3438 40.333 Q619.6562 41.0781 620.1758 41.7412 Q620.6953 42.4043 620.6953 43.334 Q620.6953 44.6533 619.7212 45.4531 Q618.7471 46.2529 617.1406 46.2529 Z" style="fill:black; stroke:none;"
    /></g
    ><g style="text-rendering:optimizeSpeed;" ID="l-1:18,21"
    ><polygon style="fill:none;" points=" 561 64 509 64"
    /></g
    ><g ID="r-1:18" style="fill:white; text-rendering:optimizeSpeed; stroke:white;"
    ><polygon style="stroke:none; clip-path:url(#clipPath8);" points=" 561 53 572 64 561 75 550 64"
      /><rect x="550" y="64" width="22" style="clip-path:url(#clipPath8); fill:rgb(161,122,77); stroke:none;" height="11"
      /><rect x="550" y="64" width="22" style="clip-path:url(#clipPath8); fill:none; stroke:black;" height="11"
      /><polygon style="fill:none; stroke:black;" points=" 561 53 572 64 561 75 550 64"
    /></g
    ><g ID="r-1:22" style="fill:white; text-rendering:optimizeSpeed; font-size:14px; stroke:white;"
    ><rect x="553" width="14" height="10" y="81" style="stroke:none;"
      /><path d="M554.1621 92 L554.1621 90.8174 Q554.75 89.4434 556.541 87.8232 L557.3135 87.1328 Q558.8037 85.7861 558.8037 84.46 Q558.8037 83.6123 558.2944 83.127 Q557.7852 82.6416 556.8965 82.6416 Q555.8438 82.6416 554.415 83.4551 L554.415 82.2656 Q555.7617 81.6299 557.0879 81.6299 Q558.5098 81.6299 559.3711 82.3955 Q560.2324 83.1611 560.2324 84.4258 Q560.2324 85.335 559.7983 86.0391 Q559.3643 86.7432 558.1816 87.748 L557.6621 88.1924 Q556.042 89.5664 555.7891 90.8174 L560.1846 90.8174 L560.1846 92 ZM565.1406 92.2529 Q564.1221 92.2529 562.5361 91.8086 L562.5361 90.3867 Q564.2451 91.1797 565.3457 91.1797 Q566.1934 91.1797 566.7095 90.7354 Q567.2256 90.291 567.2256 89.5664 Q567.2256 88.9717 566.8872 88.5547 Q566.5488 88.1377 565.6396 87.625 L564.9424 87.2217 Q563.6504 86.4834 563.1206 85.8306 Q562.5908 85.1777 562.5908 84.3096 Q562.5908 83.1406 563.4385 82.3853 Q564.2861 81.6299 565.5986 81.6299 Q566.7676 81.6299 568.0664 82.0195 L568.0664 83.332 Q566.4668 82.7031 565.6807 82.7031 Q564.9355 82.7031 564.4502 83.0996 Q563.9648 83.4961 563.9648 84.0977 Q563.9648 84.6035 564.3203 84.9932 Q564.6758 85.3828 565.6191 85.9229 L566.3438 86.333 Q567.6562 87.0781 568.1758 87.7412 Q568.6953 88.4043 568.6953 89.334 Q568.6953 90.6533 567.7212 91.4531 Q566.7471 92.2529 565.1406 92.2529 Z" style="fill:black; stroke:none;"
    /></g
    ><g style="text-rendering:optimizeSpeed;" ID="l-1:21,23"
    ><polygon style="fill:none;" points=" 509 64 457 64"
    /></g
    ><g ID="r-1:21" style="fill:white; text-rendering:optimizeSpeed; stroke:white;"
    ><rect x="498" y="53" width="22" style="clip-path:url(#clipPath9); stroke:none;" height="22"
      /><polygon style="fill:rgb(0,144,188); clip-path:url(#clipPath9); stroke:none;" points=" 498 53 520 53 520 75"
      /><polygon style="fill:none; clip-path:url(#clipPath9); stroke:black;" points=" 498 53 520 53 520 75"
      /><rect x="498" y="53" width="22" style="fill:none; stroke:black;" height="22"
    /></g
    ><g ID="r-1:24" style="fill:white; text-rendering:optimizeSpeed; font-size:14px; stroke:white;"
    ><rect x="501" width="14" height="10" y="81" style="stroke:none;"
      /><path d="M502.1621 92 L502.1621 90.8174 Q502.75 89.4434 504.541 87.8232 L505.3135 87.1328 Q506.8037 85.7861 506.8037 84.46 Q506.8037 83.6123 506.2944 83.127 Q505.7852 82.6416 504.8965 82.6416 Q503.8438 82.6416 502.415 83.4551 L502.415 82.2656 Q503.7617 81.6299 505.0879 81.6299 Q506.5098 81.6299 507.3711 82.3955 Q508.2324 83.1611 508.2324 84.4258 Q508.2324 85.335 507.7983 86.0391 Q507.3643 86.7432 506.1816 87.748 L505.6621 88.1924 Q504.042 89.5664 503.7891 90.8174 L508.1846 90.8174 L508.1846 92 ZM513.1406 92.2529 Q512.1221 92.2529 510.5361 91.8086 L510.5361 90.3867 Q512.2451 91.1797 513.3457 91.1797 Q514.1934 91.1797 514.7095 90.7354 Q515.2256 90.291 515.2256 89.5664 Q515.2256 88.9717 514.8872 88.5547 Q514.5488 88.1377 513.6396 87.625 L512.9424 87.2217 Q511.6504 86.4834 511.1206 85.8306 Q510.5908 85.1777 510.5908 84.3096 Q510.5908 83.1406 511.4385 82.3853 Q512.2861 81.6299 513.5986 81.6299 Q514.7676 81.6299 516.0664 82.0195 L516.0664 83.332 Q514.4668 82.7031 513.6807 82.7031 Q512.9355 82.7031 512.4502 83.0996 Q511.9648 83.4961 511.9648 84.0977 Q511.9648 84.6035 512.3203 84.9932 Q512.6758 85.3828 513.6191 85.9229 L514.3438 86.333 Q515.6562 87.0781 516.1758 87.7412 Q516.6953 88.4043 516.6953 89.334 Q516.6953 90.6533 515.7212 91.4531 Q514.7471 92.2529 513.1406 92.2529 Z" style="fill:black; stroke:none;"
    /></g
    ><g ID="r-1:25" style="fill:white; text-rendering:optimizeSpeed; font-size:14px; stroke:white;"
    ><rect x="501" width="14" height="10" y="35" style="stroke:none;"
      /><path d="M503.4062 40.7568 Q504.3701 39.5059 505.833 39.5059 Q507.1592 39.5059 508.0034 40.3843 Q508.8477 41.2627 508.8477 42.6367 Q508.8477 44.2158 507.9009 45.2344 Q506.9541 46.2529 505.498 46.2529 Q503.8232 46.2529 502.8799 44.9062 Q501.9365 43.5596 501.9365 41.167 Q501.9365 38.5352 503.02 37.0791 Q504.1035 35.623 506.0723 35.623 Q506.9746 35.623 508.3281 36.0059 L508.3281 37.1816 Q506.8994 36.6348 505.9902 36.6348 Q503.4062 36.6348 503.4062 40.7568 ZM507.4941 42.9375 Q507.4941 41.7891 506.978 41.1328 Q506.4619 40.4766 505.5459 40.4766 Q504.6914 40.4766 504.0762 41.0508 Q503.4609 41.625 503.4609 42.4316 Q503.4609 43.7031 504.0454 44.4722 Q504.6299 45.2412 505.5938 45.2412 Q506.4619 45.2412 506.978 44.6157 Q507.4941 43.9902 507.4941 42.9375 ZM513.1406 46.2529 Q512.1221 46.2529 510.5361 45.8086 L510.5361 44.3867 Q512.2451 45.1797 513.3457 45.1797 Q514.1934 45.1797 514.7095 44.7354 Q515.2256 44.291 515.2256 43.5664 Q515.2256 42.9717 514.8872 42.5547 Q514.5488 42.1377 513.6396 41.625 L512.9424 41.2217 Q511.6504 40.4834 511.1206 39.8306 Q510.5908 39.1777 510.5908 38.3096 Q510.5908 37.1406 511.4385 36.3853 Q512.2861 35.6299 513.5986 35.6299 Q514.7676 35.6299 516.0664 36.0195 L516.0664 37.332 Q514.4668 36.7031 513.6807 36.7031 Q512.9355 36.7031 512.4502 37.0996 Q511.9648 37.4961 511.9648 38.0977 Q511.9648 38.6035 512.3203 38.9932 Q512.6758 39.3828 513.6191 39.9229 L514.3438 40.333 Q515.6562 41.0781 516.1758 41.7412 Q516.6953 42.4043 516.6953 43.334 Q516.6953 44.6533 515.7212 45.4531 Q514.7471 46.2529 513.1406 46.2529 Z" style="fill:black; stroke:none;"
    /></g
    ><g style="text-rendering:optimizeSpeed;" ID="l-1:23,26"
    ><polygon style="fill:none;" points=" 457 64 405 64"
    /></g
    ><g ID="r-1:23" style="fill:white; text-rendering:optimizeSpeed; stroke:white;"
    ><polygon style="stroke:none; clip-path:url(#clipPath10);" points=" 457 53 468 64 457 75 446 64"
      /><rect x="446" y="64" width="22" style="clip-path:url(#clipPath10); fill:rgb(161,122,77); stroke:none;" height="11"
      /><rect x="446" y="64" width="22" style="clip-path:url(#clipPath10); fill:none; stroke:black;" height="11"
      /><polygon style="fill:none; stroke:black;" points=" 457 53 468 64 457 75 446 64"
    /></g
    ><g ID="r-1:27" style="fill:white; text-rendering:optimizeSpeed; font-size:14px; stroke:white;"
    ><rect x="449" width="14" height="10" y="81" style="stroke:none;"
      /><path d="M450.1621 92 L450.1621 90.8174 Q450.75 89.4434 452.541 87.8232 L453.3135 87.1328 Q454.8037 85.7861 454.8037 84.46 Q454.8037 83.6123 454.2944 83.127 Q453.7852 82.6416 452.8965 82.6416 Q451.8438 82.6416 450.415 83.4551 L450.415 82.2656 Q451.7617 81.6299 453.0879 81.6299 Q454.5098 81.6299 455.3711 82.3955 Q456.2324 83.1611 456.2324 84.4258 Q456.2324 85.335 455.7983 86.0391 Q455.3643 86.7432 454.1816 87.748 L453.6621 88.1924 Q452.042 89.5664 451.7891 90.8174 L456.1846 90.8174 L456.1846 92 ZM461.1406 92.2529 Q460.1221 92.2529 458.5361 91.8086 L458.5361 90.3867 Q460.2451 91.1797 461.3457 91.1797 Q462.1934 91.1797 462.7095 90.7354 Q463.2256 90.291 463.2256 89.5664 Q463.2256 88.9717 462.8872 88.5547 Q462.5488 88.1377 461.6396 87.625 L460.9424 87.2217 Q459.6504 86.4834 459.1206 85.8306 Q458.5908 85.1777 458.5908 84.3096 Q458.5908 83.1406 459.4385 82.3853 Q460.2861 81.6299 461.5986 81.6299 Q462.7676 81.6299 464.0664 82.0195 L464.0664 83.332 Q462.4668 82.7031 461.6807 82.7031 Q460.9355 82.7031 460.4502 83.0996 Q459.9648 83.4961 459.9648 84.0977 Q459.9648 84.6035 460.3203 84.9932 Q460.6758 85.3828 461.6191 85.9229 L462.3438 86.333 Q463.6562 87.0781 464.1758 87.7412 Q464.6953 88.4043 464.6953 89.334 Q464.6953 90.6533 463.7212 91.4531 Q462.7471 92.2529 461.1406 92.2529 Z" style="fill:black; stroke:none;"
    /></g
    ><g style="text-rendering:optimizeSpeed;" ID="l-1:26,28"
    ><polygon style="fill:none;" points=" 405 64 353 64"
    /></g
    ><g ID="r-1:26" style="fill:white; text-rendering:optimizeSpeed; stroke:white;"
    ><rect x="394" y="53" width="22" style="clip-path:url(#clipPath11); stroke:none;" height="22"
      /><polygon style="fill:rgb(0,144,188); clip-path:url(#clipPath11); stroke:none;" points=" 394 53 416 53 416 75"
      /><polygon style="fill:none; clip-path:url(#clipPath11); stroke:black;" points=" 394 53 416 53 416 75"
      /><rect x="394" y="53" width="22" style="fill:none; stroke:black;" height="22"
    /></g
    ><g ID="r-1:29" style="fill:white; text-rendering:optimizeSpeed; font-size:14px; stroke:white;"
    ><rect x="397" width="14" height="10" y="81" style="stroke:none;"
      /><path d="M398.1621 92 L398.1621 90.8174 Q398.75 89.4434 400.541 87.8232 L401.3135 87.1328 Q402.8037 85.7861 402.8037 84.46 Q402.8037 83.6123 402.2944 83.127 Q401.7852 82.6416 400.8965 82.6416 Q399.8438 82.6416 398.415 83.4551 L398.415 82.2656 Q399.7617 81.6299 401.0879 81.6299 Q402.5098 81.6299 403.3711 82.3955 Q404.2324 83.1611 404.2324 84.4258 Q404.2324 85.335 403.7983 86.0391 Q403.3643 86.7432 402.1816 87.748 L401.6621 88.1924 Q400.042 89.5664 399.7891 90.8174 L404.1846 90.8174 L404.1846 92 ZM409.1406 92.2529 Q408.1221 92.2529 406.5361 91.8086 L406.5361 90.3867 Q408.2451 91.1797 409.3457 91.1797 Q410.1934 91.1797 410.7095 90.7354 Q411.2256 90.291 411.2256 89.5664 Q411.2256 88.9717 410.8872 88.5547 Q410.5488 88.1377 409.6396 87.625 L408.9424 87.2217 Q407.6504 86.4834 407.1206 85.8306 Q406.5908 85.1777 406.5908 84.3096 Q406.5908 83.1406 407.4385 82.3853 Q408.2861 81.6299 409.5986 81.6299 Q410.7676 81.6299 412.0664 82.0195 L412.0664 83.332 Q410.4668 82.7031 409.6807 82.7031 Q408.9355 82.7031 408.4502 83.0996 Q407.9648 83.4961 407.9648 84.0977 Q407.9648 84.6035 408.3203 84.9932 Q408.6758 85.3828 409.6191 85.9229 L410.3438 86.333 Q411.6562 87.0781 412.1758 87.7412 Q412.6953 88.4043 412.6953 89.334 Q412.6953 90.6533 411.7212 91.4531 Q410.7471 92.2529 409.1406 92.2529 Z" style="fill:black; stroke:none;"
    /></g
    ><g ID="r-1:30" style="fill:white; text-rendering:optimizeSpeed; font-size:14px; stroke:white;"
    ><rect x="397" width="14" height="10" y="35" style="stroke:none;"
      /><path d="M399.4062 40.7568 Q400.3701 39.5059 401.833 39.5059 Q403.1592 39.5059 404.0034 40.3843 Q404.8477 41.2627 404.8477 42.6367 Q404.8477 44.2158 403.9009 45.2344 Q402.9541 46.2529 401.498 46.2529 Q399.8232 46.2529 398.8799 44.9062 Q397.9365 43.5596 397.9365 41.167 Q397.9365 38.5352 399.02 37.0791 Q400.1035 35.623 402.0723 35.623 Q402.9746 35.623 404.3281 36.0059 L404.3281 37.1816 Q402.8994 36.6348 401.9902 36.6348 Q399.4062 36.6348 399.4062 40.7568 ZM403.4941 42.9375 Q403.4941 41.7891 402.978 41.1328 Q402.4619 40.4766 401.5459 40.4766 Q400.6914 40.4766 400.0762 41.0508 Q399.4609 41.625 399.4609 42.4316 Q399.4609 43.7031 400.0454 44.4722 Q400.6299 45.2412 401.5938 45.2412 Q402.4619 45.2412 402.978 44.6157 Q403.4941 43.9902 403.4941 42.9375 ZM409.1406 46.2529 Q408.1221 46.2529 406.5361 45.8086 L406.5361 44.3867 Q408.2451 45.1797 409.3457 45.1797 Q410.1934 45.1797 410.7095 44.7354 Q411.2256 44.291 411.2256 43.5664 Q411.2256 42.9717 410.8872 42.5547 Q410.5488 42.1377 409.6396 41.625 L408.9424 41.2217 Q407.6504 40.4834 407.1206 39.8306 Q406.5908 39.1777 406.5908 38.3096 Q406.5908 37.1406 407.4385 36.3853 Q408.2861 35.6299 409.5986 35.6299 Q410.7676 35.6299 412.0664 36.0195 L412.0664 37.332 Q410.4668 36.7031 409.6807 36.7031 Q408.9355 36.7031 408.4502 37.0996 Q407.9648 37.4961 407.9648 38.0977 Q407.9648 38.6035 408.3203 38.9932 Q408.6758 39.3828 409.6191 39.9229 L410.3438 40.333 Q411.6562 41.0781 412.1758 41.7412 Q412.6953 42.4043 412.6953 43.334 Q412.6953 44.6533 411.7212 45.4531 Q410.7471 46.2529 409.1406 46.2529 Z" style="fill:black; stroke:none;"
    /></g
    ><g style="text-rendering:optimizeSpeed;" ID="l-1:28,31"
    ><polygon style="fill:none;" points=" 353 64 301 64"
    /></g
    ><g ID="r-1:28" style="fill:white; text-rendering:optimizeSpeed; stroke:white;"
    ><polygon style="stroke:none; clip-path:url(#clipPath12);" points=" 353 53 364 64 353 75 342 64"
      /><rect x="342" y="64" width="22" style="clip-path:url(#clipPath12); fill:rgb(161,122,77); stroke:none;" height="11"
      /><rect x="342" y="64" width="22" style="clip-path:url(#clipPath12); fill:none; stroke:black;" height="11"
      /><polygon style="fill:none; stroke:black;" points=" 353 53 364 64 353 75 342 64"
    /></g
    ><g ID="r-1:32" style="fill:white; text-rendering:optimizeSpeed; font-size:14px; stroke:white;"
    ><rect x="345" width="14" height="10" y="81" style="stroke:none;"
      /><path d="M346.1621 92 L346.1621 90.8174 Q346.75 89.4434 348.541 87.8232 L349.3135 87.1328 Q350.8037 85.7861 350.8037 84.46 Q350.8037 83.6123 350.2944 83.127 Q349.7852 82.6416 348.8965 82.6416 Q347.8438 82.6416 346.415 83.4551 L346.415 82.2656 Q347.7617 81.6299 349.0879 81.6299 Q350.5098 81.6299 351.3711 82.3955 Q352.2324 83.1611 352.2324 84.4258 Q352.2324 85.335 351.7983 86.0391 Q351.3643 86.7432 350.1816 87.748 L349.6621 88.1924 Q348.042 89.5664 347.7891 90.8174 L352.1846 90.8174 L352.1846 92 ZM357.1406 92.2529 Q356.1221 92.2529 354.5361 91.8086 L354.5361 90.3867 Q356.2451 91.1797 357.3457 91.1797 Q358.1934 91.1797 358.7095 90.7354 Q359.2256 90.291 359.2256 89.5664 Q359.2256 88.9717 358.8872 88.5547 Q358.5488 88.1377 357.6396 87.625 L356.9424 87.2217 Q355.6504 86.4834 355.1206 85.8306 Q354.5908 85.1777 354.5908 84.3096 Q354.5908 83.1406 355.4385 82.3853 Q356.2861 81.6299 357.5986 81.6299 Q358.7676 81.6299 360.0664 82.0195 L360.0664 83.332 Q358.4668 82.7031 357.6807 82.7031 Q356.9355 82.7031 356.4502 83.0996 Q355.9648 83.4961 355.9648 84.0977 Q355.9648 84.6035 356.3203 84.9932 Q356.6758 85.3828 357.6191 85.9229 L358.3438 86.333 Q359.6562 87.0781 360.1758 87.7412 Q360.6953 88.4043 360.6953 89.334 Q360.6953 90.6533 359.7212 91.4531 Q358.7471 92.2529 357.1406 92.2529 Z" style="fill:black; stroke:none;"
    /></g
    ><g style="text-rendering:optimizeSpeed;" ID="l-1:31,33"
    ><polygon style="fill:none;" points=" 301 64 249 64"
    /></g
    ><g ID="r-1:31" style="fill:white; text-rendering:optimizeSpeed; stroke:white;"
    ><rect x="290" y="53" width="22" style="clip-path:url(#clipPath13); stroke:none;" height="22"
      /><polygon style="fill:rgb(0,144,188); clip-path:url(#clipPath13); stroke:none;" points=" 290 53 312 53 312 75"
      /><polygon style="fill:none; clip-path:url(#clipPath13); stroke:black;" points=" 290 53 312 53 312 75"
      /><rect x="290" y="53" width="22" style="fill:none; stroke:black;" height="22"
    /></g
    ><g ID="r-1:34" style="fill:white; text-rendering:optimizeSpeed; font-size:14px; stroke:white;"
    ><rect x="293" width="14" height="10" y="81" style="stroke:none;"
      /><path d="M294.1621 92 L294.1621 90.8174 Q294.75 89.4434 296.541 87.8232 L297.3135 87.1328 Q298.8037 85.7861 298.8037 84.46 Q298.8037 83.6123 298.2944 83.127 Q297.7852 82.6416 296.8965 82.6416 Q295.8438 82.6416 294.415 83.4551 L294.415 82.2656 Q295.7617 81.6299 297.0879 81.6299 Q298.5098 81.6299 299.3711 82.3955 Q300.2324 83.1611 300.2324 84.4258 Q300.2324 85.335 299.7983 86.0391 Q299.3643 86.7432 298.1816 87.748 L297.6621 88.1924 Q296.042 89.5664 295.7891 90.8174 L300.1846 90.8174 L300.1846 92 ZM305.1406 92.2529 Q304.1221 92.2529 302.5361 91.8086 L302.5361 90.3867 Q304.2451 91.1797 305.3457 91.1797 Q306.1934 91.1797 306.7095 90.7354 Q307.2256 90.291 307.2256 89.5664 Q307.2256 88.9717 306.8872 88.5547 Q306.5488 88.1377 305.6396 87.625 L304.9424 87.2217 Q303.6504 86.4834 303.1206 85.8306 Q302.5908 85.1777 302.5908 84.3096 Q302.5908 83.1406 303.4385 82.3853 Q304.2861 81.6299 305.5986 81.6299 Q306.7676 81.6299 308.0664 82.0195 L308.0664 83.332 Q306.4668 82.7031 305.6807 82.7031 Q304.9355 82.7031 304.4502 83.0996 Q303.9648 83.4961 303.9648 84.0977 Q303.9648 84.6035 304.3203 84.9932 Q304.6758 85.3828 305.6191 85.9229 L306.3438 86.333 Q307.6562 87.0781 308.1758 87.7412 Q308.6953 88.4043 308.6953 89.334 Q308.6953 90.6533 307.7212 91.4531 Q306.7471 92.2529 305.1406 92.2529 Z" style="fill:black; stroke:none;"
    /></g
    ><g ID="r-1:35" style="fill:white; text-rendering:optimizeSpeed; font-size:14px; stroke:white;"
    ><rect x="293" width="14" height="10" y="35" style="stroke:none;"
      /><path d="M295.4062 40.7568 Q296.3701 39.5059 297.833 39.5059 Q299.1592 39.5059 300.0034 40.3843 Q300.8477 41.2627 300.8477 42.6367 Q300.8477 44.2158 299.9009 45.2344 Q298.9541 46.2529 297.498 46.2529 Q295.8232 46.2529 294.8799 44.9062 Q293.9365 43.5596 293.9365 41.167 Q293.9365 38.5352 295.02 37.0791 Q296.1035 35.623 298.0723 35.623 Q298.9746 35.623 300.3281 36.0059 L300.3281 37.1816 Q298.8994 36.6348 297.9902 36.6348 Q295.4062 36.6348 295.4062 40.7568 ZM299.4941 42.9375 Q299.4941 41.7891 298.978 41.1328 Q298.4619 40.4766 297.5459 40.4766 Q296.6914 40.4766 296.0762 41.0508 Q295.4609 41.625 295.4609 42.4316 Q295.4609 43.7031 296.0454 44.4722 Q296.6299 45.2412 297.5938 45.2412 Q298.4619 45.2412 298.978 44.6157 Q299.4941 43.9902 299.4941 42.9375 ZM305.1406 46.2529 Q304.1221 46.2529 302.5361 45.8086 L302.5361 44.3867 Q304.2451 45.1797 305.3457 45.1797 Q306.1934 45.1797 306.7095 44.7354 Q307.2256 44.291 307.2256 43.5664 Q307.2256 42.9717 306.8872 42.5547 Q306.5488 42.1377 305.6396 41.625 L304.9424 41.2217 Q303.6504 40.4834 303.1206 39.8306 Q302.5908 39.1777 302.5908 38.3096 Q302.5908 37.1406 303.4385 36.3853 Q304.2861 35.6299 305.5986 35.6299 Q306.7676 35.6299 308.0664 36.0195 L308.0664 37.332 Q306.4668 36.7031 305.6807 36.7031 Q304.9355 36.7031 304.4502 37.0996 Q303.9648 37.4961 303.9648 38.0977 Q303.9648 38.6035 304.3203 38.9932 Q304.6758 39.3828 305.6191 39.9229 L306.3438 40.333 Q307.6562 41.0781 308.1758 41.7412 Q308.6953 42.4043 308.6953 43.334 Q308.6953 44.6533 307.7212 45.4531 Q306.7471 46.2529 305.1406 46.2529 Z" style="fill:black; stroke:none;"
    /></g
    ><g style="text-rendering:optimizeSpeed;" ID="l-1:33,36"
    ><polygon style="fill:none;" points=" 249 64 197 64"
    /></g
    ><g ID="r-1:33" style="fill:white; text-rendering:optimizeSpeed; stroke:white;"
    ><polygon style="stroke:none; clip-path:url(#clipPath14);" points=" 249 53 260 64 249 75 238 64"
      /><rect x="238" y="64" width="22" style="clip-path:url(#clipPath14); fill:rgb(161,122,77); stroke:none;" height="11"
      /><rect x="238" y="64" width="22" style="clip-path:url(#clipPath14); fill:none; stroke:black;" height="11"
      /><polygon style="fill:none; stroke:black;" points=" 249 53 260 64 249 75 238 64"
    /></g
    ><g ID="r-1:37" style="fill:white; text-rendering:optimizeSpeed; font-size:14px; stroke:white;"
    ><rect x="241" width="14" height="10" y="81" style="stroke:none;"
      /><path d="M242.1621 92 L242.1621 90.8174 Q242.75 89.4434 244.541 87.8232 L245.3135 87.1328 Q246.8037 85.7861 246.8037 84.46 Q246.8037 83.6123 246.2944 83.127 Q245.7852 82.6416 244.8965 82.6416 Q243.8438 82.6416 242.415 83.4551 L242.415 82.2656 Q243.7617 81.6299 245.0879 81.6299 Q246.5098 81.6299 247.3711 82.3955 Q248.2324 83.1611 248.2324 84.4258 Q248.2324 85.335 247.7983 86.0391 Q247.3643 86.7432 246.1816 87.748 L245.6621 88.1924 Q244.042 89.5664 243.7891 90.8174 L248.1846 90.8174 L248.1846 92 ZM253.1406 92.2529 Q252.1221 92.2529 250.5361 91.8086 L250.5361 90.3867 Q252.2451 91.1797 253.3457 91.1797 Q254.1934 91.1797 254.7095 90.7354 Q255.2256 90.291 255.2256 89.5664 Q255.2256 88.9717 254.8872 88.5547 Q254.5488 88.1377 253.6396 87.625 L252.9424 87.2217 Q251.6504 86.4834 251.1206 85.8306 Q250.5908 85.1777 250.5908 84.3096 Q250.5908 83.1406 251.4385 82.3853 Q252.2861 81.6299 253.5986 81.6299 Q254.7676 81.6299 256.0664 82.0195 L256.0664 83.332 Q254.4668 82.7031 253.6807 82.7031 Q252.9355 82.7031 252.4502 83.0996 Q251.9648 83.4961 251.9648 84.0977 Q251.9648 84.6035 252.3203 84.9932 Q252.6758 85.3828 253.6191 85.9229 L254.3438 86.333 Q255.6562 87.0781 256.1758 87.7412 Q256.6953 88.4043 256.6953 89.334 Q256.6953 90.6533 255.7212 91.4531 Q254.7471 92.2529 253.1406 92.2529 Z" style="fill:black; stroke:none;"
    /></g
    ><g style="text-rendering:optimizeSpeed;" ID="l-1:36,38"
    ><polygon style="fill:none;" points=" 197 64 145 64"
    /></g
    ><g ID="r-1:36" style="fill:white; text-rendering:optimizeSpeed; stroke:white;"
    ><rect x="186" y="53" width="22" style="clip-path:url(#clipPath15); stroke:none;" height="22"
      /><polygon style="fill:rgb(0,144,188); clip-path:url(#clipPath15); stroke:none;" points=" 186 53 208 53 208 75"
      /><polygon style="fill:none; clip-path:url(#clipPath15); stroke:black;" points=" 186 53 208 53 208 75"
      /><rect x="186" y="53" width="22" style="fill:none; stroke:black;" height="22"
    /></g
    ><g ID="r-1:39" style="fill:white; text-rendering:optimizeSpeed; font-size:14px; stroke:white;"
    ><rect x="189" width="14" height="10" y="81" style="stroke:none;"
      /><path d="M190.1621 92 L190.1621 90.8174 Q190.75 89.4434 192.541 87.8232 L193.3135 87.1328 Q194.8037 85.7861 194.8037 84.46 Q194.8037 83.6123 194.2944 83.127 Q193.7852 82.6416 192.8965 82.6416 Q191.8438 82.6416 190.415 83.4551 L190.415 82.2656 Q191.7617 81.6299 193.0879 81.6299 Q194.5098 81.6299 195.3711 82.3955 Q196.2324 83.1611 196.2324 84.4258 Q196.2324 85.335 195.7983 86.0391 Q195.3643 86.7432 194.1816 87.748 L193.6621 88.1924 Q192.042 89.5664 191.7891 90.8174 L196.1846 90.8174 L196.1846 92 ZM201.1406 92.2529 Q200.1221 92.2529 198.5361 91.8086 L198.5361 90.3867 Q200.2451 91.1797 201.3457 91.1797 Q202.1934 91.1797 202.7095 90.7354 Q203.2256 90.291 203.2256 89.5664 Q203.2256 88.9717 202.8872 88.5547 Q202.5488 88.1377 201.6396 87.625 L200.9424 87.2217 Q199.6504 86.4834 199.1206 85.8306 Q198.5908 85.1777 198.5908 84.3096 Q198.5908 83.1406 199.4385 82.3853 Q200.2861 81.6299 201.5986 81.6299 Q202.7676 81.6299 204.0664 82.0195 L204.0664 83.332 Q202.4668 82.7031 201.6807 82.7031 Q200.9355 82.7031 200.4502 83.0996 Q199.9648 83.4961 199.9648 84.0977 Q199.9648 84.6035 200.3203 84.9932 Q200.6758 85.3828 201.6191 85.9229 L202.3438 86.333 Q203.6562 87.0781 204.1758 87.7412 Q204.6953 88.4043 204.6953 89.334 Q204.6953 90.6533 203.7212 91.4531 Q202.7471 92.2529 201.1406 92.2529 Z" style="fill:black; stroke:none;"
    /></g
    ><g ID="r-1:40" style="fill:white; text-rendering:optimizeSpeed; font-size:14px; stroke:white;"
    ><rect x="189" width="14" height="10" y="35" style="stroke:none;"
      /><path d="M191.4062 40.7568 Q192.3701 39.5059 193.833 39.5059 Q195.1592 39.5059 196.0034 40.3843 Q196.8477 41.2627 196.8477 42.6367 Q196.8477 44.2158 195.9009 45.2344 Q194.9541 46.2529 193.498 46.2529 Q191.8232 46.2529 190.8799 44.9062 Q189.9365 43.5596 189.9365 41.167 Q189.9365 38.5352 191.02 37.0791 Q192.1035 35.623 194.0723 35.623 Q194.9746 35.623 196.3281 36.0059 L196.3281 37.1816 Q194.8994 36.6348 193.9902 36.6348 Q191.4062 36.6348 191.4062 40.7568 ZM195.4941 42.9375 Q195.4941 41.7891 194.978 41.1328 Q194.4619 40.4766 193.5459 40.4766 Q192.6914 40.4766 192.0762 41.0508 Q191.4609 41.625 191.4609 42.4316 Q191.4609 43.7031 192.0454 44.4722 Q192.6299 45.2412 193.5938 45.2412 Q194.4619 45.2412 194.978 44.6157 Q195.4941 43.9902 195.4941 42.9375 ZM201.1406 46.2529 Q200.1221 46.2529 198.5361 45.8086 L198.5361 44.3867 Q200.2451 45.1797 201.3457 45.1797 Q202.1934 45.1797 202.7095 44.7354 Q203.2256 44.291 203.2256 43.5664 Q203.2256 42.9717 202.8872 42.5547 Q202.5488 42.1377 201.6396 41.625 L200.9424 41.2217 Q199.6504 40.4834 199.1206 39.8306 Q198.5908 39.1777 198.5908 38.3096 Q198.5908 37.1406 199.4385 36.3853 Q200.2861 35.6299 201.5986 35.6299 Q202.7676 35.6299 204.0664 36.0195 L204.0664 37.332 Q202.4668 36.7031 201.6807 36.7031 Q200.9355 36.7031 200.4502 37.0996 Q199.9648 37.4961 199.9648 38.0977 Q199.9648 38.6035 200.3203 38.9932 Q200.6758 39.3828 201.6191 39.9229 L202.3438 40.333 Q203.6562 41.0781 204.1758 41.7412 Q204.6953 42.4043 204.6953 43.334 Q204.6953 44.6533 203.7212 45.4531 Q202.7471 46.2529 201.1406 46.2529 Z" style="fill:black; stroke:none;"
    /></g
    ><g style="text-rendering:optimizeSpeed;" ID="l-1:38,41"
    ><polygon style="fill:none;" points=" 145 64 93 64"
    /></g
    ><g ID="r-1:38" style="fill:white; text-rendering:optimizeSpeed; stroke:white;"
    ><polygon style="stroke:none; clip-path:url(#clipPath16);" points=" 145 53 156 64 145 75 134 64"
      /><rect x="134" y="64" width="22" style="clip-path:url(#clipPath16); fill:rgb(161,122,77); stroke:none;" height="11"
      /><rect x="134" y="64" width="22" style="clip-path:url(#clipPath16); fill:none; stroke:black;" height="11"
      /><polygon style="fill:none; stroke:black;" points=" 145 53 156 64 145 75 134 64"
    /></g
    ><g ID="r-1:42" style="fill:white; text-rendering:optimizeSpeed; font-size:14px; stroke:white;"
    ><rect x="137" width="14" height="10" y="81" style="stroke:none;"
      /><path d="M138.1621 92 L138.1621 90.8174 Q138.75 89.4434 140.541 87.8232 L141.3135 87.1328 Q142.8037 85.7861 142.8037 84.46 Q142.8037 83.6123 142.2944 83.127 Q141.7852 82.6416 140.8965 82.6416 Q139.8438 82.6416 138.415 83.4551 L138.415 82.2656 Q139.7617 81.6299 141.0879 81.6299 Q142.5098 81.6299 143.3711 82.3955 Q144.2324 83.1611 144.2324 84.4258 Q144.2324 85.335 143.7983 86.0391 Q143.3643 86.7432 142.1816 87.748 L141.6621 88.1924 Q140.042 89.5664 139.7891 90.8174 L144.1846 90.8174 L144.1846 92 ZM149.1406 92.2529 Q148.1221 92.2529 146.5361 91.8086 L146.5361 90.3867 Q148.2451 91.1797 149.3457 91.1797 Q150.1934 91.1797 150.7095 90.7354 Q151.2256 90.291 151.2256 89.5664 Q151.2256 88.9717 150.8872 88.5547 Q150.5488 88.1377 149.6396 87.625 L148.9424 87.2217 Q147.6504 86.4834 147.1206 85.8306 Q146.5908 85.1777 146.5908 84.3096 Q146.5908 83.1406 147.4385 82.3853 Q148.2861 81.6299 149.5986 81.6299 Q150.7676 81.6299 152.0664 82.0195 L152.0664 83.332 Q150.4668 82.7031 149.6807 82.7031 Q148.9355 82.7031 148.4502 83.0996 Q147.9648 83.4961 147.9648 84.0977 Q147.9648 84.6035 148.3203 84.9932 Q148.6758 85.3828 149.6191 85.9229 L150.3438 86.333 Q151.6562 87.0781 152.1758 87.7412 Q152.6953 88.4043 152.6953 89.334 Q152.6953 90.6533 151.7212 91.4531 Q150.7471 92.2529 149.1406 92.2529 Z" style="fill:black; stroke:none;"
    /></g
    ><g style="text-rendering:optimizeSpeed;" ID="l-1:41,43"
    ><polygon style="fill:none;" points=" 93 64 41 64"
    /></g
    ><g ID="r-1:41" style="fill:white; text-rendering:optimizeSpeed; stroke:white;"
    ><rect x="82" y="53" width="22" style="clip-path:url(#clipPath17); stroke:none;" height="22"
      /><polygon style="fill:rgb(0,144,188); clip-path:url(#clipPath17); stroke:none;" points=" 82 53 104 53 104 75"
      /><polygon style="fill:none; clip-path:url(#clipPath17); stroke:black;" points=" 82 53 104 53 104 75"
      /><rect x="82" y="53" width="22" style="fill:none; stroke:black;" height="22"
    /></g
    ><g ID="r-1:44" style="fill:white; text-rendering:optimizeSpeed; font-size:14px; stroke:white;"
    ><rect x="85" width="14" height="10" y="81" style="stroke:none;"
      /><path d="M86.1621 92 L86.1621 90.8174 Q86.75 89.4434 88.541 87.8232 L89.3135 87.1328 Q90.8037 85.7861 90.8037 84.46 Q90.8037 83.6123 90.2944 83.127 Q89.7852 82.6416 88.8965 82.6416 Q87.8438 82.6416 86.415 83.4551 L86.415 82.2656 Q87.7617 81.6299 89.0879 81.6299 Q90.5098 81.6299 91.3711 82.3955 Q92.2324 83.1611 92.2324 84.4258 Q92.2324 85.335 91.7983 86.0391 Q91.3643 86.7432 90.1816 87.748 L89.6621 88.1924 Q88.042 89.5664 87.7891 90.8174 L92.1846 90.8174 L92.1846 92 ZM97.1406 92.2529 Q96.1221 92.2529 94.5361 91.8086 L94.5361 90.3867 Q96.2451 91.1797 97.3457 91.1797 Q98.1934 91.1797 98.7095 90.7354 Q99.2256 90.291 99.2256 89.5664 Q99.2256 88.9717 98.8872 88.5547 Q98.5488 88.1377 97.6396 87.625 L96.9424 87.2217 Q95.6504 86.4834 95.1206 85.8306 Q94.5908 85.1777 94.5908 84.3096 Q94.5908 83.1406 95.4385 82.3853 Q96.2861 81.6299 97.5986 81.6299 Q98.7676 81.6299 100.0664 82.0195 L100.0664 83.332 Q98.4668 82.7031 97.6807 82.7031 Q96.9355 82.7031 96.4502 83.0996 Q95.9648 83.4961 95.9648 84.0977 Q95.9648 84.6035 96.3203 84.9932 Q96.6758 85.3828 97.6191 85.9229 L98.3438 86.333 Q99.6562 87.0781 100.1758 87.7412 Q100.6953 88.4043 100.6953 89.334 Q100.6953 90.6533 99.7212 91.4531 Q98.7471 92.2529 97.1406 92.2529 Z" style="fill:black; stroke:none;"
    /></g
    ><g ID="r-1:45" style="fill:white; text-rendering:optimizeSpeed; font-size:14px; stroke:white;"
    ><rect x="85" width="14" height="10" y="35" style="stroke:none;"
      /><path d="M87.4062 40.7568 Q88.3701 39.5059 89.833 39.5059 Q91.1592 39.5059 92.0034 40.3843 Q92.8477 41.2627 92.8477 42.6367 Q92.8477 44.2158 91.9009 45.2344 Q90.9541 46.2529 89.498 46.2529 Q87.8232 46.2529 86.8799 44.9062 Q85.9365 43.5596 85.9365 41.167 Q85.9365 38.5352 87.02 37.0791 Q88.1035 35.623 90.0723 35.623 Q90.9746 35.623 92.3281 36.0059 L92.3281 37.1816 Q90.8994 36.6348 89.9902 36.6348 Q87.4062 36.6348 87.4062 40.7568 ZM91.4941 42.9375 Q91.4941 41.7891 90.978 41.1328 Q90.4619 40.4766 89.5459 40.4766 Q88.6914 40.4766 88.0762 41.0508 Q87.4609 41.625 87.4609 42.4316 Q87.4609 43.7031 88.0454 44.4722 Q88.6299 45.2412 89.5938 45.2412 Q90.4619 45.2412 90.978 44.6157 Q91.4941 43.9902 91.4941 42.9375 ZM97.1406 46.2529 Q96.1221 46.2529 94.5361 45.8086 L94.5361 44.3867 Q96.2451 45.1797 97.3457 45.1797 Q98.1934 45.1797 98.7095 44.7354 Q99.2256 44.291 99.2256 43.5664 Q99.2256 42.9717 98.8872 42.5547 Q98.5488 42.1377 97.6396 41.625 L96.9424 41.2217 Q95.6504 40.4834 95.1206 39.8306 Q94.5908 39.1777 94.5908 38.3096 Q94.5908 37.1406 95.4385 36.3853 Q96.2861 35.6299 97.5986 35.6299 Q98.7676 35.6299 100.0664 36.0195 L100.0664 37.332 Q98.4668 36.7031 97.6807 36.7031 Q96.9355 36.7031 96.4502 37.0996 Q95.9648 37.4961 95.9648 38.0977 Q95.9648 38.6035 96.3203 38.9932 Q96.6758 39.3828 97.6191 39.9229 L98.3438 40.333 Q99.6562 41.0781 100.1758 41.7412 Q100.6953 42.4043 100.6953 43.334 Q100.6953 44.6533 99.7212 45.4531 Q98.7471 46.2529 97.1406 46.2529 Z" style="fill:black; stroke:none;"
    /></g
    ><g ID="r-1:43" style="fill:white; text-rendering:optimizeSpeed; stroke:white;"
    ><polygon style="stroke:none; clip-path:url(#clipPath18);" points=" 41 53 52 64 41 75 30 64"
      /><rect x="30" y="64" width="22" style="clip-path:url(#clipPath18); fill:rgb(161,122,77); stroke:none;" height="11"
      /><rect x="30" y="64" width="22" style="clip-path:url(#clipPath18); fill:none; stroke:black;" height="11"
      /><polygon style="fill:none; stroke:black;" points=" 41 53 52 64 41 75 30 64"
    /></g
    ><g ID="r-1:46" style="fill:white; text-rendering:optimizeSpeed; font-size:14px; stroke:white;"
    ><rect x="33" width="14" height="10" y="81" style="stroke:none;"
      /><path d="M34.1621 92 L34.1621 90.8174 Q34.75 89.4434 36.541 87.8232 L37.3135 87.1328 Q38.8037 85.7861 38.8037 84.46 Q38.8037 83.6123 38.2944 83.127 Q37.7852 82.6416 36.8965 82.6416 Q35.8438 82.6416 34.415 83.4551 L34.415 82.2656 Q35.7617 81.6299 37.0879 81.6299 Q38.5098 81.6299 39.3711 82.3955 Q40.2324 83.1611 40.2324 84.4258 Q40.2324 85.335 39.7983 86.0391 Q39.3643 86.7432 38.1816 87.748 L37.6621 88.1924 Q36.042 89.5664 35.7891 90.8174 L40.1846 90.8174 L40.1846 92 ZM45.1406 92.2529 Q44.1221 92.2529 42.5361 91.8086 L42.5361 90.3867 Q44.2451 91.1797 45.3457 91.1797 Q46.1934 91.1797 46.7095 90.7354 Q47.2256 90.291 47.2256 89.5664 Q47.2256 88.9717 46.8872 88.5547 Q46.5488 88.1377 45.6396 87.625 L44.9424 87.2217 Q43.6504 86.4834 43.1206 85.8306 Q42.5908 85.1777 42.5908 84.3096 Q42.5908 83.1406 43.4385 82.3853 Q44.2861 81.6299 45.5986 81.6299 Q46.7676 81.6299 48.0664 82.0195 L48.0664 83.332 Q46.4668 82.7031 45.6807 82.7031 Q44.9355 82.7031 44.4502 83.0996 Q43.9648 83.4961 43.9648 84.0977 Q43.9648 84.6035 44.3203 84.9932 Q44.6758 85.3828 45.6191 85.9229 L46.3438 86.333 Q47.6562 87.0781 48.1758 87.7412 Q48.6953 88.4043 48.6953 89.334 Q48.6953 90.6533 47.7212 91.4531 Q46.7471 92.2529 45.1406 92.2529 Z" style="fill:black; stroke:none;"
    /></g
    ><g ID="li-1:41,43" style="fill:white; text-rendering:optimizeSpeed; stroke:white;"
    ><rect x="70" width="7" height="9" y="67" style="stroke:none;"
      /><path d="M74.5176 76 L74.5176 73.5449 L70.6152 73.5449 L70.6152 72.6719 L74.5176 67.3281 L75.6016 67.3281 L75.6016 72.6016 L76.7617 72.6016 L76.7617 73.5449 L75.6016 73.5449 L75.6016 76 ZM71.7461 72.6016 L74.5938 72.6016 L74.5938 68.7461 Z" style="fill:black; stroke:none;"
      /><rect x="56" width="8" height="8" y="68" style="stroke:none;"
      /><path d="M61.7949 71.8047 Q62.2051 70.6855 62.416 69.6367 L63.4941 69.6367 Q63.1836 70.9727 62.2344 72.8125 L62.3516 73.0938 Q62.4277 73.2637 62.7148 73.873 Q62.8906 74.248 63.125 74.7637 Q63.4766 75.5664 63.6992 76 L62.4688 76 Q62.3984 75.8535 62.3867 75.8242 L62.123 75.2148 L61.8828 74.6523 L61.6895 74.2012 L61.5957 73.9844 Q61.0566 75.1797 60.5029 75.6631 Q59.9492 76.1465 59.123 76.1465 Q58.0566 76.1465 57.415 75.3115 Q56.7734 74.4766 56.7734 73.0879 Q56.7734 71.4648 57.5088 70.4775 Q58.2441 69.4902 59.457 69.4902 Q60.2656 69.4902 60.7461 69.9648 Q61.2266 70.4395 61.7949 71.8047 ZM61.2031 73.0469 L60.916 72.3965 Q60.3887 71.1895 60.0635 70.7764 Q59.7383 70.3633 59.3281 70.3633 Q58.748 70.3633 58.376 71.0781 Q58.0039 71.793 58.0039 72.9004 Q58.0039 73.9727 58.3525 74.626 Q58.7012 75.2793 59.2754 75.2793 Q59.7734 75.2793 60.1895 74.7988 Q60.6055 74.3184 61.2031 73.0469 Z" style="fill:black; stroke:none;"
    /></g
    ><g ID="li-1:38,41" style="fill:white; text-rendering:optimizeSpeed; stroke:white;"
    ><rect x="122" width="7" height="9" y="67" style="stroke:none;"
      /><path d="M126.5176 76 L126.5176 73.5449 L122.6152 73.5449 L122.6152 72.6719 L126.5176 67.3281 L127.6016 67.3281 L127.6016 72.6016 L128.7617 72.6016 L128.7617 73.5449 L127.6016 73.5449 L127.6016 76 ZM123.7461 72.6016 L126.5938 72.6016 L126.5938 68.7461 Z" style="fill:black; stroke:none;"
      /><rect x="108" width="8" height="8" y="68" style="stroke:none;"
      /><path d="M113.7949 71.8047 Q114.2051 70.6855 114.416 69.6367 L115.4941 69.6367 Q115.1836 70.9727 114.2344 72.8125 L114.3516 73.0938 Q114.4277 73.2637 114.7148 73.873 Q114.8906 74.248 115.125 74.7637 Q115.4766 75.5664 115.6992 76 L114.4688 76 Q114.3984 75.8535 114.3867 75.8242 L114.123 75.2148 L113.8828 74.6523 L113.6895 74.2012 L113.5957 73.9844 Q113.0566 75.1797 112.5029 75.6631 Q111.9492 76.1465 111.123 76.1465 Q110.0566 76.1465 109.415 75.3115 Q108.7734 74.4766 108.7734 73.0879 Q108.7734 71.4648 109.5088 70.4775 Q110.2441 69.4902 111.457 69.4902 Q112.2656 69.4902 112.7461 69.9648 Q113.2266 70.4395 113.7949 71.8047 ZM113.2031 73.0469 L112.916 72.3965 Q112.3887 71.1895 112.0635 70.7764 Q111.7383 70.3633 111.3281 70.3633 Q110.748 70.3633 110.376 71.0781 Q110.0039 71.793 110.0039 72.9004 Q110.0039 73.9727 110.3525 74.626 Q110.7012 75.2793 111.2754 75.2793 Q111.7734 75.2793 112.1895 74.7988 Q112.6055 74.3184 113.2031 73.0469 Z" style="fill:black; stroke:none;"
    /></g
    ><g ID="li-1:36,38" style="fill:white; text-rendering:optimizeSpeed; stroke:white;"
    ><rect x="174" width="7" height="9" y="67" style="stroke:none;"
      /><path d="M178.5176 76 L178.5176 73.5449 L174.6152 73.5449 L174.6152 72.6719 L178.5176 67.3281 L179.6016 67.3281 L179.6016 72.6016 L180.7617 72.6016 L180.7617 73.5449 L179.6016 73.5449 L179.6016 76 ZM175.7461 72.6016 L178.5938 72.6016 L178.5938 68.7461 Z" style="fill:black; stroke:none;"
      /><rect x="160" width="8" height="8" y="68" style="stroke:none;"
      /><path d="M165.7949 71.8047 Q166.2051 70.6855 166.416 69.6367 L167.4941 69.6367 Q167.1836 70.9727 166.2344 72.8125 L166.3516 73.0938 Q166.4277 73.2637 166.7148 73.873 Q166.8906 74.248 167.125 74.7637 Q167.4766 75.5664 167.6992 76 L166.4688 76 Q166.3984 75.8535 166.3867 75.8242 L166.123 75.2148 L165.8828 74.6523 L165.6895 74.2012 L165.5957 73.9844 Q165.0566 75.1797 164.5029 75.6631 Q163.9492 76.1465 163.123 76.1465 Q162.0566 76.1465 161.415 75.3115 Q160.7734 74.4766 160.7734 73.0879 Q160.7734 71.4648 161.5088 70.4775 Q162.2441 69.4902 163.457 69.4902 Q164.2656 69.4902 164.7461 69.9648 Q165.2266 70.4395 165.7949 71.8047 ZM165.2031 73.0469 L164.916 72.3965 Q164.3887 71.1895 164.0635 70.7764 Q163.7383 70.3633 163.3281 70.3633 Q162.748 70.3633 162.376 71.0781 Q162.0039 71.793 162.0039 72.9004 Q162.0039 73.9727 162.3525 74.626 Q162.7012 75.2793 163.2754 75.2793 Q163.7734 75.2793 164.1895 74.7988 Q164.6055 74.3184 165.2031 73.0469 Z" style="fill:black; stroke:none;"
    /></g
    ><g ID="li-1:33,36" style="fill:white; text-rendering:optimizeSpeed; stroke:white;"
    ><rect x="226" width="7" height="9" y="67" style="stroke:none;"
      /><path d="M230.5176 76 L230.5176 73.5449 L226.6152 73.5449 L226.6152 72.6719 L230.5176 67.3281 L231.6016 67.3281 L231.6016 72.6016 L232.7617 72.6016 L232.7617 73.5449 L231.6016 73.5449 L231.6016 76 ZM227.7461 72.6016 L230.5938 72.6016 L230.5938 68.7461 Z" style="fill:black; stroke:none;"
      /><rect x="212" width="8" height="8" y="68" style="stroke:none;"
      /><path d="M217.7949 71.8047 Q218.2051 70.6855 218.416 69.6367 L219.4941 69.6367 Q219.1836 70.9727 218.2344 72.8125 L218.3516 73.0938 Q218.4277 73.2637 218.7148 73.873 Q218.8906 74.248 219.125 74.7637 Q219.4766 75.5664 219.6992 76 L218.4688 76 Q218.3984 75.8535 218.3867 75.8242 L218.123 75.2148 L217.8828 74.6523 L217.6895 74.2012 L217.5957 73.9844 Q217.0566 75.1797 216.5029 75.6631 Q215.9492 76.1465 215.123 76.1465 Q214.0566 76.1465 213.415 75.3115 Q212.7734 74.4766 212.7734 73.0879 Q212.7734 71.4648 213.5088 70.4775 Q214.2441 69.4902 215.457 69.4902 Q216.2656 69.4902 216.7461 69.9648 Q217.2266 70.4395 217.7949 71.8047 ZM217.2031 73.0469 L216.916 72.3965 Q216.3887 71.1895 216.0635 70.7764 Q215.7383 70.3633 215.3281 70.3633 Q214.748 70.3633 214.376 71.0781 Q214.0039 71.793 214.0039 72.9004 Q214.0039 73.9727 214.3525 74.626 Q214.7012 75.2793 215.2754 75.2793 Q215.7734 75.2793 216.1895 74.7988 Q216.6055 74.3184 217.2031 73.0469 Z" style="fill:black; stroke:none;"
    /></g
    ><g ID="li-1:31,33" style="fill:white; text-rendering:optimizeSpeed; stroke:white;"
    ><rect x="278" width="7" height="9" y="67" style="stroke:none;"
      /><path d="M282.5176 76 L282.5176 73.5449 L278.6152 73.5449 L278.6152 72.6719 L282.5176 67.3281 L283.6016 67.3281 L283.6016 72.6016 L284.7617 72.6016 L284.7617 73.5449 L283.6016 73.5449 L283.6016 76 ZM279.7461 72.6016 L282.5938 72.6016 L282.5938 68.7461 Z" style="fill:black; stroke:none;"
      /><rect x="264" width="8" height="8" y="68" style="stroke:none;"
      /><path d="M269.7949 71.8047 Q270.2051 70.6855 270.416 69.6367 L271.4941 69.6367 Q271.1836 70.9727 270.2344 72.8125 L270.3516 73.0938 Q270.4277 73.2637 270.7148 73.873 Q270.8906 74.248 271.125 74.7637 Q271.4766 75.5664 271.6992 76 L270.4688 76 Q270.3984 75.8535 270.3867 75.8242 L270.123 75.2148 L269.8828 74.6523 L269.6895 74.2012 L269.5957 73.9844 Q269.0566 75.1797 268.5029 75.6631 Q267.9492 76.1465 267.123 76.1465 Q266.0566 76.1465 265.415 75.3115 Q264.7734 74.4766 264.7734 73.0879 Q264.7734 71.4648 265.5088 70.4775 Q266.2441 69.4902 267.457 69.4902 Q268.2656 69.4902 268.7461 69.9648 Q269.2266 70.4395 269.7949 71.8047 ZM269.2031 73.0469 L268.916 72.3965 Q268.3887 71.1895 268.0635 70.7764 Q267.7383 70.3633 267.3281 70.3633 Q266.748 70.3633 266.376 71.0781 Q266.0039 71.793 266.0039 72.9004 Q266.0039 73.9727 266.3525 74.626 Q266.7012 75.2793 267.2754 75.2793 Q267.7734 75.2793 268.1895 74.7988 Q268.6055 74.3184 269.2031 73.0469 Z" style="fill:black; stroke:none;"
    /></g
    ><g ID="li-1:28,31" style="fill:white; text-rendering:optimizeSpeed; stroke:white;"
    ><rect x="330" width="7" height="9" y="67" style="stroke:none;"
      /><path d="M334.5176 76 L334.5176 73.5449 L330.6152 73.5449 L330.6152 72.6719 L334.5176 67.3281 L335.6016 67.3281 L335.6016 72.6016 L336.7617 72.6016 L336.7617 73.5449 L335.6016 73.5449 L335.6016 76 ZM331.7461 72.6016 L334.5938 72.6016 L334.5938 68.7461 Z" style="fill:black; stroke:none;"
      /><rect x="316" width="8" height="8" y="68" style="stroke:none;"
      /><path d="M321.7949 71.8047 Q322.2051 70.6855 322.416 69.6367 L323.4941 69.6367 Q323.1836 70.9727 322.2344 72.8125 L322.3516 73.0938 Q322.4277 73.2637 322.7148 73.873 Q322.8906 74.248 323.125 74.7637 Q323.4766 75.5664 323.6992 76 L322.4688 76 Q322.3984 75.8535 322.3867 75.8242 L322.123 75.2148 L321.8828 74.6523 L321.6895 74.2012 L321.5957 73.9844 Q321.0566 75.1797 320.5029 75.6631 Q319.9492 76.1465 319.123 76.1465 Q318.0566 76.1465 317.415 75.3115 Q316.7734 74.4766 316.7734 73.0879 Q316.7734 71.4648 317.5088 70.4775 Q318.2441 69.4902 319.457 69.4902 Q320.2656 69.4902 320.7461 69.9648 Q321.2266 70.4395 321.7949 71.8047 ZM321.2031 73.0469 L320.916 72.3965 Q320.3887 71.1895 320.0635 70.7764 Q319.7383 70.3633 319.3281 70.3633 Q318.748 70.3633 318.376 71.0781 Q318.0039 71.793 318.0039 72.9004 Q318.0039 73.9727 318.3525 74.626 Q318.7012 75.2793 319.2754 75.2793 Q319.7734 75.2793 320.1895 74.7988 Q320.6055 74.3184 321.2031 73.0469 Z" style="fill:black; stroke:none;"
    /></g
    ><g ID="li-1:26,28" style="fill:white; text-rendering:optimizeSpeed; stroke:white;"
    ><rect x="382" width="7" height="9" y="67" style="stroke:none;"
      /><path d="M386.5176 76 L386.5176 73.5449 L382.6152 73.5449 L382.6152 72.6719 L386.5176 67.3281 L387.6016 67.3281 L387.6016 72.6016 L388.7617 72.6016 L388.7617 73.5449 L387.6016 73.5449 L387.6016 76 ZM383.7461 72.6016 L386.5938 72.6016 L386.5938 68.7461 Z" style="fill:black; stroke:none;"
      /><rect x="368" width="8" height="8" y="68" style="stroke:none;"
      /><path d="M373.7949 71.8047 Q374.2051 70.6855 374.416 69.6367 L375.4941 69.6367 Q375.1836 70.9727 374.2344 72.8125 L374.3516 73.0938 Q374.4277 73.2637 374.7148 73.873 Q374.8906 74.248 375.125 74.7637 Q375.4766 75.5664 375.6992 76 L374.4688 76 Q374.3984 75.8535 374.3867 75.8242 L374.123 75.2148 L373.8828 74.6523 L373.6895 74.2012 L373.5957 73.9844 Q373.0566 75.1797 372.5029 75.6631 Q371.9492 76.1465 371.123 76.1465 Q370.0566 76.1465 369.415 75.3115 Q368.7734 74.4766 368.7734 73.0879 Q368.7734 71.4648 369.5088 70.4775 Q370.2441 69.4902 371.457 69.4902 Q372.2656 69.4902 372.7461 69.9648 Q373.2266 70.4395 373.7949 71.8047 ZM373.2031 73.0469 L372.916 72.3965 Q372.3887 71.1895 372.0635 70.7764 Q371.7383 70.3633 371.3281 70.3633 Q370.748 70.3633 370.376 71.0781 Q370.0039 71.793 370.0039 72.9004 Q370.0039 73.9727 370.3525 74.626 Q370.7012 75.2793 371.2754 75.2793 Q371.7734 75.2793 372.1895 74.7988 Q372.6055 74.3184 373.2031 73.0469 Z" style="fill:black; stroke:none;"
    /></g
    ><g ID="li-1:23,26" style="fill:white; text-rendering:optimizeSpeed; stroke:white;"
    ><rect x="434" width="7" height="9" y="67" style="stroke:none;"
      /><path d="M438.5176 76 L438.5176 73.5449 L434.6152 73.5449 L434.6152 72.6719 L438.5176 67.3281 L439.6016 67.3281 L439.6016 72.6016 L440.7617 72.6016 L440.7617 73.5449 L439.6016 73.5449 L439.6016 76 ZM435.7461 72.6016 L438.5938 72.6016 L438.5938 68.7461 Z" style="fill:black; stroke:none;"
      /><rect x="420" width="8" height="8" y="68" style="stroke:none;"
      /><path d="M425.7949 71.8047 Q426.2051 70.6855 426.416 69.6367 L427.4941 69.6367 Q427.1836 70.9727 426.2344 72.8125 L426.3516 73.0938 Q426.4277 73.2637 426.7148 73.873 Q426.8906 74.248 427.125 74.7637 Q427.4766 75.5664 427.6992 76 L426.4688 76 Q426.3984 75.8535 426.3867 75.8242 L426.123 75.2148 L425.8828 74.6523 L425.6895 74.2012 L425.5957 73.9844 Q425.0566 75.1797 424.5029 75.6631 Q423.9492 76.1465 423.123 76.1465 Q422.0566 76.1465 421.415 75.3115 Q420.7734 74.4766 420.7734 73.0879 Q420.7734 71.4648 421.5088 70.4775 Q422.2441 69.4902 423.457 69.4902 Q424.2656 69.4902 424.7461 69.9648 Q425.2266 70.4395 425.7949 71.8047 ZM425.2031 73.0469 L424.916 72.3965 Q424.3887 71.1895 424.0635 70.7764 Q423.7383 70.3633 423.3281 70.3633 Q422.748 70.3633 422.376 71.0781 Q422.0039 71.793 422.0039 72.9004 Q422.0039 73.9727 422.3525 74.626 Q422.7012 75.2793 423.2754 75.2793 Q423.7734 75.2793 424.1895 74.7988 Q424.6055 74.3184 425.2031 73.0469 Z" style="fill:black; stroke:none;"
    /></g
    ><g ID="li-1:21,23" style="fill:white; text-rendering:optimizeSpeed; stroke:white;"
    ><rect x="486" width="7" height="9" y="67" style="stroke:none;"
      /><path d="M490.5176 76 L490.5176 73.5449 L486.6152 73.5449 L486.6152 72.6719 L490.5176 67.3281 L491.6016 67.3281 L491.6016 72.6016 L492.7617 72.6016 L492.7617 73.5449 L491.6016 73.5449 L491.6016 76 ZM487.7461 72.6016 L490.5938 72.6016 L490.5938 68.7461 Z" style="fill:black; stroke:none;"
      /><rect x="472" width="8" height="8" y="68" style="stroke:none;"
      /><path d="M477.7949 71.8047 Q478.2051 70.6855 478.416 69.6367 L479.4941 69.6367 Q479.1836 70.9727 478.2344 72.8125 L478.3516 73.0938 Q478.4277 73.2637 478.7148 73.873 Q478.8906 74.248 479.125 74.7637 Q479.4766 75.5664 479.6992 76 L478.4688 76 Q478.3984 75.8535 478.3867 75.8242 L478.123 75.2148 L477.8828 74.6523 L477.6895 74.2012 L477.5957 73.9844 Q477.0566 75.1797 476.5029 75.6631 Q475.9492 76.1465 475.123 76.1465 Q474.0566 76.1465 473.415 75.3115 Q472.7734 74.4766 472.7734 73.0879 Q472.7734 71.4648 473.5088 70.4775 Q474.2441 69.4902 475.457 69.4902 Q476.2656 69.4902 476.7461 69.9648 Q477.2266 70.4395 477.7949 71.8047 ZM477.2031 73.0469 L476.916 72.3965 Q476.3887 71.1895 476.0635 70.7764 Q475.7383 70.3633 475.3281 70.3633 Q474.748 70.3633 474.376 71.0781 Q474.0039 71.793 474.0039 72.9004 Q474.0039 73.9727 474.3525 74.626 Q474.7012 75.2793 475.2754 75.2793 Q475.7734 75.2793 476.1895 74.7988 Q476.6055 74.3184 477.2031 73.0469 Z" style="fill:black; stroke:none;"
    /></g
    ><g ID="li-1:18,21" style="fill:white; text-rendering:optimizeSpeed; stroke:white;"
    ><rect x="538" width="7" height="9" y="67" style="stroke:none;"
      /><path d="M542.5176 76 L542.5176 73.5449 L538.6152 73.5449 L538.6152 72.6719 L542.5176 67.3281 L543.6016 67.3281 L543.6016 72.6016 L544.7617 72.6016 L544.7617 73.5449 L543.6016 73.5449 L543.6016 76 ZM539.7461 72.6016 L542.5938 72.6016 L542.5938 68.7461 Z" style="fill:black; stroke:none;"
      /><rect x="524" width="8" height="8" y="68" style="stroke:none;"
      /><path d="M529.7949 71.8047 Q530.2051 70.6855 530.416 69.6367 L531.4941 69.6367 Q531.1836 70.9727 530.2344 72.8125 L530.3516 73.0938 Q530.4277 73.2637 530.7148 73.873 Q530.8906 74.248 531.125 74.7637 Q531.4766 75.5664 531.6992 76 L530.4688 76 Q530.3984 75.8535 530.3867 75.8242 L530.123 75.2148 L529.8828 74.6523 L529.6895 74.2012 L529.5957 73.9844 Q529.0566 75.1797 528.5029 75.6631 Q527.9492 76.1465 527.123 76.1465 Q526.0566 76.1465 525.415 75.3115 Q524.7734 74.4766 524.7734 73.0879 Q524.7734 71.4648 525.5088 70.4775 Q526.2441 69.4902 527.457 69.4902 Q528.2656 69.4902 528.7461 69.9648 Q529.2266 70.4395 529.7949 71.8047 ZM529.2031 73.0469 L528.916 72.3965 Q528.3887 71.1895 528.0635 70.7764 Q527.7383 70.3633 527.3281 70.3633 Q526.748 70.3633 526.376 71.0781 Q526.0039 71.793 526.0039 72.9004 Q526.0039 73.9727 526.3525 74.626 Q526.7012 75.2793 527.2754 75.2793 Q527.7734 75.2793 528.1895 74.7988 Q528.6055 74.3184 529.2031 73.0469 Z" style="fill:black; stroke:none;"
    /></g
    ><g ID="li-1:16,18" style="fill:white; text-rendering:optimizeSpeed; stroke:white;"
    ><rect x="590" width="7" height="9" y="67" style="stroke:none;"
      /><path d="M594.5176 76 L594.5176 73.5449 L590.6152 73.5449 L590.6152 72.6719 L594.5176 67.3281 L595.6016 67.3281 L595.6016 72.6016 L596.7617 72.6016 L596.7617 73.5449 L595.6016 73.5449 L595.6016 76 ZM591.7461 72.6016 L594.5938 72.6016 L594.5938 68.7461 Z" style="fill:black; stroke:none;"
      /><rect x="576" width="8" height="8" y="68" style="stroke:none;"
      /><path d="M581.7949 71.8047 Q582.2051 70.6855 582.416 69.6367 L583.4941 69.6367 Q583.1836 70.9727 582.2344 72.8125 L582.3516 73.0938 Q582.4277 73.2637 582.7148 73.873 Q582.8906 74.248 583.125 74.7637 Q583.4766 75.5664 583.6992 76 L582.4688 76 Q582.3984 75.8535 582.3867 75.8242 L582.123 75.2148 L581.8828 74.6523 L581.6895 74.2012 L581.5957 73.9844 Q581.0566 75.1797 580.5029 75.6631 Q579.9492 76.1465 579.123 76.1465 Q578.0566 76.1465 577.415 75.3115 Q576.7734 74.4766 576.7734 73.0879 Q576.7734 71.4648 577.5088 70.4775 Q578.2441 69.4902 579.457 69.4902 Q580.2656 69.4902 580.7461 69.9648 Q581.2266 70.4395 581.7949 71.8047 ZM581.2031 73.0469 L580.916 72.3965 Q580.3887 71.1895 580.0635 70.7764 Q579.7383 70.3633 579.3281 70.3633 Q578.748 70.3633 578.376 71.0781 Q578.0039 71.793 578.0039 72.9004 Q578.0039 73.9727 578.3525 74.626 Q578.7012 75.2793 579.2754 75.2793 Q579.7734 75.2793 580.1895 74.7988 Q580.6055 74.3184 581.2031 73.0469 Z" style="fill:black; stroke:none;"
    /></g
    ><g ID="li-1:13,16" style="fill:white; text-rendering:optimizeSpeed; stroke:white;"
    ><rect x="642" width="7" height="9" y="67" style="stroke:none;"
      /><path d="M646.5176 76 L646.5176 73.5449 L642.6152 73.5449 L642.6152 72.6719 L646.5176 67.3281 L647.6016 67.3281 L647.6016 72.6016 L648.7617 72.6016 L648.7617 73.5449 L647.6016 73.5449 L647.6016 76 ZM643.7461 72.6016 L646.5938 72.6016 L646.5938 68.7461 Z" style="fill:black; stroke:none;"
      /><rect x="628" width="8" height="8" y="68" style="stroke:none;"
      /><path d="M633.7949 71.8047 Q634.2051 70.6855 634.416 69.6367 L635.4941 69.6367 Q635.1836 70.9727 634.2344 72.8125 L634.3516 73.0938 Q634.4277 73.2637 634.7148 73.873 Q634.8906 74.248 635.125 74.7637 Q635.4766 75.5664 635.6992 76 L634.4688 76 Q634.3984 75.8535 634.3867 75.8242 L634.123 75.2148 L633.8828 74.6523 L633.6895 74.2012 L633.5957 73.9844 Q633.0566 75.1797 632.5029 75.6631 Q631.9492 76.1465 631.123 76.1465 Q630.0566 76.1465 629.415 75.3115 Q628.7734 74.4766 628.7734 73.0879 Q628.7734 71.4648 629.5088 70.4775 Q630.2441 69.4902 631.457 69.4902 Q632.2656 69.4902 632.7461 69.9648 Q633.2266 70.4395 633.7949 71.8047 ZM633.2031 73.0469 L632.916 72.3965 Q632.3887 71.1895 632.0635 70.7764 Q631.7383 70.3633 631.3281 70.3633 Q630.748 70.3633 630.376 71.0781 Q630.0039 71.793 630.0039 72.9004 Q630.0039 73.9727 630.3525 74.626 Q630.7012 75.2793 631.2754 75.2793 Q631.7734 75.2793 632.1895 74.7988 Q632.6055 74.3184 633.2031 73.0469 Z" style="fill:black; stroke:none;"
    /></g
    ><g ID="li-1:11,13" style="fill:white; text-rendering:optimizeSpeed; stroke:white;"
    ><rect x="694" width="7" height="9" y="67" style="stroke:none;"
      /><path d="M698.5176 76 L698.5176 73.5449 L694.6152 73.5449 L694.6152 72.6719 L698.5176 67.3281 L699.6016 67.3281 L699.6016 72.6016 L700.7617 72.6016 L700.7617 73.5449 L699.6016 73.5449 L699.6016 76 ZM695.7461 72.6016 L698.5938 72.6016 L698.5938 68.7461 Z" style="fill:black; stroke:none;"
      /><rect x="680" width="8" height="8" y="68" style="stroke:none;"
      /><path d="M685.7949 71.8047 Q686.2051 70.6855 686.416 69.6367 L687.4941 69.6367 Q687.1836 70.9727 686.2344 72.8125 L686.3516 73.0938 Q686.4277 73.2637 686.7148 73.873 Q686.8906 74.248 687.125 74.7637 Q687.4766 75.5664 687.6992 76 L686.4688 76 Q686.3984 75.8535 686.3867 75.8242 L686.123 75.2148 L685.8828 74.6523 L685.6895 74.2012 L685.5957 73.9844 Q685.0566 75.1797 684.5029 75.6631 Q683.9492 76.1465 683.123 76.1465 Q682.0566 76.1465 681.415 75.3115 Q680.7734 74.4766 680.7734 73.0879 Q680.7734 71.4648 681.5088 70.4775 Q682.2441 69.4902 683.457 69.4902 Q684.2656 69.4902 684.7461 69.9648 Q685.2266 70.4395 685.7949 71.8047 ZM685.2031 73.0469 L684.916 72.3965 Q684.3887 71.1895 684.0635 70.7764 Q683.7383 70.3633 683.3281 70.3633 Q682.748 70.3633 682.376 71.0781 Q682.0039 71.793 682.0039 72.9004 Q682.0039 73.9727 682.3525 74.626 Q682.7012 75.2793 683.2754 75.2793 Q683.7734 75.2793 684.1895 74.7988 Q684.6055 74.3184 685.2031 73.0469 Z" style="fill:black; stroke:none;"
    /></g
    ><g ID="li-1:8,11" style="fill:white; text-rendering:optimizeSpeed; stroke:white;"
    ><rect x="746" width="7" height="9" y="67" style="stroke:none;"
      /><path d="M750.5176 76 L750.5176 73.5449 L746.6152 73.5449 L746.6152 72.6719 L750.5176 67.3281 L751.6016 67.3281 L751.6016 72.6016 L752.7617 72.6016 L752.7617 73.5449 L751.6016 73.5449 L751.6016 76 ZM747.7461 72.6016 L750.5938 72.6016 L750.5938 68.7461 Z" style="fill:black; stroke:none;"
      /><rect x="732" width="8" height="8" y="68" style="stroke:none;"
      /><path d="M737.7949 71.8047 Q738.2051 70.6855 738.416 69.6367 L739.4941 69.6367 Q739.1836 70.9727 738.2344 72.8125 L738.3516 73.0938 Q738.4277 73.2637 738.7148 73.873 Q738.8906 74.248 739.125 74.7637 Q739.4766 75.5664 739.6992 76 L738.4688 76 Q738.3984 75.8535 738.3867 75.8242 L738.123 75.2148 L737.8828 74.6523 L737.6895 74.2012 L737.5957 73.9844 Q737.0566 75.1797 736.5029 75.6631 Q735.9492 76.1465 735.123 76.1465 Q734.0566 76.1465 733.415 75.3115 Q732.7734 74.4766 732.7734 73.0879 Q732.7734 71.4648 733.5088 70.4775 Q734.2441 69.4902 735.457 69.4902 Q736.2656 69.4902 736.7461 69.9648 Q737.2266 70.4395 737.7949 71.8047 ZM737.2031 73.0469 L736.916 72.3965 Q736.3887 71.1895 736.0635 70.7764 Q735.7383 70.3633 735.3281 70.3633 Q734.748 70.3633 734.376 71.0781 Q734.0039 71.793 734.0039 72.9004 Q734.0039 73.9727 734.3525 74.626 Q734.7012 75.2793 735.2754 75.2793 Q735.7734 75.2793 736.1895 74.7988 Q736.6055 74.3184 737.2031 73.0469 Z" style="fill:black; stroke:none;"
    /></g
    ><g ID="li-1:6,8" style="fill:white; text-rendering:optimizeSpeed; stroke:white;"
    ><rect x="798" width="7" height="9" y="67" style="stroke:none;"
      /><path d="M802.5176 76 L802.5176 73.5449 L798.6152 73.5449 L798.6152 72.6719 L802.5176 67.3281 L803.6016 67.3281 L803.6016 72.6016 L804.7617 72.6016 L804.7617 73.5449 L803.6016 73.5449 L803.6016 76 ZM799.7461 72.6016 L802.5938 72.6016 L802.5938 68.7461 Z" style="fill:black; stroke:none;"
      /><rect x="784" width="8" height="8" y="68" style="stroke:none;"
      /><path d="M789.7949 71.8047 Q790.2051 70.6855 790.416 69.6367 L791.4941 69.6367 Q791.1836 70.9727 790.2344 72.8125 L790.3516 73.0938 Q790.4277 73.2637 790.7148 73.873 Q790.8906 74.248 791.125 74.7637 Q791.4766 75.5664 791.6992 76 L790.4688 76 Q790.3984 75.8535 790.3867 75.8242 L790.123 75.2148 L789.8828 74.6523 L789.6895 74.2012 L789.5957 73.9844 Q789.0566 75.1797 788.5029 75.6631 Q787.9492 76.1465 787.123 76.1465 Q786.0566 76.1465 785.415 75.3115 Q784.7734 74.4766 784.7734 73.0879 Q784.7734 71.4648 785.5088 70.4775 Q786.2441 69.4902 787.457 69.4902 Q788.2656 69.4902 788.7461 69.9648 Q789.2266 70.4395 789.7949 71.8047 ZM789.2031 73.0469 L788.916 72.3965 Q788.3887 71.1895 788.0635 70.7764 Q787.7383 70.3633 787.3281 70.3633 Q786.748 70.3633 786.376 71.0781 Q786.0039 71.793 786.0039 72.9004 Q786.0039 73.9727 786.3525 74.626 Q786.7012 75.2793 787.2754 75.2793 Q787.7734 75.2793 788.1895 74.7988 Q788.6055 74.3184 789.2031 73.0469 Z" style="fill:black; stroke:none;"
    /></g
    ><g ID="li-1:3,6" style="fill:white; text-rendering:optimizeSpeed; stroke:white;"
    ><rect x="850" width="7" height="9" y="67" style="stroke:none;"
      /><path d="M854.5176 76 L854.5176 73.5449 L850.6152 73.5449 L850.6152 72.6719 L854.5176 67.3281 L855.6016 67.3281 L855.6016 72.6016 L856.7617 72.6016 L856.7617 73.5449 L855.6016 73.5449 L855.6016 76 ZM851.7461 72.6016 L854.5938 72.6016 L854.5938 68.7461 Z" style="fill:black; stroke:none;"
      /><rect x="836" width="8" height="8" y="68" style="stroke:none;"
      /><path d="M841.7949 71.8047 Q842.2051 70.6855 842.416 69.6367 L843.4941 69.6367 Q843.1836 70.9727 842.2344 72.8125 L842.3516 73.0938 Q842.4277 73.2637 842.7148 73.873 Q842.8906 74.248 843.125 74.7637 Q843.4766 75.5664 843.6992 76 L842.4688 76 Q842.3984 75.8535 842.3867 75.8242 L842.123 75.2148 L841.8828 74.6523 L841.6895 74.2012 L841.5957 73.9844 Q841.0566 75.1797 840.5029 75.6631 Q839.9492 76.1465 839.123 76.1465 Q838.0566 76.1465 837.415 75.3115 Q836.7734 74.4766 836.7734 73.0879 Q836.7734 71.4648 837.5088 70.4775 Q838.2441 69.4902 839.457 69.4902 Q840.2656 69.4902 840.7461 69.9648 Q841.2266 70.4395 841.7949 71.8047 ZM841.2031 73.0469 L840.916 72.3965 Q840.3887 71.1895 840.0635 70.7764 Q839.7383 70.3633 839.3281 70.3633 Q838.748 70.3633 838.376 71.0781 Q838.0039 71.793 838.0039 72.9004 Q838.0039 73.9727 838.3525 74.626 Q838.7012 75.2793 839.2754 75.2793 Q839.7734 75.2793 840.1895 74.7988 Q840.6055 74.3184 841.2031 73.0469 Z" style="fill:black; stroke:none;"
    /></g
    ><g ID="li-1:2,3" style="fill:white; text-rendering:optimizeSpeed; stroke:white;"
    ><rect x="902" width="7" height="9" y="67" style="stroke:none;"
      /><path d="M906.5176 76 L906.5176 73.5449 L902.6152 73.5449 L902.6152 72.6719 L906.5176 67.3281 L907.6016 67.3281 L907.6016 72.6016 L908.7617 72.6016 L908.7617 73.5449 L907.6016 73.5449 L907.6016 76 ZM903.7461 72.6016 L906.5938 72.6016 L906.5938 68.7461 Z" style="fill:black; stroke:none;"
      /><rect x="888" width="8" height="8" y="68" style="stroke:none;"
      /><path d="M893.7949 71.8047 Q894.2051 70.6855 894.416 69.6367 L895.4941 69.6367 Q895.1836 70.9727 894.2344 72.8125 L894.3516 73.0938 Q894.4277 73.2637 894.7148 73.873 Q894.8906 74.248 895.125 74.7637 Q895.4766 75.5664 895.6992 76 L894.4688 76 Q894.3984 75.8535 894.3867 75.8242 L894.123 75.2148 L893.8828 74.6523 L893.6895 74.2012 L893.5957 73.9844 Q893.0566 75.1797 892.5029 75.6631 Q891.9492 76.1465 891.123 76.1465 Q890.0566 76.1465 889.415 75.3115 Q888.7734 74.4766 888.7734 73.0879 Q888.7734 71.4648 889.5088 70.4775 Q890.2441 69.4902 891.457 69.4902 Q892.2656 69.4902 892.7461 69.9648 Q893.2266 70.4395 893.7949 71.8047 ZM893.2031 73.0469 L892.916 72.3965 Q892.3887 71.1895 892.0635 70.7764 Q891.7383 70.3633 891.3281 70.3633 Q890.748 70.3633 890.376 71.0781 Q890.0039 71.793 890.0039 72.9004 Q890.0039 73.9727 890.3525 74.626 Q890.7012 75.2793 891.2754 75.2793 Q891.7734 75.2793 892.1895 74.7988 Q892.6055 74.3184 893.2031 73.0469 Z" style="fill:black; stroke:none;"
    /></g
    ><g ID="li-1:1,2" style="fill:white; text-rendering:optimizeSpeed; stroke:white;"
    ><rect x="940" width="8" height="8" y="68" style="stroke:none;"
      /><path d="M945.7949 71.8047 Q946.2051 70.6855 946.416 69.6367 L947.4941 69.6367 Q947.1836 70.9727 946.2344 72.8125 L946.3516 73.0938 Q946.4277 73.2637 946.7148 73.873 Q946.8906 74.248 947.125 74.7637 Q947.4766 75.5664 947.6992 76 L946.4688 76 Q946.3984 75.8535 946.3867 75.8242 L946.123 75.2148 L945.8828 74.6523 L945.6895 74.2012 L945.5957 73.9844 Q945.0566 75.1797 944.5029 75.6631 Q943.9492 76.1465 943.123 76.1465 Q942.0566 76.1465 941.415 75.3115 Q940.7734 74.4766 940.7734 73.0879 Q940.7734 71.4648 941.5088 70.4775 Q942.2441 69.4902 943.457 69.4902 Q944.2656 69.4902 944.7461 69.9648 Q945.2266 70.4395 945.7949 71.8047 ZM945.2031 73.0469 L944.916 72.3965 Q944.3887 71.1895 944.0635 70.7764 Q943.7383 70.3633 943.3281 70.3633 Q942.748 70.3633 942.376 71.0781 Q942.0039 71.793 942.0039 72.9004 Q942.0039 73.9727 942.3525 74.626 Q942.7012 75.2793 943.2754 75.2793 Q943.7734 75.2793 944.1895 74.7988 Q944.6055 74.3184 945.2031 73.0469 Z" style="fill:black; stroke:none;"
    /></g
  ></g
></svg
>
