<?xml version="1.0"?>
<!DOCTYPE svg PUBLIC '-//W3C//DTD SVG 1.0//EN'
          'http://www.w3.org/TR/2001/REC-SVG-20010904/DTD/svg10.dtd'>
<svg xmlns:xlink="http://www.w3.org/1999/xlink" style="fill-opacity:1; color-rendering:auto; color-interpolation:auto; text-rendering:auto; stroke:black; stroke-linecap:square; stroke-miterlimit:10; shape-rendering:auto; stroke-opacity:1; fill:black; stroke-dasharray:none; font-weight:normal; stroke-width:1; font-family:'Dialog'; font-style:normal; stroke-linejoin:miter; font-size:12px; stroke-dashoffset:0; image-rendering:auto;" xmlns="http://www.w3.org/2000/svg"
><!--Generated by the Batik Graphics2D SVG Generator--><defs id="genericDefs"
  /><g
  ><defs id="defs1"
    ><clipPath clipPathUnits="userSpaceOnUse" id="clipPath1"
      ><path d="M238 56 L260 56 L260 78 L238 78 L238 56 Z"
      /></clipPath
      ><clipPath clipPathUnits="userSpaceOnUse" id="clipPath2"
      ><path d="M186 56 L208 56 L208 78 L186 78 L186 56 Z"
      /></clipPath
      ><clipPath clipPathUnits="userSpaceOnUse" id="clipPath3"
      ><path d="M156 67 C156 73.0751 151.0751 78 145 78 C138.9249 78 134 73.0751 134 67 C134 60.9249 138.9249 56 145 56 C151.0751 56 156 60.9249 156 67 Z"
      /></clipPath
      ><clipPath clipPathUnits="userSpaceOnUse" id="clipPath4"
      ><path d="M104 93 C104 99.0751 99.0751 104 93 104 C86.9249 104 82 99.0751 82 93 C82 86.9249 86.9249 82 93 82 C99.0751 82 104 86.9249 104 93 Z"
      /></clipPath
      ><clipPath clipPathUnits="userSpaceOnUse" id="clipPath5"
      ><path d="M52 93 C52 99.0751 47.0751 104 41 104 C34.9249 104 30 99.0751 30 93 C30 86.9249 34.9249 82 41 82 C47.0751 82 52 86.9249 52 93 Z"
      /></clipPath
      ><clipPath clipPathUnits="userSpaceOnUse" id="clipPath6"
      ><path d="M104 41 C104 47.0751 99.0751 52 93 52 C86.9249 52 82 47.0751 82 41 C82 34.9249 86.9249 30 93 30 C99.0751 30 104 34.9249 104 41 Z"
      /></clipPath
      ><clipPath clipPathUnits="userSpaceOnUse" id="clipPath7"
      ><path d="M52 41 C52 47.0751 47.0751 52 41 52 C34.9249 52 30 47.0751 30 41 C30 34.9249 34.9249 30 41 30 C47.0751 30 52 34.9249 52 41 Z"
      /></clipPath
    ></defs
    ><g style="fill:white; text-rendering:optimizeSpeed; stroke:white;"
    ><rect x="0" width="342" height="134" y="0" style="stroke:none;"
    /></g
    ><g style="text-rendering:optimizeSpeed;" ID="l-1:1,2"
    ><polygon style="fill:none;" points=" 301 67 249 67"
    /></g
    ><g style="text-rendering:optimizeSpeed;" ID="r-1:1"
    ><path style="fill:none;" d="M301 56 C295.5 61.5 306.5 72.5 301 78"
    /></g
    ><g style="text-rendering:optimizeSpeed;" ID="l-1:2,3"
    ><polygon style="fill:none;" points=" 249 67 197 67"
    /></g
    ><g ID="r-1:2" style="fill:white; text-rendering:optimizeSpeed; stroke:white;"
    ><rect x="238" y="56" width="22" style="clip-path:url(#clipPath1); stroke:none;" height="22"
      /><rect x="238" y="56" width="22" style="clip-path:url(#clipPath1); fill:rgb(0,144,188); stroke:none;" height="22"
      /><rect x="238" y="56" width="22" style="clip-path:url(#clipPath1); fill:none; stroke:black;" height="22"
      /><rect x="238" y="56" width="22" style="fill:none; stroke:black;" height="22"
    /></g
    ><g style="text-rendering:optimizeSpeed;" ID="l-1:3,4"
    ><polygon style="fill:none;" points=" 197 67 145 67"
    /></g
    ><g ID="r-1:3" style="fill:white; text-rendering:optimizeSpeed; stroke:white;"
    ><rect x="186" y="56" width="22" style="clip-path:url(#clipPath2); stroke:none;" height="22"
      /><rect x="186" y="56" width="22" style="clip-path:url(#clipPath2); fill:rgb(0,144,188); stroke:none;" height="22"
      /><rect x="186" y="56" width="22" style="clip-path:url(#clipPath2); fill:none; stroke:black;" height="22"
      /><rect x="186" y="56" width="22" style="fill:none; stroke:black;" height="22"
    /></g
    ><g style="text-rendering:optimizeSpeed;" ID="l-1:4,5"
    ><polygon style="fill:none;" points=" 145 67 93 93"
    /></g
    ><g style="text-rendering:optimizeSpeed;" ID="l-1:4,6"
    ><polygon style="fill:none;" points=" 145 67 93 41"
    /></g
    ><g ID="r-1:4" style="fill:white; text-rendering:optimizeSpeed; stroke:white;"
    ><circle r="11" style="clip-path:url(#clipPath3); stroke:none;" cx="145" cy="67"
      /><rect x="134" y="56" width="22" style="clip-path:url(#clipPath3); fill:rgb(0,166,81); stroke:none;" height="22"
      /><rect x="134" y="56" width="22" style="clip-path:url(#clipPath3); fill:none; stroke:black;" height="22"
      /><circle r="11" style="fill:none; stroke:black;" cx="145" cy="67"
    /></g
    ><g style="text-rendering:optimizeSpeed;" ID="l-1:5,7"
    ><polygon style="fill:none;" points=" 93 93 41 93"
    /></g
    ><g ID="r-1:5" style="fill:white; text-rendering:optimizeSpeed; stroke:white;"
    ><circle r="11" style="clip-path:url(#clipPath4); stroke:none;" cx="93" cy="93"
      /><rect x="82" y="82" width="22" style="clip-path:url(#clipPath4); fill:rgb(0,166,81); stroke:none;" height="22"
      /><rect x="82" y="82" width="22" style="clip-path:url(#clipPath4); fill:none; stroke:black;" height="22"
      /><circle r="11" style="fill:none; stroke:black;" cx="93" cy="93"
    /></g
    ><g ID="r-1:7" style="fill:white; text-rendering:optimizeSpeed; stroke:white;"
    ><circle r="11" style="clip-path:url(#clipPath5); stroke:none;" cx="41" cy="93"
      /><rect x="30" y="82" width="22" style="clip-path:url(#clipPath5); fill:rgb(0,166,81); stroke:none;" height="22"
      /><rect x="30" y="82" width="22" style="clip-path:url(#clipPath5); fill:none; stroke:black;" height="22"
      /><circle r="11" style="fill:none; stroke:black;" cx="41" cy="93"
    /></g
    ><g ID="li-1:5,7" style="fill:white; text-rendering:optimizeSpeed; stroke:white;"
    ><rect x="70" width="7" height="9" y="96" style="stroke:none;"
      /><path d="M70.9961 105 L70.9961 103.9863 Q71.5 102.8086 73.0352 101.4199 L73.6973 100.8281 Q74.9746 99.6738 74.9746 98.5371 Q74.9746 97.8105 74.5381 97.3945 Q74.1016 96.9785 73.3398 96.9785 Q72.4375 96.9785 71.2129 97.6758 L71.2129 96.6562 Q72.3672 96.1113 73.5039 96.1113 Q74.7227 96.1113 75.4609 96.7676 Q76.1992 97.4238 76.1992 98.5078 Q76.1992 99.2871 75.8271 99.8906 Q75.4551 100.4941 74.4414 101.3555 L73.9961 101.7363 Q72.6074 102.9141 72.3906 103.9863 L76.1582 103.9863 L76.1582 105 Z" style="fill:black; stroke:none;"
      /><rect x="57" width="6" height="13" y="94" style="stroke:none;"
      /><path d="M58.1543 109.3145 L58.1543 100.8242 Q58.1543 99.3008 58.8398 98.4512 Q59.5254 97.6016 60.75 97.6016 Q61.7578 97.6016 62.3789 98.1289 Q63 98.6562 63 99.5176 Q63 100.209 62.6016 100.792 Q62.2031 101.375 61.4121 101.8496 Q62.4609 102.1836 63.0557 102.8838 Q63.6504 103.584 63.6504 104.4863 Q63.6504 105.6523 62.8447 106.3994 Q62.0391 107.1465 60.7793 107.1465 Q60.0234 107.1465 59.3086 106.9004 L59.3086 109.3145 ZM59.7422 101.6504 L59.9531 101.6504 Q60.709 101.6504 61.2744 101.0381 Q61.8398 100.4258 61.8398 99.6113 Q61.8398 99.043 61.5469 98.7559 Q61.2539 98.4688 60.6738 98.4688 Q59.9883 98.4688 59.6484 99.0137 Q59.3086 99.5586 59.3086 100.6426 L59.3086 105.8984 Q60.1465 106.2793 60.791 106.2793 Q61.5 106.2793 61.9951 105.7666 Q62.4902 105.2539 62.4902 104.5332 Q62.4902 103.6191 61.8047 103.0684 Q61.1191 102.5176 59.9707 102.5176 L59.7422 102.5176 Z" style="fill:black; stroke:none;"
    /></g
    ><g style="text-rendering:optimizeSpeed;" ID="l-1:6,8"
    ><polygon style="fill:none;" points=" 93 41 41 41"
    /></g
    ><g ID="r-1:6" style="fill:white; text-rendering:optimizeSpeed; stroke:white;"
    ><circle r="11" style="clip-path:url(#clipPath6); stroke:none;" cx="93" cy="41"
      /><rect x="82" y="30" width="22" style="clip-path:url(#clipPath6); fill:rgb(0,166,81); stroke:none;" height="22"
      /><rect x="82" y="30" width="22" style="clip-path:url(#clipPath6); fill:none; stroke:black;" height="22"
      /><circle r="11" style="fill:none; stroke:black;" cx="93" cy="41"
    /></g
    ><g ID="r-1:8" style="fill:white; text-rendering:optimizeSpeed; stroke:white;"
    ><circle r="11" style="clip-path:url(#clipPath7); stroke:none;" cx="41" cy="41"
      /><rect x="30" y="30" width="22" style="clip-path:url(#clipPath7); fill:rgb(0,166,81); stroke:none;" height="22"
      /><rect x="30" y="30" width="22" style="clip-path:url(#clipPath7); fill:none; stroke:black;" height="22"
      /><circle r="11" style="fill:none; stroke:black;" cx="41" cy="41"
    /></g
    ><g ID="li-1:6,8" style="fill:white; text-rendering:optimizeSpeed; stroke:white;"
    ><rect x="71" width="6" height="10" y="44" style="stroke:none;"
      /><path d="M72.2188 53.9355 L72.2188 52.8574 Q73.4609 53.3496 74.1758 53.3496 Q75.002 53.3496 75.5205 52.8662 Q76.0391 52.3828 76.0391 51.6152 Q76.0391 49.7871 73.4785 49.7871 L73.0215 49.7871 L73.0215 49.0078 L73.4258 49.002 Q75.8281 49.002 75.8281 47.3086 Q75.8281 45.9785 74.2461 45.9785 Q73.3789 45.9785 72.3359 46.4648 L72.3359 45.457 Q73.3613 45.1113 74.3281 45.1113 Q76.9883 45.1113 76.9883 47.1211 Q76.9883 48.6504 75.1777 49.3008 Q77.2754 49.7871 77.2754 51.5977 Q77.2754 52.8223 76.4668 53.5195 Q75.6582 54.2168 74.2461 54.2168 Q73.4434 54.2168 72.2188 53.9355 Z" style="fill:black; stroke:none;"
      /><rect x="57" width="6" height="13" y="42" style="stroke:none;"
      /><path d="M58.1543 57.3145 L58.1543 48.8242 Q58.1543 47.3008 58.8398 46.4512 Q59.5254 45.6016 60.75 45.6016 Q61.7578 45.6016 62.3789 46.1289 Q63 46.6562 63 47.5176 Q63 48.209 62.6016 48.792 Q62.2031 49.375 61.4121 49.8496 Q62.4609 50.1836 63.0557 50.8838 Q63.6504 51.584 63.6504 52.4863 Q63.6504 53.6523 62.8447 54.3994 Q62.0391 55.1465 60.7793 55.1465 Q60.0234 55.1465 59.3086 54.9004 L59.3086 57.3145 ZM59.7422 49.6504 L59.9531 49.6504 Q60.709 49.6504 61.2744 49.0381 Q61.8398 48.4258 61.8398 47.6113 Q61.8398 47.043 61.5469 46.7559 Q61.2539 46.4688 60.6738 46.4688 Q59.9883 46.4688 59.6484 47.0137 Q59.3086 47.5586 59.3086 48.6426 L59.3086 53.8984 Q60.1465 54.2793 60.791 54.2793 Q61.5 54.2793 61.9951 53.7666 Q62.4902 53.2539 62.4902 52.5332 Q62.4902 51.6191 61.8047 51.0684 Q61.1191 50.5176 59.9707 50.5176 L59.7422 50.5176 Z" style="fill:black; stroke:none;"
    /></g
    ><g ID="li-1:4,5" style="fill:white; text-rendering:optimizeSpeed; stroke:white;"
    ><rect x="127" width="6" height="10" y="78" style="stroke:none;"
      /><path d="M128.2188 87.9355 L128.2188 86.8574 Q129.4609 87.3496 130.1758 87.3496 Q131.002 87.3496 131.5205 86.8662 Q132.0391 86.3828 132.0391 85.6152 Q132.0391 83.7871 129.4785 83.7871 L129.0215 83.7871 L129.0215 83.0078 L129.4258 83.002 Q131.8281 83.002 131.8281 81.3086 Q131.8281 79.9785 130.2461 79.9785 Q129.3789 79.9785 128.3359 80.4648 L128.3359 79.457 Q129.3613 79.1113 130.3281 79.1113 Q132.9883 79.1113 132.9883 81.1211 Q132.9883 82.6504 131.1777 83.3008 Q133.2754 83.7871 133.2754 85.5977 Q133.2754 86.8223 132.4668 87.5195 Q131.6582 88.2168 130.2461 88.2168 Q129.4434 88.2168 128.2188 87.9355 Z" style="fill:black; stroke:none;"
      /><rect x="111" width="6" height="13" y="84" style="stroke:none;"
      /><path d="M112.1543 99.3145 L112.1543 90.8242 Q112.1543 89.3008 112.8398 88.4512 Q113.5254 87.6016 114.75 87.6016 Q115.7578 87.6016 116.3789 88.1289 Q117 88.6562 117 89.5176 Q117 90.209 116.6016 90.792 Q116.2031 91.375 115.4121 91.8496 Q116.4609 92.1836 117.0557 92.8838 Q117.6504 93.584 117.6504 94.4863 Q117.6504 95.6523 116.8447 96.3994 Q116.0391 97.1465 114.7793 97.1465 Q114.0234 97.1465 113.3086 96.9004 L113.3086 99.3145 ZM113.7422 91.6504 L113.9531 91.6504 Q114.709 91.6504 115.2744 91.0381 Q115.8398 90.4258 115.8398 89.6113 Q115.8398 89.043 115.5469 88.7559 Q115.2539 88.4688 114.6738 88.4688 Q113.9883 88.4688 113.6484 89.0137 Q113.3086 89.5586 113.3086 90.6426 L113.3086 95.8984 Q114.1465 96.2793 114.791 96.2793 Q115.5 96.2793 115.9951 95.7666 Q116.4902 95.2539 116.4902 94.5332 Q116.4902 93.6191 115.8047 93.0684 Q115.1191 92.5176 113.9707 92.5176 L113.7422 92.5176 Z" style="fill:black; stroke:none;"
    /></g
    ><g ID="li-1:4,6" style="fill:white; text-rendering:optimizeSpeed; stroke:white;"
    ><rect x="119" width="7" height="10" y="60" style="stroke:none;"
      /><path d="M121.0625 65.5059 Q121.8887 64.4336 123.1426 64.4336 Q124.2793 64.4336 125.0029 65.1865 Q125.7266 65.9395 125.7266 67.1172 Q125.7266 68.4707 124.915 69.3438 Q124.1035 70.2168 122.8555 70.2168 Q121.4199 70.2168 120.6113 69.0625 Q119.8027 67.9082 119.8027 65.8574 Q119.8027 63.6016 120.7314 62.3535 Q121.6602 61.1055 123.3477 61.1055 Q124.1211 61.1055 125.2812 61.4336 L125.2812 62.4414 Q124.0566 61.9727 123.2773 61.9727 Q121.0625 61.9727 121.0625 65.5059 ZM124.5664 67.375 Q124.5664 66.3906 124.124 65.8281 Q123.6816 65.2656 122.8965 65.2656 Q122.1641 65.2656 121.6367 65.7578 Q121.1094 66.25 121.1094 66.9414 Q121.1094 68.0312 121.6104 68.6904 Q122.1113 69.3496 122.9375 69.3496 Q123.6816 69.3496 124.124 68.8135 Q124.5664 68.2773 124.5664 67.375 Z" style="fill:black; stroke:none;"
      /><rect x="104" width="6" height="13" y="50" style="stroke:none;"
      /><path d="M105.1543 65.3145 L105.1543 56.8242 Q105.1543 55.3008 105.8398 54.4512 Q106.5254 53.6016 107.75 53.6016 Q108.7578 53.6016 109.3789 54.1289 Q110 54.6562 110 55.5176 Q110 56.209 109.6016 56.792 Q109.2031 57.375 108.4121 57.8496 Q109.4609 58.1836 110.0557 58.8838 Q110.6504 59.584 110.6504 60.4863 Q110.6504 61.6523 109.8447 62.3994 Q109.0391 63.1465 107.7793 63.1465 Q107.0234 63.1465 106.3086 62.9004 L106.3086 65.3145 ZM106.7422 57.6504 L106.9531 57.6504 Q107.709 57.6504 108.2744 57.0381 Q108.8398 56.4258 108.8398 55.6113 Q108.8398 55.043 108.5469 54.7559 Q108.2539 54.4688 107.6738 54.4688 Q106.9883 54.4688 106.6484 55.0137 Q106.3086 55.5586 106.3086 56.6426 L106.3086 61.8984 Q107.1465 62.2793 107.791 62.2793 Q108.5 62.2793 108.9951 61.7666 Q109.4902 61.2539 109.4902 60.5332 Q109.4902 59.6191 108.8047 59.0684 Q108.1191 58.5176 106.9707 58.5176 L106.7422 58.5176 Z" style="fill:black; stroke:none;"
    /></g
    ><g ID="li-1:3,4" style="fill:white; text-rendering:optimizeSpeed; stroke:white;"
    ><rect x="174" width="7" height="9" y="70" style="stroke:none;"
      /><path d="M178.5176 79 L178.5176 76.5449 L174.6152 76.5449 L174.6152 75.6719 L178.5176 70.3281 L179.6016 70.3281 L179.6016 75.6016 L180.7617 75.6016 L180.7617 76.5449 L179.6016 76.5449 L179.6016 79 ZM175.7461 75.6016 L178.5938 75.6016 L178.5938 71.7461 Z" style="fill:black; stroke:none;"
      /><rect x="161" width="6" height="13" y="68" style="stroke:none;"
      /><path d="M162.1543 83.3145 L162.1543 74.8242 Q162.1543 73.3008 162.8398 72.4512 Q163.5254 71.6016 164.75 71.6016 Q165.7578 71.6016 166.3789 72.1289 Q167 72.6562 167 73.5176 Q167 74.209 166.6016 74.792 Q166.2031 75.375 165.4121 75.8496 Q166.4609 76.1836 167.0557 76.8838 Q167.6504 77.584 167.6504 78.4863 Q167.6504 79.6523 166.8447 80.3994 Q166.0391 81.1465 164.7793 81.1465 Q164.0234 81.1465 163.3086 80.9004 L163.3086 83.3145 ZM163.7422 75.6504 L163.9531 75.6504 Q164.709 75.6504 165.2744 75.0381 Q165.8398 74.4258 165.8398 73.6113 Q165.8398 73.043 165.5469 72.7559 Q165.2539 72.4688 164.6738 72.4688 Q163.9883 72.4688 163.6484 73.0137 Q163.3086 73.5586 163.3086 74.6426 L163.3086 79.8984 Q164.1465 80.2793 164.791 80.2793 Q165.5 80.2793 165.9951 79.7666 Q166.4902 79.2539 166.4902 78.5332 Q166.4902 77.6191 165.8047 77.0684 Q165.1191 76.5176 163.9707 76.5176 L163.7422 76.5176 Z" style="fill:black; stroke:none;"
    /></g
    ><g ID="li-1:2,3" style="fill:white; text-rendering:optimizeSpeed; stroke:white;"
    ><rect x="226" width="7" height="9" y="70" style="stroke:none;"
      /><path d="M230.5176 79 L230.5176 76.5449 L226.6152 76.5449 L226.6152 75.6719 L230.5176 70.3281 L231.6016 70.3281 L231.6016 75.6016 L232.7617 75.6016 L232.7617 76.5449 L231.6016 76.5449 L231.6016 79 ZM227.7461 75.6016 L230.5938 75.6016 L230.5938 71.7461 Z" style="fill:black; stroke:none;"
      /><rect x="213" width="6" height="13" y="68" style="stroke:none;"
      /><path d="M214.1543 83.3145 L214.1543 74.8242 Q214.1543 73.3008 214.8398 72.4512 Q215.5254 71.6016 216.75 71.6016 Q217.7578 71.6016 218.3789 72.1289 Q219 72.6562 219 73.5176 Q219 74.209 218.6016 74.792 Q218.2031 75.375 217.4121 75.8496 Q218.4609 76.1836 219.0557 76.8838 Q219.6504 77.584 219.6504 78.4863 Q219.6504 79.6523 218.8447 80.3994 Q218.0391 81.1465 216.7793 81.1465 Q216.0234 81.1465 215.3086 80.9004 L215.3086 83.3145 ZM215.7422 75.6504 L215.9531 75.6504 Q216.709 75.6504 217.2744 75.0381 Q217.8398 74.4258 217.8398 73.6113 Q217.8398 73.043 217.5469 72.7559 Q217.2539 72.4688 216.6738 72.4688 Q215.9883 72.4688 215.6484 73.0137 Q215.3086 73.5586 215.3086 74.6426 L215.3086 79.8984 Q216.1465 80.2793 216.791 80.2793 Q217.5 80.2793 217.9951 79.7666 Q218.4902 79.2539 218.4902 78.5332 Q218.4902 77.6191 217.8047 77.0684 Q217.1191 76.5176 215.9707 76.5176 L215.7422 76.5176 Z" style="fill:black; stroke:none;"
    /></g
    ><g ID="li-1:1,2" style="fill:white; text-rendering:optimizeSpeed; stroke:white;"
    ><rect x="265" width="6" height="13" y="68" style="stroke:none;"
      /><path d="M266.1543 83.3145 L266.1543 74.8242 Q266.1543 73.3008 266.8398 72.4512 Q267.5254 71.6016 268.75 71.6016 Q269.7578 71.6016 270.3789 72.1289 Q271 72.6562 271 73.5176 Q271 74.209 270.6016 74.792 Q270.2031 75.375 269.4121 75.8496 Q270.4609 76.1836 271.0557 76.8838 Q271.6504 77.584 271.6504 78.4863 Q271.6504 79.6523 270.8447 80.3994 Q270.0391 81.1465 268.7793 81.1465 Q268.0234 81.1465 267.3086 80.9004 L267.3086 83.3145 ZM267.7422 75.6504 L267.9531 75.6504 Q268.709 75.6504 269.2744 75.0381 Q269.8398 74.4258 269.8398 73.6113 Q269.8398 73.043 269.5469 72.7559 Q269.2539 72.4688 268.6738 72.4688 Q267.9883 72.4688 267.6484 73.0137 Q267.3086 73.5586 267.3086 74.6426 L267.3086 79.8984 Q268.1465 80.2793 268.791 80.2793 Q269.5 80.2793 269.9951 79.7666 Q270.4902 79.2539 270.4902 78.5332 Q270.4902 77.6191 269.8047 77.0684 Q269.1191 76.5176 267.9707 76.5176 L267.7422 76.5176 Z" style="fill:black; stroke:none;"
    /></g
  ></g
></svg
>
