<?xml version="1.0"?>
<!DOCTYPE svg PUBLIC '-//W3C//DTD SVG 1.0//EN'
          'http://www.w3.org/TR/2001/REC-SVG-20010904/DTD/svg10.dtd'>
<svg xmlns:xlink="http://www.w3.org/1999/xlink" style="fill-opacity:1; color-rendering:auto; color-interpolation:auto; text-rendering:auto; stroke:black; stroke-linecap:square; stroke-miterlimit:10; shape-rendering:auto; stroke-opacity:1; fill:black; stroke-dasharray:none; font-weight:normal; stroke-width:1; font-family:'Dialog'; font-style:normal; stroke-linejoin:miter; font-size:12px; stroke-dashoffset:0; image-rendering:auto;" xmlns="http://www.w3.org/2000/svg"
><!--Generated by the Batik Graphics2D SVG Generator--><defs id="genericDefs"
  /><g
  ><defs id="defs1"
    ><clipPath clipPathUnits="userSpaceOnUse" id="clipPath1"
      ><path style="fill-rule:evenodd;" d="M160 53 L171 64 L160 75 L149 64 Z"
      /></clipPath
      ><clipPath clipPathUnits="userSpaceOnUse" id="clipPath2"
      ><path style="fill-rule:evenodd;" d="M108 53 L119 64 L108 75 L97 64 Z"
      /></clipPath
      ><clipPath clipPathUnits="userSpaceOnUse" id="clipPath3"
      ><path style="fill-rule:evenodd;" d="M48 53 L59 64 L48 75 L37 64 Z"
      /></clipPath
    ></defs
    ><g style="fill:white; text-rendering:optimizeSpeed; stroke:white;"
    ><rect x="0" width="253" height="128" y="0" style="stroke:none;"
    /></g
    ><g style="text-rendering:optimizeSpeed;" ID="l-1:1,2"
    ><polygon style="fill:none;" points=" 212 64 160 64"
    /></g
    ><g style="text-rendering:optimizeSpeed;" ID="r-1:1"
    ><path style="fill:none;" d="M212 53 C206.5 58.5 217.5 69.5 212 75"
    /></g
    ><g style="text-rendering:optimizeSpeed;" ID="l-1:2,3"
    ><polygon style="fill:none;" points=" 160 64 108 64"
    /></g
    ><g ID="r-1:2" style="fill:white; text-rendering:optimizeSpeed; stroke:white;"
    ><polygon style="stroke:none; clip-path:url(#clipPath1);" points=" 160 53 171 64 160 75 149 64"
      /><rect x="149" y="53" width="22" style="clip-path:url(#clipPath1); fill:rgb(0,166,81); stroke:none;" height="11"
      /><rect x="149" y="53" width="22" style="clip-path:url(#clipPath1); fill:none; stroke:black;" height="11"
      /><polygon style="fill:none; stroke:black;" points=" 160 53 171 64 160 75 149 64"
    /></g
    ><g style="text-rendering:optimizeSpeed;" ID="l-1:3,4"
    ><polygon style="fill:none;" points=" 108 64 48 64"
    /></g
    ><g ID="r-1:3" style="fill:white; text-rendering:optimizeSpeed; stroke:white;"
    ><polygon style="stroke:none; clip-path:url(#clipPath2);" points=" 108 53 119 64 108 75 97 64"
      /><rect x="97" y="53" width="22" style="clip-path:url(#clipPath2); fill:rgb(0,166,81); stroke:none;" height="11"
      /><rect x="97" y="53" width="22" style="clip-path:url(#clipPath2); fill:none; stroke:black;" height="11"
      /><polygon style="fill:none; stroke:black;" points=" 108 53 119 64 108 75 97 64"
    /></g
    ><g ID="r-1:4" style="fill:white; text-rendering:optimizeSpeed; stroke:white;"
    ><polygon style="stroke:none; clip-path:url(#clipPath3);" points=" 48 53 59 64 48 75 37 64"
      /><rect x="37" y="53" width="22" style="clip-path:url(#clipPath3); stroke:none;" height="11"
      /><rect x="37" y="53" width="22" style="clip-path:url(#clipPath3); fill:none; stroke:black;" height="11"
      /><polygon style="fill:none; stroke:black;" points=" 48 53 59 64 48 75 37 64"
    /></g
    ><g ID="r-1:5" style="fill:white; text-rendering:optimizeSpeed; font-size:14px; stroke:white;"
    ><rect x="40" width="15" height="10" y="35" style="stroke:none;"
      /><path d="M45.2705 46 L45.2705 43.1357 L40.7178 43.1357 L40.7178 42.1172 L45.2705 35.8828 L46.5352 35.8828 L46.5352 42.0352 L47.8887 42.0352 L47.8887 43.1357 L46.5352 43.1357 L46.5352 46 ZM42.0371 42.0352 L45.3594 42.0352 L45.3594 37.5371 ZM54.9639 46 L54.9639 44.6055 Q54.1436 46.1709 52.4893 46.1709 Q51.1494 46.1709 50.3804 45.1934 Q49.6113 44.2158 49.6113 42.5205 Q49.6113 40.668 50.4829 39.54 Q51.3545 38.4121 52.7764 38.4121 Q54.0957 38.4121 54.9639 39.4238 L54.9639 35.2061 L56.3174 35.2061 L56.3174 46 ZM54.9639 40.3467 Q53.918 39.4238 52.9814 39.4238 Q51.0469 39.4238 51.0469 42.3838 Q51.0469 44.9883 52.7695 44.9883 Q53.8906 44.9883 54.9639 43.7646 Z" style="fill:black; stroke:none;"
    /></g
    ><g ID="r-1:6" style="fill:white; text-rendering:optimizeSpeed; font-size:14px; stroke:white;"
    ><rect x="30" width="35" height="12" y="80" style="stroke:none;"
      /><path d="M31.7021 93.041 L31.7021 91.8379 Q32.707 92.2412 33.6162 92.2412 Q34.6143 92.2412 35.1851 91.6533 Q35.7559 91.0654 35.7559 90.0332 Q35.7559 87.7568 32.6182 87.7568 Q32.2627 87.7568 31.873 87.8047 L31.873 82.8828 L36.9932 82.8828 L36.9932 84.0586 L33.0557 84.0586 L33.0557 86.7246 Q35.0039 86.7246 36.0977 87.6201 Q37.1914 88.5156 37.1914 90.1016 Q37.1914 91.5781 36.1968 92.4155 Q35.2021 93.2529 33.4385 93.2529 Q32.6729 93.2529 31.7021 93.041 ZM40.2197 95.1943 L40.2197 94.6885 Q40.876 94.5039 40.876 93.1367 L40.876 93 L40.2197 93 L40.2197 91.3115 L41.9082 91.3115 L41.9082 92.7744 Q41.9082 95.0234 40.2197 95.1943 ZM48.5527 93 L48.5527 90.1357 L44 90.1357 L44 89.1172 L48.5527 82.8828 L49.8174 82.8828 L49.8174 89.0352 L51.1709 89.0352 L51.1709 90.1357 L49.8174 90.1357 L49.8174 93 ZM45.3193 89.0352 L48.6416 89.0352 L48.6416 84.5371 ZM58.9229 92.7607 Q57.5693 93.1709 56.6055 93.1709 Q54.9648 93.1709 53.9292 92.0806 Q52.8936 90.9902 52.8936 89.2539 Q52.8936 87.5654 53.8062 86.4854 Q54.7188 85.4053 56.1406 85.4053 Q57.4873 85.4053 58.2222 86.3623 Q58.957 87.3193 58.957 89.083 L58.9502 89.5 L54.2676 89.5 Q54.5615 92.1455 56.8584 92.1455 Q57.6992 92.1455 58.9229 91.6943 ZM54.3291 88.4883 L57.6035 88.4883 Q57.6035 86.417 56.0586 86.417 Q54.5068 86.417 54.3291 88.4883 ZM61.2812 93 L61.2812 85.5762 L62.6279 85.5762 L62.6279 86.9707 Q63.6943 85.4121 65.2393 85.4121 Q66.2031 85.4121 66.7773 86.0239 Q67.3516 86.6357 67.3516 87.668 L67.3516 93 L66.0049 93 L66.0049 88.1055 Q66.0049 87.2783 65.7622 86.9263 Q65.5195 86.5742 64.959 86.5742 Q63.7217 86.5742 62.6279 88.1943 L62.6279 93 Z" style="fill:black; stroke:none;"
    /></g
    ><g ID="li-1:3,4" style="fill:white; text-rendering:optimizeSpeed; stroke:white;"
    ><rect x="85" width="7" height="9" y="67" style="stroke:none;"
      /><path d="M89.5176 76 L89.5176 73.5449 L85.6152 73.5449 L85.6152 72.6719 L89.5176 67.3281 L90.6016 67.3281 L90.6016 72.6016 L91.7617 72.6016 L91.7617 73.5449 L90.6016 73.5449 L90.6016 76 ZM86.7461 72.6016 L89.5938 72.6016 L89.5938 68.7461 Z" style="fill:black; stroke:none;"
      /><rect x="71" width="8" height="8" y="68" style="stroke:none;"
      /><path d="M76.7949 71.8047 Q77.2051 70.6855 77.416 69.6367 L78.4941 69.6367 Q78.1836 70.9727 77.2344 72.8125 L77.3516 73.0938 Q77.4277 73.2637 77.7148 73.873 Q77.8906 74.248 78.125 74.7637 Q78.4766 75.5664 78.6992 76 L77.4688 76 Q77.3984 75.8535 77.3867 75.8242 L77.123 75.2148 L76.8828 74.6523 L76.6895 74.2012 L76.5957 73.9844 Q76.0566 75.1797 75.5029 75.6631 Q74.9492 76.1465 74.123 76.1465 Q73.0566 76.1465 72.415 75.3115 Q71.7734 74.4766 71.7734 73.0879 Q71.7734 71.4648 72.5088 70.4775 Q73.2441 69.4902 74.457 69.4902 Q75.2656 69.4902 75.7461 69.9648 Q76.2266 70.4395 76.7949 71.8047 ZM76.2031 73.0469 L75.916 72.3965 Q75.3887 71.1895 75.0635 70.7764 Q74.7383 70.3633 74.3281 70.3633 Q73.748 70.3633 73.376 71.0781 Q73.0039 71.793 73.0039 72.9004 Q73.0039 73.9727 73.3525 74.626 Q73.7012 75.2793 74.2754 75.2793 Q74.7734 75.2793 75.1895 74.7988 Q75.6055 74.3184 76.2031 73.0469 Z" style="fill:black; stroke:none;"
    /></g
    ><g ID="li-1:2,3" style="fill:white; text-rendering:optimizeSpeed; stroke:white;"
    ><rect x="137" width="7" height="9" y="67" style="stroke:none;"
      /><path d="M141.5176 76 L141.5176 73.5449 L137.6152 73.5449 L137.6152 72.6719 L141.5176 67.3281 L142.6016 67.3281 L142.6016 72.6016 L143.7617 72.6016 L143.7617 73.5449 L142.6016 73.5449 L142.6016 76 ZM138.7461 72.6016 L141.5938 72.6016 L141.5938 68.7461 Z" style="fill:black; stroke:none;"
      /><rect x="124" width="6" height="13" y="65" style="stroke:none;"
      /><path d="M125.1543 80.3145 L125.1543 71.8242 Q125.1543 70.3008 125.8398 69.4512 Q126.5254 68.6016 127.75 68.6016 Q128.7578 68.6016 129.3789 69.1289 Q130 69.6562 130 70.5176 Q130 71.209 129.6016 71.792 Q129.2031 72.375 128.4121 72.8496 Q129.4609 73.1836 130.0557 73.8838 Q130.6504 74.584 130.6504 75.4863 Q130.6504 76.6523 129.8447 77.3994 Q129.0391 78.1465 127.7793 78.1465 Q127.0234 78.1465 126.3086 77.9004 L126.3086 80.3145 ZM126.7422 72.6504 L126.9531 72.6504 Q127.709 72.6504 128.2744 72.0381 Q128.8398 71.4258 128.8398 70.6113 Q128.8398 70.043 128.5469 69.7559 Q128.2539 69.4688 127.6738 69.4688 Q126.9883 69.4688 126.6484 70.0137 Q126.3086 70.5586 126.3086 71.6426 L126.3086 76.8984 Q127.1465 77.2793 127.791 77.2793 Q128.5 77.2793 128.9951 76.7666 Q129.4902 76.2539 129.4902 75.5332 Q129.4902 74.6191 128.8047 74.0684 Q128.1191 73.5176 126.9707 73.5176 L126.7422 73.5176 Z" style="fill:black; stroke:none;"
    /></g
    ><g ID="li-1:1,2" style="fill:white; text-rendering:optimizeSpeed; stroke:white;"
    ><rect x="175" width="8" height="8" y="68" style="stroke:none;"
      /><path d="M180.7949 71.8047 Q181.2051 70.6855 181.416 69.6367 L182.4941 69.6367 Q182.1836 70.9727 181.2344 72.8125 L181.3516 73.0938 Q181.4277 73.2637 181.7148 73.873 Q181.8906 74.248 182.125 74.7637 Q182.4766 75.5664 182.6992 76 L181.4688 76 Q181.3984 75.8535 181.3867 75.8242 L181.123 75.2148 L180.8828 74.6523 L180.6895 74.2012 L180.5957 73.9844 Q180.0566 75.1797 179.5029 75.6631 Q178.9492 76.1465 178.123 76.1465 Q177.0566 76.1465 176.415 75.3115 Q175.7734 74.4766 175.7734 73.0879 Q175.7734 71.4648 176.5088 70.4775 Q177.2441 69.4902 178.457 69.4902 Q179.2656 69.4902 179.7461 69.9648 Q180.2266 70.4395 180.7949 71.8047 ZM180.2031 73.0469 L179.916 72.3965 Q179.3887 71.1895 179.0635 70.7764 Q178.7383 70.3633 178.3281 70.3633 Q177.748 70.3633 177.376 71.0781 Q177.0039 71.793 177.0039 72.9004 Q177.0039 73.9727 177.3525 74.626 Q177.7012 75.2793 178.2754 75.2793 Q178.7734 75.2793 179.1895 74.7988 Q179.6055 74.3184 180.2031 73.0469 Z" style="fill:black; stroke:none;"
    /></g
  ></g
></svg
>
