<?xml version="1.0"?>
<!DOCTYPE svg PUBLIC '-//W3C//DTD SVG 1.0//EN'
          'http://www.w3.org/TR/2001/REC-SVG-20010904/DTD/svg10.dtd'>
<svg xmlns:xlink="http://www.w3.org/1999/xlink" style="fill-opacity:1; color-rendering:auto; color-interpolation:auto; text-rendering:auto; stroke:black; stroke-linecap:square; stroke-miterlimit:10; shape-rendering:auto; stroke-opacity:1; fill:black; stroke-dasharray:none; font-weight:normal; stroke-width:1; font-family:'Dialog'; font-style:normal; stroke-linejoin:miter; font-size:12px; stroke-dashoffset:0; image-rendering:auto;" xmlns="http://www.w3.org/2000/svg"
><!--Generated by the Batik Graphics2D SVG Generator--><defs id="genericDefs"
  /><g
  ><defs id="defs1"
    ><clipPath clipPathUnits="userSpaceOnUse" id="clipPath1"
      ><path d="M520 19 Q498 41 520 63"
      /></clipPath
      ><clipPath clipPathUnits="userSpaceOnUse" id="clipPath2"
      ><path d="M468 41 C468 47.0751 463.0751 52 457 52 C450.9249 52 446 47.0751 446 41 C446 34.9249 450.9249 30 457 30 C463.0751 30 468 34.9249 468 41 Z"
      /></clipPath
      ><clipPath clipPathUnits="userSpaceOnUse" id="clipPath3"
      ><path d="M416 41 C416 47.0751 411.0751 52 405 52 C398.9249 52 394 47.0751 394 41 C394 34.9249 398.9249 30 405 30 C411.0751 30 416 34.9249 416 41 Z"
      /></clipPath
      ><clipPath clipPathUnits="userSpaceOnUse" id="clipPath4"
      ><path d="M364 41 C364 47.0751 359.0751 52 353 52 C346.9249 52 342 47.0751 342 41 C342 34.9249 346.9249 30 353 30 C359.0751 30 364 34.9249 364 41 Z"
      /></clipPath
      ><clipPath clipPathUnits="userSpaceOnUse" id="clipPath5"
      ><path d="M312 41 C312 47.0751 307.0751 52 301 52 C294.9249 52 290 47.0751 290 41 C290 34.9249 294.9249 30 301 30 C307.0751 30 312 34.9249 312 41 Z"
      /></clipPath
      ><clipPath clipPathUnits="userSpaceOnUse" id="clipPath6"
      ><path d="M260 41 C260 47.0751 255.0751 52 249 52 C242.9249 52 238 47.0751 238 41 C238 34.9249 242.9249 30 249 30 C255.0751 30 260 34.9249 260 41 Z"
      /></clipPath
      ><clipPath clipPathUnits="userSpaceOnUse" id="clipPath7"
      ><path d="M208 41 C208 47.0751 203.0751 52 197 52 C190.9249 52 186 47.0751 186 41 C186 34.9249 190.9249 30 197 30 C203.0751 30 208 34.9249 208 41 Z"
      /></clipPath
      ><clipPath clipPathUnits="userSpaceOnUse" id="clipPath8"
      ><path d="M156 41 C156 47.0751 151.0751 52 145 52 C138.9249 52 134 47.0751 134 41 C134 34.9249 138.9249 30 145 30 C151.0751 30 156 34.9249 156 41 Z"
      /></clipPath
      ><clipPath clipPathUnits="userSpaceOnUse" id="clipPath9"
      ><path d="M104 41 C104 47.0751 99.0751 52 93 52 C86.9249 52 82 47.0751 82 41 C82 34.9249 86.9249 30 93 30 C99.0751 30 104 34.9249 104 41 Z"
      /></clipPath
      ><clipPath clipPathUnits="userSpaceOnUse" id="clipPath10"
      ><path d="M30 19 Q52 41 30 63"
      /></clipPath
    ></defs
    ><g style="fill:white; text-rendering:optimizeSpeed; stroke:white;"
    ><rect x="0" width="602" height="82" y="0" style="stroke:none;"
    /></g
    ><g style="text-rendering:optimizeSpeed;" ID="l-1:1,2"
    ><polygon style="fill:none;" points=" 561 41 509 41"
    /></g
    ><g style="text-rendering:optimizeSpeed;" ID="r-1:1"
    ><path style="fill:none;" d="M561 30 C555.5 35.5 566.5 46.5 561 52"
    /></g
    ><g style="text-rendering:optimizeSpeed;" ID="l-1:2,3"
    ><polygon style="fill:none;" points=" 509 41 457 41"
    /></g
    ><g ID="r-1:2" style="fill:white; text-rendering:optimizeSpeed; stroke:white;"
    ><path d="M520 19 Q498 41 520 63" style="stroke:none; clip-path:url(#clipPath1);"
      /><path d="M520 19 Q498 41 520 63" style="fill:none; stroke:black;"
    /></g
    ><g style="text-rendering:optimizeSpeed;" ID="l-1:3,4"
    ><polygon style="fill:none;" points=" 457 41 405 41"
    /></g
    ><g ID="r-1:3" style="fill:white; text-rendering:optimizeSpeed; stroke:white;"
    ><circle r="11" style="clip-path:url(#clipPath2); stroke:none;" cx="457" cy="41"
      /><rect x="446" y="30" width="22" style="clip-path:url(#clipPath2); fill:rgb(0,144,188); stroke:none;" height="22"
      /><rect x="446" y="30" width="22" style="clip-path:url(#clipPath2); fill:none; stroke:black;" height="22"
      /><circle r="11" style="fill:none; stroke:black;" cx="457" cy="41"
    /></g
    ><g style="text-rendering:optimizeSpeed;" ID="l-1:4,5"
    ><polygon style="fill:none;" points=" 405 41 353 41"
    /></g
    ><g ID="r-1:4" style="fill:white; text-rendering:optimizeSpeed; stroke:white;"
    ><circle r="11" style="clip-path:url(#clipPath3); stroke:none;" cx="405" cy="41"
      /><rect x="394" y="30" width="22" style="clip-path:url(#clipPath3); fill:rgb(0,144,188); stroke:none;" height="22"
      /><rect x="394" y="30" width="22" style="clip-path:url(#clipPath3); fill:none; stroke:black;" height="22"
      /><circle r="11" style="fill:none; stroke:black;" cx="405" cy="41"
    /></g
    ><g style="text-rendering:optimizeSpeed;" ID="l-1:5,6"
    ><polygon style="fill:none;" points=" 353 41 301 41"
    /></g
    ><g ID="r-1:5" style="fill:white; text-rendering:optimizeSpeed; stroke:white;"
    ><circle r="11" style="clip-path:url(#clipPath4); stroke:none;" cx="353" cy="41"
      /><rect x="342" y="30" width="22" style="clip-path:url(#clipPath4); fill:rgb(0,144,188); stroke:none;" height="22"
      /><rect x="342" y="30" width="22" style="clip-path:url(#clipPath4); fill:none; stroke:black;" height="22"
      /><circle r="11" style="fill:none; stroke:black;" cx="353" cy="41"
    /></g
    ><g style="text-rendering:optimizeSpeed;" ID="l-1:6,7"
    ><polygon style="fill:none;" points=" 301 41 249 41"
    /></g
    ><g ID="r-1:6" style="fill:white; text-rendering:optimizeSpeed; stroke:white;"
    ><circle r="11" style="clip-path:url(#clipPath5); stroke:none;" cx="301" cy="41"
      /><rect x="290" y="30" width="22" style="clip-path:url(#clipPath5); fill:rgb(0,144,188); stroke:none;" height="22"
      /><rect x="290" y="30" width="22" style="clip-path:url(#clipPath5); fill:none; stroke:black;" height="22"
      /><circle r="11" style="fill:none; stroke:black;" cx="301" cy="41"
    /></g
    ><g style="text-rendering:optimizeSpeed;" ID="l-1:7,8"
    ><polygon style="fill:none;" points=" 249 41 197 41"
    /></g
    ><g ID="r-1:7" style="fill:white; text-rendering:optimizeSpeed; stroke:white;"
    ><circle r="11" style="clip-path:url(#clipPath6); stroke:none;" cx="249" cy="41"
      /><rect x="238" y="30" width="22" style="clip-path:url(#clipPath6); fill:rgb(0,144,188); stroke:none;" height="22"
      /><rect x="238" y="30" width="22" style="clip-path:url(#clipPath6); fill:none; stroke:black;" height="22"
      /><circle r="11" style="fill:none; stroke:black;" cx="249" cy="41"
    /></g
    ><g style="text-rendering:optimizeSpeed;" ID="l-1:8,9"
    ><polygon style="fill:none;" points=" 197 41 145 41"
    /></g
    ><g ID="r-1:8" style="fill:white; text-rendering:optimizeSpeed; stroke:white;"
    ><circle r="11" style="clip-path:url(#clipPath7); stroke:none;" cx="197" cy="41"
      /><rect x="186" y="30" width="22" style="clip-path:url(#clipPath7); fill:rgb(0,144,188); stroke:none;" height="22"
      /><rect x="186" y="30" width="22" style="clip-path:url(#clipPath7); fill:none; stroke:black;" height="22"
      /><circle r="11" style="fill:none; stroke:black;" cx="197" cy="41"
    /></g
    ><g style="text-rendering:optimizeSpeed;" ID="l-1:9,10"
    ><polygon style="fill:none;" points=" 145 41 93 41"
    /></g
    ><g ID="r-1:9" style="fill:white; text-rendering:optimizeSpeed; stroke:white;"
    ><circle r="11" style="clip-path:url(#clipPath8); stroke:none;" cx="145" cy="41"
      /><rect x="134" y="30" width="22" style="clip-path:url(#clipPath8); fill:rgb(0,144,188); stroke:none;" height="22"
      /><rect x="134" y="30" width="22" style="clip-path:url(#clipPath8); fill:none; stroke:black;" height="22"
      /><circle r="11" style="fill:none; stroke:black;" cx="145" cy="41"
    /></g
    ><g style="text-rendering:optimizeSpeed;" ID="l-1:10,11"
    ><polygon style="fill:none;" points=" 93 41 41 41"
    /></g
    ><g ID="r-1:10" style="fill:white; text-rendering:optimizeSpeed; stroke:white;"
    ><circle r="11" style="clip-path:url(#clipPath9); stroke:none;" cx="93" cy="41"
      /><rect x="82" y="30" width="22" style="clip-path:url(#clipPath9); fill:rgb(0,144,188); stroke:none;" height="22"
      /><rect x="82" y="30" width="22" style="clip-path:url(#clipPath9); fill:none; stroke:black;" height="22"
      /><circle r="11" style="fill:none; stroke:black;" cx="93" cy="41"
    /></g
    ><g ID="r-1:11" style="fill:white; text-rendering:optimizeSpeed; stroke:white;"
    ><path d="M30 19 Q52 41 30 63" style="stroke:none; clip-path:url(#clipPath10);"
      /><path d="M30 19 Q52 41 30 63" style="fill:none; stroke:black;"
    /></g
    ><g ID="li-1:10,11" style="fill:white; text-rendering:optimizeSpeed; stroke:white;"
    ><rect x="70" width="7" height="9" y="44" style="stroke:none;"
      /><path d="M74.5176 53 L74.5176 50.5449 L70.6152 50.5449 L70.6152 49.6719 L74.5176 44.3281 L75.6016 44.3281 L75.6016 49.6016 L76.7617 49.6016 L76.7617 50.5449 L75.6016 50.5449 L75.6016 53 ZM71.7461 49.6016 L74.5938 49.6016 L74.5938 45.7461 Z" style="fill:black; stroke:none;"
    /></g
    ><g ID="li-1:9,10" style="fill:white; text-rendering:optimizeSpeed; stroke:white;"
    ><rect x="122" width="7" height="9" y="44" style="stroke:none;"
      /><path d="M126.5176 53 L126.5176 50.5449 L122.6152 50.5449 L122.6152 49.6719 L126.5176 44.3281 L127.6016 44.3281 L127.6016 49.6016 L128.7617 49.6016 L128.7617 50.5449 L127.6016 50.5449 L127.6016 53 ZM123.7461 49.6016 L126.5938 49.6016 L126.5938 45.7461 Z" style="fill:black; stroke:none;"
      /><rect x="108" width="8" height="8" y="45" style="stroke:none;"
      /><path d="M113.7949 48.8047 Q114.2051 47.6855 114.416 46.6367 L115.4941 46.6367 Q115.1836 47.9727 114.2344 49.8125 L114.3516 50.0938 Q114.4277 50.2637 114.7148 50.873 Q114.8906 51.248 115.125 51.7637 Q115.4766 52.5664 115.6992 53 L114.4688 53 Q114.3984 52.8535 114.3867 52.8242 L114.123 52.2148 L113.8828 51.6523 L113.6895 51.2012 L113.5957 50.9844 Q113.0566 52.1797 112.5029 52.6631 Q111.9492 53.1465 111.123 53.1465 Q110.0566 53.1465 109.415 52.3115 Q108.7734 51.4766 108.7734 50.0879 Q108.7734 48.4648 109.5088 47.4775 Q110.2441 46.4902 111.457 46.4902 Q112.2656 46.4902 112.7461 46.9648 Q113.2266 47.4395 113.7949 48.8047 ZM113.2031 50.0469 L112.916 49.3965 Q112.3887 48.1895 112.0635 47.7764 Q111.7383 47.3633 111.3281 47.3633 Q110.748 47.3633 110.376 48.0781 Q110.0039 48.793 110.0039 49.9004 Q110.0039 50.9727 110.3525 51.626 Q110.7012 52.2793 111.2754 52.2793 Q111.7734 52.2793 112.1895 51.7988 Q112.6055 51.3184 113.2031 50.0469 Z" style="fill:black; stroke:none;"
    /></g
    ><g ID="li-1:8,9" style="fill:white; text-rendering:optimizeSpeed; stroke:white;"
    ><rect x="174" width="7" height="9" y="44" style="stroke:none;"
      /><path d="M178.5176 53 L178.5176 50.5449 L174.6152 50.5449 L174.6152 49.6719 L178.5176 44.3281 L179.6016 44.3281 L179.6016 49.6016 L180.7617 49.6016 L180.7617 50.5449 L179.6016 50.5449 L179.6016 53 ZM175.7461 49.6016 L178.5938 49.6016 L178.5938 45.7461 Z" style="fill:black; stroke:none;"
      /><rect x="160" width="8" height="8" y="45" style="stroke:none;"
      /><path d="M165.7949 48.8047 Q166.2051 47.6855 166.416 46.6367 L167.4941 46.6367 Q167.1836 47.9727 166.2344 49.8125 L166.3516 50.0938 Q166.4277 50.2637 166.7148 50.873 Q166.8906 51.248 167.125 51.7637 Q167.4766 52.5664 167.6992 53 L166.4688 53 Q166.3984 52.8535 166.3867 52.8242 L166.123 52.2148 L165.8828 51.6523 L165.6895 51.2012 L165.5957 50.9844 Q165.0566 52.1797 164.5029 52.6631 Q163.9492 53.1465 163.123 53.1465 Q162.0566 53.1465 161.415 52.3115 Q160.7734 51.4766 160.7734 50.0879 Q160.7734 48.4648 161.5088 47.4775 Q162.2441 46.4902 163.457 46.4902 Q164.2656 46.4902 164.7461 46.9648 Q165.2266 47.4395 165.7949 48.8047 ZM165.2031 50.0469 L164.916 49.3965 Q164.3887 48.1895 164.0635 47.7764 Q163.7383 47.3633 163.3281 47.3633 Q162.748 47.3633 162.376 48.0781 Q162.0039 48.793 162.0039 49.9004 Q162.0039 50.9727 162.3525 51.626 Q162.7012 52.2793 163.2754 52.2793 Q163.7734 52.2793 164.1895 51.7988 Q164.6055 51.3184 165.2031 50.0469 Z" style="fill:black; stroke:none;"
    /></g
    ><g ID="li-1:7,8" style="fill:white; text-rendering:optimizeSpeed; stroke:white;"
    ><rect x="226" width="7" height="9" y="44" style="stroke:none;"
      /><path d="M230.5176 53 L230.5176 50.5449 L226.6152 50.5449 L226.6152 49.6719 L230.5176 44.3281 L231.6016 44.3281 L231.6016 49.6016 L232.7617 49.6016 L232.7617 50.5449 L231.6016 50.5449 L231.6016 53 ZM227.7461 49.6016 L230.5938 49.6016 L230.5938 45.7461 Z" style="fill:black; stroke:none;"
      /><rect x="212" width="8" height="8" y="45" style="stroke:none;"
      /><path d="M217.7949 48.8047 Q218.2051 47.6855 218.416 46.6367 L219.4941 46.6367 Q219.1836 47.9727 218.2344 49.8125 L218.3516 50.0938 Q218.4277 50.2637 218.7148 50.873 Q218.8906 51.248 219.125 51.7637 Q219.4766 52.5664 219.6992 53 L218.4688 53 Q218.3984 52.8535 218.3867 52.8242 L218.123 52.2148 L217.8828 51.6523 L217.6895 51.2012 L217.5957 50.9844 Q217.0566 52.1797 216.5029 52.6631 Q215.9492 53.1465 215.123 53.1465 Q214.0566 53.1465 213.415 52.3115 Q212.7734 51.4766 212.7734 50.0879 Q212.7734 48.4648 213.5088 47.4775 Q214.2441 46.4902 215.457 46.4902 Q216.2656 46.4902 216.7461 46.9648 Q217.2266 47.4395 217.7949 48.8047 ZM217.2031 50.0469 L216.916 49.3965 Q216.3887 48.1895 216.0635 47.7764 Q215.7383 47.3633 215.3281 47.3633 Q214.748 47.3633 214.376 48.0781 Q214.0039 48.793 214.0039 49.9004 Q214.0039 50.9727 214.3525 51.626 Q214.7012 52.2793 215.2754 52.2793 Q215.7734 52.2793 216.1895 51.7988 Q216.6055 51.3184 217.2031 50.0469 Z" style="fill:black; stroke:none;"
    /></g
    ><g ID="li-1:6,7" style="fill:white; text-rendering:optimizeSpeed; stroke:white;"
    ><rect x="278" width="7" height="9" y="44" style="stroke:none;"
      /><path d="M282.5176 53 L282.5176 50.5449 L278.6152 50.5449 L278.6152 49.6719 L282.5176 44.3281 L283.6016 44.3281 L283.6016 49.6016 L284.7617 49.6016 L284.7617 50.5449 L283.6016 50.5449 L283.6016 53 ZM279.7461 49.6016 L282.5938 49.6016 L282.5938 45.7461 Z" style="fill:black; stroke:none;"
      /><rect x="264" width="8" height="8" y="45" style="stroke:none;"
      /><path d="M269.7949 48.8047 Q270.2051 47.6855 270.416 46.6367 L271.4941 46.6367 Q271.1836 47.9727 270.2344 49.8125 L270.3516 50.0938 Q270.4277 50.2637 270.7148 50.873 Q270.8906 51.248 271.125 51.7637 Q271.4766 52.5664 271.6992 53 L270.4688 53 Q270.3984 52.8535 270.3867 52.8242 L270.123 52.2148 L269.8828 51.6523 L269.6895 51.2012 L269.5957 50.9844 Q269.0566 52.1797 268.5029 52.6631 Q267.9492 53.1465 267.123 53.1465 Q266.0566 53.1465 265.415 52.3115 Q264.7734 51.4766 264.7734 50.0879 Q264.7734 48.4648 265.5088 47.4775 Q266.2441 46.4902 267.457 46.4902 Q268.2656 46.4902 268.7461 46.9648 Q269.2266 47.4395 269.7949 48.8047 ZM269.2031 50.0469 L268.916 49.3965 Q268.3887 48.1895 268.0635 47.7764 Q267.7383 47.3633 267.3281 47.3633 Q266.748 47.3633 266.376 48.0781 Q266.0039 48.793 266.0039 49.9004 Q266.0039 50.9727 266.3525 51.626 Q266.7012 52.2793 267.2754 52.2793 Q267.7734 52.2793 268.1895 51.7988 Q268.6055 51.3184 269.2031 50.0469 Z" style="fill:black; stroke:none;"
    /></g
    ><g ID="li-1:5,6" style="fill:white; text-rendering:optimizeSpeed; stroke:white;"
    ><rect x="330" width="7" height="9" y="44" style="stroke:none;"
      /><path d="M334.5176 53 L334.5176 50.5449 L330.6152 50.5449 L330.6152 49.6719 L334.5176 44.3281 L335.6016 44.3281 L335.6016 49.6016 L336.7617 49.6016 L336.7617 50.5449 L335.6016 50.5449 L335.6016 53 ZM331.7461 49.6016 L334.5938 49.6016 L334.5938 45.7461 Z" style="fill:black; stroke:none;"
      /><rect x="316" width="8" height="8" y="45" style="stroke:none;"
      /><path d="M321.7949 48.8047 Q322.2051 47.6855 322.416 46.6367 L323.4941 46.6367 Q323.1836 47.9727 322.2344 49.8125 L322.3516 50.0938 Q322.4277 50.2637 322.7148 50.873 Q322.8906 51.248 323.125 51.7637 Q323.4766 52.5664 323.6992 53 L322.4688 53 Q322.3984 52.8535 322.3867 52.8242 L322.123 52.2148 L321.8828 51.6523 L321.6895 51.2012 L321.5957 50.9844 Q321.0566 52.1797 320.5029 52.6631 Q319.9492 53.1465 319.123 53.1465 Q318.0566 53.1465 317.415 52.3115 Q316.7734 51.4766 316.7734 50.0879 Q316.7734 48.4648 317.5088 47.4775 Q318.2441 46.4902 319.457 46.4902 Q320.2656 46.4902 320.7461 46.9648 Q321.2266 47.4395 321.7949 48.8047 ZM321.2031 50.0469 L320.916 49.3965 Q320.3887 48.1895 320.0635 47.7764 Q319.7383 47.3633 319.3281 47.3633 Q318.748 47.3633 318.376 48.0781 Q318.0039 48.793 318.0039 49.9004 Q318.0039 50.9727 318.3525 51.626 Q318.7012 52.2793 319.2754 52.2793 Q319.7734 52.2793 320.1895 51.7988 Q320.6055 51.3184 321.2031 50.0469 Z" style="fill:black; stroke:none;"
    /></g
    ><g ID="li-1:4,5" style="fill:white; text-rendering:optimizeSpeed; stroke:white;"
    ><rect x="382" width="7" height="9" y="44" style="stroke:none;"
      /><path d="M386.5176 53 L386.5176 50.5449 L382.6152 50.5449 L382.6152 49.6719 L386.5176 44.3281 L387.6016 44.3281 L387.6016 49.6016 L388.7617 49.6016 L388.7617 50.5449 L387.6016 50.5449 L387.6016 53 ZM383.7461 49.6016 L386.5938 49.6016 L386.5938 45.7461 Z" style="fill:black; stroke:none;"
      /><rect x="368" width="8" height="8" y="45" style="stroke:none;"
      /><path d="M373.7949 48.8047 Q374.2051 47.6855 374.416 46.6367 L375.4941 46.6367 Q375.1836 47.9727 374.2344 49.8125 L374.3516 50.0938 Q374.4277 50.2637 374.7148 50.873 Q374.8906 51.248 375.125 51.7637 Q375.4766 52.5664 375.6992 53 L374.4688 53 Q374.3984 52.8535 374.3867 52.8242 L374.123 52.2148 L373.8828 51.6523 L373.6895 51.2012 L373.5957 50.9844 Q373.0566 52.1797 372.5029 52.6631 Q371.9492 53.1465 371.123 53.1465 Q370.0566 53.1465 369.415 52.3115 Q368.7734 51.4766 368.7734 50.0879 Q368.7734 48.4648 369.5088 47.4775 Q370.2441 46.4902 371.457 46.4902 Q372.2656 46.4902 372.7461 46.9648 Q373.2266 47.4395 373.7949 48.8047 ZM373.2031 50.0469 L372.916 49.3965 Q372.3887 48.1895 372.0635 47.7764 Q371.7383 47.3633 371.3281 47.3633 Q370.748 47.3633 370.376 48.0781 Q370.0039 48.793 370.0039 49.9004 Q370.0039 50.9727 370.3525 51.626 Q370.7012 52.2793 371.2754 52.2793 Q371.7734 52.2793 372.1895 51.7988 Q372.6055 51.3184 373.2031 50.0469 Z" style="fill:black; stroke:none;"
    /></g
    ><g ID="li-1:3,4" style="fill:white; text-rendering:optimizeSpeed; stroke:white;"
    ><rect x="434" width="7" height="9" y="44" style="stroke:none;"
      /><path d="M438.5176 53 L438.5176 50.5449 L434.6152 50.5449 L434.6152 49.6719 L438.5176 44.3281 L439.6016 44.3281 L439.6016 49.6016 L440.7617 49.6016 L440.7617 50.5449 L439.6016 50.5449 L439.6016 53 ZM435.7461 49.6016 L438.5938 49.6016 L438.5938 45.7461 Z" style="fill:black; stroke:none;"
      /><rect x="420" width="8" height="8" y="45" style="stroke:none;"
      /><path d="M425.7949 48.8047 Q426.2051 47.6855 426.416 46.6367 L427.4941 46.6367 Q427.1836 47.9727 426.2344 49.8125 L426.3516 50.0938 Q426.4277 50.2637 426.7148 50.873 Q426.8906 51.248 427.125 51.7637 Q427.4766 52.5664 427.6992 53 L426.4688 53 Q426.3984 52.8535 426.3867 52.8242 L426.123 52.2148 L425.8828 51.6523 L425.6895 51.2012 L425.5957 50.9844 Q425.0566 52.1797 424.5029 52.6631 Q423.9492 53.1465 423.123 53.1465 Q422.0566 53.1465 421.415 52.3115 Q420.7734 51.4766 420.7734 50.0879 Q420.7734 48.4648 421.5088 47.4775 Q422.2441 46.4902 423.457 46.4902 Q424.2656 46.4902 424.7461 46.9648 Q425.2266 47.4395 425.7949 48.8047 ZM425.2031 50.0469 L424.916 49.3965 Q424.3887 48.1895 424.0635 47.7764 Q423.7383 47.3633 423.3281 47.3633 Q422.748 47.3633 422.376 48.0781 Q422.0039 48.793 422.0039 49.9004 Q422.0039 50.9727 422.3525 51.626 Q422.7012 52.2793 423.2754 52.2793 Q423.7734 52.2793 424.1895 51.7988 Q424.6055 51.3184 425.2031 50.0469 Z" style="fill:black; stroke:none;"
    /></g
    ><g ID="li-1:2,3" style="fill:white; text-rendering:optimizeSpeed; stroke:white;"
    ><rect x="472" width="8" height="8" y="45" style="stroke:none;"
      /><path d="M477.7949 48.8047 Q478.2051 47.6855 478.416 46.6367 L479.4941 46.6367 Q479.1836 47.9727 478.2344 49.8125 L478.3516 50.0938 Q478.4277 50.2637 478.7148 50.873 Q478.8906 51.248 479.125 51.7637 Q479.4766 52.5664 479.6992 53 L478.4688 53 Q478.3984 52.8535 478.3867 52.8242 L478.123 52.2148 L477.8828 51.6523 L477.6895 51.2012 L477.5957 50.9844 Q477.0566 52.1797 476.5029 52.6631 Q475.9492 53.1465 475.123 53.1465 Q474.0566 53.1465 473.415 52.3115 Q472.7734 51.4766 472.7734 50.0879 Q472.7734 48.4648 473.5088 47.4775 Q474.2441 46.4902 475.457 46.4902 Q476.2656 46.4902 476.7461 46.9648 Q477.2266 47.4395 477.7949 48.8047 ZM477.2031 50.0469 L476.916 49.3965 Q476.3887 48.1895 476.0635 47.7764 Q475.7383 47.3633 475.3281 47.3633 Q474.748 47.3633 474.376 48.0781 Q474.0039 48.793 474.0039 49.9004 Q474.0039 50.9727 474.3525 51.626 Q474.7012 52.2793 475.2754 52.2793 Q475.7734 52.2793 476.1895 51.7988 Q476.6055 51.3184 477.2031 50.0469 Z" style="fill:black; stroke:none;"
    /></g
    ><g ID="li-1:1,2" style="fill:white; text-rendering:optimizeSpeed; stroke:white;"
    ><rect x="525" width="5" height="9" y="44" style="stroke:none;"
      /><path d="M526.4648 53 L526.4648 51.8457 L527.6191 51.8457 L527.6191 53 ZM526.4648 50.6855 L526.4648 50.3691 Q526.4648 49.25 527.3262 48.2656 L527.6953 47.8379 Q528.6152 46.7832 528.6152 46.1094 Q528.6152 45.5879 528.2109 45.2832 Q527.8066 44.9785 527.1211 44.9785 Q526.2246 44.9785 525.2168 45.4121 L525.2168 44.4336 Q526.3008 44.1055 527.2441 44.1055 Q528.4395 44.1055 529.1426 44.6416 Q529.8457 45.1777 529.8457 46.0918 Q529.8457 46.6074 529.6436 46.9795 Q529.4414 47.3516 528.8672 47.8965 L528.5039 48.2363 Q527.959 48.752 527.7891 49.1006 Q527.6191 49.4492 527.6191 50.041 L527.6191 50.6855 Z" style="fill:black; stroke:none;"
    /></g
  ></g
></svg
>
