<?xml version="1.0"?>
<!DOCTYPE svg PUBLIC '-//W3C//DTD SVG 1.0//EN'
          'http://www.w3.org/TR/2001/REC-SVG-20010904/DTD/svg10.dtd'>
<svg xmlns:xlink="http://www.w3.org/1999/xlink" style="fill-opacity:1; color-rendering:auto; color-interpolation:auto; text-rendering:auto; stroke:black; stroke-linecap:square; stroke-miterlimit:10; shape-rendering:auto; stroke-opacity:1; fill:black; stroke-dasharray:none; font-weight:normal; stroke-width:1; font-family:'Dialog'; font-style:normal; stroke-linejoin:miter; font-size:12px; stroke-dashoffset:0; image-rendering:auto;" xmlns="http://www.w3.org/2000/svg"
><!--Generated by the Batik Graphics2D SVG Generator--><defs id="genericDefs"
  /><g
  ><defs id="defs1"
    ><clipPath clipPathUnits="userSpaceOnUse" id="clipPath1"
      ><path d="M134 30 L156 30 L156 52 L134 52 L134 30 Z"
      /></clipPath
      ><clipPath clipPathUnits="userSpaceOnUse" id="clipPath2"
      ><path d="M82 30 L104 30 L104 52 L82 52 L82 30 Z"
      /></clipPath
      ><clipPath clipPathUnits="userSpaceOnUse" id="clipPath3"
      ><path d="M30 30 L52 30 L52 52 L30 52 L30 30 Z"
      /></clipPath
    ></defs
    ><g style="fill:white; text-rendering:optimizeSpeed; stroke:white;"
    ><rect x="0" width="238" height="82" y="0" style="stroke:none;"
    /></g
    ><g style="text-rendering:optimizeSpeed;" ID="l-1:1,2"
    ><polygon style="fill:none;" points=" 197 41 145 41"
    /></g
    ><g style="text-rendering:optimizeSpeed;" ID="r-1:1"
    ><path style="fill:none;" d="M197 30 C191.5 35.5 202.5 46.5 197 52"
    /></g
    ><g style="text-rendering:optimizeSpeed;" ID="l-1:2,3"
    ><polygon style="fill:none;" points=" 145 41 93 41"
    /></g
    ><g ID="r-1:2" style="fill:white; text-rendering:optimizeSpeed; stroke:white;"
    ><rect x="134" y="30" width="22" style="clip-path:url(#clipPath1); stroke:none;" height="22"
      /><rect x="134" y="30" width="22" style="clip-path:url(#clipPath1); fill:rgb(0,144,188); stroke:none;" height="22"
      /><rect x="134" y="30" width="22" style="clip-path:url(#clipPath1); fill:none; stroke:black;" height="22"
      /><rect x="134" y="30" width="22" style="fill:none; stroke:black;" height="22"
    /></g
    ><g style="text-rendering:optimizeSpeed;" ID="l-1:3,4"
    ><polygon style="fill:none;" points=" 93 41 41 41"
    /></g
    ><g ID="r-1:3" style="fill:white; text-rendering:optimizeSpeed; stroke:white;"
    ><rect x="82" y="30" width="22" style="clip-path:url(#clipPath2); stroke:none;" height="22"
      /><polygon style="fill:rgb(0,144,188); clip-path:url(#clipPath2); stroke:none;" points=" 82 30 104 30 104 52"
      /><polygon style="fill:none; clip-path:url(#clipPath2); stroke:black;" points=" 82 30 104 30 104 52"
      /><rect x="82" y="30" width="22" style="fill:none; stroke:black;" height="22"
    /></g
    ><g ID="r-1:4" style="fill:white; text-rendering:optimizeSpeed; stroke:white;"
    ><rect x="30" y="30" width="22" style="clip-path:url(#clipPath3); stroke:none;" height="22"
      /><polygon style="fill:rgb(0,144,188); clip-path:url(#clipPath3); stroke:none;" points=" 30 30 52 30 52 52"
      /><polygon style="fill:none; clip-path:url(#clipPath3); stroke:black;" points=" 30 30 52 30 52 52"
      /><rect x="30" y="30" width="22" style="fill:none; stroke:black;" height="22"
    /></g
    ><g ID="li-1:3,4" style="fill:white; text-rendering:optimizeSpeed; stroke:white;"
    ><rect x="70" width="7" height="9" y="44" style="stroke:none;"
      /><path d="M74.5176 53 L74.5176 50.5449 L70.6152 50.5449 L70.6152 49.6719 L74.5176 44.3281 L75.6016 44.3281 L75.6016 49.6016 L76.7617 49.6016 L76.7617 50.5449 L75.6016 50.5449 L75.6016 53 ZM71.7461 49.6016 L74.5938 49.6016 L74.5938 45.7461 Z" style="fill:black; stroke:none;"
      /><rect x="57" width="6" height="13" y="42" style="stroke:none;"
      /><path d="M58.1543 57.3145 L58.1543 48.8242 Q58.1543 47.3008 58.8398 46.4512 Q59.5254 45.6016 60.75 45.6016 Q61.7578 45.6016 62.3789 46.1289 Q63 46.6562 63 47.5176 Q63 48.209 62.6016 48.792 Q62.2031 49.375 61.4121 49.8496 Q62.4609 50.1836 63.0557 50.8838 Q63.6504 51.584 63.6504 52.4863 Q63.6504 53.6523 62.8447 54.3994 Q62.0391 55.1465 60.7793 55.1465 Q60.0234 55.1465 59.3086 54.9004 L59.3086 57.3145 ZM59.7422 49.6504 L59.9531 49.6504 Q60.709 49.6504 61.2744 49.0381 Q61.8398 48.4258 61.8398 47.6113 Q61.8398 47.043 61.5469 46.7559 Q61.2539 46.4688 60.6738 46.4688 Q59.9883 46.4688 59.6484 47.0137 Q59.3086 47.5586 59.3086 48.6426 L59.3086 53.8984 Q60.1465 54.2793 60.791 54.2793 Q61.5 54.2793 61.9951 53.7666 Q62.4902 53.2539 62.4902 52.5332 Q62.4902 51.6191 61.8047 51.0684 Q61.1191 50.5176 59.9707 50.5176 L59.7422 50.5176 Z" style="fill:black; stroke:none;"
    /></g
    ><g ID="li-1:2,3" style="fill:white; text-rendering:optimizeSpeed; stroke:white;"
    ><rect x="122" width="7" height="9" y="44" style="stroke:none;"
      /><path d="M126.5176 53 L126.5176 50.5449 L122.6152 50.5449 L122.6152 49.6719 L126.5176 44.3281 L127.6016 44.3281 L127.6016 49.6016 L128.7617 49.6016 L128.7617 50.5449 L127.6016 50.5449 L127.6016 53 ZM123.7461 49.6016 L126.5938 49.6016 L126.5938 45.7461 Z" style="fill:black; stroke:none;"
      /><rect x="109" width="6" height="13" y="42" style="stroke:none;"
      /><path d="M110.1543 57.3145 L110.1543 48.8242 Q110.1543 47.3008 110.8398 46.4512 Q111.5254 45.6016 112.75 45.6016 Q113.7578 45.6016 114.3789 46.1289 Q115 46.6562 115 47.5176 Q115 48.209 114.6016 48.792 Q114.2031 49.375 113.4121 49.8496 Q114.4609 50.1836 115.0557 50.8838 Q115.6504 51.584 115.6504 52.4863 Q115.6504 53.6523 114.8447 54.3994 Q114.0391 55.1465 112.7793 55.1465 Q112.0234 55.1465 111.3086 54.9004 L111.3086 57.3145 ZM111.7422 49.6504 L111.9531 49.6504 Q112.709 49.6504 113.2744 49.0381 Q113.8398 48.4258 113.8398 47.6113 Q113.8398 47.043 113.5469 46.7559 Q113.2539 46.4688 112.6738 46.4688 Q111.9883 46.4688 111.6484 47.0137 Q111.3086 47.5586 111.3086 48.6426 L111.3086 53.8984 Q112.1465 54.2793 112.791 54.2793 Q113.5 54.2793 113.9951 53.7666 Q114.4902 53.2539 114.4902 52.5332 Q114.4902 51.6191 113.8047 51.0684 Q113.1191 50.5176 111.9707 50.5176 L111.7422 50.5176 Z" style="fill:black; stroke:none;"
    /></g
    ><g ID="li-1:1,2" style="fill:white; text-rendering:optimizeSpeed; stroke:white;"
    ><rect x="161" width="6" height="13" y="42" style="stroke:none;"
      /><path d="M162.1543 57.3145 L162.1543 48.8242 Q162.1543 47.3008 162.8398 46.4512 Q163.5254 45.6016 164.75 45.6016 Q165.7578 45.6016 166.3789 46.1289 Q167 46.6562 167 47.5176 Q167 48.209 166.6016 48.792 Q166.2031 49.375 165.4121 49.8496 Q166.4609 50.1836 167.0557 50.8838 Q167.6504 51.584 167.6504 52.4863 Q167.6504 53.6523 166.8447 54.3994 Q166.0391 55.1465 164.7793 55.1465 Q164.0234 55.1465 163.3086 54.9004 L163.3086 57.3145 ZM163.7422 49.6504 L163.9531 49.6504 Q164.709 49.6504 165.2744 49.0381 Q165.8398 48.4258 165.8398 47.6113 Q165.8398 47.043 165.5469 46.7559 Q165.2539 46.4688 164.6738 46.4688 Q163.9883 46.4688 163.6484 47.0137 Q163.3086 47.5586 163.3086 48.6426 L163.3086 53.8984 Q164.1465 54.2793 164.791 54.2793 Q165.5 54.2793 165.9951 53.7666 Q166.4902 53.2539 166.4902 52.5332 Q166.4902 51.6191 165.8047 51.0684 Q165.1191 50.5176 163.9707 50.5176 L163.7422 50.5176 Z" style="fill:black; stroke:none;"
    /></g
  ></g
></svg
>
