<?xml version="1.0"?>
<!DOCTYPE svg PUBLIC '-//W3C//DTD SVG 1.0//EN'
          'http://www.w3.org/TR/2001/REC-SVG-20010904/DTD/svg10.dtd'>
<svg xmlns:xlink="http://www.w3.org/1999/xlink" style="fill-opacity:1; color-rendering:auto; color-interpolation:auto; text-rendering:auto; stroke:black; stroke-linecap:square; stroke-miterlimit:10; shape-rendering:auto; stroke-opacity:1; fill:black; stroke-dasharray:none; font-weight:normal; stroke-width:1; font-family:'Dialog'; font-style:normal; stroke-linejoin:miter; font-size:12px; stroke-dashoffset:0; image-rendering:auto;" xmlns="http://www.w3.org/2000/svg"
><!--Generated by the Batik Graphics2D SVG Generator--><defs id="genericDefs"
  /><g
  ><defs id="defs1"
    ><clipPath clipPathUnits="userSpaceOnUse" id="clipPath1"
      ><path d="M156 41 C156 47.0751 151.0751 52 145 52 C138.9249 52 134 47.0751 134 41 C134 34.9249 138.9249 30 145 30 C151.0751 30 156 34.9249 156 41 Z"
      /></clipPath
      ><clipPath clipPathUnits="userSpaceOnUse" id="clipPath2"
      ><path d="M104 41 C104 47.0751 99.0751 52 93 52 C86.9249 52 82 47.0751 82 41 C82 34.9249 86.9249 30 93 30 C99.0751 30 104 34.9249 104 41 Z"
      /></clipPath
      ><clipPath clipPathUnits="userSpaceOnUse" id="clipPath3"
      ><path style="fill-rule:evenodd;" d="M41 30 L52 41 L41 52 L30 41 Z"
      /></clipPath
    ></defs
    ><g style="fill:white; text-rendering:optimizeSpeed; stroke:white;"
    ><rect x="0" width="238" height="82" y="0" style="stroke:none;"
    /></g
    ><g style="text-rendering:optimizeSpeed;" ID="l-1:1,2"
    ><polygon style="fill:none;" points=" 197 41 145 41"
    /></g
    ><g style="text-rendering:optimizeSpeed;" ID="r-1:1"
    ><path style="fill:none;" d="M197 30 C191.5 35.5 202.5 46.5 197 52"
    /></g
    ><g style="text-rendering:optimizeSpeed;" ID="l-1:2,3"
    ><polygon style="fill:none;" points=" 145 41 93 41"
    /></g
    ><g ID="r-1:2" style="fill:white; text-rendering:optimizeSpeed; stroke:white;"
    ><circle r="11" style="clip-path:url(#clipPath1); stroke:none;" cx="145" cy="41"
      /><rect x="134" y="30" width="22" style="clip-path:url(#clipPath1); fill:rgb(0,144,188); stroke:none;" height="22"
      /><rect x="134" y="30" width="22" style="clip-path:url(#clipPath1); fill:none; stroke:black;" height="22"
      /><circle r="11" style="fill:none; stroke:black;" cx="145" cy="41"
    /></g
    ><g style="text-rendering:optimizeSpeed;" ID="l-1:3,4"
    ><polygon style="fill:none;" points=" 93 41 41 41"
    /></g
    ><g ID="r-1:3" style="fill:white; text-rendering:optimizeSpeed; stroke:white;"
    ><circle r="11" style="clip-path:url(#clipPath2); stroke:none;" cx="93" cy="41"
      /><rect x="82" y="30" width="22" style="clip-path:url(#clipPath2); fill:rgb(255,212,0); stroke:none;" height="22"
      /><rect x="82" y="30" width="22" style="clip-path:url(#clipPath2); fill:none; stroke:black;" height="22"
      /><circle r="11" style="fill:none; stroke:black;" cx="93" cy="41"
    /></g
    ><g ID="r-1:4" style="fill:white; text-rendering:optimizeSpeed; stroke:white;"
    ><polygon style="stroke:none; clip-path:url(#clipPath3);" points=" 41 30 52 41 41 52 30 41"
      /><rect x="30" y="30" width="22" style="clip-path:url(#clipPath3); fill:rgb(165,67,153); stroke:none;" height="22"
      /><rect x="30" y="30" width="22" style="clip-path:url(#clipPath3); fill:none; stroke:black;" height="22"
      /><polygon style="fill:none; stroke:black;" points=" 41 30 52 41 41 52 30 41"
    /></g
    ><g ID="li-1:3,4" style="fill:white; text-rendering:optimizeSpeed; stroke:white;"
    ><rect x="70" width="7" height="10" y="44" style="stroke:none;"
      /><path d="M72.0625 49.5059 Q72.8887 48.4336 74.1426 48.4336 Q75.2793 48.4336 76.0029 49.1865 Q76.7266 49.9395 76.7266 51.1172 Q76.7266 52.4707 75.915 53.3438 Q75.1035 54.2168 73.8555 54.2168 Q72.4199 54.2168 71.6113 53.0625 Q70.8027 51.9082 70.8027 49.8574 Q70.8027 47.6016 71.7314 46.3535 Q72.6602 45.1055 74.3477 45.1055 Q75.1211 45.1055 76.2812 45.4336 L76.2812 46.4414 Q75.0566 45.9727 74.2773 45.9727 Q72.0625 45.9727 72.0625 49.5059 ZM75.5664 51.375 Q75.5664 50.3906 75.124 49.8281 Q74.6816 49.2656 73.8965 49.2656 Q73.1641 49.2656 72.6367 49.7578 Q72.1094 50.25 72.1094 50.9414 Q72.1094 52.0312 72.6104 52.6904 Q73.1113 53.3496 73.9375 53.3496 Q74.6816 53.3496 75.124 52.8135 Q75.5664 52.2773 75.5664 51.375 Z" style="fill:black; stroke:none;"
      /><rect x="56" width="8" height="8" y="45" style="stroke:none;"
      /><path d="M61.7949 48.8047 Q62.2051 47.6855 62.416 46.6367 L63.4941 46.6367 Q63.1836 47.9727 62.2344 49.8125 L62.3516 50.0938 Q62.4277 50.2637 62.7148 50.873 Q62.8906 51.248 63.125 51.7637 Q63.4766 52.5664 63.6992 53 L62.4688 53 Q62.3984 52.8535 62.3867 52.8242 L62.123 52.2148 L61.8828 51.6523 L61.6895 51.2012 L61.5957 50.9844 Q61.0566 52.1797 60.5029 52.6631 Q59.9492 53.1465 59.123 53.1465 Q58.0566 53.1465 57.415 52.3115 Q56.7734 51.4766 56.7734 50.0879 Q56.7734 48.4648 57.5088 47.4775 Q58.2441 46.4902 59.457 46.4902 Q60.2656 46.4902 60.7461 46.9648 Q61.2266 47.4395 61.7949 48.8047 ZM61.2031 50.0469 L60.916 49.3965 Q60.3887 48.1895 60.0635 47.7764 Q59.7383 47.3633 59.3281 47.3633 Q58.748 47.3633 58.376 48.0781 Q58.0039 48.793 58.0039 49.9004 Q58.0039 50.9727 58.3525 51.626 Q58.7012 52.2793 59.2754 52.2793 Q59.7734 52.2793 60.1895 51.7988 Q60.6055 51.3184 61.2031 50.0469 Z" style="fill:black; stroke:none;"
    /></g
    ><g ID="li-1:2,3" style="fill:white; text-rendering:optimizeSpeed; stroke:white;"
    ><rect x="122" width="7" height="9" y="44" style="stroke:none;"
      /><path d="M126.5176 53 L126.5176 50.5449 L122.6152 50.5449 L122.6152 49.6719 L126.5176 44.3281 L127.6016 44.3281 L127.6016 49.6016 L128.7617 49.6016 L128.7617 50.5449 L127.6016 50.5449 L127.6016 53 ZM123.7461 49.6016 L126.5938 49.6016 L126.5938 45.7461 Z" style="fill:black; stroke:none;"
      /><rect x="109" width="6" height="13" y="42" style="stroke:none;"
      /><path d="M110.1543 57.3145 L110.1543 48.8242 Q110.1543 47.3008 110.8398 46.4512 Q111.5254 45.6016 112.75 45.6016 Q113.7578 45.6016 114.3789 46.1289 Q115 46.6562 115 47.5176 Q115 48.209 114.6016 48.792 Q114.2031 49.375 113.4121 49.8496 Q114.4609 50.1836 115.0557 50.8838 Q115.6504 51.584 115.6504 52.4863 Q115.6504 53.6523 114.8447 54.3994 Q114.0391 55.1465 112.7793 55.1465 Q112.0234 55.1465 111.3086 54.9004 L111.3086 57.3145 ZM111.7422 49.6504 L111.9531 49.6504 Q112.709 49.6504 113.2744 49.0381 Q113.8398 48.4258 113.8398 47.6113 Q113.8398 47.043 113.5469 46.7559 Q113.2539 46.4688 112.6738 46.4688 Q111.9883 46.4688 111.6484 47.0137 Q111.3086 47.5586 111.3086 48.6426 L111.3086 53.8984 Q112.1465 54.2793 112.791 54.2793 Q113.5 54.2793 113.9951 53.7666 Q114.4902 53.2539 114.4902 52.5332 Q114.4902 51.6191 113.8047 51.0684 Q113.1191 50.5176 111.9707 50.5176 L111.7422 50.5176 Z" style="fill:black; stroke:none;"
    /></g
    ><g ID="li-1:1,2" style="fill:white; text-rendering:optimizeSpeed; stroke:white;"
    ><rect x="161" width="6" height="13" y="42" style="stroke:none;"
      /><path d="M162.1543 57.3145 L162.1543 48.8242 Q162.1543 47.3008 162.8398 46.4512 Q163.5254 45.6016 164.75 45.6016 Q165.7578 45.6016 166.3789 46.1289 Q167 46.6562 167 47.5176 Q167 48.209 166.6016 48.792 Q166.2031 49.375 165.4121 49.8496 Q166.4609 50.1836 167.0557 50.8838 Q167.6504 51.584 167.6504 52.4863 Q167.6504 53.6523 166.8447 54.3994 Q166.0391 55.1465 164.7793 55.1465 Q164.0234 55.1465 163.3086 54.9004 L163.3086 57.3145 ZM163.7422 49.6504 L163.9531 49.6504 Q164.709 49.6504 165.2744 49.0381 Q165.8398 48.4258 165.8398 47.6113 Q165.8398 47.043 165.5469 46.7559 Q165.2539 46.4688 164.6738 46.4688 Q163.9883 46.4688 163.6484 47.0137 Q163.3086 47.5586 163.3086 48.6426 L163.3086 53.8984 Q164.1465 54.2793 164.791 54.2793 Q165.5 54.2793 165.9951 53.7666 Q166.4902 53.2539 166.4902 52.5332 Q166.4902 51.6191 165.8047 51.0684 Q165.1191 50.5176 163.9707 50.5176 L163.7422 50.5176 Z" style="fill:black; stroke:none;"
    /></g
  ></g
></svg
>
