<?xml version="1.0"?>
<!DOCTYPE svg PUBLIC '-//W3C//DTD SVG 1.0//EN'
          'http://www.w3.org/TR/2001/REC-SVG-20010904/DTD/svg10.dtd'>
<svg xmlns:xlink="http://www.w3.org/1999/xlink" style="fill-opacity:1; color-rendering:auto; color-interpolation:auto; text-rendering:auto; stroke:black; stroke-linecap:square; stroke-miterlimit:10; shape-rendering:auto; stroke-opacity:1; fill:black; stroke-dasharray:none; font-weight:normal; stroke-width:1; font-family:'Dialog'; font-style:normal; stroke-linejoin:miter; font-size:12px; stroke-dashoffset:0; image-rendering:auto;" xmlns="http://www.w3.org/2000/svg"
><!--Generated by the Batik Graphics2D SVG Generator--><defs id="genericDefs"
  /><g
  ><defs id="defs1"
    ><clipPath clipPathUnits="userSpaceOnUse" id="clipPath1"
      ><path d="M312 41 C312 47.0751 307.0751 52 301 52 C294.9249 52 290 47.0751 290 41 C290 34.9249 294.9249 30 301 30 C307.0751 30 312 34.9249 312 41 Z"
      /></clipPath
      ><clipPath clipPathUnits="userSpaceOnUse" id="clipPath2"
      ><path d="M260 41 C260 47.0751 255.0751 52 249 52 C242.9249 52 238 47.0751 238 41 C238 34.9249 242.9249 30 249 30 C255.0751 30 260 34.9249 260 41 Z"
      /></clipPath
      ><clipPath clipPathUnits="userSpaceOnUse" id="clipPath3"
      ><path d="M208 41 C208 47.0751 203.0751 52 197 52 C190.9249 52 186 47.0751 186 41 C186 34.9249 190.9249 30 197 30 C203.0751 30 208 34.9249 208 41 Z"
      /></clipPath
      ><clipPath clipPathUnits="userSpaceOnUse" id="clipPath4"
      ><path d="M156 41 C156 47.0751 151.0751 52 145 52 C138.9249 52 134 47.0751 134 41 C134 34.9249 138.9249 30 145 30 C151.0751 30 156 34.9249 156 41 Z"
      /></clipPath
      ><clipPath clipPathUnits="userSpaceOnUse" id="clipPath5"
      ><path d="M104 41 C104 47.0751 99.0751 52 93 52 C86.9249 52 82 47.0751 82 41 C82 34.9249 86.9249 30 93 30 C99.0751 30 104 34.9249 104 41 Z"
      /></clipPath
      ><clipPath clipPathUnits="userSpaceOnUse" id="clipPath6"
      ><path d="M52 41 C52 47.0751 47.0751 52 41 52 C34.9249 52 30 47.0751 30 41 C30 34.9249 34.9249 30 41 30 C47.0751 30 52 34.9249 52 41 Z"
      /></clipPath
    ></defs
    ><g style="fill:white; text-rendering:optimizeSpeed; stroke:white;"
    ><rect x="0" width="394" height="82" y="0" style="stroke:none;"
    /></g
    ><g style="text-rendering:optimizeSpeed;" ID="l-1:1,2"
    ><polygon style="fill:none;" points=" 353 41 301 41"
    /></g
    ><g style="text-rendering:optimizeSpeed;" ID="r-1:1"
    ><path style="fill:none;" d="M353 30 C347.5 35.5 358.5 46.5 353 52"
    /></g
    ><g style="text-rendering:optimizeSpeed;" ID="l-1:2,3"
    ><polygon style="fill:none;" points=" 301 41 249 41"
    /></g
    ><g ID="r-1:2" style="fill:white; text-rendering:optimizeSpeed; stroke:white;"
    ><circle r="11" style="clip-path:url(#clipPath1); stroke:none;" cx="301" cy="41"
      /><rect x="290" y="30" width="22" style="clip-path:url(#clipPath1); fill:rgb(0,144,188); stroke:none;" height="22"
      /><rect x="290" y="30" width="22" style="clip-path:url(#clipPath1); fill:none; stroke:black;" height="22"
      /><circle r="11" style="fill:none; stroke:black;" cx="301" cy="41"
    /></g
    ><g style="text-rendering:optimizeSpeed;" ID="l-1:3,4"
    ><polygon style="fill:none;" points=" 249 41 197 41"
    /></g
    ><g ID="r-1:3" style="fill:white; text-rendering:optimizeSpeed; stroke:white;"
    ><circle r="11" style="clip-path:url(#clipPath2); stroke:none;" cx="249" cy="41"
      /><rect x="238" y="30" width="22" style="clip-path:url(#clipPath2); fill:rgb(0,144,188); stroke:none;" height="22"
      /><rect x="238" y="30" width="22" style="clip-path:url(#clipPath2); fill:none; stroke:black;" height="22"
      /><circle r="11" style="fill:none; stroke:black;" cx="249" cy="41"
    /></g
    ><g style="text-rendering:optimizeSpeed;" ID="l-1:4,5"
    ><polygon style="fill:none;" points=" 197 41 145 41"
    /></g
    ><g ID="r-1:4" style="fill:white; text-rendering:optimizeSpeed; stroke:white;"
    ><circle r="11" style="clip-path:url(#clipPath3); stroke:none;" cx="197" cy="41"
      /><rect x="186" y="30" width="22" style="clip-path:url(#clipPath3); fill:rgb(0,144,188); stroke:none;" height="22"
      /><rect x="186" y="30" width="22" style="clip-path:url(#clipPath3); fill:none; stroke:black;" height="22"
      /><circle r="11" style="fill:none; stroke:black;" cx="197" cy="41"
    /></g
    ><g style="text-rendering:optimizeSpeed;" ID="l-1:5,6"
    ><polygon style="fill:none;" points=" 145 41 93 41"
    /></g
    ><g ID="r-1:5" style="fill:white; text-rendering:optimizeSpeed; stroke:white;"
    ><circle r="11" style="clip-path:url(#clipPath4); stroke:none;" cx="145" cy="41"
      /><rect x="134" y="30" width="22" style="clip-path:url(#clipPath4); fill:rgb(0,144,188); stroke:none;" height="22"
      /><rect x="134" y="30" width="22" style="clip-path:url(#clipPath4); fill:none; stroke:black;" height="22"
      /><circle r="11" style="fill:none; stroke:black;" cx="145" cy="41"
    /></g
    ><g style="text-rendering:optimizeSpeed;" ID="l-1:6,7"
    ><polygon style="fill:none;" points=" 93 41 41 41"
    /></g
    ><g ID="r-1:6" style="fill:white; text-rendering:optimizeSpeed; stroke:white;"
    ><circle r="11" style="clip-path:url(#clipPath5); stroke:none;" cx="93" cy="41"
      /><rect x="82" y="30" width="22" style="clip-path:url(#clipPath5); fill:rgb(0,144,188); stroke:none;" height="22"
      /><rect x="82" y="30" width="22" style="clip-path:url(#clipPath5); fill:none; stroke:black;" height="22"
      /><circle r="11" style="fill:none; stroke:black;" cx="93" cy="41"
    /></g
    ><g ID="r-1:7" style="fill:white; text-rendering:optimizeSpeed; stroke:white;"
    ><circle r="11" style="clip-path:url(#clipPath6); stroke:none;" cx="41" cy="41"
      /><rect x="30" y="30" width="22" style="clip-path:url(#clipPath6); fill:rgb(0,144,188); stroke:none;" height="22"
      /><rect x="30" y="30" width="22" style="clip-path:url(#clipPath6); fill:none; stroke:black;" height="22"
      /><circle r="11" style="fill:none; stroke:black;" cx="41" cy="41"
    /></g
    ><g ID="li-1:6,7" style="fill:white; text-rendering:optimizeSpeed; stroke:white;"
    ><rect x="70" width="7" height="9" y="44" style="stroke:none;"
      /><path d="M74.5176 53 L74.5176 50.5449 L70.6152 50.5449 L70.6152 49.6719 L74.5176 44.3281 L75.6016 44.3281 L75.6016 49.6016 L76.7617 49.6016 L76.7617 50.5449 L75.6016 50.5449 L75.6016 53 ZM71.7461 49.6016 L74.5938 49.6016 L74.5938 45.7461 Z" style="fill:black; stroke:none;"
      /><rect x="57" width="6" height="13" y="42" style="stroke:none;"
      /><path d="M58.1543 57.3145 L58.1543 48.8242 Q58.1543 47.3008 58.8398 46.4512 Q59.5254 45.6016 60.75 45.6016 Q61.7578 45.6016 62.3789 46.1289 Q63 46.6562 63 47.5176 Q63 48.209 62.6016 48.792 Q62.2031 49.375 61.4121 49.8496 Q62.4609 50.1836 63.0557 50.8838 Q63.6504 51.584 63.6504 52.4863 Q63.6504 53.6523 62.8447 54.3994 Q62.0391 55.1465 60.7793 55.1465 Q60.0234 55.1465 59.3086 54.9004 L59.3086 57.3145 ZM59.7422 49.6504 L59.9531 49.6504 Q60.709 49.6504 61.2744 49.0381 Q61.8398 48.4258 61.8398 47.6113 Q61.8398 47.043 61.5469 46.7559 Q61.2539 46.4688 60.6738 46.4688 Q59.9883 46.4688 59.6484 47.0137 Q59.3086 47.5586 59.3086 48.6426 L59.3086 53.8984 Q60.1465 54.2793 60.791 54.2793 Q61.5 54.2793 61.9951 53.7666 Q62.4902 53.2539 62.4902 52.5332 Q62.4902 51.6191 61.8047 51.0684 Q61.1191 50.5176 59.9707 50.5176 L59.7422 50.5176 Z" style="fill:black; stroke:none;"
    /></g
    ><g ID="li-1:5,6" style="fill:white; text-rendering:optimizeSpeed; stroke:white;"
    ><rect x="123" width="6" height="10" y="44" style="stroke:none;"
      /><path d="M124.2188 53.9355 L124.2188 52.8574 Q125.4609 53.3496 126.1758 53.3496 Q127.002 53.3496 127.5205 52.8662 Q128.0391 52.3828 128.0391 51.6152 Q128.0391 49.7871 125.4785 49.7871 L125.0215 49.7871 L125.0215 49.0078 L125.4258 49.002 Q127.8281 49.002 127.8281 47.3086 Q127.8281 45.9785 126.2461 45.9785 Q125.3789 45.9785 124.3359 46.4648 L124.3359 45.457 Q125.3613 45.1113 126.3281 45.1113 Q128.9883 45.1113 128.9883 47.1211 Q128.9883 48.6504 127.1777 49.3008 Q129.2754 49.7871 129.2754 51.5977 Q129.2754 52.8223 128.4668 53.5195 Q127.6582 54.2168 126.2461 54.2168 Q125.4434 54.2168 124.2188 53.9355 Z" style="fill:black; stroke:none;"
      /><rect x="109" width="6" height="13" y="42" style="stroke:none;"
      /><path d="M110.1543 57.3145 L110.1543 48.8242 Q110.1543 47.3008 110.8398 46.4512 Q111.5254 45.6016 112.75 45.6016 Q113.7578 45.6016 114.3789 46.1289 Q115 46.6562 115 47.5176 Q115 48.209 114.6016 48.792 Q114.2031 49.375 113.4121 49.8496 Q114.4609 50.1836 115.0557 50.8838 Q115.6504 51.584 115.6504 52.4863 Q115.6504 53.6523 114.8447 54.3994 Q114.0391 55.1465 112.7793 55.1465 Q112.0234 55.1465 111.3086 54.9004 L111.3086 57.3145 ZM111.7422 49.6504 L111.9531 49.6504 Q112.709 49.6504 113.2744 49.0381 Q113.8398 48.4258 113.8398 47.6113 Q113.8398 47.043 113.5469 46.7559 Q113.2539 46.4688 112.6738 46.4688 Q111.9883 46.4688 111.6484 47.0137 Q111.3086 47.5586 111.3086 48.6426 L111.3086 53.8984 Q112.1465 54.2793 112.791 54.2793 Q113.5 54.2793 113.9951 53.7666 Q114.4902 53.2539 114.4902 52.5332 Q114.4902 51.6191 113.8047 51.0684 Q113.1191 50.5176 111.9707 50.5176 L111.7422 50.5176 Z" style="fill:black; stroke:none;"
    /></g
    ><g ID="li-1:4,5" style="fill:white; text-rendering:optimizeSpeed; stroke:white;"
    ><rect x="174" width="7" height="9" y="44" style="stroke:none;"
      /><path d="M178.5176 53 L178.5176 50.5449 L174.6152 50.5449 L174.6152 49.6719 L178.5176 44.3281 L179.6016 44.3281 L179.6016 49.6016 L180.7617 49.6016 L180.7617 50.5449 L179.6016 50.5449 L179.6016 53 ZM175.7461 49.6016 L178.5938 49.6016 L178.5938 45.7461 Z" style="fill:black; stroke:none;"
      /><rect x="161" width="6" height="13" y="42" style="stroke:none;"
      /><path d="M162.1543 57.3145 L162.1543 48.8242 Q162.1543 47.3008 162.8398 46.4512 Q163.5254 45.6016 164.75 45.6016 Q165.7578 45.6016 166.3789 46.1289 Q167 46.6562 167 47.5176 Q167 48.209 166.6016 48.792 Q166.2031 49.375 165.4121 49.8496 Q166.4609 50.1836 167.0557 50.8838 Q167.6504 51.584 167.6504 52.4863 Q167.6504 53.6523 166.8447 54.3994 Q166.0391 55.1465 164.7793 55.1465 Q164.0234 55.1465 163.3086 54.9004 L163.3086 57.3145 ZM163.7422 49.6504 L163.9531 49.6504 Q164.709 49.6504 165.2744 49.0381 Q165.8398 48.4258 165.8398 47.6113 Q165.8398 47.043 165.5469 46.7559 Q165.2539 46.4688 164.6738 46.4688 Q163.9883 46.4688 163.6484 47.0137 Q163.3086 47.5586 163.3086 48.6426 L163.3086 53.8984 Q164.1465 54.2793 164.791 54.2793 Q165.5 54.2793 165.9951 53.7666 Q166.4902 53.2539 166.4902 52.5332 Q166.4902 51.6191 165.8047 51.0684 Q165.1191 50.5176 163.9707 50.5176 L163.7422 50.5176 Z" style="fill:black; stroke:none;"
    /></g
    ><g ID="li-1:3,4" style="fill:white; text-rendering:optimizeSpeed; stroke:white;"
    ><rect x="226" width="7" height="9" y="44" style="stroke:none;"
      /><path d="M230.5176 53 L230.5176 50.5449 L226.6152 50.5449 L226.6152 49.6719 L230.5176 44.3281 L231.6016 44.3281 L231.6016 49.6016 L232.7617 49.6016 L232.7617 50.5449 L231.6016 50.5449 L231.6016 53 ZM227.7461 49.6016 L230.5938 49.6016 L230.5938 45.7461 Z" style="fill:black; stroke:none;"
      /><rect x="213" width="6" height="13" y="42" style="stroke:none;"
      /><path d="M214.1543 57.3145 L214.1543 48.8242 Q214.1543 47.3008 214.8398 46.4512 Q215.5254 45.6016 216.75 45.6016 Q217.7578 45.6016 218.3789 46.1289 Q219 46.6562 219 47.5176 Q219 48.209 218.6016 48.792 Q218.2031 49.375 217.4121 49.8496 Q218.4609 50.1836 219.0557 50.8838 Q219.6504 51.584 219.6504 52.4863 Q219.6504 53.6523 218.8447 54.3994 Q218.0391 55.1465 216.7793 55.1465 Q216.0234 55.1465 215.3086 54.9004 L215.3086 57.3145 ZM215.7422 49.6504 L215.9531 49.6504 Q216.709 49.6504 217.2744 49.0381 Q217.8398 48.4258 217.8398 47.6113 Q217.8398 47.043 217.5469 46.7559 Q217.2539 46.4688 216.6738 46.4688 Q215.9883 46.4688 215.6484 47.0137 Q215.3086 47.5586 215.3086 48.6426 L215.3086 53.8984 Q216.1465 54.2793 216.791 54.2793 Q217.5 54.2793 217.9951 53.7666 Q218.4902 53.2539 218.4902 52.5332 Q218.4902 51.6191 217.8047 51.0684 Q217.1191 50.5176 215.9707 50.5176 L215.7422 50.5176 Z" style="fill:black; stroke:none;"
    /></g
    ><g ID="li-1:2,3" style="fill:white; text-rendering:optimizeSpeed; stroke:white;"
    ><rect x="279" width="6" height="10" y="44" style="stroke:none;"
      /><path d="M280.2188 53.9355 L280.2188 52.8574 Q281.4609 53.3496 282.1758 53.3496 Q283.002 53.3496 283.5205 52.8662 Q284.0391 52.3828 284.0391 51.6152 Q284.0391 49.7871 281.4785 49.7871 L281.0215 49.7871 L281.0215 49.0078 L281.4258 49.002 Q283.8281 49.002 283.8281 47.3086 Q283.8281 45.9785 282.2461 45.9785 Q281.3789 45.9785 280.3359 46.4648 L280.3359 45.457 Q281.3613 45.1113 282.3281 45.1113 Q284.9883 45.1113 284.9883 47.1211 Q284.9883 48.6504 283.1777 49.3008 Q285.2754 49.7871 285.2754 51.5977 Q285.2754 52.8223 284.4668 53.5195 Q283.6582 54.2168 282.2461 54.2168 Q281.4434 54.2168 280.2188 53.9355 Z" style="fill:black; stroke:none;"
      /><rect x="265" width="6" height="13" y="42" style="stroke:none;"
      /><path d="M266.1543 57.3145 L266.1543 48.8242 Q266.1543 47.3008 266.8398 46.4512 Q267.5254 45.6016 268.75 45.6016 Q269.7578 45.6016 270.3789 46.1289 Q271 46.6562 271 47.5176 Q271 48.209 270.6016 48.792 Q270.2031 49.375 269.4121 49.8496 Q270.4609 50.1836 271.0557 50.8838 Q271.6504 51.584 271.6504 52.4863 Q271.6504 53.6523 270.8447 54.3994 Q270.0391 55.1465 268.7793 55.1465 Q268.0234 55.1465 267.3086 54.9004 L267.3086 57.3145 ZM267.7422 49.6504 L267.9531 49.6504 Q268.709 49.6504 269.2744 49.0381 Q269.8398 48.4258 269.8398 47.6113 Q269.8398 47.043 269.5469 46.7559 Q269.2539 46.4688 268.6738 46.4688 Q267.9883 46.4688 267.6484 47.0137 Q267.3086 47.5586 267.3086 48.6426 L267.3086 53.8984 Q268.1465 54.2793 268.791 54.2793 Q269.5 54.2793 269.9951 53.7666 Q270.4902 53.2539 270.4902 52.5332 Q270.4902 51.6191 269.8047 51.0684 Q269.1191 50.5176 267.9707 50.5176 L267.7422 50.5176 Z" style="fill:black; stroke:none;"
    /></g
    ><g ID="li-1:1,2" style="fill:white; text-rendering:optimizeSpeed; stroke:white;"
    ><rect x="317" width="6" height="13" y="42" style="stroke:none;"
      /><path d="M318.1543 57.3145 L318.1543 48.8242 Q318.1543 47.3008 318.8398 46.4512 Q319.5254 45.6016 320.75 45.6016 Q321.7578 45.6016 322.3789 46.1289 Q323 46.6562 323 47.5176 Q323 48.209 322.6016 48.792 Q322.2031 49.375 321.4121 49.8496 Q322.4609 50.1836 323.0557 50.8838 Q323.6504 51.584 323.6504 52.4863 Q323.6504 53.6523 322.8447 54.3994 Q322.0391 55.1465 320.7793 55.1465 Q320.0234 55.1465 319.3086 54.9004 L319.3086 57.3145 ZM319.7422 49.6504 L319.9531 49.6504 Q320.709 49.6504 321.2744 49.0381 Q321.8398 48.4258 321.8398 47.6113 Q321.8398 47.043 321.5469 46.7559 Q321.2539 46.4688 320.6738 46.4688 Q319.9883 46.4688 319.6484 47.0137 Q319.3086 47.5586 319.3086 48.6426 L319.3086 53.8984 Q320.1465 54.2793 320.791 54.2793 Q321.5 54.2793 321.9951 53.7666 Q322.4902 53.2539 322.4902 52.5332 Q322.4902 51.6191 321.8047 51.0684 Q321.1191 50.5176 319.9707 50.5176 L319.7422 50.5176 Z" style="fill:black; stroke:none;"
    /></g
  ></g
></svg
>
