<?xml version="1.0"?>
<!DOCTYPE svg PUBLIC '-//W3C//DTD SVG 1.0//EN'
          'http://www.w3.org/TR/2001/REC-SVG-20010904/DTD/svg10.dtd'>
<svg xmlns:xlink="http://www.w3.org/1999/xlink" style="fill-opacity:1; color-rendering:auto; color-interpolation:auto; text-rendering:auto; stroke:black; stroke-linecap:square; stroke-miterlimit:10; shape-rendering:auto; stroke-opacity:1; fill:black; stroke-dasharray:none; font-weight:normal; stroke-width:1; font-family:'Dialog'; font-style:normal; stroke-linejoin:miter; font-size:12px; stroke-dashoffset:0; image-rendering:auto;" xmlns="http://www.w3.org/2000/svg"
><!--Generated by the Batik Graphics2D SVG Generator--><defs id="genericDefs"
  /><g
  ><defs id="defs1"
    ><clipPath clipPathUnits="userSpaceOnUse" id="clipPath1"
      ><path d="M156 67 C156 73.0751 151.0751 78 145 78 C138.9249 78 134 73.0751 134 67 C134 60.9249 138.9249 56 145 56 C151.0751 56 156 60.9249 156 67 Z"
      /></clipPath
      ><clipPath clipPathUnits="userSpaceOnUse" id="clipPath2"
      ><path d="M104 93 C104 99.0751 99.0751 104 93 104 C86.9249 104 82 99.0751 82 93 C82 86.9249 86.9249 82 93 82 C99.0751 82 104 86.9249 104 93 Z"
      /></clipPath
      ><clipPath clipPathUnits="userSpaceOnUse" id="clipPath3"
      ><path d="M52 93 C52 99.0751 47.0751 104 41 104 C34.9249 104 30 99.0751 30 93 C30 86.9249 34.9249 82 41 82 C47.0751 82 52 86.9249 52 93 Z"
      /></clipPath
      ><clipPath clipPathUnits="userSpaceOnUse" id="clipPath4"
      ><path d="M104 41 C104 47.0751 99.0751 52 93 52 C86.9249 52 82 47.0751 82 41 C82 34.9249 86.9249 30 93 30 C99.0751 30 104 34.9249 104 41 Z"
      /></clipPath
    ></defs
    ><g style="fill:white; text-rendering:optimizeSpeed; stroke:white;"
    ><rect x="0" width="238" height="134" y="0" style="stroke:none;"
    /></g
    ><g style="text-rendering:optimizeSpeed;" ID="l-1:1,2"
    ><polygon style="fill:none;" points=" 197 67 145 67"
    /></g
    ><g style="text-rendering:optimizeSpeed;" ID="r-1:1"
    ><path style="fill:none;" d="M197 56 C191.5 61.5 202.5 72.5 197 78"
    /></g
    ><g style="text-rendering:optimizeSpeed;" ID="l-1:2,3"
    ><polygon style="fill:none;" points=" 145 67 93 93"
    /></g
    ><g style="text-rendering:optimizeSpeed;" ID="l-1:2,4"
    ><polygon style="fill:none;" points=" 145 67 93 41"
    /></g
    ><g ID="r-1:2" style="fill:white; text-rendering:optimizeSpeed; stroke:white;"
    ><circle r="11" style="clip-path:url(#clipPath1); stroke:none;" cx="145" cy="67"
      /><rect x="134" y="56" width="22" style="clip-path:url(#clipPath1); fill:rgb(0,144,188); stroke:none;" height="22"
      /><rect x="134" y="56" width="22" style="clip-path:url(#clipPath1); fill:none; stroke:black;" height="22"
      /><circle r="11" style="fill:none; stroke:black;" cx="145" cy="67"
    /></g
    ><g style="text-rendering:optimizeSpeed;" ID="l-1:3,5"
    ><polygon style="fill:none;" points=" 93 93 41 93"
    /></g
    ><g ID="r-1:3" style="fill:white; text-rendering:optimizeSpeed; stroke:white;"
    ><circle r="11" style="clip-path:url(#clipPath2); stroke:none;" cx="93" cy="93"
      /><rect x="82" y="82" width="22" style="clip-path:url(#clipPath2); fill:rgb(0,144,188); stroke:none;" height="22"
      /><rect x="82" y="82" width="22" style="clip-path:url(#clipPath2); fill:none; stroke:black;" height="22"
      /><circle r="11" style="fill:none; stroke:black;" cx="93" cy="93"
    /></g
    ><g ID="r-1:5" style="fill:white; text-rendering:optimizeSpeed; stroke:white;"
    ><circle r="11" style="clip-path:url(#clipPath3); stroke:none;" cx="41" cy="93"
      /><rect x="30" y="82" width="22" style="clip-path:url(#clipPath3); fill:rgb(0,144,188); stroke:none;" height="22"
      /><rect x="30" y="82" width="22" style="clip-path:url(#clipPath3); fill:none; stroke:black;" height="22"
      /><circle r="11" style="fill:none; stroke:black;" cx="41" cy="93"
    /></g
    ><g ID="li-1:3,5" style="fill:white; text-rendering:optimizeSpeed; stroke:white;"
    ><rect x="70" width="7" height="10" y="96" style="stroke:none;"
      /><path d="M72.0625 101.5059 Q72.8887 100.4336 74.1426 100.4336 Q75.2793 100.4336 76.0029 101.1865 Q76.7266 101.9395 76.7266 103.1172 Q76.7266 104.4707 75.915 105.3438 Q75.1035 106.2168 73.8555 106.2168 Q72.4199 106.2168 71.6113 105.0625 Q70.8027 103.9082 70.8027 101.8574 Q70.8027 99.6016 71.7314 98.3535 Q72.6602 97.1055 74.3477 97.1055 Q75.1211 97.1055 76.2812 97.4336 L76.2812 98.4414 Q75.0566 97.9727 74.2773 97.9727 Q72.0625 97.9727 72.0625 101.5059 ZM75.5664 103.375 Q75.5664 102.3906 75.124 101.8281 Q74.6816 101.2656 73.8965 101.2656 Q73.1641 101.2656 72.6367 101.7578 Q72.1094 102.25 72.1094 102.9414 Q72.1094 104.0312 72.6104 104.6904 Q73.1113 105.3496 73.9375 105.3496 Q74.6816 105.3496 75.124 104.8135 Q75.5664 104.2773 75.5664 103.375 Z" style="fill:black; stroke:none;"
      /><rect x="56" width="8" height="8" y="97" style="stroke:none;"
      /><path d="M61.7949 100.8047 Q62.2051 99.6855 62.416 98.6367 L63.4941 98.6367 Q63.1836 99.9727 62.2344 101.8125 L62.3516 102.0938 Q62.4277 102.2637 62.7148 102.873 Q62.8906 103.248 63.125 103.7637 Q63.4766 104.5664 63.6992 105 L62.4688 105 Q62.3984 104.8535 62.3867 104.8242 L62.123 104.2148 L61.8828 103.6523 L61.6895 103.2012 L61.5957 102.9844 Q61.0566 104.1797 60.5029 104.6631 Q59.9492 105.1465 59.123 105.1465 Q58.0566 105.1465 57.415 104.3115 Q56.7734 103.4766 56.7734 102.0879 Q56.7734 100.4648 57.5088 99.4775 Q58.2441 98.4902 59.457 98.4902 Q60.2656 98.4902 60.7461 98.9648 Q61.2266 99.4395 61.7949 100.8047 ZM61.2031 102.0469 L60.916 101.3965 Q60.3887 100.1895 60.0635 99.7764 Q59.7383 99.3633 59.3281 99.3633 Q58.748 99.3633 58.376 100.0781 Q58.0039 100.793 58.0039 101.9004 Q58.0039 102.9727 58.3525 103.626 Q58.7012 104.2793 59.2754 104.2793 Q59.7734 104.2793 60.1895 103.7988 Q60.6055 103.3184 61.2031 102.0469 Z" style="fill:black; stroke:none;"
    /></g
    ><g ID="r-1:4" style="fill:white; text-rendering:optimizeSpeed; stroke:white;"
    ><circle r="11" style="clip-path:url(#clipPath4); stroke:none;" cx="93" cy="41"
      /><rect x="82" y="30" width="22" style="clip-path:url(#clipPath4); fill:rgb(0,144,188); stroke:none;" height="22"
      /><rect x="82" y="30" width="22" style="clip-path:url(#clipPath4); fill:none; stroke:black;" height="22"
      /><circle r="11" style="fill:none; stroke:black;" cx="93" cy="41"
    /></g
    ><g ID="li-1:2,3" style="fill:white; text-rendering:optimizeSpeed; stroke:white;"
    ><rect x="127" width="6" height="10" y="78" style="stroke:none;"
      /><path d="M128.2188 87.9355 L128.2188 86.8574 Q129.4609 87.3496 130.1758 87.3496 Q131.002 87.3496 131.5205 86.8662 Q132.0391 86.3828 132.0391 85.6152 Q132.0391 83.7871 129.4785 83.7871 L129.0215 83.7871 L129.0215 83.0078 L129.4258 83.002 Q131.8281 83.002 131.8281 81.3086 Q131.8281 79.9785 130.2461 79.9785 Q129.3789 79.9785 128.3359 80.4648 L128.3359 79.457 Q129.3613 79.1113 130.3281 79.1113 Q132.9883 79.1113 132.9883 81.1211 Q132.9883 82.6504 131.1777 83.3008 Q133.2754 83.7871 133.2754 85.5977 Q133.2754 86.8223 132.4668 87.5195 Q131.6582 88.2168 130.2461 88.2168 Q129.4434 88.2168 128.2188 87.9355 Z" style="fill:black; stroke:none;"
      /><rect x="110" width="8" height="8" y="87" style="stroke:none;"
      /><path d="M115.7949 90.8047 Q116.2051 89.6855 116.416 88.6367 L117.4941 88.6367 Q117.1836 89.9727 116.2344 91.8125 L116.3516 92.0938 Q116.4277 92.2637 116.7148 92.873 Q116.8906 93.248 117.125 93.7637 Q117.4766 94.5664 117.6992 95 L116.4688 95 Q116.3984 94.8535 116.3867 94.8242 L116.123 94.2148 L115.8828 93.6523 L115.6895 93.2012 L115.5957 92.9844 Q115.0566 94.1797 114.5029 94.6631 Q113.9492 95.1465 113.123 95.1465 Q112.0566 95.1465 111.415 94.3115 Q110.7734 93.4766 110.7734 92.0879 Q110.7734 90.4648 111.5088 89.4775 Q112.2441 88.4902 113.457 88.4902 Q114.2656 88.4902 114.7461 88.9648 Q115.2266 89.4395 115.7949 90.8047 ZM115.2031 92.0469 L114.916 91.3965 Q114.3887 90.1895 114.0635 89.7764 Q113.7383 89.3633 113.3281 89.3633 Q112.748 89.3633 112.376 90.0781 Q112.0039 90.793 112.0039 91.9004 Q112.0039 92.9727 112.3525 93.626 Q112.7012 94.2793 113.2754 94.2793 Q113.7734 94.2793 114.1895 93.7988 Q114.6055 93.3184 115.2031 92.0469 Z" style="fill:black; stroke:none;"
    /></g
    ><g ID="li-1:2,4" style="fill:white; text-rendering:optimizeSpeed; stroke:white;"
    ><rect x="119" width="7" height="10" y="60" style="stroke:none;"
      /><path d="M121.0625 65.5059 Q121.8887 64.4336 123.1426 64.4336 Q124.2793 64.4336 125.0029 65.1865 Q125.7266 65.9395 125.7266 67.1172 Q125.7266 68.4707 124.915 69.3438 Q124.1035 70.2168 122.8555 70.2168 Q121.4199 70.2168 120.6113 69.0625 Q119.8027 67.9082 119.8027 65.8574 Q119.8027 63.6016 120.7314 62.3535 Q121.6602 61.1055 123.3477 61.1055 Q124.1211 61.1055 125.2812 61.4336 L125.2812 62.4414 Q124.0566 61.9727 123.2773 61.9727 Q121.0625 61.9727 121.0625 65.5059 ZM124.5664 67.375 Q124.5664 66.3906 124.124 65.8281 Q123.6816 65.2656 122.8965 65.2656 Q122.1641 65.2656 121.6367 65.7578 Q121.1094 66.25 121.1094 66.9414 Q121.1094 68.0312 121.6104 68.6904 Q122.1113 69.3496 122.9375 69.3496 Q123.6816 69.3496 124.124 68.8135 Q124.5664 68.2773 124.5664 67.375 Z" style="fill:black; stroke:none;"
      /><rect x="103" width="8" height="8" y="53" style="stroke:none;"
      /><path d="M108.7949 56.8047 Q109.2051 55.6855 109.416 54.6367 L110.4941 54.6367 Q110.1836 55.9727 109.2344 57.8125 L109.3516 58.0938 Q109.4277 58.2637 109.7148 58.873 Q109.8906 59.248 110.125 59.7637 Q110.4766 60.5664 110.6992 61 L109.4688 61 Q109.3984 60.8535 109.3867 60.8242 L109.123 60.2148 L108.8828 59.6523 L108.6895 59.2012 L108.5957 58.9844 Q108.0566 60.1797 107.5029 60.6631 Q106.9492 61.1465 106.123 61.1465 Q105.0566 61.1465 104.415 60.3115 Q103.7734 59.4766 103.7734 58.0879 Q103.7734 56.4648 104.5088 55.4775 Q105.2441 54.4902 106.457 54.4902 Q107.2656 54.4902 107.7461 54.9648 Q108.2266 55.4395 108.7949 56.8047 ZM108.2031 58.0469 L107.916 57.3965 Q107.3887 56.1895 107.0635 55.7764 Q106.7383 55.3633 106.3281 55.3633 Q105.748 55.3633 105.376 56.0781 Q105.0039 56.793 105.0039 57.9004 Q105.0039 58.9727 105.3525 59.626 Q105.7012 60.2793 106.2754 60.2793 Q106.7734 60.2793 107.1895 59.7988 Q107.6055 59.3184 108.2031 58.0469 Z" style="fill:black; stroke:none;"
    /></g
    ><g ID="li-1:1,2" style="fill:white; text-rendering:optimizeSpeed; stroke:white;"
    ><rect x="160" width="8" height="8" y="71" style="stroke:none;"
      /><path d="M165.7949 74.8047 Q166.2051 73.6855 166.416 72.6367 L167.4941 72.6367 Q167.1836 73.9727 166.2344 75.8125 L166.3516 76.0938 Q166.4277 76.2637 166.7148 76.873 Q166.8906 77.248 167.125 77.7637 Q167.4766 78.5664 167.6992 79 L166.4688 79 Q166.3984 78.8535 166.3867 78.8242 L166.123 78.2148 L165.8828 77.6523 L165.6895 77.2012 L165.5957 76.9844 Q165.0566 78.1797 164.5029 78.6631 Q163.9492 79.1465 163.123 79.1465 Q162.0566 79.1465 161.415 78.3115 Q160.7734 77.4766 160.7734 76.0879 Q160.7734 74.4648 161.5088 73.4775 Q162.2441 72.4902 163.457 72.4902 Q164.2656 72.4902 164.7461 72.9648 Q165.2266 73.4395 165.7949 74.8047 ZM165.2031 76.0469 L164.916 75.3965 Q164.3887 74.1895 164.0635 73.7764 Q163.7383 73.3633 163.3281 73.3633 Q162.748 73.3633 162.376 74.0781 Q162.0039 74.793 162.0039 75.9004 Q162.0039 76.9727 162.3525 77.626 Q162.7012 78.2793 163.2754 78.2793 Q163.7734 78.2793 164.1895 77.7988 Q164.6055 77.3184 165.2031 76.0469 Z" style="fill:black; stroke:none;"
    /></g
  ></g
></svg
>
