<?xml version="1.0"?>
<!DOCTYPE svg PUBLIC '-//W3C//DTD SVG 1.0//EN'
          'http://www.w3.org/TR/2001/REC-SVG-20010904/DTD/svg10.dtd'>
<svg xmlns:xlink="http://www.w3.org/1999/xlink" style="fill-opacity:1; color-rendering:auto; color-interpolation:auto; text-rendering:auto; stroke:black; stroke-linecap:square; stroke-miterlimit:10; shape-rendering:auto; stroke-opacity:1; fill:black; stroke-dasharray:none; font-weight:normal; stroke-width:1; font-family:'Dialog'; font-style:normal; stroke-linejoin:miter; font-size:12px; stroke-dashoffset:0; image-rendering:auto;" xmlns="http://www.w3.org/2000/svg"
><!--Generated by the Batik Graphics2D SVG Generator--><defs id="genericDefs"
  /><g
  ><defs id="defs1"
    ><clipPath clipPathUnits="userSpaceOnUse" id="clipPath1"
      ><path d="M290 56 L312 56 L312 78 L290 78 L290 56 Z"
      /></clipPath
      ><clipPath clipPathUnits="userSpaceOnUse" id="clipPath2"
      ><path d="M238 56 L260 56 L260 78 L238 78 L238 56 Z"
      /></clipPath
      ><clipPath clipPathUnits="userSpaceOnUse" id="clipPath3"
      ><path d="M208 67 C208 73.0751 203.0751 78 197 78 C190.9249 78 186 73.0751 186 67 C186 60.9249 190.9249 56 197 56 C203.0751 56 208 60.9249 208 67 Z"
      /></clipPath
      ><clipPath clipPathUnits="userSpaceOnUse" id="clipPath4"
      ><path d="M156 93 C156 99.0751 151.0751 104 145 104 C138.9249 104 134 99.0751 134 93 C134 86.9249 138.9249 82 145 82 C151.0751 82 156 86.9249 156 93 Z"
      /></clipPath
      ><clipPath clipPathUnits="userSpaceOnUse" id="clipPath5"
      ><path d="M82 82 L104 82 L104 104 L82 104 L82 82 Z"
      /></clipPath
      ><clipPath clipPathUnits="userSpaceOnUse" id="clipPath6"
      ><path d="M156 41 C156 47.0751 151.0751 52 145 52 C138.9249 52 134 47.0751 134 41 C134 34.9249 138.9249 30 145 30 C151.0751 30 156 34.9249 156 41 Z"
      /></clipPath
      ><clipPath clipPathUnits="userSpaceOnUse" id="clipPath7"
      ><path d="M82 30 L104 30 L104 52 L82 52 L82 30 Z"
      /></clipPath
      ><clipPath clipPathUnits="userSpaceOnUse" id="clipPath8"
      ><path d="M52 41 C52 47.0751 47.0751 52 41 52 C34.9249 52 30 47.0751 30 41 C30 34.9249 34.9249 30 41 30 C47.0751 30 52 34.9249 52 41 Z"
      /></clipPath
    ></defs
    ><g style="fill:white; text-rendering:optimizeSpeed; stroke:white;"
    ><rect x="0" width="394" height="134" y="0" style="stroke:none;"
    /></g
    ><g style="text-rendering:optimizeSpeed;" ID="l-1:1,2"
    ><polygon style="fill:none;" points=" 353 67 301 67"
    /></g
    ><g style="text-rendering:optimizeSpeed;" ID="r-1:1"
    ><path style="fill:none;" d="M353 56 C347.5 61.5 358.5 72.5 353 78"
    /></g
    ><g style="text-rendering:optimizeSpeed;" ID="l-1:2,3"
    ><polygon style="fill:none;" points=" 301 67 249 67"
    /></g
    ><g ID="r-1:2" style="fill:white; text-rendering:optimizeSpeed; stroke:white;"
    ><rect x="290" y="56" width="22" style="clip-path:url(#clipPath1); stroke:none;" height="22"
      /><rect x="290" y="56" width="22" style="clip-path:url(#clipPath1); fill:rgb(0,144,188); stroke:none;" height="22"
      /><rect x="290" y="56" width="22" style="clip-path:url(#clipPath1); fill:none; stroke:black;" height="22"
      /><rect x="290" y="56" width="22" style="fill:none; stroke:black;" height="22"
    /></g
    ><g style="text-rendering:optimizeSpeed;" ID="l-1:3,4"
    ><polygon style="fill:none;" points=" 249 67 197 67"
    /></g
    ><g ID="r-1:3" style="fill:white; text-rendering:optimizeSpeed; stroke:white;"
    ><rect x="238" y="56" width="22" style="clip-path:url(#clipPath2); stroke:none;" height="22"
      /><rect x="238" y="56" width="22" style="clip-path:url(#clipPath2); fill:rgb(0,144,188); stroke:none;" height="22"
      /><rect x="238" y="56" width="22" style="clip-path:url(#clipPath2); fill:none; stroke:black;" height="22"
      /><rect x="238" y="56" width="22" style="fill:none; stroke:black;" height="22"
    /></g
    ><g style="text-rendering:optimizeSpeed;" ID="l-1:4,5"
    ><polygon style="fill:none;" points=" 197 67 145 93"
    /></g
    ><g style="text-rendering:optimizeSpeed;" ID="l-1:4,6"
    ><polygon style="fill:none;" points=" 197 67 145 41"
    /></g
    ><g ID="r-1:4" style="fill:white; text-rendering:optimizeSpeed; stroke:white;"
    ><circle r="11" style="clip-path:url(#clipPath3); stroke:none;" cx="197" cy="67"
      /><rect x="186" y="56" width="22" style="clip-path:url(#clipPath3); fill:rgb(0,166,81); stroke:none;" height="22"
      /><rect x="186" y="56" width="22" style="clip-path:url(#clipPath3); fill:none; stroke:black;" height="22"
      /><circle r="11" style="fill:none; stroke:black;" cx="197" cy="67"
    /></g
    ><g style="text-rendering:optimizeSpeed;" ID="l-1:5,7"
    ><polygon style="fill:none;" points=" 145 93 93 93"
    /></g
    ><g ID="r-1:5" style="fill:white; text-rendering:optimizeSpeed; stroke:white;"
    ><circle r="11" style="clip-path:url(#clipPath4); stroke:none;" cx="145" cy="93"
      /><rect x="134" y="82" width="22" style="clip-path:url(#clipPath4); fill:rgb(0,166,81); stroke:none;" height="22"
      /><rect x="134" y="82" width="22" style="clip-path:url(#clipPath4); fill:none; stroke:black;" height="22"
      /><circle r="11" style="fill:none; stroke:black;" cx="145" cy="93"
    /></g
    ><g ID="r-1:7" style="fill:white; text-rendering:optimizeSpeed; stroke:white;"
    ><rect x="82" y="82" width="22" style="clip-path:url(#clipPath5); stroke:none;" height="22"
      /><rect x="82" y="82" width="22" style="clip-path:url(#clipPath5); fill:rgb(0,144,188); stroke:none;" height="22"
      /><rect x="82" y="82" width="22" style="clip-path:url(#clipPath5); fill:none; stroke:black;" height="22"
      /><rect x="82" y="82" width="22" style="fill:none; stroke:black;" height="22"
    /></g
    ><g ID="li-1:5,7" style="fill:white; text-rendering:optimizeSpeed; stroke:white;"
    ><rect x="122" width="7" height="9" y="96" style="stroke:none;"
      /><path d="M122.9961 105 L122.9961 103.9863 Q123.5 102.8086 125.0352 101.4199 L125.6973 100.8281 Q126.9746 99.6738 126.9746 98.5371 Q126.9746 97.8105 126.5381 97.3945 Q126.1016 96.9785 125.3398 96.9785 Q124.4375 96.9785 123.2129 97.6758 L123.2129 96.6562 Q124.3672 96.1113 125.5039 96.1113 Q126.7227 96.1113 127.4609 96.7676 Q128.1992 97.4238 128.1992 98.5078 Q128.1992 99.2871 127.8271 99.8906 Q127.4551 100.4941 126.4414 101.3555 L125.9961 101.7363 Q124.6074 102.9141 124.3906 103.9863 L128.1582 103.9863 L128.1582 105 Z" style="fill:black; stroke:none;"
      /><rect x="109" width="6" height="13" y="94" style="stroke:none;"
      /><path d="M110.1543 109.3145 L110.1543 100.8242 Q110.1543 99.3008 110.8398 98.4512 Q111.5254 97.6016 112.75 97.6016 Q113.7578 97.6016 114.3789 98.1289 Q115 98.6562 115 99.5176 Q115 100.209 114.6016 100.792 Q114.2031 101.375 113.4121 101.8496 Q114.4609 102.1836 115.0557 102.8838 Q115.6504 103.584 115.6504 104.4863 Q115.6504 105.6523 114.8447 106.3994 Q114.0391 107.1465 112.7793 107.1465 Q112.0234 107.1465 111.3086 106.9004 L111.3086 109.3145 ZM111.7422 101.6504 L111.9531 101.6504 Q112.709 101.6504 113.2744 101.0381 Q113.8398 100.4258 113.8398 99.6113 Q113.8398 99.043 113.5469 98.7559 Q113.2539 98.4688 112.6738 98.4688 Q111.9883 98.4688 111.6484 99.0137 Q111.3086 99.5586 111.3086 100.6426 L111.3086 105.8984 Q112.1465 106.2793 112.791 106.2793 Q113.5 106.2793 113.9951 105.7666 Q114.4902 105.2539 114.4902 104.5332 Q114.4902 103.6191 113.8047 103.0684 Q113.1191 102.5176 111.9707 102.5176 L111.7422 102.5176 Z" style="fill:black; stroke:none;"
    /></g
    ><g style="text-rendering:optimizeSpeed;" ID="l-1:6,8"
    ><polygon style="fill:none;" points=" 145 41 93 41"
    /></g
    ><g ID="r-1:6" style="fill:white; text-rendering:optimizeSpeed; stroke:white;"
    ><circle r="11" style="clip-path:url(#clipPath6); stroke:none;" cx="145" cy="41"
      /><rect x="134" y="30" width="22" style="clip-path:url(#clipPath6); fill:rgb(0,166,81); stroke:none;" height="22"
      /><rect x="134" y="30" width="22" style="clip-path:url(#clipPath6); fill:none; stroke:black;" height="22"
      /><circle r="11" style="fill:none; stroke:black;" cx="145" cy="41"
    /></g
    ><g style="text-rendering:optimizeSpeed;" ID="l-1:8,9"
    ><polygon style="fill:none;" points=" 93 41 41 41"
    /></g
    ><g ID="r-1:8" style="fill:white; text-rendering:optimizeSpeed; stroke:white;"
    ><rect x="82" y="30" width="22" style="clip-path:url(#clipPath7); stroke:none;" height="22"
      /><rect x="82" y="30" width="22" style="clip-path:url(#clipPath7); fill:rgb(0,144,188); stroke:none;" height="22"
      /><rect x="82" y="30" width="22" style="clip-path:url(#clipPath7); fill:none; stroke:black;" height="22"
      /><rect x="82" y="30" width="22" style="fill:none; stroke:black;" height="22"
    /></g
    ><g ID="r-1:9" style="fill:white; text-rendering:optimizeSpeed; stroke:white;"
    ><circle r="11" style="clip-path:url(#clipPath8); stroke:none;" cx="41" cy="41"
      /><rect x="30" y="30" width="22" style="clip-path:url(#clipPath8); fill:rgb(255,212,0); stroke:none;" height="22"
      /><rect x="30" y="30" width="22" style="clip-path:url(#clipPath8); fill:none; stroke:black;" height="22"
      /><circle r="11" style="fill:none; stroke:black;" cx="41" cy="41"
    /></g
    ><g ID="li-1:8,9" style="fill:white; text-rendering:optimizeSpeed; stroke:white;"
    ><rect x="70" width="7" height="9" y="44" style="stroke:none;"
      /><path d="M74.5176 53 L74.5176 50.5449 L70.6152 50.5449 L70.6152 49.6719 L74.5176 44.3281 L75.6016 44.3281 L75.6016 49.6016 L76.7617 49.6016 L76.7617 50.5449 L75.6016 50.5449 L75.6016 53 ZM71.7461 49.6016 L74.5938 49.6016 L74.5938 45.7461 Z" style="fill:black; stroke:none;"
      /><rect x="57" width="6" height="13" y="42" style="stroke:none;"
      /><path d="M58.1543 57.3145 L58.1543 48.8242 Q58.1543 47.3008 58.8398 46.4512 Q59.5254 45.6016 60.75 45.6016 Q61.7578 45.6016 62.3789 46.1289 Q63 46.6562 63 47.5176 Q63 48.209 62.6016 48.792 Q62.2031 49.375 61.4121 49.8496 Q62.4609 50.1836 63.0557 50.8838 Q63.6504 51.584 63.6504 52.4863 Q63.6504 53.6523 62.8447 54.3994 Q62.0391 55.1465 60.7793 55.1465 Q60.0234 55.1465 59.3086 54.9004 L59.3086 57.3145 ZM59.7422 49.6504 L59.9531 49.6504 Q60.709 49.6504 61.2744 49.0381 Q61.8398 48.4258 61.8398 47.6113 Q61.8398 47.043 61.5469 46.7559 Q61.2539 46.4688 60.6738 46.4688 Q59.9883 46.4688 59.6484 47.0137 Q59.3086 47.5586 59.3086 48.6426 L59.3086 53.8984 Q60.1465 54.2793 60.791 54.2793 Q61.5 54.2793 61.9951 53.7666 Q62.4902 53.2539 62.4902 52.5332 Q62.4902 51.6191 61.8047 51.0684 Q61.1191 50.5176 59.9707 50.5176 L59.7422 50.5176 Z" style="fill:black; stroke:none;"
    /></g
    ><g ID="li-1:6,8" style="fill:white; text-rendering:optimizeSpeed; stroke:white;"
    ><rect x="123" width="6" height="10" y="44" style="stroke:none;"
      /><path d="M124.2188 53.9355 L124.2188 52.8574 Q125.4609 53.3496 126.1758 53.3496 Q127.002 53.3496 127.5205 52.8662 Q128.0391 52.3828 128.0391 51.6152 Q128.0391 49.7871 125.4785 49.7871 L125.0215 49.7871 L125.0215 49.0078 L125.4258 49.002 Q127.8281 49.002 127.8281 47.3086 Q127.8281 45.9785 126.2461 45.9785 Q125.3789 45.9785 124.3359 46.4648 L124.3359 45.457 Q125.3613 45.1113 126.3281 45.1113 Q128.9883 45.1113 128.9883 47.1211 Q128.9883 48.6504 127.1777 49.3008 Q129.2754 49.7871 129.2754 51.5977 Q129.2754 52.8223 128.4668 53.5195 Q127.6582 54.2168 126.2461 54.2168 Q125.4434 54.2168 124.2188 53.9355 Z" style="fill:black; stroke:none;"
      /><rect x="109" width="6" height="13" y="42" style="stroke:none;"
      /><path d="M110.1543 57.3145 L110.1543 48.8242 Q110.1543 47.3008 110.8398 46.4512 Q111.5254 45.6016 112.75 45.6016 Q113.7578 45.6016 114.3789 46.1289 Q115 46.6562 115 47.5176 Q115 48.209 114.6016 48.792 Q114.2031 49.375 113.4121 49.8496 Q114.4609 50.1836 115.0557 50.8838 Q115.6504 51.584 115.6504 52.4863 Q115.6504 53.6523 114.8447 54.3994 Q114.0391 55.1465 112.7793 55.1465 Q112.0234 55.1465 111.3086 54.9004 L111.3086 57.3145 ZM111.7422 49.6504 L111.9531 49.6504 Q112.709 49.6504 113.2744 49.0381 Q113.8398 48.4258 113.8398 47.6113 Q113.8398 47.043 113.5469 46.7559 Q113.2539 46.4688 112.6738 46.4688 Q111.9883 46.4688 111.6484 47.0137 Q111.3086 47.5586 111.3086 48.6426 L111.3086 53.8984 Q112.1465 54.2793 112.791 54.2793 Q113.5 54.2793 113.9951 53.7666 Q114.4902 53.2539 114.4902 52.5332 Q114.4902 51.6191 113.8047 51.0684 Q113.1191 50.5176 111.9707 50.5176 L111.7422 50.5176 Z" style="fill:black; stroke:none;"
    /></g
    ><g ID="li-1:4,5" style="fill:white; text-rendering:optimizeSpeed; stroke:white;"
    ><rect x="179" width="6" height="10" y="78" style="stroke:none;"
      /><path d="M180.2188 87.9355 L180.2188 86.8574 Q181.4609 87.3496 182.1758 87.3496 Q183.002 87.3496 183.5205 86.8662 Q184.0391 86.3828 184.0391 85.6152 Q184.0391 83.7871 181.4785 83.7871 L181.0215 83.7871 L181.0215 83.0078 L181.4258 83.002 Q183.8281 83.002 183.8281 81.3086 Q183.8281 79.9785 182.2461 79.9785 Q181.3789 79.9785 180.3359 80.4648 L180.3359 79.457 Q181.3613 79.1113 182.3281 79.1113 Q184.9883 79.1113 184.9883 81.1211 Q184.9883 82.6504 183.1777 83.3008 Q185.2754 83.7871 185.2754 85.5977 Q185.2754 86.8223 184.4668 87.5195 Q183.6582 88.2168 182.2461 88.2168 Q181.4434 88.2168 180.2188 87.9355 Z" style="fill:black; stroke:none;"
      /><rect x="162" width="8" height="8" y="87" style="stroke:none;"
      /><path d="M167.7949 90.8047 Q168.2051 89.6855 168.416 88.6367 L169.4941 88.6367 Q169.1836 89.9727 168.2344 91.8125 L168.3516 92.0938 Q168.4277 92.2637 168.7148 92.873 Q168.8906 93.248 169.125 93.7637 Q169.4766 94.5664 169.6992 95 L168.4688 95 Q168.3984 94.8535 168.3867 94.8242 L168.123 94.2148 L167.8828 93.6523 L167.6895 93.2012 L167.5957 92.9844 Q167.0566 94.1797 166.5029 94.6631 Q165.9492 95.1465 165.123 95.1465 Q164.0566 95.1465 163.415 94.3115 Q162.7734 93.4766 162.7734 92.0879 Q162.7734 90.4648 163.5088 89.4775 Q164.2441 88.4902 165.457 88.4902 Q166.2656 88.4902 166.7461 88.9648 Q167.2266 89.4395 167.7949 90.8047 ZM167.2031 92.0469 L166.916 91.3965 Q166.3887 90.1895 166.0635 89.7764 Q165.7383 89.3633 165.3281 89.3633 Q164.748 89.3633 164.376 90.0781 Q164.0039 90.793 164.0039 91.9004 Q164.0039 92.9727 164.3525 93.626 Q164.7012 94.2793 165.2754 94.2793 Q165.7734 94.2793 166.1895 93.7988 Q166.6055 93.3184 167.2031 92.0469 Z" style="fill:black; stroke:none;"
    /></g
    ><g ID="li-1:4,6" style="fill:white; text-rendering:optimizeSpeed; stroke:white;"
    ><rect x="171" width="7" height="10" y="60" style="stroke:none;"
      /><path d="M173.0625 65.5059 Q173.8887 64.4336 175.1426 64.4336 Q176.2793 64.4336 177.0029 65.1865 Q177.7266 65.9395 177.7266 67.1172 Q177.7266 68.4707 176.915 69.3438 Q176.1035 70.2168 174.8555 70.2168 Q173.4199 70.2168 172.6113 69.0625 Q171.8027 67.9082 171.8027 65.8574 Q171.8027 63.6016 172.7314 62.3535 Q173.6602 61.1055 175.3477 61.1055 Q176.1211 61.1055 177.2812 61.4336 L177.2812 62.4414 Q176.0566 61.9727 175.2773 61.9727 Q173.0625 61.9727 173.0625 65.5059 ZM176.5664 67.375 Q176.5664 66.3906 176.124 65.8281 Q175.6816 65.2656 174.8965 65.2656 Q174.1641 65.2656 173.6367 65.7578 Q173.1094 66.25 173.1094 66.9414 Q173.1094 68.0312 173.6104 68.6904 Q174.1113 69.3496 174.9375 69.3496 Q175.6816 69.3496 176.124 68.8135 Q176.5664 68.2773 176.5664 67.375 Z" style="fill:black; stroke:none;"
      /><rect x="155" width="8" height="8" y="53" style="stroke:none;"
      /><path d="M160.7949 56.8047 Q161.2051 55.6855 161.416 54.6367 L162.4941 54.6367 Q162.1836 55.9727 161.2344 57.8125 L161.3516 58.0938 Q161.4277 58.2637 161.7148 58.873 Q161.8906 59.248 162.125 59.7637 Q162.4766 60.5664 162.6992 61 L161.4688 61 Q161.3984 60.8535 161.3867 60.8242 L161.123 60.2148 L160.8828 59.6523 L160.6895 59.2012 L160.5957 58.9844 Q160.0566 60.1797 159.5029 60.6631 Q158.9492 61.1465 158.123 61.1465 Q157.0566 61.1465 156.415 60.3115 Q155.7734 59.4766 155.7734 58.0879 Q155.7734 56.4648 156.5088 55.4775 Q157.2441 54.4902 158.457 54.4902 Q159.2656 54.4902 159.7461 54.9648 Q160.2266 55.4395 160.7949 56.8047 ZM160.2031 58.0469 L159.916 57.3965 Q159.3887 56.1895 159.0635 55.7764 Q158.7383 55.3633 158.3281 55.3633 Q157.748 55.3633 157.376 56.0781 Q157.0039 56.793 157.0039 57.9004 Q157.0039 58.9727 157.3525 59.626 Q157.7012 60.2793 158.2754 60.2793 Q158.7734 60.2793 159.1895 59.7988 Q159.6055 59.3184 160.2031 58.0469 Z" style="fill:black; stroke:none;"
    /></g
    ><g ID="li-1:3,4" style="fill:white; text-rendering:optimizeSpeed; stroke:white;"
    ><rect x="226" width="7" height="9" y="70" style="stroke:none;"
      /><path d="M230.5176 79 L230.5176 76.5449 L226.6152 76.5449 L226.6152 75.6719 L230.5176 70.3281 L231.6016 70.3281 L231.6016 75.6016 L232.7617 75.6016 L232.7617 76.5449 L231.6016 76.5449 L231.6016 79 ZM227.7461 75.6016 L230.5938 75.6016 L230.5938 71.7461 Z" style="fill:black; stroke:none;"
      /><rect x="213" width="6" height="13" y="68" style="stroke:none;"
      /><path d="M214.1543 83.3145 L214.1543 74.8242 Q214.1543 73.3008 214.8398 72.4512 Q215.5254 71.6016 216.75 71.6016 Q217.7578 71.6016 218.3789 72.1289 Q219 72.6562 219 73.5176 Q219 74.209 218.6016 74.792 Q218.2031 75.375 217.4121 75.8496 Q218.4609 76.1836 219.0557 76.8838 Q219.6504 77.584 219.6504 78.4863 Q219.6504 79.6523 218.8447 80.3994 Q218.0391 81.1465 216.7793 81.1465 Q216.0234 81.1465 215.3086 80.9004 L215.3086 83.3145 ZM215.7422 75.6504 L215.9531 75.6504 Q216.709 75.6504 217.2744 75.0381 Q217.8398 74.4258 217.8398 73.6113 Q217.8398 73.043 217.5469 72.7559 Q217.2539 72.4688 216.6738 72.4688 Q215.9883 72.4688 215.6484 73.0137 Q215.3086 73.5586 215.3086 74.6426 L215.3086 79.8984 Q216.1465 80.2793 216.791 80.2793 Q217.5 80.2793 217.9951 79.7666 Q218.4902 79.2539 218.4902 78.5332 Q218.4902 77.6191 217.8047 77.0684 Q217.1191 76.5176 215.9707 76.5176 L215.7422 76.5176 Z" style="fill:black; stroke:none;"
    /></g
    ><g ID="li-1:2,3" style="fill:white; text-rendering:optimizeSpeed; stroke:white;"
    ><rect x="278" width="7" height="9" y="70" style="stroke:none;"
      /><path d="M282.5176 79 L282.5176 76.5449 L278.6152 76.5449 L278.6152 75.6719 L282.5176 70.3281 L283.6016 70.3281 L283.6016 75.6016 L284.7617 75.6016 L284.7617 76.5449 L283.6016 76.5449 L283.6016 79 ZM279.7461 75.6016 L282.5938 75.6016 L282.5938 71.7461 Z" style="fill:black; stroke:none;"
      /><rect x="265" width="6" height="13" y="68" style="stroke:none;"
      /><path d="M266.1543 83.3145 L266.1543 74.8242 Q266.1543 73.3008 266.8398 72.4512 Q267.5254 71.6016 268.75 71.6016 Q269.7578 71.6016 270.3789 72.1289 Q271 72.6562 271 73.5176 Q271 74.209 270.6016 74.792 Q270.2031 75.375 269.4121 75.8496 Q270.4609 76.1836 271.0557 76.8838 Q271.6504 77.584 271.6504 78.4863 Q271.6504 79.6523 270.8447 80.3994 Q270.0391 81.1465 268.7793 81.1465 Q268.0234 81.1465 267.3086 80.9004 L267.3086 83.3145 ZM267.7422 75.6504 L267.9531 75.6504 Q268.709 75.6504 269.2744 75.0381 Q269.8398 74.4258 269.8398 73.6113 Q269.8398 73.043 269.5469 72.7559 Q269.2539 72.4688 268.6738 72.4688 Q267.9883 72.4688 267.6484 73.0137 Q267.3086 73.5586 267.3086 74.6426 L267.3086 79.8984 Q268.1465 80.2793 268.791 80.2793 Q269.5 80.2793 269.9951 79.7666 Q270.4902 79.2539 270.4902 78.5332 Q270.4902 77.6191 269.8047 77.0684 Q269.1191 76.5176 267.9707 76.5176 L267.7422 76.5176 Z" style="fill:black; stroke:none;"
    /></g
    ><g ID="li-1:1,2" style="fill:white; text-rendering:optimizeSpeed; stroke:white;"
    ><rect x="317" width="6" height="13" y="68" style="stroke:none;"
      /><path d="M318.1543 83.3145 L318.1543 74.8242 Q318.1543 73.3008 318.8398 72.4512 Q319.5254 71.6016 320.75 71.6016 Q321.7578 71.6016 322.3789 72.1289 Q323 72.6562 323 73.5176 Q323 74.209 322.6016 74.792 Q322.2031 75.375 321.4121 75.8496 Q322.4609 76.1836 323.0557 76.8838 Q323.6504 77.584 323.6504 78.4863 Q323.6504 79.6523 322.8447 80.3994 Q322.0391 81.1465 320.7793 81.1465 Q320.0234 81.1465 319.3086 80.9004 L319.3086 83.3145 ZM319.7422 75.6504 L319.9531 75.6504 Q320.709 75.6504 321.2744 75.0381 Q321.8398 74.4258 321.8398 73.6113 Q321.8398 73.043 321.5469 72.7559 Q321.2539 72.4688 320.6738 72.4688 Q319.9883 72.4688 319.6484 73.0137 Q319.3086 73.5586 319.3086 74.6426 L319.3086 79.8984 Q320.1465 80.2793 320.791 80.2793 Q321.5 80.2793 321.9951 79.7666 Q322.4902 79.2539 322.4902 78.5332 Q322.4902 77.6191 321.8047 77.0684 Q321.1191 76.5176 319.9707 76.5176 L319.7422 76.5176 Z" style="fill:black; stroke:none;"
    /></g
  ></g
></svg
>
