<?xml version="1.0"?>
<!DOCTYPE svg PUBLIC '-//W3C//DTD SVG 1.0//EN'
          'http://www.w3.org/TR/2001/REC-SVG-20010904/DTD/svg10.dtd'>
<svg xmlns:xlink="http://www.w3.org/1999/xlink" style="fill-opacity:1; color-rendering:auto; color-interpolation:auto; text-rendering:auto; stroke:black; stroke-linecap:square; stroke-miterlimit:10; shape-rendering:auto; stroke-opacity:1; fill:black; stroke-dasharray:none; font-weight:normal; stroke-width:1; font-family:'Dialog'; font-style:normal; stroke-linejoin:miter; font-size:12px; stroke-dashoffset:0; image-rendering:auto;" xmlns="http://www.w3.org/2000/svg"
><!--Generated by the Batik Graphics2D SVG Generator--><defs id="genericDefs"
  /><g
  ><defs id="defs1"
    ><clipPath clipPathUnits="userSpaceOnUse" id="clipPath1"
      ><path d="M260 67 C260 73.0751 255.0751 78 249 78 C242.9249 78 238 73.0751 238 67 C238 60.9249 242.9249 56 249 56 C255.0751 56 260 60.9249 260 67 Z"
      /></clipPath
      ><clipPath clipPathUnits="userSpaceOnUse" id="clipPath2"
      ><path d="M208 67 C208 73.0751 203.0751 78 197 78 C190.9249 78 186 73.0751 186 67 C186 60.9249 190.9249 56 197 56 C203.0751 56 208 60.9249 208 67 Z"
      /></clipPath
      ><clipPath clipPathUnits="userSpaceOnUse" id="clipPath3"
      ><path style="fill-rule:evenodd;" d="M145 82 L156 93 L145 104 L134 93 Z"
      /></clipPath
      ><clipPath clipPathUnits="userSpaceOnUse" id="clipPath4"
      ><path d="M134 30 L156 30 L156 52 L134 52 L134 30 Z"
      /></clipPath
      ><clipPath clipPathUnits="userSpaceOnUse" id="clipPath5"
      ><path d="M104 41 C104 47.0751 99.0751 52 93 52 C86.9249 52 82 47.0751 82 41 C82 34.9249 86.9249 30 93 30 C99.0751 30 104 34.9249 104 41 Z"
      /></clipPath
      ><clipPath clipPathUnits="userSpaceOnUse" id="clipPath6"
      ><path style="fill-rule:evenodd;" d="M41 30 L52 41 L41 52 L30 41 Z"
      /></clipPath
    ></defs
    ><g style="fill:white; text-rendering:optimizeSpeed; stroke:white;"
    ><rect x="0" width="342" height="134" y="0" style="stroke:none;"
    /></g
    ><g style="text-rendering:optimizeSpeed;" ID="l-1:1,2"
    ><polygon style="fill:none;" points=" 301 67 249 67"
    /></g
    ><g style="text-rendering:optimizeSpeed;" ID="r-1:1"
    ><path style="fill:none;" d="M301 56 C295.5 61.5 306.5 72.5 301 78"
    /></g
    ><g style="text-rendering:optimizeSpeed;" ID="l-1:2,3"
    ><polygon style="fill:none;" points=" 249 67 197 67"
    /></g
    ><g ID="r-1:2" style="fill:white; text-rendering:optimizeSpeed; stroke:white;"
    ><circle r="11" style="clip-path:url(#clipPath1); stroke:none;" cx="249" cy="67"
      /><rect x="238" y="56" width="22" style="clip-path:url(#clipPath1); fill:rgb(0,144,188); stroke:none;" height="22"
      /><rect x="238" y="56" width="22" style="clip-path:url(#clipPath1); fill:none; stroke:black;" height="22"
      /><circle r="11" style="fill:none; stroke:black;" cx="249" cy="67"
    /></g
    ><g style="text-rendering:optimizeSpeed;" ID="l-1:3,4"
    ><polygon style="fill:none;" points=" 197 67 145 93"
    /></g
    ><g style="text-rendering:optimizeSpeed;" ID="l-1:3,5"
    ><polygon style="fill:none;" points=" 197 67 145 41"
    /></g
    ><g ID="r-1:3" style="fill:white; text-rendering:optimizeSpeed; stroke:white;"
    ><circle r="11" style="clip-path:url(#clipPath2); stroke:none;" cx="197" cy="67"
      /><rect x="186" y="56" width="22" style="clip-path:url(#clipPath2); fill:rgb(255,212,0); stroke:none;" height="22"
      /><rect x="186" y="56" width="22" style="clip-path:url(#clipPath2); fill:none; stroke:black;" height="22"
      /><circle r="11" style="fill:none; stroke:black;" cx="197" cy="67"
    /></g
    ><g ID="r-1:4" style="fill:white; text-rendering:optimizeSpeed; stroke:white;"
    ><polygon style="stroke:none; clip-path:url(#clipPath3);" points=" 145 82 156 93 145 104 134 93"
      /><rect x="134" y="82" width="22" style="clip-path:url(#clipPath3); fill:rgb(165,67,153); stroke:none;" height="22"
      /><rect x="134" y="82" width="22" style="clip-path:url(#clipPath3); fill:none; stroke:black;" height="22"
      /><polygon style="fill:none; stroke:black;" points=" 145 82 156 93 145 104 134 93"
    /></g
    ><g style="text-rendering:optimizeSpeed;" ID="l-1:5,6"
    ><polygon style="fill:none;" points=" 145 41 93 41"
    /></g
    ><g ID="r-1:5" style="fill:white; text-rendering:optimizeSpeed; stroke:white;"
    ><rect x="134" y="30" width="22" style="clip-path:url(#clipPath4); stroke:none;" height="22"
      /><rect x="134" y="30" width="22" style="clip-path:url(#clipPath4); fill:rgb(255,212,0); stroke:none;" height="22"
      /><rect x="134" y="30" width="22" style="clip-path:url(#clipPath4); fill:none; stroke:black;" height="22"
      /><rect x="134" y="30" width="22" style="fill:none; stroke:black;" height="22"
    /></g
    ><g style="text-rendering:optimizeSpeed;" ID="l-1:6,7"
    ><polygon style="fill:none;" points=" 93 41 41 41"
    /></g
    ><g ID="r-1:6" style="fill:white; text-rendering:optimizeSpeed; stroke:white;"
    ><circle r="11" style="clip-path:url(#clipPath5); stroke:none;" cx="93" cy="41"
      /><rect x="82" y="30" width="22" style="clip-path:url(#clipPath5); fill:rgb(255,212,0); stroke:none;" height="22"
      /><rect x="82" y="30" width="22" style="clip-path:url(#clipPath5); fill:none; stroke:black;" height="22"
      /><circle r="11" style="fill:none; stroke:black;" cx="93" cy="41"
    /></g
    ><g ID="r-1:7" style="fill:white; text-rendering:optimizeSpeed; stroke:white;"
    ><polygon style="stroke:none; clip-path:url(#clipPath6);" points=" 41 30 52 41 41 52 30 41"
      /><rect x="30" y="30" width="22" style="clip-path:url(#clipPath6); fill:rgb(165,67,153); stroke:none;" height="22"
      /><rect x="30" y="30" width="22" style="clip-path:url(#clipPath6); fill:none; stroke:black;" height="22"
      /><polygon style="fill:none; stroke:black;" points=" 41 30 52 41 41 52 30 41"
    /></g
    ><g ID="li-1:6,7" style="fill:white; text-rendering:optimizeSpeed; stroke:white;"
    ><rect x="71" width="6" height="10" y="44" style="stroke:none;"
      /><path d="M72.2188 53.9355 L72.2188 52.8574 Q73.4609 53.3496 74.1758 53.3496 Q75.002 53.3496 75.5205 52.8662 Q76.0391 52.3828 76.0391 51.6152 Q76.0391 49.7871 73.4785 49.7871 L73.0215 49.7871 L73.0215 49.0078 L73.4258 49.002 Q75.8281 49.002 75.8281 47.3086 Q75.8281 45.9785 74.2461 45.9785 Q73.3789 45.9785 72.3359 46.4648 L72.3359 45.457 Q73.3613 45.1113 74.3281 45.1113 Q76.9883 45.1113 76.9883 47.1211 Q76.9883 48.6504 75.1777 49.3008 Q77.2754 49.7871 77.2754 51.5977 Q77.2754 52.8223 76.4668 53.5195 Q75.6582 54.2168 74.2461 54.2168 Q73.4434 54.2168 72.2188 53.9355 Z" style="fill:black; stroke:none;"
      /><rect x="56" width="8" height="8" y="45" style="stroke:none;"
      /><path d="M61.7949 48.8047 Q62.2051 47.6855 62.416 46.6367 L63.4941 46.6367 Q63.1836 47.9727 62.2344 49.8125 L62.3516 50.0938 Q62.4277 50.2637 62.7148 50.873 Q62.8906 51.248 63.125 51.7637 Q63.4766 52.5664 63.6992 53 L62.4688 53 Q62.3984 52.8535 62.3867 52.8242 L62.123 52.2148 L61.8828 51.6523 L61.6895 51.2012 L61.5957 50.9844 Q61.0566 52.1797 60.5029 52.6631 Q59.9492 53.1465 59.123 53.1465 Q58.0566 53.1465 57.415 52.3115 Q56.7734 51.4766 56.7734 50.0879 Q56.7734 48.4648 57.5088 47.4775 Q58.2441 46.4902 59.457 46.4902 Q60.2656 46.4902 60.7461 46.9648 Q61.2266 47.4395 61.7949 48.8047 ZM61.2031 50.0469 L60.916 49.3965 Q60.3887 48.1895 60.0635 47.7764 Q59.7383 47.3633 59.3281 47.3633 Q58.748 47.3633 58.376 48.0781 Q58.0039 48.793 58.0039 49.9004 Q58.0039 50.9727 58.3525 51.626 Q58.7012 52.2793 59.2754 52.2793 Q59.7734 52.2793 60.1895 51.7988 Q60.6055 51.3184 61.2031 50.0469 Z" style="fill:black; stroke:none;"
    /></g
    ><g ID="li-1:5,6" style="fill:white; text-rendering:optimizeSpeed; stroke:white;"
    ><rect x="123" width="6" height="10" y="44" style="stroke:none;"
      /><path d="M124.2188 53.9355 L124.2188 52.8574 Q125.4609 53.3496 126.1758 53.3496 Q127.002 53.3496 127.5205 52.8662 Q128.0391 52.3828 128.0391 51.6152 Q128.0391 49.7871 125.4785 49.7871 L125.0215 49.7871 L125.0215 49.0078 L125.4258 49.002 Q127.8281 49.002 127.8281 47.3086 Q127.8281 45.9785 126.2461 45.9785 Q125.3789 45.9785 124.3359 46.4648 L124.3359 45.457 Q125.3613 45.1113 126.3281 45.1113 Q128.9883 45.1113 128.9883 47.1211 Q128.9883 48.6504 127.1777 49.3008 Q129.2754 49.7871 129.2754 51.5977 Q129.2754 52.8223 128.4668 53.5195 Q127.6582 54.2168 126.2461 54.2168 Q125.4434 54.2168 124.2188 53.9355 Z" style="fill:black; stroke:none;"
      /><rect x="109" width="6" height="13" y="42" style="stroke:none;"
      /><path d="M110.1543 57.3145 L110.1543 48.8242 Q110.1543 47.3008 110.8398 46.4512 Q111.5254 45.6016 112.75 45.6016 Q113.7578 45.6016 114.3789 46.1289 Q115 46.6562 115 47.5176 Q115 48.209 114.6016 48.792 Q114.2031 49.375 113.4121 49.8496 Q114.4609 50.1836 115.0557 50.8838 Q115.6504 51.584 115.6504 52.4863 Q115.6504 53.6523 114.8447 54.3994 Q114.0391 55.1465 112.7793 55.1465 Q112.0234 55.1465 111.3086 54.9004 L111.3086 57.3145 ZM111.7422 49.6504 L111.9531 49.6504 Q112.709 49.6504 113.2744 49.0381 Q113.8398 48.4258 113.8398 47.6113 Q113.8398 47.043 113.5469 46.7559 Q113.2539 46.4688 112.6738 46.4688 Q111.9883 46.4688 111.6484 47.0137 Q111.3086 47.5586 111.3086 48.6426 L111.3086 53.8984 Q112.1465 54.2793 112.791 54.2793 Q113.5 54.2793 113.9951 53.7666 Q114.4902 53.2539 114.4902 52.5332 Q114.4902 51.6191 113.8047 51.0684 Q113.1191 50.5176 111.9707 50.5176 L111.7422 50.5176 Z" style="fill:black; stroke:none;"
    /></g
    ><g ID="li-1:3,4" style="fill:white; text-rendering:optimizeSpeed; stroke:white;"
    ><rect x="179" width="6" height="10" y="78" style="stroke:none;"
      /><path d="M180.2188 87.9355 L180.2188 86.8574 Q181.4609 87.3496 182.1758 87.3496 Q183.002 87.3496 183.5205 86.8662 Q184.0391 86.3828 184.0391 85.6152 Q184.0391 83.7871 181.4785 83.7871 L181.0215 83.7871 L181.0215 83.0078 L181.4258 83.002 Q183.8281 83.002 183.8281 81.3086 Q183.8281 79.9785 182.2461 79.9785 Q181.3789 79.9785 180.3359 80.4648 L180.3359 79.457 Q181.3613 79.1113 182.3281 79.1113 Q184.9883 79.1113 184.9883 81.1211 Q184.9883 82.6504 183.1777 83.3008 Q185.2754 83.7871 185.2754 85.5977 Q185.2754 86.8223 184.4668 87.5195 Q183.6582 88.2168 182.2461 88.2168 Q181.4434 88.2168 180.2188 87.9355 Z" style="fill:black; stroke:none;"
      /><rect x="162" width="8" height="8" y="87" style="stroke:none;"
      /><path d="M167.7949 90.8047 Q168.2051 89.6855 168.416 88.6367 L169.4941 88.6367 Q169.1836 89.9727 168.2344 91.8125 L168.3516 92.0938 Q168.4277 92.2637 168.7148 92.873 Q168.8906 93.248 169.125 93.7637 Q169.4766 94.5664 169.6992 95 L168.4688 95 Q168.3984 94.8535 168.3867 94.8242 L168.123 94.2148 L167.8828 93.6523 L167.6895 93.2012 L167.5957 92.9844 Q167.0566 94.1797 166.5029 94.6631 Q165.9492 95.1465 165.123 95.1465 Q164.0566 95.1465 163.415 94.3115 Q162.7734 93.4766 162.7734 92.0879 Q162.7734 90.4648 163.5088 89.4775 Q164.2441 88.4902 165.457 88.4902 Q166.2656 88.4902 166.7461 88.9648 Q167.2266 89.4395 167.7949 90.8047 ZM167.2031 92.0469 L166.916 91.3965 Q166.3887 90.1895 166.0635 89.7764 Q165.7383 89.3633 165.3281 89.3633 Q164.748 89.3633 164.376 90.0781 Q164.0039 90.793 164.0039 91.9004 Q164.0039 92.9727 164.3525 93.626 Q164.7012 94.2793 165.2754 94.2793 Q165.7734 94.2793 166.1895 93.7988 Q166.6055 93.3184 167.2031 92.0469 Z" style="fill:black; stroke:none;"
    /></g
    ><g ID="li-1:3,5" style="fill:white; text-rendering:optimizeSpeed; stroke:white;"
    ><rect x="171" width="7" height="9" y="60" style="stroke:none;"
      /><path d="M175.5176 69 L175.5176 66.5449 L171.6152 66.5449 L171.6152 65.6719 L175.5176 60.3281 L176.6016 60.3281 L176.6016 65.6016 L177.7617 65.6016 L177.7617 66.5449 L176.6016 66.5449 L176.6016 69 ZM172.7461 65.6016 L175.5938 65.6016 L175.5938 61.7461 Z" style="fill:black; stroke:none;"
      /><rect x="156" width="6" height="13" y="50" style="stroke:none;"
      /><path d="M157.1543 65.3145 L157.1543 56.8242 Q157.1543 55.3008 157.8398 54.4512 Q158.5254 53.6016 159.75 53.6016 Q160.7578 53.6016 161.3789 54.1289 Q162 54.6562 162 55.5176 Q162 56.209 161.6016 56.792 Q161.2031 57.375 160.4121 57.8496 Q161.4609 58.1836 162.0557 58.8838 Q162.6504 59.584 162.6504 60.4863 Q162.6504 61.6523 161.8447 62.3994 Q161.0391 63.1465 159.7793 63.1465 Q159.0234 63.1465 158.3086 62.9004 L158.3086 65.3145 ZM158.7422 57.6504 L158.9531 57.6504 Q159.709 57.6504 160.2744 57.0381 Q160.8398 56.4258 160.8398 55.6113 Q160.8398 55.043 160.5469 54.7559 Q160.2539 54.4688 159.6738 54.4688 Q158.9883 54.4688 158.6484 55.0137 Q158.3086 55.5586 158.3086 56.6426 L158.3086 61.8984 Q159.1465 62.2793 159.791 62.2793 Q160.5 62.2793 160.9951 61.7666 Q161.4902 61.2539 161.4902 60.5332 Q161.4902 59.6191 160.8047 59.0684 Q160.1191 58.5176 158.9707 58.5176 L158.7422 58.5176 Z" style="fill:black; stroke:none;"
    /></g
    ><g ID="li-1:2,3" style="fill:white; text-rendering:optimizeSpeed; stroke:white;"
    ><rect x="226" width="7" height="9" y="70" style="stroke:none;"
      /><path d="M230.5176 79 L230.5176 76.5449 L226.6152 76.5449 L226.6152 75.6719 L230.5176 70.3281 L231.6016 70.3281 L231.6016 75.6016 L232.7617 75.6016 L232.7617 76.5449 L231.6016 76.5449 L231.6016 79 ZM227.7461 75.6016 L230.5938 75.6016 L230.5938 71.7461 Z" style="fill:black; stroke:none;"
      /><rect x="213" width="6" height="13" y="68" style="stroke:none;"
      /><path d="M214.1543 83.3145 L214.1543 74.8242 Q214.1543 73.3008 214.8398 72.4512 Q215.5254 71.6016 216.75 71.6016 Q217.7578 71.6016 218.3789 72.1289 Q219 72.6562 219 73.5176 Q219 74.209 218.6016 74.792 Q218.2031 75.375 217.4121 75.8496 Q218.4609 76.1836 219.0557 76.8838 Q219.6504 77.584 219.6504 78.4863 Q219.6504 79.6523 218.8447 80.3994 Q218.0391 81.1465 216.7793 81.1465 Q216.0234 81.1465 215.3086 80.9004 L215.3086 83.3145 ZM215.7422 75.6504 L215.9531 75.6504 Q216.709 75.6504 217.2744 75.0381 Q217.8398 74.4258 217.8398 73.6113 Q217.8398 73.043 217.5469 72.7559 Q217.2539 72.4688 216.6738 72.4688 Q215.9883 72.4688 215.6484 73.0137 Q215.3086 73.5586 215.3086 74.6426 L215.3086 79.8984 Q216.1465 80.2793 216.791 80.2793 Q217.5 80.2793 217.9951 79.7666 Q218.4902 79.2539 218.4902 78.5332 Q218.4902 77.6191 217.8047 77.0684 Q217.1191 76.5176 215.9707 76.5176 L215.7422 76.5176 Z" style="fill:black; stroke:none;"
    /></g
    ><g ID="li-1:1,2" style="fill:white; text-rendering:optimizeSpeed; stroke:white;"
    ><rect x="265" width="6" height="13" y="68" style="stroke:none;"
      /><path d="M266.1543 83.3145 L266.1543 74.8242 Q266.1543 73.3008 266.8398 72.4512 Q267.5254 71.6016 268.75 71.6016 Q269.7578 71.6016 270.3789 72.1289 Q271 72.6562 271 73.5176 Q271 74.209 270.6016 74.792 Q270.2031 75.375 269.4121 75.8496 Q270.4609 76.1836 271.0557 76.8838 Q271.6504 77.584 271.6504 78.4863 Q271.6504 79.6523 270.8447 80.3994 Q270.0391 81.1465 268.7793 81.1465 Q268.0234 81.1465 267.3086 80.9004 L267.3086 83.3145 ZM267.7422 75.6504 L267.9531 75.6504 Q268.709 75.6504 269.2744 75.0381 Q269.8398 74.4258 269.8398 73.6113 Q269.8398 73.043 269.5469 72.7559 Q269.2539 72.4688 268.6738 72.4688 Q267.9883 72.4688 267.6484 73.0137 Q267.3086 73.5586 267.3086 74.6426 L267.3086 79.8984 Q268.1465 80.2793 268.791 80.2793 Q269.5 80.2793 269.9951 79.7666 Q270.4902 79.2539 270.4902 78.5332 Q270.4902 77.6191 269.8047 77.0684 Q269.1191 76.5176 267.9707 76.5176 L267.7422 76.5176 Z" style="fill:black; stroke:none;"
    /></g
  ></g
></svg
>
