<?xml version="1.0"?>
<!DOCTYPE svg PUBLIC '-//W3C//DTD SVG 1.0//EN'
          'http://www.w3.org/TR/2001/REC-SVG-20010904/DTD/svg10.dtd'>
<svg xmlns:xlink="http://www.w3.org/1999/xlink" style="fill-opacity:1; color-rendering:auto; color-interpolation:auto; text-rendering:auto; stroke:black; stroke-linecap:square; stroke-miterlimit:10; shape-rendering:auto; stroke-opacity:1; fill:black; stroke-dasharray:none; font-weight:normal; stroke-width:1; font-family:'Dialog'; font-style:normal; stroke-linejoin:miter; font-size:12px; stroke-dashoffset:0; image-rendering:auto;" viewBox="0 0 654 120" xmlns="http://www.w3.org/2000/svg"
><!--Generated by the Batik Graphics2D SVG Generator--><defs id="genericDefs"
  /><g
  ><defs id="defs1"
    ><clipPath clipPathUnits="userSpaceOnUse" id="clipPath1"
      ><path d="M572 64 C572 70.0751 567.0751 75 561 75 C554.9249 75 550 70.0751 550 64 C550 57.9249 554.9249 53 561 53 C567.0751 53 572 57.9249 572 64 Z"
      /></clipPath
      ><clipPath clipPathUnits="userSpaceOnUse" id="clipPath2"
      ><path d="M520 64 C520 70.0751 515.0751 75 509 75 C502.9249 75 498 70.0751 498 64 C498 57.9249 502.9249 53 509 53 C515.0751 53 520 57.9249 520 64 Z"
      /></clipPath
      ><clipPath clipPathUnits="userSpaceOnUse" id="clipPath3"
      ><path d="M468 64 C468 70.0751 463.0751 75 457 75 C450.9249 75 446 70.0751 446 64 C446 57.9249 450.9249 53 457 53 C463.0751 53 468 57.9249 468 64 Z"
      /></clipPath
      ><clipPath clipPathUnits="userSpaceOnUse" id="clipPath4"
      ><path d="M416 64 C416 70.0751 411.0751 75 405 75 C398.9249 75 394 70.0751 394 64 C394 57.9249 398.9249 53 405 53 C411.0751 53 416 57.9249 416 64 Z"
      /></clipPath
      ><clipPath clipPathUnits="userSpaceOnUse" id="clipPath5"
      ><path d="M364 64 C364 70.0751 359.0751 75 353 75 C346.9249 75 342 70.0751 342 64 C342 57.9249 346.9249 53 353 53 C359.0751 53 364 57.9249 364 64 Z"
      /></clipPath
      ><clipPath clipPathUnits="userSpaceOnUse" id="clipPath6"
      ><path d="M312 64 C312 70.0751 307.0751 75 301 75 C294.9249 75 290 70.0751 290 64 C290 57.9249 294.9249 53 301 53 C307.0751 53 312 57.9249 312 64 Z"
      /></clipPath
      ><clipPath clipPathUnits="userSpaceOnUse" id="clipPath7"
      ><path d="M260 64 C260 70.0751 255.0751 75 249 75 C242.9249 75 238 70.0751 238 64 C238 57.9249 242.9249 53 249 53 C255.0751 53 260 57.9249 260 64 Z"
      /></clipPath
      ><clipPath clipPathUnits="userSpaceOnUse" id="clipPath8"
      ><path d="M208 64 C208 70.0751 203.0751 75 197 75 C190.9249 75 186 70.0751 186 64 C186 57.9249 190.9249 53 197 53 C203.0751 53 208 57.9249 208 64 Z"
      /></clipPath
      ><clipPath clipPathUnits="userSpaceOnUse" id="clipPath9"
      ><path d="M156 64 C156 70.0751 151.0751 75 145 75 C138.9249 75 134 70.0751 134 64 C134 57.9249 138.9249 53 145 53 C151.0751 53 156 57.9249 156 64 Z"
      /></clipPath
      ><clipPath clipPathUnits="userSpaceOnUse" id="clipPath10"
      ><path d="M104 64 C104 70.0751 99.0751 75 93 75 C86.9249 75 82 70.0751 82 64 C82 57.9249 86.9249 53 93 53 C99.0751 53 104 57.9249 104 64 Z"
      /></clipPath
      ><clipPath clipPathUnits="userSpaceOnUse" id="clipPath11"
      ><path style="fill-rule:evenodd;" d="M41 53 L51 60 L47 72 L34 72 L30 60 L41 53 Z"
      /></clipPath
    ></defs
    ><g style="fill:white; text-rendering:optimizeSpeed; stroke:white;"
    ><rect x="0" width="654" height="120" y="0" style="stroke:none;"
      /><polygon style="fill:none; stroke:black;" points=" 613 64 561 64"
      /><path d="M613 53 C607.5 58.5 618.5 69.5 613 75" style="fill:none; stroke:black;"
      /><polygon style="fill:none; stroke:black;" points=" 561 64 509 64"
      /><circle style="clip-path:url(#clipPath1); stroke:none;" r="11" cx="561" cy="64"
      /><rect x="550" y="53" width="22" style="clip-path:url(#clipPath1); fill:rgb(255,212,0); stroke:none;" height="22"
      /><rect x="550" y="53" width="22" style="clip-path:url(#clipPath1); fill:none; stroke:black;" height="22"
      /><circle style="fill:none; stroke:black;" r="11" cx="561" cy="64"
      /><polygon style="fill:none; stroke:black;" points=" 509 64 457 64"
      /><circle style="clip-path:url(#clipPath2); stroke:none;" r="11" cx="509" cy="64"
      /><rect x="498" y="53" width="22" style="clip-path:url(#clipPath2); fill:rgb(255,212,0); stroke:none;" height="22"
      /><rect x="498" y="53" width="22" style="clip-path:url(#clipPath2); fill:none; stroke:black;" height="22"
      /><circle style="fill:none; stroke:black;" r="11" cx="509" cy="64"
      /><polygon style="fill:none; stroke:black;" points=" 457 64 405 64"
      /><circle style="clip-path:url(#clipPath3); stroke:none;" r="11" cx="457" cy="64"
      /><rect x="446" y="53" width="22" style="clip-path:url(#clipPath3); fill:rgb(255,212,0); stroke:none;" height="22"
      /><rect x="446" y="53" width="22" style="clip-path:url(#clipPath3); fill:none; stroke:black;" height="22"
      /><circle style="fill:none; stroke:black;" r="11" cx="457" cy="64"
      /><polygon style="fill:none; stroke:black;" points=" 405 64 353 64"
      /><circle style="clip-path:url(#clipPath4); stroke:none;" r="11" cx="405" cy="64"
      /><rect x="394" y="53" width="22" style="clip-path:url(#clipPath4); fill:rgb(255,212,0); stroke:none;" height="22"
      /><rect x="394" y="53" width="22" style="clip-path:url(#clipPath4); fill:none; stroke:black;" height="22"
      /><circle style="fill:none; stroke:black;" r="11" cx="405" cy="64"
      /><polygon style="fill:none; stroke:black;" points=" 353 64 301 64"
      /><circle style="clip-path:url(#clipPath5); stroke:none;" r="11" cx="353" cy="64"
      /><rect x="342" y="53" width="22" style="clip-path:url(#clipPath5); fill:rgb(255,212,0); stroke:none;" height="22"
      /><rect x="342" y="53" width="22" style="clip-path:url(#clipPath5); fill:none; stroke:black;" height="22"
      /><circle style="fill:none; stroke:black;" r="11" cx="353" cy="64"
      /><polygon style="fill:none; stroke:black;" points=" 301 64 249 64"
      /><circle style="clip-path:url(#clipPath6); stroke:none;" r="11" cx="301" cy="64"
      /><rect x="290" y="53" width="22" style="clip-path:url(#clipPath6); fill:rgb(255,212,0); stroke:none;" height="22"
      /><rect x="290" y="53" width="22" style="clip-path:url(#clipPath6); fill:none; stroke:black;" height="22"
      /><circle style="fill:none; stroke:black;" r="11" cx="301" cy="64"
      /><polygon style="fill:none; stroke:black;" points=" 249 64 197 64"
      /><circle style="clip-path:url(#clipPath7); stroke:none;" r="11" cx="249" cy="64"
      /><rect x="238" y="53" width="22" style="clip-path:url(#clipPath7); fill:rgb(255,212,0); stroke:none;" height="22"
      /><rect x="238" y="53" width="22" style="clip-path:url(#clipPath7); fill:none; stroke:black;" height="22"
      /><circle style="fill:none; stroke:black;" r="11" cx="249" cy="64"
      /><polygon style="fill:none; stroke:black;" points=" 197 64 145 64"
      /><circle style="clip-path:url(#clipPath8); stroke:none;" r="11" cx="197" cy="64"
      /><rect x="186" y="53" width="22" style="clip-path:url(#clipPath8); fill:rgb(255,212,0); stroke:none;" height="22"
      /><rect x="186" y="53" width="22" style="clip-path:url(#clipPath8); fill:none; stroke:black;" height="22"
      /><circle style="fill:none; stroke:black;" r="11" cx="197" cy="64"
      /><polygon style="fill:none; stroke:black;" points=" 145 64 93 64"
      /><circle style="clip-path:url(#clipPath9); stroke:none;" r="11" cx="145" cy="64"
      /><rect x="134" y="53" width="22" style="clip-path:url(#clipPath9); fill:rgb(255,212,0); stroke:none;" height="22"
      /><rect x="134" y="53" width="22" style="clip-path:url(#clipPath9); fill:none; stroke:black;" height="22"
      /><circle style="fill:none; stroke:black;" r="11" cx="145" cy="64"
      /><polygon style="fill:none; stroke:black;" points=" 93 64 41 64"
      /><circle style="clip-path:url(#clipPath10); stroke:none;" r="11" cx="93" cy="64"
      /><rect x="82" y="53" width="22" style="clip-path:url(#clipPath10); fill:rgb(255,212,0); stroke:none;" height="22"
      /><rect x="82" y="53" width="22" style="clip-path:url(#clipPath10); fill:none; stroke:black;" height="22"
      /><circle style="fill:none; stroke:black;" r="11" cx="93" cy="64"
      /><polygon style="clip-path:url(#clipPath11); stroke:none;" points=" 41 53 51 60 47 72 34 72 30 60 41 53"
      /><rect x="30" y="53" width="22" style="clip-path:url(#clipPath11); stroke:none;" height="22"
      /><rect x="30" y="53" width="22" style="clip-path:url(#clipPath11); fill:none; stroke:black;" height="22"
      /><polygon style="fill:none; stroke:black;" points=" 41 53 51 60 47 72 34 72 30 60 41 53"
    /></g
    ><g style="text-rendering:optimizeSpeed; font-size:14px; font-family:'SansSerif';"
    ><path style="stroke:none;" d="M39.2344 69 L44.8594 69 L44.8594 67.9375 L42.7969 67.9375 L42.7969 58.7188 L41.8281 58.7188 C41.2656 59.0625 40.6094 59.2969 39.6875 59.4688 L39.6875 60.2812 L41.5156 60.2812 L41.5156 67.9375 L39.2344 67.9375 L39.2344 69 Z"
      /><rect x="33" y="35" width="14" style="fill:white; stroke:none;" height="11"
      /><path style="stroke:none;" d="M34.6094 42.1562 L36.9531 38.6562 C37.2344 38.1406 37.5156 37.6406 37.7812 37.1406 L37.8281 37.1406 C37.7969 37.6719 37.7656 38.5 37.7656 39 L37.7656 42.1562 L34.6094 42.1562 ZM37.7656 46 L38.9688 46 L38.9688 43.1719 L40.3281 43.1719 L40.3281 42.1562 L38.9688 42.1562 L38.9688 35.7188 L37.5469 35.7188 L33.2812 42.3281 L33.2812 43.1719 L37.7656 43.1719 L37.7656 46 ZM44.645 46.1875 C45.5512 46.1875 46.3637 45.6875 46.9575 45.1094 L47.0043 45.1094 L47.1137 46 L48.145 46 L48.145 34.8594 L46.895 34.8594 L46.895 37.7812 L46.9418 39.0938 C46.27 38.5312 45.6918 38.2031 44.8012 38.2031 C43.0668 38.2031 41.5043 39.7344 41.5043 42.2031 C41.5043 44.7344 42.7387 46.1875 44.645 46.1875 ZM44.9262 45.125 C43.5825 45.125 42.8325 44.0312 42.8325 42.1875 C42.8325 40.4531 43.8012 39.2812 45.02 39.2812 C45.6606 39.2812 46.2231 39.5 46.895 40.0781 L46.895 44.0625 C46.2387 44.7656 45.6293 45.125 44.9262 45.125 Z"
    /></g
    ><g style="fill:white; text-rendering:optimizeSpeed; font-family:'Serif'; stroke:white;"
    ><rect x="70" width="7" height="9" y="67" style="stroke:none;"
      /><path d="M71 72.5156 L73.9531 68.2656 L73.9531 72.5156 L71 72.5156 ZM76.2812 72.5156 L74.8594 72.5156 L74.8594 67.125 L74.2344 67.125 L70.3438 72.6406 L70.3438 73.1875 L73.9531 73.1875 L73.9531 76 L74.8594 76 L74.8594 73.1875 L76.2812 73.1875 L76.2812 72.5156 Z" style="fill:black; stroke:none;"
      /><rect x="56" width="8" height="8" y="68" style="stroke:none;"
      /><path d="M60.9844 73.7031 C60.9375 74.8906 60.1562 75.6562 59.3125 75.6562 C58.2656 75.6562 57.5 74.6875 57.5 72.7188 C57.5 71.2812 58.1562 70.1562 59.3438 70.1562 C60.1406 70.1562 60.7812 70.6875 61.0938 71.6406 L60.9844 73.7031 ZM62.9062 75.2812 C62.7344 75.375 62.5469 75.4219 62.3438 75.4219 C61.9531 75.4219 61.75 75.2188 61.75 74.4219 C61.75 73.4844 61.9688 71.5312 62.1875 69.8281 L62.0312 69.7188 L61.2344 69.9219 L61.1406 70.7969 C60.7812 70.0312 60.1562 69.6562 59.3906 69.6562 C58.0469 69.6562 56.5625 70.8438 56.5625 72.9531 C56.5625 75.0938 57.7188 76.1719 59.1406 76.1719 C60.0156 76.1719 60.6875 75.8125 61.0938 74.9844 C61.2031 75.8594 61.5156 76.1719 62.0156 76.1719 C62.4688 76.1719 62.7969 75.9062 63.0156 75.5625 L62.9062 75.2812 Z" style="fill:black; stroke:none;"
      /><rect x="122" width="7" height="9" y="67" style="stroke:none;"
      /><path d="M123 72.5156 L125.9531 68.2656 L125.9531 72.5156 L123 72.5156 ZM128.2812 72.5156 L126.8594 72.5156 L126.8594 67.125 L126.2344 67.125 L122.3438 72.6406 L122.3438 73.1875 L125.9531 73.1875 L125.9531 76 L126.8594 76 L126.8594 73.1875 L128.2812 73.1875 L128.2812 72.5156 Z" style="fill:black; stroke:none;"
      /><rect x="108" width="8" height="8" y="68" style="stroke:none;"
      /><path d="M112.9844 73.7031 C112.9375 74.8906 112.1562 75.6562 111.3125 75.6562 C110.2656 75.6562 109.5 74.6875 109.5 72.7188 C109.5 71.2812 110.1562 70.1562 111.3438 70.1562 C112.1406 70.1562 112.7812 70.6875 113.0938 71.6406 L112.9844 73.7031 ZM114.9062 75.2812 C114.7344 75.375 114.5469 75.4219 114.3438 75.4219 C113.9531 75.4219 113.75 75.2188 113.75 74.4219 C113.75 73.4844 113.9688 71.5312 114.1875 69.8281 L114.0312 69.7188 L113.2344 69.9219 L113.1406 70.7969 C112.7812 70.0312 112.1562 69.6562 111.3906 69.6562 C110.0469 69.6562 108.5625 70.8438 108.5625 72.9531 C108.5625 75.0938 109.7188 76.1719 111.1406 76.1719 C112.0156 76.1719 112.6875 75.8125 113.0938 74.9844 C113.2031 75.8594 113.5156 76.1719 114.0156 76.1719 C114.4688 76.1719 114.7969 75.9062 115.0156 75.5625 L114.9062 75.2812 Z" style="fill:black; stroke:none;"
      /><rect x="174" width="7" height="9" y="67" style="stroke:none;"
      /><path d="M175 72.5156 L177.9531 68.2656 L177.9531 72.5156 L175 72.5156 ZM180.2812 72.5156 L178.8594 72.5156 L178.8594 67.125 L178.2344 67.125 L174.3438 72.6406 L174.3438 73.1875 L177.9531 73.1875 L177.9531 76 L178.8594 76 L178.8594 73.1875 L180.2812 73.1875 L180.2812 72.5156 Z" style="fill:black; stroke:none;"
      /><rect x="160" width="8" height="8" y="68" style="stroke:none;"
      /><path d="M164.9844 73.7031 C164.9375 74.8906 164.1562 75.6562 163.3125 75.6562 C162.2656 75.6562 161.5 74.6875 161.5 72.7188 C161.5 71.2812 162.1562 70.1562 163.3438 70.1562 C164.1406 70.1562 164.7812 70.6875 165.0938 71.6406 L164.9844 73.7031 ZM166.9062 75.2812 C166.7344 75.375 166.5469 75.4219 166.3438 75.4219 C165.9531 75.4219 165.75 75.2188 165.75 74.4219 C165.75 73.4844 165.9688 71.5312 166.1875 69.8281 L166.0312 69.7188 L165.2344 69.9219 L165.1406 70.7969 C164.7812 70.0312 164.1562 69.6562 163.3906 69.6562 C162.0469 69.6562 160.5625 70.8438 160.5625 72.9531 C160.5625 75.0938 161.7188 76.1719 163.1406 76.1719 C164.0156 76.1719 164.6875 75.8125 165.0938 74.9844 C165.2031 75.8594 165.5156 76.1719 166.0156 76.1719 C166.4688 76.1719 166.7969 75.9062 167.0156 75.5625 L166.9062 75.2812 Z" style="fill:black; stroke:none;"
      /><rect x="226" width="7" height="9" y="67" style="stroke:none;"
      /><path d="M227 72.5156 L229.9531 68.2656 L229.9531 72.5156 L227 72.5156 ZM232.2812 72.5156 L230.8594 72.5156 L230.8594 67.125 L230.2344 67.125 L226.3438 72.6406 L226.3438 73.1875 L229.9531 73.1875 L229.9531 76 L230.8594 76 L230.8594 73.1875 L232.2812 73.1875 L232.2812 72.5156 Z" style="fill:black; stroke:none;"
      /><rect x="212" width="8" height="8" y="68" style="stroke:none;"
      /><path d="M216.9844 73.7031 C216.9375 74.8906 216.1562 75.6562 215.3125 75.6562 C214.2656 75.6562 213.5 74.6875 213.5 72.7188 C213.5 71.2812 214.1562 70.1562 215.3438 70.1562 C216.1406 70.1562 216.7812 70.6875 217.0938 71.6406 L216.9844 73.7031 ZM218.9062 75.2812 C218.7344 75.375 218.5469 75.4219 218.3438 75.4219 C217.9531 75.4219 217.75 75.2188 217.75 74.4219 C217.75 73.4844 217.9688 71.5312 218.1875 69.8281 L218.0312 69.7188 L217.2344 69.9219 L217.1406 70.7969 C216.7812 70.0312 216.1562 69.6562 215.3906 69.6562 C214.0469 69.6562 212.5625 70.8438 212.5625 72.9531 C212.5625 75.0938 213.7188 76.1719 215.1406 76.1719 C216.0156 76.1719 216.6875 75.8125 217.0938 74.9844 C217.2031 75.8594 217.5156 76.1719 218.0156 76.1719 C218.4688 76.1719 218.7969 75.9062 219.0156 75.5625 L218.9062 75.2812 Z" style="fill:black; stroke:none;"
      /><rect x="278" width="7" height="9" y="67" style="stroke:none;"
      /><path d="M279 72.5156 L281.9531 68.2656 L281.9531 72.5156 L279 72.5156 ZM284.2812 72.5156 L282.8594 72.5156 L282.8594 67.125 L282.2344 67.125 L278.3438 72.6406 L278.3438 73.1875 L281.9531 73.1875 L281.9531 76 L282.8594 76 L282.8594 73.1875 L284.2812 73.1875 L284.2812 72.5156 Z" style="fill:black; stroke:none;"
      /><rect x="264" width="8" height="8" y="68" style="stroke:none;"
      /><path d="M268.9844 73.7031 C268.9375 74.8906 268.1562 75.6562 267.3125 75.6562 C266.2656 75.6562 265.5 74.6875 265.5 72.7188 C265.5 71.2812 266.1562 70.1562 267.3438 70.1562 C268.1406 70.1562 268.7812 70.6875 269.0938 71.6406 L268.9844 73.7031 ZM270.9062 75.2812 C270.7344 75.375 270.5469 75.4219 270.3438 75.4219 C269.9531 75.4219 269.75 75.2188 269.75 74.4219 C269.75 73.4844 269.9688 71.5312 270.1875 69.8281 L270.0312 69.7188 L269.2344 69.9219 L269.1406 70.7969 C268.7812 70.0312 268.1562 69.6562 267.3906 69.6562 C266.0469 69.6562 264.5625 70.8438 264.5625 72.9531 C264.5625 75.0938 265.7188 76.1719 267.1406 76.1719 C268.0156 76.1719 268.6875 75.8125 269.0938 74.9844 C269.2031 75.8594 269.5156 76.1719 270.0156 76.1719 C270.4688 76.1719 270.7969 75.9062 271.0156 75.5625 L270.9062 75.2812 Z" style="fill:black; stroke:none;"
      /><rect x="330" width="7" height="9" y="67" style="stroke:none;"
      /><path d="M331 72.5156 L333.9531 68.2656 L333.9531 72.5156 L331 72.5156 ZM336.2812 72.5156 L334.8594 72.5156 L334.8594 67.125 L334.2344 67.125 L330.3438 72.6406 L330.3438 73.1875 L333.9531 73.1875 L333.9531 76 L334.8594 76 L334.8594 73.1875 L336.2812 73.1875 L336.2812 72.5156 Z" style="fill:black; stroke:none;"
      /><rect x="316" width="8" height="8" y="68" style="stroke:none;"
      /><path d="M320.9844 73.7031 C320.9375 74.8906 320.1562 75.6562 319.3125 75.6562 C318.2656 75.6562 317.5 74.6875 317.5 72.7188 C317.5 71.2812 318.1562 70.1562 319.3438 70.1562 C320.1406 70.1562 320.7812 70.6875 321.0938 71.6406 L320.9844 73.7031 ZM322.9062 75.2812 C322.7344 75.375 322.5469 75.4219 322.3438 75.4219 C321.9531 75.4219 321.75 75.2188 321.75 74.4219 C321.75 73.4844 321.9688 71.5312 322.1875 69.8281 L322.0312 69.7188 L321.2344 69.9219 L321.1406 70.7969 C320.7812 70.0312 320.1562 69.6562 319.3906 69.6562 C318.0469 69.6562 316.5625 70.8438 316.5625 72.9531 C316.5625 75.0938 317.7188 76.1719 319.1406 76.1719 C320.0156 76.1719 320.6875 75.8125 321.0938 74.9844 C321.2031 75.8594 321.5156 76.1719 322.0156 76.1719 C322.4688 76.1719 322.7969 75.9062 323.0156 75.5625 L322.9062 75.2812 Z" style="fill:black; stroke:none;"
      /><rect x="382" width="7" height="9" y="67" style="stroke:none;"
      /><path d="M383 72.5156 L385.9531 68.2656 L385.9531 72.5156 L383 72.5156 ZM388.2812 72.5156 L386.8594 72.5156 L386.8594 67.125 L386.2344 67.125 L382.3438 72.6406 L382.3438 73.1875 L385.9531 73.1875 L385.9531 76 L386.8594 76 L386.8594 73.1875 L388.2812 73.1875 L388.2812 72.5156 Z" style="fill:black; stroke:none;"
      /><rect x="368" width="8" height="8" y="68" style="stroke:none;"
      /><path d="M372.9844 73.7031 C372.9375 74.8906 372.1562 75.6562 371.3125 75.6562 C370.2656 75.6562 369.5 74.6875 369.5 72.7188 C369.5 71.2812 370.1562 70.1562 371.3438 70.1562 C372.1406 70.1562 372.7812 70.6875 373.0938 71.6406 L372.9844 73.7031 ZM374.9062 75.2812 C374.7344 75.375 374.5469 75.4219 374.3438 75.4219 C373.9531 75.4219 373.75 75.2188 373.75 74.4219 C373.75 73.4844 373.9688 71.5312 374.1875 69.8281 L374.0312 69.7188 L373.2344 69.9219 L373.1406 70.7969 C372.7812 70.0312 372.1562 69.6562 371.3906 69.6562 C370.0469 69.6562 368.5625 70.8438 368.5625 72.9531 C368.5625 75.0938 369.7188 76.1719 371.1406 76.1719 C372.0156 76.1719 372.6875 75.8125 373.0938 74.9844 C373.2031 75.8594 373.5156 76.1719 374.0156 76.1719 C374.4688 76.1719 374.7969 75.9062 375.0156 75.5625 L374.9062 75.2812 Z" style="fill:black; stroke:none;"
      /><rect x="434" width="7" height="9" y="67" style="stroke:none;"
      /><path d="M435 72.5156 L437.9531 68.2656 L437.9531 72.5156 L435 72.5156 ZM440.2812 72.5156 L438.8594 72.5156 L438.8594 67.125 L438.2344 67.125 L434.3438 72.6406 L434.3438 73.1875 L437.9531 73.1875 L437.9531 76 L438.8594 76 L438.8594 73.1875 L440.2812 73.1875 L440.2812 72.5156 Z" style="fill:black; stroke:none;"
      /><rect x="420" width="8" height="8" y="68" style="stroke:none;"
      /><path d="M424.9844 73.7031 C424.9375 74.8906 424.1562 75.6562 423.3125 75.6562 C422.2656 75.6562 421.5 74.6875 421.5 72.7188 C421.5 71.2812 422.1562 70.1562 423.3438 70.1562 C424.1406 70.1562 424.7812 70.6875 425.0938 71.6406 L424.9844 73.7031 ZM426.9062 75.2812 C426.7344 75.375 426.5469 75.4219 426.3438 75.4219 C425.9531 75.4219 425.75 75.2188 425.75 74.4219 C425.75 73.4844 425.9688 71.5312 426.1875 69.8281 L426.0312 69.7188 L425.2344 69.9219 L425.1406 70.7969 C424.7812 70.0312 424.1562 69.6562 423.3906 69.6562 C422.0469 69.6562 420.5625 70.8438 420.5625 72.9531 C420.5625 75.0938 421.7188 76.1719 423.1406 76.1719 C424.0156 76.1719 424.6875 75.8125 425.0938 74.9844 C425.2031 75.8594 425.5156 76.1719 426.0156 76.1719 C426.4688 76.1719 426.7969 75.9062 427.0156 75.5625 L426.9062 75.2812 Z" style="fill:black; stroke:none;"
      /><rect x="486" width="7" height="9" y="67" style="stroke:none;"
      /><path d="M487 72.5156 L489.9531 68.2656 L489.9531 72.5156 L487 72.5156 ZM492.2812 72.5156 L490.8594 72.5156 L490.8594 67.125 L490.2344 67.125 L486.3438 72.6406 L486.3438 73.1875 L489.9531 73.1875 L489.9531 76 L490.8594 76 L490.8594 73.1875 L492.2812 73.1875 L492.2812 72.5156 Z" style="fill:black; stroke:none;"
      /><rect x="472" width="8" height="8" y="68" style="stroke:none;"
      /><path d="M476.9844 73.7031 C476.9375 74.8906 476.1562 75.6562 475.3125 75.6562 C474.2656 75.6562 473.5 74.6875 473.5 72.7188 C473.5 71.2812 474.1562 70.1562 475.3438 70.1562 C476.1406 70.1562 476.7812 70.6875 477.0938 71.6406 L476.9844 73.7031 ZM478.9062 75.2812 C478.7344 75.375 478.5469 75.4219 478.3438 75.4219 C477.9531 75.4219 477.75 75.2188 477.75 74.4219 C477.75 73.4844 477.9688 71.5312 478.1875 69.8281 L478.0312 69.7188 L477.2344 69.9219 L477.1406 70.7969 C476.7812 70.0312 476.1562 69.6562 475.3906 69.6562 C474.0469 69.6562 472.5625 70.8438 472.5625 72.9531 C472.5625 75.0938 473.7188 76.1719 475.1406 76.1719 C476.0156 76.1719 476.6875 75.8125 477.0938 74.9844 C477.2031 75.8594 477.5156 76.1719 478.0156 76.1719 C478.4688 76.1719 478.7969 75.9062 479.0156 75.5625 L478.9062 75.2812 Z" style="fill:black; stroke:none;"
      /><rect x="538" width="7" height="9" y="67" style="stroke:none;"
      /><path d="M539 72.5156 L541.9531 68.2656 L541.9531 72.5156 L539 72.5156 ZM544.2812 72.5156 L542.8594 72.5156 L542.8594 67.125 L542.2344 67.125 L538.3438 72.6406 L538.3438 73.1875 L541.9531 73.1875 L541.9531 76 L542.8594 76 L542.8594 73.1875 L544.2812 73.1875 L544.2812 72.5156 Z" style="fill:black; stroke:none;"
      /><rect x="524" width="8" height="8" y="68" style="stroke:none;"
      /><path d="M528.9844 73.7031 C528.9375 74.8906 528.1562 75.6562 527.3125 75.6562 C526.2656 75.6562 525.5 74.6875 525.5 72.7188 C525.5 71.2812 526.1562 70.1562 527.3438 70.1562 C528.1406 70.1562 528.7812 70.6875 529.0938 71.6406 L528.9844 73.7031 ZM530.9062 75.2812 C530.7344 75.375 530.5469 75.4219 530.3438 75.4219 C529.9531 75.4219 529.75 75.2188 529.75 74.4219 C529.75 73.4844 529.9688 71.5312 530.1875 69.8281 L530.0312 69.7188 L529.2344 69.9219 L529.1406 70.7969 C528.7812 70.0312 528.1562 69.6562 527.3906 69.6562 C526.0469 69.6562 524.5625 70.8438 524.5625 72.9531 C524.5625 75.0938 525.7188 76.1719 527.1406 76.1719 C528.0156 76.1719 528.6875 75.8125 529.0938 74.9844 C529.2031 75.8594 529.5156 76.1719 530.0156 76.1719 C530.4688 76.1719 530.7969 75.9062 531.0156 75.5625 L530.9062 75.2812 Z" style="fill:black; stroke:none;"
      /><rect x="576" width="8" height="8" y="68" style="stroke:none;"
      /><path d="M580.9844 73.7031 C580.9375 74.8906 580.1562 75.6562 579.3125 75.6562 C578.2656 75.6562 577.5 74.6875 577.5 72.7188 C577.5 71.2812 578.1562 70.1562 579.3438 70.1562 C580.1406 70.1562 580.7812 70.6875 581.0938 71.6406 L580.9844 73.7031 ZM582.9062 75.2812 C582.7344 75.375 582.5469 75.4219 582.3438 75.4219 C581.9531 75.4219 581.75 75.2188 581.75 74.4219 C581.75 73.4844 581.9688 71.5312 582.1875 69.8281 L582.0312 69.7188 L581.2344 69.9219 L581.1406 70.7969 C580.7812 70.0312 580.1562 69.6562 579.3906 69.6562 C578.0469 69.6562 576.5625 70.8438 576.5625 72.9531 C576.5625 75.0938 577.7188 76.1719 579.1406 76.1719 C580.0156 76.1719 580.6875 75.8125 581.0938 74.9844 C581.2031 75.8594 581.5156 76.1719 582.0156 76.1719 C582.4688 76.1719 582.7969 75.9062 583.0156 75.5625 L582.9062 75.2812 Z" style="fill:black; stroke:none;"
    /></g
    ><g ID="legend-1:0" style="text-rendering:optimizeSpeed; font-size:10px; font-family:'SansSerif';"
    ><path style="stroke:none;" d="M30.875 90 L34.9062 90 L34.9062 89.2344 L33.4375 89.2344 L33.4375 82.6562 L32.7344 82.6562 C32.3281 82.9062 31.8594 83.0625 31.2031 83.1875 L31.2031 83.7656 L32.5156 83.7656 L32.5156 89.2344 L30.875 89.2344 L30.875 90 ZM35.925 85.4531 L40.7219 85.4531 L40.7219 84.7656 L35.925 84.7656 L35.925 85.4531 ZM35.925 87.8438 L40.7219 87.8438 L40.7219 87.1719 L35.925 87.1719 L35.925 87.8438 ZM43.7094 90.125 C44.4125 90.125 44.975 89.7656 45.3969 89.0312 L45.4281 89.0312 C45.4125 89.7969 45.85 90.125 46.5062 90.125 C46.8187 90.125 47.0375 90.0625 47.1937 89.9844 L47.0531 89.2969 C46.9437 89.3438 46.8031 89.375 46.6937 89.375 C46.3969 89.375 46.1469 89.1875 46.1469 88.8125 C46.1469 87.8125 46.5375 86 46.8344 84.5625 L45.9281 84.5625 L45.6937 85.8594 L45.6625 85.8594 C45.3656 84.8125 44.6625 84.4375 43.9906 84.4375 C42.7406 84.4375 41.6156 85.5156 41.6156 87.375 C41.6156 89.1562 42.475 90.125 43.7094 90.125 ZM43.8969 89.375 C43.0531 89.375 42.5531 88.6406 42.5531 87.375 C42.5531 85.9375 43.3031 85.2031 44.0844 85.2031 C44.6 85.2031 45.1625 85.4688 45.4594 86.6562 L45.3812 87.6875 C45.3031 88.5938 44.6156 89.375 43.8969 89.375 ZM47.8031 87.5469 L50.3656 87.5469 L50.3656 86.8438 L47.8031 86.8438 L47.8031 87.5469 ZM51.9762 87.25 L53.6325 84.75 C53.8512 84.3906 54.0544 84.0312 54.2262 83.6719 L54.2731 83.6719 C54.2575 84.0469 54.2262 84.6406 54.2262 85 L54.2262 87.25 L51.9762 87.25 ZM54.2262 90 L55.0856 90 L55.0856 87.9844 L56.0544 87.9844 L56.0544 87.25 L55.0856 87.25 L55.0856 82.6562 L54.07 82.6562 L51.0231 87.375 L51.0231 87.9844 L54.2262 87.9844 L54.2262 90 ZM56.8231 87.5469 L59.3856 87.5469 L59.3856 86.8438 L56.8231 86.8438 L56.8231 87.5469 ZM62.6056 90.125 C63.2618 90.125 63.8243 89.7812 64.2618 89.3594 L64.2931 89.3594 L64.3712 90 L65.1056 90 L65.1056 82.0469 L64.215 82.0469 L64.215 84.125 L64.2462 85.0625 C63.7775 84.6719 63.3556 84.4375 62.715 84.4375 C61.4806 84.4375 60.3712 85.5312 60.3712 87.2969 C60.3712 89.0938 61.2462 90.125 62.6056 90.125 ZM62.8087 89.375 C61.8556 89.375 61.3087 88.5938 61.3087 87.2812 C61.3087 86.0469 61.9962 85.2031 62.8868 85.2031 C63.3243 85.2031 63.7462 85.3594 64.215 85.7656 L64.215 88.625 C63.7462 89.125 63.3087 89.375 62.8087 89.375 ZM69.1493 90.125 C69.8837 90.125 70.4775 89.875 70.9462 89.5625 L70.6181 88.9688 C70.2275 89.2344 69.79 89.4062 69.2587 89.4062 C68.2275 89.4062 67.5243 88.6562 67.4618 87.5 L71.1181 87.5 C71.1337 87.375 71.165 87.1875 71.165 86.9844 C71.165 85.4375 70.3837 84.4375 68.9931 84.4375 C67.7431 84.4375 66.5556 85.5312 66.5556 87.2969 C66.5556 89.0781 67.7118 90.125 69.1493 90.125 ZM67.4462 86.8438 C67.5556 85.7812 68.2431 85.1562 69.0087 85.1562 C69.8525 85.1562 70.3525 85.75 70.3525 86.8438 L67.4462 86.8438 ZM74.6112 90.125 C75.9393 90.125 77.1268 89.0938 77.1268 87.2969 C77.1268 85.4844 75.9393 84.4375 74.6112 84.4375 C73.2831 84.4375 72.0956 85.4844 72.0956 87.2969 C72.0956 89.0938 73.2831 90.125 74.6112 90.125 ZM74.6112 89.375 C73.6737 89.375 73.0331 88.5469 73.0331 87.2969 C73.0331 86.0469 73.6737 85.1875 74.6112 85.1875 C75.5487 85.1875 76.1893 86.0469 76.1893 87.2969 C76.1893 88.5469 75.5487 89.375 74.6112 89.375 ZM77.7962 90 L78.7493 90 L79.4837 88.7344 C79.6712 88.4062 79.8431 88.0625 80.0462 87.7656 L80.0931 87.7656 C80.2962 88.0625 80.4837 88.4062 80.6712 88.7344 L81.4681 90 L82.4681 90 L80.6868 87.2656 L82.3275 84.5625 L81.3743 84.5625 L80.7025 85.7656 C80.5462 86.0625 80.39 86.375 80.2181 86.6719 L80.1868 86.6719 C79.9993 86.375 79.8118 86.0625 79.64 85.7656 L78.9056 84.5625 L77.9368 84.5625 L79.5775 87.1719 L77.7962 90 ZM83.6356 92.3438 C84.7137 92.3438 85.2762 91.5156 85.6512 90.4531 L87.6981 84.5625 L86.8074 84.5625 L85.8387 87.5938 C85.6824 88.0625 85.5262 88.625 85.3856 89.1094 L85.3231 89.1094 C85.1668 88.625 84.9637 88.0625 84.8074 87.5938 L83.6981 84.5625 L82.7449 84.5625 L84.9324 90.0156 L84.8074 90.4219 C84.5887 91.0938 84.1981 91.5938 83.5731 91.5938 C83.4324 91.5938 83.2762 91.5469 83.1668 91.5 L82.9949 92.2344 C83.1668 92.2969 83.3699 92.3438 83.6356 92.3438 ZM88.2831 87.5469 L90.8456 87.5469 L90.8456 86.8438 L88.2831 86.8438 L88.2831 87.5469 ZM92.2999 90 L94.1749 90 C96.3937 90 97.5968 88.625 97.5968 86.3125 C97.5968 83.9844 96.3937 82.6562 94.1437 82.6562 L92.2999 82.6562 L92.2999 90 ZM93.2374 89.2344 L93.2374 83.4219 L94.0656 83.4219 C95.7843 83.4219 96.6437 84.4531 96.6437 86.3125 C96.6437 88.1562 95.7843 89.2344 94.0656 89.2344 L93.2374 89.2344 ZM98.6231 87.5469 L101.1856 87.5469 L101.1856 86.8438 L98.6231 86.8438 L98.6231 87.5469 ZM101.7962 90 L102.7493 90 L103.4837 88.7344 C103.6712 88.4062 103.8431 88.0625 104.0462 87.7656 L104.0931 87.7656 C104.2962 88.0625 104.4837 88.4062 104.6712 88.7344 L105.4681 90 L106.4681 90 L104.6868 87.2656 L106.3274 84.5625 L105.3743 84.5625 L104.7024 85.7656 C104.5462 86.0625 104.3899 86.375 104.2181 86.6719 L104.1868 86.6719 C103.9993 86.375 103.8118 86.0625 103.6399 85.7656 L102.9056 84.5625 L101.9368 84.5625 L103.5774 87.1719 L101.7962 90 ZM107.6356 92.3438 C108.7137 92.3438 109.2762 91.5156 109.6512 90.4531 L111.6981 84.5625 L110.8074 84.5625 L109.8387 87.5938 C109.6824 88.0625 109.5262 88.625 109.3856 89.1094 L109.3231 89.1094 C109.1668 88.625 108.9637 88.0625 108.8074 87.5938 L107.6981 84.5625 L106.7449 84.5625 L108.9324 90.0156 L108.8074 90.4219 C108.5887 91.0938 108.1981 91.5938 107.5731 91.5938 C107.4324 91.5938 107.2762 91.5469 107.1668 91.5 L106.9949 92.2344 C107.1668 92.2969 107.3699 92.3438 107.6356 92.3438 ZM113.7049 90.125 C113.9549 90.125 114.1112 90.0938 114.2362 90.0469 L114.1112 89.3438 C114.0174 89.375 113.9706 89.375 113.9237 89.375 C113.7831 89.375 113.6581 89.2656 113.6581 88.9844 L113.6581 82.0469 L112.7518 82.0469 L112.7518 88.9219 C112.7518 89.6875 113.0331 90.125 113.7049 90.125 ZM115.6799 90 L116.6174 90 L116.6174 86.5469 L120.0237 86.5469 L120.0237 90 L120.9455 90 L120.9455 82.6562 L120.0237 82.6562 L120.0237 85.7344 L116.6174 85.7344 L116.6174 82.6562 L115.6799 82.6562 L115.6799 90 ZM125.0693 90.125 C125.8037 90.125 126.3974 89.875 126.8662 89.5625 L126.538 88.9688 C126.1474 89.2344 125.7099 89.4062 125.1787 89.4062 C124.1474 89.4062 123.4443 88.6562 123.3818 87.5 L127.038 87.5 C127.0537 87.375 127.0849 87.1875 127.0849 86.9844 C127.0849 85.4375 126.3037 84.4375 124.913 84.4375 C123.663 84.4375 122.4755 85.5312 122.4755 87.2969 C122.4755 89.0781 123.6318 90.125 125.0693 90.125 ZM123.3662 86.8438 C123.4755 85.7812 124.163 85.1562 124.9287 85.1562 C125.7724 85.1562 126.2724 85.75 126.2724 86.8438 L123.3662 86.8438 ZM127.6562 90 L128.6093 90 L129.3437 88.7344 C129.5312 88.4062 129.703 88.0625 129.9062 87.7656 L129.953 87.7656 C130.1562 88.0625 130.3437 88.4062 130.5312 88.7344 L131.328 90 L132.328 90 L130.5468 87.2656 L132.1874 84.5625 L131.2343 84.5625 L130.5624 85.7656 C130.4062 86.0625 130.2499 86.375 130.078 86.6719 L130.0468 86.6719 C129.8593 86.375 129.6718 86.0625 129.4999 85.7656 L128.7655 84.5625 L127.7968 84.5625 L129.4374 87.1719 L127.6562 90 ZM133.4018 92.2969 L134.308 92.2969 L134.308 90.4531 L134.2924 89.5 C134.7768 89.9062 135.2924 90.125 135.7924 90.125 C137.0424 90.125 138.1518 89.0625 138.1518 87.2031 C138.1518 85.5312 137.3862 84.4375 135.9955 84.4375 C135.3549 84.4375 134.7455 84.7969 134.2612 85.1875 L134.2299 85.1875 L134.1518 84.5625 L133.4018 84.5625 L133.4018 92.2969 ZM135.6362 89.375 C135.2768 89.375 134.7924 89.2188 134.308 88.7969 L134.308 85.9531 C134.8393 85.4531 135.308 85.2031 135.7768 85.2031 C136.7924 85.2031 137.1987 86.0156 137.1987 87.2031 C137.1987 88.5625 136.5424 89.375 135.6362 89.375 Z"
    /></g
  ></g
></svg
>
