<?xml version="1.0"?>
<!DOCTYPE svg PUBLIC '-//W3C//DTD SVG 1.0//EN'
          'http://www.w3.org/TR/2001/REC-SVG-20010904/DTD/svg10.dtd'>
<svg xmlns:xlink="http://www.w3.org/1999/xlink" style="fill-opacity:1; color-rendering:auto; color-interpolation:auto; text-rendering:auto; stroke:black; stroke-linecap:square; stroke-miterlimit:10; shape-rendering:auto; stroke-opacity:1; fill:black; stroke-dasharray:none; font-weight:normal; stroke-width:1; font-family:'Dialog'; font-style:normal; stroke-linejoin:miter; font-size:12px; stroke-dashoffset:0; image-rendering:auto;" viewBox="0 0 186 105" xmlns="http://www.w3.org/2000/svg"
><!--Generated by the Batik Graphics2D SVG Generator--><defs id="genericDefs"
  /><g
  ><defs id="defs1"
    ><clipPath clipPathUnits="userSpaceOnUse" id="clipPath1"
      ><path style="fill-rule:evenodd;" d="M93 30 L104 41 L93 52 L82 41 Z"
      /></clipPath
      ><clipPath clipPathUnits="userSpaceOnUse" id="clipPath2"
      ><path d="M30 30 L52 30 L52 52 L30 52 L30 30 Z"
      /></clipPath
    ></defs
    ><g style="fill:white; text-rendering:optimizeSpeed; stroke:white;"
    ><rect x="0" width="186" height="105" y="0" style="stroke:none;"
      /><polygon style="fill:none; stroke:black;" points=" 145 41 93 41"
      /><path d="M145 30 C139.5 35.5 150.5 46.5 145 52" style="fill:none; stroke:black;"
      /><polygon style="fill:none; stroke:black;" points=" 93 41 41 41"
      /><polygon style="clip-path:url(#clipPath1); stroke:none;" points=" 93 30 104 41 93 52 82 41"
      /><rect x="82" y="41" width="22" style="clip-path:url(#clipPath1); fill:rgb(161,122,77); stroke:none;" height="11"
      /><rect x="82" y="41" width="22" style="clip-path:url(#clipPath1); fill:none; stroke:black;" height="11"
      /><polygon style="fill:none; stroke:black;" points=" 93 30 104 41 93 52 82 41"
      /><rect x="85" y="58" width="14" style="stroke:none;" height="10"
    /></g
    ><g style="text-rendering:optimizeSpeed; font-size:14px; font-family:'SansSerif';"
    ><path style="stroke:none;" d="M85.6094 69 L92.0625 69 L92.0625 67.8906 L89.2344 67.8906 C88.7031 67.8906 88.0781 67.9531 87.5469 67.9844 C89.9531 65.7031 91.5625 63.625 91.5625 61.5781 C91.5625 59.75 90.4219 58.5469 88.5781 58.5469 C87.2812 58.5469 86.4062 59.1406 85.5625 60.0469 L86.2969 60.7812 C86.8594 60.1094 87.5938 59.5938 88.4375 59.5938 C89.7031 59.5938 90.3125 60.4531 90.3125 61.625 C90.3125 63.3906 88.8438 65.4375 85.6094 68.25 L85.6094 69 ZM97.02 69.1875 C99.1606 69.1875 100.5043 67.8906 100.5043 66.2656 C100.5043 64.75 99.5825 64.0469 98.395 63.5312 L96.9262 62.8906 C96.1293 62.5625 95.2387 62.1875 95.2387 61.1875 C95.2387 60.2656 95.9887 59.6719 97.145 59.6719 C98.0981 59.6719 98.8637 60.0469 99.4887 60.6406 L100.1762 59.8125 C99.4418 59.0625 98.3637 58.5469 97.145 58.5469 C95.2856 58.5469 93.9106 59.6875 93.9106 61.2656 C93.9106 62.7656 95.0512 63.5 96.0043 63.9062 L97.4887 64.5469 C98.4575 64.9844 99.1918 65.3125 99.1918 66.375 C99.1918 67.375 98.3793 68.0469 97.0356 68.0469 C95.9731 68.0469 94.9418 67.5469 94.2075 66.7812 L93.4262 67.6562 C94.3168 68.5938 95.5668 69.1875 97.02 69.1875 Z"
    /></g
    ><g style="fill:white; text-rendering:optimizeSpeed; stroke:white;"
    ><rect x="30" y="30" width="22" style="clip-path:url(#clipPath2); stroke:none;" height="22"
      /><polygon style="fill:rgb(0,144,188); clip-path:url(#clipPath2); stroke:none;" points=" 30 30 52 30 52 52"
      /><polygon style="fill:none; clip-path:url(#clipPath2); stroke:black;" points=" 30 30 52 30 52 52"
      /><rect x="30" y="30" width="22" style="fill:none; stroke:black;" height="22"
      /><rect x="33" width="14" height="10" y="58" style="stroke:none;"
    /></g
    ><g style="text-rendering:optimizeSpeed; font-size:14px; font-family:'SansSerif';"
    ><path style="stroke:none;" d="M33.6094 69 L40.0625 69 L40.0625 67.8906 L37.2344 67.8906 C36.7031 67.8906 36.0781 67.9531 35.5469 67.9844 C37.9531 65.7031 39.5625 63.625 39.5625 61.5781 C39.5625 59.75 38.4219 58.5469 36.5781 58.5469 C35.2812 58.5469 34.4062 59.1406 33.5625 60.0469 L34.2969 60.7812 C34.8594 60.1094 35.5938 59.5938 36.4375 59.5938 C37.7031 59.5938 38.3125 60.4531 38.3125 61.625 C38.3125 63.3906 36.8438 65.4375 33.6094 68.25 L33.6094 69 ZM45.02 69.1875 C47.1606 69.1875 48.5043 67.8906 48.5043 66.2656 C48.5043 64.75 47.5825 64.0469 46.395 63.5312 L44.9262 62.8906 C44.1293 62.5625 43.2387 62.1875 43.2387 61.1875 C43.2387 60.2656 43.9887 59.6719 45.145 59.6719 C46.0981 59.6719 46.8637 60.0469 47.4887 60.6406 L48.1762 59.8125 C47.4418 59.0625 46.3637 58.5469 45.145 58.5469 C43.2856 58.5469 41.9106 59.6875 41.9106 61.2656 C41.9106 62.7656 43.0512 63.5 44.0043 63.9062 L45.4887 64.5469 C46.4575 64.9844 47.1918 65.3125 47.1918 66.375 C47.1918 67.375 46.3793 68.0469 45.0356 68.0469 C43.9731 68.0469 42.9418 67.5469 42.2075 66.7812 L41.4262 67.6562 C42.3168 68.5938 43.5668 69.1875 45.02 69.1875 Z"
    /></g
    ><g style="fill:white; text-rendering:optimizeSpeed; font-family:'Serif'; stroke:white;"
    ><rect x="70" width="7" height="9" y="44" style="stroke:none;"
      /><path d="M71 49.5156 L73.9531 45.2656 L73.9531 49.5156 L71 49.5156 ZM76.2812 49.5156 L74.8594 49.5156 L74.8594 44.125 L74.2344 44.125 L70.3438 49.6406 L70.3438 50.1875 L73.9531 50.1875 L73.9531 53 L74.8594 53 L74.8594 50.1875 L76.2812 50.1875 L76.2812 49.5156 Z" style="fill:black; stroke:none;"
      /><rect x="56" width="8" height="8" y="45" style="stroke:none;"
      /><path d="M60.9844 50.7031 C60.9375 51.8906 60.1562 52.6562 59.3125 52.6562 C58.2656 52.6562 57.5 51.6875 57.5 49.7188 C57.5 48.2812 58.1562 47.1562 59.3438 47.1562 C60.1406 47.1562 60.7812 47.6875 61.0938 48.6406 L60.9844 50.7031 ZM62.9062 52.2812 C62.7344 52.375 62.5469 52.4219 62.3438 52.4219 C61.9531 52.4219 61.75 52.2188 61.75 51.4219 C61.75 50.4844 61.9688 48.5312 62.1875 46.8281 L62.0312 46.7188 L61.2344 46.9219 L61.1406 47.7969 C60.7812 47.0312 60.1562 46.6562 59.3906 46.6562 C58.0469 46.6562 56.5625 47.8438 56.5625 49.9531 C56.5625 52.0938 57.7188 53.1719 59.1406 53.1719 C60.0156 53.1719 60.6875 52.8125 61.0938 51.9844 C61.2031 52.8594 61.5156 53.1719 62.0156 53.1719 C62.4688 53.1719 62.7969 52.9062 63.0156 52.5625 L62.9062 52.2812 Z" style="fill:black; stroke:none;"
      /><rect x="108" width="8" height="8" y="45" style="stroke:none;"
      /><path d="M112.9844 50.7031 C112.9375 51.8906 112.1562 52.6562 111.3125 52.6562 C110.2656 52.6562 109.5 51.6875 109.5 49.7188 C109.5 48.2812 110.1562 47.1562 111.3438 47.1562 C112.1406 47.1562 112.7812 47.6875 113.0938 48.6406 L112.9844 50.7031 ZM114.9062 52.2812 C114.7344 52.375 114.5469 52.4219 114.3438 52.4219 C113.9531 52.4219 113.75 52.2188 113.75 51.4219 C113.75 50.4844 113.9688 48.5312 114.1875 46.8281 L114.0312 46.7188 L113.2344 46.9219 L113.1406 47.7969 C112.7812 47.0312 112.1562 46.6562 111.3906 46.6562 C110.0469 46.6562 108.5625 47.8438 108.5625 49.9531 C108.5625 52.0938 109.7188 53.1719 111.1406 53.1719 C112.0156 53.1719 112.6875 52.8125 113.0938 51.9844 C113.2031 52.8594 113.5156 53.1719 114.0156 53.1719 C114.4688 53.1719 114.7969 52.9062 115.0156 52.5625 L114.9062 52.2812 Z" style="fill:black; stroke:none;"
    /></g
  ></g
></svg
>
