<?xml version="1.0"?>
<!DOCTYPE svg PUBLIC '-//W3C//DTD SVG 1.0//EN'
          'http://www.w3.org/TR/2001/REC-SVG-20010904/DTD/svg10.dtd'>
<svg xmlns:xlink="http://www.w3.org/1999/xlink" style="fill-opacity:1; color-rendering:auto; color-interpolation:auto; text-rendering:auto; stroke:black; stroke-linecap:square; stroke-miterlimit:10; shape-rendering:auto; stroke-opacity:1; fill:black; stroke-dasharray:none; font-weight:normal; stroke-width:1; font-family:'Dialog'; font-style:normal; stroke-linejoin:miter; font-size:12px; stroke-dashoffset:0; image-rendering:auto;" viewBox="0 0 134 134" xmlns="http://www.w3.org/2000/svg"
><!--Generated by the Batik Graphics2D SVG Generator--><defs id="genericDefs"
  /><g
  ><defs id="defs1"
    ><clipPath clipPathUnits="userSpaceOnUse" id="clipPath1"
      ><path d="M30 82 L52 82 L52 104 L30 104 L30 82 Z"
      /></clipPath
      ><clipPath clipPathUnits="userSpaceOnUse" id="clipPath2"
      ><path style="fill-rule:evenodd;" d="M41 52 L30 30 L52 30 Z"
      /></clipPath
    ></defs
    ><g style="fill:white; text-rendering:optimizeSpeed; stroke:white;"
    ><rect x="0" width="134" height="134" y="0" style="stroke:none;"
      /><polygon style="fill:none; stroke:black;" points=" 93 93 41 93"
      /><path d="M93 82 C87.5 87.5 98.5 98.5 93 104" style="fill:none; stroke:black;"
      /><polygon style="fill:none; stroke:black;" points=" 41 93 41 41"
      /><rect x="30" y="82" width="22" style="clip-path:url(#clipPath1); stroke:none;" height="22"
      /><rect x="30" y="82" width="22" style="clip-path:url(#clipPath1); fill:rgb(0,144,188); stroke:none;" height="22"
      /><rect x="30" y="82" width="22" style="clip-path:url(#clipPath1); fill:none; stroke:black;" height="22"
      /><rect x="30" y="82" width="22" style="fill:none; stroke:black;" height="22"
      /><polygon style="clip-path:url(#clipPath2); stroke:none;" points=" 41 52 30 30 52 30"
      /><rect x="30" y="30" width="22" style="clip-path:url(#clipPath2); fill:rgb(237,28,36); stroke:none;" height="22"
      /><rect x="30" y="30" width="22" style="clip-path:url(#clipPath2); fill:none; stroke:black;" height="22"
      /><polygon style="fill:none; stroke:black;" points=" 41 52 30 30 52 30"
      /><rect x="30" y="69" width="6" style="stroke:none;" height="10"
    /></g
    ><g style="font-family:'Serif'; text-rendering:optimizeSpeed; "
    ><path style="stroke:none;" d="M33.3438 78.6875 C32.2031 78.6875 31.5312 77.5 31.5312 75.2969 C31.5312 75.2188 31.5312 75.125 31.5312 75.0469 C32.0938 74.5 32.7188 74.3125 33.3438 74.3125 C34.3125 74.3125 34.9531 74.9844 34.9531 76.4531 C34.9531 77.9375 34.3125 78.6875 33.3438 78.6875 ZM35.5312 70.0781 C32.3438 70.4531 30.5625 72.7656 30.5625 75.4531 C30.5625 77.7812 31.6094 79.1719 33.3125 79.1719 C34.8438 79.1719 35.9219 78.1094 35.9219 76.2812 C35.9219 74.6875 34.9688 73.6562 33.5625 73.6562 C32.8281 73.6562 32.1406 73.9844 31.5781 74.5781 C31.7969 72.4062 33.0781 70.9688 35.5938 70.3906 L35.5312 70.0781 Z"
      /><rect x="30" y="53" width="6" style="fill:white; stroke:none;" height="13"
      /><path style="stroke:none;" d="M32.0938 59.2031 C32.0938 57.6562 32.75 56.8125 33.7969 56.8125 C34.7188 56.8125 35.2656 57.4531 35.2656 58.5156 C35.2656 59.7188 34.5 60.4375 33.1875 60.7031 L33.2969 61.3125 C35.2188 61.2344 35.9375 62.2188 35.9375 63.4375 C35.9375 64.625 35.2344 65.4219 33.9531 65.4219 C33.25 65.4219 32.6562 65.1562 32.0938 64.7188 L32.0938 59.2031 ZM31.2031 65.9062 L31.1094 68.375 L31.2656 68.4844 L32.1562 68.2656 L32.0156 65.0938 C32.5469 65.8438 33.3594 66.1719 34.1719 66.1719 C35.5625 66.1719 36.8594 65.2188 36.8594 63.4844 C36.8594 61.9531 35.875 61.1094 34.125 61 C35.5625 60.6094 36.1875 59.4531 36.1875 58.4844 C36.1875 57.0938 35.1562 56.3125 33.9062 56.3125 C32.2969 56.3125 31.2188 57.5469 31.2188 59.5156 L31.2031 65.9062 Z"
      /><rect x="57" y="94" width="6" style="fill:white; stroke:none;" height="13"
      /><path style="stroke:none;" d="M59.0938 100.2031 C59.0938 98.6562 59.75 97.8125 60.7969 97.8125 C61.7188 97.8125 62.2656 98.4531 62.2656 99.5156 C62.2656 100.7188 61.5 101.4375 60.1875 101.7031 L60.2969 102.3125 C62.2188 102.2344 62.9375 103.2188 62.9375 104.4375 C62.9375 105.625 62.2344 106.4219 60.9531 106.4219 C60.25 106.4219 59.6562 106.1562 59.0938 105.7188 L59.0938 100.2031 ZM58.2031 106.9062 L58.1094 109.375 L58.2656 109.4844 L59.1562 109.2656 L59.0156 106.0938 C59.5469 106.8438 60.3594 107.1719 61.1719 107.1719 C62.5625 107.1719 63.8594 106.2188 63.8594 104.4844 C63.8594 102.9531 62.875 102.1094 61.125 102 C62.5625 101.6094 63.1875 100.4531 63.1875 99.4844 C63.1875 98.0938 62.1562 97.3125 60.9062 97.3125 C59.2969 97.3125 58.2188 98.5469 58.2188 100.5156 L58.2031 106.9062 Z"
    /></g
  ></g
></svg
>
