<?xml version="1.0"?>
<!DOCTYPE svg PUBLIC '-//W3C//DTD SVG 1.0//EN'
          'http://www.w3.org/TR/2001/REC-SVG-20010904/DTD/svg10.dtd'>
<svg xmlns:xlink="http://www.w3.org/1999/xlink" style="fill-opacity:1; color-rendering:auto; color-interpolation:auto; text-rendering:auto; stroke:black; stroke-linecap:square; stroke-miterlimit:10; shape-rendering:auto; stroke-opacity:1; fill:black; stroke-dasharray:none; font-weight:normal; stroke-width:1; font-family:'Dialog'; font-style:normal; stroke-linejoin:miter; font-size:12px; stroke-dashoffset:0; image-rendering:auto;" viewBox="0 0 188 105" xmlns="http://www.w3.org/2000/svg"
><!--Generated by the Batik Graphics2D SVG Generator--><defs id="genericDefs"
  /><g
  ><defs id="defs1"
    ><clipPath clipPathUnits="userSpaceOnUse" id="clipPath1"
      ><path d="M105 41 C105 47.0751 100.0751 52 94 52 C87.9249 52 83 47.0751 83 41 C83 34.9249 87.9249 30 94 30 C100.0751 30 105 34.9249 105 41 Z"
      /></clipPath
      ><clipPath clipPathUnits="userSpaceOnUse" id="clipPath2"
      ><path d="M52 41 C52 47.0751 47.0751 52 41 52 C34.9249 52 30 47.0751 30 41 C30 34.9249 34.9249 30 41 30 C47.0751 30 52 34.9249 52 41 Z"
      /></clipPath
    ></defs
    ><g style="fill:white; text-rendering:optimizeSpeed; stroke:white;"
    ><rect x="0" width="188" height="105" y="0" style="stroke:none;"
      /><polygon style="fill:none; stroke:black;" points=" 147 41 94 41"
      /><path d="M147 30 C141.5 35.5 152.5 46.5 147 52" style="fill:none; stroke:black;"
      /><polygon style="fill:none; stroke:black;" points=" 94 41 41 41"
      /><circle style="clip-path:url(#clipPath1); stroke:none;" r="11" cx="94" cy="41"
      /><rect x="83" y="30" width="22" style="clip-path:url(#clipPath1); fill:rgb(255,212,0); stroke:none;" height="22"
      /><rect x="83" y="30" width="22" style="clip-path:url(#clipPath1); fill:none; stroke:black;" height="22"
      /><circle style="fill:none; stroke:black;" r="11" cx="94" cy="41"
      /><rect x="82" y="58" width="23" style="stroke:none;" height="10"
    /></g
    ><g style="text-rendering:optimizeSpeed; font-size:14px; font-family:'SansSerif';"
    ><path style="stroke:none;" d="M83.2344 69 L88.8594 69 L88.8594 67.9375 L86.7969 67.9375 L86.7969 58.7188 L85.8281 58.7188 C85.2656 59.0625 84.6094 59.2969 83.6875 59.4688 L83.6875 60.2812 L85.5156 60.2812 L85.5156 67.9375 L83.2344 67.9375 L83.2344 69 ZM94.02 69.1875 C96.1606 69.1875 97.5043 67.8906 97.5043 66.2656 C97.5043 64.75 96.5825 64.0469 95.395 63.5312 L93.9262 62.8906 C93.1293 62.5625 92.2387 62.1875 92.2387 61.1875 C92.2387 60.2656 92.9887 59.6719 94.145 59.6719 C95.0981 59.6719 95.8637 60.0469 96.4887 60.6406 L97.1762 59.8125 C96.4418 59.0625 95.3637 58.5469 94.145 58.5469 C92.2856 58.5469 90.9106 59.6875 90.9106 61.2656 C90.9106 62.7656 92.0512 63.5 93.0043 63.9062 L94.4887 64.5469 C95.4575 64.9844 96.1918 65.3125 96.1918 66.375 C96.1918 67.375 95.3793 68.0469 94.0356 68.0469 C92.9731 68.0469 91.9418 67.5469 91.2075 66.7812 L90.4262 67.6562 C91.3168 68.5938 92.5668 69.1875 94.02 69.1875 ZM99.5342 69 L100.8311 69 L100.8311 64.1562 L105.6123 64.1562 L105.6123 69 L106.9092 69 L106.9092 58.7188 L105.6123 58.7188 L105.6123 63.0312 L100.8311 63.0312 L100.8311 58.7188 L99.5342 58.7188 L99.5342 69 Z"
    /></g
    ><g style="fill:white; text-rendering:optimizeSpeed; stroke:white;"
    ><circle r="11" style="clip-path:url(#clipPath2); stroke:none;" cx="41" cy="41"
      /><rect x="30" y="30" width="22" style="clip-path:url(#clipPath2); fill:rgb(255,212,0); stroke:none;" height="22"
      /><rect x="30" y="30" width="22" style="clip-path:url(#clipPath2); fill:none; stroke:black;" height="22"
      /><circle r="11" style="fill:none; stroke:black;" cx="41" cy="41"
      /><rect x="70" width="7" height="9" y="44" style="stroke:none;"
      /><path d="M71 49.5156 L73.9531 45.2656 L73.9531 49.5156 L71 49.5156 ZM76.2812 49.5156 L74.8594 49.5156 L74.8594 44.125 L74.2344 44.125 L70.3438 49.6406 L70.3438 50.1875 L73.9531 50.1875 L73.9531 53 L74.8594 53 L74.8594 50.1875 L76.2812 50.1875 L76.2812 49.5156 Z" style="fill:black; stroke:none;"
      /><rect x="56" width="8" height="8" y="45" style="stroke:none;"
      /><path d="M60.9844 50.7031 C60.9375 51.8906 60.1562 52.6562 59.3125 52.6562 C58.2656 52.6562 57.5 51.6875 57.5 49.7188 C57.5 48.2812 58.1562 47.1562 59.3438 47.1562 C60.1406 47.1562 60.7812 47.6875 61.0938 48.6406 L60.9844 50.7031 ZM62.9062 52.2812 C62.7344 52.375 62.5469 52.4219 62.3438 52.4219 C61.9531 52.4219 61.75 52.2188 61.75 51.4219 C61.75 50.4844 61.9688 48.5312 62.1875 46.8281 L62.0312 46.7188 L61.2344 46.9219 L61.1406 47.7969 C60.7812 47.0312 60.1562 46.6562 59.3906 46.6562 C58.0469 46.6562 56.5625 47.8438 56.5625 49.9531 C56.5625 52.0938 57.7188 53.1719 59.1406 53.1719 C60.0156 53.1719 60.6875 52.8125 61.0938 51.9844 C61.2031 52.8594 61.5156 53.1719 62.0156 53.1719 C62.4688 53.1719 62.7969 52.9062 63.0156 52.5625 L62.9062 52.2812 Z" style="fill:black; stroke:none;"
      /><rect x="111" width="6" height="13" y="42" style="stroke:none;"
      /><path d="M113.0938 48.2031 C113.0938 46.6562 113.75 45.8125 114.7969 45.8125 C115.7188 45.8125 116.2656 46.4531 116.2656 47.5156 C116.2656 48.7188 115.5 49.4375 114.1875 49.7031 L114.2969 50.3125 C116.2188 50.2344 116.9375 51.2188 116.9375 52.4375 C116.9375 53.625 116.2344 54.4219 114.9531 54.4219 C114.25 54.4219 113.6562 54.1562 113.0938 53.7188 L113.0938 48.2031 ZM112.2031 54.9062 L112.1094 57.375 L112.2656 57.4844 L113.1562 57.2656 L113.0156 54.0938 C113.5469 54.8438 114.3594 55.1719 115.1719 55.1719 C116.5625 55.1719 117.8594 54.2188 117.8594 52.4844 C117.8594 50.9531 116.875 50.1094 115.125 50 C116.5625 49.6094 117.1875 48.4531 117.1875 47.4844 C117.1875 46.0938 116.1562 45.3125 114.9062 45.3125 C113.2969 45.3125 112.2188 46.5469 112.2188 48.5156 L112.2031 54.9062 Z" style="fill:black; stroke:none;"
    /></g
  ></g
></svg
>
