<?xml version="1.0"?>
<!DOCTYPE svg PUBLIC '-//W3C//DTD SVG 1.0//EN'
          'http://www.w3.org/TR/2001/REC-SVG-20010904/DTD/svg10.dtd'>
<svg xmlns:xlink="http://www.w3.org/1999/xlink" style="fill-opacity:1; color-rendering:auto; color-interpolation:auto; text-rendering:auto; stroke:black; stroke-linecap:square; stroke-miterlimit:10; shape-rendering:auto; stroke-opacity:1; fill:black; stroke-dasharray:none; font-weight:normal; stroke-width:1; font-family:'Dialog'; font-style:normal; stroke-linejoin:miter; font-size:12px; stroke-dashoffset:0; image-rendering:auto;" viewBox="0 0 446 134" xmlns="http://www.w3.org/2000/svg"
><!--Generated by the Batik Graphics2D SVG Generator--><defs id="genericDefs"
  /><g
  ><defs id="defs1"
    ><clipPath clipPathUnits="userSpaceOnUse" id="clipPath1"
      ><path d="M342 56 L364 56 L364 78 L342 78 L342 56 Z"
      /></clipPath
      ><clipPath clipPathUnits="userSpaceOnUse" id="clipPath2"
      ><path d="M290 56 L312 56 L312 78 L290 78 L290 56 Z"
      /></clipPath
      ><clipPath clipPathUnits="userSpaceOnUse" id="clipPath3"
      ><path d="M260 67 C260 73.0751 255.0751 78 249 78 C242.9249 78 238 73.0751 238 67 C238 60.9249 242.9249 56 249 56 C255.0751 56 260 60.9249 260 67 Z"
      /></clipPath
      ><clipPath clipPathUnits="userSpaceOnUse" id="clipPath4"
      ><path d="M208 93 C208 99.0751 203.0751 104 197 104 C190.9249 104 186 99.0751 186 93 C186 86.9249 190.9249 82 197 82 C203.0751 82 208 86.9249 208 93 Z"
      /></clipPath
      ><clipPath clipPathUnits="userSpaceOnUse" id="clipPath5"
      ><path d="M208 41 C208 47.0751 203.0751 52 197 52 C190.9249 52 186 47.0751 186 41 C186 34.9249 190.9249 30 197 30 C203.0751 30 208 34.9249 208 41 Z"
      /></clipPath
      ><clipPath clipPathUnits="userSpaceOnUse" id="clipPath6"
      ><path d="M134 30 L156 30 L156 52 L134 52 L134 30 Z"
      /></clipPath
      ><clipPath clipPathUnits="userSpaceOnUse" id="clipPath7"
      ><path d="M104 41 C104 47.0751 99.0751 52 93 52 C86.9249 52 82 47.0751 82 41 C82 34.9249 86.9249 30 93 30 C99.0751 30 104 34.9249 104 41 Z"
      /></clipPath
      ><clipPath clipPathUnits="userSpaceOnUse" id="clipPath8"
      ><path style="fill-rule:evenodd;" d="M41 30 L52 41 L41 52 L30 41 Z"
      /></clipPath
    ></defs
    ><g style="fill:white; text-rendering:optimizeSpeed; stroke:white;"
    ><rect x="0" width="446" height="134" y="0" style="stroke:none;"
      /><polygon style="fill:none; stroke:black;" points=" 405 67 353 67"
      /><path d="M405 56 C399.5 61.5 410.5 72.5 405 78" style="fill:none; stroke:black;"
      /><polygon style="fill:none; stroke:black;" points=" 353 67 301 67"
      /><rect x="342" y="56" width="22" style="clip-path:url(#clipPath1); stroke:none;" height="22"
      /><rect x="342" y="56" width="22" style="clip-path:url(#clipPath1); fill:rgb(0,144,188); stroke:none;" height="22"
      /><rect x="342" y="56" width="22" style="clip-path:url(#clipPath1); fill:none; stroke:black;" height="22"
      /><rect x="342" y="56" width="22" style="fill:none; stroke:black;" height="22"
      /><polygon style="fill:none; stroke:black;" points=" 301 67 249 67"
      /><rect x="290" y="56" width="22" style="clip-path:url(#clipPath2); stroke:none;" height="22"
      /><rect x="290" y="56" width="22" style="clip-path:url(#clipPath2); fill:rgb(0,144,188); stroke:none;" height="22"
      /><rect x="290" y="56" width="22" style="clip-path:url(#clipPath2); fill:none; stroke:black;" height="22"
      /><rect x="290" y="56" width="22" style="fill:none; stroke:black;" height="22"
      /><polygon style="fill:none; stroke:black;" points=" 249 67 197 93"
      /><polygon style="fill:none; stroke:black;" points=" 249 67 197 41"
      /><circle style="clip-path:url(#clipPath3); stroke:none;" r="11" cx="249" cy="67"
      /><rect x="238" y="56" width="22" style="clip-path:url(#clipPath3); fill:rgb(0,166,81); stroke:none;" height="22"
      /><rect x="238" y="56" width="22" style="clip-path:url(#clipPath3); fill:none; stroke:black;" height="22"
      /><circle style="fill:none; stroke:black;" r="11" cx="249" cy="67"
      /><circle style="clip-path:url(#clipPath4); stroke:none;" r="11" cx="197" cy="93"
      /><rect x="186" y="82" width="22" style="clip-path:url(#clipPath4); fill:rgb(0,166,81); stroke:none;" height="22"
      /><rect x="186" y="82" width="22" style="clip-path:url(#clipPath4); fill:none; stroke:black;" height="22"
      /><circle style="fill:none; stroke:black;" r="11" cx="197" cy="93"
      /><polygon style="fill:none; stroke:black;" points=" 197 41 145 41"
      /><circle style="clip-path:url(#clipPath5); stroke:none;" r="11" cx="197" cy="41"
      /><rect x="186" y="30" width="22" style="clip-path:url(#clipPath5); fill:rgb(0,166,81); stroke:none;" height="22"
      /><rect x="186" y="30" width="22" style="clip-path:url(#clipPath5); fill:none; stroke:black;" height="22"
      /><circle style="fill:none; stroke:black;" r="11" cx="197" cy="41"
      /><polygon style="fill:none; stroke:black;" points=" 145 41 93 41"
      /><rect x="134" y="30" width="22" style="clip-path:url(#clipPath6); stroke:none;" height="22"
      /><rect x="134" y="30" width="22" style="clip-path:url(#clipPath6); fill:rgb(0,144,188); stroke:none;" height="22"
      /><rect x="134" y="30" width="22" style="clip-path:url(#clipPath6); fill:none; stroke:black;" height="22"
      /><rect x="134" y="30" width="22" style="fill:none; stroke:black;" height="22"
      /><polygon style="fill:none; stroke:black;" points=" 93 41 41 41"
      /><circle style="clip-path:url(#clipPath7); stroke:none;" r="11" cx="93" cy="41"
      /><rect x="82" y="30" width="22" style="clip-path:url(#clipPath7); fill:rgb(255,212,0); stroke:none;" height="22"
      /><rect x="82" y="30" width="22" style="clip-path:url(#clipPath7); fill:none; stroke:black;" height="22"
      /><circle style="fill:none; stroke:black;" r="11" cx="93" cy="41"
      /><polygon style="clip-path:url(#clipPath8); stroke:none;" points=" 41 30 52 41 41 52 30 41"
      /><rect x="30" y="30" width="22" style="clip-path:url(#clipPath8); fill:rgb(165,67,153); stroke:none;" height="22"
      /><rect x="30" y="30" width="22" style="clip-path:url(#clipPath8); fill:none; stroke:black;" height="22"
      /><polygon style="fill:none; stroke:black;" points=" 41 30 52 41 41 52 30 41"
      /><rect x="71" y="44" width="6" style="stroke:none;" height="10"
    /></g
    ><g style="font-family:'Serif'; text-rendering:optimizeSpeed; "
    ><path style="stroke:none;" d="M74.3438 53.6875 C73.2031 53.6875 72.5312 52.5 72.5312 50.2969 C72.5312 50.2188 72.5312 50.125 72.5312 50.0469 C73.0938 49.5 73.7188 49.3125 74.3438 49.3125 C75.3125 49.3125 75.9531 49.9844 75.9531 51.4531 C75.9531 52.9375 75.3125 53.6875 74.3438 53.6875 ZM76.5312 45.0781 C73.3438 45.4531 71.5625 47.7656 71.5625 50.4531 C71.5625 52.7812 72.6094 54.1719 74.3125 54.1719 C75.8438 54.1719 76.9219 53.1094 76.9219 51.2812 C76.9219 49.6875 75.9688 48.6562 74.5625 48.6562 C73.8281 48.6562 73.1406 48.9844 72.5781 49.5781 C72.7969 47.4062 74.0781 45.9688 76.5938 45.3906 L76.5312 45.0781 Z"
      /><rect x="56" y="45" width="8" style="fill:white; stroke:none;" height="8"
      /><path style="stroke:none;" d="M60.9844 50.7031 C60.9375 51.8906 60.1562 52.6562 59.3125 52.6562 C58.2656 52.6562 57.5 51.6875 57.5 49.7188 C57.5 48.2812 58.1562 47.1562 59.3438 47.1562 C60.1406 47.1562 60.7812 47.6875 61.0938 48.6406 L60.9844 50.7031 ZM62.9062 52.2812 C62.7344 52.375 62.5469 52.4219 62.3438 52.4219 C61.9531 52.4219 61.75 52.2188 61.75 51.4219 C61.75 50.4844 61.9688 48.5312 62.1875 46.8281 L62.0312 46.7188 L61.2344 46.9219 L61.1406 47.7969 C60.7812 47.0312 60.1562 46.6562 59.3906 46.6562 C58.0469 46.6562 56.5625 47.8438 56.5625 49.9531 C56.5625 52.0938 57.7188 53.1719 59.1406 53.1719 C60.0156 53.1719 60.6875 52.8125 61.0938 51.9844 C61.2031 52.8594 61.5156 53.1719 62.0156 53.1719 C62.4688 53.1719 62.7969 52.9062 63.0156 52.5625 L62.9062 52.2812 Z"
      /><rect x="122" y="44" width="7" style="fill:white; stroke:none;" height="9"
      /><path style="stroke:none;" d="M123 49.5156 L125.9531 45.2656 L125.9531 49.5156 L123 49.5156 ZM128.2812 49.5156 L126.8594 49.5156 L126.8594 44.125 L126.2344 44.125 L122.3438 49.6406 L122.3438 50.1875 L125.9531 50.1875 L125.9531 53 L126.8594 53 L126.8594 50.1875 L128.2812 50.1875 L128.2812 49.5156 Z"
      /><rect x="108" y="45" width="8" style="fill:white; stroke:none;" height="8"
      /><path style="stroke:none;" d="M112.9844 50.7031 C112.9375 51.8906 112.1562 52.6562 111.3125 52.6562 C110.2656 52.6562 109.5 51.6875 109.5 49.7188 C109.5 48.2812 110.1562 47.1562 111.3438 47.1562 C112.1406 47.1562 112.7812 47.6875 113.0938 48.6406 L112.9844 50.7031 ZM114.9062 52.2812 C114.7344 52.375 114.5469 52.4219 114.3438 52.4219 C113.9531 52.4219 113.75 52.2188 113.75 51.4219 C113.75 50.4844 113.9688 48.5312 114.1875 46.8281 L114.0312 46.7188 L113.2344 46.9219 L113.1406 47.7969 C112.7812 47.0312 112.1562 46.6562 111.3906 46.6562 C110.0469 46.6562 108.5625 47.8438 108.5625 49.9531 C108.5625 52.0938 109.7188 53.1719 111.1406 53.1719 C112.0156 53.1719 112.6875 52.8125 113.0938 51.9844 C113.2031 52.8594 113.5156 53.1719 114.0156 53.1719 C114.4688 53.1719 114.7969 52.9062 115.0156 52.5625 L114.9062 52.2812 Z"
      /><rect x="175" y="44" width="6" style="fill:white; stroke:none;" height="9"
      /><path style="stroke:none;" d="M176.4219 52.0938 C177.0781 51.375 177.7031 50.7188 178.0312 50.3438 C179.9219 48.3125 180.5312 47.4688 180.5312 46.3594 C180.5312 45.0156 179.7812 44.0781 178.1562 44.0781 C176.9062 44.0781 175.7969 44.7031 175.5938 45.9688 C175.7188 46.2031 175.9062 46.3438 176.1562 46.3438 C176.4688 46.3438 176.6562 46.1094 176.7969 45.5938 L177.0938 44.6719 C177.3906 44.5938 177.6562 44.5625 177.8906 44.5625 C178.9219 44.5625 179.5469 45.3125 179.5469 46.4219 C179.5469 47.4375 178.9844 48.4219 177.7031 49.9062 C177.125 50.5781 176.3906 51.4375 175.6406 52.2812 L175.6406 53 L180.9219 53 L180.9219 52.0938 L176.4219 52.0938 Z"
      /><rect x="160" y="45" width="8" style="fill:white; stroke:none;" height="8"
      /><path style="stroke:none;" d="M164.9844 50.7031 C164.9375 51.8906 164.1562 52.6562 163.3125 52.6562 C162.2656 52.6562 161.5 51.6875 161.5 49.7188 C161.5 48.2812 162.1562 47.1562 163.3438 47.1562 C164.1406 47.1562 164.7812 47.6875 165.0938 48.6406 L164.9844 50.7031 ZM166.9062 52.2812 C166.7344 52.375 166.5469 52.4219 166.3438 52.4219 C165.9531 52.4219 165.75 52.2188 165.75 51.4219 C165.75 50.4844 165.9688 48.5312 166.1875 46.8281 L166.0312 46.7188 L165.2344 46.9219 L165.1406 47.7969 C164.7812 47.0312 164.1562 46.6562 163.3906 46.6562 C162.0469 46.6562 160.5625 47.8438 160.5625 49.9531 C160.5625 52.0938 161.7188 53.1719 163.1406 53.1719 C164.0156 53.1719 164.6875 52.8125 165.0938 51.9844 C165.2031 52.8594 165.5156 53.1719 166.0156 53.1719 C166.4688 53.1719 166.7969 52.9062 167.0156 52.5625 L166.9062 52.2812 Z"
      /><rect x="231" y="78" width="6" style="fill:white; stroke:none;" height="10"
      /><path style="stroke:none;" d="M233.2344 79.6562 C233.5156 79.5938 233.7656 79.5625 234.0156 79.5625 C235.0625 79.5625 235.6719 80.1719 235.6719 81.2656 C235.6719 82.4375 234.9062 83.1094 233.7031 83.1094 L233.1875 83.1094 L233.1875 83.6406 L233.7969 83.6406 C235.2188 83.6406 235.9062 84.4219 235.9062 85.6406 C235.9062 86.8438 235.1719 87.6875 233.875 87.6875 C233.6094 87.6875 233.3125 87.6562 233.0156 87.5625 L232.7812 86.8125 C232.625 86.2812 232.5 86.0469 232.1406 86.0469 C231.8906 86.0469 231.7031 86.1719 231.5781 86.4219 C231.8438 87.6406 232.7812 88.1719 234.0312 88.1719 C235.7188 88.1719 236.875 87.125 236.875 85.7031 C236.875 84.5 236.2031 83.625 234.7969 83.375 C235.9531 83.0156 236.6094 82.2031 236.6094 81.2031 C236.6094 79.9219 235.6719 79.0781 234.1875 79.0781 C233.0469 79.0781 232.0625 79.5938 231.7969 80.6875 C231.9062 81 232.1094 81.1094 232.3594 81.1094 C232.7344 81.1094 232.8906 80.8906 233 80.4062 L233.2344 79.6562 Z"
      /><rect x="214" y="87" width="8" style="fill:white; stroke:none;" height="8"
      /><path style="stroke:none;" d="M218.9844 92.7031 C218.9375 93.8906 218.1562 94.6562 217.3125 94.6562 C216.2656 94.6562 215.5 93.6875 215.5 91.7188 C215.5 90.2812 216.1562 89.1562 217.3438 89.1562 C218.1406 89.1562 218.7812 89.6875 219.0938 90.6406 L218.9844 92.7031 ZM220.9062 94.2812 C220.7344 94.375 220.5469 94.4219 220.3438 94.4219 C219.9531 94.4219 219.75 94.2188 219.75 93.4219 C219.75 92.4844 219.9688 90.5312 220.1875 88.8281 L220.0312 88.7188 L219.2344 88.9219 L219.1406 89.7969 C218.7812 89.0312 218.1562 88.6562 217.3906 88.6562 C216.0469 88.6562 214.5625 89.8438 214.5625 91.9531 C214.5625 94.0938 215.7188 95.1719 217.1406 95.1719 C218.0156 95.1719 218.6875 94.8125 219.0938 93.9844 C219.2031 94.8594 219.5156 95.1719 220.0156 95.1719 C220.4688 95.1719 220.7969 94.9062 221.0156 94.5625 L220.9062 94.2812 Z"
      /><rect x="224" y="60" width="6" style="fill:white; stroke:none;" height="10"
      /><path style="stroke:none;" d="M227.3438 69.6875 C226.2031 69.6875 225.5312 68.5 225.5312 66.2969 C225.5312 66.2188 225.5312 66.125 225.5312 66.0469 C226.0938 65.5 226.7188 65.3125 227.3438 65.3125 C228.3125 65.3125 228.9531 65.9844 228.9531 67.4531 C228.9531 68.9375 228.3125 69.6875 227.3438 69.6875 ZM229.5312 61.0781 C226.3438 61.4531 224.5625 63.7656 224.5625 66.4531 C224.5625 68.7812 225.6094 70.1719 227.3125 70.1719 C228.8438 70.1719 229.9219 69.1094 229.9219 67.2812 C229.9219 65.6875 228.9688 64.6562 227.5625 64.6562 C226.8281 64.6562 226.1406 64.9844 225.5781 65.5781 C225.7969 63.4062 227.0781 61.9688 229.5938 61.3906 L229.5312 61.0781 Z"
      /><rect x="207" y="53" width="8" style="fill:white; stroke:none;" height="8"
      /><path style="stroke:none;" d="M211.9844 58.7031 C211.9375 59.8906 211.1562 60.6562 210.3125 60.6562 C209.2656 60.6562 208.5 59.6875 208.5 57.7188 C208.5 56.2812 209.1562 55.1562 210.3438 55.1562 C211.1406 55.1562 211.7812 55.6875 212.0938 56.6406 L211.9844 58.7031 ZM213.9062 60.2812 C213.7344 60.375 213.5469 60.4219 213.3438 60.4219 C212.9531 60.4219 212.75 60.2188 212.75 59.4219 C212.75 58.4844 212.9688 56.5312 213.1875 54.8281 L213.0312 54.7188 L212.2344 54.9219 L212.1406 55.7969 C211.7812 55.0312 211.1562 54.6562 210.3906 54.6562 C209.0469 54.6562 207.5625 55.8438 207.5625 57.9531 C207.5625 60.0938 208.7188 61.1719 210.1406 61.1719 C211.0156 61.1719 211.6875 60.8125 212.0938 59.9844 C212.2031 60.8594 212.5156 61.1719 213.0156 61.1719 C213.4688 61.1719 213.7969 60.9062 214.0156 60.5625 L213.9062 60.2812 Z"
      /><rect x="278" y="70" width="7" style="fill:white; stroke:none;" height="9"
      /><path style="stroke:none;" d="M279 75.5156 L281.9531 71.2656 L281.9531 75.5156 L279 75.5156 ZM284.2812 75.5156 L282.8594 75.5156 L282.8594 70.125 L282.2344 70.125 L278.3438 75.6406 L278.3438 76.1875 L281.9531 76.1875 L281.9531 79 L282.8594 79 L282.8594 76.1875 L284.2812 76.1875 L284.2812 75.5156 Z"
      /><rect x="264" y="71" width="8" style="fill:white; stroke:none;" height="8"
      /><path style="stroke:none;" d="M268.9844 76.7031 C268.9375 77.8906 268.1562 78.6562 267.3125 78.6562 C266.2656 78.6562 265.5 77.6875 265.5 75.7188 C265.5 74.2812 266.1562 73.1562 267.3438 73.1562 C268.1406 73.1562 268.7812 73.6875 269.0938 74.6406 L268.9844 76.7031 ZM270.9062 78.2812 C270.7344 78.375 270.5469 78.4219 270.3438 78.4219 C269.9531 78.4219 269.75 78.2188 269.75 77.4219 C269.75 76.4844 269.9688 74.5312 270.1875 72.8281 L270.0312 72.7188 L269.2344 72.9219 L269.1406 73.7969 C268.7812 73.0312 268.1562 72.6562 267.3906 72.6562 C266.0469 72.6562 264.5625 73.8438 264.5625 75.9531 C264.5625 78.0938 265.7188 79.1719 267.1406 79.1719 C268.0156 79.1719 268.6875 78.8125 269.0938 77.9844 C269.2031 78.8594 269.5156 79.1719 270.0156 79.1719 C270.4688 79.1719 270.7969 78.9062 271.0156 78.5625 L270.9062 78.2812 Z"
      /><rect x="330" y="70" width="7" style="fill:white; stroke:none;" height="9"
      /><path style="stroke:none;" d="M331 75.5156 L333.9531 71.2656 L333.9531 75.5156 L331 75.5156 ZM336.2812 75.5156 L334.8594 75.5156 L334.8594 70.125 L334.2344 70.125 L330.3438 75.6406 L330.3438 76.1875 L333.9531 76.1875 L333.9531 79 L334.8594 79 L334.8594 76.1875 L336.2812 76.1875 L336.2812 75.5156 Z"
      /><rect x="316" y="71" width="8" style="fill:white; stroke:none;" height="8"
      /><path style="stroke:none;" d="M320.9844 76.7031 C320.9375 77.8906 320.1562 78.6562 319.3125 78.6562 C318.2656 78.6562 317.5 77.6875 317.5 75.7188 C317.5 74.2812 318.1562 73.1562 319.3438 73.1562 C320.1406 73.1562 320.7812 73.6875 321.0938 74.6406 L320.9844 76.7031 ZM322.9062 78.2812 C322.7344 78.375 322.5469 78.4219 322.3438 78.4219 C321.9531 78.4219 321.75 78.2188 321.75 77.4219 C321.75 76.4844 321.9688 74.5312 322.1875 72.8281 L322.0312 72.7188 L321.2344 72.9219 L321.1406 73.7969 C320.7812 73.0312 320.1562 72.6562 319.3906 72.6562 C318.0469 72.6562 316.5625 73.8438 316.5625 75.9531 C316.5625 78.0938 317.7188 79.1719 319.1406 79.1719 C320.0156 79.1719 320.6875 78.8125 321.0938 77.9844 C321.2031 78.8594 321.5156 79.1719 322.0156 79.1719 C322.4688 79.1719 322.7969 78.9062 323.0156 78.5625 L322.9062 78.2812 Z"
      /><rect x="369" y="68" width="6" style="fill:white; stroke:none;" height="13"
      /><path style="stroke:none;" d="M371.0938 74.2031 C371.0938 72.6562 371.75 71.8125 372.7969 71.8125 C373.7188 71.8125 374.2656 72.4531 374.2656 73.5156 C374.2656 74.7188 373.5 75.4375 372.1875 75.7031 L372.2969 76.3125 C374.2188 76.2344 374.9375 77.2188 374.9375 78.4375 C374.9375 79.625 374.2344 80.4219 372.9531 80.4219 C372.25 80.4219 371.6562 80.1562 371.0938 79.7188 L371.0938 74.2031 ZM370.2031 80.9062 L370.1094 83.375 L370.2656 83.4844 L371.1562 83.2656 L371.0156 80.0938 C371.5469 80.8438 372.3594 81.1719 373.1719 81.1719 C374.5625 81.1719 375.8594 80.2188 375.8594 78.4844 C375.8594 76.9531 374.875 76.1094 373.125 76 C374.5625 75.6094 375.1875 74.4531 375.1875 73.4844 C375.1875 72.0938 374.1562 71.3125 372.9062 71.3125 C371.2969 71.3125 370.2188 72.5469 370.2188 74.5156 L370.2031 80.9062 Z"
    /></g
  ></g
></svg
>
