<?xml version="1.0"?>
<!DOCTYPE svg PUBLIC '-//W3C//DTD SVG 1.0//EN'
          'http://www.w3.org/TR/2001/REC-SVG-20010904/DTD/svg10.dtd'>
<svg xmlns:xlink="http://www.w3.org/1999/xlink" style="fill-opacity:1; color-rendering:auto; color-interpolation:auto; text-rendering:auto; stroke:black; stroke-linecap:square; stroke-miterlimit:10; shape-rendering:auto; stroke-opacity:1; fill:black; stroke-dasharray:none; font-weight:normal; stroke-width:1; font-family:'Dialog'; font-style:normal; stroke-linejoin:miter; font-size:12px; stroke-dashoffset:0; image-rendering:auto;" viewBox="0 0 186 82" xmlns="http://www.w3.org/2000/svg"
><!--Generated by the Batik Graphics2D SVG Generator--><defs id="genericDefs"
  /><g
  ><defs id="defs1"
    ><clipPath clipPathUnits="userSpaceOnUse" id="clipPath1"
      ><path style="fill-rule:evenodd;" d="M104 41 L98 48 L87 48 L82 41 L87 33 L98 33 L104 41 Z"
      /></clipPath
      ><clipPath clipPathUnits="userSpaceOnUse" id="clipPath2"
      ><path style="fill-rule:evenodd;" d="M52 41 L46 48 L35 48 L30 41 L35 33 L46 33 L52 41 Z"
      /></clipPath
    ></defs
    ><g style="fill:white; text-rendering:optimizeSpeed; stroke:white;"
    ><rect x="0" width="186" height="82" y="0" style="stroke:none;"
      /><polygon style="fill:none; stroke:black;" points=" 145 41 93 41"
      /><path d="M145 30 C139.5 35.5 150.5 46.5 145 52" style="fill:none; stroke:black;"
      /><polygon style="fill:none; stroke:black;" points=" 93 41 41 41"
      /><polygon style="clip-path:url(#clipPath1); stroke:none;" points=" 104 41 98 48 87 48 82 41 87 33 98 33 104 41"
      /><rect x="82" y="30" width="22" style="clip-path:url(#clipPath1); fill:rgb(255,212,0); stroke:none;" height="22"
      /><rect x="82" y="30" width="22" style="clip-path:url(#clipPath1); fill:none; stroke:black;" height="22"
      /><polygon style="fill:none; stroke:black;" points=" 104 41 98 48 87 48 82 41 87 33 98 33 104 41"
      /><polygon style="clip-path:url(#clipPath2); stroke:none;" points=" 52 41 46 48 35 48 30 41 35 33 46 33 52 41"
      /><rect x="30" y="30" width="22" style="clip-path:url(#clipPath2); fill:rgb(255,212,0); stroke:none;" height="22"
      /><rect x="30" y="30" width="22" style="clip-path:url(#clipPath2); fill:none; stroke:black;" height="22"
      /><polygon style="fill:none; stroke:black;" points=" 52 41 46 48 35 48 30 41 35 33 46 33 52 41"
      /><rect x="70" y="44" width="7" style="stroke:none;" height="9"
    /></g
    ><g style="font-family:'Serif'; text-rendering:optimizeSpeed; "
    ><path style="stroke:none;" d="M71 49.5156 L73.9531 45.2656 L73.9531 49.5156 L71 49.5156 ZM76.2812 49.5156 L74.8594 49.5156 L74.8594 44.125 L74.2344 44.125 L70.3438 49.6406 L70.3438 50.1875 L73.9531 50.1875 L73.9531 53 L74.8594 53 L74.8594 50.1875 L76.2812 50.1875 L76.2812 49.5156 Z"
      /><rect x="56" y="45" width="8" style="fill:white; stroke:none;" height="8"
      /><path style="stroke:none;" d="M60.9844 50.7031 C60.9375 51.8906 60.1562 52.6562 59.3125 52.6562 C58.2656 52.6562 57.5 51.6875 57.5 49.7188 C57.5 48.2812 58.1562 47.1562 59.3438 47.1562 C60.1406 47.1562 60.7812 47.6875 61.0938 48.6406 L60.9844 50.7031 ZM62.9062 52.2812 C62.7344 52.375 62.5469 52.4219 62.3438 52.4219 C61.9531 52.4219 61.75 52.2188 61.75 51.4219 C61.75 50.4844 61.9688 48.5312 62.1875 46.8281 L62.0312 46.7188 L61.2344 46.9219 L61.1406 47.7969 C60.7812 47.0312 60.1562 46.6562 59.3906 46.6562 C58.0469 46.6562 56.5625 47.8438 56.5625 49.9531 C56.5625 52.0938 57.7188 53.1719 59.1406 53.1719 C60.0156 53.1719 60.6875 52.8125 61.0938 51.9844 C61.2031 52.8594 61.5156 53.1719 62.0156 53.1719 C62.4688 53.1719 62.7969 52.9062 63.0156 52.5625 L62.9062 52.2812 Z"
      /><rect x="108" y="45" width="8" style="fill:white; stroke:none;" height="8"
      /><path style="stroke:none;" d="M112.9844 50.7031 C112.9375 51.8906 112.1562 52.6562 111.3125 52.6562 C110.2656 52.6562 109.5 51.6875 109.5 49.7188 C109.5 48.2812 110.1562 47.1562 111.3438 47.1562 C112.1406 47.1562 112.7812 47.6875 113.0938 48.6406 L112.9844 50.7031 ZM114.9062 52.2812 C114.7344 52.375 114.5469 52.4219 114.3438 52.4219 C113.9531 52.4219 113.75 52.2188 113.75 51.4219 C113.75 50.4844 113.9688 48.5312 114.1875 46.8281 L114.0312 46.7188 L113.2344 46.9219 L113.1406 47.7969 C112.7812 47.0312 112.1562 46.6562 111.3906 46.6562 C110.0469 46.6562 108.5625 47.8438 108.5625 49.9531 C108.5625 52.0938 109.7188 53.1719 111.1406 53.1719 C112.0156 53.1719 112.6875 52.8125 113.0938 51.9844 C113.2031 52.8594 113.5156 53.1719 114.0156 53.1719 C114.4688 53.1719 114.7969 52.9062 115.0156 52.5625 L114.9062 52.2812 Z"
    /></g
  ></g
></svg
>
