<?xml version="1.0"?>
<!DOCTYPE svg PUBLIC '-//W3C//DTD SVG 1.0//EN'
          'http://www.w3.org/TR/2001/REC-SVG-20010904/DTD/svg10.dtd'>
<svg xmlns:xlink="http://www.w3.org/1999/xlink" style="fill-opacity:1; color-rendering:auto; color-interpolation:auto; text-rendering:auto; stroke:black; stroke-linecap:square; stroke-miterlimit:10; shape-rendering:auto; stroke-opacity:1; fill:black; stroke-dasharray:none; font-weight:normal; stroke-width:1; font-family:'Dialog'; font-style:normal; stroke-linejoin:miter; font-size:12px; stroke-dashoffset:0; image-rendering:auto;" viewBox="0 0 252 105" xmlns="http://www.w3.org/2000/svg"
><!--Generated by the Batik Graphics2D SVG Generator--><defs id="genericDefs"
  /><g
  ><defs id="defs1"
    ><clipPath clipPathUnits="userSpaceOnUse" id="clipPath1"
      ><path style="fill-rule:evenodd;" d="M159 53 L170 64 L159 75 L148 64 Z"
      /></clipPath
      ><clipPath clipPathUnits="userSpaceOnUse" id="clipPath2"
      ><path style="fill-rule:evenodd;" d="M107 53 L118 64 L107 75 L96 64 Z"
      /></clipPath
      ><clipPath clipPathUnits="userSpaceOnUse" id="clipPath3"
      ><path style="fill-rule:evenodd;" d="M48 53 L58 60 L54 72 L41 72 L37 60 L48 53 Z"
      /></clipPath
    ></defs
    ><g style="fill:white; text-rendering:optimizeSpeed; stroke:white;"
    ><rect x="0" width="252" height="105" y="0" style="stroke:none;"
      /><polygon style="fill:none; stroke:black;" points=" 211 64 159 64"
      /><path d="M211 53 C205.5 58.5 216.5 69.5 211 75" style="fill:none; stroke:black;"
      /><polygon style="fill:none; stroke:black;" points=" 159 64 107 64"
      /><polygon style="clip-path:url(#clipPath1); stroke:none;" points=" 159 53 170 64 159 75 148 64"
      /><rect x="148" y="53" width="22" style="clip-path:url(#clipPath1); fill:rgb(255,212,0); stroke:none;" height="11"
      /><rect x="148" y="53" width="22" style="clip-path:url(#clipPath1); fill:none; stroke:black;" height="11"
      /><polygon style="fill:none; stroke:black;" points=" 159 53 170 64 159 75 148 64"
      /><polygon style="fill:none; stroke:black;" points=" 107 64 48 64"
      /><polygon style="clip-path:url(#clipPath2); stroke:none;" points=" 107 53 118 64 107 75 96 64"
      /><rect x="96" y="53" width="22" style="clip-path:url(#clipPath2); fill:rgb(255,212,0); stroke:none;" height="11"
      /><rect x="96" y="53" width="22" style="clip-path:url(#clipPath2); fill:none; stroke:black;" height="11"
      /><polygon style="fill:none; stroke:black;" points=" 107 53 118 64 107 75 96 64"
      /><polygon style="clip-path:url(#clipPath3); stroke:none;" points=" 48 53 58 60 54 72 41 72 37 60 48 53"
      /><rect x="37" y="53" width="22" style="clip-path:url(#clipPath3); stroke:none;" height="22"
      /><rect x="37" y="53" width="22" style="clip-path:url(#clipPath3); fill:none; stroke:black;" height="22"
      /><polygon style="fill:none; stroke:black;" points=" 48 53 58 60 54 72 41 72 37 60 48 53"
    /></g
    ><g style="text-rendering:optimizeSpeed; font-size:14px; font-family:'SansSerif';"
    ><path style="stroke:none;" d="M46.2344 69 L51.8594 69 L51.8594 67.9375 L49.7969 67.9375 L49.7969 58.7188 L48.8281 58.7188 C48.2656 59.0625 47.6094 59.2969 46.6875 59.4688 L46.6875 60.2812 L48.5156 60.2812 L48.5156 67.9375 L46.2344 67.9375 L46.2344 69 Z"
      /><rect x="30" y="34" width="34" style="fill:white; stroke:none;" height="12"
      /><path style="stroke:none;" d="M33.6562 47.1875 C35.3906 47.1875 37.0156 45.9062 37.0156 43.6562 C37.0156 41.4062 35.625 40.3906 33.9219 40.3906 C33.2969 40.3906 32.8594 40.5469 32.3906 40.7969 L32.6406 37.8281 L36.5312 37.8281 L36.5312 36.7188 L31.5312 36.7188 L31.2031 41.5469 L31.8906 41.9531 C32.4844 41.5625 32.9062 41.3594 33.5938 41.3594 C34.8906 41.3594 35.7188 42.2188 35.7188 43.7031 C35.7188 45.1875 34.75 46.125 33.5469 46.125 C32.3594 46.125 31.6094 45.5781 31.0156 44.9844 L30.3906 45.8281 C31.0781 46.5156 32.0625 47.1875 33.6562 47.1875 ZM38.8168 49.6562 C40.0825 49.125 40.8637 48.0781 40.8637 46.7344 C40.8637 45.7969 40.4575 45.2188 39.7856 45.2188 C39.27 45.2188 38.8168 45.5781 38.8168 46.125 C38.8168 46.7031 39.27 47.0156 39.7543 47.0156 C39.8168 47.0156 39.8637 47.0156 39.9106 47 C39.9106 47.8281 39.395 48.5156 38.5043 48.9062 L38.8168 49.6562 ZM43.2713 43.1562 L45.6151 39.6562 C45.8963 39.1406 46.1776 38.6406 46.4432 38.1406 L46.4901 38.1406 C46.4588 38.6719 46.4276 39.5 46.4276 40 L46.4276 43.1562 L43.2713 43.1562 ZM46.4276 47 L47.6307 47 L47.6307 44.1719 L48.9901 44.1719 L48.9901 43.1562 L47.6307 43.1562 L47.6307 36.7188 L46.2088 36.7188 L41.9432 43.3281 L41.9432 44.1719 L46.4276 44.1719 L46.4276 47 ZM53.7913 47.1875 C54.8226 47.1875 55.6351 46.8281 56.3069 46.3906 L55.8382 45.5625 C55.2913 45.9375 54.6819 46.1562 53.9476 46.1562 C52.4944 46.1562 51.5101 45.125 51.4163 43.5 L56.5413 43.5 C56.5726 43.3125 56.6038 43.0469 56.6038 42.7656 C56.6038 40.6094 55.5101 39.2031 53.5726 39.2031 C51.8069 39.2031 50.1507 40.7344 50.1507 43.2031 C50.1507 45.7188 51.7757 47.1875 53.7913 47.1875 ZM51.4007 42.5781 C51.5569 41.0938 52.5101 40.2188 53.5882 40.2188 C54.7757 40.2188 55.4788 41.0469 55.4788 42.5781 L51.4007 42.5781 ZM58.4691 47 L59.7504 47 L59.7504 41.4844 C60.516 40.7188 61.0473 40.3281 61.8285 40.3281 C62.8441 40.3281 63.2816 40.9219 63.2816 42.3594 L63.2816 47 L64.5473 47 L64.5473 42.1875 C64.5473 40.2344 63.8285 39.2031 62.2348 39.2031 C61.1879 39.2031 60.4066 39.7812 59.6723 40.4844 L59.641 40.4844 L59.5316 39.3906 L58.4691 39.3906 L58.4691 47 Z"
    /></g
    ><g style="fill:white; text-rendering:optimizeSpeed; font-family:'Serif'; stroke:white;"
    ><rect x="84" width="7" height="9" y="67" style="stroke:none;"
      /><path d="M85 72.5156 L87.9531 68.2656 L87.9531 72.5156 L85 72.5156 ZM90.2812 72.5156 L88.8594 72.5156 L88.8594 67.125 L88.2344 67.125 L84.3438 72.6406 L84.3438 73.1875 L87.9531 73.1875 L87.9531 76 L88.8594 76 L88.8594 73.1875 L90.2812 73.1875 L90.2812 72.5156 Z" style="fill:black; stroke:none;"
      /><rect x="70" width="8" height="8" y="68" style="stroke:none;"
      /><path d="M74.9844 73.7031 C74.9375 74.8906 74.1562 75.6562 73.3125 75.6562 C72.2656 75.6562 71.5 74.6875 71.5 72.7188 C71.5 71.2812 72.1562 70.1562 73.3438 70.1562 C74.1406 70.1562 74.7812 70.6875 75.0938 71.6406 L74.9844 73.7031 ZM76.9062 75.2812 C76.7344 75.375 76.5469 75.4219 76.3438 75.4219 C75.9531 75.4219 75.75 75.2188 75.75 74.4219 C75.75 73.4844 75.9688 71.5312 76.1875 69.8281 L76.0312 69.7188 L75.2344 69.9219 L75.1406 70.7969 C74.7812 70.0312 74.1562 69.6562 73.3906 69.6562 C72.0469 69.6562 70.5625 70.8438 70.5625 72.9531 C70.5625 75.0938 71.7188 76.1719 73.1406 76.1719 C74.0156 76.1719 74.6875 75.8125 75.0938 74.9844 C75.2031 75.8594 75.5156 76.1719 76.0156 76.1719 C76.4688 76.1719 76.7969 75.9062 77.0156 75.5625 L76.9062 75.2812 Z" style="fill:black; stroke:none;"
      /><rect x="136" width="7" height="9" y="67" style="stroke:none;"
      /><path d="M137 72.5156 L139.9531 68.2656 L139.9531 72.5156 L137 72.5156 ZM142.2812 72.5156 L140.8594 72.5156 L140.8594 67.125 L140.2344 67.125 L136.3438 72.6406 L136.3438 73.1875 L139.9531 73.1875 L139.9531 76 L140.8594 76 L140.8594 73.1875 L142.2812 73.1875 L142.2812 72.5156 Z" style="fill:black; stroke:none;"
      /><rect x="122" width="8" height="8" y="68" style="stroke:none;"
      /><path d="M126.9844 73.7031 C126.9375 74.8906 126.1562 75.6562 125.3125 75.6562 C124.2656 75.6562 123.5 74.6875 123.5 72.7188 C123.5 71.2812 124.1562 70.1562 125.3438 70.1562 C126.1406 70.1562 126.7812 70.6875 127.0938 71.6406 L126.9844 73.7031 ZM128.9062 75.2812 C128.7344 75.375 128.5469 75.4219 128.3438 75.4219 C127.9531 75.4219 127.75 75.2188 127.75 74.4219 C127.75 73.4844 127.9688 71.5312 128.1875 69.8281 L128.0312 69.7188 L127.2344 69.9219 L127.1406 70.7969 C126.7812 70.0312 126.1562 69.6562 125.3906 69.6562 C124.0469 69.6562 122.5625 70.8438 122.5625 72.9531 C122.5625 75.0938 123.7188 76.1719 125.1406 76.1719 C126.0156 76.1719 126.6875 75.8125 127.0938 74.9844 C127.2031 75.8594 127.5156 76.1719 128.0156 76.1719 C128.4688 76.1719 128.7969 75.9062 129.0156 75.5625 L128.9062 75.2812 Z" style="fill:black; stroke:none;"
      /><rect x="174" width="8" height="8" y="68" style="stroke:none;"
      /><path d="M178.9844 73.7031 C178.9375 74.8906 178.1562 75.6562 177.3125 75.6562 C176.2656 75.6562 175.5 74.6875 175.5 72.7188 C175.5 71.2812 176.1562 70.1562 177.3438 70.1562 C178.1406 70.1562 178.7812 70.6875 179.0938 71.6406 L178.9844 73.7031 ZM180.9062 75.2812 C180.7344 75.375 180.5469 75.4219 180.3438 75.4219 C179.9531 75.4219 179.75 75.2188 179.75 74.4219 C179.75 73.4844 179.9688 71.5312 180.1875 69.8281 L180.0312 69.7188 L179.2344 69.9219 L179.1406 70.7969 C178.7812 70.0312 178.1562 69.6562 177.3906 69.6562 C176.0469 69.6562 174.5625 70.8438 174.5625 72.9531 C174.5625 75.0938 175.7188 76.1719 177.1406 76.1719 C178.0156 76.1719 178.6875 75.8125 179.0938 74.9844 C179.2031 75.8594 179.5156 76.1719 180.0156 76.1719 C180.4688 76.1719 180.7969 75.9062 181.0156 75.5625 L180.9062 75.2812 Z" style="fill:black; stroke:none;"
    /></g
    ><g ID="legend-1:0" style="text-rendering:optimizeSpeed; font-size:10px; font-family:'SansSerif';"
    ><path style="stroke:none;" d="M30.875 90 L34.9062 90 L34.9062 89.2344 L33.4375 89.2344 L33.4375 82.6562 L32.7344 82.6562 C32.3281 82.9062 31.8594 83.0625 31.2031 83.1875 L31.2031 83.7656 L32.5156 83.7656 L32.5156 89.2344 L30.875 89.2344 L30.875 90 ZM35.925 85.4531 L40.7219 85.4531 L40.7219 84.7656 L35.925 84.7656 L35.925 85.4531 ZM35.925 87.8438 L40.7219 87.8438 L40.7219 87.1719 L35.925 87.1719 L35.925 87.8438 ZM43.7094 90.125 C44.4125 90.125 44.975 89.7656 45.3969 89.0312 L45.4281 89.0312 C45.4125 89.7969 45.85 90.125 46.5062 90.125 C46.8187 90.125 47.0375 90.0625 47.1937 89.9844 L47.0531 89.2969 C46.9437 89.3438 46.8031 89.375 46.6937 89.375 C46.3969 89.375 46.1469 89.1875 46.1469 88.8125 C46.1469 87.8125 46.5375 86 46.8344 84.5625 L45.9281 84.5625 L45.6937 85.8594 L45.6625 85.8594 C45.3656 84.8125 44.6625 84.4375 43.9906 84.4375 C42.7406 84.4375 41.6156 85.5156 41.6156 87.375 C41.6156 89.1562 42.475 90.125 43.7094 90.125 ZM43.8969 89.375 C43.0531 89.375 42.5531 88.6406 42.5531 87.375 C42.5531 85.9375 43.3031 85.2031 44.0844 85.2031 C44.6 85.2031 45.1625 85.4688 45.4594 86.6562 L45.3812 87.6875 C45.3031 88.5938 44.6156 89.375 43.8969 89.375 ZM47.8031 87.5469 L50.3656 87.5469 L50.3656 86.8438 L47.8031 86.8438 L47.8031 87.5469 ZM51.9762 87.25 L53.6325 84.75 C53.8512 84.3906 54.0544 84.0312 54.2262 83.6719 L54.2731 83.6719 C54.2575 84.0469 54.2262 84.6406 54.2262 85 L54.2262 87.25 L51.9762 87.25 ZM54.2262 90 L55.0856 90 L55.0856 87.9844 L56.0544 87.9844 L56.0544 87.25 L55.0856 87.25 L55.0856 82.6562 L54.07 82.6562 L51.0231 87.375 L51.0231 87.9844 L54.2262 87.9844 L54.2262 90 ZM56.8231 87.5469 L59.3856 87.5469 L59.3856 86.8438 L56.8231 86.8438 L56.8231 87.5469 ZM62.6056 90.125 C63.2618 90.125 63.8243 89.7812 64.2618 89.3594 L64.2931 89.3594 L64.3712 90 L65.1056 90 L65.1056 82.0469 L64.215 82.0469 L64.215 84.125 L64.2462 85.0625 C63.7775 84.6719 63.3556 84.4375 62.715 84.4375 C61.4806 84.4375 60.3712 85.5312 60.3712 87.2969 C60.3712 89.0938 61.2462 90.125 62.6056 90.125 ZM62.8087 89.375 C61.8556 89.375 61.3087 88.5938 61.3087 87.2812 C61.3087 86.0469 61.9962 85.2031 62.8868 85.2031 C63.3243 85.2031 63.7462 85.3594 64.215 85.7656 L64.215 88.625 C63.7462 89.125 63.3087 89.375 62.8087 89.375 ZM69.1493 90.125 C69.8837 90.125 70.4775 89.875 70.9462 89.5625 L70.6181 88.9688 C70.2275 89.2344 69.79 89.4062 69.2587 89.4062 C68.2275 89.4062 67.5243 88.6562 67.4618 87.5 L71.1181 87.5 C71.1337 87.375 71.165 87.1875 71.165 86.9844 C71.165 85.4375 70.3837 84.4375 68.9931 84.4375 C67.7431 84.4375 66.5556 85.5312 66.5556 87.2969 C66.5556 89.0781 67.7118 90.125 69.1493 90.125 ZM67.4462 86.8438 C67.5556 85.7812 68.2431 85.1562 69.0087 85.1562 C69.8525 85.1562 70.3525 85.75 70.3525 86.8438 L67.4462 86.8438 ZM74.6112 90.125 C75.9393 90.125 77.1268 89.0938 77.1268 87.2969 C77.1268 85.4844 75.9393 84.4375 74.6112 84.4375 C73.2831 84.4375 72.0956 85.4844 72.0956 87.2969 C72.0956 89.0938 73.2831 90.125 74.6112 90.125 ZM74.6112 89.375 C73.6737 89.375 73.0331 88.5469 73.0331 87.2969 C73.0331 86.0469 73.6737 85.1875 74.6112 85.1875 C75.5487 85.1875 76.1893 86.0469 76.1893 87.2969 C76.1893 88.5469 75.5487 89.375 74.6112 89.375 ZM77.7962 90 L78.7493 90 L79.4837 88.7344 C79.6712 88.4062 79.8431 88.0625 80.0462 87.7656 L80.0931 87.7656 C80.2962 88.0625 80.4837 88.4062 80.6712 88.7344 L81.4681 90 L82.4681 90 L80.6868 87.2656 L82.3275 84.5625 L81.3743 84.5625 L80.7025 85.7656 C80.5462 86.0625 80.39 86.375 80.2181 86.6719 L80.1868 86.6719 C79.9993 86.375 79.8118 86.0625 79.64 85.7656 L78.9056 84.5625 L77.9368 84.5625 L79.5775 87.1719 L77.7962 90 ZM83.6356 92.3438 C84.7137 92.3438 85.2762 91.5156 85.6512 90.4531 L87.6981 84.5625 L86.8074 84.5625 L85.8387 87.5938 C85.6824 88.0625 85.5262 88.625 85.3856 89.1094 L85.3231 89.1094 C85.1668 88.625 84.9637 88.0625 84.8074 87.5938 L83.6981 84.5625 L82.7449 84.5625 L84.9324 90.0156 L84.8074 90.4219 C84.5887 91.0938 84.1981 91.5938 83.5731 91.5938 C83.4324 91.5938 83.2762 91.5469 83.1668 91.5 L82.9949 92.2344 C83.1668 92.2969 83.3699 92.3438 83.6356 92.3438 ZM88.2831 87.5469 L90.8456 87.5469 L90.8456 86.8438 L88.2831 86.8438 L88.2831 87.5469 ZM92.2999 90 L96.4249 90 L96.4249 89.2031 L93.2374 89.2031 L93.2374 82.6562 L92.2999 82.6562 L92.2999 90 ZM97.1831 87.5469 L99.7456 87.5469 L99.7456 86.8438 L97.1831 86.8438 L97.1831 87.5469 ZM102.8249 90.125 C103.1531 90.125 103.5124 90.0312 103.8249 89.9375 L103.6531 89.25 C103.4656 89.3125 103.2156 89.3906 103.0281 89.3906 C102.4031 89.3906 102.1843 89.0156 102.1843 88.3438 L102.1843 85.3125 L103.6531 85.3125 L103.6531 84.5625 L102.1843 84.5625 L102.1843 83.0469 L101.4343 83.0469 L101.3249 84.5625 L100.4656 84.625 L100.4656 85.3125 L101.2781 85.3125 L101.2781 88.3125 C101.2781 89.4062 101.6687 90.125 102.8249 90.125 ZM104.8918 90 L105.798 90 L105.798 86.0625 C106.3449 85.5156 106.7355 85.2344 107.2824 85.2344 C108.0168 85.2344 108.3137 85.6562 108.3137 86.6875 L108.3137 90 L109.2355 90 L109.2355 86.5625 C109.2355 85.1719 108.7043 84.4375 107.5637 84.4375 C106.8293 84.4375 106.2668 84.8438 105.7668 85.3438 L105.798 84.2188 L105.798 82.0469 L104.8918 82.0469 L104.8918 90 ZM110.9618 90 L111.868 90 L111.868 86.5156 C112.2274 85.5781 112.7899 85.2656 113.243 85.2656 C113.4618 85.2656 113.5868 85.2812 113.7743 85.3438 L113.9462 84.5469 C113.7743 84.4531 113.6024 84.4375 113.3524 84.4375 C112.743 84.4375 112.1962 84.875 111.8212 85.5625 L111.7899 85.5625 L111.7118 84.5625 L110.9618 84.5625 L110.9618 90 ZM114.9199 90 L115.8574 90 L115.8574 86.5469 L119.2637 86.5469 L119.2637 90 L120.1855 90 L120.1855 82.6562 L119.2637 82.6562 L119.2637 85.7344 L115.8574 85.7344 L115.8574 82.6562 L114.9199 82.6562 L114.9199 90 ZM124.3093 90.125 C125.0437 90.125 125.6374 89.875 126.1062 89.5625 L125.778 88.9688 C125.3874 89.2344 124.9499 89.4062 124.4187 89.4062 C123.3874 89.4062 122.6843 88.6562 122.6218 87.5 L126.278 87.5 C126.2937 87.375 126.3249 87.1875 126.3249 86.9844 C126.3249 85.4375 125.5437 84.4375 124.153 84.4375 C122.903 84.4375 121.7155 85.5312 121.7155 87.2969 C121.7155 89.0781 122.8718 90.125 124.3093 90.125 ZM122.6062 86.8438 C122.7155 85.7812 123.403 85.1562 124.1687 85.1562 C125.0124 85.1562 125.5124 85.75 125.5124 86.8438 L122.6062 86.8438 ZM126.8961 90 L127.8493 90 L128.5836 88.7344 C128.7711 88.4062 128.943 88.0625 129.1461 87.7656 L129.193 87.7656 C129.3961 88.0625 129.5836 88.4062 129.7711 88.7344 L130.568 90 L131.568 90 L129.7868 87.2656 L131.4274 84.5625 L130.4743 84.5625 L129.8024 85.7656 C129.6461 86.0625 129.4899 86.375 129.318 86.6719 L129.2868 86.6719 C129.0993 86.375 128.9118 86.0625 128.7399 85.7656 L128.0055 84.5625 L127.0368 84.5625 L128.6774 87.1719 L126.8961 90 ZM132.6418 92.2969 L133.548 92.2969 L133.548 90.4531 L133.5324 89.5 C134.0168 89.9062 134.5324 90.125 135.0324 90.125 C136.2824 90.125 137.3918 89.0625 137.3918 87.2031 C137.3918 85.5312 136.6261 84.4375 135.2355 84.4375 C134.5949 84.4375 133.9855 84.7969 133.5011 85.1875 L133.4699 85.1875 L133.3918 84.5625 L132.6418 84.5625 L132.6418 92.2969 ZM134.8761 89.375 C134.5168 89.375 134.0324 89.2188 133.548 88.7969 L133.548 85.9531 C134.0793 85.4531 134.548 85.2031 135.0168 85.2031 C136.0324 85.2031 136.4386 86.0156 136.4386 87.2031 C136.4386 88.5625 135.7824 89.375 134.8761 89.375 ZM140.1855 85.9062 C140.4511 85.0625 140.6855 84.2812 140.9199 83.4219 L140.9668 83.4219 C141.2011 84.2656 141.4355 85.0625 141.7011 85.9062 L142.0449 87.0156 L139.8261 87.0156 L140.1855 85.9062 ZM137.9511 90 L138.8886 90 L139.6074 87.7656 L142.2793 87.7656 L142.9824 90 L143.9668 90 L141.4668 82.6562 L140.4355 82.6562 L137.9511 90 ZM145.1461 87.25 L146.8024 84.75 C147.0211 84.3906 147.2243 84.0312 147.3961 83.6719 L147.443 83.6719 C147.4274 84.0469 147.3961 84.6406 147.3961 85 L147.3961 87.25 L145.1461 87.25 ZM147.3961 90 L148.2555 90 L148.2555 87.9844 L149.2243 87.9844 L149.2243 87.25 L148.2555 87.25 L148.2555 82.6562 L147.2399 82.6562 L144.193 87.375 L144.193 87.9844 L147.3961 87.9844 L147.3961 90 ZM151.9305 91.9688 L152.493 91.7031 C151.6336 90.2812 151.2274 88.5938 151.2274 86.8906 C151.2274 85.1875 151.6336 83.5156 152.493 82.0781 L151.9305 81.8125 C151.0086 83.3125 150.4617 84.9375 150.4617 86.8906 C150.4617 88.8594 151.0086 90.4688 151.9305 91.9688 ZM153.9199 90 L158.2636 90 L158.2636 89.2031 L154.8574 89.2031 L154.8574 86.5469 L157.623 86.5469 L157.623 85.75 L154.8574 85.75 L154.8574 83.4531 L158.1542 83.4531 L158.1542 82.6562 L153.9199 82.6562 L153.9199 90 ZM159.7842 91.9688 C160.7217 90.4688 161.2686 88.8594 161.2686 86.8906 C161.2686 84.9375 160.7217 83.3125 159.7842 81.8125 L159.2374 82.0781 C160.0967 83.5156 160.503 85.1875 160.503 86.8906 C160.503 88.5938 160.0967 90.2812 159.2374 91.7031 L159.7842 91.9688 ZM165.2892 90.125 C166.0236 90.125 166.6173 89.875 167.0861 89.5625 L166.758 88.9688 C166.3673 89.2344 165.9298 89.4062 165.3986 89.4062 C164.3673 89.4062 163.6642 88.6562 163.6017 87.5 L167.258 87.5 C167.2736 87.375 167.3048 87.1875 167.3048 86.9844 C167.3048 85.4375 166.5236 84.4375 165.133 84.4375 C163.883 84.4375 162.6955 85.5312 162.6955 87.2969 C162.6955 89.0781 163.8517 90.125 165.2892 90.125 ZM163.5861 86.8438 C163.6955 85.7812 164.383 85.1562 165.1486 85.1562 C165.9923 85.1562 166.4923 85.75 166.4923 86.8438 L163.5861 86.8438 ZM168.6417 90 L169.548 90 L169.548 86.0625 C170.0948 85.5156 170.4855 85.2344 171.0323 85.2344 C171.7667 85.2344 172.0636 85.6562 172.0636 86.6875 L172.0636 90 L172.9855 90 L172.9855 86.5625 C172.9855 85.1719 172.4542 84.4375 171.3136 84.4375 C170.5792 84.4375 170.0167 84.8438 169.5011 85.3438 L169.4698 85.3438 L169.3917 84.5625 L168.6417 84.5625 L168.6417 90 Z"
    /></g
  ></g
></svg
>
