<?xml version="1.0"?>
<!DOCTYPE svg PUBLIC '-//W3C//DTD SVG 1.0//EN'
          'http://www.w3.org/TR/2001/REC-SVG-20010904/DTD/svg10.dtd'>
<svg xmlns:xlink="http://www.w3.org/1999/xlink" style="fill-opacity:1; color-rendering:auto; color-interpolation:auto; text-rendering:auto; stroke:black; stroke-linecap:square; stroke-miterlimit:10; shape-rendering:auto; stroke-opacity:1; fill:black; stroke-dasharray:none; font-weight:normal; stroke-width:1; font-family:'Dialog'; font-style:normal; stroke-linejoin:miter; font-size:12px; stroke-dashoffset:0; image-rendering:auto;" viewBox="0 0 394 134" xmlns="http://www.w3.org/2000/svg"
><!--Generated by the Batik Graphics2D SVG Generator--><defs id="genericDefs"
  /><g
  ><defs id="defs1"
    ><clipPath clipPathUnits="userSpaceOnUse" id="clipPath1"
      ><path d="M312 93 C312 99.0751 307.0751 104 301 104 C294.9249 104 290 99.0751 290 93 C290 86.9249 294.9249 82 301 82 C307.0751 82 312 86.9249 312 93 Z"
      /></clipPath
      ><clipPath clipPathUnits="userSpaceOnUse" id="clipPath2"
      ><path d="M260 93 C260 99.0751 255.0751 104 249 104 C242.9249 104 238 99.0751 238 93 C238 86.9249 242.9249 82 249 82 C255.0751 82 260 86.9249 260 93 Z"
      /></clipPath
      ><clipPath clipPathUnits="userSpaceOnUse" id="clipPath3"
      ><path d="M208 93 C208 99.0751 203.0751 104 197 104 C190.9249 104 186 99.0751 186 93 C186 86.9249 190.9249 82 197 82 C203.0751 82 208 86.9249 208 93 Z"
      /></clipPath
      ><clipPath clipPathUnits="userSpaceOnUse" id="clipPath4"
      ><path d="M156 93 C156 99.0751 151.0751 104 145 104 C138.9249 104 134 99.0751 134 93 C134 86.9249 138.9249 82 145 82 C151.0751 82 156 86.9249 156 93 Z"
      /></clipPath
      ><clipPath clipPathUnits="userSpaceOnUse" id="clipPath5"
      ><path d="M104 93 C104 99.0751 99.0751 104 93 104 C86.9249 104 82 99.0751 82 93 C82 86.9249 86.9249 82 93 82 C99.0751 82 104 86.9249 104 93 Z"
      /></clipPath
      ><clipPath clipPathUnits="userSpaceOnUse" id="clipPath6"
      ><path d="M52 93 C52 99.0751 47.0751 104 41 104 C34.9249 104 30 99.0751 30 93 C30 86.9249 34.9249 82 41 82 C47.0751 82 52 86.9249 52 93 Z"
      /></clipPath
      ><clipPath clipPathUnits="userSpaceOnUse" id="clipPath7"
      ><path style="fill-rule:evenodd;" d="M145 30 L147 37 L155 37 L148 42 L151 49 L145 45 L138 49 L141 42 L134 37 L142 37 L145 30 Z"
      /></clipPath
      ><clipPath clipPathUnits="userSpaceOnUse" id="clipPath8"
      ><path style="fill-rule:evenodd;" d="M197 30 L199 37 L207 37 L200 42 L203 49 L197 45 L190 49 L193 42 L186 37 L194 37 L197 30 Z"
      /></clipPath
      ><clipPath clipPathUnits="userSpaceOnUse" id="clipPath9"
      ><path style="fill-rule:evenodd;" d="M249 30 L251 37 L259 37 L252 42 L255 49 L249 45 L242 49 L245 42 L238 37 L246 37 L249 30 Z"
      /></clipPath
    ></defs
    ><g style="fill:white; text-rendering:optimizeSpeed; stroke:white;"
    ><rect x="0" width="394" height="134" y="0" style="stroke:none;"
      /><polygon style="fill:none; stroke:black;" points=" 353 93 301 93"
      /><path d="M353 82 C347.5 87.5 358.5 98.5 353 104" style="fill:none; stroke:black;"
      /><polygon style="fill:none; stroke:black;" points=" 301 93 249 93"
      /><circle style="clip-path:url(#clipPath1); stroke:none;" r="11" cx="301" cy="93"
      /><rect x="290" y="82" width="22" style="clip-path:url(#clipPath1); fill:rgb(0,144,188); stroke:none;" height="22"
      /><rect x="290" y="82" width="22" style="clip-path:url(#clipPath1); fill:none; stroke:black;" height="22"
      /><circle style="fill:none; stroke:black;" r="11" cx="301" cy="93"
      /><polygon style="fill:none; stroke:black;" points=" 249 93 197 93"
      /><polygon style="fill:none; stroke:black;" points=" 249 93 249 41"
      /><circle style="clip-path:url(#clipPath2); stroke:none;" r="11" cx="249" cy="93"
      /><rect x="238" y="82" width="22" style="clip-path:url(#clipPath2); fill:rgb(0,144,188); stroke:none;" height="22"
      /><rect x="238" y="82" width="22" style="clip-path:url(#clipPath2); fill:none; stroke:black;" height="22"
      /><circle style="fill:none; stroke:black;" r="11" cx="249" cy="93"
      /><polygon style="fill:none; stroke:black;" points=" 197 93 145 93"
      /><polygon style="fill:none; stroke:black;" points=" 197 93 197 41"
      /><circle style="clip-path:url(#clipPath3); stroke:none;" r="11" cx="197" cy="93"
      /><rect x="186" y="82" width="22" style="clip-path:url(#clipPath3); fill:rgb(0,144,188); stroke:none;" height="22"
      /><rect x="186" y="82" width="22" style="clip-path:url(#clipPath3); fill:none; stroke:black;" height="22"
      /><circle style="fill:none; stroke:black;" r="11" cx="197" cy="93"
      /><polygon style="fill:none; stroke:black;" points=" 145 93 93 93"
      /><polygon style="fill:none; stroke:black;" points=" 145 93 145 41"
      /><circle style="clip-path:url(#clipPath4); stroke:none;" r="11" cx="145" cy="93"
      /><rect x="134" y="82" width="22" style="clip-path:url(#clipPath4); fill:rgb(0,144,188); stroke:none;" height="22"
      /><rect x="134" y="82" width="22" style="clip-path:url(#clipPath4); fill:none; stroke:black;" height="22"
      /><circle style="fill:none; stroke:black;" r="11" cx="145" cy="93"
      /><polygon style="fill:none; stroke:black;" points=" 93 93 41 93"
      /><circle style="clip-path:url(#clipPath5); stroke:none;" r="11" cx="93" cy="93"
      /><rect x="82" y="82" width="22" style="clip-path:url(#clipPath5); fill:rgb(0,144,188); stroke:none;" height="22"
      /><rect x="82" y="82" width="22" style="clip-path:url(#clipPath5); fill:none; stroke:black;" height="22"
      /><circle style="fill:none; stroke:black;" r="11" cx="93" cy="93"
      /><circle style="clip-path:url(#clipPath6); stroke:none;" r="11" cx="41" cy="93"
      /><rect x="30" y="82" width="22" style="clip-path:url(#clipPath6); fill:rgb(0,144,188); stroke:none;" height="22"
      /><rect x="30" y="82" width="22" style="clip-path:url(#clipPath6); fill:none; stroke:black;" height="22"
      /><circle style="fill:none; stroke:black;" r="11" cx="41" cy="93"
      /><rect x="70" y="96" width="7" style="stroke:none;" height="9"
    /></g
    ><g style="font-family:'Serif'; text-rendering:optimizeSpeed; "
    ><path style="stroke:none;" d="M71 101.5156 L73.9531 97.2656 L73.9531 101.5156 L71 101.5156 ZM76.2812 101.5156 L74.8594 101.5156 L74.8594 96.125 L74.2344 96.125 L70.3438 101.6406 L70.3438 102.1875 L73.9531 102.1875 L73.9531 105 L74.8594 105 L74.8594 102.1875 L76.2812 102.1875 L76.2812 101.5156 Z"
      /><rect x="57" y="94" width="6" style="fill:white; stroke:none;" height="13"
      /><path style="stroke:none;" d="M59.0938 100.2031 C59.0938 98.6562 59.75 97.8125 60.7969 97.8125 C61.7188 97.8125 62.2656 98.4531 62.2656 99.5156 C62.2656 100.7188 61.5 101.4375 60.1875 101.7031 L60.2969 102.3125 C62.2188 102.2344 62.9375 103.2188 62.9375 104.4375 C62.9375 105.625 62.2344 106.4219 60.9531 106.4219 C60.25 106.4219 59.6562 106.1562 59.0938 105.7188 L59.0938 100.2031 ZM58.2031 106.9062 L58.1094 109.375 L58.2656 109.4844 L59.1562 109.2656 L59.0156 106.0938 C59.5469 106.8438 60.3594 107.1719 61.1719 107.1719 C62.5625 107.1719 63.8594 106.2188 63.8594 104.4844 C63.8594 102.9531 62.875 102.1094 61.125 102 C62.5625 101.6094 63.1875 100.4531 63.1875 99.4844 C63.1875 98.0938 62.1562 97.3125 60.9062 97.3125 C59.2969 97.3125 58.2188 98.5469 58.2188 100.5156 L58.2031 106.9062 Z"
      /><polygon style="fill:white; clip-path:url(#clipPath7); stroke:none;" points=" 145 30 147 37 155 37 148 42 151 49 145 45 138 49 141 42 134 37 142 37 145 30"
      /><rect x="134" y="30" width="22" style="clip-path:url(#clipPath7); fill:rgb(244,121,32); stroke:none;" height="22"
      /><rect x="134" y="30" width="22" style="fill:none; clip-path:url(#clipPath7);" height="22"
      /><polygon style="fill:none;" points=" 145 30 147 37 155 37 148 42 151 49 145 45 138 49 141 42 134 37 142 37 145 30"
      /><rect x="122" y="96" width="7" style="fill:white; stroke:none;" height="9"
      /><path style="stroke:none;" d="M123 101.5156 L125.9531 97.2656 L125.9531 101.5156 L123 101.5156 ZM128.2812 101.5156 L126.8594 101.5156 L126.8594 96.125 L126.2344 96.125 L122.3438 101.6406 L122.3438 102.1875 L125.9531 102.1875 L125.9531 105 L126.8594 105 L126.8594 102.1875 L128.2812 102.1875 L128.2812 101.5156 Z"
      /><rect x="109" y="94" width="6" style="fill:white; stroke:none;" height="13"
      /><path style="stroke:none;" d="M111.0938 100.2031 C111.0938 98.6562 111.75 97.8125 112.7969 97.8125 C113.7188 97.8125 114.2656 98.4531 114.2656 99.5156 C114.2656 100.7188 113.5 101.4375 112.1875 101.7031 L112.2969 102.3125 C114.2188 102.2344 114.9375 103.2188 114.9375 104.4375 C114.9375 105.625 114.2344 106.4219 112.9531 106.4219 C112.25 106.4219 111.6562 106.1562 111.0938 105.7188 L111.0938 100.2031 ZM110.2031 106.9062 L110.1094 109.375 L110.2656 109.4844 L111.1562 109.2656 L111.0156 106.0938 C111.5469 106.8438 112.3594 107.1719 113.1719 107.1719 C114.5625 107.1719 115.8594 106.2188 115.8594 104.4844 C115.8594 102.9531 114.875 102.1094 113.125 102 C114.5625 101.6094 115.1875 100.4531 115.1875 99.4844 C115.1875 98.0938 114.1562 97.3125 112.9062 97.3125 C111.2969 97.3125 110.2188 98.5469 110.2188 100.5156 L110.2031 106.9062 Z"
      /><rect x="134" y="69" width="6" style="fill:white; stroke:none;" height="10"
      /><path style="stroke:none;" d="M137.3438 78.6875 C136.2031 78.6875 135.5312 77.5 135.5312 75.2969 C135.5312 75.2188 135.5312 75.125 135.5312 75.0469 C136.0938 74.5 136.7188 74.3125 137.3438 74.3125 C138.3125 74.3125 138.9531 74.9844 138.9531 76.4531 C138.9531 77.9375 138.3125 78.6875 137.3438 78.6875 ZM139.5312 70.0781 C136.3438 70.4531 134.5625 72.7656 134.5625 75.4531 C134.5625 77.7812 135.6094 79.1719 137.3125 79.1719 C138.8438 79.1719 139.9219 78.1094 139.9219 76.2812 C139.9219 74.6875 138.9688 73.6562 137.5625 73.6562 C136.8281 73.6562 136.1406 73.9844 135.5781 74.5781 C135.7969 72.4062 137.0781 70.9688 139.5938 70.3906 L139.5312 70.0781 Z"
      /><rect x="133" y="56" width="8" style="fill:white; stroke:none;" height="8"
      /><path style="stroke:none;" d="M137.9844 61.7031 C137.9375 62.8906 137.1562 63.6562 136.3125 63.6562 C135.2656 63.6562 134.5 62.6875 134.5 60.7188 C134.5 59.2812 135.1562 58.1562 136.3438 58.1562 C137.1406 58.1562 137.7812 58.6875 138.0938 59.6406 L137.9844 61.7031 ZM139.9062 63.2812 C139.7344 63.375 139.5469 63.4219 139.3438 63.4219 C138.9531 63.4219 138.75 63.2188 138.75 62.4219 C138.75 61.4844 138.9688 59.5312 139.1875 57.8281 L139.0312 57.7188 L138.2344 57.9219 L138.1406 58.7969 C137.7812 58.0312 137.1562 57.6562 136.3906 57.6562 C135.0469 57.6562 133.5625 58.8438 133.5625 60.9531 C133.5625 63.0938 134.7188 64.1719 136.1406 64.1719 C137.0156 64.1719 137.6875 63.8125 138.0938 62.9844 C138.2031 63.8594 138.5156 64.1719 139.0156 64.1719 C139.4688 64.1719 139.7969 63.9062 140.0156 63.5625 L139.9062 63.2812 Z"
      /><polygon style="fill:white; clip-path:url(#clipPath8); stroke:none;" points=" 197 30 199 37 207 37 200 42 203 49 197 45 190 49 193 42 186 37 194 37 197 30"
      /><rect x="186" y="30" width="22" style="clip-path:url(#clipPath8); fill:rgb(244,121,32); stroke:none;" height="22"
      /><rect x="186" y="30" width="22" style="fill:none; clip-path:url(#clipPath8);" height="22"
      /><polygon style="fill:none;" points=" 197 30 199 37 207 37 200 42 203 49 197 45 190 49 193 42 186 37 194 37 197 30"
      /><rect x="174" y="96" width="7" style="fill:white; stroke:none;" height="9"
      /><path style="stroke:none;" d="M175 101.5156 L177.9531 97.2656 L177.9531 101.5156 L175 101.5156 ZM180.2812 101.5156 L178.8594 101.5156 L178.8594 96.125 L178.2344 96.125 L174.3438 101.6406 L174.3438 102.1875 L177.9531 102.1875 L177.9531 105 L178.8594 105 L178.8594 102.1875 L180.2812 102.1875 L180.2812 101.5156 Z"
      /><rect x="161" y="94" width="6" style="fill:white; stroke:none;" height="13"
      /><path style="stroke:none;" d="M163.0938 100.2031 C163.0938 98.6562 163.75 97.8125 164.7969 97.8125 C165.7188 97.8125 166.2656 98.4531 166.2656 99.5156 C166.2656 100.7188 165.5 101.4375 164.1875 101.7031 L164.2969 102.3125 C166.2188 102.2344 166.9375 103.2188 166.9375 104.4375 C166.9375 105.625 166.2344 106.4219 164.9531 106.4219 C164.25 106.4219 163.6562 106.1562 163.0938 105.7188 L163.0938 100.2031 ZM162.2031 106.9062 L162.1094 109.375 L162.2656 109.4844 L163.1562 109.2656 L163.0156 106.0938 C163.5469 106.8438 164.3594 107.1719 165.1719 107.1719 C166.5625 107.1719 167.8594 106.2188 167.8594 104.4844 C167.8594 102.9531 166.875 102.1094 165.125 102 C166.5625 101.6094 167.1875 100.4531 167.1875 99.4844 C167.1875 98.0938 166.1562 97.3125 164.9062 97.3125 C163.2969 97.3125 162.2188 98.5469 162.2188 100.5156 L162.2031 106.9062 Z"
      /><rect x="186" y="69" width="6" style="fill:white; stroke:none;" height="10"
      /><path style="stroke:none;" d="M189.3438 78.6875 C188.2031 78.6875 187.5312 77.5 187.5312 75.2969 C187.5312 75.2188 187.5312 75.125 187.5312 75.0469 C188.0938 74.5 188.7188 74.3125 189.3438 74.3125 C190.3125 74.3125 190.9531 74.9844 190.9531 76.4531 C190.9531 77.9375 190.3125 78.6875 189.3438 78.6875 ZM191.5312 70.0781 C188.3438 70.4531 186.5625 72.7656 186.5625 75.4531 C186.5625 77.7812 187.6094 79.1719 189.3125 79.1719 C190.8438 79.1719 191.9219 78.1094 191.9219 76.2812 C191.9219 74.6875 190.9688 73.6562 189.5625 73.6562 C188.8281 73.6562 188.1406 73.9844 187.5781 74.5781 C187.7969 72.4062 189.0781 70.9688 191.5938 70.3906 L191.5312 70.0781 Z"
      /><rect x="185" y="56" width="8" style="fill:white; stroke:none;" height="8"
      /><path style="stroke:none;" d="M189.9844 61.7031 C189.9375 62.8906 189.1562 63.6562 188.3125 63.6562 C187.2656 63.6562 186.5 62.6875 186.5 60.7188 C186.5 59.2812 187.1562 58.1562 188.3438 58.1562 C189.1406 58.1562 189.7812 58.6875 190.0938 59.6406 L189.9844 61.7031 ZM191.9062 63.2812 C191.7344 63.375 191.5469 63.4219 191.3438 63.4219 C190.9531 63.4219 190.75 63.2188 190.75 62.4219 C190.75 61.4844 190.9688 59.5312 191.1875 57.8281 L191.0312 57.7188 L190.2344 57.9219 L190.1406 58.7969 C189.7812 58.0312 189.1562 57.6562 188.3906 57.6562 C187.0469 57.6562 185.5625 58.8438 185.5625 60.9531 C185.5625 63.0938 186.7188 64.1719 188.1406 64.1719 C189.0156 64.1719 189.6875 63.8125 190.0938 62.9844 C190.2031 63.8594 190.5156 64.1719 191.0156 64.1719 C191.4688 64.1719 191.7969 63.9062 192.0156 63.5625 L191.9062 63.2812 Z"
      /><polygon style="fill:white; clip-path:url(#clipPath9); stroke:none;" points=" 249 30 251 37 259 37 252 42 255 49 249 45 242 49 245 42 238 37 246 37 249 30"
      /><rect x="238" y="30" width="22" style="clip-path:url(#clipPath9); fill:rgb(244,121,32); stroke:none;" height="22"
      /><rect x="238" y="30" width="22" style="fill:none; clip-path:url(#clipPath9);" height="22"
      /><polygon style="fill:none;" points=" 249 30 251 37 259 37 252 42 255 49 249 45 242 49 245 42 238 37 246 37 249 30"
      /><rect x="226" y="96" width="7" style="fill:white; stroke:none;" height="9"
      /><path style="stroke:none;" d="M227 101.5156 L229.9531 97.2656 L229.9531 101.5156 L227 101.5156 ZM232.2812 101.5156 L230.8594 101.5156 L230.8594 96.125 L230.2344 96.125 L226.3438 101.6406 L226.3438 102.1875 L229.9531 102.1875 L229.9531 105 L230.8594 105 L230.8594 102.1875 L232.2812 102.1875 L232.2812 101.5156 Z"
      /><rect x="213" y="94" width="6" style="fill:white; stroke:none;" height="13"
      /><path style="stroke:none;" d="M215.0938 100.2031 C215.0938 98.6562 215.75 97.8125 216.7969 97.8125 C217.7188 97.8125 218.2656 98.4531 218.2656 99.5156 C218.2656 100.7188 217.5 101.4375 216.1875 101.7031 L216.2969 102.3125 C218.2188 102.2344 218.9375 103.2188 218.9375 104.4375 C218.9375 105.625 218.2344 106.4219 216.9531 106.4219 C216.25 106.4219 215.6562 106.1562 215.0938 105.7188 L215.0938 100.2031 ZM214.2031 106.9062 L214.1094 109.375 L214.2656 109.4844 L215.1562 109.2656 L215.0156 106.0938 C215.5469 106.8438 216.3594 107.1719 217.1719 107.1719 C218.5625 107.1719 219.8594 106.2188 219.8594 104.4844 C219.8594 102.9531 218.875 102.1094 217.125 102 C218.5625 101.6094 219.1875 100.4531 219.1875 99.4844 C219.1875 98.0938 218.1562 97.3125 216.9062 97.3125 C215.2969 97.3125 214.2188 98.5469 214.2188 100.5156 L214.2031 106.9062 Z"
      /><rect x="238" y="69" width="6" style="fill:white; stroke:none;" height="10"
      /><path style="stroke:none;" d="M241.3438 78.6875 C240.2031 78.6875 239.5312 77.5 239.5312 75.2969 C239.5312 75.2188 239.5312 75.125 239.5312 75.0469 C240.0938 74.5 240.7188 74.3125 241.3438 74.3125 C242.3125 74.3125 242.9531 74.9844 242.9531 76.4531 C242.9531 77.9375 242.3125 78.6875 241.3438 78.6875 ZM243.5312 70.0781 C240.3438 70.4531 238.5625 72.7656 238.5625 75.4531 C238.5625 77.7812 239.6094 79.1719 241.3125 79.1719 C242.8438 79.1719 243.9219 78.1094 243.9219 76.2812 C243.9219 74.6875 242.9688 73.6562 241.5625 73.6562 C240.8281 73.6562 240.1406 73.9844 239.5781 74.5781 C239.7969 72.4062 241.0781 70.9688 243.5938 70.3906 L243.5312 70.0781 Z"
      /><rect x="237" y="56" width="8" style="fill:white; stroke:none;" height="8"
      /><path style="stroke:none;" d="M241.9844 61.7031 C241.9375 62.8906 241.1562 63.6562 240.3125 63.6562 C239.2656 63.6562 238.5 62.6875 238.5 60.7188 C238.5 59.2812 239.1562 58.1562 240.3438 58.1562 C241.1406 58.1562 241.7812 58.6875 242.0938 59.6406 L241.9844 61.7031 ZM243.9062 63.2812 C243.7344 63.375 243.5469 63.4219 243.3438 63.4219 C242.9531 63.4219 242.75 63.2188 242.75 62.4219 C242.75 61.4844 242.9688 59.5312 243.1875 57.8281 L243.0312 57.7188 L242.2344 57.9219 L242.1406 58.7969 C241.7812 58.0312 241.1562 57.6562 240.3906 57.6562 C239.0469 57.6562 237.5625 58.8438 237.5625 60.9531 C237.5625 63.0938 238.7188 64.1719 240.1406 64.1719 C241.0156 64.1719 241.6875 63.8125 242.0938 62.9844 C242.2031 63.8594 242.5156 64.1719 243.0156 64.1719 C243.4688 64.1719 243.7969 63.9062 244.0156 63.5625 L243.9062 63.2812 Z"
      /><rect x="278" y="96" width="7" style="fill:white; stroke:none;" height="9"
      /><path style="stroke:none;" d="M279 101.5156 L281.9531 97.2656 L281.9531 101.5156 L279 101.5156 ZM284.2812 101.5156 L282.8594 101.5156 L282.8594 96.125 L282.2344 96.125 L278.3438 101.6406 L278.3438 102.1875 L281.9531 102.1875 L281.9531 105 L282.8594 105 L282.8594 102.1875 L284.2812 102.1875 L284.2812 101.5156 Z"
      /><rect x="265" y="94" width="6" style="fill:white; stroke:none;" height="13"
      /><path style="stroke:none;" d="M267.0938 100.2031 C267.0938 98.6562 267.75 97.8125 268.7969 97.8125 C269.7188 97.8125 270.2656 98.4531 270.2656 99.5156 C270.2656 100.7188 269.5 101.4375 268.1875 101.7031 L268.2969 102.3125 C270.2188 102.2344 270.9375 103.2188 270.9375 104.4375 C270.9375 105.625 270.2344 106.4219 268.9531 106.4219 C268.25 106.4219 267.6562 106.1562 267.0938 105.7188 L267.0938 100.2031 ZM266.2031 106.9062 L266.1094 109.375 L266.2656 109.4844 L267.1562 109.2656 L267.0156 106.0938 C267.5469 106.8438 268.3594 107.1719 269.1719 107.1719 C270.5625 107.1719 271.8594 106.2188 271.8594 104.4844 C271.8594 102.9531 270.875 102.1094 269.125 102 C270.5625 101.6094 271.1875 100.4531 271.1875 99.4844 C271.1875 98.0938 270.1562 97.3125 268.9062 97.3125 C267.2969 97.3125 266.2188 98.5469 266.2188 100.5156 L266.2031 106.9062 Z"
      /><rect x="317" y="94" width="6" style="fill:white; stroke:none;" height="13"
      /><path style="stroke:none;" d="M319.0938 100.2031 C319.0938 98.6562 319.75 97.8125 320.7969 97.8125 C321.7188 97.8125 322.2656 98.4531 322.2656 99.5156 C322.2656 100.7188 321.5 101.4375 320.1875 101.7031 L320.2969 102.3125 C322.2188 102.2344 322.9375 103.2188 322.9375 104.4375 C322.9375 105.625 322.2344 106.4219 320.9531 106.4219 C320.25 106.4219 319.6562 106.1562 319.0938 105.7188 L319.0938 100.2031 ZM318.2031 106.9062 L318.1094 109.375 L318.2656 109.4844 L319.1562 109.2656 L319.0156 106.0938 C319.5469 106.8438 320.3594 107.1719 321.1719 107.1719 C322.5625 107.1719 323.8594 106.2188 323.8594 104.4844 C323.8594 102.9531 322.875 102.1094 321.125 102 C322.5625 101.6094 323.1875 100.4531 323.1875 99.4844 C323.1875 98.0938 322.1562 97.3125 320.9062 97.3125 C319.2969 97.3125 318.2188 98.5469 318.2188 100.5156 L318.2031 106.9062 Z"
    /></g
  ></g
></svg
>
