<?xml version="1.0"?>
<!DOCTYPE svg PUBLIC '-//W3C//DTD SVG 1.0//EN'
          'http://www.w3.org/TR/2001/REC-SVG-20010904/DTD/svg10.dtd'>
<svg xmlns:xlink="http://www.w3.org/1999/xlink" style="fill-opacity:1; color-rendering:auto; color-interpolation:auto; text-rendering:auto; stroke:black; stroke-linecap:square; stroke-miterlimit:10; shape-rendering:auto; stroke-opacity:1; fill:black; stroke-dasharray:none; font-weight:normal; stroke-width:1; font-family:'Dialog'; font-style:normal; stroke-linejoin:miter; font-size:12px; stroke-dashoffset:0; image-rendering:auto;" viewBox="0 0 342 82" xmlns="http://www.w3.org/2000/svg"
><!--Generated by the Batik Graphics2D SVG Generator--><defs id="genericDefs"
  /><g
  ><defs id="defs1"
    ><clipPath clipPathUnits="userSpaceOnUse" id="clipPath1"
      ><path d="M238 30 L260 30 L260 52 L238 52 L238 30 Z"
      /></clipPath
      ><clipPath clipPathUnits="userSpaceOnUse" id="clipPath2"
      ><path d="M186 30 L208 30 L208 52 L186 52 L186 30 Z"
      /></clipPath
      ><clipPath clipPathUnits="userSpaceOnUse" id="clipPath3"
      ><path d="M134 30 L156 30 L156 52 L134 52 L134 30 Z"
      /></clipPath
      ><clipPath clipPathUnits="userSpaceOnUse" id="clipPath4"
      ><path d="M82 30 L104 30 L104 52 L82 52 L82 30 Z"
      /></clipPath
      ><clipPath clipPathUnits="userSpaceOnUse" id="clipPath5"
      ><path d="M30 30 L52 30 L52 52 L30 52 L30 30 Z"
      /></clipPath
    ></defs
    ><g style="fill:white; text-rendering:optimizeSpeed; stroke:white;"
    ><rect x="0" width="342" height="82" y="0" style="stroke:none;"
      /><polygon style="fill:none; stroke:black;" points=" 301 41 249 41"
      /><path d="M301 30 C295.5 35.5 306.5 46.5 301 52" style="fill:none; stroke:black;"
      /><polygon style="fill:none; stroke:black;" points=" 249 41 197 41"
      /><rect x="238" y="30" width="22" style="clip-path:url(#clipPath1); stroke:none;" height="22"
      /><rect x="238" y="30" width="22" style="clip-path:url(#clipPath1); fill:rgb(0,144,188); stroke:none;" height="22"
      /><rect x="238" y="30" width="22" style="clip-path:url(#clipPath1); fill:none; stroke:black;" height="22"
      /><rect x="238" y="30" width="22" style="fill:none; stroke:black;" height="22"
      /><polygon style="fill:none; stroke:black;" points=" 197 41 145 41"
      /><rect x="186" y="30" width="22" style="clip-path:url(#clipPath2); stroke:none;" height="22"
      /><rect x="186" y="30" width="22" style="clip-path:url(#clipPath2); fill:rgb(0,144,188); stroke:none;" height="22"
      /><rect x="186" y="30" width="22" style="clip-path:url(#clipPath2); fill:none; stroke:black;" height="22"
      /><rect x="186" y="30" width="22" style="fill:none; stroke:black;" height="22"
      /><polygon style="fill:none; stroke:black;" points=" 145 41 93 41"
      /><rect x="134" y="30" width="22" style="clip-path:url(#clipPath3); stroke:none;" height="22"
      /><rect x="134" y="30" width="22" style="clip-path:url(#clipPath3); fill:rgb(0,144,188); stroke:none;" height="22"
      /><rect x="134" y="30" width="22" style="clip-path:url(#clipPath3); fill:none; stroke:black;" height="22"
      /><rect x="134" y="30" width="22" style="fill:none; stroke:black;" height="22"
      /><polygon style="fill:none; stroke:black;" points=" 93 41 41 41"
      /><rect x="82" y="30" width="22" style="clip-path:url(#clipPath4); stroke:none;" height="22"
      /><rect x="82" y="30" width="22" style="clip-path:url(#clipPath4); fill:rgb(0,144,188); stroke:none;" height="22"
      /><rect x="82" y="30" width="22" style="clip-path:url(#clipPath4); fill:none; stroke:black;" height="22"
      /><rect x="82" y="30" width="22" style="fill:none; stroke:black;" height="22"
      /><rect x="30" y="30" width="22" style="clip-path:url(#clipPath5); stroke:none;" height="22"
      /><rect x="30" y="30" width="22" style="clip-path:url(#clipPath5); fill:rgb(0,144,188); stroke:none;" height="22"
      /><rect x="30" y="30" width="22" style="clip-path:url(#clipPath5); fill:none; stroke:black;" height="22"
      /><rect x="30" y="30" width="22" style="fill:none; stroke:black;" height="22"
      /><rect x="70" y="44" width="7" style="stroke:none;" height="9"
    /></g
    ><g style="font-family:'Serif'; text-rendering:optimizeSpeed; "
    ><path style="stroke:none;" d="M71 49.5156 L73.9531 45.2656 L73.9531 49.5156 L71 49.5156 ZM76.2812 49.5156 L74.8594 49.5156 L74.8594 44.125 L74.2344 44.125 L70.3438 49.6406 L70.3438 50.1875 L73.9531 50.1875 L73.9531 53 L74.8594 53 L74.8594 50.1875 L76.2812 50.1875 L76.2812 49.5156 Z"
      /><rect x="57" y="42" width="6" style="fill:white; stroke:none;" height="13"
      /><path style="stroke:none;" d="M59.0938 48.2031 C59.0938 46.6562 59.75 45.8125 60.7969 45.8125 C61.7188 45.8125 62.2656 46.4531 62.2656 47.5156 C62.2656 48.7188 61.5 49.4375 60.1875 49.7031 L60.2969 50.3125 C62.2188 50.2344 62.9375 51.2188 62.9375 52.4375 C62.9375 53.625 62.2344 54.4219 60.9531 54.4219 C60.25 54.4219 59.6562 54.1562 59.0938 53.7188 L59.0938 48.2031 ZM58.2031 54.9062 L58.1094 57.375 L58.2656 57.4844 L59.1562 57.2656 L59.0156 54.0938 C59.5469 54.8438 60.3594 55.1719 61.1719 55.1719 C62.5625 55.1719 63.8594 54.2188 63.8594 52.4844 C63.8594 50.9531 62.875 50.1094 61.125 50 C62.5625 49.6094 63.1875 48.4531 63.1875 47.4844 C63.1875 46.0938 62.1562 45.3125 60.9062 45.3125 C59.2969 45.3125 58.2188 46.5469 58.2188 48.5156 L58.2031 54.9062 Z"
      /><rect x="122" y="44" width="7" style="fill:white; stroke:none;" height="9"
      /><path style="stroke:none;" d="M123 49.5156 L125.9531 45.2656 L125.9531 49.5156 L123 49.5156 ZM128.2812 49.5156 L126.8594 49.5156 L126.8594 44.125 L126.2344 44.125 L122.3438 49.6406 L122.3438 50.1875 L125.9531 50.1875 L125.9531 53 L126.8594 53 L126.8594 50.1875 L128.2812 50.1875 L128.2812 49.5156 Z"
      /><rect x="109" y="42" width="6" style="fill:white; stroke:none;" height="13"
      /><path style="stroke:none;" d="M111.0938 48.2031 C111.0938 46.6562 111.75 45.8125 112.7969 45.8125 C113.7188 45.8125 114.2656 46.4531 114.2656 47.5156 C114.2656 48.7188 113.5 49.4375 112.1875 49.7031 L112.2969 50.3125 C114.2188 50.2344 114.9375 51.2188 114.9375 52.4375 C114.9375 53.625 114.2344 54.4219 112.9531 54.4219 C112.25 54.4219 111.6562 54.1562 111.0938 53.7188 L111.0938 48.2031 ZM110.2031 54.9062 L110.1094 57.375 L110.2656 57.4844 L111.1562 57.2656 L111.0156 54.0938 C111.5469 54.8438 112.3594 55.1719 113.1719 55.1719 C114.5625 55.1719 115.8594 54.2188 115.8594 52.4844 C115.8594 50.9531 114.875 50.1094 113.125 50 C114.5625 49.6094 115.1875 48.4531 115.1875 47.4844 C115.1875 46.0938 114.1562 45.3125 112.9062 45.3125 C111.2969 45.3125 110.2188 46.5469 110.2188 48.5156 L110.2031 54.9062 Z"
      /><rect x="174" y="44" width="7" style="fill:white; stroke:none;" height="9"
      /><path style="stroke:none;" d="M175 49.5156 L177.9531 45.2656 L177.9531 49.5156 L175 49.5156 ZM180.2812 49.5156 L178.8594 49.5156 L178.8594 44.125 L178.2344 44.125 L174.3438 49.6406 L174.3438 50.1875 L177.9531 50.1875 L177.9531 53 L178.8594 53 L178.8594 50.1875 L180.2812 50.1875 L180.2812 49.5156 Z"
      /><rect x="161" y="42" width="6" style="fill:white; stroke:none;" height="13"
      /><path style="stroke:none;" d="M163.0938 48.2031 C163.0938 46.6562 163.75 45.8125 164.7969 45.8125 C165.7188 45.8125 166.2656 46.4531 166.2656 47.5156 C166.2656 48.7188 165.5 49.4375 164.1875 49.7031 L164.2969 50.3125 C166.2188 50.2344 166.9375 51.2188 166.9375 52.4375 C166.9375 53.625 166.2344 54.4219 164.9531 54.4219 C164.25 54.4219 163.6562 54.1562 163.0938 53.7188 L163.0938 48.2031 ZM162.2031 54.9062 L162.1094 57.375 L162.2656 57.4844 L163.1562 57.2656 L163.0156 54.0938 C163.5469 54.8438 164.3594 55.1719 165.1719 55.1719 C166.5625 55.1719 167.8594 54.2188 167.8594 52.4844 C167.8594 50.9531 166.875 50.1094 165.125 50 C166.5625 49.6094 167.1875 48.4531 167.1875 47.4844 C167.1875 46.0938 166.1562 45.3125 164.9062 45.3125 C163.2969 45.3125 162.2188 46.5469 162.2188 48.5156 L162.2031 54.9062 Z"
      /><rect x="226" y="44" width="7" style="fill:white; stroke:none;" height="9"
      /><path style="stroke:none;" d="M227 49.5156 L229.9531 45.2656 L229.9531 49.5156 L227 49.5156 ZM232.2812 49.5156 L230.8594 49.5156 L230.8594 44.125 L230.2344 44.125 L226.3438 49.6406 L226.3438 50.1875 L229.9531 50.1875 L229.9531 53 L230.8594 53 L230.8594 50.1875 L232.2812 50.1875 L232.2812 49.5156 Z"
      /><rect x="212" y="45" width="8" style="fill:white; stroke:none;" height="8"
      /><path style="stroke:none;" d="M216.9844 50.7031 C216.9375 51.8906 216.1562 52.6562 215.3125 52.6562 C214.2656 52.6562 213.5 51.6875 213.5 49.7188 C213.5 48.2812 214.1562 47.1562 215.3438 47.1562 C216.1406 47.1562 216.7812 47.6875 217.0938 48.6406 L216.9844 50.7031 ZM218.9062 52.2812 C218.7344 52.375 218.5469 52.4219 218.3438 52.4219 C217.9531 52.4219 217.75 52.2188 217.75 51.4219 C217.75 50.4844 217.9688 48.5312 218.1875 46.8281 L218.0312 46.7188 L217.2344 46.9219 L217.1406 47.7969 C216.7812 47.0312 216.1562 46.6562 215.3906 46.6562 C214.0469 46.6562 212.5625 47.8438 212.5625 49.9531 C212.5625 52.0938 213.7188 53.1719 215.1406 53.1719 C216.0156 53.1719 216.6875 52.8125 217.0938 51.9844 C217.2031 52.8594 217.5156 53.1719 218.0156 53.1719 C218.4688 53.1719 218.7969 52.9062 219.0156 52.5625 L218.9062 52.2812 Z"
      /><rect x="265" y="42" width="6" style="fill:white; stroke:none;" height="13"
      /><path style="stroke:none;" d="M267.0938 48.2031 C267.0938 46.6562 267.75 45.8125 268.7969 45.8125 C269.7188 45.8125 270.2656 46.4531 270.2656 47.5156 C270.2656 48.7188 269.5 49.4375 268.1875 49.7031 L268.2969 50.3125 C270.2188 50.2344 270.9375 51.2188 270.9375 52.4375 C270.9375 53.625 270.2344 54.4219 268.9531 54.4219 C268.25 54.4219 267.6562 54.1562 267.0938 53.7188 L267.0938 48.2031 ZM266.2031 54.9062 L266.1094 57.375 L266.2656 57.4844 L267.1562 57.2656 L267.0156 54.0938 C267.5469 54.8438 268.3594 55.1719 269.1719 55.1719 C270.5625 55.1719 271.8594 54.2188 271.8594 52.4844 C271.8594 50.9531 270.875 50.1094 269.125 50 C270.5625 49.6094 271.1875 48.4531 271.1875 47.4844 C271.1875 46.0938 270.1562 45.3125 268.9062 45.3125 C267.2969 45.3125 266.2188 46.5469 266.2188 48.5156 L266.2031 54.9062 Z"
    /></g
  ></g
></svg
>
