<?xml version="1.0"?>
<!DOCTYPE svg PUBLIC '-//W3C//DTD SVG 1.0//EN'
          'http://www.w3.org/TR/2001/REC-SVG-20010904/DTD/svg10.dtd'>
<svg xmlns:xlink="http://www.w3.org/1999/xlink" style="fill-opacity:1; color-rendering:auto; color-interpolation:auto; text-rendering:auto; stroke:black; stroke-linecap:square; stroke-miterlimit:10; shape-rendering:auto; stroke-opacity:1; fill:black; stroke-dasharray:none; font-weight:normal; stroke-width:1; font-family:'Dialog'; font-style:normal; stroke-linejoin:miter; font-size:12px; stroke-dashoffset:0; image-rendering:auto;" viewBox="0 0 394 160" xmlns="http://www.w3.org/2000/svg"
><!--Generated by the Batik Graphics2D SVG Generator--><defs id="genericDefs"
  /><g
  ><defs id="defs1"
    ><clipPath clipPathUnits="userSpaceOnUse" id="clipPath1"
      ><path d="M290 56 L312 56 L312 78 L290 78 L290 56 Z"
      /></clipPath
      ><clipPath clipPathUnits="userSpaceOnUse" id="clipPath2"
      ><path d="M238 56 L260 56 L260 78 L238 78 L238 56 Z"
      /></clipPath
      ><clipPath clipPathUnits="userSpaceOnUse" id="clipPath3"
      ><path d="M208 67 C208 73.0751 203.0751 78 197 78 C190.9249 78 186 73.0751 186 67 C186 60.9249 190.9249 56 197 56 C203.0751 56 208 60.9249 208 67 Z"
      /></clipPath
      ><clipPath clipPathUnits="userSpaceOnUse" id="clipPath4"
      ><path d="M156 93 C156 99.0751 151.0751 104 145 104 C138.9249 104 134 99.0751 134 93 C134 86.9249 138.9249 82 145 82 C151.0751 82 156 86.9249 156 93 Z"
      /></clipPath
      ><clipPath clipPathUnits="userSpaceOnUse" id="clipPath5"
      ><path d="M104 119 C104 125.0751 99.0751 130 93 130 C86.9249 130 82 125.0751 82 119 C82 112.9249 86.9249 108 93 108 C99.0751 108 104 112.9249 104 119 Z"
      /></clipPath
      ><clipPath clipPathUnits="userSpaceOnUse" id="clipPath6"
      ><path d="M52 119 C52 125.0751 47.0751 130 41 130 C34.9249 130 30 125.0751 30 119 C30 112.9249 34.9249 108 41 108 C47.0751 108 52 112.9249 52 119 Z"
      /></clipPath
      ><clipPath clipPathUnits="userSpaceOnUse" id="clipPath7"
      ><path d="M104 67 C104 73.0751 99.0751 78 93 78 C86.9249 78 82 73.0751 82 67 C82 60.9249 86.9249 56 93 56 C99.0751 56 104 60.9249 104 67 Z"
      /></clipPath
      ><clipPath clipPathUnits="userSpaceOnUse" id="clipPath8"
      ><path d="M52 67 C52 73.0751 47.0751 78 41 78 C34.9249 78 30 73.0751 30 67 C30 60.9249 34.9249 56 41 56 C47.0751 56 52 60.9249 52 67 Z"
      /></clipPath
      ><clipPath clipPathUnits="userSpaceOnUse" id="clipPath9"
      ><path d="M156 41 C156 47.0751 151.0751 52 145 52 C138.9249 52 134 47.0751 134 41 C134 34.9249 138.9249 30 145 30 C151.0751 30 156 34.9249 156 41 Z"
      /></clipPath
    ></defs
    ><g style="fill:white; text-rendering:optimizeSpeed; stroke:white;"
    ><rect x="0" width="394" height="160" y="0" style="stroke:none;"
      /><polygon style="fill:none; stroke:black;" points=" 353 67 301 67"
      /><path d="M353 56 C347.5 61.5 358.5 72.5 353 78" style="fill:none; stroke:black;"
      /><polygon style="fill:none; stroke:black;" points=" 301 67 249 67"
      /><rect x="290" y="56" width="22" style="clip-path:url(#clipPath1); stroke:none;" height="22"
      /><rect x="290" y="56" width="22" style="clip-path:url(#clipPath1); fill:rgb(0,144,188); stroke:none;" height="22"
      /><rect x="290" y="56" width="22" style="clip-path:url(#clipPath1); fill:none; stroke:black;" height="22"
      /><rect x="290" y="56" width="22" style="fill:none; stroke:black;" height="22"
      /><polygon style="fill:none; stroke:black;" points=" 249 67 197 67"
      /><rect x="238" y="56" width="22" style="clip-path:url(#clipPath2); stroke:none;" height="22"
      /><rect x="238" y="56" width="22" style="clip-path:url(#clipPath2); fill:rgb(0,144,188); stroke:none;" height="22"
      /><rect x="238" y="56" width="22" style="clip-path:url(#clipPath2); fill:none; stroke:black;" height="22"
      /><rect x="238" y="56" width="22" style="fill:none; stroke:black;" height="22"
      /><polygon style="fill:none; stroke:black;" points=" 197 67 145 93"
      /><polygon style="fill:none; stroke:black;" points=" 197 67 145 41"
      /><circle style="clip-path:url(#clipPath3); stroke:none;" r="11" cx="197" cy="67"
      /><rect x="186" y="56" width="22" style="clip-path:url(#clipPath3); fill:rgb(0,166,81); stroke:none;" height="22"
      /><rect x="186" y="56" width="22" style="clip-path:url(#clipPath3); fill:none; stroke:black;" height="22"
      /><circle style="fill:none; stroke:black;" r="11" cx="197" cy="67"
      /><polygon style="fill:none; stroke:black;" points=" 145 93 93 119"
      /><polygon style="fill:none; stroke:black;" points=" 145 93 93 67"
      /><circle style="clip-path:url(#clipPath4); stroke:none;" r="11" cx="145" cy="93"
      /><rect x="134" y="82" width="22" style="clip-path:url(#clipPath4); fill:rgb(0,166,81); stroke:none;" height="22"
      /><rect x="134" y="82" width="22" style="clip-path:url(#clipPath4); fill:none; stroke:black;" height="22"
      /><circle style="fill:none; stroke:black;" r="11" cx="145" cy="93"
      /><polygon style="fill:none; stroke:black;" points=" 93 119 41 119"
      /><circle style="clip-path:url(#clipPath5); stroke:none;" r="11" cx="93" cy="119"
      /><rect x="82" y="108" width="22" style="clip-path:url(#clipPath5); fill:rgb(0,166,81); stroke:none;" height="22"
      /><rect x="82" y="108" width="22" style="clip-path:url(#clipPath5); fill:none; stroke:black;" height="22"
      /><circle style="fill:none; stroke:black;" r="11" cx="93" cy="119"
      /><circle style="clip-path:url(#clipPath6); stroke:none;" r="11" cx="41" cy="119"
      /><rect x="30" y="108" width="22" style="clip-path:url(#clipPath6); fill:rgb(0,166,81); stroke:none;" height="22"
      /><rect x="30" y="108" width="22" style="clip-path:url(#clipPath6); fill:none; stroke:black;" height="22"
      /><circle style="fill:none; stroke:black;" r="11" cx="41" cy="119"
      /><rect x="71" y="122" width="6" style="stroke:none;" height="9"
    /></g
    ><g style="font-family:'Serif'; text-rendering:optimizeSpeed; "
    ><path style="stroke:none;" d="M72.4219 130.0938 C73.0781 129.375 73.7031 128.7188 74.0312 128.3438 C75.9219 126.3125 76.5312 125.4688 76.5312 124.3594 C76.5312 123.0156 75.7812 122.0781 74.1562 122.0781 C72.9062 122.0781 71.7969 122.7031 71.5938 123.9688 C71.7188 124.2031 71.9062 124.3438 72.1562 124.3438 C72.4688 124.3438 72.6562 124.1094 72.7969 123.5938 L73.0938 122.6719 C73.3906 122.5938 73.6562 122.5625 73.8906 122.5625 C74.9219 122.5625 75.5469 123.3125 75.5469 124.4219 C75.5469 125.4375 74.9844 126.4219 73.7031 127.9062 C73.125 128.5781 72.3906 129.4375 71.6406 130.2812 L71.6406 131 L76.9219 131 L76.9219 130.0938 L72.4219 130.0938 Z"
      /><rect x="57" y="120" width="6" style="fill:white; stroke:none;" height="13"
      /><path style="stroke:none;" d="M59.0938 126.2031 C59.0938 124.6562 59.75 123.8125 60.7969 123.8125 C61.7188 123.8125 62.2656 124.4531 62.2656 125.5156 C62.2656 126.7188 61.5 127.4375 60.1875 127.7031 L60.2969 128.3125 C62.2188 128.2344 62.9375 129.2188 62.9375 130.4375 C62.9375 131.625 62.2344 132.4219 60.9531 132.4219 C60.25 132.4219 59.6562 132.1562 59.0938 131.7188 L59.0938 126.2031 ZM58.2031 132.9062 L58.1094 135.375 L58.2656 135.4844 L59.1562 135.2656 L59.0156 132.0938 C59.5469 132.8438 60.3594 133.1719 61.1719 133.1719 C62.5625 133.1719 63.8594 132.2188 63.8594 130.4844 C63.8594 128.9531 62.875 128.1094 61.125 128 C62.5625 127.6094 63.1875 126.4531 63.1875 125.4844 C63.1875 124.0938 62.1562 123.3125 60.9062 123.3125 C59.2969 123.3125 58.2188 124.5469 58.2188 126.5156 L58.2031 132.9062 Z"
      /><polygon style="fill:none;" points=" 93 67 41 67"
      /><circle style="fill:white; clip-path:url(#clipPath7); stroke:none;" r="11" cx="93" cy="67"
      /><rect x="82" y="56" width="22" style="clip-path:url(#clipPath7); fill:rgb(0,166,81); stroke:none;" height="22"
      /><rect x="82" y="56" width="22" style="fill:none; clip-path:url(#clipPath7);" height="22"
      /><circle r="11" style="fill:none;" cx="93" cy="67"
      /><circle style="fill:white; clip-path:url(#clipPath8); stroke:none;" r="11" cx="41" cy="67"
      /><rect x="30" y="56" width="22" style="clip-path:url(#clipPath8); fill:rgb(0,166,81); stroke:none;" height="22"
      /><rect x="30" y="56" width="22" style="fill:none; clip-path:url(#clipPath8);" height="22"
      /><circle r="11" style="fill:none;" cx="41" cy="67"
      /><rect x="71" y="70" width="6" style="fill:white; stroke:none;" height="9"
      /><path style="stroke:none;" d="M72.4219 78.0938 C73.0781 77.375 73.7031 76.7188 74.0312 76.3438 C75.9219 74.3125 76.5312 73.4688 76.5312 72.3594 C76.5312 71.0156 75.7812 70.0781 74.1562 70.0781 C72.9062 70.0781 71.7969 70.7031 71.5938 71.9688 C71.7188 72.2031 71.9062 72.3438 72.1562 72.3438 C72.4688 72.3438 72.6562 72.1094 72.7969 71.5938 L73.0938 70.6719 C73.3906 70.5938 73.6562 70.5625 73.8906 70.5625 C74.9219 70.5625 75.5469 71.3125 75.5469 72.4219 C75.5469 73.4375 74.9844 74.4219 73.7031 75.9062 C73.125 76.5781 72.3906 77.4375 71.6406 78.2812 L71.6406 79 L76.9219 79 L76.9219 78.0938 L72.4219 78.0938 Z"
      /><rect x="56" y="71" width="8" style="fill:white; stroke:none;" height="8"
      /><path style="stroke:none;" d="M60.9844 76.7031 C60.9375 77.8906 60.1562 78.6562 59.3125 78.6562 C58.2656 78.6562 57.5 77.6875 57.5 75.7188 C57.5 74.2812 58.1562 73.1562 59.3438 73.1562 C60.1406 73.1562 60.7812 73.6875 61.0938 74.6406 L60.9844 76.7031 ZM62.9062 78.2812 C62.7344 78.375 62.5469 78.4219 62.3438 78.4219 C61.9531 78.4219 61.75 78.2188 61.75 77.4219 C61.75 76.4844 61.9688 74.5312 62.1875 72.8281 L62.0312 72.7188 L61.2344 72.9219 L61.1406 73.7969 C60.7812 73.0312 60.1562 72.6562 59.3906 72.6562 C58.0469 72.6562 56.5625 73.8438 56.5625 75.9531 C56.5625 78.0938 57.7188 79.1719 59.1406 79.1719 C60.0156 79.1719 60.6875 78.8125 61.0938 77.9844 C61.2031 78.8594 61.5156 79.1719 62.0156 79.1719 C62.4688 79.1719 62.7969 78.9062 63.0156 78.5625 L62.9062 78.2812 Z"
      /><rect x="127" y="104" width="6" style="fill:white; stroke:none;" height="9"
      /><path style="stroke:none;" d="M128.4219 112.0938 C129.0781 111.375 129.7031 110.7188 130.0312 110.3438 C131.9219 108.3125 132.5312 107.4688 132.5312 106.3594 C132.5312 105.0156 131.7812 104.0781 130.1562 104.0781 C128.9062 104.0781 127.7969 104.7031 127.5938 105.9688 C127.7188 106.2031 127.9062 106.3438 128.1562 106.3438 C128.4688 106.3438 128.6562 106.1094 128.7969 105.5938 L129.0938 104.6719 C129.3906 104.5938 129.6562 104.5625 129.8906 104.5625 C130.9219 104.5625 131.5469 105.3125 131.5469 106.4219 C131.5469 107.4375 130.9844 108.4219 129.7031 109.9062 C129.125 110.5781 128.3906 111.4375 127.6406 112.2812 L127.6406 113 L132.9219 113 L132.9219 112.0938 L128.4219 112.0938 Z"
      /><rect x="110" y="113" width="8" style="fill:white; stroke:none;" height="8"
      /><path style="stroke:none;" d="M114.9844 118.7031 C114.9375 119.8906 114.1562 120.6562 113.3125 120.6562 C112.2656 120.6562 111.5 119.6875 111.5 117.7188 C111.5 116.2812 112.1562 115.1562 113.3438 115.1562 C114.1406 115.1562 114.7812 115.6875 115.0938 116.6406 L114.9844 118.7031 ZM116.9062 120.2812 C116.7344 120.375 116.5469 120.4219 116.3438 120.4219 C115.9531 120.4219 115.75 120.2188 115.75 119.4219 C115.75 118.4844 115.9688 116.5312 116.1875 114.8281 L116.0312 114.7188 L115.2344 114.9219 L115.1406 115.7969 C114.7812 115.0312 114.1562 114.6562 113.3906 114.6562 C112.0469 114.6562 110.5625 115.8438 110.5625 117.9531 C110.5625 120.0938 111.7188 121.1719 113.1406 121.1719 C114.0156 121.1719 114.6875 120.8125 115.0938 119.9844 C115.2031 120.8594 115.5156 121.1719 116.0156 121.1719 C116.4688 121.1719 116.7969 120.9062 117.0156 120.5625 L116.9062 120.2812 Z"
      /><rect x="120" y="86" width="6" style="fill:white; stroke:none;" height="10"
      /><path style="stroke:none;" d="M123.3438 95.6875 C122.2031 95.6875 121.5312 94.5 121.5312 92.2969 C121.5312 92.2188 121.5312 92.125 121.5312 92.0469 C122.0938 91.5 122.7188 91.3125 123.3438 91.3125 C124.3125 91.3125 124.9531 91.9844 124.9531 93.4531 C124.9531 94.9375 124.3125 95.6875 123.3438 95.6875 ZM125.5312 87.0781 C122.3438 87.4531 120.5625 89.7656 120.5625 92.4531 C120.5625 94.7812 121.6094 96.1719 123.3125 96.1719 C124.8438 96.1719 125.9219 95.1094 125.9219 93.2812 C125.9219 91.6875 124.9688 90.6562 123.5625 90.6562 C122.8281 90.6562 122.1406 90.9844 121.5781 91.5781 C121.7969 89.4062 123.0781 87.9688 125.5938 87.3906 L125.5312 87.0781 Z"
      /><rect x="103" y="79" width="8" style="fill:white; stroke:none;" height="8"
      /><path style="stroke:none;" d="M107.9844 84.7031 C107.9375 85.8906 107.1562 86.6562 106.3125 86.6562 C105.2656 86.6562 104.5 85.6875 104.5 83.7188 C104.5 82.2812 105.1562 81.1562 106.3438 81.1562 C107.1406 81.1562 107.7812 81.6875 108.0938 82.6406 L107.9844 84.7031 ZM109.9062 86.2812 C109.7344 86.375 109.5469 86.4219 109.3438 86.4219 C108.9531 86.4219 108.75 86.2188 108.75 85.4219 C108.75 84.4844 108.9688 82.5312 109.1875 80.8281 L109.0312 80.7188 L108.2344 80.9219 L108.1406 81.7969 C107.7812 81.0312 107.1562 80.6562 106.3906 80.6562 C105.0469 80.6562 103.5625 81.8438 103.5625 83.9531 C103.5625 86.0938 104.7188 87.1719 106.1406 87.1719 C107.0156 87.1719 107.6875 86.8125 108.0938 85.9844 C108.2031 86.8594 108.5156 87.1719 109.0156 87.1719 C109.4688 87.1719 109.7969 86.9062 110.0156 86.5625 L109.9062 86.2812 Z"
      /><circle style="fill:white; clip-path:url(#clipPath9); stroke:none;" r="11" cx="145" cy="41"
      /><rect x="134" y="30" width="22" style="clip-path:url(#clipPath9); fill:rgb(0,166,81); stroke:none;" height="22"
      /><rect x="134" y="30" width="22" style="fill:none; clip-path:url(#clipPath9);" height="22"
      /><circle r="11" style="fill:none;" cx="145" cy="41"
      /><rect x="179" y="78" width="6" style="fill:white; stroke:none;" height="10"
      /><path style="stroke:none;" d="M181.2344 79.6562 C181.5156 79.5938 181.7656 79.5625 182.0156 79.5625 C183.0625 79.5625 183.6719 80.1719 183.6719 81.2656 C183.6719 82.4375 182.9062 83.1094 181.7031 83.1094 L181.1875 83.1094 L181.1875 83.6406 L181.7969 83.6406 C183.2188 83.6406 183.9062 84.4219 183.9062 85.6406 C183.9062 86.8438 183.1719 87.6875 181.875 87.6875 C181.6094 87.6875 181.3125 87.6562 181.0156 87.5625 L180.7812 86.8125 C180.625 86.2812 180.5 86.0469 180.1406 86.0469 C179.8906 86.0469 179.7031 86.1719 179.5781 86.4219 C179.8438 87.6406 180.7812 88.1719 182.0312 88.1719 C183.7188 88.1719 184.875 87.125 184.875 85.7031 C184.875 84.5 184.2031 83.625 182.7969 83.375 C183.9531 83.0156 184.6094 82.2031 184.6094 81.2031 C184.6094 79.9219 183.6719 79.0781 182.1875 79.0781 C181.0469 79.0781 180.0625 79.5938 179.7969 80.6875 C179.9062 81 180.1094 81.1094 180.3594 81.1094 C180.7344 81.1094 180.8906 80.8906 181 80.4062 L181.2344 79.6562 Z"
      /><rect x="162" y="87" width="8" style="fill:white; stroke:none;" height="8"
      /><path style="stroke:none;" d="M166.9844 92.7031 C166.9375 93.8906 166.1562 94.6562 165.3125 94.6562 C164.2656 94.6562 163.5 93.6875 163.5 91.7188 C163.5 90.2812 164.1562 89.1562 165.3438 89.1562 C166.1406 89.1562 166.7812 89.6875 167.0938 90.6406 L166.9844 92.7031 ZM168.9062 94.2812 C168.7344 94.375 168.5469 94.4219 168.3438 94.4219 C167.9531 94.4219 167.75 94.2188 167.75 93.4219 C167.75 92.4844 167.9688 90.5312 168.1875 88.8281 L168.0312 88.7188 L167.2344 88.9219 L167.1406 89.7969 C166.7812 89.0312 166.1562 88.6562 165.3906 88.6562 C164.0469 88.6562 162.5625 89.8438 162.5625 91.9531 C162.5625 94.0938 163.7188 95.1719 165.1406 95.1719 C166.0156 95.1719 166.6875 94.8125 167.0938 93.9844 C167.2031 94.8594 167.5156 95.1719 168.0156 95.1719 C168.4688 95.1719 168.7969 94.9062 169.0156 94.5625 L168.9062 94.2812 Z"
      /><rect x="172" y="60" width="6" style="fill:white; stroke:none;" height="10"
      /><path style="stroke:none;" d="M175.3438 69.6875 C174.2031 69.6875 173.5312 68.5 173.5312 66.2969 C173.5312 66.2188 173.5312 66.125 173.5312 66.0469 C174.0938 65.5 174.7188 65.3125 175.3438 65.3125 C176.3125 65.3125 176.9531 65.9844 176.9531 67.4531 C176.9531 68.9375 176.3125 69.6875 175.3438 69.6875 ZM177.5312 61.0781 C174.3438 61.4531 172.5625 63.7656 172.5625 66.4531 C172.5625 68.7812 173.6094 70.1719 175.3125 70.1719 C176.8438 70.1719 177.9219 69.1094 177.9219 67.2812 C177.9219 65.6875 176.9688 64.6562 175.5625 64.6562 C174.8281 64.6562 174.1406 64.9844 173.5781 65.5781 C173.7969 63.4062 175.0781 61.9688 177.5938 61.3906 L177.5312 61.0781 Z"
      /><rect x="155" y="53" width="8" style="fill:white; stroke:none;" height="8"
      /><path style="stroke:none;" d="M159.9844 58.7031 C159.9375 59.8906 159.1562 60.6562 158.3125 60.6562 C157.2656 60.6562 156.5 59.6875 156.5 57.7188 C156.5 56.2812 157.1562 55.1562 158.3438 55.1562 C159.1406 55.1562 159.7812 55.6875 160.0938 56.6406 L159.9844 58.7031 ZM161.9062 60.2812 C161.7344 60.375 161.5469 60.4219 161.3438 60.4219 C160.9531 60.4219 160.75 60.2188 160.75 59.4219 C160.75 58.4844 160.9688 56.5312 161.1875 54.8281 L161.0312 54.7188 L160.2344 54.9219 L160.1406 55.7969 C159.7812 55.0312 159.1562 54.6562 158.3906 54.6562 C157.0469 54.6562 155.5625 55.8438 155.5625 57.9531 C155.5625 60.0938 156.7188 61.1719 158.1406 61.1719 C159.0156 61.1719 159.6875 60.8125 160.0938 59.9844 C160.2031 60.8594 160.5156 61.1719 161.0156 61.1719 C161.4688 61.1719 161.7969 60.9062 162.0156 60.5625 L161.9062 60.2812 Z"
      /><rect x="226" y="70" width="7" style="fill:white; stroke:none;" height="9"
      /><path style="stroke:none;" d="M227 75.5156 L229.9531 71.2656 L229.9531 75.5156 L227 75.5156 ZM232.2812 75.5156 L230.8594 75.5156 L230.8594 70.125 L230.2344 70.125 L226.3438 75.6406 L226.3438 76.1875 L229.9531 76.1875 L229.9531 79 L230.8594 79 L230.8594 76.1875 L232.2812 76.1875 L232.2812 75.5156 Z"
      /><rect x="213" y="68" width="6" style="fill:white; stroke:none;" height="13"
      /><path style="stroke:none;" d="M215.0938 74.2031 C215.0938 72.6562 215.75 71.8125 216.7969 71.8125 C217.7188 71.8125 218.2656 72.4531 218.2656 73.5156 C218.2656 74.7188 217.5 75.4375 216.1875 75.7031 L216.2969 76.3125 C218.2188 76.2344 218.9375 77.2188 218.9375 78.4375 C218.9375 79.625 218.2344 80.4219 216.9531 80.4219 C216.25 80.4219 215.6562 80.1562 215.0938 79.7188 L215.0938 74.2031 ZM214.2031 80.9062 L214.1094 83.375 L214.2656 83.4844 L215.1562 83.2656 L215.0156 80.0938 C215.5469 80.8438 216.3594 81.1719 217.1719 81.1719 C218.5625 81.1719 219.8594 80.2188 219.8594 78.4844 C219.8594 76.9531 218.875 76.1094 217.125 76 C218.5625 75.6094 219.1875 74.4531 219.1875 73.4844 C219.1875 72.0938 218.1562 71.3125 216.9062 71.3125 C215.2969 71.3125 214.2188 72.5469 214.2188 74.5156 L214.2031 80.9062 Z"
      /><rect x="278" y="70" width="7" style="fill:white; stroke:none;" height="9"
      /><path style="stroke:none;" d="M279 75.5156 L281.9531 71.2656 L281.9531 75.5156 L279 75.5156 ZM284.2812 75.5156 L282.8594 75.5156 L282.8594 70.125 L282.2344 70.125 L278.3438 75.6406 L278.3438 76.1875 L281.9531 76.1875 L281.9531 79 L282.8594 79 L282.8594 76.1875 L284.2812 76.1875 L284.2812 75.5156 Z"
      /><rect x="265" y="68" width="6" style="fill:white; stroke:none;" height="13"
      /><path style="stroke:none;" d="M267.0938 74.2031 C267.0938 72.6562 267.75 71.8125 268.7969 71.8125 C269.7188 71.8125 270.2656 72.4531 270.2656 73.5156 C270.2656 74.7188 269.5 75.4375 268.1875 75.7031 L268.2969 76.3125 C270.2188 76.2344 270.9375 77.2188 270.9375 78.4375 C270.9375 79.625 270.2344 80.4219 268.9531 80.4219 C268.25 80.4219 267.6562 80.1562 267.0938 79.7188 L267.0938 74.2031 ZM266.2031 80.9062 L266.1094 83.375 L266.2656 83.4844 L267.1562 83.2656 L267.0156 80.0938 C267.5469 80.8438 268.3594 81.1719 269.1719 81.1719 C270.5625 81.1719 271.8594 80.2188 271.8594 78.4844 C271.8594 76.9531 270.875 76.1094 269.125 76 C270.5625 75.6094 271.1875 74.4531 271.1875 73.4844 C271.1875 72.0938 270.1562 71.3125 268.9062 71.3125 C267.2969 71.3125 266.2188 72.5469 266.2188 74.5156 L266.2031 80.9062 Z"
      /><rect x="317" y="68" width="6" style="fill:white; stroke:none;" height="13"
      /><path style="stroke:none;" d="M319.0938 74.2031 C319.0938 72.6562 319.75 71.8125 320.7969 71.8125 C321.7188 71.8125 322.2656 72.4531 322.2656 73.5156 C322.2656 74.7188 321.5 75.4375 320.1875 75.7031 L320.2969 76.3125 C322.2188 76.2344 322.9375 77.2188 322.9375 78.4375 C322.9375 79.625 322.2344 80.4219 320.9531 80.4219 C320.25 80.4219 319.6562 80.1562 319.0938 79.7188 L319.0938 74.2031 ZM318.2031 80.9062 L318.1094 83.375 L318.2656 83.4844 L319.1562 83.2656 L319.0156 80.0938 C319.5469 80.8438 320.3594 81.1719 321.1719 81.1719 C322.5625 81.1719 323.8594 80.2188 323.8594 78.4844 C323.8594 76.9531 322.875 76.1094 321.125 76 C322.5625 75.6094 323.1875 74.4531 323.1875 73.4844 C323.1875 72.0938 322.1562 71.3125 320.9062 71.3125 C319.2969 71.3125 318.2188 72.5469 318.2188 74.5156 L318.2031 80.9062 Z"
    /></g
  ></g
></svg
>
