<?xml version="1.0"?>
<!DOCTYPE svg PUBLIC '-//W3C//DTD SVG 1.0//EN'
          'http://www.w3.org/TR/2001/REC-SVG-20010904/DTD/svg10.dtd'>
<svg xmlns:xlink="http://www.w3.org/1999/xlink" style="fill-opacity:1; color-rendering:auto; color-interpolation:auto; text-rendering:auto; stroke:black; stroke-linecap:square; stroke-miterlimit:10; shape-rendering:auto; stroke-opacity:1; fill:black; stroke-dasharray:none; font-weight:normal; stroke-width:1; font-family:'Dialog'; font-style:normal; stroke-linejoin:miter; font-size:12px; stroke-dashoffset:0; image-rendering:auto;" viewBox="0 0 186 105" xmlns="http://www.w3.org/2000/svg"
><!--Generated by the Batik Graphics2D SVG Generator--><defs id="genericDefs"
  /><g
  ><defs id="defs1"
    ><clipPath clipPathUnits="userSpaceOnUse" id="clipPath1"
      ><path d="M82 30 L104 30 L104 52 L82 52 L82 30 Z"
      /></clipPath
      ><clipPath clipPathUnits="userSpaceOnUse" id="clipPath2"
      ><path d="M30 30 L52 30 L52 52 L30 52 L30 30 Z"
      /></clipPath
    ></defs
    ><g style="fill:white; text-rendering:optimizeSpeed; stroke:white;"
    ><rect x="0" width="186" height="105" y="0" style="stroke:none;"
      /><polygon style="fill:none; stroke:black;" points=" 145 41 93 41"
      /><path d="M145 30 C139.5 35.5 150.5 46.5 145 52" style="fill:none; stroke:black;"
      /><polygon style="fill:none; stroke:black;" points=" 93 41 41 41"
      /><rect x="82" y="30" width="22" style="clip-path:url(#clipPath1); stroke:none;" height="22"
      /><rect x="82" y="30" width="22" style="clip-path:url(#clipPath1); fill:rgb(0,144,188); stroke:none;" height="22"
      /><rect x="82" y="30" width="22" style="clip-path:url(#clipPath1); fill:none; stroke:black;" height="22"
      /><rect x="82" y="30" width="22" style="fill:none; stroke:black;" height="22"
      /><rect x="85" y="58" width="15" style="stroke:none;" height="10"
    /></g
    ><g style="text-rendering:optimizeSpeed; font-size:14px; font-family:'SansSerif';"
    ><path style="stroke:none;" d="M86.2344 69 L91.8594 69 L91.8594 67.9375 L89.7969 67.9375 L89.7969 58.7188 L88.8281 58.7188 C88.2656 59.0625 87.6094 59.2969 86.6875 59.4688 L86.6875 60.2812 L88.5156 60.2812 L88.5156 67.9375 L86.2344 67.9375 L86.2344 69 ZM94.1762 69 L95.395 69 L95.395 63.6094 C95.395 62.5312 95.3012 61.4375 95.2543 60.4062 L95.3012 60.4062 L96.4106 62.5156 L100.145 69 L101.4731 69 L101.4731 58.7188 L100.2387 58.7188 L100.2387 64.0781 C100.2387 65.1406 100.3481 66.2812 100.4106 67.3125 L100.3481 67.3125 L99.2543 65.2031 L95.52 58.7188 L94.1762 58.7188 L94.1762 69 Z"
    /></g
    ><g style="fill:white; text-rendering:optimizeSpeed; stroke:white;"
    ><rect x="30" y="30" width="22" style="clip-path:url(#clipPath2); stroke:none;" height="22"
      /><rect x="30" y="30" width="22" style="clip-path:url(#clipPath2); fill:rgb(0,144,188); stroke:none;" height="22"
      /><rect x="30" y="30" width="22" style="clip-path:url(#clipPath2); fill:none; stroke:black;" height="22"
      /><rect x="30" y="30" width="22" style="fill:none; stroke:black;" height="22"
      /><rect x="70" width="7" height="9" y="44" style="stroke:none;"
      /><path d="M71 49.5156 L73.9531 45.2656 L73.9531 49.5156 L71 49.5156 ZM76.2812 49.5156 L74.8594 49.5156 L74.8594 44.125 L74.2344 44.125 L70.3438 49.6406 L70.3438 50.1875 L73.9531 50.1875 L73.9531 53 L74.8594 53 L74.8594 50.1875 L76.2812 50.1875 L76.2812 49.5156 Z" style="fill:black; stroke:none;"
      /><rect x="57" width="6" height="13" y="42" style="stroke:none;"
      /><path d="M59.0938 48.2031 C59.0938 46.6562 59.75 45.8125 60.7969 45.8125 C61.7188 45.8125 62.2656 46.4531 62.2656 47.5156 C62.2656 48.7188 61.5 49.4375 60.1875 49.7031 L60.2969 50.3125 C62.2188 50.2344 62.9375 51.2188 62.9375 52.4375 C62.9375 53.625 62.2344 54.4219 60.9531 54.4219 C60.25 54.4219 59.6562 54.1562 59.0938 53.7188 L59.0938 48.2031 ZM58.2031 54.9062 L58.1094 57.375 L58.2656 57.4844 L59.1562 57.2656 L59.0156 54.0938 C59.5469 54.8438 60.3594 55.1719 61.1719 55.1719 C62.5625 55.1719 63.8594 54.2188 63.8594 52.4844 C63.8594 50.9531 62.875 50.1094 61.125 50 C62.5625 49.6094 63.1875 48.4531 63.1875 47.4844 C63.1875 46.0938 62.1562 45.3125 60.9062 45.3125 C59.2969 45.3125 58.2188 46.5469 58.2188 48.5156 L58.2031 54.9062 Z" style="fill:black; stroke:none;"
      /><rect x="109" width="5" height="10" y="44" style="stroke:none;"
      /><path d="M110.8906 52.6875 C110.4844 52.6875 110.1562 53.0469 110.1562 53.4219 C110.1562 53.8125 110.4844 54.1562 110.8906 54.1562 C111.2969 54.1562 111.6406 53.8125 111.6406 53.4219 C111.6406 53.0469 111.2969 52.6875 110.8906 52.6875 ZM112.4688 46.5781 C112.7188 46.8906 112.875 47.2656 112.8906 47.6562 C112.8906 48.1875 112.625 48.5 112.0312 48.7656 L111.4062 49.0156 C110.6406 49.3125 110.3906 49.5469 110.3906 49.9375 C110.3906 50.1094 110.4531 50.3438 110.5781 50.8125 L110.7344 51.3438 L111.1094 51.3438 L111.0938 50.5312 C111.0938 50.0938 111.2031 49.9688 111.7812 49.7344 L112.2031 49.5625 C113.0312 49.2188 113.4531 48.6875 113.4531 47.8438 C113.4531 46.1562 111.6562 45.1875 110.5 45.0312 C110.1094 45.125 109.9062 45.2969 109.9062 45.6406 C109.9062 45.9375 110.0625 46.1562 110.7188 46.2656 L112.4688 46.5781 Z" style="fill:black; stroke:none;"
    /></g
  ></g
></svg
>
