<?xml version="1.0"?>
<!DOCTYPE svg PUBLIC '-//W3C//DTD SVG 1.0//EN'
          'http://www.w3.org/TR/2001/REC-SVG-20010904/DTD/svg10.dtd'>
<svg xmlns:xlink="http://www.w3.org/1999/xlink" style="fill-opacity:1; color-rendering:auto; color-interpolation:auto; text-rendering:auto; stroke:black; stroke-linecap:square; stroke-miterlimit:10; shape-rendering:auto; stroke-opacity:1; fill:black; stroke-dasharray:none; font-weight:normal; stroke-width:1; font-family:'Dialog'; font-style:normal; stroke-linejoin:miter; font-size:12px; stroke-dashoffset:0; image-rendering:auto;" viewBox="0 0 306 105" xmlns="http://www.w3.org/2000/svg"
><!--Generated by the Batik Graphics2D SVG Generator--><defs id="genericDefs"
  /><g
  ><defs id="defs1"
    ><clipPath clipPathUnits="userSpaceOnUse" id="clipPath1"
      ><path d="M202 53 L224 53 L224 75 L202 75 L202 53 Z"
      /></clipPath
      ><clipPath clipPathUnits="userSpaceOnUse" id="clipPath2"
      ><path d="M172 64 C172 70.0751 167.0751 75 161 75 C154.9249 75 150 70.0751 150 64 C150 57.9249 154.9249 53 161 53 C167.0751 53 172 57.9249 172 64 Z"
      /></clipPath
      ><clipPath clipPathUnits="userSpaceOnUse" id="clipPath3"
      ><path d="M120 64 C120 70.0751 115.0751 75 109 75 C102.9249 75 98 70.0751 98 64 C98 57.9249 102.9249 53 109 53 C115.0751 53 120 57.9249 120 64 Z"
      /></clipPath
      ><clipPath clipPathUnits="userSpaceOnUse" id="clipPath4"
      ><path d="M60 64 C60 70.0751 55.0751 75 49 75 C42.9249 75 38 70.0751 38 64 C38 57.9249 42.9249 53 49 53 C55.0751 53 60 57.9249 60 64 Z"
      /></clipPath
    ></defs
    ><g style="fill:white; text-rendering:optimizeSpeed; stroke:white;"
    ><rect x="0" width="306" height="105" y="0" style="stroke:none;"
      /><polygon style="fill:none; stroke:black;" points=" 265 64 213 64"
      /><path d="M265 53 C259.5 58.5 270.5 69.5 265 75" style="fill:none; stroke:black;"
      /><polygon style="fill:none; stroke:black;" points=" 213 64 161 64"
      /><rect x="202" y="53" width="22" style="clip-path:url(#clipPath1); stroke:none;" height="22"
      /><polygon style="fill:rgb(0,144,188); clip-path:url(#clipPath1); stroke:none;" points=" 202 53 224 53 224 75"
      /><polygon style="fill:none; clip-path:url(#clipPath1); stroke:black;" points=" 202 53 224 53 224 75"
      /><rect x="202" y="53" width="22" style="fill:none; stroke:black;" height="22"
      /><polygon style="fill:none; stroke:black;" points=" 161 64 109 64"
      /><circle style="clip-path:url(#clipPath2); stroke:none;" r="11" cx="161" cy="64"
      /><rect x="150" y="53" width="22" style="clip-path:url(#clipPath2); fill:rgb(0,166,81); stroke:none;" height="22"
      /><rect x="150" y="53" width="22" style="clip-path:url(#clipPath2); fill:none; stroke:black;" height="22"
      /><circle style="fill:none; stroke:black;" r="11" cx="161" cy="64"
      /><polygon style="fill:none; stroke:black;" points=" 109 64 49 64"
      /><circle style="clip-path:url(#clipPath3); stroke:none;" r="11" cx="109" cy="64"
      /><rect x="98" y="53" width="22" style="clip-path:url(#clipPath3); fill:rgb(0,166,81); stroke:none;" height="22"
      /><rect x="98" y="53" width="22" style="clip-path:url(#clipPath3); fill:none; stroke:black;" height="22"
      /><circle style="fill:none; stroke:black;" r="11" cx="109" cy="64"
      /><circle style="clip-path:url(#clipPath4); stroke:none;" r="11" cx="49" cy="64"
      /><rect x="38" y="53" width="22" style="clip-path:url(#clipPath4); fill:rgb(0,166,81); stroke:none;" height="22"
      /><rect x="38" y="53" width="22" style="clip-path:url(#clipPath4); fill:none; stroke:black;" height="22"
      /><circle style="fill:none; stroke:black;" r="11" cx="49" cy="64"
      /><rect x="30" y="35" width="36" style="stroke:none;" height="10"
    /></g
    ><g style="text-rendering:optimizeSpeed; font-size:14px; font-family:'SansSerif';"
    ><path style="stroke:none;" d="M34.1094 40.5781 C35.3438 40.5781 35.9688 41.4688 35.9688 42.8438 C35.9688 44.25 35.1875 45.1875 34.2188 45.1875 C32.9219 45.1875 32.1562 44.0312 32 41.8906 C32.625 40.9531 33.4531 40.5781 34.1094 40.5781 ZM34.2188 46.1875 C35.8125 46.1875 37.1562 44.8438 37.1562 42.8438 C37.1562 40.7031 36.0469 39.625 34.3125 39.625 C33.5 39.625 32.6094 40.1094 31.9688 40.875 C32.0312 37.6875 33.2188 36.6094 34.625 36.6094 C35.25 36.6094 35.8594 36.9062 36.2656 37.3906 L36.9688 36.5938 C36.4062 35.9844 35.6406 35.5469 34.5781 35.5469 C32.5938 35.5469 30.7812 37.0781 30.7812 41.0938 C30.7812 44.4844 32.2344 46.1875 34.2188 46.1875 ZM39.1762 46 L40.4731 46 L40.4731 41.9219 L42.1606 41.9219 C44.4262 41.9219 45.9418 40.9219 45.9418 38.75 C45.9418 36.5156 44.4106 35.7188 42.1137 35.7188 L39.1762 35.7188 L39.1762 46 ZM40.4731 40.875 L40.4731 36.7812 L41.9418 36.7812 C43.7543 36.7812 44.6606 37.2656 44.6606 38.75 C44.6606 40.2188 43.8012 40.875 42.0043 40.875 L40.4731 40.875 ZM48.0242 46 L54.0867 46 L54.0867 44.8906 L49.3211 44.8906 L49.3211 41.1562 L53.2117 41.1562 L53.2117 40.0469 L49.3211 40.0469 L49.3211 36.8281 L53.9461 36.8281 L53.9461 35.7188 L48.0242 35.7188 L48.0242 46 ZM58.5374 46.1875 C58.9905 46.1875 59.4905 46.0469 59.928 45.9062 L59.678 44.9531 C59.428 45.0469 59.0843 45.1406 58.8186 45.1406 C57.928 45.1406 57.6311 44.6094 57.6311 43.6719 L57.6311 39.4375 L59.6936 39.4375 L59.6936 38.3906 L57.6311 38.3906 L57.6311 36.25 L56.5686 36.25 L56.4124 38.3906 L55.2249 38.4688 L55.2249 39.4375 L56.3655 39.4375 L56.3655 43.6406 C56.3655 45.1562 56.9124 46.1875 58.5374 46.1875 ZM61.4091 46 L62.6904 46 L62.6904 40.4844 C63.456 39.7188 63.9873 39.3281 64.7685 39.3281 C65.7841 39.3281 66.2216 39.9219 66.2216 41.3594 L66.2216 46 L67.4873 46 L67.4873 41.1875 C67.4873 39.2344 66.7685 38.2031 65.1748 38.2031 C64.1279 38.2031 63.3466 38.7812 62.6123 39.4844 L62.581 39.4844 L62.4716 38.3906 L61.4091 38.3906 L61.4091 46 Z"
    /></g
    ><g style="fill:white; text-rendering:optimizeSpeed; font-family:'Serif'; stroke:white;"
    ><rect x="87" width="6" height="9" y="67" style="stroke:none;"
      /><path d="M88.4219 75.0938 C89.0781 74.375 89.7031 73.7188 90.0312 73.3438 C91.9219 71.3125 92.5312 70.4688 92.5312 69.3594 C92.5312 68.0156 91.7812 67.0781 90.1562 67.0781 C88.9062 67.0781 87.7969 67.7031 87.5938 68.9688 C87.7188 69.2031 87.9062 69.3438 88.1562 69.3438 C88.4688 69.3438 88.6562 69.1094 88.7969 68.5938 L89.0938 67.6719 C89.3906 67.5938 89.6562 67.5625 89.8906 67.5625 C90.9219 67.5625 91.5469 68.3125 91.5469 69.4219 C91.5469 70.4375 90.9844 71.4219 89.7031 72.9062 C89.125 73.5781 88.3906 74.4375 87.6406 75.2812 L87.6406 76 L92.9219 76 L92.9219 75.0938 L88.4219 75.0938 Z" style="fill:black; stroke:none;"
      /><rect x="72" width="8" height="8" y="68" style="stroke:none;"
      /><path d="M76.9844 73.7031 C76.9375 74.8906 76.1562 75.6562 75.3125 75.6562 C74.2656 75.6562 73.5 74.6875 73.5 72.7188 C73.5 71.2812 74.1562 70.1562 75.3438 70.1562 C76.1406 70.1562 76.7812 70.6875 77.0938 71.6406 L76.9844 73.7031 ZM78.9062 75.2812 C78.7344 75.375 78.5469 75.4219 78.3438 75.4219 C77.9531 75.4219 77.75 75.2188 77.75 74.4219 C77.75 73.4844 77.9688 71.5312 78.1875 69.8281 L78.0312 69.7188 L77.2344 69.9219 L77.1406 70.7969 C76.7812 70.0312 76.1562 69.6562 75.3906 69.6562 C74.0469 69.6562 72.5625 70.8438 72.5625 72.9531 C72.5625 75.0938 73.7188 76.1719 75.1406 76.1719 C76.0156 76.1719 76.6875 75.8125 77.0938 74.9844 C77.2031 75.8594 77.5156 76.1719 78.0156 76.1719 C78.4688 76.1719 78.7969 75.9062 79.0156 75.5625 L78.9062 75.2812 Z" style="fill:black; stroke:none;"
      /><rect x="139" width="6" height="10" y="67" style="stroke:none;"
      /><path d="M142.3438 76.6875 C141.2031 76.6875 140.5312 75.5 140.5312 73.2969 C140.5312 73.2188 140.5312 73.125 140.5312 73.0469 C141.0938 72.5 141.7188 72.3125 142.3438 72.3125 C143.3125 72.3125 143.9531 72.9844 143.9531 74.4531 C143.9531 75.9375 143.3125 76.6875 142.3438 76.6875 ZM144.5312 68.0781 C141.3438 68.4531 139.5625 70.7656 139.5625 73.4531 C139.5625 75.7812 140.6094 77.1719 142.3125 77.1719 C143.8438 77.1719 144.9219 76.1094 144.9219 74.2812 C144.9219 72.6875 143.9688 71.6562 142.5625 71.6562 C141.8281 71.6562 141.1406 71.9844 140.5781 72.5781 C140.7969 70.4062 142.0781 68.9688 144.5938 68.3906 L144.5312 68.0781 Z" style="fill:black; stroke:none;"
      /><rect x="124" width="8" height="8" y="68" style="stroke:none;"
      /><path d="M128.9844 73.7031 C128.9375 74.8906 128.1562 75.6562 127.3125 75.6562 C126.2656 75.6562 125.5 74.6875 125.5 72.7188 C125.5 71.2812 126.1562 70.1562 127.3438 70.1562 C128.1406 70.1562 128.7812 70.6875 129.0938 71.6406 L128.9844 73.7031 ZM130.9062 75.2812 C130.7344 75.375 130.5469 75.4219 130.3438 75.4219 C129.9531 75.4219 129.75 75.2188 129.75 74.4219 C129.75 73.4844 129.9688 71.5312 130.1875 69.8281 L130.0312 69.7188 L129.2344 69.9219 L129.1406 70.7969 C128.7812 70.0312 128.1562 69.6562 127.3906 69.6562 C126.0469 69.6562 124.5625 70.8438 124.5625 72.9531 C124.5625 75.0938 125.7188 76.1719 127.1406 76.1719 C128.0156 76.1719 128.6875 75.8125 129.0938 74.9844 C129.2031 75.8594 129.5156 76.1719 130.0156 76.1719 C130.4688 76.1719 130.7969 75.9062 131.0156 75.5625 L130.9062 75.2812 Z" style="fill:black; stroke:none;"
      /><rect x="190" width="7" height="9" y="67" style="stroke:none;"
      /><path d="M191 72.5156 L193.9531 68.2656 L193.9531 72.5156 L191 72.5156 ZM196.2812 72.5156 L194.8594 72.5156 L194.8594 67.125 L194.2344 67.125 L190.3438 72.6406 L190.3438 73.1875 L193.9531 73.1875 L193.9531 76 L194.8594 76 L194.8594 73.1875 L196.2812 73.1875 L196.2812 72.5156 Z" style="fill:black; stroke:none;"
      /><rect x="176" width="8" height="8" y="68" style="stroke:none;"
      /><path d="M180.9844 73.7031 C180.9375 74.8906 180.1562 75.6562 179.3125 75.6562 C178.2656 75.6562 177.5 74.6875 177.5 72.7188 C177.5 71.2812 178.1562 70.1562 179.3438 70.1562 C180.1406 70.1562 180.7812 70.6875 181.0938 71.6406 L180.9844 73.7031 ZM182.9062 75.2812 C182.7344 75.375 182.5469 75.4219 182.3438 75.4219 C181.9531 75.4219 181.75 75.2188 181.75 74.4219 C181.75 73.4844 181.9688 71.5312 182.1875 69.8281 L182.0312 69.7188 L181.2344 69.9219 L181.1406 70.7969 C180.7812 70.0312 180.1562 69.6562 179.3906 69.6562 C178.0469 69.6562 176.5625 70.8438 176.5625 72.9531 C176.5625 75.0938 177.7188 76.1719 179.1406 76.1719 C180.0156 76.1719 180.6875 75.8125 181.0938 74.9844 C181.2031 75.8594 181.5156 76.1719 182.0156 76.1719 C182.4688 76.1719 182.7969 75.9062 183.0156 75.5625 L182.9062 75.2812 Z" style="fill:black; stroke:none;"
      /><rect x="228" width="8" height="8" y="68" style="stroke:none;"
      /><path d="M232.9844 73.7031 C232.9375 74.8906 232.1562 75.6562 231.3125 75.6562 C230.2656 75.6562 229.5 74.6875 229.5 72.7188 C229.5 71.2812 230.1562 70.1562 231.3438 70.1562 C232.1406 70.1562 232.7812 70.6875 233.0938 71.6406 L232.9844 73.7031 ZM234.9062 75.2812 C234.7344 75.375 234.5469 75.4219 234.3438 75.4219 C233.9531 75.4219 233.75 75.2188 233.75 74.4219 C233.75 73.4844 233.9688 71.5312 234.1875 69.8281 L234.0312 69.7188 L233.2344 69.9219 L233.1406 70.7969 C232.7812 70.0312 232.1562 69.6562 231.3906 69.6562 C230.0469 69.6562 228.5625 70.8438 228.5625 72.9531 C228.5625 75.0938 229.7188 76.1719 231.1406 76.1719 C232.0156 76.1719 232.6875 75.8125 233.0938 74.9844 C233.2031 75.8594 233.5156 76.1719 234.0156 76.1719 C234.4688 76.1719 234.7969 75.9062 235.0156 75.5625 L234.9062 75.2812 Z" style="fill:black; stroke:none;"
    /></g
  ></g
></svg
>
