<?xml version="1.0"?>
<!DOCTYPE svg PUBLIC '-//W3C//DTD SVG 1.0//EN'
          'http://www.w3.org/TR/2001/REC-SVG-20010904/DTD/svg10.dtd'>
<svg xmlns:xlink="http://www.w3.org/1999/xlink" style="fill-opacity:1; color-rendering:auto; color-interpolation:auto; text-rendering:auto; stroke:black; stroke-linecap:square; stroke-miterlimit:10; shape-rendering:auto; stroke-opacity:1; fill:black; stroke-dasharray:none; font-weight:normal; stroke-width:1; font-family:'Dialog'; font-style:normal; stroke-linejoin:miter; font-size:12px; stroke-dashoffset:0; image-rendering:auto;" viewBox="0 0 394 186" xmlns="http://www.w3.org/2000/svg"
><!--Generated by the Batik Graphics2D SVG Generator--><defs id="genericDefs"
  /><g
  ><defs id="defs1"
    ><clipPath clipPathUnits="userSpaceOnUse" id="clipPath1"
      ><path d="M312 67 C312 73.0751 307.0751 78 301 78 C294.9249 78 290 73.0751 290 67 C290 60.9249 294.9249 56 301 56 C307.0751 56 312 60.9249 312 67 Z"
      /></clipPath
      ><clipPath clipPathUnits="userSpaceOnUse" id="clipPath2"
      ><path d="M260 67 C260 73.0751 255.0751 78 249 78 C242.9249 78 238 73.0751 238 67 C238 60.9249 242.9249 56 249 56 C255.0751 56 260 60.9249 260 67 Z"
      /></clipPath
      ><clipPath clipPathUnits="userSpaceOnUse" id="clipPath3"
      ><path d="M186 82 L208 82 L208 104 L186 104 L186 82 Z"
      /></clipPath
      ><clipPath clipPathUnits="userSpaceOnUse" id="clipPath4"
      ><path style="fill-rule:evenodd;" d="M197 134 L208 156 L186 156 Z"
      /></clipPath
      ><clipPath clipPathUnits="userSpaceOnUse" id="clipPath5"
      ><path d="M156 93 C156 99.0751 151.0751 104 145 104 C138.9249 104 134 99.0751 134 93 C134 86.9249 138.9249 82 145 82 C151.0751 82 156 86.9249 156 93 Z"
      /></clipPath
      ><clipPath clipPathUnits="userSpaceOnUse" id="clipPath6"
      ><path d="M186 30 L208 30 L208 52 L186 52 L186 30 Z"
      /></clipPath
      ><clipPath clipPathUnits="userSpaceOnUse" id="clipPath7"
      ><path d="M156 41 C156 47.0751 151.0751 52 145 52 C138.9249 52 134 47.0751 134 41 C134 34.9249 138.9249 30 145 30 C151.0751 30 156 34.9249 156 41 Z"
      /></clipPath
      ><clipPath clipPathUnits="userSpaceOnUse" id="clipPath8"
      ><path d="M82 30 L104 30 L104 52 L82 52 L82 30 Z"
      /></clipPath
      ><clipPath clipPathUnits="userSpaceOnUse" id="clipPath9"
      ><path d="M52 41 C52 47.0751 47.0751 52 41 52 C34.9249 52 30 47.0751 30 41 C30 34.9249 34.9249 30 41 30 C47.0751 30 52 34.9249 52 41 Z"
      /></clipPath
      ><clipPath clipPathUnits="userSpaceOnUse" id="clipPath10"
      ><path style="fill-rule:evenodd;" d="M41 82 L52 104 L30 104 Z"
      /></clipPath
    ></defs
    ><g style="fill:white; text-rendering:optimizeSpeed; stroke:white;"
    ><rect x="0" width="394" height="186" y="0" style="stroke:none;"
      /><polygon style="fill:none; stroke:black;" points=" 353 67 301 67"
      /><path d="M353 56 C347.5 61.5 358.5 72.5 353 78" style="fill:none; stroke:black;"
      /><polygon style="fill:none; stroke:black;" points=" 301 67 249 67"
      /><circle style="clip-path:url(#clipPath1); stroke:none;" r="11" cx="301" cy="67"
      /><rect x="290" y="56" width="22" style="clip-path:url(#clipPath1); fill:rgb(0,144,188); stroke:none;" height="22"
      /><rect x="290" y="56" width="22" style="clip-path:url(#clipPath1); fill:none; stroke:black;" height="22"
      /><circle style="fill:none; stroke:black;" r="11" cx="301" cy="67"
      /><polygon style="fill:none; stroke:black;" points=" 249 67 197 93"
      /><polygon style="fill:none; stroke:black;" points=" 249 67 197 41"
      /><circle style="clip-path:url(#clipPath2); stroke:none;" r="11" cx="249" cy="67"
      /><rect x="238" y="56" width="22" style="clip-path:url(#clipPath2); fill:rgb(255,212,0); stroke:none;" height="22"
      /><rect x="238" y="56" width="22" style="clip-path:url(#clipPath2); fill:none; stroke:black;" height="22"
      /><circle style="fill:none; stroke:black;" r="11" cx="249" cy="67"
      /><polygon style="fill:none; stroke:black;" points=" 197 93 197 145"
      /><polygon style="fill:none; stroke:black;" points=" 197 93 145 93"
      /><rect x="186" y="82" width="22" style="clip-path:url(#clipPath3); stroke:none;" height="22"
      /><rect x="186" y="82" width="22" style="clip-path:url(#clipPath3); fill:rgb(0,144,188); stroke:none;" height="22"
      /><rect x="186" y="82" width="22" style="clip-path:url(#clipPath3); fill:none; stroke:black;" height="22"
      /><rect x="186" y="82" width="22" style="fill:none; stroke:black;" height="22"
      /><polygon style="clip-path:url(#clipPath4); stroke:none;" points=" 197 134 208 156 186 156"
      /><rect x="186" y="134" width="22" style="clip-path:url(#clipPath4); fill:rgb(237,28,36); stroke:none;" height="22"
      /><rect x="186" y="134" width="22" style="clip-path:url(#clipPath4); fill:none; stroke:black;" height="22"
      /><polygon style="fill:none; stroke:black;" points=" 197 134 208 156 186 156"
      /><circle style="clip-path:url(#clipPath5); stroke:none;" r="11" cx="145" cy="93"
      /><rect x="134" y="82" width="22" style="clip-path:url(#clipPath5); fill:rgb(255,212,0); stroke:none;" height="22"
      /><rect x="134" y="82" width="22" style="clip-path:url(#clipPath5); fill:none; stroke:black;" height="22"
      /><circle style="fill:none; stroke:black;" r="11" cx="145" cy="93"
      /><rect x="202" y="107" width="6" style="stroke:none;" height="10"
    /></g
    ><g style="font-family:'Serif'; text-rendering:optimizeSpeed; "
    ><path style="stroke:none;" d="M204.2344 108.6562 C204.5156 108.5938 204.7656 108.5625 205.0156 108.5625 C206.0625 108.5625 206.6719 109.1719 206.6719 110.2656 C206.6719 111.4375 205.9062 112.1094 204.7031 112.1094 L204.1875 112.1094 L204.1875 112.6406 L204.7969 112.6406 C206.2188 112.6406 206.9062 113.4219 206.9062 114.6406 C206.9062 115.8438 206.1719 116.6875 204.875 116.6875 C204.6094 116.6875 204.3125 116.6562 204.0156 116.5625 L203.7812 115.8125 C203.625 115.2812 203.5 115.0469 203.1406 115.0469 C202.8906 115.0469 202.7031 115.1719 202.5781 115.4219 C202.8438 116.6406 203.7812 117.1719 205.0312 117.1719 C206.7188 117.1719 207.875 116.125 207.875 114.7031 C207.875 113.5 207.2031 112.625 205.7969 112.375 C206.9531 112.0156 207.6094 111.2031 207.6094 110.2031 C207.6094 108.9219 206.6719 108.0781 205.1875 108.0781 C204.0469 108.0781 203.0625 108.5938 202.7969 109.6875 C202.9062 110 203.1094 110.1094 203.3594 110.1094 C203.7344 110.1094 203.8906 109.8906 204 109.4062 L204.2344 108.6562 Z"
      /><rect x="201" y="122" width="8" style="fill:white; stroke:none;" height="8"
      /><path style="stroke:none;" d="M205.9844 127.7031 C205.9375 128.8906 205.1562 129.6562 204.3125 129.6562 C203.2656 129.6562 202.5 128.6875 202.5 126.7188 C202.5 125.2812 203.1562 124.1562 204.3438 124.1562 C205.1406 124.1562 205.7812 124.6875 206.0938 125.6406 L205.9844 127.7031 ZM207.9062 129.2812 C207.7344 129.375 207.5469 129.4219 207.3438 129.4219 C206.9531 129.4219 206.75 129.2188 206.75 128.4219 C206.75 127.4844 206.9688 125.5312 207.1875 123.8281 L207.0312 123.7188 L206.2344 123.9219 L206.1406 124.7969 C205.7812 124.0312 205.1562 123.6562 204.3906 123.6562 C203.0469 123.6562 201.5625 124.8438 201.5625 126.9531 C201.5625 129.0938 202.7188 130.1719 204.1406 130.1719 C205.0156 130.1719 205.6875 129.8125 206.0938 128.9844 C206.2031 129.8594 206.5156 130.1719 207.0156 130.1719 C207.4688 130.1719 207.7969 129.9062 208.0156 129.5625 L207.9062 129.2812 Z"
      /><rect x="174" y="96" width="7" style="fill:white; stroke:none;" height="9"
      /><path style="stroke:none;" d="M175 101.5156 L177.9531 97.2656 L177.9531 101.5156 L175 101.5156 ZM180.2812 101.5156 L178.8594 101.5156 L178.8594 96.125 L178.2344 96.125 L174.3438 101.6406 L174.3438 102.1875 L177.9531 102.1875 L177.9531 105 L178.8594 105 L178.8594 102.1875 L180.2812 102.1875 L180.2812 101.5156 Z"
      /><rect x="161" y="94" width="6" style="fill:white; stroke:none;" height="13"
      /><path style="stroke:none;" d="M163.0938 100.2031 C163.0938 98.6562 163.75 97.8125 164.7969 97.8125 C165.7188 97.8125 166.2656 98.4531 166.2656 99.5156 C166.2656 100.7188 165.5 101.4375 164.1875 101.7031 L164.2969 102.3125 C166.2188 102.2344 166.9375 103.2188 166.9375 104.4375 C166.9375 105.625 166.2344 106.4219 164.9531 106.4219 C164.25 106.4219 163.6562 106.1562 163.0938 105.7188 L163.0938 100.2031 ZM162.2031 106.9062 L162.1094 109.375 L162.2656 109.4844 L163.1562 109.2656 L163.0156 106.0938 C163.5469 106.8438 164.3594 107.1719 165.1719 107.1719 C166.5625 107.1719 167.8594 106.2188 167.8594 104.4844 C167.8594 102.9531 166.875 102.1094 165.125 102 C166.5625 101.6094 167.1875 100.4531 167.1875 99.4844 C167.1875 98.0938 166.1562 97.3125 164.9062 97.3125 C163.2969 97.3125 162.2188 98.5469 162.2188 100.5156 L162.2031 106.9062 Z"
      /><polygon style="fill:none;" points=" 197 41 145 41"
      /><rect x="186" y="30" width="22" style="clip-path:url(#clipPath6); fill:white; stroke:none;" height="22"
      /><rect x="186" y="30" width="22" style="clip-path:url(#clipPath6); fill:rgb(0,144,188); stroke:none;" height="22"
      /><rect x="186" y="30" width="22" style="fill:none; clip-path:url(#clipPath6);" height="22"
      /><rect x="186" width="22" height="22" y="30" style="fill:none;"
      /><polygon style="fill:none;" points=" 145 41 93 41"
      /><circle style="fill:white; clip-path:url(#clipPath7); stroke:none;" r="11" cx="145" cy="41"
      /><rect x="134" y="30" width="22" style="clip-path:url(#clipPath7); fill:rgb(255,212,0); stroke:none;" height="22"
      /><rect x="134" y="30" width="22" style="fill:none; clip-path:url(#clipPath7);" height="22"
      /><circle r="11" style="fill:none;" cx="145" cy="41"
      /><polygon style="fill:none;" points=" 93 41 41 41"
      /><rect x="82" y="30" width="22" style="clip-path:url(#clipPath8); fill:white; stroke:none;" height="22"
      /><rect x="82" y="30" width="22" style="clip-path:url(#clipPath8); fill:rgb(0,144,188); stroke:none;" height="22"
      /><rect x="82" y="30" width="22" style="fill:none; clip-path:url(#clipPath8);" height="22"
      /><rect x="82" width="22" height="22" y="30" style="fill:none;"
      /><polygon style="fill:none;" points=" 41 41 41 93"
      /><circle style="fill:white; clip-path:url(#clipPath9); stroke:none;" r="11" cx="41" cy="41"
      /><rect x="30" y="30" width="22" style="clip-path:url(#clipPath9); fill:rgb(255,212,0); stroke:none;" height="22"
      /><rect x="30" y="30" width="22" style="fill:none; clip-path:url(#clipPath9);" height="22"
      /><circle r="11" style="fill:none;" cx="41" cy="41"
      /><polygon style="fill:white; clip-path:url(#clipPath10); stroke:none;" points=" 41 82 52 104 30 104"
      /><rect x="30" y="82" width="22" style="clip-path:url(#clipPath10); fill:rgb(237,28,36); stroke:none;" height="22"
      /><rect x="30" y="82" width="22" style="fill:none; clip-path:url(#clipPath10);" height="22"
      /><polygon style="fill:none;" points=" 41 82 52 104 30 104"
      /><rect x="46" y="55" width="6" style="fill:white; stroke:none;" height="9"
      /><path style="stroke:none;" d="M47.4219 63.0938 C48.0781 62.375 48.7031 61.7188 49.0312 61.3438 C50.9219 59.3125 51.5312 58.4688 51.5312 57.3594 C51.5312 56.0156 50.7812 55.0781 49.1562 55.0781 C47.9062 55.0781 46.7969 55.7031 46.5938 56.9688 C46.7188 57.2031 46.9062 57.3438 47.1562 57.3438 C47.4688 57.3438 47.6562 57.1094 47.7969 56.5938 L48.0938 55.6719 C48.3906 55.5938 48.6562 55.5625 48.8906 55.5625 C49.9219 55.5625 50.5469 56.3125 50.5469 57.4219 C50.5469 58.4375 49.9844 59.4219 48.7031 60.9062 C48.125 61.5781 47.3906 62.4375 46.6406 63.2812 L46.6406 64 L51.9219 64 L51.9219 63.0938 L47.4219 63.0938 Z"
      /><rect x="45" y="70" width="8" style="fill:white; stroke:none;" height="8"
      /><path style="stroke:none;" d="M49.9844 75.7031 C49.9375 76.8906 49.1562 77.6562 48.3125 77.6562 C47.2656 77.6562 46.5 76.6875 46.5 74.7188 C46.5 73.2812 47.1562 72.1562 48.3438 72.1562 C49.1406 72.1562 49.7812 72.6875 50.0938 73.6406 L49.9844 75.7031 ZM51.9062 77.2812 C51.7344 77.375 51.5469 77.4219 51.3438 77.4219 C50.9531 77.4219 50.75 77.2188 50.75 76.4219 C50.75 75.4844 50.9688 73.5312 51.1875 71.8281 L51.0312 71.7188 L50.2344 71.9219 L50.1406 72.7969 C49.7812 72.0312 49.1562 71.6562 48.3906 71.6562 C47.0469 71.6562 45.5625 72.8438 45.5625 74.9531 C45.5625 77.0938 46.7188 78.1719 48.1406 78.1719 C49.0156 78.1719 49.6875 77.8125 50.0938 76.9844 C50.2031 77.8594 50.5156 78.1719 51.0156 78.1719 C51.4688 78.1719 51.7969 77.9062 52.0156 77.5625 L51.9062 77.2812 Z"
      /><rect x="70" y="44" width="7" style="fill:white; stroke:none;" height="9"
      /><path style="stroke:none;" d="M71 49.5156 L73.9531 45.2656 L73.9531 49.5156 L71 49.5156 ZM76.2812 49.5156 L74.8594 49.5156 L74.8594 44.125 L74.2344 44.125 L70.3438 49.6406 L70.3438 50.1875 L73.9531 50.1875 L73.9531 53 L74.8594 53 L74.8594 50.1875 L76.2812 50.1875 L76.2812 49.5156 Z"
      /><rect x="57" y="42" width="6" style="fill:white; stroke:none;" height="13"
      /><path style="stroke:none;" d="M59.0938 48.2031 C59.0938 46.6562 59.75 45.8125 60.7969 45.8125 C61.7188 45.8125 62.2656 46.4531 62.2656 47.5156 C62.2656 48.7188 61.5 49.4375 60.1875 49.7031 L60.2969 50.3125 C62.2188 50.2344 62.9375 51.2188 62.9375 52.4375 C62.9375 53.625 62.2344 54.4219 60.9531 54.4219 C60.25 54.4219 59.6562 54.1562 59.0938 53.7188 L59.0938 48.2031 ZM58.2031 54.9062 L58.1094 57.375 L58.2656 57.4844 L59.1562 57.2656 L59.0156 54.0938 C59.5469 54.8438 60.3594 55.1719 61.1719 55.1719 C62.5625 55.1719 63.8594 54.2188 63.8594 52.4844 C63.8594 50.9531 62.875 50.1094 61.125 50 C62.5625 49.6094 63.1875 48.4531 63.1875 47.4844 C63.1875 46.0938 62.1562 45.3125 60.9062 45.3125 C59.2969 45.3125 58.2188 46.5469 58.2188 48.5156 L58.2031 54.9062 Z"
      /><rect x="123" y="44" width="6" style="fill:white; stroke:none;" height="10"
      /><path style="stroke:none;" d="M125.2344 45.6562 C125.5156 45.5938 125.7656 45.5625 126.0156 45.5625 C127.0625 45.5625 127.6719 46.1719 127.6719 47.2656 C127.6719 48.4375 126.9062 49.1094 125.7031 49.1094 L125.1875 49.1094 L125.1875 49.6406 L125.7969 49.6406 C127.2188 49.6406 127.9062 50.4219 127.9062 51.6406 C127.9062 52.8438 127.1719 53.6875 125.875 53.6875 C125.6094 53.6875 125.3125 53.6562 125.0156 53.5625 L124.7812 52.8125 C124.625 52.2812 124.5 52.0469 124.1406 52.0469 C123.8906 52.0469 123.7031 52.1719 123.5781 52.4219 C123.8438 53.6406 124.7812 54.1719 126.0312 54.1719 C127.7188 54.1719 128.875 53.125 128.875 51.7031 C128.875 50.5 128.2031 49.625 126.7969 49.375 C127.9531 49.0156 128.6094 48.2031 128.6094 47.2031 C128.6094 45.9219 127.6719 45.0781 126.1875 45.0781 C125.0469 45.0781 124.0625 45.5938 123.7969 46.6875 C123.9062 47 124.1094 47.1094 124.3594 47.1094 C124.7344 47.1094 124.8906 46.8906 125 46.4062 L125.2344 45.6562 Z"
      /><rect x="109" y="42" width="6" style="fill:white; stroke:none;" height="13"
      /><path style="stroke:none;" d="M111.0938 48.2031 C111.0938 46.6562 111.75 45.8125 112.7969 45.8125 C113.7188 45.8125 114.2656 46.4531 114.2656 47.5156 C114.2656 48.7188 113.5 49.4375 112.1875 49.7031 L112.2969 50.3125 C114.2188 50.2344 114.9375 51.2188 114.9375 52.4375 C114.9375 53.625 114.2344 54.4219 112.9531 54.4219 C112.25 54.4219 111.6562 54.1562 111.0938 53.7188 L111.0938 48.2031 ZM110.2031 54.9062 L110.1094 57.375 L110.2656 57.4844 L111.1562 57.2656 L111.0156 54.0938 C111.5469 54.8438 112.3594 55.1719 113.1719 55.1719 C114.5625 55.1719 115.8594 54.2188 115.8594 52.4844 C115.8594 50.9531 114.875 50.1094 113.125 50 C114.5625 49.6094 115.1875 48.4531 115.1875 47.4844 C115.1875 46.0938 114.1562 45.3125 112.9062 45.3125 C111.2969 45.3125 110.2188 46.5469 110.2188 48.5156 L110.2031 54.9062 Z"
      /><rect x="174" y="44" width="7" style="fill:white; stroke:none;" height="9"
      /><path style="stroke:none;" d="M175 49.5156 L177.9531 45.2656 L177.9531 49.5156 L175 49.5156 ZM180.2812 49.5156 L178.8594 49.5156 L178.8594 44.125 L178.2344 44.125 L174.3438 49.6406 L174.3438 50.1875 L177.9531 50.1875 L177.9531 53 L178.8594 53 L178.8594 50.1875 L180.2812 50.1875 L180.2812 49.5156 Z"
      /><rect x="161" y="42" width="6" style="fill:white; stroke:none;" height="13"
      /><path style="stroke:none;" d="M163.0938 48.2031 C163.0938 46.6562 163.75 45.8125 164.7969 45.8125 C165.7188 45.8125 166.2656 46.4531 166.2656 47.5156 C166.2656 48.7188 165.5 49.4375 164.1875 49.7031 L164.2969 50.3125 C166.2188 50.2344 166.9375 51.2188 166.9375 52.4375 C166.9375 53.625 166.2344 54.4219 164.9531 54.4219 C164.25 54.4219 163.6562 54.1562 163.0938 53.7188 L163.0938 48.2031 ZM162.2031 54.9062 L162.1094 57.375 L162.2656 57.4844 L163.1562 57.2656 L163.0156 54.0938 C163.5469 54.8438 164.3594 55.1719 165.1719 55.1719 C166.5625 55.1719 167.8594 54.2188 167.8594 52.4844 C167.8594 50.9531 166.875 50.1094 165.125 50 C166.5625 49.6094 167.1875 48.4531 167.1875 47.4844 C167.1875 46.0938 166.1562 45.3125 164.9062 45.3125 C163.2969 45.3125 162.2188 46.5469 162.2188 48.5156 L162.2031 54.9062 Z"
      /><rect x="231" y="78" width="6" style="fill:white; stroke:none;" height="10"
      /><path style="stroke:none;" d="M233.2344 79.6562 C233.5156 79.5938 233.7656 79.5625 234.0156 79.5625 C235.0625 79.5625 235.6719 80.1719 235.6719 81.2656 C235.6719 82.4375 234.9062 83.1094 233.7031 83.1094 L233.1875 83.1094 L233.1875 83.6406 L233.7969 83.6406 C235.2188 83.6406 235.9062 84.4219 235.9062 85.6406 C235.9062 86.8438 235.1719 87.6875 233.875 87.6875 C233.6094 87.6875 233.3125 87.6562 233.0156 87.5625 L232.7812 86.8125 C232.625 86.2812 232.5 86.0469 232.1406 86.0469 C231.8906 86.0469 231.7031 86.1719 231.5781 86.4219 C231.8438 87.6406 232.7812 88.1719 234.0312 88.1719 C235.7188 88.1719 236.875 87.125 236.875 85.7031 C236.875 84.5 236.2031 83.625 234.7969 83.375 C235.9531 83.0156 236.6094 82.2031 236.6094 81.2031 C236.6094 79.9219 235.6719 79.0781 234.1875 79.0781 C233.0469 79.0781 232.0625 79.5938 231.7969 80.6875 C231.9062 81 232.1094 81.1094 232.3594 81.1094 C232.7344 81.1094 232.8906 80.8906 233 80.4062 L233.2344 79.6562 Z"
      /><rect x="215" y="84" width="6" style="fill:white; stroke:none;" height="13"
      /><path style="stroke:none;" d="M217.0938 90.2031 C217.0938 88.6562 217.75 87.8125 218.7969 87.8125 C219.7188 87.8125 220.2656 88.4531 220.2656 89.5156 C220.2656 90.7188 219.5 91.4375 218.1875 91.7031 L218.2969 92.3125 C220.2188 92.2344 220.9375 93.2188 220.9375 94.4375 C220.9375 95.625 220.2344 96.4219 218.9531 96.4219 C218.25 96.4219 217.6562 96.1562 217.0938 95.7188 L217.0938 90.2031 ZM216.2031 96.9062 L216.1094 99.375 L216.2656 99.4844 L217.1562 99.2656 L217.0156 96.0938 C217.5469 96.8438 218.3594 97.1719 219.1719 97.1719 C220.5625 97.1719 221.8594 96.2188 221.8594 94.4844 C221.8594 92.9531 220.875 92.1094 219.125 92 C220.5625 91.6094 221.1875 90.4531 221.1875 89.4844 C221.1875 88.0938 220.1562 87.3125 218.9062 87.3125 C217.2969 87.3125 216.2188 88.5469 216.2188 90.5156 L216.2031 96.9062 Z"
      /><rect x="224" y="60" width="6" style="fill:white; stroke:none;" height="10"
      /><path style="stroke:none;" d="M227.3438 69.6875 C226.2031 69.6875 225.5312 68.5 225.5312 66.2969 C225.5312 66.2188 225.5312 66.125 225.5312 66.0469 C226.0938 65.5 226.7188 65.3125 227.3438 65.3125 C228.3125 65.3125 228.9531 65.9844 228.9531 67.4531 C228.9531 68.9375 228.3125 69.6875 227.3438 69.6875 ZM229.5312 61.0781 C226.3438 61.4531 224.5625 63.7656 224.5625 66.4531 C224.5625 68.7812 225.6094 70.1719 227.3125 70.1719 C228.8438 70.1719 229.9219 69.1094 229.9219 67.2812 C229.9219 65.6875 228.9688 64.6562 227.5625 64.6562 C226.8281 64.6562 226.1406 64.9844 225.5781 65.5781 C225.7969 63.4062 227.0781 61.9688 229.5938 61.3906 L229.5312 61.0781 Z"
      /><rect x="208" y="50" width="6" style="fill:white; stroke:none;" height="13"
      /><path style="stroke:none;" d="M210.0938 56.2031 C210.0938 54.6562 210.75 53.8125 211.7969 53.8125 C212.7188 53.8125 213.2656 54.4531 213.2656 55.5156 C213.2656 56.7188 212.5 57.4375 211.1875 57.7031 L211.2969 58.3125 C213.2188 58.2344 213.9375 59.2188 213.9375 60.4375 C213.9375 61.625 213.2344 62.4219 211.9531 62.4219 C211.25 62.4219 210.6562 62.1562 210.0938 61.7188 L210.0938 56.2031 ZM209.2031 62.9062 L209.1094 65.375 L209.2656 65.4844 L210.1562 65.2656 L210.0156 62.0938 C210.5469 62.8438 211.3594 63.1719 212.1719 63.1719 C213.5625 63.1719 214.8594 62.2188 214.8594 60.4844 C214.8594 58.9531 213.875 58.1094 212.125 58 C213.5625 57.6094 214.1875 56.4531 214.1875 55.4844 C214.1875 54.0938 213.1562 53.3125 211.9062 53.3125 C210.2969 53.3125 209.2188 54.5469 209.2188 56.5156 L209.2031 62.9062 Z"
      /><rect x="278" y="70" width="7" style="fill:white; stroke:none;" height="9"
      /><path style="stroke:none;" d="M279 75.5156 L281.9531 71.2656 L281.9531 75.5156 L279 75.5156 ZM284.2812 75.5156 L282.8594 75.5156 L282.8594 70.125 L282.2344 70.125 L278.3438 75.6406 L278.3438 76.1875 L281.9531 76.1875 L281.9531 79 L282.8594 79 L282.8594 76.1875 L284.2812 76.1875 L284.2812 75.5156 Z"
      /><rect x="265" y="68" width="6" style="fill:white; stroke:none;" height="13"
      /><path style="stroke:none;" d="M267.0938 74.2031 C267.0938 72.6562 267.75 71.8125 268.7969 71.8125 C269.7188 71.8125 270.2656 72.4531 270.2656 73.5156 C270.2656 74.7188 269.5 75.4375 268.1875 75.7031 L268.2969 76.3125 C270.2188 76.2344 270.9375 77.2188 270.9375 78.4375 C270.9375 79.625 270.2344 80.4219 268.9531 80.4219 C268.25 80.4219 267.6562 80.1562 267.0938 79.7188 L267.0938 74.2031 ZM266.2031 80.9062 L266.1094 83.375 L266.2656 83.4844 L267.1562 83.2656 L267.0156 80.0938 C267.5469 80.8438 268.3594 81.1719 269.1719 81.1719 C270.5625 81.1719 271.8594 80.2188 271.8594 78.4844 C271.8594 76.9531 270.875 76.1094 269.125 76 C270.5625 75.6094 271.1875 74.4531 271.1875 73.4844 C271.1875 72.0938 270.1562 71.3125 268.9062 71.3125 C267.2969 71.3125 266.2188 72.5469 266.2188 74.5156 L266.2031 80.9062 Z"
      /><rect x="317" y="70" width="5" style="fill:white; stroke:none;" height="10"
      /><path style="stroke:none;" d="M318.8906 78.6875 C318.4844 78.6875 318.1562 79.0469 318.1562 79.4219 C318.1562 79.8125 318.4844 80.1562 318.8906 80.1562 C319.2969 80.1562 319.6406 79.8125 319.6406 79.4219 C319.6406 79.0469 319.2969 78.6875 318.8906 78.6875 ZM320.4688 72.5781 C320.7188 72.8906 320.875 73.2656 320.8906 73.6562 C320.8906 74.1875 320.625 74.5 320.0312 74.7656 L319.4062 75.0156 C318.6406 75.3125 318.3906 75.5469 318.3906 75.9375 C318.3906 76.1094 318.4531 76.3438 318.5781 76.8125 L318.7344 77.3438 L319.1094 77.3438 L319.0938 76.5312 C319.0938 76.0938 319.2031 75.9688 319.7812 75.7344 L320.2031 75.5625 C321.0312 75.2188 321.4531 74.6875 321.4531 73.8438 C321.4531 72.1562 319.6562 71.1875 318.5 71.0312 C318.1094 71.125 317.9062 71.2969 317.9062 71.6406 C317.9062 71.9375 318.0625 72.1562 318.7188 72.2656 L320.4688 72.5781 Z"
    /></g
  ></g
></svg
>
