<?xml version="1.0"?>
<!DOCTYPE svg PUBLIC '-//W3C//DTD SVG 1.0//EN'
          'http://www.w3.org/TR/2001/REC-SVG-20010904/DTD/svg10.dtd'>
<svg xmlns:xlink="http://www.w3.org/1999/xlink" style="fill-opacity:1; color-rendering:auto; color-interpolation:auto; text-rendering:auto; stroke:black; stroke-linecap:square; stroke-miterlimit:10; shape-rendering:auto; stroke-opacity:1; fill:black; stroke-dasharray:none; font-weight:normal; stroke-width:1; font-family:'Dialog'; font-style:normal; stroke-linejoin:miter; font-size:12px; stroke-dashoffset:0; image-rendering:auto;" viewBox="0 0 173 238" xmlns="http://www.w3.org/2000/svg"
><!--Generated by the Batik Graphics2D SVG Generator--><defs id="genericDefs"
  /><g
  ><defs id="defs1"
    ><clipPath clipPathUnits="userSpaceOnUse" id="clipPath1"
      ><path style="fill-rule:evenodd;" d="M58 186 L69 197 L58 208 L47 197 Z"
      /></clipPath
      ><clipPath clipPathUnits="userSpaceOnUse" id="clipPath2"
      ><path d="M47 134 L69 134 L69 156 L47 156 L47 134 Z"
      /></clipPath
      ><clipPath clipPathUnits="userSpaceOnUse" id="clipPath3"
      ><path d="M69 93 C69 99.0751 64.0751 104 58 104 C51.9249 104 47 99.0751 47 93 C47 86.9249 51.9249 82 58 82 C64.0751 82 69 86.9249 69 93 Z"
      /></clipPath
      ><clipPath clipPathUnits="userSpaceOnUse" id="clipPath4"
      ><path d="M69 41 C69 47.0751 64.0751 52 58 52 C51.9249 52 47 47.0751 47 41 C47 34.9249 51.9249 30 58 30 C64.0751 30 69 34.9249 69 41 Z"
      /></clipPath
    ></defs
    ><g style="fill:white; text-rendering:optimizeSpeed; stroke:white;"
    ><rect x="0" width="173" height="238" y="0" style="stroke:none;"
      /><polygon style="clip-path:url(#clipPath1); stroke:none;" points=" 58 186 69 197 58 208 47 197"
      /><rect x="47" y="186" width="22" style="clip-path:url(#clipPath1); fill:rgb(165,67,153); stroke:none;" height="22"
      /><rect x="47" y="186" width="22" style="clip-path:url(#clipPath1); fill:none; stroke:black;" height="22"
      /><polygon style="fill:none; stroke:black;" points=" 58 186 69 197 58 208 47 197"
      /><rect x="74" y="184" width="5" style="stroke:none;" height="10"
    /></g
    ><g style="font-family:'Serif'; text-rendering:optimizeSpeed; "
    ><path style="stroke:none;" d="M75.8906 192.6875 C75.4844 192.6875 75.1562 193.0469 75.1562 193.4219 C75.1562 193.8125 75.4844 194.1562 75.8906 194.1562 C76.2969 194.1562 76.6406 193.8125 76.6406 193.4219 C76.6406 193.0469 76.2969 192.6875 75.8906 192.6875 ZM77.4688 186.5781 C77.7188 186.8906 77.875 187.2656 77.8906 187.6562 C77.8906 188.1875 77.625 188.5 77.0312 188.7656 L76.4062 189.0156 C75.6406 189.3125 75.3906 189.5469 75.3906 189.9375 C75.3906 190.1094 75.4531 190.3438 75.5781 190.8125 L75.7344 191.3438 L76.1094 191.3438 L76.0938 190.5312 C76.0938 190.0938 76.2031 189.9688 76.7812 189.7344 L77.2031 189.5625 C78.0312 189.2188 78.4531 188.6875 78.4531 187.8438 C78.4531 186.1562 76.6562 185.1875 75.5 185.0312 C75.1094 185.125 74.9062 185.2969 74.9062 185.6406 C74.9062 185.9375 75.0625 186.1562 75.7188 186.2656 L77.4688 186.5781 Z"
      /><rect x="74" y="200" width="5" style="fill:white; stroke:none;" height="10"
      /><path style="stroke:none;" d="M75.8906 208.6875 C75.4844 208.6875 75.1562 209.0469 75.1562 209.4219 C75.1562 209.8125 75.4844 210.1562 75.8906 210.1562 C76.2969 210.1562 76.6406 209.8125 76.6406 209.4219 C76.6406 209.0469 76.2969 208.6875 75.8906 208.6875 ZM77.4688 202.5781 C77.7188 202.8906 77.875 203.2656 77.8906 203.6562 C77.8906 204.1875 77.625 204.5 77.0312 204.7656 L76.4062 205.0156 C75.6406 205.3125 75.3906 205.5469 75.3906 205.9375 C75.3906 206.1094 75.4531 206.3438 75.5781 206.8125 L75.7344 207.3438 L76.1094 207.3438 L76.0938 206.5312 C76.0938 206.0938 76.2031 205.9688 76.7812 205.7344 L77.2031 205.5625 C78.0312 205.2188 78.4531 204.6875 78.4531 203.8438 C78.4531 202.1562 76.6562 201.1875 75.5 201.0312 C75.1094 201.125 74.9062 201.2969 74.9062 201.6406 C74.9062 201.9375 75.0625 202.1562 75.7188 202.2656 L77.4688 202.5781 Z"
      /><path style="stroke:none;" d="M30.6094 197.1562 L32.9531 193.6562 C33.2344 193.1406 33.5156 192.6406 33.7812 192.1406 L33.8281 192.1406 C33.7969 192.6719 33.7656 193.5 33.7656 194 L33.7656 197.1562 L30.6094 197.1562 ZM33.7656 201 L34.9688 201 L34.9688 198.1719 L36.3281 198.1719 L36.3281 197.1562 L34.9688 197.1562 L34.9688 190.7188 L33.5469 190.7188 L29.2812 197.3281 L29.2812 198.1719 L33.7656 198.1719 L33.7656 201 ZM36.9731 201 L38.3168 201 L39.3481 199.2188 C39.6137 198.7656 39.8637 198.2969 40.1293 197.8594 L40.2075 197.8594 C40.4731 198.2969 40.7543 198.7656 41.0043 199.2188 L42.1293 201 L43.5356 201 L41.02 197.1562 L43.3325 193.3906 L42.0043 193.3906 L41.0668 195.0625 C40.8481 195.5 40.6137 195.9219 40.3793 196.3438 L40.3325 196.3438 C40.0668 195.9219 39.8012 195.5 39.5668 195.0625 L38.5512 193.3906 L37.1762 193.3906 L39.4887 197.0312 L36.9731 201 Z"
    /></g
    ><g style="fill:white; text-rendering:optimizeSpeed; font-size:14px; font-family:'SansSerif'; stroke:white;"
    ><rect x="47" y="134" width="22" style="clip-path:url(#clipPath2); stroke:none;" height="22"
      /><rect x="47" y="134" width="22" style="clip-path:url(#clipPath2); fill:rgb(0,144,188); stroke:none;" height="22"
      /><rect x="47" y="134" width="22" style="clip-path:url(#clipPath2); fill:none; stroke:black;" height="22"
      /><rect x="47" y="134" width="22" style="fill:none; stroke:black;" height="22"
      /><rect x="74" width="5" height="10" y="132" style="stroke:none;"
    /></g
    ><g style="font-family:'Serif'; text-rendering:optimizeSpeed; "
    ><path style="stroke:none;" d="M75.8906 140.6875 C75.4844 140.6875 75.1562 141.0469 75.1562 141.4219 C75.1562 141.8125 75.4844 142.1562 75.8906 142.1562 C76.2969 142.1562 76.6406 141.8125 76.6406 141.4219 C76.6406 141.0469 76.2969 140.6875 75.8906 140.6875 ZM77.4688 134.5781 C77.7188 134.8906 77.875 135.2656 77.8906 135.6562 C77.8906 136.1875 77.625 136.5 77.0312 136.7656 L76.4062 137.0156 C75.6406 137.3125 75.3906 137.5469 75.3906 137.9375 C75.3906 138.1094 75.4531 138.3438 75.5781 138.8125 L75.7344 139.3438 L76.1094 139.3438 L76.0938 138.5312 C76.0938 138.0938 76.2031 137.9688 76.7812 137.7344 L77.2031 137.5625 C78.0312 137.2188 78.4531 136.6875 78.4531 135.8438 C78.4531 134.1562 76.6562 133.1875 75.5 133.0312 C75.1094 133.125 74.9062 133.2969 74.9062 133.6406 C74.9062 133.9375 75.0625 134.1562 75.7188 134.2656 L77.4688 134.5781 Z"
      /><rect x="74" y="148" width="5" style="fill:white; stroke:none;" height="10"
      /><path style="stroke:none;" d="M75.8906 156.6875 C75.4844 156.6875 75.1562 157.0469 75.1562 157.4219 C75.1562 157.8125 75.4844 158.1562 75.8906 158.1562 C76.2969 158.1562 76.6406 157.8125 76.6406 157.4219 C76.6406 157.0469 76.2969 156.6875 75.8906 156.6875 ZM77.4688 150.5781 C77.7188 150.8906 77.875 151.2656 77.8906 151.6562 C77.8906 152.1875 77.625 152.5 77.0312 152.7656 L76.4062 153.0156 C75.6406 153.3125 75.3906 153.5469 75.3906 153.9375 C75.3906 154.1094 75.4531 154.3438 75.5781 154.8125 L75.7344 155.3438 L76.1094 155.3438 L76.0938 154.5312 C76.0938 154.0938 76.2031 153.9688 76.7812 153.7344 L77.2031 153.5625 C78.0312 153.2188 78.4531 152.6875 78.4531 151.8438 C78.4531 150.1562 76.6562 149.1875 75.5 149.0312 C75.1094 149.125 74.9062 149.2969 74.9062 149.6406 C74.9062 149.9375 75.0625 150.1562 75.7188 150.2656 L77.4688 150.5781 Z"
      /><path style="stroke:none;" d="M30.6094 145.1562 L32.9531 141.6562 C33.2344 141.1406 33.5156 140.6406 33.7812 140.1406 L33.8281 140.1406 C33.7969 140.6719 33.7656 141.5 33.7656 142 L33.7656 145.1562 L30.6094 145.1562 ZM33.7656 149 L34.9688 149 L34.9688 146.1719 L36.3281 146.1719 L36.3281 145.1562 L34.9688 145.1562 L34.9688 138.7188 L33.5469 138.7188 L29.2812 145.3281 L29.2812 146.1719 L33.7656 146.1719 L33.7656 149 ZM36.9731 149 L38.3168 149 L39.3481 147.2188 C39.6137 146.7656 39.8637 146.2969 40.1293 145.8594 L40.2075 145.8594 C40.4731 146.2969 40.7543 146.7656 41.0043 147.2188 L42.1293 149 L43.5356 149 L41.02 145.1562 L43.3325 141.3906 L42.0043 141.3906 L41.0668 143.0625 C40.8481 143.5 40.6137 143.9219 40.3793 144.3438 L40.3325 144.3438 C40.0668 143.9219 39.8012 143.5 39.5668 143.0625 L38.5512 141.3906 L37.1762 141.3906 L39.4887 145.0312 L36.9731 149 Z"
    /></g
    ><g style="fill:white; text-rendering:optimizeSpeed; font-size:14px; font-family:'SansSerif'; stroke:white;"
    ><circle r="11" style="clip-path:url(#clipPath3); stroke:none;" cx="58" cy="93"
      /><rect x="47" y="82" width="22" style="clip-path:url(#clipPath3); fill:rgb(0,144,188); stroke:none;" height="22"
      /><rect x="47" y="82" width="22" style="clip-path:url(#clipPath3); fill:none; stroke:black;" height="22"
      /><circle r="11" style="fill:none; stroke:black;" cx="58" cy="93"
      /><rect x="74" width="5" height="10" y="80" style="stroke:none;"
    /></g
    ><g style="font-family:'Serif'; text-rendering:optimizeSpeed; "
    ><path style="stroke:none;" d="M75.8906 88.6875 C75.4844 88.6875 75.1562 89.0469 75.1562 89.4219 C75.1562 89.8125 75.4844 90.1562 75.8906 90.1562 C76.2969 90.1562 76.6406 89.8125 76.6406 89.4219 C76.6406 89.0469 76.2969 88.6875 75.8906 88.6875 ZM77.4688 82.5781 C77.7188 82.8906 77.875 83.2656 77.8906 83.6562 C77.8906 84.1875 77.625 84.5 77.0312 84.7656 L76.4062 85.0156 C75.6406 85.3125 75.3906 85.5469 75.3906 85.9375 C75.3906 86.1094 75.4531 86.3438 75.5781 86.8125 L75.7344 87.3438 L76.1094 87.3438 L76.0938 86.5312 C76.0938 86.0938 76.2031 85.9688 76.7812 85.7344 L77.2031 85.5625 C78.0312 85.2188 78.4531 84.6875 78.4531 83.8438 C78.4531 82.1562 76.6562 81.1875 75.5 81.0312 C75.1094 81.125 74.9062 81.2969 74.9062 81.6406 C74.9062 81.9375 75.0625 82.1562 75.7188 82.2656 L77.4688 82.5781 Z"
      /><rect x="74" y="96" width="5" style="fill:white; stroke:none;" height="10"
      /><path style="stroke:none;" d="M75.8906 104.6875 C75.4844 104.6875 75.1562 105.0469 75.1562 105.4219 C75.1562 105.8125 75.4844 106.1562 75.8906 106.1562 C76.2969 106.1562 76.6406 105.8125 76.6406 105.4219 C76.6406 105.0469 76.2969 104.6875 75.8906 104.6875 ZM77.4688 98.5781 C77.7188 98.8906 77.875 99.2656 77.8906 99.6562 C77.8906 100.1875 77.625 100.5 77.0312 100.7656 L76.4062 101.0156 C75.6406 101.3125 75.3906 101.5469 75.3906 101.9375 C75.3906 102.1094 75.4531 102.3438 75.5781 102.8125 L75.7344 103.3438 L76.1094 103.3438 L76.0938 102.5312 C76.0938 102.0938 76.2031 101.9688 76.7812 101.7344 L77.2031 101.5625 C78.0312 101.2188 78.4531 100.6875 78.4531 99.8438 C78.4531 98.1562 76.6562 97.1875 75.5 97.0312 C75.1094 97.125 74.9062 97.2969 74.9062 97.6406 C74.9062 97.9375 75.0625 98.1562 75.7188 98.2656 L77.4688 98.5781 Z"
      /><path style="stroke:none;" d="M32.7031 98.1875 C34.5156 98.1875 35.9844 97.0938 35.9844 95.25 C35.9844 93.8594 35.0156 92.9375 33.8125 92.6562 L33.8125 92.5938 C34.8906 92.1875 35.6406 91.3594 35.6406 90.125 C35.6406 88.5 34.375 87.5469 32.6562 87.5469 C31.4688 87.5469 30.5469 88.0625 29.7812 88.7812 L30.4688 89.5938 C31.0469 89 31.7656 88.5938 32.5938 88.5938 C33.6562 88.5938 34.3281 89.2344 34.3281 90.2188 C34.3281 91.3281 33.6094 92.1719 31.4844 92.1719 L31.4844 93.1562 C33.8594 93.1562 34.6875 93.9844 34.6875 95.2031 C34.6875 96.3906 33.8125 97.125 32.5938 97.125 C31.4375 97.125 30.6562 96.5781 30.0469 95.9375 L29.4062 96.7812 C30.0781 97.5156 31.0938 98.1875 32.7031 98.1875 ZM36.9731 98 L38.3168 98 L39.3481 96.2188 C39.6137 95.7656 39.8637 95.2969 40.1293 94.8594 L40.2075 94.8594 C40.4731 95.2969 40.7543 95.7656 41.0043 96.2188 L42.1293 98 L43.5356 98 L41.02 94.1562 L43.3325 90.3906 L42.0043 90.3906 L41.0668 92.0625 C40.8481 92.5 40.6137 92.9219 40.3793 93.3438 L40.3325 93.3438 C40.0668 92.9219 39.8012 92.5 39.5668 92.0625 L38.5512 90.3906 L37.1762 90.3906 L39.4887 94.0312 L36.9731 98 Z"
    /></g
    ><g style="fill:white; text-rendering:optimizeSpeed; font-size:14px; font-family:'SansSerif'; stroke:white;"
    ><circle r="11" style="clip-path:url(#clipPath4); stroke:none;" cx="58" cy="41"
      /><rect x="47" y="30" width="22" style="clip-path:url(#clipPath4); fill:rgb(255,212,0); stroke:none;" height="22"
      /><rect x="47" y="30" width="22" style="clip-path:url(#clipPath4); fill:none; stroke:black;" height="22"
      /><circle r="11" style="fill:none; stroke:black;" cx="58" cy="41"
      /><rect x="74" width="5" height="10" y="28" style="stroke:none;"
    /></g
    ><g style="font-family:'Serif'; text-rendering:optimizeSpeed; "
    ><path style="stroke:none;" d="M75.8906 36.6875 C75.4844 36.6875 75.1562 37.0469 75.1562 37.4219 C75.1562 37.8125 75.4844 38.1562 75.8906 38.1562 C76.2969 38.1562 76.6406 37.8125 76.6406 37.4219 C76.6406 37.0469 76.2969 36.6875 75.8906 36.6875 ZM77.4688 30.5781 C77.7188 30.8906 77.875 31.2656 77.8906 31.6562 C77.8906 32.1875 77.625 32.5 77.0312 32.7656 L76.4062 33.0156 C75.6406 33.3125 75.3906 33.5469 75.3906 33.9375 C75.3906 34.1094 75.4531 34.3438 75.5781 34.8125 L75.7344 35.3438 L76.1094 35.3438 L76.0938 34.5312 C76.0938 34.0938 76.2031 33.9688 76.7812 33.7344 L77.2031 33.5625 C78.0312 33.2188 78.4531 32.6875 78.4531 31.8438 C78.4531 30.1562 76.6562 29.1875 75.5 29.0312 C75.1094 29.125 74.9062 29.2969 74.9062 29.6406 C74.9062 29.9375 75.0625 30.1562 75.7188 30.2656 L77.4688 30.5781 Z"
      /><rect x="74" y="44" width="5" style="fill:white; stroke:none;" height="10"
      /><path style="stroke:none;" d="M75.8906 52.6875 C75.4844 52.6875 75.1562 53.0469 75.1562 53.4219 C75.1562 53.8125 75.4844 54.1562 75.8906 54.1562 C76.2969 54.1562 76.6406 53.8125 76.6406 53.4219 C76.6406 53.0469 76.2969 52.6875 75.8906 52.6875 ZM77.4688 46.5781 C77.7188 46.8906 77.875 47.2656 77.8906 47.6562 C77.8906 48.1875 77.625 48.5 77.0312 48.7656 L76.4062 49.0156 C75.6406 49.3125 75.3906 49.5469 75.3906 49.9375 C75.3906 50.1094 75.4531 50.3438 75.5781 50.8125 L75.7344 51.3438 L76.1094 51.3438 L76.0938 50.5312 C76.0938 50.0938 76.2031 49.9688 76.7812 49.7344 L77.2031 49.5625 C78.0312 49.2188 78.4531 48.6875 78.4531 47.8438 C78.4531 46.1562 76.6562 45.1875 75.5 45.0312 C75.1094 45.125 74.9062 45.2969 74.9062 45.6406 C74.9062 45.9375 75.0625 46.1562 75.7188 46.2656 L77.4688 46.5781 Z"
      /><path style="stroke:none;" d="M32.9062 46.1875 C34.8438 46.1875 36.125 45.0156 36.125 43.5156 C36.125 42.125 35.2812 41.3594 34.3906 40.8281 L34.3906 40.7656 C35 40.2812 35.7656 39.3594 35.7656 38.2812 C35.7656 36.7031 34.7031 35.5781 32.9531 35.5781 C31.3594 35.5781 30.1406 36.625 30.1406 38.1875 C30.1406 39.2656 30.7656 40.0312 31.5156 40.5469 L31.5156 40.625 C30.5781 41.125 29.625 42.0781 29.625 43.4531 C29.625 45.0312 31.0156 46.1875 32.9062 46.1875 ZM33.6094 40.4219 C32.4062 39.9531 31.2969 39.4219 31.2969 38.1875 C31.2969 37.1875 31.9844 36.5156 32.9375 36.5156 C34.0469 36.5156 34.6719 37.3438 34.6719 38.3594 C34.6719 39.1094 34.3125 39.8125 33.6094 40.4219 ZM32.9375 45.2344 C31.7031 45.2344 30.7969 44.4375 30.7969 43.3438 C30.7969 42.3594 31.3594 41.5469 32.1875 41.0156 C33.6406 41.6094 34.9062 42.125 34.9062 43.5 C34.9062 44.5156 34.1094 45.2344 32.9375 45.2344 ZM36.9731 46 L38.3168 46 L39.3481 44.2188 C39.6137 43.7656 39.8637 43.2969 40.1293 42.8594 L40.2075 42.8594 C40.4731 43.2969 40.7543 43.7656 41.0043 44.2188 L42.1293 46 L43.5356 46 L41.02 42.1562 L43.3325 38.3906 L42.0043 38.3906 L41.0668 40.0625 C40.8481 40.5 40.6137 40.9219 40.3793 41.3438 L40.3325 41.3438 C40.0668 40.9219 39.8012 40.5 39.5668 40.0625 L38.5512 38.3906 L37.1762 38.3906 L39.4887 42.0312 L36.9731 46 Z"
    /></g
    ><g ID="legend-1:0" style="text-rendering:optimizeSpeed; font-size:10px; font-family:'SansSerif';"
    ><path style="stroke:none;" d="M30.9219 223 L31.8281 223 L31.8281 219.0625 C32.375 218.5156 32.7656 218.2344 33.3125 218.2344 C34.0469 218.2344 34.3438 218.6562 34.3438 219.6875 L34.3438 223 L35.2656 223 L35.2656 219.5625 C35.2656 218.1719 34.7344 217.4375 33.5938 217.4375 C32.8594 217.4375 32.2969 217.8438 31.7812 218.3438 L31.75 218.3438 L31.6719 217.5625 L30.9219 217.5625 L30.9219 223 ZM39.1413 223.125 C40.4694 223.125 41.6569 222.0938 41.6569 220.2969 C41.6569 218.4844 40.4694 217.4375 39.1413 217.4375 C37.8131 217.4375 36.6256 218.4844 36.6256 220.2969 C36.6256 222.0938 37.8131 223.125 39.1413 223.125 ZM39.1413 222.375 C38.2038 222.375 37.5631 221.5469 37.5631 220.2969 C37.5631 219.0469 38.2038 218.1875 39.1413 218.1875 C40.0788 218.1875 40.7194 219.0469 40.7194 220.2969 C40.7194 221.5469 40.0788 222.375 39.1413 222.375 ZM47.16 225.5 C48.8475 225.5 49.91 224.625 49.91 223.625 C49.91 222.7344 49.2694 222.3281 48.0038 222.3281 L46.9569 222.3281 C46.2225 222.3281 46.0038 222.0938 46.0038 221.7344 C46.0038 221.4375 46.1444 221.2656 46.3475 221.0938 C46.5975 221.2031 46.8944 221.2812 47.16 221.2812 C48.2538 221.2812 49.1444 220.5469 49.1444 219.3906 C49.1444 218.9219 48.9569 218.5156 48.7069 218.2656 L49.8163 218.2656 L49.8163 217.5625 L47.9256 217.5625 C47.7225 217.5 47.4569 217.4375 47.16 217.4375 C46.0663 217.4375 45.1131 218.1875 45.1131 219.375 C45.1131 220.0156 45.4725 220.5469 45.8319 220.8281 L45.8319 220.875 C45.5506 221.0625 45.2225 221.4375 45.2225 221.875 C45.2225 222.3125 45.4256 222.5938 45.7225 222.7656 L45.7225 222.8125 C45.2069 223.1406 44.9256 223.5781 44.9256 224.0469 C44.9256 224.9844 45.8319 225.5 47.16 225.5 ZM47.16 220.6562 C46.535 220.6562 46.0038 220.1562 46.0038 219.375 C46.0038 218.5625 46.5194 218.0938 47.16 218.0938 C47.8006 218.0938 48.3163 218.5781 48.3163 219.375 C48.3163 220.1562 47.785 220.6562 47.16 220.6562 ZM47.285 224.875 C46.3163 224.875 45.7225 224.5 45.7225 223.9219 C45.7225 223.5938 45.8788 223.2812 46.2694 223 C46.5038 223.0625 46.7694 223.0938 46.9725 223.0938 L47.91 223.0938 C48.6288 223.0938 49.0194 223.2656 49.0194 223.7656 C49.0194 224.3281 48.3319 224.875 47.285 224.875 ZM51.915 223.125 C52.165 223.125 52.3212 223.0938 52.4462 223.0469 L52.3212 222.3438 C52.2275 222.375 52.1806 222.375 52.1337 222.375 C51.9931 222.375 51.8681 222.2656 51.8681 221.9844 L51.8681 215.0469 L50.9619 215.0469 L50.9619 221.9219 C50.9619 222.6875 51.2431 223.125 51.915 223.125 ZM53.9056 225.3438 C54.9837 225.3438 55.5462 224.5156 55.9212 223.4531 L57.9681 217.5625 L57.0775 217.5625 L56.1087 220.5938 C55.9525 221.0625 55.7962 221.625 55.6556 222.1094 L55.5931 222.1094 C55.4369 221.625 55.2337 221.0625 55.0775 220.5938 L53.9681 217.5625 L53.015 217.5625 L55.2025 223.0156 L55.0775 223.4219 C54.8587 224.0938 54.4681 224.5938 53.8431 224.5938 C53.7025 224.5938 53.5462 224.5469 53.4369 224.5 L53.265 225.2344 C53.4369 225.2969 53.64 225.3438 53.9056 225.3438 ZM61.1625 223.125 C61.8031 223.125 62.4281 222.875 62.9125 222.4375 L62.5219 221.8281 C62.1781 222.1406 61.7406 222.375 61.2406 222.375 C60.2406 222.375 59.5531 221.5469 59.5531 220.2969 C59.5531 219.0469 60.2875 218.1875 61.2719 218.1875 C61.6937 218.1875 62.0375 218.3906 62.35 218.6719 L62.8187 218.0625 C62.4281 217.7344 61.9437 217.4375 61.225 217.4375 C59.8344 217.4375 58.6156 218.4844 58.6156 220.2969 C58.6156 222.0938 59.725 223.125 61.1625 223.125 ZM66.2212 223.125 C67.5493 223.125 68.7368 222.0938 68.7368 220.2969 C68.7368 218.4844 67.5493 217.4375 66.2212 217.4375 C64.8931 217.4375 63.7056 218.4844 63.7056 220.2969 C63.7056 222.0938 64.8931 223.125 66.2212 223.125 ZM66.2212 222.375 C65.2837 222.375 64.6431 221.5469 64.6431 220.2969 C64.6431 219.0469 65.2837 218.1875 66.2212 218.1875 C67.1587 218.1875 67.7993 219.0469 67.7993 220.2969 C67.7993 221.5469 67.1587 222.375 66.2212 222.375 ZM71.5937 223.125 C72.875 223.125 73.5625 222.4062 73.5625 221.5156 C73.5625 220.4844 72.7031 220.1719 71.9062 219.875 C71.2968 219.6406 70.7343 219.4531 70.7343 218.9375 C70.7343 218.5156 71.0625 218.1562 71.75 218.1562 C72.2343 218.1562 72.6093 218.3438 72.9843 218.625 L73.4218 218.0469 C73 217.7031 72.4062 217.4375 71.7343 217.4375 C70.5625 217.4375 69.8593 218.1094 69.8593 218.9688 C69.8593 219.8906 70.6875 220.2656 71.4531 220.5469 C72.0468 220.7656 72.6875 221.0156 72.6875 221.5625 C72.6875 222.0469 72.3437 222.4219 71.625 222.4219 C70.9687 222.4219 70.4843 222.1562 70.0156 221.7812 L69.5625 222.375 C70.0781 222.8125 70.8125 223.125 71.5937 223.125 ZM74.8518 223 L75.7581 223 L75.7581 217.5625 L74.8518 217.5625 L74.8518 223 ZM75.305 216.4531 C75.6643 216.4531 75.9143 216.2031 75.9143 215.8438 C75.9143 215.4844 75.6643 215.25 75.305 215.25 C74.9456 215.25 74.6956 215.4844 74.6956 215.8438 C74.6956 216.2031 74.9456 216.4531 75.305 216.4531 ZM79.4456 223.125 C80.1018 223.125 80.6643 222.7812 81.1018 222.3594 L81.1331 222.3594 L81.2112 223 L81.9456 223 L81.9456 215.0469 L81.055 215.0469 L81.055 217.125 L81.0862 218.0625 C80.6175 217.6719 80.1956 217.4375 79.555 217.4375 C78.3206 217.4375 77.2112 218.5312 77.2112 220.2969 C77.2112 222.0938 78.0862 223.125 79.4456 223.125 ZM79.6487 222.375 C78.6956 222.375 78.1487 221.5938 78.1487 220.2812 C78.1487 219.0469 78.8362 218.2031 79.7268 218.2031 C80.1643 218.2031 80.5862 218.3594 81.055 218.7656 L81.055 221.625 C80.5862 222.125 80.1487 222.375 79.6487 222.375 ZM83.8018 223 L84.7081 223 L84.7081 217.5625 L83.8018 217.5625 L83.8018 223 ZM84.255 216.4531 C84.6143 216.4531 84.8643 216.2031 84.8643 215.8438 C84.8643 215.4844 84.6143 215.25 84.255 215.25 C83.8956 215.25 83.6456 215.4844 83.6456 215.8438 C83.6456 216.2031 83.8956 216.4531 84.255 216.4531 ZM88.6925 223.125 C89.3331 223.125 89.9581 222.875 90.4425 222.4375 L90.0518 221.8281 C89.7081 222.1406 89.2706 222.375 88.7706 222.375 C87.7706 222.375 87.0831 221.5469 87.0831 220.2969 C87.0831 219.0469 87.8175 218.1875 88.8018 218.1875 C89.2237 218.1875 89.5675 218.3906 89.88 218.6719 L90.3487 218.0625 C89.9581 217.7344 89.4737 217.4375 88.755 217.4375 C87.3643 217.4375 86.1456 218.4844 86.1456 220.2969 C86.1456 222.0938 87.255 223.125 88.6925 223.125 ZM94.835 223.125 C95.085 223.125 95.2412 223.0938 95.3662 223.0469 L95.2412 222.3438 C95.1475 222.375 95.1006 222.375 95.0537 222.375 C94.9131 222.375 94.7881 222.2656 94.7881 221.9844 L94.7881 215.0469 L93.8818 215.0469 L93.8818 221.9219 C93.8818 222.6875 94.1631 223.125 94.835 223.125 ZM96.7318 223 L97.6381 223 L97.6381 217.5625 L96.7318 217.5625 L96.7318 223 ZM97.185 216.4531 C97.5443 216.4531 97.7943 216.2031 97.7943 215.8438 C97.7943 215.4844 97.5443 215.25 97.185 215.25 C96.8256 215.25 96.5756 215.4844 96.5756 215.8438 C96.5756 216.2031 96.8256 216.4531 97.185 216.4531 ZM99.4818 223 L100.3881 223 L100.3881 219.0625 C100.935 218.5156 101.3256 218.2344 101.8725 218.2344 C102.6068 218.2344 102.9037 218.6562 102.9037 219.6875 L102.9037 223 L103.8256 223 L103.8256 219.5625 C103.8256 218.1719 103.2943 217.4375 102.1537 217.4375 C101.4193 217.4375 100.8568 217.8438 100.3412 218.3438 L100.31 218.3438 L100.2318 217.5625 L99.4818 217.5625 L99.4818 223 ZM105.5918 223 L106.4825 223 L106.4825 221.5625 L107.5137 220.375 L109.1075 223 L110.0918 223 L108.045 219.7656 L109.8575 217.5625 L108.8262 217.5625 L106.5137 220.4375 L106.4825 220.4375 L106.4825 215.0469 L105.5918 215.0469 L105.5918 223 ZM112.3618 223.125 C113.0337 223.125 113.6431 222.7812 114.1587 222.3438 L114.1899 222.3438 L114.2681 223 L115.0181 223 L115.0181 219.6562 C115.0181 218.3125 114.4556 217.4375 113.1431 217.4375 C112.2681 217.4375 111.5024 217.8125 111.0024 218.1406 L111.3618 218.7656 C111.7837 218.4844 112.3618 218.1875 112.9868 218.1875 C113.8774 218.1875 114.1118 218.8594 114.1118 219.5625 C111.7993 219.8125 110.7681 220.4062 110.7681 221.5938 C110.7681 222.5625 111.4556 223.125 112.3618 223.125 ZM112.6274 222.4062 C112.0806 222.4062 111.6587 222.1562 111.6587 221.5312 C111.6587 220.8281 112.2837 220.375 114.1118 220.1562 L114.1118 221.6875 C113.5806 222.1562 113.1431 222.4062 112.6274 222.4062 ZM118.5799 225.5 C120.2674 225.5 121.3299 224.625 121.3299 223.625 C121.3299 222.7344 120.6893 222.3281 119.4237 222.3281 L118.3768 222.3281 C117.6424 222.3281 117.4237 222.0938 117.4237 221.7344 C117.4237 221.4375 117.5643 221.2656 117.7674 221.0938 C118.0174 221.2031 118.3143 221.2812 118.5799 221.2812 C119.6737 221.2812 120.5643 220.5469 120.5643 219.3906 C120.5643 218.9219 120.3768 218.5156 120.1268 218.2656 L121.2362 218.2656 L121.2362 217.5625 L119.3456 217.5625 C119.1424 217.5 118.8768 217.4375 118.5799 217.4375 C117.4862 217.4375 116.5331 218.1875 116.5331 219.375 C116.5331 220.0156 116.8924 220.5469 117.2518 220.8281 L117.2518 220.875 C116.9706 221.0625 116.6424 221.4375 116.6424 221.875 C116.6424 222.3125 116.8456 222.5938 117.1424 222.7656 L117.1424 222.8125 C116.6268 223.1406 116.3456 223.5781 116.3456 224.0469 C116.3456 224.9844 117.2518 225.5 118.5799 225.5 ZM118.5799 220.6562 C117.9549 220.6562 117.4237 220.1562 117.4237 219.375 C117.4237 218.5625 117.9393 218.0938 118.5799 218.0938 C119.2206 218.0938 119.7362 218.5781 119.7362 219.375 C119.7362 220.1562 119.2049 220.6562 118.5799 220.6562 ZM118.7049 224.875 C117.7362 224.875 117.1424 224.5 117.1424 223.9219 C117.1424 223.5938 117.2987 223.2812 117.6893 223 C117.9237 223.0625 118.1893 223.0938 118.3924 223.0938 L119.3299 223.0938 C120.0487 223.0938 120.4393 223.2656 120.4393 223.7656 C120.4393 224.3281 119.7518 224.875 118.7049 224.875 ZM124.5693 223.125 C125.3037 223.125 125.8974 222.875 126.3662 222.5625 L126.0381 221.9688 C125.6474 222.2344 125.2099 222.4062 124.6787 222.4062 C123.6474 222.4062 122.9443 221.6562 122.8818 220.5 L126.5381 220.5 C126.5537 220.375 126.5849 220.1875 126.5849 219.9844 C126.5849 218.4375 125.8037 217.4375 124.4131 217.4375 C123.1631 217.4375 121.9756 218.5312 121.9756 220.2969 C121.9756 222.0781 123.1318 223.125 124.5693 223.125 ZM122.8662 219.8438 C122.9756 218.7812 123.6631 218.1562 124.4287 218.1562 C125.2724 218.1562 125.7724 218.75 125.7724 219.8438 L122.8662 219.8438 ZM129.3437 223.125 C130.6249 223.125 131.3124 222.4062 131.3124 221.5156 C131.3124 220.4844 130.453 220.1719 129.6562 219.875 C129.0468 219.6406 128.4843 219.4531 128.4843 218.9375 C128.4843 218.5156 128.8124 218.1562 129.4999 218.1562 C129.9843 218.1562 130.3593 218.3438 130.7343 218.625 L131.1718 218.0469 C130.7499 217.7031 130.1562 217.4375 129.4843 217.4375 C128.3124 217.4375 127.6093 218.1094 127.6093 218.9688 C127.6093 219.8906 128.4374 220.2656 129.203 220.5469 C129.7968 220.7656 130.4374 221.0156 130.4374 221.5625 C130.4374 222.0469 130.0937 222.4219 129.3749 222.4219 C128.7187 222.4219 128.2343 222.1562 127.7655 221.7812 L127.3124 222.375 C127.828 222.8125 128.5624 223.125 129.3437 223.125 Z"
    /></g
  ></g
></svg
>
