<?xml version="1.0"?>
<!DOCTYPE svg PUBLIC '-//W3C//DTD SVG 1.0//EN'
          'http://www.w3.org/TR/2001/REC-SVG-20010904/DTD/svg10.dtd'>
<svg xmlns:xlink="http://www.w3.org/1999/xlink" style="fill-opacity:1; color-rendering:auto; color-interpolation:auto; text-rendering:auto; stroke:black; stroke-linecap:square; stroke-miterlimit:10; shape-rendering:auto; stroke-opacity:1; fill:black; stroke-dasharray:none; font-weight:normal; stroke-width:1; font-family:'Dialog'; font-style:normal; stroke-linejoin:miter; font-size:12px; stroke-dashoffset:0; image-rendering:auto;" viewBox="0 0 314 180" xmlns="http://www.w3.org/2000/svg"
><!--Generated by the Batik Graphics2D SVG Generator--><defs id="genericDefs"
  /><g
  ><defs id="defs1"
    ><clipPath clipPathUnits="userSpaceOnUse" id="clipPath1"
      ><path style="fill-rule:evenodd;" d="M215 79 L221 79 L221 123 L215 123 L221 123 L221 79 Z"
      /></clipPath
      ><clipPath clipPathUnits="userSpaceOnUse" id="clipPath2"
      ><path style="fill-rule:evenodd;" d="M163 90 L174 112 L152 112 Z"
      /></clipPath
      ><clipPath clipPathUnits="userSpaceOnUse" id="clipPath3"
      ><path style="fill-rule:evenodd;" d="M99 128 L110 150 L88 150 Z"
      /></clipPath
      ><clipPath clipPathUnits="userSpaceOnUse" id="clipPath4"
      ><path style="fill-rule:evenodd;" d="M99 53 L110 75 L88 75 Z"
      /></clipPath
      ><clipPath clipPathUnits="userSpaceOnUse" id="clipPath5"
      ><path style="fill-rule:evenodd;" d="M46 86 L41 86 L40 42 L46 42 L40 42 L41 86 Z"
      /></clipPath
    ></defs
    ><g style="fill:white; text-rendering:optimizeSpeed; stroke:white;"
    ><rect x="0" width="314" height="180" y="0" style="stroke:none;"
      /><polygon style="fill:none; stroke:black;" points=" 273 101 221 101"
      /><path d="M273 90 C267.5 95.5 278.5 106.5 273 112" style="fill:none; stroke:black;"
      /><polygon style="fill:none; stroke:black;" points=" 221 101 163 101"
      /><polygon style="clip-path:url(#clipPath1); stroke:none;" points=" 215 79 221 79 221 123 215 123 221 123 221 79"
      /><rect x="210" y="67" width="22" style="clip-path:url(#clipPath1); fill:black; stroke:none;" height="68"
      /><rect x="210" y="67" width="22" style="clip-path:url(#clipPath1); fill:none; stroke:black;" height="68"
      /><polygon style="fill:none; stroke:black;" points=" 215 79 221 79 221 123 215 123 221 123 221 79"
      /><polygon style="fill:none; stroke:black;" points=" 163 101 99 139"
      /><polygon style="fill:none; stroke:black;" points=" 163 101 99 64"
      /><polygon style="clip-path:url(#clipPath2); stroke:none;" points=" 163 90 174 112 152 112"
      /><rect x="152" y="90" width="22" style="clip-path:url(#clipPath2); fill:rgb(0,144,188); stroke:none;" height="22"
      /><rect x="152" y="90" width="22" style="clip-path:url(#clipPath2); fill:none; stroke:black;" height="22"
      /><polygon style="fill:none; stroke:black;" points=" 163 90 174 112 152 112"
    /></g
    ><g style="text-rendering:optimizeSpeed; font-size:10px; font-family:'SansSerif';"
    ><path style="stroke:none;" d="M161 104 L165.125 104 L165.125 103.2031 L161.9375 103.2031 L161.9375 96.6562 L161 96.6562 L161 104 Z"
      /><rect x="146" y="118" width="32" style="fill:white; stroke:none;" height="10"
      /><path style="stroke:none;" d="M149.7031 129.1875 C151.5156 129.1875 152.9844 128.0938 152.9844 126.25 C152.9844 124.8594 152.0156 123.9375 150.8125 123.6562 L150.8125 123.5938 C151.8906 123.1875 152.6406 122.3594 152.6406 121.125 C152.6406 119.5 151.375 118.5469 149.6562 118.5469 C148.4688 118.5469 147.5469 119.0625 146.7812 119.7812 L147.4688 120.5938 C148.0469 120 148.7656 119.5938 149.5938 119.5938 C150.6562 119.5938 151.3281 120.2344 151.3281 121.2188 C151.3281 122.3281 150.6094 123.1719 148.4844 123.1719 L148.4844 124.1562 C150.8594 124.1562 151.6875 124.9844 151.6875 126.2031 C151.6875 127.3906 150.8125 128.125 149.5938 128.125 C148.4375 128.125 147.6562 127.5781 147.0469 126.9375 L146.4062 127.7812 C147.0781 128.5156 148.0938 129.1875 149.7031 129.1875 ZM155.1762 129 L156.395 129 L156.395 123.6094 C156.395 122.5312 156.3012 121.4375 156.2543 120.4062 L156.3012 120.4062 L157.4106 122.5156 L161.145 129 L162.4731 129 L162.4731 118.7188 L161.2387 118.7188 L161.2387 124.0781 C161.2387 125.1406 161.3481 126.2812 161.4106 127.3125 L161.3481 127.3125 L160.2543 125.2031 L156.52 118.7188 L155.1762 118.7188 L155.1762 129 ZM167.0498 123.2656 C167.4248 122.0938 167.7529 120.9844 168.0811 119.7812 L168.1279 119.7812 C168.4717 120.9844 168.7842 122.0938 169.1748 123.2656 L169.6592 124.8281 L166.5498 124.8281 L167.0498 123.2656 ZM163.9248 129 L165.2373 129 L166.2373 125.8594 L169.9873 125.8594 L170.9561 129 L172.3311 129 L168.8467 118.7188 L167.4092 118.7188 L163.9248 129 ZM176.6572 129.1875 C177.5634 129.1875 178.4384 128.8281 179.1259 128.2188 L178.5634 127.3594 C178.0947 127.7969 177.4697 128.125 176.7665 128.125 C175.3759 128.125 174.4228 126.9531 174.4228 125.2031 C174.4228 123.4531 175.4228 122.2656 176.8134 122.2656 C177.4228 122.2656 177.8759 122.5469 178.329 122.9375 L178.9853 122.0938 C178.4384 121.625 177.7509 121.2031 176.7509 121.2031 C174.8134 121.2031 173.0947 122.6719 173.0947 125.2031 C173.0947 127.7188 174.6415 129.1875 176.6572 129.1875 Z"
    /></g
    ><g style="fill:white; text-rendering:optimizeSpeed; stroke:white;"
    ><polygon style="stroke:none; clip-path:url(#clipPath3);" points=" 99 128 110 150 88 150"
      /><rect x="99" y="128" width="11" style="clip-path:url(#clipPath3); fill:rgb(0,144,188); stroke:none;" height="22"
      /><rect x="99" y="128" width="11" style="clip-path:url(#clipPath3); fill:none; stroke:black;" height="22"
      /><polygon style="fill:none; stroke:black;" points=" 99 128 110 150 88 150"
      /><polygon style="fill:none; stroke:black;" points=" 99 64 41 64"
      /><polygon style="clip-path:url(#clipPath4); stroke:none;" points=" 99 53 110 75 88 75"
      /><rect x="88" y="53" width="22" style="clip-path:url(#clipPath4); fill:rgb(0,144,188); stroke:none;" height="22"
      /><rect x="88" y="53" width="22" style="clip-path:url(#clipPath4); fill:none; stroke:black;" height="22"
      /><polygon style="fill:none; stroke:black;" points=" 99 53 110 75 88 75"
    /></g
    ><g style="text-rendering:optimizeSpeed; font-size:10px; font-family:'SansSerif';"
    ><path style="stroke:none;" d="M97 67 L101.125 67 L101.125 66.2031 L97.9375 66.2031 L97.9375 59.6562 L97 59.6562 L97 67 Z"
      /><rect x="82" y="81" width="32" style="fill:white; stroke:none;" height="10"
      /><path style="stroke:none;" d="M85.7031 92.1875 C87.5156 92.1875 88.9844 91.0938 88.9844 89.25 C88.9844 87.8594 88.0156 86.9375 86.8125 86.6562 L86.8125 86.5938 C87.8906 86.1875 88.6406 85.3594 88.6406 84.125 C88.6406 82.5 87.375 81.5469 85.6562 81.5469 C84.4688 81.5469 83.5469 82.0625 82.7812 82.7812 L83.4688 83.5938 C84.0469 83 84.7656 82.5938 85.5938 82.5938 C86.6562 82.5938 87.3281 83.2344 87.3281 84.2188 C87.3281 85.3281 86.6094 86.1719 84.4844 86.1719 L84.4844 87.1562 C86.8594 87.1562 87.6875 87.9844 87.6875 89.2031 C87.6875 90.3906 86.8125 91.125 85.5938 91.125 C84.4375 91.125 83.6562 90.5781 83.0469 89.9375 L82.4062 90.7812 C83.0781 91.5156 84.0938 92.1875 85.7031 92.1875 ZM91.1762 92 L92.395 92 L92.395 86.6094 C92.395 85.5312 92.3012 84.4375 92.2543 83.4062 L92.3012 83.4062 L93.4106 85.5156 L97.145 92 L98.4731 92 L98.4731 81.7188 L97.2387 81.7188 L97.2387 87.0781 C97.2387 88.1406 97.3481 89.2812 97.4106 90.3125 L97.3481 90.3125 L96.2543 88.2031 L92.52 81.7188 L91.1762 81.7188 L91.1762 92 ZM103.0498 86.2656 C103.4248 85.0938 103.7529 83.9844 104.0811 82.7812 L104.1279 82.7812 C104.4717 83.9844 104.7842 85.0938 105.1748 86.2656 L105.6592 87.8281 L102.5498 87.8281 L103.0498 86.2656 ZM99.9248 92 L101.2373 92 L102.2373 88.8594 L105.9873 88.8594 L106.9561 92 L108.3311 92 L104.8467 81.7188 L103.4092 81.7188 L99.9248 92 ZM112.6572 92.1875 C113.5634 92.1875 114.4384 91.8281 115.1259 91.2188 L114.5634 90.3594 C114.0947 90.7969 113.4697 91.125 112.7665 91.125 C111.3759 91.125 110.4228 89.9531 110.4228 88.2031 C110.4228 86.4531 111.4228 85.2656 112.8134 85.2656 C113.4228 85.2656 113.8759 85.5469 114.329 85.9375 L114.9853 85.0938 C114.4384 84.625 113.7509 84.2031 112.7509 84.2031 C110.8134 84.2031 109.0947 85.6719 109.0947 88.2031 C109.0947 90.7188 110.6415 92.1875 112.6572 92.1875 Z"
    /></g
    ><g style="fill:white; text-rendering:optimizeSpeed; stroke:white;"
    ><polygon style="stroke:none; clip-path:url(#clipPath5);" points=" 46 86 41 86 40 42 46 42 40 42 41 86"
      /><rect x="30" y="30" width="22" style="clip-path:url(#clipPath5); fill:black; stroke:none;" height="68"
      /><rect x="30" y="30" width="22" style="clip-path:url(#clipPath5); fill:none; stroke:black;" height="68"
      /><polygon style="fill:none; stroke:black;" points=" 46 86 41 86 40 42 46 42 40 42 41 86"
      /><path d="M43.5469 95.9531 C43.5156 95.2969 43.5 94.3906 43.5 93.7656 L43.5 92.5156 C43.5 90.8281 42.9531 90.1562 41.8594 90.1562 C41.0625 90.1562 40.1562 90.625 39.4531 91.4062 L39.3594 90.2969 L39.2031 90.1719 L37.4688 90.8125 L37.4688 91.2031 L38.5312 91.2812 C38.5625 91.8438 38.5781 92.3438 38.5781 93.1094 L38.5781 93.7656 C38.5781 94.375 38.5781 95.2969 38.5469 95.9688 L37.5469 96.1094 L37.5469 96.5 L40.4688 96.5 L40.4688 96.1094 L39.5156 95.9531 C39.5156 95.2969 39.5 94.375 39.5 93.7656 L39.5 91.875 C40.2656 91.1562 40.875 90.9062 41.4688 90.9062 C42.2344 90.9062 42.5938 91.3125 42.5938 92.5625 L42.5938 93.7656 C42.5938 94.3906 42.5781 95.3125 42.5625 95.9688 L41.5469 96.1094 L41.5469 96.5 L44.4844 96.5 L44.4844 96.1094 L43.5469 95.9531 Z" style="fill:black; stroke:none;"
      /><rect x="70" width="7" height="9" y="67" style="stroke:none;"
      /><path d="M71 72.5156 L73.9531 68.2656 L73.9531 72.5156 L71 72.5156 ZM76.2812 72.5156 L74.8594 72.5156 L74.8594 67.125 L74.2344 67.125 L70.3438 72.6406 L70.3438 73.1875 L73.9531 73.1875 L73.9531 76 L74.8594 76 L74.8594 73.1875 L76.2812 73.1875 L76.2812 72.5156 Z" style="fill:black; stroke:none;"
      /><rect x="140" width="6" height="9" y="117" style="stroke:none;"
      /><path d="M141.4219 125.0938 C142.0781 124.375 142.7031 123.7188 143.0312 123.3438 C144.9219 121.3125 145.5312 120.4688 145.5312 119.3594 C145.5312 118.0156 144.7812 117.0781 143.1562 117.0781 C141.9062 117.0781 140.7969 117.7031 140.5938 118.9688 C140.7188 119.2031 140.9062 119.3438 141.1562 119.3438 C141.4688 119.3438 141.6562 119.1094 141.7969 118.5938 L142.0938 117.6719 C142.3906 117.5938 142.6562 117.5625 142.8906 117.5625 C143.9219 117.5625 144.5469 118.3125 144.5469 119.4219 C144.5469 120.4375 143.9844 121.4219 142.7031 122.9062 C142.125 123.5781 141.3906 124.4375 140.6406 125.2812 L140.6406 126 L145.9219 126 L145.9219 125.0938 L141.4219 125.0938 Z" style="fill:black; stroke:none;"
      /><rect x="116" width="8" height="8" y="131" style="stroke:none;"
      /><path d="M120.9844 136.7031 C120.9375 137.8906 120.1562 138.6562 119.3125 138.6562 C118.2656 138.6562 117.5 137.6875 117.5 135.7188 C117.5 134.2812 118.1562 133.1562 119.3438 133.1562 C120.1406 133.1562 120.7812 133.6875 121.0938 134.6406 L120.9844 136.7031 ZM122.9062 138.2812 C122.7344 138.375 122.5469 138.4219 122.3438 138.4219 C121.9531 138.4219 121.75 138.2188 121.75 137.4219 C121.75 136.4844 121.9688 134.5312 122.1875 132.8281 L122.0312 132.7188 L121.2344 132.9219 L121.1406 133.7969 C120.7812 133.0312 120.1562 132.6562 119.3906 132.6562 C118.0469 132.6562 116.5625 133.8438 116.5625 135.9531 C116.5625 138.0938 117.7188 139.1719 119.1406 139.1719 C120.0156 139.1719 120.6875 138.8125 121.0938 137.9844 C121.2031 138.8594 121.5156 139.1719 122.0156 139.1719 C122.4688 139.1719 122.7969 138.9062 123.0156 138.5625 L122.9062 138.2812 Z" style="fill:black; stroke:none;"
      /><rect x="131" width="7" height="9" y="89" style="stroke:none;"
      /><path d="M132 94.5156 L134.9531 90.2656 L134.9531 94.5156 L132 94.5156 ZM137.2812 94.5156 L135.8594 94.5156 L135.8594 89.125 L135.2344 89.125 L131.3438 94.6406 L131.3438 95.1875 L134.9531 95.1875 L134.9531 98 L135.8594 98 L135.8594 95.1875 L137.2812 95.1875 L137.2812 94.5156 Z" style="fill:black; stroke:none;"
      /><rect x="115" width="6" height="13" y="78" style="stroke:none;"
      /><path d="M117.0938 84.2031 C117.0938 82.6562 117.75 81.8125 118.7969 81.8125 C119.7188 81.8125 120.2656 82.4531 120.2656 83.5156 C120.2656 84.7188 119.5 85.4375 118.1875 85.7031 L118.2969 86.3125 C120.2188 86.2344 120.9375 87.2188 120.9375 88.4375 C120.9375 89.625 120.2344 90.4219 118.9531 90.4219 C118.25 90.4219 117.6562 90.1562 117.0938 89.7188 L117.0938 84.2031 ZM116.2031 90.9062 L116.1094 93.375 L116.2656 93.4844 L117.1562 93.2656 L117.0156 90.0938 C117.5469 90.8438 118.3594 91.1719 119.1719 91.1719 C120.5625 91.1719 121.8594 90.2188 121.8594 88.4844 C121.8594 86.9531 120.875 86.1094 119.125 86 C120.5625 85.6094 121.1875 84.4531 121.1875 83.4844 C121.1875 82.0938 120.1562 81.3125 118.9062 81.3125 C117.2969 81.3125 116.2188 82.5469 116.2188 84.5156 L116.2031 90.9062 Z" style="fill:black; stroke:none;"
      /><rect x="185" width="6" height="13" y="102" style="stroke:none;"
      /><path d="M187.0938 108.2031 C187.0938 106.6562 187.75 105.8125 188.7969 105.8125 C189.7188 105.8125 190.2656 106.4531 190.2656 107.5156 C190.2656 108.7188 189.5 109.4375 188.1875 109.7031 L188.2969 110.3125 C190.2188 110.2344 190.9375 111.2188 190.9375 112.4375 C190.9375 113.625 190.2344 114.4219 188.9531 114.4219 C188.25 114.4219 187.6562 114.1562 187.0938 113.7188 L187.0938 108.2031 ZM186.2031 114.9062 L186.1094 117.375 L186.2656 117.4844 L187.1562 117.2656 L187.0156 114.0938 C187.5469 114.8438 188.3594 115.1719 189.1719 115.1719 C190.5625 115.1719 191.8594 114.2188 191.8594 112.4844 C191.8594 110.9531 190.875 110.1094 189.125 110 C190.5625 109.6094 191.1875 108.4531 191.1875 107.4844 C191.1875 106.0938 190.1562 105.3125 188.9062 105.3125 C187.2969 105.3125 186.2188 106.5469 186.2188 108.5156 L186.2031 114.9062 Z" style="fill:black; stroke:none;"
    /></g
  ></g
></svg
>
