<?xml version="1.0"?>
<!DOCTYPE svg PUBLIC '-//W3C//DTD SVG 1.0//EN'
          'http://www.w3.org/TR/2001/REC-SVG-20010904/DTD/svg10.dtd'>
<svg xmlns:xlink="http://www.w3.org/1999/xlink" style="fill-opacity:1; color-rendering:auto; color-interpolation:auto; text-rendering:auto; stroke:black; stroke-linecap:square; stroke-miterlimit:10; shape-rendering:auto; stroke-opacity:1; fill:black; stroke-dasharray:none; font-weight:normal; stroke-width:1; font-family:'Dialog'; font-style:normal; stroke-linejoin:miter; font-size:12px; stroke-dashoffset:0; image-rendering:auto;" viewBox="0 0 498 342" xmlns="http://www.w3.org/2000/svg"
><!--Generated by the Batik Graphics2D SVG Generator--><defs id="genericDefs"
  /><g
  ><defs id="defs1"
    ><clipPath clipPathUnits="userSpaceOnUse" id="clipPath1"
      ><path d="M394 160 L416 160 L416 182 L394 182 L394 160 Z"
      /></clipPath
      ><clipPath clipPathUnits="userSpaceOnUse" id="clipPath2"
      ><path d="M342 160 L364 160 L364 182 L342 182 L342 160 Z"
      /></clipPath
      ><clipPath clipPathUnits="userSpaceOnUse" id="clipPath3"
      ><path d="M312 171 C312 177.0751 307.0751 182 301 182 C294.9249 182 290 177.0751 290 171 C290 164.9249 294.9249 160 301 160 C307.0751 160 312 164.9249 312 171 Z"
      /></clipPath
      ><clipPath clipPathUnits="userSpaceOnUse" id="clipPath4"
      ><path d="M260 223 C260 229.0751 255.0751 234 249 234 C242.9249 234 238 229.0751 238 223 C238 216.9249 242.9249 212 249 212 C255.0751 212 260 216.9249 260 223 Z"
      /></clipPath
      ><clipPath clipPathUnits="userSpaceOnUse" id="clipPath5"
      ><path d="M186 238 L208 238 L208 260 L186 260 L186 238 Z"
      /></clipPath
      ><clipPath clipPathUnits="userSpaceOnUse" id="clipPath6"
      ><path style="fill-rule:evenodd;" d="M197 290 L208 312 L186 312 Z"
      /></clipPath
      ><clipPath clipPathUnits="userSpaceOnUse" id="clipPath7"
      ><path d="M156 249 C156 255.0751 151.0751 260 145 260 C138.9249 260 134 255.0751 134 249 C134 242.9249 138.9249 238 145 238 C151.0751 238 156 242.9249 156 249 Z"
      /></clipPath
      ><clipPath clipPathUnits="userSpaceOnUse" id="clipPath8"
      ><path d="M104 249 C104 255.0751 99.0751 260 93 260 C86.9249 260 82 255.0751 82 249 C82 242.9249 86.9249 238 93 238 C99.0751 238 104 242.9249 104 249 Z"
      /></clipPath
      ><clipPath clipPathUnits="userSpaceOnUse" id="clipPath9"
      ><path d="M186 186 L208 186 L208 208 L186 208 L186 186 Z"
      /></clipPath
      ><clipPath clipPathUnits="userSpaceOnUse" id="clipPath10"
      ><path d="M156 197 C156 203.0751 151.0751 208 145 208 C138.9249 208 134 203.0751 134 197 C134 190.9249 138.9249 186 145 186 C151.0751 186 156 190.9249 156 197 Z"
      /></clipPath
      ><clipPath clipPathUnits="userSpaceOnUse" id="clipPath11"
      ><path style="fill-rule:evenodd;" d="M93 186 L104 197 L93 208 L82 197 Z"
      /></clipPath
      ><clipPath clipPathUnits="userSpaceOnUse" id="clipPath12"
      ><path d="M238 160 L260 160 L260 182 L238 182 L238 160 Z"
      /></clipPath
      ><clipPath clipPathUnits="userSpaceOnUse" id="clipPath13"
      ><path d="M260 93 C260 99.0751 255.0751 104 249 104 C242.9249 104 238 99.0751 238 93 C238 86.9249 242.9249 82 249 82 C255.0751 82 260 86.9249 260 93 Z"
      /></clipPath
      ><clipPath clipPathUnits="userSpaceOnUse" id="clipPath14"
      ><path d="M186 134 L208 134 L208 156 L186 156 L186 134 Z"
      /></clipPath
      ><clipPath clipPathUnits="userSpaceOnUse" id="clipPath15"
      ><path d="M156 145 C156 151.0751 151.0751 156 145 156 C138.9249 156 134 151.0751 134 145 C134 138.9249 138.9249 134 145 134 C151.0751 134 156 138.9249 156 145 Z"
      /></clipPath
      ><clipPath clipPathUnits="userSpaceOnUse" id="clipPath16"
      ><path style="fill-rule:evenodd;" d="M93 134 L104 145 L93 156 L82 145 Z"
      /></clipPath
      ><clipPath clipPathUnits="userSpaceOnUse" id="clipPath17"
      ><path style="fill-rule:evenodd;" d="M41 134 L52 145 L41 156 L30 145 Z"
      /></clipPath
      ><clipPath clipPathUnits="userSpaceOnUse" id="clipPath18"
      ><path d="M186 30 L208 30 L208 52 L186 52 L186 30 Z"
      /></clipPath
      ><clipPath clipPathUnits="userSpaceOnUse" id="clipPath19"
      ><path style="fill-rule:evenodd;" d="M197 82 L208 104 L186 104 Z"
      /></clipPath
      ><clipPath clipPathUnits="userSpaceOnUse" id="clipPath20"
      ><path d="M156 41 C156 47.0751 151.0751 52 145 52 C138.9249 52 134 47.0751 134 41 C134 34.9249 138.9249 30 145 30 C151.0751 30 156 34.9249 156 41 Z"
      /></clipPath
      ><clipPath clipPathUnits="userSpaceOnUse" id="clipPath21"
      ><path style="fill-rule:evenodd;" d="M93 30 L104 41 L93 52 L82 41 Z"
      /></clipPath
    ></defs
    ><g style="fill:white; text-rendering:optimizeSpeed; stroke:white;"
    ><rect x="0" width="498" height="342" y="0" style="stroke:none;"
      /><polygon style="fill:none; stroke:black;" points=" 457 171 405 171"
      /><path d="M457 160 C451.5 165.5 462.5 176.5 457 182" style="fill:none; stroke:black;"
      /><polygon style="fill:none; stroke:black;" points=" 405 171 353 171"
      /><rect x="394" y="160" width="22" style="clip-path:url(#clipPath1); stroke:none;" height="22"
      /><rect x="394" y="160" width="22" style="clip-path:url(#clipPath1); fill:rgb(0,144,188); stroke:none;" height="22"
      /><rect x="394" y="160" width="22" style="clip-path:url(#clipPath1); fill:none; stroke:black;" height="22"
      /><rect x="394" y="160" width="22" style="fill:none; stroke:black;" height="22"
      /><polygon style="fill:none; stroke:black;" points=" 353 171 301 171"
      /><rect x="342" y="160" width="22" style="clip-path:url(#clipPath2); stroke:none;" height="22"
      /><rect x="342" y="160" width="22" style="clip-path:url(#clipPath2); fill:rgb(0,144,188); stroke:none;" height="22"
      /><rect x="342" y="160" width="22" style="clip-path:url(#clipPath2); fill:none; stroke:black;" height="22"
      /><rect x="342" y="160" width="22" style="fill:none; stroke:black;" height="22"
      /><polygon style="fill:none; stroke:black;" points=" 301 171 249 223"
      /><polygon style="fill:none; stroke:black;" points=" 301 171 249 171"
      /><polygon style="fill:none; stroke:black;" points=" 301 171 249 93"
      /><circle style="clip-path:url(#clipPath3); stroke:none;" r="11" cx="301" cy="171"
      /><rect x="290" y="160" width="22" style="clip-path:url(#clipPath3); fill:rgb(0,166,81); stroke:none;" height="22"
      /><rect x="290" y="160" width="22" style="clip-path:url(#clipPath3); fill:none; stroke:black;" height="22"
      /><circle style="fill:none; stroke:black;" r="11" cx="301" cy="171"
      /><polygon style="fill:none; stroke:black;" points=" 249 223 197 249"
      /><polygon style="fill:none; stroke:black;" points=" 249 223 197 197"
      /><circle style="clip-path:url(#clipPath4); stroke:none;" r="11" cx="249" cy="223"
      /><rect x="238" y="212" width="22" style="clip-path:url(#clipPath4); fill:rgb(0,166,81); stroke:none;" height="22"
      /><rect x="238" y="212" width="22" style="clip-path:url(#clipPath4); fill:none; stroke:black;" height="22"
      /><circle style="fill:none; stroke:black;" r="11" cx="249" cy="223"
      /><polygon style="fill:none; stroke:black;" points=" 197 249 197 301"
      /><polygon style="fill:none; stroke:black;" points=" 197 249 145 249"
      /><rect x="186" y="238" width="22" style="clip-path:url(#clipPath5); stroke:none;" height="22"
      /><rect x="186" y="238" width="22" style="clip-path:url(#clipPath5); fill:rgb(0,144,188); stroke:none;" height="22"
      /><rect x="186" y="238" width="22" style="clip-path:url(#clipPath5); fill:none; stroke:black;" height="22"
      /><rect x="186" y="238" width="22" style="fill:none; stroke:black;" height="22"
      /><polygon style="clip-path:url(#clipPath6); stroke:none;" points=" 197 290 208 312 186 312"
      /><rect x="186" y="290" width="22" style="clip-path:url(#clipPath6); fill:rgb(237,28,36); stroke:none;" height="22"
      /><rect x="186" y="290" width="22" style="clip-path:url(#clipPath6); fill:none; stroke:black;" height="22"
      /><polygon style="fill:none; stroke:black;" points=" 197 290 208 312 186 312"
      /><polygon style="fill:none; stroke:black;" points=" 145 249 93 249"
      /><circle style="clip-path:url(#clipPath7); stroke:none;" r="11" cx="145" cy="249"
      /><rect x="134" y="238" width="22" style="clip-path:url(#clipPath7); fill:rgb(255,212,0); stroke:none;" height="22"
      /><rect x="134" y="238" width="22" style="clip-path:url(#clipPath7); fill:none; stroke:black;" height="22"
      /><circle style="fill:none; stroke:black;" r="11" cx="145" cy="249"
      /><circle style="clip-path:url(#clipPath8); stroke:none;" r="11" cx="93" cy="249"
      /><rect x="82" y="238" width="22" style="clip-path:url(#clipPath8); fill:rgb(255,212,0); stroke:none;" height="22"
      /><rect x="82" y="238" width="22" style="clip-path:url(#clipPath8); fill:none; stroke:black;" height="22"
      /><circle style="fill:none; stroke:black;" r="11" cx="93" cy="249"
      /><rect x="123" y="252" width="6" style="stroke:none;" height="10"
    /></g
    ><g style="font-family:'Serif'; text-rendering:optimizeSpeed; "
    ><path style="stroke:none;" d="M125.2344 253.6562 C125.5156 253.5938 125.7656 253.5625 126.0156 253.5625 C127.0625 253.5625 127.6719 254.1719 127.6719 255.2656 C127.6719 256.4375 126.9062 257.1094 125.7031 257.1094 L125.1875 257.1094 L125.1875 257.6406 L125.7969 257.6406 C127.2188 257.6406 127.9062 258.4219 127.9062 259.6406 C127.9062 260.8438 127.1719 261.6875 125.875 261.6875 C125.6094 261.6875 125.3125 261.6562 125.0156 261.5625 L124.7812 260.8125 C124.625 260.2812 124.5 260.0469 124.1406 260.0469 C123.8906 260.0469 123.7031 260.1719 123.5781 260.4219 C123.8438 261.6406 124.7812 262.1719 126.0312 262.1719 C127.7188 262.1719 128.875 261.125 128.875 259.7031 C128.875 258.5 128.2031 257.625 126.7969 257.375 C127.9531 257.0156 128.6094 256.2031 128.6094 255.2031 C128.6094 253.9219 127.6719 253.0781 126.1875 253.0781 C125.0469 253.0781 124.0625 253.5938 123.7969 254.6875 C123.9062 255 124.1094 255.1094 124.3594 255.1094 C124.7344 255.1094 124.8906 254.8906 125 254.4062 L125.2344 253.6562 Z"
      /><rect x="108" y="253" width="8" style="fill:white; stroke:none;" height="8"
      /><path style="stroke:none;" d="M112.9844 258.7031 C112.9375 259.8906 112.1562 260.6562 111.3125 260.6562 C110.2656 260.6562 109.5 259.6875 109.5 257.7188 C109.5 256.2812 110.1562 255.1562 111.3438 255.1562 C112.1406 255.1562 112.7812 255.6875 113.0938 256.6406 L112.9844 258.7031 ZM114.9062 260.2812 C114.7344 260.375 114.5469 260.4219 114.3438 260.4219 C113.9531 260.4219 113.75 260.2188 113.75 259.4219 C113.75 258.4844 113.9688 256.5312 114.1875 254.8281 L114.0312 254.7188 L113.2344 254.9219 L113.1406 255.7969 C112.7812 255.0312 112.1562 254.6562 111.3906 254.6562 C110.0469 254.6562 108.5625 255.8438 108.5625 257.9531 C108.5625 260.0938 109.7188 261.1719 111.1406 261.1719 C112.0156 261.1719 112.6875 260.8125 113.0938 259.9844 C113.2031 260.8594 113.5156 261.1719 114.0156 261.1719 C114.4688 261.1719 114.7969 260.9062 115.0156 260.5625 L114.9062 260.2812 Z"
      /><rect x="202" y="263" width="6" style="fill:white; stroke:none;" height="10"
      /><path style="stroke:none;" d="M204.2344 264.6562 C204.5156 264.5938 204.7656 264.5625 205.0156 264.5625 C206.0625 264.5625 206.6719 265.1719 206.6719 266.2656 C206.6719 267.4375 205.9062 268.1094 204.7031 268.1094 L204.1875 268.1094 L204.1875 268.6406 L204.7969 268.6406 C206.2188 268.6406 206.9062 269.4219 206.9062 270.6406 C206.9062 271.8438 206.1719 272.6875 204.875 272.6875 C204.6094 272.6875 204.3125 272.6562 204.0156 272.5625 L203.7812 271.8125 C203.625 271.2812 203.5 271.0469 203.1406 271.0469 C202.8906 271.0469 202.7031 271.1719 202.5781 271.4219 C202.8438 272.6406 203.7812 273.1719 205.0312 273.1719 C206.7188 273.1719 207.875 272.125 207.875 270.7031 C207.875 269.5 207.2031 268.625 205.7969 268.375 C206.9531 268.0156 207.6094 267.2031 207.6094 266.2031 C207.6094 264.9219 206.6719 264.0781 205.1875 264.0781 C204.0469 264.0781 203.0625 264.5938 202.7969 265.6875 C202.9062 266 203.1094 266.1094 203.3594 266.1094 C203.7344 266.1094 203.8906 265.8906 204 265.4062 L204.2344 264.6562 Z"
      /><rect x="201" y="278" width="8" style="fill:white; stroke:none;" height="8"
      /><path style="stroke:none;" d="M205.9844 283.7031 C205.9375 284.8906 205.1562 285.6562 204.3125 285.6562 C203.2656 285.6562 202.5 284.6875 202.5 282.7188 C202.5 281.2812 203.1562 280.1562 204.3438 280.1562 C205.1406 280.1562 205.7812 280.6875 206.0938 281.6406 L205.9844 283.7031 ZM207.9062 285.2812 C207.7344 285.375 207.5469 285.4219 207.3438 285.4219 C206.9531 285.4219 206.75 285.2188 206.75 284.4219 C206.75 283.4844 206.9688 281.5312 207.1875 279.8281 L207.0312 279.7188 L206.2344 279.9219 L206.1406 280.7969 C205.7812 280.0312 205.1562 279.6562 204.3906 279.6562 C203.0469 279.6562 201.5625 280.8438 201.5625 282.9531 C201.5625 285.0938 202.7188 286.1719 204.1406 286.1719 C205.0156 286.1719 205.6875 285.8125 206.0938 284.9844 C206.2031 285.8594 206.5156 286.1719 207.0156 286.1719 C207.4688 286.1719 207.7969 285.9062 208.0156 285.5625 L207.9062 285.2812 Z"
      /><rect x="174" y="252" width="7" style="fill:white; stroke:none;" height="9"
      /><path style="stroke:none;" d="M175 257.5156 L177.9531 253.2656 L177.9531 257.5156 L175 257.5156 ZM180.2812 257.5156 L178.8594 257.5156 L178.8594 252.125 L178.2344 252.125 L174.3438 257.6406 L174.3438 258.1875 L177.9531 258.1875 L177.9531 261 L178.8594 261 L178.8594 258.1875 L180.2812 258.1875 L180.2812 257.5156 Z"
      /><rect x="161" y="250" width="6" style="fill:white; stroke:none;" height="13"
      /><path style="stroke:none;" d="M163.0938 256.2031 C163.0938 254.6562 163.75 253.8125 164.7969 253.8125 C165.7188 253.8125 166.2656 254.4531 166.2656 255.5156 C166.2656 256.7188 165.5 257.4375 164.1875 257.7031 L164.2969 258.3125 C166.2188 258.2344 166.9375 259.2188 166.9375 260.4375 C166.9375 261.625 166.2344 262.4219 164.9531 262.4219 C164.25 262.4219 163.6562 262.1562 163.0938 261.7188 L163.0938 256.2031 ZM162.2031 262.9062 L162.1094 265.375 L162.2656 265.4844 L163.1562 265.2656 L163.0156 262.0938 C163.5469 262.8438 164.3594 263.1719 165.1719 263.1719 C166.5625 263.1719 167.8594 262.2188 167.8594 260.4844 C167.8594 258.9531 166.875 258.1094 165.125 258 C166.5625 257.6094 167.1875 256.4531 167.1875 255.4844 C167.1875 254.0938 166.1562 253.3125 164.9062 253.3125 C163.2969 253.3125 162.2188 254.5469 162.2188 256.5156 L162.2031 262.9062 Z"
      /><polygon style="fill:none;" points=" 197 197 145 197"
      /><rect x="186" y="186" width="22" style="clip-path:url(#clipPath9); fill:white; stroke:none;" height="22"
      /><rect x="186" y="186" width="22" style="clip-path:url(#clipPath9); fill:rgb(0,144,188); stroke:none;" height="22"
      /><rect x="186" y="186" width="22" style="fill:none; clip-path:url(#clipPath9);" height="22"
      /><rect x="186" width="22" height="22" y="186" style="fill:none;"
      /><polygon style="fill:none;" points=" 145 197 93 197"
      /><circle style="fill:white; clip-path:url(#clipPath10); stroke:none;" r="11" cx="145" cy="197"
      /><rect x="134" y="186" width="22" style="clip-path:url(#clipPath10); fill:rgb(255,212,0); stroke:none;" height="22"
      /><rect x="134" y="186" width="22" style="fill:none; clip-path:url(#clipPath10);" height="22"
      /><circle r="11" style="fill:none;" cx="145" cy="197"
      /><polygon style="fill:white; clip-path:url(#clipPath11); stroke:none;" points=" 93 186 104 197 93 208 82 197"
      /><rect x="82" y="186" width="22" style="clip-path:url(#clipPath11); fill:rgb(143,204,233); stroke:none;" height="22"
      /><rect x="82" y="186" width="22" style="fill:none; clip-path:url(#clipPath11);" height="22"
      /><polygon style="fill:none;" points=" 93 186 104 197 93 208 82 197"
      /><rect x="118" y="198" width="16" style="fill:white; stroke:none;" height="13"
      /><path style="stroke:none;" d="M120.2344 202.6562 C120.5156 202.5938 120.7656 202.5625 121.0156 202.5625 C122.0625 202.5625 122.6719 203.1719 122.6719 204.2656 C122.6719 205.4375 121.9062 206.1094 120.7031 206.1094 L120.1875 206.1094 L120.1875 206.6406 L120.7969 206.6406 C122.2188 206.6406 122.9062 207.4219 122.9062 208.6406 C122.9062 209.8438 122.1719 210.6875 120.875 210.6875 C120.6094 210.6875 120.3125 210.6562 120.0156 210.5625 L119.7812 209.8125 C119.625 209.2812 119.5 209.0469 119.1406 209.0469 C118.8906 209.0469 118.7031 209.1719 118.5781 209.4219 C118.8438 210.6406 119.7812 211.1719 121.0312 211.1719 C122.7188 211.1719 123.875 210.125 123.875 208.7031 C123.875 207.5 123.2031 206.625 121.7969 206.375 C122.9531 206.0156 123.6094 205.2031 123.6094 204.2031 C123.6094 202.9219 122.6719 202.0781 121.1875 202.0781 C120.0469 202.0781 119.0625 202.5938 118.7969 203.6875 C118.9062 204 119.1094 204.1094 119.3594 204.1094 C119.7344 204.1094 119.8906 203.8906 120 203.4062 L120.2344 202.6562 ZM124.4993 213.0938 L125.1087 213.0938 L128.6087 201.7344 L127.9837 201.7344 L124.4993 213.0938 ZM131.9878 210.6875 C130.8472 210.6875 130.1753 209.5 130.1753 207.2969 C130.1753 207.2188 130.1753 207.125 130.1753 207.0469 C130.7378 206.5 131.3628 206.3125 131.9878 206.3125 C132.9566 206.3125 133.5972 206.9844 133.5972 208.4531 C133.5972 209.9375 132.9566 210.6875 131.9878 210.6875 ZM134.1753 202.0781 C130.9878 202.4531 129.2066 204.7656 129.2066 207.4531 C129.2066 209.7812 130.2534 211.1719 131.9566 211.1719 C133.4878 211.1719 134.5659 210.1094 134.5659 208.2812 C134.5659 206.6875 133.6128 205.6562 132.2066 205.6562 C131.4722 205.6562 130.7847 205.9844 130.2222 206.5781 C130.4409 204.4062 131.7222 202.9688 134.2378 202.3906 L134.1753 202.0781 Z"
      /><rect x="108" y="201" width="8" style="fill:white; stroke:none;" height="8"
      /><path style="stroke:none;" d="M112.9844 206.7031 C112.9375 207.8906 112.1562 208.6562 111.3125 208.6562 C110.2656 208.6562 109.5 207.6875 109.5 205.7188 C109.5 204.2812 110.1562 203.1562 111.3438 203.1562 C112.1406 203.1562 112.7812 203.6875 113.0938 204.6406 L112.9844 206.7031 ZM114.9062 208.2812 C114.7344 208.375 114.5469 208.4219 114.3438 208.4219 C113.9531 208.4219 113.75 208.2188 113.75 207.4219 C113.75 206.4844 113.9688 204.5312 114.1875 202.8281 L114.0312 202.7188 L113.2344 202.9219 L113.1406 203.7969 C112.7812 203.0312 112.1562 202.6562 111.3906 202.6562 C110.0469 202.6562 108.5625 203.8438 108.5625 205.9531 C108.5625 208.0938 109.7188 209.1719 111.1406 209.1719 C112.0156 209.1719 112.6875 208.8125 113.0938 207.9844 C113.2031 208.8594 113.5156 209.1719 114.0156 209.1719 C114.4688 209.1719 114.7969 208.9062 115.0156 208.5625 L114.9062 208.2812 Z"
      /><rect x="174" y="200" width="7" style="fill:white; stroke:none;" height="9"
      /><path style="stroke:none;" d="M175 205.5156 L177.9531 201.2656 L177.9531 205.5156 L175 205.5156 ZM180.2812 205.5156 L178.8594 205.5156 L178.8594 200.125 L178.2344 200.125 L174.3438 205.6406 L174.3438 206.1875 L177.9531 206.1875 L177.9531 209 L178.8594 209 L178.8594 206.1875 L180.2812 206.1875 L180.2812 205.5156 Z"
      /><rect x="161" y="198" width="6" style="fill:white; stroke:none;" height="13"
      /><path style="stroke:none;" d="M163.0938 204.2031 C163.0938 202.6562 163.75 201.8125 164.7969 201.8125 C165.7188 201.8125 166.2656 202.4531 166.2656 203.5156 C166.2656 204.7188 165.5 205.4375 164.1875 205.7031 L164.2969 206.3125 C166.2188 206.2344 166.9375 207.2188 166.9375 208.4375 C166.9375 209.625 166.2344 210.4219 164.9531 210.4219 C164.25 210.4219 163.6562 210.1562 163.0938 209.7188 L163.0938 204.2031 ZM162.2031 210.9062 L162.1094 213.375 L162.2656 213.4844 L163.1562 213.2656 L163.0156 210.0938 C163.5469 210.8438 164.3594 211.1719 165.1719 211.1719 C166.5625 211.1719 167.8594 210.2188 167.8594 208.4844 C167.8594 206.9531 166.875 206.1094 165.125 206 C166.5625 205.6094 167.1875 204.4531 167.1875 203.4844 C167.1875 202.0938 166.1562 201.3125 164.9062 201.3125 C163.2969 201.3125 162.2188 202.5469 162.2188 204.5156 L162.2031 210.9062 Z"
      /><rect x="231" y="234" width="6" style="fill:white; stroke:none;" height="9"
      /><path style="stroke:none;" d="M232.4219 242.0938 C233.0781 241.375 233.7031 240.7188 234.0312 240.3438 C235.9219 238.3125 236.5312 237.4688 236.5312 236.3594 C236.5312 235.0156 235.7812 234.0781 234.1562 234.0781 C232.9062 234.0781 231.7969 234.7031 231.5938 235.9688 C231.7188 236.2031 231.9062 236.3438 232.1562 236.3438 C232.4688 236.3438 232.6562 236.1094 232.7969 235.5938 L233.0938 234.6719 C233.3906 234.5938 233.6562 234.5625 233.8906 234.5625 C234.9219 234.5625 235.5469 235.3125 235.5469 236.4219 C235.5469 237.4375 234.9844 238.4219 233.7031 239.9062 C233.125 240.5781 232.3906 241.4375 231.6406 242.2812 L231.6406 243 L236.9219 243 L236.9219 242.0938 L232.4219 242.0938 Z"
      /><rect x="215" y="240" width="6" style="fill:white; stroke:none;" height="13"
      /><path style="stroke:none;" d="M217.0938 246.2031 C217.0938 244.6562 217.75 243.8125 218.7969 243.8125 C219.7188 243.8125 220.2656 244.4531 220.2656 245.5156 C220.2656 246.7188 219.5 247.4375 218.1875 247.7031 L218.2969 248.3125 C220.2188 248.2344 220.9375 249.2188 220.9375 250.4375 C220.9375 251.625 220.2344 252.4219 218.9531 252.4219 C218.25 252.4219 217.6562 252.1562 217.0938 251.7188 L217.0938 246.2031 ZM216.2031 252.9062 L216.1094 255.375 L216.2656 255.4844 L217.1562 255.2656 L217.0156 252.0938 C217.5469 252.8438 218.3594 253.1719 219.1719 253.1719 C220.5625 253.1719 221.8594 252.2188 221.8594 250.4844 C221.8594 248.9531 220.875 248.1094 219.125 248 C220.5625 247.6094 221.1875 246.4531 221.1875 245.4844 C221.1875 244.0938 220.1562 243.3125 218.9062 243.3125 C217.2969 243.3125 216.2188 244.5469 216.2188 246.5156 L216.2031 252.9062 Z"
      /><rect x="223" y="216" width="7" style="fill:white; stroke:none;" height="9"
      /><path style="stroke:none;" d="M224 221.5156 L226.9531 217.2656 L226.9531 221.5156 L224 221.5156 ZM229.2812 221.5156 L227.8594 221.5156 L227.8594 216.125 L227.2344 216.125 L223.3438 221.6406 L223.3438 222.1875 L226.9531 222.1875 L226.9531 225 L227.8594 225 L227.8594 222.1875 L229.2812 222.1875 L229.2812 221.5156 Z"
      /><rect x="208" y="206" width="6" style="fill:white; stroke:none;" height="13"
      /><path style="stroke:none;" d="M210.0938 212.2031 C210.0938 210.6562 210.75 209.8125 211.7969 209.8125 C212.7188 209.8125 213.2656 210.4531 213.2656 211.5156 C213.2656 212.7188 212.5 213.4375 211.1875 213.7031 L211.2969 214.3125 C213.2188 214.2344 213.9375 215.2188 213.9375 216.4375 C213.9375 217.625 213.2344 218.4219 211.9531 218.4219 C211.25 218.4219 210.6562 218.1562 210.0938 217.7188 L210.0938 212.2031 ZM209.2031 218.9062 L209.1094 221.375 L209.2656 221.4844 L210.1562 221.2656 L210.0156 218.0938 C210.5469 218.8438 211.3594 219.1719 212.1719 219.1719 C213.5625 219.1719 214.8594 218.2188 214.8594 216.4844 C214.8594 214.9531 213.875 214.1094 212.125 214 C213.5625 213.6094 214.1875 212.4531 214.1875 211.4844 C214.1875 210.0938 213.1562 209.3125 211.9062 209.3125 C210.2969 209.3125 209.2188 210.5469 209.2188 212.5156 L209.2031 218.9062 Z"
      /><rect x="238" y="160" width="22" style="clip-path:url(#clipPath12); fill:white; stroke:none;" height="22"
      /><rect x="238" y="160" width="22" style="clip-path:url(#clipPath12); fill:rgb(0,144,188); stroke:none;" height="22"
      /><rect x="238" y="160" width="22" style="fill:none; clip-path:url(#clipPath12);" height="22"
      /><rect x="238" width="22" height="22" y="160" style="fill:none;"
      /><polygon style="fill:none;" points=" 249 93 197 145"
      /><polygon style="fill:none;" points=" 249 93 197 41"
      /><circle style="fill:white; clip-path:url(#clipPath13); stroke:none;" r="11" cx="249" cy="93"
      /><rect x="238" y="82" width="22" style="clip-path:url(#clipPath13); fill:rgb(0,166,81); stroke:none;" height="22"
      /><rect x="238" y="82" width="22" style="fill:none; clip-path:url(#clipPath13);" height="22"
      /><circle r="11" style="fill:none;" cx="249" cy="93"
      /><polygon style="fill:none;" points=" 197 145 145 145"
      /><rect x="186" y="134" width="22" style="clip-path:url(#clipPath14); fill:white; stroke:none;" height="22"
      /><rect x="186" y="134" width="22" style="clip-path:url(#clipPath14); fill:rgb(0,144,188); stroke:none;" height="22"
      /><rect x="186" y="134" width="22" style="fill:none; clip-path:url(#clipPath14);" height="22"
      /><rect x="186" width="22" height="22" y="134" style="fill:none;"
      /><polygon style="fill:none;" points=" 145 145 93 145"
      /><circle style="fill:white; clip-path:url(#clipPath15); stroke:none;" r="11" cx="145" cy="145"
      /><rect x="134" y="134" width="22" style="clip-path:url(#clipPath15); fill:rgb(255,212,0); stroke:none;" height="22"
      /><rect x="134" y="134" width="22" style="fill:none; clip-path:url(#clipPath15);" height="22"
      /><circle r="11" style="fill:none;" cx="145" cy="145"
      /><polygon style="fill:none;" points=" 93 145 41 145"
      /><polygon style="fill:white; clip-path:url(#clipPath16); stroke:none;" points=" 93 134 104 145 93 156 82 145"
      /><rect x="82" y="134" width="22" style="clip-path:url(#clipPath16); fill:rgb(165,67,153); stroke:none;" height="22"
      /><rect x="82" y="134" width="22" style="fill:none; clip-path:url(#clipPath16);" height="22"
      /><polygon style="fill:none;" points=" 93 134 104 145 93 156 82 145"
      /><polygon style="fill:white; clip-path:url(#clipPath17); stroke:none;" points=" 41 134 52 145 41 156 30 145"
      /><rect x="30" y="134" width="22" style="clip-path:url(#clipPath17); fill:rgb(165,67,153); stroke:none;" height="22"
      /><rect x="30" y="134" width="22" style="fill:none; clip-path:url(#clipPath17);" height="22"
      /><polygon style="fill:none;" points=" 41 134 52 145 41 156 30 145"
      /><rect x="71" y="148" width="6" style="fill:white; stroke:none;" height="10"
      /><path style="stroke:none;" d="M74.2656 157.7031 C73.2031 157.7031 72.5 156.9688 72.5 155.9062 C72.5 154.9688 72.9375 154.4219 73.9062 153.8438 C75.4688 154.5625 75.9531 155.1719 75.9531 156.0156 C75.9531 157 75.2969 157.7031 74.2656 157.7031 ZM72.75 151.0469 C72.75 150.1094 73.4531 149.5625 74.2344 149.5625 C75.1562 149.5625 75.6562 150.2656 75.6562 151.0938 C75.6562 151.9688 75.3281 152.5469 74.4688 153.1562 C73.0938 152.5156 72.75 151.7969 72.75 151.0469 ZM74.8594 153.3438 C76.0938 152.6562 76.4531 151.8125 76.4531 151.0938 C76.4531 149.9219 75.6094 149.0781 74.2656 149.0781 C72.9375 149.0781 71.8906 149.9062 71.8906 151.2031 C71.8906 152.2031 72.375 153.0469 73.5156 153.6562 C72.2656 154.2812 71.5938 155 71.5938 156.0156 C71.5938 157.3906 72.6562 158.1719 74.2344 158.1719 C75.75 158.1719 76.875 157.25 76.875 155.8906 C76.875 154.7344 76.2656 154 74.8594 153.3438 Z"
      /><rect x="56" y="149" width="8" style="fill:white; stroke:none;" height="8"
      /><path style="stroke:none;" d="M60.9844 154.7031 C60.9375 155.8906 60.1562 156.6562 59.3125 156.6562 C58.2656 156.6562 57.5 155.6875 57.5 153.7188 C57.5 152.2812 58.1562 151.1562 59.3438 151.1562 C60.1406 151.1562 60.7812 151.6875 61.0938 152.6406 L60.9844 154.7031 ZM62.9062 156.2812 C62.7344 156.375 62.5469 156.4219 62.3438 156.4219 C61.9531 156.4219 61.75 156.2188 61.75 155.4219 C61.75 154.4844 61.9688 152.5312 62.1875 150.8281 L62.0312 150.7188 L61.2344 150.9219 L61.1406 151.7969 C60.7812 151.0312 60.1562 150.6562 59.3906 150.6562 C58.0469 150.6562 56.5625 151.8438 56.5625 153.9531 C56.5625 156.0938 57.7188 157.1719 59.1406 157.1719 C60.0156 157.1719 60.6875 156.8125 61.0938 155.9844 C61.2031 156.8594 61.5156 157.1719 62.0156 157.1719 C62.4688 157.1719 62.7969 156.9062 63.0156 156.5625 L62.9062 156.2812 Z"
      /><rect x="118" y="146" width="16" style="fill:white; stroke:none;" height="13"
      /><path style="stroke:none;" d="M120.2344 150.6562 C120.5156 150.5938 120.7656 150.5625 121.0156 150.5625 C122.0625 150.5625 122.6719 151.1719 122.6719 152.2656 C122.6719 153.4375 121.9062 154.1094 120.7031 154.1094 L120.1875 154.1094 L120.1875 154.6406 L120.7969 154.6406 C122.2188 154.6406 122.9062 155.4219 122.9062 156.6406 C122.9062 157.8438 122.1719 158.6875 120.875 158.6875 C120.6094 158.6875 120.3125 158.6562 120.0156 158.5625 L119.7812 157.8125 C119.625 157.2812 119.5 157.0469 119.1406 157.0469 C118.8906 157.0469 118.7031 157.1719 118.5781 157.4219 C118.8438 158.6406 119.7812 159.1719 121.0312 159.1719 C122.7188 159.1719 123.875 158.125 123.875 156.7031 C123.875 155.5 123.2031 154.625 121.7969 154.375 C122.9531 154.0156 123.6094 153.2031 123.6094 152.2031 C123.6094 150.9219 122.6719 150.0781 121.1875 150.0781 C120.0469 150.0781 119.0625 150.5938 118.7969 151.6875 C118.9062 152 119.1094 152.1094 119.3594 152.1094 C119.7344 152.1094 119.8906 151.8906 120 151.4062 L120.2344 150.6562 ZM124.4993 161.0938 L125.1087 161.0938 L128.6087 149.7344 L127.9837 149.7344 L124.4993 161.0938 ZM131.9878 158.6875 C130.8472 158.6875 130.1753 157.5 130.1753 155.2969 C130.1753 155.2188 130.1753 155.125 130.1753 155.0469 C130.7378 154.5 131.3628 154.3125 131.9878 154.3125 C132.9566 154.3125 133.5972 154.9844 133.5972 156.4531 C133.5972 157.9375 132.9566 158.6875 131.9878 158.6875 ZM134.1753 150.0781 C130.9878 150.4531 129.2066 152.7656 129.2066 155.4531 C129.2066 157.7812 130.2534 159.1719 131.9566 159.1719 C133.4878 159.1719 134.5659 158.1094 134.5659 156.2812 C134.5659 154.6875 133.6128 153.6562 132.2066 153.6562 C131.4722 153.6562 130.7847 153.9844 130.2222 154.5781 C130.4409 152.4062 131.7222 150.9688 134.2378 150.3906 L134.1753 150.0781 Z"
      /><rect x="108" y="149" width="8" style="fill:white; stroke:none;" height="8"
      /><path style="stroke:none;" d="M112.9844 154.7031 C112.9375 155.8906 112.1562 156.6562 111.3125 156.6562 C110.2656 156.6562 109.5 155.6875 109.5 153.7188 C109.5 152.2812 110.1562 151.1562 111.3438 151.1562 C112.1406 151.1562 112.7812 151.6875 113.0938 152.6406 L112.9844 154.7031 ZM114.9062 156.2812 C114.7344 156.375 114.5469 156.4219 114.3438 156.4219 C113.9531 156.4219 113.75 156.2188 113.75 155.4219 C113.75 154.4844 113.9688 152.5312 114.1875 150.8281 L114.0312 150.7188 L113.2344 150.9219 L113.1406 151.7969 C112.7812 151.0312 112.1562 150.6562 111.3906 150.6562 C110.0469 150.6562 108.5625 151.8438 108.5625 153.9531 C108.5625 156.0938 109.7188 157.1719 111.1406 157.1719 C112.0156 157.1719 112.6875 156.8125 113.0938 155.9844 C113.2031 156.8594 113.5156 157.1719 114.0156 157.1719 C114.4688 157.1719 114.7969 156.9062 115.0156 156.5625 L114.9062 156.2812 Z"
      /><rect x="174" y="148" width="7" style="fill:white; stroke:none;" height="9"
      /><path style="stroke:none;" d="M175 153.5156 L177.9531 149.2656 L177.9531 153.5156 L175 153.5156 ZM180.2812 153.5156 L178.8594 153.5156 L178.8594 148.125 L178.2344 148.125 L174.3438 153.6406 L174.3438 154.1875 L177.9531 154.1875 L177.9531 157 L178.8594 157 L178.8594 154.1875 L180.2812 154.1875 L180.2812 153.5156 Z"
      /><rect x="161" y="146" width="6" style="fill:white; stroke:none;" height="13"
      /><path style="stroke:none;" d="M163.0938 152.2031 C163.0938 150.6562 163.75 149.8125 164.7969 149.8125 C165.7188 149.8125 166.2656 150.4531 166.2656 151.5156 C166.2656 152.7188 165.5 153.4375 164.1875 153.7031 L164.2969 154.3125 C166.2188 154.2344 166.9375 155.2188 166.9375 156.4375 C166.9375 157.625 166.2344 158.4219 164.9531 158.4219 C164.25 158.4219 163.6562 158.1562 163.0938 157.7188 L163.0938 152.2031 ZM162.2031 158.9062 L162.1094 161.375 L162.2656 161.4844 L163.1562 161.2656 L163.0156 158.0938 C163.5469 158.8438 164.3594 159.1719 165.1719 159.1719 C166.5625 159.1719 167.8594 158.2188 167.8594 156.4844 C167.8594 154.9531 166.875 154.1094 165.125 154 C166.5625 153.6094 167.1875 152.4531 167.1875 151.4844 C167.1875 150.0938 166.1562 149.3125 164.9062 149.3125 C163.2969 149.3125 162.2188 150.5469 162.2188 152.5156 L162.2031 158.9062 Z"
      /><polygon style="fill:none;" points=" 197 41 197 93"
      /><polygon style="fill:none;" points=" 197 41 145 41"
      /><rect x="186" y="30" width="22" style="clip-path:url(#clipPath18); fill:white; stroke:none;" height="22"
      /><rect x="186" y="30" width="22" style="clip-path:url(#clipPath18); fill:rgb(0,144,188); stroke:none;" height="22"
      /><rect x="186" y="30" width="22" style="fill:none; clip-path:url(#clipPath18);" height="22"
      /><rect x="186" width="22" height="22" y="30" style="fill:none;"
      /><polygon style="fill:white; clip-path:url(#clipPath19); stroke:none;" points=" 197 82 208 104 186 104"
      /><rect x="186" y="82" width="22" style="clip-path:url(#clipPath19); fill:rgb(237,28,36); stroke:none;" height="22"
      /><rect x="186" y="82" width="22" style="fill:none; clip-path:url(#clipPath19);" height="22"
      /><polygon style="fill:none;" points=" 197 82 208 104 186 104"
      /><polygon style="fill:none;" points=" 145 41 93 41"
      /><circle style="fill:white; clip-path:url(#clipPath20); stroke:none;" r="11" cx="145" cy="41"
      /><rect x="134" y="30" width="22" style="clip-path:url(#clipPath20); fill:rgb(255,212,0); stroke:none;" height="22"
      /><rect x="134" y="30" width="22" style="fill:none; clip-path:url(#clipPath20);" height="22"
      /><circle r="11" style="fill:none;" cx="145" cy="41"
      /><polygon style="fill:white; clip-path:url(#clipPath21); stroke:none;" points=" 93 30 104 41 93 52 82 41"
      /><rect x="82" y="30" width="22" style="clip-path:url(#clipPath21); fill:rgb(165,67,153); stroke:none;" height="22"
      /><rect x="82" y="30" width="22" style="fill:none; clip-path:url(#clipPath21);" height="22"
      /><polygon style="fill:none;" points=" 93 30 104 41 93 52 82 41"
      /><rect x="118" y="42" width="16" style="fill:white; stroke:none;" height="13"
      /><path style="stroke:none;" d="M120.2344 46.6562 C120.5156 46.5938 120.7656 46.5625 121.0156 46.5625 C122.0625 46.5625 122.6719 47.1719 122.6719 48.2656 C122.6719 49.4375 121.9062 50.1094 120.7031 50.1094 L120.1875 50.1094 L120.1875 50.6406 L120.7969 50.6406 C122.2188 50.6406 122.9062 51.4219 122.9062 52.6406 C122.9062 53.8438 122.1719 54.6875 120.875 54.6875 C120.6094 54.6875 120.3125 54.6562 120.0156 54.5625 L119.7812 53.8125 C119.625 53.2812 119.5 53.0469 119.1406 53.0469 C118.8906 53.0469 118.7031 53.1719 118.5781 53.4219 C118.8438 54.6406 119.7812 55.1719 121.0312 55.1719 C122.7188 55.1719 123.875 54.125 123.875 52.7031 C123.875 51.5 123.2031 50.625 121.7969 50.375 C122.9531 50.0156 123.6094 49.2031 123.6094 48.2031 C123.6094 46.9219 122.6719 46.0781 121.1875 46.0781 C120.0469 46.0781 119.0625 46.5938 118.7969 47.6875 C118.9062 48 119.1094 48.1094 119.3594 48.1094 C119.7344 48.1094 119.8906 47.8906 120 47.4062 L120.2344 46.6562 ZM124.4993 57.0938 L125.1087 57.0938 L128.6087 45.7344 L127.9837 45.7344 L124.4993 57.0938 ZM131.9878 54.6875 C130.8472 54.6875 130.1753 53.5 130.1753 51.2969 C130.1753 51.2188 130.1753 51.125 130.1753 51.0469 C130.7378 50.5 131.3628 50.3125 131.9878 50.3125 C132.9566 50.3125 133.5972 50.9844 133.5972 52.4531 C133.5972 53.9375 132.9566 54.6875 131.9878 54.6875 ZM134.1753 46.0781 C130.9878 46.4531 129.2066 48.7656 129.2066 51.4531 C129.2066 53.7812 130.2534 55.1719 131.9566 55.1719 C133.4878 55.1719 134.5659 54.1094 134.5659 52.2812 C134.5659 50.6875 133.6128 49.6562 132.2066 49.6562 C131.4722 49.6562 130.7847 49.9844 130.2222 50.5781 C130.4409 48.4062 131.7222 46.9688 134.2378 46.3906 L134.1753 46.0781 Z"
      /><rect x="108" y="45" width="8" style="fill:white; stroke:none;" height="8"
      /><path style="stroke:none;" d="M112.9844 50.7031 C112.9375 51.8906 112.1562 52.6562 111.3125 52.6562 C110.2656 52.6562 109.5 51.6875 109.5 49.7188 C109.5 48.2812 110.1562 47.1562 111.3438 47.1562 C112.1406 47.1562 112.7812 47.6875 113.0938 48.6406 L112.9844 50.7031 ZM114.9062 52.2812 C114.7344 52.375 114.5469 52.4219 114.3438 52.4219 C113.9531 52.4219 113.75 52.2188 113.75 51.4219 C113.75 50.4844 113.9688 48.5312 114.1875 46.8281 L114.0312 46.7188 L113.2344 46.9219 L113.1406 47.7969 C112.7812 47.0312 112.1562 46.6562 111.3906 46.6562 C110.0469 46.6562 108.5625 47.8438 108.5625 49.9531 C108.5625 52.0938 109.7188 53.1719 111.1406 53.1719 C112.0156 53.1719 112.6875 52.8125 113.0938 51.9844 C113.2031 52.8594 113.5156 53.1719 114.0156 53.1719 C114.4688 53.1719 114.7969 52.9062 115.0156 52.5625 L114.9062 52.2812 Z"
      /><rect x="202" y="55" width="6" style="fill:white; stroke:none;" height="10"
      /><path style="stroke:none;" d="M204.2344 56.6562 C204.5156 56.5938 204.7656 56.5625 205.0156 56.5625 C206.0625 56.5625 206.6719 57.1719 206.6719 58.2656 C206.6719 59.4375 205.9062 60.1094 204.7031 60.1094 L204.1875 60.1094 L204.1875 60.6406 L204.7969 60.6406 C206.2188 60.6406 206.9062 61.4219 206.9062 62.6406 C206.9062 63.8438 206.1719 64.6875 204.875 64.6875 C204.6094 64.6875 204.3125 64.6562 204.0156 64.5625 L203.7812 63.8125 C203.625 63.2812 203.5 63.0469 203.1406 63.0469 C202.8906 63.0469 202.7031 63.1719 202.5781 63.4219 C202.8438 64.6406 203.7812 65.1719 205.0312 65.1719 C206.7188 65.1719 207.875 64.125 207.875 62.7031 C207.875 61.5 207.2031 60.625 205.7969 60.375 C206.9531 60.0156 207.6094 59.2031 207.6094 58.2031 C207.6094 56.9219 206.6719 56.0781 205.1875 56.0781 C204.0469 56.0781 203.0625 56.5938 202.7969 57.6875 C202.9062 58 203.1094 58.1094 203.3594 58.1094 C203.7344 58.1094 203.8906 57.8906 204 57.4062 L204.2344 56.6562 Z"
      /><rect x="201" y="70" width="8" style="fill:white; stroke:none;" height="8"
      /><path style="stroke:none;" d="M205.9844 75.7031 C205.9375 76.8906 205.1562 77.6562 204.3125 77.6562 C203.2656 77.6562 202.5 76.6875 202.5 74.7188 C202.5 73.2812 203.1562 72.1562 204.3438 72.1562 C205.1406 72.1562 205.7812 72.6875 206.0938 73.6406 L205.9844 75.7031 ZM207.9062 77.2812 C207.7344 77.375 207.5469 77.4219 207.3438 77.4219 C206.9531 77.4219 206.75 77.2188 206.75 76.4219 C206.75 75.4844 206.9688 73.5312 207.1875 71.8281 L207.0312 71.7188 L206.2344 71.9219 L206.1406 72.7969 C205.7812 72.0312 205.1562 71.6562 204.3906 71.6562 C203.0469 71.6562 201.5625 72.8438 201.5625 74.9531 C201.5625 77.0938 202.7188 78.1719 204.1406 78.1719 C205.0156 78.1719 205.6875 77.8125 206.0938 76.9844 C206.2031 77.8594 206.5156 78.1719 207.0156 78.1719 C207.4688 78.1719 207.7969 77.9062 208.0156 77.5625 L207.9062 77.2812 Z"
      /><rect x="174" y="44" width="7" style="fill:white; stroke:none;" height="9"
      /><path style="stroke:none;" d="M175 49.5156 L177.9531 45.2656 L177.9531 49.5156 L175 49.5156 ZM180.2812 49.5156 L178.8594 49.5156 L178.8594 44.125 L178.2344 44.125 L174.3438 49.6406 L174.3438 50.1875 L177.9531 50.1875 L177.9531 53 L178.8594 53 L178.8594 50.1875 L180.2812 50.1875 L180.2812 49.5156 Z"
      /><rect x="161" y="42" width="6" style="fill:white; stroke:none;" height="13"
      /><path style="stroke:none;" d="M163.0938 48.2031 C163.0938 46.6562 163.75 45.8125 164.7969 45.8125 C165.7188 45.8125 166.2656 46.4531 166.2656 47.5156 C166.2656 48.7188 165.5 49.4375 164.1875 49.7031 L164.2969 50.3125 C166.2188 50.2344 166.9375 51.2188 166.9375 52.4375 C166.9375 53.625 166.2344 54.4219 164.9531 54.4219 C164.25 54.4219 163.6562 54.1562 163.0938 53.7188 L163.0938 48.2031 ZM162.2031 54.9062 L162.1094 57.375 L162.2656 57.4844 L163.1562 57.2656 L163.0156 54.0938 C163.5469 54.8438 164.3594 55.1719 165.1719 55.1719 C166.5625 55.1719 167.8594 54.2188 167.8594 52.4844 C167.8594 50.9531 166.875 50.1094 165.125 50 C166.5625 49.6094 167.1875 48.4531 167.1875 47.4844 C167.1875 46.0938 166.1562 45.3125 164.9062 45.3125 C163.2969 45.3125 162.2188 46.5469 162.2188 48.5156 L162.2031 54.9062 Z"
      /><rect x="235" y="110" width="6" style="fill:white; stroke:none;" height="9"
      /><path style="stroke:none;" d="M236.4219 118.0938 C237.0781 117.375 237.7031 116.7188 238.0312 116.3438 C239.9219 114.3125 240.5312 113.4688 240.5312 112.3594 C240.5312 111.0156 239.7812 110.0781 238.1562 110.0781 C236.9062 110.0781 235.7969 110.7031 235.5938 111.9688 C235.7188 112.2031 235.9062 112.3438 236.1562 112.3438 C236.4688 112.3438 236.6562 112.1094 236.7969 111.5938 L237.0938 110.6719 C237.3906 110.5938 237.6562 110.5625 237.8906 110.5625 C238.9219 110.5625 239.5469 111.3125 239.5469 112.4219 C239.5469 113.4375 238.9844 114.4219 237.7031 115.9062 C237.125 116.5781 236.3906 117.4375 235.6406 118.2812 L235.6406 119 L240.9219 119 L240.9219 118.0938 L236.4219 118.0938 Z"
      /><rect x="216" y="127" width="6" style="fill:white; stroke:none;" height="13"
      /><path style="stroke:none;" d="M218.0938 133.2031 C218.0938 131.6562 218.75 130.8125 219.7969 130.8125 C220.7188 130.8125 221.2656 131.4531 221.2656 132.5156 C221.2656 133.7188 220.5 134.4375 219.1875 134.7031 L219.2969 135.3125 C221.2188 135.2344 221.9375 136.2188 221.9375 137.4375 C221.9375 138.625 221.2344 139.4219 219.9531 139.4219 C219.25 139.4219 218.6562 139.1562 218.0938 138.7188 L218.0938 133.2031 ZM217.2031 139.9062 L217.1094 142.375 L217.2656 142.4844 L218.1562 142.2656 L218.0156 139.0938 C218.5469 139.8438 219.3594 140.1719 220.1719 140.1719 C221.5625 140.1719 222.8594 139.2188 222.8594 137.4844 C222.8594 135.9531 221.875 135.1094 220.125 135 C221.5625 134.6094 222.1875 133.4531 222.1875 132.4844 C222.1875 131.0938 221.1562 130.3125 219.9062 130.3125 C218.2969 130.3125 217.2188 131.5469 217.2188 133.5156 L217.2031 139.9062 Z"
      /><rect x="223" y="77" width="6" style="fill:white; stroke:none;" height="10"
      /><path style="stroke:none;" d="M226.3438 86.6875 C225.2031 86.6875 224.5312 85.5 224.5312 83.2969 C224.5312 83.2188 224.5312 83.125 224.5312 83.0469 C225.0938 82.5 225.7188 82.3125 226.3438 82.3125 C227.3125 82.3125 227.9531 82.9844 227.9531 84.4531 C227.9531 85.9375 227.3125 86.6875 226.3438 86.6875 ZM228.5312 78.0781 C225.3438 78.4531 223.5625 80.7656 223.5625 83.4531 C223.5625 85.7812 224.6094 87.1719 226.3125 87.1719 C227.8438 87.1719 228.9219 86.1094 228.9219 84.2812 C228.9219 82.6875 227.9688 81.6562 226.5625 81.6562 C225.8281 81.6562 225.1406 81.9844 224.5781 82.5781 C224.7969 80.4062 226.0781 78.9688 228.5938 78.3906 L228.5312 78.0781 Z"
      /><rect x="205" y="56" width="6" style="fill:white; stroke:none;" height="13"
      /><path style="stroke:none;" d="M207.0938 62.2031 C207.0938 60.6562 207.75 59.8125 208.7969 59.8125 C209.7188 59.8125 210.2656 60.4531 210.2656 61.5156 C210.2656 62.7188 209.5 63.4375 208.1875 63.7031 L208.2969 64.3125 C210.2188 64.2344 210.9375 65.2188 210.9375 66.4375 C210.9375 67.625 210.2344 68.4219 208.9531 68.4219 C208.25 68.4219 207.6562 68.1562 207.0938 67.7188 L207.0938 62.2031 ZM206.2031 68.9062 L206.1094 71.375 L206.2656 71.4844 L207.1562 71.2656 L207.0156 68.0938 C207.5469 68.8438 208.3594 69.1719 209.1719 69.1719 C210.5625 69.1719 211.8594 68.2188 211.8594 66.4844 C211.8594 64.9531 210.875 64.1094 209.125 64 C210.5625 63.6094 211.1875 62.4531 211.1875 61.4844 C211.1875 60.0938 210.1562 59.3125 208.9062 59.3125 C207.2969 59.3125 206.2188 60.5469 206.2188 62.5156 L206.2031 68.9062 Z"
      /><rect x="287" y="188" width="6" style="fill:white; stroke:none;" height="10"
      /><path style="stroke:none;" d="M289.2344 189.6562 C289.5156 189.5938 289.7656 189.5625 290.0156 189.5625 C291.0625 189.5625 291.6719 190.1719 291.6719 191.2656 C291.6719 192.4375 290.9062 193.1094 289.7031 193.1094 L289.1875 193.1094 L289.1875 193.6406 L289.7969 193.6406 C291.2188 193.6406 291.9062 194.4219 291.9062 195.6406 C291.9062 196.8438 291.1719 197.6875 289.875 197.6875 C289.6094 197.6875 289.3125 197.6562 289.0156 197.5625 L288.7812 196.8125 C288.625 196.2812 288.5 196.0469 288.1406 196.0469 C287.8906 196.0469 287.7031 196.1719 287.5781 196.4219 C287.8438 197.6406 288.7812 198.1719 290.0312 198.1719 C291.7188 198.1719 292.875 197.125 292.875 195.7031 C292.875 194.5 292.2031 193.625 290.7969 193.375 C291.9531 193.0156 292.6094 192.2031 292.6094 191.2031 C292.6094 189.9219 291.6719 189.0781 290.1875 189.0781 C289.0469 189.0781 288.0625 189.5938 287.7969 190.6875 C287.9062 191 288.1094 191.1094 288.3594 191.1094 C288.7344 191.1094 288.8906 190.8906 289 190.4062 L289.2344 189.6562 Z"
      /><rect x="267" y="208" width="8" style="fill:white; stroke:none;" height="8"
      /><path style="stroke:none;" d="M271.9844 213.7031 C271.9375 214.8906 271.1562 215.6562 270.3125 215.6562 C269.2656 215.6562 268.5 214.6875 268.5 212.7188 C268.5 211.2812 269.1562 210.1562 270.3438 210.1562 C271.1406 210.1562 271.7812 210.6875 272.0938 211.6406 L271.9844 213.7031 ZM273.9062 215.2812 C273.7344 215.375 273.5469 215.4219 273.3438 215.4219 C272.9531 215.4219 272.75 215.2188 272.75 214.4219 C272.75 213.4844 272.9688 211.5312 273.1875 209.8281 L273.0312 209.7188 L272.2344 209.9219 L272.1406 210.7969 C271.7812 210.0312 271.1562 209.6562 270.3906 209.6562 C269.0469 209.6562 267.5625 210.8438 267.5625 212.9531 C267.5625 215.0938 268.7188 216.1719 270.1406 216.1719 C271.0156 216.1719 271.6875 215.8125 272.0938 214.9844 C272.2031 215.8594 272.5156 216.1719 273.0156 216.1719 C273.4688 216.1719 273.7969 215.9062 274.0156 215.5625 L273.9062 215.2812 Z"
      /><rect x="278" y="174" width="7" style="fill:white; stroke:none;" height="9"
      /><path style="stroke:none;" d="M279 179.5156 L281.9531 175.2656 L281.9531 179.5156 L279 179.5156 ZM284.2812 179.5156 L282.8594 179.5156 L282.8594 174.125 L282.2344 174.125 L278.3438 179.6406 L278.3438 180.1875 L281.9531 180.1875 L281.9531 183 L282.8594 183 L282.8594 180.1875 L284.2812 180.1875 L284.2812 179.5156 Z"
      /><rect x="265" y="172" width="6" style="fill:white; stroke:none;" height="13"
      /><path style="stroke:none;" d="M267.0938 178.2031 C267.0938 176.6562 267.75 175.8125 268.7969 175.8125 C269.7188 175.8125 270.2656 176.4531 270.2656 177.5156 C270.2656 178.7188 269.5 179.4375 268.1875 179.7031 L268.2969 180.3125 C270.2188 180.2344 270.9375 181.2188 270.9375 182.4375 C270.9375 183.625 270.2344 184.4219 268.9531 184.4219 C268.25 184.4219 267.6562 184.1562 267.0938 183.7188 L267.0938 178.2031 ZM266.2031 184.9062 L266.1094 187.375 L266.2656 187.4844 L267.1562 187.2656 L267.0156 184.0938 C267.5469 184.8438 268.3594 185.1719 269.1719 185.1719 C270.5625 185.1719 271.8594 184.2188 271.8594 182.4844 C271.8594 180.9531 270.875 180.1094 269.125 180 C270.5625 179.6094 271.1875 178.4531 271.1875 177.4844 C271.1875 176.0938 270.1562 175.3125 268.9062 175.3125 C267.2969 175.3125 266.2188 176.5469 266.2188 178.5156 L266.2031 184.9062 Z"
      /><rect x="279" y="152" width="6" style="fill:white; stroke:none;" height="10"
      /><path style="stroke:none;" d="M282.3438 161.6875 C281.2031 161.6875 280.5312 160.5 280.5312 158.2969 C280.5312 158.2188 280.5312 158.125 280.5312 158.0469 C281.0938 157.5 281.7188 157.3125 282.3438 157.3125 C283.3125 157.3125 283.9531 157.9844 283.9531 159.4531 C283.9531 160.9375 283.3125 161.6875 282.3438 161.6875 ZM284.5312 153.0781 C281.3438 153.4531 279.5625 155.7656 279.5625 158.4531 C279.5625 160.7812 280.6094 162.1719 282.3125 162.1719 C283.8438 162.1719 284.9219 161.1094 284.9219 159.2812 C284.9219 157.6875 283.9688 156.6562 282.5625 156.6562 C281.8281 156.6562 281.1406 156.9844 280.5781 157.5781 C280.7969 155.4062 282.0781 153.9688 284.5938 153.3906 L284.5312 153.0781 Z"
      /><rect x="250" y="111" width="8" style="fill:white; stroke:none;" height="8"
      /><path style="stroke:none;" d="M254.9844 116.7031 C254.9375 117.8906 254.1562 118.6562 253.3125 118.6562 C252.2656 118.6562 251.5 117.6875 251.5 115.7188 C251.5 114.2812 252.1562 113.1562 253.3438 113.1562 C254.1406 113.1562 254.7812 113.6875 255.0938 114.6406 L254.9844 116.7031 ZM256.9062 118.2812 C256.7344 118.375 256.5469 118.4219 256.3438 118.4219 C255.9531 118.4219 255.75 118.2188 255.75 117.4219 C255.75 116.4844 255.9688 114.5312 256.1875 112.8281 L256.0312 112.7188 L255.2344 112.9219 L255.1406 113.7969 C254.7812 113.0312 254.1562 112.6562 253.3906 112.6562 C252.0469 112.6562 250.5625 113.8438 250.5625 115.9531 C250.5625 118.0938 251.7188 119.1719 253.1406 119.1719 C254.0156 119.1719 254.6875 118.8125 255.0938 117.9844 C255.2031 118.8594 255.5156 119.1719 256.0156 119.1719 C256.4688 119.1719 256.7969 118.9062 257.0156 118.5625 L256.9062 118.2812 Z"
      /><rect x="330" y="174" width="7" style="fill:white; stroke:none;" height="9"
      /><path style="stroke:none;" d="M331 179.5156 L333.9531 175.2656 L333.9531 179.5156 L331 179.5156 ZM336.2812 179.5156 L334.8594 179.5156 L334.8594 174.125 L334.2344 174.125 L330.3438 179.6406 L330.3438 180.1875 L333.9531 180.1875 L333.9531 183 L334.8594 183 L334.8594 180.1875 L336.2812 180.1875 L336.2812 179.5156 Z"
      /><rect x="317" y="172" width="6" style="fill:white; stroke:none;" height="13"
      /><path style="stroke:none;" d="M319.0938 178.2031 C319.0938 176.6562 319.75 175.8125 320.7969 175.8125 C321.7188 175.8125 322.2656 176.4531 322.2656 177.5156 C322.2656 178.7188 321.5 179.4375 320.1875 179.7031 L320.2969 180.3125 C322.2188 180.2344 322.9375 181.2188 322.9375 182.4375 C322.9375 183.625 322.2344 184.4219 320.9531 184.4219 C320.25 184.4219 319.6562 184.1562 319.0938 183.7188 L319.0938 178.2031 ZM318.2031 184.9062 L318.1094 187.375 L318.2656 187.4844 L319.1562 187.2656 L319.0156 184.0938 C319.5469 184.8438 320.3594 185.1719 321.1719 185.1719 C322.5625 185.1719 323.8594 184.2188 323.8594 182.4844 C323.8594 180.9531 322.875 180.1094 321.125 180 C322.5625 179.6094 323.1875 178.4531 323.1875 177.4844 C323.1875 176.0938 322.1562 175.3125 320.9062 175.3125 C319.2969 175.3125 318.2188 176.5469 318.2188 178.5156 L318.2031 184.9062 Z"
      /><rect x="382" y="174" width="7" style="fill:white; stroke:none;" height="9"
      /><path style="stroke:none;" d="M383 179.5156 L385.9531 175.2656 L385.9531 179.5156 L383 179.5156 ZM388.2812 179.5156 L386.8594 179.5156 L386.8594 174.125 L386.2344 174.125 L382.3438 179.6406 L382.3438 180.1875 L385.9531 180.1875 L385.9531 183 L386.8594 183 L386.8594 180.1875 L388.2812 180.1875 L388.2812 179.5156 Z"
      /><rect x="369" y="172" width="6" style="fill:white; stroke:none;" height="13"
      /><path style="stroke:none;" d="M371.0938 178.2031 C371.0938 176.6562 371.75 175.8125 372.7969 175.8125 C373.7188 175.8125 374.2656 176.4531 374.2656 177.5156 C374.2656 178.7188 373.5 179.4375 372.1875 179.7031 L372.2969 180.3125 C374.2188 180.2344 374.9375 181.2188 374.9375 182.4375 C374.9375 183.625 374.2344 184.4219 372.9531 184.4219 C372.25 184.4219 371.6562 184.1562 371.0938 183.7188 L371.0938 178.2031 ZM370.2031 184.9062 L370.1094 187.375 L370.2656 187.4844 L371.1562 187.2656 L371.0156 184.0938 C371.5469 184.8438 372.3594 185.1719 373.1719 185.1719 C374.5625 185.1719 375.8594 184.2188 375.8594 182.4844 C375.8594 180.9531 374.875 180.1094 373.125 180 C374.5625 179.6094 375.1875 178.4531 375.1875 177.4844 C375.1875 176.0938 374.1562 175.3125 372.9062 175.3125 C371.2969 175.3125 370.2188 176.5469 370.2188 178.5156 L370.2031 184.9062 Z"
      /><rect x="421" y="174" width="5" style="fill:white; stroke:none;" height="10"
      /><path style="stroke:none;" d="M422.8906 182.6875 C422.4844 182.6875 422.1562 183.0469 422.1562 183.4219 C422.1562 183.8125 422.4844 184.1562 422.8906 184.1562 C423.2969 184.1562 423.6406 183.8125 423.6406 183.4219 C423.6406 183.0469 423.2969 182.6875 422.8906 182.6875 ZM424.4688 176.5781 C424.7188 176.8906 424.875 177.2656 424.8906 177.6562 C424.8906 178.1875 424.625 178.5 424.0312 178.7656 L423.4062 179.0156 C422.6406 179.3125 422.3906 179.5469 422.3906 179.9375 C422.3906 180.1094 422.4531 180.3438 422.5781 180.8125 L422.7344 181.3438 L423.1094 181.3438 L423.0938 180.5312 C423.0938 180.0938 423.2031 179.9688 423.7812 179.7344 L424.2031 179.5625 C425.0312 179.2188 425.4531 178.6875 425.4531 177.8438 C425.4531 176.1562 423.6562 175.1875 422.5 175.0312 C422.1094 175.125 421.9062 175.2969 421.9062 175.6406 C421.9062 175.9375 422.0625 176.1562 422.7188 176.2656 L424.4688 176.5781 Z"
    /></g
  ></g
></svg
>
