<?xml version="1.0"?>
<!DOCTYPE svg PUBLIC '-//W3C//DTD SVG 1.0//EN'
          'http://www.w3.org/TR/2001/REC-SVG-20010904/DTD/svg10.dtd'>
<svg xmlns:xlink="http://www.w3.org/1999/xlink" style="fill-opacity:1; color-rendering:auto; color-interpolation:auto; text-rendering:auto; stroke:black; stroke-linecap:square; stroke-miterlimit:10; shape-rendering:auto; stroke-opacity:1; fill:black; stroke-dasharray:none; font-weight:normal; stroke-width:1; font-family:'Dialog'; font-style:normal; stroke-linejoin:miter; font-size:12px; stroke-dashoffset:0; image-rendering:auto;" viewBox="0 0 134 128" xmlns="http://www.w3.org/2000/svg"
><!--Generated by the Batik Graphics2D SVG Generator--><defs id="genericDefs"
  /><g
  ><defs id="defs1"
    ><clipPath clipPathUnits="userSpaceOnUse" id="clipPath1"
      ><path d="M52 64 C52 70.0751 47.0751 75 41 75 C34.9249 75 30 70.0751 30 64 C30 57.9249 34.9249 53 41 53 C47.0751 53 52 57.9249 52 64 Z"
      /></clipPath
    ></defs
    ><g style="fill:white; text-rendering:optimizeSpeed; stroke:white;"
    ><rect x="0" width="134" height="128" y="0" style="stroke:none;"
      /><polygon style="fill:none; stroke:black;" points=" 93 64 41 64"
      /><path d="M93 53 C87.5 58.5 98.5 69.5 93 75" style="fill:none; stroke:black;"
      /><circle style="clip-path:url(#clipPath1); stroke:none;" r="11" cx="41" cy="64"
      /><rect x="30" y="53" width="22" style="clip-path:url(#clipPath1); fill:rgb(0,144,188); stroke:none;" height="22"
      /><rect x="30" y="53" width="22" style="clip-path:url(#clipPath1); fill:none; stroke:black;" height="22"
      /><circle style="fill:none; stroke:black;" r="11" cx="41" cy="64"
      /><rect x="32" y="81" width="16" style="stroke:none;" height="10"
    /></g
    ><g style="text-rendering:optimizeSpeed; font-size:14px; font-family:'SansSerif';"
    ><path style="stroke:none;" d="M35.7031 92.1875 C37.5156 92.1875 38.9844 91.0938 38.9844 89.25 C38.9844 87.8594 38.0156 86.9375 36.8125 86.6562 L36.8125 86.5938 C37.8906 86.1875 38.6406 85.3594 38.6406 84.125 C38.6406 82.5 37.375 81.5469 35.6562 81.5469 C34.4688 81.5469 33.5469 82.0625 32.7812 82.7812 L33.4688 83.5938 C34.0469 83 34.7656 82.5938 35.5938 82.5938 C36.6562 82.5938 37.3281 83.2344 37.3281 84.2188 C37.3281 85.3281 36.6094 86.1719 34.4844 86.1719 L34.4844 87.1562 C36.8594 87.1562 37.6875 87.9844 37.6875 89.2031 C37.6875 90.3906 36.8125 91.125 35.5938 91.125 C34.4375 91.125 33.6562 90.5781 33.0469 89.9375 L32.4062 90.7812 C33.0781 91.5156 34.0938 92.1875 35.7031 92.1875 ZM41.1762 92 L42.395 92 L42.395 86.6094 C42.395 85.5312 42.3012 84.4375 42.2543 83.4062 L42.3012 83.4062 L43.4106 85.5156 L47.145 92 L48.4731 92 L48.4731 81.7188 L47.2387 81.7188 L47.2387 87.0781 C47.2387 88.1406 47.3481 89.2812 47.4106 90.3125 L47.3481 90.3125 L46.2543 88.2031 L42.52 81.7188 L41.1762 81.7188 L41.1762 92 Z"
      /><rect x="33" y="35" width="15" style="fill:white; stroke:none;" height="10"
      /><path style="stroke:none;" d="M37.1094 40.5781 C38.3438 40.5781 38.9688 41.4688 38.9688 42.8438 C38.9688 44.25 38.1875 45.1875 37.2188 45.1875 C35.9219 45.1875 35.1562 44.0312 35 41.8906 C35.625 40.9531 36.4531 40.5781 37.1094 40.5781 ZM37.2188 46.1875 C38.8125 46.1875 40.1562 44.8438 40.1562 42.8438 C40.1562 40.7031 39.0469 39.625 37.3125 39.625 C36.5 39.625 35.6094 40.1094 34.9688 40.875 C35.0312 37.6875 36.2188 36.6094 37.625 36.6094 C38.25 36.6094 38.8594 36.9062 39.2656 37.3906 L39.9688 36.5938 C39.4062 35.9844 38.6406 35.5469 37.5781 35.5469 C35.5938 35.5469 33.7812 37.0781 33.7812 41.0938 C33.7812 44.4844 35.2344 46.1875 37.2188 46.1875 ZM42.1762 46 L43.395 46 L43.395 40.6094 C43.395 39.5312 43.3012 38.4375 43.2543 37.4062 L43.3012 37.4062 L44.4106 39.5156 L48.145 46 L49.4731 46 L49.4731 35.7188 L48.2387 35.7188 L48.2387 41.0781 C48.2387 42.1406 48.3481 43.2812 48.4106 44.3125 L48.3481 44.3125 L47.2543 42.2031 L43.52 35.7188 L42.1762 35.7188 L42.1762 46 Z"
    /></g
    ><g style="fill:white; text-rendering:optimizeSpeed; font-family:'Serif'; stroke:white;"
    ><rect x="56" width="8" height="8" y="68" style="stroke:none;"
      /><path d="M60.9844 73.7031 C60.9375 74.8906 60.1562 75.6562 59.3125 75.6562 C58.2656 75.6562 57.5 74.6875 57.5 72.7188 C57.5 71.2812 58.1562 70.1562 59.3438 70.1562 C60.1406 70.1562 60.7812 70.6875 61.0938 71.6406 L60.9844 73.7031 ZM62.9062 75.2812 C62.7344 75.375 62.5469 75.4219 62.3438 75.4219 C61.9531 75.4219 61.75 75.2188 61.75 74.4219 C61.75 73.4844 61.9688 71.5312 62.1875 69.8281 L62.0312 69.7188 L61.2344 69.9219 L61.1406 70.7969 C60.7812 70.0312 60.1562 69.6562 59.3906 69.6562 C58.0469 69.6562 56.5625 70.8438 56.5625 72.9531 C56.5625 75.0938 57.7188 76.1719 59.1406 76.1719 C60.0156 76.1719 60.6875 75.8125 61.0938 74.9844 C61.2031 75.8594 61.5156 76.1719 62.0156 76.1719 C62.4688 76.1719 62.7969 75.9062 63.0156 75.5625 L62.9062 75.2812 Z" style="fill:black; stroke:none;"
    /></g
  ></g
></svg
>
