<?xml version="1.0"?>
<!DOCTYPE svg PUBLIC '-//W3C//DTD SVG 1.0//EN'
          'http://www.w3.org/TR/2001/REC-SVG-20010904/DTD/svg10.dtd'>
<svg xmlns:xlink="http://www.w3.org/1999/xlink" style="fill-opacity:1; color-rendering:auto; color-interpolation:auto; text-rendering:auto; stroke:black; stroke-linecap:square; stroke-miterlimit:10; shape-rendering:auto; stroke-opacity:1; fill:black; stroke-dasharray:none; font-weight:normal; stroke-width:1; font-family:'Dialog'; font-style:normal; stroke-linejoin:miter; font-size:12px; stroke-dashoffset:0; image-rendering:auto;" viewBox="0 0 397 180" xmlns="http://www.w3.org/2000/svg"
><!--Generated by the Batik Graphics2D SVG Generator--><defs id="genericDefs"
  /><g
  ><defs id="defs1"
    ><clipPath clipPathUnits="userSpaceOnUse" id="clipPath1"
      ><path style="fill-rule:evenodd;" d="M298 68 L304 68 L304 112 L298 112 L304 112 L304 68 Z"
      /></clipPath
      ><clipPath clipPathUnits="userSpaceOnUse" id="clipPath2"
      ><path d="M263 90 C263 96.0751 258.0751 101 252 101 C245.9249 101 241 96.0751 241 90 C241 83.9249 245.9249 79 252 79 C258.0751 79 263 83.9249 263 90 Z"
      /></clipPath
      ><clipPath clipPathUnits="userSpaceOnUse" id="clipPath3"
      ><path d="M210 90 C210 96.0751 205.0751 101 199 101 C192.9249 101 188 96.0751 188 90 C188 83.9249 192.9249 79 199 79 C205.0751 79 210 83.9249 210 90 Z"
      /></clipPath
      ><clipPath clipPathUnits="userSpaceOnUse" id="clipPath4"
      ><path d="M156 64 C156 70.0751 151.0751 75 145 75 C138.9249 75 134 70.0751 134 64 C134 57.9249 138.9249 53 145 53 C151.0751 53 156 57.9249 156 64 Z"
      /></clipPath
      ><clipPath clipPathUnits="userSpaceOnUse" id="clipPath5"
      ><path d="M104 64 C104 70.0751 99.0751 75 93 75 C86.9249 75 82 70.0751 82 64 C82 57.9249 86.9249 53 93 53 C99.0751 53 104 57.9249 104 64 Z"
      /></clipPath
      ><clipPath clipPathUnits="userSpaceOnUse" id="clipPath6"
      ><path style="fill-rule:evenodd;" d="M46 86 L41 86 L40 42 L46 42 L40 42 L41 86 Z"
      /></clipPath
    ></defs
    ><g style="fill:white; text-rendering:optimizeSpeed; stroke:white;"
    ><rect x="0" width="397" height="180" y="0" style="stroke:none;"
      /><polygon style="fill:none; stroke:black;" points=" 356 90 304 90"
      /><path d="M356 79 C350.5 84.5 361.5 95.5 356 101" style="fill:none; stroke:black;"
      /><polygon style="fill:none; stroke:black;" points=" 304 90 252 90"
      /><polygon style="clip-path:url(#clipPath1); stroke:none;" points=" 298 68 304 68 304 112 298 112 304 112 304 68"
      /><rect x="293" y="56" width="22" style="clip-path:url(#clipPath1); fill:black; stroke:none;" height="68"
      /><rect x="293" y="56" width="22" style="clip-path:url(#clipPath1); fill:none; stroke:black;" height="68"
      /><polygon style="fill:none; stroke:black;" points=" 298 68 304 68 304 112 298 112 304 112 304 68"
      /><polygon style="fill:none; stroke:black;" points=" 252 90 199 90"
      /><circle style="clip-path:url(#clipPath2); stroke:none;" r="11" cx="252" cy="90"
      /><rect x="241" y="79" width="22" style="clip-path:url(#clipPath2); fill:rgb(255,212,0); stroke:none;" height="22"
      /><rect x="241" y="79" width="22" style="clip-path:url(#clipPath2); fill:none; stroke:black;" height="22"
      /><circle style="fill:none; stroke:black;" r="11" cx="252" cy="90"
      /><polygon style="fill:none; stroke:black;" points=" 199 90 145 116"
      /><polygon style="fill:none; stroke:black;" points=" 199 90 145 64"
      /><circle style="clip-path:url(#clipPath3); stroke:none;" r="11" cx="199" cy="90"
      /><rect x="188" y="79" width="22" style="clip-path:url(#clipPath3); fill:rgb(0,144,188); stroke:none;" height="22"
      /><rect x="188" y="79" width="22" style="clip-path:url(#clipPath3); fill:none; stroke:black;" height="22"
      /><circle style="fill:none; stroke:black;" r="11" cx="199" cy="90"
      /><rect x="187" y="107" width="22" style="stroke:none;" height="10"
    /></g
    ><g style="text-rendering:optimizeSpeed; font-size:14px; font-family:'SansSerif';"
    ><path style="stroke:none;" d="M187.6094 118 L194.0625 118 L194.0625 116.8906 L191.2344 116.8906 C190.7031 116.8906 190.0781 116.9531 189.5469 116.9844 C191.9531 114.7031 193.5625 112.625 193.5625 110.5781 C193.5625 108.75 192.4219 107.5469 190.5781 107.5469 C189.2812 107.5469 188.4062 108.1406 187.5625 109.0469 L188.2969 109.7812 C188.8594 109.1094 189.5938 108.5938 190.4375 108.5938 C191.7031 108.5938 192.3125 109.4531 192.3125 110.625 C192.3125 112.3906 190.8438 114.4375 187.6094 117.25 L187.6094 118 ZM197.9418 112.2656 C198.3168 111.0938 198.645 109.9844 198.9731 108.7812 L199.02 108.7812 C199.3637 109.9844 199.6762 111.0938 200.0668 112.2656 L200.5512 113.8281 L197.4418 113.8281 L197.9418 112.2656 ZM194.8168 118 L196.1293 118 L197.1293 114.8594 L200.8793 114.8594 L201.8481 118 L203.2231 118 L199.7387 107.7188 L198.3012 107.7188 L194.8168 118 ZM207.5492 118.1875 C208.4554 118.1875 209.3304 117.8281 210.0179 117.2188 L209.4554 116.3594 C208.9867 116.7969 208.3617 117.125 207.6586 117.125 C206.2679 117.125 205.3148 115.9531 205.3148 114.2031 C205.3148 112.4531 206.3148 111.2656 207.7054 111.2656 C208.3148 111.2656 208.7679 111.5469 209.2211 111.9375 L209.8773 111.0938 C209.3304 110.625 208.6429 110.2031 207.6429 110.2031 C205.7054 110.2031 203.9867 111.6719 203.9867 114.2031 C203.9867 116.7188 205.5336 118.1875 207.5492 118.1875 Z"
      /><rect x="141" y="110" width="6" style="fill:white; stroke:none;" height="10"
      /><path style="stroke:none;" d="M142.4062 121 L143.7031 121 L143.7031 116.9219 L145.3906 116.9219 C147.6562 116.9219 149.1719 115.9219 149.1719 113.75 C149.1719 111.5156 147.6406 110.7188 145.3438 110.7188 L142.4062 110.7188 L142.4062 121 ZM143.7031 115.875 L143.7031 111.7812 L145.1719 111.7812 C146.9844 111.7812 147.8906 112.2656 147.8906 113.75 C147.8906 115.2188 147.0312 115.875 145.2344 115.875 L143.7031 115.875 Z"
      /><path style="stroke:none;" d="M135.9688 143 L140.3906 143 L140.3906 142.1562 L138.7656 142.1562 L138.7656 134.9219 L138 134.9219 C137.5625 135.1875 137.0469 135.375 136.3281 135.5156 L136.3281 136.1406 L137.7656 136.1406 L137.7656 142.1562 L135.9688 142.1562 L135.9688 143 ZM143.8862 143 L144.9174 143 L144.9174 135.7969 L147.3549 135.7969 L147.3549 134.9219 L141.4487 134.9219 L141.4487 135.7969 L143.8862 135.7969 L143.8862 143 ZM148.7095 143 L149.7095 143 L149.7095 139.1562 C150.1001 138.1406 150.7251 137.7812 151.2095 137.7812 C151.4595 137.7812 151.6001 137.8125 151.8033 137.8906 L151.9908 137 C151.8033 136.9062 151.6158 136.875 151.3501 136.875 C150.6783 136.875 150.0689 137.3594 149.647 138.1094 L149.6158 138.1094 L149.5376 137.0312 L148.7095 137.0312 L148.7095 143 ZM152.9775 143 L153.9775 143 L153.9775 137.0312 L152.9775 137.0312 L152.9775 143 ZM153.4775 135.7969 C153.8681 135.7969 154.1494 135.5312 154.1494 135.125 C154.1494 134.7344 153.8681 134.4688 153.4775 134.4688 C153.0869 134.4688 152.8056 134.7344 152.8056 135.125 C152.8056 135.5312 153.0869 135.7969 153.4775 135.7969 Z"
      /><polygon style="fill:none;" points=" 145 64 93 64"
    /></g
    ><g style="fill:white; text-rendering:optimizeSpeed; stroke:white;"
    ><circle r="11" style="clip-path:url(#clipPath4); stroke:none;" cx="145" cy="64"
      /><rect x="134" y="53" width="22" style="clip-path:url(#clipPath4); fill:rgb(0,144,188); stroke:none;" height="22"
      /><rect x="134" y="53" width="22" style="clip-path:url(#clipPath4); fill:none; stroke:black;" height="22"
      /><circle r="11" style="fill:none; stroke:black;" cx="145" cy="64"
      /><polygon style="fill:none; stroke:black;" points=" 93 64 41 64"
      /><circle r="11" style="clip-path:url(#clipPath5); stroke:none;" cx="93" cy="64"
      /><rect x="82" y="53" width="22" style="clip-path:url(#clipPath5); fill:rgb(255,212,0); stroke:none;" height="22"
      /><rect x="82" y="53" width="22" style="clip-path:url(#clipPath5); fill:none; stroke:black;" height="22"
      /><circle r="11" style="fill:none; stroke:black;" cx="93" cy="64"
      /><polygon style="clip-path:url(#clipPath6); stroke:none;" points=" 46 86 41 86 40 42 46 42 40 42 41 86"
      /><rect x="30" y="30" width="22" style="clip-path:url(#clipPath6); fill:black; stroke:none;" height="68"
      /><rect x="30" y="30" width="22" style="clip-path:url(#clipPath6); fill:none; stroke:black;" height="68"
      /><polygon style="fill:none; stroke:black;" points=" 46 86 41 86 40 42 46 42 40 42 41 86"
      /><path d="M43.5469 95.9531 C43.5156 95.2969 43.5 94.3906 43.5 93.7656 L43.5 92.5156 C43.5 90.8281 42.9531 90.1562 41.8594 90.1562 C41.0625 90.1562 40.1562 90.625 39.4531 91.4062 L39.3594 90.2969 L39.2031 90.1719 L37.4688 90.8125 L37.4688 91.2031 L38.5312 91.2812 C38.5625 91.8438 38.5781 92.3438 38.5781 93.1094 L38.5781 93.7656 C38.5781 94.375 38.5781 95.2969 38.5469 95.9688 L37.5469 96.1094 L37.5469 96.5 L40.4688 96.5 L40.4688 96.1094 L39.5156 95.9531 C39.5156 95.2969 39.5 94.375 39.5 93.7656 L39.5 91.875 C40.2656 91.1562 40.875 90.9062 41.4688 90.9062 C42.2344 90.9062 42.5938 91.3125 42.5938 92.5625 L42.5938 93.7656 C42.5938 94.3906 42.5781 95.3125 42.5625 95.9688 L41.5469 96.1094 L41.5469 96.5 L44.4844 96.5 L44.4844 96.1094 L43.5469 95.9531 Z" style="fill:black; stroke:none;"
      /><rect x="71" width="6" height="10" y="67" style="stroke:none;"
      /><path d="M73.2344 68.6562 C73.5156 68.5938 73.7656 68.5625 74.0156 68.5625 C75.0625 68.5625 75.6719 69.1719 75.6719 70.2656 C75.6719 71.4375 74.9062 72.1094 73.7031 72.1094 L73.1875 72.1094 L73.1875 72.6406 L73.7969 72.6406 C75.2188 72.6406 75.9062 73.4219 75.9062 74.6406 C75.9062 75.8438 75.1719 76.6875 73.875 76.6875 C73.6094 76.6875 73.3125 76.6562 73.0156 76.5625 L72.7812 75.8125 C72.625 75.2812 72.5 75.0469 72.1406 75.0469 C71.8906 75.0469 71.7031 75.1719 71.5781 75.4219 C71.8438 76.6406 72.7812 77.1719 74.0312 77.1719 C75.7188 77.1719 76.875 76.125 76.875 74.7031 C76.875 73.5 76.2031 72.625 74.7969 72.375 C75.9531 72.0156 76.6094 71.2031 76.6094 70.2031 C76.6094 68.9219 75.6719 68.0781 74.1875 68.0781 C73.0469 68.0781 72.0625 68.5938 71.7969 69.6875 C71.9062 70 72.1094 70.1094 72.3594 70.1094 C72.7344 70.1094 72.8906 69.8906 73 69.4062 L73.2344 68.6562 Z" style="fill:black; stroke:none;"
      /><rect x="122" width="7" height="9" y="67" style="stroke:none;"
      /><path d="M123 72.5156 L125.9531 68.2656 L125.9531 72.5156 L123 72.5156 ZM128.2812 72.5156 L126.8594 72.5156 L126.8594 67.125 L126.2344 67.125 L122.3438 72.6406 L122.3438 73.1875 L125.9531 73.1875 L125.9531 76 L126.8594 76 L126.8594 73.1875 L128.2812 73.1875 L128.2812 72.5156 Z" style="fill:black; stroke:none;"
      /><rect x="109" width="6" height="13" y="65" style="stroke:none;"
      /><path d="M111.0938 71.2031 C111.0938 69.6562 111.75 68.8125 112.7969 68.8125 C113.7188 68.8125 114.2656 69.4531 114.2656 70.5156 C114.2656 71.7188 113.5 72.4375 112.1875 72.7031 L112.2969 73.3125 C114.2188 73.2344 114.9375 74.2188 114.9375 75.4375 C114.9375 76.625 114.2344 77.4219 112.9531 77.4219 C112.25 77.4219 111.6562 77.1562 111.0938 76.7188 L111.0938 71.2031 ZM110.2031 77.9062 L110.1094 80.375 L110.2656 80.4844 L111.1562 80.2656 L111.0156 77.0938 C111.5469 77.8438 112.3594 78.1719 113.1719 78.1719 C114.5625 78.1719 115.8594 77.2188 115.8594 75.4844 C115.8594 73.9531 114.875 73.1094 113.125 73 C114.5625 72.6094 115.1875 71.4531 115.1875 70.4844 C115.1875 69.0938 114.1562 68.3125 112.9062 68.3125 C111.2969 68.3125 110.2188 69.5469 110.2188 71.5156 L110.2031 77.9062 Z" style="fill:black; stroke:none;"
      /><rect x="179" width="7" height="9" y="101" style="stroke:none;"
      /><path d="M180 106.5156 L182.9531 102.2656 L182.9531 106.5156 L180 106.5156 ZM185.2812 106.5156 L183.8594 106.5156 L183.8594 101.125 L183.2344 101.125 L179.3438 106.6406 L179.3438 107.1875 L182.9531 107.1875 L182.9531 110 L183.8594 110 L183.8594 107.1875 L185.2812 107.1875 L185.2812 106.5156 Z" style="fill:black; stroke:none;"
      /><rect x="173" width="6" height="10" y="82" style="stroke:none;"
      /><path d="M176.3438 91.6875 C175.2031 91.6875 174.5312 90.5 174.5312 88.2969 C174.5312 88.2188 174.5312 88.125 174.5312 88.0469 C175.0938 87.5 175.7188 87.3125 176.3438 87.3125 C177.3125 87.3125 177.9531 87.9844 177.9531 89.4531 C177.9531 90.9375 177.3125 91.6875 176.3438 91.6875 ZM178.5312 83.0781 C175.3438 83.4531 173.5625 85.7656 173.5625 88.4531 C173.5625 90.7812 174.6094 92.1719 176.3125 92.1719 C177.8438 92.1719 178.9219 91.1094 178.9219 89.2812 C178.9219 87.6875 177.9688 86.6562 176.5625 86.6562 C175.8281 86.6562 175.1406 86.9844 174.5781 87.5781 C174.7969 85.4062 176.0781 83.9688 178.5938 83.3906 L178.5312 83.0781 Z" style="fill:black; stroke:none;"
      /><rect x="155" width="8" height="8" y="75" style="stroke:none;"
      /><path d="M159.9844 80.7031 C159.9375 81.8906 159.1562 82.6562 158.3125 82.6562 C157.2656 82.6562 156.5 81.6875 156.5 79.7188 C156.5 78.2812 157.1562 77.1562 158.3438 77.1562 C159.1406 77.1562 159.7812 77.6875 160.0938 78.6406 L159.9844 80.7031 ZM161.9062 82.2812 C161.7344 82.375 161.5469 82.4219 161.3438 82.4219 C160.9531 82.4219 160.75 82.2188 160.75 81.4219 C160.75 80.4844 160.9688 78.5312 161.1875 76.8281 L161.0312 76.7188 L160.2344 76.9219 L160.1406 77.7969 C159.7812 77.0312 159.1562 76.6562 158.3906 76.6562 C157.0469 76.6562 155.5625 77.8438 155.5625 79.9531 C155.5625 82.0938 156.7188 83.1719 158.1406 83.1719 C159.0156 83.1719 159.6875 82.8125 160.0938 81.9844 C160.2031 82.8594 160.5156 83.1719 161.0156 83.1719 C161.4688 83.1719 161.7969 82.9062 162.0156 82.5625 L161.9062 82.2812 Z" style="fill:black; stroke:none;"
      /><rect x="229" width="7" height="9" y="93" style="stroke:none;"
      /><path d="M230 98.5156 L232.9531 94.2656 L232.9531 98.5156 L230 98.5156 ZM235.2812 98.5156 L233.8594 98.5156 L233.8594 93.125 L233.2344 93.125 L229.3438 98.6406 L229.3438 99.1875 L232.9531 99.1875 L232.9531 102 L233.8594 102 L233.8594 99.1875 L235.2812 99.1875 L235.2812 98.5156 Z" style="fill:black; stroke:none;"
      /><rect x="215" width="8" height="8" y="94" style="stroke:none;"
      /><path d="M219.9844 99.7031 C219.9375 100.8906 219.1562 101.6562 218.3125 101.6562 C217.2656 101.6562 216.5 100.6875 216.5 98.7188 C216.5 97.2812 217.1562 96.1562 218.3438 96.1562 C219.1406 96.1562 219.7812 96.6875 220.0938 97.6406 L219.9844 99.7031 ZM221.9062 101.2812 C221.7344 101.375 221.5469 101.4219 221.3438 101.4219 C220.9531 101.4219 220.75 101.2188 220.75 100.4219 C220.75 99.4844 220.9688 97.5312 221.1875 95.8281 L221.0312 95.7188 L220.2344 95.9219 L220.1406 96.7969 C219.7812 96.0312 219.1562 95.6562 218.3906 95.6562 C217.0469 95.6562 215.5625 96.8438 215.5625 98.9531 C215.5625 101.0938 216.7188 102.1719 218.1406 102.1719 C219.0156 102.1719 219.6875 101.8125 220.0938 100.9844 C220.2031 101.8594 220.5156 102.1719 221.0156 102.1719 C221.4688 102.1719 221.7969 101.9062 222.0156 101.5625 L221.9062 101.2812 Z" style="fill:black; stroke:none;"
      /><rect x="267" width="8" height="8" y="94" style="stroke:none;"
      /><path d="M271.9844 99.7031 C271.9375 100.8906 271.1562 101.6562 270.3125 101.6562 C269.2656 101.6562 268.5 100.6875 268.5 98.7188 C268.5 97.2812 269.1562 96.1562 270.3438 96.1562 C271.1406 96.1562 271.7812 96.6875 272.0938 97.6406 L271.9844 99.7031 ZM273.9062 101.2812 C273.7344 101.375 273.5469 101.4219 273.3438 101.4219 C272.9531 101.4219 272.75 101.2188 272.75 100.4219 C272.75 99.4844 272.9688 97.5312 273.1875 95.8281 L273.0312 95.7188 L272.2344 95.9219 L272.1406 96.7969 C271.7812 96.0312 271.1562 95.6562 270.3906 95.6562 C269.0469 95.6562 267.5625 96.8438 267.5625 98.9531 C267.5625 101.0938 268.7188 102.1719 270.1406 102.1719 C271.0156 102.1719 271.6875 101.8125 272.0938 100.9844 C272.2031 101.8594 272.5156 102.1719 273.0156 102.1719 C273.4688 102.1719 273.7969 101.9062 274.0156 101.5625 L273.9062 101.2812 Z" style="fill:black; stroke:none;"
    /></g
  ></g
></svg
>
