<?xml version="1.0"?>
<!DOCTYPE svg PUBLIC '-//W3C//DTD SVG 1.0//EN'
          'http://www.w3.org/TR/2001/REC-SVG-20010904/DTD/svg10.dtd'>
<svg xmlns:xlink="http://www.w3.org/1999/xlink" style="fill-opacity:1; color-rendering:auto; color-interpolation:auto; text-rendering:auto; stroke:black; stroke-linecap:square; stroke-miterlimit:10; shape-rendering:auto; stroke-opacity:1; fill:black; stroke-dasharray:none; font-weight:normal; stroke-width:1; font-family:'Dialog'; font-style:normal; stroke-linejoin:miter; font-size:12px; stroke-dashoffset:0; image-rendering:auto;" viewBox="0 0 134 186" xmlns="http://www.w3.org/2000/svg"
><!--Generated by the Batik Graphics2D SVG Generator--><defs id="genericDefs"
  /><g
  ><defs id="defs1"
    ><clipPath clipPathUnits="userSpaceOnUse" id="clipPath1"
      ><path d="M52 145 C52 151.0751 47.0751 156 41 156 C34.9249 156 30 151.0751 30 145 C30 138.9249 34.9249 134 41 134 C47.0751 134 52 138.9249 52 145 Z"
      /></clipPath
      ><clipPath clipPathUnits="userSpaceOnUse" id="clipPath2"
      ><path style="fill-rule:evenodd;" d="M41 104 L30 82 L52 82 Z"
      /></clipPath
      ><clipPath clipPathUnits="userSpaceOnUse" id="clipPath3"
      ><path d="M30 30 L52 30 L52 52 L30 52 L30 30 Z"
      /></clipPath
    ></defs
    ><g style="fill:white; text-rendering:optimizeSpeed; stroke:white;"
    ><rect x="0" width="134" height="186" y="0" style="stroke:none;"
      /><polygon style="fill:none; stroke:black;" points=" 93 145 41 145"
      /><path d="M93 134 C87.5 139.5 98.5 150.5 93 156" style="fill:none; stroke:black;"
      /><polygon style="fill:none; stroke:black;" points=" 41 145 41 93"
      /><circle style="clip-path:url(#clipPath1); stroke:none;" r="11" cx="41" cy="145"
      /><rect x="30" y="134" width="22" style="clip-path:url(#clipPath1); fill:rgb(0,144,188); stroke:none;" height="22"
      /><rect x="30" y="134" width="22" style="clip-path:url(#clipPath1); fill:none; stroke:black;" height="22"
      /><circle style="fill:none; stroke:black;" r="11" cx="41" cy="145"
      /><polygon style="fill:none; stroke:black;" points=" 41 93 41 41"
      /><polygon style="clip-path:url(#clipPath2); stroke:none;" points=" 41 104 30 82 52 82"
      /><rect x="30" y="82" width="22" style="clip-path:url(#clipPath2); fill:rgb(237,28,36); stroke:none;" height="22"
      /><rect x="30" y="82" width="22" style="clip-path:url(#clipPath2); fill:none; stroke:black;" height="22"
      /><polygon style="fill:none; stroke:black;" points=" 41 104 30 82 52 82"
    /></g
    ><g style="text-rendering:optimizeSpeed; font-size:10px; font-family:'SansSerif';"
    ><path style="stroke:none;" d="M39 96 L40.875 96 C43.0938 96 44.2969 94.625 44.2969 92.3125 C44.2969 89.9844 43.0938 88.6562 40.8438 88.6562 L39 88.6562 L39 96 ZM39.9375 95.2344 L39.9375 89.4219 L40.7656 89.4219 C42.4844 89.4219 43.3438 90.4531 43.3438 92.3125 C43.3438 94.1562 42.4844 95.2344 40.7656 95.2344 L39.9375 95.2344 Z"
    /></g
    ><g style="fill:white; text-rendering:optimizeSpeed; stroke:white;"
    ><rect x="30" y="30" width="22" style="clip-path:url(#clipPath3); stroke:none;" height="22"
      /><rect x="30" y="30" width="22" style="clip-path:url(#clipPath3); fill:rgb(0,144,188); stroke:none;" height="22"
      /><rect x="30" y="30" width="22" style="clip-path:url(#clipPath3); fill:none; stroke:black;" height="22"
      /><rect x="30" y="30" width="22" style="fill:none; stroke:black;" height="22"
      /><rect x="30" width="6" height="10" y="69" style="stroke:none;"
      /><path d="M32.2344 70.6562 C32.5156 70.5938 32.7656 70.5625 33.0156 70.5625 C34.0625 70.5625 34.6719 71.1719 34.6719 72.2656 C34.6719 73.4375 33.9062 74.1094 32.7031 74.1094 L32.1875 74.1094 L32.1875 74.6406 L32.7969 74.6406 C34.2188 74.6406 34.9062 75.4219 34.9062 76.6406 C34.9062 77.8438 34.1719 78.6875 32.875 78.6875 C32.6094 78.6875 32.3125 78.6562 32.0156 78.5625 L31.7812 77.8125 C31.625 77.2812 31.5 77.0469 31.1406 77.0469 C30.8906 77.0469 30.7031 77.1719 30.5781 77.4219 C30.8438 78.6406 31.7812 79.1719 33.0312 79.1719 C34.7188 79.1719 35.875 78.125 35.875 76.7031 C35.875 75.5 35.2031 74.625 33.7969 74.375 C34.9531 74.0156 35.6094 73.2031 35.6094 72.2031 C35.6094 70.9219 34.6719 70.0781 33.1875 70.0781 C32.0469 70.0781 31.0625 70.5938 30.7969 71.6875 C30.9062 72 31.1094 72.1094 31.3594 72.1094 C31.7344 72.1094 31.8906 71.8906 32 71.4062 L32.2344 70.6562 Z" style="fill:black; stroke:none;"
      /><rect x="30" width="6" height="13" y="53" style="stroke:none;"
      /><path d="M32.0938 59.2031 C32.0938 57.6562 32.75 56.8125 33.7969 56.8125 C34.7188 56.8125 35.2656 57.4531 35.2656 58.5156 C35.2656 59.7188 34.5 60.4375 33.1875 60.7031 L33.2969 61.3125 C35.2188 61.2344 35.9375 62.2188 35.9375 63.4375 C35.9375 64.625 35.2344 65.4219 33.9531 65.4219 C33.25 65.4219 32.6562 65.1562 32.0938 64.7188 L32.0938 59.2031 ZM31.2031 65.9062 L31.1094 68.375 L31.2656 68.4844 L32.1562 68.2656 L32.0156 65.0938 C32.5469 65.8438 33.3594 66.1719 34.1719 66.1719 C35.5625 66.1719 36.8594 65.2188 36.8594 63.4844 C36.8594 61.9531 35.875 61.1094 34.125 61 C35.5625 60.6094 36.1875 59.4531 36.1875 58.4844 C36.1875 57.0938 35.1562 56.3125 33.9062 56.3125 C32.2969 56.3125 31.2188 57.5469 31.2188 59.5156 L31.2031 65.9062 Z" style="fill:black; stroke:none;"
      /><rect x="29" width="7" height="9" y="121" style="stroke:none;"
      /><path d="M30 126.5156 L32.9531 122.2656 L32.9531 126.5156 L30 126.5156 ZM35.2812 126.5156 L33.8594 126.5156 L33.8594 121.125 L33.2344 121.125 L29.3438 126.6406 L29.3438 127.1875 L32.9531 127.1875 L32.9531 130 L33.8594 130 L33.8594 127.1875 L35.2812 127.1875 L35.2812 126.5156 Z" style="fill:black; stroke:none;"
      /><rect x="30" width="6" height="13" y="105" style="stroke:none;"
      /><path d="M32.0938 111.2031 C32.0938 109.6562 32.75 108.8125 33.7969 108.8125 C34.7188 108.8125 35.2656 109.4531 35.2656 110.5156 C35.2656 111.7188 34.5 112.4375 33.1875 112.7031 L33.2969 113.3125 C35.2188 113.2344 35.9375 114.2188 35.9375 115.4375 C35.9375 116.625 35.2344 117.4219 33.9531 117.4219 C33.25 117.4219 32.6562 117.1562 32.0938 116.7188 L32.0938 111.2031 ZM31.2031 117.9062 L31.1094 120.375 L31.2656 120.4844 L32.1562 120.2656 L32.0156 117.0938 C32.5469 117.8438 33.3594 118.1719 34.1719 118.1719 C35.5625 118.1719 36.8594 117.2188 36.8594 115.4844 C36.8594 113.9531 35.875 113.1094 34.125 113 C35.5625 112.6094 36.1875 111.4531 36.1875 110.4844 C36.1875 109.0938 35.1562 108.3125 33.9062 108.3125 C32.2969 108.3125 31.2188 109.5469 31.2188 111.5156 L31.2031 117.9062 Z" style="fill:black; stroke:none;"
      /><rect x="57" width="6" height="13" y="146" style="stroke:none;"
      /><path d="M59.0938 152.2031 C59.0938 150.6562 59.75 149.8125 60.7969 149.8125 C61.7188 149.8125 62.2656 150.4531 62.2656 151.5156 C62.2656 152.7188 61.5 153.4375 60.1875 153.7031 L60.2969 154.3125 C62.2188 154.2344 62.9375 155.2188 62.9375 156.4375 C62.9375 157.625 62.2344 158.4219 60.9531 158.4219 C60.25 158.4219 59.6562 158.1562 59.0938 157.7188 L59.0938 152.2031 ZM58.2031 158.9062 L58.1094 161.375 L58.2656 161.4844 L59.1562 161.2656 L59.0156 158.0938 C59.5469 158.8438 60.3594 159.1719 61.1719 159.1719 C62.5625 159.1719 63.8594 158.2188 63.8594 156.4844 C63.8594 154.9531 62.875 154.1094 61.125 154 C62.5625 153.6094 63.1875 152.4531 63.1875 151.4844 C63.1875 150.0938 62.1562 149.3125 60.9062 149.3125 C59.2969 149.3125 58.2188 150.5469 58.2188 152.5156 L58.2031 158.9062 Z" style="fill:black; stroke:none;"
    /></g
  ></g
></svg
>
