<?xml version="1.0"?>
<!DOCTYPE svg PUBLIC '-//W3C//DTD SVG 1.0//EN'
          'http://www.w3.org/TR/2001/REC-SVG-20010904/DTD/svg10.dtd'>
<svg xmlns:xlink="http://www.w3.org/1999/xlink" style="fill-opacity:1; color-rendering:auto; color-interpolation:auto; text-rendering:auto; stroke:black; stroke-linecap:square; stroke-miterlimit:10; shape-rendering:auto; stroke-opacity:1; fill:black; stroke-dasharray:none; font-weight:normal; stroke-width:1; font-family:'Dialog'; font-style:normal; stroke-linejoin:miter; font-size:12px; stroke-dashoffset:0; image-rendering:auto;" viewBox="0 0 342 128" xmlns="http://www.w3.org/2000/svg"
><!--Generated by the Batik Graphics2D SVG Generator--><defs id="genericDefs"
  /><g
  ><defs id="defs1"
    ><clipPath clipPathUnits="userSpaceOnUse" id="clipPath1"
      ><path d="M238 53 L260 53 L260 75 L238 75 L238 53 Z"
      /></clipPath
      ><clipPath clipPathUnits="userSpaceOnUse" id="clipPath2"
      ><path style="fill-rule:evenodd;" d="M197 53 L208 64 L197 75 L186 64 Z"
      /></clipPath
      ><clipPath clipPathUnits="userSpaceOnUse" id="clipPath3"
      ><path d="M134 53 L156 53 L156 75 L134 75 L134 53 Z"
      /></clipPath
      ><clipPath clipPathUnits="userSpaceOnUse" id="clipPath4"
      ><path style="fill-rule:evenodd;" d="M93 53 L104 64 L93 75 L82 64 Z"
      /></clipPath
      ><clipPath clipPathUnits="userSpaceOnUse" id="clipPath5"
      ><path d="M30 53 L52 53 L52 75 L30 75 L30 53 Z"
      /></clipPath
    ></defs
    ><g style="fill:white; text-rendering:optimizeSpeed; stroke:white;"
    ><rect x="0" width="342" height="128" y="0" style="stroke:none;"
      /><polygon style="fill:none; stroke:black;" points=" 301 64 249 64"
      /><path d="M301 53 C295.5 58.5 306.5 69.5 301 75" style="fill:none; stroke:black;"
      /><polygon style="fill:none; stroke:black;" points=" 249 64 197 64"
      /><rect x="238" y="53" width="22" style="clip-path:url(#clipPath1); stroke:none;" height="22"
      /><polygon style="fill:rgb(0,144,188); clip-path:url(#clipPath1); stroke:none;" points=" 238 53 260 53 260 75"
      /><polygon style="fill:none; clip-path:url(#clipPath1); stroke:black;" points=" 238 53 260 53 260 75"
      /><rect x="238" y="53" width="22" style="fill:none; stroke:black;" height="22"
      /><rect x="241" y="81" width="15" style="stroke:none;" height="10"
    /></g
    ><g style="text-rendering:optimizeSpeed; font-size:14px; font-family:'SansSerif';"
    ><path style="stroke:none;" d="M244.7031 92.1875 C246.5156 92.1875 247.9844 91.0938 247.9844 89.25 C247.9844 87.8594 247.0156 86.9375 245.8125 86.6562 L245.8125 86.5938 C246.8906 86.1875 247.6406 85.3594 247.6406 84.125 C247.6406 82.5 246.375 81.5469 244.6562 81.5469 C243.4688 81.5469 242.5469 82.0625 241.7812 82.7812 L242.4688 83.5938 C243.0469 83 243.7656 82.5938 244.5938 82.5938 C245.6562 82.5938 246.3281 83.2344 246.3281 84.2188 C246.3281 85.3281 245.6094 86.1719 243.4844 86.1719 L243.4844 87.1562 C245.8594 87.1562 246.6875 87.9844 246.6875 89.2031 C246.6875 90.3906 245.8125 91.125 244.5938 91.125 C243.4375 91.125 242.6562 90.5781 242.0469 89.9375 L241.4062 90.7812 C242.0781 91.5156 243.0938 92.1875 244.7031 92.1875 ZM253.02 92.1875 C255.1606 92.1875 256.5043 90.8906 256.5043 89.2656 C256.5043 87.75 255.5825 87.0469 254.395 86.5312 L252.9262 85.8906 C252.1293 85.5625 251.2387 85.1875 251.2387 84.1875 C251.2387 83.2656 251.9887 82.6719 253.145 82.6719 C254.0981 82.6719 254.8637 83.0469 255.4887 83.6406 L256.1762 82.8125 C255.4418 82.0625 254.3637 81.5469 253.145 81.5469 C251.2856 81.5469 249.9106 82.6875 249.9106 84.2656 C249.9106 85.7656 251.0512 86.5 252.0043 86.9062 L253.4887 87.5469 C254.4575 87.9844 255.1918 88.3125 255.1918 89.375 C255.1918 90.375 254.3793 91.0469 253.0356 91.0469 C251.9731 91.0469 250.9418 90.5469 250.2075 89.7812 L249.4262 90.6562 C250.3168 91.5938 251.5668 92.1875 253.02 92.1875 Z"
      /><polygon style="fill:none;" points=" 197 64 145 64"
    /></g
    ><g style="fill:white; text-rendering:optimizeSpeed; stroke:white;"
    ><polygon style="stroke:none; clip-path:url(#clipPath2);" points=" 197 53 208 64 197 75 186 64"
      /><rect x="186" y="64" width="22" style="clip-path:url(#clipPath2); fill:rgb(161,122,77); stroke:none;" height="11"
      /><rect x="186" y="64" width="22" style="clip-path:url(#clipPath2); fill:none; stroke:black;" height="11"
      /><polygon style="fill:none; stroke:black;" points=" 197 53 208 64 197 75 186 64"
      /><rect x="189" width="14" height="10" y="81" style="stroke:none;"
    /></g
    ><g style="text-rendering:optimizeSpeed; font-size:14px; font-family:'SansSerif';"
    ><path style="stroke:none;" d="M189.6094 92 L196.0625 92 L196.0625 90.8906 L193.2344 90.8906 C192.7031 90.8906 192.0781 90.9531 191.5469 90.9844 C193.9531 88.7031 195.5625 86.625 195.5625 84.5781 C195.5625 82.75 194.4219 81.5469 192.5781 81.5469 C191.2812 81.5469 190.4062 82.1406 189.5625 83.0469 L190.2969 83.7812 C190.8594 83.1094 191.5938 82.5938 192.4375 82.5938 C193.7031 82.5938 194.3125 83.4531 194.3125 84.625 C194.3125 86.3906 192.8438 88.4375 189.6094 91.25 L189.6094 92 ZM201.02 92.1875 C203.1606 92.1875 204.5043 90.8906 204.5043 89.2656 C204.5043 87.75 203.5825 87.0469 202.395 86.5312 L200.9262 85.8906 C200.1293 85.5625 199.2387 85.1875 199.2387 84.1875 C199.2387 83.2656 199.9887 82.6719 201.145 82.6719 C202.0981 82.6719 202.8637 83.0469 203.4887 83.6406 L204.1762 82.8125 C203.4418 82.0625 202.3637 81.5469 201.145 81.5469 C199.2856 81.5469 197.9106 82.6875 197.9106 84.2656 C197.9106 85.7656 199.0512 86.5 200.0043 86.9062 L201.4887 87.5469 C202.4575 87.9844 203.1918 88.3125 203.1918 89.375 C203.1918 90.375 202.3793 91.0469 201.0356 91.0469 C199.9731 91.0469 198.9418 90.5469 198.2075 89.7812 L197.4262 90.6562 C198.3168 91.5938 199.5668 92.1875 201.02 92.1875 Z"
      /><polygon style="fill:none;" points=" 145 64 93 64"
    /></g
    ><g style="fill:white; text-rendering:optimizeSpeed; stroke:white;"
    ><rect x="134" y="53" width="22" style="clip-path:url(#clipPath3); stroke:none;" height="22"
      /><polygon style="fill:rgb(0,144,188); clip-path:url(#clipPath3); stroke:none;" points=" 134 53 156 53 156 75"
      /><polygon style="fill:none; clip-path:url(#clipPath3); stroke:black;" points=" 134 53 156 53 156 75"
      /><rect x="134" y="53" width="22" style="fill:none; stroke:black;" height="22"
      /><rect x="137" width="15" height="10" y="81" style="stroke:none;"
    /></g
    ><g style="text-rendering:optimizeSpeed; font-size:14px; font-family:'SansSerif';"
    ><path style="stroke:none;" d="M140.7031 92.1875 C142.5156 92.1875 143.9844 91.0938 143.9844 89.25 C143.9844 87.8594 143.0156 86.9375 141.8125 86.6562 L141.8125 86.5938 C142.8906 86.1875 143.6406 85.3594 143.6406 84.125 C143.6406 82.5 142.375 81.5469 140.6562 81.5469 C139.4688 81.5469 138.5469 82.0625 137.7812 82.7812 L138.4688 83.5938 C139.0469 83 139.7656 82.5938 140.5938 82.5938 C141.6562 82.5938 142.3281 83.2344 142.3281 84.2188 C142.3281 85.3281 141.6094 86.1719 139.4844 86.1719 L139.4844 87.1562 C141.8594 87.1562 142.6875 87.9844 142.6875 89.2031 C142.6875 90.3906 141.8125 91.125 140.5938 91.125 C139.4375 91.125 138.6562 90.5781 138.0469 89.9375 L137.4062 90.7812 C138.0781 91.5156 139.0938 92.1875 140.7031 92.1875 ZM149.02 92.1875 C151.1606 92.1875 152.5043 90.8906 152.5043 89.2656 C152.5043 87.75 151.5825 87.0469 150.395 86.5312 L148.9262 85.8906 C148.1293 85.5625 147.2387 85.1875 147.2387 84.1875 C147.2387 83.2656 147.9887 82.6719 149.145 82.6719 C150.0981 82.6719 150.8637 83.0469 151.4887 83.6406 L152.1762 82.8125 C151.4418 82.0625 150.3637 81.5469 149.145 81.5469 C147.2856 81.5469 145.9106 82.6875 145.9106 84.2656 C145.9106 85.7656 147.0512 86.5 148.0043 86.9062 L149.4887 87.5469 C150.4575 87.9844 151.1918 88.3125 151.1918 89.375 C151.1918 90.375 150.3793 91.0469 149.0356 91.0469 C147.9731 91.0469 146.9418 90.5469 146.2075 89.7812 L145.4262 90.6562 C146.3168 91.5938 147.5668 92.1875 149.02 92.1875 Z"
      /><polygon style="fill:none;" points=" 93 64 41 64"
    /></g
    ><g style="fill:white; text-rendering:optimizeSpeed; stroke:white;"
    ><polygon style="stroke:none; clip-path:url(#clipPath4);" points=" 93 53 104 64 93 75 82 64"
      /><rect x="82" y="53" width="22" style="clip-path:url(#clipPath4); fill:rgb(0,144,188); stroke:none;" height="11"
      /><rect x="82" y="53" width="22" style="clip-path:url(#clipPath4); fill:none; stroke:black;" height="11"
      /><polygon style="fill:none; stroke:black;" points=" 93 53 104 64 93 75 82 64"
      /><rect x="85" width="15" height="10" y="81" style="stroke:none;"
    /></g
    ><g style="text-rendering:optimizeSpeed; font-size:14px; font-family:'SansSerif';"
    ><path style="stroke:none;" d="M88.7031 92.1875 C90.5156 92.1875 91.9844 91.0938 91.9844 89.25 C91.9844 87.8594 91.0156 86.9375 89.8125 86.6562 L89.8125 86.5938 C90.8906 86.1875 91.6406 85.3594 91.6406 84.125 C91.6406 82.5 90.375 81.5469 88.6562 81.5469 C87.4688 81.5469 86.5469 82.0625 85.7812 82.7812 L86.4688 83.5938 C87.0469 83 87.7656 82.5938 88.5938 82.5938 C89.6562 82.5938 90.3281 83.2344 90.3281 84.2188 C90.3281 85.3281 89.6094 86.1719 87.4844 86.1719 L87.4844 87.1562 C89.8594 87.1562 90.6875 87.9844 90.6875 89.2031 C90.6875 90.3906 89.8125 91.125 88.5938 91.125 C87.4375 91.125 86.6562 90.5781 86.0469 89.9375 L85.4062 90.7812 C86.0781 91.5156 87.0938 92.1875 88.7031 92.1875 ZM97.02 92.1875 C99.1606 92.1875 100.5043 90.8906 100.5043 89.2656 C100.5043 87.75 99.5825 87.0469 98.395 86.5312 L96.9262 85.8906 C96.1293 85.5625 95.2387 85.1875 95.2387 84.1875 C95.2387 83.2656 95.9887 82.6719 97.145 82.6719 C98.0981 82.6719 98.8637 83.0469 99.4887 83.6406 L100.1762 82.8125 C99.4418 82.0625 98.3637 81.5469 97.145 81.5469 C95.2856 81.5469 93.9106 82.6875 93.9106 84.2656 C93.9106 85.7656 95.0512 86.5 96.0043 86.9062 L97.4887 87.5469 C98.4575 87.9844 99.1918 88.3125 99.1918 89.375 C99.1918 90.375 98.3793 91.0469 97.0356 91.0469 C95.9731 91.0469 94.9418 90.5469 94.2075 89.7812 L93.4262 90.6562 C94.3168 91.5938 95.5668 92.1875 97.02 92.1875 Z"
    /></g
    ><g style="fill:white; text-rendering:optimizeSpeed; stroke:white;"
    ><rect x="30" y="53" width="22" style="clip-path:url(#clipPath5); stroke:none;" height="22"
      /><polygon style="fill:rgb(0,144,188); clip-path:url(#clipPath5); stroke:none;" points=" 30 53 52 53 52 75"
      /><polygon style="fill:none; clip-path:url(#clipPath5); stroke:black;" points=" 30 53 52 53 52 75"
      /><rect x="30" y="53" width="22" style="fill:none; stroke:black;" height="22"
      /><rect x="33" width="14" height="10" y="81" style="stroke:none;"
    /></g
    ><g style="text-rendering:optimizeSpeed; font-size:14px; font-family:'SansSerif';"
    ><path style="stroke:none;" d="M33.6094 92 L40.0625 92 L40.0625 90.8906 L37.2344 90.8906 C36.7031 90.8906 36.0781 90.9531 35.5469 90.9844 C37.9531 88.7031 39.5625 86.625 39.5625 84.5781 C39.5625 82.75 38.4219 81.5469 36.5781 81.5469 C35.2812 81.5469 34.4062 82.1406 33.5625 83.0469 L34.2969 83.7812 C34.8594 83.1094 35.5938 82.5938 36.4375 82.5938 C37.7031 82.5938 38.3125 83.4531 38.3125 84.625 C38.3125 86.3906 36.8438 88.4375 33.6094 91.25 L33.6094 92 ZM45.02 92.1875 C47.1606 92.1875 48.5043 90.8906 48.5043 89.2656 C48.5043 87.75 47.5825 87.0469 46.395 86.5312 L44.9262 85.8906 C44.1293 85.5625 43.2387 85.1875 43.2387 84.1875 C43.2387 83.2656 43.9887 82.6719 45.145 82.6719 C46.0981 82.6719 46.8637 83.0469 47.4887 83.6406 L48.1762 82.8125 C47.4418 82.0625 46.3637 81.5469 45.145 81.5469 C43.2856 81.5469 41.9106 82.6875 41.9106 84.2656 C41.9106 85.7656 43.0512 86.5 44.0043 86.9062 L45.4887 87.5469 C46.4575 87.9844 47.1918 88.3125 47.1918 89.375 C47.1918 90.375 46.3793 91.0469 45.0356 91.0469 C43.9731 91.0469 42.9418 90.5469 42.2075 89.7812 L41.4262 90.6562 C42.3168 91.5938 43.5668 92.1875 45.02 92.1875 Z"
      /><rect x="33" y="35" width="14" style="fill:white; stroke:none;" height="10"
      /><path style="stroke:none;" d="M37.1094 40.5781 C38.3438 40.5781 38.9688 41.4688 38.9688 42.8438 C38.9688 44.25 38.1875 45.1875 37.2188 45.1875 C35.9219 45.1875 35.1562 44.0312 35 41.8906 C35.625 40.9531 36.4531 40.5781 37.1094 40.5781 ZM37.2188 46.1875 C38.8125 46.1875 40.1562 44.8438 40.1562 42.8438 C40.1562 40.7031 39.0469 39.625 37.3125 39.625 C36.5 39.625 35.6094 40.1094 34.9688 40.875 C35.0312 37.6875 36.2188 36.6094 37.625 36.6094 C38.25 36.6094 38.8594 36.9062 39.2656 37.3906 L39.9688 36.5938 C39.4062 35.9844 38.6406 35.5469 37.5781 35.5469 C35.5938 35.5469 33.7812 37.0781 33.7812 41.0938 C33.7812 44.4844 35.2344 46.1875 37.2188 46.1875 ZM45.02 46.1875 C47.1606 46.1875 48.5043 44.8906 48.5043 43.2656 C48.5043 41.75 47.5825 41.0469 46.395 40.5312 L44.9262 39.8906 C44.1293 39.5625 43.2387 39.1875 43.2387 38.1875 C43.2387 37.2656 43.9887 36.6719 45.145 36.6719 C46.0981 36.6719 46.8637 37.0469 47.4887 37.6406 L48.1762 36.8125 C47.4418 36.0625 46.3637 35.5469 45.145 35.5469 C43.2856 35.5469 41.9106 36.6875 41.9106 38.2656 C41.9106 39.7656 43.0512 40.5 44.0043 40.9062 L45.4887 41.5469 C46.4575 41.9844 47.1918 42.3125 47.1918 43.375 C47.1918 44.375 46.3793 45.0469 45.0356 45.0469 C43.9731 45.0469 42.9418 44.5469 42.2075 43.7812 L41.4262 44.6562 C42.3168 45.5938 43.5668 46.1875 45.02 46.1875 Z"
    /></g
    ><g style="fill:white; text-rendering:optimizeSpeed; font-family:'Serif'; stroke:white;"
    ><rect x="71" width="5" height="10" y="67" style="stroke:none;"
      /><path d="M72.8906 75.6875 C72.4844 75.6875 72.1562 76.0469 72.1562 76.4219 C72.1562 76.8125 72.4844 77.1562 72.8906 77.1562 C73.2969 77.1562 73.6406 76.8125 73.6406 76.4219 C73.6406 76.0469 73.2969 75.6875 72.8906 75.6875 ZM74.4688 69.5781 C74.7188 69.8906 74.875 70.2656 74.8906 70.6562 C74.8906 71.1875 74.625 71.5 74.0312 71.7656 L73.4062 72.0156 C72.6406 72.3125 72.3906 72.5469 72.3906 72.9375 C72.3906 73.1094 72.4531 73.3438 72.5781 73.8125 L72.7344 74.3438 L73.1094 74.3438 L73.0938 73.5312 C73.0938 73.0938 73.2031 72.9688 73.7812 72.7344 L74.2031 72.5625 C75.0312 72.2188 75.4531 71.6875 75.4531 70.8438 C75.4531 69.1562 73.6562 68.1875 72.5 68.0312 C72.1094 68.125 71.9062 68.2969 71.9062 68.6406 C71.9062 68.9375 72.0625 69.1562 72.7188 69.2656 L74.4688 69.5781 Z" style="fill:black; stroke:none;"
      /><rect x="57" width="5" height="10" y="67" style="stroke:none;"
      /><path d="M58.8906 75.6875 C58.4844 75.6875 58.1562 76.0469 58.1562 76.4219 C58.1562 76.8125 58.4844 77.1562 58.8906 77.1562 C59.2969 77.1562 59.6406 76.8125 59.6406 76.4219 C59.6406 76.0469 59.2969 75.6875 58.8906 75.6875 ZM60.4688 69.5781 C60.7188 69.8906 60.875 70.2656 60.8906 70.6562 C60.8906 71.1875 60.625 71.5 60.0312 71.7656 L59.4062 72.0156 C58.6406 72.3125 58.3906 72.5469 58.3906 72.9375 C58.3906 73.1094 58.4531 73.3438 58.5781 73.8125 L58.7344 74.3438 L59.1094 74.3438 L59.0938 73.5312 C59.0938 73.0938 59.2031 72.9688 59.7812 72.7344 L60.2031 72.5625 C61.0312 72.2188 61.4531 71.6875 61.4531 70.8438 C61.4531 69.1562 59.6562 68.1875 58.5 68.0312 C58.1094 68.125 57.9062 68.2969 57.9062 68.6406 C57.9062 68.9375 58.0625 69.1562 58.7188 69.2656 L60.4688 69.5781 Z" style="fill:black; stroke:none;"
      /><rect x="123" width="5" height="10" y="67" style="stroke:none;"
      /><path d="M124.8906 75.6875 C124.4844 75.6875 124.1562 76.0469 124.1562 76.4219 C124.1562 76.8125 124.4844 77.1562 124.8906 77.1562 C125.2969 77.1562 125.6406 76.8125 125.6406 76.4219 C125.6406 76.0469 125.2969 75.6875 124.8906 75.6875 ZM126.4688 69.5781 C126.7188 69.8906 126.875 70.2656 126.8906 70.6562 C126.8906 71.1875 126.625 71.5 126.0312 71.7656 L125.4062 72.0156 C124.6406 72.3125 124.3906 72.5469 124.3906 72.9375 C124.3906 73.1094 124.4531 73.3438 124.5781 73.8125 L124.7344 74.3438 L125.1094 74.3438 L125.0938 73.5312 C125.0938 73.0938 125.2031 72.9688 125.7812 72.7344 L126.2031 72.5625 C127.0312 72.2188 127.4531 71.6875 127.4531 70.8438 C127.4531 69.1562 125.6562 68.1875 124.5 68.0312 C124.1094 68.125 123.9062 68.2969 123.9062 68.6406 C123.9062 68.9375 124.0625 69.1562 124.7188 69.2656 L126.4688 69.5781 Z" style="fill:black; stroke:none;"
      /><rect x="109" width="5" height="10" y="67" style="stroke:none;"
      /><path d="M110.8906 75.6875 C110.4844 75.6875 110.1562 76.0469 110.1562 76.4219 C110.1562 76.8125 110.4844 77.1562 110.8906 77.1562 C111.2969 77.1562 111.6406 76.8125 111.6406 76.4219 C111.6406 76.0469 111.2969 75.6875 110.8906 75.6875 ZM112.4688 69.5781 C112.7188 69.8906 112.875 70.2656 112.8906 70.6562 C112.8906 71.1875 112.625 71.5 112.0312 71.7656 L111.4062 72.0156 C110.6406 72.3125 110.3906 72.5469 110.3906 72.9375 C110.3906 73.1094 110.4531 73.3438 110.5781 73.8125 L110.7344 74.3438 L111.1094 74.3438 L111.0938 73.5312 C111.0938 73.0938 111.2031 72.9688 111.7812 72.7344 L112.2031 72.5625 C113.0312 72.2188 113.4531 71.6875 113.4531 70.8438 C113.4531 69.1562 111.6562 68.1875 110.5 68.0312 C110.1094 68.125 109.9062 68.2969 109.9062 68.6406 C109.9062 68.9375 110.0625 69.1562 110.7188 69.2656 L112.4688 69.5781 Z" style="fill:black; stroke:none;"
      /><rect x="175" width="5" height="10" y="67" style="stroke:none;"
      /><path d="M176.8906 75.6875 C176.4844 75.6875 176.1562 76.0469 176.1562 76.4219 C176.1562 76.8125 176.4844 77.1562 176.8906 77.1562 C177.2969 77.1562 177.6406 76.8125 177.6406 76.4219 C177.6406 76.0469 177.2969 75.6875 176.8906 75.6875 ZM178.4688 69.5781 C178.7188 69.8906 178.875 70.2656 178.8906 70.6562 C178.8906 71.1875 178.625 71.5 178.0312 71.7656 L177.4062 72.0156 C176.6406 72.3125 176.3906 72.5469 176.3906 72.9375 C176.3906 73.1094 176.4531 73.3438 176.5781 73.8125 L176.7344 74.3438 L177.1094 74.3438 L177.0938 73.5312 C177.0938 73.0938 177.2031 72.9688 177.7812 72.7344 L178.2031 72.5625 C179.0312 72.2188 179.4531 71.6875 179.4531 70.8438 C179.4531 69.1562 177.6562 68.1875 176.5 68.0312 C176.1094 68.125 175.9062 68.2969 175.9062 68.6406 C175.9062 68.9375 176.0625 69.1562 176.7188 69.2656 L178.4688 69.5781 Z" style="fill:black; stroke:none;"
      /><rect x="161" width="5" height="10" y="67" style="stroke:none;"
      /><path d="M162.8906 75.6875 C162.4844 75.6875 162.1562 76.0469 162.1562 76.4219 C162.1562 76.8125 162.4844 77.1562 162.8906 77.1562 C163.2969 77.1562 163.6406 76.8125 163.6406 76.4219 C163.6406 76.0469 163.2969 75.6875 162.8906 75.6875 ZM164.4688 69.5781 C164.7188 69.8906 164.875 70.2656 164.8906 70.6562 C164.8906 71.1875 164.625 71.5 164.0312 71.7656 L163.4062 72.0156 C162.6406 72.3125 162.3906 72.5469 162.3906 72.9375 C162.3906 73.1094 162.4531 73.3438 162.5781 73.8125 L162.7344 74.3438 L163.1094 74.3438 L163.0938 73.5312 C163.0938 73.0938 163.2031 72.9688 163.7812 72.7344 L164.2031 72.5625 C165.0312 72.2188 165.4531 71.6875 165.4531 70.8438 C165.4531 69.1562 163.6562 68.1875 162.5 68.0312 C162.1094 68.125 161.9062 68.2969 161.9062 68.6406 C161.9062 68.9375 162.0625 69.1562 162.7188 69.2656 L164.4688 69.5781 Z" style="fill:black; stroke:none;"
      /><rect x="227" width="5" height="10" y="67" style="stroke:none;"
      /><path d="M228.8906 75.6875 C228.4844 75.6875 228.1562 76.0469 228.1562 76.4219 C228.1562 76.8125 228.4844 77.1562 228.8906 77.1562 C229.2969 77.1562 229.6406 76.8125 229.6406 76.4219 C229.6406 76.0469 229.2969 75.6875 228.8906 75.6875 ZM230.4688 69.5781 C230.7188 69.8906 230.875 70.2656 230.8906 70.6562 C230.8906 71.1875 230.625 71.5 230.0312 71.7656 L229.4062 72.0156 C228.6406 72.3125 228.3906 72.5469 228.3906 72.9375 C228.3906 73.1094 228.4531 73.3438 228.5781 73.8125 L228.7344 74.3438 L229.1094 74.3438 L229.0938 73.5312 C229.0938 73.0938 229.2031 72.9688 229.7812 72.7344 L230.2031 72.5625 C231.0312 72.2188 231.4531 71.6875 231.4531 70.8438 C231.4531 69.1562 229.6562 68.1875 228.5 68.0312 C228.1094 68.125 227.9062 68.2969 227.9062 68.6406 C227.9062 68.9375 228.0625 69.1562 228.7188 69.2656 L230.4688 69.5781 Z" style="fill:black; stroke:none;"
      /><rect x="213" width="5" height="10" y="67" style="stroke:none;"
      /><path d="M214.8906 75.6875 C214.4844 75.6875 214.1562 76.0469 214.1562 76.4219 C214.1562 76.8125 214.4844 77.1562 214.8906 77.1562 C215.2969 77.1562 215.6406 76.8125 215.6406 76.4219 C215.6406 76.0469 215.2969 75.6875 214.8906 75.6875 ZM216.4688 69.5781 C216.7188 69.8906 216.875 70.2656 216.8906 70.6562 C216.8906 71.1875 216.625 71.5 216.0312 71.7656 L215.4062 72.0156 C214.6406 72.3125 214.3906 72.5469 214.3906 72.9375 C214.3906 73.1094 214.4531 73.3438 214.5781 73.8125 L214.7344 74.3438 L215.1094 74.3438 L215.0938 73.5312 C215.0938 73.0938 215.2031 72.9688 215.7812 72.7344 L216.2031 72.5625 C217.0312 72.2188 217.4531 71.6875 217.4531 70.8438 C217.4531 69.1562 215.6562 68.1875 214.5 68.0312 C214.1094 68.125 213.9062 68.2969 213.9062 68.6406 C213.9062 68.9375 214.0625 69.1562 214.7188 69.2656 L216.4688 69.5781 Z" style="fill:black; stroke:none;"
      /><rect x="265" width="5" height="10" y="67" style="stroke:none;"
      /><path d="M266.8906 75.6875 C266.4844 75.6875 266.1562 76.0469 266.1562 76.4219 C266.1562 76.8125 266.4844 77.1562 266.8906 77.1562 C267.2969 77.1562 267.6406 76.8125 267.6406 76.4219 C267.6406 76.0469 267.2969 75.6875 266.8906 75.6875 ZM268.4688 69.5781 C268.7188 69.8906 268.875 70.2656 268.8906 70.6562 C268.8906 71.1875 268.625 71.5 268.0312 71.7656 L267.4062 72.0156 C266.6406 72.3125 266.3906 72.5469 266.3906 72.9375 C266.3906 73.1094 266.4531 73.3438 266.5781 73.8125 L266.7344 74.3438 L267.1094 74.3438 L267.0938 73.5312 C267.0938 73.0938 267.2031 72.9688 267.7812 72.7344 L268.2031 72.5625 C269.0312 72.2188 269.4531 71.6875 269.4531 70.8438 C269.4531 69.1562 267.6562 68.1875 266.5 68.0312 C266.1094 68.125 265.9062 68.2969 265.9062 68.6406 C265.9062 68.9375 266.0625 69.1562 266.7188 69.2656 L268.4688 69.5781 Z" style="fill:black; stroke:none;"
    /></g
  ></g
></svg
>
