<?xml version="1.0"?>
<!DOCTYPE svg PUBLIC '-//W3C//DTD SVG 1.0//EN'
          'http://www.w3.org/TR/2001/REC-SVG-20010904/DTD/svg10.dtd'>
<svg xmlns:xlink="http://www.w3.org/1999/xlink" style="fill-opacity:1; color-rendering:auto; color-interpolation:auto; text-rendering:auto; stroke:black; stroke-linecap:square; stroke-miterlimit:10; shape-rendering:auto; stroke-opacity:1; fill:black; stroke-dasharray:none; font-weight:normal; stroke-width:1; font-family:'Dialog'; font-style:normal; stroke-linejoin:miter; font-size:12px; stroke-dashoffset:0; image-rendering:auto;" viewBox="0 0 498 290" xmlns="http://www.w3.org/2000/svg"
><!--Generated by the Batik Graphics2D SVG Generator--><defs id="genericDefs"
  /><g
  ><defs id="defs1"
    ><clipPath clipPathUnits="userSpaceOnUse" id="clipPath1"
      ><path d="M394 82 L416 82 L416 104 L394 104 L394 82 Z"
      /></clipPath
      ><clipPath clipPathUnits="userSpaceOnUse" id="clipPath2"
      ><path d="M342 82 L364 82 L364 104 L342 104 L342 82 Z"
      /></clipPath
      ><clipPath clipPathUnits="userSpaceOnUse" id="clipPath3"
      ><path d="M312 93 C312 99.0751 307.0751 104 301 104 C294.9249 104 290 99.0751 290 93 C290 86.9249 294.9249 82 301 82 C307.0751 82 312 86.9249 312 93 Z"
      /></clipPath
      ><clipPath clipPathUnits="userSpaceOnUse" id="clipPath4"
      ><path d="M260 223 C260 229.0751 255.0751 234 249 234 C242.9249 234 238 229.0751 238 223 C238 216.9249 242.9249 212 249 212 C255.0751 212 260 216.9249 260 223 Z"
      /></clipPath
      ><clipPath clipPathUnits="userSpaceOnUse" id="clipPath5"
      ><path d="M186 238 L208 238 L208 260 L186 260 L186 238 Z"
      /></clipPath
      ><clipPath clipPathUnits="userSpaceOnUse" id="clipPath6"
      ><path d="M156 249 C156 255.0751 151.0751 260 145 260 C138.9249 260 134 255.0751 134 249 C134 242.9249 138.9249 238 145 238 C151.0751 238 156 242.9249 156 249 Z"
      /></clipPath
      ><clipPath clipPathUnits="userSpaceOnUse" id="clipPath7"
      ><path d="M82 238 L104 238 L104 260 L82 260 L82 238 Z"
      /></clipPath
      ><clipPath clipPathUnits="userSpaceOnUse" id="clipPath8"
      ><path d="M52 249 C52 255.0751 47.0751 260 41 260 C34.9249 260 30 255.0751 30 249 C30 242.9249 34.9249 238 41 238 C47.0751 238 52 242.9249 52 249 Z"
      /></clipPath
      ><clipPath clipPathUnits="userSpaceOnUse" id="clipPath9"
      ><path d="M186 186 L208 186 L208 208 L186 208 L186 186 Z"
      /></clipPath
      ><clipPath clipPathUnits="userSpaceOnUse" id="clipPath10"
      ><path d="M156 197 C156 203.0751 151.0751 208 145 208 C138.9249 208 134 203.0751 134 197 C134 190.9249 138.9249 186 145 186 C151.0751 186 156 190.9249 156 197 Z"
      /></clipPath
      ><clipPath clipPathUnits="userSpaceOnUse" id="clipPath11"
      ><path d="M260 93 C260 99.0751 255.0751 104 249 104 C242.9249 104 238 99.0751 238 93 C238 86.9249 242.9249 82 249 82 C255.0751 82 260 86.9249 260 93 Z"
      /></clipPath
      ><clipPath clipPathUnits="userSpaceOnUse" id="clipPath12"
      ><path d="M186 134 L208 134 L208 156 L186 156 L186 134 Z"
      /></clipPath
      ><clipPath clipPathUnits="userSpaceOnUse" id="clipPath13"
      ><path d="M156 145 C156 151.0751 151.0751 156 145 156 C138.9249 156 134 151.0751 134 145 C134 138.9249 138.9249 134 145 134 C151.0751 134 156 138.9249 156 145 Z"
      /></clipPath
      ><clipPath clipPathUnits="userSpaceOnUse" id="clipPath14"
      ><path style="fill-rule:evenodd;" d="M93 134 L104 145 L93 156 L82 145 Z"
      /></clipPath
      ><clipPath clipPathUnits="userSpaceOnUse" id="clipPath15"
      ><path style="fill-rule:evenodd;" d="M197 104 L186 82 L208 82 Z"
      /></clipPath
      ><clipPath clipPathUnits="userSpaceOnUse" id="clipPath16"
      ><path d="M186 30 L208 30 L208 52 L186 52 L186 30 Z"
      /></clipPath
      ><clipPath clipPathUnits="userSpaceOnUse" id="clipPath17"
      ><path d="M156 41 C156 47.0751 151.0751 52 145 52 C138.9249 52 134 47.0751 134 41 C134 34.9249 138.9249 30 145 30 C151.0751 30 156 34.9249 156 41 Z"
      /></clipPath
      ><clipPath clipPathUnits="userSpaceOnUse" id="clipPath18"
      ><path d="M238 30 L260 30 L260 52 L238 52 L238 30 Z"
      /></clipPath
    ></defs
    ><g style="fill:white; text-rendering:optimizeSpeed; stroke:white;"
    ><rect x="0" width="498" height="290" y="0" style="stroke:none;"
      /><polygon style="fill:none; stroke:black;" points=" 457 93 405 93"
      /><path d="M457 82 C451.5 87.5 462.5 98.5 457 104" style="fill:none; stroke:black;"
      /><polygon style="fill:none; stroke:black;" points=" 405 93 353 93"
      /><rect x="394" y="82" width="22" style="clip-path:url(#clipPath1); stroke:none;" height="22"
      /><rect x="394" y="82" width="22" style="clip-path:url(#clipPath1); fill:rgb(0,144,188); stroke:none;" height="22"
      /><rect x="394" y="82" width="22" style="clip-path:url(#clipPath1); fill:none; stroke:black;" height="22"
      /><rect x="394" y="82" width="22" style="fill:none; stroke:black;" height="22"
      /><polygon style="fill:none; stroke:black;" points=" 353 93 301 93"
      /><rect x="342" y="82" width="22" style="clip-path:url(#clipPath2); stroke:none;" height="22"
      /><rect x="342" y="82" width="22" style="clip-path:url(#clipPath2); fill:rgb(0,144,188); stroke:none;" height="22"
      /><rect x="342" y="82" width="22" style="clip-path:url(#clipPath2); fill:none; stroke:black;" height="22"
      /><rect x="342" y="82" width="22" style="fill:none; stroke:black;" height="22"
      /><polygon style="fill:none; stroke:black;" points=" 301 93 249 223"
      /><polygon style="fill:none; stroke:black;" points=" 301 93 249 93"
      /><polygon style="fill:none; stroke:black;" points=" 301 93 249 41"
      /><circle style="clip-path:url(#clipPath3); stroke:none;" r="11" cx="301" cy="93"
      /><rect x="290" y="82" width="22" style="clip-path:url(#clipPath3); fill:rgb(0,166,81); stroke:none;" height="22"
      /><rect x="290" y="82" width="22" style="clip-path:url(#clipPath3); fill:none; stroke:black;" height="22"
      /><circle style="fill:none; stroke:black;" r="11" cx="301" cy="93"
      /><polygon style="fill:none; stroke:black;" points=" 249 223 197 249"
      /><polygon style="fill:none; stroke:black;" points=" 249 223 197 197"
      /><circle style="clip-path:url(#clipPath4); stroke:none;" r="11" cx="249" cy="223"
      /><rect x="238" y="212" width="22" style="clip-path:url(#clipPath4); fill:rgb(0,166,81); stroke:none;" height="22"
      /><rect x="238" y="212" width="22" style="clip-path:url(#clipPath4); fill:none; stroke:black;" height="22"
      /><circle style="fill:none; stroke:black;" r="11" cx="249" cy="223"
      /><polygon style="fill:none; stroke:black;" points=" 197 249 145 249"
      /><rect x="186" y="238" width="22" style="clip-path:url(#clipPath5); stroke:none;" height="22"
      /><rect x="186" y="238" width="22" style="clip-path:url(#clipPath5); fill:rgb(0,144,188); stroke:none;" height="22"
      /><rect x="186" y="238" width="22" style="clip-path:url(#clipPath5); fill:none; stroke:black;" height="22"
      /><rect x="186" y="238" width="22" style="fill:none; stroke:black;" height="22"
      /><polygon style="fill:none; stroke:black;" points=" 145 249 93 249"
      /><circle style="clip-path:url(#clipPath6); stroke:none;" r="11" cx="145" cy="249"
      /><rect x="134" y="238" width="22" style="clip-path:url(#clipPath6); fill:rgb(255,212,0); stroke:none;" height="22"
      /><rect x="134" y="238" width="22" style="clip-path:url(#clipPath6); fill:none; stroke:black;" height="22"
      /><circle style="fill:none; stroke:black;" r="11" cx="145" cy="249"
      /><polygon style="fill:none; stroke:black;" points=" 93 249 41 249"
      /><rect x="82" y="238" width="22" style="clip-path:url(#clipPath7); stroke:none;" height="22"
      /><rect x="82" y="238" width="22" style="clip-path:url(#clipPath7); fill:rgb(0,144,188); stroke:none;" height="22"
      /><rect x="82" y="238" width="22" style="clip-path:url(#clipPath7); fill:none; stroke:black;" height="22"
      /><rect x="82" y="238" width="22" style="fill:none; stroke:black;" height="22"
      /><circle style="clip-path:url(#clipPath8); stroke:none;" r="11" cx="41" cy="249"
      /><rect x="30" y="238" width="22" style="clip-path:url(#clipPath8); fill:rgb(255,212,0); stroke:none;" height="22"
      /><rect x="30" y="238" width="22" style="clip-path:url(#clipPath8); fill:none; stroke:black;" height="22"
      /><circle style="fill:none; stroke:black;" r="11" cx="41" cy="249"
      /><rect x="71" y="252" width="5" style="stroke:none;" height="10"
    /></g
    ><g style="font-family:'Serif'; text-rendering:optimizeSpeed; "
    ><path style="stroke:none;" d="M72.8906 260.6875 C72.4844 260.6875 72.1562 261.0469 72.1562 261.4219 C72.1562 261.8125 72.4844 262.1562 72.8906 262.1562 C73.2969 262.1562 73.6406 261.8125 73.6406 261.4219 C73.6406 261.0469 73.2969 260.6875 72.8906 260.6875 ZM74.4688 254.5781 C74.7188 254.8906 74.875 255.2656 74.8906 255.6562 C74.8906 256.1875 74.625 256.5 74.0312 256.7656 L73.4062 257.0156 C72.6406 257.3125 72.3906 257.5469 72.3906 257.9375 C72.3906 258.1094 72.4531 258.3438 72.5781 258.8125 L72.7344 259.3438 L73.1094 259.3438 L73.0938 258.5312 C73.0938 258.0938 73.2031 257.9688 73.7812 257.7344 L74.2031 257.5625 C75.0312 257.2188 75.4531 256.6875 75.4531 255.8438 C75.4531 254.1562 73.6562 253.1875 72.5 253.0312 C72.1094 253.125 71.9062 253.2969 71.9062 253.6406 C71.9062 253.9375 72.0625 254.1562 72.7188 254.2656 L74.4688 254.5781 Z"
      /><rect x="57" y="252" width="5" style="fill:white; stroke:none;" height="10"
      /><path style="stroke:none;" d="M58.8906 260.6875 C58.4844 260.6875 58.1562 261.0469 58.1562 261.4219 C58.1562 261.8125 58.4844 262.1562 58.8906 262.1562 C59.2969 262.1562 59.6406 261.8125 59.6406 261.4219 C59.6406 261.0469 59.2969 260.6875 58.8906 260.6875 ZM60.4688 254.5781 C60.7188 254.8906 60.875 255.2656 60.8906 255.6562 C60.8906 256.1875 60.625 256.5 60.0312 256.7656 L59.4062 257.0156 C58.6406 257.3125 58.3906 257.5469 58.3906 257.9375 C58.3906 258.1094 58.4531 258.3438 58.5781 258.8125 L58.7344 259.3438 L59.1094 259.3438 L59.0938 258.5312 C59.0938 258.0938 59.2031 257.9688 59.7812 257.7344 L60.2031 257.5625 C61.0312 257.2188 61.4531 256.6875 61.4531 255.8438 C61.4531 254.1562 59.6562 253.1875 58.5 253.0312 C58.1094 253.125 57.9062 253.2969 57.9062 253.6406 C57.9062 253.9375 58.0625 254.1562 58.7188 254.2656 L60.4688 254.5781 Z"
      /><rect x="123" y="252" width="5" style="fill:white; stroke:none;" height="10"
      /><path style="stroke:none;" d="M124.8906 260.6875 C124.4844 260.6875 124.1562 261.0469 124.1562 261.4219 C124.1562 261.8125 124.4844 262.1562 124.8906 262.1562 C125.2969 262.1562 125.6406 261.8125 125.6406 261.4219 C125.6406 261.0469 125.2969 260.6875 124.8906 260.6875 ZM126.4688 254.5781 C126.7188 254.8906 126.875 255.2656 126.8906 255.6562 C126.8906 256.1875 126.625 256.5 126.0312 256.7656 L125.4062 257.0156 C124.6406 257.3125 124.3906 257.5469 124.3906 257.9375 C124.3906 258.1094 124.4531 258.3438 124.5781 258.8125 L124.7344 259.3438 L125.1094 259.3438 L125.0938 258.5312 C125.0938 258.0938 125.2031 257.9688 125.7812 257.7344 L126.2031 257.5625 C127.0312 257.2188 127.4531 256.6875 127.4531 255.8438 C127.4531 254.1562 125.6562 253.1875 124.5 253.0312 C124.1094 253.125 123.9062 253.2969 123.9062 253.6406 C123.9062 253.9375 124.0625 254.1562 124.7188 254.2656 L126.4688 254.5781 Z"
      /><rect x="109" y="252" width="5" style="fill:white; stroke:none;" height="10"
      /><path style="stroke:none;" d="M110.8906 260.6875 C110.4844 260.6875 110.1562 261.0469 110.1562 261.4219 C110.1562 261.8125 110.4844 262.1562 110.8906 262.1562 C111.2969 262.1562 111.6406 261.8125 111.6406 261.4219 C111.6406 261.0469 111.2969 260.6875 110.8906 260.6875 ZM112.4688 254.5781 C112.7188 254.8906 112.875 255.2656 112.8906 255.6562 C112.8906 256.1875 112.625 256.5 112.0312 256.7656 L111.4062 257.0156 C110.6406 257.3125 110.3906 257.5469 110.3906 257.9375 C110.3906 258.1094 110.4531 258.3438 110.5781 258.8125 L110.7344 259.3438 L111.1094 259.3438 L111.0938 258.5312 C111.0938 258.0938 111.2031 257.9688 111.7812 257.7344 L112.2031 257.5625 C113.0312 257.2188 113.4531 256.6875 113.4531 255.8438 C113.4531 254.1562 111.6562 253.1875 110.5 253.0312 C110.1094 253.125 109.9062 253.2969 109.9062 253.6406 C109.9062 253.9375 110.0625 254.1562 110.7188 254.2656 L112.4688 254.5781 Z"
      /><rect x="175" y="252" width="5" style="fill:white; stroke:none;" height="10"
      /><path style="stroke:none;" d="M176.8906 260.6875 C176.4844 260.6875 176.1562 261.0469 176.1562 261.4219 C176.1562 261.8125 176.4844 262.1562 176.8906 262.1562 C177.2969 262.1562 177.6406 261.8125 177.6406 261.4219 C177.6406 261.0469 177.2969 260.6875 176.8906 260.6875 ZM178.4688 254.5781 C178.7188 254.8906 178.875 255.2656 178.8906 255.6562 C178.8906 256.1875 178.625 256.5 178.0312 256.7656 L177.4062 257.0156 C176.6406 257.3125 176.3906 257.5469 176.3906 257.9375 C176.3906 258.1094 176.4531 258.3438 176.5781 258.8125 L176.7344 259.3438 L177.1094 259.3438 L177.0938 258.5312 C177.0938 258.0938 177.2031 257.9688 177.7812 257.7344 L178.2031 257.5625 C179.0312 257.2188 179.4531 256.6875 179.4531 255.8438 C179.4531 254.1562 177.6562 253.1875 176.5 253.0312 C176.1094 253.125 175.9062 253.2969 175.9062 253.6406 C175.9062 253.9375 176.0625 254.1562 176.7188 254.2656 L178.4688 254.5781 Z"
      /><rect x="161" y="252" width="5" style="fill:white; stroke:none;" height="10"
      /><path style="stroke:none;" d="M162.8906 260.6875 C162.4844 260.6875 162.1562 261.0469 162.1562 261.4219 C162.1562 261.8125 162.4844 262.1562 162.8906 262.1562 C163.2969 262.1562 163.6406 261.8125 163.6406 261.4219 C163.6406 261.0469 163.2969 260.6875 162.8906 260.6875 ZM164.4688 254.5781 C164.7188 254.8906 164.875 255.2656 164.8906 255.6562 C164.8906 256.1875 164.625 256.5 164.0312 256.7656 L163.4062 257.0156 C162.6406 257.3125 162.3906 257.5469 162.3906 257.9375 C162.3906 258.1094 162.4531 258.3438 162.5781 258.8125 L162.7344 259.3438 L163.1094 259.3438 L163.0938 258.5312 C163.0938 258.0938 163.2031 257.9688 163.7812 257.7344 L164.2031 257.5625 C165.0312 257.2188 165.4531 256.6875 165.4531 255.8438 C165.4531 254.1562 163.6562 253.1875 162.5 253.0312 C162.1094 253.125 161.9062 253.2969 161.9062 253.6406 C161.9062 253.9375 162.0625 254.1562 162.7188 254.2656 L164.4688 254.5781 Z"
      /><polygon style="fill:none;" points=" 197 197 145 197"
      /><rect x="186" y="186" width="22" style="clip-path:url(#clipPath9); fill:white; stroke:none;" height="22"
      /><rect x="186" y="186" width="22" style="clip-path:url(#clipPath9); fill:rgb(0,144,188); stroke:none;" height="22"
      /><rect x="186" y="186" width="22" style="fill:none; clip-path:url(#clipPath9);" height="22"
      /><rect x="186" width="22" height="22" y="186" style="fill:none;"
      /><circle style="fill:white; clip-path:url(#clipPath10); stroke:none;" r="11" cx="145" cy="197"
      /><rect x="134" y="186" width="22" style="clip-path:url(#clipPath10); fill:rgb(255,212,0); stroke:none;" height="22"
      /><rect x="134" y="186" width="22" style="fill:none; clip-path:url(#clipPath10);" height="22"
      /><circle r="11" style="fill:none;" cx="145" cy="197"
      /><rect x="175" y="200" width="5" style="fill:white; stroke:none;" height="10"
      /><path style="stroke:none;" d="M176.8906 208.6875 C176.4844 208.6875 176.1562 209.0469 176.1562 209.4219 C176.1562 209.8125 176.4844 210.1562 176.8906 210.1562 C177.2969 210.1562 177.6406 209.8125 177.6406 209.4219 C177.6406 209.0469 177.2969 208.6875 176.8906 208.6875 ZM178.4688 202.5781 C178.7188 202.8906 178.875 203.2656 178.8906 203.6562 C178.8906 204.1875 178.625 204.5 178.0312 204.7656 L177.4062 205.0156 C176.6406 205.3125 176.3906 205.5469 176.3906 205.9375 C176.3906 206.1094 176.4531 206.3438 176.5781 206.8125 L176.7344 207.3438 L177.1094 207.3438 L177.0938 206.5312 C177.0938 206.0938 177.2031 205.9688 177.7812 205.7344 L178.2031 205.5625 C179.0312 205.2188 179.4531 204.6875 179.4531 203.8438 C179.4531 202.1562 177.6562 201.1875 176.5 201.0312 C176.1094 201.125 175.9062 201.2969 175.9062 201.6406 C175.9062 201.9375 176.0625 202.1562 176.7188 202.2656 L178.4688 202.5781 Z"
      /><rect x="161" y="200" width="5" style="fill:white; stroke:none;" height="10"
      /><path style="stroke:none;" d="M162.8906 208.6875 C162.4844 208.6875 162.1562 209.0469 162.1562 209.4219 C162.1562 209.8125 162.4844 210.1562 162.8906 210.1562 C163.2969 210.1562 163.6406 209.8125 163.6406 209.4219 C163.6406 209.0469 163.2969 208.6875 162.8906 208.6875 ZM164.4688 202.5781 C164.7188 202.8906 164.875 203.2656 164.8906 203.6562 C164.8906 204.1875 164.625 204.5 164.0312 204.7656 L163.4062 205.0156 C162.6406 205.3125 162.3906 205.5469 162.3906 205.9375 C162.3906 206.1094 162.4531 206.3438 162.5781 206.8125 L162.7344 207.3438 L163.1094 207.3438 L163.0938 206.5312 C163.0938 206.0938 163.2031 205.9688 163.7812 205.7344 L164.2031 205.5625 C165.0312 205.2188 165.4531 204.6875 165.4531 203.8438 C165.4531 202.1562 163.6562 201.1875 162.5 201.0312 C162.1094 201.125 161.9062 201.2969 161.9062 201.6406 C161.9062 201.9375 162.0625 202.1562 162.7188 202.2656 L164.4688 202.5781 Z"
      /><rect x="231" y="234" width="5" style="fill:white; stroke:none;" height="10"
      /><path style="stroke:none;" d="M232.8906 242.6875 C232.4844 242.6875 232.1562 243.0469 232.1562 243.4219 C232.1562 243.8125 232.4844 244.1562 232.8906 244.1562 C233.2969 244.1562 233.6406 243.8125 233.6406 243.4219 C233.6406 243.0469 233.2969 242.6875 232.8906 242.6875 ZM234.4688 236.5781 C234.7188 236.8906 234.875 237.2656 234.8906 237.6562 C234.8906 238.1875 234.625 238.5 234.0312 238.7656 L233.4062 239.0156 C232.6406 239.3125 232.3906 239.5469 232.3906 239.9375 C232.3906 240.1094 232.4531 240.3438 232.5781 240.8125 L232.7344 241.3438 L233.1094 241.3438 L233.0938 240.5312 C233.0938 240.0938 233.2031 239.9688 233.7812 239.7344 L234.2031 239.5625 C235.0312 239.2188 235.4531 238.6875 235.4531 237.8438 C235.4531 236.1562 233.6562 235.1875 232.5 235.0312 C232.1094 235.125 231.9062 235.2969 231.9062 235.6406 C231.9062 235.9375 232.0625 236.1562 232.7188 236.2656 L234.4688 236.5781 Z"
      /><rect x="216" y="242" width="5" style="fill:white; stroke:none;" height="10"
      /><path style="stroke:none;" d="M217.8906 250.6875 C217.4844 250.6875 217.1562 251.0469 217.1562 251.4219 C217.1562 251.8125 217.4844 252.1562 217.8906 252.1562 C218.2969 252.1562 218.6406 251.8125 218.6406 251.4219 C218.6406 251.0469 218.2969 250.6875 217.8906 250.6875 ZM219.4688 244.5781 C219.7188 244.8906 219.875 245.2656 219.8906 245.6562 C219.8906 246.1875 219.625 246.5 219.0312 246.7656 L218.4062 247.0156 C217.6406 247.3125 217.3906 247.5469 217.3906 247.9375 C217.3906 248.1094 217.4531 248.3438 217.5781 248.8125 L217.7344 249.3438 L218.1094 249.3438 L218.0938 248.5312 C218.0938 248.0938 218.2031 247.9688 218.7812 247.7344 L219.2031 247.5625 C220.0312 247.2188 220.4531 246.6875 220.4531 245.8438 C220.4531 244.1562 218.6562 243.1875 217.5 243.0312 C217.1094 243.125 216.9062 243.2969 216.9062 243.6406 C216.9062 243.9375 217.0625 244.1562 217.7188 244.2656 L219.4688 244.5781 Z"
      /><rect x="224" y="216" width="5" style="fill:white; stroke:none;" height="10"
      /><path style="stroke:none;" d="M225.8906 224.6875 C225.4844 224.6875 225.1562 225.0469 225.1562 225.4219 C225.1562 225.8125 225.4844 226.1562 225.8906 226.1562 C226.2969 226.1562 226.6406 225.8125 226.6406 225.4219 C226.6406 225.0469 226.2969 224.6875 225.8906 224.6875 ZM227.4688 218.5781 C227.7188 218.8906 227.875 219.2656 227.8906 219.6562 C227.8906 220.1875 227.625 220.5 227.0312 220.7656 L226.4062 221.0156 C225.6406 221.3125 225.3906 221.5469 225.3906 221.9375 C225.3906 222.1094 225.4531 222.3438 225.5781 222.8125 L225.7344 223.3438 L226.1094 223.3438 L226.0938 222.5312 C226.0938 222.0938 226.2031 221.9688 226.7812 221.7344 L227.2031 221.5625 C228.0312 221.2188 228.4531 220.6875 228.4531 219.8438 C228.4531 218.1562 226.6562 217.1875 225.5 217.0312 C225.1094 217.125 224.9062 217.2969 224.9062 217.6406 C224.9062 217.9375 225.0625 218.1562 225.7188 218.2656 L227.4688 218.5781 Z"
      /><rect x="209" y="208" width="5" style="fill:white; stroke:none;" height="10"
      /><path style="stroke:none;" d="M210.8906 216.6875 C210.4844 216.6875 210.1562 217.0469 210.1562 217.4219 C210.1562 217.8125 210.4844 218.1562 210.8906 218.1562 C211.2969 218.1562 211.6406 217.8125 211.6406 217.4219 C211.6406 217.0469 211.2969 216.6875 210.8906 216.6875 ZM212.4688 210.5781 C212.7188 210.8906 212.875 211.2656 212.8906 211.6562 C212.8906 212.1875 212.625 212.5 212.0312 212.7656 L211.4062 213.0156 C210.6406 213.3125 210.3906 213.5469 210.3906 213.9375 C210.3906 214.1094 210.4531 214.3438 210.5781 214.8125 L210.7344 215.3438 L211.1094 215.3438 L211.0938 214.5312 C211.0938 214.0938 211.2031 213.9688 211.7812 213.7344 L212.2031 213.5625 C213.0312 213.2188 213.4531 212.6875 213.4531 211.8438 C213.4531 210.1562 211.6562 209.1875 210.5 209.0312 C210.1094 209.125 209.9062 209.2969 209.9062 209.6406 C209.9062 209.9375 210.0625 210.1562 210.7188 210.2656 L212.4688 210.5781 Z"
      /><polygon style="fill:none;" points=" 249 93 197 145"
      /><polygon style="fill:none;" points=" 249 93 197 41"
      /><circle style="fill:white; clip-path:url(#clipPath11); stroke:none;" r="11" cx="249" cy="93"
      /><rect x="238" y="82" width="22" style="clip-path:url(#clipPath11); fill:rgb(0,166,81); stroke:none;" height="22"
      /><rect x="238" y="82" width="22" style="fill:none; clip-path:url(#clipPath11);" height="22"
      /><circle r="11" style="fill:none;" cx="249" cy="93"
      /><polygon style="fill:none;" points=" 197 145 145 145"
      /><polygon style="fill:none;" points=" 197 145 197 93"
      /><rect x="186" y="134" width="22" style="clip-path:url(#clipPath12); fill:white; stroke:none;" height="22"
      /><rect x="186" y="134" width="22" style="clip-path:url(#clipPath12); fill:rgb(0,144,188); stroke:none;" height="22"
      /><rect x="186" y="134" width="22" style="fill:none; clip-path:url(#clipPath12);" height="22"
      /><rect x="186" width="22" height="22" y="134" style="fill:none;"
      /><polygon style="fill:none;" points=" 145 145 93 145"
      /><circle style="fill:white; clip-path:url(#clipPath13); stroke:none;" r="11" cx="145" cy="145"
      /><rect x="134" y="134" width="22" style="clip-path:url(#clipPath13); fill:rgb(255,212,0); stroke:none;" height="22"
      /><rect x="134" y="134" width="22" style="fill:none; clip-path:url(#clipPath13);" height="22"
      /><circle r="11" style="fill:none;" cx="145" cy="145"
      /><polygon style="fill:white; clip-path:url(#clipPath14); stroke:none;" points=" 93 134 104 145 93 156 82 145"
      /><rect x="82" y="134" width="22" style="clip-path:url(#clipPath14); fill:rgb(165,67,153); stroke:none;" height="22"
      /><rect x="82" y="134" width="22" style="fill:none; clip-path:url(#clipPath14);" height="22"
      /><polygon style="fill:none;" points=" 93 134 104 145 93 156 82 145"
      /><rect x="123" y="148" width="5" style="fill:white; stroke:none;" height="10"
      /><path style="stroke:none;" d="M124.8906 156.6875 C124.4844 156.6875 124.1562 157.0469 124.1562 157.4219 C124.1562 157.8125 124.4844 158.1562 124.8906 158.1562 C125.2969 158.1562 125.6406 157.8125 125.6406 157.4219 C125.6406 157.0469 125.2969 156.6875 124.8906 156.6875 ZM126.4688 150.5781 C126.7188 150.8906 126.875 151.2656 126.8906 151.6562 C126.8906 152.1875 126.625 152.5 126.0312 152.7656 L125.4062 153.0156 C124.6406 153.3125 124.3906 153.5469 124.3906 153.9375 C124.3906 154.1094 124.4531 154.3438 124.5781 154.8125 L124.7344 155.3438 L125.1094 155.3438 L125.0938 154.5312 C125.0938 154.0938 125.2031 153.9688 125.7812 153.7344 L126.2031 153.5625 C127.0312 153.2188 127.4531 152.6875 127.4531 151.8438 C127.4531 150.1562 125.6562 149.1875 124.5 149.0312 C124.1094 149.125 123.9062 149.2969 123.9062 149.6406 C123.9062 149.9375 124.0625 150.1562 124.7188 150.2656 L126.4688 150.5781 Z"
      /><rect x="109" y="148" width="5" style="fill:white; stroke:none;" height="10"
      /><path style="stroke:none;" d="M110.8906 156.6875 C110.4844 156.6875 110.1562 157.0469 110.1562 157.4219 C110.1562 157.8125 110.4844 158.1562 110.8906 158.1562 C111.2969 158.1562 111.6406 157.8125 111.6406 157.4219 C111.6406 157.0469 111.2969 156.6875 110.8906 156.6875 ZM112.4688 150.5781 C112.7188 150.8906 112.875 151.2656 112.8906 151.6562 C112.8906 152.1875 112.625 152.5 112.0312 152.7656 L111.4062 153.0156 C110.6406 153.3125 110.3906 153.5469 110.3906 153.9375 C110.3906 154.1094 110.4531 154.3438 110.5781 154.8125 L110.7344 155.3438 L111.1094 155.3438 L111.0938 154.5312 C111.0938 154.0938 111.2031 153.9688 111.7812 153.7344 L112.2031 153.5625 C113.0312 153.2188 113.4531 152.6875 113.4531 151.8438 C113.4531 150.1562 111.6562 149.1875 110.5 149.0312 C110.1094 149.125 109.9062 149.2969 109.9062 149.6406 C109.9062 149.9375 110.0625 150.1562 110.7188 150.2656 L112.4688 150.5781 Z"
      /><polygon style="fill:white; clip-path:url(#clipPath15); stroke:none;" points=" 197 104 186 82 208 82"
      /><rect x="186" y="82" width="22" style="clip-path:url(#clipPath15); fill:rgb(237,28,36); stroke:none;" height="22"
      /><rect x="186" y="82" width="22" style="fill:none; clip-path:url(#clipPath15);" height="22"
      /><polygon style="fill:none;" points=" 197 104 186 82 208 82"
      /><rect x="175" y="148" width="5" style="fill:white; stroke:none;" height="10"
      /><path style="stroke:none;" d="M176.8906 156.6875 C176.4844 156.6875 176.1562 157.0469 176.1562 157.4219 C176.1562 157.8125 176.4844 158.1562 176.8906 158.1562 C177.2969 158.1562 177.6406 157.8125 177.6406 157.4219 C177.6406 157.0469 177.2969 156.6875 176.8906 156.6875 ZM178.4688 150.5781 C178.7188 150.8906 178.875 151.2656 178.8906 151.6562 C178.8906 152.1875 178.625 152.5 178.0312 152.7656 L177.4062 153.0156 C176.6406 153.3125 176.3906 153.5469 176.3906 153.9375 C176.3906 154.1094 176.4531 154.3438 176.5781 154.8125 L176.7344 155.3438 L177.1094 155.3438 L177.0938 154.5312 C177.0938 154.0938 177.2031 153.9688 177.7812 153.7344 L178.2031 153.5625 C179.0312 153.2188 179.4531 152.6875 179.4531 151.8438 C179.4531 150.1562 177.6562 149.1875 176.5 149.0312 C176.1094 149.125 175.9062 149.2969 175.9062 149.6406 C175.9062 149.9375 176.0625 150.1562 176.7188 150.2656 L178.4688 150.5781 Z"
      /><rect x="161" y="148" width="5" style="fill:white; stroke:none;" height="10"
      /><path style="stroke:none;" d="M162.8906 156.6875 C162.4844 156.6875 162.1562 157.0469 162.1562 157.4219 C162.1562 157.8125 162.4844 158.1562 162.8906 158.1562 C163.2969 158.1562 163.6406 157.8125 163.6406 157.4219 C163.6406 157.0469 163.2969 156.6875 162.8906 156.6875 ZM164.4688 150.5781 C164.7188 150.8906 164.875 151.2656 164.8906 151.6562 C164.8906 152.1875 164.625 152.5 164.0312 152.7656 L163.4062 153.0156 C162.6406 153.3125 162.3906 153.5469 162.3906 153.9375 C162.3906 154.1094 162.4531 154.3438 162.5781 154.8125 L162.7344 155.3438 L163.1094 155.3438 L163.0938 154.5312 C163.0938 154.0938 163.2031 153.9688 163.7812 153.7344 L164.2031 153.5625 C165.0312 153.2188 165.4531 152.6875 165.4531 151.8438 C165.4531 150.1562 163.6562 149.1875 162.5 149.0312 C162.1094 149.125 161.9062 149.2969 161.9062 149.6406 C161.9062 149.9375 162.0625 150.1562 162.7188 150.2656 L164.4688 150.5781 Z"
      /><rect x="186" y="121" width="5" style="fill:white; stroke:none;" height="10"
      /><path style="stroke:none;" d="M187.8906 129.6875 C187.4844 129.6875 187.1562 130.0469 187.1562 130.4219 C187.1562 130.8125 187.4844 131.1562 187.8906 131.1562 C188.2969 131.1562 188.6406 130.8125 188.6406 130.4219 C188.6406 130.0469 188.2969 129.6875 187.8906 129.6875 ZM189.4688 123.5781 C189.7188 123.8906 189.875 124.2656 189.8906 124.6562 C189.8906 125.1875 189.625 125.5 189.0312 125.7656 L188.4062 126.0156 C187.6406 126.3125 187.3906 126.5469 187.3906 126.9375 C187.3906 127.1094 187.4531 127.3438 187.5781 127.8125 L187.7344 128.3438 L188.1094 128.3438 L188.0938 127.5312 C188.0938 127.0938 188.2031 126.9688 188.7812 126.7344 L189.2031 126.5625 C190.0312 126.2188 190.4531 125.6875 190.4531 124.8438 C190.4531 123.1562 188.6562 122.1875 187.5 122.0312 C187.1094 122.125 186.9062 122.2969 186.9062 122.6406 C186.9062 122.9375 187.0625 123.1562 187.7188 123.2656 L189.4688 123.5781 Z"
      /><rect x="186" y="107" width="5" style="fill:white; stroke:none;" height="10"
      /><path style="stroke:none;" d="M187.8906 115.6875 C187.4844 115.6875 187.1562 116.0469 187.1562 116.4219 C187.1562 116.8125 187.4844 117.1562 187.8906 117.1562 C188.2969 117.1562 188.6406 116.8125 188.6406 116.4219 C188.6406 116.0469 188.2969 115.6875 187.8906 115.6875 ZM189.4688 109.5781 C189.7188 109.8906 189.875 110.2656 189.8906 110.6562 C189.8906 111.1875 189.625 111.5 189.0312 111.7656 L188.4062 112.0156 C187.6406 112.3125 187.3906 112.5469 187.3906 112.9375 C187.3906 113.1094 187.4531 113.3438 187.5781 113.8125 L187.7344 114.3438 L188.1094 114.3438 L188.0938 113.5312 C188.0938 113.0938 188.2031 112.9688 188.7812 112.7344 L189.2031 112.5625 C190.0312 112.2188 190.4531 111.6875 190.4531 110.8438 C190.4531 109.1562 188.6562 108.1875 187.5 108.0312 C187.1094 108.125 186.9062 108.2969 186.9062 108.6406 C186.9062 108.9375 187.0625 109.1562 187.7188 109.2656 L189.4688 109.5781 Z"
      /><polygon style="fill:none;" points=" 197 41 145 41"
      /><rect x="186" y="30" width="22" style="clip-path:url(#clipPath16); fill:white; stroke:none;" height="22"
      /><rect x="186" y="30" width="22" style="clip-path:url(#clipPath16); fill:rgb(0,144,188); stroke:none;" height="22"
      /><rect x="186" y="30" width="22" style="fill:none; clip-path:url(#clipPath16);" height="22"
      /><rect x="186" width="22" height="22" y="30" style="fill:none;"
      /><circle style="fill:white; clip-path:url(#clipPath17); stroke:none;" r="11" cx="145" cy="41"
      /><rect x="134" y="30" width="22" style="clip-path:url(#clipPath17); fill:rgb(255,212,0); stroke:none;" height="22"
      /><rect x="134" y="30" width="22" style="fill:none; clip-path:url(#clipPath17);" height="22"
      /><circle r="11" style="fill:none;" cx="145" cy="41"
      /><rect x="175" y="44" width="5" style="fill:white; stroke:none;" height="10"
      /><path style="stroke:none;" d="M176.8906 52.6875 C176.4844 52.6875 176.1562 53.0469 176.1562 53.4219 C176.1562 53.8125 176.4844 54.1562 176.8906 54.1562 C177.2969 54.1562 177.6406 53.8125 177.6406 53.4219 C177.6406 53.0469 177.2969 52.6875 176.8906 52.6875 ZM178.4688 46.5781 C178.7188 46.8906 178.875 47.2656 178.8906 47.6562 C178.8906 48.1875 178.625 48.5 178.0312 48.7656 L177.4062 49.0156 C176.6406 49.3125 176.3906 49.5469 176.3906 49.9375 C176.3906 50.1094 176.4531 50.3438 176.5781 50.8125 L176.7344 51.3438 L177.1094 51.3438 L177.0938 50.5312 C177.0938 50.0938 177.2031 49.9688 177.7812 49.7344 L178.2031 49.5625 C179.0312 49.2188 179.4531 48.6875 179.4531 47.8438 C179.4531 46.1562 177.6562 45.1875 176.5 45.0312 C176.1094 45.125 175.9062 45.2969 175.9062 45.6406 C175.9062 45.9375 176.0625 46.1562 176.7188 46.2656 L178.4688 46.5781 Z"
      /><rect x="161" y="44" width="5" style="fill:white; stroke:none;" height="10"
      /><path style="stroke:none;" d="M162.8906 52.6875 C162.4844 52.6875 162.1562 53.0469 162.1562 53.4219 C162.1562 53.8125 162.4844 54.1562 162.8906 54.1562 C163.2969 54.1562 163.6406 53.8125 163.6406 53.4219 C163.6406 53.0469 163.2969 52.6875 162.8906 52.6875 ZM164.4688 46.5781 C164.7188 46.8906 164.875 47.2656 164.8906 47.6562 C164.8906 48.1875 164.625 48.5 164.0312 48.7656 L163.4062 49.0156 C162.6406 49.3125 162.3906 49.5469 162.3906 49.9375 C162.3906 50.1094 162.4531 50.3438 162.5781 50.8125 L162.7344 51.3438 L163.1094 51.3438 L163.0938 50.5312 C163.0938 50.0938 163.2031 49.9688 163.7812 49.7344 L164.2031 49.5625 C165.0312 49.2188 165.4531 48.6875 165.4531 47.8438 C165.4531 46.1562 163.6562 45.1875 162.5 45.0312 C162.1094 45.125 161.9062 45.2969 161.9062 45.6406 C161.9062 45.9375 162.0625 46.1562 162.7188 46.2656 L164.4688 46.5781 Z"
      /><rect x="235" y="110" width="5" style="fill:white; stroke:none;" height="10"
      /><path style="stroke:none;" d="M236.8906 118.6875 C236.4844 118.6875 236.1562 119.0469 236.1562 119.4219 C236.1562 119.8125 236.4844 120.1562 236.8906 120.1562 C237.2969 120.1562 237.6406 119.8125 237.6406 119.4219 C237.6406 119.0469 237.2969 118.6875 236.8906 118.6875 ZM238.4688 112.5781 C238.7188 112.8906 238.875 113.2656 238.8906 113.6562 C238.8906 114.1875 238.625 114.5 238.0312 114.7656 L237.4062 115.0156 C236.6406 115.3125 236.3906 115.5469 236.3906 115.9375 C236.3906 116.1094 236.4531 116.3438 236.5781 116.8125 L236.7344 117.3438 L237.1094 117.3438 L237.0938 116.5312 C237.0938 116.0938 237.2031 115.9688 237.7812 115.7344 L238.2031 115.5625 C239.0312 115.2188 239.4531 114.6875 239.4531 113.8438 C239.4531 112.1562 237.6562 111.1875 236.5 111.0312 C236.1094 111.125 235.9062 111.2969 235.9062 111.6406 C235.9062 111.9375 236.0625 112.1562 236.7188 112.2656 L238.4688 112.5781 Z"
      /><rect x="216" y="129" width="5" style="fill:white; stroke:none;" height="10"
      /><path style="stroke:none;" d="M217.8906 137.6875 C217.4844 137.6875 217.1562 138.0469 217.1562 138.4219 C217.1562 138.8125 217.4844 139.1562 217.8906 139.1562 C218.2969 139.1562 218.6406 138.8125 218.6406 138.4219 C218.6406 138.0469 218.2969 137.6875 217.8906 137.6875 ZM219.4688 131.5781 C219.7188 131.8906 219.875 132.2656 219.8906 132.6562 C219.8906 133.1875 219.625 133.5 219.0312 133.7656 L218.4062 134.0156 C217.6406 134.3125 217.3906 134.5469 217.3906 134.9375 C217.3906 135.1094 217.4531 135.3438 217.5781 135.8125 L217.7344 136.3438 L218.1094 136.3438 L218.0938 135.5312 C218.0938 135.0938 218.2031 134.9688 218.7812 134.7344 L219.2031 134.5625 C220.0312 134.2188 220.4531 133.6875 220.4531 132.8438 C220.4531 131.1562 218.6562 130.1875 217.5 130.0312 C217.1094 130.125 216.9062 130.2969 216.9062 130.6406 C216.9062 130.9375 217.0625 131.1562 217.7188 131.2656 L219.4688 131.5781 Z"
      /><rect x="224" y="77" width="5" style="fill:white; stroke:none;" height="10"
      /><path style="stroke:none;" d="M225.8906 85.6875 C225.4844 85.6875 225.1562 86.0469 225.1562 86.4219 C225.1562 86.8125 225.4844 87.1562 225.8906 87.1562 C226.2969 87.1562 226.6406 86.8125 226.6406 86.4219 C226.6406 86.0469 226.2969 85.6875 225.8906 85.6875 ZM227.4688 79.5781 C227.7188 79.8906 227.875 80.2656 227.8906 80.6562 C227.8906 81.1875 227.625 81.5 227.0312 81.7656 L226.4062 82.0156 C225.6406 82.3125 225.3906 82.5469 225.3906 82.9375 C225.3906 83.1094 225.4531 83.3438 225.5781 83.8125 L225.7344 84.3438 L226.1094 84.3438 L226.0938 83.5312 C226.0938 83.0938 226.2031 82.9688 226.7812 82.7344 L227.2031 82.5625 C228.0312 82.2188 228.4531 81.6875 228.4531 80.8438 C228.4531 79.1562 226.6562 78.1875 225.5 78.0312 C225.1094 78.125 224.9062 78.2969 224.9062 78.6406 C224.9062 78.9375 225.0625 79.1562 225.7188 79.2656 L227.4688 79.5781 Z"
      /><rect x="205" y="58" width="5" style="fill:white; stroke:none;" height="10"
      /><path style="stroke:none;" d="M206.8906 66.6875 C206.4844 66.6875 206.1562 67.0469 206.1562 67.4219 C206.1562 67.8125 206.4844 68.1562 206.8906 68.1562 C207.2969 68.1562 207.6406 67.8125 207.6406 67.4219 C207.6406 67.0469 207.2969 66.6875 206.8906 66.6875 ZM208.4688 60.5781 C208.7188 60.8906 208.875 61.2656 208.8906 61.6562 C208.8906 62.1875 208.625 62.5 208.0312 62.7656 L207.4062 63.0156 C206.6406 63.3125 206.3906 63.5469 206.3906 63.9375 C206.3906 64.1094 206.4531 64.3438 206.5781 64.8125 L206.7344 65.3438 L207.1094 65.3438 L207.0938 64.5312 C207.0938 64.0938 207.2031 63.9688 207.7812 63.7344 L208.2031 63.5625 C209.0312 63.2188 209.4531 62.6875 209.4531 61.8438 C209.4531 60.1562 207.6562 59.1875 206.5 59.0312 C206.1094 59.125 205.9062 59.2969 205.9062 59.6406 C205.9062 59.9375 206.0625 60.1562 206.7188 60.2656 L208.4688 60.5781 Z"
      /><rect x="238" y="30" width="22" style="clip-path:url(#clipPath18); fill:white; stroke:none;" height="22"
      /><rect x="238" y="30" width="22" style="clip-path:url(#clipPath18); fill:rgb(0,144,188); stroke:none;" height="22"
      /><rect x="238" y="30" width="22" style="fill:none; clip-path:url(#clipPath18);" height="22"
      /><rect x="238" width="22" height="22" y="30" style="fill:none;"
      /><rect x="298" y="109" width="5" style="fill:white; stroke:none;" height="10"
      /><path style="stroke:none;" d="M299.8906 117.6875 C299.4844 117.6875 299.1562 118.0469 299.1562 118.4219 C299.1562 118.8125 299.4844 119.1562 299.8906 119.1562 C300.2969 119.1562 300.6406 118.8125 300.6406 118.4219 C300.6406 118.0469 300.2969 117.6875 299.8906 117.6875 ZM301.4688 111.5781 C301.7188 111.8906 301.875 112.2656 301.8906 112.6562 C301.8906 113.1875 301.625 113.5 301.0312 113.7656 L300.4062 114.0156 C299.6406 114.3125 299.3906 114.5469 299.3906 114.9375 C299.3906 115.1094 299.4531 115.3438 299.5781 115.8125 L299.7344 116.3438 L300.1094 116.3438 L300.0938 115.5312 C300.0938 115.0938 300.2031 114.9688 300.7812 114.7344 L301.2031 114.5625 C302.0312 114.2188 302.4531 113.6875 302.4531 112.8438 C302.4531 111.1562 300.6562 110.1875 299.5 110.0312 C299.1094 110.125 298.9062 110.2969 298.9062 110.6406 C298.9062 110.9375 299.0625 111.1562 299.7188 111.2656 L301.4688 111.5781 Z"
      /><rect x="261" y="202" width="5" style="fill:white; stroke:none;" height="10"
      /><path style="stroke:none;" d="M262.8906 210.6875 C262.4844 210.6875 262.1562 211.0469 262.1562 211.4219 C262.1562 211.8125 262.4844 212.1562 262.8906 212.1562 C263.2969 212.1562 263.6406 211.8125 263.6406 211.4219 C263.6406 211.0469 263.2969 210.6875 262.8906 210.6875 ZM264.4688 204.5781 C264.7188 204.8906 264.875 205.2656 264.8906 205.6562 C264.8906 206.1875 264.625 206.5 264.0312 206.7656 L263.4062 207.0156 C262.6406 207.3125 262.3906 207.5469 262.3906 207.9375 C262.3906 208.1094 262.4531 208.3438 262.5781 208.8125 L262.7344 209.3438 L263.1094 209.3438 L263.0938 208.5312 C263.0938 208.0938 263.2031 207.9688 263.7812 207.7344 L264.2031 207.5625 C265.0312 207.2188 265.4531 206.6875 265.4531 205.8438 C265.4531 204.1562 263.6562 203.1875 262.5 203.0312 C262.1094 203.125 261.9062 203.2969 261.9062 203.6406 C261.9062 203.9375 262.0625 204.1562 262.7188 204.2656 L264.4688 204.5781 Z"
      /><rect x="279" y="96" width="5" style="fill:white; stroke:none;" height="10"
      /><path style="stroke:none;" d="M280.8906 104.6875 C280.4844 104.6875 280.1562 105.0469 280.1562 105.4219 C280.1562 105.8125 280.4844 106.1562 280.8906 106.1562 C281.2969 106.1562 281.6406 105.8125 281.6406 105.4219 C281.6406 105.0469 281.2969 104.6875 280.8906 104.6875 ZM282.4688 98.5781 C282.7188 98.8906 282.875 99.2656 282.8906 99.6562 C282.8906 100.1875 282.625 100.5 282.0312 100.7656 L281.4062 101.0156 C280.6406 101.3125 280.3906 101.5469 280.3906 101.9375 C280.3906 102.1094 280.4531 102.3438 280.5781 102.8125 L280.7344 103.3438 L281.1094 103.3438 L281.0938 102.5312 C281.0938 102.0938 281.2031 101.9688 281.7812 101.7344 L282.2031 101.5625 C283.0312 101.2188 283.4531 100.6875 283.4531 99.8438 C283.4531 98.1562 281.6562 97.1875 280.5 97.0312 C280.1094 97.125 279.9062 97.2969 279.9062 97.6406 C279.9062 97.9375 280.0625 98.1562 280.7188 98.2656 L282.4688 98.5781 Z"
      /><rect x="265" y="96" width="5" style="fill:white; stroke:none;" height="10"
      /><path style="stroke:none;" d="M266.8906 104.6875 C266.4844 104.6875 266.1562 105.0469 266.1562 105.4219 C266.1562 105.8125 266.4844 106.1562 266.8906 106.1562 C267.2969 106.1562 267.6406 105.8125 267.6406 105.4219 C267.6406 105.0469 267.2969 104.6875 266.8906 104.6875 ZM268.4688 98.5781 C268.7188 98.8906 268.875 99.2656 268.8906 99.6562 C268.8906 100.1875 268.625 100.5 268.0312 100.7656 L267.4062 101.0156 C266.6406 101.3125 266.3906 101.5469 266.3906 101.9375 C266.3906 102.1094 266.4531 102.3438 266.5781 102.8125 L266.7344 103.3438 L267.1094 103.3438 L267.0938 102.5312 C267.0938 102.0938 267.2031 101.9688 267.7812 101.7344 L268.2031 101.5625 C269.0312 101.2188 269.4531 100.6875 269.4531 99.8438 C269.4531 98.1562 267.6562 97.1875 266.5 97.0312 C266.1094 97.125 265.9062 97.2969 265.9062 97.6406 C265.9062 97.9375 266.0625 98.1562 266.7188 98.2656 L268.4688 98.5781 Z"
      /><rect x="276" y="77" width="5" style="fill:white; stroke:none;" height="10"
      /><path style="stroke:none;" d="M277.8906 85.6875 C277.4844 85.6875 277.1562 86.0469 277.1562 86.4219 C277.1562 86.8125 277.4844 87.1562 277.8906 87.1562 C278.2969 87.1562 278.6406 86.8125 278.6406 86.4219 C278.6406 86.0469 278.2969 85.6875 277.8906 85.6875 ZM279.4688 79.5781 C279.7188 79.8906 279.875 80.2656 279.8906 80.6562 C279.8906 81.1875 279.625 81.5 279.0312 81.7656 L278.4062 82.0156 C277.6406 82.3125 277.3906 82.5469 277.3906 82.9375 C277.3906 83.1094 277.4531 83.3438 277.5781 83.8125 L277.7344 84.3438 L278.1094 84.3438 L278.0938 83.5312 C278.0938 83.0938 278.2031 82.9688 278.7812 82.7344 L279.2031 82.5625 C280.0312 82.2188 280.4531 81.6875 280.4531 80.8438 C280.4531 79.1562 278.6562 78.1875 277.5 78.0312 C277.1094 78.125 276.9062 78.2969 276.9062 78.6406 C276.9062 78.9375 277.0625 79.1562 277.7188 79.2656 L279.4688 79.5781 Z"
      /><rect x="257" y="58" width="5" style="fill:white; stroke:none;" height="10"
      /><path style="stroke:none;" d="M258.8906 66.6875 C258.4844 66.6875 258.1562 67.0469 258.1562 67.4219 C258.1562 67.8125 258.4844 68.1562 258.8906 68.1562 C259.2969 68.1562 259.6406 67.8125 259.6406 67.4219 C259.6406 67.0469 259.2969 66.6875 258.8906 66.6875 ZM260.4688 60.5781 C260.7188 60.8906 260.875 61.2656 260.8906 61.6562 C260.8906 62.1875 260.625 62.5 260.0312 62.7656 L259.4062 63.0156 C258.6406 63.3125 258.3906 63.5469 258.3906 63.9375 C258.3906 64.1094 258.4531 64.3438 258.5781 64.8125 L258.7344 65.3438 L259.1094 65.3438 L259.0938 64.5312 C259.0938 64.0938 259.2031 63.9688 259.7812 63.7344 L260.2031 63.5625 C261.0312 63.2188 261.4531 62.6875 261.4531 61.8438 C261.4531 60.1562 259.6562 59.1875 258.5 59.0312 C258.1094 59.125 257.9062 59.2969 257.9062 59.6406 C257.9062 59.9375 258.0625 60.1562 258.7188 60.2656 L260.4688 60.5781 Z"
      /><rect x="331" y="96" width="5" style="fill:white; stroke:none;" height="10"
      /><path style="stroke:none;" d="M332.8906 104.6875 C332.4844 104.6875 332.1562 105.0469 332.1562 105.4219 C332.1562 105.8125 332.4844 106.1562 332.8906 106.1562 C333.2969 106.1562 333.6406 105.8125 333.6406 105.4219 C333.6406 105.0469 333.2969 104.6875 332.8906 104.6875 ZM334.4688 98.5781 C334.7188 98.8906 334.875 99.2656 334.8906 99.6562 C334.8906 100.1875 334.625 100.5 334.0312 100.7656 L333.4062 101.0156 C332.6406 101.3125 332.3906 101.5469 332.3906 101.9375 C332.3906 102.1094 332.4531 102.3438 332.5781 102.8125 L332.7344 103.3438 L333.1094 103.3438 L333.0938 102.5312 C333.0938 102.0938 333.2031 101.9688 333.7812 101.7344 L334.2031 101.5625 C335.0312 101.2188 335.4531 100.6875 335.4531 99.8438 C335.4531 98.1562 333.6562 97.1875 332.5 97.0312 C332.1094 97.125 331.9062 97.2969 331.9062 97.6406 C331.9062 97.9375 332.0625 98.1562 332.7188 98.2656 L334.4688 98.5781 Z"
      /><rect x="317" y="96" width="5" style="fill:white; stroke:none;" height="10"
      /><path style="stroke:none;" d="M318.8906 104.6875 C318.4844 104.6875 318.1562 105.0469 318.1562 105.4219 C318.1562 105.8125 318.4844 106.1562 318.8906 106.1562 C319.2969 106.1562 319.6406 105.8125 319.6406 105.4219 C319.6406 105.0469 319.2969 104.6875 318.8906 104.6875 ZM320.4688 98.5781 C320.7188 98.8906 320.875 99.2656 320.8906 99.6562 C320.8906 100.1875 320.625 100.5 320.0312 100.7656 L319.4062 101.0156 C318.6406 101.3125 318.3906 101.5469 318.3906 101.9375 C318.3906 102.1094 318.4531 102.3438 318.5781 102.8125 L318.7344 103.3438 L319.1094 103.3438 L319.0938 102.5312 C319.0938 102.0938 319.2031 101.9688 319.7812 101.7344 L320.2031 101.5625 C321.0312 101.2188 321.4531 100.6875 321.4531 99.8438 C321.4531 98.1562 319.6562 97.1875 318.5 97.0312 C318.1094 97.125 317.9062 97.2969 317.9062 97.6406 C317.9062 97.9375 318.0625 98.1562 318.7188 98.2656 L320.4688 98.5781 Z"
      /><rect x="383" y="96" width="5" style="fill:white; stroke:none;" height="10"
      /><path style="stroke:none;" d="M384.8906 104.6875 C384.4844 104.6875 384.1562 105.0469 384.1562 105.4219 C384.1562 105.8125 384.4844 106.1562 384.8906 106.1562 C385.2969 106.1562 385.6406 105.8125 385.6406 105.4219 C385.6406 105.0469 385.2969 104.6875 384.8906 104.6875 ZM386.4688 98.5781 C386.7188 98.8906 386.875 99.2656 386.8906 99.6562 C386.8906 100.1875 386.625 100.5 386.0312 100.7656 L385.4062 101.0156 C384.6406 101.3125 384.3906 101.5469 384.3906 101.9375 C384.3906 102.1094 384.4531 102.3438 384.5781 102.8125 L384.7344 103.3438 L385.1094 103.3438 L385.0938 102.5312 C385.0938 102.0938 385.2031 101.9688 385.7812 101.7344 L386.2031 101.5625 C387.0312 101.2188 387.4531 100.6875 387.4531 99.8438 C387.4531 98.1562 385.6562 97.1875 384.5 97.0312 C384.1094 97.125 383.9062 97.2969 383.9062 97.6406 C383.9062 97.9375 384.0625 98.1562 384.7188 98.2656 L386.4688 98.5781 Z"
      /><rect x="369" y="96" width="5" style="fill:white; stroke:none;" height="10"
      /><path style="stroke:none;" d="M370.8906 104.6875 C370.4844 104.6875 370.1562 105.0469 370.1562 105.4219 C370.1562 105.8125 370.4844 106.1562 370.8906 106.1562 C371.2969 106.1562 371.6406 105.8125 371.6406 105.4219 C371.6406 105.0469 371.2969 104.6875 370.8906 104.6875 ZM372.4688 98.5781 C372.7188 98.8906 372.875 99.2656 372.8906 99.6562 C372.8906 100.1875 372.625 100.5 372.0312 100.7656 L371.4062 101.0156 C370.6406 101.3125 370.3906 101.5469 370.3906 101.9375 C370.3906 102.1094 370.4531 102.3438 370.5781 102.8125 L370.7344 103.3438 L371.1094 103.3438 L371.0938 102.5312 C371.0938 102.0938 371.2031 101.9688 371.7812 101.7344 L372.2031 101.5625 C373.0312 101.2188 373.4531 100.6875 373.4531 99.8438 C373.4531 98.1562 371.6562 97.1875 370.5 97.0312 C370.1094 97.125 369.9062 97.2969 369.9062 97.6406 C369.9062 97.9375 370.0625 98.1562 370.7188 98.2656 L372.4688 98.5781 Z"
      /><rect x="421" y="96" width="5" style="fill:white; stroke:none;" height="10"
      /><path style="stroke:none;" d="M422.8906 104.6875 C422.4844 104.6875 422.1562 105.0469 422.1562 105.4219 C422.1562 105.8125 422.4844 106.1562 422.8906 106.1562 C423.2969 106.1562 423.6406 105.8125 423.6406 105.4219 C423.6406 105.0469 423.2969 104.6875 422.8906 104.6875 ZM424.4688 98.5781 C424.7188 98.8906 424.875 99.2656 424.8906 99.6562 C424.8906 100.1875 424.625 100.5 424.0312 100.7656 L423.4062 101.0156 C422.6406 101.3125 422.3906 101.5469 422.3906 101.9375 C422.3906 102.1094 422.4531 102.3438 422.5781 102.8125 L422.7344 103.3438 L423.1094 103.3438 L423.0938 102.5312 C423.0938 102.0938 423.2031 101.9688 423.7812 101.7344 L424.2031 101.5625 C425.0312 101.2188 425.4531 100.6875 425.4531 99.8438 C425.4531 98.1562 423.6562 97.1875 422.5 97.0312 C422.1094 97.125 421.9062 97.2969 421.9062 97.6406 C421.9062 97.9375 422.0625 98.1562 422.7188 98.2656 L424.4688 98.5781 Z"
    /></g
  ></g
></svg
>
