<?xml version="1.0"?>
<!DOCTYPE svg PUBLIC '-//W3C//DTD SVG 1.0//EN'
          'http://www.w3.org/TR/2001/REC-SVG-20010904/DTD/svg10.dtd'>
<svg xmlns:xlink="http://www.w3.org/1999/xlink" style="fill-opacity:1; color-rendering:auto; color-interpolation:auto; text-rendering:auto; stroke:black; stroke-linecap:square; stroke-miterlimit:10; shape-rendering:auto; stroke-opacity:1; fill:black; stroke-dasharray:none; font-weight:normal; stroke-width:1; font-family:'Dialog'; font-style:normal; stroke-linejoin:miter; font-size:12px; stroke-dashoffset:0; image-rendering:auto;" viewBox="0 0 369 128" xmlns="http://www.w3.org/2000/svg"
><!--Generated by the Batik Graphics2D SVG Generator--><defs id="genericDefs"
  /><g
  ><defs id="defs1"
    ><clipPath clipPathUnits="userSpaceOnUse" id="clipPath1"
      ><path d="M265 53 L287 53 L287 75 L265 75 L265 53 Z"
      /></clipPath
      ><clipPath clipPathUnits="userSpaceOnUse" id="clipPath2"
      ><path style="fill-rule:evenodd;" d="M222 53 L233 64 L222 75 L211 64 Z"
      /></clipPath
      ><clipPath clipPathUnits="userSpaceOnUse" id="clipPath3"
      ><path d="M167 64 C167 70.0751 162.0751 75 156 75 C149.9249 75 145 70.0751 145 64 C145 57.9249 149.9249 53 156 53 C162.0751 53 167 57.9249 167 64 Z"
      /></clipPath
      ><clipPath clipPathUnits="userSpaceOnUse" id="clipPath4"
      ><path style="fill-rule:evenodd;" d="M93 53 L104 64 L93 75 L82 64 Z"
      /></clipPath
      ><clipPath clipPathUnits="userSpaceOnUse" id="clipPath5"
      ><path d="M30 53 L52 53 L52 75 L30 75 L30 53 Z"
      /></clipPath
    ></defs
    ><g style="fill:white; text-rendering:optimizeSpeed; stroke:white;"
    ><rect x="0" width="369" height="128" y="0" style="stroke:none;"
      /><polygon style="fill:none; stroke:black;" points=" 328 64 276 64"
      /><path d="M328 53 C322.5 58.5 333.5 69.5 328 75" style="fill:none; stroke:black;"
      /><polygon style="fill:none; stroke:black;" points=" 276 64 222 64"
      /><rect x="265" y="53" width="22" style="clip-path:url(#clipPath1); stroke:none;" height="22"
      /><polygon style="clip-path:url(#clipPath1); stroke:none;" points=" 265 53 287 53 287 75"
      /><polygon style="fill:none; clip-path:url(#clipPath1); stroke:black;" points=" 265 53 287 53 287 75"
      /><rect x="265" y="53" width="22" style="fill:none; stroke:black;" height="22"
      /><rect x="268" y="81" width="14" style="stroke:none;" height="10"
    /></g
    ><g style="text-rendering:optimizeSpeed; font-size:14px; font-family:'SansSerif';"
    ><path style="stroke:none;" d="M268.6094 92 L275.0625 92 L275.0625 90.8906 L272.2344 90.8906 C271.7031 90.8906 271.0781 90.9531 270.5469 90.9844 C272.9531 88.7031 274.5625 86.625 274.5625 84.5781 C274.5625 82.75 273.4219 81.5469 271.5781 81.5469 C270.2812 81.5469 269.4062 82.1406 268.5625 83.0469 L269.2969 83.7812 C269.8594 83.1094 270.5938 82.5938 271.4375 82.5938 C272.7031 82.5938 273.3125 83.4531 273.3125 84.625 C273.3125 86.3906 271.8438 88.4375 268.6094 91.25 L268.6094 92 ZM280.02 92.1875 C282.1606 92.1875 283.5043 90.8906 283.5043 89.2656 C283.5043 87.75 282.5825 87.0469 281.395 86.5312 L279.9262 85.8906 C279.1293 85.5625 278.2387 85.1875 278.2387 84.1875 C278.2387 83.2656 278.9887 82.6719 280.145 82.6719 C281.0981 82.6719 281.8637 83.0469 282.4887 83.6406 L283.1762 82.8125 C282.4418 82.0625 281.3637 81.5469 280.145 81.5469 C278.2856 81.5469 276.9106 82.6875 276.9106 84.2656 C276.9106 85.7656 278.0512 86.5 279.0043 86.9062 L280.4887 87.5469 C281.4575 87.9844 282.1918 88.3125 282.1918 89.375 C282.1918 90.375 281.3793 91.0469 280.0356 91.0469 C278.9731 91.0469 277.9418 90.5469 277.2075 89.7812 L276.4262 90.6562 C277.3168 91.5938 278.5668 92.1875 280.02 92.1875 Z"
      /><rect x="268" y="35" width="14" style="fill:white; stroke:none;" height="10"
      /><path style="stroke:none;" d="M272.1094 40.5781 C273.3438 40.5781 273.9688 41.4688 273.9688 42.8438 C273.9688 44.25 273.1875 45.1875 272.2188 45.1875 C270.9219 45.1875 270.1562 44.0312 270 41.8906 C270.625 40.9531 271.4531 40.5781 272.1094 40.5781 ZM272.2188 46.1875 C273.8125 46.1875 275.1562 44.8438 275.1562 42.8438 C275.1562 40.7031 274.0469 39.625 272.3125 39.625 C271.5 39.625 270.6094 40.1094 269.9688 40.875 C270.0312 37.6875 271.2188 36.6094 272.625 36.6094 C273.25 36.6094 273.8594 36.9062 274.2656 37.3906 L274.9688 36.5938 C274.4062 35.9844 273.6406 35.5469 272.5781 35.5469 C270.5938 35.5469 268.7812 37.0781 268.7812 41.0938 C268.7812 44.4844 270.2344 46.1875 272.2188 46.1875 ZM280.02 46.1875 C282.1606 46.1875 283.5043 44.8906 283.5043 43.2656 C283.5043 41.75 282.5825 41.0469 281.395 40.5312 L279.9262 39.8906 C279.1293 39.5625 278.2387 39.1875 278.2387 38.1875 C278.2387 37.2656 278.9887 36.6719 280.145 36.6719 C281.0981 36.6719 281.8637 37.0469 282.4887 37.6406 L283.1762 36.8125 C282.4418 36.0625 281.3637 35.5469 280.145 35.5469 C278.2856 35.5469 276.9106 36.6875 276.9106 38.2656 C276.9106 39.7656 278.0512 40.5 279.0043 40.9062 L280.4887 41.5469 C281.4575 41.9844 282.1918 42.3125 282.1918 43.375 C282.1918 44.375 281.3793 45.0469 280.0356 45.0469 C278.9731 45.0469 277.9418 44.5469 277.2075 43.7812 L276.4262 44.6562 C277.3168 45.5938 278.5668 46.1875 280.02 46.1875 Z"
      /><polygon style="fill:none;" points=" 222 64 156 64"
    /></g
    ><g style="fill:white; text-rendering:optimizeSpeed; stroke:white;"
    ><polygon style="stroke:none; clip-path:url(#clipPath2);" points=" 222 53 233 64 222 75 211 64"
      /><rect x="211" y="53" width="22" style="clip-path:url(#clipPath2); stroke:none;" height="11"
      /><rect x="211" y="53" width="22" style="clip-path:url(#clipPath2); fill:none; stroke:black;" height="11"
      /><polygon style="fill:none; stroke:black;" points=" 222 53 233 64 222 75 211 64"
      /><rect x="209" width="25" height="10" y="81" style="stroke:none;"
    /></g
    ><g style="text-rendering:optimizeSpeed; font-size:14px; font-family:'SansSerif';"
    ><path style="stroke:none;" d="M209.6094 92 L216.0625 92 L216.0625 90.8906 L213.2344 90.8906 C212.7031 90.8906 212.0781 90.9531 211.5469 90.9844 C213.9531 88.7031 215.5625 86.625 215.5625 84.5781 C215.5625 82.75 214.4219 81.5469 212.5781 81.5469 C211.2812 81.5469 210.4062 82.1406 209.5625 83.0469 L210.2969 83.7812 C210.8594 83.1094 211.5938 82.5938 212.4375 82.5938 C213.7031 82.5938 214.3125 83.4531 214.3125 84.625 C214.3125 86.3906 212.8438 88.4375 209.6094 91.25 L209.6094 92 ZM218.1762 92 L219.395 92 L219.395 86.6094 C219.395 85.5312 219.3012 84.4375 219.2543 83.4062 L219.3012 83.4062 L220.4106 85.5156 L224.145 92 L225.4731 92 L225.4731 81.7188 L224.2387 81.7188 L224.2387 87.0781 C224.2387 88.1406 224.3481 89.2812 224.4106 90.3125 L224.3481 90.3125 L223.2543 88.2031 L219.52 81.7188 L218.1762 81.7188 L218.1762 92 ZM231.1279 92.1875 C233.2686 92.1875 234.6123 90.8906 234.6123 89.2656 C234.6123 87.75 233.6904 87.0469 232.5029 86.5312 L231.0342 85.8906 C230.2373 85.5625 229.3467 85.1875 229.3467 84.1875 C229.3467 83.2656 230.0967 82.6719 231.2529 82.6719 C232.2061 82.6719 232.9717 83.0469 233.5967 83.6406 L234.2842 82.8125 C233.5498 82.0625 232.4717 81.5469 231.2529 81.5469 C229.3936 81.5469 228.0186 82.6875 228.0186 84.2656 C228.0186 85.7656 229.1592 86.5 230.1123 86.9062 L231.5967 87.5469 C232.5654 87.9844 233.2998 88.3125 233.2998 89.375 C233.2998 90.375 232.4873 91.0469 231.1436 91.0469 C230.0811 91.0469 229.0498 90.5469 228.3154 89.7812 L227.5342 90.6562 C228.4248 91.5938 229.6748 92.1875 231.1279 92.1875 Z"
      /><polygon style="fill:none;" points=" 156 64 93 64"
    /></g
    ><g style="fill:white; text-rendering:optimizeSpeed; stroke:white;"
    ><circle r="11" style="clip-path:url(#clipPath3); stroke:none;" cx="156" cy="64"
      /><rect x="145" y="53" width="22" style="clip-path:url(#clipPath3); stroke:none;" height="22"
      /><rect x="145" y="53" width="22" style="clip-path:url(#clipPath3); fill:none; stroke:black;" height="22"
      /><circle r="11" style="fill:none; stroke:black;" cx="156" cy="64"
      /><rect x="160" width="14" height="10" y="81" style="stroke:none;"
    /></g
    ><g style="text-rendering:optimizeSpeed; font-size:14px; font-family:'SansSerif';"
    ><path style="stroke:none;" d="M160.6094 92 L167.0625 92 L167.0625 90.8906 L164.2344 90.8906 C163.7031 90.8906 163.0781 90.9531 162.5469 90.9844 C164.9531 88.7031 166.5625 86.625 166.5625 84.5781 C166.5625 82.75 165.4219 81.5469 163.5781 81.5469 C162.2812 81.5469 161.4062 82.1406 160.5625 83.0469 L161.2969 83.7812 C161.8594 83.1094 162.5938 82.5938 163.4375 82.5938 C164.7031 82.5938 165.3125 83.4531 165.3125 84.625 C165.3125 86.3906 163.8438 88.4375 160.6094 91.25 L160.6094 92 ZM172.02 92.1875 C174.1606 92.1875 175.5043 90.8906 175.5043 89.2656 C175.5043 87.75 174.5825 87.0469 173.395 86.5312 L171.9262 85.8906 C171.1293 85.5625 170.2387 85.1875 170.2387 84.1875 C170.2387 83.2656 170.9887 82.6719 172.145 82.6719 C173.0981 82.6719 173.8637 83.0469 174.4887 83.6406 L175.1762 82.8125 C174.4418 82.0625 173.3637 81.5469 172.145 81.5469 C170.2856 81.5469 168.9106 82.6875 168.9106 84.2656 C168.9106 85.7656 170.0512 86.5 171.0043 86.9062 L172.4887 87.5469 C173.4575 87.9844 174.1918 88.3125 174.1918 89.375 C174.1918 90.375 173.3793 91.0469 172.0356 91.0469 C170.9731 91.0469 169.9418 90.5469 169.2075 89.7812 L168.4262 90.6562 C169.3168 91.5938 170.5668 92.1875 172.02 92.1875 Z"
      /><rect x="137" y="81" width="15" style="fill:white; stroke:none;" height="10"
      /><path style="stroke:none;" d="M140.7031 92.1875 C142.5156 92.1875 143.9844 91.0938 143.9844 89.25 C143.9844 87.8594 143.0156 86.9375 141.8125 86.6562 L141.8125 86.5938 C142.8906 86.1875 143.6406 85.3594 143.6406 84.125 C143.6406 82.5 142.375 81.5469 140.6562 81.5469 C139.4688 81.5469 138.5469 82.0625 137.7812 82.7812 L138.4688 83.5938 C139.0469 83 139.7656 82.5938 140.5938 82.5938 C141.6562 82.5938 142.3281 83.2344 142.3281 84.2188 C142.3281 85.3281 141.6094 86.1719 139.4844 86.1719 L139.4844 87.1562 C141.8594 87.1562 142.6875 87.9844 142.6875 89.2031 C142.6875 90.3906 141.8125 91.125 140.5938 91.125 C139.4375 91.125 138.6562 90.5781 138.0469 89.9375 L137.4062 90.7812 C138.0781 91.5156 139.0938 92.1875 140.7031 92.1875 ZM149.02 92.1875 C151.1606 92.1875 152.5043 90.8906 152.5043 89.2656 C152.5043 87.75 151.5825 87.0469 150.395 86.5312 L148.9262 85.8906 C148.1293 85.5625 147.2387 85.1875 147.2387 84.1875 C147.2387 83.2656 147.9887 82.6719 149.145 82.6719 C150.0981 82.6719 150.8637 83.0469 151.4887 83.6406 L152.1762 82.8125 C151.4418 82.0625 150.3637 81.5469 149.145 81.5469 C147.2856 81.5469 145.9106 82.6875 145.9106 84.2656 C145.9106 85.7656 147.0512 86.5 148.0043 86.9062 L149.4887 87.5469 C150.4575 87.9844 151.1918 88.3125 151.1918 89.375 C151.1918 90.375 150.3793 91.0469 149.0356 91.0469 C147.9731 91.0469 146.9418 90.5469 146.2075 89.7812 L145.4262 90.6562 C146.3168 91.5938 147.5668 92.1875 149.02 92.1875 Z"
      /><rect x="148" y="35" width="14" style="fill:white; stroke:none;" height="10"
      /><path style="stroke:none;" d="M152.1094 40.5781 C153.3438 40.5781 153.9688 41.4688 153.9688 42.8438 C153.9688 44.25 153.1875 45.1875 152.2188 45.1875 C150.9219 45.1875 150.1562 44.0312 150 41.8906 C150.625 40.9531 151.4531 40.5781 152.1094 40.5781 ZM152.2188 46.1875 C153.8125 46.1875 155.1562 44.8438 155.1562 42.8438 C155.1562 40.7031 154.0469 39.625 152.3125 39.625 C151.5 39.625 150.6094 40.1094 149.9688 40.875 C150.0312 37.6875 151.2188 36.6094 152.625 36.6094 C153.25 36.6094 153.8594 36.9062 154.2656 37.3906 L154.9688 36.5938 C154.4062 35.9844 153.6406 35.5469 152.5781 35.5469 C150.5938 35.5469 148.7812 37.0781 148.7812 41.0938 C148.7812 44.4844 150.2344 46.1875 152.2188 46.1875 ZM160.02 46.1875 C162.1606 46.1875 163.5043 44.8906 163.5043 43.2656 C163.5043 41.75 162.5825 41.0469 161.395 40.5312 L159.9262 39.8906 C159.1293 39.5625 158.2387 39.1875 158.2387 38.1875 C158.2387 37.2656 158.9887 36.6719 160.145 36.6719 C161.0981 36.6719 161.8637 37.0469 162.4887 37.6406 L163.1762 36.8125 C162.4418 36.0625 161.3637 35.5469 160.145 35.5469 C158.2856 35.5469 156.9106 36.6875 156.9106 38.2656 C156.9106 39.7656 158.0512 40.5 159.0043 40.9062 L160.4887 41.5469 C161.4575 41.9844 162.1918 42.3125 162.1918 43.375 C162.1918 44.375 161.3793 45.0469 160.0356 45.0469 C158.9731 45.0469 157.9418 44.5469 157.2075 43.7812 L156.4262 44.6562 C157.3168 45.5938 158.5668 46.1875 160.02 46.1875 Z"
      /><polygon style="fill:none;" points=" 93 64 41 64"
    /></g
    ><g style="fill:white; text-rendering:optimizeSpeed; stroke:white;"
    ><polygon style="stroke:none; clip-path:url(#clipPath4);" points=" 93 53 104 64 93 75 82 64"
      /><rect x="82" y="53" width="22" style="clip-path:url(#clipPath4); stroke:none;" height="11"
      /><rect x="82" y="53" width="22" style="clip-path:url(#clipPath4); fill:none; stroke:black;" height="11"
      /><polygon style="fill:none; stroke:black;" points=" 93 53 104 64 93 75 82 64"
      /><rect x="30" y="53" width="22" style="clip-path:url(#clipPath5); stroke:none;" height="22"
      /><polygon style="clip-path:url(#clipPath5); stroke:none;" points=" 30 53 52 53 52 75"
      /><polygon style="fill:none; clip-path:url(#clipPath5); stroke:black;" points=" 30 53 52 53 52 75"
      /><rect x="30" y="53" width="22" style="fill:none; stroke:black;" height="22"
      /><rect x="33" width="14" height="10" y="81" style="stroke:none;"
    /></g
    ><g style="text-rendering:optimizeSpeed; font-size:14px; font-family:'SansSerif';"
    ><path style="stroke:none;" d="M33.6094 92 L40.0625 92 L40.0625 90.8906 L37.2344 90.8906 C36.7031 90.8906 36.0781 90.9531 35.5469 90.9844 C37.9531 88.7031 39.5625 86.625 39.5625 84.5781 C39.5625 82.75 38.4219 81.5469 36.5781 81.5469 C35.2812 81.5469 34.4062 82.1406 33.5625 83.0469 L34.2969 83.7812 C34.8594 83.1094 35.5938 82.5938 36.4375 82.5938 C37.7031 82.5938 38.3125 83.4531 38.3125 84.625 C38.3125 86.3906 36.8438 88.4375 33.6094 91.25 L33.6094 92 ZM45.02 92.1875 C47.1606 92.1875 48.5043 90.8906 48.5043 89.2656 C48.5043 87.75 47.5825 87.0469 46.395 86.5312 L44.9262 85.8906 C44.1293 85.5625 43.2387 85.1875 43.2387 84.1875 C43.2387 83.2656 43.9887 82.6719 45.145 82.6719 C46.0981 82.6719 46.8637 83.0469 47.4887 83.6406 L48.1762 82.8125 C47.4418 82.0625 46.3637 81.5469 45.145 81.5469 C43.2856 81.5469 41.9106 82.6875 41.9106 84.2656 C41.9106 85.7656 43.0512 86.5 44.0043 86.9062 L45.4887 87.5469 C46.4575 87.9844 47.1918 88.3125 47.1918 89.375 C47.1918 90.375 46.3793 91.0469 45.0356 91.0469 C43.9731 91.0469 42.9418 90.5469 42.2075 89.7812 L41.4262 90.6562 C42.3168 91.5938 43.5668 92.1875 45.02 92.1875 Z"
      /><rect x="33" y="35" width="14" style="fill:white; stroke:none;" height="10"
      /><path style="stroke:none;" d="M37.1094 40.5781 C38.3438 40.5781 38.9688 41.4688 38.9688 42.8438 C38.9688 44.25 38.1875 45.1875 37.2188 45.1875 C35.9219 45.1875 35.1562 44.0312 35 41.8906 C35.625 40.9531 36.4531 40.5781 37.1094 40.5781 ZM37.2188 46.1875 C38.8125 46.1875 40.1562 44.8438 40.1562 42.8438 C40.1562 40.7031 39.0469 39.625 37.3125 39.625 C36.5 39.625 35.6094 40.1094 34.9688 40.875 C35.0312 37.6875 36.2188 36.6094 37.625 36.6094 C38.25 36.6094 38.8594 36.9062 39.2656 37.3906 L39.9688 36.5938 C39.4062 35.9844 38.6406 35.5469 37.5781 35.5469 C35.5938 35.5469 33.7812 37.0781 33.7812 41.0938 C33.7812 44.4844 35.2344 46.1875 37.2188 46.1875 ZM45.02 46.1875 C47.1606 46.1875 48.5043 44.8906 48.5043 43.2656 C48.5043 41.75 47.5825 41.0469 46.395 40.5312 L44.9262 39.8906 C44.1293 39.5625 43.2387 39.1875 43.2387 38.1875 C43.2387 37.2656 43.9887 36.6719 45.145 36.6719 C46.0981 36.6719 46.8637 37.0469 47.4887 37.6406 L48.1762 36.8125 C47.4418 36.0625 46.3637 35.5469 45.145 35.5469 C43.2856 35.5469 41.9106 36.6875 41.9106 38.2656 C41.9106 39.7656 43.0512 40.5 44.0043 40.9062 L45.4887 41.5469 C46.4575 41.9844 47.1918 42.3125 47.1918 43.375 C47.1918 44.375 46.3793 45.0469 45.0356 45.0469 C43.9731 45.0469 42.9418 44.5469 42.2075 43.7812 L41.4262 44.6562 C42.3168 45.5938 43.5668 46.1875 45.02 46.1875 Z"
    /></g
    ><g style="fill:white; text-rendering:optimizeSpeed; font-family:'Serif'; stroke:white;"
    ><rect x="70" width="7" height="9" y="67" style="stroke:none;"
      /><path d="M71 72.5156 L73.9531 68.2656 L73.9531 72.5156 L71 72.5156 ZM76.2812 72.5156 L74.8594 72.5156 L74.8594 67.125 L74.2344 67.125 L70.3438 72.6406 L70.3438 73.1875 L73.9531 73.1875 L73.9531 76 L74.8594 76 L74.8594 73.1875 L76.2812 73.1875 L76.2812 72.5156 Z" style="fill:black; stroke:none;"
      /><rect x="57" width="5" height="10" y="67" style="stroke:none;"
      /><path d="M58.8906 75.6875 C58.4844 75.6875 58.1562 76.0469 58.1562 76.4219 C58.1562 76.8125 58.4844 77.1562 58.8906 77.1562 C59.2969 77.1562 59.6406 76.8125 59.6406 76.4219 C59.6406 76.0469 59.2969 75.6875 58.8906 75.6875 ZM60.4688 69.5781 C60.7188 69.8906 60.875 70.2656 60.8906 70.6562 C60.8906 71.1875 60.625 71.5 60.0312 71.7656 L59.4062 72.0156 C58.6406 72.3125 58.3906 72.5469 58.3906 72.9375 C58.3906 73.1094 58.4531 73.3438 58.5781 73.8125 L58.7344 74.3438 L59.1094 74.3438 L59.0938 73.5312 C59.0938 73.0938 59.2031 72.9688 59.7812 72.7344 L60.2031 72.5625 C61.0312 72.2188 61.4531 71.6875 61.4531 70.8438 C61.4531 69.1562 59.6562 68.1875 58.5 68.0312 C58.1094 68.125 57.9062 68.2969 57.9062 68.6406 C57.9062 68.9375 58.0625 69.1562 58.7188 69.2656 L60.4688 69.5781 Z" style="fill:black; stroke:none;"
      /><rect x="122" width="7" height="9" y="67" style="stroke:none;"
      /><path d="M123 72.5156 L125.9531 68.2656 L125.9531 72.5156 L123 72.5156 ZM128.2812 72.5156 L126.8594 72.5156 L126.8594 67.125 L126.2344 67.125 L122.3438 72.6406 L122.3438 73.1875 L125.9531 73.1875 L125.9531 76 L126.8594 76 L126.8594 73.1875 L128.2812 73.1875 L128.2812 72.5156 Z" style="fill:black; stroke:none;"
      /><rect x="109" width="5" height="10" y="67" style="stroke:none;"
      /><path d="M110.8906 75.6875 C110.4844 75.6875 110.1562 76.0469 110.1562 76.4219 C110.1562 76.8125 110.4844 77.1562 110.8906 77.1562 C111.2969 77.1562 111.6406 76.8125 111.6406 76.4219 C111.6406 76.0469 111.2969 75.6875 110.8906 75.6875 ZM112.4688 69.5781 C112.7188 69.8906 112.875 70.2656 112.8906 70.6562 C112.8906 71.1875 112.625 71.5 112.0312 71.7656 L111.4062 72.0156 C110.6406 72.3125 110.3906 72.5469 110.3906 72.9375 C110.3906 73.1094 110.4531 73.3438 110.5781 73.8125 L110.7344 74.3438 L111.1094 74.3438 L111.0938 73.5312 C111.0938 73.0938 111.2031 72.9688 111.7812 72.7344 L112.2031 72.5625 C113.0312 72.2188 113.4531 71.6875 113.4531 70.8438 C113.4531 69.1562 111.6562 68.1875 110.5 68.0312 C110.1094 68.125 109.9062 68.2969 109.9062 68.6406 C109.9062 68.9375 110.0625 69.1562 110.7188 69.2656 L112.4688 69.5781 Z" style="fill:black; stroke:none;"
      /><rect x="197" width="7" height="9" y="67" style="stroke:none;"
      /><path d="M198 72.5156 L200.9531 68.2656 L200.9531 72.5156 L198 72.5156 ZM203.2812 72.5156 L201.8594 72.5156 L201.8594 67.125 L201.2344 67.125 L197.3438 72.6406 L197.3438 73.1875 L200.9531 73.1875 L200.9531 76 L201.8594 76 L201.8594 73.1875 L203.2812 73.1875 L203.2812 72.5156 Z" style="fill:black; stroke:none;"
      /><rect x="184" width="5" height="10" y="67" style="stroke:none;"
      /><path d="M185.8906 75.6875 C185.4844 75.6875 185.1562 76.0469 185.1562 76.4219 C185.1562 76.8125 185.4844 77.1562 185.8906 77.1562 C186.2969 77.1562 186.6406 76.8125 186.6406 76.4219 C186.6406 76.0469 186.2969 75.6875 185.8906 75.6875 ZM187.4688 69.5781 C187.7188 69.8906 187.875 70.2656 187.8906 70.6562 C187.8906 71.1875 187.625 71.5 187.0312 71.7656 L186.4062 72.0156 C185.6406 72.3125 185.3906 72.5469 185.3906 72.9375 C185.3906 73.1094 185.4531 73.3438 185.5781 73.8125 L185.7344 74.3438 L186.1094 74.3438 L186.0938 73.5312 C186.0938 73.0938 186.2031 72.9688 186.7812 72.7344 L187.2031 72.5625 C188.0312 72.2188 188.4531 71.6875 188.4531 70.8438 C188.4531 69.1562 186.6562 68.1875 185.5 68.0312 C185.1094 68.125 184.9062 68.2969 184.9062 68.6406 C184.9062 68.9375 185.0625 69.1562 185.7188 69.2656 L187.4688 69.5781 Z" style="fill:black; stroke:none;"
      /><rect x="253" width="7" height="9" y="67" style="stroke:none;"
      /><path d="M254 72.5156 L256.9531 68.2656 L256.9531 72.5156 L254 72.5156 ZM259.2812 72.5156 L257.8594 72.5156 L257.8594 67.125 L257.2344 67.125 L253.3438 72.6406 L253.3438 73.1875 L256.9531 73.1875 L256.9531 76 L257.8594 76 L257.8594 73.1875 L259.2812 73.1875 L259.2812 72.5156 Z" style="fill:black; stroke:none;"
      /><rect x="240" width="5" height="10" y="67" style="stroke:none;"
      /><path d="M241.8906 75.6875 C241.4844 75.6875 241.1562 76.0469 241.1562 76.4219 C241.1562 76.8125 241.4844 77.1562 241.8906 77.1562 C242.2969 77.1562 242.6406 76.8125 242.6406 76.4219 C242.6406 76.0469 242.2969 75.6875 241.8906 75.6875 ZM243.4688 69.5781 C243.7188 69.8906 243.875 70.2656 243.8906 70.6562 C243.8906 71.1875 243.625 71.5 243.0312 71.7656 L242.4062 72.0156 C241.6406 72.3125 241.3906 72.5469 241.3906 72.9375 C241.3906 73.1094 241.4531 73.3438 241.5781 73.8125 L241.7344 74.3438 L242.1094 74.3438 L242.0938 73.5312 C242.0938 73.0938 242.2031 72.9688 242.7812 72.7344 L243.2031 72.5625 C244.0312 72.2188 244.4531 71.6875 244.4531 70.8438 C244.4531 69.1562 242.6562 68.1875 241.5 68.0312 C241.1094 68.125 240.9062 68.2969 240.9062 68.6406 C240.9062 68.9375 241.0625 69.1562 241.7188 69.2656 L243.4688 69.5781 Z" style="fill:black; stroke:none;"
      /><rect x="292" width="5" height="10" y="67" style="stroke:none;"
      /><path d="M293.8906 75.6875 C293.4844 75.6875 293.1562 76.0469 293.1562 76.4219 C293.1562 76.8125 293.4844 77.1562 293.8906 77.1562 C294.2969 77.1562 294.6406 76.8125 294.6406 76.4219 C294.6406 76.0469 294.2969 75.6875 293.8906 75.6875 ZM295.4688 69.5781 C295.7188 69.8906 295.875 70.2656 295.8906 70.6562 C295.8906 71.1875 295.625 71.5 295.0312 71.7656 L294.4062 72.0156 C293.6406 72.3125 293.3906 72.5469 293.3906 72.9375 C293.3906 73.1094 293.4531 73.3438 293.5781 73.8125 L293.7344 74.3438 L294.1094 74.3438 L294.0938 73.5312 C294.0938 73.0938 294.2031 72.9688 294.7812 72.7344 L295.2031 72.5625 C296.0312 72.2188 296.4531 71.6875 296.4531 70.8438 C296.4531 69.1562 294.6562 68.1875 293.5 68.0312 C293.1094 68.125 292.9062 68.2969 292.9062 68.6406 C292.9062 68.9375 293.0625 69.1562 293.7188 69.2656 L295.4688 69.5781 Z" style="fill:black; stroke:none;"
    /></g
  ></g
></svg
>
