<?xml version="1.0"?>
<!DOCTYPE svg PUBLIC '-//W3C//DTD SVG 1.0//EN'
          'http://www.w3.org/TR/2001/REC-SVG-20010904/DTD/svg10.dtd'>
<svg xmlns:xlink="http://www.w3.org/1999/xlink" style="fill-opacity:1; color-rendering:auto; color-interpolation:auto; text-rendering:auto; stroke:black; stroke-linecap:square; stroke-miterlimit:10; shape-rendering:auto; stroke-opacity:1; fill:black; stroke-dasharray:none; font-weight:normal; stroke-width:1; font-family:'Dialog'; font-style:normal; stroke-linejoin:miter; font-size:12px; stroke-dashoffset:0; image-rendering:auto;" viewBox="0 0 646 186" xmlns="http://www.w3.org/2000/svg"
><!--Generated by the Batik Graphics2D SVG Generator--><defs id="genericDefs"
  /><g
  ><defs id="defs1"
    ><clipPath clipPathUnits="userSpaceOnUse" id="clipPath1"
      ><path d="M542 82 L564 82 L564 104 L542 104 L542 82 Z"
      /></clipPath
      ><clipPath clipPathUnits="userSpaceOnUse" id="clipPath2"
      ><path d="M490 82 L512 82 L512 104 L490 104 L490 82 Z"
      /></clipPath
      ><clipPath clipPathUnits="userSpaceOnUse" id="clipPath3"
      ><path d="M460 93 C460 99.0751 455.0751 104 449 104 C442.9249 104 438 99.0751 438 93 C438 86.9249 442.9249 82 449 82 C455.0751 82 460 86.9249 460 93 Z"
      /></clipPath
      ><clipPath clipPathUnits="userSpaceOnUse" id="clipPath4"
      ><path d="M408 145 C408 151.0751 403.0751 156 397 156 C390.9249 156 386 151.0751 386 145 C386 138.9249 390.9249 134 397 134 C403.0751 134 408 138.9249 408 145 Z"
      /></clipPath
      ><clipPath clipPathUnits="userSpaceOnUse" id="clipPath5"
      ><path d="M334 134 L356 134 L356 156 L334 156 L334 134 Z"
      /></clipPath
      ><clipPath clipPathUnits="userSpaceOnUse" id="clipPath6"
      ><path d="M304 145 C304 151.0751 299.0751 156 293 156 C286.9249 156 282 151.0751 282 145 C282 138.9249 286.9249 134 293 134 C299.0751 134 304 138.9249 304 145 Z"
      /></clipPath
      ><clipPath clipPathUnits="userSpaceOnUse" id="clipPath7"
      ><path style="fill-rule:evenodd;" d="M241 134 L252 145 L241 156 L230 145 Z"
      /></clipPath
      ><clipPath clipPathUnits="userSpaceOnUse" id="clipPath8"
      ><path d="M386 82 L408 82 L408 104 L386 104 L386 82 Z"
      /></clipPath
      ><clipPath clipPathUnits="userSpaceOnUse" id="clipPath9"
      ><path d="M408 41 C408 47.0751 403.0751 52 397 52 C390.9249 52 386 47.0751 386 41 C386 34.9249 390.9249 30 397 30 C403.0751 30 408 34.9249 408 41 Z"
      /></clipPath
      ><clipPath clipPathUnits="userSpaceOnUse" id="clipPath10"
      ><path d="M334 30 L356 30 L356 52 L334 52 L334 30 Z"
      /></clipPath
      ><clipPath clipPathUnits="userSpaceOnUse" id="clipPath11"
      ><path d="M304 41 C304 47.0751 299.0751 52 293 52 C286.9249 52 282 47.0751 282 41 C282 34.9249 286.9249 30 293 30 C299.0751 30 304 34.9249 304 41 Z"
      /></clipPath
      ><clipPath clipPathUnits="userSpaceOnUse" id="clipPath12"
      ><path style="fill-rule:evenodd;" d="M241 30 L252 41 L241 52 L230 41 Z"
      /></clipPath
      ><clipPath clipPathUnits="userSpaceOnUse" id="clipPath13"
      ><path style="fill-rule:evenodd;" d="M553 52 L542 30 L564 30 Z"
      /></clipPath
      ><clipPath clipPathUnits="userSpaceOnUse" id="clipPath14"
      ><path d="M134 82 L156 82 L156 104 L134 104 L134 82 Z"
      /></clipPath
      ><clipPath clipPathUnits="userSpaceOnUse" id="clipPath15"
      ><path d="M104 93 C104 99.0751 99.0751 104 93 104 C86.9249 104 82 99.0751 82 93 C82 86.9249 86.9249 82 93 82 C99.0751 82 104 86.9249 104 93 Z"
      /></clipPath
      ><clipPath clipPathUnits="userSpaceOnUse" id="clipPath16"
      ><path d="M52 93 C52 99.0751 47.0751 104 41 104 C34.9249 104 30 99.0751 30 93 C30 86.9249 34.9249 82 41 82 C47.0751 82 52 86.9249 52 93 Z"
      /></clipPath
    ></defs
    ><g style="fill:white; text-rendering:optimizeSpeed; stroke:white;"
    ><rect x="0" width="646" height="186" y="0" style="stroke:none;"
      /><polygon style="fill:none; stroke:black;" points=" 605 93 553 93"
      /><path d="M605 82 C599.5 87.5 610.5 98.5 605 104" style="fill:none; stroke:black;"
      /><polygon style="fill:none; stroke:black;" points=" 553 93 501 93"
      /><polygon style="fill:none; stroke:black;" points=" 553 93 553 41"
      /><rect x="542" y="82" width="22" style="clip-path:url(#clipPath1); stroke:none;" height="22"
      /><rect x="542" y="82" width="22" style="clip-path:url(#clipPath1); fill:rgb(0,144,188); stroke:none;" height="22"
      /><rect x="542" y="82" width="22" style="clip-path:url(#clipPath1); fill:none; stroke:black;" height="22"
      /><rect x="542" y="82" width="22" style="fill:none; stroke:black;" height="22"
      /><polygon style="fill:none; stroke:black;" points=" 501 93 449 93"
      /><rect x="490" y="82" width="22" style="clip-path:url(#clipPath2); stroke:none;" height="22"
      /><rect x="490" y="82" width="22" style="clip-path:url(#clipPath2); fill:rgb(0,144,188); stroke:none;" height="22"
      /><rect x="490" y="82" width="22" style="clip-path:url(#clipPath2); fill:none; stroke:black;" height="22"
      /><rect x="490" y="82" width="22" style="fill:none; stroke:black;" height="22"
      /><polygon style="fill:none; stroke:black;" points=" 449 93 397 145"
      /><polygon style="fill:none; stroke:black;" points=" 449 93 397 93"
      /><polygon style="fill:none; stroke:black;" points=" 449 93 397 41"
      /><circle style="clip-path:url(#clipPath3); stroke:none;" r="11" cx="449" cy="93"
      /><rect x="438" y="82" width="22" style="clip-path:url(#clipPath3); fill:rgb(0,166,81); stroke:none;" height="22"
      /><rect x="438" y="82" width="22" style="clip-path:url(#clipPath3); fill:none; stroke:black;" height="22"
      /><circle style="fill:none; stroke:black;" r="11" cx="449" cy="93"
      /><polygon style="fill:none; stroke:black;" points=" 397 145 345 145"
      /><circle style="clip-path:url(#clipPath4); stroke:none;" r="11" cx="397" cy="145"
      /><rect x="386" y="134" width="22" style="clip-path:url(#clipPath4); fill:rgb(0,166,81); stroke:none;" height="22"
      /><rect x="386" y="134" width="22" style="clip-path:url(#clipPath4); fill:none; stroke:black;" height="22"
      /><circle style="fill:none; stroke:black;" r="11" cx="397" cy="145"
      /><polygon style="fill:none; stroke:black;" points=" 345 145 293 145"
      /><rect x="334" y="134" width="22" style="clip-path:url(#clipPath5); stroke:none;" height="22"
      /><rect x="334" y="134" width="22" style="clip-path:url(#clipPath5); fill:rgb(0,144,188); stroke:none;" height="22"
      /><rect x="334" y="134" width="22" style="clip-path:url(#clipPath5); fill:none; stroke:black;" height="22"
      /><rect x="334" y="134" width="22" style="fill:none; stroke:black;" height="22"
      /><polygon style="fill:none; stroke:black;" points=" 293 145 241 145"
      /><circle style="clip-path:url(#clipPath6); stroke:none;" r="11" cx="293" cy="145"
      /><rect x="282" y="134" width="22" style="clip-path:url(#clipPath6); fill:rgb(255,212,0); stroke:none;" height="22"
      /><rect x="282" y="134" width="22" style="clip-path:url(#clipPath6); fill:none; stroke:black;" height="22"
      /><circle style="fill:none; stroke:black;" r="11" cx="293" cy="145"
      /><polygon style="clip-path:url(#clipPath7); stroke:none;" points=" 241 134 252 145 241 156 230 145"
      /><rect x="230" y="134" width="22" style="clip-path:url(#clipPath7); fill:rgb(143,204,233); stroke:none;" height="22"
      /><rect x="230" y="134" width="22" style="clip-path:url(#clipPath7); fill:none; stroke:black;" height="22"
      /><polygon style="fill:none; stroke:black;" points=" 241 134 252 145 241 156 230 145"
      /><rect x="266" y="146" width="16" style="stroke:none;" height="13"
    /></g
    ><g style="font-family:'Serif'; text-rendering:optimizeSpeed; "
    ><path style="stroke:none;" d="M268.2344 150.6562 C268.5156 150.5938 268.7656 150.5625 269.0156 150.5625 C270.0625 150.5625 270.6719 151.1719 270.6719 152.2656 C270.6719 153.4375 269.9062 154.1094 268.7031 154.1094 L268.1875 154.1094 L268.1875 154.6406 L268.7969 154.6406 C270.2188 154.6406 270.9062 155.4219 270.9062 156.6406 C270.9062 157.8438 270.1719 158.6875 268.875 158.6875 C268.6094 158.6875 268.3125 158.6562 268.0156 158.5625 L267.7812 157.8125 C267.625 157.2812 267.5 157.0469 267.1406 157.0469 C266.8906 157.0469 266.7031 157.1719 266.5781 157.4219 C266.8438 158.6406 267.7812 159.1719 269.0312 159.1719 C270.7188 159.1719 271.875 158.125 271.875 156.7031 C271.875 155.5 271.2031 154.625 269.7969 154.375 C270.9531 154.0156 271.6094 153.2031 271.6094 152.2031 C271.6094 150.9219 270.6719 150.0781 269.1875 150.0781 C268.0469 150.0781 267.0625 150.5938 266.7969 151.6875 C266.9062 152 267.1094 152.1094 267.3594 152.1094 C267.7344 152.1094 267.8906 151.8906 268 151.4062 L268.2344 150.6562 ZM272.4993 161.0938 L273.1087 161.0938 L276.6087 149.7344 L275.9837 149.7344 L272.4993 161.0938 ZM279.9878 158.6875 C278.8472 158.6875 278.1753 157.5 278.1753 155.2969 C278.1753 155.2188 278.1753 155.125 278.1753 155.0469 C278.7378 154.5 279.3628 154.3125 279.9878 154.3125 C280.9566 154.3125 281.5972 154.9844 281.5972 156.4531 C281.5972 157.9375 280.9566 158.6875 279.9878 158.6875 ZM282.1753 150.0781 C278.9878 150.4531 277.2066 152.7656 277.2066 155.4531 C277.2066 157.7812 278.2534 159.1719 279.9566 159.1719 C281.4878 159.1719 282.5659 158.1094 282.5659 156.2812 C282.5659 154.6875 281.6128 153.6562 280.2066 153.6562 C279.4722 153.6562 278.7847 153.9844 278.2222 154.5781 C278.4409 152.4062 279.7222 150.9688 282.2378 150.3906 L282.1753 150.0781 Z"
      /><rect x="256" y="149" width="8" style="fill:white; stroke:none;" height="8"
      /><path style="stroke:none;" d="M260.9844 154.7031 C260.9375 155.8906 260.1562 156.6562 259.3125 156.6562 C258.2656 156.6562 257.5 155.6875 257.5 153.7188 C257.5 152.2812 258.1562 151.1562 259.3438 151.1562 C260.1406 151.1562 260.7812 151.6875 261.0938 152.6406 L260.9844 154.7031 ZM262.9062 156.2812 C262.7344 156.375 262.5469 156.4219 262.3438 156.4219 C261.9531 156.4219 261.75 156.2188 261.75 155.4219 C261.75 154.4844 261.9688 152.5312 262.1875 150.8281 L262.0312 150.7188 L261.2344 150.9219 L261.1406 151.7969 C260.7812 151.0312 260.1562 150.6562 259.3906 150.6562 C258.0469 150.6562 256.5625 151.8438 256.5625 153.9531 C256.5625 156.0938 257.7188 157.1719 259.1406 157.1719 C260.0156 157.1719 260.6875 156.8125 261.0938 155.9844 C261.2031 156.8594 261.5156 157.1719 262.0156 157.1719 C262.4688 157.1719 262.7969 156.9062 263.0156 156.5625 L262.9062 156.2812 Z"
      /><rect x="322" y="148" width="7" style="fill:white; stroke:none;" height="9"
      /><path style="stroke:none;" d="M323 153.5156 L325.9531 149.2656 L325.9531 153.5156 L323 153.5156 ZM328.2812 153.5156 L326.8594 153.5156 L326.8594 148.125 L326.2344 148.125 L322.3438 153.6406 L322.3438 154.1875 L325.9531 154.1875 L325.9531 157 L326.8594 157 L326.8594 154.1875 L328.2812 154.1875 L328.2812 153.5156 Z"
      /><rect x="309" y="146" width="6" style="fill:white; stroke:none;" height="13"
      /><path style="stroke:none;" d="M311.0938 152.2031 C311.0938 150.6562 311.75 149.8125 312.7969 149.8125 C313.7188 149.8125 314.2656 150.4531 314.2656 151.5156 C314.2656 152.7188 313.5 153.4375 312.1875 153.7031 L312.2969 154.3125 C314.2188 154.2344 314.9375 155.2188 314.9375 156.4375 C314.9375 157.625 314.2344 158.4219 312.9531 158.4219 C312.25 158.4219 311.6562 158.1562 311.0938 157.7188 L311.0938 152.2031 ZM310.2031 158.9062 L310.1094 161.375 L310.2656 161.4844 L311.1562 161.2656 L311.0156 158.0938 C311.5469 158.8438 312.3594 159.1719 313.1719 159.1719 C314.5625 159.1719 315.8594 158.2188 315.8594 156.4844 C315.8594 154.9531 314.875 154.1094 313.125 154 C314.5625 153.6094 315.1875 152.4531 315.1875 151.4844 C315.1875 150.0938 314.1562 149.3125 312.9062 149.3125 C311.2969 149.3125 310.2188 150.5469 310.2188 152.5156 L310.2031 158.9062 Z"
      /><rect x="375" y="148" width="6" style="fill:white; stroke:none;" height="9"
      /><path style="stroke:none;" d="M376.4219 156.0938 C377.0781 155.375 377.7031 154.7188 378.0312 154.3438 C379.9219 152.3125 380.5312 151.4688 380.5312 150.3594 C380.5312 149.0156 379.7812 148.0781 378.1562 148.0781 C376.9062 148.0781 375.7969 148.7031 375.5938 149.9688 C375.7188 150.2031 375.9062 150.3438 376.1562 150.3438 C376.4688 150.3438 376.6562 150.1094 376.7969 149.5938 L377.0938 148.6719 C377.3906 148.5938 377.6562 148.5625 377.8906 148.5625 C378.9219 148.5625 379.5469 149.3125 379.5469 150.4219 C379.5469 151.4375 378.9844 152.4219 377.7031 153.9062 C377.125 154.5781 376.3906 155.4375 375.6406 156.2812 L375.6406 157 L380.9219 157 L380.9219 156.0938 L376.4219 156.0938 Z"
      /><rect x="361" y="146" width="6" style="fill:white; stroke:none;" height="13"
      /><path style="stroke:none;" d="M363.0938 152.2031 C363.0938 150.6562 363.75 149.8125 364.7969 149.8125 C365.7188 149.8125 366.2656 150.4531 366.2656 151.5156 C366.2656 152.7188 365.5 153.4375 364.1875 153.7031 L364.2969 154.3125 C366.2188 154.2344 366.9375 155.2188 366.9375 156.4375 C366.9375 157.625 366.2344 158.4219 364.9531 158.4219 C364.25 158.4219 363.6562 158.1562 363.0938 157.7188 L363.0938 152.2031 ZM362.2031 158.9062 L362.1094 161.375 L362.2656 161.4844 L363.1562 161.2656 L363.0156 158.0938 C363.5469 158.8438 364.3594 159.1719 365.1719 159.1719 C366.5625 159.1719 367.8594 158.2188 367.8594 156.4844 C367.8594 154.9531 366.875 154.1094 365.125 154 C366.5625 153.6094 367.1875 152.4531 367.1875 151.4844 C367.1875 150.0938 366.1562 149.3125 364.9062 149.3125 C363.2969 149.3125 362.2188 150.5469 362.2188 152.5156 L362.2031 158.9062 Z"
      /><rect x="386" y="82" width="22" style="clip-path:url(#clipPath8); fill:white; stroke:none;" height="22"
      /><rect x="386" y="82" width="22" style="clip-path:url(#clipPath8); fill:rgb(0,144,188); stroke:none;" height="22"
      /><rect x="386" y="82" width="22" style="fill:none; clip-path:url(#clipPath8);" height="22"
      /><rect x="386" width="22" height="22" y="82" style="fill:none;"
      /><polygon style="fill:none;" points=" 397 41 345 41"
      /><circle style="fill:white; clip-path:url(#clipPath9); stroke:none;" r="11" cx="397" cy="41"
      /><rect x="386" y="30" width="22" style="clip-path:url(#clipPath9); fill:rgb(0,166,81); stroke:none;" height="22"
      /><rect x="386" y="30" width="22" style="fill:none; clip-path:url(#clipPath9);" height="22"
      /><circle r="11" style="fill:none;" cx="397" cy="41"
      /><polygon style="fill:none;" points=" 345 41 293 41"
      /><rect x="334" y="30" width="22" style="clip-path:url(#clipPath10); fill:white; stroke:none;" height="22"
      /><rect x="334" y="30" width="22" style="clip-path:url(#clipPath10); fill:rgb(0,144,188); stroke:none;" height="22"
      /><rect x="334" y="30" width="22" style="fill:none; clip-path:url(#clipPath10);" height="22"
      /><rect x="334" width="22" height="22" y="30" style="fill:none;"
      /><polygon style="fill:none;" points=" 293 41 241 41"
      /><circle style="fill:white; clip-path:url(#clipPath11); stroke:none;" r="11" cx="293" cy="41"
      /><rect x="282" y="30" width="22" style="clip-path:url(#clipPath11); fill:rgb(255,212,0); stroke:none;" height="22"
      /><rect x="282" y="30" width="22" style="fill:none; clip-path:url(#clipPath11);" height="22"
      /><circle r="11" style="fill:none;" cx="293" cy="41"
      /><polygon style="fill:white; clip-path:url(#clipPath12); stroke:none;" points=" 241 30 252 41 241 52 230 41"
      /><rect x="230" y="30" width="22" style="clip-path:url(#clipPath12); fill:rgb(165,67,153); stroke:none;" height="22"
      /><rect x="230" y="30" width="22" style="fill:none; clip-path:url(#clipPath12);" height="22"
      /><polygon style="fill:none;" points=" 241 30 252 41 241 52 230 41"
      /><rect x="266" y="42" width="16" style="fill:white; stroke:none;" height="13"
      /><path style="stroke:none;" d="M268.2344 46.6562 C268.5156 46.5938 268.7656 46.5625 269.0156 46.5625 C270.0625 46.5625 270.6719 47.1719 270.6719 48.2656 C270.6719 49.4375 269.9062 50.1094 268.7031 50.1094 L268.1875 50.1094 L268.1875 50.6406 L268.7969 50.6406 C270.2188 50.6406 270.9062 51.4219 270.9062 52.6406 C270.9062 53.8438 270.1719 54.6875 268.875 54.6875 C268.6094 54.6875 268.3125 54.6562 268.0156 54.5625 L267.7812 53.8125 C267.625 53.2812 267.5 53.0469 267.1406 53.0469 C266.8906 53.0469 266.7031 53.1719 266.5781 53.4219 C266.8438 54.6406 267.7812 55.1719 269.0312 55.1719 C270.7188 55.1719 271.875 54.125 271.875 52.7031 C271.875 51.5 271.2031 50.625 269.7969 50.375 C270.9531 50.0156 271.6094 49.2031 271.6094 48.2031 C271.6094 46.9219 270.6719 46.0781 269.1875 46.0781 C268.0469 46.0781 267.0625 46.5938 266.7969 47.6875 C266.9062 48 267.1094 48.1094 267.3594 48.1094 C267.7344 48.1094 267.8906 47.8906 268 47.4062 L268.2344 46.6562 ZM272.4993 57.0938 L273.1087 57.0938 L276.6087 45.7344 L275.9837 45.7344 L272.4993 57.0938 ZM279.9878 54.6875 C278.8472 54.6875 278.1753 53.5 278.1753 51.2969 C278.1753 51.2188 278.1753 51.125 278.1753 51.0469 C278.7378 50.5 279.3628 50.3125 279.9878 50.3125 C280.9566 50.3125 281.5972 50.9844 281.5972 52.4531 C281.5972 53.9375 280.9566 54.6875 279.9878 54.6875 ZM282.1753 46.0781 C278.9878 46.4531 277.2066 48.7656 277.2066 51.4531 C277.2066 53.7812 278.2534 55.1719 279.9566 55.1719 C281.4878 55.1719 282.5659 54.1094 282.5659 52.2812 C282.5659 50.6875 281.6128 49.6562 280.2066 49.6562 C279.4722 49.6562 278.7847 49.9844 278.2222 50.5781 C278.4409 48.4062 279.7222 46.9688 282.2378 46.3906 L282.1753 46.0781 Z"
      /><rect x="256" y="45" width="8" style="fill:white; stroke:none;" height="8"
      /><path style="stroke:none;" d="M260.9844 50.7031 C260.9375 51.8906 260.1562 52.6562 259.3125 52.6562 C258.2656 52.6562 257.5 51.6875 257.5 49.7188 C257.5 48.2812 258.1562 47.1562 259.3438 47.1562 C260.1406 47.1562 260.7812 47.6875 261.0938 48.6406 L260.9844 50.7031 ZM262.9062 52.2812 C262.7344 52.375 262.5469 52.4219 262.3438 52.4219 C261.9531 52.4219 261.75 52.2188 261.75 51.4219 C261.75 50.4844 261.9688 48.5312 262.1875 46.8281 L262.0312 46.7188 L261.2344 46.9219 L261.1406 47.7969 C260.7812 47.0312 260.1562 46.6562 259.3906 46.6562 C258.0469 46.6562 256.5625 47.8438 256.5625 49.9531 C256.5625 52.0938 257.7188 53.1719 259.1406 53.1719 C260.0156 53.1719 260.6875 52.8125 261.0938 51.9844 C261.2031 52.8594 261.5156 53.1719 262.0156 53.1719 C262.4688 53.1719 262.7969 52.9062 263.0156 52.5625 L262.9062 52.2812 Z"
      /><rect x="322" y="44" width="7" style="fill:white; stroke:none;" height="9"
      /><path style="stroke:none;" d="M323 49.5156 L325.9531 45.2656 L325.9531 49.5156 L323 49.5156 ZM328.2812 49.5156 L326.8594 49.5156 L326.8594 44.125 L326.2344 44.125 L322.3438 49.6406 L322.3438 50.1875 L325.9531 50.1875 L325.9531 53 L326.8594 53 L326.8594 50.1875 L328.2812 50.1875 L328.2812 49.5156 Z"
      /><rect x="309" y="42" width="6" style="fill:white; stroke:none;" height="13"
      /><path style="stroke:none;" d="M311.0938 48.2031 C311.0938 46.6562 311.75 45.8125 312.7969 45.8125 C313.7188 45.8125 314.2656 46.4531 314.2656 47.5156 C314.2656 48.7188 313.5 49.4375 312.1875 49.7031 L312.2969 50.3125 C314.2188 50.2344 314.9375 51.2188 314.9375 52.4375 C314.9375 53.625 314.2344 54.4219 312.9531 54.4219 C312.25 54.4219 311.6562 54.1562 311.0938 53.7188 L311.0938 48.2031 ZM310.2031 54.9062 L310.1094 57.375 L310.2656 57.4844 L311.1562 57.2656 L311.0156 54.0938 C311.5469 54.8438 312.3594 55.1719 313.1719 55.1719 C314.5625 55.1719 315.8594 54.2188 315.8594 52.4844 C315.8594 50.9531 314.875 50.1094 313.125 50 C314.5625 49.6094 315.1875 48.4531 315.1875 47.4844 C315.1875 46.0938 314.1562 45.3125 312.9062 45.3125 C311.2969 45.3125 310.2188 46.5469 310.2188 48.5156 L310.2031 54.9062 Z"
      /><rect x="375" y="44" width="6" style="fill:white; stroke:none;" height="9"
      /><path style="stroke:none;" d="M376.4219 52.0938 C377.0781 51.375 377.7031 50.7188 378.0312 50.3438 C379.9219 48.3125 380.5312 47.4688 380.5312 46.3594 C380.5312 45.0156 379.7812 44.0781 378.1562 44.0781 C376.9062 44.0781 375.7969 44.7031 375.5938 45.9688 C375.7188 46.2031 375.9062 46.3438 376.1562 46.3438 C376.4688 46.3438 376.6562 46.1094 376.7969 45.5938 L377.0938 44.6719 C377.3906 44.5938 377.6562 44.5625 377.8906 44.5625 C378.9219 44.5625 379.5469 45.3125 379.5469 46.4219 C379.5469 47.4375 378.9844 48.4219 377.7031 49.9062 C377.125 50.5781 376.3906 51.4375 375.6406 52.2812 L375.6406 53 L380.9219 53 L380.9219 52.0938 L376.4219 52.0938 Z"
      /><rect x="361" y="42" width="6" style="fill:white; stroke:none;" height="13"
      /><path style="stroke:none;" d="M363.0938 48.2031 C363.0938 46.6562 363.75 45.8125 364.7969 45.8125 C365.7188 45.8125 366.2656 46.4531 366.2656 47.5156 C366.2656 48.7188 365.5 49.4375 364.1875 49.7031 L364.2969 50.3125 C366.2188 50.2344 366.9375 51.2188 366.9375 52.4375 C366.9375 53.625 366.2344 54.4219 364.9531 54.4219 C364.25 54.4219 363.6562 54.1562 363.0938 53.7188 L363.0938 48.2031 ZM362.2031 54.9062 L362.1094 57.375 L362.2656 57.4844 L363.1562 57.2656 L363.0156 54.0938 C363.5469 54.8438 364.3594 55.1719 365.1719 55.1719 C366.5625 55.1719 367.8594 54.2188 367.8594 52.4844 C367.8594 50.9531 366.875 50.1094 365.125 50 C366.5625 49.6094 367.1875 48.4531 367.1875 47.4844 C367.1875 46.0938 366.1562 45.3125 364.9062 45.3125 C363.2969 45.3125 362.2188 46.5469 362.2188 48.5156 L362.2031 54.9062 Z"
      /><rect x="435" y="110" width="6" style="fill:white; stroke:none;" height="10"
      /><path style="stroke:none;" d="M437.2344 111.6562 C437.5156 111.5938 437.7656 111.5625 438.0156 111.5625 C439.0625 111.5625 439.6719 112.1719 439.6719 113.2656 C439.6719 114.4375 438.9062 115.1094 437.7031 115.1094 L437.1875 115.1094 L437.1875 115.6406 L437.7969 115.6406 C439.2188 115.6406 439.9062 116.4219 439.9062 117.6406 C439.9062 118.8438 439.1719 119.6875 437.875 119.6875 C437.6094 119.6875 437.3125 119.6562 437.0156 119.5625 L436.7812 118.8125 C436.625 118.2812 436.5 118.0469 436.1406 118.0469 C435.8906 118.0469 435.7031 118.1719 435.5781 118.4219 C435.8438 119.6406 436.7812 120.1719 438.0312 120.1719 C439.7188 120.1719 440.875 119.125 440.875 117.7031 C440.875 116.5 440.2031 115.625 438.7969 115.375 C439.9531 115.0156 440.6094 114.2031 440.6094 113.2031 C440.6094 111.9219 439.6719 111.0781 438.1875 111.0781 C437.0469 111.0781 436.0625 111.5938 435.7969 112.6875 C435.9062 113 436.1094 113.1094 436.3594 113.1094 C436.7344 113.1094 436.8906 112.8906 437 112.4062 L437.2344 111.6562 Z"
      /><rect x="415" y="130" width="8" style="fill:white; stroke:none;" height="8"
      /><path style="stroke:none;" d="M419.9844 135.7031 C419.9375 136.8906 419.1562 137.6562 418.3125 137.6562 C417.2656 137.6562 416.5 136.6875 416.5 134.7188 C416.5 133.2812 417.1562 132.1562 418.3438 132.1562 C419.1406 132.1562 419.7812 132.6875 420.0938 133.6406 L419.9844 135.7031 ZM421.9062 137.2812 C421.7344 137.375 421.5469 137.4219 421.3438 137.4219 C420.9531 137.4219 420.75 137.2188 420.75 136.4219 C420.75 135.4844 420.9688 133.5312 421.1875 131.8281 L421.0312 131.7188 L420.2344 131.9219 L420.1406 132.7969 C419.7812 132.0312 419.1562 131.6562 418.3906 131.6562 C417.0469 131.6562 415.5625 132.8438 415.5625 134.9531 C415.5625 137.0938 416.7188 138.1719 418.1406 138.1719 C419.0156 138.1719 419.6875 137.8125 420.0938 136.9844 C420.2031 137.8594 420.5156 138.1719 421.0156 138.1719 C421.4688 138.1719 421.7969 137.9062 422.0156 137.5625 L421.9062 137.2812 Z"
      /><rect x="426" y="96" width="7" style="fill:white; stroke:none;" height="9"
      /><path style="stroke:none;" d="M427 101.5156 L429.9531 97.2656 L429.9531 101.5156 L427 101.5156 ZM432.2812 101.5156 L430.8594 101.5156 L430.8594 96.125 L430.2344 96.125 L426.3438 101.6406 L426.3438 102.1875 L429.9531 102.1875 L429.9531 105 L430.8594 105 L430.8594 102.1875 L432.2812 102.1875 L432.2812 101.5156 Z"
      /><rect x="413" y="94" width="6" style="fill:white; stroke:none;" height="13"
      /><path style="stroke:none;" d="M415.0938 100.2031 C415.0938 98.6562 415.75 97.8125 416.7969 97.8125 C417.7188 97.8125 418.2656 98.4531 418.2656 99.5156 C418.2656 100.7188 417.5 101.4375 416.1875 101.7031 L416.2969 102.3125 C418.2188 102.2344 418.9375 103.2188 418.9375 104.4375 C418.9375 105.625 418.2344 106.4219 416.9531 106.4219 C416.25 106.4219 415.6562 106.1562 415.0938 105.7188 L415.0938 100.2031 ZM414.2031 106.9062 L414.1094 109.375 L414.2656 109.4844 L415.1562 109.2656 L415.0156 106.0938 C415.5469 106.8438 416.3594 107.1719 417.1719 107.1719 C418.5625 107.1719 419.8594 106.2188 419.8594 104.4844 C419.8594 102.9531 418.875 102.1094 417.125 102 C418.5625 101.6094 419.1875 100.4531 419.1875 99.4844 C419.1875 98.0938 418.1562 97.3125 416.9062 97.3125 C415.2969 97.3125 414.2188 98.5469 414.2188 100.5156 L414.2031 106.9062 Z"
      /><rect x="423" y="77" width="6" style="fill:white; stroke:none;" height="10"
      /><path style="stroke:none;" d="M426.3438 86.6875 C425.2031 86.6875 424.5312 85.5 424.5312 83.2969 C424.5312 83.2188 424.5312 83.125 424.5312 83.0469 C425.0938 82.5 425.7188 82.3125 426.3438 82.3125 C427.3125 82.3125 427.9531 82.9844 427.9531 84.4531 C427.9531 85.9375 427.3125 86.6875 426.3438 86.6875 ZM428.5312 78.0781 C425.3438 78.4531 423.5625 80.7656 423.5625 83.4531 C423.5625 85.7812 424.6094 87.1719 426.3125 87.1719 C427.8438 87.1719 428.9219 86.1094 428.9219 84.2812 C428.9219 82.6875 427.9688 81.6562 426.5625 81.6562 C425.8281 81.6562 425.1406 81.9844 424.5781 82.5781 C424.7969 80.4062 426.0781 78.9688 428.5938 78.3906 L428.5312 78.0781 Z"
      /><rect x="404" y="59" width="8" style="fill:white; stroke:none;" height="8"
      /><path style="stroke:none;" d="M408.9844 64.7031 C408.9375 65.8906 408.1562 66.6562 407.3125 66.6562 C406.2656 66.6562 405.5 65.6875 405.5 63.7188 C405.5 62.2812 406.1562 61.1562 407.3438 61.1562 C408.1406 61.1562 408.7812 61.6875 409.0938 62.6406 L408.9844 64.7031 ZM410.9062 66.2812 C410.7344 66.375 410.5469 66.4219 410.3438 66.4219 C409.9531 66.4219 409.75 66.2188 409.75 65.4219 C409.75 64.4844 409.9688 62.5312 410.1875 60.8281 L410.0312 60.7188 L409.2344 60.9219 L409.1406 61.7969 C408.7812 61.0312 408.1562 60.6562 407.3906 60.6562 C406.0469 60.6562 404.5625 61.8438 404.5625 63.9531 C404.5625 66.0938 405.7188 67.1719 407.1406 67.1719 C408.0156 67.1719 408.6875 66.8125 409.0938 65.9844 C409.2031 66.8594 409.5156 67.1719 410.0156 67.1719 C410.4688 67.1719 410.7969 66.9062 411.0156 66.5625 L410.9062 66.2812 Z"
      /><rect x="478" y="96" width="7" style="fill:white; stroke:none;" height="9"
      /><path style="stroke:none;" d="M479 101.5156 L481.9531 97.2656 L481.9531 101.5156 L479 101.5156 ZM484.2812 101.5156 L482.8594 101.5156 L482.8594 96.125 L482.2344 96.125 L478.3438 101.6406 L478.3438 102.1875 L481.9531 102.1875 L481.9531 105 L482.8594 105 L482.8594 102.1875 L484.2812 102.1875 L484.2812 101.5156 Z"
      /><rect x="465" y="94" width="6" style="fill:white; stroke:none;" height="13"
      /><path style="stroke:none;" d="M467.0938 100.2031 C467.0938 98.6562 467.75 97.8125 468.7969 97.8125 C469.7188 97.8125 470.2656 98.4531 470.2656 99.5156 C470.2656 100.7188 469.5 101.4375 468.1875 101.7031 L468.2969 102.3125 C470.2188 102.2344 470.9375 103.2188 470.9375 104.4375 C470.9375 105.625 470.2344 106.4219 468.9531 106.4219 C468.25 106.4219 467.6562 106.1562 467.0938 105.7188 L467.0938 100.2031 ZM466.2031 106.9062 L466.1094 109.375 L466.2656 109.4844 L467.1562 109.2656 L467.0156 106.0938 C467.5469 106.8438 468.3594 107.1719 469.1719 107.1719 C470.5625 107.1719 471.8594 106.2188 471.8594 104.4844 C471.8594 102.9531 470.875 102.1094 469.125 102 C470.5625 101.6094 471.1875 100.4531 471.1875 99.4844 C471.1875 98.0938 470.1562 97.3125 468.9062 97.3125 C467.2969 97.3125 466.2188 98.5469 466.2188 100.5156 L466.2031 106.9062 Z"
      /><polygon style="fill:white; clip-path:url(#clipPath13); stroke:none;" points=" 553 52 542 30 564 30"
      /><rect x="542" y="30" width="22" style="clip-path:url(#clipPath13); fill:rgb(237,28,36); stroke:none;" height="22"
      /><rect x="542" y="30" width="22" style="fill:none; clip-path:url(#clipPath13);" height="22"
      /><polygon style="fill:none;" points=" 553 52 542 30 564 30"
      /><rect x="530" y="96" width="7" style="fill:white; stroke:none;" height="9"
      /><path style="stroke:none;" d="M531 101.5156 L533.9531 97.2656 L533.9531 101.5156 L531 101.5156 ZM536.2812 101.5156 L534.8594 101.5156 L534.8594 96.125 L534.2344 96.125 L530.3438 101.6406 L530.3438 102.1875 L533.9531 102.1875 L533.9531 105 L534.8594 105 L534.8594 102.1875 L536.2812 102.1875 L536.2812 101.5156 Z"
      /><rect x="517" y="94" width="6" style="fill:white; stroke:none;" height="13"
      /><path style="stroke:none;" d="M519.0938 100.2031 C519.0938 98.6562 519.75 97.8125 520.7969 97.8125 C521.7188 97.8125 522.2656 98.4531 522.2656 99.5156 C522.2656 100.7188 521.5 101.4375 520.1875 101.7031 L520.2969 102.3125 C522.2188 102.2344 522.9375 103.2188 522.9375 104.4375 C522.9375 105.625 522.2344 106.4219 520.9531 106.4219 C520.25 106.4219 519.6562 106.1562 519.0938 105.7188 L519.0938 100.2031 ZM518.2031 106.9062 L518.1094 109.375 L518.2656 109.4844 L519.1562 109.2656 L519.0156 106.0938 C519.5469 106.8438 520.3594 107.1719 521.1719 107.1719 C522.5625 107.1719 523.8594 106.2188 523.8594 104.4844 C523.8594 102.9531 522.875 102.1094 521.125 102 C522.5625 101.6094 523.1875 100.4531 523.1875 99.4844 C523.1875 98.0938 522.1562 97.3125 520.9062 97.3125 C519.2969 97.3125 518.2188 98.5469 518.2188 100.5156 L518.2031 106.9062 Z"
      /><rect x="542" y="69" width="6" style="fill:white; stroke:none;" height="10"
      /><path style="stroke:none;" d="M545.3438 78.6875 C544.2031 78.6875 543.5312 77.5 543.5312 75.2969 C543.5312 75.2188 543.5312 75.125 543.5312 75.0469 C544.0938 74.5 544.7188 74.3125 545.3438 74.3125 C546.3125 74.3125 546.9531 74.9844 546.9531 76.4531 C546.9531 77.9375 546.3125 78.6875 545.3438 78.6875 ZM547.5312 70.0781 C544.3438 70.4531 542.5625 72.7656 542.5625 75.4531 C542.5625 77.7812 543.6094 79.1719 545.3125 79.1719 C546.8438 79.1719 547.9219 78.1094 547.9219 76.2812 C547.9219 74.6875 546.9688 73.6562 545.5625 73.6562 C544.8281 73.6562 544.1406 73.9844 543.5781 74.5781 C543.7969 72.4062 545.0781 70.9688 547.5938 70.3906 L547.5312 70.0781 Z"
      /><rect x="541" y="56" width="8" style="fill:white; stroke:none;" height="8"
      /><path style="stroke:none;" d="M545.9844 61.7031 C545.9375 62.8906 545.1562 63.6562 544.3125 63.6562 C543.2656 63.6562 542.5 62.6875 542.5 60.7188 C542.5 59.2812 543.1562 58.1562 544.3438 58.1562 C545.1406 58.1562 545.7812 58.6875 546.0938 59.6406 L545.9844 61.7031 ZM547.9062 63.2812 C547.7344 63.375 547.5469 63.4219 547.3438 63.4219 C546.9531 63.4219 546.75 63.2188 546.75 62.4219 C546.75 61.4844 546.9688 59.5312 547.1875 57.8281 L547.0312 57.7188 L546.2344 57.9219 L546.1406 58.7969 C545.7812 58.0312 545.1562 57.6562 544.3906 57.6562 C543.0469 57.6562 541.5625 58.8438 541.5625 60.9531 C541.5625 63.0938 542.7188 64.1719 544.1406 64.1719 C545.0156 64.1719 545.6875 63.8125 546.0938 62.9844 C546.2031 63.8594 546.5156 64.1719 547.0156 64.1719 C547.4688 64.1719 547.7969 63.9062 548.0156 63.5625 L547.9062 63.2812 Z"
      /><rect x="569" y="96" width="5" style="fill:white; stroke:none;" height="10"
      /><path style="stroke:none;" d="M570.8906 104.6875 C570.4844 104.6875 570.1562 105.0469 570.1562 105.4219 C570.1562 105.8125 570.4844 106.1562 570.8906 106.1562 C571.2969 106.1562 571.6406 105.8125 571.6406 105.4219 C571.6406 105.0469 571.2969 104.6875 570.8906 104.6875 ZM572.4688 98.5781 C572.7188 98.8906 572.875 99.2656 572.8906 99.6562 C572.8906 100.1875 572.625 100.5 572.0312 100.7656 L571.4062 101.0156 C570.6406 101.3125 570.3906 101.5469 570.3906 101.9375 C570.3906 102.1094 570.4531 102.3438 570.5781 102.8125 L570.7344 103.3438 L571.1094 103.3438 L571.0938 102.5312 C571.0938 102.0938 571.2031 101.9688 571.7812 101.7344 L572.2031 101.5625 C573.0312 101.2188 573.4531 100.6875 573.4531 99.8438 C573.4531 98.1562 571.6562 97.1875 570.5 97.0312 C570.1094 97.125 569.9062 97.2969 569.9062 97.6406 C569.9062 97.9375 570.0625 98.1562 570.7188 98.2656 L572.4688 98.5781 Z"
      /><polygon style="fill:none;" points=" 230 156 219 156 219 30 230 30 219 30 219 156"
      /><polygon style="fill:none;" points=" 197 93 145 93"
      /><polygon style="fill:none;" points=" 145 93 93 93"
      /><rect x="134" y="82" width="22" style="clip-path:url(#clipPath14); fill:white; stroke:none;" height="22"
      /><rect x="134" y="82" width="22" style="clip-path:url(#clipPath14); fill:rgb(0,144,188); stroke:none;" height="22"
      /><rect x="134" y="82" width="22" style="fill:none; clip-path:url(#clipPath14);" height="22"
      /><rect x="134" width="22" height="22" y="82" style="fill:none;"
      /><polygon style="fill:none;" points=" 93 93 41 93"
      /><circle style="fill:white; clip-path:url(#clipPath15); stroke:none;" r="11" cx="93" cy="93"
      /><rect x="82" y="82" width="22" style="clip-path:url(#clipPath15); fill:rgb(255,212,0); stroke:none;" height="22"
      /><rect x="82" y="82" width="22" style="fill:none; clip-path:url(#clipPath15);" height="22"
      /><circle r="11" style="fill:none;" cx="93" cy="93"
      /><circle style="fill:white; clip-path:url(#clipPath16); stroke:none;" r="11" cx="41" cy="93"
      /><rect x="30" y="82" width="22" style="clip-path:url(#clipPath16); fill:rgb(255,212,0); stroke:none;" height="22"
      /><rect x="30" y="82" width="22" style="fill:none; clip-path:url(#clipPath16);" height="22"
      /><circle r="11" style="fill:none;" cx="41" cy="93"
      /><rect x="71" y="96" width="6" style="fill:white; stroke:none;" height="10"
      /><path style="stroke:none;" d="M73.2344 97.6562 C73.5156 97.5938 73.7656 97.5625 74.0156 97.5625 C75.0625 97.5625 75.6719 98.1719 75.6719 99.2656 C75.6719 100.4375 74.9062 101.1094 73.7031 101.1094 L73.1875 101.1094 L73.1875 101.6406 L73.7969 101.6406 C75.2188 101.6406 75.9062 102.4219 75.9062 103.6406 C75.9062 104.8438 75.1719 105.6875 73.875 105.6875 C73.6094 105.6875 73.3125 105.6562 73.0156 105.5625 L72.7812 104.8125 C72.625 104.2812 72.5 104.0469 72.1406 104.0469 C71.8906 104.0469 71.7031 104.1719 71.5781 104.4219 C71.8438 105.6406 72.7812 106.1719 74.0312 106.1719 C75.7188 106.1719 76.875 105.125 76.875 103.7031 C76.875 102.5 76.2031 101.625 74.7969 101.375 C75.9531 101.0156 76.6094 100.2031 76.6094 99.2031 C76.6094 97.9219 75.6719 97.0781 74.1875 97.0781 C73.0469 97.0781 72.0625 97.5938 71.7969 98.6875 C71.9062 99 72.1094 99.1094 72.3594 99.1094 C72.7344 99.1094 72.8906 98.8906 73 98.4062 L73.2344 97.6562 Z"
      /><rect x="56" y="97" width="8" style="fill:white; stroke:none;" height="8"
      /><path style="stroke:none;" d="M60.9844 102.7031 C60.9375 103.8906 60.1562 104.6562 59.3125 104.6562 C58.2656 104.6562 57.5 103.6875 57.5 101.7188 C57.5 100.2812 58.1562 99.1562 59.3438 99.1562 C60.1406 99.1562 60.7812 99.6875 61.0938 100.6406 L60.9844 102.7031 ZM62.9062 104.2812 C62.7344 104.375 62.5469 104.4219 62.3438 104.4219 C61.9531 104.4219 61.75 104.2188 61.75 103.4219 C61.75 102.4844 61.9688 100.5312 62.1875 98.8281 L62.0312 98.7188 L61.2344 98.9219 L61.1406 99.7969 C60.7812 99.0312 60.1562 98.6562 59.3906 98.6562 C58.0469 98.6562 56.5625 99.8438 56.5625 101.9531 C56.5625 104.0938 57.7188 105.1719 59.1406 105.1719 C60.0156 105.1719 60.6875 104.8125 61.0938 103.9844 C61.2031 104.8594 61.5156 105.1719 62.0156 105.1719 C62.4688 105.1719 62.7969 104.9062 63.0156 104.5625 L62.9062 104.2812 Z"
      /><rect x="122" y="96" width="7" style="fill:white; stroke:none;" height="9"
      /><path style="stroke:none;" d="M123 101.5156 L125.9531 97.2656 L125.9531 101.5156 L123 101.5156 ZM128.2812 101.5156 L126.8594 101.5156 L126.8594 96.125 L126.2344 96.125 L122.3438 101.6406 L122.3438 102.1875 L125.9531 102.1875 L125.9531 105 L126.8594 105 L126.8594 102.1875 L128.2812 102.1875 L128.2812 101.5156 Z"
      /><rect x="109" y="94" width="6" style="fill:white; stroke:none;" height="13"
      /><path style="stroke:none;" d="M111.0938 100.2031 C111.0938 98.6562 111.75 97.8125 112.7969 97.8125 C113.7188 97.8125 114.2656 98.4531 114.2656 99.5156 C114.2656 100.7188 113.5 101.4375 112.1875 101.7031 L112.2969 102.3125 C114.2188 102.2344 114.9375 103.2188 114.9375 104.4375 C114.9375 105.625 114.2344 106.4219 112.9531 106.4219 C112.25 106.4219 111.6562 106.1562 111.0938 105.7188 L111.0938 100.2031 ZM110.2031 106.9062 L110.1094 109.375 L110.2656 109.4844 L111.1562 109.2656 L111.0156 106.0938 C111.5469 106.8438 112.3594 107.1719 113.1719 107.1719 C114.5625 107.1719 115.8594 106.2188 115.8594 104.4844 C115.8594 102.9531 114.875 102.1094 113.125 102 C114.5625 101.6094 115.1875 100.4531 115.1875 99.4844 C115.1875 98.0938 114.1562 97.3125 112.9062 97.3125 C111.2969 97.3125 110.2188 98.5469 110.2188 100.5156 L110.2031 106.9062 Z"
      /><rect x="170" y="94" width="16" style="fill:white; stroke:none;" height="13"
      /><path style="stroke:none;" d="M171 103.5156 L173.9531 99.2656 L173.9531 103.5156 L171 103.5156 ZM176.2812 103.5156 L174.8594 103.5156 L174.8594 98.125 L174.2344 98.125 L170.3438 103.6406 L170.3438 104.1875 L173.9531 104.1875 L173.9531 107 L174.8594 107 L174.8594 104.1875 L176.2812 104.1875 L176.2812 103.5156 ZM176.4993 109.0938 L177.1087 109.0938 L180.6087 97.7344 L179.9837 97.7344 L176.4993 109.0938 ZM183.9878 106.6875 C182.8472 106.6875 182.1753 105.5 182.1753 103.2969 C182.1753 103.2188 182.1753 103.125 182.1753 103.0469 C182.7378 102.5 183.3628 102.3125 183.9878 102.3125 C184.9566 102.3125 185.5972 102.9844 185.5972 104.4531 C185.5972 105.9375 184.9566 106.6875 183.9878 106.6875 ZM186.1753 98.0781 C182.9878 98.4531 181.2066 100.7656 181.2066 103.4531 C181.2066 105.7812 182.2534 107.1719 183.9566 107.1719 C185.4878 107.1719 186.5659 106.1094 186.5659 104.2812 C186.5659 102.6875 185.6128 101.6562 184.2066 101.6562 C183.4722 101.6562 182.7847 101.9844 182.2222 102.5781 C182.4409 100.4062 183.7222 98.9688 186.2378 98.3906 L186.1753 98.0781 Z"
      /><rect x="161" y="94" width="6" style="fill:white; stroke:none;" height="13"
      /><path style="stroke:none;" d="M163.0938 100.2031 C163.0938 98.6562 163.75 97.8125 164.7969 97.8125 C165.7188 97.8125 166.2656 98.4531 166.2656 99.5156 C166.2656 100.7188 165.5 101.4375 164.1875 101.7031 L164.2969 102.3125 C166.2188 102.2344 166.9375 103.2188 166.9375 104.4375 C166.9375 105.625 166.2344 106.4219 164.9531 106.4219 C164.25 106.4219 163.6562 106.1562 163.0938 105.7188 L163.0938 100.2031 ZM162.2031 106.9062 L162.1094 109.375 L162.2656 109.4844 L163.1562 109.2656 L163.0156 106.0938 C163.5469 106.8438 164.3594 107.1719 165.1719 107.1719 C166.5625 107.1719 167.8594 106.2188 167.8594 104.4844 C167.8594 102.9531 166.875 102.1094 165.125 102 C166.5625 101.6094 167.1875 100.4531 167.1875 99.4844 C167.1875 98.0938 166.1562 97.3125 164.9062 97.3125 C163.2969 97.3125 162.2188 98.5469 162.2188 100.5156 L162.2031 106.9062 Z"
    /></g
  ></g
></svg
>
