<?xml version="1.0"?>
<!DOCTYPE svg PUBLIC '-//W3C//DTD SVG 1.0//EN'
          'http://www.w3.org/TR/2001/REC-SVG-20010904/DTD/svg10.dtd'>
<svg xmlns:xlink="http://www.w3.org/1999/xlink" style="fill-opacity:1; color-rendering:auto; color-interpolation:auto; text-rendering:auto; stroke:black; stroke-linecap:square; stroke-miterlimit:10; shape-rendering:auto; stroke-opacity:1; fill:black; stroke-dasharray:none; font-weight:normal; stroke-width:1; font-family:'Dialog'; font-style:normal; stroke-linejoin:miter; font-size:12px; stroke-dashoffset:0; image-rendering:auto;" viewBox="0 0 186 105" xmlns="http://www.w3.org/2000/svg"
><!--Generated by the Batik Graphics2D SVG Generator--><defs id="genericDefs"
  /><g
  ><defs id="defs1"
    ><clipPath clipPathUnits="userSpaceOnUse" id="clipPath1"
      ><path style="fill-rule:evenodd;" d="M93 53 L104 75 L82 75 Z"
      /></clipPath
      ><clipPath clipPathUnits="userSpaceOnUse" id="clipPath2"
      ><path style="fill-rule:evenodd;" d="M41 53 L52 75 L30 75 Z"
      /></clipPath
    ></defs
    ><g style="fill:white; text-rendering:optimizeSpeed; stroke:white;"
    ><rect x="0" width="186" height="105" y="0" style="stroke:none;"
      /><polygon style="fill:none; stroke:black;" points=" 145 64 93 64"
      /><path d="M145 53 C139.5 58.5 150.5 69.5 145 75" style="fill:none; stroke:black;"
      /><polygon style="fill:none; stroke:black;" points=" 93 64 41 64"
      /><polygon style="clip-path:url(#clipPath1); stroke:none;" points=" 93 53 104 75 82 75"
      /><rect x="82" y="53" width="22" style="clip-path:url(#clipPath1); fill:rgb(237,28,36); stroke:none;" height="22"
      /><rect x="82" y="53" width="22" style="clip-path:url(#clipPath1); fill:none; stroke:black;" height="22"
      /><polygon style="fill:none; stroke:black;" points=" 93 53 104 75 82 75"
    /></g
    ><g style="text-rendering:optimizeSpeed; font-size:10px; font-family:'SansSerif';"
    ><path style="stroke:none;" d="M91 67 L92.875 67 C95.0938 67 96.2969 65.625 96.2969 63.3125 C96.2969 60.9844 95.0938 59.6562 92.8438 59.6562 L91 59.6562 L91 67 ZM91.9375 66.2344 L91.9375 60.4219 L92.7656 60.4219 C94.4844 60.4219 95.3438 61.4531 95.3438 63.3125 C95.3438 65.1562 94.4844 66.2344 92.7656 66.2344 L91.9375 66.2344 Z"
      /><rect x="85" y="35" width="15" style="fill:white; stroke:none;" height="10"
      /><path style="stroke:none;" d="M86.6094 42.1562 L88.9531 38.6562 C89.2344 38.1406 89.5156 37.6406 89.7812 37.1406 L89.8281 37.1406 C89.7969 37.6719 89.7656 38.5 89.7656 39 L89.7656 42.1562 L86.6094 42.1562 ZM89.7656 46 L90.9688 46 L90.9688 43.1719 L92.3281 43.1719 L92.3281 42.1562 L90.9688 42.1562 L90.9688 35.7188 L89.5469 35.7188 L85.2812 42.3281 L85.2812 43.1719 L89.7656 43.1719 L89.7656 46 ZM97.02 46.1875 C99.1606 46.1875 100.5043 44.8906 100.5043 43.2656 C100.5043 41.75 99.5825 41.0469 98.395 40.5312 L96.9262 39.8906 C96.1293 39.5625 95.2387 39.1875 95.2387 38.1875 C95.2387 37.2656 95.9887 36.6719 97.145 36.6719 C98.0981 36.6719 98.8637 37.0469 99.4887 37.6406 L100.1762 36.8125 C99.4418 36.0625 98.3637 35.5469 97.145 35.5469 C95.2856 35.5469 93.9106 36.6875 93.9106 38.2656 C93.9106 39.7656 95.0512 40.5 96.0043 40.9062 L97.4887 41.5469 C98.4575 41.9844 99.1918 42.3125 99.1918 43.375 C99.1918 44.375 98.3793 45.0469 97.0356 45.0469 C95.9731 45.0469 94.9418 44.5469 94.2075 43.7812 L93.4262 44.6562 C94.3168 45.5938 95.5668 46.1875 97.02 46.1875 Z"
    /></g
    ><g style="fill:white; text-rendering:optimizeSpeed; stroke:white;"
    ><polygon style="stroke:none; clip-path:url(#clipPath2);" points=" 41 53 52 75 30 75"
      /><rect x="30" y="53" width="22" style="clip-path:url(#clipPath2); fill:rgb(237,28,36); stroke:none;" height="22"
      /><rect x="30" y="53" width="22" style="clip-path:url(#clipPath2); fill:none; stroke:black;" height="22"
      /><polygon style="fill:none; stroke:black;" points=" 41 53 52 75 30 75"
    /></g
    ><g style="text-rendering:optimizeSpeed; font-size:10px; font-family:'SansSerif';"
    ><path style="stroke:none;" d="M39 67 L40.875 67 C43.0938 67 44.2969 65.625 44.2969 63.3125 C44.2969 60.9844 43.0938 59.6562 40.8438 59.6562 L39 59.6562 L39 67 ZM39.9375 66.2344 L39.9375 60.4219 L40.7656 60.4219 C42.4844 60.4219 43.3438 61.4531 43.3438 63.3125 C43.3438 65.1562 42.4844 66.2344 40.7656 66.2344 L39.9375 66.2344 Z"
    /></g
    ><g style="fill:white; text-rendering:optimizeSpeed; font-family:'Serif'; stroke:white;"
    ><rect x="71" width="6" height="9" y="67" style="stroke:none;"
      /><path d="M72.4219 75.0938 C73.0781 74.375 73.7031 73.7188 74.0312 73.3438 C75.9219 71.3125 76.5312 70.4688 76.5312 69.3594 C76.5312 68.0156 75.7812 67.0781 74.1562 67.0781 C72.9062 67.0781 71.7969 67.7031 71.5938 68.9688 C71.7188 69.2031 71.9062 69.3438 72.1562 69.3438 C72.4688 69.3438 72.6562 69.1094 72.7969 68.5938 L73.0938 67.6719 C73.3906 67.5938 73.6562 67.5625 73.8906 67.5625 C74.9219 67.5625 75.5469 68.3125 75.5469 69.4219 C75.5469 70.4375 74.9844 71.4219 73.7031 72.9062 C73.125 73.5781 72.3906 74.4375 71.6406 75.2812 L71.6406 76 L76.9219 76 L76.9219 75.0938 L72.4219 75.0938 Z" style="fill:black; stroke:none;"
      /><rect x="57" width="5" height="10" y="67" style="stroke:none;"
      /><path d="M58.8906 75.6875 C58.4844 75.6875 58.1562 76.0469 58.1562 76.4219 C58.1562 76.8125 58.4844 77.1562 58.8906 77.1562 C59.2969 77.1562 59.6406 76.8125 59.6406 76.4219 C59.6406 76.0469 59.2969 75.6875 58.8906 75.6875 ZM60.4688 69.5781 C60.7188 69.8906 60.875 70.2656 60.8906 70.6562 C60.8906 71.1875 60.625 71.5 60.0312 71.7656 L59.4062 72.0156 C58.6406 72.3125 58.3906 72.5469 58.3906 72.9375 C58.3906 73.1094 58.4531 73.3438 58.5781 73.8125 L58.7344 74.3438 L59.1094 74.3438 L59.0938 73.5312 C59.0938 73.0938 59.2031 72.9688 59.7812 72.7344 L60.2031 72.5625 C61.0312 72.2188 61.4531 71.6875 61.4531 70.8438 C61.4531 69.1562 59.6562 68.1875 58.5 68.0312 C58.1094 68.125 57.9062 68.2969 57.9062 68.6406 C57.9062 68.9375 58.0625 69.1562 58.7188 69.2656 L60.4688 69.5781 Z" style="fill:black; stroke:none;"
      /><rect x="109" width="5" height="10" y="67" style="stroke:none;"
      /><path d="M110.8906 75.6875 C110.4844 75.6875 110.1562 76.0469 110.1562 76.4219 C110.1562 76.8125 110.4844 77.1562 110.8906 77.1562 C111.2969 77.1562 111.6406 76.8125 111.6406 76.4219 C111.6406 76.0469 111.2969 75.6875 110.8906 75.6875 ZM112.4688 69.5781 C112.7188 69.8906 112.875 70.2656 112.8906 70.6562 C112.8906 71.1875 112.625 71.5 112.0312 71.7656 L111.4062 72.0156 C110.6406 72.3125 110.3906 72.5469 110.3906 72.9375 C110.3906 73.1094 110.4531 73.3438 110.5781 73.8125 L110.7344 74.3438 L111.1094 74.3438 L111.0938 73.5312 C111.0938 73.0938 111.2031 72.9688 111.7812 72.7344 L112.2031 72.5625 C113.0312 72.2188 113.4531 71.6875 113.4531 70.8438 C113.4531 69.1562 111.6562 68.1875 110.5 68.0312 C110.1094 68.125 109.9062 68.2969 109.9062 68.6406 C109.9062 68.9375 110.0625 69.1562 110.7188 69.2656 L112.4688 69.5781 Z" style="fill:black; stroke:none;"
    /></g
  ></g
></svg
>
