<?xml version="1.0"?>
<!DOCTYPE svg PUBLIC '-//W3C//DTD SVG 1.0//EN'
          'http://www.w3.org/TR/2001/REC-SVG-20010904/DTD/svg10.dtd'>
<svg xmlns:xlink="http://www.w3.org/1999/xlink" style="fill-opacity:1; color-rendering:auto; color-interpolation:auto; text-rendering:auto; stroke:black; stroke-linecap:square; stroke-miterlimit:10; shape-rendering:auto; stroke-opacity:1; fill:black; stroke-dasharray:none; font-weight:normal; stroke-width:1; font-family:'Dialog'; font-style:normal; stroke-linejoin:miter; font-size:12px; stroke-dashoffset:0; image-rendering:auto;" viewBox="0 0 455 238" xmlns="http://www.w3.org/2000/svg"
><!--Generated by the Batik Graphics2D SVG Generator--><defs id="genericDefs"
  /><g
  ><defs id="defs1"
    ><clipPath clipPathUnits="userSpaceOnUse" id="clipPath1"
      ><path d="M351 108 L373 108 L373 130 L351 130 L351 108 Z"
      /></clipPath
      ><clipPath clipPathUnits="userSpaceOnUse" id="clipPath2"
      ><path d="M299 108 L321 108 L321 130 L299 130 L299 108 Z"
      /></clipPath
      ><clipPath clipPathUnits="userSpaceOnUse" id="clipPath3"
      ><path d="M269 119 C269 125.0751 264.0751 130 258 130 C251.9249 130 247 125.0751 247 119 C247 112.9249 251.9249 108 258 108 C264.0751 108 269 112.9249 269 119 Z"
      /></clipPath
      ><clipPath clipPathUnits="userSpaceOnUse" id="clipPath4"
      ><path d="M217 171 C217 177.0751 212.0751 182 206 182 C199.9249 182 195 177.0751 195 171 C195 164.9249 199.9249 160 206 160 C212.0751 160 217 164.9249 217 171 Z"
      /></clipPath
      ><clipPath clipPathUnits="userSpaceOnUse" id="clipPath5"
      ><path d="M143 186 L165 186 L165 208 L143 208 L143 186 Z"
      /></clipPath
      ><clipPath clipPathUnits="userSpaceOnUse" id="clipPath6"
      ><path d="M143 134 L165 134 L165 156 L143 156 L143 134 Z"
      /></clipPath
      ><clipPath clipPathUnits="userSpaceOnUse" id="clipPath7"
      ><path d="M217 67 C217 73.0751 212.0751 78 206 78 C199.9249 78 195 73.0751 195 67 C195 60.9249 199.9249 56 206 56 C212.0751 56 217 60.9249 217 67 Z"
      /></clipPath
      ><clipPath clipPathUnits="userSpaceOnUse" id="clipPath8"
      ><path d="M143 82 L165 82 L165 104 L143 104 L143 82 Z"
      /></clipPath
      ><clipPath clipPathUnits="userSpaceOnUse" id="clipPath9"
      ><path d="M143 30 L165 30 L165 52 L143 52 L143 30 Z"
      /></clipPath
      ><clipPath clipPathUnits="userSpaceOnUse" id="clipPath10"
      ><path style="fill-rule:evenodd;" d="M362 78 L351 56 L373 56 Z"
      /></clipPath
      ><clipPath clipPathUnits="userSpaceOnUse" id="clipPath11"
      ><path d="M69 119 C69 125.0751 64.0751 130 58 130 C51.9249 130 47 125.0751 47 119 C47 112.9249 51.9249 108 58 108 C64.0751 108 69 112.9249 69 119 Z"
      /></clipPath
    ></defs
    ><g style="fill:white; text-rendering:optimizeSpeed; stroke:white;"
    ><rect x="0" width="455" height="238" y="0" style="stroke:none;"
      /><polygon style="fill:none; stroke:black;" points=" 414 119 362 119"
      /><path d="M414 108 C408.5 113.5 419.5 124.5 414 130" style="fill:none; stroke:black;"
      /><polygon style="fill:none; stroke:black;" points=" 362 119 310 119"
      /><polygon style="fill:none; stroke:black;" points=" 362 119 362 67"
      /><rect x="351" y="108" width="22" style="clip-path:url(#clipPath1); stroke:none;" height="22"
      /><rect x="351" y="108" width="22" style="clip-path:url(#clipPath1); fill:rgb(0,144,188); stroke:none;" height="22"
      /><rect x="351" y="108" width="22" style="clip-path:url(#clipPath1); fill:none; stroke:black;" height="22"
      /><rect x="351" y="108" width="22" style="fill:none; stroke:black;" height="22"
      /><polygon style="fill:none; stroke:black;" points=" 310 119 258 119"
      /><rect x="299" y="108" width="22" style="clip-path:url(#clipPath2); stroke:none;" height="22"
      /><rect x="299" y="108" width="22" style="clip-path:url(#clipPath2); fill:rgb(0,144,188); stroke:none;" height="22"
      /><rect x="299" y="108" width="22" style="clip-path:url(#clipPath2); fill:none; stroke:black;" height="22"
      /><rect x="299" y="108" width="22" style="fill:none; stroke:black;" height="22"
      /><polygon style="fill:none; stroke:black;" points=" 258 119 206 171"
      /><polygon style="fill:none; stroke:black;" points=" 258 119 206 67"
      /><circle style="clip-path:url(#clipPath3); stroke:none;" r="11" cx="258" cy="119"
      /><rect x="247" y="108" width="22" style="clip-path:url(#clipPath3); fill:rgb(0,166,81); stroke:none;" height="22"
      /><rect x="247" y="108" width="22" style="clip-path:url(#clipPath3); fill:none; stroke:black;" height="22"
      /><circle style="fill:none; stroke:black;" r="11" cx="258" cy="119"
      /><polygon style="fill:none; stroke:black;" points=" 206 171 154 197"
      /><polygon style="fill:none; stroke:black;" points=" 206 171 154 145"
      /><circle style="clip-path:url(#clipPath4); stroke:none;" r="11" cx="206" cy="171"
      /><rect x="195" y="160" width="22" style="clip-path:url(#clipPath4); fill:rgb(0,166,81); stroke:none;" height="22"
      /><rect x="195" y="160" width="22" style="clip-path:url(#clipPath4); fill:none; stroke:black;" height="22"
      /><circle style="fill:none; stroke:black;" r="11" cx="206" cy="171"
      /><rect x="143" y="186" width="22" style="clip-path:url(#clipPath5); stroke:none;" height="22"
      /><rect x="143" y="186" width="22" style="clip-path:url(#clipPath5); fill:rgb(0,144,188); stroke:none;" height="22"
      /><rect x="143" y="186" width="22" style="clip-path:url(#clipPath5); fill:none; stroke:black;" height="22"
      /><rect x="143" y="186" width="22" style="fill:none; stroke:black;" height="22"
      /><rect x="143" y="134" width="22" style="clip-path:url(#clipPath6); stroke:none;" height="22"
      /><rect x="143" y="134" width="22" style="clip-path:url(#clipPath6); fill:rgb(0,144,188); stroke:none;" height="22"
      /><rect x="143" y="134" width="22" style="clip-path:url(#clipPath6); fill:none; stroke:black;" height="22"
      /><rect x="143" y="134" width="22" style="fill:none; stroke:black;" height="22"
      /><rect x="188" y="182" width="6" style="stroke:none;" height="9"
    /></g
    ><g style="font-family:'Serif'; text-rendering:optimizeSpeed; "
    ><path style="stroke:none;" d="M189.4219 190.0938 C190.0781 189.375 190.7031 188.7188 191.0312 188.3438 C192.9219 186.3125 193.5312 185.4688 193.5312 184.3594 C193.5312 183.0156 192.7812 182.0781 191.1562 182.0781 C189.9062 182.0781 188.7969 182.7031 188.5938 183.9688 C188.7188 184.2031 188.9062 184.3438 189.1562 184.3438 C189.4688 184.3438 189.6562 184.1094 189.7969 183.5938 L190.0938 182.6719 C190.3906 182.5938 190.6562 182.5625 190.8906 182.5625 C191.9219 182.5625 192.5469 183.3125 192.5469 184.4219 C192.5469 185.4375 191.9844 186.4219 190.7031 187.9062 C190.125 188.5781 189.3906 189.4375 188.6406 190.2812 L188.6406 191 L193.9219 191 L193.9219 190.0938 L189.4219 190.0938 Z"
      /><rect x="172" y="188" width="6" style="fill:white; stroke:none;" height="13"
      /><path style="stroke:none;" d="M174.0938 194.2031 C174.0938 192.6562 174.75 191.8125 175.7969 191.8125 C176.7188 191.8125 177.2656 192.4531 177.2656 193.5156 C177.2656 194.7188 176.5 195.4375 175.1875 195.7031 L175.2969 196.3125 C177.2188 196.2344 177.9375 197.2188 177.9375 198.4375 C177.9375 199.625 177.2344 200.4219 175.9531 200.4219 C175.25 200.4219 174.6562 200.1562 174.0938 199.7188 L174.0938 194.2031 ZM173.2031 200.9062 L173.1094 203.375 L173.2656 203.4844 L174.1562 203.2656 L174.0156 200.0938 C174.5469 200.8438 175.3594 201.1719 176.1719 201.1719 C177.5625 201.1719 178.8594 200.2188 178.8594 198.4844 C178.8594 196.9531 177.875 196.1094 176.125 196 C177.5625 195.6094 178.1875 194.4531 178.1875 193.4844 C178.1875 192.0938 177.1562 191.3125 175.9062 191.3125 C174.2969 191.3125 173.2188 192.5469 173.2188 194.5156 L173.2031 200.9062 Z"
      /><rect x="180" y="164" width="7" style="fill:white; stroke:none;" height="9"
      /><path style="stroke:none;" d="M181 169.5156 L183.9531 165.2656 L183.9531 169.5156 L181 169.5156 ZM186.2812 169.5156 L184.8594 169.5156 L184.8594 164.125 L184.2344 164.125 L180.3438 169.6406 L180.3438 170.1875 L183.9531 170.1875 L183.9531 173 L184.8594 173 L184.8594 170.1875 L186.2812 170.1875 L186.2812 169.5156 Z"
      /><rect x="165" y="154" width="6" style="fill:white; stroke:none;" height="13"
      /><path style="stroke:none;" d="M167.0938 160.2031 C167.0938 158.6562 167.75 157.8125 168.7969 157.8125 C169.7188 157.8125 170.2656 158.4531 170.2656 159.5156 C170.2656 160.7188 169.5 161.4375 168.1875 161.7031 L168.2969 162.3125 C170.2188 162.2344 170.9375 163.2188 170.9375 164.4375 C170.9375 165.625 170.2344 166.4219 168.9531 166.4219 C168.25 166.4219 167.6562 166.1562 167.0938 165.7188 L167.0938 160.2031 ZM166.2031 166.9062 L166.1094 169.375 L166.2656 169.4844 L167.1562 169.2656 L167.0156 166.0938 C167.5469 166.8438 168.3594 167.1719 169.1719 167.1719 C170.5625 167.1719 171.8594 166.2188 171.8594 164.4844 C171.8594 162.9531 170.875 162.1094 169.125 162 C170.5625 161.6094 171.1875 160.4531 171.1875 159.4844 C171.1875 158.0938 170.1562 157.3125 168.9062 157.3125 C167.2969 157.3125 166.2188 158.5469 166.2188 160.5156 L166.2031 166.9062 Z"
      /><polygon style="fill:none;" points=" 206 67 154 93"
      /><polygon style="fill:none;" points=" 206 67 154 41"
      /><circle style="fill:white; clip-path:url(#clipPath7); stroke:none;" r="11" cx="206" cy="67"
      /><rect x="195" y="56" width="22" style="clip-path:url(#clipPath7); fill:rgb(0,166,81); stroke:none;" height="22"
      /><rect x="195" y="56" width="22" style="fill:none; clip-path:url(#clipPath7);" height="22"
      /><circle r="11" style="fill:none;" cx="206" cy="67"
      /><rect x="143" y="82" width="22" style="clip-path:url(#clipPath8); fill:white; stroke:none;" height="22"
      /><rect x="143" y="82" width="22" style="clip-path:url(#clipPath8); fill:rgb(0,144,188); stroke:none;" height="22"
      /><rect x="143" y="82" width="22" style="fill:none; clip-path:url(#clipPath8);" height="22"
      /><rect x="143" width="22" height="22" y="82" style="fill:none;"
      /><rect x="143" y="30" width="22" style="clip-path:url(#clipPath9); fill:white; stroke:none;" height="22"
      /><rect x="143" y="30" width="22" style="clip-path:url(#clipPath9); fill:rgb(0,144,188); stroke:none;" height="22"
      /><rect x="143" y="30" width="22" style="fill:none; clip-path:url(#clipPath9);" height="22"
      /><rect x="143" width="22" height="22" y="30" style="fill:none;"
      /><rect x="188" y="78" width="6" style="fill:white; stroke:none;" height="9"
      /><path style="stroke:none;" d="M189.4219 86.0938 C190.0781 85.375 190.7031 84.7188 191.0312 84.3438 C192.9219 82.3125 193.5312 81.4688 193.5312 80.3594 C193.5312 79.0156 192.7812 78.0781 191.1562 78.0781 C189.9062 78.0781 188.7969 78.7031 188.5938 79.9688 C188.7188 80.2031 188.9062 80.3438 189.1562 80.3438 C189.4688 80.3438 189.6562 80.1094 189.7969 79.5938 L190.0938 78.6719 C190.3906 78.5938 190.6562 78.5625 190.8906 78.5625 C191.9219 78.5625 192.5469 79.3125 192.5469 80.4219 C192.5469 81.4375 191.9844 82.4219 190.7031 83.9062 C190.125 84.5781 189.3906 85.4375 188.6406 86.2812 L188.6406 87 L193.9219 87 L193.9219 86.0938 L189.4219 86.0938 Z"
      /><rect x="172" y="84" width="6" style="fill:white; stroke:none;" height="13"
      /><path style="stroke:none;" d="M174.0938 90.2031 C174.0938 88.6562 174.75 87.8125 175.7969 87.8125 C176.7188 87.8125 177.2656 88.4531 177.2656 89.5156 C177.2656 90.7188 176.5 91.4375 175.1875 91.7031 L175.2969 92.3125 C177.2188 92.2344 177.9375 93.2188 177.9375 94.4375 C177.9375 95.625 177.2344 96.4219 175.9531 96.4219 C175.25 96.4219 174.6562 96.1562 174.0938 95.7188 L174.0938 90.2031 ZM173.2031 96.9062 L173.1094 99.375 L173.2656 99.4844 L174.1562 99.2656 L174.0156 96.0938 C174.5469 96.8438 175.3594 97.1719 176.1719 97.1719 C177.5625 97.1719 178.8594 96.2188 178.8594 94.4844 C178.8594 92.9531 177.875 92.1094 176.125 92 C177.5625 91.6094 178.1875 90.4531 178.1875 89.4844 C178.1875 88.0938 177.1562 87.3125 175.9062 87.3125 C174.2969 87.3125 173.2188 88.5469 173.2188 90.5156 L173.2031 96.9062 Z"
      /><rect x="181" y="60" width="6" style="fill:white; stroke:none;" height="10"
      /><path style="stroke:none;" d="M184.3438 69.6875 C183.2031 69.6875 182.5312 68.5 182.5312 66.2969 C182.5312 66.2188 182.5312 66.125 182.5312 66.0469 C183.0938 65.5 183.7188 65.3125 184.3438 65.3125 C185.3125 65.3125 185.9531 65.9844 185.9531 67.4531 C185.9531 68.9375 185.3125 69.6875 184.3438 69.6875 ZM186.5312 61.0781 C183.3438 61.4531 181.5625 63.7656 181.5625 66.4531 C181.5625 68.7812 182.6094 70.1719 184.3125 70.1719 C185.8438 70.1719 186.9219 69.1094 186.9219 67.2812 C186.9219 65.6875 185.9688 64.6562 184.5625 64.6562 C183.8281 64.6562 183.1406 64.9844 182.5781 65.5781 C182.7969 63.4062 184.0781 61.9688 186.5938 61.3906 L186.5312 61.0781 Z"
      /><rect x="165" y="50" width="6" style="fill:white; stroke:none;" height="13"
      /><path style="stroke:none;" d="M167.0938 56.2031 C167.0938 54.6562 167.75 53.8125 168.7969 53.8125 C169.7188 53.8125 170.2656 54.4531 170.2656 55.5156 C170.2656 56.7188 169.5 57.4375 168.1875 57.7031 L168.2969 58.3125 C170.2188 58.2344 170.9375 59.2188 170.9375 60.4375 C170.9375 61.625 170.2344 62.4219 168.9531 62.4219 C168.25 62.4219 167.6562 62.1562 167.0938 61.7188 L167.0938 56.2031 ZM166.2031 62.9062 L166.1094 65.375 L166.2656 65.4844 L167.1562 65.2656 L167.0156 62.0938 C167.5469 62.8438 168.3594 63.1719 169.1719 63.1719 C170.5625 63.1719 171.8594 62.2188 171.8594 60.4844 C171.8594 58.9531 170.875 58.1094 169.125 58 C170.5625 57.6094 171.1875 56.4531 171.1875 55.4844 C171.1875 54.0938 170.1562 53.3125 168.9062 53.3125 C167.2969 53.3125 166.2188 54.5469 166.2188 56.5156 L166.2031 62.9062 Z"
      /><rect x="244" y="136" width="6" style="fill:white; stroke:none;" height="10"
      /><path style="stroke:none;" d="M246.2344 137.6562 C246.5156 137.5938 246.7656 137.5625 247.0156 137.5625 C248.0625 137.5625 248.6719 138.1719 248.6719 139.2656 C248.6719 140.4375 247.9062 141.1094 246.7031 141.1094 L246.1875 141.1094 L246.1875 141.6406 L246.7969 141.6406 C248.2188 141.6406 248.9062 142.4219 248.9062 143.6406 C248.9062 144.8438 248.1719 145.6875 246.875 145.6875 C246.6094 145.6875 246.3125 145.6562 246.0156 145.5625 L245.7812 144.8125 C245.625 144.2812 245.5 144.0469 245.1406 144.0469 C244.8906 144.0469 244.7031 144.1719 244.5781 144.4219 C244.8438 145.6406 245.7812 146.1719 247.0312 146.1719 C248.7188 146.1719 249.875 145.125 249.875 143.7031 C249.875 142.5 249.2031 141.625 247.7969 141.375 C248.9531 141.0156 249.6094 140.2031 249.6094 139.2031 C249.6094 137.9219 248.6719 137.0781 247.1875 137.0781 C246.0469 137.0781 245.0625 137.5938 244.7969 138.6875 C244.9062 139 245.1094 139.1094 245.3594 139.1094 C245.7344 139.1094 245.8906 138.8906 246 138.4062 L246.2344 137.6562 Z"
      /><rect x="224" y="156" width="8" style="fill:white; stroke:none;" height="8"
      /><path style="stroke:none;" d="M228.9844 161.7031 C228.9375 162.8906 228.1562 163.6562 227.3125 163.6562 C226.2656 163.6562 225.5 162.6875 225.5 160.7188 C225.5 159.2812 226.1562 158.1562 227.3438 158.1562 C228.1406 158.1562 228.7812 158.6875 229.0938 159.6406 L228.9844 161.7031 ZM230.9062 163.2812 C230.7344 163.375 230.5469 163.4219 230.3438 163.4219 C229.9531 163.4219 229.75 163.2188 229.75 162.4219 C229.75 161.4844 229.9688 159.5312 230.1875 157.8281 L230.0312 157.7188 L229.2344 157.9219 L229.1406 158.7969 C228.7812 158.0312 228.1562 157.6562 227.3906 157.6562 C226.0469 157.6562 224.5625 158.8438 224.5625 160.9531 C224.5625 163.0938 225.7188 164.1719 227.1406 164.1719 C228.0156 164.1719 228.6875 163.8125 229.0938 162.9844 C229.2031 163.8594 229.5156 164.1719 230.0156 164.1719 C230.4688 164.1719 230.7969 163.9062 231.0156 163.5625 L230.9062 163.2812 Z"
      /><rect x="232" y="103" width="6" style="fill:white; stroke:none;" height="10"
      /><path style="stroke:none;" d="M235.3438 112.6875 C234.2031 112.6875 233.5312 111.5 233.5312 109.2969 C233.5312 109.2188 233.5312 109.125 233.5312 109.0469 C234.0938 108.5 234.7188 108.3125 235.3438 108.3125 C236.3125 108.3125 236.9531 108.9844 236.9531 110.4531 C236.9531 111.9375 236.3125 112.6875 235.3438 112.6875 ZM237.5312 104.0781 C234.3438 104.4531 232.5625 106.7656 232.5625 109.4531 C232.5625 111.7812 233.6094 113.1719 235.3125 113.1719 C236.8438 113.1719 237.9219 112.1094 237.9219 110.2812 C237.9219 108.6875 236.9688 107.6562 235.5625 107.6562 C234.8281 107.6562 234.1406 107.9844 233.5781 108.5781 C233.7969 106.4062 235.0781 104.9688 237.5938 104.3906 L237.5312 104.0781 Z"
      /><rect x="213" y="85" width="8" style="fill:white; stroke:none;" height="8"
      /><path style="stroke:none;" d="M217.9844 90.7031 C217.9375 91.8906 217.1562 92.6562 216.3125 92.6562 C215.2656 92.6562 214.5 91.6875 214.5 89.7188 C214.5 88.2812 215.1562 87.1562 216.3438 87.1562 C217.1406 87.1562 217.7812 87.6875 218.0938 88.6406 L217.9844 90.7031 ZM219.9062 92.2812 C219.7344 92.375 219.5469 92.4219 219.3438 92.4219 C218.9531 92.4219 218.75 92.2188 218.75 91.4219 C218.75 90.4844 218.9688 88.5312 219.1875 86.8281 L219.0312 86.7188 L218.2344 86.9219 L218.1406 87.7969 C217.7812 87.0312 217.1562 86.6562 216.3906 86.6562 C215.0469 86.6562 213.5625 87.8438 213.5625 89.9531 C213.5625 92.0938 214.7188 93.1719 216.1406 93.1719 C217.0156 93.1719 217.6875 92.8125 218.0938 91.9844 C218.2031 92.8594 218.5156 93.1719 219.0156 93.1719 C219.4688 93.1719 219.7969 92.9062 220.0156 92.5625 L219.9062 92.2812 Z"
      /><rect x="287" y="122" width="7" style="fill:white; stroke:none;" height="9"
      /><path style="stroke:none;" d="M288 127.5156 L290.9531 123.2656 L290.9531 127.5156 L288 127.5156 ZM293.2812 127.5156 L291.8594 127.5156 L291.8594 122.125 L291.2344 122.125 L287.3438 127.6406 L287.3438 128.1875 L290.9531 128.1875 L290.9531 131 L291.8594 131 L291.8594 128.1875 L293.2812 128.1875 L293.2812 127.5156 Z"
      /><rect x="274" y="120" width="6" style="fill:white; stroke:none;" height="13"
      /><path style="stroke:none;" d="M276.0938 126.2031 C276.0938 124.6562 276.75 123.8125 277.7969 123.8125 C278.7188 123.8125 279.2656 124.4531 279.2656 125.5156 C279.2656 126.7188 278.5 127.4375 277.1875 127.7031 L277.2969 128.3125 C279.2188 128.2344 279.9375 129.2188 279.9375 130.4375 C279.9375 131.625 279.2344 132.4219 277.9531 132.4219 C277.25 132.4219 276.6562 132.1562 276.0938 131.7188 L276.0938 126.2031 ZM275.2031 132.9062 L275.1094 135.375 L275.2656 135.4844 L276.1562 135.2656 L276.0156 132.0938 C276.5469 132.8438 277.3594 133.1719 278.1719 133.1719 C279.5625 133.1719 280.8594 132.2188 280.8594 130.4844 C280.8594 128.9531 279.875 128.1094 278.125 128 C279.5625 127.6094 280.1875 126.4531 280.1875 125.4844 C280.1875 124.0938 279.1562 123.3125 277.9062 123.3125 C276.2969 123.3125 275.2188 124.5469 275.2188 126.5156 L275.2031 132.9062 Z"
      /><polygon style="fill:white; clip-path:url(#clipPath10); stroke:none;" points=" 362 78 351 56 373 56"
      /><rect x="351" y="56" width="22" style="clip-path:url(#clipPath10); fill:rgb(237,28,36); stroke:none;" height="22"
      /><rect x="351" y="56" width="22" style="fill:none; clip-path:url(#clipPath10);" height="22"
      /><polygon style="fill:none;" points=" 362 78 351 56 373 56"
      /><rect x="339" y="122" width="7" style="fill:white; stroke:none;" height="9"
      /><path style="stroke:none;" d="M340 127.5156 L342.9531 123.2656 L342.9531 127.5156 L340 127.5156 ZM345.2812 127.5156 L343.8594 127.5156 L343.8594 122.125 L343.2344 122.125 L339.3438 127.6406 L339.3438 128.1875 L342.9531 128.1875 L342.9531 131 L343.8594 131 L343.8594 128.1875 L345.2812 128.1875 L345.2812 127.5156 Z"
      /><rect x="326" y="120" width="6" style="fill:white; stroke:none;" height="13"
      /><path style="stroke:none;" d="M328.0938 126.2031 C328.0938 124.6562 328.75 123.8125 329.7969 123.8125 C330.7188 123.8125 331.2656 124.4531 331.2656 125.5156 C331.2656 126.7188 330.5 127.4375 329.1875 127.7031 L329.2969 128.3125 C331.2188 128.2344 331.9375 129.2188 331.9375 130.4375 C331.9375 131.625 331.2344 132.4219 329.9531 132.4219 C329.25 132.4219 328.6562 132.1562 328.0938 131.7188 L328.0938 126.2031 ZM327.2031 132.9062 L327.1094 135.375 L327.2656 135.4844 L328.1562 135.2656 L328.0156 132.0938 C328.5469 132.8438 329.3594 133.1719 330.1719 133.1719 C331.5625 133.1719 332.8594 132.2188 332.8594 130.4844 C332.8594 128.9531 331.875 128.1094 330.125 128 C331.5625 127.6094 332.1875 126.4531 332.1875 125.4844 C332.1875 124.0938 331.1562 123.3125 329.9062 123.3125 C328.2969 123.3125 327.2188 124.5469 327.2188 126.5156 L327.2031 132.9062 Z"
      /><rect x="351" y="95" width="6" style="fill:white; stroke:none;" height="10"
      /><path style="stroke:none;" d="M354.3438 104.6875 C353.2031 104.6875 352.5312 103.5 352.5312 101.2969 C352.5312 101.2188 352.5312 101.125 352.5312 101.0469 C353.0938 100.5 353.7188 100.3125 354.3438 100.3125 C355.3125 100.3125 355.9531 100.9844 355.9531 102.4531 C355.9531 103.9375 355.3125 104.6875 354.3438 104.6875 ZM356.5312 96.0781 C353.3438 96.4531 351.5625 98.7656 351.5625 101.4531 C351.5625 103.7812 352.6094 105.1719 354.3125 105.1719 C355.8438 105.1719 356.9219 104.1094 356.9219 102.2812 C356.9219 100.6875 355.9688 99.6562 354.5625 99.6562 C353.8281 99.6562 353.1406 99.9844 352.5781 100.5781 C352.7969 98.4062 354.0781 96.9688 356.5938 96.3906 L356.5312 96.0781 Z"
      /><rect x="350" y="82" width="8" style="fill:white; stroke:none;" height="8"
      /><path style="stroke:none;" d="M354.9844 87.7031 C354.9375 88.8906 354.1562 89.6562 353.3125 89.6562 C352.2656 89.6562 351.5 88.6875 351.5 86.7188 C351.5 85.2812 352.1562 84.1562 353.3438 84.1562 C354.1406 84.1562 354.7812 84.6875 355.0938 85.6406 L354.9844 87.7031 ZM356.9062 89.2812 C356.7344 89.375 356.5469 89.4219 356.3438 89.4219 C355.9531 89.4219 355.75 89.2188 355.75 88.4219 C355.75 87.4844 355.9688 85.5312 356.1875 83.8281 L356.0312 83.7188 L355.2344 83.9219 L355.1406 84.7969 C354.7812 84.0312 354.1562 83.6562 353.3906 83.6562 C352.0469 83.6562 350.5625 84.8438 350.5625 86.9531 C350.5625 89.0938 351.7188 90.1719 353.1406 90.1719 C354.0156 90.1719 354.6875 89.8125 355.0938 88.9844 C355.2031 89.8594 355.5156 90.1719 356.0156 90.1719 C356.4688 90.1719 356.7969 89.9062 357.0156 89.5625 L356.9062 89.2812 Z"
      /><rect x="378" y="120" width="6" style="fill:white; stroke:none;" height="13"
      /><path style="stroke:none;" d="M380.0938 126.2031 C380.0938 124.6562 380.75 123.8125 381.7969 123.8125 C382.7188 123.8125 383.2656 124.4531 383.2656 125.5156 C383.2656 126.7188 382.5 127.4375 381.1875 127.7031 L381.2969 128.3125 C383.2188 128.2344 383.9375 129.2188 383.9375 130.4375 C383.9375 131.625 383.2344 132.4219 381.9531 132.4219 C381.25 132.4219 380.6562 132.1562 380.0938 131.7188 L380.0938 126.2031 ZM379.2031 132.9062 L379.1094 135.375 L379.2656 135.4844 L380.1562 135.2656 L380.0156 132.0938 C380.5469 132.8438 381.3594 133.1719 382.1719 133.1719 C383.5625 133.1719 384.8594 132.2188 384.8594 130.4844 C384.8594 128.9531 383.875 128.1094 382.125 128 C383.5625 127.6094 384.1875 126.4531 384.1875 125.4844 C384.1875 124.0938 383.1562 123.3125 381.9062 123.3125 C380.2969 123.3125 379.2188 124.5469 379.2188 126.5156 L379.2031 132.9062 Z"
      /><polygon style="fill:none;" points=" 143 208 132 208 132 30 143 30 132 30 132 208"
      /><polygon style="fill:none;" points=" 110 119 58 119"
      /><circle style="fill:white; clip-path:url(#clipPath11); stroke:none;" r="11" cx="58" cy="119"
      /><rect x="47" y="108" width="22" style="clip-path:url(#clipPath11); fill:rgb(255,212,0); stroke:none;" height="22"
      /><rect x="47" y="108" width="22" style="fill:none; clip-path:url(#clipPath11);" height="22"
      /><circle r="11" style="fill:none;" cx="58" cy="119"
      /><rect x="87" y="122" width="7" style="fill:white; stroke:none;" height="9"
      /><path style="stroke:none;" d="M88 127.5156 L90.9531 123.2656 L90.9531 127.5156 L88 127.5156 ZM93.2812 127.5156 L91.8594 127.5156 L91.8594 122.125 L91.2344 122.125 L87.3438 127.6406 L87.3438 128.1875 L90.9531 128.1875 L90.9531 131 L91.8594 131 L91.8594 128.1875 L93.2812 128.1875 L93.2812 127.5156 Z"
      /><rect x="74" y="120" width="6" style="fill:white; stroke:none;" height="13"
      /><path style="stroke:none;" d="M76.0938 126.2031 C76.0938 124.6562 76.75 123.8125 77.7969 123.8125 C78.7188 123.8125 79.2656 124.4531 79.2656 125.5156 C79.2656 126.7188 78.5 127.4375 77.1875 127.7031 L77.2969 128.3125 C79.2188 128.2344 79.9375 129.2188 79.9375 130.4375 C79.9375 131.625 79.2344 132.4219 77.9531 132.4219 C77.25 132.4219 76.6562 132.1562 76.0938 131.7188 L76.0938 126.2031 ZM75.2031 132.9062 L75.1094 135.375 L75.2656 135.4844 L76.1562 135.2656 L76.0156 132.0938 C76.5469 132.8438 77.3594 133.1719 78.1719 133.1719 C79.5625 133.1719 80.8594 132.2188 80.8594 130.4844 C80.8594 128.9531 79.875 128.1094 78.125 128 C79.5625 127.6094 80.1875 126.4531 80.1875 125.4844 C80.1875 124.0938 79.1562 123.3125 77.9062 123.3125 C76.2969 123.3125 75.2188 124.5469 75.2188 126.5156 L75.2031 132.9062 Z"
      /><path style="stroke:none;" d="M32.7031 124.1875 C34.5156 124.1875 35.9844 123.0938 35.9844 121.25 C35.9844 119.8594 35.0156 118.9375 33.8125 118.6562 L33.8125 118.5938 C34.8906 118.1875 35.6406 117.3594 35.6406 116.125 C35.6406 114.5 34.375 113.5469 32.6562 113.5469 C31.4688 113.5469 30.5469 114.0625 29.7812 114.7812 L30.4688 115.5938 C31.0469 115 31.7656 114.5938 32.5938 114.5938 C33.6562 114.5938 34.3281 115.2344 34.3281 116.2188 C34.3281 117.3281 33.6094 118.1719 31.4844 118.1719 L31.4844 119.1562 C33.8594 119.1562 34.6875 119.9844 34.6875 121.2031 C34.6875 122.3906 33.8125 123.125 32.5938 123.125 C31.4375 123.125 30.6562 122.5781 30.0469 121.9375 L29.4062 122.7812 C30.0781 123.5156 31.0938 124.1875 32.7031 124.1875 ZM36.9731 124 L38.3168 124 L39.3481 122.2188 C39.6137 121.7656 39.8637 121.2969 40.1293 120.8594 L40.2075 120.8594 C40.4731 121.2969 40.7543 121.7656 41.0043 122.2188 L42.1293 124 L43.5356 124 L41.02 120.1562 L43.3325 116.3906 L42.0043 116.3906 L41.0668 118.0625 C40.8481 118.5 40.6137 118.9219 40.3793 119.3438 L40.3325 119.3438 C40.0668 118.9219 39.8012 118.5 39.5668 118.0625 L38.5512 116.3906 L37.1762 116.3906 L39.4887 120.0312 L36.9731 124 Z"
    /></g
  ></g
></svg
>
