<?xml version="1.0"?>
<!DOCTYPE svg PUBLIC '-//W3C//DTD SVG 1.0//EN'
          'http://www.w3.org/TR/2001/REC-SVG-20010904/DTD/svg10.dtd'>
<svg xmlns:xlink="http://www.w3.org/1999/xlink" style="fill-opacity:1; color-rendering:auto; color-interpolation:auto; text-rendering:auto; stroke:black; stroke-linecap:square; stroke-miterlimit:10; shape-rendering:auto; stroke-opacity:1; fill:black; stroke-dasharray:none; font-weight:normal; stroke-width:1; font-family:'Dialog'; font-style:normal; stroke-linejoin:miter; font-size:12px; stroke-dashoffset:0; image-rendering:auto;" viewBox="0 0 143 209" xmlns="http://www.w3.org/2000/svg"
><!--Generated by the Batik Graphics2D SVG Generator--><defs id="genericDefs"
  /><g
  ><defs id="defs1"
    ><clipPath clipPathUnits="userSpaceOnUse" id="clipPath1"
      ><path d="M69 168 C69 174.0751 64.0751 179 58 179 C51.9249 179 47 174.0751 47 168 C47 161.9249 51.9249 157 58 157 C64.0751 157 69 161.9249 69 168 Z"
      /></clipPath
      ><clipPath clipPathUnits="userSpaceOnUse" id="clipPath2"
      ><path d="M47 82 L69 82 L69 104 L47 104 L47 82 Z"
      /></clipPath
      ><clipPath clipPathUnits="userSpaceOnUse" id="clipPath3"
      ><path d="M47 30 L69 30 L69 52 L47 52 L47 30 Z"
      /></clipPath
    ></defs
    ><g style="fill:white; text-rendering:optimizeSpeed; stroke:white;"
    ><rect x="0" width="143" height="209" y="0" style="stroke:none;"
      /><circle style="clip-path:url(#clipPath1); stroke:none;" r="11" cx="58" cy="168"
      /><rect x="47" y="157" width="22" style="clip-path:url(#clipPath1); stroke:none;" height="22"
      /><rect x="47" y="157" width="22" style="clip-path:url(#clipPath1); fill:none; stroke:black;" height="22"
      /><circle style="fill:none; stroke:black;" r="11" cx="58" cy="168"
    /></g
    ><g style="font-family:'SansSerif'; text-rendering:optimizeSpeed; "
    ><path style="stroke:none;" d="M52.5156 144.3594 C53.5781 144.3594 54.1094 145.1094 54.1094 146.2969 C54.1094 147.5 53.4531 148.2969 52.6094 148.2969 C51.5156 148.2969 50.8438 147.3125 50.7188 145.4844 C51.25 144.6875 51.9688 144.3594 52.5156 144.3594 ZM52.6094 149.1562 C53.9844 149.1562 55.125 148 55.125 146.2969 C55.125 144.4688 54.1875 143.5469 52.7031 143.5469 C52 143.5469 51.2344 143.9531 50.6875 144.6094 C50.7344 141.875 51.7656 140.9531 52.9531 140.9531 C53.5 140.9531 54.0312 141.2031 54.375 141.625 L54.9688 140.9375 C54.5 140.4219 53.8438 140.0312 52.9219 140.0312 C51.2188 140.0312 49.6719 141.3594 49.6719 144.7969 C49.6719 147.7031 50.9219 149.1562 52.6094 149.1562 ZM56.7694 149 L57.8632 149 L57.8632 144.2656 C58.4569 143.5938 59.0038 143.2812 59.5038 143.2812 C60.3319 143.2812 60.7069 143.7969 60.7069 145.0156 L60.7069 149 L61.8007 149 L61.8007 144.2656 C62.41 143.5938 62.9413 143.2812 63.4413 143.2812 C64.2694 143.2812 64.66 143.7969 64.66 145.0156 L64.66 149 L65.7538 149 L65.7538 144.875 C65.7538 143.2031 65.1132 142.3125 63.7694 142.3125 C62.9725 142.3125 62.3007 142.8281 61.6288 143.5625 C61.3632 142.7969 60.8163 142.3125 59.8163 142.3125 C59.0507 142.3125 58.3632 142.8125 57.8007 143.4375 L57.7538 143.4375 L57.66 142.4844 L56.7694 142.4844 L56.7694 149 Z"
      /><rect x="74" y="155" width="5" style="fill:white; stroke:none;" height="10"
      /><path style="stroke:none;" d="M75.8906 163.6875 C75.4844 163.6875 75.1562 164.0469 75.1562 164.4219 C75.1562 164.8125 75.4844 165.1562 75.8906 165.1562 C76.2969 165.1562 76.6406 164.8125 76.6406 164.4219 C76.6406 164.0469 76.2969 163.6875 75.8906 163.6875 ZM77.4688 157.5781 C77.7188 157.8906 77.875 158.2656 77.8906 158.6562 C77.8906 159.1875 77.625 159.5 77.0312 159.7656 L76.4062 160.0156 C75.6406 160.3125 75.3906 160.5469 75.3906 160.9375 C75.3906 161.1094 75.4531 161.3438 75.5781 161.8125 L75.7344 162.3438 L76.1094 162.3438 L76.0938 161.5312 C76.0938 161.0938 76.2031 160.9688 76.7812 160.7344 L77.2031 160.5625 C78.0312 160.2188 78.4531 159.6875 78.4531 158.8438 C78.4531 157.1562 76.6562 156.1875 75.5 156.0312 C75.1094 156.125 74.9062 156.2969 74.9062 156.6406 C74.9062 156.9375 75.0625 157.1562 75.7188 157.2656 L77.4688 157.5781 Z"
      /><rect x="74" y="171" width="5" style="fill:white; stroke:none;" height="10"
      /><path style="stroke:none;" d="M75.8906 179.6875 C75.4844 179.6875 75.1562 180.0469 75.1562 180.4219 C75.1562 180.8125 75.4844 181.1562 75.8906 181.1562 C76.2969 181.1562 76.6406 180.8125 76.6406 180.4219 C76.6406 180.0469 76.2969 179.6875 75.8906 179.6875 ZM77.4688 173.5781 C77.7188 173.8906 77.875 174.2656 77.8906 174.6562 C77.8906 175.1875 77.625 175.5 77.0312 175.7656 L76.4062 176.0156 C75.6406 176.3125 75.3906 176.5469 75.3906 176.9375 C75.3906 177.1094 75.4531 177.3438 75.5781 177.8125 L75.7344 178.3438 L76.1094 178.3438 L76.0938 177.5312 C76.0938 177.0938 76.2031 176.9688 76.7812 176.7344 L77.2031 176.5625 C78.0312 176.2188 78.4531 175.6875 78.4531 174.8438 C78.4531 173.1562 76.6562 172.1875 75.5 172.0312 C75.1094 172.125 74.9062 172.2969 74.9062 172.6406 C74.9062 172.9375 75.0625 173.1562 75.7188 173.2656 L77.4688 173.5781 Z"
      /><rect x="47" y="82" width="22" style="clip-path:url(#clipPath2); fill:white; stroke:none;" height="22"
      /><rect x="47" y="82" width="22" style="clip-path:url(#clipPath2); fill:white; stroke:none;" height="22"
      /><rect x="47" y="82" width="22" style="fill:none; clip-path:url(#clipPath2);" height="22"
      /><rect x="47" width="22" height="22" y="82" style="fill:none;"
      /><path style="stroke:none;" d="M58 95.125 C59.3281 95.125 60.7344 94.0938 61.125 92.2969 C61.5 90.4844 60.5469 89.4375 59.2188 89.4375 C57.8906 89.4375 56.4688 90.4844 56.0938 92.2969 C55.7031 94.0938 56.6719 95.125 58 95.125 ZM58.1719 94.375 C57.2344 94.375 56.7656 93.5469 57.0312 92.2969 C57.2969 91.0469 58.1094 90.1875 59.0469 90.1875 C59.9844 90.1875 60.4531 91.0469 60.1875 92.2969 C59.9219 93.5469 59.1094 94.375 58.1719 94.375 Z"
      /><rect x="74" y="80" width="5" style="fill:white; stroke:none;" height="10"
      /><path style="stroke:none;" d="M75.8906 88.6875 C75.4844 88.6875 75.1562 89.0469 75.1562 89.4219 C75.1562 89.8125 75.4844 90.1562 75.8906 90.1562 C76.2969 90.1562 76.6406 89.8125 76.6406 89.4219 C76.6406 89.0469 76.2969 88.6875 75.8906 88.6875 ZM77.4688 82.5781 C77.7188 82.8906 77.875 83.2656 77.8906 83.6562 C77.8906 84.1875 77.625 84.5 77.0312 84.7656 L76.4062 85.0156 C75.6406 85.3125 75.3906 85.5469 75.3906 85.9375 C75.3906 86.1094 75.4531 86.3438 75.5781 86.8125 L75.7344 87.3438 L76.1094 87.3438 L76.0938 86.5312 C76.0938 86.0938 76.2031 85.9688 76.7812 85.7344 L77.2031 85.5625 C78.0312 85.2188 78.4531 84.6875 78.4531 83.8438 C78.4531 82.1562 76.6562 81.1875 75.5 81.0312 C75.1094 81.125 74.9062 81.2969 74.9062 81.6406 C74.9062 81.9375 75.0625 82.1562 75.7188 82.2656 L77.4688 82.5781 Z"
      /><rect x="74" y="96" width="5" style="fill:white; stroke:none;" height="10"
      /><path style="stroke:none;" d="M75.8906 104.6875 C75.4844 104.6875 75.1562 105.0469 75.1562 105.4219 C75.1562 105.8125 75.4844 106.1562 75.8906 106.1562 C76.2969 106.1562 76.6406 105.8125 76.6406 105.4219 C76.6406 105.0469 76.2969 104.6875 75.8906 104.6875 ZM77.4688 98.5781 C77.7188 98.8906 77.875 99.2656 77.8906 99.6562 C77.8906 100.1875 77.625 100.5 77.0312 100.7656 L76.4062 101.0156 C75.6406 101.3125 75.3906 101.5469 75.3906 101.9375 C75.3906 102.1094 75.4531 102.3438 75.5781 102.8125 L75.7344 103.3438 L76.1094 103.3438 L76.0938 102.5312 C76.0938 102.0938 76.2031 101.9688 76.7812 101.7344 L77.2031 101.5625 C78.0312 101.2188 78.4531 100.6875 78.4531 99.8438 C78.4531 98.1562 76.6562 97.1875 75.5 97.0312 C75.1094 97.125 74.9062 97.2969 74.9062 97.6406 C74.9062 97.9375 75.0625 98.1562 75.7188 98.2656 L77.4688 98.5781 Z"
      /><rect x="47" y="30" width="22" style="clip-path:url(#clipPath3); fill:white; stroke:none;" height="22"
      /><rect x="47" y="30" width="22" style="clip-path:url(#clipPath3); fill:white; stroke:none;" height="22"
      /><rect x="47" y="30" width="22" style="fill:none; clip-path:url(#clipPath3);" height="22"
      /><rect x="47" width="22" height="22" y="30" style="fill:none;"
      /><rect x="74" y="28" width="5" style="fill:white; stroke:none;" height="10"
      /><path style="stroke:none;" d="M75.8906 36.6875 C75.4844 36.6875 75.1562 37.0469 75.1562 37.4219 C75.1562 37.8125 75.4844 38.1562 75.8906 38.1562 C76.2969 38.1562 76.6406 37.8125 76.6406 37.4219 C76.6406 37.0469 76.2969 36.6875 75.8906 36.6875 ZM77.4688 30.5781 C77.7188 30.8906 77.875 31.2656 77.8906 31.6562 C77.8906 32.1875 77.625 32.5 77.0312 32.7656 L76.4062 33.0156 C75.6406 33.3125 75.3906 33.5469 75.3906 33.9375 C75.3906 34.1094 75.4531 34.3438 75.5781 34.8125 L75.7344 35.3438 L76.1094 35.3438 L76.0938 34.5312 C76.0938 34.0938 76.2031 33.9688 76.7812 33.7344 L77.2031 33.5625 C78.0312 33.2188 78.4531 32.6875 78.4531 31.8438 C78.4531 30.1562 76.6562 29.1875 75.5 29.0312 C75.1094 29.125 74.9062 29.2969 74.9062 29.6406 C74.9062 29.9375 75.0625 30.1562 75.7188 30.2656 L77.4688 30.5781 Z"
      /><rect x="74" y="44" width="5" style="fill:white; stroke:none;" height="10"
      /><path style="stroke:none;" d="M75.8906 52.6875 C75.4844 52.6875 75.1562 53.0469 75.1562 53.4219 C75.1562 53.8125 75.4844 54.1562 75.8906 54.1562 C76.2969 54.1562 76.6406 53.8125 76.6406 53.4219 C76.6406 53.0469 76.2969 52.6875 75.8906 52.6875 ZM77.4688 46.5781 C77.7188 46.8906 77.875 47.2656 77.8906 47.6562 C77.8906 48.1875 77.625 48.5 77.0312 48.7656 L76.4062 49.0156 C75.6406 49.3125 75.3906 49.5469 75.3906 49.9375 C75.3906 50.1094 75.4531 50.3438 75.5781 50.8125 L75.7344 51.3438 L76.1094 51.3438 L76.0938 50.5312 C76.0938 50.0938 76.2031 49.9688 76.7812 49.7344 L77.2031 49.5625 C78.0312 49.2188 78.4531 48.6875 78.4531 47.8438 C78.4531 46.1562 76.6562 45.1875 75.5 45.0312 C75.1094 45.125 74.9062 45.2969 74.9062 45.6406 C74.9062 45.9375 75.0625 46.1562 75.7188 46.2656 L77.4688 46.5781 Z"
      /><path style="stroke:none;" d="M30.6094 41.1562 L32.9531 37.6562 C33.2344 37.1406 33.5156 36.6406 33.7812 36.1406 L33.8281 36.1406 C33.7969 36.6719 33.7656 37.5 33.7656 38 L33.7656 41.1562 L30.6094 41.1562 ZM33.7656 45 L34.9688 45 L34.9688 42.1719 L36.3281 42.1719 L36.3281 41.1562 L34.9688 41.1562 L34.9688 34.7188 L33.5469 34.7188 L29.2812 41.3281 L29.2812 42.1719 L33.7656 42.1719 L33.7656 45 ZM36.9731 45 L38.3168 45 L39.3481 43.2188 C39.6137 42.7656 39.8637 42.2969 40.1293 41.8594 L40.2075 41.8594 C40.4731 42.2969 40.7543 42.7656 41.0043 43.2188 L42.1293 45 L43.5356 45 L41.02 41.1562 L43.3325 37.3906 L42.0043 37.3906 L41.0668 39.0625 C40.8481 39.5 40.6137 39.9219 40.3793 40.3438 L40.3325 40.3438 C40.0668 39.9219 39.8012 39.5 39.5668 39.0625 L38.5512 37.3906 L37.1762 37.3906 L39.4887 41.0312 L36.9731 45 Z"
    /></g
  ></g
></svg
>
