<?xml version="1.0"?>
<!DOCTYPE svg PUBLIC '-//W3C//DTD SVG 1.0//EN'
          'http://www.w3.org/TR/2001/REC-SVG-20010904/DTD/svg10.dtd'>
<svg xmlns:xlink="http://www.w3.org/1999/xlink" style="fill-opacity:1; color-rendering:auto; color-interpolation:auto; text-rendering:auto; stroke:black; stroke-linecap:square; stroke-miterlimit:10; shape-rendering:auto; stroke-opacity:1; fill:black; stroke-dasharray:none; font-weight:normal; stroke-width:1; font-family:'Dialog'; font-style:normal; stroke-linejoin:miter; font-size:12px; stroke-dashoffset:0; image-rendering:auto;" viewBox="0 0 295 180" xmlns="http://www.w3.org/2000/svg"
><!--Generated by the Batik Graphics2D SVG Generator--><defs id="genericDefs"
  /><g
  ><defs id="defs1"
    ><clipPath clipPathUnits="userSpaceOnUse" id="clipPath1"
      ><path d="M213 101 C213 107.0751 208.0751 112 202 112 C195.9249 112 191 107.0751 191 101 C191 94.9249 195.9249 90 202 90 C208.0751 90 213 94.9249 213 101 Z"
      /></clipPath
      ><clipPath clipPathUnits="userSpaceOnUse" id="clipPath2"
      ><path d="M161 101 C161 107.0751 156.0751 112 150 112 C143.9249 112 139 107.0751 139 101 C139 94.9249 143.9249 90 150 90 C156.0751 90 161 94.9249 161 101 Z"
      /></clipPath
      ><clipPath clipPathUnits="userSpaceOnUse" id="clipPath3"
      ><path d="M87 90 L109 90 L109 112 L87 112 L87 90 Z"
      /></clipPath
      ><clipPath clipPathUnits="userSpaceOnUse" id="clipPath4"
      ><path style="fill-rule:evenodd;" d="M43 128 L54 139 L43 150 L32 139 Z"
      /></clipPath
      ><clipPath clipPathUnits="userSpaceOnUse" id="clipPath5"
      ><path style="fill-rule:evenodd;" d="M43 53 L54 64 L43 75 L32 64 Z"
      /></clipPath
    ></defs
    ><g style="fill:white; text-rendering:optimizeSpeed; stroke:white;"
    ><rect x="0" width="295" height="180" y="0" style="stroke:none;"
      /><polygon style="fill:none; stroke:black;" points=" 254 101 202 101"
      /><path d="M254 90 C248.5 95.5 259.5 106.5 254 112" style="fill:none; stroke:black;"
      /><polygon style="fill:none; stroke:black;" points=" 202 101 150 101"
      /><circle style="clip-path:url(#clipPath1); stroke:none;" r="11" cx="202" cy="101"
      /><rect x="191" y="90" width="22" style="clip-path:url(#clipPath1); fill:rgb(0,144,188); stroke:none;" height="22"
      /><rect x="191" y="90" width="22" style="clip-path:url(#clipPath1); fill:none; stroke:black;" height="22"
      /><circle style="fill:none; stroke:black;" r="11" cx="202" cy="101"
      /><polygon style="fill:none; stroke:black;" points=" 150 101 98 101"
      /><circle style="clip-path:url(#clipPath2); stroke:none;" r="11" cx="150" cy="101"
      /><rect x="139" y="90" width="22" style="clip-path:url(#clipPath2); fill:rgb(255,212,0); stroke:none;" height="22"
      /><rect x="139" y="90" width="22" style="clip-path:url(#clipPath2); fill:none; stroke:black;" height="22"
      /><circle style="fill:none; stroke:black;" r="11" cx="150" cy="101"
      /><polygon style="fill:none; stroke:black;" points=" 98 101 43 139"
      /><polygon style="fill:none; stroke:black;" points=" 98 101 43 64"
      /><rect x="87" y="90" width="22" style="clip-path:url(#clipPath3); stroke:none;" height="22"
      /><rect x="87" y="90" width="22" style="clip-path:url(#clipPath3); fill:rgb(255,212,0); stroke:none;" height="22"
      /><rect x="87" y="90" width="22" style="clip-path:url(#clipPath3); fill:none; stroke:black;" height="22"
      /><rect x="87" y="90" width="22" style="fill:none; stroke:black;" height="22"
      /><polygon style="clip-path:url(#clipPath4); stroke:none;" points=" 43 128 54 139 43 150 32 139"
      /><rect x="32" y="128" width="22" style="clip-path:url(#clipPath4); fill:rgb(143,204,233); stroke:none;" height="22"
      /><rect x="32" y="128" width="22" style="clip-path:url(#clipPath4); fill:none; stroke:black;" height="22"
      /><polygon style="fill:none; stroke:black;" points=" 43 128 54 139 43 150 32 139"
      /><rect x="30" y="110" width="25" style="stroke:none;" height="10"
    /></g
    ><g style="text-rendering:optimizeSpeed; font-size:14px; font-family:'SansSerif';"
    ><path style="stroke:none;" d="M33.9062 121.1875 C35.8438 121.1875 37.125 120.0156 37.125 118.5156 C37.125 117.125 36.2812 116.3594 35.3906 115.8281 L35.3906 115.7656 C36 115.2812 36.7656 114.3594 36.7656 113.2812 C36.7656 111.7031 35.7031 110.5781 33.9531 110.5781 C32.3594 110.5781 31.1406 111.625 31.1406 113.1875 C31.1406 114.2656 31.7656 115.0312 32.5156 115.5469 L32.5156 115.625 C31.5781 116.125 30.625 117.0781 30.625 118.4531 C30.625 120.0312 32.0156 121.1875 33.9062 121.1875 ZM34.6094 115.4219 C33.4062 114.9531 32.2969 114.4219 32.2969 113.1875 C32.2969 112.1875 32.9844 111.5156 33.9375 111.5156 C35.0469 111.5156 35.6719 112.3438 35.6719 113.3594 C35.6719 114.1094 35.3125 114.8125 34.6094 115.4219 ZM33.9375 120.2344 C32.7031 120.2344 31.7969 119.4375 31.7969 118.3438 C31.7969 117.3594 32.3594 116.5469 33.1875 116.0156 C34.6406 116.6094 35.9062 117.125 35.9062 118.5 C35.9062 119.5156 35.1094 120.2344 33.9375 120.2344 ZM39.1762 121 L40.3481 121 L40.3481 115.3125 C40.3481 114.4375 40.2543 113.1875 40.1918 112.2969 L40.2543 112.2969 L41.0668 114.625 L43.0043 119.9688 L43.8793 119.9688 L45.8168 114.625 L46.6293 112.2969 L46.6918 112.2969 C46.6137 113.1875 46.52 114.4375 46.52 115.3125 L46.52 121 L47.7387 121 L47.7387 110.7188 L46.1762 110.7188 L44.2075 116.2188 C43.9731 116.9375 43.7543 117.6562 43.5043 118.375 L43.4418 118.375 C43.1918 117.6562 42.9575 116.9375 42.7075 116.2188 L40.7387 110.7188 L39.1762 110.7188 L39.1762 121 ZM53.4973 121.1875 C54.5285 121.1875 55.341 120.8281 56.0129 120.3906 L55.5442 119.5625 C54.9973 119.9375 54.3879 120.1562 53.6535 120.1562 C52.2004 120.1562 51.216 119.125 51.1223 117.5 L56.2473 117.5 C56.2785 117.3125 56.3098 117.0469 56.3098 116.7656 C56.3098 114.6094 55.216 113.2031 53.2785 113.2031 C51.5129 113.2031 49.8567 114.7344 49.8567 117.2031 C49.8567 119.7188 51.4817 121.1875 53.4973 121.1875 ZM51.1067 116.5781 C51.2629 115.0938 52.216 114.2188 53.2942 114.2188 C54.4817 114.2188 55.1848 115.0469 55.1848 116.5781 L51.1067 116.5781 Z"
    /></g
    ><g style="fill:white; text-rendering:optimizeSpeed; stroke:white;"
    ><polygon style="stroke:none; clip-path:url(#clipPath5);" points=" 43 53 54 64 43 75 32 64"
      /><rect x="32" y="53" width="22" style="clip-path:url(#clipPath5); fill:rgb(143,204,233); stroke:none;" height="22"
      /><rect x="32" y="53" width="22" style="clip-path:url(#clipPath5); fill:none; stroke:black;" height="22"
      /><polygon style="fill:none; stroke:black;" points=" 43 53 54 64 43 75 32 64"
      /><rect x="30" width="25" height="10" y="35" style="stroke:none;"
    /></g
    ><g style="text-rendering:optimizeSpeed; font-size:14px; font-family:'SansSerif';"
    ><path style="stroke:none;" d="M33.9062 46.1875 C35.8438 46.1875 37.125 45.0156 37.125 43.5156 C37.125 42.125 36.2812 41.3594 35.3906 40.8281 L35.3906 40.7656 C36 40.2812 36.7656 39.3594 36.7656 38.2812 C36.7656 36.7031 35.7031 35.5781 33.9531 35.5781 C32.3594 35.5781 31.1406 36.625 31.1406 38.1875 C31.1406 39.2656 31.7656 40.0312 32.5156 40.5469 L32.5156 40.625 C31.5781 41.125 30.625 42.0781 30.625 43.4531 C30.625 45.0312 32.0156 46.1875 33.9062 46.1875 ZM34.6094 40.4219 C33.4062 39.9531 32.2969 39.4219 32.2969 38.1875 C32.2969 37.1875 32.9844 36.5156 33.9375 36.5156 C35.0469 36.5156 35.6719 37.3438 35.6719 38.3594 C35.6719 39.1094 35.3125 39.8125 34.6094 40.4219 ZM33.9375 45.2344 C32.7031 45.2344 31.7969 44.4375 31.7969 43.3438 C31.7969 42.3594 32.3594 41.5469 33.1875 41.0156 C34.6406 41.6094 35.9062 42.125 35.9062 43.5 C35.9062 44.5156 35.1094 45.2344 33.9375 45.2344 ZM39.1762 46 L40.3481 46 L40.3481 40.3125 C40.3481 39.4375 40.2543 38.1875 40.1918 37.2969 L40.2543 37.2969 L41.0668 39.625 L43.0043 44.9688 L43.8793 44.9688 L45.8168 39.625 L46.6293 37.2969 L46.6918 37.2969 C46.6137 38.1875 46.52 39.4375 46.52 40.3125 L46.52 46 L47.7387 46 L47.7387 35.7188 L46.1762 35.7188 L44.2075 41.2188 C43.9731 41.9375 43.7543 42.6562 43.5043 43.375 L43.4418 43.375 C43.1918 42.6562 42.9575 41.9375 42.7075 41.2188 L40.7387 35.7188 L39.1762 35.7188 L39.1762 46 ZM53.4973 46.1875 C54.5285 46.1875 55.341 45.8281 56.0129 45.3906 L55.5442 44.5625 C54.9973 44.9375 54.3879 45.1562 53.6535 45.1562 C52.2004 45.1562 51.216 44.125 51.1223 42.5 L56.2473 42.5 C56.2785 42.3125 56.3098 42.0469 56.3098 41.7656 C56.3098 39.6094 55.216 38.2031 53.2785 38.2031 C51.5129 38.2031 49.8567 39.7344 49.8567 42.2031 C49.8567 44.7188 51.4817 46.1875 53.4973 46.1875 ZM51.1067 41.5781 C51.2629 40.0938 52.216 39.2188 53.2942 39.2188 C54.4817 39.2188 55.1848 40.0469 55.1848 41.5781 L51.1067 41.5781 Z"
    /></g
    ><g style="fill:white; text-rendering:optimizeSpeed; font-family:'Serif'; stroke:white;"
    ><rect x="82" width="5" height="10" y="114" style="stroke:none;"
      /><path d="M83.8906 122.6875 C83.4844 122.6875 83.1562 123.0469 83.1562 123.4219 C83.1562 123.8125 83.4844 124.1562 83.8906 124.1562 C84.2969 124.1562 84.6406 123.8125 84.6406 123.4219 C84.6406 123.0469 84.2969 122.6875 83.8906 122.6875 ZM85.4688 116.5781 C85.7188 116.8906 85.875 117.2656 85.8906 117.6562 C85.8906 118.1875 85.625 118.5 85.0312 118.7656 L84.4062 119.0156 C83.6406 119.3125 83.3906 119.5469 83.3906 119.9375 C83.3906 120.1094 83.4531 120.3438 83.5781 120.8125 L83.7344 121.3438 L84.1094 121.3438 L84.0938 120.5312 C84.0938 120.0938 84.2031 119.9688 84.7812 119.7344 L85.2031 119.5625 C86.0312 119.2188 86.4531 118.6875 86.4531 117.8438 C86.4531 116.1562 84.6562 115.1875 83.5 115.0312 C83.1094 115.125 82.9062 115.2969 82.9062 115.6406 C82.9062 115.9375 83.0625 116.1562 83.7188 116.2656 L85.4688 116.5781 Z" style="fill:black; stroke:none;"
      /><rect x="65" width="5" height="10" y="126" style="stroke:none;"
      /><path d="M66.8906 134.6875 C66.4844 134.6875 66.1562 135.0469 66.1562 135.4219 C66.1562 135.8125 66.4844 136.1562 66.8906 136.1562 C67.2969 136.1562 67.6406 135.8125 67.6406 135.4219 C67.6406 135.0469 67.2969 134.6875 66.8906 134.6875 ZM68.4688 128.5781 C68.7188 128.8906 68.875 129.2656 68.8906 129.6562 C68.8906 130.1875 68.625 130.5 68.0312 130.7656 L67.4062 131.0156 C66.6406 131.3125 66.3906 131.5469 66.3906 131.9375 C66.3906 132.1094 66.4531 132.3438 66.5781 132.8125 L66.7344 133.3438 L67.1094 133.3438 L67.0938 132.5312 C67.0938 132.0938 67.2031 131.9688 67.7812 131.7344 L68.2031 131.5625 C69.0312 131.2188 69.4531 130.6875 69.4531 129.8438 C69.4531 128.1562 67.6562 127.1875 66.5 127.0312 C66.1094 127.125 65.9062 127.2969 65.9062 127.6406 C65.9062 127.9375 66.0625 128.1562 66.7188 128.2656 L68.4688 128.5781 Z" style="fill:black; stroke:none;"
      /><rect x="73" width="5" height="10" y="90" style="stroke:none;"
      /><path d="M74.8906 98.6875 C74.4844 98.6875 74.1562 99.0469 74.1562 99.4219 C74.1562 99.8125 74.4844 100.1562 74.8906 100.1562 C75.2969 100.1562 75.6406 99.8125 75.6406 99.4219 C75.6406 99.0469 75.2969 98.6875 74.8906 98.6875 ZM76.4688 92.5781 C76.7188 92.8906 76.875 93.2656 76.8906 93.6562 C76.8906 94.1875 76.625 94.5 76.0312 94.7656 L75.4062 95.0156 C74.6406 95.3125 74.3906 95.5469 74.3906 95.9375 C74.3906 96.1094 74.4531 96.3438 74.5781 96.8125 L74.7344 97.3438 L75.1094 97.3438 L75.0938 96.5312 C75.0938 96.0938 75.2031 95.9688 75.7812 95.7344 L76.2031 95.5625 C77.0312 95.2188 77.4531 94.6875 77.4531 93.8438 C77.4531 92.1562 75.6562 91.1875 74.5 91.0312 C74.1094 91.125 73.9062 91.2969 73.9062 91.6406 C73.9062 91.9375 74.0625 92.1562 74.7188 92.2656 L76.4688 92.5781 Z" style="fill:black; stroke:none;"
      /><rect x="56" width="5" height="10" y="79" style="stroke:none;"
      /><path d="M57.8906 87.6875 C57.4844 87.6875 57.1562 88.0469 57.1562 88.4219 C57.1562 88.8125 57.4844 89.1562 57.8906 89.1562 C58.2969 89.1562 58.6406 88.8125 58.6406 88.4219 C58.6406 88.0469 58.2969 87.6875 57.8906 87.6875 ZM59.4688 81.5781 C59.7188 81.8906 59.875 82.2656 59.8906 82.6562 C59.8906 83.1875 59.625 83.5 59.0312 83.7656 L58.4062 84.0156 C57.6406 84.3125 57.3906 84.5469 57.3906 84.9375 C57.3906 85.1094 57.4531 85.3438 57.5781 85.8125 L57.7344 86.3438 L58.1094 86.3438 L58.0938 85.5312 C58.0938 85.0938 58.2031 84.9688 58.7812 84.7344 L59.2031 84.5625 C60.0312 84.2188 60.4531 83.6875 60.4531 82.8438 C60.4531 81.1562 58.6562 80.1875 57.5 80.0312 C57.1094 80.125 56.9062 80.2969 56.9062 80.6406 C56.9062 80.9375 57.0625 81.1562 57.7188 81.2656 L59.4688 81.5781 Z" style="fill:black; stroke:none;"
      /><rect x="128" width="5" height="10" y="104" style="stroke:none;"
      /><path d="M129.8906 112.6875 C129.4844 112.6875 129.1562 113.0469 129.1562 113.4219 C129.1562 113.8125 129.4844 114.1562 129.8906 114.1562 C130.2969 114.1562 130.6406 113.8125 130.6406 113.4219 C130.6406 113.0469 130.2969 112.6875 129.8906 112.6875 ZM131.4688 106.5781 C131.7188 106.8906 131.875 107.2656 131.8906 107.6562 C131.8906 108.1875 131.625 108.5 131.0312 108.7656 L130.4062 109.0156 C129.6406 109.3125 129.3906 109.5469 129.3906 109.9375 C129.3906 110.1094 129.4531 110.3438 129.5781 110.8125 L129.7344 111.3438 L130.1094 111.3438 L130.0938 110.5312 C130.0938 110.0938 130.2031 109.9688 130.7812 109.7344 L131.2031 109.5625 C132.0312 109.2188 132.4531 108.6875 132.4531 107.8438 C132.4531 106.1562 130.6562 105.1875 129.5 105.0312 C129.1094 105.125 128.9062 105.2969 128.9062 105.6406 C128.9062 105.9375 129.0625 106.1562 129.7188 106.2656 L131.4688 106.5781 Z" style="fill:black; stroke:none;"
      /><rect x="114" width="5" height="10" y="104" style="stroke:none;"
      /><path d="M115.8906 112.6875 C115.4844 112.6875 115.1562 113.0469 115.1562 113.4219 C115.1562 113.8125 115.4844 114.1562 115.8906 114.1562 C116.2969 114.1562 116.6406 113.8125 116.6406 113.4219 C116.6406 113.0469 116.2969 112.6875 115.8906 112.6875 ZM117.4688 106.5781 C117.7188 106.8906 117.875 107.2656 117.8906 107.6562 C117.8906 108.1875 117.625 108.5 117.0312 108.7656 L116.4062 109.0156 C115.6406 109.3125 115.3906 109.5469 115.3906 109.9375 C115.3906 110.1094 115.4531 110.3438 115.5781 110.8125 L115.7344 111.3438 L116.1094 111.3438 L116.0938 110.5312 C116.0938 110.0938 116.2031 109.9688 116.7812 109.7344 L117.2031 109.5625 C118.0312 109.2188 118.4531 108.6875 118.4531 107.8438 C118.4531 106.1562 116.6562 105.1875 115.5 105.0312 C115.1094 105.125 114.9062 105.2969 114.9062 105.6406 C114.9062 105.9375 115.0625 106.1562 115.7188 106.2656 L117.4688 106.5781 Z" style="fill:black; stroke:none;"
      /><rect x="180" width="5" height="10" y="104" style="stroke:none;"
      /><path d="M181.8906 112.6875 C181.4844 112.6875 181.1562 113.0469 181.1562 113.4219 C181.1562 113.8125 181.4844 114.1562 181.8906 114.1562 C182.2969 114.1562 182.6406 113.8125 182.6406 113.4219 C182.6406 113.0469 182.2969 112.6875 181.8906 112.6875 ZM183.4688 106.5781 C183.7188 106.8906 183.875 107.2656 183.8906 107.6562 C183.8906 108.1875 183.625 108.5 183.0312 108.7656 L182.4062 109.0156 C181.6406 109.3125 181.3906 109.5469 181.3906 109.9375 C181.3906 110.1094 181.4531 110.3438 181.5781 110.8125 L181.7344 111.3438 L182.1094 111.3438 L182.0938 110.5312 C182.0938 110.0938 182.2031 109.9688 182.7812 109.7344 L183.2031 109.5625 C184.0312 109.2188 184.4531 108.6875 184.4531 107.8438 C184.4531 106.1562 182.6562 105.1875 181.5 105.0312 C181.1094 105.125 180.9062 105.2969 180.9062 105.6406 C180.9062 105.9375 181.0625 106.1562 181.7188 106.2656 L183.4688 106.5781 Z" style="fill:black; stroke:none;"
      /><rect x="166" width="5" height="10" y="104" style="stroke:none;"
      /><path d="M167.8906 112.6875 C167.4844 112.6875 167.1562 113.0469 167.1562 113.4219 C167.1562 113.8125 167.4844 114.1562 167.8906 114.1562 C168.2969 114.1562 168.6406 113.8125 168.6406 113.4219 C168.6406 113.0469 168.2969 112.6875 167.8906 112.6875 ZM169.4688 106.5781 C169.7188 106.8906 169.875 107.2656 169.8906 107.6562 C169.8906 108.1875 169.625 108.5 169.0312 108.7656 L168.4062 109.0156 C167.6406 109.3125 167.3906 109.5469 167.3906 109.9375 C167.3906 110.1094 167.4531 110.3438 167.5781 110.8125 L167.7344 111.3438 L168.1094 111.3438 L168.0938 110.5312 C168.0938 110.0938 168.2031 109.9688 168.7812 109.7344 L169.2031 109.5625 C170.0312 109.2188 170.4531 108.6875 170.4531 107.8438 C170.4531 106.1562 168.6562 105.1875 167.5 105.0312 C167.1094 105.125 166.9062 105.2969 166.9062 105.6406 C166.9062 105.9375 167.0625 106.1562 167.7188 106.2656 L169.4688 106.5781 Z" style="fill:black; stroke:none;"
      /><rect x="218" width="5" height="10" y="104" style="stroke:none;"
      /><path d="M219.8906 112.6875 C219.4844 112.6875 219.1562 113.0469 219.1562 113.4219 C219.1562 113.8125 219.4844 114.1562 219.8906 114.1562 C220.2969 114.1562 220.6406 113.8125 220.6406 113.4219 C220.6406 113.0469 220.2969 112.6875 219.8906 112.6875 ZM221.4688 106.5781 C221.7188 106.8906 221.875 107.2656 221.8906 107.6562 C221.8906 108.1875 221.625 108.5 221.0312 108.7656 L220.4062 109.0156 C219.6406 109.3125 219.3906 109.5469 219.3906 109.9375 C219.3906 110.1094 219.4531 110.3438 219.5781 110.8125 L219.7344 111.3438 L220.1094 111.3438 L220.0938 110.5312 C220.0938 110.0938 220.2031 109.9688 220.7812 109.7344 L221.2031 109.5625 C222.0312 109.2188 222.4531 108.6875 222.4531 107.8438 C222.4531 106.1562 220.6562 105.1875 219.5 105.0312 C219.1094 105.125 218.9062 105.2969 218.9062 105.6406 C218.9062 105.9375 219.0625 106.1562 219.7188 106.2656 L221.4688 106.5781 Z" style="fill:black; stroke:none;"
    /></g
  ></g
></svg
>
