<?xml version="1.0"?>
<!DOCTYPE svg PUBLIC '-//W3C//DTD SVG 1.0//EN'
          'http://www.w3.org/TR/2001/REC-SVG-20010904/DTD/svg10.dtd'>
<svg xmlns:xlink="http://www.w3.org/1999/xlink" style="fill-opacity:1; color-rendering:auto; color-interpolation:auto; text-rendering:auto; stroke:black; stroke-linecap:square; stroke-miterlimit:10; shape-rendering:auto; stroke-opacity:1; fill:black; stroke-dasharray:none; font-weight:normal; stroke-width:1; font-family:'Dialog'; font-style:normal; stroke-linejoin:miter; font-size:12px; stroke-dashoffset:0; image-rendering:auto;" viewBox="0 0 646 238" xmlns="http://www.w3.org/2000/svg"
><!--Generated by the Batik Graphics2D SVG Generator--><defs id="genericDefs"
  /><g
  ><defs id="defs1"
    ><clipPath clipPathUnits="userSpaceOnUse" id="clipPath1"
      ><path d="M542 82 L564 82 L564 104 L542 104 L542 82 Z"
      /></clipPath
      ><clipPath clipPathUnits="userSpaceOnUse" id="clipPath2"
      ><path d="M490 82 L512 82 L512 104 L490 104 L490 82 Z"
      /></clipPath
      ><clipPath clipPathUnits="userSpaceOnUse" id="clipPath3"
      ><path d="M460 93 C460 99.0751 455.0751 104 449 104 C442.9249 104 438 99.0751 438 93 C438 86.9249 442.9249 82 449 82 C455.0751 82 460 86.9249 460 93 Z"
      /></clipPath
      ><clipPath clipPathUnits="userSpaceOnUse" id="clipPath4"
      ><path d="M408 197 C408 203.0751 403.0751 208 397 208 C390.9249 208 386 203.0751 386 197 C386 190.9249 390.9249 186 397 186 C403.0751 186 408 190.9249 408 197 Z"
      /></clipPath
      ><clipPath clipPathUnits="userSpaceOnUse" id="clipPath5"
      ><path d="M334 186 L356 186 L356 208 L334 208 L334 186 Z"
      /></clipPath
      ><clipPath clipPathUnits="userSpaceOnUse" id="clipPath6"
      ><path d="M304 197 C304 203.0751 299.0751 208 293 208 C286.9249 208 282 203.0751 282 197 C282 190.9249 286.9249 186 293 186 C299.0751 186 304 190.9249 304 197 Z"
      /></clipPath
      ><clipPath clipPathUnits="userSpaceOnUse" id="clipPath7"
      ><path style="fill-rule:evenodd;" d="M241 186 L252 197 L241 208 L230 197 Z"
      /></clipPath
      ><clipPath clipPathUnits="userSpaceOnUse" id="clipPath8"
      ><path style="fill-rule:evenodd;" d="M345 156 L334 134 L356 134 Z"
      /></clipPath
      ><clipPath clipPathUnits="userSpaceOnUse" id="clipPath9"
      ><path d="M408 93 C408 99.0751 403.0751 104 397 104 C390.9249 104 386 99.0751 386 93 C386 86.9249 390.9249 82 397 82 C403.0751 82 408 86.9249 408 93 Z"
      /></clipPath
      ><clipPath clipPathUnits="userSpaceOnUse" id="clipPath10"
      ><path d="M334 82 L356 82 L356 104 L334 104 L334 82 Z"
      /></clipPath
      ><clipPath clipPathUnits="userSpaceOnUse" id="clipPath11"
      ><path d="M386 30 L408 30 L408 52 L386 52 L386 30 Z"
      /></clipPath
      ><clipPath clipPathUnits="userSpaceOnUse" id="clipPath12"
      ><path d="M134 108 L156 108 L156 130 L134 130 L134 108 Z"
      /></clipPath
      ><clipPath clipPathUnits="userSpaceOnUse" id="clipPath13"
      ><path d="M104 119 C104 125.0751 99.0751 130 93 130 C86.9249 130 82 125.0751 82 119 C82 112.9249 86.9249 108 93 108 C99.0751 108 104 112.9249 104 119 Z"
      /></clipPath
      ><clipPath clipPathUnits="userSpaceOnUse" id="clipPath14"
      ><path style="fill-rule:evenodd;" d="M41 108 L52 119 L41 130 L30 119 Z"
      /></clipPath
      ><clipPath clipPathUnits="userSpaceOnUse" id="clipPath15"
      ><path style="fill-rule:evenodd;" d="M145 78 L134 56 L156 56 Z"
      /></clipPath
    ></defs
    ><g style="fill:white; text-rendering:optimizeSpeed; stroke:white;"
    ><rect x="0" width="646" height="238" y="0" style="stroke:none;"
      /><polygon style="fill:none; stroke:black;" points=" 605 93 553 93"
      /><path d="M605 82 C599.5 87.5 610.5 98.5 605 104" style="fill:none; stroke:black;"
      /><polygon style="fill:none; stroke:black;" points=" 553 93 501 93"
      /><rect x="542" y="82" width="22" style="clip-path:url(#clipPath1); stroke:none;" height="22"
      /><rect x="542" y="82" width="22" style="clip-path:url(#clipPath1); fill:rgb(0,144,188); stroke:none;" height="22"
      /><rect x="542" y="82" width="22" style="clip-path:url(#clipPath1); fill:none; stroke:black;" height="22"
      /><rect x="542" y="82" width="22" style="fill:none; stroke:black;" height="22"
      /><polygon style="fill:none; stroke:black;" points=" 501 93 449 93"
      /><rect x="490" y="82" width="22" style="clip-path:url(#clipPath2); stroke:none;" height="22"
      /><rect x="490" y="82" width="22" style="clip-path:url(#clipPath2); fill:rgb(0,144,188); stroke:none;" height="22"
      /><rect x="490" y="82" width="22" style="clip-path:url(#clipPath2); fill:none; stroke:black;" height="22"
      /><rect x="490" y="82" width="22" style="fill:none; stroke:black;" height="22"
      /><polygon style="fill:none; stroke:black;" points=" 449 93 397 197"
      /><polygon style="fill:none; stroke:black;" points=" 449 93 397 93"
      /><polygon style="fill:none; stroke:black;" points=" 449 93 397 41"
      /><circle style="clip-path:url(#clipPath3); stroke:none;" r="11" cx="449" cy="93"
      /><rect x="438" y="82" width="22" style="clip-path:url(#clipPath3); fill:rgb(0,166,81); stroke:none;" height="22"
      /><rect x="438" y="82" width="22" style="clip-path:url(#clipPath3); fill:none; stroke:black;" height="22"
      /><circle style="fill:none; stroke:black;" r="11" cx="449" cy="93"
      /><polygon style="fill:none; stroke:black;" points=" 397 197 345 197"
      /><circle style="clip-path:url(#clipPath4); stroke:none;" r="11" cx="397" cy="197"
      /><rect x="386" y="186" width="22" style="clip-path:url(#clipPath4); fill:rgb(0,166,81); stroke:none;" height="22"
      /><rect x="386" y="186" width="22" style="clip-path:url(#clipPath4); fill:none; stroke:black;" height="22"
      /><circle style="fill:none; stroke:black;" r="11" cx="397" cy="197"
      /><polygon style="fill:none; stroke:black;" points=" 345 197 293 197"
      /><polygon style="fill:none; stroke:black;" points=" 345 197 345 145"
      /><rect x="334" y="186" width="22" style="clip-path:url(#clipPath5); stroke:none;" height="22"
      /><rect x="334" y="186" width="22" style="clip-path:url(#clipPath5); fill:rgb(0,144,188); stroke:none;" height="22"
      /><rect x="334" y="186" width="22" style="clip-path:url(#clipPath5); fill:none; stroke:black;" height="22"
      /><rect x="334" y="186" width="22" style="fill:none; stroke:black;" height="22"
      /><polygon style="fill:none; stroke:black;" points=" 293 197 241 197"
      /><circle style="clip-path:url(#clipPath6); stroke:none;" r="11" cx="293" cy="197"
      /><rect x="282" y="186" width="22" style="clip-path:url(#clipPath6); fill:rgb(255,212,0); stroke:none;" height="22"
      /><rect x="282" y="186" width="22" style="clip-path:url(#clipPath6); fill:none; stroke:black;" height="22"
      /><circle style="fill:none; stroke:black;" r="11" cx="293" cy="197"
      /><polygon style="clip-path:url(#clipPath7); stroke:none;" points=" 241 186 252 197 241 208 230 197"
      /><rect x="230" y="186" width="22" style="clip-path:url(#clipPath7); fill:rgb(143,204,233); stroke:none;" height="22"
      /><rect x="230" y="186" width="22" style="clip-path:url(#clipPath7); fill:none; stroke:black;" height="22"
      /><polygon style="fill:none; stroke:black;" points=" 241 186 252 197 241 208 230 197"
      /><rect x="271" y="200" width="5" style="stroke:none;" height="10"
    /></g
    ><g style="font-family:'Serif'; text-rendering:optimizeSpeed; "
    ><path style="stroke:none;" d="M272.8906 208.6875 C272.4844 208.6875 272.1562 209.0469 272.1562 209.4219 C272.1562 209.8125 272.4844 210.1562 272.8906 210.1562 C273.2969 210.1562 273.6406 209.8125 273.6406 209.4219 C273.6406 209.0469 273.2969 208.6875 272.8906 208.6875 ZM274.4688 202.5781 C274.7188 202.8906 274.875 203.2656 274.8906 203.6562 C274.8906 204.1875 274.625 204.5 274.0312 204.7656 L273.4062 205.0156 C272.6406 205.3125 272.3906 205.5469 272.3906 205.9375 C272.3906 206.1094 272.4531 206.3438 272.5781 206.8125 L272.7344 207.3438 L273.1094 207.3438 L273.0938 206.5312 C273.0938 206.0938 273.2031 205.9688 273.7812 205.7344 L274.2031 205.5625 C275.0312 205.2188 275.4531 204.6875 275.4531 203.8438 C275.4531 202.1562 273.6562 201.1875 272.5 201.0312 C272.1094 201.125 271.9062 201.2969 271.9062 201.6406 C271.9062 201.9375 272.0625 202.1562 272.7188 202.2656 L274.4688 202.5781 Z"
      /><rect x="257" y="200" width="5" style="fill:white; stroke:none;" height="10"
      /><path style="stroke:none;" d="M258.8906 208.6875 C258.4844 208.6875 258.1562 209.0469 258.1562 209.4219 C258.1562 209.8125 258.4844 210.1562 258.8906 210.1562 C259.2969 210.1562 259.6406 209.8125 259.6406 209.4219 C259.6406 209.0469 259.2969 208.6875 258.8906 208.6875 ZM260.4688 202.5781 C260.7188 202.8906 260.875 203.2656 260.8906 203.6562 C260.8906 204.1875 260.625 204.5 260.0312 204.7656 L259.4062 205.0156 C258.6406 205.3125 258.3906 205.5469 258.3906 205.9375 C258.3906 206.1094 258.4531 206.3438 258.5781 206.8125 L258.7344 207.3438 L259.1094 207.3438 L259.0938 206.5312 C259.0938 206.0938 259.2031 205.9688 259.7812 205.7344 L260.2031 205.5625 C261.0312 205.2188 261.4531 204.6875 261.4531 203.8438 C261.4531 202.1562 259.6562 201.1875 258.5 201.0312 C258.1094 201.125 257.9062 201.2969 257.9062 201.6406 C257.9062 201.9375 258.0625 202.1562 258.7188 202.2656 L260.4688 202.5781 Z"
      /><polygon style="fill:white; clip-path:url(#clipPath8); stroke:none;" points=" 345 156 334 134 356 134"
      /><rect x="334" y="134" width="22" style="clip-path:url(#clipPath8); fill:rgb(237,28,36); stroke:none;" height="22"
      /><rect x="334" y="134" width="22" style="fill:none; clip-path:url(#clipPath8);" height="22"
      /><polygon style="fill:none;" points=" 345 156 334 134 356 134"
      /><rect x="323" y="200" width="5" style="fill:white; stroke:none;" height="10"
      /><path style="stroke:none;" d="M324.8906 208.6875 C324.4844 208.6875 324.1562 209.0469 324.1562 209.4219 C324.1562 209.8125 324.4844 210.1562 324.8906 210.1562 C325.2969 210.1562 325.6406 209.8125 325.6406 209.4219 C325.6406 209.0469 325.2969 208.6875 324.8906 208.6875 ZM326.4688 202.5781 C326.7188 202.8906 326.875 203.2656 326.8906 203.6562 C326.8906 204.1875 326.625 204.5 326.0312 204.7656 L325.4062 205.0156 C324.6406 205.3125 324.3906 205.5469 324.3906 205.9375 C324.3906 206.1094 324.4531 206.3438 324.5781 206.8125 L324.7344 207.3438 L325.1094 207.3438 L325.0938 206.5312 C325.0938 206.0938 325.2031 205.9688 325.7812 205.7344 L326.2031 205.5625 C327.0312 205.2188 327.4531 204.6875 327.4531 203.8438 C327.4531 202.1562 325.6562 201.1875 324.5 201.0312 C324.1094 201.125 323.9062 201.2969 323.9062 201.6406 C323.9062 201.9375 324.0625 202.1562 324.7188 202.2656 L326.4688 202.5781 Z"
      /><rect x="309" y="200" width="5" style="fill:white; stroke:none;" height="10"
      /><path style="stroke:none;" d="M310.8906 208.6875 C310.4844 208.6875 310.1562 209.0469 310.1562 209.4219 C310.1562 209.8125 310.4844 210.1562 310.8906 210.1562 C311.2969 210.1562 311.6406 209.8125 311.6406 209.4219 C311.6406 209.0469 311.2969 208.6875 310.8906 208.6875 ZM312.4688 202.5781 C312.7188 202.8906 312.875 203.2656 312.8906 203.6562 C312.8906 204.1875 312.625 204.5 312.0312 204.7656 L311.4062 205.0156 C310.6406 205.3125 310.3906 205.5469 310.3906 205.9375 C310.3906 206.1094 310.4531 206.3438 310.5781 206.8125 L310.7344 207.3438 L311.1094 207.3438 L311.0938 206.5312 C311.0938 206.0938 311.2031 205.9688 311.7812 205.7344 L312.2031 205.5625 C313.0312 205.2188 313.4531 204.6875 313.4531 203.8438 C313.4531 202.1562 311.6562 201.1875 310.5 201.0312 C310.1094 201.125 309.9062 201.2969 309.9062 201.6406 C309.9062 201.9375 310.0625 202.1562 310.7188 202.2656 L312.4688 202.5781 Z"
      /><rect x="334" y="173" width="5" style="fill:white; stroke:none;" height="10"
      /><path style="stroke:none;" d="M335.8906 181.6875 C335.4844 181.6875 335.1562 182.0469 335.1562 182.4219 C335.1562 182.8125 335.4844 183.1562 335.8906 183.1562 C336.2969 183.1562 336.6406 182.8125 336.6406 182.4219 C336.6406 182.0469 336.2969 181.6875 335.8906 181.6875 ZM337.4688 175.5781 C337.7188 175.8906 337.875 176.2656 337.8906 176.6562 C337.8906 177.1875 337.625 177.5 337.0312 177.7656 L336.4062 178.0156 C335.6406 178.3125 335.3906 178.5469 335.3906 178.9375 C335.3906 179.1094 335.4531 179.3438 335.5781 179.8125 L335.7344 180.3438 L336.1094 180.3438 L336.0938 179.5312 C336.0938 179.0938 336.2031 178.9688 336.7812 178.7344 L337.2031 178.5625 C338.0312 178.2188 338.4531 177.6875 338.4531 176.8438 C338.4531 175.1562 336.6562 174.1875 335.5 174.0312 C335.1094 174.125 334.9062 174.2969 334.9062 174.6406 C334.9062 174.9375 335.0625 175.1562 335.7188 175.2656 L337.4688 175.5781 Z"
      /><rect x="334" y="159" width="5" style="fill:white; stroke:none;" height="10"
      /><path style="stroke:none;" d="M335.8906 167.6875 C335.4844 167.6875 335.1562 168.0469 335.1562 168.4219 C335.1562 168.8125 335.4844 169.1562 335.8906 169.1562 C336.2969 169.1562 336.6406 168.8125 336.6406 168.4219 C336.6406 168.0469 336.2969 167.6875 335.8906 167.6875 ZM337.4688 161.5781 C337.7188 161.8906 337.875 162.2656 337.8906 162.6562 C337.8906 163.1875 337.625 163.5 337.0312 163.7656 L336.4062 164.0156 C335.6406 164.3125 335.3906 164.5469 335.3906 164.9375 C335.3906 165.1094 335.4531 165.3438 335.5781 165.8125 L335.7344 166.3438 L336.1094 166.3438 L336.0938 165.5312 C336.0938 165.0938 336.2031 164.9688 336.7812 164.7344 L337.2031 164.5625 C338.0312 164.2188 338.4531 163.6875 338.4531 162.8438 C338.4531 161.1562 336.6562 160.1875 335.5 160.0312 C335.1094 160.125 334.9062 160.2969 334.9062 160.6406 C334.9062 160.9375 335.0625 161.1562 335.7188 161.2656 L337.4688 161.5781 Z"
      /><rect x="375" y="200" width="5" style="fill:white; stroke:none;" height="10"
      /><path style="stroke:none;" d="M376.8906 208.6875 C376.4844 208.6875 376.1562 209.0469 376.1562 209.4219 C376.1562 209.8125 376.4844 210.1562 376.8906 210.1562 C377.2969 210.1562 377.6406 209.8125 377.6406 209.4219 C377.6406 209.0469 377.2969 208.6875 376.8906 208.6875 ZM378.4688 202.5781 C378.7188 202.8906 378.875 203.2656 378.8906 203.6562 C378.8906 204.1875 378.625 204.5 378.0312 204.7656 L377.4062 205.0156 C376.6406 205.3125 376.3906 205.5469 376.3906 205.9375 C376.3906 206.1094 376.4531 206.3438 376.5781 206.8125 L376.7344 207.3438 L377.1094 207.3438 L377.0938 206.5312 C377.0938 206.0938 377.2031 205.9688 377.7812 205.7344 L378.2031 205.5625 C379.0312 205.2188 379.4531 204.6875 379.4531 203.8438 C379.4531 202.1562 377.6562 201.1875 376.5 201.0312 C376.1094 201.125 375.9062 201.2969 375.9062 201.6406 C375.9062 201.9375 376.0625 202.1562 376.7188 202.2656 L378.4688 202.5781 Z"
      /><rect x="361" y="200" width="5" style="fill:white; stroke:none;" height="10"
      /><path style="stroke:none;" d="M362.8906 208.6875 C362.4844 208.6875 362.1562 209.0469 362.1562 209.4219 C362.1562 209.8125 362.4844 210.1562 362.8906 210.1562 C363.2969 210.1562 363.6406 209.8125 363.6406 209.4219 C363.6406 209.0469 363.2969 208.6875 362.8906 208.6875 ZM364.4688 202.5781 C364.7188 202.8906 364.875 203.2656 364.8906 203.6562 C364.8906 204.1875 364.625 204.5 364.0312 204.7656 L363.4062 205.0156 C362.6406 205.3125 362.3906 205.5469 362.3906 205.9375 C362.3906 206.1094 362.4531 206.3438 362.5781 206.8125 L362.7344 207.3438 L363.1094 207.3438 L363.0938 206.5312 C363.0938 206.0938 363.2031 205.9688 363.7812 205.7344 L364.2031 205.5625 C365.0312 205.2188 365.4531 204.6875 365.4531 203.8438 C365.4531 202.1562 363.6562 201.1875 362.5 201.0312 C362.1094 201.125 361.9062 201.2969 361.9062 201.6406 C361.9062 201.9375 362.0625 202.1562 362.7188 202.2656 L364.4688 202.5781 Z"
      /><polygon style="fill:none;" points=" 397 93 345 93"
      /><circle style="fill:white; clip-path:url(#clipPath9); stroke:none;" r="11" cx="397" cy="93"
      /><rect x="386" y="82" width="22" style="clip-path:url(#clipPath9); fill:rgb(0,166,81); stroke:none;" height="22"
      /><rect x="386" y="82" width="22" style="fill:none; clip-path:url(#clipPath9);" height="22"
      /><circle r="11" style="fill:none;" cx="397" cy="93"
      /><rect x="334" y="82" width="22" style="clip-path:url(#clipPath10); fill:white; stroke:none;" height="22"
      /><rect x="334" y="82" width="22" style="clip-path:url(#clipPath10); fill:rgb(0,144,188); stroke:none;" height="22"
      /><rect x="334" y="82" width="22" style="fill:none; clip-path:url(#clipPath10);" height="22"
      /><rect x="334" width="22" height="22" y="82" style="fill:none;"
      /><rect x="375" y="96" width="5" style="fill:white; stroke:none;" height="10"
      /><path style="stroke:none;" d="M376.8906 104.6875 C376.4844 104.6875 376.1562 105.0469 376.1562 105.4219 C376.1562 105.8125 376.4844 106.1562 376.8906 106.1562 C377.2969 106.1562 377.6406 105.8125 377.6406 105.4219 C377.6406 105.0469 377.2969 104.6875 376.8906 104.6875 ZM378.4688 98.5781 C378.7188 98.8906 378.875 99.2656 378.8906 99.6562 C378.8906 100.1875 378.625 100.5 378.0312 100.7656 L377.4062 101.0156 C376.6406 101.3125 376.3906 101.5469 376.3906 101.9375 C376.3906 102.1094 376.4531 102.3438 376.5781 102.8125 L376.7344 103.3438 L377.1094 103.3438 L377.0938 102.5312 C377.0938 102.0938 377.2031 101.9688 377.7812 101.7344 L378.2031 101.5625 C379.0312 101.2188 379.4531 100.6875 379.4531 99.8438 C379.4531 98.1562 377.6562 97.1875 376.5 97.0312 C376.1094 97.125 375.9062 97.2969 375.9062 97.6406 C375.9062 97.9375 376.0625 98.1562 376.7188 98.2656 L378.4688 98.5781 Z"
      /><rect x="361" y="96" width="5" style="fill:white; stroke:none;" height="10"
      /><path style="stroke:none;" d="M362.8906 104.6875 C362.4844 104.6875 362.1562 105.0469 362.1562 105.4219 C362.1562 105.8125 362.4844 106.1562 362.8906 106.1562 C363.2969 106.1562 363.6406 105.8125 363.6406 105.4219 C363.6406 105.0469 363.2969 104.6875 362.8906 104.6875 ZM364.4688 98.5781 C364.7188 98.8906 364.875 99.2656 364.8906 99.6562 C364.8906 100.1875 364.625 100.5 364.0312 100.7656 L363.4062 101.0156 C362.6406 101.3125 362.3906 101.5469 362.3906 101.9375 C362.3906 102.1094 362.4531 102.3438 362.5781 102.8125 L362.7344 103.3438 L363.1094 103.3438 L363.0938 102.5312 C363.0938 102.0938 363.2031 101.9688 363.7812 101.7344 L364.2031 101.5625 C365.0312 101.2188 365.4531 100.6875 365.4531 99.8438 C365.4531 98.1562 363.6562 97.1875 362.5 97.0312 C362.1094 97.125 361.9062 97.2969 361.9062 97.6406 C361.9062 97.9375 362.0625 98.1562 362.7188 98.2656 L364.4688 98.5781 Z"
      /><rect x="386" y="30" width="22" style="clip-path:url(#clipPath11); fill:white; stroke:none;" height="22"
      /><rect x="386" y="30" width="22" style="clip-path:url(#clipPath11); fill:rgb(0,144,188); stroke:none;" height="22"
      /><rect x="386" y="30" width="22" style="fill:none; clip-path:url(#clipPath11);" height="22"
      /><rect x="386" width="22" height="22" y="30" style="fill:none;"
      /><rect x="444" y="109" width="5" style="fill:white; stroke:none;" height="10"
      /><path style="stroke:none;" d="M445.8906 117.6875 C445.4844 117.6875 445.1562 118.0469 445.1562 118.4219 C445.1562 118.8125 445.4844 119.1562 445.8906 119.1562 C446.2969 119.1562 446.6406 118.8125 446.6406 118.4219 C446.6406 118.0469 446.2969 117.6875 445.8906 117.6875 ZM447.4688 111.5781 C447.7188 111.8906 447.875 112.2656 447.8906 112.6562 C447.8906 113.1875 447.625 113.5 447.0312 113.7656 L446.4062 114.0156 C445.6406 114.3125 445.3906 114.5469 445.3906 114.9375 C445.3906 115.1094 445.4531 115.3438 445.5781 115.8125 L445.7344 116.3438 L446.1094 116.3438 L446.0938 115.5312 C446.0938 115.0938 446.2031 114.9688 446.7812 114.7344 L447.2031 114.5625 C448.0312 114.2188 448.4531 113.6875 448.4531 112.8438 C448.4531 111.1562 446.6562 110.1875 445.5 110.0312 C445.1094 110.125 444.9062 110.2969 444.9062 110.6406 C444.9062 110.9375 445.0625 111.1562 445.7188 111.2656 L447.4688 111.5781 Z"
      /><rect x="410" y="177" width="5" style="fill:white; stroke:none;" height="10"
      /><path style="stroke:none;" d="M411.8906 185.6875 C411.4844 185.6875 411.1562 186.0469 411.1562 186.4219 C411.1562 186.8125 411.4844 187.1562 411.8906 187.1562 C412.2969 187.1562 412.6406 186.8125 412.6406 186.4219 C412.6406 186.0469 412.2969 185.6875 411.8906 185.6875 ZM413.4688 179.5781 C413.7188 179.8906 413.875 180.2656 413.8906 180.6562 C413.8906 181.1875 413.625 181.5 413.0312 181.7656 L412.4062 182.0156 C411.6406 182.3125 411.3906 182.5469 411.3906 182.9375 C411.3906 183.1094 411.4531 183.3438 411.5781 183.8125 L411.7344 184.3438 L412.1094 184.3438 L412.0938 183.5312 C412.0938 183.0938 412.2031 182.9688 412.7812 182.7344 L413.2031 182.5625 C414.0312 182.2188 414.4531 181.6875 414.4531 180.8438 C414.4531 179.1562 412.6562 178.1875 411.5 178.0312 C411.1094 178.125 410.9062 178.2969 410.9062 178.6406 C410.9062 178.9375 411.0625 179.1562 411.7188 179.2656 L413.4688 179.5781 Z"
      /><rect x="427" y="96" width="5" style="fill:white; stroke:none;" height="10"
      /><path style="stroke:none;" d="M428.8906 104.6875 C428.4844 104.6875 428.1562 105.0469 428.1562 105.4219 C428.1562 105.8125 428.4844 106.1562 428.8906 106.1562 C429.2969 106.1562 429.6406 105.8125 429.6406 105.4219 C429.6406 105.0469 429.2969 104.6875 428.8906 104.6875 ZM430.4688 98.5781 C430.7188 98.8906 430.875 99.2656 430.8906 99.6562 C430.8906 100.1875 430.625 100.5 430.0312 100.7656 L429.4062 101.0156 C428.6406 101.3125 428.3906 101.5469 428.3906 101.9375 C428.3906 102.1094 428.4531 102.3438 428.5781 102.8125 L428.7344 103.3438 L429.1094 103.3438 L429.0938 102.5312 C429.0938 102.0938 429.2031 101.9688 429.7812 101.7344 L430.2031 101.5625 C431.0312 101.2188 431.4531 100.6875 431.4531 99.8438 C431.4531 98.1562 429.6562 97.1875 428.5 97.0312 C428.1094 97.125 427.9062 97.2969 427.9062 97.6406 C427.9062 97.9375 428.0625 98.1562 428.7188 98.2656 L430.4688 98.5781 Z"
      /><rect x="413" y="96" width="5" style="fill:white; stroke:none;" height="10"
      /><path style="stroke:none;" d="M414.8906 104.6875 C414.4844 104.6875 414.1562 105.0469 414.1562 105.4219 C414.1562 105.8125 414.4844 106.1562 414.8906 106.1562 C415.2969 106.1562 415.6406 105.8125 415.6406 105.4219 C415.6406 105.0469 415.2969 104.6875 414.8906 104.6875 ZM416.4688 98.5781 C416.7188 98.8906 416.875 99.2656 416.8906 99.6562 C416.8906 100.1875 416.625 100.5 416.0312 100.7656 L415.4062 101.0156 C414.6406 101.3125 414.3906 101.5469 414.3906 101.9375 C414.3906 102.1094 414.4531 102.3438 414.5781 102.8125 L414.7344 103.3438 L415.1094 103.3438 L415.0938 102.5312 C415.0938 102.0938 415.2031 101.9688 415.7812 101.7344 L416.2031 101.5625 C417.0312 101.2188 417.4531 100.6875 417.4531 99.8438 C417.4531 98.1562 415.6562 97.1875 414.5 97.0312 C414.1094 97.125 413.9062 97.2969 413.9062 97.6406 C413.9062 97.9375 414.0625 98.1562 414.7188 98.2656 L416.4688 98.5781 Z"
      /><rect x="424" y="77" width="5" style="fill:white; stroke:none;" height="10"
      /><path style="stroke:none;" d="M425.8906 85.6875 C425.4844 85.6875 425.1562 86.0469 425.1562 86.4219 C425.1562 86.8125 425.4844 87.1562 425.8906 87.1562 C426.2969 87.1562 426.6406 86.8125 426.6406 86.4219 C426.6406 86.0469 426.2969 85.6875 425.8906 85.6875 ZM427.4688 79.5781 C427.7188 79.8906 427.875 80.2656 427.8906 80.6562 C427.8906 81.1875 427.625 81.5 427.0312 81.7656 L426.4062 82.0156 C425.6406 82.3125 425.3906 82.5469 425.3906 82.9375 C425.3906 83.1094 425.4531 83.3438 425.5781 83.8125 L425.7344 84.3438 L426.1094 84.3438 L426.0938 83.5312 C426.0938 83.0938 426.2031 82.9688 426.7812 82.7344 L427.2031 82.5625 C428.0312 82.2188 428.4531 81.6875 428.4531 80.8438 C428.4531 79.1562 426.6562 78.1875 425.5 78.0312 C425.1094 78.125 424.9062 78.2969 424.9062 78.6406 C424.9062 78.9375 425.0625 79.1562 425.7188 79.2656 L427.4688 79.5781 Z"
      /><rect x="405" y="58" width="5" style="fill:white; stroke:none;" height="10"
      /><path style="stroke:none;" d="M406.8906 66.6875 C406.4844 66.6875 406.1562 67.0469 406.1562 67.4219 C406.1562 67.8125 406.4844 68.1562 406.8906 68.1562 C407.2969 68.1562 407.6406 67.8125 407.6406 67.4219 C407.6406 67.0469 407.2969 66.6875 406.8906 66.6875 ZM408.4688 60.5781 C408.7188 60.8906 408.875 61.2656 408.8906 61.6562 C408.8906 62.1875 408.625 62.5 408.0312 62.7656 L407.4062 63.0156 C406.6406 63.3125 406.3906 63.5469 406.3906 63.9375 C406.3906 64.1094 406.4531 64.3438 406.5781 64.8125 L406.7344 65.3438 L407.1094 65.3438 L407.0938 64.5312 C407.0938 64.0938 407.2031 63.9688 407.7812 63.7344 L408.2031 63.5625 C409.0312 63.2188 409.4531 62.6875 409.4531 61.8438 C409.4531 60.1562 407.6562 59.1875 406.5 59.0312 C406.1094 59.125 405.9062 59.2969 405.9062 59.6406 C405.9062 59.9375 406.0625 60.1562 406.7188 60.2656 L408.4688 60.5781 Z"
      /><rect x="479" y="96" width="5" style="fill:white; stroke:none;" height="10"
      /><path style="stroke:none;" d="M480.8906 104.6875 C480.4844 104.6875 480.1562 105.0469 480.1562 105.4219 C480.1562 105.8125 480.4844 106.1562 480.8906 106.1562 C481.2969 106.1562 481.6406 105.8125 481.6406 105.4219 C481.6406 105.0469 481.2969 104.6875 480.8906 104.6875 ZM482.4688 98.5781 C482.7188 98.8906 482.875 99.2656 482.8906 99.6562 C482.8906 100.1875 482.625 100.5 482.0312 100.7656 L481.4062 101.0156 C480.6406 101.3125 480.3906 101.5469 480.3906 101.9375 C480.3906 102.1094 480.4531 102.3438 480.5781 102.8125 L480.7344 103.3438 L481.1094 103.3438 L481.0938 102.5312 C481.0938 102.0938 481.2031 101.9688 481.7812 101.7344 L482.2031 101.5625 C483.0312 101.2188 483.4531 100.6875 483.4531 99.8438 C483.4531 98.1562 481.6562 97.1875 480.5 97.0312 C480.1094 97.125 479.9062 97.2969 479.9062 97.6406 C479.9062 97.9375 480.0625 98.1562 480.7188 98.2656 L482.4688 98.5781 Z"
      /><rect x="465" y="96" width="5" style="fill:white; stroke:none;" height="10"
      /><path style="stroke:none;" d="M466.8906 104.6875 C466.4844 104.6875 466.1562 105.0469 466.1562 105.4219 C466.1562 105.8125 466.4844 106.1562 466.8906 106.1562 C467.2969 106.1562 467.6406 105.8125 467.6406 105.4219 C467.6406 105.0469 467.2969 104.6875 466.8906 104.6875 ZM468.4688 98.5781 C468.7188 98.8906 468.875 99.2656 468.8906 99.6562 C468.8906 100.1875 468.625 100.5 468.0312 100.7656 L467.4062 101.0156 C466.6406 101.3125 466.3906 101.5469 466.3906 101.9375 C466.3906 102.1094 466.4531 102.3438 466.5781 102.8125 L466.7344 103.3438 L467.1094 103.3438 L467.0938 102.5312 C467.0938 102.0938 467.2031 101.9688 467.7812 101.7344 L468.2031 101.5625 C469.0312 101.2188 469.4531 100.6875 469.4531 99.8438 C469.4531 98.1562 467.6562 97.1875 466.5 97.0312 C466.1094 97.125 465.9062 97.2969 465.9062 97.6406 C465.9062 97.9375 466.0625 98.1562 466.7188 98.2656 L468.4688 98.5781 Z"
      /><rect x="531" y="96" width="5" style="fill:white; stroke:none;" height="10"
      /><path style="stroke:none;" d="M532.8906 104.6875 C532.4844 104.6875 532.1562 105.0469 532.1562 105.4219 C532.1562 105.8125 532.4844 106.1562 532.8906 106.1562 C533.2969 106.1562 533.6406 105.8125 533.6406 105.4219 C533.6406 105.0469 533.2969 104.6875 532.8906 104.6875 ZM534.4688 98.5781 C534.7188 98.8906 534.875 99.2656 534.8906 99.6562 C534.8906 100.1875 534.625 100.5 534.0312 100.7656 L533.4062 101.0156 C532.6406 101.3125 532.3906 101.5469 532.3906 101.9375 C532.3906 102.1094 532.4531 102.3438 532.5781 102.8125 L532.7344 103.3438 L533.1094 103.3438 L533.0938 102.5312 C533.0938 102.0938 533.2031 101.9688 533.7812 101.7344 L534.2031 101.5625 C535.0312 101.2188 535.4531 100.6875 535.4531 99.8438 C535.4531 98.1562 533.6562 97.1875 532.5 97.0312 C532.1094 97.125 531.9062 97.2969 531.9062 97.6406 C531.9062 97.9375 532.0625 98.1562 532.7188 98.2656 L534.4688 98.5781 Z"
      /><rect x="517" y="96" width="5" style="fill:white; stroke:none;" height="10"
      /><path style="stroke:none;" d="M518.8906 104.6875 C518.4844 104.6875 518.1562 105.0469 518.1562 105.4219 C518.1562 105.8125 518.4844 106.1562 518.8906 106.1562 C519.2969 106.1562 519.6406 105.8125 519.6406 105.4219 C519.6406 105.0469 519.2969 104.6875 518.8906 104.6875 ZM520.4688 98.5781 C520.7188 98.8906 520.875 99.2656 520.8906 99.6562 C520.8906 100.1875 520.625 100.5 520.0312 100.7656 L519.4062 101.0156 C518.6406 101.3125 518.3906 101.5469 518.3906 101.9375 C518.3906 102.1094 518.4531 102.3438 518.5781 102.8125 L518.7344 103.3438 L519.1094 103.3438 L519.0938 102.5312 C519.0938 102.0938 519.2031 101.9688 519.7812 101.7344 L520.2031 101.5625 C521.0312 101.2188 521.4531 100.6875 521.4531 99.8438 C521.4531 98.1562 519.6562 97.1875 518.5 97.0312 C518.1094 97.125 517.9062 97.2969 517.9062 97.6406 C517.9062 97.9375 518.0625 98.1562 518.7188 98.2656 L520.4688 98.5781 Z"
      /><rect x="569" y="96" width="5" style="fill:white; stroke:none;" height="10"
      /><path style="stroke:none;" d="M570.8906 104.6875 C570.4844 104.6875 570.1562 105.0469 570.1562 105.4219 C570.1562 105.8125 570.4844 106.1562 570.8906 106.1562 C571.2969 106.1562 571.6406 105.8125 571.6406 105.4219 C571.6406 105.0469 571.2969 104.6875 570.8906 104.6875 ZM572.4688 98.5781 C572.7188 98.8906 572.875 99.2656 572.8906 99.6562 C572.8906 100.1875 572.625 100.5 572.0312 100.7656 L571.4062 101.0156 C570.6406 101.3125 570.3906 101.5469 570.3906 101.9375 C570.3906 102.1094 570.4531 102.3438 570.5781 102.8125 L570.7344 103.3438 L571.1094 103.3438 L571.0938 102.5312 C571.0938 102.0938 571.2031 101.9688 571.7812 101.7344 L572.2031 101.5625 C573.0312 101.2188 573.4531 100.6875 573.4531 99.8438 C573.4531 98.1562 571.6562 97.1875 570.5 97.0312 C570.1094 97.125 569.9062 97.2969 569.9062 97.6406 C569.9062 97.9375 570.0625 98.1562 570.7188 98.2656 L572.4688 98.5781 Z"
      /><polygon style="fill:none;" points=" 230 208 219 208 219 30 230 30 219 30 219 208"
      /><polygon style="fill:none;" points=" 197 119 145 119"
      /><polygon style="fill:none;" points=" 145 119 93 119"
      /><polygon style="fill:none;" points=" 145 119 145 67"
      /><rect x="134" y="108" width="22" style="clip-path:url(#clipPath12); fill:white; stroke:none;" height="22"
      /><rect x="134" y="108" width="22" style="clip-path:url(#clipPath12); fill:rgb(0,144,188); stroke:none;" height="22"
      /><rect x="134" y="108" width="22" style="fill:none; clip-path:url(#clipPath12);" height="22"
      /><rect x="134" width="22" height="22" y="108" style="fill:none;"
      /><polygon style="fill:none;" points=" 93 119 41 119"
      /><circle style="fill:white; clip-path:url(#clipPath13); stroke:none;" r="11" cx="93" cy="119"
      /><rect x="82" y="108" width="22" style="clip-path:url(#clipPath13); fill:rgb(255,212,0); stroke:none;" height="22"
      /><rect x="82" y="108" width="22" style="fill:none; clip-path:url(#clipPath13);" height="22"
      /><circle r="11" style="fill:none;" cx="93" cy="119"
      /><polygon style="fill:white; clip-path:url(#clipPath14); stroke:none;" points=" 41 108 52 119 41 130 30 119"
      /><rect x="30" y="108" width="22" style="clip-path:url(#clipPath14); fill:rgb(165,67,153); stroke:none;" height="22"
      /><rect x="30" y="108" width="22" style="fill:none; clip-path:url(#clipPath14);" height="22"
      /><polygon style="fill:none;" points=" 41 108 52 119 41 130 30 119"
      /><rect x="71" y="122" width="5" style="fill:white; stroke:none;" height="10"
      /><path style="stroke:none;" d="M72.8906 130.6875 C72.4844 130.6875 72.1562 131.0469 72.1562 131.4219 C72.1562 131.8125 72.4844 132.1562 72.8906 132.1562 C73.2969 132.1562 73.6406 131.8125 73.6406 131.4219 C73.6406 131.0469 73.2969 130.6875 72.8906 130.6875 ZM74.4688 124.5781 C74.7188 124.8906 74.875 125.2656 74.8906 125.6562 C74.8906 126.1875 74.625 126.5 74.0312 126.7656 L73.4062 127.0156 C72.6406 127.3125 72.3906 127.5469 72.3906 127.9375 C72.3906 128.1094 72.4531 128.3438 72.5781 128.8125 L72.7344 129.3438 L73.1094 129.3438 L73.0938 128.5312 C73.0938 128.0938 73.2031 127.9688 73.7812 127.7344 L74.2031 127.5625 C75.0312 127.2188 75.4531 126.6875 75.4531 125.8438 C75.4531 124.1562 73.6562 123.1875 72.5 123.0312 C72.1094 123.125 71.9062 123.2969 71.9062 123.6406 C71.9062 123.9375 72.0625 124.1562 72.7188 124.2656 L74.4688 124.5781 Z"
      /><rect x="57" y="122" width="5" style="fill:white; stroke:none;" height="10"
      /><path style="stroke:none;" d="M58.8906 130.6875 C58.4844 130.6875 58.1562 131.0469 58.1562 131.4219 C58.1562 131.8125 58.4844 132.1562 58.8906 132.1562 C59.2969 132.1562 59.6406 131.8125 59.6406 131.4219 C59.6406 131.0469 59.2969 130.6875 58.8906 130.6875 ZM60.4688 124.5781 C60.7188 124.8906 60.875 125.2656 60.8906 125.6562 C60.8906 126.1875 60.625 126.5 60.0312 126.7656 L59.4062 127.0156 C58.6406 127.3125 58.3906 127.5469 58.3906 127.9375 C58.3906 128.1094 58.4531 128.3438 58.5781 128.8125 L58.7344 129.3438 L59.1094 129.3438 L59.0938 128.5312 C59.0938 128.0938 59.2031 127.9688 59.7812 127.7344 L60.2031 127.5625 C61.0312 127.2188 61.4531 126.6875 61.4531 125.8438 C61.4531 124.1562 59.6562 123.1875 58.5 123.0312 C58.1094 123.125 57.9062 123.2969 57.9062 123.6406 C57.9062 123.9375 58.0625 124.1562 58.7188 124.2656 L60.4688 124.5781 Z"
      /><polygon style="fill:white; clip-path:url(#clipPath15); stroke:none;" points=" 145 78 134 56 156 56"
      /><rect x="134" y="56" width="22" style="clip-path:url(#clipPath15); fill:rgb(237,28,36); stroke:none;" height="22"
      /><rect x="134" y="56" width="22" style="fill:none; clip-path:url(#clipPath15);" height="22"
      /><polygon style="fill:none;" points=" 145 78 134 56 156 56"
      /><rect x="123" y="122" width="5" style="fill:white; stroke:none;" height="10"
      /><path style="stroke:none;" d="M124.8906 130.6875 C124.4844 130.6875 124.1562 131.0469 124.1562 131.4219 C124.1562 131.8125 124.4844 132.1562 124.8906 132.1562 C125.2969 132.1562 125.6406 131.8125 125.6406 131.4219 C125.6406 131.0469 125.2969 130.6875 124.8906 130.6875 ZM126.4688 124.5781 C126.7188 124.8906 126.875 125.2656 126.8906 125.6562 C126.8906 126.1875 126.625 126.5 126.0312 126.7656 L125.4062 127.0156 C124.6406 127.3125 124.3906 127.5469 124.3906 127.9375 C124.3906 128.1094 124.4531 128.3438 124.5781 128.8125 L124.7344 129.3438 L125.1094 129.3438 L125.0938 128.5312 C125.0938 128.0938 125.2031 127.9688 125.7812 127.7344 L126.2031 127.5625 C127.0312 127.2188 127.4531 126.6875 127.4531 125.8438 C127.4531 124.1562 125.6562 123.1875 124.5 123.0312 C124.1094 123.125 123.9062 123.2969 123.9062 123.6406 C123.9062 123.9375 124.0625 124.1562 124.7188 124.2656 L126.4688 124.5781 Z"
      /><rect x="109" y="122" width="5" style="fill:white; stroke:none;" height="10"
      /><path style="stroke:none;" d="M110.8906 130.6875 C110.4844 130.6875 110.1562 131.0469 110.1562 131.4219 C110.1562 131.8125 110.4844 132.1562 110.8906 132.1562 C111.2969 132.1562 111.6406 131.8125 111.6406 131.4219 C111.6406 131.0469 111.2969 130.6875 110.8906 130.6875 ZM112.4688 124.5781 C112.7188 124.8906 112.875 125.2656 112.8906 125.6562 C112.8906 126.1875 112.625 126.5 112.0312 126.7656 L111.4062 127.0156 C110.6406 127.3125 110.3906 127.5469 110.3906 127.9375 C110.3906 128.1094 110.4531 128.3438 110.5781 128.8125 L110.7344 129.3438 L111.1094 129.3438 L111.0938 128.5312 C111.0938 128.0938 111.2031 127.9688 111.7812 127.7344 L112.2031 127.5625 C113.0312 127.2188 113.4531 126.6875 113.4531 125.8438 C113.4531 124.1562 111.6562 123.1875 110.5 123.0312 C110.1094 123.125 109.9062 123.2969 109.9062 123.6406 C109.9062 123.9375 110.0625 124.1562 110.7188 124.2656 L112.4688 124.5781 Z"
      /><rect x="134" y="95" width="5" style="fill:white; stroke:none;" height="10"
      /><path style="stroke:none;" d="M135.8906 103.6875 C135.4844 103.6875 135.1562 104.0469 135.1562 104.4219 C135.1562 104.8125 135.4844 105.1562 135.8906 105.1562 C136.2969 105.1562 136.6406 104.8125 136.6406 104.4219 C136.6406 104.0469 136.2969 103.6875 135.8906 103.6875 ZM137.4688 97.5781 C137.7188 97.8906 137.875 98.2656 137.8906 98.6562 C137.8906 99.1875 137.625 99.5 137.0312 99.7656 L136.4062 100.0156 C135.6406 100.3125 135.3906 100.5469 135.3906 100.9375 C135.3906 101.1094 135.4531 101.3438 135.5781 101.8125 L135.7344 102.3438 L136.1094 102.3438 L136.0938 101.5312 C136.0938 101.0938 136.2031 100.9688 136.7812 100.7344 L137.2031 100.5625 C138.0312 100.2188 138.4531 99.6875 138.4531 98.8438 C138.4531 97.1562 136.6562 96.1875 135.5 96.0312 C135.1094 96.125 134.9062 96.2969 134.9062 96.6406 C134.9062 96.9375 135.0625 97.1562 135.7188 97.2656 L137.4688 97.5781 Z"
      /><rect x="134" y="81" width="5" style="fill:white; stroke:none;" height="10"
      /><path style="stroke:none;" d="M135.8906 89.6875 C135.4844 89.6875 135.1562 90.0469 135.1562 90.4219 C135.1562 90.8125 135.4844 91.1562 135.8906 91.1562 C136.2969 91.1562 136.6406 90.8125 136.6406 90.4219 C136.6406 90.0469 136.2969 89.6875 135.8906 89.6875 ZM137.4688 83.5781 C137.7188 83.8906 137.875 84.2656 137.8906 84.6562 C137.8906 85.1875 137.625 85.5 137.0312 85.7656 L136.4062 86.0156 C135.6406 86.3125 135.3906 86.5469 135.3906 86.9375 C135.3906 87.1094 135.4531 87.3438 135.5781 87.8125 L135.7344 88.3438 L136.1094 88.3438 L136.0938 87.5312 C136.0938 87.0938 136.2031 86.9688 136.7812 86.7344 L137.2031 86.5625 C138.0312 86.2188 138.4531 85.6875 138.4531 84.8438 C138.4531 83.1562 136.6562 82.1875 135.5 82.0312 C135.1094 82.125 134.9062 82.2969 134.9062 82.6406 C134.9062 82.9375 135.0625 83.1562 135.7188 83.2656 L137.4688 83.5781 Z"
      /><rect x="175" y="122" width="5" style="fill:white; stroke:none;" height="10"
      /><path style="stroke:none;" d="M176.8906 130.6875 C176.4844 130.6875 176.1562 131.0469 176.1562 131.4219 C176.1562 131.8125 176.4844 132.1562 176.8906 132.1562 C177.2969 132.1562 177.6406 131.8125 177.6406 131.4219 C177.6406 131.0469 177.2969 130.6875 176.8906 130.6875 ZM178.4688 124.5781 C178.7188 124.8906 178.875 125.2656 178.8906 125.6562 C178.8906 126.1875 178.625 126.5 178.0312 126.7656 L177.4062 127.0156 C176.6406 127.3125 176.3906 127.5469 176.3906 127.9375 C176.3906 128.1094 176.4531 128.3438 176.5781 128.8125 L176.7344 129.3438 L177.1094 129.3438 L177.0938 128.5312 C177.0938 128.0938 177.2031 127.9688 177.7812 127.7344 L178.2031 127.5625 C179.0312 127.2188 179.4531 126.6875 179.4531 125.8438 C179.4531 124.1562 177.6562 123.1875 176.5 123.0312 C176.1094 123.125 175.9062 123.2969 175.9062 123.6406 C175.9062 123.9375 176.0625 124.1562 176.7188 124.2656 L178.4688 124.5781 Z"
      /><rect x="161" y="122" width="5" style="fill:white; stroke:none;" height="10"
      /><path style="stroke:none;" d="M162.8906 130.6875 C162.4844 130.6875 162.1562 131.0469 162.1562 131.4219 C162.1562 131.8125 162.4844 132.1562 162.8906 132.1562 C163.2969 132.1562 163.6406 131.8125 163.6406 131.4219 C163.6406 131.0469 163.2969 130.6875 162.8906 130.6875 ZM164.4688 124.5781 C164.7188 124.8906 164.875 125.2656 164.8906 125.6562 C164.8906 126.1875 164.625 126.5 164.0312 126.7656 L163.4062 127.0156 C162.6406 127.3125 162.3906 127.5469 162.3906 127.9375 C162.3906 128.1094 162.4531 128.3438 162.5781 128.8125 L162.7344 129.3438 L163.1094 129.3438 L163.0938 128.5312 C163.0938 128.0938 163.2031 127.9688 163.7812 127.7344 L164.2031 127.5625 C165.0312 127.2188 165.4531 126.6875 165.4531 125.8438 C165.4531 124.1562 163.6562 123.1875 162.5 123.0312 C162.1094 123.125 161.9062 123.2969 161.9062 123.6406 C161.9062 123.9375 162.0625 124.1562 162.7188 124.2656 L164.4688 124.5781 Z"
    /></g
  ></g
></svg
>
