<?xml version="1.0"?>
<!DOCTYPE svg PUBLIC '-//W3C//DTD SVG 1.0//EN'
          'http://www.w3.org/TR/2001/REC-SVG-20010904/DTD/svg10.dtd'>
<svg xmlns:xlink="http://www.w3.org/1999/xlink" style="fill-opacity:1; color-rendering:auto; color-interpolation:auto; text-rendering:auto; stroke:black; stroke-linecap:square; stroke-miterlimit:10; shape-rendering:auto; stroke-opacity:1; fill:black; stroke-dasharray:none; font-weight:normal; stroke-width:1; font-family:'Dialog'; font-style:normal; stroke-linejoin:miter; font-size:12px; stroke-dashoffset:0; image-rendering:auto;" viewBox="0 0 136 105" xmlns="http://www.w3.org/2000/svg"
><!--Generated by the Batik Graphics2D SVG Generator--><defs id="genericDefs"
  /><g
  ><defs id="defs1"
    ><clipPath clipPathUnits="userSpaceOnUse" id="clipPath1"
      ><path d="M53 64 C53 70.0751 48.0751 75 42 75 C35.9249 75 31 70.0751 31 64 C31 57.9249 35.9249 53 42 53 C48.0751 53 53 57.9249 53 64 Z"
      /></clipPath
    ></defs
    ><g style="fill:white; text-rendering:optimizeSpeed; stroke:white;"
    ><rect x="0" width="136" height="105" y="0" style="stroke:none;"
      /><polygon style="fill:none; stroke:black;" points=" 95 64 42 64"
      /><path d="M95 53 C89.5 58.5 100.5 69.5 95 75" style="fill:none; stroke:black;"
      /><circle style="clip-path:url(#clipPath1); stroke:none;" r="11" cx="42" cy="64"
      /><rect x="31" y="53" width="22" style="clip-path:url(#clipPath1); fill:rgb(244,121,32); stroke:none;" height="22"
      /><rect x="31" y="53" width="22" style="clip-path:url(#clipPath1); fill:none; stroke:black;" height="22"
      /><circle style="fill:none; stroke:black;" r="11" cx="42" cy="64"
      /><rect x="30" y="35" width="22" style="stroke:none;" height="10"
    /></g
    ><g style="text-rendering:optimizeSpeed; font-size:14px; font-family:'SansSerif';"
    ><path style="stroke:none;" d="M34.1094 40.5781 C35.3438 40.5781 35.9688 41.4688 35.9688 42.8438 C35.9688 44.25 35.1875 45.1875 34.2188 45.1875 C32.9219 45.1875 32.1562 44.0312 32 41.8906 C32.625 40.9531 33.4531 40.5781 34.1094 40.5781 ZM34.2188 46.1875 C35.8125 46.1875 37.1562 44.8438 37.1562 42.8438 C37.1562 40.7031 36.0469 39.625 34.3125 39.625 C33.5 39.625 32.6094 40.1094 31.9688 40.875 C32.0312 37.6875 33.2188 36.6094 34.625 36.6094 C35.25 36.6094 35.8594 36.9062 36.2656 37.3906 L36.9688 36.5938 C36.4062 35.9844 35.6406 35.5469 34.5781 35.5469 C32.5938 35.5469 30.7812 37.0781 30.7812 41.0938 C30.7812 44.4844 32.2344 46.1875 34.2188 46.1875 ZM40.9418 40.2656 C41.3168 39.0938 41.645 37.9844 41.9731 36.7812 L42.02 36.7812 C42.3637 37.9844 42.6762 39.0938 43.0668 40.2656 L43.5512 41.8281 L40.4418 41.8281 L40.9418 40.2656 ZM37.8168 46 L39.1293 46 L40.1293 42.8594 L43.8793 42.8594 L44.8481 46 L46.2231 46 L42.7387 35.7188 L41.3012 35.7188 L37.8168 46 ZM50.5492 46.1875 C51.4554 46.1875 52.3304 45.8281 53.0179 45.2188 L52.4554 44.3594 C51.9867 44.7969 51.3617 45.125 50.6586 45.125 C49.2679 45.125 48.3148 43.9531 48.3148 42.2031 C48.3148 40.4531 49.3148 39.2656 50.7054 39.2656 C51.3148 39.2656 51.7679 39.5469 52.2211 39.9375 L52.8773 39.0938 C52.3304 38.625 51.6429 38.2031 50.6429 38.2031 C48.7054 38.2031 46.9867 39.6719 46.9867 42.2031 C46.9867 44.7188 48.5336 46.1875 50.5492 46.1875 Z"
    /></g
    ><g style="fill:white; text-rendering:optimizeSpeed; font-family:'Serif'; stroke:white;"
    ><rect x="59" width="5" height="10" y="67" style="stroke:none;"
      /><path d="M60.8906 75.6875 C60.4844 75.6875 60.1562 76.0469 60.1562 76.4219 C60.1562 76.8125 60.4844 77.1562 60.8906 77.1562 C61.2969 77.1562 61.6406 76.8125 61.6406 76.4219 C61.6406 76.0469 61.2969 75.6875 60.8906 75.6875 ZM62.4688 69.5781 C62.7188 69.8906 62.875 70.2656 62.8906 70.6562 C62.8906 71.1875 62.625 71.5 62.0312 71.7656 L61.4062 72.0156 C60.6406 72.3125 60.3906 72.5469 60.3906 72.9375 C60.3906 73.1094 60.4531 73.3438 60.5781 73.8125 L60.7344 74.3438 L61.1094 74.3438 L61.0938 73.5312 C61.0938 73.0938 61.2031 72.9688 61.7812 72.7344 L62.2031 72.5625 C63.0312 72.2188 63.4531 71.6875 63.4531 70.8438 C63.4531 69.1562 61.6562 68.1875 60.5 68.0312 C60.1094 68.125 59.9062 68.2969 59.9062 68.6406 C59.9062 68.9375 60.0625 69.1562 60.7188 69.2656 L62.4688 69.5781 Z" style="fill:black; stroke:none;"
    /></g
  ></g
></svg
>
