<?xml version="1.0"?>
<!DOCTYPE svg PUBLIC '-//W3C//DTD SVG 1.0//EN'
          'http://www.w3.org/TR/2001/REC-SVG-20010904/DTD/svg10.dtd'>
<svg xmlns:xlink="http://www.w3.org/1999/xlink" style="fill-opacity:1; color-rendering:auto; color-interpolation:auto; text-rendering:auto; stroke:black; stroke-linecap:square; stroke-miterlimit:10; shape-rendering:auto; stroke-opacity:1; fill:black; stroke-dasharray:none; font-weight:normal; stroke-width:1; font-family:'Dialog'; font-style:normal; stroke-linejoin:miter; font-size:12px; stroke-dashoffset:0; image-rendering:auto;" viewBox="0 0 143 186" xmlns="http://www.w3.org/2000/svg"
><!--Generated by the Batik Graphics2D SVG Generator--><defs id="genericDefs"
  /><g
  ><defs id="defs1"
    ><clipPath clipPathUnits="userSpaceOnUse" id="clipPath1"
      ><path d="M47 134 L69 134 L69 156 L47 156 L47 134 Z"
      /></clipPath
      ><clipPath clipPathUnits="userSpaceOnUse" id="clipPath2"
      ><path d="M69 93 C69 99.0751 64.0751 104 58 104 C51.9249 104 47 99.0751 47 93 C47 86.9249 51.9249 82 58 82 C64.0751 82 69 86.9249 69 93 Z"
      /></clipPath
      ><clipPath clipPathUnits="userSpaceOnUse" id="clipPath3"
      ><path style="fill-rule:evenodd;" d="M58 30 L69 52 L47 52 Z"
      /></clipPath
    ></defs
    ><g style="fill:white; text-rendering:optimizeSpeed; stroke:white;"
    ><rect x="0" width="143" height="186" y="0" style="stroke:none;"
      /><rect x="47" y="134" width="22" style="clip-path:url(#clipPath1); stroke:none;" height="22"
      /><rect x="47" y="134" width="22" style="clip-path:url(#clipPath1); stroke:none;" height="22"
      /><rect x="47" y="134" width="22" style="clip-path:url(#clipPath1); fill:none; stroke:black;" height="22"
      /><rect x="47" y="134" width="22" style="fill:none; stroke:black;" height="22"
      /><rect x="74" y="148" width="5" style="stroke:none;" height="10"
    /></g
    ><g style="font-family:'Serif'; text-rendering:optimizeSpeed; "
    ><path style="stroke:none;" d="M75.8906 156.6875 C75.4844 156.6875 75.1562 157.0469 75.1562 157.4219 C75.1562 157.8125 75.4844 158.1562 75.8906 158.1562 C76.2969 158.1562 76.6406 157.8125 76.6406 157.4219 C76.6406 157.0469 76.2969 156.6875 75.8906 156.6875 ZM77.4688 150.5781 C77.7188 150.8906 77.875 151.2656 77.8906 151.6562 C77.8906 152.1875 77.625 152.5 77.0312 152.7656 L76.4062 153.0156 C75.6406 153.3125 75.3906 153.5469 75.3906 153.9375 C75.3906 154.1094 75.4531 154.3438 75.5781 154.8125 L75.7344 155.3438 L76.1094 155.3438 L76.0938 154.5312 C76.0938 154.0938 76.2031 153.9688 76.7812 153.7344 L77.2031 153.5625 C78.0312 153.2188 78.4531 152.6875 78.4531 151.8438 C78.4531 150.1562 76.6562 149.1875 75.5 149.0312 C75.1094 149.125 74.9062 149.2969 74.9062 149.6406 C74.9062 149.9375 75.0625 150.1562 75.7188 150.2656 L77.4688 150.5781 Z"
      /><path style="stroke:none;" d="M32.6562 150.1875 C34.3906 150.1875 36.0156 148.9062 36.0156 146.6562 C36.0156 144.4062 34.625 143.3906 32.9219 143.3906 C32.2969 143.3906 31.8594 143.5469 31.3906 143.7969 L31.6406 140.8281 L35.5312 140.8281 L35.5312 139.7188 L30.5312 139.7188 L30.2031 144.5469 L30.8906 144.9531 C31.4844 144.5625 31.9062 144.3594 32.5938 144.3594 C33.8906 144.3594 34.7188 145.2188 34.7188 146.7031 C34.7188 148.1875 33.75 149.125 32.5469 149.125 C31.3594 149.125 30.6094 148.5781 30.0156 147.9844 L29.3906 148.8281 C30.0781 149.5156 31.0625 150.1875 32.6562 150.1875 ZM36.9731 150 L38.3168 150 L39.3481 148.2188 C39.6137 147.7656 39.8637 147.2969 40.1293 146.8594 L40.2075 146.8594 C40.4731 147.2969 40.7543 147.7656 41.0043 148.2188 L42.1293 150 L43.5356 150 L41.02 146.1562 L43.3325 142.3906 L42.0043 142.3906 L41.0668 144.0625 C40.8481 144.5 40.6137 144.9219 40.3793 145.3438 L40.3325 145.3438 C40.0668 144.9219 39.8012 144.5 39.5668 144.0625 L38.5512 142.3906 L37.1762 142.3906 L39.4887 146.0312 L36.9731 150 Z"
    /></g
    ><g style="fill:white; text-rendering:optimizeSpeed; font-size:14px; font-family:'SansSerif'; stroke:white;"
    ><circle r="11" style="clip-path:url(#clipPath2); stroke:none;" cx="58" cy="93"
      /><rect x="47" y="82" width="22" style="clip-path:url(#clipPath2); stroke:none;" height="22"
      /><rect x="47" y="82" width="22" style="clip-path:url(#clipPath2); fill:none; stroke:black;" height="22"
      /><circle r="11" style="fill:none; stroke:black;" cx="58" cy="93"
      /><rect x="74" width="5" height="10" y="96" style="stroke:none;"
    /></g
    ><g style="font-family:'Serif'; text-rendering:optimizeSpeed; "
    ><path style="stroke:none;" d="M75.8906 104.6875 C75.4844 104.6875 75.1562 105.0469 75.1562 105.4219 C75.1562 105.8125 75.4844 106.1562 75.8906 106.1562 C76.2969 106.1562 76.6406 105.8125 76.6406 105.4219 C76.6406 105.0469 76.2969 104.6875 75.8906 104.6875 ZM77.4688 98.5781 C77.7188 98.8906 77.875 99.2656 77.8906 99.6562 C77.8906 100.1875 77.625 100.5 77.0312 100.7656 L76.4062 101.0156 C75.6406 101.3125 75.3906 101.5469 75.3906 101.9375 C75.3906 102.1094 75.4531 102.3438 75.5781 102.8125 L75.7344 103.3438 L76.1094 103.3438 L76.0938 102.5312 C76.0938 102.0938 76.2031 101.9688 76.7812 101.7344 L77.2031 101.5625 C78.0312 101.2188 78.4531 100.6875 78.4531 99.8438 C78.4531 98.1562 76.6562 97.1875 75.5 97.0312 C75.1094 97.125 74.9062 97.2969 74.9062 97.6406 C74.9062 97.9375 75.0625 98.1562 75.7188 98.2656 L77.4688 98.5781 Z"
      /><path style="stroke:none;" d="M33.1094 92.5781 C34.3438 92.5781 34.9688 93.4688 34.9688 94.8438 C34.9688 96.25 34.1875 97.1875 33.2188 97.1875 C31.9219 97.1875 31.1562 96.0312 31 93.8906 C31.625 92.9531 32.4531 92.5781 33.1094 92.5781 ZM33.2188 98.1875 C34.8125 98.1875 36.1562 96.8438 36.1562 94.8438 C36.1562 92.7031 35.0469 91.625 33.3125 91.625 C32.5 91.625 31.6094 92.1094 30.9688 92.875 C31.0312 89.6875 32.2188 88.6094 33.625 88.6094 C34.25 88.6094 34.8594 88.9062 35.2656 89.3906 L35.9688 88.5938 C35.4062 87.9844 34.6406 87.5469 33.5781 87.5469 C31.5938 87.5469 29.7812 89.0781 29.7812 93.0938 C29.7812 96.4844 31.2344 98.1875 33.2188 98.1875 ZM36.9731 98 L38.3168 98 L39.3481 96.2188 C39.6137 95.7656 39.8637 95.2969 40.1293 94.8594 L40.2075 94.8594 C40.4731 95.2969 40.7543 95.7656 41.0043 96.2188 L42.1293 98 L43.5356 98 L41.02 94.1562 L43.3325 90.3906 L42.0043 90.3906 L41.0668 92.0625 C40.8481 92.5 40.6137 92.9219 40.3793 93.3438 L40.3325 93.3438 C40.0668 92.9219 39.8012 92.5 39.5668 92.0625 L38.5512 90.3906 L37.1762 90.3906 L39.4887 94.0312 L36.9731 98 Z"
    /></g
    ><g style="fill:white; text-rendering:optimizeSpeed; font-size:14px; font-family:'SansSerif'; stroke:white;"
    ><polygon style="stroke:none; clip-path:url(#clipPath3);" points=" 58 30 69 52 47 52"
      /><rect x="47" y="30" width="22" style="clip-path:url(#clipPath3); fill:rgb(237,28,36); stroke:none;" height="22"
      /><rect x="47" y="30" width="22" style="clip-path:url(#clipPath3); fill:none; stroke:black;" height="22"
      /><polygon style="fill:none; stroke:black;" points=" 58 30 69 52 47 52"
      /><rect x="74" width="5" height="10" y="44" style="stroke:none;"
    /></g
    ><g style="font-family:'Serif'; text-rendering:optimizeSpeed; "
    ><path style="stroke:none;" d="M75.8906 52.6875 C75.4844 52.6875 75.1562 53.0469 75.1562 53.4219 C75.1562 53.8125 75.4844 54.1562 75.8906 54.1562 C76.2969 54.1562 76.6406 53.8125 76.6406 53.4219 C76.6406 53.0469 76.2969 52.6875 75.8906 52.6875 ZM77.4688 46.5781 C77.7188 46.8906 77.875 47.2656 77.8906 47.6562 C77.8906 48.1875 77.625 48.5 77.0312 48.7656 L76.4062 49.0156 C75.6406 49.3125 75.3906 49.5469 75.3906 49.9375 C75.3906 50.1094 75.4531 50.3438 75.5781 50.8125 L75.7344 51.3438 L76.1094 51.3438 L76.0938 50.5312 C76.0938 50.0938 76.2031 49.9688 76.7812 49.7344 L77.2031 49.5625 C78.0312 49.2188 78.4531 48.6875 78.4531 47.8438 C78.4531 46.1562 76.6562 45.1875 75.5 45.0312 C75.1094 45.125 74.9062 45.2969 74.9062 45.6406 C74.9062 45.9375 75.0625 46.1562 75.7188 46.2656 L77.4688 46.5781 Z"
      /><path style="stroke:none;" d="M29.6094 46 L36.0625 46 L36.0625 44.8906 L33.2344 44.8906 C32.7031 44.8906 32.0781 44.9531 31.5469 44.9844 C33.9531 42.7031 35.5625 40.625 35.5625 38.5781 C35.5625 36.75 34.4219 35.5469 32.5781 35.5469 C31.2812 35.5469 30.4062 36.1406 29.5625 37.0469 L30.2969 37.7812 C30.8594 37.1094 31.5938 36.5938 32.4375 36.5938 C33.7031 36.5938 34.3125 37.4531 34.3125 38.625 C34.3125 40.3906 32.8438 42.4375 29.6094 45.25 L29.6094 46 ZM36.9731 46 L38.3168 46 L39.3481 44.2188 C39.6137 43.7656 39.8637 43.2969 40.1293 42.8594 L40.2075 42.8594 C40.4731 43.2969 40.7543 43.7656 41.0043 44.2188 L42.1293 46 L43.5356 46 L41.02 42.1562 L43.3325 38.3906 L42.0043 38.3906 L41.0668 40.0625 C40.8481 40.5 40.6137 40.9219 40.3793 41.3438 L40.3325 41.3438 C40.0668 40.9219 39.8012 40.5 39.5668 40.0625 L38.5512 38.3906 L37.1762 38.3906 L39.4887 42.0312 L36.9731 46 Z"
    /></g
  ></g
></svg
>
