<?xml version="1.0"?>
<!DOCTYPE svg PUBLIC '-//W3C//DTD SVG 1.0//EN'
          'http://www.w3.org/TR/2001/REC-SVG-20010904/DTD/svg10.dtd'>
<svg xmlns:xlink="http://www.w3.org/1999/xlink" style="fill-opacity:1; color-rendering:auto; color-interpolation:auto; text-rendering:auto; stroke:black; stroke-linecap:square; stroke-miterlimit:10; shape-rendering:auto; stroke-opacity:1; fill:black; stroke-dasharray:none; font-weight:normal; stroke-width:1; font-family:'Dialog'; font-style:normal; stroke-linejoin:miter; font-size:12px; stroke-dashoffset:0; image-rendering:auto;" viewBox="0 0 327 105" xmlns="http://www.w3.org/2000/svg"
><!--Generated by the Batik Graphics2D SVG Generator--><defs id="genericDefs"
  /><g
  ><defs id="defs1"
    ><clipPath clipPathUnits="userSpaceOnUse" id="clipPath1"
      ><path style="fill-rule:evenodd;" d="M234 30 L245 52 L223 52 Z"
      /></clipPath
      ><clipPath clipPathUnits="userSpaceOnUse" id="clipPath2"
      ><path style="fill-rule:evenodd;" d="M163 30 L174 41 L163 52 L152 41 Z"
      /></clipPath
      ><clipPath clipPathUnits="userSpaceOnUse" id="clipPath3"
      ><path style="fill-rule:evenodd;" d="M93 30 L104 52 L82 52 Z"
      /></clipPath
      ><clipPath clipPathUnits="userSpaceOnUse" id="clipPath4"
      ><path style="fill-rule:evenodd;" d="M41 30 L52 52 L30 52 Z"
      /></clipPath
    ></defs
    ><g style="fill:white; text-rendering:optimizeSpeed; stroke:white;"
    ><rect x="0" width="327" height="105" y="0" style="stroke:none;"
      /><polygon style="fill:none; stroke:black;" points=" 286 41 234 41"
      /><path d="M286 30 C280.5 35.5 291.5 46.5 286 52" style="fill:none; stroke:black;"
      /><polygon style="fill:none; stroke:black;" points=" 234 41 163 41"
      /><polygon style="clip-path:url(#clipPath1); stroke:none;" points=" 234 30 245 52 223 52"
      /><rect x="234" y="30" width="11" style="clip-path:url(#clipPath1); fill:rgb(0,144,188); stroke:none;" height="22"
      /><rect x="234" y="30" width="11" style="clip-path:url(#clipPath1); fill:none; stroke:black;" height="22"
      /><polygon style="fill:none; stroke:black;" points=" 234 30 245 52 223 52"
      /><polygon style="fill:none; stroke:black;" points=" 163 41 93 41"
      /><polygon style="clip-path:url(#clipPath2); stroke:none;" points=" 163 30 174 41 163 52 152 41"
      /><rect x="152" y="30" width="22" style="clip-path:url(#clipPath2); fill:rgb(255,212,0); stroke:none;" height="11"
      /><rect x="152" y="30" width="22" style="clip-path:url(#clipPath2); fill:none; stroke:black;" height="11"
      /><polygon style="fill:none; stroke:black;" points=" 163 30 174 41 163 52 152 41"
      /><rect x="159" y="58" width="32" style="stroke:none;" height="10"
    /></g
    ><g style="text-rendering:optimizeSpeed; font-size:14px; font-family:'SansSerif';"
    ><path style="stroke:none;" d="M159.6094 69 L166.0625 69 L166.0625 67.8906 L163.2344 67.8906 C162.7031 67.8906 162.0781 67.9531 161.5469 67.9844 C163.9531 65.7031 165.5625 63.625 165.5625 61.5781 C165.5625 59.75 164.4219 58.5469 162.5781 58.5469 C161.2812 58.5469 160.4062 59.1406 159.5625 60.0469 L160.2969 60.7812 C160.8594 60.1094 161.5938 59.5938 162.4375 59.5938 C163.7031 59.5938 164.3125 60.4531 164.3125 61.625 C164.3125 63.3906 162.8438 65.4375 159.6094 68.25 L159.6094 69 ZM168.1762 69 L169.395 69 L169.395 63.6094 C169.395 62.5312 169.3012 61.4375 169.2543 60.4062 L169.3012 60.4062 L170.4106 62.5156 L174.145 69 L175.4731 69 L175.4731 58.7188 L174.2387 58.7188 L174.2387 64.0781 C174.2387 65.1406 174.3481 66.2812 174.4106 67.3125 L174.3481 67.3125 L173.2543 65.2031 L169.52 58.7188 L168.1762 58.7188 L168.1762 69 ZM180.0498 63.2656 C180.4248 62.0938 180.7529 60.9844 181.0811 59.7812 L181.1279 59.7812 C181.4717 60.9844 181.7842 62.0938 182.1748 63.2656 L182.6592 64.8281 L179.5498 64.8281 L180.0498 63.2656 ZM176.9248 69 L178.2373 69 L179.2373 65.8594 L182.9873 65.8594 L183.9561 69 L185.3311 69 L181.8467 58.7188 L180.4092 58.7188 L176.9248 69 ZM189.6572 69.1875 C190.5634 69.1875 191.4384 68.8281 192.1259 68.2188 L191.5634 67.3594 C191.0947 67.7969 190.4697 68.125 189.7665 68.125 C188.3759 68.125 187.4228 66.9531 187.4228 65.2031 C187.4228 63.4531 188.4228 62.2656 189.8134 62.2656 C190.4228 62.2656 190.8759 62.5469 191.329 62.9375 L191.9853 62.0938 C191.4384 61.625 190.7509 61.2031 189.7509 61.2031 C187.8134 61.2031 186.0947 62.6719 186.0947 65.2031 C186.0947 67.7188 187.6415 69.1875 189.6572 69.1875 Z"
      /><rect x="134" y="58" width="22" style="fill:white; stroke:none;" height="10"
      /><path style="stroke:none;" d="M137.7031 69.1875 C139.5156 69.1875 140.9844 68.0938 140.9844 66.25 C140.9844 64.8594 140.0156 63.9375 138.8125 63.6562 L138.8125 63.5938 C139.8906 63.1875 140.6406 62.3594 140.6406 61.125 C140.6406 59.5 139.375 58.5469 137.6562 58.5469 C136.4688 58.5469 135.5469 59.0625 134.7812 59.7812 L135.4688 60.5938 C136.0469 60 136.7656 59.5938 137.5938 59.5938 C138.6562 59.5938 139.3281 60.2344 139.3281 61.2188 C139.3281 62.3281 138.6094 63.1719 136.4844 63.1719 L136.4844 64.1562 C138.8594 64.1562 139.6875 64.9844 139.6875 66.2031 C139.6875 67.3906 138.8125 68.125 137.5938 68.125 C136.4375 68.125 135.6562 67.5781 135.0469 66.9375 L134.4062 67.7812 C135.0781 68.5156 136.0938 69.1875 137.7031 69.1875 ZM144.9418 63.2656 C145.3168 62.0938 145.645 60.9844 145.9731 59.7812 L146.02 59.7812 C146.3637 60.9844 146.6762 62.0938 147.0668 63.2656 L147.5512 64.8281 L144.4418 64.8281 L144.9418 63.2656 ZM141.8168 69 L143.1293 69 L144.1293 65.8594 L147.8793 65.8594 L148.8481 69 L150.2231 69 L146.7387 58.7188 L145.3012 58.7188 L141.8168 69 ZM154.5492 69.1875 C155.4554 69.1875 156.3304 68.8281 157.0179 68.2188 L156.4554 67.3594 C155.9867 67.7969 155.3617 68.125 154.6586 68.125 C153.2679 68.125 152.3148 66.9531 152.3148 65.2031 C152.3148 63.4531 153.3148 62.2656 154.7054 62.2656 C155.3148 62.2656 155.7679 62.5469 156.2211 62.9375 L156.8773 62.0938 C156.3304 61.625 155.6429 61.2031 154.6429 61.2031 C152.7054 61.2031 150.9867 62.6719 150.9867 65.2031 C150.9867 67.7188 152.5336 69.1875 154.5492 69.1875 Z"
      /><polygon style="fill:none;" points=" 93 41 41 41"
    /></g
    ><g style="fill:white; text-rendering:optimizeSpeed; stroke:white;"
    ><polygon style="stroke:none; clip-path:url(#clipPath3);" points=" 93 30 104 52 82 52"
      /><rect x="82" y="30" width="22" style="clip-path:url(#clipPath3); fill:rgb(0,166,81); stroke:none;" height="22"
      /><rect x="82" y="30" width="22" style="clip-path:url(#clipPath3); fill:none; stroke:black;" height="22"
      /><polygon style="fill:none; stroke:black;" points=" 93 30 104 52 82 52"
      /><polygon style="clip-path:url(#clipPath4); stroke:none;" points=" 41 30 52 52 30 52"
      /><rect x="30" y="30" width="22" style="clip-path:url(#clipPath4); fill:rgb(0,166,81); stroke:none;" height="22"
      /><rect x="30" y="30" width="22" style="clip-path:url(#clipPath4); fill:none; stroke:black;" height="22"
      /><polygon style="fill:none; stroke:black;" points=" 41 30 52 52 30 52"
      /><rect x="71" width="5" height="10" y="44" style="stroke:none;"
      /><path d="M72.8906 52.6875 C72.4844 52.6875 72.1562 53.0469 72.1562 53.4219 C72.1562 53.8125 72.4844 54.1562 72.8906 54.1562 C73.2969 54.1562 73.6406 53.8125 73.6406 53.4219 C73.6406 53.0469 73.2969 52.6875 72.8906 52.6875 ZM74.4688 46.5781 C74.7188 46.8906 74.875 47.2656 74.8906 47.6562 C74.8906 48.1875 74.625 48.5 74.0312 48.7656 L73.4062 49.0156 C72.6406 49.3125 72.3906 49.5469 72.3906 49.9375 C72.3906 50.1094 72.4531 50.3438 72.5781 50.8125 L72.7344 51.3438 L73.1094 51.3438 L73.0938 50.5312 C73.0938 50.0938 73.2031 49.9688 73.7812 49.7344 L74.2031 49.5625 C75.0312 49.2188 75.4531 48.6875 75.4531 47.8438 C75.4531 46.1562 73.6562 45.1875 72.5 45.0312 C72.1094 45.125 71.9062 45.2969 71.9062 45.6406 C71.9062 45.9375 72.0625 46.1562 72.7188 46.2656 L74.4688 46.5781 Z" style="fill:black; stroke:none;"
      /><rect x="57" width="5" height="10" y="44" style="stroke:none;"
      /><path d="M58.8906 52.6875 C58.4844 52.6875 58.1562 53.0469 58.1562 53.4219 C58.1562 53.8125 58.4844 54.1562 58.8906 54.1562 C59.2969 54.1562 59.6406 53.8125 59.6406 53.4219 C59.6406 53.0469 59.2969 52.6875 58.8906 52.6875 ZM60.4688 46.5781 C60.7188 46.8906 60.875 47.2656 60.8906 47.6562 C60.8906 48.1875 60.625 48.5 60.0312 48.7656 L59.4062 49.0156 C58.6406 49.3125 58.3906 49.5469 58.3906 49.9375 C58.3906 50.1094 58.4531 50.3438 58.5781 50.8125 L58.7344 51.3438 L59.1094 51.3438 L59.0938 50.5312 C59.0938 50.0938 59.2031 49.9688 59.7812 49.7344 L60.2031 49.5625 C61.0312 49.2188 61.4531 48.6875 61.4531 47.8438 C61.4531 46.1562 59.6562 45.1875 58.5 45.0312 C58.1094 45.125 57.9062 45.2969 57.9062 45.6406 C57.9062 45.9375 58.0625 46.1562 58.7188 46.2656 L60.4688 46.5781 Z" style="fill:black; stroke:none;"
      /><rect x="123" width="5" height="10" y="44" style="stroke:none;"
      /><path d="M124.8906 52.6875 C124.4844 52.6875 124.1562 53.0469 124.1562 53.4219 C124.1562 53.8125 124.4844 54.1562 124.8906 54.1562 C125.2969 54.1562 125.6406 53.8125 125.6406 53.4219 C125.6406 53.0469 125.2969 52.6875 124.8906 52.6875 ZM126.4688 46.5781 C126.7188 46.8906 126.875 47.2656 126.8906 47.6562 C126.8906 48.1875 126.625 48.5 126.0312 48.7656 L125.4062 49.0156 C124.6406 49.3125 124.3906 49.5469 124.3906 49.9375 C124.3906 50.1094 124.4531 50.3438 124.5781 50.8125 L124.7344 51.3438 L125.1094 51.3438 L125.0938 50.5312 C125.0938 50.0938 125.2031 49.9688 125.7812 49.7344 L126.2031 49.5625 C127.0312 49.2188 127.4531 48.6875 127.4531 47.8438 C127.4531 46.1562 125.6562 45.1875 124.5 45.0312 C124.1094 45.125 123.9062 45.2969 123.9062 45.6406 C123.9062 45.9375 124.0625 46.1562 124.7188 46.2656 L126.4688 46.5781 Z" style="fill:black; stroke:none;"
      /><rect x="109" width="5" height="10" y="44" style="stroke:none;"
      /><path d="M110.8906 52.6875 C110.4844 52.6875 110.1562 53.0469 110.1562 53.4219 C110.1562 53.8125 110.4844 54.1562 110.8906 54.1562 C111.2969 54.1562 111.6406 53.8125 111.6406 53.4219 C111.6406 53.0469 111.2969 52.6875 110.8906 52.6875 ZM112.4688 46.5781 C112.7188 46.8906 112.875 47.2656 112.8906 47.6562 C112.8906 48.1875 112.625 48.5 112.0312 48.7656 L111.4062 49.0156 C110.6406 49.3125 110.3906 49.5469 110.3906 49.9375 C110.3906 50.1094 110.4531 50.3438 110.5781 50.8125 L110.7344 51.3438 L111.1094 51.3438 L111.0938 50.5312 C111.0938 50.0938 111.2031 49.9688 111.7812 49.7344 L112.2031 49.5625 C113.0312 49.2188 113.4531 48.6875 113.4531 47.8438 C113.4531 46.1562 111.6562 45.1875 110.5 45.0312 C110.1094 45.125 109.9062 45.2969 109.9062 45.6406 C109.9062 45.9375 110.0625 46.1562 110.7188 46.2656 L112.4688 46.5781 Z" style="fill:black; stroke:none;"
      /><rect x="212" width="5" height="10" y="44" style="stroke:none;"
      /><path d="M213.8906 52.6875 C213.4844 52.6875 213.1562 53.0469 213.1562 53.4219 C213.1562 53.8125 213.4844 54.1562 213.8906 54.1562 C214.2969 54.1562 214.6406 53.8125 214.6406 53.4219 C214.6406 53.0469 214.2969 52.6875 213.8906 52.6875 ZM215.4688 46.5781 C215.7188 46.8906 215.875 47.2656 215.8906 47.6562 C215.8906 48.1875 215.625 48.5 215.0312 48.7656 L214.4062 49.0156 C213.6406 49.3125 213.3906 49.5469 213.3906 49.9375 C213.3906 50.1094 213.4531 50.3438 213.5781 50.8125 L213.7344 51.3438 L214.1094 51.3438 L214.0938 50.5312 C214.0938 50.0938 214.2031 49.9688 214.7812 49.7344 L215.2031 49.5625 C216.0312 49.2188 216.4531 48.6875 216.4531 47.8438 C216.4531 46.1562 214.6562 45.1875 213.5 45.0312 C213.1094 45.125 212.9062 45.2969 212.9062 45.6406 C212.9062 45.9375 213.0625 46.1562 213.7188 46.2656 L215.4688 46.5781 Z" style="fill:black; stroke:none;"
      /><rect x="198" width="5" height="10" y="44" style="stroke:none;"
      /><path d="M199.8906 52.6875 C199.4844 52.6875 199.1562 53.0469 199.1562 53.4219 C199.1562 53.8125 199.4844 54.1562 199.8906 54.1562 C200.2969 54.1562 200.6406 53.8125 200.6406 53.4219 C200.6406 53.0469 200.2969 52.6875 199.8906 52.6875 ZM201.4688 46.5781 C201.7188 46.8906 201.875 47.2656 201.8906 47.6562 C201.8906 48.1875 201.625 48.5 201.0312 48.7656 L200.4062 49.0156 C199.6406 49.3125 199.3906 49.5469 199.3906 49.9375 C199.3906 50.1094 199.4531 50.3438 199.5781 50.8125 L199.7344 51.3438 L200.1094 51.3438 L200.0938 50.5312 C200.0938 50.0938 200.2031 49.9688 200.7812 49.7344 L201.2031 49.5625 C202.0312 49.2188 202.4531 48.6875 202.4531 47.8438 C202.4531 46.1562 200.6562 45.1875 199.5 45.0312 C199.1094 45.125 198.9062 45.2969 198.9062 45.6406 C198.9062 45.9375 199.0625 46.1562 199.7188 46.2656 L201.4688 46.5781 Z" style="fill:black; stroke:none;"
      /><rect x="250" width="5" height="10" y="44" style="stroke:none;"
      /><path d="M251.8906 52.6875 C251.4844 52.6875 251.1562 53.0469 251.1562 53.4219 C251.1562 53.8125 251.4844 54.1562 251.8906 54.1562 C252.2969 54.1562 252.6406 53.8125 252.6406 53.4219 C252.6406 53.0469 252.2969 52.6875 251.8906 52.6875 ZM253.4688 46.5781 C253.7188 46.8906 253.875 47.2656 253.8906 47.6562 C253.8906 48.1875 253.625 48.5 253.0312 48.7656 L252.4062 49.0156 C251.6406 49.3125 251.3906 49.5469 251.3906 49.9375 C251.3906 50.1094 251.4531 50.3438 251.5781 50.8125 L251.7344 51.3438 L252.1094 51.3438 L252.0938 50.5312 C252.0938 50.0938 252.2031 49.9688 252.7812 49.7344 L253.2031 49.5625 C254.0312 49.2188 254.4531 48.6875 254.4531 47.8438 C254.4531 46.1562 252.6562 45.1875 251.5 45.0312 C251.1094 45.125 250.9062 45.2969 250.9062 45.6406 C250.9062 45.9375 251.0625 46.1562 251.7188 46.2656 L253.4688 46.5781 Z" style="fill:black; stroke:none;"
    /></g
  ></g
></svg
>
