<?xml version="1.0"?>
<!DOCTYPE svg PUBLIC '-//W3C//DTD SVG 1.0//EN'
          'http://www.w3.org/TR/2001/REC-SVG-20010904/DTD/svg10.dtd'>
<svg xmlns:xlink="http://www.w3.org/1999/xlink" style="fill-opacity:1; color-rendering:auto; color-interpolation:auto; text-rendering:auto; stroke:black; stroke-linecap:square; stroke-miterlimit:10; shape-rendering:auto; stroke-opacity:1; fill:black; stroke-dasharray:none; font-weight:normal; stroke-width:1; font-family:'Dialog'; font-style:normal; stroke-linejoin:miter; font-size:12px; stroke-dashoffset:0; image-rendering:auto;" viewBox="0 0 698 134" xmlns="http://www.w3.org/2000/svg"
><!--Generated by the Batik Graphics2D SVG Generator--><defs id="genericDefs"
  /><g
  ><defs id="defs1"
    ><clipPath clipPathUnits="userSpaceOnUse" id="clipPath1"
      ><path d="M594 56 L616 56 L616 78 L594 78 L594 56 Z"
      /></clipPath
      ><clipPath clipPathUnits="userSpaceOnUse" id="clipPath2"
      ><path d="M542 56 L564 56 L564 78 L542 78 L542 56 Z"
      /></clipPath
      ><clipPath clipPathUnits="userSpaceOnUse" id="clipPath3"
      ><path d="M512 67 C512 73.0751 507.0751 78 501 78 C494.9249 78 490 73.0751 490 67 C490 60.9249 494.9249 56 501 56 C507.0751 56 512 60.9249 512 67 Z"
      /></clipPath
      ><clipPath clipPathUnits="userSpaceOnUse" id="clipPath4"
      ><path d="M460 93 C460 99.0751 455.0751 104 449 104 C442.9249 104 438 99.0751 438 93 C438 86.9249 442.9249 82 449 82 C455.0751 82 460 86.9249 460 93 Z"
      /></clipPath
      ><clipPath clipPathUnits="userSpaceOnUse" id="clipPath5"
      ><path d="M386 82 L408 82 L408 104 L386 104 L386 82 Z"
      /></clipPath
      ><clipPath clipPathUnits="userSpaceOnUse" id="clipPath6"
      ><path d="M356 93 C356 99.0751 351.0751 104 345 104 C338.9249 104 334 99.0751 334 93 C334 86.9249 338.9249 82 345 82 C351.0751 82 356 86.9249 356 93 Z"
      /></clipPath
      ><clipPath clipPathUnits="userSpaceOnUse" id="clipPath7"
      ><path style="fill-rule:evenodd;" d="M293 82 L304 93 L293 104 L282 93 Z"
      /></clipPath
      ><clipPath clipPathUnits="userSpaceOnUse" id="clipPath8"
      ><path style="fill-rule:evenodd;" d="M241 82 L252 93 L241 104 L230 93 Z"
      /></clipPath
      ><clipPath clipPathUnits="userSpaceOnUse" id="clipPath9"
      ><path d="M460 41 C460 47.0751 455.0751 52 449 52 C442.9249 52 438 47.0751 438 41 C438 34.9249 442.9249 30 449 30 C455.0751 30 460 34.9249 460 41 Z"
      /></clipPath
      ><clipPath clipPathUnits="userSpaceOnUse" id="clipPath10"
      ><path d="M386 30 L408 30 L408 52 L386 52 L386 30 Z"
      /></clipPath
      ><clipPath clipPathUnits="userSpaceOnUse" id="clipPath11"
      ><path d="M356 41 C356 47.0751 351.0751 52 345 52 C338.9249 52 334 47.0751 334 41 C334 34.9249 338.9249 30 345 30 C351.0751 30 356 34.9249 356 41 Z"
      /></clipPath
      ><clipPath clipPathUnits="userSpaceOnUse" id="clipPath12"
      ><path d="M304 41 C304 47.0751 299.0751 52 293 52 C286.9249 52 282 47.0751 282 41 C282 34.9249 286.9249 30 293 30 C299.0751 30 304 34.9249 304 41 Z"
      /></clipPath
      ><clipPath clipPathUnits="userSpaceOnUse" id="clipPath13"
      ><path d="M134 56 L156 56 L156 78 L134 78 L134 56 Z"
      /></clipPath
      ><clipPath clipPathUnits="userSpaceOnUse" id="clipPath14"
      ><path d="M104 67 C104 73.0751 99.0751 78 93 78 C86.9249 78 82 73.0751 82 67 C82 60.9249 86.9249 56 93 56 C99.0751 56 104 60.9249 104 67 Z"
      /></clipPath
      ><clipPath clipPathUnits="userSpaceOnUse" id="clipPath15"
      ><path d="M52 67 C52 73.0751 47.0751 78 41 78 C34.9249 78 30 73.0751 30 67 C30 60.9249 34.9249 56 41 56 C47.0751 56 52 60.9249 52 67 Z"
      /></clipPath
    ></defs
    ><g style="fill:white; text-rendering:optimizeSpeed; stroke:white;"
    ><rect x="0" width="698" height="134" y="0" style="stroke:none;"
      /><polygon style="fill:none; stroke:black;" points=" 657 67 605 67"
      /><path d="M657 56 C651.5 61.5 662.5 72.5 657 78" style="fill:none; stroke:black;"
      /><polygon style="fill:none; stroke:black;" points=" 605 67 553 67"
      /><rect x="594" y="56" width="22" style="clip-path:url(#clipPath1); stroke:none;" height="22"
      /><rect x="594" y="56" width="22" style="clip-path:url(#clipPath1); fill:rgb(0,144,188); stroke:none;" height="22"
      /><rect x="594" y="56" width="22" style="clip-path:url(#clipPath1); fill:none; stroke:black;" height="22"
      /><rect x="594" y="56" width="22" style="fill:none; stroke:black;" height="22"
      /><polygon style="fill:none; stroke:black;" points=" 553 67 501 67"
      /><rect x="542" y="56" width="22" style="clip-path:url(#clipPath2); stroke:none;" height="22"
      /><rect x="542" y="56" width="22" style="clip-path:url(#clipPath2); fill:rgb(0,144,188); stroke:none;" height="22"
      /><rect x="542" y="56" width="22" style="clip-path:url(#clipPath2); fill:none; stroke:black;" height="22"
      /><rect x="542" y="56" width="22" style="fill:none; stroke:black;" height="22"
      /><polygon style="fill:none; stroke:black;" points=" 501 67 449 93"
      /><polygon style="fill:none; stroke:black;" points=" 501 67 449 41"
      /><circle style="clip-path:url(#clipPath3); stroke:none;" r="11" cx="501" cy="67"
      /><rect x="490" y="56" width="22" style="clip-path:url(#clipPath3); fill:rgb(0,166,81); stroke:none;" height="22"
      /><rect x="490" y="56" width="22" style="clip-path:url(#clipPath3); fill:none; stroke:black;" height="22"
      /><circle style="fill:none; stroke:black;" r="11" cx="501" cy="67"
      /><polygon style="fill:none; stroke:black;" points=" 449 93 397 93"
      /><circle style="clip-path:url(#clipPath4); stroke:none;" r="11" cx="449" cy="93"
      /><rect x="438" y="82" width="22" style="clip-path:url(#clipPath4); fill:rgb(0,166,81); stroke:none;" height="22"
      /><rect x="438" y="82" width="22" style="clip-path:url(#clipPath4); fill:none; stroke:black;" height="22"
      /><circle style="fill:none; stroke:black;" r="11" cx="449" cy="93"
      /><polygon style="fill:none; stroke:black;" points=" 397 93 345 93"
      /><rect x="386" y="82" width="22" style="clip-path:url(#clipPath5); stroke:none;" height="22"
      /><rect x="386" y="82" width="22" style="clip-path:url(#clipPath5); fill:rgb(0,144,188); stroke:none;" height="22"
      /><rect x="386" y="82" width="22" style="clip-path:url(#clipPath5); fill:none; stroke:black;" height="22"
      /><rect x="386" y="82" width="22" style="fill:none; stroke:black;" height="22"
      /><polygon style="fill:none; stroke:black;" points=" 345 93 293 93"
      /><circle style="clip-path:url(#clipPath6); stroke:none;" r="11" cx="345" cy="93"
      /><rect x="334" y="82" width="22" style="clip-path:url(#clipPath6); fill:rgb(255,212,0); stroke:none;" height="22"
      /><rect x="334" y="82" width="22" style="clip-path:url(#clipPath6); fill:none; stroke:black;" height="22"
      /><circle style="fill:none; stroke:black;" r="11" cx="345" cy="93"
      /><polygon style="fill:none; stroke:black;" points=" 293 93 241 93"
      /><polygon style="clip-path:url(#clipPath7); stroke:none;" points=" 293 82 304 93 293 104 282 93"
      /><rect x="282" y="82" width="22" style="clip-path:url(#clipPath7); fill:rgb(165,67,153); stroke:none;" height="22"
      /><rect x="282" y="82" width="22" style="clip-path:url(#clipPath7); fill:none; stroke:black;" height="22"
      /><polygon style="fill:none; stroke:black;" points=" 293 82 304 93 293 104 282 93"
      /><polygon style="clip-path:url(#clipPath8); stroke:none;" points=" 241 82 252 93 241 104 230 93"
      /><rect x="230" y="82" width="22" style="clip-path:url(#clipPath8); fill:rgb(165,67,153); stroke:none;" height="22"
      /><rect x="230" y="82" width="22" style="clip-path:url(#clipPath8); fill:none; stroke:black;" height="22"
      /><polygon style="fill:none; stroke:black;" points=" 241 82 252 93 241 104 230 93"
      /><rect x="271" y="96" width="5" style="stroke:none;" height="10"
    /></g
    ><g style="font-family:'Serif'; text-rendering:optimizeSpeed; "
    ><path style="stroke:none;" d="M272.8906 104.6875 C272.4844 104.6875 272.1562 105.0469 272.1562 105.4219 C272.1562 105.8125 272.4844 106.1562 272.8906 106.1562 C273.2969 106.1562 273.6406 105.8125 273.6406 105.4219 C273.6406 105.0469 273.2969 104.6875 272.8906 104.6875 ZM274.4688 98.5781 C274.7188 98.8906 274.875 99.2656 274.8906 99.6562 C274.8906 100.1875 274.625 100.5 274.0312 100.7656 L273.4062 101.0156 C272.6406 101.3125 272.3906 101.5469 272.3906 101.9375 C272.3906 102.1094 272.4531 102.3438 272.5781 102.8125 L272.7344 103.3438 L273.1094 103.3438 L273.0938 102.5312 C273.0938 102.0938 273.2031 101.9688 273.7812 101.7344 L274.2031 101.5625 C275.0312 101.2188 275.4531 100.6875 275.4531 99.8438 C275.4531 98.1562 273.6562 97.1875 272.5 97.0312 C272.1094 97.125 271.9062 97.2969 271.9062 97.6406 C271.9062 97.9375 272.0625 98.1562 272.7188 98.2656 L274.4688 98.5781 Z"
      /><rect x="257" y="96" width="5" style="fill:white; stroke:none;" height="10"
      /><path style="stroke:none;" d="M258.8906 104.6875 C258.4844 104.6875 258.1562 105.0469 258.1562 105.4219 C258.1562 105.8125 258.4844 106.1562 258.8906 106.1562 C259.2969 106.1562 259.6406 105.8125 259.6406 105.4219 C259.6406 105.0469 259.2969 104.6875 258.8906 104.6875 ZM260.4688 98.5781 C260.7188 98.8906 260.875 99.2656 260.8906 99.6562 C260.8906 100.1875 260.625 100.5 260.0312 100.7656 L259.4062 101.0156 C258.6406 101.3125 258.3906 101.5469 258.3906 101.9375 C258.3906 102.1094 258.4531 102.3438 258.5781 102.8125 L258.7344 103.3438 L259.1094 103.3438 L259.0938 102.5312 C259.0938 102.0938 259.2031 101.9688 259.7812 101.7344 L260.2031 101.5625 C261.0312 101.2188 261.4531 100.6875 261.4531 99.8438 C261.4531 98.1562 259.6562 97.1875 258.5 97.0312 C258.1094 97.125 257.9062 97.2969 257.9062 97.6406 C257.9062 97.9375 258.0625 98.1562 258.7188 98.2656 L260.4688 98.5781 Z"
      /><rect x="323" y="96" width="5" style="fill:white; stroke:none;" height="10"
      /><path style="stroke:none;" d="M324.8906 104.6875 C324.4844 104.6875 324.1562 105.0469 324.1562 105.4219 C324.1562 105.8125 324.4844 106.1562 324.8906 106.1562 C325.2969 106.1562 325.6406 105.8125 325.6406 105.4219 C325.6406 105.0469 325.2969 104.6875 324.8906 104.6875 ZM326.4688 98.5781 C326.7188 98.8906 326.875 99.2656 326.8906 99.6562 C326.8906 100.1875 326.625 100.5 326.0312 100.7656 L325.4062 101.0156 C324.6406 101.3125 324.3906 101.5469 324.3906 101.9375 C324.3906 102.1094 324.4531 102.3438 324.5781 102.8125 L324.7344 103.3438 L325.1094 103.3438 L325.0938 102.5312 C325.0938 102.0938 325.2031 101.9688 325.7812 101.7344 L326.2031 101.5625 C327.0312 101.2188 327.4531 100.6875 327.4531 99.8438 C327.4531 98.1562 325.6562 97.1875 324.5 97.0312 C324.1094 97.125 323.9062 97.2969 323.9062 97.6406 C323.9062 97.9375 324.0625 98.1562 324.7188 98.2656 L326.4688 98.5781 Z"
      /><rect x="309" y="96" width="5" style="fill:white; stroke:none;" height="10"
      /><path style="stroke:none;" d="M310.8906 104.6875 C310.4844 104.6875 310.1562 105.0469 310.1562 105.4219 C310.1562 105.8125 310.4844 106.1562 310.8906 106.1562 C311.2969 106.1562 311.6406 105.8125 311.6406 105.4219 C311.6406 105.0469 311.2969 104.6875 310.8906 104.6875 ZM312.4688 98.5781 C312.7188 98.8906 312.875 99.2656 312.8906 99.6562 C312.8906 100.1875 312.625 100.5 312.0312 100.7656 L311.4062 101.0156 C310.6406 101.3125 310.3906 101.5469 310.3906 101.9375 C310.3906 102.1094 310.4531 102.3438 310.5781 102.8125 L310.7344 103.3438 L311.1094 103.3438 L311.0938 102.5312 C311.0938 102.0938 311.2031 101.9688 311.7812 101.7344 L312.2031 101.5625 C313.0312 101.2188 313.4531 100.6875 313.4531 99.8438 C313.4531 98.1562 311.6562 97.1875 310.5 97.0312 C310.1094 97.125 309.9062 97.2969 309.9062 97.6406 C309.9062 97.9375 310.0625 98.1562 310.7188 98.2656 L312.4688 98.5781 Z"
      /><rect x="375" y="96" width="5" style="fill:white; stroke:none;" height="10"
      /><path style="stroke:none;" d="M376.8906 104.6875 C376.4844 104.6875 376.1562 105.0469 376.1562 105.4219 C376.1562 105.8125 376.4844 106.1562 376.8906 106.1562 C377.2969 106.1562 377.6406 105.8125 377.6406 105.4219 C377.6406 105.0469 377.2969 104.6875 376.8906 104.6875 ZM378.4688 98.5781 C378.7188 98.8906 378.875 99.2656 378.8906 99.6562 C378.8906 100.1875 378.625 100.5 378.0312 100.7656 L377.4062 101.0156 C376.6406 101.3125 376.3906 101.5469 376.3906 101.9375 C376.3906 102.1094 376.4531 102.3438 376.5781 102.8125 L376.7344 103.3438 L377.1094 103.3438 L377.0938 102.5312 C377.0938 102.0938 377.2031 101.9688 377.7812 101.7344 L378.2031 101.5625 C379.0312 101.2188 379.4531 100.6875 379.4531 99.8438 C379.4531 98.1562 377.6562 97.1875 376.5 97.0312 C376.1094 97.125 375.9062 97.2969 375.9062 97.6406 C375.9062 97.9375 376.0625 98.1562 376.7188 98.2656 L378.4688 98.5781 Z"
      /><rect x="361" y="96" width="5" style="fill:white; stroke:none;" height="10"
      /><path style="stroke:none;" d="M362.8906 104.6875 C362.4844 104.6875 362.1562 105.0469 362.1562 105.4219 C362.1562 105.8125 362.4844 106.1562 362.8906 106.1562 C363.2969 106.1562 363.6406 105.8125 363.6406 105.4219 C363.6406 105.0469 363.2969 104.6875 362.8906 104.6875 ZM364.4688 98.5781 C364.7188 98.8906 364.875 99.2656 364.8906 99.6562 C364.8906 100.1875 364.625 100.5 364.0312 100.7656 L363.4062 101.0156 C362.6406 101.3125 362.3906 101.5469 362.3906 101.9375 C362.3906 102.1094 362.4531 102.3438 362.5781 102.8125 L362.7344 103.3438 L363.1094 103.3438 L363.0938 102.5312 C363.0938 102.0938 363.2031 101.9688 363.7812 101.7344 L364.2031 101.5625 C365.0312 101.2188 365.4531 100.6875 365.4531 99.8438 C365.4531 98.1562 363.6562 97.1875 362.5 97.0312 C362.1094 97.125 361.9062 97.2969 361.9062 97.6406 C361.9062 97.9375 362.0625 98.1562 362.7188 98.2656 L364.4688 98.5781 Z"
      /><rect x="427" y="96" width="5" style="fill:white; stroke:none;" height="10"
      /><path style="stroke:none;" d="M428.8906 104.6875 C428.4844 104.6875 428.1562 105.0469 428.1562 105.4219 C428.1562 105.8125 428.4844 106.1562 428.8906 106.1562 C429.2969 106.1562 429.6406 105.8125 429.6406 105.4219 C429.6406 105.0469 429.2969 104.6875 428.8906 104.6875 ZM430.4688 98.5781 C430.7188 98.8906 430.875 99.2656 430.8906 99.6562 C430.8906 100.1875 430.625 100.5 430.0312 100.7656 L429.4062 101.0156 C428.6406 101.3125 428.3906 101.5469 428.3906 101.9375 C428.3906 102.1094 428.4531 102.3438 428.5781 102.8125 L428.7344 103.3438 L429.1094 103.3438 L429.0938 102.5312 C429.0938 102.0938 429.2031 101.9688 429.7812 101.7344 L430.2031 101.5625 C431.0312 101.2188 431.4531 100.6875 431.4531 99.8438 C431.4531 98.1562 429.6562 97.1875 428.5 97.0312 C428.1094 97.125 427.9062 97.2969 427.9062 97.6406 C427.9062 97.9375 428.0625 98.1562 428.7188 98.2656 L430.4688 98.5781 Z"
      /><rect x="413" y="96" width="5" style="fill:white; stroke:none;" height="10"
      /><path style="stroke:none;" d="M414.8906 104.6875 C414.4844 104.6875 414.1562 105.0469 414.1562 105.4219 C414.1562 105.8125 414.4844 106.1562 414.8906 106.1562 C415.2969 106.1562 415.6406 105.8125 415.6406 105.4219 C415.6406 105.0469 415.2969 104.6875 414.8906 104.6875 ZM416.4688 98.5781 C416.7188 98.8906 416.875 99.2656 416.8906 99.6562 C416.8906 100.1875 416.625 100.5 416.0312 100.7656 L415.4062 101.0156 C414.6406 101.3125 414.3906 101.5469 414.3906 101.9375 C414.3906 102.1094 414.4531 102.3438 414.5781 102.8125 L414.7344 103.3438 L415.1094 103.3438 L415.0938 102.5312 C415.0938 102.0938 415.2031 101.9688 415.7812 101.7344 L416.2031 101.5625 C417.0312 101.2188 417.4531 100.6875 417.4531 99.8438 C417.4531 98.1562 415.6562 97.1875 414.5 97.0312 C414.1094 97.125 413.9062 97.2969 413.9062 97.6406 C413.9062 97.9375 414.0625 98.1562 414.7188 98.2656 L416.4688 98.5781 Z"
      /><polygon style="fill:none;" points=" 449 41 397 41"
      /><circle style="fill:white; clip-path:url(#clipPath9); stroke:none;" r="11" cx="449" cy="41"
      /><rect x="438" y="30" width="22" style="clip-path:url(#clipPath9); fill:rgb(0,166,81); stroke:none;" height="22"
      /><rect x="438" y="30" width="22" style="fill:none; clip-path:url(#clipPath9);" height="22"
      /><circle r="11" style="fill:none;" cx="449" cy="41"
      /><polygon style="fill:none;" points=" 397 41 345 41"
      /><rect x="386" y="30" width="22" style="clip-path:url(#clipPath10); fill:white; stroke:none;" height="22"
      /><rect x="386" y="30" width="22" style="clip-path:url(#clipPath10); fill:rgb(0,144,188); stroke:none;" height="22"
      /><rect x="386" y="30" width="22" style="fill:none; clip-path:url(#clipPath10);" height="22"
      /><rect x="386" width="22" height="22" y="30" style="fill:none;"
      /><polygon style="fill:none;" points=" 345 41 293 41"
      /><circle style="fill:white; clip-path:url(#clipPath11); stroke:none;" r="11" cx="345" cy="41"
      /><rect x="334" y="30" width="22" style="clip-path:url(#clipPath11); fill:rgb(255,212,0); stroke:none;" height="22"
      /><rect x="334" y="30" width="22" style="fill:none; clip-path:url(#clipPath11);" height="22"
      /><circle r="11" style="fill:none;" cx="345" cy="41"
      /><circle style="fill:white; clip-path:url(#clipPath12); stroke:none;" r="11" cx="293" cy="41"
      /><rect x="282" y="30" width="22" style="clip-path:url(#clipPath12); fill:rgb(255,212,0); stroke:none;" height="22"
      /><rect x="282" y="30" width="22" style="fill:none; clip-path:url(#clipPath12);" height="22"
      /><circle r="11" style="fill:none;" cx="293" cy="41"
      /><rect x="323" y="44" width="5" style="fill:white; stroke:none;" height="10"
      /><path style="stroke:none;" d="M324.8906 52.6875 C324.4844 52.6875 324.1562 53.0469 324.1562 53.4219 C324.1562 53.8125 324.4844 54.1562 324.8906 54.1562 C325.2969 54.1562 325.6406 53.8125 325.6406 53.4219 C325.6406 53.0469 325.2969 52.6875 324.8906 52.6875 ZM326.4688 46.5781 C326.7188 46.8906 326.875 47.2656 326.8906 47.6562 C326.8906 48.1875 326.625 48.5 326.0312 48.7656 L325.4062 49.0156 C324.6406 49.3125 324.3906 49.5469 324.3906 49.9375 C324.3906 50.1094 324.4531 50.3438 324.5781 50.8125 L324.7344 51.3438 L325.1094 51.3438 L325.0938 50.5312 C325.0938 50.0938 325.2031 49.9688 325.7812 49.7344 L326.2031 49.5625 C327.0312 49.2188 327.4531 48.6875 327.4531 47.8438 C327.4531 46.1562 325.6562 45.1875 324.5 45.0312 C324.1094 45.125 323.9062 45.2969 323.9062 45.6406 C323.9062 45.9375 324.0625 46.1562 324.7188 46.2656 L326.4688 46.5781 Z"
      /><rect x="309" y="44" width="5" style="fill:white; stroke:none;" height="10"
      /><path style="stroke:none;" d="M310.8906 52.6875 C310.4844 52.6875 310.1562 53.0469 310.1562 53.4219 C310.1562 53.8125 310.4844 54.1562 310.8906 54.1562 C311.2969 54.1562 311.6406 53.8125 311.6406 53.4219 C311.6406 53.0469 311.2969 52.6875 310.8906 52.6875 ZM312.4688 46.5781 C312.7188 46.8906 312.875 47.2656 312.8906 47.6562 C312.8906 48.1875 312.625 48.5 312.0312 48.7656 L311.4062 49.0156 C310.6406 49.3125 310.3906 49.5469 310.3906 49.9375 C310.3906 50.1094 310.4531 50.3438 310.5781 50.8125 L310.7344 51.3438 L311.1094 51.3438 L311.0938 50.5312 C311.0938 50.0938 311.2031 49.9688 311.7812 49.7344 L312.2031 49.5625 C313.0312 49.2188 313.4531 48.6875 313.4531 47.8438 C313.4531 46.1562 311.6562 45.1875 310.5 45.0312 C310.1094 45.125 309.9062 45.2969 309.9062 45.6406 C309.9062 45.9375 310.0625 46.1562 310.7188 46.2656 L312.4688 46.5781 Z"
      /><rect x="375" y="44" width="5" style="fill:white; stroke:none;" height="10"
      /><path style="stroke:none;" d="M376.8906 52.6875 C376.4844 52.6875 376.1562 53.0469 376.1562 53.4219 C376.1562 53.8125 376.4844 54.1562 376.8906 54.1562 C377.2969 54.1562 377.6406 53.8125 377.6406 53.4219 C377.6406 53.0469 377.2969 52.6875 376.8906 52.6875 ZM378.4688 46.5781 C378.7188 46.8906 378.875 47.2656 378.8906 47.6562 C378.8906 48.1875 378.625 48.5 378.0312 48.7656 L377.4062 49.0156 C376.6406 49.3125 376.3906 49.5469 376.3906 49.9375 C376.3906 50.1094 376.4531 50.3438 376.5781 50.8125 L376.7344 51.3438 L377.1094 51.3438 L377.0938 50.5312 C377.0938 50.0938 377.2031 49.9688 377.7812 49.7344 L378.2031 49.5625 C379.0312 49.2188 379.4531 48.6875 379.4531 47.8438 C379.4531 46.1562 377.6562 45.1875 376.5 45.0312 C376.1094 45.125 375.9062 45.2969 375.9062 45.6406 C375.9062 45.9375 376.0625 46.1562 376.7188 46.2656 L378.4688 46.5781 Z"
      /><rect x="361" y="44" width="5" style="fill:white; stroke:none;" height="10"
      /><path style="stroke:none;" d="M362.8906 52.6875 C362.4844 52.6875 362.1562 53.0469 362.1562 53.4219 C362.1562 53.8125 362.4844 54.1562 362.8906 54.1562 C363.2969 54.1562 363.6406 53.8125 363.6406 53.4219 C363.6406 53.0469 363.2969 52.6875 362.8906 52.6875 ZM364.4688 46.5781 C364.7188 46.8906 364.875 47.2656 364.8906 47.6562 C364.8906 48.1875 364.625 48.5 364.0312 48.7656 L363.4062 49.0156 C362.6406 49.3125 362.3906 49.5469 362.3906 49.9375 C362.3906 50.1094 362.4531 50.3438 362.5781 50.8125 L362.7344 51.3438 L363.1094 51.3438 L363.0938 50.5312 C363.0938 50.0938 363.2031 49.9688 363.7812 49.7344 L364.2031 49.5625 C365.0312 49.2188 365.4531 48.6875 365.4531 47.8438 C365.4531 46.1562 363.6562 45.1875 362.5 45.0312 C362.1094 45.125 361.9062 45.2969 361.9062 45.6406 C361.9062 45.9375 362.0625 46.1562 362.7188 46.2656 L364.4688 46.5781 Z"
      /><rect x="427" y="44" width="5" style="fill:white; stroke:none;" height="10"
      /><path style="stroke:none;" d="M428.8906 52.6875 C428.4844 52.6875 428.1562 53.0469 428.1562 53.4219 C428.1562 53.8125 428.4844 54.1562 428.8906 54.1562 C429.2969 54.1562 429.6406 53.8125 429.6406 53.4219 C429.6406 53.0469 429.2969 52.6875 428.8906 52.6875 ZM430.4688 46.5781 C430.7188 46.8906 430.875 47.2656 430.8906 47.6562 C430.8906 48.1875 430.625 48.5 430.0312 48.7656 L429.4062 49.0156 C428.6406 49.3125 428.3906 49.5469 428.3906 49.9375 C428.3906 50.1094 428.4531 50.3438 428.5781 50.8125 L428.7344 51.3438 L429.1094 51.3438 L429.0938 50.5312 C429.0938 50.0938 429.2031 49.9688 429.7812 49.7344 L430.2031 49.5625 C431.0312 49.2188 431.4531 48.6875 431.4531 47.8438 C431.4531 46.1562 429.6562 45.1875 428.5 45.0312 C428.1094 45.125 427.9062 45.2969 427.9062 45.6406 C427.9062 45.9375 428.0625 46.1562 428.7188 46.2656 L430.4688 46.5781 Z"
      /><rect x="413" y="44" width="5" style="fill:white; stroke:none;" height="10"
      /><path style="stroke:none;" d="M414.8906 52.6875 C414.4844 52.6875 414.1562 53.0469 414.1562 53.4219 C414.1562 53.8125 414.4844 54.1562 414.8906 54.1562 C415.2969 54.1562 415.6406 53.8125 415.6406 53.4219 C415.6406 53.0469 415.2969 52.6875 414.8906 52.6875 ZM416.4688 46.5781 C416.7188 46.8906 416.875 47.2656 416.8906 47.6562 C416.8906 48.1875 416.625 48.5 416.0312 48.7656 L415.4062 49.0156 C414.6406 49.3125 414.3906 49.5469 414.3906 49.9375 C414.3906 50.1094 414.4531 50.3438 414.5781 50.8125 L414.7344 51.3438 L415.1094 51.3438 L415.0938 50.5312 C415.0938 50.0938 415.2031 49.9688 415.7812 49.7344 L416.2031 49.5625 C417.0312 49.2188 417.4531 48.6875 417.4531 47.8438 C417.4531 46.1562 415.6562 45.1875 414.5 45.0312 C414.1094 45.125 413.9062 45.2969 413.9062 45.6406 C413.9062 45.9375 414.0625 46.1562 414.7188 46.2656 L416.4688 46.5781 Z"
      /><rect x="483" y="78" width="5" style="fill:white; stroke:none;" height="10"
      /><path style="stroke:none;" d="M484.8906 86.6875 C484.4844 86.6875 484.1562 87.0469 484.1562 87.4219 C484.1562 87.8125 484.4844 88.1562 484.8906 88.1562 C485.2969 88.1562 485.6406 87.8125 485.6406 87.4219 C485.6406 87.0469 485.2969 86.6875 484.8906 86.6875 ZM486.4688 80.5781 C486.7188 80.8906 486.875 81.2656 486.8906 81.6562 C486.8906 82.1875 486.625 82.5 486.0312 82.7656 L485.4062 83.0156 C484.6406 83.3125 484.3906 83.5469 484.3906 83.9375 C484.3906 84.1094 484.4531 84.3438 484.5781 84.8125 L484.7344 85.3438 L485.1094 85.3438 L485.0938 84.5312 C485.0938 84.0938 485.2031 83.9688 485.7812 83.7344 L486.2031 83.5625 C487.0312 83.2188 487.4531 82.6875 487.4531 81.8438 C487.4531 80.1562 485.6562 79.1875 484.5 79.0312 C484.1094 79.125 483.9062 79.2969 483.9062 79.6406 C483.9062 79.9375 484.0625 80.1562 484.7188 80.2656 L486.4688 80.5781 Z"
      /><rect x="468" y="86" width="5" style="fill:white; stroke:none;" height="10"
      /><path style="stroke:none;" d="M469.8906 94.6875 C469.4844 94.6875 469.1562 95.0469 469.1562 95.4219 C469.1562 95.8125 469.4844 96.1562 469.8906 96.1562 C470.2969 96.1562 470.6406 95.8125 470.6406 95.4219 C470.6406 95.0469 470.2969 94.6875 469.8906 94.6875 ZM471.4688 88.5781 C471.7188 88.8906 471.875 89.2656 471.8906 89.6562 C471.8906 90.1875 471.625 90.5 471.0312 90.7656 L470.4062 91.0156 C469.6406 91.3125 469.3906 91.5469 469.3906 91.9375 C469.3906 92.1094 469.4531 92.3438 469.5781 92.8125 L469.7344 93.3438 L470.1094 93.3438 L470.0938 92.5312 C470.0938 92.0938 470.2031 91.9688 470.7812 91.7344 L471.2031 91.5625 C472.0312 91.2188 472.4531 90.6875 472.4531 89.8438 C472.4531 88.1562 470.6562 87.1875 469.5 87.0312 C469.1094 87.125 468.9062 87.2969 468.9062 87.6406 C468.9062 87.9375 469.0625 88.1562 469.7188 88.2656 L471.4688 88.5781 Z"
      /><rect x="476" y="60" width="5" style="fill:white; stroke:none;" height="10"
      /><path style="stroke:none;" d="M477.8906 68.6875 C477.4844 68.6875 477.1562 69.0469 477.1562 69.4219 C477.1562 69.8125 477.4844 70.1562 477.8906 70.1562 C478.2969 70.1562 478.6406 69.8125 478.6406 69.4219 C478.6406 69.0469 478.2969 68.6875 477.8906 68.6875 ZM479.4688 62.5781 C479.7188 62.8906 479.875 63.2656 479.8906 63.6562 C479.8906 64.1875 479.625 64.5 479.0312 64.7656 L478.4062 65.0156 C477.6406 65.3125 477.3906 65.5469 477.3906 65.9375 C477.3906 66.1094 477.4531 66.3438 477.5781 66.8125 L477.7344 67.3438 L478.1094 67.3438 L478.0938 66.5312 C478.0938 66.0938 478.2031 65.9688 478.7812 65.7344 L479.2031 65.5625 C480.0312 65.2188 480.4531 64.6875 480.4531 63.8438 C480.4531 62.1562 478.6562 61.1875 477.5 61.0312 C477.1094 61.125 476.9062 61.2969 476.9062 61.6406 C476.9062 61.9375 477.0625 62.1562 477.7188 62.2656 L479.4688 62.5781 Z"
      /><rect x="461" y="52" width="5" style="fill:white; stroke:none;" height="10"
      /><path style="stroke:none;" d="M462.8906 60.6875 C462.4844 60.6875 462.1562 61.0469 462.1562 61.4219 C462.1562 61.8125 462.4844 62.1562 462.8906 62.1562 C463.2969 62.1562 463.6406 61.8125 463.6406 61.4219 C463.6406 61.0469 463.2969 60.6875 462.8906 60.6875 ZM464.4688 54.5781 C464.7188 54.8906 464.875 55.2656 464.8906 55.6562 C464.8906 56.1875 464.625 56.5 464.0312 56.7656 L463.4062 57.0156 C462.6406 57.3125 462.3906 57.5469 462.3906 57.9375 C462.3906 58.1094 462.4531 58.3438 462.5781 58.8125 L462.7344 59.3438 L463.1094 59.3438 L463.0938 58.5312 C463.0938 58.0938 463.2031 57.9688 463.7812 57.7344 L464.2031 57.5625 C465.0312 57.2188 465.4531 56.6875 465.4531 55.8438 C465.4531 54.1562 463.6562 53.1875 462.5 53.0312 C462.1094 53.125 461.9062 53.2969 461.9062 53.6406 C461.9062 53.9375 462.0625 54.1562 462.7188 54.2656 L464.4688 54.5781 Z"
      /><rect x="531" y="70" width="5" style="fill:white; stroke:none;" height="10"
      /><path style="stroke:none;" d="M532.8906 78.6875 C532.4844 78.6875 532.1562 79.0469 532.1562 79.4219 C532.1562 79.8125 532.4844 80.1562 532.8906 80.1562 C533.2969 80.1562 533.6406 79.8125 533.6406 79.4219 C533.6406 79.0469 533.2969 78.6875 532.8906 78.6875 ZM534.4688 72.5781 C534.7188 72.8906 534.875 73.2656 534.8906 73.6562 C534.8906 74.1875 534.625 74.5 534.0312 74.7656 L533.4062 75.0156 C532.6406 75.3125 532.3906 75.5469 532.3906 75.9375 C532.3906 76.1094 532.4531 76.3438 532.5781 76.8125 L532.7344 77.3438 L533.1094 77.3438 L533.0938 76.5312 C533.0938 76.0938 533.2031 75.9688 533.7812 75.7344 L534.2031 75.5625 C535.0312 75.2188 535.4531 74.6875 535.4531 73.8438 C535.4531 72.1562 533.6562 71.1875 532.5 71.0312 C532.1094 71.125 531.9062 71.2969 531.9062 71.6406 C531.9062 71.9375 532.0625 72.1562 532.7188 72.2656 L534.4688 72.5781 Z"
      /><rect x="517" y="70" width="5" style="fill:white; stroke:none;" height="10"
      /><path style="stroke:none;" d="M518.8906 78.6875 C518.4844 78.6875 518.1562 79.0469 518.1562 79.4219 C518.1562 79.8125 518.4844 80.1562 518.8906 80.1562 C519.2969 80.1562 519.6406 79.8125 519.6406 79.4219 C519.6406 79.0469 519.2969 78.6875 518.8906 78.6875 ZM520.4688 72.5781 C520.7188 72.8906 520.875 73.2656 520.8906 73.6562 C520.8906 74.1875 520.625 74.5 520.0312 74.7656 L519.4062 75.0156 C518.6406 75.3125 518.3906 75.5469 518.3906 75.9375 C518.3906 76.1094 518.4531 76.3438 518.5781 76.8125 L518.7344 77.3438 L519.1094 77.3438 L519.0938 76.5312 C519.0938 76.0938 519.2031 75.9688 519.7812 75.7344 L520.2031 75.5625 C521.0312 75.2188 521.4531 74.6875 521.4531 73.8438 C521.4531 72.1562 519.6562 71.1875 518.5 71.0312 C518.1094 71.125 517.9062 71.2969 517.9062 71.6406 C517.9062 71.9375 518.0625 72.1562 518.7188 72.2656 L520.4688 72.5781 Z"
      /><rect x="583" y="70" width="5" style="fill:white; stroke:none;" height="10"
      /><path style="stroke:none;" d="M584.8906 78.6875 C584.4844 78.6875 584.1562 79.0469 584.1562 79.4219 C584.1562 79.8125 584.4844 80.1562 584.8906 80.1562 C585.2969 80.1562 585.6406 79.8125 585.6406 79.4219 C585.6406 79.0469 585.2969 78.6875 584.8906 78.6875 ZM586.4688 72.5781 C586.7188 72.8906 586.875 73.2656 586.8906 73.6562 C586.8906 74.1875 586.625 74.5 586.0312 74.7656 L585.4062 75.0156 C584.6406 75.3125 584.3906 75.5469 584.3906 75.9375 C584.3906 76.1094 584.4531 76.3438 584.5781 76.8125 L584.7344 77.3438 L585.1094 77.3438 L585.0938 76.5312 C585.0938 76.0938 585.2031 75.9688 585.7812 75.7344 L586.2031 75.5625 C587.0312 75.2188 587.4531 74.6875 587.4531 73.8438 C587.4531 72.1562 585.6562 71.1875 584.5 71.0312 C584.1094 71.125 583.9062 71.2969 583.9062 71.6406 C583.9062 71.9375 584.0625 72.1562 584.7188 72.2656 L586.4688 72.5781 Z"
      /><rect x="569" y="70" width="5" style="fill:white; stroke:none;" height="10"
      /><path style="stroke:none;" d="M570.8906 78.6875 C570.4844 78.6875 570.1562 79.0469 570.1562 79.4219 C570.1562 79.8125 570.4844 80.1562 570.8906 80.1562 C571.2969 80.1562 571.6406 79.8125 571.6406 79.4219 C571.6406 79.0469 571.2969 78.6875 570.8906 78.6875 ZM572.4688 72.5781 C572.7188 72.8906 572.875 73.2656 572.8906 73.6562 C572.8906 74.1875 572.625 74.5 572.0312 74.7656 L571.4062 75.0156 C570.6406 75.3125 570.3906 75.5469 570.3906 75.9375 C570.3906 76.1094 570.4531 76.3438 570.5781 76.8125 L570.7344 77.3438 L571.1094 77.3438 L571.0938 76.5312 C571.0938 76.0938 571.2031 75.9688 571.7812 75.7344 L572.2031 75.5625 C573.0312 75.2188 573.4531 74.6875 573.4531 73.8438 C573.4531 72.1562 571.6562 71.1875 570.5 71.0312 C570.1094 71.125 569.9062 71.2969 569.9062 71.6406 C569.9062 71.9375 570.0625 72.1562 570.7188 72.2656 L572.4688 72.5781 Z"
      /><rect x="621" y="70" width="5" style="fill:white; stroke:none;" height="10"
      /><path style="stroke:none;" d="M622.8906 78.6875 C622.4844 78.6875 622.1562 79.0469 622.1562 79.4219 C622.1562 79.8125 622.4844 80.1562 622.8906 80.1562 C623.2969 80.1562 623.6406 79.8125 623.6406 79.4219 C623.6406 79.0469 623.2969 78.6875 622.8906 78.6875 ZM624.4688 72.5781 C624.7188 72.8906 624.875 73.2656 624.8906 73.6562 C624.8906 74.1875 624.625 74.5 624.0312 74.7656 L623.4062 75.0156 C622.6406 75.3125 622.3906 75.5469 622.3906 75.9375 C622.3906 76.1094 622.4531 76.3438 622.5781 76.8125 L622.7344 77.3438 L623.1094 77.3438 L623.0938 76.5312 C623.0938 76.0938 623.2031 75.9688 623.7812 75.7344 L624.2031 75.5625 C625.0312 75.2188 625.4531 74.6875 625.4531 73.8438 C625.4531 72.1562 623.6562 71.1875 622.5 71.0312 C622.1094 71.125 621.9062 71.2969 621.9062 71.6406 C621.9062 71.9375 622.0625 72.1562 622.7188 72.2656 L624.4688 72.5781 Z"
      /><polygon style="fill:none;" points=" 230 104 219 104 219 30 230 30 219 30 219 104"
      /><polygon style="fill:none;" points=" 197 67 145 67"
      /><polygon style="fill:none;" points=" 145 67 93 67"
      /><rect x="134" y="56" width="22" style="clip-path:url(#clipPath13); fill:white; stroke:none;" height="22"
      /><rect x="134" y="56" width="22" style="clip-path:url(#clipPath13); fill:rgb(0,144,188); stroke:none;" height="22"
      /><rect x="134" y="56" width="22" style="fill:none; clip-path:url(#clipPath13);" height="22"
      /><rect x="134" width="22" height="22" y="56" style="fill:none;"
      /><polygon style="fill:none;" points=" 93 67 41 67"
      /><circle style="fill:white; clip-path:url(#clipPath14); stroke:none;" r="11" cx="93" cy="67"
      /><rect x="82" y="56" width="22" style="clip-path:url(#clipPath14); fill:rgb(255,212,0); stroke:none;" height="22"
      /><rect x="82" y="56" width="22" style="fill:none; clip-path:url(#clipPath14);" height="22"
      /><circle r="11" style="fill:none;" cx="93" cy="67"
      /><circle style="fill:white; clip-path:url(#clipPath15); stroke:none;" r="11" cx="41" cy="67"
      /><rect x="30" y="56" width="22" style="clip-path:url(#clipPath15); fill:rgb(255,212,0); stroke:none;" height="22"
      /><rect x="30" y="56" width="22" style="fill:none; clip-path:url(#clipPath15);" height="22"
      /><circle r="11" style="fill:none;" cx="41" cy="67"
      /><rect x="71" y="70" width="5" style="fill:white; stroke:none;" height="10"
      /><path style="stroke:none;" d="M72.8906 78.6875 C72.4844 78.6875 72.1562 79.0469 72.1562 79.4219 C72.1562 79.8125 72.4844 80.1562 72.8906 80.1562 C73.2969 80.1562 73.6406 79.8125 73.6406 79.4219 C73.6406 79.0469 73.2969 78.6875 72.8906 78.6875 ZM74.4688 72.5781 C74.7188 72.8906 74.875 73.2656 74.8906 73.6562 C74.8906 74.1875 74.625 74.5 74.0312 74.7656 L73.4062 75.0156 C72.6406 75.3125 72.3906 75.5469 72.3906 75.9375 C72.3906 76.1094 72.4531 76.3438 72.5781 76.8125 L72.7344 77.3438 L73.1094 77.3438 L73.0938 76.5312 C73.0938 76.0938 73.2031 75.9688 73.7812 75.7344 L74.2031 75.5625 C75.0312 75.2188 75.4531 74.6875 75.4531 73.8438 C75.4531 72.1562 73.6562 71.1875 72.5 71.0312 C72.1094 71.125 71.9062 71.2969 71.9062 71.6406 C71.9062 71.9375 72.0625 72.1562 72.7188 72.2656 L74.4688 72.5781 Z"
      /><rect x="57" y="70" width="5" style="fill:white; stroke:none;" height="10"
      /><path style="stroke:none;" d="M58.8906 78.6875 C58.4844 78.6875 58.1562 79.0469 58.1562 79.4219 C58.1562 79.8125 58.4844 80.1562 58.8906 80.1562 C59.2969 80.1562 59.6406 79.8125 59.6406 79.4219 C59.6406 79.0469 59.2969 78.6875 58.8906 78.6875 ZM60.4688 72.5781 C60.7188 72.8906 60.875 73.2656 60.8906 73.6562 C60.8906 74.1875 60.625 74.5 60.0312 74.7656 L59.4062 75.0156 C58.6406 75.3125 58.3906 75.5469 58.3906 75.9375 C58.3906 76.1094 58.4531 76.3438 58.5781 76.8125 L58.7344 77.3438 L59.1094 77.3438 L59.0938 76.5312 C59.0938 76.0938 59.2031 75.9688 59.7812 75.7344 L60.2031 75.5625 C61.0312 75.2188 61.4531 74.6875 61.4531 73.8438 C61.4531 72.1562 59.6562 71.1875 58.5 71.0312 C58.1094 71.125 57.9062 71.2969 57.9062 71.6406 C57.9062 71.9375 58.0625 72.1562 58.7188 72.2656 L60.4688 72.5781 Z"
      /><rect x="123" y="70" width="5" style="fill:white; stroke:none;" height="10"
      /><path style="stroke:none;" d="M124.8906 78.6875 C124.4844 78.6875 124.1562 79.0469 124.1562 79.4219 C124.1562 79.8125 124.4844 80.1562 124.8906 80.1562 C125.2969 80.1562 125.6406 79.8125 125.6406 79.4219 C125.6406 79.0469 125.2969 78.6875 124.8906 78.6875 ZM126.4688 72.5781 C126.7188 72.8906 126.875 73.2656 126.8906 73.6562 C126.8906 74.1875 126.625 74.5 126.0312 74.7656 L125.4062 75.0156 C124.6406 75.3125 124.3906 75.5469 124.3906 75.9375 C124.3906 76.1094 124.4531 76.3438 124.5781 76.8125 L124.7344 77.3438 L125.1094 77.3438 L125.0938 76.5312 C125.0938 76.0938 125.2031 75.9688 125.7812 75.7344 L126.2031 75.5625 C127.0312 75.2188 127.4531 74.6875 127.4531 73.8438 C127.4531 72.1562 125.6562 71.1875 124.5 71.0312 C124.1094 71.125 123.9062 71.2969 123.9062 71.6406 C123.9062 71.9375 124.0625 72.1562 124.7188 72.2656 L126.4688 72.5781 Z"
      /><rect x="109" y="70" width="5" style="fill:white; stroke:none;" height="10"
      /><path style="stroke:none;" d="M110.8906 78.6875 C110.4844 78.6875 110.1562 79.0469 110.1562 79.4219 C110.1562 79.8125 110.4844 80.1562 110.8906 80.1562 C111.2969 80.1562 111.6406 79.8125 111.6406 79.4219 C111.6406 79.0469 111.2969 78.6875 110.8906 78.6875 ZM112.4688 72.5781 C112.7188 72.8906 112.875 73.2656 112.8906 73.6562 C112.8906 74.1875 112.625 74.5 112.0312 74.7656 L111.4062 75.0156 C110.6406 75.3125 110.3906 75.5469 110.3906 75.9375 C110.3906 76.1094 110.4531 76.3438 110.5781 76.8125 L110.7344 77.3438 L111.1094 77.3438 L111.0938 76.5312 C111.0938 76.0938 111.2031 75.9688 111.7812 75.7344 L112.2031 75.5625 C113.0312 75.2188 113.4531 74.6875 113.4531 73.8438 C113.4531 72.1562 111.6562 71.1875 110.5 71.0312 C110.1094 71.125 109.9062 71.2969 109.9062 71.6406 C109.9062 71.9375 110.0625 72.1562 110.7188 72.2656 L112.4688 72.5781 Z"
      /><rect x="175" y="70" width="5" style="fill:white; stroke:none;" height="10"
      /><path style="stroke:none;" d="M176.8906 78.6875 C176.4844 78.6875 176.1562 79.0469 176.1562 79.4219 C176.1562 79.8125 176.4844 80.1562 176.8906 80.1562 C177.2969 80.1562 177.6406 79.8125 177.6406 79.4219 C177.6406 79.0469 177.2969 78.6875 176.8906 78.6875 ZM178.4688 72.5781 C178.7188 72.8906 178.875 73.2656 178.8906 73.6562 C178.8906 74.1875 178.625 74.5 178.0312 74.7656 L177.4062 75.0156 C176.6406 75.3125 176.3906 75.5469 176.3906 75.9375 C176.3906 76.1094 176.4531 76.3438 176.5781 76.8125 L176.7344 77.3438 L177.1094 77.3438 L177.0938 76.5312 C177.0938 76.0938 177.2031 75.9688 177.7812 75.7344 L178.2031 75.5625 C179.0312 75.2188 179.4531 74.6875 179.4531 73.8438 C179.4531 72.1562 177.6562 71.1875 176.5 71.0312 C176.1094 71.125 175.9062 71.2969 175.9062 71.6406 C175.9062 71.9375 176.0625 72.1562 176.7188 72.2656 L178.4688 72.5781 Z"
      /><rect x="161" y="70" width="5" style="fill:white; stroke:none;" height="10"
      /><path style="stroke:none;" d="M162.8906 78.6875 C162.4844 78.6875 162.1562 79.0469 162.1562 79.4219 C162.1562 79.8125 162.4844 80.1562 162.8906 80.1562 C163.2969 80.1562 163.6406 79.8125 163.6406 79.4219 C163.6406 79.0469 163.2969 78.6875 162.8906 78.6875 ZM164.4688 72.5781 C164.7188 72.8906 164.875 73.2656 164.8906 73.6562 C164.8906 74.1875 164.625 74.5 164.0312 74.7656 L163.4062 75.0156 C162.6406 75.3125 162.3906 75.5469 162.3906 75.9375 C162.3906 76.1094 162.4531 76.3438 162.5781 76.8125 L162.7344 77.3438 L163.1094 77.3438 L163.0938 76.5312 C163.0938 76.0938 163.2031 75.9688 163.7812 75.7344 L164.2031 75.5625 C165.0312 75.2188 165.4531 74.6875 165.4531 73.8438 C165.4531 72.1562 163.6562 71.1875 162.5 71.0312 C162.1094 71.125 161.9062 71.2969 161.9062 71.6406 C161.9062 71.9375 162.0625 72.1562 162.7188 72.2656 L164.4688 72.5781 Z"
    /></g
  ></g
></svg
>
