<?xml version="1.0"?>
<!DOCTYPE svg PUBLIC '-//W3C//DTD SVG 1.0//EN'
          'http://www.w3.org/TR/2001/REC-SVG-20010904/DTD/svg10.dtd'>
<svg xmlns:xlink="http://www.w3.org/1999/xlink" style="fill-opacity:1; color-rendering:auto; color-interpolation:auto; text-rendering:auto; stroke:black; stroke-linecap:square; stroke-miterlimit:10; shape-rendering:auto; stroke-opacity:1; fill:black; stroke-dasharray:none; font-weight:normal; stroke-width:1; font-family:'Dialog'; font-style:normal; stroke-linejoin:miter; font-size:12px; stroke-dashoffset:0; image-rendering:auto;" viewBox="0 0 154 365" xmlns="http://www.w3.org/2000/svg"
><!--Generated by the Batik Graphics2D SVG Generator--><defs id="genericDefs"
  /><g
  ><defs id="defs1"
    ><clipPath clipPathUnits="userSpaceOnUse" id="clipPath1"
      ><path style="fill-rule:evenodd;" d="M80 301 L74 308 L63 308 L58 301 L63 293 L74 293 L80 301 Z"
      /></clipPath
      ><clipPath clipPathUnits="userSpaceOnUse" id="clipPath2"
      ><path style="fill-rule:evenodd;" d="M80 197 L74 204 L63 204 L58 197 L63 189 L74 189 L80 197 Z"
      /></clipPath
      ><clipPath clipPathUnits="userSpaceOnUse" id="clipPath3"
      ><path d="M80 145 C80 151.0751 75.0751 156 69 156 C62.9249 156 58 151.0751 58 145 C58 138.9249 62.9249 134 69 134 C75.0751 134 80 138.9249 80 145 Z"
      /></clipPath
      ><clipPath clipPathUnits="userSpaceOnUse" id="clipPath4"
      ><path d="M58 82 L80 82 L80 104 L58 104 L58 82 Z"
      /></clipPath
      ><clipPath clipPathUnits="userSpaceOnUse" id="clipPath5"
      ><path d="M80 41 C80 47.0751 75.0751 52 69 52 C62.9249 52 58 47.0751 58 41 C58 34.9249 62.9249 30 69 30 C75.0751 30 80 34.9249 80 41 Z"
      /></clipPath
    ></defs
    ><g style="fill:white; text-rendering:optimizeSpeed; stroke:white;"
    ><rect x="0" width="154" height="365" y="0" style="stroke:none;"
      /><polygon style="clip-path:url(#clipPath1); stroke:none;" points=" 80 301 74 308 63 308 58 301 63 293 74 293 80 301"
      /><rect x="58" y="290" width="22" style="clip-path:url(#clipPath1); fill:rgb(255,212,0); stroke:none;" height="22"
      /><rect x="58" y="290" width="22" style="clip-path:url(#clipPath1); fill:none; stroke:black;" height="22"
      /><polygon style="fill:none; stroke:black;" points=" 80 301 74 308 63 308 58 301 63 293 74 293 80 301"
    /></g
    ><g style="text-rendering:optimizeSpeed; font-size:14px; font-family:'SansSerif';"
    ><path style="stroke:none;" d="M61.6094 329 L68.0625 329 L68.0625 327.8906 L65.2344 327.8906 C64.7031 327.8906 64.0781 327.9531 63.5469 327.9844 C65.9531 325.7031 67.5625 323.625 67.5625 321.5781 C67.5625 319.75 66.4219 318.5469 64.5781 318.5469 C63.2812 318.5469 62.4062 319.1406 61.5625 320.0469 L62.2969 320.7812 C62.8594 320.1094 63.5938 319.5938 64.4375 319.5938 C65.7031 319.5938 66.3125 320.4531 66.3125 321.625 C66.3125 323.3906 64.8438 325.4375 61.6094 328.25 L61.6094 329 ZM73.8168 329.1875 C75.9106 329.1875 77.5043 328.0625 77.5043 324.7656 L77.5043 318.7188 L76.2543 318.7188 L76.2543 324.7969 C76.2543 327.2812 75.1762 328.0469 73.8168 328.0469 C72.4731 328.0469 71.4262 327.2812 71.4262 324.7969 L71.4262 318.7188 L70.1293 318.7188 L70.1293 324.7656 C70.1293 328.0625 71.7231 329.1875 73.8168 329.1875 Z"
    /></g
    ><g style="fill:white; text-rendering:optimizeSpeed; font-family:'Serif'; stroke:white;"
    ><rect x="85" width="5" height="10" y="288" style="stroke:none;"
      /><path d="M86.8906 296.6875 C86.4844 296.6875 86.1562 297.0469 86.1562 297.4219 C86.1562 297.8125 86.4844 298.1562 86.8906 298.1562 C87.2969 298.1562 87.6406 297.8125 87.6406 297.4219 C87.6406 297.0469 87.2969 296.6875 86.8906 296.6875 ZM88.4688 290.5781 C88.7188 290.8906 88.875 291.2656 88.8906 291.6562 C88.8906 292.1875 88.625 292.5 88.0312 292.7656 L87.4062 293.0156 C86.6406 293.3125 86.3906 293.5469 86.3906 293.9375 C86.3906 294.1094 86.4531 294.3438 86.5781 294.8125 L86.7344 295.3438 L87.1094 295.3438 L87.0938 294.5312 C87.0938 294.0938 87.2031 293.9688 87.7812 293.7344 L88.2031 293.5625 C89.0312 293.2188 89.4531 292.6875 89.4531 291.8438 C89.4531 290.1562 87.6562 289.1875 86.5 289.0312 C86.1094 289.125 85.9062 289.2969 85.9062 289.6406 C85.9062 289.9375 86.0625 290.1562 86.7188 290.2656 L88.4688 290.5781 Z" style="fill:black; stroke:none;"
      /><rect x="85" width="5" height="10" y="304" style="stroke:none;"
      /><path d="M86.8906 312.6875 C86.4844 312.6875 86.1562 313.0469 86.1562 313.4219 C86.1562 313.8125 86.4844 314.1562 86.8906 314.1562 C87.2969 314.1562 87.6406 313.8125 87.6406 313.4219 C87.6406 313.0469 87.2969 312.6875 86.8906 312.6875 ZM88.4688 306.5781 C88.7188 306.8906 88.875 307.2656 88.8906 307.6562 C88.8906 308.1875 88.625 308.5 88.0312 308.7656 L87.4062 309.0156 C86.6406 309.3125 86.3906 309.5469 86.3906 309.9375 C86.3906 310.1094 86.4531 310.3438 86.5781 310.8125 L86.7344 311.3438 L87.1094 311.3438 L87.0938 310.5312 C87.0938 310.0938 87.2031 309.9688 87.7812 309.7344 L88.2031 309.5625 C89.0312 309.2188 89.4531 308.6875 89.4531 307.8438 C89.4531 306.1562 87.6562 305.1875 86.5 305.0312 C86.1094 305.125 85.9062 305.2969 85.9062 305.6406 C85.9062 305.9375 86.0625 306.1562 86.7188 306.2656 L88.4688 306.5781 Z" style="fill:black; stroke:none;"
    /></g
    ><g style="text-rendering:optimizeSpeed; font-size:11px; font-family:'SansSerif';"
    ><path style="stroke:none;" d="M51.9531 251.5625 L52.8438 251.5625 C52.6562 249.8438 54.625 249.1875 54.625 247.5781 C54.625 246.375 53.8125 245.625 52.5781 245.625 C51.6875 245.625 50.9844 246.0469 50.4688 246.625 L51.0469 247.1562 C51.4375 246.7188 51.9062 246.4531 52.4688 246.4531 C53.25 246.4531 53.6562 246.9844 53.6562 247.6406 C53.6562 248.9531 51.7031 249.6562 51.9531 251.5625 ZM52.4375 254.1406 C52.8438 254.1406 53.1719 253.8281 53.1719 253.3906 C53.1719 252.9219 52.8438 252.6094 52.4375 252.6094 C52.0312 252.6094 51.7031 252.9219 51.7031 253.3906 C51.7031 253.8281 52.0312 254.1406 52.4375 254.1406 ZM56.3077 254 L57.339 254 L57.339 250.1875 L61.1046 250.1875 L61.1046 254 L62.1046 254 L62.1046 245.9219 L61.1046 245.9219 L61.1046 249.3125 L57.339 249.3125 L57.339 245.9219 L56.3077 245.9219 L56.3077 254 ZM66.6438 254.1406 C67.4563 254.1406 68.0969 253.875 68.6281 253.5312 L68.2531 252.8594 C67.8156 253.1562 67.3469 253.3438 66.7688 253.3438 C65.6281 253.3438 64.8469 252.5312 64.7844 251.25 L68.8156 251.25 C68.8313 251.1094 68.8469 250.8906 68.8469 250.6719 C68.8469 248.9688 68.0031 247.875 66.4719 247.875 C65.0969 247.875 63.7844 249.0781 63.7844 251.0156 C63.7844 252.9844 65.0656 254.1406 66.6438 254.1406 ZM64.7688 250.5312 C64.8938 249.3594 65.6438 248.6719 66.4875 248.6719 C67.425 248.6719 67.9719 249.3281 67.9719 250.5312 L64.7688 250.5312 ZM70.3315 256.5156 L71.3315 256.5156 L71.3315 254.5 L71.3002 253.4531 C71.8471 253.8906 72.4252 254.1406 72.9565 254.1406 C74.3315 254.1406 75.5502 252.9688 75.5502 250.9219 C75.5502 249.0781 74.7221 247.875 73.1752 247.875 C72.4877 247.875 71.8158 248.2656 71.269 248.7031 L71.2377 248.7031 L71.1596 248.0312 L70.3315 248.0312 L70.3315 256.5156 ZM72.7846 253.3125 C72.394 253.3125 71.8627 253.1406 71.3315 252.6875 L71.3315 249.5469 C71.9096 249 72.4252 248.7188 72.9408 248.7188 C74.0658 248.7188 74.5033 249.6094 74.5033 250.9375 C74.5033 252.4219 73.7846 253.3125 72.7846 253.3125 Z"
    /></g
    ><g style="fill:white; text-rendering:optimizeSpeed; stroke:white;"
    ><polygon style="stroke:none; clip-path:url(#clipPath2);" points=" 80 197 74 204 63 204 58 197 63 189 74 189 80 197"
      /><rect x="58" y="186" width="22" style="clip-path:url(#clipPath2); fill:rgb(0,166,81); stroke:none;" height="22"
      /><rect x="58" y="186" width="22" style="clip-path:url(#clipPath2); fill:none; stroke:black;" height="22"
      /><polygon style="fill:none; stroke:black;" points=" 80 197 74 204 63 204 58 197 63 189 74 189 80 197"
      /><rect x="85" width="5" height="10" y="184" style="stroke:none;"
      /><path d="M86.8906 192.6875 C86.4844 192.6875 86.1562 193.0469 86.1562 193.4219 C86.1562 193.8125 86.4844 194.1562 86.8906 194.1562 C87.2969 194.1562 87.6406 193.8125 87.6406 193.4219 C87.6406 193.0469 87.2969 192.6875 86.8906 192.6875 ZM88.4688 186.5781 C88.7188 186.8906 88.875 187.2656 88.8906 187.6562 C88.8906 188.1875 88.625 188.5 88.0312 188.7656 L87.4062 189.0156 C86.6406 189.3125 86.3906 189.5469 86.3906 189.9375 C86.3906 190.1094 86.4531 190.3438 86.5781 190.8125 L86.7344 191.3438 L87.1094 191.3438 L87.0938 190.5312 C87.0938 190.0938 87.2031 189.9688 87.7812 189.7344 L88.2031 189.5625 C89.0312 189.2188 89.4531 188.6875 89.4531 187.8438 C89.4531 186.1562 87.6562 185.1875 86.5 185.0312 C86.1094 185.125 85.9062 185.2969 85.9062 185.6406 C85.9062 185.9375 86.0625 186.1562 86.7188 186.2656 L88.4688 186.5781 Z" style="fill:black; stroke:none;"
      /><rect x="85" width="5" height="10" y="200" style="stroke:none;"
      /><path d="M86.8906 208.6875 C86.4844 208.6875 86.1562 209.0469 86.1562 209.4219 C86.1562 209.8125 86.4844 210.1562 86.8906 210.1562 C87.2969 210.1562 87.6406 209.8125 87.6406 209.4219 C87.6406 209.0469 87.2969 208.6875 86.8906 208.6875 ZM88.4688 202.5781 C88.7188 202.8906 88.875 203.2656 88.8906 203.6562 C88.8906 204.1875 88.625 204.5 88.0312 204.7656 L87.4062 205.0156 C86.6406 205.3125 86.3906 205.5469 86.3906 205.9375 C86.3906 206.1094 86.4531 206.3438 86.5781 206.8125 L86.7344 207.3438 L87.1094 207.3438 L87.0938 206.5312 C87.0938 206.0938 87.2031 205.9688 87.7812 205.7344 L88.2031 205.5625 C89.0312 205.2188 89.4531 204.6875 89.4531 203.8438 C89.4531 202.1562 87.6562 201.1875 86.5 201.0312 C86.1094 201.125 85.9062 201.2969 85.9062 201.6406 C85.9062 201.9375 86.0625 202.1562 86.7188 202.2656 L88.4688 202.5781 Z" style="fill:black; stroke:none;"
    /></g
    ><g style="text-rendering:optimizeSpeed; font-size:14px; font-family:'SansSerif';"
    ><path style="stroke:none;" d="M40.6094 202 L47.0625 202 L47.0625 200.8906 L44.2344 200.8906 C43.7031 200.8906 43.0781 200.9531 42.5469 200.9844 C44.9531 198.7031 46.5625 196.625 46.5625 194.5781 C46.5625 192.75 45.4219 191.5469 43.5781 191.5469 C42.2812 191.5469 41.4062 192.1406 40.5625 193.0469 L41.2969 193.7812 C41.8594 193.1094 42.5938 192.5938 43.4375 192.5938 C44.7031 192.5938 45.3125 193.4531 45.3125 194.625 C45.3125 196.3906 43.8438 198.4375 40.6094 201.25 L40.6094 202 ZM47.9731 202 L49.3168 202 L50.3481 200.2188 C50.6137 199.7656 50.8637 199.2969 51.1293 198.8594 L51.2075 198.8594 C51.4731 199.2969 51.7543 199.7656 52.0043 200.2188 L53.1293 202 L54.5356 202 L52.02 198.1562 L54.3325 194.3906 L53.0043 194.3906 L52.0668 196.0625 C51.8481 196.5 51.6137 196.9219 51.3793 197.3438 L51.3325 197.3438 C51.0668 196.9219 50.8012 196.5 50.5668 196.0625 L49.5512 194.3906 L48.1762 194.3906 L50.4887 198.0312 L47.9731 202 Z"
      /><circle style="fill:white; clip-path:url(#clipPath3); stroke:none;" r="11" cx="69" cy="145"
      /><rect x="58" y="134" width="22" style="clip-path:url(#clipPath3); fill:rgb(0,144,188); stroke:none;" height="22"
      /><rect x="58" y="134" width="22" style="fill:none; clip-path:url(#clipPath3);" height="22"
      /><circle r="11" style="fill:none;" cx="69" cy="145"
    /></g
    ><g style="fill:white; text-rendering:optimizeSpeed; font-family:'Serif'; stroke:white;"
    ><rect x="85" width="5" height="10" y="132" style="stroke:none;"
      /><path d="M86.8906 140.6875 C86.4844 140.6875 86.1562 141.0469 86.1562 141.4219 C86.1562 141.8125 86.4844 142.1562 86.8906 142.1562 C87.2969 142.1562 87.6406 141.8125 87.6406 141.4219 C87.6406 141.0469 87.2969 140.6875 86.8906 140.6875 ZM88.4688 134.5781 C88.7188 134.8906 88.875 135.2656 88.8906 135.6562 C88.8906 136.1875 88.625 136.5 88.0312 136.7656 L87.4062 137.0156 C86.6406 137.3125 86.3906 137.5469 86.3906 137.9375 C86.3906 138.1094 86.4531 138.3438 86.5781 138.8125 L86.7344 139.3438 L87.1094 139.3438 L87.0938 138.5312 C87.0938 138.0938 87.2031 137.9688 87.7812 137.7344 L88.2031 137.5625 C89.0312 137.2188 89.4531 136.6875 89.4531 135.8438 C89.4531 134.1562 87.6562 133.1875 86.5 133.0312 C86.1094 133.125 85.9062 133.2969 85.9062 133.6406 C85.9062 133.9375 86.0625 134.1562 86.7188 134.2656 L88.4688 134.5781 Z" style="fill:black; stroke:none;"
      /><rect x="85" width="5" height="10" y="148" style="stroke:none;"
      /><path d="M86.8906 156.6875 C86.4844 156.6875 86.1562 157.0469 86.1562 157.4219 C86.1562 157.8125 86.4844 158.1562 86.8906 158.1562 C87.2969 158.1562 87.6406 157.8125 87.6406 157.4219 C87.6406 157.0469 87.2969 156.6875 86.8906 156.6875 ZM88.4688 150.5781 C88.7188 150.8906 88.875 151.2656 88.8906 151.6562 C88.8906 152.1875 88.625 152.5 88.0312 152.7656 L87.4062 153.0156 C86.6406 153.3125 86.3906 153.5469 86.3906 153.9375 C86.3906 154.1094 86.4531 154.3438 86.5781 154.8125 L86.7344 155.3438 L87.1094 155.3438 L87.0938 154.5312 C87.0938 154.0938 87.2031 153.9688 87.7812 153.7344 L88.2031 153.5625 C89.0312 153.2188 89.4531 152.6875 89.4531 151.8438 C89.4531 150.1562 87.6562 149.1875 86.5 149.0312 C86.1094 149.125 85.9062 149.2969 85.9062 149.6406 C85.9062 149.9375 86.0625 150.1562 86.7188 150.2656 L88.4688 150.5781 Z" style="fill:black; stroke:none;"
    /></g
    ><g style="text-rendering:optimizeSpeed; font-size:14px; font-family:'SansSerif';"
    ><path style="stroke:none;" d="M40.6094 150 L47.0625 150 L47.0625 148.8906 L44.2344 148.8906 C43.7031 148.8906 43.0781 148.9531 42.5469 148.9844 C44.9531 146.7031 46.5625 144.625 46.5625 142.5781 C46.5625 140.75 45.4219 139.5469 43.5781 139.5469 C42.2812 139.5469 41.4062 140.1406 40.5625 141.0469 L41.2969 141.7812 C41.8594 141.1094 42.5938 140.5938 43.4375 140.5938 C44.7031 140.5938 45.3125 141.4531 45.3125 142.625 C45.3125 144.3906 43.8438 146.4375 40.6094 149.25 L40.6094 150 ZM47.9731 150 L49.3168 150 L50.3481 148.2188 C50.6137 147.7656 50.8637 147.2969 51.1293 146.8594 L51.2075 146.8594 C51.4731 147.2969 51.7543 147.7656 52.0043 148.2188 L53.1293 150 L54.5356 150 L52.02 146.1562 L54.3325 142.3906 L53.0043 142.3906 L52.0668 144.0625 C51.8481 144.5 51.6137 144.9219 51.3793 145.3438 L51.3325 145.3438 C51.0668 144.9219 50.8012 144.5 50.5668 144.0625 L49.5512 142.3906 L48.1762 142.3906 L50.4887 146.0312 L47.9731 150 Z"
      /><rect x="58" y="82" width="22" style="clip-path:url(#clipPath4); fill:white; stroke:none;" height="22"
      /><rect x="58" y="82" width="22" style="clip-path:url(#clipPath4); fill:rgb(255,212,0); stroke:none;" height="22"
      /><rect x="58" y="82" width="22" style="fill:none; clip-path:url(#clipPath4);" height="22"
      /><rect x="58" width="22" height="22" y="82" style="fill:none;"
    /></g
    ><g style="fill:white; text-rendering:optimizeSpeed; font-family:'Serif'; stroke:white;"
    ><rect x="85" width="5" height="10" y="80" style="stroke:none;"
      /><path d="M86.8906 88.6875 C86.4844 88.6875 86.1562 89.0469 86.1562 89.4219 C86.1562 89.8125 86.4844 90.1562 86.8906 90.1562 C87.2969 90.1562 87.6406 89.8125 87.6406 89.4219 C87.6406 89.0469 87.2969 88.6875 86.8906 88.6875 ZM88.4688 82.5781 C88.7188 82.8906 88.875 83.2656 88.8906 83.6562 C88.8906 84.1875 88.625 84.5 88.0312 84.7656 L87.4062 85.0156 C86.6406 85.3125 86.3906 85.5469 86.3906 85.9375 C86.3906 86.1094 86.4531 86.3438 86.5781 86.8125 L86.7344 87.3438 L87.1094 87.3438 L87.0938 86.5312 C87.0938 86.0938 87.2031 85.9688 87.7812 85.7344 L88.2031 85.5625 C89.0312 85.2188 89.4531 84.6875 89.4531 83.8438 C89.4531 82.1562 87.6562 81.1875 86.5 81.0312 C86.1094 81.125 85.9062 81.2969 85.9062 81.6406 C85.9062 81.9375 86.0625 82.1562 86.7188 82.2656 L88.4688 82.5781 Z" style="fill:black; stroke:none;"
      /><rect x="85" width="5" height="10" y="96" style="stroke:none;"
      /><path d="M86.8906 104.6875 C86.4844 104.6875 86.1562 105.0469 86.1562 105.4219 C86.1562 105.8125 86.4844 106.1562 86.8906 106.1562 C87.2969 106.1562 87.6406 105.8125 87.6406 105.4219 C87.6406 105.0469 87.2969 104.6875 86.8906 104.6875 ZM88.4688 98.5781 C88.7188 98.8906 88.875 99.2656 88.8906 99.6562 C88.8906 100.1875 88.625 100.5 88.0312 100.7656 L87.4062 101.0156 C86.6406 101.3125 86.3906 101.5469 86.3906 101.9375 C86.3906 102.1094 86.4531 102.3438 86.5781 102.8125 L86.7344 103.3438 L87.1094 103.3438 L87.0938 102.5312 C87.0938 102.0938 87.2031 101.9688 87.7812 101.7344 L88.2031 101.5625 C89.0312 101.2188 89.4531 100.6875 89.4531 99.8438 C89.4531 98.1562 87.6562 97.1875 86.5 97.0312 C86.1094 97.125 85.9062 97.2969 85.9062 97.6406 C85.9062 97.9375 86.0625 98.1562 86.7188 98.2656 L88.4688 98.5781 Z" style="fill:black; stroke:none;"
      /><circle r="11" style="clip-path:url(#clipPath5); stroke:none;" cx="69" cy="41"
    /></g
    ><g style="fill:rgb(255,212,0); text-rendering:optimizeSpeed; font-size:14px; font-family:'SansSerif'; stroke:rgb(255,212,0);"
    ><rect x="58" y="30" width="22" style="clip-path:url(#clipPath5); stroke:none;" height="22"
      /><rect x="58" y="30" width="22" style="clip-path:url(#clipPath5); fill:none; stroke:black;" height="22"
      /><circle r="11" style="fill:none; stroke:black;" cx="69" cy="41"
    /></g
    ><g style="fill:white; text-rendering:optimizeSpeed; font-family:'Serif'; stroke:white;"
    ><rect x="85" width="5" height="10" y="28" style="stroke:none;"
      /><path d="M86.8906 36.6875 C86.4844 36.6875 86.1562 37.0469 86.1562 37.4219 C86.1562 37.8125 86.4844 38.1562 86.8906 38.1562 C87.2969 38.1562 87.6406 37.8125 87.6406 37.4219 C87.6406 37.0469 87.2969 36.6875 86.8906 36.6875 ZM88.4688 30.5781 C88.7188 30.8906 88.875 31.2656 88.8906 31.6562 C88.8906 32.1875 88.625 32.5 88.0312 32.7656 L87.4062 33.0156 C86.6406 33.3125 86.3906 33.5469 86.3906 33.9375 C86.3906 34.1094 86.4531 34.3438 86.5781 34.8125 L86.7344 35.3438 L87.1094 35.3438 L87.0938 34.5312 C87.0938 34.0938 87.2031 33.9688 87.7812 33.7344 L88.2031 33.5625 C89.0312 33.2188 89.4531 32.6875 89.4531 31.8438 C89.4531 30.1562 87.6562 29.1875 86.5 29.0312 C86.1094 29.125 85.9062 29.2969 85.9062 29.6406 C85.9062 29.9375 86.0625 30.1562 86.7188 30.2656 L88.4688 30.5781 Z" style="fill:black; stroke:none;"
      /><rect x="85" width="5" height="10" y="44" style="stroke:none;"
      /><path d="M86.8906 52.6875 C86.4844 52.6875 86.1562 53.0469 86.1562 53.4219 C86.1562 53.8125 86.4844 54.1562 86.8906 54.1562 C87.2969 54.1562 87.6406 53.8125 87.6406 53.4219 C87.6406 53.0469 87.2969 52.6875 86.8906 52.6875 ZM88.4688 46.5781 C88.7188 46.8906 88.875 47.2656 88.8906 47.6562 C88.8906 48.1875 88.625 48.5 88.0312 48.7656 L87.4062 49.0156 C86.6406 49.3125 86.3906 49.5469 86.3906 49.9375 C86.3906 50.1094 86.4531 50.3438 86.5781 50.8125 L86.7344 51.3438 L87.1094 51.3438 L87.0938 50.5312 C87.0938 50.0938 87.2031 49.9688 87.7812 49.7344 L88.2031 49.5625 C89.0312 49.2188 89.4531 48.6875 89.4531 47.8438 C89.4531 46.1562 87.6562 45.1875 86.5 45.0312 C86.1094 45.125 85.9062 45.2969 85.9062 45.6406 C85.9062 45.9375 86.0625 46.1562 86.7188 46.2656 L88.4688 46.5781 Z" style="fill:black; stroke:none;"
    /></g
    ><g style="text-rendering:optimizeSpeed; font-size:14px; font-family:'SansSerif';"
    ><path style="stroke:none;" d="M40.6094 46 L47.0625 46 L47.0625 44.8906 L44.2344 44.8906 C43.7031 44.8906 43.0781 44.9531 42.5469 44.9844 C44.9531 42.7031 46.5625 40.625 46.5625 38.5781 C46.5625 36.75 45.4219 35.5469 43.5781 35.5469 C42.2812 35.5469 41.4062 36.1406 40.5625 37.0469 L41.2969 37.7812 C41.8594 37.1094 42.5938 36.5938 43.4375 36.5938 C44.7031 36.5938 45.3125 37.4531 45.3125 38.625 C45.3125 40.3906 43.8438 42.4375 40.6094 45.25 L40.6094 46 ZM47.9731 46 L49.3168 46 L50.3481 44.2188 C50.6137 43.7656 50.8637 43.2969 51.1293 42.8594 L51.2075 42.8594 C51.4731 43.2969 51.7543 43.7656 52.0043 44.2188 L53.1293 46 L54.5356 46 L52.02 42.1562 L54.3325 38.3906 L53.0043 38.3906 L52.0668 40.0625 C51.8481 40.5 51.6137 40.9219 51.3793 41.3438 L51.3325 41.3438 C51.0668 40.9219 50.8012 40.5 50.5668 40.0625 L49.5512 38.3906 L48.1762 38.3906 L50.4887 42.0312 L47.9731 46 Z"
    /></g
  ></g
></svg
>
