<?xml version="1.0"?>
<!DOCTYPE svg PUBLIC '-//W3C//DTD SVG 1.0//EN'
          'http://www.w3.org/TR/2001/REC-SVG-20010904/DTD/svg10.dtd'>
<svg xmlns:xlink="http://www.w3.org/1999/xlink" style="fill-opacity:1; color-rendering:auto; color-interpolation:auto; text-rendering:auto; stroke:black; stroke-linecap:square; stroke-miterlimit:10; shape-rendering:auto; stroke-opacity:1; fill:black; stroke-dasharray:none; font-weight:normal; stroke-width:1; font-family:'Dialog'; font-style:normal; stroke-linejoin:miter; font-size:12px; stroke-dashoffset:0; image-rendering:auto;" viewBox="0 0 290 128" xmlns="http://www.w3.org/2000/svg"
><!--Generated by the Batik Graphics2D SVG Generator--><defs id="genericDefs"
  /><g
  ><defs id="defs1"
    ><clipPath clipPathUnits="userSpaceOnUse" id="clipPath1"
      ><path style="fill-rule:evenodd;" d="M191 42 L197 42 L197 86 L191 86 L197 86 L197 42 Z"
      /></clipPath
      ><clipPath clipPathUnits="userSpaceOnUse" id="clipPath2"
      ><path d="M156 64 C156 70.0751 151.0751 75 145 75 C138.9249 75 134 70.0751 134 64 C134 57.9249 138.9249 53 145 53 C151.0751 53 156 57.9249 156 64 Z"
      /></clipPath
      ><clipPath clipPathUnits="userSpaceOnUse" id="clipPath3"
      ><path d="M104 64 C104 70.0751 99.0751 75 93 75 C86.9249 75 82 70.0751 82 64 C82 57.9249 86.9249 53 93 53 C99.0751 53 104 57.9249 104 64 Z"
      /></clipPath
      ><clipPath clipPathUnits="userSpaceOnUse" id="clipPath4"
      ><path style="fill-rule:evenodd;" d="M46 86 L41 86 L40 42 L46 42 L40 42 L41 86 Z"
      /></clipPath
    ></defs
    ><g style="fill:white; text-rendering:optimizeSpeed; stroke:white;"
    ><rect x="0" width="290" height="128" y="0" style="stroke:none;"
      /><polygon style="fill:none; stroke:black;" points=" 249 64 197 64"
      /><path d="M249 53 C243.5 58.5 254.5 69.5 249 75" style="fill:none; stroke:black;"
      /><polygon style="fill:none; stroke:black;" points=" 197 64 145 64"
      /><polygon style="clip-path:url(#clipPath1); stroke:none;" points=" 191 42 197 42 197 86 191 86 197 86 197 42"
      /><rect x="186" y="30" width="22" style="clip-path:url(#clipPath1); fill:black; stroke:none;" height="68"
      /><rect x="186" y="30" width="22" style="clip-path:url(#clipPath1); fill:none; stroke:black;" height="68"
      /><polygon style="fill:none; stroke:black;" points=" 191 42 197 42 197 86 191 86 197 86 197 42"
      /><polygon style="fill:none; stroke:black;" points=" 145 64 93 64"
      /><circle style="clip-path:url(#clipPath2); stroke:none;" r="11" cx="145" cy="64"
      /><rect x="134" y="53" width="22" style="clip-path:url(#clipPath2); fill:rgb(255,212,0); stroke:none;" height="22"
      /><rect x="134" y="53" width="22" style="clip-path:url(#clipPath2); fill:none; stroke:black;" height="22"
      /><circle style="fill:none; stroke:black;" r="11" cx="145" cy="64"
      /><rect x="137" y="35" width="15" style="stroke:none;" height="10"
    /></g
    ><g style="text-rendering:optimizeSpeed; font-size:14px; font-family:'SansSerif';"
    ><path style="stroke:none;" d="M138.6094 42.1562 L140.9531 38.6562 C141.2344 38.1406 141.5156 37.6406 141.7812 37.1406 L141.8281 37.1406 C141.7969 37.6719 141.7656 38.5 141.7656 39 L141.7656 42.1562 L138.6094 42.1562 ZM141.7656 46 L142.9688 46 L142.9688 43.1719 L144.3281 43.1719 L144.3281 42.1562 L142.9688 42.1562 L142.9688 35.7188 L141.5469 35.7188 L137.2812 42.3281 L137.2812 43.1719 L141.7656 43.1719 L141.7656 46 ZM149.02 46.1875 C151.1606 46.1875 152.5043 44.8906 152.5043 43.2656 C152.5043 41.75 151.5825 41.0469 150.395 40.5312 L148.9262 39.8906 C148.1293 39.5625 147.2387 39.1875 147.2387 38.1875 C147.2387 37.2656 147.9887 36.6719 149.145 36.6719 C150.0981 36.6719 150.8637 37.0469 151.4887 37.6406 L152.1762 36.8125 C151.4418 36.0625 150.3637 35.5469 149.145 35.5469 C147.2856 35.5469 145.9106 36.6875 145.9106 38.2656 C145.9106 39.7656 147.0512 40.5 148.0043 40.9062 L149.4887 41.5469 C150.4575 41.9844 151.1918 42.3125 151.1918 43.375 C151.1918 44.375 150.3793 45.0469 149.0356 45.0469 C147.9731 45.0469 146.9418 44.5469 146.2075 43.7812 L145.4262 44.6562 C146.3168 45.5938 147.5668 46.1875 149.02 46.1875 Z"
      /><polygon style="fill:none;" points=" 93 64 41 64"
    /></g
    ><g style="fill:white; text-rendering:optimizeSpeed; stroke:white;"
    ><circle r="11" style="clip-path:url(#clipPath3); stroke:none;" cx="93" cy="64"
      /><rect x="82" y="53" width="22" style="clip-path:url(#clipPath3); fill:rgb(255,212,0); stroke:none;" height="22"
      /><rect x="82" y="53" width="22" style="clip-path:url(#clipPath3); fill:none; stroke:black;" height="22"
      /><circle r="11" style="fill:none; stroke:black;" cx="93" cy="64"
      /><rect x="85" width="14" height="10" y="81" style="stroke:none;"
    /></g
    ><g style="text-rendering:optimizeSpeed; font-size:14px; font-family:'SansSerif';"
    ><path style="stroke:none;" d="M85.6094 92 L92.0625 92 L92.0625 90.8906 L89.2344 90.8906 C88.7031 90.8906 88.0781 90.9531 87.5469 90.9844 C89.9531 88.7031 91.5625 86.625 91.5625 84.5781 C91.5625 82.75 90.4219 81.5469 88.5781 81.5469 C87.2812 81.5469 86.4062 82.1406 85.5625 83.0469 L86.2969 83.7812 C86.8594 83.1094 87.5938 82.5938 88.4375 82.5938 C89.7031 82.5938 90.3125 83.4531 90.3125 84.625 C90.3125 86.3906 88.8438 88.4375 85.6094 91.25 L85.6094 92 ZM97.02 92.1875 C99.1606 92.1875 100.5043 90.8906 100.5043 89.2656 C100.5043 87.75 99.5825 87.0469 98.395 86.5312 L96.9262 85.8906 C96.1293 85.5625 95.2387 85.1875 95.2387 84.1875 C95.2387 83.2656 95.9887 82.6719 97.145 82.6719 C98.0981 82.6719 98.8637 83.0469 99.4887 83.6406 L100.1762 82.8125 C99.4418 82.0625 98.3637 81.5469 97.145 81.5469 C95.2856 81.5469 93.9106 82.6875 93.9106 84.2656 C93.9106 85.7656 95.0512 86.5 96.0043 86.9062 L97.4887 87.5469 C98.4575 87.9844 99.1918 88.3125 99.1918 89.375 C99.1918 90.375 98.3793 91.0469 97.0356 91.0469 C95.9731 91.0469 94.9418 90.5469 94.2075 89.7812 L93.4262 90.6562 C94.3168 91.5938 95.5668 92.1875 97.02 92.1875 Z"
      /><rect x="85" y="35" width="14" style="fill:white; stroke:none;" height="10"
      /><path style="stroke:none;" d="M89.1094 40.5781 C90.3438 40.5781 90.9688 41.4688 90.9688 42.8438 C90.9688 44.25 90.1875 45.1875 89.2188 45.1875 C87.9219 45.1875 87.1562 44.0312 87 41.8906 C87.625 40.9531 88.4531 40.5781 89.1094 40.5781 ZM89.2188 46.1875 C90.8125 46.1875 92.1562 44.8438 92.1562 42.8438 C92.1562 40.7031 91.0469 39.625 89.3125 39.625 C88.5 39.625 87.6094 40.1094 86.9688 40.875 C87.0312 37.6875 88.2188 36.6094 89.625 36.6094 C90.25 36.6094 90.8594 36.9062 91.2656 37.3906 L91.9688 36.5938 C91.4062 35.9844 90.6406 35.5469 89.5781 35.5469 C87.5938 35.5469 85.7812 37.0781 85.7812 41.0938 C85.7812 44.4844 87.2344 46.1875 89.2188 46.1875 ZM97.02 46.1875 C99.1606 46.1875 100.5043 44.8906 100.5043 43.2656 C100.5043 41.75 99.5825 41.0469 98.395 40.5312 L96.9262 39.8906 C96.1293 39.5625 95.2387 39.1875 95.2387 38.1875 C95.2387 37.2656 95.9887 36.6719 97.145 36.6719 C98.0981 36.6719 98.8637 37.0469 99.4887 37.6406 L100.1762 36.8125 C99.4418 36.0625 98.3637 35.5469 97.145 35.5469 C95.2856 35.5469 93.9106 36.6875 93.9106 38.2656 C93.9106 39.7656 95.0512 40.5 96.0043 40.9062 L97.4887 41.5469 C98.4575 41.9844 99.1918 42.3125 99.1918 43.375 C99.1918 44.375 98.3793 45.0469 97.0356 45.0469 C95.9731 45.0469 94.9418 44.5469 94.2075 43.7812 L93.4262 44.6562 C94.3168 45.5938 95.5668 46.1875 97.02 46.1875 Z"
    /></g
    ><g style="fill:white; text-rendering:optimizeSpeed; stroke:white;"
    ><polygon style="stroke:none; clip-path:url(#clipPath4);" points=" 46 86 41 86 40 42 46 42 40 42 41 86"
      /><rect x="30" y="30" width="22" style="clip-path:url(#clipPath4); fill:black; stroke:none;" height="68"
      /><rect x="30" y="30" width="22" style="clip-path:url(#clipPath4); fill:none; stroke:black;" height="68"
      /><polygon style="fill:none; stroke:black;" points=" 46 86 41 86 40 42 46 42 40 42 41 86"
      /><path d="M43.5469 95.9531 C43.5156 95.2969 43.5 94.3906 43.5 93.7656 L43.5 92.5156 C43.5 90.8281 42.9531 90.1562 41.8594 90.1562 C41.0625 90.1562 40.1562 90.625 39.4531 91.4062 L39.3594 90.2969 L39.2031 90.1719 L37.4688 90.8125 L37.4688 91.2031 L38.5312 91.2812 C38.5625 91.8438 38.5781 92.3438 38.5781 93.1094 L38.5781 93.7656 C38.5781 94.375 38.5781 95.2969 38.5469 95.9688 L37.5469 96.1094 L37.5469 96.5 L40.4688 96.5 L40.4688 96.1094 L39.5156 95.9531 C39.5156 95.2969 39.5 94.375 39.5 93.7656 L39.5 91.875 C40.2656 91.1562 40.875 90.9062 41.4688 90.9062 C42.2344 90.9062 42.5938 91.3125 42.5938 92.5625 L42.5938 93.7656 C42.5938 94.3906 42.5781 95.3125 42.5625 95.9688 L41.5469 96.1094 L41.5469 96.5 L44.4844 96.5 L44.4844 96.1094 L43.5469 95.9531 Z" style="fill:black; stroke:none;"
      /><rect x="70" width="7" height="9" y="67" style="stroke:none;"
      /><path d="M71 72.5156 L73.9531 68.2656 L73.9531 72.5156 L71 72.5156 ZM76.2812 72.5156 L74.8594 72.5156 L74.8594 67.125 L74.2344 67.125 L70.3438 72.6406 L70.3438 73.1875 L73.9531 73.1875 L73.9531 76 L74.8594 76 L74.8594 73.1875 L76.2812 73.1875 L76.2812 72.5156 Z" style="fill:black; stroke:none;"
      /><rect x="123" width="6" height="10" y="67" style="stroke:none;"
      /><path d="M125.2344 68.6562 C125.5156 68.5938 125.7656 68.5625 126.0156 68.5625 C127.0625 68.5625 127.6719 69.1719 127.6719 70.2656 C127.6719 71.4375 126.9062 72.1094 125.7031 72.1094 L125.1875 72.1094 L125.1875 72.6406 L125.7969 72.6406 C127.2188 72.6406 127.9062 73.4219 127.9062 74.6406 C127.9062 75.8438 127.1719 76.6875 125.875 76.6875 C125.6094 76.6875 125.3125 76.6562 125.0156 76.5625 L124.7812 75.8125 C124.625 75.2812 124.5 75.0469 124.1406 75.0469 C123.8906 75.0469 123.7031 75.1719 123.5781 75.4219 C123.8438 76.6406 124.7812 77.1719 126.0312 77.1719 C127.7188 77.1719 128.875 76.125 128.875 74.7031 C128.875 73.5 128.2031 72.625 126.7969 72.375 C127.9531 72.0156 128.6094 71.2031 128.6094 70.2031 C128.6094 68.9219 127.6719 68.0781 126.1875 68.0781 C125.0469 68.0781 124.0625 68.5938 123.7969 69.6875 C123.9062 70 124.1094 70.1094 124.3594 70.1094 C124.7344 70.1094 124.8906 69.8906 125 69.4062 L125.2344 68.6562 Z" style="fill:black; stroke:none;"
      /><rect x="108" width="8" height="8" y="68" style="stroke:none;"
      /><path d="M112.9844 73.7031 C112.9375 74.8906 112.1562 75.6562 111.3125 75.6562 C110.2656 75.6562 109.5 74.6875 109.5 72.7188 C109.5 71.2812 110.1562 70.1562 111.3438 70.1562 C112.1406 70.1562 112.7812 70.6875 113.0938 71.6406 L112.9844 73.7031 ZM114.9062 75.2812 C114.7344 75.375 114.5469 75.4219 114.3438 75.4219 C113.9531 75.4219 113.75 75.2188 113.75 74.4219 C113.75 73.4844 113.9688 71.5312 114.1875 69.8281 L114.0312 69.7188 L113.2344 69.9219 L113.1406 70.7969 C112.7812 70.0312 112.1562 69.6562 111.3906 69.6562 C110.0469 69.6562 108.5625 70.8438 108.5625 72.9531 C108.5625 75.0938 109.7188 76.1719 111.1406 76.1719 C112.0156 76.1719 112.6875 75.8125 113.0938 74.9844 C113.2031 75.8594 113.5156 76.1719 114.0156 76.1719 C114.4688 76.1719 114.7969 75.9062 115.0156 75.5625 L114.9062 75.2812 Z" style="fill:black; stroke:none;"
      /><rect x="161" width="6" height="13" y="65" style="stroke:none;"
      /><path d="M163.0938 71.2031 C163.0938 69.6562 163.75 68.8125 164.7969 68.8125 C165.7188 68.8125 166.2656 69.4531 166.2656 70.5156 C166.2656 71.7188 165.5 72.4375 164.1875 72.7031 L164.2969 73.3125 C166.2188 73.2344 166.9375 74.2188 166.9375 75.4375 C166.9375 76.625 166.2344 77.4219 164.9531 77.4219 C164.25 77.4219 163.6562 77.1562 163.0938 76.7188 L163.0938 71.2031 ZM162.2031 77.9062 L162.1094 80.375 L162.2656 80.4844 L163.1562 80.2656 L163.0156 77.0938 C163.5469 77.8438 164.3594 78.1719 165.1719 78.1719 C166.5625 78.1719 167.8594 77.2188 167.8594 75.4844 C167.8594 73.9531 166.875 73.1094 165.125 73 C166.5625 72.6094 167.1875 71.4531 167.1875 70.4844 C167.1875 69.0938 166.1562 68.3125 164.9062 68.3125 C163.2969 68.3125 162.2188 69.5469 162.2188 71.5156 L162.2031 77.9062 Z" style="fill:black; stroke:none;"
    /></g
  ></g
></svg
>
