<?xml version="1.0"?>
<!DOCTYPE svg PUBLIC '-//W3C//DTD SVG 1.0//EN'
          'http://www.w3.org/TR/2001/REC-SVG-20010904/DTD/svg10.dtd'>
<svg xmlns:xlink="http://www.w3.org/1999/xlink" style="fill-opacity:1; color-rendering:auto; color-interpolation:auto; text-rendering:auto; stroke:black; stroke-linecap:square; stroke-miterlimit:10; shape-rendering:auto; stroke-opacity:1; fill:black; stroke-dasharray:none; font-weight:normal; stroke-width:1; font-family:'Dialog'; font-style:normal; stroke-linejoin:miter; font-size:12px; stroke-dashoffset:0; image-rendering:auto;" viewBox="0 0 446 342" xmlns="http://www.w3.org/2000/svg"
><!--Generated by the Batik Graphics2D SVG Generator--><defs id="genericDefs"
  /><g
  ><defs id="defs1"
    ><clipPath clipPathUnits="userSpaceOnUse" id="clipPath1"
      ><path d="M342 147 L364 147 L364 169 L342 169 L342 147 Z"
      /></clipPath
      ><clipPath clipPathUnits="userSpaceOnUse" id="clipPath2"
      ><path d="M290 147 L312 147 L312 169 L290 169 L290 147 Z"
      /></clipPath
      ><clipPath clipPathUnits="userSpaceOnUse" id="clipPath3"
      ><path d="M260 158 C260 164.0751 255.0751 169 249 169 C242.9249 169 238 164.0751 238 158 C238 151.9249 242.9249 147 249 147 C255.0751 147 260 151.9249 260 158 Z"
      /></clipPath
      ><clipPath clipPathUnits="userSpaceOnUse" id="clipPath4"
      ><path d="M208 249 C208 255.0751 203.0751 260 197 260 C190.9249 260 186 255.0751 186 249 C186 242.9249 190.9249 238 197 238 C203.0751 238 208 242.9249 208 249 Z"
      /></clipPath
      ><clipPath clipPathUnits="userSpaceOnUse" id="clipPath5"
      ><path d="M134 290 L156 290 L156 312 L134 312 L134 290 Z"
      /></clipPath
      ><clipPath clipPathUnits="userSpaceOnUse" id="clipPath6"
      ><path d="M104 301 C104 307.0751 99.0751 312 93 312 C86.9249 312 82 307.0751 82 301 C82 294.9249 86.9249 290 93 290 C99.0751 290 104 294.9249 104 301 Z"
      /></clipPath
      ><clipPath clipPathUnits="userSpaceOnUse" id="clipPath7"
      ><path style="fill-rule:evenodd;" d="M41 290 L52 301 L41 312 L30 301 Z"
      /></clipPath
      ><clipPath clipPathUnits="userSpaceOnUse" id="clipPath8"
      ><path style="fill-rule:evenodd;" d="M145 260 L134 238 L156 238 Z"
      /></clipPath
      ><clipPath clipPathUnits="userSpaceOnUse" id="clipPath9"
      ><path d="M134 186 L156 186 L156 208 L134 208 L134 186 Z"
      /></clipPath
      ><clipPath clipPathUnits="userSpaceOnUse" id="clipPath10"
      ><path d="M104 197 C104 203.0751 99.0751 208 93 208 C86.9249 208 82 203.0751 82 197 C82 190.9249 86.9249 186 93 186 C99.0751 186 104 190.9249 104 197 Z"
      /></clipPath
      ><clipPath clipPathUnits="userSpaceOnUse" id="clipPath11"
      ><path style="fill-rule:evenodd;" d="M41 186 L52 197 L41 208 L30 197 Z"
      /></clipPath
      ><clipPath clipPathUnits="userSpaceOnUse" id="clipPath12"
      ><path style="fill-rule:evenodd;" d="M145 156 L134 134 L156 134 Z"
      /></clipPath
      ><clipPath clipPathUnits="userSpaceOnUse" id="clipPath13"
      ><path d="M208 67 C208 73.0751 203.0751 78 197 78 C190.9249 78 186 73.0751 186 67 C186 60.9249 190.9249 56 197 56 C203.0751 56 208 60.9249 208 67 Z"
      /></clipPath
      ><clipPath clipPathUnits="userSpaceOnUse" id="clipPath14"
      ><path d="M134 82 L156 82 L156 104 L134 104 L134 82 Z"
      /></clipPath
      ><clipPath clipPathUnits="userSpaceOnUse" id="clipPath15"
      ><path d="M104 93 C104 99.0751 99.0751 104 93 104 C86.9249 104 82 99.0751 82 93 C82 86.9249 86.9249 82 93 82 C99.0751 82 104 86.9249 104 93 Z"
      /></clipPath
      ><clipPath clipPathUnits="userSpaceOnUse" id="clipPath16"
      ><path style="fill-rule:evenodd;" d="M41 82 L52 93 L41 104 L30 93 Z"
      /></clipPath
      ><clipPath clipPathUnits="userSpaceOnUse" id="clipPath17"
      ><path d="M134 30 L156 30 L156 52 L134 52 L134 30 Z"
      /></clipPath
      ><clipPath clipPathUnits="userSpaceOnUse" id="clipPath18"
      ><path d="M104 41 C104 47.0751 99.0751 52 93 52 C86.9249 52 82 47.0751 82 41 C82 34.9249 86.9249 30 93 30 C99.0751 30 104 34.9249 104 41 Z"
      /></clipPath
      ><clipPath clipPathUnits="userSpaceOnUse" id="clipPath19"
      ><path style="fill-rule:evenodd;" d="M41 30 L52 41 L41 52 L30 41 Z"
      /></clipPath
      ><clipPath clipPathUnits="userSpaceOnUse" id="clipPath20"
      ><path style="fill-rule:evenodd;" d="M353 117 L342 95 L364 95 Z"
      /></clipPath
    ></defs
    ><g style="fill:white; text-rendering:optimizeSpeed; stroke:white;"
    ><rect x="0" width="446" height="342" y="0" style="stroke:none;"
      /><polygon style="fill:none; stroke:black;" points=" 405 158 353 158"
      /><path d="M405 147 C399.5 152.5 410.5 163.5 405 169" style="fill:none; stroke:black;"
      /><polygon style="fill:none; stroke:black;" points=" 353 158 301 158"
      /><polygon style="fill:none; stroke:black;" points=" 353 158 353 106"
      /><rect x="342" y="147" width="22" style="clip-path:url(#clipPath1); stroke:none;" height="22"
      /><rect x="342" y="147" width="22" style="clip-path:url(#clipPath1); fill:rgb(0,144,188); stroke:none;" height="22"
      /><rect x="342" y="147" width="22" style="clip-path:url(#clipPath1); fill:none; stroke:black;" height="22"
      /><rect x="342" y="147" width="22" style="fill:none; stroke:black;" height="22"
      /><polygon style="fill:none; stroke:black;" points=" 301 158 249 158"
      /><rect x="290" y="147" width="22" style="clip-path:url(#clipPath2); stroke:none;" height="22"
      /><rect x="290" y="147" width="22" style="clip-path:url(#clipPath2); fill:rgb(0,144,188); stroke:none;" height="22"
      /><rect x="290" y="147" width="22" style="clip-path:url(#clipPath2); fill:none; stroke:black;" height="22"
      /><rect x="290" y="147" width="22" style="fill:none; stroke:black;" height="22"
      /><polygon style="fill:none; stroke:black;" points=" 249 158 197 249"
      /><polygon style="fill:none; stroke:black;" points=" 249 158 197 67"
      /><circle style="clip-path:url(#clipPath3); stroke:none;" r="11" cx="249" cy="158"
      /><rect x="238" y="147" width="22" style="clip-path:url(#clipPath3); fill:rgb(0,166,81); stroke:none;" height="22"
      /><rect x="238" y="147" width="22" style="clip-path:url(#clipPath3); fill:none; stroke:black;" height="22"
      /><circle style="fill:none; stroke:black;" r="11" cx="249" cy="158"
      /><polygon style="fill:none; stroke:black;" points=" 197 249 145 301"
      /><polygon style="fill:none; stroke:black;" points=" 197 249 145 197"
      /><circle style="clip-path:url(#clipPath4); stroke:none;" r="11" cx="197" cy="249"
      /><rect x="186" y="238" width="22" style="clip-path:url(#clipPath4); fill:rgb(0,166,81); stroke:none;" height="22"
      /><rect x="186" y="238" width="22" style="clip-path:url(#clipPath4); fill:none; stroke:black;" height="22"
      /><circle style="fill:none; stroke:black;" r="11" cx="197" cy="249"
      /><polygon style="fill:none; stroke:black;" points=" 145 301 93 301"
      /><polygon style="fill:none; stroke:black;" points=" 145 301 145 249"
      /><rect x="134" y="290" width="22" style="clip-path:url(#clipPath5); stroke:none;" height="22"
      /><rect x="134" y="290" width="22" style="clip-path:url(#clipPath5); fill:rgb(0,144,188); stroke:none;" height="22"
      /><rect x="134" y="290" width="22" style="clip-path:url(#clipPath5); fill:none; stroke:black;" height="22"
      /><rect x="134" y="290" width="22" style="fill:none; stroke:black;" height="22"
      /><polygon style="fill:none; stroke:black;" points=" 93 301 41 301"
      /><circle style="clip-path:url(#clipPath6); stroke:none;" r="11" cx="93" cy="301"
      /><rect x="82" y="290" width="22" style="clip-path:url(#clipPath6); fill:rgb(255,212,0); stroke:none;" height="22"
      /><rect x="82" y="290" width="22" style="clip-path:url(#clipPath6); fill:none; stroke:black;" height="22"
      /><circle style="fill:none; stroke:black;" r="11" cx="93" cy="301"
      /><polygon style="clip-path:url(#clipPath7); stroke:none;" points=" 41 290 52 301 41 312 30 301"
      /><rect x="30" y="290" width="22" style="clip-path:url(#clipPath7); fill:rgb(165,67,153); stroke:none;" height="22"
      /><rect x="30" y="290" width="22" style="clip-path:url(#clipPath7); fill:none; stroke:black;" height="22"
      /><polygon style="fill:none; stroke:black;" points=" 41 290 52 301 41 312 30 301"
      /><rect x="71" y="304" width="5" style="stroke:none;" height="10"
    /></g
    ><g style="font-family:'Serif'; text-rendering:optimizeSpeed; "
    ><path style="stroke:none;" d="M72.8906 312.6875 C72.4844 312.6875 72.1562 313.0469 72.1562 313.4219 C72.1562 313.8125 72.4844 314.1562 72.8906 314.1562 C73.2969 314.1562 73.6406 313.8125 73.6406 313.4219 C73.6406 313.0469 73.2969 312.6875 72.8906 312.6875 ZM74.4688 306.5781 C74.7188 306.8906 74.875 307.2656 74.8906 307.6562 C74.8906 308.1875 74.625 308.5 74.0312 308.7656 L73.4062 309.0156 C72.6406 309.3125 72.3906 309.5469 72.3906 309.9375 C72.3906 310.1094 72.4531 310.3438 72.5781 310.8125 L72.7344 311.3438 L73.1094 311.3438 L73.0938 310.5312 C73.0938 310.0938 73.2031 309.9688 73.7812 309.7344 L74.2031 309.5625 C75.0312 309.2188 75.4531 308.6875 75.4531 307.8438 C75.4531 306.1562 73.6562 305.1875 72.5 305.0312 C72.1094 305.125 71.9062 305.2969 71.9062 305.6406 C71.9062 305.9375 72.0625 306.1562 72.7188 306.2656 L74.4688 306.5781 Z"
      /><rect x="57" y="304" width="5" style="fill:white; stroke:none;" height="10"
      /><path style="stroke:none;" d="M58.8906 312.6875 C58.4844 312.6875 58.1562 313.0469 58.1562 313.4219 C58.1562 313.8125 58.4844 314.1562 58.8906 314.1562 C59.2969 314.1562 59.6406 313.8125 59.6406 313.4219 C59.6406 313.0469 59.2969 312.6875 58.8906 312.6875 ZM60.4688 306.5781 C60.7188 306.8906 60.875 307.2656 60.8906 307.6562 C60.8906 308.1875 60.625 308.5 60.0312 308.7656 L59.4062 309.0156 C58.6406 309.3125 58.3906 309.5469 58.3906 309.9375 C58.3906 310.1094 58.4531 310.3438 58.5781 310.8125 L58.7344 311.3438 L59.1094 311.3438 L59.0938 310.5312 C59.0938 310.0938 59.2031 309.9688 59.7812 309.7344 L60.2031 309.5625 C61.0312 309.2188 61.4531 308.6875 61.4531 307.8438 C61.4531 306.1562 59.6562 305.1875 58.5 305.0312 C58.1094 305.125 57.9062 305.2969 57.9062 305.6406 C57.9062 305.9375 58.0625 306.1562 58.7188 306.2656 L60.4688 306.5781 Z"
      /><polygon style="fill:white; clip-path:url(#clipPath8); stroke:none;" points=" 145 260 134 238 156 238"
      /><rect x="134" y="238" width="22" style="clip-path:url(#clipPath8); fill:rgb(237,28,36); stroke:none;" height="22"
      /><rect x="134" y="238" width="22" style="fill:none; clip-path:url(#clipPath8);" height="22"
      /><polygon style="fill:none;" points=" 145 260 134 238 156 238"
      /><rect x="123" y="304" width="5" style="fill:white; stroke:none;" height="10"
      /><path style="stroke:none;" d="M124.8906 312.6875 C124.4844 312.6875 124.1562 313.0469 124.1562 313.4219 C124.1562 313.8125 124.4844 314.1562 124.8906 314.1562 C125.2969 314.1562 125.6406 313.8125 125.6406 313.4219 C125.6406 313.0469 125.2969 312.6875 124.8906 312.6875 ZM126.4688 306.5781 C126.7188 306.8906 126.875 307.2656 126.8906 307.6562 C126.8906 308.1875 126.625 308.5 126.0312 308.7656 L125.4062 309.0156 C124.6406 309.3125 124.3906 309.5469 124.3906 309.9375 C124.3906 310.1094 124.4531 310.3438 124.5781 310.8125 L124.7344 311.3438 L125.1094 311.3438 L125.0938 310.5312 C125.0938 310.0938 125.2031 309.9688 125.7812 309.7344 L126.2031 309.5625 C127.0312 309.2188 127.4531 308.6875 127.4531 307.8438 C127.4531 306.1562 125.6562 305.1875 124.5 305.0312 C124.1094 305.125 123.9062 305.2969 123.9062 305.6406 C123.9062 305.9375 124.0625 306.1562 124.7188 306.2656 L126.4688 306.5781 Z"
      /><rect x="109" y="304" width="5" style="fill:white; stroke:none;" height="10"
      /><path style="stroke:none;" d="M110.8906 312.6875 C110.4844 312.6875 110.1562 313.0469 110.1562 313.4219 C110.1562 313.8125 110.4844 314.1562 110.8906 314.1562 C111.2969 314.1562 111.6406 313.8125 111.6406 313.4219 C111.6406 313.0469 111.2969 312.6875 110.8906 312.6875 ZM112.4688 306.5781 C112.7188 306.8906 112.875 307.2656 112.8906 307.6562 C112.8906 308.1875 112.625 308.5 112.0312 308.7656 L111.4062 309.0156 C110.6406 309.3125 110.3906 309.5469 110.3906 309.9375 C110.3906 310.1094 110.4531 310.3438 110.5781 310.8125 L110.7344 311.3438 L111.1094 311.3438 L111.0938 310.5312 C111.0938 310.0938 111.2031 309.9688 111.7812 309.7344 L112.2031 309.5625 C113.0312 309.2188 113.4531 308.6875 113.4531 307.8438 C113.4531 306.1562 111.6562 305.1875 110.5 305.0312 C110.1094 305.125 109.9062 305.2969 109.9062 305.6406 C109.9062 305.9375 110.0625 306.1562 110.7188 306.2656 L112.4688 306.5781 Z"
      /><rect x="134" y="277" width="5" style="fill:white; stroke:none;" height="10"
      /><path style="stroke:none;" d="M135.8906 285.6875 C135.4844 285.6875 135.1562 286.0469 135.1562 286.4219 C135.1562 286.8125 135.4844 287.1562 135.8906 287.1562 C136.2969 287.1562 136.6406 286.8125 136.6406 286.4219 C136.6406 286.0469 136.2969 285.6875 135.8906 285.6875 ZM137.4688 279.5781 C137.7188 279.8906 137.875 280.2656 137.8906 280.6562 C137.8906 281.1875 137.625 281.5 137.0312 281.7656 L136.4062 282.0156 C135.6406 282.3125 135.3906 282.5469 135.3906 282.9375 C135.3906 283.1094 135.4531 283.3438 135.5781 283.8125 L135.7344 284.3438 L136.1094 284.3438 L136.0938 283.5312 C136.0938 283.0938 136.2031 282.9688 136.7812 282.7344 L137.2031 282.5625 C138.0312 282.2188 138.4531 281.6875 138.4531 280.8438 C138.4531 279.1562 136.6562 278.1875 135.5 278.0312 C135.1094 278.125 134.9062 278.2969 134.9062 278.6406 C134.9062 278.9375 135.0625 279.1562 135.7188 279.2656 L137.4688 279.5781 Z"
      /><rect x="134" y="263" width="5" style="fill:white; stroke:none;" height="10"
      /><path style="stroke:none;" d="M135.8906 271.6875 C135.4844 271.6875 135.1562 272.0469 135.1562 272.4219 C135.1562 272.8125 135.4844 273.1562 135.8906 273.1562 C136.2969 273.1562 136.6406 272.8125 136.6406 272.4219 C136.6406 272.0469 136.2969 271.6875 135.8906 271.6875 ZM137.4688 265.5781 C137.7188 265.8906 137.875 266.2656 137.8906 266.6562 C137.8906 267.1875 137.625 267.5 137.0312 267.7656 L136.4062 268.0156 C135.6406 268.3125 135.3906 268.5469 135.3906 268.9375 C135.3906 269.1094 135.4531 269.3438 135.5781 269.8125 L135.7344 270.3438 L136.1094 270.3438 L136.0938 269.5312 C136.0938 269.0938 136.2031 268.9688 136.7812 268.7344 L137.2031 268.5625 C138.0312 268.2188 138.4531 267.6875 138.4531 266.8438 C138.4531 265.1562 136.6562 264.1875 135.5 264.0312 C135.1094 264.125 134.9062 264.2969 134.9062 264.6406 C134.9062 264.9375 135.0625 265.1562 135.7188 265.2656 L137.4688 265.5781 Z"
      /><polygon style="fill:none;" points=" 145 197 93 197"
      /><polygon style="fill:none;" points=" 145 197 145 145"
      /><rect x="134" y="186" width="22" style="clip-path:url(#clipPath9); fill:white; stroke:none;" height="22"
      /><rect x="134" y="186" width="22" style="clip-path:url(#clipPath9); fill:rgb(0,144,188); stroke:none;" height="22"
      /><rect x="134" y="186" width="22" style="fill:none; clip-path:url(#clipPath9);" height="22"
      /><rect x="134" width="22" height="22" y="186" style="fill:none;"
      /><polygon style="fill:none;" points=" 93 197 41 197"
      /><circle style="fill:white; clip-path:url(#clipPath10); stroke:none;" r="11" cx="93" cy="197"
      /><rect x="82" y="186" width="22" style="clip-path:url(#clipPath10); fill:rgb(255,212,0); stroke:none;" height="22"
      /><rect x="82" y="186" width="22" style="fill:none; clip-path:url(#clipPath10);" height="22"
      /><circle r="11" style="fill:none;" cx="93" cy="197"
      /><polygon style="fill:white; clip-path:url(#clipPath11); stroke:none;" points=" 41 186 52 197 41 208 30 197"
      /><rect x="30" y="186" width="22" style="clip-path:url(#clipPath11); fill:rgb(165,67,153); stroke:none;" height="22"
      /><rect x="30" y="186" width="22" style="fill:none; clip-path:url(#clipPath11);" height="22"
      /><polygon style="fill:none;" points=" 41 186 52 197 41 208 30 197"
      /><rect x="71" y="200" width="5" style="fill:white; stroke:none;" height="10"
      /><path style="stroke:none;" d="M72.8906 208.6875 C72.4844 208.6875 72.1562 209.0469 72.1562 209.4219 C72.1562 209.8125 72.4844 210.1562 72.8906 210.1562 C73.2969 210.1562 73.6406 209.8125 73.6406 209.4219 C73.6406 209.0469 73.2969 208.6875 72.8906 208.6875 ZM74.4688 202.5781 C74.7188 202.8906 74.875 203.2656 74.8906 203.6562 C74.8906 204.1875 74.625 204.5 74.0312 204.7656 L73.4062 205.0156 C72.6406 205.3125 72.3906 205.5469 72.3906 205.9375 C72.3906 206.1094 72.4531 206.3438 72.5781 206.8125 L72.7344 207.3438 L73.1094 207.3438 L73.0938 206.5312 C73.0938 206.0938 73.2031 205.9688 73.7812 205.7344 L74.2031 205.5625 C75.0312 205.2188 75.4531 204.6875 75.4531 203.8438 C75.4531 202.1562 73.6562 201.1875 72.5 201.0312 C72.1094 201.125 71.9062 201.2969 71.9062 201.6406 C71.9062 201.9375 72.0625 202.1562 72.7188 202.2656 L74.4688 202.5781 Z"
      /><rect x="57" y="200" width="5" style="fill:white; stroke:none;" height="10"
      /><path style="stroke:none;" d="M58.8906 208.6875 C58.4844 208.6875 58.1562 209.0469 58.1562 209.4219 C58.1562 209.8125 58.4844 210.1562 58.8906 210.1562 C59.2969 210.1562 59.6406 209.8125 59.6406 209.4219 C59.6406 209.0469 59.2969 208.6875 58.8906 208.6875 ZM60.4688 202.5781 C60.7188 202.8906 60.875 203.2656 60.8906 203.6562 C60.8906 204.1875 60.625 204.5 60.0312 204.7656 L59.4062 205.0156 C58.6406 205.3125 58.3906 205.5469 58.3906 205.9375 C58.3906 206.1094 58.4531 206.3438 58.5781 206.8125 L58.7344 207.3438 L59.1094 207.3438 L59.0938 206.5312 C59.0938 206.0938 59.2031 205.9688 59.7812 205.7344 L60.2031 205.5625 C61.0312 205.2188 61.4531 204.6875 61.4531 203.8438 C61.4531 202.1562 59.6562 201.1875 58.5 201.0312 C58.1094 201.125 57.9062 201.2969 57.9062 201.6406 C57.9062 201.9375 58.0625 202.1562 58.7188 202.2656 L60.4688 202.5781 Z"
      /><polygon style="fill:white; clip-path:url(#clipPath12); stroke:none;" points=" 145 156 134 134 156 134"
      /><rect x="134" y="134" width="22" style="clip-path:url(#clipPath12); fill:rgb(237,28,36); stroke:none;" height="22"
      /><rect x="134" y="134" width="22" style="fill:none; clip-path:url(#clipPath12);" height="22"
      /><polygon style="fill:none;" points=" 145 156 134 134 156 134"
      /><rect x="123" y="200" width="5" style="fill:white; stroke:none;" height="10"
      /><path style="stroke:none;" d="M124.8906 208.6875 C124.4844 208.6875 124.1562 209.0469 124.1562 209.4219 C124.1562 209.8125 124.4844 210.1562 124.8906 210.1562 C125.2969 210.1562 125.6406 209.8125 125.6406 209.4219 C125.6406 209.0469 125.2969 208.6875 124.8906 208.6875 ZM126.4688 202.5781 C126.7188 202.8906 126.875 203.2656 126.8906 203.6562 C126.8906 204.1875 126.625 204.5 126.0312 204.7656 L125.4062 205.0156 C124.6406 205.3125 124.3906 205.5469 124.3906 205.9375 C124.3906 206.1094 124.4531 206.3438 124.5781 206.8125 L124.7344 207.3438 L125.1094 207.3438 L125.0938 206.5312 C125.0938 206.0938 125.2031 205.9688 125.7812 205.7344 L126.2031 205.5625 C127.0312 205.2188 127.4531 204.6875 127.4531 203.8438 C127.4531 202.1562 125.6562 201.1875 124.5 201.0312 C124.1094 201.125 123.9062 201.2969 123.9062 201.6406 C123.9062 201.9375 124.0625 202.1562 124.7188 202.2656 L126.4688 202.5781 Z"
      /><rect x="109" y="200" width="5" style="fill:white; stroke:none;" height="10"
      /><path style="stroke:none;" d="M110.8906 208.6875 C110.4844 208.6875 110.1562 209.0469 110.1562 209.4219 C110.1562 209.8125 110.4844 210.1562 110.8906 210.1562 C111.2969 210.1562 111.6406 209.8125 111.6406 209.4219 C111.6406 209.0469 111.2969 208.6875 110.8906 208.6875 ZM112.4688 202.5781 C112.7188 202.8906 112.875 203.2656 112.8906 203.6562 C112.8906 204.1875 112.625 204.5 112.0312 204.7656 L111.4062 205.0156 C110.6406 205.3125 110.3906 205.5469 110.3906 205.9375 C110.3906 206.1094 110.4531 206.3438 110.5781 206.8125 L110.7344 207.3438 L111.1094 207.3438 L111.0938 206.5312 C111.0938 206.0938 111.2031 205.9688 111.7812 205.7344 L112.2031 205.5625 C113.0312 205.2188 113.4531 204.6875 113.4531 203.8438 C113.4531 202.1562 111.6562 201.1875 110.5 201.0312 C110.1094 201.125 109.9062 201.2969 109.9062 201.6406 C109.9062 201.9375 110.0625 202.1562 110.7188 202.2656 L112.4688 202.5781 Z"
      /><rect x="134" y="173" width="5" style="fill:white; stroke:none;" height="10"
      /><path style="stroke:none;" d="M135.8906 181.6875 C135.4844 181.6875 135.1562 182.0469 135.1562 182.4219 C135.1562 182.8125 135.4844 183.1562 135.8906 183.1562 C136.2969 183.1562 136.6406 182.8125 136.6406 182.4219 C136.6406 182.0469 136.2969 181.6875 135.8906 181.6875 ZM137.4688 175.5781 C137.7188 175.8906 137.875 176.2656 137.8906 176.6562 C137.8906 177.1875 137.625 177.5 137.0312 177.7656 L136.4062 178.0156 C135.6406 178.3125 135.3906 178.5469 135.3906 178.9375 C135.3906 179.1094 135.4531 179.3438 135.5781 179.8125 L135.7344 180.3438 L136.1094 180.3438 L136.0938 179.5312 C136.0938 179.0938 136.2031 178.9688 136.7812 178.7344 L137.2031 178.5625 C138.0312 178.2188 138.4531 177.6875 138.4531 176.8438 C138.4531 175.1562 136.6562 174.1875 135.5 174.0312 C135.1094 174.125 134.9062 174.2969 134.9062 174.6406 C134.9062 174.9375 135.0625 175.1562 135.7188 175.2656 L137.4688 175.5781 Z"
      /><rect x="134" y="159" width="5" style="fill:white; stroke:none;" height="10"
      /><path style="stroke:none;" d="M135.8906 167.6875 C135.4844 167.6875 135.1562 168.0469 135.1562 168.4219 C135.1562 168.8125 135.4844 169.1562 135.8906 169.1562 C136.2969 169.1562 136.6406 168.8125 136.6406 168.4219 C136.6406 168.0469 136.2969 167.6875 135.8906 167.6875 ZM137.4688 161.5781 C137.7188 161.8906 137.875 162.2656 137.8906 162.6562 C137.8906 163.1875 137.625 163.5 137.0312 163.7656 L136.4062 164.0156 C135.6406 164.3125 135.3906 164.5469 135.3906 164.9375 C135.3906 165.1094 135.4531 165.3438 135.5781 165.8125 L135.7344 166.3438 L136.1094 166.3438 L136.0938 165.5312 C136.0938 165.0938 136.2031 164.9688 136.7812 164.7344 L137.2031 164.5625 C138.0312 164.2188 138.4531 163.6875 138.4531 162.8438 C138.4531 161.1562 136.6562 160.1875 135.5 160.0312 C135.1094 160.125 134.9062 160.2969 134.9062 160.6406 C134.9062 160.9375 135.0625 161.1562 135.7188 161.2656 L137.4688 161.5781 Z"
      /><rect x="183" y="266" width="5" style="fill:white; stroke:none;" height="10"
      /><path style="stroke:none;" d="M184.8906 274.6875 C184.4844 274.6875 184.1562 275.0469 184.1562 275.4219 C184.1562 275.8125 184.4844 276.1562 184.8906 276.1562 C185.2969 276.1562 185.6406 275.8125 185.6406 275.4219 C185.6406 275.0469 185.2969 274.6875 184.8906 274.6875 ZM186.4688 268.5781 C186.7188 268.8906 186.875 269.2656 186.8906 269.6562 C186.8906 270.1875 186.625 270.5 186.0312 270.7656 L185.4062 271.0156 C184.6406 271.3125 184.3906 271.5469 184.3906 271.9375 C184.3906 272.1094 184.4531 272.3438 184.5781 272.8125 L184.7344 273.3438 L185.1094 273.3438 L185.0938 272.5312 C185.0938 272.0938 185.2031 271.9688 185.7812 271.7344 L186.2031 271.5625 C187.0312 271.2188 187.4531 270.6875 187.4531 269.8438 C187.4531 268.1562 185.6562 267.1875 184.5 267.0312 C184.1094 267.125 183.9062 267.2969 183.9062 267.6406 C183.9062 267.9375 184.0625 268.1562 184.7188 268.2656 L186.4688 268.5781 Z"
      /><rect x="164" y="285" width="5" style="fill:white; stroke:none;" height="10"
      /><path style="stroke:none;" d="M165.8906 293.6875 C165.4844 293.6875 165.1562 294.0469 165.1562 294.4219 C165.1562 294.8125 165.4844 295.1562 165.8906 295.1562 C166.2969 295.1562 166.6406 294.8125 166.6406 294.4219 C166.6406 294.0469 166.2969 293.6875 165.8906 293.6875 ZM167.4688 287.5781 C167.7188 287.8906 167.875 288.2656 167.8906 288.6562 C167.8906 289.1875 167.625 289.5 167.0312 289.7656 L166.4062 290.0156 C165.6406 290.3125 165.3906 290.5469 165.3906 290.9375 C165.3906 291.1094 165.4531 291.3438 165.5781 291.8125 L165.7344 292.3438 L166.1094 292.3438 L166.0938 291.5312 C166.0938 291.0938 166.2031 290.9688 166.7812 290.7344 L167.2031 290.5625 C168.0312 290.2188 168.4531 289.6875 168.4531 288.8438 C168.4531 287.1562 166.6562 286.1875 165.5 286.0312 C165.1094 286.125 164.9062 286.2969 164.9062 286.6406 C164.9062 286.9375 165.0625 287.1562 165.7188 287.2656 L167.4688 287.5781 Z"
      /><rect x="172" y="233" width="5" style="fill:white; stroke:none;" height="10"
      /><path style="stroke:none;" d="M173.8906 241.6875 C173.4844 241.6875 173.1562 242.0469 173.1562 242.4219 C173.1562 242.8125 173.4844 243.1562 173.8906 243.1562 C174.2969 243.1562 174.6406 242.8125 174.6406 242.4219 C174.6406 242.0469 174.2969 241.6875 173.8906 241.6875 ZM175.4688 235.5781 C175.7188 235.8906 175.875 236.2656 175.8906 236.6562 C175.8906 237.1875 175.625 237.5 175.0312 237.7656 L174.4062 238.0156 C173.6406 238.3125 173.3906 238.5469 173.3906 238.9375 C173.3906 239.1094 173.4531 239.3438 173.5781 239.8125 L173.7344 240.3438 L174.1094 240.3438 L174.0938 239.5312 C174.0938 239.0938 174.2031 238.9688 174.7812 238.7344 L175.2031 238.5625 C176.0312 238.2188 176.4531 237.6875 176.4531 236.8438 C176.4531 235.1562 174.6562 234.1875 173.5 234.0312 C173.1094 234.125 172.9062 234.2969 172.9062 234.6406 C172.9062 234.9375 173.0625 235.1562 173.7188 235.2656 L175.4688 235.5781 Z"
      /><rect x="153" y="214" width="5" style="fill:white; stroke:none;" height="10"
      /><path style="stroke:none;" d="M154.8906 222.6875 C154.4844 222.6875 154.1562 223.0469 154.1562 223.4219 C154.1562 223.8125 154.4844 224.1562 154.8906 224.1562 C155.2969 224.1562 155.6406 223.8125 155.6406 223.4219 C155.6406 223.0469 155.2969 222.6875 154.8906 222.6875 ZM156.4688 216.5781 C156.7188 216.8906 156.875 217.2656 156.8906 217.6562 C156.8906 218.1875 156.625 218.5 156.0312 218.7656 L155.4062 219.0156 C154.6406 219.3125 154.3906 219.5469 154.3906 219.9375 C154.3906 220.1094 154.4531 220.3438 154.5781 220.8125 L154.7344 221.3438 L155.1094 221.3438 L155.0938 220.5312 C155.0938 220.0938 155.2031 219.9688 155.7812 219.7344 L156.2031 219.5625 C157.0312 219.2188 157.4531 218.6875 157.4531 217.8438 C157.4531 216.1562 155.6562 215.1875 154.5 215.0312 C154.1094 215.125 153.9062 215.2969 153.9062 215.6406 C153.9062 215.9375 154.0625 216.1562 154.7188 216.2656 L156.4688 216.5781 Z"
      /><polygon style="fill:none;" points=" 197 67 145 93"
      /><polygon style="fill:none;" points=" 197 67 145 41"
      /><circle style="fill:white; clip-path:url(#clipPath13); stroke:none;" r="11" cx="197" cy="67"
      /><rect x="186" y="56" width="22" style="clip-path:url(#clipPath13); fill:rgb(0,166,81); stroke:none;" height="22"
      /><rect x="186" y="56" width="22" style="fill:none; clip-path:url(#clipPath13);" height="22"
      /><circle r="11" style="fill:none;" cx="197" cy="67"
      /><polygon style="fill:none;" points=" 145 93 93 93"
      /><rect x="134" y="82" width="22" style="clip-path:url(#clipPath14); fill:white; stroke:none;" height="22"
      /><rect x="134" y="82" width="22" style="clip-path:url(#clipPath14); fill:rgb(0,144,188); stroke:none;" height="22"
      /><rect x="134" y="82" width="22" style="fill:none; clip-path:url(#clipPath14);" height="22"
      /><rect x="134" width="22" height="22" y="82" style="fill:none;"
      /><polygon style="fill:none;" points=" 93 93 41 93"
      /><circle style="fill:white; clip-path:url(#clipPath15); stroke:none;" r="11" cx="93" cy="93"
      /><rect x="82" y="82" width="22" style="clip-path:url(#clipPath15); fill:rgb(255,212,0); stroke:none;" height="22"
      /><rect x="82" y="82" width="22" style="fill:none; clip-path:url(#clipPath15);" height="22"
      /><circle r="11" style="fill:none;" cx="93" cy="93"
      /><polygon style="fill:white; clip-path:url(#clipPath16); stroke:none;" points=" 41 82 52 93 41 104 30 93"
      /><rect x="30" y="82" width="22" style="clip-path:url(#clipPath16); fill:rgb(165,67,153); stroke:none;" height="22"
      /><rect x="30" y="82" width="22" style="fill:none; clip-path:url(#clipPath16);" height="22"
      /><polygon style="fill:none;" points=" 41 82 52 93 41 104 30 93"
      /><rect x="71" y="96" width="5" style="fill:white; stroke:none;" height="10"
      /><path style="stroke:none;" d="M72.8906 104.6875 C72.4844 104.6875 72.1562 105.0469 72.1562 105.4219 C72.1562 105.8125 72.4844 106.1562 72.8906 106.1562 C73.2969 106.1562 73.6406 105.8125 73.6406 105.4219 C73.6406 105.0469 73.2969 104.6875 72.8906 104.6875 ZM74.4688 98.5781 C74.7188 98.8906 74.875 99.2656 74.8906 99.6562 C74.8906 100.1875 74.625 100.5 74.0312 100.7656 L73.4062 101.0156 C72.6406 101.3125 72.3906 101.5469 72.3906 101.9375 C72.3906 102.1094 72.4531 102.3438 72.5781 102.8125 L72.7344 103.3438 L73.1094 103.3438 L73.0938 102.5312 C73.0938 102.0938 73.2031 101.9688 73.7812 101.7344 L74.2031 101.5625 C75.0312 101.2188 75.4531 100.6875 75.4531 99.8438 C75.4531 98.1562 73.6562 97.1875 72.5 97.0312 C72.1094 97.125 71.9062 97.2969 71.9062 97.6406 C71.9062 97.9375 72.0625 98.1562 72.7188 98.2656 L74.4688 98.5781 Z"
      /><rect x="57" y="96" width="5" style="fill:white; stroke:none;" height="10"
      /><path style="stroke:none;" d="M58.8906 104.6875 C58.4844 104.6875 58.1562 105.0469 58.1562 105.4219 C58.1562 105.8125 58.4844 106.1562 58.8906 106.1562 C59.2969 106.1562 59.6406 105.8125 59.6406 105.4219 C59.6406 105.0469 59.2969 104.6875 58.8906 104.6875 ZM60.4688 98.5781 C60.7188 98.8906 60.875 99.2656 60.8906 99.6562 C60.8906 100.1875 60.625 100.5 60.0312 100.7656 L59.4062 101.0156 C58.6406 101.3125 58.3906 101.5469 58.3906 101.9375 C58.3906 102.1094 58.4531 102.3438 58.5781 102.8125 L58.7344 103.3438 L59.1094 103.3438 L59.0938 102.5312 C59.0938 102.0938 59.2031 101.9688 59.7812 101.7344 L60.2031 101.5625 C61.0312 101.2188 61.4531 100.6875 61.4531 99.8438 C61.4531 98.1562 59.6562 97.1875 58.5 97.0312 C58.1094 97.125 57.9062 97.2969 57.9062 97.6406 C57.9062 97.9375 58.0625 98.1562 58.7188 98.2656 L60.4688 98.5781 Z"
      /><rect x="123" y="96" width="5" style="fill:white; stroke:none;" height="10"
      /><path style="stroke:none;" d="M124.8906 104.6875 C124.4844 104.6875 124.1562 105.0469 124.1562 105.4219 C124.1562 105.8125 124.4844 106.1562 124.8906 106.1562 C125.2969 106.1562 125.6406 105.8125 125.6406 105.4219 C125.6406 105.0469 125.2969 104.6875 124.8906 104.6875 ZM126.4688 98.5781 C126.7188 98.8906 126.875 99.2656 126.8906 99.6562 C126.8906 100.1875 126.625 100.5 126.0312 100.7656 L125.4062 101.0156 C124.6406 101.3125 124.3906 101.5469 124.3906 101.9375 C124.3906 102.1094 124.4531 102.3438 124.5781 102.8125 L124.7344 103.3438 L125.1094 103.3438 L125.0938 102.5312 C125.0938 102.0938 125.2031 101.9688 125.7812 101.7344 L126.2031 101.5625 C127.0312 101.2188 127.4531 100.6875 127.4531 99.8438 C127.4531 98.1562 125.6562 97.1875 124.5 97.0312 C124.1094 97.125 123.9062 97.2969 123.9062 97.6406 C123.9062 97.9375 124.0625 98.1562 124.7188 98.2656 L126.4688 98.5781 Z"
      /><rect x="109" y="96" width="5" style="fill:white; stroke:none;" height="10"
      /><path style="stroke:none;" d="M110.8906 104.6875 C110.4844 104.6875 110.1562 105.0469 110.1562 105.4219 C110.1562 105.8125 110.4844 106.1562 110.8906 106.1562 C111.2969 106.1562 111.6406 105.8125 111.6406 105.4219 C111.6406 105.0469 111.2969 104.6875 110.8906 104.6875 ZM112.4688 98.5781 C112.7188 98.8906 112.875 99.2656 112.8906 99.6562 C112.8906 100.1875 112.625 100.5 112.0312 100.7656 L111.4062 101.0156 C110.6406 101.3125 110.3906 101.5469 110.3906 101.9375 C110.3906 102.1094 110.4531 102.3438 110.5781 102.8125 L110.7344 103.3438 L111.1094 103.3438 L111.0938 102.5312 C111.0938 102.0938 111.2031 101.9688 111.7812 101.7344 L112.2031 101.5625 C113.0312 101.2188 113.4531 100.6875 113.4531 99.8438 C113.4531 98.1562 111.6562 97.1875 110.5 97.0312 C110.1094 97.125 109.9062 97.2969 109.9062 97.6406 C109.9062 97.9375 110.0625 98.1562 110.7188 98.2656 L112.4688 98.5781 Z"
      /><polygon style="fill:none;" points=" 145 41 93 41"
      /><rect x="134" y="30" width="22" style="clip-path:url(#clipPath17); fill:white; stroke:none;" height="22"
      /><rect x="134" y="30" width="22" style="clip-path:url(#clipPath17); fill:rgb(0,144,188); stroke:none;" height="22"
      /><rect x="134" y="30" width="22" style="fill:none; clip-path:url(#clipPath17);" height="22"
      /><rect x="134" width="22" height="22" y="30" style="fill:none;"
      /><polygon style="fill:none;" points=" 93 41 41 41"
      /><circle style="fill:white; clip-path:url(#clipPath18); stroke:none;" r="11" cx="93" cy="41"
      /><rect x="82" y="30" width="22" style="clip-path:url(#clipPath18); fill:rgb(255,212,0); stroke:none;" height="22"
      /><rect x="82" y="30" width="22" style="fill:none; clip-path:url(#clipPath18);" height="22"
      /><circle r="11" style="fill:none;" cx="93" cy="41"
      /><polygon style="fill:white; clip-path:url(#clipPath19); stroke:none;" points=" 41 30 52 41 41 52 30 41"
      /><rect x="30" y="30" width="22" style="clip-path:url(#clipPath19); fill:rgb(165,67,153); stroke:none;" height="22"
      /><rect x="30" y="30" width="22" style="fill:none; clip-path:url(#clipPath19);" height="22"
      /><polygon style="fill:none;" points=" 41 30 52 41 41 52 30 41"
      /><rect x="71" y="44" width="5" style="fill:white; stroke:none;" height="10"
      /><path style="stroke:none;" d="M72.8906 52.6875 C72.4844 52.6875 72.1562 53.0469 72.1562 53.4219 C72.1562 53.8125 72.4844 54.1562 72.8906 54.1562 C73.2969 54.1562 73.6406 53.8125 73.6406 53.4219 C73.6406 53.0469 73.2969 52.6875 72.8906 52.6875 ZM74.4688 46.5781 C74.7188 46.8906 74.875 47.2656 74.8906 47.6562 C74.8906 48.1875 74.625 48.5 74.0312 48.7656 L73.4062 49.0156 C72.6406 49.3125 72.3906 49.5469 72.3906 49.9375 C72.3906 50.1094 72.4531 50.3438 72.5781 50.8125 L72.7344 51.3438 L73.1094 51.3438 L73.0938 50.5312 C73.0938 50.0938 73.2031 49.9688 73.7812 49.7344 L74.2031 49.5625 C75.0312 49.2188 75.4531 48.6875 75.4531 47.8438 C75.4531 46.1562 73.6562 45.1875 72.5 45.0312 C72.1094 45.125 71.9062 45.2969 71.9062 45.6406 C71.9062 45.9375 72.0625 46.1562 72.7188 46.2656 L74.4688 46.5781 Z"
      /><rect x="57" y="44" width="5" style="fill:white; stroke:none;" height="10"
      /><path style="stroke:none;" d="M58.8906 52.6875 C58.4844 52.6875 58.1562 53.0469 58.1562 53.4219 C58.1562 53.8125 58.4844 54.1562 58.8906 54.1562 C59.2969 54.1562 59.6406 53.8125 59.6406 53.4219 C59.6406 53.0469 59.2969 52.6875 58.8906 52.6875 ZM60.4688 46.5781 C60.7188 46.8906 60.875 47.2656 60.8906 47.6562 C60.8906 48.1875 60.625 48.5 60.0312 48.7656 L59.4062 49.0156 C58.6406 49.3125 58.3906 49.5469 58.3906 49.9375 C58.3906 50.1094 58.4531 50.3438 58.5781 50.8125 L58.7344 51.3438 L59.1094 51.3438 L59.0938 50.5312 C59.0938 50.0938 59.2031 49.9688 59.7812 49.7344 L60.2031 49.5625 C61.0312 49.2188 61.4531 48.6875 61.4531 47.8438 C61.4531 46.1562 59.6562 45.1875 58.5 45.0312 C58.1094 45.125 57.9062 45.2969 57.9062 45.6406 C57.9062 45.9375 58.0625 46.1562 58.7188 46.2656 L60.4688 46.5781 Z"
      /><rect x="123" y="44" width="5" style="fill:white; stroke:none;" height="10"
      /><path style="stroke:none;" d="M124.8906 52.6875 C124.4844 52.6875 124.1562 53.0469 124.1562 53.4219 C124.1562 53.8125 124.4844 54.1562 124.8906 54.1562 C125.2969 54.1562 125.6406 53.8125 125.6406 53.4219 C125.6406 53.0469 125.2969 52.6875 124.8906 52.6875 ZM126.4688 46.5781 C126.7188 46.8906 126.875 47.2656 126.8906 47.6562 C126.8906 48.1875 126.625 48.5 126.0312 48.7656 L125.4062 49.0156 C124.6406 49.3125 124.3906 49.5469 124.3906 49.9375 C124.3906 50.1094 124.4531 50.3438 124.5781 50.8125 L124.7344 51.3438 L125.1094 51.3438 L125.0938 50.5312 C125.0938 50.0938 125.2031 49.9688 125.7812 49.7344 L126.2031 49.5625 C127.0312 49.2188 127.4531 48.6875 127.4531 47.8438 C127.4531 46.1562 125.6562 45.1875 124.5 45.0312 C124.1094 45.125 123.9062 45.2969 123.9062 45.6406 C123.9062 45.9375 124.0625 46.1562 124.7188 46.2656 L126.4688 46.5781 Z"
      /><rect x="109" y="44" width="5" style="fill:white; stroke:none;" height="10"
      /><path style="stroke:none;" d="M110.8906 52.6875 C110.4844 52.6875 110.1562 53.0469 110.1562 53.4219 C110.1562 53.8125 110.4844 54.1562 110.8906 54.1562 C111.2969 54.1562 111.6406 53.8125 111.6406 53.4219 C111.6406 53.0469 111.2969 52.6875 110.8906 52.6875 ZM112.4688 46.5781 C112.7188 46.8906 112.875 47.2656 112.8906 47.6562 C112.8906 48.1875 112.625 48.5 112.0312 48.7656 L111.4062 49.0156 C110.6406 49.3125 110.3906 49.5469 110.3906 49.9375 C110.3906 50.1094 110.4531 50.3438 110.5781 50.8125 L110.7344 51.3438 L111.1094 51.3438 L111.0938 50.5312 C111.0938 50.0938 111.2031 49.9688 111.7812 49.7344 L112.2031 49.5625 C113.0312 49.2188 113.4531 48.6875 113.4531 47.8438 C113.4531 46.1562 111.6562 45.1875 110.5 45.0312 C110.1094 45.125 109.9062 45.2969 109.9062 45.6406 C109.9062 45.9375 110.0625 46.1562 110.7188 46.2656 L112.4688 46.5781 Z"
      /><rect x="179" y="78" width="5" style="fill:white; stroke:none;" height="10"
      /><path style="stroke:none;" d="M180.8906 86.6875 C180.4844 86.6875 180.1562 87.0469 180.1562 87.4219 C180.1562 87.8125 180.4844 88.1562 180.8906 88.1562 C181.2969 88.1562 181.6406 87.8125 181.6406 87.4219 C181.6406 87.0469 181.2969 86.6875 180.8906 86.6875 ZM182.4688 80.5781 C182.7188 80.8906 182.875 81.2656 182.8906 81.6562 C182.8906 82.1875 182.625 82.5 182.0312 82.7656 L181.4062 83.0156 C180.6406 83.3125 180.3906 83.5469 180.3906 83.9375 C180.3906 84.1094 180.4531 84.3438 180.5781 84.8125 L180.7344 85.3438 L181.1094 85.3438 L181.0938 84.5312 C181.0938 84.0938 181.2031 83.9688 181.7812 83.7344 L182.2031 83.5625 C183.0312 83.2188 183.4531 82.6875 183.4531 81.8438 C183.4531 80.1562 181.6562 79.1875 180.5 79.0312 C180.1094 79.125 179.9062 79.2969 179.9062 79.6406 C179.9062 79.9375 180.0625 80.1562 180.7188 80.2656 L182.4688 80.5781 Z"
      /><rect x="164" y="86" width="5" style="fill:white; stroke:none;" height="10"
      /><path style="stroke:none;" d="M165.8906 94.6875 C165.4844 94.6875 165.1562 95.0469 165.1562 95.4219 C165.1562 95.8125 165.4844 96.1562 165.8906 96.1562 C166.2969 96.1562 166.6406 95.8125 166.6406 95.4219 C166.6406 95.0469 166.2969 94.6875 165.8906 94.6875 ZM167.4688 88.5781 C167.7188 88.8906 167.875 89.2656 167.8906 89.6562 C167.8906 90.1875 167.625 90.5 167.0312 90.7656 L166.4062 91.0156 C165.6406 91.3125 165.3906 91.5469 165.3906 91.9375 C165.3906 92.1094 165.4531 92.3438 165.5781 92.8125 L165.7344 93.3438 L166.1094 93.3438 L166.0938 92.5312 C166.0938 92.0938 166.2031 91.9688 166.7812 91.7344 L167.2031 91.5625 C168.0312 91.2188 168.4531 90.6875 168.4531 89.8438 C168.4531 88.1562 166.6562 87.1875 165.5 87.0312 C165.1094 87.125 164.9062 87.2969 164.9062 87.6406 C164.9062 87.9375 165.0625 88.1562 165.7188 88.2656 L167.4688 88.5781 Z"
      /><rect x="172" y="60" width="5" style="fill:white; stroke:none;" height="10"
      /><path style="stroke:none;" d="M173.8906 68.6875 C173.4844 68.6875 173.1562 69.0469 173.1562 69.4219 C173.1562 69.8125 173.4844 70.1562 173.8906 70.1562 C174.2969 70.1562 174.6406 69.8125 174.6406 69.4219 C174.6406 69.0469 174.2969 68.6875 173.8906 68.6875 ZM175.4688 62.5781 C175.7188 62.8906 175.875 63.2656 175.8906 63.6562 C175.8906 64.1875 175.625 64.5 175.0312 64.7656 L174.4062 65.0156 C173.6406 65.3125 173.3906 65.5469 173.3906 65.9375 C173.3906 66.1094 173.4531 66.3438 173.5781 66.8125 L173.7344 67.3438 L174.1094 67.3438 L174.0938 66.5312 C174.0938 66.0938 174.2031 65.9688 174.7812 65.7344 L175.2031 65.5625 C176.0312 65.2188 176.4531 64.6875 176.4531 63.8438 C176.4531 62.1562 174.6562 61.1875 173.5 61.0312 C173.1094 61.125 172.9062 61.2969 172.9062 61.6406 C172.9062 61.9375 173.0625 62.1562 173.7188 62.2656 L175.4688 62.5781 Z"
      /><rect x="157" y="52" width="5" style="fill:white; stroke:none;" height="10"
      /><path style="stroke:none;" d="M158.8906 60.6875 C158.4844 60.6875 158.1562 61.0469 158.1562 61.4219 C158.1562 61.8125 158.4844 62.1562 158.8906 62.1562 C159.2969 62.1562 159.6406 61.8125 159.6406 61.4219 C159.6406 61.0469 159.2969 60.6875 158.8906 60.6875 ZM160.4688 54.5781 C160.7188 54.8906 160.875 55.2656 160.8906 55.6562 C160.8906 56.1875 160.625 56.5 160.0312 56.7656 L159.4062 57.0156 C158.6406 57.3125 158.3906 57.5469 158.3906 57.9375 C158.3906 58.1094 158.4531 58.3438 158.5781 58.8125 L158.7344 59.3438 L159.1094 59.3438 L159.0938 58.5312 C159.0938 58.0938 159.2031 57.9688 159.7812 57.7344 L160.2031 57.5625 C161.0312 57.2188 161.4531 56.6875 161.4531 55.8438 C161.4531 54.1562 159.6562 53.1875 158.5 53.0312 C158.1094 53.125 157.9062 53.2969 157.9062 53.6406 C157.9062 53.9375 158.0625 54.1562 158.7188 54.2656 L160.4688 54.5781 Z"
      /><rect x="243" y="174" width="5" style="fill:white; stroke:none;" height="10"
      /><path style="stroke:none;" d="M244.8906 182.6875 C244.4844 182.6875 244.1562 183.0469 244.1562 183.4219 C244.1562 183.8125 244.4844 184.1562 244.8906 184.1562 C245.2969 184.1562 245.6406 183.8125 245.6406 183.4219 C245.6406 183.0469 245.2969 182.6875 244.8906 182.6875 ZM246.4688 176.5781 C246.7188 176.8906 246.875 177.2656 246.8906 177.6562 C246.8906 178.1875 246.625 178.5 246.0312 178.7656 L245.4062 179.0156 C244.6406 179.3125 244.3906 179.5469 244.3906 179.9375 C244.3906 180.1094 244.4531 180.3438 244.5781 180.8125 L244.7344 181.3438 L245.1094 181.3438 L245.0938 180.5312 C245.0938 180.0938 245.2031 179.9688 245.7812 179.7344 L246.2031 179.5625 C247.0312 179.2188 247.4531 178.6875 247.4531 177.8438 C247.4531 176.1562 245.6562 175.1875 244.5 175.0312 C244.1094 175.125 243.9062 175.2969 243.9062 175.6406 C243.9062 175.9375 244.0625 176.1562 244.7188 176.2656 L246.4688 176.5781 Z"
      /><rect x="211" y="230" width="5" style="fill:white; stroke:none;" height="10"
      /><path style="stroke:none;" d="M212.8906 238.6875 C212.4844 238.6875 212.1562 239.0469 212.1562 239.4219 C212.1562 239.8125 212.4844 240.1562 212.8906 240.1562 C213.2969 240.1562 213.6406 239.8125 213.6406 239.4219 C213.6406 239.0469 213.2969 238.6875 212.8906 238.6875 ZM214.4688 232.5781 C214.7188 232.8906 214.875 233.2656 214.8906 233.6562 C214.8906 234.1875 214.625 234.5 214.0312 234.7656 L213.4062 235.0156 C212.6406 235.3125 212.3906 235.5469 212.3906 235.9375 C212.3906 236.1094 212.4531 236.3438 212.5781 236.8125 L212.7344 237.3438 L213.1094 237.3438 L213.0938 236.5312 C213.0938 236.0938 213.2031 235.9688 213.7812 235.7344 L214.2031 235.5625 C215.0312 235.2188 215.4531 234.6875 215.4531 233.8438 C215.4531 232.1562 213.6562 231.1875 212.5 231.0312 C212.1094 231.125 211.9062 231.2969 211.9062 231.6406 C211.9062 231.9375 212.0625 232.1562 212.7188 232.2656 L214.4688 232.5781 Z"
      /><rect x="229" y="139" width="5" style="fill:white; stroke:none;" height="10"
      /><path style="stroke:none;" d="M230.8906 147.6875 C230.4844 147.6875 230.1562 148.0469 230.1562 148.4219 C230.1562 148.8125 230.4844 149.1562 230.8906 149.1562 C231.2969 149.1562 231.6406 148.8125 231.6406 148.4219 C231.6406 148.0469 231.2969 147.6875 230.8906 147.6875 ZM232.4688 141.5781 C232.7188 141.8906 232.875 142.2656 232.8906 142.6562 C232.8906 143.1875 232.625 143.5 232.0312 143.7656 L231.4062 144.0156 C230.6406 144.3125 230.3906 144.5469 230.3906 144.9375 C230.3906 145.1094 230.4531 145.3438 230.5781 145.8125 L230.7344 146.3438 L231.1094 146.3438 L231.0938 145.5312 C231.0938 145.0938 231.2031 144.9688 231.7812 144.7344 L232.2031 144.5625 C233.0312 144.2188 233.4531 143.6875 233.4531 142.8438 C233.4531 141.1562 231.6562 140.1875 230.5 140.0312 C230.1094 140.125 229.9062 140.2969 229.9062 140.6406 C229.9062 140.9375 230.0625 141.1562 230.7188 141.2656 L232.4688 141.5781 Z"
      /><rect x="197" y="83" width="5" style="fill:white; stroke:none;" height="10"
      /><path style="stroke:none;" d="M198.8906 91.6875 C198.4844 91.6875 198.1562 92.0469 198.1562 92.4219 C198.1562 92.8125 198.4844 93.1562 198.8906 93.1562 C199.2969 93.1562 199.6406 92.8125 199.6406 92.4219 C199.6406 92.0469 199.2969 91.6875 198.8906 91.6875 ZM200.4688 85.5781 C200.7188 85.8906 200.875 86.2656 200.8906 86.6562 C200.8906 87.1875 200.625 87.5 200.0312 87.7656 L199.4062 88.0156 C198.6406 88.3125 198.3906 88.5469 198.3906 88.9375 C198.3906 89.1094 198.4531 89.3438 198.5781 89.8125 L198.7344 90.3438 L199.1094 90.3438 L199.0938 89.5312 C199.0938 89.0938 199.2031 88.9688 199.7812 88.7344 L200.2031 88.5625 C201.0312 88.2188 201.4531 87.6875 201.4531 86.8438 C201.4531 85.1562 199.6562 84.1875 198.5 84.0312 C198.1094 84.125 197.9062 84.2969 197.9062 84.6406 C197.9062 84.9375 198.0625 85.1562 198.7188 85.2656 L200.4688 85.5781 Z"
      /><rect x="279" y="161" width="5" style="fill:white; stroke:none;" height="10"
      /><path style="stroke:none;" d="M280.8906 169.6875 C280.4844 169.6875 280.1562 170.0469 280.1562 170.4219 C280.1562 170.8125 280.4844 171.1562 280.8906 171.1562 C281.2969 171.1562 281.6406 170.8125 281.6406 170.4219 C281.6406 170.0469 281.2969 169.6875 280.8906 169.6875 ZM282.4688 163.5781 C282.7188 163.8906 282.875 164.2656 282.8906 164.6562 C282.8906 165.1875 282.625 165.5 282.0312 165.7656 L281.4062 166.0156 C280.6406 166.3125 280.3906 166.5469 280.3906 166.9375 C280.3906 167.1094 280.4531 167.3438 280.5781 167.8125 L280.7344 168.3438 L281.1094 168.3438 L281.0938 167.5312 C281.0938 167.0938 281.2031 166.9688 281.7812 166.7344 L282.2031 166.5625 C283.0312 166.2188 283.4531 165.6875 283.4531 164.8438 C283.4531 163.1562 281.6562 162.1875 280.5 162.0312 C280.1094 162.125 279.9062 162.2969 279.9062 162.6406 C279.9062 162.9375 280.0625 163.1562 280.7188 163.2656 L282.4688 163.5781 Z"
      /><rect x="265" y="161" width="5" style="fill:white; stroke:none;" height="10"
      /><path style="stroke:none;" d="M266.8906 169.6875 C266.4844 169.6875 266.1562 170.0469 266.1562 170.4219 C266.1562 170.8125 266.4844 171.1562 266.8906 171.1562 C267.2969 171.1562 267.6406 170.8125 267.6406 170.4219 C267.6406 170.0469 267.2969 169.6875 266.8906 169.6875 ZM268.4688 163.5781 C268.7188 163.8906 268.875 164.2656 268.8906 164.6562 C268.8906 165.1875 268.625 165.5 268.0312 165.7656 L267.4062 166.0156 C266.6406 166.3125 266.3906 166.5469 266.3906 166.9375 C266.3906 167.1094 266.4531 167.3438 266.5781 167.8125 L266.7344 168.3438 L267.1094 168.3438 L267.0938 167.5312 C267.0938 167.0938 267.2031 166.9688 267.7812 166.7344 L268.2031 166.5625 C269.0312 166.2188 269.4531 165.6875 269.4531 164.8438 C269.4531 163.1562 267.6562 162.1875 266.5 162.0312 C266.1094 162.125 265.9062 162.2969 265.9062 162.6406 C265.9062 162.9375 266.0625 163.1562 266.7188 163.2656 L268.4688 163.5781 Z"
      /><polygon style="fill:white; clip-path:url(#clipPath20); stroke:none;" points=" 353 117 342 95 364 95"
      /><rect x="342" y="95" width="22" style="clip-path:url(#clipPath20); fill:rgb(237,28,36); stroke:none;" height="22"
      /><rect x="342" y="95" width="22" style="fill:none; clip-path:url(#clipPath20);" height="22"
      /><polygon style="fill:none;" points=" 353 117 342 95 364 95"
      /><rect x="331" y="161" width="5" style="fill:white; stroke:none;" height="10"
      /><path style="stroke:none;" d="M332.8906 169.6875 C332.4844 169.6875 332.1562 170.0469 332.1562 170.4219 C332.1562 170.8125 332.4844 171.1562 332.8906 171.1562 C333.2969 171.1562 333.6406 170.8125 333.6406 170.4219 C333.6406 170.0469 333.2969 169.6875 332.8906 169.6875 ZM334.4688 163.5781 C334.7188 163.8906 334.875 164.2656 334.8906 164.6562 C334.8906 165.1875 334.625 165.5 334.0312 165.7656 L333.4062 166.0156 C332.6406 166.3125 332.3906 166.5469 332.3906 166.9375 C332.3906 167.1094 332.4531 167.3438 332.5781 167.8125 L332.7344 168.3438 L333.1094 168.3438 L333.0938 167.5312 C333.0938 167.0938 333.2031 166.9688 333.7812 166.7344 L334.2031 166.5625 C335.0312 166.2188 335.4531 165.6875 335.4531 164.8438 C335.4531 163.1562 333.6562 162.1875 332.5 162.0312 C332.1094 162.125 331.9062 162.2969 331.9062 162.6406 C331.9062 162.9375 332.0625 163.1562 332.7188 163.2656 L334.4688 163.5781 Z"
      /><rect x="317" y="161" width="5" style="fill:white; stroke:none;" height="10"
      /><path style="stroke:none;" d="M318.8906 169.6875 C318.4844 169.6875 318.1562 170.0469 318.1562 170.4219 C318.1562 170.8125 318.4844 171.1562 318.8906 171.1562 C319.2969 171.1562 319.6406 170.8125 319.6406 170.4219 C319.6406 170.0469 319.2969 169.6875 318.8906 169.6875 ZM320.4688 163.5781 C320.7188 163.8906 320.875 164.2656 320.8906 164.6562 C320.8906 165.1875 320.625 165.5 320.0312 165.7656 L319.4062 166.0156 C318.6406 166.3125 318.3906 166.5469 318.3906 166.9375 C318.3906 167.1094 318.4531 167.3438 318.5781 167.8125 L318.7344 168.3438 L319.1094 168.3438 L319.0938 167.5312 C319.0938 167.0938 319.2031 166.9688 319.7812 166.7344 L320.2031 166.5625 C321.0312 166.2188 321.4531 165.6875 321.4531 164.8438 C321.4531 163.1562 319.6562 162.1875 318.5 162.0312 C318.1094 162.125 317.9062 162.2969 317.9062 162.6406 C317.9062 162.9375 318.0625 163.1562 318.7188 163.2656 L320.4688 163.5781 Z"
      /><rect x="342" y="134" width="5" style="fill:white; stroke:none;" height="10"
      /><path style="stroke:none;" d="M343.8906 142.6875 C343.4844 142.6875 343.1562 143.0469 343.1562 143.4219 C343.1562 143.8125 343.4844 144.1562 343.8906 144.1562 C344.2969 144.1562 344.6406 143.8125 344.6406 143.4219 C344.6406 143.0469 344.2969 142.6875 343.8906 142.6875 ZM345.4688 136.5781 C345.7188 136.8906 345.875 137.2656 345.8906 137.6562 C345.8906 138.1875 345.625 138.5 345.0312 138.7656 L344.4062 139.0156 C343.6406 139.3125 343.3906 139.5469 343.3906 139.9375 C343.3906 140.1094 343.4531 140.3438 343.5781 140.8125 L343.7344 141.3438 L344.1094 141.3438 L344.0938 140.5312 C344.0938 140.0938 344.2031 139.9688 344.7812 139.7344 L345.2031 139.5625 C346.0312 139.2188 346.4531 138.6875 346.4531 137.8438 C346.4531 136.1562 344.6562 135.1875 343.5 135.0312 C343.1094 135.125 342.9062 135.2969 342.9062 135.6406 C342.9062 135.9375 343.0625 136.1562 343.7188 136.2656 L345.4688 136.5781 Z"
      /><rect x="342" y="120" width="5" style="fill:white; stroke:none;" height="10"
      /><path style="stroke:none;" d="M343.8906 128.6875 C343.4844 128.6875 343.1562 129.0469 343.1562 129.4219 C343.1562 129.8125 343.4844 130.1562 343.8906 130.1562 C344.2969 130.1562 344.6406 129.8125 344.6406 129.4219 C344.6406 129.0469 344.2969 128.6875 343.8906 128.6875 ZM345.4688 122.5781 C345.7188 122.8906 345.875 123.2656 345.8906 123.6562 C345.8906 124.1875 345.625 124.5 345.0312 124.7656 L344.4062 125.0156 C343.6406 125.3125 343.3906 125.5469 343.3906 125.9375 C343.3906 126.1094 343.4531 126.3438 343.5781 126.8125 L343.7344 127.3438 L344.1094 127.3438 L344.0938 126.5312 C344.0938 126.0938 344.2031 125.9688 344.7812 125.7344 L345.2031 125.5625 C346.0312 125.2188 346.4531 124.6875 346.4531 123.8438 C346.4531 122.1562 344.6562 121.1875 343.5 121.0312 C343.1094 121.125 342.9062 121.2969 342.9062 121.6406 C342.9062 121.9375 343.0625 122.1562 343.7188 122.2656 L345.4688 122.5781 Z"
      /><rect x="369" y="161" width="5" style="fill:white; stroke:none;" height="10"
      /><path style="stroke:none;" d="M370.8906 169.6875 C370.4844 169.6875 370.1562 170.0469 370.1562 170.4219 C370.1562 170.8125 370.4844 171.1562 370.8906 171.1562 C371.2969 171.1562 371.6406 170.8125 371.6406 170.4219 C371.6406 170.0469 371.2969 169.6875 370.8906 169.6875 ZM372.4688 163.5781 C372.7188 163.8906 372.875 164.2656 372.8906 164.6562 C372.8906 165.1875 372.625 165.5 372.0312 165.7656 L371.4062 166.0156 C370.6406 166.3125 370.3906 166.5469 370.3906 166.9375 C370.3906 167.1094 370.4531 167.3438 370.5781 167.8125 L370.7344 168.3438 L371.1094 168.3438 L371.0938 167.5312 C371.0938 167.0938 371.2031 166.9688 371.7812 166.7344 L372.2031 166.5625 C373.0312 166.2188 373.4531 165.6875 373.4531 164.8438 C373.4531 163.1562 371.6562 162.1875 370.5 162.0312 C370.1094 162.125 369.9062 162.2969 369.9062 162.6406 C369.9062 162.9375 370.0625 163.1562 370.7188 163.2656 L372.4688 163.5781 Z"
    /></g
  ></g
></svg
>
