<?xml version="1.0"?>
<!DOCTYPE svg PUBLIC '-//W3C//DTD SVG 1.0//EN'
          'http://www.w3.org/TR/2001/REC-SVG-20010904/DTD/svg10.dtd'>
<svg xmlns:xlink="http://www.w3.org/1999/xlink" style="fill-opacity:1; color-rendering:auto; color-interpolation:auto; text-rendering:auto; stroke:black; stroke-linecap:square; stroke-miterlimit:10; shape-rendering:auto; stroke-opacity:1; fill:black; stroke-dasharray:none; font-weight:normal; stroke-width:1; font-family:'Dialog'; font-style:normal; stroke-linejoin:miter; font-size:12px; stroke-dashoffset:0; image-rendering:auto;" viewBox="0 0 342 134" xmlns="http://www.w3.org/2000/svg"
><!--Generated by the Batik Graphics2D SVG Generator--><defs id="genericDefs"
  /><g
  ><defs id="defs1"
    ><clipPath clipPathUnits="userSpaceOnUse" id="clipPath1"
      ><path style="fill-rule:evenodd;" d="M249 56 L251 63 L259 63 L252 68 L255 75 L249 71 L242 75 L245 68 L238 63 L246 63 L249 56 Z"
      /></clipPath
      ><clipPath clipPathUnits="userSpaceOnUse" id="clipPath2"
      ><path style="fill-rule:evenodd;" d="M197 56 L199 63 L207 63 L200 68 L203 75 L197 71 L190 75 L193 68 L186 63 L194 63 L197 56 Z"
      /></clipPath
      ><clipPath clipPathUnits="userSpaceOnUse" id="clipPath3"
      ><path style="fill-rule:evenodd;" d="M145 56 L147 63 L155 63 L148 68 L151 75 L145 71 L138 75 L141 68 L134 63 L142 63 L145 56 Z"
      /></clipPath
      ><clipPath clipPathUnits="userSpaceOnUse" id="clipPath4"
      ><path style="fill-rule:evenodd;" d="M93 82 L95 89 L103 89 L96 94 L99 101 L93 97 L86 101 L89 94 L82 89 L90 89 L93 82 Z"
      /></clipPath
      ><clipPath clipPathUnits="userSpaceOnUse" id="clipPath5"
      ><path style="fill-rule:evenodd;" d="M93 30 L95 37 L103 37 L96 42 L99 49 L93 45 L86 49 L89 42 L82 37 L90 37 L93 30 Z"
      /></clipPath
      ><clipPath clipPathUnits="userSpaceOnUse" id="clipPath6"
      ><path style="fill-rule:evenodd;" d="M41 30 L43 37 L51 37 L44 42 L47 49 L41 45 L34 49 L37 42 L30 37 L38 37 L41 30 Z"
      /></clipPath
    ></defs
    ><g style="fill:white; text-rendering:optimizeSpeed; stroke:white;"
    ><rect x="0" width="342" height="134" y="0" style="stroke:none;"
      /><polygon style="fill:none; stroke:black;" points=" 301 67 249 67"
      /><path d="M301 56 C295.5 61.5 306.5 72.5 301 78" style="fill:none; stroke:black;"
      /><polygon style="fill:none; stroke:black;" points=" 249 67 197 67"
      /><polygon style="clip-path:url(#clipPath1); stroke:none;" points=" 249 56 251 63 259 63 252 68 255 75 249 71 242 75 245 68 238 63 246 63 249 56"
      /><rect x="238" y="56" width="22" style="clip-path:url(#clipPath1); fill:rgb(244,121,32); stroke:none;" height="22"
      /><rect x="238" y="56" width="22" style="clip-path:url(#clipPath1); fill:none; stroke:black;" height="22"
      /><polygon style="fill:none; stroke:black;" points=" 249 56 251 63 259 63 252 68 255 75 249 71 242 75 245 68 238 63 246 63 249 56"
      /><polygon style="fill:none; stroke:black;" points=" 197 67 145 67"
      /><polygon style="clip-path:url(#clipPath2); stroke:none;" points=" 197 56 199 63 207 63 200 68 203 75 197 71 190 75 193 68 186 63 194 63 197 56"
      /><rect x="186" y="56" width="22" style="clip-path:url(#clipPath2); fill:rgb(244,121,32); stroke:none;" height="22"
      /><rect x="186" y="56" width="22" style="clip-path:url(#clipPath2); fill:none; stroke:black;" height="22"
      /><polygon style="fill:none; stroke:black;" points=" 197 56 199 63 207 63 200 68 203 75 197 71 190 75 193 68 186 63 194 63 197 56"
      /><polygon style="fill:none; stroke:black;" points=" 145 67 93 93"
      /><polygon style="fill:none; stroke:black;" points=" 145 67 93 41"
      /><polygon style="clip-path:url(#clipPath3); stroke:none;" points=" 145 56 147 63 155 63 148 68 151 75 145 71 138 75 141 68 134 63 142 63 145 56"
      /><rect x="134" y="56" width="22" style="clip-path:url(#clipPath3); fill:rgb(244,121,32); stroke:none;" height="22"
      /><rect x="134" y="56" width="22" style="clip-path:url(#clipPath3); fill:none; stroke:black;" height="22"
      /><polygon style="fill:none; stroke:black;" points=" 145 56 147 63 155 63 148 68 151 75 145 71 138 75 141 68 134 63 142 63 145 56"
      /><polygon style="clip-path:url(#clipPath4); stroke:none;" points=" 93 82 95 89 103 89 96 94 99 101 93 97 86 101 89 94 82 89 90 89 93 82"
      /><rect x="82" y="82" width="22" style="clip-path:url(#clipPath4); fill:rgb(0,166,81); stroke:none;" height="22"
      /><rect x="82" y="82" width="22" style="clip-path:url(#clipPath4); fill:none; stroke:black;" height="22"
      /><polygon style="fill:none; stroke:black;" points=" 93 82 95 89 103 89 96 94 99 101 93 97 86 101 89 94 82 89 90 89 93 82"
    /></g
    ><g style="text-rendering:optimizeSpeed; font-size:10px; font-family:'SansSerif';"
    ><path style="stroke:none;" d="M92.0625 97 L92.9844 97 L92.9844 92.3125 L94.125 92.3125 L94.125 91.5625 L92.9844 91.5625 L92.9844 90.7031 C92.9844 90.0156 93.2344 89.6406 93.75 89.6406 C93.9375 89.6406 94.1562 89.6875 94.3594 89.7812 L94.5625 89.0938 C94.3125 88.9844 93.9844 88.9062 93.6562 88.9062 C92.5625 88.9062 92.0625 89.5938 92.0625 90.7031 L92.0625 91.5625 L91.3281 91.625 L91.3281 92.3125 L92.0625 92.3125 L92.0625 97 Z"
      /><polygon style="fill:none;" points=" 93 41 41 41"
    /></g
    ><g style="fill:white; text-rendering:optimizeSpeed; stroke:white;"
    ><polygon style="stroke:none; clip-path:url(#clipPath5);" points=" 93 30 95 37 103 37 96 42 99 49 93 45 86 49 89 42 82 37 90 37 93 30"
      /><rect x="82" y="30" width="22" style="clip-path:url(#clipPath5); fill:rgb(244,121,32); stroke:none;" height="22"
      /><rect x="82" y="30" width="22" style="clip-path:url(#clipPath5); fill:none; stroke:black;" height="22"
      /><polygon style="fill:none; stroke:black;" points=" 93 30 95 37 103 37 96 42 99 49 93 45 86 49 89 42 82 37 90 37 93 30"
      /><polygon style="clip-path:url(#clipPath6); stroke:none;" points=" 41 30 43 37 51 37 44 42 47 49 41 45 34 49 37 42 30 37 38 37 41 30"
      /><rect x="30" y="30" width="22" style="clip-path:url(#clipPath6); fill:rgb(244,121,32); stroke:none;" height="22"
      /><rect x="30" y="30" width="22" style="clip-path:url(#clipPath6); fill:none; stroke:black;" height="22"
      /><polygon style="fill:none; stroke:black;" points=" 41 30 43 37 51 37 44 42 47 49 41 45 34 49 37 42 30 37 38 37 41 30"
      /><rect x="70" width="7" height="9" y="44" style="stroke:none;"
      /><path d="M71 49.5156 L73.9531 45.2656 L73.9531 49.5156 L71 49.5156 ZM76.2812 49.5156 L74.8594 49.5156 L74.8594 44.125 L74.2344 44.125 L70.3438 49.6406 L70.3438 50.1875 L73.9531 50.1875 L73.9531 53 L74.8594 53 L74.8594 50.1875 L76.2812 50.1875 L76.2812 49.5156 Z" style="fill:black; stroke:none;"
      /><rect x="57" width="6" height="13" y="42" style="stroke:none;"
      /><path d="M59.0938 48.2031 C59.0938 46.6562 59.75 45.8125 60.7969 45.8125 C61.7188 45.8125 62.2656 46.4531 62.2656 47.5156 C62.2656 48.7188 61.5 49.4375 60.1875 49.7031 L60.2969 50.3125 C62.2188 50.2344 62.9375 51.2188 62.9375 52.4375 C62.9375 53.625 62.2344 54.4219 60.9531 54.4219 C60.25 54.4219 59.6562 54.1562 59.0938 53.7188 L59.0938 48.2031 ZM58.2031 54.9062 L58.1094 57.375 L58.2656 57.4844 L59.1562 57.2656 L59.0156 54.0938 C59.5469 54.8438 60.3594 55.1719 61.1719 55.1719 C62.5625 55.1719 63.8594 54.2188 63.8594 52.4844 C63.8594 50.9531 62.875 50.1094 61.125 50 C62.5625 49.6094 63.1875 48.4531 63.1875 47.4844 C63.1875 46.0938 62.1562 45.3125 60.9062 45.3125 C59.2969 45.3125 58.2188 46.5469 58.2188 48.5156 L58.2031 54.9062 Z" style="fill:black; stroke:none;"
      /><rect x="127" width="6" height="10" y="78" style="stroke:none;"
      /><path d="M129.2344 79.6562 C129.5156 79.5938 129.7656 79.5625 130.0156 79.5625 C131.0625 79.5625 131.6719 80.1719 131.6719 81.2656 C131.6719 82.4375 130.9062 83.1094 129.7031 83.1094 L129.1875 83.1094 L129.1875 83.6406 L129.7969 83.6406 C131.2188 83.6406 131.9062 84.4219 131.9062 85.6406 C131.9062 86.8438 131.1719 87.6875 129.875 87.6875 C129.6094 87.6875 129.3125 87.6562 129.0156 87.5625 L128.7812 86.8125 C128.625 86.2812 128.5 86.0469 128.1406 86.0469 C127.8906 86.0469 127.7031 86.1719 127.5781 86.4219 C127.8438 87.6406 128.7812 88.1719 130.0312 88.1719 C131.7188 88.1719 132.875 87.125 132.875 85.7031 C132.875 84.5 132.2031 83.625 130.7969 83.375 C131.9531 83.0156 132.6094 82.2031 132.6094 81.2031 C132.6094 79.9219 131.6719 79.0781 130.1875 79.0781 C129.0469 79.0781 128.0625 79.5938 127.7969 80.6875 C127.9062 81 128.1094 81.1094 128.3594 81.1094 C128.7344 81.1094 128.8906 80.8906 129 80.4062 L129.2344 79.6562 Z" style="fill:black; stroke:none;"
      /><rect x="110" width="8" height="8" y="87" style="stroke:none;"
      /><path d="M114.9844 92.7031 C114.9375 93.8906 114.1562 94.6562 113.3125 94.6562 C112.2656 94.6562 111.5 93.6875 111.5 91.7188 C111.5 90.2812 112.1562 89.1562 113.3438 89.1562 C114.1406 89.1562 114.7812 89.6875 115.0938 90.6406 L114.9844 92.7031 ZM116.9062 94.2812 C116.7344 94.375 116.5469 94.4219 116.3438 94.4219 C115.9531 94.4219 115.75 94.2188 115.75 93.4219 C115.75 92.4844 115.9688 90.5312 116.1875 88.8281 L116.0312 88.7188 L115.2344 88.9219 L115.1406 89.7969 C114.7812 89.0312 114.1562 88.6562 113.3906 88.6562 C112.0469 88.6562 110.5625 89.8438 110.5625 91.9531 C110.5625 94.0938 111.7188 95.1719 113.1406 95.1719 C114.0156 95.1719 114.6875 94.8125 115.0938 93.9844 C115.2031 94.8594 115.5156 95.1719 116.0156 95.1719 C116.4688 95.1719 116.7969 94.9062 117.0156 94.5625 L116.9062 94.2812 Z" style="fill:black; stroke:none;"
      /><rect x="119" width="7" height="9" y="60" style="stroke:none;"
      /><path d="M120 65.5156 L122.9531 61.2656 L122.9531 65.5156 L120 65.5156 ZM125.2812 65.5156 L123.8594 65.5156 L123.8594 60.125 L123.2344 60.125 L119.3438 65.6406 L119.3438 66.1875 L122.9531 66.1875 L122.9531 69 L123.8594 69 L123.8594 66.1875 L125.2812 66.1875 L125.2812 65.5156 Z" style="fill:black; stroke:none;"
      /><rect x="104" width="6" height="13" y="50" style="stroke:none;"
      /><path d="M106.0938 56.2031 C106.0938 54.6562 106.75 53.8125 107.7969 53.8125 C108.7188 53.8125 109.2656 54.4531 109.2656 55.5156 C109.2656 56.7188 108.5 57.4375 107.1875 57.7031 L107.2969 58.3125 C109.2188 58.2344 109.9375 59.2188 109.9375 60.4375 C109.9375 61.625 109.2344 62.4219 107.9531 62.4219 C107.25 62.4219 106.6562 62.1562 106.0938 61.7188 L106.0938 56.2031 ZM105.2031 62.9062 L105.1094 65.375 L105.2656 65.4844 L106.1562 65.2656 L106.0156 62.0938 C106.5469 62.8438 107.3594 63.1719 108.1719 63.1719 C109.5625 63.1719 110.8594 62.2188 110.8594 60.4844 C110.8594 58.9531 109.875 58.1094 108.125 58 C109.5625 57.6094 110.1875 56.4531 110.1875 55.4844 C110.1875 54.0938 109.1562 53.3125 107.9062 53.3125 C106.2969 53.3125 105.2188 54.5469 105.2188 56.5156 L105.2031 62.9062 Z" style="fill:black; stroke:none;"
      /><rect x="174" width="7" height="9" y="70" style="stroke:none;"
      /><path d="M175 75.5156 L177.9531 71.2656 L177.9531 75.5156 L175 75.5156 ZM180.2812 75.5156 L178.8594 75.5156 L178.8594 70.125 L178.2344 70.125 L174.3438 75.6406 L174.3438 76.1875 L177.9531 76.1875 L177.9531 79 L178.8594 79 L178.8594 76.1875 L180.2812 76.1875 L180.2812 75.5156 Z" style="fill:black; stroke:none;"
      /><rect x="161" width="6" height="13" y="68" style="stroke:none;"
      /><path d="M163.0938 74.2031 C163.0938 72.6562 163.75 71.8125 164.7969 71.8125 C165.7188 71.8125 166.2656 72.4531 166.2656 73.5156 C166.2656 74.7188 165.5 75.4375 164.1875 75.7031 L164.2969 76.3125 C166.2188 76.2344 166.9375 77.2188 166.9375 78.4375 C166.9375 79.625 166.2344 80.4219 164.9531 80.4219 C164.25 80.4219 163.6562 80.1562 163.0938 79.7188 L163.0938 74.2031 ZM162.2031 80.9062 L162.1094 83.375 L162.2656 83.4844 L163.1562 83.2656 L163.0156 80.0938 C163.5469 80.8438 164.3594 81.1719 165.1719 81.1719 C166.5625 81.1719 167.8594 80.2188 167.8594 78.4844 C167.8594 76.9531 166.875 76.1094 165.125 76 C166.5625 75.6094 167.1875 74.4531 167.1875 73.4844 C167.1875 72.0938 166.1562 71.3125 164.9062 71.3125 C163.2969 71.3125 162.2188 72.5469 162.2188 74.5156 L162.2031 80.9062 Z" style="fill:black; stroke:none;"
      /><rect x="226" width="7" height="9" y="70" style="stroke:none;"
      /><path d="M227 75.5156 L229.9531 71.2656 L229.9531 75.5156 L227 75.5156 ZM232.2812 75.5156 L230.8594 75.5156 L230.8594 70.125 L230.2344 70.125 L226.3438 75.6406 L226.3438 76.1875 L229.9531 76.1875 L229.9531 79 L230.8594 79 L230.8594 76.1875 L232.2812 76.1875 L232.2812 75.5156 Z" style="fill:black; stroke:none;"
      /><rect x="213" width="6" height="13" y="68" style="stroke:none;"
      /><path d="M215.0938 74.2031 C215.0938 72.6562 215.75 71.8125 216.7969 71.8125 C217.7188 71.8125 218.2656 72.4531 218.2656 73.5156 C218.2656 74.7188 217.5 75.4375 216.1875 75.7031 L216.2969 76.3125 C218.2188 76.2344 218.9375 77.2188 218.9375 78.4375 C218.9375 79.625 218.2344 80.4219 216.9531 80.4219 C216.25 80.4219 215.6562 80.1562 215.0938 79.7188 L215.0938 74.2031 ZM214.2031 80.9062 L214.1094 83.375 L214.2656 83.4844 L215.1562 83.2656 L215.0156 80.0938 C215.5469 80.8438 216.3594 81.1719 217.1719 81.1719 C218.5625 81.1719 219.8594 80.2188 219.8594 78.4844 C219.8594 76.9531 218.875 76.1094 217.125 76 C218.5625 75.6094 219.1875 74.4531 219.1875 73.4844 C219.1875 72.0938 218.1562 71.3125 216.9062 71.3125 C215.2969 71.3125 214.2188 72.5469 214.2188 74.5156 L214.2031 80.9062 Z" style="fill:black; stroke:none;"
      /><rect x="265" width="5" height="10" y="70" style="stroke:none;"
      /><path d="M266.8906 78.6875 C266.4844 78.6875 266.1562 79.0469 266.1562 79.4219 C266.1562 79.8125 266.4844 80.1562 266.8906 80.1562 C267.2969 80.1562 267.6406 79.8125 267.6406 79.4219 C267.6406 79.0469 267.2969 78.6875 266.8906 78.6875 ZM268.4688 72.5781 C268.7188 72.8906 268.875 73.2656 268.8906 73.6562 C268.8906 74.1875 268.625 74.5 268.0312 74.7656 L267.4062 75.0156 C266.6406 75.3125 266.3906 75.5469 266.3906 75.9375 C266.3906 76.1094 266.4531 76.3438 266.5781 76.8125 L266.7344 77.3438 L267.1094 77.3438 L267.0938 76.5312 C267.0938 76.0938 267.2031 75.9688 267.7812 75.7344 L268.2031 75.5625 C269.0312 75.2188 269.4531 74.6875 269.4531 73.8438 C269.4531 72.1562 267.6562 71.1875 266.5 71.0312 C266.1094 71.125 265.9062 71.2969 265.9062 71.6406 C265.9062 71.9375 266.0625 72.1562 266.7188 72.2656 L268.4688 72.5781 Z" style="fill:black; stroke:none;"
    /></g
  ></g
></svg
>
