<?xml version="1.0"?>
<!DOCTYPE svg PUBLIC '-//W3C//DTD SVG 1.0//EN'
          'http://www.w3.org/TR/2001/REC-SVG-20010904/DTD/svg10.dtd'>
<svg xmlns:xlink="http://www.w3.org/1999/xlink" style="fill-opacity:1; color-rendering:auto; color-interpolation:auto; text-rendering:auto; stroke:black; stroke-linecap:square; stroke-miterlimit:10; shape-rendering:auto; stroke-opacity:1; fill:black; stroke-dasharray:none; font-weight:normal; stroke-width:1; font-family:'Dialog'; font-style:normal; stroke-linejoin:miter; font-size:12px; stroke-dashoffset:0; image-rendering:auto;" viewBox="0 0 490 134" xmlns="http://www.w3.org/2000/svg"
><!--Generated by the Batik Graphics2D SVG Generator--><defs id="genericDefs"
  /><g
  ><defs id="defs1"
    ><clipPath clipPathUnits="userSpaceOnUse" id="clipPath1"
      ><path d="M386 56 L408 56 L408 78 L386 78 L386 56 Z"
      /></clipPath
      ><clipPath clipPathUnits="userSpaceOnUse" id="clipPath2"
      ><path d="M334 56 L356 56 L356 78 L334 78 L334 56 Z"
      /></clipPath
      ><clipPath clipPathUnits="userSpaceOnUse" id="clipPath3"
      ><path d="M304 67 C304 73.0751 299.0751 78 293 78 C286.9249 78 282 73.0751 282 67 C282 60.9249 286.9249 56 293 56 C299.0751 56 304 60.9249 304 67 Z"
      /></clipPath
      ><clipPath clipPathUnits="userSpaceOnUse" id="clipPath4"
      ><path d="M252 93 C252 99.0751 247.0751 104 241 104 C234.9249 104 230 99.0751 230 93 C230 86.9249 234.9249 82 241 82 C247.0751 82 252 86.9249 252 93 Z"
      /></clipPath
      ><clipPath clipPathUnits="userSpaceOnUse" id="clipPath5"
      ><path d="M178 82 L200 82 L200 104 L178 104 L178 82 Z"
      /></clipPath
      ><clipPath clipPathUnits="userSpaceOnUse" id="clipPath6"
      ><path d="M252 41 C252 47.0751 247.0751 52 241 52 C234.9249 52 230 47.0751 230 41 C230 34.9249 234.9249 30 241 30 C247.0751 30 252 34.9249 252 41 Z"
      /></clipPath
      ><clipPath clipPathUnits="userSpaceOnUse" id="clipPath7"
      ><path d="M178 30 L200 30 L200 52 L178 52 L178 30 Z"
      /></clipPath
      ><clipPath clipPathUnits="userSpaceOnUse" id="clipPath8"
      ><path d="M82 56 L104 56 L104 78 L82 78 L82 56 Z"
      /></clipPath
      ><clipPath clipPathUnits="userSpaceOnUse" id="clipPath9"
      ><path style="fill-rule:evenodd;" d="M41 56 L52 67 L41 78 L30 67 Z"
      /></clipPath
    ></defs
    ><g style="fill:white; text-rendering:optimizeSpeed; stroke:white;"
    ><rect x="0" width="490" height="134" y="0" style="stroke:none;"
      /><polygon style="fill:none; stroke:black;" points=" 449 67 397 67"
      /><path d="M449 56 C443.5 61.5 454.5 72.5 449 78" style="fill:none; stroke:black;"
      /><polygon style="fill:none; stroke:black;" points=" 397 67 345 67"
      /><rect x="386" y="56" width="22" style="clip-path:url(#clipPath1); stroke:none;" height="22"
      /><rect x="386" y="56" width="22" style="clip-path:url(#clipPath1); fill:rgb(0,144,188); stroke:none;" height="22"
      /><rect x="386" y="56" width="22" style="clip-path:url(#clipPath1); fill:none; stroke:black;" height="22"
      /><rect x="386" y="56" width="22" style="fill:none; stroke:black;" height="22"
      /><polygon style="fill:none; stroke:black;" points=" 345 67 293 67"
      /><rect x="334" y="56" width="22" style="clip-path:url(#clipPath2); stroke:none;" height="22"
      /><rect x="334" y="56" width="22" style="clip-path:url(#clipPath2); fill:rgb(0,144,188); stroke:none;" height="22"
      /><rect x="334" y="56" width="22" style="clip-path:url(#clipPath2); fill:none; stroke:black;" height="22"
      /><rect x="334" y="56" width="22" style="fill:none; stroke:black;" height="22"
      /><polygon style="fill:none; stroke:black;" points=" 293 67 241 93"
      /><polygon style="fill:none; stroke:black;" points=" 293 67 241 41"
      /><circle style="clip-path:url(#clipPath3); stroke:none;" r="11" cx="293" cy="67"
      /><rect x="282" y="56" width="22" style="clip-path:url(#clipPath3); fill:rgb(0,166,81); stroke:none;" height="22"
      /><rect x="282" y="56" width="22" style="clip-path:url(#clipPath3); fill:none; stroke:black;" height="22"
      /><circle style="fill:none; stroke:black;" r="11" cx="293" cy="67"
      /><polygon style="fill:none; stroke:black;" points=" 241 93 189 93"
      /><circle style="clip-path:url(#clipPath4); stroke:none;" r="11" cx="241" cy="93"
      /><rect x="230" y="82" width="22" style="clip-path:url(#clipPath4); fill:rgb(0,166,81); stroke:none;" height="22"
      /><rect x="230" y="82" width="22" style="clip-path:url(#clipPath4); fill:none; stroke:black;" height="22"
      /><circle style="fill:none; stroke:black;" r="11" cx="241" cy="93"
      /><rect x="178" y="82" width="22" style="clip-path:url(#clipPath5); stroke:none;" height="22"
      /><rect x="178" y="82" width="22" style="clip-path:url(#clipPath5); fill:rgb(0,144,188); stroke:none;" height="22"
      /><rect x="178" y="82" width="22" style="clip-path:url(#clipPath5); fill:none; stroke:black;" height="22"
      /><rect x="178" y="82" width="22" style="fill:none; stroke:black;" height="22"
      /><rect x="219" y="96" width="5" style="stroke:none;" height="10"
    /></g
    ><g style="font-family:'Serif'; text-rendering:optimizeSpeed; "
    ><path style="stroke:none;" d="M220.8906 104.6875 C220.4844 104.6875 220.1562 105.0469 220.1562 105.4219 C220.1562 105.8125 220.4844 106.1562 220.8906 106.1562 C221.2969 106.1562 221.6406 105.8125 221.6406 105.4219 C221.6406 105.0469 221.2969 104.6875 220.8906 104.6875 ZM222.4688 98.5781 C222.7188 98.8906 222.875 99.2656 222.8906 99.6562 C222.8906 100.1875 222.625 100.5 222.0312 100.7656 L221.4062 101.0156 C220.6406 101.3125 220.3906 101.5469 220.3906 101.9375 C220.3906 102.1094 220.4531 102.3438 220.5781 102.8125 L220.7344 103.3438 L221.1094 103.3438 L221.0938 102.5312 C221.0938 102.0938 221.2031 101.9688 221.7812 101.7344 L222.2031 101.5625 C223.0312 101.2188 223.4531 100.6875 223.4531 99.8438 C223.4531 98.1562 221.6562 97.1875 220.5 97.0312 C220.1094 97.125 219.9062 97.2969 219.9062 97.6406 C219.9062 97.9375 220.0625 98.1562 220.7188 98.2656 L222.4688 98.5781 Z"
      /><rect x="205" y="96" width="5" style="fill:white; stroke:none;" height="10"
      /><path style="stroke:none;" d="M206.8906 104.6875 C206.4844 104.6875 206.1562 105.0469 206.1562 105.4219 C206.1562 105.8125 206.4844 106.1562 206.8906 106.1562 C207.2969 106.1562 207.6406 105.8125 207.6406 105.4219 C207.6406 105.0469 207.2969 104.6875 206.8906 104.6875 ZM208.4688 98.5781 C208.7188 98.8906 208.875 99.2656 208.8906 99.6562 C208.8906 100.1875 208.625 100.5 208.0312 100.7656 L207.4062 101.0156 C206.6406 101.3125 206.3906 101.5469 206.3906 101.9375 C206.3906 102.1094 206.4531 102.3438 206.5781 102.8125 L206.7344 103.3438 L207.1094 103.3438 L207.0938 102.5312 C207.0938 102.0938 207.2031 101.9688 207.7812 101.7344 L208.2031 101.5625 C209.0312 101.2188 209.4531 100.6875 209.4531 99.8438 C209.4531 98.1562 207.6562 97.1875 206.5 97.0312 C206.1094 97.125 205.9062 97.2969 205.9062 97.6406 C205.9062 97.9375 206.0625 98.1562 206.7188 98.2656 L208.4688 98.5781 Z"
      /><polygon style="fill:none;" points=" 241 41 189 41"
      /><circle style="fill:white; clip-path:url(#clipPath6); stroke:none;" r="11" cx="241" cy="41"
      /><rect x="230" y="30" width="22" style="clip-path:url(#clipPath6); fill:rgb(0,166,81); stroke:none;" height="22"
      /><rect x="230" y="30" width="22" style="fill:none; clip-path:url(#clipPath6);" height="22"
      /><circle r="11" style="fill:none;" cx="241" cy="41"
      /><rect x="178" y="30" width="22" style="clip-path:url(#clipPath7); fill:white; stroke:none;" height="22"
      /><rect x="178" y="30" width="22" style="clip-path:url(#clipPath7); fill:rgb(0,144,188); stroke:none;" height="22"
      /><rect x="178" y="30" width="22" style="fill:none; clip-path:url(#clipPath7);" height="22"
      /><rect x="178" width="22" height="22" y="30" style="fill:none;"
      /><rect x="219" y="44" width="5" style="fill:white; stroke:none;" height="10"
      /><path style="stroke:none;" d="M220.8906 52.6875 C220.4844 52.6875 220.1562 53.0469 220.1562 53.4219 C220.1562 53.8125 220.4844 54.1562 220.8906 54.1562 C221.2969 54.1562 221.6406 53.8125 221.6406 53.4219 C221.6406 53.0469 221.2969 52.6875 220.8906 52.6875 ZM222.4688 46.5781 C222.7188 46.8906 222.875 47.2656 222.8906 47.6562 C222.8906 48.1875 222.625 48.5 222.0312 48.7656 L221.4062 49.0156 C220.6406 49.3125 220.3906 49.5469 220.3906 49.9375 C220.3906 50.1094 220.4531 50.3438 220.5781 50.8125 L220.7344 51.3438 L221.1094 51.3438 L221.0938 50.5312 C221.0938 50.0938 221.2031 49.9688 221.7812 49.7344 L222.2031 49.5625 C223.0312 49.2188 223.4531 48.6875 223.4531 47.8438 C223.4531 46.1562 221.6562 45.1875 220.5 45.0312 C220.1094 45.125 219.9062 45.2969 219.9062 45.6406 C219.9062 45.9375 220.0625 46.1562 220.7188 46.2656 L222.4688 46.5781 Z"
      /><rect x="205" y="44" width="5" style="fill:white; stroke:none;" height="10"
      /><path style="stroke:none;" d="M206.8906 52.6875 C206.4844 52.6875 206.1562 53.0469 206.1562 53.4219 C206.1562 53.8125 206.4844 54.1562 206.8906 54.1562 C207.2969 54.1562 207.6406 53.8125 207.6406 53.4219 C207.6406 53.0469 207.2969 52.6875 206.8906 52.6875 ZM208.4688 46.5781 C208.7188 46.8906 208.875 47.2656 208.8906 47.6562 C208.8906 48.1875 208.625 48.5 208.0312 48.7656 L207.4062 49.0156 C206.6406 49.3125 206.3906 49.5469 206.3906 49.9375 C206.3906 50.1094 206.4531 50.3438 206.5781 50.8125 L206.7344 51.3438 L207.1094 51.3438 L207.0938 50.5312 C207.0938 50.0938 207.2031 49.9688 207.7812 49.7344 L208.2031 49.5625 C209.0312 49.2188 209.4531 48.6875 209.4531 47.8438 C209.4531 46.1562 207.6562 45.1875 206.5 45.0312 C206.1094 45.125 205.9062 45.2969 205.9062 45.6406 C205.9062 45.9375 206.0625 46.1562 206.7188 46.2656 L208.4688 46.5781 Z"
      /><rect x="275" y="78" width="6" style="fill:white; stroke:none;" height="10"
      /><path style="stroke:none;" d="M277.2344 79.6562 C277.5156 79.5938 277.7656 79.5625 278.0156 79.5625 C279.0625 79.5625 279.6719 80.1719 279.6719 81.2656 C279.6719 82.4375 278.9062 83.1094 277.7031 83.1094 L277.1875 83.1094 L277.1875 83.6406 L277.7969 83.6406 C279.2188 83.6406 279.9062 84.4219 279.9062 85.6406 C279.9062 86.8438 279.1719 87.6875 277.875 87.6875 C277.6094 87.6875 277.3125 87.6562 277.0156 87.5625 L276.7812 86.8125 C276.625 86.2812 276.5 86.0469 276.1406 86.0469 C275.8906 86.0469 275.7031 86.1719 275.5781 86.4219 C275.8438 87.6406 276.7812 88.1719 278.0312 88.1719 C279.7188 88.1719 280.875 87.125 280.875 85.7031 C280.875 84.5 280.2031 83.625 278.7969 83.375 C279.9531 83.0156 280.6094 82.2031 280.6094 81.2031 C280.6094 79.9219 279.6719 79.0781 278.1875 79.0781 C277.0469 79.0781 276.0625 79.5938 275.7969 80.6875 C275.9062 81 276.1094 81.1094 276.3594 81.1094 C276.7344 81.1094 276.8906 80.8906 277 80.4062 L277.2344 79.6562 Z"
      /><rect x="258" y="87" width="8" style="fill:white; stroke:none;" height="8"
      /><path style="stroke:none;" d="M262.9844 92.7031 C262.9375 93.8906 262.1562 94.6562 261.3125 94.6562 C260.2656 94.6562 259.5 93.6875 259.5 91.7188 C259.5 90.2812 260.1562 89.1562 261.3438 89.1562 C262.1406 89.1562 262.7812 89.6875 263.0938 90.6406 L262.9844 92.7031 ZM264.9062 94.2812 C264.7344 94.375 264.5469 94.4219 264.3438 94.4219 C263.9531 94.4219 263.75 94.2188 263.75 93.4219 C263.75 92.4844 263.9688 90.5312 264.1875 88.8281 L264.0312 88.7188 L263.2344 88.9219 L263.1406 89.7969 C262.7812 89.0312 262.1562 88.6562 261.3906 88.6562 C260.0469 88.6562 258.5625 89.8438 258.5625 91.9531 C258.5625 94.0938 259.7188 95.1719 261.1406 95.1719 C262.0156 95.1719 262.6875 94.8125 263.0938 93.9844 C263.2031 94.8594 263.5156 95.1719 264.0156 95.1719 C264.4688 95.1719 264.7969 94.9062 265.0156 94.5625 L264.9062 94.2812 Z"
      /><rect x="268" y="60" width="6" style="fill:white; stroke:none;" height="10"
      /><path style="stroke:none;" d="M271.3438 69.6875 C270.2031 69.6875 269.5312 68.5 269.5312 66.2969 C269.5312 66.2188 269.5312 66.125 269.5312 66.0469 C270.0938 65.5 270.7188 65.3125 271.3438 65.3125 C272.3125 65.3125 272.9531 65.9844 272.9531 67.4531 C272.9531 68.9375 272.3125 69.6875 271.3438 69.6875 ZM273.5312 61.0781 C270.3438 61.4531 268.5625 63.7656 268.5625 66.4531 C268.5625 68.7812 269.6094 70.1719 271.3125 70.1719 C272.8438 70.1719 273.9219 69.1094 273.9219 67.2812 C273.9219 65.6875 272.9688 64.6562 271.5625 64.6562 C270.8281 64.6562 270.1406 64.9844 269.5781 65.5781 C269.7969 63.4062 271.0781 61.9688 273.5938 61.3906 L273.5312 61.0781 Z"
      /><rect x="251" y="53" width="8" style="fill:white; stroke:none;" height="8"
      /><path style="stroke:none;" d="M255.9844 58.7031 C255.9375 59.8906 255.1562 60.6562 254.3125 60.6562 C253.2656 60.6562 252.5 59.6875 252.5 57.7188 C252.5 56.2812 253.1562 55.1562 254.3438 55.1562 C255.1406 55.1562 255.7812 55.6875 256.0938 56.6406 L255.9844 58.7031 ZM257.9062 60.2812 C257.7344 60.375 257.5469 60.4219 257.3438 60.4219 C256.9531 60.4219 256.75 60.2188 256.75 59.4219 C256.75 58.4844 256.9688 56.5312 257.1875 54.8281 L257.0312 54.7188 L256.2344 54.9219 L256.1406 55.7969 C255.7812 55.0312 255.1562 54.6562 254.3906 54.6562 C253.0469 54.6562 251.5625 55.8438 251.5625 57.9531 C251.5625 60.0938 252.7188 61.1719 254.1406 61.1719 C255.0156 61.1719 255.6875 60.8125 256.0938 59.9844 C256.2031 60.8594 256.5156 61.1719 257.0156 61.1719 C257.4688 61.1719 257.7969 60.9062 258.0156 60.5625 L257.9062 60.2812 Z"
      /><rect x="322" y="70" width="7" style="fill:white; stroke:none;" height="9"
      /><path style="stroke:none;" d="M323 75.5156 L325.9531 71.2656 L325.9531 75.5156 L323 75.5156 ZM328.2812 75.5156 L326.8594 75.5156 L326.8594 70.125 L326.2344 70.125 L322.3438 75.6406 L322.3438 76.1875 L325.9531 76.1875 L325.9531 79 L326.8594 79 L326.8594 76.1875 L328.2812 76.1875 L328.2812 75.5156 Z"
      /><rect x="309" y="68" width="6" style="fill:white; stroke:none;" height="13"
      /><path style="stroke:none;" d="M311.0938 74.2031 C311.0938 72.6562 311.75 71.8125 312.7969 71.8125 C313.7188 71.8125 314.2656 72.4531 314.2656 73.5156 C314.2656 74.7188 313.5 75.4375 312.1875 75.7031 L312.2969 76.3125 C314.2188 76.2344 314.9375 77.2188 314.9375 78.4375 C314.9375 79.625 314.2344 80.4219 312.9531 80.4219 C312.25 80.4219 311.6562 80.1562 311.0938 79.7188 L311.0938 74.2031 ZM310.2031 80.9062 L310.1094 83.375 L310.2656 83.4844 L311.1562 83.2656 L311.0156 80.0938 C311.5469 80.8438 312.3594 81.1719 313.1719 81.1719 C314.5625 81.1719 315.8594 80.2188 315.8594 78.4844 C315.8594 76.9531 314.875 76.1094 313.125 76 C314.5625 75.6094 315.1875 74.4531 315.1875 73.4844 C315.1875 72.0938 314.1562 71.3125 312.9062 71.3125 C311.2969 71.3125 310.2188 72.5469 310.2188 74.5156 L310.2031 80.9062 Z"
      /><rect x="374" y="70" width="7" style="fill:white; stroke:none;" height="9"
      /><path style="stroke:none;" d="M375 75.5156 L377.9531 71.2656 L377.9531 75.5156 L375 75.5156 ZM380.2812 75.5156 L378.8594 75.5156 L378.8594 70.125 L378.2344 70.125 L374.3438 75.6406 L374.3438 76.1875 L377.9531 76.1875 L377.9531 79 L378.8594 79 L378.8594 76.1875 L380.2812 76.1875 L380.2812 75.5156 Z"
      /><rect x="361" y="68" width="6" style="fill:white; stroke:none;" height="13"
      /><path style="stroke:none;" d="M363.0938 74.2031 C363.0938 72.6562 363.75 71.8125 364.7969 71.8125 C365.7188 71.8125 366.2656 72.4531 366.2656 73.5156 C366.2656 74.7188 365.5 75.4375 364.1875 75.7031 L364.2969 76.3125 C366.2188 76.2344 366.9375 77.2188 366.9375 78.4375 C366.9375 79.625 366.2344 80.4219 364.9531 80.4219 C364.25 80.4219 363.6562 80.1562 363.0938 79.7188 L363.0938 74.2031 ZM362.2031 80.9062 L362.1094 83.375 L362.2656 83.4844 L363.1562 83.2656 L363.0156 80.0938 C363.5469 80.8438 364.3594 81.1719 365.1719 81.1719 C366.5625 81.1719 367.8594 80.2188 367.8594 78.4844 C367.8594 76.9531 366.875 76.1094 365.125 76 C366.5625 75.6094 367.1875 74.4531 367.1875 73.4844 C367.1875 72.0938 366.1562 71.3125 364.9062 71.3125 C363.2969 71.3125 362.2188 72.5469 362.2188 74.5156 L362.2031 80.9062 Z"
      /><rect x="413" y="68" width="6" style="fill:white; stroke:none;" height="13"
      /><path style="stroke:none;" d="M415.0938 74.2031 C415.0938 72.6562 415.75 71.8125 416.7969 71.8125 C417.7188 71.8125 418.2656 72.4531 418.2656 73.5156 C418.2656 74.7188 417.5 75.4375 416.1875 75.7031 L416.2969 76.3125 C418.2188 76.2344 418.9375 77.2188 418.9375 78.4375 C418.9375 79.625 418.2344 80.4219 416.9531 80.4219 C416.25 80.4219 415.6562 80.1562 415.0938 79.7188 L415.0938 74.2031 ZM414.2031 80.9062 L414.1094 83.375 L414.2656 83.4844 L415.1562 83.2656 L415.0156 80.0938 C415.5469 80.8438 416.3594 81.1719 417.1719 81.1719 C418.5625 81.1719 419.8594 80.2188 419.8594 78.4844 C419.8594 76.9531 418.875 76.1094 417.125 76 C418.5625 75.6094 419.1875 74.4531 419.1875 73.4844 C419.1875 72.0938 418.1562 71.3125 416.9062 71.3125 C415.2969 71.3125 414.2188 72.5469 414.2188 74.5156 L414.2031 80.9062 Z"
      /><polygon style="fill:none;" points=" 178 104 167 104 167 30 178 30 167 30 167 104"
      /><polygon style="fill:none;" points=" 145 67 93 67"
      /><polygon style="fill:none;" points=" 93 67 41 67"
      /><rect x="82" y="56" width="22" style="clip-path:url(#clipPath8); fill:white; stroke:none;" height="22"
      /><rect x="82" y="56" width="22" style="clip-path:url(#clipPath8); fill:rgb(255,212,0); stroke:none;" height="22"
      /><rect x="82" y="56" width="22" style="fill:none; clip-path:url(#clipPath8);" height="22"
      /><rect x="82" width="22" height="22" y="56" style="fill:none;"
      /><polygon style="fill:white; clip-path:url(#clipPath9); stroke:none;" points=" 41 56 52 67 41 78 30 67"
      /><rect x="30" y="56" width="22" style="clip-path:url(#clipPath9); fill:rgb(165,67,153); stroke:none;" height="22"
      /><rect x="30" y="56" width="22" style="fill:none; clip-path:url(#clipPath9);" height="22"
      /><polygon style="fill:none;" points=" 41 56 52 67 41 78 30 67"
      /><rect x="71" y="70" width="5" style="fill:white; stroke:none;" height="10"
      /><path style="stroke:none;" d="M72.8906 78.6875 C72.4844 78.6875 72.1562 79.0469 72.1562 79.4219 C72.1562 79.8125 72.4844 80.1562 72.8906 80.1562 C73.2969 80.1562 73.6406 79.8125 73.6406 79.4219 C73.6406 79.0469 73.2969 78.6875 72.8906 78.6875 ZM74.4688 72.5781 C74.7188 72.8906 74.875 73.2656 74.8906 73.6562 C74.8906 74.1875 74.625 74.5 74.0312 74.7656 L73.4062 75.0156 C72.6406 75.3125 72.3906 75.5469 72.3906 75.9375 C72.3906 76.1094 72.4531 76.3438 72.5781 76.8125 L72.7344 77.3438 L73.1094 77.3438 L73.0938 76.5312 C73.0938 76.0938 73.2031 75.9688 73.7812 75.7344 L74.2031 75.5625 C75.0312 75.2188 75.4531 74.6875 75.4531 73.8438 C75.4531 72.1562 73.6562 71.1875 72.5 71.0312 C72.1094 71.125 71.9062 71.2969 71.9062 71.6406 C71.9062 71.9375 72.0625 72.1562 72.7188 72.2656 L74.4688 72.5781 Z"
      /><rect x="57" y="70" width="5" style="fill:white; stroke:none;" height="10"
      /><path style="stroke:none;" d="M58.8906 78.6875 C58.4844 78.6875 58.1562 79.0469 58.1562 79.4219 C58.1562 79.8125 58.4844 80.1562 58.8906 80.1562 C59.2969 80.1562 59.6406 79.8125 59.6406 79.4219 C59.6406 79.0469 59.2969 78.6875 58.8906 78.6875 ZM60.4688 72.5781 C60.7188 72.8906 60.875 73.2656 60.8906 73.6562 C60.8906 74.1875 60.625 74.5 60.0312 74.7656 L59.4062 75.0156 C58.6406 75.3125 58.3906 75.5469 58.3906 75.9375 C58.3906 76.1094 58.4531 76.3438 58.5781 76.8125 L58.7344 77.3438 L59.1094 77.3438 L59.0938 76.5312 C59.0938 76.0938 59.2031 75.9688 59.7812 75.7344 L60.2031 75.5625 C61.0312 75.2188 61.4531 74.6875 61.4531 73.8438 C61.4531 72.1562 59.6562 71.1875 58.5 71.0312 C58.1094 71.125 57.9062 71.2969 57.9062 71.6406 C57.9062 71.9375 58.0625 72.1562 58.7188 72.2656 L60.4688 72.5781 Z"
      /><rect x="123" y="70" width="5" style="fill:white; stroke:none;" height="10"
      /><path style="stroke:none;" d="M124.8906 78.6875 C124.4844 78.6875 124.1562 79.0469 124.1562 79.4219 C124.1562 79.8125 124.4844 80.1562 124.8906 80.1562 C125.2969 80.1562 125.6406 79.8125 125.6406 79.4219 C125.6406 79.0469 125.2969 78.6875 124.8906 78.6875 ZM126.4688 72.5781 C126.7188 72.8906 126.875 73.2656 126.8906 73.6562 C126.8906 74.1875 126.625 74.5 126.0312 74.7656 L125.4062 75.0156 C124.6406 75.3125 124.3906 75.5469 124.3906 75.9375 C124.3906 76.1094 124.4531 76.3438 124.5781 76.8125 L124.7344 77.3438 L125.1094 77.3438 L125.0938 76.5312 C125.0938 76.0938 125.2031 75.9688 125.7812 75.7344 L126.2031 75.5625 C127.0312 75.2188 127.4531 74.6875 127.4531 73.8438 C127.4531 72.1562 125.6562 71.1875 124.5 71.0312 C124.1094 71.125 123.9062 71.2969 123.9062 71.6406 C123.9062 71.9375 124.0625 72.1562 124.7188 72.2656 L126.4688 72.5781 Z"
      /><rect x="109" y="70" width="5" style="fill:white; stroke:none;" height="10"
      /><path style="stroke:none;" d="M110.8906 78.6875 C110.4844 78.6875 110.1562 79.0469 110.1562 79.4219 C110.1562 79.8125 110.4844 80.1562 110.8906 80.1562 C111.2969 80.1562 111.6406 79.8125 111.6406 79.4219 C111.6406 79.0469 111.2969 78.6875 110.8906 78.6875 ZM112.4688 72.5781 C112.7188 72.8906 112.875 73.2656 112.8906 73.6562 C112.8906 74.1875 112.625 74.5 112.0312 74.7656 L111.4062 75.0156 C110.6406 75.3125 110.3906 75.5469 110.3906 75.9375 C110.3906 76.1094 110.4531 76.3438 110.5781 76.8125 L110.7344 77.3438 L111.1094 77.3438 L111.0938 76.5312 C111.0938 76.0938 111.2031 75.9688 111.7812 75.7344 L112.2031 75.5625 C113.0312 75.2188 113.4531 74.6875 113.4531 73.8438 C113.4531 72.1562 111.6562 71.1875 110.5 71.0312 C110.1094 71.125 109.9062 71.2969 109.9062 71.6406 C109.9062 71.9375 110.0625 72.1562 110.7188 72.2656 L112.4688 72.5781 Z"
    /></g
  ></g
></svg
>
