<?xml version="1.0"?>
<!DOCTYPE svg PUBLIC '-//W3C//DTD SVG 1.0//EN'
          'http://www.w3.org/TR/2001/REC-SVG-20010904/DTD/svg10.dtd'>
<svg xmlns:xlink="http://www.w3.org/1999/xlink" style="fill-opacity:1; color-rendering:auto; color-interpolation:auto; text-rendering:auto; stroke:black; stroke-linecap:square; stroke-miterlimit:10; shape-rendering:auto; stroke-opacity:1; fill:black; stroke-dasharray:none; font-weight:normal; stroke-width:1; font-family:'Dialog'; font-style:normal; stroke-linejoin:miter; font-size:12px; stroke-dashoffset:0; image-rendering:auto;" viewBox="0 0 161 128" xmlns="http://www.w3.org/2000/svg"
><!--Generated by the Batik Graphics2D SVG Generator--><defs id="genericDefs"
  /><g
  ><defs id="defs1"
    ><clipPath clipPathUnits="userSpaceOnUse" id="clipPath1"
      ><path d="M65 64 C65 70.0751 60.0751 75 54 75 C47.9249 75 43 70.0751 43 64 C43 57.9249 47.9249 53 54 53 C60.0751 53 65 57.9249 65 64 Z"
      /></clipPath
    ></defs
    ><g style="fill:white; text-rendering:optimizeSpeed; stroke:white;"
    ><rect x="0" width="161" height="128" y="0" style="stroke:none;"
      /><polygon style="fill:none; stroke:black;" points=" 120 64 54 64"
      /><path d="M120 53 C114.5 58.5 125.5 69.5 120 75" style="fill:none; stroke:black;"
      /><circle style="clip-path:url(#clipPath1); stroke:none;" r="11" cx="54" cy="64"
      /><rect x="43" y="53" width="22" style="clip-path:url(#clipPath1); fill:rgb(255,212,0); stroke:none;" height="22"
      /><rect x="43" y="53" width="22" style="clip-path:url(#clipPath1); fill:none; stroke:black;" height="22"
      /><circle style="fill:none; stroke:black;" r="11" cx="54" cy="64"
    /></g
    ><g style="text-rendering:optimizeSpeed; font-size:10px; font-family:'SansSerif';"
    ><path style="stroke:none;" d="M52 67 L56.125 67 L56.125 66.2031 L52.9375 66.2031 L52.9375 59.6562 L52 59.6562 L52 67 Z"
      /><rect x="32" y="35" width="19" style="fill:white; stroke:none;" height="11"
      /><path style="stroke:none;" d="M36.1094 40.5781 C37.3438 40.5781 37.9688 41.4688 37.9688 42.8438 C37.9688 44.25 37.1875 45.1875 36.2188 45.1875 C34.9219 45.1875 34.1562 44.0312 34 41.8906 C34.625 40.9531 35.4531 40.5781 36.1094 40.5781 ZM36.2188 46.1875 C37.8125 46.1875 39.1562 44.8438 39.1562 42.8438 C39.1562 40.7031 38.0469 39.625 36.3125 39.625 C35.5 39.625 34.6094 40.1094 33.9688 40.875 C34.0312 37.6875 35.2188 36.6094 36.625 36.6094 C37.25 36.6094 37.8594 36.9062 38.2656 37.3906 L38.9688 36.5938 C38.4062 35.9844 37.6406 35.5469 36.5781 35.5469 C34.5938 35.5469 32.7812 37.0781 32.7812 41.0938 C32.7812 44.4844 34.2344 46.1875 36.2188 46.1875 ZM45.0512 46.1875 C46.3793 46.1875 47.3793 45.6562 48.1918 44.7188 L47.4887 43.9062 C46.8325 44.6094 46.0825 45.0469 45.0981 45.0469 C43.145 45.0469 41.9106 43.4219 41.9106 40.8281 C41.9106 38.2656 43.2075 36.6719 45.145 36.6719 C46.0356 36.6719 46.7075 37.0781 47.2387 37.6562 L47.9418 36.8125 C47.3637 36.1562 46.3793 35.5469 45.1293 35.5469 C42.5356 35.5469 40.5825 37.5625 40.5825 40.875 C40.5825 44.2031 42.5043 46.1875 45.0512 46.1875 ZM51.3269 46.1875 C51.6863 46.1875 51.8894 46.1406 52.0769 46.0625 L51.8894 45.0938 C51.7488 45.125 51.7019 45.125 51.6238 45.125 C51.4363 45.125 51.2644 44.9688 51.2644 44.5781 L51.2644 34.8594 L49.9832 34.8594 L49.9832 44.4844 C49.9832 45.5625 50.3894 46.1875 51.3269 46.1875 Z"
      /><rect x="55" y="81" width="22" style="fill:white; stroke:none;" height="10"
      /><path style="stroke:none;" d="M55.6094 92 L62.0625 92 L62.0625 90.8906 L59.2344 90.8906 C58.7031 90.8906 58.0781 90.9531 57.5469 90.9844 C59.9531 88.7031 61.5625 86.625 61.5625 84.5781 C61.5625 82.75 60.4219 81.5469 58.5781 81.5469 C57.2812 81.5469 56.4062 82.1406 55.5625 83.0469 L56.2969 83.7812 C56.8594 83.1094 57.5938 82.5938 58.4375 82.5938 C59.7031 82.5938 60.3125 83.4531 60.3125 84.625 C60.3125 86.3906 58.8438 88.4375 55.6094 91.25 L55.6094 92 ZM65.9418 86.2656 C66.3168 85.0938 66.645 83.9844 66.9731 82.7812 L67.02 82.7812 C67.3637 83.9844 67.6762 85.0938 68.0668 86.2656 L68.5512 87.8281 L65.4418 87.8281 L65.9418 86.2656 ZM62.8168 92 L64.1293 92 L65.1293 88.8594 L68.8793 88.8594 L69.8481 92 L71.2231 92 L67.7387 81.7188 L66.3012 81.7188 L62.8168 92 ZM75.5492 92.1875 C76.4554 92.1875 77.3304 91.8281 78.0179 91.2188 L77.4554 90.3594 C76.9867 90.7969 76.3617 91.125 75.6586 91.125 C74.2679 91.125 73.3148 89.9531 73.3148 88.2031 C73.3148 86.4531 74.3148 85.2656 75.7054 85.2656 C76.3148 85.2656 76.7679 85.5469 77.2211 85.9375 L77.8773 85.0938 C77.3304 84.625 76.6429 84.2031 75.6429 84.2031 C73.7054 84.2031 71.9867 85.6719 71.9867 88.2031 C71.9867 90.7188 73.5336 92.1875 75.5492 92.1875 Z"
      /><rect x="30" y="81" width="22" style="fill:white; stroke:none;" height="10"
      /><path style="stroke:none;" d="M33.7031 92.1875 C35.5156 92.1875 36.9844 91.0938 36.9844 89.25 C36.9844 87.8594 36.0156 86.9375 34.8125 86.6562 L34.8125 86.5938 C35.8906 86.1875 36.6406 85.3594 36.6406 84.125 C36.6406 82.5 35.375 81.5469 33.6562 81.5469 C32.4688 81.5469 31.5469 82.0625 30.7812 82.7812 L31.4688 83.5938 C32.0469 83 32.7656 82.5938 33.5938 82.5938 C34.6562 82.5938 35.3281 83.2344 35.3281 84.2188 C35.3281 85.3281 34.6094 86.1719 32.4844 86.1719 L32.4844 87.1562 C34.8594 87.1562 35.6875 87.9844 35.6875 89.2031 C35.6875 90.3906 34.8125 91.125 33.5938 91.125 C32.4375 91.125 31.6562 90.5781 31.0469 89.9375 L30.4062 90.7812 C31.0781 91.5156 32.0938 92.1875 33.7031 92.1875 ZM40.9418 86.2656 C41.3168 85.0938 41.645 83.9844 41.9731 82.7812 L42.02 82.7812 C42.3637 83.9844 42.6762 85.0938 43.0668 86.2656 L43.5512 87.8281 L40.4418 87.8281 L40.9418 86.2656 ZM37.8168 92 L39.1293 92 L40.1293 88.8594 L43.8793 88.8594 L44.8481 92 L46.2231 92 L42.7387 81.7188 L41.3012 81.7188 L37.8168 92 ZM50.5492 92.1875 C51.4554 92.1875 52.3304 91.8281 53.0179 91.2188 L52.4554 90.3594 C51.9867 90.7969 51.3617 91.125 50.6586 91.125 C49.2679 91.125 48.3148 89.9531 48.3148 88.2031 C48.3148 86.4531 49.3148 85.2656 50.7054 85.2656 C51.3148 85.2656 51.7679 85.5469 52.2211 85.9375 L52.8773 85.0938 C52.3304 84.625 51.6429 84.2031 50.6429 84.2031 C48.7054 84.2031 46.9867 85.6719 46.9867 88.2031 C46.9867 90.7188 48.5336 92.1875 50.5492 92.1875 Z"
      /><rect x="54" y="35" width="22" style="fill:white; stroke:none;" height="10"
      /><path style="stroke:none;" d="M55.6094 42.1562 L57.9531 38.6562 C58.2344 38.1406 58.5156 37.6406 58.7812 37.1406 L58.8281 37.1406 C58.7969 37.6719 58.7656 38.5 58.7656 39 L58.7656 42.1562 L55.6094 42.1562 ZM58.7656 46 L59.9688 46 L59.9688 43.1719 L61.3281 43.1719 L61.3281 42.1562 L59.9688 42.1562 L59.9688 35.7188 L58.5469 35.7188 L54.2812 42.3281 L54.2812 43.1719 L58.7656 43.1719 L58.7656 46 ZM64.9418 40.2656 C65.3168 39.0938 65.645 37.9844 65.9731 36.7812 L66.02 36.7812 C66.3637 37.9844 66.6762 39.0938 67.0668 40.2656 L67.5512 41.8281 L64.4418 41.8281 L64.9418 40.2656 ZM61.8168 46 L63.1293 46 L64.1293 42.8594 L67.8793 42.8594 L68.8481 46 L70.2231 46 L66.7387 35.7188 L65.3012 35.7188 L61.8168 46 ZM74.5492 46.1875 C75.4554 46.1875 76.3304 45.8281 77.0179 45.2188 L76.4554 44.3594 C75.9867 44.7969 75.3617 45.125 74.6586 45.125 C73.2679 45.125 72.3148 43.9531 72.3148 42.2031 C72.3148 40.4531 73.3148 39.2656 74.7054 39.2656 C75.3148 39.2656 75.7679 39.5469 76.2211 39.9375 L76.8773 39.0938 C76.3304 38.625 75.6429 38.2031 74.6429 38.2031 C72.7054 38.2031 70.9867 39.6719 70.9867 42.2031 C70.9867 44.7188 72.5336 46.1875 74.5492 46.1875 Z"
    /></g
    ><g style="fill:white; text-rendering:optimizeSpeed; font-family:'Serif'; stroke:white;"
    ><rect x="84" width="5" height="10" y="67" style="stroke:none;"
      /><path d="M85.8906 75.6875 C85.4844 75.6875 85.1562 76.0469 85.1562 76.4219 C85.1562 76.8125 85.4844 77.1562 85.8906 77.1562 C86.2969 77.1562 86.6406 76.8125 86.6406 76.4219 C86.6406 76.0469 86.2969 75.6875 85.8906 75.6875 ZM87.4688 69.5781 C87.7188 69.8906 87.875 70.2656 87.8906 70.6562 C87.8906 71.1875 87.625 71.5 87.0312 71.7656 L86.4062 72.0156 C85.6406 72.3125 85.3906 72.5469 85.3906 72.9375 C85.3906 73.1094 85.4531 73.3438 85.5781 73.8125 L85.7344 74.3438 L86.1094 74.3438 L86.0938 73.5312 C86.0938 73.0938 86.2031 72.9688 86.7812 72.7344 L87.2031 72.5625 C88.0312 72.2188 88.4531 71.6875 88.4531 70.8438 C88.4531 69.1562 86.6562 68.1875 85.5 68.0312 C85.1094 68.125 84.9062 68.2969 84.9062 68.6406 C84.9062 68.9375 85.0625 69.1562 85.7188 69.2656 L87.4688 69.5781 Z" style="fill:black; stroke:none;"
    /></g
  ></g
></svg
>
