<?xml version="1.0"?>
<!DOCTYPE svg PUBLIC '-//W3C//DTD SVG 1.0//EN'
          'http://www.w3.org/TR/2001/REC-SVG-20010904/DTD/svg10.dtd'>
<svg xmlns:xlink="http://www.w3.org/1999/xlink" style="fill-opacity:1; color-rendering:auto; color-interpolation:auto; text-rendering:auto; stroke:black; stroke-linecap:square; stroke-miterlimit:10; shape-rendering:auto; stroke-opacity:1; fill:black; stroke-dasharray:none; font-weight:normal; stroke-width:1; font-family:'Dialog'; font-style:normal; stroke-linejoin:miter; font-size:12px; stroke-dashoffset:0; image-rendering:auto;" viewBox="0 0 294 128" xmlns="http://www.w3.org/2000/svg"
><!--Generated by the Batik Graphics2D SVG Generator--><defs id="genericDefs"
  /><g
  ><defs id="defs1"
    ><clipPath clipPathUnits="userSpaceOnUse" id="clipPath1"
      ><path d="M189 53 L211 53 L211 75 L189 75 L189 53 Z"
      /></clipPath
      ><clipPath clipPathUnits="userSpaceOnUse" id="clipPath2"
      ><path style="fill-rule:evenodd;" d="M147 53 L158 75 L136 75 Z"
      /></clipPath
      ><clipPath clipPathUnits="userSpaceOnUse" id="clipPath3"
      ><path style="fill-rule:evenodd;" d="M95 53 L106 75 L84 75 Z"
      /></clipPath
      ><clipPath clipPathUnits="userSpaceOnUse" id="clipPath4"
      ><path style="fill-rule:evenodd;" d="M42 53 L53 75 L31 75 Z"
      /></clipPath
    ></defs
    ><g style="fill:white; text-rendering:optimizeSpeed; stroke:white;"
    ><rect x="0" width="294" height="128" y="0" style="stroke:none;"
      /><polygon style="fill:none; stroke:black;" points=" 253 64 200 64"
      /><path d="M253 53 C247.5 58.5 258.5 69.5 253 75" style="fill:none; stroke:black;"
      /><polygon style="fill:none; stroke:black;" points=" 200 64 147 64"
      /><rect x="189" y="53" width="22" style="clip-path:url(#clipPath1); stroke:none;" height="22"
      /><rect x="189" y="53" width="22" style="clip-path:url(#clipPath1); fill:rgb(0,144,188); stroke:none;" height="22"
      /><rect x="189" y="53" width="22" style="clip-path:url(#clipPath1); fill:none; stroke:black;" height="22"
      /><rect x="189" y="53" width="22" style="fill:none; stroke:black;" height="22"
      /><rect x="188" y="35" width="22" style="stroke:none;" height="10"
    /></g
    ><g style="text-rendering:optimizeSpeed; font-size:14px; font-family:'SansSerif';"
    ><path style="stroke:none;" d="M192.1094 40.5781 C193.3438 40.5781 193.9688 41.4688 193.9688 42.8438 C193.9688 44.25 193.1875 45.1875 192.2188 45.1875 C190.9219 45.1875 190.1562 44.0312 190 41.8906 C190.625 40.9531 191.4531 40.5781 192.1094 40.5781 ZM192.2188 46.1875 C193.8125 46.1875 195.1562 44.8438 195.1562 42.8438 C195.1562 40.7031 194.0469 39.625 192.3125 39.625 C191.5 39.625 190.6094 40.1094 189.9688 40.875 C190.0312 37.6875 191.2188 36.6094 192.625 36.6094 C193.25 36.6094 193.8594 36.9062 194.2656 37.3906 L194.9688 36.5938 C194.4062 35.9844 193.6406 35.5469 192.5781 35.5469 C190.5938 35.5469 188.7812 37.0781 188.7812 41.0938 C188.7812 44.4844 190.2344 46.1875 192.2188 46.1875 ZM198.9418 40.2656 C199.3168 39.0938 199.645 37.9844 199.9731 36.7812 L200.02 36.7812 C200.3637 37.9844 200.6762 39.0938 201.0668 40.2656 L201.5512 41.8281 L198.4418 41.8281 L198.9418 40.2656 ZM195.8168 46 L197.1293 46 L198.1293 42.8594 L201.8793 42.8594 L202.8481 46 L204.2231 46 L200.7387 35.7188 L199.3012 35.7188 L195.8168 46 ZM208.5492 46.1875 C209.4554 46.1875 210.3304 45.8281 211.0179 45.2188 L210.4554 44.3594 C209.9867 44.7969 209.3617 45.125 208.6586 45.125 C207.2679 45.125 206.3148 43.9531 206.3148 42.2031 C206.3148 40.4531 207.3148 39.2656 208.7054 39.2656 C209.3148 39.2656 209.7679 39.5469 210.2211 39.9375 L210.8773 39.0938 C210.3304 38.625 209.6429 38.2031 208.6429 38.2031 C206.7054 38.2031 204.9867 39.6719 204.9867 42.2031 C204.9867 44.7188 206.5336 46.1875 208.5492 46.1875 Z"
      /><polygon style="fill:none;" points=" 147 64 95 64"
    /></g
    ><g style="fill:white; text-rendering:optimizeSpeed; stroke:white;"
    ><polygon style="stroke:none; clip-path:url(#clipPath2);" points=" 147 53 158 75 136 75"
      /><rect x="136" y="53" width="22" style="clip-path:url(#clipPath2); fill:rgb(0,166,81); stroke:none;" height="22"
      /><rect x="136" y="53" width="22" style="clip-path:url(#clipPath2); fill:none; stroke:black;" height="22"
      /><polygon style="fill:none; stroke:black;" points=" 147 53 158 75 136 75"
      /><polygon style="fill:none; stroke:black;" points=" 95 64 42 64"
      /><polygon style="clip-path:url(#clipPath3); stroke:none;" points=" 95 53 106 75 84 75"
      /><rect x="84" y="53" width="22" style="clip-path:url(#clipPath3); fill:rgb(0,166,81); stroke:none;" height="22"
      /><rect x="84" y="53" width="22" style="clip-path:url(#clipPath3); fill:none; stroke:black;" height="22"
      /><polygon style="fill:none; stroke:black;" points=" 95 53 106 75 84 75"
      /><polygon style="clip-path:url(#clipPath4); stroke:none;" points=" 42 53 53 75 31 75"
      /><rect x="31" y="53" width="22" style="clip-path:url(#clipPath4); fill:rgb(0,166,81); stroke:none;" height="22"
      /><rect x="31" y="53" width="22" style="clip-path:url(#clipPath4); fill:none; stroke:black;" height="22"
      /><polygon style="fill:none; stroke:black;" points=" 42 53 53 75 31 75"
      /><rect x="30" width="22" height="10" y="81" style="stroke:none;"
    /></g
    ><g style="text-rendering:optimizeSpeed; font-size:14px; font-family:'SansSerif';"
    ><path style="stroke:none;" d="M33.7031 92.1875 C35.5156 92.1875 36.9844 91.0938 36.9844 89.25 C36.9844 87.8594 36.0156 86.9375 34.8125 86.6562 L34.8125 86.5938 C35.8906 86.1875 36.6406 85.3594 36.6406 84.125 C36.6406 82.5 35.375 81.5469 33.6562 81.5469 C32.4688 81.5469 31.5469 82.0625 30.7812 82.7812 L31.4688 83.5938 C32.0469 83 32.7656 82.5938 33.5938 82.5938 C34.6562 82.5938 35.3281 83.2344 35.3281 84.2188 C35.3281 85.3281 34.6094 86.1719 32.4844 86.1719 L32.4844 87.1562 C34.8594 87.1562 35.6875 87.9844 35.6875 89.2031 C35.6875 90.3906 34.8125 91.125 33.5938 91.125 C32.4375 91.125 31.6562 90.5781 31.0469 89.9375 L30.4062 90.7812 C31.0781 91.5156 32.0938 92.1875 33.7031 92.1875 ZM40.9418 86.2656 C41.3168 85.0938 41.645 83.9844 41.9731 82.7812 L42.02 82.7812 C42.3637 83.9844 42.6762 85.0938 43.0668 86.2656 L43.5512 87.8281 L40.4418 87.8281 L40.9418 86.2656 ZM37.8168 92 L39.1293 92 L40.1293 88.8594 L43.8793 88.8594 L44.8481 92 L46.2231 92 L42.7387 81.7188 L41.3012 81.7188 L37.8168 92 ZM50.5492 92.1875 C51.4554 92.1875 52.3304 91.8281 53.0179 91.2188 L52.4554 90.3594 C51.9867 90.7969 51.3617 91.125 50.6586 91.125 C49.2679 91.125 48.3148 89.9531 48.3148 88.2031 C48.3148 86.4531 49.3148 85.2656 50.7054 85.2656 C51.3148 85.2656 51.7679 85.5469 52.2211 85.9375 L52.8773 85.0938 C52.3304 84.625 51.6429 84.2031 50.6429 84.2031 C48.7054 84.2031 46.9867 85.6719 46.9867 88.2031 C46.9867 90.7188 48.5336 92.1875 50.5492 92.1875 Z"
    /></g
    ><g style="fill:white; text-rendering:optimizeSpeed; font-family:'Serif'; stroke:white;"
    ><rect x="73" width="6" height="9" y="67" style="stroke:none;"
      /><path d="M74.4219 75.0938 C75.0781 74.375 75.7031 73.7188 76.0312 73.3438 C77.9219 71.3125 78.5312 70.4688 78.5312 69.3594 C78.5312 68.0156 77.7812 67.0781 76.1562 67.0781 C74.9062 67.0781 73.7969 67.7031 73.5938 68.9688 C73.7188 69.2031 73.9062 69.3438 74.1562 69.3438 C74.4688 69.3438 74.6562 69.1094 74.7969 68.5938 L75.0938 67.6719 C75.3906 67.5938 75.6562 67.5625 75.8906 67.5625 C76.9219 67.5625 77.5469 68.3125 77.5469 69.4219 C77.5469 70.4375 76.9844 71.4219 75.7031 72.9062 C75.125 73.5781 74.3906 74.4375 73.6406 75.2812 L73.6406 76 L78.9219 76 L78.9219 75.0938 L74.4219 75.0938 Z" style="fill:black; stroke:none;"
      /><rect x="58" width="8" height="8" y="68" style="stroke:none;"
      /><path d="M62.9844 73.7031 C62.9375 74.8906 62.1562 75.6562 61.3125 75.6562 C60.2656 75.6562 59.5 74.6875 59.5 72.7188 C59.5 71.2812 60.1562 70.1562 61.3438 70.1562 C62.1406 70.1562 62.7812 70.6875 63.0938 71.6406 L62.9844 73.7031 ZM64.9062 75.2812 C64.7344 75.375 64.5469 75.4219 64.3438 75.4219 C63.9531 75.4219 63.75 75.2188 63.75 74.4219 C63.75 73.4844 63.9688 71.5312 64.1875 69.8281 L64.0312 69.7188 L63.2344 69.9219 L63.1406 70.7969 C62.7812 70.0312 62.1562 69.6562 61.3906 69.6562 C60.0469 69.6562 58.5625 70.8438 58.5625 72.9531 C58.5625 75.0938 59.7188 76.1719 61.1406 76.1719 C62.0156 76.1719 62.6875 75.8125 63.0938 74.9844 C63.2031 75.8594 63.5156 76.1719 64.0156 76.1719 C64.4688 76.1719 64.7969 75.9062 65.0156 75.5625 L64.9062 75.2812 Z" style="fill:black; stroke:none;"
      /><rect x="125" width="6" height="10" y="67" style="stroke:none;"
      /><path d="M127.2344 68.6562 C127.5156 68.5938 127.7656 68.5625 128.0156 68.5625 C129.0625 68.5625 129.6719 69.1719 129.6719 70.2656 C129.6719 71.4375 128.9062 72.1094 127.7031 72.1094 L127.1875 72.1094 L127.1875 72.6406 L127.7969 72.6406 C129.2188 72.6406 129.9062 73.4219 129.9062 74.6406 C129.9062 75.8438 129.1719 76.6875 127.875 76.6875 C127.6094 76.6875 127.3125 76.6562 127.0156 76.5625 L126.7812 75.8125 C126.625 75.2812 126.5 75.0469 126.1406 75.0469 C125.8906 75.0469 125.7031 75.1719 125.5781 75.4219 C125.8438 76.6406 126.7812 77.1719 128.0312 77.1719 C129.7188 77.1719 130.875 76.125 130.875 74.7031 C130.875 73.5 130.2031 72.625 128.7969 72.375 C129.9531 72.0156 130.6094 71.2031 130.6094 70.2031 C130.6094 68.9219 129.6719 68.0781 128.1875 68.0781 C127.0469 68.0781 126.0625 68.5938 125.7969 69.6875 C125.9062 70 126.1094 70.1094 126.3594 70.1094 C126.7344 70.1094 126.8906 69.8906 127 69.4062 L127.2344 68.6562 Z" style="fill:black; stroke:none;"
      /><rect x="110" width="8" height="8" y="68" style="stroke:none;"
      /><path d="M114.9844 73.7031 C114.9375 74.8906 114.1562 75.6562 113.3125 75.6562 C112.2656 75.6562 111.5 74.6875 111.5 72.7188 C111.5 71.2812 112.1562 70.1562 113.3438 70.1562 C114.1406 70.1562 114.7812 70.6875 115.0938 71.6406 L114.9844 73.7031 ZM116.9062 75.2812 C116.7344 75.375 116.5469 75.4219 116.3438 75.4219 C115.9531 75.4219 115.75 75.2188 115.75 74.4219 C115.75 73.4844 115.9688 71.5312 116.1875 69.8281 L116.0312 69.7188 L115.2344 69.9219 L115.1406 70.7969 C114.7812 70.0312 114.1562 69.6562 113.3906 69.6562 C112.0469 69.6562 110.5625 70.8438 110.5625 72.9531 C110.5625 75.0938 111.7188 76.1719 113.1406 76.1719 C114.0156 76.1719 114.6875 75.8125 115.0938 74.9844 C115.2031 75.8594 115.5156 76.1719 116.0156 76.1719 C116.4688 76.1719 116.7969 75.9062 117.0156 75.5625 L116.9062 75.2812 Z" style="fill:black; stroke:none;"
      /><rect x="177" width="6" height="10" y="67" style="stroke:none;"
      /><path d="M179.2344 68.6562 C179.5156 68.5938 179.7656 68.5625 180.0156 68.5625 C181.0625 68.5625 181.6719 69.1719 181.6719 70.2656 C181.6719 71.4375 180.9062 72.1094 179.7031 72.1094 L179.1875 72.1094 L179.1875 72.6406 L179.7969 72.6406 C181.2188 72.6406 181.9062 73.4219 181.9062 74.6406 C181.9062 75.8438 181.1719 76.6875 179.875 76.6875 C179.6094 76.6875 179.3125 76.6562 179.0156 76.5625 L178.7812 75.8125 C178.625 75.2812 178.5 75.0469 178.1406 75.0469 C177.8906 75.0469 177.7031 75.1719 177.5781 75.4219 C177.8438 76.6406 178.7812 77.1719 180.0312 77.1719 C181.7188 77.1719 182.875 76.125 182.875 74.7031 C182.875 73.5 182.2031 72.625 180.7969 72.375 C181.9531 72.0156 182.6094 71.2031 182.6094 70.2031 C182.6094 68.9219 181.6719 68.0781 180.1875 68.0781 C179.0469 68.0781 178.0625 68.5938 177.7969 69.6875 C177.9062 70 178.1094 70.1094 178.3594 70.1094 C178.7344 70.1094 178.8906 69.8906 179 69.4062 L179.2344 68.6562 Z" style="fill:black; stroke:none;"
      /><rect x="162" width="8" height="8" y="68" style="stroke:none;"
      /><path d="M166.9844 73.7031 C166.9375 74.8906 166.1562 75.6562 165.3125 75.6562 C164.2656 75.6562 163.5 74.6875 163.5 72.7188 C163.5 71.2812 164.1562 70.1562 165.3438 70.1562 C166.1406 70.1562 166.7812 70.6875 167.0938 71.6406 L166.9844 73.7031 ZM168.9062 75.2812 C168.7344 75.375 168.5469 75.4219 168.3438 75.4219 C167.9531 75.4219 167.75 75.2188 167.75 74.4219 C167.75 73.4844 167.9688 71.5312 168.1875 69.8281 L168.0312 69.7188 L167.2344 69.9219 L167.1406 70.7969 C166.7812 70.0312 166.1562 69.6562 165.3906 69.6562 C164.0469 69.6562 162.5625 70.8438 162.5625 72.9531 C162.5625 75.0938 163.7188 76.1719 165.1406 76.1719 C166.0156 76.1719 166.6875 75.8125 167.0938 74.9844 C167.2031 75.8594 167.5156 76.1719 168.0156 76.1719 C168.4688 76.1719 168.7969 75.9062 169.0156 75.5625 L168.9062 75.2812 Z" style="fill:black; stroke:none;"
      /><rect x="217" width="6" height="13" y="65" style="stroke:none;"
      /><path d="M219.0938 71.2031 C219.0938 69.6562 219.75 68.8125 220.7969 68.8125 C221.7188 68.8125 222.2656 69.4531 222.2656 70.5156 C222.2656 71.7188 221.5 72.4375 220.1875 72.7031 L220.2969 73.3125 C222.2188 73.2344 222.9375 74.2188 222.9375 75.4375 C222.9375 76.625 222.2344 77.4219 220.9531 77.4219 C220.25 77.4219 219.6562 77.1562 219.0938 76.7188 L219.0938 71.2031 ZM218.2031 77.9062 L218.1094 80.375 L218.2656 80.4844 L219.1562 80.2656 L219.0156 77.0938 C219.5469 77.8438 220.3594 78.1719 221.1719 78.1719 C222.5625 78.1719 223.8594 77.2188 223.8594 75.4844 C223.8594 73.9531 222.875 73.1094 221.125 73 C222.5625 72.6094 223.1875 71.4531 223.1875 70.4844 C223.1875 69.0938 222.1562 68.3125 220.9062 68.3125 C219.2969 68.3125 218.2188 69.5469 218.2188 71.5156 L218.2031 77.9062 Z" style="fill:black; stroke:none;"
    /></g
  ></g
></svg
>
