<?xml version="1.0"?>
<!DOCTYPE svg PUBLIC '-//W3C//DTD SVG 1.0//EN'
          'http://www.w3.org/TR/2001/REC-SVG-20010904/DTD/svg10.dtd'>
<svg xmlns:xlink="http://www.w3.org/1999/xlink" style="fill-opacity:1; color-rendering:auto; color-interpolation:auto; text-rendering:auto; stroke:black; stroke-linecap:square; stroke-miterlimit:10; shape-rendering:auto; stroke-opacity:1; fill:black; stroke-dasharray:none; font-weight:normal; stroke-width:1; font-family:'Dialog'; font-style:normal; stroke-linejoin:miter; font-size:12px; stroke-dashoffset:0; image-rendering:auto;" viewBox="0 0 153 261" xmlns="http://www.w3.org/2000/svg"
><!--Generated by the Batik Graphics2D SVG Generator--><defs id="genericDefs"
  /><g
  ><defs id="defs1"
    ><clipPath clipPathUnits="userSpaceOnUse" id="clipPath1"
      ><path d="M79 220 C79 226.0751 74.0751 231 68 231 C61.9249 231 57 226.0751 57 220 C57 213.9249 61.9249 209 68 209 C74.0751 209 79 213.9249 79 220 Z"
      /></clipPath
      ><clipPath clipPathUnits="userSpaceOnUse" id="clipPath2"
      ><path d="M57 134 L79 134 L79 156 L57 156 L57 134 Z"
      /></clipPath
      ><clipPath clipPathUnits="userSpaceOnUse" id="clipPath3"
      ><path style="fill-rule:evenodd;" d="M68 82 L79 93 L68 104 L57 93 Z"
      /></clipPath
    ></defs
    ><g style="fill:white; text-rendering:optimizeSpeed; stroke:white;"
    ><rect x="0" width="153" height="261" y="0" style="stroke:none;"
      /><circle style="clip-path:url(#clipPath1); stroke:none;" r="11" cx="68" cy="220"
      /><rect x="57" y="209" width="22" style="clip-path:url(#clipPath1); fill:rgb(0,166,81); stroke:none;" height="22"
      /><rect x="57" y="209" width="22" style="clip-path:url(#clipPath1); fill:none; stroke:black;" height="22"
      /><circle style="fill:none; stroke:black;" r="11" cx="68" cy="220"
    /></g
    ><g style="font-style:italic; text-rendering:optimizeSpeed; font-size:10px; font-family:'SansSerif';"
    ><path style="stroke:none;" d="M68 222.125 C69.3281 222.125 70.7344 221.0938 71.125 219.2969 C71.5 217.4844 70.5469 216.4375 69.2188 216.4375 C67.8906 216.4375 66.4688 217.4844 66.0938 219.2969 C65.7031 221.0938 66.6719 222.125 68 222.125 ZM68.1719 221.375 C67.2344 221.375 66.7656 220.5469 67.0312 219.2969 C67.2969 218.0469 68.1094 217.1875 69.0469 217.1875 C69.9844 217.1875 70.4531 218.0469 70.1875 219.2969 C69.9219 220.5469 69.1094 221.375 68.1719 221.375 Z"
    /></g
    ><g style="fill:white; text-rendering:optimizeSpeed; font-size:14px; font-family:'SansSerif'; stroke:white;"
    ><rect x="31" width="73" height="14" y="189" style="stroke:none;"
      /><path d="M31.6094 204 L38.0625 204 L38.0625 202.8906 L35.2344 202.8906 C34.7031 202.8906 34.0781 202.9531 33.5469 202.9844 C35.9531 200.7031 37.5625 198.625 37.5625 196.5781 C37.5625 194.75 36.4219 193.5469 34.5781 193.5469 C33.2812 193.5469 32.4062 194.1406 31.5625 195.0469 L32.2969 195.7812 C32.8594 195.1094 33.5938 194.5938 34.4375 194.5938 C35.7031 194.5938 36.3125 195.4531 36.3125 196.625 C36.3125 198.3906 34.8438 200.4375 31.6094 203.25 L31.6094 204 ZM39.8168 206.6562 C41.0825 206.125 41.8637 205.0781 41.8637 203.7344 C41.8637 202.7969 41.4575 202.2188 40.7856 202.2188 C40.27 202.2188 39.8168 202.5781 39.8168 203.125 C39.8168 203.7031 40.27 204.0156 40.7543 204.0156 C40.8168 204.0156 40.8637 204.0156 40.9106 204 C40.9106 204.8281 40.395 205.5156 39.5043 205.9062 L39.8168 206.6562 ZM46.3182 204.1875 C48.0526 204.1875 49.6776 202.9062 49.6776 200.6562 C49.6776 198.4062 48.287 197.3906 46.5838 197.3906 C45.9588 197.3906 45.5213 197.5469 45.0526 197.7969 L45.3026 194.8281 L49.1932 194.8281 L49.1932 193.7188 L44.1932 193.7188 L43.8651 198.5469 L44.5526 198.9531 C45.1463 198.5625 45.5682 198.3594 46.2557 198.3594 C47.5526 198.3594 48.3807 199.2188 48.3807 200.7031 C48.3807 202.1875 47.412 203.125 46.2088 203.125 C45.0213 203.125 44.2713 202.5781 43.6776 201.9844 L43.0526 202.8281 C43.7401 203.5156 44.7245 204.1875 46.3182 204.1875 ZM53.6038 198.2656 C53.9788 197.0938 54.3069 195.9844 54.6351 194.7812 L54.6819 194.7812 C55.0257 195.9844 55.3382 197.0938 55.7288 198.2656 L56.2132 199.8281 L53.1038 199.8281 L53.6038 198.2656 ZM50.4788 204 L51.7913 204 L52.7913 200.8594 L56.5413 200.8594 L57.5101 204 L58.8851 204 L55.4007 193.7188 L53.9632 193.7188 L50.4788 204 ZM60.2112 204 L61.4924 204 L61.4924 198.4844 C62.258 197.7188 62.7893 197.3281 63.5705 197.3281 C64.5862 197.3281 65.0237 197.9219 65.0237 199.3594 L65.0237 204 L66.2893 204 L66.2893 199.1875 C66.2893 197.2344 65.5705 196.2031 63.9768 196.2031 C62.9299 196.2031 62.1487 196.7812 61.4143 197.4844 L61.383 197.4844 L61.2737 196.3906 L60.2112 196.3906 L60.2112 204 ZM68.7651 204 L70.0464 204 L70.0464 198.4844 C70.812 197.7188 71.3432 197.3281 72.1245 197.3281 C73.1401 197.3281 73.5776 197.9219 73.5776 199.3594 L73.5776 204 L74.8432 204 L74.8432 199.1875 C74.8432 197.2344 74.1245 196.2031 72.5307 196.2031 C71.4839 196.2031 70.7026 196.7812 69.9995 197.4688 L70.0464 195.9062 L70.0464 192.8594 L68.7651 192.8594 L68.7651 204 ZM77.3881 207.2812 C78.9037 207.2812 79.7006 206.125 80.2162 204.625 L83.0912 196.3906 L81.8412 196.3906 L80.4975 200.625 C80.2787 201.2969 80.06 202.0625 79.8412 202.75 L79.7787 202.75 C79.5443 202.0625 79.2787 201.2812 79.0443 200.625 L77.4975 196.3906 L76.1693 196.3906 L79.2162 204.0156 L79.0443 204.5938 C78.7475 205.5312 78.2006 206.2188 77.3256 206.2188 C77.1225 206.2188 76.9037 206.1562 76.7475 206.0938 L76.4975 207.125 C76.7318 207.2188 77.0287 207.2812 77.3881 207.2812 ZM87.1508 204.1875 C88.0571 204.1875 88.8696 203.6875 89.4633 203.1094 L89.5102 203.1094 L89.6196 204 L90.6508 204 L90.6508 192.8594 L89.4008 192.8594 L89.4008 195.7812 L89.4477 197.0938 C88.7758 196.5312 88.1977 196.2031 87.3071 196.2031 C85.5727 196.2031 84.0102 197.7344 84.0102 200.2031 C84.0102 202.7344 85.2446 204.1875 87.1508 204.1875 ZM87.4321 203.125 C86.0883 203.125 85.3383 202.0312 85.3383 200.1875 C85.3383 198.4531 86.3071 197.2812 87.5258 197.2812 C88.1664 197.2812 88.7289 197.5 89.4008 198.0781 L89.4008 202.0625 C88.7446 202.7656 88.1352 203.125 87.4321 203.125 ZM93.237 204 L94.5183 204 L94.5183 199.1094 C95.0183 197.8125 95.7995 197.3594 96.4402 197.3594 C96.737 197.3594 96.9245 197.3906 97.1745 197.4844 L97.4089 196.375 C97.1745 196.25 96.9402 196.2031 96.5964 196.2031 C95.7527 196.2031 94.987 196.8125 94.4402 197.7812 L94.4089 197.7812 L94.2995 196.3906 L93.237 196.3906 L93.237 204 ZM101.6221 204.1875 C103.4971 204.1875 105.1534 202.7188 105.1534 200.2031 C105.1534 197.6719 103.4971 196.2031 101.6221 196.2031 C99.7628 196.2031 98.1065 197.6719 98.1065 200.2031 C98.1065 202.7188 99.7628 204.1875 101.6221 204.1875 ZM101.6221 203.125 C100.3096 203.125 99.4346 201.9531 99.4346 200.2031 C99.4346 198.4531 100.3096 197.2656 101.6221 197.2656 C102.9503 197.2656 103.8409 198.4531 103.8409 200.2031 C103.8409 201.9531 102.9503 203.125 101.6221 203.125 Z" style="fill:black; stroke:none;"
      /><rect x="111" width="5" height="10" y="207" style="stroke:none;"
    /></g
    ><g style="font-family:'Serif'; text-rendering:optimizeSpeed; "
    ><path style="stroke:none;" d="M112.8906 215.6875 C112.4844 215.6875 112.1562 216.0469 112.1562 216.4219 C112.1562 216.8125 112.4844 217.1562 112.8906 217.1562 C113.2969 217.1562 113.6406 216.8125 113.6406 216.4219 C113.6406 216.0469 113.2969 215.6875 112.8906 215.6875 ZM114.4688 209.5781 C114.7188 209.8906 114.875 210.2656 114.8906 210.6562 C114.8906 211.1875 114.625 211.5 114.0312 211.7656 L113.4062 212.0156 C112.6406 212.3125 112.3906 212.5469 112.3906 212.9375 C112.3906 213.1094 112.4531 213.3438 112.5781 213.8125 L112.7344 214.3438 L113.1094 214.3438 L113.0938 213.5312 C113.0938 213.0938 113.2031 212.9688 113.7812 212.7344 L114.2031 212.5625 C115.0312 212.2188 115.4531 211.6875 115.4531 210.8438 C115.4531 209.1562 113.6562 208.1875 112.5 208.0312 C112.1094 208.125 111.9062 208.2969 111.9062 208.6406 C111.9062 208.9375 112.0625 209.1562 112.7188 209.2656 L114.4688 209.5781 Z"
      /><rect x="111" y="223" width="5" style="fill:white; stroke:none;" height="10"
      /><path style="stroke:none;" d="M112.8906 231.6875 C112.4844 231.6875 112.1562 232.0469 112.1562 232.4219 C112.1562 232.8125 112.4844 233.1562 112.8906 233.1562 C113.2969 233.1562 113.6406 232.8125 113.6406 232.4219 C113.6406 232.0469 113.2969 231.6875 112.8906 231.6875 ZM114.4688 225.5781 C114.7188 225.8906 114.875 226.2656 114.8906 226.6562 C114.8906 227.1875 114.625 227.5 114.0312 227.7656 L113.4062 228.0156 C112.6406 228.3125 112.3906 228.5469 112.3906 228.9375 C112.3906 229.1094 112.4531 229.3438 112.5781 229.8125 L112.7344 230.3438 L113.1094 230.3438 L113.0938 229.5312 C113.0938 229.0938 113.2031 228.9688 113.7812 228.7344 L114.2031 228.5625 C115.0312 228.2188 115.4531 227.6875 115.4531 226.8438 C115.4531 225.1562 113.6562 224.1875 112.5 224.0312 C112.1094 224.125 111.9062 224.2969 111.9062 224.6406 C111.9062 224.9375 112.0625 225.1562 112.7188 225.2656 L114.4688 225.5781 Z"
      /><rect x="57" y="134" width="22" style="clip-path:url(#clipPath2); fill:white; stroke:none;" height="22"
      /><polygon style="fill:rgb(0,144,188); clip-path:url(#clipPath2); stroke:none;" points=" 57 134 79 134 79 156"
      /><polygon style="fill:none; clip-path:url(#clipPath2);" points=" 57 134 79 134 79 156"
      /><rect x="57" width="22" height="22" y="134" style="fill:none;"
      /><rect x="84" y="132" width="5" style="fill:white; stroke:none;" height="10"
      /><path style="stroke:none;" d="M85.8906 140.6875 C85.4844 140.6875 85.1562 141.0469 85.1562 141.4219 C85.1562 141.8125 85.4844 142.1562 85.8906 142.1562 C86.2969 142.1562 86.6406 141.8125 86.6406 141.4219 C86.6406 141.0469 86.2969 140.6875 85.8906 140.6875 ZM87.4688 134.5781 C87.7188 134.8906 87.875 135.2656 87.8906 135.6562 C87.8906 136.1875 87.625 136.5 87.0312 136.7656 L86.4062 137.0156 C85.6406 137.3125 85.3906 137.5469 85.3906 137.9375 C85.3906 138.1094 85.4531 138.3438 85.5781 138.8125 L85.7344 139.3438 L86.1094 139.3438 L86.0938 138.5312 C86.0938 138.0938 86.2031 137.9688 86.7812 137.7344 L87.2031 137.5625 C88.0312 137.2188 88.4531 136.6875 88.4531 135.8438 C88.4531 134.1562 86.6562 133.1875 85.5 133.0312 C85.1094 133.125 84.9062 133.2969 84.9062 133.6406 C84.9062 133.9375 85.0625 134.1562 85.7188 134.2656 L87.4688 134.5781 Z"
      /><rect x="84" y="148" width="5" style="fill:white; stroke:none;" height="10"
      /><path style="stroke:none;" d="M85.8906 156.6875 C85.4844 156.6875 85.1562 157.0469 85.1562 157.4219 C85.1562 157.8125 85.4844 158.1562 85.8906 158.1562 C86.2969 158.1562 86.6406 157.8125 86.6406 157.4219 C86.6406 157.0469 86.2969 156.6875 85.8906 156.6875 ZM87.4688 150.5781 C87.7188 150.8906 87.875 151.2656 87.8906 151.6562 C87.8906 152.1875 87.625 152.5 87.0312 152.7656 L86.4062 153.0156 C85.6406 153.3125 85.3906 153.5469 85.3906 153.9375 C85.3906 154.1094 85.4531 154.3438 85.5781 154.8125 L85.7344 155.3438 L86.1094 155.3438 L86.0938 154.5312 C86.0938 154.0938 86.2031 153.9688 86.7812 153.7344 L87.2031 153.5625 C88.0312 153.2188 88.4531 152.6875 88.4531 151.8438 C88.4531 150.1562 86.6562 149.1875 85.5 149.0312 C85.1094 149.125 84.9062 149.2969 84.9062 149.6406 C84.9062 149.9375 85.0625 150.1562 85.7188 150.2656 L87.4688 150.5781 Z"
      /><polygon style="fill:white; clip-path:url(#clipPath3); stroke:none;" points=" 68 82 79 93 68 104 57 93"
      /><rect x="57" y="93" width="22" style="clip-path:url(#clipPath3); fill:rgb(161,122,77); stroke:none;" height="11"
      /><rect x="57" y="93" width="22" style="fill:none; clip-path:url(#clipPath3);" height="11"
      /><polygon style="fill:none;" points=" 68 82 79 93 68 104 57 93"
      /><rect x="84" y="80" width="5" style="fill:white; stroke:none;" height="10"
      /><path style="stroke:none;" d="M85.8906 88.6875 C85.4844 88.6875 85.1562 89.0469 85.1562 89.4219 C85.1562 89.8125 85.4844 90.1562 85.8906 90.1562 C86.2969 90.1562 86.6406 89.8125 86.6406 89.4219 C86.6406 89.0469 86.2969 88.6875 85.8906 88.6875 ZM87.4688 82.5781 C87.7188 82.8906 87.875 83.2656 87.8906 83.6562 C87.8906 84.1875 87.625 84.5 87.0312 84.7656 L86.4062 85.0156 C85.6406 85.3125 85.3906 85.5469 85.3906 85.9375 C85.3906 86.1094 85.4531 86.3438 85.5781 86.8125 L85.7344 87.3438 L86.1094 87.3438 L86.0938 86.5312 C86.0938 86.0938 86.2031 85.9688 86.7812 85.7344 L87.2031 85.5625 C88.0312 85.2188 88.4531 84.6875 88.4531 83.8438 C88.4531 82.1562 86.6562 81.1875 85.5 81.0312 C85.1094 81.125 84.9062 81.2969 84.9062 81.6406 C84.9062 81.9375 85.0625 82.1562 85.7188 82.2656 L87.4688 82.5781 Z"
      /><rect x="84" y="96" width="5" style="fill:white; stroke:none;" height="10"
      /><path style="stroke:none;" d="M85.8906 104.6875 C85.4844 104.6875 85.1562 105.0469 85.1562 105.4219 C85.1562 105.8125 85.4844 106.1562 85.8906 106.1562 C86.2969 106.1562 86.6406 105.8125 86.6406 105.4219 C86.6406 105.0469 86.2969 104.6875 85.8906 104.6875 ZM87.4688 98.5781 C87.7188 98.8906 87.875 99.2656 87.8906 99.6562 C87.8906 100.1875 87.625 100.5 87.0312 100.7656 L86.4062 101.0156 C85.6406 101.3125 85.3906 101.5469 85.3906 101.9375 C85.3906 102.1094 85.4531 102.3438 85.5781 102.8125 L85.7344 103.3438 L86.1094 103.3438 L86.0938 102.5312 C86.0938 102.0938 86.2031 101.9688 86.7812 101.7344 L87.2031 101.5625 C88.0312 101.2188 88.4531 100.6875 88.4531 99.8438 C88.4531 98.1562 86.6562 97.1875 85.5 97.0312 C85.1094 97.125 84.9062 97.2969 84.9062 97.6406 C84.9062 97.9375 85.0625 98.1562 85.7188 98.2656 L87.4688 98.5781 Z"
    /></g
    ><g style="fill:white; text-rendering:optimizeSpeed; font-size:14px; font-family:'SansSerif'; stroke:white;"
    ><rect x="61" width="13" height="10" y="35" style="stroke:none;"
      /><path d="M63.4844 42.9062 L64.625 42.9062 C64.375 40.7031 66.8906 39.875 66.8906 37.8281 C66.8906 36.2969 65.8594 35.3281 64.2812 35.3281 C63.1406 35.3281 62.25 35.875 61.6094 36.625 L62.3281 37.2969 C62.8125 36.7344 63.4375 36.3906 64.1406 36.3906 C65.125 36.3906 65.6406 37.0625 65.6406 37.9062 C65.6406 39.5781 63.1719 40.4688 63.4844 42.9062 ZM64.0938 46.1875 C64.6094 46.1875 65.0312 45.7969 65.0312 45.2188 C65.0312 44.625 64.6094 44.2188 64.0938 44.2188 C63.5938 44.2188 63.1719 44.625 63.1719 45.2188 C63.1719 45.7969 63.5938 46.1875 64.0938 46.1875 ZM71.886 46.1875 C74.0266 46.1875 75.3703 44.8906 75.3703 43.2656 C75.3703 41.75 74.4485 41.0469 73.261 40.5312 L71.7922 39.8906 C70.9953 39.5625 70.1047 39.1875 70.1047 38.1875 C70.1047 37.2656 70.8547 36.6719 72.011 36.6719 C72.9641 36.6719 73.7297 37.0469 74.3547 37.6406 L75.0422 36.8125 C74.3078 36.0625 73.2297 35.5469 72.011 35.5469 C70.1516 35.5469 68.7766 36.6875 68.7766 38.2656 C68.7766 39.7656 69.9172 40.5 70.8703 40.9062 L72.3547 41.5469 C73.3235 41.9844 74.0578 42.3125 74.0578 43.375 C74.0578 44.375 73.2453 45.0469 71.9016 45.0469 C70.8391 45.0469 69.8078 44.5469 69.0735 43.7812 L68.2922 44.6562 C69.1828 45.5938 70.4328 46.1875 71.886 46.1875 Z" style="fill:black; stroke:none;"
    /></g
  ></g
></svg
>
