<?xml version="1.0"?>
<!DOCTYPE svg PUBLIC '-//W3C//DTD SVG 1.0//EN'
          'http://www.w3.org/TR/2001/REC-SVG-20010904/DTD/svg10.dtd'>
<svg xmlns:xlink="http://www.w3.org/1999/xlink" style="fill-opacity:1; color-rendering:auto; color-interpolation:auto; text-rendering:auto; stroke:black; stroke-linecap:square; stroke-miterlimit:10; shape-rendering:auto; stroke-opacity:1; fill:black; stroke-dasharray:none; font-weight:normal; stroke-width:1; font-family:'Dialog'; font-style:normal; stroke-linejoin:miter; font-size:12px; stroke-dashoffset:0; image-rendering:auto;" viewBox="0 0 158 290" xmlns="http://www.w3.org/2000/svg"
><!--Generated by the Batik Graphics2D SVG Generator--><defs id="genericDefs"
  /><g
  ><defs id="defs1"
    ><clipPath clipPathUnits="userSpaceOnUse" id="clipPath1"
      ><path style="fill-rule:evenodd;" d="M73 238 L84 260 L62 260 Z"
      /></clipPath
      ><clipPath clipPathUnits="userSpaceOnUse" id="clipPath2"
      ><path d="M62 186 L84 186 L84 208 L62 208 L62 186 Z"
      /></clipPath
      ><clipPath clipPathUnits="userSpaceOnUse" id="clipPath3"
      ><path d="M84 145 C84 151.0751 79.0751 156 73 156 C66.9249 156 62 151.0751 62 145 C62 138.9249 66.9249 134 73 134 C79.0751 134 84 138.9249 84 145 Z"
      /></clipPath
      ><clipPath clipPathUnits="userSpaceOnUse" id="clipPath4"
      ><path style="fill-rule:evenodd;" d="M73 82 L75 89 L83 89 L76 94 L79 101 L73 97 L66 101 L69 94 L62 89 L70 89 L73 82 Z"
      /></clipPath
    ></defs
    ><g style="fill:white; text-rendering:optimizeSpeed; stroke:white;"
    ><rect x="0" width="158" height="290" y="0" style="stroke:none;"
      /><polygon style="clip-path:url(#clipPath1); stroke:none;" points=" 73 238 84 260 62 260"
      /><rect x="62" y="238" width="22" style="clip-path:url(#clipPath1); fill:rgb(0,166,81); stroke:none;" height="22"
      /><rect x="62" y="238" width="22" style="clip-path:url(#clipPath1); fill:none; stroke:black;" height="22"
      /><polygon style="fill:none; stroke:black;" points=" 73 238 84 260 62 260"
      /><rect x="89" y="236" width="5" style="stroke:none;" height="10"
    /></g
    ><g style="font-family:'Serif'; text-rendering:optimizeSpeed; "
    ><path style="stroke:none;" d="M90.8906 244.6875 C90.4844 244.6875 90.1562 245.0469 90.1562 245.4219 C90.1562 245.8125 90.4844 246.1562 90.8906 246.1562 C91.2969 246.1562 91.6406 245.8125 91.6406 245.4219 C91.6406 245.0469 91.2969 244.6875 90.8906 244.6875 ZM92.4688 238.5781 C92.7188 238.8906 92.875 239.2656 92.8906 239.6562 C92.8906 240.1875 92.625 240.5 92.0312 240.7656 L91.4062 241.0156 C90.6406 241.3125 90.3906 241.5469 90.3906 241.9375 C90.3906 242.1094 90.4531 242.3438 90.5781 242.8125 L90.7344 243.3438 L91.1094 243.3438 L91.0938 242.5312 C91.0938 242.0938 91.2031 241.9688 91.7812 241.7344 L92.2031 241.5625 C93.0312 241.2188 93.4531 240.6875 93.4531 239.8438 C93.4531 238.1562 91.6562 237.1875 90.5 237.0312 C90.1094 237.125 89.9062 237.2969 89.9062 237.6406 C89.9062 237.9375 90.0625 238.1562 90.7188 238.2656 L92.4688 238.5781 Z"
      /><rect x="89" y="252" width="5" style="fill:white; stroke:none;" height="10"
      /><path style="stroke:none;" d="M90.8906 260.6875 C90.4844 260.6875 90.1562 261.0469 90.1562 261.4219 C90.1562 261.8125 90.4844 262.1562 90.8906 262.1562 C91.2969 262.1562 91.6406 261.8125 91.6406 261.4219 C91.6406 261.0469 91.2969 260.6875 90.8906 260.6875 ZM92.4688 254.5781 C92.7188 254.8906 92.875 255.2656 92.8906 255.6562 C92.8906 256.1875 92.625 256.5 92.0312 256.7656 L91.4062 257.0156 C90.6406 257.3125 90.3906 257.5469 90.3906 257.9375 C90.3906 258.1094 90.4531 258.3438 90.5781 258.8125 L90.7344 259.3438 L91.1094 259.3438 L91.0938 258.5312 C91.0938 258.0938 91.2031 257.9688 91.7812 257.7344 L92.2031 257.5625 C93.0312 257.2188 93.4531 256.6875 93.4531 255.8438 C93.4531 254.1562 91.6562 253.1875 90.5 253.0312 C90.1094 253.125 89.9062 253.2969 89.9062 253.6406 C89.9062 253.9375 90.0625 254.1562 90.7188 254.2656 L92.4688 254.5781 Z"
      /><rect x="62" y="186" width="22" style="clip-path:url(#clipPath2); fill:white; stroke:none;" height="22"
      /><polygon style="fill:rgb(0,144,188); clip-path:url(#clipPath2); stroke:none;" points=" 62 186 84 186 84 208"
      /><polygon style="fill:none; clip-path:url(#clipPath2);" points=" 62 186 84 186 84 208"
      /><rect x="62" width="22" height="22" y="186" style="fill:none;"
      /><rect x="89" y="184" width="5" style="fill:white; stroke:none;" height="10"
      /><path style="stroke:none;" d="M90.8906 192.6875 C90.4844 192.6875 90.1562 193.0469 90.1562 193.4219 C90.1562 193.8125 90.4844 194.1562 90.8906 194.1562 C91.2969 194.1562 91.6406 193.8125 91.6406 193.4219 C91.6406 193.0469 91.2969 192.6875 90.8906 192.6875 ZM92.4688 186.5781 C92.7188 186.8906 92.875 187.2656 92.8906 187.6562 C92.8906 188.1875 92.625 188.5 92.0312 188.7656 L91.4062 189.0156 C90.6406 189.3125 90.3906 189.5469 90.3906 189.9375 C90.3906 190.1094 90.4531 190.3438 90.5781 190.8125 L90.7344 191.3438 L91.1094 191.3438 L91.0938 190.5312 C91.0938 190.0938 91.2031 189.9688 91.7812 189.7344 L92.2031 189.5625 C93.0312 189.2188 93.4531 188.6875 93.4531 187.8438 C93.4531 186.1562 91.6562 185.1875 90.5 185.0312 C90.1094 185.125 89.9062 185.2969 89.9062 185.6406 C89.9062 185.9375 90.0625 186.1562 90.7188 186.2656 L92.4688 186.5781 Z"
      /><rect x="89" y="200" width="5" style="fill:white; stroke:none;" height="10"
      /><path style="stroke:none;" d="M90.8906 208.6875 C90.4844 208.6875 90.1562 209.0469 90.1562 209.4219 C90.1562 209.8125 90.4844 210.1562 90.8906 210.1562 C91.2969 210.1562 91.6406 209.8125 91.6406 209.4219 C91.6406 209.0469 91.2969 208.6875 90.8906 208.6875 ZM92.4688 202.5781 C92.7188 202.8906 92.875 203.2656 92.8906 203.6562 C92.8906 204.1875 92.625 204.5 92.0312 204.7656 L91.4062 205.0156 C90.6406 205.3125 90.3906 205.5469 90.3906 205.9375 C90.3906 206.1094 90.4531 206.3438 90.5781 206.8125 L90.7344 207.3438 L91.1094 207.3438 L91.0938 206.5312 C91.0938 206.0938 91.2031 205.9688 91.7812 205.7344 L92.2031 205.5625 C93.0312 205.2188 93.4531 204.6875 93.4531 203.8438 C93.4531 202.1562 91.6562 201.1875 90.5 201.0312 C90.1094 201.125 89.9062 201.2969 89.9062 201.6406 C89.9062 201.9375 90.0625 202.1562 90.7188 202.2656 L92.4688 202.5781 Z"
      /><circle style="fill:white; clip-path:url(#clipPath3); stroke:none;" r="11" cx="73" cy="145"
      /><rect x="62" y="134" width="22" style="clip-path:url(#clipPath3); fill:rgb(0,166,81); stroke:none;" height="22"
      /><rect x="62" y="134" width="22" style="fill:none; clip-path:url(#clipPath3);" height="22"
      /><circle r="11" style="fill:none;" cx="73" cy="145"
      /><rect x="89" y="132" width="5" style="fill:white; stroke:none;" height="10"
      /><path style="stroke:none;" d="M90.8906 140.6875 C90.4844 140.6875 90.1562 141.0469 90.1562 141.4219 C90.1562 141.8125 90.4844 142.1562 90.8906 142.1562 C91.2969 142.1562 91.6406 141.8125 91.6406 141.4219 C91.6406 141.0469 91.2969 140.6875 90.8906 140.6875 ZM92.4688 134.5781 C92.7188 134.8906 92.875 135.2656 92.8906 135.6562 C92.8906 136.1875 92.625 136.5 92.0312 136.7656 L91.4062 137.0156 C90.6406 137.3125 90.3906 137.5469 90.3906 137.9375 C90.3906 138.1094 90.4531 138.3438 90.5781 138.8125 L90.7344 139.3438 L91.1094 139.3438 L91.0938 138.5312 C91.0938 138.0938 91.2031 137.9688 91.7812 137.7344 L92.2031 137.5625 C93.0312 137.2188 93.4531 136.6875 93.4531 135.8438 C93.4531 134.1562 91.6562 133.1875 90.5 133.0312 C90.1094 133.125 89.9062 133.2969 89.9062 133.6406 C89.9062 133.9375 90.0625 134.1562 90.7188 134.2656 L92.4688 134.5781 Z"
      /><rect x="89" y="148" width="5" style="fill:white; stroke:none;" height="10"
      /><path style="stroke:none;" d="M90.8906 156.6875 C90.4844 156.6875 90.1562 157.0469 90.1562 157.4219 C90.1562 157.8125 90.4844 158.1562 90.8906 158.1562 C91.2969 158.1562 91.6406 157.8125 91.6406 157.4219 C91.6406 157.0469 91.2969 156.6875 90.8906 156.6875 ZM92.4688 150.5781 C92.7188 150.8906 92.875 151.2656 92.8906 151.6562 C92.8906 152.1875 92.625 152.5 92.0312 152.7656 L91.4062 153.0156 C90.6406 153.3125 90.3906 153.5469 90.3906 153.9375 C90.3906 154.1094 90.4531 154.3438 90.5781 154.8125 L90.7344 155.3438 L91.1094 155.3438 L91.0938 154.5312 C91.0938 154.0938 91.2031 153.9688 91.7812 153.7344 L92.2031 153.5625 C93.0312 153.2188 93.4531 152.6875 93.4531 151.8438 C93.4531 150.1562 91.6562 149.1875 90.5 149.0312 C90.1094 149.125 89.9062 149.2969 89.9062 149.6406 C89.9062 149.9375 90.0625 150.1562 90.7188 150.2656 L92.4688 150.5781 Z"
      /><path style="stroke:none;" d="M45.6094 145.1562 L47.9531 141.6562 C48.2344 141.1406 48.5156 140.6406 48.7812 140.1406 L48.8281 140.1406 C48.7969 140.6719 48.7656 141.5 48.7656 142 L48.7656 145.1562 L45.6094 145.1562 ZM48.7656 149 L49.9688 149 L49.9688 146.1719 L51.3281 146.1719 L51.3281 145.1562 L49.9688 145.1562 L49.9688 138.7188 L48.5469 138.7188 L44.2812 145.3281 L44.2812 146.1719 L48.7656 146.1719 L48.7656 149 ZM51.9731 149 L53.3168 149 L54.3481 147.2188 C54.6137 146.7656 54.8637 146.2969 55.1293 145.8594 L55.2075 145.8594 C55.4731 146.2969 55.7543 146.7656 56.0043 147.2188 L57.1293 149 L58.5356 149 L56.02 145.1562 L58.3325 141.3906 L57.0043 141.3906 L56.0668 143.0625 C55.8481 143.5 55.6137 143.9219 55.3793 144.3438 L55.3325 144.3438 C55.0668 143.9219 54.8012 143.5 54.5668 143.0625 L53.5512 141.3906 L52.1762 141.3906 L54.4887 145.0312 L51.9731 149 Z"
    /></g
    ><g style="fill:white; text-rendering:optimizeSpeed; font-size:14px; font-family:'SansSerif'; stroke:white;"
    ><polygon style="stroke:none; clip-path:url(#clipPath4);" points=" 73 82 75 89 83 89 76 94 79 101 73 97 66 101 69 94 62 89 70 89 73 82"
      /><rect x="62" y="82" width="22" style="clip-path:url(#clipPath4); fill:rgb(244,121,32); stroke:none;" height="22"
      /><rect x="62" y="82" width="22" style="clip-path:url(#clipPath4); fill:none; stroke:black;" height="22"
      /><polygon style="fill:none; stroke:black;" points=" 73 82 75 89 83 89 76 94 79 101 73 97 66 101 69 94 62 89 70 89 73 82"
      /><rect x="89" width="5" height="10" y="80" style="stroke:none;"
    /></g
    ><g style="font-family:'Serif'; text-rendering:optimizeSpeed; "
    ><path style="stroke:none;" d="M90.8906 88.6875 C90.4844 88.6875 90.1562 89.0469 90.1562 89.4219 C90.1562 89.8125 90.4844 90.1562 90.8906 90.1562 C91.2969 90.1562 91.6406 89.8125 91.6406 89.4219 C91.6406 89.0469 91.2969 88.6875 90.8906 88.6875 ZM92.4688 82.5781 C92.7188 82.8906 92.875 83.2656 92.8906 83.6562 C92.8906 84.1875 92.625 84.5 92.0312 84.7656 L91.4062 85.0156 C90.6406 85.3125 90.3906 85.5469 90.3906 85.9375 C90.3906 86.1094 90.4531 86.3438 90.5781 86.8125 L90.7344 87.3438 L91.1094 87.3438 L91.0938 86.5312 C91.0938 86.0938 91.2031 85.9688 91.7812 85.7344 L92.2031 85.5625 C93.0312 85.2188 93.4531 84.6875 93.4531 83.8438 C93.4531 82.1562 91.6562 81.1875 90.5 81.0312 C90.1094 81.125 89.9062 81.2969 89.9062 81.6406 C89.9062 81.9375 90.0625 82.1562 90.7188 82.2656 L92.4688 82.5781 Z"
      /><rect x="89" y="96" width="5" style="fill:white; stroke:none;" height="10"
      /><path style="stroke:none;" d="M90.8906 104.6875 C90.4844 104.6875 90.1562 105.0469 90.1562 105.4219 C90.1562 105.8125 90.4844 106.1562 90.8906 106.1562 C91.2969 106.1562 91.6406 105.8125 91.6406 105.4219 C91.6406 105.0469 91.2969 104.6875 90.8906 104.6875 ZM92.4688 98.5781 C92.7188 98.8906 92.875 99.2656 92.8906 99.6562 C92.8906 100.1875 92.625 100.5 92.0312 100.7656 L91.4062 101.0156 C90.6406 101.3125 90.3906 101.5469 90.3906 101.9375 C90.3906 102.1094 90.4531 102.3438 90.5781 102.8125 L90.7344 103.3438 L91.1094 103.3438 L91.0938 102.5312 C91.0938 102.0938 91.2031 101.9688 91.7812 101.7344 L92.2031 101.5625 C93.0312 101.2188 93.4531 100.6875 93.4531 99.8438 C93.4531 98.1562 91.6562 97.1875 90.5 97.0312 C90.1094 97.125 89.9062 97.2969 89.9062 97.6406 C89.9062 97.9375 90.0625 98.1562 90.7188 98.2656 L92.4688 98.5781 Z"
      /><path style="stroke:none;" d="M44.6094 98 L51.0625 98 L51.0625 96.8906 L48.2344 96.8906 C47.7031 96.8906 47.0781 96.9531 46.5469 96.9844 C48.9531 94.7031 50.5625 92.625 50.5625 90.5781 C50.5625 88.75 49.4219 87.5469 47.5781 87.5469 C46.2812 87.5469 45.4062 88.1406 44.5625 89.0469 L45.2969 89.7812 C45.8594 89.1094 46.5938 88.5938 47.4375 88.5938 C48.7031 88.5938 49.3125 89.4531 49.3125 90.625 C49.3125 92.3906 47.8438 94.4375 44.6094 97.25 L44.6094 98 ZM51.9731 98 L53.3168 98 L54.3481 96.2188 C54.6137 95.7656 54.8637 95.2969 55.1293 94.8594 L55.2075 94.8594 C55.4731 95.2969 55.7543 95.7656 56.0043 96.2188 L57.1293 98 L58.5356 98 L56.02 94.1562 L58.3325 90.3906 L57.0043 90.3906 L56.0668 92.0625 C55.8481 92.5 55.6137 92.9219 55.3793 93.3438 L55.3325 93.3438 C55.0668 92.9219 54.8012 92.5 54.5668 92.0625 L53.5512 90.3906 L52.1762 90.3906 L54.4887 94.0312 L51.9731 98 Z"
    /></g
    ><g style="fill:white; text-rendering:optimizeSpeed; font-size:14px; font-family:'SansSerif'; stroke:white;"
    ><rect x="47" width="35" height="10" y="35" style="stroke:none;"
      /><path d="M49.4844 42.9062 L50.625 42.9062 C50.375 40.7031 52.8906 39.875 52.8906 37.8281 C52.8906 36.2969 51.8594 35.3281 50.2812 35.3281 C49.1406 35.3281 48.25 35.875 47.6094 36.625 L48.3281 37.2969 C48.8125 36.7344 49.4375 36.3906 50.1406 36.3906 C51.125 36.3906 51.6406 37.0625 51.6406 37.9062 C51.6406 39.5781 49.1719 40.4688 49.4844 42.9062 ZM50.0938 46.1875 C50.6094 46.1875 51.0312 45.7969 51.0312 45.2188 C51.0312 44.625 50.6094 44.2188 50.0938 44.2188 C49.5938 44.2188 49.1719 44.625 49.1719 45.2188 C49.1719 45.7969 49.5938 46.1875 50.0938 46.1875 ZM55.0422 46 L56.3391 46 L56.3391 41.9219 L58.0266 41.9219 C60.2922 41.9219 61.8078 40.9219 61.8078 38.75 C61.8078 36.5156 60.2766 35.7188 57.9797 35.7188 L55.0422 35.7188 L55.0422 46 ZM56.3391 40.875 L56.3391 36.7812 L57.8078 36.7812 C59.6203 36.7812 60.5266 37.2656 60.5266 38.75 C60.5266 40.2188 59.6672 40.875 57.8703 40.875 L56.3391 40.875 ZM63.8902 46 L69.9527 46 L69.9527 44.8906 L65.1871 44.8906 L65.1871 41.1562 L69.0777 41.1562 L69.0777 40.0469 L65.1871 40.0469 L65.1871 36.8281 L69.8121 36.8281 L69.8121 35.7188 L63.8902 35.7188 L63.8902 46 ZM74.4034 46.1875 C74.8565 46.1875 75.3565 46.0469 75.794 45.9062 L75.544 44.9531 C75.294 45.0469 74.9503 45.1406 74.6846 45.1406 C73.794 45.1406 73.4971 44.6094 73.4971 43.6719 L73.4971 39.4375 L75.5596 39.4375 L75.5596 38.3906 L73.4971 38.3906 L73.4971 36.25 L72.4346 36.25 L72.2784 38.3906 L71.0909 38.4688 L71.0909 39.4375 L72.2315 39.4375 L72.2315 43.6406 C72.2315 45.1562 72.7784 46.1875 74.4034 46.1875 ZM77.2751 46 L78.5564 46 L78.5564 40.4844 C79.322 39.7188 79.8533 39.3281 80.6345 39.3281 C81.6501 39.3281 82.0876 39.9219 82.0876 41.3594 L82.0876 46 L83.3533 46 L83.3533 41.1875 C83.3533 39.2344 82.6345 38.2031 81.0408 38.2031 C79.9939 38.2031 79.2126 38.7812 78.4783 39.4844 L78.447 39.4844 L78.3376 38.3906 L77.2751 38.3906 L77.2751 46 Z" style="fill:black; stroke:none;"
      /><path d="M29.6094 46 L36.0625 46 L36.0625 44.8906 L33.2344 44.8906 C32.7031 44.8906 32.0781 44.9531 31.5469 44.9844 C33.9531 42.7031 35.5625 40.625 35.5625 38.5781 C35.5625 36.75 34.4219 35.5469 32.5781 35.5469 C31.2812 35.5469 30.4062 36.1406 29.5625 37.0469 L30.2969 37.7812 C30.8594 37.1094 31.5938 36.5938 32.4375 36.5938 C33.7031 36.5938 34.3125 37.4531 34.3125 38.625 C34.3125 40.3906 32.8438 42.4375 29.6094 45.25 L29.6094 46 ZM36.9731 46 L38.3168 46 L39.3481 44.2188 C39.6137 43.7656 39.8637 43.2969 40.1293 42.8594 L40.2075 42.8594 C40.4731 43.2969 40.7543 43.7656 41.0043 44.2188 L42.1293 46 L43.5356 46 L41.02 42.1562 L43.3325 38.3906 L42.0043 38.3906 L41.0668 40.0625 C40.8481 40.5 40.6137 40.9219 40.3793 41.3438 L40.3325 41.3438 C40.0668 40.9219 39.8012 40.5 39.5668 40.0625 L38.5512 38.3906 L37.1762 38.3906 L39.4887 42.0312 L36.9731 46 Z" style="fill:black; stroke:none;"
    /></g
  ></g
></svg
>
