<?xml version="1.0"?>
<!DOCTYPE svg PUBLIC '-//W3C//DTD SVG 1.0//EN'
          'http://www.w3.org/TR/2001/REC-SVG-20010904/DTD/svg10.dtd'>
<svg xmlns:xlink="http://www.w3.org/1999/xlink" style="fill-opacity:1; color-rendering:auto; color-interpolation:auto; text-rendering:auto; stroke:black; stroke-linecap:square; stroke-miterlimit:10; shape-rendering:auto; stroke-opacity:1; fill:black; stroke-dasharray:none; font-weight:normal; stroke-width:1; font-family:'Dialog'; font-style:normal; stroke-linejoin:miter; font-size:12px; stroke-dashoffset:0; image-rendering:auto;" viewBox="0 0 146 105" xmlns="http://www.w3.org/2000/svg"
><!--Generated by the Batik Graphics2D SVG Generator--><defs id="genericDefs"
  /><g
  ><defs id="defs1"
    ><clipPath clipPathUnits="userSpaceOnUse" id="clipPath1"
      ><path d="M36 53 L58 53 L58 75 L36 75 L36 53 Z"
      /></clipPath
    ></defs
    ><g style="fill:white; text-rendering:optimizeSpeed; stroke:white;"
    ><rect x="0" width="146" height="105" y="0" style="stroke:none;"
      /><polygon style="fill:none; stroke:black;" points=" 105 64 47 64"
      /><path d="M105 53 C99.5 58.5 110.5 69.5 105 75" style="fill:none; stroke:black;"
      /><rect x="36" y="53" width="22" style="clip-path:url(#clipPath1); stroke:none;" height="22"
      /><rect x="36" y="53" width="22" style="clip-path:url(#clipPath1); stroke:none;" height="22"
      /><rect x="36" y="53" width="22" style="clip-path:url(#clipPath1); fill:none; stroke:black;" height="22"
      /><rect x="36" y="53" width="22" style="fill:none; stroke:black;" height="22"
      /><rect x="30" y="35" width="32" style="stroke:none;" height="10"
    /></g
    ><g style="text-rendering:optimizeSpeed; font-size:14px; font-family:'SansSerif';"
    ><path style="stroke:none;" d="M34.1094 40.5781 C35.3438 40.5781 35.9688 41.4688 35.9688 42.8438 C35.9688 44.25 35.1875 45.1875 34.2188 45.1875 C32.9219 45.1875 32.1562 44.0312 32 41.8906 C32.625 40.9531 33.4531 40.5781 34.1094 40.5781 ZM34.2188 46.1875 C35.8125 46.1875 37.1562 44.8438 37.1562 42.8438 C37.1562 40.7031 36.0469 39.625 34.3125 39.625 C33.5 39.625 32.6094 40.1094 31.9688 40.875 C32.0312 37.6875 33.2188 36.6094 34.625 36.6094 C35.25 36.6094 35.8594 36.9062 36.2656 37.3906 L36.9688 36.5938 C36.4062 35.9844 35.6406 35.5469 34.5781 35.5469 C32.5938 35.5469 30.7812 37.0781 30.7812 41.0938 C30.7812 44.4844 32.2344 46.1875 34.2188 46.1875 ZM39.1762 46 L40.395 46 L40.395 40.6094 C40.395 39.5312 40.3012 38.4375 40.2543 37.4062 L40.3012 37.4062 L41.4106 39.5156 L45.145 46 L46.4731 46 L46.4731 35.7188 L45.2387 35.7188 L45.2387 41.0781 C45.2387 42.1406 45.3481 43.2812 45.4106 44.3125 L45.3481 44.3125 L44.2543 42.2031 L40.52 35.7188 L39.1762 35.7188 L39.1762 46 ZM51.0498 40.2656 C51.4248 39.0938 51.7529 37.9844 52.0811 36.7812 L52.1279 36.7812 C52.4717 37.9844 52.7842 39.0938 53.1748 40.2656 L53.6592 41.8281 L50.5498 41.8281 L51.0498 40.2656 ZM47.9248 46 L49.2373 46 L50.2373 42.8594 L53.9873 42.8594 L54.9561 46 L56.3311 46 L52.8467 35.7188 L51.4092 35.7188 L47.9248 46 ZM60.6572 46.1875 C61.5634 46.1875 62.4384 45.8281 63.1259 45.2188 L62.5634 44.3594 C62.0947 44.7969 61.4697 45.125 60.7665 45.125 C59.3759 45.125 58.4228 43.9531 58.4228 42.2031 C58.4228 40.4531 59.4228 39.2656 60.8134 39.2656 C61.4228 39.2656 61.8759 39.5469 62.329 39.9375 L62.9853 39.0938 C62.4384 38.625 61.7509 38.2031 60.7509 38.2031 C58.8134 38.2031 57.0947 39.6719 57.0947 42.2031 C57.0947 44.7188 58.6415 46.1875 60.6572 46.1875 Z"
    /></g
    ><g style="fill:white; text-rendering:optimizeSpeed; font-family:'Serif'; stroke:white;"
    ><rect x="69" width="5" height="10" y="67" style="stroke:none;"
      /><path d="M70.8906 75.6875 C70.4844 75.6875 70.1562 76.0469 70.1562 76.4219 C70.1562 76.8125 70.4844 77.1562 70.8906 77.1562 C71.2969 77.1562 71.6406 76.8125 71.6406 76.4219 C71.6406 76.0469 71.2969 75.6875 70.8906 75.6875 ZM72.4688 69.5781 C72.7188 69.8906 72.875 70.2656 72.8906 70.6562 C72.8906 71.1875 72.625 71.5 72.0312 71.7656 L71.4062 72.0156 C70.6406 72.3125 70.3906 72.5469 70.3906 72.9375 C70.3906 73.1094 70.4531 73.3438 70.5781 73.8125 L70.7344 74.3438 L71.1094 74.3438 L71.0938 73.5312 C71.0938 73.0938 71.2031 72.9688 71.7812 72.7344 L72.2031 72.5625 C73.0312 72.2188 73.4531 71.6875 73.4531 70.8438 C73.4531 69.1562 71.6562 68.1875 70.5 68.0312 C70.1094 68.125 69.9062 68.2969 69.9062 68.6406 C69.9062 68.9375 70.0625 69.1562 70.7188 69.2656 L72.4688 69.5781 Z" style="fill:black; stroke:none;"
    /></g
  ></g
></svg
>
