<?xml version="1.0"?>
<!DOCTYPE svg PUBLIC '-//W3C//DTD SVG 1.0//EN'
          'http://www.w3.org/TR/2001/REC-SVG-20010904/DTD/svg10.dtd'>
<svg xmlns:xlink="http://www.w3.org/1999/xlink" style="fill-opacity:1; color-rendering:auto; color-interpolation:auto; text-rendering:auto; stroke:black; stroke-linecap:square; stroke-miterlimit:10; shape-rendering:auto; stroke-opacity:1; fill:black; stroke-dasharray:none; font-weight:normal; stroke-width:1; font-family:'Dialog'; font-style:normal; stroke-linejoin:miter; font-size:12px; stroke-dashoffset:0; image-rendering:auto;" viewBox="0 0 507 199" xmlns="http://www.w3.org/2000/svg"
><!--Generated by the Batik Graphics2D SVG Generator--><defs id="genericDefs"
  /><g
  ><defs id="defs1"
    ><clipPath clipPathUnits="userSpaceOnUse" id="clipPath1"
      ><path d="M403 82 L425 82 L425 104 L403 104 L403 82 Z"
      /></clipPath
      ><clipPath clipPathUnits="userSpaceOnUse" id="clipPath2"
      ><path style="fill-rule:evenodd;" d="M414 52 L403 30 L425 30 Z"
      /></clipPath
      ><clipPath clipPathUnits="userSpaceOnUse" id="clipPath3"
      ><path d="M351 82 L373 82 L373 104 L351 104 L351 82 Z"
      /></clipPath
      ><clipPath clipPathUnits="userSpaceOnUse" id="clipPath4"
      ><path d="M321 93 C321 99.0751 316.0751 104 310 104 C303.9249 104 299 99.0751 299 93 C299 86.9249 303.9249 82 310 82 C316.0751 82 321 86.9249 321 93 Z"
      /></clipPath
      ><clipPath clipPathUnits="userSpaceOnUse" id="clipPath5"
      ><path d="M269 132 C269 138.0751 264.0751 143 258 143 C251.9249 143 247 138.0751 247 132 C247 125.9249 251.9249 121 258 121 C264.0751 121 269 125.9249 269 132 Z"
      /></clipPath
      ><clipPath clipPathUnits="userSpaceOnUse" id="clipPath6"
      ><path d="M195 147 L217 147 L217 169 L195 169 L195 147 Z"
      /></clipPath
      ><clipPath clipPathUnits="userSpaceOnUse" id="clipPath7"
      ><path d="M165 158 C165 164.0751 160.0751 169 154 169 C147.9249 169 143 164.0751 143 158 C143 151.9249 147.9249 147 154 147 C160.0751 147 165 151.9249 165 158 Z"
      /></clipPath
      ><clipPath clipPathUnits="userSpaceOnUse" id="clipPath8"
      ><path d="M195 95 L217 95 L217 117 L195 117 L195 95 Z"
      /></clipPath
      ><clipPath clipPathUnits="userSpaceOnUse" id="clipPath9"
      ><path d="M165 106 C165 112.0751 160.0751 117 154 117 C147.9249 117 143 112.0751 143 106 C143 99.9249 147.9249 95 154 95 C160.0751 95 165 99.9249 165 106 Z"
      /></clipPath
      ><clipPath clipPathUnits="userSpaceOnUse" id="clipPath10"
      ><path d="M269 54 C269 60.0751 264.0751 65 258 65 C251.9249 65 247 60.0751 247 54 C247 47.9249 251.9249 43 258 43 C264.0751 43 269 47.9249 269 54 Z"
      /></clipPath
      ><clipPath clipPathUnits="userSpaceOnUse" id="clipPath11"
      ><path d="M195 43 L217 43 L217 65 L195 65 L195 43 Z"
      /></clipPath
      ><clipPath clipPathUnits="userSpaceOnUse" id="clipPath12"
      ><path d="M165 54 C165 60.0751 160.0751 65 154 65 C147.9249 65 143 60.0751 143 54 C143 47.9249 147.9249 43 154 43 C160.0751 43 165 47.9249 165 54 Z"
      /></clipPath
      ><clipPath clipPathUnits="userSpaceOnUse" id="clipPath13"
      ><path style="fill-rule:evenodd;" d="M58 88 L69 99 L58 110 L47 99 Z"
      /></clipPath
    ></defs
    ><g style="fill:white; text-rendering:optimizeSpeed; stroke:white;"
    ><rect x="0" width="507" height="199" y="0" style="stroke:none;"
      /><polygon style="fill:none; stroke:black;" points=" 466 93 414 93"
      /><path d="M466 82 C460.5 87.5 471.5 98.5 466 104" style="fill:none; stroke:black;"
      /><polygon style="fill:none; stroke:black;" points=" 414 93 414 41"
      /><polygon style="fill:none; stroke:black;" points=" 414 93 362 93"
      /><rect x="403" y="82" width="22" style="clip-path:url(#clipPath1); stroke:none;" height="22"
      /><rect x="403" y="82" width="22" style="clip-path:url(#clipPath1); fill:rgb(0,144,188); stroke:none;" height="22"
      /><rect x="403" y="82" width="22" style="clip-path:url(#clipPath1); fill:none; stroke:black;" height="22"
      /><rect x="403" y="82" width="22" style="fill:none; stroke:black;" height="22"
      /><polygon style="clip-path:url(#clipPath2); stroke:none;" points=" 414 52 403 30 425 30"
      /><rect x="403" y="30" width="22" style="clip-path:url(#clipPath2); fill:rgb(237,28,36); stroke:none;" height="22"
      /><rect x="403" y="30" width="22" style="clip-path:url(#clipPath2); fill:none; stroke:black;" height="22"
      /><polygon style="fill:none; stroke:black;" points=" 414 52 403 30 425 30"
      /><polygon style="fill:none; stroke:black;" points=" 362 93 310 93"
      /><rect x="351" y="82" width="22" style="clip-path:url(#clipPath3); stroke:none;" height="22"
      /><rect x="351" y="82" width="22" style="clip-path:url(#clipPath3); fill:rgb(0,144,188); stroke:none;" height="22"
      /><rect x="351" y="82" width="22" style="clip-path:url(#clipPath3); fill:none; stroke:black;" height="22"
      /><rect x="351" y="82" width="22" style="fill:none; stroke:black;" height="22"
      /><polygon style="fill:none; stroke:black;" points=" 310 93 258 132"
      /><polygon style="fill:none; stroke:black;" points=" 310 93 258 54"
      /><circle style="clip-path:url(#clipPath4); stroke:none;" r="11" cx="310" cy="93"
      /><rect x="299" y="82" width="22" style="clip-path:url(#clipPath4); fill:rgb(0,166,81); stroke:none;" height="22"
      /><rect x="299" y="82" width="22" style="clip-path:url(#clipPath4); fill:none; stroke:black;" height="22"
      /><circle style="fill:none; stroke:black;" r="11" cx="310" cy="93"
      /><polygon style="fill:none; stroke:black;" points=" 258 132 206 158"
      /><polygon style="fill:none; stroke:black;" points=" 258 132 206 106"
      /><circle style="clip-path:url(#clipPath5); stroke:none;" r="11" cx="258" cy="132"
      /><rect x="247" y="121" width="22" style="clip-path:url(#clipPath5); fill:rgb(0,166,81); stroke:none;" height="22"
      /><rect x="247" y="121" width="22" style="clip-path:url(#clipPath5); fill:none; stroke:black;" height="22"
      /><circle style="fill:none; stroke:black;" r="11" cx="258" cy="132"
      /><polygon style="fill:none; stroke:black;" points=" 206 158 154 158"
      /><rect x="195" y="147" width="22" style="clip-path:url(#clipPath6); stroke:none;" height="22"
      /><rect x="195" y="147" width="22" style="clip-path:url(#clipPath6); fill:rgb(0,144,188); stroke:none;" height="22"
      /><rect x="195" y="147" width="22" style="clip-path:url(#clipPath6); fill:none; stroke:black;" height="22"
      /><rect x="195" y="147" width="22" style="fill:none; stroke:black;" height="22"
      /><circle style="clip-path:url(#clipPath7); stroke:none;" r="11" cx="154" cy="158"
      /><rect x="143" y="147" width="22" style="clip-path:url(#clipPath7); fill:rgb(255,212,0); stroke:none;" height="22"
      /><rect x="143" y="147" width="22" style="clip-path:url(#clipPath7); fill:none; stroke:black;" height="22"
      /><circle style="fill:none; stroke:black;" r="11" cx="154" cy="158"
      /><rect x="183" y="161" width="7" style="stroke:none;" height="9"
    /></g
    ><g style="font-family:'Serif'; text-rendering:optimizeSpeed; "
    ><path style="stroke:none;" d="M184 166.5156 L186.9531 162.2656 L186.9531 166.5156 L184 166.5156 ZM189.2812 166.5156 L187.8594 166.5156 L187.8594 161.125 L187.2344 161.125 L183.3438 166.6406 L183.3438 167.1875 L186.9531 167.1875 L186.9531 170 L187.8594 170 L187.8594 167.1875 L189.2812 167.1875 L189.2812 166.5156 Z"
      /><rect x="170" y="159" width="6" style="fill:white; stroke:none;" height="13"
      /><path style="stroke:none;" d="M172.0938 165.2031 C172.0938 163.6562 172.75 162.8125 173.7969 162.8125 C174.7188 162.8125 175.2656 163.4531 175.2656 164.5156 C175.2656 165.7188 174.5 166.4375 173.1875 166.7031 L173.2969 167.3125 C175.2188 167.2344 175.9375 168.2188 175.9375 169.4375 C175.9375 170.625 175.2344 171.4219 173.9531 171.4219 C173.25 171.4219 172.6562 171.1562 172.0938 170.7188 L172.0938 165.2031 ZM171.2031 171.9062 L171.1094 174.375 L171.2656 174.4844 L172.1562 174.2656 L172.0156 171.0938 C172.5469 171.8438 173.3594 172.1719 174.1719 172.1719 C175.5625 172.1719 176.8594 171.2188 176.8594 169.4844 C176.8594 167.9531 175.875 167.1094 174.125 167 C175.5625 166.6094 176.1875 165.4531 176.1875 164.4844 C176.1875 163.0938 175.1562 162.3125 173.9062 162.3125 C172.2969 162.3125 171.2188 163.5469 171.2188 165.5156 L171.2031 171.9062 Z"
      /><polygon style="fill:none;" points=" 206 106 154 106"
      /><rect x="195" y="95" width="22" style="clip-path:url(#clipPath8); fill:white; stroke:none;" height="22"
      /><rect x="195" y="95" width="22" style="clip-path:url(#clipPath8); fill:rgb(0,144,188); stroke:none;" height="22"
      /><rect x="195" y="95" width="22" style="fill:none; clip-path:url(#clipPath8);" height="22"
      /><rect x="195" width="22" height="22" y="95" style="fill:none;"
      /><circle style="fill:white; clip-path:url(#clipPath9); stroke:none;" r="11" cx="154" cy="106"
      /><rect x="143" y="95" width="22" style="clip-path:url(#clipPath9); fill:rgb(255,212,0); stroke:none;" height="22"
      /><rect x="143" y="95" width="22" style="fill:none; clip-path:url(#clipPath9);" height="22"
      /><circle r="11" style="fill:none;" cx="154" cy="106"
      /><rect x="183" y="109" width="7" style="fill:white; stroke:none;" height="9"
      /><path style="stroke:none;" d="M184 114.5156 L186.9531 110.2656 L186.9531 114.5156 L184 114.5156 ZM189.2812 114.5156 L187.8594 114.5156 L187.8594 109.125 L187.2344 109.125 L183.3438 114.6406 L183.3438 115.1875 L186.9531 115.1875 L186.9531 118 L187.8594 118 L187.8594 115.1875 L189.2812 115.1875 L189.2812 114.5156 Z"
      /><rect x="170" y="107" width="6" style="fill:white; stroke:none;" height="13"
      /><path style="stroke:none;" d="M172.0938 113.2031 C172.0938 111.6562 172.75 110.8125 173.7969 110.8125 C174.7188 110.8125 175.2656 111.4531 175.2656 112.5156 C175.2656 113.7188 174.5 114.4375 173.1875 114.7031 L173.2969 115.3125 C175.2188 115.2344 175.9375 116.2188 175.9375 117.4375 C175.9375 118.625 175.2344 119.4219 173.9531 119.4219 C173.25 119.4219 172.6562 119.1562 172.0938 118.7188 L172.0938 113.2031 ZM171.2031 119.9062 L171.1094 122.375 L171.2656 122.4844 L172.1562 122.2656 L172.0156 119.0938 C172.5469 119.8438 173.3594 120.1719 174.1719 120.1719 C175.5625 120.1719 176.8594 119.2188 176.8594 117.4844 C176.8594 115.9531 175.875 115.1094 174.125 115 C175.5625 114.6094 176.1875 113.4531 176.1875 112.4844 C176.1875 111.0938 175.1562 110.3125 173.9062 110.3125 C172.2969 110.3125 171.2188 111.5469 171.2188 113.5156 L171.2031 119.9062 Z"
      /><rect x="240" y="143" width="6" style="fill:white; stroke:none;" height="9"
      /><path style="stroke:none;" d="M241.4219 151.0938 C242.0781 150.375 242.7031 149.7188 243.0312 149.3438 C244.9219 147.3125 245.5312 146.4688 245.5312 145.3594 C245.5312 144.0156 244.7812 143.0781 243.1562 143.0781 C241.9062 143.0781 240.7969 143.7031 240.5938 144.9688 C240.7188 145.2031 240.9062 145.3438 241.1562 145.3438 C241.4688 145.3438 241.6562 145.1094 241.7969 144.5938 L242.0938 143.6719 C242.3906 143.5938 242.6562 143.5625 242.8906 143.5625 C243.9219 143.5625 244.5469 144.3125 244.5469 145.4219 C244.5469 146.4375 243.9844 147.4219 242.7031 148.9062 C242.125 149.5781 241.3906 150.4375 240.6406 151.2812 L240.6406 152 L245.9219 152 L245.9219 151.0938 L241.4219 151.0938 Z"
      /><rect x="224" y="149" width="6" style="fill:white; stroke:none;" height="13"
      /><path style="stroke:none;" d="M226.0938 155.2031 C226.0938 153.6562 226.75 152.8125 227.7969 152.8125 C228.7188 152.8125 229.2656 153.4531 229.2656 154.5156 C229.2656 155.7188 228.5 156.4375 227.1875 156.7031 L227.2969 157.3125 C229.2188 157.2344 229.9375 158.2188 229.9375 159.4375 C229.9375 160.625 229.2344 161.4219 227.9531 161.4219 C227.25 161.4219 226.6562 161.1562 226.0938 160.7188 L226.0938 155.2031 ZM225.2031 161.9062 L225.1094 164.375 L225.2656 164.4844 L226.1562 164.2656 L226.0156 161.0938 C226.5469 161.8438 227.3594 162.1719 228.1719 162.1719 C229.5625 162.1719 230.8594 161.2188 230.8594 159.4844 C230.8594 157.9531 229.875 157.1094 228.125 157 C229.5625 156.6094 230.1875 155.4531 230.1875 154.4844 C230.1875 153.0938 229.1562 152.3125 227.9062 152.3125 C226.2969 152.3125 225.2188 153.5469 225.2188 155.5156 L225.2031 161.9062 Z"
      /><rect x="233" y="125" width="6" style="fill:white; stroke:none;" height="10"
      /><path style="stroke:none;" d="M236.3438 134.6875 C235.2031 134.6875 234.5312 133.5 234.5312 131.2969 C234.5312 131.2188 234.5312 131.125 234.5312 131.0469 C235.0938 130.5 235.7188 130.3125 236.3438 130.3125 C237.3125 130.3125 237.9531 130.9844 237.9531 132.4531 C237.9531 133.9375 237.3125 134.6875 236.3438 134.6875 ZM238.5312 126.0781 C235.3438 126.4531 233.5625 128.7656 233.5625 131.4531 C233.5625 133.7812 234.6094 135.1719 236.3125 135.1719 C237.8438 135.1719 238.9219 134.1094 238.9219 132.2812 C238.9219 130.6875 237.9688 129.6562 236.5625 129.6562 C235.8281 129.6562 235.1406 129.9844 234.5781 130.5781 C234.7969 128.4062 236.0781 126.9688 238.5938 126.3906 L238.5312 126.0781 Z"
      /><rect x="217" y="115" width="6" style="fill:white; stroke:none;" height="13"
      /><path style="stroke:none;" d="M219.0938 121.2031 C219.0938 119.6562 219.75 118.8125 220.7969 118.8125 C221.7188 118.8125 222.2656 119.4531 222.2656 120.5156 C222.2656 121.7188 221.5 122.4375 220.1875 122.7031 L220.2969 123.3125 C222.2188 123.2344 222.9375 124.2188 222.9375 125.4375 C222.9375 126.625 222.2344 127.4219 220.9531 127.4219 C220.25 127.4219 219.6562 127.1562 219.0938 126.7188 L219.0938 121.2031 ZM218.2031 127.9062 L218.1094 130.375 L218.2656 130.4844 L219.1562 130.2656 L219.0156 127.0938 C219.5469 127.8438 220.3594 128.1719 221.1719 128.1719 C222.5625 128.1719 223.8594 127.2188 223.8594 125.4844 C223.8594 123.9531 222.875 123.1094 221.125 123 C222.5625 122.6094 223.1875 121.4531 223.1875 120.4844 C223.1875 119.0938 222.1562 118.3125 220.9062 118.3125 C219.2969 118.3125 218.2188 119.5469 218.2188 121.5156 L218.2031 127.9062 Z"
      /><polygon style="fill:none;" points=" 258 54 206 54"
      /><circle style="fill:white; clip-path:url(#clipPath10); stroke:none;" r="11" cx="258" cy="54"
      /><rect x="247" y="43" width="22" style="clip-path:url(#clipPath10); fill:rgb(0,166,81); stroke:none;" height="22"
      /><rect x="247" y="43" width="22" style="fill:none; clip-path:url(#clipPath10);" height="22"
      /><circle r="11" style="fill:none;" cx="258" cy="54"
      /><polygon style="fill:none;" points=" 206 54 154 54"
      /><rect x="195" y="43" width="22" style="clip-path:url(#clipPath11); fill:white; stroke:none;" height="22"
      /><rect x="195" y="43" width="22" style="clip-path:url(#clipPath11); fill:rgb(0,144,188); stroke:none;" height="22"
      /><rect x="195" y="43" width="22" style="fill:none; clip-path:url(#clipPath11);" height="22"
      /><rect x="195" width="22" height="22" y="43" style="fill:none;"
      /><circle style="fill:white; clip-path:url(#clipPath12); stroke:none;" r="11" cx="154" cy="54"
      /><rect x="143" y="43" width="22" style="clip-path:url(#clipPath12); fill:rgb(255,212,0); stroke:none;" height="22"
      /><rect x="143" y="43" width="22" style="fill:none; clip-path:url(#clipPath12);" height="22"
      /><circle r="11" style="fill:none;" cx="154" cy="54"
      /><rect x="183" y="57" width="7" style="fill:white; stroke:none;" height="9"
      /><path style="stroke:none;" d="M184 62.5156 L186.9531 58.2656 L186.9531 62.5156 L184 62.5156 ZM189.2812 62.5156 L187.8594 62.5156 L187.8594 57.125 L187.2344 57.125 L183.3438 62.6406 L183.3438 63.1875 L186.9531 63.1875 L186.9531 66 L187.8594 66 L187.8594 63.1875 L189.2812 63.1875 L189.2812 62.5156 Z"
      /><rect x="170" y="55" width="6" style="fill:white; stroke:none;" height="13"
      /><path style="stroke:none;" d="M172.0938 61.2031 C172.0938 59.6562 172.75 58.8125 173.7969 58.8125 C174.7188 58.8125 175.2656 59.4531 175.2656 60.5156 C175.2656 61.7188 174.5 62.4375 173.1875 62.7031 L173.2969 63.3125 C175.2188 63.2344 175.9375 64.2188 175.9375 65.4375 C175.9375 66.625 175.2344 67.4219 173.9531 67.4219 C173.25 67.4219 172.6562 67.1562 172.0938 66.7188 L172.0938 61.2031 ZM171.2031 67.9062 L171.1094 70.375 L171.2656 70.4844 L172.1562 70.2656 L172.0156 67.0938 C172.5469 67.8438 173.3594 68.1719 174.1719 68.1719 C175.5625 68.1719 176.8594 67.2188 176.8594 65.4844 C176.8594 63.9531 175.875 63.1094 174.125 63 C175.5625 62.6094 176.1875 61.4531 176.1875 60.4844 C176.1875 59.0938 175.1562 58.3125 173.9062 58.3125 C172.2969 58.3125 171.2188 59.5469 171.2188 61.5156 L171.2031 67.9062 Z"
      /><rect x="236" y="57" width="6" style="fill:white; stroke:none;" height="9"
      /><path style="stroke:none;" d="M237.4219 65.0938 C238.0781 64.375 238.7031 63.7188 239.0312 63.3438 C240.9219 61.3125 241.5312 60.4688 241.5312 59.3594 C241.5312 58.0156 240.7812 57.0781 239.1562 57.0781 C237.9062 57.0781 236.7969 57.7031 236.5938 58.9688 C236.7188 59.2031 236.9062 59.3438 237.1562 59.3438 C237.4688 59.3438 237.6562 59.1094 237.7969 58.5938 L238.0938 57.6719 C238.3906 57.5938 238.6562 57.5625 238.8906 57.5625 C239.9219 57.5625 240.5469 58.3125 240.5469 59.4219 C240.5469 60.4375 239.9844 61.4219 238.7031 62.9062 C238.125 63.5781 237.3906 64.4375 236.6406 65.2812 L236.6406 66 L241.9219 66 L241.9219 65.0938 L237.4219 65.0938 Z"
      /><rect x="222" y="55" width="6" style="fill:white; stroke:none;" height="13"
      /><path style="stroke:none;" d="M224.0938 61.2031 C224.0938 59.6562 224.75 58.8125 225.7969 58.8125 C226.7188 58.8125 227.2656 59.4531 227.2656 60.5156 C227.2656 61.7188 226.5 62.4375 225.1875 62.7031 L225.2969 63.3125 C227.2188 63.2344 227.9375 64.2188 227.9375 65.4375 C227.9375 66.625 227.2344 67.4219 225.9531 67.4219 C225.25 67.4219 224.6562 67.1562 224.0938 66.7188 L224.0938 61.2031 ZM223.2031 67.9062 L223.1094 70.375 L223.2656 70.4844 L224.1562 70.2656 L224.0156 67.0938 C224.5469 67.8438 225.3594 68.1719 226.1719 68.1719 C227.5625 68.1719 228.8594 67.2188 228.8594 65.4844 C228.8594 63.9531 227.875 63.1094 226.125 63 C227.5625 62.6094 228.1875 61.4531 228.1875 60.4844 C228.1875 59.0938 227.1562 58.3125 225.9062 58.3125 C224.2969 58.3125 223.2188 59.5469 223.2188 61.5156 L223.2031 67.9062 Z"
      /><rect x="294" y="107" width="5" style="fill:white; stroke:none;" height="10"
      /><path style="stroke:none;" d="M295.8906 115.6875 C295.4844 115.6875 295.1562 116.0469 295.1562 116.4219 C295.1562 116.8125 295.4844 117.1562 295.8906 117.1562 C296.2969 117.1562 296.6406 116.8125 296.6406 116.4219 C296.6406 116.0469 296.2969 115.6875 295.8906 115.6875 ZM297.4688 109.5781 C297.7188 109.8906 297.875 110.2656 297.8906 110.6562 C297.8906 111.1875 297.625 111.5 297.0312 111.7656 L296.4062 112.0156 C295.6406 112.3125 295.3906 112.5469 295.3906 112.9375 C295.3906 113.1094 295.4531 113.3438 295.5781 113.8125 L295.7344 114.3438 L296.1094 114.3438 L296.0938 113.5312 C296.0938 113.0938 296.2031 112.9688 296.7812 112.7344 L297.2031 112.5625 C298.0312 112.2188 298.4531 111.6875 298.4531 110.8438 C298.4531 109.1562 296.6562 108.1875 295.5 108.0312 C295.1094 108.125 294.9062 108.2969 294.9062 108.6406 C294.9062 108.9375 295.0625 109.1562 295.7188 109.2656 L297.4688 109.5781 Z"
      /><rect x="276" y="121" width="8" style="fill:white; stroke:none;" height="8"
      /><path style="stroke:none;" d="M280.9844 126.7031 C280.9375 127.8906 280.1562 128.6562 279.3125 128.6562 C278.2656 128.6562 277.5 127.6875 277.5 125.7188 C277.5 124.2812 278.1562 123.1562 279.3438 123.1562 C280.1406 123.1562 280.7812 123.6875 281.0938 124.6406 L280.9844 126.7031 ZM282.9062 128.2812 C282.7344 128.375 282.5469 128.4219 282.3438 128.4219 C281.9531 128.4219 281.75 128.2188 281.75 127.4219 C281.75 126.4844 281.9688 124.5312 282.1875 122.8281 L282.0312 122.7188 L281.2344 122.9219 L281.1406 123.7969 C280.7812 123.0312 280.1562 122.6562 279.3906 122.6562 C278.0469 122.6562 276.5625 123.8438 276.5625 125.9531 C276.5625 128.0938 277.7188 129.1719 279.1406 129.1719 C280.0156 129.1719 280.6875 128.8125 281.0938 127.9844 C281.2031 128.8594 281.5156 129.1719 282.0156 129.1719 C282.4688 129.1719 282.7969 128.9062 283.0156 128.5625 L282.9062 128.2812 Z"
      /><rect x="285" y="81" width="5" style="fill:white; stroke:none;" height="10"
      /><path style="stroke:none;" d="M286.8906 89.6875 C286.4844 89.6875 286.1562 90.0469 286.1562 90.4219 C286.1562 90.8125 286.4844 91.1562 286.8906 91.1562 C287.2969 91.1562 287.6406 90.8125 287.6406 90.4219 C287.6406 90.0469 287.2969 89.6875 286.8906 89.6875 ZM288.4688 83.5781 C288.7188 83.8906 288.875 84.2656 288.8906 84.6562 C288.8906 85.1875 288.625 85.5 288.0312 85.7656 L287.4062 86.0156 C286.6406 86.3125 286.3906 86.5469 286.3906 86.9375 C286.3906 87.1094 286.4531 87.3438 286.5781 87.8125 L286.7344 88.3438 L287.1094 88.3438 L287.0938 87.5312 C287.0938 87.0938 287.2031 86.9688 287.7812 86.7344 L288.2031 86.5625 C289.0312 86.2188 289.4531 85.6875 289.4531 84.8438 C289.4531 83.1562 287.6562 82.1875 286.5 82.0312 C286.1094 82.125 285.9062 82.2969 285.9062 82.6406 C285.9062 82.9375 286.0625 83.1562 286.7188 83.2656 L288.4688 83.5781 Z"
      /><rect x="266" y="69" width="8" style="fill:white; stroke:none;" height="8"
      /><path style="stroke:none;" d="M270.9844 74.7031 C270.9375 75.8906 270.1562 76.6562 269.3125 76.6562 C268.2656 76.6562 267.5 75.6875 267.5 73.7188 C267.5 72.2812 268.1562 71.1562 269.3438 71.1562 C270.1406 71.1562 270.7812 71.6875 271.0938 72.6406 L270.9844 74.7031 ZM272.9062 76.2812 C272.7344 76.375 272.5469 76.4219 272.3438 76.4219 C271.9531 76.4219 271.75 76.2188 271.75 75.4219 C271.75 74.4844 271.9688 72.5312 272.1875 70.8281 L272.0312 70.7188 L271.2344 70.9219 L271.1406 71.7969 C270.7812 71.0312 270.1562 70.6562 269.3906 70.6562 C268.0469 70.6562 266.5625 71.8438 266.5625 73.9531 C266.5625 76.0938 267.7188 77.1719 269.1406 77.1719 C270.0156 77.1719 270.6875 76.8125 271.0938 75.9844 C271.2031 76.8594 271.5156 77.1719 272.0156 77.1719 C272.4688 77.1719 272.7969 76.9062 273.0156 76.5625 L272.9062 76.2812 Z"
      /><rect x="339" y="96" width="7" style="fill:white; stroke:none;" height="9"
      /><path style="stroke:none;" d="M340 101.5156 L342.9531 97.2656 L342.9531 101.5156 L340 101.5156 ZM345.2812 101.5156 L343.8594 101.5156 L343.8594 96.125 L343.2344 96.125 L339.3438 101.6406 L339.3438 102.1875 L342.9531 102.1875 L342.9531 105 L343.8594 105 L343.8594 102.1875 L345.2812 102.1875 L345.2812 101.5156 Z"
      /><rect x="326" y="94" width="6" style="fill:white; stroke:none;" height="13"
      /><path style="stroke:none;" d="M328.0938 100.2031 C328.0938 98.6562 328.75 97.8125 329.7969 97.8125 C330.7188 97.8125 331.2656 98.4531 331.2656 99.5156 C331.2656 100.7188 330.5 101.4375 329.1875 101.7031 L329.2969 102.3125 C331.2188 102.2344 331.9375 103.2188 331.9375 104.4375 C331.9375 105.625 331.2344 106.4219 329.9531 106.4219 C329.25 106.4219 328.6562 106.1562 328.0938 105.7188 L328.0938 100.2031 ZM327.2031 106.9062 L327.1094 109.375 L327.2656 109.4844 L328.1562 109.2656 L328.0156 106.0938 C328.5469 106.8438 329.3594 107.1719 330.1719 107.1719 C331.5625 107.1719 332.8594 106.2188 332.8594 104.4844 C332.8594 102.9531 331.875 102.1094 330.125 102 C331.5625 101.6094 332.1875 100.4531 332.1875 99.4844 C332.1875 98.0938 331.1562 97.3125 329.9062 97.3125 C328.2969 97.3125 327.2188 98.5469 327.2188 100.5156 L327.2031 106.9062 Z"
      /><rect x="403" y="69" width="5" style="fill:white; stroke:none;" height="10"
      /><path style="stroke:none;" d="M404.8906 77.6875 C404.4844 77.6875 404.1562 78.0469 404.1562 78.4219 C404.1562 78.8125 404.4844 79.1562 404.8906 79.1562 C405.2969 79.1562 405.6406 78.8125 405.6406 78.4219 C405.6406 78.0469 405.2969 77.6875 404.8906 77.6875 ZM406.4688 71.5781 C406.7188 71.8906 406.875 72.2656 406.8906 72.6562 C406.8906 73.1875 406.625 73.5 406.0312 73.7656 L405.4062 74.0156 C404.6406 74.3125 404.3906 74.5469 404.3906 74.9375 C404.3906 75.1094 404.4531 75.3438 404.5781 75.8125 L404.7344 76.3438 L405.1094 76.3438 L405.0938 75.5312 C405.0938 75.0938 405.2031 74.9688 405.7812 74.7344 L406.2031 74.5625 C407.0312 74.2188 407.4531 73.6875 407.4531 72.8438 C407.4531 71.1562 405.6562 70.1875 404.5 70.0312 C404.1094 70.125 403.9062 70.2969 403.9062 70.6406 C403.9062 70.9375 404.0625 71.1562 404.7188 71.2656 L406.4688 71.5781 Z"
      /><rect x="403" y="55" width="5" style="fill:white; stroke:none;" height="10"
      /><path style="stroke:none;" d="M404.8906 63.6875 C404.4844 63.6875 404.1562 64.0469 404.1562 64.4219 C404.1562 64.8125 404.4844 65.1562 404.8906 65.1562 C405.2969 65.1562 405.6406 64.8125 405.6406 64.4219 C405.6406 64.0469 405.2969 63.6875 404.8906 63.6875 ZM406.4688 57.5781 C406.7188 57.8906 406.875 58.2656 406.8906 58.6562 C406.8906 59.1875 406.625 59.5 406.0312 59.7656 L405.4062 60.0156 C404.6406 60.3125 404.3906 60.5469 404.3906 60.9375 C404.3906 61.1094 404.4531 61.3438 404.5781 61.8125 L404.7344 62.3438 L405.1094 62.3438 L405.0938 61.5312 C405.0938 61.0938 405.2031 60.9688 405.7812 60.7344 L406.2031 60.5625 C407.0312 60.2188 407.4531 59.6875 407.4531 58.8438 C407.4531 57.1562 405.6562 56.1875 404.5 56.0312 C404.1094 56.125 403.9062 56.2969 403.9062 56.6406 C403.9062 56.9375 404.0625 57.1562 404.7188 57.2656 L406.4688 57.5781 Z"
      /><rect x="391" y="96" width="7" style="fill:white; stroke:none;" height="9"
      /><path style="stroke:none;" d="M392 101.5156 L394.9531 97.2656 L394.9531 101.5156 L392 101.5156 ZM397.2812 101.5156 L395.8594 101.5156 L395.8594 96.125 L395.2344 96.125 L391.3438 101.6406 L391.3438 102.1875 L394.9531 102.1875 L394.9531 105 L395.8594 105 L395.8594 102.1875 L397.2812 102.1875 L397.2812 101.5156 Z"
      /><rect x="378" y="94" width="6" style="fill:white; stroke:none;" height="13"
      /><path style="stroke:none;" d="M380.0938 100.2031 C380.0938 98.6562 380.75 97.8125 381.7969 97.8125 C382.7188 97.8125 383.2656 98.4531 383.2656 99.5156 C383.2656 100.7188 382.5 101.4375 381.1875 101.7031 L381.2969 102.3125 C383.2188 102.2344 383.9375 103.2188 383.9375 104.4375 C383.9375 105.625 383.2344 106.4219 381.9531 106.4219 C381.25 106.4219 380.6562 106.1562 380.0938 105.7188 L380.0938 100.2031 ZM379.2031 106.9062 L379.1094 109.375 L379.2656 109.4844 L380.1562 109.2656 L380.0156 106.0938 C380.5469 106.8438 381.3594 107.1719 382.1719 107.1719 C383.5625 107.1719 384.8594 106.2188 384.8594 104.4844 C384.8594 102.9531 383.875 102.1094 382.125 102 C383.5625 101.6094 384.1875 100.4531 384.1875 99.4844 C384.1875 98.0938 383.1562 97.3125 381.9062 97.3125 C380.2969 97.3125 379.2188 98.5469 379.2188 100.5156 L379.2031 106.9062 Z"
      /><rect x="430" y="94" width="6" style="fill:white; stroke:none;" height="13"
      /><path style="stroke:none;" d="M432.0938 100.2031 C432.0938 98.6562 432.75 97.8125 433.7969 97.8125 C434.7188 97.8125 435.2656 98.4531 435.2656 99.5156 C435.2656 100.7188 434.5 101.4375 433.1875 101.7031 L433.2969 102.3125 C435.2188 102.2344 435.9375 103.2188 435.9375 104.4375 C435.9375 105.625 435.2344 106.4219 433.9531 106.4219 C433.25 106.4219 432.6562 106.1562 432.0938 105.7188 L432.0938 100.2031 ZM431.2031 106.9062 L431.1094 109.375 L431.2656 109.4844 L432.1562 109.2656 L432.0156 106.0938 C432.5469 106.8438 433.3594 107.1719 434.1719 107.1719 C435.5625 107.1719 436.8594 106.2188 436.8594 104.4844 C436.8594 102.9531 435.875 102.1094 434.125 102 C435.5625 101.6094 436.1875 100.4531 436.1875 99.4844 C436.1875 98.0938 435.1562 97.3125 433.9062 97.3125 C432.2969 97.3125 431.2188 98.5469 431.2188 100.5156 L431.2031 106.9062 Z"
      /><polygon style="fill:none;" points=" 143 169 132 169 132 30 143 30 132 30 132 169"
      /><polygon style="fill:none;" points=" 110 99 58 99"
      /><polygon style="fill:white; clip-path:url(#clipPath13); stroke:none;" points=" 58 88 69 99 58 110 47 99"
      /><rect x="47" y="88" width="22" style="clip-path:url(#clipPath13); fill:rgb(165,67,153); stroke:none;" height="22"
      /><rect x="47" y="88" width="22" style="fill:none; clip-path:url(#clipPath13);" height="22"
      /><polygon style="fill:none;" points=" 58 88 69 99 58 110 47 99"
      /><rect x="88" y="102" width="6" style="fill:white; stroke:none;" height="10"
      /><path style="stroke:none;" d="M91.3438 111.6875 C90.2031 111.6875 89.5312 110.5 89.5312 108.2969 C89.5312 108.2188 89.5312 108.125 89.5312 108.0469 C90.0938 107.5 90.7188 107.3125 91.3438 107.3125 C92.3125 107.3125 92.9531 107.9844 92.9531 109.4531 C92.9531 110.9375 92.3125 111.6875 91.3438 111.6875 ZM93.5312 103.0781 C90.3438 103.4531 88.5625 105.7656 88.5625 108.4531 C88.5625 110.7812 89.6094 112.1719 91.3125 112.1719 C92.8438 112.1719 93.9219 111.1094 93.9219 109.2812 C93.9219 107.6875 92.9688 106.6562 91.5625 106.6562 C90.8281 106.6562 90.1406 106.9844 89.5781 107.5781 C89.7969 105.4062 91.0781 103.9688 93.5938 103.3906 L93.5312 103.0781 Z"
      /><rect x="73" y="103" width="8" style="fill:white; stroke:none;" height="8"
      /><path style="stroke:none;" d="M77.9844 108.7031 C77.9375 109.8906 77.1562 110.6562 76.3125 110.6562 C75.2656 110.6562 74.5 109.6875 74.5 107.7188 C74.5 106.2812 75.1562 105.1562 76.3438 105.1562 C77.1406 105.1562 77.7812 105.6875 78.0938 106.6406 L77.9844 108.7031 ZM79.9062 110.2812 C79.7344 110.375 79.5469 110.4219 79.3438 110.4219 C78.9531 110.4219 78.75 110.2188 78.75 109.4219 C78.75 108.4844 78.9688 106.5312 79.1875 104.8281 L79.0312 104.7188 L78.2344 104.9219 L78.1406 105.7969 C77.7812 105.0312 77.1562 104.6562 76.3906 104.6562 C75.0469 104.6562 73.5625 105.8438 73.5625 107.9531 C73.5625 110.0938 74.7188 111.1719 76.1406 111.1719 C77.0156 111.1719 77.6875 110.8125 78.0938 109.9844 C78.2031 110.8594 78.5156 111.1719 79.0156 111.1719 C79.4688 111.1719 79.7969 110.9062 80.0156 110.5625 L79.9062 110.2812 Z"
      /><path style="stroke:none;" d="M29.6094 104 L36.0625 104 L36.0625 102.8906 L33.2344 102.8906 C32.7031 102.8906 32.0781 102.9531 31.5469 102.9844 C33.9531 100.7031 35.5625 98.625 35.5625 96.5781 C35.5625 94.75 34.4219 93.5469 32.5781 93.5469 C31.2812 93.5469 30.4062 94.1406 29.5625 95.0469 L30.2969 95.7812 C30.8594 95.1094 31.5938 94.5938 32.4375 94.5938 C33.7031 94.5938 34.3125 95.4531 34.3125 96.625 C34.3125 98.3906 32.8438 100.4375 29.6094 103.25 L29.6094 104 ZM36.9731 104 L38.3168 104 L39.3481 102.2188 C39.6137 101.7656 39.8637 101.2969 40.1293 100.8594 L40.2075 100.8594 C40.4731 101.2969 40.7543 101.7656 41.0043 102.2188 L42.1293 104 L43.5356 104 L41.02 100.1562 L43.3325 96.3906 L42.0043 96.3906 L41.0668 98.0625 C40.8481 98.5 40.6137 98.9219 40.3793 99.3438 L40.3325 99.3438 C40.0668 98.9219 39.8012 98.5 39.5668 98.0625 L38.5512 96.3906 L37.1762 96.3906 L39.4887 100.0312 L36.9731 104 Z"
    /></g
  ></g
></svg
>
