<?xml version="1.0"?>
<!DOCTYPE svg PUBLIC '-//W3C//DTD SVG 1.0//EN'
          'http://www.w3.org/TR/2001/REC-SVG-20010904/DTD/svg10.dtd'>
<svg xmlns:xlink="http://www.w3.org/1999/xlink" style="fill-opacity:1; color-rendering:auto; color-interpolation:auto; text-rendering:auto; stroke:black; stroke-linecap:square; stroke-miterlimit:10; shape-rendering:auto; stroke-opacity:1; fill:black; stroke-dasharray:none; font-weight:normal; stroke-width:1; font-family:'Dialog'; font-style:normal; stroke-linejoin:miter; font-size:12px; stroke-dashoffset:0; image-rendering:auto;" viewBox="0 0 550 160" xmlns="http://www.w3.org/2000/svg"
><!--Generated by the Batik Graphics2D SVG Generator--><defs id="genericDefs"
  /><g
  ><defs id="defs1"
    ><clipPath clipPathUnits="userSpaceOnUse" id="clipPath1"
      ><path style="fill-rule:evenodd;" d="M457 56 L468 78 L446 78 Z"
      /></clipPath
      ><clipPath clipPathUnits="userSpaceOnUse" id="clipPath2"
      ><path d="M394 56 L416 56 L416 78 L394 78 L394 56 Z"
      /></clipPath
      ><clipPath clipPathUnits="userSpaceOnUse" id="clipPath3"
      ><path style="fill-rule:evenodd;" d="M353 56 L364 78 L342 78 Z"
      /></clipPath
      ><clipPath clipPathUnits="userSpaceOnUse" id="clipPath4"
      ><path style="fill-rule:evenodd;" d="M301 82 L312 104 L290 104 Z"
      /></clipPath
      ><clipPath clipPathUnits="userSpaceOnUse" id="clipPath5"
      ><path style="fill-rule:evenodd;" d="M249 82 L260 104 L238 104 Z"
      /></clipPath
      ><clipPath clipPathUnits="userSpaceOnUse" id="clipPath6"
      ><path d="M186 82 L208 82 L208 104 L186 104 L186 82 Z"
      /></clipPath
      ><clipPath clipPathUnits="userSpaceOnUse" id="clipPath7"
      ><path style="fill-rule:evenodd;" d="M145 82 L156 104 L134 104 Z"
      /></clipPath
      ><clipPath clipPathUnits="userSpaceOnUse" id="clipPath8"
      ><path style="fill-rule:evenodd;" d="M93 108 L104 130 L82 130 Z"
      /></clipPath
      ><clipPath clipPathUnits="userSpaceOnUse" id="clipPath9"
      ><path style="fill-rule:evenodd;" d="M41 108 L52 130 L30 130 Z"
      /></clipPath
      ><clipPath clipPathUnits="userSpaceOnUse" id="clipPath10"
      ><path d="M104 67 C104 73.0751 99.0751 78 93 78 C86.9249 78 82 73.0751 82 67 C82 60.9249 86.9249 56 93 56 C99.0751 56 104 60.9249 104 67 Z"
      /></clipPath
      ><clipPath clipPathUnits="userSpaceOnUse" id="clipPath11"
      ><path d="M312 41 C312 47.0751 307.0751 52 301 52 C294.9249 52 290 47.0751 290 41 C290 34.9249 294.9249 30 301 30 C307.0751 30 312 34.9249 312 41 Z"
      /></clipPath
    ></defs
    ><g style="fill:white; text-rendering:optimizeSpeed; stroke:white;"
    ><rect x="0" width="550" height="160" y="0" style="stroke:none;"
      /><polygon style="fill:none; stroke:black;" points=" 509 67 457 67"
      /><path d="M509 56 C503.5 61.5 514.5 72.5 509 78" style="fill:none; stroke:black;"
      /><polygon style="fill:none; stroke:black;" points=" 457 67 405 67"
      /><polygon style="clip-path:url(#clipPath1); stroke:none;" points=" 457 56 468 78 446 78"
      /><rect x="446" y="56" width="22" style="clip-path:url(#clipPath1); fill:rgb(0,166,81); stroke:none;" height="22"
      /><rect x="446" y="56" width="22" style="clip-path:url(#clipPath1); fill:none; stroke:black;" height="22"
      /><polygon style="fill:none; stroke:black;" points=" 457 56 468 78 446 78"
      /><polygon style="fill:none; stroke:black;" points=" 405 67 353 67"
      /><rect x="394" y="56" width="22" style="clip-path:url(#clipPath2); stroke:none;" height="22"
      /><rect x="394" y="56" width="22" style="clip-path:url(#clipPath2); fill:rgb(0,144,188); stroke:none;" height="22"
      /><rect x="394" y="56" width="22" style="clip-path:url(#clipPath2); fill:none; stroke:black;" height="22"
      /><rect x="394" y="56" width="22" style="fill:none; stroke:black;" height="22"
      /><polygon style="fill:none; stroke:black;" points=" 353 67 301 93"
      /><polygon style="fill:none; stroke:black;" points=" 353 67 301 41"
      /><polygon style="clip-path:url(#clipPath3); stroke:none;" points=" 353 56 364 78 342 78"
      /><rect x="342" y="56" width="22" style="clip-path:url(#clipPath3); fill:rgb(0,166,81); stroke:none;" height="22"
      /><rect x="342" y="56" width="22" style="clip-path:url(#clipPath3); fill:none; stroke:black;" height="22"
      /><polygon style="fill:none; stroke:black;" points=" 353 56 364 78 342 78"
      /><polygon style="fill:none; stroke:black;" points=" 301 93 249 93"
      /><polygon style="clip-path:url(#clipPath4); stroke:none;" points=" 301 82 312 104 290 104"
      /><rect x="290" y="82" width="22" style="clip-path:url(#clipPath4); fill:rgb(0,166,81); stroke:none;" height="22"
      /><rect x="290" y="82" width="22" style="clip-path:url(#clipPath4); fill:none; stroke:black;" height="22"
      /><polygon style="fill:none; stroke:black;" points=" 301 82 312 104 290 104"
      /><polygon style="fill:none; stroke:black;" points=" 249 93 197 93"
      /><polygon style="clip-path:url(#clipPath5); stroke:none;" points=" 249 82 260 104 238 104"
      /><rect x="238" y="82" width="22" style="clip-path:url(#clipPath5); fill:rgb(0,166,81); stroke:none;" height="22"
      /><rect x="238" y="82" width="22" style="clip-path:url(#clipPath5); fill:none; stroke:black;" height="22"
      /><polygon style="fill:none; stroke:black;" points=" 249 82 260 104 238 104"
      /><polygon style="fill:none; stroke:black;" points=" 197 93 145 93"
      /><rect x="186" y="82" width="22" style="clip-path:url(#clipPath6); stroke:none;" height="22"
      /><rect x="186" y="82" width="22" style="clip-path:url(#clipPath6); fill:rgb(0,144,188); stroke:none;" height="22"
      /><rect x="186" y="82" width="22" style="clip-path:url(#clipPath6); fill:none; stroke:black;" height="22"
      /><rect x="186" y="82" width="22" style="fill:none; stroke:black;" height="22"
      /><polygon style="fill:none; stroke:black;" points=" 145 93 93 119"
      /><polygon style="fill:none; stroke:black;" points=" 145 93 93 67"
      /><polygon style="clip-path:url(#clipPath7); stroke:none;" points=" 145 82 156 104 134 104"
      /><rect x="134" y="82" width="22" style="clip-path:url(#clipPath7); fill:rgb(0,166,81); stroke:none;" height="22"
      /><rect x="134" y="82" width="22" style="clip-path:url(#clipPath7); fill:none; stroke:black;" height="22"
      /><polygon style="fill:none; stroke:black;" points=" 145 82 156 104 134 104"
      /><polygon style="fill:none; stroke:black;" points=" 93 119 41 119"
      /><polygon style="clip-path:url(#clipPath8); stroke:none;" points=" 93 108 104 130 82 130"
      /><rect x="82" y="108" width="22" style="clip-path:url(#clipPath8); fill:rgb(0,166,81); stroke:none;" height="22"
      /><rect x="82" y="108" width="22" style="clip-path:url(#clipPath8); fill:none; stroke:black;" height="22"
      /><polygon style="fill:none; stroke:black;" points=" 93 108 104 130 82 130"
      /><polygon style="clip-path:url(#clipPath9); stroke:none;" points=" 41 108 52 130 30 130"
      /><rect x="30" y="108" width="22" style="clip-path:url(#clipPath9); fill:rgb(0,166,81); stroke:none;" height="22"
      /><rect x="30" y="108" width="22" style="clip-path:url(#clipPath9); fill:none; stroke:black;" height="22"
      /><polygon style="fill:none; stroke:black;" points=" 41 108 52 130 30 130"
      /><rect x="71" y="122" width="6" style="stroke:none;" height="9"
    /></g
    ><g style="font-family:'Serif'; text-rendering:optimizeSpeed; "
    ><path style="stroke:none;" d="M72.4219 130.0938 C73.0781 129.375 73.7031 128.7188 74.0312 128.3438 C75.9219 126.3125 76.5312 125.4688 76.5312 124.3594 C76.5312 123.0156 75.7812 122.0781 74.1562 122.0781 C72.9062 122.0781 71.7969 122.7031 71.5938 123.9688 C71.7188 124.2031 71.9062 124.3438 72.1562 124.3438 C72.4688 124.3438 72.6562 124.1094 72.7969 123.5938 L73.0938 122.6719 C73.3906 122.5938 73.6562 122.5625 73.8906 122.5625 C74.9219 122.5625 75.5469 123.3125 75.5469 124.4219 C75.5469 125.4375 74.9844 126.4219 73.7031 127.9062 C73.125 128.5781 72.3906 129.4375 71.6406 130.2812 L71.6406 131 L76.9219 131 L76.9219 130.0938 L72.4219 130.0938 Z"
      /><rect x="56" y="123" width="8" style="fill:white; stroke:none;" height="8"
      /><path style="stroke:none;" d="M60.9844 128.7031 C60.9375 129.8906 60.1562 130.6562 59.3125 130.6562 C58.2656 130.6562 57.5 129.6875 57.5 127.7188 C57.5 126.2812 58.1562 125.1562 59.3438 125.1562 C60.1406 125.1562 60.7812 125.6875 61.0938 126.6406 L60.9844 128.7031 ZM62.9062 130.2812 C62.7344 130.375 62.5469 130.4219 62.3438 130.4219 C61.9531 130.4219 61.75 130.2188 61.75 129.4219 C61.75 128.4844 61.9688 126.5312 62.1875 124.8281 L62.0312 124.7188 L61.2344 124.9219 L61.1406 125.7969 C60.7812 125.0312 60.1562 124.6562 59.3906 124.6562 C58.0469 124.6562 56.5625 125.8438 56.5625 127.9531 C56.5625 130.0938 57.7188 131.1719 59.1406 131.1719 C60.0156 131.1719 60.6875 130.8125 61.0938 129.9844 C61.2031 130.8594 61.5156 131.1719 62.0156 131.1719 C62.4688 131.1719 62.7969 130.9062 63.0156 130.5625 L62.9062 130.2812 Z"
      /><circle style="fill:white; clip-path:url(#clipPath10); stroke:none;" r="11" cx="93" cy="67"
      /><rect x="82" y="56" width="22" style="clip-path:url(#clipPath10); fill:rgb(0,144,188); stroke:none;" height="22"
      /><rect x="82" y="56" width="22" style="fill:none; clip-path:url(#clipPath10);" height="22"
      /><circle r="11" style="fill:none;" cx="93" cy="67"
      /><rect x="127" y="104" width="6" style="fill:white; stroke:none;" height="10"
      /><path style="stroke:none;" d="M129.2344 105.6562 C129.5156 105.5938 129.7656 105.5625 130.0156 105.5625 C131.0625 105.5625 131.6719 106.1719 131.6719 107.2656 C131.6719 108.4375 130.9062 109.1094 129.7031 109.1094 L129.1875 109.1094 L129.1875 109.6406 L129.7969 109.6406 C131.2188 109.6406 131.9062 110.4219 131.9062 111.6406 C131.9062 112.8438 131.1719 113.6875 129.875 113.6875 C129.6094 113.6875 129.3125 113.6562 129.0156 113.5625 L128.7812 112.8125 C128.625 112.2812 128.5 112.0469 128.1406 112.0469 C127.8906 112.0469 127.7031 112.1719 127.5781 112.4219 C127.8438 113.6406 128.7812 114.1719 130.0312 114.1719 C131.7188 114.1719 132.875 113.125 132.875 111.7031 C132.875 110.5 132.2031 109.625 130.7969 109.375 C131.9531 109.0156 132.6094 108.2031 132.6094 107.2031 C132.6094 105.9219 131.6719 105.0781 130.1875 105.0781 C129.0469 105.0781 128.0625 105.5938 127.7969 106.6875 C127.9062 107 128.1094 107.1094 128.3594 107.1094 C128.7344 107.1094 128.8906 106.8906 129 106.4062 L129.2344 105.6562 Z"
      /><rect x="110" y="113" width="8" style="fill:white; stroke:none;" height="8"
      /><path style="stroke:none;" d="M114.9844 118.7031 C114.9375 119.8906 114.1562 120.6562 113.3125 120.6562 C112.2656 120.6562 111.5 119.6875 111.5 117.7188 C111.5 116.2812 112.1562 115.1562 113.3438 115.1562 C114.1406 115.1562 114.7812 115.6875 115.0938 116.6406 L114.9844 118.7031 ZM116.9062 120.2812 C116.7344 120.375 116.5469 120.4219 116.3438 120.4219 C115.9531 120.4219 115.75 120.2188 115.75 119.4219 C115.75 118.4844 115.9688 116.5312 116.1875 114.8281 L116.0312 114.7188 L115.2344 114.9219 L115.1406 115.7969 C114.7812 115.0312 114.1562 114.6562 113.3906 114.6562 C112.0469 114.6562 110.5625 115.8438 110.5625 117.9531 C110.5625 120.0938 111.7188 121.1719 113.1406 121.1719 C114.0156 121.1719 114.6875 120.8125 115.0938 119.9844 C115.2031 120.8594 115.5156 121.1719 116.0156 121.1719 C116.4688 121.1719 116.7969 120.9062 117.0156 120.5625 L116.9062 120.2812 Z"
      /><rect x="119" y="86" width="7" style="fill:white; stroke:none;" height="9"
      /><path style="stroke:none;" d="M120 91.5156 L122.9531 87.2656 L122.9531 91.5156 L120 91.5156 ZM125.2812 91.5156 L123.8594 91.5156 L123.8594 86.125 L123.2344 86.125 L119.3438 91.6406 L119.3438 92.1875 L122.9531 92.1875 L122.9531 95 L123.8594 95 L123.8594 92.1875 L125.2812 92.1875 L125.2812 91.5156 Z"
      /><rect x="103" y="79" width="8" style="fill:white; stroke:none;" height="8"
      /><path style="stroke:none;" d="M107.9844 84.7031 C107.9375 85.8906 107.1562 86.6562 106.3125 86.6562 C105.2656 86.6562 104.5 85.6875 104.5 83.7188 C104.5 82.2812 105.1562 81.1562 106.3438 81.1562 C107.1406 81.1562 107.7812 81.6875 108.0938 82.6406 L107.9844 84.7031 ZM109.9062 86.2812 C109.7344 86.375 109.5469 86.4219 109.3438 86.4219 C108.9531 86.4219 108.75 86.2188 108.75 85.4219 C108.75 84.4844 108.9688 82.5312 109.1875 80.8281 L109.0312 80.7188 L108.2344 80.9219 L108.1406 81.7969 C107.7812 81.0312 107.1562 80.6562 106.3906 80.6562 C105.0469 80.6562 103.5625 81.8438 103.5625 83.9531 C103.5625 86.0938 104.7188 87.1719 106.1406 87.1719 C107.0156 87.1719 107.6875 86.8125 108.0938 85.9844 C108.2031 86.8594 108.5156 87.1719 109.0156 87.1719 C109.4688 87.1719 109.7969 86.9062 110.0156 86.5625 L109.9062 86.2812 Z"
      /><rect x="175" y="96" width="6" style="fill:white; stroke:none;" height="10"
      /><path style="stroke:none;" d="M177.2344 97.6562 C177.5156 97.5938 177.7656 97.5625 178.0156 97.5625 C179.0625 97.5625 179.6719 98.1719 179.6719 99.2656 C179.6719 100.4375 178.9062 101.1094 177.7031 101.1094 L177.1875 101.1094 L177.1875 101.6406 L177.7969 101.6406 C179.2188 101.6406 179.9062 102.4219 179.9062 103.6406 C179.9062 104.8438 179.1719 105.6875 177.875 105.6875 C177.6094 105.6875 177.3125 105.6562 177.0156 105.5625 L176.7812 104.8125 C176.625 104.2812 176.5 104.0469 176.1406 104.0469 C175.8906 104.0469 175.7031 104.1719 175.5781 104.4219 C175.8438 105.6406 176.7812 106.1719 178.0312 106.1719 C179.7188 106.1719 180.875 105.125 180.875 103.7031 C180.875 102.5 180.2031 101.625 178.7969 101.375 C179.9531 101.0156 180.6094 100.2031 180.6094 99.2031 C180.6094 97.9219 179.6719 97.0781 178.1875 97.0781 C177.0469 97.0781 176.0625 97.5938 175.7969 98.6875 C175.9062 99 176.1094 99.1094 176.3594 99.1094 C176.7344 99.1094 176.8906 98.8906 177 98.4062 L177.2344 97.6562 Z"
      /><rect x="160" y="97" width="8" style="fill:white; stroke:none;" height="8"
      /><path style="stroke:none;" d="M164.9844 102.7031 C164.9375 103.8906 164.1562 104.6562 163.3125 104.6562 C162.2656 104.6562 161.5 103.6875 161.5 101.7188 C161.5 100.2812 162.1562 99.1562 163.3438 99.1562 C164.1406 99.1562 164.7812 99.6875 165.0938 100.6406 L164.9844 102.7031 ZM166.9062 104.2812 C166.7344 104.375 166.5469 104.4219 166.3438 104.4219 C165.9531 104.4219 165.75 104.2188 165.75 103.4219 C165.75 102.4844 165.9688 100.5312 166.1875 98.8281 L166.0312 98.7188 L165.2344 98.9219 L165.1406 99.7969 C164.7812 99.0312 164.1562 98.6562 163.3906 98.6562 C162.0469 98.6562 160.5625 99.8438 160.5625 101.9531 C160.5625 104.0938 161.7188 105.1719 163.1406 105.1719 C164.0156 105.1719 164.6875 104.8125 165.0938 103.9844 C165.2031 104.8594 165.5156 105.1719 166.0156 105.1719 C166.4688 105.1719 166.7969 104.9062 167.0156 104.5625 L166.9062 104.2812 Z"
      /><rect x="227" y="96" width="6" style="fill:white; stroke:none;" height="9"
      /><path style="stroke:none;" d="M228.4219 104.0938 C229.0781 103.375 229.7031 102.7188 230.0312 102.3438 C231.9219 100.3125 232.5312 99.4688 232.5312 98.3594 C232.5312 97.0156 231.7812 96.0781 230.1562 96.0781 C228.9062 96.0781 227.7969 96.7031 227.5938 97.9688 C227.7188 98.2031 227.9062 98.3438 228.1562 98.3438 C228.4688 98.3438 228.6562 98.1094 228.7969 97.5938 L229.0938 96.6719 C229.3906 96.5938 229.6562 96.5625 229.8906 96.5625 C230.9219 96.5625 231.5469 97.3125 231.5469 98.4219 C231.5469 99.4375 230.9844 100.4219 229.7031 101.9062 C229.125 102.5781 228.3906 103.4375 227.6406 104.2812 L227.6406 105 L232.9219 105 L232.9219 104.0938 L228.4219 104.0938 Z"
      /><rect x="213" y="94" width="6" style="fill:white; stroke:none;" height="13"
      /><path style="stroke:none;" d="M215.0938 100.2031 C215.0938 98.6562 215.75 97.8125 216.7969 97.8125 C217.7188 97.8125 218.2656 98.4531 218.2656 99.5156 C218.2656 100.7188 217.5 101.4375 216.1875 101.7031 L216.2969 102.3125 C218.2188 102.2344 218.9375 103.2188 218.9375 104.4375 C218.9375 105.625 218.2344 106.4219 216.9531 106.4219 C216.25 106.4219 215.6562 106.1562 215.0938 105.7188 L215.0938 100.2031 ZM214.2031 106.9062 L214.1094 109.375 L214.2656 109.4844 L215.1562 109.2656 L215.0156 106.0938 C215.5469 106.8438 216.3594 107.1719 217.1719 107.1719 C218.5625 107.1719 219.8594 106.2188 219.8594 104.4844 C219.8594 102.9531 218.875 102.1094 217.125 102 C218.5625 101.6094 219.1875 100.4531 219.1875 99.4844 C219.1875 98.0938 218.1562 97.3125 216.9062 97.3125 C215.2969 97.3125 214.2188 98.5469 214.2188 100.5156 L214.2031 106.9062 Z"
      /><rect x="279" y="96" width="6" style="fill:white; stroke:none;" height="9"
      /><path style="stroke:none;" d="M280.4219 104.0938 C281.0781 103.375 281.7031 102.7188 282.0312 102.3438 C283.9219 100.3125 284.5312 99.4688 284.5312 98.3594 C284.5312 97.0156 283.7812 96.0781 282.1562 96.0781 C280.9062 96.0781 279.7969 96.7031 279.5938 97.9688 C279.7188 98.2031 279.9062 98.3438 280.1562 98.3438 C280.4688 98.3438 280.6562 98.1094 280.7969 97.5938 L281.0938 96.6719 C281.3906 96.5938 281.6562 96.5625 281.8906 96.5625 C282.9219 96.5625 283.5469 97.3125 283.5469 98.4219 C283.5469 99.4375 282.9844 100.4219 281.7031 101.9062 C281.125 102.5781 280.3906 103.4375 279.6406 104.2812 L279.6406 105 L284.9219 105 L284.9219 104.0938 L280.4219 104.0938 Z"
      /><rect x="264" y="97" width="8" style="fill:white; stroke:none;" height="8"
      /><path style="stroke:none;" d="M268.9844 102.7031 C268.9375 103.8906 268.1562 104.6562 267.3125 104.6562 C266.2656 104.6562 265.5 103.6875 265.5 101.7188 C265.5 100.2812 266.1562 99.1562 267.3438 99.1562 C268.1406 99.1562 268.7812 99.6875 269.0938 100.6406 L268.9844 102.7031 ZM270.9062 104.2812 C270.7344 104.375 270.5469 104.4219 270.3438 104.4219 C269.9531 104.4219 269.75 104.2188 269.75 103.4219 C269.75 102.4844 269.9688 100.5312 270.1875 98.8281 L270.0312 98.7188 L269.2344 98.9219 L269.1406 99.7969 C268.7812 99.0312 268.1562 98.6562 267.3906 98.6562 C266.0469 98.6562 264.5625 99.8438 264.5625 101.9531 C264.5625 104.0938 265.7188 105.1719 267.1406 105.1719 C268.0156 105.1719 268.6875 104.8125 269.0938 103.9844 C269.2031 104.8594 269.5156 105.1719 270.0156 105.1719 C270.4688 105.1719 270.7969 104.9062 271.0156 104.5625 L270.9062 104.2812 Z"
      /><circle style="fill:white; clip-path:url(#clipPath11); stroke:none;" r="11" cx="301" cy="41"
      /><rect x="290" y="30" width="22" style="clip-path:url(#clipPath11); fill:rgb(0,144,188); stroke:none;" height="22"
      /><rect x="290" y="30" width="22" style="fill:none; clip-path:url(#clipPath11);" height="22"
      /><circle r="11" style="fill:none;" cx="301" cy="41"
      /><rect x="335" y="78" width="6" style="fill:white; stroke:none;" height="10"
      /><path style="stroke:none;" d="M337.2344 79.6562 C337.5156 79.5938 337.7656 79.5625 338.0156 79.5625 C339.0625 79.5625 339.6719 80.1719 339.6719 81.2656 C339.6719 82.4375 338.9062 83.1094 337.7031 83.1094 L337.1875 83.1094 L337.1875 83.6406 L337.7969 83.6406 C339.2188 83.6406 339.9062 84.4219 339.9062 85.6406 C339.9062 86.8438 339.1719 87.6875 337.875 87.6875 C337.6094 87.6875 337.3125 87.6562 337.0156 87.5625 L336.7812 86.8125 C336.625 86.2812 336.5 86.0469 336.1406 86.0469 C335.8906 86.0469 335.7031 86.1719 335.5781 86.4219 C335.8438 87.6406 336.7812 88.1719 338.0312 88.1719 C339.7188 88.1719 340.875 87.125 340.875 85.7031 C340.875 84.5 340.2031 83.625 338.7969 83.375 C339.9531 83.0156 340.6094 82.2031 340.6094 81.2031 C340.6094 79.9219 339.6719 79.0781 338.1875 79.0781 C337.0469 79.0781 336.0625 79.5938 335.7969 80.6875 C335.9062 81 336.1094 81.1094 336.3594 81.1094 C336.7344 81.1094 336.8906 80.8906 337 80.4062 L337.2344 79.6562 Z"
      /><rect x="318" y="87" width="8" style="fill:white; stroke:none;" height="8"
      /><path style="stroke:none;" d="M322.9844 92.7031 C322.9375 93.8906 322.1562 94.6562 321.3125 94.6562 C320.2656 94.6562 319.5 93.6875 319.5 91.7188 C319.5 90.2812 320.1562 89.1562 321.3438 89.1562 C322.1406 89.1562 322.7812 89.6875 323.0938 90.6406 L322.9844 92.7031 ZM324.9062 94.2812 C324.7344 94.375 324.5469 94.4219 324.3438 94.4219 C323.9531 94.4219 323.75 94.2188 323.75 93.4219 C323.75 92.4844 323.9688 90.5312 324.1875 88.8281 L324.0312 88.7188 L323.2344 88.9219 L323.1406 89.7969 C322.7812 89.0312 322.1562 88.6562 321.3906 88.6562 C320.0469 88.6562 318.5625 89.8438 318.5625 91.9531 C318.5625 94.0938 319.7188 95.1719 321.1406 95.1719 C322.0156 95.1719 322.6875 94.8125 323.0938 93.9844 C323.2031 94.8594 323.5156 95.1719 324.0156 95.1719 C324.4688 95.1719 324.7969 94.9062 325.0156 94.5625 L324.9062 94.2812 Z"
      /><rect x="327" y="60" width="7" style="fill:white; stroke:none;" height="9"
      /><path style="stroke:none;" d="M328 65.5156 L330.9531 61.2656 L330.9531 65.5156 L328 65.5156 ZM333.2812 65.5156 L331.8594 65.5156 L331.8594 60.125 L331.2344 60.125 L327.3438 65.6406 L327.3438 66.1875 L330.9531 66.1875 L330.9531 69 L331.8594 69 L331.8594 66.1875 L333.2812 66.1875 L333.2812 65.5156 Z"
      /><rect x="311" y="53" width="8" style="fill:white; stroke:none;" height="8"
      /><path style="stroke:none;" d="M315.9844 58.7031 C315.9375 59.8906 315.1562 60.6562 314.3125 60.6562 C313.2656 60.6562 312.5 59.6875 312.5 57.7188 C312.5 56.2812 313.1562 55.1562 314.3438 55.1562 C315.1406 55.1562 315.7812 55.6875 316.0938 56.6406 L315.9844 58.7031 ZM317.9062 60.2812 C317.7344 60.375 317.5469 60.4219 317.3438 60.4219 C316.9531 60.4219 316.75 60.2188 316.75 59.4219 C316.75 58.4844 316.9688 56.5312 317.1875 54.8281 L317.0312 54.7188 L316.2344 54.9219 L316.1406 55.7969 C315.7812 55.0312 315.1562 54.6562 314.3906 54.6562 C313.0469 54.6562 311.5625 55.8438 311.5625 57.9531 C311.5625 60.0938 312.7188 61.1719 314.1406 61.1719 C315.0156 61.1719 315.6875 60.8125 316.0938 59.9844 C316.2031 60.8594 316.5156 61.1719 317.0156 61.1719 C317.4688 61.1719 317.7969 60.9062 318.0156 60.5625 L317.9062 60.2812 Z"
      /><rect x="383" y="70" width="6" style="fill:white; stroke:none;" height="10"
      /><path style="stroke:none;" d="M385.2344 71.6562 C385.5156 71.5938 385.7656 71.5625 386.0156 71.5625 C387.0625 71.5625 387.6719 72.1719 387.6719 73.2656 C387.6719 74.4375 386.9062 75.1094 385.7031 75.1094 L385.1875 75.1094 L385.1875 75.6406 L385.7969 75.6406 C387.2188 75.6406 387.9062 76.4219 387.9062 77.6406 C387.9062 78.8438 387.1719 79.6875 385.875 79.6875 C385.6094 79.6875 385.3125 79.6562 385.0156 79.5625 L384.7812 78.8125 C384.625 78.2812 384.5 78.0469 384.1406 78.0469 C383.8906 78.0469 383.7031 78.1719 383.5781 78.4219 C383.8438 79.6406 384.7812 80.1719 386.0312 80.1719 C387.7188 80.1719 388.875 79.125 388.875 77.7031 C388.875 76.5 388.2031 75.625 386.7969 75.375 C387.9531 75.0156 388.6094 74.2031 388.6094 73.2031 C388.6094 71.9219 387.6719 71.0781 386.1875 71.0781 C385.0469 71.0781 384.0625 71.5938 383.7969 72.6875 C383.9062 73 384.1094 73.1094 384.3594 73.1094 C384.7344 73.1094 384.8906 72.8906 385 72.4062 L385.2344 71.6562 Z"
      /><rect x="368" y="71" width="8" style="fill:white; stroke:none;" height="8"
      /><path style="stroke:none;" d="M372.9844 76.7031 C372.9375 77.8906 372.1562 78.6562 371.3125 78.6562 C370.2656 78.6562 369.5 77.6875 369.5 75.7188 C369.5 74.2812 370.1562 73.1562 371.3438 73.1562 C372.1406 73.1562 372.7812 73.6875 373.0938 74.6406 L372.9844 76.7031 ZM374.9062 78.2812 C374.7344 78.375 374.5469 78.4219 374.3438 78.4219 C373.9531 78.4219 373.75 78.2188 373.75 77.4219 C373.75 76.4844 373.9688 74.5312 374.1875 72.8281 L374.0312 72.7188 L373.2344 72.9219 L373.1406 73.7969 C372.7812 73.0312 372.1562 72.6562 371.3906 72.6562 C370.0469 72.6562 368.5625 73.8438 368.5625 75.9531 C368.5625 78.0938 369.7188 79.1719 371.1406 79.1719 C372.0156 79.1719 372.6875 78.8125 373.0938 77.9844 C373.2031 78.8594 373.5156 79.1719 374.0156 79.1719 C374.4688 79.1719 374.7969 78.9062 375.0156 78.5625 L374.9062 78.2812 Z"
      /><rect x="435" y="70" width="6" style="fill:white; stroke:none;" height="9"
      /><path style="stroke:none;" d="M436.4219 78.0938 C437.0781 77.375 437.7031 76.7188 438.0312 76.3438 C439.9219 74.3125 440.5312 73.4688 440.5312 72.3594 C440.5312 71.0156 439.7812 70.0781 438.1562 70.0781 C436.9062 70.0781 435.7969 70.7031 435.5938 71.9688 C435.7188 72.2031 435.9062 72.3438 436.1562 72.3438 C436.4688 72.3438 436.6562 72.1094 436.7969 71.5938 L437.0938 70.6719 C437.3906 70.5938 437.6562 70.5625 437.8906 70.5625 C438.9219 70.5625 439.5469 71.3125 439.5469 72.4219 C439.5469 73.4375 438.9844 74.4219 437.7031 75.9062 C437.125 76.5781 436.3906 77.4375 435.6406 78.2812 L435.6406 79 L440.9219 79 L440.9219 78.0938 L436.4219 78.0938 Z"
      /><rect x="421" y="68" width="6" style="fill:white; stroke:none;" height="13"
      /><path style="stroke:none;" d="M423.0938 74.2031 C423.0938 72.6562 423.75 71.8125 424.7969 71.8125 C425.7188 71.8125 426.2656 72.4531 426.2656 73.5156 C426.2656 74.7188 425.5 75.4375 424.1875 75.7031 L424.2969 76.3125 C426.2188 76.2344 426.9375 77.2188 426.9375 78.4375 C426.9375 79.625 426.2344 80.4219 424.9531 80.4219 C424.25 80.4219 423.6562 80.1562 423.0938 79.7188 L423.0938 74.2031 ZM422.2031 80.9062 L422.1094 83.375 L422.2656 83.4844 L423.1562 83.2656 L423.0156 80.0938 C423.5469 80.8438 424.3594 81.1719 425.1719 81.1719 C426.5625 81.1719 427.8594 80.2188 427.8594 78.4844 C427.8594 76.9531 426.875 76.1094 425.125 76 C426.5625 75.6094 427.1875 74.4531 427.1875 73.4844 C427.1875 72.0938 426.1562 71.3125 424.9062 71.3125 C423.2969 71.3125 422.2188 72.5469 422.2188 74.5156 L422.2031 80.9062 Z"
      /><rect x="473" y="70" width="5" style="fill:white; stroke:none;" height="10"
      /><path style="stroke:none;" d="M474.8906 78.6875 C474.4844 78.6875 474.1562 79.0469 474.1562 79.4219 C474.1562 79.8125 474.4844 80.1562 474.8906 80.1562 C475.2969 80.1562 475.6406 79.8125 475.6406 79.4219 C475.6406 79.0469 475.2969 78.6875 474.8906 78.6875 ZM476.4688 72.5781 C476.7188 72.8906 476.875 73.2656 476.8906 73.6562 C476.8906 74.1875 476.625 74.5 476.0312 74.7656 L475.4062 75.0156 C474.6406 75.3125 474.3906 75.5469 474.3906 75.9375 C474.3906 76.1094 474.4531 76.3438 474.5781 76.8125 L474.7344 77.3438 L475.1094 77.3438 L475.0938 76.5312 C475.0938 76.0938 475.2031 75.9688 475.7812 75.7344 L476.2031 75.5625 C477.0312 75.2188 477.4531 74.6875 477.4531 73.8438 C477.4531 72.1562 475.6562 71.1875 474.5 71.0312 C474.1094 71.125 473.9062 71.2969 473.9062 71.6406 C473.9062 71.9375 474.0625 72.1562 474.7188 72.2656 L476.4688 72.5781 Z"
    /></g
  ></g
></svg
>
