<?xml version="1.0"?>
<!DOCTYPE svg PUBLIC '-//W3C//DTD SVG 1.0//EN'
          'http://www.w3.org/TR/2001/REC-SVG-20010904/DTD/svg10.dtd'>
<svg xmlns:xlink="http://www.w3.org/1999/xlink" style="fill-opacity:1; color-rendering:auto; color-interpolation:auto; text-rendering:auto; stroke:black; stroke-linecap:square; stroke-miterlimit:10; shape-rendering:auto; stroke-opacity:1; fill:black; stroke-dasharray:none; font-weight:normal; stroke-width:1; font-family:'Dialog'; font-style:normal; stroke-linejoin:miter; font-size:12px; stroke-dashoffset:0; image-rendering:auto;" viewBox="0 0 457 134" xmlns="http://www.w3.org/2000/svg"
><!--Generated by the Batik Graphics2D SVG Generator--><defs id="genericDefs"
  /><g
  ><defs id="defs1"
    ><clipPath clipPathUnits="userSpaceOnUse" id="clipPath1"
      ><path d="M353 79 L375 79 L375 101 L353 101 L353 79 Z"
      /></clipPath
      ><clipPath clipPathUnits="userSpaceOnUse" id="clipPath2"
      ><path d="M301 79 L323 79 L323 101 L301 101 L301 79 Z"
      /></clipPath
      ><clipPath clipPathUnits="userSpaceOnUse" id="clipPath3"
      ><path style="fill-rule:evenodd;" d="M265 90 L259 97 L248 97 L243 90 L248 82 L259 82 L265 90 Z"
      /></clipPath
      ><clipPath clipPathUnits="userSpaceOnUse" id="clipPath4"
      ><path style="fill-rule:evenodd;" d="M208 41 L202 48 L191 48 L186 41 L191 33 L202 33 L208 41 Z"
      /></clipPath
      ><clipPath clipPathUnits="userSpaceOnUse" id="clipPath5"
      ><path d="M156 41 C156 47.0751 151.0751 52 145 52 C138.9249 52 134 47.0751 134 41 C134 34.9249 138.9249 30 145 30 C151.0751 30 156 34.9249 156 41 Z"
      /></clipPath
      ><clipPath clipPathUnits="userSpaceOnUse" id="clipPath6"
      ><path style="fill-rule:evenodd;" d="M104 90 L98 97 L87 97 L82 90 L87 82 L98 82 L104 90 Z"
      /></clipPath
      ><clipPath clipPathUnits="userSpaceOnUse" id="clipPath7"
      ><path style="fill-rule:evenodd;" d="M52 90 L46 97 L35 97 L30 90 L35 82 L46 82 L52 90 Z"
      /></clipPath
    ></defs
    ><g style="fill:white; text-rendering:optimizeSpeed; stroke:white;"
    ><rect x="0" width="457" height="134" y="0" style="stroke:none;"
      /><polygon style="fill:none; stroke:black;" points=" 416 90 364 90"
      /><path d="M416 79 C410.5 84.5 421.5 95.5 416 101" style="fill:none; stroke:black;"
      /><polygon style="fill:none; stroke:black;" points=" 364 90 312 90"
      /><rect x="353" y="79" width="22" style="clip-path:url(#clipPath1); stroke:none;" height="22"
      /><polygon style="fill:rgb(0,144,188); clip-path:url(#clipPath1); stroke:none;" points=" 353 79 375 79 375 101"
      /><polygon style="fill:none; clip-path:url(#clipPath1); stroke:black;" points=" 353 79 375 79 375 101"
      /><rect x="353" y="79" width="22" style="fill:none; stroke:black;" height="22"
      /><polygon style="fill:none; stroke:black;" points=" 312 90 254 90"
      /><rect x="301" y="79" width="22" style="clip-path:url(#clipPath2); stroke:none;" height="22"
      /><polygon style="fill:rgb(0,144,188); clip-path:url(#clipPath2); stroke:none;" points=" 301 79 323 79 323 101"
      /><polygon style="fill:none; clip-path:url(#clipPath2); stroke:black;" points=" 301 79 323 79 323 101"
      /><rect x="301" y="79" width="22" style="fill:none; stroke:black;" height="22"
      /><rect x="304" y="61" width="15" style="stroke:none;" height="10"
    /></g
    ><g style="text-rendering:optimizeSpeed; font-size:14px; font-family:'SansSerif';"
    ><path style="stroke:none;" d="M305.6094 68.1562 L307.9531 64.6562 C308.2344 64.1406 308.5156 63.6406 308.7812 63.1406 L308.8281 63.1406 C308.7969 63.6719 308.7656 64.5 308.7656 65 L308.7656 68.1562 L305.6094 68.1562 ZM308.7656 72 L309.9688 72 L309.9688 69.1719 L311.3281 69.1719 L311.3281 68.1562 L309.9688 68.1562 L309.9688 61.7188 L308.5469 61.7188 L304.2812 68.3281 L304.2812 69.1719 L308.7656 69.1719 L308.7656 72 ZM313.1762 72 L314.4731 72 L314.4731 67.9219 L316.1606 67.9219 C318.4262 67.9219 319.9418 66.9219 319.9418 64.75 C319.9418 62.5156 318.4106 61.7188 316.1137 61.7188 L313.1762 61.7188 L313.1762 72 ZM314.4731 66.875 L314.4731 62.7812 L315.9418 62.7812 C317.7543 62.7812 318.6606 63.2656 318.6606 64.75 C318.6606 66.2188 317.8012 66.875 316.0043 66.875 L314.4731 66.875 Z"
      /><polygon style="fill:none;" points=" 254 90 93 90"
    /></g
    ><g style="fill:white; text-rendering:optimizeSpeed; stroke:white;"
    ><polygon style="stroke:none; clip-path:url(#clipPath3);" points=" 265 90 259 97 248 97 243 90 248 82 259 82 265 90"
      /><rect x="243" y="79" width="22" style="clip-path:url(#clipPath3); fill:rgb(255,212,0); stroke:none;" height="22"
      /><rect x="243" y="79" width="22" style="clip-path:url(#clipPath3); fill:none; stroke:black;" height="22"
      /><polygon style="fill:none; stroke:black;" points=" 265 90 259 97 248 97 243 90 248 82 259 82 265 90"
      /><polygon style="fill:none; stroke:black;" points=" 254 67 193 93"
      /><polygon style="fill:none; stroke:black;" points=" 254 67 197 41"
    /></g
    ><g style="text-rendering:optimizeSpeed; font-size:11px; font-family:'SansSerif';"
    ><path style="stroke:none;" d="M242.9531 69.5625 L243.8438 69.5625 C243.6562 67.8438 245.625 67.1875 245.625 65.5781 C245.625 64.375 244.8125 63.625 243.5781 63.625 C242.6875 63.625 241.9844 64.0469 241.4688 64.625 L242.0469 65.1562 C242.4375 64.7188 242.9062 64.4531 243.4688 64.4531 C244.25 64.4531 244.6562 64.9844 244.6562 65.6406 C244.6562 66.9531 242.7031 67.6562 242.9531 69.5625 ZM243.4375 72.1406 C243.8438 72.1406 244.1719 71.8281 244.1719 71.3906 C244.1719 70.9219 243.8438 70.6094 243.4375 70.6094 C243.0312 70.6094 242.7031 70.9219 242.7031 71.3906 C242.7031 71.8281 243.0312 72.1406 243.4375 72.1406 ZM247.3077 72 L248.339 72 L248.339 68.1875 L252.1046 68.1875 L252.1046 72 L253.1046 72 L253.1046 63.9219 L252.1046 63.9219 L252.1046 67.3125 L248.339 67.3125 L248.339 63.9219 L247.3077 63.9219 L247.3077 72 ZM257.6438 72.1406 C258.4563 72.1406 259.0969 71.875 259.6281 71.5312 L259.2531 70.8594 C258.8156 71.1562 258.3469 71.3438 257.7688 71.3438 C256.6281 71.3438 255.8469 70.5312 255.7844 69.25 L259.8156 69.25 C259.8313 69.1094 259.8469 68.8906 259.8469 68.6719 C259.8469 66.9688 259.0031 65.875 257.4719 65.875 C256.0969 65.875 254.7844 67.0781 254.7844 69.0156 C254.7844 70.9844 256.0656 72.1406 257.6438 72.1406 ZM255.7688 68.5312 C255.8938 67.3594 256.6438 66.6719 257.4875 66.6719 C258.425 66.6719 258.9719 67.3281 258.9719 68.5312 L255.7688 68.5312 ZM261.3315 74.5156 L262.3315 74.5156 L262.3315 72.5 L262.3002 71.4531 C262.8471 71.8906 263.4252 72.1406 263.9565 72.1406 C265.3315 72.1406 266.5502 70.9688 266.5502 68.9219 C266.5502 67.0781 265.7221 65.875 264.1752 65.875 C263.4877 65.875 262.8159 66.2656 262.269 66.7031 L262.2377 66.7031 L262.1596 66.0312 L261.3315 66.0312 L261.3315 74.5156 ZM263.7846 71.3125 C263.394 71.3125 262.8627 71.1406 262.3315 70.6875 L262.3315 67.5469 C262.9096 67 263.4252 66.7188 263.9409 66.7188 C265.0659 66.7188 265.5034 67.6094 265.5034 68.9375 C265.5034 70.4219 264.7846 71.3125 263.7846 71.3125 Z"
      /><rect x="178" y="86" width="28" style="fill:white; stroke:none;" height="13"
      /><path style="stroke:none;" d="M179.4062 99 L180.7031 99 L180.7031 94.9219 L182.3906 94.9219 C184.6562 94.9219 186.1719 93.9219 186.1719 91.75 C186.1719 89.5156 184.6406 88.7188 182.3438 88.7188 L179.4062 88.7188 L179.4062 99 ZM180.7031 93.875 L180.7031 89.7812 L182.1719 89.7812 C183.9844 89.7812 184.8906 90.2656 184.8906 91.75 C184.8906 93.2188 184.0312 93.875 182.2344 93.875 L180.7031 93.875 ZM188.2542 102.2812 C189.7698 102.2812 190.5667 101.125 191.0823 99.625 L193.9573 91.3906 L192.7073 91.3906 L191.3636 95.625 C191.1448 96.2969 190.9261 97.0625 190.7073 97.75 L190.6448 97.75 C190.4105 97.0625 190.1448 96.2812 189.9105 95.625 L188.3636 91.3906 L187.0355 91.3906 L190.0823 99.0156 L189.9105 99.5938 C189.6136 100.5312 189.0667 101.2188 188.1917 101.2188 C187.9886 101.2188 187.7698 101.1562 187.6136 101.0938 L187.3636 102.125 C187.598 102.2188 187.8948 102.2812 188.2542 102.2812 ZM195.4232 99 L196.7044 99 L196.7044 94.1094 C197.2044 92.8125 197.9857 92.3594 198.6263 92.3594 C198.9232 92.3594 199.1107 92.3906 199.3607 92.4844 L199.5951 91.375 C199.3607 91.25 199.1263 91.2031 198.7826 91.2031 C197.9388 91.2031 197.1732 91.8125 196.6263 92.7812 L196.5951 92.7812 L196.4857 91.3906 L195.4232 91.3906 L195.4232 99 ZM200.9802 99 L202.277 99 L202.277 94.9219 L203.9645 94.9219 C206.2302 94.9219 207.7458 93.9219 207.7458 91.75 C207.7458 89.5156 206.2145 88.7188 203.9177 88.7188 L200.9802 88.7188 L200.9802 99 ZM202.277 93.875 L202.277 89.7812 L203.7458 89.7812 C205.5583 89.7812 206.4645 90.2656 206.4645 91.75 C206.4645 93.2188 205.6052 93.875 203.8083 93.875 L202.277 93.875 Z"
      /><polygon style="fill:none;" points=" 197 41 145 41"
    /></g
    ><g style="fill:white; text-rendering:optimizeSpeed; stroke:white;"
    ><polygon style="stroke:none; clip-path:url(#clipPath4);" points=" 208 41 202 48 191 48 186 41 191 33 202 33 208 41"
      /><rect x="186" y="30" width="22" style="clip-path:url(#clipPath4); stroke:none;" height="22"
      /><rect x="186" y="30" width="22" style="clip-path:url(#clipPath4); fill:none; stroke:black;" height="22"
      /><polygon style="fill:none; stroke:black;" points=" 208 41 202 48 191 48 186 41 191 33 202 33 208 41"
      /><circle r="11" style="clip-path:url(#clipPath5); stroke:none;" cx="145" cy="41"
      /><rect x="134" y="30" width="22" style="clip-path:url(#clipPath5); fill:rgb(0,144,188); stroke:none;" height="22"
      /><rect x="134" y="30" width="22" style="clip-path:url(#clipPath5); fill:none; stroke:black;" height="22"
      /><circle r="11" style="fill:none; stroke:black;" cx="145" cy="41"
      /><rect x="161" width="5" height="10" y="44" style="stroke:none;"
      /><path d="M162.8906 52.6875 C162.4844 52.6875 162.1562 53.0469 162.1562 53.4219 C162.1562 53.8125 162.4844 54.1562 162.8906 54.1562 C163.2969 54.1562 163.6406 53.8125 163.6406 53.4219 C163.6406 53.0469 163.2969 52.6875 162.8906 52.6875 ZM164.4688 46.5781 C164.7188 46.8906 164.875 47.2656 164.8906 47.6562 C164.8906 48.1875 164.625 48.5 164.0312 48.7656 L163.4062 49.0156 C162.6406 49.3125 162.3906 49.5469 162.3906 49.9375 C162.3906 50.1094 162.4531 50.3438 162.5781 50.8125 L162.7344 51.3438 L163.1094 51.3438 L163.0938 50.5312 C163.0938 50.0938 163.2031 49.9688 163.7812 49.7344 L164.2031 49.5625 C165.0312 49.2188 165.4531 48.6875 165.4531 47.8438 C165.4531 46.1562 163.6562 45.1875 162.5 45.0312 C162.1094 45.125 161.9062 45.2969 161.9062 45.6406 C161.9062 45.9375 162.0625 46.1562 162.7188 46.2656 L164.4688 46.5781 Z" style="fill:black; stroke:none;"
      /><rect x="215" width="5" height="10" y="85" style="stroke:none;"
      /><path d="M216.8906 93.6875 C216.4844 93.6875 216.1562 94.0469 216.1562 94.4219 C216.1562 94.8125 216.4844 95.1562 216.8906 95.1562 C217.2969 95.1562 217.6406 94.8125 217.6406 94.4219 C217.6406 94.0469 217.2969 93.6875 216.8906 93.6875 ZM218.4688 87.5781 C218.7188 87.8906 218.875 88.2656 218.8906 88.6562 C218.8906 89.1875 218.625 89.5 218.0312 89.7656 L217.4062 90.0156 C216.6406 90.3125 216.3906 90.5469 216.3906 90.9375 C216.3906 91.1094 216.4531 91.3438 216.5781 91.8125 L216.7344 92.3438 L217.1094 92.3438 L217.0938 91.5312 C217.0938 91.0938 217.2031 90.9688 217.7812 90.7344 L218.2031 90.5625 C219.0312 90.2188 219.4531 89.6875 219.4531 88.8438 C219.4531 87.1562 217.6562 86.1875 216.5 86.0312 C216.1094 86.125 215.9062 86.2969 215.9062 86.6406 C215.9062 86.9375 216.0625 87.1562 216.7188 87.2656 L218.4688 87.5781 Z" style="fill:black; stroke:none;"
      /><rect x="209" width="5" height="10" y="51" style="stroke:none;"
      /><path d="M210.8906 59.6875 C210.4844 59.6875 210.1562 60.0469 210.1562 60.4219 C210.1562 60.8125 210.4844 61.1562 210.8906 61.1562 C211.2969 61.1562 211.6406 60.8125 211.6406 60.4219 C211.6406 60.0469 211.2969 59.6875 210.8906 59.6875 ZM212.4688 53.5781 C212.7188 53.8906 212.875 54.2656 212.8906 54.6562 C212.8906 55.1875 212.625 55.5 212.0312 55.7656 L211.4062 56.0156 C210.6406 56.3125 210.3906 56.5469 210.3906 56.9375 C210.3906 57.1094 210.4531 57.3438 210.5781 57.8125 L210.7344 58.3438 L211.1094 58.3438 L211.0938 57.5312 C211.0938 57.0938 211.2031 56.9688 211.7812 56.7344 L212.2031 56.5625 C213.0312 56.2188 213.4531 55.6875 213.4531 54.8438 C213.4531 53.1562 211.6562 52.1875 210.5 52.0312 C210.1094 52.125 209.9062 52.2969 209.9062 52.6406 C209.9062 52.9375 210.0625 53.1562 210.7188 53.2656 L212.4688 53.5781 Z" style="fill:black; stroke:none;"
      /><polygon style="fill:none; stroke:black;" points=" 93 90 41 90"
      /><polygon style="clip-path:url(#clipPath6); stroke:none;" points=" 104 90 98 97 87 97 82 90 87 82 98 82 104 90"
      /><rect x="82" y="79" width="22" style="clip-path:url(#clipPath6); fill:rgb(255,212,0); stroke:none;" height="22"
      /><rect x="82" y="79" width="22" style="clip-path:url(#clipPath6); fill:none; stroke:black;" height="22"
      /><polygon style="fill:none; stroke:black;" points=" 104 90 98 97 87 97 82 90 87 82 98 82 104 90"
      /><polygon style="clip-path:url(#clipPath7); stroke:none;" points=" 52 90 46 97 35 97 30 90 35 82 46 82 52 90"
      /><rect x="30" y="79" width="22" style="clip-path:url(#clipPath7); fill:rgb(255,212,0); stroke:none;" height="22"
      /><rect x="30" y="79" width="22" style="clip-path:url(#clipPath7); fill:none; stroke:black;" height="22"
      /><polygon style="fill:none; stroke:black;" points=" 52 90 46 97 35 97 30 90 35 82 46 82 52 90"
      /><rect x="71" width="5" height="10" y="93" style="stroke:none;"
      /><path d="M72.8906 101.6875 C72.4844 101.6875 72.1562 102.0469 72.1562 102.4219 C72.1562 102.8125 72.4844 103.1562 72.8906 103.1562 C73.2969 103.1562 73.6406 102.8125 73.6406 102.4219 C73.6406 102.0469 73.2969 101.6875 72.8906 101.6875 ZM74.4688 95.5781 C74.7188 95.8906 74.875 96.2656 74.8906 96.6562 C74.8906 97.1875 74.625 97.5 74.0312 97.7656 L73.4062 98.0156 C72.6406 98.3125 72.3906 98.5469 72.3906 98.9375 C72.3906 99.1094 72.4531 99.3438 72.5781 99.8125 L72.7344 100.3438 L73.1094 100.3438 L73.0938 99.5312 C73.0938 99.0938 73.2031 98.9688 73.7812 98.7344 L74.2031 98.5625 C75.0312 98.2188 75.4531 97.6875 75.4531 96.8438 C75.4531 95.1562 73.6562 94.1875 72.5 94.0312 C72.1094 94.125 71.9062 94.2969 71.9062 94.6406 C71.9062 94.9375 72.0625 95.1562 72.7188 95.2656 L74.4688 95.5781 Z" style="fill:black; stroke:none;"
      /><rect x="57" width="5" height="10" y="93" style="stroke:none;"
      /><path d="M58.8906 101.6875 C58.4844 101.6875 58.1562 102.0469 58.1562 102.4219 C58.1562 102.8125 58.4844 103.1562 58.8906 103.1562 C59.2969 103.1562 59.6406 102.8125 59.6406 102.4219 C59.6406 102.0469 59.2969 101.6875 58.8906 101.6875 ZM60.4688 95.5781 C60.7188 95.8906 60.875 96.2656 60.8906 96.6562 C60.8906 97.1875 60.625 97.5 60.0312 97.7656 L59.4062 98.0156 C58.6406 98.3125 58.3906 98.5469 58.3906 98.9375 C58.3906 99.1094 58.4531 99.3438 58.5781 99.8125 L58.7344 100.3438 L59.1094 100.3438 L59.0938 99.5312 C59.0938 99.0938 59.2031 98.9688 59.7812 98.7344 L60.2031 98.5625 C61.0312 98.2188 61.4531 97.6875 61.4531 96.8438 C61.4531 95.1562 59.6562 94.1875 58.5 94.0312 C58.1094 94.125 57.9062 94.2969 57.9062 94.6406 C57.9062 94.9375 58.0625 95.1562 58.7188 95.2656 L60.4688 95.5781 Z" style="fill:black; stroke:none;"
      /><rect x="123" width="5" height="10" y="93" style="stroke:none;"
      /><path d="M124.8906 101.6875 C124.4844 101.6875 124.1562 102.0469 124.1562 102.4219 C124.1562 102.8125 124.4844 103.1562 124.8906 103.1562 C125.2969 103.1562 125.6406 102.8125 125.6406 102.4219 C125.6406 102.0469 125.2969 101.6875 124.8906 101.6875 ZM126.4688 95.5781 C126.7188 95.8906 126.875 96.2656 126.8906 96.6562 C126.8906 97.1875 126.625 97.5 126.0312 97.7656 L125.4062 98.0156 C124.6406 98.3125 124.3906 98.5469 124.3906 98.9375 C124.3906 99.1094 124.4531 99.3438 124.5781 99.8125 L124.7344 100.3438 L125.1094 100.3438 L125.0938 99.5312 C125.0938 99.0938 125.2031 98.9688 125.7812 98.7344 L126.2031 98.5625 C127.0312 98.2188 127.4531 97.6875 127.4531 96.8438 C127.4531 95.1562 125.6562 94.1875 124.5 94.0312 C124.1094 94.125 123.9062 94.2969 123.9062 94.6406 C123.9062 94.9375 124.0625 95.1562 124.7188 95.2656 L126.4688 95.5781 Z" style="fill:black; stroke:none;"
      /><rect x="109" width="5" height="10" y="93" style="stroke:none;"
      /><path d="M110.8906 101.6875 C110.4844 101.6875 110.1562 102.0469 110.1562 102.4219 C110.1562 102.8125 110.4844 103.1562 110.8906 103.1562 C111.2969 103.1562 111.6406 102.8125 111.6406 102.4219 C111.6406 102.0469 111.2969 101.6875 110.8906 101.6875 ZM112.4688 95.5781 C112.7188 95.8906 112.875 96.2656 112.8906 96.6562 C112.8906 97.1875 112.625 97.5 112.0312 97.7656 L111.4062 98.0156 C110.6406 98.3125 110.3906 98.5469 110.3906 98.9375 C110.3906 99.1094 110.4531 99.3438 110.5781 99.8125 L110.7344 100.3438 L111.1094 100.3438 L111.0938 99.5312 C111.0938 99.0938 111.2031 98.9688 111.7812 98.7344 L112.2031 98.5625 C113.0312 98.2188 113.4531 97.6875 113.4531 96.8438 C113.4531 95.1562 111.6562 94.1875 110.5 94.0312 C110.1094 94.125 109.9062 94.2969 109.9062 94.6406 C109.9062 94.9375 110.0625 95.1562 110.7188 95.2656 L112.4688 95.5781 Z" style="fill:black; stroke:none;"
      /><rect x="290" width="5" height="10" y="93" style="stroke:none;"
      /><path d="M291.8906 101.6875 C291.4844 101.6875 291.1562 102.0469 291.1562 102.4219 C291.1562 102.8125 291.4844 103.1562 291.8906 103.1562 C292.2969 103.1562 292.6406 102.8125 292.6406 102.4219 C292.6406 102.0469 292.2969 101.6875 291.8906 101.6875 ZM293.4688 95.5781 C293.7188 95.8906 293.875 96.2656 293.8906 96.6562 C293.8906 97.1875 293.625 97.5 293.0312 97.7656 L292.4062 98.0156 C291.6406 98.3125 291.3906 98.5469 291.3906 98.9375 C291.3906 99.1094 291.4531 99.3438 291.5781 99.8125 L291.7344 100.3438 L292.1094 100.3438 L292.0938 99.5312 C292.0938 99.0938 292.2031 98.9688 292.7812 98.7344 L293.2031 98.5625 C294.0312 98.2188 294.4531 97.6875 294.4531 96.8438 C294.4531 95.1562 292.6562 94.1875 291.5 94.0312 C291.1094 94.125 290.9062 94.2969 290.9062 94.6406 C290.9062 94.9375 291.0625 95.1562 291.7188 95.2656 L293.4688 95.5781 Z" style="fill:black; stroke:none;"
      /><rect x="276" width="5" height="10" y="93" style="stroke:none;"
      /><path d="M277.8906 101.6875 C277.4844 101.6875 277.1562 102.0469 277.1562 102.4219 C277.1562 102.8125 277.4844 103.1562 277.8906 103.1562 C278.2969 103.1562 278.6406 102.8125 278.6406 102.4219 C278.6406 102.0469 278.2969 101.6875 277.8906 101.6875 ZM279.4688 95.5781 C279.7188 95.8906 279.875 96.2656 279.8906 96.6562 C279.8906 97.1875 279.625 97.5 279.0312 97.7656 L278.4062 98.0156 C277.6406 98.3125 277.3906 98.5469 277.3906 98.9375 C277.3906 99.1094 277.4531 99.3438 277.5781 99.8125 L277.7344 100.3438 L278.1094 100.3438 L278.0938 99.5312 C278.0938 99.0938 278.2031 98.9688 278.7812 98.7344 L279.2031 98.5625 C280.0312 98.2188 280.4531 97.6875 280.4531 96.8438 C280.4531 95.1562 278.6562 94.1875 277.5 94.0312 C277.1094 94.125 276.9062 94.2969 276.9062 94.6406 C276.9062 94.9375 277.0625 95.1562 277.7188 95.2656 L279.4688 95.5781 Z" style="fill:black; stroke:none;"
      /><rect x="342" width="5" height="10" y="93" style="stroke:none;"
      /><path d="M343.8906 101.6875 C343.4844 101.6875 343.1562 102.0469 343.1562 102.4219 C343.1562 102.8125 343.4844 103.1562 343.8906 103.1562 C344.2969 103.1562 344.6406 102.8125 344.6406 102.4219 C344.6406 102.0469 344.2969 101.6875 343.8906 101.6875 ZM345.4688 95.5781 C345.7188 95.8906 345.875 96.2656 345.8906 96.6562 C345.8906 97.1875 345.625 97.5 345.0312 97.7656 L344.4062 98.0156 C343.6406 98.3125 343.3906 98.5469 343.3906 98.9375 C343.3906 99.1094 343.4531 99.3438 343.5781 99.8125 L343.7344 100.3438 L344.1094 100.3438 L344.0938 99.5312 C344.0938 99.0938 344.2031 98.9688 344.7812 98.7344 L345.2031 98.5625 C346.0312 98.2188 346.4531 97.6875 346.4531 96.8438 C346.4531 95.1562 344.6562 94.1875 343.5 94.0312 C343.1094 94.125 342.9062 94.2969 342.9062 94.6406 C342.9062 94.9375 343.0625 95.1562 343.7188 95.2656 L345.4688 95.5781 Z" style="fill:black; stroke:none;"
      /><rect x="328" width="5" height="10" y="93" style="stroke:none;"
      /><path d="M329.8906 101.6875 C329.4844 101.6875 329.1562 102.0469 329.1562 102.4219 C329.1562 102.8125 329.4844 103.1562 329.8906 103.1562 C330.2969 103.1562 330.6406 102.8125 330.6406 102.4219 C330.6406 102.0469 330.2969 101.6875 329.8906 101.6875 ZM331.4688 95.5781 C331.7188 95.8906 331.875 96.2656 331.8906 96.6562 C331.8906 97.1875 331.625 97.5 331.0312 97.7656 L330.4062 98.0156 C329.6406 98.3125 329.3906 98.5469 329.3906 98.9375 C329.3906 99.1094 329.4531 99.3438 329.5781 99.8125 L329.7344 100.3438 L330.1094 100.3438 L330.0938 99.5312 C330.0938 99.0938 330.2031 98.9688 330.7812 98.7344 L331.2031 98.5625 C332.0312 98.2188 332.4531 97.6875 332.4531 96.8438 C332.4531 95.1562 330.6562 94.1875 329.5 94.0312 C329.1094 94.125 328.9062 94.2969 328.9062 94.6406 C328.9062 94.9375 329.0625 95.1562 329.7188 95.2656 L331.4688 95.5781 Z" style="fill:black; stroke:none;"
      /><rect x="380" width="5" height="10" y="93" style="stroke:none;"
      /><path d="M381.8906 101.6875 C381.4844 101.6875 381.1562 102.0469 381.1562 102.4219 C381.1562 102.8125 381.4844 103.1562 381.8906 103.1562 C382.2969 103.1562 382.6406 102.8125 382.6406 102.4219 C382.6406 102.0469 382.2969 101.6875 381.8906 101.6875 ZM383.4688 95.5781 C383.7188 95.8906 383.875 96.2656 383.8906 96.6562 C383.8906 97.1875 383.625 97.5 383.0312 97.7656 L382.4062 98.0156 C381.6406 98.3125 381.3906 98.5469 381.3906 98.9375 C381.3906 99.1094 381.4531 99.3438 381.5781 99.8125 L381.7344 100.3438 L382.1094 100.3438 L382.0938 99.5312 C382.0938 99.0938 382.2031 98.9688 382.7812 98.7344 L383.2031 98.5625 C384.0312 98.2188 384.4531 97.6875 384.4531 96.8438 C384.4531 95.1562 382.6562 94.1875 381.5 94.0312 C381.1094 94.125 380.9062 94.2969 380.9062 94.6406 C380.9062 94.9375 381.0625 95.1562 381.7188 95.2656 L383.4688 95.5781 Z" style="fill:black; stroke:none;"
    /></g
  ></g
></svg
>
