<?xml version="1.0"?>
<!DOCTYPE svg PUBLIC '-//W3C//DTD SVG 1.0//EN'
          'http://www.w3.org/TR/2001/REC-SVG-20010904/DTD/svg10.dtd'>
<svg xmlns:xlink="http://www.w3.org/1999/xlink" style="fill-opacity:1; color-rendering:auto; color-interpolation:auto; text-rendering:auto; stroke:black; stroke-linecap:square; stroke-miterlimit:10; shape-rendering:auto; stroke-opacity:1; fill:black; stroke-dasharray:none; font-weight:normal; stroke-width:1; font-family:'Dialog'; font-style:normal; stroke-linejoin:miter; font-size:12px; stroke-dashoffset:0; image-rendering:auto;" viewBox="0 0 290 186" xmlns="http://www.w3.org/2000/svg"
><!--Generated by the Batik Graphics2D SVG Generator--><defs id="genericDefs"
  /><g
  ><defs id="defs1"
    ><clipPath clipPathUnits="userSpaceOnUse" id="clipPath1"
      ><path d="M186 82 L208 82 L208 104 L186 104 L186 82 Z"
      /></clipPath
      ><clipPath clipPathUnits="userSpaceOnUse" id="clipPath2"
      ><path d="M134 134 L156 134 L156 156 L134 156 L134 134 Z"
      /></clipPath
      ><clipPath clipPathUnits="userSpaceOnUse" id="clipPath3"
      ><path d="M104 145 C104 151.0751 99.0751 156 93 156 C86.9249 156 82 151.0751 82 145 C82 138.9249 86.9249 134 93 134 C99.0751 134 104 138.9249 104 145 Z"
      /></clipPath
      ><clipPath clipPathUnits="userSpaceOnUse" id="clipPath4"
      ><path style="fill-rule:evenodd;" d="M93 104 L82 82 L104 82 Z"
      /></clipPath
      ><clipPath clipPathUnits="userSpaceOnUse" id="clipPath5"
      ><path d="M156 41 C156 47.0751 151.0751 52 145 52 C138.9249 52 134 47.0751 134 41 C134 34.9249 138.9249 30 145 30 C151.0751 30 156 34.9249 156 41 Z"
      /></clipPath
      ><clipPath clipPathUnits="userSpaceOnUse" id="clipPath6"
      ><path d="M82 30 L104 30 L104 52 L82 52 L82 30 Z"
      /></clipPath
      ><clipPath clipPathUnits="userSpaceOnUse" id="clipPath7"
      ><path d="M52 41 C52 47.0751 47.0751 52 41 52 C34.9249 52 30 47.0751 30 41 C30 34.9249 34.9249 30 41 30 C47.0751 30 52 34.9249 52 41 Z"
      /></clipPath
    ></defs
    ><g style="fill:white; text-rendering:optimizeSpeed; stroke:white;"
    ><rect x="0" width="290" height="186" y="0" style="stroke:none;"
      /><polygon style="fill:none; stroke:black;" points=" 249 93 197 93"
      /><path d="M249 82 C243.5 87.5 254.5 98.5 249 104" style="fill:none; stroke:black;"
      /><polygon style="fill:none; stroke:black;" points=" 197 93 145 145"
      /><polygon style="fill:none; stroke:black;" points=" 197 93 145 41"
      /><rect x="186" y="82" width="22" style="clip-path:url(#clipPath1); stroke:none;" height="22"
      /><rect x="186" y="82" width="22" style="clip-path:url(#clipPath1); fill:rgb(255,212,0); stroke:none;" height="22"
      /><rect x="186" y="82" width="22" style="clip-path:url(#clipPath1); fill:none; stroke:black;" height="22"
      /><rect x="186" y="82" width="22" style="fill:none; stroke:black;" height="22"
      /><polygon style="fill:none; stroke:black;" points=" 145 145 93 145"
      /><rect x="134" y="134" width="22" style="clip-path:url(#clipPath2); stroke:none;" height="22"
      /><rect x="134" y="134" width="22" style="clip-path:url(#clipPath2); fill:rgb(0,144,188); stroke:none;" height="22"
      /><rect x="134" y="134" width="22" style="clip-path:url(#clipPath2); fill:none; stroke:black;" height="22"
      /><rect x="134" y="134" width="22" style="fill:none; stroke:black;" height="22"
      /><polygon style="fill:none; stroke:black;" points=" 93 145 93 93"
      /><circle style="clip-path:url(#clipPath3); stroke:none;" r="11" cx="93" cy="145"
      /><rect x="82" y="134" width="22" style="clip-path:url(#clipPath3); fill:rgb(255,212,0); stroke:none;" height="22"
      /><rect x="82" y="134" width="22" style="clip-path:url(#clipPath3); fill:none; stroke:black;" height="22"
      /><circle style="fill:none; stroke:black;" r="11" cx="93" cy="145"
      /><polygon style="clip-path:url(#clipPath4); stroke:none;" points=" 93 104 82 82 104 82"
      /><rect x="82" y="82" width="22" style="clip-path:url(#clipPath4); fill:rgb(237,28,36); stroke:none;" height="22"
      /><rect x="82" y="82" width="22" style="clip-path:url(#clipPath4); fill:none; stroke:black;" height="22"
      /><polygon style="fill:none; stroke:black;" points=" 93 104 82 82 104 82"
      /><rect x="82" y="121" width="5" style="stroke:none;" height="10"
    /></g
    ><g style="font-family:'Serif'; text-rendering:optimizeSpeed; "
    ><path style="stroke:none;" d="M83.8906 129.6875 C83.4844 129.6875 83.1562 130.0469 83.1562 130.4219 C83.1562 130.8125 83.4844 131.1562 83.8906 131.1562 C84.2969 131.1562 84.6406 130.8125 84.6406 130.4219 C84.6406 130.0469 84.2969 129.6875 83.8906 129.6875 ZM85.4688 123.5781 C85.7188 123.8906 85.875 124.2656 85.8906 124.6562 C85.8906 125.1875 85.625 125.5 85.0312 125.7656 L84.4062 126.0156 C83.6406 126.3125 83.3906 126.5469 83.3906 126.9375 C83.3906 127.1094 83.4531 127.3438 83.5781 127.8125 L83.7344 128.3438 L84.1094 128.3438 L84.0938 127.5312 C84.0938 127.0938 84.2031 126.9688 84.7812 126.7344 L85.2031 126.5625 C86.0312 126.2188 86.4531 125.6875 86.4531 124.8438 C86.4531 123.1562 84.6562 122.1875 83.5 122.0312 C83.1094 122.125 82.9062 122.2969 82.9062 122.6406 C82.9062 122.9375 83.0625 123.1562 83.7188 123.2656 L85.4688 123.5781 Z"
      /><rect x="82" y="107" width="5" style="fill:white; stroke:none;" height="10"
      /><path style="stroke:none;" d="M83.8906 115.6875 C83.4844 115.6875 83.1562 116.0469 83.1562 116.4219 C83.1562 116.8125 83.4844 117.1562 83.8906 117.1562 C84.2969 117.1562 84.6406 116.8125 84.6406 116.4219 C84.6406 116.0469 84.2969 115.6875 83.8906 115.6875 ZM85.4688 109.5781 C85.7188 109.8906 85.875 110.2656 85.8906 110.6562 C85.8906 111.1875 85.625 111.5 85.0312 111.7656 L84.4062 112.0156 C83.6406 112.3125 83.3906 112.5469 83.3906 112.9375 C83.3906 113.1094 83.4531 113.3438 83.5781 113.8125 L83.7344 114.3438 L84.1094 114.3438 L84.0938 113.5312 C84.0938 113.0938 84.2031 112.9688 84.7812 112.7344 L85.2031 112.5625 C86.0312 112.2188 86.4531 111.6875 86.4531 110.8438 C86.4531 109.1562 84.6562 108.1875 83.5 108.0312 C83.1094 108.125 82.9062 108.2969 82.9062 108.6406 C82.9062 108.9375 83.0625 109.1562 83.7188 109.2656 L85.4688 109.5781 Z"
      /><rect x="123" y="148" width="5" style="fill:white; stroke:none;" height="10"
      /><path style="stroke:none;" d="M124.8906 156.6875 C124.4844 156.6875 124.1562 157.0469 124.1562 157.4219 C124.1562 157.8125 124.4844 158.1562 124.8906 158.1562 C125.2969 158.1562 125.6406 157.8125 125.6406 157.4219 C125.6406 157.0469 125.2969 156.6875 124.8906 156.6875 ZM126.4688 150.5781 C126.7188 150.8906 126.875 151.2656 126.8906 151.6562 C126.8906 152.1875 126.625 152.5 126.0312 152.7656 L125.4062 153.0156 C124.6406 153.3125 124.3906 153.5469 124.3906 153.9375 C124.3906 154.1094 124.4531 154.3438 124.5781 154.8125 L124.7344 155.3438 L125.1094 155.3438 L125.0938 154.5312 C125.0938 154.0938 125.2031 153.9688 125.7812 153.7344 L126.2031 153.5625 C127.0312 153.2188 127.4531 152.6875 127.4531 151.8438 C127.4531 150.1562 125.6562 149.1875 124.5 149.0312 C124.1094 149.125 123.9062 149.2969 123.9062 149.6406 C123.9062 149.9375 124.0625 150.1562 124.7188 150.2656 L126.4688 150.5781 Z"
      /><rect x="109" y="148" width="5" style="fill:white; stroke:none;" height="10"
      /><path style="stroke:none;" d="M110.8906 156.6875 C110.4844 156.6875 110.1562 157.0469 110.1562 157.4219 C110.1562 157.8125 110.4844 158.1562 110.8906 158.1562 C111.2969 158.1562 111.6406 157.8125 111.6406 157.4219 C111.6406 157.0469 111.2969 156.6875 110.8906 156.6875 ZM112.4688 150.5781 C112.7188 150.8906 112.875 151.2656 112.8906 151.6562 C112.8906 152.1875 112.625 152.5 112.0312 152.7656 L111.4062 153.0156 C110.6406 153.3125 110.3906 153.5469 110.3906 153.9375 C110.3906 154.1094 110.4531 154.3438 110.5781 154.8125 L110.7344 155.3438 L111.1094 155.3438 L111.0938 154.5312 C111.0938 154.0938 111.2031 153.9688 111.7812 153.7344 L112.2031 153.5625 C113.0312 153.2188 113.4531 152.6875 113.4531 151.8438 C113.4531 150.1562 111.6562 149.1875 110.5 149.0312 C110.1094 149.125 109.9062 149.2969 109.9062 149.6406 C109.9062 149.9375 110.0625 150.1562 110.7188 150.2656 L112.4688 150.5781 Z"
      /><polygon style="fill:none;" points=" 145 41 93 41"
      /><circle style="fill:white; clip-path:url(#clipPath5); stroke:none;" r="11" cx="145" cy="41"
      /><rect x="134" y="30" width="22" style="clip-path:url(#clipPath5); fill:rgb(255,212,0); stroke:none;" height="22"
      /><rect x="134" y="30" width="22" style="fill:none; clip-path:url(#clipPath5);" height="22"
      /><circle r="11" style="fill:none;" cx="145" cy="41"
      /><polygon style="fill:none;" points=" 93 41 41 41"
      /><rect x="82" y="30" width="22" style="clip-path:url(#clipPath6); fill:white; stroke:none;" height="22"
      /><rect x="82" y="30" width="22" style="clip-path:url(#clipPath6); fill:rgb(0,144,188); stroke:none;" height="22"
      /><rect x="82" y="30" width="22" style="fill:none; clip-path:url(#clipPath6);" height="22"
      /><rect x="82" width="22" height="22" y="30" style="fill:none;"
      /><circle style="fill:white; clip-path:url(#clipPath7); stroke:none;" r="11" cx="41" cy="41"
      /><rect x="30" y="30" width="22" style="clip-path:url(#clipPath7); fill:rgb(255,212,0); stroke:none;" height="22"
      /><rect x="30" y="30" width="22" style="fill:none; clip-path:url(#clipPath7);" height="22"
      /><circle r="11" style="fill:none;" cx="41" cy="41"
      /><rect x="71" y="44" width="5" style="fill:white; stroke:none;" height="10"
      /><path style="stroke:none;" d="M72.8906 52.6875 C72.4844 52.6875 72.1562 53.0469 72.1562 53.4219 C72.1562 53.8125 72.4844 54.1562 72.8906 54.1562 C73.2969 54.1562 73.6406 53.8125 73.6406 53.4219 C73.6406 53.0469 73.2969 52.6875 72.8906 52.6875 ZM74.4688 46.5781 C74.7188 46.8906 74.875 47.2656 74.8906 47.6562 C74.8906 48.1875 74.625 48.5 74.0312 48.7656 L73.4062 49.0156 C72.6406 49.3125 72.3906 49.5469 72.3906 49.9375 C72.3906 50.1094 72.4531 50.3438 72.5781 50.8125 L72.7344 51.3438 L73.1094 51.3438 L73.0938 50.5312 C73.0938 50.0938 73.2031 49.9688 73.7812 49.7344 L74.2031 49.5625 C75.0312 49.2188 75.4531 48.6875 75.4531 47.8438 C75.4531 46.1562 73.6562 45.1875 72.5 45.0312 C72.1094 45.125 71.9062 45.2969 71.9062 45.6406 C71.9062 45.9375 72.0625 46.1562 72.7188 46.2656 L74.4688 46.5781 Z"
      /><rect x="57" y="44" width="5" style="fill:white; stroke:none;" height="10"
      /><path style="stroke:none;" d="M58.8906 52.6875 C58.4844 52.6875 58.1562 53.0469 58.1562 53.4219 C58.1562 53.8125 58.4844 54.1562 58.8906 54.1562 C59.2969 54.1562 59.6406 53.8125 59.6406 53.4219 C59.6406 53.0469 59.2969 52.6875 58.8906 52.6875 ZM60.4688 46.5781 C60.7188 46.8906 60.875 47.2656 60.8906 47.6562 C60.8906 48.1875 60.625 48.5 60.0312 48.7656 L59.4062 49.0156 C58.6406 49.3125 58.3906 49.5469 58.3906 49.9375 C58.3906 50.1094 58.4531 50.3438 58.5781 50.8125 L58.7344 51.3438 L59.1094 51.3438 L59.0938 50.5312 C59.0938 50.0938 59.2031 49.9688 59.7812 49.7344 L60.2031 49.5625 C61.0312 49.2188 61.4531 48.6875 61.4531 47.8438 C61.4531 46.1562 59.6562 45.1875 58.5 45.0312 C58.1094 45.125 57.9062 45.2969 57.9062 45.6406 C57.9062 45.9375 58.0625 46.1562 58.7188 46.2656 L60.4688 46.5781 Z"
      /><rect x="123" y="44" width="5" style="fill:white; stroke:none;" height="10"
      /><path style="stroke:none;" d="M124.8906 52.6875 C124.4844 52.6875 124.1562 53.0469 124.1562 53.4219 C124.1562 53.8125 124.4844 54.1562 124.8906 54.1562 C125.2969 54.1562 125.6406 53.8125 125.6406 53.4219 C125.6406 53.0469 125.2969 52.6875 124.8906 52.6875 ZM126.4688 46.5781 C126.7188 46.8906 126.875 47.2656 126.8906 47.6562 C126.8906 48.1875 126.625 48.5 126.0312 48.7656 L125.4062 49.0156 C124.6406 49.3125 124.3906 49.5469 124.3906 49.9375 C124.3906 50.1094 124.4531 50.3438 124.5781 50.8125 L124.7344 51.3438 L125.1094 51.3438 L125.0938 50.5312 C125.0938 50.0938 125.2031 49.9688 125.7812 49.7344 L126.2031 49.5625 C127.0312 49.2188 127.4531 48.6875 127.4531 47.8438 C127.4531 46.1562 125.6562 45.1875 124.5 45.0312 C124.1094 45.125 123.9062 45.2969 123.9062 45.6406 C123.9062 45.9375 124.0625 46.1562 124.7188 46.2656 L126.4688 46.5781 Z"
      /><rect x="109" y="44" width="5" style="fill:white; stroke:none;" height="10"
      /><path style="stroke:none;" d="M110.8906 52.6875 C110.4844 52.6875 110.1562 53.0469 110.1562 53.4219 C110.1562 53.8125 110.4844 54.1562 110.8906 54.1562 C111.2969 54.1562 111.6406 53.8125 111.6406 53.4219 C111.6406 53.0469 111.2969 52.6875 110.8906 52.6875 ZM112.4688 46.5781 C112.7188 46.8906 112.875 47.2656 112.8906 47.6562 C112.8906 48.1875 112.625 48.5 112.0312 48.7656 L111.4062 49.0156 C110.6406 49.3125 110.3906 49.5469 110.3906 49.9375 C110.3906 50.1094 110.4531 50.3438 110.5781 50.8125 L110.7344 51.3438 L111.1094 51.3438 L111.0938 50.5312 C111.0938 50.0938 111.2031 49.9688 111.7812 49.7344 L112.2031 49.5625 C113.0312 49.2188 113.4531 48.6875 113.4531 47.8438 C113.4531 46.1562 111.6562 45.1875 110.5 45.0312 C110.1094 45.125 109.9062 45.2969 109.9062 45.6406 C109.9062 45.9375 110.0625 46.1562 110.7188 46.2656 L112.4688 46.5781 Z"
      /><rect x="183" y="110" width="5" style="fill:white; stroke:none;" height="10"
      /><path style="stroke:none;" d="M184.8906 118.6875 C184.4844 118.6875 184.1562 119.0469 184.1562 119.4219 C184.1562 119.8125 184.4844 120.1562 184.8906 120.1562 C185.2969 120.1562 185.6406 119.8125 185.6406 119.4219 C185.6406 119.0469 185.2969 118.6875 184.8906 118.6875 ZM186.4688 112.5781 C186.7188 112.8906 186.875 113.2656 186.8906 113.6562 C186.8906 114.1875 186.625 114.5 186.0312 114.7656 L185.4062 115.0156 C184.6406 115.3125 184.3906 115.5469 184.3906 115.9375 C184.3906 116.1094 184.4531 116.3438 184.5781 116.8125 L184.7344 117.3438 L185.1094 117.3438 L185.0938 116.5312 C185.0938 116.0938 185.2031 115.9688 185.7812 115.7344 L186.2031 115.5625 C187.0312 115.2188 187.4531 114.6875 187.4531 113.8438 C187.4531 112.1562 185.6562 111.1875 184.5 111.0312 C184.1094 111.125 183.9062 111.2969 183.9062 111.6406 C183.9062 111.9375 184.0625 112.1562 184.7188 112.2656 L186.4688 112.5781 Z"
      /><rect x="164" y="129" width="5" style="fill:white; stroke:none;" height="10"
      /><path style="stroke:none;" d="M165.8906 137.6875 C165.4844 137.6875 165.1562 138.0469 165.1562 138.4219 C165.1562 138.8125 165.4844 139.1562 165.8906 139.1562 C166.2969 139.1562 166.6406 138.8125 166.6406 138.4219 C166.6406 138.0469 166.2969 137.6875 165.8906 137.6875 ZM167.4688 131.5781 C167.7188 131.8906 167.875 132.2656 167.8906 132.6562 C167.8906 133.1875 167.625 133.5 167.0312 133.7656 L166.4062 134.0156 C165.6406 134.3125 165.3906 134.5469 165.3906 134.9375 C165.3906 135.1094 165.4531 135.3438 165.5781 135.8125 L165.7344 136.3438 L166.1094 136.3438 L166.0938 135.5312 C166.0938 135.0938 166.2031 134.9688 166.7812 134.7344 L167.2031 134.5625 C168.0312 134.2188 168.4531 133.6875 168.4531 132.8438 C168.4531 131.1562 166.6562 130.1875 165.5 130.0312 C165.1094 130.125 164.9062 130.2969 164.9062 130.6406 C164.9062 130.9375 165.0625 131.1562 165.7188 131.2656 L167.4688 131.5781 Z"
      /><rect x="172" y="77" width="5" style="fill:white; stroke:none;" height="10"
      /><path style="stroke:none;" d="M173.8906 85.6875 C173.4844 85.6875 173.1562 86.0469 173.1562 86.4219 C173.1562 86.8125 173.4844 87.1562 173.8906 87.1562 C174.2969 87.1562 174.6406 86.8125 174.6406 86.4219 C174.6406 86.0469 174.2969 85.6875 173.8906 85.6875 ZM175.4688 79.5781 C175.7188 79.8906 175.875 80.2656 175.8906 80.6562 C175.8906 81.1875 175.625 81.5 175.0312 81.7656 L174.4062 82.0156 C173.6406 82.3125 173.3906 82.5469 173.3906 82.9375 C173.3906 83.1094 173.4531 83.3438 173.5781 83.8125 L173.7344 84.3438 L174.1094 84.3438 L174.0938 83.5312 C174.0938 83.0938 174.2031 82.9688 174.7812 82.7344 L175.2031 82.5625 C176.0312 82.2188 176.4531 81.6875 176.4531 80.8438 C176.4531 79.1562 174.6562 78.1875 173.5 78.0312 C173.1094 78.125 172.9062 78.2969 172.9062 78.6406 C172.9062 78.9375 173.0625 79.1562 173.7188 79.2656 L175.4688 79.5781 Z"
      /><rect x="153" y="58" width="5" style="fill:white; stroke:none;" height="10"
      /><path style="stroke:none;" d="M154.8906 66.6875 C154.4844 66.6875 154.1562 67.0469 154.1562 67.4219 C154.1562 67.8125 154.4844 68.1562 154.8906 68.1562 C155.2969 68.1562 155.6406 67.8125 155.6406 67.4219 C155.6406 67.0469 155.2969 66.6875 154.8906 66.6875 ZM156.4688 60.5781 C156.7188 60.8906 156.875 61.2656 156.8906 61.6562 C156.8906 62.1875 156.625 62.5 156.0312 62.7656 L155.4062 63.0156 C154.6406 63.3125 154.3906 63.5469 154.3906 63.9375 C154.3906 64.1094 154.4531 64.3438 154.5781 64.8125 L154.7344 65.3438 L155.1094 65.3438 L155.0938 64.5312 C155.0938 64.0938 155.2031 63.9688 155.7812 63.7344 L156.2031 63.5625 C157.0312 63.2188 157.4531 62.6875 157.4531 61.8438 C157.4531 60.1562 155.6562 59.1875 154.5 59.0312 C154.1094 59.125 153.9062 59.2969 153.9062 59.6406 C153.9062 59.9375 154.0625 60.1562 154.7188 60.2656 L156.4688 60.5781 Z"
      /><rect x="213" y="96" width="5" style="fill:white; stroke:none;" height="10"
      /><path style="stroke:none;" d="M214.8906 104.6875 C214.4844 104.6875 214.1562 105.0469 214.1562 105.4219 C214.1562 105.8125 214.4844 106.1562 214.8906 106.1562 C215.2969 106.1562 215.6406 105.8125 215.6406 105.4219 C215.6406 105.0469 215.2969 104.6875 214.8906 104.6875 ZM216.4688 98.5781 C216.7188 98.8906 216.875 99.2656 216.8906 99.6562 C216.8906 100.1875 216.625 100.5 216.0312 100.7656 L215.4062 101.0156 C214.6406 101.3125 214.3906 101.5469 214.3906 101.9375 C214.3906 102.1094 214.4531 102.3438 214.5781 102.8125 L214.7344 103.3438 L215.1094 103.3438 L215.0938 102.5312 C215.0938 102.0938 215.2031 101.9688 215.7812 101.7344 L216.2031 101.5625 C217.0312 101.2188 217.4531 100.6875 217.4531 99.8438 C217.4531 98.1562 215.6562 97.1875 214.5 97.0312 C214.1094 97.125 213.9062 97.2969 213.9062 97.6406 C213.9062 97.9375 214.0625 98.1562 214.7188 98.2656 L216.4688 98.5781 Z"
    /></g
  ></g
></svg
>
