<?xml version="1.0"?>
<!DOCTYPE svg PUBLIC '-//W3C//DTD SVG 1.0//EN'
          'http://www.w3.org/TR/2001/REC-SVG-20010904/DTD/svg10.dtd'>
<svg xmlns:xlink="http://www.w3.org/1999/xlink" style="fill-opacity:1; color-rendering:auto; color-interpolation:auto; text-rendering:auto; stroke:black; stroke-linecap:square; stroke-miterlimit:10; shape-rendering:auto; stroke-opacity:1; fill:black; stroke-dasharray:none; font-weight:normal; stroke-width:1; font-family:'Dialog'; font-style:normal; stroke-linejoin:miter; font-size:12px; stroke-dashoffset:0; image-rendering:auto;" viewBox="0 0 394 238" xmlns="http://www.w3.org/2000/svg"
><!--Generated by the Batik Graphics2D SVG Generator--><defs id="genericDefs"
  /><g
  ><defs id="defs1"
    ><clipPath clipPathUnits="userSpaceOnUse" id="clipPath1"
      ><path style="fill-rule:evenodd;" d="M301 134 L303 141 L311 141 L304 146 L307 153 L301 149 L294 153 L297 146 L290 141 L298 141 L301 134 Z"
      /></clipPath
      ><clipPath clipPathUnits="userSpaceOnUse" id="clipPath2"
      ><path style="fill-rule:evenodd;" d="M249 134 L251 141 L259 141 L252 146 L255 153 L249 149 L242 153 L245 146 L238 141 L246 141 L249 134 Z"
      /></clipPath
      ><clipPath clipPathUnits="userSpaceOnUse" id="clipPath3"
      ><path style="fill-rule:evenodd;" d="M197 134 L199 141 L207 141 L200 146 L203 153 L197 149 L190 153 L193 146 L186 141 L194 141 L197 134 Z"
      /></clipPath
      ><clipPath clipPathUnits="userSpaceOnUse" id="clipPath4"
      ><path style="fill-rule:evenodd;" d="M145 186 L147 193 L155 193 L148 198 L151 205 L145 201 L138 205 L141 198 L134 193 L142 193 L145 186 Z"
      /></clipPath
      ><clipPath clipPathUnits="userSpaceOnUse" id="clipPath5"
      ><path style="fill-rule:evenodd;" d="M145 134 L147 141 L155 141 L148 146 L151 153 L145 149 L138 153 L141 146 L134 141 L142 141 L145 134 Z"
      /></clipPath
      ><clipPath clipPathUnits="userSpaceOnUse" id="clipPath6"
      ><path style="fill-rule:evenodd;" d="M145 82 L147 89 L155 89 L148 94 L151 101 L145 97 L138 101 L141 94 L134 89 L142 89 L145 82 Z"
      /></clipPath
      ><clipPath clipPathUnits="userSpaceOnUse" id="clipPath7"
      ><path style="fill-rule:evenodd;" d="M93 82 L95 89 L103 89 L96 94 L99 101 L93 97 L86 101 L89 94 L82 89 L90 89 L93 82 Z"
      /></clipPath
      ><clipPath clipPathUnits="userSpaceOnUse" id="clipPath8"
      ><path style="fill-rule:evenodd;" d="M41 134 L43 141 L51 141 L44 146 L47 153 L41 149 L34 153 L37 146 L30 141 L38 141 L41 134 Z"
      /></clipPath
      ><clipPath clipPathUnits="userSpaceOnUse" id="clipPath9"
      ><path style="fill-rule:evenodd;" d="M41 82 L43 89 L51 89 L44 94 L47 101 L41 97 L34 101 L37 94 L30 89 L38 89 L41 82 Z"
      /></clipPath
      ><clipPath clipPathUnits="userSpaceOnUse" id="clipPath10"
      ><path style="fill-rule:evenodd;" d="M41 30 L43 37 L51 37 L44 42 L47 49 L41 45 L34 49 L37 42 L30 37 L38 37 L41 30 Z"
      /></clipPath
    ></defs
    ><g style="fill:white; text-rendering:optimizeSpeed; stroke:white;"
    ><rect x="0" width="394" height="238" y="0" style="stroke:none;"
      /><polygon style="fill:none; stroke:black;" points=" 353 145 301 145"
      /><path d="M353 134 C347.5 139.5 358.5 150.5 353 156" style="fill:none; stroke:black;"
      /><polygon style="fill:none; stroke:black;" points=" 301 145 249 145"
      /><polygon style="clip-path:url(#clipPath1); stroke:none;" points=" 301 134 303 141 311 141 304 146 307 153 301 149 294 153 297 146 290 141 298 141 301 134"
      /><rect x="290" y="134" width="22" style="clip-path:url(#clipPath1); fill:rgb(244,121,32); stroke:none;" height="22"
      /><rect x="290" y="134" width="22" style="clip-path:url(#clipPath1); fill:none; stroke:black;" height="22"
      /><polygon style="fill:none; stroke:black;" points=" 301 134 303 141 311 141 304 146 307 153 301 149 294 153 297 146 290 141 298 141 301 134"
      /><polygon style="fill:none; stroke:black;" points=" 249 145 197 145"
      /><polygon style="clip-path:url(#clipPath2); stroke:none;" points=" 249 134 251 141 259 141 252 146 255 153 249 149 242 153 245 146 238 141 246 141 249 134"
      /><rect x="238" y="134" width="22" style="clip-path:url(#clipPath2); fill:rgb(244,121,32); stroke:none;" height="22"
      /><rect x="238" y="134" width="22" style="clip-path:url(#clipPath2); fill:none; stroke:black;" height="22"
      /><polygon style="fill:none; stroke:black;" points=" 249 134 251 141 259 141 252 146 255 153 249 149 242 153 245 146 238 141 246 141 249 134"
      /><polygon style="fill:none; stroke:black;" points=" 197 145 145 197"
      /><polygon style="fill:none; stroke:black;" points=" 197 145 145 145"
      /><polygon style="fill:none; stroke:black;" points=" 197 145 145 93"
      /><polygon style="clip-path:url(#clipPath3); stroke:none;" points=" 197 134 199 141 207 141 200 146 203 153 197 149 190 153 193 146 186 141 194 141 197 134"
      /><rect x="186" y="134" width="22" style="clip-path:url(#clipPath3); fill:rgb(244,121,32); stroke:none;" height="22"
      /><rect x="186" y="134" width="22" style="clip-path:url(#clipPath3); fill:none; stroke:black;" height="22"
      /><polygon style="fill:none; stroke:black;" points=" 197 134 199 141 207 141 200 146 203 153 197 149 190 153 193 146 186 141 194 141 197 134"
      /><polygon style="clip-path:url(#clipPath4); stroke:none;" points=" 145 186 147 193 155 193 148 198 151 205 145 201 138 205 141 198 134 193 142 193 145 186"
      /><rect x="134" y="186" width="22" style="clip-path:url(#clipPath4); fill:rgb(0,166,81); stroke:none;" height="22"
      /><rect x="134" y="186" width="22" style="clip-path:url(#clipPath4); fill:none; stroke:black;" height="22"
      /><polygon style="fill:none; stroke:black;" points=" 145 186 147 193 155 193 148 198 151 205 145 201 138 205 141 198 134 193 142 193 145 186"
    /></g
    ><g style="text-rendering:optimizeSpeed; font-size:10px; font-family:'SansSerif';"
    ><path style="stroke:none;" d="M144.0625 201 L144.9844 201 L144.9844 196.3125 L146.125 196.3125 L146.125 195.5625 L144.9844 195.5625 L144.9844 194.7031 C144.9844 194.0156 145.2344 193.6406 145.75 193.6406 C145.9375 193.6406 146.1562 193.6875 146.3594 193.7812 L146.5625 193.0938 C146.3125 192.9844 145.9844 192.9062 145.6562 192.9062 C144.5625 192.9062 144.0625 193.5938 144.0625 194.7031 L144.0625 195.5625 L143.3281 195.625 L143.3281 196.3125 L144.0625 196.3125 L144.0625 201 Z"
    /></g
    ><g style="fill:white; text-rendering:optimizeSpeed; stroke:white;"
    ><polygon style="stroke:none; clip-path:url(#clipPath5);" points=" 145 134 147 141 155 141 148 146 151 153 145 149 138 153 141 146 134 141 142 141 145 134"
      /><rect x="134" y="134" width="22" style="clip-path:url(#clipPath5); fill:rgb(0,166,81); stroke:none;" height="22"
      /><rect x="134" y="134" width="22" style="clip-path:url(#clipPath5); fill:none; stroke:black;" height="22"
      /><polygon style="fill:none; stroke:black;" points=" 145 134 147 141 155 141 148 146 151 153 145 149 138 153 141 146 134 141 142 141 145 134"
    /></g
    ><g style="text-rendering:optimizeSpeed; font-size:10px; font-family:'SansSerif';"
    ><path style="stroke:none;" d="M144.0625 149 L144.9844 149 L144.9844 144.3125 L146.125 144.3125 L146.125 143.5625 L144.9844 143.5625 L144.9844 142.7031 C144.9844 142.0156 145.2344 141.6406 145.75 141.6406 C145.9375 141.6406 146.1562 141.6875 146.3594 141.7812 L146.5625 141.0938 C146.3125 140.9844 145.9844 140.9062 145.6562 140.9062 C144.5625 140.9062 144.0625 141.5938 144.0625 142.7031 L144.0625 143.5625 L143.3281 143.625 L143.3281 144.3125 L144.0625 144.3125 L144.0625 149 Z"
      /><polygon style="fill:none;" points=" 145 93 93 93"
    /></g
    ><g style="fill:white; text-rendering:optimizeSpeed; stroke:white;"
    ><polygon style="stroke:none; clip-path:url(#clipPath6);" points=" 145 82 147 89 155 89 148 94 151 101 145 97 138 101 141 94 134 89 142 89 145 82"
      /><rect x="134" y="82" width="22" style="clip-path:url(#clipPath6); fill:rgb(244,121,32); stroke:none;" height="22"
      /><rect x="134" y="82" width="22" style="clip-path:url(#clipPath6); fill:none; stroke:black;" height="22"
      /><polygon style="fill:none; stroke:black;" points=" 145 82 147 89 155 89 148 94 151 101 145 97 138 101 141 94 134 89 142 89 145 82"
      /><polygon style="fill:none; stroke:black;" points=" 93 93 41 145"
      /><polygon style="fill:none; stroke:black;" points=" 93 93 41 93"
      /><polygon style="fill:none; stroke:black;" points=" 93 93 41 41"
      /><polygon style="clip-path:url(#clipPath7); stroke:none;" points=" 93 82 95 89 103 89 96 94 99 101 93 97 86 101 89 94 82 89 90 89 93 82"
      /><rect x="82" y="82" width="22" style="clip-path:url(#clipPath7); fill:rgb(244,121,32); stroke:none;" height="22"
      /><rect x="82" y="82" width="22" style="clip-path:url(#clipPath7); fill:none; stroke:black;" height="22"
      /><polygon style="fill:none; stroke:black;" points=" 93 82 95 89 103 89 96 94 99 101 93 97 86 101 89 94 82 89 90 89 93 82"
      /><polygon style="clip-path:url(#clipPath8); stroke:none;" points=" 41 134 43 141 51 141 44 146 47 153 41 149 34 153 37 146 30 141 38 141 41 134"
      /><rect x="30" y="134" width="22" style="clip-path:url(#clipPath8); fill:rgb(0,166,81); stroke:none;" height="22"
      /><rect x="30" y="134" width="22" style="clip-path:url(#clipPath8); fill:none; stroke:black;" height="22"
      /><polygon style="fill:none; stroke:black;" points=" 41 134 43 141 51 141 44 146 47 153 41 149 34 153 37 146 30 141 38 141 41 134"
    /></g
    ><g style="text-rendering:optimizeSpeed; font-size:10px; font-family:'SansSerif';"
    ><path style="stroke:none;" d="M40.0625 149 L40.9844 149 L40.9844 144.3125 L42.125 144.3125 L42.125 143.5625 L40.9844 143.5625 L40.9844 142.7031 C40.9844 142.0156 41.2344 141.6406 41.75 141.6406 C41.9375 141.6406 42.1562 141.6875 42.3594 141.7812 L42.5625 141.0938 C42.3125 140.9844 41.9844 140.9062 41.6562 140.9062 C40.5625 140.9062 40.0625 141.5938 40.0625 142.7031 L40.0625 143.5625 L39.3281 143.625 L39.3281 144.3125 L40.0625 144.3125 L40.0625 149 Z"
    /></g
    ><g style="fill:white; text-rendering:optimizeSpeed; stroke:white;"
    ><polygon style="stroke:none; clip-path:url(#clipPath9);" points=" 41 82 43 89 51 89 44 94 47 101 41 97 34 101 37 94 30 89 38 89 41 82"
      /><rect x="30" y="82" width="22" style="clip-path:url(#clipPath9); fill:rgb(0,166,81); stroke:none;" height="22"
      /><rect x="30" y="82" width="22" style="clip-path:url(#clipPath9); fill:none; stroke:black;" height="22"
      /><polygon style="fill:none; stroke:black;" points=" 41 82 43 89 51 89 44 94 47 101 41 97 34 101 37 94 30 89 38 89 41 82"
    /></g
    ><g style="text-rendering:optimizeSpeed; font-size:10px; font-family:'SansSerif';"
    ><path style="stroke:none;" d="M40.0625 97 L40.9844 97 L40.9844 92.3125 L42.125 92.3125 L42.125 91.5625 L40.9844 91.5625 L40.9844 90.7031 C40.9844 90.0156 41.2344 89.6406 41.75 89.6406 C41.9375 89.6406 42.1562 89.6875 42.3594 89.7812 L42.5625 89.0938 C42.3125 88.9844 41.9844 88.9062 41.6562 88.9062 C40.5625 88.9062 40.0625 89.5938 40.0625 90.7031 L40.0625 91.5625 L39.3281 91.625 L39.3281 92.3125 L40.0625 92.3125 L40.0625 97 Z"
    /></g
    ><g style="fill:white; text-rendering:optimizeSpeed; stroke:white;"
    ><polygon style="stroke:none; clip-path:url(#clipPath10);" points=" 41 30 43 37 51 37 44 42 47 49 41 45 34 49 37 42 30 37 38 37 41 30"
      /><rect x="30" y="30" width="22" style="clip-path:url(#clipPath10); fill:rgb(244,121,32); stroke:none;" height="22"
      /><rect x="30" y="30" width="22" style="clip-path:url(#clipPath10); fill:none; stroke:black;" height="22"
      /><polygon style="fill:none; stroke:black;" points=" 41 30 43 37 51 37 44 42 47 49 41 45 34 49 37 42 30 37 38 37 41 30"
      /><rect x="79" width="6" height="9" y="110" style="stroke:none;"
      /><path d="M80.4219 118.0938 C81.0781 117.375 81.7031 116.7188 82.0312 116.3438 C83.9219 114.3125 84.5312 113.4688 84.5312 112.3594 C84.5312 111.0156 83.7812 110.0781 82.1562 110.0781 C80.9062 110.0781 79.7969 110.7031 79.5938 111.9688 C79.7188 112.2031 79.9062 112.3438 80.1562 112.3438 C80.4688 112.3438 80.6562 112.1094 80.7969 111.5938 L81.0938 110.6719 C81.3906 110.5938 81.6562 110.5625 81.8906 110.5625 C82.9219 110.5625 83.5469 111.3125 83.5469 112.4219 C83.5469 113.4375 82.9844 114.4219 81.7031 115.9062 C81.125 116.5781 80.3906 117.4375 79.6406 118.2812 L79.6406 119 L84.9219 119 L84.9219 118.0938 L80.4219 118.0938 Z" style="fill:black; stroke:none;"
      /><rect x="59" width="8" height="8" y="130" style="stroke:none;"
      /><path d="M63.9844 135.7031 C63.9375 136.8906 63.1562 137.6562 62.3125 137.6562 C61.2656 137.6562 60.5 136.6875 60.5 134.7188 C60.5 133.2812 61.1562 132.1562 62.3438 132.1562 C63.1406 132.1562 63.7812 132.6875 64.0938 133.6406 L63.9844 135.7031 ZM65.9062 137.2812 C65.7344 137.375 65.5469 137.4219 65.3438 137.4219 C64.9531 137.4219 64.75 137.2188 64.75 136.4219 C64.75 135.4844 64.9688 133.5312 65.1875 131.8281 L65.0312 131.7188 L64.2344 131.9219 L64.1406 132.7969 C63.7812 132.0312 63.1562 131.6562 62.3906 131.6562 C61.0469 131.6562 59.5625 132.8438 59.5625 134.9531 C59.5625 137.0938 60.7188 138.1719 62.1406 138.1719 C63.0156 138.1719 63.6875 137.8125 64.0938 136.9844 C64.2031 137.8594 64.5156 138.1719 65.0156 138.1719 C65.4688 138.1719 65.7969 137.9062 66.0156 137.5625 L65.9062 137.2812 Z" style="fill:black; stroke:none;"
      /><rect x="71" width="6" height="10" y="96" style="stroke:none;"
      /><path d="M73.2344 97.6562 C73.5156 97.5938 73.7656 97.5625 74.0156 97.5625 C75.0625 97.5625 75.6719 98.1719 75.6719 99.2656 C75.6719 100.4375 74.9062 101.1094 73.7031 101.1094 L73.1875 101.1094 L73.1875 101.6406 L73.7969 101.6406 C75.2188 101.6406 75.9062 102.4219 75.9062 103.6406 C75.9062 104.8438 75.1719 105.6875 73.875 105.6875 C73.6094 105.6875 73.3125 105.6562 73.0156 105.5625 L72.7812 104.8125 C72.625 104.2812 72.5 104.0469 72.1406 104.0469 C71.8906 104.0469 71.7031 104.1719 71.5781 104.4219 C71.8438 105.6406 72.7812 106.1719 74.0312 106.1719 C75.7188 106.1719 76.875 105.125 76.875 103.7031 C76.875 102.5 76.2031 101.625 74.7969 101.375 C75.9531 101.0156 76.6094 100.2031 76.6094 99.2031 C76.6094 97.9219 75.6719 97.0781 74.1875 97.0781 C73.0469 97.0781 72.0625 97.5938 71.7969 98.6875 C71.9062 99 72.1094 99.1094 72.3594 99.1094 C72.7344 99.1094 72.8906 98.8906 73 98.4062 L73.2344 97.6562 Z" style="fill:black; stroke:none;"
      /><rect x="56" width="8" height="8" y="97" style="stroke:none;"
      /><path d="M60.9844 102.7031 C60.9375 103.8906 60.1562 104.6562 59.3125 104.6562 C58.2656 104.6562 57.5 103.6875 57.5 101.7188 C57.5 100.2812 58.1562 99.1562 59.3438 99.1562 C60.1406 99.1562 60.7812 99.6875 61.0938 100.6406 L60.9844 102.7031 ZM62.9062 104.2812 C62.7344 104.375 62.5469 104.4219 62.3438 104.4219 C61.9531 104.4219 61.75 104.2188 61.75 103.4219 C61.75 102.4844 61.9688 100.5312 62.1875 98.8281 L62.0312 98.7188 L61.2344 98.9219 L61.1406 99.7969 C60.7812 99.0312 60.1562 98.6562 59.3906 98.6562 C58.0469 98.6562 56.5625 99.8438 56.5625 101.9531 C56.5625 104.0938 57.7188 105.1719 59.1406 105.1719 C60.0156 105.1719 60.6875 104.8125 61.0938 103.9844 C61.2031 104.8594 61.5156 105.1719 62.0156 105.1719 C62.4688 105.1719 62.7969 104.9062 63.0156 104.5625 L62.9062 104.2812 Z" style="fill:black; stroke:none;"
      /><rect x="67" width="7" height="9" y="77" style="stroke:none;"
      /><path d="M68 82.5156 L70.9531 78.2656 L70.9531 82.5156 L68 82.5156 ZM73.2812 82.5156 L71.8594 82.5156 L71.8594 77.125 L71.2344 77.125 L67.3438 82.6406 L67.3438 83.1875 L70.9531 83.1875 L70.9531 86 L71.8594 86 L71.8594 83.1875 L73.2812 83.1875 L73.2812 82.5156 Z" style="fill:black; stroke:none;"
      /><rect x="49" width="6" height="13" y="56" style="stroke:none;"
      /><path d="M51.0938 62.2031 C51.0938 60.6562 51.75 59.8125 52.7969 59.8125 C53.7188 59.8125 54.2656 60.4531 54.2656 61.5156 C54.2656 62.7188 53.5 63.4375 52.1875 63.7031 L52.2969 64.3125 C54.2188 64.2344 54.9375 65.2188 54.9375 66.4375 C54.9375 67.625 54.2344 68.4219 52.9531 68.4219 C52.25 68.4219 51.6562 68.1562 51.0938 67.7188 L51.0938 62.2031 ZM50.2031 68.9062 L50.1094 71.375 L50.2656 71.4844 L51.1562 71.2656 L51.0156 68.0938 C51.5469 68.8438 52.3594 69.1719 53.1719 69.1719 C54.5625 69.1719 55.8594 68.2188 55.8594 66.4844 C55.8594 64.9531 54.875 64.1094 53.125 64 C54.5625 63.6094 55.1875 62.4531 55.1875 61.4844 C55.1875 60.0938 54.1562 59.3125 52.9062 59.3125 C51.2969 59.3125 50.2188 60.5469 50.2188 62.5156 L50.2031 68.9062 Z" style="fill:black; stroke:none;"
      /><rect x="122" width="7" height="9" y="96" style="stroke:none;"
      /><path d="M123 101.5156 L125.9531 97.2656 L125.9531 101.5156 L123 101.5156 ZM128.2812 101.5156 L126.8594 101.5156 L126.8594 96.125 L126.2344 96.125 L122.3438 101.6406 L122.3438 102.1875 L125.9531 102.1875 L125.9531 105 L126.8594 105 L126.8594 102.1875 L128.2812 102.1875 L128.2812 101.5156 Z" style="fill:black; stroke:none;"
      /><rect x="109" width="6" height="13" y="94" style="stroke:none;"
      /><path d="M111.0938 100.2031 C111.0938 98.6562 111.75 97.8125 112.7969 97.8125 C113.7188 97.8125 114.2656 98.4531 114.2656 99.5156 C114.2656 100.7188 113.5 101.4375 112.1875 101.7031 L112.2969 102.3125 C114.2188 102.2344 114.9375 103.2188 114.9375 104.4375 C114.9375 105.625 114.2344 106.4219 112.9531 106.4219 C112.25 106.4219 111.6562 106.1562 111.0938 105.7188 L111.0938 100.2031 ZM110.2031 106.9062 L110.1094 109.375 L110.2656 109.4844 L111.1562 109.2656 L111.0156 106.0938 C111.5469 106.8438 112.3594 107.1719 113.1719 107.1719 C114.5625 107.1719 115.8594 106.2188 115.8594 104.4844 C115.8594 102.9531 114.875 102.1094 113.125 102 C114.5625 101.6094 115.1875 100.4531 115.1875 99.4844 C115.1875 98.0938 114.1562 97.3125 112.9062 97.3125 C111.2969 97.3125 110.2188 98.5469 110.2188 100.5156 L110.2031 106.9062 Z" style="fill:black; stroke:none;"
      /><rect x="183" width="6" height="9" y="162" style="stroke:none;"
      /><path d="M184.4219 170.0938 C185.0781 169.375 185.7031 168.7188 186.0312 168.3438 C187.9219 166.3125 188.5312 165.4688 188.5312 164.3594 C188.5312 163.0156 187.7812 162.0781 186.1562 162.0781 C184.9062 162.0781 183.7969 162.7031 183.5938 163.9688 C183.7188 164.2031 183.9062 164.3438 184.1562 164.3438 C184.4688 164.3438 184.6562 164.1094 184.7969 163.5938 L185.0938 162.6719 C185.3906 162.5938 185.6562 162.5625 185.8906 162.5625 C186.9219 162.5625 187.5469 163.3125 187.5469 164.4219 C187.5469 165.4375 186.9844 166.4219 185.7031 167.9062 C185.125 168.5781 184.3906 169.4375 183.6406 170.2812 L183.6406 171 L188.9219 171 L188.9219 170.0938 L184.4219 170.0938 Z" style="fill:black; stroke:none;"
      /><rect x="163" width="8" height="8" y="182" style="stroke:none;"
      /><path d="M167.9844 187.7031 C167.9375 188.8906 167.1562 189.6562 166.3125 189.6562 C165.2656 189.6562 164.5 188.6875 164.5 186.7188 C164.5 185.2812 165.1562 184.1562 166.3438 184.1562 C167.1406 184.1562 167.7812 184.6875 168.0938 185.6406 L167.9844 187.7031 ZM169.9062 189.2812 C169.7344 189.375 169.5469 189.4219 169.3438 189.4219 C168.9531 189.4219 168.75 189.2188 168.75 188.4219 C168.75 187.4844 168.9688 185.5312 169.1875 183.8281 L169.0312 183.7188 L168.2344 183.9219 L168.1406 184.7969 C167.7812 184.0312 167.1562 183.6562 166.3906 183.6562 C165.0469 183.6562 163.5625 184.8438 163.5625 186.9531 C163.5625 189.0938 164.7188 190.1719 166.1406 190.1719 C167.0156 190.1719 167.6875 189.8125 168.0938 188.9844 C168.2031 189.8594 168.5156 190.1719 169.0156 190.1719 C169.4688 190.1719 169.7969 189.9062 170.0156 189.5625 L169.9062 189.2812 Z" style="fill:black; stroke:none;"
      /><rect x="175" width="6" height="10" y="148" style="stroke:none;"
      /><path d="M177.2344 149.6562 C177.5156 149.5938 177.7656 149.5625 178.0156 149.5625 C179.0625 149.5625 179.6719 150.1719 179.6719 151.2656 C179.6719 152.4375 178.9062 153.1094 177.7031 153.1094 L177.1875 153.1094 L177.1875 153.6406 L177.7969 153.6406 C179.2188 153.6406 179.9062 154.4219 179.9062 155.6406 C179.9062 156.8438 179.1719 157.6875 177.875 157.6875 C177.6094 157.6875 177.3125 157.6562 177.0156 157.5625 L176.7812 156.8125 C176.625 156.2812 176.5 156.0469 176.1406 156.0469 C175.8906 156.0469 175.7031 156.1719 175.5781 156.4219 C175.8438 157.6406 176.7812 158.1719 178.0312 158.1719 C179.7188 158.1719 180.875 157.125 180.875 155.7031 C180.875 154.5 180.2031 153.625 178.7969 153.375 C179.9531 153.0156 180.6094 152.2031 180.6094 151.2031 C180.6094 149.9219 179.6719 149.0781 178.1875 149.0781 C177.0469 149.0781 176.0625 149.5938 175.7969 150.6875 C175.9062 151 176.1094 151.1094 176.3594 151.1094 C176.7344 151.1094 176.8906 150.8906 177 150.4062 L177.2344 149.6562 Z" style="fill:black; stroke:none;"
      /><rect x="160" width="8" height="8" y="149" style="stroke:none;"
      /><path d="M164.9844 154.7031 C164.9375 155.8906 164.1562 156.6562 163.3125 156.6562 C162.2656 156.6562 161.5 155.6875 161.5 153.7188 C161.5 152.2812 162.1562 151.1562 163.3438 151.1562 C164.1406 151.1562 164.7812 151.6875 165.0938 152.6406 L164.9844 154.7031 ZM166.9062 156.2812 C166.7344 156.375 166.5469 156.4219 166.3438 156.4219 C165.9531 156.4219 165.75 156.2188 165.75 155.4219 C165.75 154.4844 165.9688 152.5312 166.1875 150.8281 L166.0312 150.7188 L165.2344 150.9219 L165.1406 151.7969 C164.7812 151.0312 164.1562 150.6562 163.3906 150.6562 C162.0469 150.6562 160.5625 151.8438 160.5625 153.9531 C160.5625 156.0938 161.7188 157.1719 163.1406 157.1719 C164.0156 157.1719 164.6875 156.8125 165.0938 155.9844 C165.2031 156.8594 165.5156 157.1719 166.0156 157.1719 C166.4688 157.1719 166.7969 156.9062 167.0156 156.5625 L166.9062 156.2812 Z" style="fill:black; stroke:none;"
      /><rect x="171" width="7" height="9" y="129" style="stroke:none;"
      /><path d="M172 134.5156 L174.9531 130.2656 L174.9531 134.5156 L172 134.5156 ZM177.2812 134.5156 L175.8594 134.5156 L175.8594 129.125 L175.2344 129.125 L171.3438 134.6406 L171.3438 135.1875 L174.9531 135.1875 L174.9531 138 L175.8594 138 L175.8594 135.1875 L177.2812 135.1875 L177.2812 134.5156 Z" style="fill:black; stroke:none;"
      /><rect x="153" width="6" height="13" y="108" style="stroke:none;"
      /><path d="M155.0938 114.2031 C155.0938 112.6562 155.75 111.8125 156.7969 111.8125 C157.7188 111.8125 158.2656 112.4531 158.2656 113.5156 C158.2656 114.7188 157.5 115.4375 156.1875 115.7031 L156.2969 116.3125 C158.2188 116.2344 158.9375 117.2188 158.9375 118.4375 C158.9375 119.625 158.2344 120.4219 156.9531 120.4219 C156.25 120.4219 155.6562 120.1562 155.0938 119.7188 L155.0938 114.2031 ZM154.2031 120.9062 L154.1094 123.375 L154.2656 123.4844 L155.1562 123.2656 L155.0156 120.0938 C155.5469 120.8438 156.3594 121.1719 157.1719 121.1719 C158.5625 121.1719 159.8594 120.2188 159.8594 118.4844 C159.8594 116.9531 158.875 116.1094 157.125 116 C158.5625 115.6094 159.1875 114.4531 159.1875 113.4844 C159.1875 112.0938 158.1562 111.3125 156.9062 111.3125 C155.2969 111.3125 154.2188 112.5469 154.2188 114.5156 L154.2031 120.9062 Z" style="fill:black; stroke:none;"
      /><rect x="226" width="7" height="9" y="148" style="stroke:none;"
      /><path d="M227 153.5156 L229.9531 149.2656 L229.9531 153.5156 L227 153.5156 ZM232.2812 153.5156 L230.8594 153.5156 L230.8594 148.125 L230.2344 148.125 L226.3438 153.6406 L226.3438 154.1875 L229.9531 154.1875 L229.9531 157 L230.8594 157 L230.8594 154.1875 L232.2812 154.1875 L232.2812 153.5156 Z" style="fill:black; stroke:none;"
      /><rect x="213" width="6" height="13" y="146" style="stroke:none;"
      /><path d="M215.0938 152.2031 C215.0938 150.6562 215.75 149.8125 216.7969 149.8125 C217.7188 149.8125 218.2656 150.4531 218.2656 151.5156 C218.2656 152.7188 217.5 153.4375 216.1875 153.7031 L216.2969 154.3125 C218.2188 154.2344 218.9375 155.2188 218.9375 156.4375 C218.9375 157.625 218.2344 158.4219 216.9531 158.4219 C216.25 158.4219 215.6562 158.1562 215.0938 157.7188 L215.0938 152.2031 ZM214.2031 158.9062 L214.1094 161.375 L214.2656 161.4844 L215.1562 161.2656 L215.0156 158.0938 C215.5469 158.8438 216.3594 159.1719 217.1719 159.1719 C218.5625 159.1719 219.8594 158.2188 219.8594 156.4844 C219.8594 154.9531 218.875 154.1094 217.125 154 C218.5625 153.6094 219.1875 152.4531 219.1875 151.4844 C219.1875 150.0938 218.1562 149.3125 216.9062 149.3125 C215.2969 149.3125 214.2188 150.5469 214.2188 152.5156 L214.2031 158.9062 Z" style="fill:black; stroke:none;"
      /><rect x="278" width="7" height="9" y="148" style="stroke:none;"
      /><path d="M279 153.5156 L281.9531 149.2656 L281.9531 153.5156 L279 153.5156 ZM284.2812 153.5156 L282.8594 153.5156 L282.8594 148.125 L282.2344 148.125 L278.3438 153.6406 L278.3438 154.1875 L281.9531 154.1875 L281.9531 157 L282.8594 157 L282.8594 154.1875 L284.2812 154.1875 L284.2812 153.5156 Z" style="fill:black; stroke:none;"
      /><rect x="265" width="6" height="13" y="146" style="stroke:none;"
      /><path d="M267.0938 152.2031 C267.0938 150.6562 267.75 149.8125 268.7969 149.8125 C269.7188 149.8125 270.2656 150.4531 270.2656 151.5156 C270.2656 152.7188 269.5 153.4375 268.1875 153.7031 L268.2969 154.3125 C270.2188 154.2344 270.9375 155.2188 270.9375 156.4375 C270.9375 157.625 270.2344 158.4219 268.9531 158.4219 C268.25 158.4219 267.6562 158.1562 267.0938 157.7188 L267.0938 152.2031 ZM266.2031 158.9062 L266.1094 161.375 L266.2656 161.4844 L267.1562 161.2656 L267.0156 158.0938 C267.5469 158.8438 268.3594 159.1719 269.1719 159.1719 C270.5625 159.1719 271.8594 158.2188 271.8594 156.4844 C271.8594 154.9531 270.875 154.1094 269.125 154 C270.5625 153.6094 271.1875 152.4531 271.1875 151.4844 C271.1875 150.0938 270.1562 149.3125 268.9062 149.3125 C267.2969 149.3125 266.2188 150.5469 266.2188 152.5156 L266.2031 158.9062 Z" style="fill:black; stroke:none;"
      /><rect x="316" width="8" height="8" y="149" style="stroke:none;"
      /><path d="M320.9844 154.7031 C320.9375 155.8906 320.1562 156.6562 319.3125 156.6562 C318.2656 156.6562 317.5 155.6875 317.5 153.7188 C317.5 152.2812 318.1562 151.1562 319.3438 151.1562 C320.1406 151.1562 320.7812 151.6875 321.0938 152.6406 L320.9844 154.7031 ZM322.9062 156.2812 C322.7344 156.375 322.5469 156.4219 322.3438 156.4219 C321.9531 156.4219 321.75 156.2188 321.75 155.4219 C321.75 154.4844 321.9688 152.5312 322.1875 150.8281 L322.0312 150.7188 L321.2344 150.9219 L321.1406 151.7969 C320.7812 151.0312 320.1562 150.6562 319.3906 150.6562 C318.0469 150.6562 316.5625 151.8438 316.5625 153.9531 C316.5625 156.0938 317.7188 157.1719 319.1406 157.1719 C320.0156 157.1719 320.6875 156.8125 321.0938 155.9844 C321.2031 156.8594 321.5156 157.1719 322.0156 157.1719 C322.4688 157.1719 322.7969 156.9062 323.0156 156.5625 L322.9062 156.2812 Z" style="fill:black; stroke:none;"
    /></g
  ></g
></svg
>
