<?xml version="1.0"?>
<!DOCTYPE svg PUBLIC '-//W3C//DTD SVG 1.0//EN'
          'http://www.w3.org/TR/2001/REC-SVG-20010904/DTD/svg10.dtd'>
<svg xmlns:xlink="http://www.w3.org/1999/xlink" style="fill-opacity:1; color-rendering:auto; color-interpolation:auto; text-rendering:auto; stroke:black; stroke-linecap:square; stroke-miterlimit:10; shape-rendering:auto; stroke-opacity:1; fill:black; stroke-dasharray:none; font-weight:normal; stroke-width:1; font-family:'Dialog'; font-style:normal; stroke-linejoin:miter; font-size:12px; stroke-dashoffset:0; image-rendering:auto;" viewBox="0 0 342 128" xmlns="http://www.w3.org/2000/svg"
><!--Generated by the Batik Graphics2D SVG Generator--><defs id="genericDefs"
  /><g
  ><defs id="defs1"
    ><clipPath clipPathUnits="userSpaceOnUse" id="clipPath1"
      ><path style="fill-rule:evenodd;" d="M243 42 L249 42 L249 86 L243 86 L249 86 L249 42 Z"
      /></clipPath
      ><clipPath clipPathUnits="userSpaceOnUse" id="clipPath2"
      ><path d="M208 64 C208 70.0751 203.0751 75 197 75 C190.9249 75 186 70.0751 186 64 C186 57.9249 190.9249 53 197 53 C203.0751 53 208 57.9249 208 64 Z"
      /></clipPath
      ><clipPath clipPathUnits="userSpaceOnUse" id="clipPath3"
      ><path d="M134 53 L156 53 L156 75 L134 75 L134 53 Z"
      /></clipPath
      ><clipPath clipPathUnits="userSpaceOnUse" id="clipPath4"
      ><path d="M104 64 C104 70.0751 99.0751 75 93 75 C86.9249 75 82 70.0751 82 64 C82 57.9249 86.9249 53 93 53 C99.0751 53 104 57.9249 104 64 Z"
      /></clipPath
      ><clipPath clipPathUnits="userSpaceOnUse" id="clipPath5"
      ><path style="fill-rule:evenodd;" d="M46 86 L41 86 L40 42 L46 42 L40 42 L41 86 Z"
      /></clipPath
    ></defs
    ><g style="fill:white; text-rendering:optimizeSpeed; stroke:white;"
    ><rect x="0" width="342" height="128" y="0" style="stroke:none;"
      /><polygon style="fill:none; stroke:black;" points=" 301 64 249 64"
      /><path d="M301 53 C295.5 58.5 306.5 69.5 301 75" style="fill:none; stroke:black;"
      /><polygon style="fill:none; stroke:black;" points=" 249 64 197 64"
      /><polygon style="clip-path:url(#clipPath1); stroke:none;" points=" 243 42 249 42 249 86 243 86 249 86 249 42"
      /><rect x="238" y="30" width="22" style="clip-path:url(#clipPath1); fill:black; stroke:none;" height="68"
      /><rect x="238" y="30" width="22" style="clip-path:url(#clipPath1); fill:none; stroke:black;" height="68"
      /><polygon style="fill:none; stroke:black;" points=" 243 42 249 42 249 86 243 86 249 86 249 42"
      /><polygon style="fill:none; stroke:black;" points=" 197 64 145 64"
      /><circle style="clip-path:url(#clipPath2); stroke:none;" r="11" cx="197" cy="64"
      /><rect x="186" y="53" width="22" style="clip-path:url(#clipPath2); fill:rgb(255,212,0); stroke:none;" height="22"
      /><rect x="186" y="53" width="22" style="clip-path:url(#clipPath2); fill:none; stroke:black;" height="22"
      /><circle style="fill:none; stroke:black;" r="11" cx="197" cy="64"
      /><polygon style="fill:none; stroke:black;" points=" 145 64 93 64"
      /><rect x="134" y="53" width="22" style="clip-path:url(#clipPath3); stroke:none;" height="22"
      /><rect x="134" y="53" width="22" style="clip-path:url(#clipPath3); fill:rgb(0,144,188); stroke:none;" height="22"
      /><rect x="134" y="53" width="22" style="clip-path:url(#clipPath3); fill:none; stroke:black;" height="22"
      /><rect x="134" y="53" width="22" style="fill:none; stroke:black;" height="22"
      /><polygon style="fill:none; stroke:black;" points=" 93 64 41 64"
      /><circle style="clip-path:url(#clipPath4); stroke:none;" r="11" cx="93" cy="64"
      /><rect x="82" y="53" width="22" style="clip-path:url(#clipPath4); fill:rgb(0,144,188); stroke:none;" height="22"
      /><rect x="82" y="53" width="22" style="clip-path:url(#clipPath4); fill:none; stroke:black;" height="22"
      /><circle style="fill:none; stroke:black;" r="11" cx="93" cy="64"
      /><polygon style="clip-path:url(#clipPath5); stroke:none;" points=" 46 86 41 86 40 42 46 42 40 42 41 86"
      /><rect x="30" y="30" width="22" style="clip-path:url(#clipPath5); fill:black; stroke:none;" height="68"
      /><rect x="30" y="30" width="22" style="clip-path:url(#clipPath5); fill:none; stroke:black;" height="68"
      /><polygon style="fill:none; stroke:black;" points=" 46 86 41 86 40 42 46 42 40 42 41 86"
      /><path d="M43.5469 95.9531 C43.5156 95.2969 43.5 94.3906 43.5 93.7656 L43.5 92.5156 C43.5 90.8281 42.9531 90.1562 41.8594 90.1562 C41.0625 90.1562 40.1562 90.625 39.4531 91.4062 L39.3594 90.2969 L39.2031 90.1719 L37.4688 90.8125 L37.4688 91.2031 L38.5312 91.2812 C38.5625 91.8438 38.5781 92.3438 38.5781 93.1094 L38.5781 93.7656 C38.5781 94.375 38.5781 95.2969 38.5469 95.9688 L37.5469 96.1094 L37.5469 96.5 L40.4688 96.5 L40.4688 96.1094 L39.5156 95.9531 C39.5156 95.2969 39.5 94.375 39.5 93.7656 L39.5 91.875 C40.2656 91.1562 40.875 90.9062 41.4688 90.9062 C42.2344 90.9062 42.5938 91.3125 42.5938 92.5625 L42.5938 93.7656 C42.5938 94.3906 42.5781 95.3125 42.5625 95.9688 L41.5469 96.1094 L41.5469 96.5 L44.4844 96.5 L44.4844 96.1094 L43.5469 95.9531 Z" style="fill:black; stroke:none;"
      /><rect x="70" y="67" width="7" style="stroke:none;" height="9"
    /></g
    ><g style="font-family:'Serif'; text-rendering:optimizeSpeed; "
    ><path style="stroke:none;" d="M71 72.5156 L73.9531 68.2656 L73.9531 72.5156 L71 72.5156 ZM76.2812 72.5156 L74.8594 72.5156 L74.8594 67.125 L74.2344 67.125 L70.3438 72.6406 L70.3438 73.1875 L73.9531 73.1875 L73.9531 76 L74.8594 76 L74.8594 73.1875 L76.2812 73.1875 L76.2812 72.5156 Z"
      /><rect x="123" y="67" width="6" style="fill:white; stroke:none;" height="10"
      /><path style="stroke:none;" d="M126.3438 76.6875 C125.2031 76.6875 124.5312 75.5 124.5312 73.2969 C124.5312 73.2188 124.5312 73.125 124.5312 73.0469 C125.0938 72.5 125.7188 72.3125 126.3438 72.3125 C127.3125 72.3125 127.9531 72.9844 127.9531 74.4531 C127.9531 75.9375 127.3125 76.6875 126.3438 76.6875 ZM128.5312 68.0781 C125.3438 68.4531 123.5625 70.7656 123.5625 73.4531 C123.5625 75.7812 124.6094 77.1719 126.3125 77.1719 C127.8438 77.1719 128.9219 76.1094 128.9219 74.2812 C128.9219 72.6875 127.9688 71.6562 126.5625 71.6562 C125.8281 71.6562 125.1406 71.9844 124.5781 72.5781 C124.7969 70.4062 126.0781 68.9688 128.5938 68.3906 L128.5312 68.0781 Z"
      /><rect x="109" y="65" width="6" style="fill:white; stroke:none;" height="13"
      /><path style="stroke:none;" d="M111.0938 71.2031 C111.0938 69.6562 111.75 68.8125 112.7969 68.8125 C113.7188 68.8125 114.2656 69.4531 114.2656 70.5156 C114.2656 71.7188 113.5 72.4375 112.1875 72.7031 L112.2969 73.3125 C114.2188 73.2344 114.9375 74.2188 114.9375 75.4375 C114.9375 76.625 114.2344 77.4219 112.9531 77.4219 C112.25 77.4219 111.6562 77.1562 111.0938 76.7188 L111.0938 71.2031 ZM110.2031 77.9062 L110.1094 80.375 L110.2656 80.4844 L111.1562 80.2656 L111.0156 77.0938 C111.5469 77.8438 112.3594 78.1719 113.1719 78.1719 C114.5625 78.1719 115.8594 77.2188 115.8594 75.4844 C115.8594 73.9531 114.875 73.1094 113.125 73 C114.5625 72.6094 115.1875 71.4531 115.1875 70.4844 C115.1875 69.0938 114.1562 68.3125 112.9062 68.3125 C111.2969 68.3125 110.2188 69.5469 110.2188 71.5156 L110.2031 77.9062 Z"
      /><rect x="175" y="67" width="6" style="fill:white; stroke:none;" height="10"
      /><path style="stroke:none;" d="M177.2344 68.6562 C177.5156 68.5938 177.7656 68.5625 178.0156 68.5625 C179.0625 68.5625 179.6719 69.1719 179.6719 70.2656 C179.6719 71.4375 178.9062 72.1094 177.7031 72.1094 L177.1875 72.1094 L177.1875 72.6406 L177.7969 72.6406 C179.2188 72.6406 179.9062 73.4219 179.9062 74.6406 C179.9062 75.8438 179.1719 76.6875 177.875 76.6875 C177.6094 76.6875 177.3125 76.6562 177.0156 76.5625 L176.7812 75.8125 C176.625 75.2812 176.5 75.0469 176.1406 75.0469 C175.8906 75.0469 175.7031 75.1719 175.5781 75.4219 C175.8438 76.6406 176.7812 77.1719 178.0312 77.1719 C179.7188 77.1719 180.875 76.125 180.875 74.7031 C180.875 73.5 180.2031 72.625 178.7969 72.375 C179.9531 72.0156 180.6094 71.2031 180.6094 70.2031 C180.6094 68.9219 179.6719 68.0781 178.1875 68.0781 C177.0469 68.0781 176.0625 68.5938 175.7969 69.6875 C175.9062 70 176.1094 70.1094 176.3594 70.1094 C176.7344 70.1094 176.8906 69.8906 177 69.4062 L177.2344 68.6562 Z"
      /><rect x="161" y="65" width="6" style="fill:white; stroke:none;" height="13"
      /><path style="stroke:none;" d="M163.0938 71.2031 C163.0938 69.6562 163.75 68.8125 164.7969 68.8125 C165.7188 68.8125 166.2656 69.4531 166.2656 70.5156 C166.2656 71.7188 165.5 72.4375 164.1875 72.7031 L164.2969 73.3125 C166.2188 73.2344 166.9375 74.2188 166.9375 75.4375 C166.9375 76.625 166.2344 77.4219 164.9531 77.4219 C164.25 77.4219 163.6562 77.1562 163.0938 76.7188 L163.0938 71.2031 ZM162.2031 77.9062 L162.1094 80.375 L162.2656 80.4844 L163.1562 80.2656 L163.0156 77.0938 C163.5469 77.8438 164.3594 78.1719 165.1719 78.1719 C166.5625 78.1719 167.8594 77.2188 167.8594 75.4844 C167.8594 73.9531 166.875 73.1094 165.125 73 C166.5625 72.6094 167.1875 71.4531 167.1875 70.4844 C167.1875 69.0938 166.1562 68.3125 164.9062 68.3125 C163.2969 68.3125 162.2188 69.5469 162.2188 71.5156 L162.2031 77.9062 Z"
      /><rect x="213" y="65" width="6" style="fill:white; stroke:none;" height="13"
      /><path style="stroke:none;" d="M215.0938 71.2031 C215.0938 69.6562 215.75 68.8125 216.7969 68.8125 C217.7188 68.8125 218.2656 69.4531 218.2656 70.5156 C218.2656 71.7188 217.5 72.4375 216.1875 72.7031 L216.2969 73.3125 C218.2188 73.2344 218.9375 74.2188 218.9375 75.4375 C218.9375 76.625 218.2344 77.4219 216.9531 77.4219 C216.25 77.4219 215.6562 77.1562 215.0938 76.7188 L215.0938 71.2031 ZM214.2031 77.9062 L214.1094 80.375 L214.2656 80.4844 L215.1562 80.2656 L215.0156 77.0938 C215.5469 77.8438 216.3594 78.1719 217.1719 78.1719 C218.5625 78.1719 219.8594 77.2188 219.8594 75.4844 C219.8594 73.9531 218.875 73.1094 217.125 73 C218.5625 72.6094 219.1875 71.4531 219.1875 70.4844 C219.1875 69.0938 218.1562 68.3125 216.9062 68.3125 C215.2969 68.3125 214.2188 69.5469 214.2188 71.5156 L214.2031 77.9062 Z"
    /></g
  ></g
></svg
>
