<?xml version="1.0"?>
<!DOCTYPE svg PUBLIC '-//W3C//DTD SVG 1.0//EN'
          'http://www.w3.org/TR/2001/REC-SVG-20010904/DTD/svg10.dtd'>
<svg xmlns:xlink="http://www.w3.org/1999/xlink" style="fill-opacity:1; color-rendering:auto; color-interpolation:auto; text-rendering:auto; stroke:black; stroke-linecap:square; stroke-miterlimit:10; shape-rendering:auto; stroke-opacity:1; fill:black; stroke-dasharray:none; font-weight:normal; stroke-width:1; font-family:'Dialog'; font-style:normal; stroke-linejoin:miter; font-size:12px; stroke-dashoffset:0; image-rendering:auto;" viewBox="0 0 550 186" xmlns="http://www.w3.org/2000/svg"
><!--Generated by the Batik Graphics2D SVG Generator--><defs id="genericDefs"
  /><g
  ><defs id="defs1"
    ><clipPath clipPathUnits="userSpaceOnUse" id="clipPath1"
      ><path style="fill-rule:evenodd;" d="M457 56 L468 78 L446 78 Z"
      /></clipPath
      ><clipPath clipPathUnits="userSpaceOnUse" id="clipPath2"
      ><path d="M416 67 C416 73.0751 411.0751 78 405 78 C398.9249 78 394 73.0751 394 67 C394 60.9249 398.9249 56 405 56 C411.0751 56 416 60.9249 416 67 Z"
      /></clipPath
      ><clipPath clipPathUnits="userSpaceOnUse" id="clipPath3"
      ><path d="M364 93 C364 99.0751 359.0751 104 353 104 C346.9249 104 342 99.0751 342 93 C342 86.9249 346.9249 82 353 82 C359.0751 82 364 86.9249 364 93 Z"
      /></clipPath
      ><clipPath clipPathUnits="userSpaceOnUse" id="clipPath4"
      ><path style="fill-rule:evenodd;" d="M301 82 L312 104 L290 104 Z"
      /></clipPath
      ><clipPath clipPathUnits="userSpaceOnUse" id="clipPath5"
      ><path d="M260 93 C260 99.0751 255.0751 104 249 104 C242.9249 104 238 99.0751 238 93 C238 86.9249 242.9249 82 249 82 C255.0751 82 260 86.9249 260 93 Z"
      /></clipPath
      ><clipPath clipPathUnits="userSpaceOnUse" id="clipPath6"
      ><path d="M208 119 C208 125.0751 203.0751 130 197 130 C190.9249 130 186 125.0751 186 119 C186 112.9249 190.9249 108 197 108 C203.0751 108 208 112.9249 208 119 Z"
      /></clipPath
      ><clipPath clipPathUnits="userSpaceOnUse" id="clipPath7"
      ><path style="fill-rule:evenodd;" d="M145 108 L156 130 L134 130 Z"
      /></clipPath
      ><clipPath clipPathUnits="userSpaceOnUse" id="clipPath8"
      ><path d="M104 119 C104 125.0751 99.0751 130 93 130 C86.9249 130 82 125.0751 82 119 C82 112.9249 86.9249 108 93 108 C99.0751 108 104 112.9249 104 119 Z"
      /></clipPath
      ><clipPath clipPathUnits="userSpaceOnUse" id="clipPath9"
      ><path d="M52 145 C52 151.0751 47.0751 156 41 156 C34.9249 156 30 151.0751 30 145 C30 138.9249 34.9249 134 41 134 C47.0751 134 52 138.9249 52 145 Z"
      /></clipPath
      ><clipPath clipPathUnits="userSpaceOnUse" id="clipPath10"
      ><path d="M30 87.5 L52 87.5 L52 98.5 L30 98.5 L30 87.5 Z"
      /></clipPath
      ><clipPath clipPathUnits="userSpaceOnUse" id="clipPath11"
      ><path d="M186 61.5 L208 61.5 L208 72.5 L186 72.5 L186 61.5 Z"
      /></clipPath
      ><clipPath clipPathUnits="userSpaceOnUse" id="clipPath12"
      ><path d="M342 35.5 L364 35.5 L364 46.5 L342 46.5 L342 35.5 Z"
      /></clipPath
    ></defs
    ><g style="fill:white; text-rendering:optimizeSpeed; stroke:white;"
    ><rect x="0" width="550" height="186" y="0" style="stroke:none;"
      /><polygon style="fill:none; stroke:black;" points=" 509 67 457 67"
      /><path d="M509 56 C503.5 61.5 514.5 72.5 509 78" style="fill:none; stroke:black;"
      /><polygon style="fill:none; stroke:black;" points=" 457 67 405 67"
      /><polygon style="clip-path:url(#clipPath1); stroke:none;" points=" 457 56 468 78 446 78"
      /><rect x="446" y="56" width="22" style="clip-path:url(#clipPath1); fill:rgb(0,166,81); stroke:none;" height="22"
      /><rect x="446" y="56" width="22" style="clip-path:url(#clipPath1); fill:none; stroke:black;" height="22"
      /><polygon style="fill:none; stroke:black;" points=" 457 56 468 78 446 78"
      /><polygon style="fill:none; stroke:black;" points=" 405 67 353 93"
      /><polygon style="fill:none; stroke:black;" points=" 405 67 353 41"
      /><circle style="clip-path:url(#clipPath2); stroke:none;" r="11" cx="405" cy="67"
      /><rect x="394" y="56" width="22" style="clip-path:url(#clipPath2); fill:rgb(0,166,81); stroke:none;" height="22"
      /><rect x="394" y="56" width="22" style="clip-path:url(#clipPath2); fill:none; stroke:black;" height="22"
      /><circle style="fill:none; stroke:black;" r="11" cx="405" cy="67"
      /><polygon style="fill:none; stroke:black;" points=" 353 93 301 93"
      /><circle style="clip-path:url(#clipPath3); stroke:none;" r="11" cx="353" cy="93"
      /><rect x="342" y="82" width="22" style="clip-path:url(#clipPath3); fill:rgb(255,212,0); stroke:none;" height="22"
      /><rect x="342" y="82" width="22" style="clip-path:url(#clipPath3); fill:none; stroke:black;" height="22"
      /><circle style="fill:none; stroke:black;" r="11" cx="353" cy="93"
      /><polygon style="fill:none; stroke:black;" points=" 301 93 249 93"
      /><polygon style="clip-path:url(#clipPath4); stroke:none;" points=" 301 82 312 104 290 104"
      /><rect x="290" y="82" width="22" style="clip-path:url(#clipPath4); fill:rgb(0,166,81); stroke:none;" height="22"
      /><rect x="290" y="82" width="22" style="clip-path:url(#clipPath4); fill:none; stroke:black;" height="22"
      /><polygon style="fill:none; stroke:black;" points=" 301 82 312 104 290 104"
      /><polygon style="fill:none; stroke:black;" points=" 249 93 197 119"
      /><polygon style="fill:none; stroke:black;" points=" 249 93 197 67"
      /><circle style="clip-path:url(#clipPath5); stroke:none;" r="11" cx="249" cy="93"
      /><rect x="238" y="82" width="22" style="clip-path:url(#clipPath5); fill:rgb(0,166,81); stroke:none;" height="22"
      /><rect x="238" y="82" width="22" style="clip-path:url(#clipPath5); fill:none; stroke:black;" height="22"
      /><circle style="fill:none; stroke:black;" r="11" cx="249" cy="93"
      /><polygon style="fill:none; stroke:black;" points=" 197 119 145 119"
      /><circle style="clip-path:url(#clipPath6); stroke:none;" r="11" cx="197" cy="119"
      /><rect x="186" y="108" width="22" style="clip-path:url(#clipPath6); fill:rgb(255,212,0); stroke:none;" height="22"
      /><rect x="186" y="108" width="22" style="clip-path:url(#clipPath6); fill:none; stroke:black;" height="22"
      /><circle style="fill:none; stroke:black;" r="11" cx="197" cy="119"
      /><polygon style="fill:none; stroke:black;" points=" 145 119 93 119"
      /><polygon style="clip-path:url(#clipPath7); stroke:none;" points=" 145 108 156 130 134 130"
      /><rect x="134" y="108" width="22" style="clip-path:url(#clipPath7); fill:rgb(0,166,81); stroke:none;" height="22"
      /><rect x="134" y="108" width="22" style="clip-path:url(#clipPath7); fill:none; stroke:black;" height="22"
      /><polygon style="fill:none; stroke:black;" points=" 145 108 156 130 134 130"
      /><polygon style="fill:none; stroke:black;" points=" 93 119 41 145"
      /><polygon style="fill:none; stroke:black;" points=" 93 119 41 93"
      /><circle style="clip-path:url(#clipPath8); stroke:none;" r="11" cx="93" cy="119"
      /><rect x="82" y="108" width="22" style="clip-path:url(#clipPath8); fill:rgb(0,166,81); stroke:none;" height="22"
      /><rect x="82" y="108" width="22" style="clip-path:url(#clipPath8); fill:none; stroke:black;" height="22"
      /><circle style="fill:none; stroke:black;" r="11" cx="93" cy="119"
      /><circle style="clip-path:url(#clipPath9); stroke:none;" r="11" cx="41" cy="145"
      /><rect x="30" y="134" width="22" style="clip-path:url(#clipPath9); fill:rgb(255,212,0); stroke:none;" height="22"
      /><rect x="30" y="134" width="22" style="clip-path:url(#clipPath9); fill:none; stroke:black;" height="22"
      /><circle style="fill:none; stroke:black;" r="11" cx="41" cy="145"
      /><rect x="30" y="87.5" width="22" style="clip-path:url(#clipPath10); stroke:none;" height="11"
      /><rect x="30" y="82" width="22" style="clip-path:url(#clipPath10); fill:rgb(0,166,81); stroke:none;" height="22"
      /><rect x="30" y="82" width="22" style="clip-path:url(#clipPath10); fill:none; stroke:black;" height="22"
      /><rect x="30" y="87.5" width="22" style="fill:none; stroke:black;" height="11"
      /><rect x="75" y="130" width="6" style="stroke:none;" height="9"
    /></g
    ><g style="font-family:'Serif'; text-rendering:optimizeSpeed; "
    ><path style="stroke:none;" d="M76.4219 138.0938 C77.0781 137.375 77.7031 136.7188 78.0312 136.3438 C79.9219 134.3125 80.5312 133.4688 80.5312 132.3594 C80.5312 131.0156 79.7812 130.0781 78.1562 130.0781 C76.9062 130.0781 75.7969 130.7031 75.5938 131.9688 C75.7188 132.2031 75.9062 132.3438 76.1562 132.3438 C76.4688 132.3438 76.6562 132.1094 76.7969 131.5938 L77.0938 130.6719 C77.3906 130.5938 77.6562 130.5625 77.8906 130.5625 C78.9219 130.5625 79.5469 131.3125 79.5469 132.4219 C79.5469 133.4375 78.9844 134.4219 77.7031 135.9062 C77.125 136.5781 76.3906 137.4375 75.6406 138.2812 L75.6406 139 L80.9219 139 L80.9219 138.0938 L76.4219 138.0938 Z"
      /><rect x="58" y="139" width="8" style="fill:white; stroke:none;" height="8"
      /><path style="stroke:none;" d="M62.9844 144.7031 C62.9375 145.8906 62.1562 146.6562 61.3125 146.6562 C60.2656 146.6562 59.5 145.6875 59.5 143.7188 C59.5 142.2812 60.1562 141.1562 61.3438 141.1562 C62.1406 141.1562 62.7812 141.6875 63.0938 142.6406 L62.9844 144.7031 ZM64.9062 146.2812 C64.7344 146.375 64.5469 146.4219 64.3438 146.4219 C63.9531 146.4219 63.75 146.2188 63.75 145.4219 C63.75 144.4844 63.9688 142.5312 64.1875 140.8281 L64.0312 140.7188 L63.2344 140.9219 L63.1406 141.7969 C62.7812 141.0312 62.1562 140.6562 61.3906 140.6562 C60.0469 140.6562 58.5625 141.8438 58.5625 143.9531 C58.5625 146.0938 59.7188 147.1719 61.1406 147.1719 C62.0156 147.1719 62.6875 146.8125 63.0938 145.9844 C63.2031 146.8594 63.5156 147.1719 64.0156 147.1719 C64.4688 147.1719 64.7969 146.9062 65.0156 146.5625 L64.9062 146.2812 Z"
      /><rect x="68" y="112" width="6" style="fill:white; stroke:none;" height="10"
      /><path style="stroke:none;" d="M70.2344 113.6562 C70.5156 113.5938 70.7656 113.5625 71.0156 113.5625 C72.0625 113.5625 72.6719 114.1719 72.6719 115.2656 C72.6719 116.4375 71.9062 117.1094 70.7031 117.1094 L70.1875 117.1094 L70.1875 117.6406 L70.7969 117.6406 C72.2188 117.6406 72.9062 118.4219 72.9062 119.6406 C72.9062 120.8438 72.1719 121.6875 70.875 121.6875 C70.6094 121.6875 70.3125 121.6562 70.0156 121.5625 L69.7812 120.8125 C69.625 120.2812 69.5 120.0469 69.1406 120.0469 C68.8906 120.0469 68.7031 120.1719 68.5781 120.4219 C68.8438 121.6406 69.7812 122.1719 71.0312 122.1719 C72.7188 122.1719 73.875 121.125 73.875 119.7031 C73.875 118.5 73.2031 117.625 71.7969 117.375 C72.9531 117.0156 73.6094 116.2031 73.6094 115.2031 C73.6094 113.9219 72.6719 113.0781 71.1875 113.0781 C70.0469 113.0781 69.0625 113.5938 68.7969 114.6875 C68.9062 115 69.1094 115.1094 69.3594 115.1094 C69.7344 115.1094 69.8906 114.8906 70 114.4062 L70.2344 113.6562 Z"
      /><rect x="51" y="105" width="8" style="fill:white; stroke:none;" height="8"
      /><path style="stroke:none;" d="M55.9844 110.7031 C55.9375 111.8906 55.1562 112.6562 54.3125 112.6562 C53.2656 112.6562 52.5 111.6875 52.5 109.7188 C52.5 108.2812 53.1562 107.1562 54.3438 107.1562 C55.1406 107.1562 55.7812 107.6875 56.0938 108.6406 L55.9844 110.7031 ZM57.9062 112.2812 C57.7344 112.375 57.5469 112.4219 57.3438 112.4219 C56.9531 112.4219 56.75 112.2188 56.75 111.4219 C56.75 110.4844 56.9688 108.5312 57.1875 106.8281 L57.0312 106.7188 L56.2344 106.9219 L56.1406 107.7969 C55.7812 107.0312 55.1562 106.6562 54.3906 106.6562 C53.0469 106.6562 51.5625 107.8438 51.5625 109.9531 C51.5625 112.0938 52.7188 113.1719 54.1406 113.1719 C55.0156 113.1719 55.6875 112.8125 56.0938 111.9844 C56.2031 112.8594 56.5156 113.1719 57.0156 113.1719 C57.4688 113.1719 57.7969 112.9062 58.0156 112.5625 L57.9062 112.2812 Z"
      /><rect x="122" y="122" width="7" style="fill:white; stroke:none;" height="9"
      /><path style="stroke:none;" d="M123 127.5156 L125.9531 123.2656 L125.9531 127.5156 L123 127.5156 ZM128.2812 127.5156 L126.8594 127.5156 L126.8594 122.125 L126.2344 122.125 L122.3438 127.6406 L122.3438 128.1875 L125.9531 128.1875 L125.9531 131 L126.8594 131 L126.8594 128.1875 L128.2812 128.1875 L128.2812 127.5156 Z"
      /><rect x="108" y="123" width="8" style="fill:white; stroke:none;" height="8"
      /><path style="stroke:none;" d="M112.9844 128.7031 C112.9375 129.8906 112.1562 130.6562 111.3125 130.6562 C110.2656 130.6562 109.5 129.6875 109.5 127.7188 C109.5 126.2812 110.1562 125.1562 111.3438 125.1562 C112.1406 125.1562 112.7812 125.6875 113.0938 126.6406 L112.9844 128.7031 ZM114.9062 130.2812 C114.7344 130.375 114.5469 130.4219 114.3438 130.4219 C113.9531 130.4219 113.75 130.2188 113.75 129.4219 C113.75 128.4844 113.9688 126.5312 114.1875 124.8281 L114.0312 124.7188 L113.2344 124.9219 L113.1406 125.7969 C112.7812 125.0312 112.1562 124.6562 111.3906 124.6562 C110.0469 124.6562 108.5625 125.8438 108.5625 127.9531 C108.5625 130.0938 109.7188 131.1719 111.1406 131.1719 C112.0156 131.1719 112.6875 130.8125 113.0938 129.9844 C113.2031 130.8594 113.5156 131.1719 114.0156 131.1719 C114.4688 131.1719 114.7969 130.9062 115.0156 130.5625 L114.9062 130.2812 Z"
      /><rect x="175" y="122" width="6" style="fill:white; stroke:none;" height="10"
      /><path style="stroke:none;" d="M177.2344 123.6562 C177.5156 123.5938 177.7656 123.5625 178.0156 123.5625 C179.0625 123.5625 179.6719 124.1719 179.6719 125.2656 C179.6719 126.4375 178.9062 127.1094 177.7031 127.1094 L177.1875 127.1094 L177.1875 127.6406 L177.7969 127.6406 C179.2188 127.6406 179.9062 128.4219 179.9062 129.6406 C179.9062 130.8438 179.1719 131.6875 177.875 131.6875 C177.6094 131.6875 177.3125 131.6562 177.0156 131.5625 L176.7812 130.8125 C176.625 130.2812 176.5 130.0469 176.1406 130.0469 C175.8906 130.0469 175.7031 130.1719 175.5781 130.4219 C175.8438 131.6406 176.7812 132.1719 178.0312 132.1719 C179.7188 132.1719 180.875 131.125 180.875 129.7031 C180.875 128.5 180.2031 127.625 178.7969 127.375 C179.9531 127.0156 180.6094 126.2031 180.6094 125.2031 C180.6094 123.9219 179.6719 123.0781 178.1875 123.0781 C177.0469 123.0781 176.0625 123.5938 175.7969 124.6875 C175.9062 125 176.1094 125.1094 176.3594 125.1094 C176.7344 125.1094 176.8906 124.8906 177 124.4062 L177.2344 123.6562 Z"
      /><rect x="160" y="123" width="8" style="fill:white; stroke:none;" height="8"
      /><path style="stroke:none;" d="M164.9844 128.7031 C164.9375 129.8906 164.1562 130.6562 163.3125 130.6562 C162.2656 130.6562 161.5 129.6875 161.5 127.7188 C161.5 126.2812 162.1562 125.1562 163.3438 125.1562 C164.1406 125.1562 164.7812 125.6875 165.0938 126.6406 L164.9844 128.7031 ZM166.9062 130.2812 C166.7344 130.375 166.5469 130.4219 166.3438 130.4219 C165.9531 130.4219 165.75 130.2188 165.75 129.4219 C165.75 128.4844 165.9688 126.5312 166.1875 124.8281 L166.0312 124.7188 L165.2344 124.9219 L165.1406 125.7969 C164.7812 125.0312 164.1562 124.6562 163.3906 124.6562 C162.0469 124.6562 160.5625 125.8438 160.5625 127.9531 C160.5625 130.0938 161.7188 131.1719 163.1406 131.1719 C164.0156 131.1719 164.6875 130.8125 165.0938 129.9844 C165.2031 130.8594 165.5156 131.1719 166.0156 131.1719 C166.4688 131.1719 166.7969 130.9062 167.0156 130.5625 L166.9062 130.2812 Z"
      /><rect x="186" y="61.5" width="22" style="clip-path:url(#clipPath11); fill:white; stroke:none;" height="11"
      /><rect x="186" y="56" width="22" style="clip-path:url(#clipPath11); fill:rgb(0,166,81); stroke:none;" height="22"
      /><rect x="186" y="56" width="22" style="fill:none; clip-path:url(#clipPath11);" height="22"
      /><rect x="186" width="22" height="11" y="61.5" style="fill:none;"
      /><rect x="231" y="104" width="6" style="fill:white; stroke:none;" height="9"
      /><path style="stroke:none;" d="M232.4219 112.0938 C233.0781 111.375 233.7031 110.7188 234.0312 110.3438 C235.9219 108.3125 236.5312 107.4688 236.5312 106.3594 C236.5312 105.0156 235.7812 104.0781 234.1562 104.0781 C232.9062 104.0781 231.7969 104.7031 231.5938 105.9688 C231.7188 106.2031 231.9062 106.3438 232.1562 106.3438 C232.4688 106.3438 232.6562 106.1094 232.7969 105.5938 L233.0938 104.6719 C233.3906 104.5938 233.6562 104.5625 233.8906 104.5625 C234.9219 104.5625 235.5469 105.3125 235.5469 106.4219 C235.5469 107.4375 234.9844 108.4219 233.7031 109.9062 C233.125 110.5781 232.3906 111.4375 231.6406 112.2812 L231.6406 113 L236.9219 113 L236.9219 112.0938 L232.4219 112.0938 Z"
      /><rect x="214" y="113" width="8" style="fill:white; stroke:none;" height="8"
      /><path style="stroke:none;" d="M218.9844 118.7031 C218.9375 119.8906 218.1562 120.6562 217.3125 120.6562 C216.2656 120.6562 215.5 119.6875 215.5 117.7188 C215.5 116.2812 216.1562 115.1562 217.3438 115.1562 C218.1406 115.1562 218.7812 115.6875 219.0938 116.6406 L218.9844 118.7031 ZM220.9062 120.2812 C220.7344 120.375 220.5469 120.4219 220.3438 120.4219 C219.9531 120.4219 219.75 120.2188 219.75 119.4219 C219.75 118.4844 219.9688 116.5312 220.1875 114.8281 L220.0312 114.7188 L219.2344 114.9219 L219.1406 115.7969 C218.7812 115.0312 218.1562 114.6562 217.3906 114.6562 C216.0469 114.6562 214.5625 115.8438 214.5625 117.9531 C214.5625 120.0938 215.7188 121.1719 217.1406 121.1719 C218.0156 121.1719 218.6875 120.8125 219.0938 119.9844 C219.2031 120.8594 219.5156 121.1719 220.0156 121.1719 C220.4688 121.1719 220.7969 120.9062 221.0156 120.5625 L220.9062 120.2812 Z"
      /><rect x="224" y="86" width="6" style="fill:white; stroke:none;" height="10"
      /><path style="stroke:none;" d="M226.2344 87.6562 C226.5156 87.5938 226.7656 87.5625 227.0156 87.5625 C228.0625 87.5625 228.6719 88.1719 228.6719 89.2656 C228.6719 90.4375 227.9062 91.1094 226.7031 91.1094 L226.1875 91.1094 L226.1875 91.6406 L226.7969 91.6406 C228.2188 91.6406 228.9062 92.4219 228.9062 93.6406 C228.9062 94.8438 228.1719 95.6875 226.875 95.6875 C226.6094 95.6875 226.3125 95.6562 226.0156 95.5625 L225.7812 94.8125 C225.625 94.2812 225.5 94.0469 225.1406 94.0469 C224.8906 94.0469 224.7031 94.1719 224.5781 94.4219 C224.8438 95.6406 225.7812 96.1719 227.0312 96.1719 C228.7188 96.1719 229.875 95.125 229.875 93.7031 C229.875 92.5 229.2031 91.625 227.7969 91.375 C228.9531 91.0156 229.6094 90.2031 229.6094 89.2031 C229.6094 87.9219 228.6719 87.0781 227.1875 87.0781 C226.0469 87.0781 225.0625 87.5938 224.7969 88.6875 C224.9062 89 225.1094 89.1094 225.3594 89.1094 C225.7344 89.1094 225.8906 88.8906 226 88.4062 L226.2344 87.6562 Z"
      /><rect x="207" y="79" width="8" style="fill:white; stroke:none;" height="8"
      /><path style="stroke:none;" d="M211.9844 84.7031 C211.9375 85.8906 211.1562 86.6562 210.3125 86.6562 C209.2656 86.6562 208.5 85.6875 208.5 83.7188 C208.5 82.2812 209.1562 81.1562 210.3438 81.1562 C211.1406 81.1562 211.7812 81.6875 212.0938 82.6406 L211.9844 84.7031 ZM213.9062 86.2812 C213.7344 86.375 213.5469 86.4219 213.3438 86.4219 C212.9531 86.4219 212.75 86.2188 212.75 85.4219 C212.75 84.4844 212.9688 82.5312 213.1875 80.8281 L213.0312 80.7188 L212.2344 80.9219 L212.1406 81.7969 C211.7812 81.0312 211.1562 80.6562 210.3906 80.6562 C209.0469 80.6562 207.5625 81.8438 207.5625 83.9531 C207.5625 86.0938 208.7188 87.1719 210.1406 87.1719 C211.0156 87.1719 211.6875 86.8125 212.0938 85.9844 C212.2031 86.8594 212.5156 87.1719 213.0156 87.1719 C213.4688 87.1719 213.7969 86.9062 214.0156 86.5625 L213.9062 86.2812 Z"
      /><rect x="278" y="96" width="7" style="fill:white; stroke:none;" height="9"
      /><path style="stroke:none;" d="M279 101.5156 L281.9531 97.2656 L281.9531 101.5156 L279 101.5156 ZM284.2812 101.5156 L282.8594 101.5156 L282.8594 96.125 L282.2344 96.125 L278.3438 101.6406 L278.3438 102.1875 L281.9531 102.1875 L281.9531 105 L282.8594 105 L282.8594 102.1875 L284.2812 102.1875 L284.2812 101.5156 Z"
      /><rect x="264" y="97" width="8" style="fill:white; stroke:none;" height="8"
      /><path style="stroke:none;" d="M268.9844 102.7031 C268.9375 103.8906 268.1562 104.6562 267.3125 104.6562 C266.2656 104.6562 265.5 103.6875 265.5 101.7188 C265.5 100.2812 266.1562 99.1562 267.3438 99.1562 C268.1406 99.1562 268.7812 99.6875 269.0938 100.6406 L268.9844 102.7031 ZM270.9062 104.2812 C270.7344 104.375 270.5469 104.4219 270.3438 104.4219 C269.9531 104.4219 269.75 104.2188 269.75 103.4219 C269.75 102.4844 269.9688 100.5312 270.1875 98.8281 L270.0312 98.7188 L269.2344 98.9219 L269.1406 99.7969 C268.7812 99.0312 268.1562 98.6562 267.3906 98.6562 C266.0469 98.6562 264.5625 99.8438 264.5625 101.9531 C264.5625 104.0938 265.7188 105.1719 267.1406 105.1719 C268.0156 105.1719 268.6875 104.8125 269.0938 103.9844 C269.2031 104.8594 269.5156 105.1719 270.0156 105.1719 C270.4688 105.1719 270.7969 104.9062 271.0156 104.5625 L270.9062 104.2812 Z"
      /><rect x="331" y="96" width="6" style="fill:white; stroke:none;" height="10"
      /><path style="stroke:none;" d="M333.2344 97.6562 C333.5156 97.5938 333.7656 97.5625 334.0156 97.5625 C335.0625 97.5625 335.6719 98.1719 335.6719 99.2656 C335.6719 100.4375 334.9062 101.1094 333.7031 101.1094 L333.1875 101.1094 L333.1875 101.6406 L333.7969 101.6406 C335.2188 101.6406 335.9062 102.4219 335.9062 103.6406 C335.9062 104.8438 335.1719 105.6875 333.875 105.6875 C333.6094 105.6875 333.3125 105.6562 333.0156 105.5625 L332.7812 104.8125 C332.625 104.2812 332.5 104.0469 332.1406 104.0469 C331.8906 104.0469 331.7031 104.1719 331.5781 104.4219 C331.8438 105.6406 332.7812 106.1719 334.0312 106.1719 C335.7188 106.1719 336.875 105.125 336.875 103.7031 C336.875 102.5 336.2031 101.625 334.7969 101.375 C335.9531 101.0156 336.6094 100.2031 336.6094 99.2031 C336.6094 97.9219 335.6719 97.0781 334.1875 97.0781 C333.0469 97.0781 332.0625 97.5938 331.7969 98.6875 C331.9062 99 332.1094 99.1094 332.3594 99.1094 C332.7344 99.1094 332.8906 98.8906 333 98.4062 L333.2344 97.6562 Z"
      /><rect x="316" y="97" width="8" style="fill:white; stroke:none;" height="8"
      /><path style="stroke:none;" d="M320.9844 102.7031 C320.9375 103.8906 320.1562 104.6562 319.3125 104.6562 C318.2656 104.6562 317.5 103.6875 317.5 101.7188 C317.5 100.2812 318.1562 99.1562 319.3438 99.1562 C320.1406 99.1562 320.7812 99.6875 321.0938 100.6406 L320.9844 102.7031 ZM322.9062 104.2812 C322.7344 104.375 322.5469 104.4219 322.3438 104.4219 C321.9531 104.4219 321.75 104.2188 321.75 103.4219 C321.75 102.4844 321.9688 100.5312 322.1875 98.8281 L322.0312 98.7188 L321.2344 98.9219 L321.1406 99.7969 C320.7812 99.0312 320.1562 98.6562 319.3906 98.6562 C318.0469 98.6562 316.5625 99.8438 316.5625 101.9531 C316.5625 104.0938 317.7188 105.1719 319.1406 105.1719 C320.0156 105.1719 320.6875 104.8125 321.0938 103.9844 C321.2031 104.8594 321.5156 105.1719 322.0156 105.1719 C322.4688 105.1719 322.7969 104.9062 323.0156 104.5625 L322.9062 104.2812 Z"
      /><rect x="342" y="35.5" width="22" style="clip-path:url(#clipPath12); fill:white; stroke:none;" height="11"
      /><rect x="342" y="30" width="22" style="clip-path:url(#clipPath12); fill:rgb(0,166,81); stroke:none;" height="22"
      /><rect x="342" y="30" width="22" style="fill:none; clip-path:url(#clipPath12);" height="22"
      /><rect x="342" width="22" height="11" y="35.5" style="fill:none;"
      /><rect x="387" y="78" width="6" style="fill:white; stroke:none;" height="9"
      /><path style="stroke:none;" d="M388.4219 86.0938 C389.0781 85.375 389.7031 84.7188 390.0312 84.3438 C391.9219 82.3125 392.5312 81.4688 392.5312 80.3594 C392.5312 79.0156 391.7812 78.0781 390.1562 78.0781 C388.9062 78.0781 387.7969 78.7031 387.5938 79.9688 C387.7188 80.2031 387.9062 80.3438 388.1562 80.3438 C388.4688 80.3438 388.6562 80.1094 388.7969 79.5938 L389.0938 78.6719 C389.3906 78.5938 389.6562 78.5625 389.8906 78.5625 C390.9219 78.5625 391.5469 79.3125 391.5469 80.4219 C391.5469 81.4375 390.9844 82.4219 389.7031 83.9062 C389.125 84.5781 388.3906 85.4375 387.6406 86.2812 L387.6406 87 L392.9219 87 L392.9219 86.0938 L388.4219 86.0938 Z"
      /><rect x="370" y="87" width="8" style="fill:white; stroke:none;" height="8"
      /><path style="stroke:none;" d="M374.9844 92.7031 C374.9375 93.8906 374.1562 94.6562 373.3125 94.6562 C372.2656 94.6562 371.5 93.6875 371.5 91.7188 C371.5 90.2812 372.1562 89.1562 373.3438 89.1562 C374.1406 89.1562 374.7812 89.6875 375.0938 90.6406 L374.9844 92.7031 ZM376.9062 94.2812 C376.7344 94.375 376.5469 94.4219 376.3438 94.4219 C375.9531 94.4219 375.75 94.2188 375.75 93.4219 C375.75 92.4844 375.9688 90.5312 376.1875 88.8281 L376.0312 88.7188 L375.2344 88.9219 L375.1406 89.7969 C374.7812 89.0312 374.1562 88.6562 373.3906 88.6562 C372.0469 88.6562 370.5625 89.8438 370.5625 91.9531 C370.5625 94.0938 371.7188 95.1719 373.1406 95.1719 C374.0156 95.1719 374.6875 94.8125 375.0938 93.9844 C375.2031 94.8594 375.5156 95.1719 376.0156 95.1719 C376.4688 95.1719 376.7969 94.9062 377.0156 94.5625 L376.9062 94.2812 Z"
      /><rect x="380" y="60" width="6" style="fill:white; stroke:none;" height="10"
      /><path style="stroke:none;" d="M382.2344 61.6562 C382.5156 61.5938 382.7656 61.5625 383.0156 61.5625 C384.0625 61.5625 384.6719 62.1719 384.6719 63.2656 C384.6719 64.4375 383.9062 65.1094 382.7031 65.1094 L382.1875 65.1094 L382.1875 65.6406 L382.7969 65.6406 C384.2188 65.6406 384.9062 66.4219 384.9062 67.6406 C384.9062 68.8438 384.1719 69.6875 382.875 69.6875 C382.6094 69.6875 382.3125 69.6562 382.0156 69.5625 L381.7812 68.8125 C381.625 68.2812 381.5 68.0469 381.1406 68.0469 C380.8906 68.0469 380.7031 68.1719 380.5781 68.4219 C380.8438 69.6406 381.7812 70.1719 383.0312 70.1719 C384.7188 70.1719 385.875 69.125 385.875 67.7031 C385.875 66.5 385.2031 65.625 383.7969 65.375 C384.9531 65.0156 385.6094 64.2031 385.6094 63.2031 C385.6094 61.9219 384.6719 61.0781 383.1875 61.0781 C382.0469 61.0781 381.0625 61.5938 380.7969 62.6875 C380.9062 63 381.1094 63.1094 381.3594 63.1094 C381.7344 63.1094 381.8906 62.8906 382 62.4062 L382.2344 61.6562 Z"
      /><rect x="363" y="53" width="8" style="fill:white; stroke:none;" height="8"
      /><path style="stroke:none;" d="M367.9844 58.7031 C367.9375 59.8906 367.1562 60.6562 366.3125 60.6562 C365.2656 60.6562 364.5 59.6875 364.5 57.7188 C364.5 56.2812 365.1562 55.1562 366.3438 55.1562 C367.1406 55.1562 367.7812 55.6875 368.0938 56.6406 L367.9844 58.7031 ZM369.9062 60.2812 C369.7344 60.375 369.5469 60.4219 369.3438 60.4219 C368.9531 60.4219 368.75 60.2188 368.75 59.4219 C368.75 58.4844 368.9688 56.5312 369.1875 54.8281 L369.0312 54.7188 L368.2344 54.9219 L368.1406 55.7969 C367.7812 55.0312 367.1562 54.6562 366.3906 54.6562 C365.0469 54.6562 363.5625 55.8438 363.5625 57.9531 C363.5625 60.0938 364.7188 61.1719 366.1406 61.1719 C367.0156 61.1719 367.6875 60.8125 368.0938 59.9844 C368.2031 60.8594 368.5156 61.1719 369.0156 61.1719 C369.4688 61.1719 369.7969 60.9062 370.0156 60.5625 L369.9062 60.2812 Z"
      /><rect x="434" y="70" width="7" style="fill:white; stroke:none;" height="9"
      /><path style="stroke:none;" d="M435 75.5156 L437.9531 71.2656 L437.9531 75.5156 L435 75.5156 ZM440.2812 75.5156 L438.8594 75.5156 L438.8594 70.125 L438.2344 70.125 L434.3438 75.6406 L434.3438 76.1875 L437.9531 76.1875 L437.9531 79 L438.8594 79 L438.8594 76.1875 L440.2812 76.1875 L440.2812 75.5156 Z"
      /><rect x="420" y="71" width="8" style="fill:white; stroke:none;" height="8"
      /><path style="stroke:none;" d="M424.9844 76.7031 C424.9375 77.8906 424.1562 78.6562 423.3125 78.6562 C422.2656 78.6562 421.5 77.6875 421.5 75.7188 C421.5 74.2812 422.1562 73.1562 423.3438 73.1562 C424.1406 73.1562 424.7812 73.6875 425.0938 74.6406 L424.9844 76.7031 ZM426.9062 78.2812 C426.7344 78.375 426.5469 78.4219 426.3438 78.4219 C425.9531 78.4219 425.75 78.2188 425.75 77.4219 C425.75 76.4844 425.9688 74.5312 426.1875 72.8281 L426.0312 72.7188 L425.2344 72.9219 L425.1406 73.7969 C424.7812 73.0312 424.1562 72.6562 423.3906 72.6562 C422.0469 72.6562 420.5625 73.8438 420.5625 75.9531 C420.5625 78.0938 421.7188 79.1719 423.1406 79.1719 C424.0156 79.1719 424.6875 78.8125 425.0938 77.9844 C425.2031 78.8594 425.5156 79.1719 426.0156 79.1719 C426.4688 79.1719 426.7969 78.9062 427.0156 78.5625 L426.9062 78.2812 Z"
      /><rect x="472" y="71" width="8" style="fill:white; stroke:none;" height="8"
      /><path style="stroke:none;" d="M476.9844 76.7031 C476.9375 77.8906 476.1562 78.6562 475.3125 78.6562 C474.2656 78.6562 473.5 77.6875 473.5 75.7188 C473.5 74.2812 474.1562 73.1562 475.3438 73.1562 C476.1406 73.1562 476.7812 73.6875 477.0938 74.6406 L476.9844 76.7031 ZM478.9062 78.2812 C478.7344 78.375 478.5469 78.4219 478.3438 78.4219 C477.9531 78.4219 477.75 78.2188 477.75 77.4219 C477.75 76.4844 477.9688 74.5312 478.1875 72.8281 L478.0312 72.7188 L477.2344 72.9219 L477.1406 73.7969 C476.7812 73.0312 476.1562 72.6562 475.3906 72.6562 C474.0469 72.6562 472.5625 73.8438 472.5625 75.9531 C472.5625 78.0938 473.7188 79.1719 475.1406 79.1719 C476.0156 79.1719 476.6875 78.8125 477.0938 77.9844 C477.2031 78.8594 477.5156 79.1719 478.0156 79.1719 C478.4688 79.1719 478.7969 78.9062 479.0156 78.5625 L478.9062 78.2812 Z"
    /></g
  ></g
></svg
>
