<?xml version="1.0"?>
<!DOCTYPE svg PUBLIC '-//W3C//DTD SVG 1.0//EN'
          'http://www.w3.org/TR/2001/REC-SVG-20010904/DTD/svg10.dtd'>
<svg xmlns:xlink="http://www.w3.org/1999/xlink" style="fill-opacity:1; color-rendering:auto; color-interpolation:auto; text-rendering:auto; stroke:black; stroke-linecap:square; stroke-miterlimit:10; shape-rendering:auto; stroke-opacity:1; fill:black; stroke-dasharray:none; font-weight:normal; stroke-width:1; font-family:'Dialog'; font-style:normal; stroke-linejoin:miter; font-size:12px; stroke-dashoffset:0; image-rendering:auto;" viewBox="0 0 550 186" xmlns="http://www.w3.org/2000/svg"
><!--Generated by the Batik Graphics2D SVG Generator--><defs id="genericDefs"
  /><g
  ><defs id="defs1"
    ><clipPath clipPathUnits="userSpaceOnUse" id="clipPath1"
      ><path d="M446 95 L468 95 L468 117 L446 117 L446 95 Z"
      /></clipPath
      ><clipPath clipPathUnits="userSpaceOnUse" id="clipPath2"
      ><path d="M394 95 L416 95 L416 117 L394 117 L394 95 Z"
      /></clipPath
      ><clipPath clipPathUnits="userSpaceOnUse" id="clipPath3"
      ><path d="M364 106 C364 112.0751 359.0751 117 353 117 C346.9249 117 342 112.0751 342 106 C342 99.9249 346.9249 95 353 95 C359.0751 95 364 99.9249 364 106 Z"
      /></clipPath
      ><clipPath clipPathUnits="userSpaceOnUse" id="clipPath4"
      ><path d="M312 145 C312 151.0751 307.0751 156 301 156 C294.9249 156 290 151.0751 290 145 C290 138.9249 294.9249 134 301 134 C307.0751 134 312 138.9249 312 145 Z"
      /></clipPath
      ><clipPath clipPathUnits="userSpaceOnUse" id="clipPath5"
      ><path d="M238 134 L260 134 L260 156 L238 156 L238 134 Z"
      /></clipPath
      ><clipPath clipPathUnits="userSpaceOnUse" id="clipPath6"
      ><path d="M208 145 C208 151.0751 203.0751 156 197 156 C190.9249 156 186 151.0751 186 145 C186 138.9249 190.9249 134 197 134 C203.0751 134 208 138.9249 208 145 Z"
      /></clipPath
      ><clipPath clipPathUnits="userSpaceOnUse" id="clipPath7"
      ><path style="fill-rule:evenodd;" d="M145 134 L156 145 L145 156 L134 145 Z"
      /></clipPath
      ><clipPath clipPathUnits="userSpaceOnUse" id="clipPath8"
      ><path d="M312 67 C312 73.0751 307.0751 78 301 78 C294.9249 78 290 73.0751 290 67 C290 60.9249 294.9249 56 301 56 C307.0751 56 312 60.9249 312 67 Z"
      /></clipPath
      ><clipPath clipPathUnits="userSpaceOnUse" id="clipPath9"
      ><path d="M238 82 L260 82 L260 104 L238 104 L238 82 Z"
      /></clipPath
      ><clipPath clipPathUnits="userSpaceOnUse" id="clipPath10"
      ><path d="M208 93 C208 99.0751 203.0751 104 197 104 C190.9249 104 186 99.0751 186 93 C186 86.9249 190.9249 82 197 82 C203.0751 82 208 86.9249 208 93 Z"
      /></clipPath
      ><clipPath clipPathUnits="userSpaceOnUse" id="clipPath11"
      ><path d="M134 82 L156 82 L156 104 L134 104 L134 82 Z"
      /></clipPath
      ><clipPath clipPathUnits="userSpaceOnUse" id="clipPath12"
      ><path d="M104 93 C104 99.0751 99.0751 104 93 104 C86.9249 104 82 99.0751 82 93 C82 86.9249 86.9249 82 93 82 C99.0751 82 104 86.9249 104 93 Z"
      /></clipPath
      ><clipPath clipPathUnits="userSpaceOnUse" id="clipPath13"
      ><path style="fill-rule:evenodd;" d="M41 82 L52 93 L41 104 L30 93 Z"
      /></clipPath
      ><clipPath clipPathUnits="userSpaceOnUse" id="clipPath14"
      ><path d="M238 30 L260 30 L260 52 L238 52 L238 30 Z"
      /></clipPath
      ><clipPath clipPathUnits="userSpaceOnUse" id="clipPath15"
      ><path d="M208 41 C208 47.0751 203.0751 52 197 52 C190.9249 52 186 47.0751 186 41 C186 34.9249 190.9249 30 197 30 C203.0751 30 208 34.9249 208 41 Z"
      /></clipPath
      ><clipPath clipPathUnits="userSpaceOnUse" id="clipPath16"
      ><path d="M134 30 L156 30 L156 52 L134 52 L134 30 Z"
      /></clipPath
      ><clipPath clipPathUnits="userSpaceOnUse" id="clipPath17"
      ><path d="M104 41 C104 47.0751 99.0751 52 93 52 C86.9249 52 82 47.0751 82 41 C82 34.9249 86.9249 30 93 30 C99.0751 30 104 34.9249 104 41 Z"
      /></clipPath
      ><clipPath clipPathUnits="userSpaceOnUse" id="clipPath18"
      ><path style="fill-rule:evenodd;" d="M41 30 L52 41 L41 52 L30 41 Z"
      /></clipPath
      ><clipPath clipPathUnits="userSpaceOnUse" id="clipPath19"
      ><path style="fill-rule:evenodd;" d="M457 65 L446 43 L468 43 Z"
      /></clipPath
    ></defs
    ><g style="fill:white; text-rendering:optimizeSpeed; stroke:white;"
    ><rect x="0" width="550" height="186" y="0" style="stroke:none;"
      /><polygon style="fill:none; stroke:black;" points=" 509 106 457 106"
      /><path d="M509 95 C503.5 100.5 514.5 111.5 509 117" style="fill:none; stroke:black;"
      /><polygon style="fill:none; stroke:black;" points=" 457 106 405 106"
      /><polygon style="fill:none; stroke:black;" points=" 457 106 457 54"
      /><rect x="446" y="95" width="22" style="clip-path:url(#clipPath1); stroke:none;" height="22"
      /><rect x="446" y="95" width="22" style="clip-path:url(#clipPath1); fill:rgb(0,144,188); stroke:none;" height="22"
      /><rect x="446" y="95" width="22" style="clip-path:url(#clipPath1); fill:none; stroke:black;" height="22"
      /><rect x="446" y="95" width="22" style="fill:none; stroke:black;" height="22"
      /><polygon style="fill:none; stroke:black;" points=" 405 106 353 106"
      /><rect x="394" y="95" width="22" style="clip-path:url(#clipPath2); stroke:none;" height="22"
      /><rect x="394" y="95" width="22" style="clip-path:url(#clipPath2); fill:rgb(0,166,81); stroke:none;" height="22"
      /><rect x="394" y="95" width="22" style="clip-path:url(#clipPath2); fill:none; stroke:black;" height="22"
      /><rect x="394" y="95" width="22" style="fill:none; stroke:black;" height="22"
      /><polygon style="fill:none; stroke:black;" points=" 353 106 301 145"
      /><polygon style="fill:none; stroke:black;" points=" 353 106 301 67"
      /><circle style="clip-path:url(#clipPath3); stroke:none;" r="11" cx="353" cy="106"
      /><rect x="342" y="95" width="22" style="clip-path:url(#clipPath3); fill:rgb(0,166,81); stroke:none;" height="22"
      /><rect x="342" y="95" width="22" style="clip-path:url(#clipPath3); fill:none; stroke:black;" height="22"
      /><circle style="fill:none; stroke:black;" r="11" cx="353" cy="106"
      /><polygon style="fill:none; stroke:black;" points=" 301 145 249 145"
      /><circle style="clip-path:url(#clipPath4); stroke:none;" r="11" cx="301" cy="145"
      /><rect x="290" y="134" width="22" style="clip-path:url(#clipPath4); fill:rgb(0,166,81); stroke:none;" height="22"
      /><rect x="290" y="134" width="22" style="clip-path:url(#clipPath4); fill:none; stroke:black;" height="22"
      /><circle style="fill:none; stroke:black;" r="11" cx="301" cy="145"
      /><polygon style="fill:none; stroke:black;" points=" 249 145 197 145"
      /><rect x="238" y="134" width="22" style="clip-path:url(#clipPath5); stroke:none;" height="22"
      /><rect x="238" y="134" width="22" style="clip-path:url(#clipPath5); fill:rgb(0,166,81); stroke:none;" height="22"
      /><rect x="238" y="134" width="22" style="clip-path:url(#clipPath5); fill:none; stroke:black;" height="22"
      /><rect x="238" y="134" width="22" style="fill:none; stroke:black;" height="22"
      /><polygon style="fill:none; stroke:black;" points=" 197 145 145 145"
      /><circle style="clip-path:url(#clipPath6); stroke:none;" r="11" cx="197" cy="145"
      /><rect x="186" y="134" width="22" style="clip-path:url(#clipPath6); fill:rgb(255,212,0); stroke:none;" height="22"
      /><rect x="186" y="134" width="22" style="clip-path:url(#clipPath6); fill:none; stroke:black;" height="22"
      /><circle style="fill:none; stroke:black;" r="11" cx="197" cy="145"
      /><polygon style="clip-path:url(#clipPath7); stroke:none;" points=" 145 134 156 145 145 156 134 145"
      /><rect x="134" y="134" width="22" style="clip-path:url(#clipPath7); fill:rgb(0,166,81); stroke:none;" height="22"
      /><rect x="134" y="134" width="22" style="clip-path:url(#clipPath7); fill:none; stroke:black;" height="22"
      /><polygon style="fill:none; stroke:black;" points=" 145 134 156 145 145 156 134 145"
      /><rect x="175" y="148" width="6" style="stroke:none;" height="10"
    /></g
    ><g style="font-family:'Serif'; text-rendering:optimizeSpeed; "
    ><path style="stroke:none;" d="M177.2344 149.6562 C177.5156 149.5938 177.7656 149.5625 178.0156 149.5625 C179.0625 149.5625 179.6719 150.1719 179.6719 151.2656 C179.6719 152.4375 178.9062 153.1094 177.7031 153.1094 L177.1875 153.1094 L177.1875 153.6406 L177.7969 153.6406 C179.2188 153.6406 179.9062 154.4219 179.9062 155.6406 C179.9062 156.8438 179.1719 157.6875 177.875 157.6875 C177.6094 157.6875 177.3125 157.6562 177.0156 157.5625 L176.7812 156.8125 C176.625 156.2812 176.5 156.0469 176.1406 156.0469 C175.8906 156.0469 175.7031 156.1719 175.5781 156.4219 C175.8438 157.6406 176.7812 158.1719 178.0312 158.1719 C179.7188 158.1719 180.875 157.125 180.875 155.7031 C180.875 154.5 180.2031 153.625 178.7969 153.375 C179.9531 153.0156 180.6094 152.2031 180.6094 151.2031 C180.6094 149.9219 179.6719 149.0781 178.1875 149.0781 C177.0469 149.0781 176.0625 149.5938 175.7969 150.6875 C175.9062 151 176.1094 151.1094 176.3594 151.1094 C176.7344 151.1094 176.8906 150.8906 177 150.4062 L177.2344 149.6562 Z"
      /><rect x="160" y="149" width="8" style="fill:white; stroke:none;" height="8"
      /><path style="stroke:none;" d="M164.9844 154.7031 C164.9375 155.8906 164.1562 156.6562 163.3125 156.6562 C162.2656 156.6562 161.5 155.6875 161.5 153.7188 C161.5 152.2812 162.1562 151.1562 163.3438 151.1562 C164.1406 151.1562 164.7812 151.6875 165.0938 152.6406 L164.9844 154.7031 ZM166.9062 156.2812 C166.7344 156.375 166.5469 156.4219 166.3438 156.4219 C165.9531 156.4219 165.75 156.2188 165.75 155.4219 C165.75 154.4844 165.9688 152.5312 166.1875 150.8281 L166.0312 150.7188 L165.2344 150.9219 L165.1406 151.7969 C164.7812 151.0312 164.1562 150.6562 163.3906 150.6562 C162.0469 150.6562 160.5625 151.8438 160.5625 153.9531 C160.5625 156.0938 161.7188 157.1719 163.1406 157.1719 C164.0156 157.1719 164.6875 156.8125 165.0938 155.9844 C165.2031 156.8594 165.5156 157.1719 166.0156 157.1719 C166.4688 157.1719 166.7969 156.9062 167.0156 156.5625 L166.9062 156.2812 Z"
      /><rect x="226" y="148" width="7" style="fill:white; stroke:none;" height="9"
      /><path style="stroke:none;" d="M227 153.5156 L229.9531 149.2656 L229.9531 153.5156 L227 153.5156 ZM232.2812 153.5156 L230.8594 153.5156 L230.8594 148.125 L230.2344 148.125 L226.3438 153.6406 L226.3438 154.1875 L229.9531 154.1875 L229.9531 157 L230.8594 157 L230.8594 154.1875 L232.2812 154.1875 L232.2812 153.5156 Z"
      /><rect x="213" y="146" width="6" style="fill:white; stroke:none;" height="13"
      /><path style="stroke:none;" d="M215.0938 152.2031 C215.0938 150.6562 215.75 149.8125 216.7969 149.8125 C217.7188 149.8125 218.2656 150.4531 218.2656 151.5156 C218.2656 152.7188 217.5 153.4375 216.1875 153.7031 L216.2969 154.3125 C218.2188 154.2344 218.9375 155.2188 218.9375 156.4375 C218.9375 157.625 218.2344 158.4219 216.9531 158.4219 C216.25 158.4219 215.6562 158.1562 215.0938 157.7188 L215.0938 152.2031 ZM214.2031 158.9062 L214.1094 161.375 L214.2656 161.4844 L215.1562 161.2656 L215.0156 158.0938 C215.5469 158.8438 216.3594 159.1719 217.1719 159.1719 C218.5625 159.1719 219.8594 158.2188 219.8594 156.4844 C219.8594 154.9531 218.875 154.1094 217.125 154 C218.5625 153.6094 219.1875 152.4531 219.1875 151.4844 C219.1875 150.0938 218.1562 149.3125 216.9062 149.3125 C215.2969 149.3125 214.2188 150.5469 214.2188 152.5156 L214.2031 158.9062 Z"
      /><rect x="279" y="148" width="6" style="fill:white; stroke:none;" height="9"
      /><path style="stroke:none;" d="M280.4219 156.0938 C281.0781 155.375 281.7031 154.7188 282.0312 154.3438 C283.9219 152.3125 284.5312 151.4688 284.5312 150.3594 C284.5312 149.0156 283.7812 148.0781 282.1562 148.0781 C280.9062 148.0781 279.7969 148.7031 279.5938 149.9688 C279.7188 150.2031 279.9062 150.3438 280.1562 150.3438 C280.4688 150.3438 280.6562 150.1094 280.7969 149.5938 L281.0938 148.6719 C281.3906 148.5938 281.6562 148.5625 281.8906 148.5625 C282.9219 148.5625 283.5469 149.3125 283.5469 150.4219 C283.5469 151.4375 282.9844 152.4219 281.7031 153.9062 C281.125 154.5781 280.3906 155.4375 279.6406 156.2812 L279.6406 157 L284.9219 157 L284.9219 156.0938 L280.4219 156.0938 Z"
      /><rect x="265" y="146" width="6" style="fill:white; stroke:none;" height="13"
      /><path style="stroke:none;" d="M267.0938 152.2031 C267.0938 150.6562 267.75 149.8125 268.7969 149.8125 C269.7188 149.8125 270.2656 150.4531 270.2656 151.5156 C270.2656 152.7188 269.5 153.4375 268.1875 153.7031 L268.2969 154.3125 C270.2188 154.2344 270.9375 155.2188 270.9375 156.4375 C270.9375 157.625 270.2344 158.4219 268.9531 158.4219 C268.25 158.4219 267.6562 158.1562 267.0938 157.7188 L267.0938 152.2031 ZM266.2031 158.9062 L266.1094 161.375 L266.2656 161.4844 L267.1562 161.2656 L267.0156 158.0938 C267.5469 158.8438 268.3594 159.1719 269.1719 159.1719 C270.5625 159.1719 271.8594 158.2188 271.8594 156.4844 C271.8594 154.9531 270.875 154.1094 269.125 154 C270.5625 153.6094 271.1875 152.4531 271.1875 151.4844 C271.1875 150.0938 270.1562 149.3125 268.9062 149.3125 C267.2969 149.3125 266.2188 150.5469 266.2188 152.5156 L266.2031 158.9062 Z"
      /><polygon style="fill:none;" points=" 301 67 249 93"
      /><polygon style="fill:none;" points=" 301 67 249 41"
      /><circle style="fill:white; clip-path:url(#clipPath8); stroke:none;" r="11" cx="301" cy="67"
      /><rect x="290" y="56" width="22" style="clip-path:url(#clipPath8); fill:rgb(0,166,81); stroke:none;" height="22"
      /><rect x="290" y="56" width="22" style="fill:none; clip-path:url(#clipPath8);" height="22"
      /><circle r="11" style="fill:none;" cx="301" cy="67"
      /><polygon style="fill:none;" points=" 249 93 197 93"
      /><rect x="238" y="82" width="22" style="clip-path:url(#clipPath9); fill:white; stroke:none;" height="22"
      /><rect x="238" y="82" width="22" style="clip-path:url(#clipPath9); fill:rgb(0,144,188); stroke:none;" height="22"
      /><rect x="238" y="82" width="22" style="fill:none; clip-path:url(#clipPath9);" height="22"
      /><rect x="238" width="22" height="22" y="82" style="fill:none;"
      /><polygon style="fill:none;" points=" 197 93 145 93"
      /><circle style="fill:white; clip-path:url(#clipPath10); stroke:none;" r="11" cx="197" cy="93"
      /><rect x="186" y="82" width="22" style="clip-path:url(#clipPath10); fill:rgb(255,212,0); stroke:none;" height="22"
      /><rect x="186" y="82" width="22" style="fill:none; clip-path:url(#clipPath10);" height="22"
      /><circle r="11" style="fill:none;" cx="197" cy="93"
      /><polygon style="fill:none;" points=" 145 93 93 93"
      /><rect x="134" y="82" width="22" style="clip-path:url(#clipPath11); fill:white; stroke:none;" height="22"
      /><rect x="134" y="82" width="22" style="clip-path:url(#clipPath11); fill:rgb(0,144,188); stroke:none;" height="22"
      /><rect x="134" y="82" width="22" style="fill:none; clip-path:url(#clipPath11);" height="22"
      /><rect x="134" width="22" height="22" y="82" style="fill:none;"
      /><polygon style="fill:none;" points=" 93 93 41 93"
      /><circle style="fill:white; clip-path:url(#clipPath12); stroke:none;" r="11" cx="93" cy="93"
      /><rect x="82" y="82" width="22" style="clip-path:url(#clipPath12); fill:rgb(255,212,0); stroke:none;" height="22"
      /><rect x="82" y="82" width="22" style="fill:none; clip-path:url(#clipPath12);" height="22"
      /><circle r="11" style="fill:none;" cx="93" cy="93"
      /><polygon style="fill:white; clip-path:url(#clipPath13); stroke:none;" points=" 41 82 52 93 41 104 30 93"
      /><rect x="30" y="82" width="22" style="clip-path:url(#clipPath13); fill:rgb(0,166,81); stroke:none;" height="22"
      /><rect x="30" y="82" width="22" style="fill:none; clip-path:url(#clipPath13);" height="22"
      /><polygon style="fill:none;" points=" 41 82 52 93 41 104 30 93"
      /><rect x="71" y="96" width="6" style="fill:white; stroke:none;" height="10"
      /><path style="stroke:none;" d="M73.2344 97.6562 C73.5156 97.5938 73.7656 97.5625 74.0156 97.5625 C75.0625 97.5625 75.6719 98.1719 75.6719 99.2656 C75.6719 100.4375 74.9062 101.1094 73.7031 101.1094 L73.1875 101.1094 L73.1875 101.6406 L73.7969 101.6406 C75.2188 101.6406 75.9062 102.4219 75.9062 103.6406 C75.9062 104.8438 75.1719 105.6875 73.875 105.6875 C73.6094 105.6875 73.3125 105.6562 73.0156 105.5625 L72.7812 104.8125 C72.625 104.2812 72.5 104.0469 72.1406 104.0469 C71.8906 104.0469 71.7031 104.1719 71.5781 104.4219 C71.8438 105.6406 72.7812 106.1719 74.0312 106.1719 C75.7188 106.1719 76.875 105.125 76.875 103.7031 C76.875 102.5 76.2031 101.625 74.7969 101.375 C75.9531 101.0156 76.6094 100.2031 76.6094 99.2031 C76.6094 97.9219 75.6719 97.0781 74.1875 97.0781 C73.0469 97.0781 72.0625 97.5938 71.7969 98.6875 C71.9062 99 72.1094 99.1094 72.3594 99.1094 C72.7344 99.1094 72.8906 98.8906 73 98.4062 L73.2344 97.6562 Z"
      /><rect x="56" y="97" width="8" style="fill:white; stroke:none;" height="8"
      /><path style="stroke:none;" d="M60.9844 102.7031 C60.9375 103.8906 60.1562 104.6562 59.3125 104.6562 C58.2656 104.6562 57.5 103.6875 57.5 101.7188 C57.5 100.2812 58.1562 99.1562 59.3438 99.1562 C60.1406 99.1562 60.7812 99.6875 61.0938 100.6406 L60.9844 102.7031 ZM62.9062 104.2812 C62.7344 104.375 62.5469 104.4219 62.3438 104.4219 C61.9531 104.4219 61.75 104.2188 61.75 103.4219 C61.75 102.4844 61.9688 100.5312 62.1875 98.8281 L62.0312 98.7188 L61.2344 98.9219 L61.1406 99.7969 C60.7812 99.0312 60.1562 98.6562 59.3906 98.6562 C58.0469 98.6562 56.5625 99.8438 56.5625 101.9531 C56.5625 104.0938 57.7188 105.1719 59.1406 105.1719 C60.0156 105.1719 60.6875 104.8125 61.0938 103.9844 C61.2031 104.8594 61.5156 105.1719 62.0156 105.1719 C62.4688 105.1719 62.7969 104.9062 63.0156 104.5625 L62.9062 104.2812 Z"
      /><rect x="122" y="96" width="7" style="fill:white; stroke:none;" height="9"
      /><path style="stroke:none;" d="M123 101.5156 L125.9531 97.2656 L125.9531 101.5156 L123 101.5156 ZM128.2812 101.5156 L126.8594 101.5156 L126.8594 96.125 L126.2344 96.125 L122.3438 101.6406 L122.3438 102.1875 L125.9531 102.1875 L125.9531 105 L126.8594 105 L126.8594 102.1875 L128.2812 102.1875 L128.2812 101.5156 Z"
      /><rect x="109" y="94" width="6" style="fill:white; stroke:none;" height="13"
      /><path style="stroke:none;" d="M111.0938 100.2031 C111.0938 98.6562 111.75 97.8125 112.7969 97.8125 C113.7188 97.8125 114.2656 98.4531 114.2656 99.5156 C114.2656 100.7188 113.5 101.4375 112.1875 101.7031 L112.2969 102.3125 C114.2188 102.2344 114.9375 103.2188 114.9375 104.4375 C114.9375 105.625 114.2344 106.4219 112.9531 106.4219 C112.25 106.4219 111.6562 106.1562 111.0938 105.7188 L111.0938 100.2031 ZM110.2031 106.9062 L110.1094 109.375 L110.2656 109.4844 L111.1562 109.2656 L111.0156 106.0938 C111.5469 106.8438 112.3594 107.1719 113.1719 107.1719 C114.5625 107.1719 115.8594 106.2188 115.8594 104.4844 C115.8594 102.9531 114.875 102.1094 113.125 102 C114.5625 101.6094 115.1875 100.4531 115.1875 99.4844 C115.1875 98.0938 114.1562 97.3125 112.9062 97.3125 C111.2969 97.3125 110.2188 98.5469 110.2188 100.5156 L110.2031 106.9062 Z"
      /><rect x="175" y="96" width="6" style="fill:white; stroke:none;" height="10"
      /><path style="stroke:none;" d="M177.2344 97.6562 C177.5156 97.5938 177.7656 97.5625 178.0156 97.5625 C179.0625 97.5625 179.6719 98.1719 179.6719 99.2656 C179.6719 100.4375 178.9062 101.1094 177.7031 101.1094 L177.1875 101.1094 L177.1875 101.6406 L177.7969 101.6406 C179.2188 101.6406 179.9062 102.4219 179.9062 103.6406 C179.9062 104.8438 179.1719 105.6875 177.875 105.6875 C177.6094 105.6875 177.3125 105.6562 177.0156 105.5625 L176.7812 104.8125 C176.625 104.2812 176.5 104.0469 176.1406 104.0469 C175.8906 104.0469 175.7031 104.1719 175.5781 104.4219 C175.8438 105.6406 176.7812 106.1719 178.0312 106.1719 C179.7188 106.1719 180.875 105.125 180.875 103.7031 C180.875 102.5 180.2031 101.625 178.7969 101.375 C179.9531 101.0156 180.6094 100.2031 180.6094 99.2031 C180.6094 97.9219 179.6719 97.0781 178.1875 97.0781 C177.0469 97.0781 176.0625 97.5938 175.7969 98.6875 C175.9062 99 176.1094 99.1094 176.3594 99.1094 C176.7344 99.1094 176.8906 98.8906 177 98.4062 L177.2344 97.6562 Z"
      /><rect x="161" y="94" width="6" style="fill:white; stroke:none;" height="13"
      /><path style="stroke:none;" d="M163.0938 100.2031 C163.0938 98.6562 163.75 97.8125 164.7969 97.8125 C165.7188 97.8125 166.2656 98.4531 166.2656 99.5156 C166.2656 100.7188 165.5 101.4375 164.1875 101.7031 L164.2969 102.3125 C166.2188 102.2344 166.9375 103.2188 166.9375 104.4375 C166.9375 105.625 166.2344 106.4219 164.9531 106.4219 C164.25 106.4219 163.6562 106.1562 163.0938 105.7188 L163.0938 100.2031 ZM162.2031 106.9062 L162.1094 109.375 L162.2656 109.4844 L163.1562 109.2656 L163.0156 106.0938 C163.5469 106.8438 164.3594 107.1719 165.1719 107.1719 C166.5625 107.1719 167.8594 106.2188 167.8594 104.4844 C167.8594 102.9531 166.875 102.1094 165.125 102 C166.5625 101.6094 167.1875 100.4531 167.1875 99.4844 C167.1875 98.0938 166.1562 97.3125 164.9062 97.3125 C163.2969 97.3125 162.2188 98.5469 162.2188 100.5156 L162.2031 106.9062 Z"
      /><rect x="226" y="96" width="7" style="fill:white; stroke:none;" height="9"
      /><path style="stroke:none;" d="M227 101.5156 L229.9531 97.2656 L229.9531 101.5156 L227 101.5156 ZM232.2812 101.5156 L230.8594 101.5156 L230.8594 96.125 L230.2344 96.125 L226.3438 101.6406 L226.3438 102.1875 L229.9531 102.1875 L229.9531 105 L230.8594 105 L230.8594 102.1875 L232.2812 102.1875 L232.2812 101.5156 Z"
      /><rect x="213" y="94" width="6" style="fill:white; stroke:none;" height="13"
      /><path style="stroke:none;" d="M215.0938 100.2031 C215.0938 98.6562 215.75 97.8125 216.7969 97.8125 C217.7188 97.8125 218.2656 98.4531 218.2656 99.5156 C218.2656 100.7188 217.5 101.4375 216.1875 101.7031 L216.2969 102.3125 C218.2188 102.2344 218.9375 103.2188 218.9375 104.4375 C218.9375 105.625 218.2344 106.4219 216.9531 106.4219 C216.25 106.4219 215.6562 106.1562 215.0938 105.7188 L215.0938 100.2031 ZM214.2031 106.9062 L214.1094 109.375 L214.2656 109.4844 L215.1562 109.2656 L215.0156 106.0938 C215.5469 106.8438 216.3594 107.1719 217.1719 107.1719 C218.5625 107.1719 219.8594 106.2188 219.8594 104.4844 C219.8594 102.9531 218.875 102.1094 217.125 102 C218.5625 101.6094 219.1875 100.4531 219.1875 99.4844 C219.1875 98.0938 218.1562 97.3125 216.9062 97.3125 C215.2969 97.3125 214.2188 98.5469 214.2188 100.5156 L214.2031 106.9062 Z"
      /><polygon style="fill:none;" points=" 249 41 197 41"
      /><rect x="238" y="30" width="22" style="clip-path:url(#clipPath14); fill:white; stroke:none;" height="22"
      /><rect x="238" y="30" width="22" style="clip-path:url(#clipPath14); fill:rgb(0,144,188); stroke:none;" height="22"
      /><rect x="238" y="30" width="22" style="fill:none; clip-path:url(#clipPath14);" height="22"
      /><rect x="238" width="22" height="22" y="30" style="fill:none;"
      /><polygon style="fill:none;" points=" 197 41 145 41"
      /><circle style="fill:white; clip-path:url(#clipPath15); stroke:none;" r="11" cx="197" cy="41"
      /><rect x="186" y="30" width="22" style="clip-path:url(#clipPath15); fill:rgb(255,212,0); stroke:none;" height="22"
      /><rect x="186" y="30" width="22" style="fill:none; clip-path:url(#clipPath15);" height="22"
      /><circle r="11" style="fill:none;" cx="197" cy="41"
      /><polygon style="fill:none;" points=" 145 41 93 41"
      /><rect x="134" y="30" width="22" style="clip-path:url(#clipPath16); fill:white; stroke:none;" height="22"
      /><rect x="134" y="30" width="22" style="clip-path:url(#clipPath16); fill:rgb(0,144,188); stroke:none;" height="22"
      /><rect x="134" y="30" width="22" style="fill:none; clip-path:url(#clipPath16);" height="22"
      /><rect x="134" width="22" height="22" y="30" style="fill:none;"
      /><polygon style="fill:none;" points=" 93 41 41 41"
      /><circle style="fill:white; clip-path:url(#clipPath17); stroke:none;" r="11" cx="93" cy="41"
      /><rect x="82" y="30" width="22" style="clip-path:url(#clipPath17); fill:rgb(255,212,0); stroke:none;" height="22"
      /><rect x="82" y="30" width="22" style="fill:none; clip-path:url(#clipPath17);" height="22"
      /><circle r="11" style="fill:none;" cx="93" cy="41"
      /><polygon style="fill:white; clip-path:url(#clipPath18); stroke:none;" points=" 41 30 52 41 41 52 30 41"
      /><rect x="30" y="30" width="22" style="clip-path:url(#clipPath18); fill:rgb(165,67,153); stroke:none;" height="22"
      /><rect x="30" y="30" width="22" style="fill:none; clip-path:url(#clipPath18);" height="22"
      /><polygon style="fill:none;" points=" 41 30 52 41 41 52 30 41"
      /><rect x="71" y="44" width="6" style="fill:white; stroke:none;" height="10"
      /><path style="stroke:none;" d="M73.2344 45.6562 C73.5156 45.5938 73.7656 45.5625 74.0156 45.5625 C75.0625 45.5625 75.6719 46.1719 75.6719 47.2656 C75.6719 48.4375 74.9062 49.1094 73.7031 49.1094 L73.1875 49.1094 L73.1875 49.6406 L73.7969 49.6406 C75.2188 49.6406 75.9062 50.4219 75.9062 51.6406 C75.9062 52.8438 75.1719 53.6875 73.875 53.6875 C73.6094 53.6875 73.3125 53.6562 73.0156 53.5625 L72.7812 52.8125 C72.625 52.2812 72.5 52.0469 72.1406 52.0469 C71.8906 52.0469 71.7031 52.1719 71.5781 52.4219 C71.8438 53.6406 72.7812 54.1719 74.0312 54.1719 C75.7188 54.1719 76.875 53.125 76.875 51.7031 C76.875 50.5 76.2031 49.625 74.7969 49.375 C75.9531 49.0156 76.6094 48.2031 76.6094 47.2031 C76.6094 45.9219 75.6719 45.0781 74.1875 45.0781 C73.0469 45.0781 72.0625 45.5938 71.7969 46.6875 C71.9062 47 72.1094 47.1094 72.3594 47.1094 C72.7344 47.1094 72.8906 46.8906 73 46.4062 L73.2344 45.6562 Z"
      /><rect x="56" y="45" width="8" style="fill:white; stroke:none;" height="8"
      /><path style="stroke:none;" d="M60.9844 50.7031 C60.9375 51.8906 60.1562 52.6562 59.3125 52.6562 C58.2656 52.6562 57.5 51.6875 57.5 49.7188 C57.5 48.2812 58.1562 47.1562 59.3438 47.1562 C60.1406 47.1562 60.7812 47.6875 61.0938 48.6406 L60.9844 50.7031 ZM62.9062 52.2812 C62.7344 52.375 62.5469 52.4219 62.3438 52.4219 C61.9531 52.4219 61.75 52.2188 61.75 51.4219 C61.75 50.4844 61.9688 48.5312 62.1875 46.8281 L62.0312 46.7188 L61.2344 46.9219 L61.1406 47.7969 C60.7812 47.0312 60.1562 46.6562 59.3906 46.6562 C58.0469 46.6562 56.5625 47.8438 56.5625 49.9531 C56.5625 52.0938 57.7188 53.1719 59.1406 53.1719 C60.0156 53.1719 60.6875 52.8125 61.0938 51.9844 C61.2031 52.8594 61.5156 53.1719 62.0156 53.1719 C62.4688 53.1719 62.7969 52.9062 63.0156 52.5625 L62.9062 52.2812 Z"
      /><rect x="122" y="44" width="7" style="fill:white; stroke:none;" height="9"
      /><path style="stroke:none;" d="M123 49.5156 L125.9531 45.2656 L125.9531 49.5156 L123 49.5156 ZM128.2812 49.5156 L126.8594 49.5156 L126.8594 44.125 L126.2344 44.125 L122.3438 49.6406 L122.3438 50.1875 L125.9531 50.1875 L125.9531 53 L126.8594 53 L126.8594 50.1875 L128.2812 50.1875 L128.2812 49.5156 Z"
      /><rect x="109" y="42" width="6" style="fill:white; stroke:none;" height="13"
      /><path style="stroke:none;" d="M111.0938 48.2031 C111.0938 46.6562 111.75 45.8125 112.7969 45.8125 C113.7188 45.8125 114.2656 46.4531 114.2656 47.5156 C114.2656 48.7188 113.5 49.4375 112.1875 49.7031 L112.2969 50.3125 C114.2188 50.2344 114.9375 51.2188 114.9375 52.4375 C114.9375 53.625 114.2344 54.4219 112.9531 54.4219 C112.25 54.4219 111.6562 54.1562 111.0938 53.7188 L111.0938 48.2031 ZM110.2031 54.9062 L110.1094 57.375 L110.2656 57.4844 L111.1562 57.2656 L111.0156 54.0938 C111.5469 54.8438 112.3594 55.1719 113.1719 55.1719 C114.5625 55.1719 115.8594 54.2188 115.8594 52.4844 C115.8594 50.9531 114.875 50.1094 113.125 50 C114.5625 49.6094 115.1875 48.4531 115.1875 47.4844 C115.1875 46.0938 114.1562 45.3125 112.9062 45.3125 C111.2969 45.3125 110.2188 46.5469 110.2188 48.5156 L110.2031 54.9062 Z"
      /><rect x="175" y="44" width="6" style="fill:white; stroke:none;" height="10"
      /><path style="stroke:none;" d="M177.2344 45.6562 C177.5156 45.5938 177.7656 45.5625 178.0156 45.5625 C179.0625 45.5625 179.6719 46.1719 179.6719 47.2656 C179.6719 48.4375 178.9062 49.1094 177.7031 49.1094 L177.1875 49.1094 L177.1875 49.6406 L177.7969 49.6406 C179.2188 49.6406 179.9062 50.4219 179.9062 51.6406 C179.9062 52.8438 179.1719 53.6875 177.875 53.6875 C177.6094 53.6875 177.3125 53.6562 177.0156 53.5625 L176.7812 52.8125 C176.625 52.2812 176.5 52.0469 176.1406 52.0469 C175.8906 52.0469 175.7031 52.1719 175.5781 52.4219 C175.8438 53.6406 176.7812 54.1719 178.0312 54.1719 C179.7188 54.1719 180.875 53.125 180.875 51.7031 C180.875 50.5 180.2031 49.625 178.7969 49.375 C179.9531 49.0156 180.6094 48.2031 180.6094 47.2031 C180.6094 45.9219 179.6719 45.0781 178.1875 45.0781 C177.0469 45.0781 176.0625 45.5938 175.7969 46.6875 C175.9062 47 176.1094 47.1094 176.3594 47.1094 C176.7344 47.1094 176.8906 46.8906 177 46.4062 L177.2344 45.6562 Z"
      /><rect x="161" y="42" width="6" style="fill:white; stroke:none;" height="13"
      /><path style="stroke:none;" d="M163.0938 48.2031 C163.0938 46.6562 163.75 45.8125 164.7969 45.8125 C165.7188 45.8125 166.2656 46.4531 166.2656 47.5156 C166.2656 48.7188 165.5 49.4375 164.1875 49.7031 L164.2969 50.3125 C166.2188 50.2344 166.9375 51.2188 166.9375 52.4375 C166.9375 53.625 166.2344 54.4219 164.9531 54.4219 C164.25 54.4219 163.6562 54.1562 163.0938 53.7188 L163.0938 48.2031 ZM162.2031 54.9062 L162.1094 57.375 L162.2656 57.4844 L163.1562 57.2656 L163.0156 54.0938 C163.5469 54.8438 164.3594 55.1719 165.1719 55.1719 C166.5625 55.1719 167.8594 54.2188 167.8594 52.4844 C167.8594 50.9531 166.875 50.1094 165.125 50 C166.5625 49.6094 167.1875 48.4531 167.1875 47.4844 C167.1875 46.0938 166.1562 45.3125 164.9062 45.3125 C163.2969 45.3125 162.2188 46.5469 162.2188 48.5156 L162.2031 54.9062 Z"
      /><rect x="226" y="44" width="7" style="fill:white; stroke:none;" height="9"
      /><path style="stroke:none;" d="M227 49.5156 L229.9531 45.2656 L229.9531 49.5156 L227 49.5156 ZM232.2812 49.5156 L230.8594 49.5156 L230.8594 44.125 L230.2344 44.125 L226.3438 49.6406 L226.3438 50.1875 L229.9531 50.1875 L229.9531 53 L230.8594 53 L230.8594 50.1875 L232.2812 50.1875 L232.2812 49.5156 Z"
      /><rect x="213" y="42" width="6" style="fill:white; stroke:none;" height="13"
      /><path style="stroke:none;" d="M215.0938 48.2031 C215.0938 46.6562 215.75 45.8125 216.7969 45.8125 C217.7188 45.8125 218.2656 46.4531 218.2656 47.5156 C218.2656 48.7188 217.5 49.4375 216.1875 49.7031 L216.2969 50.3125 C218.2188 50.2344 218.9375 51.2188 218.9375 52.4375 C218.9375 53.625 218.2344 54.4219 216.9531 54.4219 C216.25 54.4219 215.6562 54.1562 215.0938 53.7188 L215.0938 48.2031 ZM214.2031 54.9062 L214.1094 57.375 L214.2656 57.4844 L215.1562 57.2656 L215.0156 54.0938 C215.5469 54.8438 216.3594 55.1719 217.1719 55.1719 C218.5625 55.1719 219.8594 54.2188 219.8594 52.4844 C219.8594 50.9531 218.875 50.1094 217.125 50 C218.5625 49.6094 219.1875 48.4531 219.1875 47.4844 C219.1875 46.0938 218.1562 45.3125 216.9062 45.3125 C215.2969 45.3125 214.2188 46.5469 214.2188 48.5156 L214.2031 54.9062 Z"
      /><rect x="283" y="78" width="6" style="fill:white; stroke:none;" height="9"
      /><path style="stroke:none;" d="M284.4219 86.0938 C285.0781 85.375 285.7031 84.7188 286.0312 84.3438 C287.9219 82.3125 288.5312 81.4688 288.5312 80.3594 C288.5312 79.0156 287.7812 78.0781 286.1562 78.0781 C284.9062 78.0781 283.7969 78.7031 283.5938 79.9688 C283.7188 80.2031 283.9062 80.3438 284.1562 80.3438 C284.4688 80.3438 284.6562 80.1094 284.7969 79.5938 L285.0938 78.6719 C285.3906 78.5938 285.6562 78.5625 285.8906 78.5625 C286.9219 78.5625 287.5469 79.3125 287.5469 80.4219 C287.5469 81.4375 286.9844 82.4219 285.7031 83.9062 C285.125 84.5781 284.3906 85.4375 283.6406 86.2812 L283.6406 87 L288.9219 87 L288.9219 86.0938 L284.4219 86.0938 Z"
      /><rect x="267" y="84" width="6" style="fill:white; stroke:none;" height="13"
      /><path style="stroke:none;" d="M269.0938 90.2031 C269.0938 88.6562 269.75 87.8125 270.7969 87.8125 C271.7188 87.8125 272.2656 88.4531 272.2656 89.5156 C272.2656 90.7188 271.5 91.4375 270.1875 91.7031 L270.2969 92.3125 C272.2188 92.2344 272.9375 93.2188 272.9375 94.4375 C272.9375 95.625 272.2344 96.4219 270.9531 96.4219 C270.25 96.4219 269.6562 96.1562 269.0938 95.7188 L269.0938 90.2031 ZM268.2031 96.9062 L268.1094 99.375 L268.2656 99.4844 L269.1562 99.2656 L269.0156 96.0938 C269.5469 96.8438 270.3594 97.1719 271.1719 97.1719 C272.5625 97.1719 273.8594 96.2188 273.8594 94.4844 C273.8594 92.9531 272.875 92.1094 271.125 92 C272.5625 91.6094 273.1875 90.4531 273.1875 89.4844 C273.1875 88.0938 272.1562 87.3125 270.9062 87.3125 C269.2969 87.3125 268.2188 88.5469 268.2188 90.5156 L268.2031 96.9062 Z"
      /><rect x="276" y="60" width="6" style="fill:white; stroke:none;" height="10"
      /><path style="stroke:none;" d="M279.3438 69.6875 C278.2031 69.6875 277.5312 68.5 277.5312 66.2969 C277.5312 66.2188 277.5312 66.125 277.5312 66.0469 C278.0938 65.5 278.7188 65.3125 279.3438 65.3125 C280.3125 65.3125 280.9531 65.9844 280.9531 67.4531 C280.9531 68.9375 280.3125 69.6875 279.3438 69.6875 ZM281.5312 61.0781 C278.3438 61.4531 276.5625 63.7656 276.5625 66.4531 C276.5625 68.7812 277.6094 70.1719 279.3125 70.1719 C280.8438 70.1719 281.9219 69.1094 281.9219 67.2812 C281.9219 65.6875 280.9688 64.6562 279.5625 64.6562 C278.8281 64.6562 278.1406 64.9844 277.5781 65.5781 C277.7969 63.4062 279.0781 61.9688 281.5938 61.3906 L281.5312 61.0781 Z"
      /><rect x="260" y="50" width="6" style="fill:white; stroke:none;" height="13"
      /><path style="stroke:none;" d="M262.0938 56.2031 C262.0938 54.6562 262.75 53.8125 263.7969 53.8125 C264.7188 53.8125 265.2656 54.4531 265.2656 55.5156 C265.2656 56.7188 264.5 57.4375 263.1875 57.7031 L263.2969 58.3125 C265.2188 58.2344 265.9375 59.2188 265.9375 60.4375 C265.9375 61.625 265.2344 62.4219 263.9531 62.4219 C263.25 62.4219 262.6562 62.1562 262.0938 61.7188 L262.0938 56.2031 ZM261.2031 62.9062 L261.1094 65.375 L261.2656 65.4844 L262.1562 65.2656 L262.0156 62.0938 C262.5469 62.8438 263.3594 63.1719 264.1719 63.1719 C265.5625 63.1719 266.8594 62.2188 266.8594 60.4844 C266.8594 58.9531 265.875 58.1094 264.125 58 C265.5625 57.6094 266.1875 56.4531 266.1875 55.4844 C266.1875 54.0938 265.1562 53.3125 263.9062 53.3125 C262.2969 53.3125 261.2188 54.5469 261.2188 56.5156 L261.2031 62.9062 Z"
      /><rect x="337" y="120" width="6" style="fill:white; stroke:none;" height="10"
      /><path style="stroke:none;" d="M339.2344 121.6562 C339.5156 121.5938 339.7656 121.5625 340.0156 121.5625 C341.0625 121.5625 341.6719 122.1719 341.6719 123.2656 C341.6719 124.4375 340.9062 125.1094 339.7031 125.1094 L339.1875 125.1094 L339.1875 125.6406 L339.7969 125.6406 C341.2188 125.6406 341.9062 126.4219 341.9062 127.6406 C341.9062 128.8438 341.1719 129.6875 339.875 129.6875 C339.6094 129.6875 339.3125 129.6562 339.0156 129.5625 L338.7812 128.8125 C338.625 128.2812 338.5 128.0469 338.1406 128.0469 C337.8906 128.0469 337.7031 128.1719 337.5781 128.4219 C337.8438 129.6406 338.7812 130.1719 340.0312 130.1719 C341.7188 130.1719 342.875 129.125 342.875 127.7031 C342.875 126.5 342.2031 125.625 340.7969 125.375 C341.9531 125.0156 342.6094 124.2031 342.6094 123.2031 C342.6094 121.9219 341.6719 121.0781 340.1875 121.0781 C339.0469 121.0781 338.0625 121.5938 337.7969 122.6875 C337.9062 123 338.1094 123.1094 338.3594 123.1094 C338.7344 123.1094 338.8906 122.8906 339 122.4062 L339.2344 121.6562 Z"
      /><rect x="319" y="134" width="8" style="fill:white; stroke:none;" height="8"
      /><path style="stroke:none;" d="M323.9844 139.7031 C323.9375 140.8906 323.1562 141.6562 322.3125 141.6562 C321.2656 141.6562 320.5 140.6875 320.5 138.7188 C320.5 137.2812 321.1562 136.1562 322.3438 136.1562 C323.1406 136.1562 323.7812 136.6875 324.0938 137.6406 L323.9844 139.7031 ZM325.9062 141.2812 C325.7344 141.375 325.5469 141.4219 325.3438 141.4219 C324.9531 141.4219 324.75 141.2188 324.75 140.4219 C324.75 139.4844 324.9688 137.5312 325.1875 135.8281 L325.0312 135.7188 L324.2344 135.9219 L324.1406 136.7969 C323.7812 136.0312 323.1562 135.6562 322.3906 135.6562 C321.0469 135.6562 319.5625 136.8438 319.5625 138.9531 C319.5625 141.0938 320.7188 142.1719 322.1406 142.1719 C323.0156 142.1719 323.6875 141.8125 324.0938 140.9844 C324.2031 141.8594 324.5156 142.1719 325.0156 142.1719 C325.4688 142.1719 325.7969 141.9062 326.0156 141.5625 L325.9062 141.2812 Z"
      /><rect x="327" y="94" width="6" style="fill:white; stroke:none;" height="10"
      /><path style="stroke:none;" d="M330.3438 103.6875 C329.2031 103.6875 328.5312 102.5 328.5312 100.2969 C328.5312 100.2188 328.5312 100.125 328.5312 100.0469 C329.0938 99.5 329.7188 99.3125 330.3438 99.3125 C331.3125 99.3125 331.9531 99.9844 331.9531 101.4531 C331.9531 102.9375 331.3125 103.6875 330.3438 103.6875 ZM332.5312 95.0781 C329.3438 95.4531 327.5625 97.7656 327.5625 100.4531 C327.5625 102.7812 328.6094 104.1719 330.3125 104.1719 C331.8438 104.1719 332.9219 103.1094 332.9219 101.2812 C332.9219 99.6875 331.9688 98.6562 330.5625 98.6562 C329.8281 98.6562 329.1406 98.9844 328.5781 99.5781 C328.7969 97.4062 330.0781 95.9688 332.5938 95.3906 L332.5312 95.0781 Z"
      /><rect x="309" y="82" width="8" style="fill:white; stroke:none;" height="8"
      /><path style="stroke:none;" d="M313.9844 87.7031 C313.9375 88.8906 313.1562 89.6562 312.3125 89.6562 C311.2656 89.6562 310.5 88.6875 310.5 86.7188 C310.5 85.2812 311.1562 84.1562 312.3438 84.1562 C313.1406 84.1562 313.7812 84.6875 314.0938 85.6406 L313.9844 87.7031 ZM315.9062 89.2812 C315.7344 89.375 315.5469 89.4219 315.3438 89.4219 C314.9531 89.4219 314.75 89.2188 314.75 88.4219 C314.75 87.4844 314.9688 85.5312 315.1875 83.8281 L315.0312 83.7188 L314.2344 83.9219 L314.1406 84.7969 C313.7812 84.0312 313.1562 83.6562 312.3906 83.6562 C311.0469 83.6562 309.5625 84.8438 309.5625 86.9531 C309.5625 89.0938 310.7188 90.1719 312.1406 90.1719 C313.0156 90.1719 313.6875 89.8125 314.0938 88.9844 C314.2031 89.8594 314.5156 90.1719 315.0156 90.1719 C315.4688 90.1719 315.7969 89.9062 316.0156 89.5625 L315.9062 89.2812 Z"
      /><rect x="382" y="109" width="7" style="fill:white; stroke:none;" height="9"
      /><path style="stroke:none;" d="M383 114.5156 L385.9531 110.2656 L385.9531 114.5156 L383 114.5156 ZM388.2812 114.5156 L386.8594 114.5156 L386.8594 109.125 L386.2344 109.125 L382.3438 114.6406 L382.3438 115.1875 L385.9531 115.1875 L385.9531 118 L386.8594 118 L386.8594 115.1875 L388.2812 115.1875 L388.2812 114.5156 Z"
      /><rect x="369" y="107" width="6" style="fill:white; stroke:none;" height="13"
      /><path style="stroke:none;" d="M371.0938 113.2031 C371.0938 111.6562 371.75 110.8125 372.7969 110.8125 C373.7188 110.8125 374.2656 111.4531 374.2656 112.5156 C374.2656 113.7188 373.5 114.4375 372.1875 114.7031 L372.2969 115.3125 C374.2188 115.2344 374.9375 116.2188 374.9375 117.4375 C374.9375 118.625 374.2344 119.4219 372.9531 119.4219 C372.25 119.4219 371.6562 119.1562 371.0938 118.7188 L371.0938 113.2031 ZM370.2031 119.9062 L370.1094 122.375 L370.2656 122.4844 L371.1562 122.2656 L371.0156 119.0938 C371.5469 119.8438 372.3594 120.1719 373.1719 120.1719 C374.5625 120.1719 375.8594 119.2188 375.8594 117.4844 C375.8594 115.9531 374.875 115.1094 373.125 115 C374.5625 114.6094 375.1875 113.4531 375.1875 112.4844 C375.1875 111.0938 374.1562 110.3125 372.9062 110.3125 C371.2969 110.3125 370.2188 111.5469 370.2188 113.5156 L370.2031 119.9062 Z"
      /><polygon style="fill:white; clip-path:url(#clipPath19); stroke:none;" points=" 457 65 446 43 468 43"
      /><rect x="446" y="43" width="22" style="clip-path:url(#clipPath19); fill:rgb(237,28,36); stroke:none;" height="22"
      /><rect x="446" y="43" width="22" style="fill:none; clip-path:url(#clipPath19);" height="22"
      /><polygon style="fill:none;" points=" 457 65 446 43 468 43"
      /><rect x="434" y="109" width="7" style="fill:white; stroke:none;" height="9"
      /><path style="stroke:none;" d="M435 114.5156 L437.9531 110.2656 L437.9531 114.5156 L435 114.5156 ZM440.2812 114.5156 L438.8594 114.5156 L438.8594 109.125 L438.2344 109.125 L434.3438 114.6406 L434.3438 115.1875 L437.9531 115.1875 L437.9531 118 L438.8594 118 L438.8594 115.1875 L440.2812 115.1875 L440.2812 114.5156 Z"
      /><rect x="421" y="107" width="6" style="fill:white; stroke:none;" height="13"
      /><path style="stroke:none;" d="M423.0938 113.2031 C423.0938 111.6562 423.75 110.8125 424.7969 110.8125 C425.7188 110.8125 426.2656 111.4531 426.2656 112.5156 C426.2656 113.7188 425.5 114.4375 424.1875 114.7031 L424.2969 115.3125 C426.2188 115.2344 426.9375 116.2188 426.9375 117.4375 C426.9375 118.625 426.2344 119.4219 424.9531 119.4219 C424.25 119.4219 423.6562 119.1562 423.0938 118.7188 L423.0938 113.2031 ZM422.2031 119.9062 L422.1094 122.375 L422.2656 122.4844 L423.1562 122.2656 L423.0156 119.0938 C423.5469 119.8438 424.3594 120.1719 425.1719 120.1719 C426.5625 120.1719 427.8594 119.2188 427.8594 117.4844 C427.8594 115.9531 426.875 115.1094 425.125 115 C426.5625 114.6094 427.1875 113.4531 427.1875 112.4844 C427.1875 111.0938 426.1562 110.3125 424.9062 110.3125 C423.2969 110.3125 422.2188 111.5469 422.2188 113.5156 L422.2031 119.9062 Z"
      /><rect x="446" y="82" width="6" style="fill:white; stroke:none;" height="10"
      /><path style="stroke:none;" d="M449.3438 91.6875 C448.2031 91.6875 447.5312 90.5 447.5312 88.2969 C447.5312 88.2188 447.5312 88.125 447.5312 88.0469 C448.0938 87.5 448.7188 87.3125 449.3438 87.3125 C450.3125 87.3125 450.9531 87.9844 450.9531 89.4531 C450.9531 90.9375 450.3125 91.6875 449.3438 91.6875 ZM451.5312 83.0781 C448.3438 83.4531 446.5625 85.7656 446.5625 88.4531 C446.5625 90.7812 447.6094 92.1719 449.3125 92.1719 C450.8438 92.1719 451.9219 91.1094 451.9219 89.2812 C451.9219 87.6875 450.9688 86.6562 449.5625 86.6562 C448.8281 86.6562 448.1406 86.9844 447.5781 87.5781 C447.7969 85.4062 449.0781 83.9688 451.5938 83.3906 L451.5312 83.0781 Z"
      /><rect x="445" y="69" width="8" style="fill:white; stroke:none;" height="8"
      /><path style="stroke:none;" d="M449.9844 74.7031 C449.9375 75.8906 449.1562 76.6562 448.3125 76.6562 C447.2656 76.6562 446.5 75.6875 446.5 73.7188 C446.5 72.2812 447.1562 71.1562 448.3438 71.1562 C449.1406 71.1562 449.7812 71.6875 450.0938 72.6406 L449.9844 74.7031 ZM451.9062 76.2812 C451.7344 76.375 451.5469 76.4219 451.3438 76.4219 C450.9531 76.4219 450.75 76.2188 450.75 75.4219 C450.75 74.4844 450.9688 72.5312 451.1875 70.8281 L451.0312 70.7188 L450.2344 70.9219 L450.1406 71.7969 C449.7812 71.0312 449.1562 70.6562 448.3906 70.6562 C447.0469 70.6562 445.5625 71.8438 445.5625 73.9531 C445.5625 76.0938 446.7188 77.1719 448.1406 77.1719 C449.0156 77.1719 449.6875 76.8125 450.0938 75.9844 C450.2031 76.8594 450.5156 77.1719 451.0156 77.1719 C451.4688 77.1719 451.7969 76.9062 452.0156 76.5625 L451.9062 76.2812 Z"
      /><rect x="473" y="107" width="6" style="fill:white; stroke:none;" height="13"
      /><path style="stroke:none;" d="M475.0938 113.2031 C475.0938 111.6562 475.75 110.8125 476.7969 110.8125 C477.7188 110.8125 478.2656 111.4531 478.2656 112.5156 C478.2656 113.7188 477.5 114.4375 476.1875 114.7031 L476.2969 115.3125 C478.2188 115.2344 478.9375 116.2188 478.9375 117.4375 C478.9375 118.625 478.2344 119.4219 476.9531 119.4219 C476.25 119.4219 475.6562 119.1562 475.0938 118.7188 L475.0938 113.2031 ZM474.2031 119.9062 L474.1094 122.375 L474.2656 122.4844 L475.1562 122.2656 L475.0156 119.0938 C475.5469 119.8438 476.3594 120.1719 477.1719 120.1719 C478.5625 120.1719 479.8594 119.2188 479.8594 117.4844 C479.8594 115.9531 478.875 115.1094 477.125 115 C478.5625 114.6094 479.1875 113.4531 479.1875 112.4844 C479.1875 111.0938 478.1562 110.3125 476.9062 110.3125 C475.2969 110.3125 474.2188 111.5469 474.2188 113.5156 L474.2031 119.9062 Z"
    /></g
  ></g
></svg
>
