<?xml version="1.0"?>
<!DOCTYPE svg PUBLIC '-//W3C//DTD SVG 1.0//EN'
          'http://www.w3.org/TR/2001/REC-SVG-20010904/DTD/svg10.dtd'>
<svg xmlns:xlink="http://www.w3.org/1999/xlink" style="fill-opacity:1; color-rendering:auto; color-interpolation:auto; text-rendering:auto; stroke:black; stroke-linecap:square; stroke-miterlimit:10; shape-rendering:auto; stroke-opacity:1; fill:black; stroke-dasharray:none; font-weight:normal; stroke-width:1; font-family:'Dialog'; font-style:normal; stroke-linejoin:miter; font-size:12px; stroke-dashoffset:0; image-rendering:auto;" viewBox="0 0 446 212" xmlns="http://www.w3.org/2000/svg"
><!--Generated by the Batik Graphics2D SVG Generator--><defs id="genericDefs"
  /><g
  ><defs id="defs1"
    ><clipPath clipPathUnits="userSpaceOnUse" id="clipPath1"
      ><path style="fill-rule:evenodd;" d="M364 67 L358 74 L347 74 L342 67 L347 59 L358 59 L364 67 Z"
      /></clipPath
      ><clipPath clipPathUnits="userSpaceOnUse" id="clipPath2"
      ><path style="fill-rule:evenodd;" d="M312 93 L306 100 L295 100 L290 93 L295 85 L306 85 L312 93 Z"
      /></clipPath
      ><clipPath clipPathUnits="userSpaceOnUse" id="clipPath3"
      ><path style="fill-rule:evenodd;" d="M260 119 L254 126 L243 126 L238 119 L243 111 L254 111 L260 119 Z"
      /></clipPath
      ><clipPath clipPathUnits="userSpaceOnUse" id="clipPath4"
      ><path style="fill-rule:evenodd;" d="M197 134 L208 145 L197 156 L186 145 Z"
      /></clipPath
      ><clipPath clipPathUnits="userSpaceOnUse" id="clipPath5"
      ><path d="M134 160 L156 160 L156 182 L134 182 L134 160 Z"
      /></clipPath
      ><clipPath clipPathUnits="userSpaceOnUse" id="clipPath6"
      ><path d="M104 171 C104 177.0751 99.0751 182 93 182 C86.9249 182 82 177.0751 82 171 C82 164.9249 86.9249 160 93 160 C99.0751 160 104 164.9249 104 171 Z"
      /></clipPath
      ><clipPath clipPathUnits="userSpaceOnUse" id="clipPath7"
      ><path d="M52 171 C52 177.0751 47.0751 182 41 182 C34.9249 182 30 177.0751 30 171 C30 164.9249 34.9249 160 41 160 C47.0751 160 52 164.9249 52 171 Z"
      /></clipPath
      ><clipPath clipPathUnits="userSpaceOnUse" id="clipPath8"
      ><path style="fill-rule:evenodd;" d="M156 119 L150 126 L139 126 L134 119 L139 111 L150 111 L156 119 Z"
      /></clipPath
      ><clipPath clipPathUnits="userSpaceOnUse" id="clipPath9"
      ><path style="fill-rule:evenodd;" d="M104 119 L98 126 L87 126 L82 119 L87 111 L98 111 L104 119 Z"
      /></clipPath
      ><clipPath clipPathUnits="userSpaceOnUse" id="clipPath10"
      ><path style="fill-rule:evenodd;" d="M208 93 L202 100 L191 100 L186 93 L191 85 L202 85 L208 93 Z"
      /></clipPath
      ><clipPath clipPathUnits="userSpaceOnUse" id="clipPath11"
      ><path d="M260 67 C260 73.0751 255.0751 78 249 78 C242.9249 78 238 73.0751 238 67 C238 60.9249 242.9249 56 249 56 C255.0751 56 260 60.9249 260 67 Z"
      /></clipPath
      ><clipPath clipPathUnits="userSpaceOnUse" id="clipPath12"
      ><path style="fill-rule:evenodd;" d="M301 30 L311 37 L307 49 L294 49 L290 37 L301 30 Z"
      /></clipPath
    ></defs
    ><g style="fill:white; text-rendering:optimizeSpeed; stroke:white;"
    ><rect x="0" width="446" height="212" y="0" style="stroke:none;"
      /><polygon style="fill:none; stroke:black;" points=" 405 67 353 67"
      /><path d="M405 56 C399.5 61.5 410.5 72.5 405 78" style="fill:none; stroke:black;"
      /><polygon style="fill:none; stroke:black;" points=" 353 67 301 93"
      /><polygon style="fill:none; stroke:black;" points=" 353 67 301 41"
      /><polygon style="clip-path:url(#clipPath1); stroke:none;" points=" 364 67 358 74 347 74 342 67 347 59 358 59 364 67"
      /><rect x="342" y="56" width="22" style="clip-path:url(#clipPath1); fill:rgb(255,212,0); stroke:none;" height="22"
      /><rect x="342" y="56" width="22" style="clip-path:url(#clipPath1); fill:none; stroke:black;" height="22"
      /><polygon style="fill:none; stroke:black;" points=" 364 67 358 74 347 74 342 67 347 59 358 59 364 67"
      /><polygon style="fill:none; stroke:black;" points=" 301 93 249 119"
      /><polygon style="fill:none; stroke:black;" points=" 301 93 249 67"
      /><polygon style="clip-path:url(#clipPath2); stroke:none;" points=" 312 93 306 100 295 100 290 93 295 85 306 85 312 93"
      /><rect x="290" y="82" width="22" style="clip-path:url(#clipPath2); fill:rgb(0,166,81); stroke:none;" height="22"
      /><rect x="290" y="82" width="22" style="clip-path:url(#clipPath2); fill:none; stroke:black;" height="22"
      /><polygon style="fill:none; stroke:black;" points=" 312 93 306 100 295 100 290 93 295 85 306 85 312 93"
      /><polygon style="fill:none; stroke:black;" points=" 249 119 197 145"
      /><polygon style="fill:none; stroke:black;" points=" 249 119 197 93"
      /><polygon style="clip-path:url(#clipPath3); stroke:none;" points=" 260 119 254 126 243 126 238 119 243 111 254 111 260 119"
      /><rect x="238" y="108" width="22" style="clip-path:url(#clipPath3); fill:rgb(0,166,81); stroke:none;" height="22"
      /><rect x="238" y="108" width="22" style="clip-path:url(#clipPath3); fill:none; stroke:black;" height="22"
      /><polygon style="fill:none; stroke:black;" points=" 260 119 254 126 243 126 238 119 243 111 254 111 260 119"
      /><polygon style="fill:none; stroke:black;" points=" 197 145 145 171"
      /><polygon style="fill:none; stroke:black;" points=" 197 145 145 119"
      /><polygon style="clip-path:url(#clipPath4); stroke:none;" points=" 197 134 208 145 197 156 186 145"
      /><rect x="186" y="134" width="22" style="clip-path:url(#clipPath4); fill:rgb(255,212,0); stroke:none;" height="11"
      /><rect x="186" y="134" width="22" style="clip-path:url(#clipPath4); fill:none; stroke:black;" height="11"
      /><polygon style="fill:none; stroke:black;" points=" 197 134 208 145 197 156 186 145"
      /><polygon style="fill:none; stroke:black;" points=" 145 171 93 171"
      /><rect x="134" y="160" width="22" style="clip-path:url(#clipPath5); stroke:none;" height="22"
      /><polygon style="fill:rgb(0,144,188); clip-path:url(#clipPath5); stroke:none;" points=" 134 160 156 160 156 182"
      /><polygon style="fill:none; clip-path:url(#clipPath5); stroke:black;" points=" 134 160 156 160 156 182"
      /><rect x="134" y="160" width="22" style="fill:none; stroke:black;" height="22"
      /><polygon style="fill:none; stroke:black;" points=" 93 171 41 171"
      /><circle style="clip-path:url(#clipPath6); stroke:none;" r="11" cx="93" cy="171"
      /><rect x="82" y="160" width="22" style="clip-path:url(#clipPath6); fill:rgb(0,144,188); stroke:none;" height="22"
      /><rect x="82" y="160" width="22" style="clip-path:url(#clipPath6); fill:none; stroke:black;" height="22"
      /><circle style="fill:none; stroke:black;" r="11" cx="93" cy="171"
      /><circle style="clip-path:url(#clipPath7); stroke:none;" r="11" cx="41" cy="171"
      /><rect x="30" y="160" width="22" style="clip-path:url(#clipPath7); fill:rgb(0,144,188); stroke:none;" height="22"
      /><rect x="30" y="160" width="22" style="clip-path:url(#clipPath7); fill:none; stroke:black;" height="22"
      /><circle style="fill:none; stroke:black;" r="11" cx="41" cy="171"
      /><rect x="71" y="174" width="5" style="stroke:none;" height="10"
    /></g
    ><g style="font-family:'Serif'; text-rendering:optimizeSpeed; "
    ><path style="stroke:none;" d="M72.8906 182.6875 C72.4844 182.6875 72.1562 183.0469 72.1562 183.4219 C72.1562 183.8125 72.4844 184.1562 72.8906 184.1562 C73.2969 184.1562 73.6406 183.8125 73.6406 183.4219 C73.6406 183.0469 73.2969 182.6875 72.8906 182.6875 ZM74.4688 176.5781 C74.7188 176.8906 74.875 177.2656 74.8906 177.6562 C74.8906 178.1875 74.625 178.5 74.0312 178.7656 L73.4062 179.0156 C72.6406 179.3125 72.3906 179.5469 72.3906 179.9375 C72.3906 180.1094 72.4531 180.3438 72.5781 180.8125 L72.7344 181.3438 L73.1094 181.3438 L73.0938 180.5312 C73.0938 180.0938 73.2031 179.9688 73.7812 179.7344 L74.2031 179.5625 C75.0312 179.2188 75.4531 178.6875 75.4531 177.8438 C75.4531 176.1562 73.6562 175.1875 72.5 175.0312 C72.1094 175.125 71.9062 175.2969 71.9062 175.6406 C71.9062 175.9375 72.0625 176.1562 72.7188 176.2656 L74.4688 176.5781 Z"
      /><rect x="57" y="174" width="5" style="fill:white; stroke:none;" height="10"
      /><path style="stroke:none;" d="M58.8906 182.6875 C58.4844 182.6875 58.1562 183.0469 58.1562 183.4219 C58.1562 183.8125 58.4844 184.1562 58.8906 184.1562 C59.2969 184.1562 59.6406 183.8125 59.6406 183.4219 C59.6406 183.0469 59.2969 182.6875 58.8906 182.6875 ZM60.4688 176.5781 C60.7188 176.8906 60.875 177.2656 60.8906 177.6562 C60.8906 178.1875 60.625 178.5 60.0312 178.7656 L59.4062 179.0156 C58.6406 179.3125 58.3906 179.5469 58.3906 179.9375 C58.3906 180.1094 58.4531 180.3438 58.5781 180.8125 L58.7344 181.3438 L59.1094 181.3438 L59.0938 180.5312 C59.0938 180.0938 59.2031 179.9688 59.7812 179.7344 L60.2031 179.5625 C61.0312 179.2188 61.4531 178.6875 61.4531 177.8438 C61.4531 176.1562 59.6562 175.1875 58.5 175.0312 C58.1094 175.125 57.9062 175.2969 57.9062 175.6406 C57.9062 175.9375 58.0625 176.1562 58.7188 176.2656 L60.4688 176.5781 Z"
      /><rect x="123" y="174" width="5" style="fill:white; stroke:none;" height="10"
      /><path style="stroke:none;" d="M124.8906 182.6875 C124.4844 182.6875 124.1562 183.0469 124.1562 183.4219 C124.1562 183.8125 124.4844 184.1562 124.8906 184.1562 C125.2969 184.1562 125.6406 183.8125 125.6406 183.4219 C125.6406 183.0469 125.2969 182.6875 124.8906 182.6875 ZM126.4688 176.5781 C126.7188 176.8906 126.875 177.2656 126.8906 177.6562 C126.8906 178.1875 126.625 178.5 126.0312 178.7656 L125.4062 179.0156 C124.6406 179.3125 124.3906 179.5469 124.3906 179.9375 C124.3906 180.1094 124.4531 180.3438 124.5781 180.8125 L124.7344 181.3438 L125.1094 181.3438 L125.0938 180.5312 C125.0938 180.0938 125.2031 179.9688 125.7812 179.7344 L126.2031 179.5625 C127.0312 179.2188 127.4531 178.6875 127.4531 177.8438 C127.4531 176.1562 125.6562 175.1875 124.5 175.0312 C124.1094 175.125 123.9062 175.2969 123.9062 175.6406 C123.9062 175.9375 124.0625 176.1562 124.7188 176.2656 L126.4688 176.5781 Z"
      /><rect x="109" y="174" width="5" style="fill:white; stroke:none;" height="10"
      /><path style="stroke:none;" d="M110.8906 182.6875 C110.4844 182.6875 110.1562 183.0469 110.1562 183.4219 C110.1562 183.8125 110.4844 184.1562 110.8906 184.1562 C111.2969 184.1562 111.6406 183.8125 111.6406 183.4219 C111.6406 183.0469 111.2969 182.6875 110.8906 182.6875 ZM112.4688 176.5781 C112.7188 176.8906 112.875 177.2656 112.8906 177.6562 C112.8906 178.1875 112.625 178.5 112.0312 178.7656 L111.4062 179.0156 C110.6406 179.3125 110.3906 179.5469 110.3906 179.9375 C110.3906 180.1094 110.4531 180.3438 110.5781 180.8125 L110.7344 181.3438 L111.1094 181.3438 L111.0938 180.5312 C111.0938 180.0938 111.2031 179.9688 111.7812 179.7344 L112.2031 179.5625 C113.0312 179.2188 113.4531 178.6875 113.4531 177.8438 C113.4531 176.1562 111.6562 175.1875 110.5 175.0312 C110.1094 175.125 109.9062 175.2969 109.9062 175.6406 C109.9062 175.9375 110.0625 176.1562 110.7188 176.2656 L112.4688 176.5781 Z"
      /><polygon style="fill:none;" points=" 145 119 93 119"
      /><polygon style="fill:white; clip-path:url(#clipPath8); stroke:none;" points=" 156 119 150 126 139 126 134 119 139 111 150 111 156 119"
      /><rect x="134" y="108" width="22" style="clip-path:url(#clipPath8); fill:rgb(246,158,161); stroke:none;" height="22"
      /><rect x="134" y="108" width="22" style="fill:none; clip-path:url(#clipPath8);" height="22"
      /><polygon style="fill:none;" points=" 156 119 150 126 139 126 134 119 139 111 150 111 156 119"
      /><polygon style="fill:white; clip-path:url(#clipPath9); stroke:none;" points=" 104 119 98 126 87 126 82 119 87 111 98 111 104 119"
      /><rect x="82" y="108" width="22" style="clip-path:url(#clipPath9); fill:rgb(0,166,81); stroke:none;" height="22"
      /><rect x="82" y="108" width="22" style="fill:none; clip-path:url(#clipPath9);" height="22"
      /><polygon style="fill:none;" points=" 104 119 98 126 87 126 82 119 87 111 98 111 104 119"
      /><rect x="123" y="122" width="5" style="fill:white; stroke:none;" height="10"
      /><path style="stroke:none;" d="M124.8906 130.6875 C124.4844 130.6875 124.1562 131.0469 124.1562 131.4219 C124.1562 131.8125 124.4844 132.1562 124.8906 132.1562 C125.2969 132.1562 125.6406 131.8125 125.6406 131.4219 C125.6406 131.0469 125.2969 130.6875 124.8906 130.6875 ZM126.4688 124.5781 C126.7188 124.8906 126.875 125.2656 126.8906 125.6562 C126.8906 126.1875 126.625 126.5 126.0312 126.7656 L125.4062 127.0156 C124.6406 127.3125 124.3906 127.5469 124.3906 127.9375 C124.3906 128.1094 124.4531 128.3438 124.5781 128.8125 L124.7344 129.3438 L125.1094 129.3438 L125.0938 128.5312 C125.0938 128.0938 125.2031 127.9688 125.7812 127.7344 L126.2031 127.5625 C127.0312 127.2188 127.4531 126.6875 127.4531 125.8438 C127.4531 124.1562 125.6562 123.1875 124.5 123.0312 C124.1094 123.125 123.9062 123.2969 123.9062 123.6406 C123.9062 123.9375 124.0625 124.1562 124.7188 124.2656 L126.4688 124.5781 Z"
      /><rect x="109" y="122" width="5" style="fill:white; stroke:none;" height="10"
      /><path style="stroke:none;" d="M110.8906 130.6875 C110.4844 130.6875 110.1562 131.0469 110.1562 131.4219 C110.1562 131.8125 110.4844 132.1562 110.8906 132.1562 C111.2969 132.1562 111.6406 131.8125 111.6406 131.4219 C111.6406 131.0469 111.2969 130.6875 110.8906 130.6875 ZM112.4688 124.5781 C112.7188 124.8906 112.875 125.2656 112.8906 125.6562 C112.8906 126.1875 112.625 126.5 112.0312 126.7656 L111.4062 127.0156 C110.6406 127.3125 110.3906 127.5469 110.3906 127.9375 C110.3906 128.1094 110.4531 128.3438 110.5781 128.8125 L110.7344 129.3438 L111.1094 129.3438 L111.0938 128.5312 C111.0938 128.0938 111.2031 127.9688 111.7812 127.7344 L112.2031 127.5625 C113.0312 127.2188 113.4531 126.6875 113.4531 125.8438 C113.4531 124.1562 111.6562 123.1875 110.5 123.0312 C110.1094 123.125 109.9062 123.2969 109.9062 123.6406 C109.9062 123.9375 110.0625 124.1562 110.7188 124.2656 L112.4688 124.5781 Z"
      /><rect x="179" y="156" width="5" style="fill:white; stroke:none;" height="10"
      /><path style="stroke:none;" d="M180.8906 164.6875 C180.4844 164.6875 180.1562 165.0469 180.1562 165.4219 C180.1562 165.8125 180.4844 166.1562 180.8906 166.1562 C181.2969 166.1562 181.6406 165.8125 181.6406 165.4219 C181.6406 165.0469 181.2969 164.6875 180.8906 164.6875 ZM182.4688 158.5781 C182.7188 158.8906 182.875 159.2656 182.8906 159.6562 C182.8906 160.1875 182.625 160.5 182.0312 160.7656 L181.4062 161.0156 C180.6406 161.3125 180.3906 161.5469 180.3906 161.9375 C180.3906 162.1094 180.4531 162.3438 180.5781 162.8125 L180.7344 163.3438 L181.1094 163.3438 L181.0938 162.5312 C181.0938 162.0938 181.2031 161.9688 181.7812 161.7344 L182.2031 161.5625 C183.0312 161.2188 183.4531 160.6875 183.4531 159.8438 C183.4531 158.1562 181.6562 157.1875 180.5 157.0312 C180.1094 157.125 179.9062 157.2969 179.9062 157.6406 C179.9062 157.9375 180.0625 158.1562 180.7188 158.2656 L182.4688 158.5781 Z"
      /><rect x="164" y="164" width="5" style="fill:white; stroke:none;" height="10"
      /><path style="stroke:none;" d="M165.8906 172.6875 C165.4844 172.6875 165.1562 173.0469 165.1562 173.4219 C165.1562 173.8125 165.4844 174.1562 165.8906 174.1562 C166.2969 174.1562 166.6406 173.8125 166.6406 173.4219 C166.6406 173.0469 166.2969 172.6875 165.8906 172.6875 ZM167.4688 166.5781 C167.7188 166.8906 167.875 167.2656 167.8906 167.6562 C167.8906 168.1875 167.625 168.5 167.0312 168.7656 L166.4062 169.0156 C165.6406 169.3125 165.3906 169.5469 165.3906 169.9375 C165.3906 170.1094 165.4531 170.3438 165.5781 170.8125 L165.7344 171.3438 L166.1094 171.3438 L166.0938 170.5312 C166.0938 170.0938 166.2031 169.9688 166.7812 169.7344 L167.2031 169.5625 C168.0312 169.2188 168.4531 168.6875 168.4531 167.8438 C168.4531 166.1562 166.6562 165.1875 165.5 165.0312 C165.1094 165.125 164.9062 165.2969 164.9062 165.6406 C164.9062 165.9375 165.0625 166.1562 165.7188 166.2656 L167.4688 166.5781 Z"
      /><rect x="172" y="138" width="5" style="fill:white; stroke:none;" height="10"
      /><path style="stroke:none;" d="M173.8906 146.6875 C173.4844 146.6875 173.1562 147.0469 173.1562 147.4219 C173.1562 147.8125 173.4844 148.1562 173.8906 148.1562 C174.2969 148.1562 174.6406 147.8125 174.6406 147.4219 C174.6406 147.0469 174.2969 146.6875 173.8906 146.6875 ZM175.4688 140.5781 C175.7188 140.8906 175.875 141.2656 175.8906 141.6562 C175.8906 142.1875 175.625 142.5 175.0312 142.7656 L174.4062 143.0156 C173.6406 143.3125 173.3906 143.5469 173.3906 143.9375 C173.3906 144.1094 173.4531 144.3438 173.5781 144.8125 L173.7344 145.3438 L174.1094 145.3438 L174.0938 144.5312 C174.0938 144.0938 174.2031 143.9688 174.7812 143.7344 L175.2031 143.5625 C176.0312 143.2188 176.4531 142.6875 176.4531 141.8438 C176.4531 140.1562 174.6562 139.1875 173.5 139.0312 C173.1094 139.125 172.9062 139.2969 172.9062 139.6406 C172.9062 139.9375 173.0625 140.1562 173.7188 140.2656 L175.4688 140.5781 Z"
      /><rect x="157" y="130" width="5" style="fill:white; stroke:none;" height="10"
      /><path style="stroke:none;" d="M158.8906 138.6875 C158.4844 138.6875 158.1562 139.0469 158.1562 139.4219 C158.1562 139.8125 158.4844 140.1562 158.8906 140.1562 C159.2969 140.1562 159.6406 139.8125 159.6406 139.4219 C159.6406 139.0469 159.2969 138.6875 158.8906 138.6875 ZM160.4688 132.5781 C160.7188 132.8906 160.875 133.2656 160.8906 133.6562 C160.8906 134.1875 160.625 134.5 160.0312 134.7656 L159.4062 135.0156 C158.6406 135.3125 158.3906 135.5469 158.3906 135.9375 C158.3906 136.1094 158.4531 136.3438 158.5781 136.8125 L158.7344 137.3438 L159.1094 137.3438 L159.0938 136.5312 C159.0938 136.0938 159.2031 135.9688 159.7812 135.7344 L160.2031 135.5625 C161.0312 135.2188 161.4531 134.6875 161.4531 133.8438 C161.4531 132.1562 159.6562 131.1875 158.5 131.0312 C158.1094 131.125 157.9062 131.2969 157.9062 131.6406 C157.9062 131.9375 158.0625 132.1562 158.7188 132.2656 L160.4688 132.5781 Z"
      /><polygon style="fill:white; clip-path:url(#clipPath10); stroke:none;" points=" 208 93 202 100 191 100 186 93 191 85 202 85 208 93"
      /><rect x="186" y="82" width="22" style="clip-path:url(#clipPath10); fill:rgb(0,166,81); stroke:none;" height="22"
      /><rect x="186" y="82" width="22" style="fill:none; clip-path:url(#clipPath10);" height="22"
      /><polygon style="fill:none;" points=" 208 93 202 100 191 100 186 93 191 85 202 85 208 93"
      /><rect x="231" y="130" width="5" style="fill:white; stroke:none;" height="10"
      /><path style="stroke:none;" d="M232.8906 138.6875 C232.4844 138.6875 232.1562 139.0469 232.1562 139.4219 C232.1562 139.8125 232.4844 140.1562 232.8906 140.1562 C233.2969 140.1562 233.6406 139.8125 233.6406 139.4219 C233.6406 139.0469 233.2969 138.6875 232.8906 138.6875 ZM234.4688 132.5781 C234.7188 132.8906 234.875 133.2656 234.8906 133.6562 C234.8906 134.1875 234.625 134.5 234.0312 134.7656 L233.4062 135.0156 C232.6406 135.3125 232.3906 135.5469 232.3906 135.9375 C232.3906 136.1094 232.4531 136.3438 232.5781 136.8125 L232.7344 137.3438 L233.1094 137.3438 L233.0938 136.5312 C233.0938 136.0938 233.2031 135.9688 233.7812 135.7344 L234.2031 135.5625 C235.0312 135.2188 235.4531 134.6875 235.4531 133.8438 C235.4531 132.1562 233.6562 131.1875 232.5 131.0312 C232.1094 131.125 231.9062 131.2969 231.9062 131.6406 C231.9062 131.9375 232.0625 132.1562 232.7188 132.2656 L234.4688 132.5781 Z"
      /><rect x="216" y="138" width="5" style="fill:white; stroke:none;" height="10"
      /><path style="stroke:none;" d="M217.8906 146.6875 C217.4844 146.6875 217.1562 147.0469 217.1562 147.4219 C217.1562 147.8125 217.4844 148.1562 217.8906 148.1562 C218.2969 148.1562 218.6406 147.8125 218.6406 147.4219 C218.6406 147.0469 218.2969 146.6875 217.8906 146.6875 ZM219.4688 140.5781 C219.7188 140.8906 219.875 141.2656 219.8906 141.6562 C219.8906 142.1875 219.625 142.5 219.0312 142.7656 L218.4062 143.0156 C217.6406 143.3125 217.3906 143.5469 217.3906 143.9375 C217.3906 144.1094 217.4531 144.3438 217.5781 144.8125 L217.7344 145.3438 L218.1094 145.3438 L218.0938 144.5312 C218.0938 144.0938 218.2031 143.9688 218.7812 143.7344 L219.2031 143.5625 C220.0312 143.2188 220.4531 142.6875 220.4531 141.8438 C220.4531 140.1562 218.6562 139.1875 217.5 139.0312 C217.1094 139.125 216.9062 139.2969 216.9062 139.6406 C216.9062 139.9375 217.0625 140.1562 217.7188 140.2656 L219.4688 140.5781 Z"
      /><rect x="224" y="112" width="5" style="fill:white; stroke:none;" height="10"
      /><path style="stroke:none;" d="M225.8906 120.6875 C225.4844 120.6875 225.1562 121.0469 225.1562 121.4219 C225.1562 121.8125 225.4844 122.1562 225.8906 122.1562 C226.2969 122.1562 226.6406 121.8125 226.6406 121.4219 C226.6406 121.0469 226.2969 120.6875 225.8906 120.6875 ZM227.4688 114.5781 C227.7188 114.8906 227.875 115.2656 227.8906 115.6562 C227.8906 116.1875 227.625 116.5 227.0312 116.7656 L226.4062 117.0156 C225.6406 117.3125 225.3906 117.5469 225.3906 117.9375 C225.3906 118.1094 225.4531 118.3438 225.5781 118.8125 L225.7344 119.3438 L226.1094 119.3438 L226.0938 118.5312 C226.0938 118.0938 226.2031 117.9688 226.7812 117.7344 L227.2031 117.5625 C228.0312 117.2188 228.4531 116.6875 228.4531 115.8438 C228.4531 114.1562 226.6562 113.1875 225.5 113.0312 C225.1094 113.125 224.9062 113.2969 224.9062 113.6406 C224.9062 113.9375 225.0625 114.1562 225.7188 114.2656 L227.4688 114.5781 Z"
      /><rect x="209" y="104" width="5" style="fill:white; stroke:none;" height="10"
      /><path style="stroke:none;" d="M210.8906 112.6875 C210.4844 112.6875 210.1562 113.0469 210.1562 113.4219 C210.1562 113.8125 210.4844 114.1562 210.8906 114.1562 C211.2969 114.1562 211.6406 113.8125 211.6406 113.4219 C211.6406 113.0469 211.2969 112.6875 210.8906 112.6875 ZM212.4688 106.5781 C212.7188 106.8906 212.875 107.2656 212.8906 107.6562 C212.8906 108.1875 212.625 108.5 212.0312 108.7656 L211.4062 109.0156 C210.6406 109.3125 210.3906 109.5469 210.3906 109.9375 C210.3906 110.1094 210.4531 110.3438 210.5781 110.8125 L210.7344 111.3438 L211.1094 111.3438 L211.0938 110.5312 C211.0938 110.0938 211.2031 109.9688 211.7812 109.7344 L212.2031 109.5625 C213.0312 109.2188 213.4531 108.6875 213.4531 107.8438 C213.4531 106.1562 211.6562 105.1875 210.5 105.0312 C210.1094 105.125 209.9062 105.2969 209.9062 105.6406 C209.9062 105.9375 210.0625 106.1562 210.7188 106.2656 L212.4688 106.5781 Z"
      /><circle style="fill:white; clip-path:url(#clipPath11); stroke:none;" r="11" cx="249" cy="67"
      /><rect x="238" y="56" width="22" style="clip-path:url(#clipPath11); fill:rgb(0,144,188); stroke:none;" height="22"
      /><rect x="238" y="56" width="22" style="fill:none; clip-path:url(#clipPath11);" height="22"
      /><circle r="11" style="fill:none;" cx="249" cy="67"
      /><rect x="283" y="104" width="5" style="fill:white; stroke:none;" height="10"
      /><path style="stroke:none;" d="M284.8906 112.6875 C284.4844 112.6875 284.1562 113.0469 284.1562 113.4219 C284.1562 113.8125 284.4844 114.1562 284.8906 114.1562 C285.2969 114.1562 285.6406 113.8125 285.6406 113.4219 C285.6406 113.0469 285.2969 112.6875 284.8906 112.6875 ZM286.4688 106.5781 C286.7188 106.8906 286.875 107.2656 286.8906 107.6562 C286.8906 108.1875 286.625 108.5 286.0312 108.7656 L285.4062 109.0156 C284.6406 109.3125 284.3906 109.5469 284.3906 109.9375 C284.3906 110.1094 284.4531 110.3438 284.5781 110.8125 L284.7344 111.3438 L285.1094 111.3438 L285.0938 110.5312 C285.0938 110.0938 285.2031 109.9688 285.7812 109.7344 L286.2031 109.5625 C287.0312 109.2188 287.4531 108.6875 287.4531 107.8438 C287.4531 106.1562 285.6562 105.1875 284.5 105.0312 C284.1094 105.125 283.9062 105.2969 283.9062 105.6406 C283.9062 105.9375 284.0625 106.1562 284.7188 106.2656 L286.4688 106.5781 Z"
      /><rect x="268" y="112" width="5" style="fill:white; stroke:none;" height="10"
      /><path style="stroke:none;" d="M269.8906 120.6875 C269.4844 120.6875 269.1562 121.0469 269.1562 121.4219 C269.1562 121.8125 269.4844 122.1562 269.8906 122.1562 C270.2969 122.1562 270.6406 121.8125 270.6406 121.4219 C270.6406 121.0469 270.2969 120.6875 269.8906 120.6875 ZM271.4688 114.5781 C271.7188 114.8906 271.875 115.2656 271.8906 115.6562 C271.8906 116.1875 271.625 116.5 271.0312 116.7656 L270.4062 117.0156 C269.6406 117.3125 269.3906 117.5469 269.3906 117.9375 C269.3906 118.1094 269.4531 118.3438 269.5781 118.8125 L269.7344 119.3438 L270.1094 119.3438 L270.0938 118.5312 C270.0938 118.0938 270.2031 117.9688 270.7812 117.7344 L271.2031 117.5625 C272.0312 117.2188 272.4531 116.6875 272.4531 115.8438 C272.4531 114.1562 270.6562 113.1875 269.5 113.0312 C269.1094 113.125 268.9062 113.2969 268.9062 113.6406 C268.9062 113.9375 269.0625 114.1562 269.7188 114.2656 L271.4688 114.5781 Z"
      /><rect x="276" y="86" width="5" style="fill:white; stroke:none;" height="10"
      /><path style="stroke:none;" d="M277.8906 94.6875 C277.4844 94.6875 277.1562 95.0469 277.1562 95.4219 C277.1562 95.8125 277.4844 96.1562 277.8906 96.1562 C278.2969 96.1562 278.6406 95.8125 278.6406 95.4219 C278.6406 95.0469 278.2969 94.6875 277.8906 94.6875 ZM279.4688 88.5781 C279.7188 88.8906 279.875 89.2656 279.8906 89.6562 C279.8906 90.1875 279.625 90.5 279.0312 90.7656 L278.4062 91.0156 C277.6406 91.3125 277.3906 91.5469 277.3906 91.9375 C277.3906 92.1094 277.4531 92.3438 277.5781 92.8125 L277.7344 93.3438 L278.1094 93.3438 L278.0938 92.5312 C278.0938 92.0938 278.2031 91.9688 278.7812 91.7344 L279.2031 91.5625 C280.0312 91.2188 280.4531 90.6875 280.4531 89.8438 C280.4531 88.1562 278.6562 87.1875 277.5 87.0312 C277.1094 87.125 276.9062 87.2969 276.9062 87.6406 C276.9062 87.9375 277.0625 88.1562 277.7188 88.2656 L279.4688 88.5781 Z"
      /><rect x="261" y="78" width="5" style="fill:white; stroke:none;" height="10"
      /><path style="stroke:none;" d="M262.8906 86.6875 C262.4844 86.6875 262.1562 87.0469 262.1562 87.4219 C262.1562 87.8125 262.4844 88.1562 262.8906 88.1562 C263.2969 88.1562 263.6406 87.8125 263.6406 87.4219 C263.6406 87.0469 263.2969 86.6875 262.8906 86.6875 ZM264.4688 80.5781 C264.7188 80.8906 264.875 81.2656 264.8906 81.6562 C264.8906 82.1875 264.625 82.5 264.0312 82.7656 L263.4062 83.0156 C262.6406 83.3125 262.3906 83.5469 262.3906 83.9375 C262.3906 84.1094 262.4531 84.3438 262.5781 84.8125 L262.7344 85.3438 L263.1094 85.3438 L263.0938 84.5312 C263.0938 84.0938 263.2031 83.9688 263.7812 83.7344 L264.2031 83.5625 C265.0312 83.2188 265.4531 82.6875 265.4531 81.8438 C265.4531 80.1562 263.6562 79.1875 262.5 79.0312 C262.1094 79.125 261.9062 79.2969 261.9062 79.6406 C261.9062 79.9375 262.0625 80.1562 262.7188 80.2656 L264.4688 80.5781 Z"
      /><polygon style="fill:white; clip-path:url(#clipPath12); stroke:none;" points=" 301 30 311 37 307 49 294 49 290 37 301 30"
      /><rect x="290" y="30" width="22" style="clip-path:url(#clipPath12); fill:white; stroke:none;" height="22"
      /><rect x="290" y="30" width="22" style="fill:none; clip-path:url(#clipPath12);" height="22"
      /><polygon style="fill:none;" points=" 301 30 311 37 307 49 294 49 290 37 301 30"
      /><path style="stroke:none;" d="M299.2344 46 L304.8594 46 L304.8594 44.9375 L302.7969 44.9375 L302.7969 35.7188 L301.8281 35.7188 C301.2656 36.0625 300.6094 36.2969 299.6875 36.4688 L299.6875 37.2812 L301.5156 37.2812 L301.5156 44.9375 L299.2344 44.9375 L299.2344 46 Z"
      /><rect x="335" y="78" width="5" style="fill:white; stroke:none;" height="10"
      /><path style="stroke:none;" d="M336.8906 86.6875 C336.4844 86.6875 336.1562 87.0469 336.1562 87.4219 C336.1562 87.8125 336.4844 88.1562 336.8906 88.1562 C337.2969 88.1562 337.6406 87.8125 337.6406 87.4219 C337.6406 87.0469 337.2969 86.6875 336.8906 86.6875 ZM338.4688 80.5781 C338.7188 80.8906 338.875 81.2656 338.8906 81.6562 C338.8906 82.1875 338.625 82.5 338.0312 82.7656 L337.4062 83.0156 C336.6406 83.3125 336.3906 83.5469 336.3906 83.9375 C336.3906 84.1094 336.4531 84.3438 336.5781 84.8125 L336.7344 85.3438 L337.1094 85.3438 L337.0938 84.5312 C337.0938 84.0938 337.2031 83.9688 337.7812 83.7344 L338.2031 83.5625 C339.0312 83.2188 339.4531 82.6875 339.4531 81.8438 C339.4531 80.1562 337.6562 79.1875 336.5 79.0312 C336.1094 79.125 335.9062 79.2969 335.9062 79.6406 C335.9062 79.9375 336.0625 80.1562 336.7188 80.2656 L338.4688 80.5781 Z"
      /><rect x="320" y="86" width="5" style="fill:white; stroke:none;" height="10"
      /><path style="stroke:none;" d="M321.8906 94.6875 C321.4844 94.6875 321.1562 95.0469 321.1562 95.4219 C321.1562 95.8125 321.4844 96.1562 321.8906 96.1562 C322.2969 96.1562 322.6406 95.8125 322.6406 95.4219 C322.6406 95.0469 322.2969 94.6875 321.8906 94.6875 ZM323.4688 88.5781 C323.7188 88.8906 323.875 89.2656 323.8906 89.6562 C323.8906 90.1875 323.625 90.5 323.0312 90.7656 L322.4062 91.0156 C321.6406 91.3125 321.3906 91.5469 321.3906 91.9375 C321.3906 92.1094 321.4531 92.3438 321.5781 92.8125 L321.7344 93.3438 L322.1094 93.3438 L322.0938 92.5312 C322.0938 92.0938 322.2031 91.9688 322.7812 91.7344 L323.2031 91.5625 C324.0312 91.2188 324.4531 90.6875 324.4531 89.8438 C324.4531 88.1562 322.6562 87.1875 321.5 87.0312 C321.1094 87.125 320.9062 87.2969 320.9062 87.6406 C320.9062 87.9375 321.0625 88.1562 321.7188 88.2656 L323.4688 88.5781 Z"
      /><rect x="328" y="60" width="5" style="fill:white; stroke:none;" height="10"
      /><path style="stroke:none;" d="M329.8906 68.6875 C329.4844 68.6875 329.1562 69.0469 329.1562 69.4219 C329.1562 69.8125 329.4844 70.1562 329.8906 70.1562 C330.2969 70.1562 330.6406 69.8125 330.6406 69.4219 C330.6406 69.0469 330.2969 68.6875 329.8906 68.6875 ZM331.4688 62.5781 C331.7188 62.8906 331.875 63.2656 331.8906 63.6562 C331.8906 64.1875 331.625 64.5 331.0312 64.7656 L330.4062 65.0156 C329.6406 65.3125 329.3906 65.5469 329.3906 65.9375 C329.3906 66.1094 329.4531 66.3438 329.5781 66.8125 L329.7344 67.3438 L330.1094 67.3438 L330.0938 66.5312 C330.0938 66.0938 330.2031 65.9688 330.7812 65.7344 L331.2031 65.5625 C332.0312 65.2188 332.4531 64.6875 332.4531 63.8438 C332.4531 62.1562 330.6562 61.1875 329.5 61.0312 C329.1094 61.125 328.9062 61.2969 328.9062 61.6406 C328.9062 61.9375 329.0625 62.1562 329.7188 62.2656 L331.4688 62.5781 Z"
      /><rect x="313" y="52" width="5" style="fill:white; stroke:none;" height="10"
      /><path style="stroke:none;" d="M314.8906 60.6875 C314.4844 60.6875 314.1562 61.0469 314.1562 61.4219 C314.1562 61.8125 314.4844 62.1562 314.8906 62.1562 C315.2969 62.1562 315.6406 61.8125 315.6406 61.4219 C315.6406 61.0469 315.2969 60.6875 314.8906 60.6875 ZM316.4688 54.5781 C316.7188 54.8906 316.875 55.2656 316.8906 55.6562 C316.8906 56.1875 316.625 56.5 316.0312 56.7656 L315.4062 57.0156 C314.6406 57.3125 314.3906 57.5469 314.3906 57.9375 C314.3906 58.1094 314.4531 58.3438 314.5781 58.8125 L314.7344 59.3438 L315.1094 59.3438 L315.0938 58.5312 C315.0938 58.0938 315.2031 57.9688 315.7812 57.7344 L316.2031 57.5625 C317.0312 57.2188 317.4531 56.6875 317.4531 55.8438 C317.4531 54.1562 315.6562 53.1875 314.5 53.0312 C314.1094 53.125 313.9062 53.2969 313.9062 53.6406 C313.9062 53.9375 314.0625 54.1562 314.7188 54.2656 L316.4688 54.5781 Z"
      /><rect x="369" y="70" width="5" style="fill:white; stroke:none;" height="10"
      /><path style="stroke:none;" d="M370.8906 78.6875 C370.4844 78.6875 370.1562 79.0469 370.1562 79.4219 C370.1562 79.8125 370.4844 80.1562 370.8906 80.1562 C371.2969 80.1562 371.6406 79.8125 371.6406 79.4219 C371.6406 79.0469 371.2969 78.6875 370.8906 78.6875 ZM372.4688 72.5781 C372.7188 72.8906 372.875 73.2656 372.8906 73.6562 C372.8906 74.1875 372.625 74.5 372.0312 74.7656 L371.4062 75.0156 C370.6406 75.3125 370.3906 75.5469 370.3906 75.9375 C370.3906 76.1094 370.4531 76.3438 370.5781 76.8125 L370.7344 77.3438 L371.1094 77.3438 L371.0938 76.5312 C371.0938 76.0938 371.2031 75.9688 371.7812 75.7344 L372.2031 75.5625 C373.0312 75.2188 373.4531 74.6875 373.4531 73.8438 C373.4531 72.1562 371.6562 71.1875 370.5 71.0312 C370.1094 71.125 369.9062 71.2969 369.9062 71.6406 C369.9062 71.9375 370.0625 72.1562 370.7188 72.2656 L372.4688 72.5781 Z"
    /></g
    ><g ID="legend-1:0" style="text-rendering:optimizeSpeed; font-size:10px; font-family:'SansSerif';"
    ><path style="stroke:none;" d="M30.875 197 L34.9062 197 L34.9062 196.2344 L33.4375 196.2344 L33.4375 189.6562 L32.7344 189.6562 C32.3281 189.9062 31.8594 190.0625 31.2031 190.1875 L31.2031 190.7656 L32.5156 190.7656 L32.5156 196.2344 L30.875 196.2344 L30.875 197 ZM35.925 192.4531 L40.7219 192.4531 L40.7219 191.7656 L35.925 191.7656 L35.925 192.4531 ZM35.925 194.8438 L40.7219 194.8438 L40.7219 194.1719 L35.925 194.1719 L35.925 194.8438 ZM42.1 197 L43.975 197 C46.1937 197 47.3969 195.625 47.3969 193.3125 C47.3969 190.9844 46.1937 189.6562 43.9437 189.6562 L42.1 189.6562 L42.1 197 ZM43.0375 196.2344 L43.0375 190.4219 L43.8656 190.4219 C45.5844 190.4219 46.4437 191.4531 46.4437 193.3125 C46.4437 195.1562 45.5844 196.2344 43.8656 196.2344 L43.0375 196.2344 ZM48.4231 194.5469 L50.9856 194.5469 L50.9856 193.8438 L48.4231 193.8438 L48.4231 194.5469 ZM54.19 199.5 C55.8775 199.5 56.94 198.625 56.94 197.625 C56.94 196.7344 56.2993 196.3281 55.0337 196.3281 L53.9868 196.3281 C53.2525 196.3281 53.0337 196.0938 53.0337 195.7344 C53.0337 195.4375 53.1743 195.2656 53.3775 195.0938 C53.6275 195.2031 53.9243 195.2812 54.19 195.2812 C55.2837 195.2812 56.1743 194.5469 56.1743 193.3906 C56.1743 192.9219 55.9868 192.5156 55.7368 192.2656 L56.8462 192.2656 L56.8462 191.5625 L54.9556 191.5625 C54.7525 191.5 54.4868 191.4375 54.19 191.4375 C53.0962 191.4375 52.1431 192.1875 52.1431 193.375 C52.1431 194.0156 52.5025 194.5469 52.8618 194.8281 L52.8618 194.875 C52.5806 195.0625 52.2525 195.4375 52.2525 195.875 C52.2525 196.3125 52.4556 196.5938 52.7525 196.7656 L52.7525 196.8125 C52.2368 197.1406 51.9556 197.5781 51.9556 198.0469 C51.9556 198.9844 52.8618 199.5 54.19 199.5 ZM54.19 194.6562 C53.565 194.6562 53.0337 194.1562 53.0337 193.375 C53.0337 192.5625 53.5493 192.0938 54.19 192.0938 C54.8306 192.0938 55.3462 192.5781 55.3462 193.375 C55.3462 194.1562 54.815 194.6562 54.19 194.6562 ZM54.315 198.875 C53.3462 198.875 52.7525 198.5 52.7525 197.9219 C52.7525 197.5938 52.9087 197.2812 53.2993 197 C53.5337 197.0625 53.7993 197.0938 54.0025 197.0938 L54.94 197.0938 C55.6587 197.0938 56.0493 197.2656 56.0493 197.7656 C56.0493 198.3281 55.3618 198.875 54.315 198.875 ZM57.9918 197 L58.8981 197 L58.8981 193.5156 C59.2575 192.5781 59.82 192.2656 60.2731 192.2656 C60.4918 192.2656 60.6168 192.2812 60.8043 192.3438 L60.9762 191.5469 C60.8043 191.4531 60.6325 191.4375 60.3825 191.4375 C59.7731 191.4375 59.2262 191.875 58.8512 192.5625 L58.82 192.5625 L58.7418 191.5625 L57.9918 191.5625 L57.9918 197 ZM63.9812 197.125 C65.3093 197.125 66.4968 196.0938 66.4968 194.2969 C66.4968 192.4844 65.3093 191.4375 63.9812 191.4375 C62.6531 191.4375 61.4656 192.4844 61.4656 194.2969 C61.4656 196.0938 62.6531 197.125 63.9812 197.125 ZM63.9812 196.375 C63.0437 196.375 62.4031 195.5469 62.4031 194.2969 C62.4031 193.0469 63.0437 192.1875 63.9812 192.1875 C64.9187 192.1875 65.5593 193.0469 65.5593 194.2969 C65.5593 195.5469 64.9187 196.375 63.9812 196.375 ZM67.4631 194.5469 L70.0256 194.5469 L70.0256 193.8438 L67.4631 193.8438 L67.4631 194.5469 ZM72.2612 194.7969 L73.0737 194.7969 C72.8862 193.2188 74.6831 192.625 74.6831 191.1562 C74.6831 190.0625 73.9487 189.375 72.8237 189.375 C72.0112 189.375 71.3706 189.7656 70.9174 190.2969 L71.4331 190.7812 C71.7768 190.375 72.2143 190.1406 72.7143 190.1406 C73.4331 190.1406 73.7924 190.625 73.7924 191.2188 C73.7924 192.4062 72.0268 193.0469 72.2612 194.7969 ZM72.6831 197.125 C73.0581 197.125 73.3549 196.8438 73.3549 196.4375 C73.3549 196.0156 73.0581 195.7344 72.6831 195.7344 C72.3237 195.7344 72.0268 196.0156 72.0268 196.4375 C72.0268 196.8438 72.3237 197.125 72.6831 197.125 ZM75.6731 194.5469 L78.2356 194.5469 L78.2356 193.8438 L75.6731 193.8438 L75.6731 194.5469 ZM79.6899 197 L81.5649 197 C83.7837 197 84.9868 195.625 84.9868 193.3125 C84.9868 190.9844 83.7837 189.6562 81.5337 189.6562 L79.6899 189.6562 L79.6899 197 ZM80.6274 196.2344 L80.6274 190.4219 L81.4556 190.4219 C83.1743 190.4219 84.0337 191.4531 84.0337 193.3125 C84.0337 195.1562 83.1743 196.2344 81.4556 196.2344 L80.6274 196.2344 ZM86.0131 194.5469 L88.5756 194.5469 L88.5756 193.8438 L86.0131 193.8438 L86.0131 194.5469 ZM91.6549 197.125 C91.9831 197.125 92.3424 197.0312 92.6549 196.9375 L92.4831 196.25 C92.2956 196.3125 92.0456 196.3906 91.8581 196.3906 C91.2331 196.3906 91.0143 196.0156 91.0143 195.3438 L91.0143 192.3125 L92.4831 192.3125 L92.4831 191.5625 L91.0143 191.5625 L91.0143 190.0469 L90.2643 190.0469 L90.1549 191.5625 L89.2956 191.625 L89.2956 192.3125 L90.1081 192.3125 L90.1081 195.3125 C90.1081 196.4062 90.4987 197.125 91.6549 197.125 ZM94.9718 197.125 C95.6437 197.125 96.2531 196.7812 96.7687 196.3438 L96.7999 196.3438 L96.8781 197 L97.6281 197 L97.6281 193.6562 C97.6281 192.3125 97.0656 191.4375 95.7531 191.4375 C94.8781 191.4375 94.1124 191.8125 93.6124 192.1406 L93.9718 192.7656 C94.3937 192.4844 94.9718 192.1875 95.5968 192.1875 C96.4874 192.1875 96.7218 192.8594 96.7218 193.5625 C94.4093 193.8125 93.3781 194.4062 93.3781 195.5938 C93.3781 196.5625 94.0656 197.125 94.9718 197.125 ZM95.2374 196.4062 C94.6906 196.4062 94.2687 196.1562 94.2687 195.5312 C94.2687 194.8281 94.8937 194.375 96.7218 194.1562 L96.7218 195.6875 C96.1906 196.1562 95.7531 196.4062 95.2374 196.4062 ZM100.3149 197.125 C100.5649 197.125 100.7212 197.0938 100.8462 197.0469 L100.7212 196.3438 C100.6274 196.375 100.5806 196.375 100.5337 196.375 C100.3931 196.375 100.2681 196.2656 100.2681 195.9844 L100.2681 189.0469 L99.3618 189.0469 L99.3618 195.9219 C99.3618 196.6875 99.6431 197.125 100.3149 197.125 ZM104.993 197.125 C106.8368 197.125 108.1337 195.6562 108.1337 193.3125 C108.1337 190.9531 106.8368 189.5312 104.993 189.5312 C103.1649 189.5312 101.868 190.9531 101.868 193.3125 C101.868 195.6562 103.1649 197.125 104.993 197.125 ZM104.993 196.3125 C103.6805 196.3125 102.8212 195.1406 102.8212 193.3125 C102.8212 191.4688 103.6805 190.3438 104.993 190.3438 C106.3055 190.3438 107.1805 191.4688 107.1805 193.3125 C107.1805 195.1406 106.3055 196.3125 104.993 196.3125 ZM111.7724 197.125 C112.413 197.125 113.038 196.875 113.5224 196.4375 L113.1318 195.8281 C112.788 196.1406 112.3505 196.375 111.8505 196.375 C110.8505 196.375 110.163 195.5469 110.163 194.2969 C110.163 193.0469 110.8974 192.1875 111.8818 192.1875 C112.3037 192.1875 112.6474 192.3906 112.9599 192.6719 L113.4287 192.0625 C113.038 191.7344 112.5537 191.4375 111.8349 191.4375 C110.4443 191.4375 109.2255 192.4844 109.2255 194.2969 C109.2255 196.0938 110.3349 197.125 111.7724 197.125 ZM116.4249 197.125 C116.753 197.125 117.1124 197.0312 117.4249 196.9375 L117.253 196.25 C117.0655 196.3125 116.8155 196.3906 116.628 196.3906 C116.003 196.3906 115.7843 196.0156 115.7843 195.3438 L115.7843 192.3125 L117.253 192.3125 L117.253 191.5625 L115.7843 191.5625 L115.7843 190.0469 L115.0343 190.0469 L114.9249 191.5625 L114.0655 191.625 L114.0655 192.3125 L114.878 192.3125 L114.878 195.3125 C114.878 196.4062 115.2687 197.125 116.4249 197.125 ZM118.4918 199.2969 L119.398 199.2969 L119.398 197.4531 L119.3824 196.5 C119.8668 196.9062 120.3824 197.125 120.8824 197.125 C122.1324 197.125 123.2418 196.0625 123.2418 194.2031 C123.2418 192.5312 122.4762 191.4375 121.0855 191.4375 C120.4449 191.4375 119.8355 191.7969 119.3512 192.1875 L119.3199 192.1875 L119.2418 191.5625 L118.4918 191.5625 L118.4918 199.2969 ZM120.7262 196.375 C120.3668 196.375 119.8824 196.2188 119.398 195.7969 L119.398 192.9531 C119.9293 192.4531 120.398 192.2031 120.8668 192.2031 C121.8824 192.2031 122.2887 193.0156 122.2887 194.2031 C122.2887 195.5625 121.6324 196.375 120.7262 196.375 Z"
    /></g
  ></g
></svg
>
