<?xml version="1.0"?>
<!DOCTYPE svg PUBLIC '-//W3C//DTD SVG 1.0//EN'
          'http://www.w3.org/TR/2001/REC-SVG-20010904/DTD/svg10.dtd'>
<svg xmlns:xlink="http://www.w3.org/1999/xlink" style="fill-opacity:1; color-rendering:auto; color-interpolation:auto; text-rendering:auto; stroke:black; stroke-linecap:square; stroke-miterlimit:10; shape-rendering:auto; stroke-opacity:1; fill:black; stroke-dasharray:none; font-weight:normal; stroke-width:1; font-family:'Dialog'; font-style:normal; stroke-linejoin:miter; font-size:12px; stroke-dashoffset:0; image-rendering:auto;" viewBox="0 0 342 134" xmlns="http://www.w3.org/2000/svg"
><!--Generated by the Batik Graphics2D SVG Generator--><defs id="genericDefs"
  /><g
  ><defs id="defs1"
    ><clipPath clipPathUnits="userSpaceOnUse" id="clipPath1"
      ><path d="M238 56 L260 56 L260 78 L238 78 L238 56 Z"
      /></clipPath
      ><clipPath clipPathUnits="userSpaceOnUse" id="clipPath2"
      ><path d="M208 67 C208 73.0751 203.0751 78 197 78 C190.9249 78 186 73.0751 186 67 C186 60.9249 190.9249 56 197 56 C203.0751 56 208 60.9249 208 67 Z"
      /></clipPath
      ><clipPath clipPathUnits="userSpaceOnUse" id="clipPath3"
      ><path d="M156 67 C156 73.0751 151.0751 78 145 78 C138.9249 78 134 73.0751 134 67 C134 60.9249 138.9249 56 145 56 C151.0751 56 156 60.9249 156 67 Z"
      /></clipPath
      ><clipPath clipPathUnits="userSpaceOnUse" id="clipPath4"
      ><path d="M82 56 L104 56 L104 78 L82 78 L82 56 Z"
      /></clipPath
      ><clipPath clipPathUnits="userSpaceOnUse" id="clipPath5"
      ><path style="fill-rule:evenodd;" d="M41 82 L52 93 L41 104 L30 93 Z"
      /></clipPath
      ><clipPath clipPathUnits="userSpaceOnUse" id="clipPath6"
      ><path d="M30 30 L52 30 L52 52 L30 52 L30 30 Z"
      /></clipPath
    ></defs
    ><g style="fill:white; text-rendering:optimizeSpeed; stroke:white;"
    ><rect x="0" width="342" height="134" y="0" style="stroke:none;"
      /><polygon style="fill:none; stroke:black;" points=" 301 67 249 67"
      /><path d="M301 56 C295.5 61.5 306.5 72.5 301 78" style="fill:none; stroke:black;"
      /><polygon style="fill:none; stroke:black;" points=" 249 67 197 67"
      /><rect x="238" y="56" width="22" style="clip-path:url(#clipPath1); stroke:none;" height="22"
      /><rect x="238" y="56" width="22" style="clip-path:url(#clipPath1); fill:rgb(255,212,0); stroke:none;" height="22"
      /><rect x="238" y="56" width="22" style="clip-path:url(#clipPath1); fill:none; stroke:black;" height="22"
      /><rect x="238" y="56" width="22" style="fill:none; stroke:black;" height="22"
      /><polygon style="fill:none; stroke:black;" points=" 197 67 145 67"
      /><circle style="clip-path:url(#clipPath2); stroke:none;" r="11" cx="197" cy="67"
      /><rect x="186" y="56" width="22" style="clip-path:url(#clipPath2); fill:rgb(255,212,0); stroke:none;" height="22"
      /><rect x="186" y="56" width="22" style="clip-path:url(#clipPath2); fill:none; stroke:black;" height="22"
      /><circle style="fill:none; stroke:black;" r="11" cx="197" cy="67"
      /><polygon style="fill:none; stroke:black;" points=" 145 67 93 67"
      /><circle style="clip-path:url(#clipPath3); stroke:none;" r="11" cx="145" cy="67"
      /><rect x="134" y="56" width="22" style="clip-path:url(#clipPath3); fill:rgb(255,212,0); stroke:none;" height="22"
      /><rect x="134" y="56" width="22" style="clip-path:url(#clipPath3); fill:none; stroke:black;" height="22"
      /><circle style="fill:none; stroke:black;" r="11" cx="145" cy="67"
      /><polygon style="fill:none; stroke:black;" points=" 93 67 41 93"
      /><polygon style="fill:none; stroke:black;" points=" 93 67 41 41"
      /><rect x="82" y="56" width="22" style="clip-path:url(#clipPath4); stroke:none;" height="22"
      /><rect x="82" y="56" width="22" style="clip-path:url(#clipPath4); fill:rgb(255,212,0); stroke:none;" height="22"
      /><rect x="82" y="56" width="22" style="clip-path:url(#clipPath4); fill:none; stroke:black;" height="22"
      /><rect x="82" y="56" width="22" style="fill:none; stroke:black;" height="22"
      /><polygon style="clip-path:url(#clipPath5); stroke:none;" points=" 41 82 52 93 41 104 30 93"
      /><rect x="30" y="82" width="22" style="clip-path:url(#clipPath5); fill:rgb(143,204,233); stroke:none;" height="22"
      /><rect x="30" y="82" width="22" style="clip-path:url(#clipPath5); fill:none; stroke:black;" height="22"
      /><polygon style="fill:none; stroke:black;" points=" 41 82 52 93 41 104 30 93"
      /><rect x="30" y="30" width="22" style="clip-path:url(#clipPath6); stroke:none;" height="22"
      /><rect x="30" y="30" width="22" style="clip-path:url(#clipPath6); fill:rgb(255,212,0); stroke:none;" height="22"
      /><rect x="30" y="30" width="22" style="clip-path:url(#clipPath6); fill:none; stroke:black;" height="22"
      /><rect x="30" y="30" width="22" style="fill:none; stroke:black;" height="22"
      /><rect x="75" y="78" width="6" style="stroke:none;" height="10"
    /></g
    ><g style="font-family:'Serif'; text-rendering:optimizeSpeed; "
    ><path style="stroke:none;" d="M77.2344 79.6562 C77.5156 79.5938 77.7656 79.5625 78.0156 79.5625 C79.0625 79.5625 79.6719 80.1719 79.6719 81.2656 C79.6719 82.4375 78.9062 83.1094 77.7031 83.1094 L77.1875 83.1094 L77.1875 83.6406 L77.7969 83.6406 C79.2188 83.6406 79.9062 84.4219 79.9062 85.6406 C79.9062 86.8438 79.1719 87.6875 77.875 87.6875 C77.6094 87.6875 77.3125 87.6562 77.0156 87.5625 L76.7812 86.8125 C76.625 86.2812 76.5 86.0469 76.1406 86.0469 C75.8906 86.0469 75.7031 86.1719 75.5781 86.4219 C75.8438 87.6406 76.7812 88.1719 78.0312 88.1719 C79.7188 88.1719 80.875 87.125 80.875 85.7031 C80.875 84.5 80.2031 83.625 78.7969 83.375 C79.9531 83.0156 80.6094 82.2031 80.6094 81.2031 C80.6094 79.9219 79.6719 79.0781 78.1875 79.0781 C77.0469 79.0781 76.0625 79.5938 75.7969 80.6875 C75.9062 81 76.1094 81.1094 76.3594 81.1094 C76.7344 81.1094 76.8906 80.8906 77 80.4062 L77.2344 79.6562 Z"
      /><rect x="58" y="87" width="8" style="fill:white; stroke:none;" height="8"
      /><path style="stroke:none;" d="M62.9844 92.7031 C62.9375 93.8906 62.1562 94.6562 61.3125 94.6562 C60.2656 94.6562 59.5 93.6875 59.5 91.7188 C59.5 90.2812 60.1562 89.1562 61.3438 89.1562 C62.1406 89.1562 62.7812 89.6875 63.0938 90.6406 L62.9844 92.7031 ZM64.9062 94.2812 C64.7344 94.375 64.5469 94.4219 64.3438 94.4219 C63.9531 94.4219 63.75 94.2188 63.75 93.4219 C63.75 92.4844 63.9688 90.5312 64.1875 88.8281 L64.0312 88.7188 L63.2344 88.9219 L63.1406 89.7969 C62.7812 89.0312 62.1562 88.6562 61.3906 88.6562 C60.0469 88.6562 58.5625 89.8438 58.5625 91.9531 C58.5625 94.0938 59.7188 95.1719 61.1406 95.1719 C62.0156 95.1719 62.6875 94.8125 63.0938 93.9844 C63.2031 94.8594 63.5156 95.1719 64.0156 95.1719 C64.4688 95.1719 64.7969 94.9062 65.0156 94.5625 L64.9062 94.2812 Z"
      /><rect x="67" y="60" width="7" style="fill:white; stroke:none;" height="9"
      /><path style="stroke:none;" d="M68 65.5156 L70.9531 61.2656 L70.9531 65.5156 L68 65.5156 ZM73.2812 65.5156 L71.8594 65.5156 L71.8594 60.125 L71.2344 60.125 L67.3438 65.6406 L67.3438 66.1875 L70.9531 66.1875 L70.9531 69 L71.8594 69 L71.8594 66.1875 L73.2812 66.1875 L73.2812 65.5156 Z"
      /><rect x="52" y="50" width="6" style="fill:white; stroke:none;" height="13"
      /><path style="stroke:none;" d="M54.0938 56.2031 C54.0938 54.6562 54.75 53.8125 55.7969 53.8125 C56.7188 53.8125 57.2656 54.4531 57.2656 55.5156 C57.2656 56.7188 56.5 57.4375 55.1875 57.7031 L55.2969 58.3125 C57.2188 58.2344 57.9375 59.2188 57.9375 60.4375 C57.9375 61.625 57.2344 62.4219 55.9531 62.4219 C55.25 62.4219 54.6562 62.1562 54.0938 61.7188 L54.0938 56.2031 ZM53.2031 62.9062 L53.1094 65.375 L53.2656 65.4844 L54.1562 65.2656 L54.0156 62.0938 C54.5469 62.8438 55.3594 63.1719 56.1719 63.1719 C57.5625 63.1719 58.8594 62.2188 58.8594 60.4844 C58.8594 58.9531 57.875 58.1094 56.125 58 C57.5625 57.6094 58.1875 56.4531 58.1875 55.4844 C58.1875 54.0938 57.1562 53.3125 55.9062 53.3125 C54.2969 53.3125 53.2188 54.5469 53.2188 56.5156 L53.2031 62.9062 Z"
      /><rect x="123" y="70" width="6" style="fill:white; stroke:none;" height="10"
      /><path style="stroke:none;" d="M125.2344 71.6562 C125.5156 71.5938 125.7656 71.5625 126.0156 71.5625 C127.0625 71.5625 127.6719 72.1719 127.6719 73.2656 C127.6719 74.4375 126.9062 75.1094 125.7031 75.1094 L125.1875 75.1094 L125.1875 75.6406 L125.7969 75.6406 C127.2188 75.6406 127.9062 76.4219 127.9062 77.6406 C127.9062 78.8438 127.1719 79.6875 125.875 79.6875 C125.6094 79.6875 125.3125 79.6562 125.0156 79.5625 L124.7812 78.8125 C124.625 78.2812 124.5 78.0469 124.1406 78.0469 C123.8906 78.0469 123.7031 78.1719 123.5781 78.4219 C123.8438 79.6406 124.7812 80.1719 126.0312 80.1719 C127.7188 80.1719 128.875 79.125 128.875 77.7031 C128.875 76.5 128.2031 75.625 126.7969 75.375 C127.9531 75.0156 128.6094 74.2031 128.6094 73.2031 C128.6094 71.9219 127.6719 71.0781 126.1875 71.0781 C125.0469 71.0781 124.0625 71.5938 123.7969 72.6875 C123.9062 73 124.1094 73.1094 124.3594 73.1094 C124.7344 73.1094 124.8906 72.8906 125 72.4062 L125.2344 71.6562 Z"
      /><rect x="109" y="68" width="6" style="fill:white; stroke:none;" height="13"
      /><path style="stroke:none;" d="M111.0938 74.2031 C111.0938 72.6562 111.75 71.8125 112.7969 71.8125 C113.7188 71.8125 114.2656 72.4531 114.2656 73.5156 C114.2656 74.7188 113.5 75.4375 112.1875 75.7031 L112.2969 76.3125 C114.2188 76.2344 114.9375 77.2188 114.9375 78.4375 C114.9375 79.625 114.2344 80.4219 112.9531 80.4219 C112.25 80.4219 111.6562 80.1562 111.0938 79.7188 L111.0938 74.2031 ZM110.2031 80.9062 L110.1094 83.375 L110.2656 83.4844 L111.1562 83.2656 L111.0156 80.0938 C111.5469 80.8438 112.3594 81.1719 113.1719 81.1719 C114.5625 81.1719 115.8594 80.2188 115.8594 78.4844 C115.8594 76.9531 114.875 76.1094 113.125 76 C114.5625 75.6094 115.1875 74.4531 115.1875 73.4844 C115.1875 72.0938 114.1562 71.3125 112.9062 71.3125 C111.2969 71.3125 110.2188 72.5469 110.2188 74.5156 L110.2031 80.9062 Z"
      /><rect x="174" y="70" width="7" style="fill:white; stroke:none;" height="9"
      /><path style="stroke:none;" d="M175 75.5156 L177.9531 71.2656 L177.9531 75.5156 L175 75.5156 ZM180.2812 75.5156 L178.8594 75.5156 L178.8594 70.125 L178.2344 70.125 L174.3438 75.6406 L174.3438 76.1875 L177.9531 76.1875 L177.9531 79 L178.8594 79 L178.8594 76.1875 L180.2812 76.1875 L180.2812 75.5156 Z"
      /><rect x="161" y="68" width="6" style="fill:white; stroke:none;" height="13"
      /><path style="stroke:none;" d="M163.0938 74.2031 C163.0938 72.6562 163.75 71.8125 164.7969 71.8125 C165.7188 71.8125 166.2656 72.4531 166.2656 73.5156 C166.2656 74.7188 165.5 75.4375 164.1875 75.7031 L164.2969 76.3125 C166.2188 76.2344 166.9375 77.2188 166.9375 78.4375 C166.9375 79.625 166.2344 80.4219 164.9531 80.4219 C164.25 80.4219 163.6562 80.1562 163.0938 79.7188 L163.0938 74.2031 ZM162.2031 80.9062 L162.1094 83.375 L162.2656 83.4844 L163.1562 83.2656 L163.0156 80.0938 C163.5469 80.8438 164.3594 81.1719 165.1719 81.1719 C166.5625 81.1719 167.8594 80.2188 167.8594 78.4844 C167.8594 76.9531 166.875 76.1094 165.125 76 C166.5625 75.6094 167.1875 74.4531 167.1875 73.4844 C167.1875 72.0938 166.1562 71.3125 164.9062 71.3125 C163.2969 71.3125 162.2188 72.5469 162.2188 74.5156 L162.2031 80.9062 Z"
      /><rect x="227" y="70" width="6" style="fill:white; stroke:none;" height="10"
      /><path style="stroke:none;" d="M229.2344 71.6562 C229.5156 71.5938 229.7656 71.5625 230.0156 71.5625 C231.0625 71.5625 231.6719 72.1719 231.6719 73.2656 C231.6719 74.4375 230.9062 75.1094 229.7031 75.1094 L229.1875 75.1094 L229.1875 75.6406 L229.7969 75.6406 C231.2188 75.6406 231.9062 76.4219 231.9062 77.6406 C231.9062 78.8438 231.1719 79.6875 229.875 79.6875 C229.6094 79.6875 229.3125 79.6562 229.0156 79.5625 L228.7812 78.8125 C228.625 78.2812 228.5 78.0469 228.1406 78.0469 C227.8906 78.0469 227.7031 78.1719 227.5781 78.4219 C227.8438 79.6406 228.7812 80.1719 230.0312 80.1719 C231.7188 80.1719 232.875 79.125 232.875 77.7031 C232.875 76.5 232.2031 75.625 230.7969 75.375 C231.9531 75.0156 232.6094 74.2031 232.6094 73.2031 C232.6094 71.9219 231.6719 71.0781 230.1875 71.0781 C229.0469 71.0781 228.0625 71.5938 227.7969 72.6875 C227.9062 73 228.1094 73.1094 228.3594 73.1094 C228.7344 73.1094 228.8906 72.8906 229 72.4062 L229.2344 71.6562 Z"
      /><rect x="213" y="68" width="6" style="fill:white; stroke:none;" height="13"
      /><path style="stroke:none;" d="M215.0938 74.2031 C215.0938 72.6562 215.75 71.8125 216.7969 71.8125 C217.7188 71.8125 218.2656 72.4531 218.2656 73.5156 C218.2656 74.7188 217.5 75.4375 216.1875 75.7031 L216.2969 76.3125 C218.2188 76.2344 218.9375 77.2188 218.9375 78.4375 C218.9375 79.625 218.2344 80.4219 216.9531 80.4219 C216.25 80.4219 215.6562 80.1562 215.0938 79.7188 L215.0938 74.2031 ZM214.2031 80.9062 L214.1094 83.375 L214.2656 83.4844 L215.1562 83.2656 L215.0156 80.0938 C215.5469 80.8438 216.3594 81.1719 217.1719 81.1719 C218.5625 81.1719 219.8594 80.2188 219.8594 78.4844 C219.8594 76.9531 218.875 76.1094 217.125 76 C218.5625 75.6094 219.1875 74.4531 219.1875 73.4844 C219.1875 72.0938 218.1562 71.3125 216.9062 71.3125 C215.2969 71.3125 214.2188 72.5469 214.2188 74.5156 L214.2031 80.9062 Z"
      /><rect x="265" y="70" width="5" style="fill:white; stroke:none;" height="10"
      /><path style="stroke:none;" d="M266.8906 78.6875 C266.4844 78.6875 266.1562 79.0469 266.1562 79.4219 C266.1562 79.8125 266.4844 80.1562 266.8906 80.1562 C267.2969 80.1562 267.6406 79.8125 267.6406 79.4219 C267.6406 79.0469 267.2969 78.6875 266.8906 78.6875 ZM268.4688 72.5781 C268.7188 72.8906 268.875 73.2656 268.8906 73.6562 C268.8906 74.1875 268.625 74.5 268.0312 74.7656 L267.4062 75.0156 C266.6406 75.3125 266.3906 75.5469 266.3906 75.9375 C266.3906 76.1094 266.4531 76.3438 266.5781 76.8125 L266.7344 77.3438 L267.1094 77.3438 L267.0938 76.5312 C267.0938 76.0938 267.2031 75.9688 267.7812 75.7344 L268.2031 75.5625 C269.0312 75.2188 269.4531 74.6875 269.4531 73.8438 C269.4531 72.1562 267.6562 71.1875 266.5 71.0312 C266.1094 71.125 265.9062 71.2969 265.9062 71.6406 C265.9062 71.9375 266.0625 72.1562 266.7188 72.2656 L268.4688 72.5781 Z"
    /></g
  ></g
></svg
>
