<?xml version="1.0"?>
<!DOCTYPE svg PUBLIC '-//W3C//DTD SVG 1.0//EN'
          'http://www.w3.org/TR/2001/REC-SVG-20010904/DTD/svg10.dtd'>
<svg xmlns:xlink="http://www.w3.org/1999/xlink" style="fill-opacity:1; color-rendering:auto; color-interpolation:auto; text-rendering:auto; stroke:black; stroke-linecap:square; stroke-miterlimit:10; shape-rendering:auto; stroke-opacity:1; fill:black; stroke-dasharray:none; font-weight:normal; stroke-width:1; font-family:'Dialog'; font-style:normal; stroke-linejoin:miter; font-size:12px; stroke-dashoffset:0; image-rendering:auto;" viewBox="0 0 157 120" xmlns="http://www.w3.org/2000/svg"
><!--Generated by the Batik Graphics2D SVG Generator--><defs id="genericDefs"
  /><g
  ><defs id="defs1"
    ><clipPath clipPathUnits="userSpaceOnUse" id="clipPath1"
      ><path style="fill-rule:evenodd;" d="M52 30 L62 37 L58 49 L45 49 L41 37 L52 30 Z"
      /></clipPath
    ></defs
    ><g style="fill:white; text-rendering:optimizeSpeed; stroke:white;"
    ><rect x="0" width="157" height="120" y="0" style="stroke:none;"
      /><polygon style="fill:none; stroke:black;" points=" 116 41 52 41"
      /><path d="M116 30 C110.5 35.5 121.5 46.5 116 52" style="fill:none; stroke:black;"
      /><polygon style="clip-path:url(#clipPath1); stroke:none;" points=" 52 30 62 37 58 49 45 49 41 37 52 30"
      /><rect x="41" y="30" width="22" style="clip-path:url(#clipPath1); stroke:none;" height="22"
      /><rect x="41" y="30" width="22" style="clip-path:url(#clipPath1); fill:none; stroke:black;" height="22"
      /><polygon style="fill:none; stroke:black;" points=" 52 30 62 37 58 49 45 49 41 37 52 30"
    /></g
    ><g style="text-rendering:optimizeSpeed; font-size:10px; font-family:'SansSerif';"
    ><path style="stroke:none;" d="M51.0625 45 L51.9844 45 L51.9844 40.3125 L53.125 40.3125 L53.125 39.5625 L51.9844 39.5625 L51.9844 38.7031 C51.9844 38.0156 52.2344 37.6406 52.75 37.6406 C52.9375 37.6406 53.1562 37.6875 53.3594 37.7812 L53.5625 37.0938 C53.3125 36.9844 52.9844 36.9062 52.6562 36.9062 C51.5625 36.9062 51.0625 37.5938 51.0625 38.7031 L51.0625 39.5625 L50.3281 39.625 L50.3281 40.3125 L51.0625 40.3125 L51.0625 45 Z"
      /><rect x="54" y="58" width="19" style="fill:white; stroke:none;" height="11"
      /><path style="stroke:none;" d="M57.7031 69.1875 C59.5156 69.1875 60.9844 68.0938 60.9844 66.25 C60.9844 64.8594 60.0156 63.9375 58.8125 63.6562 L58.8125 63.5938 C59.8906 63.1875 60.6406 62.3594 60.6406 61.125 C60.6406 59.5 59.375 58.5469 57.6562 58.5469 C56.4688 58.5469 55.5469 59.0625 54.7812 59.7812 L55.4688 60.5938 C56.0469 60 56.7656 59.5938 57.5938 59.5938 C58.6562 59.5938 59.3281 60.2344 59.3281 61.2188 C59.3281 62.3281 58.6094 63.1719 56.4844 63.1719 L56.4844 64.1562 C58.8594 64.1562 59.6875 64.9844 59.6875 66.2031 C59.6875 67.3906 58.8125 68.125 57.5938 68.125 C56.4375 68.125 55.6562 67.5781 55.0469 66.9375 L54.4062 67.7812 C55.0781 68.5156 56.0938 69.1875 57.7031 69.1875 ZM67.0512 69.1875 C68.3793 69.1875 69.3793 68.6562 70.1918 67.7188 L69.4887 66.9062 C68.8325 67.6094 68.0825 68.0469 67.0981 68.0469 C65.145 68.0469 63.9106 66.4219 63.9106 63.8281 C63.9106 61.2656 65.2075 59.6719 67.145 59.6719 C68.0356 59.6719 68.7075 60.0781 69.2387 60.6562 L69.9418 59.8125 C69.3637 59.1562 68.3793 58.5469 67.1293 58.5469 C64.5356 58.5469 62.5825 60.5625 62.5825 63.875 C62.5825 67.2031 64.5043 69.1875 67.0512 69.1875 ZM73.3269 69.1875 C73.6863 69.1875 73.8894 69.1406 74.0769 69.0625 L73.8894 68.0938 C73.7488 68.125 73.7019 68.125 73.6238 68.125 C73.4363 68.125 73.2644 67.9688 73.2644 67.5781 L73.2644 57.8594 L71.9832 57.8594 L71.9832 67.4844 C71.9832 68.5625 72.3894 69.1875 73.3269 69.1875 Z"
      /><rect x="33" y="58" width="14" style="fill:white; stroke:none;" height="11"
      /><path style="stroke:none;" d="M33.6094 69 L40.0625 69 L40.0625 67.8906 L37.2344 67.8906 C36.7031 67.8906 36.0781 67.9531 35.5469 67.9844 C37.9531 65.7031 39.5625 63.625 39.5625 61.5781 C39.5625 59.75 38.4219 58.5469 36.5781 58.5469 C35.2812 58.5469 34.4062 59.1406 33.5625 60.0469 L34.2969 60.7812 C34.8594 60.1094 35.5938 59.5938 36.4375 59.5938 C37.7031 59.5938 38.3125 60.4531 38.3125 61.625 C38.3125 63.3906 36.8438 65.4375 33.6094 68.25 L33.6094 69 ZM44.645 69.1875 C45.5512 69.1875 46.3637 68.6875 46.9575 68.1094 L47.0043 68.1094 L47.1137 69 L48.145 69 L48.145 57.8594 L46.895 57.8594 L46.895 60.7812 L46.9418 62.0938 C46.27 61.5312 45.6918 61.2031 44.8012 61.2031 C43.0668 61.2031 41.5043 62.7344 41.5043 65.2031 C41.5043 67.7344 42.7387 69.1875 44.645 69.1875 ZM44.9262 68.125 C43.5825 68.125 42.8325 67.0312 42.8325 65.1875 C42.8325 63.4531 43.8012 62.2812 45.02 62.2812 C45.6606 62.2812 46.2231 62.5 46.895 63.0781 L46.895 67.0625 C46.2387 67.7656 45.6293 68.125 44.9262 68.125 Z"
    /></g
    ><g style="fill:white; text-rendering:optimizeSpeed; font-family:'Serif'; stroke:white;"
    ><rect x="80" width="6" height="13" y="42" style="stroke:none;"
      /><path d="M82.0938 48.2031 C82.0938 46.6562 82.75 45.8125 83.7969 45.8125 C84.7188 45.8125 85.2656 46.4531 85.2656 47.5156 C85.2656 48.7188 84.5 49.4375 83.1875 49.7031 L83.2969 50.3125 C85.2188 50.2344 85.9375 51.2188 85.9375 52.4375 C85.9375 53.625 85.2344 54.4219 83.9531 54.4219 C83.25 54.4219 82.6562 54.1562 82.0938 53.7188 L82.0938 48.2031 ZM81.2031 54.9062 L81.1094 57.375 L81.2656 57.4844 L82.1562 57.2656 L82.0156 54.0938 C82.5469 54.8438 83.3594 55.1719 84.1719 55.1719 C85.5625 55.1719 86.8594 54.2188 86.8594 52.4844 C86.8594 50.9531 85.875 50.1094 84.125 50 C85.5625 49.6094 86.1875 48.4531 86.1875 47.4844 C86.1875 46.0938 85.1562 45.3125 83.9062 45.3125 C82.2969 45.3125 81.2188 46.5469 81.2188 48.5156 L81.2031 54.9062 Z" style="fill:black; stroke:none;"
    /></g
    ><g ID="legend-1:0" style="text-rendering:optimizeSpeed; font-size:10px; font-family:'SansSerif';"
    ><path style="stroke:none;" d="M30.875 90 L34.9062 90 L34.9062 89.2344 L33.4375 89.2344 L33.4375 82.6562 L32.7344 82.6562 C32.3281 82.9062 31.8594 83.0625 31.2031 83.1875 L31.2031 83.7656 L32.5156 83.7656 L32.5156 89.2344 L30.875 89.2344 L30.875 90 ZM35.925 85.4531 L40.7219 85.4531 L40.7219 84.7656 L35.925 84.7656 L35.925 85.4531 ZM35.925 87.8438 L40.7219 87.8438 L40.7219 87.1719 L35.925 87.1719 L35.925 87.8438 ZM41.9906 91.9844 L42.9125 91.9844 C42.8969 91.0781 42.8812 90.2188 42.85 89.2969 C43.4125 89.9219 44.1156 90.125 44.7875 90.125 C45.8969 90.125 46.9125 89.3125 46.9125 87.8438 C46.9125 86.7031 46.2562 85.8906 45.1625 85.7344 L45.1625 85.6875 C45.8656 85.2656 46.2562 84.6406 46.2562 83.8281 C46.2562 82.5312 45.2719 81.9062 44.225 81.9062 C42.6937 81.9062 41.9906 83.0156 41.9906 84.5156 L41.9906 91.9844 ZM44.5844 89.375 C44.0062 89.375 43.3812 89.1875 42.85 88.5156 C42.85 87.2031 42.8656 85.9375 42.8812 84.6406 C42.8969 83.3438 43.3969 82.6406 44.225 82.6406 C44.8344 82.6406 45.3656 83.0625 45.3656 83.9062 C45.3656 84.625 44.9281 85.4062 43.7875 85.625 L43.9125 86.3281 C44.1 86.2812 44.2875 86.2656 44.475 86.2656 C45.5062 86.2656 46.0062 86.9219 46.0062 87.7969 C46.0062 88.7812 45.3656 89.375 44.5844 89.375 ZM47.8631 87.5469 L50.4256 87.5469 L50.4256 86.8438 L47.8631 86.8438 L47.8631 87.5469 ZM51.3175 90 L55.9268 90 L55.9268 89.2031 L53.8956 89.2031 C53.5362 89.2031 53.0831 89.25 52.6925 89.2812 C54.4268 87.6562 55.5675 86.1562 55.5675 84.7031 C55.5675 83.3906 54.755 82.5312 53.4425 82.5312 C52.505 82.5312 51.88 82.9531 51.2862 83.6094 L51.8175 84.125 C52.2081 83.6562 52.7237 83.2812 53.3331 83.2812 C54.2393 83.2812 54.6768 83.8906 54.6768 84.7344 C54.6768 85.9844 53.6143 87.4531 51.3175 89.4531 L51.3175 90 ZM56.8831 87.5469 L59.4456 87.5469 L59.4456 86.8438 L56.8831 86.8438 L56.8831 87.5469 ZM62.6656 90.125 C63.3218 90.125 63.8843 89.7812 64.3218 89.3594 L64.3531 89.3594 L64.4312 90 L65.1656 90 L65.1656 82.0469 L64.275 82.0469 L64.275 84.125 L64.3062 85.0625 C63.8375 84.6719 63.4156 84.4375 62.775 84.4375 C61.5406 84.4375 60.4312 85.5312 60.4312 87.2969 C60.4312 89.0938 61.3062 90.125 62.6656 90.125 ZM62.8687 89.375 C61.9156 89.375 61.3687 88.5938 61.3687 87.2812 C61.3687 86.0469 62.0562 85.2031 62.9468 85.2031 C63.3843 85.2031 63.8062 85.3594 64.275 85.7656 L64.275 88.625 C63.8062 89.125 63.3687 89.375 62.8687 89.375 ZM69.2093 90.125 C69.9437 90.125 70.5375 89.875 71.0062 89.5625 L70.6781 88.9688 C70.2875 89.2344 69.85 89.4062 69.3187 89.4062 C68.2875 89.4062 67.5843 88.6562 67.5218 87.5 L71.1781 87.5 C71.1937 87.375 71.225 87.1875 71.225 86.9844 C71.225 85.4375 70.4437 84.4375 69.0531 84.4375 C67.8031 84.4375 66.6156 85.5312 66.6156 87.2969 C66.6156 89.0781 67.7718 90.125 69.2093 90.125 ZM67.5062 86.8438 C67.6156 85.7812 68.3031 85.1562 69.0687 85.1562 C69.9125 85.1562 70.4125 85.75 70.4125 86.8438 L67.5062 86.8438 ZM74.6712 90.125 C75.9993 90.125 77.1868 89.0938 77.1868 87.2969 C77.1868 85.4844 75.9993 84.4375 74.6712 84.4375 C73.3431 84.4375 72.1556 85.4844 72.1556 87.2969 C72.1556 89.0938 73.3431 90.125 74.6712 90.125 ZM74.6712 89.375 C73.7337 89.375 73.0931 88.5469 73.0931 87.2969 C73.0931 86.0469 73.7337 85.1875 74.6712 85.1875 C75.6087 85.1875 76.2493 86.0469 76.2493 87.2969 C76.2493 88.5469 75.6087 89.375 74.6712 89.375 ZM77.8562 90 L78.8093 90 L79.5437 88.7344 C79.7312 88.4062 79.9031 88.0625 80.1062 87.7656 L80.1531 87.7656 C80.3562 88.0625 80.5437 88.4062 80.7312 88.7344 L81.5281 90 L82.5281 90 L80.7468 87.2656 L82.3875 84.5625 L81.4343 84.5625 L80.7625 85.7656 C80.6062 86.0625 80.45 86.375 80.2781 86.6719 L80.2468 86.6719 C80.0593 86.375 79.8718 86.0625 79.7 85.7656 L78.9656 84.5625 L77.9968 84.5625 L79.6375 87.1719 L77.8562 90 ZM83.6956 92.3438 C84.7737 92.3438 85.3362 91.5156 85.7112 90.4531 L87.7581 84.5625 L86.8674 84.5625 L85.8987 87.5938 C85.7424 88.0625 85.5862 88.625 85.4456 89.1094 L85.3831 89.1094 C85.2268 88.625 85.0237 88.0625 84.8674 87.5938 L83.7581 84.5625 L82.8049 84.5625 L84.9924 90.0156 L84.8674 90.4219 C84.6487 91.0938 84.2581 91.5938 83.6331 91.5938 C83.4924 91.5938 83.3362 91.5469 83.2268 91.5 L83.0549 92.2344 C83.2268 92.2969 83.4299 92.3438 83.6956 92.3438 ZM88.3431 87.5469 L90.9056 87.5469 L90.9056 86.8438 L88.3431 86.8438 L88.3431 87.5469 ZM92.3599 90 L94.2349 90 C96.4537 90 97.6568 88.625 97.6568 86.3125 C97.6568 83.9844 96.4537 82.6562 94.2037 82.6562 L92.3599 82.6562 L92.3599 90 ZM93.2974 89.2344 L93.2974 83.4219 L94.1256 83.4219 C95.8443 83.4219 96.7037 84.4531 96.7037 86.3125 C96.7037 88.1562 95.8443 89.2344 94.1256 89.2344 L93.2974 89.2344 ZM98.6831 87.5469 L101.2456 87.5469 L101.2456 86.8438 L98.6831 86.8438 L98.6831 87.5469 ZM104.8093 90.125 C105.5437 90.125 106.1374 89.875 106.6062 89.5625 L106.2781 88.9688 C105.8874 89.2344 105.4499 89.4062 104.9187 89.4062 C103.8874 89.4062 103.1843 88.6562 103.1218 87.5 L106.7781 87.5 C106.7937 87.375 106.8249 87.1875 106.8249 86.9844 C106.8249 85.4375 106.0437 84.4375 104.6531 84.4375 C103.4031 84.4375 102.2156 85.5312 102.2156 87.2969 C102.2156 89.0781 103.3718 90.125 104.8093 90.125 ZM103.1062 86.8438 C103.2156 85.7812 103.9031 85.1562 104.6687 85.1562 C105.5124 85.1562 106.0124 85.75 106.0124 86.8438 L103.1062 86.8438 ZM108.1618 90 L109.0681 90 L109.0681 86.5156 C109.4274 85.5781 109.9899 85.2656 110.4431 85.2656 C110.6618 85.2656 110.7868 85.2812 110.9743 85.3438 L111.1462 84.5469 C110.9743 84.4531 110.8024 84.4375 110.5524 84.4375 C109.9431 84.4375 109.3962 84.875 109.0212 85.5625 L108.9899 85.5625 L108.9118 84.5625 L108.1618 84.5625 L108.1618 90 ZM112.1355 92.3438 C113.2137 92.3438 113.7762 91.5156 114.1512 90.4531 L116.198 84.5625 L115.3074 84.5625 L114.3387 87.5938 C114.1824 88.0625 114.0262 88.625 113.8855 89.1094 L113.823 89.1094 C113.6668 88.625 113.4637 88.0625 113.3074 87.5938 L112.198 84.5625 L111.2449 84.5625 L113.4324 90.0156 L113.3074 90.4219 C113.0887 91.0938 112.698 91.5938 112.073 91.5938 C111.9324 91.5938 111.7762 91.5469 111.6668 91.5 L111.4949 92.2344 C111.6668 92.2969 111.8699 92.3438 112.1355 92.3438 ZM117.3299 90 L118.2674 90 L118.2674 87.0938 L119.4705 87.0938 C121.0799 87.0938 122.1737 86.375 122.1737 84.8125 C122.1737 83.2188 121.0643 82.6562 119.4237 82.6562 L117.3299 82.6562 L117.3299 90 ZM118.2674 86.3438 L118.2674 83.4219 L119.3143 83.4219 C120.5955 83.4219 121.2518 83.7656 121.2518 84.8125 C121.2518 85.875 120.6424 86.3438 119.3455 86.3438 L118.2674 86.3438 ZM125.7593 90.125 C126.4937 90.125 127.0874 89.875 127.5562 89.5625 L127.228 88.9688 C126.8374 89.2344 126.3999 89.4062 125.8687 89.4062 C124.8374 89.4062 124.1343 88.6562 124.0718 87.5 L127.728 87.5 C127.7437 87.375 127.7749 87.1875 127.7749 86.9844 C127.7749 85.4375 126.9937 84.4375 125.603 84.4375 C124.353 84.4375 123.1655 85.5312 123.1655 87.2969 C123.1655 89.0781 124.3218 90.125 125.7593 90.125 ZM124.0562 86.8438 C124.1655 85.7812 124.853 85.1562 125.6187 85.1562 C126.4624 85.1562 126.9624 85.75 126.9624 86.8438 L124.0562 86.8438 ZM129.1118 90 L130.018 90 L130.018 86.0625 C130.5649 85.5156 130.9555 85.2344 131.5024 85.2344 C132.2368 85.2344 132.5336 85.6562 132.5336 86.6875 L132.5336 90 L133.4555 90 L133.4555 86.5625 C133.4555 85.1719 132.9243 84.4375 131.7836 84.4375 C131.0493 84.4375 130.4868 84.8438 129.9711 85.3438 L129.9399 85.3438 L129.8618 84.5625 L129.1118 84.5625 L129.1118 90 ZM135.3624 90 L136.2843 90 L136.2843 85.3125 L137.4249 85.3125 L137.4249 84.5625 L136.2843 84.5625 L136.2843 83.7031 C136.2843 83.0156 136.5343 82.6406 137.0499 82.6406 C137.2374 82.6406 137.4561 82.6875 137.6593 82.7812 L137.8624 82.0938 C137.6124 81.9844 137.2843 81.9062 136.9561 81.9062 C135.8624 81.9062 135.3624 82.5938 135.3624 83.7031 L135.3624 84.5625 L134.628 84.625 L134.628 85.3125 L135.3624 85.3125 L135.3624 90 ZM140.1905 90.125 C141.4874 90.125 142.5343 89.3438 142.5343 88.0469 C142.5343 87.0469 141.8468 86.375 140.9874 86.1875 L140.9874 86.1406 C141.753 85.8438 142.2843 85.2656 142.2843 84.375 C142.2843 83.2031 141.3936 82.5312 140.1593 82.5312 C139.3155 82.5312 138.6593 82.9062 138.1124 83.4062 L138.5968 83.9844 C139.003 83.5625 139.5343 83.2812 140.1124 83.2812 C140.878 83.2812 141.3624 83.7344 141.3624 84.4375 C141.3624 85.2344 140.8468 85.8438 139.3311 85.8438 L139.3311 86.5469 C141.0186 86.5469 141.6124 87.125 141.6124 88 C141.6124 88.8438 140.9874 89.375 140.1124 89.375 C139.2843 89.375 138.7374 88.9844 138.2999 88.5312 L137.8468 89.125 C138.3155 89.6562 139.0343 90.125 140.1905 90.125 ZM146.8655 90.125 C147.8186 90.125 148.5374 89.75 149.1155 89.0781 L148.6155 88.5 C148.1468 89.0156 147.6155 89.3125 146.9124 89.3125 C145.5061 89.3125 144.6311 88.1562 144.6311 86.3125 C144.6311 84.4844 145.553 83.3438 146.9436 83.3438 C147.5686 83.3438 148.053 83.625 148.4436 84.0469 L148.9436 83.4375 C148.5218 82.9688 147.8186 82.5312 146.928 82.5312 C145.0686 82.5312 143.678 83.9688 143.678 86.3438 C143.678 88.7188 145.053 90.125 146.8655 90.125 ZM151.3549 90.125 C151.6049 90.125 151.7611 90.0938 151.8861 90.0469 L151.7611 89.3438 C151.6674 89.375 151.6205 89.375 151.5736 89.375 C151.433 89.375 151.308 89.2656 151.308 88.9844 L151.308 82.0469 L150.4017 82.0469 L150.4017 88.9219 C150.4017 89.6875 150.683 90.125 151.3549 90.125 Z"
    /></g
  ></g
></svg
>
