<?xml version="1.0"?>
<!DOCTYPE svg PUBLIC '-//W3C//DTD SVG 1.0//EN'
          'http://www.w3.org/TR/2001/REC-SVG-20010904/DTD/svg10.dtd'>
<svg xmlns:xlink="http://www.w3.org/1999/xlink" style="fill-opacity:1; color-rendering:auto; color-interpolation:auto; text-rendering:auto; stroke:black; stroke-linecap:square; stroke-miterlimit:10; shape-rendering:auto; stroke-opacity:1; fill:black; stroke-dasharray:none; font-weight:normal; stroke-width:1; font-family:'Dialog'; font-style:normal; stroke-linejoin:miter; font-size:12px; stroke-dashoffset:0; image-rendering:auto;" viewBox="0 0 292 134" xmlns="http://www.w3.org/2000/svg"
><!--Generated by the Batik Graphics2D SVG Generator--><defs id="genericDefs"
  /><g
  ><defs id="defs1"
    ><clipPath clipPathUnits="userSpaceOnUse" id="clipPath1"
      ><path d="M210 67 C210 73.0751 205.0751 78 199 78 C192.9249 78 188 73.0751 188 67 C188 60.9249 192.9249 56 199 56 C205.0751 56 210 60.9249 210 67 Z"
      /></clipPath
      ><clipPath clipPathUnits="userSpaceOnUse" id="clipPath2"
      ><path d="M158 67 C158 73.0751 153.0751 78 147 78 C140.9249 78 136 73.0751 136 67 C136 60.9249 140.9249 56 147 56 C153.0751 56 158 60.9249 158 67 Z"
      /></clipPath
      ><clipPath clipPathUnits="userSpaceOnUse" id="clipPath3"
      ><path style="fill-rule:evenodd;" d="M95 82 L106 93 L95 104 L84 93 Z"
      /></clipPath
      ><clipPath clipPathUnits="userSpaceOnUse" id="clipPath4"
      ><path style="fill-rule:evenodd;" d="M42 82 L53 93 L42 104 L31 93 Z"
      /></clipPath
      ><clipPath clipPathUnits="userSpaceOnUse" id="clipPath5"
      ><path d="M84 30 L106 30 L106 52 L84 52 L84 30 Z"
      /></clipPath
    ></defs
    ><g style="fill:white; text-rendering:optimizeSpeed; stroke:white;"
    ><rect x="0" width="292" height="134" y="0" style="stroke:none;"
      /><polygon style="fill:none; stroke:black;" points=" 251 67 199 67"
      /><path d="M251 56 C245.5 61.5 256.5 72.5 251 78" style="fill:none; stroke:black;"
      /><polygon style="fill:none; stroke:black;" points=" 199 67 147 67"
      /><circle style="clip-path:url(#clipPath1); stroke:none;" r="11" cx="199" cy="67"
      /><rect x="188" y="56" width="22" style="clip-path:url(#clipPath1); fill:rgb(0,144,188); stroke:none;" height="22"
      /><rect x="188" y="56" width="22" style="clip-path:url(#clipPath1); fill:none; stroke:black;" height="22"
      /><circle style="fill:none; stroke:black;" r="11" cx="199" cy="67"
      /><polygon style="fill:none; stroke:black;" points=" 147 67 95 93"
      /><polygon style="fill:none; stroke:black;" points=" 147 67 95 41"
      /><circle style="clip-path:url(#clipPath2); stroke:none;" r="11" cx="147" cy="67"
      /><rect x="136" y="56" width="22" style="clip-path:url(#clipPath2); fill:rgb(255,212,0); stroke:none;" height="22"
      /><rect x="136" y="56" width="22" style="clip-path:url(#clipPath2); fill:none; stroke:black;" height="22"
      /><circle style="fill:none; stroke:black;" r="11" cx="147" cy="67"
      /><polygon style="fill:none; stroke:black;" points=" 95 93 42 93"
      /><polygon style="clip-path:url(#clipPath3); stroke:none;" points=" 95 82 106 93 95 104 84 93"
      /><rect x="84" y="82" width="22" style="clip-path:url(#clipPath3); fill:rgb(165,67,153); stroke:none;" height="22"
      /><rect x="84" y="82" width="22" style="clip-path:url(#clipPath3); fill:none; stroke:black;" height="22"
      /><polygon style="fill:none; stroke:black;" points=" 95 82 106 93 95 104 84 93"
      /><polygon style="clip-path:url(#clipPath4); stroke:none;" points=" 42 82 53 93 42 104 31 93"
      /><rect x="31" y="82" width="22" style="clip-path:url(#clipPath4); fill:rgb(165,67,153); stroke:none;" height="22"
      /><rect x="31" y="82" width="22" style="clip-path:url(#clipPath4); fill:none; stroke:black;" height="22"
      /><polygon style="fill:none; stroke:black;" points=" 42 82 53 93 42 104 31 93"
      /><rect x="30" y="64" width="22" style="stroke:none;" height="10"
    /></g
    ><g style="text-rendering:optimizeSpeed; font-size:14px; font-family:'SansSerif';"
    ><path style="stroke:none;" d="M31.8125 67.875 C31.8125 66.4688 32.5781 65.5469 33.5625 65.5469 C34.875 65.5469 35.6562 66.6719 35.7969 68.7812 C35.1406 69.75 34.3594 70.1562 33.6562 70.1562 C32.4375 70.1562 31.8125 69.2656 31.8125 67.875 ZM33.2812 75.1875 C35.2031 75.1875 37 73.5938 37 69.4219 C37 66.1719 35.5312 64.5469 33.5625 64.5469 C31.9531 64.5469 30.6094 65.8906 30.6094 67.875 C30.6094 70 31.7344 71.1094 33.4375 71.1094 C34.2969 71.1094 35.1875 70.625 35.8125 69.8438 C35.7188 73.0312 34.5625 74.125 33.2344 74.125 C32.5781 74.125 31.9531 73.8281 31.5312 73.3281 L30.8125 74.125 C31.3906 74.7344 32.1719 75.1875 33.2812 75.1875 ZM40.9418 69.2656 C41.3168 68.0938 41.645 66.9844 41.9731 65.7812 L42.02 65.7812 C42.3637 66.9844 42.6762 68.0938 43.0668 69.2656 L43.5512 70.8281 L40.4418 70.8281 L40.9418 69.2656 ZM37.8168 75 L39.1293 75 L40.1293 71.8594 L43.8793 71.8594 L44.8481 75 L46.2231 75 L42.7387 64.7188 L41.3012 64.7188 L37.8168 75 ZM50.5492 75.1875 C51.4554 75.1875 52.3304 74.8281 53.0179 74.2188 L52.4554 73.3594 C51.9867 73.7969 51.3617 74.125 50.6586 74.125 C49.2679 74.125 48.3148 72.9531 48.3148 71.2031 C48.3148 69.4531 49.3148 68.2656 50.7054 68.2656 C51.3148 68.2656 51.7679 68.5469 52.2211 68.9375 L52.8773 68.0938 C52.3304 67.625 51.6429 67.2031 50.6429 67.2031 C48.7054 67.2031 46.9867 68.6719 46.9867 71.2031 C46.9867 73.7188 48.5336 75.1875 50.5492 75.1875 Z"
    /></g
    ><g style="fill:white; text-rendering:optimizeSpeed; font-family:'Serif'; stroke:white;"
    ><rect x="73" width="6" height="10" y="96" style="stroke:none;"
      /><path d="M76.2656 105.7031 C75.2031 105.7031 74.5 104.9688 74.5 103.9062 C74.5 102.9688 74.9375 102.4219 75.9062 101.8438 C77.4688 102.5625 77.9531 103.1719 77.9531 104.0156 C77.9531 105 77.2969 105.7031 76.2656 105.7031 ZM74.75 99.0469 C74.75 98.1094 75.4531 97.5625 76.2344 97.5625 C77.1562 97.5625 77.6562 98.2656 77.6562 99.0938 C77.6562 99.9688 77.3281 100.5469 76.4688 101.1562 C75.0938 100.5156 74.75 99.7969 74.75 99.0469 ZM76.8594 101.3438 C78.0938 100.6562 78.4531 99.8125 78.4531 99.0938 C78.4531 97.9219 77.6094 97.0781 76.2656 97.0781 C74.9375 97.0781 73.8906 97.9062 73.8906 99.2031 C73.8906 100.2031 74.375 101.0469 75.5156 101.6562 C74.2656 102.2812 73.5938 103 73.5938 104.0156 C73.5938 105.3906 74.6562 106.1719 76.2344 106.1719 C77.75 106.1719 78.875 105.25 78.875 103.8906 C78.875 102.7344 78.2656 102 76.8594 101.3438 Z" style="fill:black; stroke:none;"
      /><rect x="58" width="8" height="8" y="97" style="stroke:none;"
      /><path d="M62.9844 102.7031 C62.9375 103.8906 62.1562 104.6562 61.3125 104.6562 C60.2656 104.6562 59.5 103.6875 59.5 101.7188 C59.5 100.2812 60.1562 99.1562 61.3438 99.1562 C62.1406 99.1562 62.7812 99.6875 63.0938 100.6406 L62.9844 102.7031 ZM64.9062 104.2812 C64.7344 104.375 64.5469 104.4219 64.3438 104.4219 C63.9531 104.4219 63.75 104.2188 63.75 103.4219 C63.75 102.4844 63.9688 100.5312 64.1875 98.8281 L64.0312 98.7188 L63.2344 98.9219 L63.1406 99.7969 C62.7812 99.0312 62.1562 98.6562 61.3906 98.6562 C60.0469 98.6562 58.5625 99.8438 58.5625 101.9531 C58.5625 104.0938 59.7188 105.1719 61.1406 105.1719 C62.0156 105.1719 62.6875 104.8125 63.0938 103.9844 C63.2031 104.8594 63.5156 105.1719 64.0156 105.1719 C64.4688 105.1719 64.7969 104.9062 65.0156 104.5625 L64.9062 104.2812 Z" style="fill:black; stroke:none;"
      /><rect x="84" y="30" width="22" style="clip-path:url(#clipPath5); stroke:none;" height="22"
      /><rect x="84" y="30" width="22" style="clip-path:url(#clipPath5); fill:rgb(255,212,0); stroke:none;" height="22"
      /><rect x="84" y="30" width="22" style="clip-path:url(#clipPath5); fill:none; stroke:black;" height="22"
      /><rect x="84" y="30" width="22" style="fill:none; stroke:black;" height="22"
      /><rect x="129" width="6" height="10" y="78" style="stroke:none;"
      /><path d="M131.2344 79.6562 C131.5156 79.5938 131.7656 79.5625 132.0156 79.5625 C133.0625 79.5625 133.6719 80.1719 133.6719 81.2656 C133.6719 82.4375 132.9062 83.1094 131.7031 83.1094 L131.1875 83.1094 L131.1875 83.6406 L131.7969 83.6406 C133.2188 83.6406 133.9062 84.4219 133.9062 85.6406 C133.9062 86.8438 133.1719 87.6875 131.875 87.6875 C131.6094 87.6875 131.3125 87.6562 131.0156 87.5625 L130.7812 86.8125 C130.625 86.2812 130.5 86.0469 130.1406 86.0469 C129.8906 86.0469 129.7031 86.1719 129.5781 86.4219 C129.8438 87.6406 130.7812 88.1719 132.0312 88.1719 C133.7188 88.1719 134.875 87.125 134.875 85.7031 C134.875 84.5 134.2031 83.625 132.7969 83.375 C133.9531 83.0156 134.6094 82.2031 134.6094 81.2031 C134.6094 79.9219 133.6719 79.0781 132.1875 79.0781 C131.0469 79.0781 130.0625 79.5938 129.7969 80.6875 C129.9062 81 130.1094 81.1094 130.3594 81.1094 C130.7344 81.1094 130.8906 80.8906 131 80.4062 L131.2344 79.6562 Z" style="fill:black; stroke:none;"
      /><rect x="112" width="8" height="8" y="87" style="stroke:none;"
      /><path d="M116.9844 92.7031 C116.9375 93.8906 116.1562 94.6562 115.3125 94.6562 C114.2656 94.6562 113.5 93.6875 113.5 91.7188 C113.5 90.2812 114.1562 89.1562 115.3438 89.1562 C116.1406 89.1562 116.7812 89.6875 117.0938 90.6406 L116.9844 92.7031 ZM118.9062 94.2812 C118.7344 94.375 118.5469 94.4219 118.3438 94.4219 C117.9531 94.4219 117.75 94.2188 117.75 93.4219 C117.75 92.4844 117.9688 90.5312 118.1875 88.8281 L118.0312 88.7188 L117.2344 88.9219 L117.1406 89.7969 C116.7812 89.0312 116.1562 88.6562 115.3906 88.6562 C114.0469 88.6562 112.5625 89.8438 112.5625 91.9531 C112.5625 94.0938 113.7188 95.1719 115.1406 95.1719 C116.0156 95.1719 116.6875 94.8125 117.0938 93.9844 C117.2031 94.8594 117.5156 95.1719 118.0156 95.1719 C118.4688 95.1719 118.7969 94.9062 119.0156 94.5625 L118.9062 94.2812 Z" style="fill:black; stroke:none;"
      /><rect x="121" width="7" height="9" y="60" style="stroke:none;"
      /><path d="M122 65.5156 L124.9531 61.2656 L124.9531 65.5156 L122 65.5156 ZM127.2812 65.5156 L125.8594 65.5156 L125.8594 60.125 L125.2344 60.125 L121.3438 65.6406 L121.3438 66.1875 L124.9531 66.1875 L124.9531 69 L125.8594 69 L125.8594 66.1875 L127.2812 66.1875 L127.2812 65.5156 Z" style="fill:black; stroke:none;"
      /><rect x="106" width="6" height="13" y="50" style="stroke:none;"
      /><path d="M108.0938 56.2031 C108.0938 54.6562 108.75 53.8125 109.7969 53.8125 C110.7188 53.8125 111.2656 54.4531 111.2656 55.5156 C111.2656 56.7188 110.5 57.4375 109.1875 57.7031 L109.2969 58.3125 C111.2188 58.2344 111.9375 59.2188 111.9375 60.4375 C111.9375 61.625 111.2344 62.4219 109.9531 62.4219 C109.25 62.4219 108.6562 62.1562 108.0938 61.7188 L108.0938 56.2031 ZM107.2031 62.9062 L107.1094 65.375 L107.2656 65.4844 L108.1562 65.2656 L108.0156 62.0938 C108.5469 62.8438 109.3594 63.1719 110.1719 63.1719 C111.5625 63.1719 112.8594 62.2188 112.8594 60.4844 C112.8594 58.9531 111.875 58.1094 110.125 58 C111.5625 57.6094 112.1875 56.4531 112.1875 55.4844 C112.1875 54.0938 111.1562 53.3125 109.9062 53.3125 C108.2969 53.3125 107.2188 54.5469 107.2188 56.5156 L107.2031 62.9062 Z" style="fill:black; stroke:none;"
      /><rect x="176" width="7" height="9" y="70" style="stroke:none;"
      /><path d="M177 75.5156 L179.9531 71.2656 L179.9531 75.5156 L177 75.5156 ZM182.2812 75.5156 L180.8594 75.5156 L180.8594 70.125 L180.2344 70.125 L176.3438 75.6406 L176.3438 76.1875 L179.9531 76.1875 L179.9531 79 L180.8594 79 L180.8594 76.1875 L182.2812 76.1875 L182.2812 75.5156 Z" style="fill:black; stroke:none;"
      /><rect x="163" width="6" height="13" y="68" style="stroke:none;"
      /><path d="M165.0938 74.2031 C165.0938 72.6562 165.75 71.8125 166.7969 71.8125 C167.7188 71.8125 168.2656 72.4531 168.2656 73.5156 C168.2656 74.7188 167.5 75.4375 166.1875 75.7031 L166.2969 76.3125 C168.2188 76.2344 168.9375 77.2188 168.9375 78.4375 C168.9375 79.625 168.2344 80.4219 166.9531 80.4219 C166.25 80.4219 165.6562 80.1562 165.0938 79.7188 L165.0938 74.2031 ZM164.2031 80.9062 L164.1094 83.375 L164.2656 83.4844 L165.1562 83.2656 L165.0156 80.0938 C165.5469 80.8438 166.3594 81.1719 167.1719 81.1719 C168.5625 81.1719 169.8594 80.2188 169.8594 78.4844 C169.8594 76.9531 168.875 76.1094 167.125 76 C168.5625 75.6094 169.1875 74.4531 169.1875 73.4844 C169.1875 72.0938 168.1562 71.3125 166.9062 71.3125 C165.2969 71.3125 164.2188 72.5469 164.2188 74.5156 L164.2031 80.9062 Z" style="fill:black; stroke:none;"
      /><rect x="215" width="6" height="13" y="68" style="stroke:none;"
      /><path d="M217.0938 74.2031 C217.0938 72.6562 217.75 71.8125 218.7969 71.8125 C219.7188 71.8125 220.2656 72.4531 220.2656 73.5156 C220.2656 74.7188 219.5 75.4375 218.1875 75.7031 L218.2969 76.3125 C220.2188 76.2344 220.9375 77.2188 220.9375 78.4375 C220.9375 79.625 220.2344 80.4219 218.9531 80.4219 C218.25 80.4219 217.6562 80.1562 217.0938 79.7188 L217.0938 74.2031 ZM216.2031 80.9062 L216.1094 83.375 L216.2656 83.4844 L217.1562 83.2656 L217.0156 80.0938 C217.5469 80.8438 218.3594 81.1719 219.1719 81.1719 C220.5625 81.1719 221.8594 80.2188 221.8594 78.4844 C221.8594 76.9531 220.875 76.1094 219.125 76 C220.5625 75.6094 221.1875 74.4531 221.1875 73.4844 C221.1875 72.0938 220.1562 71.3125 218.9062 71.3125 C217.2969 71.3125 216.2188 72.5469 216.2188 74.5156 L216.2031 80.9062 Z" style="fill:black; stroke:none;"
    /></g
  ></g
></svg
>
