<?xml version="1.0"?>
<!DOCTYPE svg PUBLIC '-//W3C//DTD SVG 1.0//EN'
          'http://www.w3.org/TR/2001/REC-SVG-20010904/DTD/svg10.dtd'>
<svg xmlns:xlink="http://www.w3.org/1999/xlink" style="fill-opacity:1; color-rendering:auto; color-interpolation:auto; text-rendering:auto; stroke:black; stroke-linecap:square; stroke-miterlimit:10; shape-rendering:auto; stroke-opacity:1; fill:black; stroke-dasharray:none; font-weight:normal; stroke-width:1; font-family:'Dialog'; font-style:normal; stroke-linejoin:miter; font-size:12px; stroke-dashoffset:0; image-rendering:auto;" viewBox="0 0 262 209" xmlns="http://www.w3.org/2000/svg"
><!--Generated by the Batik Graphics2D SVG Generator--><defs id="genericDefs"
  /><g
  ><defs id="defs1"
    ><clipPath clipPathUnits="userSpaceOnUse" id="clipPath1"
      ><path d="M134 119 L156 119 L156 141 L134 141 L134 119 Z"
      /></clipPath
      ><clipPath clipPathUnits="userSpaceOnUse" id="clipPath2"
      ><path d="M82 157 L104 157 L104 179 L82 179 L82 157 Z"
      /></clipPath
      ><clipPath clipPathUnits="userSpaceOnUse" id="clipPath3"
      ><path d="M52 168 C52 174.0751 47.0751 179 41 179 C34.9249 179 30 174.0751 30 168 C30 161.9249 34.9249 157 41 157 C47.0751 157 52 161.9249 52 168 Z"
      /></clipPath
      ><clipPath clipPathUnits="userSpaceOnUse" id="clipPath4"
      ><path d="M104 93 C104 99.0751 99.0751 104 93 104 C86.9249 104 82 99.0751 82 93 C82 86.9249 86.9249 82 93 82 C99.0751 82 104 86.9249 104 93 Z"
      /></clipPath
      ><clipPath clipPathUnits="userSpaceOnUse" id="clipPath5"
      ><path style="fill-rule:evenodd;" d="M93 52 L82 30 L104 30 Z"
      /></clipPath
    ></defs
    ><g style="fill:white; text-rendering:optimizeSpeed; stroke:white;"
    ><rect x="0" width="262" height="209" y="0" style="stroke:none;"
      /><polygon style="fill:none; stroke:black;" points=" 145 130 93 168"
      /><polygon style="fill:none; stroke:black;" points=" 145 130 93 93"
      /><rect x="134" y="119" width="22" style="clip-path:url(#clipPath1); stroke:none;" height="22"
      /><rect x="134" y="119" width="22" style="clip-path:url(#clipPath1); fill:rgb(255,212,0); stroke:none;" height="22"
      /><rect x="134" y="119" width="22" style="clip-path:url(#clipPath1); fill:none; stroke:black;" height="22"
      /><rect x="134" y="119" width="22" style="fill:none; stroke:black;" height="22"
    /></g
    ><g style="font-style:italic; text-rendering:optimizeSpeed; font-size:10px; font-family:'SansSerif';"
    ><path style="stroke:none;" d="M145 132.125 C146.3281 132.125 147.7344 131.0938 148.125 129.2969 C148.5 127.4844 147.5469 126.4375 146.2188 126.4375 C144.8906 126.4375 143.4688 127.4844 143.0938 129.2969 C142.7031 131.0938 143.6719 132.125 145 132.125 ZM145.1719 131.375 C144.2344 131.375 143.7656 130.5469 144.0312 129.2969 C144.2969 128.0469 145.1094 127.1875 146.0469 127.1875 C146.9844 127.1875 147.4531 128.0469 147.1875 129.2969 C146.9219 130.5469 146.1094 131.375 145.1719 131.375 Z"
      /><polygon style="fill:none;" points=" 93 168 41 168"
    /></g
    ><g style="fill:white; text-rendering:optimizeSpeed; stroke:white;"
    ><rect x="82" y="157" width="22" style="clip-path:url(#clipPath2); stroke:none;" height="22"
      /><rect x="82" y="157" width="22" style="clip-path:url(#clipPath2); fill:rgb(0,144,188); stroke:none;" height="22"
      /><rect x="82" y="157" width="22" style="clip-path:url(#clipPath2); fill:none; stroke:black;" height="22"
      /><rect x="82" y="157" width="22" style="fill:none; stroke:black;" height="22"
      /><rect x="86" width="13" height="10" y="139" style="stroke:none;"
    /></g
    ><g style="text-rendering:optimizeSpeed; font-size:14px; font-family:'SansSerif';"
    ><path style="stroke:none;" d="M88.4844 146.9062 L89.625 146.9062 C89.375 144.7031 91.8906 143.875 91.8906 141.8281 C91.8906 140.2969 90.8594 139.3281 89.2812 139.3281 C88.1406 139.3281 87.25 139.875 86.6094 140.625 L87.3281 141.2969 C87.8125 140.7344 88.4375 140.3906 89.1406 140.3906 C90.125 140.3906 90.6406 141.0625 90.6406 141.9062 C90.6406 143.5781 88.1719 144.4688 88.4844 146.9062 ZM89.0938 150.1875 C89.6094 150.1875 90.0312 149.7969 90.0312 149.2188 C90.0312 148.625 89.6094 148.2188 89.0938 148.2188 C88.5938 148.2188 88.1719 148.625 88.1719 149.2188 C88.1719 149.7969 88.5938 150.1875 89.0938 150.1875 ZM96.886 150.1875 C99.0266 150.1875 100.3703 148.8906 100.3703 147.2656 C100.3703 145.75 99.4485 145.0469 98.261 144.5312 L96.7922 143.8906 C95.9953 143.5625 95.1047 143.1875 95.1047 142.1875 C95.1047 141.2656 95.8547 140.6719 97.011 140.6719 C97.9641 140.6719 98.7297 141.0469 99.3547 141.6406 L100.0422 140.8125 C99.3078 140.0625 98.2297 139.5469 97.011 139.5469 C95.1516 139.5469 93.7766 140.6875 93.7766 142.2656 C93.7766 143.7656 94.9172 144.5 95.8703 144.9062 L97.3547 145.5469 C98.3235 145.9844 99.0578 146.3125 99.0578 147.375 C99.0578 148.375 98.2453 149.0469 96.9016 149.0469 C95.8391 149.0469 94.8078 148.5469 94.0735 147.7812 L93.2922 148.6562 C94.1828 149.5938 95.4328 150.1875 96.886 150.1875 Z"
    /></g
    ><g style="fill:white; text-rendering:optimizeSpeed; stroke:white;"
    ><circle r="11" style="clip-path:url(#clipPath3); stroke:none;" cx="41" cy="168"
      /><rect x="30" y="157" width="22" style="clip-path:url(#clipPath3); fill:rgb(255,212,0); stroke:none;" height="22"
      /><rect x="30" y="157" width="22" style="clip-path:url(#clipPath3); fill:none; stroke:black;" height="22"
      /><circle r="11" style="fill:none; stroke:black;" cx="41" cy="168"
      /><rect x="71" width="5" height="10" y="171" style="stroke:none;"
      /><path d="M72.8906 179.6875 C72.4844 179.6875 72.1562 180.0469 72.1562 180.4219 C72.1562 180.8125 72.4844 181.1562 72.8906 181.1562 C73.2969 181.1562 73.6406 180.8125 73.6406 180.4219 C73.6406 180.0469 73.2969 179.6875 72.8906 179.6875 ZM74.4688 173.5781 C74.7188 173.8906 74.875 174.2656 74.8906 174.6562 C74.8906 175.1875 74.625 175.5 74.0312 175.7656 L73.4062 176.0156 C72.6406 176.3125 72.3906 176.5469 72.3906 176.9375 C72.3906 177.1094 72.4531 177.3438 72.5781 177.8125 L72.7344 178.3438 L73.1094 178.3438 L73.0938 177.5312 C73.0938 177.0938 73.2031 176.9688 73.7812 176.7344 L74.2031 176.5625 C75.0312 176.2188 75.4531 175.6875 75.4531 174.8438 C75.4531 173.1562 73.6562 172.1875 72.5 172.0312 C72.1094 172.125 71.9062 172.2969 71.9062 172.6406 C71.9062 172.9375 72.0625 173.1562 72.7188 173.2656 L74.4688 173.5781 Z" style="fill:black; stroke:none;"
      /><rect x="57" width="5" height="10" y="171" style="stroke:none;"
      /><path d="M58.8906 179.6875 C58.4844 179.6875 58.1562 180.0469 58.1562 180.4219 C58.1562 180.8125 58.4844 181.1562 58.8906 181.1562 C59.2969 181.1562 59.6406 180.8125 59.6406 180.4219 C59.6406 180.0469 59.2969 179.6875 58.8906 179.6875 ZM60.4688 173.5781 C60.7188 173.8906 60.875 174.2656 60.8906 174.6562 C60.8906 175.1875 60.625 175.5 60.0312 175.7656 L59.4062 176.0156 C58.6406 176.3125 58.3906 176.5469 58.3906 176.9375 C58.3906 177.1094 58.4531 177.3438 58.5781 177.8125 L58.7344 178.3438 L59.1094 178.3438 L59.0938 177.5312 C59.0938 177.0938 59.2031 176.9688 59.7812 176.7344 L60.2031 176.5625 C61.0312 176.2188 61.4531 175.6875 61.4531 174.8438 C61.4531 173.1562 59.6562 172.1875 58.5 172.0312 C58.1094 172.125 57.9062 172.2969 57.9062 172.6406 C57.9062 172.9375 58.0625 173.1562 58.7188 173.2656 L60.4688 173.5781 Z" style="fill:black; stroke:none;"
      /><polygon style="fill:none; stroke:black;" points=" 93 93 93 41"
      /><circle r="11" style="clip-path:url(#clipPath4); stroke:none;" cx="93" cy="93"
      /><rect x="82" y="82" width="22" style="clip-path:url(#clipPath4); fill:rgb(255,212,0); stroke:none;" height="22"
      /><rect x="82" y="82" width="22" style="clip-path:url(#clipPath4); fill:none; stroke:black;" height="22"
      /><circle r="11" style="fill:none; stroke:black;" cx="93" cy="93"
      /><polygon style="clip-path:url(#clipPath5); stroke:none;" points=" 93 52 82 30 104 30"
      /><rect x="82" y="30" width="22" style="clip-path:url(#clipPath5); fill:rgb(237,28,36); stroke:none;" height="22"
      /><rect x="82" y="30" width="22" style="clip-path:url(#clipPath5); fill:none; stroke:black;" height="22"
      /><polygon style="fill:none; stroke:black;" points=" 93 52 82 30 104 30"
      /><rect x="82" width="5" height="10" y="69" style="stroke:none;"
      /><path d="M83.8906 77.6875 C83.4844 77.6875 83.1562 78.0469 83.1562 78.4219 C83.1562 78.8125 83.4844 79.1562 83.8906 79.1562 C84.2969 79.1562 84.6406 78.8125 84.6406 78.4219 C84.6406 78.0469 84.2969 77.6875 83.8906 77.6875 ZM85.4688 71.5781 C85.7188 71.8906 85.875 72.2656 85.8906 72.6562 C85.8906 73.1875 85.625 73.5 85.0312 73.7656 L84.4062 74.0156 C83.6406 74.3125 83.3906 74.5469 83.3906 74.9375 C83.3906 75.1094 83.4531 75.3438 83.5781 75.8125 L83.7344 76.3438 L84.1094 76.3438 L84.0938 75.5312 C84.0938 75.0938 84.2031 74.9688 84.7812 74.7344 L85.2031 74.5625 C86.0312 74.2188 86.4531 73.6875 86.4531 72.8438 C86.4531 71.1562 84.6562 70.1875 83.5 70.0312 C83.1094 70.125 82.9062 70.2969 82.9062 70.6406 C82.9062 70.9375 83.0625 71.1562 83.7188 71.2656 L85.4688 71.5781 Z" style="fill:black; stroke:none;"
      /><rect x="82" width="5" height="10" y="55" style="stroke:none;"
      /><path d="M83.8906 63.6875 C83.4844 63.6875 83.1562 64.0469 83.1562 64.4219 C83.1562 64.8125 83.4844 65.1562 83.8906 65.1562 C84.2969 65.1562 84.6406 64.8125 84.6406 64.4219 C84.6406 64.0469 84.2969 63.6875 83.8906 63.6875 ZM85.4688 57.5781 C85.7188 57.8906 85.875 58.2656 85.8906 58.6562 C85.8906 59.1875 85.625 59.5 85.0312 59.7656 L84.4062 60.0156 C83.6406 60.3125 83.3906 60.5469 83.3906 60.9375 C83.3906 61.1094 83.4531 61.3438 83.5781 61.8125 L83.7344 62.3438 L84.1094 62.3438 L84.0938 61.5312 C84.0938 61.0938 84.2031 60.9688 84.7812 60.7344 L85.2031 60.5625 C86.0312 60.2188 86.4531 59.6875 86.4531 58.8438 C86.4531 57.1562 84.6562 56.1875 83.5 56.0312 C83.1094 56.125 82.9062 56.2969 82.9062 56.6406 C82.9062 56.9375 83.0625 57.1562 83.7188 57.2656 L85.4688 57.5781 Z" style="fill:black; stroke:none;"
      /><rect x="129" width="5" height="10" y="144" style="stroke:none;"
      /><path d="M130.8906 152.6875 C130.4844 152.6875 130.1562 153.0469 130.1562 153.4219 C130.1562 153.8125 130.4844 154.1562 130.8906 154.1562 C131.2969 154.1562 131.6406 153.8125 131.6406 153.4219 C131.6406 153.0469 131.2969 152.6875 130.8906 152.6875 ZM132.4688 146.5781 C132.7188 146.8906 132.875 147.2656 132.8906 147.6562 C132.8906 148.1875 132.625 148.5 132.0312 148.7656 L131.4062 149.0156 C130.6406 149.3125 130.3906 149.5469 130.3906 149.9375 C130.3906 150.1094 130.4531 150.3438 130.5781 150.8125 L130.7344 151.3438 L131.1094 151.3438 L131.0938 150.5312 C131.0938 150.0938 131.2031 149.9688 131.7812 149.7344 L132.2031 149.5625 C133.0312 149.2188 133.4531 148.6875 133.4531 147.8438 C133.4531 146.1562 131.6562 145.1875 130.5 145.0312 C130.1094 145.125 129.9062 145.2969 129.9062 145.6406 C129.9062 145.9375 130.0625 146.1562 130.7188 146.2656 L132.4688 146.5781 Z" style="fill:black; stroke:none;"
      /><rect x="112" width="5" height="10" y="156" style="stroke:none;"
      /><path d="M113.8906 164.6875 C113.4844 164.6875 113.1562 165.0469 113.1562 165.4219 C113.1562 165.8125 113.4844 166.1562 113.8906 166.1562 C114.2969 166.1562 114.6406 165.8125 114.6406 165.4219 C114.6406 165.0469 114.2969 164.6875 113.8906 164.6875 ZM115.4688 158.5781 C115.7188 158.8906 115.875 159.2656 115.8906 159.6562 C115.8906 160.1875 115.625 160.5 115.0312 160.7656 L114.4062 161.0156 C113.6406 161.3125 113.3906 161.5469 113.3906 161.9375 C113.3906 162.1094 113.4531 162.3438 113.5781 162.8125 L113.7344 163.3438 L114.1094 163.3438 L114.0938 162.5312 C114.0938 162.0938 114.2031 161.9688 114.7812 161.7344 L115.2031 161.5625 C116.0312 161.2188 116.4531 160.6875 116.4531 159.8438 C116.4531 158.1562 114.6562 157.1875 113.5 157.0312 C113.1094 157.125 112.9062 157.2969 112.9062 157.6406 C112.9062 157.9375 113.0625 158.1562 113.7188 158.2656 L115.4688 158.5781 Z" style="fill:black; stroke:none;"
      /><rect x="120" width="5" height="10" y="119" style="stroke:none;"
      /><path d="M121.8906 127.6875 C121.4844 127.6875 121.1562 128.0469 121.1562 128.4219 C121.1562 128.8125 121.4844 129.1562 121.8906 129.1562 C122.2969 129.1562 122.6406 128.8125 122.6406 128.4219 C122.6406 128.0469 122.2969 127.6875 121.8906 127.6875 ZM123.4688 121.5781 C123.7188 121.8906 123.875 122.2656 123.8906 122.6562 C123.8906 123.1875 123.625 123.5 123.0312 123.7656 L122.4062 124.0156 C121.6406 124.3125 121.3906 124.5469 121.3906 124.9375 C121.3906 125.1094 121.4531 125.3438 121.5781 125.8125 L121.7344 126.3438 L122.1094 126.3438 L122.0938 125.5312 C122.0938 125.0938 122.2031 124.9688 122.7812 124.7344 L123.2031 124.5625 C124.0312 124.2188 124.4531 123.6875 124.4531 122.8438 C124.4531 121.1562 122.6562 120.1875 121.5 120.0312 C121.1094 120.125 120.9062 120.2969 120.9062 120.6406 C120.9062 120.9375 121.0625 121.1562 121.7188 121.2656 L123.4688 121.5781 Z" style="fill:black; stroke:none;"
      /><rect x="103" width="5" height="10" y="106" style="stroke:none;"
      /><path d="M104.8906 114.6875 C104.4844 114.6875 104.1562 115.0469 104.1562 115.4219 C104.1562 115.8125 104.4844 116.1562 104.8906 116.1562 C105.2969 116.1562 105.6406 115.8125 105.6406 115.4219 C105.6406 115.0469 105.2969 114.6875 104.8906 114.6875 ZM106.4688 108.5781 C106.7188 108.8906 106.875 109.2656 106.8906 109.6562 C106.8906 110.1875 106.625 110.5 106.0312 110.7656 L105.4062 111.0156 C104.6406 111.3125 104.3906 111.5469 104.3906 111.9375 C104.3906 112.1094 104.4531 112.3438 104.5781 112.8125 L104.7344 113.3438 L105.1094 113.3438 L105.0938 112.5312 C105.0938 112.0938 105.2031 111.9688 105.7812 111.7344 L106.2031 111.5625 C107.0312 111.2188 107.4531 110.6875 107.4531 109.8438 C107.4531 108.1562 105.6562 107.1875 104.5 107.0312 C104.1094 107.125 103.9062 107.2969 103.9062 107.6406 C103.9062 107.9375 104.0625 108.1562 104.7188 108.2656 L106.4688 108.5781 Z" style="fill:black; stroke:none;"
    /></g
  ></g
></svg
>
