<?xml version="1.0"?>
<!DOCTYPE svg PUBLIC '-//W3C//DTD SVG 1.0//EN'
          'http://www.w3.org/TR/2001/REC-SVG-20010904/DTD/svg10.dtd'>
<svg xmlns:xlink="http://www.w3.org/1999/xlink" style="fill-opacity:1; color-rendering:auto; color-interpolation:auto; text-rendering:auto; stroke:black; stroke-linecap:square; stroke-miterlimit:10; shape-rendering:auto; stroke-opacity:1; fill:black; stroke-dasharray:none; font-weight:normal; stroke-width:1; font-family:'Dialog'; font-style:normal; stroke-linejoin:miter; font-size:12px; stroke-dashoffset:0; image-rendering:auto;" viewBox="0 0 238 120" xmlns="http://www.w3.org/2000/svg"
><!--Generated by the Batik Graphics2D SVG Generator--><defs id="genericDefs"
  /><g
  ><defs id="defs1"
    ><clipPath clipPathUnits="userSpaceOnUse" id="clipPath1"
      ><path style="fill-rule:evenodd;" d="M145 53 L155 60 L151 72 L138 72 L134 60 L145 53 Z"
      /></clipPath
      ><clipPath clipPathUnits="userSpaceOnUse" id="clipPath2"
      ><path d="M104 64 C104 70.0751 99.0751 75 93 75 C86.9249 75 82 70.0751 82 64 C82 57.9249 86.9249 53 93 53 C99.0751 53 104 57.9249 104 64 Z"
      /></clipPath
      ><clipPath clipPathUnits="userSpaceOnUse" id="clipPath3"
      ><path d="M52 64 C52 70.0751 47.0751 75 41 75 C34.9249 75 30 70.0751 30 64 C30 57.9249 34.9249 53 41 53 C47.0751 53 52 57.9249 52 64 Z"
      /></clipPath
    ></defs
    ><g style="fill:white; text-rendering:optimizeSpeed; stroke:white;"
    ><rect x="0" width="238" height="120" y="0" style="stroke:none;"
      /><polygon style="fill:none; stroke:black;" points=" 197 64 145 64"
      /><path d="M197 53 C191.5 58.5 202.5 69.5 197 75" style="fill:none; stroke:black;"
      /><polygon style="fill:none; stroke:black;" points=" 145 64 93 64"
      /><polygon style="clip-path:url(#clipPath1); stroke:none;" points=" 145 53 155 60 151 72 138 72 134 60 145 53"
      /><rect x="134" y="53" width="22" style="clip-path:url(#clipPath1); stroke:none;" height="22"
      /><rect x="134" y="53" width="22" style="clip-path:url(#clipPath1); fill:none; stroke:black;" height="22"
      /><polygon style="fill:none; stroke:black;" points=" 145 53 155 60 151 72 138 72 134 60 145 53"
    /></g
    ><g style="text-rendering:optimizeSpeed; font-size:14px; font-family:'SansSerif';"
    ><path style="stroke:none;" d="M143.2344 69 L148.8594 69 L148.8594 67.9375 L146.7969 67.9375 L146.7969 58.7188 L145.8281 58.7188 C145.2656 59.0625 144.6094 59.2969 143.6875 59.4688 L143.6875 60.2812 L145.5156 60.2812 L145.5156 67.9375 L143.2344 67.9375 L143.2344 69 Z"
      /><rect x="137" y="35" width="14" style="fill:white; stroke:none;" height="11"
      /><path style="stroke:none;" d="M138.6094 42.1562 L140.9531 38.6562 C141.2344 38.1406 141.5156 37.6406 141.7812 37.1406 L141.8281 37.1406 C141.7969 37.6719 141.7656 38.5 141.7656 39 L141.7656 42.1562 L138.6094 42.1562 ZM141.7656 46 L142.9688 46 L142.9688 43.1719 L144.3281 43.1719 L144.3281 42.1562 L142.9688 42.1562 L142.9688 35.7188 L141.5469 35.7188 L137.2812 42.3281 L137.2812 43.1719 L141.7656 43.1719 L141.7656 46 ZM148.645 46.1875 C149.5512 46.1875 150.3637 45.6875 150.9575 45.1094 L151.0043 45.1094 L151.1137 46 L152.145 46 L152.145 34.8594 L150.895 34.8594 L150.895 37.7812 L150.9418 39.0938 C150.27 38.5312 149.6918 38.2031 148.8012 38.2031 C147.0668 38.2031 145.5043 39.7344 145.5043 42.2031 C145.5043 44.7344 146.7387 46.1875 148.645 46.1875 ZM148.9262 45.125 C147.5825 45.125 146.8325 44.0312 146.8325 42.1875 C146.8325 40.4531 147.8012 39.2812 149.02 39.2812 C149.6606 39.2812 150.2231 39.5 150.895 40.0781 L150.895 44.0625 C150.2387 44.7656 149.6293 45.125 148.9262 45.125 Z"
      /><polygon style="fill:none;" points=" 93 64 41 64"
    /></g
    ><g style="fill:white; text-rendering:optimizeSpeed; stroke:white;"
    ><circle r="11" style="clip-path:url(#clipPath2); stroke:none;" cx="93" cy="64"
      /><rect x="82" y="53" width="22" style="clip-path:url(#clipPath2); fill:rgb(0,166,81); stroke:none;" height="22"
      /><rect x="82" y="53" width="22" style="clip-path:url(#clipPath2); fill:none; stroke:black;" height="22"
      /><circle r="11" style="fill:none; stroke:black;" cx="93" cy="64"
      /><circle r="11" style="clip-path:url(#clipPath3); stroke:none;" cx="41" cy="64"
      /><rect x="30" y="53" width="22" style="clip-path:url(#clipPath3); fill:rgb(0,166,81); stroke:none;" height="22"
      /><rect x="30" y="53" width="22" style="clip-path:url(#clipPath3); fill:none; stroke:black;" height="22"
      /><circle r="11" style="fill:none; stroke:black;" cx="41" cy="64"
      /><rect x="71" width="6" height="9" y="67" style="stroke:none;"
      /><path d="M72.4219 75.0938 C73.0781 74.375 73.7031 73.7188 74.0312 73.3438 C75.9219 71.3125 76.5312 70.4688 76.5312 69.3594 C76.5312 68.0156 75.7812 67.0781 74.1562 67.0781 C72.9062 67.0781 71.7969 67.7031 71.5938 68.9688 C71.7188 69.2031 71.9062 69.3438 72.1562 69.3438 C72.4688 69.3438 72.6562 69.1094 72.7969 68.5938 L73.0938 67.6719 C73.3906 67.5938 73.6562 67.5625 73.8906 67.5625 C74.9219 67.5625 75.5469 68.3125 75.5469 69.4219 C75.5469 70.4375 74.9844 71.4219 73.7031 72.9062 C73.125 73.5781 72.3906 74.4375 71.6406 75.2812 L71.6406 76 L76.9219 76 L76.9219 75.0938 L72.4219 75.0938 Z" style="fill:black; stroke:none;"
      /><rect x="57" width="6" height="13" y="65" style="stroke:none;"
      /><path d="M59.0938 71.2031 C59.0938 69.6562 59.75 68.8125 60.7969 68.8125 C61.7188 68.8125 62.2656 69.4531 62.2656 70.5156 C62.2656 71.7188 61.5 72.4375 60.1875 72.7031 L60.2969 73.3125 C62.2188 73.2344 62.9375 74.2188 62.9375 75.4375 C62.9375 76.625 62.2344 77.4219 60.9531 77.4219 C60.25 77.4219 59.6562 77.1562 59.0938 76.7188 L59.0938 71.2031 ZM58.2031 77.9062 L58.1094 80.375 L58.2656 80.4844 L59.1562 80.2656 L59.0156 77.0938 C59.5469 77.8438 60.3594 78.1719 61.1719 78.1719 C62.5625 78.1719 63.8594 77.2188 63.8594 75.4844 C63.8594 73.9531 62.875 73.1094 61.125 73 C62.5625 72.6094 63.1875 71.4531 63.1875 70.4844 C63.1875 69.0938 62.1562 68.3125 60.9062 68.3125 C59.2969 68.3125 58.2188 69.5469 58.2188 71.5156 L58.2031 77.9062 Z" style="fill:black; stroke:none;"
      /><rect x="123" width="6" height="9" y="67" style="stroke:none;"
      /><path d="M124.4219 75.0938 C125.0781 74.375 125.7031 73.7188 126.0312 73.3438 C127.9219 71.3125 128.5312 70.4688 128.5312 69.3594 C128.5312 68.0156 127.7812 67.0781 126.1562 67.0781 C124.9062 67.0781 123.7969 67.7031 123.5938 68.9688 C123.7188 69.2031 123.9062 69.3438 124.1562 69.3438 C124.4688 69.3438 124.6562 69.1094 124.7969 68.5938 L125.0938 67.6719 C125.3906 67.5938 125.6562 67.5625 125.8906 67.5625 C126.9219 67.5625 127.5469 68.3125 127.5469 69.4219 C127.5469 70.4375 126.9844 71.4219 125.7031 72.9062 C125.125 73.5781 124.3906 74.4375 123.6406 75.2812 L123.6406 76 L128.9219 76 L128.9219 75.0938 L124.4219 75.0938 Z" style="fill:black; stroke:none;"
      /><rect x="109" width="6" height="13" y="65" style="stroke:none;"
      /><path d="M111.0938 71.2031 C111.0938 69.6562 111.75 68.8125 112.7969 68.8125 C113.7188 68.8125 114.2656 69.4531 114.2656 70.5156 C114.2656 71.7188 113.5 72.4375 112.1875 72.7031 L112.2969 73.3125 C114.2188 73.2344 114.9375 74.2188 114.9375 75.4375 C114.9375 76.625 114.2344 77.4219 112.9531 77.4219 C112.25 77.4219 111.6562 77.1562 111.0938 76.7188 L111.0938 71.2031 ZM110.2031 77.9062 L110.1094 80.375 L110.2656 80.4844 L111.1562 80.2656 L111.0156 77.0938 C111.5469 77.8438 112.3594 78.1719 113.1719 78.1719 C114.5625 78.1719 115.8594 77.2188 115.8594 75.4844 C115.8594 73.9531 114.875 73.1094 113.125 73 C114.5625 72.6094 115.1875 71.4531 115.1875 70.4844 C115.1875 69.0938 114.1562 68.3125 112.9062 68.3125 C111.2969 68.3125 110.2188 69.5469 110.2188 71.5156 L110.2031 77.9062 Z" style="fill:black; stroke:none;"
      /><rect x="161" width="6" height="13" y="65" style="stroke:none;"
      /><path d="M163.0938 71.2031 C163.0938 69.6562 163.75 68.8125 164.7969 68.8125 C165.7188 68.8125 166.2656 69.4531 166.2656 70.5156 C166.2656 71.7188 165.5 72.4375 164.1875 72.7031 L164.2969 73.3125 C166.2188 73.2344 166.9375 74.2188 166.9375 75.4375 C166.9375 76.625 166.2344 77.4219 164.9531 77.4219 C164.25 77.4219 163.6562 77.1562 163.0938 76.7188 L163.0938 71.2031 ZM162.2031 77.9062 L162.1094 80.375 L162.2656 80.4844 L163.1562 80.2656 L163.0156 77.0938 C163.5469 77.8438 164.3594 78.1719 165.1719 78.1719 C166.5625 78.1719 167.8594 77.2188 167.8594 75.4844 C167.8594 73.9531 166.875 73.1094 165.125 73 C166.5625 72.6094 167.1875 71.4531 167.1875 70.4844 C167.1875 69.0938 166.1562 68.3125 164.9062 68.3125 C163.2969 68.3125 162.2188 69.5469 162.2188 71.5156 L162.2031 77.9062 Z" style="fill:black; stroke:none;"
    /></g
    ><g ID="legend-1:0" style="text-rendering:optimizeSpeed; font-size:10px; font-family:'SansSerif';"
    ><path style="stroke:none;" d="M30.875 90 L34.9062 90 L34.9062 89.2344 L33.4375 89.2344 L33.4375 82.6562 L32.7344 82.6562 C32.3281 82.9062 31.8594 83.0625 31.2031 83.1875 L31.2031 83.7656 L32.5156 83.7656 L32.5156 89.2344 L30.875 89.2344 L30.875 90 ZM35.925 85.4531 L40.7219 85.4531 L40.7219 84.7656 L35.925 84.7656 L35.925 85.4531 ZM35.925 87.8438 L40.7219 87.8438 L40.7219 87.1719 L35.925 87.1719 L35.925 87.8438 ZM41.9906 91.9844 L42.9125 91.9844 C42.8969 91.0781 42.8812 90.2188 42.85 89.2969 C43.4125 89.9219 44.1156 90.125 44.7875 90.125 C45.8969 90.125 46.9125 89.3125 46.9125 87.8438 C46.9125 86.7031 46.2562 85.8906 45.1625 85.7344 L45.1625 85.6875 C45.8656 85.2656 46.2562 84.6406 46.2562 83.8281 C46.2562 82.5312 45.2719 81.9062 44.225 81.9062 C42.6937 81.9062 41.9906 83.0156 41.9906 84.5156 L41.9906 91.9844 ZM44.5844 89.375 C44.0062 89.375 43.3812 89.1875 42.85 88.5156 C42.85 87.2031 42.8656 85.9375 42.8812 84.6406 C42.8969 83.3438 43.3969 82.6406 44.225 82.6406 C44.8344 82.6406 45.3656 83.0625 45.3656 83.9062 C45.3656 84.625 44.9281 85.4062 43.7875 85.625 L43.9125 86.3281 C44.1 86.2812 44.2875 86.2656 44.475 86.2656 C45.5062 86.2656 46.0062 86.9219 46.0062 87.7969 C46.0062 88.7812 45.3656 89.375 44.5844 89.375 ZM47.8631 87.5469 L50.4256 87.5469 L50.4256 86.8438 L47.8631 86.8438 L47.8631 87.5469 ZM52.0362 87.25 L53.6925 84.75 C53.9112 84.3906 54.1143 84.0312 54.2862 83.6719 L54.3331 83.6719 C54.3175 84.0469 54.2862 84.6406 54.2862 85 L54.2862 87.25 L52.0362 87.25 ZM54.2862 90 L55.1456 90 L55.1456 87.9844 L56.1143 87.9844 L56.1143 87.25 L55.1456 87.25 L55.1456 82.6562 L54.13 82.6562 L51.0831 87.375 L51.0831 87.9844 L54.2862 87.9844 L54.2862 90 ZM56.8831 87.5469 L59.4456 87.5469 L59.4456 86.8438 L56.8831 86.8438 L56.8831 87.5469 ZM62.6656 90.125 C63.3218 90.125 63.8843 89.7812 64.3218 89.3594 L64.3531 89.3594 L64.4312 90 L65.1656 90 L65.1656 82.0469 L64.275 82.0469 L64.275 84.125 L64.3062 85.0625 C63.8375 84.6719 63.4156 84.4375 62.775 84.4375 C61.5406 84.4375 60.4312 85.5312 60.4312 87.2969 C60.4312 89.0938 61.3062 90.125 62.6656 90.125 ZM62.8687 89.375 C61.9156 89.375 61.3687 88.5938 61.3687 87.2812 C61.3687 86.0469 62.0562 85.2031 62.9468 85.2031 C63.3843 85.2031 63.8062 85.3594 64.275 85.7656 L64.275 88.625 C63.8062 89.125 63.3687 89.375 62.8687 89.375 ZM69.2093 90.125 C69.9437 90.125 70.5375 89.875 71.0062 89.5625 L70.6781 88.9688 C70.2875 89.2344 69.85 89.4062 69.3187 89.4062 C68.2875 89.4062 67.5843 88.6562 67.5218 87.5 L71.1781 87.5 C71.1937 87.375 71.225 87.1875 71.225 86.9844 C71.225 85.4375 70.4437 84.4375 69.0531 84.4375 C67.8031 84.4375 66.6156 85.5312 66.6156 87.2969 C66.6156 89.0781 67.7718 90.125 69.2093 90.125 ZM67.5062 86.8438 C67.6156 85.7812 68.3031 85.1562 69.0687 85.1562 C69.9125 85.1562 70.4125 85.75 70.4125 86.8438 L67.5062 86.8438 ZM74.6712 90.125 C75.9993 90.125 77.1868 89.0938 77.1868 87.2969 C77.1868 85.4844 75.9993 84.4375 74.6712 84.4375 C73.3431 84.4375 72.1556 85.4844 72.1556 87.2969 C72.1556 89.0938 73.3431 90.125 74.6712 90.125 ZM74.6712 89.375 C73.7337 89.375 73.0931 88.5469 73.0931 87.2969 C73.0931 86.0469 73.7337 85.1875 74.6712 85.1875 C75.6087 85.1875 76.2493 86.0469 76.2493 87.2969 C76.2493 88.5469 75.6087 89.375 74.6712 89.375 ZM77.8562 90 L78.8093 90 L79.5437 88.7344 C79.7312 88.4062 79.9031 88.0625 80.1062 87.7656 L80.1531 87.7656 C80.3562 88.0625 80.5437 88.4062 80.7312 88.7344 L81.5281 90 L82.5281 90 L80.7468 87.2656 L82.3875 84.5625 L81.4343 84.5625 L80.7625 85.7656 C80.6062 86.0625 80.45 86.375 80.2781 86.6719 L80.2468 86.6719 C80.0593 86.375 79.8718 86.0625 79.7 85.7656 L78.9656 84.5625 L77.9968 84.5625 L79.6375 87.1719 L77.8562 90 ZM83.6956 92.3438 C84.7737 92.3438 85.3362 91.5156 85.7112 90.4531 L87.7581 84.5625 L86.8674 84.5625 L85.8987 87.5938 C85.7424 88.0625 85.5862 88.625 85.4456 89.1094 L85.3831 89.1094 C85.2268 88.625 85.0237 88.0625 84.8674 87.5938 L83.7581 84.5625 L82.8049 84.5625 L84.9924 90.0156 L84.8674 90.4219 C84.6487 91.0938 84.2581 91.5938 83.6331 91.5938 C83.4924 91.5938 83.3362 91.5469 83.2268 91.5 L83.0549 92.2344 C83.2268 92.2969 83.4299 92.3438 83.6956 92.3438 ZM88.3431 87.5469 L90.9056 87.5469 L90.9056 86.8438 L88.3431 86.8438 L88.3431 87.5469 ZM92.3599 90 L94.2349 90 C96.4537 90 97.6568 88.625 97.6568 86.3125 C97.6568 83.9844 96.4537 82.6562 94.2037 82.6562 L92.3599 82.6562 L92.3599 90 ZM93.2974 89.2344 L93.2974 83.4219 L94.1256 83.4219 C95.8443 83.4219 96.7037 84.4531 96.7037 86.3125 C96.7037 88.1562 95.8443 89.2344 94.1256 89.2344 L93.2974 89.2344 ZM98.6831 87.5469 L101.2456 87.5469 L101.2456 86.8438 L98.6831 86.8438 L98.6831 87.5469 ZM103.5749 90.125 C103.8249 90.125 103.9812 90.0938 104.1062 90.0469 L103.9812 89.3438 C103.8874 89.375 103.8406 89.375 103.7937 89.375 C103.6531 89.375 103.5281 89.2656 103.5281 88.9844 L103.5281 82.0469 L102.6218 82.0469 L102.6218 88.9219 C102.6218 89.6875 102.9031 90.125 103.5749 90.125 ZM105.5656 92.3438 C106.6437 92.3438 107.2062 91.5156 107.5812 90.4531 L109.6281 84.5625 L108.7374 84.5625 L107.7687 87.5938 C107.6124 88.0625 107.4562 88.625 107.3156 89.1094 L107.2531 89.1094 C107.0968 88.625 106.8937 88.0625 106.7374 87.5938 L105.6281 84.5625 L104.6749 84.5625 L106.8624 90.0156 L106.7374 90.4219 C106.5187 91.0938 106.1281 91.5938 105.5031 91.5938 C105.3624 91.5938 105.2062 91.5469 105.0968 91.5 L104.9249 92.2344 C105.0968 92.2969 105.2999 92.3438 105.5656 92.3438 ZM109.9162 90 L110.8693 90 L111.6037 88.7344 C111.7912 88.4062 111.963 88.0625 112.1662 87.7656 L112.213 87.7656 C112.4162 88.0625 112.6037 88.4062 112.7912 88.7344 L113.588 90 L114.588 90 L112.8068 87.2656 L114.4474 84.5625 L113.4943 84.5625 L112.8224 85.7656 C112.6662 86.0625 112.5099 86.375 112.338 86.6719 L112.3068 86.6719 C112.1193 86.375 111.9318 86.0625 111.7599 85.7656 L111.0255 84.5625 L110.0568 84.5625 L111.6974 87.1719 L109.9162 90 ZM115.7399 90 L116.6774 90 L116.6774 86.5469 L120.0837 86.5469 L120.0837 90 L121.0055 90 L121.0055 82.6562 L120.0837 82.6562 L120.0837 85.7344 L116.6774 85.7344 L116.6774 82.6562 L115.7399 82.6562 L115.7399 90 ZM125.1293 90.125 C125.8637 90.125 126.4574 89.875 126.9262 89.5625 L126.598 88.9688 C126.2074 89.2344 125.7699 89.4062 125.2387 89.4062 C124.2074 89.4062 123.5043 88.6562 123.4418 87.5 L127.098 87.5 C127.1137 87.375 127.1449 87.1875 127.1449 86.9844 C127.1449 85.4375 126.3637 84.4375 124.973 84.4375 C123.723 84.4375 122.5355 85.5312 122.5355 87.2969 C122.5355 89.0781 123.6918 90.125 125.1293 90.125 ZM123.4262 86.8438 C123.5355 85.7812 124.223 85.1562 124.9887 85.1562 C125.8324 85.1562 126.3324 85.75 126.3324 86.8438 L123.4262 86.8438 ZM127.7162 90 L128.6693 90 L129.4037 88.7344 C129.5912 88.4062 129.763 88.0625 129.9662 87.7656 L130.013 87.7656 C130.2162 88.0625 130.4037 88.4062 130.5912 88.7344 L131.388 90 L132.388 90 L130.6068 87.2656 L132.2474 84.5625 L131.2943 84.5625 L130.6224 85.7656 C130.4662 86.0625 130.3099 86.375 130.138 86.6719 L130.1068 86.6719 C129.9193 86.375 129.7318 86.0625 129.5599 85.7656 L128.8255 84.5625 L127.8568 84.5625 L129.4974 87.1719 L127.7162 90 ZM133.4618 92.2969 L134.368 92.2969 L134.368 90.4531 L134.3524 89.5 C134.8368 89.9062 135.3524 90.125 135.8524 90.125 C137.1024 90.125 138.2118 89.0625 138.2118 87.2031 C138.2118 85.5312 137.4462 84.4375 136.0555 84.4375 C135.4149 84.4375 134.8055 84.7969 134.3212 85.1875 L134.2899 85.1875 L134.2118 84.5625 L133.4618 84.5625 L133.4618 92.2969 ZM135.6962 89.375 C135.3368 89.375 134.8524 89.2188 134.368 88.7969 L134.368 85.9531 C134.8993 85.4531 135.368 85.2031 135.8368 85.2031 C136.8524 85.2031 137.2587 86.0156 137.2587 87.2031 C137.2587 88.5625 136.6024 89.375 135.6962 89.375 Z"
    /></g
  ></g
></svg
>
