<?xml version="1.0"?>
<!DOCTYPE svg PUBLIC '-//W3C//DTD SVG 1.0//EN'
          'http://www.w3.org/TR/2001/REC-SVG-20010904/DTD/svg10.dtd'>
<svg xmlns:xlink="http://www.w3.org/1999/xlink" style="fill-opacity:1; color-rendering:auto; color-interpolation:auto; text-rendering:auto; stroke:black; stroke-linecap:square; stroke-miterlimit:10; shape-rendering:auto; stroke-opacity:1; fill:black; stroke-dasharray:none; font-weight:normal; stroke-width:1; font-family:'Dialog'; font-style:normal; stroke-linejoin:miter; font-size:12px; stroke-dashoffset:0; image-rendering:auto;" viewBox="0 0 209 238" xmlns="http://www.w3.org/2000/svg"
><!--Generated by the Batik Graphics2D SVG Generator--><defs id="genericDefs"
  /><g
  ><defs id="defs1"
    ><clipPath clipPathUnits="userSpaceOnUse" id="clipPath1"
      ><path style="fill-rule:evenodd;" d="M124 82 L135 104 L113 104 Z"
      /></clipPath
      ><clipPath clipPathUnits="userSpaceOnUse" id="clipPath2"
      ><path d="M113 30 L135 30 L135 52 L113 52 L113 30 Z"
      /></clipPath
    ></defs
    ><g style="fill:white; text-rendering:optimizeSpeed; stroke:white;"
    ><rect x="0" width="209" height="238" y="0" style="stroke:none;"
      /><path d="M82 199 L58 199 ZM82 195 L58 195 Z" style="fill:none; stroke:black;"
      /><polygon style="fill:none; stroke:black;" points=" 82 197 75 145"
    /></g
    ><g style="font-family:'SansSerif'; font-size:11px; text-rendering:optimizeSpeed;"
    ><path style="stroke:none;" d="M42.9531 199.5625 L43.8438 199.5625 C43.6562 197.8438 45.625 197.1875 45.625 195.5781 C45.625 194.375 44.8125 193.625 43.5781 193.625 C42.6875 193.625 41.9844 194.0469 41.4688 194.625 L42.0469 195.1562 C42.4375 194.7188 42.9062 194.4531 43.4688 194.4531 C44.25 194.4531 44.6562 194.9844 44.6562 195.6406 C44.6562 196.9531 42.7031 197.6562 42.9531 199.5625 ZM43.4375 202.1406 C43.8438 202.1406 44.1719 201.8281 44.1719 201.3906 C44.1719 200.9219 43.8438 200.6094 43.4375 200.6094 C43.0312 200.6094 42.7031 200.9219 42.7031 201.3906 C42.7031 201.8281 43.0312 202.1406 43.4375 202.1406 ZM47.3077 202 L49.3858 202 C51.8077 202 53.1515 200.5 53.1515 197.9375 C53.1515 195.375 51.8077 193.9219 49.339 193.9219 L47.3077 193.9219 L47.3077 202 ZM48.339 201.1562 L48.339 194.7656 L49.2452 194.7656 C51.1515 194.7656 52.089 195.8906 52.089 197.9375 C52.089 199.9688 51.1515 201.1562 49.2452 201.1562 L48.339 201.1562 ZM54.2709 199.3125 L57.099 199.3125 L57.099 198.5312 L54.2709 198.5312 L54.2709 199.3125 ZM60.6191 204.75 C62.4629 204.75 63.6348 203.7969 63.6348 202.6875 C63.6348 201.7031 62.9316 201.2656 61.541 201.2656 L60.3848 201.2656 C59.5723 201.2656 59.3379 201 59.3379 200.6094 C59.3379 200.2812 59.4941 200.0938 59.7285 199.9062 C59.9785 200.0312 60.3223 200.1094 60.6191 200.1094 C61.8223 200.1094 62.791 199.3125 62.791 198.0312 C62.791 197.5156 62.5879 197.0781 62.3066 196.7969 L63.5254 196.7969 L63.5254 196.0312 L61.4473 196.0312 C61.2441 195.9531 60.9473 195.875 60.6191 195.875 C59.4004 195.875 58.3691 196.7031 58.3691 198 C58.3691 198.7188 58.7598 199.2969 59.1504 199.6094 L59.1504 199.6562 C58.8379 199.875 58.4785 200.2656 58.4785 200.7656 C58.4785 201.2344 58.7129 201.5625 59.0254 201.75 L59.0254 201.7969 C58.4629 202.1562 58.1504 202.6406 58.1504 203.1406 C58.1504 204.1719 59.1504 204.75 60.6191 204.75 ZM60.6191 199.4219 C59.916 199.4219 59.3379 198.875 59.3379 198 C59.3379 197.125 59.916 196.6094 60.6191 196.6094 C61.3223 196.6094 61.8848 197.1406 61.8848 198 C61.8848 198.875 61.291 199.4219 60.6191 199.4219 ZM60.7598 204.0625 C59.6816 204.0625 59.0254 203.6562 59.0254 203.0156 C59.0254 202.6562 59.1973 202.3125 59.6348 202 C59.9004 202.0625 60.1816 202.0938 60.4004 202.0938 L61.4316 202.0938 C62.2285 202.0938 62.666 202.2812 62.666 202.8438 C62.666 203.4688 61.9004 204.0625 60.7598 204.0625 ZM64.7964 202 L65.7964 202 L65.7964 198.1562 C66.1871 197.1406 66.8121 196.7812 67.2964 196.7812 C67.5464 196.7812 67.6871 196.8125 67.8902 196.8906 L68.0777 196 C67.8902 195.9062 67.7027 195.875 67.4371 195.875 C66.7652 195.875 66.1558 196.3594 65.7339 197.1094 L65.7027 197.1094 L65.6246 196.0312 L64.7964 196.0312 L64.7964 202 ZM71.3769 202.1406 C72.8457 202.1406 74.1582 201 74.1582 199.0156 C74.1582 197.0312 72.8457 195.875 71.3769 195.875 C69.9238 195.875 68.6113 197.0312 68.6113 199.0156 C68.6113 201 69.9238 202.1406 71.3769 202.1406 ZM71.3769 201.3125 C70.3457 201.3125 69.6582 200.3906 69.6582 199.0156 C69.6582 197.6406 70.3457 196.7031 71.3769 196.7031 C72.4082 196.7031 73.1269 197.6406 73.1269 199.0156 C73.1269 200.3906 72.4082 201.3125 71.3769 201.3125 ZM75.2148 199.3125 L78.0429 199.3125 L78.0429 198.5312 L75.2148 198.5312 L75.2148 199.3125 ZM79.6255 202 L81.7036 202 C84.1255 202 85.4692 200.5 85.4692 197.9375 C85.4692 195.375 84.1255 193.9219 81.6567 193.9219 L79.6255 193.9219 L79.6255 202 ZM80.6567 201.1562 L80.6567 194.7656 L81.563 194.7656 C83.4692 194.7656 84.4067 195.8906 84.4067 197.9375 C84.4067 199.9688 83.4692 201.1562 81.563 201.1562 L80.6567 201.1562 ZM86.5887 199.3125 L89.4168 199.3125 L89.4168 198.5312 L86.5887 198.5312 L86.5887 199.3125 ZM92.9369 204.75 C94.7806 204.75 95.9525 203.7969 95.9525 202.6875 C95.9525 201.7031 95.2494 201.2656 93.8588 201.2656 L92.7025 201.2656 C91.89 201.2656 91.6556 201 91.6556 200.6094 C91.6556 200.2812 91.8119 200.0938 92.0463 199.9062 C92.2963 200.0312 92.64 200.1094 92.9369 200.1094 C94.14 200.1094 95.1088 199.3125 95.1088 198.0312 C95.1088 197.5156 94.9056 197.0781 94.6244 196.7969 L95.8431 196.7969 L95.8431 196.0312 L93.765 196.0312 C93.5619 195.9531 93.265 195.875 92.9369 195.875 C91.7181 195.875 90.6869 196.7031 90.6869 198 C90.6869 198.7188 91.0775 199.2969 91.4681 199.6094 L91.4681 199.6562 C91.1556 199.875 90.7963 200.2656 90.7963 200.7656 C90.7963 201.2344 91.0306 201.5625 91.3431 201.75 L91.3431 201.7969 C90.7806 202.1562 90.4681 202.6406 90.4681 203.1406 C90.4681 204.1719 91.4681 204.75 92.9369 204.75 ZM92.9369 199.4219 C92.2338 199.4219 91.6556 198.875 91.6556 198 C91.6556 197.125 92.2338 196.6094 92.9369 196.6094 C93.64 196.6094 94.2025 197.1406 94.2025 198 C94.2025 198.875 93.6088 199.4219 92.9369 199.4219 ZM93.0775 204.0625 C91.9994 204.0625 91.3431 203.6562 91.3431 203.0156 C91.3431 202.6562 91.515 202.3125 91.9525 202 C92.2181 202.0625 92.4994 202.0938 92.7181 202.0938 L93.7494 202.0938 C94.5463 202.0938 94.9838 202.2812 94.9838 202.8438 C94.9838 203.4688 94.2181 204.0625 93.0775 204.0625 ZM98.1611 202.1406 C98.4423 202.1406 98.6142 202.1094 98.7548 202.0625 L98.6142 201.2812 C98.4892 201.3125 98.458 201.3125 98.3955 201.3125 C98.2392 201.3125 98.1142 201.1875 98.1142 200.875 L98.1142 193.25 L97.1142 193.25 L97.1142 200.8125 C97.1142 201.6562 97.4111 202.1406 98.1611 202.1406 ZM102.5929 202.1406 C103.3117 202.1406 103.9992 201.875 104.5304 201.3906 L104.0929 200.7188 C103.7179 201.0469 103.2336 201.3125 102.6867 201.3125 C101.5929 201.3125 100.8429 200.3906 100.8429 199.0156 C100.8429 197.6406 101.6242 196.7031 102.7179 196.7031 C103.1867 196.7031 103.5617 196.9219 103.9054 197.2344 L104.4211 196.5781 C103.9992 196.2031 103.4523 195.875 102.6711 195.875 C101.1398 195.875 99.7961 197.0312 99.7961 199.0156 C99.7961 201 101.0148 202.1406 102.5929 202.1406 ZM108.9106 202.1406 C110.9419 202.1406 112.3638 200.5312 112.3638 197.9375 C112.3638 195.3594 110.9419 193.7812 108.9106 193.7812 C106.895 193.7812 105.4731 195.3594 105.4731 197.9375 C105.4731 200.5312 106.895 202.1406 108.9106 202.1406 ZM108.9106 201.25 C107.4575 201.25 106.52 199.9531 106.52 197.9375 C106.52 195.9219 107.4575 194.6719 108.9106 194.6719 C110.3481 194.6719 111.3169 195.9219 111.3169 197.9375 C111.3169 199.9531 110.3481 201.25 108.9106 201.25 ZM116.3538 202.1406 C117.0726 202.1406 117.7601 201.875 118.2913 201.3906 L117.8538 200.7188 C117.4788 201.0469 116.9945 201.3125 116.4476 201.3125 C115.3538 201.3125 114.6038 200.3906 114.6038 199.0156 C114.6038 197.6406 115.3851 196.7031 116.4788 196.7031 C116.9476 196.7031 117.3226 196.9219 117.6663 197.2344 L118.182 196.5781 C117.7601 196.2031 117.2132 195.875 116.432 195.875 C114.9007 195.875 113.557 197.0312 113.557 199.0156 C113.557 201 114.7757 202.1406 116.3538 202.1406 ZM121.484 202.1406 C121.8434 202.1406 122.2497 202.0312 122.5934 201.9219 L122.3903 201.1719 C122.1872 201.25 121.9215 201.3281 121.7028 201.3281 C121.0153 201.3281 120.7809 200.9062 120.7809 200.1719 L120.7809 196.8438 L122.4059 196.8438 L122.4059 196.0312 L120.7809 196.0312 L120.7809 194.3438 L119.9528 194.3438 L119.8278 196.0312 L118.8903 196.0781 L118.8903 196.8438 L119.7809 196.8438 L119.7809 200.1562 C119.7809 201.3438 120.2028 202.1406 121.484 202.1406 Z"
      /><rect x="30" y="189" width="54" style="fill:white; stroke:none;" height="14"
      /><path style="stroke:none;" d="M33.1719 198.2656 C33.5469 197.0938 33.875 195.9844 34.2031 194.7812 L34.25 194.7812 C34.5938 195.9844 34.9062 197.0938 35.2969 198.2656 L35.7812 199.8281 L32.6719 199.8281 L33.1719 198.2656 ZM30.0469 204 L31.3594 204 L32.3594 200.8594 L36.1094 200.8594 L37.0781 204 L38.4531 204 L34.9688 193.7188 L33.5312 193.7188 L30.0469 204 ZM39.7792 204 L41.0605 204 L41.0605 198.4844 C41.8261 197.7188 42.3573 197.3281 43.1386 197.3281 C44.1542 197.3281 44.5917 197.9219 44.5917 199.3594 L44.5917 204 L45.8573 204 L45.8573 199.1875 C45.8573 197.2344 45.1386 196.2031 43.5448 196.2031 C42.498 196.2031 41.7167 196.7812 40.9823 197.4844 L40.9511 197.4844 L40.8417 196.3906 L39.7792 196.3906 L39.7792 204 ZM48.3332 204 L49.6144 204 L49.6144 198.4844 C50.3801 197.7188 50.9113 197.3281 51.6926 197.3281 C52.7082 197.3281 53.1457 197.9219 53.1457 199.3594 L53.1457 204 L54.4113 204 L54.4113 199.1875 C54.4113 197.2344 53.6926 196.2031 52.0988 196.2031 C51.0519 196.2031 50.2707 196.7812 49.5676 197.4688 L49.6144 195.9062 L49.6144 192.8594 L48.3332 192.8594 L48.3332 204 ZM56.9562 207.2812 C58.4718 207.2812 59.2687 206.125 59.7843 204.625 L62.6593 196.3906 L61.4093 196.3906 L60.0655 200.625 C59.8468 201.2969 59.628 202.0625 59.4093 202.75 L59.3468 202.75 C59.1124 202.0625 58.8468 201.2812 58.6124 200.625 L57.0655 196.3906 L55.7374 196.3906 L58.7843 204.0156 L58.6124 204.5938 C58.3155 205.5312 57.7687 206.2188 56.8937 206.2188 C56.6905 206.2188 56.4718 206.1562 56.3155 206.0938 L56.0655 207.125 C56.2999 207.2188 56.5968 207.2812 56.9562 207.2812 ZM66.7189 204.1875 C67.6251 204.1875 68.4376 203.6875 69.0314 203.1094 L69.0783 203.1094 L69.1876 204 L70.2189 204 L70.2189 192.8594 L68.9689 192.8594 L68.9689 195.7812 L69.0158 197.0938 C68.3439 196.5312 67.7658 196.2031 66.8751 196.2031 C65.1408 196.2031 63.5783 197.7344 63.5783 200.2031 C63.5783 202.7344 64.8126 204.1875 66.7189 204.1875 ZM67.0001 203.125 C65.6564 203.125 64.9064 202.0312 64.9064 200.1875 C64.9064 198.4531 65.8751 197.2812 67.0939 197.2812 C67.7345 197.2812 68.297 197.5 68.9689 198.0781 L68.9689 202.0625 C68.3126 202.7656 67.7033 203.125 67.0001 203.125 ZM72.8051 204 L74.0863 204 L74.0863 199.1094 C74.5863 197.8125 75.3676 197.3594 76.0082 197.3594 C76.3051 197.3594 76.4926 197.3906 76.7426 197.4844 L76.977 196.375 C76.7426 196.25 76.5082 196.2031 76.1645 196.2031 C75.3207 196.2031 74.5551 196.8125 74.0082 197.7812 L73.977 197.7812 L73.8676 196.3906 L72.8051 196.3906 L72.8051 204 ZM81.1902 204.1875 C83.0652 204.1875 84.7215 202.7188 84.7215 200.2031 C84.7215 197.6719 83.0652 196.2031 81.1902 196.2031 C79.3308 196.2031 77.6746 197.6719 77.6746 200.2031 C77.6746 202.7188 79.3308 204.1875 81.1902 204.1875 ZM81.1902 203.125 C79.8777 203.125 79.0027 201.9531 79.0027 200.2031 C79.0027 198.4531 79.8777 197.2656 81.1902 197.2656 C82.5183 197.2656 83.409 198.4531 83.409 200.2031 C83.409 201.9531 82.5183 203.125 81.1902 203.125 Z"
      /><rect x="71" y="139" width="6" style="fill:white; stroke:none;" height="11"
      /><path style="stroke:none;" d="M74.875 150.1875 C75.7812 150.1875 76.5938 149.6875 77.1875 149.1094 L77.2344 149.1094 L77.3438 150 L78.375 150 L78.375 138.8594 L77.125 138.8594 L77.125 141.7812 L77.1719 143.0938 C76.5 142.5312 75.9219 142.2031 75.0312 142.2031 C73.2969 142.2031 71.7344 143.7344 71.7344 146.2031 C71.7344 148.7344 72.9688 150.1875 74.875 150.1875 ZM75.1562 149.125 C73.8125 149.125 73.0625 148.0312 73.0625 146.1875 C73.0625 144.4531 74.0312 143.2812 75.25 143.2812 C75.8906 143.2812 76.4531 143.5 77.125 144.0781 L77.125 148.0625 C76.4688 148.7656 75.8594 149.125 75.1562 149.125 Z"
    /></g
    ><g style="fill:white; text-rendering:optimizeSpeed; font-family:'Serif'; stroke:white;"
    ><rect x="67" width="5" height="10" y="159" style="stroke:none;"
      /><path d="M68.8906 167.6875 C68.4844 167.6875 68.1562 168.0469 68.1562 168.4219 C68.1562 168.8125 68.4844 169.1562 68.8906 169.1562 C69.2969 169.1562 69.6406 168.8125 69.6406 168.4219 C69.6406 168.0469 69.2969 167.6875 68.8906 167.6875 ZM70.4688 161.5781 C70.7188 161.8906 70.875 162.2656 70.8906 162.6562 C70.8906 163.1875 70.625 163.5 70.0312 163.7656 L69.4062 164.0156 C68.6406 164.3125 68.3906 164.5469 68.3906 164.9375 C68.3906 165.1094 68.4531 165.3438 68.5781 165.8125 L68.7344 166.3438 L69.1094 166.3438 L69.0938 165.5312 C69.0938 165.0938 69.2031 164.9688 69.7812 164.7344 L70.2031 164.5625 C71.0312 164.2188 71.4531 163.6875 71.4531 162.8438 C71.4531 161.1562 69.6562 160.1875 68.5 160.0312 C68.1094 160.125 67.9062 160.2969 67.9062 160.6406 C67.9062 160.9375 68.0625 161.1562 68.7188 161.2656 L70.4688 161.5781 Z" style="fill:black; stroke:none;"
      /><polygon style="clip-path:url(#clipPath1); stroke:none;" points=" 124 82 135 104 113 104"
    /></g
    ><g style="fill:rgb(0,166,81); text-rendering:optimizeSpeed; stroke:rgb(0,166,81);"
    ><rect x="113" y="82" width="22" style="clip-path:url(#clipPath1); stroke:none;" height="22"
      /><rect x="113" y="82" width="22" style="clip-path:url(#clipPath1); fill:none; stroke:black;" height="22"
      /><polygon style="fill:none; stroke:black;" points=" 124 82 135 104 113 104"
    /></g
    ><g style="text-rendering:optimizeSpeed; font-size:10px; font-family:'SansSerif';"
    ><path style="stroke:none;" d="M122 96 L123.875 96 C126.0938 96 127.2969 94.625 127.2969 92.3125 C127.2969 89.9844 126.0938 88.6562 123.8438 88.6562 L122 88.6562 L122 96 ZM122.9375 95.2344 L122.9375 89.4219 L123.7656 89.4219 C125.4844 89.4219 126.3438 90.4531 126.3438 92.3125 C126.3438 94.1562 125.4844 95.2344 123.7656 95.2344 L122.9375 95.2344 Z"
    /></g
    ><g style="fill:white; text-rendering:optimizeSpeed; font-family:'Serif'; stroke:white;"
    ><rect x="140" width="5" height="10" y="80" style="stroke:none;"
      /><path d="M141.8906 88.6875 C141.4844 88.6875 141.1562 89.0469 141.1562 89.4219 C141.1562 89.8125 141.4844 90.1562 141.8906 90.1562 C142.2969 90.1562 142.6406 89.8125 142.6406 89.4219 C142.6406 89.0469 142.2969 88.6875 141.8906 88.6875 ZM143.4688 82.5781 C143.7188 82.8906 143.875 83.2656 143.8906 83.6562 C143.8906 84.1875 143.625 84.5 143.0312 84.7656 L142.4062 85.0156 C141.6406 85.3125 141.3906 85.5469 141.3906 85.9375 C141.3906 86.1094 141.4531 86.3438 141.5781 86.8125 L141.7344 87.3438 L142.1094 87.3438 L142.0938 86.5312 C142.0938 86.0938 142.2031 85.9688 142.7812 85.7344 L143.2031 85.5625 C144.0312 85.2188 144.4531 84.6875 144.4531 83.8438 C144.4531 82.1562 142.6562 81.1875 141.5 81.0312 C141.1094 81.125 140.9062 81.2969 140.9062 81.6406 C140.9062 81.9375 141.0625 82.1562 141.7188 82.2656 L143.4688 82.5781 Z" style="fill:black; stroke:none;"
      /><rect x="140" width="5" height="10" y="96" style="stroke:none;"
      /><path d="M141.8906 104.6875 C141.4844 104.6875 141.1562 105.0469 141.1562 105.4219 C141.1562 105.8125 141.4844 106.1562 141.8906 106.1562 C142.2969 106.1562 142.6406 105.8125 142.6406 105.4219 C142.6406 105.0469 142.2969 104.6875 141.8906 104.6875 ZM143.4688 98.5781 C143.7188 98.8906 143.875 99.2656 143.8906 99.6562 C143.8906 100.1875 143.625 100.5 143.0312 100.7656 L142.4062 101.0156 C141.6406 101.3125 141.3906 101.5469 141.3906 101.9375 C141.3906 102.1094 141.4531 102.3438 141.5781 102.8125 L141.7344 103.3438 L142.1094 103.3438 L142.0938 102.5312 C142.0938 102.0938 142.2031 101.9688 142.7812 101.7344 L143.2031 101.5625 C144.0312 101.2188 144.4531 100.6875 144.4531 99.8438 C144.4531 98.1562 142.6562 97.1875 141.5 97.0312 C141.1094 97.125 140.9062 97.2969 140.9062 97.6406 C140.9062 97.9375 141.0625 98.1562 141.7188 98.2656 L143.4688 98.5781 Z" style="fill:black; stroke:none;"
      /><rect x="113" y="30" width="22" style="clip-path:url(#clipPath2); stroke:none;" height="22"
      /><rect x="113" y="30" width="22" style="clip-path:url(#clipPath2); fill:rgb(0,144,188); stroke:none;" height="22"
      /><rect x="113" y="30" width="22" style="clip-path:url(#clipPath2); fill:none; stroke:black;" height="22"
      /><rect x="113" y="30" width="22" style="fill:none; stroke:black;" height="22"
      /><rect x="140" width="5" height="10" y="28" style="stroke:none;"
      /><path d="M141.8906 36.6875 C141.4844 36.6875 141.1562 37.0469 141.1562 37.4219 C141.1562 37.8125 141.4844 38.1562 141.8906 38.1562 C142.2969 38.1562 142.6406 37.8125 142.6406 37.4219 C142.6406 37.0469 142.2969 36.6875 141.8906 36.6875 ZM143.4688 30.5781 C143.7188 30.8906 143.875 31.2656 143.8906 31.6562 C143.8906 32.1875 143.625 32.5 143.0312 32.7656 L142.4062 33.0156 C141.6406 33.3125 141.3906 33.5469 141.3906 33.9375 C141.3906 34.1094 141.4531 34.3438 141.5781 34.8125 L141.7344 35.3438 L142.1094 35.3438 L142.0938 34.5312 C142.0938 34.0938 142.2031 33.9688 142.7812 33.7344 L143.2031 33.5625 C144.0312 33.2188 144.4531 32.6875 144.4531 31.8438 C144.4531 30.1562 142.6562 29.1875 141.5 29.0312 C141.1094 29.125 140.9062 29.2969 140.9062 29.6406 C140.9062 29.9375 141.0625 30.1562 141.7188 30.2656 L143.4688 30.5781 Z" style="fill:black; stroke:none;"
      /><rect x="140" width="5" height="10" y="44" style="stroke:none;"
      /><path d="M141.8906 52.6875 C141.4844 52.6875 141.1562 53.0469 141.1562 53.4219 C141.1562 53.8125 141.4844 54.1562 141.8906 54.1562 C142.2969 54.1562 142.6406 53.8125 142.6406 53.4219 C142.6406 53.0469 142.2969 52.6875 141.8906 52.6875 ZM143.4688 46.5781 C143.7188 46.8906 143.875 47.2656 143.8906 47.6562 C143.8906 48.1875 143.625 48.5 143.0312 48.7656 L142.4062 49.0156 C141.6406 49.3125 141.3906 49.5469 141.3906 49.9375 C141.3906 50.1094 141.4531 50.3438 141.5781 50.8125 L141.7344 51.3438 L142.1094 51.3438 L142.0938 50.5312 C142.0938 50.0938 142.2031 49.9688 142.7812 49.7344 L143.2031 49.5625 C144.0312 49.2188 144.4531 48.6875 144.4531 47.8438 C144.4531 46.1562 142.6562 45.1875 141.5 45.0312 C141.1094 45.125 140.9062 45.2969 140.9062 45.6406 C140.9062 45.9375 141.0625 46.1562 141.7188 46.2656 L143.4688 46.5781 Z" style="fill:black; stroke:none;"
    /></g
  ></g
></svg
>
