<?xml version="1.0"?>
<!DOCTYPE svg PUBLIC '-//W3C//DTD SVG 1.0//EN'
          'http://www.w3.org/TR/2001/REC-SVG-20010904/DTD/svg10.dtd'>
<svg xmlns:xlink="http://www.w3.org/1999/xlink" style="fill-opacity:1; color-rendering:auto; color-interpolation:auto; text-rendering:auto; stroke:black; stroke-linecap:square; stroke-miterlimit:10; shape-rendering:auto; stroke-opacity:1; fill:black; stroke-dasharray:none; font-weight:normal; stroke-width:1; font-family:'Dialog'; font-style:normal; stroke-linejoin:miter; font-size:12px; stroke-dashoffset:0; image-rendering:auto;" viewBox="0 0 238 128" xmlns="http://www.w3.org/2000/svg"
><!--Generated by the Batik Graphics2D SVG Generator--><defs id="genericDefs"
  /><g
  ><defs id="defs1"
    ><clipPath clipPathUnits="userSpaceOnUse" id="clipPath1"
      ><path style="fill-rule:evenodd;" d="M145 53 L147 60 L155 60 L148 65 L151 72 L145 68 L138 72 L141 65 L134 60 L142 60 L145 53 Z"
      /></clipPath
      ><clipPath clipPathUnits="userSpaceOnUse" id="clipPath2"
      ><path d="M82 53 L104 53 L104 75 L82 75 L82 53 Z"
      /></clipPath
      ><clipPath clipPathUnits="userSpaceOnUse" id="clipPath3"
      ><path style="fill-rule:evenodd;" d="M41 53 L52 64 L41 75 L30 64 Z"
      /></clipPath
    ></defs
    ><g style="fill:white; text-rendering:optimizeSpeed; stroke:white;"
    ><rect x="0" width="238" height="128" y="0" style="stroke:none;"
      /><polygon style="fill:none; stroke:black;" points=" 197 64 145 64"
      /><path d="M197 53 C191.5 58.5 202.5 69.5 197 75" style="fill:none; stroke:black;"
      /><polygon style="fill:none; stroke:black;" points=" 145 64 93 64"
      /><polygon style="clip-path:url(#clipPath1); stroke:none;" points=" 145 53 147 60 155 60 148 65 151 72 145 68 138 72 141 65 134 60 142 60 145 53"
      /><rect x="134" y="53" width="22" style="clip-path:url(#clipPath1); fill:rgb(0,166,81); stroke:none;" height="22"
      /><rect x="134" y="53" width="22" style="clip-path:url(#clipPath1); fill:none; stroke:black;" height="22"
      /><polygon style="fill:none; stroke:black;" points=" 145 53 147 60 155 60 148 65 151 72 145 68 138 72 141 65 134 60 142 60 145 53"
    /></g
    ><g style="text-rendering:optimizeSpeed; font-size:10px; font-family:'SansSerif';"
    ><path style="stroke:none;" d="M143 67 L144.875 67 C147.0938 67 148.2969 65.625 148.2969 63.3125 C148.2969 60.9844 147.0938 59.6562 144.8438 59.6562 L143 59.6562 L143 67 ZM143.9375 66.2344 L143.9375 60.4219 L144.7656 60.4219 C146.4844 60.4219 147.3438 61.4531 147.3438 63.3125 C147.3438 65.1562 146.4844 66.2344 144.7656 66.2344 L143.9375 66.2344 Z"
      /><rect x="138" y="81" width="13" style="fill:white; stroke:none;" height="10"
      /><path style="stroke:none;" d="M139.2344 92 L144.8594 92 L144.8594 90.9375 L142.7969 90.9375 L142.7969 81.7188 L141.8281 81.7188 C141.2656 82.0625 140.6094 82.2969 139.6875 82.4688 L139.6875 83.2812 L141.5156 83.2812 L141.5156 90.9375 L139.2344 90.9375 L139.2344 92 ZM148.8012 92.1875 C149.7387 92.1875 150.5981 91.6875 151.3325 91.0938 L151.3637 91.0938 L151.4887 92 L152.5356 92 L152.5356 87.3281 C152.5356 85.4531 151.7543 84.2031 149.895 84.2031 C148.6762 84.2031 147.5981 84.75 146.9106 85.2031 L147.4106 86.0781 C148.0043 85.6719 148.8012 85.2656 149.6918 85.2656 C150.9418 85.2656 151.2543 86.2031 151.2543 87.1875 C148.02 87.5469 146.5825 88.375 146.5825 90.0312 C146.5825 91.3906 147.5356 92.1875 148.8012 92.1875 ZM149.1762 91.1562 C148.4106 91.1562 147.8325 90.8125 147.8325 89.9375 C147.8325 88.9688 148.6918 88.3281 151.2543 88.0312 L151.2543 90.1562 C150.52 90.8125 149.9106 91.1562 149.1762 91.1562 Z"
      /><rect x="137" y="35" width="14" style="fill:white; stroke:none;" height="10"
      /><path style="stroke:none;" d="M140.6562 46.1875 C142.3906 46.1875 144.0156 44.9062 144.0156 42.6562 C144.0156 40.4062 142.625 39.3906 140.9219 39.3906 C140.2969 39.3906 139.8594 39.5469 139.3906 39.7969 L139.6406 36.8281 L143.5312 36.8281 L143.5312 35.7188 L138.5312 35.7188 L138.2031 40.5469 L138.8906 40.9531 C139.4844 40.5625 139.9062 40.3594 140.5938 40.3594 C141.8906 40.3594 142.7188 41.2188 142.7188 42.7031 C142.7188 44.1875 141.75 45.125 140.5469 45.125 C139.3594 45.125 138.6094 44.5781 138.0156 43.9844 L137.3906 44.8281 C138.0781 45.5156 139.0625 46.1875 140.6562 46.1875 ZM147.8012 46.1875 C148.7387 46.1875 149.5981 45.6875 150.3325 45.0938 L150.3637 45.0938 L150.4887 46 L151.5356 46 L151.5356 41.3281 C151.5356 39.4531 150.7543 38.2031 148.895 38.2031 C147.6762 38.2031 146.5981 38.75 145.9106 39.2031 L146.4106 40.0781 C147.0043 39.6719 147.8012 39.2656 148.6918 39.2656 C149.9418 39.2656 150.2543 40.2031 150.2543 41.1875 C147.02 41.5469 145.5825 42.375 145.5825 44.0312 C145.5825 45.3906 146.5356 46.1875 147.8012 46.1875 ZM148.1762 45.1562 C147.4106 45.1562 146.8325 44.8125 146.8325 43.9375 C146.8325 42.9688 147.6918 42.3281 150.2543 42.0312 L150.2543 44.1562 C149.52 44.8125 148.9106 45.1562 148.1762 45.1562 Z"
      /><polygon style="fill:none;" points=" 93 64 41 64"
    /></g
    ><g style="fill:white; text-rendering:optimizeSpeed; stroke:white;"
    ><rect x="82" y="53" width="22" style="clip-path:url(#clipPath2); stroke:none;" height="22"
      /><rect x="82" y="53" width="22" style="clip-path:url(#clipPath2); fill:rgb(0,144,188); stroke:none;" height="22"
      /><rect x="82" y="53" width="22" style="clip-path:url(#clipPath2); fill:none; stroke:black;" height="22"
      /><rect x="82" y="53" width="22" style="fill:none; stroke:black;" height="22"
      /><polygon style="clip-path:url(#clipPath3); stroke:none;" points=" 41 53 52 64 41 75 30 64"
      /><rect x="30" y="53" width="22" style="clip-path:url(#clipPath3); fill:rgb(0,144,188); stroke:none;" height="11"
      /><rect x="30" y="53" width="22" style="clip-path:url(#clipPath3); fill:none; stroke:black;" height="11"
      /><polygon style="fill:none; stroke:black;" points=" 41 53 52 64 41 75 30 64"
      /><rect x="71" width="6" height="10" y="67" style="stroke:none;"
      /><path d="M73.2344 68.6562 C73.5156 68.5938 73.7656 68.5625 74.0156 68.5625 C75.0625 68.5625 75.6719 69.1719 75.6719 70.2656 C75.6719 71.4375 74.9062 72.1094 73.7031 72.1094 L73.1875 72.1094 L73.1875 72.6406 L73.7969 72.6406 C75.2188 72.6406 75.9062 73.4219 75.9062 74.6406 C75.9062 75.8438 75.1719 76.6875 73.875 76.6875 C73.6094 76.6875 73.3125 76.6562 73.0156 76.5625 L72.7812 75.8125 C72.625 75.2812 72.5 75.0469 72.1406 75.0469 C71.8906 75.0469 71.7031 75.1719 71.5781 75.4219 C71.8438 76.6406 72.7812 77.1719 74.0312 77.1719 C75.7188 77.1719 76.875 76.125 76.875 74.7031 C76.875 73.5 76.2031 72.625 74.7969 72.375 C75.9531 72.0156 76.6094 71.2031 76.6094 70.2031 C76.6094 68.9219 75.6719 68.0781 74.1875 68.0781 C73.0469 68.0781 72.0625 68.5938 71.7969 69.6875 C71.9062 70 72.1094 70.1094 72.3594 70.1094 C72.7344 70.1094 72.8906 69.8906 73 69.4062 L73.2344 68.6562 Z" style="fill:black; stroke:none;"
      /><rect x="57" width="6" height="13" y="65" style="stroke:none;"
      /><path d="M59.0938 71.2031 C59.0938 69.6562 59.75 68.8125 60.7969 68.8125 C61.7188 68.8125 62.2656 69.4531 62.2656 70.5156 C62.2656 71.7188 61.5 72.4375 60.1875 72.7031 L60.2969 73.3125 C62.2188 73.2344 62.9375 74.2188 62.9375 75.4375 C62.9375 76.625 62.2344 77.4219 60.9531 77.4219 C60.25 77.4219 59.6562 77.1562 59.0938 76.7188 L59.0938 71.2031 ZM58.2031 77.9062 L58.1094 80.375 L58.2656 80.4844 L59.1562 80.2656 L59.0156 77.0938 C59.5469 77.8438 60.3594 78.1719 61.1719 78.1719 C62.5625 78.1719 63.8594 77.2188 63.8594 75.4844 C63.8594 73.9531 62.875 73.1094 61.125 73 C62.5625 72.6094 63.1875 71.4531 63.1875 70.4844 C63.1875 69.0938 62.1562 68.3125 60.9062 68.3125 C59.2969 68.3125 58.2188 69.5469 58.2188 71.5156 L58.2031 77.9062 Z" style="fill:black; stroke:none;"
      /><rect x="123" width="6" height="10" y="67" style="stroke:none;"
      /><path d="M125.2344 68.6562 C125.5156 68.5938 125.7656 68.5625 126.0156 68.5625 C127.0625 68.5625 127.6719 69.1719 127.6719 70.2656 C127.6719 71.4375 126.9062 72.1094 125.7031 72.1094 L125.1875 72.1094 L125.1875 72.6406 L125.7969 72.6406 C127.2188 72.6406 127.9062 73.4219 127.9062 74.6406 C127.9062 75.8438 127.1719 76.6875 125.875 76.6875 C125.6094 76.6875 125.3125 76.6562 125.0156 76.5625 L124.7812 75.8125 C124.625 75.2812 124.5 75.0469 124.1406 75.0469 C123.8906 75.0469 123.7031 75.1719 123.5781 75.4219 C123.8438 76.6406 124.7812 77.1719 126.0312 77.1719 C127.7188 77.1719 128.875 76.125 128.875 74.7031 C128.875 73.5 128.2031 72.625 126.7969 72.375 C127.9531 72.0156 128.6094 71.2031 128.6094 70.2031 C128.6094 68.9219 127.6719 68.0781 126.1875 68.0781 C125.0469 68.0781 124.0625 68.5938 123.7969 69.6875 C123.9062 70 124.1094 70.1094 124.3594 70.1094 C124.7344 70.1094 124.8906 69.8906 125 69.4062 L125.2344 68.6562 Z" style="fill:black; stroke:none;"
      /><rect x="109" width="6" height="13" y="65" style="stroke:none;"
      /><path d="M111.0938 71.2031 C111.0938 69.6562 111.75 68.8125 112.7969 68.8125 C113.7188 68.8125 114.2656 69.4531 114.2656 70.5156 C114.2656 71.7188 113.5 72.4375 112.1875 72.7031 L112.2969 73.3125 C114.2188 73.2344 114.9375 74.2188 114.9375 75.4375 C114.9375 76.625 114.2344 77.4219 112.9531 77.4219 C112.25 77.4219 111.6562 77.1562 111.0938 76.7188 L111.0938 71.2031 ZM110.2031 77.9062 L110.1094 80.375 L110.2656 80.4844 L111.1562 80.2656 L111.0156 77.0938 C111.5469 77.8438 112.3594 78.1719 113.1719 78.1719 C114.5625 78.1719 115.8594 77.2188 115.8594 75.4844 C115.8594 73.9531 114.875 73.1094 113.125 73 C114.5625 72.6094 115.1875 71.4531 115.1875 70.4844 C115.1875 69.0938 114.1562 68.3125 112.9062 68.3125 C111.2969 68.3125 110.2188 69.5469 110.2188 71.5156 L110.2031 77.9062 Z" style="fill:black; stroke:none;"
      /><rect x="161" width="5" height="10" y="67" style="stroke:none;"
      /><path d="M162.8906 75.6875 C162.4844 75.6875 162.1562 76.0469 162.1562 76.4219 C162.1562 76.8125 162.4844 77.1562 162.8906 77.1562 C163.2969 77.1562 163.6406 76.8125 163.6406 76.4219 C163.6406 76.0469 163.2969 75.6875 162.8906 75.6875 ZM164.4688 69.5781 C164.7188 69.8906 164.875 70.2656 164.8906 70.6562 C164.8906 71.1875 164.625 71.5 164.0312 71.7656 L163.4062 72.0156 C162.6406 72.3125 162.3906 72.5469 162.3906 72.9375 C162.3906 73.1094 162.4531 73.3438 162.5781 73.8125 L162.7344 74.3438 L163.1094 74.3438 L163.0938 73.5312 C163.0938 73.0938 163.2031 72.9688 163.7812 72.7344 L164.2031 72.5625 C165.0312 72.2188 165.4531 71.6875 165.4531 70.8438 C165.4531 69.1562 163.6562 68.1875 162.5 68.0312 C162.1094 68.125 161.9062 68.2969 161.9062 68.6406 C161.9062 68.9375 162.0625 69.1562 162.7188 69.2656 L164.4688 69.5781 Z" style="fill:black; stroke:none;"
    /></g
  ></g
></svg
>
