<?xml version="1.0"?>
<!DOCTYPE svg PUBLIC '-//W3C//DTD SVG 1.0//EN'
          'http://www.w3.org/TR/2001/REC-SVG-20010904/DTD/svg10.dtd'>
<svg xmlns:xlink="http://www.w3.org/1999/xlink" style="fill-opacity:1; color-rendering:auto; color-interpolation:auto; text-rendering:auto; stroke:black; stroke-linecap:square; stroke-miterlimit:10; shape-rendering:auto; stroke-opacity:1; fill:black; stroke-dasharray:none; font-weight:normal; stroke-width:1; font-family:'Dialog'; font-style:normal; stroke-linejoin:miter; font-size:12px; stroke-dashoffset:0; image-rendering:auto;" viewBox="0 0 313 157" xmlns="http://www.w3.org/2000/svg"
><!--Generated by the Batik Graphics2D SVG Generator--><defs id="genericDefs"
  /><g
  ><defs id="defs1"
    ><clipPath clipPathUnits="userSpaceOnUse" id="clipPath1"
      ><path d="M209 67 L231 67 L231 89 L209 89 L209 67 Z"
      /></clipPath
      ><clipPath clipPathUnits="userSpaceOnUse" id="clipPath2"
      ><path d="M145 105 L167 105 L167 127 L145 127 L145 105 Z"
      /></clipPath
      ><clipPath clipPathUnits="userSpaceOnUse" id="clipPath3"
      ><path d="M115 116 C115 122.0751 110.0751 127 104 127 C97.9249 127 93 122.0751 93 116 C93 109.9249 97.9249 105 104 105 C110.0751 105 115 109.9249 115 116 Z"
      /></clipPath
      ><clipPath clipPathUnits="userSpaceOnUse" id="clipPath4"
      ><path style="fill-rule:evenodd;" d="M52 105 L63 116 L52 127 L41 116 Z"
      /></clipPath
      ><clipPath clipPathUnits="userSpaceOnUse" id="clipPath5"
      ><path style="fill-rule:evenodd;" d="M156 30 L166 37 L162 49 L149 49 L145 37 L156 30 Z"
      /></clipPath
      ><clipPath clipPathUnits="userSpaceOnUse" id="clipPath6"
      ><path style="fill-rule:evenodd;" d="M93 30 L104 41 L93 52 L82 41 Z"
      /></clipPath
      ><clipPath clipPathUnits="userSpaceOnUse" id="clipPath7"
      ><path style="fill-rule:evenodd;" d="M41 30 L52 41 L41 52 L30 41 Z"
      /></clipPath
    ></defs
    ><g style="fill:white; text-rendering:optimizeSpeed; stroke:white;"
    ><rect x="0" width="313" height="157" y="0" style="stroke:none;"
      /><polygon style="fill:none; stroke:black;" points=" 272 78 220 78"
      /><path d="M272 67 C266.5 72.5 277.5 83.5 272 89" style="fill:none; stroke:black;"
      /><polygon style="fill:none; stroke:black;" points=" 220 78 156 116"
      /><polygon style="fill:none; stroke:black;" points=" 220 78 156 41"
      /><rect x="209" y="67" width="22" style="clip-path:url(#clipPath1); stroke:none;" height="22"
      /><rect x="209" y="67" width="22" style="clip-path:url(#clipPath1); fill:rgb(255,212,0); stroke:none;" height="22"
      /><rect x="209" y="67" width="22" style="clip-path:url(#clipPath1); fill:none; stroke:black;" height="22"
      /><rect x="209" y="67" width="22" style="fill:none; stroke:black;" height="22"
      /><polygon style="fill:none; stroke:black;" points=" 156 116 104 116"
      /><rect x="145" y="105" width="22" style="clip-path:url(#clipPath2); stroke:none;" height="22"
      /><rect x="145" y="105" width="22" style="clip-path:url(#clipPath2); fill:rgb(255,212,0); stroke:none;" height="22"
      /><rect x="145" y="105" width="22" style="clip-path:url(#clipPath2); fill:none; stroke:black;" height="22"
      /><rect x="145" y="105" width="22" style="fill:none; stroke:black;" height="22"
      /><polygon style="fill:none; stroke:black;" points=" 104 116 52 116"
      /><circle style="clip-path:url(#clipPath3); stroke:none;" r="11" cx="104" cy="116"
      /><rect x="93" y="105" width="22" style="clip-path:url(#clipPath3); fill:rgb(255,212,0); stroke:none;" height="22"
      /><rect x="93" y="105" width="22" style="clip-path:url(#clipPath3); fill:none; stroke:black;" height="22"
      /><circle style="fill:none; stroke:black;" r="11" cx="104" cy="116"
      /><polygon style="clip-path:url(#clipPath4); stroke:none;" points=" 52 105 63 116 52 127 41 116"
      /><rect x="41" y="105" width="22" style="clip-path:url(#clipPath4); fill:rgb(0,166,81); stroke:none;" height="22"
      /><rect x="41" y="105" width="22" style="clip-path:url(#clipPath4); fill:none; stroke:black;" height="22"
      /><polygon style="fill:none; stroke:black;" points=" 52 105 63 116 52 127 41 116"
      /><rect x="82" y="119" width="6" style="stroke:none;" height="10"
    /></g
    ><g style="font-family:'Serif'; text-rendering:optimizeSpeed; "
    ><path style="stroke:none;" d="M84.2344 120.6562 C84.5156 120.5938 84.7656 120.5625 85.0156 120.5625 C86.0625 120.5625 86.6719 121.1719 86.6719 122.2656 C86.6719 123.4375 85.9062 124.1094 84.7031 124.1094 L84.1875 124.1094 L84.1875 124.6406 L84.7969 124.6406 C86.2188 124.6406 86.9062 125.4219 86.9062 126.6406 C86.9062 127.8438 86.1719 128.6875 84.875 128.6875 C84.6094 128.6875 84.3125 128.6562 84.0156 128.5625 L83.7812 127.8125 C83.625 127.2812 83.5 127.0469 83.1406 127.0469 C82.8906 127.0469 82.7031 127.1719 82.5781 127.4219 C82.8438 128.6406 83.7812 129.1719 85.0312 129.1719 C86.7188 129.1719 87.875 128.125 87.875 126.7031 C87.875 125.5 87.2031 124.625 85.7969 124.375 C86.9531 124.0156 87.6094 123.2031 87.6094 122.2031 C87.6094 120.9219 86.6719 120.0781 85.1875 120.0781 C84.0469 120.0781 83.0625 120.5938 82.7969 121.6875 C82.9062 122 83.1094 122.1094 83.3594 122.1094 C83.7344 122.1094 83.8906 121.8906 84 121.4062 L84.2344 120.6562 Z"
      /><rect x="67" y="120" width="8" style="fill:white; stroke:none;" height="8"
      /><path style="stroke:none;" d="M71.9844 125.7031 C71.9375 126.8906 71.1562 127.6562 70.3125 127.6562 C69.2656 127.6562 68.5 126.6875 68.5 124.7188 C68.5 123.2812 69.1562 122.1562 70.3438 122.1562 C71.1406 122.1562 71.7812 122.6875 72.0938 123.6406 L71.9844 125.7031 ZM73.9062 127.2812 C73.7344 127.375 73.5469 127.4219 73.3438 127.4219 C72.9531 127.4219 72.75 127.2188 72.75 126.4219 C72.75 125.4844 72.9688 123.5312 73.1875 121.8281 L73.0312 121.7188 L72.2344 121.9219 L72.1406 122.7969 C71.7812 122.0312 71.1562 121.6562 70.3906 121.6562 C69.0469 121.6562 67.5625 122.8438 67.5625 124.9531 C67.5625 127.0938 68.7188 128.1719 70.1406 128.1719 C71.0156 128.1719 71.6875 127.8125 72.0938 126.9844 C72.2031 127.8594 72.5156 128.1719 73.0156 128.1719 C73.4688 128.1719 73.7969 127.9062 74.0156 127.5625 L73.9062 127.2812 Z"
      /><rect x="134" y="119" width="6" style="fill:white; stroke:none;" height="10"
      /><path style="stroke:none;" d="M136.2344 120.6562 C136.5156 120.5938 136.7656 120.5625 137.0156 120.5625 C138.0625 120.5625 138.6719 121.1719 138.6719 122.2656 C138.6719 123.4375 137.9062 124.1094 136.7031 124.1094 L136.1875 124.1094 L136.1875 124.6406 L136.7969 124.6406 C138.2188 124.6406 138.9062 125.4219 138.9062 126.6406 C138.9062 127.8438 138.1719 128.6875 136.875 128.6875 C136.6094 128.6875 136.3125 128.6562 136.0156 128.5625 L135.7812 127.8125 C135.625 127.2812 135.5 127.0469 135.1406 127.0469 C134.8906 127.0469 134.7031 127.1719 134.5781 127.4219 C134.8438 128.6406 135.7812 129.1719 137.0312 129.1719 C138.7188 129.1719 139.875 128.125 139.875 126.7031 C139.875 125.5 139.2031 124.625 137.7969 124.375 C138.9531 124.0156 139.6094 123.2031 139.6094 122.2031 C139.6094 120.9219 138.6719 120.0781 137.1875 120.0781 C136.0469 120.0781 135.0625 120.5938 134.7969 121.6875 C134.9062 122 135.1094 122.1094 135.3594 122.1094 C135.7344 122.1094 135.8906 121.8906 136 121.4062 L136.2344 120.6562 Z"
      /><rect x="120" y="117" width="6" style="fill:white; stroke:none;" height="13"
      /><path style="stroke:none;" d="M122.0938 123.2031 C122.0938 121.6562 122.75 120.8125 123.7969 120.8125 C124.7188 120.8125 125.2656 121.4531 125.2656 122.5156 C125.2656 123.7188 124.5 124.4375 123.1875 124.7031 L123.2969 125.3125 C125.2188 125.2344 125.9375 126.2188 125.9375 127.4375 C125.9375 128.625 125.2344 129.4219 123.9531 129.4219 C123.25 129.4219 122.6562 129.1562 122.0938 128.7188 L122.0938 123.2031 ZM121.2031 129.9062 L121.1094 132.375 L121.2656 132.4844 L122.1562 132.2656 L122.0156 129.0938 C122.5469 129.8438 123.3594 130.1719 124.1719 130.1719 C125.5625 130.1719 126.8594 129.2188 126.8594 127.4844 C126.8594 125.9531 125.875 125.1094 124.125 125 C125.5625 124.6094 126.1875 123.4531 126.1875 122.4844 C126.1875 121.0938 125.1562 120.3125 123.9062 120.3125 C122.2969 120.3125 121.2188 121.5469 121.2188 123.5156 L121.2031 129.9062 Z"
      /><polygon style="fill:none;" points=" 156 41 93 41"
      /><polygon style="fill:white; clip-path:url(#clipPath5); stroke:none;" points=" 156 30 166 37 162 49 149 49 145 37 156 30"
      /><rect x="145" y="30" width="22" style="clip-path:url(#clipPath5); fill:white; stroke:none;" height="22"
      /><rect x="145" y="30" width="22" style="fill:none; clip-path:url(#clipPath5);" height="22"
      /><polygon style="fill:none;" points=" 156 30 166 37 162 49 149 49 145 37 156 30"
      /><path style="stroke:none;" d="M154.2344 46 L159.8594 46 L159.8594 44.9375 L157.7969 44.9375 L157.7969 35.7188 L156.8281 35.7188 C156.2656 36.0625 155.6094 36.2969 154.6875 36.4688 L154.6875 37.2812 L156.5156 37.2812 L156.5156 44.9375 L154.2344 44.9375 L154.2344 46 Z"
    /></g
    ><g style="fill:white; text-rendering:optimizeSpeed; font-size:14px; font-family:'SansSerif'; stroke:white;"
    ><rect x="161" width="13" height="10" y="58" style="stroke:none;"
      /><path d="M162.2344 69 L167.8594 69 L167.8594 67.9375 L165.7969 67.9375 L165.7969 58.7188 L164.8281 58.7188 C164.2656 59.0625 163.6094 59.2969 162.6875 59.4688 L162.6875 60.2812 L164.5156 60.2812 L164.5156 67.9375 L162.2344 67.9375 L162.2344 69 ZM171.8012 69.1875 C172.7387 69.1875 173.5981 68.6875 174.3325 68.0938 L174.3637 68.0938 L174.4887 69 L175.5356 69 L175.5356 64.3281 C175.5356 62.4531 174.7543 61.2031 172.895 61.2031 C171.6762 61.2031 170.5981 61.75 169.9106 62.2031 L170.4106 63.0781 C171.0043 62.6719 171.8012 62.2656 172.6918 62.2656 C173.9418 62.2656 174.2543 63.2031 174.2543 64.1875 C171.02 64.5469 169.5825 65.375 169.5825 67.0312 C169.5825 68.3906 170.5356 69.1875 171.8012 69.1875 ZM172.1762 68.1562 C171.4106 68.1562 170.8325 67.8125 170.8325 66.9375 C170.8325 65.9688 171.6918 65.3281 174.2543 65.0312 L174.2543 67.1562 C173.52 67.8125 172.9106 68.1562 172.1762 68.1562 Z" style="fill:black; stroke:none;"
      /><rect x="137" width="14" height="11" y="58" style="stroke:none;"
      /><path d="M140.7031 69.1875 C142.5156 69.1875 143.9844 68.0938 143.9844 66.25 C143.9844 64.8594 143.0156 63.9375 141.8125 63.6562 L141.8125 63.5938 C142.8906 63.1875 143.6406 62.3594 143.6406 61.125 C143.6406 59.5 142.375 58.5469 140.6562 58.5469 C139.4688 58.5469 138.5469 59.0625 137.7812 59.7812 L138.4688 60.5938 C139.0469 60 139.7656 59.5938 140.5938 59.5938 C141.6562 59.5938 142.3281 60.2344 142.3281 61.2188 C142.3281 62.3281 141.6094 63.1719 139.4844 63.1719 L139.4844 64.1562 C141.8594 64.1562 142.6875 64.9844 142.6875 66.2031 C142.6875 67.3906 141.8125 68.125 140.5938 68.125 C139.4375 68.125 138.6562 67.5781 138.0469 66.9375 L137.4062 67.7812 C138.0781 68.5156 139.0938 69.1875 140.7031 69.1875 ZM148.645 69.1875 C149.5512 69.1875 150.3637 68.6875 150.9575 68.1094 L151.0043 68.1094 L151.1137 69 L152.145 69 L152.145 57.8594 L150.895 57.8594 L150.895 60.7812 L150.9418 62.0938 C150.27 61.5312 149.6918 61.2031 148.8012 61.2031 C147.0668 61.2031 145.5043 62.7344 145.5043 65.2031 C145.5043 67.7344 146.7387 69.1875 148.645 69.1875 ZM148.9262 68.125 C147.5825 68.125 146.8325 67.0312 146.8325 65.1875 C146.8325 63.4531 147.8012 62.2812 149.02 62.2812 C149.6606 62.2812 150.2231 62.5 150.895 63.0781 L150.895 67.0625 C150.2387 67.7656 149.6293 68.125 148.9262 68.125 Z" style="fill:black; stroke:none;"
    /></g
    ><g style="text-rendering:optimizeSpeed; "
    ><polygon style="fill:none;" points=" 93 41 41 41"
      /><polygon style="fill:white; clip-path:url(#clipPath6); stroke:none;" points=" 93 30 104 41 93 52 82 41"
      /><rect x="82" y="30" width="22" style="clip-path:url(#clipPath6); fill:rgb(0,166,81); stroke:none;" height="22"
      /><rect x="82" y="30" width="22" style="fill:none; clip-path:url(#clipPath6);" height="22"
      /><polygon style="fill:none;" points=" 93 30 104 41 93 52 82 41"
      /><polygon style="fill:white; clip-path:url(#clipPath7); stroke:none;" points=" 41 30 52 41 41 52 30 41"
      /><rect x="30" y="30" width="22" style="clip-path:url(#clipPath7); fill:rgb(0,166,81); stroke:none;" height="22"
      /><rect x="30" y="30" width="22" style="fill:none; clip-path:url(#clipPath7);" height="22"
      /><polygon style="fill:none;" points=" 41 30 52 41 41 52 30 41"
      /><rect x="71" y="44" width="6" style="fill:white; stroke:none;" height="10"
      /><path style="stroke:none;" d="M74.2656 53.7031 C73.2031 53.7031 72.5 52.9688 72.5 51.9062 C72.5 50.9688 72.9375 50.4219 73.9062 49.8438 C75.4688 50.5625 75.9531 51.1719 75.9531 52.0156 C75.9531 53 75.2969 53.7031 74.2656 53.7031 ZM72.75 47.0469 C72.75 46.1094 73.4531 45.5625 74.2344 45.5625 C75.1562 45.5625 75.6562 46.2656 75.6562 47.0938 C75.6562 47.9688 75.3281 48.5469 74.4688 49.1562 C73.0938 48.5156 72.75 47.7969 72.75 47.0469 ZM74.8594 49.3438 C76.0938 48.6562 76.4531 47.8125 76.4531 47.0938 C76.4531 45.9219 75.6094 45.0781 74.2656 45.0781 C72.9375 45.0781 71.8906 45.9062 71.8906 47.2031 C71.8906 48.2031 72.375 49.0469 73.5156 49.6562 C72.2656 50.2812 71.5938 51 71.5938 52.0156 C71.5938 53.3906 72.6562 54.1719 74.2344 54.1719 C75.75 54.1719 76.875 53.25 76.875 51.8906 C76.875 50.7344 76.2656 50 74.8594 49.3438 Z"
      /><rect x="56" y="45" width="8" style="fill:white; stroke:none;" height="8"
      /><path style="stroke:none;" d="M60.9844 50.7031 C60.9375 51.8906 60.1562 52.6562 59.3125 52.6562 C58.2656 52.6562 57.5 51.6875 57.5 49.7188 C57.5 48.2812 58.1562 47.1562 59.3438 47.1562 C60.1406 47.1562 60.7812 47.6875 61.0938 48.6406 L60.9844 50.7031 ZM62.9062 52.2812 C62.7344 52.375 62.5469 52.4219 62.3438 52.4219 C61.9531 52.4219 61.75 52.2188 61.75 51.4219 C61.75 50.4844 61.9688 48.5312 62.1875 46.8281 L62.0312 46.7188 L61.2344 46.9219 L61.1406 47.7969 C60.7812 47.0312 60.1562 46.6562 59.3906 46.6562 C58.0469 46.6562 56.5625 47.8438 56.5625 49.9531 C56.5625 52.0938 57.7188 53.1719 59.1406 53.1719 C60.0156 53.1719 60.6875 52.8125 61.0938 51.9844 C61.2031 52.8594 61.5156 53.1719 62.0156 53.1719 C62.4688 53.1719 62.7969 52.9062 63.0156 52.5625 L62.9062 52.2812 Z"
      /><rect x="123" y="44" width="6" style="fill:white; stroke:none;" height="10"
      /><path style="stroke:none;" d="M126.2656 53.7031 C125.2031 53.7031 124.5 52.9688 124.5 51.9062 C124.5 50.9688 124.9375 50.4219 125.9062 49.8438 C127.4688 50.5625 127.9531 51.1719 127.9531 52.0156 C127.9531 53 127.2969 53.7031 126.2656 53.7031 ZM124.75 47.0469 C124.75 46.1094 125.4531 45.5625 126.2344 45.5625 C127.1562 45.5625 127.6562 46.2656 127.6562 47.0938 C127.6562 47.9688 127.3281 48.5469 126.4688 49.1562 C125.0938 48.5156 124.75 47.7969 124.75 47.0469 ZM126.8594 49.3438 C128.0938 48.6562 128.4531 47.8125 128.4531 47.0938 C128.4531 45.9219 127.6094 45.0781 126.2656 45.0781 C124.9375 45.0781 123.8906 45.9062 123.8906 47.2031 C123.8906 48.2031 124.375 49.0469 125.5156 49.6562 C124.2656 50.2812 123.5938 51 123.5938 52.0156 C123.5938 53.3906 124.6562 54.1719 126.2344 54.1719 C127.75 54.1719 128.875 53.25 128.875 51.8906 C128.875 50.7344 128.2656 50 126.8594 49.3438 Z"
      /><rect x="108" y="45" width="8" style="fill:white; stroke:none;" height="8"
      /><path style="stroke:none;" d="M112.9844 50.7031 C112.9375 51.8906 112.1562 52.6562 111.3125 52.6562 C110.2656 52.6562 109.5 51.6875 109.5 49.7188 C109.5 48.2812 110.1562 47.1562 111.3438 47.1562 C112.1406 47.1562 112.7812 47.6875 113.0938 48.6406 L112.9844 50.7031 ZM114.9062 52.2812 C114.7344 52.375 114.5469 52.4219 114.3438 52.4219 C113.9531 52.4219 113.75 52.2188 113.75 51.4219 C113.75 50.4844 113.9688 48.5312 114.1875 46.8281 L114.0312 46.7188 L113.2344 46.9219 L113.1406 47.7969 C112.7812 47.0312 112.1562 46.6562 111.3906 46.6562 C110.0469 46.6562 108.5625 47.8438 108.5625 49.9531 C108.5625 52.0938 109.7188 53.1719 111.1406 53.1719 C112.0156 53.1719 112.6875 52.8125 113.0938 51.9844 C113.2031 52.8594 113.5156 53.1719 114.0156 53.1719 C114.4688 53.1719 114.7969 52.9062 115.0156 52.5625 L114.9062 52.2812 Z"
      /><rect x="203" y="90" width="6" style="fill:white; stroke:none;" height="10"
      /><path style="stroke:none;" d="M205.2344 91.6562 C205.5156 91.5938 205.7656 91.5625 206.0156 91.5625 C207.0625 91.5625 207.6719 92.1719 207.6719 93.2656 C207.6719 94.4375 206.9062 95.1094 205.7031 95.1094 L205.1875 95.1094 L205.1875 95.6406 L205.7969 95.6406 C207.2188 95.6406 207.9062 96.4219 207.9062 97.6406 C207.9062 98.8438 207.1719 99.6875 205.875 99.6875 C205.6094 99.6875 205.3125 99.6562 205.0156 99.5625 L204.7812 98.8125 C204.625 98.2812 204.5 98.0469 204.1406 98.0469 C203.8906 98.0469 203.7031 98.1719 203.5781 98.4219 C203.8438 99.6406 204.7812 100.1719 206.0312 100.1719 C207.7188 100.1719 208.875 99.125 208.875 97.7031 C208.875 96.5 208.2031 95.625 206.7969 95.375 C207.9531 95.0156 208.6094 94.2031 208.6094 93.2031 C208.6094 91.9219 207.6719 91.0781 206.1875 91.0781 C205.0469 91.0781 204.0625 91.5938 203.7969 92.6875 C203.9062 93 204.1094 93.1094 204.3594 93.1094 C204.7344 93.1094 204.8906 92.8906 205 92.4062 L205.2344 91.6562 Z"
      /><rect x="173" y="108" width="8" style="fill:white; stroke:none;" height="8"
      /><path style="stroke:none;" d="M177.9844 113.7031 C177.9375 114.8906 177.1562 115.6562 176.3125 115.6562 C175.2656 115.6562 174.5 114.6875 174.5 112.7188 C174.5 111.2812 175.1562 110.1562 176.3438 110.1562 C177.1406 110.1562 177.7812 110.6875 178.0938 111.6406 L177.9844 113.7031 ZM179.9062 115.2812 C179.7344 115.375 179.5469 115.4219 179.3438 115.4219 C178.9531 115.4219 178.75 115.2188 178.75 114.4219 C178.75 113.4844 178.9688 111.5312 179.1875 109.8281 L179.0312 109.7188 L178.2344 109.9219 L178.1406 110.7969 C177.7812 110.0312 177.1562 109.6562 176.3906 109.6562 C175.0469 109.6562 173.5625 110.8438 173.5625 112.9531 C173.5625 115.0938 174.7188 116.1719 176.1406 116.1719 C177.0156 116.1719 177.6875 115.8125 178.0938 114.9844 C178.2031 115.8594 178.5156 116.1719 179.0156 116.1719 C179.4688 116.1719 179.7969 115.9062 180.0156 115.5625 L179.9062 115.2812 Z"
      /><rect x="195" y="69" width="6" style="fill:white; stroke:none;" height="10"
      /><path style="stroke:none;" d="M198.3438 78.6875 C197.2031 78.6875 196.5312 77.5 196.5312 75.2969 C196.5312 75.2188 196.5312 75.125 196.5312 75.0469 C197.0938 74.5 197.7188 74.3125 198.3438 74.3125 C199.3125 74.3125 199.9531 74.9844 199.9531 76.4531 C199.9531 77.9375 199.3125 78.6875 198.3438 78.6875 ZM200.5312 70.0781 C197.3438 70.4531 195.5625 72.7656 195.5625 75.4531 C195.5625 77.7812 196.6094 79.1719 198.3125 79.1719 C199.8438 79.1719 200.9219 78.1094 200.9219 76.2812 C200.9219 74.6875 199.9688 73.6562 198.5625 73.6562 C197.8281 73.6562 197.1406 73.9844 196.5781 74.5781 C196.7969 72.4062 198.0781 70.9688 200.5938 70.3906 L200.5312 70.0781 Z"
      /><rect x="178" y="58" width="6" style="fill:white; stroke:none;" height="13"
      /><path style="stroke:none;" d="M180.0938 64.2031 C180.0938 62.6562 180.75 61.8125 181.7969 61.8125 C182.7188 61.8125 183.2656 62.4531 183.2656 63.5156 C183.2656 64.7188 182.5 65.4375 181.1875 65.7031 L181.2969 66.3125 C183.2188 66.2344 183.9375 67.2188 183.9375 68.4375 C183.9375 69.625 183.2344 70.4219 181.9531 70.4219 C181.25 70.4219 180.6562 70.1562 180.0938 69.7188 L180.0938 64.2031 ZM179.2031 70.9062 L179.1094 73.375 L179.2656 73.4844 L180.1562 73.2656 L180.0156 70.0938 C180.5469 70.8438 181.3594 71.1719 182.1719 71.1719 C183.5625 71.1719 184.8594 70.2188 184.8594 68.4844 C184.8594 66.9531 183.875 66.1094 182.125 66 C183.5625 65.6094 184.1875 64.4531 184.1875 63.4844 C184.1875 62.0938 183.1562 61.3125 181.9062 61.3125 C180.2969 61.3125 179.2188 62.5469 179.2188 64.5156 L179.2031 70.9062 Z"
      /><rect x="236" y="81" width="5" style="fill:white; stroke:none;" height="10"
      /><path style="stroke:none;" d="M237.8906 89.6875 C237.4844 89.6875 237.1562 90.0469 237.1562 90.4219 C237.1562 90.8125 237.4844 91.1562 237.8906 91.1562 C238.2969 91.1562 238.6406 90.8125 238.6406 90.4219 C238.6406 90.0469 238.2969 89.6875 237.8906 89.6875 ZM239.4688 83.5781 C239.7188 83.8906 239.875 84.2656 239.8906 84.6562 C239.8906 85.1875 239.625 85.5 239.0312 85.7656 L238.4062 86.0156 C237.6406 86.3125 237.3906 86.5469 237.3906 86.9375 C237.3906 87.1094 237.4531 87.3438 237.5781 87.8125 L237.7344 88.3438 L238.1094 88.3438 L238.0938 87.5312 C238.0938 87.0938 238.2031 86.9688 238.7812 86.7344 L239.2031 86.5625 C240.0312 86.2188 240.4531 85.6875 240.4531 84.8438 C240.4531 83.1562 238.6562 82.1875 237.5 82.0312 C237.1094 82.125 236.9062 82.2969 236.9062 82.6406 C236.9062 82.9375 237.0625 83.1562 237.7188 83.2656 L239.4688 83.5781 Z"
    /></g
    ><g ID="legend-1:0" style="text-rendering:optimizeSpeed; font-size:10px; font-family:'SansSerif';"
    ><path style="stroke:none;" d="M30.875 142 L34.9062 142 L34.9062 141.2344 L33.4375 141.2344 L33.4375 134.6562 L32.7344 134.6562 C32.3281 134.9062 31.8594 135.0625 31.2031 135.1875 L31.2031 135.7656 L32.5156 135.7656 L32.5156 141.2344 L30.875 141.2344 L30.875 142 ZM35.925 137.4531 L40.7219 137.4531 L40.7219 136.7656 L35.925 136.7656 L35.925 137.4531 ZM35.925 139.8438 L40.7219 139.8438 L40.7219 139.1719 L35.925 139.1719 L35.925 139.8438 ZM43.7406 142.125 C45.0375 142.125 46.0844 141.3438 46.0844 140.0469 C46.0844 139.0469 45.3969 138.375 44.5375 138.1875 L44.5375 138.1406 C45.3031 137.8438 45.8344 137.2656 45.8344 136.375 C45.8344 135.2031 44.9437 134.5312 43.7094 134.5312 C42.8656 134.5312 42.2094 134.9062 41.6625 135.4062 L42.1469 135.9844 C42.5531 135.5625 43.0844 135.2812 43.6625 135.2812 C44.4281 135.2812 44.9125 135.7344 44.9125 136.4375 C44.9125 137.2344 44.3969 137.8438 42.8812 137.8438 L42.8812 138.5469 C44.5687 138.5469 45.1625 139.125 45.1625 140 C45.1625 140.8438 44.5375 141.375 43.6625 141.375 C42.8344 141.375 42.2875 140.9844 41.85 140.5312 L41.3969 141.125 C41.8656 141.6562 42.5844 142.125 43.7406 142.125 ZM47.1031 139.5469 L49.6656 139.5469 L49.6656 138.8438 L47.1031 138.8438 L47.1031 139.5469 ZM52.8856 142.125 C53.5418 142.125 54.1043 141.7812 54.5418 141.3594 L54.5731 141.3594 L54.6512 142 L55.3856 142 L55.3856 134.0469 L54.495 134.0469 L54.495 136.125 L54.5262 137.0625 C54.0575 136.6719 53.6356 136.4375 52.995 136.4375 C51.7606 136.4375 50.6512 137.5312 50.6512 139.2969 C50.6512 141.0938 51.5262 142.125 52.8856 142.125 ZM53.0887 141.375 C52.1356 141.375 51.5887 140.5938 51.5887 139.2812 C51.5887 138.0469 52.2762 137.2031 53.1668 137.2031 C53.6043 137.2031 54.0262 137.3594 54.495 137.7656 L54.495 140.625 C54.0262 141.125 53.5887 141.375 53.0887 141.375 ZM59.4293 142.125 C60.1637 142.125 60.7575 141.875 61.2262 141.5625 L60.8981 140.9688 C60.5075 141.2344 60.07 141.4062 59.5387 141.4062 C58.5075 141.4062 57.8043 140.6562 57.7418 139.5 L61.3981 139.5 C61.4137 139.375 61.445 139.1875 61.445 138.9844 C61.445 137.4375 60.6637 136.4375 59.2731 136.4375 C58.0231 136.4375 56.8356 137.5312 56.8356 139.2969 C56.8356 141.0781 57.9918 142.125 59.4293 142.125 ZM57.7262 138.8438 C57.8356 137.7812 58.5231 137.1562 59.2887 137.1562 C60.1325 137.1562 60.6325 137.75 60.6325 138.8438 L57.7262 138.8438 ZM64.8912 142.125 C66.2193 142.125 67.4068 141.0938 67.4068 139.2969 C67.4068 137.4844 66.2193 136.4375 64.8912 136.4375 C63.5631 136.4375 62.3756 137.4844 62.3756 139.2969 C62.3756 141.0938 63.5631 142.125 64.8912 142.125 ZM64.8912 141.375 C63.9537 141.375 63.3131 140.5469 63.3131 139.2969 C63.3131 138.0469 63.9537 137.1875 64.8912 137.1875 C65.8287 137.1875 66.4693 138.0469 66.4693 139.2969 C66.4693 140.5469 65.8287 141.375 64.8912 141.375 ZM68.0762 142 L69.0293 142 L69.7637 140.7344 C69.9512 140.4062 70.1231 140.0625 70.3262 139.7656 L70.3731 139.7656 C70.5762 140.0625 70.7637 140.4062 70.9512 140.7344 L71.7481 142 L72.7481 142 L70.9668 139.2656 L72.6075 136.5625 L71.6543 136.5625 L70.9825 137.7656 C70.8262 138.0625 70.67 138.375 70.4981 138.6719 L70.4668 138.6719 C70.2793 138.375 70.0918 138.0625 69.92 137.7656 L69.1856 136.5625 L68.2168 136.5625 L69.8575 139.1719 L68.0762 142 ZM73.9156 144.3438 C74.9937 144.3438 75.5562 143.5156 75.9312 142.4531 L77.9781 136.5625 L77.0874 136.5625 L76.1187 139.5938 C75.9624 140.0625 75.8062 140.625 75.6656 141.1094 L75.6031 141.1094 C75.4468 140.625 75.2437 140.0625 75.0874 139.5938 L73.9781 136.5625 L73.0249 136.5625 L75.2124 142.0156 L75.0874 142.4219 C74.8687 143.0938 74.4781 143.5938 73.8531 143.5938 C73.7124 143.5938 73.5562 143.5469 73.4468 143.5 L73.2749 144.2344 C73.4468 144.2969 73.6499 144.3438 73.9156 144.3438 ZM78.5631 139.5469 L81.1256 139.5469 L81.1256 138.8438 L78.5631 138.8438 L78.5631 139.5469 ZM82.5799 142 L84.4549 142 C86.6737 142 87.8768 140.625 87.8768 138.3125 C87.8768 135.9844 86.6737 134.6562 84.4237 134.6562 L82.5799 134.6562 L82.5799 142 ZM83.5174 141.2344 L83.5174 135.4219 L84.3456 135.4219 C86.0643 135.4219 86.9237 136.4531 86.9237 138.3125 C86.9237 140.1562 86.0643 141.2344 84.3456 141.2344 L83.5174 141.2344 ZM88.9031 139.5469 L91.4656 139.5469 L91.4656 138.8438 L88.9031 138.8438 L88.9031 139.5469 ZM94.6699 144.5 C96.3574 144.5 97.4199 143.625 97.4199 142.625 C97.4199 141.7344 96.7793 141.3281 95.5137 141.3281 L94.4668 141.3281 C93.7324 141.3281 93.5137 141.0938 93.5137 140.7344 C93.5137 140.4375 93.6543 140.2656 93.8574 140.0938 C94.1074 140.2031 94.4043 140.2812 94.6699 140.2812 C95.7637 140.2812 96.6543 139.5469 96.6543 138.3906 C96.6543 137.9219 96.4668 137.5156 96.2168 137.2656 L97.3262 137.2656 L97.3262 136.5625 L95.4356 136.5625 C95.2324 136.5 94.9668 136.4375 94.6699 136.4375 C93.5762 136.4375 92.6231 137.1875 92.6231 138.375 C92.6231 139.0156 92.9824 139.5469 93.3418 139.8281 L93.3418 139.875 C93.0606 140.0625 92.7324 140.4375 92.7324 140.875 C92.7324 141.3125 92.9356 141.5938 93.2324 141.7656 L93.2324 141.8125 C92.7168 142.1406 92.4356 142.5781 92.4356 143.0469 C92.4356 143.9844 93.3418 144.5 94.6699 144.5 ZM94.6699 139.6562 C94.0449 139.6562 93.5137 139.1562 93.5137 138.375 C93.5137 137.5625 94.0293 137.0938 94.6699 137.0938 C95.3106 137.0938 95.8262 137.5781 95.8262 138.375 C95.8262 139.1562 95.2949 139.6562 94.6699 139.6562 ZM94.7949 143.875 C93.8262 143.875 93.2324 143.5 93.2324 142.9219 C93.2324 142.5938 93.3887 142.2812 93.7793 142 C94.0137 142.0625 94.2793 142.0938 94.4824 142.0938 L95.4199 142.0938 C96.1387 142.0938 96.5293 142.2656 96.5293 142.7656 C96.5293 143.3281 95.8418 143.875 94.7949 143.875 ZM98.4718 142 L99.3781 142 L99.3781 138.5156 C99.7374 137.5781 100.2999 137.2656 100.7531 137.2656 C100.9718 137.2656 101.0968 137.2812 101.2843 137.3438 L101.4562 136.5469 C101.2843 136.4531 101.1124 136.4375 100.8624 136.4375 C100.2531 136.4375 99.7062 136.875 99.3312 137.5625 L99.2999 137.5625 L99.2218 136.5625 L98.4718 136.5625 L98.4718 142 ZM104.4612 142.125 C105.7893 142.125 106.9768 141.0938 106.9768 139.2969 C106.9768 137.4844 105.7893 136.4375 104.4612 136.4375 C103.133 136.4375 101.9455 137.4844 101.9455 139.2969 C101.9455 141.0938 103.133 142.125 104.4612 142.125 ZM104.4612 141.375 C103.5237 141.375 102.883 140.5469 102.883 139.2969 C102.883 138.0469 103.5237 137.1875 104.4612 137.1875 C105.3987 137.1875 106.0393 138.0469 106.0393 139.2969 C106.0393 140.5469 105.3987 141.375 104.4612 141.375 ZM107.943 139.5469 L110.5055 139.5469 L110.5055 138.8438 L107.943 138.8438 L107.943 139.5469 ZM111.8505 143.9844 L112.7724 143.9844 C112.7568 143.0781 112.7412 142.2188 112.7099 141.2969 C113.2724 141.9219 113.9755 142.125 114.6474 142.125 C115.7568 142.125 116.7724 141.3125 116.7724 139.8438 C116.7724 138.7031 116.1162 137.8906 115.0224 137.7344 L115.0224 137.6875 C115.7255 137.2656 116.1162 136.6406 116.1162 135.8281 C116.1162 134.5312 115.1318 133.9062 114.0849 133.9062 C112.5537 133.9062 111.8505 135.0156 111.8505 136.5156 L111.8505 143.9844 ZM114.4443 141.375 C113.8662 141.375 113.2412 141.1875 112.7099 140.5156 C112.7099 139.2031 112.7255 137.9375 112.7412 136.6406 C112.7568 135.3438 113.2568 134.6406 114.0849 134.6406 C114.6943 134.6406 115.2255 135.0625 115.2255 135.9062 C115.2255 136.625 114.788 137.4062 113.6474 137.625 L113.7724 138.3281 C113.9599 138.2812 114.1474 138.2656 114.3349 138.2656 C115.3662 138.2656 115.8662 138.9219 115.8662 139.7969 C115.8662 140.7812 115.2255 141.375 114.4443 141.375 ZM117.723 139.5469 L120.2855 139.5469 L120.2855 138.8438 L117.723 138.8438 L117.723 139.5469 ZM121.7399 142 L125.8649 142 L125.8649 141.2031 L122.6774 141.2031 L122.6774 134.6562 L121.7399 134.6562 L121.7399 142 ZM126.623 139.5469 L129.1855 139.5469 L129.1855 138.8438 L126.623 138.8438 L126.623 139.5469 ZM131.8118 142.125 C132.4837 142.125 133.093 141.7812 133.6087 141.3438 L133.6399 141.3438 L133.718 142 L134.468 142 L134.468 138.6562 C134.468 137.3125 133.9055 136.4375 132.593 136.4375 C131.718 136.4375 130.9524 136.8125 130.4524 137.1406 L130.8118 137.7656 C131.2337 137.4844 131.8118 137.1875 132.4368 137.1875 C133.3274 137.1875 133.5618 137.8594 133.5618 138.5625 C131.2493 138.8125 130.218 139.4062 130.218 140.5938 C130.218 141.5625 130.9055 142.125 131.8118 142.125 ZM132.0774 141.4062 C131.5305 141.4062 131.1087 141.1562 131.1087 140.5312 C131.1087 139.8281 131.7337 139.375 133.5618 139.1562 L133.5618 140.6875 C133.0305 141.1562 132.593 141.4062 132.0774 141.4062 ZM137.1549 142.125 C137.4049 142.125 137.5612 142.0938 137.6862 142.0469 L137.5612 141.3438 C137.4674 141.375 137.4205 141.375 137.3737 141.375 C137.233 141.375 137.108 141.2656 137.108 140.9844 L137.108 134.0469 L136.2018 134.0469 L136.2018 140.9219 C136.2018 141.6875 136.483 142.125 137.1549 142.125 ZM140.7549 142.125 C141.083 142.125 141.4424 142.0312 141.7549 141.9375 L141.583 141.25 C141.3955 141.3125 141.1455 141.3906 140.958 141.3906 C140.333 141.3906 140.1143 141.0156 140.1143 140.3438 L140.1143 137.3125 L141.583 137.3125 L141.583 136.5625 L140.1143 136.5625 L140.1143 135.0469 L139.3643 135.0469 L139.2549 136.5625 L138.3955 136.625 L138.3955 137.3125 L139.208 137.3125 L139.208 140.3125 C139.208 141.4062 139.5986 142.125 140.7549 142.125 ZM142.8999 142 L143.7749 142 L143.7749 138.1562 C143.7749 137.375 143.7124 136.5938 143.6655 135.8594 L143.7124 135.8594 L144.4936 137.375 L147.1655 142 L148.1186 142 L148.1186 134.6562 L147.2436 134.6562 L147.2436 138.4844 C147.2436 139.2344 147.3061 140.0625 147.353 140.7969 L147.3061 140.7969 L146.5249 139.2969 L143.853 134.6562 L142.8999 134.6562 L142.8999 142 ZM152.1511 142.125 C153.4792 142.125 154.6667 141.0938 154.6667 139.2969 C154.6667 137.4844 153.4792 136.4375 152.1511 136.4375 C150.823 136.4375 149.6355 137.4844 149.6355 139.2969 C149.6355 141.0938 150.823 142.125 152.1511 142.125 ZM152.1511 141.375 C151.2136 141.375 150.573 140.5469 150.573 139.2969 C150.573 138.0469 151.2136 137.1875 152.1511 137.1875 C153.0886 137.1875 153.7292 138.0469 153.7292 139.2969 C153.7292 140.5469 153.0886 141.375 152.1511 141.375 ZM156.1017 142 L157.008 142 L157.008 138.0625 C157.5549 137.5156 157.9455 137.2344 158.4924 137.2344 C159.2267 137.2344 159.5236 137.6562 159.5236 138.6875 L159.5236 142 L160.4455 142 L160.4455 138.5625 C160.4455 137.1719 159.9142 136.4375 158.7736 136.4375 C158.0392 136.4375 157.4767 136.8438 156.9611 137.3438 L156.9299 137.3438 L156.8517 136.5625 L156.1017 136.5625 L156.1017 142 ZM161.7274 142 L166.3367 142 L166.3367 141.2031 L164.3055 141.2031 C163.9461 141.2031 163.493 141.25 163.1024 141.2812 C164.8367 139.6562 165.9774 138.1562 165.9774 136.7031 C165.9774 135.3906 165.1649 134.5312 163.8524 134.5312 C162.9149 134.5312 162.2899 134.9531 161.6961 135.6094 L162.2274 136.125 C162.618 135.6562 163.1336 135.2812 163.743 135.2812 C164.6492 135.2812 165.0867 135.8906 165.0867 136.7344 C165.0867 137.9844 164.0242 139.4531 161.7274 141.4531 L161.7274 142 ZM169.3399 142.125 C170.0899 142.125 170.6367 141.7344 171.1367 141.1562 L171.168 141.1562 L171.2461 142 L171.9961 142 L171.9961 136.5625 L171.0899 136.5625 L171.0899 140.4219 C170.5742 141.0625 170.1836 141.3438 169.6211 141.3438 C168.9024 141.3438 168.6055 140.9062 168.6055 139.9062 L168.6055 136.5625 L167.6836 136.5625 L167.6836 140.0156 C167.6836 141.3906 168.1992 142.125 169.3399 142.125 ZM174.7849 142.125 C175.0349 142.125 175.1911 142.0938 175.3161 142.0469 L175.1911 141.3438 C175.0974 141.375 175.0505 141.375 175.0036 141.375 C174.863 141.375 174.738 141.2656 174.738 140.9844 L174.738 134.0469 L173.8317 134.0469 L173.8317 140.9219 C173.8317 141.6875 174.113 142.125 174.7849 142.125 ZM178.7911 142.125 C180.1192 142.125 181.3067 141.0938 181.3067 139.2969 C181.3067 137.4844 180.1192 136.4375 178.7911 136.4375 C177.463 136.4375 176.2755 137.4844 176.2755 139.2969 C176.2755 141.0938 177.463 142.125 178.7911 142.125 ZM178.7911 141.375 C177.8536 141.375 177.213 140.5469 177.213 139.2969 C177.213 138.0469 177.8536 137.1875 178.7911 137.1875 C179.7286 137.1875 180.3692 138.0469 180.3692 139.2969 C180.3692 140.5469 179.7286 141.375 178.7911 141.375 ZM182.7417 144.2969 L183.648 144.2969 L183.648 142.4531 L183.6323 141.5 C184.1167 141.9062 184.6323 142.125 185.1323 142.125 C186.3823 142.125 187.4917 141.0625 187.4917 139.2031 C187.4917 137.5312 186.7261 136.4375 185.3355 136.4375 C184.6948 136.4375 184.0855 136.7969 183.6011 137.1875 L183.5698 137.1875 L183.4917 136.5625 L182.7417 136.5625 L182.7417 144.2969 ZM184.9761 141.375 C184.6167 141.375 184.1323 141.2188 183.648 140.7969 L183.648 137.9531 C184.1792 137.4531 184.648 137.2031 185.1167 137.2031 C186.1323 137.2031 186.5386 138.0156 186.5386 139.2031 C186.5386 140.5625 185.8823 141.375 184.9761 141.375 ZM188.473 139.5469 L191.0355 139.5469 L191.0355 138.8438 L188.473 138.8438 L188.473 139.5469 ZM194.5211 142.125 C195.8492 142.125 197.0367 141.0938 197.0367 139.2969 C197.0367 137.4844 195.8492 136.4375 194.5211 136.4375 C193.193 136.4375 192.0055 137.4844 192.0055 139.2969 C192.0055 141.0938 193.193 142.125 194.5211 142.125 ZM194.5211 141.375 C193.5836 141.375 192.943 140.5469 192.943 139.2969 C192.943 138.0469 193.5836 137.1875 194.5211 137.1875 C195.4586 137.1875 196.0992 138.0469 196.0992 139.2969 C196.0992 140.5469 195.4586 141.375 194.5211 141.375 ZM198.4717 142 L199.378 142 L199.378 138.0625 C199.9248 137.5156 200.3155 137.2344 200.8623 137.2344 C201.5967 137.2344 201.8936 137.6562 201.8936 138.6875 L201.8936 142 L202.8155 142 L202.8155 138.5625 C202.8155 137.1719 202.2842 136.4375 201.1436 136.4375 C200.4092 136.4375 199.8467 136.8438 199.3311 137.3438 L199.2998 137.3438 L199.2217 136.5625 L198.4717 136.5625 L198.4717 142 ZM204.5817 142 L205.488 142 L205.488 136.5625 L204.5817 136.5625 L204.5817 142 ZM205.0348 135.4531 C205.3942 135.4531 205.6442 135.2031 205.6442 134.8438 C205.6442 134.4844 205.3942 134.25 205.0348 134.25 C204.6755 134.25 204.4255 134.4844 204.4255 134.8438 C204.4255 135.2031 204.6755 135.4531 205.0348 135.4531 ZM209.4723 142.125 C210.113 142.125 210.738 141.875 211.2223 141.4375 L210.8317 140.8281 C210.488 141.1406 210.0505 141.375 209.5505 141.375 C208.5505 141.375 207.863 140.5469 207.863 139.2969 C207.863 138.0469 208.5973 137.1875 209.5817 137.1875 C210.0036 137.1875 210.3473 137.3906 210.6598 137.6719 L211.1286 137.0625 C210.738 136.7344 210.2536 136.4375 209.5348 136.4375 C208.1442 136.4375 206.9255 137.4844 206.9255 139.2969 C206.9255 141.0938 208.0348 142.125 209.4723 142.125 Z"
    /></g
  ></g
></svg
>
