<?xml version="1.0"?>
<!DOCTYPE svg PUBLIC '-//W3C//DTD SVG 1.0//EN'
          'http://www.w3.org/TR/2001/REC-SVG-20010904/DTD/svg10.dtd'>
<svg xmlns:xlink="http://www.w3.org/1999/xlink" style="fill-opacity:1; color-rendering:auto; color-interpolation:auto; text-rendering:auto; stroke:black; stroke-linecap:square; stroke-miterlimit:10; shape-rendering:auto; stroke-opacity:1; fill:black; stroke-dasharray:none; font-weight:normal; stroke-width:1; font-family:'Dialog'; font-style:normal; stroke-linejoin:miter; font-size:12px; stroke-dashoffset:0; image-rendering:auto;" viewBox="0 0 314 238" xmlns="http://www.w3.org/2000/svg"
><!--Generated by the Batik Graphics2D SVG Generator--><defs id="genericDefs"
  /><g
  ><defs id="defs1"
    ><clipPath clipPathUnits="userSpaceOnUse" id="clipPath1"
      ><path d="M186 82 L208 82 L208 104 L186 104 L186 82 Z"
      /></clipPath
      ><clipPath clipPathUnits="userSpaceOnUse" id="clipPath2"
      ><path d="M156 145 C156 151.0751 151.0751 156 145 156 C138.9249 156 134 151.0751 134 145 C134 138.9249 138.9249 134 145 134 C151.0751 134 156 138.9249 156 145 Z"
      /></clipPath
      ><clipPath clipPathUnits="userSpaceOnUse" id="clipPath3"
      ><path style="fill-rule:evenodd;" d="M145 186 L156 208 L134 208 Z"
      /></clipPath
      ><clipPath clipPathUnits="userSpaceOnUse" id="clipPath4"
      ><path d="M104 145 C104 151.0751 99.0751 156 93 156 C86.9249 156 82 151.0751 82 145 C82 138.9249 86.9249 134 93 134 C99.0751 134 104 138.9249 104 145 Z"
      /></clipPath
      ><clipPath clipPathUnits="userSpaceOnUse" id="clipPath5"
      ><path d="M134 30 L156 30 L156 52 L134 52 L134 30 Z"
      /></clipPath
      ><clipPath clipPathUnits="userSpaceOnUse" id="clipPath6"
      ><path d="M104 41 C104 47.0751 99.0751 52 93 52 C86.9249 52 82 47.0751 82 41 C82 34.9249 86.9249 30 93 30 C99.0751 30 104 34.9249 104 41 Z"
      /></clipPath
      ><clipPath clipPathUnits="userSpaceOnUse" id="clipPath7"
      ><path style="fill-rule:evenodd;" d="M93 82 L104 104 L82 104 Z"
      /></clipPath
      ><clipPath clipPathUnits="userSpaceOnUse" id="clipPath8"
      ><path d="M30 30 L52 30 L52 52 L30 52 L30 30 Z"
      /></clipPath
    ></defs
    ><g style="fill:white; text-rendering:optimizeSpeed; stroke:white;"
    ><rect x="0" width="314" height="238" y="0" style="stroke:none;"
      /><polygon style="fill:none; stroke:black;" points=" 197 93 145 145"
      /><polygon style="fill:none; stroke:black;" points=" 197 93 145 41"
      /><rect x="186" y="82" width="22" style="clip-path:url(#clipPath1); stroke:none;" height="22"
      /><rect x="186" y="82" width="22" style="clip-path:url(#clipPath1); fill:rgb(255,212,0); stroke:none;" height="22"
      /><rect x="186" y="82" width="22" style="clip-path:url(#clipPath1); fill:none; stroke:black;" height="22"
      /><rect x="186" y="82" width="22" style="fill:none; stroke:black;" height="22"
    /></g
    ><g style="font-style:italic; text-rendering:optimizeSpeed; font-size:10px; font-family:'SansSerif';"
    ><path style="stroke:none;" d="M197 95.125 C198.3281 95.125 199.7344 94.0938 200.125 92.2969 C200.5 90.4844 199.5469 89.4375 198.2188 89.4375 C196.8906 89.4375 195.4688 90.4844 195.0938 92.2969 C194.7031 94.0938 195.6719 95.125 197 95.125 ZM197.1719 94.375 C196.2344 94.375 195.7656 93.5469 196.0312 92.2969 C196.2969 91.0469 197.1094 90.1875 198.0469 90.1875 C198.9844 90.1875 199.4531 91.0469 199.1875 92.2969 C198.9219 93.5469 198.1094 94.375 197.1719 94.375 Z"
      /><polygon style="fill:none;" points=" 145 145 145 197"
      /><polygon style="fill:none;" points=" 145 145 93 145"
    /></g
    ><g style="fill:white; text-rendering:optimizeSpeed; stroke:white;"
    ><circle r="11" style="clip-path:url(#clipPath2); stroke:none;" cx="145" cy="145"
      /><rect x="134" y="134" width="22" style="clip-path:url(#clipPath2); fill:rgb(255,212,0); stroke:none;" height="22"
      /><rect x="134" y="134" width="22" style="clip-path:url(#clipPath2); fill:none; stroke:black;" height="22"
      /><circle r="11" style="fill:none; stroke:black;" cx="145" cy="145"
      /><polygon style="clip-path:url(#clipPath3); stroke:none;" points=" 145 186 156 208 134 208"
      /><rect x="134" y="186" width="22" style="clip-path:url(#clipPath3); fill:rgb(237,28,36); stroke:none;" height="22"
      /><rect x="134" y="186" width="22" style="clip-path:url(#clipPath3); fill:none; stroke:black;" height="22"
      /><polygon style="fill:none; stroke:black;" points=" 145 186 156 208 134 208"
      /><circle r="11" style="clip-path:url(#clipPath4); stroke:none;" cx="93" cy="145"
      /><rect x="82" y="134" width="22" style="clip-path:url(#clipPath4); fill:rgb(255,212,0); stroke:none;" height="22"
      /><rect x="82" y="134" width="22" style="clip-path:url(#clipPath4); fill:none; stroke:black;" height="22"
      /><circle r="11" style="fill:none; stroke:black;" cx="93" cy="145"
      /><rect x="150" width="6" height="9" y="159" style="stroke:none;"
      /><path d="M151.4219 167.0938 C152.0781 166.375 152.7031 165.7188 153.0312 165.3438 C154.9219 163.3125 155.5312 162.4688 155.5312 161.3594 C155.5312 160.0156 154.7812 159.0781 153.1562 159.0781 C151.9062 159.0781 150.7969 159.7031 150.5938 160.9688 C150.7188 161.2031 150.9062 161.3438 151.1562 161.3438 C151.4688 161.3438 151.6562 161.1094 151.7969 160.5938 L152.0938 159.6719 C152.3906 159.5938 152.6562 159.5625 152.8906 159.5625 C153.9219 159.5625 154.5469 160.3125 154.5469 161.4219 C154.5469 162.4375 153.9844 163.4219 152.7031 164.9062 C152.125 165.5781 151.3906 166.4375 150.6406 167.2812 L150.6406 168 L155.9219 168 L155.9219 167.0938 L151.4219 167.0938 Z" style="fill:black; stroke:none;"
      /><rect x="149" width="8" height="8" y="174" style="stroke:none;"
      /><path d="M153.9844 179.7031 C153.9375 180.8906 153.1562 181.6562 152.3125 181.6562 C151.2656 181.6562 150.5 180.6875 150.5 178.7188 C150.5 177.2812 151.1562 176.1562 152.3438 176.1562 C153.1406 176.1562 153.7812 176.6875 154.0938 177.6406 L153.9844 179.7031 ZM155.9062 181.2812 C155.7344 181.375 155.5469 181.4219 155.3438 181.4219 C154.9531 181.4219 154.75 181.2188 154.75 180.4219 C154.75 179.4844 154.9688 177.5312 155.1875 175.8281 L155.0312 175.7188 L154.2344 175.9219 L154.1406 176.7969 C153.7812 176.0312 153.1562 175.6562 152.3906 175.6562 C151.0469 175.6562 149.5625 176.8438 149.5625 178.9531 C149.5625 181.0938 150.7188 182.1719 152.1406 182.1719 C153.0156 182.1719 153.6875 181.8125 154.0938 180.9844 C154.2031 181.8594 154.5156 182.1719 155.0156 182.1719 C155.4688 182.1719 155.7969 181.9062 156.0156 181.5625 L155.9062 181.2812 Z" style="fill:black; stroke:none;"
      /><rect x="123" width="6" height="10" y="148" style="stroke:none;"
      /><path d="M125.2344 149.6562 C125.5156 149.5938 125.7656 149.5625 126.0156 149.5625 C127.0625 149.5625 127.6719 150.1719 127.6719 151.2656 C127.6719 152.4375 126.9062 153.1094 125.7031 153.1094 L125.1875 153.1094 L125.1875 153.6406 L125.7969 153.6406 C127.2188 153.6406 127.9062 154.4219 127.9062 155.6406 C127.9062 156.8438 127.1719 157.6875 125.875 157.6875 C125.6094 157.6875 125.3125 157.6562 125.0156 157.5625 L124.7812 156.8125 C124.625 156.2812 124.5 156.0469 124.1406 156.0469 C123.8906 156.0469 123.7031 156.1719 123.5781 156.4219 C123.8438 157.6406 124.7812 158.1719 126.0312 158.1719 C127.7188 158.1719 128.875 157.125 128.875 155.7031 C128.875 154.5 128.2031 153.625 126.7969 153.375 C127.9531 153.0156 128.6094 152.2031 128.6094 151.2031 C128.6094 149.9219 127.6719 149.0781 126.1875 149.0781 C125.0469 149.0781 124.0625 149.5938 123.7969 150.6875 C123.9062 151 124.1094 151.1094 124.3594 151.1094 C124.7344 151.1094 124.8906 150.8906 125 150.4062 L125.2344 149.6562 Z" style="fill:black; stroke:none;"
      /><rect x="108" width="8" height="8" y="149" style="stroke:none;"
      /><path d="M112.9844 154.7031 C112.9375 155.8906 112.1562 156.6562 111.3125 156.6562 C110.2656 156.6562 109.5 155.6875 109.5 153.7188 C109.5 152.2812 110.1562 151.1562 111.3438 151.1562 C112.1406 151.1562 112.7812 151.6875 113.0938 152.6406 L112.9844 154.7031 ZM114.9062 156.2812 C114.7344 156.375 114.5469 156.4219 114.3438 156.4219 C113.9531 156.4219 113.75 156.2188 113.75 155.4219 C113.75 154.4844 113.9688 152.5312 114.1875 150.8281 L114.0312 150.7188 L113.2344 150.9219 L113.1406 151.7969 C112.7812 151.0312 112.1562 150.6562 111.3906 150.6562 C110.0469 150.6562 108.5625 151.8438 108.5625 153.9531 C108.5625 156.0938 109.7188 157.1719 111.1406 157.1719 C112.0156 157.1719 112.6875 156.8125 113.0938 155.9844 C113.2031 156.8594 113.5156 157.1719 114.0156 157.1719 C114.4688 157.1719 114.7969 156.9062 115.0156 156.5625 L114.9062 156.2812 Z" style="fill:black; stroke:none;"
      /><polygon style="fill:none; stroke:black;" points=" 145 41 93 41"
      /><rect x="134" y="30" width="22" style="clip-path:url(#clipPath5); stroke:none;" height="22"
      /><rect x="134" y="30" width="22" style="clip-path:url(#clipPath5); fill:rgb(0,144,188); stroke:none;" height="22"
      /><rect x="134" y="30" width="22" style="clip-path:url(#clipPath5); fill:none; stroke:black;" height="22"
      /><rect x="134" y="30" width="22" style="fill:none; stroke:black;" height="22"
      /><polygon style="fill:none; stroke:black;" points=" 93 41 93 93"
      /><polygon style="fill:none; stroke:black;" points=" 93 41 41 41"
      /><circle r="11" style="clip-path:url(#clipPath6); stroke:none;" cx="93" cy="41"
      /><rect x="82" y="30" width="22" style="clip-path:url(#clipPath6); fill:rgb(255,212,0); stroke:none;" height="22"
      /><rect x="82" y="30" width="22" style="clip-path:url(#clipPath6); fill:none; stroke:black;" height="22"
      /><circle r="11" style="fill:none; stroke:black;" cx="93" cy="41"
      /><polygon style="clip-path:url(#clipPath7); stroke:none;" points=" 93 82 104 104 82 104"
      /><rect x="82" y="82" width="22" style="clip-path:url(#clipPath7); fill:rgb(237,28,36); stroke:none;" height="22"
      /><rect x="82" y="82" width="22" style="clip-path:url(#clipPath7); fill:none; stroke:black;" height="22"
      /><polygon style="fill:none; stroke:black;" points=" 93 82 104 104 82 104"
      /><rect x="30" y="30" width="22" style="clip-path:url(#clipPath8); stroke:none;" height="22"
      /><rect x="30" y="30" width="22" style="clip-path:url(#clipPath8); fill:rgb(255,212,0); stroke:none;" height="22"
      /><rect x="30" y="30" width="22" style="clip-path:url(#clipPath8); fill:none; stroke:black;" height="22"
      /><rect x="30" y="30" width="22" style="fill:none; stroke:black;" height="22"
      /><rect x="98" width="6" height="9" y="55" style="stroke:none;"
      /><path d="M99.4219 63.0938 C100.0781 62.375 100.7031 61.7188 101.0312 61.3438 C102.9219 59.3125 103.5312 58.4688 103.5312 57.3594 C103.5312 56.0156 102.7812 55.0781 101.1562 55.0781 C99.9062 55.0781 98.7969 55.7031 98.5938 56.9688 C98.7188 57.2031 98.9062 57.3438 99.1562 57.3438 C99.4688 57.3438 99.6562 57.1094 99.7969 56.5938 L100.0938 55.6719 C100.3906 55.5938 100.6562 55.5625 100.8906 55.5625 C101.9219 55.5625 102.5469 56.3125 102.5469 57.4219 C102.5469 58.4375 101.9844 59.4219 100.7031 60.9062 C100.125 61.5781 99.3906 62.4375 98.6406 63.2812 L98.6406 64 L103.9219 64 L103.9219 63.0938 L99.4219 63.0938 Z" style="fill:black; stroke:none;"
      /><rect x="97" width="8" height="8" y="70" style="stroke:none;"
      /><path d="M101.9844 75.7031 C101.9375 76.8906 101.1562 77.6562 100.3125 77.6562 C99.2656 77.6562 98.5 76.6875 98.5 74.7188 C98.5 73.2812 99.1562 72.1562 100.3438 72.1562 C101.1406 72.1562 101.7812 72.6875 102.0938 73.6406 L101.9844 75.7031 ZM103.9062 77.2812 C103.7344 77.375 103.5469 77.4219 103.3438 77.4219 C102.9531 77.4219 102.75 77.2188 102.75 76.4219 C102.75 75.4844 102.9688 73.5312 103.1875 71.8281 L103.0312 71.7188 L102.2344 71.9219 L102.1406 72.7969 C101.7812 72.0312 101.1562 71.6562 100.3906 71.6562 C99.0469 71.6562 97.5625 72.8438 97.5625 74.9531 C97.5625 77.0938 98.7188 78.1719 100.1406 78.1719 C101.0156 78.1719 101.6875 77.8125 102.0938 76.9844 C102.2031 77.8594 102.5156 78.1719 103.0156 78.1719 C103.4688 78.1719 103.7969 77.9062 104.0156 77.5625 L103.9062 77.2812 Z" style="fill:black; stroke:none;"
      /><rect x="71" width="6" height="10" y="44" style="stroke:none;"
      /><path d="M73.2344 45.6562 C73.5156 45.5938 73.7656 45.5625 74.0156 45.5625 C75.0625 45.5625 75.6719 46.1719 75.6719 47.2656 C75.6719 48.4375 74.9062 49.1094 73.7031 49.1094 L73.1875 49.1094 L73.1875 49.6406 L73.7969 49.6406 C75.2188 49.6406 75.9062 50.4219 75.9062 51.6406 C75.9062 52.8438 75.1719 53.6875 73.875 53.6875 C73.6094 53.6875 73.3125 53.6562 73.0156 53.5625 L72.7812 52.8125 C72.625 52.2812 72.5 52.0469 72.1406 52.0469 C71.8906 52.0469 71.7031 52.1719 71.5781 52.4219 C71.8438 53.6406 72.7812 54.1719 74.0312 54.1719 C75.7188 54.1719 76.875 53.125 76.875 51.7031 C76.875 50.5 76.2031 49.625 74.7969 49.375 C75.9531 49.0156 76.6094 48.2031 76.6094 47.2031 C76.6094 45.9219 75.6719 45.0781 74.1875 45.0781 C73.0469 45.0781 72.0625 45.5938 71.7969 46.6875 C71.9062 47 72.1094 47.1094 72.3594 47.1094 C72.7344 47.1094 72.8906 46.8906 73 46.4062 L73.2344 45.6562 Z" style="fill:black; stroke:none;"
      /><rect x="56" width="8" height="8" y="45" style="stroke:none;"
      /><path d="M60.9844 50.7031 C60.9375 51.8906 60.1562 52.6562 59.3125 52.6562 C58.2656 52.6562 57.5 51.6875 57.5 49.7188 C57.5 48.2812 58.1562 47.1562 59.3438 47.1562 C60.1406 47.1562 60.7812 47.6875 61.0938 48.6406 L60.9844 50.7031 ZM62.9062 52.2812 C62.7344 52.375 62.5469 52.4219 62.3438 52.4219 C61.9531 52.4219 61.75 52.2188 61.75 51.4219 C61.75 50.4844 61.9688 48.5312 62.1875 46.8281 L62.0312 46.7188 L61.2344 46.9219 L61.1406 47.7969 C60.7812 47.0312 60.1562 46.6562 59.3906 46.6562 C58.0469 46.6562 56.5625 47.8438 56.5625 49.9531 C56.5625 52.0938 57.7188 53.1719 59.1406 53.1719 C60.0156 53.1719 60.6875 52.8125 61.0938 51.9844 C61.2031 52.8594 61.5156 53.1719 62.0156 53.1719 C62.4688 53.1719 62.7969 52.9062 63.0156 52.5625 L62.9062 52.2812 Z" style="fill:black; stroke:none;"
      /><rect x="123" width="5" height="10" y="44" style="stroke:none;"
      /><path d="M124.8906 52.6875 C124.4844 52.6875 124.1562 53.0469 124.1562 53.4219 C124.1562 53.8125 124.4844 54.1562 124.8906 54.1562 C125.2969 54.1562 125.6406 53.8125 125.6406 53.4219 C125.6406 53.0469 125.2969 52.6875 124.8906 52.6875 ZM126.4688 46.5781 C126.7188 46.8906 126.875 47.2656 126.8906 47.6562 C126.8906 48.1875 126.625 48.5 126.0312 48.7656 L125.4062 49.0156 C124.6406 49.3125 124.3906 49.5469 124.3906 49.9375 C124.3906 50.1094 124.4531 50.3438 124.5781 50.8125 L124.7344 51.3438 L125.1094 51.3438 L125.0938 50.5312 C125.0938 50.0938 125.2031 49.9688 125.7812 49.7344 L126.2031 49.5625 C127.0312 49.2188 127.4531 48.6875 127.4531 47.8438 C127.4531 46.1562 125.6562 45.1875 124.5 45.0312 C124.1094 45.125 123.9062 45.2969 123.9062 45.6406 C123.9062 45.9375 124.0625 46.1562 124.7188 46.2656 L126.4688 46.5781 Z" style="fill:black; stroke:none;"
      /><rect x="109" width="5" height="10" y="44" style="stroke:none;"
      /><path d="M110.8906 52.6875 C110.4844 52.6875 110.1562 53.0469 110.1562 53.4219 C110.1562 53.8125 110.4844 54.1562 110.8906 54.1562 C111.2969 54.1562 111.6406 53.8125 111.6406 53.4219 C111.6406 53.0469 111.2969 52.6875 110.8906 52.6875 ZM112.4688 46.5781 C112.7188 46.8906 112.875 47.2656 112.8906 47.6562 C112.8906 48.1875 112.625 48.5 112.0312 48.7656 L111.4062 49.0156 C110.6406 49.3125 110.3906 49.5469 110.3906 49.9375 C110.3906 50.1094 110.4531 50.3438 110.5781 50.8125 L110.7344 51.3438 L111.1094 51.3438 L111.0938 50.5312 C111.0938 50.0938 111.2031 49.9688 111.7812 49.7344 L112.2031 49.5625 C113.0312 49.2188 113.4531 48.6875 113.4531 47.8438 C113.4531 46.1562 111.6562 45.1875 110.5 45.0312 C110.1094 45.125 109.9062 45.2969 109.9062 45.6406 C109.9062 45.9375 110.0625 46.1562 110.7188 46.2656 L112.4688 46.5781 Z" style="fill:black; stroke:none;"
      /><rect x="183" width="6" height="10" y="110" style="stroke:none;"
      /><path d="M185.2344 111.6562 C185.5156 111.5938 185.7656 111.5625 186.0156 111.5625 C187.0625 111.5625 187.6719 112.1719 187.6719 113.2656 C187.6719 114.4375 186.9062 115.1094 185.7031 115.1094 L185.1875 115.1094 L185.1875 115.6406 L185.7969 115.6406 C187.2188 115.6406 187.9062 116.4219 187.9062 117.6406 C187.9062 118.8438 187.1719 119.6875 185.875 119.6875 C185.6094 119.6875 185.3125 119.6562 185.0156 119.5625 L184.7812 118.8125 C184.625 118.2812 184.5 118.0469 184.1406 118.0469 C183.8906 118.0469 183.7031 118.1719 183.5781 118.4219 C183.8438 119.6406 184.7812 120.1719 186.0312 120.1719 C187.7188 120.1719 188.875 119.125 188.875 117.7031 C188.875 116.5 188.2031 115.625 186.7969 115.375 C187.9531 115.0156 188.6094 114.2031 188.6094 113.2031 C188.6094 111.9219 187.6719 111.0781 186.1875 111.0781 C185.0469 111.0781 184.0625 111.5938 183.7969 112.6875 C183.9062 113 184.1094 113.1094 184.3594 113.1094 C184.7344 113.1094 184.8906 112.8906 185 112.4062 L185.2344 111.6562 Z" style="fill:black; stroke:none;"
      /><rect x="164" width="6" height="13" y="127" style="stroke:none;"
      /><path d="M166.0938 133.2031 C166.0938 131.6562 166.75 130.8125 167.7969 130.8125 C168.7188 130.8125 169.2656 131.4531 169.2656 132.5156 C169.2656 133.7188 168.5 134.4375 167.1875 134.7031 L167.2969 135.3125 C169.2188 135.2344 169.9375 136.2188 169.9375 137.4375 C169.9375 138.625 169.2344 139.4219 167.9531 139.4219 C167.25 139.4219 166.6562 139.1562 166.0938 138.7188 L166.0938 133.2031 ZM165.2031 139.9062 L165.1094 142.375 L165.2656 142.4844 L166.1562 142.2656 L166.0156 139.0938 C166.5469 139.8438 167.3594 140.1719 168.1719 140.1719 C169.5625 140.1719 170.8594 139.2188 170.8594 137.4844 C170.8594 135.9531 169.875 135.1094 168.125 135 C169.5625 134.6094 170.1875 133.4531 170.1875 132.4844 C170.1875 131.0938 169.1562 130.3125 167.9062 130.3125 C166.2969 130.3125 165.2188 131.5469 165.2188 133.5156 L165.2031 139.9062 Z" style="fill:black; stroke:none;"
      /><rect x="171" width="6" height="10" y="77" style="stroke:none;"
      /><path d="M174.3438 86.6875 C173.2031 86.6875 172.5312 85.5 172.5312 83.2969 C172.5312 83.2188 172.5312 83.125 172.5312 83.0469 C173.0938 82.5 173.7188 82.3125 174.3438 82.3125 C175.3125 82.3125 175.9531 82.9844 175.9531 84.4531 C175.9531 85.9375 175.3125 86.6875 174.3438 86.6875 ZM176.5312 78.0781 C173.3438 78.4531 171.5625 80.7656 171.5625 83.4531 C171.5625 85.7812 172.6094 87.1719 174.3125 87.1719 C175.8438 87.1719 176.9219 86.1094 176.9219 84.2812 C176.9219 82.6875 175.9688 81.6562 174.5625 81.6562 C173.8281 81.6562 173.1406 81.9844 172.5781 82.5781 C172.7969 80.4062 174.0781 78.9688 176.5938 78.3906 L176.5312 78.0781 Z" style="fill:black; stroke:none;"
      /><rect x="153" width="6" height="13" y="56" style="stroke:none;"
      /><path d="M155.0938 62.2031 C155.0938 60.6562 155.75 59.8125 156.7969 59.8125 C157.7188 59.8125 158.2656 60.4531 158.2656 61.5156 C158.2656 62.7188 157.5 63.4375 156.1875 63.7031 L156.2969 64.3125 C158.2188 64.2344 158.9375 65.2188 158.9375 66.4375 C158.9375 67.625 158.2344 68.4219 156.9531 68.4219 C156.25 68.4219 155.6562 68.1562 155.0938 67.7188 L155.0938 62.2031 ZM154.2031 68.9062 L154.1094 71.375 L154.2656 71.4844 L155.1562 71.2656 L155.0156 68.0938 C155.5469 68.8438 156.3594 69.1719 157.1719 69.1719 C158.5625 69.1719 159.8594 68.2188 159.8594 66.4844 C159.8594 64.9531 158.875 64.1094 157.125 64 C158.5625 63.6094 159.1875 62.4531 159.1875 61.4844 C159.1875 60.0938 158.1562 59.3125 156.9062 59.3125 C155.2969 59.3125 154.2188 60.5469 154.2188 62.5156 L154.2031 68.9062 Z" style="fill:black; stroke:none;"
    /></g
  ></g
></svg
>
