<?xml version="1.0"?>
<!DOCTYPE svg PUBLIC '-//W3C//DTD SVG 1.0//EN'
          'http://www.w3.org/TR/2001/REC-SVG-20010904/DTD/svg10.dtd'>
<svg xmlns:xlink="http://www.w3.org/1999/xlink" style="fill-opacity:1; color-rendering:auto; color-interpolation:auto; text-rendering:auto; stroke:black; stroke-linecap:square; stroke-miterlimit:10; shape-rendering:auto; stroke-opacity:1; fill:black; stroke-dasharray:none; font-weight:normal; stroke-width:1; font-family:'Dialog'; font-style:normal; stroke-linejoin:miter; font-size:12px; stroke-dashoffset:0; image-rendering:auto;" viewBox="0 0 394 238" xmlns="http://www.w3.org/2000/svg"
><!--Generated by the Batik Graphics2D SVG Generator--><defs id="genericDefs"
  /><g
  ><defs id="defs1"
    ><clipPath clipPathUnits="userSpaceOnUse" id="clipPath1"
      ><path d="M290 82 L312 82 L312 104 L290 104 L290 82 Z"
      /></clipPath
      ><clipPath clipPathUnits="userSpaceOnUse" id="clipPath2"
      ><path d="M238 82 L260 82 L260 104 L238 104 L238 82 Z"
      /></clipPath
      ><clipPath clipPathUnits="userSpaceOnUse" id="clipPath3"
      ><path d="M208 93 C208 99.0751 203.0751 104 197 104 C190.9249 104 186 99.0751 186 93 C186 86.9249 190.9249 82 197 82 C203.0751 82 208 86.9249 208 93 Z"
      /></clipPath
      ><clipPath clipPathUnits="userSpaceOnUse" id="clipPath4"
      ><path d="M156 145 C156 151.0751 151.0751 156 145 156 C138.9249 156 134 151.0751 134 145 C134 138.9249 138.9249 134 145 134 C151.0751 134 156 138.9249 156 145 Z"
      /></clipPath
      ><clipPath clipPathUnits="userSpaceOnUse" id="clipPath5"
      ><path d="M82 186 L104 186 L104 208 L82 208 L82 186 Z"
      /></clipPath
      ><clipPath clipPathUnits="userSpaceOnUse" id="clipPath6"
      ><path d="M52 197 C52 203.0751 47.0751 208 41 208 C34.9249 208 30 203.0751 30 197 C30 190.9249 34.9249 186 41 186 C47.0751 186 52 190.9249 52 197 Z"
      /></clipPath
      ><clipPath clipPathUnits="userSpaceOnUse" id="clipPath7"
      ><path d="M82 82 L104 82 L104 104 L82 104 L82 82 Z"
      /></clipPath
      ><clipPath clipPathUnits="userSpaceOnUse" id="clipPath8"
      ><path style="fill-rule:evenodd;" d="M93 134 L104 156 L82 156 Z"
      /></clipPath
      ><clipPath clipPathUnits="userSpaceOnUse" id="clipPath9"
      ><path d="M52 93 C52 99.0751 47.0751 104 41 104 C34.9249 104 30 99.0751 30 93 C30 86.9249 34.9249 82 41 82 C47.0751 82 52 86.9249 52 93 Z"
      /></clipPath
      ><clipPath clipPathUnits="userSpaceOnUse" id="clipPath10"
      ><path d="M156 41 C156 47.0751 151.0751 52 145 52 C138.9249 52 134 47.0751 134 41 C134 34.9249 138.9249 30 145 30 C151.0751 30 156 34.9249 156 41 Z"
      /></clipPath
      ><clipPath clipPathUnits="userSpaceOnUse" id="clipPath11"
      ><path d="M82 30 L104 30 L104 52 L82 52 L82 30 Z"
      /></clipPath
      ><clipPath clipPathUnits="userSpaceOnUse" id="clipPath12"
      ><path d="M52 41 C52 47.0751 47.0751 52 41 52 C34.9249 52 30 47.0751 30 41 C30 34.9249 34.9249 30 41 30 C47.0751 30 52 34.9249 52 41 Z"
      /></clipPath
    ></defs
    ><g style="fill:white; text-rendering:optimizeSpeed; stroke:white;"
    ><rect x="0" width="394" height="238" y="0" style="stroke:none;"
      /><polygon style="fill:none; stroke:black;" points=" 353 93 301 93"
      /><path d="M353 82 C347.5 87.5 358.5 98.5 353 104" style="fill:none; stroke:black;"
      /><polygon style="fill:none; stroke:black;" points=" 301 93 249 93"
      /><rect x="290" y="82" width="22" style="clip-path:url(#clipPath1); stroke:none;" height="22"
      /><rect x="290" y="82" width="22" style="clip-path:url(#clipPath1); fill:rgb(0,144,188); stroke:none;" height="22"
      /><rect x="290" y="82" width="22" style="clip-path:url(#clipPath1); fill:none; stroke:black;" height="22"
      /><rect x="290" y="82" width="22" style="fill:none; stroke:black;" height="22"
      /><polygon style="fill:none; stroke:black;" points=" 249 93 197 93"
      /><rect x="238" y="82" width="22" style="clip-path:url(#clipPath2); stroke:none;" height="22"
      /><rect x="238" y="82" width="22" style="clip-path:url(#clipPath2); fill:rgb(0,144,188); stroke:none;" height="22"
      /><rect x="238" y="82" width="22" style="clip-path:url(#clipPath2); fill:none; stroke:black;" height="22"
      /><rect x="238" y="82" width="22" style="fill:none; stroke:black;" height="22"
      /><polygon style="fill:none; stroke:black;" points=" 197 93 145 145"
      /><polygon style="fill:none; stroke:black;" points=" 197 93 145 41"
      /><circle style="clip-path:url(#clipPath3); stroke:none;" r="11" cx="197" cy="93"
      /><rect x="186" y="82" width="22" style="clip-path:url(#clipPath3); fill:rgb(0,166,81); stroke:none;" height="22"
      /><rect x="186" y="82" width="22" style="clip-path:url(#clipPath3); fill:none; stroke:black;" height="22"
      /><circle style="fill:none; stroke:black;" r="11" cx="197" cy="93"
      /><polygon style="fill:none; stroke:black;" points=" 145 145 93 197"
      /><polygon style="fill:none; stroke:black;" points=" 145 145 93 93"
      /><circle style="clip-path:url(#clipPath4); stroke:none;" r="11" cx="145" cy="145"
      /><rect x="134" y="134" width="22" style="clip-path:url(#clipPath4); fill:rgb(0,166,81); stroke:none;" height="22"
      /><rect x="134" y="134" width="22" style="clip-path:url(#clipPath4); fill:none; stroke:black;" height="22"
      /><circle style="fill:none; stroke:black;" r="11" cx="145" cy="145"
      /><polygon style="fill:none; stroke:black;" points=" 93 197 41 197"
      /><rect x="82" y="186" width="22" style="clip-path:url(#clipPath5); stroke:none;" height="22"
      /><rect x="82" y="186" width="22" style="clip-path:url(#clipPath5); fill:rgb(0,144,188); stroke:none;" height="22"
      /><rect x="82" y="186" width="22" style="clip-path:url(#clipPath5); fill:none; stroke:black;" height="22"
      /><rect x="82" y="186" width="22" style="fill:none; stroke:black;" height="22"
      /><circle style="clip-path:url(#clipPath6); stroke:none;" r="11" cx="41" cy="197"
      /><rect x="30" y="186" width="22" style="clip-path:url(#clipPath6); fill:rgb(255,212,0); stroke:none;" height="22"
      /><rect x="30" y="186" width="22" style="clip-path:url(#clipPath6); fill:none; stroke:black;" height="22"
      /><circle style="fill:none; stroke:black;" r="11" cx="41" cy="197"
      /><rect x="70" y="200" width="7" style="stroke:none;" height="9"
    /></g
    ><g style="font-family:'Serif'; text-rendering:optimizeSpeed; "
    ><path style="stroke:none;" d="M71 205.5156 L73.9531 201.2656 L73.9531 205.5156 L71 205.5156 ZM76.2812 205.5156 L74.8594 205.5156 L74.8594 200.125 L74.2344 200.125 L70.3438 205.6406 L70.3438 206.1875 L73.9531 206.1875 L73.9531 209 L74.8594 209 L74.8594 206.1875 L76.2812 206.1875 L76.2812 205.5156 Z"
      /><rect x="57" y="198" width="6" style="fill:white; stroke:none;" height="13"
      /><path style="stroke:none;" d="M59.0938 204.2031 C59.0938 202.6562 59.75 201.8125 60.7969 201.8125 C61.7188 201.8125 62.2656 202.4531 62.2656 203.5156 C62.2656 204.7188 61.5 205.4375 60.1875 205.7031 L60.2969 206.3125 C62.2188 206.2344 62.9375 207.2188 62.9375 208.4375 C62.9375 209.625 62.2344 210.4219 60.9531 210.4219 C60.25 210.4219 59.6562 210.1562 59.0938 209.7188 L59.0938 204.2031 ZM58.2031 210.9062 L58.1094 213.375 L58.2656 213.4844 L59.1562 213.2656 L59.0156 210.0938 C59.5469 210.8438 60.3594 211.1719 61.1719 211.1719 C62.5625 211.1719 63.8594 210.2188 63.8594 208.4844 C63.8594 206.9531 62.875 206.1094 61.125 206 C62.5625 205.6094 63.1875 204.4531 63.1875 203.4844 C63.1875 202.0938 62.1562 201.3125 60.9062 201.3125 C59.2969 201.3125 58.2188 202.5469 58.2188 204.5156 L58.2031 210.9062 Z"
      /><polygon style="fill:none;" points=" 93 93 93 145"
      /><polygon style="fill:none;" points=" 93 93 41 93"
      /><rect x="82" y="82" width="22" style="clip-path:url(#clipPath7); fill:white; stroke:none;" height="22"
      /><rect x="82" y="82" width="22" style="clip-path:url(#clipPath7); fill:rgb(0,144,188); stroke:none;" height="22"
      /><rect x="82" y="82" width="22" style="fill:none; clip-path:url(#clipPath7);" height="22"
      /><rect x="82" width="22" height="22" y="82" style="fill:none;"
      /><polygon style="fill:white; clip-path:url(#clipPath8); stroke:none;" points=" 93 134 104 156 82 156"
      /><rect x="82" y="134" width="22" style="clip-path:url(#clipPath8); fill:rgb(237,28,36); stroke:none;" height="22"
      /><rect x="82" y="134" width="22" style="fill:none; clip-path:url(#clipPath8);" height="22"
      /><polygon style="fill:none;" points=" 93 134 104 156 82 156"
      /><circle style="fill:white; clip-path:url(#clipPath9); stroke:none;" r="11" cx="41" cy="93"
      /><rect x="30" y="82" width="22" style="clip-path:url(#clipPath9); fill:rgb(255,212,0); stroke:none;" height="22"
      /><rect x="30" y="82" width="22" style="fill:none; clip-path:url(#clipPath9);" height="22"
      /><circle r="11" style="fill:none;" cx="41" cy="93"
      /><rect x="98" y="107" width="6" style="fill:white; stroke:none;" height="10"
      /><path style="stroke:none;" d="M100.2344 108.6562 C100.5156 108.5938 100.7656 108.5625 101.0156 108.5625 C102.0625 108.5625 102.6719 109.1719 102.6719 110.2656 C102.6719 111.4375 101.9062 112.1094 100.7031 112.1094 L100.1875 112.1094 L100.1875 112.6406 L100.7969 112.6406 C102.2188 112.6406 102.9062 113.4219 102.9062 114.6406 C102.9062 115.8438 102.1719 116.6875 100.875 116.6875 C100.6094 116.6875 100.3125 116.6562 100.0156 116.5625 L99.7812 115.8125 C99.625 115.2812 99.5 115.0469 99.1406 115.0469 C98.8906 115.0469 98.7031 115.1719 98.5781 115.4219 C98.8438 116.6406 99.7812 117.1719 101.0312 117.1719 C102.7188 117.1719 103.875 116.125 103.875 114.7031 C103.875 113.5 103.2031 112.625 101.7969 112.375 C102.9531 112.0156 103.6094 111.2031 103.6094 110.2031 C103.6094 108.9219 102.6719 108.0781 101.1875 108.0781 C100.0469 108.0781 99.0625 108.5938 98.7969 109.6875 C98.9062 110 99.1094 110.1094 99.3594 110.1094 C99.7344 110.1094 99.8906 109.8906 100 109.4062 L100.2344 108.6562 Z"
      /><rect x="97" y="122" width="8" style="fill:white; stroke:none;" height="8"
      /><path style="stroke:none;" d="M101.9844 127.7031 C101.9375 128.8906 101.1562 129.6562 100.3125 129.6562 C99.2656 129.6562 98.5 128.6875 98.5 126.7188 C98.5 125.2812 99.1562 124.1562 100.3438 124.1562 C101.1406 124.1562 101.7812 124.6875 102.0938 125.6406 L101.9844 127.7031 ZM103.9062 129.2812 C103.7344 129.375 103.5469 129.4219 103.3438 129.4219 C102.9531 129.4219 102.75 129.2188 102.75 128.4219 C102.75 127.4844 102.9688 125.5312 103.1875 123.8281 L103.0312 123.7188 L102.2344 123.9219 L102.1406 124.7969 C101.7812 124.0312 101.1562 123.6562 100.3906 123.6562 C99.0469 123.6562 97.5625 124.8438 97.5625 126.9531 C97.5625 129.0938 98.7188 130.1719 100.1406 130.1719 C101.0156 130.1719 101.6875 129.8125 102.0938 128.9844 C102.2031 129.8594 102.5156 130.1719 103.0156 130.1719 C103.4688 130.1719 103.7969 129.9062 104.0156 129.5625 L103.9062 129.2812 Z"
      /><rect x="70" y="96" width="7" style="fill:white; stroke:none;" height="9"
      /><path style="stroke:none;" d="M71 101.5156 L73.9531 97.2656 L73.9531 101.5156 L71 101.5156 ZM76.2812 101.5156 L74.8594 101.5156 L74.8594 96.125 L74.2344 96.125 L70.3438 101.6406 L70.3438 102.1875 L73.9531 102.1875 L73.9531 105 L74.8594 105 L74.8594 102.1875 L76.2812 102.1875 L76.2812 101.5156 Z"
      /><rect x="57" y="94" width="6" style="fill:white; stroke:none;" height="13"
      /><path style="stroke:none;" d="M59.0938 100.2031 C59.0938 98.6562 59.75 97.8125 60.7969 97.8125 C61.7188 97.8125 62.2656 98.4531 62.2656 99.5156 C62.2656 100.7188 61.5 101.4375 60.1875 101.7031 L60.2969 102.3125 C62.2188 102.2344 62.9375 103.2188 62.9375 104.4375 C62.9375 105.625 62.2344 106.4219 60.9531 106.4219 C60.25 106.4219 59.6562 106.1562 59.0938 105.7188 L59.0938 100.2031 ZM58.2031 106.9062 L58.1094 109.375 L58.2656 109.4844 L59.1562 109.2656 L59.0156 106.0938 C59.5469 106.8438 60.3594 107.1719 61.1719 107.1719 C62.5625 107.1719 63.8594 106.2188 63.8594 104.4844 C63.8594 102.9531 62.875 102.1094 61.125 102 C62.5625 101.6094 63.1875 100.4531 63.1875 99.4844 C63.1875 98.0938 62.1562 97.3125 60.9062 97.3125 C59.2969 97.3125 58.2188 98.5469 58.2188 100.5156 L58.2031 106.9062 Z"
      /><rect x="131" y="162" width="6" style="fill:white; stroke:none;" height="10"
      /><path style="stroke:none;" d="M133.2344 163.6562 C133.5156 163.5938 133.7656 163.5625 134.0156 163.5625 C135.0625 163.5625 135.6719 164.1719 135.6719 165.2656 C135.6719 166.4375 134.9062 167.1094 133.7031 167.1094 L133.1875 167.1094 L133.1875 167.6406 L133.7969 167.6406 C135.2188 167.6406 135.9062 168.4219 135.9062 169.6406 C135.9062 170.8438 135.1719 171.6875 133.875 171.6875 C133.6094 171.6875 133.3125 171.6562 133.0156 171.5625 L132.7812 170.8125 C132.625 170.2812 132.5 170.0469 132.1406 170.0469 C131.8906 170.0469 131.7031 170.1719 131.5781 170.4219 C131.8438 171.6406 132.7812 172.1719 134.0312 172.1719 C135.7188 172.1719 136.875 171.125 136.875 169.7031 C136.875 168.5 136.2031 167.625 134.7969 167.375 C135.9531 167.0156 136.6094 166.2031 136.6094 165.2031 C136.6094 163.9219 135.6719 163.0781 134.1875 163.0781 C133.0469 163.0781 132.0625 163.5938 131.7969 164.6875 C131.9062 165 132.1094 165.1094 132.3594 165.1094 C132.7344 165.1094 132.8906 164.8906 133 164.4062 L133.2344 163.6562 Z"
      /><rect x="112" y="179" width="6" style="fill:white; stroke:none;" height="13"
      /><path style="stroke:none;" d="M114.0938 185.2031 C114.0938 183.6562 114.75 182.8125 115.7969 182.8125 C116.7188 182.8125 117.2656 183.4531 117.2656 184.5156 C117.2656 185.7188 116.5 186.4375 115.1875 186.7031 L115.2969 187.3125 C117.2188 187.2344 117.9375 188.2188 117.9375 189.4375 C117.9375 190.625 117.2344 191.4219 115.9531 191.4219 C115.25 191.4219 114.6562 191.1562 114.0938 190.7188 L114.0938 185.2031 ZM113.2031 191.9062 L113.1094 194.375 L113.2656 194.4844 L114.1562 194.2656 L114.0156 191.0938 C114.5469 191.8438 115.3594 192.1719 116.1719 192.1719 C117.5625 192.1719 118.8594 191.2188 118.8594 189.4844 C118.8594 187.9531 117.875 187.1094 116.125 187 C117.5625 186.6094 118.1875 185.4531 118.1875 184.4844 C118.1875 183.0938 117.1562 182.3125 115.9062 182.3125 C114.2969 182.3125 113.2188 183.5469 113.2188 185.5156 L113.2031 191.9062 Z"
      /><rect x="119" y="129" width="7" style="fill:white; stroke:none;" height="9"
      /><path style="stroke:none;" d="M120 134.5156 L122.9531 130.2656 L122.9531 134.5156 L120 134.5156 ZM125.2812 134.5156 L123.8594 134.5156 L123.8594 129.125 L123.2344 129.125 L119.3438 134.6406 L119.3438 135.1875 L122.9531 135.1875 L122.9531 138 L123.8594 138 L123.8594 135.1875 L125.2812 135.1875 L125.2812 134.5156 Z"
      /><rect x="101" y="108" width="6" style="fill:white; stroke:none;" height="13"
      /><path style="stroke:none;" d="M103.0938 114.2031 C103.0938 112.6562 103.75 111.8125 104.7969 111.8125 C105.7188 111.8125 106.2656 112.4531 106.2656 113.5156 C106.2656 114.7188 105.5 115.4375 104.1875 115.7031 L104.2969 116.3125 C106.2188 116.2344 106.9375 117.2188 106.9375 118.4375 C106.9375 119.625 106.2344 120.4219 104.9531 120.4219 C104.25 120.4219 103.6562 120.1562 103.0938 119.7188 L103.0938 114.2031 ZM102.2031 120.9062 L102.1094 123.375 L102.2656 123.4844 L103.1562 123.2656 L103.0156 120.0938 C103.5469 120.8438 104.3594 121.1719 105.1719 121.1719 C106.5625 121.1719 107.8594 120.2188 107.8594 118.4844 C107.8594 116.9531 106.875 116.1094 105.125 116 C106.5625 115.6094 107.1875 114.4531 107.1875 113.4844 C107.1875 112.0938 106.1562 111.3125 104.9062 111.3125 C103.2969 111.3125 102.2188 112.5469 102.2188 114.5156 L102.2031 120.9062 Z"
      /><polygon style="fill:none;" points=" 145 41 93 41"
      /><circle style="fill:white; clip-path:url(#clipPath10); stroke:none;" r="11" cx="145" cy="41"
      /><rect x="134" y="30" width="22" style="clip-path:url(#clipPath10); fill:rgb(0,166,81); stroke:none;" height="22"
      /><rect x="134" y="30" width="22" style="fill:none; clip-path:url(#clipPath10);" height="22"
      /><circle r="11" style="fill:none;" cx="145" cy="41"
      /><polygon style="fill:none;" points=" 93 41 41 41"
      /><rect x="82" y="30" width="22" style="clip-path:url(#clipPath11); fill:white; stroke:none;" height="22"
      /><rect x="82" y="30" width="22" style="clip-path:url(#clipPath11); fill:rgb(0,144,188); stroke:none;" height="22"
      /><rect x="82" y="30" width="22" style="fill:none; clip-path:url(#clipPath11);" height="22"
      /><rect x="82" width="22" height="22" y="30" style="fill:none;"
      /><circle style="fill:white; clip-path:url(#clipPath12); stroke:none;" r="11" cx="41" cy="41"
      /><rect x="30" y="30" width="22" style="clip-path:url(#clipPath12); fill:rgb(255,212,0); stroke:none;" height="22"
      /><rect x="30" y="30" width="22" style="fill:none; clip-path:url(#clipPath12);" height="22"
      /><circle r="11" style="fill:none;" cx="41" cy="41"
      /><rect x="70" y="44" width="7" style="fill:white; stroke:none;" height="9"
      /><path style="stroke:none;" d="M71 49.5156 L73.9531 45.2656 L73.9531 49.5156 L71 49.5156 ZM76.2812 49.5156 L74.8594 49.5156 L74.8594 44.125 L74.2344 44.125 L70.3438 49.6406 L70.3438 50.1875 L73.9531 50.1875 L73.9531 53 L74.8594 53 L74.8594 50.1875 L76.2812 50.1875 L76.2812 49.5156 Z"
      /><rect x="57" y="42" width="6" style="fill:white; stroke:none;" height="13"
      /><path style="stroke:none;" d="M59.0938 48.2031 C59.0938 46.6562 59.75 45.8125 60.7969 45.8125 C61.7188 45.8125 62.2656 46.4531 62.2656 47.5156 C62.2656 48.7188 61.5 49.4375 60.1875 49.7031 L60.2969 50.3125 C62.2188 50.2344 62.9375 51.2188 62.9375 52.4375 C62.9375 53.625 62.2344 54.4219 60.9531 54.4219 C60.25 54.4219 59.6562 54.1562 59.0938 53.7188 L59.0938 48.2031 ZM58.2031 54.9062 L58.1094 57.375 L58.2656 57.4844 L59.1562 57.2656 L59.0156 54.0938 C59.5469 54.8438 60.3594 55.1719 61.1719 55.1719 C62.5625 55.1719 63.8594 54.2188 63.8594 52.4844 C63.8594 50.9531 62.875 50.1094 61.125 50 C62.5625 49.6094 63.1875 48.4531 63.1875 47.4844 C63.1875 46.0938 62.1562 45.3125 60.9062 45.3125 C59.2969 45.3125 58.2188 46.5469 58.2188 48.5156 L58.2031 54.9062 Z"
      /><rect x="122" y="44" width="7" style="fill:white; stroke:none;" height="9"
      /><path style="stroke:none;" d="M123 49.5156 L125.9531 45.2656 L125.9531 49.5156 L123 49.5156 ZM128.2812 49.5156 L126.8594 49.5156 L126.8594 44.125 L126.2344 44.125 L122.3438 49.6406 L122.3438 50.1875 L125.9531 50.1875 L125.9531 53 L126.8594 53 L126.8594 50.1875 L128.2812 50.1875 L128.2812 49.5156 Z"
      /><rect x="109" y="42" width="6" style="fill:white; stroke:none;" height="13"
      /><path style="stroke:none;" d="M111.0938 48.2031 C111.0938 46.6562 111.75 45.8125 112.7969 45.8125 C113.7188 45.8125 114.2656 46.4531 114.2656 47.5156 C114.2656 48.7188 113.5 49.4375 112.1875 49.7031 L112.2969 50.3125 C114.2188 50.2344 114.9375 51.2188 114.9375 52.4375 C114.9375 53.625 114.2344 54.4219 112.9531 54.4219 C112.25 54.4219 111.6562 54.1562 111.0938 53.7188 L111.0938 48.2031 ZM110.2031 54.9062 L110.1094 57.375 L110.2656 57.4844 L111.1562 57.2656 L111.0156 54.0938 C111.5469 54.8438 112.3594 55.1719 113.1719 55.1719 C114.5625 55.1719 115.8594 54.2188 115.8594 52.4844 C115.8594 50.9531 114.875 50.1094 113.125 50 C114.5625 49.6094 115.1875 48.4531 115.1875 47.4844 C115.1875 46.0938 114.1562 45.3125 112.9062 45.3125 C111.2969 45.3125 110.2188 46.5469 110.2188 48.5156 L110.2031 54.9062 Z"
      /><rect x="183" y="110" width="6" style="fill:white; stroke:none;" height="10"
      /><path style="stroke:none;" d="M185.2344 111.6562 C185.5156 111.5938 185.7656 111.5625 186.0156 111.5625 C187.0625 111.5625 187.6719 112.1719 187.6719 113.2656 C187.6719 114.4375 186.9062 115.1094 185.7031 115.1094 L185.1875 115.1094 L185.1875 115.6406 L185.7969 115.6406 C187.2188 115.6406 187.9062 116.4219 187.9062 117.6406 C187.9062 118.8438 187.1719 119.6875 185.875 119.6875 C185.6094 119.6875 185.3125 119.6562 185.0156 119.5625 L184.7812 118.8125 C184.625 118.2812 184.5 118.0469 184.1406 118.0469 C183.8906 118.0469 183.7031 118.1719 183.5781 118.4219 C183.8438 119.6406 184.7812 120.1719 186.0312 120.1719 C187.7188 120.1719 188.875 119.125 188.875 117.7031 C188.875 116.5 188.2031 115.625 186.7969 115.375 C187.9531 115.0156 188.6094 114.2031 188.6094 113.2031 C188.6094 111.9219 187.6719 111.0781 186.1875 111.0781 C185.0469 111.0781 184.0625 111.5938 183.7969 112.6875 C183.9062 113 184.1094 113.1094 184.3594 113.1094 C184.7344 113.1094 184.8906 112.8906 185 112.4062 L185.2344 111.6562 Z"
      /><rect x="163" y="130" width="8" style="fill:white; stroke:none;" height="8"
      /><path style="stroke:none;" d="M167.9844 135.7031 C167.9375 136.8906 167.1562 137.6562 166.3125 137.6562 C165.2656 137.6562 164.5 136.6875 164.5 134.7188 C164.5 133.2812 165.1562 132.1562 166.3438 132.1562 C167.1406 132.1562 167.7812 132.6875 168.0938 133.6406 L167.9844 135.7031 ZM169.9062 137.2812 C169.7344 137.375 169.5469 137.4219 169.3438 137.4219 C168.9531 137.4219 168.75 137.2188 168.75 136.4219 C168.75 135.4844 168.9688 133.5312 169.1875 131.8281 L169.0312 131.7188 L168.2344 131.9219 L168.1406 132.7969 C167.7812 132.0312 167.1562 131.6562 166.3906 131.6562 C165.0469 131.6562 163.5625 132.8438 163.5625 134.9531 C163.5625 137.0938 164.7188 138.1719 166.1406 138.1719 C167.0156 138.1719 167.6875 137.8125 168.0938 136.9844 C168.2031 137.8594 168.5156 138.1719 169.0156 138.1719 C169.4688 138.1719 169.7969 137.9062 170.0156 137.5625 L169.9062 137.2812 Z"
      /><rect x="171" y="77" width="6" style="fill:white; stroke:none;" height="10"
      /><path style="stroke:none;" d="M174.3438 86.6875 C173.2031 86.6875 172.5312 85.5 172.5312 83.2969 C172.5312 83.2188 172.5312 83.125 172.5312 83.0469 C173.0938 82.5 173.7188 82.3125 174.3438 82.3125 C175.3125 82.3125 175.9531 82.9844 175.9531 84.4531 C175.9531 85.9375 175.3125 86.6875 174.3438 86.6875 ZM176.5312 78.0781 C173.3438 78.4531 171.5625 80.7656 171.5625 83.4531 C171.5625 85.7812 172.6094 87.1719 174.3125 87.1719 C175.8438 87.1719 176.9219 86.1094 176.9219 84.2812 C176.9219 82.6875 175.9688 81.6562 174.5625 81.6562 C173.8281 81.6562 173.1406 81.9844 172.5781 82.5781 C172.7969 80.4062 174.0781 78.9688 176.5938 78.3906 L176.5312 78.0781 Z"
      /><rect x="152" y="59" width="8" style="fill:white; stroke:none;" height="8"
      /><path style="stroke:none;" d="M156.9844 64.7031 C156.9375 65.8906 156.1562 66.6562 155.3125 66.6562 C154.2656 66.6562 153.5 65.6875 153.5 63.7188 C153.5 62.2812 154.1562 61.1562 155.3438 61.1562 C156.1406 61.1562 156.7812 61.6875 157.0938 62.6406 L156.9844 64.7031 ZM158.9062 66.2812 C158.7344 66.375 158.5469 66.4219 158.3438 66.4219 C157.9531 66.4219 157.75 66.2188 157.75 65.4219 C157.75 64.4844 157.9688 62.5312 158.1875 60.8281 L158.0312 60.7188 L157.2344 60.9219 L157.1406 61.7969 C156.7812 61.0312 156.1562 60.6562 155.3906 60.6562 C154.0469 60.6562 152.5625 61.8438 152.5625 63.9531 C152.5625 66.0938 153.7188 67.1719 155.1406 67.1719 C156.0156 67.1719 156.6875 66.8125 157.0938 65.9844 C157.2031 66.8594 157.5156 67.1719 158.0156 67.1719 C158.4688 67.1719 158.7969 66.9062 159.0156 66.5625 L158.9062 66.2812 Z"
      /><rect x="226" y="96" width="7" style="fill:white; stroke:none;" height="9"
      /><path style="stroke:none;" d="M227 101.5156 L229.9531 97.2656 L229.9531 101.5156 L227 101.5156 ZM232.2812 101.5156 L230.8594 101.5156 L230.8594 96.125 L230.2344 96.125 L226.3438 101.6406 L226.3438 102.1875 L229.9531 102.1875 L229.9531 105 L230.8594 105 L230.8594 102.1875 L232.2812 102.1875 L232.2812 101.5156 Z"
      /><rect x="213" y="94" width="6" style="fill:white; stroke:none;" height="13"
      /><path style="stroke:none;" d="M215.0938 100.2031 C215.0938 98.6562 215.75 97.8125 216.7969 97.8125 C217.7188 97.8125 218.2656 98.4531 218.2656 99.5156 C218.2656 100.7188 217.5 101.4375 216.1875 101.7031 L216.2969 102.3125 C218.2188 102.2344 218.9375 103.2188 218.9375 104.4375 C218.9375 105.625 218.2344 106.4219 216.9531 106.4219 C216.25 106.4219 215.6562 106.1562 215.0938 105.7188 L215.0938 100.2031 ZM214.2031 106.9062 L214.1094 109.375 L214.2656 109.4844 L215.1562 109.2656 L215.0156 106.0938 C215.5469 106.8438 216.3594 107.1719 217.1719 107.1719 C218.5625 107.1719 219.8594 106.2188 219.8594 104.4844 C219.8594 102.9531 218.875 102.1094 217.125 102 C218.5625 101.6094 219.1875 100.4531 219.1875 99.4844 C219.1875 98.0938 218.1562 97.3125 216.9062 97.3125 C215.2969 97.3125 214.2188 98.5469 214.2188 100.5156 L214.2031 106.9062 Z"
      /><rect x="278" y="96" width="7" style="fill:white; stroke:none;" height="9"
      /><path style="stroke:none;" d="M279 101.5156 L281.9531 97.2656 L281.9531 101.5156 L279 101.5156 ZM284.2812 101.5156 L282.8594 101.5156 L282.8594 96.125 L282.2344 96.125 L278.3438 101.6406 L278.3438 102.1875 L281.9531 102.1875 L281.9531 105 L282.8594 105 L282.8594 102.1875 L284.2812 102.1875 L284.2812 101.5156 Z"
      /><rect x="265" y="94" width="6" style="fill:white; stroke:none;" height="13"
      /><path style="stroke:none;" d="M267.0938 100.2031 C267.0938 98.6562 267.75 97.8125 268.7969 97.8125 C269.7188 97.8125 270.2656 98.4531 270.2656 99.5156 C270.2656 100.7188 269.5 101.4375 268.1875 101.7031 L268.2969 102.3125 C270.2188 102.2344 270.9375 103.2188 270.9375 104.4375 C270.9375 105.625 270.2344 106.4219 268.9531 106.4219 C268.25 106.4219 267.6562 106.1562 267.0938 105.7188 L267.0938 100.2031 ZM266.2031 106.9062 L266.1094 109.375 L266.2656 109.4844 L267.1562 109.2656 L267.0156 106.0938 C267.5469 106.8438 268.3594 107.1719 269.1719 107.1719 C270.5625 107.1719 271.8594 106.2188 271.8594 104.4844 C271.8594 102.9531 270.875 102.1094 269.125 102 C270.5625 101.6094 271.1875 100.4531 271.1875 99.4844 C271.1875 98.0938 270.1562 97.3125 268.9062 97.3125 C267.2969 97.3125 266.2188 98.5469 266.2188 100.5156 L266.2031 106.9062 Z"
      /><rect x="317" y="94" width="6" style="fill:white; stroke:none;" height="13"
      /><path style="stroke:none;" d="M319.0938 100.2031 C319.0938 98.6562 319.75 97.8125 320.7969 97.8125 C321.7188 97.8125 322.2656 98.4531 322.2656 99.5156 C322.2656 100.7188 321.5 101.4375 320.1875 101.7031 L320.2969 102.3125 C322.2188 102.2344 322.9375 103.2188 322.9375 104.4375 C322.9375 105.625 322.2344 106.4219 320.9531 106.4219 C320.25 106.4219 319.6562 106.1562 319.0938 105.7188 L319.0938 100.2031 ZM318.2031 106.9062 L318.1094 109.375 L318.2656 109.4844 L319.1562 109.2656 L319.0156 106.0938 C319.5469 106.8438 320.3594 107.1719 321.1719 107.1719 C322.5625 107.1719 323.8594 106.2188 323.8594 104.4844 C323.8594 102.9531 322.875 102.1094 321.125 102 C322.5625 101.6094 323.1875 100.4531 323.1875 99.4844 C323.1875 98.0938 322.1562 97.3125 320.9062 97.3125 C319.2969 97.3125 318.2188 98.5469 318.2188 100.5156 L318.2031 106.9062 Z"
    /></g
  ></g
></svg
>
