<?xml version="1.0"?>
<!DOCTYPE svg PUBLIC '-//W3C//DTD SVG 1.0//EN'
          'http://www.w3.org/TR/2001/REC-SVG-20010904/DTD/svg10.dtd'>
<svg xmlns:xlink="http://www.w3.org/1999/xlink" style="fill-opacity:1; color-rendering:auto; color-interpolation:auto; text-rendering:auto; stroke:black; stroke-linecap:square; stroke-miterlimit:10; shape-rendering:auto; stroke-opacity:1; fill:black; stroke-dasharray:none; font-weight:normal; stroke-width:1; font-family:'Dialog'; font-style:normal; stroke-linejoin:miter; font-size:12px; stroke-dashoffset:0; image-rendering:auto;" viewBox="0 0 127 186" xmlns="http://www.w3.org/2000/svg"
><!--Generated by the Batik Graphics2D SVG Generator--><defs id="genericDefs"
  /><g
  ><defs id="defs1"
    ><clipPath clipPathUnits="userSpaceOnUse" id="clipPath1"
      ><path d="M53 145 C53 151.0751 48.0751 156 42 156 C35.9249 156 31 151.0751 31 145 C31 138.9249 35.9249 134 42 134 C48.0751 134 53 138.9249 53 145 Z"
      /></clipPath
      ><clipPath clipPathUnits="userSpaceOnUse" id="clipPath2"
      ><path style="fill-rule:evenodd;" d="M42 82 L53 93 L42 104 L31 93 Z"
      /></clipPath
    ></defs
    ><g style="fill:white; text-rendering:optimizeSpeed; stroke:white;"
    ><rect x="0" width="127" height="186" y="0" style="stroke:none;"
      /><circle style="clip-path:url(#clipPath1); stroke:none;" r="11" cx="42" cy="145"
      /><rect x="31" y="134" width="22" style="clip-path:url(#clipPath1); stroke:none;" height="22"
      /><rect x="31" y="134" width="22" style="clip-path:url(#clipPath1); fill:none; stroke:black;" height="22"
      /><circle style="fill:none; stroke:black;" r="11" cx="42" cy="145"
      /><rect x="58" y="132" width="5" style="stroke:none;" height="10"
    /></g
    ><g style="font-family:'Serif'; text-rendering:optimizeSpeed; "
    ><path style="stroke:none;" d="M59.8906 140.6875 C59.4844 140.6875 59.1562 141.0469 59.1562 141.4219 C59.1562 141.8125 59.4844 142.1562 59.8906 142.1562 C60.2969 142.1562 60.6406 141.8125 60.6406 141.4219 C60.6406 141.0469 60.2969 140.6875 59.8906 140.6875 ZM61.4688 134.5781 C61.7188 134.8906 61.875 135.2656 61.8906 135.6562 C61.8906 136.1875 61.625 136.5 61.0312 136.7656 L60.4062 137.0156 C59.6406 137.3125 59.3906 137.5469 59.3906 137.9375 C59.3906 138.1094 59.4531 138.3438 59.5781 138.8125 L59.7344 139.3438 L60.1094 139.3438 L60.0938 138.5312 C60.0938 138.0938 60.2031 137.9688 60.7812 137.7344 L61.2031 137.5625 C62.0312 137.2188 62.4531 136.6875 62.4531 135.8438 C62.4531 134.1562 60.6562 133.1875 59.5 133.0312 C59.1094 133.125 58.9062 133.2969 58.9062 133.6406 C58.9062 133.9375 59.0625 134.1562 59.7188 134.2656 L61.4688 134.5781 Z"
      /><rect x="58" y="148" width="5" style="fill:white; stroke:none;" height="10"
      /><path style="stroke:none;" d="M59.8906 156.6875 C59.4844 156.6875 59.1562 157.0469 59.1562 157.4219 C59.1562 157.8125 59.4844 158.1562 59.8906 158.1562 C60.2969 158.1562 60.6406 157.8125 60.6406 157.4219 C60.6406 157.0469 60.2969 156.6875 59.8906 156.6875 ZM61.4688 150.5781 C61.7188 150.8906 61.875 151.2656 61.8906 151.6562 C61.8906 152.1875 61.625 152.5 61.0312 152.7656 L60.4062 153.0156 C59.6406 153.3125 59.3906 153.5469 59.3906 153.9375 C59.3906 154.1094 59.4531 154.3438 59.5781 154.8125 L59.7344 155.3438 L60.1094 155.3438 L60.0938 154.5312 C60.0938 154.0938 60.2031 153.9688 60.7812 153.7344 L61.2031 153.5625 C62.0312 153.2188 62.4531 152.6875 62.4531 151.8438 C62.4531 150.1562 60.6562 149.1875 59.5 149.0312 C59.1094 149.125 58.9062 149.2969 58.9062 149.6406 C58.9062 149.9375 59.0625 150.1562 59.7188 150.2656 L61.4688 150.5781 Z"
      /><polygon style="fill:white; clip-path:url(#clipPath2); stroke:none;" points=" 42 82 53 93 42 104 31 93"
      /><rect x="31" y="82" width="22" style="clip-path:url(#clipPath2); fill:white; stroke:none;" height="11"
      /><rect x="31" y="82" width="22" style="fill:none; clip-path:url(#clipPath2);" height="11"
      /><polygon style="fill:none;" points=" 42 82 53 93 42 104 31 93"
      /><rect x="58" y="80" width="5" style="fill:white; stroke:none;" height="10"
      /><path style="stroke:none;" d="M59.8906 88.6875 C59.4844 88.6875 59.1562 89.0469 59.1562 89.4219 C59.1562 89.8125 59.4844 90.1562 59.8906 90.1562 C60.2969 90.1562 60.6406 89.8125 60.6406 89.4219 C60.6406 89.0469 60.2969 88.6875 59.8906 88.6875 ZM61.4688 82.5781 C61.7188 82.8906 61.875 83.2656 61.8906 83.6562 C61.8906 84.1875 61.625 84.5 61.0312 84.7656 L60.4062 85.0156 C59.6406 85.3125 59.3906 85.5469 59.3906 85.9375 C59.3906 86.1094 59.4531 86.3438 59.5781 86.8125 L59.7344 87.3438 L60.1094 87.3438 L60.0938 86.5312 C60.0938 86.0938 60.2031 85.9688 60.7812 85.7344 L61.2031 85.5625 C62.0312 85.2188 62.4531 84.6875 62.4531 83.8438 C62.4531 82.1562 60.6562 81.1875 59.5 81.0312 C59.1094 81.125 58.9062 81.2969 58.9062 81.6406 C58.9062 81.9375 59.0625 82.1562 59.7188 82.2656 L61.4688 82.5781 Z"
      /><rect x="58" y="96" width="5" style="fill:white; stroke:none;" height="10"
      /><path style="stroke:none;" d="M59.8906 104.6875 C59.4844 104.6875 59.1562 105.0469 59.1562 105.4219 C59.1562 105.8125 59.4844 106.1562 59.8906 106.1562 C60.2969 106.1562 60.6406 105.8125 60.6406 105.4219 C60.6406 105.0469 60.2969 104.6875 59.8906 104.6875 ZM61.4688 98.5781 C61.7188 98.8906 61.875 99.2656 61.8906 99.6562 C61.8906 100.1875 61.625 100.5 61.0312 100.7656 L60.4062 101.0156 C59.6406 101.3125 59.3906 101.5469 59.3906 101.9375 C59.3906 102.1094 59.4531 102.3438 59.5781 102.8125 L59.7344 103.3438 L60.1094 103.3438 L60.0938 102.5312 C60.0938 102.0938 60.2031 101.9688 60.7812 101.7344 L61.2031 101.5625 C62.0312 101.2188 62.4531 100.6875 62.4531 99.8438 C62.4531 98.1562 60.6562 97.1875 59.5 97.0312 C59.1094 97.125 58.9062 97.2969 58.9062 97.6406 C58.9062 97.9375 59.0625 98.1562 59.7188 98.2656 L61.4688 98.5781 Z"
      /><path style="stroke:none;" d="M33.9531 42.5625 L34.8438 42.5625 C34.6562 40.8438 36.625 40.1875 36.625 38.5781 C36.625 37.375 35.8125 36.625 34.5781 36.625 C33.6875 36.625 32.9844 37.0469 32.4688 37.625 L33.0469 38.1562 C33.4375 37.7188 33.9062 37.4531 34.4688 37.4531 C35.25 37.4531 35.6562 37.9844 35.6562 38.6406 C35.6562 39.9531 33.7031 40.6562 33.9531 42.5625 ZM34.4375 45.1406 C34.8438 45.1406 35.1719 44.8281 35.1719 44.3906 C35.1719 43.9219 34.8438 43.6094 34.4375 43.6094 C34.0312 43.6094 33.7031 43.9219 33.7031 44.3906 C33.7031 44.8281 34.0312 45.1406 34.4375 45.1406 ZM39.9952 45 L41.0265 45 L41.0265 37.7969 L43.464 37.7969 L43.464 36.9219 L37.5577 36.9219 L37.5577 37.7969 L39.9952 37.7969 L39.9952 45 ZM44.8185 45 L45.8185 45 L45.8185 41.1562 C46.2092 40.1406 46.8342 39.7812 47.3185 39.7812 C47.5685 39.7812 47.7092 39.8125 47.9123 39.8906 L48.0998 39 C47.9123 38.9062 47.7248 38.875 47.4592 38.875 C46.7873 38.875 46.1779 39.3594 45.756 40.1094 L45.7248 40.1094 L45.6467 39.0312 L44.8185 39.0312 L44.8185 45 ZM49.0865 45 L50.0865 45 L50.0865 39.0312 L49.0865 39.0312 L49.0865 45 ZM49.5865 37.7969 C49.9771 37.7969 50.2584 37.5312 50.2584 37.125 C50.2584 36.7344 49.9771 36.4688 49.5865 36.4688 C49.1959 36.4688 48.9146 36.7344 48.9146 37.125 C48.9146 37.5312 49.1959 37.7969 49.5865 37.7969 Z"
    /></g
  ></g
></svg
>
