<?xml version="1.0"?>
<!DOCTYPE svg PUBLIC '-//W3C//DTD SVG 1.0//EN'
          'http://www.w3.org/TR/2001/REC-SVG-20010904/DTD/svg10.dtd'>
<svg xmlns:xlink="http://www.w3.org/1999/xlink" style="fill-opacity:1; color-rendering:auto; color-interpolation:auto; text-rendering:auto; stroke:black; stroke-linecap:square; stroke-miterlimit:10; shape-rendering:auto; stroke-opacity:1; fill:black; stroke-dasharray:none; font-weight:normal; stroke-width:1; font-family:'Dialog'; font-style:normal; stroke-linejoin:miter; font-size:12px; stroke-dashoffset:0; image-rendering:auto;" viewBox="0 0 143 157" xmlns="http://www.w3.org/2000/svg"
><!--Generated by the Batik Graphics2D SVG Generator--><defs id="genericDefs"
  /><g
  ><defs id="defs1"
    ><clipPath clipPathUnits="userSpaceOnUse" id="clipPath1"
      ><path style="fill-rule:evenodd;" d="M69 93 L63 100 L52 100 L47 93 L52 85 L63 85 L69 93 Z"
      /></clipPath
      ><clipPath clipPathUnits="userSpaceOnUse" id="clipPath2"
      ><path d="M47 30 L69 30 L69 52 L47 52 L47 30 Z"
      /></clipPath
    ></defs
    ><g style="fill:white; text-rendering:optimizeSpeed; stroke:white;"
    ><rect x="0" width="143" height="157" y="0" style="stroke:none;"
      /><polygon style="clip-path:url(#clipPath1); stroke:none;" points=" 69 93 63 100 52 100 47 93 52 85 63 85 69 93"
      /><rect x="47" y="82" width="22" style="clip-path:url(#clipPath1); fill:rgb(255,212,0); stroke:none;" height="22"
      /><rect x="47" y="82" width="22" style="clip-path:url(#clipPath1); fill:none; stroke:black;" height="22"
      /><polygon style="fill:none; stroke:black;" points=" 69 93 63 100 52 100 47 93 52 85 63 85 69 93"
    /></g
    ><g style="text-rendering:optimizeSpeed; font-size:14px; font-family:'SansSerif';"
    ><path style="stroke:none;" d="M50.6094 121 L57.0625 121 L57.0625 119.8906 L54.2344 119.8906 C53.7031 119.8906 53.0781 119.9531 52.5469 119.9844 C54.9531 117.7031 56.5625 115.625 56.5625 113.5781 C56.5625 111.75 55.4219 110.5469 53.5781 110.5469 C52.2812 110.5469 51.4062 111.1406 50.5625 112.0469 L51.2969 112.7812 C51.8594 112.1094 52.5938 111.5938 53.4375 111.5938 C54.7031 111.5938 55.3125 112.4531 55.3125 113.625 C55.3125 115.3906 53.8438 117.4375 50.6094 120.25 L50.6094 121 ZM62.8168 121.1875 C64.9106 121.1875 66.5043 120.0625 66.5043 116.7656 L66.5043 110.7188 L65.2543 110.7188 L65.2543 116.7969 C65.2543 119.2812 64.1762 120.0469 62.8168 120.0469 C61.4731 120.0469 60.4262 119.2812 60.4262 116.7969 L60.4262 110.7188 L59.1293 110.7188 L59.1293 116.7656 C59.1293 120.0625 60.7231 121.1875 62.8168 121.1875 Z"
    /></g
    ><g style="fill:white; text-rendering:optimizeSpeed; font-family:'Serif'; stroke:white;"
    ><rect x="74" width="5" height="10" y="80" style="stroke:none;"
      /><path d="M75.8906 88.6875 C75.4844 88.6875 75.1562 89.0469 75.1562 89.4219 C75.1562 89.8125 75.4844 90.1562 75.8906 90.1562 C76.2969 90.1562 76.6406 89.8125 76.6406 89.4219 C76.6406 89.0469 76.2969 88.6875 75.8906 88.6875 ZM77.4688 82.5781 C77.7188 82.8906 77.875 83.2656 77.8906 83.6562 C77.8906 84.1875 77.625 84.5 77.0312 84.7656 L76.4062 85.0156 C75.6406 85.3125 75.3906 85.5469 75.3906 85.9375 C75.3906 86.1094 75.4531 86.3438 75.5781 86.8125 L75.7344 87.3438 L76.1094 87.3438 L76.0938 86.5312 C76.0938 86.0938 76.2031 85.9688 76.7812 85.7344 L77.2031 85.5625 C78.0312 85.2188 78.4531 84.6875 78.4531 83.8438 C78.4531 82.1562 76.6562 81.1875 75.5 81.0312 C75.1094 81.125 74.9062 81.2969 74.9062 81.6406 C74.9062 81.9375 75.0625 82.1562 75.7188 82.2656 L77.4688 82.5781 Z" style="fill:black; stroke:none;"
      /><rect x="74" width="5" height="10" y="96" style="stroke:none;"
      /><path d="M75.8906 104.6875 C75.4844 104.6875 75.1562 105.0469 75.1562 105.4219 C75.1562 105.8125 75.4844 106.1562 75.8906 106.1562 C76.2969 106.1562 76.6406 105.8125 76.6406 105.4219 C76.6406 105.0469 76.2969 104.6875 75.8906 104.6875 ZM77.4688 98.5781 C77.7188 98.8906 77.875 99.2656 77.8906 99.6562 C77.8906 100.1875 77.625 100.5 77.0312 100.7656 L76.4062 101.0156 C75.6406 101.3125 75.3906 101.5469 75.3906 101.9375 C75.3906 102.1094 75.4531 102.3438 75.5781 102.8125 L75.7344 103.3438 L76.1094 103.3438 L76.0938 102.5312 C76.0938 102.0938 76.2031 101.9688 76.7812 101.7344 L77.2031 101.5625 C78.0312 101.2188 78.4531 100.6875 78.4531 99.8438 C78.4531 98.1562 76.6562 97.1875 75.5 97.0312 C75.1094 97.125 74.9062 97.2969 74.9062 97.6406 C74.9062 97.9375 75.0625 98.1562 75.7188 98.2656 L77.4688 98.5781 Z" style="fill:black; stroke:none;"
    /></g
    ><g style="text-rendering:optimizeSpeed; font-size:14px; font-family:'SansSerif';"
    ><path style="stroke:none;" d="M32.7031 109.1875 C34.5156 109.1875 35.9844 108.0938 35.9844 106.25 C35.9844 104.8594 35.0156 103.9375 33.8125 103.6562 L33.8125 103.5938 C34.8906 103.1875 35.6406 102.3594 35.6406 101.125 C35.6406 99.5 34.375 98.5469 32.6562 98.5469 C31.4688 98.5469 30.5469 99.0625 29.7812 99.7812 L30.4688 100.5938 C31.0469 100 31.7656 99.5938 32.5938 99.5938 C33.6562 99.5938 34.3281 100.2344 34.3281 101.2188 C34.3281 102.3281 33.6094 103.1719 31.4844 103.1719 L31.4844 104.1562 C33.8594 104.1562 34.6875 104.9844 34.6875 106.2031 C34.6875 107.3906 33.8125 108.125 32.5938 108.125 C31.4375 108.125 30.6562 107.5781 30.0469 106.9375 L29.4062 107.7812 C30.0781 108.5156 31.0938 109.1875 32.7031 109.1875 ZM36.9731 109 L38.3168 109 L39.3481 107.2188 C39.6137 106.7656 39.8637 106.2969 40.1293 105.8594 L40.2075 105.8594 C40.4731 106.2969 40.7543 106.7656 41.0043 107.2188 L42.1293 109 L43.5356 109 L41.02 105.1562 L43.3325 101.3906 L42.0043 101.3906 L41.0668 103.0625 C40.8481 103.5 40.6137 103.9219 40.3793 104.3438 L40.3325 104.3438 C40.0668 103.9219 39.8012 103.5 39.5668 103.0625 L38.5512 101.3906 L37.1762 101.3906 L39.4887 105.0312 L36.9731 109 Z"
      /><rect x="47" y="30" width="22" style="clip-path:url(#clipPath2); fill:white; stroke:none;" height="22"
      /><rect x="47" y="30" width="22" style="clip-path:url(#clipPath2); fill:rgb(0,144,188); stroke:none;" height="22"
      /><rect x="47" y="30" width="22" style="fill:none; clip-path:url(#clipPath2);" height="22"
      /><rect x="47" width="22" height="22" y="30" style="fill:none;"
    /></g
    ><g style="fill:white; text-rendering:optimizeSpeed; font-family:'Serif'; stroke:white;"
    ><rect x="74" width="5" height="10" y="28" style="stroke:none;"
      /><path d="M75.8906 36.6875 C75.4844 36.6875 75.1562 37.0469 75.1562 37.4219 C75.1562 37.8125 75.4844 38.1562 75.8906 38.1562 C76.2969 38.1562 76.6406 37.8125 76.6406 37.4219 C76.6406 37.0469 76.2969 36.6875 75.8906 36.6875 ZM77.4688 30.5781 C77.7188 30.8906 77.875 31.2656 77.8906 31.6562 C77.8906 32.1875 77.625 32.5 77.0312 32.7656 L76.4062 33.0156 C75.6406 33.3125 75.3906 33.5469 75.3906 33.9375 C75.3906 34.1094 75.4531 34.3438 75.5781 34.8125 L75.7344 35.3438 L76.1094 35.3438 L76.0938 34.5312 C76.0938 34.0938 76.2031 33.9688 76.7812 33.7344 L77.2031 33.5625 C78.0312 33.2188 78.4531 32.6875 78.4531 31.8438 C78.4531 30.1562 76.6562 29.1875 75.5 29.0312 C75.1094 29.125 74.9062 29.2969 74.9062 29.6406 C74.9062 29.9375 75.0625 30.1562 75.7188 30.2656 L77.4688 30.5781 Z" style="fill:black; stroke:none;"
      /><rect x="74" width="5" height="10" y="44" style="stroke:none;"
      /><path d="M75.8906 52.6875 C75.4844 52.6875 75.1562 53.0469 75.1562 53.4219 C75.1562 53.8125 75.4844 54.1562 75.8906 54.1562 C76.2969 54.1562 76.6406 53.8125 76.6406 53.4219 C76.6406 53.0469 76.2969 52.6875 75.8906 52.6875 ZM77.4688 46.5781 C77.7188 46.8906 77.875 47.2656 77.8906 47.6562 C77.8906 48.1875 77.625 48.5 77.0312 48.7656 L76.4062 49.0156 C75.6406 49.3125 75.3906 49.5469 75.3906 49.9375 C75.3906 50.1094 75.4531 50.3438 75.5781 50.8125 L75.7344 51.3438 L76.1094 51.3438 L76.0938 50.5312 C76.0938 50.0938 76.2031 49.9688 76.7812 49.7344 L77.2031 49.5625 C78.0312 49.2188 78.4531 48.6875 78.4531 47.8438 C78.4531 46.1562 76.6562 45.1875 75.5 45.0312 C75.1094 45.125 74.9062 45.2969 74.9062 45.6406 C74.9062 45.9375 75.0625 46.1562 75.7188 46.2656 L77.4688 46.5781 Z" style="fill:black; stroke:none;"
    /></g
  ></g
></svg
>
