<?xml version="1.0"?>
<!DOCTYPE svg PUBLIC '-//W3C//DTD SVG 1.0//EN'
          'http://www.w3.org/TR/2001/REC-SVG-20010904/DTD/svg10.dtd'>
<svg xmlns:xlink="http://www.w3.org/1999/xlink" style="fill-opacity:1; color-rendering:auto; color-interpolation:auto; text-rendering:auto; stroke:black; stroke-linecap:square; stroke-miterlimit:10; shape-rendering:auto; stroke-opacity:1; fill:black; stroke-dasharray:none; font-weight:normal; stroke-width:1; font-family:'Dialog'; font-style:normal; stroke-linejoin:miter; font-size:12px; stroke-dashoffset:0; image-rendering:auto;" viewBox="0 0 290 134" xmlns="http://www.w3.org/2000/svg"
><!--Generated by the Batik Graphics2D SVG Generator--><defs id="genericDefs"
  /><g
  ><defs id="defs1"
    ><clipPath clipPathUnits="userSpaceOnUse" id="clipPath1"
      ><path d="M208 67 C208 73.0751 203.0751 78 197 78 C190.9249 78 186 73.0751 186 67 C186 60.9249 190.9249 56 197 56 C203.0751 56 208 60.9249 208 67 Z"
      /></clipPath
      ><clipPath clipPathUnits="userSpaceOnUse" id="clipPath2"
      ><path d="M156 93 C156 99.0751 151.0751 104 145 104 C138.9249 104 134 99.0751 134 93 C134 86.9249 138.9249 82 145 82 C151.0751 82 156 86.9249 156 93 Z"
      /></clipPath
      ><clipPath clipPathUnits="userSpaceOnUse" id="clipPath3"
      ><path d="M104 93 C104 99.0751 99.0751 104 93 104 C86.9249 104 82 99.0751 82 93 C82 86.9249 86.9249 82 93 82 C99.0751 82 104 86.9249 104 93 Z"
      /></clipPath
      ><clipPath clipPathUnits="userSpaceOnUse" id="clipPath4"
      ><path d="M52 93 C52 99.0751 47.0751 104 41 104 C34.9249 104 30 99.0751 30 93 C30 86.9249 34.9249 82 41 82 C47.0751 82 52 86.9249 52 93 Z"
      /></clipPath
      ><clipPath clipPathUnits="userSpaceOnUse" id="clipPath5"
      ><path d="M156 41 C156 47.0751 151.0751 52 145 52 C138.9249 52 134 47.0751 134 41 C134 34.9249 138.9249 30 145 30 C151.0751 30 156 34.9249 156 41 Z"
      /></clipPath
      ><clipPath clipPathUnits="userSpaceOnUse" id="clipPath6"
      ><path d="M104 41 C104 47.0751 99.0751 52 93 52 C86.9249 52 82 47.0751 82 41 C82 34.9249 86.9249 30 93 30 C99.0751 30 104 34.9249 104 41 Z"
      /></clipPath
    ></defs
    ><g style="fill:white; text-rendering:optimizeSpeed; stroke:white;"
    ><rect x="0" width="290" height="134" y="0" style="stroke:none;"
      /><polygon style="fill:none; stroke:black;" points=" 249 67 197 67"
      /><path d="M249 56 C243.5 61.5 254.5 72.5 249 78" style="fill:none; stroke:black;"
      /><polygon style="fill:none; stroke:black;" points=" 197 67 145 93"
      /><polygon style="fill:none; stroke:black;" points=" 197 67 145 41"
      /><circle style="clip-path:url(#clipPath1); stroke:none;" r="11" cx="197" cy="67"
      /><rect x="186" y="56" width="22" style="clip-path:url(#clipPath1); fill:rgb(0,166,81); stroke:none;" height="22"
      /><rect x="186" y="56" width="22" style="clip-path:url(#clipPath1); fill:none; stroke:black;" height="22"
      /><circle style="fill:none; stroke:black;" r="11" cx="197" cy="67"
      /><polygon style="fill:none; stroke:black;" points=" 145 93 93 93"
      /><circle style="clip-path:url(#clipPath2); stroke:none;" r="11" cx="145" cy="93"
      /><rect x="134" y="82" width="22" style="clip-path:url(#clipPath2); fill:rgb(255,212,0); stroke:none;" height="22"
      /><rect x="134" y="82" width="22" style="clip-path:url(#clipPath2); fill:none; stroke:black;" height="22"
      /><circle style="fill:none; stroke:black;" r="11" cx="145" cy="93"
      /><polygon style="fill:none; stroke:black;" points=" 93 93 41 93"
      /><circle style="clip-path:url(#clipPath3); stroke:none;" r="11" cx="93" cy="93"
      /><rect x="82" y="82" width="22" style="clip-path:url(#clipPath3); fill:rgb(255,212,0); stroke:none;" height="22"
      /><rect x="82" y="82" width="22" style="clip-path:url(#clipPath3); fill:none; stroke:black;" height="22"
      /><circle style="fill:none; stroke:black;" r="11" cx="93" cy="93"
      /><circle style="clip-path:url(#clipPath4); stroke:none;" r="11" cx="41" cy="93"
      /><rect x="30" y="82" width="22" style="clip-path:url(#clipPath4); fill:rgb(255,212,0); stroke:none;" height="22"
      /><rect x="30" y="82" width="22" style="clip-path:url(#clipPath4); fill:none; stroke:black;" height="22"
      /><circle style="fill:none; stroke:black;" r="11" cx="41" cy="93"
      /><rect x="71" y="96" width="6" style="stroke:none;" height="9"
    /></g
    ><g style="font-family:'Serif'; text-rendering:optimizeSpeed; "
    ><path style="stroke:none;" d="M72.4219 104.0938 C73.0781 103.375 73.7031 102.7188 74.0312 102.3438 C75.9219 100.3125 76.5312 99.4688 76.5312 98.3594 C76.5312 97.0156 75.7812 96.0781 74.1562 96.0781 C72.9062 96.0781 71.7969 96.7031 71.5938 97.9688 C71.7188 98.2031 71.9062 98.3438 72.1562 98.3438 C72.4688 98.3438 72.6562 98.1094 72.7969 97.5938 L73.0938 96.6719 C73.3906 96.5938 73.6562 96.5625 73.8906 96.5625 C74.9219 96.5625 75.5469 97.3125 75.5469 98.4219 C75.5469 99.4375 74.9844 100.4219 73.7031 101.9062 C73.125 102.5781 72.3906 103.4375 71.6406 104.2812 L71.6406 105 L76.9219 105 L76.9219 104.0938 L72.4219 104.0938 Z"
      /><rect x="56" y="97" width="8" style="fill:white; stroke:none;" height="8"
      /><path style="stroke:none;" d="M60.9844 102.7031 C60.9375 103.8906 60.1562 104.6562 59.3125 104.6562 C58.2656 104.6562 57.5 103.6875 57.5 101.7188 C57.5 100.2812 58.1562 99.1562 59.3438 99.1562 C60.1406 99.1562 60.7812 99.6875 61.0938 100.6406 L60.9844 102.7031 ZM62.9062 104.2812 C62.7344 104.375 62.5469 104.4219 62.3438 104.4219 C61.9531 104.4219 61.75 104.2188 61.75 103.4219 C61.75 102.4844 61.9688 100.5312 62.1875 98.8281 L62.0312 98.7188 L61.2344 98.9219 L61.1406 99.7969 C60.7812 99.0312 60.1562 98.6562 59.3906 98.6562 C58.0469 98.6562 56.5625 99.8438 56.5625 101.9531 C56.5625 104.0938 57.7188 105.1719 59.1406 105.1719 C60.0156 105.1719 60.6875 104.8125 61.0938 103.9844 C61.2031 104.8594 61.5156 105.1719 62.0156 105.1719 C62.4688 105.1719 62.7969 104.9062 63.0156 104.5625 L62.9062 104.2812 Z"
      /><rect x="123" y="96" width="6" style="fill:white; stroke:none;" height="10"
      /><path style="stroke:none;" d="M126.3438 105.6875 C125.2031 105.6875 124.5312 104.5 124.5312 102.2969 C124.5312 102.2188 124.5312 102.125 124.5312 102.0469 C125.0938 101.5 125.7188 101.3125 126.3438 101.3125 C127.3125 101.3125 127.9531 101.9844 127.9531 103.4531 C127.9531 104.9375 127.3125 105.6875 126.3438 105.6875 ZM128.5312 97.0781 C125.3438 97.4531 123.5625 99.7656 123.5625 102.4531 C123.5625 104.7812 124.6094 106.1719 126.3125 106.1719 C127.8438 106.1719 128.9219 105.1094 128.9219 103.2812 C128.9219 101.6875 127.9688 100.6562 126.5625 100.6562 C125.8281 100.6562 125.1406 100.9844 124.5781 101.5781 C124.7969 99.4062 126.0781 97.9688 128.5938 97.3906 L128.5312 97.0781 Z"
      /><rect x="108" y="97" width="8" style="fill:white; stroke:none;" height="8"
      /><path style="stroke:none;" d="M112.9844 102.7031 C112.9375 103.8906 112.1562 104.6562 111.3125 104.6562 C110.2656 104.6562 109.5 103.6875 109.5 101.7188 C109.5 100.2812 110.1562 99.1562 111.3438 99.1562 C112.1406 99.1562 112.7812 99.6875 113.0938 100.6406 L112.9844 102.7031 ZM114.9062 104.2812 C114.7344 104.375 114.5469 104.4219 114.3438 104.4219 C113.9531 104.4219 113.75 104.2188 113.75 103.4219 C113.75 102.4844 113.9688 100.5312 114.1875 98.8281 L114.0312 98.7188 L113.2344 98.9219 L113.1406 99.7969 C112.7812 99.0312 112.1562 98.6562 111.3906 98.6562 C110.0469 98.6562 108.5625 99.8438 108.5625 101.9531 C108.5625 104.0938 109.7188 105.1719 111.1406 105.1719 C112.0156 105.1719 112.6875 104.8125 113.0938 103.9844 C113.2031 104.8594 113.5156 105.1719 114.0156 105.1719 C114.4688 105.1719 114.7969 104.9062 115.0156 104.5625 L114.9062 104.2812 Z"
      /><polygon style="fill:none;" points=" 145 41 93 41"
      /><circle style="fill:white; clip-path:url(#clipPath5); stroke:none;" r="11" cx="145" cy="41"
      /><rect x="134" y="30" width="22" style="clip-path:url(#clipPath5); fill:rgb(0,166,81); stroke:none;" height="22"
      /><rect x="134" y="30" width="22" style="fill:none; clip-path:url(#clipPath5);" height="22"
      /><circle r="11" style="fill:none;" cx="145" cy="41"
      /><circle style="fill:white; clip-path:url(#clipPath6); stroke:none;" r="11" cx="93" cy="41"
      /><rect x="82" y="30" width="22" style="clip-path:url(#clipPath6); fill:rgb(0,166,81); stroke:none;" height="22"
      /><rect x="82" y="30" width="22" style="fill:none; clip-path:url(#clipPath6);" height="22"
      /><circle r="11" style="fill:none;" cx="93" cy="41"
      /><rect x="123" y="44" width="6" style="fill:white; stroke:none;" height="9"
      /><path style="stroke:none;" d="M124.4219 52.0938 C125.0781 51.375 125.7031 50.7188 126.0312 50.3438 C127.9219 48.3125 128.5312 47.4688 128.5312 46.3594 C128.5312 45.0156 127.7812 44.0781 126.1562 44.0781 C124.9062 44.0781 123.7969 44.7031 123.5938 45.9688 C123.7188 46.2031 123.9062 46.3438 124.1562 46.3438 C124.4688 46.3438 124.6562 46.1094 124.7969 45.5938 L125.0938 44.6719 C125.3906 44.5938 125.6562 44.5625 125.8906 44.5625 C126.9219 44.5625 127.5469 45.3125 127.5469 46.4219 C127.5469 47.4375 126.9844 48.4219 125.7031 49.9062 C125.125 50.5781 124.3906 51.4375 123.6406 52.2812 L123.6406 53 L128.9219 53 L128.9219 52.0938 L124.4219 52.0938 Z"
      /><rect x="108" y="45" width="8" style="fill:white; stroke:none;" height="8"
      /><path style="stroke:none;" d="M112.9844 50.7031 C112.9375 51.8906 112.1562 52.6562 111.3125 52.6562 C110.2656 52.6562 109.5 51.6875 109.5 49.7188 C109.5 48.2812 110.1562 47.1562 111.3438 47.1562 C112.1406 47.1562 112.7812 47.6875 113.0938 48.6406 L112.9844 50.7031 ZM114.9062 52.2812 C114.7344 52.375 114.5469 52.4219 114.3438 52.4219 C113.9531 52.4219 113.75 52.2188 113.75 51.4219 C113.75 50.4844 113.9688 48.5312 114.1875 46.8281 L114.0312 46.7188 L113.2344 46.9219 L113.1406 47.7969 C112.7812 47.0312 112.1562 46.6562 111.3906 46.6562 C110.0469 46.6562 108.5625 47.8438 108.5625 49.9531 C108.5625 52.0938 109.7188 53.1719 111.1406 53.1719 C112.0156 53.1719 112.6875 52.8125 113.0938 51.9844 C113.2031 52.8594 113.5156 53.1719 114.0156 53.1719 C114.4688 53.1719 114.7969 52.9062 115.0156 52.5625 L114.9062 52.2812 Z"
      /><rect x="179" y="78" width="6" style="fill:white; stroke:none;" height="10"
      /><path style="stroke:none;" d="M181.2344 79.6562 C181.5156 79.5938 181.7656 79.5625 182.0156 79.5625 C183.0625 79.5625 183.6719 80.1719 183.6719 81.2656 C183.6719 82.4375 182.9062 83.1094 181.7031 83.1094 L181.1875 83.1094 L181.1875 83.6406 L181.7969 83.6406 C183.2188 83.6406 183.9062 84.4219 183.9062 85.6406 C183.9062 86.8438 183.1719 87.6875 181.875 87.6875 C181.6094 87.6875 181.3125 87.6562 181.0156 87.5625 L180.7812 86.8125 C180.625 86.2812 180.5 86.0469 180.1406 86.0469 C179.8906 86.0469 179.7031 86.1719 179.5781 86.4219 C179.8438 87.6406 180.7812 88.1719 182.0312 88.1719 C183.7188 88.1719 184.875 87.125 184.875 85.7031 C184.875 84.5 184.2031 83.625 182.7969 83.375 C183.9531 83.0156 184.6094 82.2031 184.6094 81.2031 C184.6094 79.9219 183.6719 79.0781 182.1875 79.0781 C181.0469 79.0781 180.0625 79.5938 179.7969 80.6875 C179.9062 81 180.1094 81.1094 180.3594 81.1094 C180.7344 81.1094 180.8906 80.8906 181 80.4062 L181.2344 79.6562 Z"
      /><rect x="162" y="87" width="8" style="fill:white; stroke:none;" height="8"
      /><path style="stroke:none;" d="M166.9844 92.7031 C166.9375 93.8906 166.1562 94.6562 165.3125 94.6562 C164.2656 94.6562 163.5 93.6875 163.5 91.7188 C163.5 90.2812 164.1562 89.1562 165.3438 89.1562 C166.1406 89.1562 166.7812 89.6875 167.0938 90.6406 L166.9844 92.7031 ZM168.9062 94.2812 C168.7344 94.375 168.5469 94.4219 168.3438 94.4219 C167.9531 94.4219 167.75 94.2188 167.75 93.4219 C167.75 92.4844 167.9688 90.5312 168.1875 88.8281 L168.0312 88.7188 L167.2344 88.9219 L167.1406 89.7969 C166.7812 89.0312 166.1562 88.6562 165.3906 88.6562 C164.0469 88.6562 162.5625 89.8438 162.5625 91.9531 C162.5625 94.0938 163.7188 95.1719 165.1406 95.1719 C166.0156 95.1719 166.6875 94.8125 167.0938 93.9844 C167.2031 94.8594 167.5156 95.1719 168.0156 95.1719 C168.4688 95.1719 168.7969 94.9062 169.0156 94.5625 L168.9062 94.2812 Z"
      /><rect x="172" y="60" width="6" style="fill:white; stroke:none;" height="10"
      /><path style="stroke:none;" d="M175.3438 69.6875 C174.2031 69.6875 173.5312 68.5 173.5312 66.2969 C173.5312 66.2188 173.5312 66.125 173.5312 66.0469 C174.0938 65.5 174.7188 65.3125 175.3438 65.3125 C176.3125 65.3125 176.9531 65.9844 176.9531 67.4531 C176.9531 68.9375 176.3125 69.6875 175.3438 69.6875 ZM177.5312 61.0781 C174.3438 61.4531 172.5625 63.7656 172.5625 66.4531 C172.5625 68.7812 173.6094 70.1719 175.3125 70.1719 C176.8438 70.1719 177.9219 69.1094 177.9219 67.2812 C177.9219 65.6875 176.9688 64.6562 175.5625 64.6562 C174.8281 64.6562 174.1406 64.9844 173.5781 65.5781 C173.7969 63.4062 175.0781 61.9688 177.5938 61.3906 L177.5312 61.0781 Z"
      /><rect x="155" y="53" width="8" style="fill:white; stroke:none;" height="8"
      /><path style="stroke:none;" d="M159.9844 58.7031 C159.9375 59.8906 159.1562 60.6562 158.3125 60.6562 C157.2656 60.6562 156.5 59.6875 156.5 57.7188 C156.5 56.2812 157.1562 55.1562 158.3438 55.1562 C159.1406 55.1562 159.7812 55.6875 160.0938 56.6406 L159.9844 58.7031 ZM161.9062 60.2812 C161.7344 60.375 161.5469 60.4219 161.3438 60.4219 C160.9531 60.4219 160.75 60.2188 160.75 59.4219 C160.75 58.4844 160.9688 56.5312 161.1875 54.8281 L161.0312 54.7188 L160.2344 54.9219 L160.1406 55.7969 C159.7812 55.0312 159.1562 54.6562 158.3906 54.6562 C157.0469 54.6562 155.5625 55.8438 155.5625 57.9531 C155.5625 60.0938 156.7188 61.1719 158.1406 61.1719 C159.0156 61.1719 159.6875 60.8125 160.0938 59.9844 C160.2031 60.8594 160.5156 61.1719 161.0156 61.1719 C161.4688 61.1719 161.7969 60.9062 162.0156 60.5625 L161.9062 60.2812 Z"
      /><rect x="212" y="71" width="8" style="fill:white; stroke:none;" height="8"
      /><path style="stroke:none;" d="M216.9844 76.7031 C216.9375 77.8906 216.1562 78.6562 215.3125 78.6562 C214.2656 78.6562 213.5 77.6875 213.5 75.7188 C213.5 74.2812 214.1562 73.1562 215.3438 73.1562 C216.1406 73.1562 216.7812 73.6875 217.0938 74.6406 L216.9844 76.7031 ZM218.9062 78.2812 C218.7344 78.375 218.5469 78.4219 218.3438 78.4219 C217.9531 78.4219 217.75 78.2188 217.75 77.4219 C217.75 76.4844 217.9688 74.5312 218.1875 72.8281 L218.0312 72.7188 L217.2344 72.9219 L217.1406 73.7969 C216.7812 73.0312 216.1562 72.6562 215.3906 72.6562 C214.0469 72.6562 212.5625 73.8438 212.5625 75.9531 C212.5625 78.0938 213.7188 79.1719 215.1406 79.1719 C216.0156 79.1719 216.6875 78.8125 217.0938 77.9844 C217.2031 78.8594 217.5156 79.1719 218.0156 79.1719 C218.4688 79.1719 218.7969 78.9062 219.0156 78.5625 L218.9062 78.2812 Z"
    /></g
  ></g
></svg
>
