<?xml version="1.0"?>
<!DOCTYPE svg PUBLIC '-//W3C//DTD SVG 1.0//EN'
          'http://www.w3.org/TR/2001/REC-SVG-20010904/DTD/svg10.dtd'>
<svg xmlns:xlink="http://www.w3.org/1999/xlink" style="fill-opacity:1; color-rendering:auto; color-interpolation:auto; text-rendering:auto; stroke:black; stroke-linecap:square; stroke-miterlimit:10; shape-rendering:auto; stroke-opacity:1; fill:black; stroke-dasharray:none; font-weight:normal; stroke-width:1; font-family:'Dialog'; font-style:normal; stroke-linejoin:miter; font-size:12px; stroke-dashoffset:0; image-rendering:auto;" viewBox="0 0 150 209" xmlns="http://www.w3.org/2000/svg"
><!--Generated by the Batik Graphics2D SVG Generator--><defs id="genericDefs"
  /><g
  ><defs id="defs1"
    ><clipPath clipPathUnits="userSpaceOnUse" id="clipPath1"
      ><path d="M54 157 L76 157 L76 179 L54 179 L54 157 Z"
      /></clipPath
      ><clipPath clipPathUnits="userSpaceOnUse" id="clipPath2"
      ><path style="fill-rule:evenodd;" d="M65 105 L76 116 L65 127 L54 116 Z"
      /></clipPath
      ><clipPath clipPathUnits="userSpaceOnUse" id="clipPath3"
      ><path style="fill-rule:evenodd;" d="M65 53 L75 60 L71 72 L58 72 L54 60 L65 53 Z"
      /></clipPath
    ></defs
    ><g style="fill:white; text-rendering:optimizeSpeed; stroke:white;"
    ><rect x="0" width="150" height="209" y="0" style="stroke:none;"
      /><rect x="54" y="157" width="22" style="clip-path:url(#clipPath1); stroke:none;" height="22"
      /><rect x="54" y="157" width="22" style="clip-path:url(#clipPath1); fill:rgb(0,144,188); stroke:none;" height="22"
      /><rect x="54" y="157" width="22" style="clip-path:url(#clipPath1); fill:none; stroke:black;" height="22"
      /><rect x="54" y="157" width="22" style="fill:none; stroke:black;" height="22"
      /><rect x="81" y="155" width="5" style="stroke:none;" height="10"
    /></g
    ><g style="font-family:'Serif'; text-rendering:optimizeSpeed; "
    ><path style="stroke:none;" d="M82.8906 163.6875 C82.4844 163.6875 82.1562 164.0469 82.1562 164.4219 C82.1562 164.8125 82.4844 165.1562 82.8906 165.1562 C83.2969 165.1562 83.6406 164.8125 83.6406 164.4219 C83.6406 164.0469 83.2969 163.6875 82.8906 163.6875 ZM84.4688 157.5781 C84.7188 157.8906 84.875 158.2656 84.8906 158.6562 C84.8906 159.1875 84.625 159.5 84.0312 159.7656 L83.4062 160.0156 C82.6406 160.3125 82.3906 160.5469 82.3906 160.9375 C82.3906 161.1094 82.4531 161.3438 82.5781 161.8125 L82.7344 162.3438 L83.1094 162.3438 L83.0938 161.5312 C83.0938 161.0938 83.2031 160.9688 83.7812 160.7344 L84.2031 160.5625 C85.0312 160.2188 85.4531 159.6875 85.4531 158.8438 C85.4531 157.1562 83.6562 156.1875 82.5 156.0312 C82.1094 156.125 81.9062 156.2969 81.9062 156.6406 C81.9062 156.9375 82.0625 157.1562 82.7188 157.2656 L84.4688 157.5781 Z"
      /><rect x="81" y="171" width="5" style="fill:white; stroke:none;" height="10"
      /><path style="stroke:none;" d="M82.8906 179.6875 C82.4844 179.6875 82.1562 180.0469 82.1562 180.4219 C82.1562 180.8125 82.4844 181.1562 82.8906 181.1562 C83.2969 181.1562 83.6406 180.8125 83.6406 180.4219 C83.6406 180.0469 83.2969 179.6875 82.8906 179.6875 ZM84.4688 173.5781 C84.7188 173.8906 84.875 174.2656 84.8906 174.6562 C84.8906 175.1875 84.625 175.5 84.0312 175.7656 L83.4062 176.0156 C82.6406 176.3125 82.3906 176.5469 82.3906 176.9375 C82.3906 177.1094 82.4531 177.3438 82.5781 177.8125 L82.7344 178.3438 L83.1094 178.3438 L83.0938 177.5312 C83.0938 177.0938 83.2031 176.9688 83.7812 176.7344 L84.2031 176.5625 C85.0312 176.2188 85.4531 175.6875 85.4531 174.8438 C85.4531 173.1562 83.6562 172.1875 82.5 172.0312 C82.1094 172.125 81.9062 172.2969 81.9062 172.6406 C81.9062 172.9375 82.0625 173.1562 82.7188 173.2656 L84.4688 173.5781 Z"
      /><path style="stroke:none;" d="M37.6094 168.1562 L39.9531 164.6562 C40.2344 164.1406 40.5156 163.6406 40.7812 163.1406 L40.8281 163.1406 C40.7969 163.6719 40.7656 164.5 40.7656 165 L40.7656 168.1562 L37.6094 168.1562 ZM40.7656 172 L41.9688 172 L41.9688 169.1719 L43.3281 169.1719 L43.3281 168.1562 L41.9688 168.1562 L41.9688 161.7188 L40.5469 161.7188 L36.2812 168.3281 L36.2812 169.1719 L40.7656 169.1719 L40.7656 172 ZM43.9731 172 L45.3168 172 L46.3481 170.2188 C46.6137 169.7656 46.8637 169.2969 47.1293 168.8594 L47.2075 168.8594 C47.4731 169.2969 47.7543 169.7656 48.0043 170.2188 L49.1293 172 L50.5356 172 L48.02 168.1562 L50.3325 164.3906 L49.0043 164.3906 L48.0668 166.0625 C47.8481 166.5 47.6137 166.9219 47.3793 167.3438 L47.3325 167.3438 C47.0668 166.9219 46.8012 166.5 46.5668 166.0625 L45.5512 164.3906 L44.1762 164.3906 L46.4887 168.0312 L43.9731 172 Z"
    /></g
    ><g style="fill:white; text-rendering:optimizeSpeed; font-size:14px; font-family:'SansSerif'; stroke:white;"
    ><polygon style="stroke:none; clip-path:url(#clipPath2);" points=" 65 105 76 116 65 127 54 116"
      /><rect x="54" y="105" width="22" style="clip-path:url(#clipPath2); fill:rgb(0,144,188); stroke:none;" height="11"
      /><rect x="54" y="105" width="22" style="clip-path:url(#clipPath2); fill:none; stroke:black;" height="11"
      /><polygon style="fill:none; stroke:black;" points=" 65 105 76 116 65 127 54 116"
      /><rect x="81" width="5" height="10" y="103" style="stroke:none;"
    /></g
    ><g style="font-family:'Serif'; text-rendering:optimizeSpeed; "
    ><path style="stroke:none;" d="M82.8906 111.6875 C82.4844 111.6875 82.1562 112.0469 82.1562 112.4219 C82.1562 112.8125 82.4844 113.1562 82.8906 113.1562 C83.2969 113.1562 83.6406 112.8125 83.6406 112.4219 C83.6406 112.0469 83.2969 111.6875 82.8906 111.6875 ZM84.4688 105.5781 C84.7188 105.8906 84.875 106.2656 84.8906 106.6562 C84.8906 107.1875 84.625 107.5 84.0312 107.7656 L83.4062 108.0156 C82.6406 108.3125 82.3906 108.5469 82.3906 108.9375 C82.3906 109.1094 82.4531 109.3438 82.5781 109.8125 L82.7344 110.3438 L83.1094 110.3438 L83.0938 109.5312 C83.0938 109.0938 83.2031 108.9688 83.7812 108.7344 L84.2031 108.5625 C85.0312 108.2188 85.4531 107.6875 85.4531 106.8438 C85.4531 105.1562 83.6562 104.1875 82.5 104.0312 C82.1094 104.125 81.9062 104.2969 81.9062 104.6406 C81.9062 104.9375 82.0625 105.1562 82.7188 105.2656 L84.4688 105.5781 Z"
      /><rect x="81" y="119" width="5" style="fill:white; stroke:none;" height="10"
      /><path style="stroke:none;" d="M82.8906 127.6875 C82.4844 127.6875 82.1562 128.0469 82.1562 128.4219 C82.1562 128.8125 82.4844 129.1562 82.8906 129.1562 C83.2969 129.1562 83.6406 128.8125 83.6406 128.4219 C83.6406 128.0469 83.2969 127.6875 82.8906 127.6875 ZM84.4688 121.5781 C84.7188 121.8906 84.875 122.2656 84.8906 122.6562 C84.8906 123.1875 84.625 123.5 84.0312 123.7656 L83.4062 124.0156 C82.6406 124.3125 82.3906 124.5469 82.3906 124.9375 C82.3906 125.1094 82.4531 125.3438 82.5781 125.8125 L82.7344 126.3438 L83.1094 126.3438 L83.0938 125.5312 C83.0938 125.0938 83.2031 124.9688 83.7812 124.7344 L84.2031 124.5625 C85.0312 124.2188 85.4531 123.6875 85.4531 122.8438 C85.4531 121.1562 83.6562 120.1875 82.5 120.0312 C82.1094 120.125 81.9062 120.2969 81.9062 120.6406 C81.9062 120.9375 82.0625 121.1562 82.7188 121.2656 L84.4688 121.5781 Z"
      /><path style="stroke:none;" d="M39.7031 121.1875 C41.5156 121.1875 42.9844 120.0938 42.9844 118.25 C42.9844 116.8594 42.0156 115.9375 40.8125 115.6562 L40.8125 115.5938 C41.8906 115.1875 42.6406 114.3594 42.6406 113.125 C42.6406 111.5 41.375 110.5469 39.6562 110.5469 C38.4688 110.5469 37.5469 111.0625 36.7812 111.7812 L37.4688 112.5938 C38.0469 112 38.7656 111.5938 39.5938 111.5938 C40.6562 111.5938 41.3281 112.2344 41.3281 113.2188 C41.3281 114.3281 40.6094 115.1719 38.4844 115.1719 L38.4844 116.1562 C40.8594 116.1562 41.6875 116.9844 41.6875 118.2031 C41.6875 119.3906 40.8125 120.125 39.5938 120.125 C38.4375 120.125 37.6562 119.5781 37.0469 118.9375 L36.4062 119.7812 C37.0781 120.5156 38.0938 121.1875 39.7031 121.1875 ZM43.9731 121 L45.3168 121 L46.3481 119.2188 C46.6137 118.7656 46.8637 118.2969 47.1293 117.8594 L47.2075 117.8594 C47.4731 118.2969 47.7543 118.7656 48.0043 119.2188 L49.1293 121 L50.5356 121 L48.02 117.1562 L50.3325 113.3906 L49.0043 113.3906 L48.0668 115.0625 C47.8481 115.5 47.6137 115.9219 47.3793 116.3438 L47.3325 116.3438 C47.0668 115.9219 46.8012 115.5 46.5668 115.0625 L45.5512 113.3906 L44.1762 113.3906 L46.4887 117.0312 L43.9731 121 Z"
    /></g
    ><g style="fill:white; text-rendering:optimizeSpeed; font-size:14px; font-family:'SansSerif'; stroke:white;"
    ><polygon style="stroke:none; clip-path:url(#clipPath3);" points=" 65 53 75 60 71 72 58 72 54 60 65 53"
      /><rect x="54" y="53" width="22" style="clip-path:url(#clipPath3); stroke:none;" height="22"
      /><rect x="54" y="53" width="22" style="clip-path:url(#clipPath3); fill:none; stroke:black;" height="22"
      /><polygon style="fill:none; stroke:black;" points=" 65 53 75 60 71 72 58 72 54 60 65 53"
      /><path d="M63.2344 69 L68.8594 69 L68.8594 67.9375 L66.7969 67.9375 L66.7969 58.7188 L65.8281 58.7188 C65.2656 59.0625 64.6094 59.2969 63.6875 59.4688 L63.6875 60.2812 L65.5156 60.2812 L65.5156 67.9375 L63.2344 67.9375 L63.2344 69 Z" style="fill:black; stroke:none;"
      /><rect x="47" width="34" height="12" y="34" style="stroke:none;"
      /><path d="M50.6562 47.1875 C52.3906 47.1875 54.0156 45.9062 54.0156 43.6562 C54.0156 41.4062 52.625 40.3906 50.9219 40.3906 C50.2969 40.3906 49.8594 40.5469 49.3906 40.7969 L49.6406 37.8281 L53.5312 37.8281 L53.5312 36.7188 L48.5312 36.7188 L48.2031 41.5469 L48.8906 41.9531 C49.4844 41.5625 49.9062 41.3594 50.5938 41.3594 C51.8906 41.3594 52.7188 42.2188 52.7188 43.7031 C52.7188 45.1875 51.75 46.125 50.5469 46.125 C49.3594 46.125 48.6094 45.5781 48.0156 44.9844 L47.3906 45.8281 C48.0781 46.5156 49.0625 47.1875 50.6562 47.1875 ZM55.8168 49.6562 C57.0825 49.125 57.8637 48.0781 57.8637 46.7344 C57.8637 45.7969 57.4575 45.2188 56.7856 45.2188 C56.27 45.2188 55.8168 45.5781 55.8168 46.125 C55.8168 46.7031 56.27 47.0156 56.7543 47.0156 C56.8168 47.0156 56.8637 47.0156 56.9106 47 C56.9106 47.8281 56.395 48.5156 55.5043 48.9062 L55.8168 49.6562 ZM60.2713 43.1562 L62.6151 39.6562 C62.8963 39.1406 63.1776 38.6406 63.4432 38.1406 L63.4901 38.1406 C63.4588 38.6719 63.4276 39.5 63.4276 40 L63.4276 43.1562 L60.2713 43.1562 ZM63.4276 47 L64.6307 47 L64.6307 44.1719 L65.9901 44.1719 L65.9901 43.1562 L64.6307 43.1562 L64.6307 36.7188 L63.2088 36.7188 L58.9432 43.3281 L58.9432 44.1719 L63.4276 44.1719 L63.4276 47 ZM70.7913 47.1875 C71.8226 47.1875 72.6351 46.8281 73.3069 46.3906 L72.8382 45.5625 C72.2913 45.9375 71.6819 46.1562 70.9476 46.1562 C69.4944 46.1562 68.5101 45.125 68.4163 43.5 L73.5413 43.5 C73.5726 43.3125 73.6038 43.0469 73.6038 42.7656 C73.6038 40.6094 72.5101 39.2031 70.5726 39.2031 C68.8069 39.2031 67.1507 40.7344 67.1507 43.2031 C67.1507 45.7188 68.7757 47.1875 70.7913 47.1875 ZM68.4007 42.5781 C68.5569 41.0938 69.5101 40.2188 70.5882 40.2188 C71.7757 40.2188 72.4788 41.0469 72.4788 42.5781 L68.4007 42.5781 ZM75.4691 47 L76.7504 47 L76.7504 41.4844 C77.516 40.7188 78.0473 40.3281 78.8285 40.3281 C79.8441 40.3281 80.2816 40.9219 80.2816 42.3594 L80.2816 47 L81.5473 47 L81.5473 42.1875 C81.5473 40.2344 80.8285 39.2031 79.2348 39.2031 C78.1879 39.2031 77.4066 39.7812 76.6723 40.4844 L76.641 40.4844 L76.5316 39.3906 L75.4691 39.3906 L75.4691 47 Z" style="fill:black; stroke:none;"
      /><rect x="88" width="5" height="10" y="51" style="stroke:none;"
    /></g
    ><g style="font-family:'Serif'; text-rendering:optimizeSpeed; "
    ><path style="stroke:none;" d="M89.8906 59.6875 C89.4844 59.6875 89.1562 60.0469 89.1562 60.4219 C89.1562 60.8125 89.4844 61.1562 89.8906 61.1562 C90.2969 61.1562 90.6406 60.8125 90.6406 60.4219 C90.6406 60.0469 90.2969 59.6875 89.8906 59.6875 ZM91.4688 53.5781 C91.7188 53.8906 91.875 54.2656 91.8906 54.6562 C91.8906 55.1875 91.625 55.5 91.0312 55.7656 L90.4062 56.0156 C89.6406 56.3125 89.3906 56.5469 89.3906 56.9375 C89.3906 57.1094 89.4531 57.3438 89.5781 57.8125 L89.7344 58.3438 L90.1094 58.3438 L90.0938 57.5312 C90.0938 57.0938 90.2031 56.9688 90.7812 56.7344 L91.2031 56.5625 C92.0312 56.2188 92.4531 55.6875 92.4531 54.8438 C92.4531 53.1562 90.6562 52.1875 89.5 52.0312 C89.1094 52.125 88.9062 52.2969 88.9062 52.6406 C88.9062 52.9375 89.0625 53.1562 89.7188 53.2656 L91.4688 53.5781 Z"
      /><rect x="88" y="67" width="5" style="fill:white; stroke:none;" height="10"
      /><path style="stroke:none;" d="M89.8906 75.6875 C89.4844 75.6875 89.1562 76.0469 89.1562 76.4219 C89.1562 76.8125 89.4844 77.1562 89.8906 77.1562 C90.2969 77.1562 90.6406 76.8125 90.6406 76.4219 C90.6406 76.0469 90.2969 75.6875 89.8906 75.6875 ZM91.4688 69.5781 C91.7188 69.8906 91.875 70.2656 91.8906 70.6562 C91.8906 71.1875 91.625 71.5 91.0312 71.7656 L90.4062 72.0156 C89.6406 72.3125 89.3906 72.5469 89.3906 72.9375 C89.3906 73.1094 89.4531 73.3438 89.5781 73.8125 L89.7344 74.3438 L90.1094 74.3438 L90.0938 73.5312 C90.0938 73.0938 90.2031 72.9688 90.7812 72.7344 L91.2031 72.5625 C92.0312 72.2188 92.4531 71.6875 92.4531 70.8438 C92.4531 69.1562 90.6562 68.1875 89.5 68.0312 C89.1094 68.125 88.9062 68.2969 88.9062 68.6406 C88.9062 68.9375 89.0625 69.1562 89.7188 69.2656 L91.4688 69.5781 Z"
    /></g
    ><g ID="legend-1:0" style="text-rendering:optimizeSpeed; font-size:10px; font-family:'SansSerif';"
    ><path style="stroke:none;" d="M30.875 194 L34.9062 194 L34.9062 193.2344 L33.4375 193.2344 L33.4375 186.6562 L32.7344 186.6562 C32.3281 186.9062 31.8594 187.0625 31.2031 187.1875 L31.2031 187.7656 L32.5156 187.7656 L32.5156 193.2344 L30.875 193.2344 L30.875 194 ZM35.925 189.4531 L40.7219 189.4531 L40.7219 188.7656 L35.925 188.7656 L35.925 189.4531 ZM35.925 191.8438 L40.7219 191.8438 L40.7219 191.1719 L35.925 191.1719 L35.925 191.8438 ZM42.1 194 L46.225 194 L46.225 193.2031 L43.0375 193.2031 L43.0375 186.6562 L42.1 186.6562 L42.1 194 ZM46.9831 191.5469 L49.5456 191.5469 L49.5456 190.8438 L46.9831 190.8438 L46.9831 191.5469 ZM52.625 194.125 C52.9531 194.125 53.3125 194.0312 53.625 193.9375 L53.4531 193.25 C53.2656 193.3125 53.0156 193.3906 52.8281 193.3906 C52.2031 193.3906 51.9843 193.0156 51.9843 192.3438 L51.9843 189.3125 L53.4531 189.3125 L53.4531 188.5625 L51.9843 188.5625 L51.9843 187.0469 L51.2343 187.0469 L51.125 188.5625 L50.2656 188.625 L50.2656 189.3125 L51.0781 189.3125 L51.0781 192.3125 C51.0781 193.4062 51.4687 194.125 52.625 194.125 ZM54.6918 194 L55.5981 194 L55.5981 190.0625 C56.145 189.5156 56.5356 189.2344 57.0825 189.2344 C57.8168 189.2344 58.1137 189.6562 58.1137 190.6875 L58.1137 194 L59.0356 194 L59.0356 190.5625 C59.0356 189.1719 58.5043 188.4375 57.3637 188.4375 C56.6293 188.4375 56.0668 188.8438 55.5668 189.3438 L55.5981 188.2188 L55.5981 186.0469 L54.6918 186.0469 L54.6918 194 ZM60.7618 194 L61.6681 194 L61.6681 190.5156 C62.0275 189.5781 62.59 189.2656 63.0431 189.2656 C63.2618 189.2656 63.3868 189.2812 63.5743 189.3438 L63.7462 188.5469 C63.5743 188.4531 63.4025 188.4375 63.1525 188.4375 C62.5431 188.4375 61.9962 188.875 61.6212 189.5625 L61.59 189.5625 L61.5118 188.5625 L60.7618 188.5625 L60.7618 194 ZM64.7199 194 L65.6574 194 L65.6574 190.5469 L69.0637 190.5469 L69.0637 194 L69.9856 194 L69.9856 186.6562 L69.0637 186.6562 L69.0637 189.7344 L65.6574 189.7344 L65.6574 186.6562 L64.7199 186.6562 L64.7199 194 ZM74.1093 194.125 C74.8437 194.125 75.4374 193.875 75.9062 193.5625 L75.5781 192.9688 C75.1874 193.2344 74.7499 193.4062 74.2187 193.4062 C73.1874 193.4062 72.4843 192.6562 72.4218 191.5 L76.0781 191.5 C76.0937 191.375 76.1249 191.1875 76.1249 190.9844 C76.1249 189.4375 75.3437 188.4375 73.9531 188.4375 C72.7031 188.4375 71.5156 189.5312 71.5156 191.2969 C71.5156 193.0781 72.6718 194.125 74.1093 194.125 ZM72.4062 190.8438 C72.5156 189.7812 73.2031 189.1562 73.9687 189.1562 C74.8124 189.1562 75.3124 189.75 75.3124 190.8438 L72.4062 190.8438 ZM76.6962 194 L77.6493 194 L78.3837 192.7344 C78.5712 192.4062 78.7431 192.0625 78.9462 191.7656 L78.9931 191.7656 C79.1962 192.0625 79.3837 192.4062 79.5712 192.7344 L80.3681 194 L81.3681 194 L79.5868 191.2656 L81.2274 188.5625 L80.2743 188.5625 L79.6024 189.7656 C79.4462 190.0625 79.2899 190.375 79.1181 190.6719 L79.0868 190.6719 C78.8993 190.375 78.7118 190.0625 78.5399 189.7656 L77.8056 188.5625 L76.8368 188.5625 L78.4774 191.1719 L76.6962 194 ZM83.7856 189.9062 C84.0512 189.0625 84.2856 188.2812 84.5199 187.4219 L84.5668 187.4219 C84.8012 188.2656 85.0356 189.0625 85.3012 189.9062 L85.6449 191.0156 L83.4262 191.0156 L83.7856 189.9062 ZM81.5512 194 L82.4887 194 L83.2074 191.7656 L85.8793 191.7656 L86.5824 194 L87.5668 194 L85.0668 186.6562 L84.0356 186.6562 L81.5512 194 ZM88.7462 191.25 L90.4024 188.75 C90.6212 188.3906 90.8243 188.0312 90.9962 187.6719 L91.043 187.6719 C91.0274 188.0469 90.9962 188.6406 90.9962 189 L90.9962 191.25 L88.7462 191.25 ZM90.9962 194 L91.8555 194 L91.8555 191.9844 L92.8243 191.9844 L92.8243 191.25 L91.8555 191.25 L91.8555 186.6562 L90.8399 186.6562 L87.793 191.375 L87.793 191.9844 L90.9962 191.9844 L90.9962 194 ZM95.5305 195.9688 L96.093 195.7031 C95.2337 194.2812 94.8274 192.5938 94.8274 190.8906 C94.8274 189.1875 95.2337 187.5156 96.093 186.0781 L95.5305 185.8125 C94.6087 187.3125 94.0618 188.9375 94.0618 190.8906 C94.0618 192.8594 94.6087 194.4688 95.5305 195.9688 ZM97.5199 194 L101.8636 194 L101.8636 193.2031 L98.4574 193.2031 L98.4574 190.5469 L101.223 190.5469 L101.223 189.75 L98.4574 189.75 L98.4574 187.4531 L101.7543 187.4531 L101.7543 186.6562 L97.5199 186.6562 L97.5199 194 ZM103.3843 195.9688 C104.3218 194.4688 104.8686 192.8594 104.8686 190.8906 C104.8686 188.9375 104.3218 187.3125 103.3843 185.8125 L102.8374 186.0781 C103.6968 187.5156 104.103 189.1875 104.103 190.8906 C104.103 192.5938 103.6968 194.2812 102.8374 195.7031 L103.3843 195.9688 ZM108.8893 194.125 C109.6236 194.125 110.2174 193.875 110.6861 193.5625 L110.358 192.9688 C109.9674 193.2344 109.5299 193.4062 108.9986 193.4062 C107.9674 193.4062 107.2643 192.6562 107.2018 191.5 L110.858 191.5 C110.8736 191.375 110.9049 191.1875 110.9049 190.9844 C110.9049 189.4375 110.1236 188.4375 108.733 188.4375 C107.483 188.4375 106.2955 189.5312 106.2955 191.2969 C106.2955 193.0781 107.4518 194.125 108.8893 194.125 ZM107.1861 190.8438 C107.2955 189.7812 107.983 189.1562 108.7486 189.1562 C109.5924 189.1562 110.0924 189.75 110.0924 190.8438 L107.1861 190.8438 ZM112.2417 194 L113.148 194 L113.148 190.0625 C113.6949 189.5156 114.0855 189.2344 114.6324 189.2344 C115.3667 189.2344 115.6636 189.6562 115.6636 190.6875 L115.6636 194 L116.5855 194 L116.5855 190.5625 C116.5855 189.1719 116.0542 188.4375 114.9136 188.4375 C114.1792 188.4375 113.6167 188.8438 113.1011 189.3438 L113.0699 189.3438 L112.9917 188.5625 L112.2417 188.5625 L112.2417 194 Z"
    /></g
  ></g
></svg
>
