<?xml version="1.0"?>
<!DOCTYPE svg PUBLIC '-//W3C//DTD SVG 1.0//EN'
          'http://www.w3.org/TR/2001/REC-SVG-20010904/DTD/svg10.dtd'>
<svg xmlns:xlink="http://www.w3.org/1999/xlink" style="fill-opacity:1; color-rendering:auto; color-interpolation:auto; text-rendering:auto; stroke:black; stroke-linecap:square; stroke-miterlimit:10; shape-rendering:auto; stroke-opacity:1; fill:black; stroke-dasharray:none; font-weight:normal; stroke-width:1; font-family:'Dialog'; font-style:normal; stroke-linejoin:miter; font-size:12px; stroke-dashoffset:0; image-rendering:auto;" viewBox="0 0 462 160" xmlns="http://www.w3.org/2000/svg"
><!--Generated by the Batik Graphics2D SVG Generator--><defs id="genericDefs"
  /><g
  ><defs id="defs1"
    ><clipPath clipPathUnits="userSpaceOnUse" id="clipPath1"
      ><path style="fill-rule:evenodd;" d="M380 67 L374 74 L363 74 L358 67 L363 59 L374 59 L380 67 Z"
      /></clipPath
      ><clipPath clipPathUnits="userSpaceOnUse" id="clipPath2"
      ><path style="fill-rule:evenodd;" d="M320 67 L314 74 L303 74 L298 67 L303 59 L314 59 L320 67 Z"
      /></clipPath
      ><clipPath clipPathUnits="userSpaceOnUse" id="clipPath3"
      ><path style="fill-rule:evenodd;" d="M260 93 L254 100 L243 100 L238 93 L243 85 L254 85 L260 93 Z"
      /></clipPath
      ><clipPath clipPathUnits="userSpaceOnUse" id="clipPath4"
      ><path d="M208 93 C208 99.0751 203.0751 104 197 104 C190.9249 104 186 99.0751 186 93 C186 86.9249 190.9249 82 197 82 C203.0751 82 208 86.9249 208 93 Z"
      /></clipPath
      ><clipPath clipPathUnits="userSpaceOnUse" id="clipPath5"
      ><path d="M156 93 C156 99.0751 151.0751 104 145 104 C138.9249 104 134 99.0751 134 93 C134 86.9249 138.9249 82 145 82 C151.0751 82 156 86.9249 156 93 Z"
      /></clipPath
      ><clipPath clipPathUnits="userSpaceOnUse" id="clipPath6"
      ><path style="fill-rule:evenodd;" d="M93 108 L104 119 L93 130 L82 119 Z"
      /></clipPath
      ><clipPath clipPathUnits="userSpaceOnUse" id="clipPath7"
      ><path style="fill-rule:evenodd;" d="M41 108 L52 119 L41 130 L30 119 Z"
      /></clipPath
      ><clipPath clipPathUnits="userSpaceOnUse" id="clipPath8"
      ><path d="M82 56 L104 56 L104 78 L82 78 L82 56 Z"
      /></clipPath
      ><clipPath clipPathUnits="userSpaceOnUse" id="clipPath9"
      ><path d="M52 67 C52 73.0751 47.0751 78 41 78 C34.9249 78 30 73.0751 30 67 C30 60.9249 34.9249 56 41 56 C47.0751 56 52 60.9249 52 67 Z"
      /></clipPath
      ><clipPath clipPathUnits="userSpaceOnUse" id="clipPath10"
      ><path d="M260 41 C260 47.0751 255.0751 52 249 52 C242.9249 52 238 47.0751 238 41 C238 34.9249 242.9249 30 249 30 C255.0751 30 260 34.9249 260 41 Z"
      /></clipPath
    ></defs
    ><g style="fill:white; text-rendering:optimizeSpeed; stroke:white;"
    ><rect x="0" width="462" height="160" y="0" style="stroke:none;"
      /><polygon style="fill:none; stroke:black;" points=" 421 67 369 67"
      /><path d="M421 56 C415.5 61.5 426.5 72.5 421 78" style="fill:none; stroke:black;"
      /><polygon style="fill:none; stroke:black;" points=" 369 67 309 67"
      /><polygon style="clip-path:url(#clipPath1); stroke:none;" points=" 380 67 374 74 363 74 358 67 363 59 374 59 380 67"
      /><rect x="358" y="56" width="22" style="clip-path:url(#clipPath1); fill:rgb(255,212,0); stroke:none;" height="22"
      /><rect x="358" y="56" width="22" style="clip-path:url(#clipPath1); fill:none; stroke:black;" height="22"
      /><polygon style="fill:none; stroke:black;" points=" 380 67 374 74 363 74 358 67 363 59 374 59 380 67"
      /><polygon style="fill:none; stroke:black;" points=" 309 67 249 93"
      /><polygon style="fill:none; stroke:black;" points=" 309 67 249 41"
      /><polygon style="clip-path:url(#clipPath2); stroke:none;" points=" 320 67 314 74 303 74 298 67 303 59 314 59 320 67"
      /><rect x="298" y="56" width="22" style="clip-path:url(#clipPath2); fill:rgb(0,166,81); stroke:none;" height="22"
      /><rect x="298" y="56" width="22" style="clip-path:url(#clipPath2); fill:none; stroke:black;" height="22"
      /><polygon style="fill:none; stroke:black;" points=" 320 67 314 74 303 74 298 67 303 59 314 59 320 67"
      /><rect x="290" y="38" width="36" style="stroke:none;" height="10"
    /></g
    ><g style="text-rendering:optimizeSpeed; font-size:14px; font-family:'SansSerif';"
    ><path style="stroke:none;" d="M294.1094 43.5781 C295.3438 43.5781 295.9688 44.4688 295.9688 45.8438 C295.9688 47.25 295.1875 48.1875 294.2188 48.1875 C292.9219 48.1875 292.1562 47.0312 292 44.8906 C292.625 43.9531 293.4531 43.5781 294.1094 43.5781 ZM294.2188 49.1875 C295.8125 49.1875 297.1562 47.8438 297.1562 45.8438 C297.1562 43.7031 296.0469 42.625 294.3125 42.625 C293.5 42.625 292.6094 43.1094 291.9688 43.875 C292.0312 40.6875 293.2188 39.6094 294.625 39.6094 C295.25 39.6094 295.8594 39.9062 296.2656 40.3906 L296.9688 39.5938 C296.4062 38.9844 295.6406 38.5469 294.5781 38.5469 C292.5938 38.5469 290.7812 40.0781 290.7812 44.0938 C290.7812 47.4844 292.2344 49.1875 294.2188 49.1875 ZM299.1762 49 L300.4731 49 L300.4731 44.9219 L302.1606 44.9219 C304.4262 44.9219 305.9418 43.9219 305.9418 41.75 C305.9418 39.5156 304.4106 38.7188 302.1137 38.7188 L299.1762 38.7188 L299.1762 49 ZM300.4731 43.875 L300.4731 39.7812 L301.9418 39.7812 C303.7543 39.7812 304.6606 40.2656 304.6606 41.75 C304.6606 43.2188 303.8012 43.875 302.0043 43.875 L300.4731 43.875 ZM308.0242 49 L314.0867 49 L314.0867 47.8906 L309.321 47.8906 L309.321 44.1562 L313.2117 44.1562 L313.2117 43.0469 L309.321 43.0469 L309.321 39.8281 L313.946 39.8281 L313.946 38.7188 L308.0242 38.7188 L308.0242 49 ZM318.5374 49.1875 C318.9905 49.1875 319.4905 49.0469 319.928 48.9062 L319.678 47.9531 C319.428 48.0469 319.0843 48.1406 318.8187 48.1406 C317.928 48.1406 317.6312 47.6094 317.6312 46.6719 L317.6312 42.4375 L319.6937 42.4375 L319.6937 41.3906 L317.6312 41.3906 L317.6312 39.25 L316.5687 39.25 L316.4124 41.3906 L315.2249 41.4688 L315.2249 42.4375 L316.3655 42.4375 L316.3655 46.6406 C316.3655 48.1562 316.9124 49.1875 318.5374 49.1875 ZM321.4091 49 L322.6904 49 L322.6904 43.4844 C323.456 42.7188 323.9872 42.3281 324.7685 42.3281 C325.7841 42.3281 326.2216 42.9219 326.2216 44.3594 L326.2216 49 L327.4872 49 L327.4872 44.1875 C327.4872 42.2344 326.7685 41.2031 325.1747 41.2031 C324.1279 41.2031 323.3466 41.7812 322.6122 42.4844 L322.581 42.4844 L322.4716 41.3906 L321.4091 41.3906 L321.4091 49 Z"
      /><polygon style="fill:none;" points=" 249 93 197 93"
    /></g
    ><g style="fill:white; text-rendering:optimizeSpeed; stroke:white;"
    ><polygon style="stroke:none; clip-path:url(#clipPath3);" points=" 260 93 254 100 243 100 238 93 243 85 254 85 260 93"
      /><rect x="238" y="82" width="22" style="clip-path:url(#clipPath3); fill:rgb(0,166,81); stroke:none;" height="22"
      /><rect x="238" y="82" width="22" style="clip-path:url(#clipPath3); fill:none; stroke:black;" height="22"
      /><polygon style="fill:none; stroke:black;" points=" 260 93 254 100 243 100 238 93 243 85 254 85 260 93"
      /><polygon style="fill:none; stroke:black;" points=" 197 93 145 93"
      /><circle r="11" style="clip-path:url(#clipPath4); stroke:none;" cx="197" cy="93"
      /><rect x="186" y="82" width="22" style="clip-path:url(#clipPath4); fill:rgb(0,144,188); stroke:none;" height="22"
      /><rect x="186" y="82" width="22" style="clip-path:url(#clipPath4); fill:none; stroke:black;" height="22"
      /><circle r="11" style="fill:none; stroke:black;" cx="197" cy="93"
      /><polygon style="fill:none; stroke:black;" points=" 145 93 93 119"
      /><polygon style="fill:none; stroke:black;" points=" 145 93 93 67"
      /><circle r="11" style="clip-path:url(#clipPath5); stroke:none;" cx="145" cy="93"
      /><rect x="134" y="82" width="22" style="clip-path:url(#clipPath5); fill:rgb(255,212,0); stroke:none;" height="22"
      /><rect x="134" y="82" width="22" style="clip-path:url(#clipPath5); fill:none; stroke:black;" height="22"
      /><circle r="11" style="fill:none; stroke:black;" cx="145" cy="93"
      /><polygon style="fill:none; stroke:black;" points=" 93 119 41 119"
      /><polygon style="clip-path:url(#clipPath6); stroke:none;" points=" 93 108 104 119 93 130 82 119"
      /><rect x="82" y="108" width="22" style="clip-path:url(#clipPath6); fill:rgb(165,67,153); stroke:none;" height="22"
      /><rect x="82" y="108" width="22" style="clip-path:url(#clipPath6); fill:none; stroke:black;" height="22"
      /><polygon style="fill:none; stroke:black;" points=" 93 108 104 119 93 130 82 119"
      /><polygon style="clip-path:url(#clipPath7); stroke:none;" points=" 41 108 52 119 41 130 30 119"
      /><rect x="30" y="108" width="22" style="clip-path:url(#clipPath7); fill:rgb(165,67,153); stroke:none;" height="22"
      /><rect x="30" y="108" width="22" style="clip-path:url(#clipPath7); fill:none; stroke:black;" height="22"
      /><polygon style="fill:none; stroke:black;" points=" 41 108 52 119 41 130 30 119"
      /><rect x="71" width="6" height="10" y="122" style="stroke:none;"
      /><path d="M74.2656 131.7031 C73.2031 131.7031 72.5 130.9688 72.5 129.9062 C72.5 128.9688 72.9375 128.4219 73.9062 127.8438 C75.4688 128.5625 75.9531 129.1719 75.9531 130.0156 C75.9531 131 75.2969 131.7031 74.2656 131.7031 ZM72.75 125.0469 C72.75 124.1094 73.4531 123.5625 74.2344 123.5625 C75.1562 123.5625 75.6562 124.2656 75.6562 125.0938 C75.6562 125.9688 75.3281 126.5469 74.4688 127.1562 C73.0938 126.5156 72.75 125.7969 72.75 125.0469 ZM74.8594 127.3438 C76.0938 126.6562 76.4531 125.8125 76.4531 125.0938 C76.4531 123.9219 75.6094 123.0781 74.2656 123.0781 C72.9375 123.0781 71.8906 123.9062 71.8906 125.2031 C71.8906 126.2031 72.375 127.0469 73.5156 127.6562 C72.2656 128.2812 71.5938 129 71.5938 130.0156 C71.5938 131.3906 72.6562 132.1719 74.2344 132.1719 C75.75 132.1719 76.875 131.25 76.875 129.8906 C76.875 128.7344 76.2656 128 74.8594 127.3438 Z" style="fill:black; stroke:none;"
      /><rect x="56" width="8" height="8" y="123" style="stroke:none;"
      /><path d="M60.9844 128.7031 C60.9375 129.8906 60.1562 130.6562 59.3125 130.6562 C58.2656 130.6562 57.5 129.6875 57.5 127.7188 C57.5 126.2812 58.1562 125.1562 59.3438 125.1562 C60.1406 125.1562 60.7812 125.6875 61.0938 126.6406 L60.9844 128.7031 ZM62.9062 130.2812 C62.7344 130.375 62.5469 130.4219 62.3438 130.4219 C61.9531 130.4219 61.75 130.2188 61.75 129.4219 C61.75 128.4844 61.9688 126.5312 62.1875 124.8281 L62.0312 124.7188 L61.2344 124.9219 L61.1406 125.7969 C60.7812 125.0312 60.1562 124.6562 59.3906 124.6562 C58.0469 124.6562 56.5625 125.8438 56.5625 127.9531 C56.5625 130.0938 57.7188 131.1719 59.1406 131.1719 C60.0156 131.1719 60.6875 130.8125 61.0938 129.9844 C61.2031 130.8594 61.5156 131.1719 62.0156 131.1719 C62.4688 131.1719 62.7969 130.9062 63.0156 130.5625 L62.9062 130.2812 Z" style="fill:black; stroke:none;"
      /><polygon style="fill:none; stroke:black;" points=" 93 67 41 67"
      /><rect x="82" y="56" width="22" style="clip-path:url(#clipPath8); stroke:none;" height="22"
      /><rect x="82" y="56" width="22" style="clip-path:url(#clipPath8); fill:rgb(255,212,0); stroke:none;" height="22"
      /><rect x="82" y="56" width="22" style="clip-path:url(#clipPath8); fill:none; stroke:black;" height="22"
      /><rect x="82" y="56" width="22" style="fill:none; stroke:black;" height="22"
      /><circle r="11" style="clip-path:url(#clipPath9); stroke:none;" cx="41" cy="67"
      /><rect x="30" y="56" width="22" style="clip-path:url(#clipPath9); fill:rgb(255,212,0); stroke:none;" height="22"
      /><rect x="30" y="56" width="22" style="clip-path:url(#clipPath9); fill:none; stroke:black;" height="22"
      /><circle r="11" style="fill:none; stroke:black;" cx="41" cy="67"
      /><rect x="71" width="6" height="10" y="70" style="stroke:none;"
      /><path d="M73.2344 71.6562 C73.5156 71.5938 73.7656 71.5625 74.0156 71.5625 C75.0625 71.5625 75.6719 72.1719 75.6719 73.2656 C75.6719 74.4375 74.9062 75.1094 73.7031 75.1094 L73.1875 75.1094 L73.1875 75.6406 L73.7969 75.6406 C75.2188 75.6406 75.9062 76.4219 75.9062 77.6406 C75.9062 78.8438 75.1719 79.6875 73.875 79.6875 C73.6094 79.6875 73.3125 79.6562 73.0156 79.5625 L72.7812 78.8125 C72.625 78.2812 72.5 78.0469 72.1406 78.0469 C71.8906 78.0469 71.7031 78.1719 71.5781 78.4219 C71.8438 79.6406 72.7812 80.1719 74.0312 80.1719 C75.7188 80.1719 76.875 79.125 76.875 77.7031 C76.875 76.5 76.2031 75.625 74.7969 75.375 C75.9531 75.0156 76.6094 74.2031 76.6094 73.2031 C76.6094 71.9219 75.6719 71.0781 74.1875 71.0781 C73.0469 71.0781 72.0625 71.5938 71.7969 72.6875 C71.9062 73 72.1094 73.1094 72.3594 73.1094 C72.7344 73.1094 72.8906 72.8906 73 72.4062 L73.2344 71.6562 Z" style="fill:black; stroke:none;"
      /><rect x="57" width="6" height="13" y="68" style="stroke:none;"
      /><path d="M59.0938 74.2031 C59.0938 72.6562 59.75 71.8125 60.7969 71.8125 C61.7188 71.8125 62.2656 72.4531 62.2656 73.5156 C62.2656 74.7188 61.5 75.4375 60.1875 75.7031 L60.2969 76.3125 C62.2188 76.2344 62.9375 77.2188 62.9375 78.4375 C62.9375 79.625 62.2344 80.4219 60.9531 80.4219 C60.25 80.4219 59.6562 80.1562 59.0938 79.7188 L59.0938 74.2031 ZM58.2031 80.9062 L58.1094 83.375 L58.2656 83.4844 L59.1562 83.2656 L59.0156 80.0938 C59.5469 80.8438 60.3594 81.1719 61.1719 81.1719 C62.5625 81.1719 63.8594 80.2188 63.8594 78.4844 C63.8594 76.9531 62.875 76.1094 61.125 76 C62.5625 75.6094 63.1875 74.4531 63.1875 73.4844 C63.1875 72.0938 62.1562 71.3125 60.9062 71.3125 C59.2969 71.3125 58.2188 72.5469 58.2188 74.5156 L58.2031 80.9062 Z" style="fill:black; stroke:none;"
      /><rect x="127" width="6" height="10" y="104" style="stroke:none;"
      /><path d="M129.2344 105.6562 C129.5156 105.5938 129.7656 105.5625 130.0156 105.5625 C131.0625 105.5625 131.6719 106.1719 131.6719 107.2656 C131.6719 108.4375 130.9062 109.1094 129.7031 109.1094 L129.1875 109.1094 L129.1875 109.6406 L129.7969 109.6406 C131.2188 109.6406 131.9062 110.4219 131.9062 111.6406 C131.9062 112.8438 131.1719 113.6875 129.875 113.6875 C129.6094 113.6875 129.3125 113.6562 129.0156 113.5625 L128.7812 112.8125 C128.625 112.2812 128.5 112.0469 128.1406 112.0469 C127.8906 112.0469 127.7031 112.1719 127.5781 112.4219 C127.8438 113.6406 128.7812 114.1719 130.0312 114.1719 C131.7188 114.1719 132.875 113.125 132.875 111.7031 C132.875 110.5 132.2031 109.625 130.7969 109.375 C131.9531 109.0156 132.6094 108.2031 132.6094 107.2031 C132.6094 105.9219 131.6719 105.0781 130.1875 105.0781 C129.0469 105.0781 128.0625 105.5938 127.7969 106.6875 C127.9062 107 128.1094 107.1094 128.3594 107.1094 C128.7344 107.1094 128.8906 106.8906 129 106.4062 L129.2344 105.6562 Z" style="fill:black; stroke:none;"
      /><rect x="110" width="8" height="8" y="113" style="stroke:none;"
      /><path d="M114.9844 118.7031 C114.9375 119.8906 114.1562 120.6562 113.3125 120.6562 C112.2656 120.6562 111.5 119.6875 111.5 117.7188 C111.5 116.2812 112.1562 115.1562 113.3438 115.1562 C114.1406 115.1562 114.7812 115.6875 115.0938 116.6406 L114.9844 118.7031 ZM116.9062 120.2812 C116.7344 120.375 116.5469 120.4219 116.3438 120.4219 C115.9531 120.4219 115.75 120.2188 115.75 119.4219 C115.75 118.4844 115.9688 116.5312 116.1875 114.8281 L116.0312 114.7188 L115.2344 114.9219 L115.1406 115.7969 C114.7812 115.0312 114.1562 114.6562 113.3906 114.6562 C112.0469 114.6562 110.5625 115.8438 110.5625 117.9531 C110.5625 120.0938 111.7188 121.1719 113.1406 121.1719 C114.0156 121.1719 114.6875 120.8125 115.0938 119.9844 C115.2031 120.8594 115.5156 121.1719 116.0156 121.1719 C116.4688 121.1719 116.7969 120.9062 117.0156 120.5625 L116.9062 120.2812 Z" style="fill:black; stroke:none;"
      /><rect x="119" width="7" height="9" y="86" style="stroke:none;"
      /><path d="M120 91.5156 L122.9531 87.2656 L122.9531 91.5156 L120 91.5156 ZM125.2812 91.5156 L123.8594 91.5156 L123.8594 86.125 L123.2344 86.125 L119.3438 91.6406 L119.3438 92.1875 L122.9531 92.1875 L122.9531 95 L123.8594 95 L123.8594 92.1875 L125.2812 92.1875 L125.2812 91.5156 Z" style="fill:black; stroke:none;"
      /><rect x="104" width="6" height="13" y="76" style="stroke:none;"
      /><path d="M106.0938 82.2031 C106.0938 80.6562 106.75 79.8125 107.7969 79.8125 C108.7188 79.8125 109.2656 80.4531 109.2656 81.5156 C109.2656 82.7188 108.5 83.4375 107.1875 83.7031 L107.2969 84.3125 C109.2188 84.2344 109.9375 85.2188 109.9375 86.4375 C109.9375 87.625 109.2344 88.4219 107.9531 88.4219 C107.25 88.4219 106.6562 88.1562 106.0938 87.7188 L106.0938 82.2031 ZM105.2031 88.9062 L105.1094 91.375 L105.2656 91.4844 L106.1562 91.2656 L106.0156 88.0938 C106.5469 88.8438 107.3594 89.1719 108.1719 89.1719 C109.5625 89.1719 110.8594 88.2188 110.8594 86.4844 C110.8594 84.9531 109.875 84.1094 108.125 84 C109.5625 83.6094 110.1875 82.4531 110.1875 81.4844 C110.1875 80.0938 109.1562 79.3125 107.9062 79.3125 C106.2969 79.3125 105.2188 80.5469 105.2188 82.5156 L105.2031 88.9062 Z" style="fill:black; stroke:none;"
      /><rect x="174" width="7" height="9" y="96" style="stroke:none;"
      /><path d="M175 101.5156 L177.9531 97.2656 L177.9531 101.5156 L175 101.5156 ZM180.2812 101.5156 L178.8594 101.5156 L178.8594 96.125 L178.2344 96.125 L174.3438 101.6406 L174.3438 102.1875 L177.9531 102.1875 L177.9531 105 L178.8594 105 L178.8594 102.1875 L180.2812 102.1875 L180.2812 101.5156 Z" style="fill:black; stroke:none;"
      /><rect x="161" width="6" height="13" y="94" style="stroke:none;"
      /><path d="M163.0938 100.2031 C163.0938 98.6562 163.75 97.8125 164.7969 97.8125 C165.7188 97.8125 166.2656 98.4531 166.2656 99.5156 C166.2656 100.7188 165.5 101.4375 164.1875 101.7031 L164.2969 102.3125 C166.2188 102.2344 166.9375 103.2188 166.9375 104.4375 C166.9375 105.625 166.2344 106.4219 164.9531 106.4219 C164.25 106.4219 163.6562 106.1562 163.0938 105.7188 L163.0938 100.2031 ZM162.2031 106.9062 L162.1094 109.375 L162.2656 109.4844 L163.1562 109.2656 L163.0156 106.0938 C163.5469 106.8438 164.3594 107.1719 165.1719 107.1719 C166.5625 107.1719 167.8594 106.2188 167.8594 104.4844 C167.8594 102.9531 166.875 102.1094 165.125 102 C166.5625 101.6094 167.1875 100.4531 167.1875 99.4844 C167.1875 98.0938 166.1562 97.3125 164.9062 97.3125 C163.2969 97.3125 162.2188 98.5469 162.2188 100.5156 L162.2031 106.9062 Z" style="fill:black; stroke:none;"
      /><rect x="227" width="6" height="9" y="96" style="stroke:none;"
      /><path d="M228.4219 104.0938 C229.0781 103.375 229.7031 102.7188 230.0312 102.3438 C231.9219 100.3125 232.5312 99.4688 232.5312 98.3594 C232.5312 97.0156 231.7812 96.0781 230.1562 96.0781 C228.9062 96.0781 227.7969 96.7031 227.5938 97.9688 C227.7188 98.2031 227.9062 98.3438 228.1562 98.3438 C228.4688 98.3438 228.6562 98.1094 228.7969 97.5938 L229.0938 96.6719 C229.3906 96.5938 229.6562 96.5625 229.8906 96.5625 C230.9219 96.5625 231.5469 97.3125 231.5469 98.4219 C231.5469 99.4375 230.9844 100.4219 229.7031 101.9062 C229.125 102.5781 228.3906 103.4375 227.6406 104.2812 L227.6406 105 L232.9219 105 L232.9219 104.0938 L228.4219 104.0938 Z" style="fill:black; stroke:none;"
      /><rect x="213" width="6" height="13" y="94" style="stroke:none;"
      /><path d="M215.0938 100.2031 C215.0938 98.6562 215.75 97.8125 216.7969 97.8125 C217.7188 97.8125 218.2656 98.4531 218.2656 99.5156 C218.2656 100.7188 217.5 101.4375 216.1875 101.7031 L216.2969 102.3125 C218.2188 102.2344 218.9375 103.2188 218.9375 104.4375 C218.9375 105.625 218.2344 106.4219 216.9531 106.4219 C216.25 106.4219 215.6562 106.1562 215.0938 105.7188 L215.0938 100.2031 ZM214.2031 106.9062 L214.1094 109.375 L214.2656 109.4844 L215.1562 109.2656 L215.0156 106.0938 C215.5469 106.8438 216.3594 107.1719 217.1719 107.1719 C218.5625 107.1719 219.8594 106.2188 219.8594 104.4844 C219.8594 102.9531 218.875 102.1094 217.125 102 C218.5625 101.6094 219.1875 100.4531 219.1875 99.4844 C219.1875 98.0938 218.1562 97.3125 216.9062 97.3125 C215.2969 97.3125 214.2188 98.5469 214.2188 100.5156 L214.2031 106.9062 Z" style="fill:black; stroke:none;"
      /><circle r="11" style="clip-path:url(#clipPath10); stroke:none;" cx="249" cy="41"
      /><rect x="238" y="30" width="22" style="clip-path:url(#clipPath10); fill:rgb(0,144,188); stroke:none;" height="22"
      /><rect x="238" y="30" width="22" style="clip-path:url(#clipPath10); fill:none; stroke:black;" height="22"
      /><circle r="11" style="fill:none; stroke:black;" cx="249" cy="41"
      /><rect x="282" width="6" height="10" y="80" style="stroke:none;"
      /><path d="M284.2344 81.6562 C284.5156 81.5938 284.7656 81.5625 285.0156 81.5625 C286.0625 81.5625 286.6719 82.1719 286.6719 83.2656 C286.6719 84.4375 285.9062 85.1094 284.7031 85.1094 L284.1875 85.1094 L284.1875 85.6406 L284.7969 85.6406 C286.2188 85.6406 286.9062 86.4219 286.9062 87.6406 C286.9062 88.8438 286.1719 89.6875 284.875 89.6875 C284.6094 89.6875 284.3125 89.6562 284.0156 89.5625 L283.7812 88.8125 C283.625 88.2812 283.5 88.0469 283.1406 88.0469 C282.8906 88.0469 282.7031 88.1719 282.5781 88.4219 C282.8438 89.6406 283.7812 90.1719 285.0312 90.1719 C286.7188 90.1719 287.875 89.125 287.875 87.7031 C287.875 86.5 287.2031 85.625 285.7969 85.375 C286.9531 85.0156 287.6094 84.2031 287.6094 83.2031 C287.6094 81.9219 286.6719 81.0781 285.1875 81.0781 C284.0469 81.0781 283.0625 81.5938 282.7969 82.6875 C282.9062 83 283.1094 83.1094 283.3594 83.1094 C283.7344 83.1094 283.8906 82.8906 284 82.4062 L284.2344 81.6562 Z" style="fill:black; stroke:none;"
      /><rect x="266" width="8" height="8" y="88" style="stroke:none;"
      /><path d="M270.9844 93.7031 C270.9375 94.8906 270.1562 95.6562 269.3125 95.6562 C268.2656 95.6562 267.5 94.6875 267.5 92.7188 C267.5 91.2812 268.1562 90.1562 269.3438 90.1562 C270.1406 90.1562 270.7812 90.6875 271.0938 91.6406 L270.9844 93.7031 ZM272.9062 95.2812 C272.7344 95.375 272.5469 95.4219 272.3438 95.4219 C271.9531 95.4219 271.75 95.2188 271.75 94.4219 C271.75 93.4844 271.9688 91.5312 272.1875 89.8281 L272.0312 89.7188 L271.2344 89.9219 L271.1406 90.7969 C270.7812 90.0312 270.1562 89.6562 269.3906 89.6562 C268.0469 89.6562 266.5625 90.8438 266.5625 92.9531 C266.5625 95.0938 267.7188 96.1719 269.1406 96.1719 C270.0156 96.1719 270.6875 95.8125 271.0938 94.9844 C271.2031 95.8594 271.5156 96.1719 272.0156 96.1719 C272.4688 96.1719 272.7969 95.9062 273.0156 95.5625 L272.9062 95.2812 Z" style="fill:black; stroke:none;"
      /><rect x="275" width="7" height="9" y="58" style="stroke:none;"
      /><path d="M276 63.5156 L278.9531 59.2656 L278.9531 63.5156 L276 63.5156 ZM281.2812 63.5156 L279.8594 63.5156 L279.8594 58.125 L279.2344 58.125 L275.3438 63.6406 L275.3438 64.1875 L278.9531 64.1875 L278.9531 67 L279.8594 67 L279.8594 64.1875 L281.2812 64.1875 L281.2812 63.5156 Z" style="fill:black; stroke:none;"
      /><rect x="261" width="6" height="13" y="49" style="stroke:none;"
      /><path d="M263.0938 55.2031 C263.0938 53.6562 263.75 52.8125 264.7969 52.8125 C265.7188 52.8125 266.2656 53.4531 266.2656 54.5156 C266.2656 55.7188 265.5 56.4375 264.1875 56.7031 L264.2969 57.3125 C266.2188 57.2344 266.9375 58.2188 266.9375 59.4375 C266.9375 60.625 266.2344 61.4219 264.9531 61.4219 C264.25 61.4219 263.6562 61.1562 263.0938 60.7188 L263.0938 55.2031 ZM262.2031 61.9062 L262.1094 64.375 L262.2656 64.4844 L263.1562 64.2656 L263.0156 61.0938 C263.5469 61.8438 264.3594 62.1719 265.1719 62.1719 C266.5625 62.1719 267.8594 61.2188 267.8594 59.4844 C267.8594 57.9531 266.875 57.1094 265.125 57 C266.5625 56.6094 267.1875 55.4531 267.1875 54.4844 C267.1875 53.0938 266.1562 52.3125 264.9062 52.3125 C263.2969 52.3125 262.2188 53.5469 262.2188 55.5156 L262.2031 61.9062 Z" style="fill:black; stroke:none;"
      /><rect x="347" width="6" height="10" y="70" style="stroke:none;"
      /><path d="M348.9219 72.1406 L352.6562 72.1406 L352.6562 71.25 L348.4531 71.25 L348.1719 75.3125 L348.5156 75.3906 C348.9219 75.25 349.3906 75.1875 349.8125 75.1875 C351.0781 75.1875 351.9219 75.9531 351.9219 77.3906 C351.9219 78.7812 351.1719 79.6875 349.8281 79.6875 C349.5156 79.6875 349.2344 79.6406 348.9375 79.5625 L348.6875 78.7812 C348.5312 78.2188 348.3906 78.0469 348.0625 78.0469 C347.7969 78.0469 347.5938 78.1719 347.4844 78.4375 C347.7656 79.5938 348.625 80.1719 349.8906 80.1719 C351.7031 80.1719 352.875 78.9844 352.875 77.2812 C352.875 75.5312 351.75 74.5469 350.0938 74.5469 C349.6094 74.5469 349.1719 74.625 348.7344 74.7656 L348.9219 72.1406 Z" style="fill:black; stroke:none;"
      /><rect x="332" width="8" height="8" y="71" style="stroke:none;"
      /><path d="M336.9844 76.7031 C336.9375 77.8906 336.1562 78.6562 335.3125 78.6562 C334.2656 78.6562 333.5 77.6875 333.5 75.7188 C333.5 74.2812 334.1562 73.1562 335.3438 73.1562 C336.1406 73.1562 336.7812 73.6875 337.0938 74.6406 L336.9844 76.7031 ZM338.9062 78.2812 C338.7344 78.375 338.5469 78.4219 338.3438 78.4219 C337.9531 78.4219 337.75 78.2188 337.75 77.4219 C337.75 76.4844 337.9688 74.5312 338.1875 72.8281 L338.0312 72.7188 L337.2344 72.9219 L337.1406 73.7969 C336.7812 73.0312 336.1562 72.6562 335.3906 72.6562 C334.0469 72.6562 332.5625 73.8438 332.5625 75.9531 C332.5625 78.0938 333.7188 79.1719 335.1406 79.1719 C336.0156 79.1719 336.6875 78.8125 337.0938 77.9844 C337.2031 78.8594 337.5156 79.1719 338.0156 79.1719 C338.4688 79.1719 338.7969 78.9062 339.0156 78.5625 L338.9062 78.2812 Z" style="fill:black; stroke:none;"
      /><rect x="384" width="8" height="8" y="71" style="stroke:none;"
      /><path d="M388.9844 76.7031 C388.9375 77.8906 388.1562 78.6562 387.3125 78.6562 C386.2656 78.6562 385.5 77.6875 385.5 75.7188 C385.5 74.2812 386.1562 73.1562 387.3438 73.1562 C388.1406 73.1562 388.7812 73.6875 389.0938 74.6406 L388.9844 76.7031 ZM390.9062 78.2812 C390.7344 78.375 390.5469 78.4219 390.3438 78.4219 C389.9531 78.4219 389.75 78.2188 389.75 77.4219 C389.75 76.4844 389.9688 74.5312 390.1875 72.8281 L390.0312 72.7188 L389.2344 72.9219 L389.1406 73.7969 C388.7812 73.0312 388.1562 72.6562 387.3906 72.6562 C386.0469 72.6562 384.5625 73.8438 384.5625 75.9531 C384.5625 78.0938 385.7188 79.1719 387.1406 79.1719 C388.0156 79.1719 388.6875 78.8125 389.0938 77.9844 C389.2031 78.8594 389.5156 79.1719 390.0156 79.1719 C390.4688 79.1719 390.7969 78.9062 391.0156 78.5625 L390.9062 78.2812 Z" style="fill:black; stroke:none;"
    /></g
  ></g
></svg
>
