<?xml version="1.0"?>
<!DOCTYPE svg PUBLIC '-//W3C//DTD SVG 1.0//EN'
          'http://www.w3.org/TR/2001/REC-SVG-20010904/DTD/svg10.dtd'>
<svg xmlns:xlink="http://www.w3.org/1999/xlink" style="fill-opacity:1; color-rendering:auto; color-interpolation:auto; text-rendering:auto; stroke:black; stroke-linecap:square; stroke-miterlimit:10; shape-rendering:auto; stroke-opacity:1; fill:black; stroke-dasharray:none; font-weight:normal; stroke-width:1; font-family:'Dialog'; font-style:normal; stroke-linejoin:miter; font-size:12px; stroke-dashoffset:0; image-rendering:auto;" viewBox="0 0 504 105" xmlns="http://www.w3.org/2000/svg"
><!--Generated by the Batik Graphics2D SVG Generator--><defs id="genericDefs"
  /><g
  ><defs id="defs1"
    ><clipPath clipPathUnits="userSpaceOnUse" id="clipPath1"
      ><path d="M422 41 C422 47.0751 417.0751 52 411 52 C404.9249 52 400 47.0751 400 41 C400 34.9249 404.9249 30 411 30 C417.0751 30 422 34.9249 422 41 Z"
      /></clipPath
      ><clipPath clipPathUnits="userSpaceOnUse" id="clipPath2"
      ><path d="M347 30 L369 30 L369 52 L347 52 L347 30 Z"
      /></clipPath
      ><clipPath clipPathUnits="userSpaceOnUse" id="clipPath3"
      ><path d="M264 41 C264 47.0751 259.0751 52 253 52 C246.9249 52 242 47.0751 242 41 C242 34.9249 246.9249 30 253 30 C259.0751 30 264 34.9249 264 41 Z"
      /></clipPath
      ><clipPath clipPathUnits="userSpaceOnUse" id="clipPath4"
      ><path d="M189 30 L211 30 L211 52 L189 52 L189 30 Z"
      /></clipPath
      ><clipPath clipPathUnits="userSpaceOnUse" id="clipPath5"
      ><path d="M106 41 C106 47.0751 101.0751 52 95 52 C88.9249 52 84 47.0751 84 41 C84 34.9249 88.9249 30 95 30 C101.0751 30 106 34.9249 106 41 Z"
      /></clipPath
      ><clipPath clipPathUnits="userSpaceOnUse" id="clipPath6"
      ><path d="M31 30 L53 30 L53 52 L31 52 L31 30 Z"
      /></clipPath
    ></defs
    ><g style="fill:white; text-rendering:optimizeSpeed; stroke:white;"
    ><rect x="0" width="504" height="105" y="0" style="stroke:none;"
      /><polygon style="fill:none; stroke:black;" points=" 463 41 411 41"
      /><path d="M463 30 C457.5 35.5 468.5 46.5 463 52" style="fill:none; stroke:black;"
      /><polygon style="fill:none; stroke:black;" points=" 411 41 358 41"
      /><circle style="clip-path:url(#clipPath1); stroke:none;" r="11" cx="411" cy="41"
      /><rect x="400" y="30" width="22" style="clip-path:url(#clipPath1); fill:rgb(255,212,0); stroke:none;" height="22"
      /><rect x="400" y="30" width="22" style="clip-path:url(#clipPath1); fill:none; stroke:black;" height="22"
      /><circle style="fill:none; stroke:black;" r="11" cx="411" cy="41"
      /><polygon style="fill:none; stroke:black;" points=" 358 41 305 41"
      /><rect x="347" y="30" width="22" style="clip-path:url(#clipPath2); stroke:none;" height="22"
      /><rect x="347" y="30" width="22" style="clip-path:url(#clipPath2); fill:rgb(0,144,188); stroke:none;" height="22"
      /><rect x="347" y="30" width="22" style="clip-path:url(#clipPath2); fill:none; stroke:black;" height="22"
      /><rect x="347" y="30" width="22" style="fill:none; stroke:black;" height="22"
      /><rect x="346" y="58" width="22" style="stroke:none;" height="10"
    /></g
    ><g style="text-rendering:optimizeSpeed; font-size:14px; font-family:'SansSerif';"
    ><path style="stroke:none;" d="M349.7031 69.1875 C351.5156 69.1875 352.9844 68.0938 352.9844 66.25 C352.9844 64.8594 352.0156 63.9375 350.8125 63.6562 L350.8125 63.5938 C351.8906 63.1875 352.6406 62.3594 352.6406 61.125 C352.6406 59.5 351.375 58.5469 349.6562 58.5469 C348.4688 58.5469 347.5469 59.0625 346.7812 59.7812 L347.4688 60.5938 C348.0469 60 348.7656 59.5938 349.5938 59.5938 C350.6562 59.5938 351.3281 60.2344 351.3281 61.2188 C351.3281 62.3281 350.6094 63.1719 348.4844 63.1719 L348.4844 64.1562 C350.8594 64.1562 351.6875 64.9844 351.6875 66.2031 C351.6875 67.3906 350.8125 68.125 349.5938 68.125 C348.4375 68.125 347.6562 67.5781 347.0469 66.9375 L346.4062 67.7812 C347.0781 68.5156 348.0938 69.1875 349.7031 69.1875 ZM356.9418 63.2656 C357.3168 62.0938 357.645 60.9844 357.9731 59.7812 L358.02 59.7812 C358.3637 60.9844 358.6762 62.0938 359.0668 63.2656 L359.5512 64.8281 L356.4418 64.8281 L356.9418 63.2656 ZM353.8168 69 L355.1293 69 L356.1293 65.8594 L359.8793 65.8594 L360.8481 69 L362.2231 69 L358.7387 58.7188 L357.3012 58.7188 L353.8168 69 ZM366.5492 69.1875 C367.4554 69.1875 368.3304 68.8281 369.0179 68.2188 L368.4554 67.3594 C367.9867 67.7969 367.3617 68.125 366.6586 68.125 C365.2679 68.125 364.3148 66.9531 364.3148 65.2031 C364.3148 63.4531 365.3148 62.2656 366.7054 62.2656 C367.3148 62.2656 367.7679 62.5469 368.2211 62.9375 L368.8773 62.0938 C368.3304 61.625 367.6429 61.2031 366.6429 61.2031 C364.7054 61.2031 362.9867 62.6719 362.9867 65.2031 C362.9867 67.7188 364.5336 69.1875 366.5492 69.1875 Z"
      /><polygon style="fill:none;" points=" 305 41 253 41"
      /><rect x="301" y="35" width="6" style="fill:white; stroke:none;" height="10"
      /><path style="stroke:none;" d="M302.4062 46 L303.7031 46 L303.7031 41.9219 L305.3906 41.9219 C307.6562 41.9219 309.1719 40.9219 309.1719 38.75 C309.1719 36.5156 307.6406 35.7188 305.3438 35.7188 L302.4062 35.7188 L302.4062 46 ZM303.7031 40.875 L303.7031 36.7812 L305.1719 36.7812 C306.9844 36.7812 307.8906 37.2656 307.8906 38.75 C307.8906 40.2188 307.0312 40.875 305.2344 40.875 L303.7031 40.875 Z"
      /><polygon style="fill:none;" points=" 253 41 200 41"
    /></g
    ><g style="fill:white; text-rendering:optimizeSpeed; stroke:white;"
    ><circle r="11" style="clip-path:url(#clipPath3); stroke:none;" cx="253" cy="41"
      /><rect x="242" y="30" width="22" style="clip-path:url(#clipPath3); fill:rgb(255,212,0); stroke:none;" height="22"
      /><rect x="242" y="30" width="22" style="clip-path:url(#clipPath3); fill:none; stroke:black;" height="22"
      /><circle r="11" style="fill:none; stroke:black;" cx="253" cy="41"
      /><polygon style="fill:none; stroke:black;" points=" 200 41 147 41"
      /><rect x="189" y="30" width="22" style="clip-path:url(#clipPath4); stroke:none;" height="22"
      /><rect x="189" y="30" width="22" style="clip-path:url(#clipPath4); fill:rgb(0,144,188); stroke:none;" height="22"
      /><rect x="189" y="30" width="22" style="clip-path:url(#clipPath4); fill:none; stroke:black;" height="22"
      /><rect x="189" y="30" width="22" style="fill:none; stroke:black;" height="22"
      /><rect x="188" width="22" height="10" y="58" style="stroke:none;"
    /></g
    ><g style="text-rendering:optimizeSpeed; font-size:14px; font-family:'SansSerif';"
    ><path style="stroke:none;" d="M191.7031 69.1875 C193.5156 69.1875 194.9844 68.0938 194.9844 66.25 C194.9844 64.8594 194.0156 63.9375 192.8125 63.6562 L192.8125 63.5938 C193.8906 63.1875 194.6406 62.3594 194.6406 61.125 C194.6406 59.5 193.375 58.5469 191.6562 58.5469 C190.4688 58.5469 189.5469 59.0625 188.7812 59.7812 L189.4688 60.5938 C190.0469 60 190.7656 59.5938 191.5938 59.5938 C192.6562 59.5938 193.3281 60.2344 193.3281 61.2188 C193.3281 62.3281 192.6094 63.1719 190.4844 63.1719 L190.4844 64.1562 C192.8594 64.1562 193.6875 64.9844 193.6875 66.2031 C193.6875 67.3906 192.8125 68.125 191.5938 68.125 C190.4375 68.125 189.6562 67.5781 189.0469 66.9375 L188.4062 67.7812 C189.0781 68.5156 190.0938 69.1875 191.7031 69.1875 ZM198.9418 63.2656 C199.3168 62.0938 199.645 60.9844 199.9731 59.7812 L200.02 59.7812 C200.3637 60.9844 200.6762 62.0938 201.0668 63.2656 L201.5512 64.8281 L198.4418 64.8281 L198.9418 63.2656 ZM195.8168 69 L197.1293 69 L198.1293 65.8594 L201.8793 65.8594 L202.8481 69 L204.2231 69 L200.7387 58.7188 L199.3012 58.7188 L195.8168 69 ZM208.5492 69.1875 C209.4554 69.1875 210.3304 68.8281 211.0179 68.2188 L210.4554 67.3594 C209.9867 67.7969 209.3617 68.125 208.6586 68.125 C207.2679 68.125 206.3148 66.9531 206.3148 65.2031 C206.3148 63.4531 207.3148 62.2656 208.7054 62.2656 C209.3148 62.2656 209.7679 62.5469 210.2211 62.9375 L210.8773 62.0938 C210.3304 61.625 209.6429 61.2031 208.6429 61.2031 C206.7054 61.2031 204.9867 62.6719 204.9867 65.2031 C204.9867 67.7188 206.5336 69.1875 208.5492 69.1875 Z"
      /><polygon style="fill:none;" points=" 147 41 95 41"
      /><rect x="143" y="35" width="6" style="fill:white; stroke:none;" height="10"
      /><path style="stroke:none;" d="M144.4062 46 L145.7031 46 L145.7031 41.9219 L147.3906 41.9219 C149.6562 41.9219 151.1719 40.9219 151.1719 38.75 C151.1719 36.5156 149.6406 35.7188 147.3438 35.7188 L144.4062 35.7188 L144.4062 46 ZM145.7031 40.875 L145.7031 36.7812 L147.1719 36.7812 C148.9844 36.7812 149.8906 37.2656 149.8906 38.75 C149.8906 40.2188 149.0312 40.875 147.2344 40.875 L145.7031 40.875 Z"
      /><polygon style="fill:none;" points=" 95 41 42 41"
    /></g
    ><g style="fill:white; text-rendering:optimizeSpeed; stroke:white;"
    ><circle r="11" style="clip-path:url(#clipPath5); stroke:none;" cx="95" cy="41"
      /><rect x="84" y="30" width="22" style="clip-path:url(#clipPath5); fill:rgb(255,212,0); stroke:none;" height="22"
      /><rect x="84" y="30" width="22" style="clip-path:url(#clipPath5); fill:none; stroke:black;" height="22"
      /><circle r="11" style="fill:none; stroke:black;" cx="95" cy="41"
      /><rect x="31" y="30" width="22" style="clip-path:url(#clipPath6); stroke:none;" height="22"
      /><rect x="31" y="30" width="22" style="clip-path:url(#clipPath6); fill:rgb(0,144,188); stroke:none;" height="22"
      /><rect x="31" y="30" width="22" style="clip-path:url(#clipPath6); fill:none; stroke:black;" height="22"
      /><rect x="31" y="30" width="22" style="fill:none; stroke:black;" height="22"
      /><rect x="30" width="22" height="10" y="58" style="stroke:none;"
    /></g
    ><g style="text-rendering:optimizeSpeed; font-size:14px; font-family:'SansSerif';"
    ><path style="stroke:none;" d="M33.7031 69.1875 C35.5156 69.1875 36.9844 68.0938 36.9844 66.25 C36.9844 64.8594 36.0156 63.9375 34.8125 63.6562 L34.8125 63.5938 C35.8906 63.1875 36.6406 62.3594 36.6406 61.125 C36.6406 59.5 35.375 58.5469 33.6562 58.5469 C32.4688 58.5469 31.5469 59.0625 30.7812 59.7812 L31.4688 60.5938 C32.0469 60 32.7656 59.5938 33.5938 59.5938 C34.6562 59.5938 35.3281 60.2344 35.3281 61.2188 C35.3281 62.3281 34.6094 63.1719 32.4844 63.1719 L32.4844 64.1562 C34.8594 64.1562 35.6875 64.9844 35.6875 66.2031 C35.6875 67.3906 34.8125 68.125 33.5938 68.125 C32.4375 68.125 31.6562 67.5781 31.0469 66.9375 L30.4062 67.7812 C31.0781 68.5156 32.0938 69.1875 33.7031 69.1875 ZM40.9418 63.2656 C41.3168 62.0938 41.645 60.9844 41.9731 59.7812 L42.02 59.7812 C42.3637 60.9844 42.6762 62.0938 43.0668 63.2656 L43.5512 64.8281 L40.4418 64.8281 L40.9418 63.2656 ZM37.8168 69 L39.1293 69 L40.1293 65.8594 L43.8793 65.8594 L44.8481 69 L46.2231 69 L42.7387 58.7188 L41.3012 58.7188 L37.8168 69 ZM50.5492 69.1875 C51.4554 69.1875 52.3304 68.8281 53.0179 68.2188 L52.4554 67.3594 C51.9867 67.7969 51.3617 68.125 50.6586 68.125 C49.2679 68.125 48.3148 66.9531 48.3148 65.2031 C48.3148 63.4531 49.3148 62.2656 50.7054 62.2656 C51.3148 62.2656 51.7679 62.5469 52.2211 62.9375 L52.8773 62.0938 C52.3304 61.625 51.6429 61.2031 50.6429 61.2031 C48.7054 61.2031 46.9867 62.6719 46.9867 65.2031 C46.9867 67.7188 48.5336 69.1875 50.5492 69.1875 Z"
    /></g
    ><g style="fill:white; text-rendering:optimizeSpeed; font-family:'Serif'; stroke:white;"
    ><rect x="73" width="5" height="10" y="44" style="stroke:none;"
      /><path d="M74.8906 52.6875 C74.4844 52.6875 74.1562 53.0469 74.1562 53.4219 C74.1562 53.8125 74.4844 54.1562 74.8906 54.1562 C75.2969 54.1562 75.6406 53.8125 75.6406 53.4219 C75.6406 53.0469 75.2969 52.6875 74.8906 52.6875 ZM76.4688 46.5781 C76.7188 46.8906 76.875 47.2656 76.8906 47.6562 C76.8906 48.1875 76.625 48.5 76.0312 48.7656 L75.4062 49.0156 C74.6406 49.3125 74.3906 49.5469 74.3906 49.9375 C74.3906 50.1094 74.4531 50.3438 74.5781 50.8125 L74.7344 51.3438 L75.1094 51.3438 L75.0938 50.5312 C75.0938 50.0938 75.2031 49.9688 75.7812 49.7344 L76.2031 49.5625 C77.0312 49.2188 77.4531 48.6875 77.4531 47.8438 C77.4531 46.1562 75.6562 45.1875 74.5 45.0312 C74.1094 45.125 73.9062 45.2969 73.9062 45.6406 C73.9062 45.9375 74.0625 46.1562 74.7188 46.2656 L76.4688 46.5781 Z" style="fill:black; stroke:none;"
      /><rect x="59" width="5" height="10" y="44" style="stroke:none;"
      /><path d="M60.8906 52.6875 C60.4844 52.6875 60.1562 53.0469 60.1562 53.4219 C60.1562 53.8125 60.4844 54.1562 60.8906 54.1562 C61.2969 54.1562 61.6406 53.8125 61.6406 53.4219 C61.6406 53.0469 61.2969 52.6875 60.8906 52.6875 ZM62.4688 46.5781 C62.7188 46.8906 62.875 47.2656 62.8906 47.6562 C62.8906 48.1875 62.625 48.5 62.0312 48.7656 L61.4062 49.0156 C60.6406 49.3125 60.3906 49.5469 60.3906 49.9375 C60.3906 50.1094 60.4531 50.3438 60.5781 50.8125 L60.7344 51.3438 L61.1094 51.3438 L61.0938 50.5312 C61.0938 50.0938 61.2031 49.9688 61.7812 49.7344 L62.2031 49.5625 C63.0312 49.2188 63.4531 48.6875 63.4531 47.8438 C63.4531 46.1562 61.6562 45.1875 60.5 45.0312 C60.1094 45.125 59.9062 45.2969 59.9062 45.6406 C59.9062 45.9375 60.0625 46.1562 60.7188 46.2656 L62.4688 46.5781 Z" style="fill:black; stroke:none;"
      /><rect x="125" width="5" height="9" y="44" style="stroke:none;"
      /><path d="M128.8594 52.3906 C128.8594 51.6719 128.8438 50.9531 128.8438 50.25 L128.8438 46.1406 L128.8906 44.2656 L128.7031 44.125 L126.1094 44.7969 L126.1094 45.2344 L127.9219 45.0312 L127.9219 50.25 C127.9219 50.9531 127.9062 51.6719 127.8906 52.3906 L126 52.6094 L126 53 L130.7344 53 L130.7344 52.6094 L128.8594 52.3906 Z" style="fill:black; stroke:none;"
      /><rect x="111" width="5" height="10" y="44" style="stroke:none;"
      /><path d="M112.8906 52.6875 C112.4844 52.6875 112.1562 53.0469 112.1562 53.4219 C112.1562 53.8125 112.4844 54.1562 112.8906 54.1562 C113.2969 54.1562 113.6406 53.8125 113.6406 53.4219 C113.6406 53.0469 113.2969 52.6875 112.8906 52.6875 ZM114.4688 46.5781 C114.7188 46.8906 114.875 47.2656 114.8906 47.6562 C114.8906 48.1875 114.625 48.5 114.0312 48.7656 L113.4062 49.0156 C112.6406 49.3125 112.3906 49.5469 112.3906 49.9375 C112.3906 50.1094 112.4531 50.3438 112.5781 50.8125 L112.7344 51.3438 L113.1094 51.3438 L113.0938 50.5312 C113.0938 50.0938 113.2031 49.9688 113.7812 49.7344 L114.2031 49.5625 C115.0312 49.2188 115.4531 48.6875 115.4531 47.8438 C115.4531 46.1562 113.6562 45.1875 112.5 45.0312 C112.1094 45.125 111.9062 45.2969 111.9062 45.6406 C111.9062 45.9375 112.0625 46.1562 112.7188 46.2656 L114.4688 46.5781 Z" style="fill:black; stroke:none;"
      /><rect x="177" width="5" height="10" y="44" style="stroke:none;"
      /><path d="M178.8906 52.6875 C178.4844 52.6875 178.1562 53.0469 178.1562 53.4219 C178.1562 53.8125 178.4844 54.1562 178.8906 54.1562 C179.2969 54.1562 179.6406 53.8125 179.6406 53.4219 C179.6406 53.0469 179.2969 52.6875 178.8906 52.6875 ZM180.4688 46.5781 C180.7188 46.8906 180.875 47.2656 180.8906 47.6562 C180.8906 48.1875 180.625 48.5 180.0312 48.7656 L179.4062 49.0156 C178.6406 49.3125 178.3906 49.5469 178.3906 49.9375 C178.3906 50.1094 178.4531 50.3438 178.5781 50.8125 L178.7344 51.3438 L179.1094 51.3438 L179.0938 50.5312 C179.0938 50.0938 179.2031 49.9688 179.7812 49.7344 L180.2031 49.5625 C181.0312 49.2188 181.4531 48.6875 181.4531 47.8438 C181.4531 46.1562 179.6562 45.1875 178.5 45.0312 C178.1094 45.125 177.9062 45.2969 177.9062 45.6406 C177.9062 45.9375 178.0625 46.1562 178.7188 46.2656 L180.4688 46.5781 Z" style="fill:black; stroke:none;"
      /><rect x="231" width="5" height="10" y="44" style="stroke:none;"
      /><path d="M232.8906 52.6875 C232.4844 52.6875 232.1562 53.0469 232.1562 53.4219 C232.1562 53.8125 232.4844 54.1562 232.8906 54.1562 C233.2969 54.1562 233.6406 53.8125 233.6406 53.4219 C233.6406 53.0469 233.2969 52.6875 232.8906 52.6875 ZM234.4688 46.5781 C234.7188 46.8906 234.875 47.2656 234.8906 47.6562 C234.8906 48.1875 234.625 48.5 234.0312 48.7656 L233.4062 49.0156 C232.6406 49.3125 232.3906 49.5469 232.3906 49.9375 C232.3906 50.1094 232.4531 50.3438 232.5781 50.8125 L232.7344 51.3438 L233.1094 51.3438 L233.0938 50.5312 C233.0938 50.0938 233.2031 49.9688 233.7812 49.7344 L234.2031 49.5625 C235.0312 49.2188 235.4531 48.6875 235.4531 47.8438 C235.4531 46.1562 233.6562 45.1875 232.5 45.0312 C232.1094 45.125 231.9062 45.2969 231.9062 45.6406 C231.9062 45.9375 232.0625 46.1562 232.7188 46.2656 L234.4688 46.5781 Z" style="fill:black; stroke:none;"
      /><rect x="217" width="5" height="10" y="44" style="stroke:none;"
      /><path d="M218.8906 52.6875 C218.4844 52.6875 218.1562 53.0469 218.1562 53.4219 C218.1562 53.8125 218.4844 54.1562 218.8906 54.1562 C219.2969 54.1562 219.6406 53.8125 219.6406 53.4219 C219.6406 53.0469 219.2969 52.6875 218.8906 52.6875 ZM220.4688 46.5781 C220.7188 46.8906 220.875 47.2656 220.8906 47.6562 C220.8906 48.1875 220.625 48.5 220.0312 48.7656 L219.4062 49.0156 C218.6406 49.3125 218.3906 49.5469 218.3906 49.9375 C218.3906 50.1094 218.4531 50.3438 218.5781 50.8125 L218.7344 51.3438 L219.1094 51.3438 L219.0938 50.5312 C219.0938 50.0938 219.2031 49.9688 219.7812 49.7344 L220.2031 49.5625 C221.0312 49.2188 221.4531 48.6875 221.4531 47.8438 C221.4531 46.1562 219.6562 45.1875 218.5 45.0312 C218.1094 45.125 217.9062 45.2969 217.9062 45.6406 C217.9062 45.9375 218.0625 46.1562 218.7188 46.2656 L220.4688 46.5781 Z" style="fill:black; stroke:none;"
      /><rect x="283" width="5" height="9" y="44" style="stroke:none;"
      /><path d="M286.8594 52.3906 C286.8594 51.6719 286.8438 50.9531 286.8438 50.25 L286.8438 46.1406 L286.8906 44.2656 L286.7031 44.125 L284.1094 44.7969 L284.1094 45.2344 L285.9219 45.0312 L285.9219 50.25 C285.9219 50.9531 285.9062 51.6719 285.8906 52.3906 L284 52.6094 L284 53 L288.7344 53 L288.7344 52.6094 L286.8594 52.3906 Z" style="fill:black; stroke:none;"
      /><rect x="269" width="5" height="10" y="44" style="stroke:none;"
      /><path d="M270.8906 52.6875 C270.4844 52.6875 270.1562 53.0469 270.1562 53.4219 C270.1562 53.8125 270.4844 54.1562 270.8906 54.1562 C271.2969 54.1562 271.6406 53.8125 271.6406 53.4219 C271.6406 53.0469 271.2969 52.6875 270.8906 52.6875 ZM272.4688 46.5781 C272.7188 46.8906 272.875 47.2656 272.8906 47.6562 C272.8906 48.1875 272.625 48.5 272.0312 48.7656 L271.4062 49.0156 C270.6406 49.3125 270.3906 49.5469 270.3906 49.9375 C270.3906 50.1094 270.4531 50.3438 270.5781 50.8125 L270.7344 51.3438 L271.1094 51.3438 L271.0938 50.5312 C271.0938 50.0938 271.2031 49.9688 271.7812 49.7344 L272.2031 49.5625 C273.0312 49.2188 273.4531 48.6875 273.4531 47.8438 C273.4531 46.1562 271.6562 45.1875 270.5 45.0312 C270.1094 45.125 269.9062 45.2969 269.9062 45.6406 C269.9062 45.9375 270.0625 46.1562 270.7188 46.2656 L272.4688 46.5781 Z" style="fill:black; stroke:none;"
      /><rect x="335" width="5" height="10" y="44" style="stroke:none;"
      /><path d="M336.8906 52.6875 C336.4844 52.6875 336.1562 53.0469 336.1562 53.4219 C336.1562 53.8125 336.4844 54.1562 336.8906 54.1562 C337.2969 54.1562 337.6406 53.8125 337.6406 53.4219 C337.6406 53.0469 337.2969 52.6875 336.8906 52.6875 ZM338.4688 46.5781 C338.7188 46.8906 338.875 47.2656 338.8906 47.6562 C338.8906 48.1875 338.625 48.5 338.0312 48.7656 L337.4062 49.0156 C336.6406 49.3125 336.3906 49.5469 336.3906 49.9375 C336.3906 50.1094 336.4531 50.3438 336.5781 50.8125 L336.7344 51.3438 L337.1094 51.3438 L337.0938 50.5312 C337.0938 50.0938 337.2031 49.9688 337.7812 49.7344 L338.2031 49.5625 C339.0312 49.2188 339.4531 48.6875 339.4531 47.8438 C339.4531 46.1562 337.6562 45.1875 336.5 45.0312 C336.1094 45.125 335.9062 45.2969 335.9062 45.6406 C335.9062 45.9375 336.0625 46.1562 336.7188 46.2656 L338.4688 46.5781 Z" style="fill:black; stroke:none;"
      /><rect x="389" width="5" height="10" y="44" style="stroke:none;"
      /><path d="M390.8906 52.6875 C390.4844 52.6875 390.1562 53.0469 390.1562 53.4219 C390.1562 53.8125 390.4844 54.1562 390.8906 54.1562 C391.2969 54.1562 391.6406 53.8125 391.6406 53.4219 C391.6406 53.0469 391.2969 52.6875 390.8906 52.6875 ZM392.4688 46.5781 C392.7188 46.8906 392.875 47.2656 392.8906 47.6562 C392.8906 48.1875 392.625 48.5 392.0312 48.7656 L391.4062 49.0156 C390.6406 49.3125 390.3906 49.5469 390.3906 49.9375 C390.3906 50.1094 390.4531 50.3438 390.5781 50.8125 L390.7344 51.3438 L391.1094 51.3438 L391.0938 50.5312 C391.0938 50.0938 391.2031 49.9688 391.7812 49.7344 L392.2031 49.5625 C393.0312 49.2188 393.4531 48.6875 393.4531 47.8438 C393.4531 46.1562 391.6562 45.1875 390.5 45.0312 C390.1094 45.125 389.9062 45.2969 389.9062 45.6406 C389.9062 45.9375 390.0625 46.1562 390.7188 46.2656 L392.4688 46.5781 Z" style="fill:black; stroke:none;"
      /><rect x="375" width="5" height="10" y="44" style="stroke:none;"
      /><path d="M376.8906 52.6875 C376.4844 52.6875 376.1562 53.0469 376.1562 53.4219 C376.1562 53.8125 376.4844 54.1562 376.8906 54.1562 C377.2969 54.1562 377.6406 53.8125 377.6406 53.4219 C377.6406 53.0469 377.2969 52.6875 376.8906 52.6875 ZM378.4688 46.5781 C378.7188 46.8906 378.875 47.2656 378.8906 47.6562 C378.8906 48.1875 378.625 48.5 378.0312 48.7656 L377.4062 49.0156 C376.6406 49.3125 376.3906 49.5469 376.3906 49.9375 C376.3906 50.1094 376.4531 50.3438 376.5781 50.8125 L376.7344 51.3438 L377.1094 51.3438 L377.0938 50.5312 C377.0938 50.0938 377.2031 49.9688 377.7812 49.7344 L378.2031 49.5625 C379.0312 49.2188 379.4531 48.6875 379.4531 47.8438 C379.4531 46.1562 377.6562 45.1875 376.5 45.0312 C376.1094 45.125 375.9062 45.2969 375.9062 45.6406 C375.9062 45.9375 376.0625 46.1562 376.7188 46.2656 L378.4688 46.5781 Z" style="fill:black; stroke:none;"
      /><rect x="427" width="5" height="10" y="44" style="stroke:none;"
      /><path d="M428.8906 52.6875 C428.4844 52.6875 428.1562 53.0469 428.1562 53.4219 C428.1562 53.8125 428.4844 54.1562 428.8906 54.1562 C429.2969 54.1562 429.6406 53.8125 429.6406 53.4219 C429.6406 53.0469 429.2969 52.6875 428.8906 52.6875 ZM430.4688 46.5781 C430.7188 46.8906 430.875 47.2656 430.8906 47.6562 C430.8906 48.1875 430.625 48.5 430.0312 48.7656 L429.4062 49.0156 C428.6406 49.3125 428.3906 49.5469 428.3906 49.9375 C428.3906 50.1094 428.4531 50.3438 428.5781 50.8125 L428.7344 51.3438 L429.1094 51.3438 L429.0938 50.5312 C429.0938 50.0938 429.2031 49.9688 429.7812 49.7344 L430.2031 49.5625 C431.0312 49.2188 431.4531 48.6875 431.4531 47.8438 C431.4531 46.1562 429.6562 45.1875 428.5 45.0312 C428.1094 45.125 427.9062 45.2969 427.9062 45.6406 C427.9062 45.9375 428.0625 46.1562 428.7188 46.2656 L430.4688 46.5781 Z" style="fill:black; stroke:none;"
    /></g
  ></g
></svg
>
