<?xml version="1.0"?>
<!DOCTYPE svg PUBLIC '-//W3C//DTD SVG 1.0//EN'
          'http://www.w3.org/TR/2001/REC-SVG-20010904/DTD/svg10.dtd'>
<svg xmlns:xlink="http://www.w3.org/1999/xlink" style="fill-opacity:1; color-rendering:auto; color-interpolation:auto; text-rendering:auto; stroke:black; stroke-linecap:square; stroke-miterlimit:10; shape-rendering:auto; stroke-opacity:1; fill:black; stroke-dasharray:none; font-weight:normal; stroke-width:1; font-family:'Dialog'; font-style:normal; stroke-linejoin:miter; font-size:12px; stroke-dashoffset:0; image-rendering:auto;" viewBox="0 0 134 134" xmlns="http://www.w3.org/2000/svg"
><!--Generated by the Batik Graphics2D SVG Generator--><defs id="genericDefs"
  /><g
  ><defs id="defs1"
    ><clipPath clipPathUnits="userSpaceOnUse" id="clipPath1"
      ><path d="M30 82 L52 82 L52 104 L30 104 L30 82 Z"
      /></clipPath
      ><clipPath clipPathUnits="userSpaceOnUse" id="clipPath2"
      ><path style="fill-rule:evenodd;" d="M41 52 L30 30 L52 30 Z"
      /></clipPath
    ></defs
    ><g style="fill:white; text-rendering:optimizeSpeed; stroke:white;"
    ><rect x="0" width="134" height="134" y="0" style="stroke:none;"
      /><polygon style="fill:none; stroke:black;" points=" 93 93 41 93"
      /><path d="M93 82 C87.5 87.5 98.5 98.5 93 104" style="fill:none; stroke:black;"
      /><polygon style="fill:none; stroke:black;" points=" 41 93 41 41"
      /><rect x="30" y="82" width="22" style="clip-path:url(#clipPath1); stroke:none;" height="22"
      /><rect x="30" y="82" width="22" style="clip-path:url(#clipPath1); fill:rgb(0,144,188); stroke:none;" height="22"
      /><rect x="30" y="82" width="22" style="clip-path:url(#clipPath1); fill:none; stroke:black;" height="22"
      /><rect x="30" y="82" width="22" style="fill:none; stroke:black;" height="22"
      /><polygon style="clip-path:url(#clipPath2); stroke:none;" points=" 41 52 30 30 52 30"
      /><rect x="30" y="30" width="22" style="clip-path:url(#clipPath2); fill:rgb(237,28,36); stroke:none;" height="22"
      /><rect x="30" y="30" width="22" style="clip-path:url(#clipPath2); fill:none; stroke:black;" height="22"
      /><polygon style="fill:none; stroke:black;" points=" 41 52 30 30 52 30"
    /></g
    ><g style="text-rendering:optimizeSpeed; font-size:10px; font-family:'SansSerif';"
    ><path style="stroke:none;" d="M39 44 L40.875 44 C43.0938 44 44.2969 42.625 44.2969 40.3125 C44.2969 37.9844 43.0938 36.6562 40.8438 36.6562 L39 36.6562 L39 44 ZM39.9375 43.2344 L39.9375 37.4219 L40.7656 37.4219 C42.4844 37.4219 43.3438 38.4531 43.3438 40.3125 C43.3438 42.1562 42.4844 43.2344 40.7656 43.2344 L39.9375 43.2344 Z"
    /></g
    ><g style="fill:white; text-rendering:optimizeSpeed; font-family:'Serif'; stroke:white;"
    ><rect x="30" width="6" height="10" y="69" style="stroke:none;"
      /><path d="M33.3438 78.6875 C32.2031 78.6875 31.5312 77.5 31.5312 75.2969 C31.5312 75.2188 31.5312 75.125 31.5312 75.0469 C32.0938 74.5 32.7188 74.3125 33.3438 74.3125 C34.3125 74.3125 34.9531 74.9844 34.9531 76.4531 C34.9531 77.9375 34.3125 78.6875 33.3438 78.6875 ZM35.5312 70.0781 C32.3438 70.4531 30.5625 72.7656 30.5625 75.4531 C30.5625 77.7812 31.6094 79.1719 33.3125 79.1719 C34.8438 79.1719 35.9219 78.1094 35.9219 76.2812 C35.9219 74.6875 34.9688 73.6562 33.5625 73.6562 C32.8281 73.6562 32.1406 73.9844 31.5781 74.5781 C31.7969 72.4062 33.0781 70.9688 35.5938 70.3906 L35.5312 70.0781 Z" style="fill:black; stroke:none;"
      /><rect x="29" width="8" height="8" y="56" style="stroke:none;"
      /><path d="M33.9844 61.7031 C33.9375 62.8906 33.1562 63.6562 32.3125 63.6562 C31.2656 63.6562 30.5 62.6875 30.5 60.7188 C30.5 59.2812 31.1562 58.1562 32.3438 58.1562 C33.1406 58.1562 33.7812 58.6875 34.0938 59.6406 L33.9844 61.7031 ZM35.9062 63.2812 C35.7344 63.375 35.5469 63.4219 35.3438 63.4219 C34.9531 63.4219 34.75 63.2188 34.75 62.4219 C34.75 61.4844 34.9688 59.5312 35.1875 57.8281 L35.0312 57.7188 L34.2344 57.9219 L34.1406 58.7969 C33.7812 58.0312 33.1562 57.6562 32.3906 57.6562 C31.0469 57.6562 29.5625 58.8438 29.5625 60.9531 C29.5625 63.0938 30.7188 64.1719 32.1406 64.1719 C33.0156 64.1719 33.6875 63.8125 34.0938 62.9844 C34.2031 63.8594 34.5156 64.1719 35.0156 64.1719 C35.4688 64.1719 35.7969 63.9062 36.0156 63.5625 L35.9062 63.2812 Z" style="fill:black; stroke:none;"
      /><rect x="56" width="8" height="8" y="97" style="stroke:none;"
      /><path d="M60.9844 102.7031 C60.9375 103.8906 60.1562 104.6562 59.3125 104.6562 C58.2656 104.6562 57.5 103.6875 57.5 101.7188 C57.5 100.2812 58.1562 99.1562 59.3438 99.1562 C60.1406 99.1562 60.7812 99.6875 61.0938 100.6406 L60.9844 102.7031 ZM62.9062 104.2812 C62.7344 104.375 62.5469 104.4219 62.3438 104.4219 C61.9531 104.4219 61.75 104.2188 61.75 103.4219 C61.75 102.4844 61.9688 100.5312 62.1875 98.8281 L62.0312 98.7188 L61.2344 98.9219 L61.1406 99.7969 C60.7812 99.0312 60.1562 98.6562 59.3906 98.6562 C58.0469 98.6562 56.5625 99.8438 56.5625 101.9531 C56.5625 104.0938 57.7188 105.1719 59.1406 105.1719 C60.0156 105.1719 60.6875 104.8125 61.0938 103.9844 C61.2031 104.8594 61.5156 105.1719 62.0156 105.1719 C62.4688 105.1719 62.7969 104.9062 63.0156 104.5625 L62.9062 104.2812 Z" style="fill:black; stroke:none;"
    /></g
  ></g
></svg
>
