<?xml version="1.0"?>
<!DOCTYPE svg PUBLIC '-//W3C//DTD SVG 1.0//EN'
          'http://www.w3.org/TR/2001/REC-SVG-20010904/DTD/svg10.dtd'>
<svg xmlns:xlink="http://www.w3.org/1999/xlink" style="fill-opacity:1; color-rendering:auto; color-interpolation:auto; text-rendering:auto; stroke:black; stroke-linecap:square; stroke-miterlimit:10; shape-rendering:auto; stroke-opacity:1; fill:black; stroke-dasharray:none; font-weight:normal; stroke-width:1; font-family:'Dialog'; font-style:normal; stroke-linejoin:miter; font-size:12px; stroke-dashoffset:0; image-rendering:auto;" viewBox="0 0 191 180" xmlns="http://www.w3.org/2000/svg"
><!--Generated by the Batik Graphics2D SVG Generator--><defs id="genericDefs"
  /><g
  ><defs id="defs1"
    ><clipPath clipPathUnits="userSpaceOnUse" id="clipPath1"
      ><path style="fill-rule:evenodd;" d="M98 67 L100 74 L108 74 L101 79 L104 86 L98 82 L91 86 L94 79 L87 74 L95 74 L98 67 Z"
      /></clipPath
      ><clipPath clipPathUnits="userSpaceOnUse" id="clipPath2"
      ><path style="fill-rule:evenodd;" d="M43 105 L45 112 L53 112 L46 117 L49 124 L43 120 L36 124 L39 117 L32 112 L40 112 L43 105 Z"
      /></clipPath
      ><clipPath clipPathUnits="userSpaceOnUse" id="clipPath3"
      ><path style="fill-rule:evenodd;" d="M43 30 L45 37 L53 37 L46 42 L49 49 L43 45 L36 49 L39 42 L32 37 L40 37 L43 30 Z"
      /></clipPath
    ></defs
    ><g style="fill:white; text-rendering:optimizeSpeed; stroke:white;"
    ><rect x="0" width="191" height="180" y="0" style="stroke:none;"
      /><polygon style="fill:none; stroke:black;" points=" 150 78 98 78"
      /><path d="M150 67 C144.5 72.5 155.5 83.5 150 89" style="fill:none; stroke:black;"
      /><polygon style="fill:none; stroke:black;" points=" 98 78 43 116"
      /><polygon style="fill:none; stroke:black;" points=" 98 78 43 41"
      /><polygon style="clip-path:url(#clipPath1); stroke:none;" points=" 98 67 100 74 108 74 101 79 104 86 98 82 91 86 94 79 87 74 95 74 98 67"
      /><rect x="87" y="67" width="22" style="clip-path:url(#clipPath1); fill:rgb(0,166,81); stroke:none;" height="22"
      /><rect x="87" y="67" width="22" style="clip-path:url(#clipPath1); fill:none; stroke:black;" height="22"
      /><polygon style="fill:none; stroke:black;" points=" 98 67 100 74 108 74 101 79 104 86 98 82 91 86 94 79 87 74 95 74 98 67"
    /></g
    ><g style="text-rendering:optimizeSpeed; font-size:10px; font-family:'SansSerif';"
    ><path style="stroke:none;" d="M94.0625 82 L94.9844 82 L94.9844 77.3125 L96.125 77.3125 L96.125 76.5625 L94.9844 76.5625 L94.9844 75.7031 C94.9844 75.0156 95.2344 74.6406 95.75 74.6406 C95.9375 74.6406 96.1562 74.6875 96.3594 74.7812 L96.5625 74.0938 C96.3125 73.9844 95.9844 73.9062 95.6562 73.9062 C94.5625 73.9062 94.0625 74.5938 94.0625 75.7031 L94.0625 76.5625 L93.3281 76.625 L93.3281 77.3125 L94.0625 77.3125 L94.0625 82 ZM97.25 82 L99.125 82 C101.3438 82 102.5469 80.625 102.5469 78.3125 C102.5469 75.9844 101.3438 74.6562 99.0938 74.6562 L97.25 74.6562 L97.25 82 ZM98.1875 81.2344 L98.1875 75.4219 L99.0156 75.4219 C100.7344 75.4219 101.5938 76.4531 101.5938 78.3125 C101.5938 80.1562 100.7344 81.2344 99.0156 81.2344 L98.1875 81.2344 Z"
    /></g
    ><g style="fill:white; text-rendering:optimizeSpeed; stroke:white;"
    ><polygon style="stroke:none; clip-path:url(#clipPath2);" points=" 43 105 45 112 53 112 46 117 49 124 43 120 36 124 39 117 32 112 40 112 43 105"
      /><rect x="32" y="105" width="22" style="clip-path:url(#clipPath2); fill:rgb(0,166,81); stroke:none;" height="22"
      /><rect x="32" y="105" width="22" style="clip-path:url(#clipPath2); fill:none; stroke:black;" height="22"
      /><polygon style="fill:none; stroke:black;" points=" 43 105 45 112 53 112 46 117 49 124 43 120 36 124 39 117 32 112 40 112 43 105"
    /></g
    ><g style="text-rendering:optimizeSpeed; font-size:10px; font-family:'SansSerif';"
    ><path style="stroke:none;" d="M39.0625 120 L39.9844 120 L39.9844 115.3125 L41.125 115.3125 L41.125 114.5625 L39.9844 114.5625 L39.9844 113.7031 C39.9844 113.0156 40.2344 112.6406 40.75 112.6406 C40.9375 112.6406 41.1562 112.6875 41.3594 112.7812 L41.5625 112.0938 C41.3125 111.9844 40.9844 111.9062 40.6562 111.9062 C39.5625 111.9062 39.0625 112.5938 39.0625 113.7031 L39.0625 114.5625 L38.3281 114.625 L38.3281 115.3125 L39.0625 115.3125 L39.0625 120 ZM42.25 120 L44.125 120 C46.3438 120 47.5469 118.625 47.5469 116.3125 C47.5469 113.9844 46.3438 112.6562 44.0938 112.6562 L42.25 112.6562 L42.25 120 ZM43.1875 119.2344 L43.1875 113.4219 L44.0156 113.4219 C45.7344 113.4219 46.5938 114.4531 46.5938 116.3125 C46.5938 118.1562 45.7344 119.2344 44.0156 119.2344 L43.1875 119.2344 Z"
      /><rect x="30" y="133" width="25" style="fill:white; stroke:none;" height="10"
      /><path style="stroke:none;" d="M33.7031 144.1875 C35.5156 144.1875 36.9844 143.0938 36.9844 141.25 C36.9844 139.8594 36.0156 138.9375 34.8125 138.6562 L34.8125 138.5938 C35.8906 138.1875 36.6406 137.3594 36.6406 136.125 C36.6406 134.5 35.375 133.5469 33.6562 133.5469 C32.4688 133.5469 31.5469 134.0625 30.7812 134.7812 L31.4688 135.5938 C32.0469 135 32.7656 134.5938 33.5938 134.5938 C34.6562 134.5938 35.3281 135.2344 35.3281 136.2188 C35.3281 137.3281 34.6094 138.1719 32.4844 138.1719 L32.4844 139.1562 C34.8594 139.1562 35.6875 139.9844 35.6875 141.2031 C35.6875 142.3906 34.8125 143.125 33.5938 143.125 C32.4375 143.125 31.6562 142.5781 31.0469 141.9375 L30.4062 142.7812 C31.0781 143.5156 32.0938 144.1875 33.7031 144.1875 ZM39.1762 144 L40.3481 144 L40.3481 138.3125 C40.3481 137.4375 40.2543 136.1875 40.1918 135.2969 L40.2543 135.2969 L41.0668 137.625 L43.0043 142.9688 L43.8793 142.9688 L45.8168 137.625 L46.6293 135.2969 L46.6918 135.2969 C46.6137 136.1875 46.52 137.4375 46.52 138.3125 L46.52 144 L47.7387 144 L47.7387 133.7188 L46.1762 133.7188 L44.2075 139.2188 C43.9731 139.9375 43.7543 140.6562 43.5043 141.375 L43.4418 141.375 C43.1918 140.6562 42.9575 139.9375 42.7075 139.2188 L40.7387 133.7188 L39.1762 133.7188 L39.1762 144 ZM53.4973 144.1875 C54.5285 144.1875 55.341 143.8281 56.0129 143.3906 L55.5442 142.5625 C54.9973 142.9375 54.3879 143.1562 53.6535 143.1562 C52.2004 143.1562 51.216 142.125 51.1223 140.5 L56.2473 140.5 C56.2785 140.3125 56.3098 140.0469 56.3098 139.7656 C56.3098 137.6094 55.216 136.2031 53.2785 136.2031 C51.5129 136.2031 49.8567 137.7344 49.8567 140.2031 C49.8567 142.7188 51.4817 144.1875 53.4973 144.1875 ZM51.1067 139.5781 C51.2629 138.0938 52.216 137.2188 53.2942 137.2188 C54.4817 137.2188 55.1848 138.0469 55.1848 139.5781 L51.1067 139.5781 Z"
    /></g
    ><g style="fill:white; text-rendering:optimizeSpeed; stroke:white;"
    ><polygon style="stroke:none; clip-path:url(#clipPath3);" points=" 43 30 45 37 53 37 46 42 49 49 43 45 36 49 39 42 32 37 40 37 43 30"
      /><rect x="32" y="30" width="22" style="clip-path:url(#clipPath3); fill:rgb(0,166,81); stroke:none;" height="22"
      /><rect x="32" y="30" width="22" style="clip-path:url(#clipPath3); fill:none; stroke:black;" height="22"
      /><polygon style="fill:none; stroke:black;" points=" 43 30 45 37 53 37 46 42 49 49 43 45 36 49 39 42 32 37 40 37 43 30"
    /></g
    ><g style="text-rendering:optimizeSpeed; font-size:10px; font-family:'SansSerif';"
    ><path style="stroke:none;" d="M39.0625 45 L39.9844 45 L39.9844 40.3125 L41.125 40.3125 L41.125 39.5625 L39.9844 39.5625 L39.9844 38.7031 C39.9844 38.0156 40.2344 37.6406 40.75 37.6406 C40.9375 37.6406 41.1562 37.6875 41.3594 37.7812 L41.5625 37.0938 C41.3125 36.9844 40.9844 36.9062 40.6562 36.9062 C39.5625 36.9062 39.0625 37.5938 39.0625 38.7031 L39.0625 39.5625 L38.3281 39.625 L38.3281 40.3125 L39.0625 40.3125 L39.0625 45 ZM42.25 45 L44.125 45 C46.3438 45 47.5469 43.625 47.5469 41.3125 C47.5469 38.9844 46.3438 37.6562 44.0938 37.6562 L42.25 37.6562 L42.25 45 ZM43.1875 44.2344 L43.1875 38.4219 L44.0156 38.4219 C45.7344 38.4219 46.5938 39.4531 46.5938 41.3125 C46.5938 43.1562 45.7344 44.2344 44.0156 44.2344 L43.1875 44.2344 Z"
      /><rect x="30" y="58" width="25" style="fill:white; stroke:none;" height="10"
      /><path style="stroke:none;" d="M33.7031 69.1875 C35.5156 69.1875 36.9844 68.0938 36.9844 66.25 C36.9844 64.8594 36.0156 63.9375 34.8125 63.6562 L34.8125 63.5938 C35.8906 63.1875 36.6406 62.3594 36.6406 61.125 C36.6406 59.5 35.375 58.5469 33.6562 58.5469 C32.4688 58.5469 31.5469 59.0625 30.7812 59.7812 L31.4688 60.5938 C32.0469 60 32.7656 59.5938 33.5938 59.5938 C34.6562 59.5938 35.3281 60.2344 35.3281 61.2188 C35.3281 62.3281 34.6094 63.1719 32.4844 63.1719 L32.4844 64.1562 C34.8594 64.1562 35.6875 64.9844 35.6875 66.2031 C35.6875 67.3906 34.8125 68.125 33.5938 68.125 C32.4375 68.125 31.6562 67.5781 31.0469 66.9375 L30.4062 67.7812 C31.0781 68.5156 32.0938 69.1875 33.7031 69.1875 ZM39.1762 69 L40.3481 69 L40.3481 63.3125 C40.3481 62.4375 40.2543 61.1875 40.1918 60.2969 L40.2543 60.2969 L41.0668 62.625 L43.0043 67.9688 L43.8793 67.9688 L45.8168 62.625 L46.6293 60.2969 L46.6918 60.2969 C46.6137 61.1875 46.52 62.4375 46.52 63.3125 L46.52 69 L47.7387 69 L47.7387 58.7188 L46.1762 58.7188 L44.2075 64.2188 C43.9731 64.9375 43.7543 65.6562 43.5043 66.375 L43.4418 66.375 C43.1918 65.6562 42.9575 64.9375 42.7075 64.2188 L40.7387 58.7188 L39.1762 58.7188 L39.1762 69 ZM53.4973 69.1875 C54.5285 69.1875 55.341 68.8281 56.0129 68.3906 L55.5442 67.5625 C54.9973 67.9375 54.3879 68.1562 53.6535 68.1562 C52.2004 68.1562 51.216 67.125 51.1223 65.5 L56.2473 65.5 C56.2785 65.3125 56.3098 65.0469 56.3098 64.7656 C56.3098 62.6094 55.216 61.2031 53.2785 61.2031 C51.5129 61.2031 49.8567 62.7344 49.8567 65.2031 C49.8567 67.7188 51.4817 69.1875 53.4973 69.1875 ZM51.1067 64.5781 C51.2629 63.0938 52.216 62.2188 53.2942 62.2188 C54.4817 62.2188 55.1848 63.0469 55.1848 64.5781 L51.1067 64.5781 Z"
    /></g
    ><g style="fill:white; text-rendering:optimizeSpeed; font-family:'Serif'; stroke:white;"
    ><rect x="81" width="6" height="10" y="91" style="stroke:none;"
      /><path d="M83.2344 92.6562 C83.5156 92.5938 83.7656 92.5625 84.0156 92.5625 C85.0625 92.5625 85.6719 93.1719 85.6719 94.2656 C85.6719 95.4375 84.9062 96.1094 83.7031 96.1094 L83.1875 96.1094 L83.1875 96.6406 L83.7969 96.6406 C85.2188 96.6406 85.9062 97.4219 85.9062 98.6406 C85.9062 99.8438 85.1719 100.6875 83.875 100.6875 C83.6094 100.6875 83.3125 100.6562 83.0156 100.5625 L82.7812 99.8125 C82.625 99.2812 82.5 99.0469 82.1406 99.0469 C81.8906 99.0469 81.7031 99.1719 81.5781 99.4219 C81.8438 100.6406 82.7812 101.1719 84.0312 101.1719 C85.7188 101.1719 86.875 100.125 86.875 98.7031 C86.875 97.5 86.2031 96.625 84.7969 96.375 C85.9531 96.0156 86.6094 95.2031 86.6094 94.2031 C86.6094 92.9219 85.6719 92.0781 84.1875 92.0781 C83.0469 92.0781 82.0625 92.5938 81.7969 93.6875 C81.9062 94 82.1094 94.1094 82.3594 94.1094 C82.7344 94.1094 82.8906 93.8906 83 93.4062 L83.2344 92.6562 Z" style="fill:black; stroke:none;"
      /><rect x="64" width="8" height="8" y="104" style="stroke:none;"
      /><path d="M68.9844 109.7031 C68.9375 110.8906 68.1562 111.6562 67.3125 111.6562 C66.2656 111.6562 65.5 110.6875 65.5 108.7188 C65.5 107.2812 66.1562 106.1562 67.3438 106.1562 C68.1406 106.1562 68.7812 106.6875 69.0938 107.6406 L68.9844 109.7031 ZM70.9062 111.2812 C70.7344 111.375 70.5469 111.4219 70.3438 111.4219 C69.9531 111.4219 69.75 111.2188 69.75 110.4219 C69.75 109.4844 69.9688 107.5312 70.1875 105.8281 L70.0312 105.7188 L69.2344 105.9219 L69.1406 106.7969 C68.7812 106.0312 68.1562 105.6562 67.3906 105.6562 C66.0469 105.6562 64.5625 106.8438 64.5625 108.9531 C64.5625 111.0938 65.7188 112.1719 67.1406 112.1719 C68.0156 112.1719 68.6875 111.8125 69.0938 110.9844 C69.2031 111.8594 69.5156 112.1719 70.0156 112.1719 C70.4688 112.1719 70.7969 111.9062 71.0156 111.5625 L70.9062 111.2812 Z" style="fill:black; stroke:none;"
      /><rect x="72" width="6" height="10" y="67" style="stroke:none;"
      /><path d="M73.9219 69.1406 L77.6562 69.1406 L77.6562 68.25 L73.4531 68.25 L73.1719 72.3125 L73.5156 72.3906 C73.9219 72.25 74.3906 72.1875 74.8125 72.1875 C76.0781 72.1875 76.9219 72.9531 76.9219 74.3906 C76.9219 75.7812 76.1719 76.6875 74.8281 76.6875 C74.5156 76.6875 74.2344 76.6406 73.9375 76.5625 L73.6875 75.7812 C73.5312 75.2188 73.3906 75.0469 73.0625 75.0469 C72.7969 75.0469 72.5938 75.1719 72.4844 75.4375 C72.7656 76.5938 73.625 77.1719 74.8906 77.1719 C76.7031 77.1719 77.875 75.9844 77.875 74.2812 C77.875 72.5312 76.75 71.5469 75.0938 71.5469 C74.6094 71.5469 74.1719 71.625 73.7344 71.7656 L73.9219 69.1406 Z" style="fill:black; stroke:none;"
      /><rect x="55" width="8" height="8" y="57" style="stroke:none;"
      /><path d="M59.9844 62.7031 C59.9375 63.8906 59.1562 64.6562 58.3125 64.6562 C57.2656 64.6562 56.5 63.6875 56.5 61.7188 C56.5 60.2812 57.1562 59.1562 58.3438 59.1562 C59.1406 59.1562 59.7812 59.6875 60.0938 60.6406 L59.9844 62.7031 ZM61.9062 64.2812 C61.7344 64.375 61.5469 64.4219 61.3438 64.4219 C60.9531 64.4219 60.75 64.2188 60.75 63.4219 C60.75 62.4844 60.9688 60.5312 61.1875 58.8281 L61.0312 58.7188 L60.2344 58.9219 L60.1406 59.7969 C59.7812 59.0312 59.1562 58.6562 58.3906 58.6562 C57.0469 58.6562 55.5625 59.8438 55.5625 61.9531 C55.5625 64.0938 56.7188 65.1719 58.1406 65.1719 C59.0156 65.1719 59.6875 64.8125 60.0938 63.9844 C60.2031 64.8594 60.5156 65.1719 61.0156 65.1719 C61.4688 65.1719 61.7969 64.9062 62.0156 64.5625 L61.9062 64.2812 Z" style="fill:black; stroke:none;"
      /><rect x="113" width="8" height="8" y="82" style="stroke:none;"
      /><path d="M117.9844 87.7031 C117.9375 88.8906 117.1562 89.6562 116.3125 89.6562 C115.2656 89.6562 114.5 88.6875 114.5 86.7188 C114.5 85.2812 115.1562 84.1562 116.3438 84.1562 C117.1406 84.1562 117.7812 84.6875 118.0938 85.6406 L117.9844 87.7031 ZM119.9062 89.2812 C119.7344 89.375 119.5469 89.4219 119.3438 89.4219 C118.9531 89.4219 118.75 89.2188 118.75 88.4219 C118.75 87.4844 118.9688 85.5312 119.1875 83.8281 L119.0312 83.7188 L118.2344 83.9219 L118.1406 84.7969 C117.7812 84.0312 117.1562 83.6562 116.3906 83.6562 C115.0469 83.6562 113.5625 84.8438 113.5625 86.9531 C113.5625 89.0938 114.7188 90.1719 116.1406 90.1719 C117.0156 90.1719 117.6875 89.8125 118.0938 88.9844 C118.2031 89.8594 118.5156 90.1719 119.0156 90.1719 C119.4688 90.1719 119.7969 89.9062 120.0156 89.5625 L119.9062 89.2812 Z" style="fill:black; stroke:none;"
    /></g
  ></g
></svg
>
