<?xml version="1.0"?>
<!DOCTYPE svg PUBLIC '-//W3C//DTD SVG 1.0//EN'
          'http://www.w3.org/TR/2001/REC-SVG-20010904/DTD/svg10.dtd'>
<svg xmlns:xlink="http://www.w3.org/1999/xlink" style="fill-opacity:1; color-rendering:auto; color-interpolation:auto; text-rendering:auto; stroke:black; stroke-linecap:square; stroke-miterlimit:10; shape-rendering:auto; stroke-opacity:1; fill:black; stroke-dasharray:none; font-weight:normal; stroke-width:1; font-family:'Dialog'; font-style:normal; stroke-linejoin:miter; font-size:12px; stroke-dashoffset:0; image-rendering:auto;" viewBox="0 0 394 209" xmlns="http://www.w3.org/2000/svg"
><!--Generated by the Batik Graphics2D SVG Generator--><defs id="genericDefs"
  /><g
  ><defs id="defs1"
    ><clipPath clipPathUnits="userSpaceOnUse" id="clipPath1"
      ><path style="fill-rule:evenodd;" d="M312 116 L306 123 L295 123 L290 116 L295 108 L306 108 L312 116 Z"
      /></clipPath
      ><clipPath clipPathUnits="userSpaceOnUse" id="clipPath2"
      ><path style="fill-rule:evenodd;" d="M260 168 L254 175 L243 175 L238 168 L243 160 L254 160 L260 168 Z"
      /></clipPath
      ><clipPath clipPathUnits="userSpaceOnUse" id="clipPath3"
      ><path style="fill-rule:evenodd;" d="M260 116 L254 123 L243 123 L238 116 L243 108 L254 108 L260 116 Z"
      /></clipPath
      ><clipPath clipPathUnits="userSpaceOnUse" id="clipPath4"
      ><path style="fill-rule:evenodd;" d="M208 142 L202 149 L191 149 L186 142 L191 134 L202 134 L208 142 Z"
      /></clipPath
      ><clipPath clipPathUnits="userSpaceOnUse" id="clipPath5"
      ><path style="fill-rule:evenodd;" d="M145 157 L156 168 L145 179 L134 168 Z"
      /></clipPath
      ><clipPath clipPathUnits="userSpaceOnUse" id="clipPath6"
      ><path d="M82 157 L104 157 L104 179 L82 179 L82 157 Z"
      /></clipPath
      ><clipPath clipPathUnits="userSpaceOnUse" id="clipPath7"
      ><path d="M30 157 L52 157 L52 179 L30 179 L30 157 Z"
      /></clipPath
      ><clipPath clipPathUnits="userSpaceOnUse" id="clipPath8"
      ><path style="fill-rule:evenodd;" d="M156 116 L150 123 L139 123 L134 116 L139 108 L150 108 L156 116 Z"
      /></clipPath
      ><clipPath clipPathUnits="userSpaceOnUse" id="clipPath9"
      ><path style="fill-rule:evenodd;" d="M93 105 L104 116 L93 127 L82 116 Z"
      /></clipPath
      ><clipPath clipPathUnits="userSpaceOnUse" id="clipPath10"
      ><path d="M208 90 C208 96.0751 203.0751 101 197 101 C190.9249 101 186 96.0751 186 90 C186 83.9249 190.9249 79 197 79 C203.0751 79 208 83.9249 208 90 Z"
      /></clipPath
      ><clipPath clipPathUnits="userSpaceOnUse" id="clipPath11"
      ><path style="fill-rule:evenodd;" d="M249 53 L251 60 L259 60 L252 65 L255 72 L249 68 L242 72 L245 65 L238 60 L246 60 L249 53 Z"
      /></clipPath
    ></defs
    ><g style="fill:white; text-rendering:optimizeSpeed; stroke:white;"
    ><rect x="0" width="394" height="209" y="0" style="stroke:none;"
      /><polygon style="fill:none; stroke:black;" points=" 353 116 301 116"
      /><path d="M353 105 C347.5 110.5 358.5 121.5 353 127" style="fill:none; stroke:black;"
      /><polygon style="fill:none; stroke:black;" points=" 301 116 249 168"
      /><polygon style="fill:none; stroke:black;" points=" 301 116 249 116"
      /><polygon style="fill:none; stroke:black;" points=" 301 116 249 64"
      /><polygon style="clip-path:url(#clipPath1); stroke:none;" points=" 312 116 306 123 295 123 290 116 295 108 306 108 312 116"
      /><rect x="290" y="105" width="22" style="clip-path:url(#clipPath1); fill:rgb(255,212,0); stroke:none;" height="22"
      /><rect x="290" y="105" width="22" style="clip-path:url(#clipPath1); fill:none; stroke:black;" height="22"
      /><polygon style="fill:none; stroke:black;" points=" 312 116 306 123 295 123 290 116 295 108 306 108 312 116"
      /><polygon style="clip-path:url(#clipPath2); stroke:none;" points=" 260 168 254 175 243 175 238 168 243 160 254 160 260 168"
      /><rect x="238" y="157" width="22" style="clip-path:url(#clipPath2); fill:rgb(255,212,0); stroke:none;" height="22"
      /><rect x="238" y="157" width="22" style="clip-path:url(#clipPath2); fill:none; stroke:black;" height="22"
      /><polygon style="fill:none; stroke:black;" points=" 260 168 254 175 243 175 238 168 243 160 254 160 260 168"
      /><polygon style="fill:none; stroke:black;" points=" 249 116 197 142"
      /><polygon style="fill:none; stroke:black;" points=" 249 116 197 90"
      /><polygon style="clip-path:url(#clipPath3); stroke:none;" points=" 260 116 254 123 243 123 238 116 243 108 254 108 260 116"
      /><rect x="238" y="105" width="22" style="clip-path:url(#clipPath3); fill:rgb(0,166,81); stroke:none;" height="22"
      /><rect x="238" y="105" width="22" style="clip-path:url(#clipPath3); fill:none; stroke:black;" height="22"
      /><polygon style="fill:none; stroke:black;" points=" 260 116 254 123 243 123 238 116 243 108 254 108 260 116"
      /><polygon style="fill:none; stroke:black;" points=" 197 142 145 168"
      /><polygon style="fill:none; stroke:black;" points=" 197 142 145 116"
      /><polygon style="clip-path:url(#clipPath4); stroke:none;" points=" 208 142 202 149 191 149 186 142 191 134 202 134 208 142"
      /><rect x="186" y="131" width="22" style="clip-path:url(#clipPath4); fill:rgb(0,166,81); stroke:none;" height="22"
      /><rect x="186" y="131" width="22" style="clip-path:url(#clipPath4); fill:none; stroke:black;" height="22"
      /><polygon style="fill:none; stroke:black;" points=" 208 142 202 149 191 149 186 142 191 134 202 134 208 142"
      /><polygon style="fill:none; stroke:black;" points=" 145 168 93 168"
      /><polygon style="clip-path:url(#clipPath5); stroke:none;" points=" 145 157 156 168 145 179 134 168"
      /><rect x="134" y="157" width="22" style="clip-path:url(#clipPath5); fill:rgb(255,212,0); stroke:none;" height="11"
      /><rect x="134" y="157" width="22" style="clip-path:url(#clipPath5); fill:none; stroke:black;" height="11"
      /><polygon style="fill:none; stroke:black;" points=" 145 157 156 168 145 179 134 168"
      /><polygon style="fill:none; stroke:black;" points=" 93 168 41 168"
      /><rect x="82" y="157" width="22" style="clip-path:url(#clipPath6); stroke:none;" height="22"
      /><polygon style="fill:rgb(0,144,188); clip-path:url(#clipPath6); stroke:none;" points=" 82 157 104 157 104 179"
      /><polygon style="fill:none; clip-path:url(#clipPath6); stroke:black;" points=" 82 157 104 157 104 179"
      /><rect x="82" y="157" width="22" style="fill:none; stroke:black;" height="22"
      /><rect x="30" y="157" width="22" style="clip-path:url(#clipPath7); stroke:none;" height="22"
      /><rect x="30" y="157" width="22" style="clip-path:url(#clipPath7); fill:rgb(0,144,188); stroke:none;" height="22"
      /><rect x="30" y="157" width="22" style="clip-path:url(#clipPath7); fill:none; stroke:black;" height="22"
      /><rect x="30" y="157" width="22" style="fill:none; stroke:black;" height="22"
      /><rect x="70" y="171" width="7" style="stroke:none;" height="9"
    /></g
    ><g style="font-family:'Serif'; text-rendering:optimizeSpeed; "
    ><path style="stroke:none;" d="M71 176.5156 L73.9531 172.2656 L73.9531 176.5156 L71 176.5156 ZM76.2812 176.5156 L74.8594 176.5156 L74.8594 171.125 L74.2344 171.125 L70.3438 176.6406 L70.3438 177.1875 L73.9531 177.1875 L73.9531 180 L74.8594 180 L74.8594 177.1875 L76.2812 177.1875 L76.2812 176.5156 Z"
      /><rect x="56" y="172" width="8" style="fill:white; stroke:none;" height="8"
      /><path style="stroke:none;" d="M60.9844 177.7031 C60.9375 178.8906 60.1562 179.6562 59.3125 179.6562 C58.2656 179.6562 57.5 178.6875 57.5 176.7188 C57.5 175.2812 58.1562 174.1562 59.3438 174.1562 C60.1406 174.1562 60.7812 174.6875 61.0938 175.6406 L60.9844 177.7031 ZM62.9062 179.2812 C62.7344 179.375 62.5469 179.4219 62.3438 179.4219 C61.9531 179.4219 61.75 179.2188 61.75 178.4219 C61.75 177.4844 61.9688 175.5312 62.1875 173.8281 L62.0312 173.7188 L61.2344 173.9219 L61.1406 174.7969 C60.7812 174.0312 60.1562 173.6562 59.3906 173.6562 C58.0469 173.6562 56.5625 174.8438 56.5625 176.9531 C56.5625 179.0938 57.7188 180.1719 59.1406 180.1719 C60.0156 180.1719 60.6875 179.8125 61.0938 178.9844 C61.2031 179.8594 61.5156 180.1719 62.0156 180.1719 C62.4688 180.1719 62.7969 179.9062 63.0156 179.5625 L62.9062 179.2812 Z"
      /><rect x="122" y="171" width="7" style="fill:white; stroke:none;" height="9"
      /><path style="stroke:none;" d="M123 176.5156 L125.9531 172.2656 L125.9531 176.5156 L123 176.5156 ZM128.2812 176.5156 L126.8594 176.5156 L126.8594 171.125 L126.2344 171.125 L122.3438 176.6406 L122.3438 177.1875 L125.9531 177.1875 L125.9531 180 L126.8594 180 L126.8594 177.1875 L128.2812 177.1875 L128.2812 176.5156 Z"
      /><rect x="108" y="172" width="8" style="fill:white; stroke:none;" height="8"
      /><path style="stroke:none;" d="M112.9844 177.7031 C112.9375 178.8906 112.1562 179.6562 111.3125 179.6562 C110.2656 179.6562 109.5 178.6875 109.5 176.7188 C109.5 175.2812 110.1562 174.1562 111.3438 174.1562 C112.1406 174.1562 112.7812 174.6875 113.0938 175.6406 L112.9844 177.7031 ZM114.9062 179.2812 C114.7344 179.375 114.5469 179.4219 114.3438 179.4219 C113.9531 179.4219 113.75 179.2188 113.75 178.4219 C113.75 177.4844 113.9688 175.5312 114.1875 173.8281 L114.0312 173.7188 L113.2344 173.9219 L113.1406 174.7969 C112.7812 174.0312 112.1562 173.6562 111.3906 173.6562 C110.0469 173.6562 108.5625 174.8438 108.5625 176.9531 C108.5625 179.0938 109.7188 180.1719 111.1406 180.1719 C112.0156 180.1719 112.6875 179.8125 113.0938 178.9844 C113.2031 179.8594 113.5156 180.1719 114.0156 180.1719 C114.4688 180.1719 114.7969 179.9062 115.0156 179.5625 L114.9062 179.2812 Z"
      /><polygon style="fill:none;" points=" 145 116 93 116"
      /><polygon style="fill:white; clip-path:url(#clipPath8); stroke:none;" points=" 156 116 150 123 139 123 134 116 139 108 150 108 156 116"
      /><rect x="134" y="105" width="22" style="clip-path:url(#clipPath8); fill:rgb(0,166,81); stroke:none;" height="22"
      /><rect x="134" y="105" width="22" style="fill:none; clip-path:url(#clipPath8);" height="22"
      /><polygon style="fill:none;" points=" 156 116 150 123 139 123 134 116 139 108 150 108 156 116"
      /><polygon style="fill:white; clip-path:url(#clipPath9); stroke:none;" points=" 93 105 104 116 93 127 82 116"
      /><rect x="82" y="105" width="22" style="clip-path:url(#clipPath9); fill:rgb(255,212,0); stroke:none;" height="11"
      /><rect x="82" y="105" width="22" style="fill:none; clip-path:url(#clipPath9);" height="11"
      /><polygon style="fill:none;" points=" 93 105 104 116 93 127 82 116"
      /><rect x="123" y="119" width="6" style="fill:white; stroke:none;" height="9"
      /><path style="stroke:none;" d="M123.6406 119.25 L123.6406 120.1406 L128.2031 120.1406 L124.7812 127.875 L124.8906 128 L125.75 128 L128.875 119.7969 L128.875 119.25 L123.6406 119.25 Z"
      /><rect x="109" y="117" width="6" style="fill:white; stroke:none;" height="13"
      /><path style="stroke:none;" d="M111.0938 123.2031 C111.0938 121.6562 111.75 120.8125 112.7969 120.8125 C113.7188 120.8125 114.2656 121.4531 114.2656 122.5156 C114.2656 123.7188 113.5 124.4375 112.1875 124.7031 L112.2969 125.3125 C114.2188 125.2344 114.9375 126.2188 114.9375 127.4375 C114.9375 128.625 114.2344 129.4219 112.9531 129.4219 C112.25 129.4219 111.6562 129.1562 111.0938 128.7188 L111.0938 123.2031 ZM110.2031 129.9062 L110.1094 132.375 L110.2656 132.4844 L111.1562 132.2656 L111.0156 129.0938 C111.5469 129.8438 112.3594 130.1719 113.1719 130.1719 C114.5625 130.1719 115.8594 129.2188 115.8594 127.4844 C115.8594 125.9531 114.875 125.1094 113.125 125 C114.5625 124.6094 115.1875 123.4531 115.1875 122.4844 C115.1875 121.0938 114.1562 120.3125 112.9062 120.3125 C111.2969 120.3125 110.2188 121.5469 110.2188 123.5156 L110.2031 129.9062 Z"
      /><rect x="179" y="153" width="6" style="fill:white; stroke:none;" height="10"
      /><path style="stroke:none;" d="M181.2344 154.6562 C181.5156 154.5938 181.7656 154.5625 182.0156 154.5625 C183.0625 154.5625 183.6719 155.1719 183.6719 156.2656 C183.6719 157.4375 182.9062 158.1094 181.7031 158.1094 L181.1875 158.1094 L181.1875 158.6406 L181.7969 158.6406 C183.2188 158.6406 183.9062 159.4219 183.9062 160.6406 C183.9062 161.8438 183.1719 162.6875 181.875 162.6875 C181.6094 162.6875 181.3125 162.6562 181.0156 162.5625 L180.7812 161.8125 C180.625 161.2812 180.5 161.0469 180.1406 161.0469 C179.8906 161.0469 179.7031 161.1719 179.5781 161.4219 C179.8438 162.6406 180.7812 163.1719 182.0312 163.1719 C183.7188 163.1719 184.875 162.125 184.875 160.7031 C184.875 159.5 184.2031 158.625 182.7969 158.375 C183.9531 158.0156 184.6094 157.2031 184.6094 156.2031 C184.6094 154.9219 183.6719 154.0781 182.1875 154.0781 C181.0469 154.0781 180.0625 154.5938 179.7969 155.6875 C179.9062 156 180.1094 156.1094 180.3594 156.1094 C180.7344 156.1094 180.8906 155.8906 181 155.4062 L181.2344 154.6562 Z"
      /><rect x="162" y="162" width="8" style="fill:white; stroke:none;" height="8"
      /><path style="stroke:none;" d="M166.9844 167.7031 C166.9375 168.8906 166.1562 169.6562 165.3125 169.6562 C164.2656 169.6562 163.5 168.6875 163.5 166.7188 C163.5 165.2812 164.1562 164.1562 165.3438 164.1562 C166.1406 164.1562 166.7812 164.6875 167.0938 165.6406 L166.9844 167.7031 ZM168.9062 169.2812 C168.7344 169.375 168.5469 169.4219 168.3438 169.4219 C167.9531 169.4219 167.75 169.2188 167.75 168.4219 C167.75 167.4844 167.9688 165.5312 168.1875 163.8281 L168.0312 163.7188 L167.2344 163.9219 L167.1406 164.7969 C166.7812 164.0312 166.1562 163.6562 165.3906 163.6562 C164.0469 163.6562 162.5625 164.8438 162.5625 166.9531 C162.5625 169.0938 163.7188 170.1719 165.1406 170.1719 C166.0156 170.1719 166.6875 169.8125 167.0938 168.9844 C167.2031 169.8594 167.5156 170.1719 168.0156 170.1719 C168.4688 170.1719 168.7969 169.9062 169.0156 169.5625 L168.9062 169.2812 Z"
      /><rect x="172" y="135" width="6" style="fill:white; stroke:none;" height="9"
      /><path style="stroke:none;" d="M172.6406 135.25 L172.6406 136.1406 L177.2031 136.1406 L173.7812 143.875 L173.8906 144 L174.75 144 L177.875 135.7969 L177.875 135.25 L172.6406 135.25 Z"
      /><rect x="155" y="128" width="8" style="fill:white; stroke:none;" height="8"
      /><path style="stroke:none;" d="M159.9844 133.7031 C159.9375 134.8906 159.1562 135.6562 158.3125 135.6562 C157.2656 135.6562 156.5 134.6875 156.5 132.7188 C156.5 131.2812 157.1562 130.1562 158.3438 130.1562 C159.1406 130.1562 159.7812 130.6875 160.0938 131.6406 L159.9844 133.7031 ZM161.9062 135.2812 C161.7344 135.375 161.5469 135.4219 161.3438 135.4219 C160.9531 135.4219 160.75 135.2188 160.75 134.4219 C160.75 133.4844 160.9688 131.5312 161.1875 129.8281 L161.0312 129.7188 L160.2344 129.9219 L160.1406 130.7969 C159.7812 130.0312 159.1562 129.6562 158.3906 129.6562 C157.0469 129.6562 155.5625 130.8438 155.5625 132.9531 C155.5625 135.0938 156.7188 136.1719 158.1406 136.1719 C159.0156 136.1719 159.6875 135.8125 160.0938 134.9844 C160.2031 135.8594 160.5156 136.1719 161.0156 136.1719 C161.4688 136.1719 161.7969 135.9062 162.0156 135.5625 L161.9062 135.2812 Z"
      /><circle style="fill:white; clip-path:url(#clipPath10); stroke:none;" r="11" cx="197" cy="90"
      /><rect x="186" y="79" width="22" style="clip-path:url(#clipPath10); fill:rgb(0,144,188); stroke:none;" height="22"
      /><rect x="186" y="79" width="22" style="fill:none; clip-path:url(#clipPath10);" height="22"
      /><circle r="11" style="fill:none;" cx="197" cy="90"
      /><rect x="231" y="127" width="6" style="fill:white; stroke:none;" height="10"
      /><path style="stroke:none;" d="M233.2344 128.6562 C233.5156 128.5938 233.7656 128.5625 234.0156 128.5625 C235.0625 128.5625 235.6719 129.1719 235.6719 130.2656 C235.6719 131.4375 234.9062 132.1094 233.7031 132.1094 L233.1875 132.1094 L233.1875 132.6406 L233.7969 132.6406 C235.2188 132.6406 235.9062 133.4219 235.9062 134.6406 C235.9062 135.8438 235.1719 136.6875 233.875 136.6875 C233.6094 136.6875 233.3125 136.6562 233.0156 136.5625 L232.7812 135.8125 C232.625 135.2812 232.5 135.0469 232.1406 135.0469 C231.8906 135.0469 231.7031 135.1719 231.5781 135.4219 C231.8438 136.6406 232.7812 137.1719 234.0312 137.1719 C235.7188 137.1719 236.875 136.125 236.875 134.7031 C236.875 133.5 236.2031 132.625 234.7969 132.375 C235.9531 132.0156 236.6094 131.2031 236.6094 130.2031 C236.6094 128.9219 235.6719 128.0781 234.1875 128.0781 C233.0469 128.0781 232.0625 128.5938 231.7969 129.6875 C231.9062 130 232.1094 130.1094 232.3594 130.1094 C232.7344 130.1094 232.8906 129.8906 233 129.4062 L233.2344 128.6562 Z"
      /><rect x="214" y="136" width="8" style="fill:white; stroke:none;" height="8"
      /><path style="stroke:none;" d="M218.9844 141.7031 C218.9375 142.8906 218.1562 143.6562 217.3125 143.6562 C216.2656 143.6562 215.5 142.6875 215.5 140.7188 C215.5 139.2812 216.1562 138.1562 217.3438 138.1562 C218.1406 138.1562 218.7812 138.6875 219.0938 139.6406 L218.9844 141.7031 ZM220.9062 143.2812 C220.7344 143.375 220.5469 143.4219 220.3438 143.4219 C219.9531 143.4219 219.75 143.2188 219.75 142.4219 C219.75 141.4844 219.9688 139.5312 220.1875 137.8281 L220.0312 137.7188 L219.2344 137.9219 L219.1406 138.7969 C218.7812 138.0312 218.1562 137.6562 217.3906 137.6562 C216.0469 137.6562 214.5625 138.8438 214.5625 140.9531 C214.5625 143.0938 215.7188 144.1719 217.1406 144.1719 C218.0156 144.1719 218.6875 143.8125 219.0938 142.9844 C219.2031 143.8594 219.5156 144.1719 220.0156 144.1719 C220.4688 144.1719 220.7969 143.9062 221.0156 143.5625 L220.9062 143.2812 Z"
      /><rect x="223" y="109" width="7" style="fill:white; stroke:none;" height="9"
      /><path style="stroke:none;" d="M224 114.5156 L226.9531 110.2656 L226.9531 114.5156 L224 114.5156 ZM229.2812 114.5156 L227.8594 114.5156 L227.8594 109.125 L227.2344 109.125 L223.3438 114.6406 L223.3438 115.1875 L226.9531 115.1875 L226.9531 118 L227.8594 118 L227.8594 115.1875 L229.2812 115.1875 L229.2812 114.5156 Z"
      /><rect x="208" y="99" width="6" style="fill:white; stroke:none;" height="13"
      /><path style="stroke:none;" d="M210.0938 105.2031 C210.0938 103.6562 210.75 102.8125 211.7969 102.8125 C212.7188 102.8125 213.2656 103.4531 213.2656 104.5156 C213.2656 105.7188 212.5 106.4375 211.1875 106.7031 L211.2969 107.3125 C213.2188 107.2344 213.9375 108.2188 213.9375 109.4375 C213.9375 110.625 213.2344 111.4219 211.9531 111.4219 C211.25 111.4219 210.6562 111.1562 210.0938 110.7188 L210.0938 105.2031 ZM209.2031 111.9062 L209.1094 114.375 L209.2656 114.4844 L210.1562 114.2656 L210.0156 111.0938 C210.5469 111.8438 211.3594 112.1719 212.1719 112.1719 C213.5625 112.1719 214.8594 111.2188 214.8594 109.4844 C214.8594 107.9531 213.875 107.1094 212.125 107 C213.5625 106.6094 214.1875 105.4531 214.1875 104.4844 C214.1875 103.0938 213.1562 102.3125 211.9062 102.3125 C210.2969 102.3125 209.2188 103.5469 209.2188 105.5156 L209.2031 111.9062 Z"
      /><polygon style="fill:white; clip-path:url(#clipPath11); stroke:none;" points=" 249 53 251 60 259 60 252 65 255 72 249 68 242 72 245 65 238 60 246 60 249 53"
      /><rect x="238" y="53" width="22" style="clip-path:url(#clipPath11); fill:rgb(0,166,81); stroke:none;" height="22"
      /><rect x="238" y="53" width="22" style="fill:none; clip-path:url(#clipPath11);" height="22"
      /><polygon style="fill:none;" points=" 249 53 251 60 259 60 252 65 255 72 249 68 242 72 245 65 238 60 246 60 249 53"
    /></g
    ><g style="fill:white; text-rendering:optimizeSpeed; font-size:14px; font-family:'SansSerif'; stroke:white;"
    ><rect x="240" width="16" height="10" y="35" style="stroke:none;"
      /><path d="M241.6094 42.1562 L243.9531 38.6562 C244.2344 38.1406 244.5156 37.6406 244.7812 37.1406 L244.8281 37.1406 C244.7969 37.6719 244.7656 38.5 244.7656 39 L244.7656 42.1562 L241.6094 42.1562 ZM244.7656 46 L245.9688 46 L245.9688 43.1719 L247.3281 43.1719 L247.3281 42.1562 L245.9688 42.1562 L245.9688 35.7188 L244.5469 35.7188 L240.2812 42.3281 L240.2812 43.1719 L244.7656 43.1719 L244.7656 46 ZM249.1762 46 L250.395 46 L250.395 40.6094 C250.395 39.5312 250.3012 38.4375 250.2543 37.4062 L250.3012 37.4062 L251.4106 39.5156 L255.145 46 L256.4731 46 L256.4731 35.7188 L255.2387 35.7188 L255.2387 41.0781 C255.2387 42.1406 255.3481 43.2812 255.4106 44.3125 L255.3481 44.3125 L254.2543 42.2031 L250.52 35.7188 L249.1762 35.7188 L249.1762 46 Z" style="fill:black; stroke:none;"
      /><rect x="286" width="7" height="9" y="133" style="stroke:none;"
    /></g
    ><g style="font-family:'Serif'; text-rendering:optimizeSpeed; "
    ><path style="stroke:none;" d="M287 138.5156 L289.9531 134.2656 L289.9531 138.5156 L287 138.5156 ZM292.2812 138.5156 L290.8594 138.5156 L290.8594 133.125 L290.2344 133.125 L286.3438 138.6406 L286.3438 139.1875 L289.9531 139.1875 L289.9531 142 L290.8594 142 L290.8594 139.1875 L292.2812 139.1875 L292.2812 138.5156 Z"
      /><rect x="267" y="153" width="8" style="fill:white; stroke:none;" height="8"
      /><path style="stroke:none;" d="M271.9844 158.7031 C271.9375 159.8906 271.1562 160.6562 270.3125 160.6562 C269.2656 160.6562 268.5 159.6875 268.5 157.7188 C268.5 156.2812 269.1562 155.1562 270.3438 155.1562 C271.1406 155.1562 271.7812 155.6875 272.0938 156.6406 L271.9844 158.7031 ZM273.9062 160.2812 C273.7344 160.375 273.5469 160.4219 273.3438 160.4219 C272.9531 160.4219 272.75 160.2188 272.75 159.4219 C272.75 158.4844 272.9688 156.5312 273.1875 154.8281 L273.0312 154.7188 L272.2344 154.9219 L272.1406 155.7969 C271.7812 155.0312 271.1562 154.6562 270.3906 154.6562 C269.0469 154.6562 267.5625 155.8438 267.5625 157.9531 C267.5625 160.0938 268.7188 161.1719 270.1406 161.1719 C271.0156 161.1719 271.6875 160.8125 272.0938 159.9844 C272.2031 160.8594 272.5156 161.1719 273.0156 161.1719 C273.4688 161.1719 273.7969 160.9062 274.0156 160.5625 L273.9062 160.2812 Z"
      /><rect x="279" y="119" width="6" style="fill:white; stroke:none;" height="10"
      /><path style="stroke:none;" d="M280.9219 121.1406 L284.6562 121.1406 L284.6562 120.25 L280.4531 120.25 L280.1719 124.3125 L280.5156 124.3906 C280.9219 124.25 281.3906 124.1875 281.8125 124.1875 C283.0781 124.1875 283.9219 124.9531 283.9219 126.3906 C283.9219 127.7812 283.1719 128.6875 281.8281 128.6875 C281.5156 128.6875 281.2344 128.6406 280.9375 128.5625 L280.6875 127.7812 C280.5312 127.2188 280.3906 127.0469 280.0625 127.0469 C279.7969 127.0469 279.5938 127.1719 279.4844 127.4375 C279.7656 128.5938 280.625 129.1719 281.8906 129.1719 C283.7031 129.1719 284.875 127.9844 284.875 126.2812 C284.875 124.5312 283.75 123.5469 282.0938 123.5469 C281.6094 123.5469 281.1719 123.625 280.7344 123.7656 L280.9219 121.1406 Z"
      /><rect x="264" y="120" width="8" style="fill:white; stroke:none;" height="8"
      /><path style="stroke:none;" d="M268.9844 125.7031 C268.9375 126.8906 268.1562 127.6562 267.3125 127.6562 C266.2656 127.6562 265.5 126.6875 265.5 124.7188 C265.5 123.2812 266.1562 122.1562 267.3438 122.1562 C268.1406 122.1562 268.7812 122.6875 269.0938 123.6406 L268.9844 125.7031 ZM270.9062 127.2812 C270.7344 127.375 270.5469 127.4219 270.3438 127.4219 C269.9531 127.4219 269.75 127.2188 269.75 126.4219 C269.75 125.4844 269.9688 123.5312 270.1875 121.8281 L270.0312 121.7188 L269.2344 121.9219 L269.1406 122.7969 C268.7812 122.0312 268.1562 121.6562 267.3906 121.6562 C266.0469 121.6562 264.5625 122.8438 264.5625 124.9531 C264.5625 127.0938 265.7188 128.1719 267.1406 128.1719 C268.0156 128.1719 268.6875 127.8125 269.0938 126.9844 C269.2031 127.8594 269.5156 128.1719 270.0156 128.1719 C270.4688 128.1719 270.7969 127.9062 271.0156 127.5625 L270.9062 127.2812 Z"
      /><rect x="275" y="100" width="6" style="fill:white; stroke:none;" height="10"
      /><path style="stroke:none;" d="M278.2656 109.7031 C277.2031 109.7031 276.5 108.9688 276.5 107.9062 C276.5 106.9688 276.9375 106.4219 277.9062 105.8438 C279.4688 106.5625 279.9531 107.1719 279.9531 108.0156 C279.9531 109 279.2969 109.7031 278.2656 109.7031 ZM276.75 103.0469 C276.75 102.1094 277.4531 101.5625 278.2344 101.5625 C279.1562 101.5625 279.6562 102.2656 279.6562 103.0938 C279.6562 103.9688 279.3281 104.5469 278.4688 105.1562 C277.0938 104.5156 276.75 103.7969 276.75 103.0469 ZM278.8594 105.3438 C280.0938 104.6562 280.4531 103.8125 280.4531 103.0938 C280.4531 101.9219 279.6094 101.0781 278.2656 101.0781 C276.9375 101.0781 275.8906 101.9062 275.8906 103.2031 C275.8906 104.2031 276.375 105.0469 277.5156 105.6562 C276.2656 106.2812 275.5938 107 275.5938 108.0156 C275.5938 109.3906 276.6562 110.1719 278.2344 110.1719 C279.75 110.1719 280.875 109.25 280.875 107.8906 C280.875 106.7344 280.2656 106 278.8594 105.3438 Z"
      /><rect x="257" y="79" width="6" style="fill:white; stroke:none;" height="13"
      /><path style="stroke:none;" d="M259.0938 85.2031 C259.0938 83.6562 259.75 82.8125 260.7969 82.8125 C261.7188 82.8125 262.2656 83.4531 262.2656 84.5156 C262.2656 85.7188 261.5 86.4375 260.1875 86.7031 L260.2969 87.3125 C262.2188 87.2344 262.9375 88.2188 262.9375 89.4375 C262.9375 90.625 262.2344 91.4219 260.9531 91.4219 C260.25 91.4219 259.6562 91.1562 259.0938 90.7188 L259.0938 85.2031 ZM258.2031 91.9062 L258.1094 94.375 L258.2656 94.4844 L259.1562 94.2656 L259.0156 91.0938 C259.5469 91.8438 260.3594 92.1719 261.1719 92.1719 C262.5625 92.1719 263.8594 91.2188 263.8594 89.4844 C263.8594 87.9531 262.875 87.1094 261.125 87 C262.5625 86.6094 263.1875 85.4531 263.1875 84.4844 C263.1875 83.0938 262.1562 82.3125 260.9062 82.3125 C259.2969 82.3125 258.2188 83.5469 258.2188 85.5156 L258.2031 91.9062 Z"
      /><rect x="316" y="120" width="8" style="fill:white; stroke:none;" height="8"
      /><path style="stroke:none;" d="M320.9844 125.7031 C320.9375 126.8906 320.1562 127.6562 319.3125 127.6562 C318.2656 127.6562 317.5 126.6875 317.5 124.7188 C317.5 123.2812 318.1562 122.1562 319.3438 122.1562 C320.1406 122.1562 320.7812 122.6875 321.0938 123.6406 L320.9844 125.7031 ZM322.9062 127.2812 C322.7344 127.375 322.5469 127.4219 322.3438 127.4219 C321.9531 127.4219 321.75 127.2188 321.75 126.4219 C321.75 125.4844 321.9688 123.5312 322.1875 121.8281 L322.0312 121.7188 L321.2344 121.9219 L321.1406 122.7969 C320.7812 122.0312 320.1562 121.6562 319.3906 121.6562 C318.0469 121.6562 316.5625 122.8438 316.5625 124.9531 C316.5625 127.0938 317.7188 128.1719 319.1406 128.1719 C320.0156 128.1719 320.6875 127.8125 321.0938 126.9844 C321.2031 127.8594 321.5156 128.1719 322.0156 128.1719 C322.4688 128.1719 322.7969 127.9062 323.0156 127.5625 L322.9062 127.2812 Z"
    /></g
  ></g
></svg
>
