<?xml version="1.0"?>
<!DOCTYPE svg PUBLIC '-//W3C//DTD SVG 1.0//EN'
          'http://www.w3.org/TR/2001/REC-SVG-20010904/DTD/svg10.dtd'>
<svg xmlns:xlink="http://www.w3.org/1999/xlink" style="fill-opacity:1; color-rendering:auto; color-interpolation:auto; text-rendering:auto; stroke:black; stroke-linecap:square; stroke-miterlimit:10; shape-rendering:auto; stroke-opacity:1; fill:black; stroke-dasharray:none; font-weight:normal; stroke-width:1; font-family:'Dialog'; font-style:normal; stroke-linejoin:miter; font-size:12px; stroke-dashoffset:0; image-rendering:auto;" viewBox="0 0 156 232" xmlns="http://www.w3.org/2000/svg"
><!--Generated by the Batik Graphics2D SVG Generator--><defs id="genericDefs"
  /><g
  ><defs id="defs1"
    ><clipPath clipPathUnits="userSpaceOnUse" id="clipPath1"
      ><path d="M52 191 C52 197.0751 47.0751 202 41 202 C34.9249 202 30 197.0751 30 191 C30 184.9249 34.9249 180 41 180 C47.0751 180 52 184.9249 52 191 Z"
      /></clipPath
      ><clipPath clipPathUnits="userSpaceOnUse" id="clipPath2"
      ><path d="M30 105 L52 105 L52 127 L30 127 L30 105 Z"
      /></clipPath
      ><clipPath clipPathUnits="userSpaceOnUse" id="clipPath3"
      ><path d="M52 41 C52 47.0751 47.0751 52 41 52 C34.9249 52 30 47.0751 30 41 C30 34.9249 34.9249 30 41 30 C47.0751 30 52 34.9249 52 41 Z"
      /></clipPath
    ></defs
    ><g style="fill:white; text-rendering:optimizeSpeed; stroke:white;"
    ><rect x="0" width="156" height="232" y="0" style="stroke:none;"
      /><circle style="clip-path:url(#clipPath1); stroke:none;" r="11" cx="41" cy="191"
      /><rect x="30" y="180" width="22" style="clip-path:url(#clipPath1); fill:rgb(0,144,188); stroke:none;" height="22"
      /><rect x="30" y="180" width="22" style="clip-path:url(#clipPath1); fill:none; stroke:black;" height="22"
      /><circle style="fill:none; stroke:black;" r="11" cx="41" cy="191"
      /><rect x="57" y="178" width="5" style="stroke:none;" height="10"
    /></g
    ><g style="font-family:'Serif'; text-rendering:optimizeSpeed; "
    ><path style="stroke:none;" d="M58.8906 186.6875 C58.4844 186.6875 58.1562 187.0469 58.1562 187.4219 C58.1562 187.8125 58.4844 188.1562 58.8906 188.1562 C59.2969 188.1562 59.6406 187.8125 59.6406 187.4219 C59.6406 187.0469 59.2969 186.6875 58.8906 186.6875 ZM60.4688 180.5781 C60.7188 180.8906 60.875 181.2656 60.8906 181.6562 C60.8906 182.1875 60.625 182.5 60.0312 182.7656 L59.4062 183.0156 C58.6406 183.3125 58.3906 183.5469 58.3906 183.9375 C58.3906 184.1094 58.4531 184.3438 58.5781 184.8125 L58.7344 185.3438 L59.1094 185.3438 L59.0938 184.5312 C59.0938 184.0938 59.2031 183.9688 59.7812 183.7344 L60.2031 183.5625 C61.0312 183.2188 61.4531 182.6875 61.4531 181.8438 C61.4531 180.1562 59.6562 179.1875 58.5 179.0312 C58.1094 179.125 57.9062 179.2969 57.9062 179.6406 C57.9062 179.9375 58.0625 180.1562 58.7188 180.2656 L60.4688 180.5781 Z"
      /><rect x="57" y="194" width="5" style="fill:white; stroke:none;" height="10"
      /><path style="stroke:none;" d="M58.8906 202.6875 C58.4844 202.6875 58.1562 203.0469 58.1562 203.4219 C58.1562 203.8125 58.4844 204.1562 58.8906 204.1562 C59.2969 204.1562 59.6406 203.8125 59.6406 203.4219 C59.6406 203.0469 59.2969 202.6875 58.8906 202.6875 ZM60.4688 196.5781 C60.7188 196.8906 60.875 197.2656 60.8906 197.6562 C60.8906 198.1875 60.625 198.5 60.0312 198.7656 L59.4062 199.0156 C58.6406 199.3125 58.3906 199.5469 58.3906 199.9375 C58.3906 200.1094 58.4531 200.3438 58.5781 200.8125 L58.7344 201.3438 L59.1094 201.3438 L59.0938 200.5312 C59.0938 200.0938 59.2031 199.9688 59.7812 199.7344 L60.2031 199.5625 C61.0312 199.2188 61.4531 198.6875 61.4531 197.8438 C61.4531 196.1562 59.6562 195.1875 58.5 195.0312 C58.1094 195.125 57.9062 195.2969 57.9062 195.6406 C57.9062 195.9375 58.0625 196.1562 58.7188 196.2656 L60.4688 196.5781 Z"
      /><rect x="30" y="105" width="22" style="clip-path:url(#clipPath2); fill:white; stroke:none;" height="22"
      /><rect x="30" y="105" width="22" style="clip-path:url(#clipPath2); fill:rgb(255,212,0); stroke:none;" height="22"
      /><rect x="30" y="105" width="22" style="fill:none; clip-path:url(#clipPath2);" height="22"
      /><rect x="30" width="22" height="22" y="105" style="fill:none;"
    /></g
    ><g style="fill:white; text-rendering:optimizeSpeed; font-size:14px; font-family:'SansSerif'; stroke:white;"
    ><rect x="33" width="15" height="10" y="133" style="stroke:none;"
      /><path d="M36.7031 144.1875 C38.5156 144.1875 39.9844 143.0938 39.9844 141.25 C39.9844 139.8594 39.0156 138.9375 37.8125 138.6562 L37.8125 138.5938 C38.8906 138.1875 39.6406 137.3594 39.6406 136.125 C39.6406 134.5 38.375 133.5469 36.6562 133.5469 C35.4688 133.5469 34.5469 134.0625 33.7812 134.7812 L34.4688 135.5938 C35.0469 135 35.7656 134.5938 36.5938 134.5938 C37.6562 134.5938 38.3281 135.2344 38.3281 136.2188 C38.3281 137.3281 37.6094 138.1719 35.4844 138.1719 L35.4844 139.1562 C37.8594 139.1562 38.6875 139.9844 38.6875 141.2031 C38.6875 142.3906 37.8125 143.125 36.5938 143.125 C35.4375 143.125 34.6562 142.5781 34.0469 141.9375 L33.4062 142.7812 C34.0781 143.5156 35.0938 144.1875 36.7031 144.1875 ZM45.02 144.1875 C47.1606 144.1875 48.5043 142.8906 48.5043 141.2656 C48.5043 139.75 47.5825 139.0469 46.395 138.5312 L44.9262 137.8906 C44.1293 137.5625 43.2387 137.1875 43.2387 136.1875 C43.2387 135.2656 43.9887 134.6719 45.145 134.6719 C46.0981 134.6719 46.8637 135.0469 47.4887 135.6406 L48.1762 134.8125 C47.4418 134.0625 46.3637 133.5469 45.145 133.5469 C43.2856 133.5469 41.9106 134.6875 41.9106 136.2656 C41.9106 137.7656 43.0512 138.5 44.0043 138.9062 L45.4887 139.5469 C46.4575 139.9844 47.1918 140.3125 47.1918 141.375 C47.1918 142.375 46.3793 143.0469 45.0356 143.0469 C43.9731 143.0469 42.9418 142.5469 42.2075 141.7812 L41.4262 142.6562 C42.3168 143.5938 43.5668 144.1875 45.02 144.1875 Z" style="fill:black; stroke:none;"
      /><rect x="57" width="5" height="10" y="103" style="stroke:none;"
    /></g
    ><g style="font-family:'Serif'; text-rendering:optimizeSpeed; "
    ><path style="stroke:none;" d="M58.8906 111.6875 C58.4844 111.6875 58.1562 112.0469 58.1562 112.4219 C58.1562 112.8125 58.4844 113.1562 58.8906 113.1562 C59.2969 113.1562 59.6406 112.8125 59.6406 112.4219 C59.6406 112.0469 59.2969 111.6875 58.8906 111.6875 ZM60.4688 105.5781 C60.7188 105.8906 60.875 106.2656 60.8906 106.6562 C60.8906 107.1875 60.625 107.5 60.0312 107.7656 L59.4062 108.0156 C58.6406 108.3125 58.3906 108.5469 58.3906 108.9375 C58.3906 109.1094 58.4531 109.3438 58.5781 109.8125 L58.7344 110.3438 L59.1094 110.3438 L59.0938 109.5312 C59.0938 109.0938 59.2031 108.9688 59.7812 108.7344 L60.2031 108.5625 C61.0312 108.2188 61.4531 107.6875 61.4531 106.8438 C61.4531 105.1562 59.6562 104.1875 58.5 104.0312 C58.1094 104.125 57.9062 104.2969 57.9062 104.6406 C57.9062 104.9375 58.0625 105.1562 58.7188 105.2656 L60.4688 105.5781 Z"
      /><rect x="57" y="119" width="5" style="fill:white; stroke:none;" height="10"
      /><path style="stroke:none;" d="M58.8906 127.6875 C58.4844 127.6875 58.1562 128.0469 58.1562 128.4219 C58.1562 128.8125 58.4844 129.1562 58.8906 129.1562 C59.2969 129.1562 59.6406 128.8125 59.6406 128.4219 C59.6406 128.0469 59.2969 127.6875 58.8906 127.6875 ZM60.4688 121.5781 C60.7188 121.8906 60.875 122.2656 60.8906 122.6562 C60.8906 123.1875 60.625 123.5 60.0312 123.7656 L59.4062 124.0156 C58.6406 124.3125 58.3906 124.5469 58.3906 124.9375 C58.3906 125.1094 58.4531 125.3438 58.5781 125.8125 L58.7344 126.3438 L59.1094 126.3438 L59.0938 125.5312 C59.0938 125.0938 59.2031 124.9688 59.7812 124.7344 L60.2031 124.5625 C61.0312 124.2188 61.4531 123.6875 61.4531 122.8438 C61.4531 121.1562 59.6562 120.1875 58.5 120.0312 C58.1094 120.125 57.9062 120.2969 57.9062 120.6406 C57.9062 120.9375 58.0625 121.1562 58.7188 121.2656 L60.4688 121.5781 Z"
      /><circle style="fill:white; clip-path:url(#clipPath3); stroke:none;" r="11" cx="41" cy="41"
      /><rect x="30" y="30" width="22" style="clip-path:url(#clipPath3); fill:rgb(255,212,0); stroke:none;" height="22"
      /><rect x="30" y="30" width="22" style="fill:none; clip-path:url(#clipPath3);" height="22"
      /><circle r="11" style="fill:none;" cx="41" cy="41"
    /></g
    ><g style="fill:white; text-rendering:optimizeSpeed; font-size:14px; font-family:'SansSerif'; stroke:white;"
    ><rect x="33" width="15" height="10" y="58" style="stroke:none;"
      /><path d="M36.7031 69.1875 C38.5156 69.1875 39.9844 68.0938 39.9844 66.25 C39.9844 64.8594 39.0156 63.9375 37.8125 63.6562 L37.8125 63.5938 C38.8906 63.1875 39.6406 62.3594 39.6406 61.125 C39.6406 59.5 38.375 58.5469 36.6562 58.5469 C35.4688 58.5469 34.5469 59.0625 33.7812 59.7812 L34.4688 60.5938 C35.0469 60 35.7656 59.5938 36.5938 59.5938 C37.6562 59.5938 38.3281 60.2344 38.3281 61.2188 C38.3281 62.3281 37.6094 63.1719 35.4844 63.1719 L35.4844 64.1562 C37.8594 64.1562 38.6875 64.9844 38.6875 66.2031 C38.6875 67.3906 37.8125 68.125 36.5938 68.125 C35.4375 68.125 34.6562 67.5781 34.0469 66.9375 L33.4062 67.7812 C34.0781 68.5156 35.0938 69.1875 36.7031 69.1875 ZM45.02 69.1875 C47.1606 69.1875 48.5043 67.8906 48.5043 66.2656 C48.5043 64.75 47.5825 64.0469 46.395 63.5312 L44.9262 62.8906 C44.1293 62.5625 43.2387 62.1875 43.2387 61.1875 C43.2387 60.2656 43.9887 59.6719 45.145 59.6719 C46.0981 59.6719 46.8637 60.0469 47.4887 60.6406 L48.1762 59.8125 C47.4418 59.0625 46.3637 58.5469 45.145 58.5469 C43.2856 58.5469 41.9106 59.6875 41.9106 61.2656 C41.9106 62.7656 43.0512 63.5 44.0043 63.9062 L45.4887 64.5469 C46.4575 64.9844 47.1918 65.3125 47.1918 66.375 C47.1918 67.375 46.3793 68.0469 45.0356 68.0469 C43.9731 68.0469 42.9418 67.5469 42.2075 66.7812 L41.4262 67.6562 C42.3168 68.5938 43.5668 69.1875 45.02 69.1875 Z" style="fill:black; stroke:none;"
      /><rect x="57" width="5" height="10" y="28" style="stroke:none;"
    /></g
    ><g style="font-family:'Serif'; text-rendering:optimizeSpeed; "
    ><path style="stroke:none;" d="M58.8906 36.6875 C58.4844 36.6875 58.1562 37.0469 58.1562 37.4219 C58.1562 37.8125 58.4844 38.1562 58.8906 38.1562 C59.2969 38.1562 59.6406 37.8125 59.6406 37.4219 C59.6406 37.0469 59.2969 36.6875 58.8906 36.6875 ZM60.4688 30.5781 C60.7188 30.8906 60.875 31.2656 60.8906 31.6562 C60.8906 32.1875 60.625 32.5 60.0312 32.7656 L59.4062 33.0156 C58.6406 33.3125 58.3906 33.5469 58.3906 33.9375 C58.3906 34.1094 58.4531 34.3438 58.5781 34.8125 L58.7344 35.3438 L59.1094 35.3438 L59.0938 34.5312 C59.0938 34.0938 59.2031 33.9688 59.7812 33.7344 L60.2031 33.5625 C61.0312 33.2188 61.4531 32.6875 61.4531 31.8438 C61.4531 30.1562 59.6562 29.1875 58.5 29.0312 C58.1094 29.125 57.9062 29.2969 57.9062 29.6406 C57.9062 29.9375 58.0625 30.1562 58.7188 30.2656 L60.4688 30.5781 Z"
      /><rect x="57" y="44" width="5" style="fill:white; stroke:none;" height="10"
      /><path style="stroke:none;" d="M58.8906 52.6875 C58.4844 52.6875 58.1562 53.0469 58.1562 53.4219 C58.1562 53.8125 58.4844 54.1562 58.8906 54.1562 C59.2969 54.1562 59.6406 53.8125 59.6406 53.4219 C59.6406 53.0469 59.2969 52.6875 58.8906 52.6875 ZM60.4688 46.5781 C60.7188 46.8906 60.875 47.2656 60.8906 47.6562 C60.8906 48.1875 60.625 48.5 60.0312 48.7656 L59.4062 49.0156 C58.6406 49.3125 58.3906 49.5469 58.3906 49.9375 C58.3906 50.1094 58.4531 50.3438 58.5781 50.8125 L58.7344 51.3438 L59.1094 51.3438 L59.0938 50.5312 C59.0938 50.0938 59.2031 49.9688 59.7812 49.7344 L60.2031 49.5625 C61.0312 49.2188 61.4531 48.6875 61.4531 47.8438 C61.4531 46.1562 59.6562 45.1875 58.5 45.0312 C58.1094 45.125 57.9062 45.2969 57.9062 45.6406 C57.9062 45.9375 58.0625 46.1562 58.7188 46.2656 L60.4688 46.5781 Z"
    /></g
    ><g ID="legend-1:0" style="text-rendering:optimizeSpeed; font-size:10px; font-family:'SansSerif';"
    ><path style="stroke:none;" d="M30.9219 217 L31.8281 217 L31.8281 213.0625 C32.375 212.5156 32.7656 212.2344 33.3125 212.2344 C34.0469 212.2344 34.3438 212.6562 34.3438 213.6875 L34.3438 217 L35.2656 217 L35.2656 213.5625 C35.2656 212.1719 34.7344 211.4375 33.5938 211.4375 C32.8594 211.4375 32.2969 211.8438 31.7812 212.3438 L31.75 212.3438 L31.6719 211.5625 L30.9219 211.5625 L30.9219 217 ZM39.1413 217.125 C40.4694 217.125 41.6569 216.0938 41.6569 214.2969 C41.6569 212.4844 40.4694 211.4375 39.1413 211.4375 C37.8131 211.4375 36.6256 212.4844 36.6256 214.2969 C36.6256 216.0938 37.8131 217.125 39.1413 217.125 ZM39.1413 216.375 C38.2038 216.375 37.5631 215.5469 37.5631 214.2969 C37.5631 213.0469 38.2038 212.1875 39.1413 212.1875 C40.0788 212.1875 40.7194 213.0469 40.7194 214.2969 C40.7194 215.5469 40.0788 216.375 39.1413 216.375 ZM47.16 219.5 C48.8475 219.5 49.91 218.625 49.91 217.625 C49.91 216.7344 49.2694 216.3281 48.0038 216.3281 L46.9569 216.3281 C46.2225 216.3281 46.0038 216.0938 46.0038 215.7344 C46.0038 215.4375 46.1444 215.2656 46.3475 215.0938 C46.5975 215.2031 46.8944 215.2812 47.16 215.2812 C48.2538 215.2812 49.1444 214.5469 49.1444 213.3906 C49.1444 212.9219 48.9569 212.5156 48.7069 212.2656 L49.8163 212.2656 L49.8163 211.5625 L47.9256 211.5625 C47.7225 211.5 47.4569 211.4375 47.16 211.4375 C46.0663 211.4375 45.1131 212.1875 45.1131 213.375 C45.1131 214.0156 45.4725 214.5469 45.8319 214.8281 L45.8319 214.875 C45.5506 215.0625 45.2225 215.4375 45.2225 215.875 C45.2225 216.3125 45.4256 216.5938 45.7225 216.7656 L45.7225 216.8125 C45.2069 217.1406 44.9256 217.5781 44.9256 218.0469 C44.9256 218.9844 45.8319 219.5 47.16 219.5 ZM47.16 214.6562 C46.535 214.6562 46.0038 214.1562 46.0038 213.375 C46.0038 212.5625 46.5194 212.0938 47.16 212.0938 C47.8006 212.0938 48.3163 212.5781 48.3163 213.375 C48.3163 214.1562 47.785 214.6562 47.16 214.6562 ZM47.285 218.875 C46.3163 218.875 45.7225 218.5 45.7225 217.9219 C45.7225 217.5938 45.8788 217.2812 46.2694 217 C46.5038 217.0625 46.7694 217.0938 46.9725 217.0938 L47.91 217.0938 C48.6288 217.0938 49.0194 217.2656 49.0194 217.7656 C49.0194 218.3281 48.3319 218.875 47.285 218.875 ZM51.915 217.125 C52.165 217.125 52.3212 217.0938 52.4462 217.0469 L52.3212 216.3438 C52.2275 216.375 52.1806 216.375 52.1337 216.375 C51.9931 216.375 51.8681 216.2656 51.8681 215.9844 L51.8681 209.0469 L50.9619 209.0469 L50.9619 215.9219 C50.9619 216.6875 51.2431 217.125 51.915 217.125 ZM53.9056 219.3438 C54.9837 219.3438 55.5462 218.5156 55.9212 217.4531 L57.9681 211.5625 L57.0775 211.5625 L56.1087 214.5938 C55.9525 215.0625 55.7962 215.625 55.6556 216.1094 L55.5931 216.1094 C55.4369 215.625 55.2337 215.0625 55.0775 214.5938 L53.9681 211.5625 L53.015 211.5625 L55.2025 217.0156 L55.0775 217.4219 C54.8587 218.0938 54.4681 218.5938 53.8431 218.5938 C53.7025 218.5938 53.5462 218.5469 53.4369 218.5 L53.265 219.2344 C53.4369 219.2969 53.64 219.3438 53.9056 219.3438 ZM61.1625 217.125 C61.8031 217.125 62.4281 216.875 62.9125 216.4375 L62.5219 215.8281 C62.1781 216.1406 61.7406 216.375 61.2406 216.375 C60.2406 216.375 59.5531 215.5469 59.5531 214.2969 C59.5531 213.0469 60.2875 212.1875 61.2719 212.1875 C61.6937 212.1875 62.0375 212.3906 62.35 212.6719 L62.8187 212.0625 C62.4281 211.7344 61.9437 211.4375 61.225 211.4375 C59.8344 211.4375 58.6156 212.4844 58.6156 214.2969 C58.6156 216.0938 59.725 217.125 61.1625 217.125 ZM66.2212 217.125 C67.5493 217.125 68.7368 216.0938 68.7368 214.2969 C68.7368 212.4844 67.5493 211.4375 66.2212 211.4375 C64.8931 211.4375 63.7056 212.4844 63.7056 214.2969 C63.7056 216.0938 64.8931 217.125 66.2212 217.125 ZM66.2212 216.375 C65.2837 216.375 64.6431 215.5469 64.6431 214.2969 C64.6431 213.0469 65.2837 212.1875 66.2212 212.1875 C67.1587 212.1875 67.7993 213.0469 67.7993 214.2969 C67.7993 215.5469 67.1587 216.375 66.2212 216.375 ZM71.5937 217.125 C72.875 217.125 73.5625 216.4062 73.5625 215.5156 C73.5625 214.4844 72.7031 214.1719 71.9062 213.875 C71.2968 213.6406 70.7343 213.4531 70.7343 212.9375 C70.7343 212.5156 71.0625 212.1562 71.75 212.1562 C72.2343 212.1562 72.6093 212.3438 72.9843 212.625 L73.4218 212.0469 C73 211.7031 72.4062 211.4375 71.7343 211.4375 C70.5625 211.4375 69.8593 212.1094 69.8593 212.9688 C69.8593 213.8906 70.6875 214.2656 71.4531 214.5469 C72.0468 214.7656 72.6875 215.0156 72.6875 215.5625 C72.6875 216.0469 72.3437 216.4219 71.625 216.4219 C70.9687 216.4219 70.4843 216.1562 70.0156 215.7812 L69.5625 216.375 C70.0781 216.8125 70.8125 217.125 71.5937 217.125 ZM74.8518 217 L75.7581 217 L75.7581 211.5625 L74.8518 211.5625 L74.8518 217 ZM75.305 210.4531 C75.6643 210.4531 75.9143 210.2031 75.9143 209.8438 C75.9143 209.4844 75.6643 209.25 75.305 209.25 C74.9456 209.25 74.6956 209.4844 74.6956 209.8438 C74.6956 210.2031 74.9456 210.4531 75.305 210.4531 ZM79.4456 217.125 C80.1018 217.125 80.6643 216.7812 81.1018 216.3594 L81.1331 216.3594 L81.2112 217 L81.9456 217 L81.9456 209.0469 L81.055 209.0469 L81.055 211.125 L81.0862 212.0625 C80.6175 211.6719 80.1956 211.4375 79.555 211.4375 C78.3206 211.4375 77.2112 212.5312 77.2112 214.2969 C77.2112 216.0938 78.0862 217.125 79.4456 217.125 ZM79.6487 216.375 C78.6956 216.375 78.1487 215.5938 78.1487 214.2812 C78.1487 213.0469 78.8362 212.2031 79.7268 212.2031 C80.1643 212.2031 80.5862 212.3594 81.055 212.7656 L81.055 215.625 C80.5862 216.125 80.1487 216.375 79.6487 216.375 ZM83.8018 217 L84.7081 217 L84.7081 211.5625 L83.8018 211.5625 L83.8018 217 ZM84.255 210.4531 C84.6143 210.4531 84.8643 210.2031 84.8643 209.8438 C84.8643 209.4844 84.6143 209.25 84.255 209.25 C83.8956 209.25 83.6456 209.4844 83.6456 209.8438 C83.6456 210.2031 83.8956 210.4531 84.255 210.4531 ZM88.6925 217.125 C89.3331 217.125 89.9581 216.875 90.4425 216.4375 L90.0518 215.8281 C89.7081 216.1406 89.2706 216.375 88.7706 216.375 C87.7706 216.375 87.0831 215.5469 87.0831 214.2969 C87.0831 213.0469 87.8175 212.1875 88.8018 212.1875 C89.2237 212.1875 89.5675 212.3906 89.88 212.6719 L90.3487 212.0625 C89.9581 211.7344 89.4737 211.4375 88.755 211.4375 C87.3643 211.4375 86.1456 212.4844 86.1456 214.2969 C86.1456 216.0938 87.255 217.125 88.6925 217.125 ZM94.835 217.125 C95.085 217.125 95.2412 217.0938 95.3662 217.0469 L95.2412 216.3438 C95.1475 216.375 95.1006 216.375 95.0537 216.375 C94.9131 216.375 94.7881 216.2656 94.7881 215.9844 L94.7881 209.0469 L93.8818 209.0469 L93.8818 215.9219 C93.8818 216.6875 94.1631 217.125 94.835 217.125 ZM96.7318 217 L97.6381 217 L97.6381 211.5625 L96.7318 211.5625 L96.7318 217 ZM97.185 210.4531 C97.5443 210.4531 97.7943 210.2031 97.7943 209.8438 C97.7943 209.4844 97.5443 209.25 97.185 209.25 C96.8256 209.25 96.5756 209.4844 96.5756 209.8438 C96.5756 210.2031 96.8256 210.4531 97.185 210.4531 ZM99.4818 217 L100.3881 217 L100.3881 213.0625 C100.935 212.5156 101.3256 212.2344 101.8725 212.2344 C102.6068 212.2344 102.9037 212.6562 102.9037 213.6875 L102.9037 217 L103.8256 217 L103.8256 213.5625 C103.8256 212.1719 103.2943 211.4375 102.1537 211.4375 C101.4193 211.4375 100.8568 211.8438 100.3412 212.3438 L100.31 212.3438 L100.2318 211.5625 L99.4818 211.5625 L99.4818 217 ZM105.5918 217 L106.4825 217 L106.4825 215.5625 L107.5137 214.375 L109.1075 217 L110.0918 217 L108.045 213.7656 L109.8575 211.5625 L108.8262 211.5625 L106.5137 214.4375 L106.4825 214.4375 L106.4825 209.0469 L105.5918 209.0469 L105.5918 217 ZM112.3618 217.125 C113.0337 217.125 113.6431 216.7812 114.1587 216.3438 L114.1899 216.3438 L114.2681 217 L115.0181 217 L115.0181 213.6562 C115.0181 212.3125 114.4556 211.4375 113.1431 211.4375 C112.2681 211.4375 111.5024 211.8125 111.0024 212.1406 L111.3618 212.7656 C111.7837 212.4844 112.3618 212.1875 112.9868 212.1875 C113.8774 212.1875 114.1118 212.8594 114.1118 213.5625 C111.7993 213.8125 110.7681 214.4062 110.7681 215.5938 C110.7681 216.5625 111.4556 217.125 112.3618 217.125 ZM112.6274 216.4062 C112.0806 216.4062 111.6587 216.1562 111.6587 215.5312 C111.6587 214.8281 112.2837 214.375 114.1118 214.1562 L114.1118 215.6875 C113.5806 216.1562 113.1431 216.4062 112.6274 216.4062 ZM118.5799 219.5 C120.2674 219.5 121.3299 218.625 121.3299 217.625 C121.3299 216.7344 120.6893 216.3281 119.4237 216.3281 L118.3768 216.3281 C117.6424 216.3281 117.4237 216.0938 117.4237 215.7344 C117.4237 215.4375 117.5643 215.2656 117.7674 215.0938 C118.0174 215.2031 118.3143 215.2812 118.5799 215.2812 C119.6737 215.2812 120.5643 214.5469 120.5643 213.3906 C120.5643 212.9219 120.3768 212.5156 120.1268 212.2656 L121.2362 212.2656 L121.2362 211.5625 L119.3456 211.5625 C119.1424 211.5 118.8768 211.4375 118.5799 211.4375 C117.4862 211.4375 116.5331 212.1875 116.5331 213.375 C116.5331 214.0156 116.8924 214.5469 117.2518 214.8281 L117.2518 214.875 C116.9706 215.0625 116.6424 215.4375 116.6424 215.875 C116.6424 216.3125 116.8456 216.5938 117.1424 216.7656 L117.1424 216.8125 C116.6268 217.1406 116.3456 217.5781 116.3456 218.0469 C116.3456 218.9844 117.2518 219.5 118.5799 219.5 ZM118.5799 214.6562 C117.9549 214.6562 117.4237 214.1562 117.4237 213.375 C117.4237 212.5625 117.9393 212.0938 118.5799 212.0938 C119.2206 212.0938 119.7362 212.5781 119.7362 213.375 C119.7362 214.1562 119.2049 214.6562 118.5799 214.6562 ZM118.7049 218.875 C117.7362 218.875 117.1424 218.5 117.1424 217.9219 C117.1424 217.5938 117.2987 217.2812 117.6893 217 C117.9237 217.0625 118.1893 217.0938 118.3924 217.0938 L119.3299 217.0938 C120.0487 217.0938 120.4393 217.2656 120.4393 217.7656 C120.4393 218.3281 119.7518 218.875 118.7049 218.875 ZM124.5693 217.125 C125.3037 217.125 125.8974 216.875 126.3662 216.5625 L126.0381 215.9688 C125.6474 216.2344 125.2099 216.4062 124.6787 216.4062 C123.6474 216.4062 122.9443 215.6562 122.8818 214.5 L126.5381 214.5 C126.5537 214.375 126.5849 214.1875 126.5849 213.9844 C126.5849 212.4375 125.8037 211.4375 124.4131 211.4375 C123.1631 211.4375 121.9756 212.5312 121.9756 214.2969 C121.9756 216.0781 123.1318 217.125 124.5693 217.125 ZM122.8662 213.8438 C122.9756 212.7812 123.6631 212.1562 124.4287 212.1562 C125.2724 212.1562 125.7724 212.75 125.7724 213.8438 L122.8662 213.8438 ZM129.3437 217.125 C130.6249 217.125 131.3124 216.4062 131.3124 215.5156 C131.3124 214.4844 130.453 214.1719 129.6562 213.875 C129.0468 213.6406 128.4843 213.4531 128.4843 212.9375 C128.4843 212.5156 128.8124 212.1562 129.4999 212.1562 C129.9843 212.1562 130.3593 212.3438 130.7343 212.625 L131.1718 212.0469 C130.7499 211.7031 130.1562 211.4375 129.4843 211.4375 C128.3124 211.4375 127.6093 212.1094 127.6093 212.9688 C127.6093 213.8906 128.4374 214.2656 129.203 214.5469 C129.7968 214.7656 130.4374 215.0156 130.4374 215.5625 C130.4374 216.0469 130.0937 216.4219 129.3749 216.4219 C128.7187 216.4219 128.2343 216.1562 127.7655 215.7812 L127.3124 216.375 C127.828 216.8125 128.5624 217.125 129.3437 217.125 Z"
    /></g
  ></g
></svg
>
