<?xml version="1.0"?>
<!DOCTYPE svg PUBLIC '-//W3C//DTD SVG 1.0//EN'
          'http://www.w3.org/TR/2001/REC-SVG-20010904/DTD/svg10.dtd'>
<svg xmlns:xlink="http://www.w3.org/1999/xlink" style="fill-opacity:1; color-rendering:auto; color-interpolation:auto; text-rendering:auto; stroke:black; stroke-linecap:square; stroke-miterlimit:10; shape-rendering:auto; stroke-opacity:1; fill:black; stroke-dasharray:none; font-weight:normal; stroke-width:1; font-family:'Dialog'; font-style:normal; stroke-linejoin:miter; font-size:12px; stroke-dashoffset:0; image-rendering:auto;" viewBox="0 0 550 160" xmlns="http://www.w3.org/2000/svg"
><!--Generated by the Batik Graphics2D SVG Generator--><defs id="genericDefs"
  /><g
  ><defs id="defs1"
    ><clipPath clipPathUnits="userSpaceOnUse" id="clipPath1"
      ><path d="M468 67 C468 73.0751 463.0751 78 457 78 C450.9249 78 446 73.0751 446 67 C446 60.9249 450.9249 56 457 56 C463.0751 56 468 60.9249 468 67 Z"
      /></clipPath
      ><clipPath clipPathUnits="userSpaceOnUse" id="clipPath2"
      ><path style="fill-rule:evenodd;" d="M399 45 L405 45 L405 89 L399 89 L405 89 L405 45 Z"
      /></clipPath
      ><clipPath clipPathUnits="userSpaceOnUse" id="clipPath3"
      ><path d="M364 67 C364 73.0751 359.0751 78 353 78 C346.9249 78 342 73.0751 342 67 C342 60.9249 346.9249 56 353 56 C359.0751 56 364 60.9249 364 67 Z"
      /></clipPath
      ><clipPath clipPathUnits="userSpaceOnUse" id="clipPath4"
      ><path style="fill-rule:evenodd;" d="M306 89 L301 89 L301 45 L306 45 L301 45 L301 89 Z"
      /></clipPath
      ><clipPath clipPathUnits="userSpaceOnUse" id="clipPath5"
      ><path d="M260 67 C260 73.0751 255.0751 78 249 78 C242.9249 78 238 73.0751 238 67 C238 60.9249 242.9249 56 249 56 C255.0751 56 260 60.9249 260 67 Z"
      /></clipPath
      ><clipPath clipPathUnits="userSpaceOnUse" id="clipPath6"
      ><path d="M208 93 C208 99.0751 203.0751 104 197 104 C190.9249 104 186 99.0751 186 93 C186 86.9249 190.9249 82 197 82 C203.0751 82 208 86.9249 208 93 Z"
      /></clipPath
      ><clipPath clipPathUnits="userSpaceOnUse" id="clipPath7"
      ><path d="M156 93 C156 99.0751 151.0751 104 145 104 C138.9249 104 134 99.0751 134 93 C134 86.9249 138.9249 82 145 82 C151.0751 82 156 86.9249 156 93 Z"
      /></clipPath
      ><clipPath clipPathUnits="userSpaceOnUse" id="clipPath8"
      ><path d="M104 119 C104 125.0751 99.0751 130 93 130 C86.9249 130 82 125.0751 82 119 C82 112.9249 86.9249 108 93 108 C99.0751 108 104 112.9249 104 119 Z"
      /></clipPath
      ><clipPath clipPathUnits="userSpaceOnUse" id="clipPath9"
      ><path d="M52 119 C52 125.0751 47.0751 130 41 130 C34.9249 130 30 125.0751 30 119 C30 112.9249 34.9249 108 41 108 C47.0751 108 52 112.9249 52 119 Z"
      /></clipPath
      ><clipPath clipPathUnits="userSpaceOnUse" id="clipPath10"
      ><path d="M104 67 C104 73.0751 99.0751 78 93 78 C86.9249 78 82 73.0751 82 67 C82 60.9249 86.9249 56 93 56 C99.0751 56 104 60.9249 104 67 Z"
      /></clipPath
      ><clipPath clipPathUnits="userSpaceOnUse" id="clipPath11"
      ><path d="M208 41 C208 47.0751 203.0751 52 197 52 C190.9249 52 186 47.0751 186 41 C186 34.9249 190.9249 30 197 30 C203.0751 30 208 34.9249 208 41 Z"
      /></clipPath
    ></defs
    ><g style="fill:white; text-rendering:optimizeSpeed; stroke:white;"
    ><rect x="0" width="550" height="160" y="0" style="stroke:none;"
      /><polygon style="fill:none; stroke:black;" points=" 509 67 457 67"
      /><path d="M509 56 C503.5 61.5 514.5 72.5 509 78" style="fill:none; stroke:black;"
      /><polygon style="fill:none; stroke:black;" points=" 457 67 405 67"
      /><circle style="clip-path:url(#clipPath1); stroke:none;" r="11" cx="457" cy="67"
      /><rect x="446" y="56" width="22" style="clip-path:url(#clipPath1); fill:rgb(0,166,81); stroke:none;" height="22"
      /><rect x="446" y="56" width="22" style="clip-path:url(#clipPath1); fill:none; stroke:black;" height="22"
      /><circle style="fill:none; stroke:black;" r="11" cx="457" cy="67"
      /><polygon style="fill:none; stroke:black;" points=" 405 67 353 67"
      /><polygon style="clip-path:url(#clipPath2); stroke:none;" points=" 399 45 405 45 405 89 399 89 405 89 405 45"
      /><rect x="394" y="33" width="22" style="clip-path:url(#clipPath2); fill:black; stroke:none;" height="68"
      /><rect x="394" y="33" width="22" style="clip-path:url(#clipPath2); fill:none; stroke:black;" height="68"
      /><polygon style="fill:none; stroke:black;" points=" 399 45 405 45 405 89 399 89 405 89 405 45"
      /><polygon style="fill:none; stroke:black;" points=" 353 67 301 67"
      /><circle style="clip-path:url(#clipPath3); stroke:none;" r="11" cx="353" cy="67"
      /><rect x="342" y="56" width="22" style="clip-path:url(#clipPath3); fill:rgb(0,166,81); stroke:none;" height="22"
      /><rect x="342" y="56" width="22" style="clip-path:url(#clipPath3); fill:none; stroke:black;" height="22"
      /><circle style="fill:none; stroke:black;" r="11" cx="353" cy="67"
      /><polygon style="fill:none; stroke:black;" points=" 301 67 249 67"
      /><polygon style="clip-path:url(#clipPath4); stroke:none;" points=" 306 89 301 89 301 45 306 45 301 45 301 89"
      /><rect x="290" y="33" width="22" style="clip-path:url(#clipPath4); fill:black; stroke:none;" height="68"
      /><rect x="290" y="33" width="22" style="clip-path:url(#clipPath4); fill:none; stroke:black;" height="68"
      /><polygon style="fill:none; stroke:black;" points=" 306 89 301 89 301 45 306 45 301 45 301 89"
      /><path d="M303.5469 98.9531 C303.5156 98.2969 303.5 97.3906 303.5 96.7656 L303.5 95.5156 C303.5 93.8281 302.9531 93.1562 301.8594 93.1562 C301.0625 93.1562 300.1562 93.625 299.4531 94.4062 L299.3594 93.2969 L299.2031 93.1719 L297.4688 93.8125 L297.4688 94.2031 L298.5312 94.2812 C298.5625 94.8438 298.5781 95.3438 298.5781 96.1094 L298.5781 96.7656 C298.5781 97.375 298.5781 98.2969 298.5469 98.9688 L297.5469 99.1094 L297.5469 99.5 L300.4688 99.5 L300.4688 99.1094 L299.5156 98.9531 C299.5156 98.2969 299.5 97.375 299.5 96.7656 L299.5 94.875 C300.2656 94.1562 300.875 93.9062 301.4688 93.9062 C302.2344 93.9062 302.5938 94.3125 302.5938 95.5625 L302.5938 96.7656 C302.5938 97.3906 302.5781 98.3125 302.5625 98.9688 L301.5469 99.1094 L301.5469 99.5 L304.4844 99.5 L304.4844 99.1094 L303.5469 98.9531 Z" style="fill:black; stroke:none;"
      /><polygon style="fill:none; stroke:black;" points=" 249 67 197 93"
      /><polygon style="fill:none; stroke:black;" points=" 249 67 197 41"
      /><circle style="clip-path:url(#clipPath5); stroke:none;" r="11" cx="249" cy="67"
      /><rect x="238" y="56" width="22" style="clip-path:url(#clipPath5); fill:rgb(0,166,81); stroke:none;" height="22"
      /><rect x="238" y="56" width="22" style="clip-path:url(#clipPath5); fill:none; stroke:black;" height="22"
      /><circle style="fill:none; stroke:black;" r="11" cx="249" cy="67"
      /><polygon style="fill:none; stroke:black;" points=" 197 93 145 93"
      /><circle style="clip-path:url(#clipPath6); stroke:none;" r="11" cx="197" cy="93"
      /><rect x="186" y="82" width="22" style="clip-path:url(#clipPath6); fill:rgb(0,166,81); stroke:none;" height="22"
      /><rect x="186" y="82" width="22" style="clip-path:url(#clipPath6); fill:none; stroke:black;" height="22"
      /><circle style="fill:none; stroke:black;" r="11" cx="197" cy="93"
      /><polygon style="fill:none; stroke:black;" points=" 145 93 93 119"
      /><polygon style="fill:none; stroke:black;" points=" 145 93 93 67"
      /><circle style="clip-path:url(#clipPath7); stroke:none;" r="11" cx="145" cy="93"
      /><rect x="134" y="82" width="22" style="clip-path:url(#clipPath7); fill:rgb(0,166,81); stroke:none;" height="22"
      /><rect x="134" y="82" width="22" style="clip-path:url(#clipPath7); fill:none; stroke:black;" height="22"
      /><circle style="fill:none; stroke:black;" r="11" cx="145" cy="93"
      /><polygon style="fill:none; stroke:black;" points=" 93 119 41 119"
      /><circle style="clip-path:url(#clipPath8); stroke:none;" r="11" cx="93" cy="119"
      /><rect x="82" y="108" width="22" style="clip-path:url(#clipPath8); fill:rgb(0,166,81); stroke:none;" height="22"
      /><rect x="82" y="108" width="22" style="clip-path:url(#clipPath8); fill:none; stroke:black;" height="22"
      /><circle style="fill:none; stroke:black;" r="11" cx="93" cy="119"
      /><circle style="clip-path:url(#clipPath9); stroke:none;" r="11" cx="41" cy="119"
      /><rect x="30" y="108" width="22" style="clip-path:url(#clipPath9); fill:rgb(0,166,81); stroke:none;" height="22"
      /><rect x="30" y="108" width="22" style="clip-path:url(#clipPath9); fill:none; stroke:black;" height="22"
      /><circle style="fill:none; stroke:black;" r="11" cx="41" cy="119"
      /><rect x="70" y="122" width="7" style="stroke:none;" height="9"
    /></g
    ><g style="font-family:'Serif'; text-rendering:optimizeSpeed; "
    ><path style="stroke:none;" d="M71 127.5156 L73.9531 123.2656 L73.9531 127.5156 L71 127.5156 ZM76.2812 127.5156 L74.8594 127.5156 L74.8594 122.125 L74.2344 122.125 L70.3438 127.6406 L70.3438 128.1875 L73.9531 128.1875 L73.9531 131 L74.8594 131 L74.8594 128.1875 L76.2812 128.1875 L76.2812 127.5156 Z"
      /><rect x="57" y="120" width="6" style="fill:white; stroke:none;" height="13"
      /><path style="stroke:none;" d="M59.0938 126.2031 C59.0938 124.6562 59.75 123.8125 60.7969 123.8125 C61.7188 123.8125 62.2656 124.4531 62.2656 125.5156 C62.2656 126.7188 61.5 127.4375 60.1875 127.7031 L60.2969 128.3125 C62.2188 128.2344 62.9375 129.2188 62.9375 130.4375 C62.9375 131.625 62.2344 132.4219 60.9531 132.4219 C60.25 132.4219 59.6562 132.1562 59.0938 131.7188 L59.0938 126.2031 ZM58.2031 132.9062 L58.1094 135.375 L58.2656 135.4844 L59.1562 135.2656 L59.0156 132.0938 C59.5469 132.8438 60.3594 133.1719 61.1719 133.1719 C62.5625 133.1719 63.8594 132.2188 63.8594 130.4844 C63.8594 128.9531 62.875 128.1094 61.125 128 C62.5625 127.6094 63.1875 126.4531 63.1875 125.4844 C63.1875 124.0938 62.1562 123.3125 60.9062 123.3125 C59.2969 123.3125 58.2188 124.5469 58.2188 126.5156 L58.2031 132.9062 Z"
      /><circle style="fill:white; clip-path:url(#clipPath10); stroke:none;" r="11" cx="93" cy="67"
      /><rect x="82" y="56" width="22" style="clip-path:url(#clipPath10); fill:rgb(255,212,0); stroke:none;" height="22"
      /><rect x="82" y="56" width="22" style="fill:none; clip-path:url(#clipPath10);" height="22"
      /><circle r="11" style="fill:none;" cx="93" cy="67"
      /><rect x="126" y="104" width="7" style="fill:white; stroke:none;" height="9"
      /><path style="stroke:none;" d="M127 109.5156 L129.9531 105.2656 L129.9531 109.5156 L127 109.5156 ZM132.2812 109.5156 L130.8594 109.5156 L130.8594 104.125 L130.2344 104.125 L126.3438 109.6406 L126.3438 110.1875 L129.9531 110.1875 L129.9531 113 L130.8594 113 L130.8594 110.1875 L132.2812 110.1875 L132.2812 109.5156 Z"
      /><rect x="111" y="110" width="6" style="fill:white; stroke:none;" height="13"
      /><path style="stroke:none;" d="M113.0938 116.2031 C113.0938 114.6562 113.75 113.8125 114.7969 113.8125 C115.7188 113.8125 116.2656 114.4531 116.2656 115.5156 C116.2656 116.7188 115.5 117.4375 114.1875 117.7031 L114.2969 118.3125 C116.2188 118.2344 116.9375 119.2188 116.9375 120.4375 C116.9375 121.625 116.2344 122.4219 114.9531 122.4219 C114.25 122.4219 113.6562 122.1562 113.0938 121.7188 L113.0938 116.2031 ZM112.2031 122.9062 L112.1094 125.375 L112.2656 125.4844 L113.1562 125.2656 L113.0156 122.0938 C113.5469 122.8438 114.3594 123.1719 115.1719 123.1719 C116.5625 123.1719 117.8594 122.2188 117.8594 120.4844 C117.8594 118.9531 116.875 118.1094 115.125 118 C116.5625 117.6094 117.1875 116.4531 117.1875 115.4844 C117.1875 114.0938 116.1562 113.3125 114.9062 113.3125 C113.2969 113.3125 112.2188 114.5469 112.2188 116.5156 L112.2031 122.9062 Z"
      /><rect x="120" y="86" width="6" style="fill:white; stroke:none;" height="10"
      /><path style="stroke:none;" d="M123.3438 95.6875 C122.2031 95.6875 121.5312 94.5 121.5312 92.2969 C121.5312 92.2188 121.5312 92.125 121.5312 92.0469 C122.0938 91.5 122.7188 91.3125 123.3438 91.3125 C124.3125 91.3125 124.9531 91.9844 124.9531 93.4531 C124.9531 94.9375 124.3125 95.6875 123.3438 95.6875 ZM125.5312 87.0781 C122.3438 87.4531 120.5625 89.7656 120.5625 92.4531 C120.5625 94.7812 121.6094 96.1719 123.3125 96.1719 C124.8438 96.1719 125.9219 95.1094 125.9219 93.2812 C125.9219 91.6875 124.9688 90.6562 123.5625 90.6562 C122.8281 90.6562 122.1406 90.9844 121.5781 91.5781 C121.7969 89.4062 123.0781 87.9688 125.5938 87.3906 L125.5312 87.0781 Z"
      /><rect x="103" y="79" width="8" style="fill:white; stroke:none;" height="8"
      /><path style="stroke:none;" d="M107.9844 84.7031 C107.9375 85.8906 107.1562 86.6562 106.3125 86.6562 C105.2656 86.6562 104.5 85.6875 104.5 83.7188 C104.5 82.2812 105.1562 81.1562 106.3438 81.1562 C107.1406 81.1562 107.7812 81.6875 108.0938 82.6406 L107.9844 84.7031 ZM109.9062 86.2812 C109.7344 86.375 109.5469 86.4219 109.3438 86.4219 C108.9531 86.4219 108.75 86.2188 108.75 85.4219 C108.75 84.4844 108.9688 82.5312 109.1875 80.8281 L109.0312 80.7188 L108.2344 80.9219 L108.1406 81.7969 C107.7812 81.0312 107.1562 80.6562 106.3906 80.6562 C105.0469 80.6562 103.5625 81.8438 103.5625 83.9531 C103.5625 86.0938 104.7188 87.1719 106.1406 87.1719 C107.0156 87.1719 107.6875 86.8125 108.0938 85.9844 C108.2031 86.8594 108.5156 87.1719 109.0156 87.1719 C109.4688 87.1719 109.7969 86.9062 110.0156 86.5625 L109.9062 86.2812 Z"
      /><rect x="174" y="96" width="7" style="fill:white; stroke:none;" height="9"
      /><path style="stroke:none;" d="M175 101.5156 L177.9531 97.2656 L177.9531 101.5156 L175 101.5156 ZM180.2812 101.5156 L178.8594 101.5156 L178.8594 96.125 L178.2344 96.125 L174.3438 101.6406 L174.3438 102.1875 L177.9531 102.1875 L177.9531 105 L178.8594 105 L178.8594 102.1875 L180.2812 102.1875 L180.2812 101.5156 Z"
      /><rect x="161" y="94" width="6" style="fill:white; stroke:none;" height="13"
      /><path style="stroke:none;" d="M163.0938 100.2031 C163.0938 98.6562 163.75 97.8125 164.7969 97.8125 C165.7188 97.8125 166.2656 98.4531 166.2656 99.5156 C166.2656 100.7188 165.5 101.4375 164.1875 101.7031 L164.2969 102.3125 C166.2188 102.2344 166.9375 103.2188 166.9375 104.4375 C166.9375 105.625 166.2344 106.4219 164.9531 106.4219 C164.25 106.4219 163.6562 106.1562 163.0938 105.7188 L163.0938 100.2031 ZM162.2031 106.9062 L162.1094 109.375 L162.2656 109.4844 L163.1562 109.2656 L163.0156 106.0938 C163.5469 106.8438 164.3594 107.1719 165.1719 107.1719 C166.5625 107.1719 167.8594 106.2188 167.8594 104.4844 C167.8594 102.9531 166.875 102.1094 165.125 102 C166.5625 101.6094 167.1875 100.4531 167.1875 99.4844 C167.1875 98.0938 166.1562 97.3125 164.9062 97.3125 C163.2969 97.3125 162.2188 98.5469 162.2188 100.5156 L162.2031 106.9062 Z"
      /><circle style="fill:white; clip-path:url(#clipPath11); stroke:none;" r="11" cx="197" cy="41"
      /><rect x="186" y="30" width="22" style="clip-path:url(#clipPath11); fill:rgb(255,212,0); stroke:none;" height="22"
      /><rect x="186" y="30" width="22" style="fill:none; clip-path:url(#clipPath11);" height="22"
      /><circle r="11" style="fill:none;" cx="197" cy="41"
      /><rect x="230" y="78" width="7" style="fill:white; stroke:none;" height="9"
      /><path style="stroke:none;" d="M231 83.5156 L233.9531 79.2656 L233.9531 83.5156 L231 83.5156 ZM236.2812 83.5156 L234.8594 83.5156 L234.8594 78.125 L234.2344 78.125 L230.3438 83.6406 L230.3438 84.1875 L233.9531 84.1875 L233.9531 87 L234.8594 87 L234.8594 84.1875 L236.2812 84.1875 L236.2812 83.5156 Z"
      /><rect x="215" y="84" width="6" style="fill:white; stroke:none;" height="13"
      /><path style="stroke:none;" d="M217.0938 90.2031 C217.0938 88.6562 217.75 87.8125 218.7969 87.8125 C219.7188 87.8125 220.2656 88.4531 220.2656 89.5156 C220.2656 90.7188 219.5 91.4375 218.1875 91.7031 L218.2969 92.3125 C220.2188 92.2344 220.9375 93.2188 220.9375 94.4375 C220.9375 95.625 220.2344 96.4219 218.9531 96.4219 C218.25 96.4219 217.6562 96.1562 217.0938 95.7188 L217.0938 90.2031 ZM216.2031 96.9062 L216.1094 99.375 L216.2656 99.4844 L217.1562 99.2656 L217.0156 96.0938 C217.5469 96.8438 218.3594 97.1719 219.1719 97.1719 C220.5625 97.1719 221.8594 96.2188 221.8594 94.4844 C221.8594 92.9531 220.875 92.1094 219.125 92 C220.5625 91.6094 221.1875 90.4531 221.1875 89.4844 C221.1875 88.0938 220.1562 87.3125 218.9062 87.3125 C217.2969 87.3125 216.2188 88.5469 216.2188 90.5156 L216.2031 96.9062 Z"
      /><rect x="224" y="60" width="6" style="fill:white; stroke:none;" height="10"
      /><path style="stroke:none;" d="M227.3438 69.6875 C226.2031 69.6875 225.5312 68.5 225.5312 66.2969 C225.5312 66.2188 225.5312 66.125 225.5312 66.0469 C226.0938 65.5 226.7188 65.3125 227.3438 65.3125 C228.3125 65.3125 228.9531 65.9844 228.9531 67.4531 C228.9531 68.9375 228.3125 69.6875 227.3438 69.6875 ZM229.5312 61.0781 C226.3438 61.4531 224.5625 63.7656 224.5625 66.4531 C224.5625 68.7812 225.6094 70.1719 227.3125 70.1719 C228.8438 70.1719 229.9219 69.1094 229.9219 67.2812 C229.9219 65.6875 228.9688 64.6562 227.5625 64.6562 C226.8281 64.6562 226.1406 64.9844 225.5781 65.5781 C225.7969 63.4062 227.0781 61.9688 229.5938 61.3906 L229.5312 61.0781 Z"
      /><rect x="207" y="53" width="8" style="fill:white; stroke:none;" height="8"
      /><path style="stroke:none;" d="M211.9844 58.7031 C211.9375 59.8906 211.1562 60.6562 210.3125 60.6562 C209.2656 60.6562 208.5 59.6875 208.5 57.7188 C208.5 56.2812 209.1562 55.1562 210.3438 55.1562 C211.1406 55.1562 211.7812 55.6875 212.0938 56.6406 L211.9844 58.7031 ZM213.9062 60.2812 C213.7344 60.375 213.5469 60.4219 213.3438 60.4219 C212.9531 60.4219 212.75 60.2188 212.75 59.4219 C212.75 58.4844 212.9688 56.5312 213.1875 54.8281 L213.0312 54.7188 L212.2344 54.9219 L212.1406 55.7969 C211.7812 55.0312 211.1562 54.6562 210.3906 54.6562 C209.0469 54.6562 207.5625 55.8438 207.5625 57.9531 C207.5625 60.0938 208.7188 61.1719 210.1406 61.1719 C211.0156 61.1719 211.6875 60.8125 212.0938 59.9844 C212.2031 60.8594 212.5156 61.1719 213.0156 61.1719 C213.4688 61.1719 213.7969 60.9062 214.0156 60.5625 L213.9062 60.2812 Z"
      /><rect x="278" y="70" width="7" style="fill:white; stroke:none;" height="9"
      /><path style="stroke:none;" d="M279 75.5156 L281.9531 71.2656 L281.9531 75.5156 L279 75.5156 ZM284.2812 75.5156 L282.8594 75.5156 L282.8594 70.125 L282.2344 70.125 L278.3438 75.6406 L278.3438 76.1875 L281.9531 76.1875 L281.9531 79 L282.8594 79 L282.8594 76.1875 L284.2812 76.1875 L284.2812 75.5156 Z"
      /><rect x="265" y="68" width="6" style="fill:white; stroke:none;" height="13"
      /><path style="stroke:none;" d="M267.0938 74.2031 C267.0938 72.6562 267.75 71.8125 268.7969 71.8125 C269.7188 71.8125 270.2656 72.4531 270.2656 73.5156 C270.2656 74.7188 269.5 75.4375 268.1875 75.7031 L268.2969 76.3125 C270.2188 76.2344 270.9375 77.2188 270.9375 78.4375 C270.9375 79.625 270.2344 80.4219 268.9531 80.4219 C268.25 80.4219 267.6562 80.1562 267.0938 79.7188 L267.0938 74.2031 ZM266.2031 80.9062 L266.1094 83.375 L266.2656 83.4844 L267.1562 83.2656 L267.0156 80.0938 C267.5469 80.8438 268.3594 81.1719 269.1719 81.1719 C270.5625 81.1719 271.8594 80.2188 271.8594 78.4844 C271.8594 76.9531 270.875 76.1094 269.125 76 C270.5625 75.6094 271.1875 74.4531 271.1875 73.4844 C271.1875 72.0938 270.1562 71.3125 268.9062 71.3125 C267.2969 71.3125 266.2188 72.5469 266.2188 74.5156 L266.2031 80.9062 Z"
      /><rect x="330" y="70" width="7" style="fill:white; stroke:none;" height="9"
      /><path style="stroke:none;" d="M331 75.5156 L333.9531 71.2656 L333.9531 75.5156 L331 75.5156 ZM336.2812 75.5156 L334.8594 75.5156 L334.8594 70.125 L334.2344 70.125 L330.3438 75.6406 L330.3438 76.1875 L333.9531 76.1875 L333.9531 79 L334.8594 79 L334.8594 76.1875 L336.2812 76.1875 L336.2812 75.5156 Z"
      /><rect x="369" y="68" width="6" style="fill:white; stroke:none;" height="13"
      /><path style="stroke:none;" d="M371.0938 74.2031 C371.0938 72.6562 371.75 71.8125 372.7969 71.8125 C373.7188 71.8125 374.2656 72.4531 374.2656 73.5156 C374.2656 74.7188 373.5 75.4375 372.1875 75.7031 L372.2969 76.3125 C374.2188 76.2344 374.9375 77.2188 374.9375 78.4375 C374.9375 79.625 374.2344 80.4219 372.9531 80.4219 C372.25 80.4219 371.6562 80.1562 371.0938 79.7188 L371.0938 74.2031 ZM370.2031 80.9062 L370.1094 83.375 L370.2656 83.4844 L371.1562 83.2656 L371.0156 80.0938 C371.5469 80.8438 372.3594 81.1719 373.1719 81.1719 C374.5625 81.1719 375.8594 80.2188 375.8594 78.4844 C375.8594 76.9531 374.875 76.1094 373.125 76 C374.5625 75.6094 375.1875 74.4531 375.1875 73.4844 C375.1875 72.0938 374.1562 71.3125 372.9062 71.3125 C371.2969 71.3125 370.2188 72.5469 370.2188 74.5156 L370.2031 80.9062 Z"
      /><rect x="434" y="70" width="7" style="fill:white; stroke:none;" height="9"
      /><path style="stroke:none;" d="M435 75.5156 L437.9531 71.2656 L437.9531 75.5156 L435 75.5156 ZM440.2812 75.5156 L438.8594 75.5156 L438.8594 70.125 L438.2344 70.125 L434.3438 75.6406 L434.3438 76.1875 L437.9531 76.1875 L437.9531 79 L438.8594 79 L438.8594 76.1875 L440.2812 76.1875 L440.2812 75.5156 Z"
      /><rect x="473" y="70" width="5" style="fill:white; stroke:none;" height="10"
      /><path style="stroke:none;" d="M474.8906 78.6875 C474.4844 78.6875 474.1562 79.0469 474.1562 79.4219 C474.1562 79.8125 474.4844 80.1562 474.8906 80.1562 C475.2969 80.1562 475.6406 79.8125 475.6406 79.4219 C475.6406 79.0469 475.2969 78.6875 474.8906 78.6875 ZM476.4688 72.5781 C476.7188 72.8906 476.875 73.2656 476.8906 73.6562 C476.8906 74.1875 476.625 74.5 476.0312 74.7656 L475.4062 75.0156 C474.6406 75.3125 474.3906 75.5469 474.3906 75.9375 C474.3906 76.1094 474.4531 76.3438 474.5781 76.8125 L474.7344 77.3438 L475.1094 77.3438 L475.0938 76.5312 C475.0938 76.0938 475.2031 75.9688 475.7812 75.7344 L476.2031 75.5625 C477.0312 75.2188 477.4531 74.6875 477.4531 73.8438 C477.4531 72.1562 475.6562 71.1875 474.5 71.0312 C474.1094 71.125 473.9062 71.2969 473.9062 71.6406 C473.9062 71.9375 474.0625 72.1562 474.7188 72.2656 L476.4688 72.5781 Z"
    /></g
  ></g
></svg
>
