<?xml version="1.0"?>
<!DOCTYPE svg PUBLIC '-//W3C//DTD SVG 1.0//EN'
          'http://www.w3.org/TR/2001/REC-SVG-20010904/DTD/svg10.dtd'>
<svg xmlns:xlink="http://www.w3.org/1999/xlink" style="fill-opacity:1; color-rendering:auto; color-interpolation:auto; text-rendering:auto; stroke:black; stroke-linecap:square; stroke-miterlimit:10; shape-rendering:auto; stroke-opacity:1; fill:black; stroke-dasharray:none; font-weight:normal; stroke-width:1; font-family:'Dialog'; font-style:normal; stroke-linejoin:miter; font-size:12px; stroke-dashoffset:0; image-rendering:auto;" viewBox="0 0 134 134" xmlns="http://www.w3.org/2000/svg"
><!--Generated by the Batik Graphics2D SVG Generator--><defs id="genericDefs"
  /><g
  ><defs id="defs1"
    ><clipPath clipPathUnits="userSpaceOnUse" id="clipPath1"
      ><path style="fill-rule:evenodd;" d="M41 82 L52 93 L41 104 L30 93 Z"
      /></clipPath
      ><clipPath clipPathUnits="userSpaceOnUse" id="clipPath2"
      ><path style="fill-rule:evenodd;" d="M41 30 L43 37 L51 37 L44 42 L47 49 L41 45 L34 49 L37 42 L30 37 L38 37 L41 30 Z"
      /></clipPath
    ></defs
    ><g style="fill:white; text-rendering:optimizeSpeed; stroke:white;"
    ><rect x="0" width="134" height="134" y="0" style="stroke:none;"
      /><polygon style="fill:none; stroke:black;" points=" 93 93 41 93"
      /><path d="M93 82 C87.5 87.5 98.5 98.5 93 104" style="fill:none; stroke:black;"
      /><polygon style="fill:none; stroke:black;" points=" 41 93 41 41"
      /><polygon style="clip-path:url(#clipPath1); stroke:none;" points=" 41 82 52 93 41 104 30 93"
      /><rect x="30" y="82" width="22" style="clip-path:url(#clipPath1); fill:rgb(0,144,188); stroke:none;" height="11"
      /><rect x="30" y="82" width="22" style="clip-path:url(#clipPath1); fill:none; stroke:black;" height="11"
      /><polygon style="fill:none; stroke:black;" points=" 41 82 52 93 41 104 30 93"
      /><polygon style="clip-path:url(#clipPath2); stroke:none;" points=" 41 30 43 37 51 37 44 42 47 49 41 45 34 49 37 42 30 37 38 37 41 30"
      /><rect x="30" y="30" width="22" style="clip-path:url(#clipPath2); fill:rgb(244,121,32); stroke:none;" height="22"
      /><rect x="30" y="30" width="22" style="clip-path:url(#clipPath2); fill:none; stroke:black;" height="22"
      /><polygon style="fill:none; stroke:black;" points=" 41 30 43 37 51 37 44 42 47 49 41 45 34 49 37 42 30 37 38 37 41 30"
      /><rect x="29" y="69" width="7" style="stroke:none;" height="9"
    /></g
    ><g style="font-family:'Serif'; text-rendering:optimizeSpeed; "
    ><path style="stroke:none;" d="M30 74.5156 L32.9531 70.2656 L32.9531 74.5156 L30 74.5156 ZM35.2812 74.5156 L33.8594 74.5156 L33.8594 69.125 L33.2344 69.125 L29.3438 74.6406 L29.3438 75.1875 L32.9531 75.1875 L32.9531 78 L33.8594 78 L33.8594 75.1875 L35.2812 75.1875 L35.2812 74.5156 Z"
      /><rect x="30" y="53" width="6" style="fill:white; stroke:none;" height="13"
      /><path style="stroke:none;" d="M32.0938 59.2031 C32.0938 57.6562 32.75 56.8125 33.7969 56.8125 C34.7188 56.8125 35.2656 57.4531 35.2656 58.5156 C35.2656 59.7188 34.5 60.4375 33.1875 60.7031 L33.2969 61.3125 C35.2188 61.2344 35.9375 62.2188 35.9375 63.4375 C35.9375 64.625 35.2344 65.4219 33.9531 65.4219 C33.25 65.4219 32.6562 65.1562 32.0938 64.7188 L32.0938 59.2031 ZM31.2031 65.9062 L31.1094 68.375 L31.2656 68.4844 L32.1562 68.2656 L32.0156 65.0938 C32.5469 65.8438 33.3594 66.1719 34.1719 66.1719 C35.5625 66.1719 36.8594 65.2188 36.8594 63.4844 C36.8594 61.9531 35.875 61.1094 34.125 61 C35.5625 60.6094 36.1875 59.4531 36.1875 58.4844 C36.1875 57.0938 35.1562 56.3125 33.9062 56.3125 C32.2969 56.3125 31.2188 57.5469 31.2188 59.5156 L31.2031 65.9062 Z"
      /><rect x="57" y="96" width="5" style="fill:white; stroke:none;" height="10"
      /><path style="stroke:none;" d="M58.8906 104.6875 C58.4844 104.6875 58.1562 105.0469 58.1562 105.4219 C58.1562 105.8125 58.4844 106.1562 58.8906 106.1562 C59.2969 106.1562 59.6406 105.8125 59.6406 105.4219 C59.6406 105.0469 59.2969 104.6875 58.8906 104.6875 ZM60.4688 98.5781 C60.7188 98.8906 60.875 99.2656 60.8906 99.6562 C60.8906 100.1875 60.625 100.5 60.0312 100.7656 L59.4062 101.0156 C58.6406 101.3125 58.3906 101.5469 58.3906 101.9375 C58.3906 102.1094 58.4531 102.3438 58.5781 102.8125 L58.7344 103.3438 L59.1094 103.3438 L59.0938 102.5312 C59.0938 102.0938 59.2031 101.9688 59.7812 101.7344 L60.2031 101.5625 C61.0312 101.2188 61.4531 100.6875 61.4531 99.8438 C61.4531 98.1562 59.6562 97.1875 58.5 97.0312 C58.1094 97.125 57.9062 97.2969 57.9062 97.6406 C57.9062 97.9375 58.0625 98.1562 58.7188 98.2656 L60.4688 98.5781 Z"
    /></g
  ></g
></svg
>
