<?xml version="1.0"?>
<!DOCTYPE svg PUBLIC '-//W3C//DTD SVG 1.0//EN'
          'http://www.w3.org/TR/2001/REC-SVG-20010904/DTD/svg10.dtd'>
<svg xmlns:xlink="http://www.w3.org/1999/xlink" style="fill-opacity:1; color-rendering:auto; color-interpolation:auto; text-rendering:auto; stroke:black; stroke-linecap:square; stroke-miterlimit:10; shape-rendering:auto; stroke-opacity:1; fill:black; stroke-dasharray:none; font-weight:normal; stroke-width:1; font-family:'Dialog'; font-style:normal; stroke-linejoin:miter; font-size:12px; stroke-dashoffset:0; image-rendering:auto;" viewBox="0 0 213 128" xmlns="http://www.w3.org/2000/svg"
><!--Generated by the Batik Graphics2D SVG Generator--><defs id="genericDefs"
  /><g
  ><defs id="defs1"
    ><clipPath clipPathUnits="userSpaceOnUse" id="clipPath1"
      ><path d="M109 53 L131 53 L131 75 L109 75 L109 53 Z"
      /></clipPath
      ><clipPath clipPathUnits="userSpaceOnUse" id="clipPath2"
      ><path d="M43 53 L65 53 L65 75 L43 75 L43 53 Z"
      /></clipPath
    ></defs
    ><g style="fill:white; text-rendering:optimizeSpeed; stroke:white;"
    ><rect x="0" width="213" height="128" y="0" style="stroke:none;"
      /><polygon style="fill:none; stroke:black;" points=" 172 64 120 64"
      /><path d="M172 53 C166.5 58.5 177.5 69.5 172 75" style="fill:none; stroke:black;"
      /><polygon style="fill:none; stroke:black;" points=" 120 64 54 64"
      /><rect x="109" y="53" width="22" style="clip-path:url(#clipPath1); stroke:none;" height="22"
      /><rect x="109" y="53" width="22" style="clip-path:url(#clipPath1); fill:rgb(161,122,77); stroke:none;" height="22"
      /><rect x="109" y="53" width="22" style="clip-path:url(#clipPath1); fill:none; stroke:black;" height="22"
      /><rect x="109" y="53" width="22" style="fill:none; stroke:black;" height="22"
    /></g
    ><g style="text-rendering:optimizeSpeed; font-size:10px; font-family:'SansSerif';"
    ><path style="stroke:none;" d="M118 67 L119.875 67 C122.0938 67 123.2969 65.625 123.2969 63.3125 C123.2969 60.9844 122.0938 59.6562 119.8438 59.6562 L118 59.6562 L118 67 ZM118.9375 66.2344 L118.9375 60.4219 L119.7656 60.4219 C121.4844 60.4219 122.3438 61.4531 122.3438 63.3125 C122.3438 65.1562 121.4844 66.2344 119.7656 66.2344 L118.9375 66.2344 Z"
    /></g
    ><g style="fill:white; text-rendering:optimizeSpeed; stroke:white;"
    ><rect x="43" y="53" width="22" style="clip-path:url(#clipPath2); stroke:none;" height="22"
      /><rect x="43" y="53" width="22" style="clip-path:url(#clipPath2); fill:rgb(143,204,233); stroke:none;" height="22"
      /><rect x="43" y="53" width="22" style="clip-path:url(#clipPath2); fill:none; stroke:black;" height="22"
      /><rect x="43" y="53" width="22" style="fill:none; stroke:black;" height="22"
      /><rect x="42" width="22" height="10" y="81" style="stroke:none;"
    /></g
    ><g style="text-rendering:optimizeSpeed; font-size:14px; font-family:'SansSerif';"
    ><path style="stroke:none;" d="M45.7031 92.1875 C47.5156 92.1875 48.9844 91.0938 48.9844 89.25 C48.9844 87.8594 48.0156 86.9375 46.8125 86.6562 L46.8125 86.5938 C47.8906 86.1875 48.6406 85.3594 48.6406 84.125 C48.6406 82.5 47.375 81.5469 45.6562 81.5469 C44.4688 81.5469 43.5469 82.0625 42.7812 82.7812 L43.4688 83.5938 C44.0469 83 44.7656 82.5938 45.5938 82.5938 C46.6562 82.5938 47.3281 83.2344 47.3281 84.2188 C47.3281 85.3281 46.6094 86.1719 44.4844 86.1719 L44.4844 87.1562 C46.8594 87.1562 47.6875 87.9844 47.6875 89.2031 C47.6875 90.3906 46.8125 91.125 45.5938 91.125 C44.4375 91.125 43.6562 90.5781 43.0469 89.9375 L42.4062 90.7812 C43.0781 91.5156 44.0938 92.1875 45.7031 92.1875 ZM52.9418 86.2656 C53.3168 85.0938 53.645 83.9844 53.9731 82.7812 L54.02 82.7812 C54.3637 83.9844 54.6762 85.0938 55.0668 86.2656 L55.5512 87.8281 L52.4418 87.8281 L52.9418 86.2656 ZM49.8168 92 L51.1293 92 L52.1293 88.8594 L55.8793 88.8594 L56.8481 92 L58.2231 92 L54.7387 81.7188 L53.3012 81.7188 L49.8168 92 ZM62.5492 92.1875 C63.4554 92.1875 64.3304 91.8281 65.0179 91.2188 L64.4554 90.3594 C63.9867 90.7969 63.3617 91.125 62.6586 91.125 C61.2679 91.125 60.3148 89.9531 60.3148 88.2031 C60.3148 86.4531 61.3148 85.2656 62.7054 85.2656 C63.3148 85.2656 63.7679 85.5469 64.2211 85.9375 L64.8773 85.0938 C64.3304 84.625 63.6429 84.2031 62.6429 84.2031 C60.7054 84.2031 58.9867 85.6719 58.9867 88.2031 C58.9867 90.7188 60.5336 92.1875 62.5492 92.1875 Z"
      /><rect x="30" y="35" width="22" style="fill:white; stroke:none;" height="10"
      /><path style="stroke:none;" d="M31.6094 42.1562 L33.9531 38.6562 C34.2344 38.1406 34.5156 37.6406 34.7812 37.1406 L34.8281 37.1406 C34.7969 37.6719 34.7656 38.5 34.7656 39 L34.7656 42.1562 L31.6094 42.1562 ZM34.7656 46 L35.9688 46 L35.9688 43.1719 L37.3281 43.1719 L37.3281 42.1562 L35.9688 42.1562 L35.9688 35.7188 L34.5469 35.7188 L30.2812 42.3281 L30.2812 43.1719 L34.7656 43.1719 L34.7656 46 ZM40.9418 40.2656 C41.3168 39.0938 41.645 37.9844 41.9731 36.7812 L42.02 36.7812 C42.3637 37.9844 42.6762 39.0938 43.0668 40.2656 L43.5512 41.8281 L40.4418 41.8281 L40.9418 40.2656 ZM37.8168 46 L39.1293 46 L40.1293 42.8594 L43.8793 42.8594 L44.8481 46 L46.2231 46 L42.7387 35.7188 L41.3012 35.7188 L37.8168 46 ZM50.5492 46.1875 C51.4554 46.1875 52.3304 45.8281 53.0179 45.2188 L52.4554 44.3594 C51.9867 44.7969 51.3617 45.125 50.6586 45.125 C49.2679 45.125 48.3148 43.9531 48.3148 42.2031 C48.3148 40.4531 49.3148 39.2656 50.7054 39.2656 C51.3148 39.2656 51.7679 39.5469 52.2211 39.9375 L52.8773 39.0938 C52.3304 38.625 51.6429 38.2031 50.6429 38.2031 C48.7054 38.2031 46.9867 39.6719 46.9867 42.2031 C46.9867 44.7188 48.5336 46.1875 50.5492 46.1875 Z"
      /><rect x="55" y="35" width="22" style="fill:white; stroke:none;" height="10"
      /><path style="stroke:none;" d="M59.1094 40.5781 C60.3438 40.5781 60.9688 41.4688 60.9688 42.8438 C60.9688 44.25 60.1875 45.1875 59.2188 45.1875 C57.9219 45.1875 57.1562 44.0312 57 41.8906 C57.625 40.9531 58.4531 40.5781 59.1094 40.5781 ZM59.2188 46.1875 C60.8125 46.1875 62.1562 44.8438 62.1562 42.8438 C62.1562 40.7031 61.0469 39.625 59.3125 39.625 C58.5 39.625 57.6094 40.1094 56.9688 40.875 C57.0312 37.6875 58.2188 36.6094 59.625 36.6094 C60.25 36.6094 60.8594 36.9062 61.2656 37.3906 L61.9688 36.5938 C61.4062 35.9844 60.6406 35.5469 59.5781 35.5469 C57.5938 35.5469 55.7812 37.0781 55.7812 41.0938 C55.7812 44.4844 57.2344 46.1875 59.2188 46.1875 ZM65.9418 40.2656 C66.3168 39.0938 66.645 37.9844 66.9731 36.7812 L67.02 36.7812 C67.3637 37.9844 67.6762 39.0938 68.0668 40.2656 L68.5512 41.8281 L65.4418 41.8281 L65.9418 40.2656 ZM62.8168 46 L64.1293 46 L65.1293 42.8594 L68.8793 42.8594 L69.8481 46 L71.2231 46 L67.7387 35.7188 L66.3012 35.7188 L62.8168 46 ZM75.5492 46.1875 C76.4554 46.1875 77.3304 45.8281 78.0179 45.2188 L77.4554 44.3594 C76.9867 44.7969 76.3617 45.125 75.6586 45.125 C74.2679 45.125 73.3148 43.9531 73.3148 42.2031 C73.3148 40.4531 74.3148 39.2656 75.7054 39.2656 C76.3148 39.2656 76.7679 39.5469 77.2211 39.9375 L77.8773 39.0938 C77.3304 38.625 76.6429 38.2031 75.6429 38.2031 C73.7054 38.2031 71.9867 39.6719 71.9867 42.2031 C71.9867 44.7188 73.5336 46.1875 75.5492 46.1875 Z"
    /></g
    ><g style="fill:white; text-rendering:optimizeSpeed; font-family:'Serif'; stroke:white;"
    ><rect x="97" width="7" height="9" y="67" style="stroke:none;"
      /><path d="M98 72.5156 L100.9531 68.2656 L100.9531 72.5156 L98 72.5156 ZM103.2812 72.5156 L101.8594 72.5156 L101.8594 67.125 L101.2344 67.125 L97.3438 72.6406 L97.3438 73.1875 L100.9531 73.1875 L100.9531 76 L101.8594 76 L101.8594 73.1875 L103.2812 73.1875 L103.2812 72.5156 Z" style="fill:black; stroke:none;"
      /><rect x="84" width="6" height="13" y="65" style="stroke:none;"
      /><path d="M86.0938 71.2031 C86.0938 69.6562 86.75 68.8125 87.7969 68.8125 C88.7188 68.8125 89.2656 69.4531 89.2656 70.5156 C89.2656 71.7188 88.5 72.4375 87.1875 72.7031 L87.2969 73.3125 C89.2188 73.2344 89.9375 74.2188 89.9375 75.4375 C89.9375 76.625 89.2344 77.4219 87.9531 77.4219 C87.25 77.4219 86.6562 77.1562 86.0938 76.7188 L86.0938 71.2031 ZM85.2031 77.9062 L85.1094 80.375 L85.2656 80.4844 L86.1562 80.2656 L86.0156 77.0938 C86.5469 77.8438 87.3594 78.1719 88.1719 78.1719 C89.5625 78.1719 90.8594 77.2188 90.8594 75.4844 C90.8594 73.9531 89.875 73.1094 88.125 73 C89.5625 72.6094 90.1875 71.4531 90.1875 70.4844 C90.1875 69.0938 89.1562 68.3125 87.9062 68.3125 C86.2969 68.3125 85.2188 69.5469 85.2188 71.5156 L85.2031 77.9062 Z" style="fill:black; stroke:none;"
      /><rect x="136" width="6" height="13" y="65" style="stroke:none;"
      /><path d="M138.0938 71.2031 C138.0938 69.6562 138.75 68.8125 139.7969 68.8125 C140.7188 68.8125 141.2656 69.4531 141.2656 70.5156 C141.2656 71.7188 140.5 72.4375 139.1875 72.7031 L139.2969 73.3125 C141.2188 73.2344 141.9375 74.2188 141.9375 75.4375 C141.9375 76.625 141.2344 77.4219 139.9531 77.4219 C139.25 77.4219 138.6562 77.1562 138.0938 76.7188 L138.0938 71.2031 ZM137.2031 77.9062 L137.1094 80.375 L137.2656 80.4844 L138.1562 80.2656 L138.0156 77.0938 C138.5469 77.8438 139.3594 78.1719 140.1719 78.1719 C141.5625 78.1719 142.8594 77.2188 142.8594 75.4844 C142.8594 73.9531 141.875 73.1094 140.125 73 C141.5625 72.6094 142.1875 71.4531 142.1875 70.4844 C142.1875 69.0938 141.1562 68.3125 139.9062 68.3125 C138.2969 68.3125 137.2188 69.5469 137.2188 71.5156 L137.2031 77.9062 Z" style="fill:black; stroke:none;"
    /></g
  ></g
></svg
>
