<?xml version="1.0"?>
<!DOCTYPE svg PUBLIC '-//W3C//DTD SVG 1.0//EN'
          'http://www.w3.org/TR/2001/REC-SVG-20010904/DTD/svg10.dtd'>
<svg xmlns:xlink="http://www.w3.org/1999/xlink" style="fill-opacity:1; color-rendering:auto; color-interpolation:auto; text-rendering:auto; stroke:black; stroke-linecap:square; stroke-miterlimit:10; shape-rendering:auto; stroke-opacity:1; fill:black; stroke-dasharray:none; font-weight:normal; stroke-width:1; font-family:'Dialog'; font-style:normal; stroke-linejoin:miter; font-size:12px; stroke-dashoffset:0; image-rendering:auto;" viewBox="0 0 191 105" xmlns="http://www.w3.org/2000/svg"
><!--Generated by the Batik Graphics2D SVG Generator--><defs id="genericDefs"
  /><g
  ><defs id="defs1"
    ><clipPath clipPathUnits="userSpaceOnUse" id="clipPath1"
      ><path d="M106 41 C106 47.0751 101.0751 52 95 52 C88.9249 52 84 47.0751 84 41 C84 34.9249 88.9249 30 95 30 C101.0751 30 106 34.9249 106 41 Z"
      /></clipPath
      ><clipPath clipPathUnits="userSpaceOnUse" id="clipPath2"
      ><path d="M52 41 C52 47.0751 47.0751 52 41 52 C34.9249 52 30 47.0751 30 41 C30 34.9249 34.9249 30 41 30 C47.0751 30 52 34.9249 52 41 Z"
      /></clipPath
    ></defs
    ><g style="fill:white; text-rendering:optimizeSpeed; stroke:white;"
    ><rect x="0" width="191" height="105" y="0" style="stroke:none;"
      /><polygon style="fill:none; stroke:black;" points=" 150 41 95 41"
      /><path d="M150 30 C144.5 35.5 155.5 46.5 150 52" style="fill:none; stroke:black;"
      /><polygon style="fill:none; stroke:black;" points=" 95 41 41 41"
      /><circle style="clip-path:url(#clipPath1); stroke:none;" r="11" cx="95" cy="41"
      /><rect x="84" y="30" width="22" style="clip-path:url(#clipPath1); fill:rgb(255,212,0); stroke:none;" height="22"
      /><rect x="84" y="30" width="22" style="clip-path:url(#clipPath1); fill:none; stroke:black;" height="22"
      /><circle style="fill:none; stroke:black;" r="11" cx="95" cy="41"
      /><rect x="82" y="58" width="25" style="stroke:none;" height="10"
    /></g
    ><g style="text-rendering:optimizeSpeed; font-size:14px; font-family:'SansSerif';"
    ><path style="stroke:none;" d="M85.7031 69.1875 C87.5156 69.1875 88.9844 68.0938 88.9844 66.25 C88.9844 64.8594 88.0156 63.9375 86.8125 63.6562 L86.8125 63.5938 C87.8906 63.1875 88.6406 62.3594 88.6406 61.125 C88.6406 59.5 87.375 58.5469 85.6562 58.5469 C84.4688 58.5469 83.5469 59.0625 82.7812 59.7812 L83.4688 60.5938 C84.0469 60 84.7656 59.5938 85.5938 59.5938 C86.6562 59.5938 87.3281 60.2344 87.3281 61.2188 C87.3281 62.3281 86.6094 63.1719 84.4844 63.1719 L84.4844 64.1562 C86.8594 64.1562 87.6875 64.9844 87.6875 66.2031 C87.6875 67.3906 86.8125 68.125 85.5938 68.125 C84.4375 68.125 83.6562 67.5781 83.0469 66.9375 L82.4062 67.7812 C83.0781 68.5156 84.0938 69.1875 85.7031 69.1875 ZM91.1762 69 L92.3481 69 L92.3481 63.3125 C92.3481 62.4375 92.2543 61.1875 92.1918 60.2969 L92.2543 60.2969 L93.0668 62.625 L95.0043 67.9688 L95.8793 67.9688 L97.8168 62.625 L98.6293 60.2969 L98.6918 60.2969 C98.6137 61.1875 98.52 62.4375 98.52 63.3125 L98.52 69 L99.7387 69 L99.7387 58.7188 L98.1762 58.7188 L96.2075 64.2188 C95.9731 64.9375 95.7543 65.6562 95.5043 66.375 L95.4418 66.375 C95.1918 65.6562 94.9575 64.9375 94.7075 64.2188 L92.7387 58.7188 L91.1762 58.7188 L91.1762 69 ZM105.4973 69.1875 C106.5285 69.1875 107.341 68.8281 108.0129 68.3906 L107.5442 67.5625 C106.9973 67.9375 106.3879 68.1562 105.6535 68.1562 C104.2004 68.1562 103.216 67.125 103.1223 65.5 L108.2473 65.5 C108.2785 65.3125 108.3098 65.0469 108.3098 64.7656 C108.3098 62.6094 107.216 61.2031 105.2785 61.2031 C103.5129 61.2031 101.8567 62.7344 101.8567 65.2031 C101.8567 67.7188 103.4817 69.1875 105.4973 69.1875 ZM103.1067 64.5781 C103.2629 63.0938 104.216 62.2188 105.2942 62.2188 C106.4817 62.2188 107.1848 63.0469 107.1848 64.5781 L103.1067 64.5781 Z"
    /></g
    ><g style="fill:white; text-rendering:optimizeSpeed; stroke:white;"
    ><circle r="11" style="clip-path:url(#clipPath2); stroke:none;" cx="41" cy="41"
      /><rect x="30" y="30" width="22" style="clip-path:url(#clipPath2); fill:rgb(255,212,0); stroke:none;" height="22"
      /><rect x="30" y="30" width="22" style="clip-path:url(#clipPath2); fill:none; stroke:black;" height="22"
      /><circle r="11" style="fill:none; stroke:black;" cx="41" cy="41"
      /><rect x="70" width="7" height="9" y="44" style="stroke:none;"
      /><path d="M71 49.5156 L73.9531 45.2656 L73.9531 49.5156 L71 49.5156 ZM76.2812 49.5156 L74.8594 49.5156 L74.8594 44.125 L74.2344 44.125 L70.3438 49.6406 L70.3438 50.1875 L73.9531 50.1875 L73.9531 53 L74.8594 53 L74.8594 50.1875 L76.2812 50.1875 L76.2812 49.5156 Z" style="fill:black; stroke:none;"
      /><rect x="56" width="8" height="8" y="45" style="stroke:none;"
      /><path d="M60.9844 50.7031 C60.9375 51.8906 60.1562 52.6562 59.3125 52.6562 C58.2656 52.6562 57.5 51.6875 57.5 49.7188 C57.5 48.2812 58.1562 47.1562 59.3438 47.1562 C60.1406 47.1562 60.7812 47.6875 61.0938 48.6406 L60.9844 50.7031 ZM62.9062 52.2812 C62.7344 52.375 62.5469 52.4219 62.3438 52.4219 C61.9531 52.4219 61.75 52.2188 61.75 51.4219 C61.75 50.4844 61.9688 48.5312 62.1875 46.8281 L62.0312 46.7188 L61.2344 46.9219 L61.1406 47.7969 C60.7812 47.0312 60.1562 46.6562 59.3906 46.6562 C58.0469 46.6562 56.5625 47.8438 56.5625 49.9531 C56.5625 52.0938 57.7188 53.1719 59.1406 53.1719 C60.0156 53.1719 60.6875 52.8125 61.0938 51.9844 C61.2031 52.8594 61.5156 53.1719 62.0156 53.1719 C62.4688 53.1719 62.7969 52.9062 63.0156 52.5625 L62.9062 52.2812 Z" style="fill:black; stroke:none;"
      /><rect x="114" width="6" height="13" y="42" style="stroke:none;"
      /><path d="M116.0938 48.2031 C116.0938 46.6562 116.75 45.8125 117.7969 45.8125 C118.7188 45.8125 119.2656 46.4531 119.2656 47.5156 C119.2656 48.7188 118.5 49.4375 117.1875 49.7031 L117.2969 50.3125 C119.2188 50.2344 119.9375 51.2188 119.9375 52.4375 C119.9375 53.625 119.2344 54.4219 117.9531 54.4219 C117.25 54.4219 116.6562 54.1562 116.0938 53.7188 L116.0938 48.2031 ZM115.2031 54.9062 L115.1094 57.375 L115.2656 57.4844 L116.1562 57.2656 L116.0156 54.0938 C116.5469 54.8438 117.3594 55.1719 118.1719 55.1719 C119.5625 55.1719 120.8594 54.2188 120.8594 52.4844 C120.8594 50.9531 119.875 50.1094 118.125 50 C119.5625 49.6094 120.1875 48.4531 120.1875 47.4844 C120.1875 46.0938 119.1562 45.3125 117.9062 45.3125 C116.2969 45.3125 115.2188 46.5469 115.2188 48.5156 L115.2031 54.9062 Z" style="fill:black; stroke:none;"
    /></g
  ></g
></svg
>
