<?xml version="1.0"?>
<!DOCTYPE svg PUBLIC '-//W3C//DTD SVG 1.0//EN'
          'http://www.w3.org/TR/2001/REC-SVG-20010904/DTD/svg10.dtd'>
<svg xmlns:xlink="http://www.w3.org/1999/xlink" style="fill-opacity:1; color-rendering:auto; color-interpolation:auto; text-rendering:auto; stroke:black; stroke-linecap:square; stroke-miterlimit:10; shape-rendering:auto; stroke-opacity:1; fill:black; stroke-dasharray:none; font-weight:normal; stroke-width:1; font-family:'Dialog'; font-style:normal; stroke-linejoin:miter; font-size:12px; stroke-dashoffset:0; image-rendering:auto;" viewBox="0 0 154 209" xmlns="http://www.w3.org/2000/svg"
><!--Generated by the Batik Graphics2D SVG Generator--><defs id="genericDefs"
  /><g
  ><defs id="defs1"
    ><clipPath clipPathUnits="userSpaceOnUse" id="clipPath1"
      ><path style="fill-rule:evenodd;" d="M80 145 L74 152 L63 152 L58 145 L63 137 L74 137 L80 145 Z"
      /></clipPath
      ><clipPath clipPathUnits="userSpaceOnUse" id="clipPath2"
      ><path d="M58 30 L80 30 L80 52 L58 52 L58 30 Z"
      /></clipPath
    ></defs
    ><g style="fill:white; text-rendering:optimizeSpeed; stroke:white;"
    ><rect x="0" width="154" height="209" y="0" style="stroke:none;"
      /><polygon style="clip-path:url(#clipPath1); stroke:none;" points=" 80 145 74 152 63 152 58 145 63 137 74 137 80 145"
      /><rect x="58" y="134" width="22" style="clip-path:url(#clipPath1); fill:rgb(255,212,0); stroke:none;" height="22"
      /><rect x="58" y="134" width="22" style="clip-path:url(#clipPath1); fill:none; stroke:black;" height="22"
      /><polygon style="fill:none; stroke:black;" points=" 80 145 74 152 63 152 58 145 63 137 74 137 80 145"
    /></g
    ><g style="text-rendering:optimizeSpeed; font-size:14px; font-family:'SansSerif';"
    ><path style="stroke:none;" d="M61.6094 173 L68.0625 173 L68.0625 171.8906 L65.2344 171.8906 C64.7031 171.8906 64.0781 171.9531 63.5469 171.9844 C65.9531 169.7031 67.5625 167.625 67.5625 165.5781 C67.5625 163.75 66.4219 162.5469 64.5781 162.5469 C63.2812 162.5469 62.4062 163.1406 61.5625 164.0469 L62.2969 164.7812 C62.8594 164.1094 63.5938 163.5938 64.4375 163.5938 C65.7031 163.5938 66.3125 164.4531 66.3125 165.625 C66.3125 167.3906 64.8438 169.4375 61.6094 172.25 L61.6094 173 ZM73.8168 173.1875 C75.9106 173.1875 77.5043 172.0625 77.5043 168.7656 L77.5043 162.7188 L76.2543 162.7188 L76.2543 168.7969 C76.2543 171.2812 75.1762 172.0469 73.8168 172.0469 C72.4731 172.0469 71.4262 171.2812 71.4262 168.7969 L71.4262 162.7188 L70.1293 162.7188 L70.1293 168.7656 C70.1293 172.0625 71.7231 173.1875 73.8168 173.1875 Z"
    /></g
    ><g style="fill:white; text-rendering:optimizeSpeed; font-family:'Serif'; stroke:white;"
    ><rect x="85" width="5" height="10" y="132" style="stroke:none;"
      /><path d="M86.8906 140.6875 C86.4844 140.6875 86.1562 141.0469 86.1562 141.4219 C86.1562 141.8125 86.4844 142.1562 86.8906 142.1562 C87.2969 142.1562 87.6406 141.8125 87.6406 141.4219 C87.6406 141.0469 87.2969 140.6875 86.8906 140.6875 ZM88.4688 134.5781 C88.7188 134.8906 88.875 135.2656 88.8906 135.6562 C88.8906 136.1875 88.625 136.5 88.0312 136.7656 L87.4062 137.0156 C86.6406 137.3125 86.3906 137.5469 86.3906 137.9375 C86.3906 138.1094 86.4531 138.3438 86.5781 138.8125 L86.7344 139.3438 L87.1094 139.3438 L87.0938 138.5312 C87.0938 138.0938 87.2031 137.9688 87.7812 137.7344 L88.2031 137.5625 C89.0312 137.2188 89.4531 136.6875 89.4531 135.8438 C89.4531 134.1562 87.6562 133.1875 86.5 133.0312 C86.1094 133.125 85.9062 133.2969 85.9062 133.6406 C85.9062 133.9375 86.0625 134.1562 86.7188 134.2656 L88.4688 134.5781 Z" style="fill:black; stroke:none;"
      /><rect x="85" width="5" height="10" y="148" style="stroke:none;"
      /><path d="M86.8906 156.6875 C86.4844 156.6875 86.1562 157.0469 86.1562 157.4219 C86.1562 157.8125 86.4844 158.1562 86.8906 158.1562 C87.2969 158.1562 87.6406 157.8125 87.6406 157.4219 C87.6406 157.0469 87.2969 156.6875 86.8906 156.6875 ZM88.4688 150.5781 C88.7188 150.8906 88.875 151.2656 88.8906 151.6562 C88.8906 152.1875 88.625 152.5 88.0312 152.7656 L87.4062 153.0156 C86.6406 153.3125 86.3906 153.5469 86.3906 153.9375 C86.3906 154.1094 86.4531 154.3438 86.5781 154.8125 L86.7344 155.3438 L87.1094 155.3438 L87.0938 154.5312 C87.0938 154.0938 87.2031 153.9688 87.7812 153.7344 L88.2031 153.5625 C89.0312 153.2188 89.4531 152.6875 89.4531 151.8438 C89.4531 150.1562 87.6562 149.1875 86.5 149.0312 C86.1094 149.125 85.9062 149.2969 85.9062 149.6406 C85.9062 149.9375 86.0625 150.1562 86.7188 150.2656 L88.4688 150.5781 Z" style="fill:black; stroke:none;"
    /></g
    ><g style="text-rendering:optimizeSpeed; font-size:14px; font-family:'SansSerif';"
    ><path style="stroke:none;" d="M40.6094 161 L47.0625 161 L47.0625 159.8906 L44.2344 159.8906 C43.7031 159.8906 43.0781 159.9531 42.5469 159.9844 C44.9531 157.7031 46.5625 155.625 46.5625 153.5781 C46.5625 151.75 45.4219 150.5469 43.5781 150.5469 C42.2812 150.5469 41.4062 151.1406 40.5625 152.0469 L41.2969 152.7812 C41.8594 152.1094 42.5938 151.5938 43.4375 151.5938 C44.7031 151.5938 45.3125 152.4531 45.3125 153.625 C45.3125 155.3906 43.8438 157.4375 40.6094 160.25 L40.6094 161 ZM47.9731 161 L49.3168 161 L50.3481 159.2188 C50.6137 158.7656 50.8637 158.2969 51.1293 157.8594 L51.2075 157.8594 C51.4731 158.2969 51.7543 158.7656 52.0043 159.2188 L53.1293 161 L54.5356 161 L52.02 157.1562 L54.3325 153.3906 L53.0043 153.3906 L52.0668 155.0625 C51.8481 155.5 51.6137 155.9219 51.3793 156.3438 L51.3325 156.3438 C51.0668 155.9219 50.8012 155.5 50.5668 155.0625 L49.5512 153.3906 L48.1762 153.3906 L50.4887 157.0312 L47.9731 161 Z"
      /><path style="stroke:none;" d="M51.9531 95.5625 L52.8438 95.5625 C52.6562 93.8438 54.625 93.1875 54.625 91.5781 C54.625 90.375 53.8125 89.625 52.5781 89.625 C51.6875 89.625 50.9844 90.0469 50.4688 90.625 L51.0469 91.1562 C51.4375 90.7188 51.9062 90.4531 52.4688 90.4531 C53.25 90.4531 53.6562 90.9844 53.6562 91.6406 C53.6562 92.9531 51.7031 93.6562 51.9531 95.5625 ZM52.4375 98.1406 C52.8438 98.1406 53.1719 97.8281 53.1719 97.3906 C53.1719 96.9219 52.8438 96.6094 52.4375 96.6094 C52.0312 96.6094 51.7031 96.9219 51.7031 97.3906 C51.7031 97.8281 52.0312 98.1406 52.4375 98.1406 ZM56.3077 98 L57.339 98 L57.339 94.1875 L61.1046 94.1875 L61.1046 98 L62.1046 98 L62.1046 89.9219 L61.1046 89.9219 L61.1046 93.3125 L57.339 93.3125 L57.339 89.9219 L56.3077 89.9219 L56.3077 98 ZM66.6438 98.1406 C67.4563 98.1406 68.0969 97.875 68.6281 97.5312 L68.2531 96.8594 C67.8156 97.1562 67.3469 97.3438 66.7688 97.3438 C65.6281 97.3438 64.8469 96.5312 64.7844 95.25 L68.8156 95.25 C68.8313 95.1094 68.8469 94.8906 68.8469 94.6719 C68.8469 92.9688 68.0031 91.875 66.4719 91.875 C65.0969 91.875 63.7844 93.0781 63.7844 95.0156 C63.7844 96.9844 65.0656 98.1406 66.6438 98.1406 ZM64.7688 94.5312 C64.8938 93.3594 65.6438 92.6719 66.4875 92.6719 C67.425 92.6719 67.9719 93.3281 67.9719 94.5312 L64.7688 94.5312 ZM70.3315 100.5156 L71.3315 100.5156 L71.3315 98.5 L71.3002 97.4531 C71.8471 97.8906 72.4252 98.1406 72.9565 98.1406 C74.3315 98.1406 75.5502 96.9688 75.5502 94.9219 C75.5502 93.0781 74.7221 91.875 73.1752 91.875 C72.4877 91.875 71.8158 92.2656 71.269 92.7031 L71.2377 92.7031 L71.1596 92.0312 L70.3315 92.0312 L70.3315 100.5156 ZM72.7846 97.3125 C72.394 97.3125 71.8627 97.1406 71.3315 96.6875 L71.3315 93.5469 C71.9096 93 72.4252 92.7188 72.9408 92.7188 C74.0658 92.7188 74.5033 93.6094 74.5033 94.9375 C74.5033 96.4219 73.7846 97.3125 72.7846 97.3125 Z"
      /><path style="stroke:none;" d="M30.6094 93.1562 L32.9531 89.6562 C33.2344 89.1406 33.5156 88.6406 33.7812 88.1406 L33.8281 88.1406 C33.7969 88.6719 33.7656 89.5 33.7656 90 L33.7656 93.1562 L30.6094 93.1562 ZM33.7656 97 L34.9688 97 L34.9688 94.1719 L36.3281 94.1719 L36.3281 93.1562 L34.9688 93.1562 L34.9688 86.7188 L33.5469 86.7188 L29.2812 93.3281 L29.2812 94.1719 L33.7656 94.1719 L33.7656 97 ZM36.9731 97 L38.3168 97 L39.3481 95.2188 C39.6137 94.7656 39.8637 94.2969 40.1293 93.8594 L40.2075 93.8594 C40.4731 94.2969 40.7543 94.7656 41.0043 95.2188 L42.1293 97 L43.5356 97 L41.02 93.1562 L43.3325 89.3906 L42.0043 89.3906 L41.0668 91.0625 C40.8481 91.5 40.6137 91.9219 40.3793 92.3438 L40.3325 92.3438 C40.0668 91.9219 39.8012 91.5 39.5668 91.0625 L38.5512 89.3906 L37.1762 89.3906 L39.4887 93.0312 L36.9731 97 Z"
      /><rect x="58" y="30" width="22" style="clip-path:url(#clipPath2); fill:white; stroke:none;" height="22"
      /><polygon style="fill:rgb(0,144,188); clip-path:url(#clipPath2); stroke:none;" points=" 58 30 80 30 80 52"
      /><polygon style="fill:none; clip-path:url(#clipPath2);" points=" 58 30 80 30 80 52"
      /><rect x="58" width="22" height="22" y="30" style="fill:none;"
    /></g
    ><g style="fill:white; text-rendering:optimizeSpeed; font-family:'Serif'; stroke:white;"
    ><rect x="85" width="5" height="10" y="28" style="stroke:none;"
      /><path d="M86.8906 36.6875 C86.4844 36.6875 86.1562 37.0469 86.1562 37.4219 C86.1562 37.8125 86.4844 38.1562 86.8906 38.1562 C87.2969 38.1562 87.6406 37.8125 87.6406 37.4219 C87.6406 37.0469 87.2969 36.6875 86.8906 36.6875 ZM88.4688 30.5781 C88.7188 30.8906 88.875 31.2656 88.8906 31.6562 C88.8906 32.1875 88.625 32.5 88.0312 32.7656 L87.4062 33.0156 C86.6406 33.3125 86.3906 33.5469 86.3906 33.9375 C86.3906 34.1094 86.4531 34.3438 86.5781 34.8125 L86.7344 35.3438 L87.1094 35.3438 L87.0938 34.5312 C87.0938 34.0938 87.2031 33.9688 87.7812 33.7344 L88.2031 33.5625 C89.0312 33.2188 89.4531 32.6875 89.4531 31.8438 C89.4531 30.1562 87.6562 29.1875 86.5 29.0312 C86.1094 29.125 85.9062 29.2969 85.9062 29.6406 C85.9062 29.9375 86.0625 30.1562 86.7188 30.2656 L88.4688 30.5781 Z" style="fill:black; stroke:none;"
      /><rect x="85" width="5" height="10" y="44" style="stroke:none;"
      /><path d="M86.8906 52.6875 C86.4844 52.6875 86.1562 53.0469 86.1562 53.4219 C86.1562 53.8125 86.4844 54.1562 86.8906 54.1562 C87.2969 54.1562 87.6406 53.8125 87.6406 53.4219 C87.6406 53.0469 87.2969 52.6875 86.8906 52.6875 ZM88.4688 46.5781 C88.7188 46.8906 88.875 47.2656 88.8906 47.6562 C88.8906 48.1875 88.625 48.5 88.0312 48.7656 L87.4062 49.0156 C86.6406 49.3125 86.3906 49.5469 86.3906 49.9375 C86.3906 50.1094 86.4531 50.3438 86.5781 50.8125 L86.7344 51.3438 L87.1094 51.3438 L87.0938 50.5312 C87.0938 50.0938 87.2031 49.9688 87.7812 49.7344 L88.2031 49.5625 C89.0312 49.2188 89.4531 48.6875 89.4531 47.8438 C89.4531 46.1562 87.6562 45.1875 86.5 45.0312 C86.1094 45.125 85.9062 45.2969 85.9062 45.6406 C85.9062 45.9375 86.0625 46.1562 86.7188 46.2656 L88.4688 46.5781 Z" style="fill:black; stroke:none;"
    /></g
    ><g style="text-rendering:optimizeSpeed; font-size:14px; font-family:'SansSerif';"
    ><path style="stroke:none;" d="M40.6094 46 L47.0625 46 L47.0625 44.8906 L44.2344 44.8906 C43.7031 44.8906 43.0781 44.9531 42.5469 44.9844 C44.9531 42.7031 46.5625 40.625 46.5625 38.5781 C46.5625 36.75 45.4219 35.5469 43.5781 35.5469 C42.2812 35.5469 41.4062 36.1406 40.5625 37.0469 L41.2969 37.7812 C41.8594 37.1094 42.5938 36.5938 43.4375 36.5938 C44.7031 36.5938 45.3125 37.4531 45.3125 38.625 C45.3125 40.3906 43.8438 42.4375 40.6094 45.25 L40.6094 46 ZM47.9731 46 L49.3168 46 L50.3481 44.2188 C50.6137 43.7656 50.8637 43.2969 51.1293 42.8594 L51.2075 42.8594 C51.4731 43.2969 51.7543 43.7656 52.0043 44.2188 L53.1293 46 L54.5356 46 L52.02 42.1562 L54.3325 38.3906 L53.0043 38.3906 L52.0668 40.0625 C51.8481 40.5 51.6137 40.9219 51.3793 41.3438 L51.3325 41.3438 C51.0668 40.9219 50.8012 40.5 50.5668 40.0625 L49.5512 38.3906 L48.1762 38.3906 L50.4887 42.0312 L47.9731 46 Z"
    /></g
  ></g
></svg
>
