<?xml version="1.0"?>
<!DOCTYPE svg PUBLIC '-//W3C//DTD SVG 1.0//EN'
          'http://www.w3.org/TR/2001/REC-SVG-20010904/DTD/svg10.dtd'>
<svg xmlns:xlink="http://www.w3.org/1999/xlink" style="fill-opacity:1; color-rendering:auto; color-interpolation:auto; text-rendering:auto; stroke:black; stroke-linecap:square; stroke-miterlimit:10; shape-rendering:auto; stroke-opacity:1; fill:black; stroke-dasharray:none; font-weight:normal; stroke-width:1; font-family:'Dialog'; font-style:normal; stroke-linejoin:miter; font-size:12px; stroke-dashoffset:0; image-rendering:auto;" viewBox="0 0 574 186" xmlns="http://www.w3.org/2000/svg"
><!--Generated by the Batik Graphics2D SVG Generator--><defs id="genericDefs"
  /><g
  ><defs id="defs1"
    ><clipPath clipPathUnits="userSpaceOnUse" id="clipPath1"
      ><path d="M446 95 L468 95 L468 117 L446 117 L446 95 Z"
      /></clipPath
      ><clipPath clipPathUnits="userSpaceOnUse" id="clipPath2"
      ><path d="M394 95 L416 95 L416 117 L394 117 L394 95 Z"
      /></clipPath
      ><clipPath clipPathUnits="userSpaceOnUse" id="clipPath3"
      ><path d="M364 106 C364 112.0751 359.0751 117 353 117 C346.9249 117 342 112.0751 342 106 C342 99.9249 346.9249 95 353 95 C359.0751 95 364 99.9249 364 106 Z"
      /></clipPath
      ><clipPath clipPathUnits="userSpaceOnUse" id="clipPath4"
      ><path d="M312 145 C312 151.0751 307.0751 156 301 156 C294.9249 156 290 151.0751 290 145 C290 138.9249 294.9249 134 301 134 C307.0751 134 312 138.9249 312 145 Z"
      /></clipPath
      ><clipPath clipPathUnits="userSpaceOnUse" id="clipPath5"
      ><path d="M238 134 L260 134 L260 156 L238 156 L238 134 Z"
      /></clipPath
      ><clipPath clipPathUnits="userSpaceOnUse" id="clipPath6"
      ><path d="M208 145 C208 151.0751 203.0751 156 197 156 C190.9249 156 186 151.0751 186 145 C186 138.9249 190.9249 134 197 134 C203.0751 134 208 138.9249 208 145 Z"
      /></clipPath
      ><clipPath clipPathUnits="userSpaceOnUse" id="clipPath7"
      ><path d="M134 134 L156 134 L156 156 L134 156 L134 134 Z"
      /></clipPath
      ><clipPath clipPathUnits="userSpaceOnUse" id="clipPath8"
      ><path d="M104 145 C104 151.0751 99.0751 156 93 156 C86.9249 156 82 151.0751 82 145 C82 138.9249 86.9249 134 93 134 C99.0751 134 104 138.9249 104 145 Z"
      /></clipPath
      ><clipPath clipPathUnits="userSpaceOnUse" id="clipPath9"
      ><path style="fill-rule:evenodd;" d="M41 134 L52 145 L41 156 L30 145 Z"
      /></clipPath
      ><clipPath clipPathUnits="userSpaceOnUse" id="clipPath10"
      ><path d="M312 67 C312 73.0751 307.0751 78 301 78 C294.9249 78 290 73.0751 290 67 C290 60.9249 294.9249 56 301 56 C307.0751 56 312 60.9249 312 67 Z"
      /></clipPath
      ><clipPath clipPathUnits="userSpaceOnUse" id="clipPath11"
      ><path d="M238 82 L260 82 L260 104 L238 104 L238 82 Z"
      /></clipPath
      ><clipPath clipPathUnits="userSpaceOnUse" id="clipPath12"
      ><path d="M208 93 C208 99.0751 203.0751 104 197 104 C190.9249 104 186 99.0751 186 93 C186 86.9249 190.9249 82 197 82 C203.0751 82 208 86.9249 208 93 Z"
      /></clipPath
      ><clipPath clipPathUnits="userSpaceOnUse" id="clipPath13"
      ><path style="fill-rule:evenodd;" d="M145 82 L156 93 L145 104 L134 93 Z"
      /></clipPath
      ><clipPath clipPathUnits="userSpaceOnUse" id="clipPath14"
      ><path d="M238 30 L260 30 L260 52 L238 52 L238 30 Z"
      /></clipPath
      ><clipPath clipPathUnits="userSpaceOnUse" id="clipPath15"
      ><path d="M208 41 C208 47.0751 203.0751 52 197 52 C190.9249 52 186 47.0751 186 41 C186 34.9249 190.9249 30 197 30 C203.0751 30 208 34.9249 208 41 Z"
      /></clipPath
    ></defs
    ><g style="fill:white; text-rendering:optimizeSpeed; stroke:white;"
    ><rect x="0" width="574" height="186" y="0" style="stroke:none;"
      /><polygon style="fill:none; stroke:black;" points=" 457 106 405 106"
      /><rect x="446" y="95" width="22" style="clip-path:url(#clipPath1); stroke:none;" height="22"
      /><rect x="446" y="95" width="22" style="clip-path:url(#clipPath1); fill:rgb(0,144,188); stroke:none;" height="22"
      /><rect x="446" y="95" width="22" style="clip-path:url(#clipPath1); fill:none; stroke:black;" height="22"
      /><rect x="446" y="95" width="22" style="fill:none; stroke:black;" height="22"
    /></g
    ><g style="font-style:italic; text-rendering:optimizeSpeed; font-size:10px; font-family:'SansSerif';"
    ><path style="stroke:none;" d="M457 108.125 C458.3281 108.125 459.7344 107.0938 460.125 105.2969 C460.5 103.4844 459.5469 102.4375 458.2188 102.4375 C456.8906 102.4375 455.4688 103.4844 455.0938 105.2969 C454.7031 107.0938 455.6719 108.125 457 108.125 ZM457.1719 107.375 C456.2344 107.375 455.7656 106.5469 456.0312 105.2969 C456.2969 104.0469 457.1094 103.1875 458.0469 103.1875 C458.9844 103.1875 459.4531 104.0469 459.1875 105.2969 C458.9219 106.5469 458.1094 107.375 457.1719 107.375 Z"
      /><polygon style="fill:none;" points=" 405 106 353 106"
    /></g
    ><g style="fill:white; text-rendering:optimizeSpeed; stroke:white;"
    ><rect x="394" y="95" width="22" style="clip-path:url(#clipPath2); stroke:none;" height="22"
      /><rect x="394" y="95" width="22" style="clip-path:url(#clipPath2); fill:rgb(0,144,188); stroke:none;" height="22"
      /><rect x="394" y="95" width="22" style="clip-path:url(#clipPath2); fill:none; stroke:black;" height="22"
      /><rect x="394" y="95" width="22" style="fill:none; stroke:black;" height="22"
      /><polygon style="fill:none; stroke:black;" points=" 353 106 301 145"
      /><polygon style="fill:none; stroke:black;" points=" 353 106 301 67"
      /><circle r="11" style="clip-path:url(#clipPath3); stroke:none;" cx="353" cy="106"
      /><rect x="342" y="95" width="22" style="clip-path:url(#clipPath3); fill:rgb(0,166,81); stroke:none;" height="22"
      /><rect x="342" y="95" width="22" style="clip-path:url(#clipPath3); fill:none; stroke:black;" height="22"
      /><circle r="11" style="fill:none; stroke:black;" cx="353" cy="106"
      /><polygon style="fill:none; stroke:black;" points=" 301 145 249 145"
      /><circle r="11" style="clip-path:url(#clipPath4); stroke:none;" cx="301" cy="145"
      /><rect x="290" y="134" width="22" style="clip-path:url(#clipPath4); fill:rgb(0,166,81); stroke:none;" height="22"
      /><rect x="290" y="134" width="22" style="clip-path:url(#clipPath4); fill:none; stroke:black;" height="22"
      /><circle r="11" style="fill:none; stroke:black;" cx="301" cy="145"
      /><polygon style="fill:none; stroke:black;" points=" 249 145 197 145"
      /><rect x="238" y="134" width="22" style="clip-path:url(#clipPath5); stroke:none;" height="22"
      /><rect x="238" y="134" width="22" style="clip-path:url(#clipPath5); fill:rgb(0,144,188); stroke:none;" height="22"
      /><rect x="238" y="134" width="22" style="clip-path:url(#clipPath5); fill:none; stroke:black;" height="22"
      /><rect x="238" y="134" width="22" style="fill:none; stroke:black;" height="22"
      /><polygon style="fill:none; stroke:black;" points=" 197 145 145 145"
      /><circle r="11" style="clip-path:url(#clipPath6); stroke:none;" cx="197" cy="145"
      /><rect x="186" y="134" width="22" style="clip-path:url(#clipPath6); fill:rgb(255,212,0); stroke:none;" height="22"
      /><rect x="186" y="134" width="22" style="clip-path:url(#clipPath6); fill:none; stroke:black;" height="22"
      /><circle r="11" style="fill:none; stroke:black;" cx="197" cy="145"
      /><polygon style="fill:none; stroke:black;" points=" 145 145 93 145"
      /><rect x="134" y="134" width="22" style="clip-path:url(#clipPath7); stroke:none;" height="22"
      /><rect x="134" y="134" width="22" style="clip-path:url(#clipPath7); fill:rgb(0,144,188); stroke:none;" height="22"
      /><rect x="134" y="134" width="22" style="clip-path:url(#clipPath7); fill:none; stroke:black;" height="22"
      /><rect x="134" y="134" width="22" style="fill:none; stroke:black;" height="22"
      /><polygon style="fill:none; stroke:black;" points=" 93 145 41 145"
      /><circle r="11" style="clip-path:url(#clipPath8); stroke:none;" cx="93" cy="145"
      /><rect x="82" y="134" width="22" style="clip-path:url(#clipPath8); fill:rgb(255,212,0); stroke:none;" height="22"
      /><rect x="82" y="134" width="22" style="clip-path:url(#clipPath8); fill:none; stroke:black;" height="22"
      /><circle r="11" style="fill:none; stroke:black;" cx="93" cy="145"
      /><polygon style="clip-path:url(#clipPath9); stroke:none;" points=" 41 134 52 145 41 156 30 145"
      /><rect x="30" y="134" width="22" style="clip-path:url(#clipPath9); fill:rgb(165,67,153); stroke:none;" height="22"
      /><rect x="30" y="134" width="22" style="clip-path:url(#clipPath9); fill:none; stroke:black;" height="22"
      /><polygon style="fill:none; stroke:black;" points=" 41 134 52 145 41 156 30 145"
      /><rect x="71" width="6" height="10" y="148" style="stroke:none;"
      /><path d="M74.3438 157.6875 C73.2031 157.6875 72.5312 156.5 72.5312 154.2969 C72.5312 154.2188 72.5312 154.125 72.5312 154.0469 C73.0938 153.5 73.7188 153.3125 74.3438 153.3125 C75.3125 153.3125 75.9531 153.9844 75.9531 155.4531 C75.9531 156.9375 75.3125 157.6875 74.3438 157.6875 ZM76.5312 149.0781 C73.3438 149.4531 71.5625 151.7656 71.5625 154.4531 C71.5625 156.7812 72.6094 158.1719 74.3125 158.1719 C75.8438 158.1719 76.9219 157.1094 76.9219 155.2812 C76.9219 153.6875 75.9688 152.6562 74.5625 152.6562 C73.8281 152.6562 73.1406 152.9844 72.5781 153.5781 C72.7969 151.4062 74.0781 149.9688 76.5938 149.3906 L76.5312 149.0781 Z" style="fill:black; stroke:none;"
      /><rect x="56" width="8" height="8" y="149" style="stroke:none;"
      /><path d="M60.9844 154.7031 C60.9375 155.8906 60.1562 156.6562 59.3125 156.6562 C58.2656 156.6562 57.5 155.6875 57.5 153.7188 C57.5 152.2812 58.1562 151.1562 59.3438 151.1562 C60.1406 151.1562 60.7812 151.6875 61.0938 152.6406 L60.9844 154.7031 ZM62.9062 156.2812 C62.7344 156.375 62.5469 156.4219 62.3438 156.4219 C61.9531 156.4219 61.75 156.2188 61.75 155.4219 C61.75 154.4844 61.9688 152.5312 62.1875 150.8281 L62.0312 150.7188 L61.2344 150.9219 L61.1406 151.7969 C60.7812 151.0312 60.1562 150.6562 59.3906 150.6562 C58.0469 150.6562 56.5625 151.8438 56.5625 153.9531 C56.5625 156.0938 57.7188 157.1719 59.1406 157.1719 C60.0156 157.1719 60.6875 156.8125 61.0938 155.9844 C61.2031 156.8594 61.5156 157.1719 62.0156 157.1719 C62.4688 157.1719 62.7969 156.9062 63.0156 156.5625 L62.9062 156.2812 Z" style="fill:black; stroke:none;"
      /><rect x="122" width="7" height="9" y="148" style="stroke:none;"
      /><path d="M123 153.5156 L125.9531 149.2656 L125.9531 153.5156 L123 153.5156 ZM128.2812 153.5156 L126.8594 153.5156 L126.8594 148.125 L126.2344 148.125 L122.3438 153.6406 L122.3438 154.1875 L125.9531 154.1875 L125.9531 157 L126.8594 157 L126.8594 154.1875 L128.2812 154.1875 L128.2812 153.5156 Z" style="fill:black; stroke:none;"
      /><rect x="109" width="6" height="13" y="146" style="stroke:none;"
      /><path d="M111.0938 152.2031 C111.0938 150.6562 111.75 149.8125 112.7969 149.8125 C113.7188 149.8125 114.2656 150.4531 114.2656 151.5156 C114.2656 152.7188 113.5 153.4375 112.1875 153.7031 L112.2969 154.3125 C114.2188 154.2344 114.9375 155.2188 114.9375 156.4375 C114.9375 157.625 114.2344 158.4219 112.9531 158.4219 C112.25 158.4219 111.6562 158.1562 111.0938 157.7188 L111.0938 152.2031 ZM110.2031 158.9062 L110.1094 161.375 L110.2656 161.4844 L111.1562 161.2656 L111.0156 158.0938 C111.5469 158.8438 112.3594 159.1719 113.1719 159.1719 C114.5625 159.1719 115.8594 158.2188 115.8594 156.4844 C115.8594 154.9531 114.875 154.1094 113.125 154 C114.5625 153.6094 115.1875 152.4531 115.1875 151.4844 C115.1875 150.0938 114.1562 149.3125 112.9062 149.3125 C111.2969 149.3125 110.2188 150.5469 110.2188 152.5156 L110.2031 158.9062 Z" style="fill:black; stroke:none;"
      /><rect x="174" width="7" height="9" y="148" style="stroke:none;"
      /><path d="M175 153.5156 L177.9531 149.2656 L177.9531 153.5156 L175 153.5156 ZM180.2812 153.5156 L178.8594 153.5156 L178.8594 148.125 L178.2344 148.125 L174.3438 153.6406 L174.3438 154.1875 L177.9531 154.1875 L177.9531 157 L178.8594 157 L178.8594 154.1875 L180.2812 154.1875 L180.2812 153.5156 Z" style="fill:black; stroke:none;"
      /><rect x="161" width="6" height="13" y="146" style="stroke:none;"
      /><path d="M163.0938 152.2031 C163.0938 150.6562 163.75 149.8125 164.7969 149.8125 C165.7188 149.8125 166.2656 150.4531 166.2656 151.5156 C166.2656 152.7188 165.5 153.4375 164.1875 153.7031 L164.2969 154.3125 C166.2188 154.2344 166.9375 155.2188 166.9375 156.4375 C166.9375 157.625 166.2344 158.4219 164.9531 158.4219 C164.25 158.4219 163.6562 158.1562 163.0938 157.7188 L163.0938 152.2031 ZM162.2031 158.9062 L162.1094 161.375 L162.2656 161.4844 L163.1562 161.2656 L163.0156 158.0938 C163.5469 158.8438 164.3594 159.1719 165.1719 159.1719 C166.5625 159.1719 167.8594 158.2188 167.8594 156.4844 C167.8594 154.9531 166.875 154.1094 165.125 154 C166.5625 153.6094 167.1875 152.4531 167.1875 151.4844 C167.1875 150.0938 166.1562 149.3125 164.9062 149.3125 C163.2969 149.3125 162.2188 150.5469 162.2188 152.5156 L162.2031 158.9062 Z" style="fill:black; stroke:none;"
      /><rect x="226" width="7" height="9" y="148" style="stroke:none;"
      /><path d="M227 153.5156 L229.9531 149.2656 L229.9531 153.5156 L227 153.5156 ZM232.2812 153.5156 L230.8594 153.5156 L230.8594 148.125 L230.2344 148.125 L226.3438 153.6406 L226.3438 154.1875 L229.9531 154.1875 L229.9531 157 L230.8594 157 L230.8594 154.1875 L232.2812 154.1875 L232.2812 153.5156 Z" style="fill:black; stroke:none;"
      /><rect x="213" width="6" height="13" y="146" style="stroke:none;"
      /><path d="M215.0938 152.2031 C215.0938 150.6562 215.75 149.8125 216.7969 149.8125 C217.7188 149.8125 218.2656 150.4531 218.2656 151.5156 C218.2656 152.7188 217.5 153.4375 216.1875 153.7031 L216.2969 154.3125 C218.2188 154.2344 218.9375 155.2188 218.9375 156.4375 C218.9375 157.625 218.2344 158.4219 216.9531 158.4219 C216.25 158.4219 215.6562 158.1562 215.0938 157.7188 L215.0938 152.2031 ZM214.2031 158.9062 L214.1094 161.375 L214.2656 161.4844 L215.1562 161.2656 L215.0156 158.0938 C215.5469 158.8438 216.3594 159.1719 217.1719 159.1719 C218.5625 159.1719 219.8594 158.2188 219.8594 156.4844 C219.8594 154.9531 218.875 154.1094 217.125 154 C218.5625 153.6094 219.1875 152.4531 219.1875 151.4844 C219.1875 150.0938 218.1562 149.3125 216.9062 149.3125 C215.2969 149.3125 214.2188 150.5469 214.2188 152.5156 L214.2031 158.9062 Z" style="fill:black; stroke:none;"
      /><rect x="279" width="5" height="10" y="148" style="stroke:none;"
      /><path d="M280.8906 156.6875 C280.4844 156.6875 280.1562 157.0469 280.1562 157.4219 C280.1562 157.8125 280.4844 158.1562 280.8906 158.1562 C281.2969 158.1562 281.6406 157.8125 281.6406 157.4219 C281.6406 157.0469 281.2969 156.6875 280.8906 156.6875 ZM282.4688 150.5781 C282.7188 150.8906 282.875 151.2656 282.8906 151.6562 C282.8906 152.1875 282.625 152.5 282.0312 152.7656 L281.4062 153.0156 C280.6406 153.3125 280.3906 153.5469 280.3906 153.9375 C280.3906 154.1094 280.4531 154.3438 280.5781 154.8125 L280.7344 155.3438 L281.1094 155.3438 L281.0938 154.5312 C281.0938 154.0938 281.2031 153.9688 281.7812 153.7344 L282.2031 153.5625 C283.0312 153.2188 283.4531 152.6875 283.4531 151.8438 C283.4531 150.1562 281.6562 149.1875 280.5 149.0312 C280.1094 149.125 279.9062 149.2969 279.9062 149.6406 C279.9062 149.9375 280.0625 150.1562 280.7188 150.2656 L282.4688 150.5781 Z" style="fill:black; stroke:none;"
      /><rect x="265" width="6" height="13" y="146" style="stroke:none;"
      /><path d="M267.0938 152.2031 C267.0938 150.6562 267.75 149.8125 268.7969 149.8125 C269.7188 149.8125 270.2656 150.4531 270.2656 151.5156 C270.2656 152.7188 269.5 153.4375 268.1875 153.7031 L268.2969 154.3125 C270.2188 154.2344 270.9375 155.2188 270.9375 156.4375 C270.9375 157.625 270.2344 158.4219 268.9531 158.4219 C268.25 158.4219 267.6562 158.1562 267.0938 157.7188 L267.0938 152.2031 ZM266.2031 158.9062 L266.1094 161.375 L266.2656 161.4844 L267.1562 161.2656 L267.0156 158.0938 C267.5469 158.8438 268.3594 159.1719 269.1719 159.1719 C270.5625 159.1719 271.8594 158.2188 271.8594 156.4844 C271.8594 154.9531 270.875 154.1094 269.125 154 C270.5625 153.6094 271.1875 152.4531 271.1875 151.4844 C271.1875 150.0938 270.1562 149.3125 268.9062 149.3125 C267.2969 149.3125 266.2188 150.5469 266.2188 152.5156 L266.2031 158.9062 Z" style="fill:black; stroke:none;"
      /><polygon style="fill:none; stroke:black;" points=" 301 67 249 93"
      /><polygon style="fill:none; stroke:black;" points=" 301 67 249 41"
      /><circle r="11" style="clip-path:url(#clipPath10); stroke:none;" cx="301" cy="67"
      /><rect x="290" y="56" width="22" style="clip-path:url(#clipPath10); fill:rgb(0,166,81); stroke:none;" height="22"
      /><rect x="290" y="56" width="22" style="clip-path:url(#clipPath10); fill:none; stroke:black;" height="22"
      /><circle r="11" style="fill:none; stroke:black;" cx="301" cy="67"
      /><polygon style="fill:none; stroke:black;" points=" 249 93 197 93"
      /><rect x="238" y="82" width="22" style="clip-path:url(#clipPath11); stroke:none;" height="22"
      /><rect x="238" y="82" width="22" style="clip-path:url(#clipPath11); fill:rgb(0,144,188); stroke:none;" height="22"
      /><rect x="238" y="82" width="22" style="clip-path:url(#clipPath11); fill:none; stroke:black;" height="22"
      /><rect x="238" y="82" width="22" style="fill:none; stroke:black;" height="22"
      /><polygon style="fill:none; stroke:black;" points=" 197 93 145 93"
      /><circle r="11" style="clip-path:url(#clipPath12); stroke:none;" cx="197" cy="93"
      /><rect x="186" y="82" width="22" style="clip-path:url(#clipPath12); fill:rgb(255,212,0); stroke:none;" height="22"
      /><rect x="186" y="82" width="22" style="clip-path:url(#clipPath12); fill:none; stroke:black;" height="22"
      /><circle r="11" style="fill:none; stroke:black;" cx="197" cy="93"
      /><polygon style="clip-path:url(#clipPath13); stroke:none;" points=" 145 82 156 93 145 104 134 93"
      /><rect x="134" y="82" width="22" style="clip-path:url(#clipPath13); fill:rgb(165,67,153); stroke:none;" height="22"
      /><rect x="134" y="82" width="22" style="clip-path:url(#clipPath13); fill:none; stroke:black;" height="22"
      /><polygon style="fill:none; stroke:black;" points=" 145 82 156 93 145 104 134 93"
      /><rect x="175" width="6" height="10" y="96" style="stroke:none;"
      /><path d="M178.3438 105.6875 C177.2031 105.6875 176.5312 104.5 176.5312 102.2969 C176.5312 102.2188 176.5312 102.125 176.5312 102.0469 C177.0938 101.5 177.7188 101.3125 178.3438 101.3125 C179.3125 101.3125 179.9531 101.9844 179.9531 103.4531 C179.9531 104.9375 179.3125 105.6875 178.3438 105.6875 ZM180.5312 97.0781 C177.3438 97.4531 175.5625 99.7656 175.5625 102.4531 C175.5625 104.7812 176.6094 106.1719 178.3125 106.1719 C179.8438 106.1719 180.9219 105.1094 180.9219 103.2812 C180.9219 101.6875 179.9688 100.6562 178.5625 100.6562 C177.8281 100.6562 177.1406 100.9844 176.5781 101.5781 C176.7969 99.4062 178.0781 97.9688 180.5938 97.3906 L180.5312 97.0781 Z" style="fill:black; stroke:none;"
      /><rect x="160" width="8" height="8" y="97" style="stroke:none;"
      /><path d="M164.9844 102.7031 C164.9375 103.8906 164.1562 104.6562 163.3125 104.6562 C162.2656 104.6562 161.5 103.6875 161.5 101.7188 C161.5 100.2812 162.1562 99.1562 163.3438 99.1562 C164.1406 99.1562 164.7812 99.6875 165.0938 100.6406 L164.9844 102.7031 ZM166.9062 104.2812 C166.7344 104.375 166.5469 104.4219 166.3438 104.4219 C165.9531 104.4219 165.75 104.2188 165.75 103.4219 C165.75 102.4844 165.9688 100.5312 166.1875 98.8281 L166.0312 98.7188 L165.2344 98.9219 L165.1406 99.7969 C164.7812 99.0312 164.1562 98.6562 163.3906 98.6562 C162.0469 98.6562 160.5625 99.8438 160.5625 101.9531 C160.5625 104.0938 161.7188 105.1719 163.1406 105.1719 C164.0156 105.1719 164.6875 104.8125 165.0938 103.9844 C165.2031 104.8594 165.5156 105.1719 166.0156 105.1719 C166.4688 105.1719 166.7969 104.9062 167.0156 104.5625 L166.9062 104.2812 Z" style="fill:black; stroke:none;"
      /><rect x="226" width="7" height="9" y="96" style="stroke:none;"
      /><path d="M227 101.5156 L229.9531 97.2656 L229.9531 101.5156 L227 101.5156 ZM232.2812 101.5156 L230.8594 101.5156 L230.8594 96.125 L230.2344 96.125 L226.3438 101.6406 L226.3438 102.1875 L229.9531 102.1875 L229.9531 105 L230.8594 105 L230.8594 102.1875 L232.2812 102.1875 L232.2812 101.5156 Z" style="fill:black; stroke:none;"
      /><rect x="213" width="6" height="13" y="94" style="stroke:none;"
      /><path d="M215.0938 100.2031 C215.0938 98.6562 215.75 97.8125 216.7969 97.8125 C217.7188 97.8125 218.2656 98.4531 218.2656 99.5156 C218.2656 100.7188 217.5 101.4375 216.1875 101.7031 L216.2969 102.3125 C218.2188 102.2344 218.9375 103.2188 218.9375 104.4375 C218.9375 105.625 218.2344 106.4219 216.9531 106.4219 C216.25 106.4219 215.6562 106.1562 215.0938 105.7188 L215.0938 100.2031 ZM214.2031 106.9062 L214.1094 109.375 L214.2656 109.4844 L215.1562 109.2656 L215.0156 106.0938 C215.5469 106.8438 216.3594 107.1719 217.1719 107.1719 C218.5625 107.1719 219.8594 106.2188 219.8594 104.4844 C219.8594 102.9531 218.875 102.1094 217.125 102 C218.5625 101.6094 219.1875 100.4531 219.1875 99.4844 C219.1875 98.0938 218.1562 97.3125 216.9062 97.3125 C215.2969 97.3125 214.2188 98.5469 214.2188 100.5156 L214.2031 106.9062 Z" style="fill:black; stroke:none;"
      /><polygon style="fill:none; stroke:black;" points=" 249 41 197 41"
      /><rect x="238" y="30" width="22" style="clip-path:url(#clipPath14); stroke:none;" height="22"
      /><rect x="238" y="30" width="22" style="clip-path:url(#clipPath14); fill:rgb(0,144,188); stroke:none;" height="22"
      /><rect x="238" y="30" width="22" style="clip-path:url(#clipPath14); fill:none; stroke:black;" height="22"
      /><rect x="238" y="30" width="22" style="fill:none; stroke:black;" height="22"
      /><circle r="11" style="clip-path:url(#clipPath15); stroke:none;" cx="197" cy="41"
      /><rect x="186" y="30" width="22" style="clip-path:url(#clipPath15); fill:rgb(255,212,0); stroke:none;" height="22"
      /><rect x="186" y="30" width="22" style="clip-path:url(#clipPath15); fill:none; stroke:black;" height="22"
      /><circle r="11" style="fill:none; stroke:black;" cx="197" cy="41"
      /><rect x="226" width="7" height="9" y="44" style="stroke:none;"
      /><path d="M227 49.5156 L229.9531 45.2656 L229.9531 49.5156 L227 49.5156 ZM232.2812 49.5156 L230.8594 49.5156 L230.8594 44.125 L230.2344 44.125 L226.3438 49.6406 L226.3438 50.1875 L229.9531 50.1875 L229.9531 53 L230.8594 53 L230.8594 50.1875 L232.2812 50.1875 L232.2812 49.5156 Z" style="fill:black; stroke:none;"
      /><rect x="213" width="6" height="13" y="42" style="stroke:none;"
      /><path d="M215.0938 48.2031 C215.0938 46.6562 215.75 45.8125 216.7969 45.8125 C217.7188 45.8125 218.2656 46.4531 218.2656 47.5156 C218.2656 48.7188 217.5 49.4375 216.1875 49.7031 L216.2969 50.3125 C218.2188 50.2344 218.9375 51.2188 218.9375 52.4375 C218.9375 53.625 218.2344 54.4219 216.9531 54.4219 C216.25 54.4219 215.6562 54.1562 215.0938 53.7188 L215.0938 48.2031 ZM214.2031 54.9062 L214.1094 57.375 L214.2656 57.4844 L215.1562 57.2656 L215.0156 54.0938 C215.5469 54.8438 216.3594 55.1719 217.1719 55.1719 C218.5625 55.1719 219.8594 54.2188 219.8594 52.4844 C219.8594 50.9531 218.875 50.1094 217.125 50 C218.5625 49.6094 219.1875 48.4531 219.1875 47.4844 C219.1875 46.0938 218.1562 45.3125 216.9062 45.3125 C215.2969 45.3125 214.2188 46.5469 214.2188 48.5156 L214.2031 54.9062 Z" style="fill:black; stroke:none;"
      /><rect x="283" width="5" height="10" y="78" style="stroke:none;"
      /><path d="M284.8906 86.6875 C284.4844 86.6875 284.1562 87.0469 284.1562 87.4219 C284.1562 87.8125 284.4844 88.1562 284.8906 88.1562 C285.2969 88.1562 285.6406 87.8125 285.6406 87.4219 C285.6406 87.0469 285.2969 86.6875 284.8906 86.6875 ZM286.4688 80.5781 C286.7188 80.8906 286.875 81.2656 286.8906 81.6562 C286.8906 82.1875 286.625 82.5 286.0312 82.7656 L285.4062 83.0156 C284.6406 83.3125 284.3906 83.5469 284.3906 83.9375 C284.3906 84.1094 284.4531 84.3438 284.5781 84.8125 L284.7344 85.3438 L285.1094 85.3438 L285.0938 84.5312 C285.0938 84.0938 285.2031 83.9688 285.7812 83.7344 L286.2031 83.5625 C287.0312 83.2188 287.4531 82.6875 287.4531 81.8438 C287.4531 80.1562 285.6562 79.1875 284.5 79.0312 C284.1094 79.125 283.9062 79.2969 283.9062 79.6406 C283.9062 79.9375 284.0625 80.1562 284.7188 80.2656 L286.4688 80.5781 Z" style="fill:black; stroke:none;"
      /><rect x="267" width="6" height="13" y="84" style="stroke:none;"
      /><path d="M269.0938 90.2031 C269.0938 88.6562 269.75 87.8125 270.7969 87.8125 C271.7188 87.8125 272.2656 88.4531 272.2656 89.5156 C272.2656 90.7188 271.5 91.4375 270.1875 91.7031 L270.2969 92.3125 C272.2188 92.2344 272.9375 93.2188 272.9375 94.4375 C272.9375 95.625 272.2344 96.4219 270.9531 96.4219 C270.25 96.4219 269.6562 96.1562 269.0938 95.7188 L269.0938 90.2031 ZM268.2031 96.9062 L268.1094 99.375 L268.2656 99.4844 L269.1562 99.2656 L269.0156 96.0938 C269.5469 96.8438 270.3594 97.1719 271.1719 97.1719 C272.5625 97.1719 273.8594 96.2188 273.8594 94.4844 C273.8594 92.9531 272.875 92.1094 271.125 92 C272.5625 91.6094 273.1875 90.4531 273.1875 89.4844 C273.1875 88.0938 272.1562 87.3125 270.9062 87.3125 C269.2969 87.3125 268.2188 88.5469 268.2188 90.5156 L268.2031 96.9062 Z" style="fill:black; stroke:none;"
      /><rect x="276" width="5" height="10" y="60" style="stroke:none;"
      /><path d="M277.8906 68.6875 C277.4844 68.6875 277.1562 69.0469 277.1562 69.4219 C277.1562 69.8125 277.4844 70.1562 277.8906 70.1562 C278.2969 70.1562 278.6406 69.8125 278.6406 69.4219 C278.6406 69.0469 278.2969 68.6875 277.8906 68.6875 ZM279.4688 62.5781 C279.7188 62.8906 279.875 63.2656 279.8906 63.6562 C279.8906 64.1875 279.625 64.5 279.0312 64.7656 L278.4062 65.0156 C277.6406 65.3125 277.3906 65.5469 277.3906 65.9375 C277.3906 66.1094 277.4531 66.3438 277.5781 66.8125 L277.7344 67.3438 L278.1094 67.3438 L278.0938 66.5312 C278.0938 66.0938 278.2031 65.9688 278.7812 65.7344 L279.2031 65.5625 C280.0312 65.2188 280.4531 64.6875 280.4531 63.8438 C280.4531 62.1562 278.6562 61.1875 277.5 61.0312 C277.1094 61.125 276.9062 61.2969 276.9062 61.6406 C276.9062 61.9375 277.0625 62.1562 277.7188 62.2656 L279.4688 62.5781 Z" style="fill:black; stroke:none;"
      /><rect x="260" width="6" height="13" y="50" style="stroke:none;"
      /><path d="M262.0938 56.2031 C262.0938 54.6562 262.75 53.8125 263.7969 53.8125 C264.7188 53.8125 265.2656 54.4531 265.2656 55.5156 C265.2656 56.7188 264.5 57.4375 263.1875 57.7031 L263.2969 58.3125 C265.2188 58.2344 265.9375 59.2188 265.9375 60.4375 C265.9375 61.625 265.2344 62.4219 263.9531 62.4219 C263.25 62.4219 262.6562 62.1562 262.0938 61.7188 L262.0938 56.2031 ZM261.2031 62.9062 L261.1094 65.375 L261.2656 65.4844 L262.1562 65.2656 L262.0156 62.0938 C262.5469 62.8438 263.3594 63.1719 264.1719 63.1719 C265.5625 63.1719 266.8594 62.2188 266.8594 60.4844 C266.8594 58.9531 265.875 58.1094 264.125 58 C265.5625 57.6094 266.1875 56.4531 266.1875 55.4844 C266.1875 54.0938 265.1562 53.3125 263.9062 53.3125 C262.2969 53.3125 261.2188 54.5469 261.2188 56.5156 L261.2031 62.9062 Z" style="fill:black; stroke:none;"
      /><rect x="337" width="5" height="10" y="120" style="stroke:none;"
      /><path d="M338.8906 128.6875 C338.4844 128.6875 338.1562 129.0469 338.1562 129.4219 C338.1562 129.8125 338.4844 130.1562 338.8906 130.1562 C339.2969 130.1562 339.6406 129.8125 339.6406 129.4219 C339.6406 129.0469 339.2969 128.6875 338.8906 128.6875 ZM340.4688 122.5781 C340.7188 122.8906 340.875 123.2656 340.8906 123.6562 C340.8906 124.1875 340.625 124.5 340.0312 124.7656 L339.4062 125.0156 C338.6406 125.3125 338.3906 125.5469 338.3906 125.9375 C338.3906 126.1094 338.4531 126.3438 338.5781 126.8125 L338.7344 127.3438 L339.1094 127.3438 L339.0938 126.5312 C339.0938 126.0938 339.2031 125.9688 339.7812 125.7344 L340.2031 125.5625 C341.0312 125.2188 341.4531 124.6875 341.4531 123.8438 C341.4531 122.1562 339.6562 121.1875 338.5 121.0312 C338.1094 121.125 337.9062 121.2969 337.9062 121.6406 C337.9062 121.9375 338.0625 122.1562 338.7188 122.2656 L340.4688 122.5781 Z" style="fill:black; stroke:none;"
      /><rect x="319" width="8" height="8" y="134" style="stroke:none;"
      /><path d="M323.9844 139.7031 C323.9375 140.8906 323.1562 141.6562 322.3125 141.6562 C321.2656 141.6562 320.5 140.6875 320.5 138.7188 C320.5 137.2812 321.1562 136.1562 322.3438 136.1562 C323.1406 136.1562 323.7812 136.6875 324.0938 137.6406 L323.9844 139.7031 ZM325.9062 141.2812 C325.7344 141.375 325.5469 141.4219 325.3438 141.4219 C324.9531 141.4219 324.75 141.2188 324.75 140.4219 C324.75 139.4844 324.9688 137.5312 325.1875 135.8281 L325.0312 135.7188 L324.2344 135.9219 L324.1406 136.7969 C323.7812 136.0312 323.1562 135.6562 322.3906 135.6562 C321.0469 135.6562 319.5625 136.8438 319.5625 138.9531 C319.5625 141.0938 320.7188 142.1719 322.1406 142.1719 C323.0156 142.1719 323.6875 141.8125 324.0938 140.9844 C324.2031 141.8594 324.5156 142.1719 325.0156 142.1719 C325.4688 142.1719 325.7969 141.9062 326.0156 141.5625 L325.9062 141.2812 Z" style="fill:black; stroke:none;"
      /><rect x="328" width="5" height="10" y="94" style="stroke:none;"
      /><path d="M329.8906 102.6875 C329.4844 102.6875 329.1562 103.0469 329.1562 103.4219 C329.1562 103.8125 329.4844 104.1562 329.8906 104.1562 C330.2969 104.1562 330.6406 103.8125 330.6406 103.4219 C330.6406 103.0469 330.2969 102.6875 329.8906 102.6875 ZM331.4688 96.5781 C331.7188 96.8906 331.875 97.2656 331.8906 97.6562 C331.8906 98.1875 331.625 98.5 331.0312 98.7656 L330.4062 99.0156 C329.6406 99.3125 329.3906 99.5469 329.3906 99.9375 C329.3906 100.1094 329.4531 100.3438 329.5781 100.8125 L329.7344 101.3438 L330.1094 101.3438 L330.0938 100.5312 C330.0938 100.0938 330.2031 99.9688 330.7812 99.7344 L331.2031 99.5625 C332.0312 99.2188 332.4531 98.6875 332.4531 97.8438 C332.4531 96.1562 330.6562 95.1875 329.5 95.0312 C329.1094 95.125 328.9062 95.2969 328.9062 95.6406 C328.9062 95.9375 329.0625 96.1562 329.7188 96.2656 L331.4688 96.5781 Z" style="fill:black; stroke:none;"
      /><rect x="309" width="8" height="8" y="82" style="stroke:none;"
      /><path d="M313.9844 87.7031 C313.9375 88.8906 313.1562 89.6562 312.3125 89.6562 C311.2656 89.6562 310.5 88.6875 310.5 86.7188 C310.5 85.2812 311.1562 84.1562 312.3438 84.1562 C313.1406 84.1562 313.7812 84.6875 314.0938 85.6406 L313.9844 87.7031 ZM315.9062 89.2812 C315.7344 89.375 315.5469 89.4219 315.3438 89.4219 C314.9531 89.4219 314.75 89.2188 314.75 88.4219 C314.75 87.4844 314.9688 85.5312 315.1875 83.8281 L315.0312 83.7188 L314.2344 83.9219 L314.1406 84.7969 C313.7812 84.0312 313.1562 83.6562 312.3906 83.6562 C311.0469 83.6562 309.5625 84.8438 309.5625 86.9531 C309.5625 89.0938 310.7188 90.1719 312.1406 90.1719 C313.0156 90.1719 313.6875 89.8125 314.0938 88.9844 C314.2031 89.8594 314.5156 90.1719 315.0156 90.1719 C315.4688 90.1719 315.7969 89.9062 316.0156 89.5625 L315.9062 89.2812 Z" style="fill:black; stroke:none;"
      /><rect x="382" width="7" height="9" y="109" style="stroke:none;"
      /><path d="M383 114.5156 L385.9531 110.2656 L385.9531 114.5156 L383 114.5156 ZM388.2812 114.5156 L386.8594 114.5156 L386.8594 109.125 L386.2344 109.125 L382.3438 114.6406 L382.3438 115.1875 L385.9531 115.1875 L385.9531 118 L386.8594 118 L386.8594 115.1875 L388.2812 115.1875 L388.2812 114.5156 Z" style="fill:black; stroke:none;"
      /><rect x="369" width="6" height="13" y="107" style="stroke:none;"
      /><path d="M371.0938 113.2031 C371.0938 111.6562 371.75 110.8125 372.7969 110.8125 C373.7188 110.8125 374.2656 111.4531 374.2656 112.5156 C374.2656 113.7188 373.5 114.4375 372.1875 114.7031 L372.2969 115.3125 C374.2188 115.2344 374.9375 116.2188 374.9375 117.4375 C374.9375 118.625 374.2344 119.4219 372.9531 119.4219 C372.25 119.4219 371.6562 119.1562 371.0938 118.7188 L371.0938 113.2031 ZM370.2031 119.9062 L370.1094 122.375 L370.2656 122.4844 L371.1562 122.2656 L371.0156 119.0938 C371.5469 119.8438 372.3594 120.1719 373.1719 120.1719 C374.5625 120.1719 375.8594 119.2188 375.8594 117.4844 C375.8594 115.9531 374.875 115.1094 373.125 115 C374.5625 114.6094 375.1875 113.4531 375.1875 112.4844 C375.1875 111.0938 374.1562 110.3125 372.9062 110.3125 C371.2969 110.3125 370.2188 111.5469 370.2188 113.5156 L370.2031 119.9062 Z" style="fill:black; stroke:none;"
      /><rect x="434" width="7" height="9" y="109" style="stroke:none;"
      /><path d="M435 114.5156 L437.9531 110.2656 L437.9531 114.5156 L435 114.5156 ZM440.2812 114.5156 L438.8594 114.5156 L438.8594 109.125 L438.2344 109.125 L434.3438 114.6406 L434.3438 115.1875 L437.9531 115.1875 L437.9531 118 L438.8594 118 L438.8594 115.1875 L440.2812 115.1875 L440.2812 114.5156 Z" style="fill:black; stroke:none;"
      /><rect x="421" width="6" height="13" y="107" style="stroke:none;"
      /><path d="M423.0938 113.2031 C423.0938 111.6562 423.75 110.8125 424.7969 110.8125 C425.7188 110.8125 426.2656 111.4531 426.2656 112.5156 C426.2656 113.7188 425.5 114.4375 424.1875 114.7031 L424.2969 115.3125 C426.2188 115.2344 426.9375 116.2188 426.9375 117.4375 C426.9375 118.625 426.2344 119.4219 424.9531 119.4219 C424.25 119.4219 423.6562 119.1562 423.0938 118.7188 L423.0938 113.2031 ZM422.2031 119.9062 L422.1094 122.375 L422.2656 122.4844 L423.1562 122.2656 L423.0156 119.0938 C423.5469 119.8438 424.3594 120.1719 425.1719 120.1719 C426.5625 120.1719 427.8594 119.2188 427.8594 117.4844 C427.8594 115.9531 426.875 115.1094 425.125 115 C426.5625 114.6094 427.1875 113.4531 427.1875 112.4844 C427.1875 111.0938 426.1562 110.3125 424.9062 110.3125 C423.2969 110.3125 422.2188 111.5469 422.2188 113.5156 L422.2031 119.9062 Z" style="fill:black; stroke:none;"
    /></g
  ></g
></svg
>
