<?xml version="1.0"?>
<!DOCTYPE svg PUBLIC '-//W3C//DTD SVG 1.0//EN'
          'http://www.w3.org/TR/2001/REC-SVG-20010904/DTD/svg10.dtd'>
<svg xmlns:xlink="http://www.w3.org/1999/xlink" style="fill-opacity:1; color-rendering:auto; color-interpolation:auto; text-rendering:auto; stroke:black; stroke-linecap:square; stroke-miterlimit:10; shape-rendering:auto; stroke-opacity:1; fill:black; stroke-dasharray:none; font-weight:normal; stroke-width:1; font-family:'Dialog'; font-style:normal; stroke-linejoin:miter; font-size:12px; stroke-dashoffset:0; image-rendering:auto;" viewBox="0 0 186 186" xmlns="http://www.w3.org/2000/svg"
><!--Generated by the Batik Graphics2D SVG Generator--><defs id="genericDefs"
  /><g
  ><defs id="defs1"
    ><clipPath clipPathUnits="userSpaceOnUse" id="clipPath1"
      ><path style="fill-rule:evenodd;" d="M93 82 L104 93 L93 104 L82 93 Z"
      /></clipPath
      ><clipPath clipPathUnits="userSpaceOnUse" id="clipPath2"
      ><path d="M52 145 C52 151.0751 47.0751 156 41 156 C34.9249 156 30 151.0751 30 145 C30 138.9249 34.9249 134 41 134 C47.0751 134 52 138.9249 52 145 Z"
      /></clipPath
      ><clipPath clipPathUnits="userSpaceOnUse" id="clipPath3"
      ><path style="fill-rule:evenodd;" d="M41 30 L43 37 L51 37 L44 42 L47 49 L41 45 L34 49 L37 42 L30 37 L38 37 L41 30 Z"
      /></clipPath
      ><clipPath clipPathUnits="userSpaceOnUse" id="clipPath4"
      ><path style="fill-rule:evenodd;" d="M41 82 L43 89 L51 89 L44 94 L47 101 L41 97 L34 101 L37 94 L30 89 L38 89 L41 82 Z"
      /></clipPath
    ></defs
    ><g style="fill:white; text-rendering:optimizeSpeed; stroke:white;"
    ><rect x="0" width="186" height="186" y="0" style="stroke:none;"
      /><polygon style="fill:none; stroke:black;" points=" 145 93 93 93"
      /><path d="M145 82 C139.5 87.5 150.5 98.5 145 104" style="fill:none; stroke:black;"
      /><polygon style="fill:none; stroke:black;" points=" 93 93 41 145"
      /><polygon style="fill:none; stroke:black;" points=" 93 93 41 41"
      /><polygon style="clip-path:url(#clipPath1); stroke:none;" points=" 93 82 104 93 93 104 82 93"
      /><rect x="82" y="82" width="22" style="clip-path:url(#clipPath1); fill:rgb(0,144,188); stroke:none;" height="11"
      /><rect x="82" y="82" width="22" style="clip-path:url(#clipPath1); fill:none; stroke:black;" height="11"
      /><polygon style="fill:none; stroke:black;" points=" 93 82 104 93 93 104 82 93"
      /><circle style="clip-path:url(#clipPath2); stroke:none;" r="11" cx="41" cy="145"
      /><rect x="30" y="134" width="22" style="clip-path:url(#clipPath2); fill:rgb(255,212,0); stroke:none;" height="22"
      /><rect x="30" y="134" width="22" style="clip-path:url(#clipPath2); fill:none; stroke:black;" height="22"
      /><circle style="fill:none; stroke:black;" r="11" cx="41" cy="145"
      /><polygon style="fill:none; stroke:black;" points=" 41 41 41 93"
      /><polygon style="clip-path:url(#clipPath3); stroke:none;" points=" 41 30 43 37 51 37 44 42 47 49 41 45 34 49 37 42 30 37 38 37 41 30"
      /><rect x="30" y="30" width="22" style="clip-path:url(#clipPath3); fill:rgb(0,166,81); stroke:none;" height="22"
      /><rect x="30" y="30" width="22" style="clip-path:url(#clipPath3); fill:none; stroke:black;" height="22"
      /><polygon style="fill:none; stroke:black;" points=" 41 30 43 37 51 37 44 42 47 49 41 45 34 49 37 42 30 37 38 37 41 30"
      /><polygon style="clip-path:url(#clipPath4); stroke:none;" points=" 41 82 43 89 51 89 44 94 47 101 41 97 34 101 37 94 30 89 38 89 41 82"
      /><rect x="30" y="82" width="22" style="clip-path:url(#clipPath4); fill:rgb(244,121,32); stroke:none;" height="22"
      /><rect x="30" y="82" width="22" style="clip-path:url(#clipPath4); fill:none; stroke:black;" height="22"
      /><polygon style="fill:none; stroke:black;" points=" 41 82 43 89 51 89 44 94 47 101 41 97 34 101 37 94 30 89 38 89 41 82"
      /><rect x="46" y="55" width="6" style="stroke:none;" height="9"
    /></g
    ><g style="font-family:'Serif'; text-rendering:optimizeSpeed; "
    ><path style="stroke:none;" d="M47.4219 63.0938 C48.0781 62.375 48.7031 61.7188 49.0312 61.3438 C50.9219 59.3125 51.5312 58.4688 51.5312 57.3594 C51.5312 56.0156 50.7812 55.0781 49.1562 55.0781 C47.9062 55.0781 46.7969 55.7031 46.5938 56.9688 C46.7188 57.2031 46.9062 57.3438 47.1562 57.3438 C47.4688 57.3438 47.6562 57.1094 47.7969 56.5938 L48.0938 55.6719 C48.3906 55.5938 48.6562 55.5625 48.8906 55.5625 C49.9219 55.5625 50.5469 56.3125 50.5469 57.4219 C50.5469 58.4375 49.9844 59.4219 48.7031 60.9062 C48.125 61.5781 47.3906 62.4375 46.6406 63.2812 L46.6406 64 L51.9219 64 L51.9219 63.0938 L47.4219 63.0938 Z"
      /><rect x="46" y="67" width="6" style="fill:white; stroke:none;" height="13"
      /><path style="stroke:none;" d="M48.0938 73.2031 C48.0938 71.6562 48.75 70.8125 49.7969 70.8125 C50.7188 70.8125 51.2656 71.4531 51.2656 72.5156 C51.2656 73.7188 50.5 74.4375 49.1875 74.7031 L49.2969 75.3125 C51.2188 75.2344 51.9375 76.2188 51.9375 77.4375 C51.9375 78.625 51.2344 79.4219 49.9531 79.4219 C49.25 79.4219 48.6562 79.1562 48.0938 78.7188 L48.0938 73.2031 ZM47.2031 79.9062 L47.1094 82.375 L47.2656 82.4844 L48.1562 82.2656 L48.0156 79.0938 C48.5469 79.8438 49.3594 80.1719 50.1719 80.1719 C51.5625 80.1719 52.8594 79.2188 52.8594 77.4844 C52.8594 75.9531 51.875 75.1094 50.125 75 C51.5625 74.6094 52.1875 73.4531 52.1875 72.4844 C52.1875 71.0938 51.1562 70.3125 49.9062 70.3125 C48.2969 70.3125 47.2188 71.5469 47.2188 73.5156 L47.2031 79.9062 Z"
      /><rect x="79" y="110" width="6" style="fill:white; stroke:none;" height="9"
      /><path style="stroke:none;" d="M80.4219 118.0938 C81.0781 117.375 81.7031 116.7188 82.0312 116.3438 C83.9219 114.3125 84.5312 113.4688 84.5312 112.3594 C84.5312 111.0156 83.7812 110.0781 82.1562 110.0781 C80.9062 110.0781 79.7969 110.7031 79.5938 111.9688 C79.7188 112.2031 79.9062 112.3438 80.1562 112.3438 C80.4688 112.3438 80.6562 112.1094 80.7969 111.5938 L81.0938 110.6719 C81.3906 110.5938 81.6562 110.5625 81.8906 110.5625 C82.9219 110.5625 83.5469 111.3125 83.5469 112.4219 C83.5469 113.4375 82.9844 114.4219 81.7031 115.9062 C81.125 116.5781 80.3906 117.4375 79.6406 118.2812 L79.6406 119 L84.9219 119 L84.9219 118.0938 L80.4219 118.0938 Z"
      /><rect x="60" y="127" width="6" style="fill:white; stroke:none;" height="13"
      /><path style="stroke:none;" d="M62.0938 133.2031 C62.0938 131.6562 62.75 130.8125 63.7969 130.8125 C64.7188 130.8125 65.2656 131.4531 65.2656 132.5156 C65.2656 133.7188 64.5 134.4375 63.1875 134.7031 L63.2969 135.3125 C65.2188 135.2344 65.9375 136.2188 65.9375 137.4375 C65.9375 138.625 65.2344 139.4219 63.9531 139.4219 C63.25 139.4219 62.6562 139.1562 62.0938 138.7188 L62.0938 133.2031 ZM61.2031 139.9062 L61.1094 142.375 L61.2656 142.4844 L62.1562 142.2656 L62.0156 139.0938 C62.5469 139.8438 63.3594 140.1719 64.1719 140.1719 C65.5625 140.1719 66.8594 139.2188 66.8594 137.4844 C66.8594 135.9531 65.875 135.1094 64.125 135 C65.5625 134.6094 66.1875 133.4531 66.1875 132.4844 C66.1875 131.0938 65.1562 130.3125 63.9062 130.3125 C62.2969 130.3125 61.2188 131.5469 61.2188 133.5156 L61.2031 139.9062 Z"
      /><rect x="67" y="77" width="6" style="fill:white; stroke:none;" height="10"
      /><path style="stroke:none;" d="M69.2344 78.6562 C69.5156 78.5938 69.7656 78.5625 70.0156 78.5625 C71.0625 78.5625 71.6719 79.1719 71.6719 80.2656 C71.6719 81.4375 70.9062 82.1094 69.7031 82.1094 L69.1875 82.1094 L69.1875 82.6406 L69.7969 82.6406 C71.2188 82.6406 71.9062 83.4219 71.9062 84.6406 C71.9062 85.8438 71.1719 86.6875 69.875 86.6875 C69.6094 86.6875 69.3125 86.6562 69.0156 86.5625 L68.7812 85.8125 C68.625 85.2812 68.5 85.0469 68.1406 85.0469 C67.8906 85.0469 67.7031 85.1719 67.5781 85.4219 C67.8438 86.6406 68.7812 87.1719 70.0312 87.1719 C71.7188 87.1719 72.875 86.125 72.875 84.7031 C72.875 83.5 72.2031 82.625 70.7969 82.375 C71.9531 82.0156 72.6094 81.2031 72.6094 80.2031 C72.6094 78.9219 71.6719 78.0781 70.1875 78.0781 C69.0469 78.0781 68.0625 78.5938 67.7969 79.6875 C67.9062 80 68.1094 80.1094 68.3594 80.1094 C68.7344 80.1094 68.8906 79.8906 69 79.4062 L69.2344 78.6562 Z"
      /><rect x="48" y="59" width="8" style="fill:white; stroke:none;" height="8"
      /><path style="stroke:none;" d="M52.9844 64.7031 C52.9375 65.8906 52.1562 66.6562 51.3125 66.6562 C50.2656 66.6562 49.5 65.6875 49.5 63.7188 C49.5 62.2812 50.1562 61.1562 51.3438 61.1562 C52.1406 61.1562 52.7812 61.6875 53.0938 62.6406 L52.9844 64.7031 ZM54.9062 66.2812 C54.7344 66.375 54.5469 66.4219 54.3438 66.4219 C53.9531 66.4219 53.75 66.2188 53.75 65.4219 C53.75 64.4844 53.9688 62.5312 54.1875 60.8281 L54.0312 60.7188 L53.2344 60.9219 L53.1406 61.7969 C52.7812 61.0312 52.1562 60.6562 51.3906 60.6562 C50.0469 60.6562 48.5625 61.8438 48.5625 63.9531 C48.5625 66.0938 49.7188 67.1719 51.1406 67.1719 C52.0156 67.1719 52.6875 66.8125 53.0938 65.9844 C53.2031 66.8594 53.5156 67.1719 54.0156 67.1719 C54.4688 67.1719 54.7969 66.9062 55.0156 66.5625 L54.9062 66.2812 Z"
      /><rect x="109" y="94" width="6" style="fill:white; stroke:none;" height="13"
      /><path style="stroke:none;" d="M111.0938 100.2031 C111.0938 98.6562 111.75 97.8125 112.7969 97.8125 C113.7188 97.8125 114.2656 98.4531 114.2656 99.5156 C114.2656 100.7188 113.5 101.4375 112.1875 101.7031 L112.2969 102.3125 C114.2188 102.2344 114.9375 103.2188 114.9375 104.4375 C114.9375 105.625 114.2344 106.4219 112.9531 106.4219 C112.25 106.4219 111.6562 106.1562 111.0938 105.7188 L111.0938 100.2031 ZM110.2031 106.9062 L110.1094 109.375 L110.2656 109.4844 L111.1562 109.2656 L111.0156 106.0938 C111.5469 106.8438 112.3594 107.1719 113.1719 107.1719 C114.5625 107.1719 115.8594 106.2188 115.8594 104.4844 C115.8594 102.9531 114.875 102.1094 113.125 102 C114.5625 101.6094 115.1875 100.4531 115.1875 99.4844 C115.1875 98.0938 114.1562 97.3125 112.9062 97.3125 C111.2969 97.3125 110.2188 98.5469 110.2188 100.5156 L110.2031 106.9062 Z"
    /></g
  ></g
></svg
>
