<?xml version="1.0"?>
<!DOCTYPE svg PUBLIC '-//W3C//DTD SVG 1.0//EN'
          'http://www.w3.org/TR/2001/REC-SVG-20010904/DTD/svg10.dtd'>
<svg xmlns:xlink="http://www.w3.org/1999/xlink" style="fill-opacity:1; color-rendering:auto; color-interpolation:auto; text-rendering:auto; stroke:black; stroke-linecap:square; stroke-miterlimit:10; shape-rendering:auto; stroke-opacity:1; fill:black; stroke-dasharray:none; font-weight:normal; stroke-width:1; font-family:'Dialog'; font-style:normal; stroke-linejoin:miter; font-size:12px; stroke-dashoffset:0; image-rendering:auto;" viewBox="0 0 446 160" xmlns="http://www.w3.org/2000/svg"
><!--Generated by the Batik Graphics2D SVG Generator--><defs id="genericDefs"
  /><g
  ><defs id="defs1"
    ><clipPath clipPathUnits="userSpaceOnUse" id="clipPath1"
      ><path style="fill-rule:evenodd;" d="M364 93 L358 100 L347 100 L342 93 L347 85 L358 85 L364 93 Z"
      /></clipPath
      ><clipPath clipPathUnits="userSpaceOnUse" id="clipPath2"
      ><path style="fill-rule:evenodd;" d="M312 119 L306 126 L295 126 L290 119 L295 111 L306 111 L312 119 Z"
      /></clipPath
      ><clipPath clipPathUnits="userSpaceOnUse" id="clipPath3"
      ><path style="fill-rule:evenodd;" d="M260 119 L254 126 L243 126 L238 119 L243 111 L254 111 L260 119 Z"
      /></clipPath
      ><clipPath clipPathUnits="userSpaceOnUse" id="clipPath4"
      ><path style="fill-rule:evenodd;" d="M312 67 L306 74 L295 74 L290 67 L295 59 L306 59 L312 67 Z"
      /></clipPath
      ><clipPath clipPathUnits="userSpaceOnUse" id="clipPath5"
      ><path style="fill-rule:evenodd;" d="M260 67 L254 74 L243 74 L238 67 L243 59 L254 59 L260 67 Z"
      /></clipPath
      ><clipPath clipPathUnits="userSpaceOnUse" id="clipPath6"
      ><path d="M208 93 C208 99.0751 203.0751 104 197 104 C190.9249 104 186 99.0751 186 93 C186 86.9249 190.9249 82 197 82 C203.0751 82 208 86.9249 208 93 Z"
      /></clipPath
      ><clipPath clipPathUnits="userSpaceOnUse" id="clipPath7"
      ><path d="M156 93 C156 99.0751 151.0751 104 145 104 C138.9249 104 134 99.0751 134 93 C134 86.9249 138.9249 82 145 82 C151.0751 82 156 86.9249 156 93 Z"
      /></clipPath
      ><clipPath clipPathUnits="userSpaceOnUse" id="clipPath8"
      ><path d="M104 119 C104 125.0751 99.0751 130 93 130 C86.9249 130 82 125.0751 82 119 C82 112.9249 86.9249 108 93 108 C99.0751 108 104 112.9249 104 119 Z"
      /></clipPath
      ><clipPath clipPathUnits="userSpaceOnUse" id="clipPath9"
      ><path d="M52 119 C52 125.0751 47.0751 130 41 130 C34.9249 130 30 125.0751 30 119 C30 112.9249 34.9249 108 41 108 C47.0751 108 52 112.9249 52 119 Z"
      /></clipPath
      ><clipPath clipPathUnits="userSpaceOnUse" id="clipPath10"
      ><path d="M82 56 L104 56 L104 78 L82 78 L82 56 Z"
      /></clipPath
      ><clipPath clipPathUnits="userSpaceOnUse" id="clipPath11"
      ><path style="fill-rule:evenodd;" d="M208 41 L202 48 L191 48 L186 41 L191 33 L202 33 L208 41 Z"
      /></clipPath
      ><clipPath clipPathUnits="userSpaceOnUse" id="clipPath12"
      ><path d="M134 30 L156 30 L156 52 L134 52 L134 30 Z"
      /></clipPath
    ></defs
    ><g style="fill:white; text-rendering:optimizeSpeed; stroke:white;"
    ><rect x="0" width="446" height="160" y="0" style="stroke:none;"
      /><polygon style="fill:none; stroke:black;" points=" 405 93 353 93"
      /><path d="M405 82 C399.5 87.5 410.5 98.5 405 104" style="fill:none; stroke:black;"
      /><polygon style="fill:none; stroke:black;" points=" 353 93 301 119"
      /><polygon style="fill:none; stroke:black;" points=" 353 93 301 67"
      /><polygon style="clip-path:url(#clipPath1); stroke:none;" points=" 364 93 358 100 347 100 342 93 347 85 358 85 364 93"
      /><rect x="342" y="82" width="22" style="clip-path:url(#clipPath1); fill:rgb(255,212,0); stroke:none;" height="22"
      /><rect x="342" y="82" width="22" style="clip-path:url(#clipPath1); fill:none; stroke:black;" height="22"
      /><polygon style="fill:none; stroke:black;" points=" 364 93 358 100 347 100 342 93 347 85 358 85 364 93"
    /></g
    ><g style="text-rendering:optimizeSpeed; font-size:14px; font-family:'SansSerif';"
    ><path style="stroke:none;" d="M345.6094 121 L352.0625 121 L352.0625 119.8906 L349.2344 119.8906 C348.7031 119.8906 348.0781 119.9531 347.5469 119.9844 C349.9531 117.7031 351.5625 115.625 351.5625 113.5781 C351.5625 111.75 350.4219 110.5469 348.5781 110.5469 C347.2812 110.5469 346.4062 111.1406 345.5625 112.0469 L346.2969 112.7812 C346.8594 112.1094 347.5938 111.5938 348.4375 111.5938 C349.7031 111.5938 350.3125 112.4531 350.3125 113.625 C350.3125 115.3906 348.8438 117.4375 345.6094 120.25 L345.6094 121 ZM357.8168 121.1875 C359.9106 121.1875 361.5043 120.0625 361.5043 116.7656 L361.5043 110.7188 L360.2543 110.7188 L360.2543 116.7969 C360.2543 119.2812 359.1762 120.0469 357.8168 120.0469 C356.4731 120.0469 355.4262 119.2812 355.4262 116.7969 L355.4262 110.7188 L354.1293 110.7188 L354.1293 116.7656 C354.1293 120.0625 355.7231 121.1875 357.8168 121.1875 Z"
      /><polygon style="fill:none;" points=" 301 119 249 119"
    /></g
    ><g style="fill:white; text-rendering:optimizeSpeed; stroke:white;"
    ><polygon style="stroke:none; clip-path:url(#clipPath2);" points=" 312 119 306 126 295 126 290 119 295 111 306 111 312 119"
      /><rect x="290" y="108" width="22" style="clip-path:url(#clipPath2); fill:rgb(255,212,0); stroke:none;" height="22"
      /><rect x="290" y="108" width="22" style="clip-path:url(#clipPath2); fill:none; stroke:black;" height="22"
      /><polygon style="fill:none; stroke:black;" points=" 312 119 306 126 295 126 290 119 295 111 306 111 312 119"
      /><polygon style="clip-path:url(#clipPath3); stroke:none;" points=" 260 119 254 126 243 126 238 119 243 111 254 111 260 119"
      /><rect x="238" y="108" width="22" style="clip-path:url(#clipPath3); fill:rgb(255,212,0); stroke:none;" height="22"
      /><rect x="238" y="108" width="22" style="clip-path:url(#clipPath3); fill:none; stroke:black;" height="22"
      /><polygon style="fill:none; stroke:black;" points=" 260 119 254 126 243 126 238 119 243 111 254 111 260 119"
      /><rect x="278" width="7" height="9" y="122" style="stroke:none;"
      /><path d="M279 127.5156 L281.9531 123.2656 L281.9531 127.5156 L279 127.5156 ZM284.2812 127.5156 L282.8594 127.5156 L282.8594 122.125 L282.2344 122.125 L278.3438 127.6406 L278.3438 128.1875 L281.9531 128.1875 L281.9531 131 L282.8594 131 L282.8594 128.1875 L284.2812 128.1875 L284.2812 127.5156 Z" style="fill:black; stroke:none;"
      /><rect x="265" width="5" height="10" y="122" style="stroke:none;"
      /><path d="M266.8906 130.6875 C266.4844 130.6875 266.1562 131.0469 266.1562 131.4219 C266.1562 131.8125 266.4844 132.1562 266.8906 132.1562 C267.2969 132.1562 267.6406 131.8125 267.6406 131.4219 C267.6406 131.0469 267.2969 130.6875 266.8906 130.6875 ZM268.4688 124.5781 C268.7188 124.8906 268.875 125.2656 268.8906 125.6562 C268.8906 126.1875 268.625 126.5 268.0312 126.7656 L267.4062 127.0156 C266.6406 127.3125 266.3906 127.5469 266.3906 127.9375 C266.3906 128.1094 266.4531 128.3438 266.5781 128.8125 L266.7344 129.3438 L267.1094 129.3438 L267.0938 128.5312 C267.0938 128.0938 267.2031 127.9688 267.7812 127.7344 L268.2031 127.5625 C269.0312 127.2188 269.4531 126.6875 269.4531 125.8438 C269.4531 124.1562 267.6562 123.1875 266.5 123.0312 C266.1094 123.125 265.9062 123.2969 265.9062 123.6406 C265.9062 123.9375 266.0625 124.1562 266.7188 124.2656 L268.4688 124.5781 Z" style="fill:black; stroke:none;"
      /><polygon style="fill:none; stroke:black;" points=" 301 67 249 67"
      /><polygon style="clip-path:url(#clipPath4); stroke:none;" points=" 312 67 306 74 295 74 290 67 295 59 306 59 312 67"
      /><rect x="290" y="56" width="22" style="clip-path:url(#clipPath4); fill:rgb(0,166,81); stroke:none;" height="22"
      /><rect x="290" y="56" width="22" style="clip-path:url(#clipPath4); fill:none; stroke:black;" height="22"
      /><polygon style="fill:none; stroke:black;" points=" 312 67 306 74 295 74 290 67 295 59 306 59 312 67"
      /><polygon style="fill:none; stroke:black;" points=" 249 67 197 93"
      /><polygon style="fill:none; stroke:black;" points=" 249 67 197 41"
      /><polygon style="clip-path:url(#clipPath5); stroke:none;" points=" 260 67 254 74 243 74 238 67 243 59 254 59 260 67"
      /><rect x="238" y="56" width="22" style="clip-path:url(#clipPath5); fill:rgb(0,166,81); stroke:none;" height="22"
      /><rect x="238" y="56" width="22" style="clip-path:url(#clipPath5); fill:none; stroke:black;" height="22"
      /><polygon style="fill:none; stroke:black;" points=" 260 67 254 74 243 74 238 67 243 59 254 59 260 67"
      /><polygon style="fill:none; stroke:black;" points=" 197 93 145 93"
      /><circle r="11" style="clip-path:url(#clipPath6); stroke:none;" cx="197" cy="93"
      /><rect x="186" y="82" width="22" style="clip-path:url(#clipPath6); fill:rgb(0,144,188); stroke:none;" height="22"
      /><rect x="186" y="82" width="22" style="clip-path:url(#clipPath6); fill:none; stroke:black;" height="22"
      /><circle r="11" style="fill:none; stroke:black;" cx="197" cy="93"
      /><polygon style="fill:none; stroke:black;" points=" 145 93 93 119"
      /><polygon style="fill:none; stroke:black;" points=" 145 93 93 67"
      /><circle r="11" style="clip-path:url(#clipPath7); stroke:none;" cx="145" cy="93"
      /><rect x="134" y="82" width="22" style="clip-path:url(#clipPath7); fill:rgb(255,212,0); stroke:none;" height="22"
      /><rect x="134" y="82" width="22" style="clip-path:url(#clipPath7); fill:none; stroke:black;" height="22"
      /><circle r="11" style="fill:none; stroke:black;" cx="145" cy="93"
      /><polygon style="fill:none; stroke:black;" points=" 93 119 41 119"
      /><circle r="11" style="clip-path:url(#clipPath8); stroke:none;" cx="93" cy="119"
      /><rect x="82" y="108" width="22" style="clip-path:url(#clipPath8); fill:rgb(0,144,188); stroke:none;" height="22"
      /><rect x="82" y="108" width="22" style="clip-path:url(#clipPath8); fill:none; stroke:black;" height="22"
      /><circle r="11" style="fill:none; stroke:black;" cx="93" cy="119"
      /><circle r="11" style="clip-path:url(#clipPath9); stroke:none;" cx="41" cy="119"
      /><rect x="30" y="108" width="22" style="clip-path:url(#clipPath9); fill:rgb(0,144,188); stroke:none;" height="22"
      /><rect x="30" y="108" width="22" style="clip-path:url(#clipPath9); fill:none; stroke:black;" height="22"
      /><circle r="11" style="fill:none; stroke:black;" cx="41" cy="119"
      /><rect x="71" width="6" height="9" y="122" style="stroke:none;"
      /><path d="M72.4219 130.0938 C73.0781 129.375 73.7031 128.7188 74.0312 128.3438 C75.9219 126.3125 76.5312 125.4688 76.5312 124.3594 C76.5312 123.0156 75.7812 122.0781 74.1562 122.0781 C72.9062 122.0781 71.7969 122.7031 71.5938 123.9688 C71.7188 124.2031 71.9062 124.3438 72.1562 124.3438 C72.4688 124.3438 72.6562 124.1094 72.7969 123.5938 L73.0938 122.6719 C73.3906 122.5938 73.6562 122.5625 73.8906 122.5625 C74.9219 122.5625 75.5469 123.3125 75.5469 124.4219 C75.5469 125.4375 74.9844 126.4219 73.7031 127.9062 C73.125 128.5781 72.3906 129.4375 71.6406 130.2812 L71.6406 131 L76.9219 131 L76.9219 130.0938 L72.4219 130.0938 Z" style="fill:black; stroke:none;"
      /><rect x="56" width="8" height="8" y="123" style="stroke:none;"
      /><path d="M60.9844 128.7031 C60.9375 129.8906 60.1562 130.6562 59.3125 130.6562 C58.2656 130.6562 57.5 129.6875 57.5 127.7188 C57.5 126.2812 58.1562 125.1562 59.3438 125.1562 C60.1406 125.1562 60.7812 125.6875 61.0938 126.6406 L60.9844 128.7031 ZM62.9062 130.2812 C62.7344 130.375 62.5469 130.4219 62.3438 130.4219 C61.9531 130.4219 61.75 130.2188 61.75 129.4219 C61.75 128.4844 61.9688 126.5312 62.1875 124.8281 L62.0312 124.7188 L61.2344 124.9219 L61.1406 125.7969 C60.7812 125.0312 60.1562 124.6562 59.3906 124.6562 C58.0469 124.6562 56.5625 125.8438 56.5625 127.9531 C56.5625 130.0938 57.7188 131.1719 59.1406 131.1719 C60.0156 131.1719 60.6875 130.8125 61.0938 129.9844 C61.2031 130.8594 61.5156 131.1719 62.0156 131.1719 C62.4688 131.1719 62.7969 130.9062 63.0156 130.5625 L62.9062 130.2812 Z" style="fill:black; stroke:none;"
      /><rect x="82" y="56" width="22" style="clip-path:url(#clipPath10); stroke:none;" height="22"
      /><rect x="82" y="56" width="22" style="clip-path:url(#clipPath10); fill:rgb(0,144,188); stroke:none;" height="22"
      /><rect x="82" y="56" width="22" style="clip-path:url(#clipPath10); fill:none; stroke:black;" height="22"
      /><rect x="82" y="56" width="22" style="fill:none; stroke:black;" height="22"
      /><rect x="127" width="6" height="9" y="104" style="stroke:none;"
      /><path d="M128.4219 112.0938 C129.0781 111.375 129.7031 110.7188 130.0312 110.3438 C131.9219 108.3125 132.5312 107.4688 132.5312 106.3594 C132.5312 105.0156 131.7812 104.0781 130.1562 104.0781 C128.9062 104.0781 127.7969 104.7031 127.5938 105.9688 C127.7188 106.2031 127.9062 106.3438 128.1562 106.3438 C128.4688 106.3438 128.6562 106.1094 128.7969 105.5938 L129.0938 104.6719 C129.3906 104.5938 129.6562 104.5625 129.8906 104.5625 C130.9219 104.5625 131.5469 105.3125 131.5469 106.4219 C131.5469 107.4375 130.9844 108.4219 129.7031 109.9062 C129.125 110.5781 128.3906 111.4375 127.6406 112.2812 L127.6406 113 L132.9219 113 L132.9219 112.0938 L128.4219 112.0938 Z" style="fill:black; stroke:none;"
      /><rect x="110" width="8" height="8" y="113" style="stroke:none;"
      /><path d="M114.9844 118.7031 C114.9375 119.8906 114.1562 120.6562 113.3125 120.6562 C112.2656 120.6562 111.5 119.6875 111.5 117.7188 C111.5 116.2812 112.1562 115.1562 113.3438 115.1562 C114.1406 115.1562 114.7812 115.6875 115.0938 116.6406 L114.9844 118.7031 ZM116.9062 120.2812 C116.7344 120.375 116.5469 120.4219 116.3438 120.4219 C115.9531 120.4219 115.75 120.2188 115.75 119.4219 C115.75 118.4844 115.9688 116.5312 116.1875 114.8281 L116.0312 114.7188 L115.2344 114.9219 L115.1406 115.7969 C114.7812 115.0312 114.1562 114.6562 113.3906 114.6562 C112.0469 114.6562 110.5625 115.8438 110.5625 117.9531 C110.5625 120.0938 111.7188 121.1719 113.1406 121.1719 C114.0156 121.1719 114.6875 120.8125 115.0938 119.9844 C115.2031 120.8594 115.5156 121.1719 116.0156 121.1719 C116.4688 121.1719 116.7969 120.9062 117.0156 120.5625 L116.9062 120.2812 Z" style="fill:black; stroke:none;"
      /><rect x="120" width="6" height="10" y="86" style="stroke:none;"
      /><path d="M122.2344 87.6562 C122.5156 87.5938 122.7656 87.5625 123.0156 87.5625 C124.0625 87.5625 124.6719 88.1719 124.6719 89.2656 C124.6719 90.4375 123.9062 91.1094 122.7031 91.1094 L122.1875 91.1094 L122.1875 91.6406 L122.7969 91.6406 C124.2188 91.6406 124.9062 92.4219 124.9062 93.6406 C124.9062 94.8438 124.1719 95.6875 122.875 95.6875 C122.6094 95.6875 122.3125 95.6562 122.0156 95.5625 L121.7812 94.8125 C121.625 94.2812 121.5 94.0469 121.1406 94.0469 C120.8906 94.0469 120.7031 94.1719 120.5781 94.4219 C120.8438 95.6406 121.7812 96.1719 123.0312 96.1719 C124.7188 96.1719 125.875 95.125 125.875 93.7031 C125.875 92.5 125.2031 91.625 123.7969 91.375 C124.9531 91.0156 125.6094 90.2031 125.6094 89.2031 C125.6094 87.9219 124.6719 87.0781 123.1875 87.0781 C122.0469 87.0781 121.0625 87.5938 120.7969 88.6875 C120.9062 89 121.1094 89.1094 121.3594 89.1094 C121.7344 89.1094 121.8906 88.8906 122 88.4062 L122.2344 87.6562 Z" style="fill:black; stroke:none;"
      /><rect x="103" width="8" height="8" y="79" style="stroke:none;"
      /><path d="M107.9844 84.7031 C107.9375 85.8906 107.1562 86.6562 106.3125 86.6562 C105.2656 86.6562 104.5 85.6875 104.5 83.7188 C104.5 82.2812 105.1562 81.1562 106.3438 81.1562 C107.1406 81.1562 107.7812 81.6875 108.0938 82.6406 L107.9844 84.7031 ZM109.9062 86.2812 C109.7344 86.375 109.5469 86.4219 109.3438 86.4219 C108.9531 86.4219 108.75 86.2188 108.75 85.4219 C108.75 84.4844 108.9688 82.5312 109.1875 80.8281 L109.0312 80.7188 L108.2344 80.9219 L108.1406 81.7969 C107.7812 81.0312 107.1562 80.6562 106.3906 80.6562 C105.0469 80.6562 103.5625 81.8438 103.5625 83.9531 C103.5625 86.0938 104.7188 87.1719 106.1406 87.1719 C107.0156 87.1719 107.6875 86.8125 108.0938 85.9844 C108.2031 86.8594 108.5156 87.1719 109.0156 87.1719 C109.4688 87.1719 109.7969 86.9062 110.0156 86.5625 L109.9062 86.2812 Z" style="fill:black; stroke:none;"
      /><rect x="175" width="6" height="10" y="96" style="stroke:none;"
      /><path d="M177.2344 97.6562 C177.5156 97.5938 177.7656 97.5625 178.0156 97.5625 C179.0625 97.5625 179.6719 98.1719 179.6719 99.2656 C179.6719 100.4375 178.9062 101.1094 177.7031 101.1094 L177.1875 101.1094 L177.1875 101.6406 L177.7969 101.6406 C179.2188 101.6406 179.9062 102.4219 179.9062 103.6406 C179.9062 104.8438 179.1719 105.6875 177.875 105.6875 C177.6094 105.6875 177.3125 105.6562 177.0156 105.5625 L176.7812 104.8125 C176.625 104.2812 176.5 104.0469 176.1406 104.0469 C175.8906 104.0469 175.7031 104.1719 175.5781 104.4219 C175.8438 105.6406 176.7812 106.1719 178.0312 106.1719 C179.7188 106.1719 180.875 105.125 180.875 103.7031 C180.875 102.5 180.2031 101.625 178.7969 101.375 C179.9531 101.0156 180.6094 100.2031 180.6094 99.2031 C180.6094 97.9219 179.6719 97.0781 178.1875 97.0781 C177.0469 97.0781 176.0625 97.5938 175.7969 98.6875 C175.9062 99 176.1094 99.1094 176.3594 99.1094 C176.7344 99.1094 176.8906 98.8906 177 98.4062 L177.2344 97.6562 Z" style="fill:black; stroke:none;"
      /><rect x="160" width="8" height="8" y="97" style="stroke:none;"
      /><path d="M164.9844 102.7031 C164.9375 103.8906 164.1562 104.6562 163.3125 104.6562 C162.2656 104.6562 161.5 103.6875 161.5 101.7188 C161.5 100.2812 162.1562 99.1562 163.3438 99.1562 C164.1406 99.1562 164.7812 99.6875 165.0938 100.6406 L164.9844 102.7031 ZM166.9062 104.2812 C166.7344 104.375 166.5469 104.4219 166.3438 104.4219 C165.9531 104.4219 165.75 104.2188 165.75 103.4219 C165.75 102.4844 165.9688 100.5312 166.1875 98.8281 L166.0312 98.7188 L165.2344 98.9219 L165.1406 99.7969 C164.7812 99.0312 164.1562 98.6562 163.3906 98.6562 C162.0469 98.6562 160.5625 99.8438 160.5625 101.9531 C160.5625 104.0938 161.7188 105.1719 163.1406 105.1719 C164.0156 105.1719 164.6875 104.8125 165.0938 103.9844 C165.2031 104.8594 165.5156 105.1719 166.0156 105.1719 C166.4688 105.1719 166.7969 104.9062 167.0156 104.5625 L166.9062 104.2812 Z" style="fill:black; stroke:none;"
      /><polygon style="fill:none; stroke:black;" points=" 197 41 145 41"
      /><polygon style="clip-path:url(#clipPath11); stroke:none;" points=" 208 41 202 48 191 48 186 41 191 33 202 33 208 41"
      /><rect x="186" y="30" width="22" style="clip-path:url(#clipPath11); fill:rgb(0,166,81); stroke:none;" height="22"
      /><rect x="186" y="30" width="22" style="clip-path:url(#clipPath11); fill:none; stroke:black;" height="22"
      /><polygon style="fill:none; stroke:black;" points=" 208 41 202 48 191 48 186 41 191 33 202 33 208 41"
      /><rect x="134" y="30" width="22" style="clip-path:url(#clipPath12); stroke:none;" height="22"
      /><rect x="134" y="30" width="22" style="clip-path:url(#clipPath12); fill:rgb(0,144,188); stroke:none;" height="22"
      /><rect x="134" y="30" width="22" style="clip-path:url(#clipPath12); fill:none; stroke:black;" height="22"
      /><rect x="134" y="30" width="22" style="fill:none; stroke:black;" height="22"
      /><rect x="175" width="6" height="9" y="44" style="stroke:none;"
      /><path d="M175.6406 44.25 L175.6406 45.1406 L180.2031 45.1406 L176.7812 52.875 L176.8906 53 L177.75 53 L180.875 44.7969 L180.875 44.25 L175.6406 44.25 Z" style="fill:black; stroke:none;"
      /><rect x="160" width="8" height="8" y="45" style="stroke:none;"
      /><path d="M164.9844 50.7031 C164.9375 51.8906 164.1562 52.6562 163.3125 52.6562 C162.2656 52.6562 161.5 51.6875 161.5 49.7188 C161.5 48.2812 162.1562 47.1562 163.3438 47.1562 C164.1406 47.1562 164.7812 47.6875 165.0938 48.6406 L164.9844 50.7031 ZM166.9062 52.2812 C166.7344 52.375 166.5469 52.4219 166.3438 52.4219 C165.9531 52.4219 165.75 52.2188 165.75 51.4219 C165.75 50.4844 165.9688 48.5312 166.1875 46.8281 L166.0312 46.7188 L165.2344 46.9219 L165.1406 47.7969 C164.7812 47.0312 164.1562 46.6562 163.3906 46.6562 C162.0469 46.6562 160.5625 47.8438 160.5625 49.9531 C160.5625 52.0938 161.7188 53.1719 163.1406 53.1719 C164.0156 53.1719 164.6875 52.8125 165.0938 51.9844 C165.2031 52.8594 165.5156 53.1719 166.0156 53.1719 C166.4688 53.1719 166.7969 52.9062 167.0156 52.5625 L166.9062 52.2812 Z" style="fill:black; stroke:none;"
      /><rect x="231" width="6" height="10" y="78" style="stroke:none;"
      /><path d="M233.2344 79.6562 C233.5156 79.5938 233.7656 79.5625 234.0156 79.5625 C235.0625 79.5625 235.6719 80.1719 235.6719 81.2656 C235.6719 82.4375 234.9062 83.1094 233.7031 83.1094 L233.1875 83.1094 L233.1875 83.6406 L233.7969 83.6406 C235.2188 83.6406 235.9062 84.4219 235.9062 85.6406 C235.9062 86.8438 235.1719 87.6875 233.875 87.6875 C233.6094 87.6875 233.3125 87.6562 233.0156 87.5625 L232.7812 86.8125 C232.625 86.2812 232.5 86.0469 232.1406 86.0469 C231.8906 86.0469 231.7031 86.1719 231.5781 86.4219 C231.8438 87.6406 232.7812 88.1719 234.0312 88.1719 C235.7188 88.1719 236.875 87.125 236.875 85.7031 C236.875 84.5 236.2031 83.625 234.7969 83.375 C235.9531 83.0156 236.6094 82.2031 236.6094 81.2031 C236.6094 79.9219 235.6719 79.0781 234.1875 79.0781 C233.0469 79.0781 232.0625 79.5938 231.7969 80.6875 C231.9062 81 232.1094 81.1094 232.3594 81.1094 C232.7344 81.1094 232.8906 80.8906 233 80.4062 L233.2344 79.6562 Z" style="fill:black; stroke:none;"
      /><rect x="214" width="8" height="8" y="87" style="stroke:none;"
      /><path d="M218.9844 92.7031 C218.9375 93.8906 218.1562 94.6562 217.3125 94.6562 C216.2656 94.6562 215.5 93.6875 215.5 91.7188 C215.5 90.2812 216.1562 89.1562 217.3438 89.1562 C218.1406 89.1562 218.7812 89.6875 219.0938 90.6406 L218.9844 92.7031 ZM220.9062 94.2812 C220.7344 94.375 220.5469 94.4219 220.3438 94.4219 C219.9531 94.4219 219.75 94.2188 219.75 93.4219 C219.75 92.4844 219.9688 90.5312 220.1875 88.8281 L220.0312 88.7188 L219.2344 88.9219 L219.1406 89.7969 C218.7812 89.0312 218.1562 88.6562 217.3906 88.6562 C216.0469 88.6562 214.5625 89.8438 214.5625 91.9531 C214.5625 94.0938 215.7188 95.1719 217.1406 95.1719 C218.0156 95.1719 218.6875 94.8125 219.0938 93.9844 C219.2031 94.8594 219.5156 95.1719 220.0156 95.1719 C220.4688 95.1719 220.7969 94.9062 221.0156 94.5625 L220.9062 94.2812 Z" style="fill:black; stroke:none;"
      /><rect x="224" width="6" height="9" y="60" style="stroke:none;"
      /><path d="M224.6406 60.25 L224.6406 61.1406 L229.2031 61.1406 L225.7812 68.875 L225.8906 69 L226.75 69 L229.875 60.7969 L229.875 60.25 L224.6406 60.25 Z" style="fill:black; stroke:none;"
      /><rect x="207" width="8" height="8" y="53" style="stroke:none;"
      /><path d="M211.9844 58.7031 C211.9375 59.8906 211.1562 60.6562 210.3125 60.6562 C209.2656 60.6562 208.5 59.6875 208.5 57.7188 C208.5 56.2812 209.1562 55.1562 210.3438 55.1562 C211.1406 55.1562 211.7812 55.6875 212.0938 56.6406 L211.9844 58.7031 ZM213.9062 60.2812 C213.7344 60.375 213.5469 60.4219 213.3438 60.4219 C212.9531 60.4219 212.75 60.2188 212.75 59.4219 C212.75 58.4844 212.9688 56.5312 213.1875 54.8281 L213.0312 54.7188 L212.2344 54.9219 L212.1406 55.7969 C211.7812 55.0312 211.1562 54.6562 210.3906 54.6562 C209.0469 54.6562 207.5625 55.8438 207.5625 57.9531 C207.5625 60.0938 208.7188 61.1719 210.1406 61.1719 C211.0156 61.1719 211.6875 60.8125 212.0938 59.9844 C212.2031 60.8594 212.5156 61.1719 213.0156 61.1719 C213.4688 61.1719 213.7969 60.9062 214.0156 60.5625 L213.9062 60.2812 Z" style="fill:black; stroke:none;"
      /><rect x="279" width="6" height="10" y="70" style="stroke:none;"
      /><path d="M281.2344 71.6562 C281.5156 71.5938 281.7656 71.5625 282.0156 71.5625 C283.0625 71.5625 283.6719 72.1719 283.6719 73.2656 C283.6719 74.4375 282.9062 75.1094 281.7031 75.1094 L281.1875 75.1094 L281.1875 75.6406 L281.7969 75.6406 C283.2188 75.6406 283.9062 76.4219 283.9062 77.6406 C283.9062 78.8438 283.1719 79.6875 281.875 79.6875 C281.6094 79.6875 281.3125 79.6562 281.0156 79.5625 L280.7812 78.8125 C280.625 78.2812 280.5 78.0469 280.1406 78.0469 C279.8906 78.0469 279.7031 78.1719 279.5781 78.4219 C279.8438 79.6406 280.7812 80.1719 282.0312 80.1719 C283.7188 80.1719 284.875 79.125 284.875 77.7031 C284.875 76.5 284.2031 75.625 282.7969 75.375 C283.9531 75.0156 284.6094 74.2031 284.6094 73.2031 C284.6094 71.9219 283.6719 71.0781 282.1875 71.0781 C281.0469 71.0781 280.0625 71.5938 279.7969 72.6875 C279.9062 73 280.1094 73.1094 280.3594 73.1094 C280.7344 73.1094 280.8906 72.8906 281 72.4062 L281.2344 71.6562 Z" style="fill:black; stroke:none;"
      /><rect x="264" width="8" height="8" y="71" style="stroke:none;"
      /><path d="M268.9844 76.7031 C268.9375 77.8906 268.1562 78.6562 267.3125 78.6562 C266.2656 78.6562 265.5 77.6875 265.5 75.7188 C265.5 74.2812 266.1562 73.1562 267.3438 73.1562 C268.1406 73.1562 268.7812 73.6875 269.0938 74.6406 L268.9844 76.7031 ZM270.9062 78.2812 C270.7344 78.375 270.5469 78.4219 270.3438 78.4219 C269.9531 78.4219 269.75 78.2188 269.75 77.4219 C269.75 76.4844 269.9688 74.5312 270.1875 72.8281 L270.0312 72.7188 L269.2344 72.9219 L269.1406 73.7969 C268.7812 73.0312 268.1562 72.6562 267.3906 72.6562 C266.0469 72.6562 264.5625 73.8438 264.5625 75.9531 C264.5625 78.0938 265.7188 79.1719 267.1406 79.1719 C268.0156 79.1719 268.6875 78.8125 269.0938 77.9844 C269.2031 78.8594 269.5156 79.1719 270.0156 79.1719 C270.4688 79.1719 270.7969 78.9062 271.0156 78.5625 L270.9062 78.2812 Z" style="fill:black; stroke:none;"
      /><rect x="334" width="7" height="9" y="104" style="stroke:none;"
      /><path d="M335 109.5156 L337.9531 105.2656 L337.9531 109.5156 L335 109.5156 ZM340.2812 109.5156 L338.8594 109.5156 L338.8594 104.125 L338.2344 104.125 L334.3438 109.6406 L334.3438 110.1875 L337.9531 110.1875 L337.9531 113 L338.8594 113 L338.8594 110.1875 L340.2812 110.1875 L340.2812 109.5156 Z" style="fill:black; stroke:none;"
      /><rect x="320" width="5" height="10" y="112" style="stroke:none;"
      /><path d="M321.8906 120.6875 C321.4844 120.6875 321.1562 121.0469 321.1562 121.4219 C321.1562 121.8125 321.4844 122.1562 321.8906 122.1562 C322.2969 122.1562 322.6406 121.8125 322.6406 121.4219 C322.6406 121.0469 322.2969 120.6875 321.8906 120.6875 ZM323.4688 114.5781 C323.7188 114.8906 323.875 115.2656 323.8906 115.6562 C323.8906 116.1875 323.625 116.5 323.0312 116.7656 L322.4062 117.0156 C321.6406 117.3125 321.3906 117.5469 321.3906 117.9375 C321.3906 118.1094 321.4531 118.3438 321.5781 118.8125 L321.7344 119.3438 L322.1094 119.3438 L322.0938 118.5312 C322.0938 118.0938 322.2031 117.9688 322.7812 117.7344 L323.2031 117.5625 C324.0312 117.2188 324.4531 116.6875 324.4531 115.8438 C324.4531 114.1562 322.6562 113.1875 321.5 113.0312 C321.1094 113.125 320.9062 113.2969 320.9062 113.6406 C320.9062 113.9375 321.0625 114.1562 321.7188 114.2656 L323.4688 114.5781 Z" style="fill:black; stroke:none;"
      /><rect x="328" width="6" height="10" y="86" style="stroke:none;"
      /><path d="M329.9219 88.1406 L333.6562 88.1406 L333.6562 87.25 L329.4531 87.25 L329.1719 91.3125 L329.5156 91.3906 C329.9219 91.25 330.3906 91.1875 330.8125 91.1875 C332.0781 91.1875 332.9219 91.9531 332.9219 93.3906 C332.9219 94.7812 332.1719 95.6875 330.8281 95.6875 C330.5156 95.6875 330.2344 95.6406 329.9375 95.5625 L329.6875 94.7812 C329.5312 94.2188 329.3906 94.0469 329.0625 94.0469 C328.7969 94.0469 328.5938 94.1719 328.4844 94.4375 C328.7656 95.5938 329.625 96.1719 330.8906 96.1719 C332.7031 96.1719 333.875 94.9844 333.875 93.2812 C333.875 91.5312 332.75 90.5469 331.0938 90.5469 C330.6094 90.5469 330.1719 90.625 329.7344 90.7656 L329.9219 88.1406 Z" style="fill:black; stroke:none;"
      /><rect x="311" width="8" height="8" y="79" style="stroke:none;"
      /><path d="M315.9844 84.7031 C315.9375 85.8906 315.1562 86.6562 314.3125 86.6562 C313.2656 86.6562 312.5 85.6875 312.5 83.7188 C312.5 82.2812 313.1562 81.1562 314.3438 81.1562 C315.1406 81.1562 315.7812 81.6875 316.0938 82.6406 L315.9844 84.7031 ZM317.9062 86.2812 C317.7344 86.375 317.5469 86.4219 317.3438 86.4219 C316.9531 86.4219 316.75 86.2188 316.75 85.4219 C316.75 84.4844 316.9688 82.5312 317.1875 80.8281 L317.0312 80.7188 L316.2344 80.9219 L316.1406 81.7969 C315.7812 81.0312 315.1562 80.6562 314.3906 80.6562 C313.0469 80.6562 311.5625 81.8438 311.5625 83.9531 C311.5625 86.0938 312.7188 87.1719 314.1406 87.1719 C315.0156 87.1719 315.6875 86.8125 316.0938 85.9844 C316.2031 86.8594 316.5156 87.1719 317.0156 87.1719 C317.4688 87.1719 317.7969 86.9062 318.0156 86.5625 L317.9062 86.2812 Z" style="fill:black; stroke:none;"
      /><rect x="369" width="5" height="10" y="96" style="stroke:none;"
      /><path d="M370.8906 104.6875 C370.4844 104.6875 370.1562 105.0469 370.1562 105.4219 C370.1562 105.8125 370.4844 106.1562 370.8906 106.1562 C371.2969 106.1562 371.6406 105.8125 371.6406 105.4219 C371.6406 105.0469 371.2969 104.6875 370.8906 104.6875 ZM372.4688 98.5781 C372.7188 98.8906 372.875 99.2656 372.8906 99.6562 C372.8906 100.1875 372.625 100.5 372.0312 100.7656 L371.4062 101.0156 C370.6406 101.3125 370.3906 101.5469 370.3906 101.9375 C370.3906 102.1094 370.4531 102.3438 370.5781 102.8125 L370.7344 103.3438 L371.1094 103.3438 L371.0938 102.5312 C371.0938 102.0938 371.2031 101.9688 371.7812 101.7344 L372.2031 101.5625 C373.0312 101.2188 373.4531 100.6875 373.4531 99.8438 C373.4531 98.1562 371.6562 97.1875 370.5 97.0312 C370.1094 97.125 369.9062 97.2969 369.9062 97.6406 C369.9062 97.9375 370.0625 98.1562 370.7188 98.2656 L372.4688 98.5781 Z" style="fill:black; stroke:none;"
    /></g
  ></g
></svg
>
