<?xml version="1.0"?>
<!DOCTYPE svg PUBLIC '-//W3C//DTD SVG 1.0//EN'
          'http://www.w3.org/TR/2001/REC-SVG-20010904/DTD/svg10.dtd'>
<svg xmlns:xlink="http://www.w3.org/1999/xlink" style="fill-opacity:1; color-rendering:auto; color-interpolation:auto; text-rendering:auto; stroke:black; stroke-linecap:square; stroke-miterlimit:10; shape-rendering:auto; stroke-opacity:1; fill:black; stroke-dasharray:none; font-weight:normal; stroke-width:1; font-family:'Dialog'; font-style:normal; stroke-linejoin:miter; font-size:12px; stroke-dashoffset:0; image-rendering:auto;" viewBox="0 0 490 186" xmlns="http://www.w3.org/2000/svg"
><!--Generated by the Batik Graphics2D SVG Generator--><defs id="genericDefs"
  /><g
  ><defs id="defs1"
    ><clipPath clipPathUnits="userSpaceOnUse" id="clipPath1"
      ><path d="M386 69 L408 69 L408 91 L386 91 L386 69 Z"
      /></clipPath
      ><clipPath clipPathUnits="userSpaceOnUse" id="clipPath2"
      ><path d="M334 69 L356 69 L356 91 L334 91 L334 69 Z"
      /></clipPath
      ><clipPath clipPathUnits="userSpaceOnUse" id="clipPath3"
      ><path d="M304 80 C304 86.0751 299.0751 91 293 91 C286.9249 91 282 86.0751 282 80 C282 73.9249 286.9249 69 293 69 C299.0751 69 304 73.9249 304 80 Z"
      /></clipPath
      ><clipPath clipPathUnits="userSpaceOnUse" id="clipPath4"
      ><path d="M252 119 C252 125.0751 247.0751 130 241 130 C234.9249 130 230 125.0751 230 119 C230 112.9249 234.9249 108 241 108 C247.0751 108 252 112.9249 252 119 Z"
      /></clipPath
      ><clipPath clipPathUnits="userSpaceOnUse" id="clipPath5"
      ><path d="M178 134 L200 134 L200 156 L178 156 L178 134 Z"
      /></clipPath
      ><clipPath clipPathUnits="userSpaceOnUse" id="clipPath6"
      ><path d="M148 145 C148 151.0751 143.0751 156 137 156 C130.9249 156 126 151.0751 126 145 C126 138.9249 130.9249 134 137 134 C143.0751 134 148 138.9249 148 145 Z"
      /></clipPath
      ><clipPath clipPathUnits="userSpaceOnUse" id="clipPath7"
      ><path d="M178 82 L200 82 L200 104 L178 104 L178 82 Z"
      /></clipPath
      ><clipPath clipPathUnits="userSpaceOnUse" id="clipPath8"
      ><path d="M148 93 C148 99.0751 143.0751 104 137 104 C130.9249 104 126 99.0751 126 93 C126 86.9249 130.9249 82 137 82 C143.0751 82 148 86.9249 148 93 Z"
      /></clipPath
      ><clipPath clipPathUnits="userSpaceOnUse" id="clipPath9"
      ><path d="M252 41 C252 47.0751 247.0751 52 241 52 C234.9249 52 230 47.0751 230 41 C230 34.9249 234.9249 30 241 30 C247.0751 30 252 34.9249 252 41 Z"
      /></clipPath
      ><clipPath clipPathUnits="userSpaceOnUse" id="clipPath10"
      ><path d="M178 30 L200 30 L200 52 L178 52 L178 30 Z"
      /></clipPath
      ><clipPath clipPathUnits="userSpaceOnUse" id="clipPath11"
      ><path d="M148 41 C148 47.0751 143.0751 52 137 52 C130.9249 52 126 47.0751 126 41 C126 34.9249 130.9249 30 137 30 C143.0751 30 148 34.9249 148 41 Z"
      /></clipPath
      ><clipPath clipPathUnits="userSpaceOnUse" id="clipPath12"
      ><path style="fill-rule:evenodd;" d="M41 82 L52 93 L41 104 L30 93 Z"
      /></clipPath
    ></defs
    ><g style="fill:white; text-rendering:optimizeSpeed; stroke:white;"
    ><rect x="0" width="490" height="186" y="0" style="stroke:none;"
      /><polygon style="fill:none; stroke:black;" points=" 449 80 397 80"
      /><path d="M449 69 C443.5 74.5 454.5 85.5 449 91" style="fill:none; stroke:black;"
      /><polygon style="fill:none; stroke:black;" points=" 397 80 345 80"
      /><rect x="386" y="69" width="22" style="clip-path:url(#clipPath1); stroke:none;" height="22"
      /><rect x="386" y="69" width="22" style="clip-path:url(#clipPath1); fill:rgb(0,144,188); stroke:none;" height="22"
      /><rect x="386" y="69" width="22" style="clip-path:url(#clipPath1); fill:none; stroke:black;" height="22"
      /><rect x="386" y="69" width="22" style="fill:none; stroke:black;" height="22"
      /><polygon style="fill:none; stroke:black;" points=" 345 80 293 80"
      /><rect x="334" y="69" width="22" style="clip-path:url(#clipPath2); stroke:none;" height="22"
      /><rect x="334" y="69" width="22" style="clip-path:url(#clipPath2); fill:rgb(0,144,188); stroke:none;" height="22"
      /><rect x="334" y="69" width="22" style="clip-path:url(#clipPath2); fill:none; stroke:black;" height="22"
      /><rect x="334" y="69" width="22" style="fill:none; stroke:black;" height="22"
      /><polygon style="fill:none; stroke:black;" points=" 293 80 241 119"
      /><polygon style="fill:none; stroke:black;" points=" 293 80 241 41"
      /><circle style="clip-path:url(#clipPath3); stroke:none;" r="11" cx="293" cy="80"
      /><rect x="282" y="69" width="22" style="clip-path:url(#clipPath3); fill:rgb(0,166,81); stroke:none;" height="22"
      /><rect x="282" y="69" width="22" style="clip-path:url(#clipPath3); fill:none; stroke:black;" height="22"
      /><circle style="fill:none; stroke:black;" r="11" cx="293" cy="80"
      /><polygon style="fill:none; stroke:black;" points=" 241 119 189 145"
      /><polygon style="fill:none; stroke:black;" points=" 241 119 189 93"
      /><circle style="clip-path:url(#clipPath4); stroke:none;" r="11" cx="241" cy="119"
      /><rect x="230" y="108" width="22" style="clip-path:url(#clipPath4); fill:rgb(0,166,81); stroke:none;" height="22"
      /><rect x="230" y="108" width="22" style="clip-path:url(#clipPath4); fill:none; stroke:black;" height="22"
      /><circle style="fill:none; stroke:black;" r="11" cx="241" cy="119"
      /><polygon style="fill:none; stroke:black;" points=" 189 145 137 145"
      /><rect x="178" y="134" width="22" style="clip-path:url(#clipPath5); stroke:none;" height="22"
      /><rect x="178" y="134" width="22" style="clip-path:url(#clipPath5); fill:rgb(0,144,188); stroke:none;" height="22"
      /><rect x="178" y="134" width="22" style="clip-path:url(#clipPath5); fill:none; stroke:black;" height="22"
      /><rect x="178" y="134" width="22" style="fill:none; stroke:black;" height="22"
      /><circle style="clip-path:url(#clipPath6); stroke:none;" r="11" cx="137" cy="145"
      /><rect x="126" y="134" width="22" style="clip-path:url(#clipPath6); fill:rgb(255,212,0); stroke:none;" height="22"
      /><rect x="126" y="134" width="22" style="clip-path:url(#clipPath6); fill:none; stroke:black;" height="22"
      /><circle style="fill:none; stroke:black;" r="11" cx="137" cy="145"
      /><rect x="166" y="148" width="7" style="stroke:none;" height="9"
    /></g
    ><g style="font-family:'Serif'; text-rendering:optimizeSpeed; "
    ><path style="stroke:none;" d="M167 153.5156 L169.9531 149.2656 L169.9531 153.5156 L167 153.5156 ZM172.2812 153.5156 L170.8594 153.5156 L170.8594 148.125 L170.2344 148.125 L166.3438 153.6406 L166.3438 154.1875 L169.9531 154.1875 L169.9531 157 L170.8594 157 L170.8594 154.1875 L172.2812 154.1875 L172.2812 153.5156 Z"
      /><rect x="153" y="146" width="6" style="fill:white; stroke:none;" height="13"
      /><path style="stroke:none;" d="M155.0938 152.2031 C155.0938 150.6562 155.75 149.8125 156.7969 149.8125 C157.7188 149.8125 158.2656 150.4531 158.2656 151.5156 C158.2656 152.7188 157.5 153.4375 156.1875 153.7031 L156.2969 154.3125 C158.2188 154.2344 158.9375 155.2188 158.9375 156.4375 C158.9375 157.625 158.2344 158.4219 156.9531 158.4219 C156.25 158.4219 155.6562 158.1562 155.0938 157.7188 L155.0938 152.2031 ZM154.2031 158.9062 L154.1094 161.375 L154.2656 161.4844 L155.1562 161.2656 L155.0156 158.0938 C155.5469 158.8438 156.3594 159.1719 157.1719 159.1719 C158.5625 159.1719 159.8594 158.2188 159.8594 156.4844 C159.8594 154.9531 158.875 154.1094 157.125 154 C158.5625 153.6094 159.1875 152.4531 159.1875 151.4844 C159.1875 150.0938 158.1562 149.3125 156.9062 149.3125 C155.2969 149.3125 154.2188 150.5469 154.2188 152.5156 L154.2031 158.9062 Z"
      /><polygon style="fill:none;" points=" 189 93 137 93"
      /><rect x="178" y="82" width="22" style="clip-path:url(#clipPath7); fill:white; stroke:none;" height="22"
      /><rect x="178" y="82" width="22" style="clip-path:url(#clipPath7); fill:rgb(0,144,188); stroke:none;" height="22"
      /><rect x="178" y="82" width="22" style="fill:none; clip-path:url(#clipPath7);" height="22"
      /><rect x="178" width="22" height="22" y="82" style="fill:none;"
      /><circle style="fill:white; clip-path:url(#clipPath8); stroke:none;" r="11" cx="137" cy="93"
      /><rect x="126" y="82" width="22" style="clip-path:url(#clipPath8); fill:rgb(255,212,0); stroke:none;" height="22"
      /><rect x="126" y="82" width="22" style="fill:none; clip-path:url(#clipPath8);" height="22"
      /><circle r="11" style="fill:none;" cx="137" cy="93"
      /><rect x="166" y="96" width="7" style="fill:white; stroke:none;" height="9"
      /><path style="stroke:none;" d="M167 101.5156 L169.9531 97.2656 L169.9531 101.5156 L167 101.5156 ZM172.2812 101.5156 L170.8594 101.5156 L170.8594 96.125 L170.2344 96.125 L166.3438 101.6406 L166.3438 102.1875 L169.9531 102.1875 L169.9531 105 L170.8594 105 L170.8594 102.1875 L172.2812 102.1875 L172.2812 101.5156 Z"
      /><rect x="153" y="94" width="6" style="fill:white; stroke:none;" height="13"
      /><path style="stroke:none;" d="M155.0938 100.2031 C155.0938 98.6562 155.75 97.8125 156.7969 97.8125 C157.7188 97.8125 158.2656 98.4531 158.2656 99.5156 C158.2656 100.7188 157.5 101.4375 156.1875 101.7031 L156.2969 102.3125 C158.2188 102.2344 158.9375 103.2188 158.9375 104.4375 C158.9375 105.625 158.2344 106.4219 156.9531 106.4219 C156.25 106.4219 155.6562 106.1562 155.0938 105.7188 L155.0938 100.2031 ZM154.2031 106.9062 L154.1094 109.375 L154.2656 109.4844 L155.1562 109.2656 L155.0156 106.0938 C155.5469 106.8438 156.3594 107.1719 157.1719 107.1719 C158.5625 107.1719 159.8594 106.2188 159.8594 104.4844 C159.8594 102.9531 158.875 102.1094 157.125 102 C158.5625 101.6094 159.1875 100.4531 159.1875 99.4844 C159.1875 98.0938 158.1562 97.3125 156.9062 97.3125 C155.2969 97.3125 154.2188 98.5469 154.2188 100.5156 L154.2031 106.9062 Z"
      /><rect x="223" y="130" width="6" style="fill:white; stroke:none;" height="9"
      /><path style="stroke:none;" d="M224.4219 138.0938 C225.0781 137.375 225.7031 136.7188 226.0312 136.3438 C227.9219 134.3125 228.5312 133.4688 228.5312 132.3594 C228.5312 131.0156 227.7812 130.0781 226.1562 130.0781 C224.9062 130.0781 223.7969 130.7031 223.5938 131.9688 C223.7188 132.2031 223.9062 132.3438 224.1562 132.3438 C224.4688 132.3438 224.6562 132.1094 224.7969 131.5938 L225.0938 130.6719 C225.3906 130.5938 225.6562 130.5625 225.8906 130.5625 C226.9219 130.5625 227.5469 131.3125 227.5469 132.4219 C227.5469 133.4375 226.9844 134.4219 225.7031 135.9062 C225.125 136.5781 224.3906 137.4375 223.6406 138.2812 L223.6406 139 L228.9219 139 L228.9219 138.0938 L224.4219 138.0938 Z"
      /><rect x="207" y="136" width="6" style="fill:white; stroke:none;" height="13"
      /><path style="stroke:none;" d="M209.0938 142.2031 C209.0938 140.6562 209.75 139.8125 210.7969 139.8125 C211.7188 139.8125 212.2656 140.4531 212.2656 141.5156 C212.2656 142.7188 211.5 143.4375 210.1875 143.7031 L210.2969 144.3125 C212.2188 144.2344 212.9375 145.2188 212.9375 146.4375 C212.9375 147.625 212.2344 148.4219 210.9531 148.4219 C210.25 148.4219 209.6562 148.1562 209.0938 147.7188 L209.0938 142.2031 ZM208.2031 148.9062 L208.1094 151.375 L208.2656 151.4844 L209.1562 151.2656 L209.0156 148.0938 C209.5469 148.8438 210.3594 149.1719 211.1719 149.1719 C212.5625 149.1719 213.8594 148.2188 213.8594 146.4844 C213.8594 144.9531 212.875 144.1094 211.125 144 C212.5625 143.6094 213.1875 142.4531 213.1875 141.4844 C213.1875 140.0938 212.1562 139.3125 210.9062 139.3125 C209.2969 139.3125 208.2188 140.5469 208.2188 142.5156 L208.2031 148.9062 Z"
      /><rect x="215" y="112" width="7" style="fill:white; stroke:none;" height="9"
      /><path style="stroke:none;" d="M216 117.5156 L218.9531 113.2656 L218.9531 117.5156 L216 117.5156 ZM221.2812 117.5156 L219.8594 117.5156 L219.8594 112.125 L219.2344 112.125 L215.3438 117.6406 L215.3438 118.1875 L218.9531 118.1875 L218.9531 121 L219.8594 121 L219.8594 118.1875 L221.2812 118.1875 L221.2812 117.5156 Z"
      /><rect x="200" y="102" width="6" style="fill:white; stroke:none;" height="13"
      /><path style="stroke:none;" d="M202.0938 108.2031 C202.0938 106.6562 202.75 105.8125 203.7969 105.8125 C204.7188 105.8125 205.2656 106.4531 205.2656 107.5156 C205.2656 108.7188 204.5 109.4375 203.1875 109.7031 L203.2969 110.3125 C205.2188 110.2344 205.9375 111.2188 205.9375 112.4375 C205.9375 113.625 205.2344 114.4219 203.9531 114.4219 C203.25 114.4219 202.6562 114.1562 202.0938 113.7188 L202.0938 108.2031 ZM201.2031 114.9062 L201.1094 117.375 L201.2656 117.4844 L202.1562 117.2656 L202.0156 114.0938 C202.5469 114.8438 203.3594 115.1719 204.1719 115.1719 C205.5625 115.1719 206.8594 114.2188 206.8594 112.4844 C206.8594 110.9531 205.875 110.1094 204.125 110 C205.5625 109.6094 206.1875 108.4531 206.1875 107.4844 C206.1875 106.0938 205.1562 105.3125 203.9062 105.3125 C202.2969 105.3125 201.2188 106.5469 201.2188 108.5156 L201.2031 114.9062 Z"
      /><polygon style="fill:none;" points=" 241 41 189 41"
      /><circle style="fill:white; clip-path:url(#clipPath9); stroke:none;" r="11" cx="241" cy="41"
      /><rect x="230" y="30" width="22" style="clip-path:url(#clipPath9); fill:rgb(0,166,81); stroke:none;" height="22"
      /><rect x="230" y="30" width="22" style="fill:none; clip-path:url(#clipPath9);" height="22"
      /><circle r="11" style="fill:none;" cx="241" cy="41"
      /><polygon style="fill:none;" points=" 189 41 137 41"
      /><rect x="178" y="30" width="22" style="clip-path:url(#clipPath10); fill:white; stroke:none;" height="22"
      /><rect x="178" y="30" width="22" style="clip-path:url(#clipPath10); fill:rgb(0,144,188); stroke:none;" height="22"
      /><rect x="178" y="30" width="22" style="fill:none; clip-path:url(#clipPath10);" height="22"
      /><rect x="178" width="22" height="22" y="30" style="fill:none;"
      /><circle style="fill:white; clip-path:url(#clipPath11); stroke:none;" r="11" cx="137" cy="41"
      /><rect x="126" y="30" width="22" style="clip-path:url(#clipPath11); fill:rgb(255,212,0); stroke:none;" height="22"
      /><rect x="126" y="30" width="22" style="fill:none; clip-path:url(#clipPath11);" height="22"
      /><circle r="11" style="fill:none;" cx="137" cy="41"
      /><rect x="166" y="44" width="7" style="fill:white; stroke:none;" height="9"
      /><path style="stroke:none;" d="M167 49.5156 L169.9531 45.2656 L169.9531 49.5156 L167 49.5156 ZM172.2812 49.5156 L170.8594 49.5156 L170.8594 44.125 L170.2344 44.125 L166.3438 49.6406 L166.3438 50.1875 L169.9531 50.1875 L169.9531 53 L170.8594 53 L170.8594 50.1875 L172.2812 50.1875 L172.2812 49.5156 Z"
      /><rect x="153" y="42" width="6" style="fill:white; stroke:none;" height="13"
      /><path style="stroke:none;" d="M155.0938 48.2031 C155.0938 46.6562 155.75 45.8125 156.7969 45.8125 C157.7188 45.8125 158.2656 46.4531 158.2656 47.5156 C158.2656 48.7188 157.5 49.4375 156.1875 49.7031 L156.2969 50.3125 C158.2188 50.2344 158.9375 51.2188 158.9375 52.4375 C158.9375 53.625 158.2344 54.4219 156.9531 54.4219 C156.25 54.4219 155.6562 54.1562 155.0938 53.7188 L155.0938 48.2031 ZM154.2031 54.9062 L154.1094 57.375 L154.2656 57.4844 L155.1562 57.2656 L155.0156 54.0938 C155.5469 54.8438 156.3594 55.1719 157.1719 55.1719 C158.5625 55.1719 159.8594 54.2188 159.8594 52.4844 C159.8594 50.9531 158.875 50.1094 157.125 50 C158.5625 49.6094 159.1875 48.4531 159.1875 47.4844 C159.1875 46.0938 158.1562 45.3125 156.9062 45.3125 C155.2969 45.3125 154.2188 46.5469 154.2188 48.5156 L154.2031 54.9062 Z"
      /><rect x="219" y="44" width="6" style="fill:white; stroke:none;" height="9"
      /><path style="stroke:none;" d="M220.4219 52.0938 C221.0781 51.375 221.7031 50.7188 222.0312 50.3438 C223.9219 48.3125 224.5312 47.4688 224.5312 46.3594 C224.5312 45.0156 223.7812 44.0781 222.1562 44.0781 C220.9062 44.0781 219.7969 44.7031 219.5938 45.9688 C219.7188 46.2031 219.9062 46.3438 220.1562 46.3438 C220.4688 46.3438 220.6562 46.1094 220.7969 45.5938 L221.0938 44.6719 C221.3906 44.5938 221.6562 44.5625 221.8906 44.5625 C222.9219 44.5625 223.5469 45.3125 223.5469 46.4219 C223.5469 47.4375 222.9844 48.4219 221.7031 49.9062 C221.125 50.5781 220.3906 51.4375 219.6406 52.2812 L219.6406 53 L224.9219 53 L224.9219 52.0938 L220.4219 52.0938 Z"
      /><rect x="205" y="42" width="6" style="fill:white; stroke:none;" height="13"
      /><path style="stroke:none;" d="M207.0938 48.2031 C207.0938 46.6562 207.75 45.8125 208.7969 45.8125 C209.7188 45.8125 210.2656 46.4531 210.2656 47.5156 C210.2656 48.7188 209.5 49.4375 208.1875 49.7031 L208.2969 50.3125 C210.2188 50.2344 210.9375 51.2188 210.9375 52.4375 C210.9375 53.625 210.2344 54.4219 208.9531 54.4219 C208.25 54.4219 207.6562 54.1562 207.0938 53.7188 L207.0938 48.2031 ZM206.2031 54.9062 L206.1094 57.375 L206.2656 57.4844 L207.1562 57.2656 L207.0156 54.0938 C207.5469 54.8438 208.3594 55.1719 209.1719 55.1719 C210.5625 55.1719 211.8594 54.2188 211.8594 52.4844 C211.8594 50.9531 210.875 50.1094 209.125 50 C210.5625 49.6094 211.1875 48.4531 211.1875 47.4844 C211.1875 46.0938 210.1562 45.3125 208.9062 45.3125 C207.2969 45.3125 206.2188 46.5469 206.2188 48.5156 L206.2031 54.9062 Z"
      /><rect x="277" y="94" width="6" style="fill:white; stroke:none;" height="10"
      /><path style="stroke:none;" d="M279.2344 95.6562 C279.5156 95.5938 279.7656 95.5625 280.0156 95.5625 C281.0625 95.5625 281.6719 96.1719 281.6719 97.2656 C281.6719 98.4375 280.9062 99.1094 279.7031 99.1094 L279.1875 99.1094 L279.1875 99.6406 L279.7969 99.6406 C281.2188 99.6406 281.9062 100.4219 281.9062 101.6406 C281.9062 102.8438 281.1719 103.6875 279.875 103.6875 C279.6094 103.6875 279.3125 103.6562 279.0156 103.5625 L278.7812 102.8125 C278.625 102.2812 278.5 102.0469 278.1406 102.0469 C277.8906 102.0469 277.7031 102.1719 277.5781 102.4219 C277.8438 103.6406 278.7812 104.1719 280.0312 104.1719 C281.7188 104.1719 282.875 103.125 282.875 101.7031 C282.875 100.5 282.2031 99.625 280.7969 99.375 C281.9531 99.0156 282.6094 98.2031 282.6094 97.2031 C282.6094 95.9219 281.6719 95.0781 280.1875 95.0781 C279.0469 95.0781 278.0625 95.5938 277.7969 96.6875 C277.9062 97 278.1094 97.1094 278.3594 97.1094 C278.7344 97.1094 278.8906 96.8906 279 96.4062 L279.2344 95.6562 Z"
      /><rect x="259" y="108" width="8" style="fill:white; stroke:none;" height="8"
      /><path style="stroke:none;" d="M263.9844 113.7031 C263.9375 114.8906 263.1562 115.6562 262.3125 115.6562 C261.2656 115.6562 260.5 114.6875 260.5 112.7188 C260.5 111.2812 261.1562 110.1562 262.3438 110.1562 C263.1406 110.1562 263.7812 110.6875 264.0938 111.6406 L263.9844 113.7031 ZM265.9062 115.2812 C265.7344 115.375 265.5469 115.4219 265.3438 115.4219 C264.9531 115.4219 264.75 115.2188 264.75 114.4219 C264.75 113.4844 264.9688 111.5312 265.1875 109.8281 L265.0312 109.7188 L264.2344 109.9219 L264.1406 110.7969 C263.7812 110.0312 263.1562 109.6562 262.3906 109.6562 C261.0469 109.6562 259.5625 110.8438 259.5625 112.9531 C259.5625 115.0938 260.7188 116.1719 262.1406 116.1719 C263.0156 116.1719 263.6875 115.8125 264.0938 114.9844 C264.2031 115.8594 264.5156 116.1719 265.0156 116.1719 C265.4688 116.1719 265.7969 115.9062 266.0156 115.5625 L265.9062 115.2812 Z"
      /><rect x="267" y="68" width="6" style="fill:white; stroke:none;" height="10"
      /><path style="stroke:none;" d="M270.3438 77.6875 C269.2031 77.6875 268.5312 76.5 268.5312 74.2969 C268.5312 74.2188 268.5312 74.125 268.5312 74.0469 C269.0938 73.5 269.7188 73.3125 270.3438 73.3125 C271.3125 73.3125 271.9531 73.9844 271.9531 75.4531 C271.9531 76.9375 271.3125 77.6875 270.3438 77.6875 ZM272.5312 69.0781 C269.3438 69.4531 267.5625 71.7656 267.5625 74.4531 C267.5625 76.7812 268.6094 78.1719 270.3125 78.1719 C271.8438 78.1719 272.9219 77.1094 272.9219 75.2812 C272.9219 73.6875 271.9688 72.6562 270.5625 72.6562 C269.8281 72.6562 269.1406 72.9844 268.5781 73.5781 C268.7969 71.4062 270.0781 69.9688 272.5938 69.3906 L272.5312 69.0781 Z"
      /><rect x="249" y="56" width="8" style="fill:white; stroke:none;" height="8"
      /><path style="stroke:none;" d="M253.9844 61.7031 C253.9375 62.8906 253.1562 63.6562 252.3125 63.6562 C251.2656 63.6562 250.5 62.6875 250.5 60.7188 C250.5 59.2812 251.1562 58.1562 252.3438 58.1562 C253.1406 58.1562 253.7812 58.6875 254.0938 59.6406 L253.9844 61.7031 ZM255.9062 63.2812 C255.7344 63.375 255.5469 63.4219 255.3438 63.4219 C254.9531 63.4219 254.75 63.2188 254.75 62.4219 C254.75 61.4844 254.9688 59.5312 255.1875 57.8281 L255.0312 57.7188 L254.2344 57.9219 L254.1406 58.7969 C253.7812 58.0312 253.1562 57.6562 252.3906 57.6562 C251.0469 57.6562 249.5625 58.8438 249.5625 60.9531 C249.5625 63.0938 250.7188 64.1719 252.1406 64.1719 C253.0156 64.1719 253.6875 63.8125 254.0938 62.9844 C254.2031 63.8594 254.5156 64.1719 255.0156 64.1719 C255.4688 64.1719 255.7969 63.9062 256.0156 63.5625 L255.9062 63.2812 Z"
      /><rect x="322" y="83" width="7" style="fill:white; stroke:none;" height="9"
      /><path style="stroke:none;" d="M323 88.5156 L325.9531 84.2656 L325.9531 88.5156 L323 88.5156 ZM328.2812 88.5156 L326.8594 88.5156 L326.8594 83.125 L326.2344 83.125 L322.3438 88.6406 L322.3438 89.1875 L325.9531 89.1875 L325.9531 92 L326.8594 92 L326.8594 89.1875 L328.2812 89.1875 L328.2812 88.5156 Z"
      /><rect x="309" y="81" width="6" style="fill:white; stroke:none;" height="13"
      /><path style="stroke:none;" d="M311.0938 87.2031 C311.0938 85.6562 311.75 84.8125 312.7969 84.8125 C313.7188 84.8125 314.2656 85.4531 314.2656 86.5156 C314.2656 87.7188 313.5 88.4375 312.1875 88.7031 L312.2969 89.3125 C314.2188 89.2344 314.9375 90.2188 314.9375 91.4375 C314.9375 92.625 314.2344 93.4219 312.9531 93.4219 C312.25 93.4219 311.6562 93.1562 311.0938 92.7188 L311.0938 87.2031 ZM310.2031 93.9062 L310.1094 96.375 L310.2656 96.4844 L311.1562 96.2656 L311.0156 93.0938 C311.5469 93.8438 312.3594 94.1719 313.1719 94.1719 C314.5625 94.1719 315.8594 93.2188 315.8594 91.4844 C315.8594 89.9531 314.875 89.1094 313.125 89 C314.5625 88.6094 315.1875 87.4531 315.1875 86.4844 C315.1875 85.0938 314.1562 84.3125 312.9062 84.3125 C311.2969 84.3125 310.2188 85.5469 310.2188 87.5156 L310.2031 93.9062 Z"
      /><rect x="374" y="83" width="7" style="fill:white; stroke:none;" height="9"
      /><path style="stroke:none;" d="M375 88.5156 L377.9531 84.2656 L377.9531 88.5156 L375 88.5156 ZM380.2812 88.5156 L378.8594 88.5156 L378.8594 83.125 L378.2344 83.125 L374.3438 88.6406 L374.3438 89.1875 L377.9531 89.1875 L377.9531 92 L378.8594 92 L378.8594 89.1875 L380.2812 89.1875 L380.2812 88.5156 Z"
      /><rect x="361" y="81" width="6" style="fill:white; stroke:none;" height="13"
      /><path style="stroke:none;" d="M363.0938 87.2031 C363.0938 85.6562 363.75 84.8125 364.7969 84.8125 C365.7188 84.8125 366.2656 85.4531 366.2656 86.5156 C366.2656 87.7188 365.5 88.4375 364.1875 88.7031 L364.2969 89.3125 C366.2188 89.2344 366.9375 90.2188 366.9375 91.4375 C366.9375 92.625 366.2344 93.4219 364.9531 93.4219 C364.25 93.4219 363.6562 93.1562 363.0938 92.7188 L363.0938 87.2031 ZM362.2031 93.9062 L362.1094 96.375 L362.2656 96.4844 L363.1562 96.2656 L363.0156 93.0938 C363.5469 93.8438 364.3594 94.1719 365.1719 94.1719 C366.5625 94.1719 367.8594 93.2188 367.8594 91.4844 C367.8594 89.9531 366.875 89.1094 365.125 89 C366.5625 88.6094 367.1875 87.4531 367.1875 86.4844 C367.1875 85.0938 366.1562 84.3125 364.9062 84.3125 C363.2969 84.3125 362.2188 85.5469 362.2188 87.5156 L362.2031 93.9062 Z"
      /><rect x="413" y="83" width="5" style="fill:white; stroke:none;" height="10"
      /><path style="stroke:none;" d="M414.8906 91.6875 C414.4844 91.6875 414.1562 92.0469 414.1562 92.4219 C414.1562 92.8125 414.4844 93.1562 414.8906 93.1562 C415.2969 93.1562 415.6406 92.8125 415.6406 92.4219 C415.6406 92.0469 415.2969 91.6875 414.8906 91.6875 ZM416.4688 85.5781 C416.7188 85.8906 416.875 86.2656 416.8906 86.6562 C416.8906 87.1875 416.625 87.5 416.0312 87.7656 L415.4062 88.0156 C414.6406 88.3125 414.3906 88.5469 414.3906 88.9375 C414.3906 89.1094 414.4531 89.3438 414.5781 89.8125 L414.7344 90.3438 L415.1094 90.3438 L415.0938 89.5312 C415.0938 89.0938 415.2031 88.9688 415.7812 88.7344 L416.2031 88.5625 C417.0312 88.2188 417.4531 87.6875 417.4531 86.8438 C417.4531 85.1562 415.6562 84.1875 414.5 84.0312 C414.1094 84.125 413.9062 84.2969 413.9062 84.6406 C413.9062 84.9375 414.0625 85.1562 414.7188 85.2656 L416.4688 85.5781 Z"
      /><polygon style="fill:none;" points=" 126 156 115 156 115 30 126 30 115 30 115 156"
      /><polygon style="fill:none;" points=" 93 93 41 93"
      /><polygon style="fill:white; clip-path:url(#clipPath12); stroke:none;" points=" 41 82 52 93 41 104 30 93"
      /><rect x="30" y="82" width="22" style="clip-path:url(#clipPath12); fill:rgb(165,67,153); stroke:none;" height="22"
      /><rect x="30" y="82" width="22" style="fill:none; clip-path:url(#clipPath12);" height="22"
      /><polygon style="fill:none;" points=" 41 82 52 93 41 104 30 93"
      /><rect x="71" y="96" width="6" style="fill:white; stroke:none;" height="10"
      /><path style="stroke:none;" d="M74.3438 105.6875 C73.2031 105.6875 72.5312 104.5 72.5312 102.2969 C72.5312 102.2188 72.5312 102.125 72.5312 102.0469 C73.0938 101.5 73.7188 101.3125 74.3438 101.3125 C75.3125 101.3125 75.9531 101.9844 75.9531 103.4531 C75.9531 104.9375 75.3125 105.6875 74.3438 105.6875 ZM76.5312 97.0781 C73.3438 97.4531 71.5625 99.7656 71.5625 102.4531 C71.5625 104.7812 72.6094 106.1719 74.3125 106.1719 C75.8438 106.1719 76.9219 105.1094 76.9219 103.2812 C76.9219 101.6875 75.9688 100.6562 74.5625 100.6562 C73.8281 100.6562 73.1406 100.9844 72.5781 101.5781 C72.7969 99.4062 74.0781 97.9688 76.5938 97.3906 L76.5312 97.0781 Z"
      /><rect x="56" y="97" width="8" style="fill:white; stroke:none;" height="8"
      /><path style="stroke:none;" d="M60.9844 102.7031 C60.9375 103.8906 60.1562 104.6562 59.3125 104.6562 C58.2656 104.6562 57.5 103.6875 57.5 101.7188 C57.5 100.2812 58.1562 99.1562 59.3438 99.1562 C60.1406 99.1562 60.7812 99.6875 61.0938 100.6406 L60.9844 102.7031 ZM62.9062 104.2812 C62.7344 104.375 62.5469 104.4219 62.3438 104.4219 C61.9531 104.4219 61.75 104.2188 61.75 103.4219 C61.75 102.4844 61.9688 100.5312 62.1875 98.8281 L62.0312 98.7188 L61.2344 98.9219 L61.1406 99.7969 C60.7812 99.0312 60.1562 98.6562 59.3906 98.6562 C58.0469 98.6562 56.5625 99.8438 56.5625 101.9531 C56.5625 104.0938 57.7188 105.1719 59.1406 105.1719 C60.0156 105.1719 60.6875 104.8125 61.0938 103.9844 C61.2031 104.8594 61.5156 105.1719 62.0156 105.1719 C62.4688 105.1719 62.7969 104.9062 63.0156 104.5625 L62.9062 104.2812 Z"
    /></g
  ></g
></svg
>
