<?xml version="1.0"?>
<!DOCTYPE svg PUBLIC '-//W3C//DTD SVG 1.0//EN'
          'http://www.w3.org/TR/2001/REC-SVG-20010904/DTD/svg10.dtd'>
<svg xmlns:xlink="http://www.w3.org/1999/xlink" style="fill-opacity:1; color-rendering:auto; color-interpolation:auto; text-rendering:auto; stroke:black; stroke-linecap:square; stroke-miterlimit:10; shape-rendering:auto; stroke-opacity:1; fill:black; stroke-dasharray:none; font-weight:normal; stroke-width:1; font-family:'Dialog'; font-style:normal; stroke-linejoin:miter; font-size:12px; stroke-dashoffset:0; image-rendering:auto;" viewBox="0 0 143 238" xmlns="http://www.w3.org/2000/svg"
><!--Generated by the Batik Graphics2D SVG Generator--><defs id="genericDefs"
  /><g
  ><defs id="defs1"
    ><clipPath clipPathUnits="userSpaceOnUse" id="clipPath1"
      ><path style="fill-rule:evenodd;" d="M58 186 L69 197 L58 208 L47 197 Z"
      /></clipPath
      ><clipPath clipPathUnits="userSpaceOnUse" id="clipPath2"
      ><path d="M47 134 L69 134 L69 156 L47 156 L47 134 Z"
      /></clipPath
      ><clipPath clipPathUnits="userSpaceOnUse" id="clipPath3"
      ><path d="M69 93 C69 99.0751 64.0751 104 58 104 C51.9249 104 47 99.0751 47 93 C47 86.9249 51.9249 82 58 82 C64.0751 82 69 86.9249 69 93 Z"
      /></clipPath
      ><clipPath clipPathUnits="userSpaceOnUse" id="clipPath4"
      ><path style="fill-rule:evenodd;" d="M58 30 L69 52 L47 52 Z"
      /></clipPath
    ></defs
    ><g style="fill:white; text-rendering:optimizeSpeed; stroke:white;"
    ><rect x="0" width="143" height="238" y="0" style="stroke:none;"
      /><polygon style="clip-path:url(#clipPath1); stroke:none;" points=" 58 186 69 197 58 208 47 197"
      /><rect x="47" y="186" width="22" style="clip-path:url(#clipPath1); fill:rgb(165,67,153); stroke:none;" height="22"
      /><rect x="47" y="186" width="22" style="clip-path:url(#clipPath1); fill:none; stroke:black;" height="22"
      /><polygon style="fill:none; stroke:black;" points=" 58 186 69 197 58 208 47 197"
      /><rect x="74" y="184" width="5" style="stroke:none;" height="10"
    /></g
    ><g style="font-family:'Serif'; text-rendering:optimizeSpeed; "
    ><path style="stroke:none;" d="M75.8906 192.6875 C75.4844 192.6875 75.1562 193.0469 75.1562 193.4219 C75.1562 193.8125 75.4844 194.1562 75.8906 194.1562 C76.2969 194.1562 76.6406 193.8125 76.6406 193.4219 C76.6406 193.0469 76.2969 192.6875 75.8906 192.6875 ZM77.4688 186.5781 C77.7188 186.8906 77.875 187.2656 77.8906 187.6562 C77.8906 188.1875 77.625 188.5 77.0312 188.7656 L76.4062 189.0156 C75.6406 189.3125 75.3906 189.5469 75.3906 189.9375 C75.3906 190.1094 75.4531 190.3438 75.5781 190.8125 L75.7344 191.3438 L76.1094 191.3438 L76.0938 190.5312 C76.0938 190.0938 76.2031 189.9688 76.7812 189.7344 L77.2031 189.5625 C78.0312 189.2188 78.4531 188.6875 78.4531 187.8438 C78.4531 186.1562 76.6562 185.1875 75.5 185.0312 C75.1094 185.125 74.9062 185.2969 74.9062 185.6406 C74.9062 185.9375 75.0625 186.1562 75.7188 186.2656 L77.4688 186.5781 Z"
      /><rect x="74" y="200" width="5" style="fill:white; stroke:none;" height="10"
      /><path style="stroke:none;" d="M75.8906 208.6875 C75.4844 208.6875 75.1562 209.0469 75.1562 209.4219 C75.1562 209.8125 75.4844 210.1562 75.8906 210.1562 C76.2969 210.1562 76.6406 209.8125 76.6406 209.4219 C76.6406 209.0469 76.2969 208.6875 75.8906 208.6875 ZM77.4688 202.5781 C77.7188 202.8906 77.875 203.2656 77.8906 203.6562 C77.8906 204.1875 77.625 204.5 77.0312 204.7656 L76.4062 205.0156 C75.6406 205.3125 75.3906 205.5469 75.3906 205.9375 C75.3906 206.1094 75.4531 206.3438 75.5781 206.8125 L75.7344 207.3438 L76.1094 207.3438 L76.0938 206.5312 C76.0938 206.0938 76.2031 205.9688 76.7812 205.7344 L77.2031 205.5625 C78.0312 205.2188 78.4531 204.6875 78.4531 203.8438 C78.4531 202.1562 76.6562 201.1875 75.5 201.0312 C75.1094 201.125 74.9062 201.2969 74.9062 201.6406 C74.9062 201.9375 75.0625 202.1562 75.7188 202.2656 L77.4688 202.5781 Z"
      /><path style="stroke:none;" d="M29.6094 202 L36.0625 202 L36.0625 200.8906 L33.2344 200.8906 C32.7031 200.8906 32.0781 200.9531 31.5469 200.9844 C33.9531 198.7031 35.5625 196.625 35.5625 194.5781 C35.5625 192.75 34.4219 191.5469 32.5781 191.5469 C31.2812 191.5469 30.4062 192.1406 29.5625 193.0469 L30.2969 193.7812 C30.8594 193.1094 31.5938 192.5938 32.4375 192.5938 C33.7031 192.5938 34.3125 193.4531 34.3125 194.625 C34.3125 196.3906 32.8438 198.4375 29.6094 201.25 L29.6094 202 ZM36.9731 202 L38.3168 202 L39.3481 200.2188 C39.6137 199.7656 39.8637 199.2969 40.1293 198.8594 L40.2075 198.8594 C40.4731 199.2969 40.7543 199.7656 41.0043 200.2188 L42.1293 202 L43.5356 202 L41.02 198.1562 L43.3325 194.3906 L42.0043 194.3906 L41.0668 196.0625 C40.8481 196.5 40.6137 196.9219 40.3793 197.3438 L40.3325 197.3438 C40.0668 196.9219 39.8012 196.5 39.5668 196.0625 L38.5512 194.3906 L37.1762 194.3906 L39.4887 198.0312 L36.9731 202 Z"
    /></g
    ><g style="fill:white; text-rendering:optimizeSpeed; font-size:14px; font-family:'SansSerif'; stroke:white;"
    ><rect x="47" y="134" width="22" style="clip-path:url(#clipPath2); stroke:none;" height="22"
      /><rect x="47" y="134" width="22" style="clip-path:url(#clipPath2); stroke:none;" height="22"
      /><rect x="47" y="134" width="22" style="clip-path:url(#clipPath2); fill:none; stroke:black;" height="22"
      /><rect x="47" y="134" width="22" style="fill:none; stroke:black;" height="22"
      /><rect x="74" width="5" height="10" y="132" style="stroke:none;"
    /></g
    ><g style="font-family:'Serif'; text-rendering:optimizeSpeed; "
    ><path style="stroke:none;" d="M75.8906 140.6875 C75.4844 140.6875 75.1562 141.0469 75.1562 141.4219 C75.1562 141.8125 75.4844 142.1562 75.8906 142.1562 C76.2969 142.1562 76.6406 141.8125 76.6406 141.4219 C76.6406 141.0469 76.2969 140.6875 75.8906 140.6875 ZM77.4688 134.5781 C77.7188 134.8906 77.875 135.2656 77.8906 135.6562 C77.8906 136.1875 77.625 136.5 77.0312 136.7656 L76.4062 137.0156 C75.6406 137.3125 75.3906 137.5469 75.3906 137.9375 C75.3906 138.1094 75.4531 138.3438 75.5781 138.8125 L75.7344 139.3438 L76.1094 139.3438 L76.0938 138.5312 C76.0938 138.0938 76.2031 137.9688 76.7812 137.7344 L77.2031 137.5625 C78.0312 137.2188 78.4531 136.6875 78.4531 135.8438 C78.4531 134.1562 76.6562 133.1875 75.5 133.0312 C75.1094 133.125 74.9062 133.2969 74.9062 133.6406 C74.9062 133.9375 75.0625 134.1562 75.7188 134.2656 L77.4688 134.5781 Z"
      /><rect x="74" y="148" width="5" style="fill:white; stroke:none;" height="10"
      /><path style="stroke:none;" d="M75.8906 156.6875 C75.4844 156.6875 75.1562 157.0469 75.1562 157.4219 C75.1562 157.8125 75.4844 158.1562 75.8906 158.1562 C76.2969 158.1562 76.6406 157.8125 76.6406 157.4219 C76.6406 157.0469 76.2969 156.6875 75.8906 156.6875 ZM77.4688 150.5781 C77.7188 150.8906 77.875 151.2656 77.8906 151.6562 C77.8906 152.1875 77.625 152.5 77.0312 152.7656 L76.4062 153.0156 C75.6406 153.3125 75.3906 153.5469 75.3906 153.9375 C75.3906 154.1094 75.4531 154.3438 75.5781 154.8125 L75.7344 155.3438 L76.1094 155.3438 L76.0938 154.5312 C76.0938 154.0938 76.2031 153.9688 76.7812 153.7344 L77.2031 153.5625 C78.0312 153.2188 78.4531 152.6875 78.4531 151.8438 C78.4531 150.1562 76.6562 149.1875 75.5 149.0312 C75.1094 149.125 74.9062 149.2969 74.9062 149.6406 C74.9062 149.9375 75.0625 150.1562 75.7188 150.2656 L77.4688 150.5781 Z"
      /><path style="stroke:none;" d="M30.8125 142.875 C30.8125 141.4688 31.5781 140.5469 32.5625 140.5469 C33.875 140.5469 34.6562 141.6719 34.7969 143.7812 C34.1406 144.75 33.3594 145.1562 32.6562 145.1562 C31.4375 145.1562 30.8125 144.2656 30.8125 142.875 ZM32.2812 150.1875 C34.2031 150.1875 36 148.5938 36 144.4219 C36 141.1719 34.5312 139.5469 32.5625 139.5469 C30.9531 139.5469 29.6094 140.8906 29.6094 142.875 C29.6094 145 30.7344 146.1094 32.4375 146.1094 C33.2969 146.1094 34.1875 145.625 34.8125 144.8438 C34.7188 148.0312 33.5625 149.125 32.2344 149.125 C31.5781 149.125 30.9531 148.8281 30.5312 148.3281 L29.8125 149.125 C30.3906 149.7344 31.1719 150.1875 32.2812 150.1875 ZM36.9731 150 L38.3168 150 L39.3481 148.2188 C39.6137 147.7656 39.8637 147.2969 40.1293 146.8594 L40.2075 146.8594 C40.4731 147.2969 40.7543 147.7656 41.0043 148.2188 L42.1293 150 L43.5356 150 L41.02 146.1562 L43.3325 142.3906 L42.0043 142.3906 L41.0668 144.0625 C40.8481 144.5 40.6137 144.9219 40.3793 145.3438 L40.3325 145.3438 C40.0668 144.9219 39.8012 144.5 39.5668 144.0625 L38.5512 142.3906 L37.1762 142.3906 L39.4887 146.0312 L36.9731 150 Z"
    /></g
    ><g style="fill:white; text-rendering:optimizeSpeed; font-size:14px; font-family:'SansSerif'; stroke:white;"
    ><circle r="11" style="clip-path:url(#clipPath3); stroke:none;" cx="58" cy="93"
      /><rect x="47" y="82" width="22" style="clip-path:url(#clipPath3); stroke:none;" height="22"
      /><rect x="47" y="82" width="22" style="clip-path:url(#clipPath3); fill:none; stroke:black;" height="22"
      /><circle r="11" style="fill:none; stroke:black;" cx="58" cy="93"
      /><rect x="74" width="5" height="10" y="80" style="stroke:none;"
    /></g
    ><g style="font-family:'Serif'; text-rendering:optimizeSpeed; "
    ><path style="stroke:none;" d="M75.8906 88.6875 C75.4844 88.6875 75.1562 89.0469 75.1562 89.4219 C75.1562 89.8125 75.4844 90.1562 75.8906 90.1562 C76.2969 90.1562 76.6406 89.8125 76.6406 89.4219 C76.6406 89.0469 76.2969 88.6875 75.8906 88.6875 ZM77.4688 82.5781 C77.7188 82.8906 77.875 83.2656 77.8906 83.6562 C77.8906 84.1875 77.625 84.5 77.0312 84.7656 L76.4062 85.0156 C75.6406 85.3125 75.3906 85.5469 75.3906 85.9375 C75.3906 86.1094 75.4531 86.3438 75.5781 86.8125 L75.7344 87.3438 L76.1094 87.3438 L76.0938 86.5312 C76.0938 86.0938 76.2031 85.9688 76.7812 85.7344 L77.2031 85.5625 C78.0312 85.2188 78.4531 84.6875 78.4531 83.8438 C78.4531 82.1562 76.6562 81.1875 75.5 81.0312 C75.1094 81.125 74.9062 81.2969 74.9062 81.6406 C74.9062 81.9375 75.0625 82.1562 75.7188 82.2656 L77.4688 82.5781 Z"
      /><rect x="74" y="96" width="5" style="fill:white; stroke:none;" height="10"
      /><path style="stroke:none;" d="M75.8906 104.6875 C75.4844 104.6875 75.1562 105.0469 75.1562 105.4219 C75.1562 105.8125 75.4844 106.1562 75.8906 106.1562 C76.2969 106.1562 76.6406 105.8125 76.6406 105.4219 C76.6406 105.0469 76.2969 104.6875 75.8906 104.6875 ZM77.4688 98.5781 C77.7188 98.8906 77.875 99.2656 77.8906 99.6562 C77.8906 100.1875 77.625 100.5 77.0312 100.7656 L76.4062 101.0156 C75.6406 101.3125 75.3906 101.5469 75.3906 101.9375 C75.3906 102.1094 75.4531 102.3438 75.5781 102.8125 L75.7344 103.3438 L76.1094 103.3438 L76.0938 102.5312 C76.0938 102.0938 76.2031 101.9688 76.7812 101.7344 L77.2031 101.5625 C78.0312 101.2188 78.4531 100.6875 78.4531 99.8438 C78.4531 98.1562 76.6562 97.1875 75.5 97.0312 C75.1094 97.125 74.9062 97.2969 74.9062 97.6406 C74.9062 97.9375 75.0625 98.1562 75.7188 98.2656 L77.4688 98.5781 Z"
      /><path style="stroke:none;" d="M31.7656 97 L33.1094 97 C33.25 92.9844 33.7031 90.5938 36.1094 87.5156 L36.1094 86.7188 L29.6875 86.7188 L29.6875 87.8281 L34.6562 87.8281 C32.6562 90.625 31.9375 93.1094 31.7656 97 ZM36.9731 97 L38.3168 97 L39.3481 95.2188 C39.6137 94.7656 39.8637 94.2969 40.1293 93.8594 L40.2075 93.8594 C40.4731 94.2969 40.7543 94.7656 41.0043 95.2188 L42.1293 97 L43.5356 97 L41.02 93.1562 L43.3325 89.3906 L42.0043 89.3906 L41.0668 91.0625 C40.8481 91.5 40.6137 91.9219 40.3793 92.3438 L40.3325 92.3438 C40.0668 91.9219 39.8012 91.5 39.5668 91.0625 L38.5512 89.3906 L37.1762 89.3906 L39.4887 93.0312 L36.9731 97 Z"
    /></g
    ><g style="fill:white; text-rendering:optimizeSpeed; font-size:14px; font-family:'SansSerif'; stroke:white;"
    ><polygon style="stroke:none; clip-path:url(#clipPath4);" points=" 58 30 69 52 47 52"
      /><rect x="47" y="30" width="22" style="clip-path:url(#clipPath4); fill:rgb(237,28,36); stroke:none;" height="22"
      /><rect x="47" y="30" width="22" style="clip-path:url(#clipPath4); fill:none; stroke:black;" height="22"
      /><polygon style="fill:none; stroke:black;" points=" 58 30 69 52 47 52"
      /><rect x="74" width="5" height="10" y="28" style="stroke:none;"
    /></g
    ><g style="font-family:'Serif'; text-rendering:optimizeSpeed; "
    ><path style="stroke:none;" d="M75.8906 36.6875 C75.4844 36.6875 75.1562 37.0469 75.1562 37.4219 C75.1562 37.8125 75.4844 38.1562 75.8906 38.1562 C76.2969 38.1562 76.6406 37.8125 76.6406 37.4219 C76.6406 37.0469 76.2969 36.6875 75.8906 36.6875 ZM77.4688 30.5781 C77.7188 30.8906 77.875 31.2656 77.8906 31.6562 C77.8906 32.1875 77.625 32.5 77.0312 32.7656 L76.4062 33.0156 C75.6406 33.3125 75.3906 33.5469 75.3906 33.9375 C75.3906 34.1094 75.4531 34.3438 75.5781 34.8125 L75.7344 35.3438 L76.1094 35.3438 L76.0938 34.5312 C76.0938 34.0938 76.2031 33.9688 76.7812 33.7344 L77.2031 33.5625 C78.0312 33.2188 78.4531 32.6875 78.4531 31.8438 C78.4531 30.1562 76.6562 29.1875 75.5 29.0312 C75.1094 29.125 74.9062 29.2969 74.9062 29.6406 C74.9062 29.9375 75.0625 30.1562 75.7188 30.2656 L77.4688 30.5781 Z"
      /><rect x="74" y="44" width="5" style="fill:white; stroke:none;" height="10"
      /><path style="stroke:none;" d="M75.8906 52.6875 C75.4844 52.6875 75.1562 53.0469 75.1562 53.4219 C75.1562 53.8125 75.4844 54.1562 75.8906 54.1562 C76.2969 54.1562 76.6406 53.8125 76.6406 53.4219 C76.6406 53.0469 76.2969 52.6875 75.8906 52.6875 ZM77.4688 46.5781 C77.7188 46.8906 77.875 47.2656 77.8906 47.6562 C77.8906 48.1875 77.625 48.5 77.0312 48.7656 L76.4062 49.0156 C75.6406 49.3125 75.3906 49.5469 75.3906 49.9375 C75.3906 50.1094 75.4531 50.3438 75.5781 50.8125 L75.7344 51.3438 L76.1094 51.3438 L76.0938 50.5312 C76.0938 50.0938 76.2031 49.9688 76.7812 49.7344 L77.2031 49.5625 C78.0312 49.2188 78.4531 48.6875 78.4531 47.8438 C78.4531 46.1562 76.6562 45.1875 75.5 45.0312 C75.1094 45.125 74.9062 45.2969 74.9062 45.6406 C74.9062 45.9375 75.0625 46.1562 75.7188 46.2656 L77.4688 46.5781 Z"
    /></g
  ></g
></svg
>
