<?xml version="1.0"?>
<!DOCTYPE svg PUBLIC '-//W3C//DTD SVG 1.0//EN'
          'http://www.w3.org/TR/2001/REC-SVG-20010904/DTD/svg10.dtd'>
<svg xmlns:xlink="http://www.w3.org/1999/xlink" style="fill-opacity:1; color-rendering:auto; color-interpolation:auto; text-rendering:auto; stroke:black; stroke-linecap:square; stroke-miterlimit:10; shape-rendering:auto; stroke-opacity:1; fill:black; stroke-dasharray:none; font-weight:normal; stroke-width:1; font-family:'Dialog'; font-style:normal; stroke-linejoin:miter; font-size:12px; stroke-dashoffset:0; image-rendering:auto;" viewBox="0 0 394 157" xmlns="http://www.w3.org/2000/svg"
><!--Generated by the Batik Graphics2D SVG Generator--><defs id="genericDefs"
  /><g
  ><defs id="defs1"
    ><clipPath clipPathUnits="userSpaceOnUse" id="clipPath1"
      ><path style="fill-rule:evenodd;" d="M295 45 L301 45 L301 89 L295 89 L301 89 L301 45 Z"
      /></clipPath
      ><clipPath clipPathUnits="userSpaceOnUse" id="clipPath2"
      ><path d="M260 67 C260 73.0751 255.0751 78 249 78 C242.9249 78 238 73.0751 238 67 C238 60.9249 242.9249 56 249 56 C255.0751 56 260 60.9249 260 67 Z"
      /></clipPath
      ><clipPath clipPathUnits="userSpaceOnUse" id="clipPath3"
      ><path d="M186 56 L208 56 L208 78 L186 78 L186 56 Z"
      /></clipPath
      ><clipPath clipPathUnits="userSpaceOnUse" id="clipPath4"
      ><path style="fill-rule:evenodd;" d="M145 82 L156 104 L134 104 Z"
      /></clipPath
      ><clipPath clipPathUnits="userSpaceOnUse" id="clipPath5"
      ><path style="fill-rule:evenodd;" d="M93 82 L104 93 L93 104 L82 93 Z"
      /></clipPath
      ><clipPath clipPathUnits="userSpaceOnUse" id="clipPath6"
      ><path style="fill-rule:evenodd;" d="M46 115 L41 115 L40 71 L46 71 L40 71 L41 115 Z"
      /></clipPath
      ><clipPath clipPathUnits="userSpaceOnUse" id="clipPath7"
      ><path d="M156 41 C156 47.0751 151.0751 52 145 52 C138.9249 52 134 47.0751 134 41 C134 34.9249 138.9249 30 145 30 C151.0751 30 156 34.9249 156 41 Z"
      /></clipPath
    ></defs
    ><g style="fill:white; text-rendering:optimizeSpeed; stroke:white;"
    ><rect x="0" width="394" height="157" y="0" style="stroke:none;"
      /><polygon style="fill:none; stroke:black;" points=" 353 67 301 67"
      /><path d="M353 56 C347.5 61.5 358.5 72.5 353 78" style="fill:none; stroke:black;"
      /><polygon style="fill:none; stroke:black;" points=" 301 67 249 67"
      /><polygon style="clip-path:url(#clipPath1); stroke:none;" points=" 295 45 301 45 301 89 295 89 301 89 301 45"
      /><rect x="290" y="33" width="22" style="clip-path:url(#clipPath1); fill:black; stroke:none;" height="68"
      /><rect x="290" y="33" width="22" style="clip-path:url(#clipPath1); fill:none; stroke:black;" height="68"
      /><polygon style="fill:none; stroke:black;" points=" 295 45 301 45 301 89 295 89 301 89 301 45"
      /><polygon style="fill:none; stroke:black;" points=" 249 67 197 67"
      /><circle style="clip-path:url(#clipPath2); stroke:none;" r="11" cx="249" cy="67"
      /><rect x="238" y="56" width="22" style="clip-path:url(#clipPath2); fill:rgb(255,212,0); stroke:none;" height="22"
      /><rect x="238" y="56" width="22" style="clip-path:url(#clipPath2); fill:none; stroke:black;" height="22"
      /><circle style="fill:none; stroke:black;" r="11" cx="249" cy="67"
      /><polygon style="fill:none; stroke:black;" points=" 197 67 145 93"
      /><polygon style="fill:none; stroke:black;" points=" 197 67 145 41"
      /><rect x="186" y="56" width="22" style="clip-path:url(#clipPath3); stroke:none;" height="22"
      /><rect x="186" y="56" width="22" style="clip-path:url(#clipPath3); fill:rgb(0,144,188); stroke:none;" height="22"
      /><rect x="186" y="56" width="22" style="clip-path:url(#clipPath3); fill:none; stroke:black;" height="22"
      /><rect x="186" y="56" width="22" style="fill:none; stroke:black;" height="22"
      /><polygon style="fill:none; stroke:black;" points=" 145 93 93 93"
      /><polygon style="clip-path:url(#clipPath4); stroke:none;" points=" 145 82 156 104 134 104"
      /><rect x="145" y="82" width="11" style="clip-path:url(#clipPath4); fill:rgb(237,28,36); stroke:none;" height="22"
      /><rect x="145" y="82" width="11" style="clip-path:url(#clipPath4); fill:none; stroke:black;" height="22"
      /><polygon style="fill:none; stroke:black;" points=" 145 82 156 104 134 104"
      /><polygon style="fill:none; stroke:black;" points=" 93 93 41 93"
      /><polygon style="clip-path:url(#clipPath5); stroke:none;" points=" 93 82 104 93 93 104 82 93"
      /><rect x="82" y="82" width="22" style="clip-path:url(#clipPath5); fill:rgb(0,144,188); stroke:none;" height="11"
      /><rect x="82" y="82" width="22" style="clip-path:url(#clipPath5); fill:none; stroke:black;" height="11"
      /><polygon style="fill:none; stroke:black;" points=" 93 82 104 93 93 104 82 93"
      /><polygon style="clip-path:url(#clipPath6); stroke:none;" points=" 46 115 41 115 40 71 46 71 40 71 41 115"
      /><rect x="30" y="59" width="22" style="clip-path:url(#clipPath6); fill:black; stroke:none;" height="68"
      /><rect x="30" y="59" width="22" style="clip-path:url(#clipPath6); fill:none; stroke:black;" height="68"
      /><polygon style="fill:none; stroke:black;" points=" 46 115 41 115 40 71 46 71 40 71 41 115"
      /><path d="M43.5469 124.9531 C43.5156 124.2969 43.5 123.3906 43.5 122.7656 L43.5 121.5156 C43.5 119.8281 42.9531 119.1562 41.8594 119.1562 C41.0625 119.1562 40.1562 119.625 39.4531 120.4062 L39.3594 119.2969 L39.2031 119.1719 L37.4688 119.8125 L37.4688 120.2031 L38.5312 120.2812 C38.5625 120.8438 38.5781 121.3438 38.5781 122.1094 L38.5781 122.7656 C38.5781 123.375 38.5781 124.2969 38.5469 124.9688 L37.5469 125.1094 L37.5469 125.5 L40.4688 125.5 L40.4688 125.1094 L39.5156 124.9531 C39.5156 124.2969 39.5 123.375 39.5 122.7656 L39.5 120.875 C40.2656 120.1562 40.875 119.9062 41.4688 119.9062 C42.2344 119.9062 42.5938 120.3125 42.5938 121.5625 L42.5938 122.7656 C42.5938 123.3906 42.5781 124.3125 42.5625 124.9688 L41.5469 125.1094 L41.5469 125.5 L44.4844 125.5 L44.4844 125.1094 L43.5469 124.9531 Z" style="fill:black; stroke:none;"
      /><rect x="70" y="96" width="7" style="stroke:none;" height="9"
    /></g
    ><g style="font-family:'Serif'; text-rendering:optimizeSpeed; "
    ><path style="stroke:none;" d="M71 101.5156 L73.9531 97.2656 L73.9531 101.5156 L71 101.5156 ZM76.2812 101.5156 L74.8594 101.5156 L74.8594 96.125 L74.2344 96.125 L70.3438 101.6406 L70.3438 102.1875 L73.9531 102.1875 L73.9531 105 L74.8594 105 L74.8594 102.1875 L76.2812 102.1875 L76.2812 101.5156 Z"
      /><rect x="123" y="96" width="6" style="fill:white; stroke:none;" height="10"
      /><path style="stroke:none;" d="M125.2344 97.6562 C125.5156 97.5938 125.7656 97.5625 126.0156 97.5625 C127.0625 97.5625 127.6719 98.1719 127.6719 99.2656 C127.6719 100.4375 126.9062 101.1094 125.7031 101.1094 L125.1875 101.1094 L125.1875 101.6406 L125.7969 101.6406 C127.2188 101.6406 127.9062 102.4219 127.9062 103.6406 C127.9062 104.8438 127.1719 105.6875 125.875 105.6875 C125.6094 105.6875 125.3125 105.6562 125.0156 105.5625 L124.7812 104.8125 C124.625 104.2812 124.5 104.0469 124.1406 104.0469 C123.8906 104.0469 123.7031 104.1719 123.5781 104.4219 C123.8438 105.6406 124.7812 106.1719 126.0312 106.1719 C127.7188 106.1719 128.875 105.125 128.875 103.7031 C128.875 102.5 128.2031 101.625 126.7969 101.375 C127.9531 101.0156 128.6094 100.2031 128.6094 99.2031 C128.6094 97.9219 127.6719 97.0781 126.1875 97.0781 C125.0469 97.0781 124.0625 97.5938 123.7969 98.6875 C123.9062 99 124.1094 99.1094 124.3594 99.1094 C124.7344 99.1094 124.8906 98.8906 125 98.4062 L125.2344 97.6562 Z"
      /><rect x="109" y="94" width="6" style="fill:white; stroke:none;" height="13"
      /><path style="stroke:none;" d="M111.0938 100.2031 C111.0938 98.6562 111.75 97.8125 112.7969 97.8125 C113.7188 97.8125 114.2656 98.4531 114.2656 99.5156 C114.2656 100.7188 113.5 101.4375 112.1875 101.7031 L112.2969 102.3125 C114.2188 102.2344 114.9375 103.2188 114.9375 104.4375 C114.9375 105.625 114.2344 106.4219 112.9531 106.4219 C112.25 106.4219 111.6562 106.1562 111.0938 105.7188 L111.0938 100.2031 ZM110.2031 106.9062 L110.1094 109.375 L110.2656 109.4844 L111.1562 109.2656 L111.0156 106.0938 C111.5469 106.8438 112.3594 107.1719 113.1719 107.1719 C114.5625 107.1719 115.8594 106.2188 115.8594 104.4844 C115.8594 102.9531 114.875 102.1094 113.125 102 C114.5625 101.6094 115.1875 100.4531 115.1875 99.4844 C115.1875 98.0938 114.1562 97.3125 112.9062 97.3125 C111.2969 97.3125 110.2188 98.5469 110.2188 100.5156 L110.2031 106.9062 Z"
      /><circle style="fill:white; clip-path:url(#clipPath7); stroke:none;" r="11" cx="145" cy="41"
      /><rect x="134" y="30" width="22" style="clip-path:url(#clipPath7); fill:rgb(0,144,188); stroke:none;" height="22"
      /><rect x="134" y="30" width="22" style="fill:none; clip-path:url(#clipPath7);" height="22"
      /><circle r="11" style="fill:none;" cx="145" cy="41"
      /><rect x="179" y="78" width="6" style="fill:white; stroke:none;" height="10"
      /><path style="stroke:none;" d="M181.2344 79.6562 C181.5156 79.5938 181.7656 79.5625 182.0156 79.5625 C183.0625 79.5625 183.6719 80.1719 183.6719 81.2656 C183.6719 82.4375 182.9062 83.1094 181.7031 83.1094 L181.1875 83.1094 L181.1875 83.6406 L181.7969 83.6406 C183.2188 83.6406 183.9062 84.4219 183.9062 85.6406 C183.9062 86.8438 183.1719 87.6875 181.875 87.6875 C181.6094 87.6875 181.3125 87.6562 181.0156 87.5625 L180.7812 86.8125 C180.625 86.2812 180.5 86.0469 180.1406 86.0469 C179.8906 86.0469 179.7031 86.1719 179.5781 86.4219 C179.8438 87.6406 180.7812 88.1719 182.0312 88.1719 C183.7188 88.1719 184.875 87.125 184.875 85.7031 C184.875 84.5 184.2031 83.625 182.7969 83.375 C183.9531 83.0156 184.6094 82.2031 184.6094 81.2031 C184.6094 79.9219 183.6719 79.0781 182.1875 79.0781 C181.0469 79.0781 180.0625 79.5938 179.7969 80.6875 C179.9062 81 180.1094 81.1094 180.3594 81.1094 C180.7344 81.1094 180.8906 80.8906 181 80.4062 L181.2344 79.6562 Z"
      /><rect x="164" y="86" width="5" style="fill:white; stroke:none;" height="10"
      /><path style="stroke:none;" d="M165.8906 94.6875 C165.4844 94.6875 165.1562 95.0469 165.1562 95.4219 C165.1562 95.8125 165.4844 96.1562 165.8906 96.1562 C166.2969 96.1562 166.6406 95.8125 166.6406 95.4219 C166.6406 95.0469 166.2969 94.6875 165.8906 94.6875 ZM167.4688 88.5781 C167.7188 88.8906 167.875 89.2656 167.8906 89.6562 C167.8906 90.1875 167.625 90.5 167.0312 90.7656 L166.4062 91.0156 C165.6406 91.3125 165.3906 91.5469 165.3906 91.9375 C165.3906 92.1094 165.4531 92.3438 165.5781 92.8125 L165.7344 93.3438 L166.1094 93.3438 L166.0938 92.5312 C166.0938 92.0938 166.2031 91.9688 166.7812 91.7344 L167.2031 91.5625 C168.0312 91.2188 168.4531 90.6875 168.4531 89.8438 C168.4531 88.1562 166.6562 87.1875 165.5 87.0312 C165.1094 87.125 164.9062 87.2969 164.9062 87.6406 C164.9062 87.9375 165.0625 88.1562 165.7188 88.2656 L167.4688 88.5781 Z"
      /><rect x="171" y="60" width="7" style="fill:white; stroke:none;" height="9"
      /><path style="stroke:none;" d="M172 65.5156 L174.9531 61.2656 L174.9531 65.5156 L172 65.5156 ZM177.2812 65.5156 L175.8594 65.5156 L175.8594 60.125 L175.2344 60.125 L171.3438 65.6406 L171.3438 66.1875 L174.9531 66.1875 L174.9531 69 L175.8594 69 L175.8594 66.1875 L177.2812 66.1875 L177.2812 65.5156 Z"
      /><rect x="156" y="50" width="6" style="fill:white; stroke:none;" height="13"
      /><path style="stroke:none;" d="M158.0938 56.2031 C158.0938 54.6562 158.75 53.8125 159.7969 53.8125 C160.7188 53.8125 161.2656 54.4531 161.2656 55.5156 C161.2656 56.7188 160.5 57.4375 159.1875 57.7031 L159.2969 58.3125 C161.2188 58.2344 161.9375 59.2188 161.9375 60.4375 C161.9375 61.625 161.2344 62.4219 159.9531 62.4219 C159.25 62.4219 158.6562 62.1562 158.0938 61.7188 L158.0938 56.2031 ZM157.2031 62.9062 L157.1094 65.375 L157.2656 65.4844 L158.1562 65.2656 L158.0156 62.0938 C158.5469 62.8438 159.3594 63.1719 160.1719 63.1719 C161.5625 63.1719 162.8594 62.2188 162.8594 60.4844 C162.8594 58.9531 161.875 58.1094 160.125 58 C161.5625 57.6094 162.1875 56.4531 162.1875 55.4844 C162.1875 54.0938 161.1562 53.3125 159.9062 53.3125 C158.2969 53.3125 157.2188 54.5469 157.2188 56.5156 L157.2031 62.9062 Z"
      /><rect x="227" y="70" width="6" style="fill:white; stroke:none;" height="10"
      /><path style="stroke:none;" d="M230.3438 79.6875 C229.2031 79.6875 228.5312 78.5 228.5312 76.2969 C228.5312 76.2188 228.5312 76.125 228.5312 76.0469 C229.0938 75.5 229.7188 75.3125 230.3438 75.3125 C231.3125 75.3125 231.9531 75.9844 231.9531 77.4531 C231.9531 78.9375 231.3125 79.6875 230.3438 79.6875 ZM232.5312 71.0781 C229.3438 71.4531 227.5625 73.7656 227.5625 76.4531 C227.5625 78.7812 228.6094 80.1719 230.3125 80.1719 C231.8438 80.1719 232.9219 79.1094 232.9219 77.2812 C232.9219 75.6875 231.9688 74.6562 230.5625 74.6562 C229.8281 74.6562 229.1406 74.9844 228.5781 75.5781 C228.7969 73.4062 230.0781 71.9688 232.5938 71.3906 L232.5312 71.0781 Z"
      /><rect x="213" y="70" width="5" style="fill:white; stroke:none;" height="10"
      /><path style="stroke:none;" d="M214.8906 78.6875 C214.4844 78.6875 214.1562 79.0469 214.1562 79.4219 C214.1562 79.8125 214.4844 80.1562 214.8906 80.1562 C215.2969 80.1562 215.6406 79.8125 215.6406 79.4219 C215.6406 79.0469 215.2969 78.6875 214.8906 78.6875 ZM216.4688 72.5781 C216.7188 72.8906 216.875 73.2656 216.8906 73.6562 C216.8906 74.1875 216.625 74.5 216.0312 74.7656 L215.4062 75.0156 C214.6406 75.3125 214.3906 75.5469 214.3906 75.9375 C214.3906 76.1094 214.4531 76.3438 214.5781 76.8125 L214.7344 77.3438 L215.1094 77.3438 L215.0938 76.5312 C215.0938 76.0938 215.2031 75.9688 215.7812 75.7344 L216.2031 75.5625 C217.0312 75.2188 217.4531 74.6875 217.4531 73.8438 C217.4531 72.1562 215.6562 71.1875 214.5 71.0312 C214.1094 71.125 213.9062 71.2969 213.9062 71.6406 C213.9062 71.9375 214.0625 72.1562 214.7188 72.2656 L216.4688 72.5781 Z"
      /><rect x="264" y="71" width="8" style="fill:white; stroke:none;" height="8"
      /><path style="stroke:none;" d="M268.9844 76.7031 C268.9375 77.8906 268.1562 78.6562 267.3125 78.6562 C266.2656 78.6562 265.5 77.6875 265.5 75.7188 C265.5 74.2812 266.1562 73.1562 267.3438 73.1562 C268.1406 73.1562 268.7812 73.6875 269.0938 74.6406 L268.9844 76.7031 ZM270.9062 78.2812 C270.7344 78.375 270.5469 78.4219 270.3438 78.4219 C269.9531 78.4219 269.75 78.2188 269.75 77.4219 C269.75 76.4844 269.9688 74.5312 270.1875 72.8281 L270.0312 72.7188 L269.2344 72.9219 L269.1406 73.7969 C268.7812 73.0312 268.1562 72.6562 267.3906 72.6562 C266.0469 72.6562 264.5625 73.8438 264.5625 75.9531 C264.5625 78.0938 265.7188 79.1719 267.1406 79.1719 C268.0156 79.1719 268.6875 78.8125 269.0938 77.9844 C269.2031 78.8594 269.5156 79.1719 270.0156 79.1719 C270.4688 79.1719 270.7969 78.9062 271.0156 78.5625 L270.9062 78.2812 Z"
    /></g
  ></g
></svg
>
