<?xml version="1.0"?>
<!DOCTYPE svg PUBLIC '-//W3C//DTD SVG 1.0//EN'
          'http://www.w3.org/TR/2001/REC-SVG-20010904/DTD/svg10.dtd'>
<svg xmlns:xlink="http://www.w3.org/1999/xlink" style="fill-opacity:1; color-rendering:auto; color-interpolation:auto; text-rendering:auto; stroke:black; stroke-linecap:square; stroke-miterlimit:10; shape-rendering:auto; stroke-opacity:1; fill:black; stroke-dasharray:none; font-weight:normal; stroke-width:1; font-family:'Dialog'; font-style:normal; stroke-linejoin:miter; font-size:12px; stroke-dashoffset:0; image-rendering:auto;" viewBox="0 0 186 120" xmlns="http://www.w3.org/2000/svg"
><!--Generated by the Batik Graphics2D SVG Generator--><defs id="genericDefs"
  /><g
  ><defs id="defs1"
    ><clipPath clipPathUnits="userSpaceOnUse" id="clipPath1"
      ><path style="fill-rule:evenodd;" d="M93 30 L103 37 L99 49 L86 49 L82 37 L93 30 Z"
      /></clipPath
      ><clipPath clipPathUnits="userSpaceOnUse" id="clipPath2"
      ><path d="M52 41 C52 47.0751 47.0751 52 41 52 C34.9249 52 30 47.0751 30 41 C30 34.9249 34.9249 30 41 30 C47.0751 30 52 34.9249 52 41 Z"
      /></clipPath
    ></defs
    ><g style="fill:white; text-rendering:optimizeSpeed; stroke:white;"
    ><rect x="0" width="186" height="120" y="0" style="stroke:none;"
      /><polygon style="fill:none; stroke:black;" points=" 93 41 41 41"
      /><polygon style="clip-path:url(#clipPath1); stroke:none;" points=" 93 30 103 37 99 49 86 49 82 37 93 30"
      /><rect x="82" y="30" width="22" style="clip-path:url(#clipPath1); stroke:none;" height="22"
      /><rect x="82" y="30" width="22" style="clip-path:url(#clipPath1); fill:none; stroke:black;" height="22"
      /><polygon style="fill:none; stroke:black;" points=" 93 30 103 37 99 49 86 49 82 37 93 30"
    /></g
    ><g style="text-rendering:optimizeSpeed; font-size:14px; font-family:'SansSerif';"
    ><path style="stroke:none;" d="M91.2344 46 L96.8594 46 L96.8594 44.9375 L94.7969 44.9375 L94.7969 35.7188 L93.8281 35.7188 C93.2656 36.0625 92.6094 36.2969 91.6875 36.4688 L91.6875 37.2812 L93.5156 37.2812 L93.5156 44.9375 L91.2344 44.9375 L91.2344 46 Z"
      /><path style="stroke:none;" d="M77.0938 40.2031 C77.0938 38.6562 77.75 37.8125 78.7969 37.8125 C79.7188 37.8125 80.2656 38.4531 80.2656 39.5156 C80.2656 40.7188 79.5 41.4375 78.1875 41.7031 L78.2969 42.3125 C80.2188 42.2344 80.9375 43.2188 80.9375 44.4375 C80.9375 45.625 80.2344 46.4219 78.9531 46.4219 C78.25 46.4219 77.6562 46.1562 77.0938 45.7188 L77.0938 40.2031 ZM76.2031 46.9062 L76.1094 49.375 L76.2656 49.4844 L77.1562 49.2656 L77.0156 46.0938 C77.5469 46.8438 78.3594 47.1719 79.1719 47.1719 C80.5625 47.1719 81.8594 46.2188 81.8594 44.4844 C81.8594 42.9531 80.875 42.1094 79.125 42 C80.5625 41.6094 81.1875 40.4531 81.1875 39.4844 C81.1875 38.0938 80.1562 37.3125 78.9062 37.3125 C77.2969 37.3125 76.2188 38.5469 76.2188 40.5156 L76.2031 46.9062 Z"
      /><rect x="85" y="58" width="14" style="fill:white; stroke:none;" height="11"
      /><path style="stroke:none;" d="M85.6094 69 L92.0625 69 L92.0625 67.8906 L89.2344 67.8906 C88.7031 67.8906 88.0781 67.9531 87.5469 67.9844 C89.9531 65.7031 91.5625 63.625 91.5625 61.5781 C91.5625 59.75 90.4219 58.5469 88.5781 58.5469 C87.2812 58.5469 86.4062 59.1406 85.5625 60.0469 L86.2969 60.7812 C86.8594 60.1094 87.5938 59.5938 88.4375 59.5938 C89.7031 59.5938 90.3125 60.4531 90.3125 61.625 C90.3125 63.3906 88.8438 65.4375 85.6094 68.25 L85.6094 69 ZM96.645 69.1875 C97.5512 69.1875 98.3637 68.6875 98.9575 68.1094 L99.0043 68.1094 L99.1137 69 L100.145 69 L100.145 57.8594 L98.895 57.8594 L98.895 60.7812 L98.9418 62.0938 C98.27 61.5312 97.6918 61.2031 96.8012 61.2031 C95.0668 61.2031 93.5043 62.7344 93.5043 65.2031 C93.5043 67.7344 94.7387 69.1875 96.645 69.1875 ZM96.9262 68.125 C95.5825 68.125 94.8325 67.0312 94.8325 65.1875 C94.8325 63.4531 95.8012 62.2812 97.02 62.2812 C97.6606 62.2812 98.2231 62.5 98.895 63.0781 L98.895 67.0625 C98.2387 67.7656 97.6293 68.125 96.9262 68.125 Z"
    /></g
    ><g style="fill:white; text-rendering:optimizeSpeed; stroke:white;"
    ><circle r="11" style="clip-path:url(#clipPath2); stroke:none;" cx="41" cy="41"
      /><rect x="30" y="30" width="22" style="clip-path:url(#clipPath2); fill:rgb(255,212,0); stroke:none;" height="22"
      /><rect x="30" y="30" width="22" style="clip-path:url(#clipPath2); fill:none; stroke:black;" height="22"
      /><circle r="11" style="fill:none; stroke:black;" cx="41" cy="41"
      /><rect x="71" width="5" height="9" y="44" style="stroke:none;"
      /><path d="M74.8594 52.3906 C74.8594 51.6719 74.8438 50.9531 74.8438 50.25 L74.8438 46.1406 L74.8906 44.2656 L74.7031 44.125 L72.1094 44.7969 L72.1094 45.2344 L73.9219 45.0312 L73.9219 50.25 C73.9219 50.9531 73.9062 51.6719 73.8906 52.3906 L72 52.6094 L72 53 L76.7344 53 L76.7344 52.6094 L74.8594 52.3906 Z" style="fill:black; stroke:none;"
      /><rect x="57" width="6" height="13" y="42" style="stroke:none;"
      /><path d="M59.0938 48.2031 C59.0938 46.6562 59.75 45.8125 60.7969 45.8125 C61.7188 45.8125 62.2656 46.4531 62.2656 47.5156 C62.2656 48.7188 61.5 49.4375 60.1875 49.7031 L60.2969 50.3125 C62.2188 50.2344 62.9375 51.2188 62.9375 52.4375 C62.9375 53.625 62.2344 54.4219 60.9531 54.4219 C60.25 54.4219 59.6562 54.1562 59.0938 53.7188 L59.0938 48.2031 ZM58.2031 54.9062 L58.1094 57.375 L58.2656 57.4844 L59.1562 57.2656 L59.0156 54.0938 C59.5469 54.8438 60.3594 55.1719 61.1719 55.1719 C62.5625 55.1719 63.8594 54.2188 63.8594 52.4844 C63.8594 50.9531 62.875 50.1094 61.125 50 C62.5625 49.6094 63.1875 48.4531 63.1875 47.4844 C63.1875 46.0938 62.1562 45.3125 60.9062 45.3125 C59.2969 45.3125 58.2188 46.5469 58.2188 48.5156 L58.2031 54.9062 Z" style="fill:black; stroke:none;"
    /></g
    ><g ID="legend-1:0" style="text-rendering:optimizeSpeed; font-size:10px; font-family:'SansSerif';"
    ><path style="stroke:none;" d="M30.875 90 L34.9062 90 L34.9062 89.2344 L33.4375 89.2344 L33.4375 82.6562 L32.7344 82.6562 C32.3281 82.9062 31.8594 83.0625 31.2031 83.1875 L31.2031 83.7656 L32.5156 83.7656 L32.5156 89.2344 L30.875 89.2344 L30.875 90 ZM35.925 85.4531 L40.7219 85.4531 L40.7219 84.7656 L35.925 84.7656 L35.925 85.4531 ZM35.925 87.8438 L40.7219 87.8438 L40.7219 87.1719 L35.925 87.1719 L35.925 87.8438 ZM41.9906 91.9844 L42.9125 91.9844 C42.8969 91.0781 42.8812 90.2188 42.85 89.2969 C43.4125 89.9219 44.1156 90.125 44.7875 90.125 C45.8969 90.125 46.9125 89.3125 46.9125 87.8438 C46.9125 86.7031 46.2562 85.8906 45.1625 85.7344 L45.1625 85.6875 C45.8656 85.2656 46.2562 84.6406 46.2562 83.8281 C46.2562 82.5312 45.2719 81.9062 44.225 81.9062 C42.6937 81.9062 41.9906 83.0156 41.9906 84.5156 L41.9906 91.9844 ZM44.5844 89.375 C44.0062 89.375 43.3812 89.1875 42.85 88.5156 C42.85 87.2031 42.8656 85.9375 42.8812 84.6406 C42.8969 83.3438 43.3969 82.6406 44.225 82.6406 C44.8344 82.6406 45.3656 83.0625 45.3656 83.9062 C45.3656 84.625 44.9281 85.4062 43.7875 85.625 L43.9125 86.3281 C44.1 86.2812 44.2875 86.2656 44.475 86.2656 C45.5062 86.2656 46.0062 86.9219 46.0062 87.7969 C46.0062 88.7812 45.3656 89.375 44.5844 89.375 ZM47.8631 87.5469 L50.4256 87.5469 L50.4256 86.8438 L47.8631 86.8438 L47.8631 87.5469 ZM51.3175 90 L55.9268 90 L55.9268 89.2031 L53.8956 89.2031 C53.5362 89.2031 53.0831 89.25 52.6925 89.2812 C54.4268 87.6562 55.5675 86.1562 55.5675 84.7031 C55.5675 83.3906 54.755 82.5312 53.4425 82.5312 C52.505 82.5312 51.88 82.9531 51.2862 83.6094 L51.8175 84.125 C52.2081 83.6562 52.7237 83.2812 53.3331 83.2812 C54.2393 83.2812 54.6768 83.8906 54.6768 84.7344 C54.6768 85.9844 53.6143 87.4531 51.3175 89.4531 L51.3175 90 ZM56.8831 87.5469 L59.4456 87.5469 L59.4456 86.8438 L56.8831 86.8438 L56.8831 87.5469 ZM62.6656 90.125 C63.3218 90.125 63.8843 89.7812 64.3218 89.3594 L64.3531 89.3594 L64.4312 90 L65.1656 90 L65.1656 82.0469 L64.275 82.0469 L64.275 84.125 L64.3062 85.0625 C63.8375 84.6719 63.4156 84.4375 62.775 84.4375 C61.5406 84.4375 60.4312 85.5312 60.4312 87.2969 C60.4312 89.0938 61.3062 90.125 62.6656 90.125 ZM62.8687 89.375 C61.9156 89.375 61.3687 88.5938 61.3687 87.2812 C61.3687 86.0469 62.0562 85.2031 62.9468 85.2031 C63.3843 85.2031 63.8062 85.3594 64.275 85.7656 L64.275 88.625 C63.8062 89.125 63.3687 89.375 62.8687 89.375 ZM69.2093 90.125 C69.9437 90.125 70.5375 89.875 71.0062 89.5625 L70.6781 88.9688 C70.2875 89.2344 69.85 89.4062 69.3187 89.4062 C68.2875 89.4062 67.5843 88.6562 67.5218 87.5 L71.1781 87.5 C71.1937 87.375 71.225 87.1875 71.225 86.9844 C71.225 85.4375 70.4437 84.4375 69.0531 84.4375 C67.8031 84.4375 66.6156 85.5312 66.6156 87.2969 C66.6156 89.0781 67.7718 90.125 69.2093 90.125 ZM67.5062 86.8438 C67.6156 85.7812 68.3031 85.1562 69.0687 85.1562 C69.9125 85.1562 70.4125 85.75 70.4125 86.8438 L67.5062 86.8438 ZM74.6712 90.125 C75.9993 90.125 77.1868 89.0938 77.1868 87.2969 C77.1868 85.4844 75.9993 84.4375 74.6712 84.4375 C73.3431 84.4375 72.1556 85.4844 72.1556 87.2969 C72.1556 89.0938 73.3431 90.125 74.6712 90.125 ZM74.6712 89.375 C73.7337 89.375 73.0931 88.5469 73.0931 87.2969 C73.0931 86.0469 73.7337 85.1875 74.6712 85.1875 C75.6087 85.1875 76.2493 86.0469 76.2493 87.2969 C76.2493 88.5469 75.6087 89.375 74.6712 89.375 ZM77.8562 90 L78.8093 90 L79.5437 88.7344 C79.7312 88.4062 79.9031 88.0625 80.1062 87.7656 L80.1531 87.7656 C80.3562 88.0625 80.5437 88.4062 80.7312 88.7344 L81.5281 90 L82.5281 90 L80.7468 87.2656 L82.3875 84.5625 L81.4343 84.5625 L80.7625 85.7656 C80.6062 86.0625 80.45 86.375 80.2781 86.6719 L80.2468 86.6719 C80.0593 86.375 79.8718 86.0625 79.7 85.7656 L78.9656 84.5625 L77.9968 84.5625 L79.6375 87.1719 L77.8562 90 ZM83.6956 92.3438 C84.7737 92.3438 85.3362 91.5156 85.7112 90.4531 L87.7581 84.5625 L86.8674 84.5625 L85.8987 87.5938 C85.7424 88.0625 85.5862 88.625 85.4456 89.1094 L85.3831 89.1094 C85.2268 88.625 85.0237 88.0625 84.8674 87.5938 L83.7581 84.5625 L82.8049 84.5625 L84.9924 90.0156 L84.8674 90.4219 C84.6487 91.0938 84.2581 91.5938 83.6331 91.5938 C83.4924 91.5938 83.3362 91.5469 83.2268 91.5 L83.0549 92.2344 C83.2268 92.2969 83.4299 92.3438 83.6956 92.3438 ZM88.3431 87.5469 L90.9056 87.5469 L90.9056 86.8438 L88.3431 86.8438 L88.3431 87.5469 ZM92.3599 90 L94.2349 90 C96.4537 90 97.6568 88.625 97.6568 86.3125 C97.6568 83.9844 96.4537 82.6562 94.2037 82.6562 L92.3599 82.6562 L92.3599 90 ZM93.2974 89.2344 L93.2974 83.4219 L94.1256 83.4219 C95.8443 83.4219 96.7037 84.4531 96.7037 86.3125 C96.7037 88.1562 95.8443 89.2344 94.1256 89.2344 L93.2974 89.2344 ZM98.6831 87.5469 L101.2456 87.5469 L101.2456 86.8438 L98.6831 86.8438 L98.6831 87.5469 ZM103.8718 90.125 C104.5437 90.125 105.1531 89.7812 105.6687 89.3438 L105.6999 89.3438 L105.7781 90 L106.5281 90 L106.5281 86.6562 C106.5281 85.3125 105.9656 84.4375 104.6531 84.4375 C103.7781 84.4375 103.0124 84.8125 102.5124 85.1406 L102.8718 85.7656 C103.2937 85.4844 103.8718 85.1875 104.4968 85.1875 C105.3874 85.1875 105.6218 85.8594 105.6218 86.5625 C103.3093 86.8125 102.2781 87.4062 102.2781 88.5938 C102.2781 89.5625 102.9656 90.125 103.8718 90.125 ZM104.1374 89.4062 C103.5906 89.4062 103.1687 89.1562 103.1687 88.5312 C103.1687 87.8281 103.7937 87.375 105.6218 87.1562 L105.6218 88.6875 C105.0906 89.1562 104.6531 89.4062 104.1374 89.4062 ZM108.2618 90 L109.1681 90 L109.1681 86.5156 C109.5274 85.5781 110.0899 85.2656 110.5431 85.2656 C110.7618 85.2656 110.8868 85.2812 111.0743 85.3438 L111.2462 84.5469 C111.0743 84.4531 110.9024 84.4375 110.6524 84.4375 C110.0431 84.4375 109.4962 84.875 109.1212 85.5625 L109.0899 85.5625 L109.0118 84.5625 L108.2618 84.5625 L108.2618 90 ZM113.3918 90.125 C114.0637 90.125 114.673 89.7812 115.1887 89.3438 L115.2199 89.3438 L115.298 90 L116.048 90 L116.048 86.6562 C116.048 85.3125 115.4855 84.4375 114.173 84.4375 C113.298 84.4375 112.5324 84.8125 112.0324 85.1406 L112.3918 85.7656 C112.8137 85.4844 113.3918 85.1875 114.0168 85.1875 C114.9074 85.1875 115.1418 85.8594 115.1418 86.5625 C112.8293 86.8125 111.798 87.4062 111.798 88.5938 C111.798 89.5625 112.4855 90.125 113.3918 90.125 ZM113.6574 89.4062 C113.1105 89.4062 112.6887 89.1562 112.6887 88.5312 C112.6887 87.8281 113.3137 87.375 115.1418 87.1562 L115.1418 88.6875 C114.6105 89.1562 114.173 89.4062 113.6574 89.4062 ZM117.8599 90 L118.7974 90 L118.7974 86.5469 L122.2037 86.5469 L122.2037 90 L123.1255 90 L123.1255 82.6562 L122.2037 82.6562 L122.2037 85.7344 L118.7974 85.7344 L118.7974 82.6562 L117.8599 82.6562 L117.8599 90 ZM127.2493 90.125 C127.9837 90.125 128.5774 89.875 129.0462 89.5625 L128.718 88.9688 C128.3274 89.2344 127.8899 89.4062 127.3587 89.4062 C126.3274 89.4062 125.6243 88.6562 125.5618 87.5 L129.218 87.5 C129.2337 87.375 129.2649 87.1875 129.2649 86.9844 C129.2649 85.4375 128.4837 84.4375 127.093 84.4375 C125.843 84.4375 124.6555 85.5312 124.6555 87.2969 C124.6555 89.0781 125.8118 90.125 127.2493 90.125 ZM125.5462 86.8438 C125.6555 85.7812 126.343 85.1562 127.1087 85.1562 C127.9524 85.1562 128.4524 85.75 128.4524 86.8438 L125.5462 86.8438 ZM129.8362 90 L130.7893 90 L131.5237 88.7344 C131.7112 88.4062 131.883 88.0625 132.0862 87.7656 L132.133 87.7656 C132.3362 88.0625 132.5237 88.4062 132.7112 88.7344 L133.508 90 L134.508 90 L132.7268 87.2656 L134.3674 84.5625 L133.4143 84.5625 L132.7424 85.7656 C132.5862 86.0625 132.4299 86.375 132.258 86.6719 L132.2268 86.6719 C132.0393 86.375 131.8518 86.0625 131.6799 85.7656 L130.9455 84.5625 L129.9768 84.5625 L131.6174 87.1719 L129.8362 90 ZM135.5818 92.2969 L136.488 92.2969 L136.488 90.4531 L136.4724 89.5 C136.9568 89.9062 137.4724 90.125 137.9724 90.125 C139.2224 90.125 140.3318 89.0625 140.3318 87.2031 C140.3318 85.5312 139.5662 84.4375 138.1755 84.4375 C137.5349 84.4375 136.9255 84.7969 136.4412 85.1875 L136.4099 85.1875 L136.3318 84.5625 L135.5818 84.5625 L135.5818 92.2969 ZM137.8162 89.375 C137.4568 89.375 136.9724 89.2188 136.488 88.7969 L136.488 85.9531 C137.0193 85.4531 137.488 85.2031 137.9568 85.2031 C138.9724 85.2031 139.3787 86.0156 139.3787 87.2031 C139.3787 88.5625 138.7224 89.375 137.8162 89.375 Z"
    /></g
  ></g
></svg
>
