<?xml version="1.0"?>
<!DOCTYPE svg PUBLIC '-//W3C//DTD SVG 1.0//EN'
          'http://www.w3.org/TR/2001/REC-SVG-20010904/DTD/svg10.dtd'>
<svg xmlns:xlink="http://www.w3.org/1999/xlink" style="fill-opacity:1; color-rendering:auto; color-interpolation:auto; text-rendering:auto; stroke:black; stroke-linecap:square; stroke-miterlimit:10; shape-rendering:auto; stroke-opacity:1; fill:black; stroke-dasharray:none; font-weight:normal; stroke-width:1; font-family:'Dialog'; font-style:normal; stroke-linejoin:miter; font-size:12px; stroke-dashoffset:0; image-rendering:auto;" viewBox="0 0 394 199" xmlns="http://www.w3.org/2000/svg"
><!--Generated by the Batik Graphics2D SVG Generator--><defs id="genericDefs"
  /><g
  ><defs id="defs1"
    ><clipPath clipPathUnits="userSpaceOnUse" id="clipPath1"
      ><path d="M290 82 L312 82 L312 104 L290 104 L290 82 Z"
      /></clipPath
      ><clipPath clipPathUnits="userSpaceOnUse" id="clipPath2"
      ><path d="M238 82 L260 82 L260 104 L238 104 L238 82 Z"
      /></clipPath
      ><clipPath clipPathUnits="userSpaceOnUse" id="clipPath3"
      ><path d="M208 93 C208 99.0751 203.0751 104 197 104 C190.9249 104 186 99.0751 186 93 C186 86.9249 190.9249 82 197 82 C203.0751 82 208 86.9249 208 93 Z"
      /></clipPath
      ><clipPath clipPathUnits="userSpaceOnUse" id="clipPath4"
      ><path d="M156 132 C156 138.0751 151.0751 143 145 143 C138.9249 143 134 138.0751 134 132 C134 125.9249 138.9249 121 145 121 C151.0751 121 156 125.9249 156 132 Z"
      /></clipPath
      ><clipPath clipPathUnits="userSpaceOnUse" id="clipPath5"
      ><path d="M82 147 L104 147 L104 169 L82 169 L82 147 Z"
      /></clipPath
      ><clipPath clipPathUnits="userSpaceOnUse" id="clipPath6"
      ><path d="M52 158 C52 164.0751 47.0751 169 41 169 C34.9249 169 30 164.0751 30 158 C30 151.9249 34.9249 147 41 147 C47.0751 147 52 151.9249 52 158 Z"
      /></clipPath
      ><clipPath clipPathUnits="userSpaceOnUse" id="clipPath7"
      ><path d="M82 95 L104 95 L104 117 L82 117 L82 95 Z"
      /></clipPath
      ><clipPath clipPathUnits="userSpaceOnUse" id="clipPath8"
      ><path d="M52 106 C52 112.0751 47.0751 117 41 117 C34.9249 117 30 112.0751 30 106 C30 99.9249 34.9249 95 41 95 C47.0751 95 52 99.9249 52 106 Z"
      /></clipPath
      ><clipPath clipPathUnits="userSpaceOnUse" id="clipPath9"
      ><path d="M156 54 C156 60.0751 151.0751 65 145 65 C138.9249 65 134 60.0751 134 54 C134 47.9249 138.9249 43 145 43 C151.0751 43 156 47.9249 156 54 Z"
      /></clipPath
      ><clipPath clipPathUnits="userSpaceOnUse" id="clipPath10"
      ><path d="M82 43 L104 43 L104 65 L82 65 L82 43 Z"
      /></clipPath
      ><clipPath clipPathUnits="userSpaceOnUse" id="clipPath11"
      ><path d="M30 43 L52 43 L52 65 L30 65 L30 43 Z"
      /></clipPath
      ><clipPath clipPathUnits="userSpaceOnUse" id="clipPath12"
      ><path style="fill-rule:evenodd;" d="M301 52 L290 30 L312 30 Z"
      /></clipPath
    ></defs
    ><g style="fill:white; text-rendering:optimizeSpeed; stroke:white;"
    ><rect x="0" width="394" height="199" y="0" style="stroke:none;"
      /><polygon style="fill:none; stroke:black;" points=" 353 93 301 93"
      /><path d="M353 82 C347.5 87.5 358.5 98.5 353 104" style="fill:none; stroke:black;"
      /><polygon style="fill:none; stroke:black;" points=" 301 93 249 93"
      /><polygon style="fill:none; stroke:black;" points=" 301 93 301 41"
      /><rect x="290" y="82" width="22" style="clip-path:url(#clipPath1); stroke:none;" height="22"
      /><rect x="290" y="82" width="22" style="clip-path:url(#clipPath1); fill:rgb(0,144,188); stroke:none;" height="22"
      /><rect x="290" y="82" width="22" style="clip-path:url(#clipPath1); fill:none; stroke:black;" height="22"
      /><rect x="290" y="82" width="22" style="fill:none; stroke:black;" height="22"
      /><polygon style="fill:none; stroke:black;" points=" 249 93 197 93"
      /><rect x="238" y="82" width="22" style="clip-path:url(#clipPath2); stroke:none;" height="22"
      /><rect x="238" y="82" width="22" style="clip-path:url(#clipPath2); fill:rgb(0,144,188); stroke:none;" height="22"
      /><rect x="238" y="82" width="22" style="clip-path:url(#clipPath2); fill:none; stroke:black;" height="22"
      /><rect x="238" y="82" width="22" style="fill:none; stroke:black;" height="22"
      /><polygon style="fill:none; stroke:black;" points=" 197 93 145 132"
      /><polygon style="fill:none; stroke:black;" points=" 197 93 145 54"
      /><circle style="clip-path:url(#clipPath3); stroke:none;" r="11" cx="197" cy="93"
      /><rect x="186" y="82" width="22" style="clip-path:url(#clipPath3); fill:rgb(0,166,81); stroke:none;" height="22"
      /><rect x="186" y="82" width="22" style="clip-path:url(#clipPath3); fill:none; stroke:black;" height="22"
      /><circle style="fill:none; stroke:black;" r="11" cx="197" cy="93"
      /><polygon style="fill:none; stroke:black;" points=" 145 132 93 158"
      /><polygon style="fill:none; stroke:black;" points=" 145 132 93 106"
      /><circle style="clip-path:url(#clipPath4); stroke:none;" r="11" cx="145" cy="132"
      /><rect x="134" y="121" width="22" style="clip-path:url(#clipPath4); fill:rgb(0,166,81); stroke:none;" height="22"
      /><rect x="134" y="121" width="22" style="clip-path:url(#clipPath4); fill:none; stroke:black;" height="22"
      /><circle style="fill:none; stroke:black;" r="11" cx="145" cy="132"
      /><polygon style="fill:none; stroke:black;" points=" 93 158 41 158"
      /><rect x="82" y="147" width="22" style="clip-path:url(#clipPath5); stroke:none;" height="22"
      /><rect x="82" y="147" width="22" style="clip-path:url(#clipPath5); fill:rgb(0,144,188); stroke:none;" height="22"
      /><rect x="82" y="147" width="22" style="clip-path:url(#clipPath5); fill:none; stroke:black;" height="22"
      /><rect x="82" y="147" width="22" style="fill:none; stroke:black;" height="22"
      /><circle style="clip-path:url(#clipPath6); stroke:none;" r="11" cx="41" cy="158"
      /><rect x="30" y="147" width="22" style="clip-path:url(#clipPath6); fill:rgb(255,212,0); stroke:none;" height="22"
      /><rect x="30" y="147" width="22" style="clip-path:url(#clipPath6); fill:none; stroke:black;" height="22"
      /><circle style="fill:none; stroke:black;" r="11" cx="41" cy="158"
      /><rect x="70" y="161" width="7" style="stroke:none;" height="9"
    /></g
    ><g style="font-family:'Serif'; text-rendering:optimizeSpeed; "
    ><path style="stroke:none;" d="M71 166.5156 L73.9531 162.2656 L73.9531 166.5156 L71 166.5156 ZM76.2812 166.5156 L74.8594 166.5156 L74.8594 161.125 L74.2344 161.125 L70.3438 166.6406 L70.3438 167.1875 L73.9531 167.1875 L73.9531 170 L74.8594 170 L74.8594 167.1875 L76.2812 167.1875 L76.2812 166.5156 Z"
      /><rect x="57" y="159" width="6" style="fill:white; stroke:none;" height="13"
      /><path style="stroke:none;" d="M59.0938 165.2031 C59.0938 163.6562 59.75 162.8125 60.7969 162.8125 C61.7188 162.8125 62.2656 163.4531 62.2656 164.5156 C62.2656 165.7188 61.5 166.4375 60.1875 166.7031 L60.2969 167.3125 C62.2188 167.2344 62.9375 168.2188 62.9375 169.4375 C62.9375 170.625 62.2344 171.4219 60.9531 171.4219 C60.25 171.4219 59.6562 171.1562 59.0938 170.7188 L59.0938 165.2031 ZM58.2031 171.9062 L58.1094 174.375 L58.2656 174.4844 L59.1562 174.2656 L59.0156 171.0938 C59.5469 171.8438 60.3594 172.1719 61.1719 172.1719 C62.5625 172.1719 63.8594 171.2188 63.8594 169.4844 C63.8594 167.9531 62.875 167.1094 61.125 167 C62.5625 166.6094 63.1875 165.4531 63.1875 164.4844 C63.1875 163.0938 62.1562 162.3125 60.9062 162.3125 C59.2969 162.3125 58.2188 163.5469 58.2188 165.5156 L58.2031 171.9062 Z"
      /><polygon style="fill:none;" points=" 93 106 41 106"
      /><rect x="82" y="95" width="22" style="clip-path:url(#clipPath7); fill:white; stroke:none;" height="22"
      /><rect x="82" y="95" width="22" style="clip-path:url(#clipPath7); fill:rgb(0,144,188); stroke:none;" height="22"
      /><rect x="82" y="95" width="22" style="fill:none; clip-path:url(#clipPath7);" height="22"
      /><rect x="82" width="22" height="22" y="95" style="fill:none;"
      /><circle style="fill:white; clip-path:url(#clipPath8); stroke:none;" r="11" cx="41" cy="106"
      /><rect x="30" y="95" width="22" style="clip-path:url(#clipPath8); fill:rgb(255,212,0); stroke:none;" height="22"
      /><rect x="30" y="95" width="22" style="fill:none; clip-path:url(#clipPath8);" height="22"
      /><circle r="11" style="fill:none;" cx="41" cy="106"
      /><rect x="70" y="109" width="7" style="fill:white; stroke:none;" height="9"
      /><path style="stroke:none;" d="M71 114.5156 L73.9531 110.2656 L73.9531 114.5156 L71 114.5156 ZM76.2812 114.5156 L74.8594 114.5156 L74.8594 109.125 L74.2344 109.125 L70.3438 114.6406 L70.3438 115.1875 L73.9531 115.1875 L73.9531 118 L74.8594 118 L74.8594 115.1875 L76.2812 115.1875 L76.2812 114.5156 Z"
      /><rect x="57" y="107" width="6" style="fill:white; stroke:none;" height="13"
      /><path style="stroke:none;" d="M59.0938 113.2031 C59.0938 111.6562 59.75 110.8125 60.7969 110.8125 C61.7188 110.8125 62.2656 111.4531 62.2656 112.5156 C62.2656 113.7188 61.5 114.4375 60.1875 114.7031 L60.2969 115.3125 C62.2188 115.2344 62.9375 116.2188 62.9375 117.4375 C62.9375 118.625 62.2344 119.4219 60.9531 119.4219 C60.25 119.4219 59.6562 119.1562 59.0938 118.7188 L59.0938 113.2031 ZM58.2031 119.9062 L58.1094 122.375 L58.2656 122.4844 L59.1562 122.2656 L59.0156 119.0938 C59.5469 119.8438 60.3594 120.1719 61.1719 120.1719 C62.5625 120.1719 63.8594 119.2188 63.8594 117.4844 C63.8594 115.9531 62.875 115.1094 61.125 115 C62.5625 114.6094 63.1875 113.4531 63.1875 112.4844 C63.1875 111.0938 62.1562 110.3125 60.9062 110.3125 C59.2969 110.3125 58.2188 111.5469 58.2188 113.5156 L58.2031 119.9062 Z"
      /><rect x="127" y="143" width="6" style="fill:white; stroke:none;" height="9"
      /><path style="stroke:none;" d="M128.4219 151.0938 C129.0781 150.375 129.7031 149.7188 130.0312 149.3438 C131.9219 147.3125 132.5312 146.4688 132.5312 145.3594 C132.5312 144.0156 131.7812 143.0781 130.1562 143.0781 C128.9062 143.0781 127.7969 143.7031 127.5938 144.9688 C127.7188 145.2031 127.9062 145.3438 128.1562 145.3438 C128.4688 145.3438 128.6562 145.1094 128.7969 144.5938 L129.0938 143.6719 C129.3906 143.5938 129.6562 143.5625 129.8906 143.5625 C130.9219 143.5625 131.5469 144.3125 131.5469 145.4219 C131.5469 146.4375 130.9844 147.4219 129.7031 148.9062 C129.125 149.5781 128.3906 150.4375 127.6406 151.2812 L127.6406 152 L132.9219 152 L132.9219 151.0938 L128.4219 151.0938 Z"
      /><rect x="111" y="149" width="6" style="fill:white; stroke:none;" height="13"
      /><path style="stroke:none;" d="M113.0938 155.2031 C113.0938 153.6562 113.75 152.8125 114.7969 152.8125 C115.7188 152.8125 116.2656 153.4531 116.2656 154.5156 C116.2656 155.7188 115.5 156.4375 114.1875 156.7031 L114.2969 157.3125 C116.2188 157.2344 116.9375 158.2188 116.9375 159.4375 C116.9375 160.625 116.2344 161.4219 114.9531 161.4219 C114.25 161.4219 113.6562 161.1562 113.0938 160.7188 L113.0938 155.2031 ZM112.2031 161.9062 L112.1094 164.375 L112.2656 164.4844 L113.1562 164.2656 L113.0156 161.0938 C113.5469 161.8438 114.3594 162.1719 115.1719 162.1719 C116.5625 162.1719 117.8594 161.2188 117.8594 159.4844 C117.8594 157.9531 116.875 157.1094 115.125 157 C116.5625 156.6094 117.1875 155.4531 117.1875 154.4844 C117.1875 153.0938 116.1562 152.3125 114.9062 152.3125 C113.2969 152.3125 112.2188 153.5469 112.2188 155.5156 L112.2031 161.9062 Z"
      /><rect x="120" y="125" width="6" style="fill:white; stroke:none;" height="10"
      /><path style="stroke:none;" d="M123.3438 134.6875 C122.2031 134.6875 121.5312 133.5 121.5312 131.2969 C121.5312 131.2188 121.5312 131.125 121.5312 131.0469 C122.0938 130.5 122.7188 130.3125 123.3438 130.3125 C124.3125 130.3125 124.9531 130.9844 124.9531 132.4531 C124.9531 133.9375 124.3125 134.6875 123.3438 134.6875 ZM125.5312 126.0781 C122.3438 126.4531 120.5625 128.7656 120.5625 131.4531 C120.5625 133.7812 121.6094 135.1719 123.3125 135.1719 C124.8438 135.1719 125.9219 134.1094 125.9219 132.2812 C125.9219 130.6875 124.9688 129.6562 123.5625 129.6562 C122.8281 129.6562 122.1406 129.9844 121.5781 130.5781 C121.7969 128.4062 123.0781 126.9688 125.5938 126.3906 L125.5312 126.0781 Z"
      /><rect x="104" y="115" width="6" style="fill:white; stroke:none;" height="13"
      /><path style="stroke:none;" d="M106.0938 121.2031 C106.0938 119.6562 106.75 118.8125 107.7969 118.8125 C108.7188 118.8125 109.2656 119.4531 109.2656 120.5156 C109.2656 121.7188 108.5 122.4375 107.1875 122.7031 L107.2969 123.3125 C109.2188 123.2344 109.9375 124.2188 109.9375 125.4375 C109.9375 126.625 109.2344 127.4219 107.9531 127.4219 C107.25 127.4219 106.6562 127.1562 106.0938 126.7188 L106.0938 121.2031 ZM105.2031 127.9062 L105.1094 130.375 L105.2656 130.4844 L106.1562 130.2656 L106.0156 127.0938 C106.5469 127.8438 107.3594 128.1719 108.1719 128.1719 C109.5625 128.1719 110.8594 127.2188 110.8594 125.4844 C110.8594 123.9531 109.875 123.1094 108.125 123 C109.5625 122.6094 110.1875 121.4531 110.1875 120.4844 C110.1875 119.0938 109.1562 118.3125 107.9062 118.3125 C106.2969 118.3125 105.2188 119.5469 105.2188 121.5156 L105.2031 127.9062 Z"
      /><polygon style="fill:none;" points=" 145 54 93 54"
      /><circle style="fill:white; clip-path:url(#clipPath9); stroke:none;" r="11" cx="145" cy="54"
      /><rect x="134" y="43" width="22" style="clip-path:url(#clipPath9); fill:rgb(0,166,81); stroke:none;" height="22"
      /><rect x="134" y="43" width="22" style="fill:none; clip-path:url(#clipPath9);" height="22"
      /><circle r="11" style="fill:none;" cx="145" cy="54"
      /><polygon style="fill:none;" points=" 93 54 41 54"
      /><rect x="82" y="43" width="22" style="clip-path:url(#clipPath10); fill:white; stroke:none;" height="22"
      /><rect x="82" y="43" width="22" style="clip-path:url(#clipPath10); fill:rgb(0,144,188); stroke:none;" height="22"
      /><rect x="82" y="43" width="22" style="fill:none; clip-path:url(#clipPath10);" height="22"
      /><rect x="82" width="22" height="22" y="43" style="fill:none;"
      /><rect x="30" y="43" width="22" style="clip-path:url(#clipPath11); fill:white; stroke:none;" height="22"
      /><rect x="30" y="43" width="22" style="clip-path:url(#clipPath11); fill:rgb(255,212,0); stroke:none;" height="22"
      /><rect x="30" y="43" width="22" style="fill:none; clip-path:url(#clipPath11);" height="22"
      /><rect x="30" width="22" height="22" y="43" style="fill:none;"
      /><rect x="70" y="57" width="7" style="fill:white; stroke:none;" height="9"
      /><path style="stroke:none;" d="M71 62.5156 L73.9531 58.2656 L73.9531 62.5156 L71 62.5156 ZM76.2812 62.5156 L74.8594 62.5156 L74.8594 57.125 L74.2344 57.125 L70.3438 62.6406 L70.3438 63.1875 L73.9531 63.1875 L73.9531 66 L74.8594 66 L74.8594 63.1875 L76.2812 63.1875 L76.2812 62.5156 Z"
      /><rect x="57" y="55" width="6" style="fill:white; stroke:none;" height="13"
      /><path style="stroke:none;" d="M59.0938 61.2031 C59.0938 59.6562 59.75 58.8125 60.7969 58.8125 C61.7188 58.8125 62.2656 59.4531 62.2656 60.5156 C62.2656 61.7188 61.5 62.4375 60.1875 62.7031 L60.2969 63.3125 C62.2188 63.2344 62.9375 64.2188 62.9375 65.4375 C62.9375 66.625 62.2344 67.4219 60.9531 67.4219 C60.25 67.4219 59.6562 67.1562 59.0938 66.7188 L59.0938 61.2031 ZM58.2031 67.9062 L58.1094 70.375 L58.2656 70.4844 L59.1562 70.2656 L59.0156 67.0938 C59.5469 67.8438 60.3594 68.1719 61.1719 68.1719 C62.5625 68.1719 63.8594 67.2188 63.8594 65.4844 C63.8594 63.9531 62.875 63.1094 61.125 63 C62.5625 62.6094 63.1875 61.4531 63.1875 60.4844 C63.1875 59.0938 62.1562 58.3125 60.9062 58.3125 C59.2969 58.3125 58.2188 59.5469 58.2188 61.5156 L58.2031 67.9062 Z"
      /><rect x="123" y="57" width="6" style="fill:white; stroke:none;" height="9"
      /><path style="stroke:none;" d="M124.4219 65.0938 C125.0781 64.375 125.7031 63.7188 126.0312 63.3438 C127.9219 61.3125 128.5312 60.4688 128.5312 59.3594 C128.5312 58.0156 127.7812 57.0781 126.1562 57.0781 C124.9062 57.0781 123.7969 57.7031 123.5938 58.9688 C123.7188 59.2031 123.9062 59.3438 124.1562 59.3438 C124.4688 59.3438 124.6562 59.1094 124.7969 58.5938 L125.0938 57.6719 C125.3906 57.5938 125.6562 57.5625 125.8906 57.5625 C126.9219 57.5625 127.5469 58.3125 127.5469 59.4219 C127.5469 60.4375 126.9844 61.4219 125.7031 62.9062 C125.125 63.5781 124.3906 64.4375 123.6406 65.2812 L123.6406 66 L128.9219 66 L128.9219 65.0938 L124.4219 65.0938 Z"
      /><rect x="109" y="55" width="6" style="fill:white; stroke:none;" height="13"
      /><path style="stroke:none;" d="M111.0938 61.2031 C111.0938 59.6562 111.75 58.8125 112.7969 58.8125 C113.7188 58.8125 114.2656 59.4531 114.2656 60.5156 C114.2656 61.7188 113.5 62.4375 112.1875 62.7031 L112.2969 63.3125 C114.2188 63.2344 114.9375 64.2188 114.9375 65.4375 C114.9375 66.625 114.2344 67.4219 112.9531 67.4219 C112.25 67.4219 111.6562 67.1562 111.0938 66.7188 L111.0938 61.2031 ZM110.2031 67.9062 L110.1094 70.375 L110.2656 70.4844 L111.1562 70.2656 L111.0156 67.0938 C111.5469 67.8438 112.3594 68.1719 113.1719 68.1719 C114.5625 68.1719 115.8594 67.2188 115.8594 65.4844 C115.8594 63.9531 114.875 63.1094 113.125 63 C114.5625 62.6094 115.1875 61.4531 115.1875 60.4844 C115.1875 59.0938 114.1562 58.3125 112.9062 58.3125 C111.2969 58.3125 110.2188 59.5469 110.2188 61.5156 L110.2031 67.9062 Z"
      /><rect x="176" y="105" width="16" style="fill:white; stroke:none;" height="13"
      /><path style="stroke:none;" d="M178.2344 109.6562 C178.5156 109.5938 178.7656 109.5625 179.0156 109.5625 C180.0625 109.5625 180.6719 110.1719 180.6719 111.2656 C180.6719 112.4375 179.9062 113.1094 178.7031 113.1094 L178.1875 113.1094 L178.1875 113.6406 L178.7969 113.6406 C180.2188 113.6406 180.9062 114.4219 180.9062 115.6406 C180.9062 116.8438 180.1719 117.6875 178.875 117.6875 C178.6094 117.6875 178.3125 117.6562 178.0156 117.5625 L177.7812 116.8125 C177.625 116.2812 177.5 116.0469 177.1406 116.0469 C176.8906 116.0469 176.7031 116.1719 176.5781 116.4219 C176.8438 117.6406 177.7812 118.1719 179.0312 118.1719 C180.7188 118.1719 181.875 117.125 181.875 115.7031 C181.875 114.5 181.2031 113.625 179.7969 113.375 C180.9531 113.0156 181.6094 112.2031 181.6094 111.2031 C181.6094 109.9219 180.6719 109.0781 179.1875 109.0781 C178.0469 109.0781 177.0625 109.5938 176.7969 110.6875 C176.9062 111 177.1094 111.1094 177.3594 111.1094 C177.7344 111.1094 177.8906 110.8906 178 110.4062 L178.2344 109.6562 ZM182.4993 120.0938 L183.1087 120.0938 L186.6087 108.7344 L185.9837 108.7344 L182.4993 120.0938 ZM189.9878 117.6875 C188.8472 117.6875 188.1753 116.5 188.1753 114.2969 C188.1753 114.2188 188.1753 114.125 188.1753 114.0469 C188.7378 113.5 189.3628 113.3125 189.9878 113.3125 C190.9566 113.3125 191.5972 113.9844 191.5972 115.4531 C191.5972 116.9375 190.9566 117.6875 189.9878 117.6875 ZM192.1753 109.0781 C188.9878 109.4531 187.2066 111.7656 187.2066 114.4531 C187.2066 116.7812 188.2534 118.1719 189.9566 118.1719 C191.4878 118.1719 192.5659 117.1094 192.5659 115.2812 C192.5659 113.6875 191.6128 112.6562 190.2066 112.6562 C189.4722 112.6562 188.7847 112.9844 188.2222 113.5781 C188.4409 111.4062 189.7222 109.9688 192.2378 109.3906 L192.1753 109.0781 Z"
      /><rect x="163" y="121" width="8" style="fill:white; stroke:none;" height="8"
      /><path style="stroke:none;" d="M167.9844 126.7031 C167.9375 127.8906 167.1562 128.6562 166.3125 128.6562 C165.2656 128.6562 164.5 127.6875 164.5 125.7188 C164.5 124.2812 165.1562 123.1562 166.3438 123.1562 C167.1406 123.1562 167.7812 123.6875 168.0938 124.6406 L167.9844 126.7031 ZM169.9062 128.2812 C169.7344 128.375 169.5469 128.4219 169.3438 128.4219 C168.9531 128.4219 168.75 128.2188 168.75 127.4219 C168.75 126.4844 168.9688 124.5312 169.1875 122.8281 L169.0312 122.7188 L168.2344 122.9219 L168.1406 123.7969 C167.7812 123.0312 167.1562 122.6562 166.3906 122.6562 C165.0469 122.6562 163.5625 123.8438 163.5625 125.9531 C163.5625 128.0938 164.7188 129.1719 166.1406 129.1719 C167.0156 129.1719 167.6875 128.8125 168.0938 127.9844 C168.2031 128.8594 168.5156 129.1719 169.0156 129.1719 C169.4688 129.1719 169.7969 128.9062 170.0156 128.5625 L169.9062 128.2812 Z"
      /><rect x="166" y="79" width="16" style="fill:white; stroke:none;" height="13"
      /><path style="stroke:none;" d="M168.2344 83.6562 C168.5156 83.5938 168.7656 83.5625 169.0156 83.5625 C170.0625 83.5625 170.6719 84.1719 170.6719 85.2656 C170.6719 86.4375 169.9062 87.1094 168.7031 87.1094 L168.1875 87.1094 L168.1875 87.6406 L168.7969 87.6406 C170.2188 87.6406 170.9062 88.4219 170.9062 89.6406 C170.9062 90.8438 170.1719 91.6875 168.875 91.6875 C168.6094 91.6875 168.3125 91.6562 168.0156 91.5625 L167.7812 90.8125 C167.625 90.2812 167.5 90.0469 167.1406 90.0469 C166.8906 90.0469 166.7031 90.1719 166.5781 90.4219 C166.8438 91.6406 167.7812 92.1719 169.0312 92.1719 C170.7188 92.1719 171.875 91.125 171.875 89.7031 C171.875 88.5 171.2031 87.625 169.7969 87.375 C170.9531 87.0156 171.6094 86.2031 171.6094 85.2031 C171.6094 83.9219 170.6719 83.0781 169.1875 83.0781 C168.0469 83.0781 167.0625 83.5938 166.7969 84.6875 C166.9062 85 167.1094 85.1094 167.3594 85.1094 C167.7344 85.1094 167.8906 84.8906 168 84.4062 L168.2344 83.6562 ZM172.4993 94.0938 L173.1087 94.0938 L176.6087 82.7344 L175.9837 82.7344 L172.4993 94.0938 ZM179.9878 91.6875 C178.8472 91.6875 178.1753 90.5 178.1753 88.2969 C178.1753 88.2188 178.1753 88.125 178.1753 88.0469 C178.7378 87.5 179.3628 87.3125 179.9878 87.3125 C180.9566 87.3125 181.5972 87.9844 181.5972 89.4531 C181.5972 90.9375 180.9566 91.6875 179.9878 91.6875 ZM182.1753 83.0781 C178.9878 83.4531 177.2066 85.7656 177.2066 88.4531 C177.2066 90.7812 178.2534 92.1719 179.9566 92.1719 C181.4878 92.1719 182.5659 91.1094 182.5659 89.2812 C182.5659 87.6875 181.6128 86.6562 180.2066 86.6562 C179.4722 86.6562 178.7847 86.9844 178.2222 87.5781 C178.4409 85.4062 179.7222 83.9688 182.2378 83.3906 L182.1753 83.0781 Z"
      /><rect x="153" y="69" width="8" style="fill:white; stroke:none;" height="8"
      /><path style="stroke:none;" d="M157.9844 74.7031 C157.9375 75.8906 157.1562 76.6562 156.3125 76.6562 C155.2656 76.6562 154.5 75.6875 154.5 73.7188 C154.5 72.2812 155.1562 71.1562 156.3438 71.1562 C157.1406 71.1562 157.7812 71.6875 158.0938 72.6406 L157.9844 74.7031 ZM159.9062 76.2812 C159.7344 76.375 159.5469 76.4219 159.3438 76.4219 C158.9531 76.4219 158.75 76.2188 158.75 75.4219 C158.75 74.4844 158.9688 72.5312 159.1875 70.8281 L159.0312 70.7188 L158.2344 70.9219 L158.1406 71.7969 C157.7812 71.0312 157.1562 70.6562 156.3906 70.6562 C155.0469 70.6562 153.5625 71.8438 153.5625 73.9531 C153.5625 76.0938 154.7188 77.1719 156.1406 77.1719 C157.0156 77.1719 157.6875 76.8125 158.0938 75.9844 C158.2031 76.8594 158.5156 77.1719 159.0156 77.1719 C159.4688 77.1719 159.7969 76.9062 160.0156 76.5625 L159.9062 76.2812 Z"
      /><rect x="226" y="96" width="7" style="fill:white; stroke:none;" height="9"
      /><path style="stroke:none;" d="M227 101.5156 L229.9531 97.2656 L229.9531 101.5156 L227 101.5156 ZM232.2812 101.5156 L230.8594 101.5156 L230.8594 96.125 L230.2344 96.125 L226.3438 101.6406 L226.3438 102.1875 L229.9531 102.1875 L229.9531 105 L230.8594 105 L230.8594 102.1875 L232.2812 102.1875 L232.2812 101.5156 Z"
      /><rect x="213" y="94" width="6" style="fill:white; stroke:none;" height="13"
      /><path style="stroke:none;" d="M215.0938 100.2031 C215.0938 98.6562 215.75 97.8125 216.7969 97.8125 C217.7188 97.8125 218.2656 98.4531 218.2656 99.5156 C218.2656 100.7188 217.5 101.4375 216.1875 101.7031 L216.2969 102.3125 C218.2188 102.2344 218.9375 103.2188 218.9375 104.4375 C218.9375 105.625 218.2344 106.4219 216.9531 106.4219 C216.25 106.4219 215.6562 106.1562 215.0938 105.7188 L215.0938 100.2031 ZM214.2031 106.9062 L214.1094 109.375 L214.2656 109.4844 L215.1562 109.2656 L215.0156 106.0938 C215.5469 106.8438 216.3594 107.1719 217.1719 107.1719 C218.5625 107.1719 219.8594 106.2188 219.8594 104.4844 C219.8594 102.9531 218.875 102.1094 217.125 102 C218.5625 101.6094 219.1875 100.4531 219.1875 99.4844 C219.1875 98.0938 218.1562 97.3125 216.9062 97.3125 C215.2969 97.3125 214.2188 98.5469 214.2188 100.5156 L214.2031 106.9062 Z"
      /><polygon style="fill:white; clip-path:url(#clipPath12); stroke:none;" points=" 301 52 290 30 312 30"
      /><rect x="290" y="30" width="22" style="clip-path:url(#clipPath12); fill:rgb(237,28,36); stroke:none;" height="22"
      /><rect x="290" y="30" width="22" style="fill:none; clip-path:url(#clipPath12);" height="22"
      /><polygon style="fill:none;" points=" 301 52 290 30 312 30"
      /><rect x="278" y="96" width="7" style="fill:white; stroke:none;" height="9"
      /><path style="stroke:none;" d="M279 101.5156 L281.9531 97.2656 L281.9531 101.5156 L279 101.5156 ZM284.2812 101.5156 L282.8594 101.5156 L282.8594 96.125 L282.2344 96.125 L278.3438 101.6406 L278.3438 102.1875 L281.9531 102.1875 L281.9531 105 L282.8594 105 L282.8594 102.1875 L284.2812 102.1875 L284.2812 101.5156 Z"
      /><rect x="265" y="94" width="6" style="fill:white; stroke:none;" height="13"
      /><path style="stroke:none;" d="M267.0938 100.2031 C267.0938 98.6562 267.75 97.8125 268.7969 97.8125 C269.7188 97.8125 270.2656 98.4531 270.2656 99.5156 C270.2656 100.7188 269.5 101.4375 268.1875 101.7031 L268.2969 102.3125 C270.2188 102.2344 270.9375 103.2188 270.9375 104.4375 C270.9375 105.625 270.2344 106.4219 268.9531 106.4219 C268.25 106.4219 267.6562 106.1562 267.0938 105.7188 L267.0938 100.2031 ZM266.2031 106.9062 L266.1094 109.375 L266.2656 109.4844 L267.1562 109.2656 L267.0156 106.0938 C267.5469 106.8438 268.3594 107.1719 269.1719 107.1719 C270.5625 107.1719 271.8594 106.2188 271.8594 104.4844 C271.8594 102.9531 270.875 102.1094 269.125 102 C270.5625 101.6094 271.1875 100.4531 271.1875 99.4844 C271.1875 98.0938 270.1562 97.3125 268.9062 97.3125 C267.2969 97.3125 266.2188 98.5469 266.2188 100.5156 L266.2031 106.9062 Z"
      /><rect x="290" y="69" width="6" style="fill:white; stroke:none;" height="10"
      /><path style="stroke:none;" d="M293.3438 78.6875 C292.2031 78.6875 291.5312 77.5 291.5312 75.2969 C291.5312 75.2188 291.5312 75.125 291.5312 75.0469 C292.0938 74.5 292.7188 74.3125 293.3438 74.3125 C294.3125 74.3125 294.9531 74.9844 294.9531 76.4531 C294.9531 77.9375 294.3125 78.6875 293.3438 78.6875 ZM295.5312 70.0781 C292.3438 70.4531 290.5625 72.7656 290.5625 75.4531 C290.5625 77.7812 291.6094 79.1719 293.3125 79.1719 C294.8438 79.1719 295.9219 78.1094 295.9219 76.2812 C295.9219 74.6875 294.9688 73.6562 293.5625 73.6562 C292.8281 73.6562 292.1406 73.9844 291.5781 74.5781 C291.7969 72.4062 293.0781 70.9688 295.5938 70.3906 L295.5312 70.0781 Z"
      /><rect x="289" y="56" width="8" style="fill:white; stroke:none;" height="8"
      /><path style="stroke:none;" d="M293.9844 61.7031 C293.9375 62.8906 293.1562 63.6562 292.3125 63.6562 C291.2656 63.6562 290.5 62.6875 290.5 60.7188 C290.5 59.2812 291.1562 58.1562 292.3438 58.1562 C293.1406 58.1562 293.7812 58.6875 294.0938 59.6406 L293.9844 61.7031 ZM295.9062 63.2812 C295.7344 63.375 295.5469 63.4219 295.3438 63.4219 C294.9531 63.4219 294.75 63.2188 294.75 62.4219 C294.75 61.4844 294.9688 59.5312 295.1875 57.8281 L295.0312 57.7188 L294.2344 57.9219 L294.1406 58.7969 C293.7812 58.0312 293.1562 57.6562 292.3906 57.6562 C291.0469 57.6562 289.5625 58.8438 289.5625 60.9531 C289.5625 63.0938 290.7188 64.1719 292.1406 64.1719 C293.0156 64.1719 293.6875 63.8125 294.0938 62.9844 C294.2031 63.8594 294.5156 64.1719 295.0156 64.1719 C295.4688 64.1719 295.7969 63.9062 296.0156 63.5625 L295.9062 63.2812 Z"
      /><rect x="317" y="96" width="5" style="fill:white; stroke:none;" height="10"
      /><path style="stroke:none;" d="M318.8906 104.6875 C318.4844 104.6875 318.1562 105.0469 318.1562 105.4219 C318.1562 105.8125 318.4844 106.1562 318.8906 106.1562 C319.2969 106.1562 319.6406 105.8125 319.6406 105.4219 C319.6406 105.0469 319.2969 104.6875 318.8906 104.6875 ZM320.4688 98.5781 C320.7188 98.8906 320.875 99.2656 320.8906 99.6562 C320.8906 100.1875 320.625 100.5 320.0312 100.7656 L319.4062 101.0156 C318.6406 101.3125 318.3906 101.5469 318.3906 101.9375 C318.3906 102.1094 318.4531 102.3438 318.5781 102.8125 L318.7344 103.3438 L319.1094 103.3438 L319.0938 102.5312 C319.0938 102.0938 319.2031 101.9688 319.7812 101.7344 L320.2031 101.5625 C321.0312 101.2188 321.4531 100.6875 321.4531 99.8438 C321.4531 98.1562 319.6562 97.1875 318.5 97.0312 C318.1094 97.125 317.9062 97.2969 317.9062 97.6406 C317.9062 97.9375 318.0625 98.1562 318.7188 98.2656 L320.4688 98.5781 Z"
    /></g
  ></g
></svg
>
