<?xml version="1.0"?>
<!DOCTYPE svg PUBLIC '-//W3C//DTD SVG 1.0//EN'
          'http://www.w3.org/TR/2001/REC-SVG-20010904/DTD/svg10.dtd'>
<svg xmlns:xlink="http://www.w3.org/1999/xlink" style="fill-opacity:1; color-rendering:auto; color-interpolation:auto; text-rendering:auto; stroke:black; stroke-linecap:square; stroke-miterlimit:10; shape-rendering:auto; stroke-opacity:1; fill:black; stroke-dasharray:none; font-weight:normal; stroke-width:1; font-family:'Dialog'; font-style:normal; stroke-linejoin:miter; font-size:12px; stroke-dashoffset:0; image-rendering:auto;" viewBox="0 0 342 186" xmlns="http://www.w3.org/2000/svg"
><!--Generated by the Batik Graphics2D SVG Generator--><defs id="genericDefs"
  /><g
  ><defs id="defs1"
    ><clipPath clipPathUnits="userSpaceOnUse" id="clipPath1"
      ><path d="M260 93 C260 99.0751 255.0751 104 249 104 C242.9249 104 238 99.0751 238 93 C238 86.9249 242.9249 82 249 82 C255.0751 82 260 86.9249 260 93 Z"
      /></clipPath
      ><clipPath clipPathUnits="userSpaceOnUse" id="clipPath2"
      ><path d="M208 93 C208 99.0751 203.0751 104 197 104 C190.9249 104 186 99.0751 186 93 C186 86.9249 190.9249 82 197 82 C203.0751 82 208 86.9249 208 93 Z"
      /></clipPath
      ><clipPath clipPathUnits="userSpaceOnUse" id="clipPath3"
      ><path d="M134 82 L156 82 L156 104 L134 104 L134 82 Z"
      /></clipPath
      ><clipPath clipPathUnits="userSpaceOnUse" id="clipPath4"
      ><path d="M104 93 C104 99.0751 99.0751 104 93 104 C86.9249 104 82 99.0751 82 93 C82 86.9249 86.9249 82 93 82 C99.0751 82 104 86.9249 104 93 Z"
      /></clipPath
      ><clipPath clipPathUnits="userSpaceOnUse" id="clipPath5"
      ><path style="fill-rule:evenodd;" d="M93 134 L104 156 L82 156 Z"
      /></clipPath
      ><clipPath clipPathUnits="userSpaceOnUse" id="clipPath6"
      ><path d="M30 82 L52 82 L52 104 L30 104 L30 82 Z"
      /></clipPath
      ><clipPath clipPathUnits="userSpaceOnUse" id="clipPath7"
      ><path style="fill-rule:evenodd;" d="M145 52 L134 30 L156 30 Z"
      /></clipPath
    ></defs
    ><g style="fill:white; text-rendering:optimizeSpeed; stroke:white;"
    ><rect x="0" width="342" height="186" y="0" style="stroke:none;"
      /><polygon style="fill:none; stroke:black;" points=" 301 93 249 93"
      /><path d="M301 82 C295.5 87.5 306.5 98.5 301 104" style="fill:none; stroke:black;"
      /><polygon style="fill:none; stroke:black;" points=" 249 93 197 93"
      /><circle style="clip-path:url(#clipPath1); stroke:none;" r="11" cx="249" cy="93"
      /><rect x="238" y="82" width="22" style="clip-path:url(#clipPath1); fill:rgb(0,144,188); stroke:none;" height="22"
      /><rect x="238" y="82" width="22" style="clip-path:url(#clipPath1); fill:none; stroke:black;" height="22"
      /><circle style="fill:none; stroke:black;" r="11" cx="249" cy="93"
      /><polygon style="fill:none; stroke:black;" points=" 197 93 145 93"
      /><circle style="clip-path:url(#clipPath2); stroke:none;" r="11" cx="197" cy="93"
      /><rect x="186" y="82" width="22" style="clip-path:url(#clipPath2); fill:rgb(255,212,0); stroke:none;" height="22"
      /><rect x="186" y="82" width="22" style="clip-path:url(#clipPath2); fill:none; stroke:black;" height="22"
      /><circle style="fill:none; stroke:black;" r="11" cx="197" cy="93"
      /><polygon style="fill:none; stroke:black;" points=" 145 93 93 93"
      /><polygon style="fill:none; stroke:black;" points=" 145 93 145 41"
      /><rect x="134" y="82" width="22" style="clip-path:url(#clipPath3); stroke:none;" height="22"
      /><rect x="134" y="82" width="22" style="clip-path:url(#clipPath3); fill:rgb(0,144,188); stroke:none;" height="22"
      /><rect x="134" y="82" width="22" style="clip-path:url(#clipPath3); fill:none; stroke:black;" height="22"
      /><rect x="134" y="82" width="22" style="fill:none; stroke:black;" height="22"
      /><polygon style="fill:none; stroke:black;" points=" 93 93 93 145"
      /><polygon style="fill:none; stroke:black;" points=" 93 93 41 93"
      /><circle style="clip-path:url(#clipPath4); stroke:none;" r="11" cx="93" cy="93"
      /><rect x="82" y="82" width="22" style="clip-path:url(#clipPath4); fill:rgb(255,212,0); stroke:none;" height="22"
      /><rect x="82" y="82" width="22" style="clip-path:url(#clipPath4); fill:none; stroke:black;" height="22"
      /><circle style="fill:none; stroke:black;" r="11" cx="93" cy="93"
      /><polygon style="clip-path:url(#clipPath5); stroke:none;" points=" 93 134 104 156 82 156"
      /><rect x="82" y="134" width="22" style="clip-path:url(#clipPath5); fill:rgb(237,28,36); stroke:none;" height="22"
      /><rect x="82" y="134" width="22" style="clip-path:url(#clipPath5); fill:none; stroke:black;" height="22"
      /><polygon style="fill:none; stroke:black;" points=" 93 134 104 156 82 156"
      /><rect x="30" y="82" width="22" style="clip-path:url(#clipPath6); stroke:none;" height="22"
      /><rect x="30" y="82" width="22" style="clip-path:url(#clipPath6); fill:rgb(255,212,0); stroke:none;" height="22"
      /><rect x="30" y="82" width="22" style="clip-path:url(#clipPath6); fill:none; stroke:black;" height="22"
      /><rect x="30" y="82" width="22" style="fill:none; stroke:black;" height="22"
      /><rect x="98" y="107" width="6" style="stroke:none;" height="9"
    /></g
    ><g style="font-family:'Serif'; text-rendering:optimizeSpeed; "
    ><path style="stroke:none;" d="M99.4219 115.0938 C100.0781 114.375 100.7031 113.7188 101.0312 113.3438 C102.9219 111.3125 103.5312 110.4688 103.5312 109.3594 C103.5312 108.0156 102.7812 107.0781 101.1562 107.0781 C99.9062 107.0781 98.7969 107.7031 98.5938 108.9688 C98.7188 109.2031 98.9062 109.3438 99.1562 109.3438 C99.4688 109.3438 99.6562 109.1094 99.7969 108.5938 L100.0938 107.6719 C100.3906 107.5938 100.6562 107.5625 100.8906 107.5625 C101.9219 107.5625 102.5469 108.3125 102.5469 109.4219 C102.5469 110.4375 101.9844 111.4219 100.7031 112.9062 C100.125 113.5781 99.3906 114.4375 98.6406 115.2812 L98.6406 116 L103.9219 116 L103.9219 115.0938 L99.4219 115.0938 Z"
      /><rect x="97" y="122" width="8" style="fill:white; stroke:none;" height="8"
      /><path style="stroke:none;" d="M101.9844 127.7031 C101.9375 128.8906 101.1562 129.6562 100.3125 129.6562 C99.2656 129.6562 98.5 128.6875 98.5 126.7188 C98.5 125.2812 99.1562 124.1562 100.3438 124.1562 C101.1406 124.1562 101.7812 124.6875 102.0938 125.6406 L101.9844 127.7031 ZM103.9062 129.2812 C103.7344 129.375 103.5469 129.4219 103.3438 129.4219 C102.9531 129.4219 102.75 129.2188 102.75 128.4219 C102.75 127.4844 102.9688 125.5312 103.1875 123.8281 L103.0312 123.7188 L102.2344 123.9219 L102.1406 124.7969 C101.7812 124.0312 101.1562 123.6562 100.3906 123.6562 C99.0469 123.6562 97.5625 124.8438 97.5625 126.9531 C97.5625 129.0938 98.7188 130.1719 100.1406 130.1719 C101.0156 130.1719 101.6875 129.8125 102.0938 128.9844 C102.2031 129.8594 102.5156 130.1719 103.0156 130.1719 C103.4688 130.1719 103.7969 129.9062 104.0156 129.5625 L103.9062 129.2812 Z"
      /><rect x="71" y="96" width="6" style="fill:white; stroke:none;" height="10"
      /><path style="stroke:none;" d="M73.2344 97.6562 C73.5156 97.5938 73.7656 97.5625 74.0156 97.5625 C75.0625 97.5625 75.6719 98.1719 75.6719 99.2656 C75.6719 100.4375 74.9062 101.1094 73.7031 101.1094 L73.1875 101.1094 L73.1875 101.6406 L73.7969 101.6406 C75.2188 101.6406 75.9062 102.4219 75.9062 103.6406 C75.9062 104.8438 75.1719 105.6875 73.875 105.6875 C73.6094 105.6875 73.3125 105.6562 73.0156 105.5625 L72.7812 104.8125 C72.625 104.2812 72.5 104.0469 72.1406 104.0469 C71.8906 104.0469 71.7031 104.1719 71.5781 104.4219 C71.8438 105.6406 72.7812 106.1719 74.0312 106.1719 C75.7188 106.1719 76.875 105.125 76.875 103.7031 C76.875 102.5 76.2031 101.625 74.7969 101.375 C75.9531 101.0156 76.6094 100.2031 76.6094 99.2031 C76.6094 97.9219 75.6719 97.0781 74.1875 97.0781 C73.0469 97.0781 72.0625 97.5938 71.7969 98.6875 C71.9062 99 72.1094 99.1094 72.3594 99.1094 C72.7344 99.1094 72.8906 98.8906 73 98.4062 L73.2344 97.6562 Z"
      /><rect x="56" y="97" width="8" style="fill:white; stroke:none;" height="8"
      /><path style="stroke:none;" d="M60.9844 102.7031 C60.9375 103.8906 60.1562 104.6562 59.3125 104.6562 C58.2656 104.6562 57.5 103.6875 57.5 101.7188 C57.5 100.2812 58.1562 99.1562 59.3438 99.1562 C60.1406 99.1562 60.7812 99.6875 61.0938 100.6406 L60.9844 102.7031 ZM62.9062 104.2812 C62.7344 104.375 62.5469 104.4219 62.3438 104.4219 C61.9531 104.4219 61.75 104.2188 61.75 103.4219 C61.75 102.4844 61.9688 100.5312 62.1875 98.8281 L62.0312 98.7188 L61.2344 98.9219 L61.1406 99.7969 C60.7812 99.0312 60.1562 98.6562 59.3906 98.6562 C58.0469 98.6562 56.5625 99.8438 56.5625 101.9531 C56.5625 104.0938 57.7188 105.1719 59.1406 105.1719 C60.0156 105.1719 60.6875 104.8125 61.0938 103.9844 C61.2031 104.8594 61.5156 105.1719 62.0156 105.1719 C62.4688 105.1719 62.7969 104.9062 63.0156 104.5625 L62.9062 104.2812 Z"
      /><polygon style="fill:white; clip-path:url(#clipPath7); stroke:none;" points=" 145 52 134 30 156 30"
      /><rect x="134" y="30" width="22" style="clip-path:url(#clipPath7); fill:rgb(237,28,36); stroke:none;" height="22"
      /><rect x="134" y="30" width="22" style="fill:none; clip-path:url(#clipPath7);" height="22"
      /><polygon style="fill:none;" points=" 145 52 134 30 156 30"
      /><rect x="123" y="96" width="6" style="fill:white; stroke:none;" height="10"
      /><path style="stroke:none;" d="M125.2344 97.6562 C125.5156 97.5938 125.7656 97.5625 126.0156 97.5625 C127.0625 97.5625 127.6719 98.1719 127.6719 99.2656 C127.6719 100.4375 126.9062 101.1094 125.7031 101.1094 L125.1875 101.1094 L125.1875 101.6406 L125.7969 101.6406 C127.2188 101.6406 127.9062 102.4219 127.9062 103.6406 C127.9062 104.8438 127.1719 105.6875 125.875 105.6875 C125.6094 105.6875 125.3125 105.6562 125.0156 105.5625 L124.7812 104.8125 C124.625 104.2812 124.5 104.0469 124.1406 104.0469 C123.8906 104.0469 123.7031 104.1719 123.5781 104.4219 C123.8438 105.6406 124.7812 106.1719 126.0312 106.1719 C127.7188 106.1719 128.875 105.125 128.875 103.7031 C128.875 102.5 128.2031 101.625 126.7969 101.375 C127.9531 101.0156 128.6094 100.2031 128.6094 99.2031 C128.6094 97.9219 127.6719 97.0781 126.1875 97.0781 C125.0469 97.0781 124.0625 97.5938 123.7969 98.6875 C123.9062 99 124.1094 99.1094 124.3594 99.1094 C124.7344 99.1094 124.8906 98.8906 125 98.4062 L125.2344 97.6562 Z"
      /><rect x="109" y="94" width="6" style="fill:white; stroke:none;" height="13"
      /><path style="stroke:none;" d="M111.0938 100.2031 C111.0938 98.6562 111.75 97.8125 112.7969 97.8125 C113.7188 97.8125 114.2656 98.4531 114.2656 99.5156 C114.2656 100.7188 113.5 101.4375 112.1875 101.7031 L112.2969 102.3125 C114.2188 102.2344 114.9375 103.2188 114.9375 104.4375 C114.9375 105.625 114.2344 106.4219 112.9531 106.4219 C112.25 106.4219 111.6562 106.1562 111.0938 105.7188 L111.0938 100.2031 ZM110.2031 106.9062 L110.1094 109.375 L110.2656 109.4844 L111.1562 109.2656 L111.0156 106.0938 C111.5469 106.8438 112.3594 107.1719 113.1719 107.1719 C114.5625 107.1719 115.8594 106.2188 115.8594 104.4844 C115.8594 102.9531 114.875 102.1094 113.125 102 C114.5625 101.6094 115.1875 100.4531 115.1875 99.4844 C115.1875 98.0938 114.1562 97.3125 112.9062 97.3125 C111.2969 97.3125 110.2188 98.5469 110.2188 100.5156 L110.2031 106.9062 Z"
      /><rect x="133" y="69" width="7" style="fill:white; stroke:none;" height="9"
      /><path style="stroke:none;" d="M134 74.5156 L136.9531 70.2656 L136.9531 74.5156 L134 74.5156 ZM139.2812 74.5156 L137.8594 74.5156 L137.8594 69.125 L137.2344 69.125 L133.3438 74.6406 L133.3438 75.1875 L136.9531 75.1875 L136.9531 78 L137.8594 78 L137.8594 75.1875 L139.2812 75.1875 L139.2812 74.5156 Z"
      /><rect x="133" y="56" width="8" style="fill:white; stroke:none;" height="8"
      /><path style="stroke:none;" d="M137.9844 61.7031 C137.9375 62.8906 137.1562 63.6562 136.3125 63.6562 C135.2656 63.6562 134.5 62.6875 134.5 60.7188 C134.5 59.2812 135.1562 58.1562 136.3438 58.1562 C137.1406 58.1562 137.7812 58.6875 138.0938 59.6406 L137.9844 61.7031 ZM139.9062 63.2812 C139.7344 63.375 139.5469 63.4219 139.3438 63.4219 C138.9531 63.4219 138.75 63.2188 138.75 62.4219 C138.75 61.4844 138.9688 59.5312 139.1875 57.8281 L139.0312 57.7188 L138.2344 57.9219 L138.1406 58.7969 C137.7812 58.0312 137.1562 57.6562 136.3906 57.6562 C135.0469 57.6562 133.5625 58.8438 133.5625 60.9531 C133.5625 63.0938 134.7188 64.1719 136.1406 64.1719 C137.0156 64.1719 137.6875 63.8125 138.0938 62.9844 C138.2031 63.8594 138.5156 64.1719 139.0156 64.1719 C139.4688 64.1719 139.7969 63.9062 140.0156 63.5625 L139.9062 63.2812 Z"
      /><rect x="175" y="96" width="6" style="fill:white; stroke:none;" height="10"
      /><path style="stroke:none;" d="M177.2344 97.6562 C177.5156 97.5938 177.7656 97.5625 178.0156 97.5625 C179.0625 97.5625 179.6719 98.1719 179.6719 99.2656 C179.6719 100.4375 178.9062 101.1094 177.7031 101.1094 L177.1875 101.1094 L177.1875 101.6406 L177.7969 101.6406 C179.2188 101.6406 179.9062 102.4219 179.9062 103.6406 C179.9062 104.8438 179.1719 105.6875 177.875 105.6875 C177.6094 105.6875 177.3125 105.6562 177.0156 105.5625 L176.7812 104.8125 C176.625 104.2812 176.5 104.0469 176.1406 104.0469 C175.8906 104.0469 175.7031 104.1719 175.5781 104.4219 C175.8438 105.6406 176.7812 106.1719 178.0312 106.1719 C179.7188 106.1719 180.875 105.125 180.875 103.7031 C180.875 102.5 180.2031 101.625 178.7969 101.375 C179.9531 101.0156 180.6094 100.2031 180.6094 99.2031 C180.6094 97.9219 179.6719 97.0781 178.1875 97.0781 C177.0469 97.0781 176.0625 97.5938 175.7969 98.6875 C175.9062 99 176.1094 99.1094 176.3594 99.1094 C176.7344 99.1094 176.8906 98.8906 177 98.4062 L177.2344 97.6562 Z"
      /><rect x="161" y="94" width="6" style="fill:white; stroke:none;" height="13"
      /><path style="stroke:none;" d="M163.0938 100.2031 C163.0938 98.6562 163.75 97.8125 164.7969 97.8125 C165.7188 97.8125 166.2656 98.4531 166.2656 99.5156 C166.2656 100.7188 165.5 101.4375 164.1875 101.7031 L164.2969 102.3125 C166.2188 102.2344 166.9375 103.2188 166.9375 104.4375 C166.9375 105.625 166.2344 106.4219 164.9531 106.4219 C164.25 106.4219 163.6562 106.1562 163.0938 105.7188 L163.0938 100.2031 ZM162.2031 106.9062 L162.1094 109.375 L162.2656 109.4844 L163.1562 109.2656 L163.0156 106.0938 C163.5469 106.8438 164.3594 107.1719 165.1719 107.1719 C166.5625 107.1719 167.8594 106.2188 167.8594 104.4844 C167.8594 102.9531 166.875 102.1094 165.125 102 C166.5625 101.6094 167.1875 100.4531 167.1875 99.4844 C167.1875 98.0938 166.1562 97.3125 164.9062 97.3125 C163.2969 97.3125 162.2188 98.5469 162.2188 100.5156 L162.2031 106.9062 Z"
      /><rect x="226" y="96" width="7" style="fill:white; stroke:none;" height="9"
      /><path style="stroke:none;" d="M227 101.5156 L229.9531 97.2656 L229.9531 101.5156 L227 101.5156 ZM232.2812 101.5156 L230.8594 101.5156 L230.8594 96.125 L230.2344 96.125 L226.3438 101.6406 L226.3438 102.1875 L229.9531 102.1875 L229.9531 105 L230.8594 105 L230.8594 102.1875 L232.2812 102.1875 L232.2812 101.5156 Z"
      /><rect x="213" y="94" width="6" style="fill:white; stroke:none;" height="13"
      /><path style="stroke:none;" d="M215.0938 100.2031 C215.0938 98.6562 215.75 97.8125 216.7969 97.8125 C217.7188 97.8125 218.2656 98.4531 218.2656 99.5156 C218.2656 100.7188 217.5 101.4375 216.1875 101.7031 L216.2969 102.3125 C218.2188 102.2344 218.9375 103.2188 218.9375 104.4375 C218.9375 105.625 218.2344 106.4219 216.9531 106.4219 C216.25 106.4219 215.6562 106.1562 215.0938 105.7188 L215.0938 100.2031 ZM214.2031 106.9062 L214.1094 109.375 L214.2656 109.4844 L215.1562 109.2656 L215.0156 106.0938 C215.5469 106.8438 216.3594 107.1719 217.1719 107.1719 C218.5625 107.1719 219.8594 106.2188 219.8594 104.4844 C219.8594 102.9531 218.875 102.1094 217.125 102 C218.5625 101.6094 219.1875 100.4531 219.1875 99.4844 C219.1875 98.0938 218.1562 97.3125 216.9062 97.3125 C215.2969 97.3125 214.2188 98.5469 214.2188 100.5156 L214.2031 106.9062 Z"
      /><rect x="265" y="96" width="5" style="fill:white; stroke:none;" height="10"
      /><path style="stroke:none;" d="M266.8906 104.6875 C266.4844 104.6875 266.1562 105.0469 266.1562 105.4219 C266.1562 105.8125 266.4844 106.1562 266.8906 106.1562 C267.2969 106.1562 267.6406 105.8125 267.6406 105.4219 C267.6406 105.0469 267.2969 104.6875 266.8906 104.6875 ZM268.4688 98.5781 C268.7188 98.8906 268.875 99.2656 268.8906 99.6562 C268.8906 100.1875 268.625 100.5 268.0312 100.7656 L267.4062 101.0156 C266.6406 101.3125 266.3906 101.5469 266.3906 101.9375 C266.3906 102.1094 266.4531 102.3438 266.5781 102.8125 L266.7344 103.3438 L267.1094 103.3438 L267.0938 102.5312 C267.0938 102.0938 267.2031 101.9688 267.7812 101.7344 L268.2031 101.5625 C269.0312 101.2188 269.4531 100.6875 269.4531 99.8438 C269.4531 98.1562 267.6562 97.1875 266.5 97.0312 C266.1094 97.125 265.9062 97.2969 265.9062 97.6406 C265.9062 97.9375 266.0625 98.1562 266.7188 98.2656 L268.4688 98.5781 Z"
    /></g
  ></g
></svg
>
