<?xml version="1.0"?>
<!DOCTYPE svg PUBLIC '-//W3C//DTD SVG 1.0//EN'
          'http://www.w3.org/TR/2001/REC-SVG-20010904/DTD/svg10.dtd'>
<svg xmlns:xlink="http://www.w3.org/1999/xlink" style="fill-opacity:1; color-rendering:auto; color-interpolation:auto; text-rendering:auto; stroke:black; stroke-linecap:square; stroke-miterlimit:10; shape-rendering:auto; stroke-opacity:1; fill:black; stroke-dasharray:none; font-weight:normal; stroke-width:1; font-family:'Dialog'; font-style:normal; stroke-linejoin:miter; font-size:12px; stroke-dashoffset:0; image-rendering:auto;" viewBox="0 0 490 160" xmlns="http://www.w3.org/2000/svg"
><!--Generated by the Batik Graphics2D SVG Generator--><defs id="genericDefs"
  /><g
  ><defs id="defs1"
    ><clipPath clipPathUnits="userSpaceOnUse" id="clipPath1"
      ><path d="M386 82 L408 82 L408 104 L386 104 L386 82 Z"
      /></clipPath
      ><clipPath clipPathUnits="userSpaceOnUse" id="clipPath2"
      ><path d="M334 82 L356 82 L356 104 L334 104 L334 82 Z"
      /></clipPath
      ><clipPath clipPathUnits="userSpaceOnUse" id="clipPath3"
      ><path d="M304 93 C304 99.0751 299.0751 104 293 104 C286.9249 104 282 99.0751 282 93 C282 86.9249 286.9249 82 293 82 C299.0751 82 304 86.9249 304 93 Z"
      /></clipPath
      ><clipPath clipPathUnits="userSpaceOnUse" id="clipPath4"
      ><path d="M252 119 C252 125.0751 247.0751 130 241 130 C234.9249 130 230 125.0751 230 119 C230 112.9249 234.9249 108 241 108 C247.0751 108 252 112.9249 252 119 Z"
      /></clipPath
      ><clipPath clipPathUnits="userSpaceOnUse" id="clipPath5"
      ><path d="M178 108 L200 108 L200 130 L178 130 L178 108 Z"
      /></clipPath
      ><clipPath clipPathUnits="userSpaceOnUse" id="clipPath6"
      ><path d="M148 119 C148 125.0751 143.0751 130 137 130 C130.9249 130 126 125.0751 126 119 C126 112.9249 130.9249 108 137 108 C143.0751 108 148 112.9249 148 119 Z"
      /></clipPath
      ><clipPath clipPathUnits="userSpaceOnUse" id="clipPath7"
      ><path d="M252 67 C252 73.0751 247.0751 78 241 78 C234.9249 78 230 73.0751 230 67 C230 60.9249 234.9249 56 241 56 C247.0751 56 252 60.9249 252 67 Z"
      /></clipPath
      ><clipPath clipPathUnits="userSpaceOnUse" id="clipPath8"
      ><path style="fill-rule:evenodd;" d="M397 52 L386 30 L408 30 Z"
      /></clipPath
      ><clipPath clipPathUnits="userSpaceOnUse" id="clipPath9"
      ><path d="M30 69 L52 69 L52 91 L30 91 L30 69 Z"
      /></clipPath
    ></defs
    ><g style="fill:white; text-rendering:optimizeSpeed; stroke:white;"
    ><rect x="0" width="490" height="160" y="0" style="stroke:none;"
      /><polygon style="fill:none; stroke:black;" points=" 449 93 397 93"
      /><path d="M449 82 C443.5 87.5 454.5 98.5 449 104" style="fill:none; stroke:black;"
      /><polygon style="fill:none; stroke:black;" points=" 397 93 345 93"
      /><polygon style="fill:none; stroke:black;" points=" 397 93 397 41"
      /><rect x="386" y="82" width="22" style="clip-path:url(#clipPath1); stroke:none;" height="22"
      /><rect x="386" y="82" width="22" style="clip-path:url(#clipPath1); fill:rgb(0,144,188); stroke:none;" height="22"
      /><rect x="386" y="82" width="22" style="clip-path:url(#clipPath1); fill:none; stroke:black;" height="22"
      /><rect x="386" y="82" width="22" style="fill:none; stroke:black;" height="22"
      /><polygon style="fill:none; stroke:black;" points=" 345 93 293 93"
      /><rect x="334" y="82" width="22" style="clip-path:url(#clipPath2); stroke:none;" height="22"
      /><rect x="334" y="82" width="22" style="clip-path:url(#clipPath2); fill:rgb(0,144,188); stroke:none;" height="22"
      /><rect x="334" y="82" width="22" style="clip-path:url(#clipPath2); fill:none; stroke:black;" height="22"
      /><rect x="334" y="82" width="22" style="fill:none; stroke:black;" height="22"
      /><polygon style="fill:none; stroke:black;" points=" 293 93 241 119"
      /><polygon style="fill:none; stroke:black;" points=" 293 93 241 67"
      /><circle style="clip-path:url(#clipPath3); stroke:none;" r="11" cx="293" cy="93"
      /><rect x="282" y="82" width="22" style="clip-path:url(#clipPath3); fill:rgb(0,166,81); stroke:none;" height="22"
      /><rect x="282" y="82" width="22" style="clip-path:url(#clipPath3); fill:none; stroke:black;" height="22"
      /><circle style="fill:none; stroke:black;" r="11" cx="293" cy="93"
      /><polygon style="fill:none; stroke:black;" points=" 241 119 189 119"
      /><circle style="clip-path:url(#clipPath4); stroke:none;" r="11" cx="241" cy="119"
      /><rect x="230" y="108" width="22" style="clip-path:url(#clipPath4); fill:rgb(0,166,81); stroke:none;" height="22"
      /><rect x="230" y="108" width="22" style="clip-path:url(#clipPath4); fill:none; stroke:black;" height="22"
      /><circle style="fill:none; stroke:black;" r="11" cx="241" cy="119"
      /><polygon style="fill:none; stroke:black;" points=" 189 119 137 119"
      /><rect x="178" y="108" width="22" style="clip-path:url(#clipPath5); stroke:none;" height="22"
      /><rect x="178" y="108" width="22" style="clip-path:url(#clipPath5); fill:rgb(0,144,188); stroke:none;" height="22"
      /><rect x="178" y="108" width="22" style="clip-path:url(#clipPath5); fill:none; stroke:black;" height="22"
      /><rect x="178" y="108" width="22" style="fill:none; stroke:black;" height="22"
      /><circle style="clip-path:url(#clipPath6); stroke:none;" r="11" cx="137" cy="119"
      /><rect x="126" y="108" width="22" style="clip-path:url(#clipPath6); fill:rgb(255,212,0); stroke:none;" height="22"
      /><rect x="126" y="108" width="22" style="clip-path:url(#clipPath6); fill:none; stroke:black;" height="22"
      /><circle style="fill:none; stroke:black;" r="11" cx="137" cy="119"
      /><rect x="167" y="122" width="5" style="stroke:none;" height="10"
    /></g
    ><g style="font-family:'Serif'; text-rendering:optimizeSpeed; "
    ><path style="stroke:none;" d="M168.8906 130.6875 C168.4844 130.6875 168.1562 131.0469 168.1562 131.4219 C168.1562 131.8125 168.4844 132.1562 168.8906 132.1562 C169.2969 132.1562 169.6406 131.8125 169.6406 131.4219 C169.6406 131.0469 169.2969 130.6875 168.8906 130.6875 ZM170.4688 124.5781 C170.7188 124.8906 170.875 125.2656 170.8906 125.6562 C170.8906 126.1875 170.625 126.5 170.0312 126.7656 L169.4062 127.0156 C168.6406 127.3125 168.3906 127.5469 168.3906 127.9375 C168.3906 128.1094 168.4531 128.3438 168.5781 128.8125 L168.7344 129.3438 L169.1094 129.3438 L169.0938 128.5312 C169.0938 128.0938 169.2031 127.9688 169.7812 127.7344 L170.2031 127.5625 C171.0312 127.2188 171.4531 126.6875 171.4531 125.8438 C171.4531 124.1562 169.6562 123.1875 168.5 123.0312 C168.1094 123.125 167.9062 123.2969 167.9062 123.6406 C167.9062 123.9375 168.0625 124.1562 168.7188 124.2656 L170.4688 124.5781 Z"
      /><rect x="153" y="122" width="5" style="fill:white; stroke:none;" height="10"
      /><path style="stroke:none;" d="M154.8906 130.6875 C154.4844 130.6875 154.1562 131.0469 154.1562 131.4219 C154.1562 131.8125 154.4844 132.1562 154.8906 132.1562 C155.2969 132.1562 155.6406 131.8125 155.6406 131.4219 C155.6406 131.0469 155.2969 130.6875 154.8906 130.6875 ZM156.4688 124.5781 C156.7188 124.8906 156.875 125.2656 156.8906 125.6562 C156.8906 126.1875 156.625 126.5 156.0312 126.7656 L155.4062 127.0156 C154.6406 127.3125 154.3906 127.5469 154.3906 127.9375 C154.3906 128.1094 154.4531 128.3438 154.5781 128.8125 L154.7344 129.3438 L155.1094 129.3438 L155.0938 128.5312 C155.0938 128.0938 155.2031 127.9688 155.7812 127.7344 L156.2031 127.5625 C157.0312 127.2188 157.4531 126.6875 157.4531 125.8438 C157.4531 124.1562 155.6562 123.1875 154.5 123.0312 C154.1094 123.125 153.9062 123.2969 153.9062 123.6406 C153.9062 123.9375 154.0625 124.1562 154.7188 124.2656 L156.4688 124.5781 Z"
      /><rect x="219" y="122" width="5" style="fill:white; stroke:none;" height="10"
      /><path style="stroke:none;" d="M220.8906 130.6875 C220.4844 130.6875 220.1562 131.0469 220.1562 131.4219 C220.1562 131.8125 220.4844 132.1562 220.8906 132.1562 C221.2969 132.1562 221.6406 131.8125 221.6406 131.4219 C221.6406 131.0469 221.2969 130.6875 220.8906 130.6875 ZM222.4688 124.5781 C222.7188 124.8906 222.875 125.2656 222.8906 125.6562 C222.8906 126.1875 222.625 126.5 222.0312 126.7656 L221.4062 127.0156 C220.6406 127.3125 220.3906 127.5469 220.3906 127.9375 C220.3906 128.1094 220.4531 128.3438 220.5781 128.8125 L220.7344 129.3438 L221.1094 129.3438 L221.0938 128.5312 C221.0938 128.0938 221.2031 127.9688 221.7812 127.7344 L222.2031 127.5625 C223.0312 127.2188 223.4531 126.6875 223.4531 125.8438 C223.4531 124.1562 221.6562 123.1875 220.5 123.0312 C220.1094 123.125 219.9062 123.2969 219.9062 123.6406 C219.9062 123.9375 220.0625 124.1562 220.7188 124.2656 L222.4688 124.5781 Z"
      /><rect x="205" y="122" width="5" style="fill:white; stroke:none;" height="10"
      /><path style="stroke:none;" d="M206.8906 130.6875 C206.4844 130.6875 206.1562 131.0469 206.1562 131.4219 C206.1562 131.8125 206.4844 132.1562 206.8906 132.1562 C207.2969 132.1562 207.6406 131.8125 207.6406 131.4219 C207.6406 131.0469 207.2969 130.6875 206.8906 130.6875 ZM208.4688 124.5781 C208.7188 124.8906 208.875 125.2656 208.8906 125.6562 C208.8906 126.1875 208.625 126.5 208.0312 126.7656 L207.4062 127.0156 C206.6406 127.3125 206.3906 127.5469 206.3906 127.9375 C206.3906 128.1094 206.4531 128.3438 206.5781 128.8125 L206.7344 129.3438 L207.1094 129.3438 L207.0938 128.5312 C207.0938 128.0938 207.2031 127.9688 207.7812 127.7344 L208.2031 127.5625 C209.0312 127.2188 209.4531 126.6875 209.4531 125.8438 C209.4531 124.1562 207.6562 123.1875 206.5 123.0312 C206.1094 123.125 205.9062 123.2969 205.9062 123.6406 C205.9062 123.9375 206.0625 124.1562 206.7188 124.2656 L208.4688 124.5781 Z"
      /><circle style="fill:white; clip-path:url(#clipPath7); stroke:none;" r="11" cx="241" cy="67"
      /><rect x="230" y="56" width="22" style="clip-path:url(#clipPath7); fill:rgb(0,166,81); stroke:none;" height="22"
      /><rect x="230" y="56" width="22" style="fill:none; clip-path:url(#clipPath7);" height="22"
      /><circle r="11" style="fill:none;" cx="241" cy="67"
      /><rect x="275" y="104" width="5" style="fill:white; stroke:none;" height="10"
      /><path style="stroke:none;" d="M276.8906 112.6875 C276.4844 112.6875 276.1562 113.0469 276.1562 113.4219 C276.1562 113.8125 276.4844 114.1562 276.8906 114.1562 C277.2969 114.1562 277.6406 113.8125 277.6406 113.4219 C277.6406 113.0469 277.2969 112.6875 276.8906 112.6875 ZM278.4688 106.5781 C278.7188 106.8906 278.875 107.2656 278.8906 107.6562 C278.8906 108.1875 278.625 108.5 278.0312 108.7656 L277.4062 109.0156 C276.6406 109.3125 276.3906 109.5469 276.3906 109.9375 C276.3906 110.1094 276.4531 110.3438 276.5781 110.8125 L276.7344 111.3438 L277.1094 111.3438 L277.0938 110.5312 C277.0938 110.0938 277.2031 109.9688 277.7812 109.7344 L278.2031 109.5625 C279.0312 109.2188 279.4531 108.6875 279.4531 107.8438 C279.4531 106.1562 277.6562 105.1875 276.5 105.0312 C276.1094 105.125 275.9062 105.2969 275.9062 105.6406 C275.9062 105.9375 276.0625 106.1562 276.7188 106.2656 L278.4688 106.5781 Z"
      /><rect x="260" y="112" width="5" style="fill:white; stroke:none;" height="10"
      /><path style="stroke:none;" d="M261.8906 120.6875 C261.4844 120.6875 261.1562 121.0469 261.1562 121.4219 C261.1562 121.8125 261.4844 122.1562 261.8906 122.1562 C262.2969 122.1562 262.6406 121.8125 262.6406 121.4219 C262.6406 121.0469 262.2969 120.6875 261.8906 120.6875 ZM263.4688 114.5781 C263.7188 114.8906 263.875 115.2656 263.8906 115.6562 C263.8906 116.1875 263.625 116.5 263.0312 116.7656 L262.4062 117.0156 C261.6406 117.3125 261.3906 117.5469 261.3906 117.9375 C261.3906 118.1094 261.4531 118.3438 261.5781 118.8125 L261.7344 119.3438 L262.1094 119.3438 L262.0938 118.5312 C262.0938 118.0938 262.2031 117.9688 262.7812 117.7344 L263.2031 117.5625 C264.0312 117.2188 264.4531 116.6875 264.4531 115.8438 C264.4531 114.1562 262.6562 113.1875 261.5 113.0312 C261.1094 113.125 260.9062 113.2969 260.9062 113.6406 C260.9062 113.9375 261.0625 114.1562 261.7188 114.2656 L263.4688 114.5781 Z"
      /><rect x="268" y="86" width="5" style="fill:white; stroke:none;" height="10"
      /><path style="stroke:none;" d="M269.8906 94.6875 C269.4844 94.6875 269.1562 95.0469 269.1562 95.4219 C269.1562 95.8125 269.4844 96.1562 269.8906 96.1562 C270.2969 96.1562 270.6406 95.8125 270.6406 95.4219 C270.6406 95.0469 270.2969 94.6875 269.8906 94.6875 ZM271.4688 88.5781 C271.7188 88.8906 271.875 89.2656 271.8906 89.6562 C271.8906 90.1875 271.625 90.5 271.0312 90.7656 L270.4062 91.0156 C269.6406 91.3125 269.3906 91.5469 269.3906 91.9375 C269.3906 92.1094 269.4531 92.3438 269.5781 92.8125 L269.7344 93.3438 L270.1094 93.3438 L270.0938 92.5312 C270.0938 92.0938 270.2031 91.9688 270.7812 91.7344 L271.2031 91.5625 C272.0312 91.2188 272.4531 90.6875 272.4531 89.8438 C272.4531 88.1562 270.6562 87.1875 269.5 87.0312 C269.1094 87.125 268.9062 87.2969 268.9062 87.6406 C268.9062 87.9375 269.0625 88.1562 269.7188 88.2656 L271.4688 88.5781 Z"
      /><rect x="253" y="78" width="5" style="fill:white; stroke:none;" height="10"
      /><path style="stroke:none;" d="M254.8906 86.6875 C254.4844 86.6875 254.1562 87.0469 254.1562 87.4219 C254.1562 87.8125 254.4844 88.1562 254.8906 88.1562 C255.2969 88.1562 255.6406 87.8125 255.6406 87.4219 C255.6406 87.0469 255.2969 86.6875 254.8906 86.6875 ZM256.4688 80.5781 C256.7188 80.8906 256.875 81.2656 256.8906 81.6562 C256.8906 82.1875 256.625 82.5 256.0312 82.7656 L255.4062 83.0156 C254.6406 83.3125 254.3906 83.5469 254.3906 83.9375 C254.3906 84.1094 254.4531 84.3438 254.5781 84.8125 L254.7344 85.3438 L255.1094 85.3438 L255.0938 84.5312 C255.0938 84.0938 255.2031 83.9688 255.7812 83.7344 L256.2031 83.5625 C257.0312 83.2188 257.4531 82.6875 257.4531 81.8438 C257.4531 80.1562 255.6562 79.1875 254.5 79.0312 C254.1094 79.125 253.9062 79.2969 253.9062 79.6406 C253.9062 79.9375 254.0625 80.1562 254.7188 80.2656 L256.4688 80.5781 Z"
      /><rect x="323" y="96" width="5" style="fill:white; stroke:none;" height="10"
      /><path style="stroke:none;" d="M324.8906 104.6875 C324.4844 104.6875 324.1562 105.0469 324.1562 105.4219 C324.1562 105.8125 324.4844 106.1562 324.8906 106.1562 C325.2969 106.1562 325.6406 105.8125 325.6406 105.4219 C325.6406 105.0469 325.2969 104.6875 324.8906 104.6875 ZM326.4688 98.5781 C326.7188 98.8906 326.875 99.2656 326.8906 99.6562 C326.8906 100.1875 326.625 100.5 326.0312 100.7656 L325.4062 101.0156 C324.6406 101.3125 324.3906 101.5469 324.3906 101.9375 C324.3906 102.1094 324.4531 102.3438 324.5781 102.8125 L324.7344 103.3438 L325.1094 103.3438 L325.0938 102.5312 C325.0938 102.0938 325.2031 101.9688 325.7812 101.7344 L326.2031 101.5625 C327.0312 101.2188 327.4531 100.6875 327.4531 99.8438 C327.4531 98.1562 325.6562 97.1875 324.5 97.0312 C324.1094 97.125 323.9062 97.2969 323.9062 97.6406 C323.9062 97.9375 324.0625 98.1562 324.7188 98.2656 L326.4688 98.5781 Z"
      /><rect x="309" y="96" width="5" style="fill:white; stroke:none;" height="10"
      /><path style="stroke:none;" d="M310.8906 104.6875 C310.4844 104.6875 310.1562 105.0469 310.1562 105.4219 C310.1562 105.8125 310.4844 106.1562 310.8906 106.1562 C311.2969 106.1562 311.6406 105.8125 311.6406 105.4219 C311.6406 105.0469 311.2969 104.6875 310.8906 104.6875 ZM312.4688 98.5781 C312.7188 98.8906 312.875 99.2656 312.8906 99.6562 C312.8906 100.1875 312.625 100.5 312.0312 100.7656 L311.4062 101.0156 C310.6406 101.3125 310.3906 101.5469 310.3906 101.9375 C310.3906 102.1094 310.4531 102.3438 310.5781 102.8125 L310.7344 103.3438 L311.1094 103.3438 L311.0938 102.5312 C311.0938 102.0938 311.2031 101.9688 311.7812 101.7344 L312.2031 101.5625 C313.0312 101.2188 313.4531 100.6875 313.4531 99.8438 C313.4531 98.1562 311.6562 97.1875 310.5 97.0312 C310.1094 97.125 309.9062 97.2969 309.9062 97.6406 C309.9062 97.9375 310.0625 98.1562 310.7188 98.2656 L312.4688 98.5781 Z"
      /><polygon style="fill:white; clip-path:url(#clipPath8); stroke:none;" points=" 397 52 386 30 408 30"
      /><rect x="386" y="30" width="22" style="clip-path:url(#clipPath8); fill:rgb(237,28,36); stroke:none;" height="22"
      /><rect x="386" y="30" width="22" style="fill:none; clip-path:url(#clipPath8);" height="22"
      /><polygon style="fill:none;" points=" 397 52 386 30 408 30"
      /><rect x="375" y="96" width="5" style="fill:white; stroke:none;" height="10"
      /><path style="stroke:none;" d="M376.8906 104.6875 C376.4844 104.6875 376.1562 105.0469 376.1562 105.4219 C376.1562 105.8125 376.4844 106.1562 376.8906 106.1562 C377.2969 106.1562 377.6406 105.8125 377.6406 105.4219 C377.6406 105.0469 377.2969 104.6875 376.8906 104.6875 ZM378.4688 98.5781 C378.7188 98.8906 378.875 99.2656 378.8906 99.6562 C378.8906 100.1875 378.625 100.5 378.0312 100.7656 L377.4062 101.0156 C376.6406 101.3125 376.3906 101.5469 376.3906 101.9375 C376.3906 102.1094 376.4531 102.3438 376.5781 102.8125 L376.7344 103.3438 L377.1094 103.3438 L377.0938 102.5312 C377.0938 102.0938 377.2031 101.9688 377.7812 101.7344 L378.2031 101.5625 C379.0312 101.2188 379.4531 100.6875 379.4531 99.8438 C379.4531 98.1562 377.6562 97.1875 376.5 97.0312 C376.1094 97.125 375.9062 97.2969 375.9062 97.6406 C375.9062 97.9375 376.0625 98.1562 376.7188 98.2656 L378.4688 98.5781 Z"
      /><rect x="361" y="96" width="5" style="fill:white; stroke:none;" height="10"
      /><path style="stroke:none;" d="M362.8906 104.6875 C362.4844 104.6875 362.1562 105.0469 362.1562 105.4219 C362.1562 105.8125 362.4844 106.1562 362.8906 106.1562 C363.2969 106.1562 363.6406 105.8125 363.6406 105.4219 C363.6406 105.0469 363.2969 104.6875 362.8906 104.6875 ZM364.4688 98.5781 C364.7188 98.8906 364.875 99.2656 364.8906 99.6562 C364.8906 100.1875 364.625 100.5 364.0312 100.7656 L363.4062 101.0156 C362.6406 101.3125 362.3906 101.5469 362.3906 101.9375 C362.3906 102.1094 362.4531 102.3438 362.5781 102.8125 L362.7344 103.3438 L363.1094 103.3438 L363.0938 102.5312 C363.0938 102.0938 363.2031 101.9688 363.7812 101.7344 L364.2031 101.5625 C365.0312 101.2188 365.4531 100.6875 365.4531 99.8438 C365.4531 98.1562 363.6562 97.1875 362.5 97.0312 C362.1094 97.125 361.9062 97.2969 361.9062 97.6406 C361.9062 97.9375 362.0625 98.1562 362.7188 98.2656 L364.4688 98.5781 Z"
      /><rect x="386" y="69" width="5" style="fill:white; stroke:none;" height="10"
      /><path style="stroke:none;" d="M387.8906 77.6875 C387.4844 77.6875 387.1562 78.0469 387.1562 78.4219 C387.1562 78.8125 387.4844 79.1562 387.8906 79.1562 C388.2969 79.1562 388.6406 78.8125 388.6406 78.4219 C388.6406 78.0469 388.2969 77.6875 387.8906 77.6875 ZM389.4688 71.5781 C389.7188 71.8906 389.875 72.2656 389.8906 72.6562 C389.8906 73.1875 389.625 73.5 389.0312 73.7656 L388.4062 74.0156 C387.6406 74.3125 387.3906 74.5469 387.3906 74.9375 C387.3906 75.1094 387.4531 75.3438 387.5781 75.8125 L387.7344 76.3438 L388.1094 76.3438 L388.0938 75.5312 C388.0938 75.0938 388.2031 74.9688 388.7812 74.7344 L389.2031 74.5625 C390.0312 74.2188 390.4531 73.6875 390.4531 72.8438 C390.4531 71.1562 388.6562 70.1875 387.5 70.0312 C387.1094 70.125 386.9062 70.2969 386.9062 70.6406 C386.9062 70.9375 387.0625 71.1562 387.7188 71.2656 L389.4688 71.5781 Z"
      /><rect x="386" y="55" width="5" style="fill:white; stroke:none;" height="10"
      /><path style="stroke:none;" d="M387.8906 63.6875 C387.4844 63.6875 387.1562 64.0469 387.1562 64.4219 C387.1562 64.8125 387.4844 65.1562 387.8906 65.1562 C388.2969 65.1562 388.6406 64.8125 388.6406 64.4219 C388.6406 64.0469 388.2969 63.6875 387.8906 63.6875 ZM389.4688 57.5781 C389.7188 57.8906 389.875 58.2656 389.8906 58.6562 C389.8906 59.1875 389.625 59.5 389.0312 59.7656 L388.4062 60.0156 C387.6406 60.3125 387.3906 60.5469 387.3906 60.9375 C387.3906 61.1094 387.4531 61.3438 387.5781 61.8125 L387.7344 62.3438 L388.1094 62.3438 L388.0938 61.5312 C388.0938 61.0938 388.2031 60.9688 388.7812 60.7344 L389.2031 60.5625 C390.0312 60.2188 390.4531 59.6875 390.4531 58.8438 C390.4531 57.1562 388.6562 56.1875 387.5 56.0312 C387.1094 56.125 386.9062 56.2969 386.9062 56.6406 C386.9062 56.9375 387.0625 57.1562 387.7188 57.2656 L389.4688 57.5781 Z"
      /><rect x="413" y="96" width="5" style="fill:white; stroke:none;" height="10"
      /><path style="stroke:none;" d="M414.8906 104.6875 C414.4844 104.6875 414.1562 105.0469 414.1562 105.4219 C414.1562 105.8125 414.4844 106.1562 414.8906 106.1562 C415.2969 106.1562 415.6406 105.8125 415.6406 105.4219 C415.6406 105.0469 415.2969 104.6875 414.8906 104.6875 ZM416.4688 98.5781 C416.7188 98.8906 416.875 99.2656 416.8906 99.6562 C416.8906 100.1875 416.625 100.5 416.0312 100.7656 L415.4062 101.0156 C414.6406 101.3125 414.3906 101.5469 414.3906 101.9375 C414.3906 102.1094 414.4531 102.3438 414.5781 102.8125 L414.7344 103.3438 L415.1094 103.3438 L415.0938 102.5312 C415.0938 102.0938 415.2031 101.9688 415.7812 101.7344 L416.2031 101.5625 C417.0312 101.2188 417.4531 100.6875 417.4531 99.8438 C417.4531 98.1562 415.6562 97.1875 414.5 97.0312 C414.1094 97.125 413.9062 97.2969 413.9062 97.6406 C413.9062 97.9375 414.0625 98.1562 414.7188 98.2656 L416.4688 98.5781 Z"
      /><polygon style="fill:none;" points=" 126 130 115 130 115 30 126 30 115 30 115 130"
      /><polygon style="fill:none;" points=" 93 80 41 80"
      /><rect x="30" y="69" width="22" style="clip-path:url(#clipPath9); fill:white; stroke:none;" height="22"
      /><rect x="30" y="69" width="22" style="clip-path:url(#clipPath9); fill:rgb(0,144,188); stroke:none;" height="22"
      /><rect x="30" y="69" width="22" style="fill:none; clip-path:url(#clipPath9);" height="22"
      /><rect x="30" width="22" height="22" y="69" style="fill:none;"
      /><rect x="71" y="83" width="5" style="fill:white; stroke:none;" height="10"
      /><path style="stroke:none;" d="M72.8906 91.6875 C72.4844 91.6875 72.1562 92.0469 72.1562 92.4219 C72.1562 92.8125 72.4844 93.1562 72.8906 93.1562 C73.2969 93.1562 73.6406 92.8125 73.6406 92.4219 C73.6406 92.0469 73.2969 91.6875 72.8906 91.6875 ZM74.4688 85.5781 C74.7188 85.8906 74.875 86.2656 74.8906 86.6562 C74.8906 87.1875 74.625 87.5 74.0312 87.7656 L73.4062 88.0156 C72.6406 88.3125 72.3906 88.5469 72.3906 88.9375 C72.3906 89.1094 72.4531 89.3438 72.5781 89.8125 L72.7344 90.3438 L73.1094 90.3438 L73.0938 89.5312 C73.0938 89.0938 73.2031 88.9688 73.7812 88.7344 L74.2031 88.5625 C75.0312 88.2188 75.4531 87.6875 75.4531 86.8438 C75.4531 85.1562 73.6562 84.1875 72.5 84.0312 C72.1094 84.125 71.9062 84.2969 71.9062 84.6406 C71.9062 84.9375 72.0625 85.1562 72.7188 85.2656 L74.4688 85.5781 Z"
      /><rect x="57" y="83" width="5" style="fill:white; stroke:none;" height="10"
      /><path style="stroke:none;" d="M58.8906 91.6875 C58.4844 91.6875 58.1562 92.0469 58.1562 92.4219 C58.1562 92.8125 58.4844 93.1562 58.8906 93.1562 C59.2969 93.1562 59.6406 92.8125 59.6406 92.4219 C59.6406 92.0469 59.2969 91.6875 58.8906 91.6875 ZM60.4688 85.5781 C60.7188 85.8906 60.875 86.2656 60.8906 86.6562 C60.8906 87.1875 60.625 87.5 60.0312 87.7656 L59.4062 88.0156 C58.6406 88.3125 58.3906 88.5469 58.3906 88.9375 C58.3906 89.1094 58.4531 89.3438 58.5781 89.8125 L58.7344 90.3438 L59.1094 90.3438 L59.0938 89.5312 C59.0938 89.0938 59.2031 88.9688 59.7812 88.7344 L60.2031 88.5625 C61.0312 88.2188 61.4531 87.6875 61.4531 86.8438 C61.4531 85.1562 59.6562 84.1875 58.5 84.0312 C58.1094 84.125 57.9062 84.2969 57.9062 84.6406 C57.9062 84.9375 58.0625 85.1562 58.7188 85.2656 L60.4688 85.5781 Z"
    /></g
  ></g
></svg
>
