<?xml version="1.0"?>
<!DOCTYPE svg PUBLIC '-//W3C//DTD SVG 1.0//EN'
          'http://www.w3.org/TR/2001/REC-SVG-20010904/DTD/svg10.dtd'>
<svg xmlns:xlink="http://www.w3.org/1999/xlink" style="fill-opacity:1; color-rendering:auto; color-interpolation:auto; text-rendering:auto; stroke:black; stroke-linecap:square; stroke-miterlimit:10; shape-rendering:auto; stroke-opacity:1; fill:black; stroke-dasharray:none; font-weight:normal; stroke-width:1; font-family:'Dialog'; font-style:normal; stroke-linejoin:miter; font-size:12px; stroke-dashoffset:0; image-rendering:auto;" viewBox="0 0 143 238" xmlns="http://www.w3.org/2000/svg"
><!--Generated by the Batik Graphics2D SVG Generator--><defs id="genericDefs"
  /><g
  ><defs id="defs1"
    ><clipPath clipPathUnits="userSpaceOnUse" id="clipPath1"
      ><path d="M47 186 L69 186 L69 208 L47 208 L47 186 Z"
      /></clipPath
      ><clipPath clipPathUnits="userSpaceOnUse" id="clipPath2"
      ><path d="M69 145 C69 151.0751 64.0751 156 58 156 C51.9249 156 47 151.0751 47 145 C47 138.9249 51.9249 134 58 134 C64.0751 134 69 138.9249 69 145 Z"
      /></clipPath
      ><clipPath clipPathUnits="userSpaceOnUse" id="clipPath3"
      ><path d="M47 82 L69 82 L69 104 L47 104 L47 82 Z"
      /></clipPath
      ><clipPath clipPathUnits="userSpaceOnUse" id="clipPath4"
      ><path d="M69 41 C69 47.0751 64.0751 52 58 52 C51.9249 52 47 47.0751 47 41 C47 34.9249 51.9249 30 58 30 C64.0751 30 69 34.9249 69 41 Z"
      /></clipPath
    ></defs
    ><g style="fill:white; text-rendering:optimizeSpeed; stroke:white;"
    ><rect x="0" width="143" height="238" y="0" style="stroke:none;"
      /><rect x="47" y="186" width="22" style="clip-path:url(#clipPath1); stroke:none;" height="22"
      /><rect x="47" y="186" width="22" style="clip-path:url(#clipPath1); stroke:none;" height="22"
      /><rect x="47" y="186" width="22" style="clip-path:url(#clipPath1); fill:none; stroke:black;" height="22"
      /><rect x="47" y="186" width="22" style="fill:none; stroke:black;" height="22"
      /><rect x="74" y="200" width="5" style="stroke:none;" height="10"
    /></g
    ><g style="font-family:'Serif'; text-rendering:optimizeSpeed; "
    ><path style="stroke:none;" d="M75.8906 208.6875 C75.4844 208.6875 75.1562 209.0469 75.1562 209.4219 C75.1562 209.8125 75.4844 210.1562 75.8906 210.1562 C76.2969 210.1562 76.6406 209.8125 76.6406 209.4219 C76.6406 209.0469 76.2969 208.6875 75.8906 208.6875 ZM77.4688 202.5781 C77.7188 202.8906 77.875 203.2656 77.8906 203.6562 C77.8906 204.1875 77.625 204.5 77.0312 204.7656 L76.4062 205.0156 C75.6406 205.3125 75.3906 205.5469 75.3906 205.9375 C75.3906 206.1094 75.4531 206.3438 75.5781 206.8125 L75.7344 207.3438 L76.1094 207.3438 L76.0938 206.5312 C76.0938 206.0938 76.2031 205.9688 76.7812 205.7344 L77.2031 205.5625 C78.0312 205.2188 78.4531 204.6875 78.4531 203.8438 C78.4531 202.1562 76.6562 201.1875 75.5 201.0312 C75.1094 201.125 74.9062 201.2969 74.9062 201.6406 C74.9062 201.9375 75.0625 202.1562 75.7188 202.2656 L77.4688 202.5781 Z"
      /><path style="stroke:none;" d="M29.6094 202 L36.0625 202 L36.0625 200.8906 L33.2344 200.8906 C32.7031 200.8906 32.0781 200.9531 31.5469 200.9844 C33.9531 198.7031 35.5625 196.625 35.5625 194.5781 C35.5625 192.75 34.4219 191.5469 32.5781 191.5469 C31.2812 191.5469 30.4062 192.1406 29.5625 193.0469 L30.2969 193.7812 C30.8594 193.1094 31.5938 192.5938 32.4375 192.5938 C33.7031 192.5938 34.3125 193.4531 34.3125 194.625 C34.3125 196.3906 32.8438 198.4375 29.6094 201.25 L29.6094 202 ZM36.9731 202 L38.3168 202 L39.3481 200.2188 C39.6137 199.7656 39.8637 199.2969 40.1293 198.8594 L40.2075 198.8594 C40.4731 199.2969 40.7543 199.7656 41.0043 200.2188 L42.1293 202 L43.5356 202 L41.02 198.1562 L43.3325 194.3906 L42.0043 194.3906 L41.0668 196.0625 C40.8481 196.5 40.6137 196.9219 40.3793 197.3438 L40.3325 197.3438 C40.0668 196.9219 39.8012 196.5 39.5668 196.0625 L38.5512 194.3906 L37.1762 194.3906 L39.4887 198.0312 L36.9731 202 Z"
    /></g
    ><g style="fill:white; text-rendering:optimizeSpeed; font-size:14px; font-family:'SansSerif'; stroke:white;"
    ><circle r="11" style="clip-path:url(#clipPath2); stroke:none;" cx="58" cy="145"
      /><rect x="47" y="134" width="22" style="clip-path:url(#clipPath2); stroke:none;" height="22"
      /><rect x="47" y="134" width="22" style="clip-path:url(#clipPath2); fill:none; stroke:black;" height="22"
      /><circle r="11" style="fill:none; stroke:black;" cx="58" cy="145"
      /><rect x="74" width="5" height="10" y="148" style="stroke:none;"
    /></g
    ><g style="font-family:'Serif'; text-rendering:optimizeSpeed; "
    ><path style="stroke:none;" d="M75.8906 156.6875 C75.4844 156.6875 75.1562 157.0469 75.1562 157.4219 C75.1562 157.8125 75.4844 158.1562 75.8906 158.1562 C76.2969 158.1562 76.6406 157.8125 76.6406 157.4219 C76.6406 157.0469 76.2969 156.6875 75.8906 156.6875 ZM77.4688 150.5781 C77.7188 150.8906 77.875 151.2656 77.8906 151.6562 C77.8906 152.1875 77.625 152.5 77.0312 152.7656 L76.4062 153.0156 C75.6406 153.3125 75.3906 153.5469 75.3906 153.9375 C75.3906 154.1094 75.4531 154.3438 75.5781 154.8125 L75.7344 155.3438 L76.1094 155.3438 L76.0938 154.5312 C76.0938 154.0938 76.2031 153.9688 76.7812 153.7344 L77.2031 153.5625 C78.0312 153.2188 78.4531 152.6875 78.4531 151.8438 C78.4531 150.1562 76.6562 149.1875 75.5 149.0312 C75.1094 149.125 74.9062 149.2969 74.9062 149.6406 C74.9062 149.9375 75.0625 150.1562 75.7188 150.2656 L77.4688 150.5781 Z"
      /><path style="stroke:none;" d="M32.7031 150.1875 C34.5156 150.1875 35.9844 149.0938 35.9844 147.25 C35.9844 145.8594 35.0156 144.9375 33.8125 144.6562 L33.8125 144.5938 C34.8906 144.1875 35.6406 143.3594 35.6406 142.125 C35.6406 140.5 34.375 139.5469 32.6562 139.5469 C31.4688 139.5469 30.5469 140.0625 29.7812 140.7812 L30.4688 141.5938 C31.0469 141 31.7656 140.5938 32.5938 140.5938 C33.6562 140.5938 34.3281 141.2344 34.3281 142.2188 C34.3281 143.3281 33.6094 144.1719 31.4844 144.1719 L31.4844 145.1562 C33.8594 145.1562 34.6875 145.9844 34.6875 147.2031 C34.6875 148.3906 33.8125 149.125 32.5938 149.125 C31.4375 149.125 30.6562 148.5781 30.0469 147.9375 L29.4062 148.7812 C30.0781 149.5156 31.0938 150.1875 32.7031 150.1875 ZM36.9731 150 L38.3168 150 L39.3481 148.2188 C39.6137 147.7656 39.8637 147.2969 40.1293 146.8594 L40.2075 146.8594 C40.4731 147.2969 40.7543 147.7656 41.0043 148.2188 L42.1293 150 L43.5356 150 L41.02 146.1562 L43.3325 142.3906 L42.0043 142.3906 L41.0668 144.0625 C40.8481 144.5 40.6137 144.9219 40.3793 145.3438 L40.3325 145.3438 C40.0668 144.9219 39.8012 144.5 39.5668 144.0625 L38.5512 142.3906 L37.1762 142.3906 L39.4887 146.0312 L36.9731 150 Z"
    /></g
    ><g style="fill:white; text-rendering:optimizeSpeed; font-size:14px; font-family:'SansSerif'; stroke:white;"
    ><rect x="47" y="82" width="22" style="clip-path:url(#clipPath3); stroke:none;" height="22"
      /><rect x="47" y="82" width="22" style="clip-path:url(#clipPath3); fill:rgb(0,144,188); stroke:none;" height="22"
      /><rect x="47" y="82" width="22" style="clip-path:url(#clipPath3); fill:none; stroke:black;" height="22"
      /><rect x="47" y="82" width="22" style="fill:none; stroke:black;" height="22"
      /><rect x="74" width="5" height="10" y="96" style="stroke:none;"
    /></g
    ><g style="font-family:'Serif'; text-rendering:optimizeSpeed; "
    ><path style="stroke:none;" d="M75.8906 104.6875 C75.4844 104.6875 75.1562 105.0469 75.1562 105.4219 C75.1562 105.8125 75.4844 106.1562 75.8906 106.1562 C76.2969 106.1562 76.6406 105.8125 76.6406 105.4219 C76.6406 105.0469 76.2969 104.6875 75.8906 104.6875 ZM77.4688 98.5781 C77.7188 98.8906 77.875 99.2656 77.8906 99.6562 C77.8906 100.1875 77.625 100.5 77.0312 100.7656 L76.4062 101.0156 C75.6406 101.3125 75.3906 101.5469 75.3906 101.9375 C75.3906 102.1094 75.4531 102.3438 75.5781 102.8125 L75.7344 103.3438 L76.1094 103.3438 L76.0938 102.5312 C76.0938 102.0938 76.2031 101.9688 76.7812 101.7344 L77.2031 101.5625 C78.0312 101.2188 78.4531 100.6875 78.4531 99.8438 C78.4531 98.1562 76.6562 97.1875 75.5 97.0312 C75.1094 97.125 74.9062 97.2969 74.9062 97.6406 C74.9062 97.9375 75.0625 98.1562 75.7188 98.2656 L77.4688 98.5781 Z"
    /></g
    ><g style="fill:white; text-rendering:optimizeSpeed; font-size:14px; font-family:'SansSerif'; stroke:white;"
    ><circle r="11" style="clip-path:url(#clipPath4); stroke:none;" cx="58" cy="41"
      /><rect x="47" y="30" width="22" style="clip-path:url(#clipPath4); fill:rgb(0,166,81); stroke:none;" height="22"
      /><rect x="47" y="30" width="22" style="clip-path:url(#clipPath4); fill:none; stroke:black;" height="22"
      /><circle r="11" style="fill:none; stroke:black;" cx="58" cy="41"
      /><rect x="74" width="5" height="10" y="44" style="stroke:none;"
    /></g
    ><g style="font-family:'Serif'; text-rendering:optimizeSpeed; "
    ><path style="stroke:none;" d="M75.8906 52.6875 C75.4844 52.6875 75.1562 53.0469 75.1562 53.4219 C75.1562 53.8125 75.4844 54.1562 75.8906 54.1562 C76.2969 54.1562 76.6406 53.8125 76.6406 53.4219 C76.6406 53.0469 76.2969 52.6875 75.8906 52.6875 ZM77.4688 46.5781 C77.7188 46.8906 77.875 47.2656 77.8906 47.6562 C77.8906 48.1875 77.625 48.5 77.0312 48.7656 L76.4062 49.0156 C75.6406 49.3125 75.3906 49.5469 75.3906 49.9375 C75.3906 50.1094 75.4531 50.3438 75.5781 50.8125 L75.7344 51.3438 L76.1094 51.3438 L76.0938 50.5312 C76.0938 50.0938 76.2031 49.9688 76.7812 49.7344 L77.2031 49.5625 C78.0312 49.2188 78.4531 48.6875 78.4531 47.8438 C78.4531 46.1562 76.6562 45.1875 75.5 45.0312 C75.1094 45.125 74.9062 45.2969 74.9062 45.6406 C74.9062 45.9375 75.0625 46.1562 75.7188 46.2656 L77.4688 46.5781 Z"
      /><path style="stroke:none;" d="M32.7031 46.1875 C34.5156 46.1875 35.9844 45.0938 35.9844 43.25 C35.9844 41.8594 35.0156 40.9375 33.8125 40.6562 L33.8125 40.5938 C34.8906 40.1875 35.6406 39.3594 35.6406 38.125 C35.6406 36.5 34.375 35.5469 32.6562 35.5469 C31.4688 35.5469 30.5469 36.0625 29.7812 36.7812 L30.4688 37.5938 C31.0469 37 31.7656 36.5938 32.5938 36.5938 C33.6562 36.5938 34.3281 37.2344 34.3281 38.2188 C34.3281 39.3281 33.6094 40.1719 31.4844 40.1719 L31.4844 41.1562 C33.8594 41.1562 34.6875 41.9844 34.6875 43.2031 C34.6875 44.3906 33.8125 45.125 32.5938 45.125 C31.4375 45.125 30.6562 44.5781 30.0469 43.9375 L29.4062 44.7812 C30.0781 45.5156 31.0938 46.1875 32.7031 46.1875 ZM36.9731 46 L38.3168 46 L39.3481 44.2188 C39.6137 43.7656 39.8637 43.2969 40.1293 42.8594 L40.2075 42.8594 C40.4731 43.2969 40.7543 43.7656 41.0043 44.2188 L42.1293 46 L43.5356 46 L41.02 42.1562 L43.3325 38.3906 L42.0043 38.3906 L41.0668 40.0625 C40.8481 40.5 40.6137 40.9219 40.3793 41.3438 L40.3325 41.3438 C40.0668 40.9219 39.8012 40.5 39.5668 40.0625 L38.5512 38.3906 L37.1762 38.3906 L39.4887 42.0312 L36.9731 46 Z"
    /></g
  ></g
></svg
>
