<?xml version="1.0"?>
<!DOCTYPE svg PUBLIC '-//W3C//DTD SVG 1.0//EN'
          'http://www.w3.org/TR/2001/REC-SVG-20010904/DTD/svg10.dtd'>
<svg xmlns:xlink="http://www.w3.org/1999/xlink" style="fill-opacity:1; color-rendering:auto; color-interpolation:auto; text-rendering:auto; stroke:black; stroke-linecap:square; stroke-miterlimit:10; shape-rendering:auto; stroke-opacity:1; fill:black; stroke-dasharray:none; font-weight:normal; stroke-width:1; font-family:'Dialog'; font-style:normal; stroke-linejoin:miter; font-size:12px; stroke-dashoffset:0; image-rendering:auto;" viewBox="0 0 146 261" xmlns="http://www.w3.org/2000/svg"
><!--Generated by the Batik Graphics2D SVG Generator--><defs id="genericDefs"
  /><g
  ><defs id="defs1"
    ><clipPath clipPathUnits="userSpaceOnUse" id="clipPath1"
      ><path style="fill-rule:evenodd;" d="M61 209 L72 231 L50 231 Z"
      /></clipPath
      ><clipPath clipPathUnits="userSpaceOnUse" id="clipPath2"
      ><path d="M50 157 L72 157 L72 179 L50 179 L50 157 Z"
      /></clipPath
      ><clipPath clipPathUnits="userSpaceOnUse" id="clipPath3"
      ><path d="M72 116 C72 122.0751 67.0751 127 61 127 C54.9249 127 50 122.0751 50 116 C50 109.9249 54.9249 105 61 105 C67.0751 105 72 109.9249 72 116 Z"
      /></clipPath
      ><clipPath clipPathUnits="userSpaceOnUse" id="clipPath4"
      ><path d="M50 53 L72 53 L72 75 L50 75 L50 53 Z"
      /></clipPath
    ></defs
    ><g style="fill:white; text-rendering:optimizeSpeed; stroke:white;"
    ><rect x="0" width="146" height="261" y="0" style="stroke:none;"
      /><polygon style="clip-path:url(#clipPath1); stroke:none;" points=" 61 209 72 231 50 231"
      /><rect x="50" y="209" width="22" style="clip-path:url(#clipPath1); fill:rgb(237,28,36); stroke:none;" height="22"
      /><rect x="50" y="209" width="22" style="clip-path:url(#clipPath1); fill:none; stroke:black;" height="22"
      /><polygon style="fill:none; stroke:black;" points=" 61 209 72 231 50 231"
      /><rect x="77" y="207" width="5" style="stroke:none;" height="10"
    /></g
    ><g style="font-family:'Serif'; text-rendering:optimizeSpeed; "
    ><path style="stroke:none;" d="M78.8906 215.6875 C78.4844 215.6875 78.1562 216.0469 78.1562 216.4219 C78.1562 216.8125 78.4844 217.1562 78.8906 217.1562 C79.2969 217.1562 79.6406 216.8125 79.6406 216.4219 C79.6406 216.0469 79.2969 215.6875 78.8906 215.6875 ZM80.4688 209.5781 C80.7188 209.8906 80.875 210.2656 80.8906 210.6562 C80.8906 211.1875 80.625 211.5 80.0312 211.7656 L79.4062 212.0156 C78.6406 212.3125 78.3906 212.5469 78.3906 212.9375 C78.3906 213.1094 78.4531 213.3438 78.5781 213.8125 L78.7344 214.3438 L79.1094 214.3438 L79.0938 213.5312 C79.0938 213.0938 79.2031 212.9688 79.7812 212.7344 L80.2031 212.5625 C81.0312 212.2188 81.4531 211.6875 81.4531 210.8438 C81.4531 209.1562 79.6562 208.1875 78.5 208.0312 C78.1094 208.125 77.9062 208.2969 77.9062 208.6406 C77.9062 208.9375 78.0625 209.1562 78.7188 209.2656 L80.4688 209.5781 Z"
      /><rect x="77" y="223" width="5" style="fill:white; stroke:none;" height="10"
      /><path style="stroke:none;" d="M78.8906 231.6875 C78.4844 231.6875 78.1562 232.0469 78.1562 232.4219 C78.1562 232.8125 78.4844 233.1562 78.8906 233.1562 C79.2969 233.1562 79.6406 232.8125 79.6406 232.4219 C79.6406 232.0469 79.2969 231.6875 78.8906 231.6875 ZM80.4688 225.5781 C80.7188 225.8906 80.875 226.2656 80.8906 226.6562 C80.8906 227.1875 80.625 227.5 80.0312 227.7656 L79.4062 228.0156 C78.6406 228.3125 78.3906 228.5469 78.3906 228.9375 C78.3906 229.1094 78.4531 229.3438 78.5781 229.8125 L78.7344 230.3438 L79.1094 230.3438 L79.0938 229.5312 C79.0938 229.0938 79.2031 228.9688 79.7812 228.7344 L80.2031 228.5625 C81.0312 228.2188 81.4531 227.6875 81.4531 226.8438 C81.4531 225.1562 79.6562 224.1875 78.5 224.0312 C78.1094 224.125 77.9062 224.2969 77.9062 224.6406 C77.9062 224.9375 78.0625 225.1562 78.7188 225.2656 L80.4688 225.5781 Z"
      /><rect x="50" y="157" width="22" style="clip-path:url(#clipPath2); fill:white; stroke:none;" height="22"
      /><rect x="50" y="157" width="22" style="clip-path:url(#clipPath2); fill:rgb(0,144,188); stroke:none;" height="22"
      /><rect x="50" y="157" width="22" style="fill:none; clip-path:url(#clipPath2);" height="22"
      /><rect x="50" width="22" height="22" y="157" style="fill:none;"
      /><rect x="77" y="155" width="5" style="fill:white; stroke:none;" height="10"
      /><path style="stroke:none;" d="M78.8906 163.6875 C78.4844 163.6875 78.1562 164.0469 78.1562 164.4219 C78.1562 164.8125 78.4844 165.1562 78.8906 165.1562 C79.2969 165.1562 79.6406 164.8125 79.6406 164.4219 C79.6406 164.0469 79.2969 163.6875 78.8906 163.6875 ZM80.4688 157.5781 C80.7188 157.8906 80.875 158.2656 80.8906 158.6562 C80.8906 159.1875 80.625 159.5 80.0312 159.7656 L79.4062 160.0156 C78.6406 160.3125 78.3906 160.5469 78.3906 160.9375 C78.3906 161.1094 78.4531 161.3438 78.5781 161.8125 L78.7344 162.3438 L79.1094 162.3438 L79.0938 161.5312 C79.0938 161.0938 79.2031 160.9688 79.7812 160.7344 L80.2031 160.5625 C81.0312 160.2188 81.4531 159.6875 81.4531 158.8438 C81.4531 157.1562 79.6562 156.1875 78.5 156.0312 C78.1094 156.125 77.9062 156.2969 77.9062 156.6406 C77.9062 156.9375 78.0625 157.1562 78.7188 157.2656 L80.4688 157.5781 Z"
      /><rect x="77" y="171" width="5" style="fill:white; stroke:none;" height="10"
      /><path style="stroke:none;" d="M78.8906 179.6875 C78.4844 179.6875 78.1562 180.0469 78.1562 180.4219 C78.1562 180.8125 78.4844 181.1562 78.8906 181.1562 C79.2969 181.1562 79.6406 180.8125 79.6406 180.4219 C79.6406 180.0469 79.2969 179.6875 78.8906 179.6875 ZM80.4688 173.5781 C80.7188 173.8906 80.875 174.2656 80.8906 174.6562 C80.8906 175.1875 80.625 175.5 80.0312 175.7656 L79.4062 176.0156 C78.6406 176.3125 78.3906 176.5469 78.3906 176.9375 C78.3906 177.1094 78.4531 177.3438 78.5781 177.8125 L78.7344 178.3438 L79.1094 178.3438 L79.0938 177.5312 C79.0938 177.0938 79.2031 176.9688 79.7812 176.7344 L80.2031 176.5625 C81.0312 176.2188 81.4531 175.6875 81.4531 174.8438 C81.4531 173.1562 79.6562 172.1875 78.5 172.0312 C78.1094 172.125 77.9062 172.2969 77.9062 172.6406 C77.9062 172.9375 78.0625 173.1562 78.7188 173.2656 L80.4688 173.5781 Z"
      /><path style="stroke:none;" d="M35.7031 173.1875 C37.5156 173.1875 38.9844 172.0938 38.9844 170.25 C38.9844 168.8594 38.0156 167.9375 36.8125 167.6562 L36.8125 167.5938 C37.8906 167.1875 38.6406 166.3594 38.6406 165.125 C38.6406 163.5 37.375 162.5469 35.6562 162.5469 C34.4688 162.5469 33.5469 163.0625 32.7812 163.7812 L33.4688 164.5938 C34.0469 164 34.7656 163.5938 35.5938 163.5938 C36.6562 163.5938 37.3281 164.2344 37.3281 165.2188 C37.3281 166.3281 36.6094 167.1719 34.4844 167.1719 L34.4844 168.1562 C36.8594 168.1562 37.6875 168.9844 37.6875 170.2031 C37.6875 171.3906 36.8125 172.125 35.5938 172.125 C34.4375 172.125 33.6562 171.5781 33.0469 170.9375 L32.4062 171.7812 C33.0781 172.5156 34.0938 173.1875 35.7031 173.1875 ZM39.9731 173 L41.3168 173 L42.3481 171.2188 C42.6137 170.7656 42.8637 170.2969 43.1293 169.8594 L43.2075 169.8594 C43.4731 170.2969 43.7543 170.7656 44.0043 171.2188 L45.1293 173 L46.5356 173 L44.02 169.1562 L46.3325 165.3906 L45.0043 165.3906 L44.0668 167.0625 C43.8481 167.5 43.6137 167.9219 43.3793 168.3438 L43.3325 168.3438 C43.0668 167.9219 42.8012 167.5 42.5668 167.0625 L41.5512 165.3906 L40.1762 165.3906 L42.4887 169.0312 L39.9731 173 Z"
    /></g
    ><g style="fill:white; text-rendering:optimizeSpeed; font-size:14px; font-family:'SansSerif'; stroke:white;"
    ><circle r="11" style="clip-path:url(#clipPath3); stroke:none;" cx="61" cy="116"
      /><rect x="50" y="105" width="22" style="clip-path:url(#clipPath3); fill:rgb(0,166,81); stroke:none;" height="22"
      /><rect x="50" y="105" width="22" style="clip-path:url(#clipPath3); fill:none; stroke:black;" height="22"
      /><circle r="11" style="fill:none; stroke:black;" cx="61" cy="116"
      /><rect x="77" width="5" height="10" y="103" style="stroke:none;"
    /></g
    ><g style="font-family:'Serif'; text-rendering:optimizeSpeed; "
    ><path style="stroke:none;" d="M78.8906 111.6875 C78.4844 111.6875 78.1562 112.0469 78.1562 112.4219 C78.1562 112.8125 78.4844 113.1562 78.8906 113.1562 C79.2969 113.1562 79.6406 112.8125 79.6406 112.4219 C79.6406 112.0469 79.2969 111.6875 78.8906 111.6875 ZM80.4688 105.5781 C80.7188 105.8906 80.875 106.2656 80.8906 106.6562 C80.8906 107.1875 80.625 107.5 80.0312 107.7656 L79.4062 108.0156 C78.6406 108.3125 78.3906 108.5469 78.3906 108.9375 C78.3906 109.1094 78.4531 109.3438 78.5781 109.8125 L78.7344 110.3438 L79.1094 110.3438 L79.0938 109.5312 C79.0938 109.0938 79.2031 108.9688 79.7812 108.7344 L80.2031 108.5625 C81.0312 108.2188 81.4531 107.6875 81.4531 106.8438 C81.4531 105.1562 79.6562 104.1875 78.5 104.0312 C78.1094 104.125 77.9062 104.2969 77.9062 104.6406 C77.9062 104.9375 78.0625 105.1562 78.7188 105.2656 L80.4688 105.5781 Z"
      /><rect x="77" y="119" width="5" style="fill:white; stroke:none;" height="10"
      /><path style="stroke:none;" d="M78.8906 127.6875 C78.4844 127.6875 78.1562 128.0469 78.1562 128.4219 C78.1562 128.8125 78.4844 129.1562 78.8906 129.1562 C79.2969 129.1562 79.6406 128.8125 79.6406 128.4219 C79.6406 128.0469 79.2969 127.6875 78.8906 127.6875 ZM80.4688 121.5781 C80.7188 121.8906 80.875 122.2656 80.8906 122.6562 C80.8906 123.1875 80.625 123.5 80.0312 123.7656 L79.4062 124.0156 C78.6406 124.3125 78.3906 124.5469 78.3906 124.9375 C78.3906 125.1094 78.4531 125.3438 78.5781 125.8125 L78.7344 126.3438 L79.1094 126.3438 L79.0938 125.5312 C79.0938 125.0938 79.2031 124.9688 79.7812 124.7344 L80.2031 124.5625 C81.0312 124.2188 81.4531 123.6875 81.4531 122.8438 C81.4531 121.1562 79.6562 120.1875 78.5 120.0312 C78.1094 120.125 77.9062 120.2969 77.9062 120.6406 C77.9062 120.9375 78.0625 121.1562 78.7188 121.2656 L80.4688 121.5781 Z"
      /><path style="stroke:none;" d="M35.6562 121.1875 C37.3906 121.1875 39.0156 119.9062 39.0156 117.6562 C39.0156 115.4062 37.625 114.3906 35.9219 114.3906 C35.2969 114.3906 34.8594 114.5469 34.3906 114.7969 L34.6406 111.8281 L38.5312 111.8281 L38.5312 110.7188 L33.5312 110.7188 L33.2031 115.5469 L33.8906 115.9531 C34.4844 115.5625 34.9062 115.3594 35.5938 115.3594 C36.8906 115.3594 37.7188 116.2188 37.7188 117.7031 C37.7188 119.1875 36.75 120.125 35.5469 120.125 C34.3594 120.125 33.6094 119.5781 33.0156 118.9844 L32.3906 119.8281 C33.0781 120.5156 34.0625 121.1875 35.6562 121.1875 ZM39.9731 121 L41.3168 121 L42.3481 119.2188 C42.6137 118.7656 42.8637 118.2969 43.1293 117.8594 L43.2075 117.8594 C43.4731 118.2969 43.7543 118.7656 44.0043 119.2188 L45.1293 121 L46.5356 121 L44.02 117.1562 L46.3325 113.3906 L45.0043 113.3906 L44.0668 115.0625 C43.8481 115.5 43.6137 115.9219 43.3793 116.3438 L43.3325 116.3438 C43.0668 115.9219 42.8012 115.5 42.5668 115.0625 L41.5512 113.3906 L40.1762 113.3906 L42.4887 117.0312 L39.9731 121 Z"
    /></g
    ><g style="fill:white; text-rendering:optimizeSpeed; font-size:14px; font-family:'SansSerif'; stroke:white;"
    ><rect x="50" y="53" width="22" style="clip-path:url(#clipPath4); stroke:none;" height="22"
      /><rect x="50" y="53" width="22" style="clip-path:url(#clipPath4); fill:rgb(255,212,0); stroke:none;" height="22"
      /><rect x="50" y="53" width="22" style="clip-path:url(#clipPath4); fill:none; stroke:black;" height="22"
      /><rect x="50" y="53" width="22" style="fill:none; stroke:black;" height="22"
      /><rect x="46" width="28" height="13" y="34" style="stroke:none;"
      /><path d="M49.7031 47.1875 C51.5156 47.1875 52.9844 46.0938 52.9844 44.25 C52.9844 42.8594 52.0156 41.9375 50.8125 41.6562 L50.8125 41.5938 C51.8906 41.1875 52.6406 40.3594 52.6406 39.125 C52.6406 37.5 51.375 36.5469 49.6562 36.5469 C48.4688 36.5469 47.5469 37.0625 46.7812 37.7812 L47.4688 38.5938 C48.0469 38 48.7656 37.5938 49.5938 37.5938 C50.6562 37.5938 51.3281 38.2344 51.3281 39.2188 C51.3281 40.3281 50.6094 41.1719 48.4844 41.1719 L48.4844 42.1562 C50.8594 42.1562 51.6875 42.9844 51.6875 44.2031 C51.6875 45.3906 50.8125 46.125 49.5938 46.125 C48.4375 46.125 47.6562 45.5781 47.0469 44.9375 L46.4062 45.7812 C47.0781 46.5156 48.0938 47.1875 49.7031 47.1875 ZM53.9262 49.5 L54.8637 49.5 L59.0512 35.8906 L58.1293 35.8906 L53.9262 49.5 ZM60.8673 43.1562 L63.2111 39.6562 C63.4923 39.1406 63.7736 38.6406 64.0392 38.1406 L64.0861 38.1406 C64.0548 38.6719 64.0236 39.5 64.0236 40 L64.0236 43.1562 L60.8673 43.1562 ZM64.0236 47 L65.2267 47 L65.2267 44.1719 L66.5861 44.1719 L66.5861 43.1562 L65.2267 43.1562 L65.2267 36.7188 L63.8048 36.7188 L59.5392 43.3281 L59.5392 44.1719 L64.0236 44.1719 L64.0236 47 ZM71.2779 47.1875 C73.4185 47.1875 74.7623 45.8906 74.7623 44.2656 C74.7623 42.75 73.8404 42.0469 72.6529 41.5312 L71.1842 40.8906 C70.3873 40.5625 69.4967 40.1875 69.4967 39.1875 C69.4967 38.2656 70.2467 37.6719 71.4029 37.6719 C72.356 37.6719 73.1217 38.0469 73.7467 38.6406 L74.4342 37.8125 C73.6998 37.0625 72.6217 36.5469 71.4029 36.5469 C69.5435 36.5469 68.1685 37.6875 68.1685 39.2656 C68.1685 40.7656 69.3092 41.5 70.2623 41.9062 L71.7467 42.5469 C72.7154 42.9844 73.4498 43.3125 73.4498 44.375 C73.4498 45.375 72.6373 46.0469 71.2935 46.0469 C70.231 46.0469 69.1998 45.5469 68.4654 44.7812 L67.6842 45.6562 C68.5748 46.5938 69.8248 47.1875 71.2779 47.1875 Z" style="fill:black; stroke:none;"
      /><rect x="81" width="5" height="10" y="51" style="stroke:none;"
    /></g
    ><g style="font-family:'Serif'; text-rendering:optimizeSpeed; "
    ><path style="stroke:none;" d="M82.8906 59.6875 C82.4844 59.6875 82.1562 60.0469 82.1562 60.4219 C82.1562 60.8125 82.4844 61.1562 82.8906 61.1562 C83.2969 61.1562 83.6406 60.8125 83.6406 60.4219 C83.6406 60.0469 83.2969 59.6875 82.8906 59.6875 ZM84.4688 53.5781 C84.7188 53.8906 84.875 54.2656 84.8906 54.6562 C84.8906 55.1875 84.625 55.5 84.0312 55.7656 L83.4062 56.0156 C82.6406 56.3125 82.3906 56.5469 82.3906 56.9375 C82.3906 57.1094 82.4531 57.3438 82.5781 57.8125 L82.7344 58.3438 L83.1094 58.3438 L83.0938 57.5312 C83.0938 57.0938 83.2031 56.9688 83.7812 56.7344 L84.2031 56.5625 C85.0312 56.2188 85.4531 55.6875 85.4531 54.8438 C85.4531 53.1562 83.6562 52.1875 82.5 52.0312 C82.1094 52.125 81.9062 52.2969 81.9062 52.6406 C81.9062 52.9375 82.0625 53.1562 82.7188 53.2656 L84.4688 53.5781 Z"
      /><rect x="81" y="67" width="5" style="fill:white; stroke:none;" height="10"
      /><path style="stroke:none;" d="M82.8906 75.6875 C82.4844 75.6875 82.1562 76.0469 82.1562 76.4219 C82.1562 76.8125 82.4844 77.1562 82.8906 77.1562 C83.2969 77.1562 83.6406 76.8125 83.6406 76.4219 C83.6406 76.0469 83.2969 75.6875 82.8906 75.6875 ZM84.4688 69.5781 C84.7188 69.8906 84.875 70.2656 84.8906 70.6562 C84.8906 71.1875 84.625 71.5 84.0312 71.7656 L83.4062 72.0156 C82.6406 72.3125 82.3906 72.5469 82.3906 72.9375 C82.3906 73.1094 82.4531 73.3438 82.5781 73.8125 L82.7344 74.3438 L83.1094 74.3438 L83.0938 73.5312 C83.0938 73.0938 83.2031 72.9688 83.7812 72.7344 L84.2031 72.5625 C85.0312 72.2188 85.4531 71.6875 85.4531 70.8438 C85.4531 69.1562 83.6562 68.1875 82.5 68.0312 C82.1094 68.125 81.9062 68.2969 81.9062 68.6406 C81.9062 68.9375 82.0625 69.1562 82.7188 69.2656 L84.4688 69.5781 Z"
    /></g
  ></g
></svg
>
