<?xml version="1.0"?>
<!DOCTYPE svg PUBLIC '-//W3C//DTD SVG 1.0//EN'
          'http://www.w3.org/TR/2001/REC-SVG-20010904/DTD/svg10.dtd'>
<svg xmlns:xlink="http://www.w3.org/1999/xlink" style="fill-opacity:1; color-rendering:auto; color-interpolation:auto; text-rendering:auto; stroke:black; stroke-linecap:square; stroke-miterlimit:10; shape-rendering:auto; stroke-opacity:1; fill:black; stroke-dasharray:none; font-weight:normal; stroke-width:1; font-family:'Dialog'; font-style:normal; stroke-linejoin:miter; font-size:12px; stroke-dashoffset:0; image-rendering:auto;" viewBox="0 0 158 97" xmlns="http://www.w3.org/2000/svg"
><!--Generated by the Batik Graphics2D SVG Generator--><defs id="genericDefs"
  /><g
  ><defs id="defs1"
    ><clipPath clipPathUnits="userSpaceOnUse" id="clipPath1"
      ><path style="fill-rule:evenodd;" d="M41 30 L51 37 L47 49 L34 49 L30 37 L41 30 Z"
      /></clipPath
    ></defs
    ><g style="fill:white; text-rendering:optimizeSpeed; stroke:white;"
    ><rect x="0" width="158" height="97" y="0" style="stroke:none;"
      /><polygon style="clip-path:url(#clipPath1); stroke:none;" points=" 41 30 51 37 47 49 34 49 30 37 41 30"
      /><rect x="30" y="30" width="22" style="clip-path:url(#clipPath1); stroke:none;" height="22"
      /><rect x="30" y="30" width="22" style="clip-path:url(#clipPath1); fill:none; stroke:black;" height="22"
      /><polygon style="fill:none; stroke:black;" points=" 41 30 51 37 47 49 34 49 30 37 41 30"
    /></g
    ><g style="font-style:italic; text-rendering:optimizeSpeed; font-size:10px; font-family:'SansSerif';"
    ><path style="stroke:none;" d="M41 43.125 C42.3281 43.125 43.7344 42.0938 44.125 40.2969 C44.5 38.4844 43.5469 37.4375 42.2188 37.4375 C40.8906 37.4375 39.4688 38.4844 39.0938 40.2969 C38.7031 42.0938 39.6719 43.125 41 43.125 ZM41.1719 42.375 C40.2344 42.375 39.7656 41.5469 40.0312 40.2969 C40.2969 39.0469 41.1094 38.1875 42.0469 38.1875 C42.9844 38.1875 43.4531 39.0469 43.1875 40.2969 C42.9219 41.5469 42.1094 42.375 41.1719 42.375 Z"
    /></g
    ><g ID="legend-1:0" style="text-rendering:optimizeSpeed; font-size:10px; font-family:'SansSerif';"
    ><path style="stroke:none;" d="M30.875 67 L34.9062 67 L34.9062 66.2344 L33.4375 66.2344 L33.4375 59.6562 L32.7344 59.6562 C32.3281 59.9062 31.8594 60.0625 31.2031 60.1875 L31.2031 60.7656 L32.5156 60.7656 L32.5156 66.2344 L30.875 66.2344 L30.875 67 ZM35.925 62.4531 L40.7219 62.4531 L40.7219 61.7656 L35.925 61.7656 L35.925 62.4531 ZM35.925 64.8438 L40.7219 64.8438 L40.7219 64.1719 L35.925 64.1719 L35.925 64.8438 ZM42.8812 64.7969 L43.6937 64.7969 C43.5062 63.2188 45.3031 62.625 45.3031 61.1562 C45.3031 60.0625 44.5687 59.375 43.4437 59.375 C42.6312 59.375 41.9906 59.7656 41.5375 60.2969 L42.0531 60.7812 C42.3969 60.375 42.8344 60.1406 43.3344 60.1406 C44.0531 60.1406 44.4125 60.625 44.4125 61.2188 C44.4125 62.4062 42.6469 63.0469 42.8812 64.7969 ZM43.3031 67.125 C43.6781 67.125 43.975 66.8438 43.975 66.4375 C43.975 66.0156 43.6781 65.7344 43.3031 65.7344 C42.9437 65.7344 42.6469 66.0156 42.6469 66.4375 C42.6469 66.8438 42.9437 67.125 43.3031 67.125 ZM46.2931 64.5469 L48.8556 64.5469 L48.8556 63.8438 L46.2931 63.8438 L46.2931 64.5469 ZM51.8412 67 L52.7631 67 L52.7631 60.4531 L54.9975 60.4531 L54.9975 59.6562 L49.6225 59.6562 L49.6225 60.4531 L51.8412 60.4531 L51.8412 67 ZM56.2218 67 L57.1281 67 L57.1281 63.0625 C57.675 62.5156 58.0656 62.2344 58.6125 62.2344 C59.3468 62.2344 59.6437 62.6562 59.6437 63.6875 L59.6437 67 L60.5656 67 L60.5656 63.5625 C60.5656 62.1719 60.0343 61.4375 58.8937 61.4375 C58.1593 61.4375 57.5968 61.8438 57.0968 62.3438 L57.1281 61.2188 L57.1281 59.0469 L56.2218 59.0469 L56.2218 67 ZM62.2918 67 L63.1981 67 L63.1981 63.5156 C63.5574 62.5781 64.1199 62.2656 64.5731 62.2656 C64.7918 62.2656 64.9168 62.2812 65.1043 62.3438 L65.2762 61.5469 C65.1043 61.4531 64.9324 61.4375 64.6824 61.4375 C64.0731 61.4375 63.5262 61.875 63.1512 62.5625 L63.1199 62.5625 L63.0418 61.5625 L62.2918 61.5625 L62.2918 67 ZM65.7031 64.5469 L68.2656 64.5469 L68.2656 63.8438 L65.7031 63.8438 L65.7031 64.5469 ZM71.7512 67.125 C73.0793 67.125 74.2668 66.0938 74.2668 64.2969 C74.2668 62.4844 73.0793 61.4375 71.7512 61.4375 C70.4231 61.4375 69.2356 62.4844 69.2356 64.2969 C69.2356 66.0938 70.4231 67.125 71.7512 67.125 ZM71.7512 66.375 C70.8137 66.375 70.1731 65.5469 70.1731 64.2969 C70.1731 63.0469 70.8137 62.1875 71.7512 62.1875 C72.6887 62.1875 73.3293 63.0469 73.3293 64.2969 C73.3293 65.5469 72.6887 66.375 71.7512 66.375 ZM76.6549 67.125 C76.9049 67.125 77.0612 67.0938 77.1862 67.0469 L77.0612 66.3438 C76.9674 66.375 76.9206 66.375 76.8737 66.375 C76.7331 66.375 76.6081 66.2656 76.6081 65.9844 L76.6081 59.0469 L75.7018 59.0469 L75.7018 65.9219 C75.7018 66.6875 75.9831 67.125 76.6549 67.125 Z"
    /></g
  ></g
></svg
>
