<?xml version="1.0"?>
<!DOCTYPE svg PUBLIC '-//W3C//DTD SVG 1.0//EN'
          'http://www.w3.org/TR/2001/REC-SVG-20010904/DTD/svg10.dtd'>
<svg xmlns:xlink="http://www.w3.org/1999/xlink" style="fill-opacity:1; color-rendering:auto; color-interpolation:auto; text-rendering:auto; stroke:black; stroke-linecap:square; stroke-miterlimit:10; shape-rendering:auto; stroke-opacity:1; fill:black; stroke-dasharray:none; font-weight:normal; stroke-width:1; font-family:'Dialog'; font-style:normal; stroke-linejoin:miter; font-size:12px; stroke-dashoffset:0; image-rendering:auto;" viewBox="0 0 179 120" xmlns="http://www.w3.org/2000/svg"
><!--Generated by the Batik Graphics2D SVG Generator--><defs id="genericDefs"
  /><g
  ><defs id="defs1"
    ><clipPath clipPathUnits="userSpaceOnUse" id="clipPath1"
      ><path style="fill-rule:evenodd;" d="M52 53 L62 60 L58 72 L45 72 L41 60 L52 53 Z"
      /></clipPath
    ></defs
    ><g style="fill:white; text-rendering:optimizeSpeed; stroke:white;"
    ><rect x="0" width="179" height="120" y="0" style="stroke:none;"
      /><polygon style="clip-path:url(#clipPath1); stroke:none;" points=" 52 53 62 60 58 72 45 72 41 60 52 53"
      /><rect x="41" y="53" width="22" style="clip-path:url(#clipPath1); stroke:none;" height="22"
      /><rect x="41" y="53" width="22" style="clip-path:url(#clipPath1); fill:none; stroke:black;" height="22"
      /><polygon style="fill:none; stroke:black;" points=" 52 53 62 60 58 72 45 72 41 60 52 53"
    /></g
    ><g style="font-style:italic; text-rendering:optimizeSpeed; font-size:10px; font-family:'SansSerif';"
    ><path style="stroke:none;" d="M52 66.125 C53.3281 66.125 54.7344 65.0938 55.125 63.2969 C55.5 61.4844 54.5469 60.4375 53.2188 60.4375 C51.8906 60.4375 50.4688 61.4844 50.0938 63.2969 C49.7031 65.0938 50.6719 66.125 52 66.125 ZM52.1719 65.375 C51.2344 65.375 50.7656 64.5469 51.0312 63.2969 C51.2969 62.0469 52.1094 61.1875 53.0469 61.1875 C53.9844 61.1875 54.4531 62.0469 54.1875 63.2969 C53.9219 64.5469 53.1094 65.375 52.1719 65.375 Z"
    /></g
    ><g style="fill:white; text-rendering:optimizeSpeed; font-size:14px; font-family:'SansSerif'; stroke:white;"
    ><rect x="33" width="14" height="11" y="35" style="stroke:none;"
      /><path d="M34.6094 42.1562 L36.9531 38.6562 C37.2344 38.1406 37.5156 37.6406 37.7812 37.1406 L37.8281 37.1406 C37.7969 37.6719 37.7656 38.5 37.7656 39 L37.7656 42.1562 L34.6094 42.1562 ZM37.7656 46 L38.9688 46 L38.9688 43.1719 L40.3281 43.1719 L40.3281 42.1562 L38.9688 42.1562 L38.9688 35.7188 L37.5469 35.7188 L33.2812 42.3281 L33.2812 43.1719 L37.7656 43.1719 L37.7656 46 ZM44.645 46.1875 C45.5512 46.1875 46.3637 45.6875 46.9575 45.1094 L47.0043 45.1094 L47.1137 46 L48.145 46 L48.145 34.8594 L46.895 34.8594 L46.895 37.7812 L46.9418 39.0938 C46.27 38.5312 45.6918 38.2031 44.8012 38.2031 C43.0668 38.2031 41.5043 39.7344 41.5043 42.2031 C41.5043 44.7344 42.7387 46.1875 44.645 46.1875 ZM44.9262 45.125 C43.5825 45.125 42.8325 44.0312 42.8325 42.1875 C42.8325 40.4531 43.8012 39.2812 45.02 39.2812 C45.6606 39.2812 46.2231 39.5 46.895 40.0781 L46.895 44.0625 C46.2387 44.7656 45.6293 45.125 44.9262 45.125 Z" style="fill:black; stroke:none;"
      /><path d="M58.125 45.1562 C59.625 45.1562 61.0156 44.0625 61.0156 42.125 C61.0156 40.2031 59.8281 39.3438 58.3594 39.3438 C57.8281 39.3438 57.4531 39.4688 57.0469 39.6875 L57.2656 37.1406 L60.5938 37.1406 L60.5938 36.1875 L56.3125 36.1875 L56.0312 40.3125 L56.625 40.6875 C57.125 40.3438 57.5 40.1562 58.0781 40.1562 C59.1875 40.1562 59.9062 40.9062 59.9062 42.1719 C59.9062 43.4531 59.0625 44.25 58.0312 44.25 C57.0156 44.25 56.375 43.7812 55.875 43.2656 L55.3438 43.9844 C55.9219 44.5781 56.7656 45.1562 58.125 45.1562 ZM62.7694 45 L63.8632 45 L63.8632 40.2656 C64.4569 39.5938 65.0038 39.2812 65.5038 39.2812 C66.3319 39.2812 66.7069 39.7969 66.7069 41.0156 L66.7069 45 L67.8007 45 L67.8007 40.2656 C68.41 39.5938 68.9413 39.2812 69.4413 39.2812 C70.2694 39.2812 70.66 39.7969 70.66 41.0156 L70.66 45 L71.7538 45 L71.7538 40.875 C71.7538 39.2031 71.1132 38.3125 69.7694 38.3125 C68.9725 38.3125 68.3007 38.8281 67.6288 39.5625 C67.3632 38.7969 66.8163 38.3125 65.8163 38.3125 C65.0507 38.3125 64.3632 38.8125 63.8007 39.4375 L63.7538 39.4375 L63.66 38.4844 L62.7694 38.4844 L62.7694 45 Z" style="fill:black; stroke:none;"
      /><rect x="80" width="5" height="10" y="51" style="stroke:none;"
    /></g
    ><g style="font-family:'Serif'; text-rendering:optimizeSpeed; "
    ><path style="stroke:none;" d="M81.8906 59.6875 C81.4844 59.6875 81.1562 60.0469 81.1562 60.4219 C81.1562 60.8125 81.4844 61.1562 81.8906 61.1562 C82.2969 61.1562 82.6406 60.8125 82.6406 60.4219 C82.6406 60.0469 82.2969 59.6875 81.8906 59.6875 ZM83.4688 53.5781 C83.7188 53.8906 83.875 54.2656 83.8906 54.6562 C83.8906 55.1875 83.625 55.5 83.0312 55.7656 L82.4062 56.0156 C81.6406 56.3125 81.3906 56.5469 81.3906 56.9375 C81.3906 57.1094 81.4531 57.3438 81.5781 57.8125 L81.7344 58.3438 L82.1094 58.3438 L82.0938 57.5312 C82.0938 57.0938 82.2031 56.9688 82.7812 56.7344 L83.2031 56.5625 C84.0312 56.2188 84.4531 55.6875 84.4531 54.8438 C84.4531 53.1562 82.6562 52.1875 81.5 52.0312 C81.1094 52.125 80.9062 52.2969 80.9062 52.6406 C80.9062 52.9375 81.0625 53.1562 81.7188 53.2656 L83.4688 53.5781 Z"
      /><rect x="80" y="67" width="5" style="fill:white; stroke:none;" height="10"
      /><path style="stroke:none;" d="M81.8906 75.6875 C81.4844 75.6875 81.1562 76.0469 81.1562 76.4219 C81.1562 76.8125 81.4844 77.1562 81.8906 77.1562 C82.2969 77.1562 82.6406 76.8125 82.6406 76.4219 C82.6406 76.0469 82.2969 75.6875 81.8906 75.6875 ZM83.4688 69.5781 C83.7188 69.8906 83.875 70.2656 83.8906 70.6562 C83.8906 71.1875 83.625 71.5 83.0312 71.7656 L82.4062 72.0156 C81.6406 72.3125 81.3906 72.5469 81.3906 72.9375 C81.3906 73.1094 81.4531 73.3438 81.5781 73.8125 L81.7344 74.3438 L82.1094 74.3438 L82.0938 73.5312 C82.0938 73.0938 82.2031 72.9688 82.7812 72.7344 L83.2031 72.5625 C84.0312 72.2188 84.4531 71.6875 84.4531 70.8438 C84.4531 69.1562 82.6562 68.1875 81.5 68.0312 C81.1094 68.125 80.9062 68.2969 80.9062 68.6406 C80.9062 68.9375 81.0625 69.1562 81.7188 69.2656 L83.4688 69.5781 Z"
    /></g
    ><g ID="legend-1:0" style="text-rendering:optimizeSpeed; font-size:10px; font-family:'SansSerif';"
    ><path style="stroke:none;" d="M30.9219 90 L31.8281 90 L31.8281 86.0625 C32.375 85.5156 32.7656 85.2344 33.3125 85.2344 C34.0469 85.2344 34.3438 85.6562 34.3438 86.6875 L34.3438 90 L35.2656 90 L35.2656 86.5625 C35.2656 85.1719 34.7344 84.4375 33.5938 84.4375 C32.8594 84.4375 32.2969 84.8438 31.7812 85.3438 L31.75 85.3438 L31.6719 84.5625 L30.9219 84.5625 L30.9219 90 ZM39.1413 90.125 C40.4694 90.125 41.6569 89.0938 41.6569 87.2969 C41.6569 85.4844 40.4694 84.4375 39.1413 84.4375 C37.8131 84.4375 36.6256 85.4844 36.6256 87.2969 C36.6256 89.0938 37.8131 90.125 39.1413 90.125 ZM39.1413 89.375 C38.2038 89.375 37.5631 88.5469 37.5631 87.2969 C37.5631 86.0469 38.2038 85.1875 39.1413 85.1875 C40.0788 85.1875 40.7194 86.0469 40.7194 87.2969 C40.7194 88.5469 40.0788 89.375 39.1413 89.375 ZM47.16 92.5 C48.8475 92.5 49.91 91.625 49.91 90.625 C49.91 89.7344 49.2694 89.3281 48.0038 89.3281 L46.9569 89.3281 C46.2225 89.3281 46.0038 89.0938 46.0038 88.7344 C46.0038 88.4375 46.1444 88.2656 46.3475 88.0938 C46.5975 88.2031 46.8944 88.2812 47.16 88.2812 C48.2538 88.2812 49.1444 87.5469 49.1444 86.3906 C49.1444 85.9219 48.9569 85.5156 48.7069 85.2656 L49.8163 85.2656 L49.8163 84.5625 L47.9256 84.5625 C47.7225 84.5 47.4569 84.4375 47.16 84.4375 C46.0663 84.4375 45.1131 85.1875 45.1131 86.375 C45.1131 87.0156 45.4725 87.5469 45.8319 87.8281 L45.8319 87.875 C45.5506 88.0625 45.2225 88.4375 45.2225 88.875 C45.2225 89.3125 45.4256 89.5938 45.7225 89.7656 L45.7225 89.8125 C45.2069 90.1406 44.9256 90.5781 44.9256 91.0469 C44.9256 91.9844 45.8319 92.5 47.16 92.5 ZM47.16 87.6562 C46.535 87.6562 46.0038 87.1562 46.0038 86.375 C46.0038 85.5625 46.5194 85.0938 47.16 85.0938 C47.8006 85.0938 48.3163 85.5781 48.3163 86.375 C48.3163 87.1562 47.785 87.6562 47.16 87.6562 ZM47.285 91.875 C46.3163 91.875 45.7225 91.5 45.7225 90.9219 C45.7225 90.5938 45.8788 90.2812 46.2694 90 C46.5038 90.0625 46.7694 90.0938 46.9725 90.0938 L47.91 90.0938 C48.6288 90.0938 49.0194 90.2656 49.0194 90.7656 C49.0194 91.3281 48.3319 91.875 47.285 91.875 ZM51.915 90.125 C52.165 90.125 52.3212 90.0938 52.4462 90.0469 L52.3212 89.3438 C52.2275 89.375 52.1806 89.375 52.1337 89.375 C51.9931 89.375 51.8681 89.2656 51.8681 88.9844 L51.8681 82.0469 L50.9619 82.0469 L50.9619 88.9219 C50.9619 89.6875 51.2431 90.125 51.915 90.125 ZM53.9056 92.3438 C54.9837 92.3438 55.5462 91.5156 55.9212 90.4531 L57.9681 84.5625 L57.0775 84.5625 L56.1087 87.5938 C55.9525 88.0625 55.7962 88.625 55.6556 89.1094 L55.5931 89.1094 C55.4369 88.625 55.2337 88.0625 55.0775 87.5938 L53.9681 84.5625 L53.015 84.5625 L55.2025 90.0156 L55.0775 90.4219 C54.8587 91.0938 54.4681 91.5938 53.8431 91.5938 C53.7025 91.5938 53.5462 91.5469 53.4369 91.5 L53.265 92.2344 C53.4369 92.2969 53.64 92.3438 53.9056 92.3438 ZM61.1625 90.125 C61.8031 90.125 62.4281 89.875 62.9125 89.4375 L62.5219 88.8281 C62.1781 89.1406 61.7406 89.375 61.2406 89.375 C60.2406 89.375 59.5531 88.5469 59.5531 87.2969 C59.5531 86.0469 60.2875 85.1875 61.2719 85.1875 C61.6937 85.1875 62.0375 85.3906 62.35 85.6719 L62.8187 85.0625 C62.4281 84.7344 61.9437 84.4375 61.225 84.4375 C59.8344 84.4375 58.6156 85.4844 58.6156 87.2969 C58.6156 89.0938 59.725 90.125 61.1625 90.125 ZM66.2212 90.125 C67.5493 90.125 68.7368 89.0938 68.7368 87.2969 C68.7368 85.4844 67.5493 84.4375 66.2212 84.4375 C64.8931 84.4375 63.7056 85.4844 63.7056 87.2969 C63.7056 89.0938 64.8931 90.125 66.2212 90.125 ZM66.2212 89.375 C65.2837 89.375 64.6431 88.5469 64.6431 87.2969 C64.6431 86.0469 65.2837 85.1875 66.2212 85.1875 C67.1587 85.1875 67.7993 86.0469 67.7993 87.2969 C67.7993 88.5469 67.1587 89.375 66.2212 89.375 ZM71.5937 90.125 C72.875 90.125 73.5625 89.4062 73.5625 88.5156 C73.5625 87.4844 72.7031 87.1719 71.9062 86.875 C71.2968 86.6406 70.7343 86.4531 70.7343 85.9375 C70.7343 85.5156 71.0625 85.1562 71.75 85.1562 C72.2343 85.1562 72.6093 85.3438 72.9843 85.625 L73.4218 85.0469 C73 84.7031 72.4062 84.4375 71.7343 84.4375 C70.5625 84.4375 69.8593 85.1094 69.8593 85.9688 C69.8593 86.8906 70.6875 87.2656 71.4531 87.5469 C72.0468 87.7656 72.6875 88.0156 72.6875 88.5625 C72.6875 89.0469 72.3437 89.4219 71.625 89.4219 C70.9687 89.4219 70.4843 89.1562 70.0156 88.7812 L69.5625 89.375 C70.0781 89.8125 70.8125 90.125 71.5937 90.125 ZM74.8518 90 L75.7581 90 L75.7581 84.5625 L74.8518 84.5625 L74.8518 90 ZM75.305 83.4531 C75.6643 83.4531 75.9143 83.2031 75.9143 82.8438 C75.9143 82.4844 75.6643 82.25 75.305 82.25 C74.9456 82.25 74.6956 82.4844 74.6956 82.8438 C74.6956 83.2031 74.9456 83.4531 75.305 83.4531 ZM79.4456 90.125 C80.1018 90.125 80.6643 89.7812 81.1018 89.3594 L81.1331 89.3594 L81.2112 90 L81.9456 90 L81.9456 82.0469 L81.055 82.0469 L81.055 84.125 L81.0862 85.0625 C80.6175 84.6719 80.1956 84.4375 79.555 84.4375 C78.3206 84.4375 77.2112 85.5312 77.2112 87.2969 C77.2112 89.0938 78.0862 90.125 79.4456 90.125 ZM79.6487 89.375 C78.6956 89.375 78.1487 88.5938 78.1487 87.2812 C78.1487 86.0469 78.8362 85.2031 79.7268 85.2031 C80.1643 85.2031 80.5862 85.3594 81.055 85.7656 L81.055 88.625 C80.5862 89.125 80.1487 89.375 79.6487 89.375 ZM83.8018 90 L84.7081 90 L84.7081 84.5625 L83.8018 84.5625 L83.8018 90 ZM84.255 83.4531 C84.6143 83.4531 84.8643 83.2031 84.8643 82.8438 C84.8643 82.4844 84.6143 82.25 84.255 82.25 C83.8956 82.25 83.6456 82.4844 83.6456 82.8438 C83.6456 83.2031 83.8956 83.4531 84.255 83.4531 ZM88.6925 90.125 C89.3331 90.125 89.9581 89.875 90.4425 89.4375 L90.0518 88.8281 C89.7081 89.1406 89.2706 89.375 88.7706 89.375 C87.7706 89.375 87.0831 88.5469 87.0831 87.2969 C87.0831 86.0469 87.8175 85.1875 88.8018 85.1875 C89.2237 85.1875 89.5675 85.3906 89.88 85.6719 L90.3487 85.0625 C89.9581 84.7344 89.4737 84.4375 88.755 84.4375 C87.3643 84.4375 86.1456 85.4844 86.1456 87.2969 C86.1456 89.0938 87.255 90.125 88.6925 90.125 ZM94.835 90.125 C95.085 90.125 95.2412 90.0938 95.3662 90.0469 L95.2412 89.3438 C95.1475 89.375 95.1006 89.375 95.0537 89.375 C94.9131 89.375 94.7881 89.2656 94.7881 88.9844 L94.7881 82.0469 L93.8818 82.0469 L93.8818 88.9219 C93.8818 89.6875 94.1631 90.125 94.835 90.125 ZM96.7318 90 L97.6381 90 L97.6381 84.5625 L96.7318 84.5625 L96.7318 90 ZM97.185 83.4531 C97.5443 83.4531 97.7943 83.2031 97.7943 82.8438 C97.7943 82.4844 97.5443 82.25 97.185 82.25 C96.8256 82.25 96.5756 82.4844 96.5756 82.8438 C96.5756 83.2031 96.8256 83.4531 97.185 83.4531 ZM99.4818 90 L100.3881 90 L100.3881 86.0625 C100.935 85.5156 101.3256 85.2344 101.8725 85.2344 C102.6068 85.2344 102.9037 85.6562 102.9037 86.6875 L102.9037 90 L103.8256 90 L103.8256 86.5625 C103.8256 85.1719 103.2943 84.4375 102.1537 84.4375 C101.4193 84.4375 100.8568 84.8438 100.3412 85.3438 L100.31 85.3438 L100.2318 84.5625 L99.4818 84.5625 L99.4818 90 ZM105.5918 90 L106.4825 90 L106.4825 88.5625 L107.5137 87.375 L109.1075 90 L110.0918 90 L108.045 86.7656 L109.8575 84.5625 L108.8262 84.5625 L106.5137 87.4375 L106.4825 87.4375 L106.4825 82.0469 L105.5918 82.0469 L105.5918 90 ZM112.3618 90.125 C113.0337 90.125 113.6431 89.7812 114.1587 89.3438 L114.1899 89.3438 L114.2681 90 L115.0181 90 L115.0181 86.6562 C115.0181 85.3125 114.4556 84.4375 113.1431 84.4375 C112.2681 84.4375 111.5024 84.8125 111.0024 85.1406 L111.3618 85.7656 C111.7837 85.4844 112.3618 85.1875 112.9868 85.1875 C113.8774 85.1875 114.1118 85.8594 114.1118 86.5625 C111.7993 86.8125 110.7681 87.4062 110.7681 88.5938 C110.7681 89.5625 111.4556 90.125 112.3618 90.125 ZM112.6274 89.4062 C112.0806 89.4062 111.6587 89.1562 111.6587 88.5312 C111.6587 87.8281 112.2837 87.375 114.1118 87.1562 L114.1118 88.6875 C113.5806 89.1562 113.1431 89.4062 112.6274 89.4062 ZM118.5799 92.5 C120.2674 92.5 121.3299 91.625 121.3299 90.625 C121.3299 89.7344 120.6893 89.3281 119.4237 89.3281 L118.3768 89.3281 C117.6424 89.3281 117.4237 89.0938 117.4237 88.7344 C117.4237 88.4375 117.5643 88.2656 117.7674 88.0938 C118.0174 88.2031 118.3143 88.2812 118.5799 88.2812 C119.6737 88.2812 120.5643 87.5469 120.5643 86.3906 C120.5643 85.9219 120.3768 85.5156 120.1268 85.2656 L121.2362 85.2656 L121.2362 84.5625 L119.3456 84.5625 C119.1424 84.5 118.8768 84.4375 118.5799 84.4375 C117.4862 84.4375 116.5331 85.1875 116.5331 86.375 C116.5331 87.0156 116.8924 87.5469 117.2518 87.8281 L117.2518 87.875 C116.9706 88.0625 116.6424 88.4375 116.6424 88.875 C116.6424 89.3125 116.8456 89.5938 117.1424 89.7656 L117.1424 89.8125 C116.6268 90.1406 116.3456 90.5781 116.3456 91.0469 C116.3456 91.9844 117.2518 92.5 118.5799 92.5 ZM118.5799 87.6562 C117.9549 87.6562 117.4237 87.1562 117.4237 86.375 C117.4237 85.5625 117.9393 85.0938 118.5799 85.0938 C119.2206 85.0938 119.7362 85.5781 119.7362 86.375 C119.7362 87.1562 119.2049 87.6562 118.5799 87.6562 ZM118.7049 91.875 C117.7362 91.875 117.1424 91.5 117.1424 90.9219 C117.1424 90.5938 117.2987 90.2812 117.6893 90 C117.9237 90.0625 118.1893 90.0938 118.3924 90.0938 L119.3299 90.0938 C120.0487 90.0938 120.4393 90.2656 120.4393 90.7656 C120.4393 91.3281 119.7518 91.875 118.7049 91.875 ZM124.5693 90.125 C125.3037 90.125 125.8974 89.875 126.3662 89.5625 L126.0381 88.9688 C125.6474 89.2344 125.2099 89.4062 124.6787 89.4062 C123.6474 89.4062 122.9443 88.6562 122.8818 87.5 L126.5381 87.5 C126.5537 87.375 126.5849 87.1875 126.5849 86.9844 C126.5849 85.4375 125.8037 84.4375 124.4131 84.4375 C123.1631 84.4375 121.9756 85.5312 121.9756 87.2969 C121.9756 89.0781 123.1318 90.125 124.5693 90.125 ZM122.8662 86.8438 C122.9756 85.7812 123.6631 85.1562 124.4287 85.1562 C125.2724 85.1562 125.7724 85.75 125.7724 86.8438 L122.8662 86.8438 ZM129.3437 90.125 C130.6249 90.125 131.3124 89.4062 131.3124 88.5156 C131.3124 87.4844 130.453 87.1719 129.6562 86.875 C129.0468 86.6406 128.4843 86.4531 128.4843 85.9375 C128.4843 85.5156 128.8124 85.1562 129.4999 85.1562 C129.9843 85.1562 130.3593 85.3438 130.7343 85.625 L131.1718 85.0469 C130.7499 84.7031 130.1562 84.4375 129.4843 84.4375 C128.3124 84.4375 127.6093 85.1094 127.6093 85.9688 C127.6093 86.8906 128.4374 87.2656 129.203 87.5469 C129.7968 87.7656 130.4374 88.0156 130.4374 88.5625 C130.4374 89.0469 130.0937 89.4219 129.3749 89.4219 C128.7187 89.4219 128.2343 89.1562 127.7655 88.7812 L127.3124 89.375 C127.828 89.8125 128.5624 90.125 129.3437 90.125 Z"
      /><path style="stroke:none;" d="M30.875 105 L34.9062 105 L34.9062 104.2344 L33.4375 104.2344 L33.4375 97.6562 L32.7344 97.6562 C32.3281 97.9062 31.8594 98.0625 31.2031 98.1875 L31.2031 98.7656 L32.5156 98.7656 L32.5156 104.2344 L30.875 104.2344 L30.875 105 ZM35.925 100.4531 L40.7219 100.4531 L40.7219 99.7656 L35.925 99.7656 L35.925 100.4531 ZM35.925 102.8438 L40.7219 102.8438 L40.7219 102.1719 L35.925 102.1719 L35.925 102.8438 ZM42.2562 102.25 L43.9125 99.75 C44.1312 99.3906 44.3344 99.0312 44.5062 98.6719 L44.5531 98.6719 C44.5375 99.0469 44.5062 99.6406 44.5062 100 L44.5062 102.25 L42.2562 102.25 ZM44.5062 105 L45.3656 105 L45.3656 102.9844 L46.3344 102.9844 L46.3344 102.25 L45.3656 102.25 L45.3656 97.6562 L44.35 97.6562 L41.3031 102.375 L41.3031 102.9844 L44.5062 102.9844 L44.5062 105 ZM47.4 106.9062 C48.3062 106.5156 48.8531 105.7656 48.8531 104.8125 C48.8531 104.1406 48.5718 103.7344 48.0875 103.7344 C47.7125 103.7344 47.4 103.9844 47.4 104.375 C47.4 104.7969 47.7125 105.0156 48.0718 105.0156 C48.1031 105.0156 48.1343 105.0156 48.1812 105 C48.1812 105.5938 47.8062 106.0781 47.1812 106.3594 L47.4 106.9062 ZM52.0393 105.125 C53.2737 105.125 54.4456 104.2188 54.4456 102.6094 C54.4456 101 53.4456 100.2812 52.2268 100.2812 C51.7893 100.2812 51.4768 100.3906 51.1331 100.5625 L51.3206 98.4531 L54.0862 98.4531 L54.0862 97.6562 L50.5237 97.6562 L50.2893 101.0938 L50.7737 101.4062 C51.1956 101.125 51.5081 100.9688 51.9925 100.9688 C52.9143 100.9688 53.5237 101.5938 53.5237 102.6406 C53.5237 103.7031 52.8206 104.375 51.9612 104.375 C51.1175 104.375 50.5862 103.9844 50.1643 103.5625 L49.7112 104.1562 C50.1956 104.6562 50.8987 105.125 52.0393 105.125 ZM55.4331 102.5469 L57.9956 102.5469 L57.9956 101.8438 L55.4331 101.8438 L55.4331 102.5469 ZM61.2156 105.125 C61.8718 105.125 62.4343 104.7812 62.8718 104.3594 L62.9031 104.3594 L62.9812 105 L63.7156 105 L63.7156 97.0469 L62.825 97.0469 L62.825 99.125 L62.8562 100.0625 C62.3875 99.6719 61.9656 99.4375 61.325 99.4375 C60.0906 99.4375 58.9812 100.5312 58.9812 102.2969 C58.9812 104.0938 59.8562 105.125 61.2156 105.125 ZM61.4187 104.375 C60.4656 104.375 59.9187 103.5938 59.9187 102.2812 C59.9187 101.0469 60.6062 100.2031 61.4968 100.2031 C61.9343 100.2031 62.3562 100.3594 62.825 100.7656 L62.825 103.625 C62.3562 104.125 61.9187 104.375 61.4187 104.375 ZM65.5718 105 L66.4781 105 L66.4781 99.5625 L65.5718 99.5625 L65.5718 105 ZM66.0249 98.4531 C66.3843 98.4531 66.6343 98.2031 66.6343 97.8438 C66.6343 97.4844 66.3843 97.25 66.0249 97.25 C65.6656 97.25 65.4156 97.4844 65.4156 97.8438 C65.4156 98.2031 65.6656 98.4531 66.0249 98.4531 ZM70.1656 105.125 C70.8218 105.125 71.3843 104.7812 71.8218 104.3594 L71.8531 104.3594 L71.9312 105 L72.6656 105 L72.6656 97.0469 L71.7749 97.0469 L71.7749 99.125 L71.8062 100.0625 C71.3374 99.6719 70.9156 99.4375 70.2749 99.4375 C69.0406 99.4375 67.9312 100.5312 67.9312 102.2969 C67.9312 104.0938 68.8062 105.125 70.1656 105.125 ZM70.3687 104.375 C69.4156 104.375 68.8687 103.5938 68.8687 102.2812 C68.8687 101.0469 69.5562 100.2031 70.4468 100.2031 C70.8843 100.2031 71.3062 100.3594 71.7749 100.7656 L71.7749 103.625 C71.3062 104.125 70.8687 104.375 70.3687 104.375 ZM76.7093 105.125 C77.4437 105.125 78.0374 104.875 78.5062 104.5625 L78.1781 103.9688 C77.7874 104.2344 77.3499 104.4062 76.8187 104.4062 C75.7874 104.4062 75.0843 103.6562 75.0218 102.5 L78.6781 102.5 C78.6937 102.375 78.7249 102.1875 78.7249 101.9844 C78.7249 100.4375 77.9437 99.4375 76.5531 99.4375 C75.3031 99.4375 74.1156 100.5312 74.1156 102.2969 C74.1156 104.0781 75.2718 105.125 76.7093 105.125 ZM75.0062 101.8438 C75.1156 100.7812 75.8031 100.1562 76.5687 100.1562 C77.4124 100.1562 77.9124 100.75 77.9124 101.8438 L75.0062 101.8438 ZM82.1712 105.125 C83.4993 105.125 84.6868 104.0938 84.6868 102.2969 C84.6868 100.4844 83.4993 99.4375 82.1712 99.4375 C80.8431 99.4375 79.6556 100.4844 79.6556 102.2969 C79.6556 104.0938 80.8431 105.125 82.1712 105.125 ZM82.1712 104.375 C81.2337 104.375 80.5931 103.5469 80.5931 102.2969 C80.5931 101.0469 81.2337 100.1875 82.1712 100.1875 C83.1087 100.1875 83.7493 101.0469 83.7493 102.2969 C83.7493 103.5469 83.1087 104.375 82.1712 104.375 ZM85.3562 105 L86.3093 105 L87.0437 103.7344 C87.2312 103.4062 87.4031 103.0625 87.6062 102.7656 L87.6531 102.7656 C87.8562 103.0625 88.0437 103.4062 88.2312 103.7344 L89.0281 105 L90.0281 105 L88.2468 102.2656 L89.8874 99.5625 L88.9343 99.5625 L88.2624 100.7656 C88.1062 101.0625 87.9499 101.375 87.7781 101.6719 L87.7468 101.6719 C87.5593 101.375 87.3718 101.0625 87.1999 100.7656 L86.4656 99.5625 L85.4968 99.5625 L87.1374 102.1719 L85.3562 105 ZM91.1956 107.3438 C92.2737 107.3438 92.8362 106.5156 93.2112 105.4531 L95.2581 99.5625 L94.3674 99.5625 L93.3987 102.5938 C93.2424 103.0625 93.0862 103.625 92.9456 104.1094 L92.8831 104.1094 C92.7268 103.625 92.5237 103.0625 92.3674 102.5938 L91.2581 99.5625 L90.3049 99.5625 L92.4924 105.0156 L92.3674 105.4219 C92.1487 106.0938 91.7581 106.5938 91.1331 106.5938 C90.9924 106.5938 90.8362 106.5469 90.7268 106.5 L90.5549 107.2344 C90.7268 107.2969 90.9299 107.3438 91.1956 107.3438 ZM95.843 102.5469 L98.4055 102.5469 L98.4055 101.8438 L95.843 101.8438 L95.843 102.5469 ZM99.8599 105 L101.7349 105 C103.9537 105 105.1568 103.625 105.1568 101.3125 C105.1568 98.9844 103.9537 97.6562 101.7037 97.6562 L99.8599 97.6562 L99.8599 105 ZM100.7974 104.2344 L100.7974 98.4219 L101.6255 98.4219 C103.3443 98.4219 104.2037 99.4531 104.2037 101.3125 C104.2037 103.1562 103.3443 104.2344 101.6255 104.2344 L100.7974 104.2344 ZM106.183 102.5469 L108.7455 102.5469 L108.7455 101.8438 L106.183 101.8438 L106.183 102.5469 ZM111.8249 105.125 C112.153 105.125 112.5124 105.0312 112.8249 104.9375 L112.653 104.25 C112.4655 104.3125 112.2155 104.3906 112.028 104.3906 C111.403 104.3906 111.1843 104.0156 111.1843 103.3438 L111.1843 100.3125 L112.653 100.3125 L112.653 99.5625 L111.1843 99.5625 L111.1843 98.0469 L110.4343 98.0469 L110.3249 99.5625 L109.4655 99.625 L109.4655 100.3125 L110.278 100.3125 L110.278 103.3125 C110.278 104.4062 110.6687 105.125 111.8249 105.125 ZM113.8918 105 L114.798 105 L114.798 101.0625 C115.3449 100.5156 115.7355 100.2344 116.2824 100.2344 C117.0168 100.2344 117.3137 100.6562 117.3137 101.6875 L117.3137 105 L118.2355 105 L118.2355 101.5625 C118.2355 100.1719 117.7043 99.4375 116.5637 99.4375 C115.8293 99.4375 115.2668 99.8438 114.7668 100.3438 L114.798 99.2188 L114.798 97.0469 L113.8918 97.0469 L113.8918 105 ZM119.9618 105 L120.868 105 L120.868 101.5156 C121.2274 100.5781 121.7899 100.2656 122.243 100.2656 C122.4618 100.2656 122.5868 100.2812 122.7743 100.3438 L122.9462 99.5469 C122.7743 99.4531 122.6024 99.4375 122.3524 99.4375 C121.743 99.4375 121.1962 99.875 120.8212 100.5625 L120.7899 100.5625 L120.7118 99.5625 L119.9618 99.5625 L119.9618 105 ZM123.9199 105 L124.8574 105 L124.8574 102.0938 L126.0605 102.0938 C127.6699 102.0938 128.7636 101.375 128.7636 99.8125 C128.7636 98.2188 127.6543 97.6562 126.0136 97.6562 L123.9199 97.6562 L123.9199 105 ZM124.8574 101.3438 L124.8574 98.4219 L125.9043 98.4219 C127.1855 98.4219 127.8418 98.7656 127.8418 99.8125 C127.8418 100.875 127.2324 101.3438 125.9355 101.3438 L124.8574 101.3438 ZM132.3493 105.125 C133.0836 105.125 133.6774 104.875 134.1461 104.5625 L133.818 103.9688 C133.4274 104.2344 132.9899 104.4062 132.4586 104.4062 C131.4274 104.4062 130.7243 103.6562 130.6618 102.5 L134.318 102.5 C134.3336 102.375 134.3649 102.1875 134.3649 101.9844 C134.3649 100.4375 133.5836 99.4375 132.193 99.4375 C130.943 99.4375 129.7555 100.5312 129.7555 102.2969 C129.7555 104.0781 130.9118 105.125 132.3493 105.125 ZM130.6461 101.8438 C130.7555 100.7812 131.443 100.1562 132.2086 100.1562 C133.0524 100.1562 133.5524 100.75 133.5524 101.8438 L130.6461 101.8438 ZM135.7018 105 L136.608 105 L136.608 101.0625 C137.1549 100.5156 137.5455 100.2344 138.0924 100.2344 C138.8268 100.2344 139.1236 100.6562 139.1236 101.6875 L139.1236 105 L140.0455 105 L140.0455 101.5625 C140.0455 100.1719 139.5143 99.4375 138.3736 99.4375 C137.6393 99.4375 137.0768 99.8438 136.5611 100.3438 L136.5299 100.3438 L136.4518 99.5625 L135.7018 99.5625 L135.7018 105 ZM141.343 102.5469 L143.9055 102.5469 L143.9055 101.8438 L141.343 101.8438 L141.343 102.5469 ZM147.3911 105.125 C148.7193 105.125 149.9068 104.0938 149.9068 102.2969 C149.9068 100.4844 148.7193 99.4375 147.3911 99.4375 C146.063 99.4375 144.8755 100.4844 144.8755 102.2969 C144.8755 104.0938 146.063 105.125 147.3911 105.125 ZM147.3911 104.375 C146.4536 104.375 145.813 103.5469 145.813 102.2969 C145.813 101.0469 146.4536 100.1875 147.3911 100.1875 C148.3286 100.1875 148.9693 101.0469 148.9693 102.2969 C148.9693 103.5469 148.3286 104.375 147.3911 104.375 ZM152.2949 105.125 C152.5449 105.125 152.7011 105.0938 152.8261 105.0469 L152.7011 104.3438 C152.6074 104.375 152.5605 104.375 152.5136 104.375 C152.373 104.375 152.248 104.2656 152.248 103.9844 L152.248 97.0469 L151.3418 97.0469 L151.3418 103.9219 C151.3418 104.6875 151.623 105.125 152.2949 105.125 Z"
    /></g
  ></g
></svg
>
