<?xml version="1.0"?>
<!DOCTYPE svg PUBLIC '-//W3C//DTD SVG 1.0//EN'
          'http://www.w3.org/TR/2001/REC-SVG-20010904/DTD/svg10.dtd'>
<svg xmlns:xlink="http://www.w3.org/1999/xlink" style="fill-opacity:1; color-rendering:auto; color-interpolation:auto; text-rendering:auto; stroke:black; stroke-linecap:square; stroke-miterlimit:10; shape-rendering:auto; stroke-opacity:1; fill:black; stroke-dasharray:none; font-weight:normal; stroke-width:1; font-family:'Dialog'; font-style:normal; stroke-linejoin:miter; font-size:12px; stroke-dashoffset:0; image-rendering:auto;" viewBox="0 0 134 143" xmlns="http://www.w3.org/2000/svg"
><!--Generated by the Batik Graphics2D SVG Generator--><defs id="genericDefs"
  /><g
  ><defs id="defs1"
    ><clipPath clipPathUnits="userSpaceOnUse" id="clipPath1"
      ><path style="fill-rule:evenodd;" d="M41 53 L51 60 L47 72 L34 72 L30 60 L41 53 Z"
      /></clipPath
    ></defs
    ><g style="fill:white; text-rendering:optimizeSpeed; stroke:white;"
    ><rect x="0" width="134" height="143" y="0" style="stroke:none;"
      /><polygon style="fill:none; stroke:black;" points=" 93 64 41 64"
      /><path d="M93 53 C87.5 58.5 98.5 69.5 93 75" style="fill:none; stroke:black;"
      /><polygon style="clip-path:url(#clipPath1); stroke:none;" points=" 41 53 51 60 47 72 34 72 30 60 41 53"
      /><rect x="30" y="53" width="22" style="clip-path:url(#clipPath1); stroke:none;" height="22"
      /><rect x="30" y="53" width="22" style="clip-path:url(#clipPath1); fill:none; stroke:black;" height="22"
      /><polygon style="fill:none; stroke:black;" points=" 41 53 51 60 47 72 34 72 30 60 41 53"
    /></g
    ><g style="text-rendering:optimizeSpeed; font-size:10px; font-family:'SansSerif';"
    ><path style="stroke:none;" d="M40.0625 68 L40.9844 68 L40.9844 63.3125 L42.125 63.3125 L42.125 62.5625 L40.9844 62.5625 L40.9844 61.7031 C40.9844 61.0156 41.2344 60.6406 41.75 60.6406 C41.9375 60.6406 42.1562 60.6875 42.3594 60.7812 L42.5625 60.0938 C42.3125 59.9844 41.9844 59.9062 41.6562 59.9062 C40.5625 59.9062 40.0625 60.5938 40.0625 61.7031 L40.0625 62.5625 L39.3281 62.625 L39.3281 63.3125 L40.0625 63.3125 L40.0625 68 Z"
      /><rect x="33" y="35" width="15" style="fill:white; stroke:none;" height="10"
      /><path style="stroke:none;" d="M36.6562 46.1875 C38.3906 46.1875 40.0156 44.9062 40.0156 42.6562 C40.0156 40.4062 38.625 39.3906 36.9219 39.3906 C36.2969 39.3906 35.8594 39.5469 35.3906 39.7969 L35.6406 36.8281 L39.5312 36.8281 L39.5312 35.7188 L34.5312 35.7188 L34.2031 40.5469 L34.8906 40.9531 C35.4844 40.5625 35.9062 40.3594 36.5938 40.3594 C37.8906 40.3594 38.7188 41.2188 38.7188 42.7031 C38.7188 44.1875 37.75 45.125 36.5469 45.125 C35.3594 45.125 34.6094 44.5781 34.0156 43.9844 L33.3906 44.8281 C34.0781 45.5156 35.0625 46.1875 36.6562 46.1875 ZM42.1762 46 L43.4731 46 L43.4731 41.9219 L45.1606 41.9219 C47.4262 41.9219 48.9418 40.9219 48.9418 38.75 C48.9418 36.5156 47.4106 35.7188 45.1137 35.7188 L42.1762 35.7188 L42.1762 46 ZM43.4731 40.875 L43.4731 36.7812 L44.9418 36.7812 C46.7543 36.7812 47.6606 37.2656 47.6606 38.75 C47.6606 40.2188 46.8012 40.875 45.0043 40.875 L43.4731 40.875 Z"
      /><rect x="33" y="81" width="14" style="fill:white; stroke:none;" height="11"
      /><path style="stroke:none;" d="M36.7031 92.1875 C38.5156 92.1875 39.9844 91.0938 39.9844 89.25 C39.9844 87.8594 39.0156 86.9375 37.8125 86.6562 L37.8125 86.5938 C38.8906 86.1875 39.6406 85.3594 39.6406 84.125 C39.6406 82.5 38.375 81.5469 36.6562 81.5469 C35.4688 81.5469 34.5469 82.0625 33.7812 82.7812 L34.4688 83.5938 C35.0469 83 35.7656 82.5938 36.5938 82.5938 C37.6562 82.5938 38.3281 83.2344 38.3281 84.2188 C38.3281 85.3281 37.6094 86.1719 35.4844 86.1719 L35.4844 87.1562 C37.8594 87.1562 38.6875 87.9844 38.6875 89.2031 C38.6875 90.3906 37.8125 91.125 36.5938 91.125 C35.4375 91.125 34.6562 90.5781 34.0469 89.9375 L33.4062 90.7812 C34.0781 91.5156 35.0938 92.1875 36.7031 92.1875 ZM44.645 92.1875 C45.5512 92.1875 46.3637 91.6875 46.9575 91.1094 L47.0043 91.1094 L47.1137 92 L48.145 92 L48.145 80.8594 L46.895 80.8594 L46.895 83.7812 L46.9418 85.0938 C46.27 84.5312 45.6918 84.2031 44.8012 84.2031 C43.0668 84.2031 41.5043 85.7344 41.5043 88.2031 C41.5043 90.7344 42.7387 92.1875 44.645 92.1875 ZM44.9262 91.125 C43.5825 91.125 42.8325 90.0312 42.8325 88.1875 C42.8325 86.4531 43.8012 85.2812 45.02 85.2812 C45.6606 85.2812 46.2231 85.5 46.895 86.0781 L46.895 90.0625 C46.2387 90.7656 45.6293 91.125 44.9262 91.125 Z"
    /></g
    ><g style="fill:white; text-rendering:optimizeSpeed; font-family:'Serif'; stroke:white;"
    ><rect x="57" width="6" height="13" y="65" style="stroke:none;"
      /><path d="M59.0938 71.2031 C59.0938 69.6562 59.75 68.8125 60.7969 68.8125 C61.7188 68.8125 62.2656 69.4531 62.2656 70.5156 C62.2656 71.7188 61.5 72.4375 60.1875 72.7031 L60.2969 73.3125 C62.2188 73.2344 62.9375 74.2188 62.9375 75.4375 C62.9375 76.625 62.2344 77.4219 60.9531 77.4219 C60.25 77.4219 59.6562 77.1562 59.0938 76.7188 L59.0938 71.2031 ZM58.2031 77.9062 L58.1094 80.375 L58.2656 80.4844 L59.1562 80.2656 L59.0156 77.0938 C59.5469 77.8438 60.3594 78.1719 61.1719 78.1719 C62.5625 78.1719 63.8594 77.2188 63.8594 75.4844 C63.8594 73.9531 62.875 73.1094 61.125 73 C62.5625 72.6094 63.1875 71.4531 63.1875 70.4844 C63.1875 69.0938 62.1562 68.3125 60.9062 68.3125 C59.2969 68.3125 58.2188 69.5469 58.2188 71.5156 L58.2031 77.9062 Z" style="fill:black; stroke:none;"
    /></g
    ><g ID="legend-1:0" style="text-rendering:optimizeSpeed; font-size:10px; font-family:'SansSerif';"
    ><path style="stroke:none;" d="M30.875 113 L34.9062 113 L34.9062 112.2344 L33.4375 112.2344 L33.4375 105.6562 L32.7344 105.6562 C32.3281 105.9062 31.8594 106.0625 31.2031 106.1875 L31.2031 106.7656 L32.5156 106.7656 L32.5156 112.2344 L30.875 112.2344 L30.875 113 ZM35.925 108.4531 L40.7219 108.4531 L40.7219 107.7656 L35.925 107.7656 L35.925 108.4531 ZM35.925 110.8438 L40.7219 110.8438 L40.7219 110.1719 L35.925 110.1719 L35.925 110.8438 ZM41.9906 114.9844 L42.9125 114.9844 C42.8969 114.0781 42.8812 113.2188 42.85 112.2969 C43.4125 112.9219 44.1156 113.125 44.7875 113.125 C45.8969 113.125 46.9125 112.3125 46.9125 110.8438 C46.9125 109.7031 46.2562 108.8906 45.1625 108.7344 L45.1625 108.6875 C45.8656 108.2656 46.2562 107.6406 46.2562 106.8281 C46.2562 105.5312 45.2719 104.9062 44.225 104.9062 C42.6937 104.9062 41.9906 106.0156 41.9906 107.5156 L41.9906 114.9844 ZM44.5844 112.375 C44.0062 112.375 43.3812 112.1875 42.85 111.5156 C42.85 110.2031 42.8656 108.9375 42.8812 107.6406 C42.8969 106.3438 43.3969 105.6406 44.225 105.6406 C44.8344 105.6406 45.3656 106.0625 45.3656 106.9062 C45.3656 107.625 44.9281 108.4062 43.7875 108.625 L43.9125 109.3281 C44.1 109.2812 44.2875 109.2656 44.475 109.2656 C45.5062 109.2656 46.0062 109.9219 46.0062 110.7969 C46.0062 111.7812 45.3656 112.375 44.5844 112.375 ZM47.8631 110.5469 L50.4256 110.5469 L50.4256 109.8438 L47.8631 109.8438 L47.8631 110.5469 ZM53.5206 113.125 C54.8175 113.125 55.8643 112.3438 55.8643 111.0469 C55.8643 110.0469 55.1768 109.375 54.3175 109.1875 L54.3175 109.1406 C55.0831 108.8438 55.6143 108.2656 55.6143 107.375 C55.6143 106.2031 54.7237 105.5312 53.4893 105.5312 C52.6456 105.5312 51.9893 105.9062 51.4425 106.4062 L51.9268 106.9844 C52.3331 106.5625 52.8643 106.2812 53.4425 106.2812 C54.2081 106.2812 54.6925 106.7344 54.6925 107.4375 C54.6925 108.2344 54.1768 108.8438 52.6612 108.8438 L52.6612 109.5469 C54.3487 109.5469 54.9425 110.125 54.9425 111 C54.9425 111.8438 54.3175 112.375 53.4425 112.375 C52.6143 112.375 52.0675 111.9844 51.63 111.5312 L51.1768 112.125 C51.6456 112.6562 52.3643 113.125 53.5206 113.125 ZM56.8831 110.5469 L59.4456 110.5469 L59.4456 109.8438 L56.8831 109.8438 L56.8831 110.5469 ZM62.6656 113.125 C63.3218 113.125 63.8843 112.7812 64.3218 112.3594 L64.3531 112.3594 L64.4312 113 L65.1656 113 L65.1656 105.0469 L64.275 105.0469 L64.275 107.125 L64.3062 108.0625 C63.8375 107.6719 63.4156 107.4375 62.775 107.4375 C61.5406 107.4375 60.4312 108.5312 60.4312 110.2969 C60.4312 112.0938 61.3062 113.125 62.6656 113.125 ZM62.8687 112.375 C61.9156 112.375 61.3687 111.5938 61.3687 110.2812 C61.3687 109.0469 62.0562 108.2031 62.9468 108.2031 C63.3843 108.2031 63.8062 108.3594 64.275 108.7656 L64.275 111.625 C63.8062 112.125 63.3687 112.375 62.8687 112.375 ZM69.2093 113.125 C69.9437 113.125 70.5375 112.875 71.0062 112.5625 L70.6781 111.9688 C70.2875 112.2344 69.85 112.4062 69.3187 112.4062 C68.2875 112.4062 67.5843 111.6562 67.5218 110.5 L71.1781 110.5 C71.1937 110.375 71.225 110.1875 71.225 109.9844 C71.225 108.4375 70.4437 107.4375 69.0531 107.4375 C67.8031 107.4375 66.6156 108.5312 66.6156 110.2969 C66.6156 112.0781 67.7718 113.125 69.2093 113.125 ZM67.5062 109.8438 C67.6156 108.7812 68.3031 108.1562 69.0687 108.1562 C69.9125 108.1562 70.4125 108.75 70.4125 109.8438 L67.5062 109.8438 ZM74.6712 113.125 C75.9993 113.125 77.1868 112.0938 77.1868 110.2969 C77.1868 108.4844 75.9993 107.4375 74.6712 107.4375 C73.3431 107.4375 72.1556 108.4844 72.1556 110.2969 C72.1556 112.0938 73.3431 113.125 74.6712 113.125 ZM74.6712 112.375 C73.7337 112.375 73.0931 111.5469 73.0931 110.2969 C73.0931 109.0469 73.7337 108.1875 74.6712 108.1875 C75.6087 108.1875 76.2493 109.0469 76.2493 110.2969 C76.2493 111.5469 75.6087 112.375 74.6712 112.375 ZM77.8562 113 L78.8093 113 L79.5437 111.7344 C79.7312 111.4062 79.9031 111.0625 80.1062 110.7656 L80.1531 110.7656 C80.3562 111.0625 80.5437 111.4062 80.7312 111.7344 L81.5281 113 L82.5281 113 L80.7468 110.2656 L82.3875 107.5625 L81.4343 107.5625 L80.7625 108.7656 C80.6062 109.0625 80.45 109.375 80.2781 109.6719 L80.2468 109.6719 C80.0593 109.375 79.8718 109.0625 79.7 108.7656 L78.9656 107.5625 L77.9968 107.5625 L79.6375 110.1719 L77.8562 113 ZM83.6956 115.3438 C84.7737 115.3438 85.3362 114.5156 85.7112 113.4531 L87.7581 107.5625 L86.8674 107.5625 L85.8987 110.5938 C85.7424 111.0625 85.5862 111.625 85.4456 112.1094 L85.3831 112.1094 C85.2268 111.625 85.0237 111.0625 84.8674 110.5938 L83.7581 107.5625 L82.8049 107.5625 L84.9924 113.0156 L84.8674 113.4219 C84.6487 114.0938 84.2581 114.5938 83.6331 114.5938 C83.4924 114.5938 83.3362 114.5469 83.2268 114.5 L83.0549 115.2344 C83.2268 115.2969 83.4299 115.3438 83.6956 115.3438 ZM88.3431 110.5469 L90.9056 110.5469 L90.9056 109.8438 L88.3431 109.8438 L88.3431 110.5469 ZM92.3599 113 L94.2349 113 C96.4537 113 97.6568 111.625 97.6568 109.3125 C97.6568 106.9844 96.4537 105.6562 94.2037 105.6562 L92.3599 105.6562 L92.3599 113 ZM93.2974 112.2344 L93.2974 106.4219 L94.1256 106.4219 C95.8443 106.4219 96.7037 107.4531 96.7037 109.3125 C96.7037 111.1562 95.8443 112.2344 94.1256 112.2344 L93.2974 112.2344 ZM98.6831 110.5469 L101.2456 110.5469 L101.2456 109.8438 L98.6831 109.8438 L98.6831 110.5469 ZM104.8093 113.125 C105.5437 113.125 106.1374 112.875 106.6062 112.5625 L106.2781 111.9688 C105.8874 112.2344 105.4499 112.4062 104.9187 112.4062 C103.8874 112.4062 103.1843 111.6562 103.1218 110.5 L106.7781 110.5 C106.7937 110.375 106.8249 110.1875 106.8249 109.9844 C106.8249 108.4375 106.0437 107.4375 104.6531 107.4375 C103.4031 107.4375 102.2156 108.5312 102.2156 110.2969 C102.2156 112.0781 103.3718 113.125 104.8093 113.125 ZM103.1062 109.8438 C103.2156 108.7812 103.9031 108.1562 104.6687 108.1562 C105.5124 108.1562 106.0124 108.75 106.0124 109.8438 L103.1062 109.8438 ZM108.1618 113 L109.0681 113 L109.0681 109.5156 C109.4274 108.5781 109.9899 108.2656 110.4431 108.2656 C110.6618 108.2656 110.7868 108.2812 110.9743 108.3438 L111.1462 107.5469 C110.9743 107.4531 110.8024 107.4375 110.5524 107.4375 C109.9431 107.4375 109.3962 107.875 109.0212 108.5625 L108.9899 108.5625 L108.9118 107.5625 L108.1618 107.5625 L108.1618 113 ZM112.1355 115.3438 C113.2137 115.3438 113.7762 114.5156 114.1512 113.4531 L116.198 107.5625 L115.3074 107.5625 L114.3387 110.5938 C114.1824 111.0625 114.0262 111.625 113.8855 112.1094 L113.823 112.1094 C113.6668 111.625 113.4637 111.0625 113.3074 110.5938 L112.198 107.5625 L111.2449 107.5625 L113.4324 113.0156 L113.3074 113.4219 C113.0887 114.0938 112.698 114.5938 112.073 114.5938 C111.9324 114.5938 111.7762 114.5469 111.6668 114.5 L111.4949 115.2344 C111.6668 115.2969 111.8699 115.3438 112.1355 115.3438 ZM117.3299 113 L118.2674 113 L118.2674 110.0938 L119.4705 110.0938 C121.0799 110.0938 122.1737 109.375 122.1737 107.8125 C122.1737 106.2188 121.0643 105.6562 119.4237 105.6562 L117.3299 105.6562 L117.3299 113 ZM118.2674 109.3438 L118.2674 106.4219 L119.3143 106.4219 C120.5955 106.4219 121.2518 106.7656 121.2518 107.8125 C121.2518 108.875 120.6424 109.3438 119.3455 109.3438 L118.2674 109.3438 ZM125.7593 113.125 C126.4937 113.125 127.0874 112.875 127.5562 112.5625 L127.228 111.9688 C126.8374 112.2344 126.3999 112.4062 125.8687 112.4062 C124.8374 112.4062 124.1343 111.6562 124.0718 110.5 L127.728 110.5 C127.7437 110.375 127.7749 110.1875 127.7749 109.9844 C127.7749 108.4375 126.9937 107.4375 125.603 107.4375 C124.353 107.4375 123.1655 108.5312 123.1655 110.2969 C123.1655 112.0781 124.3218 113.125 125.7593 113.125 ZM124.0562 109.8438 C124.1655 108.7812 124.853 108.1562 125.6187 108.1562 C126.4624 108.1562 126.9624 108.75 126.9624 109.8438 L124.0562 109.8438 ZM129.1118 113 L130.018 113 L130.018 109.0625 C130.5649 108.5156 130.9555 108.2344 131.5024 108.2344 C132.2368 108.2344 132.5336 108.6562 132.5336 109.6875 L132.5336 113 L133.4555 113 L133.4555 109.5625 C133.4555 108.1719 132.9243 107.4375 131.7836 107.4375 C131.0493 107.4375 130.4868 107.8438 129.9711 108.3438 L129.9399 108.3438 L129.8618 107.5625 L129.1118 107.5625 L129.1118 113 ZM135.3624 113 L136.2843 113 L136.2843 108.3125 L137.4249 108.3125 L137.4249 107.5625 L136.2843 107.5625 L136.2843 106.7031 C136.2843 106.0156 136.5343 105.6406 137.0499 105.6406 C137.2374 105.6406 137.4561 105.6875 137.6593 105.7812 L137.8624 105.0938 C137.6124 104.9844 137.2843 104.9062 136.9561 104.9062 C135.8624 104.9062 135.3624 105.5938 135.3624 106.7031 L135.3624 107.5625 L134.628 107.625 L134.628 108.3125 L135.3624 108.3125 L135.3624 113 ZM140.1593 113.125 C141.3936 113.125 142.5655 112.2188 142.5655 110.6094 C142.5655 109 141.5655 108.2812 140.3468 108.2812 C139.9093 108.2812 139.5968 108.3906 139.253 108.5625 L139.4405 106.4531 L142.2061 106.4531 L142.2061 105.6562 L138.6436 105.6562 L138.4093 109.0938 L138.8936 109.4062 C139.3155 109.125 139.628 108.9688 140.1124 108.9688 C141.0343 108.9688 141.6436 109.5938 141.6436 110.6406 C141.6436 111.7031 140.9405 112.375 140.0811 112.375 C139.2374 112.375 138.7061 111.9844 138.2843 111.5625 L137.8311 112.1562 C138.3155 112.6562 139.0186 113.125 140.1593 113.125 ZM144.0999 113 L145.0374 113 L145.0374 110.0938 L146.2405 110.0938 C147.8499 110.0938 148.9436 109.375 148.9436 107.8125 C148.9436 106.2188 147.8343 105.6562 146.1936 105.6562 L144.0999 105.6562 L144.0999 113 ZM145.0374 109.3438 L145.0374 106.4219 L146.0843 106.4219 C147.3655 106.4219 148.0218 106.7656 148.0218 107.8125 C148.0218 108.875 147.4124 109.3438 146.1155 109.3438 L145.0374 109.3438 Z"
    /></g
  ></g
></svg
>
