<?xml version="1.0"?>
<!DOCTYPE svg PUBLIC '-//W3C//DTD SVG 1.0//EN'
          'http://www.w3.org/TR/2001/REC-SVG-20010904/DTD/svg10.dtd'>
<svg xmlns:xlink="http://www.w3.org/1999/xlink" style="fill-opacity:1; color-rendering:auto; color-interpolation:auto; text-rendering:auto; stroke:black; stroke-linecap:square; stroke-miterlimit:10; shape-rendering:auto; stroke-opacity:1; fill:black; stroke-dasharray:none; font-weight:normal; stroke-width:1; font-family:'Dialog'; font-style:normal; stroke-linejoin:miter; font-size:12px; stroke-dashoffset:0; image-rendering:auto;" viewBox="0 0 147 209" xmlns="http://www.w3.org/2000/svg"
><!--Generated by the Batik Graphics2D SVG Generator--><defs id="genericDefs"
  /><g
  ><defs id="defs1"
    ><clipPath clipPathUnits="userSpaceOnUse" id="clipPath1"
      ><path d="M73 168 C73 174.0751 68.0751 179 62 179 C55.9249 179 51 174.0751 51 168 C51 161.9249 55.9249 157 62 157 C68.0751 157 73 161.9249 73 168 Z"
      /></clipPath
    ></defs
    ><g style="fill:white; text-rendering:optimizeSpeed; stroke:white;"
    ><rect x="0" width="147" height="209" y="0" style="stroke:none;"
      /><circle style="clip-path:url(#clipPath1); stroke:none;" r="11" cx="62" cy="168"
      /><rect x="51" y="157" width="22" style="clip-path:url(#clipPath1); stroke:none;" height="22"
      /><rect x="51" y="157" width="22" style="clip-path:url(#clipPath1); fill:none; stroke:black;" height="22"
      /><circle style="fill:none; stroke:black;" r="11" cx="62" cy="168"
    /></g
    ><g style="font-family:'SansSerif'; text-rendering:optimizeSpeed; "
    ><path style="stroke:none;" d="M56.5156 144.3594 C57.5781 144.3594 58.1094 145.1094 58.1094 146.2969 C58.1094 147.5 57.4531 148.2969 56.6094 148.2969 C55.5156 148.2969 54.8438 147.3125 54.7188 145.4844 C55.25 144.6875 55.9688 144.3594 56.5156 144.3594 ZM56.6094 149.1562 C57.9844 149.1562 59.125 148 59.125 146.2969 C59.125 144.4688 58.1875 143.5469 56.7031 143.5469 C56 143.5469 55.2344 143.9531 54.6875 144.6094 C54.7344 141.875 55.7656 140.9531 56.9531 140.9531 C57.5 140.9531 58.0312 141.2031 58.375 141.625 L58.9688 140.9375 C58.5 140.4219 57.8438 140.0312 56.9219 140.0312 C55.2188 140.0312 53.6719 141.3594 53.6719 144.7969 C53.6719 147.7031 54.9219 149.1562 56.6094 149.1562 ZM60.7694 149 L61.8632 149 L61.8632 144.2656 C62.4569 143.5938 63.0038 143.2812 63.5038 143.2812 C64.3319 143.2812 64.7069 143.7969 64.7069 145.0156 L64.7069 149 L65.8007 149 L65.8007 144.2656 C66.41 143.5938 66.9413 143.2812 67.4413 143.2812 C68.2694 143.2812 68.66 143.7969 68.66 145.0156 L68.66 149 L69.7538 149 L69.7538 144.875 C69.7538 143.2031 69.1132 142.3125 67.7694 142.3125 C66.9725 142.3125 66.3007 142.8281 65.6288 143.5625 C65.3632 142.7969 64.8163 142.3125 63.8163 142.3125 C63.0507 142.3125 62.3632 142.8125 61.8007 143.4375 L61.7538 143.4375 L61.66 142.4844 L60.7694 142.4844 L60.7694 149 Z"
      /><rect x="78" y="155" width="5" style="fill:white; stroke:none;" height="10"
      /><path style="stroke:none;" d="M79.8906 163.6875 C79.4844 163.6875 79.1562 164.0469 79.1562 164.4219 C79.1562 164.8125 79.4844 165.1562 79.8906 165.1562 C80.2969 165.1562 80.6406 164.8125 80.6406 164.4219 C80.6406 164.0469 80.2969 163.6875 79.8906 163.6875 ZM81.4688 157.5781 C81.7188 157.8906 81.875 158.2656 81.8906 158.6562 C81.8906 159.1875 81.625 159.5 81.0312 159.7656 L80.4062 160.0156 C79.6406 160.3125 79.3906 160.5469 79.3906 160.9375 C79.3906 161.1094 79.4531 161.3438 79.5781 161.8125 L79.7344 162.3438 L80.1094 162.3438 L80.0938 161.5312 C80.0938 161.0938 80.2031 160.9688 80.7812 160.7344 L81.2031 160.5625 C82.0312 160.2188 82.4531 159.6875 82.4531 158.8438 C82.4531 157.1562 80.6562 156.1875 79.5 156.0312 C79.1094 156.125 78.9062 156.2969 78.9062 156.6406 C78.9062 156.9375 79.0625 157.1562 79.7188 157.2656 L81.4688 157.5781 Z"
      /><rect x="78" y="171" width="5" style="fill:white; stroke:none;" height="10"
      /><path style="stroke:none;" d="M79.8906 179.6875 C79.4844 179.6875 79.1562 180.0469 79.1562 180.4219 C79.1562 180.8125 79.4844 181.1562 79.8906 181.1562 C80.2969 181.1562 80.6406 180.8125 80.6406 180.4219 C80.6406 180.0469 80.2969 179.6875 79.8906 179.6875 ZM81.4688 173.5781 C81.7188 173.8906 81.875 174.2656 81.8906 174.6562 C81.8906 175.1875 81.625 175.5 81.0312 175.7656 L80.4062 176.0156 C79.6406 176.3125 79.3906 176.5469 79.3906 176.9375 C79.3906 177.1094 79.4531 177.3438 79.5781 177.8125 L79.7344 178.3438 L80.1094 178.3438 L80.0938 177.5312 C80.0938 177.0938 80.2031 176.9688 80.7812 176.7344 L81.2031 176.5625 C82.0312 176.2188 82.4531 175.6875 82.4531 174.8438 C82.4531 173.1562 80.6562 172.1875 79.5 172.0312 C79.1094 172.125 78.9062 172.2969 78.9062 172.6406 C78.9062 172.9375 79.0625 173.1562 79.7188 173.2656 L81.4688 173.5781 Z"
      /><path style="stroke:none;" d="M33.6094 161 L40.0625 161 L40.0625 159.8906 L37.2344 159.8906 C36.7031 159.8906 36.0781 159.9531 35.5469 159.9844 C37.9531 157.7031 39.5625 155.625 39.5625 153.5781 C39.5625 151.75 38.4219 150.5469 36.5781 150.5469 C35.2812 150.5469 34.4062 151.1406 33.5625 152.0469 L34.2969 152.7812 C34.8594 152.1094 35.5938 151.5938 36.4375 151.5938 C37.7031 151.5938 38.3125 152.4531 38.3125 153.625 C38.3125 155.3906 36.8438 157.4375 33.6094 160.25 L33.6094 161 ZM40.9731 161 L42.3168 161 L43.3481 159.2188 C43.6137 158.7656 43.8637 158.2969 44.1293 157.8594 L44.2075 157.8594 C44.4731 158.2969 44.7543 158.7656 45.0043 159.2188 L46.1293 161 L47.5356 161 L45.02 157.1562 L47.3325 153.3906 L46.0043 153.3906 L45.0668 155.0625 C44.8481 155.5 44.6137 155.9219 44.3793 156.3438 L44.3325 156.3438 C44.0668 155.9219 43.8012 155.5 43.5668 155.0625 L42.5512 153.3906 L41.1762 153.3906 L43.4887 157.0312 L40.9731 161 Z"
      /><path style="stroke:none;" d="M53.9531 94.5625 L54.8438 94.5625 C54.6562 92.8438 56.625 92.1875 56.625 90.5781 C56.625 89.375 55.8125 88.625 54.5781 88.625 C53.6875 88.625 52.9844 89.0469 52.4688 89.625 L53.0469 90.1562 C53.4375 89.7188 53.9062 89.4531 54.4688 89.4531 C55.25 89.4531 55.6562 89.9844 55.6562 90.6406 C55.6562 91.9531 53.7031 92.6562 53.9531 94.5625 ZM54.4375 97.1406 C54.8438 97.1406 55.1719 96.8281 55.1719 96.3906 C55.1719 95.9219 54.8438 95.6094 54.4375 95.6094 C54.0312 95.6094 53.7031 95.9219 53.7031 96.3906 C53.7031 96.8281 54.0312 97.1406 54.4375 97.1406 ZM59.9952 97 L61.0265 97 L61.0265 89.7969 L63.464 89.7969 L63.464 88.9219 L57.5577 88.9219 L57.5577 89.7969 L59.9952 89.7969 L59.9952 97 ZM64.8185 97 L65.8185 97 L65.8185 93.1562 C66.2092 92.1406 66.8342 91.7812 67.3185 91.7812 C67.5685 91.7812 67.7092 91.8125 67.9123 91.8906 L68.0998 91 C67.9123 90.9062 67.7248 90.875 67.4592 90.875 C66.7873 90.875 66.1779 91.3594 65.756 92.1094 L65.7248 92.1094 L65.6467 91.0312 L64.8185 91.0312 L64.8185 97 ZM69.0865 97 L70.0865 97 L70.0865 91.0312 L69.0865 91.0312 L69.0865 97 ZM69.5865 89.7969 C69.9771 89.7969 70.2584 89.5312 70.2584 89.125 C70.2584 88.7344 69.9771 88.4688 69.5865 88.4688 C69.1959 88.4688 68.9146 88.7344 68.9146 89.125 C68.9146 89.5312 69.1959 89.7969 69.5865 89.7969 Z"
      /><rect x="47" y="35" width="24" style="fill:white; stroke:none;" height="10"
      /><path style="stroke:none;" d="M49.4844 42.9062 L50.625 42.9062 C50.375 40.7031 52.8906 39.875 52.8906 37.8281 C52.8906 36.2969 51.8594 35.3281 50.2812 35.3281 C49.1406 35.3281 48.25 35.875 47.6094 36.625 L48.3281 37.2969 C48.8125 36.7344 49.4375 36.3906 50.1406 36.3906 C51.125 36.3906 51.6406 37.0625 51.6406 37.9062 C51.6406 39.5781 49.1719 40.4688 49.4844 42.9062 ZM50.0938 46.1875 C50.6094 46.1875 51.0312 45.7969 51.0312 45.2188 C51.0312 44.625 50.6094 44.2188 50.0938 44.2188 C49.5938 44.2188 49.1719 44.625 49.1719 45.2188 C49.1719 45.7969 49.5938 46.1875 50.0938 46.1875 ZM55.0422 46 L56.2141 46 L56.2141 40.3125 C56.2141 39.4375 56.1203 38.1875 56.0578 37.2969 L56.1203 37.2969 L56.9328 39.625 L58.8703 44.9688 L59.7453 44.9688 L61.6828 39.625 L62.4953 37.2969 L62.5578 37.2969 C62.4797 38.1875 62.386 39.4375 62.386 40.3125 L62.386 46 L63.6047 46 L63.6047 35.7188 L62.0422 35.7188 L60.0735 41.2188 C59.8391 41.9375 59.6203 42.6562 59.3703 43.375 L59.3078 43.375 C59.0578 42.6562 58.8235 41.9375 58.5735 41.2188 L56.6047 35.7188 L55.0422 35.7188 L55.0422 46 ZM69.3633 46.1875 C70.3945 46.1875 71.207 45.8281 71.8789 45.3906 L71.4102 44.5625 C70.8633 44.9375 70.2539 45.1562 69.5195 45.1562 C68.0664 45.1562 67.082 44.125 66.9883 42.5 L72.1133 42.5 C72.1445 42.3125 72.1758 42.0469 72.1758 41.7656 C72.1758 39.6094 71.082 38.2031 69.1445 38.2031 C67.3789 38.2031 65.7227 39.7344 65.7227 42.2031 C65.7227 44.7188 67.3477 46.1875 69.3633 46.1875 ZM66.9727 41.5781 C67.1289 40.0938 68.082 39.2188 69.1602 39.2188 C70.3477 39.2188 71.0508 40.0469 71.0508 41.5781 L66.9727 41.5781 Z"
    /></g
  ></g
></svg
>
