<?xml version="1.0"?>
<!DOCTYPE svg PUBLIC '-//W3C//DTD SVG 1.0//EN'
          'http://www.w3.org/TR/2001/REC-SVG-20010904/DTD/svg10.dtd'>
<svg xmlns:xlink="http://www.w3.org/1999/xlink" style="fill-opacity:1; color-rendering:auto; color-interpolation:auto; text-rendering:auto; stroke:black; stroke-linecap:square; stroke-miterlimit:10; shape-rendering:auto; stroke-opacity:1; fill:black; stroke-dasharray:none; font-weight:normal; stroke-width:1; font-family:'Dialog'; font-style:normal; stroke-linejoin:miter; font-size:12px; stroke-dashoffset:0; image-rendering:auto;" viewBox="0 0 180 143" xmlns="http://www.w3.org/2000/svg"
><!--Generated by the Batik Graphics2D SVG Generator--><defs id="genericDefs"
  /><g
  ><defs id="defs1"
    ><clipPath clipPathUnits="userSpaceOnUse" id="clipPath1"
      ><path style="fill-rule:evenodd;" d="M64 53 L74 60 L70 72 L57 72 L53 60 L64 53 Z"
      /></clipPath
    ></defs
    ><g style="fill:white; text-rendering:optimizeSpeed; stroke:white;"
    ><rect x="0" width="180" height="143" y="0" style="stroke:none;"
      /><polygon style="fill:none; stroke:black;" points=" 139 64 64 64"
      /><path d="M139 53 C133.5 58.5 144.5 69.5 139 75" style="fill:none; stroke:black;"
      /><polygon style="clip-path:url(#clipPath1); stroke:none;" points=" 64 53 74 60 70 72 57 72 53 60 64 53"
      /><rect x="53" y="53" width="22" style="clip-path:url(#clipPath1); stroke:none;" height="22"
      /><rect x="53" y="53" width="22" style="clip-path:url(#clipPath1); fill:none; stroke:black;" height="22"
      /><polygon style="fill:none; stroke:black;" points=" 64 53 74 60 70 72 57 72 53 60 64 53"
    /></g
    ><g style="text-rendering:optimizeSpeed; font-size:14px; font-family:'SansSerif';"
    ><path style="stroke:none;" d="M62.2344 69 L67.8594 69 L67.8594 67.9375 L65.7969 67.9375 L65.7969 58.7188 L64.8281 58.7188 C64.2656 59.0625 63.6094 59.2969 62.6875 59.4688 L62.6875 60.2812 L64.5156 60.2812 L64.5156 67.9375 L62.2344 67.9375 L62.2344 69 Z"
      /><rect x="80" y="81" width="13" style="fill:white; stroke:none;" height="10"
      /><path style="stroke:none;" d="M81.2344 92 L86.8594 92 L86.8594 90.9375 L84.7969 90.9375 L84.7969 81.7188 L83.8281 81.7188 C83.2656 82.0625 82.6094 82.2969 81.6875 82.4688 L81.6875 83.2812 L83.5156 83.2812 L83.5156 90.9375 L81.2344 90.9375 L81.2344 92 ZM90.8012 92.1875 C91.7387 92.1875 92.5981 91.6875 93.3325 91.0938 L93.3637 91.0938 L93.4887 92 L94.5356 92 L94.5356 87.3281 C94.5356 85.4531 93.7543 84.2031 91.895 84.2031 C90.6762 84.2031 89.5981 84.75 88.9106 85.2031 L89.4106 86.0781 C90.0043 85.6719 90.8012 85.2656 91.6918 85.2656 C92.9418 85.2656 93.2543 86.2031 93.2543 87.1875 C90.02 87.5469 88.5825 88.375 88.5825 90.0312 C88.5825 91.3906 89.5356 92.1875 90.8012 92.1875 ZM91.1762 91.1562 C90.4106 91.1562 89.8325 90.8125 89.8325 89.9375 C89.8325 88.9688 90.6918 88.3281 93.2543 88.0312 L93.2543 90.1562 C92.52 90.8125 91.9106 91.1562 91.1762 91.1562 Z"
      /><path style="stroke:none;" d="M56.5781 91 L62.5625 91 L62.5625 89.9688 L59.9219 89.9688 C59.4375 89.9688 58.8594 90.0312 58.3594 90.0625 C60.6094 87.9375 62.0938 86.0156 62.0938 84.1094 C62.0938 82.4062 61.0312 81.2812 59.3281 81.2812 C58.125 81.2812 57.2969 81.8438 56.5156 82.6875 L57.2031 83.375 C57.7344 82.75 58.4062 82.2656 59.1875 82.2656 C60.375 82.2656 60.9375 83.0625 60.9375 84.1562 C60.9375 85.7812 59.5625 87.6875 56.5781 90.2969 L56.5781 91 ZM68.0431 91.1719 C70.4338 91.1719 72.1056 89.2656 72.1056 86.2031 C72.1056 83.1406 70.4338 81.2812 68.0431 81.2812 C65.6525 81.2812 63.965 83.1406 63.965 86.2031 C63.965 89.2656 65.6525 91.1719 68.0431 91.1719 ZM68.0431 90.1094 C66.3244 90.1094 65.1994 88.5781 65.1994 86.2031 C65.1994 83.8125 66.3244 82.3438 68.0431 82.3438 C69.7463 82.3438 70.8713 83.8125 70.8713 86.2031 C70.8713 88.5781 69.7463 90.1094 68.0431 90.1094 Z"
      /><rect x="33" y="81" width="14" style="fill:white; stroke:none;" height="11"
      /><path style="stroke:none;" d="M36.7031 92.1875 C38.5156 92.1875 39.9844 91.0938 39.9844 89.25 C39.9844 87.8594 39.0156 86.9375 37.8125 86.6562 L37.8125 86.5938 C38.8906 86.1875 39.6406 85.3594 39.6406 84.125 C39.6406 82.5 38.375 81.5469 36.6562 81.5469 C35.4688 81.5469 34.5469 82.0625 33.7812 82.7812 L34.4688 83.5938 C35.0469 83 35.7656 82.5938 36.5938 82.5938 C37.6562 82.5938 38.3281 83.2344 38.3281 84.2188 C38.3281 85.3281 37.6094 86.1719 35.4844 86.1719 L35.4844 87.1562 C37.8594 87.1562 38.6875 87.9844 38.6875 89.2031 C38.6875 90.3906 37.8125 91.125 36.5938 91.125 C35.4375 91.125 34.6562 90.5781 34.0469 89.9375 L33.4062 90.7812 C34.0781 91.5156 35.0938 92.1875 36.7031 92.1875 ZM44.645 92.1875 C45.5512 92.1875 46.3637 91.6875 46.9575 91.1094 L47.0043 91.1094 L47.1137 92 L48.145 92 L48.145 80.8594 L46.895 80.8594 L46.895 83.7812 L46.9418 85.0938 C46.27 84.5312 45.6918 84.2031 44.8012 84.2031 C43.0668 84.2031 41.5043 85.7344 41.5043 88.2031 C41.5043 90.7344 42.7387 92.1875 44.645 92.1875 ZM44.9262 91.125 C43.5825 91.125 42.8325 90.0312 42.8325 88.1875 C42.8325 86.4531 43.8012 85.2812 45.02 85.2812 C45.6606 85.2812 46.2231 85.5 46.895 86.0781 L46.895 90.0625 C46.2387 90.7656 45.6293 91.125 44.9262 91.125 Z"
      /><rect x="57" y="35" width="13" style="fill:white; stroke:none;" height="10"
      /><path style="stroke:none;" d="M61.1094 40.5781 C62.3438 40.5781 62.9688 41.4688 62.9688 42.8438 C62.9688 44.25 62.1875 45.1875 61.2188 45.1875 C59.9219 45.1875 59.1562 44.0312 59 41.8906 C59.625 40.9531 60.4531 40.5781 61.1094 40.5781 ZM61.2188 46.1875 C62.8125 46.1875 64.1562 44.8438 64.1562 42.8438 C64.1562 40.7031 63.0469 39.625 61.3125 39.625 C60.5 39.625 59.6094 40.1094 58.9688 40.875 C59.0312 37.6875 60.2188 36.6094 61.625 36.6094 C62.25 36.6094 62.8594 36.9062 63.2656 37.3906 L63.9688 36.5938 C63.4062 35.9844 62.6406 35.5469 61.5781 35.5469 C59.5938 35.5469 57.7812 37.0781 57.7812 41.0938 C57.7812 44.4844 59.2344 46.1875 61.2188 46.1875 ZM67.8012 46.1875 C68.7387 46.1875 69.5981 45.6875 70.3325 45.0938 L70.3637 45.0938 L70.4887 46 L71.5356 46 L71.5356 41.3281 C71.5356 39.4531 70.7543 38.2031 68.895 38.2031 C67.6762 38.2031 66.5981 38.75 65.9106 39.2031 L66.4106 40.0781 C67.0043 39.6719 67.8012 39.2656 68.6918 39.2656 C69.9418 39.2656 70.2543 40.2031 70.2543 41.1875 C67.02 41.5469 65.5825 42.375 65.5825 44.0312 C65.5825 45.3906 66.5356 46.1875 67.8012 46.1875 ZM68.1762 45.1562 C67.4106 45.1562 66.8325 44.8125 66.8325 43.9375 C66.8325 42.9688 67.6918 42.3281 70.2543 42.0312 L70.2543 44.1562 C69.52 44.8125 68.9106 45.1562 68.1762 45.1562 Z"
    /></g
    ><g style="fill:white; text-rendering:optimizeSpeed; font-family:'Serif'; stroke:white;"
    ><rect x="103" width="5" height="10" y="67" style="stroke:none;"
      /><path d="M104.8906 75.6875 C104.4844 75.6875 104.1562 76.0469 104.1562 76.4219 C104.1562 76.8125 104.4844 77.1562 104.8906 77.1562 C105.2969 77.1562 105.6406 76.8125 105.6406 76.4219 C105.6406 76.0469 105.2969 75.6875 104.8906 75.6875 ZM106.4688 69.5781 C106.7188 69.8906 106.875 70.2656 106.8906 70.6562 C106.8906 71.1875 106.625 71.5 106.0312 71.7656 L105.4062 72.0156 C104.6406 72.3125 104.3906 72.5469 104.3906 72.9375 C104.3906 73.1094 104.4531 73.3438 104.5781 73.8125 L104.7344 74.3438 L105.1094 74.3438 L105.0938 73.5312 C105.0938 73.0938 105.2031 72.9688 105.7812 72.7344 L106.2031 72.5625 C107.0312 72.2188 107.4531 71.6875 107.4531 70.8438 C107.4531 69.1562 105.6562 68.1875 104.5 68.0312 C104.1094 68.125 103.9062 68.2969 103.9062 68.6406 C103.9062 68.9375 104.0625 69.1562 104.7188 69.2656 L106.4688 69.5781 Z" style="fill:black; stroke:none;"
    /></g
    ><g ID="legend-1:0" style="text-rendering:optimizeSpeed; font-size:10px; font-family:'SansSerif';"
    ><path style="stroke:none;" d="M30.875 113 L34.9062 113 L34.9062 112.2344 L33.4375 112.2344 L33.4375 105.6562 L32.7344 105.6562 C32.3281 105.9062 31.8594 106.0625 31.2031 106.1875 L31.2031 106.7656 L32.5156 106.7656 L32.5156 112.2344 L30.875 112.2344 L30.875 113 ZM35.925 108.4531 L40.7219 108.4531 L40.7219 107.7656 L35.925 107.7656 L35.925 108.4531 ZM35.925 110.8438 L40.7219 110.8438 L40.7219 110.1719 L35.925 110.1719 L35.925 110.8438 ZM43.7406 113.125 C45.0375 113.125 46.0844 112.3438 46.0844 111.0469 C46.0844 110.0469 45.3969 109.375 44.5375 109.1875 L44.5375 109.1406 C45.3031 108.8438 45.8344 108.2656 45.8344 107.375 C45.8344 106.2031 44.9437 105.5312 43.7094 105.5312 C42.8656 105.5312 42.2094 105.9062 41.6625 106.4062 L42.1469 106.9844 C42.5531 106.5625 43.0844 106.2812 43.6625 106.2812 C44.4281 106.2812 44.9125 106.7344 44.9125 107.4375 C44.9125 108.2344 44.3969 108.8438 42.8812 108.8438 L42.8812 109.5469 C44.5687 109.5469 45.1625 110.125 45.1625 111 C45.1625 111.8438 44.5375 112.375 43.6625 112.375 C42.8344 112.375 42.2875 111.9844 41.85 111.5312 L41.3969 112.125 C41.8656 112.6562 42.5844 113.125 43.7406 113.125 ZM47.1031 110.5469 L49.6656 110.5469 L49.6656 109.8438 L47.1031 109.8438 L47.1031 110.5469 ZM52.8856 113.125 C53.5418 113.125 54.1043 112.7812 54.5418 112.3594 L54.5731 112.3594 L54.6512 113 L55.3856 113 L55.3856 105.0469 L54.495 105.0469 L54.495 107.125 L54.5262 108.0625 C54.0575 107.6719 53.6356 107.4375 52.995 107.4375 C51.7606 107.4375 50.6512 108.5312 50.6512 110.2969 C50.6512 112.0938 51.5262 113.125 52.8856 113.125 ZM53.0887 112.375 C52.1356 112.375 51.5887 111.5938 51.5887 110.2812 C51.5887 109.0469 52.2762 108.2031 53.1668 108.2031 C53.6043 108.2031 54.0262 108.3594 54.495 108.7656 L54.495 111.625 C54.0262 112.125 53.5887 112.375 53.0887 112.375 ZM59.4293 113.125 C60.1637 113.125 60.7575 112.875 61.2262 112.5625 L60.8981 111.9688 C60.5075 112.2344 60.07 112.4062 59.5387 112.4062 C58.5075 112.4062 57.8043 111.6562 57.7418 110.5 L61.3981 110.5 C61.4137 110.375 61.445 110.1875 61.445 109.9844 C61.445 108.4375 60.6637 107.4375 59.2731 107.4375 C58.0231 107.4375 56.8356 108.5312 56.8356 110.2969 C56.8356 112.0781 57.9918 113.125 59.4293 113.125 ZM57.7262 109.8438 C57.8356 108.7812 58.5231 108.1562 59.2887 108.1562 C60.1325 108.1562 60.6325 108.75 60.6325 109.8438 L57.7262 109.8438 ZM64.8912 113.125 C66.2193 113.125 67.4068 112.0938 67.4068 110.2969 C67.4068 108.4844 66.2193 107.4375 64.8912 107.4375 C63.5631 107.4375 62.3756 108.4844 62.3756 110.2969 C62.3756 112.0938 63.5631 113.125 64.8912 113.125 ZM64.8912 112.375 C63.9537 112.375 63.3131 111.5469 63.3131 110.2969 C63.3131 109.0469 63.9537 108.1875 64.8912 108.1875 C65.8287 108.1875 66.4693 109.0469 66.4693 110.2969 C66.4693 111.5469 65.8287 112.375 64.8912 112.375 ZM68.0762 113 L69.0293 113 L69.7637 111.7344 C69.9512 111.4062 70.1231 111.0625 70.3262 110.7656 L70.3731 110.7656 C70.5762 111.0625 70.7637 111.4062 70.9512 111.7344 L71.7481 113 L72.7481 113 L70.9668 110.2656 L72.6075 107.5625 L71.6543 107.5625 L70.9825 108.7656 C70.8262 109.0625 70.67 109.375 70.4981 109.6719 L70.4668 109.6719 C70.2793 109.375 70.0918 109.0625 69.92 108.7656 L69.1856 107.5625 L68.2168 107.5625 L69.8575 110.1719 L68.0762 113 ZM73.9156 115.3438 C74.9937 115.3438 75.5562 114.5156 75.9312 113.4531 L77.9781 107.5625 L77.0874 107.5625 L76.1187 110.5938 C75.9624 111.0625 75.8062 111.625 75.6656 112.1094 L75.6031 112.1094 C75.4468 111.625 75.2437 111.0625 75.0874 110.5938 L73.9781 107.5625 L73.0249 107.5625 L75.2124 113.0156 L75.0874 113.4219 C74.8687 114.0938 74.4781 114.5938 73.8531 114.5938 C73.7124 114.5938 73.5562 114.5469 73.4468 114.5 L73.2749 115.2344 C73.4468 115.2969 73.6499 115.3438 73.9156 115.3438 ZM78.5631 110.5469 L81.1256 110.5469 L81.1256 109.8438 L78.5631 109.8438 L78.5631 110.5469 ZM82.5799 113 L84.4549 113 C86.6737 113 87.8768 111.625 87.8768 109.3125 C87.8768 106.9844 86.6737 105.6562 84.4237 105.6562 L82.5799 105.6562 L82.5799 113 ZM83.5174 112.2344 L83.5174 106.4219 L84.3456 106.4219 C86.0643 106.4219 86.9237 107.4531 86.9237 109.3125 C86.9237 111.1562 86.0643 112.2344 84.3456 112.2344 L83.5174 112.2344 ZM88.9031 110.5469 L91.4656 110.5469 L91.4656 109.8438 L88.9031 109.8438 L88.9031 110.5469 ZM94.5449 113.125 C94.8731 113.125 95.2324 113.0312 95.5449 112.9375 L95.3731 112.25 C95.1856 112.3125 94.9356 112.3906 94.7481 112.3906 C94.1231 112.3906 93.9043 112.0156 93.9043 111.3438 L93.9043 108.3125 L95.3731 108.3125 L95.3731 107.5625 L93.9043 107.5625 L93.9043 106.0469 L93.1543 106.0469 L93.0449 107.5625 L92.1856 107.625 L92.1856 108.3125 L92.9981 108.3125 L92.9981 111.3125 C92.9981 112.4062 93.3887 113.125 94.5449 113.125 ZM96.6118 113 L97.5181 113 L97.5181 109.0625 C98.0649 108.5156 98.4556 108.2344 99.0024 108.2344 C99.7368 108.2344 100.0337 108.6562 100.0337 109.6875 L100.0337 113 L100.9556 113 L100.9556 109.5625 C100.9556 108.1719 100.4243 107.4375 99.2837 107.4375 C98.5493 107.4375 97.9868 107.8438 97.4868 108.3438 L97.5181 107.2188 L97.5181 105.0469 L96.6118 105.0469 L96.6118 113 ZM102.6818 113 L103.588 113 L103.588 109.5156 C103.9474 108.5781 104.5099 108.2656 104.963 108.2656 C105.1818 108.2656 105.3068 108.2812 105.4943 108.3438 L105.6662 107.5469 C105.4943 107.4531 105.3224 107.4375 105.0724 107.4375 C104.463 107.4375 103.9162 107.875 103.5412 108.5625 L103.5099 108.5625 L103.4318 107.5625 L102.6818 107.5625 L102.6818 113 ZM106.6399 113 L107.5774 113 L107.5774 109.5469 L110.9837 109.5469 L110.9837 113 L111.9055 113 L111.9055 105.6562 L110.9837 105.6562 L110.9837 108.7344 L107.5774 108.7344 L107.5774 105.6562 L106.6399 105.6562 L106.6399 113 ZM116.0293 113.125 C116.7637 113.125 117.3574 112.875 117.8262 112.5625 L117.498 111.9688 C117.1074 112.2344 116.6699 112.4062 116.1387 112.4062 C115.1074 112.4062 114.4043 111.6562 114.3418 110.5 L117.998 110.5 C118.0137 110.375 118.0449 110.1875 118.0449 109.9844 C118.0449 108.4375 117.2637 107.4375 115.873 107.4375 C114.623 107.4375 113.4355 108.5312 113.4355 110.2969 C113.4355 112.0781 114.5918 113.125 116.0293 113.125 ZM114.3262 109.8438 C114.4355 108.7812 115.123 108.1562 115.8887 108.1562 C116.7324 108.1562 117.2324 108.75 117.2324 109.8438 L114.3262 109.8438 ZM118.6161 113 L119.5693 113 L120.3036 111.7344 C120.4911 111.4062 120.663 111.0625 120.8661 110.7656 L120.913 110.7656 C121.1161 111.0625 121.3036 111.4062 121.4911 111.7344 L122.288 113 L123.288 113 L121.5068 110.2656 L123.1474 107.5625 L122.1943 107.5625 L121.5224 108.7656 C121.3661 109.0625 121.2099 109.375 121.038 109.6719 L121.0068 109.6719 C120.8193 109.375 120.6318 109.0625 120.4599 108.7656 L119.7255 107.5625 L118.7568 107.5625 L120.3974 110.1719 L118.6161 113 ZM123.8774 113 L128.4868 113 L128.4868 112.2031 L126.4555 112.2031 C126.0961 112.2031 125.643 112.25 125.2524 112.2812 C126.9868 110.6562 128.1274 109.1562 128.1274 107.7031 C128.1274 106.3906 127.3149 105.5312 126.0024 105.5312 C125.0649 105.5312 124.4399 105.9531 123.8461 106.6094 L124.3774 107.125 C124.768 106.6562 125.2836 106.2812 125.893 106.2812 C126.7993 106.2812 127.2368 106.8906 127.2368 107.7344 C127.2368 108.9844 126.1743 110.4531 123.8774 112.4531 L123.8774 113 ZM131.4899 113.125 C132.2399 113.125 132.7868 112.7344 133.2868 112.1562 L133.318 112.1562 L133.3961 113 L134.1461 113 L134.1461 107.5625 L133.2399 107.5625 L133.2399 111.4219 C132.7243 112.0625 132.3336 112.3438 131.7711 112.3438 C131.0524 112.3438 130.7555 111.9062 130.7555 110.9062 L130.7555 107.5625 L129.8336 107.5625 L129.8336 111.0156 C129.8336 112.3906 130.3493 113.125 131.4899 113.125 ZM136.9349 113.125 C137.1849 113.125 137.3411 113.0938 137.4661 113.0469 L137.3411 112.3438 C137.2474 112.375 137.2005 112.375 137.1536 112.375 C137.013 112.375 136.888 112.2656 136.888 111.9844 L136.888 105.0469 L135.9818 105.0469 L135.9818 111.9219 C135.9818 112.6875 136.263 113.125 136.9349 113.125 ZM140.9411 113.125 C142.2692 113.125 143.4567 112.0938 143.4567 110.2969 C143.4567 108.4844 142.2692 107.4375 140.9411 107.4375 C139.613 107.4375 138.4255 108.4844 138.4255 110.2969 C138.4255 112.0938 139.613 113.125 140.9411 113.125 ZM140.9411 112.375 C140.0036 112.375 139.363 111.5469 139.363 110.2969 C139.363 109.0469 140.0036 108.1875 140.9411 108.1875 C141.8786 108.1875 142.5192 109.0469 142.5192 110.2969 C142.5192 111.5469 141.8786 112.375 140.9411 112.375 ZM144.423 110.5469 L146.9855 110.5469 L146.9855 109.8438 L144.423 109.8438 L144.423 110.5469 ZM149.6117 113.125 C150.2836 113.125 150.893 112.7812 151.4086 112.3438 L151.4399 112.3438 L151.518 113 L152.268 113 L152.268 109.6562 C152.268 108.3125 151.7055 107.4375 150.393 107.4375 C149.518 107.4375 148.7524 107.8125 148.2524 108.1406 L148.6117 108.7656 C149.0336 108.4844 149.6117 108.1875 150.2367 108.1875 C151.1274 108.1875 151.3617 108.8594 151.3617 109.5625 C149.0492 109.8125 148.018 110.4062 148.018 111.5938 C148.018 112.5625 148.7055 113.125 149.6117 113.125 ZM149.8774 112.4062 C149.3305 112.4062 148.9086 112.1562 148.9086 111.5312 C148.9086 110.8281 149.5336 110.375 151.3617 110.1562 L151.3617 111.6875 C150.8305 112.1562 150.393 112.4062 149.8774 112.4062 ZM154.0017 113 L154.908 113 L154.908 109.5156 C155.2674 108.5781 155.8299 108.2656 156.283 108.2656 C156.5017 108.2656 156.6267 108.2812 156.8142 108.3438 L156.9861 107.5469 C156.8142 107.4531 156.6424 107.4375 156.3924 107.4375 C155.783 107.4375 155.2361 107.875 154.8611 108.5625 L154.8299 108.5625 L154.7517 107.5625 L154.0017 107.5625 L154.0017 113 ZM157.8817 113 L158.788 113 L158.788 107.5625 L157.8817 107.5625 L157.8817 113 ZM158.3349 106.4531 C158.6942 106.4531 158.9442 106.2031 158.9442 105.8438 C158.9442 105.4844 158.6942 105.25 158.3349 105.25 C157.9755 105.25 157.7255 105.4844 157.7255 105.8438 C157.7255 106.2031 157.9755 106.4531 158.3349 106.4531 ZM162.7724 113.125 C163.413 113.125 164.038 112.875 164.5224 112.4375 L164.1317 111.8281 C163.788 112.1406 163.3505 112.375 162.8505 112.375 C161.8505 112.375 161.163 111.5469 161.163 110.2969 C161.163 109.0469 161.8974 108.1875 162.8817 108.1875 C163.3036 108.1875 163.6474 108.3906 163.9599 108.6719 L164.4286 108.0625 C164.038 107.7344 163.5536 107.4375 162.8349 107.4375 C161.4442 107.4375 160.2255 108.4844 160.2255 110.2969 C160.2255 112.0938 161.3349 113.125 162.7724 113.125 Z"
    /></g
  ></g
></svg
>
