<?xml version="1.0"?>
<!DOCTYPE svg PUBLIC '-//W3C//DTD SVG 1.0//EN'
          'http://www.w3.org/TR/2001/REC-SVG-20010904/DTD/svg10.dtd'>
<svg xmlns:xlink="http://www.w3.org/1999/xlink" style="fill-opacity:1; color-rendering:auto; color-interpolation:auto; text-rendering:auto; stroke:black; stroke-linecap:square; stroke-miterlimit:10; shape-rendering:auto; stroke-opacity:1; fill:black; stroke-dasharray:none; font-weight:normal; stroke-width:1; font-family:'Dialog'; font-style:normal; stroke-linejoin:miter; font-size:12px; stroke-dashoffset:0; image-rendering:auto;" viewBox="0 0 238 128" xmlns="http://www.w3.org/2000/svg"
><!--Generated by the Batik Graphics2D SVG Generator--><defs id="genericDefs"
  /><g
  ><defs id="defs1"
    ><clipPath clipPathUnits="userSpaceOnUse" id="clipPath1"
      ><path d="M143 64 C143 70.0751 138.0751 75 132 75 C125.9249 75 121 70.0751 121 64 C121 57.9249 125.9249 53 132 53 C138.0751 53 143 57.9249 143 64 Z"
      /></clipPath
      ><clipPath clipPathUnits="userSpaceOnUse" id="clipPath2"
      ><path d="M65 64 C65 70.0751 60.0751 75 54 75 C47.9249 75 43 70.0751 43 64 C43 57.9249 47.9249 53 54 53 C60.0751 53 65 57.9249 65 64 Z"
      /></clipPath
    ></defs
    ><g style="fill:white; text-rendering:optimizeSpeed; stroke:white;"
    ><rect x="0" width="238" height="128" y="0" style="stroke:none;"
      /><polygon style="fill:none; stroke:black;" points=" 197 64 132 64"
      /><path d="M197 53 C191.5 58.5 202.5 69.5 197 75" style="fill:none; stroke:black;"
      /><polygon style="fill:none; stroke:black;" points=" 132 64 54 64"
      /><circle style="clip-path:url(#clipPath1); stroke:none;" r="11" cx="132" cy="64"
      /><rect x="121" y="53" width="22" style="clip-path:url(#clipPath1); stroke:none;" height="22"
      /><rect x="121" y="53" width="22" style="clip-path:url(#clipPath1); fill:none; stroke:black;" height="22"
      /><circle style="fill:none; stroke:black;" r="11" cx="132" cy="64"
      /><rect x="140" y="81" width="9" style="stroke:none;" height="10"
    /></g
    ><g style="text-rendering:optimizeSpeed; font-size:14px; font-family:'SansSerif';"
    ><path style="stroke:none;" d="M140.6094 92 L147.0625 92 L147.0625 90.8906 L144.2344 90.8906 C143.7031 90.8906 143.0781 90.9531 142.5469 90.9844 C144.9531 88.7031 146.5625 86.625 146.5625 84.5781 C146.5625 82.75 145.4219 81.5469 143.5781 81.5469 C142.2812 81.5469 141.4062 82.1406 140.5625 83.0469 L141.2969 83.7812 C141.8594 83.1094 142.5938 82.5938 143.4375 82.5938 C144.7031 82.5938 145.3125 83.4531 145.3125 84.625 C145.3125 86.3906 143.8438 88.4375 140.6094 91.25 L140.6094 92 ZM149.1762 92 L150.4731 92 L150.4731 81.7188 L149.1762 81.7188 L149.1762 92 Z"
      /><rect x="109" y="81" width="22" style="fill:white; stroke:none;" height="10"
      /><path style="stroke:none;" d="M112.7031 92.1875 C114.5156 92.1875 115.9844 91.0938 115.9844 89.25 C115.9844 87.8594 115.0156 86.9375 113.8125 86.6562 L113.8125 86.5938 C114.8906 86.1875 115.6406 85.3594 115.6406 84.125 C115.6406 82.5 114.375 81.5469 112.6562 81.5469 C111.4688 81.5469 110.5469 82.0625 109.7812 82.7812 L110.4688 83.5938 C111.0469 83 111.7656 82.5938 112.5938 82.5938 C113.6562 82.5938 114.3281 83.2344 114.3281 84.2188 C114.3281 85.3281 113.6094 86.1719 111.4844 86.1719 L111.4844 87.1562 C113.8594 87.1562 114.6875 87.9844 114.6875 89.2031 C114.6875 90.3906 113.8125 91.125 112.5938 91.125 C111.4375 91.125 110.6562 90.5781 110.0469 89.9375 L109.4062 90.7812 C110.0781 91.5156 111.0938 92.1875 112.7031 92.1875 ZM119.9418 86.2656 C120.3168 85.0938 120.645 83.9844 120.9731 82.7812 L121.02 82.7812 C121.3637 83.9844 121.6762 85.0938 122.0668 86.2656 L122.5512 87.8281 L119.4418 87.8281 L119.9418 86.2656 ZM116.8168 92 L118.1293 92 L119.1293 88.8594 L122.8793 88.8594 L123.8481 92 L125.2231 92 L121.7387 81.7188 L120.3012 81.7188 L116.8168 92 ZM129.5492 92.1875 C130.4554 92.1875 131.3304 91.8281 132.0179 91.2188 L131.4554 90.3594 C130.9867 90.7969 130.3617 91.125 129.6586 91.125 C128.2679 91.125 127.3148 89.9531 127.3148 88.2031 C127.3148 86.4531 128.3148 85.2656 129.7054 85.2656 C130.3148 85.2656 130.7679 85.5469 131.2211 85.9375 L131.8773 85.0938 C131.3304 84.625 130.6429 84.2031 129.6429 84.2031 C127.7054 84.2031 125.9867 85.6719 125.9867 88.2031 C125.9867 90.7188 127.5336 92.1875 129.5492 92.1875 Z"
      /><rect x="120" y="35" width="22" style="fill:white; stroke:none;" height="10"
      /><path style="stroke:none;" d="M124.1094 40.5781 C125.3438 40.5781 125.9688 41.4688 125.9688 42.8438 C125.9688 44.25 125.1875 45.1875 124.2188 45.1875 C122.9219 45.1875 122.1562 44.0312 122 41.8906 C122.625 40.9531 123.4531 40.5781 124.1094 40.5781 ZM124.2188 46.1875 C125.8125 46.1875 127.1562 44.8438 127.1562 42.8438 C127.1562 40.7031 126.0469 39.625 124.3125 39.625 C123.5 39.625 122.6094 40.1094 121.9688 40.875 C122.0312 37.6875 123.2188 36.6094 124.625 36.6094 C125.25 36.6094 125.8594 36.9062 126.2656 37.3906 L126.9688 36.5938 C126.4062 35.9844 125.6406 35.5469 124.5781 35.5469 C122.5938 35.5469 120.7812 37.0781 120.7812 41.0938 C120.7812 44.4844 122.2344 46.1875 124.2188 46.1875 ZM130.9418 40.2656 C131.3168 39.0938 131.645 37.9844 131.9731 36.7812 L132.02 36.7812 C132.3637 37.9844 132.6762 39.0938 133.0668 40.2656 L133.5512 41.8281 L130.4418 41.8281 L130.9418 40.2656 ZM127.8168 46 L129.1293 46 L130.1293 42.8594 L133.8793 42.8594 L134.8481 46 L136.2231 46 L132.7387 35.7188 L131.3012 35.7188 L127.8168 46 ZM140.5492 46.1875 C141.4554 46.1875 142.3304 45.8281 143.0179 45.2188 L142.4554 44.3594 C141.9867 44.7969 141.3617 45.125 140.6586 45.125 C139.2679 45.125 138.3148 43.9531 138.3148 42.2031 C138.3148 40.4531 139.3148 39.2656 140.7054 39.2656 C141.3148 39.2656 141.7679 39.5469 142.2211 39.9375 L142.8773 39.0938 C142.3304 38.625 141.6429 38.2031 140.6429 38.2031 C138.7054 38.2031 136.9867 39.6719 136.9867 42.2031 C136.9867 44.7188 138.5336 46.1875 140.5492 46.1875 Z"
    /></g
    ><g style="fill:white; text-rendering:optimizeSpeed; stroke:white;"
    ><circle r="11" style="clip-path:url(#clipPath2); stroke:none;" cx="54" cy="64"
      /><rect x="43" y="53" width="22" style="clip-path:url(#clipPath2); stroke:none;" height="22"
      /><rect x="43" y="53" width="22" style="clip-path:url(#clipPath2); fill:none; stroke:black;" height="22"
      /><circle r="11" style="fill:none; stroke:black;" cx="54" cy="64"
      /><rect x="55" width="22" height="10" y="81" style="stroke:none;"
    /></g
    ><g style="text-rendering:optimizeSpeed; font-size:14px; font-family:'SansSerif';"
    ><path style="stroke:none;" d="M55.6094 92 L62.0625 92 L62.0625 90.8906 L59.2344 90.8906 C58.7031 90.8906 58.0781 90.9531 57.5469 90.9844 C59.9531 88.7031 61.5625 86.625 61.5625 84.5781 C61.5625 82.75 60.4219 81.5469 58.5781 81.5469 C57.2812 81.5469 56.4062 82.1406 55.5625 83.0469 L56.2969 83.7812 C56.8594 83.1094 57.5938 82.5938 58.4375 82.5938 C59.7031 82.5938 60.3125 83.4531 60.3125 84.625 C60.3125 86.3906 58.8438 88.4375 55.6094 91.25 L55.6094 92 ZM65.9418 86.2656 C66.3168 85.0938 66.645 83.9844 66.9731 82.7812 L67.02 82.7812 C67.3637 83.9844 67.6762 85.0938 68.0668 86.2656 L68.5512 87.8281 L65.4418 87.8281 L65.9418 86.2656 ZM62.8168 92 L64.1293 92 L65.1293 88.8594 L68.8793 88.8594 L69.8481 92 L71.2231 92 L67.7387 81.7188 L66.3012 81.7188 L62.8168 92 ZM75.5492 92.1875 C76.4554 92.1875 77.3304 91.8281 78.0179 91.2188 L77.4554 90.3594 C76.9867 90.7969 76.3617 91.125 75.6586 91.125 C74.2679 91.125 73.3148 89.9531 73.3148 88.2031 C73.3148 86.4531 74.3148 85.2656 75.7054 85.2656 C76.3148 85.2656 76.7679 85.5469 77.2211 85.9375 L77.8773 85.0938 C77.3304 84.625 76.6429 84.2031 75.6429 84.2031 C73.7054 84.2031 71.9867 85.6719 71.9867 88.2031 C71.9867 90.7188 73.5336 92.1875 75.5492 92.1875 Z"
      /><rect x="30" y="81" width="22" style="fill:white; stroke:none;" height="10"
      /><path style="stroke:none;" d="M33.7031 92.1875 C35.5156 92.1875 36.9844 91.0938 36.9844 89.25 C36.9844 87.8594 36.0156 86.9375 34.8125 86.6562 L34.8125 86.5938 C35.8906 86.1875 36.6406 85.3594 36.6406 84.125 C36.6406 82.5 35.375 81.5469 33.6562 81.5469 C32.4688 81.5469 31.5469 82.0625 30.7812 82.7812 L31.4688 83.5938 C32.0469 83 32.7656 82.5938 33.5938 82.5938 C34.6562 82.5938 35.3281 83.2344 35.3281 84.2188 C35.3281 85.3281 34.6094 86.1719 32.4844 86.1719 L32.4844 87.1562 C34.8594 87.1562 35.6875 87.9844 35.6875 89.2031 C35.6875 90.3906 34.8125 91.125 33.5938 91.125 C32.4375 91.125 31.6562 90.5781 31.0469 89.9375 L30.4062 90.7812 C31.0781 91.5156 32.0938 92.1875 33.7031 92.1875 ZM40.9418 86.2656 C41.3168 85.0938 41.645 83.9844 41.9731 82.7812 L42.02 82.7812 C42.3637 83.9844 42.6762 85.0938 43.0668 86.2656 L43.5512 87.8281 L40.4418 87.8281 L40.9418 86.2656 ZM37.8168 92 L39.1293 92 L40.1293 88.8594 L43.8793 88.8594 L44.8481 92 L46.2231 92 L42.7387 81.7188 L41.3012 81.7188 L37.8168 92 ZM50.5492 92.1875 C51.4554 92.1875 52.3304 91.8281 53.0179 91.2188 L52.4554 90.3594 C51.9867 90.7969 51.3617 91.125 50.6586 91.125 C49.2679 91.125 48.3148 89.9531 48.3148 88.2031 C48.3148 86.4531 49.3148 85.2656 50.7054 85.2656 C51.3148 85.2656 51.7679 85.5469 52.2211 85.9375 L52.8773 85.0938 C52.3304 84.625 51.6429 84.2031 50.6429 84.2031 C48.7054 84.2031 46.9867 85.6719 46.9867 88.2031 C46.9867 90.7188 48.5336 92.1875 50.5492 92.1875 Z"
      /><rect x="30" y="35" width="22" style="fill:white; stroke:none;" height="10"
      /><path style="stroke:none;" d="M31.6094 42.1562 L33.9531 38.6562 C34.2344 38.1406 34.5156 37.6406 34.7812 37.1406 L34.8281 37.1406 C34.7969 37.6719 34.7656 38.5 34.7656 39 L34.7656 42.1562 L31.6094 42.1562 ZM34.7656 46 L35.9688 46 L35.9688 43.1719 L37.3281 43.1719 L37.3281 42.1562 L35.9688 42.1562 L35.9688 35.7188 L34.5469 35.7188 L30.2812 42.3281 L30.2812 43.1719 L34.7656 43.1719 L34.7656 46 ZM40.9418 40.2656 C41.3168 39.0938 41.645 37.9844 41.9731 36.7812 L42.02 36.7812 C42.3637 37.9844 42.6762 39.0938 43.0668 40.2656 L43.5512 41.8281 L40.4418 41.8281 L40.9418 40.2656 ZM37.8168 46 L39.1293 46 L40.1293 42.8594 L43.8793 42.8594 L44.8481 46 L46.2231 46 L42.7387 35.7188 L41.3012 35.7188 L37.8168 46 ZM50.5492 46.1875 C51.4554 46.1875 52.3304 45.8281 53.0179 45.2188 L52.4554 44.3594 C51.9867 44.7969 51.3617 45.125 50.6586 45.125 C49.2679 45.125 48.3148 43.9531 48.3148 42.2031 C48.3148 40.4531 49.3148 39.2656 50.7054 39.2656 C51.3148 39.2656 51.7679 39.5469 52.2211 39.9375 L52.8773 39.0938 C52.3304 38.625 51.6429 38.2031 50.6429 38.2031 C48.7054 38.2031 46.9867 39.6719 46.9867 42.2031 C46.9867 44.7188 48.5336 46.1875 50.5492 46.1875 Z"
      /><rect x="55" y="35" width="22" style="fill:white; stroke:none;" height="10"
      /><path style="stroke:none;" d="M59.1094 40.5781 C60.3438 40.5781 60.9688 41.4688 60.9688 42.8438 C60.9688 44.25 60.1875 45.1875 59.2188 45.1875 C57.9219 45.1875 57.1562 44.0312 57 41.8906 C57.625 40.9531 58.4531 40.5781 59.1094 40.5781 ZM59.2188 46.1875 C60.8125 46.1875 62.1562 44.8438 62.1562 42.8438 C62.1562 40.7031 61.0469 39.625 59.3125 39.625 C58.5 39.625 57.6094 40.1094 56.9688 40.875 C57.0312 37.6875 58.2188 36.6094 59.625 36.6094 C60.25 36.6094 60.8594 36.9062 61.2656 37.3906 L61.9688 36.5938 C61.4062 35.9844 60.6406 35.5469 59.5781 35.5469 C57.5938 35.5469 55.7812 37.0781 55.7812 41.0938 C55.7812 44.4844 57.2344 46.1875 59.2188 46.1875 ZM65.9418 40.2656 C66.3168 39.0938 66.645 37.9844 66.9731 36.7812 L67.02 36.7812 C67.3637 37.9844 67.6762 39.0938 68.0668 40.2656 L68.5512 41.8281 L65.4418 41.8281 L65.9418 40.2656 ZM62.8168 46 L64.1293 46 L65.1293 42.8594 L68.8793 42.8594 L69.8481 46 L71.2231 46 L67.7387 35.7188 L66.3012 35.7188 L62.8168 46 ZM75.5492 46.1875 C76.4554 46.1875 77.3304 45.8281 78.0179 45.2188 L77.4554 44.3594 C76.9867 44.7969 76.3617 45.125 75.6586 45.125 C74.2679 45.125 73.3148 43.9531 73.3148 42.2031 C73.3148 40.4531 74.3148 39.2656 75.7054 39.2656 C76.3148 39.2656 76.7679 39.5469 77.2211 39.9375 L77.8773 39.0938 C77.3304 38.625 76.6429 38.2031 75.6429 38.2031 C73.7054 38.2031 71.9867 39.6719 71.9867 42.2031 C71.9867 44.7188 73.5336 46.1875 75.5492 46.1875 Z"
    /></g
    ><g style="fill:white; text-rendering:optimizeSpeed; font-family:'Serif'; stroke:white;"
    ><rect x="97" width="7" height="9" y="67" style="stroke:none;"
      /><path d="M98 72.5156 L100.9531 68.2656 L100.9531 72.5156 L98 72.5156 ZM103.2812 72.5156 L101.8594 72.5156 L101.8594 67.125 L101.2344 67.125 L97.3438 72.6406 L97.3438 73.1875 L100.9531 73.1875 L100.9531 76 L101.8594 76 L101.8594 73.1875 L103.2812 73.1875 L103.2812 72.5156 Z" style="fill:black; stroke:none;"
      /><rect x="84" width="5" height="10" y="67" style="stroke:none;"
      /><path d="M85.8906 75.6875 C85.4844 75.6875 85.1562 76.0469 85.1562 76.4219 C85.1562 76.8125 85.4844 77.1562 85.8906 77.1562 C86.2969 77.1562 86.6406 76.8125 86.6406 76.4219 C86.6406 76.0469 86.2969 75.6875 85.8906 75.6875 ZM87.4688 69.5781 C87.7188 69.8906 87.875 70.2656 87.8906 70.6562 C87.8906 71.1875 87.625 71.5 87.0312 71.7656 L86.4062 72.0156 C85.6406 72.3125 85.3906 72.5469 85.3906 72.9375 C85.3906 73.1094 85.4531 73.3438 85.5781 73.8125 L85.7344 74.3438 L86.1094 74.3438 L86.0938 73.5312 C86.0938 73.0938 86.2031 72.9688 86.7812 72.7344 L87.2031 72.5625 C88.0312 72.2188 88.4531 71.6875 88.4531 70.8438 C88.4531 69.1562 86.6562 68.1875 85.5 68.0312 C85.1094 68.125 84.9062 68.2969 84.9062 68.6406 C84.9062 68.9375 85.0625 69.1562 85.7188 69.2656 L87.4688 69.5781 Z" style="fill:black; stroke:none;"
      /><rect x="161" width="5" height="10" y="67" style="stroke:none;"
      /><path d="M162.8906 75.6875 C162.4844 75.6875 162.1562 76.0469 162.1562 76.4219 C162.1562 76.8125 162.4844 77.1562 162.8906 77.1562 C163.2969 77.1562 163.6406 76.8125 163.6406 76.4219 C163.6406 76.0469 163.2969 75.6875 162.8906 75.6875 ZM164.4688 69.5781 C164.7188 69.8906 164.875 70.2656 164.8906 70.6562 C164.8906 71.1875 164.625 71.5 164.0312 71.7656 L163.4062 72.0156 C162.6406 72.3125 162.3906 72.5469 162.3906 72.9375 C162.3906 73.1094 162.4531 73.3438 162.5781 73.8125 L162.7344 74.3438 L163.1094 74.3438 L163.0938 73.5312 C163.0938 73.0938 163.2031 72.9688 163.7812 72.7344 L164.2031 72.5625 C165.0312 72.2188 165.4531 71.6875 165.4531 70.8438 C165.4531 69.1562 163.6562 68.1875 162.5 68.0312 C162.1094 68.125 161.9062 68.2969 161.9062 68.6406 C161.9062 68.9375 162.0625 69.1562 162.7188 69.2656 L164.4688 69.5781 Z" style="fill:black; stroke:none;"
    /></g
  ></g
></svg
>
