<?xml version="1.0"?>
<!DOCTYPE svg PUBLIC '-//W3C//DTD SVG 1.0//EN'
          'http://www.w3.org/TR/2001/REC-SVG-20010904/DTD/svg10.dtd'>
<svg xmlns:xlink="http://www.w3.org/1999/xlink" style="fill-opacity:1; color-rendering:auto; color-interpolation:auto; text-rendering:auto; stroke:black; stroke-linecap:square; stroke-miterlimit:10; shape-rendering:auto; stroke-opacity:1; fill:black; stroke-dasharray:none; font-weight:normal; stroke-width:1; font-family:'Dialog'; font-style:normal; stroke-linejoin:miter; font-size:12px; stroke-dashoffset:0; image-rendering:auto;" viewBox="0 0 200 336" xmlns="http://www.w3.org/2000/svg"
><!--Generated by the Batik Graphics2D SVG Generator--><defs id="genericDefs"
  /><g
  ><defs id="defs1"
    ><clipPath clipPathUnits="userSpaceOnUse" id="clipPath1"
      ><path style="fill-rule:evenodd;" d="M96 272 L90 279 L79 279 L74 272 L79 264 L90 264 L96 272 Z"
      /></clipPath
      ><clipPath clipPathUnits="userSpaceOnUse" id="clipPath2"
      ><path style="fill-rule:evenodd;" d="M96 197 L90 204 L79 204 L74 197 L79 189 L90 189 L96 197 Z"
      /></clipPath
      ><clipPath clipPathUnits="userSpaceOnUse" id="clipPath3"
      ><path d="M74 134 L96 134 L96 156 L74 156 L74 134 Z"
      /></clipPath
      ><clipPath clipPathUnits="userSpaceOnUse" id="clipPath4"
      ><path d="M96 93 C96 99.0751 91.0751 104 85 104 C78.9249 104 74 99.0751 74 93 C74 86.9249 78.9249 82 85 82 C91.0751 82 96 86.9249 96 93 Z"
      /></clipPath
      ><clipPath clipPathUnits="userSpaceOnUse" id="clipPath5"
      ><path d="M96 41 C96 47.0751 91.0751 52 85 52 C78.9249 52 74 47.0751 74 41 C74 34.9249 78.9249 30 85 30 C91.0751 30 96 34.9249 96 41 Z"
      /></clipPath
    ></defs
    ><g style="fill:white; text-rendering:optimizeSpeed; stroke:white;"
    ><rect x="0" width="200" height="336" y="0" style="stroke:none;"
      /><polygon style="clip-path:url(#clipPath1); stroke:none;" points=" 96 272 90 279 79 279 74 272 79 264 90 264 96 272"
      /><rect x="74" y="261" width="22" style="clip-path:url(#clipPath1); fill:rgb(255,212,0); stroke:none;" height="22"
      /><rect x="74" y="261" width="22" style="clip-path:url(#clipPath1); fill:none; stroke:black;" height="22"
      /><polygon style="fill:none; stroke:black;" points=" 96 272 90 279 79 279 74 272 79 264 90 264 96 272"
      /><rect x="48" y="241" width="73" style="stroke:none;" height="14"
    /></g
    ><g style="text-rendering:optimizeSpeed; font-size:14px; font-family:'SansSerif';"
    ><path style="stroke:none;" d="M49.6094 252.1562 L51.9531 248.6562 C52.2344 248.1406 52.5156 247.6406 52.7812 247.1406 L52.8281 247.1406 C52.7969 247.6719 52.7656 248.5 52.7656 249 L52.7656 252.1562 L49.6094 252.1562 ZM52.7656 256 L53.9688 256 L53.9688 253.1719 L55.3281 253.1719 L55.3281 252.1562 L53.9688 252.1562 L53.9688 245.7188 L52.5469 245.7188 L48.2812 252.3281 L48.2812 253.1719 L52.7656 253.1719 L52.7656 256 ZM56.8168 258.6562 C58.0825 258.125 58.8637 257.0781 58.8637 255.7344 C58.8637 254.7969 58.4575 254.2188 57.7856 254.2188 C57.27 254.2188 56.8168 254.5781 56.8168 255.125 C56.8168 255.7031 57.27 256.0156 57.7543 256.0156 C57.8168 256.0156 57.8637 256.0156 57.9106 256 C57.9106 256.8281 57.395 257.5156 56.5043 257.9062 L56.8168 258.6562 ZM63.5682 256.1875 C65.5057 256.1875 66.787 255.0156 66.787 253.5156 C66.787 252.125 65.9432 251.3594 65.0526 250.8281 L65.0526 250.7656 C65.662 250.2812 66.4276 249.3594 66.4276 248.2812 C66.4276 246.7031 65.3651 245.5781 63.6151 245.5781 C62.0213 245.5781 60.8026 246.625 60.8026 248.1875 C60.8026 249.2656 61.4276 250.0312 62.1776 250.5469 L62.1776 250.625 C61.2401 251.125 60.287 252.0781 60.287 253.4531 C60.287 255.0312 61.6776 256.1875 63.5682 256.1875 ZM64.2713 250.4219 C63.0682 249.9531 61.9588 249.4219 61.9588 248.1875 C61.9588 247.1875 62.6463 246.5156 63.5995 246.5156 C64.7088 246.5156 65.3338 247.3438 65.3338 248.3594 C65.3338 249.1094 64.9745 249.8125 64.2713 250.4219 ZM63.5995 255.2344 C62.3651 255.2344 61.4588 254.4375 61.4588 253.3438 C61.4588 252.3594 62.0213 251.5469 62.8495 251.0156 C64.3026 251.6094 65.5682 252.125 65.5682 253.5 C65.5682 254.5156 64.7713 255.2344 63.5995 255.2344 ZM70.6038 250.2656 C70.9788 249.0938 71.3069 247.9844 71.6351 246.7812 L71.6819 246.7812 C72.0257 247.9844 72.3382 249.0938 72.7288 250.2656 L73.2132 251.8281 L70.1038 251.8281 L70.6038 250.2656 ZM67.4788 256 L68.7913 256 L69.7913 252.8594 L73.5413 252.8594 L74.5101 256 L75.8851 256 L72.4007 245.7188 L70.9632 245.7188 L67.4788 256 ZM77.2112 256 L78.4924 256 L78.4924 250.4844 C79.258 249.7188 79.7893 249.3281 80.5705 249.3281 C81.5862 249.3281 82.0237 249.9219 82.0237 251.3594 L82.0237 256 L83.2893 256 L83.2893 251.1875 C83.2893 249.2344 82.5705 248.2031 80.9768 248.2031 C79.9299 248.2031 79.1487 248.7812 78.4143 249.4844 L78.383 249.4844 L78.2737 248.3906 L77.2112 248.3906 L77.2112 256 ZM85.7651 256 L87.0464 256 L87.0464 250.4844 C87.812 249.7188 88.3432 249.3281 89.1245 249.3281 C90.1401 249.3281 90.5776 249.9219 90.5776 251.3594 L90.5776 256 L91.8432 256 L91.8432 251.1875 C91.8432 249.2344 91.1245 248.2031 89.5307 248.2031 C88.4839 248.2031 87.7026 248.7812 86.9995 249.4688 L87.0464 247.9062 L87.0464 244.8594 L85.7651 244.8594 L85.7651 256 ZM94.3881 259.2812 C95.9037 259.2812 96.7006 258.125 97.2162 256.625 L100.0912 248.3906 L98.8412 248.3906 L97.4975 252.625 C97.2787 253.2969 97.06 254.0625 96.8412 254.75 L96.7787 254.75 C96.5443 254.0625 96.2787 253.2812 96.0443 252.625 L94.4975 248.3906 L93.1693 248.3906 L96.2162 256.0156 L96.0443 256.5938 C95.7475 257.5312 95.2006 258.2188 94.3256 258.2188 C94.1225 258.2188 93.9037 258.1562 93.7475 258.0938 L93.4975 259.125 C93.7318 259.2188 94.0287 259.2812 94.3881 259.2812 ZM104.1508 256.1875 C105.0571 256.1875 105.8696 255.6875 106.4633 255.1094 L106.5102 255.1094 L106.6196 256 L107.6508 256 L107.6508 244.8594 L106.4008 244.8594 L106.4008 247.7812 L106.4477 249.0938 C105.7758 248.5312 105.1977 248.2031 104.3071 248.2031 C102.5727 248.2031 101.0102 249.7344 101.0102 252.2031 C101.0102 254.7344 102.2446 256.1875 104.1508 256.1875 ZM104.4321 255.125 C103.0883 255.125 102.3383 254.0312 102.3383 252.1875 C102.3383 250.4531 103.3071 249.2812 104.5258 249.2812 C105.1664 249.2812 105.7289 249.5 106.4008 250.0781 L106.4008 254.0625 C105.7446 254.7656 105.1352 255.125 104.4321 255.125 ZM110.237 256 L111.5183 256 L111.5183 251.1094 C112.0183 249.8125 112.7995 249.3594 113.4402 249.3594 C113.737 249.3594 113.9245 249.3906 114.1745 249.4844 L114.4089 248.375 C114.1745 248.25 113.9402 248.2031 113.5964 248.2031 C112.7527 248.2031 111.987 248.8125 111.4402 249.7812 L111.4089 249.7812 L111.2995 248.3906 L110.237 248.3906 L110.237 256 ZM118.6221 256.1875 C120.4971 256.1875 122.1534 254.7188 122.1534 252.2031 C122.1534 249.6719 120.4971 248.2031 118.6221 248.2031 C116.7628 248.2031 115.1065 249.6719 115.1065 252.2031 C115.1065 254.7188 116.7628 256.1875 118.6221 256.1875 ZM118.6221 255.125 C117.3096 255.125 116.4346 253.9531 116.4346 252.2031 C116.4346 250.4531 117.3096 249.2656 118.6221 249.2656 C119.9503 249.2656 120.8409 250.4531 120.8409 252.2031 C120.8409 253.9531 119.9503 255.125 118.6221 255.125 Z"
      /><path style="stroke:none;" d="M77.6094 300 L84.0625 300 L84.0625 298.8906 L81.2344 298.8906 C80.7031 298.8906 80.0781 298.9531 79.5469 298.9844 C81.9531 296.7031 83.5625 294.625 83.5625 292.5781 C83.5625 290.75 82.4219 289.5469 80.5781 289.5469 C79.2812 289.5469 78.4062 290.1406 77.5625 291.0469 L78.2969 291.7812 C78.8594 291.1094 79.5938 290.5938 80.4375 290.5938 C81.7031 290.5938 82.3125 291.4531 82.3125 292.625 C82.3125 294.3906 80.8438 296.4375 77.6094 299.25 L77.6094 300 ZM89.8168 300.1875 C91.9106 300.1875 93.5043 299.0625 93.5043 295.7656 L93.5043 289.7188 L92.2543 289.7188 L92.2543 295.7969 C92.2543 298.2812 91.1762 299.0469 89.8168 299.0469 C88.4731 299.0469 87.4262 298.2812 87.4262 295.7969 L87.4262 289.7188 L86.1293 289.7188 L86.1293 295.7656 C86.1293 299.0625 87.7231 300.1875 89.8168 300.1875 Z"
    /></g
    ><g style="fill:white; text-rendering:optimizeSpeed; font-family:'Serif'; stroke:white;"
    ><rect x="128" width="5" height="10" y="259" style="stroke:none;"
      /><path d="M129.8906 267.6875 C129.4844 267.6875 129.1562 268.0469 129.1562 268.4219 C129.1562 268.8125 129.4844 269.1562 129.8906 269.1562 C130.2969 269.1562 130.6406 268.8125 130.6406 268.4219 C130.6406 268.0469 130.2969 267.6875 129.8906 267.6875 ZM131.4688 261.5781 C131.7188 261.8906 131.875 262.2656 131.8906 262.6562 C131.8906 263.1875 131.625 263.5 131.0312 263.7656 L130.4062 264.0156 C129.6406 264.3125 129.3906 264.5469 129.3906 264.9375 C129.3906 265.1094 129.4531 265.3438 129.5781 265.8125 L129.7344 266.3438 L130.1094 266.3438 L130.0938 265.5312 C130.0938 265.0938 130.2031 264.9688 130.7812 264.7344 L131.2031 264.5625 C132.0312 264.2188 132.4531 263.6875 132.4531 262.8438 C132.4531 261.1562 130.6562 260.1875 129.5 260.0312 C129.1094 260.125 128.9062 260.2969 128.9062 260.6406 C128.9062 260.9375 129.0625 261.1562 129.7188 261.2656 L131.4688 261.5781 Z" style="fill:black; stroke:none;"
      /><rect x="128" width="5" height="10" y="275" style="stroke:none;"
      /><path d="M129.8906 283.6875 C129.4844 283.6875 129.1562 284.0469 129.1562 284.4219 C129.1562 284.8125 129.4844 285.1562 129.8906 285.1562 C130.2969 285.1562 130.6406 284.8125 130.6406 284.4219 C130.6406 284.0469 130.2969 283.6875 129.8906 283.6875 ZM131.4688 277.5781 C131.7188 277.8906 131.875 278.2656 131.8906 278.6562 C131.8906 279.1875 131.625 279.5 131.0312 279.7656 L130.4062 280.0156 C129.6406 280.3125 129.3906 280.5469 129.3906 280.9375 C129.3906 281.1094 129.4531 281.3438 129.5781 281.8125 L129.7344 282.3438 L130.1094 282.3438 L130.0938 281.5312 C130.0938 281.0938 130.2031 280.9688 130.7812 280.7344 L131.2031 280.5625 C132.0312 280.2188 132.4531 279.6875 132.4531 278.8438 C132.4531 277.1562 130.6562 276.1875 129.5 276.0312 C129.1094 276.125 128.9062 276.2969 128.9062 276.6406 C128.9062 276.9375 129.0625 277.1562 129.7188 277.2656 L131.4688 277.5781 Z" style="fill:black; stroke:none;"
      /><polygon style="clip-path:url(#clipPath2); stroke:none;" points=" 96 197 90 204 79 204 74 197 79 189 90 189 96 197"
      /><rect x="74" y="186" width="22" style="clip-path:url(#clipPath2); fill:rgb(0,166,81); stroke:none;" height="22"
      /><rect x="74" y="186" width="22" style="clip-path:url(#clipPath2); fill:none; stroke:black;" height="22"
      /><polygon style="fill:none; stroke:black;" points=" 96 197 90 204 79 204 74 197 79 189 90 189 96 197"
      /><rect x="101" width="5" height="10" y="184" style="stroke:none;"
      /><path d="M102.8906 192.6875 C102.4844 192.6875 102.1562 193.0469 102.1562 193.4219 C102.1562 193.8125 102.4844 194.1562 102.8906 194.1562 C103.2969 194.1562 103.6406 193.8125 103.6406 193.4219 C103.6406 193.0469 103.2969 192.6875 102.8906 192.6875 ZM104.4688 186.5781 C104.7188 186.8906 104.875 187.2656 104.8906 187.6562 C104.8906 188.1875 104.625 188.5 104.0312 188.7656 L103.4062 189.0156 C102.6406 189.3125 102.3906 189.5469 102.3906 189.9375 C102.3906 190.1094 102.4531 190.3438 102.5781 190.8125 L102.7344 191.3438 L103.1094 191.3438 L103.0938 190.5312 C103.0938 190.0938 103.2031 189.9688 103.7812 189.7344 L104.2031 189.5625 C105.0312 189.2188 105.4531 188.6875 105.4531 187.8438 C105.4531 186.1562 103.6562 185.1875 102.5 185.0312 C102.1094 185.125 101.9062 185.2969 101.9062 185.6406 C101.9062 185.9375 102.0625 186.1562 102.7188 186.2656 L104.4688 186.5781 Z" style="fill:black; stroke:none;"
      /><rect x="101" width="5" height="10" y="200" style="stroke:none;"
      /><path d="M102.8906 208.6875 C102.4844 208.6875 102.1562 209.0469 102.1562 209.4219 C102.1562 209.8125 102.4844 210.1562 102.8906 210.1562 C103.2969 210.1562 103.6406 209.8125 103.6406 209.4219 C103.6406 209.0469 103.2969 208.6875 102.8906 208.6875 ZM104.4688 202.5781 C104.7188 202.8906 104.875 203.2656 104.8906 203.6562 C104.8906 204.1875 104.625 204.5 104.0312 204.7656 L103.4062 205.0156 C102.6406 205.3125 102.3906 205.5469 102.3906 205.9375 C102.3906 206.1094 102.4531 206.3438 102.5781 206.8125 L102.7344 207.3438 L103.1094 207.3438 L103.0938 206.5312 C103.0938 206.0938 103.2031 205.9688 103.7812 205.7344 L104.2031 205.5625 C105.0312 205.2188 105.4531 204.6875 105.4531 203.8438 C105.4531 202.1562 103.6562 201.1875 102.5 201.0312 C102.1094 201.125 101.9062 201.2969 101.9062 201.6406 C101.9062 201.9375 102.0625 202.1562 102.7188 202.2656 L104.4688 202.5781 Z" style="fill:black; stroke:none;"
    /></g
    ><g style="text-rendering:optimizeSpeed; font-size:14px; font-family:'SansSerif';"
    ><path style="stroke:none;" d="M59.7031 202.1875 C61.5156 202.1875 62.9844 201.0938 62.9844 199.25 C62.9844 197.8594 62.0156 196.9375 60.8125 196.6562 L60.8125 196.5938 C61.8906 196.1875 62.6406 195.3594 62.6406 194.125 C62.6406 192.5 61.375 191.5469 59.6562 191.5469 C58.4688 191.5469 57.5469 192.0625 56.7812 192.7812 L57.4688 193.5938 C58.0469 193 58.7656 192.5938 59.5938 192.5938 C60.6562 192.5938 61.3281 193.2344 61.3281 194.2188 C61.3281 195.3281 60.6094 196.1719 58.4844 196.1719 L58.4844 197.1562 C60.8594 197.1562 61.6875 197.9844 61.6875 199.2031 C61.6875 200.3906 60.8125 201.125 59.5938 201.125 C58.4375 201.125 57.6562 200.5781 57.0469 199.9375 L56.4062 200.7812 C57.0781 201.5156 58.0938 202.1875 59.7031 202.1875 ZM63.9731 202 L65.3168 202 L66.3481 200.2188 C66.6137 199.7656 66.8637 199.2969 67.1293 198.8594 L67.2075 198.8594 C67.4731 199.2969 67.7543 199.7656 68.0043 200.2188 L69.1293 202 L70.5356 202 L68.02 198.1562 L70.3325 194.3906 L69.0043 194.3906 L68.0668 196.0625 C67.8481 196.5 67.6137 196.9219 67.3793 197.3438 L67.3325 197.3438 C67.0668 196.9219 66.8012 196.5 66.5668 196.0625 L65.5512 194.3906 L64.1762 194.3906 L66.4887 198.0312 L63.9731 202 Z"
      /><rect x="74" y="134" width="22" style="clip-path:url(#clipPath3); fill:white; stroke:none;" height="22"
      /><rect x="74" y="134" width="22" style="clip-path:url(#clipPath3); fill:rgb(0,144,188); stroke:none;" height="22"
      /><rect x="74" y="134" width="22" style="fill:none; clip-path:url(#clipPath3);" height="22"
      /><rect x="74" width="22" height="22" y="134" style="fill:none;"
    /></g
    ><g style="fill:white; text-rendering:optimizeSpeed; font-family:'Serif'; stroke:white;"
    ><rect x="101" width="5" height="10" y="132" style="stroke:none;"
      /><path d="M102.8906 140.6875 C102.4844 140.6875 102.1562 141.0469 102.1562 141.4219 C102.1562 141.8125 102.4844 142.1562 102.8906 142.1562 C103.2969 142.1562 103.6406 141.8125 103.6406 141.4219 C103.6406 141.0469 103.2969 140.6875 102.8906 140.6875 ZM104.4688 134.5781 C104.7188 134.8906 104.875 135.2656 104.8906 135.6562 C104.8906 136.1875 104.625 136.5 104.0312 136.7656 L103.4062 137.0156 C102.6406 137.3125 102.3906 137.5469 102.3906 137.9375 C102.3906 138.1094 102.4531 138.3438 102.5781 138.8125 L102.7344 139.3438 L103.1094 139.3438 L103.0938 138.5312 C103.0938 138.0938 103.2031 137.9688 103.7812 137.7344 L104.2031 137.5625 C105.0312 137.2188 105.4531 136.6875 105.4531 135.8438 C105.4531 134.1562 103.6562 133.1875 102.5 133.0312 C102.1094 133.125 101.9062 133.2969 101.9062 133.6406 C101.9062 133.9375 102.0625 134.1562 102.7188 134.2656 L104.4688 134.5781 Z" style="fill:black; stroke:none;"
      /><rect x="101" width="5" height="10" y="148" style="stroke:none;"
      /><path d="M102.8906 156.6875 C102.4844 156.6875 102.1562 157.0469 102.1562 157.4219 C102.1562 157.8125 102.4844 158.1562 102.8906 158.1562 C103.2969 158.1562 103.6406 157.8125 103.6406 157.4219 C103.6406 157.0469 103.2969 156.6875 102.8906 156.6875 ZM104.4688 150.5781 C104.7188 150.8906 104.875 151.2656 104.8906 151.6562 C104.8906 152.1875 104.625 152.5 104.0312 152.7656 L103.4062 153.0156 C102.6406 153.3125 102.3906 153.5469 102.3906 153.9375 C102.3906 154.1094 102.4531 154.3438 102.5781 154.8125 L102.7344 155.3438 L103.1094 155.3438 L103.0938 154.5312 C103.0938 154.0938 103.2031 153.9688 103.7812 153.7344 L104.2031 153.5625 C105.0312 153.2188 105.4531 152.6875 105.4531 151.8438 C105.4531 150.1562 103.6562 149.1875 102.5 149.0312 C102.1094 149.125 101.9062 149.2969 101.9062 149.6406 C101.9062 149.9375 102.0625 150.1562 102.7188 150.2656 L104.4688 150.5781 Z" style="fill:black; stroke:none;"
      /><circle r="11" style="clip-path:url(#clipPath4); stroke:none;" cx="85" cy="93"
    /></g
    ><g style="fill:rgb(0,144,188); text-rendering:optimizeSpeed; font-size:14px; font-family:'SansSerif'; stroke:rgb(0,144,188);"
    ><rect x="74" y="82" width="22" style="clip-path:url(#clipPath4); stroke:none;" height="22"
      /><rect x="74" y="82" width="22" style="clip-path:url(#clipPath4); fill:none; stroke:black;" height="22"
      /><circle r="11" style="fill:none; stroke:black;" cx="85" cy="93"
    /></g
    ><g style="fill:white; text-rendering:optimizeSpeed; font-family:'Serif'; stroke:white;"
    ><rect x="101" width="5" height="10" y="80" style="stroke:none;"
      /><path d="M102.8906 88.6875 C102.4844 88.6875 102.1562 89.0469 102.1562 89.4219 C102.1562 89.8125 102.4844 90.1562 102.8906 90.1562 C103.2969 90.1562 103.6406 89.8125 103.6406 89.4219 C103.6406 89.0469 103.2969 88.6875 102.8906 88.6875 ZM104.4688 82.5781 C104.7188 82.8906 104.875 83.2656 104.8906 83.6562 C104.8906 84.1875 104.625 84.5 104.0312 84.7656 L103.4062 85.0156 C102.6406 85.3125 102.3906 85.5469 102.3906 85.9375 C102.3906 86.1094 102.4531 86.3438 102.5781 86.8125 L102.7344 87.3438 L103.1094 87.3438 L103.0938 86.5312 C103.0938 86.0938 103.2031 85.9688 103.7812 85.7344 L104.2031 85.5625 C105.0312 85.2188 105.4531 84.6875 105.4531 83.8438 C105.4531 82.1562 103.6562 81.1875 102.5 81.0312 C102.1094 81.125 101.9062 81.2969 101.9062 81.6406 C101.9062 81.9375 102.0625 82.1562 102.7188 82.2656 L104.4688 82.5781 Z" style="fill:black; stroke:none;"
      /><rect x="101" width="5" height="10" y="96" style="stroke:none;"
      /><path d="M102.8906 104.6875 C102.4844 104.6875 102.1562 105.0469 102.1562 105.4219 C102.1562 105.8125 102.4844 106.1562 102.8906 106.1562 C103.2969 106.1562 103.6406 105.8125 103.6406 105.4219 C103.6406 105.0469 103.2969 104.6875 102.8906 104.6875 ZM104.4688 98.5781 C104.7188 98.8906 104.875 99.2656 104.8906 99.6562 C104.8906 100.1875 104.625 100.5 104.0312 100.7656 L103.4062 101.0156 C102.6406 101.3125 102.3906 101.5469 102.3906 101.9375 C102.3906 102.1094 102.4531 102.3438 102.5781 102.8125 L102.7344 103.3438 L103.1094 103.3438 L103.0938 102.5312 C103.0938 102.0938 103.2031 101.9688 103.7812 101.7344 L104.2031 101.5625 C105.0312 101.2188 105.4531 100.6875 105.4531 99.8438 C105.4531 98.1562 103.6562 97.1875 102.5 97.0312 C102.1094 97.125 101.9062 97.2969 101.9062 97.6406 C101.9062 97.9375 102.0625 98.1562 102.7188 98.2656 L104.4688 98.5781 Z" style="fill:black; stroke:none;"
    /></g
    ><g style="text-rendering:optimizeSpeed; font-size:14px; font-family:'SansSerif';"
    ><path style="stroke:none;" d="M56.6094 98 L63.0625 98 L63.0625 96.8906 L60.2344 96.8906 C59.7031 96.8906 59.0781 96.9531 58.5469 96.9844 C60.9531 94.7031 62.5625 92.625 62.5625 90.5781 C62.5625 88.75 61.4219 87.5469 59.5781 87.5469 C58.2812 87.5469 57.4062 88.1406 56.5625 89.0469 L57.2969 89.7812 C57.8594 89.1094 58.5938 88.5938 59.4375 88.5938 C60.7031 88.5938 61.3125 89.4531 61.3125 90.625 C61.3125 92.3906 59.8438 94.4375 56.6094 97.25 L56.6094 98 ZM63.9731 98 L65.3168 98 L66.3481 96.2188 C66.6137 95.7656 66.8637 95.2969 67.1293 94.8594 L67.2075 94.8594 C67.4731 95.2969 67.7543 95.7656 68.0043 96.2188 L69.1293 98 L70.5356 98 L68.02 94.1562 L70.3325 90.3906 L69.0043 90.3906 L68.0668 92.0625 C67.8481 92.5 67.6137 92.9219 67.3793 93.3438 L67.3325 93.3438 C67.0668 92.9219 66.8012 92.5 66.5668 92.0625 L65.5512 90.3906 L64.1762 90.3906 L66.4887 94.0312 L63.9731 98 Z"
      /><circle style="fill:white; clip-path:url(#clipPath5); stroke:none;" r="11" cx="85" cy="41"
      /><rect x="74" y="30" width="22" style="clip-path:url(#clipPath5); fill:rgb(255,212,0); stroke:none;" height="22"
      /><rect x="74" y="30" width="22" style="fill:none; clip-path:url(#clipPath5);" height="22"
      /><circle r="11" style="fill:none;" cx="85" cy="41"
    /></g
    ><g style="fill:white; text-rendering:optimizeSpeed; font-family:'Serif'; stroke:white;"
    ><rect x="101" width="5" height="10" y="28" style="stroke:none;"
      /><path d="M102.8906 36.6875 C102.4844 36.6875 102.1562 37.0469 102.1562 37.4219 C102.1562 37.8125 102.4844 38.1562 102.8906 38.1562 C103.2969 38.1562 103.6406 37.8125 103.6406 37.4219 C103.6406 37.0469 103.2969 36.6875 102.8906 36.6875 ZM104.4688 30.5781 C104.7188 30.8906 104.875 31.2656 104.8906 31.6562 C104.8906 32.1875 104.625 32.5 104.0312 32.7656 L103.4062 33.0156 C102.6406 33.3125 102.3906 33.5469 102.3906 33.9375 C102.3906 34.1094 102.4531 34.3438 102.5781 34.8125 L102.7344 35.3438 L103.1094 35.3438 L103.0938 34.5312 C103.0938 34.0938 103.2031 33.9688 103.7812 33.7344 L104.2031 33.5625 C105.0312 33.2188 105.4531 32.6875 105.4531 31.8438 C105.4531 30.1562 103.6562 29.1875 102.5 29.0312 C102.1094 29.125 101.9062 29.2969 101.9062 29.6406 C101.9062 29.9375 102.0625 30.1562 102.7188 30.2656 L104.4688 30.5781 Z" style="fill:black; stroke:none;"
      /><rect x="101" width="5" height="10" y="44" style="stroke:none;"
      /><path d="M102.8906 52.6875 C102.4844 52.6875 102.1562 53.0469 102.1562 53.4219 C102.1562 53.8125 102.4844 54.1562 102.8906 54.1562 C103.2969 54.1562 103.6406 53.8125 103.6406 53.4219 C103.6406 53.0469 103.2969 52.6875 102.8906 52.6875 ZM104.4688 46.5781 C104.7188 46.8906 104.875 47.2656 104.8906 47.6562 C104.8906 48.1875 104.625 48.5 104.0312 48.7656 L103.4062 49.0156 C102.6406 49.3125 102.3906 49.5469 102.3906 49.9375 C102.3906 50.1094 102.4531 50.3438 102.5781 50.8125 L102.7344 51.3438 L103.1094 51.3438 L103.0938 50.5312 C103.0938 50.0938 103.2031 49.9688 103.7812 49.7344 L104.2031 49.5625 C105.0312 49.2188 105.4531 48.6875 105.4531 47.8438 C105.4531 46.1562 103.6562 45.1875 102.5 45.0312 C102.1094 45.125 101.9062 45.2969 101.9062 45.6406 C101.9062 45.9375 102.0625 46.1562 102.7188 46.2656 L104.4688 46.5781 Z" style="fill:black; stroke:none;"
    /></g
    ><g ID="legend-1:0" style="text-rendering:optimizeSpeed; font-size:10px; font-family:'SansSerif';"
    ><path style="stroke:none;" d="M30.9219 321 L31.8281 321 L31.8281 317.0625 C32.375 316.5156 32.7656 316.2344 33.3125 316.2344 C34.0469 316.2344 34.3438 316.6562 34.3438 317.6875 L34.3438 321 L35.2656 321 L35.2656 317.5625 C35.2656 316.1719 34.7344 315.4375 33.5938 315.4375 C32.8594 315.4375 32.2969 315.8438 31.7812 316.3438 L31.75 316.3438 L31.6719 315.5625 L30.9219 315.5625 L30.9219 321 ZM39.1413 321.125 C40.4694 321.125 41.6569 320.0938 41.6569 318.2969 C41.6569 316.4844 40.4694 315.4375 39.1413 315.4375 C37.8131 315.4375 36.6256 316.4844 36.6256 318.2969 C36.6256 320.0938 37.8131 321.125 39.1413 321.125 ZM39.1413 320.375 C38.2038 320.375 37.5631 319.5469 37.5631 318.2969 C37.5631 317.0469 38.2038 316.1875 39.1413 316.1875 C40.0788 316.1875 40.7194 317.0469 40.7194 318.2969 C40.7194 319.5469 40.0788 320.375 39.1413 320.375 ZM47.16 323.5 C48.8475 323.5 49.91 322.625 49.91 321.625 C49.91 320.7344 49.2694 320.3281 48.0038 320.3281 L46.9569 320.3281 C46.2225 320.3281 46.0038 320.0938 46.0038 319.7344 C46.0038 319.4375 46.1444 319.2656 46.3475 319.0938 C46.5975 319.2031 46.8944 319.2812 47.16 319.2812 C48.2538 319.2812 49.1444 318.5469 49.1444 317.3906 C49.1444 316.9219 48.9569 316.5156 48.7069 316.2656 L49.8163 316.2656 L49.8163 315.5625 L47.9256 315.5625 C47.7225 315.5 47.4569 315.4375 47.16 315.4375 C46.0663 315.4375 45.1131 316.1875 45.1131 317.375 C45.1131 318.0156 45.4725 318.5469 45.8319 318.8281 L45.8319 318.875 C45.5506 319.0625 45.2225 319.4375 45.2225 319.875 C45.2225 320.3125 45.4256 320.5938 45.7225 320.7656 L45.7225 320.8125 C45.2069 321.1406 44.9256 321.5781 44.9256 322.0469 C44.9256 322.9844 45.8319 323.5 47.16 323.5 ZM47.16 318.6562 C46.535 318.6562 46.0038 318.1562 46.0038 317.375 C46.0038 316.5625 46.5194 316.0938 47.16 316.0938 C47.8006 316.0938 48.3163 316.5781 48.3163 317.375 C48.3163 318.1562 47.785 318.6562 47.16 318.6562 ZM47.285 322.875 C46.3163 322.875 45.7225 322.5 45.7225 321.9219 C45.7225 321.5938 45.8788 321.2812 46.2694 321 C46.5038 321.0625 46.7694 321.0938 46.9725 321.0938 L47.91 321.0938 C48.6288 321.0938 49.0194 321.2656 49.0194 321.7656 C49.0194 322.3281 48.3319 322.875 47.285 322.875 ZM51.915 321.125 C52.165 321.125 52.3212 321.0938 52.4462 321.0469 L52.3212 320.3438 C52.2275 320.375 52.1806 320.375 52.1337 320.375 C51.9931 320.375 51.8681 320.2656 51.8681 319.9844 L51.8681 313.0469 L50.9619 313.0469 L50.9619 319.9219 C50.9619 320.6875 51.2431 321.125 51.915 321.125 ZM53.9056 323.3438 C54.9837 323.3438 55.5462 322.5156 55.9212 321.4531 L57.9681 315.5625 L57.0775 315.5625 L56.1087 318.5938 C55.9525 319.0625 55.7962 319.625 55.6556 320.1094 L55.5931 320.1094 C55.4369 319.625 55.2337 319.0625 55.0775 318.5938 L53.9681 315.5625 L53.015 315.5625 L55.2025 321.0156 L55.0775 321.4219 C54.8587 322.0938 54.4681 322.5938 53.8431 322.5938 C53.7025 322.5938 53.5462 322.5469 53.4369 322.5 L53.265 323.2344 C53.4369 323.2969 53.64 323.3438 53.9056 323.3438 ZM61.1625 321.125 C61.8031 321.125 62.4281 320.875 62.9125 320.4375 L62.5219 319.8281 C62.1781 320.1406 61.7406 320.375 61.2406 320.375 C60.2406 320.375 59.5531 319.5469 59.5531 318.2969 C59.5531 317.0469 60.2875 316.1875 61.2719 316.1875 C61.6937 316.1875 62.0375 316.3906 62.35 316.6719 L62.8187 316.0625 C62.4281 315.7344 61.9437 315.4375 61.225 315.4375 C59.8344 315.4375 58.6156 316.4844 58.6156 318.2969 C58.6156 320.0938 59.725 321.125 61.1625 321.125 ZM66.2212 321.125 C67.5493 321.125 68.7368 320.0938 68.7368 318.2969 C68.7368 316.4844 67.5493 315.4375 66.2212 315.4375 C64.8931 315.4375 63.7056 316.4844 63.7056 318.2969 C63.7056 320.0938 64.8931 321.125 66.2212 321.125 ZM66.2212 320.375 C65.2837 320.375 64.6431 319.5469 64.6431 318.2969 C64.6431 317.0469 65.2837 316.1875 66.2212 316.1875 C67.1587 316.1875 67.7993 317.0469 67.7993 318.2969 C67.7993 319.5469 67.1587 320.375 66.2212 320.375 ZM71.5937 321.125 C72.875 321.125 73.5625 320.4062 73.5625 319.5156 C73.5625 318.4844 72.7031 318.1719 71.9062 317.875 C71.2968 317.6406 70.7343 317.4531 70.7343 316.9375 C70.7343 316.5156 71.0625 316.1562 71.75 316.1562 C72.2343 316.1562 72.6093 316.3438 72.9843 316.625 L73.4218 316.0469 C73 315.7031 72.4062 315.4375 71.7343 315.4375 C70.5625 315.4375 69.8593 316.1094 69.8593 316.9688 C69.8593 317.8906 70.6875 318.2656 71.4531 318.5469 C72.0468 318.7656 72.6875 319.0156 72.6875 319.5625 C72.6875 320.0469 72.3437 320.4219 71.625 320.4219 C70.9687 320.4219 70.4843 320.1562 70.0156 319.7812 L69.5625 320.375 C70.0781 320.8125 70.8125 321.125 71.5937 321.125 ZM74.8518 321 L75.7581 321 L75.7581 315.5625 L74.8518 315.5625 L74.8518 321 ZM75.305 314.4531 C75.6643 314.4531 75.9143 314.2031 75.9143 313.8438 C75.9143 313.4844 75.6643 313.25 75.305 313.25 C74.9456 313.25 74.6956 313.4844 74.6956 313.8438 C74.6956 314.2031 74.9456 314.4531 75.305 314.4531 ZM79.4456 321.125 C80.1018 321.125 80.6643 320.7812 81.1018 320.3594 L81.1331 320.3594 L81.2112 321 L81.9456 321 L81.9456 313.0469 L81.055 313.0469 L81.055 315.125 L81.0862 316.0625 C80.6175 315.6719 80.1956 315.4375 79.555 315.4375 C78.3206 315.4375 77.2112 316.5312 77.2112 318.2969 C77.2112 320.0938 78.0862 321.125 79.4456 321.125 ZM79.6487 320.375 C78.6956 320.375 78.1487 319.5938 78.1487 318.2812 C78.1487 317.0469 78.8362 316.2031 79.7268 316.2031 C80.1643 316.2031 80.5862 316.3594 81.055 316.7656 L81.055 319.625 C80.5862 320.125 80.1487 320.375 79.6487 320.375 ZM83.8018 321 L84.7081 321 L84.7081 315.5625 L83.8018 315.5625 L83.8018 321 ZM84.255 314.4531 C84.6143 314.4531 84.8643 314.2031 84.8643 313.8438 C84.8643 313.4844 84.6143 313.25 84.255 313.25 C83.8956 313.25 83.6456 313.4844 83.6456 313.8438 C83.6456 314.2031 83.8956 314.4531 84.255 314.4531 ZM88.6925 321.125 C89.3331 321.125 89.9581 320.875 90.4425 320.4375 L90.0518 319.8281 C89.7081 320.1406 89.2706 320.375 88.7706 320.375 C87.7706 320.375 87.0831 319.5469 87.0831 318.2969 C87.0831 317.0469 87.8175 316.1875 88.8018 316.1875 C89.2237 316.1875 89.5675 316.3906 89.88 316.6719 L90.3487 316.0625 C89.9581 315.7344 89.4737 315.4375 88.755 315.4375 C87.3643 315.4375 86.1456 316.4844 86.1456 318.2969 C86.1456 320.0938 87.255 321.125 88.6925 321.125 ZM94.835 321.125 C95.085 321.125 95.2412 321.0938 95.3662 321.0469 L95.2412 320.3438 C95.1475 320.375 95.1006 320.375 95.0537 320.375 C94.9131 320.375 94.7881 320.2656 94.7881 319.9844 L94.7881 313.0469 L93.8818 313.0469 L93.8818 319.9219 C93.8818 320.6875 94.1631 321.125 94.835 321.125 ZM96.7318 321 L97.6381 321 L97.6381 315.5625 L96.7318 315.5625 L96.7318 321 ZM97.185 314.4531 C97.5443 314.4531 97.7943 314.2031 97.7943 313.8438 C97.7943 313.4844 97.5443 313.25 97.185 313.25 C96.8256 313.25 96.5756 313.4844 96.5756 313.8438 C96.5756 314.2031 96.8256 314.4531 97.185 314.4531 ZM99.4818 321 L100.3881 321 L100.3881 317.0625 C100.935 316.5156 101.3256 316.2344 101.8725 316.2344 C102.6068 316.2344 102.9037 316.6562 102.9037 317.6875 L102.9037 321 L103.8256 321 L103.8256 317.5625 C103.8256 316.1719 103.2943 315.4375 102.1537 315.4375 C101.4193 315.4375 100.8568 315.8438 100.3412 316.3438 L100.31 316.3438 L100.2318 315.5625 L99.4818 315.5625 L99.4818 321 ZM105.5918 321 L106.4825 321 L106.4825 319.5625 L107.5137 318.375 L109.1075 321 L110.0918 321 L108.045 317.7656 L109.8575 315.5625 L108.8262 315.5625 L106.5137 318.4375 L106.4825 318.4375 L106.4825 313.0469 L105.5918 313.0469 L105.5918 321 ZM112.3618 321.125 C113.0337 321.125 113.6431 320.7812 114.1587 320.3438 L114.1899 320.3438 L114.2681 321 L115.0181 321 L115.0181 317.6562 C115.0181 316.3125 114.4556 315.4375 113.1431 315.4375 C112.2681 315.4375 111.5024 315.8125 111.0024 316.1406 L111.3618 316.7656 C111.7837 316.4844 112.3618 316.1875 112.9868 316.1875 C113.8774 316.1875 114.1118 316.8594 114.1118 317.5625 C111.7993 317.8125 110.7681 318.4062 110.7681 319.5938 C110.7681 320.5625 111.4556 321.125 112.3618 321.125 ZM112.6274 320.4062 C112.0806 320.4062 111.6587 320.1562 111.6587 319.5312 C111.6587 318.8281 112.2837 318.375 114.1118 318.1562 L114.1118 319.6875 C113.5806 320.1562 113.1431 320.4062 112.6274 320.4062 ZM118.5799 323.5 C120.2674 323.5 121.3299 322.625 121.3299 321.625 C121.3299 320.7344 120.6893 320.3281 119.4237 320.3281 L118.3768 320.3281 C117.6424 320.3281 117.4237 320.0938 117.4237 319.7344 C117.4237 319.4375 117.5643 319.2656 117.7674 319.0938 C118.0174 319.2031 118.3143 319.2812 118.5799 319.2812 C119.6737 319.2812 120.5643 318.5469 120.5643 317.3906 C120.5643 316.9219 120.3768 316.5156 120.1268 316.2656 L121.2362 316.2656 L121.2362 315.5625 L119.3456 315.5625 C119.1424 315.5 118.8768 315.4375 118.5799 315.4375 C117.4862 315.4375 116.5331 316.1875 116.5331 317.375 C116.5331 318.0156 116.8924 318.5469 117.2518 318.8281 L117.2518 318.875 C116.9706 319.0625 116.6424 319.4375 116.6424 319.875 C116.6424 320.3125 116.8456 320.5938 117.1424 320.7656 L117.1424 320.8125 C116.6268 321.1406 116.3456 321.5781 116.3456 322.0469 C116.3456 322.9844 117.2518 323.5 118.5799 323.5 ZM118.5799 318.6562 C117.9549 318.6562 117.4237 318.1562 117.4237 317.375 C117.4237 316.5625 117.9393 316.0938 118.5799 316.0938 C119.2206 316.0938 119.7362 316.5781 119.7362 317.375 C119.7362 318.1562 119.2049 318.6562 118.5799 318.6562 ZM118.7049 322.875 C117.7362 322.875 117.1424 322.5 117.1424 321.9219 C117.1424 321.5938 117.2987 321.2812 117.6893 321 C117.9237 321.0625 118.1893 321.0938 118.3924 321.0938 L119.3299 321.0938 C120.0487 321.0938 120.4393 321.2656 120.4393 321.7656 C120.4393 322.3281 119.7518 322.875 118.7049 322.875 ZM124.5693 321.125 C125.3037 321.125 125.8974 320.875 126.3662 320.5625 L126.0381 319.9688 C125.6474 320.2344 125.2099 320.4062 124.6787 320.4062 C123.6474 320.4062 122.9443 319.6562 122.8818 318.5 L126.5381 318.5 C126.5537 318.375 126.5849 318.1875 126.5849 317.9844 C126.5849 316.4375 125.8037 315.4375 124.4131 315.4375 C123.1631 315.4375 121.9756 316.5312 121.9756 318.2969 C121.9756 320.0781 123.1318 321.125 124.5693 321.125 ZM122.8662 317.8438 C122.9756 316.7812 123.6631 316.1562 124.4287 316.1562 C125.2724 316.1562 125.7724 316.75 125.7724 317.8438 L122.8662 317.8438 ZM129.3437 321.125 C130.6249 321.125 131.3124 320.4062 131.3124 319.5156 C131.3124 318.4844 130.453 318.1719 129.6562 317.875 C129.0468 317.6406 128.4843 317.4531 128.4843 316.9375 C128.4843 316.5156 128.8124 316.1562 129.4999 316.1562 C129.9843 316.1562 130.3593 316.3438 130.7343 316.625 L131.1718 316.0469 C130.7499 315.7031 130.1562 315.4375 129.4843 315.4375 C128.3124 315.4375 127.6093 316.1094 127.6093 316.9688 C127.6093 317.8906 128.4374 318.2656 129.203 318.5469 C129.7968 318.7656 130.4374 319.0156 130.4374 319.5625 C130.4374 320.0469 130.0937 320.4219 129.3749 320.4219 C128.7187 320.4219 128.2343 320.1562 127.7655 319.7812 L127.3124 320.375 C127.828 320.8125 128.5624 321.125 129.3437 321.125 Z"
    /></g
  ></g
></svg
>
