<?xml version="1.0"?>
<!DOCTYPE svg PUBLIC '-//W3C//DTD SVG 1.0//EN'
          'http://www.w3.org/TR/2001/REC-SVG-20010904/DTD/svg10.dtd'>
<svg xmlns:xlink="http://www.w3.org/1999/xlink" style="fill-opacity:1; color-rendering:auto; color-interpolation:auto; text-rendering:auto; stroke:black; stroke-linecap:square; stroke-miterlimit:10; shape-rendering:auto; stroke-opacity:1; fill:black; stroke-dasharray:none; font-weight:normal; stroke-width:1; font-family:'Dialog'; font-style:normal; stroke-linejoin:miter; font-size:12px; stroke-dashoffset:0; image-rendering:auto;" viewBox="0 0 210 134" xmlns="http://www.w3.org/2000/svg"
><!--Generated by the Batik Graphics2D SVG Generator--><defs id="genericDefs"
  /><g
  ><defs id="defs1"
    ><clipPath clipPathUnits="userSpaceOnUse" id="clipPath1"
      ><path style="fill-rule:evenodd;" d="M104 67 L98 74 L87 74 L82 67 L87 59 L98 59 L104 67 Z"
      /></clipPath
      ><clipPath clipPathUnits="userSpaceOnUse" id="clipPath2"
      ><path d="M52 93 C52 99.0751 47.0751 104 41 104 C34.9249 104 30 99.0751 30 93 C30 86.9249 34.9249 82 41 82 C47.0751 82 52 86.9249 52 93 Z"
      /></clipPath
      ><clipPath clipPathUnits="userSpaceOnUse" id="clipPath3"
      ><path d="M52 41 C52 47.0751 47.0751 52 41 52 C34.9249 52 30 47.0751 30 41 C30 34.9249 34.9249 30 41 30 C47.0751 30 52 34.9249 52 41 Z"
      /></clipPath
    ></defs
    ><g style="fill:white; text-rendering:optimizeSpeed; stroke:white;"
    ><rect x="0" width="210" height="134" y="0" style="stroke:none;"
      /><polygon style="fill:none; stroke:black;" points=" 93 67 41 93"
      /><polygon style="fill:none; stroke:black;" points=" 93 67 41 41"
      /><polygon style="clip-path:url(#clipPath1); stroke:none;" points=" 104 67 98 74 87 74 82 67 87 59 98 59 104 67"
      /><rect x="82" y="56" width="22" style="clip-path:url(#clipPath1); stroke:none;" height="22"
      /><rect x="82" y="56" width="22" style="clip-path:url(#clipPath1); fill:none; stroke:black;" height="22"
      /><polygon style="fill:none; stroke:black;" points=" 104 67 98 74 87 74 82 67 87 59 98 59 104 67"
      /><circle style="clip-path:url(#clipPath2); stroke:none;" r="11" cx="41" cy="93"
      /><rect x="30" y="82" width="22" style="clip-path:url(#clipPath2); fill:rgb(0,144,188); stroke:none;" height="22"
      /><rect x="30" y="82" width="22" style="clip-path:url(#clipPath2); fill:none; stroke:black;" height="22"
      /><circle style="fill:none; stroke:black;" r="11" cx="41" cy="93"
      /><circle style="clip-path:url(#clipPath3); stroke:none;" r="11" cx="41" cy="41"
      /><rect x="30" y="30" width="22" style="clip-path:url(#clipPath3); fill:rgb(255,212,0); stroke:none;" height="22"
      /><rect x="30" y="30" width="22" style="clip-path:url(#clipPath3); fill:none; stroke:black;" height="22"
      /><circle style="fill:none; stroke:black;" r="11" cx="41" cy="41"
      /><rect x="60" y="86" width="5" style="stroke:none;" height="10"
    /></g
    ><g style="font-family:'Serif'; text-rendering:optimizeSpeed; "
    ><path style="stroke:none;" d="M61.8906 94.6875 C61.4844 94.6875 61.1562 95.0469 61.1562 95.4219 C61.1562 95.8125 61.4844 96.1562 61.8906 96.1562 C62.2969 96.1562 62.6406 95.8125 62.6406 95.4219 C62.6406 95.0469 62.2969 94.6875 61.8906 94.6875 ZM63.4688 88.5781 C63.7188 88.8906 63.875 89.2656 63.8906 89.6562 C63.8906 90.1875 63.625 90.5 63.0312 90.7656 L62.4062 91.0156 C61.6406 91.3125 61.3906 91.5469 61.3906 91.9375 C61.3906 92.1094 61.4531 92.3438 61.5781 92.8125 L61.7344 93.3438 L62.1094 93.3438 L62.0938 92.5312 C62.0938 92.0938 62.2031 91.9688 62.7812 91.7344 L63.2031 91.5625 C64.0312 91.2188 64.4531 90.6875 64.4531 89.8438 C64.4531 88.1562 62.6562 87.1875 61.5 87.0312 C61.1094 87.125 60.9062 87.2969 60.9062 87.6406 C60.9062 87.9375 61.0625 88.1562 61.7188 88.2656 L63.4688 88.5781 Z"
      /><rect x="53" y="52" width="5" style="fill:white; stroke:none;" height="10"
      /><path style="stroke:none;" d="M54.8906 60.6875 C54.4844 60.6875 54.1562 61.0469 54.1562 61.4219 C54.1562 61.8125 54.4844 62.1562 54.8906 62.1562 C55.2969 62.1562 55.6406 61.8125 55.6406 61.4219 C55.6406 61.0469 55.2969 60.6875 54.8906 60.6875 ZM56.4688 54.5781 C56.7188 54.8906 56.875 55.2656 56.8906 55.6562 C56.8906 56.1875 56.625 56.5 56.0312 56.7656 L55.4062 57.0156 C54.6406 57.3125 54.3906 57.5469 54.3906 57.9375 C54.3906 58.1094 54.4531 58.3438 54.5781 58.8125 L54.7344 59.3438 L55.1094 59.3438 L55.0938 58.5312 C55.0938 58.0938 55.2031 57.9688 55.7812 57.7344 L56.2031 57.5625 C57.0312 57.2188 57.4531 56.6875 57.4531 55.8438 C57.4531 54.1562 55.6562 53.1875 54.5 53.0312 C54.1094 53.125 53.9062 53.2969 53.9062 53.6406 C53.9062 53.9375 54.0625 54.1562 54.7188 54.2656 L56.4688 54.5781 Z"
    /></g
  ></g
></svg
>
