<?xml version="1.0"?>
<!DOCTYPE svg PUBLIC '-//W3C//DTD SVG 1.0//EN'
          'http://www.w3.org/TR/2001/REC-SVG-20010904/DTD/svg10.dtd'>
<svg xmlns:xlink="http://www.w3.org/1999/xlink" style="fill-opacity:1; color-rendering:auto; color-interpolation:auto; text-rendering:auto; stroke:black; stroke-linecap:square; stroke-miterlimit:10; shape-rendering:auto; stroke-opacity:1; fill:black; stroke-dasharray:none; font-weight:normal; stroke-width:1; font-family:'Dialog'; font-style:normal; stroke-linejoin:miter; font-size:12px; stroke-dashoffset:0; image-rendering:auto;" viewBox="0 0 238 134" xmlns="http://www.w3.org/2000/svg"
><!--Generated by the Batik Graphics2D SVG Generator--><defs id="genericDefs"
  /><g
  ><defs id="defs1"
    ><clipPath clipPathUnits="userSpaceOnUse" id="clipPath1"
      ><path d="M134 82 L156 82 L156 104 L134 104 L134 82 Z"
      /></clipPath
      ><clipPath clipPathUnits="userSpaceOnUse" id="clipPath2"
      ><path d="M104 93 C104 99.0751 99.0751 104 93 104 C86.9249 104 82 99.0751 82 93 C82 86.9249 86.9249 82 93 82 C99.0751 82 104 86.9249 104 93 Z"
      /></clipPath
      ><clipPath clipPathUnits="userSpaceOnUse" id="clipPath3"
      ><path style="fill-rule:evenodd;" d="M41 82 L52 93 L41 104 L30 93 Z"
      /></clipPath
      ><clipPath clipPathUnits="userSpaceOnUse" id="clipPath4"
      ><path style="fill-rule:evenodd;" d="M93 52 L82 30 L104 30 Z"
      /></clipPath
    ></defs
    ><g style="fill:white; text-rendering:optimizeSpeed; stroke:white;"
    ><rect x="0" width="238" height="134" y="0" style="stroke:none;"
      /><polygon style="fill:none; stroke:black;" points=" 197 93 145 93"
      /><path d="M197 82 C191.5 87.5 202.5 98.5 197 104" style="fill:none; stroke:black;"
      /><polygon style="fill:none; stroke:black;" points=" 145 93 93 93"
      /><rect x="134" y="82" width="22" style="clip-path:url(#clipPath1); stroke:none;" height="22"
      /><rect x="134" y="82" width="22" style="clip-path:url(#clipPath1); fill:rgb(0,144,188); stroke:none;" height="22"
      /><rect x="134" y="82" width="22" style="clip-path:url(#clipPath1); fill:none; stroke:black;" height="22"
      /><rect x="134" y="82" width="22" style="fill:none; stroke:black;" height="22"
      /><polygon style="fill:none; stroke:black;" points=" 93 93 41 93"
      /><polygon style="fill:none; stroke:black;" points=" 93 93 93 41"
      /><circle style="clip-path:url(#clipPath2); stroke:none;" r="11" cx="93" cy="93"
      /><rect x="82" y="82" width="22" style="clip-path:url(#clipPath2); fill:rgb(255,212,0); stroke:none;" height="22"
      /><rect x="82" y="82" width="22" style="clip-path:url(#clipPath2); fill:none; stroke:black;" height="22"
      /><circle style="fill:none; stroke:black;" r="11" cx="93" cy="93"
      /><polygon style="clip-path:url(#clipPath3); stroke:none;" points=" 41 82 52 93 41 104 30 93"
      /><rect x="30" y="82" width="22" style="clip-path:url(#clipPath3); fill:rgb(0,166,81); stroke:none;" height="22"
      /><rect x="30" y="82" width="22" style="clip-path:url(#clipPath3); fill:none; stroke:black;" height="22"
      /><polygon style="fill:none; stroke:black;" points=" 41 82 52 93 41 104 30 93"
      /><polygon style="clip-path:url(#clipPath4); stroke:none;" points=" 93 52 82 30 104 30"
      /><rect x="82" y="30" width="22" style="clip-path:url(#clipPath4); fill:rgb(237,28,36); stroke:none;" height="22"
      /><rect x="82" y="30" width="22" style="clip-path:url(#clipPath4); fill:none; stroke:black;" height="22"
      /><polygon style="fill:none; stroke:black;" points=" 93 52 82 30 104 30"
    /></g
    ><g style="text-rendering:optimizeSpeed; font-size:10px; font-family:'SansSerif';"
    ><path style="stroke:none;" d="M91 44 L92.875 44 C95.0938 44 96.2969 42.625 96.2969 40.3125 C96.2969 37.9844 95.0938 36.6562 92.8438 36.6562 L91 36.6562 L91 44 ZM91.9375 43.2344 L91.9375 37.4219 L92.7656 37.4219 C94.4844 37.4219 95.3438 38.4531 95.3438 40.3125 C95.3438 42.1562 94.4844 43.2344 92.7656 43.2344 L91.9375 43.2344 Z"
    /></g
    ><g style="fill:white; text-rendering:optimizeSpeed; font-family:'Serif'; stroke:white;"
    ><rect x="71" width="6" height="10" y="96" style="stroke:none;"
      /><path d="M73.2344 97.6562 C73.5156 97.5938 73.7656 97.5625 74.0156 97.5625 C75.0625 97.5625 75.6719 98.1719 75.6719 99.2656 C75.6719 100.4375 74.9062 101.1094 73.7031 101.1094 L73.1875 101.1094 L73.1875 101.6406 L73.7969 101.6406 C75.2188 101.6406 75.9062 102.4219 75.9062 103.6406 C75.9062 104.8438 75.1719 105.6875 73.875 105.6875 C73.6094 105.6875 73.3125 105.6562 73.0156 105.5625 L72.7812 104.8125 C72.625 104.2812 72.5 104.0469 72.1406 104.0469 C71.8906 104.0469 71.7031 104.1719 71.5781 104.4219 C71.8438 105.6406 72.7812 106.1719 74.0312 106.1719 C75.7188 106.1719 76.875 105.125 76.875 103.7031 C76.875 102.5 76.2031 101.625 74.7969 101.375 C75.9531 101.0156 76.6094 100.2031 76.6094 99.2031 C76.6094 97.9219 75.6719 97.0781 74.1875 97.0781 C73.0469 97.0781 72.0625 97.5938 71.7969 98.6875 C71.9062 99 72.1094 99.1094 72.3594 99.1094 C72.7344 99.1094 72.8906 98.8906 73 98.4062 L73.2344 97.6562 Z" style="fill:black; stroke:none;"
      /><rect x="56" width="8" height="8" y="97" style="stroke:none;"
      /><path d="M60.9844 102.7031 C60.9375 103.8906 60.1562 104.6562 59.3125 104.6562 C58.2656 104.6562 57.5 103.6875 57.5 101.7188 C57.5 100.2812 58.1562 99.1562 59.3438 99.1562 C60.1406 99.1562 60.7812 99.6875 61.0938 100.6406 L60.9844 102.7031 ZM62.9062 104.2812 C62.7344 104.375 62.5469 104.4219 62.3438 104.4219 C61.9531 104.4219 61.75 104.2188 61.75 103.4219 C61.75 102.4844 61.9688 100.5312 62.1875 98.8281 L62.0312 98.7188 L61.2344 98.9219 L61.1406 99.7969 C60.7812 99.0312 60.1562 98.6562 59.3906 98.6562 C58.0469 98.6562 56.5625 99.8438 56.5625 101.9531 C56.5625 104.0938 57.7188 105.1719 59.1406 105.1719 C60.0156 105.1719 60.6875 104.8125 61.0938 103.9844 C61.2031 104.8594 61.5156 105.1719 62.0156 105.1719 C62.4688 105.1719 62.7969 104.9062 63.0156 104.5625 L62.9062 104.2812 Z" style="fill:black; stroke:none;"
      /><rect x="81" width="7" height="9" y="69" style="stroke:none;"
      /><path d="M82 74.5156 L84.9531 70.2656 L84.9531 74.5156 L82 74.5156 ZM87.2812 74.5156 L85.8594 74.5156 L85.8594 69.125 L85.2344 69.125 L81.3438 74.6406 L81.3438 75.1875 L84.9531 75.1875 L84.9531 78 L85.8594 78 L85.8594 75.1875 L87.2812 75.1875 L87.2812 74.5156 Z" style="fill:black; stroke:none;"
      /><rect x="81" width="8" height="8" y="56" style="stroke:none;"
      /><path d="M85.9844 61.7031 C85.9375 62.8906 85.1562 63.6562 84.3125 63.6562 C83.2656 63.6562 82.5 62.6875 82.5 60.7188 C82.5 59.2812 83.1562 58.1562 84.3438 58.1562 C85.1406 58.1562 85.7812 58.6875 86.0938 59.6406 L85.9844 61.7031 ZM87.9062 63.2812 C87.7344 63.375 87.5469 63.4219 87.3438 63.4219 C86.9531 63.4219 86.75 63.2188 86.75 62.4219 C86.75 61.4844 86.9688 59.5312 87.1875 57.8281 L87.0312 57.7188 L86.2344 57.9219 L86.1406 58.7969 C85.7812 58.0312 85.1562 57.6562 84.3906 57.6562 C83.0469 57.6562 81.5625 58.8438 81.5625 60.9531 C81.5625 63.0938 82.7188 64.1719 84.1406 64.1719 C85.0156 64.1719 85.6875 63.8125 86.0938 62.9844 C86.2031 63.8594 86.5156 64.1719 87.0156 64.1719 C87.4688 64.1719 87.7969 63.9062 88.0156 63.5625 L87.9062 63.2812 Z" style="fill:black; stroke:none;"
      /><rect x="123" width="6" height="10" y="96" style="stroke:none;"
      /><path d="M125.2344 97.6562 C125.5156 97.5938 125.7656 97.5625 126.0156 97.5625 C127.0625 97.5625 127.6719 98.1719 127.6719 99.2656 C127.6719 100.4375 126.9062 101.1094 125.7031 101.1094 L125.1875 101.1094 L125.1875 101.6406 L125.7969 101.6406 C127.2188 101.6406 127.9062 102.4219 127.9062 103.6406 C127.9062 104.8438 127.1719 105.6875 125.875 105.6875 C125.6094 105.6875 125.3125 105.6562 125.0156 105.5625 L124.7812 104.8125 C124.625 104.2812 124.5 104.0469 124.1406 104.0469 C123.8906 104.0469 123.7031 104.1719 123.5781 104.4219 C123.8438 105.6406 124.7812 106.1719 126.0312 106.1719 C127.7188 106.1719 128.875 105.125 128.875 103.7031 C128.875 102.5 128.2031 101.625 126.7969 101.375 C127.9531 101.0156 128.6094 100.2031 128.6094 99.2031 C128.6094 97.9219 127.6719 97.0781 126.1875 97.0781 C125.0469 97.0781 124.0625 97.5938 123.7969 98.6875 C123.9062 99 124.1094 99.1094 124.3594 99.1094 C124.7344 99.1094 124.8906 98.8906 125 98.4062 L125.2344 97.6562 Z" style="fill:black; stroke:none;"
      /><rect x="109" width="6" height="13" y="94" style="stroke:none;"
      /><path d="M111.0938 100.2031 C111.0938 98.6562 111.75 97.8125 112.7969 97.8125 C113.7188 97.8125 114.2656 98.4531 114.2656 99.5156 C114.2656 100.7188 113.5 101.4375 112.1875 101.7031 L112.2969 102.3125 C114.2188 102.2344 114.9375 103.2188 114.9375 104.4375 C114.9375 105.625 114.2344 106.4219 112.9531 106.4219 C112.25 106.4219 111.6562 106.1562 111.0938 105.7188 L111.0938 100.2031 ZM110.2031 106.9062 L110.1094 109.375 L110.2656 109.4844 L111.1562 109.2656 L111.0156 106.0938 C111.5469 106.8438 112.3594 107.1719 113.1719 107.1719 C114.5625 107.1719 115.8594 106.2188 115.8594 104.4844 C115.8594 102.9531 114.875 102.1094 113.125 102 C114.5625 101.6094 115.1875 100.4531 115.1875 99.4844 C115.1875 98.0938 114.1562 97.3125 112.9062 97.3125 C111.2969 97.3125 110.2188 98.5469 110.2188 100.5156 L110.2031 106.9062 Z" style="fill:black; stroke:none;"
      /><rect x="161" width="5" height="10" y="96" style="stroke:none;"
      /><path d="M162.8906 104.6875 C162.4844 104.6875 162.1562 105.0469 162.1562 105.4219 C162.1562 105.8125 162.4844 106.1562 162.8906 106.1562 C163.2969 106.1562 163.6406 105.8125 163.6406 105.4219 C163.6406 105.0469 163.2969 104.6875 162.8906 104.6875 ZM164.4688 98.5781 C164.7188 98.8906 164.875 99.2656 164.8906 99.6562 C164.8906 100.1875 164.625 100.5 164.0312 100.7656 L163.4062 101.0156 C162.6406 101.3125 162.3906 101.5469 162.3906 101.9375 C162.3906 102.1094 162.4531 102.3438 162.5781 102.8125 L162.7344 103.3438 L163.1094 103.3438 L163.0938 102.5312 C163.0938 102.0938 163.2031 101.9688 163.7812 101.7344 L164.2031 101.5625 C165.0312 101.2188 165.4531 100.6875 165.4531 99.8438 C165.4531 98.1562 163.6562 97.1875 162.5 97.0312 C162.1094 97.125 161.9062 97.2969 161.9062 97.6406 C161.9062 97.9375 162.0625 98.1562 162.7188 98.2656 L164.4688 98.5781 Z" style="fill:black; stroke:none;"
    /></g
  ></g
></svg
>
