<?xml version="1.0"?>
<!DOCTYPE svg PUBLIC '-//W3C//DTD SVG 1.0//EN'
          'http://www.w3.org/TR/2001/REC-SVG-20010904/DTD/svg10.dtd'>
<svg xmlns:xlink="http://www.w3.org/1999/xlink" style="fill-opacity:1; color-rendering:auto; color-interpolation:auto; text-rendering:auto; stroke:black; stroke-linecap:square; stroke-miterlimit:10; shape-rendering:auto; stroke-opacity:1; fill:black; stroke-dasharray:none; font-weight:normal; stroke-width:1; font-family:'Dialog'; font-style:normal; stroke-linejoin:miter; font-size:12px; stroke-dashoffset:0; image-rendering:auto;" viewBox="0 0 550 82" xmlns="http://www.w3.org/2000/svg"
><!--Generated by the Batik Graphics2D SVG Generator--><defs id="genericDefs"
  /><g
  ><defs id="defs1"
    ><clipPath clipPathUnits="userSpaceOnUse" id="clipPath1"
      ><path d="M446 30 L468 30 L468 52 L446 52 L446 30 Z"
      /></clipPath
      ><clipPath clipPathUnits="userSpaceOnUse" id="clipPath2"
      ><path d="M394 30 L416 30 L416 52 L394 52 L394 30 Z"
      /></clipPath
      ><clipPath clipPathUnits="userSpaceOnUse" id="clipPath3"
      ><path d="M342 30 L364 30 L364 52 L342 52 L342 30 Z"
      /></clipPath
      ><clipPath clipPathUnits="userSpaceOnUse" id="clipPath4"
      ><path d="M290 30 L312 30 L312 52 L290 52 L290 30 Z"
      /></clipPath
      ><clipPath clipPathUnits="userSpaceOnUse" id="clipPath5"
      ><path d="M238 30 L260 30 L260 52 L238 52 L238 30 Z"
      /></clipPath
      ><clipPath clipPathUnits="userSpaceOnUse" id="clipPath6"
      ><path d="M186 30 L208 30 L208 52 L186 52 L186 30 Z"
      /></clipPath
      ><clipPath clipPathUnits="userSpaceOnUse" id="clipPath7"
      ><path d="M134 30 L156 30 L156 52 L134 52 L134 30 Z"
      /></clipPath
      ><clipPath clipPathUnits="userSpaceOnUse" id="clipPath8"
      ><path d="M82 30 L104 30 L104 52 L82 52 L82 30 Z"
      /></clipPath
      ><clipPath clipPathUnits="userSpaceOnUse" id="clipPath9"
      ><path d="M30 30 L52 30 L52 52 L30 52 L30 30 Z"
      /></clipPath
    ></defs
    ><g style="fill:white; text-rendering:optimizeSpeed; stroke:white;"
    ><rect x="0" width="550" height="82" y="0" style="stroke:none;"
      /><polygon style="fill:none; stroke:black;" points=" 509 41 457 41"
      /><path d="M509 30 C503.5 35.5 514.5 46.5 509 52" style="fill:none; stroke:black;"
      /><polygon style="fill:none; stroke:black;" points=" 457 41 405 41"
      /><rect x="446" y="30" width="22" style="clip-path:url(#clipPath1); stroke:none;" height="22"
      /><rect x="446" y="30" width="22" style="clip-path:url(#clipPath1); fill:rgb(0,144,188); stroke:none;" height="22"
      /><rect x="446" y="30" width="22" style="clip-path:url(#clipPath1); fill:none; stroke:black;" height="22"
      /><rect x="446" y="30" width="22" style="fill:none; stroke:black;" height="22"
      /><polygon style="fill:none; stroke:black;" points=" 405 41 353 41"
      /><rect x="394" y="30" width="22" style="clip-path:url(#clipPath2); stroke:none;" height="22"
      /><rect x="394" y="30" width="22" style="clip-path:url(#clipPath2); fill:rgb(0,144,188); stroke:none;" height="22"
      /><rect x="394" y="30" width="22" style="clip-path:url(#clipPath2); fill:none; stroke:black;" height="22"
      /><rect x="394" y="30" width="22" style="fill:none; stroke:black;" height="22"
      /><polygon style="fill:none; stroke:black;" points=" 353 41 301 41"
      /><rect x="342" y="30" width="22" style="clip-path:url(#clipPath3); stroke:none;" height="22"
      /><rect x="342" y="30" width="22" style="clip-path:url(#clipPath3); fill:rgb(0,144,188); stroke:none;" height="22"
      /><rect x="342" y="30" width="22" style="clip-path:url(#clipPath3); fill:none; stroke:black;" height="22"
      /><rect x="342" y="30" width="22" style="fill:none; stroke:black;" height="22"
      /><polygon style="fill:none; stroke:black;" points=" 301 41 249 41"
      /><rect x="290" y="30" width="22" style="clip-path:url(#clipPath4); stroke:none;" height="22"
      /><rect x="290" y="30" width="22" style="clip-path:url(#clipPath4); fill:rgb(0,144,188); stroke:none;" height="22"
      /><rect x="290" y="30" width="22" style="clip-path:url(#clipPath4); fill:none; stroke:black;" height="22"
      /><rect x="290" y="30" width="22" style="fill:none; stroke:black;" height="22"
      /><polygon style="fill:none; stroke:black;" points=" 249 41 197 41"
      /><rect x="238" y="30" width="22" style="clip-path:url(#clipPath5); stroke:none;" height="22"
      /><rect x="238" y="30" width="22" style="clip-path:url(#clipPath5); fill:rgb(0,144,188); stroke:none;" height="22"
      /><rect x="238" y="30" width="22" style="clip-path:url(#clipPath5); fill:none; stroke:black;" height="22"
      /><rect x="238" y="30" width="22" style="fill:none; stroke:black;" height="22"
      /><polygon style="fill:none; stroke:black;" points=" 197 41 145 41"
      /><rect x="186" y="30" width="22" style="clip-path:url(#clipPath6); stroke:none;" height="22"
      /><rect x="186" y="30" width="22" style="clip-path:url(#clipPath6); fill:rgb(0,144,188); stroke:none;" height="22"
      /><rect x="186" y="30" width="22" style="clip-path:url(#clipPath6); fill:none; stroke:black;" height="22"
      /><rect x="186" y="30" width="22" style="fill:none; stroke:black;" height="22"
      /><polygon style="fill:none; stroke:black;" points=" 145 41 93 41"
      /><rect x="134" y="30" width="22" style="clip-path:url(#clipPath7); stroke:none;" height="22"
      /><rect x="134" y="30" width="22" style="clip-path:url(#clipPath7); fill:rgb(0,144,188); stroke:none;" height="22"
      /><rect x="134" y="30" width="22" style="clip-path:url(#clipPath7); fill:none; stroke:black;" height="22"
      /><rect x="134" y="30" width="22" style="fill:none; stroke:black;" height="22"
      /><polygon style="fill:none; stroke:black;" points=" 93 41 41 41"
      /><rect x="82" y="30" width="22" style="clip-path:url(#clipPath8); stroke:none;" height="22"
      /><rect x="82" y="30" width="22" style="clip-path:url(#clipPath8); fill:rgb(0,144,188); stroke:none;" height="22"
      /><rect x="82" y="30" width="22" style="clip-path:url(#clipPath8); fill:none; stroke:black;" height="22"
      /><rect x="82" y="30" width="22" style="fill:none; stroke:black;" height="22"
      /><rect x="30" y="30" width="22" style="clip-path:url(#clipPath9); stroke:none;" height="22"
      /><rect x="30" y="30" width="22" style="clip-path:url(#clipPath9); fill:rgb(0,144,188); stroke:none;" height="22"
      /><rect x="30" y="30" width="22" style="clip-path:url(#clipPath9); fill:none; stroke:black;" height="22"
      /><rect x="30" y="30" width="22" style="fill:none; stroke:black;" height="22"
      /><rect x="71" y="44" width="6" style="stroke:none;" height="10"
    /></g
    ><g style="font-family:'Serif'; text-rendering:optimizeSpeed; "
    ><path style="stroke:none;" d="M74.3438 53.6875 C73.2031 53.6875 72.5312 52.5 72.5312 50.2969 C72.5312 50.2188 72.5312 50.125 72.5312 50.0469 C73.0938 49.5 73.7188 49.3125 74.3438 49.3125 C75.3125 49.3125 75.9531 49.9844 75.9531 51.4531 C75.9531 52.9375 75.3125 53.6875 74.3438 53.6875 ZM76.5312 45.0781 C73.3438 45.4531 71.5625 47.7656 71.5625 50.4531 C71.5625 52.7812 72.6094 54.1719 74.3125 54.1719 C75.8438 54.1719 76.9219 53.1094 76.9219 51.2812 C76.9219 49.6875 75.9688 48.6562 74.5625 48.6562 C73.8281 48.6562 73.1406 48.9844 72.5781 49.5781 C72.7969 47.4062 74.0781 45.9688 76.5938 45.3906 L76.5312 45.0781 Z"
      /><rect x="57" y="42" width="6" style="fill:white; stroke:none;" height="13"
      /><path style="stroke:none;" d="M59.0938 48.2031 C59.0938 46.6562 59.75 45.8125 60.7969 45.8125 C61.7188 45.8125 62.2656 46.4531 62.2656 47.5156 C62.2656 48.7188 61.5 49.4375 60.1875 49.7031 L60.2969 50.3125 C62.2188 50.2344 62.9375 51.2188 62.9375 52.4375 C62.9375 53.625 62.2344 54.4219 60.9531 54.4219 C60.25 54.4219 59.6562 54.1562 59.0938 53.7188 L59.0938 48.2031 ZM58.2031 54.9062 L58.1094 57.375 L58.2656 57.4844 L59.1562 57.2656 L59.0156 54.0938 C59.5469 54.8438 60.3594 55.1719 61.1719 55.1719 C62.5625 55.1719 63.8594 54.2188 63.8594 52.4844 C63.8594 50.9531 62.875 50.1094 61.125 50 C62.5625 49.6094 63.1875 48.4531 63.1875 47.4844 C63.1875 46.0938 62.1562 45.3125 60.9062 45.3125 C59.2969 45.3125 58.2188 46.5469 58.2188 48.5156 L58.2031 54.9062 Z"
      /><rect x="123" y="44" width="6" style="fill:white; stroke:none;" height="10"
      /><path style="stroke:none;" d="M126.3438 53.6875 C125.2031 53.6875 124.5312 52.5 124.5312 50.2969 C124.5312 50.2188 124.5312 50.125 124.5312 50.0469 C125.0938 49.5 125.7188 49.3125 126.3438 49.3125 C127.3125 49.3125 127.9531 49.9844 127.9531 51.4531 C127.9531 52.9375 127.3125 53.6875 126.3438 53.6875 ZM128.5312 45.0781 C125.3438 45.4531 123.5625 47.7656 123.5625 50.4531 C123.5625 52.7812 124.6094 54.1719 126.3125 54.1719 C127.8438 54.1719 128.9219 53.1094 128.9219 51.2812 C128.9219 49.6875 127.9688 48.6562 126.5625 48.6562 C125.8281 48.6562 125.1406 48.9844 124.5781 49.5781 C124.7969 47.4062 126.0781 45.9688 128.5938 45.3906 L128.5312 45.0781 Z"
      /><rect x="109" y="42" width="6" style="fill:white; stroke:none;" height="13"
      /><path style="stroke:none;" d="M111.0938 48.2031 C111.0938 46.6562 111.75 45.8125 112.7969 45.8125 C113.7188 45.8125 114.2656 46.4531 114.2656 47.5156 C114.2656 48.7188 113.5 49.4375 112.1875 49.7031 L112.2969 50.3125 C114.2188 50.2344 114.9375 51.2188 114.9375 52.4375 C114.9375 53.625 114.2344 54.4219 112.9531 54.4219 C112.25 54.4219 111.6562 54.1562 111.0938 53.7188 L111.0938 48.2031 ZM110.2031 54.9062 L110.1094 57.375 L110.2656 57.4844 L111.1562 57.2656 L111.0156 54.0938 C111.5469 54.8438 112.3594 55.1719 113.1719 55.1719 C114.5625 55.1719 115.8594 54.2188 115.8594 52.4844 C115.8594 50.9531 114.875 50.1094 113.125 50 C114.5625 49.6094 115.1875 48.4531 115.1875 47.4844 C115.1875 46.0938 114.1562 45.3125 112.9062 45.3125 C111.2969 45.3125 110.2188 46.5469 110.2188 48.5156 L110.2031 54.9062 Z"
      /><rect x="175" y="44" width="6" style="fill:white; stroke:none;" height="10"
      /><path style="stroke:none;" d="M178.3438 53.6875 C177.2031 53.6875 176.5312 52.5 176.5312 50.2969 C176.5312 50.2188 176.5312 50.125 176.5312 50.0469 C177.0938 49.5 177.7188 49.3125 178.3438 49.3125 C179.3125 49.3125 179.9531 49.9844 179.9531 51.4531 C179.9531 52.9375 179.3125 53.6875 178.3438 53.6875 ZM180.5312 45.0781 C177.3438 45.4531 175.5625 47.7656 175.5625 50.4531 C175.5625 52.7812 176.6094 54.1719 178.3125 54.1719 C179.8438 54.1719 180.9219 53.1094 180.9219 51.2812 C180.9219 49.6875 179.9688 48.6562 178.5625 48.6562 C177.8281 48.6562 177.1406 48.9844 176.5781 49.5781 C176.7969 47.4062 178.0781 45.9688 180.5938 45.3906 L180.5312 45.0781 Z"
      /><rect x="161" y="42" width="6" style="fill:white; stroke:none;" height="13"
      /><path style="stroke:none;" d="M163.0938 48.2031 C163.0938 46.6562 163.75 45.8125 164.7969 45.8125 C165.7188 45.8125 166.2656 46.4531 166.2656 47.5156 C166.2656 48.7188 165.5 49.4375 164.1875 49.7031 L164.2969 50.3125 C166.2188 50.2344 166.9375 51.2188 166.9375 52.4375 C166.9375 53.625 166.2344 54.4219 164.9531 54.4219 C164.25 54.4219 163.6562 54.1562 163.0938 53.7188 L163.0938 48.2031 ZM162.2031 54.9062 L162.1094 57.375 L162.2656 57.4844 L163.1562 57.2656 L163.0156 54.0938 C163.5469 54.8438 164.3594 55.1719 165.1719 55.1719 C166.5625 55.1719 167.8594 54.2188 167.8594 52.4844 C167.8594 50.9531 166.875 50.1094 165.125 50 C166.5625 49.6094 167.1875 48.4531 167.1875 47.4844 C167.1875 46.0938 166.1562 45.3125 164.9062 45.3125 C163.2969 45.3125 162.2188 46.5469 162.2188 48.5156 L162.2031 54.9062 Z"
      /><rect x="227" y="44" width="6" style="fill:white; stroke:none;" height="10"
      /><path style="stroke:none;" d="M230.3438 53.6875 C229.2031 53.6875 228.5312 52.5 228.5312 50.2969 C228.5312 50.2188 228.5312 50.125 228.5312 50.0469 C229.0938 49.5 229.7188 49.3125 230.3438 49.3125 C231.3125 49.3125 231.9531 49.9844 231.9531 51.4531 C231.9531 52.9375 231.3125 53.6875 230.3438 53.6875 ZM232.5312 45.0781 C229.3438 45.4531 227.5625 47.7656 227.5625 50.4531 C227.5625 52.7812 228.6094 54.1719 230.3125 54.1719 C231.8438 54.1719 232.9219 53.1094 232.9219 51.2812 C232.9219 49.6875 231.9688 48.6562 230.5625 48.6562 C229.8281 48.6562 229.1406 48.9844 228.5781 49.5781 C228.7969 47.4062 230.0781 45.9688 232.5938 45.3906 L232.5312 45.0781 Z"
      /><rect x="213" y="42" width="6" style="fill:white; stroke:none;" height="13"
      /><path style="stroke:none;" d="M215.0938 48.2031 C215.0938 46.6562 215.75 45.8125 216.7969 45.8125 C217.7188 45.8125 218.2656 46.4531 218.2656 47.5156 C218.2656 48.7188 217.5 49.4375 216.1875 49.7031 L216.2969 50.3125 C218.2188 50.2344 218.9375 51.2188 218.9375 52.4375 C218.9375 53.625 218.2344 54.4219 216.9531 54.4219 C216.25 54.4219 215.6562 54.1562 215.0938 53.7188 L215.0938 48.2031 ZM214.2031 54.9062 L214.1094 57.375 L214.2656 57.4844 L215.1562 57.2656 L215.0156 54.0938 C215.5469 54.8438 216.3594 55.1719 217.1719 55.1719 C218.5625 55.1719 219.8594 54.2188 219.8594 52.4844 C219.8594 50.9531 218.875 50.1094 217.125 50 C218.5625 49.6094 219.1875 48.4531 219.1875 47.4844 C219.1875 46.0938 218.1562 45.3125 216.9062 45.3125 C215.2969 45.3125 214.2188 46.5469 214.2188 48.5156 L214.2031 54.9062 Z"
      /><rect x="279" y="44" width="6" style="fill:white; stroke:none;" height="10"
      /><path style="stroke:none;" d="M282.3438 53.6875 C281.2031 53.6875 280.5312 52.5 280.5312 50.2969 C280.5312 50.2188 280.5312 50.125 280.5312 50.0469 C281.0938 49.5 281.7188 49.3125 282.3438 49.3125 C283.3125 49.3125 283.9531 49.9844 283.9531 51.4531 C283.9531 52.9375 283.3125 53.6875 282.3438 53.6875 ZM284.5312 45.0781 C281.3438 45.4531 279.5625 47.7656 279.5625 50.4531 C279.5625 52.7812 280.6094 54.1719 282.3125 54.1719 C283.8438 54.1719 284.9219 53.1094 284.9219 51.2812 C284.9219 49.6875 283.9688 48.6562 282.5625 48.6562 C281.8281 48.6562 281.1406 48.9844 280.5781 49.5781 C280.7969 47.4062 282.0781 45.9688 284.5938 45.3906 L284.5312 45.0781 Z"
      /><rect x="265" y="42" width="6" style="fill:white; stroke:none;" height="13"
      /><path style="stroke:none;" d="M267.0938 48.2031 C267.0938 46.6562 267.75 45.8125 268.7969 45.8125 C269.7188 45.8125 270.2656 46.4531 270.2656 47.5156 C270.2656 48.7188 269.5 49.4375 268.1875 49.7031 L268.2969 50.3125 C270.2188 50.2344 270.9375 51.2188 270.9375 52.4375 C270.9375 53.625 270.2344 54.4219 268.9531 54.4219 C268.25 54.4219 267.6562 54.1562 267.0938 53.7188 L267.0938 48.2031 ZM266.2031 54.9062 L266.1094 57.375 L266.2656 57.4844 L267.1562 57.2656 L267.0156 54.0938 C267.5469 54.8438 268.3594 55.1719 269.1719 55.1719 C270.5625 55.1719 271.8594 54.2188 271.8594 52.4844 C271.8594 50.9531 270.875 50.1094 269.125 50 C270.5625 49.6094 271.1875 48.4531 271.1875 47.4844 C271.1875 46.0938 270.1562 45.3125 268.9062 45.3125 C267.2969 45.3125 266.2188 46.5469 266.2188 48.5156 L266.2031 54.9062 Z"
      /><rect x="331" y="44" width="6" style="fill:white; stroke:none;" height="10"
      /><path style="stroke:none;" d="M334.3438 53.6875 C333.2031 53.6875 332.5312 52.5 332.5312 50.2969 C332.5312 50.2188 332.5312 50.125 332.5312 50.0469 C333.0938 49.5 333.7188 49.3125 334.3438 49.3125 C335.3125 49.3125 335.9531 49.9844 335.9531 51.4531 C335.9531 52.9375 335.3125 53.6875 334.3438 53.6875 ZM336.5312 45.0781 C333.3438 45.4531 331.5625 47.7656 331.5625 50.4531 C331.5625 52.7812 332.6094 54.1719 334.3125 54.1719 C335.8438 54.1719 336.9219 53.1094 336.9219 51.2812 C336.9219 49.6875 335.9688 48.6562 334.5625 48.6562 C333.8281 48.6562 333.1406 48.9844 332.5781 49.5781 C332.7969 47.4062 334.0781 45.9688 336.5938 45.3906 L336.5312 45.0781 Z"
      /><rect x="317" y="42" width="6" style="fill:white; stroke:none;" height="13"
      /><path style="stroke:none;" d="M319.0938 48.2031 C319.0938 46.6562 319.75 45.8125 320.7969 45.8125 C321.7188 45.8125 322.2656 46.4531 322.2656 47.5156 C322.2656 48.7188 321.5 49.4375 320.1875 49.7031 L320.2969 50.3125 C322.2188 50.2344 322.9375 51.2188 322.9375 52.4375 C322.9375 53.625 322.2344 54.4219 320.9531 54.4219 C320.25 54.4219 319.6562 54.1562 319.0938 53.7188 L319.0938 48.2031 ZM318.2031 54.9062 L318.1094 57.375 L318.2656 57.4844 L319.1562 57.2656 L319.0156 54.0938 C319.5469 54.8438 320.3594 55.1719 321.1719 55.1719 C322.5625 55.1719 323.8594 54.2188 323.8594 52.4844 C323.8594 50.9531 322.875 50.1094 321.125 50 C322.5625 49.6094 323.1875 48.4531 323.1875 47.4844 C323.1875 46.0938 322.1562 45.3125 320.9062 45.3125 C319.2969 45.3125 318.2188 46.5469 318.2188 48.5156 L318.2031 54.9062 Z"
      /><rect x="383" y="44" width="6" style="fill:white; stroke:none;" height="10"
      /><path style="stroke:none;" d="M386.3438 53.6875 C385.2031 53.6875 384.5312 52.5 384.5312 50.2969 C384.5312 50.2188 384.5312 50.125 384.5312 50.0469 C385.0938 49.5 385.7188 49.3125 386.3438 49.3125 C387.3125 49.3125 387.9531 49.9844 387.9531 51.4531 C387.9531 52.9375 387.3125 53.6875 386.3438 53.6875 ZM388.5312 45.0781 C385.3438 45.4531 383.5625 47.7656 383.5625 50.4531 C383.5625 52.7812 384.6094 54.1719 386.3125 54.1719 C387.8438 54.1719 388.9219 53.1094 388.9219 51.2812 C388.9219 49.6875 387.9688 48.6562 386.5625 48.6562 C385.8281 48.6562 385.1406 48.9844 384.5781 49.5781 C384.7969 47.4062 386.0781 45.9688 388.5938 45.3906 L388.5312 45.0781 Z"
      /><rect x="369" y="42" width="6" style="fill:white; stroke:none;" height="13"
      /><path style="stroke:none;" d="M371.0938 48.2031 C371.0938 46.6562 371.75 45.8125 372.7969 45.8125 C373.7188 45.8125 374.2656 46.4531 374.2656 47.5156 C374.2656 48.7188 373.5 49.4375 372.1875 49.7031 L372.2969 50.3125 C374.2188 50.2344 374.9375 51.2188 374.9375 52.4375 C374.9375 53.625 374.2344 54.4219 372.9531 54.4219 C372.25 54.4219 371.6562 54.1562 371.0938 53.7188 L371.0938 48.2031 ZM370.2031 54.9062 L370.1094 57.375 L370.2656 57.4844 L371.1562 57.2656 L371.0156 54.0938 C371.5469 54.8438 372.3594 55.1719 373.1719 55.1719 C374.5625 55.1719 375.8594 54.2188 375.8594 52.4844 C375.8594 50.9531 374.875 50.1094 373.125 50 C374.5625 49.6094 375.1875 48.4531 375.1875 47.4844 C375.1875 46.0938 374.1562 45.3125 372.9062 45.3125 C371.2969 45.3125 370.2188 46.5469 370.2188 48.5156 L370.2031 54.9062 Z"
      /><rect x="435" y="44" width="6" style="fill:white; stroke:none;" height="10"
      /><path style="stroke:none;" d="M438.3438 53.6875 C437.2031 53.6875 436.5312 52.5 436.5312 50.2969 C436.5312 50.2188 436.5312 50.125 436.5312 50.0469 C437.0938 49.5 437.7188 49.3125 438.3438 49.3125 C439.3125 49.3125 439.9531 49.9844 439.9531 51.4531 C439.9531 52.9375 439.3125 53.6875 438.3438 53.6875 ZM440.5312 45.0781 C437.3438 45.4531 435.5625 47.7656 435.5625 50.4531 C435.5625 52.7812 436.6094 54.1719 438.3125 54.1719 C439.8438 54.1719 440.9219 53.1094 440.9219 51.2812 C440.9219 49.6875 439.9688 48.6562 438.5625 48.6562 C437.8281 48.6562 437.1406 48.9844 436.5781 49.5781 C436.7969 47.4062 438.0781 45.9688 440.5938 45.3906 L440.5312 45.0781 Z"
      /><rect x="421" y="42" width="6" style="fill:white; stroke:none;" height="13"
      /><path style="stroke:none;" d="M423.0938 48.2031 C423.0938 46.6562 423.75 45.8125 424.7969 45.8125 C425.7188 45.8125 426.2656 46.4531 426.2656 47.5156 C426.2656 48.7188 425.5 49.4375 424.1875 49.7031 L424.2969 50.3125 C426.2188 50.2344 426.9375 51.2188 426.9375 52.4375 C426.9375 53.625 426.2344 54.4219 424.9531 54.4219 C424.25 54.4219 423.6562 54.1562 423.0938 53.7188 L423.0938 48.2031 ZM422.2031 54.9062 L422.1094 57.375 L422.2656 57.4844 L423.1562 57.2656 L423.0156 54.0938 C423.5469 54.8438 424.3594 55.1719 425.1719 55.1719 C426.5625 55.1719 427.8594 54.2188 427.8594 52.4844 C427.8594 50.9531 426.875 50.1094 425.125 50 C426.5625 49.6094 427.1875 48.4531 427.1875 47.4844 C427.1875 46.0938 426.1562 45.3125 424.9062 45.3125 C423.2969 45.3125 422.2188 46.5469 422.2188 48.5156 L422.2031 54.9062 Z"
      /><rect x="473" y="42" width="6" style="fill:white; stroke:none;" height="13"
      /><path style="stroke:none;" d="M475.0938 48.2031 C475.0938 46.6562 475.75 45.8125 476.7969 45.8125 C477.7188 45.8125 478.2656 46.4531 478.2656 47.5156 C478.2656 48.7188 477.5 49.4375 476.1875 49.7031 L476.2969 50.3125 C478.2188 50.2344 478.9375 51.2188 478.9375 52.4375 C478.9375 53.625 478.2344 54.4219 476.9531 54.4219 C476.25 54.4219 475.6562 54.1562 475.0938 53.7188 L475.0938 48.2031 ZM474.2031 54.9062 L474.1094 57.375 L474.2656 57.4844 L475.1562 57.2656 L475.0156 54.0938 C475.5469 54.8438 476.3594 55.1719 477.1719 55.1719 C478.5625 55.1719 479.8594 54.2188 479.8594 52.4844 C479.8594 50.9531 478.875 50.1094 477.125 50 C478.5625 49.6094 479.1875 48.4531 479.1875 47.4844 C479.1875 46.0938 478.1562 45.3125 476.9062 45.3125 C475.2969 45.3125 474.2188 46.5469 474.2188 48.5156 L474.2031 54.9062 Z"
    /></g
  ></g
></svg
>
