<?xml version="1.0"?>
<!DOCTYPE svg PUBLIC '-//W3C//DTD SVG 1.0//EN'
          'http://www.w3.org/TR/2001/REC-SVG-20010904/DTD/svg10.dtd'>
<svg xmlns:xlink="http://www.w3.org/1999/xlink" style="fill-opacity:1; color-rendering:auto; color-interpolation:auto; text-rendering:auto; stroke:black; stroke-linecap:square; stroke-miterlimit:10; shape-rendering:auto; stroke-opacity:1; fill:black; stroke-dasharray:none; font-weight:normal; stroke-width:1; font-family:'Dialog'; font-style:normal; stroke-linejoin:miter; font-size:12px; stroke-dashoffset:0; image-rendering:auto;" viewBox="0 0 159 143" xmlns="http://www.w3.org/2000/svg"
><!--Generated by the Batik Graphics2D SVG Generator--><defs id="genericDefs"
  /><g
  ><defs id="defs1"
    ><clipPath clipPathUnits="userSpaceOnUse" id="clipPath1"
      ><path style="fill-rule:evenodd;" d="M53 53 L63 60 L59 72 L46 72 L42 60 L53 53 Z"
      /></clipPath
    ></defs
    ><g style="fill:white; text-rendering:optimizeSpeed; stroke:white;"
    ><rect x="0" width="159" height="143" y="0" style="stroke:none;"
      /><polygon style="fill:none; stroke:black;" points=" 118 64 53 64"
      /><path d="M118 53 C112.5 58.5 123.5 69.5 118 75" style="fill:none; stroke:black;"
      /><polygon style="clip-path:url(#clipPath1); stroke:none;" points=" 53 53 63 60 59 72 46 72 42 60 53 53"
      /><rect x="42" y="53" width="22" style="clip-path:url(#clipPath1); stroke:none;" height="22"
      /><rect x="42" y="53" width="22" style="clip-path:url(#clipPath1); fill:none; stroke:black;" height="22"
      /><polygon style="fill:none; stroke:black;" points=" 53 53 63 60 59 72 46 72 42 60 53 53"
    /></g
    ><g style="text-rendering:optimizeSpeed; font-size:14px; font-family:'SansSerif';"
    ><path style="stroke:none;" d="M51.2344 69 L56.8594 69 L56.8594 67.9375 L54.7969 67.9375 L54.7969 58.7188 L53.8281 58.7188 C53.2656 59.0625 52.6094 59.2969 51.6875 59.4688 L51.6875 60.2812 L53.5156 60.2812 L53.5156 67.9375 L51.2344 67.9375 L51.2344 69 Z"
      /><rect x="53" y="81" width="22" style="fill:white; stroke:none;" height="10"
      /><path style="stroke:none;" d="M56.7031 92.1875 C58.5156 92.1875 59.9844 91.0938 59.9844 89.25 C59.9844 87.8594 59.0156 86.9375 57.8125 86.6562 L57.8125 86.5938 C58.8906 86.1875 59.6406 85.3594 59.6406 84.125 C59.6406 82.5 58.375 81.5469 56.6562 81.5469 C55.4688 81.5469 54.5469 82.0625 53.7812 82.7812 L54.4688 83.5938 C55.0469 83 55.7656 82.5938 56.5938 82.5938 C57.6562 82.5938 58.3281 83.2344 58.3281 84.2188 C58.3281 85.3281 57.6094 86.1719 55.4844 86.1719 L55.4844 87.1562 C57.8594 87.1562 58.6875 87.9844 58.6875 89.2031 C58.6875 90.3906 57.8125 91.125 56.5938 91.125 C55.4375 91.125 54.6562 90.5781 54.0469 89.9375 L53.4062 90.7812 C54.0781 91.5156 55.0938 92.1875 56.7031 92.1875 ZM63.9418 86.2656 C64.3168 85.0938 64.645 83.9844 64.9731 82.7812 L65.02 82.7812 C65.3637 83.9844 65.6762 85.0938 66.0668 86.2656 L66.5512 87.8281 L63.4418 87.8281 L63.9418 86.2656 ZM60.8168 92 L62.1293 92 L63.1293 88.8594 L66.8793 88.8594 L67.8481 92 L69.2231 92 L65.7387 81.7188 L64.3012 81.7188 L60.8168 92 ZM73.5492 92.1875 C74.4554 92.1875 75.3304 91.8281 76.0179 91.2188 L75.4554 90.3594 C74.9867 90.7969 74.3617 91.125 73.6586 91.125 C72.2679 91.125 71.3148 89.9531 71.3148 88.2031 C71.3148 86.4531 72.3148 85.2656 73.7054 85.2656 C74.3148 85.2656 74.7679 85.5469 75.2211 85.9375 L75.8773 85.0938 C75.3304 84.625 74.6429 84.2031 73.6429 84.2031 C71.7054 84.2031 69.9867 85.6719 69.9867 88.2031 C69.9867 90.7188 71.5336 92.1875 73.5492 92.1875 Z"
      /><rect x="41" y="35" width="22" style="fill:white; stroke:none;" height="10"
      /><path style="stroke:none;" d="M42.6094 42.1562 L44.9531 38.6562 C45.2344 38.1406 45.5156 37.6406 45.7812 37.1406 L45.8281 37.1406 C45.7969 37.6719 45.7656 38.5 45.7656 39 L45.7656 42.1562 L42.6094 42.1562 ZM45.7656 46 L46.9688 46 L46.9688 43.1719 L48.3281 43.1719 L48.3281 42.1562 L46.9688 42.1562 L46.9688 35.7188 L45.5469 35.7188 L41.2812 42.3281 L41.2812 43.1719 L45.7656 43.1719 L45.7656 46 ZM51.9418 40.2656 C52.3168 39.0938 52.645 37.9844 52.9731 36.7812 L53.02 36.7812 C53.3637 37.9844 53.6762 39.0938 54.0668 40.2656 L54.5512 41.8281 L51.4418 41.8281 L51.9418 40.2656 ZM48.8168 46 L50.1293 46 L51.1293 42.8594 L54.8793 42.8594 L55.8481 46 L57.2231 46 L53.7387 35.7188 L52.3012 35.7188 L48.8168 46 ZM61.5492 46.1875 C62.4554 46.1875 63.3304 45.8281 64.0179 45.2188 L63.4554 44.3594 C62.9867 44.7969 62.3617 45.125 61.6586 45.125 C60.2679 45.125 59.3148 43.9531 59.3148 42.2031 C59.3148 40.4531 60.3148 39.2656 61.7054 39.2656 C62.3148 39.2656 62.7679 39.5469 63.2211 39.9375 L63.8773 39.0938 C63.3304 38.625 62.6429 38.2031 61.6429 38.2031 C59.7054 38.2031 57.9867 39.6719 57.9867 42.2031 C57.9867 44.7188 59.5336 46.1875 61.5492 46.1875 Z"
      /><rect x="33" y="81" width="14" style="fill:white; stroke:none;" height="11"
      /><path style="stroke:none;" d="M33.6094 92 L40.0625 92 L40.0625 90.8906 L37.2344 90.8906 C36.7031 90.8906 36.0781 90.9531 35.5469 90.9844 C37.9531 88.7031 39.5625 86.625 39.5625 84.5781 C39.5625 82.75 38.4219 81.5469 36.5781 81.5469 C35.2812 81.5469 34.4062 82.1406 33.5625 83.0469 L34.2969 83.7812 C34.8594 83.1094 35.5938 82.5938 36.4375 82.5938 C37.7031 82.5938 38.3125 83.4531 38.3125 84.625 C38.3125 86.3906 36.8438 88.4375 33.6094 91.25 L33.6094 92 ZM44.645 92.1875 C45.5512 92.1875 46.3637 91.6875 46.9575 91.1094 L47.0043 91.1094 L47.1137 92 L48.145 92 L48.145 80.8594 L46.895 80.8594 L46.895 83.7812 L46.9418 85.0938 C46.27 84.5312 45.6918 84.2031 44.8012 84.2031 C43.0668 84.2031 41.5043 85.7344 41.5043 88.2031 C41.5043 90.7344 42.7387 92.1875 44.645 92.1875 ZM44.9262 91.125 C43.5825 91.125 42.8325 90.0312 42.8325 88.1875 C42.8325 86.4531 43.8012 85.2812 45.02 85.2812 C45.6606 85.2812 46.2231 85.5 46.895 86.0781 L46.895 90.0625 C46.2387 90.7656 45.6293 91.125 44.9262 91.125 Z"
    /></g
    ><g style="fill:white; text-rendering:optimizeSpeed; font-family:'Serif'; stroke:white;"
    ><rect x="81" width="8" height="8" y="68" style="stroke:none;"
      /><path d="M85.9844 73.7031 C85.9375 74.8906 85.1562 75.6562 84.3125 75.6562 C83.2656 75.6562 82.5 74.6875 82.5 72.7188 C82.5 71.2812 83.1562 70.1562 84.3438 70.1562 C85.1406 70.1562 85.7812 70.6875 86.0938 71.6406 L85.9844 73.7031 ZM87.9062 75.2812 C87.7344 75.375 87.5469 75.4219 87.3438 75.4219 C86.9531 75.4219 86.75 75.2188 86.75 74.4219 C86.75 73.4844 86.9688 71.5312 87.1875 69.8281 L87.0312 69.7188 L86.2344 69.9219 L86.1406 70.7969 C85.7812 70.0312 85.1562 69.6562 84.3906 69.6562 C83.0469 69.6562 81.5625 70.8438 81.5625 72.9531 C81.5625 75.0938 82.7188 76.1719 84.1406 76.1719 C85.0156 76.1719 85.6875 75.8125 86.0938 74.9844 C86.2031 75.8594 86.5156 76.1719 87.0156 76.1719 C87.4688 76.1719 87.7969 75.9062 88.0156 75.5625 L87.9062 75.2812 Z" style="fill:black; stroke:none;"
    /></g
    ><g ID="legend-1:0" style="text-rendering:optimizeSpeed; font-size:10px; font-family:'SansSerif';"
    ><path style="stroke:none;" d="M30.875 113 L34.9062 113 L34.9062 112.2344 L33.4375 112.2344 L33.4375 105.6562 L32.7344 105.6562 C32.3281 105.9062 31.8594 106.0625 31.2031 106.1875 L31.2031 106.7656 L32.5156 106.7656 L32.5156 112.2344 L30.875 112.2344 L30.875 113 ZM35.925 108.4531 L40.7219 108.4531 L40.7219 107.7656 L35.925 107.7656 L35.925 108.4531 ZM35.925 110.8438 L40.7219 110.8438 L40.7219 110.1719 L35.925 110.1719 L35.925 110.8438 ZM43.7094 113.125 C44.4125 113.125 44.975 112.7656 45.3969 112.0312 L45.4281 112.0312 C45.4125 112.7969 45.85 113.125 46.5062 113.125 C46.8187 113.125 47.0375 113.0625 47.1937 112.9844 L47.0531 112.2969 C46.9437 112.3438 46.8031 112.375 46.6937 112.375 C46.3969 112.375 46.1469 112.1875 46.1469 111.8125 C46.1469 110.8125 46.5375 109 46.8344 107.5625 L45.9281 107.5625 L45.6937 108.8594 L45.6625 108.8594 C45.3656 107.8125 44.6625 107.4375 43.9906 107.4375 C42.7406 107.4375 41.6156 108.5156 41.6156 110.375 C41.6156 112.1562 42.475 113.125 43.7094 113.125 ZM43.8969 112.375 C43.0531 112.375 42.5531 111.6406 42.5531 110.375 C42.5531 108.9375 43.3031 108.2031 44.0844 108.2031 C44.6 108.2031 45.1625 108.4688 45.4594 109.6562 L45.3812 110.6875 C45.3031 111.5938 44.6156 112.375 43.8969 112.375 ZM47.8031 110.5469 L50.3656 110.5469 L50.3656 109.8438 L47.8031 109.8438 L47.8031 110.5469 ZM51.2575 113 L55.8669 113 L55.8669 112.2031 L53.8356 112.2031 C53.4762 112.2031 53.0231 112.25 52.6325 112.2812 C54.3669 110.6562 55.5075 109.1562 55.5075 107.7031 C55.5075 106.3906 54.695 105.5312 53.3825 105.5312 C52.445 105.5312 51.82 105.9531 51.2262 106.6094 L51.7575 107.125 C52.1481 106.6562 52.6637 106.2812 53.2731 106.2812 C54.1794 106.2812 54.6169 106.8906 54.6169 107.7344 C54.6169 108.9844 53.5544 110.4531 51.2575 112.4531 L51.2575 113 ZM56.8231 110.5469 L59.3856 110.5469 L59.3856 109.8438 L56.8231 109.8438 L56.8231 110.5469 ZM62.6056 113.125 C63.2618 113.125 63.8243 112.7812 64.2618 112.3594 L64.2931 112.3594 L64.3712 113 L65.1056 113 L65.1056 105.0469 L64.215 105.0469 L64.215 107.125 L64.2462 108.0625 C63.7775 107.6719 63.3556 107.4375 62.715 107.4375 C61.4806 107.4375 60.3712 108.5312 60.3712 110.2969 C60.3712 112.0938 61.2462 113.125 62.6056 113.125 ZM62.8087 112.375 C61.8556 112.375 61.3087 111.5938 61.3087 110.2812 C61.3087 109.0469 61.9962 108.2031 62.8868 108.2031 C63.3243 108.2031 63.7462 108.3594 64.215 108.7656 L64.215 111.625 C63.7462 112.125 63.3087 112.375 62.8087 112.375 ZM69.1493 113.125 C69.8837 113.125 70.4775 112.875 70.9462 112.5625 L70.6181 111.9688 C70.2275 112.2344 69.79 112.4062 69.2587 112.4062 C68.2275 112.4062 67.5243 111.6562 67.4618 110.5 L71.1181 110.5 C71.1337 110.375 71.165 110.1875 71.165 109.9844 C71.165 108.4375 70.3837 107.4375 68.9931 107.4375 C67.7431 107.4375 66.5556 108.5312 66.5556 110.2969 C66.5556 112.0781 67.7118 113.125 69.1493 113.125 ZM67.4462 109.8438 C67.5556 108.7812 68.2431 108.1562 69.0087 108.1562 C69.8525 108.1562 70.3525 108.75 70.3525 109.8438 L67.4462 109.8438 ZM74.6112 113.125 C75.9393 113.125 77.1268 112.0938 77.1268 110.2969 C77.1268 108.4844 75.9393 107.4375 74.6112 107.4375 C73.2831 107.4375 72.0956 108.4844 72.0956 110.2969 C72.0956 112.0938 73.2831 113.125 74.6112 113.125 ZM74.6112 112.375 C73.6737 112.375 73.0331 111.5469 73.0331 110.2969 C73.0331 109.0469 73.6737 108.1875 74.6112 108.1875 C75.5487 108.1875 76.1893 109.0469 76.1893 110.2969 C76.1893 111.5469 75.5487 112.375 74.6112 112.375 ZM77.7962 113 L78.7493 113 L79.4837 111.7344 C79.6712 111.4062 79.8431 111.0625 80.0462 110.7656 L80.0931 110.7656 C80.2962 111.0625 80.4837 111.4062 80.6712 111.7344 L81.4681 113 L82.4681 113 L80.6868 110.2656 L82.3275 107.5625 L81.3743 107.5625 L80.7025 108.7656 C80.5462 109.0625 80.39 109.375 80.2181 109.6719 L80.1868 109.6719 C79.9993 109.375 79.8118 109.0625 79.64 108.7656 L78.9056 107.5625 L77.9368 107.5625 L79.5775 110.1719 L77.7962 113 ZM83.6356 115.3438 C84.7137 115.3438 85.2762 114.5156 85.6512 113.4531 L87.6981 107.5625 L86.8074 107.5625 L85.8387 110.5938 C85.6824 111.0625 85.5262 111.625 85.3856 112.1094 L85.3231 112.1094 C85.1668 111.625 84.9637 111.0625 84.8074 110.5938 L83.6981 107.5625 L82.7449 107.5625 L84.9324 113.0156 L84.8074 113.4219 C84.5887 114.0938 84.1981 114.5938 83.5731 114.5938 C83.4324 114.5938 83.2762 114.5469 83.1668 114.5 L82.9949 115.2344 C83.1668 115.2969 83.3699 115.3438 83.6356 115.3438 ZM88.2831 110.5469 L90.8456 110.5469 L90.8456 109.8438 L88.2831 109.8438 L88.2831 110.5469 ZM92.2999 113 L96.4249 113 L96.4249 112.2031 L93.2374 112.2031 L93.2374 105.6562 L92.2999 105.6562 L92.2999 113 ZM97.1831 110.5469 L99.7456 110.5469 L99.7456 109.8438 L97.1831 109.8438 L97.1831 110.5469 ZM102.0749 113.125 C102.3249 113.125 102.4812 113.0938 102.6062 113.0469 L102.4812 112.3438 C102.3874 112.375 102.3406 112.375 102.2937 112.375 C102.1531 112.375 102.0281 112.2656 102.0281 111.9844 L102.0281 105.0469 L101.1218 105.0469 L101.1218 111.9219 C101.1218 112.6875 101.4031 113.125 102.0749 113.125 ZM104.0656 115.3438 C105.1437 115.3438 105.7062 114.5156 106.0812 113.4531 L108.1281 107.5625 L107.2374 107.5625 L106.2687 110.5938 C106.1124 111.0625 105.9562 111.625 105.8156 112.1094 L105.7531 112.1094 C105.5968 111.625 105.3937 111.0625 105.2374 110.5938 L104.1281 107.5625 L103.1749 107.5625 L105.3624 113.0156 L105.2374 113.4219 C105.0187 114.0938 104.6281 114.5938 104.0031 114.5938 C103.8624 114.5938 103.7062 114.5469 103.5968 114.5 L103.4249 115.2344 C103.5968 115.2969 103.7999 115.3438 104.0656 115.3438 ZM108.4162 113 L109.3693 113 L110.1037 111.7344 C110.2912 111.4062 110.463 111.0625 110.6662 110.7656 L110.713 110.7656 C110.9162 111.0625 111.1037 111.4062 111.2912 111.7344 L112.088 113 L113.088 113 L111.3068 110.2656 L112.9474 107.5625 L111.9943 107.5625 L111.3224 108.7656 C111.1662 109.0625 111.0099 109.375 110.838 109.6719 L110.8068 109.6719 C110.6193 109.375 110.4318 109.0625 110.2599 108.7656 L109.5255 107.5625 L108.5568 107.5625 L110.1974 110.1719 L108.4162 113 ZM114.2399 113 L115.1774 113 L115.1774 109.5469 L118.5837 109.5469 L118.5837 113 L119.5055 113 L119.5055 105.6562 L118.5837 105.6562 L118.5837 108.7344 L115.1774 108.7344 L115.1774 105.6562 L114.2399 105.6562 L114.2399 113 ZM123.6293 113.125 C124.3637 113.125 124.9574 112.875 125.4262 112.5625 L125.098 111.9688 C124.7074 112.2344 124.2699 112.4062 123.7387 112.4062 C122.7074 112.4062 122.0043 111.6562 121.9418 110.5 L125.598 110.5 C125.6137 110.375 125.6449 110.1875 125.6449 109.9844 C125.6449 108.4375 124.8637 107.4375 123.473 107.4375 C122.223 107.4375 121.0355 108.5312 121.0355 110.2969 C121.0355 112.0781 122.1918 113.125 123.6293 113.125 ZM121.9262 109.8438 C122.0355 108.7812 122.723 108.1562 123.4887 108.1562 C124.3324 108.1562 124.8324 108.75 124.8324 109.8438 L121.9262 109.8438 ZM126.2162 113 L127.1693 113 L127.9037 111.7344 C128.0912 111.4062 128.263 111.0625 128.4662 110.7656 L128.513 110.7656 C128.7162 111.0625 128.9037 111.4062 129.0912 111.7344 L129.888 113 L130.888 113 L129.1068 110.2656 L130.7474 107.5625 L129.7943 107.5625 L129.1224 108.7656 C128.9662 109.0625 128.8099 109.375 128.638 109.6719 L128.6068 109.6719 C128.4193 109.375 128.2318 109.0625 128.0599 108.7656 L127.3255 107.5625 L126.3568 107.5625 L127.9974 110.1719 L126.2162 113 ZM131.9618 115.2969 L132.868 115.2969 L132.868 113.4531 L132.8524 112.5 C133.3368 112.9062 133.8524 113.125 134.3524 113.125 C135.6024 113.125 136.7118 112.0625 136.7118 110.2031 C136.7118 108.5312 135.9462 107.4375 134.5555 107.4375 C133.9149 107.4375 133.3055 107.7969 132.8212 108.1875 L132.7899 108.1875 L132.7118 107.5625 L131.9618 107.5625 L131.9618 115.2969 ZM134.1962 112.375 C133.8368 112.375 133.3524 112.2188 132.868 111.7969 L132.868 108.9531 C133.3993 108.4531 133.868 108.2031 134.3368 108.2031 C135.3524 108.2031 135.7587 109.0156 135.7587 110.2031 C135.7587 111.5625 135.1024 112.375 134.1962 112.375 ZM139.8805 113.125 C141.1774 113.125 142.2243 112.3438 142.2243 111.0469 C142.2243 110.0469 141.5368 109.375 140.6774 109.1875 L140.6774 109.1406 C141.443 108.8438 141.9743 108.2656 141.9743 107.375 C141.9743 106.2031 141.0836 105.5312 139.8493 105.5312 C139.0055 105.5312 138.3493 105.9062 137.8024 106.4062 L138.2868 106.9844 C138.693 106.5625 139.2243 106.2812 139.8024 106.2812 C140.568 106.2812 141.0524 106.7344 141.0524 107.4375 C141.0524 108.2344 140.5368 108.8438 139.0211 108.8438 L139.0211 109.5469 C140.7086 109.5469 141.3024 110.125 141.3024 111 C141.3024 111.8438 140.6774 112.375 139.8024 112.375 C138.9743 112.375 138.4274 111.9844 137.9899 111.5312 L137.5368 112.125 C138.0055 112.6562 138.7243 113.125 139.8805 113.125 ZM143.5399 114.9062 C144.4461 114.5156 144.993 113.7656 144.993 112.8125 C144.993 112.1406 144.7118 111.7344 144.2274 111.7344 C143.8524 111.7344 143.5399 111.9844 143.5399 112.375 C143.5399 112.7969 143.8524 113.0156 144.2118 113.0156 C144.243 113.0156 144.2743 113.0156 144.3211 113 C144.3211 113.5938 143.9461 114.0781 143.3211 114.3594 L143.5399 114.9062 ZM146.7261 110.25 L148.3824 107.75 C148.6011 107.3906 148.8043 107.0312 148.9761 106.6719 L149.023 106.6719 C149.0074 107.0469 148.9761 107.6406 148.9761 108 L148.9761 110.25 L146.7261 110.25 ZM148.9761 113 L149.8355 113 L149.8355 110.9844 L150.8043 110.9844 L150.8043 110.25 L149.8355 110.25 L149.8355 105.6562 L148.8199 105.6562 L145.773 110.375 L145.773 110.9844 L148.9761 110.9844 L148.9761 113 ZM153.3855 108.9062 C153.6511 108.0625 153.8855 107.2812 154.1199 106.4219 L154.1667 106.4219 C154.4011 107.2656 154.6355 108.0625 154.9011 108.9062 L155.2449 110.0156 L153.0261 110.0156 L153.3855 108.9062 ZM151.1511 113 L152.0886 113 L152.8074 110.7656 L155.4792 110.7656 L156.1824 113 L157.1667 113 L154.6667 105.6562 L153.6355 105.6562 L151.1511 113 ZM160.2524 113.125 C160.893 113.125 161.518 112.875 162.0024 112.4375 L161.6117 111.8281 C161.268 112.1406 160.8305 112.375 160.3305 112.375 C159.3305 112.375 158.643 111.5469 158.643 110.2969 C158.643 109.0469 159.3774 108.1875 160.3617 108.1875 C160.7836 108.1875 161.1274 108.3906 161.4399 108.6719 L161.9086 108.0625 C161.518 107.7344 161.0336 107.4375 160.3149 107.4375 C158.9242 107.4375 157.7055 108.4844 157.7055 110.2969 C157.7055 112.0938 158.8149 113.125 160.2524 113.125 ZM162.7174 113 L167.3267 113 L167.3267 112.2031 L165.2955 112.2031 C164.9361 112.2031 164.483 112.25 164.0924 112.2812 C165.8267 110.6562 166.9674 109.1562 166.9674 107.7031 C166.9674 106.3906 166.1549 105.5312 164.8424 105.5312 C163.9049 105.5312 163.2799 105.9531 162.6861 106.6094 L163.2174 107.125 C163.608 106.6562 164.1236 106.2812 164.733 106.2812 C165.6392 106.2812 166.0767 106.8906 166.0767 107.7344 C166.0767 108.9844 165.0142 110.4531 162.7174 112.4531 L162.7174 113 Z"
    /></g
  ></g
></svg
>
