<?xml version="1.0"?>
<!DOCTYPE svg PUBLIC '-//W3C//DTD SVG 1.0//EN'
          'http://www.w3.org/TR/2001/REC-SVG-20010904/DTD/svg10.dtd'>
<svg xmlns:xlink="http://www.w3.org/1999/xlink" style="fill-opacity:1; color-rendering:auto; color-interpolation:auto; text-rendering:auto; stroke:black; stroke-linecap:square; stroke-miterlimit:10; shape-rendering:auto; stroke-opacity:1; fill:black; stroke-dasharray:none; font-weight:normal; stroke-width:1; font-family:'Dialog'; font-style:normal; stroke-linejoin:miter; font-size:12px; stroke-dashoffset:0; image-rendering:auto;" viewBox="0 0 241 157" xmlns="http://www.w3.org/2000/svg"
><!--Generated by the Batik Graphics2D SVG Generator--><defs id="genericDefs"
  /><g
  ><defs id="defs1"
    ><clipPath clipPathUnits="userSpaceOnUse" id="clipPath1"
      ><path d="M137 79 L159 79 L159 101 L137 101 L137 79 Z"
      /></clipPath
      ><clipPath clipPathUnits="userSpaceOnUse" id="clipPath2"
      ><path d="M106 116 C106 122.0751 101.0751 127 95 127 C88.9249 127 84 122.0751 84 116 C84 109.9249 88.9249 105 95 105 C101.0751 105 106 109.9249 106 116 Z"
      /></clipPath
      ><clipPath clipPathUnits="userSpaceOnUse" id="clipPath3"
      ><path style="fill-rule:evenodd;" d="M42 105 L53 116 L42 127 L31 116 Z"
      /></clipPath
      ><clipPath clipPathUnits="userSpaceOnUse" id="clipPath4"
      ><path style="fill-rule:evenodd;" d="M95 53 L106 64 L95 75 L84 64 Z"
      /></clipPath
    ></defs
    ><g style="fill:white; text-rendering:optimizeSpeed; stroke:white;"
    ><rect x="0" width="241" height="157" y="0" style="stroke:none;"
      /><polygon style="fill:none; stroke:black;" points=" 200 90 148 90"
      /><path d="M200 79 C194.5 84.5 205.5 95.5 200 101" style="fill:none; stroke:black;"
      /><polygon style="fill:none; stroke:black;" points=" 148 90 95 116"
      /><polygon style="fill:none; stroke:black;" points=" 148 90 95 64"
      /><rect x="137" y="79" width="22" style="clip-path:url(#clipPath1); stroke:none;" height="22"
      /><rect x="137" y="79" width="22" style="clip-path:url(#clipPath1); fill:rgb(255,212,0); stroke:none;" height="22"
      /><rect x="137" y="79" width="22" style="clip-path:url(#clipPath1); fill:none; stroke:black;" height="22"
      /><rect x="137" y="79" width="22" style="fill:none; stroke:black;" height="22"
      /><polygon style="fill:none; stroke:black;" points=" 95 116 42 116"
      /><circle style="clip-path:url(#clipPath2); stroke:none;" r="11" cx="95" cy="116"
      /><rect x="84" y="105" width="22" style="clip-path:url(#clipPath2); fill:rgb(255,212,0); stroke:none;" height="22"
      /><rect x="84" y="105" width="22" style="clip-path:url(#clipPath2); fill:none; stroke:black;" height="22"
      /><circle style="fill:none; stroke:black;" r="11" cx="95" cy="116"
      /><polygon style="clip-path:url(#clipPath3); stroke:none;" points=" 42 105 53 116 42 127 31 116"
      /><rect x="31" y="105" width="22" style="clip-path:url(#clipPath3); fill:rgb(165,67,153); stroke:none;" height="22"
      /><rect x="31" y="105" width="22" style="clip-path:url(#clipPath3); fill:none; stroke:black;" height="22"
      /><polygon style="fill:none; stroke:black;" points=" 42 105 53 116 42 127 31 116"
      /><rect x="30" y="87" width="22" style="stroke:none;" height="10"
    /></g
    ><g style="text-rendering:optimizeSpeed; font-size:14px; font-family:'SansSerif';"
    ><path style="stroke:none;" d="M31.8125 90.875 C31.8125 89.4688 32.5781 88.5469 33.5625 88.5469 C34.875 88.5469 35.6562 89.6719 35.7969 91.7812 C35.1406 92.75 34.3594 93.1562 33.6562 93.1562 C32.4375 93.1562 31.8125 92.2656 31.8125 90.875 ZM33.2812 98.1875 C35.2031 98.1875 37 96.5938 37 92.4219 C37 89.1719 35.5312 87.5469 33.5625 87.5469 C31.9531 87.5469 30.6094 88.8906 30.6094 90.875 C30.6094 93 31.7344 94.1094 33.4375 94.1094 C34.2969 94.1094 35.1875 93.625 35.8125 92.8438 C35.7188 96.0312 34.5625 97.125 33.2344 97.125 C32.5781 97.125 31.9531 96.8281 31.5312 96.3281 L30.8125 97.125 C31.3906 97.7344 32.1719 98.1875 33.2812 98.1875 ZM40.9418 92.2656 C41.3168 91.0938 41.645 89.9844 41.9731 88.7812 L42.02 88.7812 C42.3637 89.9844 42.6762 91.0938 43.0668 92.2656 L43.5512 93.8281 L40.4418 93.8281 L40.9418 92.2656 ZM37.8168 98 L39.1293 98 L40.1293 94.8594 L43.8793 94.8594 L44.8481 98 L46.2231 98 L42.7387 87.7188 L41.3012 87.7188 L37.8168 98 ZM50.5492 98.1875 C51.4554 98.1875 52.3304 97.8281 53.0179 97.2188 L52.4554 96.3594 C51.9867 96.7969 51.3617 97.125 50.6586 97.125 C49.2679 97.125 48.3148 95.9531 48.3148 94.2031 C48.3148 92.4531 49.3148 91.2656 50.7054 91.2656 C51.3148 91.2656 51.7679 91.5469 52.2211 91.9375 L52.8773 91.0938 C52.3304 90.625 51.6429 90.2031 50.6429 90.2031 C48.7054 90.2031 46.9867 91.6719 46.9867 94.2031 C46.9867 96.7188 48.5336 98.1875 50.5492 98.1875 Z"
    /></g
    ><g style="fill:white; text-rendering:optimizeSpeed; font-family:'Serif'; stroke:white;"
    ><rect x="73" width="6" height="10" y="119" style="stroke:none;"
      /><path d="M75.2344 120.6562 C75.5156 120.5938 75.7656 120.5625 76.0156 120.5625 C77.0625 120.5625 77.6719 121.1719 77.6719 122.2656 C77.6719 123.4375 76.9062 124.1094 75.7031 124.1094 L75.1875 124.1094 L75.1875 124.6406 L75.7969 124.6406 C77.2188 124.6406 77.9062 125.4219 77.9062 126.6406 C77.9062 127.8438 77.1719 128.6875 75.875 128.6875 C75.6094 128.6875 75.3125 128.6562 75.0156 128.5625 L74.7812 127.8125 C74.625 127.2812 74.5 127.0469 74.1406 127.0469 C73.8906 127.0469 73.7031 127.1719 73.5781 127.4219 C73.8438 128.6406 74.7812 129.1719 76.0312 129.1719 C77.7188 129.1719 78.875 128.125 78.875 126.7031 C78.875 125.5 78.2031 124.625 76.7969 124.375 C77.9531 124.0156 78.6094 123.2031 78.6094 122.2031 C78.6094 120.9219 77.6719 120.0781 76.1875 120.0781 C75.0469 120.0781 74.0625 120.5938 73.7969 121.6875 C73.9062 122 74.1094 122.1094 74.3594 122.1094 C74.7344 122.1094 74.8906 121.8906 75 121.4062 L75.2344 120.6562 Z" style="fill:black; stroke:none;"
      /><rect x="58" width="8" height="8" y="120" style="stroke:none;"
      /><path d="M62.9844 125.7031 C62.9375 126.8906 62.1562 127.6562 61.3125 127.6562 C60.2656 127.6562 59.5 126.6875 59.5 124.7188 C59.5 123.2812 60.1562 122.1562 61.3438 122.1562 C62.1406 122.1562 62.7812 122.6875 63.0938 123.6406 L62.9844 125.7031 ZM64.9062 127.2812 C64.7344 127.375 64.5469 127.4219 64.3438 127.4219 C63.9531 127.4219 63.75 127.2188 63.75 126.4219 C63.75 125.4844 63.9688 123.5312 64.1875 121.8281 L64.0312 121.7188 L63.2344 121.9219 L63.1406 122.7969 C62.7812 122.0312 62.1562 121.6562 61.3906 121.6562 C60.0469 121.6562 58.5625 122.8438 58.5625 124.9531 C58.5625 127.0938 59.7188 128.1719 61.1406 128.1719 C62.0156 128.1719 62.6875 127.8125 63.0938 126.9844 C63.2031 127.8594 63.5156 128.1719 64.0156 128.1719 C64.4688 128.1719 64.7969 127.9062 65.0156 127.5625 L64.9062 127.2812 Z" style="fill:black; stroke:none;"
      /><polygon style="clip-path:url(#clipPath4); stroke:none;" points=" 95 53 106 64 95 75 84 64"
      /><rect x="84" y="53" width="22" style="clip-path:url(#clipPath4); fill:rgb(165,67,153); stroke:none;" height="22"
      /><rect x="84" y="53" width="22" style="clip-path:url(#clipPath4); fill:none; stroke:black;" height="22"
      /><polygon style="fill:none; stroke:black;" points=" 95 53 106 64 95 75 84 64"
      /><rect x="83" width="22" height="10" y="35" style="stroke:none;"
    /></g
    ><g style="text-rendering:optimizeSpeed; font-size:14px; font-family:'SansSerif';"
    ><path style="stroke:none;" d="M84.8125 38.875 C84.8125 37.4688 85.5781 36.5469 86.5625 36.5469 C87.875 36.5469 88.6562 37.6719 88.7969 39.7812 C88.1406 40.75 87.3594 41.1562 86.6562 41.1562 C85.4375 41.1562 84.8125 40.2656 84.8125 38.875 ZM86.2812 46.1875 C88.2031 46.1875 90 44.5938 90 40.4219 C90 37.1719 88.5312 35.5469 86.5625 35.5469 C84.9531 35.5469 83.6094 36.8906 83.6094 38.875 C83.6094 41 84.7344 42.1094 86.4375 42.1094 C87.2969 42.1094 88.1875 41.625 88.8125 40.8438 C88.7188 44.0312 87.5625 45.125 86.2344 45.125 C85.5781 45.125 84.9531 44.8281 84.5312 44.3281 L83.8125 45.125 C84.3906 45.7344 85.1719 46.1875 86.2812 46.1875 ZM93.9418 40.2656 C94.3168 39.0938 94.645 37.9844 94.9731 36.7812 L95.02 36.7812 C95.3637 37.9844 95.6762 39.0938 96.0668 40.2656 L96.5512 41.8281 L93.4418 41.8281 L93.9418 40.2656 ZM90.8168 46 L92.1293 46 L93.1293 42.8594 L96.8793 42.8594 L97.8481 46 L99.2231 46 L95.7387 35.7188 L94.3012 35.7188 L90.8168 46 ZM103.5492 46.1875 C104.4554 46.1875 105.3304 45.8281 106.0179 45.2188 L105.4554 44.3594 C104.9867 44.7969 104.3617 45.125 103.6586 45.125 C102.2679 45.125 101.3148 43.9531 101.3148 42.2031 C101.3148 40.4531 102.3148 39.2656 103.7054 39.2656 C104.3148 39.2656 104.7679 39.5469 105.2211 39.9375 L105.8773 39.0938 C105.3304 38.625 104.6429 38.2031 103.6429 38.2031 C101.7054 38.2031 99.9867 39.6719 99.9867 42.2031 C99.9867 44.7188 101.5336 46.1875 103.5492 46.1875 Z"
    /></g
    ><g style="fill:white; text-rendering:optimizeSpeed; font-family:'Serif'; stroke:white;"
    ><rect x="130" width="6" height="10" y="101" style="stroke:none;"
      /><path d="M132.2344 102.6562 C132.5156 102.5938 132.7656 102.5625 133.0156 102.5625 C134.0625 102.5625 134.6719 103.1719 134.6719 104.2656 C134.6719 105.4375 133.9062 106.1094 132.7031 106.1094 L132.1875 106.1094 L132.1875 106.6406 L132.7969 106.6406 C134.2188 106.6406 134.9062 107.4219 134.9062 108.6406 C134.9062 109.8438 134.1719 110.6875 132.875 110.6875 C132.6094 110.6875 132.3125 110.6562 132.0156 110.5625 L131.7812 109.8125 C131.625 109.2812 131.5 109.0469 131.1406 109.0469 C130.8906 109.0469 130.7031 109.1719 130.5781 109.4219 C130.8438 110.6406 131.7812 111.1719 133.0312 111.1719 C134.7188 111.1719 135.875 110.125 135.875 108.7031 C135.875 107.5 135.2031 106.625 133.7969 106.375 C134.9531 106.0156 135.6094 105.2031 135.6094 104.2031 C135.6094 102.9219 134.6719 102.0781 133.1875 102.0781 C132.0469 102.0781 131.0625 102.5938 130.7969 103.6875 C130.9062 104 131.1094 104.1094 131.3594 104.1094 C131.7344 104.1094 131.8906 103.8906 132 103.4062 L132.2344 102.6562 Z" style="fill:black; stroke:none;"
      /><rect x="113" width="6" height="13" y="107" style="stroke:none;"
      /><path d="M115.0938 113.2031 C115.0938 111.6562 115.75 110.8125 116.7969 110.8125 C117.7188 110.8125 118.2656 111.4531 118.2656 112.5156 C118.2656 113.7188 117.5 114.4375 116.1875 114.7031 L116.2969 115.3125 C118.2188 115.2344 118.9375 116.2188 118.9375 117.4375 C118.9375 118.625 118.2344 119.4219 116.9531 119.4219 C116.25 119.4219 115.6562 119.1562 115.0938 118.7188 L115.0938 113.2031 ZM114.2031 119.9062 L114.1094 122.375 L114.2656 122.4844 L115.1562 122.2656 L115.0156 119.0938 C115.5469 119.8438 116.3594 120.1719 117.1719 120.1719 C118.5625 120.1719 119.8594 119.2188 119.8594 117.4844 C119.8594 115.9531 118.875 115.1094 117.125 115 C118.5625 114.6094 119.1875 113.4531 119.1875 112.4844 C119.1875 111.0938 118.1562 110.3125 116.9062 110.3125 C115.2969 110.3125 114.2188 111.5469 114.2188 113.5156 L114.2031 119.9062 Z" style="fill:black; stroke:none;"
      /><rect x="123" width="6" height="10" y="83" style="stroke:none;"
      /><path d="M126.3438 92.6875 C125.2031 92.6875 124.5312 91.5 124.5312 89.2969 C124.5312 89.2188 124.5312 89.125 124.5312 89.0469 C125.0938 88.5 125.7188 88.3125 126.3438 88.3125 C127.3125 88.3125 127.9531 88.9844 127.9531 90.4531 C127.9531 91.9375 127.3125 92.6875 126.3438 92.6875 ZM128.5312 84.0781 C125.3438 84.4531 123.5625 86.7656 123.5625 89.4531 C123.5625 91.7812 124.6094 93.1719 126.3125 93.1719 C127.8438 93.1719 128.9219 92.1094 128.9219 90.2812 C128.9219 88.6875 127.9688 87.6562 126.5625 87.6562 C125.8281 87.6562 125.1406 87.9844 124.5781 88.5781 C124.7969 86.4062 126.0781 84.9688 128.5938 84.3906 L128.5312 84.0781 Z" style="fill:black; stroke:none;"
      /><rect x="106" width="8" height="8" y="76" style="stroke:none;"
      /><path d="M110.9844 81.7031 C110.9375 82.8906 110.1562 83.6562 109.3125 83.6562 C108.2656 83.6562 107.5 82.6875 107.5 80.7188 C107.5 79.2812 108.1562 78.1562 109.3438 78.1562 C110.1406 78.1562 110.7812 78.6875 111.0938 79.6406 L110.9844 81.7031 ZM112.9062 83.2812 C112.7344 83.375 112.5469 83.4219 112.3438 83.4219 C111.9531 83.4219 111.75 83.2188 111.75 82.4219 C111.75 81.4844 111.9688 79.5312 112.1875 77.8281 L112.0312 77.7188 L111.2344 77.9219 L111.1406 78.7969 C110.7812 78.0312 110.1562 77.6562 109.3906 77.6562 C108.0469 77.6562 106.5625 78.8438 106.5625 80.9531 C106.5625 83.0938 107.7188 84.1719 109.1406 84.1719 C110.0156 84.1719 110.6875 83.8125 111.0938 82.9844 C111.2031 83.8594 111.5156 84.1719 112.0156 84.1719 C112.4688 84.1719 112.7969 83.9062 113.0156 83.5625 L112.9062 83.2812 Z" style="fill:black; stroke:none;"
      /><rect x="164" width="5" height="10" y="93" style="stroke:none;"
      /><path d="M165.8906 101.6875 C165.4844 101.6875 165.1562 102.0469 165.1562 102.4219 C165.1562 102.8125 165.4844 103.1562 165.8906 103.1562 C166.2969 103.1562 166.6406 102.8125 166.6406 102.4219 C166.6406 102.0469 166.2969 101.6875 165.8906 101.6875 ZM167.4688 95.5781 C167.7188 95.8906 167.875 96.2656 167.8906 96.6562 C167.8906 97.1875 167.625 97.5 167.0312 97.7656 L166.4062 98.0156 C165.6406 98.3125 165.3906 98.5469 165.3906 98.9375 C165.3906 99.1094 165.4531 99.3438 165.5781 99.8125 L165.7344 100.3438 L166.1094 100.3438 L166.0938 99.5312 C166.0938 99.0938 166.2031 98.9688 166.7812 98.7344 L167.2031 98.5625 C168.0312 98.2188 168.4531 97.6875 168.4531 96.8438 C168.4531 95.1562 166.6562 94.1875 165.5 94.0312 C165.1094 94.125 164.9062 94.2969 164.9062 94.6406 C164.9062 94.9375 165.0625 95.1562 165.7188 95.2656 L167.4688 95.5781 Z" style="fill:black; stroke:none;"
    /></g
  ></g
></svg
>
