<?xml version="1.0"?>
<!DOCTYPE svg PUBLIC '-//W3C//DTD SVG 1.0//EN'
          'http://www.w3.org/TR/2001/REC-SVG-20010904/DTD/svg10.dtd'>
<svg xmlns:xlink="http://www.w3.org/1999/xlink" style="fill-opacity:1; color-rendering:auto; color-interpolation:auto; text-rendering:auto; stroke:black; stroke-linecap:square; stroke-miterlimit:10; shape-rendering:auto; stroke-opacity:1; fill:black; stroke-dasharray:none; font-weight:normal; stroke-width:1; font-family:'Dialog'; font-style:normal; stroke-linejoin:miter; font-size:12px; stroke-dashoffset:0; image-rendering:auto;" viewBox="0 0 354 157" xmlns="http://www.w3.org/2000/svg"
><!--Generated by the Batik Graphics2D SVG Generator--><defs id="genericDefs"
  /><g
  ><defs id="defs1"
    ><clipPath clipPathUnits="userSpaceOnUse" id="clipPath1"
      ><path style="fill-rule:evenodd;" d="M255 45 L261 45 L261 89 L255 89 L261 89 L261 45 Z"
      /></clipPath
      ><clipPath clipPathUnits="userSpaceOnUse" id="clipPath2"
      ><path style="fill-rule:evenodd;" d="M209 56 L220 78 L198 78 Z"
      /></clipPath
      ><clipPath clipPathUnits="userSpaceOnUse" id="clipPath3"
      ><path style="fill-rule:evenodd;" d="M151 56 L162 67 L151 78 L140 67 Z"
      /></clipPath
      ><clipPath clipPathUnits="userSpaceOnUse" id="clipPath4"
      ><path style="fill-rule:evenodd;" d="M93 82 L104 104 L82 104 Z"
      /></clipPath
      ><clipPath clipPathUnits="userSpaceOnUse" id="clipPath5"
      ><path style="fill-rule:evenodd;" d="M46 115 L41 115 L40 71 L46 71 L40 71 L41 115 Z"
      /></clipPath
      ><clipPath clipPathUnits="userSpaceOnUse" id="clipPath6"
      ><path style="fill-rule:evenodd;" d="M93 30 L104 52 L82 52 Z"
      /></clipPath
    ></defs
    ><g style="fill:white; text-rendering:optimizeSpeed; stroke:white;"
    ><rect x="0" width="354" height="157" y="0" style="stroke:none;"
      /><polygon style="fill:none; stroke:black;" points=" 313 67 261 67"
      /><path d="M313 56 C307.5 61.5 318.5 72.5 313 78" style="fill:none; stroke:black;"
      /><polygon style="fill:none; stroke:black;" points=" 261 67 209 67"
      /><polygon style="clip-path:url(#clipPath1); stroke:none;" points=" 255 45 261 45 261 89 255 89 261 89 261 45"
      /><rect x="250" y="33" width="22" style="clip-path:url(#clipPath1); fill:black; stroke:none;" height="68"
      /><rect x="250" y="33" width="22" style="clip-path:url(#clipPath1); fill:none; stroke:black;" height="68"
      /><polygon style="fill:none; stroke:black;" points=" 255 45 261 45 261 89 255 89 261 89 261 45"
      /><polygon style="fill:none; stroke:black;" points=" 209 67 151 67"
      /><polygon style="clip-path:url(#clipPath2); stroke:none;" points=" 209 56 220 78 198 78"
      /><rect x="209" y="56" width="11" style="clip-path:url(#clipPath2); fill:rgb(0,144,188); stroke:none;" height="22"
      /><rect x="209" y="56" width="11" style="clip-path:url(#clipPath2); fill:none; stroke:black;" height="22"
      /><polygon style="fill:none; stroke:black;" points=" 209 56 220 78 198 78"
      /><polygon style="fill:none; stroke:black;" points=" 151 67 93 93"
      /><polygon style="fill:none; stroke:black;" points=" 151 67 93 41"
      /><polygon style="clip-path:url(#clipPath3); stroke:none;" points=" 151 56 162 67 151 78 140 67"
      /><rect x="140" y="56" width="22" style="clip-path:url(#clipPath3); fill:rgb(255,212,0); stroke:none;" height="11"
      /><rect x="140" y="56" width="22" style="clip-path:url(#clipPath3); fill:none; stroke:black;" height="11"
      /><polygon style="fill:none; stroke:black;" points=" 151 56 162 67 151 78 140 67"
      /><rect x="134" y="84" width="32" style="stroke:none;" height="10"
    /></g
    ><g style="text-rendering:optimizeSpeed; font-size:14px; font-family:'SansSerif';"
    ><path style="stroke:none;" d="M134.6094 95 L141.0625 95 L141.0625 93.8906 L138.2344 93.8906 C137.7031 93.8906 137.0781 93.9531 136.5469 93.9844 C138.9531 91.7031 140.5625 89.625 140.5625 87.5781 C140.5625 85.75 139.4219 84.5469 137.5781 84.5469 C136.2812 84.5469 135.4062 85.1406 134.5625 86.0469 L135.2969 86.7812 C135.8594 86.1094 136.5938 85.5938 137.4375 85.5938 C138.7031 85.5938 139.3125 86.4531 139.3125 87.625 C139.3125 89.3906 137.8438 91.4375 134.6094 94.25 L134.6094 95 ZM143.1762 95 L144.395 95 L144.395 89.6094 C144.395 88.5312 144.3012 87.4375 144.2543 86.4062 L144.3012 86.4062 L145.4106 88.5156 L149.145 95 L150.4731 95 L150.4731 84.7188 L149.2387 84.7188 L149.2387 90.0781 C149.2387 91.1406 149.3481 92.2812 149.4106 93.3125 L149.3481 93.3125 L148.2543 91.2031 L144.52 84.7188 L143.1762 84.7188 L143.1762 95 ZM155.0498 89.2656 C155.4248 88.0938 155.7529 86.9844 156.0811 85.7812 L156.1279 85.7812 C156.4717 86.9844 156.7842 88.0938 157.1748 89.2656 L157.6592 90.8281 L154.5498 90.8281 L155.0498 89.2656 ZM151.9248 95 L153.2373 95 L154.2373 91.8594 L157.9873 91.8594 L158.9561 95 L160.3311 95 L156.8467 84.7188 L155.4092 84.7188 L151.9248 95 ZM164.6572 95.1875 C165.5634 95.1875 166.4384 94.8281 167.1259 94.2188 L166.5634 93.3594 C166.0947 93.7969 165.4697 94.125 164.7665 94.125 C163.3759 94.125 162.4228 92.9531 162.4228 91.2031 C162.4228 89.4531 163.4228 88.2656 164.8134 88.2656 C165.4228 88.2656 165.8759 88.5469 166.329 88.9375 L166.9853 88.0938 C166.4384 87.625 165.7509 87.2031 164.7509 87.2031 C162.8134 87.2031 161.0947 88.6719 161.0947 91.2031 C161.0947 93.7188 162.6415 95.1875 164.6572 95.1875 Z"
      /><polygon style="fill:none;" points=" 93 93 41 93"
    /></g
    ><g style="fill:white; text-rendering:optimizeSpeed; stroke:white;"
    ><polygon style="stroke:none; clip-path:url(#clipPath4);" points=" 93 82 104 104 82 104"
      /><rect x="93" y="82" width="11" style="clip-path:url(#clipPath4); fill:rgb(0,144,188); stroke:none;" height="22"
      /><rect x="93" y="82" width="11" style="clip-path:url(#clipPath4); fill:none; stroke:black;" height="22"
      /><polygon style="fill:none; stroke:black;" points=" 93 82 104 104 82 104"
      /><polygon style="clip-path:url(#clipPath5); stroke:none;" points=" 46 115 41 115 40 71 46 71 40 71 41 115"
      /><rect x="30" y="59" width="22" style="clip-path:url(#clipPath5); fill:black; stroke:none;" height="68"
      /><rect x="30" y="59" width="22" style="clip-path:url(#clipPath5); fill:none; stroke:black;" height="68"
      /><polygon style="fill:none; stroke:black;" points=" 46 115 41 115 40 71 46 71 40 71 41 115"
      /><path d="M43.5469 124.9531 C43.5156 124.2969 43.5 123.3906 43.5 122.7656 L43.5 121.5156 C43.5 119.8281 42.9531 119.1562 41.8594 119.1562 C41.0625 119.1562 40.1562 119.625 39.4531 120.4062 L39.3594 119.2969 L39.2031 119.1719 L37.4688 119.8125 L37.4688 120.2031 L38.5312 120.2812 C38.5625 120.8438 38.5781 121.3438 38.5781 122.1094 L38.5781 122.7656 C38.5781 123.375 38.5781 124.2969 38.5469 124.9688 L37.5469 125.1094 L37.5469 125.5 L40.4688 125.5 L40.4688 125.1094 L39.5156 124.9531 C39.5156 124.2969 39.5 123.375 39.5 122.7656 L39.5 120.875 C40.2656 120.1562 40.875 119.9062 41.4688 119.9062 C42.2344 119.9062 42.5938 120.3125 42.5938 121.5625 L42.5938 122.7656 C42.5938 123.3906 42.5781 124.3125 42.5625 124.9688 L41.5469 125.1094 L41.5469 125.5 L44.4844 125.5 L44.4844 125.1094 L43.5469 124.9531 Z" style="fill:black; stroke:none;"
      /><rect x="71" width="6" height="10" y="96" style="stroke:none;"
      /><path d="M73.2344 97.6562 C73.5156 97.5938 73.7656 97.5625 74.0156 97.5625 C75.0625 97.5625 75.6719 98.1719 75.6719 99.2656 C75.6719 100.4375 74.9062 101.1094 73.7031 101.1094 L73.1875 101.1094 L73.1875 101.6406 L73.7969 101.6406 C75.2188 101.6406 75.9062 102.4219 75.9062 103.6406 C75.9062 104.8438 75.1719 105.6875 73.875 105.6875 C73.6094 105.6875 73.3125 105.6562 73.0156 105.5625 L72.7812 104.8125 C72.625 104.2812 72.5 104.0469 72.1406 104.0469 C71.8906 104.0469 71.7031 104.1719 71.5781 104.4219 C71.8438 105.6406 72.7812 106.1719 74.0312 106.1719 C75.7188 106.1719 76.875 105.125 76.875 103.7031 C76.875 102.5 76.2031 101.625 74.7969 101.375 C75.9531 101.0156 76.6094 100.2031 76.6094 99.2031 C76.6094 97.9219 75.6719 97.0781 74.1875 97.0781 C73.0469 97.0781 72.0625 97.5938 71.7969 98.6875 C71.9062 99 72.1094 99.1094 72.3594 99.1094 C72.7344 99.1094 72.8906 98.8906 73 98.4062 L73.2344 97.6562 Z" style="fill:black; stroke:none;"
      /><polygon style="clip-path:url(#clipPath6); stroke:none;" points=" 93 30 104 52 82 52"
      /><rect x="93" y="30" width="11" style="clip-path:url(#clipPath6); fill:rgb(0,144,188); stroke:none;" height="22"
      /><rect x="93" y="30" width="11" style="clip-path:url(#clipPath6); fill:none; stroke:black;" height="22"
      /><polygon style="fill:none; stroke:black;" points=" 93 30 104 52 82 52"
      /><rect x="126" width="6" height="10" y="80" style="stroke:none;"
      /><path d="M128.2344 81.6562 C128.5156 81.5938 128.7656 81.5625 129.0156 81.5625 C130.0625 81.5625 130.6719 82.1719 130.6719 83.2656 C130.6719 84.4375 129.9062 85.1094 128.7031 85.1094 L128.1875 85.1094 L128.1875 85.6406 L128.7969 85.6406 C130.2188 85.6406 130.9062 86.4219 130.9062 87.6406 C130.9062 88.8438 130.1719 89.6875 128.875 89.6875 C128.6094 89.6875 128.3125 89.6562 128.0156 89.5625 L127.7812 88.8125 C127.625 88.2812 127.5 88.0469 127.1406 88.0469 C126.8906 88.0469 126.7031 88.1719 126.5781 88.4219 C126.8438 89.6406 127.7812 90.1719 129.0312 90.1719 C130.7188 90.1719 131.875 89.125 131.875 87.7031 C131.875 86.5 131.2031 85.625 129.7969 85.375 C130.9531 85.0156 131.6094 84.2031 131.6094 83.2031 C131.6094 81.9219 130.6719 81.0781 129.1875 81.0781 C128.0469 81.0781 127.0625 81.5938 126.7969 82.6875 C126.9062 83 127.1094 83.1094 127.3594 83.1094 C127.7344 83.1094 127.8906 82.8906 128 82.4062 L128.2344 81.6562 Z" style="fill:black; stroke:none;"
      /><rect x="110" width="8" height="8" y="88" style="stroke:none;"
      /><path d="M114.9844 93.7031 C114.9375 94.8906 114.1562 95.6562 113.3125 95.6562 C112.2656 95.6562 111.5 94.6875 111.5 92.7188 C111.5 91.2812 112.1562 90.1562 113.3438 90.1562 C114.1406 90.1562 114.7812 90.6875 115.0938 91.6406 L114.9844 93.7031 ZM116.9062 95.2812 C116.7344 95.375 116.5469 95.4219 116.3438 95.4219 C115.9531 95.4219 115.75 95.2188 115.75 94.4219 C115.75 93.4844 115.9688 91.5312 116.1875 89.8281 L116.0312 89.7188 L115.2344 89.9219 L115.1406 90.7969 C114.7812 90.0312 114.1562 89.6562 113.3906 89.6562 C112.0469 89.6562 110.5625 90.8438 110.5625 92.9531 C110.5625 95.0938 111.7188 96.1719 113.1406 96.1719 C114.0156 96.1719 114.6875 95.8125 115.0938 94.9844 C115.2031 95.8594 115.5156 96.1719 116.0156 96.1719 C116.4688 96.1719 116.7969 95.9062 117.0156 95.5625 L116.9062 95.2812 Z" style="fill:black; stroke:none;"
      /><rect x="119" width="7" height="9" y="58" style="stroke:none;"
      /><path d="M120 63.5156 L122.9531 59.2656 L122.9531 63.5156 L120 63.5156 ZM125.2812 63.5156 L123.8594 63.5156 L123.8594 58.125 L123.2344 58.125 L119.3438 63.6406 L119.3438 64.1875 L122.9531 64.1875 L122.9531 67 L123.8594 67 L123.8594 64.1875 L125.2812 64.1875 L125.2812 63.5156 Z" style="fill:black; stroke:none;"
      /><rect x="104" width="8" height="8" y="52" style="stroke:none;"
      /><path d="M108.9844 57.7031 C108.9375 58.8906 108.1562 59.6562 107.3125 59.6562 C106.2656 59.6562 105.5 58.6875 105.5 56.7188 C105.5 55.2812 106.1562 54.1562 107.3438 54.1562 C108.1406 54.1562 108.7812 54.6875 109.0938 55.6406 L108.9844 57.7031 ZM110.9062 59.2812 C110.7344 59.375 110.5469 59.4219 110.3438 59.4219 C109.9531 59.4219 109.75 59.2188 109.75 58.4219 C109.75 57.4844 109.9688 55.5312 110.1875 53.8281 L110.0312 53.7188 L109.2344 53.9219 L109.1406 54.7969 C108.7812 54.0312 108.1562 53.6562 107.3906 53.6562 C106.0469 53.6562 104.5625 54.8438 104.5625 56.9531 C104.5625 59.0938 105.7188 60.1719 107.1406 60.1719 C108.0156 60.1719 108.6875 59.8125 109.0938 58.9844 C109.2031 59.8594 109.5156 60.1719 110.0156 60.1719 C110.4688 60.1719 110.7969 59.9062 111.0156 59.5625 L110.9062 59.2812 Z" style="fill:black; stroke:none;"
      /><rect x="187" width="6" height="10" y="70" style="stroke:none;"
      /><path d="M189.2344 71.6562 C189.5156 71.5938 189.7656 71.5625 190.0156 71.5625 C191.0625 71.5625 191.6719 72.1719 191.6719 73.2656 C191.6719 74.4375 190.9062 75.1094 189.7031 75.1094 L189.1875 75.1094 L189.1875 75.6406 L189.7969 75.6406 C191.2188 75.6406 191.9062 76.4219 191.9062 77.6406 C191.9062 78.8438 191.1719 79.6875 189.875 79.6875 C189.6094 79.6875 189.3125 79.6562 189.0156 79.5625 L188.7812 78.8125 C188.625 78.2812 188.5 78.0469 188.1406 78.0469 C187.8906 78.0469 187.7031 78.1719 187.5781 78.4219 C187.8438 79.6406 188.7812 80.1719 190.0312 80.1719 C191.7188 80.1719 192.875 79.125 192.875 77.7031 C192.875 76.5 192.2031 75.625 190.7969 75.375 C191.9531 75.0156 192.6094 74.2031 192.6094 73.2031 C192.6094 71.9219 191.6719 71.0781 190.1875 71.0781 C189.0469 71.0781 188.0625 71.5938 187.7969 72.6875 C187.9062 73 188.1094 73.1094 188.3594 73.1094 C188.7344 73.1094 188.8906 72.8906 189 72.4062 L189.2344 71.6562 Z" style="fill:black; stroke:none;"
      /><rect x="172" width="8" height="8" y="71" style="stroke:none;"
      /><path d="M176.9844 76.7031 C176.9375 77.8906 176.1562 78.6562 175.3125 78.6562 C174.2656 78.6562 173.5 77.6875 173.5 75.7188 C173.5 74.2812 174.1562 73.1562 175.3438 73.1562 C176.1406 73.1562 176.7812 73.6875 177.0938 74.6406 L176.9844 76.7031 ZM178.9062 78.2812 C178.7344 78.375 178.5469 78.4219 178.3438 78.4219 C177.9531 78.4219 177.75 78.2188 177.75 77.4219 C177.75 76.4844 177.9688 74.5312 178.1875 72.8281 L178.0312 72.7188 L177.2344 72.9219 L177.1406 73.7969 C176.7812 73.0312 176.1562 72.6562 175.3906 72.6562 C174.0469 72.6562 172.5625 73.8438 172.5625 75.9531 C172.5625 78.0938 173.7188 79.1719 175.1406 79.1719 C176.0156 79.1719 176.6875 78.8125 177.0938 77.9844 C177.2031 78.8594 177.5156 79.1719 178.0156 79.1719 C178.4688 79.1719 178.7969 78.9062 179.0156 78.5625 L178.9062 78.2812 Z" style="fill:black; stroke:none;"
      /><rect x="224" width="8" height="8" y="71" style="stroke:none;"
      /><path d="M228.9844 76.7031 C228.9375 77.8906 228.1562 78.6562 227.3125 78.6562 C226.2656 78.6562 225.5 77.6875 225.5 75.7188 C225.5 74.2812 226.1562 73.1562 227.3438 73.1562 C228.1406 73.1562 228.7812 73.6875 229.0938 74.6406 L228.9844 76.7031 ZM230.9062 78.2812 C230.7344 78.375 230.5469 78.4219 230.3438 78.4219 C229.9531 78.4219 229.75 78.2188 229.75 77.4219 C229.75 76.4844 229.9688 74.5312 230.1875 72.8281 L230.0312 72.7188 L229.2344 72.9219 L229.1406 73.7969 C228.7812 73.0312 228.1562 72.6562 227.3906 72.6562 C226.0469 72.6562 224.5625 73.8438 224.5625 75.9531 C224.5625 78.0938 225.7188 79.1719 227.1406 79.1719 C228.0156 79.1719 228.6875 78.8125 229.0938 77.9844 C229.2031 78.8594 229.5156 79.1719 230.0156 79.1719 C230.4688 79.1719 230.7969 78.9062 231.0156 78.5625 L230.9062 78.2812 Z" style="fill:black; stroke:none;"
    /></g
  ></g
></svg
>
