<?xml version="1.0"?>
<!DOCTYPE svg PUBLIC '-//W3C//DTD SVG 1.0//EN'
          'http://www.w3.org/TR/2001/REC-SVG-20010904/DTD/svg10.dtd'>
<svg xmlns:xlink="http://www.w3.org/1999/xlink" style="fill-opacity:1; color-rendering:auto; color-interpolation:auto; text-rendering:auto; stroke:black; stroke-linecap:square; stroke-miterlimit:10; shape-rendering:auto; stroke-opacity:1; fill:black; stroke-dasharray:none; font-weight:normal; stroke-width:1; font-family:'Dialog'; font-style:normal; stroke-linejoin:miter; font-size:12px; stroke-dashoffset:0; image-rendering:auto;" viewBox="0 0 134 105" xmlns="http://www.w3.org/2000/svg"
><!--Generated by the Batik Graphics2D SVG Generator--><defs id="genericDefs"
  /><g
  ><defs id="defs1"
    ><clipPath clipPathUnits="userSpaceOnUse" id="clipPath1"
      ><path style="fill-rule:evenodd;" d="M41 53 L43 60 L51 60 L44 65 L47 72 L41 68 L34 72 L37 65 L30 60 L38 60 L41 53 Z"
      /></clipPath
    ></defs
    ><g style="fill:white; text-rendering:optimizeSpeed; stroke:white;"
    ><rect x="0" width="134" height="105" y="0" style="stroke:none;"
      /><polygon style="fill:none; stroke:black;" points=" 93 64 41 64"
      /><path d="M93 53 C87.5 58.5 98.5 69.5 93 75" style="fill:none; stroke:black;"
      /><polygon style="clip-path:url(#clipPath1); stroke:none;" points=" 41 53 43 60 51 60 44 65 47 72 41 68 34 72 37 65 30 60 38 60 41 53"
      /><rect x="30" y="53" width="22" style="clip-path:url(#clipPath1); fill:rgb(0,166,81); stroke:none;" height="22"
      /><rect x="30" y="53" width="22" style="clip-path:url(#clipPath1); fill:none; stroke:black;" height="22"
      /><polygon style="fill:none; stroke:black;" points=" 41 53 43 60 51 60 44 65 47 72 41 68 34 72 37 65 30 60 38 60 41 53"
    /></g
    ><g style="text-rendering:optimizeSpeed; font-size:10px; font-family:'SansSerif';"
    ><path style="stroke:none;" d="M37.0625 68 L37.9844 68 L37.9844 63.3125 L39.125 63.3125 L39.125 62.5625 L37.9844 62.5625 L37.9844 61.7031 C37.9844 61.0156 38.2344 60.6406 38.75 60.6406 C38.9375 60.6406 39.1562 60.6875 39.3594 60.7812 L39.5625 60.0938 C39.3125 59.9844 38.9844 59.9062 38.6562 59.9062 C37.5625 59.9062 37.0625 60.5938 37.0625 61.7031 L37.0625 62.5625 L36.3281 62.625 L36.3281 63.3125 L37.0625 63.3125 L37.0625 68 ZM40.25 68 L42.125 68 C44.3438 68 45.5469 66.625 45.5469 64.3125 C45.5469 61.9844 44.3438 60.6562 42.0938 60.6562 L40.25 60.6562 L40.25 68 ZM41.1875 67.2344 L41.1875 61.4219 L42.0156 61.4219 C43.7344 61.4219 44.5938 62.4531 44.5938 64.3125 C44.5938 66.1562 43.7344 67.2344 42.0156 67.2344 L41.1875 67.2344 Z"
      /><rect x="35" y="35" width="10" style="fill:white; stroke:none;" height="10"
      /><path style="stroke:none;" d="M38.6562 46.1875 C40.3906 46.1875 42.0156 44.9062 42.0156 42.6562 C42.0156 40.4062 40.625 39.3906 38.9219 39.3906 C38.2969 39.3906 37.8594 39.5469 37.3906 39.7969 L37.6406 36.8281 L41.5312 36.8281 L41.5312 35.7188 L36.5312 35.7188 L36.2031 40.5469 L36.8906 40.9531 C37.4844 40.5625 37.9062 40.3594 38.5938 40.3594 C39.8906 40.3594 40.7188 41.2188 40.7188 42.7031 C40.7188 44.1875 39.75 45.125 38.5469 45.125 C37.3594 45.125 36.6094 44.5781 36.0156 43.9844 L35.3906 44.8281 C36.0781 45.5156 37.0625 46.1875 38.6562 46.1875 ZM44.1762 46 L45.4731 46 L45.4731 35.7188 L44.1762 35.7188 L44.1762 46 Z"
    /></g
    ><g style="fill:white; text-rendering:optimizeSpeed; font-family:'Serif'; stroke:white;"
    ><rect x="56" width="8" height="8" y="68" style="stroke:none;"
      /><path d="M60.9844 73.7031 C60.9375 74.8906 60.1562 75.6562 59.3125 75.6562 C58.2656 75.6562 57.5 74.6875 57.5 72.7188 C57.5 71.2812 58.1562 70.1562 59.3438 70.1562 C60.1406 70.1562 60.7812 70.6875 61.0938 71.6406 L60.9844 73.7031 ZM62.9062 75.2812 C62.7344 75.375 62.5469 75.4219 62.3438 75.4219 C61.9531 75.4219 61.75 75.2188 61.75 74.4219 C61.75 73.4844 61.9688 71.5312 62.1875 69.8281 L62.0312 69.7188 L61.2344 69.9219 L61.1406 70.7969 C60.7812 70.0312 60.1562 69.6562 59.3906 69.6562 C58.0469 69.6562 56.5625 70.8438 56.5625 72.9531 C56.5625 75.0938 57.7188 76.1719 59.1406 76.1719 C60.0156 76.1719 60.6875 75.8125 61.0938 74.9844 C61.2031 75.8594 61.5156 76.1719 62.0156 76.1719 C62.4688 76.1719 62.7969 75.9062 63.0156 75.5625 L62.9062 75.2812 Z" style="fill:black; stroke:none;"
    /></g
  ></g
></svg
>
