<?xml version="1.0"?>
<!DOCTYPE svg PUBLIC '-//W3C//DTD SVG 1.0//EN'
          'http://www.w3.org/TR/2001/REC-SVG-20010904/DTD/svg10.dtd'>
<svg xmlns:xlink="http://www.w3.org/1999/xlink" style="fill-opacity:1; color-rendering:auto; color-interpolation:auto; text-rendering:auto; stroke:black; stroke-linecap:square; stroke-miterlimit:10; shape-rendering:auto; stroke-opacity:1; fill:black; stroke-dasharray:none; font-weight:normal; stroke-width:1; font-family:'Dialog'; font-style:normal; stroke-linejoin:miter; font-size:12px; stroke-dashoffset:0; image-rendering:auto;" viewBox="0 0 186 186" xmlns="http://www.w3.org/2000/svg"
><!--Generated by the Batik Graphics2D SVG Generator--><defs id="genericDefs"
  /><g
  ><defs id="defs1"
    ><clipPath clipPathUnits="userSpaceOnUse" id="clipPath1"
      ><path d="M104 93 C104 99.0751 99.0751 104 93 104 C86.9249 104 82 99.0751 82 93 C82 86.9249 86.9249 82 93 82 C99.0751 82 104 86.9249 104 93 Z"
      /></clipPath
      ><clipPath clipPathUnits="userSpaceOnUse" id="clipPath2"
      ><path style="fill-rule:evenodd;" d="M41 134 L52 156 L30 156 Z"
      /></clipPath
      ><clipPath clipPathUnits="userSpaceOnUse" id="clipPath3"
      ><path style="fill-rule:evenodd;" d="M41 82 L43 89 L51 89 L44 94 L47 101 L41 97 L34 101 L37 94 L30 89 L38 89 L41 82 Z"
      /></clipPath
      ><clipPath clipPathUnits="userSpaceOnUse" id="clipPath4"
      ><path style="fill-rule:evenodd;" d="M41 30 L52 52 L30 52 Z"
      /></clipPath
    ></defs
    ><g style="fill:white; text-rendering:optimizeSpeed; stroke:white;"
    ><rect x="0" width="186" height="186" y="0" style="stroke:none;"
      /><polygon style="fill:none; stroke:black;" points=" 145 93 93 93"
      /><path d="M145 82 C139.5 87.5 150.5 98.5 145 104" style="fill:none; stroke:black;"
      /><polygon style="fill:none; stroke:black;" points=" 93 93 41 145"
      /><polygon style="fill:none; stroke:black;" points=" 93 93 41 93"
      /><polygon style="fill:none; stroke:black;" points=" 93 93 41 41"
      /><circle style="clip-path:url(#clipPath1); stroke:none;" r="11" cx="93" cy="93"
      /><rect x="82" y="82" width="22" style="clip-path:url(#clipPath1); fill:rgb(0,144,188); stroke:none;" height="22"
      /><rect x="82" y="82" width="22" style="clip-path:url(#clipPath1); fill:none; stroke:black;" height="22"
      /><circle style="fill:none; stroke:black;" r="11" cx="93" cy="93"
      /><polygon style="clip-path:url(#clipPath2); stroke:none;" points=" 41 134 52 156 30 156"
      /><rect x="30" y="134" width="22" style="clip-path:url(#clipPath2); fill:rgb(0,166,81); stroke:none;" height="22"
      /><rect x="30" y="134" width="22" style="clip-path:url(#clipPath2); fill:none; stroke:black;" height="22"
      /><polygon style="fill:none; stroke:black;" points=" 41 134 52 156 30 156"
      /><polygon style="clip-path:url(#clipPath3); stroke:none;" points=" 41 82 43 89 51 89 44 94 47 101 41 97 34 101 37 94 30 89 38 89 41 82"
      /><rect x="30" y="82" width="22" style="clip-path:url(#clipPath3); fill:rgb(0,166,81); stroke:none;" height="22"
      /><rect x="30" y="82" width="22" style="clip-path:url(#clipPath3); fill:none; stroke:black;" height="22"
      /><polygon style="fill:none; stroke:black;" points=" 41 82 43 89 51 89 44 94 47 101 41 97 34 101 37 94 30 89 38 89 41 82"
      /><polygon style="clip-path:url(#clipPath4); stroke:none;" points=" 41 30 52 52 30 52"
      /><rect x="30" y="30" width="22" style="clip-path:url(#clipPath4); fill:rgb(0,166,81); stroke:none;" height="22"
      /><rect x="30" y="30" width="22" style="clip-path:url(#clipPath4); fill:none; stroke:black;" height="22"
      /><polygon style="fill:none; stroke:black;" points=" 41 30 52 52 30 52"
      /><rect x="79" y="110" width="6" style="stroke:none;" height="9"
    /></g
    ><g style="font-family:'Serif'; text-rendering:optimizeSpeed; "
    ><path style="stroke:none;" d="M80.4219 118.0938 C81.0781 117.375 81.7031 116.7188 82.0312 116.3438 C83.9219 114.3125 84.5312 113.4688 84.5312 112.3594 C84.5312 111.0156 83.7812 110.0781 82.1562 110.0781 C80.9062 110.0781 79.7969 110.7031 79.5938 111.9688 C79.7188 112.2031 79.9062 112.3438 80.1562 112.3438 C80.4688 112.3438 80.6562 112.1094 80.7969 111.5938 L81.0938 110.6719 C81.3906 110.5938 81.6562 110.5625 81.8906 110.5625 C82.9219 110.5625 83.5469 111.3125 83.5469 112.4219 C83.5469 113.4375 82.9844 114.4219 81.7031 115.9062 C81.125 116.5781 80.3906 117.4375 79.6406 118.2812 L79.6406 119 L84.9219 119 L84.9219 118.0938 L80.4219 118.0938 Z"
      /><rect x="59" y="130" width="8" style="fill:white; stroke:none;" height="8"
      /><path style="stroke:none;" d="M63.9844 135.7031 C63.9375 136.8906 63.1562 137.6562 62.3125 137.6562 C61.2656 137.6562 60.5 136.6875 60.5 134.7188 C60.5 133.2812 61.1562 132.1562 62.3438 132.1562 C63.1406 132.1562 63.7812 132.6875 64.0938 133.6406 L63.9844 135.7031 ZM65.9062 137.2812 C65.7344 137.375 65.5469 137.4219 65.3438 137.4219 C64.9531 137.4219 64.75 137.2188 64.75 136.4219 C64.75 135.4844 64.9688 133.5312 65.1875 131.8281 L65.0312 131.7188 L64.2344 131.9219 L64.1406 132.7969 C63.7812 132.0312 63.1562 131.6562 62.3906 131.6562 C61.0469 131.6562 59.5625 132.8438 59.5625 134.9531 C59.5625 137.0938 60.7188 138.1719 62.1406 138.1719 C63.0156 138.1719 63.6875 137.8125 64.0938 136.9844 C64.2031 137.8594 64.5156 138.1719 65.0156 138.1719 C65.4688 138.1719 65.7969 137.9062 66.0156 137.5625 L65.9062 137.2812 Z"
      /><rect x="71" y="96" width="6" style="fill:white; stroke:none;" height="10"
      /><path style="stroke:none;" d="M73.2344 97.6562 C73.5156 97.5938 73.7656 97.5625 74.0156 97.5625 C75.0625 97.5625 75.6719 98.1719 75.6719 99.2656 C75.6719 100.4375 74.9062 101.1094 73.7031 101.1094 L73.1875 101.1094 L73.1875 101.6406 L73.7969 101.6406 C75.2188 101.6406 75.9062 102.4219 75.9062 103.6406 C75.9062 104.8438 75.1719 105.6875 73.875 105.6875 C73.6094 105.6875 73.3125 105.6562 73.0156 105.5625 L72.7812 104.8125 C72.625 104.2812 72.5 104.0469 72.1406 104.0469 C71.8906 104.0469 71.7031 104.1719 71.5781 104.4219 C71.8438 105.6406 72.7812 106.1719 74.0312 106.1719 C75.7188 106.1719 76.875 105.125 76.875 103.7031 C76.875 102.5 76.2031 101.625 74.7969 101.375 C75.9531 101.0156 76.6094 100.2031 76.6094 99.2031 C76.6094 97.9219 75.6719 97.0781 74.1875 97.0781 C73.0469 97.0781 72.0625 97.5938 71.7969 98.6875 C71.9062 99 72.1094 99.1094 72.3594 99.1094 C72.7344 99.1094 72.8906 98.8906 73 98.4062 L73.2344 97.6562 Z"
      /><rect x="56" y="97" width="8" style="fill:white; stroke:none;" height="8"
      /><path style="stroke:none;" d="M60.9844 102.7031 C60.9375 103.8906 60.1562 104.6562 59.3125 104.6562 C58.2656 104.6562 57.5 103.6875 57.5 101.7188 C57.5 100.2812 58.1562 99.1562 59.3438 99.1562 C60.1406 99.1562 60.7812 99.6875 61.0938 100.6406 L60.9844 102.7031 ZM62.9062 104.2812 C62.7344 104.375 62.5469 104.4219 62.3438 104.4219 C61.9531 104.4219 61.75 104.2188 61.75 103.4219 C61.75 102.4844 61.9688 100.5312 62.1875 98.8281 L62.0312 98.7188 L61.2344 98.9219 L61.1406 99.7969 C60.7812 99.0312 60.1562 98.6562 59.3906 98.6562 C58.0469 98.6562 56.5625 99.8438 56.5625 101.9531 C56.5625 104.0938 57.7188 105.1719 59.1406 105.1719 C60.0156 105.1719 60.6875 104.8125 61.0938 103.9844 C61.2031 104.8594 61.5156 105.1719 62.0156 105.1719 C62.4688 105.1719 62.7969 104.9062 63.0156 104.5625 L62.9062 104.2812 Z"
      /><rect x="67" y="77" width="7" style="fill:white; stroke:none;" height="9"
      /><path style="stroke:none;" d="M68 82.5156 L70.9531 78.2656 L70.9531 82.5156 L68 82.5156 ZM73.2812 82.5156 L71.8594 82.5156 L71.8594 77.125 L71.2344 77.125 L67.3438 82.6406 L67.3438 83.1875 L70.9531 83.1875 L70.9531 86 L71.8594 86 L71.8594 83.1875 L73.2812 83.1875 L73.2812 82.5156 Z"
      /><rect x="48" y="59" width="8" style="fill:white; stroke:none;" height="8"
      /><path style="stroke:none;" d="M52.9844 64.7031 C52.9375 65.8906 52.1562 66.6562 51.3125 66.6562 C50.2656 66.6562 49.5 65.6875 49.5 63.7188 C49.5 62.2812 50.1562 61.1562 51.3438 61.1562 C52.1406 61.1562 52.7812 61.6875 53.0938 62.6406 L52.9844 64.7031 ZM54.9062 66.2812 C54.7344 66.375 54.5469 66.4219 54.3438 66.4219 C53.9531 66.4219 53.75 66.2188 53.75 65.4219 C53.75 64.4844 53.9688 62.5312 54.1875 60.8281 L54.0312 60.7188 L53.2344 60.9219 L53.1406 61.7969 C52.7812 61.0312 52.1562 60.6562 51.3906 60.6562 C50.0469 60.6562 48.5625 61.8438 48.5625 63.9531 C48.5625 66.0938 49.7188 67.1719 51.1406 67.1719 C52.0156 67.1719 52.6875 66.8125 53.0938 65.9844 C53.2031 66.8594 53.5156 67.1719 54.0156 67.1719 C54.4688 67.1719 54.7969 66.9062 55.0156 66.5625 L54.9062 66.2812 Z"
      /><rect x="109" y="96" width="5" style="fill:white; stroke:none;" height="10"
      /><path style="stroke:none;" d="M110.8906 104.6875 C110.4844 104.6875 110.1562 105.0469 110.1562 105.4219 C110.1562 105.8125 110.4844 106.1562 110.8906 106.1562 C111.2969 106.1562 111.6406 105.8125 111.6406 105.4219 C111.6406 105.0469 111.2969 104.6875 110.8906 104.6875 ZM112.4688 98.5781 C112.7188 98.8906 112.875 99.2656 112.8906 99.6562 C112.8906 100.1875 112.625 100.5 112.0312 100.7656 L111.4062 101.0156 C110.6406 101.3125 110.3906 101.5469 110.3906 101.9375 C110.3906 102.1094 110.4531 102.3438 110.5781 102.8125 L110.7344 103.3438 L111.1094 103.3438 L111.0938 102.5312 C111.0938 102.0938 111.2031 101.9688 111.7812 101.7344 L112.2031 101.5625 C113.0312 101.2188 113.4531 100.6875 113.4531 99.8438 C113.4531 98.1562 111.6562 97.1875 110.5 97.0312 C110.1094 97.125 109.9062 97.2969 109.9062 97.6406 C109.9062 97.9375 110.0625 98.1562 110.7188 98.2656 L112.4688 98.5781 Z"
    /></g
  ></g
></svg
>
