<?xml version="1.0"?>
<!DOCTYPE svg PUBLIC '-//W3C//DTD SVG 1.0//EN'
          'http://www.w3.org/TR/2001/REC-SVG-20010904/DTD/svg10.dtd'>
<svg xmlns:xlink="http://www.w3.org/1999/xlink" style="fill-opacity:1; color-rendering:auto; color-interpolation:auto; text-rendering:auto; stroke:black; stroke-linecap:square; stroke-miterlimit:10; shape-rendering:auto; stroke-opacity:1; fill:black; stroke-dasharray:none; font-weight:normal; stroke-width:1; font-family:'Dialog'; font-style:normal; stroke-linejoin:miter; font-size:12px; stroke-dashoffset:0; image-rendering:auto;" viewBox="0 0 386 134" xmlns="http://www.w3.org/2000/svg"
><!--Generated by the Batik Graphics2D SVG Generator--><defs id="genericDefs"
  /><g
  ><defs id="defs1"
    ><clipPath clipPathUnits="userSpaceOnUse" id="clipPath1"
      ><path d="M304 67 C304 73.0751 299.0751 78 293 78 C286.9249 78 282 73.0751 282 67 C282 60.9249 286.9249 56 293 56 C299.0751 56 304 60.9249 304 67 Z"
      /></clipPath
      ><clipPath clipPathUnits="userSpaceOnUse" id="clipPath2"
      ><path d="M252 67 C252 73.0751 247.0751 78 241 78 C234.9249 78 230 73.0751 230 67 C230 60.9249 234.9249 56 241 56 C247.0751 56 252 60.9249 252 67 Z"
      /></clipPath
      ><clipPath clipPathUnits="userSpaceOnUse" id="clipPath3"
      ><path d="M178 82 L200 82 L200 104 L178 104 L178 82 Z"
      /></clipPath
      ><clipPath clipPathUnits="userSpaceOnUse" id="clipPath4"
      ><path d="M148 93 C148 99.0751 143.0751 104 137 104 C130.9249 104 126 99.0751 126 93 C126 86.9249 130.9249 82 137 82 C143.0751 82 148 86.9249 148 93 Z"
      /></clipPath
      ><clipPath clipPathUnits="userSpaceOnUse" id="clipPath5"
      ><path d="M178 30 L200 30 L200 52 L178 52 L178 30 Z"
      /></clipPath
      ><clipPath clipPathUnits="userSpaceOnUse" id="clipPath6"
      ><path d="M148 41 C148 47.0751 143.0751 52 137 52 C130.9249 52 126 47.0751 126 41 C126 34.9249 130.9249 30 137 30 C143.0751 30 148 34.9249 148 41 Z"
      /></clipPath
      ><clipPath clipPathUnits="userSpaceOnUse" id="clipPath7"
      ><path style="fill-rule:evenodd;" d="M41 82 L52 93 L41 104 L30 93 Z"
      /></clipPath
      ><clipPath clipPathUnits="userSpaceOnUse" id="clipPath8"
      ><path d="M52 41 C52 47.0751 47.0751 52 41 52 C34.9249 52 30 47.0751 30 41 C30 34.9249 34.9249 30 41 30 C47.0751 30 52 34.9249 52 41 Z"
      /></clipPath
    ></defs
    ><g style="fill:white; text-rendering:optimizeSpeed; stroke:white;"
    ><rect x="0" width="386" height="134" y="0" style="stroke:none;"
      /><polygon style="fill:none; stroke:black;" points=" 345 67 293 67"
      /><path d="M345 56 C339.5 61.5 350.5 72.5 345 78" style="fill:none; stroke:black;"
      /><polygon style="fill:none; stroke:black;" points=" 293 67 241 67"
      /><circle style="clip-path:url(#clipPath1); stroke:none;" r="11" cx="293" cy="67"
      /><rect x="282" y="56" width="22" style="clip-path:url(#clipPath1); fill:rgb(0,144,188); stroke:none;" height="22"
      /><rect x="282" y="56" width="22" style="clip-path:url(#clipPath1); fill:none; stroke:black;" height="22"
      /><circle style="fill:none; stroke:black;" r="11" cx="293" cy="67"
      /><polygon style="fill:none; stroke:black;" points=" 241 67 189 93"
      /><polygon style="fill:none; stroke:black;" points=" 241 67 189 41"
      /><circle style="clip-path:url(#clipPath2); stroke:none;" r="11" cx="241" cy="67"
      /><rect x="230" y="56" width="22" style="clip-path:url(#clipPath2); fill:rgb(255,212,0); stroke:none;" height="22"
      /><rect x="230" y="56" width="22" style="clip-path:url(#clipPath2); fill:none; stroke:black;" height="22"
      /><circle style="fill:none; stroke:black;" r="11" cx="241" cy="67"
      /><polygon style="fill:none; stroke:black;" points=" 189 93 137 93"
      /><rect x="178" y="82" width="22" style="clip-path:url(#clipPath3); stroke:none;" height="22"
      /><rect x="178" y="82" width="22" style="clip-path:url(#clipPath3); fill:rgb(0,144,188); stroke:none;" height="22"
      /><rect x="178" y="82" width="22" style="clip-path:url(#clipPath3); fill:none; stroke:black;" height="22"
      /><rect x="178" y="82" width="22" style="fill:none; stroke:black;" height="22"
      /><circle style="clip-path:url(#clipPath4); stroke:none;" r="11" cx="137" cy="93"
      /><rect x="126" y="82" width="22" style="clip-path:url(#clipPath4); fill:rgb(255,212,0); stroke:none;" height="22"
      /><rect x="126" y="82" width="22" style="clip-path:url(#clipPath4); fill:none; stroke:black;" height="22"
      /><circle style="fill:none; stroke:black;" r="11" cx="137" cy="93"
      /><rect x="166" y="96" width="7" style="stroke:none;" height="9"
    /></g
    ><g style="font-family:'Serif'; text-rendering:optimizeSpeed; "
    ><path style="stroke:none;" d="M167 101.5156 L169.9531 97.2656 L169.9531 101.5156 L167 101.5156 ZM172.2812 101.5156 L170.8594 101.5156 L170.8594 96.125 L170.2344 96.125 L166.3438 101.6406 L166.3438 102.1875 L169.9531 102.1875 L169.9531 105 L170.8594 105 L170.8594 102.1875 L172.2812 102.1875 L172.2812 101.5156 Z"
      /><rect x="153" y="94" width="6" style="fill:white; stroke:none;" height="13"
      /><path style="stroke:none;" d="M155.0938 100.2031 C155.0938 98.6562 155.75 97.8125 156.7969 97.8125 C157.7188 97.8125 158.2656 98.4531 158.2656 99.5156 C158.2656 100.7188 157.5 101.4375 156.1875 101.7031 L156.2969 102.3125 C158.2188 102.2344 158.9375 103.2188 158.9375 104.4375 C158.9375 105.625 158.2344 106.4219 156.9531 106.4219 C156.25 106.4219 155.6562 106.1562 155.0938 105.7188 L155.0938 100.2031 ZM154.2031 106.9062 L154.1094 109.375 L154.2656 109.4844 L155.1562 109.2656 L155.0156 106.0938 C155.5469 106.8438 156.3594 107.1719 157.1719 107.1719 C158.5625 107.1719 159.8594 106.2188 159.8594 104.4844 C159.8594 102.9531 158.875 102.1094 157.125 102 C158.5625 101.6094 159.1875 100.4531 159.1875 99.4844 C159.1875 98.0938 158.1562 97.3125 156.9062 97.3125 C155.2969 97.3125 154.2188 98.5469 154.2188 100.5156 L154.2031 106.9062 Z"
      /><polygon style="fill:none;" points=" 189 41 137 41"
      /><rect x="178" y="30" width="22" style="clip-path:url(#clipPath5); fill:white; stroke:none;" height="22"
      /><rect x="178" y="30" width="22" style="clip-path:url(#clipPath5); fill:rgb(0,144,188); stroke:none;" height="22"
      /><rect x="178" y="30" width="22" style="fill:none; clip-path:url(#clipPath5);" height="22"
      /><rect x="178" width="22" height="22" y="30" style="fill:none;"
      /><circle style="fill:white; clip-path:url(#clipPath6); stroke:none;" r="11" cx="137" cy="41"
      /><rect x="126" y="30" width="22" style="clip-path:url(#clipPath6); fill:rgb(255,212,0); stroke:none;" height="22"
      /><rect x="126" y="30" width="22" style="fill:none; clip-path:url(#clipPath6);" height="22"
      /><circle r="11" style="fill:none;" cx="137" cy="41"
      /><rect x="166" y="44" width="7" style="fill:white; stroke:none;" height="9"
      /><path style="stroke:none;" d="M167 49.5156 L169.9531 45.2656 L169.9531 49.5156 L167 49.5156 ZM172.2812 49.5156 L170.8594 49.5156 L170.8594 44.125 L170.2344 44.125 L166.3438 49.6406 L166.3438 50.1875 L169.9531 50.1875 L169.9531 53 L170.8594 53 L170.8594 50.1875 L172.2812 50.1875 L172.2812 49.5156 Z"
      /><rect x="153" y="42" width="6" style="fill:white; stroke:none;" height="13"
      /><path style="stroke:none;" d="M155.0938 48.2031 C155.0938 46.6562 155.75 45.8125 156.7969 45.8125 C157.7188 45.8125 158.2656 46.4531 158.2656 47.5156 C158.2656 48.7188 157.5 49.4375 156.1875 49.7031 L156.2969 50.3125 C158.2188 50.2344 158.9375 51.2188 158.9375 52.4375 C158.9375 53.625 158.2344 54.4219 156.9531 54.4219 C156.25 54.4219 155.6562 54.1562 155.0938 53.7188 L155.0938 48.2031 ZM154.2031 54.9062 L154.1094 57.375 L154.2656 57.4844 L155.1562 57.2656 L155.0156 54.0938 C155.5469 54.8438 156.3594 55.1719 157.1719 55.1719 C158.5625 55.1719 159.8594 54.2188 159.8594 52.4844 C159.8594 50.9531 158.875 50.1094 157.125 50 C158.5625 49.6094 159.1875 48.4531 159.1875 47.4844 C159.1875 46.0938 158.1562 45.3125 156.9062 45.3125 C155.2969 45.3125 154.2188 46.5469 154.2188 48.5156 L154.2031 54.9062 Z"
      /><rect x="223" y="78" width="6" style="fill:white; stroke:none;" height="10"
      /><path style="stroke:none;" d="M225.2344 79.6562 C225.5156 79.5938 225.7656 79.5625 226.0156 79.5625 C227.0625 79.5625 227.6719 80.1719 227.6719 81.2656 C227.6719 82.4375 226.9062 83.1094 225.7031 83.1094 L225.1875 83.1094 L225.1875 83.6406 L225.7969 83.6406 C227.2188 83.6406 227.9062 84.4219 227.9062 85.6406 C227.9062 86.8438 227.1719 87.6875 225.875 87.6875 C225.6094 87.6875 225.3125 87.6562 225.0156 87.5625 L224.7812 86.8125 C224.625 86.2812 224.5 86.0469 224.1406 86.0469 C223.8906 86.0469 223.7031 86.1719 223.5781 86.4219 C223.8438 87.6406 224.7812 88.1719 226.0312 88.1719 C227.7188 88.1719 228.875 87.125 228.875 85.7031 C228.875 84.5 228.2031 83.625 226.7969 83.375 C227.9531 83.0156 228.6094 82.2031 228.6094 81.2031 C228.6094 79.9219 227.6719 79.0781 226.1875 79.0781 C225.0469 79.0781 224.0625 79.5938 223.7969 80.6875 C223.9062 81 224.1094 81.1094 224.3594 81.1094 C224.7344 81.1094 224.8906 80.8906 225 80.4062 L225.2344 79.6562 Z"
      /><rect x="207" y="84" width="6" style="fill:white; stroke:none;" height="13"
      /><path style="stroke:none;" d="M209.0938 90.2031 C209.0938 88.6562 209.75 87.8125 210.7969 87.8125 C211.7188 87.8125 212.2656 88.4531 212.2656 89.5156 C212.2656 90.7188 211.5 91.4375 210.1875 91.7031 L210.2969 92.3125 C212.2188 92.2344 212.9375 93.2188 212.9375 94.4375 C212.9375 95.625 212.2344 96.4219 210.9531 96.4219 C210.25 96.4219 209.6562 96.1562 209.0938 95.7188 L209.0938 90.2031 ZM208.2031 96.9062 L208.1094 99.375 L208.2656 99.4844 L209.1562 99.2656 L209.0156 96.0938 C209.5469 96.8438 210.3594 97.1719 211.1719 97.1719 C212.5625 97.1719 213.8594 96.2188 213.8594 94.4844 C213.8594 92.9531 212.875 92.1094 211.125 92 C212.5625 91.6094 213.1875 90.4531 213.1875 89.4844 C213.1875 88.0938 212.1562 87.3125 210.9062 87.3125 C209.2969 87.3125 208.2188 88.5469 208.2188 90.5156 L208.2031 96.9062 Z"
      /><rect x="216" y="60" width="6" style="fill:white; stroke:none;" height="10"
      /><path style="stroke:none;" d="M219.3438 69.6875 C218.2031 69.6875 217.5312 68.5 217.5312 66.2969 C217.5312 66.2188 217.5312 66.125 217.5312 66.0469 C218.0938 65.5 218.7188 65.3125 219.3438 65.3125 C220.3125 65.3125 220.9531 65.9844 220.9531 67.4531 C220.9531 68.9375 220.3125 69.6875 219.3438 69.6875 ZM221.5312 61.0781 C218.3438 61.4531 216.5625 63.7656 216.5625 66.4531 C216.5625 68.7812 217.6094 70.1719 219.3125 70.1719 C220.8438 70.1719 221.9219 69.1094 221.9219 67.2812 C221.9219 65.6875 220.9688 64.6562 219.5625 64.6562 C218.8281 64.6562 218.1406 64.9844 217.5781 65.5781 C217.7969 63.4062 219.0781 61.9688 221.5938 61.3906 L221.5312 61.0781 Z"
      /><rect x="200" y="50" width="6" style="fill:white; stroke:none;" height="13"
      /><path style="stroke:none;" d="M202.0938 56.2031 C202.0938 54.6562 202.75 53.8125 203.7969 53.8125 C204.7188 53.8125 205.2656 54.4531 205.2656 55.5156 C205.2656 56.7188 204.5 57.4375 203.1875 57.7031 L203.2969 58.3125 C205.2188 58.2344 205.9375 59.2188 205.9375 60.4375 C205.9375 61.625 205.2344 62.4219 203.9531 62.4219 C203.25 62.4219 202.6562 62.1562 202.0938 61.7188 L202.0938 56.2031 ZM201.2031 62.9062 L201.1094 65.375 L201.2656 65.4844 L202.1562 65.2656 L202.0156 62.0938 C202.5469 62.8438 203.3594 63.1719 204.1719 63.1719 C205.5625 63.1719 206.8594 62.2188 206.8594 60.4844 C206.8594 58.9531 205.875 58.1094 204.125 58 C205.5625 57.6094 206.1875 56.4531 206.1875 55.4844 C206.1875 54.0938 205.1562 53.3125 203.9062 53.3125 C202.2969 53.3125 201.2188 54.5469 201.2188 56.5156 L201.2031 62.9062 Z"
      /><rect x="270" y="70" width="7" style="fill:white; stroke:none;" height="9"
      /><path style="stroke:none;" d="M271 75.5156 L273.9531 71.2656 L273.9531 75.5156 L271 75.5156 ZM276.2812 75.5156 L274.8594 75.5156 L274.8594 70.125 L274.2344 70.125 L270.3438 75.6406 L270.3438 76.1875 L273.9531 76.1875 L273.9531 79 L274.8594 79 L274.8594 76.1875 L276.2812 76.1875 L276.2812 75.5156 Z"
      /><rect x="257" y="68" width="6" style="fill:white; stroke:none;" height="13"
      /><path style="stroke:none;" d="M259.0938 74.2031 C259.0938 72.6562 259.75 71.8125 260.7969 71.8125 C261.7188 71.8125 262.2656 72.4531 262.2656 73.5156 C262.2656 74.7188 261.5 75.4375 260.1875 75.7031 L260.2969 76.3125 C262.2188 76.2344 262.9375 77.2188 262.9375 78.4375 C262.9375 79.625 262.2344 80.4219 260.9531 80.4219 C260.25 80.4219 259.6562 80.1562 259.0938 79.7188 L259.0938 74.2031 ZM258.2031 80.9062 L258.1094 83.375 L258.2656 83.4844 L259.1562 83.2656 L259.0156 80.0938 C259.5469 80.8438 260.3594 81.1719 261.1719 81.1719 C262.5625 81.1719 263.8594 80.2188 263.8594 78.4844 C263.8594 76.9531 262.875 76.1094 261.125 76 C262.5625 75.6094 263.1875 74.4531 263.1875 73.4844 C263.1875 72.0938 262.1562 71.3125 260.9062 71.3125 C259.2969 71.3125 258.2188 72.5469 258.2188 74.5156 L258.2031 80.9062 Z"
      /><rect x="309" y="70" width="5" style="fill:white; stroke:none;" height="10"
      /><path style="stroke:none;" d="M310.8906 78.6875 C310.4844 78.6875 310.1562 79.0469 310.1562 79.4219 C310.1562 79.8125 310.4844 80.1562 310.8906 80.1562 C311.2969 80.1562 311.6406 79.8125 311.6406 79.4219 C311.6406 79.0469 311.2969 78.6875 310.8906 78.6875 ZM312.4688 72.5781 C312.7188 72.8906 312.875 73.2656 312.8906 73.6562 C312.8906 74.1875 312.625 74.5 312.0312 74.7656 L311.4062 75.0156 C310.6406 75.3125 310.3906 75.5469 310.3906 75.9375 C310.3906 76.1094 310.4531 76.3438 310.5781 76.8125 L310.7344 77.3438 L311.1094 77.3438 L311.0938 76.5312 C311.0938 76.0938 311.2031 75.9688 311.7812 75.7344 L312.2031 75.5625 C313.0312 75.2188 313.4531 74.6875 313.4531 73.8438 C313.4531 72.1562 311.6562 71.1875 310.5 71.0312 C310.1094 71.125 309.9062 71.2969 309.9062 71.6406 C309.9062 71.9375 310.0625 72.1562 310.7188 72.2656 L312.4688 72.5781 Z"
      /><polygon style="fill:none;" points=" 126 104 115 104 115 30 126 30 115 30 115 104"
      /><polygon style="fill:none;" points=" 93 93 41 93"
      /><polygon style="fill:white; clip-path:url(#clipPath7); stroke:none;" points=" 41 82 52 93 41 104 30 93"
      /><rect x="30" y="82" width="22" style="clip-path:url(#clipPath7); fill:rgb(165,67,153); stroke:none;" height="22"
      /><rect x="30" y="82" width="22" style="fill:none; clip-path:url(#clipPath7);" height="22"
      /><polygon style="fill:none;" points=" 41 82 52 93 41 104 30 93"
      /><rect x="71" y="96" width="5" style="fill:white; stroke:none;" height="10"
      /><path style="stroke:none;" d="M72.8906 104.6875 C72.4844 104.6875 72.1562 105.0469 72.1562 105.4219 C72.1562 105.8125 72.4844 106.1562 72.8906 106.1562 C73.2969 106.1562 73.6406 105.8125 73.6406 105.4219 C73.6406 105.0469 73.2969 104.6875 72.8906 104.6875 ZM74.4688 98.5781 C74.7188 98.8906 74.875 99.2656 74.8906 99.6562 C74.8906 100.1875 74.625 100.5 74.0312 100.7656 L73.4062 101.0156 C72.6406 101.3125 72.3906 101.5469 72.3906 101.9375 C72.3906 102.1094 72.4531 102.3438 72.5781 102.8125 L72.7344 103.3438 L73.1094 103.3438 L73.0938 102.5312 C73.0938 102.0938 73.2031 101.9688 73.7812 101.7344 L74.2031 101.5625 C75.0312 101.2188 75.4531 100.6875 75.4531 99.8438 C75.4531 98.1562 73.6562 97.1875 72.5 97.0312 C72.1094 97.125 71.9062 97.2969 71.9062 97.6406 C71.9062 97.9375 72.0625 98.1562 72.7188 98.2656 L74.4688 98.5781 Z"
      /><rect x="57" y="96" width="5" style="fill:white; stroke:none;" height="10"
      /><path style="stroke:none;" d="M58.8906 104.6875 C58.4844 104.6875 58.1562 105.0469 58.1562 105.4219 C58.1562 105.8125 58.4844 106.1562 58.8906 106.1562 C59.2969 106.1562 59.6406 105.8125 59.6406 105.4219 C59.6406 105.0469 59.2969 104.6875 58.8906 104.6875 ZM60.4688 98.5781 C60.7188 98.8906 60.875 99.2656 60.8906 99.6562 C60.8906 100.1875 60.625 100.5 60.0312 100.7656 L59.4062 101.0156 C58.6406 101.3125 58.3906 101.5469 58.3906 101.9375 C58.3906 102.1094 58.4531 102.3438 58.5781 102.8125 L58.7344 103.3438 L59.1094 103.3438 L59.0938 102.5312 C59.0938 102.0938 59.2031 101.9688 59.7812 101.7344 L60.2031 101.5625 C61.0312 101.2188 61.4531 100.6875 61.4531 99.8438 C61.4531 98.1562 59.6562 97.1875 58.5 97.0312 C58.1094 97.125 57.9062 97.2969 57.9062 97.6406 C57.9062 97.9375 58.0625 98.1562 58.7188 98.2656 L60.4688 98.5781 Z"
      /><polygon style="fill:none;" points=" 93 41 41 41"
      /><circle style="fill:white; clip-path:url(#clipPath8); stroke:none;" r="11" cx="41" cy="41"
      /><rect x="30" y="30" width="22" style="clip-path:url(#clipPath8); fill:rgb(255,212,0); stroke:none;" height="22"
      /><rect x="30" y="30" width="22" style="fill:none; clip-path:url(#clipPath8);" height="22"
      /><circle r="11" style="fill:none;" cx="41" cy="41"
      /><rect x="71" y="44" width="6" style="fill:white; stroke:none;" height="10"
      /><path style="stroke:none;" d="M73.2344 45.6562 C73.5156 45.5938 73.7656 45.5625 74.0156 45.5625 C75.0625 45.5625 75.6719 46.1719 75.6719 47.2656 C75.6719 48.4375 74.9062 49.1094 73.7031 49.1094 L73.1875 49.1094 L73.1875 49.6406 L73.7969 49.6406 C75.2188 49.6406 75.9062 50.4219 75.9062 51.6406 C75.9062 52.8438 75.1719 53.6875 73.875 53.6875 C73.6094 53.6875 73.3125 53.6562 73.0156 53.5625 L72.7812 52.8125 C72.625 52.2812 72.5 52.0469 72.1406 52.0469 C71.8906 52.0469 71.7031 52.1719 71.5781 52.4219 C71.8438 53.6406 72.7812 54.1719 74.0312 54.1719 C75.7188 54.1719 76.875 53.125 76.875 51.7031 C76.875 50.5 76.2031 49.625 74.7969 49.375 C75.9531 49.0156 76.6094 48.2031 76.6094 47.2031 C76.6094 45.9219 75.6719 45.0781 74.1875 45.0781 C73.0469 45.0781 72.0625 45.5938 71.7969 46.6875 C71.9062 47 72.1094 47.1094 72.3594 47.1094 C72.7344 47.1094 72.8906 46.8906 73 46.4062 L73.2344 45.6562 Z"
      /><rect x="56" y="45" width="8" style="fill:white; stroke:none;" height="8"
      /><path style="stroke:none;" d="M60.9844 50.7031 C60.9375 51.8906 60.1562 52.6562 59.3125 52.6562 C58.2656 52.6562 57.5 51.6875 57.5 49.7188 C57.5 48.2812 58.1562 47.1562 59.3438 47.1562 C60.1406 47.1562 60.7812 47.6875 61.0938 48.6406 L60.9844 50.7031 ZM62.9062 52.2812 C62.7344 52.375 62.5469 52.4219 62.3438 52.4219 C61.9531 52.4219 61.75 52.2188 61.75 51.4219 C61.75 50.4844 61.9688 48.5312 62.1875 46.8281 L62.0312 46.7188 L61.2344 46.9219 L61.1406 47.7969 C60.7812 47.0312 60.1562 46.6562 59.3906 46.6562 C58.0469 46.6562 56.5625 47.8438 56.5625 49.9531 C56.5625 52.0938 57.7188 53.1719 59.1406 53.1719 C60.0156 53.1719 60.6875 52.8125 61.0938 51.9844 C61.2031 52.8594 61.5156 53.1719 62.0156 53.1719 C62.4688 53.1719 62.7969 52.9062 63.0156 52.5625 L62.9062 52.2812 Z"
    /></g
  ></g
></svg
>
