<?xml version="1.0"?>
<!DOCTYPE svg PUBLIC '-//W3C//DTD SVG 1.0//EN'
          'http://www.w3.org/TR/2001/REC-SVG-20010904/DTD/svg10.dtd'>
<svg xmlns:xlink="http://www.w3.org/1999/xlink" style="fill-opacity:1; color-rendering:auto; color-interpolation:auto; text-rendering:auto; stroke:black; stroke-linecap:square; stroke-miterlimit:10; shape-rendering:auto; stroke-opacity:1; fill:black; stroke-dasharray:none; font-weight:normal; stroke-width:1; font-family:'Dialog'; font-style:normal; stroke-linejoin:miter; font-size:12px; stroke-dashoffset:0; image-rendering:auto;" viewBox="0 0 238 82" xmlns="http://www.w3.org/2000/svg"
><!--Generated by the Batik Graphics2D SVG Generator--><defs id="genericDefs"
  /><g
  ><defs id="defs1"
    ><clipPath clipPathUnits="userSpaceOnUse" id="clipPath1"
      ><path d="M134 30 L156 30 L156 52 L134 52 L134 30 Z"
      /></clipPath
      ><clipPath clipPathUnits="userSpaceOnUse" id="clipPath2"
      ><path style="fill-rule:evenodd;" d="M93 30 L104 52 L82 52 Z"
      /></clipPath
      ><clipPath clipPathUnits="userSpaceOnUse" id="clipPath3"
      ><path d="M52 41 C52 47.0751 47.0751 52 41 52 C34.9249 52 30 47.0751 30 41 C30 34.9249 34.9249 30 41 30 C47.0751 30 52 34.9249 52 41 Z"
      /></clipPath
    ></defs
    ><g style="fill:white; text-rendering:optimizeSpeed; stroke:white;"
    ><rect x="0" width="238" height="82" y="0" style="stroke:none;"
      /><polygon style="fill:none; stroke:black;" points=" 197 41 145 41"
      /><path d="M197 30 C191.5 35.5 202.5 46.5 197 52" style="fill:none; stroke:black;"
      /><polygon style="fill:none; stroke:black;" points=" 145 41 93 41"
      /><rect x="134" y="30" width="22" style="clip-path:url(#clipPath1); stroke:none;" height="22"
      /><rect x="134" y="30" width="22" style="clip-path:url(#clipPath1); fill:rgb(0,144,188); stroke:none;" height="22"
      /><rect x="134" y="30" width="22" style="clip-path:url(#clipPath1); fill:none; stroke:black;" height="22"
      /><rect x="134" y="30" width="22" style="fill:none; stroke:black;" height="22"
      /><polygon style="fill:none; stroke:black;" points=" 93 41 41 41"
      /><polygon style="clip-path:url(#clipPath2); stroke:none;" points=" 93 30 104 52 82 52"
      /><rect x="82" y="30" width="22" style="clip-path:url(#clipPath2); fill:rgb(0,166,81); stroke:none;" height="22"
      /><rect x="82" y="30" width="22" style="clip-path:url(#clipPath2); fill:none; stroke:black;" height="22"
      /><polygon style="fill:none; stroke:black;" points=" 93 30 104 52 82 52"
      /><circle style="clip-path:url(#clipPath3); stroke:none;" r="11" cx="41" cy="41"
      /><rect x="30" y="30" width="22" style="clip-path:url(#clipPath3); fill:rgb(255,212,0); stroke:none;" height="22"
      /><rect x="30" y="30" width="22" style="clip-path:url(#clipPath3); fill:none; stroke:black;" height="22"
      /><circle style="fill:none; stroke:black;" r="11" cx="41" cy="41"
    /></g
    ><g style="text-rendering:optimizeSpeed; font-size:10px; font-family:'SansSerif';"
    ><path style="stroke:none;" d="M40.0625 45 L40.9844 45 L40.9844 40.3125 L42.125 40.3125 L42.125 39.5625 L40.9844 39.5625 L40.9844 38.7031 C40.9844 38.0156 41.2344 37.6406 41.75 37.6406 C41.9375 37.6406 42.1562 37.6875 42.3594 37.7812 L42.5625 37.0938 C42.3125 36.9844 41.9844 36.9062 41.6562 36.9062 C40.5625 36.9062 40.0625 37.5938 40.0625 38.7031 L40.0625 39.5625 L39.3281 39.625 L39.3281 40.3125 L40.0625 40.3125 L40.0625 45 Z"
    /></g
    ><g style="fill:white; text-rendering:optimizeSpeed; font-family:'Serif'; stroke:white;"
    ><rect x="70" width="7" height="9" y="44" style="stroke:none;"
      /><path d="M71 49.5156 L73.9531 45.2656 L73.9531 49.5156 L71 49.5156 ZM76.2812 49.5156 L74.8594 49.5156 L74.8594 44.125 L74.2344 44.125 L70.3438 49.6406 L70.3438 50.1875 L73.9531 50.1875 L73.9531 53 L74.8594 53 L74.8594 50.1875 L76.2812 50.1875 L76.2812 49.5156 Z" style="fill:black; stroke:none;"
      /><rect x="57" width="6" height="13" y="42" style="stroke:none;"
      /><path d="M59.0938 48.2031 C59.0938 46.6562 59.75 45.8125 60.7969 45.8125 C61.7188 45.8125 62.2656 46.4531 62.2656 47.5156 C62.2656 48.7188 61.5 49.4375 60.1875 49.7031 L60.2969 50.3125 C62.2188 50.2344 62.9375 51.2188 62.9375 52.4375 C62.9375 53.625 62.2344 54.4219 60.9531 54.4219 C60.25 54.4219 59.6562 54.1562 59.0938 53.7188 L59.0938 48.2031 ZM58.2031 54.9062 L58.1094 57.375 L58.2656 57.4844 L59.1562 57.2656 L59.0156 54.0938 C59.5469 54.8438 60.3594 55.1719 61.1719 55.1719 C62.5625 55.1719 63.8594 54.2188 63.8594 52.4844 C63.8594 50.9531 62.875 50.1094 61.125 50 C62.5625 49.6094 63.1875 48.4531 63.1875 47.4844 C63.1875 46.0938 62.1562 45.3125 60.9062 45.3125 C59.2969 45.3125 58.2188 46.5469 58.2188 48.5156 L58.2031 54.9062 Z" style="fill:black; stroke:none;"
      /><rect x="123" width="6" height="10" y="44" style="stroke:none;"
      /><path d="M125.2344 45.6562 C125.5156 45.5938 125.7656 45.5625 126.0156 45.5625 C127.0625 45.5625 127.6719 46.1719 127.6719 47.2656 C127.6719 48.4375 126.9062 49.1094 125.7031 49.1094 L125.1875 49.1094 L125.1875 49.6406 L125.7969 49.6406 C127.2188 49.6406 127.9062 50.4219 127.9062 51.6406 C127.9062 52.8438 127.1719 53.6875 125.875 53.6875 C125.6094 53.6875 125.3125 53.6562 125.0156 53.5625 L124.7812 52.8125 C124.625 52.2812 124.5 52.0469 124.1406 52.0469 C123.8906 52.0469 123.7031 52.1719 123.5781 52.4219 C123.8438 53.6406 124.7812 54.1719 126.0312 54.1719 C127.7188 54.1719 128.875 53.125 128.875 51.7031 C128.875 50.5 128.2031 49.625 126.7969 49.375 C127.9531 49.0156 128.6094 48.2031 128.6094 47.2031 C128.6094 45.9219 127.6719 45.0781 126.1875 45.0781 C125.0469 45.0781 124.0625 45.5938 123.7969 46.6875 C123.9062 47 124.1094 47.1094 124.3594 47.1094 C124.7344 47.1094 124.8906 46.8906 125 46.4062 L125.2344 45.6562 Z" style="fill:black; stroke:none;"
      /><rect x="108" width="8" height="8" y="45" style="stroke:none;"
      /><path d="M112.9844 50.7031 C112.9375 51.8906 112.1562 52.6562 111.3125 52.6562 C110.2656 52.6562 109.5 51.6875 109.5 49.7188 C109.5 48.2812 110.1562 47.1562 111.3438 47.1562 C112.1406 47.1562 112.7812 47.6875 113.0938 48.6406 L112.9844 50.7031 ZM114.9062 52.2812 C114.7344 52.375 114.5469 52.4219 114.3438 52.4219 C113.9531 52.4219 113.75 52.2188 113.75 51.4219 C113.75 50.4844 113.9688 48.5312 114.1875 46.8281 L114.0312 46.7188 L113.2344 46.9219 L113.1406 47.7969 C112.7812 47.0312 112.1562 46.6562 111.3906 46.6562 C110.0469 46.6562 108.5625 47.8438 108.5625 49.9531 C108.5625 52.0938 109.7188 53.1719 111.1406 53.1719 C112.0156 53.1719 112.6875 52.8125 113.0938 51.9844 C113.2031 52.8594 113.5156 53.1719 114.0156 53.1719 C114.4688 53.1719 114.7969 52.9062 115.0156 52.5625 L114.9062 52.2812 Z" style="fill:black; stroke:none;"
      /><rect x="160" width="8" height="8" y="45" style="stroke:none;"
      /><path d="M164.9844 50.7031 C164.9375 51.8906 164.1562 52.6562 163.3125 52.6562 C162.2656 52.6562 161.5 51.6875 161.5 49.7188 C161.5 48.2812 162.1562 47.1562 163.3438 47.1562 C164.1406 47.1562 164.7812 47.6875 165.0938 48.6406 L164.9844 50.7031 ZM166.9062 52.2812 C166.7344 52.375 166.5469 52.4219 166.3438 52.4219 C165.9531 52.4219 165.75 52.2188 165.75 51.4219 C165.75 50.4844 165.9688 48.5312 166.1875 46.8281 L166.0312 46.7188 L165.2344 46.9219 L165.1406 47.7969 C164.7812 47.0312 164.1562 46.6562 163.3906 46.6562 C162.0469 46.6562 160.5625 47.8438 160.5625 49.9531 C160.5625 52.0938 161.7188 53.1719 163.1406 53.1719 C164.0156 53.1719 164.6875 52.8125 165.0938 51.9844 C165.2031 52.8594 165.5156 53.1719 166.0156 53.1719 C166.4688 53.1719 166.7969 52.9062 167.0156 52.5625 L166.9062 52.2812 Z" style="fill:black; stroke:none;"
    /></g
  ></g
></svg
>
