<?xml version="1.0"?>
<!DOCTYPE svg PUBLIC '-//W3C//DTD SVG 1.0//EN'
          'http://www.w3.org/TR/2001/REC-SVG-20010904/DTD/svg10.dtd'>
<svg xmlns:xlink="http://www.w3.org/1999/xlink" style="fill-opacity:1; color-rendering:auto; color-interpolation:auto; text-rendering:auto; stroke:black; stroke-linecap:square; stroke-miterlimit:10; shape-rendering:auto; stroke-opacity:1; fill:black; stroke-dasharray:none; font-weight:normal; stroke-width:1; font-family:'Dialog'; font-style:normal; stroke-linejoin:miter; font-size:12px; stroke-dashoffset:0; image-rendering:auto;" viewBox="0 0 157 143" xmlns="http://www.w3.org/2000/svg"
><!--Generated by the Batik Graphics2D SVG Generator--><defs id="genericDefs"
  /><g
  ><defs id="defs1"
    ><clipPath clipPathUnits="userSpaceOnUse" id="clipPath1"
      ><path style="fill-rule:evenodd;" d="M52 53 L62 60 L58 72 L45 72 L41 60 L52 53 Z"
      /></clipPath
    ></defs
    ><g style="fill:white; text-rendering:optimizeSpeed; stroke:white;"
    ><rect x="0" width="157" height="143" y="0" style="stroke:none;"
      /><polygon style="fill:none; stroke:black;" points=" 116 64 52 64"
      /><path d="M116 53 C110.5 58.5 121.5 69.5 116 75" style="fill:none; stroke:black;"
      /><polygon style="clip-path:url(#clipPath1); stroke:none;" points=" 52 53 62 60 58 72 45 72 41 60 52 53"
      /><rect x="41" y="53" width="22" style="clip-path:url(#clipPath1); stroke:none;" height="22"
      /><rect x="41" y="53" width="22" style="clip-path:url(#clipPath1); fill:none; stroke:black;" height="22"
      /><polygon style="fill:none; stroke:black;" points=" 52 53 62 60 58 72 45 72 41 60 52 53"
    /></g
    ><g style="text-rendering:optimizeSpeed; font-size:14px; font-family:'SansSerif';"
    ><path style="stroke:none;" d="M50.2344 69 L55.8594 69 L55.8594 67.9375 L53.7969 67.9375 L53.7969 58.7188 L52.8281 58.7188 C52.2656 59.0625 51.6094 59.2969 50.6875 59.4688 L50.6875 60.2812 L52.5156 60.2812 L52.5156 67.9375 L50.2344 67.9375 L50.2344 69 Z"
      /><rect x="44" y="81" width="14" style="fill:white; stroke:none;" height="11"
      /><path style="stroke:none;" d="M47.7031 92.1875 C49.5156 92.1875 50.9844 91.0938 50.9844 89.25 C50.9844 87.8594 50.0156 86.9375 48.8125 86.6562 L48.8125 86.5938 C49.8906 86.1875 50.6406 85.3594 50.6406 84.125 C50.6406 82.5 49.375 81.5469 47.6562 81.5469 C46.4688 81.5469 45.5469 82.0625 44.7812 82.7812 L45.4688 83.5938 C46.0469 83 46.7656 82.5938 47.5938 82.5938 C48.6562 82.5938 49.3281 83.2344 49.3281 84.2188 C49.3281 85.3281 48.6094 86.1719 46.4844 86.1719 L46.4844 87.1562 C48.8594 87.1562 49.6875 87.9844 49.6875 89.2031 C49.6875 90.3906 48.8125 91.125 47.5938 91.125 C46.4375 91.125 45.6562 90.5781 45.0469 89.9375 L44.4062 90.7812 C45.0781 91.5156 46.0938 92.1875 47.7031 92.1875 ZM55.645 92.1875 C56.5512 92.1875 57.3637 91.6875 57.9575 91.1094 L58.0043 91.1094 L58.1137 92 L59.145 92 L59.145 80.8594 L57.895 80.8594 L57.895 83.7812 L57.9418 85.0938 C57.27 84.5312 56.6918 84.2031 55.8012 84.2031 C54.0668 84.2031 52.5043 85.7344 52.5043 88.2031 C52.5043 90.7344 53.7387 92.1875 55.645 92.1875 ZM55.9262 91.125 C54.5825 91.125 53.8325 90.0312 53.8325 88.1875 C53.8325 86.4531 54.8012 85.2812 56.02 85.2812 C56.6606 85.2812 57.2231 85.5 57.895 86.0781 L57.895 90.0625 C57.2387 90.7656 56.6293 91.125 55.9262 91.125 Z"
      /><rect x="33" y="35" width="14" style="fill:white; stroke:none;" height="11"
      /><path style="stroke:none;" d="M34.6094 42.1562 L36.9531 38.6562 C37.2344 38.1406 37.5156 37.6406 37.7812 37.1406 L37.8281 37.1406 C37.7969 37.6719 37.7656 38.5 37.7656 39 L37.7656 42.1562 L34.6094 42.1562 ZM37.7656 46 L38.9688 46 L38.9688 43.1719 L40.3281 43.1719 L40.3281 42.1562 L38.9688 42.1562 L38.9688 35.7188 L37.5469 35.7188 L33.2812 42.3281 L33.2812 43.1719 L37.7656 43.1719 L37.7656 46 ZM44.645 46.1875 C45.5512 46.1875 46.3637 45.6875 46.9575 45.1094 L47.0043 45.1094 L47.1137 46 L48.145 46 L48.145 34.8594 L46.895 34.8594 L46.895 37.7812 L46.9418 39.0938 C46.27 38.5312 45.6918 38.2031 44.8012 38.2031 C43.0668 38.2031 41.5043 39.7344 41.5043 42.2031 C41.5043 44.7344 42.7387 46.1875 44.645 46.1875 ZM44.9262 45.125 C43.5825 45.125 42.8325 44.0312 42.8325 42.1875 C42.8325 40.4531 43.8012 39.2812 45.02 39.2812 C45.6606 39.2812 46.2231 39.5 46.895 40.0781 L46.895 44.0625 C46.2387 44.7656 45.6293 45.125 44.9262 45.125 Z"
      /><path style="stroke:none;" d="M58.5156 40.3594 C59.5781 40.3594 60.1094 41.1094 60.1094 42.2969 C60.1094 43.5 59.4531 44.2969 58.6094 44.2969 C57.5156 44.2969 56.8438 43.3125 56.7188 41.4844 C57.25 40.6875 57.9688 40.3594 58.5156 40.3594 ZM58.6094 45.1562 C59.9844 45.1562 61.125 44 61.125 42.2969 C61.125 40.4688 60.1875 39.5469 58.7031 39.5469 C58 39.5469 57.2344 39.9531 56.6875 40.6094 C56.7344 37.875 57.7656 36.9531 58.9531 36.9531 C59.5 36.9531 60.0312 37.2031 60.375 37.625 L60.9688 36.9375 C60.5 36.4219 59.8438 36.0312 58.9219 36.0312 C57.2188 36.0312 55.6719 37.3594 55.6719 40.7969 C55.6719 43.7031 56.9219 45.1562 58.6094 45.1562 ZM62.7694 45 L63.8632 45 L63.8632 40.2656 C64.4569 39.5938 65.0038 39.2812 65.5038 39.2812 C66.3319 39.2812 66.7069 39.7969 66.7069 41.0156 L66.7069 45 L67.8007 45 L67.8007 40.2656 C68.41 39.5938 68.9413 39.2812 69.4413 39.2812 C70.2694 39.2812 70.66 39.7969 70.66 41.0156 L70.66 45 L71.7538 45 L71.7538 40.875 C71.7538 39.2031 71.1132 38.3125 69.7694 38.3125 C68.9725 38.3125 68.3007 38.8281 67.6288 39.5625 C67.3632 38.7969 66.8163 38.3125 65.8163 38.3125 C65.0507 38.3125 64.3632 38.8125 63.8007 39.4375 L63.7538 39.4375 L63.66 38.4844 L62.7694 38.4844 L62.7694 45 Z"
    /></g
    ><g style="fill:white; text-rendering:optimizeSpeed; font-family:'Serif'; stroke:white;"
    ><rect x="80" width="5" height="10" y="67" style="stroke:none;"
      /><path d="M81.8906 75.6875 C81.4844 75.6875 81.1562 76.0469 81.1562 76.4219 C81.1562 76.8125 81.4844 77.1562 81.8906 77.1562 C82.2969 77.1562 82.6406 76.8125 82.6406 76.4219 C82.6406 76.0469 82.2969 75.6875 81.8906 75.6875 ZM83.4688 69.5781 C83.7188 69.8906 83.875 70.2656 83.8906 70.6562 C83.8906 71.1875 83.625 71.5 83.0312 71.7656 L82.4062 72.0156 C81.6406 72.3125 81.3906 72.5469 81.3906 72.9375 C81.3906 73.1094 81.4531 73.3438 81.5781 73.8125 L81.7344 74.3438 L82.1094 74.3438 L82.0938 73.5312 C82.0938 73.0938 82.2031 72.9688 82.7812 72.7344 L83.2031 72.5625 C84.0312 72.2188 84.4531 71.6875 84.4531 70.8438 C84.4531 69.1562 82.6562 68.1875 81.5 68.0312 C81.1094 68.125 80.9062 68.2969 80.9062 68.6406 C80.9062 68.9375 81.0625 69.1562 81.7188 69.2656 L83.4688 69.5781 Z" style="fill:black; stroke:none;"
    /></g
    ><g ID="legend-1:0" style="text-rendering:optimizeSpeed; font-size:10px; font-family:'SansSerif';"
    ><path style="stroke:none;" d="M30.875 113 L34.9062 113 L34.9062 112.2344 L33.4375 112.2344 L33.4375 105.6562 L32.7344 105.6562 C32.3281 105.9062 31.8594 106.0625 31.2031 106.1875 L31.2031 106.7656 L32.5156 106.7656 L32.5156 112.2344 L30.875 112.2344 L30.875 113 ZM35.925 108.4531 L40.7219 108.4531 L40.7219 107.7656 L35.925 107.7656 L35.925 108.4531 ZM35.925 110.8438 L40.7219 110.8438 L40.7219 110.1719 L35.925 110.1719 L35.925 110.8438 ZM42.8812 110.7969 L43.6937 110.7969 C43.5062 109.2188 45.3031 108.625 45.3031 107.1562 C45.3031 106.0625 44.5687 105.375 43.4437 105.375 C42.6312 105.375 41.9906 105.7656 41.5375 106.2969 L42.0531 106.7812 C42.3969 106.375 42.8344 106.1406 43.3344 106.1406 C44.0531 106.1406 44.4125 106.625 44.4125 107.2188 C44.4125 108.4062 42.6469 109.0469 42.8812 110.7969 ZM43.3031 113.125 C43.6781 113.125 43.975 112.8438 43.975 112.4375 C43.975 112.0156 43.6781 111.7344 43.3031 111.7344 C42.9437 111.7344 42.6469 112.0156 42.6469 112.4375 C42.6469 112.8438 42.9437 113.125 43.3031 113.125 ZM46.2931 110.5469 L48.8556 110.5469 L48.8556 109.8438 L46.2931 109.8438 L46.2931 110.5469 ZM51.9506 113.125 C53.2475 113.125 54.2943 112.3438 54.2943 111.0469 C54.2943 110.0469 53.6068 109.375 52.7475 109.1875 L52.7475 109.1406 C53.5131 108.8438 54.0443 108.2656 54.0443 107.375 C54.0443 106.2031 53.1537 105.5312 51.9193 105.5312 C51.0756 105.5312 50.4193 105.9062 49.8725 106.4062 L50.3568 106.9844 C50.7631 106.5625 51.2943 106.2812 51.8725 106.2812 C52.6381 106.2812 53.1225 106.7344 53.1225 107.4375 C53.1225 108.2344 52.6068 108.8438 51.0912 108.8438 L51.0912 109.5469 C52.7787 109.5469 53.3725 110.125 53.3725 111 C53.3725 111.8438 52.7475 112.375 51.8725 112.375 C51.0443 112.375 50.4975 111.9844 50.06 111.5312 L49.6068 112.125 C50.0756 112.6562 50.7943 113.125 51.9506 113.125 ZM55.61 114.9062 C56.5162 114.5156 57.0631 113.7656 57.0631 112.8125 C57.0631 112.1406 56.7818 111.7344 56.2975 111.7344 C55.9225 111.7344 55.61 111.9844 55.61 112.375 C55.61 112.7969 55.9225 113.0156 56.2818 113.0156 C56.3131 113.0156 56.3443 113.0156 56.3912 113 C56.3912 113.5938 56.0162 114.0781 55.3912 114.3594 L55.61 114.9062 ZM58.7962 110.25 L60.4525 107.75 C60.6712 107.3906 60.8743 107.0312 61.0462 106.6719 L61.0931 106.6719 C61.0775 107.0469 61.0462 107.6406 61.0462 108 L61.0462 110.25 L58.7962 110.25 ZM61.0462 113 L61.9056 113 L61.9056 110.9844 L62.8743 110.9844 L62.8743 110.25 L61.9056 110.25 L61.9056 105.6562 L60.89 105.6562 L57.8431 110.375 L57.8431 110.9844 L61.0462 110.9844 L61.0462 113 ZM63.9399 114.9062 C64.8462 114.5156 65.3931 113.7656 65.3931 112.8125 C65.3931 112.1406 65.1118 111.7344 64.6274 111.7344 C64.2524 111.7344 63.9399 111.9844 63.9399 112.375 C63.9399 112.7969 64.2524 113.0156 64.6118 113.0156 C64.6431 113.0156 64.6743 113.0156 64.7212 113 C64.7212 113.5938 64.3462 114.0781 63.7212 114.3594 L63.9399 114.9062 ZM68.9074 109.125 C69.7824 109.125 70.2356 109.7656 70.2356 110.75 C70.2356 111.75 69.6731 112.4219 68.9856 112.4219 C68.0637 112.4219 67.5168 111.5938 67.4074 110.0625 C67.8449 109.4062 68.4387 109.125 68.9074 109.125 ZM68.9856 113.125 C70.1262 113.125 71.0793 112.1719 71.0793 110.75 C71.0793 109.2188 70.2824 108.4531 69.0481 108.4531 C68.4699 108.4531 67.8293 108.7969 67.3762 109.3438 C67.4231 107.0625 68.2668 106.2969 69.2668 106.2969 C69.7199 106.2969 70.1574 106.5 70.4543 106.8438 L70.9543 106.2812 C70.5481 105.8438 70.0012 105.5312 69.2356 105.5312 C67.8137 105.5312 66.5324 106.625 66.5324 109.5 C66.5324 111.9219 67.5637 113.125 68.9856 113.125 ZM71.9731 110.5469 L74.5356 110.5469 L74.5356 109.8438 L71.9731 109.8438 L71.9731 110.5469 ZM77.6149 113.125 C77.9431 113.125 78.3024 113.0312 78.6149 112.9375 L78.4431 112.25 C78.2556 112.3125 78.0056 112.3906 77.8181 112.3906 C77.1931 112.3906 76.9743 112.0156 76.9743 111.3438 L76.9743 108.3125 L78.4431 108.3125 L78.4431 107.5625 L76.9743 107.5625 L76.9743 106.0469 L76.2243 106.0469 L76.1149 107.5625 L75.2556 107.625 L75.2556 108.3125 L76.0681 108.3125 L76.0681 111.3125 C76.0681 112.4062 76.4587 113.125 77.6149 113.125 ZM79.6818 113 L80.588 113 L80.588 109.5156 C80.9474 108.5781 81.5099 108.2656 81.963 108.2656 C82.1818 108.2656 82.3068 108.2812 82.4943 108.3438 L82.6662 107.5469 C82.4943 107.4531 82.3224 107.4375 82.0724 107.4375 C81.463 107.4375 80.9162 107.875 80.5412 108.5625 L80.5099 108.5625 L80.4318 107.5625 L79.6818 107.5625 L79.6818 113 ZM83.5618 113 L84.468 113 L84.468 107.5625 L83.5618 107.5625 L83.5618 113 ZM84.0149 106.4531 C84.3743 106.4531 84.6243 106.2031 84.6243 105.8438 C84.6243 105.4844 84.3743 105.25 84.0149 105.25 C83.6555 105.25 83.4055 105.4844 83.4055 105.8438 C83.4055 106.2031 83.6555 106.4531 84.0149 106.4531 ZM88.1555 113.125 C88.8118 113.125 89.3743 112.7812 89.8118 112.3594 L89.843 112.3594 L89.9212 113 L90.6555 113 L90.6555 105.0469 L89.7649 105.0469 L89.7649 107.125 L89.7962 108.0625 C89.3274 107.6719 88.9055 107.4375 88.2649 107.4375 C87.0305 107.4375 85.9212 108.5312 85.9212 110.2969 C85.9212 112.0938 86.7962 113.125 88.1555 113.125 ZM88.3587 112.375 C87.4055 112.375 86.8587 111.5938 86.8587 110.2812 C86.8587 109.0469 87.5462 108.2031 88.4368 108.2031 C88.8743 108.2031 89.2962 108.3594 89.7649 108.7656 L89.7649 111.625 C89.2962 112.125 88.8587 112.375 88.3587 112.375 ZM94.6993 113.125 C95.4337 113.125 96.0274 112.875 96.4962 112.5625 L96.168 111.9688 C95.7774 112.2344 95.3399 112.4062 94.8087 112.4062 C93.7774 112.4062 93.0743 111.6562 93.0118 110.5 L96.668 110.5 C96.6837 110.375 96.7149 110.1875 96.7149 109.9844 C96.7149 108.4375 95.9337 107.4375 94.543 107.4375 C93.293 107.4375 92.1055 108.5312 92.1055 110.2969 C92.1055 112.0781 93.2618 113.125 94.6993 113.125 ZM92.9962 109.8438 C93.1055 108.7812 93.793 108.1562 94.5587 108.1562 C95.4024 108.1562 95.9024 108.75 95.9024 109.8438 L92.9962 109.8438 ZM100.1611 113.125 C101.4893 113.125 102.6768 112.0938 102.6768 110.2969 C102.6768 108.4844 101.4893 107.4375 100.1611 107.4375 C98.833 107.4375 97.6455 108.4844 97.6455 110.2969 C97.6455 112.0938 98.833 113.125 100.1611 113.125 ZM100.1611 112.375 C99.2236 112.375 98.583 111.5469 98.583 110.2969 C98.583 109.0469 99.2236 108.1875 100.1611 108.1875 C101.0986 108.1875 101.7393 109.0469 101.7393 110.2969 C101.7393 111.5469 101.0986 112.375 100.1611 112.375 ZM103.3461 113 L104.2993 113 L105.0336 111.7344 C105.2211 111.4062 105.393 111.0625 105.5961 110.7656 L105.643 110.7656 C105.8461 111.0625 106.0336 111.4062 106.2211 111.7344 L107.018 113 L108.018 113 L106.2368 110.2656 L107.8774 107.5625 L106.9243 107.5625 L106.2524 108.7656 C106.0961 109.0625 105.9399 109.375 105.768 109.6719 L105.7368 109.6719 C105.5493 109.375 105.3618 109.0625 105.1899 108.7656 L104.4555 107.5625 L103.4868 107.5625 L105.1274 110.1719 L103.3461 113 ZM109.1855 115.3438 C110.2636 115.3438 110.8261 114.5156 111.2011 113.4531 L113.248 107.5625 L112.3574 107.5625 L111.3886 110.5938 C111.2324 111.0625 111.0761 111.625 110.9355 112.1094 L110.873 112.1094 C110.7168 111.625 110.5136 111.0625 110.3574 110.5938 L109.248 107.5625 L108.2949 107.5625 L110.4824 113.0156 L110.3574 113.4219 C110.1386 114.0938 109.748 114.5938 109.123 114.5938 C108.9824 114.5938 108.8261 114.5469 108.7168 114.5 L108.5449 115.2344 C108.7168 115.2969 108.9199 115.3438 109.1855 115.3438 ZM113.833 110.5469 L116.3955 110.5469 L116.3955 109.8438 L113.833 109.8438 L113.833 110.5469 ZM117.8499 113 L119.7249 113 C121.9436 113 123.1468 111.625 123.1468 109.3125 C123.1468 106.9844 121.9436 105.6562 119.6936 105.6562 L117.8499 105.6562 L117.8499 113 ZM118.7874 112.2344 L118.7874 106.4219 L119.6155 106.4219 C121.3343 106.4219 122.1936 107.4531 122.1936 109.3125 C122.1936 111.1562 121.3343 112.2344 119.6155 112.2344 L118.7874 112.2344 ZM124.173 110.5469 L126.7355 110.5469 L126.7355 109.8438 L124.173 109.8438 L124.173 110.5469 ZM130.2993 113.125 C131.0336 113.125 131.6274 112.875 132.0961 112.5625 L131.768 111.9688 C131.3774 112.2344 130.9399 112.4062 130.4086 112.4062 C129.3774 112.4062 128.6743 111.6562 128.6118 110.5 L132.268 110.5 C132.2836 110.375 132.3149 110.1875 132.3149 109.9844 C132.3149 108.4375 131.5336 107.4375 130.143 107.4375 C128.893 107.4375 127.7055 108.5312 127.7055 110.2969 C127.7055 112.0781 128.8618 113.125 130.2993 113.125 ZM128.5961 109.8438 C128.7055 108.7812 129.393 108.1562 130.1586 108.1562 C131.0024 108.1562 131.5024 108.75 131.5024 109.8438 L128.5961 109.8438 ZM133.6517 113 L134.558 113 L134.558 109.5156 C134.9174 108.5781 135.4799 108.2656 135.933 108.2656 C136.1517 108.2656 136.2767 108.2812 136.4642 108.3438 L136.6361 107.5469 C136.4642 107.4531 136.2924 107.4375 136.0424 107.4375 C135.433 107.4375 134.8861 107.875 134.5111 108.5625 L134.4799 108.5625 L134.4017 107.5625 L133.6517 107.5625 L133.6517 113 ZM137.6255 115.3438 C138.7036 115.3438 139.2661 114.5156 139.6411 113.4531 L141.688 107.5625 L140.7974 107.5625 L139.8286 110.5938 C139.6724 111.0625 139.5161 111.625 139.3755 112.1094 L139.313 112.1094 C139.1567 111.625 138.9536 111.0625 138.7974 110.5938 L137.688 107.5625 L136.7349 107.5625 L138.9224 113.0156 L138.7974 113.4219 C138.5786 114.0938 138.188 114.5938 137.563 114.5938 C137.4224 114.5938 137.2661 114.5469 137.1567 114.5 L136.9849 115.2344 C137.1567 115.2969 137.3599 115.3438 137.6255 115.3438 ZM142.8199 113 L143.7574 113 L143.7574 109.5469 L147.1636 109.5469 L147.1636 113 L148.0855 113 L148.0855 105.6562 L147.1636 105.6562 L147.1636 108.7344 L143.7574 108.7344 L143.7574 105.6562 L142.8199 105.6562 L142.8199 113 ZM152.2092 113.125 C152.9436 113.125 153.5374 112.875 154.0061 112.5625 L153.678 111.9688 C153.2874 112.2344 152.8499 112.4062 152.3186 112.4062 C151.2874 112.4062 150.5842 111.6562 150.5217 110.5 L154.178 110.5 C154.1936 110.375 154.2249 110.1875 154.2249 109.9844 C154.2249 108.4375 153.4436 107.4375 152.053 107.4375 C150.803 107.4375 149.6155 108.5312 149.6155 110.2969 C149.6155 112.0781 150.7717 113.125 152.2092 113.125 ZM150.5061 109.8438 C150.6155 108.7812 151.303 108.1562 152.0686 108.1562 C152.9124 108.1562 153.4124 108.75 153.4124 109.8438 L150.5061 109.8438 ZM154.7961 113 L155.7492 113 L156.4836 111.7344 C156.6711 111.4062 156.843 111.0625 157.0461 110.7656 L157.093 110.7656 C157.2961 111.0625 157.4836 111.4062 157.6711 111.7344 L158.468 113 L159.468 113 L157.6867 110.2656 L159.3273 107.5625 L158.3742 107.5625 L157.7023 108.7656 C157.5461 109.0625 157.3898 109.375 157.218 109.6719 L157.1867 109.6719 C156.9992 109.375 156.8117 109.0625 156.6398 108.7656 L155.9055 107.5625 L154.9367 107.5625 L156.5773 110.1719 L154.7961 113 ZM160.5417 115.2969 L161.448 115.2969 L161.448 113.4531 L161.4323 112.5 C161.9167 112.9062 162.4323 113.125 162.9323 113.125 C164.1823 113.125 165.2917 112.0625 165.2917 110.2031 C165.2917 108.5312 164.5261 107.4375 163.1355 107.4375 C162.4948 107.4375 161.8855 107.7969 161.4011 108.1875 L161.3698 108.1875 L161.2917 107.5625 L160.5417 107.5625 L160.5417 115.2969 ZM162.7761 112.375 C162.4167 112.375 161.9323 112.2188 161.448 111.7969 L161.448 108.9531 C161.9792 108.4531 162.448 108.2031 162.9167 108.2031 C163.9323 108.2031 164.3386 109.0156 164.3386 110.2031 C164.3386 111.5625 163.6823 112.375 162.7761 112.375 Z"
    /></g
  ></g
></svg
>
