<?xml version="1.0"?>
<!DOCTYPE svg PUBLIC '-//W3C//DTD SVG 1.0//EN'
          'http://www.w3.org/TR/2001/REC-SVG-20010904/DTD/svg10.dtd'>
<svg xmlns:xlink="http://www.w3.org/1999/xlink" style="fill-opacity:1; color-rendering:auto; color-interpolation:auto; text-rendering:auto; stroke:black; stroke-linecap:square; stroke-miterlimit:10; shape-rendering:auto; stroke-opacity:1; fill:black; stroke-dasharray:none; font-weight:normal; stroke-width:1; font-family:'Dialog'; font-style:normal; stroke-linejoin:miter; font-size:12px; stroke-dashoffset:0; image-rendering:auto;" viewBox="0 0 342 157" xmlns="http://www.w3.org/2000/svg"
><!--Generated by the Batik Graphics2D SVG Generator--><defs id="genericDefs"
  /><g
  ><defs id="defs1"
    ><clipPath clipPathUnits="userSpaceOnUse" id="clipPath1"
      ><path d="M238 67 L260 67 L260 89 L238 89 L238 67 Z"
      /></clipPath
      ><clipPath clipPathUnits="userSpaceOnUse" id="clipPath2"
      ><path d="M186 67 L208 67 L208 89 L186 89 L186 67 Z"
      /></clipPath
      ><clipPath clipPathUnits="userSpaceOnUse" id="clipPath3"
      ><path d="M156 78 C156 84.0751 151.0751 89 145 89 C138.9249 89 134 84.0751 134 78 C134 71.9249 138.9249 67 145 67 C151.0751 67 156 71.9249 156 78 Z"
      /></clipPath
      ><clipPath clipPathUnits="userSpaceOnUse" id="clipPath4"
      ><path d="M104 116 C104 122.0751 99.0751 127 93 127 C86.9249 127 82 122.0751 82 116 C82 109.9249 86.9249 105 93 105 C99.0751 105 104 109.9249 104 116 Z"
      /></clipPath
      ><clipPath clipPathUnits="userSpaceOnUse" id="clipPath5"
      ><path d="M52 116 C52 122.0751 47.0751 127 41 127 C34.9249 127 30 122.0751 30 116 C30 109.9249 34.9249 105 41 105 C47.0751 105 52 109.9249 52 116 Z"
      /></clipPath
      ><clipPath clipPathUnits="userSpaceOnUse" id="clipPath6"
      ><path d="M104 41 C104 47.0751 99.0751 52 93 52 C86.9249 52 82 47.0751 82 41 C82 34.9249 86.9249 30 93 30 C99.0751 30 104 34.9249 104 41 Z"
      /></clipPath
      ><clipPath clipPathUnits="userSpaceOnUse" id="clipPath7"
      ><path d="M52 41 C52 47.0751 47.0751 52 41 52 C34.9249 52 30 47.0751 30 41 C30 34.9249 34.9249 30 41 30 C47.0751 30 52 34.9249 52 41 Z"
      /></clipPath
    ></defs
    ><g style="fill:white; text-rendering:optimizeSpeed; stroke:white;"
    ><rect x="0" width="342" height="157" y="0" style="stroke:none;"
      /><polygon style="fill:none; stroke:black;" points=" 301 78 249 78"
      /><path d="M301 67 C295.5 72.5 306.5 83.5 301 89" style="fill:none; stroke:black;"
      /><polygon style="fill:none; stroke:black;" points=" 249 78 197 78"
      /><rect x="238" y="67" width="22" style="clip-path:url(#clipPath1); stroke:none;" height="22"
      /><rect x="238" y="67" width="22" style="clip-path:url(#clipPath1); fill:rgb(0,144,188); stroke:none;" height="22"
      /><rect x="238" y="67" width="22" style="clip-path:url(#clipPath1); fill:none; stroke:black;" height="22"
      /><rect x="238" y="67" width="22" style="fill:none; stroke:black;" height="22"
      /><polygon style="fill:none; stroke:black;" points=" 197 78 145 78"
      /><rect x="186" y="67" width="22" style="clip-path:url(#clipPath2); stroke:none;" height="22"
      /><rect x="186" y="67" width="22" style="clip-path:url(#clipPath2); fill:rgb(0,144,188); stroke:none;" height="22"
      /><rect x="186" y="67" width="22" style="clip-path:url(#clipPath2); fill:none; stroke:black;" height="22"
      /><rect x="186" y="67" width="22" style="fill:none; stroke:black;" height="22"
      /><polygon style="fill:none; stroke:black;" points=" 145 78 93 116"
      /><polygon style="fill:none; stroke:black;" points=" 145 78 93 41"
      /><circle style="clip-path:url(#clipPath3); stroke:none;" r="11" cx="145" cy="78"
      /><rect x="134" y="67" width="22" style="clip-path:url(#clipPath3); fill:rgb(0,166,81); stroke:none;" height="22"
      /><rect x="134" y="67" width="22" style="clip-path:url(#clipPath3); fill:none; stroke:black;" height="22"
      /><circle style="fill:none; stroke:black;" r="11" cx="145" cy="78"
      /><polygon style="fill:none; stroke:black;" points=" 93 116 41 116"
      /><circle style="clip-path:url(#clipPath4); stroke:none;" r="11" cx="93" cy="116"
      /><rect x="82" y="105" width="22" style="clip-path:url(#clipPath4); fill:rgb(0,166,81); stroke:none;" height="22"
      /><rect x="82" y="105" width="22" style="clip-path:url(#clipPath4); fill:none; stroke:black;" height="22"
      /><circle style="fill:none; stroke:black;" r="11" cx="93" cy="116"
      /><circle style="clip-path:url(#clipPath5); stroke:none;" r="11" cx="41" cy="116"
      /><rect x="30" y="105" width="22" style="clip-path:url(#clipPath5); fill:rgb(0,166,81); stroke:none;" height="22"
      /><rect x="30" y="105" width="22" style="clip-path:url(#clipPath5); fill:none; stroke:black;" height="22"
      /><circle style="fill:none; stroke:black;" r="11" cx="41" cy="116"
      /><rect x="33" y="87" width="15" style="stroke:none;" height="10"
    /></g
    ><g style="text-rendering:optimizeSpeed; font-size:14px; font-family:'SansSerif';"
    ><path style="stroke:none;" d="M37.1094 92.5781 C38.3438 92.5781 38.9688 93.4688 38.9688 94.8438 C38.9688 96.25 38.1875 97.1875 37.2188 97.1875 C35.9219 97.1875 35.1562 96.0312 35 93.8906 C35.625 92.9531 36.4531 92.5781 37.1094 92.5781 ZM37.2188 98.1875 C38.8125 98.1875 40.1562 96.8438 40.1562 94.8438 C40.1562 92.7031 39.0469 91.625 37.3125 91.625 C36.5 91.625 35.6094 92.1094 34.9688 92.875 C35.0312 89.6875 36.2188 88.6094 37.625 88.6094 C38.25 88.6094 38.8594 88.9062 39.2656 89.3906 L39.9688 88.5938 C39.4062 87.9844 38.6406 87.5469 37.5781 87.5469 C35.5938 87.5469 33.7812 89.0781 33.7812 93.0938 C33.7812 96.4844 35.2344 98.1875 37.2188 98.1875 ZM42.1762 98 L43.4731 98 L43.4731 93.9219 L45.1606 93.9219 C47.4262 93.9219 48.9418 92.9219 48.9418 90.75 C48.9418 88.5156 47.4106 87.7188 45.1137 87.7188 L42.1762 87.7188 L42.1762 98 ZM43.4731 92.875 L43.4731 88.7812 L44.9418 88.7812 C46.7543 88.7812 47.6606 89.2656 47.6606 90.75 C47.6606 92.2188 46.8012 92.875 45.0043 92.875 L43.4731 92.875 Z"
    /></g
    ><g style="fill:white; text-rendering:optimizeSpeed; font-family:'Serif'; stroke:white;"
    ><rect x="71" width="6" height="9" y="119" style="stroke:none;"
      /><path d="M72.4219 127.0938 C73.0781 126.375 73.7031 125.7188 74.0312 125.3438 C75.9219 123.3125 76.5312 122.4688 76.5312 121.3594 C76.5312 120.0156 75.7812 119.0781 74.1562 119.0781 C72.9062 119.0781 71.7969 119.7031 71.5938 120.9688 C71.7188 121.2031 71.9062 121.3438 72.1562 121.3438 C72.4688 121.3438 72.6562 121.1094 72.7969 120.5938 L73.0938 119.6719 C73.3906 119.5938 73.6562 119.5625 73.8906 119.5625 C74.9219 119.5625 75.5469 120.3125 75.5469 121.4219 C75.5469 122.4375 74.9844 123.4219 73.7031 124.9062 C73.125 125.5781 72.3906 126.4375 71.6406 127.2812 L71.6406 128 L76.9219 128 L76.9219 127.0938 L72.4219 127.0938 Z" style="fill:black; stroke:none;"
      /><rect x="56" width="8" height="8" y="120" style="stroke:none;"
      /><path d="M60.9844 125.7031 C60.9375 126.8906 60.1562 127.6562 59.3125 127.6562 C58.2656 127.6562 57.5 126.6875 57.5 124.7188 C57.5 123.2812 58.1562 122.1562 59.3438 122.1562 C60.1406 122.1562 60.7812 122.6875 61.0938 123.6406 L60.9844 125.7031 ZM62.9062 127.2812 C62.7344 127.375 62.5469 127.4219 62.3438 127.4219 C61.9531 127.4219 61.75 127.2188 61.75 126.4219 C61.75 125.4844 61.9688 123.5312 62.1875 121.8281 L62.0312 121.7188 L61.2344 121.9219 L61.1406 122.7969 C60.7812 122.0312 60.1562 121.6562 59.3906 121.6562 C58.0469 121.6562 56.5625 122.8438 56.5625 124.9531 C56.5625 127.0938 57.7188 128.1719 59.1406 128.1719 C60.0156 128.1719 60.6875 127.8125 61.0938 126.9844 C61.2031 127.8594 61.5156 128.1719 62.0156 128.1719 C62.4688 128.1719 62.7969 127.9062 63.0156 127.5625 L62.9062 127.2812 Z" style="fill:black; stroke:none;"
      /><polygon style="fill:none; stroke:black;" points=" 93 41 41 41"
      /><circle r="11" style="clip-path:url(#clipPath6); stroke:none;" cx="93" cy="41"
      /><rect x="82" y="30" width="22" style="clip-path:url(#clipPath6); fill:rgb(0,166,81); stroke:none;" height="22"
      /><rect x="82" y="30" width="22" style="clip-path:url(#clipPath6); fill:none; stroke:black;" height="22"
      /><circle r="11" style="fill:none; stroke:black;" cx="93" cy="41"
      /><circle r="11" style="clip-path:url(#clipPath7); stroke:none;" cx="41" cy="41"
      /><rect x="30" y="30" width="22" style="clip-path:url(#clipPath7); fill:rgb(0,166,81); stroke:none;" height="22"
      /><rect x="30" y="30" width="22" style="clip-path:url(#clipPath7); fill:none; stroke:black;" height="22"
      /><circle r="11" style="fill:none; stroke:black;" cx="41" cy="41"
      /><rect x="71" width="6" height="10" y="44" style="stroke:none;"
      /><path d="M73.2344 45.6562 C73.5156 45.5938 73.7656 45.5625 74.0156 45.5625 C75.0625 45.5625 75.6719 46.1719 75.6719 47.2656 C75.6719 48.4375 74.9062 49.1094 73.7031 49.1094 L73.1875 49.1094 L73.1875 49.6406 L73.7969 49.6406 C75.2188 49.6406 75.9062 50.4219 75.9062 51.6406 C75.9062 52.8438 75.1719 53.6875 73.875 53.6875 C73.6094 53.6875 73.3125 53.6562 73.0156 53.5625 L72.7812 52.8125 C72.625 52.2812 72.5 52.0469 72.1406 52.0469 C71.8906 52.0469 71.7031 52.1719 71.5781 52.4219 C71.8438 53.6406 72.7812 54.1719 74.0312 54.1719 C75.7188 54.1719 76.875 53.125 76.875 51.7031 C76.875 50.5 76.2031 49.625 74.7969 49.375 C75.9531 49.0156 76.6094 48.2031 76.6094 47.2031 C76.6094 45.9219 75.6719 45.0781 74.1875 45.0781 C73.0469 45.0781 72.0625 45.5938 71.7969 46.6875 C71.9062 47 72.1094 47.1094 72.3594 47.1094 C72.7344 47.1094 72.8906 46.8906 73 46.4062 L73.2344 45.6562 Z" style="fill:black; stroke:none;"
      /><rect x="56" width="8" height="8" y="45" style="stroke:none;"
      /><path d="M60.9844 50.7031 C60.9375 51.8906 60.1562 52.6562 59.3125 52.6562 C58.2656 52.6562 57.5 51.6875 57.5 49.7188 C57.5 48.2812 58.1562 47.1562 59.3438 47.1562 C60.1406 47.1562 60.7812 47.6875 61.0938 48.6406 L60.9844 50.7031 ZM62.9062 52.2812 C62.7344 52.375 62.5469 52.4219 62.3438 52.4219 C61.9531 52.4219 61.75 52.2188 61.75 51.4219 C61.75 50.4844 61.9688 48.5312 62.1875 46.8281 L62.0312 46.7188 L61.2344 46.9219 L61.1406 47.7969 C60.7812 47.0312 60.1562 46.6562 59.3906 46.6562 C58.0469 46.6562 56.5625 47.8438 56.5625 49.9531 C56.5625 52.0938 57.7188 53.1719 59.1406 53.1719 C60.0156 53.1719 60.6875 52.8125 61.0938 51.9844 C61.2031 52.8594 61.5156 53.1719 62.0156 53.1719 C62.4688 53.1719 62.7969 52.9062 63.0156 52.5625 L62.9062 52.2812 Z" style="fill:black; stroke:none;"
      /><rect x="129" width="6" height="10" y="92" style="stroke:none;"
      /><path d="M131.2344 93.6562 C131.5156 93.5938 131.7656 93.5625 132.0156 93.5625 C133.0625 93.5625 133.6719 94.1719 133.6719 95.2656 C133.6719 96.4375 132.9062 97.1094 131.7031 97.1094 L131.1875 97.1094 L131.1875 97.6406 L131.7969 97.6406 C133.2188 97.6406 133.9062 98.4219 133.9062 99.6406 C133.9062 100.8438 133.1719 101.6875 131.875 101.6875 C131.6094 101.6875 131.3125 101.6562 131.0156 101.5625 L130.7812 100.8125 C130.625 100.2812 130.5 100.0469 130.1406 100.0469 C129.8906 100.0469 129.7031 100.1719 129.5781 100.4219 C129.8438 101.6406 130.7812 102.1719 132.0312 102.1719 C133.7188 102.1719 134.875 101.125 134.875 99.7031 C134.875 98.5 134.2031 97.625 132.7969 97.375 C133.9531 97.0156 134.6094 96.2031 134.6094 95.2031 C134.6094 93.9219 133.6719 93.0781 132.1875 93.0781 C131.0469 93.0781 130.0625 93.5938 129.7969 94.6875 C129.9062 95 130.1094 95.1094 130.3594 95.1094 C130.7344 95.1094 130.8906 94.8906 131 94.4062 L131.2344 93.6562 Z" style="fill:black; stroke:none;"
      /><rect x="111" width="8" height="8" y="105" style="stroke:none;"
      /><path d="M115.9844 110.7031 C115.9375 111.8906 115.1562 112.6562 114.3125 112.6562 C113.2656 112.6562 112.5 111.6875 112.5 109.7188 C112.5 108.2812 113.1562 107.1562 114.3438 107.1562 C115.1406 107.1562 115.7812 107.6875 116.0938 108.6406 L115.9844 110.7031 ZM117.9062 112.2812 C117.7344 112.375 117.5469 112.4219 117.3438 112.4219 C116.9531 112.4219 116.75 112.2188 116.75 111.4219 C116.75 110.4844 116.9688 108.5312 117.1875 106.8281 L117.0312 106.7188 L116.2344 106.9219 L116.1406 107.7969 C115.7812 107.0312 115.1562 106.6562 114.3906 106.6562 C113.0469 106.6562 111.5625 107.8438 111.5625 109.9531 C111.5625 112.0938 112.7188 113.1719 114.1406 113.1719 C115.0156 113.1719 115.6875 112.8125 116.0938 111.9844 C116.2031 112.8594 116.5156 113.1719 117.0156 113.1719 C117.4688 113.1719 117.7969 112.9062 118.0156 112.5625 L117.9062 112.2812 Z" style="fill:black; stroke:none;"
      /><rect x="119" width="6" height="10" y="67" style="stroke:none;"
      /><path d="M122.3438 76.6875 C121.2031 76.6875 120.5312 75.5 120.5312 73.2969 C120.5312 73.2188 120.5312 73.125 120.5312 73.0469 C121.0938 72.5 121.7188 72.3125 122.3438 72.3125 C123.3125 72.3125 123.9531 72.9844 123.9531 74.4531 C123.9531 75.9375 123.3125 76.6875 122.3438 76.6875 ZM124.5312 68.0781 C121.3438 68.4531 119.5625 70.7656 119.5625 73.4531 C119.5625 75.7812 120.6094 77.1719 122.3125 77.1719 C123.8438 77.1719 124.9219 76.1094 124.9219 74.2812 C124.9219 72.6875 123.9688 71.6562 122.5625 71.6562 C121.8281 71.6562 121.1406 71.9844 120.5781 72.5781 C120.7969 70.4062 122.0781 68.9688 124.5938 68.3906 L124.5312 68.0781 Z" style="fill:black; stroke:none;"
      /><rect x="101" width="8" height="8" y="55" style="stroke:none;"
      /><path d="M105.9844 60.7031 C105.9375 61.8906 105.1562 62.6562 104.3125 62.6562 C103.2656 62.6562 102.5 61.6875 102.5 59.7188 C102.5 58.2812 103.1562 57.1562 104.3438 57.1562 C105.1406 57.1562 105.7812 57.6875 106.0938 58.6406 L105.9844 60.7031 ZM107.9062 62.2812 C107.7344 62.375 107.5469 62.4219 107.3438 62.4219 C106.9531 62.4219 106.75 62.2188 106.75 61.4219 C106.75 60.4844 106.9688 58.5312 107.1875 56.8281 L107.0312 56.7188 L106.2344 56.9219 L106.1406 57.7969 C105.7812 57.0312 105.1562 56.6562 104.3906 56.6562 C103.0469 56.6562 101.5625 57.8438 101.5625 59.9531 C101.5625 62.0938 102.7188 63.1719 104.1406 63.1719 C105.0156 63.1719 105.6875 62.8125 106.0938 61.9844 C106.2031 62.8594 106.5156 63.1719 107.0156 63.1719 C107.4688 63.1719 107.7969 62.9062 108.0156 62.5625 L107.9062 62.2812 Z" style="fill:black; stroke:none;"
      /><rect x="174" width="7" height="9" y="81" style="stroke:none;"
      /><path d="M175 86.5156 L177.9531 82.2656 L177.9531 86.5156 L175 86.5156 ZM180.2812 86.5156 L178.8594 86.5156 L178.8594 81.125 L178.2344 81.125 L174.3438 86.6406 L174.3438 87.1875 L177.9531 87.1875 L177.9531 90 L178.8594 90 L178.8594 87.1875 L180.2812 87.1875 L180.2812 86.5156 Z" style="fill:black; stroke:none;"
      /><rect x="161" width="6" height="13" y="79" style="stroke:none;"
      /><path d="M163.0938 85.2031 C163.0938 83.6562 163.75 82.8125 164.7969 82.8125 C165.7188 82.8125 166.2656 83.4531 166.2656 84.5156 C166.2656 85.7188 165.5 86.4375 164.1875 86.7031 L164.2969 87.3125 C166.2188 87.2344 166.9375 88.2188 166.9375 89.4375 C166.9375 90.625 166.2344 91.4219 164.9531 91.4219 C164.25 91.4219 163.6562 91.1562 163.0938 90.7188 L163.0938 85.2031 ZM162.2031 91.9062 L162.1094 94.375 L162.2656 94.4844 L163.1562 94.2656 L163.0156 91.0938 C163.5469 91.8438 164.3594 92.1719 165.1719 92.1719 C166.5625 92.1719 167.8594 91.2188 167.8594 89.4844 C167.8594 87.9531 166.875 87.1094 165.125 87 C166.5625 86.6094 167.1875 85.4531 167.1875 84.4844 C167.1875 83.0938 166.1562 82.3125 164.9062 82.3125 C163.2969 82.3125 162.2188 83.5469 162.2188 85.5156 L162.2031 91.9062 Z" style="fill:black; stroke:none;"
      /><rect x="226" width="7" height="9" y="81" style="stroke:none;"
      /><path d="M227 86.5156 L229.9531 82.2656 L229.9531 86.5156 L227 86.5156 ZM232.2812 86.5156 L230.8594 86.5156 L230.8594 81.125 L230.2344 81.125 L226.3438 86.6406 L226.3438 87.1875 L229.9531 87.1875 L229.9531 90 L230.8594 90 L230.8594 87.1875 L232.2812 87.1875 L232.2812 86.5156 Z" style="fill:black; stroke:none;"
      /><rect x="213" width="6" height="13" y="79" style="stroke:none;"
      /><path d="M215.0938 85.2031 C215.0938 83.6562 215.75 82.8125 216.7969 82.8125 C217.7188 82.8125 218.2656 83.4531 218.2656 84.5156 C218.2656 85.7188 217.5 86.4375 216.1875 86.7031 L216.2969 87.3125 C218.2188 87.2344 218.9375 88.2188 218.9375 89.4375 C218.9375 90.625 218.2344 91.4219 216.9531 91.4219 C216.25 91.4219 215.6562 91.1562 215.0938 90.7188 L215.0938 85.2031 ZM214.2031 91.9062 L214.1094 94.375 L214.2656 94.4844 L215.1562 94.2656 L215.0156 91.0938 C215.5469 91.8438 216.3594 92.1719 217.1719 92.1719 C218.5625 92.1719 219.8594 91.2188 219.8594 89.4844 C219.8594 87.9531 218.875 87.1094 217.125 87 C218.5625 86.6094 219.1875 85.4531 219.1875 84.4844 C219.1875 83.0938 218.1562 82.3125 216.9062 82.3125 C215.2969 82.3125 214.2188 83.5469 214.2188 85.5156 L214.2031 91.9062 Z" style="fill:black; stroke:none;"
      /><rect x="265" width="5" height="10" y="81" style="stroke:none;"
      /><path d="M266.8906 89.6875 C266.4844 89.6875 266.1562 90.0469 266.1562 90.4219 C266.1562 90.8125 266.4844 91.1562 266.8906 91.1562 C267.2969 91.1562 267.6406 90.8125 267.6406 90.4219 C267.6406 90.0469 267.2969 89.6875 266.8906 89.6875 ZM268.4688 83.5781 C268.7188 83.8906 268.875 84.2656 268.8906 84.6562 C268.8906 85.1875 268.625 85.5 268.0312 85.7656 L267.4062 86.0156 C266.6406 86.3125 266.3906 86.5469 266.3906 86.9375 C266.3906 87.1094 266.4531 87.3438 266.5781 87.8125 L266.7344 88.3438 L267.1094 88.3438 L267.0938 87.5312 C267.0938 87.0938 267.2031 86.9688 267.7812 86.7344 L268.2031 86.5625 C269.0312 86.2188 269.4531 85.6875 269.4531 84.8438 C269.4531 83.1562 267.6562 82.1875 266.5 82.0312 C266.1094 82.125 265.9062 82.2969 265.9062 82.6406 C265.9062 82.9375 266.0625 83.1562 266.7188 83.2656 L268.4688 83.5781 Z" style="fill:black; stroke:none;"
    /></g
  ></g
></svg
>
