<?xml version="1.0"?>
<!DOCTYPE svg PUBLIC '-//W3C//DTD SVG 1.0//EN'
          'http://www.w3.org/TR/2001/REC-SVG-20010904/DTD/svg10.dtd'>
<svg xmlns:xlink="http://www.w3.org/1999/xlink" style="fill-opacity:1; color-rendering:auto; color-interpolation:auto; text-rendering:auto; stroke:black; stroke-linecap:square; stroke-miterlimit:10; shape-rendering:auto; stroke-opacity:1; fill:black; stroke-dasharray:none; font-weight:normal; stroke-width:1; font-family:'Dialog'; font-style:normal; stroke-linejoin:miter; font-size:12px; stroke-dashoffset:0; image-rendering:auto;" viewBox="0 0 290 128" xmlns="http://www.w3.org/2000/svg"
><!--Generated by the Batik Graphics2D SVG Generator--><defs id="genericDefs"
  /><g
  ><defs id="defs1"
    ><clipPath clipPathUnits="userSpaceOnUse" id="clipPath1"
      ><path style="fill-rule:evenodd;" d="M191 42 L197 42 L197 86 L191 86 L197 86 L197 42 Z"
      /></clipPath
      ><clipPath clipPathUnits="userSpaceOnUse" id="clipPath2"
      ><path d="M134 53 L156 53 L156 75 L134 75 L134 53 Z"
      /></clipPath
      ><clipPath clipPathUnits="userSpaceOnUse" id="clipPath3"
      ><path d="M104 64 C104 70.0751 99.0751 75 93 75 C86.9249 75 82 70.0751 82 64 C82 57.9249 86.9249 53 93 53 C99.0751 53 104 57.9249 104 64 Z"
      /></clipPath
      ><clipPath clipPathUnits="userSpaceOnUse" id="clipPath4"
      ><path style="fill-rule:evenodd;" d="M46 86 L41 86 L40 42 L46 42 L40 42 L41 86 Z"
      /></clipPath
    ></defs
    ><g style="fill:white; text-rendering:optimizeSpeed; stroke:white;"
    ><rect x="0" width="290" height="128" y="0" style="stroke:none;"
      /><polygon style="fill:none; stroke:black;" points=" 249 64 197 64"
      /><path d="M249 53 C243.5 58.5 254.5 69.5 249 75" style="fill:none; stroke:black;"
      /><polygon style="fill:none; stroke:black;" points=" 197 64 145 64"
      /><polygon style="clip-path:url(#clipPath1); stroke:none;" points=" 191 42 197 42 197 86 191 86 197 86 197 42"
      /><rect x="186" y="30" width="22" style="clip-path:url(#clipPath1); fill:black; stroke:none;" height="68"
      /><rect x="186" y="30" width="22" style="clip-path:url(#clipPath1); fill:none; stroke:black;" height="68"
      /><polygon style="fill:none; stroke:black;" points=" 191 42 197 42 197 86 191 86 197 86 197 42"
      /><polygon style="fill:none; stroke:black;" points=" 145 64 93 64"
      /><rect x="134" y="53" width="22" style="clip-path:url(#clipPath2); stroke:none;" height="22"
      /><rect x="134" y="53" width="22" style="clip-path:url(#clipPath2); fill:rgb(0,144,188); stroke:none;" height="22"
      /><rect x="134" y="53" width="22" style="clip-path:url(#clipPath2); fill:none; stroke:black;" height="22"
      /><rect x="134" y="53" width="22" style="fill:none; stroke:black;" height="22"
      /><polygon style="fill:none; stroke:black;" points=" 93 64 41 64"
      /><circle style="clip-path:url(#clipPath3); stroke:none;" r="11" cx="93" cy="64"
      /><rect x="82" y="53" width="22" style="clip-path:url(#clipPath3); fill:rgb(0,144,188); stroke:none;" height="22"
      /><rect x="82" y="53" width="22" style="clip-path:url(#clipPath3); fill:none; stroke:black;" height="22"
      /><circle style="fill:none; stroke:black;" r="11" cx="93" cy="64"
      /><polygon style="clip-path:url(#clipPath4); stroke:none;" points=" 46 86 41 86 40 42 46 42 40 42 41 86"
      /><rect x="30" y="30" width="22" style="clip-path:url(#clipPath4); fill:black; stroke:none;" height="68"
      /><rect x="30" y="30" width="22" style="clip-path:url(#clipPath4); fill:none; stroke:black;" height="68"
      /><polygon style="fill:none; stroke:black;" points=" 46 86 41 86 40 42 46 42 40 42 41 86"
      /><path d="M43.5469 95.9531 C43.5156 95.2969 43.5 94.3906 43.5 93.7656 L43.5 92.5156 C43.5 90.8281 42.9531 90.1562 41.8594 90.1562 C41.0625 90.1562 40.1562 90.625 39.4531 91.4062 L39.3594 90.2969 L39.2031 90.1719 L37.4688 90.8125 L37.4688 91.2031 L38.5312 91.2812 C38.5625 91.8438 38.5781 92.3438 38.5781 93.1094 L38.5781 93.7656 C38.5781 94.375 38.5781 95.2969 38.5469 95.9688 L37.5469 96.1094 L37.5469 96.5 L40.4688 96.5 L40.4688 96.1094 L39.5156 95.9531 C39.5156 95.2969 39.5 94.375 39.5 93.7656 L39.5 91.875 C40.2656 91.1562 40.875 90.9062 41.4688 90.9062 C42.2344 90.9062 42.5938 91.3125 42.5938 92.5625 L42.5938 93.7656 C42.5938 94.3906 42.5781 95.3125 42.5625 95.9688 L41.5469 96.1094 L41.5469 96.5 L44.4844 96.5 L44.4844 96.1094 L43.5469 95.9531 Z" style="fill:black; stroke:none;"
      /><rect x="70" y="67" width="7" style="stroke:none;" height="9"
    /></g
    ><g style="font-family:'Serif'; text-rendering:optimizeSpeed; "
    ><path style="stroke:none;" d="M71 72.5156 L73.9531 68.2656 L73.9531 72.5156 L71 72.5156 ZM76.2812 72.5156 L74.8594 72.5156 L74.8594 67.125 L74.2344 67.125 L70.3438 72.6406 L70.3438 73.1875 L73.9531 73.1875 L73.9531 76 L74.8594 76 L74.8594 73.1875 L76.2812 73.1875 L76.2812 72.5156 Z"
      /><rect x="122" y="67" width="7" style="fill:white; stroke:none;" height="9"
      /><path style="stroke:none;" d="M123 72.5156 L125.9531 68.2656 L125.9531 72.5156 L123 72.5156 ZM128.2812 72.5156 L126.8594 72.5156 L126.8594 67.125 L126.2344 67.125 L122.3438 72.6406 L122.3438 73.1875 L125.9531 73.1875 L125.9531 76 L126.8594 76 L126.8594 73.1875 L128.2812 73.1875 L128.2812 72.5156 Z"
      /><rect x="109" y="65" width="6" style="fill:white; stroke:none;" height="13"
      /><path style="stroke:none;" d="M111.0938 71.2031 C111.0938 69.6562 111.75 68.8125 112.7969 68.8125 C113.7188 68.8125 114.2656 69.4531 114.2656 70.5156 C114.2656 71.7188 113.5 72.4375 112.1875 72.7031 L112.2969 73.3125 C114.2188 73.2344 114.9375 74.2188 114.9375 75.4375 C114.9375 76.625 114.2344 77.4219 112.9531 77.4219 C112.25 77.4219 111.6562 77.1562 111.0938 76.7188 L111.0938 71.2031 ZM110.2031 77.9062 L110.1094 80.375 L110.2656 80.4844 L111.1562 80.2656 L111.0156 77.0938 C111.5469 77.8438 112.3594 78.1719 113.1719 78.1719 C114.5625 78.1719 115.8594 77.2188 115.8594 75.4844 C115.8594 73.9531 114.875 73.1094 113.125 73 C114.5625 72.6094 115.1875 71.4531 115.1875 70.4844 C115.1875 69.0938 114.1562 68.3125 112.9062 68.3125 C111.2969 68.3125 110.2188 69.5469 110.2188 71.5156 L110.2031 77.9062 Z"
      /><rect x="161" y="65" width="6" style="fill:white; stroke:none;" height="13"
      /><path style="stroke:none;" d="M163.0938 71.2031 C163.0938 69.6562 163.75 68.8125 164.7969 68.8125 C165.7188 68.8125 166.2656 69.4531 166.2656 70.5156 C166.2656 71.7188 165.5 72.4375 164.1875 72.7031 L164.2969 73.3125 C166.2188 73.2344 166.9375 74.2188 166.9375 75.4375 C166.9375 76.625 166.2344 77.4219 164.9531 77.4219 C164.25 77.4219 163.6562 77.1562 163.0938 76.7188 L163.0938 71.2031 ZM162.2031 77.9062 L162.1094 80.375 L162.2656 80.4844 L163.1562 80.2656 L163.0156 77.0938 C163.5469 77.8438 164.3594 78.1719 165.1719 78.1719 C166.5625 78.1719 167.8594 77.2188 167.8594 75.4844 C167.8594 73.9531 166.875 73.1094 165.125 73 C166.5625 72.6094 167.1875 71.4531 167.1875 70.4844 C167.1875 69.0938 166.1562 68.3125 164.9062 68.3125 C163.2969 68.3125 162.2188 69.5469 162.2188 71.5156 L162.2031 77.9062 Z"
    /></g
  ></g
></svg
>
