<?xml version="1.0"?>
<!DOCTYPE svg PUBLIC '-//W3C//DTD SVG 1.0//EN'
          'http://www.w3.org/TR/2001/REC-SVG-20010904/DTD/svg10.dtd'>
<svg xmlns:xlink="http://www.w3.org/1999/xlink" style="fill-opacity:1; color-rendering:auto; color-interpolation:auto; text-rendering:auto; stroke:black; stroke-linecap:square; stroke-miterlimit:10; shape-rendering:auto; stroke-opacity:1; fill:black; stroke-dasharray:none; font-weight:normal; stroke-width:1; font-family:'Dialog'; font-style:normal; stroke-linejoin:miter; font-size:12px; stroke-dashoffset:0; image-rendering:auto;" viewBox="0 0 238 97" xmlns="http://www.w3.org/2000/svg"
><!--Generated by the Batik Graphics2D SVG Generator--><defs id="genericDefs"
  /><g
  ><defs id="defs1"
    ><clipPath clipPathUnits="userSpaceOnUse" id="clipPath1"
      ><path style="fill-rule:evenodd;" d="M145 30 L155 37 L151 49 L138 49 L134 37 L145 30 Z"
      /></clipPath
      ><clipPath clipPathUnits="userSpaceOnUse" id="clipPath2"
      ><path d="M104 41 C104 47.0751 99.0751 52 93 52 C86.9249 52 82 47.0751 82 41 C82 34.9249 86.9249 30 93 30 C99.0751 30 104 34.9249 104 41 Z"
      /></clipPath
      ><clipPath clipPathUnits="userSpaceOnUse" id="clipPath3"
      ><path d="M52 41 C52 47.0751 47.0751 52 41 52 C34.9249 52 30 47.0751 30 41 C30 34.9249 34.9249 30 41 30 C47.0751 30 52 34.9249 52 41 Z"
      /></clipPath
    ></defs
    ><g style="fill:white; text-rendering:optimizeSpeed; stroke:white;"
    ><rect x="0" width="238" height="97" y="0" style="stroke:none;"
      /><polygon style="fill:none; stroke:black;" points=" 197 41 145 41"
      /><path d="M197 30 C191.5 35.5 202.5 46.5 197 52" style="fill:none; stroke:black;"
      /><polygon style="fill:none; stroke:black;" points=" 145 41 93 41"
      /><polygon style="clip-path:url(#clipPath1); stroke:none;" points=" 145 30 155 37 151 49 138 49 134 37 145 30"
      /><rect x="134" y="30" width="22" style="clip-path:url(#clipPath1); stroke:none;" height="22"
      /><rect x="134" y="30" width="22" style="clip-path:url(#clipPath1); fill:none; stroke:black;" height="22"
      /><polygon style="fill:none; stroke:black;" points=" 145 30 155 37 151 49 138 49 134 37 145 30"
    /></g
    ><g style="text-rendering:optimizeSpeed; font-size:14px; font-family:'SansSerif';"
    ><path style="stroke:none;" d="M143.2344 46 L148.8594 46 L148.8594 44.9375 L146.7969 44.9375 L146.7969 35.7188 L145.8281 35.7188 C145.2656 36.0625 144.6094 36.2969 143.6875 36.4688 L143.6875 37.2812 L145.5156 37.2812 L145.5156 44.9375 L143.2344 44.9375 L143.2344 46 Z"
      /><polygon style="fill:none;" points=" 93 41 41 41"
    /></g
    ><g style="fill:white; text-rendering:optimizeSpeed; stroke:white;"
    ><circle r="11" style="clip-path:url(#clipPath2); stroke:none;" cx="93" cy="41"
      /><rect x="82" y="30" width="22" style="clip-path:url(#clipPath2); fill:rgb(0,144,188); stroke:none;" height="22"
      /><rect x="82" y="30" width="22" style="clip-path:url(#clipPath2); fill:none; stroke:black;" height="22"
      /><circle r="11" style="fill:none; stroke:black;" cx="93" cy="41"
      /><circle r="11" style="clip-path:url(#clipPath3); stroke:none;" cx="41" cy="41"
      /><rect x="30" y="30" width="22" style="clip-path:url(#clipPath3); fill:rgb(0,144,188); stroke:none;" height="22"
      /><rect x="30" y="30" width="22" style="clip-path:url(#clipPath3); fill:none; stroke:black;" height="22"
      /><circle r="11" style="fill:none; stroke:black;" cx="41" cy="41"
      /><rect x="71" width="6" height="10" y="44" style="stroke:none;"
      /><path d="M74.3438 53.6875 C73.2031 53.6875 72.5312 52.5 72.5312 50.2969 C72.5312 50.2188 72.5312 50.125 72.5312 50.0469 C73.0938 49.5 73.7188 49.3125 74.3438 49.3125 C75.3125 49.3125 75.9531 49.9844 75.9531 51.4531 C75.9531 52.9375 75.3125 53.6875 74.3438 53.6875 ZM76.5312 45.0781 C73.3438 45.4531 71.5625 47.7656 71.5625 50.4531 C71.5625 52.7812 72.6094 54.1719 74.3125 54.1719 C75.8438 54.1719 76.9219 53.1094 76.9219 51.2812 C76.9219 49.6875 75.9688 48.6562 74.5625 48.6562 C73.8281 48.6562 73.1406 48.9844 72.5781 49.5781 C72.7969 47.4062 74.0781 45.9688 76.5938 45.3906 L76.5312 45.0781 Z" style="fill:black; stroke:none;"
      /><rect x="57" width="6" height="13" y="42" style="stroke:none;"
      /><path d="M59.0938 48.2031 C59.0938 46.6562 59.75 45.8125 60.7969 45.8125 C61.7188 45.8125 62.2656 46.4531 62.2656 47.5156 C62.2656 48.7188 61.5 49.4375 60.1875 49.7031 L60.2969 50.3125 C62.2188 50.2344 62.9375 51.2188 62.9375 52.4375 C62.9375 53.625 62.2344 54.4219 60.9531 54.4219 C60.25 54.4219 59.6562 54.1562 59.0938 53.7188 L59.0938 48.2031 ZM58.2031 54.9062 L58.1094 57.375 L58.2656 57.4844 L59.1562 57.2656 L59.0156 54.0938 C59.5469 54.8438 60.3594 55.1719 61.1719 55.1719 C62.5625 55.1719 63.8594 54.2188 63.8594 52.4844 C63.8594 50.9531 62.875 50.1094 61.125 50 C62.5625 49.6094 63.1875 48.4531 63.1875 47.4844 C63.1875 46.0938 62.1562 45.3125 60.9062 45.3125 C59.2969 45.3125 58.2188 46.5469 58.2188 48.5156 L58.2031 54.9062 Z" style="fill:black; stroke:none;"
      /><rect x="123" width="6" height="10" y="44" style="stroke:none;"
      /><path d="M125.2344 45.6562 C125.5156 45.5938 125.7656 45.5625 126.0156 45.5625 C127.0625 45.5625 127.6719 46.1719 127.6719 47.2656 C127.6719 48.4375 126.9062 49.1094 125.7031 49.1094 L125.1875 49.1094 L125.1875 49.6406 L125.7969 49.6406 C127.2188 49.6406 127.9062 50.4219 127.9062 51.6406 C127.9062 52.8438 127.1719 53.6875 125.875 53.6875 C125.6094 53.6875 125.3125 53.6562 125.0156 53.5625 L124.7812 52.8125 C124.625 52.2812 124.5 52.0469 124.1406 52.0469 C123.8906 52.0469 123.7031 52.1719 123.5781 52.4219 C123.8438 53.6406 124.7812 54.1719 126.0312 54.1719 C127.7188 54.1719 128.875 53.125 128.875 51.7031 C128.875 50.5 128.2031 49.625 126.7969 49.375 C127.9531 49.0156 128.6094 48.2031 128.6094 47.2031 C128.6094 45.9219 127.6719 45.0781 126.1875 45.0781 C125.0469 45.0781 124.0625 45.5938 123.7969 46.6875 C123.9062 47 124.1094 47.1094 124.3594 47.1094 C124.7344 47.1094 124.8906 46.8906 125 46.4062 L125.2344 45.6562 Z" style="fill:black; stroke:none;"
      /><rect x="109" width="6" height="13" y="42" style="stroke:none;"
      /><path d="M111.0938 48.2031 C111.0938 46.6562 111.75 45.8125 112.7969 45.8125 C113.7188 45.8125 114.2656 46.4531 114.2656 47.5156 C114.2656 48.7188 113.5 49.4375 112.1875 49.7031 L112.2969 50.3125 C114.2188 50.2344 114.9375 51.2188 114.9375 52.4375 C114.9375 53.625 114.2344 54.4219 112.9531 54.4219 C112.25 54.4219 111.6562 54.1562 111.0938 53.7188 L111.0938 48.2031 ZM110.2031 54.9062 L110.1094 57.375 L110.2656 57.4844 L111.1562 57.2656 L111.0156 54.0938 C111.5469 54.8438 112.3594 55.1719 113.1719 55.1719 C114.5625 55.1719 115.8594 54.2188 115.8594 52.4844 C115.8594 50.9531 114.875 50.1094 113.125 50 C114.5625 49.6094 115.1875 48.4531 115.1875 47.4844 C115.1875 46.0938 114.1562 45.3125 112.9062 45.3125 C111.2969 45.3125 110.2188 46.5469 110.2188 48.5156 L110.2031 54.9062 Z" style="fill:black; stroke:none;"
      /><rect x="161" width="5" height="10" y="44" style="stroke:none;"
      /><path d="M162.8906 52.6875 C162.4844 52.6875 162.1562 53.0469 162.1562 53.4219 C162.1562 53.8125 162.4844 54.1562 162.8906 54.1562 C163.2969 54.1562 163.6406 53.8125 163.6406 53.4219 C163.6406 53.0469 163.2969 52.6875 162.8906 52.6875 ZM164.4688 46.5781 C164.7188 46.8906 164.875 47.2656 164.8906 47.6562 C164.8906 48.1875 164.625 48.5 164.0312 48.7656 L163.4062 49.0156 C162.6406 49.3125 162.3906 49.5469 162.3906 49.9375 C162.3906 50.1094 162.4531 50.3438 162.5781 50.8125 L162.7344 51.3438 L163.1094 51.3438 L163.0938 50.5312 C163.0938 50.0938 163.2031 49.9688 163.7812 49.7344 L164.2031 49.5625 C165.0312 49.2188 165.4531 48.6875 165.4531 47.8438 C165.4531 46.1562 163.6562 45.1875 162.5 45.0312 C162.1094 45.125 161.9062 45.2969 161.9062 45.6406 C161.9062 45.9375 162.0625 46.1562 162.7188 46.2656 L164.4688 46.5781 Z" style="fill:black; stroke:none;"
    /></g
    ><g ID="legend-1:0" style="text-rendering:optimizeSpeed; font-size:10px; font-family:'SansSerif';"
    ><path style="stroke:none;" d="M30.875 67 L34.9062 67 L34.9062 66.2344 L33.4375 66.2344 L33.4375 59.6562 L32.7344 59.6562 C32.3281 59.9062 31.8594 60.0625 31.2031 60.1875 L31.2031 60.7656 L32.5156 60.7656 L32.5156 66.2344 L30.875 66.2344 L30.875 67 ZM35.925 62.4531 L40.7219 62.4531 L40.7219 61.7656 L35.925 61.7656 L35.925 62.4531 ZM35.925 64.8438 L40.7219 64.8438 L40.7219 64.1719 L35.925 64.1719 L35.925 64.8438 ZM43.2719 67.125 C43.9437 67.125 44.5531 66.7812 45.0687 66.3438 L45.1 66.3438 L45.1781 67 L45.9281 67 L45.9281 63.6562 C45.9281 62.3125 45.3656 61.4375 44.0531 61.4375 C43.1781 61.4375 42.4125 61.8125 41.9125 62.1406 L42.2719 62.7656 C42.6937 62.4844 43.2719 62.1875 43.8969 62.1875 C44.7875 62.1875 45.0219 62.8594 45.0219 63.5625 C42.7094 63.8125 41.6781 64.4062 41.6781 65.5938 C41.6781 66.5625 42.3656 67.125 43.2719 67.125 ZM43.5375 66.4062 C42.9906 66.4062 42.5687 66.1562 42.5687 65.5312 C42.5687 64.8281 43.1937 64.375 45.0219 64.1562 L45.0219 65.6875 C44.4906 66.1562 44.0531 66.4062 43.5375 66.4062 ZM48.615 67.125 C48.865 67.125 49.0212 67.0938 49.1462 67.0469 L49.0212 66.3438 C48.9275 66.375 48.8806 66.375 48.8337 66.375 C48.6931 66.375 48.5681 66.2656 48.5681 65.9844 L48.5681 59.0469 L47.6618 59.0469 L47.6618 65.9219 C47.6618 66.6875 47.9431 67.125 48.615 67.125 ZM52.3556 67.125 C53.0118 67.125 53.5743 66.7812 54.0118 66.3594 L54.0431 66.3594 L54.1212 67 L54.8556 67 L54.8556 59.0469 L53.965 59.0469 L53.965 61.125 L53.9962 62.0625 C53.5275 61.6719 53.1056 61.4375 52.465 61.4375 C51.2306 61.4375 50.1212 62.5312 50.1212 64.2969 C50.1212 66.0938 50.9962 67.125 52.3556 67.125 ZM52.5587 66.375 C51.6056 66.375 51.0587 65.5938 51.0587 64.2812 C51.0587 63.0469 51.7462 62.2031 52.6368 62.2031 C53.0743 62.2031 53.4962 62.3594 53.965 62.7656 L53.965 65.625 C53.4962 66.125 53.0587 66.375 52.5587 66.375 ZM58.8993 67.125 C59.6337 67.125 60.2275 66.875 60.6962 66.5625 L60.3681 65.9688 C59.9775 66.2344 59.54 66.4062 59.0087 66.4062 C57.9775 66.4062 57.2743 65.6562 57.2118 64.5 L60.8681 64.5 C60.8837 64.375 60.915 64.1875 60.915 63.9844 C60.915 62.4375 60.1337 61.4375 58.7431 61.4375 C57.4931 61.4375 56.3056 62.5312 56.3056 64.2969 C56.3056 66.0781 57.4618 67.125 58.8993 67.125 ZM57.1962 63.8438 C57.3056 62.7812 57.9931 62.1562 58.7587 62.1562 C59.6025 62.1562 60.1025 62.75 60.1025 63.8438 L57.1962 63.8438 ZM62.2518 67 L63.1581 67 L63.1581 63.0625 C63.705 62.5156 64.0956 62.2344 64.6425 62.2344 C65.3768 62.2344 65.6737 62.6562 65.6737 63.6875 L65.6737 67 L66.5956 67 L66.5956 63.5625 C66.5956 62.1719 66.0643 61.4375 64.9237 61.4375 C64.1893 61.4375 63.6268 61.8438 63.1268 62.3438 L63.1581 61.2188 L63.1581 59.0469 L62.2518 59.0469 L62.2518 67 ZM68.4156 69.3438 C69.4937 69.3438 70.0562 68.5156 70.4312 67.4531 L72.4781 61.5625 L71.5874 61.5625 L70.6187 64.5938 C70.4624 65.0625 70.3062 65.625 70.1656 66.1094 L70.1031 66.1094 C69.9468 65.625 69.7437 65.0625 69.5874 64.5938 L68.4781 61.5625 L67.5249 61.5625 L69.7124 67.0156 L69.5874 67.4219 C69.3687 68.0938 68.9781 68.5938 68.3531 68.5938 C68.2124 68.5938 68.0562 68.5469 67.9468 68.5 L67.7749 69.2344 C67.9468 69.2969 68.1499 69.3438 68.4156 69.3438 ZM75.3756 67.125 C76.0318 67.125 76.5943 66.7812 77.0318 66.3594 L77.0631 66.3594 L77.1412 67 L77.8756 67 L77.8756 59.0469 L76.9849 59.0469 L76.9849 61.125 L77.0162 62.0625 C76.5474 61.6719 76.1256 61.4375 75.4849 61.4375 C74.2506 61.4375 73.1412 62.5312 73.1412 64.2969 C73.1412 66.0938 74.0162 67.125 75.3756 67.125 ZM75.5787 66.375 C74.6256 66.375 74.0787 65.5938 74.0787 64.2812 C74.0787 63.0469 74.7662 62.2031 75.6568 62.2031 C76.0943 62.2031 76.5162 62.3594 76.9849 62.7656 L76.9849 65.625 C76.5162 66.125 76.0787 66.375 75.5787 66.375 ZM81.9193 67.125 C82.6537 67.125 83.2474 66.875 83.7162 66.5625 L83.3881 65.9688 C82.9974 66.2344 82.5599 66.4062 82.0287 66.4062 C80.9974 66.4062 80.2943 65.6562 80.2318 64.5 L83.8881 64.5 C83.9037 64.375 83.9349 64.1875 83.9349 63.9844 C83.9349 62.4375 83.1537 61.4375 81.7631 61.4375 C80.5131 61.4375 79.3256 62.5312 79.3256 64.2969 C79.3256 66.0781 80.4818 67.125 81.9193 67.125 ZM80.2162 63.8438 C80.3256 62.7812 81.0131 62.1562 81.7787 62.1562 C82.6224 62.1562 83.1224 62.75 83.1224 63.8438 L80.2162 63.8438 ZM84.8031 64.5469 L87.3656 64.5469 L87.3656 63.8438 L84.8031 63.8438 L84.8031 64.5469 ZM88.8199 67 L92.9449 67 L92.9449 66.2031 L89.7574 66.2031 L89.7574 59.6562 L88.8199 59.6562 L88.8199 67 ZM93.703 64.5469 L96.2655 64.5469 L96.2655 63.8438 L93.703 63.8438 L93.703 64.5469 ZM100.5949 67.125 C101.5949 67.125 102.4074 66.7656 102.8762 66.2812 L102.8762 63.2031 L100.4699 63.2031 L100.4699 63.9688 L102.0168 63.9688 L102.0168 65.8906 C101.7355 66.1562 101.2199 66.3125 100.7043 66.3125 C99.1262 66.3125 98.2512 65.1562 98.2512 63.3125 C98.2512 61.4844 99.2043 60.3438 100.673 60.3438 C101.423 60.3438 101.9074 60.6562 102.2668 61.0469 L102.7668 60.4375 C102.3449 59.9844 101.673 59.5312 100.6574 59.5312 C98.7199 59.5312 97.298 60.9688 97.298 63.3438 C97.298 65.7188 98.673 67.125 100.5949 67.125 ZM104.5318 67 L105.438 67 L105.438 63.5156 C105.7974 62.5781 106.3599 62.2656 106.813 62.2656 C107.0318 62.2656 107.1568 62.2812 107.3443 62.3438 L107.5162 61.5469 C107.3443 61.4531 107.1724 61.4375 106.9224 61.4375 C106.313 61.4375 105.7662 61.875 105.3912 62.5625 L105.3599 62.5625 L105.2818 61.5625 L104.5318 61.5625 L104.5318 67 ZM110.5212 67.125 C111.8493 67.125 113.0368 66.0938 113.0368 64.2969 C113.0368 62.4844 111.8493 61.4375 110.5212 61.4375 C109.193 61.4375 108.0055 62.4844 108.0055 64.2969 C108.0055 66.0938 109.193 67.125 110.5212 67.125 ZM110.5212 66.375 C109.5837 66.375 108.943 65.5469 108.943 64.2969 C108.943 63.0469 109.5837 62.1875 110.5212 62.1875 C111.4587 62.1875 112.0993 63.0469 112.0993 64.2969 C112.0993 65.5469 111.4587 66.375 110.5212 66.375 Z"
    /></g
  ></g
></svg
>
