<?xml version="1.0"?>
<!DOCTYPE svg PUBLIC '-//W3C//DTD SVG 1.0//EN'
          'http://www.w3.org/TR/2001/REC-SVG-20010904/DTD/svg10.dtd'>
<svg xmlns:xlink="http://www.w3.org/1999/xlink" style="fill-opacity:1; color-rendering:auto; color-interpolation:auto; text-rendering:auto; stroke:black; stroke-linecap:square; stroke-miterlimit:10; shape-rendering:auto; stroke-opacity:1; fill:black; stroke-dasharray:none; font-weight:normal; stroke-width:1; font-family:'Dialog'; font-style:normal; stroke-linejoin:miter; font-size:12px; stroke-dashoffset:0; image-rendering:auto;" viewBox="0 0 173 82" xmlns="http://www.w3.org/2000/svg"
><!--Generated by the Batik Graphics2D SVG Generator--><defs id="genericDefs"
  /><g
  ><defs id="defs1"
    ><clipPath clipPathUnits="userSpaceOnUse" id="clipPath1"
      ><path d="M69 41 C69 47.0751 64.0751 52 58 52 C51.9249 52 47 47.0751 47 41 C47 34.9249 51.9249 30 58 30 C64.0751 30 69 34.9249 69 41 Z"
      /></clipPath
    ></defs
    ><g style="fill:white; text-rendering:optimizeSpeed; stroke:white;"
    ><rect x="0" width="173" height="82" y="0" style="stroke:none;"
      /><circle style="clip-path:url(#clipPath1); stroke:none;" r="11" cx="58" cy="41"
      /><rect x="47" y="30" width="22" style="clip-path:url(#clipPath1); fill:rgb(0,166,81); stroke:none;" height="22"
      /><rect x="47" y="30" width="22" style="clip-path:url(#clipPath1); fill:none; stroke:black;" height="22"
      /><circle style="fill:none; stroke:black;" r="11" cx="58" cy="41"
      /><rect x="74" y="28" width="5" style="stroke:none;" height="10"
    /></g
    ><g style="font-family:'Serif'; text-rendering:optimizeSpeed; "
    ><path style="stroke:none;" d="M75.8906 36.6875 C75.4844 36.6875 75.1562 37.0469 75.1562 37.4219 C75.1562 37.8125 75.4844 38.1562 75.8906 38.1562 C76.2969 38.1562 76.6406 37.8125 76.6406 37.4219 C76.6406 37.0469 76.2969 36.6875 75.8906 36.6875 ZM77.4688 30.5781 C77.7188 30.8906 77.875 31.2656 77.8906 31.6562 C77.8906 32.1875 77.625 32.5 77.0312 32.7656 L76.4062 33.0156 C75.6406 33.3125 75.3906 33.5469 75.3906 33.9375 C75.3906 34.1094 75.4531 34.3438 75.5781 34.8125 L75.7344 35.3438 L76.1094 35.3438 L76.0938 34.5312 C76.0938 34.0938 76.2031 33.9688 76.7812 33.7344 L77.2031 33.5625 C78.0312 33.2188 78.4531 32.6875 78.4531 31.8438 C78.4531 30.1562 76.6562 29.1875 75.5 29.0312 C75.1094 29.125 74.9062 29.2969 74.9062 29.6406 C74.9062 29.9375 75.0625 30.1562 75.7188 30.2656 L77.4688 30.5781 Z"
      /><rect x="74" y="44" width="5" style="fill:white; stroke:none;" height="10"
      /><path style="stroke:none;" d="M75.8906 52.6875 C75.4844 52.6875 75.1562 53.0469 75.1562 53.4219 C75.1562 53.8125 75.4844 54.1562 75.8906 54.1562 C76.2969 54.1562 76.6406 53.8125 76.6406 53.4219 C76.6406 53.0469 76.2969 52.6875 75.8906 52.6875 ZM77.4688 46.5781 C77.7188 46.8906 77.875 47.2656 77.8906 47.6562 C77.8906 48.1875 77.625 48.5 77.0312 48.7656 L76.4062 49.0156 C75.6406 49.3125 75.3906 49.5469 75.3906 49.9375 C75.3906 50.1094 75.4531 50.3438 75.5781 50.8125 L75.7344 51.3438 L76.1094 51.3438 L76.0938 50.5312 C76.0938 50.0938 76.2031 49.9688 76.7812 49.7344 L77.2031 49.5625 C78.0312 49.2188 78.4531 48.6875 78.4531 47.8438 C78.4531 46.1562 76.6562 45.1875 75.5 45.0312 C75.1094 45.125 74.9062 45.2969 74.9062 45.6406 C74.9062 45.9375 75.0625 46.1562 75.7188 46.2656 L77.4688 46.5781 Z"
      /><path style="stroke:none;" d="M32.6562 46.1875 C34.3906 46.1875 36.0156 44.9062 36.0156 42.6562 C36.0156 40.4062 34.625 39.3906 32.9219 39.3906 C32.2969 39.3906 31.8594 39.5469 31.3906 39.7969 L31.6406 36.8281 L35.5312 36.8281 L35.5312 35.7188 L30.5312 35.7188 L30.2031 40.5469 L30.8906 40.9531 C31.4844 40.5625 31.9062 40.3594 32.5938 40.3594 C33.8906 40.3594 34.7188 41.2188 34.7188 42.7031 C34.7188 44.1875 33.75 45.125 32.5469 45.125 C31.3594 45.125 30.6094 44.5781 30.0156 43.9844 L29.3906 44.8281 C30.0781 45.5156 31.0625 46.1875 32.6562 46.1875 ZM36.9731 46 L38.3168 46 L39.3481 44.2188 C39.6137 43.7656 39.8637 43.2969 40.1293 42.8594 L40.2075 42.8594 C40.4731 43.2969 40.7543 43.7656 41.0043 44.2188 L42.1293 46 L43.5356 46 L41.02 42.1562 L43.3325 38.3906 L42.0043 38.3906 L41.0668 40.0625 C40.8481 40.5 40.6137 40.9219 40.3793 41.3438 L40.3325 41.3438 C40.0668 40.9219 39.8012 40.5 39.5668 40.0625 L38.5512 38.3906 L37.1762 38.3906 L39.4887 42.0312 L36.9731 46 Z"
    /></g
    ><g ID="legend-1:0" style="text-rendering:optimizeSpeed; font-size:10px; font-family:'SansSerif';"
    ><path style="stroke:none;" d="M30.9219 67 L31.8281 67 L31.8281 63.0625 C32.375 62.5156 32.7656 62.2344 33.3125 62.2344 C34.0469 62.2344 34.3438 62.6562 34.3438 63.6875 L34.3438 67 L35.2656 67 L35.2656 63.5625 C35.2656 62.1719 34.7344 61.4375 33.5938 61.4375 C32.8594 61.4375 32.2969 61.8438 31.7812 62.3438 L31.75 62.3438 L31.6719 61.5625 L30.9219 61.5625 L30.9219 67 ZM39.1413 67.125 C40.4694 67.125 41.6569 66.0938 41.6569 64.2969 C41.6569 62.4844 40.4694 61.4375 39.1413 61.4375 C37.8131 61.4375 36.6256 62.4844 36.6256 64.2969 C36.6256 66.0938 37.8131 67.125 39.1413 67.125 ZM39.1413 66.375 C38.2038 66.375 37.5631 65.5469 37.5631 64.2969 C37.5631 63.0469 38.2038 62.1875 39.1413 62.1875 C40.0788 62.1875 40.7194 63.0469 40.7194 64.2969 C40.7194 65.5469 40.0788 66.375 39.1413 66.375 ZM47.16 69.5 C48.8475 69.5 49.91 68.625 49.91 67.625 C49.91 66.7344 49.2694 66.3281 48.0038 66.3281 L46.9569 66.3281 C46.2225 66.3281 46.0038 66.0938 46.0038 65.7344 C46.0038 65.4375 46.1444 65.2656 46.3475 65.0938 C46.5975 65.2031 46.8944 65.2812 47.16 65.2812 C48.2538 65.2812 49.1444 64.5469 49.1444 63.3906 C49.1444 62.9219 48.9569 62.5156 48.7069 62.2656 L49.8163 62.2656 L49.8163 61.5625 L47.9256 61.5625 C47.7225 61.5 47.4569 61.4375 47.16 61.4375 C46.0663 61.4375 45.1131 62.1875 45.1131 63.375 C45.1131 64.0156 45.4725 64.5469 45.8319 64.8281 L45.8319 64.875 C45.5506 65.0625 45.2225 65.4375 45.2225 65.875 C45.2225 66.3125 45.4256 66.5938 45.7225 66.7656 L45.7225 66.8125 C45.2069 67.1406 44.9256 67.5781 44.9256 68.0469 C44.9256 68.9844 45.8319 69.5 47.16 69.5 ZM47.16 64.6562 C46.535 64.6562 46.0038 64.1562 46.0038 63.375 C46.0038 62.5625 46.5194 62.0938 47.16 62.0938 C47.8006 62.0938 48.3163 62.5781 48.3163 63.375 C48.3163 64.1562 47.785 64.6562 47.16 64.6562 ZM47.285 68.875 C46.3163 68.875 45.7225 68.5 45.7225 67.9219 C45.7225 67.5938 45.8788 67.2812 46.2694 67 C46.5038 67.0625 46.7694 67.0938 46.9725 67.0938 L47.91 67.0938 C48.6288 67.0938 49.0194 67.2656 49.0194 67.7656 C49.0194 68.3281 48.3319 68.875 47.285 68.875 ZM51.915 67.125 C52.165 67.125 52.3212 67.0938 52.4462 67.0469 L52.3212 66.3438 C52.2275 66.375 52.1806 66.375 52.1337 66.375 C51.9931 66.375 51.8681 66.2656 51.8681 65.9844 L51.8681 59.0469 L50.9619 59.0469 L50.9619 65.9219 C50.9619 66.6875 51.2431 67.125 51.915 67.125 ZM53.9056 69.3438 C54.9837 69.3438 55.5462 68.5156 55.9212 67.4531 L57.9681 61.5625 L57.0775 61.5625 L56.1087 64.5938 C55.9525 65.0625 55.7962 65.625 55.6556 66.1094 L55.5931 66.1094 C55.4369 65.625 55.2337 65.0625 55.0775 64.5938 L53.9681 61.5625 L53.015 61.5625 L55.2025 67.0156 L55.0775 67.4219 C54.8587 68.0938 54.4681 68.5938 53.8431 68.5938 C53.7025 68.5938 53.5462 68.5469 53.4369 68.5 L53.265 69.2344 C53.4369 69.2969 53.64 69.3438 53.9056 69.3438 ZM61.1625 67.125 C61.8031 67.125 62.4281 66.875 62.9125 66.4375 L62.5219 65.8281 C62.1781 66.1406 61.7406 66.375 61.2406 66.375 C60.2406 66.375 59.5531 65.5469 59.5531 64.2969 C59.5531 63.0469 60.2875 62.1875 61.2719 62.1875 C61.6937 62.1875 62.0375 62.3906 62.35 62.6719 L62.8187 62.0625 C62.4281 61.7344 61.9437 61.4375 61.225 61.4375 C59.8344 61.4375 58.6156 62.4844 58.6156 64.2969 C58.6156 66.0938 59.725 67.125 61.1625 67.125 ZM66.2212 67.125 C67.5493 67.125 68.7368 66.0938 68.7368 64.2969 C68.7368 62.4844 67.5493 61.4375 66.2212 61.4375 C64.8931 61.4375 63.7056 62.4844 63.7056 64.2969 C63.7056 66.0938 64.8931 67.125 66.2212 67.125 ZM66.2212 66.375 C65.2837 66.375 64.6431 65.5469 64.6431 64.2969 C64.6431 63.0469 65.2837 62.1875 66.2212 62.1875 C67.1587 62.1875 67.7993 63.0469 67.7993 64.2969 C67.7993 65.5469 67.1587 66.375 66.2212 66.375 ZM71.5937 67.125 C72.875 67.125 73.5625 66.4062 73.5625 65.5156 C73.5625 64.4844 72.7031 64.1719 71.9062 63.875 C71.2968 63.6406 70.7343 63.4531 70.7343 62.9375 C70.7343 62.5156 71.0625 62.1562 71.75 62.1562 C72.2343 62.1562 72.6093 62.3438 72.9843 62.625 L73.4218 62.0469 C73 61.7031 72.4062 61.4375 71.7343 61.4375 C70.5625 61.4375 69.8593 62.1094 69.8593 62.9688 C69.8593 63.8906 70.6875 64.2656 71.4531 64.5469 C72.0468 64.7656 72.6875 65.0156 72.6875 65.5625 C72.6875 66.0469 72.3437 66.4219 71.625 66.4219 C70.9687 66.4219 70.4843 66.1562 70.0156 65.7812 L69.5625 66.375 C70.0781 66.8125 70.8125 67.125 71.5937 67.125 ZM74.8518 67 L75.7581 67 L75.7581 61.5625 L74.8518 61.5625 L74.8518 67 ZM75.305 60.4531 C75.6643 60.4531 75.9143 60.2031 75.9143 59.8438 C75.9143 59.4844 75.6643 59.25 75.305 59.25 C74.9456 59.25 74.6956 59.4844 74.6956 59.8438 C74.6956 60.2031 74.9456 60.4531 75.305 60.4531 ZM79.4456 67.125 C80.1018 67.125 80.6643 66.7812 81.1018 66.3594 L81.1331 66.3594 L81.2112 67 L81.9456 67 L81.9456 59.0469 L81.055 59.0469 L81.055 61.125 L81.0862 62.0625 C80.6175 61.6719 80.1956 61.4375 79.555 61.4375 C78.3206 61.4375 77.2112 62.5312 77.2112 64.2969 C77.2112 66.0938 78.0862 67.125 79.4456 67.125 ZM79.6487 66.375 C78.6956 66.375 78.1487 65.5938 78.1487 64.2812 C78.1487 63.0469 78.8362 62.2031 79.7268 62.2031 C80.1643 62.2031 80.5862 62.3594 81.055 62.7656 L81.055 65.625 C80.5862 66.125 80.1487 66.375 79.6487 66.375 ZM83.8018 67 L84.7081 67 L84.7081 61.5625 L83.8018 61.5625 L83.8018 67 ZM84.255 60.4531 C84.6143 60.4531 84.8643 60.2031 84.8643 59.8438 C84.8643 59.4844 84.6143 59.25 84.255 59.25 C83.8956 59.25 83.6456 59.4844 83.6456 59.8438 C83.6456 60.2031 83.8956 60.4531 84.255 60.4531 ZM88.6925 67.125 C89.3331 67.125 89.9581 66.875 90.4425 66.4375 L90.0518 65.8281 C89.7081 66.1406 89.2706 66.375 88.7706 66.375 C87.7706 66.375 87.0831 65.5469 87.0831 64.2969 C87.0831 63.0469 87.8175 62.1875 88.8018 62.1875 C89.2237 62.1875 89.5675 62.3906 89.88 62.6719 L90.3487 62.0625 C89.9581 61.7344 89.4737 61.4375 88.755 61.4375 C87.3643 61.4375 86.1456 62.4844 86.1456 64.2969 C86.1456 66.0938 87.255 67.125 88.6925 67.125 ZM94.835 67.125 C95.085 67.125 95.2412 67.0938 95.3662 67.0469 L95.2412 66.3438 C95.1475 66.375 95.1006 66.375 95.0537 66.375 C94.9131 66.375 94.7881 66.2656 94.7881 65.9844 L94.7881 59.0469 L93.8818 59.0469 L93.8818 65.9219 C93.8818 66.6875 94.1631 67.125 94.835 67.125 ZM96.7318 67 L97.6381 67 L97.6381 61.5625 L96.7318 61.5625 L96.7318 67 ZM97.185 60.4531 C97.5443 60.4531 97.7943 60.2031 97.7943 59.8438 C97.7943 59.4844 97.5443 59.25 97.185 59.25 C96.8256 59.25 96.5756 59.4844 96.5756 59.8438 C96.5756 60.2031 96.8256 60.4531 97.185 60.4531 ZM99.4818 67 L100.3881 67 L100.3881 63.0625 C100.935 62.5156 101.3256 62.2344 101.8725 62.2344 C102.6068 62.2344 102.9037 62.6562 102.9037 63.6875 L102.9037 67 L103.8256 67 L103.8256 63.5625 C103.8256 62.1719 103.2943 61.4375 102.1537 61.4375 C101.4193 61.4375 100.8568 61.8438 100.3412 62.3438 L100.31 62.3438 L100.2318 61.5625 L99.4818 61.5625 L99.4818 67 ZM105.5918 67 L106.4825 67 L106.4825 65.5625 L107.5137 64.375 L109.1075 67 L110.0918 67 L108.045 63.7656 L109.8575 61.5625 L108.8262 61.5625 L106.5137 64.4375 L106.4825 64.4375 L106.4825 59.0469 L105.5918 59.0469 L105.5918 67 ZM112.3618 67.125 C113.0337 67.125 113.6431 66.7812 114.1587 66.3438 L114.1899 66.3438 L114.2681 67 L115.0181 67 L115.0181 63.6562 C115.0181 62.3125 114.4556 61.4375 113.1431 61.4375 C112.2681 61.4375 111.5024 61.8125 111.0024 62.1406 L111.3618 62.7656 C111.7837 62.4844 112.3618 62.1875 112.9868 62.1875 C113.8774 62.1875 114.1118 62.8594 114.1118 63.5625 C111.7993 63.8125 110.7681 64.4062 110.7681 65.5938 C110.7681 66.5625 111.4556 67.125 112.3618 67.125 ZM112.6274 66.4062 C112.0806 66.4062 111.6587 66.1562 111.6587 65.5312 C111.6587 64.8281 112.2837 64.375 114.1118 64.1562 L114.1118 65.6875 C113.5806 66.1562 113.1431 66.4062 112.6274 66.4062 ZM118.5799 69.5 C120.2674 69.5 121.3299 68.625 121.3299 67.625 C121.3299 66.7344 120.6893 66.3281 119.4237 66.3281 L118.3768 66.3281 C117.6424 66.3281 117.4237 66.0938 117.4237 65.7344 C117.4237 65.4375 117.5643 65.2656 117.7674 65.0938 C118.0174 65.2031 118.3143 65.2812 118.5799 65.2812 C119.6737 65.2812 120.5643 64.5469 120.5643 63.3906 C120.5643 62.9219 120.3768 62.5156 120.1268 62.2656 L121.2362 62.2656 L121.2362 61.5625 L119.3456 61.5625 C119.1424 61.5 118.8768 61.4375 118.5799 61.4375 C117.4862 61.4375 116.5331 62.1875 116.5331 63.375 C116.5331 64.0156 116.8924 64.5469 117.2518 64.8281 L117.2518 64.875 C116.9706 65.0625 116.6424 65.4375 116.6424 65.875 C116.6424 66.3125 116.8456 66.5938 117.1424 66.7656 L117.1424 66.8125 C116.6268 67.1406 116.3456 67.5781 116.3456 68.0469 C116.3456 68.9844 117.2518 69.5 118.5799 69.5 ZM118.5799 64.6562 C117.9549 64.6562 117.4237 64.1562 117.4237 63.375 C117.4237 62.5625 117.9393 62.0938 118.5799 62.0938 C119.2206 62.0938 119.7362 62.5781 119.7362 63.375 C119.7362 64.1562 119.2049 64.6562 118.5799 64.6562 ZM118.7049 68.875 C117.7362 68.875 117.1424 68.5 117.1424 67.9219 C117.1424 67.5938 117.2987 67.2812 117.6893 67 C117.9237 67.0625 118.1893 67.0938 118.3924 67.0938 L119.3299 67.0938 C120.0487 67.0938 120.4393 67.2656 120.4393 67.7656 C120.4393 68.3281 119.7518 68.875 118.7049 68.875 ZM124.5693 67.125 C125.3037 67.125 125.8974 66.875 126.3662 66.5625 L126.0381 65.9688 C125.6474 66.2344 125.2099 66.4062 124.6787 66.4062 C123.6474 66.4062 122.9443 65.6562 122.8818 64.5 L126.5381 64.5 C126.5537 64.375 126.5849 64.1875 126.5849 63.9844 C126.5849 62.4375 125.8037 61.4375 124.4131 61.4375 C123.1631 61.4375 121.9756 62.5312 121.9756 64.2969 C121.9756 66.0781 123.1318 67.125 124.5693 67.125 ZM122.8662 63.8438 C122.9756 62.7812 123.6631 62.1562 124.4287 62.1562 C125.2724 62.1562 125.7724 62.75 125.7724 63.8438 L122.8662 63.8438 ZM129.3437 67.125 C130.6249 67.125 131.3124 66.4062 131.3124 65.5156 C131.3124 64.4844 130.453 64.1719 129.6562 63.875 C129.0468 63.6406 128.4843 63.4531 128.4843 62.9375 C128.4843 62.5156 128.8124 62.1562 129.4999 62.1562 C129.9843 62.1562 130.3593 62.3438 130.7343 62.625 L131.1718 62.0469 C130.7499 61.7031 130.1562 61.4375 129.4843 61.4375 C128.3124 61.4375 127.6093 62.1094 127.6093 62.9688 C127.6093 63.8906 128.4374 64.2656 129.203 64.5469 C129.7968 64.7656 130.4374 65.0156 130.4374 65.5625 C130.4374 66.0469 130.0937 66.4219 129.3749 66.4219 C128.7187 66.4219 128.2343 66.1562 127.7655 65.7812 L127.3124 66.375 C127.828 66.8125 128.5624 67.125 129.3437 67.125 Z"
    /></g
  ></g
></svg
>
