<?xml version="1.0"?>
<!DOCTYPE svg PUBLIC '-//W3C//DTD SVG 1.0//EN'
          'http://www.w3.org/TR/2001/REC-SVG-20010904/DTD/svg10.dtd'>
<svg xmlns:xlink="http://www.w3.org/1999/xlink" style="fill-opacity:1; color-rendering:auto; color-interpolation:auto; text-rendering:auto; stroke:black; stroke-linecap:square; stroke-miterlimit:10; shape-rendering:auto; stroke-opacity:1; fill:black; stroke-dasharray:none; font-weight:normal; stroke-width:1; font-family:'Dialog'; font-style:normal; stroke-linejoin:miter; font-size:12px; stroke-dashoffset:0; image-rendering:auto;" viewBox="0 0 304 313" xmlns="http://www.w3.org/2000/svg"
><!--Generated by the Batik Graphics2D SVG Generator--><defs id="genericDefs"
  /><g
  ><defs id="defs1"
    ><clipPath clipPathUnits="userSpaceOnUse" id="clipPath1"
      ><path style="fill-rule:evenodd;" d="M222 168 L216 175 L205 175 L200 168 L205 160 L216 160 L222 168 Z"
      /></clipPath
      ><clipPath clipPathUnits="userSpaceOnUse" id="clipPath2"
      ><path style="fill-rule:evenodd;" d="M170 168 L164 175 L153 175 L148 168 L153 160 L164 160 L170 168 Z"
      /></clipPath
      ><clipPath clipPathUnits="userSpaceOnUse" id="clipPath3"
      ><path style="fill-rule:evenodd;" d="M170 116 L164 123 L153 123 L148 116 L153 108 L164 108 L170 116 Z"
      /></clipPath
      ><clipPath clipPathUnits="userSpaceOnUse" id="clipPath4"
      ><path d="M148 58.5 L170 58.5 L170 69.5 L148 69.5 L148 58.5 Z"
      /></clipPath
      ><clipPath clipPathUnits="userSpaceOnUse" id="clipPath5"
      ><path d="M96 58.5 L118 58.5 L118 69.5 L96 69.5 L96 58.5 Z"
      /></clipPath
      ><clipPath clipPathUnits="userSpaceOnUse" id="clipPath6"
      ><path d="M37 58.5 L59 58.5 L59 69.5 L37 69.5 L37 58.5 Z"
      /></clipPath
    ></defs
    ><g style="fill:white; text-rendering:optimizeSpeed; stroke:white;"
    ><rect x="0" width="304" height="313" y="0" style="stroke:none;"
      /><polygon style="fill:none; stroke:black;" points=" 263 168 211 168"
      /><path d="M263 157 C257.5 162.5 268.5 173.5 263 179" style="fill:none; stroke:black;"
      /><polygon style="fill:none; stroke:black;" points=" 211 168 159 272"
      /><polygon style="fill:none; stroke:black;" points=" 211 168 159 220"
      /><polygon style="fill:none; stroke:black;" points=" 211 168 159 168"
      /><polygon style="fill:none; stroke:black;" points=" 211 168 159 116"
      /><polygon style="fill:none; stroke:black;" points=" 211 168 159 64"
      /><polygon style="clip-path:url(#clipPath1); stroke:none;" points=" 222 168 216 175 205 175 200 168 205 160 216 160 222 168"
      /><rect x="200" y="157" width="22" style="clip-path:url(#clipPath1); stroke:none;" height="22"
      /><rect x="200" y="157" width="22" style="clip-path:url(#clipPath1); fill:none; stroke:black;" height="22"
      /><polygon style="fill:none; stroke:black;" points=" 222 168 216 175 205 175 200 168 205 160 216 160 222 168"
      /><rect x="150" y="266" width="17" style="stroke:none;" height="10"
    /></g
    ><g style="text-rendering:optimizeSpeed; font-size:14px; font-family:'SansSerif';"
    ><path style="stroke:none;" d="M151.4062 277 L152.5781 277 L152.5781 271.3125 C152.5781 270.4375 152.4844 269.1875 152.4219 268.2969 L152.4844 268.2969 L153.2969 270.625 L155.2344 275.9688 L156.1094 275.9688 L158.0469 270.625 L158.8594 268.2969 L158.9219 268.2969 C158.8438 269.1875 158.75 270.4375 158.75 271.3125 L158.75 277 L159.9688 277 L159.9688 266.7188 L158.4062 266.7188 L156.4375 272.2188 C156.2031 272.9375 155.9844 273.6562 155.7344 274.375 L155.6719 274.375 C155.4219 273.6562 155.1875 272.9375 154.9375 272.2188 L152.9688 266.7188 L151.4062 266.7188 L151.4062 277 ZM165.7273 277.1875 C166.7586 277.1875 167.5711 276.8281 168.243 276.3906 L167.7742 275.5625 C167.2273 275.9375 166.618 276.1562 165.8836 276.1562 C164.4305 276.1562 163.4461 275.125 163.3523 273.5 L168.4773 273.5 C168.5086 273.3125 168.5398 273.0469 168.5398 272.7656 C168.5398 270.6094 167.4461 269.2031 165.5086 269.2031 C163.743 269.2031 162.0867 270.7344 162.0867 273.2031 C162.0867 275.7188 163.7117 277.1875 165.7273 277.1875 ZM163.3367 272.5781 C163.493 271.0938 164.4461 270.2188 165.5242 270.2188 C166.7117 270.2188 167.4148 271.0469 167.4148 272.5781 L163.3367 272.5781 Z"
      /><rect x="156" y="216" width="5" style="fill:white; stroke:none;" height="7"
      /><path style="stroke:none;" d="M159.0312 223.1875 C159.9688 223.1875 160.8281 222.6875 161.5625 222.0938 L161.5938 222.0938 L161.7188 223 L162.7656 223 L162.7656 218.3281 C162.7656 216.4531 161.9844 215.2031 160.125 215.2031 C158.9062 215.2031 157.8281 215.75 157.1406 216.2031 L157.6406 217.0781 C158.2344 216.6719 159.0312 216.2656 159.9219 216.2656 C161.1719 216.2656 161.4844 217.2031 161.4844 218.1875 C158.25 218.5469 156.8125 219.375 156.8125 221.0312 C156.8125 222.3906 157.7656 223.1875 159.0312 223.1875 ZM159.4062 222.1562 C158.6406 222.1562 158.0625 221.8125 158.0625 220.9375 C158.0625 219.9688 158.9219 219.3281 161.4844 219.0312 L161.4844 221.1562 C160.75 221.8125 160.1406 222.1562 159.4062 222.1562 Z"
    /></g
    ><g style="fill:white; text-rendering:optimizeSpeed; stroke:white;"
    ><polygon style="stroke:none; clip-path:url(#clipPath2);" points=" 170 168 164 175 153 175 148 168 153 160 164 160 170 168"
      /><rect x="148" y="157" width="22" style="clip-path:url(#clipPath2); stroke:none;" height="22"
      /><rect x="148" y="157" width="22" style="clip-path:url(#clipPath2); fill:none; stroke:black;" height="22"
      /><polygon style="fill:none; stroke:black;" points=" 170 168 164 175 153 175 148 168 153 160 164 160 170 168"
      /><polygon style="clip-path:url(#clipPath3); stroke:none;" points=" 170 116 164 123 153 123 148 116 153 108 164 108 170 116"
      /><rect x="148" y="105" width="22" style="clip-path:url(#clipPath3); stroke:none;" height="22"
      /><rect x="148" y="105" width="22" style="clip-path:url(#clipPath3); fill:none; stroke:black;" height="22"
      /><polygon style="fill:none; stroke:black;" points=" 170 116 164 123 153 123 148 116 153 108 164 108 170 116"
      /><polygon style="fill:none; stroke:black;" points=" 159 64 107 64"
      /><rect x="148" y="58.5" width="22" style="clip-path:url(#clipPath4); stroke:none;" height="11"
      /><rect x="148" y="53" width="22" style="clip-path:url(#clipPath4); fill:rgb(0,144,188); stroke:none;" height="22"
      /><rect x="148" y="53" width="22" style="clip-path:url(#clipPath4); fill:none; stroke:black;" height="22"
      /><rect x="148" y="58.5" width="22" style="fill:none; stroke:black;" height="11"
      /><polygon style="fill:none; stroke:black;" points=" 107 64 48 64"
      /><rect x="96" y="58.5" width="22" style="clip-path:url(#clipPath5); stroke:none;" height="11"
      /><rect x="96" y="53" width="22" style="clip-path:url(#clipPath5); fill:rgb(0,144,188); stroke:none;" height="22"
      /><rect x="96" y="53" width="22" style="clip-path:url(#clipPath5); fill:none; stroke:black;" height="22"
      /><rect x="96" y="58.5" width="22" style="fill:none; stroke:black;" height="11"
      /><rect x="37" y="58.5" width="22" style="clip-path:url(#clipPath6); stroke:none;" height="11"
      /><rect x="37" y="53" width="22" style="clip-path:url(#clipPath6); fill:rgb(0,144,188); stroke:none;" height="22"
      /><rect x="37" y="53" width="22" style="clip-path:url(#clipPath6); fill:none; stroke:black;" height="22"
      /><rect x="37" y="58.5" width="22" style="fill:none; stroke:black;" height="11"
    /></g
    ><g style="text-rendering:optimizeSpeed; font-size:10px; font-family:'SansSerif';"
    ><path style="stroke:none;" d="M46 67 L50.125 67 L50.125 66.2031 L46.9375 66.2031 L46.9375 59.6562 L46 59.6562 L46 67 Z"
      /><path style="stroke:none;" d="M36.9062 91.1406 C38.3281 91.1406 39.4844 90.2812 39.4844 88.8438 C39.4844 87.75 38.7344 87.0156 37.7812 86.7969 L37.7812 86.75 C38.625 86.4375 39.2188 85.7812 39.2188 84.8125 C39.2188 83.5312 38.2188 82.7812 36.875 82.7812 C35.9375 82.7812 35.2188 83.1875 34.6094 83.75 L35.1562 84.3906 C35.6094 83.9219 36.1719 83.6094 36.8281 83.6094 C37.6562 83.6094 38.1875 84.1094 38.1875 84.8906 C38.1875 85.75 37.625 86.4219 35.9531 86.4219 L35.9531 87.1875 C37.8125 87.1875 38.4688 87.8438 38.4688 88.7969 C38.4688 89.7344 37.7812 90.3125 36.8281 90.3125 C35.9062 90.3125 35.2969 89.875 34.8281 89.3906 L34.3125 90.0469 C34.8438 90.6094 35.6406 91.1406 36.9062 91.1406 ZM44.2456 91.1406 C45.2924 91.1406 46.0893 90.7188 46.7299 89.9844 L46.1674 89.3438 C45.6518 89.9062 45.0737 90.25 44.2924 90.25 C42.7612 90.25 41.7924 88.9688 41.7924 86.9375 C41.7924 84.9219 42.7924 83.6719 44.3237 83.6719 C45.0268 83.6719 45.5581 84 45.9799 84.4375 L46.5268 83.7812 C46.0737 83.2656 45.2924 82.7812 44.3237 82.7812 C42.2768 82.7812 40.7456 84.3594 40.7456 86.9688 C40.7456 89.5938 42.2456 91.1406 44.2456 91.1406 ZM48.2166 91 L49.1541 91 L49.1541 86.5312 C49.1541 85.8438 49.076 84.8594 49.0291 84.1562 L49.076 84.1562 L49.701 86 L51.2323 90.1875 L51.9198 90.1875 L53.451 86 L54.0916 84.1562 L54.1229 84.1562 C54.076 84.8594 53.9979 85.8438 53.9979 86.5312 L53.9979 91 L54.951 91 L54.951 82.9219 L53.7166 82.9219 L52.1854 87.25 C51.9979 87.8125 51.826 88.375 51.6385 88.9375 L51.576 88.9375 C51.3729 88.375 51.1854 87.8125 51.0135 87.25 L49.451 82.9219 L48.2166 82.9219 L48.2166 91 ZM59.4767 91.1406 C60.2892 91.1406 60.9298 90.875 61.4611 90.5312 L61.0861 89.8594 C60.6486 90.1562 60.1798 90.3438 59.6017 90.3438 C58.4611 90.3438 57.6798 89.5312 57.6173 88.25 L61.6486 88.25 C61.6642 88.1094 61.6798 87.8906 61.6798 87.6719 C61.6798 85.9688 60.8361 84.875 59.3048 84.875 C57.9298 84.875 56.6173 86.0781 56.6173 88.0156 C56.6173 89.9844 57.8986 91.1406 59.4767 91.1406 ZM57.6017 87.5312 C57.7267 86.3594 58.4767 85.6719 59.3204 85.6719 C60.2579 85.6719 60.8048 86.3281 60.8048 87.5312 L57.6017 87.5312 Z"
      /><rect x="36" y="35" width="22" style="fill:white; stroke:none;" height="10"
      /><path style="stroke:none;" d="M37.6094 42.1562 L39.9531 38.6562 C40.2344 38.1406 40.5156 37.6406 40.7812 37.1406 L40.8281 37.1406 C40.7969 37.6719 40.7656 38.5 40.7656 39 L40.7656 42.1562 L37.6094 42.1562 ZM40.7656 46 L41.9688 46 L41.9688 43.1719 L43.3281 43.1719 L43.3281 42.1562 L41.9688 42.1562 L41.9688 35.7188 L40.5469 35.7188 L36.2812 42.3281 L36.2812 43.1719 L40.7656 43.1719 L40.7656 46 ZM46.9418 40.2656 C47.3168 39.0938 47.645 37.9844 47.9731 36.7812 L48.02 36.7812 C48.3637 37.9844 48.6762 39.0938 49.0668 40.2656 L49.5512 41.8281 L46.4418 41.8281 L46.9418 40.2656 ZM43.8168 46 L45.1293 46 L46.1293 42.8594 L49.8793 42.8594 L50.8481 46 L52.2231 46 L48.7387 35.7188 L47.3012 35.7188 L43.8168 46 ZM56.5492 46.1875 C57.4554 46.1875 58.3304 45.8281 59.0179 45.2188 L58.4554 44.3594 C57.9867 44.7969 57.3617 45.125 56.6586 45.125 C55.2679 45.125 54.3148 43.9531 54.3148 42.2031 C54.3148 40.4531 55.3148 39.2656 56.7054 39.2656 C57.3148 39.2656 57.7679 39.5469 58.2211 39.9375 L58.8773 39.0938 C58.3304 38.625 57.6429 38.2031 56.6429 38.2031 C54.7054 38.2031 52.9867 39.6719 52.9867 42.2031 C52.9867 44.7188 54.5336 46.1875 56.5492 46.1875 Z"
    /></g
    ><g style="fill:white; text-rendering:optimizeSpeed; font-family:'Serif'; stroke:white;"
    ><rect x="85" width="6" height="10" y="67" style="stroke:none;"
      /><path d="M87.2344 68.6562 C87.5156 68.5938 87.7656 68.5625 88.0156 68.5625 C89.0625 68.5625 89.6719 69.1719 89.6719 70.2656 C89.6719 71.4375 88.9062 72.1094 87.7031 72.1094 L87.1875 72.1094 L87.1875 72.6406 L87.7969 72.6406 C89.2188 72.6406 89.9062 73.4219 89.9062 74.6406 C89.9062 75.8438 89.1719 76.6875 87.875 76.6875 C87.6094 76.6875 87.3125 76.6562 87.0156 76.5625 L86.7812 75.8125 C86.625 75.2812 86.5 75.0469 86.1406 75.0469 C85.8906 75.0469 85.7031 75.1719 85.5781 75.4219 C85.8438 76.6406 86.7812 77.1719 88.0312 77.1719 C89.7188 77.1719 90.875 76.125 90.875 74.7031 C90.875 73.5 90.2031 72.625 88.7969 72.375 C89.9531 72.0156 90.6094 71.2031 90.6094 70.2031 C90.6094 68.9219 89.6719 68.0781 88.1875 68.0781 C87.0469 68.0781 86.0625 68.5938 85.7969 69.6875 C85.9062 70 86.1094 70.1094 86.3594 70.1094 C86.7344 70.1094 86.8906 69.8906 87 69.4062 L87.2344 68.6562 Z" style="fill:black; stroke:none;"
      /><rect x="70" width="8" height="8" y="68" style="stroke:none;"
      /><path d="M74.9844 73.7031 C74.9375 74.8906 74.1562 75.6562 73.3125 75.6562 C72.2656 75.6562 71.5 74.6875 71.5 72.7188 C71.5 71.2812 72.1562 70.1562 73.3438 70.1562 C74.1406 70.1562 74.7812 70.6875 75.0938 71.6406 L74.9844 73.7031 ZM76.9062 75.2812 C76.7344 75.375 76.5469 75.4219 76.3438 75.4219 C75.9531 75.4219 75.75 75.2188 75.75 74.4219 C75.75 73.4844 75.9688 71.5312 76.1875 69.8281 L76.0312 69.7188 L75.2344 69.9219 L75.1406 70.7969 C74.7812 70.0312 74.1562 69.6562 73.3906 69.6562 C72.0469 69.6562 70.5625 70.8438 70.5625 72.9531 C70.5625 75.0938 71.7188 76.1719 73.1406 76.1719 C74.0156 76.1719 74.6875 75.8125 75.0938 74.9844 C75.2031 75.8594 75.5156 76.1719 76.0156 76.1719 C76.4688 76.1719 76.7969 75.9062 77.0156 75.5625 L76.9062 75.2812 Z" style="fill:black; stroke:none;"
      /><rect x="137" width="6" height="10" y="67" style="stroke:none;"
      /><path d="M139.2344 68.6562 C139.5156 68.5938 139.7656 68.5625 140.0156 68.5625 C141.0625 68.5625 141.6719 69.1719 141.6719 70.2656 C141.6719 71.4375 140.9062 72.1094 139.7031 72.1094 L139.1875 72.1094 L139.1875 72.6406 L139.7969 72.6406 C141.2188 72.6406 141.9062 73.4219 141.9062 74.6406 C141.9062 75.8438 141.1719 76.6875 139.875 76.6875 C139.6094 76.6875 139.3125 76.6562 139.0156 76.5625 L138.7812 75.8125 C138.625 75.2812 138.5 75.0469 138.1406 75.0469 C137.8906 75.0469 137.7031 75.1719 137.5781 75.4219 C137.8438 76.6406 138.7812 77.1719 140.0312 77.1719 C141.7188 77.1719 142.875 76.125 142.875 74.7031 C142.875 73.5 142.2031 72.625 140.7969 72.375 C141.9531 72.0156 142.6094 71.2031 142.6094 70.2031 C142.6094 68.9219 141.6719 68.0781 140.1875 68.0781 C139.0469 68.0781 138.0625 68.5938 137.7969 69.6875 C137.9062 70 138.1094 70.1094 138.3594 70.1094 C138.7344 70.1094 138.8906 69.8906 139 69.4062 L139.2344 68.6562 Z" style="fill:black; stroke:none;"
      /><rect x="123" width="6" height="13" y="65" style="stroke:none;"
      /><path d="M125.0938 71.2031 C125.0938 69.6562 125.75 68.8125 126.7969 68.8125 C127.7188 68.8125 128.2656 69.4531 128.2656 70.5156 C128.2656 71.7188 127.5 72.4375 126.1875 72.7031 L126.2969 73.3125 C128.2188 73.2344 128.9375 74.2188 128.9375 75.4375 C128.9375 76.625 128.2344 77.4219 126.9531 77.4219 C126.25 77.4219 125.6562 77.1562 125.0938 76.7188 L125.0938 71.2031 ZM124.2031 77.9062 L124.1094 80.375 L124.2656 80.4844 L125.1562 80.2656 L125.0156 77.0938 C125.5469 77.8438 126.3594 78.1719 127.1719 78.1719 C128.5625 78.1719 129.8594 77.2188 129.8594 75.4844 C129.8594 73.9531 128.875 73.1094 127.125 73 C128.5625 72.6094 129.1875 71.4531 129.1875 70.4844 C129.1875 69.0938 128.1562 68.3125 126.9062 68.3125 C125.2969 68.3125 124.2188 69.5469 124.2188 71.5156 L124.2031 77.9062 Z" style="fill:black; stroke:none;"
      /><rect x="172" width="5" height="10" y="252" style="stroke:none;"
      /><path d="M173.8906 260.6875 C173.4844 260.6875 173.1562 261.0469 173.1562 261.4219 C173.1562 261.8125 173.4844 262.1562 173.8906 262.1562 C174.2969 262.1562 174.6406 261.8125 174.6406 261.4219 C174.6406 261.0469 174.2969 260.6875 173.8906 260.6875 ZM175.4688 254.5781 C175.7188 254.8906 175.875 255.2656 175.8906 255.6562 C175.8906 256.1875 175.625 256.5 175.0312 256.7656 L174.4062 257.0156 C173.6406 257.3125 173.3906 257.5469 173.3906 257.9375 C173.3906 258.1094 173.4531 258.3438 173.5781 258.8125 L173.7344 259.3438 L174.1094 259.3438 L174.0938 258.5312 C174.0938 258.0938 174.2031 257.9688 174.7812 257.7344 L175.2031 257.5625 C176.0312 257.2188 176.4531 256.6875 176.4531 255.8438 C176.4531 254.1562 174.6562 253.1875 173.5 253.0312 C173.1094 253.125 172.9062 253.2969 172.9062 253.6406 C172.9062 253.9375 173.0625 254.1562 173.7188 254.2656 L175.4688 254.5781 Z" style="fill:black; stroke:none;"
      /><rect x="178" width="5" height="10" y="204" style="stroke:none;"
      /><path d="M179.8906 212.6875 C179.4844 212.6875 179.1562 213.0469 179.1562 213.4219 C179.1562 213.8125 179.4844 214.1562 179.8906 214.1562 C180.2969 214.1562 180.6406 213.8125 180.6406 213.4219 C180.6406 213.0469 180.2969 212.6875 179.8906 212.6875 ZM181.4688 206.5781 C181.7188 206.8906 181.875 207.2656 181.8906 207.6562 C181.8906 208.1875 181.625 208.5 181.0312 208.7656 L180.4062 209.0156 C179.6406 209.3125 179.3906 209.5469 179.3906 209.9375 C179.3906 210.1094 179.4531 210.3438 179.5781 210.8125 L179.7344 211.3438 L180.1094 211.3438 L180.0938 210.5312 C180.0938 210.0938 180.2031 209.9688 180.7812 209.7344 L181.2031 209.5625 C182.0312 209.2188 182.4531 208.6875 182.4531 207.8438 C182.4531 206.1562 180.6562 205.1875 179.5 205.0312 C179.1094 205.125 178.9062 205.2969 178.9062 205.6406 C178.9062 205.9375 179.0625 206.1562 179.7188 206.2656 L181.4688 206.5781 Z" style="fill:black; stroke:none;"
      /><rect x="175" width="5" height="10" y="171" style="stroke:none;"
      /><path d="M176.8906 179.6875 C176.4844 179.6875 176.1562 180.0469 176.1562 180.4219 C176.1562 180.8125 176.4844 181.1562 176.8906 181.1562 C177.2969 181.1562 177.6406 180.8125 177.6406 180.4219 C177.6406 180.0469 177.2969 179.6875 176.8906 179.6875 ZM178.4688 173.5781 C178.7188 173.8906 178.875 174.2656 178.8906 174.6562 C178.8906 175.1875 178.625 175.5 178.0312 175.7656 L177.4062 176.0156 C176.6406 176.3125 176.3906 176.5469 176.3906 176.9375 C176.3906 177.1094 176.4531 177.3438 176.5781 177.8125 L176.7344 178.3438 L177.1094 178.3438 L177.0938 177.5312 C177.0938 177.0938 177.2031 176.9688 177.7812 176.7344 L178.2031 176.5625 C179.0312 176.2188 179.4531 175.6875 179.4531 174.8438 C179.4531 173.1562 177.6562 172.1875 176.5 172.0312 C176.1094 172.125 175.9062 172.2969 175.9062 172.6406 C175.9062 172.9375 176.0625 173.1562 176.7188 173.2656 L178.4688 173.5781 Z" style="fill:black; stroke:none;"
      /><rect x="167" width="5" height="10" y="133" style="stroke:none;"
      /><path d="M168.8906 141.6875 C168.4844 141.6875 168.1562 142.0469 168.1562 142.4219 C168.1562 142.8125 168.4844 143.1562 168.8906 143.1562 C169.2969 143.1562 169.6406 142.8125 169.6406 142.4219 C169.6406 142.0469 169.2969 141.6875 168.8906 141.6875 ZM170.4688 135.5781 C170.7188 135.8906 170.875 136.2656 170.8906 136.6562 C170.8906 137.1875 170.625 137.5 170.0312 137.7656 L169.4062 138.0156 C168.6406 138.3125 168.3906 138.5469 168.3906 138.9375 C168.3906 139.1094 168.4531 139.3438 168.5781 139.8125 L168.7344 140.3438 L169.1094 140.3438 L169.0938 139.5312 C169.0938 139.0938 169.2031 138.9688 169.7812 138.7344 L170.2031 138.5625 C171.0312 138.2188 171.4531 137.6875 171.4531 136.8438 C171.4531 135.1562 169.6562 134.1875 168.5 134.0312 C168.1094 134.125 167.9062 134.2969 167.9062 134.6406 C167.9062 134.9375 168.0625 135.1562 168.7188 135.2656 L170.4688 135.5781 Z" style="fill:black; stroke:none;"
      /><rect x="157" width="6" height="13" y="79" style="stroke:none;"
      /><path d="M159.0938 85.2031 C159.0938 83.6562 159.75 82.8125 160.7969 82.8125 C161.7188 82.8125 162.2656 83.4531 162.2656 84.5156 C162.2656 85.7188 161.5 86.4375 160.1875 86.7031 L160.2969 87.3125 C162.2188 87.2344 162.9375 88.2188 162.9375 89.4375 C162.9375 90.625 162.2344 91.4219 160.9531 91.4219 C160.25 91.4219 159.6562 91.1562 159.0938 90.7188 L159.0938 85.2031 ZM158.2031 91.9062 L158.1094 94.375 L158.2656 94.4844 L159.1562 94.2656 L159.0156 91.0938 C159.5469 91.8438 160.3594 92.1719 161.1719 92.1719 C162.5625 92.1719 163.8594 91.2188 163.8594 89.4844 C163.8594 87.9531 162.875 87.1094 161.125 87 C162.5625 86.6094 163.1875 85.4531 163.1875 84.4844 C163.1875 83.0938 162.1562 82.3125 160.9062 82.3125 C159.2969 82.3125 158.2188 83.5469 158.2188 85.5156 L158.2031 91.9062 Z" style="fill:black; stroke:none;"
      /><rect x="227" width="5" height="10" y="171" style="stroke:none;"
      /><path d="M228.8906 179.6875 C228.4844 179.6875 228.1562 180.0469 228.1562 180.4219 C228.1562 180.8125 228.4844 181.1562 228.8906 181.1562 C229.2969 181.1562 229.6406 180.8125 229.6406 180.4219 C229.6406 180.0469 229.2969 179.6875 228.8906 179.6875 ZM230.4688 173.5781 C230.7188 173.8906 230.875 174.2656 230.8906 174.6562 C230.8906 175.1875 230.625 175.5 230.0312 175.7656 L229.4062 176.0156 C228.6406 176.3125 228.3906 176.5469 228.3906 176.9375 C228.3906 177.1094 228.4531 177.3438 228.5781 177.8125 L228.7344 178.3438 L229.1094 178.3438 L229.0938 177.5312 C229.0938 177.0938 229.2031 176.9688 229.7812 176.7344 L230.2031 176.5625 C231.0312 176.2188 231.4531 175.6875 231.4531 174.8438 C231.4531 173.1562 229.6562 172.1875 228.5 172.0312 C228.1094 172.125 227.9062 172.2969 227.9062 172.6406 C227.9062 172.9375 228.0625 173.1562 228.7188 173.2656 L230.4688 173.5781 Z" style="fill:black; stroke:none;"
    /></g
  ></g
></svg
>
