<?xml version="1.0"?>
<!DOCTYPE svg PUBLIC '-//W3C//DTD SVG 1.0//EN'
          'http://www.w3.org/TR/2001/REC-SVG-20010904/DTD/svg10.dtd'>
<svg xmlns:xlink="http://www.w3.org/1999/xlink" style="fill-opacity:1; color-rendering:auto; color-interpolation:auto; text-rendering:auto; stroke:black; stroke-linecap:square; stroke-miterlimit:10; shape-rendering:auto; stroke-opacity:1; fill:black; stroke-dasharray:none; font-weight:normal; stroke-width:1; font-family:'Dialog'; font-style:normal; stroke-linejoin:miter; font-size:12px; stroke-dashoffset:0; image-rendering:auto;" viewBox="0 0 295 128" xmlns="http://www.w3.org/2000/svg"
><!--Generated by the Batik Graphics2D SVG Generator--><defs id="genericDefs"
  /><g
  ><defs id="defs1"
    ><clipPath clipPathUnits="userSpaceOnUse" id="clipPath1"
      ><path style="fill-rule:evenodd;" d="M196 42 L202 42 L202 86 L196 86 L202 86 L202 42 Z"
      /></clipPath
      ><clipPath clipPathUnits="userSpaceOnUse" id="clipPath2"
      ><path d="M161 64 C161 70.0751 156.0751 75 150 75 C143.9249 75 139 70.0751 139 64 C139 57.9249 143.9249 53 150 53 C156.0751 53 161 57.9249 161 64 Z"
      /></clipPath
      ><clipPath clipPathUnits="userSpaceOnUse" id="clipPath3"
      ><path style="fill-rule:evenodd;" d="M95 53 L106 75 L84 75 Z"
      /></clipPath
      ><clipPath clipPathUnits="userSpaceOnUse" id="clipPath4"
      ><path style="fill-rule:evenodd;" d="M46 86 L41 86 L40 42 L46 42 L40 42 L41 86 Z"
      /></clipPath
    ></defs
    ><g style="fill:white; text-rendering:optimizeSpeed; stroke:white;"
    ><rect x="0" width="295" height="128" y="0" style="stroke:none;"
      /><polygon style="fill:none; stroke:black;" points=" 254 64 202 64"
      /><path d="M254 53 C248.5 58.5 259.5 69.5 254 75" style="fill:none; stroke:black;"
      /><polygon style="fill:none; stroke:black;" points=" 202 64 150 64"
      /><polygon style="clip-path:url(#clipPath1); stroke:none;" points=" 196 42 202 42 202 86 196 86 202 86 202 42"
      /><rect x="191" y="30" width="22" style="clip-path:url(#clipPath1); fill:black; stroke:none;" height="68"
      /><rect x="191" y="30" width="22" style="clip-path:url(#clipPath1); fill:none; stroke:black;" height="68"
      /><polygon style="fill:none; stroke:black;" points=" 196 42 202 42 202 86 196 86 202 86 202 42"
      /><polygon style="fill:none; stroke:black;" points=" 150 64 95 64"
      /><circle style="clip-path:url(#clipPath2); stroke:none;" r="11" cx="150" cy="64"
      /><rect x="139" y="53" width="22" style="clip-path:url(#clipPath2); fill:rgb(0,166,81); stroke:none;" height="22"
      /><rect x="139" y="53" width="22" style="clip-path:url(#clipPath2); fill:none; stroke:black;" height="22"
      /><circle style="fill:none; stroke:black;" r="11" cx="150" cy="64"
      /><polygon style="fill:none; stroke:black;" points=" 95 64 41 64"
      /><polygon style="clip-path:url(#clipPath3); stroke:none;" points=" 95 53 106 75 84 75"
      /><rect x="84" y="53" width="22" style="clip-path:url(#clipPath3); fill:rgb(0,166,81); stroke:none;" height="22"
      /><rect x="84" y="53" width="22" style="clip-path:url(#clipPath3); fill:none; stroke:black;" height="22"
      /><polygon style="fill:none; stroke:black;" points=" 95 53 106 75 84 75"
      /><rect x="82" y="81" width="25" style="stroke:none;" height="10"
    /></g
    ><g style="text-rendering:optimizeSpeed; font-size:14px; font-family:'SansSerif';"
    ><path style="stroke:none;" d="M82.6094 92 L89.0625 92 L89.0625 90.8906 L86.2344 90.8906 C85.7031 90.8906 85.0781 90.9531 84.5469 90.9844 C86.9531 88.7031 88.5625 86.625 88.5625 84.5781 C88.5625 82.75 87.4219 81.5469 85.5781 81.5469 C84.2812 81.5469 83.4062 82.1406 82.5625 83.0469 L83.2969 83.7812 C83.8594 83.1094 84.5938 82.5938 85.4375 82.5938 C86.7031 82.5938 87.3125 83.4531 87.3125 84.625 C87.3125 86.3906 85.8438 88.4375 82.6094 91.25 L82.6094 92 ZM91.1762 92 L92.3481 92 L92.3481 86.3125 C92.3481 85.4375 92.2543 84.1875 92.1918 83.2969 L92.2543 83.2969 L93.0668 85.625 L95.0043 90.9688 L95.8793 90.9688 L97.8168 85.625 L98.6293 83.2969 L98.6918 83.2969 C98.6137 84.1875 98.52 85.4375 98.52 86.3125 L98.52 92 L99.7387 92 L99.7387 81.7188 L98.1762 81.7188 L96.2075 87.2188 C95.9731 87.9375 95.7543 88.6562 95.5043 89.375 L95.4418 89.375 C95.1918 88.6562 94.9575 87.9375 94.7075 87.2188 L92.7387 81.7188 L91.1762 81.7188 L91.1762 92 ZM105.4973 92.1875 C106.5285 92.1875 107.341 91.8281 108.0129 91.3906 L107.5442 90.5625 C106.9973 90.9375 106.3879 91.1562 105.6535 91.1562 C104.2004 91.1562 103.216 90.125 103.1223 88.5 L108.2473 88.5 C108.2785 88.3125 108.3098 88.0469 108.3098 87.7656 C108.3098 85.6094 107.216 84.2031 105.2785 84.2031 C103.5129 84.2031 101.8567 85.7344 101.8567 88.2031 C101.8567 90.7188 103.4817 92.1875 105.4973 92.1875 ZM103.1067 87.5781 C103.2629 86.0938 104.216 85.2188 105.2942 85.2188 C106.4817 85.2188 107.1848 86.0469 107.1848 87.5781 L103.1067 87.5781 Z"
    /></g
    ><g style="fill:white; text-rendering:optimizeSpeed; stroke:white;"
    ><polygon style="stroke:none; clip-path:url(#clipPath4);" points=" 46 86 41 86 40 42 46 42 40 42 41 86"
      /><rect x="30" y="30" width="22" style="clip-path:url(#clipPath4); fill:black; stroke:none;" height="68"
      /><rect x="30" y="30" width="22" style="clip-path:url(#clipPath4); fill:none; stroke:black;" height="68"
      /><polygon style="fill:none; stroke:black;" points=" 46 86 41 86 40 42 46 42 40 42 41 86"
      /><path d="M43.5469 95.9531 C43.5156 95.2969 43.5 94.3906 43.5 93.7656 L43.5 92.5156 C43.5 90.8281 42.9531 90.1562 41.8594 90.1562 C41.0625 90.1562 40.1562 90.625 39.4531 91.4062 L39.3594 90.2969 L39.2031 90.1719 L37.4688 90.8125 L37.4688 91.2031 L38.5312 91.2812 C38.5625 91.8438 38.5781 92.3438 38.5781 93.1094 L38.5781 93.7656 C38.5781 94.375 38.5781 95.2969 38.5469 95.9688 L37.5469 96.1094 L37.5469 96.5 L40.4688 96.5 L40.4688 96.1094 L39.5156 95.9531 C39.5156 95.2969 39.5 94.375 39.5 93.7656 L39.5 91.875 C40.2656 91.1562 40.875 90.9062 41.4688 90.9062 C42.2344 90.9062 42.5938 91.3125 42.5938 92.5625 L42.5938 93.7656 C42.5938 94.3906 42.5781 95.3125 42.5625 95.9688 L41.5469 96.1094 L41.5469 96.5 L44.4844 96.5 L44.4844 96.1094 L43.5469 95.9531 Z" style="fill:black; stroke:none;"
      /><rect x="70" width="7" height="9" y="67" style="stroke:none;"
      /><path d="M71 72.5156 L73.9531 68.2656 L73.9531 72.5156 L71 72.5156 ZM76.2812 72.5156 L74.8594 72.5156 L74.8594 67.125 L74.2344 67.125 L70.3438 72.6406 L70.3438 73.1875 L73.9531 73.1875 L73.9531 76 L74.8594 76 L74.8594 73.1875 L76.2812 73.1875 L76.2812 72.5156 Z" style="fill:black; stroke:none;"
      /><rect x="128" width="6" height="10" y="67" style="stroke:none;"
      /><path d="M130.2344 68.6562 C130.5156 68.5938 130.7656 68.5625 131.0156 68.5625 C132.0625 68.5625 132.6719 69.1719 132.6719 70.2656 C132.6719 71.4375 131.9062 72.1094 130.7031 72.1094 L130.1875 72.1094 L130.1875 72.6406 L130.7969 72.6406 C132.2188 72.6406 132.9062 73.4219 132.9062 74.6406 C132.9062 75.8438 132.1719 76.6875 130.875 76.6875 C130.6094 76.6875 130.3125 76.6562 130.0156 76.5625 L129.7812 75.8125 C129.625 75.2812 129.5 75.0469 129.1406 75.0469 C128.8906 75.0469 128.7031 75.1719 128.5781 75.4219 C128.8438 76.6406 129.7812 77.1719 131.0312 77.1719 C132.7188 77.1719 133.875 76.125 133.875 74.7031 C133.875 73.5 133.2031 72.625 131.7969 72.375 C132.9531 72.0156 133.6094 71.2031 133.6094 70.2031 C133.6094 68.9219 132.6719 68.0781 131.1875 68.0781 C130.0469 68.0781 129.0625 68.5938 128.7969 69.6875 C128.9062 70 129.1094 70.1094 129.3594 70.1094 C129.7344 70.1094 129.8906 69.8906 130 69.4062 L130.2344 68.6562 Z" style="fill:black; stroke:none;"
      /><rect x="113" width="8" height="8" y="68" style="stroke:none;"
      /><path d="M117.9844 73.7031 C117.9375 74.8906 117.1562 75.6562 116.3125 75.6562 C115.2656 75.6562 114.5 74.6875 114.5 72.7188 C114.5 71.2812 115.1562 70.1562 116.3438 70.1562 C117.1406 70.1562 117.7812 70.6875 118.0938 71.6406 L117.9844 73.7031 ZM119.9062 75.2812 C119.7344 75.375 119.5469 75.4219 119.3438 75.4219 C118.9531 75.4219 118.75 75.2188 118.75 74.4219 C118.75 73.4844 118.9688 71.5312 119.1875 69.8281 L119.0312 69.7188 L118.2344 69.9219 L118.1406 70.7969 C117.7812 70.0312 117.1562 69.6562 116.3906 69.6562 C115.0469 69.6562 113.5625 70.8438 113.5625 72.9531 C113.5625 75.0938 114.7188 76.1719 116.1406 76.1719 C117.0156 76.1719 117.6875 75.8125 118.0938 74.9844 C118.2031 75.8594 118.5156 76.1719 119.0156 76.1719 C119.4688 76.1719 119.7969 75.9062 120.0156 75.5625 L119.9062 75.2812 Z" style="fill:black; stroke:none;"
      /><rect x="165" width="8" height="8" y="68" style="stroke:none;"
      /><path d="M169.9844 73.7031 C169.9375 74.8906 169.1562 75.6562 168.3125 75.6562 C167.2656 75.6562 166.5 74.6875 166.5 72.7188 C166.5 71.2812 167.1562 70.1562 168.3438 70.1562 C169.1406 70.1562 169.7812 70.6875 170.0938 71.6406 L169.9844 73.7031 ZM171.9062 75.2812 C171.7344 75.375 171.5469 75.4219 171.3438 75.4219 C170.9531 75.4219 170.75 75.2188 170.75 74.4219 C170.75 73.4844 170.9688 71.5312 171.1875 69.8281 L171.0312 69.7188 L170.2344 69.9219 L170.1406 70.7969 C169.7812 70.0312 169.1562 69.6562 168.3906 69.6562 C167.0469 69.6562 165.5625 70.8438 165.5625 72.9531 C165.5625 75.0938 166.7188 76.1719 168.1406 76.1719 C169.0156 76.1719 169.6875 75.8125 170.0938 74.9844 C170.2031 75.8594 170.5156 76.1719 171.0156 76.1719 C171.4688 76.1719 171.7969 75.9062 172.0156 75.5625 L171.9062 75.2812 Z" style="fill:black; stroke:none;"
    /></g
  ></g
></svg
>
