<?xml version="1.0"?>
<!DOCTYPE svg PUBLIC '-//W3C//DTD SVG 1.0//EN'
          'http://www.w3.org/TR/2001/REC-SVG-20010904/DTD/svg10.dtd'>
<svg xmlns:xlink="http://www.w3.org/1999/xlink" style="fill-opacity:1; color-rendering:auto; color-interpolation:auto; text-rendering:auto; stroke:black; stroke-linecap:square; stroke-miterlimit:10; shape-rendering:auto; stroke-opacity:1; fill:black; stroke-dasharray:none; font-weight:normal; stroke-width:1; font-family:'Dialog'; font-style:normal; stroke-linejoin:miter; font-size:12px; stroke-dashoffset:0; image-rendering:auto;" viewBox="0 0 127 261" xmlns="http://www.w3.org/2000/svg"
><!--Generated by the Batik Graphics2D SVG Generator--><defs id="genericDefs"
  /><g
  ><defs id="defs1"
    ><clipPath clipPathUnits="userSpaceOnUse" id="clipPath1"
      ><path style="fill-rule:evenodd;" d="M42 186 L53 197 L42 208 L31 197 Z"
      /></clipPath
      ><clipPath clipPathUnits="userSpaceOnUse" id="clipPath2"
      ><path d="M31 134 L53 134 L53 156 L31 156 L31 134 Z"
      /></clipPath
      ><clipPath clipPathUnits="userSpaceOnUse" id="clipPath3"
      ><path d="M53 93 C53 99.0751 48.0751 104 42 104 C35.9249 104 31 99.0751 31 93 C31 86.9249 35.9249 82 42 82 C48.0751 82 53 86.9249 53 93 Z"
      /></clipPath
    ></defs
    ><g style="fill:white; text-rendering:optimizeSpeed; stroke:white;"
    ><rect x="0" width="127" height="261" y="0" style="stroke:none;"
      /><polygon style="clip-path:url(#clipPath1); stroke:none;" points=" 42 186 53 197 42 208 31 197"
      /><rect x="31" y="186" width="22" style="clip-path:url(#clipPath1); fill:rgb(161,122,77); stroke:none;" height="22"
      /><rect x="31" y="186" width="22" style="clip-path:url(#clipPath1); fill:none; stroke:black;" height="22"
      /><polygon style="fill:none; stroke:black;" points=" 42 186 53 197 42 208 31 197"
    /></g
    ><g style="text-rendering:optimizeSpeed; font-size:14px; font-family:'SansSerif';"
    ><path style="stroke:none;" d="M34.6094 225 L41.0625 225 L41.0625 223.8906 L38.2344 223.8906 C37.7031 223.8906 37.0781 223.9531 36.5469 223.9844 C38.9531 221.7031 40.5625 219.625 40.5625 217.5781 C40.5625 215.75 39.4219 214.5469 37.5781 214.5469 C36.2812 214.5469 35.4062 215.1406 34.5625 216.0469 L35.2969 216.7812 C35.8594 216.1094 36.5938 215.5938 37.4375 215.5938 C38.7031 215.5938 39.3125 216.4531 39.3125 217.625 C39.3125 219.3906 37.8438 221.4375 34.6094 224.25 L34.6094 225 ZM46.8168 225.1875 C48.9106 225.1875 50.5043 224.0625 50.5043 220.7656 L50.5043 214.7188 L49.2543 214.7188 L49.2543 220.7969 C49.2543 223.2812 48.1762 224.0469 46.8168 224.0469 C45.4731 224.0469 44.4262 223.2812 44.4262 220.7969 L44.4262 214.7188 L43.1293 214.7188 L43.1293 220.7656 C43.1293 224.0625 44.7231 225.1875 46.8168 225.1875 Z"
    /></g
    ><g style="fill:white; text-rendering:optimizeSpeed; font-family:'Serif'; stroke:white;"
    ><rect x="58" width="5" height="10" y="184" style="stroke:none;"
      /><path d="M59.8906 192.6875 C59.4844 192.6875 59.1562 193.0469 59.1562 193.4219 C59.1562 193.8125 59.4844 194.1562 59.8906 194.1562 C60.2969 194.1562 60.6406 193.8125 60.6406 193.4219 C60.6406 193.0469 60.2969 192.6875 59.8906 192.6875 ZM61.4688 186.5781 C61.7188 186.8906 61.875 187.2656 61.8906 187.6562 C61.8906 188.1875 61.625 188.5 61.0312 188.7656 L60.4062 189.0156 C59.6406 189.3125 59.3906 189.5469 59.3906 189.9375 C59.3906 190.1094 59.4531 190.3438 59.5781 190.8125 L59.7344 191.3438 L60.1094 191.3438 L60.0938 190.5312 C60.0938 190.0938 60.2031 189.9688 60.7812 189.7344 L61.2031 189.5625 C62.0312 189.2188 62.4531 188.6875 62.4531 187.8438 C62.4531 186.1562 60.6562 185.1875 59.5 185.0312 C59.1094 185.125 58.9062 185.2969 58.9062 185.6406 C58.9062 185.9375 59.0625 186.1562 59.7188 186.2656 L61.4688 186.5781 Z" style="fill:black; stroke:none;"
      /><rect x="58" width="5" height="10" y="200" style="stroke:none;"
      /><path d="M59.8906 208.6875 C59.4844 208.6875 59.1562 209.0469 59.1562 209.4219 C59.1562 209.8125 59.4844 210.1562 59.8906 210.1562 C60.2969 210.1562 60.6406 209.8125 60.6406 209.4219 C60.6406 209.0469 60.2969 208.6875 59.8906 208.6875 ZM61.4688 202.5781 C61.7188 202.8906 61.875 203.2656 61.8906 203.6562 C61.8906 204.1875 61.625 204.5 61.0312 204.7656 L60.4062 205.0156 C59.6406 205.3125 59.3906 205.5469 59.3906 205.9375 C59.3906 206.1094 59.4531 206.3438 59.5781 206.8125 L59.7344 207.3438 L60.1094 207.3438 L60.0938 206.5312 C60.0938 206.0938 60.2031 205.9688 60.7812 205.7344 L61.2031 205.5625 C62.0312 205.2188 62.4531 204.6875 62.4531 203.8438 C62.4531 202.1562 60.6562 201.1875 59.5 201.0312 C59.1094 201.125 58.9062 201.2969 58.9062 201.6406 C58.9062 201.9375 59.0625 202.1562 59.7188 202.2656 L61.4688 202.5781 Z" style="fill:black; stroke:none;"
      /><rect x="31" y="134" width="22" style="clip-path:url(#clipPath2); stroke:none;" height="22"
      /><rect x="31" y="134" width="22" style="clip-path:url(#clipPath2); fill:rgb(0,144,188); stroke:none;" height="22"
      /><rect x="31" y="134" width="22" style="clip-path:url(#clipPath2); fill:none; stroke:black;" height="22"
      /><rect x="31" y="134" width="22" style="fill:none; stroke:black;" height="22"
      /><rect x="58" width="5" height="10" y="132" style="stroke:none;"
      /><path d="M59.8906 140.6875 C59.4844 140.6875 59.1562 141.0469 59.1562 141.4219 C59.1562 141.8125 59.4844 142.1562 59.8906 142.1562 C60.2969 142.1562 60.6406 141.8125 60.6406 141.4219 C60.6406 141.0469 60.2969 140.6875 59.8906 140.6875 ZM61.4688 134.5781 C61.7188 134.8906 61.875 135.2656 61.8906 135.6562 C61.8906 136.1875 61.625 136.5 61.0312 136.7656 L60.4062 137.0156 C59.6406 137.3125 59.3906 137.5469 59.3906 137.9375 C59.3906 138.1094 59.4531 138.3438 59.5781 138.8125 L59.7344 139.3438 L60.1094 139.3438 L60.0938 138.5312 C60.0938 138.0938 60.2031 137.9688 60.7812 137.7344 L61.2031 137.5625 C62.0312 137.2188 62.4531 136.6875 62.4531 135.8438 C62.4531 134.1562 60.6562 133.1875 59.5 133.0312 C59.1094 133.125 58.9062 133.2969 58.9062 133.6406 C58.9062 133.9375 59.0625 134.1562 59.7188 134.2656 L61.4688 134.5781 Z" style="fill:black; stroke:none;"
      /><rect x="58" width="5" height="10" y="148" style="stroke:none;"
      /><path d="M59.8906 156.6875 C59.4844 156.6875 59.1562 157.0469 59.1562 157.4219 C59.1562 157.8125 59.4844 158.1562 59.8906 158.1562 C60.2969 158.1562 60.6406 157.8125 60.6406 157.4219 C60.6406 157.0469 60.2969 156.6875 59.8906 156.6875 ZM61.4688 150.5781 C61.7188 150.8906 61.875 151.2656 61.8906 151.6562 C61.8906 152.1875 61.625 152.5 61.0312 152.7656 L60.4062 153.0156 C59.6406 153.3125 59.3906 153.5469 59.3906 153.9375 C59.3906 154.1094 59.4531 154.3438 59.5781 154.8125 L59.7344 155.3438 L60.1094 155.3438 L60.0938 154.5312 C60.0938 154.0938 60.2031 153.9688 60.7812 153.7344 L61.2031 153.5625 C62.0312 153.2188 62.4531 152.6875 62.4531 151.8438 C62.4531 150.1562 60.6562 149.1875 59.5 149.0312 C59.1094 149.125 58.9062 149.2969 58.9062 149.6406 C58.9062 149.9375 59.0625 150.1562 59.7188 150.2656 L61.4688 150.5781 Z" style="fill:black; stroke:none;"
      /><circle r="11" style="clip-path:url(#clipPath3); stroke:none;" cx="42" cy="93"
      /><rect x="31" y="82" width="22" style="clip-path:url(#clipPath3); fill:rgb(255,212,0); stroke:none;" height="22"
      /><rect x="31" y="82" width="22" style="clip-path:url(#clipPath3); fill:none; stroke:black;" height="22"
      /><circle r="11" style="fill:none; stroke:black;" cx="42" cy="93"
      /><rect x="58" width="5" height="10" y="80" style="stroke:none;"
      /><path d="M59.8906 88.6875 C59.4844 88.6875 59.1562 89.0469 59.1562 89.4219 C59.1562 89.8125 59.4844 90.1562 59.8906 90.1562 C60.2969 90.1562 60.6406 89.8125 60.6406 89.4219 C60.6406 89.0469 60.2969 88.6875 59.8906 88.6875 ZM61.4688 82.5781 C61.7188 82.8906 61.875 83.2656 61.8906 83.6562 C61.8906 84.1875 61.625 84.5 61.0312 84.7656 L60.4062 85.0156 C59.6406 85.3125 59.3906 85.5469 59.3906 85.9375 C59.3906 86.1094 59.4531 86.3438 59.5781 86.8125 L59.7344 87.3438 L60.1094 87.3438 L60.0938 86.5312 C60.0938 86.0938 60.2031 85.9688 60.7812 85.7344 L61.2031 85.5625 C62.0312 85.2188 62.4531 84.6875 62.4531 83.8438 C62.4531 82.1562 60.6562 81.1875 59.5 81.0312 C59.1094 81.125 58.9062 81.2969 58.9062 81.6406 C58.9062 81.9375 59.0625 82.1562 59.7188 82.2656 L61.4688 82.5781 Z" style="fill:black; stroke:none;"
      /><rect x="58" width="5" height="10" y="96" style="stroke:none;"
      /><path d="M59.8906 104.6875 C59.4844 104.6875 59.1562 105.0469 59.1562 105.4219 C59.1562 105.8125 59.4844 106.1562 59.8906 106.1562 C60.2969 106.1562 60.6406 105.8125 60.6406 105.4219 C60.6406 105.0469 60.2969 104.6875 59.8906 104.6875 ZM61.4688 98.5781 C61.7188 98.8906 61.875 99.2656 61.8906 99.6562 C61.8906 100.1875 61.625 100.5 61.0312 100.7656 L60.4062 101.0156 C59.6406 101.3125 59.3906 101.5469 59.3906 101.9375 C59.3906 102.1094 59.4531 102.3438 59.5781 102.8125 L59.7344 103.3438 L60.1094 103.3438 L60.0938 102.5312 C60.0938 102.0938 60.2031 101.9688 60.7812 101.7344 L61.2031 101.5625 C62.0312 101.2188 62.4531 100.6875 62.4531 99.8438 C62.4531 98.1562 60.6562 97.1875 59.5 97.0312 C59.1094 97.125 58.9062 97.2969 58.9062 97.6406 C58.9062 97.9375 59.0625 98.1562 59.7188 98.2656 L61.4688 98.5781 Z" style="fill:black; stroke:none;"
      /><rect x="30" width="21" height="10" y="35" style="stroke:none;"
    /></g
    ><g style="text-rendering:optimizeSpeed; font-size:14px; font-family:'SansSerif';"
    ><path style="stroke:none;" d="M32.4844 42.9062 L33.625 42.9062 C33.375 40.7031 35.8906 39.875 35.8906 37.8281 C35.8906 36.2969 34.8594 35.3281 33.2812 35.3281 C32.1406 35.3281 31.25 35.875 30.6094 36.625 L31.3281 37.2969 C31.8125 36.7344 32.4375 36.3906 33.1406 36.3906 C34.125 36.3906 34.6406 37.0625 34.6406 37.9062 C34.6406 39.5781 32.1719 40.4688 32.4844 42.9062 ZM33.0938 46.1875 C33.6094 46.1875 34.0312 45.7969 34.0312 45.2188 C34.0312 44.625 33.6094 44.2188 33.0938 44.2188 C32.5938 44.2188 32.1719 44.625 32.1719 45.2188 C32.1719 45.7969 32.5938 46.1875 33.0938 46.1875 ZM39.8078 40.2656 C40.1828 39.0938 40.511 37.9844 40.8391 36.7812 L40.886 36.7812 C41.2297 37.9844 41.5422 39.0938 41.9328 40.2656 L42.4172 41.8281 L39.3078 41.8281 L39.8078 40.2656 ZM36.6828 46 L37.9953 46 L38.9953 42.8594 L42.7453 42.8594 L43.7141 46 L45.0891 46 L41.6047 35.7188 L40.1672 35.7188 L36.6828 46 ZM49.4152 46.1875 C50.3214 46.1875 51.1964 45.8281 51.8839 45.2188 L51.3214 44.3594 C50.8527 44.7969 50.2277 45.125 49.5246 45.125 C48.1339 45.125 47.1808 43.9531 47.1808 42.2031 C47.1808 40.4531 48.1808 39.2656 49.5714 39.2656 C50.1808 39.2656 50.6339 39.5469 51.0871 39.9375 L51.7433 39.0938 C51.1964 38.625 50.5089 38.2031 49.5089 38.2031 C47.5714 38.2031 45.8527 39.6719 45.8527 42.2031 C45.8527 44.7188 47.3996 46.1875 49.4152 46.1875 Z"
    /></g
  ></g
></svg
>
