<?xml version="1.0"?>
<!DOCTYPE svg PUBLIC '-//W3C//DTD SVG 1.0//EN'
          'http://www.w3.org/TR/2001/REC-SVG-20010904/DTD/svg10.dtd'>
<svg xmlns:xlink="http://www.w3.org/1999/xlink" style="fill-opacity:1; color-rendering:auto; color-interpolation:auto; text-rendering:auto; stroke:black; stroke-linecap:square; stroke-miterlimit:10; shape-rendering:auto; stroke-opacity:1; fill:black; stroke-dasharray:none; font-weight:normal; stroke-width:1; font-family:'Dialog'; font-style:normal; stroke-linejoin:miter; font-size:12px; stroke-dashoffset:0; image-rendering:auto;" viewBox="0 0 602 238" xmlns="http://www.w3.org/2000/svg"
><!--Generated by the Batik Graphics2D SVG Generator--><defs id="genericDefs"
  /><g
  ><defs id="defs1"
    ><clipPath clipPathUnits="userSpaceOnUse" id="clipPath1"
      ><path d="M498 108 L520 108 L520 130 L498 130 L498 108 Z"
      /></clipPath
      ><clipPath clipPathUnits="userSpaceOnUse" id="clipPath2"
      ><path d="M446 108 L468 108 L468 130 L446 130 L446 108 Z"
      /></clipPath
      ><clipPath clipPathUnits="userSpaceOnUse" id="clipPath3"
      ><path d="M416 119 C416 125.0751 411.0751 130 405 130 C398.9249 130 394 125.0751 394 119 C394 112.9249 398.9249 108 405 108 C411.0751 108 416 112.9249 416 119 Z"
      /></clipPath
      ><clipPath clipPathUnits="userSpaceOnUse" id="clipPath4"
      ><path d="M364 171 C364 177.0751 359.0751 182 353 182 C346.9249 182 342 177.0751 342 171 C342 164.9249 346.9249 160 353 160 C359.0751 160 364 164.9249 364 171 Z"
      /></clipPath
      ><clipPath clipPathUnits="userSpaceOnUse" id="clipPath5"
      ><path d="M290 186 L312 186 L312 208 L290 208 L290 186 Z"
      /></clipPath
      ><clipPath clipPathUnits="userSpaceOnUse" id="clipPath6"
      ><path d="M260 197 C260 203.0751 255.0751 208 249 208 C242.9249 208 238 203.0751 238 197 C238 190.9249 242.9249 186 249 186 C255.0751 186 260 190.9249 260 197 Z"
      /></clipPath
      ><clipPath clipPathUnits="userSpaceOnUse" id="clipPath7"
      ><path style="fill-rule:evenodd;" d="M197 186 L208 197 L197 208 L186 197 Z"
      /></clipPath
      ><clipPath clipPathUnits="userSpaceOnUse" id="clipPath8"
      ><path d="M290 134 L312 134 L312 156 L290 156 L290 134 Z"
      /></clipPath
      ><clipPath clipPathUnits="userSpaceOnUse" id="clipPath9"
      ><path d="M260 145 C260 151.0751 255.0751 156 249 156 C242.9249 156 238 151.0751 238 145 C238 138.9249 242.9249 134 249 134 C255.0751 134 260 138.9249 260 145 Z"
      /></clipPath
      ><clipPath clipPathUnits="userSpaceOnUse" id="clipPath10"
      ><path style="fill-rule:evenodd;" d="M197 134 L208 145 L197 156 L186 145 Z"
      /></clipPath
      ><clipPath clipPathUnits="userSpaceOnUse" id="clipPath11"
      ><path d="M342 108 L364 108 L364 130 L342 130 L342 108 Z"
      /></clipPath
      ><clipPath clipPathUnits="userSpaceOnUse" id="clipPath12"
      ><path d="M364 67 C364 73.0751 359.0751 78 353 78 C346.9249 78 342 73.0751 342 67 C342 60.9249 346.9249 56 353 56 C359.0751 56 364 60.9249 364 67 Z"
      /></clipPath
      ><clipPath clipPathUnits="userSpaceOnUse" id="clipPath13"
      ><path d="M290 82 L312 82 L312 104 L290 104 L290 82 Z"
      /></clipPath
      ><clipPath clipPathUnits="userSpaceOnUse" id="clipPath14"
      ><path d="M260 93 C260 99.0751 255.0751 104 249 104 C242.9249 104 238 99.0751 238 93 C238 86.9249 242.9249 82 249 82 C255.0751 82 260 86.9249 260 93 Z"
      /></clipPath
      ><clipPath clipPathUnits="userSpaceOnUse" id="clipPath15"
      ><path d="M186 82 L208 82 L208 104 L186 104 L186 82 Z"
      /></clipPath
      ><clipPath clipPathUnits="userSpaceOnUse" id="clipPath16"
      ><path d="M156 93 C156 99.0751 151.0751 104 145 104 C138.9249 104 134 99.0751 134 93 C134 86.9249 138.9249 82 145 82 C151.0751 82 156 86.9249 156 93 Z"
      /></clipPath
      ><clipPath clipPathUnits="userSpaceOnUse" id="clipPath17"
      ><path style="fill-rule:evenodd;" d="M93 82 L104 93 L93 104 L82 93 Z"
      /></clipPath
      ><clipPath clipPathUnits="userSpaceOnUse" id="clipPath18"
      ><path style="fill-rule:evenodd;" d="M41 82 L52 93 L41 104 L30 93 Z"
      /></clipPath
      ><clipPath clipPathUnits="userSpaceOnUse" id="clipPath19"
      ><path d="M290 30 L312 30 L312 52 L290 52 L290 30 Z"
      /></clipPath
      ><clipPath clipPathUnits="userSpaceOnUse" id="clipPath20"
      ><path d="M260 41 C260 47.0751 255.0751 52 249 52 C242.9249 52 238 47.0751 238 41 C238 34.9249 242.9249 30 249 30 C255.0751 30 260 34.9249 260 41 Z"
      /></clipPath
      ><clipPath clipPathUnits="userSpaceOnUse" id="clipPath21"
      ><path style="fill-rule:evenodd;" d="M197 30 L208 41 L197 52 L186 41 Z"
      /></clipPath
      ><clipPath clipPathUnits="userSpaceOnUse" id="clipPath22"
      ><path style="fill-rule:evenodd;" d="M509 78 L498 56 L520 56 Z"
      /></clipPath
    ></defs
    ><g style="fill:white; text-rendering:optimizeSpeed; stroke:white;"
    ><rect x="0" width="602" height="238" y="0" style="stroke:none;"
      /><polygon style="fill:none; stroke:black;" points=" 561 119 509 119"
      /><path d="M561 108 C555.5 113.5 566.5 124.5 561 130" style="fill:none; stroke:black;"
      /><polygon style="fill:none; stroke:black;" points=" 509 119 457 119"
      /><polygon style="fill:none; stroke:black;" points=" 509 119 509 67"
      /><rect x="498" y="108" width="22" style="clip-path:url(#clipPath1); stroke:none;" height="22"
      /><rect x="498" y="108" width="22" style="clip-path:url(#clipPath1); fill:rgb(0,144,188); stroke:none;" height="22"
      /><rect x="498" y="108" width="22" style="clip-path:url(#clipPath1); fill:none; stroke:black;" height="22"
      /><rect x="498" y="108" width="22" style="fill:none; stroke:black;" height="22"
      /><polygon style="fill:none; stroke:black;" points=" 457 119 405 119"
      /><rect x="446" y="108" width="22" style="clip-path:url(#clipPath2); stroke:none;" height="22"
      /><rect x="446" y="108" width="22" style="clip-path:url(#clipPath2); fill:rgb(0,144,188); stroke:none;" height="22"
      /><rect x="446" y="108" width="22" style="clip-path:url(#clipPath2); fill:none; stroke:black;" height="22"
      /><rect x="446" y="108" width="22" style="fill:none; stroke:black;" height="22"
      /><polygon style="fill:none; stroke:black;" points=" 405 119 353 171"
      /><polygon style="fill:none; stroke:black;" points=" 405 119 353 119"
      /><polygon style="fill:none; stroke:black;" points=" 405 119 353 67"
      /><circle style="clip-path:url(#clipPath3); stroke:none;" r="11" cx="405" cy="119"
      /><rect x="394" y="108" width="22" style="clip-path:url(#clipPath3); fill:rgb(0,166,81); stroke:none;" height="22"
      /><rect x="394" y="108" width="22" style="clip-path:url(#clipPath3); fill:none; stroke:black;" height="22"
      /><circle style="fill:none; stroke:black;" r="11" cx="405" cy="119"
      /><polygon style="fill:none; stroke:black;" points=" 353 171 301 197"
      /><polygon style="fill:none; stroke:black;" points=" 353 171 301 145"
      /><circle style="clip-path:url(#clipPath4); stroke:none;" r="11" cx="353" cy="171"
      /><rect x="342" y="160" width="22" style="clip-path:url(#clipPath4); fill:rgb(0,166,81); stroke:none;" height="22"
      /><rect x="342" y="160" width="22" style="clip-path:url(#clipPath4); fill:none; stroke:black;" height="22"
      /><circle style="fill:none; stroke:black;" r="11" cx="353" cy="171"
      /><polygon style="fill:none; stroke:black;" points=" 301 197 249 197"
      /><rect x="290" y="186" width="22" style="clip-path:url(#clipPath5); stroke:none;" height="22"
      /><rect x="290" y="186" width="22" style="clip-path:url(#clipPath5); fill:rgb(0,144,188); stroke:none;" height="22"
      /><rect x="290" y="186" width="22" style="clip-path:url(#clipPath5); fill:none; stroke:black;" height="22"
      /><rect x="290" y="186" width="22" style="fill:none; stroke:black;" height="22"
      /><polygon style="fill:none; stroke:black;" points=" 249 197 197 197"
      /><circle style="clip-path:url(#clipPath6); stroke:none;" r="11" cx="249" cy="197"
      /><rect x="238" y="186" width="22" style="clip-path:url(#clipPath6); fill:rgb(255,212,0); stroke:none;" height="22"
      /><rect x="238" y="186" width="22" style="clip-path:url(#clipPath6); fill:none; stroke:black;" height="22"
      /><circle style="fill:none; stroke:black;" r="11" cx="249" cy="197"
      /><polygon style="clip-path:url(#clipPath7); stroke:none;" points=" 197 186 208 197 197 208 186 197"
      /><rect x="186" y="186" width="22" style="clip-path:url(#clipPath7); fill:rgb(143,204,233); stroke:none;" height="22"
      /><rect x="186" y="186" width="22" style="clip-path:url(#clipPath7); fill:none; stroke:black;" height="22"
      /><polygon style="fill:none; stroke:black;" points=" 197 186 208 197 197 208 186 197"
      /><rect x="222" y="198" width="16" style="stroke:none;" height="13"
    /></g
    ><g style="font-family:'Serif'; text-rendering:optimizeSpeed; "
    ><path style="stroke:none;" d="M224.2344 202.6562 C224.5156 202.5938 224.7656 202.5625 225.0156 202.5625 C226.0625 202.5625 226.6719 203.1719 226.6719 204.2656 C226.6719 205.4375 225.9062 206.1094 224.7031 206.1094 L224.1875 206.1094 L224.1875 206.6406 L224.7969 206.6406 C226.2188 206.6406 226.9062 207.4219 226.9062 208.6406 C226.9062 209.8438 226.1719 210.6875 224.875 210.6875 C224.6094 210.6875 224.3125 210.6562 224.0156 210.5625 L223.7812 209.8125 C223.625 209.2812 223.5 209.0469 223.1406 209.0469 C222.8906 209.0469 222.7031 209.1719 222.5781 209.4219 C222.8438 210.6406 223.7812 211.1719 225.0312 211.1719 C226.7188 211.1719 227.875 210.125 227.875 208.7031 C227.875 207.5 227.2031 206.625 225.7969 206.375 C226.9531 206.0156 227.6094 205.2031 227.6094 204.2031 C227.6094 202.9219 226.6719 202.0781 225.1875 202.0781 C224.0469 202.0781 223.0625 202.5938 222.7969 203.6875 C222.9062 204 223.1094 204.1094 223.3594 204.1094 C223.7344 204.1094 223.8906 203.8906 224 203.4062 L224.2344 202.6562 ZM228.4993 213.0938 L229.1087 213.0938 L232.6087 201.7344 L231.9837 201.7344 L228.4993 213.0938 ZM235.9878 210.6875 C234.8472 210.6875 234.1753 209.5 234.1753 207.2969 C234.1753 207.2188 234.1753 207.125 234.1753 207.0469 C234.7378 206.5 235.3628 206.3125 235.9878 206.3125 C236.9566 206.3125 237.5972 206.9844 237.5972 208.4531 C237.5972 209.9375 236.9566 210.6875 235.9878 210.6875 ZM238.1753 202.0781 C234.9878 202.4531 233.2066 204.7656 233.2066 207.4531 C233.2066 209.7812 234.2534 211.1719 235.9566 211.1719 C237.4878 211.1719 238.5659 210.1094 238.5659 208.2812 C238.5659 206.6875 237.6128 205.6562 236.2066 205.6562 C235.4722 205.6562 234.7847 205.9844 234.2222 206.5781 C234.4409 204.4062 235.7222 202.9688 238.2378 202.3906 L238.1753 202.0781 Z"
      /><rect x="212" y="201" width="8" style="fill:white; stroke:none;" height="8"
      /><path style="stroke:none;" d="M216.9844 206.7031 C216.9375 207.8906 216.1562 208.6562 215.3125 208.6562 C214.2656 208.6562 213.5 207.6875 213.5 205.7188 C213.5 204.2812 214.1562 203.1562 215.3438 203.1562 C216.1406 203.1562 216.7812 203.6875 217.0938 204.6406 L216.9844 206.7031 ZM218.9062 208.2812 C218.7344 208.375 218.5469 208.4219 218.3438 208.4219 C217.9531 208.4219 217.75 208.2188 217.75 207.4219 C217.75 206.4844 217.9688 204.5312 218.1875 202.8281 L218.0312 202.7188 L217.2344 202.9219 L217.1406 203.7969 C216.7812 203.0312 216.1562 202.6562 215.3906 202.6562 C214.0469 202.6562 212.5625 203.8438 212.5625 205.9531 C212.5625 208.0938 213.7188 209.1719 215.1406 209.1719 C216.0156 209.1719 216.6875 208.8125 217.0938 207.9844 C217.2031 208.8594 217.5156 209.1719 218.0156 209.1719 C218.4688 209.1719 218.7969 208.9062 219.0156 208.5625 L218.9062 208.2812 Z"
      /><rect x="278" y="200" width="7" style="fill:white; stroke:none;" height="9"
      /><path style="stroke:none;" d="M279 205.5156 L281.9531 201.2656 L281.9531 205.5156 L279 205.5156 ZM284.2812 205.5156 L282.8594 205.5156 L282.8594 200.125 L282.2344 200.125 L278.3438 205.6406 L278.3438 206.1875 L281.9531 206.1875 L281.9531 209 L282.8594 209 L282.8594 206.1875 L284.2812 206.1875 L284.2812 205.5156 Z"
      /><rect x="265" y="198" width="6" style="fill:white; stroke:none;" height="13"
      /><path style="stroke:none;" d="M267.0938 204.2031 C267.0938 202.6562 267.75 201.8125 268.7969 201.8125 C269.7188 201.8125 270.2656 202.4531 270.2656 203.5156 C270.2656 204.7188 269.5 205.4375 268.1875 205.7031 L268.2969 206.3125 C270.2188 206.2344 270.9375 207.2188 270.9375 208.4375 C270.9375 209.625 270.2344 210.4219 268.9531 210.4219 C268.25 210.4219 267.6562 210.1562 267.0938 209.7188 L267.0938 204.2031 ZM266.2031 210.9062 L266.1094 213.375 L266.2656 213.4844 L267.1562 213.2656 L267.0156 210.0938 C267.5469 210.8438 268.3594 211.1719 269.1719 211.1719 C270.5625 211.1719 271.8594 210.2188 271.8594 208.4844 C271.8594 206.9531 270.875 206.1094 269.125 206 C270.5625 205.6094 271.1875 204.4531 271.1875 203.4844 C271.1875 202.0938 270.1562 201.3125 268.9062 201.3125 C267.2969 201.3125 266.2188 202.5469 266.2188 204.5156 L266.2031 210.9062 Z"
      /><polygon style="fill:none;" points=" 301 145 249 145"
      /><rect x="290" y="134" width="22" style="clip-path:url(#clipPath8); fill:white; stroke:none;" height="22"
      /><rect x="290" y="134" width="22" style="clip-path:url(#clipPath8); fill:rgb(0,144,188); stroke:none;" height="22"
      /><rect x="290" y="134" width="22" style="fill:none; clip-path:url(#clipPath8);" height="22"
      /><rect x="290" width="22" height="22" y="134" style="fill:none;"
      /><polygon style="fill:none;" points=" 249 145 197 145"
      /><circle style="fill:white; clip-path:url(#clipPath9); stroke:none;" r="11" cx="249" cy="145"
      /><rect x="238" y="134" width="22" style="clip-path:url(#clipPath9); fill:rgb(255,212,0); stroke:none;" height="22"
      /><rect x="238" y="134" width="22" style="fill:none; clip-path:url(#clipPath9);" height="22"
      /><circle r="11" style="fill:none;" cx="249" cy="145"
      /><polygon style="fill:white; clip-path:url(#clipPath10); stroke:none;" points=" 197 134 208 145 197 156 186 145"
      /><rect x="186" y="134" width="22" style="clip-path:url(#clipPath10); fill:rgb(143,204,233); stroke:none;" height="22"
      /><rect x="186" y="134" width="22" style="fill:none; clip-path:url(#clipPath10);" height="22"
      /><polygon style="fill:none;" points=" 197 134 208 145 197 156 186 145"
      /><rect x="222" y="146" width="16" style="fill:white; stroke:none;" height="13"
      /><path style="stroke:none;" d="M224.2344 150.6562 C224.5156 150.5938 224.7656 150.5625 225.0156 150.5625 C226.0625 150.5625 226.6719 151.1719 226.6719 152.2656 C226.6719 153.4375 225.9062 154.1094 224.7031 154.1094 L224.1875 154.1094 L224.1875 154.6406 L224.7969 154.6406 C226.2188 154.6406 226.9062 155.4219 226.9062 156.6406 C226.9062 157.8438 226.1719 158.6875 224.875 158.6875 C224.6094 158.6875 224.3125 158.6562 224.0156 158.5625 L223.7812 157.8125 C223.625 157.2812 223.5 157.0469 223.1406 157.0469 C222.8906 157.0469 222.7031 157.1719 222.5781 157.4219 C222.8438 158.6406 223.7812 159.1719 225.0312 159.1719 C226.7188 159.1719 227.875 158.125 227.875 156.7031 C227.875 155.5 227.2031 154.625 225.7969 154.375 C226.9531 154.0156 227.6094 153.2031 227.6094 152.2031 C227.6094 150.9219 226.6719 150.0781 225.1875 150.0781 C224.0469 150.0781 223.0625 150.5938 222.7969 151.6875 C222.9062 152 223.1094 152.1094 223.3594 152.1094 C223.7344 152.1094 223.8906 151.8906 224 151.4062 L224.2344 150.6562 ZM228.4993 161.0938 L229.1087 161.0938 L232.6087 149.7344 L231.9837 149.7344 L228.4993 161.0938 ZM235.9878 158.6875 C234.8472 158.6875 234.1753 157.5 234.1753 155.2969 C234.1753 155.2188 234.1753 155.125 234.1753 155.0469 C234.7378 154.5 235.3628 154.3125 235.9878 154.3125 C236.9566 154.3125 237.5972 154.9844 237.5972 156.4531 C237.5972 157.9375 236.9566 158.6875 235.9878 158.6875 ZM238.1753 150.0781 C234.9878 150.4531 233.2066 152.7656 233.2066 155.4531 C233.2066 157.7812 234.2534 159.1719 235.9566 159.1719 C237.4878 159.1719 238.5659 158.1094 238.5659 156.2812 C238.5659 154.6875 237.6128 153.6562 236.2066 153.6562 C235.4722 153.6562 234.7847 153.9844 234.2222 154.5781 C234.4409 152.4062 235.7222 150.9688 238.2378 150.3906 L238.1753 150.0781 Z"
      /><rect x="212" y="149" width="8" style="fill:white; stroke:none;" height="8"
      /><path style="stroke:none;" d="M216.9844 154.7031 C216.9375 155.8906 216.1562 156.6562 215.3125 156.6562 C214.2656 156.6562 213.5 155.6875 213.5 153.7188 C213.5 152.2812 214.1562 151.1562 215.3438 151.1562 C216.1406 151.1562 216.7812 151.6875 217.0938 152.6406 L216.9844 154.7031 ZM218.9062 156.2812 C218.7344 156.375 218.5469 156.4219 218.3438 156.4219 C217.9531 156.4219 217.75 156.2188 217.75 155.4219 C217.75 154.4844 217.9688 152.5312 218.1875 150.8281 L218.0312 150.7188 L217.2344 150.9219 L217.1406 151.7969 C216.7812 151.0312 216.1562 150.6562 215.3906 150.6562 C214.0469 150.6562 212.5625 151.8438 212.5625 153.9531 C212.5625 156.0938 213.7188 157.1719 215.1406 157.1719 C216.0156 157.1719 216.6875 156.8125 217.0938 155.9844 C217.2031 156.8594 217.5156 157.1719 218.0156 157.1719 C218.4688 157.1719 218.7969 156.9062 219.0156 156.5625 L218.9062 156.2812 Z"
      /><rect x="278" y="148" width="7" style="fill:white; stroke:none;" height="9"
      /><path style="stroke:none;" d="M279 153.5156 L281.9531 149.2656 L281.9531 153.5156 L279 153.5156 ZM284.2812 153.5156 L282.8594 153.5156 L282.8594 148.125 L282.2344 148.125 L278.3438 153.6406 L278.3438 154.1875 L281.9531 154.1875 L281.9531 157 L282.8594 157 L282.8594 154.1875 L284.2812 154.1875 L284.2812 153.5156 Z"
      /><rect x="265" y="146" width="6" style="fill:white; stroke:none;" height="13"
      /><path style="stroke:none;" d="M267.0938 152.2031 C267.0938 150.6562 267.75 149.8125 268.7969 149.8125 C269.7188 149.8125 270.2656 150.4531 270.2656 151.5156 C270.2656 152.7188 269.5 153.4375 268.1875 153.7031 L268.2969 154.3125 C270.2188 154.2344 270.9375 155.2188 270.9375 156.4375 C270.9375 157.625 270.2344 158.4219 268.9531 158.4219 C268.25 158.4219 267.6562 158.1562 267.0938 157.7188 L267.0938 152.2031 ZM266.2031 158.9062 L266.1094 161.375 L266.2656 161.4844 L267.1562 161.2656 L267.0156 158.0938 C267.5469 158.8438 268.3594 159.1719 269.1719 159.1719 C270.5625 159.1719 271.8594 158.2188 271.8594 156.4844 C271.8594 154.9531 270.875 154.1094 269.125 154 C270.5625 153.6094 271.1875 152.4531 271.1875 151.4844 C271.1875 150.0938 270.1562 149.3125 268.9062 149.3125 C267.2969 149.3125 266.2188 150.5469 266.2188 152.5156 L266.2031 158.9062 Z"
      /><rect x="335" y="182" width="6" style="fill:white; stroke:none;" height="9"
      /><path style="stroke:none;" d="M336.4219 190.0938 C337.0781 189.375 337.7031 188.7188 338.0312 188.3438 C339.9219 186.3125 340.5312 185.4688 340.5312 184.3594 C340.5312 183.0156 339.7812 182.0781 338.1562 182.0781 C336.9062 182.0781 335.7969 182.7031 335.5938 183.9688 C335.7188 184.2031 335.9062 184.3438 336.1562 184.3438 C336.4688 184.3438 336.6562 184.1094 336.7969 183.5938 L337.0938 182.6719 C337.3906 182.5938 337.6562 182.5625 337.8906 182.5625 C338.9219 182.5625 339.5469 183.3125 339.5469 184.4219 C339.5469 185.4375 338.9844 186.4219 337.7031 187.9062 C337.125 188.5781 336.3906 189.4375 335.6406 190.2812 L335.6406 191 L340.9219 191 L340.9219 190.0938 L336.4219 190.0938 Z"
      /><rect x="319" y="188" width="6" style="fill:white; stroke:none;" height="13"
      /><path style="stroke:none;" d="M321.0938 194.2031 C321.0938 192.6562 321.75 191.8125 322.7969 191.8125 C323.7188 191.8125 324.2656 192.4531 324.2656 193.5156 C324.2656 194.7188 323.5 195.4375 322.1875 195.7031 L322.2969 196.3125 C324.2188 196.2344 324.9375 197.2188 324.9375 198.4375 C324.9375 199.625 324.2344 200.4219 322.9531 200.4219 C322.25 200.4219 321.6562 200.1562 321.0938 199.7188 L321.0938 194.2031 ZM320.2031 200.9062 L320.1094 203.375 L320.2656 203.4844 L321.1562 203.2656 L321.0156 200.0938 C321.5469 200.8438 322.3594 201.1719 323.1719 201.1719 C324.5625 201.1719 325.8594 200.2188 325.8594 198.4844 C325.8594 196.9531 324.875 196.1094 323.125 196 C324.5625 195.6094 325.1875 194.4531 325.1875 193.4844 C325.1875 192.0938 324.1562 191.3125 322.9062 191.3125 C321.2969 191.3125 320.2188 192.5469 320.2188 194.5156 L320.2031 200.9062 Z"
      /><rect x="327" y="164" width="7" style="fill:white; stroke:none;" height="9"
      /><path style="stroke:none;" d="M328 169.5156 L330.9531 165.2656 L330.9531 169.5156 L328 169.5156 ZM333.2812 169.5156 L331.8594 169.5156 L331.8594 164.125 L331.2344 164.125 L327.3438 169.6406 L327.3438 170.1875 L330.9531 170.1875 L330.9531 173 L331.8594 173 L331.8594 170.1875 L333.2812 170.1875 L333.2812 169.5156 Z"
      /><rect x="312" y="154" width="6" style="fill:white; stroke:none;" height="13"
      /><path style="stroke:none;" d="M314.0938 160.2031 C314.0938 158.6562 314.75 157.8125 315.7969 157.8125 C316.7188 157.8125 317.2656 158.4531 317.2656 159.5156 C317.2656 160.7188 316.5 161.4375 315.1875 161.7031 L315.2969 162.3125 C317.2188 162.2344 317.9375 163.2188 317.9375 164.4375 C317.9375 165.625 317.2344 166.4219 315.9531 166.4219 C315.25 166.4219 314.6562 166.1562 314.0938 165.7188 L314.0938 160.2031 ZM313.2031 166.9062 L313.1094 169.375 L313.2656 169.4844 L314.1562 169.2656 L314.0156 166.0938 C314.5469 166.8438 315.3594 167.1719 316.1719 167.1719 C317.5625 167.1719 318.8594 166.2188 318.8594 164.4844 C318.8594 162.9531 317.875 162.1094 316.125 162 C317.5625 161.6094 318.1875 160.4531 318.1875 159.4844 C318.1875 158.0938 317.1562 157.3125 315.9062 157.3125 C314.2969 157.3125 313.2188 158.5469 313.2188 160.5156 L313.2031 166.9062 Z"
      /><rect x="342" y="108" width="22" style="clip-path:url(#clipPath11); fill:white; stroke:none;" height="22"
      /><rect x="342" y="108" width="22" style="clip-path:url(#clipPath11); fill:rgb(0,144,188); stroke:none;" height="22"
      /><rect x="342" y="108" width="22" style="fill:none; clip-path:url(#clipPath11);" height="22"
      /><rect x="342" width="22" height="22" y="108" style="fill:none;"
      /><polygon style="fill:none;" points=" 353 67 301 93"
      /><polygon style="fill:none;" points=" 353 67 301 41"
      /><circle style="fill:white; clip-path:url(#clipPath12); stroke:none;" r="11" cx="353" cy="67"
      /><rect x="342" y="56" width="22" style="clip-path:url(#clipPath12); fill:rgb(0,166,81); stroke:none;" height="22"
      /><rect x="342" y="56" width="22" style="fill:none; clip-path:url(#clipPath12);" height="22"
      /><circle r="11" style="fill:none;" cx="353" cy="67"
      /><polygon style="fill:none;" points=" 301 93 249 93"
      /><rect x="290" y="82" width="22" style="clip-path:url(#clipPath13); fill:white; stroke:none;" height="22"
      /><rect x="290" y="82" width="22" style="clip-path:url(#clipPath13); fill:rgb(0,144,188); stroke:none;" height="22"
      /><rect x="290" y="82" width="22" style="fill:none; clip-path:url(#clipPath13);" height="22"
      /><rect x="290" width="22" height="22" y="82" style="fill:none;"
      /><polygon style="fill:none;" points=" 249 93 197 93"
      /><circle style="fill:white; clip-path:url(#clipPath14); stroke:none;" r="11" cx="249" cy="93"
      /><rect x="238" y="82" width="22" style="clip-path:url(#clipPath14); fill:rgb(255,212,0); stroke:none;" height="22"
      /><rect x="238" y="82" width="22" style="fill:none; clip-path:url(#clipPath14);" height="22"
      /><circle r="11" style="fill:none;" cx="249" cy="93"
      /><polygon style="fill:none;" points=" 197 93 145 93"
      /><rect x="186" y="82" width="22" style="clip-path:url(#clipPath15); fill:white; stroke:none;" height="22"
      /><rect x="186" y="82" width="22" style="clip-path:url(#clipPath15); fill:rgb(0,144,188); stroke:none;" height="22"
      /><rect x="186" y="82" width="22" style="fill:none; clip-path:url(#clipPath15);" height="22"
      /><rect x="186" width="22" height="22" y="82" style="fill:none;"
      /><polygon style="fill:none;" points=" 145 93 93 93"
      /><circle style="fill:white; clip-path:url(#clipPath16); stroke:none;" r="11" cx="145" cy="93"
      /><rect x="134" y="82" width="22" style="clip-path:url(#clipPath16); fill:rgb(255,212,0); stroke:none;" height="22"
      /><rect x="134" y="82" width="22" style="fill:none; clip-path:url(#clipPath16);" height="22"
      /><circle r="11" style="fill:none;" cx="145" cy="93"
      /><polygon style="fill:none;" points=" 93 93 41 93"
      /><polygon style="fill:white; clip-path:url(#clipPath17); stroke:none;" points=" 93 82 104 93 93 104 82 93"
      /><rect x="82" y="82" width="22" style="clip-path:url(#clipPath17); fill:rgb(143,204,233); stroke:none;" height="22"
      /><rect x="82" y="82" width="22" style="fill:none; clip-path:url(#clipPath17);" height="22"
      /><polygon style="fill:none;" points=" 93 82 104 93 93 104 82 93"
      /><polygon style="fill:white; clip-path:url(#clipPath18); stroke:none;" points=" 41 82 52 93 41 104 30 93"
      /><rect x="30" y="82" width="22" style="clip-path:url(#clipPath18); fill:rgb(143,204,233); stroke:none;" height="22"
      /><rect x="30" y="82" width="22" style="fill:none; clip-path:url(#clipPath18);" height="22"
      /><polygon style="fill:none;" points=" 41 82 52 93 41 104 30 93"
      /><rect x="71" y="96" width="6" style="fill:white; stroke:none;" height="10"
      /><path style="stroke:none;" d="M74.2656 105.7031 C73.2031 105.7031 72.5 104.9688 72.5 103.9062 C72.5 102.9688 72.9375 102.4219 73.9062 101.8438 C75.4688 102.5625 75.9531 103.1719 75.9531 104.0156 C75.9531 105 75.2969 105.7031 74.2656 105.7031 ZM72.75 99.0469 C72.75 98.1094 73.4531 97.5625 74.2344 97.5625 C75.1562 97.5625 75.6562 98.2656 75.6562 99.0938 C75.6562 99.9688 75.3281 100.5469 74.4688 101.1562 C73.0938 100.5156 72.75 99.7969 72.75 99.0469 ZM74.8594 101.3438 C76.0938 100.6562 76.4531 99.8125 76.4531 99.0938 C76.4531 97.9219 75.6094 97.0781 74.2656 97.0781 C72.9375 97.0781 71.8906 97.9062 71.8906 99.2031 C71.8906 100.2031 72.375 101.0469 73.5156 101.6562 C72.2656 102.2812 71.5938 103 71.5938 104.0156 C71.5938 105.3906 72.6562 106.1719 74.2344 106.1719 C75.75 106.1719 76.875 105.25 76.875 103.8906 C76.875 102.7344 76.2656 102 74.8594 101.3438 Z"
      /><rect x="56" y="97" width="8" style="fill:white; stroke:none;" height="8"
      /><path style="stroke:none;" d="M60.9844 102.7031 C60.9375 103.8906 60.1562 104.6562 59.3125 104.6562 C58.2656 104.6562 57.5 103.6875 57.5 101.7188 C57.5 100.2812 58.1562 99.1562 59.3438 99.1562 C60.1406 99.1562 60.7812 99.6875 61.0938 100.6406 L60.9844 102.7031 ZM62.9062 104.2812 C62.7344 104.375 62.5469 104.4219 62.3438 104.4219 C61.9531 104.4219 61.75 104.2188 61.75 103.4219 C61.75 102.4844 61.9688 100.5312 62.1875 98.8281 L62.0312 98.7188 L61.2344 98.9219 L61.1406 99.7969 C60.7812 99.0312 60.1562 98.6562 59.3906 98.6562 C58.0469 98.6562 56.5625 99.8438 56.5625 101.9531 C56.5625 104.0938 57.7188 105.1719 59.1406 105.1719 C60.0156 105.1719 60.6875 104.8125 61.0938 103.9844 C61.2031 104.8594 61.5156 105.1719 62.0156 105.1719 C62.4688 105.1719 62.7969 104.9062 63.0156 104.5625 L62.9062 104.2812 Z"
      /><rect x="118" y="94" width="16" style="fill:white; stroke:none;" height="13"
      /><path style="stroke:none;" d="M120.2344 98.6562 C120.5156 98.5938 120.7656 98.5625 121.0156 98.5625 C122.0625 98.5625 122.6719 99.1719 122.6719 100.2656 C122.6719 101.4375 121.9062 102.1094 120.7031 102.1094 L120.1875 102.1094 L120.1875 102.6406 L120.7969 102.6406 C122.2188 102.6406 122.9062 103.4219 122.9062 104.6406 C122.9062 105.8438 122.1719 106.6875 120.875 106.6875 C120.6094 106.6875 120.3125 106.6562 120.0156 106.5625 L119.7812 105.8125 C119.625 105.2812 119.5 105.0469 119.1406 105.0469 C118.8906 105.0469 118.7031 105.1719 118.5781 105.4219 C118.8438 106.6406 119.7812 107.1719 121.0312 107.1719 C122.7188 107.1719 123.875 106.125 123.875 104.7031 C123.875 103.5 123.2031 102.625 121.7969 102.375 C122.9531 102.0156 123.6094 101.2031 123.6094 100.2031 C123.6094 98.9219 122.6719 98.0781 121.1875 98.0781 C120.0469 98.0781 119.0625 98.5938 118.7969 99.6875 C118.9062 100 119.1094 100.1094 119.3594 100.1094 C119.7344 100.1094 119.8906 99.8906 120 99.4062 L120.2344 98.6562 ZM124.4993 109.0938 L125.1087 109.0938 L128.6087 97.7344 L127.9837 97.7344 L124.4993 109.0938 ZM131.9878 106.6875 C130.8472 106.6875 130.1753 105.5 130.1753 103.2969 C130.1753 103.2188 130.1753 103.125 130.1753 103.0469 C130.7378 102.5 131.3628 102.3125 131.9878 102.3125 C132.9566 102.3125 133.5972 102.9844 133.5972 104.4531 C133.5972 105.9375 132.9566 106.6875 131.9878 106.6875 ZM134.1753 98.0781 C130.9878 98.4531 129.2066 100.7656 129.2066 103.4531 C129.2066 105.7812 130.2534 107.1719 131.9566 107.1719 C133.4878 107.1719 134.5659 106.1094 134.5659 104.2812 C134.5659 102.6875 133.6128 101.6562 132.2066 101.6562 C131.4722 101.6562 130.7847 101.9844 130.2222 102.5781 C130.4409 100.4062 131.7222 98.9688 134.2378 98.3906 L134.1753 98.0781 Z"
      /><rect x="108" y="97" width="8" style="fill:white; stroke:none;" height="8"
      /><path style="stroke:none;" d="M112.9844 102.7031 C112.9375 103.8906 112.1562 104.6562 111.3125 104.6562 C110.2656 104.6562 109.5 103.6875 109.5 101.7188 C109.5 100.2812 110.1562 99.1562 111.3438 99.1562 C112.1406 99.1562 112.7812 99.6875 113.0938 100.6406 L112.9844 102.7031 ZM114.9062 104.2812 C114.7344 104.375 114.5469 104.4219 114.3438 104.4219 C113.9531 104.4219 113.75 104.2188 113.75 103.4219 C113.75 102.4844 113.9688 100.5312 114.1875 98.8281 L114.0312 98.7188 L113.2344 98.9219 L113.1406 99.7969 C112.7812 99.0312 112.1562 98.6562 111.3906 98.6562 C110.0469 98.6562 108.5625 99.8438 108.5625 101.9531 C108.5625 104.0938 109.7188 105.1719 111.1406 105.1719 C112.0156 105.1719 112.6875 104.8125 113.0938 103.9844 C113.2031 104.8594 113.5156 105.1719 114.0156 105.1719 C114.4688 105.1719 114.7969 104.9062 115.0156 104.5625 L114.9062 104.2812 Z"
      /><rect x="174" y="96" width="7" style="fill:white; stroke:none;" height="9"
      /><path style="stroke:none;" d="M175 101.5156 L177.9531 97.2656 L177.9531 101.5156 L175 101.5156 ZM180.2812 101.5156 L178.8594 101.5156 L178.8594 96.125 L178.2344 96.125 L174.3438 101.6406 L174.3438 102.1875 L177.9531 102.1875 L177.9531 105 L178.8594 105 L178.8594 102.1875 L180.2812 102.1875 L180.2812 101.5156 Z"
      /><rect x="161" y="94" width="6" style="fill:white; stroke:none;" height="13"
      /><path style="stroke:none;" d="M163.0938 100.2031 C163.0938 98.6562 163.75 97.8125 164.7969 97.8125 C165.7188 97.8125 166.2656 98.4531 166.2656 99.5156 C166.2656 100.7188 165.5 101.4375 164.1875 101.7031 L164.2969 102.3125 C166.2188 102.2344 166.9375 103.2188 166.9375 104.4375 C166.9375 105.625 166.2344 106.4219 164.9531 106.4219 C164.25 106.4219 163.6562 106.1562 163.0938 105.7188 L163.0938 100.2031 ZM162.2031 106.9062 L162.1094 109.375 L162.2656 109.4844 L163.1562 109.2656 L163.0156 106.0938 C163.5469 106.8438 164.3594 107.1719 165.1719 107.1719 C166.5625 107.1719 167.8594 106.2188 167.8594 104.4844 C167.8594 102.9531 166.875 102.1094 165.125 102 C166.5625 101.6094 167.1875 100.4531 167.1875 99.4844 C167.1875 98.0938 166.1562 97.3125 164.9062 97.3125 C163.2969 97.3125 162.2188 98.5469 162.2188 100.5156 L162.2031 106.9062 Z"
      /><rect x="227" y="96" width="6" style="fill:white; stroke:none;" height="10"
      /><path style="stroke:none;" d="M229.2344 97.6562 C229.5156 97.5938 229.7656 97.5625 230.0156 97.5625 C231.0625 97.5625 231.6719 98.1719 231.6719 99.2656 C231.6719 100.4375 230.9062 101.1094 229.7031 101.1094 L229.1875 101.1094 L229.1875 101.6406 L229.7969 101.6406 C231.2188 101.6406 231.9062 102.4219 231.9062 103.6406 C231.9062 104.8438 231.1719 105.6875 229.875 105.6875 C229.6094 105.6875 229.3125 105.6562 229.0156 105.5625 L228.7812 104.8125 C228.625 104.2812 228.5 104.0469 228.1406 104.0469 C227.8906 104.0469 227.7031 104.1719 227.5781 104.4219 C227.8438 105.6406 228.7812 106.1719 230.0312 106.1719 C231.7188 106.1719 232.875 105.125 232.875 103.7031 C232.875 102.5 232.2031 101.625 230.7969 101.375 C231.9531 101.0156 232.6094 100.2031 232.6094 99.2031 C232.6094 97.9219 231.6719 97.0781 230.1875 97.0781 C229.0469 97.0781 228.0625 97.5938 227.7969 98.6875 C227.9062 99 228.1094 99.1094 228.3594 99.1094 C228.7344 99.1094 228.8906 98.8906 229 98.4062 L229.2344 97.6562 Z"
      /><rect x="213" y="94" width="6" style="fill:white; stroke:none;" height="13"
      /><path style="stroke:none;" d="M215.0938 100.2031 C215.0938 98.6562 215.75 97.8125 216.7969 97.8125 C217.7188 97.8125 218.2656 98.4531 218.2656 99.5156 C218.2656 100.7188 217.5 101.4375 216.1875 101.7031 L216.2969 102.3125 C218.2188 102.2344 218.9375 103.2188 218.9375 104.4375 C218.9375 105.625 218.2344 106.4219 216.9531 106.4219 C216.25 106.4219 215.6562 106.1562 215.0938 105.7188 L215.0938 100.2031 ZM214.2031 106.9062 L214.1094 109.375 L214.2656 109.4844 L215.1562 109.2656 L215.0156 106.0938 C215.5469 106.8438 216.3594 107.1719 217.1719 107.1719 C218.5625 107.1719 219.8594 106.2188 219.8594 104.4844 C219.8594 102.9531 218.875 102.1094 217.125 102 C218.5625 101.6094 219.1875 100.4531 219.1875 99.4844 C219.1875 98.0938 218.1562 97.3125 216.9062 97.3125 C215.2969 97.3125 214.2188 98.5469 214.2188 100.5156 L214.2031 106.9062 Z"
      /><rect x="278" y="96" width="7" style="fill:white; stroke:none;" height="9"
      /><path style="stroke:none;" d="M279 101.5156 L281.9531 97.2656 L281.9531 101.5156 L279 101.5156 ZM284.2812 101.5156 L282.8594 101.5156 L282.8594 96.125 L282.2344 96.125 L278.3438 101.6406 L278.3438 102.1875 L281.9531 102.1875 L281.9531 105 L282.8594 105 L282.8594 102.1875 L284.2812 102.1875 L284.2812 101.5156 Z"
      /><rect x="265" y="94" width="6" style="fill:white; stroke:none;" height="13"
      /><path style="stroke:none;" d="M267.0938 100.2031 C267.0938 98.6562 267.75 97.8125 268.7969 97.8125 C269.7188 97.8125 270.2656 98.4531 270.2656 99.5156 C270.2656 100.7188 269.5 101.4375 268.1875 101.7031 L268.2969 102.3125 C270.2188 102.2344 270.9375 103.2188 270.9375 104.4375 C270.9375 105.625 270.2344 106.4219 268.9531 106.4219 C268.25 106.4219 267.6562 106.1562 267.0938 105.7188 L267.0938 100.2031 ZM266.2031 106.9062 L266.1094 109.375 L266.2656 109.4844 L267.1562 109.2656 L267.0156 106.0938 C267.5469 106.8438 268.3594 107.1719 269.1719 107.1719 C270.5625 107.1719 271.8594 106.2188 271.8594 104.4844 C271.8594 102.9531 270.875 102.1094 269.125 102 C270.5625 101.6094 271.1875 100.4531 271.1875 99.4844 C271.1875 98.0938 270.1562 97.3125 268.9062 97.3125 C267.2969 97.3125 266.2188 98.5469 266.2188 100.5156 L266.2031 106.9062 Z"
      /><polygon style="fill:none;" points=" 301 41 249 41"
      /><rect x="290" y="30" width="22" style="clip-path:url(#clipPath19); fill:white; stroke:none;" height="22"
      /><rect x="290" y="30" width="22" style="clip-path:url(#clipPath19); fill:rgb(0,144,188); stroke:none;" height="22"
      /><rect x="290" y="30" width="22" style="fill:none; clip-path:url(#clipPath19);" height="22"
      /><rect x="290" width="22" height="22" y="30" style="fill:none;"
      /><polygon style="fill:none;" points=" 249 41 197 41"
      /><circle style="fill:white; clip-path:url(#clipPath20); stroke:none;" r="11" cx="249" cy="41"
      /><rect x="238" y="30" width="22" style="clip-path:url(#clipPath20); fill:rgb(255,212,0); stroke:none;" height="22"
      /><rect x="238" y="30" width="22" style="fill:none; clip-path:url(#clipPath20);" height="22"
      /><circle r="11" style="fill:none;" cx="249" cy="41"
      /><polygon style="fill:white; clip-path:url(#clipPath21); stroke:none;" points=" 197 30 208 41 197 52 186 41"
      /><rect x="186" y="30" width="22" style="clip-path:url(#clipPath21); fill:rgb(143,204,233); stroke:none;" height="22"
      /><rect x="186" y="30" width="22" style="fill:none; clip-path:url(#clipPath21);" height="22"
      /><polygon style="fill:none;" points=" 197 30 208 41 197 52 186 41"
      /><rect x="222" y="42" width="16" style="fill:white; stroke:none;" height="13"
      /><path style="stroke:none;" d="M224.2344 46.6562 C224.5156 46.5938 224.7656 46.5625 225.0156 46.5625 C226.0625 46.5625 226.6719 47.1719 226.6719 48.2656 C226.6719 49.4375 225.9062 50.1094 224.7031 50.1094 L224.1875 50.1094 L224.1875 50.6406 L224.7969 50.6406 C226.2188 50.6406 226.9062 51.4219 226.9062 52.6406 C226.9062 53.8438 226.1719 54.6875 224.875 54.6875 C224.6094 54.6875 224.3125 54.6562 224.0156 54.5625 L223.7812 53.8125 C223.625 53.2812 223.5 53.0469 223.1406 53.0469 C222.8906 53.0469 222.7031 53.1719 222.5781 53.4219 C222.8438 54.6406 223.7812 55.1719 225.0312 55.1719 C226.7188 55.1719 227.875 54.125 227.875 52.7031 C227.875 51.5 227.2031 50.625 225.7969 50.375 C226.9531 50.0156 227.6094 49.2031 227.6094 48.2031 C227.6094 46.9219 226.6719 46.0781 225.1875 46.0781 C224.0469 46.0781 223.0625 46.5938 222.7969 47.6875 C222.9062 48 223.1094 48.1094 223.3594 48.1094 C223.7344 48.1094 223.8906 47.8906 224 47.4062 L224.2344 46.6562 ZM228.4993 57.0938 L229.1087 57.0938 L232.6087 45.7344 L231.9837 45.7344 L228.4993 57.0938 ZM235.9878 54.6875 C234.8472 54.6875 234.1753 53.5 234.1753 51.2969 C234.1753 51.2188 234.1753 51.125 234.1753 51.0469 C234.7378 50.5 235.3628 50.3125 235.9878 50.3125 C236.9566 50.3125 237.5972 50.9844 237.5972 52.4531 C237.5972 53.9375 236.9566 54.6875 235.9878 54.6875 ZM238.1753 46.0781 C234.9878 46.4531 233.2066 48.7656 233.2066 51.4531 C233.2066 53.7812 234.2534 55.1719 235.9566 55.1719 C237.4878 55.1719 238.5659 54.1094 238.5659 52.2812 C238.5659 50.6875 237.6128 49.6562 236.2066 49.6562 C235.4722 49.6562 234.7847 49.9844 234.2222 50.5781 C234.4409 48.4062 235.7222 46.9688 238.2378 46.3906 L238.1753 46.0781 Z"
      /><rect x="212" y="45" width="8" style="fill:white; stroke:none;" height="8"
      /><path style="stroke:none;" d="M216.9844 50.7031 C216.9375 51.8906 216.1562 52.6562 215.3125 52.6562 C214.2656 52.6562 213.5 51.6875 213.5 49.7188 C213.5 48.2812 214.1562 47.1562 215.3438 47.1562 C216.1406 47.1562 216.7812 47.6875 217.0938 48.6406 L216.9844 50.7031 ZM218.9062 52.2812 C218.7344 52.375 218.5469 52.4219 218.3438 52.4219 C217.9531 52.4219 217.75 52.2188 217.75 51.4219 C217.75 50.4844 217.9688 48.5312 218.1875 46.8281 L218.0312 46.7188 L217.2344 46.9219 L217.1406 47.7969 C216.7812 47.0312 216.1562 46.6562 215.3906 46.6562 C214.0469 46.6562 212.5625 47.8438 212.5625 49.9531 C212.5625 52.0938 213.7188 53.1719 215.1406 53.1719 C216.0156 53.1719 216.6875 52.8125 217.0938 51.9844 C217.2031 52.8594 217.5156 53.1719 218.0156 53.1719 C218.4688 53.1719 218.7969 52.9062 219.0156 52.5625 L218.9062 52.2812 Z"
      /><rect x="278" y="44" width="7" style="fill:white; stroke:none;" height="9"
      /><path style="stroke:none;" d="M279 49.5156 L281.9531 45.2656 L281.9531 49.5156 L279 49.5156 ZM284.2812 49.5156 L282.8594 49.5156 L282.8594 44.125 L282.2344 44.125 L278.3438 49.6406 L278.3438 50.1875 L281.9531 50.1875 L281.9531 53 L282.8594 53 L282.8594 50.1875 L284.2812 50.1875 L284.2812 49.5156 Z"
      /><rect x="265" y="42" width="6" style="fill:white; stroke:none;" height="13"
      /><path style="stroke:none;" d="M267.0938 48.2031 C267.0938 46.6562 267.75 45.8125 268.7969 45.8125 C269.7188 45.8125 270.2656 46.4531 270.2656 47.5156 C270.2656 48.7188 269.5 49.4375 268.1875 49.7031 L268.2969 50.3125 C270.2188 50.2344 270.9375 51.2188 270.9375 52.4375 C270.9375 53.625 270.2344 54.4219 268.9531 54.4219 C268.25 54.4219 267.6562 54.1562 267.0938 53.7188 L267.0938 48.2031 ZM266.2031 54.9062 L266.1094 57.375 L266.2656 57.4844 L267.1562 57.2656 L267.0156 54.0938 C267.5469 54.8438 268.3594 55.1719 269.1719 55.1719 C270.5625 55.1719 271.8594 54.2188 271.8594 52.4844 C271.8594 50.9531 270.875 50.1094 269.125 50 C270.5625 49.6094 271.1875 48.4531 271.1875 47.4844 C271.1875 46.0938 270.1562 45.3125 268.9062 45.3125 C267.2969 45.3125 266.2188 46.5469 266.2188 48.5156 L266.2031 54.9062 Z"
      /><rect x="335" y="78" width="6" style="fill:white; stroke:none;" height="9"
      /><path style="stroke:none;" d="M336.4219 86.0938 C337.0781 85.375 337.7031 84.7188 338.0312 84.3438 C339.9219 82.3125 340.5312 81.4688 340.5312 80.3594 C340.5312 79.0156 339.7812 78.0781 338.1562 78.0781 C336.9062 78.0781 335.7969 78.7031 335.5938 79.9688 C335.7188 80.2031 335.9062 80.3438 336.1562 80.3438 C336.4688 80.3438 336.6562 80.1094 336.7969 79.5938 L337.0938 78.6719 C337.3906 78.5938 337.6562 78.5625 337.8906 78.5625 C338.9219 78.5625 339.5469 79.3125 339.5469 80.4219 C339.5469 81.4375 338.9844 82.4219 337.7031 83.9062 C337.125 84.5781 336.3906 85.4375 335.6406 86.2812 L335.6406 87 L340.9219 87 L340.9219 86.0938 L336.4219 86.0938 Z"
      /><rect x="319" y="84" width="6" style="fill:white; stroke:none;" height="13"
      /><path style="stroke:none;" d="M321.0938 90.2031 C321.0938 88.6562 321.75 87.8125 322.7969 87.8125 C323.7188 87.8125 324.2656 88.4531 324.2656 89.5156 C324.2656 90.7188 323.5 91.4375 322.1875 91.7031 L322.2969 92.3125 C324.2188 92.2344 324.9375 93.2188 324.9375 94.4375 C324.9375 95.625 324.2344 96.4219 322.9531 96.4219 C322.25 96.4219 321.6562 96.1562 321.0938 95.7188 L321.0938 90.2031 ZM320.2031 96.9062 L320.1094 99.375 L320.2656 99.4844 L321.1562 99.2656 L321.0156 96.0938 C321.5469 96.8438 322.3594 97.1719 323.1719 97.1719 C324.5625 97.1719 325.8594 96.2188 325.8594 94.4844 C325.8594 92.9531 324.875 92.1094 323.125 92 C324.5625 91.6094 325.1875 90.4531 325.1875 89.4844 C325.1875 88.0938 324.1562 87.3125 322.9062 87.3125 C321.2969 87.3125 320.2188 88.5469 320.2188 90.5156 L320.2031 96.9062 Z"
      /><rect x="328" y="60" width="6" style="fill:white; stroke:none;" height="10"
      /><path style="stroke:none;" d="M331.3438 69.6875 C330.2031 69.6875 329.5312 68.5 329.5312 66.2969 C329.5312 66.2188 329.5312 66.125 329.5312 66.0469 C330.0938 65.5 330.7188 65.3125 331.3438 65.3125 C332.3125 65.3125 332.9531 65.9844 332.9531 67.4531 C332.9531 68.9375 332.3125 69.6875 331.3438 69.6875 ZM333.5312 61.0781 C330.3438 61.4531 328.5625 63.7656 328.5625 66.4531 C328.5625 68.7812 329.6094 70.1719 331.3125 70.1719 C332.8438 70.1719 333.9219 69.1094 333.9219 67.2812 C333.9219 65.6875 332.9688 64.6562 331.5625 64.6562 C330.8281 64.6562 330.1406 64.9844 329.5781 65.5781 C329.7969 63.4062 331.0781 61.9688 333.5938 61.3906 L333.5312 61.0781 Z"
      /><rect x="312" y="50" width="6" style="fill:white; stroke:none;" height="13"
      /><path style="stroke:none;" d="M314.0938 56.2031 C314.0938 54.6562 314.75 53.8125 315.7969 53.8125 C316.7188 53.8125 317.2656 54.4531 317.2656 55.5156 C317.2656 56.7188 316.5 57.4375 315.1875 57.7031 L315.2969 58.3125 C317.2188 58.2344 317.9375 59.2188 317.9375 60.4375 C317.9375 61.625 317.2344 62.4219 315.9531 62.4219 C315.25 62.4219 314.6562 62.1562 314.0938 61.7188 L314.0938 56.2031 ZM313.2031 62.9062 L313.1094 65.375 L313.2656 65.4844 L314.1562 65.2656 L314.0156 62.0938 C314.5469 62.8438 315.3594 63.1719 316.1719 63.1719 C317.5625 63.1719 318.8594 62.2188 318.8594 60.4844 C318.8594 58.9531 317.875 58.1094 316.125 58 C317.5625 57.6094 318.1875 56.4531 318.1875 55.4844 C318.1875 54.0938 317.1562 53.3125 315.9062 53.3125 C314.2969 53.3125 313.2188 54.5469 313.2188 56.5156 L313.2031 62.9062 Z"
      /><rect x="391" y="136" width="6" style="fill:white; stroke:none;" height="10"
      /><path style="stroke:none;" d="M393.2344 137.6562 C393.5156 137.5938 393.7656 137.5625 394.0156 137.5625 C395.0625 137.5625 395.6719 138.1719 395.6719 139.2656 C395.6719 140.4375 394.9062 141.1094 393.7031 141.1094 L393.1875 141.1094 L393.1875 141.6406 L393.7969 141.6406 C395.2188 141.6406 395.9062 142.4219 395.9062 143.6406 C395.9062 144.8438 395.1719 145.6875 393.875 145.6875 C393.6094 145.6875 393.3125 145.6562 393.0156 145.5625 L392.7812 144.8125 C392.625 144.2812 392.5 144.0469 392.1406 144.0469 C391.8906 144.0469 391.7031 144.1719 391.5781 144.4219 C391.8438 145.6406 392.7812 146.1719 394.0312 146.1719 C395.7188 146.1719 396.875 145.125 396.875 143.7031 C396.875 142.5 396.2031 141.625 394.7969 141.375 C395.9531 141.0156 396.6094 140.2031 396.6094 139.2031 C396.6094 137.9219 395.6719 137.0781 394.1875 137.0781 C393.0469 137.0781 392.0625 137.5938 391.7969 138.6875 C391.9062 139 392.1094 139.1094 392.3594 139.1094 C392.7344 139.1094 392.8906 138.8906 393 138.4062 L393.2344 137.6562 Z"
      /><rect x="371" y="156" width="8" style="fill:white; stroke:none;" height="8"
      /><path style="stroke:none;" d="M375.9844 161.7031 C375.9375 162.8906 375.1562 163.6562 374.3125 163.6562 C373.2656 163.6562 372.5 162.6875 372.5 160.7188 C372.5 159.2812 373.1562 158.1562 374.3438 158.1562 C375.1406 158.1562 375.7812 158.6875 376.0938 159.6406 L375.9844 161.7031 ZM377.9062 163.2812 C377.7344 163.375 377.5469 163.4219 377.3438 163.4219 C376.9531 163.4219 376.75 163.2188 376.75 162.4219 C376.75 161.4844 376.9688 159.5312 377.1875 157.8281 L377.0312 157.7188 L376.2344 157.9219 L376.1406 158.7969 C375.7812 158.0312 375.1562 157.6562 374.3906 157.6562 C373.0469 157.6562 371.5625 158.8438 371.5625 160.9531 C371.5625 163.0938 372.7188 164.1719 374.1406 164.1719 C375.0156 164.1719 375.6875 163.8125 376.0938 162.9844 C376.2031 163.8594 376.5156 164.1719 377.0156 164.1719 C377.4688 164.1719 377.7969 163.9062 378.0156 163.5625 L377.9062 163.2812 Z"
      /><rect x="382" y="122" width="7" style="fill:white; stroke:none;" height="9"
      /><path style="stroke:none;" d="M383 127.5156 L385.9531 123.2656 L385.9531 127.5156 L383 127.5156 ZM388.2812 127.5156 L386.8594 127.5156 L386.8594 122.125 L386.2344 122.125 L382.3438 127.6406 L382.3438 128.1875 L385.9531 128.1875 L385.9531 131 L386.8594 131 L386.8594 128.1875 L388.2812 128.1875 L388.2812 127.5156 Z"
      /><rect x="369" y="120" width="6" style="fill:white; stroke:none;" height="13"
      /><path style="stroke:none;" d="M371.0938 126.2031 C371.0938 124.6562 371.75 123.8125 372.7969 123.8125 C373.7188 123.8125 374.2656 124.4531 374.2656 125.5156 C374.2656 126.7188 373.5 127.4375 372.1875 127.7031 L372.2969 128.3125 C374.2188 128.2344 374.9375 129.2188 374.9375 130.4375 C374.9375 131.625 374.2344 132.4219 372.9531 132.4219 C372.25 132.4219 371.6562 132.1562 371.0938 131.7188 L371.0938 126.2031 ZM370.2031 132.9062 L370.1094 135.375 L370.2656 135.4844 L371.1562 135.2656 L371.0156 132.0938 C371.5469 132.8438 372.3594 133.1719 373.1719 133.1719 C374.5625 133.1719 375.8594 132.2188 375.8594 130.4844 C375.8594 128.9531 374.875 128.1094 373.125 128 C374.5625 127.6094 375.1875 126.4531 375.1875 125.4844 C375.1875 124.0938 374.1562 123.3125 372.9062 123.3125 C371.2969 123.3125 370.2188 124.5469 370.2188 126.5156 L370.2031 132.9062 Z"
      /><rect x="379" y="103" width="6" style="fill:white; stroke:none;" height="10"
      /><path style="stroke:none;" d="M382.3438 112.6875 C381.2031 112.6875 380.5312 111.5 380.5312 109.2969 C380.5312 109.2188 380.5312 109.125 380.5312 109.0469 C381.0938 108.5 381.7188 108.3125 382.3438 108.3125 C383.3125 108.3125 383.9531 108.9844 383.9531 110.4531 C383.9531 111.9375 383.3125 112.6875 382.3438 112.6875 ZM384.5312 104.0781 C381.3438 104.4531 379.5625 106.7656 379.5625 109.4531 C379.5625 111.7812 380.6094 113.1719 382.3125 113.1719 C383.8438 113.1719 384.9219 112.1094 384.9219 110.2812 C384.9219 108.6875 383.9688 107.6562 382.5625 107.6562 C381.8281 107.6562 381.1406 107.9844 380.5781 108.5781 C380.7969 106.4062 382.0781 104.9688 384.5938 104.3906 L384.5312 104.0781 Z"
      /><rect x="360" y="85" width="8" style="fill:white; stroke:none;" height="8"
      /><path style="stroke:none;" d="M364.9844 90.7031 C364.9375 91.8906 364.1562 92.6562 363.3125 92.6562 C362.2656 92.6562 361.5 91.6875 361.5 89.7188 C361.5 88.2812 362.1562 87.1562 363.3438 87.1562 C364.1406 87.1562 364.7812 87.6875 365.0938 88.6406 L364.9844 90.7031 ZM366.9062 92.2812 C366.7344 92.375 366.5469 92.4219 366.3438 92.4219 C365.9531 92.4219 365.75 92.2188 365.75 91.4219 C365.75 90.4844 365.9688 88.5312 366.1875 86.8281 L366.0312 86.7188 L365.2344 86.9219 L365.1406 87.7969 C364.7812 87.0312 364.1562 86.6562 363.3906 86.6562 C362.0469 86.6562 360.5625 87.8438 360.5625 89.9531 C360.5625 92.0938 361.7188 93.1719 363.1406 93.1719 C364.0156 93.1719 364.6875 92.8125 365.0938 91.9844 C365.2031 92.8594 365.5156 93.1719 366.0156 93.1719 C366.4688 93.1719 366.7969 92.9062 367.0156 92.5625 L366.9062 92.2812 Z"
      /><rect x="434" y="122" width="7" style="fill:white; stroke:none;" height="9"
      /><path style="stroke:none;" d="M435 127.5156 L437.9531 123.2656 L437.9531 127.5156 L435 127.5156 ZM440.2812 127.5156 L438.8594 127.5156 L438.8594 122.125 L438.2344 122.125 L434.3438 127.6406 L434.3438 128.1875 L437.9531 128.1875 L437.9531 131 L438.8594 131 L438.8594 128.1875 L440.2812 128.1875 L440.2812 127.5156 Z"
      /><rect x="421" y="120" width="6" style="fill:white; stroke:none;" height="13"
      /><path style="stroke:none;" d="M423.0938 126.2031 C423.0938 124.6562 423.75 123.8125 424.7969 123.8125 C425.7188 123.8125 426.2656 124.4531 426.2656 125.5156 C426.2656 126.7188 425.5 127.4375 424.1875 127.7031 L424.2969 128.3125 C426.2188 128.2344 426.9375 129.2188 426.9375 130.4375 C426.9375 131.625 426.2344 132.4219 424.9531 132.4219 C424.25 132.4219 423.6562 132.1562 423.0938 131.7188 L423.0938 126.2031 ZM422.2031 132.9062 L422.1094 135.375 L422.2656 135.4844 L423.1562 135.2656 L423.0156 132.0938 C423.5469 132.8438 424.3594 133.1719 425.1719 133.1719 C426.5625 133.1719 427.8594 132.2188 427.8594 130.4844 C427.8594 128.9531 426.875 128.1094 425.125 128 C426.5625 127.6094 427.1875 126.4531 427.1875 125.4844 C427.1875 124.0938 426.1562 123.3125 424.9062 123.3125 C423.2969 123.3125 422.2188 124.5469 422.2188 126.5156 L422.2031 132.9062 Z"
      /><polygon style="fill:white; clip-path:url(#clipPath22); stroke:none;" points=" 509 78 498 56 520 56"
      /><rect x="498" y="56" width="22" style="clip-path:url(#clipPath22); fill:rgb(237,28,36); stroke:none;" height="22"
      /><rect x="498" y="56" width="22" style="fill:none; clip-path:url(#clipPath22);" height="22"
      /><polygon style="fill:none;" points=" 509 78 498 56 520 56"
      /><rect x="486" y="122" width="7" style="fill:white; stroke:none;" height="9"
      /><path style="stroke:none;" d="M487 127.5156 L489.9531 123.2656 L489.9531 127.5156 L487 127.5156 ZM492.2812 127.5156 L490.8594 127.5156 L490.8594 122.125 L490.2344 122.125 L486.3438 127.6406 L486.3438 128.1875 L489.9531 128.1875 L489.9531 131 L490.8594 131 L490.8594 128.1875 L492.2812 128.1875 L492.2812 127.5156 Z"
      /><rect x="473" y="120" width="6" style="fill:white; stroke:none;" height="13"
      /><path style="stroke:none;" d="M475.0938 126.2031 C475.0938 124.6562 475.75 123.8125 476.7969 123.8125 C477.7188 123.8125 478.2656 124.4531 478.2656 125.5156 C478.2656 126.7188 477.5 127.4375 476.1875 127.7031 L476.2969 128.3125 C478.2188 128.2344 478.9375 129.2188 478.9375 130.4375 C478.9375 131.625 478.2344 132.4219 476.9531 132.4219 C476.25 132.4219 475.6562 132.1562 475.0938 131.7188 L475.0938 126.2031 ZM474.2031 132.9062 L474.1094 135.375 L474.2656 135.4844 L475.1562 135.2656 L475.0156 132.0938 C475.5469 132.8438 476.3594 133.1719 477.1719 133.1719 C478.5625 133.1719 479.8594 132.2188 479.8594 130.4844 C479.8594 128.9531 478.875 128.1094 477.125 128 C478.5625 127.6094 479.1875 126.4531 479.1875 125.4844 C479.1875 124.0938 478.1562 123.3125 476.9062 123.3125 C475.2969 123.3125 474.2188 124.5469 474.2188 126.5156 L474.2031 132.9062 Z"
      /><rect x="498" y="95" width="6" style="fill:white; stroke:none;" height="10"
      /><path style="stroke:none;" d="M501.3438 104.6875 C500.2031 104.6875 499.5312 103.5 499.5312 101.2969 C499.5312 101.2188 499.5312 101.125 499.5312 101.0469 C500.0938 100.5 500.7188 100.3125 501.3438 100.3125 C502.3125 100.3125 502.9531 100.9844 502.9531 102.4531 C502.9531 103.9375 502.3125 104.6875 501.3438 104.6875 ZM503.5312 96.0781 C500.3438 96.4531 498.5625 98.7656 498.5625 101.4531 C498.5625 103.7812 499.6094 105.1719 501.3125 105.1719 C502.8438 105.1719 503.9219 104.1094 503.9219 102.2812 C503.9219 100.6875 502.9688 99.6562 501.5625 99.6562 C500.8281 99.6562 500.1406 99.9844 499.5781 100.5781 C499.7969 98.4062 501.0781 96.9688 503.5938 96.3906 L503.5312 96.0781 Z"
      /><rect x="497" y="82" width="8" style="fill:white; stroke:none;" height="8"
      /><path style="stroke:none;" d="M501.9844 87.7031 C501.9375 88.8906 501.1562 89.6562 500.3125 89.6562 C499.2656 89.6562 498.5 88.6875 498.5 86.7188 C498.5 85.2812 499.1562 84.1562 500.3438 84.1562 C501.1406 84.1562 501.7812 84.6875 502.0938 85.6406 L501.9844 87.7031 ZM503.9062 89.2812 C503.7344 89.375 503.5469 89.4219 503.3438 89.4219 C502.9531 89.4219 502.75 89.2188 502.75 88.4219 C502.75 87.4844 502.9688 85.5312 503.1875 83.8281 L503.0312 83.7188 L502.2344 83.9219 L502.1406 84.7969 C501.7812 84.0312 501.1562 83.6562 500.3906 83.6562 C499.0469 83.6562 497.5625 84.8438 497.5625 86.9531 C497.5625 89.0938 498.7188 90.1719 500.1406 90.1719 C501.0156 90.1719 501.6875 89.8125 502.0938 88.9844 C502.2031 89.8594 502.5156 90.1719 503.0156 90.1719 C503.4688 90.1719 503.7969 89.9062 504.0156 89.5625 L503.9062 89.2812 Z"
      /><rect x="525" y="122" width="5" style="fill:white; stroke:none;" height="10"
      /><path style="stroke:none;" d="M526.8906 130.6875 C526.4844 130.6875 526.1562 131.0469 526.1562 131.4219 C526.1562 131.8125 526.4844 132.1562 526.8906 132.1562 C527.2969 132.1562 527.6406 131.8125 527.6406 131.4219 C527.6406 131.0469 527.2969 130.6875 526.8906 130.6875 ZM528.4688 124.5781 C528.7188 124.8906 528.875 125.2656 528.8906 125.6562 C528.8906 126.1875 528.625 126.5 528.0312 126.7656 L527.4062 127.0156 C526.6406 127.3125 526.3906 127.5469 526.3906 127.9375 C526.3906 128.1094 526.4531 128.3438 526.5781 128.8125 L526.7344 129.3438 L527.1094 129.3438 L527.0938 128.5312 C527.0938 128.0938 527.2031 127.9688 527.7812 127.7344 L528.2031 127.5625 C529.0312 127.2188 529.4531 126.6875 529.4531 125.8438 C529.4531 124.1562 527.6562 123.1875 526.5 123.0312 C526.1094 123.125 525.9062 123.2969 525.9062 123.6406 C525.9062 123.9375 526.0625 124.1562 526.7188 124.2656 L528.4688 124.5781 Z"
    /></g
  ></g
></svg
>
