<?xml version="1.0"?>
<!DOCTYPE svg PUBLIC '-//W3C//DTD SVG 1.0//EN'
          'http://www.w3.org/TR/2001/REC-SVG-20010904/DTD/svg10.dtd'>
<svg xmlns:xlink="http://www.w3.org/1999/xlink" style="fill-opacity:1; color-rendering:auto; color-interpolation:auto; text-rendering:auto; stroke:black; stroke-linecap:square; stroke-miterlimit:10; shape-rendering:auto; stroke-opacity:1; fill:black; stroke-dasharray:none; font-weight:normal; stroke-width:1; font-family:'Dialog'; font-style:normal; stroke-linejoin:miter; font-size:12px; stroke-dashoffset:0; image-rendering:auto;" viewBox="0 0 446 284" xmlns="http://www.w3.org/2000/svg"
><!--Generated by the Batik Graphics2D SVG Generator--><defs id="genericDefs"
  /><g
  ><defs id="defs1"
    ><clipPath clipPathUnits="userSpaceOnUse" id="clipPath1"
      ><path d="M342 116 L364 116 L364 138 L342 138 L342 116 Z"
      /></clipPath
      ><clipPath clipPathUnits="userSpaceOnUse" id="clipPath2"
      ><path d="M290 142 L312 142 L312 164 L290 164 L290 142 Z"
      /></clipPath
      ><clipPath clipPathUnits="userSpaceOnUse" id="clipPath3"
      ><path d="M260 153 C260 159.0751 255.0751 164 249 164 C242.9249 164 238 159.0751 238 153 C238 146.9249 242.9249 142 249 142 C255.0751 142 260 146.9249 260 153 Z"
      /></clipPath
      ><clipPath clipPathUnits="userSpaceOnUse" id="clipPath4"
      ><path d="M208 217 C208 223.0751 203.0751 228 197 228 C190.9249 228 186 223.0751 186 217 C186 210.9249 190.9249 206 197 206 C203.0751 206 208 210.9249 208 217 Z"
      /></clipPath
      ><clipPath clipPathUnits="userSpaceOnUse" id="clipPath5"
      ><path d="M134 206 L156 206 L156 228 L134 228 L134 206 Z"
      /></clipPath
      ><clipPath clipPathUnits="userSpaceOnUse" id="clipPath6"
      ><path d="M104 243 C104 249.0751 99.0751 254 93 254 C86.9249 254 82 249.0751 82 243 C82 236.9249 86.9249 232 93 232 C99.0751 232 104 236.9249 104 243 Z"
      /></clipPath
      ><clipPath clipPathUnits="userSpaceOnUse" id="clipPath7"
      ><path style="fill-rule:evenodd;" d="M41 232 L52 243 L41 254 L30 243 Z"
      /></clipPath
      ><clipPath clipPathUnits="userSpaceOnUse" id="clipPath8"
      ><path d="M104 191 C104 197.0751 99.0751 202 93 202 C86.9249 202 82 197.0751 82 191 C82 184.9249 86.9249 180 93 180 C99.0751 180 104 184.9249 104 191 Z"
      /></clipPath
      ><clipPath clipPathUnits="userSpaceOnUse" id="clipPath9"
      ><path d="M208 90 C208 96.0751 203.0751 101 197 101 C190.9249 101 186 96.0751 186 90 C186 83.9249 190.9249 79 197 79 C203.0751 79 208 83.9249 208 90 Z"
      /></clipPath
      ><clipPath clipPathUnits="userSpaceOnUse" id="clipPath10"
      ><path d="M134 79 L156 79 L156 101 L134 101 L134 79 Z"
      /></clipPath
      ><clipPath clipPathUnits="userSpaceOnUse" id="clipPath11"
      ><path d="M104 116 C104 122.0751 99.0751 127 93 127 C86.9249 127 82 122.0751 82 116 C82 109.9249 86.9249 105 93 105 C99.0751 105 104 109.9249 104 116 Z"
      /></clipPath
      ><clipPath clipPathUnits="userSpaceOnUse" id="clipPath12"
      ><path style="fill-rule:evenodd;" d="M41 105 L52 116 L41 127 L30 116 Z"
      /></clipPath
      ><clipPath clipPathUnits="userSpaceOnUse" id="clipPath13"
      ><path d="M104 64 C104 70.0751 99.0751 75 93 75 C86.9249 75 82 70.0751 82 64 C82 57.9249 86.9249 53 93 53 C99.0751 53 104 57.9249 104 64 Z"
      /></clipPath
      ><clipPath clipPathUnits="userSpaceOnUse" id="clipPath14"
      ><path d="M312 101 C312 107.0751 307.0751 112 301 112 C294.9249 112 290 107.0751 290 101 C290 94.9249 294.9249 90 301 90 C307.0751 90 312 94.9249 312 101 Z"
      /></clipPath
    ></defs
    ><g style="fill:white; text-rendering:optimizeSpeed; stroke:white;"
    ><rect x="0" width="446" height="284" y="0" style="stroke:none;"
      /><polygon style="fill:none; stroke:black;" points=" 405 127 353 127"
      /><path d="M405 116 C399.5 121.5 410.5 132.5 405 138" style="fill:none; stroke:black;"
      /><polygon style="fill:none; stroke:black;" points=" 353 127 301 153"
      /><polygon style="fill:none; stroke:black;" points=" 353 127 301 101"
      /><rect x="342" y="116" width="22" style="clip-path:url(#clipPath1); stroke:none;" height="22"
      /><rect x="342" y="116" width="22" style="clip-path:url(#clipPath1); stroke:none;" height="22"
      /><rect x="342" y="116" width="22" style="clip-path:url(#clipPath1); fill:none; stroke:black;" height="22"
      /><rect x="342" y="116" width="22" style="fill:none; stroke:black;" height="22"
      /><polygon style="fill:none; stroke:black;" points=" 301 153 249 153"
      /><rect x="290" y="142" width="22" style="clip-path:url(#clipPath2); stroke:none;" height="22"
      /><rect x="290" y="142" width="22" style="clip-path:url(#clipPath2); stroke:none;" height="22"
      /><rect x="290" y="142" width="22" style="clip-path:url(#clipPath2); fill:none; stroke:black;" height="22"
      /><rect x="290" y="142" width="22" style="fill:none; stroke:black;" height="22"
      /><polygon style="fill:none; stroke:black;" points=" 249 153 197 217"
      /><polygon style="fill:none; stroke:black;" points=" 249 153 197 90"
      /><circle style="clip-path:url(#clipPath3); stroke:none;" r="11" cx="249" cy="153"
      /><rect x="238" y="142" width="22" style="clip-path:url(#clipPath3); stroke:none;" height="22"
      /><rect x="238" y="142" width="22" style="clip-path:url(#clipPath3); fill:none; stroke:black;" height="22"
      /><circle style="fill:none; stroke:black;" r="11" cx="249" cy="153"
      /><polygon style="fill:none; stroke:black;" points=" 197 217 145 217"
      /><circle style="clip-path:url(#clipPath4); stroke:none;" r="11" cx="197" cy="217"
      /><rect x="186" y="206" width="22" style="clip-path:url(#clipPath4); stroke:none;" height="22"
      /><rect x="186" y="206" width="22" style="clip-path:url(#clipPath4); fill:none; stroke:black;" height="22"
      /><circle style="fill:none; stroke:black;" r="11" cx="197" cy="217"
      /><polygon style="fill:none; stroke:black;" points=" 145 217 93 243"
      /><polygon style="fill:none; stroke:black;" points=" 145 217 93 191"
      /><rect x="134" y="206" width="22" style="clip-path:url(#clipPath5); stroke:none;" height="22"
      /><rect x="134" y="206" width="22" style="clip-path:url(#clipPath5); stroke:none;" height="22"
      /><rect x="134" y="206" width="22" style="clip-path:url(#clipPath5); fill:none; stroke:black;" height="22"
      /><rect x="134" y="206" width="22" style="fill:none; stroke:black;" height="22"
      /><polygon style="fill:none; stroke:black;" points=" 93 243 41 243"
      /><circle style="clip-path:url(#clipPath6); stroke:none;" r="11" cx="93" cy="243"
      /><rect x="82" y="232" width="22" style="clip-path:url(#clipPath6); stroke:none;" height="22"
      /><rect x="82" y="232" width="22" style="clip-path:url(#clipPath6); fill:none; stroke:black;" height="22"
      /><circle style="fill:none; stroke:black;" r="11" cx="93" cy="243"
      /><polygon style="clip-path:url(#clipPath7); stroke:none;" points=" 41 232 52 243 41 254 30 243"
      /><rect x="30" y="232" width="22" style="clip-path:url(#clipPath7); fill:rgb(165,67,153); stroke:none;" height="22"
      /><rect x="30" y="232" width="22" style="clip-path:url(#clipPath7); fill:none; stroke:black;" height="22"
      /><polygon style="fill:none; stroke:black;" points=" 41 232 52 243 41 254 30 243"
      /><rect x="71" y="246" width="5" style="stroke:none;" height="10"
    /></g
    ><g style="font-family:'Serif'; text-rendering:optimizeSpeed; "
    ><path style="stroke:none;" d="M72.8906 254.6875 C72.4844 254.6875 72.1562 255.0469 72.1562 255.4219 C72.1562 255.8125 72.4844 256.1562 72.8906 256.1562 C73.2969 256.1562 73.6406 255.8125 73.6406 255.4219 C73.6406 255.0469 73.2969 254.6875 72.8906 254.6875 ZM74.4688 248.5781 C74.7188 248.8906 74.875 249.2656 74.8906 249.6562 C74.8906 250.1875 74.625 250.5 74.0312 250.7656 L73.4062 251.0156 C72.6406 251.3125 72.3906 251.5469 72.3906 251.9375 C72.3906 252.1094 72.4531 252.3438 72.5781 252.8125 L72.7344 253.3438 L73.1094 253.3438 L73.0938 252.5312 C73.0938 252.0938 73.2031 251.9688 73.7812 251.7344 L74.2031 251.5625 C75.0312 251.2188 75.4531 250.6875 75.4531 249.8438 C75.4531 248.1562 73.6562 247.1875 72.5 247.0312 C72.1094 247.125 71.9062 247.2969 71.9062 247.6406 C71.9062 247.9375 72.0625 248.1562 72.7188 248.2656 L74.4688 248.5781 Z"
      /><rect x="57" y="246" width="5" style="fill:white; stroke:none;" height="10"
      /><path style="stroke:none;" d="M58.8906 254.6875 C58.4844 254.6875 58.1562 255.0469 58.1562 255.4219 C58.1562 255.8125 58.4844 256.1562 58.8906 256.1562 C59.2969 256.1562 59.6406 255.8125 59.6406 255.4219 C59.6406 255.0469 59.2969 254.6875 58.8906 254.6875 ZM60.4688 248.5781 C60.7188 248.8906 60.875 249.2656 60.8906 249.6562 C60.8906 250.1875 60.625 250.5 60.0312 250.7656 L59.4062 251.0156 C58.6406 251.3125 58.3906 251.5469 58.3906 251.9375 C58.3906 252.1094 58.4531 252.3438 58.5781 252.8125 L58.7344 253.3438 L59.1094 253.3438 L59.0938 252.5312 C59.0938 252.0938 59.2031 251.9688 59.7812 251.7344 L60.2031 251.5625 C61.0312 251.2188 61.4531 250.6875 61.4531 249.8438 C61.4531 248.1562 59.6562 247.1875 58.5 247.0312 C58.1094 247.125 57.9062 247.2969 57.9062 247.6406 C57.9062 247.9375 58.0625 248.1562 58.7188 248.2656 L60.4688 248.5781 Z"
      /><circle style="fill:white; clip-path:url(#clipPath8); stroke:none;" r="11" cx="93" cy="191"
      /><rect x="82" y="180" width="22" style="clip-path:url(#clipPath8); fill:white; stroke:none;" height="22"
      /><rect x="82" y="180" width="22" style="fill:none; clip-path:url(#clipPath8);" height="22"
      /><circle r="11" style="fill:none;" cx="93" cy="191"
      /><path style="stroke:none;" d="M87.5156 167.3594 C88.5781 167.3594 89.1094 168.1094 89.1094 169.2969 C89.1094 170.5 88.4531 171.2969 87.6094 171.2969 C86.5156 171.2969 85.8438 170.3125 85.7188 168.4844 C86.25 167.6875 86.9688 167.3594 87.5156 167.3594 ZM87.6094 172.1562 C88.9844 172.1562 90.125 171 90.125 169.2969 C90.125 167.4688 89.1875 166.5469 87.7031 166.5469 C87 166.5469 86.2344 166.9531 85.6875 167.6094 C85.7344 164.875 86.7656 163.9531 87.9531 163.9531 C88.5 163.9531 89.0312 164.2031 89.375 164.625 L89.9688 163.9375 C89.5 163.4219 88.8438 163.0312 87.9219 163.0312 C86.2188 163.0312 84.6719 164.3594 84.6719 167.7969 C84.6719 170.7031 85.9219 172.1562 87.6094 172.1562 ZM91.7694 172 L92.8632 172 L92.8632 167.2656 C93.4569 166.5938 94.0038 166.2812 94.5038 166.2812 C95.3319 166.2812 95.7069 166.7969 95.7069 168.0156 L95.7069 172 L96.8007 172 L96.8007 167.2656 C97.41 166.5938 97.9413 166.2812 98.4413 166.2812 C99.2694 166.2812 99.66 166.7969 99.66 168.0156 L99.66 172 L100.7538 172 L100.7538 167.875 C100.7538 166.2031 100.1132 165.3125 98.7694 165.3125 C97.9725 165.3125 97.3007 165.8281 96.6288 166.5625 C96.3632 165.7969 95.8163 165.3125 94.8163 165.3125 C94.0507 165.3125 93.3632 165.8125 92.8007 166.4375 L92.7538 166.4375 L92.66 165.4844 L91.7694 165.4844 L91.7694 172 Z"
      /><rect x="127" y="228" width="5" style="fill:white; stroke:none;" height="10"
      /><path style="stroke:none;" d="M128.8906 236.6875 C128.4844 236.6875 128.1562 237.0469 128.1562 237.4219 C128.1562 237.8125 128.4844 238.1562 128.8906 238.1562 C129.2969 238.1562 129.6406 237.8125 129.6406 237.4219 C129.6406 237.0469 129.2969 236.6875 128.8906 236.6875 ZM130.4688 230.5781 C130.7188 230.8906 130.875 231.2656 130.8906 231.6562 C130.8906 232.1875 130.625 232.5 130.0312 232.7656 L129.4062 233.0156 C128.6406 233.3125 128.3906 233.5469 128.3906 233.9375 C128.3906 234.1094 128.4531 234.3438 128.5781 234.8125 L128.7344 235.3438 L129.1094 235.3438 L129.0938 234.5312 C129.0938 234.0938 129.2031 233.9688 129.7812 233.7344 L130.2031 233.5625 C131.0312 233.2188 131.4531 232.6875 131.4531 231.8438 C131.4531 230.1562 129.6562 229.1875 128.5 229.0312 C128.1094 229.125 127.9062 229.2969 127.9062 229.6406 C127.9062 229.9375 128.0625 230.1562 128.7188 230.2656 L130.4688 230.5781 Z"
      /><rect x="112" y="236" width="5" style="fill:white; stroke:none;" height="10"
      /><path style="stroke:none;" d="M113.8906 244.6875 C113.4844 244.6875 113.1562 245.0469 113.1562 245.4219 C113.1562 245.8125 113.4844 246.1562 113.8906 246.1562 C114.2969 246.1562 114.6406 245.8125 114.6406 245.4219 C114.6406 245.0469 114.2969 244.6875 113.8906 244.6875 ZM115.4688 238.5781 C115.7188 238.8906 115.875 239.2656 115.8906 239.6562 C115.8906 240.1875 115.625 240.5 115.0312 240.7656 L114.4062 241.0156 C113.6406 241.3125 113.3906 241.5469 113.3906 241.9375 C113.3906 242.1094 113.4531 242.3438 113.5781 242.8125 L113.7344 243.3438 L114.1094 243.3438 L114.0938 242.5312 C114.0938 242.0938 114.2031 241.9688 114.7812 241.7344 L115.2031 241.5625 C116.0312 241.2188 116.4531 240.6875 116.4531 239.8438 C116.4531 238.1562 114.6562 237.1875 113.5 237.0312 C113.1094 237.125 112.9062 237.2969 112.9062 237.6406 C112.9062 237.9375 113.0625 238.1562 113.7188 238.2656 L115.4688 238.5781 Z"
      /><rect x="120" y="210" width="5" style="fill:white; stroke:none;" height="10"
      /><path style="stroke:none;" d="M121.8906 218.6875 C121.4844 218.6875 121.1562 219.0469 121.1562 219.4219 C121.1562 219.8125 121.4844 220.1562 121.8906 220.1562 C122.2969 220.1562 122.6406 219.8125 122.6406 219.4219 C122.6406 219.0469 122.2969 218.6875 121.8906 218.6875 ZM123.4688 212.5781 C123.7188 212.8906 123.875 213.2656 123.8906 213.6562 C123.8906 214.1875 123.625 214.5 123.0312 214.7656 L122.4062 215.0156 C121.6406 215.3125 121.3906 215.5469 121.3906 215.9375 C121.3906 216.1094 121.4531 216.3438 121.5781 216.8125 L121.7344 217.3438 L122.1094 217.3438 L122.0938 216.5312 C122.0938 216.0938 122.2031 215.9688 122.7812 215.7344 L123.2031 215.5625 C124.0312 215.2188 124.4531 214.6875 124.4531 213.8438 C124.4531 212.1562 122.6562 211.1875 121.5 211.0312 C121.1094 211.125 120.9062 211.2969 120.9062 211.6406 C120.9062 211.9375 121.0625 212.1562 121.7188 212.2656 L123.4688 212.5781 Z"
      /><rect x="105" y="202" width="5" style="fill:white; stroke:none;" height="10"
      /><path style="stroke:none;" d="M106.8906 210.6875 C106.4844 210.6875 106.1562 211.0469 106.1562 211.4219 C106.1562 211.8125 106.4844 212.1562 106.8906 212.1562 C107.2969 212.1562 107.6406 211.8125 107.6406 211.4219 C107.6406 211.0469 107.2969 210.6875 106.8906 210.6875 ZM108.4688 204.5781 C108.7188 204.8906 108.875 205.2656 108.8906 205.6562 C108.8906 206.1875 108.625 206.5 108.0312 206.7656 L107.4062 207.0156 C106.6406 207.3125 106.3906 207.5469 106.3906 207.9375 C106.3906 208.1094 106.4531 208.3438 106.5781 208.8125 L106.7344 209.3438 L107.1094 209.3438 L107.0938 208.5312 C107.0938 208.0938 107.2031 207.9688 107.7812 207.7344 L108.2031 207.5625 C109.0312 207.2188 109.4531 206.6875 109.4531 205.8438 C109.4531 204.1562 107.6562 203.1875 106.5 203.0312 C106.1094 203.125 105.9062 203.2969 105.9062 203.6406 C105.9062 203.9375 106.0625 204.1562 106.7188 204.2656 L108.4688 204.5781 Z"
      /><rect x="175" y="220" width="5" style="fill:white; stroke:none;" height="10"
      /><path style="stroke:none;" d="M176.8906 228.6875 C176.4844 228.6875 176.1562 229.0469 176.1562 229.4219 C176.1562 229.8125 176.4844 230.1562 176.8906 230.1562 C177.2969 230.1562 177.6406 229.8125 177.6406 229.4219 C177.6406 229.0469 177.2969 228.6875 176.8906 228.6875 ZM178.4688 222.5781 C178.7188 222.8906 178.875 223.2656 178.8906 223.6562 C178.8906 224.1875 178.625 224.5 178.0312 224.7656 L177.4062 225.0156 C176.6406 225.3125 176.3906 225.5469 176.3906 225.9375 C176.3906 226.1094 176.4531 226.3438 176.5781 226.8125 L176.7344 227.3438 L177.1094 227.3438 L177.0938 226.5312 C177.0938 226.0938 177.2031 225.9688 177.7812 225.7344 L178.2031 225.5625 C179.0312 225.2188 179.4531 224.6875 179.4531 223.8438 C179.4531 222.1562 177.6562 221.1875 176.5 221.0312 C176.1094 221.125 175.9062 221.2969 175.9062 221.6406 C175.9062 221.9375 176.0625 222.1562 176.7188 222.2656 L178.4688 222.5781 Z"
      /><rect x="161" y="220" width="5" style="fill:white; stroke:none;" height="10"
      /><path style="stroke:none;" d="M162.8906 228.6875 C162.4844 228.6875 162.1562 229.0469 162.1562 229.4219 C162.1562 229.8125 162.4844 230.1562 162.8906 230.1562 C163.2969 230.1562 163.6406 229.8125 163.6406 229.4219 C163.6406 229.0469 163.2969 228.6875 162.8906 228.6875 ZM164.4688 222.5781 C164.7188 222.8906 164.875 223.2656 164.8906 223.6562 C164.8906 224.1875 164.625 224.5 164.0312 224.7656 L163.4062 225.0156 C162.6406 225.3125 162.3906 225.5469 162.3906 225.9375 C162.3906 226.1094 162.4531 226.3438 162.5781 226.8125 L162.7344 227.3438 L163.1094 227.3438 L163.0938 226.5312 C163.0938 226.0938 163.2031 225.9688 163.7812 225.7344 L164.2031 225.5625 C165.0312 225.2188 165.4531 224.6875 165.4531 223.8438 C165.4531 222.1562 163.6562 221.1875 162.5 221.0312 C162.1094 221.125 161.9062 221.2969 161.9062 221.6406 C161.9062 221.9375 162.0625 222.1562 162.7188 222.2656 L164.4688 222.5781 Z"
      /><polygon style="fill:none;" points=" 197 90 145 90"
      /><circle style="fill:white; clip-path:url(#clipPath9); stroke:none;" r="11" cx="197" cy="90"
      /><rect x="186" y="79" width="22" style="clip-path:url(#clipPath9); fill:white; stroke:none;" height="22"
      /><rect x="186" y="79" width="22" style="fill:none; clip-path:url(#clipPath9);" height="22"
      /><circle r="11" style="fill:none;" cx="197" cy="90"
      /><polygon style="fill:none;" points=" 145 90 93 116"
      /><polygon style="fill:none;" points=" 145 90 93 64"
      /><rect x="134" y="79" width="22" style="clip-path:url(#clipPath10); fill:white; stroke:none;" height="22"
      /><rect x="134" y="79" width="22" style="clip-path:url(#clipPath10); fill:white; stroke:none;" height="22"
      /><rect x="134" y="79" width="22" style="fill:none; clip-path:url(#clipPath10);" height="22"
      /><rect x="134" width="22" height="22" y="79" style="fill:none;"
      /><polygon style="fill:none;" points=" 93 116 41 116"
      /><circle style="fill:white; clip-path:url(#clipPath11); stroke:none;" r="11" cx="93" cy="116"
      /><rect x="82" y="105" width="22" style="clip-path:url(#clipPath11); fill:white; stroke:none;" height="22"
      /><rect x="82" y="105" width="22" style="fill:none; clip-path:url(#clipPath11);" height="22"
      /><circle r="11" style="fill:none;" cx="93" cy="116"
      /><polygon style="fill:white; clip-path:url(#clipPath12); stroke:none;" points=" 41 105 52 116 41 127 30 116"
      /><rect x="30" y="105" width="22" style="clip-path:url(#clipPath12); fill:rgb(0,166,81); stroke:none;" height="22"
      /><rect x="30" y="105" width="22" style="fill:none; clip-path:url(#clipPath12);" height="22"
      /><polygon style="fill:none;" points=" 41 105 52 116 41 127 30 116"
      /><rect x="71" y="119" width="5" style="fill:white; stroke:none;" height="10"
      /><path style="stroke:none;" d="M72.8906 127.6875 C72.4844 127.6875 72.1562 128.0469 72.1562 128.4219 C72.1562 128.8125 72.4844 129.1562 72.8906 129.1562 C73.2969 129.1562 73.6406 128.8125 73.6406 128.4219 C73.6406 128.0469 73.2969 127.6875 72.8906 127.6875 ZM74.4688 121.5781 C74.7188 121.8906 74.875 122.2656 74.8906 122.6562 C74.8906 123.1875 74.625 123.5 74.0312 123.7656 L73.4062 124.0156 C72.6406 124.3125 72.3906 124.5469 72.3906 124.9375 C72.3906 125.1094 72.4531 125.3438 72.5781 125.8125 L72.7344 126.3438 L73.1094 126.3438 L73.0938 125.5312 C73.0938 125.0938 73.2031 124.9688 73.7812 124.7344 L74.2031 124.5625 C75.0312 124.2188 75.4531 123.6875 75.4531 122.8438 C75.4531 121.1562 73.6562 120.1875 72.5 120.0312 C72.1094 120.125 71.9062 120.2969 71.9062 120.6406 C71.9062 120.9375 72.0625 121.1562 72.7188 121.2656 L74.4688 121.5781 Z"
      /><rect x="57" y="119" width="5" style="fill:white; stroke:none;" height="10"
      /><path style="stroke:none;" d="M58.8906 127.6875 C58.4844 127.6875 58.1562 128.0469 58.1562 128.4219 C58.1562 128.8125 58.4844 129.1562 58.8906 129.1562 C59.2969 129.1562 59.6406 128.8125 59.6406 128.4219 C59.6406 128.0469 59.2969 127.6875 58.8906 127.6875 ZM60.4688 121.5781 C60.7188 121.8906 60.875 122.2656 60.8906 122.6562 C60.8906 123.1875 60.625 123.5 60.0312 123.7656 L59.4062 124.0156 C58.6406 124.3125 58.3906 124.5469 58.3906 124.9375 C58.3906 125.1094 58.4531 125.3438 58.5781 125.8125 L58.7344 126.3438 L59.1094 126.3438 L59.0938 125.5312 C59.0938 125.0938 59.2031 124.9688 59.7812 124.7344 L60.2031 124.5625 C61.0312 124.2188 61.4531 123.6875 61.4531 122.8438 C61.4531 121.1562 59.6562 120.1875 58.5 120.0312 C58.1094 120.125 57.9062 120.2969 57.9062 120.6406 C57.9062 120.9375 58.0625 121.1562 58.7188 121.2656 L60.4688 121.5781 Z"
      /><circle style="fill:white; clip-path:url(#clipPath13); stroke:none;" r="11" cx="93" cy="64"
      /><rect x="82" y="53" width="22" style="clip-path:url(#clipPath13); fill:white; stroke:none;" height="22"
      /><rect x="82" y="53" width="22" style="fill:none; clip-path:url(#clipPath13);" height="22"
      /><circle r="11" style="fill:none;" cx="93" cy="64"
      /><path style="stroke:none;" d="M87.5156 40.3594 C88.5781 40.3594 89.1094 41.1094 89.1094 42.2969 C89.1094 43.5 88.4531 44.2969 87.6094 44.2969 C86.5156 44.2969 85.8438 43.3125 85.7188 41.4844 C86.25 40.6875 86.9688 40.3594 87.5156 40.3594 ZM87.6094 45.1562 C88.9844 45.1562 90.125 44 90.125 42.2969 C90.125 40.4688 89.1875 39.5469 87.7031 39.5469 C87 39.5469 86.2344 39.9531 85.6875 40.6094 C85.7344 37.875 86.7656 36.9531 87.9531 36.9531 C88.5 36.9531 89.0312 37.2031 89.375 37.625 L89.9688 36.9375 C89.5 36.4219 88.8438 36.0312 87.9219 36.0312 C86.2188 36.0312 84.6719 37.3594 84.6719 40.7969 C84.6719 43.7031 85.9219 45.1562 87.6094 45.1562 ZM91.7694 45 L92.8632 45 L92.8632 40.2656 C93.4569 39.5938 94.0038 39.2812 94.5038 39.2812 C95.3319 39.2812 95.7069 39.7969 95.7069 41.0156 L95.7069 45 L96.8007 45 L96.8007 40.2656 C97.41 39.5938 97.9413 39.2812 98.4413 39.2812 C99.2694 39.2812 99.66 39.7969 99.66 41.0156 L99.66 45 L100.7538 45 L100.7538 40.875 C100.7538 39.2031 100.1132 38.3125 98.7694 38.3125 C97.9725 38.3125 97.3007 38.8281 96.6288 39.5625 C96.3632 38.7969 95.8163 38.3125 94.8163 38.3125 C94.0507 38.3125 93.3632 38.8125 92.8007 39.4375 L92.7538 39.4375 L92.66 38.4844 L91.7694 38.4844 L91.7694 45 Z"
      /><rect x="127" y="101" width="5" style="fill:white; stroke:none;" height="10"
      /><path style="stroke:none;" d="M128.8906 109.6875 C128.4844 109.6875 128.1562 110.0469 128.1562 110.4219 C128.1562 110.8125 128.4844 111.1562 128.8906 111.1562 C129.2969 111.1562 129.6406 110.8125 129.6406 110.4219 C129.6406 110.0469 129.2969 109.6875 128.8906 109.6875 ZM130.4688 103.5781 C130.7188 103.8906 130.875 104.2656 130.8906 104.6562 C130.8906 105.1875 130.625 105.5 130.0312 105.7656 L129.4062 106.0156 C128.6406 106.3125 128.3906 106.5469 128.3906 106.9375 C128.3906 107.1094 128.4531 107.3438 128.5781 107.8125 L128.7344 108.3438 L129.1094 108.3438 L129.0938 107.5312 C129.0938 107.0938 129.2031 106.9688 129.7812 106.7344 L130.2031 106.5625 C131.0312 106.2188 131.4531 105.6875 131.4531 104.8438 C131.4531 103.1562 129.6562 102.1875 128.5 102.0312 C128.1094 102.125 127.9062 102.2969 127.9062 102.6406 C127.9062 102.9375 128.0625 103.1562 128.7188 103.2656 L130.4688 103.5781 Z"
      /><rect x="112" y="109" width="5" style="fill:white; stroke:none;" height="10"
      /><path style="stroke:none;" d="M113.8906 117.6875 C113.4844 117.6875 113.1562 118.0469 113.1562 118.4219 C113.1562 118.8125 113.4844 119.1562 113.8906 119.1562 C114.2969 119.1562 114.6406 118.8125 114.6406 118.4219 C114.6406 118.0469 114.2969 117.6875 113.8906 117.6875 ZM115.4688 111.5781 C115.7188 111.8906 115.875 112.2656 115.8906 112.6562 C115.8906 113.1875 115.625 113.5 115.0312 113.7656 L114.4062 114.0156 C113.6406 114.3125 113.3906 114.5469 113.3906 114.9375 C113.3906 115.1094 113.4531 115.3438 113.5781 115.8125 L113.7344 116.3438 L114.1094 116.3438 L114.0938 115.5312 C114.0938 115.0938 114.2031 114.9688 114.7812 114.7344 L115.2031 114.5625 C116.0312 114.2188 116.4531 113.6875 116.4531 112.8438 C116.4531 111.1562 114.6562 110.1875 113.5 110.0312 C113.1094 110.125 112.9062 110.2969 112.9062 110.6406 C112.9062 110.9375 113.0625 111.1562 113.7188 111.2656 L115.4688 111.5781 Z"
      /><rect x="120" y="83" width="5" style="fill:white; stroke:none;" height="10"
      /><path style="stroke:none;" d="M121.8906 91.6875 C121.4844 91.6875 121.1562 92.0469 121.1562 92.4219 C121.1562 92.8125 121.4844 93.1562 121.8906 93.1562 C122.2969 93.1562 122.6406 92.8125 122.6406 92.4219 C122.6406 92.0469 122.2969 91.6875 121.8906 91.6875 ZM123.4688 85.5781 C123.7188 85.8906 123.875 86.2656 123.8906 86.6562 C123.8906 87.1875 123.625 87.5 123.0312 87.7656 L122.4062 88.0156 C121.6406 88.3125 121.3906 88.5469 121.3906 88.9375 C121.3906 89.1094 121.4531 89.3438 121.5781 89.8125 L121.7344 90.3438 L122.1094 90.3438 L122.0938 89.5312 C122.0938 89.0938 122.2031 88.9688 122.7812 88.7344 L123.2031 88.5625 C124.0312 88.2188 124.4531 87.6875 124.4531 86.8438 C124.4531 85.1562 122.6562 84.1875 121.5 84.0312 C121.1094 84.125 120.9062 84.2969 120.9062 84.6406 C120.9062 84.9375 121.0625 85.1562 121.7188 85.2656 L123.4688 85.5781 Z"
      /><rect x="105" y="75" width="5" style="fill:white; stroke:none;" height="10"
      /><path style="stroke:none;" d="M106.8906 83.6875 C106.4844 83.6875 106.1562 84.0469 106.1562 84.4219 C106.1562 84.8125 106.4844 85.1562 106.8906 85.1562 C107.2969 85.1562 107.6406 84.8125 107.6406 84.4219 C107.6406 84.0469 107.2969 83.6875 106.8906 83.6875 ZM108.4688 77.5781 C108.7188 77.8906 108.875 78.2656 108.8906 78.6562 C108.8906 79.1875 108.625 79.5 108.0312 79.7656 L107.4062 80.0156 C106.6406 80.3125 106.3906 80.5469 106.3906 80.9375 C106.3906 81.1094 106.4531 81.3438 106.5781 81.8125 L106.7344 82.3438 L107.1094 82.3438 L107.0938 81.5312 C107.0938 81.0938 107.2031 80.9688 107.7812 80.7344 L108.2031 80.5625 C109.0312 80.2188 109.4531 79.6875 109.4531 78.8438 C109.4531 77.1562 107.6562 76.1875 106.5 76.0312 C106.1094 76.125 105.9062 76.2969 105.9062 76.6406 C105.9062 76.9375 106.0625 77.1562 106.7188 77.2656 L108.4688 77.5781 Z"
      /><rect x="175" y="93" width="5" style="fill:white; stroke:none;" height="10"
      /><path style="stroke:none;" d="M176.8906 101.6875 C176.4844 101.6875 176.1562 102.0469 176.1562 102.4219 C176.1562 102.8125 176.4844 103.1562 176.8906 103.1562 C177.2969 103.1562 177.6406 102.8125 177.6406 102.4219 C177.6406 102.0469 177.2969 101.6875 176.8906 101.6875 ZM178.4688 95.5781 C178.7188 95.8906 178.875 96.2656 178.8906 96.6562 C178.8906 97.1875 178.625 97.5 178.0312 97.7656 L177.4062 98.0156 C176.6406 98.3125 176.3906 98.5469 176.3906 98.9375 C176.3906 99.1094 176.4531 99.3438 176.5781 99.8125 L176.7344 100.3438 L177.1094 100.3438 L177.0938 99.5312 C177.0938 99.0938 177.2031 98.9688 177.7812 98.7344 L178.2031 98.5625 C179.0312 98.2188 179.4531 97.6875 179.4531 96.8438 C179.4531 95.1562 177.6562 94.1875 176.5 94.0312 C176.1094 94.125 175.9062 94.2969 175.9062 94.6406 C175.9062 94.9375 176.0625 95.1562 176.7188 95.2656 L178.4688 95.5781 Z"
      /><rect x="161" y="93" width="5" style="fill:white; stroke:none;" height="10"
      /><path style="stroke:none;" d="M162.8906 101.6875 C162.4844 101.6875 162.1562 102.0469 162.1562 102.4219 C162.1562 102.8125 162.4844 103.1562 162.8906 103.1562 C163.2969 103.1562 163.6406 102.8125 163.6406 102.4219 C163.6406 102.0469 163.2969 101.6875 162.8906 101.6875 ZM164.4688 95.5781 C164.7188 95.8906 164.875 96.2656 164.8906 96.6562 C164.8906 97.1875 164.625 97.5 164.0312 97.7656 L163.4062 98.0156 C162.6406 98.3125 162.3906 98.5469 162.3906 98.9375 C162.3906 99.1094 162.4531 99.3438 162.5781 99.8125 L162.7344 100.3438 L163.1094 100.3438 L163.0938 99.5312 C163.0938 99.0938 163.2031 98.9688 163.7812 98.7344 L164.2031 98.5625 C165.0312 98.2188 165.4531 97.6875 165.4531 96.8438 C165.4531 95.1562 163.6562 94.1875 162.5 94.0312 C162.1094 94.125 161.9062 94.2969 161.9062 94.6406 C161.9062 94.9375 162.0625 95.1562 162.7188 95.2656 L164.4688 95.5781 Z"
      /><rect x="238" y="170" width="5" style="fill:white; stroke:none;" height="10"
      /><path style="stroke:none;" d="M239.8906 178.6875 C239.4844 178.6875 239.1562 179.0469 239.1562 179.4219 C239.1562 179.8125 239.4844 180.1562 239.8906 180.1562 C240.2969 180.1562 240.6406 179.8125 240.6406 179.4219 C240.6406 179.0469 240.2969 178.6875 239.8906 178.6875 ZM241.4688 172.5781 C241.7188 172.8906 241.875 173.2656 241.8906 173.6562 C241.8906 174.1875 241.625 174.5 241.0312 174.7656 L240.4062 175.0156 C239.6406 175.3125 239.3906 175.5469 239.3906 175.9375 C239.3906 176.1094 239.4531 176.3438 239.5781 176.8125 L239.7344 177.3438 L240.1094 177.3438 L240.0938 176.5312 C240.0938 176.0938 240.2031 175.9688 240.7812 175.7344 L241.2031 175.5625 C242.0312 175.2188 242.4531 174.6875 242.4531 173.8438 C242.4531 172.1562 240.6562 171.1875 239.5 171.0312 C239.1094 171.125 238.9062 171.2969 238.9062 171.6406 C238.9062 171.9375 239.0625 172.1562 239.7188 172.2656 L241.4688 172.5781 Z"
      /><rect x="214" y="199" width="5" style="fill:white; stroke:none;" height="10"
      /><path style="stroke:none;" d="M215.8906 207.6875 C215.4844 207.6875 215.1562 208.0469 215.1562 208.4219 C215.1562 208.8125 215.4844 209.1562 215.8906 209.1562 C216.2969 209.1562 216.6406 208.8125 216.6406 208.4219 C216.6406 208.0469 216.2969 207.6875 215.8906 207.6875 ZM217.4688 201.5781 C217.7188 201.8906 217.875 202.2656 217.8906 202.6562 C217.8906 203.1875 217.625 203.5 217.0312 203.7656 L216.4062 204.0156 C215.6406 204.3125 215.3906 204.5469 215.3906 204.9375 C215.3906 205.1094 215.4531 205.3438 215.5781 205.8125 L215.7344 206.3438 L216.1094 206.3438 L216.0938 205.5312 C216.0938 205.0938 216.2031 204.9688 216.7812 204.7344 L217.2031 204.5625 C218.0312 204.2188 218.4531 203.6875 218.4531 202.8438 C218.4531 201.1562 216.6562 200.1875 215.5 200.0312 C215.1094 200.125 214.9062 200.2969 214.9062 200.6406 C214.9062 200.9375 215.0625 201.1562 215.7188 201.2656 L217.4688 201.5781 Z"
      /><rect x="226" y="135" width="5" style="fill:white; stroke:none;" height="10"
      /><path style="stroke:none;" d="M227.8906 143.6875 C227.4844 143.6875 227.1562 144.0469 227.1562 144.4219 C227.1562 144.8125 227.4844 145.1562 227.8906 145.1562 C228.2969 145.1562 228.6406 144.8125 228.6406 144.4219 C228.6406 144.0469 228.2969 143.6875 227.8906 143.6875 ZM229.4688 137.5781 C229.7188 137.8906 229.875 138.2656 229.8906 138.6562 C229.8906 139.1875 229.625 139.5 229.0312 139.7656 L228.4062 140.0156 C227.6406 140.3125 227.3906 140.5469 227.3906 140.9375 C227.3906 141.1094 227.4531 141.3438 227.5781 141.8125 L227.7344 142.3438 L228.1094 142.3438 L228.0938 141.5312 C228.0938 141.0938 228.2031 140.9688 228.7812 140.7344 L229.2031 140.5625 C230.0312 140.2188 230.4531 139.6875 230.4531 138.8438 C230.4531 137.1562 228.6562 136.1875 227.5 136.0312 C227.1094 136.125 226.9062 136.2969 226.9062 136.6406 C226.9062 136.9375 227.0625 137.1562 227.7188 137.2656 L229.4688 137.5781 Z"
      /><rect x="202" y="107" width="5" style="fill:white; stroke:none;" height="10"
      /><path style="stroke:none;" d="M203.8906 115.6875 C203.4844 115.6875 203.1562 116.0469 203.1562 116.4219 C203.1562 116.8125 203.4844 117.1562 203.8906 117.1562 C204.2969 117.1562 204.6406 116.8125 204.6406 116.4219 C204.6406 116.0469 204.2969 115.6875 203.8906 115.6875 ZM205.4688 109.5781 C205.7188 109.8906 205.875 110.2656 205.8906 110.6562 C205.8906 111.1875 205.625 111.5 205.0312 111.7656 L204.4062 112.0156 C203.6406 112.3125 203.3906 112.5469 203.3906 112.9375 C203.3906 113.1094 203.4531 113.3438 203.5781 113.8125 L203.7344 114.3438 L204.1094 114.3438 L204.0938 113.5312 C204.0938 113.0938 204.2031 112.9688 204.7812 112.7344 L205.2031 112.5625 C206.0312 112.2188 206.4531 111.6875 206.4531 110.8438 C206.4531 109.1562 204.6562 108.1875 203.5 108.0312 C203.1094 108.125 202.9062 108.2969 202.9062 108.6406 C202.9062 108.9375 203.0625 109.1562 203.7188 109.2656 L205.4688 109.5781 Z"
      /><rect x="279" y="156" width="5" style="fill:white; stroke:none;" height="10"
      /><path style="stroke:none;" d="M280.8906 164.6875 C280.4844 164.6875 280.1562 165.0469 280.1562 165.4219 C280.1562 165.8125 280.4844 166.1562 280.8906 166.1562 C281.2969 166.1562 281.6406 165.8125 281.6406 165.4219 C281.6406 165.0469 281.2969 164.6875 280.8906 164.6875 ZM282.4688 158.5781 C282.7188 158.8906 282.875 159.2656 282.8906 159.6562 C282.8906 160.1875 282.625 160.5 282.0312 160.7656 L281.4062 161.0156 C280.6406 161.3125 280.3906 161.5469 280.3906 161.9375 C280.3906 162.1094 280.4531 162.3438 280.5781 162.8125 L280.7344 163.3438 L281.1094 163.3438 L281.0938 162.5312 C281.0938 162.0938 281.2031 161.9688 281.7812 161.7344 L282.2031 161.5625 C283.0312 161.2188 283.4531 160.6875 283.4531 159.8438 C283.4531 158.1562 281.6562 157.1875 280.5 157.0312 C280.1094 157.125 279.9062 157.2969 279.9062 157.6406 C279.9062 157.9375 280.0625 158.1562 280.7188 158.2656 L282.4688 158.5781 Z"
      /><rect x="265" y="156" width="5" style="fill:white; stroke:none;" height="10"
      /><path style="stroke:none;" d="M266.8906 164.6875 C266.4844 164.6875 266.1562 165.0469 266.1562 165.4219 C266.1562 165.8125 266.4844 166.1562 266.8906 166.1562 C267.2969 166.1562 267.6406 165.8125 267.6406 165.4219 C267.6406 165.0469 267.2969 164.6875 266.8906 164.6875 ZM268.4688 158.5781 C268.7188 158.8906 268.875 159.2656 268.8906 159.6562 C268.8906 160.1875 268.625 160.5 268.0312 160.7656 L267.4062 161.0156 C266.6406 161.3125 266.3906 161.5469 266.3906 161.9375 C266.3906 162.1094 266.4531 162.3438 266.5781 162.8125 L266.7344 163.3438 L267.1094 163.3438 L267.0938 162.5312 C267.0938 162.0938 267.2031 161.9688 267.7812 161.7344 L268.2031 161.5625 C269.0312 161.2188 269.4531 160.6875 269.4531 159.8438 C269.4531 158.1562 267.6562 157.1875 266.5 157.0312 C266.1094 157.125 265.9062 157.2969 265.9062 157.6406 C265.9062 157.9375 266.0625 158.1562 266.7188 158.2656 L268.4688 158.5781 Z"
      /><circle style="fill:white; clip-path:url(#clipPath14); stroke:none;" r="11" cx="301" cy="101"
      /><rect x="290" y="90" width="22" style="clip-path:url(#clipPath14); fill:white; stroke:none;" height="22"
      /><rect x="290" y="90" width="22" style="fill:none; clip-path:url(#clipPath14);" height="22"
      /><circle r="11" style="fill:none;" cx="301" cy="101"
      /><path style="stroke:none;" d="M295.5156 77.3594 C296.5781 77.3594 297.1094 78.1094 297.1094 79.2969 C297.1094 80.5 296.4531 81.2969 295.6094 81.2969 C294.5156 81.2969 293.8438 80.3125 293.7188 78.4844 C294.25 77.6875 294.9688 77.3594 295.5156 77.3594 ZM295.6094 82.1562 C296.9844 82.1562 298.125 81 298.125 79.2969 C298.125 77.4688 297.1875 76.5469 295.7031 76.5469 C295 76.5469 294.2344 76.9531 293.6875 77.6094 C293.7344 74.875 294.7656 73.9531 295.9531 73.9531 C296.5 73.9531 297.0312 74.2031 297.375 74.625 L297.9688 73.9375 C297.5 73.4219 296.8438 73.0312 295.9219 73.0312 C294.2188 73.0312 292.6719 74.3594 292.6719 77.7969 C292.6719 80.7031 293.9219 82.1562 295.6094 82.1562 ZM299.7694 82 L300.8632 82 L300.8632 77.2656 C301.4569 76.5938 302.0038 76.2812 302.5038 76.2812 C303.3319 76.2812 303.7069 76.7969 303.7069 78.0156 L303.7069 82 L304.8007 82 L304.8007 77.2656 C305.41 76.5938 305.9413 76.2812 306.4413 76.2812 C307.2694 76.2812 307.66 76.7969 307.66 78.0156 L307.66 82 L308.7538 82 L308.7538 77.875 C308.7538 76.2031 308.1132 75.3125 306.7694 75.3125 C305.9725 75.3125 305.3007 75.8281 304.6288 76.5625 C304.3632 75.7969 303.8163 75.3125 302.8163 75.3125 C302.0507 75.3125 301.3632 75.8125 300.8007 76.4375 L300.7538 76.4375 L300.66 75.4844 L299.7694 75.4844 L299.7694 82 Z"
      /><rect x="335" y="138" width="5" style="fill:white; stroke:none;" height="10"
      /><path style="stroke:none;" d="M336.8906 146.6875 C336.4844 146.6875 336.1562 147.0469 336.1562 147.4219 C336.1562 147.8125 336.4844 148.1562 336.8906 148.1562 C337.2969 148.1562 337.6406 147.8125 337.6406 147.4219 C337.6406 147.0469 337.2969 146.6875 336.8906 146.6875 ZM338.4688 140.5781 C338.7188 140.8906 338.875 141.2656 338.8906 141.6562 C338.8906 142.1875 338.625 142.5 338.0312 142.7656 L337.4062 143.0156 C336.6406 143.3125 336.3906 143.5469 336.3906 143.9375 C336.3906 144.1094 336.4531 144.3438 336.5781 144.8125 L336.7344 145.3438 L337.1094 145.3438 L337.0938 144.5312 C337.0938 144.0938 337.2031 143.9688 337.7812 143.7344 L338.2031 143.5625 C339.0312 143.2188 339.4531 142.6875 339.4531 141.8438 C339.4531 140.1562 337.6562 139.1875 336.5 139.0312 C336.1094 139.125 335.9062 139.2969 335.9062 139.6406 C335.9062 139.9375 336.0625 140.1562 336.7188 140.2656 L338.4688 140.5781 Z"
      /><rect x="320" y="146" width="5" style="fill:white; stroke:none;" height="10"
      /><path style="stroke:none;" d="M321.8906 154.6875 C321.4844 154.6875 321.1562 155.0469 321.1562 155.4219 C321.1562 155.8125 321.4844 156.1562 321.8906 156.1562 C322.2969 156.1562 322.6406 155.8125 322.6406 155.4219 C322.6406 155.0469 322.2969 154.6875 321.8906 154.6875 ZM323.4688 148.5781 C323.7188 148.8906 323.875 149.2656 323.8906 149.6562 C323.8906 150.1875 323.625 150.5 323.0312 150.7656 L322.4062 151.0156 C321.6406 151.3125 321.3906 151.5469 321.3906 151.9375 C321.3906 152.1094 321.4531 152.3438 321.5781 152.8125 L321.7344 153.3438 L322.1094 153.3438 L322.0938 152.5312 C322.0938 152.0938 322.2031 151.9688 322.7812 151.7344 L323.2031 151.5625 C324.0312 151.2188 324.4531 150.6875 324.4531 149.8438 C324.4531 148.1562 322.6562 147.1875 321.5 147.0312 C321.1094 147.125 320.9062 147.2969 320.9062 147.6406 C320.9062 147.9375 321.0625 148.1562 321.7188 148.2656 L323.4688 148.5781 Z"
      /><rect x="328" y="120" width="5" style="fill:white; stroke:none;" height="10"
      /><path style="stroke:none;" d="M329.8906 128.6875 C329.4844 128.6875 329.1562 129.0469 329.1562 129.4219 C329.1562 129.8125 329.4844 130.1562 329.8906 130.1562 C330.2969 130.1562 330.6406 129.8125 330.6406 129.4219 C330.6406 129.0469 330.2969 128.6875 329.8906 128.6875 ZM331.4688 122.5781 C331.7188 122.8906 331.875 123.2656 331.8906 123.6562 C331.8906 124.1875 331.625 124.5 331.0312 124.7656 L330.4062 125.0156 C329.6406 125.3125 329.3906 125.5469 329.3906 125.9375 C329.3906 126.1094 329.4531 126.3438 329.5781 126.8125 L329.7344 127.3438 L330.1094 127.3438 L330.0938 126.5312 C330.0938 126.0938 330.2031 125.9688 330.7812 125.7344 L331.2031 125.5625 C332.0312 125.2188 332.4531 124.6875 332.4531 123.8438 C332.4531 122.1562 330.6562 121.1875 329.5 121.0312 C329.1094 121.125 328.9062 121.2969 328.9062 121.6406 C328.9062 121.9375 329.0625 122.1562 329.7188 122.2656 L331.4688 122.5781 Z"
      /><rect x="313" y="112" width="5" style="fill:white; stroke:none;" height="10"
      /><path style="stroke:none;" d="M314.8906 120.6875 C314.4844 120.6875 314.1562 121.0469 314.1562 121.4219 C314.1562 121.8125 314.4844 122.1562 314.8906 122.1562 C315.2969 122.1562 315.6406 121.8125 315.6406 121.4219 C315.6406 121.0469 315.2969 120.6875 314.8906 120.6875 ZM316.4688 114.5781 C316.7188 114.8906 316.875 115.2656 316.8906 115.6562 C316.8906 116.1875 316.625 116.5 316.0312 116.7656 L315.4062 117.0156 C314.6406 117.3125 314.3906 117.5469 314.3906 117.9375 C314.3906 118.1094 314.4531 118.3438 314.5781 118.8125 L314.7344 119.3438 L315.1094 119.3438 L315.0938 118.5312 C315.0938 118.0938 315.2031 117.9688 315.7812 117.7344 L316.2031 117.5625 C317.0312 117.2188 317.4531 116.6875 317.4531 115.8438 C317.4531 114.1562 315.6562 113.1875 314.5 113.0312 C314.1094 113.125 313.9062 113.2969 313.9062 113.6406 C313.9062 113.9375 314.0625 114.1562 314.7188 114.2656 L316.4688 114.5781 Z"
      /><rect x="369" y="130" width="5" style="fill:white; stroke:none;" height="10"
      /><path style="stroke:none;" d="M370.8906 138.6875 C370.4844 138.6875 370.1562 139.0469 370.1562 139.4219 C370.1562 139.8125 370.4844 140.1562 370.8906 140.1562 C371.2969 140.1562 371.6406 139.8125 371.6406 139.4219 C371.6406 139.0469 371.2969 138.6875 370.8906 138.6875 ZM372.4688 132.5781 C372.7188 132.8906 372.875 133.2656 372.8906 133.6562 C372.8906 134.1875 372.625 134.5 372.0312 134.7656 L371.4062 135.0156 C370.6406 135.3125 370.3906 135.5469 370.3906 135.9375 C370.3906 136.1094 370.4531 136.3438 370.5781 136.8125 L370.7344 137.3438 L371.1094 137.3438 L371.0938 136.5312 C371.0938 136.0938 371.2031 135.9688 371.7812 135.7344 L372.2031 135.5625 C373.0312 135.2188 373.4531 134.6875 373.4531 133.8438 C373.4531 132.1562 371.6562 131.1875 370.5 131.0312 C370.1094 131.125 369.9062 131.2969 369.9062 131.6406 C369.9062 131.9375 370.0625 132.1562 370.7188 132.2656 L372.4688 132.5781 Z"
    /></g
  ></g
></svg
>
