<?xml version="1.0"?>
<!DOCTYPE svg PUBLIC '-//W3C//DTD SVG 1.0//EN'
          'http://www.w3.org/TR/2001/REC-SVG-20010904/DTD/svg10.dtd'>
<svg xmlns:xlink="http://www.w3.org/1999/xlink" style="fill-opacity:1; color-rendering:auto; color-interpolation:auto; text-rendering:auto; stroke:black; stroke-linecap:square; stroke-miterlimit:10; shape-rendering:auto; stroke-opacity:1; fill:black; stroke-dasharray:none; font-weight:normal; stroke-width:1; font-family:'Dialog'; font-style:normal; stroke-linejoin:miter; font-size:12px; stroke-dashoffset:0; image-rendering:auto;" viewBox="0 0 146 128" xmlns="http://www.w3.org/2000/svg"
><!--Generated by the Batik Graphics2D SVG Generator--><defs id="genericDefs"
  /><g
  ><defs id="defs1"
    ><clipPath clipPathUnits="userSpaceOnUse" id="clipPath1"
      ><path style="fill-rule:evenodd;" d="M47 53 L58 75 L36 75 Z"
      /></clipPath
    ></defs
    ><g style="fill:white; text-rendering:optimizeSpeed; stroke:white;"
    ><rect x="0" width="146" height="128" y="0" style="stroke:none;"
      /><polygon style="fill:none; stroke:black;" points=" 105 64 47 64"
      /><path d="M105 53 C99.5 58.5 110.5 69.5 105 75" style="fill:none; stroke:black;"
      /><polygon style="clip-path:url(#clipPath1); stroke:none;" points=" 47 53 58 75 36 75"
      /><rect x="47" y="53" width="11" style="clip-path:url(#clipPath1); fill:rgb(0,166,81); stroke:none;" height="22"
      /><rect x="47" y="53" width="11" style="clip-path:url(#clipPath1); fill:none; stroke:black;" height="22"
      /><polygon style="fill:none; stroke:black;" points=" 47 53 58 75 36 75"
    /></g
    ><g style="text-rendering:optimizeSpeed; font-size:10px; font-family:'SansSerif';"
    ><path style="stroke:none;" d="M45 67 L46.875 67 C49.0938 67 50.2969 65.625 50.2969 63.3125 C50.2969 60.9844 49.0938 59.6562 46.8438 59.6562 L45 59.6562 L45 67 ZM45.9375 66.2344 L45.9375 60.4219 L46.7656 60.4219 C48.4844 60.4219 49.3438 61.4531 49.3438 63.3125 C49.3438 65.1562 48.4844 66.2344 46.7656 66.2344 L45.9375 66.2344 Z"
      /><rect x="30" y="81" width="32" style="fill:white; stroke:none;" height="10"
      /><path style="stroke:none;" d="M33.7031 92.1875 C35.5156 92.1875 36.9844 91.0938 36.9844 89.25 C36.9844 87.8594 36.0156 86.9375 34.8125 86.6562 L34.8125 86.5938 C35.8906 86.1875 36.6406 85.3594 36.6406 84.125 C36.6406 82.5 35.375 81.5469 33.6562 81.5469 C32.4688 81.5469 31.5469 82.0625 30.7812 82.7812 L31.4688 83.5938 C32.0469 83 32.7656 82.5938 33.5938 82.5938 C34.6562 82.5938 35.3281 83.2344 35.3281 84.2188 C35.3281 85.3281 34.6094 86.1719 32.4844 86.1719 L32.4844 87.1562 C34.8594 87.1562 35.6875 87.9844 35.6875 89.2031 C35.6875 90.3906 34.8125 91.125 33.5938 91.125 C32.4375 91.125 31.6562 90.5781 31.0469 89.9375 L30.4062 90.7812 C31.0781 91.5156 32.0938 92.1875 33.7031 92.1875 ZM39.1762 92 L40.395 92 L40.395 86.6094 C40.395 85.5312 40.3012 84.4375 40.2543 83.4062 L40.3012 83.4062 L41.4106 85.5156 L45.145 92 L46.4731 92 L46.4731 81.7188 L45.2387 81.7188 L45.2387 87.0781 C45.2387 88.1406 45.3481 89.2812 45.4106 90.3125 L45.3481 90.3125 L44.2543 88.2031 L40.52 81.7188 L39.1762 81.7188 L39.1762 92 ZM51.0498 86.2656 C51.4248 85.0938 51.7529 83.9844 52.0811 82.7812 L52.1279 82.7812 C52.4717 83.9844 52.7842 85.0938 53.1748 86.2656 L53.6592 87.8281 L50.5498 87.8281 L51.0498 86.2656 ZM47.9248 92 L49.2373 92 L50.2373 88.8594 L53.9873 88.8594 L54.9561 92 L56.3311 92 L52.8467 81.7188 L51.4092 81.7188 L47.9248 92 ZM60.6572 92.1875 C61.5634 92.1875 62.4384 91.8281 63.1259 91.2188 L62.5634 90.3594 C62.0947 90.7969 61.4697 91.125 60.7665 91.125 C59.3759 91.125 58.4228 89.9531 58.4228 88.2031 C58.4228 86.4531 59.4228 85.2656 60.8134 85.2656 C61.4228 85.2656 61.8759 85.5469 62.329 85.9375 L62.9853 85.0938 C62.4384 84.625 61.7509 84.2031 60.7509 84.2031 C58.8134 84.2031 57.0947 85.6719 57.0947 88.2031 C57.0947 90.7188 58.6415 92.1875 60.6572 92.1875 Z"
      /><rect x="35" y="35" width="22" style="fill:white; stroke:none;" height="10"
      /><path style="stroke:none;" d="M36.6094 42.1562 L38.9531 38.6562 C39.2344 38.1406 39.5156 37.6406 39.7812 37.1406 L39.8281 37.1406 C39.7969 37.6719 39.7656 38.5 39.7656 39 L39.7656 42.1562 L36.6094 42.1562 ZM39.7656 46 L40.9688 46 L40.9688 43.1719 L42.3281 43.1719 L42.3281 42.1562 L40.9688 42.1562 L40.9688 35.7188 L39.5469 35.7188 L35.2812 42.3281 L35.2812 43.1719 L39.7656 43.1719 L39.7656 46 ZM45.9418 40.2656 C46.3168 39.0938 46.645 37.9844 46.9731 36.7812 L47.02 36.7812 C47.3637 37.9844 47.6762 39.0938 48.0668 40.2656 L48.5512 41.8281 L45.4418 41.8281 L45.9418 40.2656 ZM42.8168 46 L44.1293 46 L45.1293 42.8594 L48.8793 42.8594 L49.8481 46 L51.2231 46 L47.7387 35.7188 L46.3012 35.7188 L42.8168 46 ZM55.5492 46.1875 C56.4554 46.1875 57.3304 45.8281 58.0179 45.2188 L57.4554 44.3594 C56.9867 44.7969 56.3617 45.125 55.6586 45.125 C54.2679 45.125 53.3148 43.9531 53.3148 42.2031 C53.3148 40.4531 54.3148 39.2656 55.7054 39.2656 C56.3148 39.2656 56.7679 39.5469 57.2211 39.9375 L57.8773 39.0938 C57.3304 38.625 56.6429 38.2031 55.6429 38.2031 C53.7054 38.2031 51.9867 39.6719 51.9867 42.2031 C51.9867 44.7188 53.5336 46.1875 55.5492 46.1875 Z"
    /></g
    ><g style="fill:white; text-rendering:optimizeSpeed; font-family:'Serif'; stroke:white;"
    ><rect x="69" width="6" height="13" y="65" style="stroke:none;"
      /><path d="M71.0938 71.2031 C71.0938 69.6562 71.75 68.8125 72.7969 68.8125 C73.7188 68.8125 74.2656 69.4531 74.2656 70.5156 C74.2656 71.7188 73.5 72.4375 72.1875 72.7031 L72.2969 73.3125 C74.2188 73.2344 74.9375 74.2188 74.9375 75.4375 C74.9375 76.625 74.2344 77.4219 72.9531 77.4219 C72.25 77.4219 71.6562 77.1562 71.0938 76.7188 L71.0938 71.2031 ZM70.2031 77.9062 L70.1094 80.375 L70.2656 80.4844 L71.1562 80.2656 L71.0156 77.0938 C71.5469 77.8438 72.3594 78.1719 73.1719 78.1719 C74.5625 78.1719 75.8594 77.2188 75.8594 75.4844 C75.8594 73.9531 74.875 73.1094 73.125 73 C74.5625 72.6094 75.1875 71.4531 75.1875 70.4844 C75.1875 69.0938 74.1562 68.3125 72.9062 68.3125 C71.2969 68.3125 70.2188 69.5469 70.2188 71.5156 L70.2031 77.9062 Z" style="fill:black; stroke:none;"
    /></g
  ></g
></svg
>
