<?xml version="1.0"?>
<!DOCTYPE svg PUBLIC '-//W3C//DTD SVG 1.0//EN'
          'http://www.w3.org/TR/2001/REC-SVG-20010904/DTD/svg10.dtd'>
<svg xmlns:xlink="http://www.w3.org/1999/xlink" style="fill-opacity:1; color-rendering:auto; color-interpolation:auto; text-rendering:auto; stroke:black; stroke-linecap:square; stroke-miterlimit:10; shape-rendering:auto; stroke-opacity:1; fill:black; stroke-dasharray:none; font-weight:normal; stroke-width:1; font-family:'Dialog'; font-style:normal; stroke-linejoin:miter; font-size:12px; stroke-dashoffset:0; image-rendering:auto;" viewBox="0 0 446 172" xmlns="http://www.w3.org/2000/svg"
><!--Generated by the Batik Graphics2D SVG Generator--><defs id="genericDefs"
  /><g
  ><defs id="defs1"
    ><clipPath clipPathUnits="userSpaceOnUse" id="clipPath1"
      ><path d="M342 82 L364 82 L364 104 L342 104 L342 82 Z"
      /></clipPath
      ><clipPath clipPathUnits="userSpaceOnUse" id="clipPath2"
      ><path d="M290 82 L312 82 L312 104 L290 104 L290 82 Z"
      /></clipPath
      ><clipPath clipPathUnits="userSpaceOnUse" id="clipPath3"
      ><path d="M260 93 C260 99.0751 255.0751 104 249 104 C242.9249 104 238 99.0751 238 93 C238 86.9249 242.9249 82 249 82 C255.0751 82 260 86.9249 260 93 Z"
      /></clipPath
      ><clipPath clipPathUnits="userSpaceOnUse" id="clipPath4"
      ><path d="M208 131 C208 137.0751 203.0751 142 197 142 C190.9249 142 186 137.0751 186 131 C186 124.9249 190.9249 120 197 120 C203.0751 120 208 124.9249 208 131 Z"
      /></clipPath
      ><clipPath clipPathUnits="userSpaceOnUse" id="clipPath5"
      ><path d="M134 120 L156 120 L156 142 L134 142 L134 120 Z"
      /></clipPath
      ><clipPath clipPathUnits="userSpaceOnUse" id="clipPath6"
      ><path d="M104 131 C104 137.0751 99.0751 142 93 142 C86.9249 142 82 137.0751 82 131 C82 124.9249 86.9249 120 93 120 C99.0751 120 104 124.9249 104 131 Z"
      /></clipPath
      ><clipPath clipPathUnits="userSpaceOnUse" id="clipPath7"
      ><path style="fill-rule:evenodd;" d="M41 120 L52 131 L41 142 L30 131 Z"
      /></clipPath
      ><clipPath clipPathUnits="userSpaceOnUse" id="clipPath8"
      ><path d="M208 56 C208 62.0751 203.0751 67 197 67 C190.9249 67 186 62.0751 186 56 C186 49.9249 190.9249 45 197 45 C203.0751 45 208 49.9249 208 56 Z"
      /></clipPath
      ><clipPath clipPathUnits="userSpaceOnUse" id="clipPath9"
      ><path d="M134 45 L156 45 L156 67 L134 67 L134 45 Z"
      /></clipPath
      ><clipPath clipPathUnits="userSpaceOnUse" id="clipPath10"
      ><path style="fill-rule:evenodd;" d="M353 52 L342 30 L364 30 Z"
      /></clipPath
    ></defs
    ><g style="fill:white; text-rendering:optimizeSpeed; stroke:white;"
    ><rect x="0" width="446" height="172" y="0" style="stroke:none;"
      /><polygon style="fill:none; stroke:black;" points=" 405 93 353 93"
      /><path d="M405 82 C399.5 87.5 410.5 98.5 405 104" style="fill:none; stroke:black;"
      /><polygon style="fill:none; stroke:black;" points=" 353 93 301 93"
      /><polygon style="fill:none; stroke:black;" points=" 353 93 353 41"
      /><rect x="342" y="82" width="22" style="clip-path:url(#clipPath1); stroke:none;" height="22"
      /><rect x="342" y="82" width="22" style="clip-path:url(#clipPath1); fill:rgb(0,144,188); stroke:none;" height="22"
      /><rect x="342" y="82" width="22" style="clip-path:url(#clipPath1); fill:none; stroke:black;" height="22"
      /><rect x="342" y="82" width="22" style="fill:none; stroke:black;" height="22"
      /><polygon style="fill:none; stroke:black;" points=" 301 93 249 93"
      /><rect x="290" y="82" width="22" style="clip-path:url(#clipPath2); stroke:none;" height="22"
      /><rect x="290" y="82" width="22" style="clip-path:url(#clipPath2); fill:rgb(0,144,188); stroke:none;" height="22"
      /><rect x="290" y="82" width="22" style="clip-path:url(#clipPath2); fill:none; stroke:black;" height="22"
      /><rect x="290" y="82" width="22" style="fill:none; stroke:black;" height="22"
      /><polygon style="fill:none; stroke:black;" points=" 249 93 197 131"
      /><polygon style="fill:none; stroke:black;" points=" 249 93 197 56"
      /><circle style="clip-path:url(#clipPath3); stroke:none;" r="11" cx="249" cy="93"
      /><rect x="238" y="82" width="22" style="clip-path:url(#clipPath3); fill:rgb(0,166,81); stroke:none;" height="22"
      /><rect x="238" y="82" width="22" style="clip-path:url(#clipPath3); fill:none; stroke:black;" height="22"
      /><circle style="fill:none; stroke:black;" r="11" cx="249" cy="93"
      /><polygon style="fill:none; stroke:black;" points=" 197 131 145 131"
      /><circle style="clip-path:url(#clipPath4); stroke:none;" r="11" cx="197" cy="131"
      /><rect x="186" y="120" width="22" style="clip-path:url(#clipPath4); fill:rgb(0,166,81); stroke:none;" height="22"
      /><rect x="186" y="120" width="22" style="clip-path:url(#clipPath4); fill:none; stroke:black;" height="22"
      /><circle style="fill:none; stroke:black;" r="11" cx="197" cy="131"
      /><polygon style="fill:none; stroke:black;" points=" 145 131 93 131"
      /><rect x="134" y="120" width="22" style="clip-path:url(#clipPath5); stroke:none;" height="22"
      /><rect x="134" y="120" width="22" style="clip-path:url(#clipPath5); fill:rgb(0,144,188); stroke:none;" height="22"
      /><rect x="134" y="120" width="22" style="clip-path:url(#clipPath5); fill:none; stroke:black;" height="22"
      /><rect x="134" y="120" width="22" style="fill:none; stroke:black;" height="22"
      /><rect x="137" y="102" width="14" style="stroke:none;" height="10"
    /></g
    ><g style="text-rendering:optimizeSpeed; font-size:14px; font-family:'SansSerif';"
    ><path style="stroke:none;" d="M141.1094 107.5781 C142.3438 107.5781 142.9688 108.4688 142.9688 109.8438 C142.9688 111.25 142.1875 112.1875 141.2188 112.1875 C139.9219 112.1875 139.1562 111.0312 139 108.8906 C139.625 107.9531 140.4531 107.5781 141.1094 107.5781 ZM141.2188 113.1875 C142.8125 113.1875 144.1562 111.8438 144.1562 109.8438 C144.1562 107.7031 143.0469 106.625 141.3125 106.625 C140.5 106.625 139.6094 107.1094 138.9688 107.875 C139.0312 104.6875 140.2188 103.6094 141.625 103.6094 C142.25 103.6094 142.8594 103.9062 143.2656 104.3906 L143.9688 103.5938 C143.4062 102.9844 142.6406 102.5469 141.5781 102.5469 C139.5938 102.5469 137.7812 104.0781 137.7812 108.0938 C137.7812 111.4844 139.2344 113.1875 141.2188 113.1875 ZM149.02 113.1875 C151.1606 113.1875 152.5043 111.8906 152.5043 110.2656 C152.5043 108.75 151.5825 108.0469 150.395 107.5312 L148.9262 106.8906 C148.1293 106.5625 147.2387 106.1875 147.2387 105.1875 C147.2387 104.2656 147.9887 103.6719 149.145 103.6719 C150.0981 103.6719 150.8637 104.0469 151.4887 104.6406 L152.1762 103.8125 C151.4418 103.0625 150.3637 102.5469 149.145 102.5469 C147.2856 102.5469 145.9106 103.6875 145.9106 105.2656 C145.9106 106.7656 147.0512 107.5 148.0043 107.9062 L149.4887 108.5469 C150.4575 108.9844 151.1918 109.3125 151.1918 110.375 C151.1918 111.375 150.3793 112.0469 149.0356 112.0469 C147.9731 112.0469 146.9418 111.5469 146.2075 110.7812 L145.4262 111.6562 C146.3168 112.5938 147.5668 113.1875 149.02 113.1875 Z"
      /><polygon style="fill:none;" points=" 93 131 41 131"
    /></g
    ><g style="fill:white; text-rendering:optimizeSpeed; stroke:white;"
    ><circle r="11" style="clip-path:url(#clipPath6); stroke:none;" cx="93" cy="131"
      /><rect x="82" y="120" width="22" style="clip-path:url(#clipPath6); fill:rgb(255,212,0); stroke:none;" height="22"
      /><rect x="82" y="120" width="22" style="clip-path:url(#clipPath6); fill:none; stroke:black;" height="22"
      /><circle r="11" style="fill:none; stroke:black;" cx="93" cy="131"
      /><polygon style="clip-path:url(#clipPath7); stroke:none;" points=" 41 120 52 131 41 142 30 131"
      /><rect x="30" y="120" width="22" style="clip-path:url(#clipPath7); fill:rgb(165,67,153); stroke:none;" height="22"
      /><rect x="30" y="120" width="22" style="clip-path:url(#clipPath7); fill:none; stroke:black;" height="22"
      /><polygon style="fill:none; stroke:black;" points=" 41 120 52 131 41 142 30 131"
      /><rect x="71" width="5" height="10" y="134" style="stroke:none;"
      /><path d="M72.8906 142.6875 C72.4844 142.6875 72.1562 143.0469 72.1562 143.4219 C72.1562 143.8125 72.4844 144.1562 72.8906 144.1562 C73.2969 144.1562 73.6406 143.8125 73.6406 143.4219 C73.6406 143.0469 73.2969 142.6875 72.8906 142.6875 ZM74.4688 136.5781 C74.7188 136.8906 74.875 137.2656 74.8906 137.6562 C74.8906 138.1875 74.625 138.5 74.0312 138.7656 L73.4062 139.0156 C72.6406 139.3125 72.3906 139.5469 72.3906 139.9375 C72.3906 140.1094 72.4531 140.3438 72.5781 140.8125 L72.7344 141.3438 L73.1094 141.3438 L73.0938 140.5312 C73.0938 140.0938 73.2031 139.9688 73.7812 139.7344 L74.2031 139.5625 C75.0312 139.2188 75.4531 138.6875 75.4531 137.8438 C75.4531 136.1562 73.6562 135.1875 72.5 135.0312 C72.1094 135.125 71.9062 135.2969 71.9062 135.6406 C71.9062 135.9375 72.0625 136.1562 72.7188 136.2656 L74.4688 136.5781 Z" style="fill:black; stroke:none;"
      /><rect x="57" width="5" height="10" y="134" style="stroke:none;"
      /><path d="M58.8906 142.6875 C58.4844 142.6875 58.1562 143.0469 58.1562 143.4219 C58.1562 143.8125 58.4844 144.1562 58.8906 144.1562 C59.2969 144.1562 59.6406 143.8125 59.6406 143.4219 C59.6406 143.0469 59.2969 142.6875 58.8906 142.6875 ZM60.4688 136.5781 C60.7188 136.8906 60.875 137.2656 60.8906 137.6562 C60.8906 138.1875 60.625 138.5 60.0312 138.7656 L59.4062 139.0156 C58.6406 139.3125 58.3906 139.5469 58.3906 139.9375 C58.3906 140.1094 58.4531 140.3438 58.5781 140.8125 L58.7344 141.3438 L59.1094 141.3438 L59.0938 140.5312 C59.0938 140.0938 59.2031 139.9688 59.7812 139.7344 L60.2031 139.5625 C61.0312 139.2188 61.4531 138.6875 61.4531 137.8438 C61.4531 136.1562 59.6562 135.1875 58.5 135.0312 C58.1094 135.125 57.9062 135.2969 57.9062 135.6406 C57.9062 135.9375 58.0625 136.1562 58.7188 136.2656 L60.4688 136.5781 Z" style="fill:black; stroke:none;"
      /><rect x="123" width="5" height="10" y="134" style="stroke:none;"
      /><path d="M124.8906 142.6875 C124.4844 142.6875 124.1562 143.0469 124.1562 143.4219 C124.1562 143.8125 124.4844 144.1562 124.8906 144.1562 C125.2969 144.1562 125.6406 143.8125 125.6406 143.4219 C125.6406 143.0469 125.2969 142.6875 124.8906 142.6875 ZM126.4688 136.5781 C126.7188 136.8906 126.875 137.2656 126.8906 137.6562 C126.8906 138.1875 126.625 138.5 126.0312 138.7656 L125.4062 139.0156 C124.6406 139.3125 124.3906 139.5469 124.3906 139.9375 C124.3906 140.1094 124.4531 140.3438 124.5781 140.8125 L124.7344 141.3438 L125.1094 141.3438 L125.0938 140.5312 C125.0938 140.0938 125.2031 139.9688 125.7812 139.7344 L126.2031 139.5625 C127.0312 139.2188 127.4531 138.6875 127.4531 137.8438 C127.4531 136.1562 125.6562 135.1875 124.5 135.0312 C124.1094 135.125 123.9062 135.2969 123.9062 135.6406 C123.9062 135.9375 124.0625 136.1562 124.7188 136.2656 L126.4688 136.5781 Z" style="fill:black; stroke:none;"
      /><rect x="109" width="5" height="10" y="134" style="stroke:none;"
      /><path d="M110.8906 142.6875 C110.4844 142.6875 110.1562 143.0469 110.1562 143.4219 C110.1562 143.8125 110.4844 144.1562 110.8906 144.1562 C111.2969 144.1562 111.6406 143.8125 111.6406 143.4219 C111.6406 143.0469 111.2969 142.6875 110.8906 142.6875 ZM112.4688 136.5781 C112.7188 136.8906 112.875 137.2656 112.8906 137.6562 C112.8906 138.1875 112.625 138.5 112.0312 138.7656 L111.4062 139.0156 C110.6406 139.3125 110.3906 139.5469 110.3906 139.9375 C110.3906 140.1094 110.4531 140.3438 110.5781 140.8125 L110.7344 141.3438 L111.1094 141.3438 L111.0938 140.5312 C111.0938 140.0938 111.2031 139.9688 111.7812 139.7344 L112.2031 139.5625 C113.0312 139.2188 113.4531 138.6875 113.4531 137.8438 C113.4531 136.1562 111.6562 135.1875 110.5 135.0312 C110.1094 135.125 109.9062 135.2969 109.9062 135.6406 C109.9062 135.9375 110.0625 136.1562 110.7188 136.2656 L112.4688 136.5781 Z" style="fill:black; stroke:none;"
      /><rect x="175" width="5" height="10" y="134" style="stroke:none;"
      /><path d="M176.8906 142.6875 C176.4844 142.6875 176.1562 143.0469 176.1562 143.4219 C176.1562 143.8125 176.4844 144.1562 176.8906 144.1562 C177.2969 144.1562 177.6406 143.8125 177.6406 143.4219 C177.6406 143.0469 177.2969 142.6875 176.8906 142.6875 ZM178.4688 136.5781 C178.7188 136.8906 178.875 137.2656 178.8906 137.6562 C178.8906 138.1875 178.625 138.5 178.0312 138.7656 L177.4062 139.0156 C176.6406 139.3125 176.3906 139.5469 176.3906 139.9375 C176.3906 140.1094 176.4531 140.3438 176.5781 140.8125 L176.7344 141.3438 L177.1094 141.3438 L177.0938 140.5312 C177.0938 140.0938 177.2031 139.9688 177.7812 139.7344 L178.2031 139.5625 C179.0312 139.2188 179.4531 138.6875 179.4531 137.8438 C179.4531 136.1562 177.6562 135.1875 176.5 135.0312 C176.1094 135.125 175.9062 135.2969 175.9062 135.6406 C175.9062 135.9375 176.0625 136.1562 176.7188 136.2656 L178.4688 136.5781 Z" style="fill:black; stroke:none;"
      /><rect x="161" width="5" height="10" y="134" style="stroke:none;"
      /><path d="M162.8906 142.6875 C162.4844 142.6875 162.1562 143.0469 162.1562 143.4219 C162.1562 143.8125 162.4844 144.1562 162.8906 144.1562 C163.2969 144.1562 163.6406 143.8125 163.6406 143.4219 C163.6406 143.0469 163.2969 142.6875 162.8906 142.6875 ZM164.4688 136.5781 C164.7188 136.8906 164.875 137.2656 164.8906 137.6562 C164.8906 138.1875 164.625 138.5 164.0312 138.7656 L163.4062 139.0156 C162.6406 139.3125 162.3906 139.5469 162.3906 139.9375 C162.3906 140.1094 162.4531 140.3438 162.5781 140.8125 L162.7344 141.3438 L163.1094 141.3438 L163.0938 140.5312 C163.0938 140.0938 163.2031 139.9688 163.7812 139.7344 L164.2031 139.5625 C165.0312 139.2188 165.4531 138.6875 165.4531 137.8438 C165.4531 136.1562 163.6562 135.1875 162.5 135.0312 C162.1094 135.125 161.9062 135.2969 161.9062 135.6406 C161.9062 135.9375 162.0625 136.1562 162.7188 136.2656 L164.4688 136.5781 Z" style="fill:black; stroke:none;"
      /><polygon style="fill:none; stroke:black;" points=" 197 56 145 56"
      /><circle r="11" style="clip-path:url(#clipPath8); stroke:none;" cx="197" cy="56"
      /><rect x="186" y="45" width="22" style="clip-path:url(#clipPath8); fill:rgb(0,166,81); stroke:none;" height="22"
      /><rect x="186" y="45" width="22" style="clip-path:url(#clipPath8); fill:none; stroke:black;" height="22"
      /><circle r="11" style="fill:none; stroke:black;" cx="197" cy="56"
      /><rect x="134" y="45" width="22" style="clip-path:url(#clipPath9); stroke:none;" height="22"
      /><rect x="134" y="45" width="22" style="clip-path:url(#clipPath9); fill:rgb(0,144,188); stroke:none;" height="22"
      /><rect x="134" y="45" width="22" style="clip-path:url(#clipPath9); fill:none; stroke:black;" height="22"
      /><rect x="134" y="45" width="22" style="fill:none; stroke:black;" height="22"
      /><rect x="175" width="5" height="10" y="59" style="stroke:none;"
      /><path d="M176.8906 67.6875 C176.4844 67.6875 176.1562 68.0469 176.1562 68.4219 C176.1562 68.8125 176.4844 69.1562 176.8906 69.1562 C177.2969 69.1562 177.6406 68.8125 177.6406 68.4219 C177.6406 68.0469 177.2969 67.6875 176.8906 67.6875 ZM178.4688 61.5781 C178.7188 61.8906 178.875 62.2656 178.8906 62.6562 C178.8906 63.1875 178.625 63.5 178.0312 63.7656 L177.4062 64.0156 C176.6406 64.3125 176.3906 64.5469 176.3906 64.9375 C176.3906 65.1094 176.4531 65.3438 176.5781 65.8125 L176.7344 66.3438 L177.1094 66.3438 L177.0938 65.5312 C177.0938 65.0938 177.2031 64.9688 177.7812 64.7344 L178.2031 64.5625 C179.0312 64.2188 179.4531 63.6875 179.4531 62.8438 C179.4531 61.1562 177.6562 60.1875 176.5 60.0312 C176.1094 60.125 175.9062 60.2969 175.9062 60.6406 C175.9062 60.9375 176.0625 61.1562 176.7188 61.2656 L178.4688 61.5781 Z" style="fill:black; stroke:none;"
      /><rect x="161" width="5" height="10" y="59" style="stroke:none;"
      /><path d="M162.8906 67.6875 C162.4844 67.6875 162.1562 68.0469 162.1562 68.4219 C162.1562 68.8125 162.4844 69.1562 162.8906 69.1562 C163.2969 69.1562 163.6406 68.8125 163.6406 68.4219 C163.6406 68.0469 163.2969 67.6875 162.8906 67.6875 ZM164.4688 61.5781 C164.7188 61.8906 164.875 62.2656 164.8906 62.6562 C164.8906 63.1875 164.625 63.5 164.0312 63.7656 L163.4062 64.0156 C162.6406 64.3125 162.3906 64.5469 162.3906 64.9375 C162.3906 65.1094 162.4531 65.3438 162.5781 65.8125 L162.7344 66.3438 L163.1094 66.3438 L163.0938 65.5312 C163.0938 65.0938 163.2031 64.9688 163.7812 64.7344 L164.2031 64.5625 C165.0312 64.2188 165.4531 63.6875 165.4531 62.8438 C165.4531 61.1562 163.6562 60.1875 162.5 60.0312 C162.1094 60.125 161.9062 60.2969 161.9062 60.6406 C161.9062 60.9375 162.0625 61.1562 162.7188 61.2656 L164.4688 61.5781 Z" style="fill:black; stroke:none;"
      /><rect x="233" width="5" height="10" y="107" style="stroke:none;"
      /><path d="M234.8906 115.6875 C234.4844 115.6875 234.1562 116.0469 234.1562 116.4219 C234.1562 116.8125 234.4844 117.1562 234.8906 117.1562 C235.2969 117.1562 235.6406 116.8125 235.6406 116.4219 C235.6406 116.0469 235.2969 115.6875 234.8906 115.6875 ZM236.4688 109.5781 C236.7188 109.8906 236.875 110.2656 236.8906 110.6562 C236.8906 111.1875 236.625 111.5 236.0312 111.7656 L235.4062 112.0156 C234.6406 112.3125 234.3906 112.5469 234.3906 112.9375 C234.3906 113.1094 234.4531 113.3438 234.5781 113.8125 L234.7344 114.3438 L235.1094 114.3438 L235.0938 113.5312 C235.0938 113.0938 235.2031 112.9688 235.7812 112.7344 L236.2031 112.5625 C237.0312 112.2188 237.4531 111.6875 237.4531 110.8438 C237.4531 109.1562 235.6562 108.1875 234.5 108.0312 C234.1094 108.125 233.9062 108.2969 233.9062 108.6406 C233.9062 108.9375 234.0625 109.1562 234.7188 109.2656 L236.4688 109.5781 Z" style="fill:black; stroke:none;"
      /><rect x="216" width="5" height="10" y="119" style="stroke:none;"
      /><path d="M217.8906 127.6875 C217.4844 127.6875 217.1562 128.0469 217.1562 128.4219 C217.1562 128.8125 217.4844 129.1562 217.8906 129.1562 C218.2969 129.1562 218.6406 128.8125 218.6406 128.4219 C218.6406 128.0469 218.2969 127.6875 217.8906 127.6875 ZM219.4688 121.5781 C219.7188 121.8906 219.875 122.2656 219.8906 122.6562 C219.8906 123.1875 219.625 123.5 219.0312 123.7656 L218.4062 124.0156 C217.6406 124.3125 217.3906 124.5469 217.3906 124.9375 C217.3906 125.1094 217.4531 125.3438 217.5781 125.8125 L217.7344 126.3438 L218.1094 126.3438 L218.0938 125.5312 C218.0938 125.0938 218.2031 124.9688 218.7812 124.7344 L219.2031 124.5625 C220.0312 124.2188 220.4531 123.6875 220.4531 122.8438 C220.4531 121.1562 218.6562 120.1875 217.5 120.0312 C217.1094 120.125 216.9062 120.2969 216.9062 120.6406 C216.9062 120.9375 217.0625 121.1562 217.7188 121.2656 L219.4688 121.5781 Z" style="fill:black; stroke:none;"
      /><rect x="224" width="5" height="10" y="82" style="stroke:none;"
      /><path d="M225.8906 90.6875 C225.4844 90.6875 225.1562 91.0469 225.1562 91.4219 C225.1562 91.8125 225.4844 92.1562 225.8906 92.1562 C226.2969 92.1562 226.6406 91.8125 226.6406 91.4219 C226.6406 91.0469 226.2969 90.6875 225.8906 90.6875 ZM227.4688 84.5781 C227.7188 84.8906 227.875 85.2656 227.8906 85.6562 C227.8906 86.1875 227.625 86.5 227.0312 86.7656 L226.4062 87.0156 C225.6406 87.3125 225.3906 87.5469 225.3906 87.9375 C225.3906 88.1094 225.4531 88.3438 225.5781 88.8125 L225.7344 89.3438 L226.1094 89.3438 L226.0938 88.5312 C226.0938 88.0938 226.2031 87.9688 226.7812 87.7344 L227.2031 87.5625 C228.0312 87.2188 228.4531 86.6875 228.4531 85.8438 C228.4531 84.1562 226.6562 83.1875 225.5 83.0312 C225.1094 83.125 224.9062 83.2969 224.9062 83.6406 C224.9062 83.9375 225.0625 84.1562 225.7188 84.2656 L227.4688 84.5781 Z" style="fill:black; stroke:none;"
      /><rect x="207" width="5" height="10" y="69" style="stroke:none;"
      /><path d="M208.8906 77.6875 C208.4844 77.6875 208.1562 78.0469 208.1562 78.4219 C208.1562 78.8125 208.4844 79.1562 208.8906 79.1562 C209.2969 79.1562 209.6406 78.8125 209.6406 78.4219 C209.6406 78.0469 209.2969 77.6875 208.8906 77.6875 ZM210.4688 71.5781 C210.7188 71.8906 210.875 72.2656 210.8906 72.6562 C210.8906 73.1875 210.625 73.5 210.0312 73.7656 L209.4062 74.0156 C208.6406 74.3125 208.3906 74.5469 208.3906 74.9375 C208.3906 75.1094 208.4531 75.3438 208.5781 75.8125 L208.7344 76.3438 L209.1094 76.3438 L209.0938 75.5312 C209.0938 75.0938 209.2031 74.9688 209.7812 74.7344 L210.2031 74.5625 C211.0312 74.2188 211.4531 73.6875 211.4531 72.8438 C211.4531 71.1562 209.6562 70.1875 208.5 70.0312 C208.1094 70.125 207.9062 70.2969 207.9062 70.6406 C207.9062 70.9375 208.0625 71.1562 208.7188 71.2656 L210.4688 71.5781 Z" style="fill:black; stroke:none;"
      /><rect x="279" width="5" height="10" y="96" style="stroke:none;"
      /><path d="M280.8906 104.6875 C280.4844 104.6875 280.1562 105.0469 280.1562 105.4219 C280.1562 105.8125 280.4844 106.1562 280.8906 106.1562 C281.2969 106.1562 281.6406 105.8125 281.6406 105.4219 C281.6406 105.0469 281.2969 104.6875 280.8906 104.6875 ZM282.4688 98.5781 C282.7188 98.8906 282.875 99.2656 282.8906 99.6562 C282.8906 100.1875 282.625 100.5 282.0312 100.7656 L281.4062 101.0156 C280.6406 101.3125 280.3906 101.5469 280.3906 101.9375 C280.3906 102.1094 280.4531 102.3438 280.5781 102.8125 L280.7344 103.3438 L281.1094 103.3438 L281.0938 102.5312 C281.0938 102.0938 281.2031 101.9688 281.7812 101.7344 L282.2031 101.5625 C283.0312 101.2188 283.4531 100.6875 283.4531 99.8438 C283.4531 98.1562 281.6562 97.1875 280.5 97.0312 C280.1094 97.125 279.9062 97.2969 279.9062 97.6406 C279.9062 97.9375 280.0625 98.1562 280.7188 98.2656 L282.4688 98.5781 Z" style="fill:black; stroke:none;"
      /><rect x="265" width="5" height="10" y="96" style="stroke:none;"
      /><path d="M266.8906 104.6875 C266.4844 104.6875 266.1562 105.0469 266.1562 105.4219 C266.1562 105.8125 266.4844 106.1562 266.8906 106.1562 C267.2969 106.1562 267.6406 105.8125 267.6406 105.4219 C267.6406 105.0469 267.2969 104.6875 266.8906 104.6875 ZM268.4688 98.5781 C268.7188 98.8906 268.875 99.2656 268.8906 99.6562 C268.8906 100.1875 268.625 100.5 268.0312 100.7656 L267.4062 101.0156 C266.6406 101.3125 266.3906 101.5469 266.3906 101.9375 C266.3906 102.1094 266.4531 102.3438 266.5781 102.8125 L266.7344 103.3438 L267.1094 103.3438 L267.0938 102.5312 C267.0938 102.0938 267.2031 101.9688 267.7812 101.7344 L268.2031 101.5625 C269.0312 101.2188 269.4531 100.6875 269.4531 99.8438 C269.4531 98.1562 267.6562 97.1875 266.5 97.0312 C266.1094 97.125 265.9062 97.2969 265.9062 97.6406 C265.9062 97.9375 266.0625 98.1562 266.7188 98.2656 L268.4688 98.5781 Z" style="fill:black; stroke:none;"
      /><polygon style="clip-path:url(#clipPath10); stroke:none;" points=" 353 52 342 30 364 30"
      /><rect x="342" y="30" width="22" style="clip-path:url(#clipPath10); fill:rgb(237,28,36); stroke:none;" height="22"
      /><rect x="342" y="30" width="22" style="clip-path:url(#clipPath10); fill:none; stroke:black;" height="22"
      /><polygon style="fill:none; stroke:black;" points=" 353 52 342 30 364 30"
      /><rect x="331" width="5" height="10" y="96" style="stroke:none;"
      /><path d="M332.8906 104.6875 C332.4844 104.6875 332.1562 105.0469 332.1562 105.4219 C332.1562 105.8125 332.4844 106.1562 332.8906 106.1562 C333.2969 106.1562 333.6406 105.8125 333.6406 105.4219 C333.6406 105.0469 333.2969 104.6875 332.8906 104.6875 ZM334.4688 98.5781 C334.7188 98.8906 334.875 99.2656 334.8906 99.6562 C334.8906 100.1875 334.625 100.5 334.0312 100.7656 L333.4062 101.0156 C332.6406 101.3125 332.3906 101.5469 332.3906 101.9375 C332.3906 102.1094 332.4531 102.3438 332.5781 102.8125 L332.7344 103.3438 L333.1094 103.3438 L333.0938 102.5312 C333.0938 102.0938 333.2031 101.9688 333.7812 101.7344 L334.2031 101.5625 C335.0312 101.2188 335.4531 100.6875 335.4531 99.8438 C335.4531 98.1562 333.6562 97.1875 332.5 97.0312 C332.1094 97.125 331.9062 97.2969 331.9062 97.6406 C331.9062 97.9375 332.0625 98.1562 332.7188 98.2656 L334.4688 98.5781 Z" style="fill:black; stroke:none;"
      /><rect x="317" width="5" height="10" y="96" style="stroke:none;"
      /><path d="M318.8906 104.6875 C318.4844 104.6875 318.1562 105.0469 318.1562 105.4219 C318.1562 105.8125 318.4844 106.1562 318.8906 106.1562 C319.2969 106.1562 319.6406 105.8125 319.6406 105.4219 C319.6406 105.0469 319.2969 104.6875 318.8906 104.6875 ZM320.4688 98.5781 C320.7188 98.8906 320.875 99.2656 320.8906 99.6562 C320.8906 100.1875 320.625 100.5 320.0312 100.7656 L319.4062 101.0156 C318.6406 101.3125 318.3906 101.5469 318.3906 101.9375 C318.3906 102.1094 318.4531 102.3438 318.5781 102.8125 L318.7344 103.3438 L319.1094 103.3438 L319.0938 102.5312 C319.0938 102.0938 319.2031 101.9688 319.7812 101.7344 L320.2031 101.5625 C321.0312 101.2188 321.4531 100.6875 321.4531 99.8438 C321.4531 98.1562 319.6562 97.1875 318.5 97.0312 C318.1094 97.125 317.9062 97.2969 317.9062 97.6406 C317.9062 97.9375 318.0625 98.1562 318.7188 98.2656 L320.4688 98.5781 Z" style="fill:black; stroke:none;"
      /><rect x="342" width="5" height="10" y="69" style="stroke:none;"
      /><path d="M343.8906 77.6875 C343.4844 77.6875 343.1562 78.0469 343.1562 78.4219 C343.1562 78.8125 343.4844 79.1562 343.8906 79.1562 C344.2969 79.1562 344.6406 78.8125 344.6406 78.4219 C344.6406 78.0469 344.2969 77.6875 343.8906 77.6875 ZM345.4688 71.5781 C345.7188 71.8906 345.875 72.2656 345.8906 72.6562 C345.8906 73.1875 345.625 73.5 345.0312 73.7656 L344.4062 74.0156 C343.6406 74.3125 343.3906 74.5469 343.3906 74.9375 C343.3906 75.1094 343.4531 75.3438 343.5781 75.8125 L343.7344 76.3438 L344.1094 76.3438 L344.0938 75.5312 C344.0938 75.0938 344.2031 74.9688 344.7812 74.7344 L345.2031 74.5625 C346.0312 74.2188 346.4531 73.6875 346.4531 72.8438 C346.4531 71.1562 344.6562 70.1875 343.5 70.0312 C343.1094 70.125 342.9062 70.2969 342.9062 70.6406 C342.9062 70.9375 343.0625 71.1562 343.7188 71.2656 L345.4688 71.5781 Z" style="fill:black; stroke:none;"
      /><rect x="342" width="5" height="10" y="55" style="stroke:none;"
      /><path d="M343.8906 63.6875 C343.4844 63.6875 343.1562 64.0469 343.1562 64.4219 C343.1562 64.8125 343.4844 65.1562 343.8906 65.1562 C344.2969 65.1562 344.6406 64.8125 344.6406 64.4219 C344.6406 64.0469 344.2969 63.6875 343.8906 63.6875 ZM345.4688 57.5781 C345.7188 57.8906 345.875 58.2656 345.8906 58.6562 C345.8906 59.1875 345.625 59.5 345.0312 59.7656 L344.4062 60.0156 C343.6406 60.3125 343.3906 60.5469 343.3906 60.9375 C343.3906 61.1094 343.4531 61.3438 343.5781 61.8125 L343.7344 62.3438 L344.1094 62.3438 L344.0938 61.5312 C344.0938 61.0938 344.2031 60.9688 344.7812 60.7344 L345.2031 60.5625 C346.0312 60.2188 346.4531 59.6875 346.4531 58.8438 C346.4531 57.1562 344.6562 56.1875 343.5 56.0312 C343.1094 56.125 342.9062 56.2969 342.9062 56.6406 C342.9062 56.9375 343.0625 57.1562 343.7188 57.2656 L345.4688 57.5781 Z" style="fill:black; stroke:none;"
      /><rect x="369" width="5" height="10" y="96" style="stroke:none;"
      /><path d="M370.8906 104.6875 C370.4844 104.6875 370.1562 105.0469 370.1562 105.4219 C370.1562 105.8125 370.4844 106.1562 370.8906 106.1562 C371.2969 106.1562 371.6406 105.8125 371.6406 105.4219 C371.6406 105.0469 371.2969 104.6875 370.8906 104.6875 ZM372.4688 98.5781 C372.7188 98.8906 372.875 99.2656 372.8906 99.6562 C372.8906 100.1875 372.625 100.5 372.0312 100.7656 L371.4062 101.0156 C370.6406 101.3125 370.3906 101.5469 370.3906 101.9375 C370.3906 102.1094 370.4531 102.3438 370.5781 102.8125 L370.7344 103.3438 L371.1094 103.3438 L371.0938 102.5312 C371.0938 102.0938 371.2031 101.9688 371.7812 101.7344 L372.2031 101.5625 C373.0312 101.2188 373.4531 100.6875 373.4531 99.8438 C373.4531 98.1562 371.6562 97.1875 370.5 97.0312 C370.1094 97.125 369.9062 97.2969 369.9062 97.6406 C369.9062 97.9375 370.0625 98.1562 370.7188 98.2656 L372.4688 98.5781 Z" style="fill:black; stroke:none;"
    /></g
  ></g
></svg
>
