<?xml version="1.0"?>
<!DOCTYPE svg PUBLIC '-//W3C//DTD SVG 1.0//EN'
          'http://www.w3.org/TR/2001/REC-SVG-20010904/DTD/svg10.dtd'>
<svg xmlns:xlink="http://www.w3.org/1999/xlink" style="fill-opacity:1; color-rendering:auto; color-interpolation:auto; text-rendering:auto; stroke:black; stroke-linecap:square; stroke-miterlimit:10; shape-rendering:auto; stroke-opacity:1; fill:black; stroke-dasharray:none; font-weight:normal; stroke-width:1; font-family:'Dialog'; font-style:normal; stroke-linejoin:miter; font-size:12px; stroke-dashoffset:0; image-rendering:auto;" viewBox="0 0 290 134" xmlns="http://www.w3.org/2000/svg"
><!--Generated by the Batik Graphics2D SVG Generator--><defs id="genericDefs"
  /><g
  ><defs id="defs1"
    ><clipPath clipPathUnits="userSpaceOnUse" id="clipPath1"
      ><path d="M208 67 C208 73.0751 203.0751 78 197 78 C190.9249 78 186 73.0751 186 67 C186 60.9249 190.9249 56 197 56 C203.0751 56 208 60.9249 208 67 Z"
      /></clipPath
      ><clipPath clipPathUnits="userSpaceOnUse" id="clipPath2"
      ><path d="M134 56 L156 56 L156 78 L134 78 L134 56 Z"
      /></clipPath
      ><clipPath clipPathUnits="userSpaceOnUse" id="clipPath3"
      ><path style="fill-rule:evenodd;" d="M93 82 L104 104 L82 104 Z"
      /></clipPath
      ><clipPath clipPathUnits="userSpaceOnUse" id="clipPath4"
      ><path d="M104 41 C104 47.0751 99.0751 52 93 52 C86.9249 52 82 47.0751 82 41 C82 34.9249 86.9249 30 93 30 C99.0751 30 104 34.9249 104 41 Z"
      /></clipPath
      ><clipPath clipPathUnits="userSpaceOnUse" id="clipPath5"
      ><path style="fill-rule:evenodd;" d="M41 30 L52 41 L41 52 L30 41 Z"
      /></clipPath
    ></defs
    ><g style="fill:white; text-rendering:optimizeSpeed; stroke:white;"
    ><rect x="0" width="290" height="134" y="0" style="stroke:none;"
      /><polygon style="fill:none; stroke:black;" points=" 249 67 197 67"
      /><path d="M249 56 C243.5 61.5 254.5 72.5 249 78" style="fill:none; stroke:black;"
      /><polygon style="fill:none; stroke:black;" points=" 197 67 145 67"
      /><circle style="clip-path:url(#clipPath1); stroke:none;" r="11" cx="197" cy="67"
      /><rect x="186" y="56" width="22" style="clip-path:url(#clipPath1); fill:rgb(255,212,0); stroke:none;" height="22"
      /><rect x="186" y="56" width="22" style="clip-path:url(#clipPath1); fill:none; stroke:black;" height="22"
      /><circle style="fill:none; stroke:black;" r="11" cx="197" cy="67"
      /><polygon style="fill:none; stroke:black;" points=" 145 67 93 93"
      /><polygon style="fill:none; stroke:black;" points=" 145 67 93 41"
      /><rect x="134" y="56" width="22" style="clip-path:url(#clipPath2); stroke:none;" height="22"
      /><rect x="134" y="56" width="22" style="clip-path:url(#clipPath2); fill:rgb(0,144,188); stroke:none;" height="22"
      /><rect x="134" y="56" width="22" style="clip-path:url(#clipPath2); fill:none; stroke:black;" height="22"
      /><rect x="134" y="56" width="22" style="fill:none; stroke:black;" height="22"
      /><polygon style="clip-path:url(#clipPath3); stroke:none;" points=" 93 82 104 104 82 104"
      /><rect x="82" y="82" width="22" style="clip-path:url(#clipPath3); fill:rgb(0,144,188); stroke:none;" height="22"
      /><rect x="82" y="82" width="22" style="clip-path:url(#clipPath3); fill:none; stroke:black;" height="22"
      /><polygon style="fill:none; stroke:black;" points=" 93 82 104 104 82 104"
      /><polygon style="fill:none; stroke:black;" points=" 93 41 41 41"
      /><circle style="clip-path:url(#clipPath4); stroke:none;" r="11" cx="93" cy="41"
      /><rect x="82" y="30" width="22" style="clip-path:url(#clipPath4); fill:rgb(255,212,0); stroke:none;" height="22"
      /><rect x="82" y="30" width="22" style="clip-path:url(#clipPath4); fill:none; stroke:black;" height="22"
      /><circle style="fill:none; stroke:black;" r="11" cx="93" cy="41"
      /><polygon style="clip-path:url(#clipPath5); stroke:none;" points=" 41 30 52 41 41 52 30 41"
      /><rect x="30" y="30" width="22" style="clip-path:url(#clipPath5); fill:rgb(165,67,153); stroke:none;" height="22"
      /><rect x="30" y="30" width="22" style="clip-path:url(#clipPath5); fill:none; stroke:black;" height="22"
      /><polygon style="fill:none; stroke:black;" points=" 41 30 52 41 41 52 30 41"
      /><rect x="71" y="44" width="6" style="stroke:none;" height="10"
    /></g
    ><g style="font-family:'Serif'; text-rendering:optimizeSpeed; "
    ><path style="stroke:none;" d="M73.2344 45.6562 C73.5156 45.5938 73.7656 45.5625 74.0156 45.5625 C75.0625 45.5625 75.6719 46.1719 75.6719 47.2656 C75.6719 48.4375 74.9062 49.1094 73.7031 49.1094 L73.1875 49.1094 L73.1875 49.6406 L73.7969 49.6406 C75.2188 49.6406 75.9062 50.4219 75.9062 51.6406 C75.9062 52.8438 75.1719 53.6875 73.875 53.6875 C73.6094 53.6875 73.3125 53.6562 73.0156 53.5625 L72.7812 52.8125 C72.625 52.2812 72.5 52.0469 72.1406 52.0469 C71.8906 52.0469 71.7031 52.1719 71.5781 52.4219 C71.8438 53.6406 72.7812 54.1719 74.0312 54.1719 C75.7188 54.1719 76.875 53.125 76.875 51.7031 C76.875 50.5 76.2031 49.625 74.7969 49.375 C75.9531 49.0156 76.6094 48.2031 76.6094 47.2031 C76.6094 45.9219 75.6719 45.0781 74.1875 45.0781 C73.0469 45.0781 72.0625 45.5938 71.7969 46.6875 C71.9062 47 72.1094 47.1094 72.3594 47.1094 C72.7344 47.1094 72.8906 46.8906 73 46.4062 L73.2344 45.6562 Z"
      /><rect x="56" y="45" width="8" style="fill:white; stroke:none;" height="8"
      /><path style="stroke:none;" d="M60.9844 50.7031 C60.9375 51.8906 60.1562 52.6562 59.3125 52.6562 C58.2656 52.6562 57.5 51.6875 57.5 49.7188 C57.5 48.2812 58.1562 47.1562 59.3438 47.1562 C60.1406 47.1562 60.7812 47.6875 61.0938 48.6406 L60.9844 50.7031 ZM62.9062 52.2812 C62.7344 52.375 62.5469 52.4219 62.3438 52.4219 C61.9531 52.4219 61.75 52.2188 61.75 51.4219 C61.75 50.4844 61.9688 48.5312 62.1875 46.8281 L62.0312 46.7188 L61.2344 46.9219 L61.1406 47.7969 C60.7812 47.0312 60.1562 46.6562 59.3906 46.6562 C58.0469 46.6562 56.5625 47.8438 56.5625 49.9531 C56.5625 52.0938 57.7188 53.1719 59.1406 53.1719 C60.0156 53.1719 60.6875 52.8125 61.0938 51.9844 C61.2031 52.8594 61.5156 53.1719 62.0156 53.1719 C62.4688 53.1719 62.7969 52.9062 63.0156 52.5625 L62.9062 52.2812 Z"
      /><rect x="127" y="78" width="6" style="fill:white; stroke:none;" height="10"
      /><path style="stroke:none;" d="M129.2344 79.6562 C129.5156 79.5938 129.7656 79.5625 130.0156 79.5625 C131.0625 79.5625 131.6719 80.1719 131.6719 81.2656 C131.6719 82.4375 130.9062 83.1094 129.7031 83.1094 L129.1875 83.1094 L129.1875 83.6406 L129.7969 83.6406 C131.2188 83.6406 131.9062 84.4219 131.9062 85.6406 C131.9062 86.8438 131.1719 87.6875 129.875 87.6875 C129.6094 87.6875 129.3125 87.6562 129.0156 87.5625 L128.7812 86.8125 C128.625 86.2812 128.5 86.0469 128.1406 86.0469 C127.8906 86.0469 127.7031 86.1719 127.5781 86.4219 C127.8438 87.6406 128.7812 88.1719 130.0312 88.1719 C131.7188 88.1719 132.875 87.125 132.875 85.7031 C132.875 84.5 132.2031 83.625 130.7969 83.375 C131.9531 83.0156 132.6094 82.2031 132.6094 81.2031 C132.6094 79.9219 131.6719 79.0781 130.1875 79.0781 C129.0469 79.0781 128.0625 79.5938 127.7969 80.6875 C127.9062 81 128.1094 81.1094 128.3594 81.1094 C128.7344 81.1094 128.8906 80.8906 129 80.4062 L129.2344 79.6562 Z"
      /><rect x="110" y="87" width="8" style="fill:white; stroke:none;" height="8"
      /><path style="stroke:none;" d="M114.9844 92.7031 C114.9375 93.8906 114.1562 94.6562 113.3125 94.6562 C112.2656 94.6562 111.5 93.6875 111.5 91.7188 C111.5 90.2812 112.1562 89.1562 113.3438 89.1562 C114.1406 89.1562 114.7812 89.6875 115.0938 90.6406 L114.9844 92.7031 ZM116.9062 94.2812 C116.7344 94.375 116.5469 94.4219 116.3438 94.4219 C115.9531 94.4219 115.75 94.2188 115.75 93.4219 C115.75 92.4844 115.9688 90.5312 116.1875 88.8281 L116.0312 88.7188 L115.2344 88.9219 L115.1406 89.7969 C114.7812 89.0312 114.1562 88.6562 113.3906 88.6562 C112.0469 88.6562 110.5625 89.8438 110.5625 91.9531 C110.5625 94.0938 111.7188 95.1719 113.1406 95.1719 C114.0156 95.1719 114.6875 94.8125 115.0938 93.9844 C115.2031 94.8594 115.5156 95.1719 116.0156 95.1719 C116.4688 95.1719 116.7969 94.9062 117.0156 94.5625 L116.9062 94.2812 Z"
      /><rect x="119" y="60" width="7" style="fill:white; stroke:none;" height="9"
      /><path style="stroke:none;" d="M120 65.5156 L122.9531 61.2656 L122.9531 65.5156 L120 65.5156 ZM125.2812 65.5156 L123.8594 65.5156 L123.8594 60.125 L123.2344 60.125 L119.3438 65.6406 L119.3438 66.1875 L122.9531 66.1875 L122.9531 69 L123.8594 69 L123.8594 66.1875 L125.2812 66.1875 L125.2812 65.5156 Z"
      /><rect x="104" y="50" width="6" style="fill:white; stroke:none;" height="13"
      /><path style="stroke:none;" d="M106.0938 56.2031 C106.0938 54.6562 106.75 53.8125 107.7969 53.8125 C108.7188 53.8125 109.2656 54.4531 109.2656 55.5156 C109.2656 56.7188 108.5 57.4375 107.1875 57.7031 L107.2969 58.3125 C109.2188 58.2344 109.9375 59.2188 109.9375 60.4375 C109.9375 61.625 109.2344 62.4219 107.9531 62.4219 C107.25 62.4219 106.6562 62.1562 106.0938 61.7188 L106.0938 56.2031 ZM105.2031 62.9062 L105.1094 65.375 L105.2656 65.4844 L106.1562 65.2656 L106.0156 62.0938 C106.5469 62.8438 107.3594 63.1719 108.1719 63.1719 C109.5625 63.1719 110.8594 62.2188 110.8594 60.4844 C110.8594 58.9531 109.875 58.1094 108.125 58 C109.5625 57.6094 110.1875 56.4531 110.1875 55.4844 C110.1875 54.0938 109.1562 53.3125 107.9062 53.3125 C106.2969 53.3125 105.2188 54.5469 105.2188 56.5156 L105.2031 62.9062 Z"
      /><rect x="175" y="70" width="6" style="fill:white; stroke:none;" height="10"
      /><path style="stroke:none;" d="M177.2344 71.6562 C177.5156 71.5938 177.7656 71.5625 178.0156 71.5625 C179.0625 71.5625 179.6719 72.1719 179.6719 73.2656 C179.6719 74.4375 178.9062 75.1094 177.7031 75.1094 L177.1875 75.1094 L177.1875 75.6406 L177.7969 75.6406 C179.2188 75.6406 179.9062 76.4219 179.9062 77.6406 C179.9062 78.8438 179.1719 79.6875 177.875 79.6875 C177.6094 79.6875 177.3125 79.6562 177.0156 79.5625 L176.7812 78.8125 C176.625 78.2812 176.5 78.0469 176.1406 78.0469 C175.8906 78.0469 175.7031 78.1719 175.5781 78.4219 C175.8438 79.6406 176.7812 80.1719 178.0312 80.1719 C179.7188 80.1719 180.875 79.125 180.875 77.7031 C180.875 76.5 180.2031 75.625 178.7969 75.375 C179.9531 75.0156 180.6094 74.2031 180.6094 73.2031 C180.6094 71.9219 179.6719 71.0781 178.1875 71.0781 C177.0469 71.0781 176.0625 71.5938 175.7969 72.6875 C175.9062 73 176.1094 73.1094 176.3594 73.1094 C176.7344 73.1094 176.8906 72.8906 177 72.4062 L177.2344 71.6562 Z"
      /><rect x="161" y="68" width="6" style="fill:white; stroke:none;" height="13"
      /><path style="stroke:none;" d="M163.0938 74.2031 C163.0938 72.6562 163.75 71.8125 164.7969 71.8125 C165.7188 71.8125 166.2656 72.4531 166.2656 73.5156 C166.2656 74.7188 165.5 75.4375 164.1875 75.7031 L164.2969 76.3125 C166.2188 76.2344 166.9375 77.2188 166.9375 78.4375 C166.9375 79.625 166.2344 80.4219 164.9531 80.4219 C164.25 80.4219 163.6562 80.1562 163.0938 79.7188 L163.0938 74.2031 ZM162.2031 80.9062 L162.1094 83.375 L162.2656 83.4844 L163.1562 83.2656 L163.0156 80.0938 C163.5469 80.8438 164.3594 81.1719 165.1719 81.1719 C166.5625 81.1719 167.8594 80.2188 167.8594 78.4844 C167.8594 76.9531 166.875 76.1094 165.125 76 C166.5625 75.6094 167.1875 74.4531 167.1875 73.4844 C167.1875 72.0938 166.1562 71.3125 164.9062 71.3125 C163.2969 71.3125 162.2188 72.5469 162.2188 74.5156 L162.2031 80.9062 Z"
      /><rect x="213" y="68" width="6" style="fill:white; stroke:none;" height="13"
      /><path style="stroke:none;" d="M215.0938 74.2031 C215.0938 72.6562 215.75 71.8125 216.7969 71.8125 C217.7188 71.8125 218.2656 72.4531 218.2656 73.5156 C218.2656 74.7188 217.5 75.4375 216.1875 75.7031 L216.2969 76.3125 C218.2188 76.2344 218.9375 77.2188 218.9375 78.4375 C218.9375 79.625 218.2344 80.4219 216.9531 80.4219 C216.25 80.4219 215.6562 80.1562 215.0938 79.7188 L215.0938 74.2031 ZM214.2031 80.9062 L214.1094 83.375 L214.2656 83.4844 L215.1562 83.2656 L215.0156 80.0938 C215.5469 80.8438 216.3594 81.1719 217.1719 81.1719 C218.5625 81.1719 219.8594 80.2188 219.8594 78.4844 C219.8594 76.9531 218.875 76.1094 217.125 76 C218.5625 75.6094 219.1875 74.4531 219.1875 73.4844 C219.1875 72.0938 218.1562 71.3125 216.9062 71.3125 C215.2969 71.3125 214.2188 72.5469 214.2188 74.5156 L214.2031 80.9062 Z"
    /></g
  ></g
></svg
>
