<?xml version="1.0"?>
<!DOCTYPE svg PUBLIC '-//W3C//DTD SVG 1.0//EN'
          'http://www.w3.org/TR/2001/REC-SVG-20010904/DTD/svg10.dtd'>
<svg xmlns:xlink="http://www.w3.org/1999/xlink" style="fill-opacity:1; color-rendering:auto; color-interpolation:auto; text-rendering:auto; stroke:black; stroke-linecap:square; stroke-miterlimit:10; shape-rendering:auto; stroke-opacity:1; fill:black; stroke-dasharray:none; font-weight:normal; stroke-width:1; font-family:'Dialog'; font-style:normal; stroke-linejoin:miter; font-size:12px; stroke-dashoffset:0; image-rendering:auto;" viewBox="0 0 446 157" xmlns="http://www.w3.org/2000/svg"
><!--Generated by the Batik Graphics2D SVG Generator--><defs id="genericDefs"
  /><g
  ><defs id="defs1"
    ><clipPath clipPathUnits="userSpaceOnUse" id="clipPath1"
      ><path style="fill-rule:evenodd;" d="M347 45 L353 45 L353 89 L347 89 L353 89 L353 45 Z"
      /></clipPath
      ><clipPath clipPathUnits="userSpaceOnUse" id="clipPath2"
      ><path d="M312 67 C312 73.0751 307.0751 78 301 78 C294.9249 78 290 73.0751 290 67 C290 60.9249 294.9249 56 301 56 C307.0751 56 312 60.9249 312 67 Z"
      /></clipPath
      ><clipPath clipPathUnits="userSpaceOnUse" id="clipPath3"
      ><path d="M238 56 L260 56 L260 78 L238 78 L238 56 Z"
      /></clipPath
      ><clipPath clipPathUnits="userSpaceOnUse" id="clipPath4"
      ><path d="M186 56 L208 56 L208 78 L186 78 L186 56 Z"
      /></clipPath
      ><clipPath clipPathUnits="userSpaceOnUse" id="clipPath5"
      ><path d="M134 82 L156 82 L156 104 L134 104 L134 82 Z"
      /></clipPath
      ><clipPath clipPathUnits="userSpaceOnUse" id="clipPath6"
      ><path style="fill-rule:evenodd;" d="M46 115 L41 115 L40 71 L46 71 L40 71 L41 115 Z"
      /></clipPath
      ><clipPath clipPathUnits="userSpaceOnUse" id="clipPath7"
      ><path d="M156 41 C156 47.0751 151.0751 52 145 52 C138.9249 52 134 47.0751 134 41 C134 34.9249 138.9249 30 145 30 C151.0751 30 156 34.9249 156 41 Z"
      /></clipPath
    ></defs
    ><g style="fill:white; text-rendering:optimizeSpeed; stroke:white;"
    ><rect x="0" width="446" height="157" y="0" style="stroke:none;"
      /><polygon style="fill:none; stroke:black;" points=" 405 67 353 67"
      /><path d="M405 56 C399.5 61.5 410.5 72.5 405 78" style="fill:none; stroke:black;"
      /><polygon style="fill:none; stroke:black;" points=" 353 67 301 67"
      /><polygon style="clip-path:url(#clipPath1); stroke:none;" points=" 347 45 353 45 353 89 347 89 353 89 353 45"
      /><rect x="342" y="33" width="22" style="clip-path:url(#clipPath1); fill:black; stroke:none;" height="68"
      /><rect x="342" y="33" width="22" style="clip-path:url(#clipPath1); fill:none; stroke:black;" height="68"
      /><polygon style="fill:none; stroke:black;" points=" 347 45 353 45 353 89 347 89 353 89 353 45"
      /><polygon style="fill:none; stroke:black;" points=" 301 67 249 67"
      /><circle style="clip-path:url(#clipPath2); stroke:none;" r="11" cx="301" cy="67"
      /><rect x="290" y="56" width="22" style="clip-path:url(#clipPath2); fill:rgb(0,144,188); stroke:none;" height="22"
      /><rect x="290" y="56" width="22" style="clip-path:url(#clipPath2); fill:none; stroke:black;" height="22"
      /><circle style="fill:none; stroke:black;" r="11" cx="301" cy="67"
      /><polygon style="fill:none; stroke:black;" points=" 249 67 197 67"
      /><rect x="238" y="56" width="22" style="clip-path:url(#clipPath3); stroke:none;" height="22"
      /><rect x="238" y="56" width="22" style="clip-path:url(#clipPath3); fill:rgb(255,212,0); stroke:none;" height="22"
      /><rect x="238" y="56" width="22" style="clip-path:url(#clipPath3); fill:none; stroke:black;" height="22"
      /><rect x="238" y="56" width="22" style="fill:none; stroke:black;" height="22"
      /><polygon style="fill:none; stroke:black;" points=" 197 67 145 93"
      /><polygon style="fill:none; stroke:black;" points=" 197 67 145 41"
      /><rect x="186" y="56" width="22" style="clip-path:url(#clipPath4); stroke:none;" height="22"
      /><rect x="186" y="56" width="22" style="clip-path:url(#clipPath4); fill:rgb(255,212,0); stroke:none;" height="22"
      /><rect x="186" y="56" width="22" style="clip-path:url(#clipPath4); fill:none; stroke:black;" height="22"
      /><rect x="186" y="56" width="22" style="fill:none; stroke:black;" height="22"
      /><polygon style="fill:none; stroke:black;" points=" 145 93 93 93"
      /><rect x="134" y="82" width="22" style="clip-path:url(#clipPath5); stroke:none;" height="22"
      /><rect x="134" y="82" width="22" style="clip-path:url(#clipPath5); fill:rgb(0,144,188); stroke:none;" height="22"
      /><rect x="134" y="82" width="22" style="clip-path:url(#clipPath5); fill:none; stroke:black;" height="22"
      /><rect x="134" y="82" width="22" style="fill:none; stroke:black;" height="22"
      /><polygon style="fill:none; stroke:black;" points=" 93 93 41 93"
      /><rect x="89" y="87" width="6" style="stroke:none;" height="10"
    /></g
    ><g style="text-rendering:optimizeSpeed; font-size:14px; font-family:'SansSerif';"
    ><path style="stroke:none;" d="M90.4062 98 L91.7031 98 L91.7031 93.9219 L93.3906 93.9219 C95.6562 93.9219 97.1719 92.9219 97.1719 90.75 C97.1719 88.5156 95.6406 87.7188 93.3438 87.7188 L90.4062 87.7188 L90.4062 98 ZM91.7031 92.875 L91.7031 88.7812 L93.1719 88.7812 C94.9844 88.7812 95.8906 89.2656 95.8906 90.75 C95.8906 92.2188 95.0312 92.875 93.2344 92.875 L91.7031 92.875 Z"
    /></g
    ><g style="fill:white; text-rendering:optimizeSpeed; stroke:white;"
    ><polygon style="stroke:none; clip-path:url(#clipPath6);" points=" 46 115 41 115 40 71 46 71 40 71 41 115"
      /><rect x="30" y="59" width="22" style="clip-path:url(#clipPath6); fill:black; stroke:none;" height="68"
      /><rect x="30" y="59" width="22" style="clip-path:url(#clipPath6); fill:none; stroke:black;" height="68"
      /><polygon style="fill:none; stroke:black;" points=" 46 115 41 115 40 71 46 71 40 71 41 115"
      /><path d="M43.5469 124.9531 C43.5156 124.2969 43.5 123.3906 43.5 122.7656 L43.5 121.5156 C43.5 119.8281 42.9531 119.1562 41.8594 119.1562 C41.0625 119.1562 40.1562 119.625 39.4531 120.4062 L39.3594 119.2969 L39.2031 119.1719 L37.4688 119.8125 L37.4688 120.2031 L38.5312 120.2812 C38.5625 120.8438 38.5781 121.3438 38.5781 122.1094 L38.5781 122.7656 C38.5781 123.375 38.5781 124.2969 38.5469 124.9688 L37.5469 125.1094 L37.5469 125.5 L40.4688 125.5 L40.4688 125.1094 L39.5156 124.9531 C39.5156 124.2969 39.5 123.375 39.5 122.7656 L39.5 120.875 C40.2656 120.1562 40.875 119.9062 41.4688 119.9062 C42.2344 119.9062 42.5938 120.3125 42.5938 121.5625 L42.5938 122.7656 C42.5938 123.3906 42.5781 124.3125 42.5625 124.9688 L41.5469 125.1094 L41.5469 125.5 L44.4844 125.5 L44.4844 125.1094 L43.5469 124.9531 Z" style="fill:black; stroke:none;"
      /><rect x="71" width="5" height="9" y="96" style="stroke:none;"
      /><path d="M74.8594 104.3906 C74.8594 103.6719 74.8438 102.9531 74.8438 102.25 L74.8438 98.1406 L74.8906 96.2656 L74.7031 96.125 L72.1094 96.7969 L72.1094 97.2344 L73.9219 97.0312 L73.9219 102.25 C73.9219 102.9531 73.9062 103.6719 73.8906 104.3906 L72 104.6094 L72 105 L76.7344 105 L76.7344 104.6094 L74.8594 104.3906 Z" style="fill:black; stroke:none;"
      /><rect x="123" width="6" height="10" y="96" style="stroke:none;"
      /><path d="M126.3438 105.6875 C125.2031 105.6875 124.5312 104.5 124.5312 102.2969 C124.5312 102.2188 124.5312 102.125 124.5312 102.0469 C125.0938 101.5 125.7188 101.3125 126.3438 101.3125 C127.3125 101.3125 127.9531 101.9844 127.9531 103.4531 C127.9531 104.9375 127.3125 105.6875 126.3438 105.6875 ZM128.5312 97.0781 C125.3438 97.4531 123.5625 99.7656 123.5625 102.4531 C123.5625 104.7812 124.6094 106.1719 126.3125 106.1719 C127.8438 106.1719 128.9219 105.1094 128.9219 103.2812 C128.9219 101.6875 127.9688 100.6562 126.5625 100.6562 C125.8281 100.6562 125.1406 100.9844 124.5781 101.5781 C124.7969 99.4062 126.0781 97.9688 128.5938 97.3906 L128.5312 97.0781 Z" style="fill:black; stroke:none;"
      /><circle r="11" style="clip-path:url(#clipPath7); stroke:none;" cx="145" cy="41"
      /><rect x="134" y="30" width="22" style="clip-path:url(#clipPath7); fill:rgb(0,144,188); stroke:none;" height="22"
      /><rect x="134" y="30" width="22" style="clip-path:url(#clipPath7); fill:none; stroke:black;" height="22"
      /><circle r="11" style="fill:none; stroke:black;" cx="145" cy="41"
      /><rect x="178" width="7" height="9" y="78" style="stroke:none;"
      /><path d="M179 83.5156 L181.9531 79.2656 L181.9531 83.5156 L179 83.5156 ZM184.2812 83.5156 L182.8594 83.5156 L182.8594 78.125 L182.2344 78.125 L178.3438 83.6406 L178.3438 84.1875 L181.9531 84.1875 L181.9531 87 L182.8594 87 L182.8594 84.1875 L184.2812 84.1875 L184.2812 83.5156 Z" style="fill:black; stroke:none;"
      /><rect x="162" width="8" height="8" y="87" style="stroke:none;"
      /><path d="M166.9844 92.7031 C166.9375 93.8906 166.1562 94.6562 165.3125 94.6562 C164.2656 94.6562 163.5 93.6875 163.5 91.7188 C163.5 90.2812 164.1562 89.1562 165.3438 89.1562 C166.1406 89.1562 166.7812 89.6875 167.0938 90.6406 L166.9844 92.7031 ZM168.9062 94.2812 C168.7344 94.375 168.5469 94.4219 168.3438 94.4219 C167.9531 94.4219 167.75 94.2188 167.75 93.4219 C167.75 92.4844 167.9688 90.5312 168.1875 88.8281 L168.0312 88.7188 L167.2344 88.9219 L167.1406 89.7969 C166.7812 89.0312 166.1562 88.6562 165.3906 88.6562 C164.0469 88.6562 162.5625 89.8438 162.5625 91.9531 C162.5625 94.0938 163.7188 95.1719 165.1406 95.1719 C166.0156 95.1719 166.6875 94.8125 167.0938 93.9844 C167.2031 94.8594 167.5156 95.1719 168.0156 95.1719 C168.4688 95.1719 168.7969 94.9062 169.0156 94.5625 L168.9062 94.2812 Z" style="fill:black; stroke:none;"
      /><rect x="172" width="6" height="10" y="60" style="stroke:none;"
      /><path d="M175.3438 69.6875 C174.2031 69.6875 173.5312 68.5 173.5312 66.2969 C173.5312 66.2188 173.5312 66.125 173.5312 66.0469 C174.0938 65.5 174.7188 65.3125 175.3438 65.3125 C176.3125 65.3125 176.9531 65.9844 176.9531 67.4531 C176.9531 68.9375 176.3125 69.6875 175.3438 69.6875 ZM177.5312 61.0781 C174.3438 61.4531 172.5625 63.7656 172.5625 66.4531 C172.5625 68.7812 173.6094 70.1719 175.3125 70.1719 C176.8438 70.1719 177.9219 69.1094 177.9219 67.2812 C177.9219 65.6875 176.9688 64.6562 175.5625 64.6562 C174.8281 64.6562 174.1406 64.9844 173.5781 65.5781 C173.7969 63.4062 175.0781 61.9688 177.5938 61.3906 L177.5312 61.0781 Z" style="fill:black; stroke:none;"
      /><rect x="155" width="8" height="8" y="53" style="stroke:none;"
      /><path d="M159.9844 58.7031 C159.9375 59.8906 159.1562 60.6562 158.3125 60.6562 C157.2656 60.6562 156.5 59.6875 156.5 57.7188 C156.5 56.2812 157.1562 55.1562 158.3438 55.1562 C159.1406 55.1562 159.7812 55.6875 160.0938 56.6406 L159.9844 58.7031 ZM161.9062 60.2812 C161.7344 60.375 161.5469 60.4219 161.3438 60.4219 C160.9531 60.4219 160.75 60.2188 160.75 59.4219 C160.75 58.4844 160.9688 56.5312 161.1875 54.8281 L161.0312 54.7188 L160.2344 54.9219 L160.1406 55.7969 C159.7812 55.0312 159.1562 54.6562 158.3906 54.6562 C157.0469 54.6562 155.5625 55.8438 155.5625 57.9531 C155.5625 60.0938 156.7188 61.1719 158.1406 61.1719 C159.0156 61.1719 159.6875 60.8125 160.0938 59.9844 C160.2031 60.8594 160.5156 61.1719 161.0156 61.1719 C161.4688 61.1719 161.7969 60.9062 162.0156 60.5625 L161.9062 60.2812 Z" style="fill:black; stroke:none;"
      /><rect x="227" width="6" height="10" y="70" style="stroke:none;"
      /><path d="M229.2344 71.6562 C229.5156 71.5938 229.7656 71.5625 230.0156 71.5625 C231.0625 71.5625 231.6719 72.1719 231.6719 73.2656 C231.6719 74.4375 230.9062 75.1094 229.7031 75.1094 L229.1875 75.1094 L229.1875 75.6406 L229.7969 75.6406 C231.2188 75.6406 231.9062 76.4219 231.9062 77.6406 C231.9062 78.8438 231.1719 79.6875 229.875 79.6875 C229.6094 79.6875 229.3125 79.6562 229.0156 79.5625 L228.7812 78.8125 C228.625 78.2812 228.5 78.0469 228.1406 78.0469 C227.8906 78.0469 227.7031 78.1719 227.5781 78.4219 C227.8438 79.6406 228.7812 80.1719 230.0312 80.1719 C231.7188 80.1719 232.875 79.125 232.875 77.7031 C232.875 76.5 232.2031 75.625 230.7969 75.375 C231.9531 75.0156 232.6094 74.2031 232.6094 73.2031 C232.6094 71.9219 231.6719 71.0781 230.1875 71.0781 C229.0469 71.0781 228.0625 71.5938 227.7969 72.6875 C227.9062 73 228.1094 73.1094 228.3594 73.1094 C228.7344 73.1094 228.8906 72.8906 229 72.4062 L229.2344 71.6562 Z" style="fill:black; stroke:none;"
      /><rect x="212" width="8" height="8" y="71" style="stroke:none;"
      /><path d="M216.9844 76.7031 C216.9375 77.8906 216.1562 78.6562 215.3125 78.6562 C214.2656 78.6562 213.5 77.6875 213.5 75.7188 C213.5 74.2812 214.1562 73.1562 215.3438 73.1562 C216.1406 73.1562 216.7812 73.6875 217.0938 74.6406 L216.9844 76.7031 ZM218.9062 78.2812 C218.7344 78.375 218.5469 78.4219 218.3438 78.4219 C217.9531 78.4219 217.75 78.2188 217.75 77.4219 C217.75 76.4844 217.9688 74.5312 218.1875 72.8281 L218.0312 72.7188 L217.2344 72.9219 L217.1406 73.7969 C216.7812 73.0312 216.1562 72.6562 215.3906 72.6562 C214.0469 72.6562 212.5625 73.8438 212.5625 75.9531 C212.5625 78.0938 213.7188 79.1719 215.1406 79.1719 C216.0156 79.1719 216.6875 78.8125 217.0938 77.9844 C217.2031 78.8594 217.5156 79.1719 218.0156 79.1719 C218.4688 79.1719 218.7969 78.9062 219.0156 78.5625 L218.9062 78.2812 Z" style="fill:black; stroke:none;"
      /><rect x="279" width="6" height="9" y="70" style="stroke:none;"
      /><path d="M280.4219 78.0938 C281.0781 77.375 281.7031 76.7188 282.0312 76.3438 C283.9219 74.3125 284.5312 73.4688 284.5312 72.3594 C284.5312 71.0156 283.7812 70.0781 282.1562 70.0781 C280.9062 70.0781 279.7969 70.7031 279.5938 71.9688 C279.7188 72.2031 279.9062 72.3438 280.1562 72.3438 C280.4688 72.3438 280.6562 72.1094 280.7969 71.5938 L281.0938 70.6719 C281.3906 70.5938 281.6562 70.5625 281.8906 70.5625 C282.9219 70.5625 283.5469 71.3125 283.5469 72.4219 C283.5469 73.4375 282.9844 74.4219 281.7031 75.9062 C281.125 76.5781 280.3906 77.4375 279.6406 78.2812 L279.6406 79 L284.9219 79 L284.9219 78.0938 L280.4219 78.0938 Z" style="fill:black; stroke:none;"
      /><rect x="265" width="6" height="13" y="68" style="stroke:none;"
      /><path d="M267.0938 74.2031 C267.0938 72.6562 267.75 71.8125 268.7969 71.8125 C269.7188 71.8125 270.2656 72.4531 270.2656 73.5156 C270.2656 74.7188 269.5 75.4375 268.1875 75.7031 L268.2969 76.3125 C270.2188 76.2344 270.9375 77.2188 270.9375 78.4375 C270.9375 79.625 270.2344 80.4219 268.9531 80.4219 C268.25 80.4219 267.6562 80.1562 267.0938 79.7188 L267.0938 74.2031 ZM266.2031 80.9062 L266.1094 83.375 L266.2656 83.4844 L267.1562 83.2656 L267.0156 80.0938 C267.5469 80.8438 268.3594 81.1719 269.1719 81.1719 C270.5625 81.1719 271.8594 80.2188 271.8594 78.4844 C271.8594 76.9531 270.875 76.1094 269.125 76 C270.5625 75.6094 271.1875 74.4531 271.1875 73.4844 C271.1875 72.0938 270.1562 71.3125 268.9062 71.3125 C267.2969 71.3125 266.2188 72.5469 266.2188 74.5156 L266.2031 80.9062 Z" style="fill:black; stroke:none;"
      /><rect x="316" width="8" height="8" y="71" style="stroke:none;"
      /><path d="M320.9844 76.7031 C320.9375 77.8906 320.1562 78.6562 319.3125 78.6562 C318.2656 78.6562 317.5 77.6875 317.5 75.7188 C317.5 74.2812 318.1562 73.1562 319.3438 73.1562 C320.1406 73.1562 320.7812 73.6875 321.0938 74.6406 L320.9844 76.7031 ZM322.9062 78.2812 C322.7344 78.375 322.5469 78.4219 322.3438 78.4219 C321.9531 78.4219 321.75 78.2188 321.75 77.4219 C321.75 76.4844 321.9688 74.5312 322.1875 72.8281 L322.0312 72.7188 L321.2344 72.9219 L321.1406 73.7969 C320.7812 73.0312 320.1562 72.6562 319.3906 72.6562 C318.0469 72.6562 316.5625 73.8438 316.5625 75.9531 C316.5625 78.0938 317.7188 79.1719 319.1406 79.1719 C320.0156 79.1719 320.6875 78.8125 321.0938 77.9844 C321.2031 78.8594 321.5156 79.1719 322.0156 79.1719 C322.4688 79.1719 322.7969 78.9062 323.0156 78.5625 L322.9062 78.2812 Z" style="fill:black; stroke:none;"
    /></g
  ></g
></svg
>
