<?xml version="1.0"?>
<!DOCTYPE svg PUBLIC '-//W3C//DTD SVG 1.0//EN'
          'http://www.w3.org/TR/2001/REC-SVG-20010904/DTD/svg10.dtd'>
<svg xmlns:xlink="http://www.w3.org/1999/xlink" style="fill-opacity:1; color-rendering:auto; color-interpolation:auto; text-rendering:auto; stroke:black; stroke-linecap:square; stroke-miterlimit:10; shape-rendering:auto; stroke-opacity:1; fill:black; stroke-dasharray:none; font-weight:normal; stroke-width:1; font-family:'Dialog'; font-style:normal; stroke-linejoin:miter; font-size:12px; stroke-dashoffset:0; image-rendering:auto;" viewBox="0 0 472 128" xmlns="http://www.w3.org/2000/svg"
><!--Generated by the Batik Graphics2D SVG Generator--><defs id="genericDefs"
  /><g
  ><defs id="defs1"
    ><clipPath clipPathUnits="userSpaceOnUse" id="clipPath1"
      ><path d="M378 64 C378 70.0751 373.0751 75 367 75 C360.9249 75 356 70.0751 356 64 C356 57.9249 360.9249 53 367 53 C373.0751 53 378 57.9249 378 64 Z"
      /></clipPath
      ><clipPath clipPathUnits="userSpaceOnUse" id="clipPath2"
      ><path style="fill-rule:evenodd;" d="M290 53 L301 64 L290 75 L279 64 Z"
      /></clipPath
      ><clipPath clipPathUnits="userSpaceOnUse" id="clipPath3"
      ><path d="M223 64 C223 70.0751 218.0751 75 212 75 C205.9249 75 201 70.0751 201 64 C201 57.9249 205.9249 53 212 53 C218.0751 53 223 57.9249 223 64 Z"
      /></clipPath
      ><clipPath clipPathUnits="userSpaceOnUse" id="clipPath4"
      ><path style="fill-rule:evenodd;" d="M132 53 L143 64 L132 75 L121 64 Z"
      /></clipPath
      ><clipPath clipPathUnits="userSpaceOnUse" id="clipPath5"
      ><path d="M63 64 C63 70.0751 58.0751 75 52 75 C45.9249 75 41 70.0751 41 64 C41 57.9249 45.9249 53 52 53 C58.0751 53 63 57.9249 63 64 Z"
      /></clipPath
    ></defs
    ><g style="fill:white; text-rendering:optimizeSpeed; stroke:white;"
    ><rect x="0" width="472" height="128" y="0" style="stroke:none;"
      /><polygon style="fill:none; stroke:black;" points=" 431 64 367 64"
      /><path d="M431 53 C425.5 58.5 436.5 69.5 431 75" style="fill:none; stroke:black;"
      /><polygon style="fill:none; stroke:black;" points=" 367 64 290 64"
      /><circle style="clip-path:url(#clipPath1); stroke:none;" r="11" cx="367" cy="64"
      /><rect x="356" y="53" width="22" style="clip-path:url(#clipPath1); fill:rgb(0,144,188); stroke:none;" height="22"
      /><rect x="356" y="53" width="22" style="clip-path:url(#clipPath1); fill:none; stroke:black;" height="22"
      /><circle style="fill:none; stroke:black;" r="11" cx="367" cy="64"
      /><rect x="371" y="81" width="14" style="stroke:none;" height="10"
    /></g
    ><g style="text-rendering:optimizeSpeed; font-size:14px; font-family:'SansSerif';"
    ><path style="stroke:none;" d="M371.6094 92 L378.0625 92 L378.0625 90.8906 L375.2344 90.8906 C374.7031 90.8906 374.0781 90.9531 373.5469 90.9844 C375.9531 88.7031 377.5625 86.625 377.5625 84.5781 C377.5625 82.75 376.4219 81.5469 374.5781 81.5469 C373.2812 81.5469 372.4062 82.1406 371.5625 83.0469 L372.2969 83.7812 C372.8594 83.1094 373.5938 82.5938 374.4375 82.5938 C375.7031 82.5938 376.3125 83.4531 376.3125 84.625 C376.3125 86.3906 374.8438 88.4375 371.6094 91.25 L371.6094 92 ZM383.02 92.1875 C385.1606 92.1875 386.5043 90.8906 386.5043 89.2656 C386.5043 87.75 385.5825 87.0469 384.395 86.5312 L382.9262 85.8906 C382.1293 85.5625 381.2387 85.1875 381.2387 84.1875 C381.2387 83.2656 381.9887 82.6719 383.145 82.6719 C384.0981 82.6719 384.8637 83.0469 385.4887 83.6406 L386.1762 82.8125 C385.4418 82.0625 384.3637 81.5469 383.145 81.5469 C381.2856 81.5469 379.9106 82.6875 379.9106 84.2656 C379.9106 85.7656 381.0512 86.5 382.0043 86.9062 L383.4887 87.5469 C384.4575 87.9844 385.1918 88.3125 385.1918 89.375 C385.1918 90.375 384.3793 91.0469 383.0356 91.0469 C381.9731 91.0469 380.9418 90.5469 380.2075 89.7812 L379.4262 90.6562 C380.3168 91.5938 381.5668 92.1875 383.02 92.1875 Z"
      /><rect x="348" y="81" width="15" style="fill:white; stroke:none;" height="10"
      /><path style="stroke:none;" d="M351.7031 92.1875 C353.5156 92.1875 354.9844 91.0938 354.9844 89.25 C354.9844 87.8594 354.0156 86.9375 352.8125 86.6562 L352.8125 86.5938 C353.8906 86.1875 354.6406 85.3594 354.6406 84.125 C354.6406 82.5 353.375 81.5469 351.6562 81.5469 C350.4688 81.5469 349.5469 82.0625 348.7812 82.7812 L349.4688 83.5938 C350.0469 83 350.7656 82.5938 351.5938 82.5938 C352.6562 82.5938 353.3281 83.2344 353.3281 84.2188 C353.3281 85.3281 352.6094 86.1719 350.4844 86.1719 L350.4844 87.1562 C352.8594 87.1562 353.6875 87.9844 353.6875 89.2031 C353.6875 90.3906 352.8125 91.125 351.5938 91.125 C350.4375 91.125 349.6562 90.5781 349.0469 89.9375 L348.4062 90.7812 C349.0781 91.5156 350.0938 92.1875 351.7031 92.1875 ZM360.02 92.1875 C362.1606 92.1875 363.5043 90.8906 363.5043 89.2656 C363.5043 87.75 362.5825 87.0469 361.395 86.5312 L359.9262 85.8906 C359.1293 85.5625 358.2387 85.1875 358.2387 84.1875 C358.2387 83.2656 358.9887 82.6719 360.145 82.6719 C361.0981 82.6719 361.8637 83.0469 362.4887 83.6406 L363.1762 82.8125 C362.4418 82.0625 361.3637 81.5469 360.145 81.5469 C358.2856 81.5469 356.9106 82.6875 356.9106 84.2656 C356.9106 85.7656 358.0512 86.5 359.0043 86.9062 L360.4887 87.5469 C361.4575 87.9844 362.1918 88.3125 362.1918 89.375 C362.1918 90.375 361.3793 91.0469 360.0356 91.0469 C358.9731 91.0469 357.9418 90.5469 357.2075 89.7812 L356.4262 90.6562 C357.3168 91.5938 358.5668 92.1875 360.02 92.1875 Z"
      /><rect x="359" y="35" width="14" style="fill:white; stroke:none;" height="10"
      /><path style="stroke:none;" d="M363.1094 40.5781 C364.3438 40.5781 364.9688 41.4688 364.9688 42.8438 C364.9688 44.25 364.1875 45.1875 363.2188 45.1875 C361.9219 45.1875 361.1562 44.0312 361 41.8906 C361.625 40.9531 362.4531 40.5781 363.1094 40.5781 ZM363.2188 46.1875 C364.8125 46.1875 366.1562 44.8438 366.1562 42.8438 C366.1562 40.7031 365.0469 39.625 363.3125 39.625 C362.5 39.625 361.6094 40.1094 360.9688 40.875 C361.0312 37.6875 362.2188 36.6094 363.625 36.6094 C364.25 36.6094 364.8594 36.9062 365.2656 37.3906 L365.9688 36.5938 C365.4062 35.9844 364.6406 35.5469 363.5781 35.5469 C361.5938 35.5469 359.7812 37.0781 359.7812 41.0938 C359.7812 44.4844 361.2344 46.1875 363.2188 46.1875 ZM371.02 46.1875 C373.1606 46.1875 374.5043 44.8906 374.5043 43.2656 C374.5043 41.75 373.5825 41.0469 372.395 40.5312 L370.9262 39.8906 C370.1293 39.5625 369.2387 39.1875 369.2387 38.1875 C369.2387 37.2656 369.9887 36.6719 371.145 36.6719 C372.0981 36.6719 372.8637 37.0469 373.4887 37.6406 L374.1762 36.8125 C373.4418 36.0625 372.3637 35.5469 371.145 35.5469 C369.2856 35.5469 367.9106 36.6875 367.9106 38.2656 C367.9106 39.7656 369.0512 40.5 370.0043 40.9062 L371.4887 41.5469 C372.4575 41.9844 373.1918 42.3125 373.1918 43.375 C373.1918 44.375 372.3793 45.0469 371.0356 45.0469 C369.9731 45.0469 368.9418 44.5469 368.2075 43.7812 L367.4262 44.6562 C368.3168 45.5938 369.5668 46.1875 371.02 46.1875 Z"
      /><polygon style="fill:none;" points=" 290 64 212 64"
    /></g
    ><g style="fill:white; text-rendering:optimizeSpeed; stroke:white;"
    ><polygon style="stroke:none; clip-path:url(#clipPath2);" points=" 290 53 301 64 290 75 279 64"
      /><rect x="279" y="64" width="22" style="clip-path:url(#clipPath2); fill:rgb(161,122,77); stroke:none;" height="11"
      /><rect x="279" y="64" width="22" style="clip-path:url(#clipPath2); fill:none; stroke:black;" height="11"
      /><polygon style="fill:none; stroke:black;" points=" 290 53 301 64 290 75 279 64"
      /><rect x="296" width="14" height="10" y="81" style="stroke:none;"
    /></g
    ><g style="text-rendering:optimizeSpeed; font-size:14px; font-family:'SansSerif';"
    ><path style="stroke:none;" d="M296.6094 92 L303.0625 92 L303.0625 90.8906 L300.2344 90.8906 C299.7031 90.8906 299.0781 90.9531 298.5469 90.9844 C300.9531 88.7031 302.5625 86.625 302.5625 84.5781 C302.5625 82.75 301.4219 81.5469 299.5781 81.5469 C298.2812 81.5469 297.4062 82.1406 296.5625 83.0469 L297.2969 83.7812 C297.8594 83.1094 298.5938 82.5938 299.4375 82.5938 C300.7031 82.5938 301.3125 83.4531 301.3125 84.625 C301.3125 86.3906 299.8438 88.4375 296.6094 91.25 L296.6094 92 ZM308.02 92.1875 C310.1606 92.1875 311.5043 90.8906 311.5043 89.2656 C311.5043 87.75 310.5825 87.0469 309.395 86.5312 L307.9262 85.8906 C307.1293 85.5625 306.2387 85.1875 306.2387 84.1875 C306.2387 83.2656 306.9887 82.6719 308.145 82.6719 C309.0981 82.6719 309.8637 83.0469 310.4887 83.6406 L311.1762 82.8125 C310.4418 82.0625 309.3637 81.5469 308.145 81.5469 C306.2856 81.5469 304.9106 82.6875 304.9106 84.2656 C304.9106 85.7656 306.0512 86.5 307.0043 86.9062 L308.4887 87.5469 C309.4575 87.9844 310.1918 88.3125 310.1918 89.375 C310.1918 90.375 309.3793 91.0469 308.0356 91.0469 C306.9731 91.0469 305.9418 90.5469 305.2075 89.7812 L304.4262 90.6562 C305.3168 91.5938 306.5668 92.1875 308.02 92.1875 Z"
      /><rect x="265" y="81" width="25" style="fill:white; stroke:none;" height="10"
      /><path style="stroke:none;" d="M268.7031 92.1875 C270.5156 92.1875 271.9844 91.0938 271.9844 89.25 C271.9844 87.8594 271.0156 86.9375 269.8125 86.6562 L269.8125 86.5938 C270.8906 86.1875 271.6406 85.3594 271.6406 84.125 C271.6406 82.5 270.375 81.5469 268.6562 81.5469 C267.4688 81.5469 266.5469 82.0625 265.7812 82.7812 L266.4688 83.5938 C267.0469 83 267.7656 82.5938 268.5938 82.5938 C269.6562 82.5938 270.3281 83.2344 270.3281 84.2188 C270.3281 85.3281 269.6094 86.1719 267.4844 86.1719 L267.4844 87.1562 C269.8594 87.1562 270.6875 87.9844 270.6875 89.2031 C270.6875 90.3906 269.8125 91.125 268.5938 91.125 C267.4375 91.125 266.6562 90.5781 266.0469 89.9375 L265.4062 90.7812 C266.0781 91.5156 267.0938 92.1875 268.7031 92.1875 ZM274.1762 92 L275.3481 92 L275.3481 86.3125 C275.3481 85.4375 275.2543 84.1875 275.1918 83.2969 L275.2543 83.2969 L276.0668 85.625 L278.0043 90.9688 L278.8793 90.9688 L280.8168 85.625 L281.6293 83.2969 L281.6918 83.2969 C281.6137 84.1875 281.52 85.4375 281.52 86.3125 L281.52 92 L282.7387 92 L282.7387 81.7188 L281.1762 81.7188 L279.2075 87.2188 C278.9731 87.9375 278.7543 88.6562 278.5043 89.375 L278.4418 89.375 C278.1918 88.6562 277.9575 87.9375 277.7075 87.2188 L275.7387 81.7188 L274.1762 81.7188 L274.1762 92 ZM288.4973 92.1875 C289.5286 92.1875 290.3411 91.8281 291.0129 91.3906 L290.5442 90.5625 C289.9973 90.9375 289.3879 91.1562 288.6536 91.1562 C287.2004 91.1562 286.2161 90.125 286.1223 88.5 L291.2473 88.5 C291.2786 88.3125 291.3098 88.0469 291.3098 87.7656 C291.3098 85.6094 290.2161 84.2031 288.2786 84.2031 C286.5129 84.2031 284.8567 85.7344 284.8567 88.2031 C284.8567 90.7188 286.4817 92.1875 288.4973 92.1875 ZM286.1067 87.5781 C286.2629 86.0938 287.2161 85.2188 288.2942 85.2188 C289.4817 85.2188 290.1848 86.0469 290.1848 87.5781 L286.1067 87.5781 Z"
      /><polygon style="fill:none;" points=" 212 64 132 64"
    /></g
    ><g style="fill:white; text-rendering:optimizeSpeed; stroke:white;"
    ><circle r="11" style="clip-path:url(#clipPath3); stroke:none;" cx="212" cy="64"
      /><rect x="201" y="53" width="22" style="clip-path:url(#clipPath3); fill:rgb(0,144,188); stroke:none;" height="22"
      /><rect x="201" y="53" width="22" style="clip-path:url(#clipPath3); fill:none; stroke:black;" height="22"
      /><circle r="11" style="fill:none; stroke:black;" cx="212" cy="64"
      /><rect x="216" width="14" height="10" y="81" style="stroke:none;"
    /></g
    ><g style="text-rendering:optimizeSpeed; font-size:14px; font-family:'SansSerif';"
    ><path style="stroke:none;" d="M216.6094 92 L223.0625 92 L223.0625 90.8906 L220.2344 90.8906 C219.7031 90.8906 219.0781 90.9531 218.5469 90.9844 C220.9531 88.7031 222.5625 86.625 222.5625 84.5781 C222.5625 82.75 221.4219 81.5469 219.5781 81.5469 C218.2812 81.5469 217.4062 82.1406 216.5625 83.0469 L217.2969 83.7812 C217.8594 83.1094 218.5938 82.5938 219.4375 82.5938 C220.7031 82.5938 221.3125 83.4531 221.3125 84.625 C221.3125 86.3906 219.8438 88.4375 216.6094 91.25 L216.6094 92 ZM228.02 92.1875 C230.1606 92.1875 231.5043 90.8906 231.5043 89.2656 C231.5043 87.75 230.5825 87.0469 229.395 86.5312 L227.9262 85.8906 C227.1293 85.5625 226.2387 85.1875 226.2387 84.1875 C226.2387 83.2656 226.9887 82.6719 228.145 82.6719 C229.0981 82.6719 229.8637 83.0469 230.4887 83.6406 L231.1762 82.8125 C230.4418 82.0625 229.3637 81.5469 228.145 81.5469 C226.2856 81.5469 224.9106 82.6875 224.9106 84.2656 C224.9106 85.7656 226.0512 86.5 227.0043 86.9062 L228.4887 87.5469 C229.4575 87.9844 230.1918 88.3125 230.1918 89.375 C230.1918 90.375 229.3793 91.0469 228.0356 91.0469 C226.9731 91.0469 225.9418 90.5469 225.2075 89.7812 L224.4262 90.6562 C225.3168 91.5938 226.5668 92.1875 228.02 92.1875 Z"
      /><rect x="193" y="81" width="15" style="fill:white; stroke:none;" height="10"
      /><path style="stroke:none;" d="M196.7031 92.1875 C198.5156 92.1875 199.9844 91.0938 199.9844 89.25 C199.9844 87.8594 199.0156 86.9375 197.8125 86.6562 L197.8125 86.5938 C198.8906 86.1875 199.6406 85.3594 199.6406 84.125 C199.6406 82.5 198.375 81.5469 196.6562 81.5469 C195.4688 81.5469 194.5469 82.0625 193.7812 82.7812 L194.4688 83.5938 C195.0469 83 195.7656 82.5938 196.5938 82.5938 C197.6562 82.5938 198.3281 83.2344 198.3281 84.2188 C198.3281 85.3281 197.6094 86.1719 195.4844 86.1719 L195.4844 87.1562 C197.8594 87.1562 198.6875 87.9844 198.6875 89.2031 C198.6875 90.3906 197.8125 91.125 196.5938 91.125 C195.4375 91.125 194.6562 90.5781 194.0469 89.9375 L193.4062 90.7812 C194.0781 91.5156 195.0938 92.1875 196.7031 92.1875 ZM205.02 92.1875 C207.1606 92.1875 208.5043 90.8906 208.5043 89.2656 C208.5043 87.75 207.5825 87.0469 206.395 86.5312 L204.9262 85.8906 C204.1293 85.5625 203.2387 85.1875 203.2387 84.1875 C203.2387 83.2656 203.9887 82.6719 205.145 82.6719 C206.0981 82.6719 206.8637 83.0469 207.4887 83.6406 L208.1762 82.8125 C207.4418 82.0625 206.3637 81.5469 205.145 81.5469 C203.2856 81.5469 201.9106 82.6875 201.9106 84.2656 C201.9106 85.7656 203.0512 86.5 204.0043 86.9062 L205.4887 87.5469 C206.4575 87.9844 207.1918 88.3125 207.1918 89.375 C207.1918 90.375 206.3793 91.0469 205.0356 91.0469 C203.9731 91.0469 202.9418 90.5469 202.2075 89.7812 L201.4262 90.6562 C202.3168 91.5938 203.5668 92.1875 205.02 92.1875 Z"
      /><rect x="204" y="35" width="14" style="fill:white; stroke:none;" height="10"
      /><path style="stroke:none;" d="M208.1094 40.5781 C209.3438 40.5781 209.9688 41.4688 209.9688 42.8438 C209.9688 44.25 209.1875 45.1875 208.2188 45.1875 C206.9219 45.1875 206.1562 44.0312 206 41.8906 C206.625 40.9531 207.4531 40.5781 208.1094 40.5781 ZM208.2188 46.1875 C209.8125 46.1875 211.1562 44.8438 211.1562 42.8438 C211.1562 40.7031 210.0469 39.625 208.3125 39.625 C207.5 39.625 206.6094 40.1094 205.9688 40.875 C206.0312 37.6875 207.2188 36.6094 208.625 36.6094 C209.25 36.6094 209.8594 36.9062 210.2656 37.3906 L210.9688 36.5938 C210.4062 35.9844 209.6406 35.5469 208.5781 35.5469 C206.5938 35.5469 204.7812 37.0781 204.7812 41.0938 C204.7812 44.4844 206.2344 46.1875 208.2188 46.1875 ZM216.02 46.1875 C218.1606 46.1875 219.5043 44.8906 219.5043 43.2656 C219.5043 41.75 218.5825 41.0469 217.395 40.5312 L215.9262 39.8906 C215.1293 39.5625 214.2387 39.1875 214.2387 38.1875 C214.2387 37.2656 214.9887 36.6719 216.145 36.6719 C217.0981 36.6719 217.8637 37.0469 218.4887 37.6406 L219.1762 36.8125 C218.4418 36.0625 217.3637 35.5469 216.145 35.5469 C214.2856 35.5469 212.9106 36.6875 212.9106 38.2656 C212.9106 39.7656 214.0512 40.5 215.0043 40.9062 L216.4887 41.5469 C217.4575 41.9844 218.1918 42.3125 218.1918 43.375 C218.1918 44.375 217.3793 45.0469 216.0356 45.0469 C214.9731 45.0469 213.9418 44.5469 213.2075 43.7812 L212.4262 44.6562 C213.3168 45.5938 214.5668 46.1875 216.02 46.1875 Z"
      /><polygon style="fill:none;" points=" 132 64 52 64"
    /></g
    ><g style="fill:white; text-rendering:optimizeSpeed; stroke:white;"
    ><polygon style="stroke:none; clip-path:url(#clipPath4);" points=" 132 53 143 64 132 75 121 64"
      /><rect x="121" y="53" width="22" style="clip-path:url(#clipPath4); fill:rgb(0,144,188); stroke:none;" height="11"
      /><rect x="121" y="53" width="22" style="clip-path:url(#clipPath4); fill:none; stroke:black;" height="11"
      /><polygon style="fill:none; stroke:black;" points=" 132 53 143 64 132 75 121 64"
      /><rect x="133" width="25" height="10" y="81" style="stroke:none;"
    /></g
    ><g style="text-rendering:optimizeSpeed; font-size:14px; font-family:'SansSerif';"
    ><path style="stroke:none;" d="M133.6094 92 L140.0625 92 L140.0625 90.8906 L137.2344 90.8906 C136.7031 90.8906 136.0781 90.9531 135.5469 90.9844 C137.9531 88.7031 139.5625 86.625 139.5625 84.5781 C139.5625 82.75 138.4219 81.5469 136.5781 81.5469 C135.2812 81.5469 134.4062 82.1406 133.5625 83.0469 L134.2969 83.7812 C134.8594 83.1094 135.5938 82.5938 136.4375 82.5938 C137.7031 82.5938 138.3125 83.4531 138.3125 84.625 C138.3125 86.3906 136.8438 88.4375 133.6094 91.25 L133.6094 92 ZM142.1762 92 L143.3481 92 L143.3481 86.3125 C143.3481 85.4375 143.2543 84.1875 143.1918 83.2969 L143.2543 83.2969 L144.0668 85.625 L146.0043 90.9688 L146.8793 90.9688 L148.8168 85.625 L149.6293 83.2969 L149.6918 83.2969 C149.6137 84.1875 149.52 85.4375 149.52 86.3125 L149.52 92 L150.7387 92 L150.7387 81.7188 L149.1762 81.7188 L147.2075 87.2188 C146.9731 87.9375 146.7543 88.6562 146.5043 89.375 L146.4418 89.375 C146.1918 88.6562 145.9575 87.9375 145.7075 87.2188 L143.7387 81.7188 L142.1762 81.7188 L142.1762 92 ZM156.4973 92.1875 C157.5285 92.1875 158.341 91.8281 159.0129 91.3906 L158.5442 90.5625 C157.9973 90.9375 157.3879 91.1562 156.6535 91.1562 C155.2004 91.1562 154.216 90.125 154.1223 88.5 L159.2473 88.5 C159.2785 88.3125 159.3098 88.0469 159.3098 87.7656 C159.3098 85.6094 158.216 84.2031 156.2785 84.2031 C154.5129 84.2031 152.8567 85.7344 152.8567 88.2031 C152.8567 90.7188 154.4817 92.1875 156.4973 92.1875 ZM154.1067 87.5781 C154.2629 86.0938 155.216 85.2188 156.2942 85.2188 C157.4817 85.2188 158.1848 86.0469 158.1848 87.5781 L154.1067 87.5781 Z"
      /><rect x="105" y="81" width="25" style="fill:white; stroke:none;" height="10"
      /><path style="stroke:none;" d="M108.7031 92.1875 C110.5156 92.1875 111.9844 91.0938 111.9844 89.25 C111.9844 87.8594 111.0156 86.9375 109.8125 86.6562 L109.8125 86.5938 C110.8906 86.1875 111.6406 85.3594 111.6406 84.125 C111.6406 82.5 110.375 81.5469 108.6562 81.5469 C107.4688 81.5469 106.5469 82.0625 105.7812 82.7812 L106.4688 83.5938 C107.0469 83 107.7656 82.5938 108.5938 82.5938 C109.6562 82.5938 110.3281 83.2344 110.3281 84.2188 C110.3281 85.3281 109.6094 86.1719 107.4844 86.1719 L107.4844 87.1562 C109.8594 87.1562 110.6875 87.9844 110.6875 89.2031 C110.6875 90.3906 109.8125 91.125 108.5938 91.125 C107.4375 91.125 106.6562 90.5781 106.0469 89.9375 L105.4062 90.7812 C106.0781 91.5156 107.0938 92.1875 108.7031 92.1875 ZM114.1762 92 L115.3481 92 L115.3481 86.3125 C115.3481 85.4375 115.2543 84.1875 115.1918 83.2969 L115.2543 83.2969 L116.0668 85.625 L118.0043 90.9688 L118.8793 90.9688 L120.8168 85.625 L121.6293 83.2969 L121.6918 83.2969 C121.6137 84.1875 121.52 85.4375 121.52 86.3125 L121.52 92 L122.7387 92 L122.7387 81.7188 L121.1762 81.7188 L119.2075 87.2188 C118.9731 87.9375 118.7543 88.6562 118.5043 89.375 L118.4418 89.375 C118.1918 88.6562 117.9575 87.9375 117.7075 87.2188 L115.7387 81.7188 L114.1762 81.7188 L114.1762 92 ZM128.4973 92.1875 C129.5285 92.1875 130.341 91.8281 131.0129 91.3906 L130.5442 90.5625 C129.9973 90.9375 129.3879 91.1562 128.6535 91.1562 C127.2004 91.1562 126.216 90.125 126.1223 88.5 L131.2473 88.5 C131.2785 88.3125 131.3098 88.0469 131.3098 87.7656 C131.3098 85.6094 130.216 84.2031 128.2785 84.2031 C126.5129 84.2031 124.8567 85.7344 124.8567 88.2031 C124.8567 90.7188 126.4817 92.1875 128.4973 92.1875 ZM126.1067 87.5781 C126.2629 86.0938 127.216 85.2188 128.2942 85.2188 C129.4817 85.2188 130.1848 86.0469 130.1848 87.5781 L126.1067 87.5781 Z"
    /></g
    ><g style="fill:white; text-rendering:optimizeSpeed; stroke:white;"
    ><circle r="11" style="clip-path:url(#clipPath5); stroke:none;" cx="52" cy="64"
      /><rect x="41" y="53" width="22" style="clip-path:url(#clipPath5); fill:rgb(0,144,188); stroke:none;" height="22"
      /><rect x="41" y="53" width="22" style="clip-path:url(#clipPath5); fill:none; stroke:black;" height="22"
      /><circle r="11" style="fill:none; stroke:black;" cx="52" cy="64"
      /><rect x="56" width="14" height="10" y="81" style="stroke:none;"
    /></g
    ><g style="text-rendering:optimizeSpeed; font-size:14px; font-family:'SansSerif';"
    ><path style="stroke:none;" d="M56.6094 92 L63.0625 92 L63.0625 90.8906 L60.2344 90.8906 C59.7031 90.8906 59.0781 90.9531 58.5469 90.9844 C60.9531 88.7031 62.5625 86.625 62.5625 84.5781 C62.5625 82.75 61.4219 81.5469 59.5781 81.5469 C58.2812 81.5469 57.4062 82.1406 56.5625 83.0469 L57.2969 83.7812 C57.8594 83.1094 58.5938 82.5938 59.4375 82.5938 C60.7031 82.5938 61.3125 83.4531 61.3125 84.625 C61.3125 86.3906 59.8438 88.4375 56.6094 91.25 L56.6094 92 ZM68.02 92.1875 C70.1606 92.1875 71.5043 90.8906 71.5043 89.2656 C71.5043 87.75 70.5825 87.0469 69.395 86.5312 L67.9262 85.8906 C67.1293 85.5625 66.2387 85.1875 66.2387 84.1875 C66.2387 83.2656 66.9887 82.6719 68.145 82.6719 C69.0981 82.6719 69.8637 83.0469 70.4887 83.6406 L71.1762 82.8125 C70.4418 82.0625 69.3637 81.5469 68.145 81.5469 C66.2856 81.5469 64.9106 82.6875 64.9106 84.2656 C64.9106 85.7656 66.0512 86.5 67.0043 86.9062 L68.4887 87.5469 C69.4575 87.9844 70.1918 88.3125 70.1918 89.375 C70.1918 90.375 69.3793 91.0469 68.0356 91.0469 C66.9731 91.0469 65.9418 90.5469 65.2075 89.7812 L64.4262 90.6562 C65.3168 91.5938 66.5668 92.1875 68.02 92.1875 Z"
      /><rect x="33" y="81" width="15" style="fill:white; stroke:none;" height="10"
      /><path style="stroke:none;" d="M36.7031 92.1875 C38.5156 92.1875 39.9844 91.0938 39.9844 89.25 C39.9844 87.8594 39.0156 86.9375 37.8125 86.6562 L37.8125 86.5938 C38.8906 86.1875 39.6406 85.3594 39.6406 84.125 C39.6406 82.5 38.375 81.5469 36.6562 81.5469 C35.4688 81.5469 34.5469 82.0625 33.7812 82.7812 L34.4688 83.5938 C35.0469 83 35.7656 82.5938 36.5938 82.5938 C37.6562 82.5938 38.3281 83.2344 38.3281 84.2188 C38.3281 85.3281 37.6094 86.1719 35.4844 86.1719 L35.4844 87.1562 C37.8594 87.1562 38.6875 87.9844 38.6875 89.2031 C38.6875 90.3906 37.8125 91.125 36.5938 91.125 C35.4375 91.125 34.6562 90.5781 34.0469 89.9375 L33.4062 90.7812 C34.0781 91.5156 35.0938 92.1875 36.7031 92.1875 ZM45.02 92.1875 C47.1606 92.1875 48.5043 90.8906 48.5043 89.2656 C48.5043 87.75 47.5825 87.0469 46.395 86.5312 L44.9262 85.8906 C44.1293 85.5625 43.2387 85.1875 43.2387 84.1875 C43.2387 83.2656 43.9887 82.6719 45.145 82.6719 C46.0981 82.6719 46.8637 83.0469 47.4887 83.6406 L48.1762 82.8125 C47.4418 82.0625 46.3637 81.5469 45.145 81.5469 C43.2856 81.5469 41.9106 82.6875 41.9106 84.2656 C41.9106 85.7656 43.0512 86.5 44.0043 86.9062 L45.4887 87.5469 C46.4575 87.9844 47.1918 88.3125 47.1918 89.375 C47.1918 90.375 46.3793 91.0469 45.0356 91.0469 C43.9731 91.0469 42.9418 90.5469 42.2075 89.7812 L41.4262 90.6562 C42.3168 91.5938 43.5668 92.1875 45.02 92.1875 Z"
      /><rect x="33" y="35" width="15" style="fill:white; stroke:none;" height="10"
      /><path style="stroke:none;" d="M34.6094 42.1562 L36.9531 38.6562 C37.2344 38.1406 37.5156 37.6406 37.7812 37.1406 L37.8281 37.1406 C37.7969 37.6719 37.7656 38.5 37.7656 39 L37.7656 42.1562 L34.6094 42.1562 ZM37.7656 46 L38.9688 46 L38.9688 43.1719 L40.3281 43.1719 L40.3281 42.1562 L38.9688 42.1562 L38.9688 35.7188 L37.5469 35.7188 L33.2812 42.3281 L33.2812 43.1719 L37.7656 43.1719 L37.7656 46 ZM45.02 46.1875 C47.1606 46.1875 48.5043 44.8906 48.5043 43.2656 C48.5043 41.75 47.5825 41.0469 46.395 40.5312 L44.9262 39.8906 C44.1293 39.5625 43.2387 39.1875 43.2387 38.1875 C43.2387 37.2656 43.9887 36.6719 45.145 36.6719 C46.0981 36.6719 46.8637 37.0469 47.4887 37.6406 L48.1762 36.8125 C47.4418 36.0625 46.3637 35.5469 45.145 35.5469 C43.2856 35.5469 41.9106 36.6875 41.9106 38.2656 C41.9106 39.7656 43.0512 40.5 44.0043 40.9062 L45.4887 41.5469 C46.4575 41.9844 47.1918 42.3125 47.1918 43.375 C47.1918 44.375 46.3793 45.0469 45.0356 45.0469 C43.9731 45.0469 42.9418 44.5469 42.2075 43.7812 L41.4262 44.6562 C42.3168 45.5938 43.5668 46.1875 45.02 46.1875 Z"
      /><rect x="56" y="35" width="14" style="fill:white; stroke:none;" height="10"
      /><path style="stroke:none;" d="M60.1094 40.5781 C61.3438 40.5781 61.9688 41.4688 61.9688 42.8438 C61.9688 44.25 61.1875 45.1875 60.2188 45.1875 C58.9219 45.1875 58.1562 44.0312 58 41.8906 C58.625 40.9531 59.4531 40.5781 60.1094 40.5781 ZM60.2188 46.1875 C61.8125 46.1875 63.1562 44.8438 63.1562 42.8438 C63.1562 40.7031 62.0469 39.625 60.3125 39.625 C59.5 39.625 58.6094 40.1094 57.9688 40.875 C58.0312 37.6875 59.2188 36.6094 60.625 36.6094 C61.25 36.6094 61.8594 36.9062 62.2656 37.3906 L62.9688 36.5938 C62.4062 35.9844 61.6406 35.5469 60.5781 35.5469 C58.5938 35.5469 56.7812 37.0781 56.7812 41.0938 C56.7812 44.4844 58.2344 46.1875 60.2188 46.1875 ZM68.02 46.1875 C70.1606 46.1875 71.5043 44.8906 71.5043 43.2656 C71.5043 41.75 70.5825 41.0469 69.395 40.5312 L67.9262 39.8906 C67.1293 39.5625 66.2387 39.1875 66.2387 38.1875 C66.2387 37.2656 66.9887 36.6719 68.145 36.6719 C69.0981 36.6719 69.8637 37.0469 70.4887 37.6406 L71.1762 36.8125 C70.4418 36.0625 69.3637 35.5469 68.145 35.5469 C66.2856 35.5469 64.9106 36.6875 64.9106 38.2656 C64.9106 39.7656 66.0512 40.5 67.0043 40.9062 L68.4887 41.5469 C69.4575 41.9844 70.1918 42.3125 70.1918 43.375 C70.1918 44.375 69.3793 45.0469 68.0356 45.0469 C66.9731 45.0469 65.9418 44.5469 65.2075 43.7812 L64.4262 44.6562 C65.3168 45.5938 66.5668 46.1875 68.02 46.1875 Z"
    /></g
    ><g style="fill:white; text-rendering:optimizeSpeed; font-family:'Serif'; stroke:white;"
    ><rect x="93" width="7" height="9" y="67" style="stroke:none;"
      /><path d="M94 72.5156 L96.9531 68.2656 L96.9531 72.5156 L94 72.5156 ZM99.2812 72.5156 L97.8594 72.5156 L97.8594 67.125 L97.2344 67.125 L93.3438 72.6406 L93.3438 73.1875 L96.9531 73.1875 L96.9531 76 L97.8594 76 L97.8594 73.1875 L99.2812 73.1875 L99.2812 72.5156 Z" style="fill:black; stroke:none;"
      /><rect x="79" width="8" height="8" y="68" style="stroke:none;"
      /><path d="M83.9844 73.7031 C83.9375 74.8906 83.1562 75.6562 82.3125 75.6562 C81.2656 75.6562 80.5 74.6875 80.5 72.7188 C80.5 71.2812 81.1562 70.1562 82.3438 70.1562 C83.1406 70.1562 83.7812 70.6875 84.0938 71.6406 L83.9844 73.7031 ZM85.9062 75.2812 C85.7344 75.375 85.5469 75.4219 85.3438 75.4219 C84.9531 75.4219 84.75 75.2188 84.75 74.4219 C84.75 73.4844 84.9688 71.5312 85.1875 69.8281 L85.0312 69.7188 L84.2344 69.9219 L84.1406 70.7969 C83.7812 70.0312 83.1562 69.6562 82.3906 69.6562 C81.0469 69.6562 79.5625 70.8438 79.5625 72.9531 C79.5625 75.0938 80.7188 76.1719 82.1406 76.1719 C83.0156 76.1719 83.6875 75.8125 84.0938 74.9844 C84.2031 75.8594 84.5156 76.1719 85.0156 76.1719 C85.4688 76.1719 85.7969 75.9062 86.0156 75.5625 L85.9062 75.2812 Z" style="fill:black; stroke:none;"
      /><rect x="178" width="7" height="9" y="67" style="stroke:none;"
      /><path d="M179 72.5156 L181.9531 68.2656 L181.9531 72.5156 L179 72.5156 ZM184.2812 72.5156 L182.8594 72.5156 L182.8594 67.125 L182.2344 67.125 L178.3438 72.6406 L178.3438 73.1875 L181.9531 73.1875 L181.9531 76 L182.8594 76 L182.8594 73.1875 L184.2812 73.1875 L184.2812 72.5156 Z" style="fill:black; stroke:none;"
      /><rect x="165" width="6" height="13" y="65" style="stroke:none;"
      /><path d="M167.0938 71.2031 C167.0938 69.6562 167.75 68.8125 168.7969 68.8125 C169.7188 68.8125 170.2656 69.4531 170.2656 70.5156 C170.2656 71.7188 169.5 72.4375 168.1875 72.7031 L168.2969 73.3125 C170.2188 73.2344 170.9375 74.2188 170.9375 75.4375 C170.9375 76.625 170.2344 77.4219 168.9531 77.4219 C168.25 77.4219 167.6562 77.1562 167.0938 76.7188 L167.0938 71.2031 ZM166.2031 77.9062 L166.1094 80.375 L166.2656 80.4844 L167.1562 80.2656 L167.0156 77.0938 C167.5469 77.8438 168.3594 78.1719 169.1719 78.1719 C170.5625 78.1719 171.8594 77.2188 171.8594 75.4844 C171.8594 73.9531 170.875 73.1094 169.125 73 C170.5625 72.6094 171.1875 71.4531 171.1875 70.4844 C171.1875 69.0938 170.1562 68.3125 168.9062 68.3125 C167.2969 68.3125 166.2188 69.5469 166.2188 71.5156 L166.2031 77.9062 Z" style="fill:black; stroke:none;"
      /><rect x="253" width="7" height="9" y="67" style="stroke:none;"
      /><path d="M254 72.5156 L256.9531 68.2656 L256.9531 72.5156 L254 72.5156 ZM259.2812 72.5156 L257.8594 72.5156 L257.8594 67.125 L257.2344 67.125 L253.3438 72.6406 L253.3438 73.1875 L256.9531 73.1875 L256.9531 76 L257.8594 76 L257.8594 73.1875 L259.2812 73.1875 L259.2812 72.5156 Z" style="fill:black; stroke:none;"
      /><rect x="239" width="8" height="8" y="68" style="stroke:none;"
      /><path d="M243.9844 73.7031 C243.9375 74.8906 243.1562 75.6562 242.3125 75.6562 C241.2656 75.6562 240.5 74.6875 240.5 72.7188 C240.5 71.2812 241.1562 70.1562 242.3438 70.1562 C243.1406 70.1562 243.7812 70.6875 244.0938 71.6406 L243.9844 73.7031 ZM245.9062 75.2812 C245.7344 75.375 245.5469 75.4219 245.3438 75.4219 C244.9531 75.4219 244.75 75.2188 244.75 74.4219 C244.75 73.4844 244.9688 71.5312 245.1875 69.8281 L245.0312 69.7188 L244.2344 69.9219 L244.1406 70.7969 C243.7812 70.0312 243.1562 69.6562 242.3906 69.6562 C241.0469 69.6562 239.5625 70.8438 239.5625 72.9531 C239.5625 75.0938 240.7188 76.1719 242.1406 76.1719 C243.0156 76.1719 243.6875 75.8125 244.0938 74.9844 C244.2031 75.8594 244.5156 76.1719 245.0156 76.1719 C245.4688 76.1719 245.7969 75.9062 246.0156 75.5625 L245.9062 75.2812 Z" style="fill:black; stroke:none;"
      /><rect x="333" width="7" height="9" y="67" style="stroke:none;"
      /><path d="M334 72.5156 L336.9531 68.2656 L336.9531 72.5156 L334 72.5156 ZM339.2812 72.5156 L337.8594 72.5156 L337.8594 67.125 L337.2344 67.125 L333.3438 72.6406 L333.3438 73.1875 L336.9531 73.1875 L336.9531 76 L337.8594 76 L337.8594 73.1875 L339.2812 73.1875 L339.2812 72.5156 Z" style="fill:black; stroke:none;"
      /><rect x="319" width="8" height="8" y="68" style="stroke:none;"
      /><path d="M323.9844 73.7031 C323.9375 74.8906 323.1562 75.6562 322.3125 75.6562 C321.2656 75.6562 320.5 74.6875 320.5 72.7188 C320.5 71.2812 321.1562 70.1562 322.3438 70.1562 C323.1406 70.1562 323.7812 70.6875 324.0938 71.6406 L323.9844 73.7031 ZM325.9062 75.2812 C325.7344 75.375 325.5469 75.4219 325.3438 75.4219 C324.9531 75.4219 324.75 75.2188 324.75 74.4219 C324.75 73.4844 324.9688 71.5312 325.1875 69.8281 L325.0312 69.7188 L324.2344 69.9219 L324.1406 70.7969 C323.7812 70.0312 323.1562 69.6562 322.3906 69.6562 C321.0469 69.6562 319.5625 70.8438 319.5625 72.9531 C319.5625 75.0938 320.7188 76.1719 322.1406 76.1719 C323.0156 76.1719 323.6875 75.8125 324.0938 74.9844 C324.2031 75.8594 324.5156 76.1719 325.0156 76.1719 C325.4688 76.1719 325.7969 75.9062 326.0156 75.5625 L325.9062 75.2812 Z" style="fill:black; stroke:none;"
      /><rect x="394" width="8" height="8" y="68" style="stroke:none;"
      /><path d="M398.9844 73.7031 C398.9375 74.8906 398.1562 75.6562 397.3125 75.6562 C396.2656 75.6562 395.5 74.6875 395.5 72.7188 C395.5 71.2812 396.1562 70.1562 397.3438 70.1562 C398.1406 70.1562 398.7812 70.6875 399.0938 71.6406 L398.9844 73.7031 ZM400.9062 75.2812 C400.7344 75.375 400.5469 75.4219 400.3438 75.4219 C399.9531 75.4219 399.75 75.2188 399.75 74.4219 C399.75 73.4844 399.9688 71.5312 400.1875 69.8281 L400.0312 69.7188 L399.2344 69.9219 L399.1406 70.7969 C398.7812 70.0312 398.1562 69.6562 397.3906 69.6562 C396.0469 69.6562 394.5625 70.8438 394.5625 72.9531 C394.5625 75.0938 395.7188 76.1719 397.1406 76.1719 C398.0156 76.1719 398.6875 75.8125 399.0938 74.9844 C399.2031 75.8594 399.5156 76.1719 400.0156 76.1719 C400.4688 76.1719 400.7969 75.9062 401.0156 75.5625 L400.9062 75.2812 Z" style="fill:black; stroke:none;"
    /></g
  ></g
></svg
>
