<?xml version="1.0"?>
<!DOCTYPE svg PUBLIC '-//W3C//DTD SVG 1.0//EN'
          'http://www.w3.org/TR/2001/REC-SVG-20010904/DTD/svg10.dtd'>
<svg xmlns:xlink="http://www.w3.org/1999/xlink" style="fill-opacity:1; color-rendering:auto; color-interpolation:auto; text-rendering:auto; stroke:black; stroke-linecap:square; stroke-miterlimit:10; shape-rendering:auto; stroke-opacity:1; fill:black; stroke-dasharray:none; font-weight:normal; stroke-width:1; font-family:'Dialog'; font-style:normal; stroke-linejoin:miter; font-size:12px; stroke-dashoffset:0; image-rendering:auto;" viewBox="0 0 238 160" xmlns="http://www.w3.org/2000/svg"
><!--Generated by the Batik Graphics2D SVG Generator--><defs id="genericDefs"
  /><g
  ><defs id="defs1"
    ><clipPath clipPathUnits="userSpaceOnUse" id="clipPath1"
      ><path style="fill-rule:evenodd;" d="M156 67 L150 74 L139 74 L134 67 L139 59 L150 59 L156 67 Z"
      /></clipPath
      ><clipPath clipPathUnits="userSpaceOnUse" id="clipPath2"
      ><path d="M104 93 C104 99.0751 99.0751 104 93 104 C86.9249 104 82 99.0751 82 93 C82 86.9249 86.9249 82 93 82 C99.0751 82 104 86.9249 104 93 Z"
      /></clipPath
      ><clipPath clipPathUnits="userSpaceOnUse" id="clipPath3"
      ><path d="M52 119 C52 125.0751 47.0751 130 41 130 C34.9249 130 30 125.0751 30 119 C30 112.9249 34.9249 108 41 108 C47.0751 108 52 112.9249 52 119 Z"
      /></clipPath
      ><clipPath clipPathUnits="userSpaceOnUse" id="clipPath4"
      ><path d="M52 67 C52 73.0751 47.0751 78 41 78 C34.9249 78 30 73.0751 30 67 C30 60.9249 34.9249 56 41 56 C47.0751 56 52 60.9249 52 67 Z"
      /></clipPath
      ><clipPath clipPathUnits="userSpaceOnUse" id="clipPath5"
      ><path style="fill-rule:evenodd;" d="M104 41 L98 48 L87 48 L82 41 L87 33 L98 33 L104 41 Z"
      /></clipPath
    ></defs
    ><g style="fill:white; text-rendering:optimizeSpeed; stroke:white;"
    ><rect x="0" width="238" height="160" y="0" style="stroke:none;"
      /><polygon style="fill:none; stroke:black;" points=" 197 67 145 67"
      /><path d="M197 56 C191.5 61.5 202.5 72.5 197 78" style="fill:none; stroke:black;"
      /><polygon style="fill:none; stroke:black;" points=" 145 67 93 93"
      /><polygon style="fill:none; stroke:black;" points=" 145 67 93 41"
      /><polygon style="clip-path:url(#clipPath1); stroke:none;" points=" 156 67 150 74 139 74 134 67 139 59 150 59 156 67"
      /><rect x="134" y="56" width="22" style="clip-path:url(#clipPath1); fill:rgb(0,166,81); stroke:none;" height="22"
      /><rect x="134" y="56" width="22" style="clip-path:url(#clipPath1); fill:none; stroke:black;" height="22"
      /><polygon style="fill:none; stroke:black;" points=" 156 67 150 74 139 74 134 67 139 59 150 59 156 67"
      /><polygon style="fill:none; stroke:black;" points=" 93 93 41 119"
      /><polygon style="fill:none; stroke:black;" points=" 93 93 41 67"
      /><circle style="clip-path:url(#clipPath2); stroke:none;" r="11" cx="93" cy="93"
      /><rect x="82" y="82" width="22" style="clip-path:url(#clipPath2); fill:rgb(0,144,188); stroke:none;" height="22"
      /><rect x="82" y="82" width="22" style="clip-path:url(#clipPath2); fill:none; stroke:black;" height="22"
      /><circle style="fill:none; stroke:black;" r="11" cx="93" cy="93"
      /><circle style="clip-path:url(#clipPath3); stroke:none;" r="11" cx="41" cy="119"
      /><rect x="30" y="108" width="22" style="clip-path:url(#clipPath3); fill:rgb(0,144,188); stroke:none;" height="22"
      /><rect x="30" y="108" width="22" style="clip-path:url(#clipPath3); fill:none; stroke:black;" height="22"
      /><circle style="fill:none; stroke:black;" r="11" cx="41" cy="119"
      /><circle style="clip-path:url(#clipPath4); stroke:none;" r="11" cx="41" cy="67"
      /><rect x="30" y="56" width="22" style="clip-path:url(#clipPath4); fill:rgb(0,144,188); stroke:none;" height="22"
      /><rect x="30" y="56" width="22" style="clip-path:url(#clipPath4); fill:none; stroke:black;" height="22"
      /><circle style="fill:none; stroke:black;" r="11" cx="41" cy="67"
      /><rect x="75" y="104" width="6" style="stroke:none;" height="10"
    /></g
    ><g style="font-family:'Serif'; text-rendering:optimizeSpeed; "
    ><path style="stroke:none;" d="M77.2344 105.6562 C77.5156 105.5938 77.7656 105.5625 78.0156 105.5625 C79.0625 105.5625 79.6719 106.1719 79.6719 107.2656 C79.6719 108.4375 78.9062 109.1094 77.7031 109.1094 L77.1875 109.1094 L77.1875 109.6406 L77.7969 109.6406 C79.2188 109.6406 79.9062 110.4219 79.9062 111.6406 C79.9062 112.8438 79.1719 113.6875 77.875 113.6875 C77.6094 113.6875 77.3125 113.6562 77.0156 113.5625 L76.7812 112.8125 C76.625 112.2812 76.5 112.0469 76.1406 112.0469 C75.8906 112.0469 75.7031 112.1719 75.5781 112.4219 C75.8438 113.6406 76.7812 114.1719 78.0312 114.1719 C79.7188 114.1719 80.875 113.125 80.875 111.7031 C80.875 110.5 80.2031 109.625 78.7969 109.375 C79.9531 109.0156 80.6094 108.2031 80.6094 107.2031 C80.6094 105.9219 79.6719 105.0781 78.1875 105.0781 C77.0469 105.0781 76.0625 105.5938 75.7969 106.6875 C75.9062 107 76.1094 107.1094 76.3594 107.1094 C76.7344 107.1094 76.8906 106.8906 77 106.4062 L77.2344 105.6562 Z"
      /><rect x="58" y="113" width="8" style="fill:white; stroke:none;" height="8"
      /><path style="stroke:none;" d="M62.9844 118.7031 C62.9375 119.8906 62.1562 120.6562 61.3125 120.6562 C60.2656 120.6562 59.5 119.6875 59.5 117.7188 C59.5 116.2812 60.1562 115.1562 61.3438 115.1562 C62.1406 115.1562 62.7812 115.6875 63.0938 116.6406 L62.9844 118.7031 ZM64.9062 120.2812 C64.7344 120.375 64.5469 120.4219 64.3438 120.4219 C63.9531 120.4219 63.75 120.2188 63.75 119.4219 C63.75 118.4844 63.9688 116.5312 64.1875 114.8281 L64.0312 114.7188 L63.2344 114.9219 L63.1406 115.7969 C62.7812 115.0312 62.1562 114.6562 61.3906 114.6562 C60.0469 114.6562 58.5625 115.8438 58.5625 117.9531 C58.5625 120.0938 59.7188 121.1719 61.1406 121.1719 C62.0156 121.1719 62.6875 120.8125 63.0938 119.9844 C63.2031 120.8594 63.5156 121.1719 64.0156 121.1719 C64.4688 121.1719 64.7969 120.9062 65.0156 120.5625 L64.9062 120.2812 Z"
      /><rect x="68" y="86" width="6" style="fill:white; stroke:none;" height="10"
      /><path style="stroke:none;" d="M71.3438 95.6875 C70.2031 95.6875 69.5312 94.5 69.5312 92.2969 C69.5312 92.2188 69.5312 92.125 69.5312 92.0469 C70.0938 91.5 70.7188 91.3125 71.3438 91.3125 C72.3125 91.3125 72.9531 91.9844 72.9531 93.4531 C72.9531 94.9375 72.3125 95.6875 71.3438 95.6875 ZM73.5312 87.0781 C70.3438 87.4531 68.5625 89.7656 68.5625 92.4531 C68.5625 94.7812 69.6094 96.1719 71.3125 96.1719 C72.8438 96.1719 73.9219 95.1094 73.9219 93.2812 C73.9219 91.6875 72.9688 90.6562 71.5625 90.6562 C70.8281 90.6562 70.1406 90.9844 69.5781 91.5781 C69.7969 89.4062 71.0781 87.9688 73.5938 87.3906 L73.5312 87.0781 Z"
      /><rect x="51" y="79" width="8" style="fill:white; stroke:none;" height="8"
      /><path style="stroke:none;" d="M55.9844 84.7031 C55.9375 85.8906 55.1562 86.6562 54.3125 86.6562 C53.2656 86.6562 52.5 85.6875 52.5 83.7188 C52.5 82.2812 53.1562 81.1562 54.3438 81.1562 C55.1406 81.1562 55.7812 81.6875 56.0938 82.6406 L55.9844 84.7031 ZM57.9062 86.2812 C57.7344 86.375 57.5469 86.4219 57.3438 86.4219 C56.9531 86.4219 56.75 86.2188 56.75 85.4219 C56.75 84.4844 56.9688 82.5312 57.1875 80.8281 L57.0312 80.7188 L56.2344 80.9219 L56.1406 81.7969 C55.7812 81.0312 55.1562 80.6562 54.3906 80.6562 C53.0469 80.6562 51.5625 81.8438 51.5625 83.9531 C51.5625 86.0938 52.7188 87.1719 54.1406 87.1719 C55.0156 87.1719 55.6875 86.8125 56.0938 85.9844 C56.2031 86.8594 56.5156 87.1719 57.0156 87.1719 C57.4688 87.1719 57.7969 86.9062 58.0156 86.5625 L57.9062 86.2812 Z"
      /><polygon style="fill:white; clip-path:url(#clipPath5); stroke:none;" points=" 104 41 98 48 87 48 82 41 87 33 98 33 104 41"
      /><rect x="82" y="30" width="22" style="clip-path:url(#clipPath5); fill:rgb(0,166,81); stroke:none;" height="22"
      /><rect x="82" y="30" width="22" style="fill:none; clip-path:url(#clipPath5);" height="22"
      /><polygon style="fill:none;" points=" 104 41 98 48 87 48 82 41 87 33 98 33 104 41"
      /><rect x="127" y="78" width="6" style="fill:white; stroke:none;" height="10"
      /><path style="stroke:none;" d="M129.2344 79.6562 C129.5156 79.5938 129.7656 79.5625 130.0156 79.5625 C131.0625 79.5625 131.6719 80.1719 131.6719 81.2656 C131.6719 82.4375 130.9062 83.1094 129.7031 83.1094 L129.1875 83.1094 L129.1875 83.6406 L129.7969 83.6406 C131.2188 83.6406 131.9062 84.4219 131.9062 85.6406 C131.9062 86.8438 131.1719 87.6875 129.875 87.6875 C129.6094 87.6875 129.3125 87.6562 129.0156 87.5625 L128.7812 86.8125 C128.625 86.2812 128.5 86.0469 128.1406 86.0469 C127.8906 86.0469 127.7031 86.1719 127.5781 86.4219 C127.8438 87.6406 128.7812 88.1719 130.0312 88.1719 C131.7188 88.1719 132.875 87.125 132.875 85.7031 C132.875 84.5 132.2031 83.625 130.7969 83.375 C131.9531 83.0156 132.6094 82.2031 132.6094 81.2031 C132.6094 79.9219 131.6719 79.0781 130.1875 79.0781 C129.0469 79.0781 128.0625 79.5938 127.7969 80.6875 C127.9062 81 128.1094 81.1094 128.3594 81.1094 C128.7344 81.1094 128.8906 80.8906 129 80.4062 L129.2344 79.6562 Z"
      /><rect x="110" y="87" width="8" style="fill:white; stroke:none;" height="8"
      /><path style="stroke:none;" d="M114.9844 92.7031 C114.9375 93.8906 114.1562 94.6562 113.3125 94.6562 C112.2656 94.6562 111.5 93.6875 111.5 91.7188 C111.5 90.2812 112.1562 89.1562 113.3438 89.1562 C114.1406 89.1562 114.7812 89.6875 115.0938 90.6406 L114.9844 92.7031 ZM116.9062 94.2812 C116.7344 94.375 116.5469 94.4219 116.3438 94.4219 C115.9531 94.4219 115.75 94.2188 115.75 93.4219 C115.75 92.4844 115.9688 90.5312 116.1875 88.8281 L116.0312 88.7188 L115.2344 88.9219 L115.1406 89.7969 C114.7812 89.0312 114.1562 88.6562 113.3906 88.6562 C112.0469 88.6562 110.5625 89.8438 110.5625 91.9531 C110.5625 94.0938 111.7188 95.1719 113.1406 95.1719 C114.0156 95.1719 114.6875 94.8125 115.0938 93.9844 C115.2031 94.8594 115.5156 95.1719 116.0156 95.1719 C116.4688 95.1719 116.7969 94.9062 117.0156 94.5625 L116.9062 94.2812 Z"
      /><rect x="120" y="60" width="6" style="fill:white; stroke:none;" height="9"
      /><path style="stroke:none;" d="M120.6406 60.25 L120.6406 61.1406 L125.2031 61.1406 L121.7812 68.875 L121.8906 69 L122.75 69 L125.875 60.7969 L125.875 60.25 L120.6406 60.25 Z"
      /><rect x="103" y="53" width="8" style="fill:white; stroke:none;" height="8"
      /><path style="stroke:none;" d="M107.9844 58.7031 C107.9375 59.8906 107.1562 60.6562 106.3125 60.6562 C105.2656 60.6562 104.5 59.6875 104.5 57.7188 C104.5 56.2812 105.1562 55.1562 106.3438 55.1562 C107.1406 55.1562 107.7812 55.6875 108.0938 56.6406 L107.9844 58.7031 ZM109.9062 60.2812 C109.7344 60.375 109.5469 60.4219 109.3438 60.4219 C108.9531 60.4219 108.75 60.2188 108.75 59.4219 C108.75 58.4844 108.9688 56.5312 109.1875 54.8281 L109.0312 54.7188 L108.2344 54.9219 L108.1406 55.7969 C107.7812 55.0312 107.1562 54.6562 106.3906 54.6562 C105.0469 54.6562 103.5625 55.8438 103.5625 57.9531 C103.5625 60.0938 104.7188 61.1719 106.1406 61.1719 C107.0156 61.1719 107.6875 60.8125 108.0938 59.9844 C108.2031 60.8594 108.5156 61.1719 109.0156 61.1719 C109.4688 61.1719 109.7969 60.9062 110.0156 60.5625 L109.9062 60.2812 Z"
      /><rect x="160" y="71" width="8" style="fill:white; stroke:none;" height="8"
      /><path style="stroke:none;" d="M164.9844 76.7031 C164.9375 77.8906 164.1562 78.6562 163.3125 78.6562 C162.2656 78.6562 161.5 77.6875 161.5 75.7188 C161.5 74.2812 162.1562 73.1562 163.3438 73.1562 C164.1406 73.1562 164.7812 73.6875 165.0938 74.6406 L164.9844 76.7031 ZM166.9062 78.2812 C166.7344 78.375 166.5469 78.4219 166.3438 78.4219 C165.9531 78.4219 165.75 78.2188 165.75 77.4219 C165.75 76.4844 165.9688 74.5312 166.1875 72.8281 L166.0312 72.7188 L165.2344 72.9219 L165.1406 73.7969 C164.7812 73.0312 164.1562 72.6562 163.3906 72.6562 C162.0469 72.6562 160.5625 73.8438 160.5625 75.9531 C160.5625 78.0938 161.7188 79.1719 163.1406 79.1719 C164.0156 79.1719 164.6875 78.8125 165.0938 77.9844 C165.2031 78.8594 165.5156 79.1719 166.0156 79.1719 C166.4688 79.1719 166.7969 78.9062 167.0156 78.5625 L166.9062 78.2812 Z"
    /></g
  ></g
></svg
>
