<?xml version="1.0"?>
<!DOCTYPE svg PUBLIC '-//W3C//DTD SVG 1.0//EN'
          'http://www.w3.org/TR/2001/REC-SVG-20010904/DTD/svg10.dtd'>
<svg xmlns:xlink="http://www.w3.org/1999/xlink" style="fill-opacity:1; color-rendering:auto; color-interpolation:auto; text-rendering:auto; stroke:black; stroke-linecap:square; stroke-miterlimit:10; shape-rendering:auto; stroke-opacity:1; fill:black; stroke-dasharray:none; font-weight:normal; stroke-width:1; font-family:'Dialog'; font-style:normal; stroke-linejoin:miter; font-size:12px; stroke-dashoffset:0; image-rendering:auto;" viewBox="0 0 134 105" xmlns="http://www.w3.org/2000/svg"
><!--Generated by the Batik Graphics2D SVG Generator--><defs id="genericDefs"
  /><g
  ><defs id="defs1"
    ><clipPath clipPathUnits="userSpaceOnUse" id="clipPath1"
      ><path style="fill-rule:evenodd;" d="M52 64 L46 71 L35 71 L30 64 L35 56 L46 56 L52 64 Z"
      /></clipPath
    ></defs
    ><g style="fill:white; text-rendering:optimizeSpeed; stroke:white;"
    ><rect x="0" width="134" height="105" y="0" style="stroke:none;"
      /><polygon style="fill:none; stroke:black;" points=" 93 64 41 64"
      /><path d="M93 53 C87.5 58.5 98.5 69.5 93 75" style="fill:none; stroke:black;"
      /><polygon style="clip-path:url(#clipPath1); stroke:none;" points=" 52 64 46 71 35 71 30 64 35 56 46 56 52 64"
      /><rect x="30" y="53" width="22" style="clip-path:url(#clipPath1); stroke:none;" height="22"
      /><rect x="30" y="53" width="22" style="clip-path:url(#clipPath1); fill:none; stroke:black;" height="22"
      /><polygon style="fill:none; stroke:black;" points=" 52 64 46 71 35 71 30 64 35 56 46 56 52 64"
    /></g
    ><g style="text-rendering:optimizeSpeed; font-size:14px; font-family:'SansSerif';"
    ><path style="stroke:none;" d="M39.2344 69 L44.8594 69 L44.8594 67.9375 L42.7969 67.9375 L42.7969 58.7188 L41.8281 58.7188 C41.2656 59.0625 40.6094 59.2969 39.6875 59.4688 L39.6875 60.2812 L41.5156 60.2812 L41.5156 67.9375 L39.2344 67.9375 L39.2344 69 Z"
      /><rect x="32" y="35" width="16" style="fill:white; stroke:none;" height="10"
      /><path style="stroke:none;" d="M33.6094 42.1562 L35.9531 38.6562 C36.2344 38.1406 36.5156 37.6406 36.7812 37.1406 L36.8281 37.1406 C36.7969 37.6719 36.7656 38.5 36.7656 39 L36.7656 42.1562 L33.6094 42.1562 ZM36.7656 46 L37.9688 46 L37.9688 43.1719 L39.3281 43.1719 L39.3281 42.1562 L37.9688 42.1562 L37.9688 35.7188 L36.5469 35.7188 L32.2812 42.3281 L32.2812 43.1719 L36.7656 43.1719 L36.7656 46 ZM41.1762 46 L42.395 46 L42.395 40.6094 C42.395 39.5312 42.3012 38.4375 42.2543 37.4062 L42.3012 37.4062 L43.4106 39.5156 L47.145 46 L48.4731 46 L48.4731 35.7188 L47.2387 35.7188 L47.2387 41.0781 C47.2387 42.1406 47.3481 43.2812 47.4106 44.3125 L47.3481 44.3125 L46.2543 42.2031 L42.52 35.7188 L41.1762 35.7188 L41.1762 46 Z"
    /></g
    ><g style="fill:white; text-rendering:optimizeSpeed; font-family:'Serif'; stroke:white;"
    ><rect x="57" width="5" height="10" y="67" style="stroke:none;"
      /><path d="M58.8906 75.6875 C58.4844 75.6875 58.1562 76.0469 58.1562 76.4219 C58.1562 76.8125 58.4844 77.1562 58.8906 77.1562 C59.2969 77.1562 59.6406 76.8125 59.6406 76.4219 C59.6406 76.0469 59.2969 75.6875 58.8906 75.6875 ZM60.4688 69.5781 C60.7188 69.8906 60.875 70.2656 60.8906 70.6562 C60.8906 71.1875 60.625 71.5 60.0312 71.7656 L59.4062 72.0156 C58.6406 72.3125 58.3906 72.5469 58.3906 72.9375 C58.3906 73.1094 58.4531 73.3438 58.5781 73.8125 L58.7344 74.3438 L59.1094 74.3438 L59.0938 73.5312 C59.0938 73.0938 59.2031 72.9688 59.7812 72.7344 L60.2031 72.5625 C61.0312 72.2188 61.4531 71.6875 61.4531 70.8438 C61.4531 69.1562 59.6562 68.1875 58.5 68.0312 C58.1094 68.125 57.9062 68.2969 57.9062 68.6406 C57.9062 68.9375 58.0625 69.1562 58.7188 69.2656 L60.4688 69.5781 Z" style="fill:black; stroke:none;"
    /></g
    ><g ID="legend-1:0" style="text-rendering:optimizeSpeed; font-size:10px; font-family:'SansSerif';"
    ><path style="stroke:none;" d="M30.875 90 L34.9062 90 L34.9062 89.2344 L33.4375 89.2344 L33.4375 82.6562 L32.7344 82.6562 C32.3281 82.9062 31.8594 83.0625 31.2031 83.1875 L31.2031 83.7656 L32.5156 83.7656 L32.5156 89.2344 L30.875 89.2344 L30.875 90 ZM35.925 85.4531 L40.7219 85.4531 L40.7219 84.7656 L35.925 84.7656 L35.925 85.4531 ZM35.925 87.8438 L40.7219 87.8438 L40.7219 87.1719 L35.925 87.1719 L35.925 87.8438 ZM42.1 90 L46.225 90 L46.225 89.2031 L43.0375 89.2031 L43.0375 82.6562 L42.1 82.6562 L42.1 90 ZM46.9831 87.5469 L49.5456 87.5469 L49.5456 86.8438 L46.9831 86.8438 L46.9831 87.5469 ZM52.75 92.5 C54.4375 92.5 55.5 91.625 55.5 90.625 C55.5 89.7344 54.8593 89.3281 53.5937 89.3281 L52.5468 89.3281 C51.8125 89.3281 51.5937 89.0938 51.5937 88.7344 C51.5937 88.4375 51.7343 88.2656 51.9375 88.0938 C52.1875 88.2031 52.4843 88.2812 52.75 88.2812 C53.8437 88.2812 54.7343 87.5469 54.7343 86.3906 C54.7343 85.9219 54.5468 85.5156 54.2968 85.2656 L55.4062 85.2656 L55.4062 84.5625 L53.5156 84.5625 C53.3125 84.5 53.0468 84.4375 52.75 84.4375 C51.6562 84.4375 50.7031 85.1875 50.7031 86.375 C50.7031 87.0156 51.0625 87.5469 51.4218 87.8281 L51.4218 87.875 C51.1406 88.0625 50.8125 88.4375 50.8125 88.875 C50.8125 89.3125 51.0156 89.5938 51.3125 89.7656 L51.3125 89.8125 C50.7968 90.1406 50.5156 90.5781 50.5156 91.0469 C50.5156 91.9844 51.4218 92.5 52.75 92.5 ZM52.75 87.6562 C52.125 87.6562 51.5937 87.1562 51.5937 86.375 C51.5937 85.5625 52.1093 85.0938 52.75 85.0938 C53.3906 85.0938 53.9062 85.5781 53.9062 86.375 C53.9062 87.1562 53.375 87.6562 52.75 87.6562 ZM52.875 91.875 C51.9062 91.875 51.3125 91.5 51.3125 90.9219 C51.3125 90.5938 51.4687 90.2812 51.8593 90 C52.0937 90.0625 52.3593 90.0938 52.5625 90.0938 L53.5 90.0938 C54.2187 90.0938 54.6093 90.2656 54.6093 90.7656 C54.6093 91.3281 53.9218 91.875 52.875 91.875 ZM56.5518 90 L57.4581 90 L57.4581 86.5156 C57.8175 85.5781 58.38 85.2656 58.8331 85.2656 C59.0518 85.2656 59.1768 85.2812 59.3643 85.3438 L59.5362 84.5469 C59.3643 84.4531 59.1925 84.4375 58.9425 84.4375 C58.3331 84.4375 57.7862 84.875 57.4112 85.5625 L57.38 85.5625 L57.3018 84.5625 L56.5518 84.5625 L56.5518 90 ZM62.5412 90.125 C63.8693 90.125 65.0568 89.0938 65.0568 87.2969 C65.0568 85.4844 63.8693 84.4375 62.5412 84.4375 C61.2131 84.4375 60.0256 85.4844 60.0256 87.2969 C60.0256 89.0938 61.2131 90.125 62.5412 90.125 ZM62.5412 89.375 C61.6037 89.375 60.9631 88.5469 60.9631 87.2969 C60.9631 86.0469 61.6037 85.1875 62.5412 85.1875 C63.4787 85.1875 64.1193 86.0469 64.1193 87.2969 C64.1193 88.5469 63.4787 89.375 62.5412 89.375 ZM66.0231 87.5469 L68.5856 87.5469 L68.5856 86.8438 L66.0231 86.8438 L66.0231 87.5469 ZM70.8212 87.7969 L71.6337 87.7969 C71.4462 86.2188 73.2431 85.625 73.2431 84.1562 C73.2431 83.0625 72.5087 82.375 71.3837 82.375 C70.5712 82.375 69.9306 82.7656 69.4774 83.2969 L69.9931 83.7812 C70.3368 83.375 70.7743 83.1406 71.2743 83.1406 C71.9931 83.1406 72.3524 83.625 72.3524 84.2188 C72.3524 85.4062 70.5868 86.0469 70.8212 87.7969 ZM71.2431 90.125 C71.6181 90.125 71.9149 89.8438 71.9149 89.4375 C71.9149 89.0156 71.6181 88.7344 71.2431 88.7344 C70.8837 88.7344 70.5868 89.0156 70.5868 89.4375 C70.5868 89.8438 70.8837 90.125 71.2431 90.125 ZM74.2331 87.5469 L76.7956 87.5469 L76.7956 86.8438 L74.2331 86.8438 L74.2331 87.5469 ZM78.2499 90 L82.3749 90 L82.3749 89.2031 L79.1874 89.2031 L79.1874 82.6562 L78.2499 82.6562 L78.2499 90 ZM83.1331 87.5469 L85.6956 87.5469 L85.6956 86.8438 L83.1331 86.8438 L83.1331 87.5469 ZM87.0718 90 L87.9781 90 L87.9781 86.0625 C88.4781 85.5 88.9468 85.2344 89.3531 85.2344 C90.0406 85.2344 90.3531 85.6562 90.3531 86.6875 L90.3531 90 L91.2749 90 L91.2749 86.0625 C91.7749 85.5 92.2124 85.2344 92.6343 85.2344 C93.3374 85.2344 93.6499 85.6562 93.6499 86.6875 L93.6499 90 L94.5562 90 L94.5562 86.5625 C94.5562 85.1719 94.0249 84.4375 92.9156 84.4375 C92.2437 84.4375 91.6812 84.8594 91.1187 85.4688 C90.8999 84.8281 90.4468 84.4375 89.6187 84.4375 C88.9624 84.4375 88.3999 84.8438 87.9312 85.3594 L87.8999 85.3594 L87.8218 84.5625 L87.0718 84.5625 L87.0718 90 ZM97.5818 90.125 C98.2537 90.125 98.8631 89.7812 99.3787 89.3438 L99.4099 89.3438 L99.4881 90 L100.2381 90 L100.2381 86.6562 C100.2381 85.3125 99.6756 84.4375 98.3631 84.4375 C97.4881 84.4375 96.7224 84.8125 96.2224 85.1406 L96.5818 85.7656 C97.0037 85.4844 97.5818 85.1875 98.2068 85.1875 C99.0974 85.1875 99.3318 85.8594 99.3318 86.5625 C97.0193 86.8125 95.9881 87.4062 95.9881 88.5938 C95.9881 89.5625 96.6756 90.125 97.5818 90.125 ZM97.8474 89.4062 C97.3006 89.4062 96.8787 89.1562 96.8787 88.5312 C96.8787 87.8281 97.5037 87.375 99.3318 87.1562 L99.3318 88.6875 C98.8006 89.1562 98.3631 89.4062 97.8474 89.4062 ZM101.9718 90 L102.8781 90 L102.8781 86.0625 C103.4249 85.5156 103.8156 85.2344 104.3624 85.2344 C105.0968 85.2344 105.3937 85.6562 105.3937 86.6875 L105.3937 90 L106.3156 90 L106.3156 86.5625 C106.3156 85.1719 105.7843 84.4375 104.6437 84.4375 C103.9093 84.4375 103.3468 84.8438 102.8312 85.3438 L102.7999 85.3438 L102.7218 84.5625 L101.9718 84.5625 L101.9718 90 ZM108.1599 90 L109.0974 90 L109.0974 86.5469 L112.5037 86.5469 L112.5037 90 L113.4256 90 L113.4256 82.6562 L112.5037 82.6562 L112.5037 85.7344 L109.0974 85.7344 L109.0974 82.6562 L108.1599 82.6562 L108.1599 90 ZM117.5493 90.125 C118.2837 90.125 118.8774 89.875 119.3462 89.5625 L119.0181 88.9688 C118.6274 89.2344 118.1899 89.4062 117.6587 89.4062 C116.6274 89.4062 115.9243 88.6562 115.8618 87.5 L119.5181 87.5 C119.5337 87.375 119.5649 87.1875 119.5649 86.9844 C119.5649 85.4375 118.7837 84.4375 117.3931 84.4375 C116.1431 84.4375 114.9556 85.5312 114.9556 87.2969 C114.9556 89.0781 116.1118 90.125 117.5493 90.125 ZM115.8462 86.8438 C115.9556 85.7812 116.6431 85.1562 117.4087 85.1562 C118.2524 85.1562 118.7524 85.75 118.7524 86.8438 L115.8462 86.8438 ZM120.9018 92.2969 L121.808 92.2969 L121.808 90.4531 L121.7924 89.5 C122.2768 89.9062 122.7924 90.125 123.2924 90.125 C124.5424 90.125 125.6518 89.0625 125.6518 87.2031 C125.6518 85.5312 124.8862 84.4375 123.4955 84.4375 C122.8549 84.4375 122.2455 84.7969 121.7612 85.1875 L121.7299 85.1875 L121.6518 84.5625 L120.9018 84.5625 L120.9018 92.2969 ZM123.1362 89.375 C122.7768 89.375 122.2924 89.2188 121.808 88.7969 L121.808 85.9531 C122.3393 85.4531 122.808 85.2031 123.2768 85.2031 C124.2924 85.2031 124.6987 86.0156 124.6987 87.2031 C124.6987 88.5625 124.0424 89.375 123.1362 89.375 ZM127.1018 92.2969 L128.008 92.2969 L128.008 90.4531 L127.9924 89.5 C128.4768 89.9062 128.9924 90.125 129.4924 90.125 C130.7424 90.125 131.8518 89.0625 131.8518 87.2031 C131.8518 85.5312 131.0862 84.4375 129.6955 84.4375 C129.0549 84.4375 128.4455 84.7969 127.9612 85.1875 L127.9299 85.1875 L127.8518 84.5625 L127.1018 84.5625 L127.1018 92.2969 ZM129.3362 89.375 C128.9768 89.375 128.4924 89.2188 128.008 88.7969 L128.008 85.9531 C128.5393 85.4531 129.008 85.2031 129.4768 85.2031 C130.4924 85.2031 130.8987 86.0156 130.8987 87.2031 C130.8987 88.5625 130.2424 89.375 129.3362 89.375 ZM133.5362 87.25 L135.1924 84.75 C135.4112 84.3906 135.6143 84.0312 135.7862 83.6719 L135.833 83.6719 C135.8174 84.0469 135.7862 84.6406 135.7862 85 L135.7862 87.25 L133.5362 87.25 ZM135.7862 90 L136.6455 90 L136.6455 87.9844 L137.6143 87.9844 L137.6143 87.25 L136.6455 87.25 L136.6455 82.6562 L135.6299 82.6562 L132.583 87.375 L132.583 87.9844 L135.7862 87.9844 L135.7862 90 ZM138.9299 90 L139.8049 90 L139.8049 86.1562 C139.8049 85.375 139.7424 84.5938 139.6955 83.8594 L139.7424 83.8594 L140.5237 85.375 L143.1955 90 L144.1487 90 L144.1487 82.6562 L143.2737 82.6562 L143.2737 86.4844 C143.2737 87.2344 143.3362 88.0625 143.383 88.7969 L143.3362 88.7969 L142.5549 87.2969 L139.883 82.6562 L138.9299 82.6562 L138.9299 90 Z"
    /></g
  ></g
></svg
>
