<?xml version="1.0"?>
<!DOCTYPE svg PUBLIC '-//W3C//DTD SVG 1.0//EN'
          'http://www.w3.org/TR/2001/REC-SVG-20010904/DTD/svg10.dtd'>
<svg xmlns:xlink="http://www.w3.org/1999/xlink" style="fill-opacity:1; color-rendering:auto; color-interpolation:auto; text-rendering:auto; stroke:black; stroke-linecap:square; stroke-miterlimit:10; shape-rendering:auto; stroke-opacity:1; fill:black; stroke-dasharray:none; font-weight:normal; stroke-width:1; font-family:'Dialog'; font-style:normal; stroke-linejoin:miter; font-size:12px; stroke-dashoffset:0; image-rendering:auto;" viewBox="0 0 290 82" xmlns="http://www.w3.org/2000/svg"
><!--Generated by the Batik Graphics2D SVG Generator--><defs id="genericDefs"
  /><g
  ><defs id="defs1"
    ><clipPath clipPathUnits="userSpaceOnUse" id="clipPath1"
      ><path style="fill-rule:evenodd;" d="M197 30 L199 37 L207 37 L200 42 L203 49 L197 45 L190 49 L193 42 L186 37 L194 37 L197 30 Z"
      /></clipPath
      ><clipPath clipPathUnits="userSpaceOnUse" id="clipPath2"
      ><path style="fill-rule:evenodd;" d="M145 30 L147 37 L155 37 L148 42 L151 49 L145 45 L138 49 L141 42 L134 37 L142 37 L145 30 Z"
      /></clipPath
      ><clipPath clipPathUnits="userSpaceOnUse" id="clipPath3"
      ><path style="fill-rule:evenodd;" d="M93 30 L95 37 L103 37 L96 42 L99 49 L93 45 L86 49 L89 42 L82 37 L90 37 L93 30 Z"
      /></clipPath
      ><clipPath clipPathUnits="userSpaceOnUse" id="clipPath4"
      ><path style="fill-rule:evenodd;" d="M41 30 L43 37 L51 37 L44 42 L47 49 L41 45 L34 49 L37 42 L30 37 L38 37 L41 30 Z"
      /></clipPath
    ></defs
    ><g style="fill:white; text-rendering:optimizeSpeed; stroke:white;"
    ><rect x="0" width="290" height="82" y="0" style="stroke:none;"
      /><polygon style="fill:none; stroke:black;" points=" 249 41 197 41"
      /><path d="M249 30 C243.5 35.5 254.5 46.5 249 52" style="fill:none; stroke:black;"
      /><polygon style="fill:none; stroke:black;" points=" 197 41 145 41"
      /><polygon style="clip-path:url(#clipPath1); stroke:none;" points=" 197 30 199 37 207 37 200 42 203 49 197 45 190 49 193 42 186 37 194 37 197 30"
      /><rect x="186" y="30" width="22" style="clip-path:url(#clipPath1); fill:rgb(0,166,81); stroke:none;" height="22"
      /><rect x="186" y="30" width="22" style="clip-path:url(#clipPath1); fill:none; stroke:black;" height="22"
      /><polygon style="fill:none; stroke:black;" points=" 197 30 199 37 207 37 200 42 203 49 197 45 190 49 193 42 186 37 194 37 197 30"
      /><polygon style="fill:none; stroke:black;" points=" 145 41 93 41"
      /><polygon style="clip-path:url(#clipPath2); stroke:none;" points=" 145 30 147 37 155 37 148 42 151 49 145 45 138 49 141 42 134 37 142 37 145 30"
      /><rect x="134" y="30" width="22" style="clip-path:url(#clipPath2); fill:rgb(0,166,81); stroke:none;" height="22"
      /><rect x="134" y="30" width="22" style="clip-path:url(#clipPath2); fill:none; stroke:black;" height="22"
      /><polygon style="fill:none; stroke:black;" points=" 145 30 147 37 155 37 148 42 151 49 145 45 138 49 141 42 134 37 142 37 145 30"
    /></g
    ><g style="text-rendering:optimizeSpeed; font-size:10px; font-family:'SansSerif';"
    ><path style="stroke:none;" d="M144.0625 45 L144.9844 45 L144.9844 40.3125 L146.125 40.3125 L146.125 39.5625 L144.9844 39.5625 L144.9844 38.7031 C144.9844 38.0156 145.2344 37.6406 145.75 37.6406 C145.9375 37.6406 146.1562 37.6875 146.3594 37.7812 L146.5625 37.0938 C146.3125 36.9844 145.9844 36.9062 145.6562 36.9062 C144.5625 36.9062 144.0625 37.5938 144.0625 38.7031 L144.0625 39.5625 L143.3281 39.625 L143.3281 40.3125 L144.0625 40.3125 L144.0625 45 Z"
      /><polygon style="fill:none;" points=" 93 41 41 41"
    /></g
    ><g style="fill:white; text-rendering:optimizeSpeed; stroke:white;"
    ><polygon style="stroke:none; clip-path:url(#clipPath3);" points=" 93 30 95 37 103 37 96 42 99 49 93 45 86 49 89 42 82 37 90 37 93 30"
      /><rect x="82" y="30" width="22" style="clip-path:url(#clipPath3); fill:rgb(0,166,81); stroke:none;" height="22"
      /><rect x="82" y="30" width="22" style="clip-path:url(#clipPath3); fill:none; stroke:black;" height="22"
      /><polygon style="fill:none; stroke:black;" points=" 93 30 95 37 103 37 96 42 99 49 93 45 86 49 89 42 82 37 90 37 93 30"
    /></g
    ><g style="text-rendering:optimizeSpeed; font-size:10px; font-family:'SansSerif';"
    ><path style="stroke:none;" d="M92.0625 45 L92.9844 45 L92.9844 40.3125 L94.125 40.3125 L94.125 39.5625 L92.9844 39.5625 L92.9844 38.7031 C92.9844 38.0156 93.2344 37.6406 93.75 37.6406 C93.9375 37.6406 94.1562 37.6875 94.3594 37.7812 L94.5625 37.0938 C94.3125 36.9844 93.9844 36.9062 93.6562 36.9062 C92.5625 36.9062 92.0625 37.5938 92.0625 38.7031 L92.0625 39.5625 L91.3281 39.625 L91.3281 40.3125 L92.0625 40.3125 L92.0625 45 Z"
    /></g
    ><g style="fill:white; text-rendering:optimizeSpeed; stroke:white;"
    ><polygon style="stroke:none; clip-path:url(#clipPath4);" points=" 41 30 43 37 51 37 44 42 47 49 41 45 34 49 37 42 30 37 38 37 41 30"
      /><rect x="30" y="30" width="22" style="clip-path:url(#clipPath4); fill:rgb(0,166,81); stroke:none;" height="22"
      /><rect x="30" y="30" width="22" style="clip-path:url(#clipPath4); fill:none; stroke:black;" height="22"
      /><polygon style="fill:none; stroke:black;" points=" 41 30 43 37 51 37 44 42 47 49 41 45 34 49 37 42 30 37 38 37 41 30"
    /></g
    ><g style="text-rendering:optimizeSpeed; font-size:10px; font-family:'SansSerif';"
    ><path style="stroke:none;" d="M40.0625 45 L40.9844 45 L40.9844 40.3125 L42.125 40.3125 L42.125 39.5625 L40.9844 39.5625 L40.9844 38.7031 C40.9844 38.0156 41.2344 37.6406 41.75 37.6406 C41.9375 37.6406 42.1562 37.6875 42.3594 37.7812 L42.5625 37.0938 C42.3125 36.9844 41.9844 36.9062 41.6562 36.9062 C40.5625 36.9062 40.0625 37.5938 40.0625 38.7031 L40.0625 39.5625 L39.3281 39.625 L39.3281 40.3125 L40.0625 40.3125 L40.0625 45 Z"
    /></g
    ><g style="fill:white; text-rendering:optimizeSpeed; font-family:'Serif'; stroke:white;"
    ><rect x="71" width="6" height="10" y="44" style="stroke:none;"
      /><path d="M72.9219 46.1406 L76.6562 46.1406 L76.6562 45.25 L72.4531 45.25 L72.1719 49.3125 L72.5156 49.3906 C72.9219 49.25 73.3906 49.1875 73.8125 49.1875 C75.0781 49.1875 75.9219 49.9531 75.9219 51.3906 C75.9219 52.7812 75.1719 53.6875 73.8281 53.6875 C73.5156 53.6875 73.2344 53.6406 72.9375 53.5625 L72.6875 52.7812 C72.5312 52.2188 72.3906 52.0469 72.0625 52.0469 C71.7969 52.0469 71.5938 52.1719 71.4844 52.4375 C71.7656 53.5938 72.625 54.1719 73.8906 54.1719 C75.7031 54.1719 76.875 52.9844 76.875 51.2812 C76.875 49.5312 75.75 48.5469 74.0938 48.5469 C73.6094 48.5469 73.1719 48.625 72.7344 48.7656 L72.9219 46.1406 Z" style="fill:black; stroke:none;"
      /><rect x="56" width="8" height="8" y="45" style="stroke:none;"
      /><path d="M60.9844 50.7031 C60.9375 51.8906 60.1562 52.6562 59.3125 52.6562 C58.2656 52.6562 57.5 51.6875 57.5 49.7188 C57.5 48.2812 58.1562 47.1562 59.3438 47.1562 C60.1406 47.1562 60.7812 47.6875 61.0938 48.6406 L60.9844 50.7031 ZM62.9062 52.2812 C62.7344 52.375 62.5469 52.4219 62.3438 52.4219 C61.9531 52.4219 61.75 52.2188 61.75 51.4219 C61.75 50.4844 61.9688 48.5312 62.1875 46.8281 L62.0312 46.7188 L61.2344 46.9219 L61.1406 47.7969 C60.7812 47.0312 60.1562 46.6562 59.3906 46.6562 C58.0469 46.6562 56.5625 47.8438 56.5625 49.9531 C56.5625 52.0938 57.7188 53.1719 59.1406 53.1719 C60.0156 53.1719 60.6875 52.8125 61.0938 51.9844 C61.2031 52.8594 61.5156 53.1719 62.0156 53.1719 C62.4688 53.1719 62.7969 52.9062 63.0156 52.5625 L62.9062 52.2812 Z" style="fill:black; stroke:none;"
      /><rect x="123" width="6" height="10" y="44" style="stroke:none;"
      /><path d="M124.9219 46.1406 L128.6562 46.1406 L128.6562 45.25 L124.4531 45.25 L124.1719 49.3125 L124.5156 49.3906 C124.9219 49.25 125.3906 49.1875 125.8125 49.1875 C127.0781 49.1875 127.9219 49.9531 127.9219 51.3906 C127.9219 52.7812 127.1719 53.6875 125.8281 53.6875 C125.5156 53.6875 125.2344 53.6406 124.9375 53.5625 L124.6875 52.7812 C124.5312 52.2188 124.3906 52.0469 124.0625 52.0469 C123.7969 52.0469 123.5938 52.1719 123.4844 52.4375 C123.7656 53.5938 124.625 54.1719 125.8906 54.1719 C127.7031 54.1719 128.875 52.9844 128.875 51.2812 C128.875 49.5312 127.75 48.5469 126.0938 48.5469 C125.6094 48.5469 125.1719 48.625 124.7344 48.7656 L124.9219 46.1406 Z" style="fill:black; stroke:none;"
      /><rect x="108" width="8" height="8" y="45" style="stroke:none;"
      /><path d="M112.9844 50.7031 C112.9375 51.8906 112.1562 52.6562 111.3125 52.6562 C110.2656 52.6562 109.5 51.6875 109.5 49.7188 C109.5 48.2812 110.1562 47.1562 111.3438 47.1562 C112.1406 47.1562 112.7812 47.6875 113.0938 48.6406 L112.9844 50.7031 ZM114.9062 52.2812 C114.7344 52.375 114.5469 52.4219 114.3438 52.4219 C113.9531 52.4219 113.75 52.2188 113.75 51.4219 C113.75 50.4844 113.9688 48.5312 114.1875 46.8281 L114.0312 46.7188 L113.2344 46.9219 L113.1406 47.7969 C112.7812 47.0312 112.1562 46.6562 111.3906 46.6562 C110.0469 46.6562 108.5625 47.8438 108.5625 49.9531 C108.5625 52.0938 109.7188 53.1719 111.1406 53.1719 C112.0156 53.1719 112.6875 52.8125 113.0938 51.9844 C113.2031 52.8594 113.5156 53.1719 114.0156 53.1719 C114.4688 53.1719 114.7969 52.9062 115.0156 52.5625 L114.9062 52.2812 Z" style="fill:black; stroke:none;"
      /><rect x="175" width="6" height="10" y="44" style="stroke:none;"
      /><path d="M176.9219 46.1406 L180.6562 46.1406 L180.6562 45.25 L176.4531 45.25 L176.1719 49.3125 L176.5156 49.3906 C176.9219 49.25 177.3906 49.1875 177.8125 49.1875 C179.0781 49.1875 179.9219 49.9531 179.9219 51.3906 C179.9219 52.7812 179.1719 53.6875 177.8281 53.6875 C177.5156 53.6875 177.2344 53.6406 176.9375 53.5625 L176.6875 52.7812 C176.5312 52.2188 176.3906 52.0469 176.0625 52.0469 C175.7969 52.0469 175.5938 52.1719 175.4844 52.4375 C175.7656 53.5938 176.625 54.1719 177.8906 54.1719 C179.7031 54.1719 180.875 52.9844 180.875 51.2812 C180.875 49.5312 179.75 48.5469 178.0938 48.5469 C177.6094 48.5469 177.1719 48.625 176.7344 48.7656 L176.9219 46.1406 Z" style="fill:black; stroke:none;"
      /><rect x="160" width="8" height="8" y="45" style="stroke:none;"
      /><path d="M164.9844 50.7031 C164.9375 51.8906 164.1562 52.6562 163.3125 52.6562 C162.2656 52.6562 161.5 51.6875 161.5 49.7188 C161.5 48.2812 162.1562 47.1562 163.3438 47.1562 C164.1406 47.1562 164.7812 47.6875 165.0938 48.6406 L164.9844 50.7031 ZM166.9062 52.2812 C166.7344 52.375 166.5469 52.4219 166.3438 52.4219 C165.9531 52.4219 165.75 52.2188 165.75 51.4219 C165.75 50.4844 165.9688 48.5312 166.1875 46.8281 L166.0312 46.7188 L165.2344 46.9219 L165.1406 47.7969 C164.7812 47.0312 164.1562 46.6562 163.3906 46.6562 C162.0469 46.6562 160.5625 47.8438 160.5625 49.9531 C160.5625 52.0938 161.7188 53.1719 163.1406 53.1719 C164.0156 53.1719 164.6875 52.8125 165.0938 51.9844 C165.2031 52.8594 165.5156 53.1719 166.0156 53.1719 C166.4688 53.1719 166.7969 52.9062 167.0156 52.5625 L166.9062 52.2812 Z" style="fill:black; stroke:none;"
      /><rect x="213" width="5" height="10" y="44" style="stroke:none;"
      /><path d="M214.8906 52.6875 C214.4844 52.6875 214.1562 53.0469 214.1562 53.4219 C214.1562 53.8125 214.4844 54.1562 214.8906 54.1562 C215.2969 54.1562 215.6406 53.8125 215.6406 53.4219 C215.6406 53.0469 215.2969 52.6875 214.8906 52.6875 ZM216.4688 46.5781 C216.7188 46.8906 216.875 47.2656 216.8906 47.6562 C216.8906 48.1875 216.625 48.5 216.0312 48.7656 L215.4062 49.0156 C214.6406 49.3125 214.3906 49.5469 214.3906 49.9375 C214.3906 50.1094 214.4531 50.3438 214.5781 50.8125 L214.7344 51.3438 L215.1094 51.3438 L215.0938 50.5312 C215.0938 50.0938 215.2031 49.9688 215.7812 49.7344 L216.2031 49.5625 C217.0312 49.2188 217.4531 48.6875 217.4531 47.8438 C217.4531 46.1562 215.6562 45.1875 214.5 45.0312 C214.1094 45.125 213.9062 45.2969 213.9062 45.6406 C213.9062 45.9375 214.0625 46.1562 214.7188 46.2656 L216.4688 46.5781 Z" style="fill:black; stroke:none;"
    /></g
  ></g
></svg
>
