<?xml version="1.0"?>
<!DOCTYPE svg PUBLIC '-//W3C//DTD SVG 1.0//EN'
          'http://www.w3.org/TR/2001/REC-SVG-20010904/DTD/svg10.dtd'>
<svg xmlns:xlink="http://www.w3.org/1999/xlink" style="fill-opacity:1; color-rendering:auto; color-interpolation:auto; text-rendering:auto; stroke:black; stroke-linecap:square; stroke-miterlimit:10; shape-rendering:auto; stroke-opacity:1; fill:black; stroke-dasharray:none; font-weight:normal; stroke-width:1; font-family:'Dialog'; font-style:normal; stroke-linejoin:miter; font-size:12px; stroke-dashoffset:0; image-rendering:auto;" viewBox="0 0 173 290" xmlns="http://www.w3.org/2000/svg"
><!--Generated by the Batik Graphics2D SVG Generator--><defs id="genericDefs"
  /><g
  ><defs id="defs1"
    ><clipPath clipPathUnits="userSpaceOnUse" id="clipPath1"
      ><path style="fill-rule:evenodd;" d="M58 238 L69 249 L58 260 L47 249 Z"
      /></clipPath
      ><clipPath clipPathUnits="userSpaceOnUse" id="clipPath2"
      ><path style="fill-rule:evenodd;" d="M58 186 L69 208 L47 208 Z"
      /></clipPath
      ><clipPath clipPathUnits="userSpaceOnUse" id="clipPath3"
      ><path d="M47 134 L69 134 L69 156 L47 156 L47 134 Z"
      /></clipPath
      ><clipPath clipPathUnits="userSpaceOnUse" id="clipPath4"
      ><path d="M69 93 C69 99.0751 64.0751 104 58 104 C51.9249 104 47 99.0751 47 93 C47 86.9249 51.9249 82 58 82 C64.0751 82 69 86.9249 69 93 Z"
      /></clipPath
      ><clipPath clipPathUnits="userSpaceOnUse" id="clipPath5"
      ><path d="M69 41 C69 47.0751 64.0751 52 58 52 C51.9249 52 47 47.0751 47 41 C47 34.9249 51.9249 30 58 30 C64.0751 30 69 34.9249 69 41 Z"
      /></clipPath
    ></defs
    ><g style="fill:white; text-rendering:optimizeSpeed; stroke:white;"
    ><rect x="0" width="173" height="290" y="0" style="stroke:none;"
      /><polygon style="clip-path:url(#clipPath1); stroke:none;" points=" 58 238 69 249 58 260 47 249"
      /><rect x="47" y="238" width="22" style="clip-path:url(#clipPath1); fill:rgb(165,67,153); stroke:none;" height="22"
      /><rect x="47" y="238" width="22" style="clip-path:url(#clipPath1); fill:none; stroke:black;" height="22"
      /><polygon style="fill:none; stroke:black;" points=" 58 238 69 249 58 260 47 249"
      /><rect x="74" y="236" width="5" style="stroke:none;" height="10"
    /></g
    ><g style="font-family:'Serif'; text-rendering:optimizeSpeed; "
    ><path style="stroke:none;" d="M75.8906 244.6875 C75.4844 244.6875 75.1562 245.0469 75.1562 245.4219 C75.1562 245.8125 75.4844 246.1562 75.8906 246.1562 C76.2969 246.1562 76.6406 245.8125 76.6406 245.4219 C76.6406 245.0469 76.2969 244.6875 75.8906 244.6875 ZM77.4688 238.5781 C77.7188 238.8906 77.875 239.2656 77.8906 239.6562 C77.8906 240.1875 77.625 240.5 77.0312 240.7656 L76.4062 241.0156 C75.6406 241.3125 75.3906 241.5469 75.3906 241.9375 C75.3906 242.1094 75.4531 242.3438 75.5781 242.8125 L75.7344 243.3438 L76.1094 243.3438 L76.0938 242.5312 C76.0938 242.0938 76.2031 241.9688 76.7812 241.7344 L77.2031 241.5625 C78.0312 241.2188 78.4531 240.6875 78.4531 239.8438 C78.4531 238.1562 76.6562 237.1875 75.5 237.0312 C75.1094 237.125 74.9062 237.2969 74.9062 237.6406 C74.9062 237.9375 75.0625 238.1562 75.7188 238.2656 L77.4688 238.5781 Z"
      /><rect x="74" y="252" width="5" style="fill:white; stroke:none;" height="10"
      /><path style="stroke:none;" d="M75.8906 260.6875 C75.4844 260.6875 75.1562 261.0469 75.1562 261.4219 C75.1562 261.8125 75.4844 262.1562 75.8906 262.1562 C76.2969 262.1562 76.6406 261.8125 76.6406 261.4219 C76.6406 261.0469 76.2969 260.6875 75.8906 260.6875 ZM77.4688 254.5781 C77.7188 254.8906 77.875 255.2656 77.8906 255.6562 C77.8906 256.1875 77.625 256.5 77.0312 256.7656 L76.4062 257.0156 C75.6406 257.3125 75.3906 257.5469 75.3906 257.9375 C75.3906 258.1094 75.4531 258.3438 75.5781 258.8125 L75.7344 259.3438 L76.1094 259.3438 L76.0938 258.5312 C76.0938 258.0938 76.2031 257.9688 76.7812 257.7344 L77.2031 257.5625 C78.0312 257.2188 78.4531 256.6875 78.4531 255.8438 C78.4531 254.1562 76.6562 253.1875 75.5 253.0312 C75.1094 253.125 74.9062 253.2969 74.9062 253.6406 C74.9062 253.9375 75.0625 254.1562 75.7188 254.2656 L77.4688 254.5781 Z"
      /><path style="stroke:none;" d="M30.6094 249.1562 L32.9531 245.6562 C33.2344 245.1406 33.5156 244.6406 33.7812 244.1406 L33.8281 244.1406 C33.7969 244.6719 33.7656 245.5 33.7656 246 L33.7656 249.1562 L30.6094 249.1562 ZM33.7656 253 L34.9688 253 L34.9688 250.1719 L36.3281 250.1719 L36.3281 249.1562 L34.9688 249.1562 L34.9688 242.7188 L33.5469 242.7188 L29.2812 249.3281 L29.2812 250.1719 L33.7656 250.1719 L33.7656 253 ZM36.9731 253 L38.3168 253 L39.3481 251.2188 C39.6137 250.7656 39.8637 250.2969 40.1293 249.8594 L40.2075 249.8594 C40.4731 250.2969 40.7543 250.7656 41.0043 251.2188 L42.1293 253 L43.5356 253 L41.02 249.1562 L43.3325 245.3906 L42.0043 245.3906 L41.0668 247.0625 C40.8481 247.5 40.6137 247.9219 40.3793 248.3438 L40.3325 248.3438 C40.0668 247.9219 39.8012 247.5 39.5668 247.0625 L38.5512 245.3906 L37.1762 245.3906 L39.4887 249.0312 L36.9731 253 Z"
    /></g
    ><g style="fill:white; text-rendering:optimizeSpeed; font-size:14px; font-family:'SansSerif'; stroke:white;"
    ><polygon style="stroke:none; clip-path:url(#clipPath2);" points=" 58 186 69 208 47 208"
      /><rect x="47" y="186" width="22" style="clip-path:url(#clipPath2); fill:rgb(237,28,36); stroke:none;" height="22"
      /><rect x="47" y="186" width="22" style="clip-path:url(#clipPath2); fill:none; stroke:black;" height="22"
      /><polygon style="fill:none; stroke:black;" points=" 58 186 69 208 47 208"
      /><rect x="74" width="5" height="10" y="184" style="stroke:none;"
    /></g
    ><g style="font-family:'Serif'; text-rendering:optimizeSpeed; "
    ><path style="stroke:none;" d="M75.8906 192.6875 C75.4844 192.6875 75.1562 193.0469 75.1562 193.4219 C75.1562 193.8125 75.4844 194.1562 75.8906 194.1562 C76.2969 194.1562 76.6406 193.8125 76.6406 193.4219 C76.6406 193.0469 76.2969 192.6875 75.8906 192.6875 ZM77.4688 186.5781 C77.7188 186.8906 77.875 187.2656 77.8906 187.6562 C77.8906 188.1875 77.625 188.5 77.0312 188.7656 L76.4062 189.0156 C75.6406 189.3125 75.3906 189.5469 75.3906 189.9375 C75.3906 190.1094 75.4531 190.3438 75.5781 190.8125 L75.7344 191.3438 L76.1094 191.3438 L76.0938 190.5312 C76.0938 190.0938 76.2031 189.9688 76.7812 189.7344 L77.2031 189.5625 C78.0312 189.2188 78.4531 188.6875 78.4531 187.8438 C78.4531 186.1562 76.6562 185.1875 75.5 185.0312 C75.1094 185.125 74.9062 185.2969 74.9062 185.6406 C74.9062 185.9375 75.0625 186.1562 75.7188 186.2656 L77.4688 186.5781 Z"
      /><rect x="74" y="200" width="5" style="fill:white; stroke:none;" height="10"
      /><path style="stroke:none;" d="M75.8906 208.6875 C75.4844 208.6875 75.1562 209.0469 75.1562 209.4219 C75.1562 209.8125 75.4844 210.1562 75.8906 210.1562 C76.2969 210.1562 76.6406 209.8125 76.6406 209.4219 C76.6406 209.0469 76.2969 208.6875 75.8906 208.6875 ZM77.4688 202.5781 C77.7188 202.8906 77.875 203.2656 77.8906 203.6562 C77.8906 204.1875 77.625 204.5 77.0312 204.7656 L76.4062 205.0156 C75.6406 205.3125 75.3906 205.5469 75.3906 205.9375 C75.3906 206.1094 75.4531 206.3438 75.5781 206.8125 L75.7344 207.3438 L76.1094 207.3438 L76.0938 206.5312 C76.0938 206.0938 76.2031 205.9688 76.7812 205.7344 L77.2031 205.5625 C78.0312 205.2188 78.4531 204.6875 78.4531 203.8438 C78.4531 202.1562 76.6562 201.1875 75.5 201.0312 C75.1094 201.125 74.9062 201.2969 74.9062 201.6406 C74.9062 201.9375 75.0625 202.1562 75.7188 202.2656 L77.4688 202.5781 Z"
      /><path style="stroke:none;" d="M32.7031 202.1875 C34.5156 202.1875 35.9844 201.0938 35.9844 199.25 C35.9844 197.8594 35.0156 196.9375 33.8125 196.6562 L33.8125 196.5938 C34.8906 196.1875 35.6406 195.3594 35.6406 194.125 C35.6406 192.5 34.375 191.5469 32.6562 191.5469 C31.4688 191.5469 30.5469 192.0625 29.7812 192.7812 L30.4688 193.5938 C31.0469 193 31.7656 192.5938 32.5938 192.5938 C33.6562 192.5938 34.3281 193.2344 34.3281 194.2188 C34.3281 195.3281 33.6094 196.1719 31.4844 196.1719 L31.4844 197.1562 C33.8594 197.1562 34.6875 197.9844 34.6875 199.2031 C34.6875 200.3906 33.8125 201.125 32.5938 201.125 C31.4375 201.125 30.6562 200.5781 30.0469 199.9375 L29.4062 200.7812 C30.0781 201.5156 31.0938 202.1875 32.7031 202.1875 ZM36.9731 202 L38.3168 202 L39.3481 200.2188 C39.6137 199.7656 39.8637 199.2969 40.1293 198.8594 L40.2075 198.8594 C40.4731 199.2969 40.7543 199.7656 41.0043 200.2188 L42.1293 202 L43.5356 202 L41.02 198.1562 L43.3325 194.3906 L42.0043 194.3906 L41.0668 196.0625 C40.8481 196.5 40.6137 196.9219 40.3793 197.3438 L40.3325 197.3438 C40.0668 196.9219 39.8012 196.5 39.5668 196.0625 L38.5512 194.3906 L37.1762 194.3906 L39.4887 198.0312 L36.9731 202 Z"
    /></g
    ><g style="fill:white; text-rendering:optimizeSpeed; font-size:14px; font-family:'SansSerif'; stroke:white;"
    ><rect x="47" y="134" width="22" style="clip-path:url(#clipPath3); stroke:none;" height="22"
      /><rect x="47" y="134" width="22" style="clip-path:url(#clipPath3); fill:rgb(0,144,188); stroke:none;" height="22"
      /><rect x="47" y="134" width="22" style="clip-path:url(#clipPath3); fill:none; stroke:black;" height="22"
      /><rect x="47" y="134" width="22" style="fill:none; stroke:black;" height="22"
      /><rect x="74" width="5" height="10" y="132" style="stroke:none;"
    /></g
    ><g style="font-family:'Serif'; text-rendering:optimizeSpeed; "
    ><path style="stroke:none;" d="M75.8906 140.6875 C75.4844 140.6875 75.1562 141.0469 75.1562 141.4219 C75.1562 141.8125 75.4844 142.1562 75.8906 142.1562 C76.2969 142.1562 76.6406 141.8125 76.6406 141.4219 C76.6406 141.0469 76.2969 140.6875 75.8906 140.6875 ZM77.4688 134.5781 C77.7188 134.8906 77.875 135.2656 77.8906 135.6562 C77.8906 136.1875 77.625 136.5 77.0312 136.7656 L76.4062 137.0156 C75.6406 137.3125 75.3906 137.5469 75.3906 137.9375 C75.3906 138.1094 75.4531 138.3438 75.5781 138.8125 L75.7344 139.3438 L76.1094 139.3438 L76.0938 138.5312 C76.0938 138.0938 76.2031 137.9688 76.7812 137.7344 L77.2031 137.5625 C78.0312 137.2188 78.4531 136.6875 78.4531 135.8438 C78.4531 134.1562 76.6562 133.1875 75.5 133.0312 C75.1094 133.125 74.9062 133.2969 74.9062 133.6406 C74.9062 133.9375 75.0625 134.1562 75.7188 134.2656 L77.4688 134.5781 Z"
      /><rect x="74" y="148" width="5" style="fill:white; stroke:none;" height="10"
      /><path style="stroke:none;" d="M75.8906 156.6875 C75.4844 156.6875 75.1562 157.0469 75.1562 157.4219 C75.1562 157.8125 75.4844 158.1562 75.8906 158.1562 C76.2969 158.1562 76.6406 157.8125 76.6406 157.4219 C76.6406 157.0469 76.2969 156.6875 75.8906 156.6875 ZM77.4688 150.5781 C77.7188 150.8906 77.875 151.2656 77.8906 151.6562 C77.8906 152.1875 77.625 152.5 77.0312 152.7656 L76.4062 153.0156 C75.6406 153.3125 75.3906 153.5469 75.3906 153.9375 C75.3906 154.1094 75.4531 154.3438 75.5781 154.8125 L75.7344 155.3438 L76.1094 155.3438 L76.0938 154.5312 C76.0938 154.0938 76.2031 153.9688 76.7812 153.7344 L77.2031 153.5625 C78.0312 153.2188 78.4531 152.6875 78.4531 151.8438 C78.4531 150.1562 76.6562 149.1875 75.5 149.0312 C75.1094 149.125 74.9062 149.2969 74.9062 149.6406 C74.9062 149.9375 75.0625 150.1562 75.7188 150.2656 L77.4688 150.5781 Z"
      /><path style="stroke:none;" d="M31.7656 149 L33.1094 149 C33.25 144.9844 33.7031 142.5938 36.1094 139.5156 L36.1094 138.7188 L29.6875 138.7188 L29.6875 139.8281 L34.6562 139.8281 C32.6562 142.625 31.9375 145.1094 31.7656 149 ZM36.9731 149 L38.3168 149 L39.3481 147.2188 C39.6137 146.7656 39.8637 146.2969 40.1293 145.8594 L40.2075 145.8594 C40.4731 146.2969 40.7543 146.7656 41.0043 147.2188 L42.1293 149 L43.5356 149 L41.02 145.1562 L43.3325 141.3906 L42.0043 141.3906 L41.0668 143.0625 C40.8481 143.5 40.6137 143.9219 40.3793 144.3438 L40.3325 144.3438 C40.0668 143.9219 39.8012 143.5 39.5668 143.0625 L38.5512 141.3906 L37.1762 141.3906 L39.4887 145.0312 L36.9731 149 Z"
    /></g
    ><g style="fill:white; text-rendering:optimizeSpeed; font-size:14px; font-family:'SansSerif'; stroke:white;"
    ><circle r="11" style="clip-path:url(#clipPath4); stroke:none;" cx="58" cy="93"
      /><rect x="47" y="82" width="22" style="clip-path:url(#clipPath4); fill:rgb(0,166,81); stroke:none;" height="22"
      /><rect x="47" y="82" width="22" style="clip-path:url(#clipPath4); fill:none; stroke:black;" height="22"
      /><circle r="11" style="fill:none; stroke:black;" cx="58" cy="93"
      /><rect x="74" width="5" height="10" y="80" style="stroke:none;"
    /></g
    ><g style="font-family:'Serif'; text-rendering:optimizeSpeed; "
    ><path style="stroke:none;" d="M75.8906 88.6875 C75.4844 88.6875 75.1562 89.0469 75.1562 89.4219 C75.1562 89.8125 75.4844 90.1562 75.8906 90.1562 C76.2969 90.1562 76.6406 89.8125 76.6406 89.4219 C76.6406 89.0469 76.2969 88.6875 75.8906 88.6875 ZM77.4688 82.5781 C77.7188 82.8906 77.875 83.2656 77.8906 83.6562 C77.8906 84.1875 77.625 84.5 77.0312 84.7656 L76.4062 85.0156 C75.6406 85.3125 75.3906 85.5469 75.3906 85.9375 C75.3906 86.1094 75.4531 86.3438 75.5781 86.8125 L75.7344 87.3438 L76.1094 87.3438 L76.0938 86.5312 C76.0938 86.0938 76.2031 85.9688 76.7812 85.7344 L77.2031 85.5625 C78.0312 85.2188 78.4531 84.6875 78.4531 83.8438 C78.4531 82.1562 76.6562 81.1875 75.5 81.0312 C75.1094 81.125 74.9062 81.2969 74.9062 81.6406 C74.9062 81.9375 75.0625 82.1562 75.7188 82.2656 L77.4688 82.5781 Z"
      /><rect x="74" y="96" width="5" style="fill:white; stroke:none;" height="10"
      /><path style="stroke:none;" d="M75.8906 104.6875 C75.4844 104.6875 75.1562 105.0469 75.1562 105.4219 C75.1562 105.8125 75.4844 106.1562 75.8906 106.1562 C76.2969 106.1562 76.6406 105.8125 76.6406 105.4219 C76.6406 105.0469 76.2969 104.6875 75.8906 104.6875 ZM77.4688 98.5781 C77.7188 98.8906 77.875 99.2656 77.8906 99.6562 C77.8906 100.1875 77.625 100.5 77.0312 100.7656 L76.4062 101.0156 C75.6406 101.3125 75.3906 101.5469 75.3906 101.9375 C75.3906 102.1094 75.4531 102.3438 75.5781 102.8125 L75.7344 103.3438 L76.1094 103.3438 L76.0938 102.5312 C76.0938 102.0938 76.2031 101.9688 76.7812 101.7344 L77.2031 101.5625 C78.0312 101.2188 78.4531 100.6875 78.4531 99.8438 C78.4531 98.1562 76.6562 97.1875 75.5 97.0312 C75.1094 97.125 74.9062 97.2969 74.9062 97.6406 C74.9062 97.9375 75.0625 98.1562 75.7188 98.2656 L77.4688 98.5781 Z"
      /><path style="stroke:none;" d="M32.7031 98.1875 C34.5156 98.1875 35.9844 97.0938 35.9844 95.25 C35.9844 93.8594 35.0156 92.9375 33.8125 92.6562 L33.8125 92.5938 C34.8906 92.1875 35.6406 91.3594 35.6406 90.125 C35.6406 88.5 34.375 87.5469 32.6562 87.5469 C31.4688 87.5469 30.5469 88.0625 29.7812 88.7812 L30.4688 89.5938 C31.0469 89 31.7656 88.5938 32.5938 88.5938 C33.6562 88.5938 34.3281 89.2344 34.3281 90.2188 C34.3281 91.3281 33.6094 92.1719 31.4844 92.1719 L31.4844 93.1562 C33.8594 93.1562 34.6875 93.9844 34.6875 95.2031 C34.6875 96.3906 33.8125 97.125 32.5938 97.125 C31.4375 97.125 30.6562 96.5781 30.0469 95.9375 L29.4062 96.7812 C30.0781 97.5156 31.0938 98.1875 32.7031 98.1875 ZM36.9731 98 L38.3168 98 L39.3481 96.2188 C39.6137 95.7656 39.8637 95.2969 40.1293 94.8594 L40.2075 94.8594 C40.4731 95.2969 40.7543 95.7656 41.0043 96.2188 L42.1293 98 L43.5356 98 L41.02 94.1562 L43.3325 90.3906 L42.0043 90.3906 L41.0668 92.0625 C40.8481 92.5 40.6137 92.9219 40.3793 93.3438 L40.3325 93.3438 C40.0668 92.9219 39.8012 92.5 39.5668 92.0625 L38.5512 90.3906 L37.1762 90.3906 L39.4887 94.0312 L36.9731 98 Z"
    /></g
    ><g style="fill:white; text-rendering:optimizeSpeed; font-size:14px; font-family:'SansSerif'; stroke:white;"
    ><circle r="11" style="clip-path:url(#clipPath5); stroke:none;" cx="58" cy="41"
      /><rect x="47" y="30" width="22" style="clip-path:url(#clipPath5); fill:rgb(255,212,0); stroke:none;" height="22"
      /><rect x="47" y="30" width="22" style="clip-path:url(#clipPath5); fill:none; stroke:black;" height="22"
      /><circle r="11" style="fill:none; stroke:black;" cx="58" cy="41"
      /><rect x="74" width="5" height="10" y="28" style="stroke:none;"
    /></g
    ><g style="font-family:'Serif'; text-rendering:optimizeSpeed; "
    ><path style="stroke:none;" d="M75.8906 36.6875 C75.4844 36.6875 75.1562 37.0469 75.1562 37.4219 C75.1562 37.8125 75.4844 38.1562 75.8906 38.1562 C76.2969 38.1562 76.6406 37.8125 76.6406 37.4219 C76.6406 37.0469 76.2969 36.6875 75.8906 36.6875 ZM77.4688 30.5781 C77.7188 30.8906 77.875 31.2656 77.8906 31.6562 C77.8906 32.1875 77.625 32.5 77.0312 32.7656 L76.4062 33.0156 C75.6406 33.3125 75.3906 33.5469 75.3906 33.9375 C75.3906 34.1094 75.4531 34.3438 75.5781 34.8125 L75.7344 35.3438 L76.1094 35.3438 L76.0938 34.5312 C76.0938 34.0938 76.2031 33.9688 76.7812 33.7344 L77.2031 33.5625 C78.0312 33.2188 78.4531 32.6875 78.4531 31.8438 C78.4531 30.1562 76.6562 29.1875 75.5 29.0312 C75.1094 29.125 74.9062 29.2969 74.9062 29.6406 C74.9062 29.9375 75.0625 30.1562 75.7188 30.2656 L77.4688 30.5781 Z"
      /><rect x="74" y="44" width="5" style="fill:white; stroke:none;" height="10"
      /><path style="stroke:none;" d="M75.8906 52.6875 C75.4844 52.6875 75.1562 53.0469 75.1562 53.4219 C75.1562 53.8125 75.4844 54.1562 75.8906 54.1562 C76.2969 54.1562 76.6406 53.8125 76.6406 53.4219 C76.6406 53.0469 76.2969 52.6875 75.8906 52.6875 ZM77.4688 46.5781 C77.7188 46.8906 77.875 47.2656 77.8906 47.6562 C77.8906 48.1875 77.625 48.5 77.0312 48.7656 L76.4062 49.0156 C75.6406 49.3125 75.3906 49.5469 75.3906 49.9375 C75.3906 50.1094 75.4531 50.3438 75.5781 50.8125 L75.7344 51.3438 L76.1094 51.3438 L76.0938 50.5312 C76.0938 50.0938 76.2031 49.9688 76.7812 49.7344 L77.2031 49.5625 C78.0312 49.2188 78.4531 48.6875 78.4531 47.8438 C78.4531 46.1562 76.6562 45.1875 75.5 45.0312 C75.1094 45.125 74.9062 45.2969 74.9062 45.6406 C74.9062 45.9375 75.0625 46.1562 75.7188 46.2656 L77.4688 46.5781 Z"
      /><path style="stroke:none;" d="M30.6094 41.1562 L32.9531 37.6562 C33.2344 37.1406 33.5156 36.6406 33.7812 36.1406 L33.8281 36.1406 C33.7969 36.6719 33.7656 37.5 33.7656 38 L33.7656 41.1562 L30.6094 41.1562 ZM33.7656 45 L34.9688 45 L34.9688 42.1719 L36.3281 42.1719 L36.3281 41.1562 L34.9688 41.1562 L34.9688 34.7188 L33.5469 34.7188 L29.2812 41.3281 L29.2812 42.1719 L33.7656 42.1719 L33.7656 45 ZM36.9731 45 L38.3168 45 L39.3481 43.2188 C39.6137 42.7656 39.8637 42.2969 40.1293 41.8594 L40.2075 41.8594 C40.4731 42.2969 40.7543 42.7656 41.0043 43.2188 L42.1293 45 L43.5356 45 L41.02 41.1562 L43.3325 37.3906 L42.0043 37.3906 L41.0668 39.0625 C40.8481 39.5 40.6137 39.9219 40.3793 40.3438 L40.3325 40.3438 C40.0668 39.9219 39.8012 39.5 39.5668 39.0625 L38.5512 37.3906 L37.1762 37.3906 L39.4887 41.0312 L36.9731 45 Z"
    /></g
    ><g ID="legend-1:0" style="text-rendering:optimizeSpeed; font-size:10px; font-family:'SansSerif';"
    ><path style="stroke:none;" d="M30.9219 275 L31.8281 275 L31.8281 271.0625 C32.375 270.5156 32.7656 270.2344 33.3125 270.2344 C34.0469 270.2344 34.3438 270.6562 34.3438 271.6875 L34.3438 275 L35.2656 275 L35.2656 271.5625 C35.2656 270.1719 34.7344 269.4375 33.5938 269.4375 C32.8594 269.4375 32.2969 269.8438 31.7812 270.3438 L31.75 270.3438 L31.6719 269.5625 L30.9219 269.5625 L30.9219 275 ZM39.1413 275.125 C40.4694 275.125 41.6569 274.0938 41.6569 272.2969 C41.6569 270.4844 40.4694 269.4375 39.1413 269.4375 C37.8131 269.4375 36.6256 270.4844 36.6256 272.2969 C36.6256 274.0938 37.8131 275.125 39.1413 275.125 ZM39.1413 274.375 C38.2038 274.375 37.5631 273.5469 37.5631 272.2969 C37.5631 271.0469 38.2038 270.1875 39.1413 270.1875 C40.0788 270.1875 40.7194 271.0469 40.7194 272.2969 C40.7194 273.5469 40.0788 274.375 39.1413 274.375 ZM47.16 277.5 C48.8475 277.5 49.91 276.625 49.91 275.625 C49.91 274.7344 49.2694 274.3281 48.0038 274.3281 L46.9569 274.3281 C46.2225 274.3281 46.0038 274.0938 46.0038 273.7344 C46.0038 273.4375 46.1444 273.2656 46.3475 273.0938 C46.5975 273.2031 46.8944 273.2812 47.16 273.2812 C48.2538 273.2812 49.1444 272.5469 49.1444 271.3906 C49.1444 270.9219 48.9569 270.5156 48.7069 270.2656 L49.8163 270.2656 L49.8163 269.5625 L47.9256 269.5625 C47.7225 269.5 47.4569 269.4375 47.16 269.4375 C46.0663 269.4375 45.1131 270.1875 45.1131 271.375 C45.1131 272.0156 45.4725 272.5469 45.8319 272.8281 L45.8319 272.875 C45.5506 273.0625 45.2225 273.4375 45.2225 273.875 C45.2225 274.3125 45.4256 274.5938 45.7225 274.7656 L45.7225 274.8125 C45.2069 275.1406 44.9256 275.5781 44.9256 276.0469 C44.9256 276.9844 45.8319 277.5 47.16 277.5 ZM47.16 272.6562 C46.535 272.6562 46.0038 272.1562 46.0038 271.375 C46.0038 270.5625 46.5194 270.0938 47.16 270.0938 C47.8006 270.0938 48.3163 270.5781 48.3163 271.375 C48.3163 272.1562 47.785 272.6562 47.16 272.6562 ZM47.285 276.875 C46.3163 276.875 45.7225 276.5 45.7225 275.9219 C45.7225 275.5938 45.8788 275.2812 46.2694 275 C46.5038 275.0625 46.7694 275.0938 46.9725 275.0938 L47.91 275.0938 C48.6288 275.0938 49.0194 275.2656 49.0194 275.7656 C49.0194 276.3281 48.3319 276.875 47.285 276.875 ZM51.915 275.125 C52.165 275.125 52.3212 275.0938 52.4462 275.0469 L52.3212 274.3438 C52.2275 274.375 52.1806 274.375 52.1337 274.375 C51.9931 274.375 51.8681 274.2656 51.8681 273.9844 L51.8681 267.0469 L50.9619 267.0469 L50.9619 273.9219 C50.9619 274.6875 51.2431 275.125 51.915 275.125 ZM53.9056 277.3438 C54.9837 277.3438 55.5462 276.5156 55.9212 275.4531 L57.9681 269.5625 L57.0775 269.5625 L56.1087 272.5938 C55.9525 273.0625 55.7962 273.625 55.6556 274.1094 L55.5931 274.1094 C55.4369 273.625 55.2337 273.0625 55.0775 272.5938 L53.9681 269.5625 L53.015 269.5625 L55.2025 275.0156 L55.0775 275.4219 C54.8587 276.0938 54.4681 276.5938 53.8431 276.5938 C53.7025 276.5938 53.5462 276.5469 53.4369 276.5 L53.265 277.2344 C53.4369 277.2969 53.64 277.3438 53.9056 277.3438 ZM61.1625 275.125 C61.8031 275.125 62.4281 274.875 62.9125 274.4375 L62.5219 273.8281 C62.1781 274.1406 61.7406 274.375 61.2406 274.375 C60.2406 274.375 59.5531 273.5469 59.5531 272.2969 C59.5531 271.0469 60.2875 270.1875 61.2719 270.1875 C61.6937 270.1875 62.0375 270.3906 62.35 270.6719 L62.8187 270.0625 C62.4281 269.7344 61.9437 269.4375 61.225 269.4375 C59.8344 269.4375 58.6156 270.4844 58.6156 272.2969 C58.6156 274.0938 59.725 275.125 61.1625 275.125 ZM66.2212 275.125 C67.5493 275.125 68.7368 274.0938 68.7368 272.2969 C68.7368 270.4844 67.5493 269.4375 66.2212 269.4375 C64.8931 269.4375 63.7056 270.4844 63.7056 272.2969 C63.7056 274.0938 64.8931 275.125 66.2212 275.125 ZM66.2212 274.375 C65.2837 274.375 64.6431 273.5469 64.6431 272.2969 C64.6431 271.0469 65.2837 270.1875 66.2212 270.1875 C67.1587 270.1875 67.7993 271.0469 67.7993 272.2969 C67.7993 273.5469 67.1587 274.375 66.2212 274.375 ZM71.5937 275.125 C72.875 275.125 73.5625 274.4062 73.5625 273.5156 C73.5625 272.4844 72.7031 272.1719 71.9062 271.875 C71.2968 271.6406 70.7343 271.4531 70.7343 270.9375 C70.7343 270.5156 71.0625 270.1562 71.75 270.1562 C72.2343 270.1562 72.6093 270.3438 72.9843 270.625 L73.4218 270.0469 C73 269.7031 72.4062 269.4375 71.7343 269.4375 C70.5625 269.4375 69.8593 270.1094 69.8593 270.9688 C69.8593 271.8906 70.6875 272.2656 71.4531 272.5469 C72.0468 272.7656 72.6875 273.0156 72.6875 273.5625 C72.6875 274.0469 72.3437 274.4219 71.625 274.4219 C70.9687 274.4219 70.4843 274.1562 70.0156 273.7812 L69.5625 274.375 C70.0781 274.8125 70.8125 275.125 71.5937 275.125 ZM74.8518 275 L75.7581 275 L75.7581 269.5625 L74.8518 269.5625 L74.8518 275 ZM75.305 268.4531 C75.6643 268.4531 75.9143 268.2031 75.9143 267.8438 C75.9143 267.4844 75.6643 267.25 75.305 267.25 C74.9456 267.25 74.6956 267.4844 74.6956 267.8438 C74.6956 268.2031 74.9456 268.4531 75.305 268.4531 ZM79.4456 275.125 C80.1018 275.125 80.6643 274.7812 81.1018 274.3594 L81.1331 274.3594 L81.2112 275 L81.9456 275 L81.9456 267.0469 L81.055 267.0469 L81.055 269.125 L81.0862 270.0625 C80.6175 269.6719 80.1956 269.4375 79.555 269.4375 C78.3206 269.4375 77.2112 270.5312 77.2112 272.2969 C77.2112 274.0938 78.0862 275.125 79.4456 275.125 ZM79.6487 274.375 C78.6956 274.375 78.1487 273.5938 78.1487 272.2812 C78.1487 271.0469 78.8362 270.2031 79.7268 270.2031 C80.1643 270.2031 80.5862 270.3594 81.055 270.7656 L81.055 273.625 C80.5862 274.125 80.1487 274.375 79.6487 274.375 ZM83.8018 275 L84.7081 275 L84.7081 269.5625 L83.8018 269.5625 L83.8018 275 ZM84.255 268.4531 C84.6143 268.4531 84.8643 268.2031 84.8643 267.8438 C84.8643 267.4844 84.6143 267.25 84.255 267.25 C83.8956 267.25 83.6456 267.4844 83.6456 267.8438 C83.6456 268.2031 83.8956 268.4531 84.255 268.4531 ZM88.6925 275.125 C89.3331 275.125 89.9581 274.875 90.4425 274.4375 L90.0518 273.8281 C89.7081 274.1406 89.2706 274.375 88.7706 274.375 C87.7706 274.375 87.0831 273.5469 87.0831 272.2969 C87.0831 271.0469 87.8175 270.1875 88.8018 270.1875 C89.2237 270.1875 89.5675 270.3906 89.88 270.6719 L90.3487 270.0625 C89.9581 269.7344 89.4737 269.4375 88.755 269.4375 C87.3643 269.4375 86.1456 270.4844 86.1456 272.2969 C86.1456 274.0938 87.255 275.125 88.6925 275.125 ZM94.835 275.125 C95.085 275.125 95.2412 275.0938 95.3662 275.0469 L95.2412 274.3438 C95.1475 274.375 95.1006 274.375 95.0537 274.375 C94.9131 274.375 94.7881 274.2656 94.7881 273.9844 L94.7881 267.0469 L93.8818 267.0469 L93.8818 273.9219 C93.8818 274.6875 94.1631 275.125 94.835 275.125 ZM96.7318 275 L97.6381 275 L97.6381 269.5625 L96.7318 269.5625 L96.7318 275 ZM97.185 268.4531 C97.5443 268.4531 97.7943 268.2031 97.7943 267.8438 C97.7943 267.4844 97.5443 267.25 97.185 267.25 C96.8256 267.25 96.5756 267.4844 96.5756 267.8438 C96.5756 268.2031 96.8256 268.4531 97.185 268.4531 ZM99.4818 275 L100.3881 275 L100.3881 271.0625 C100.935 270.5156 101.3256 270.2344 101.8725 270.2344 C102.6068 270.2344 102.9037 270.6562 102.9037 271.6875 L102.9037 275 L103.8256 275 L103.8256 271.5625 C103.8256 270.1719 103.2943 269.4375 102.1537 269.4375 C101.4193 269.4375 100.8568 269.8438 100.3412 270.3438 L100.31 270.3438 L100.2318 269.5625 L99.4818 269.5625 L99.4818 275 ZM105.5918 275 L106.4825 275 L106.4825 273.5625 L107.5137 272.375 L109.1075 275 L110.0918 275 L108.045 271.7656 L109.8575 269.5625 L108.8262 269.5625 L106.5137 272.4375 L106.4825 272.4375 L106.4825 267.0469 L105.5918 267.0469 L105.5918 275 ZM112.3618 275.125 C113.0337 275.125 113.6431 274.7812 114.1587 274.3438 L114.1899 274.3438 L114.2681 275 L115.0181 275 L115.0181 271.6562 C115.0181 270.3125 114.4556 269.4375 113.1431 269.4375 C112.2681 269.4375 111.5024 269.8125 111.0024 270.1406 L111.3618 270.7656 C111.7837 270.4844 112.3618 270.1875 112.9868 270.1875 C113.8774 270.1875 114.1118 270.8594 114.1118 271.5625 C111.7993 271.8125 110.7681 272.4062 110.7681 273.5938 C110.7681 274.5625 111.4556 275.125 112.3618 275.125 ZM112.6274 274.4062 C112.0806 274.4062 111.6587 274.1562 111.6587 273.5312 C111.6587 272.8281 112.2837 272.375 114.1118 272.1562 L114.1118 273.6875 C113.5806 274.1562 113.1431 274.4062 112.6274 274.4062 ZM118.5799 277.5 C120.2674 277.5 121.3299 276.625 121.3299 275.625 C121.3299 274.7344 120.6893 274.3281 119.4237 274.3281 L118.3768 274.3281 C117.6424 274.3281 117.4237 274.0938 117.4237 273.7344 C117.4237 273.4375 117.5643 273.2656 117.7674 273.0938 C118.0174 273.2031 118.3143 273.2812 118.5799 273.2812 C119.6737 273.2812 120.5643 272.5469 120.5643 271.3906 C120.5643 270.9219 120.3768 270.5156 120.1268 270.2656 L121.2362 270.2656 L121.2362 269.5625 L119.3456 269.5625 C119.1424 269.5 118.8768 269.4375 118.5799 269.4375 C117.4862 269.4375 116.5331 270.1875 116.5331 271.375 C116.5331 272.0156 116.8924 272.5469 117.2518 272.8281 L117.2518 272.875 C116.9706 273.0625 116.6424 273.4375 116.6424 273.875 C116.6424 274.3125 116.8456 274.5938 117.1424 274.7656 L117.1424 274.8125 C116.6268 275.1406 116.3456 275.5781 116.3456 276.0469 C116.3456 276.9844 117.2518 277.5 118.5799 277.5 ZM118.5799 272.6562 C117.9549 272.6562 117.4237 272.1562 117.4237 271.375 C117.4237 270.5625 117.9393 270.0938 118.5799 270.0938 C119.2206 270.0938 119.7362 270.5781 119.7362 271.375 C119.7362 272.1562 119.2049 272.6562 118.5799 272.6562 ZM118.7049 276.875 C117.7362 276.875 117.1424 276.5 117.1424 275.9219 C117.1424 275.5938 117.2987 275.2812 117.6893 275 C117.9237 275.0625 118.1893 275.0938 118.3924 275.0938 L119.3299 275.0938 C120.0487 275.0938 120.4393 275.2656 120.4393 275.7656 C120.4393 276.3281 119.7518 276.875 118.7049 276.875 ZM124.5693 275.125 C125.3037 275.125 125.8974 274.875 126.3662 274.5625 L126.0381 273.9688 C125.6474 274.2344 125.2099 274.4062 124.6787 274.4062 C123.6474 274.4062 122.9443 273.6562 122.8818 272.5 L126.5381 272.5 C126.5537 272.375 126.5849 272.1875 126.5849 271.9844 C126.5849 270.4375 125.8037 269.4375 124.4131 269.4375 C123.1631 269.4375 121.9756 270.5312 121.9756 272.2969 C121.9756 274.0781 123.1318 275.125 124.5693 275.125 ZM122.8662 271.8438 C122.9756 270.7812 123.6631 270.1562 124.4287 270.1562 C125.2724 270.1562 125.7724 270.75 125.7724 271.8438 L122.8662 271.8438 ZM129.3437 275.125 C130.6249 275.125 131.3124 274.4062 131.3124 273.5156 C131.3124 272.4844 130.453 272.1719 129.6562 271.875 C129.0468 271.6406 128.4843 271.4531 128.4843 270.9375 C128.4843 270.5156 128.8124 270.1562 129.4999 270.1562 C129.9843 270.1562 130.3593 270.3438 130.7343 270.625 L131.1718 270.0469 C130.7499 269.7031 130.1562 269.4375 129.4843 269.4375 C128.3124 269.4375 127.6093 270.1094 127.6093 270.9688 C127.6093 271.8906 128.4374 272.2656 129.203 272.5469 C129.7968 272.7656 130.4374 273.0156 130.4374 273.5625 C130.4374 274.0469 130.0937 274.4219 129.3749 274.4219 C128.7187 274.4219 128.2343 274.1562 127.7655 273.7812 L127.3124 274.375 C127.828 274.8125 128.5624 275.125 129.3437 275.125 Z"
    /></g
  ></g
></svg
>
