<?xml version="1.0"?>
<!DOCTYPE svg PUBLIC '-//W3C//DTD SVG 1.0//EN'
          'http://www.w3.org/TR/2001/REC-SVG-20010904/DTD/svg10.dtd'>
<svg xmlns:xlink="http://www.w3.org/1999/xlink" style="fill-opacity:1; color-rendering:auto; color-interpolation:auto; text-rendering:auto; stroke:black; stroke-linecap:square; stroke-miterlimit:10; shape-rendering:auto; stroke-opacity:1; fill:black; stroke-dasharray:none; font-weight:normal; stroke-width:1; font-family:'Dialog'; font-style:normal; stroke-linejoin:miter; font-size:12px; stroke-dashoffset:0; image-rendering:auto;" viewBox="0 0 290 134" xmlns="http://www.w3.org/2000/svg"
><!--Generated by the Batik Graphics2D SVG Generator--><defs id="genericDefs"
  /><g
  ><defs id="defs1"
    ><clipPath clipPathUnits="userSpaceOnUse" id="clipPath1"
      ><path style="fill-rule:evenodd;" d="M208 67 L202 74 L191 74 L186 67 L191 59 L202 59 L208 67 Z"
      /></clipPath
      ><clipPath clipPathUnits="userSpaceOnUse" id="clipPath2"
      ><path style="fill-rule:evenodd;" d="M156 67 L150 74 L139 74 L134 67 L139 59 L150 59 L156 67 Z"
      /></clipPath
      ><clipPath clipPathUnits="userSpaceOnUse" id="clipPath3"
      ><path d="M104 93 C104 99.0751 99.0751 104 93 104 C86.9249 104 82 99.0751 82 93 C82 86.9249 86.9249 82 93 82 C99.0751 82 104 86.9249 104 93 Z"
      /></clipPath
      ><clipPath clipPathUnits="userSpaceOnUse" id="clipPath4"
      ><path d="M52 93 C52 99.0751 47.0751 104 41 104 C34.9249 104 30 99.0751 30 93 C30 86.9249 34.9249 82 41 82 C47.0751 82 52 86.9249 52 93 Z"
      /></clipPath
      ><clipPath clipPathUnits="userSpaceOnUse" id="clipPath5"
      ><path style="fill-rule:evenodd;" d="M104 41 L98 48 L87 48 L82 41 L87 33 L98 33 L104 41 Z"
      /></clipPath
    ></defs
    ><g style="fill:white; text-rendering:optimizeSpeed; stroke:white;"
    ><rect x="0" width="290" height="134" y="0" style="stroke:none;"
      /><polygon style="fill:none; stroke:black;" points=" 249 67 197 67"
      /><path d="M249 56 C243.5 61.5 254.5 72.5 249 78" style="fill:none; stroke:black;"
      /><polygon style="fill:none; stroke:black;" points=" 197 67 145 67"
      /><polygon style="clip-path:url(#clipPath1); stroke:none;" points=" 208 67 202 74 191 74 186 67 191 59 202 59 208 67"
      /><rect x="186" y="56" width="22" style="clip-path:url(#clipPath1); fill:rgb(0,166,81); stroke:none;" height="22"
      /><rect x="186" y="56" width="22" style="clip-path:url(#clipPath1); fill:none; stroke:black;" height="22"
      /><polygon style="fill:none; stroke:black;" points=" 208 67 202 74 191 74 186 67 191 59 202 59 208 67"
      /><polygon style="fill:none; stroke:black;" points=" 145 67 93 93"
      /><polygon style="fill:none; stroke:black;" points=" 145 67 93 41"
      /><polygon style="clip-path:url(#clipPath2); stroke:none;" points=" 156 67 150 74 139 74 134 67 139 59 150 59 156 67"
      /><rect x="134" y="56" width="22" style="clip-path:url(#clipPath2); fill:rgb(0,166,81); stroke:none;" height="22"
      /><rect x="134" y="56" width="22" style="clip-path:url(#clipPath2); fill:none; stroke:black;" height="22"
      /><polygon style="fill:none; stroke:black;" points=" 156 67 150 74 139 74 134 67 139 59 150 59 156 67"
      /><polygon style="fill:none; stroke:black;" points=" 93 93 41 93"
      /><circle style="clip-path:url(#clipPath3); stroke:none;" r="11" cx="93" cy="93"
      /><rect x="82" y="82" width="22" style="clip-path:url(#clipPath3); fill:rgb(0,144,188); stroke:none;" height="22"
      /><rect x="82" y="82" width="22" style="clip-path:url(#clipPath3); fill:none; stroke:black;" height="22"
      /><circle style="fill:none; stroke:black;" r="11" cx="93" cy="93"
      /><circle style="clip-path:url(#clipPath4); stroke:none;" r="11" cx="41" cy="93"
      /><rect x="30" y="82" width="22" style="clip-path:url(#clipPath4); fill:rgb(0,144,188); stroke:none;" height="22"
      /><rect x="30" y="82" width="22" style="clip-path:url(#clipPath4); fill:none; stroke:black;" height="22"
      /><circle style="fill:none; stroke:black;" r="11" cx="41" cy="93"
      /><rect x="71" y="96" width="6" style="stroke:none;" height="10"
    /></g
    ><g style="font-family:'Serif'; text-rendering:optimizeSpeed; "
    ><path style="stroke:none;" d="M74.3438 105.6875 C73.2031 105.6875 72.5312 104.5 72.5312 102.2969 C72.5312 102.2188 72.5312 102.125 72.5312 102.0469 C73.0938 101.5 73.7188 101.3125 74.3438 101.3125 C75.3125 101.3125 75.9531 101.9844 75.9531 103.4531 C75.9531 104.9375 75.3125 105.6875 74.3438 105.6875 ZM76.5312 97.0781 C73.3438 97.4531 71.5625 99.7656 71.5625 102.4531 C71.5625 104.7812 72.6094 106.1719 74.3125 106.1719 C75.8438 106.1719 76.9219 105.1094 76.9219 103.2812 C76.9219 101.6875 75.9688 100.6562 74.5625 100.6562 C73.8281 100.6562 73.1406 100.9844 72.5781 101.5781 C72.7969 99.4062 74.0781 97.9688 76.5938 97.3906 L76.5312 97.0781 Z"
      /><rect x="57" y="94" width="6" style="fill:white; stroke:none;" height="13"
      /><path style="stroke:none;" d="M59.0938 100.2031 C59.0938 98.6562 59.75 97.8125 60.7969 97.8125 C61.7188 97.8125 62.2656 98.4531 62.2656 99.5156 C62.2656 100.7188 61.5 101.4375 60.1875 101.7031 L60.2969 102.3125 C62.2188 102.2344 62.9375 103.2188 62.9375 104.4375 C62.9375 105.625 62.2344 106.4219 60.9531 106.4219 C60.25 106.4219 59.6562 106.1562 59.0938 105.7188 L59.0938 100.2031 ZM58.2031 106.9062 L58.1094 109.375 L58.2656 109.4844 L59.1562 109.2656 L59.0156 106.0938 C59.5469 106.8438 60.3594 107.1719 61.1719 107.1719 C62.5625 107.1719 63.8594 106.2188 63.8594 104.4844 C63.8594 102.9531 62.875 102.1094 61.125 102 C62.5625 101.6094 63.1875 100.4531 63.1875 99.4844 C63.1875 98.0938 62.1562 97.3125 60.9062 97.3125 C59.2969 97.3125 58.2188 98.5469 58.2188 100.5156 L58.2031 106.9062 Z"
      /><polygon style="fill:white; clip-path:url(#clipPath5); stroke:none;" points=" 104 41 98 48 87 48 82 41 87 33 98 33 104 41"
      /><rect x="82" y="30" width="22" style="clip-path:url(#clipPath5); fill:rgb(0,166,81); stroke:none;" height="22"
      /><rect x="82" y="30" width="22" style="fill:none; clip-path:url(#clipPath5);" height="22"
      /><polygon style="fill:none;" points=" 104 41 98 48 87 48 82 41 87 33 98 33 104 41"
      /><rect x="127" y="78" width="6" style="fill:white; stroke:none;" height="10"
      /><path style="stroke:none;" d="M129.2344 79.6562 C129.5156 79.5938 129.7656 79.5625 130.0156 79.5625 C131.0625 79.5625 131.6719 80.1719 131.6719 81.2656 C131.6719 82.4375 130.9062 83.1094 129.7031 83.1094 L129.1875 83.1094 L129.1875 83.6406 L129.7969 83.6406 C131.2188 83.6406 131.9062 84.4219 131.9062 85.6406 C131.9062 86.8438 131.1719 87.6875 129.875 87.6875 C129.6094 87.6875 129.3125 87.6562 129.0156 87.5625 L128.7812 86.8125 C128.625 86.2812 128.5 86.0469 128.1406 86.0469 C127.8906 86.0469 127.7031 86.1719 127.5781 86.4219 C127.8438 87.6406 128.7812 88.1719 130.0312 88.1719 C131.7188 88.1719 132.875 87.125 132.875 85.7031 C132.875 84.5 132.2031 83.625 130.7969 83.375 C131.9531 83.0156 132.6094 82.2031 132.6094 81.2031 C132.6094 79.9219 131.6719 79.0781 130.1875 79.0781 C129.0469 79.0781 128.0625 79.5938 127.7969 80.6875 C127.9062 81 128.1094 81.1094 128.3594 81.1094 C128.7344 81.1094 128.8906 80.8906 129 80.4062 L129.2344 79.6562 Z"
      /><rect x="110" y="87" width="8" style="fill:white; stroke:none;" height="8"
      /><path style="stroke:none;" d="M114.9844 92.7031 C114.9375 93.8906 114.1562 94.6562 113.3125 94.6562 C112.2656 94.6562 111.5 93.6875 111.5 91.7188 C111.5 90.2812 112.1562 89.1562 113.3438 89.1562 C114.1406 89.1562 114.7812 89.6875 115.0938 90.6406 L114.9844 92.7031 ZM116.9062 94.2812 C116.7344 94.375 116.5469 94.4219 116.3438 94.4219 C115.9531 94.4219 115.75 94.2188 115.75 93.4219 C115.75 92.4844 115.9688 90.5312 116.1875 88.8281 L116.0312 88.7188 L115.2344 88.9219 L115.1406 89.7969 C114.7812 89.0312 114.1562 88.6562 113.3906 88.6562 C112.0469 88.6562 110.5625 89.8438 110.5625 91.9531 C110.5625 94.0938 111.7188 95.1719 113.1406 95.1719 C114.0156 95.1719 114.6875 94.8125 115.0938 93.9844 C115.2031 94.8594 115.5156 95.1719 116.0156 95.1719 C116.4688 95.1719 116.7969 94.9062 117.0156 94.5625 L116.9062 94.2812 Z"
      /><rect x="120" y="60" width="6" style="fill:white; stroke:none;" height="9"
      /><path style="stroke:none;" d="M120.6406 60.25 L120.6406 61.1406 L125.2031 61.1406 L121.7812 68.875 L121.8906 69 L122.75 69 L125.875 60.7969 L125.875 60.25 L120.6406 60.25 Z"
      /><rect x="103" y="53" width="8" style="fill:white; stroke:none;" height="8"
      /><path style="stroke:none;" d="M107.9844 58.7031 C107.9375 59.8906 107.1562 60.6562 106.3125 60.6562 C105.2656 60.6562 104.5 59.6875 104.5 57.7188 C104.5 56.2812 105.1562 55.1562 106.3438 55.1562 C107.1406 55.1562 107.7812 55.6875 108.0938 56.6406 L107.9844 58.7031 ZM109.9062 60.2812 C109.7344 60.375 109.5469 60.4219 109.3438 60.4219 C108.9531 60.4219 108.75 60.2188 108.75 59.4219 C108.75 58.4844 108.9688 56.5312 109.1875 54.8281 L109.0312 54.7188 L108.2344 54.9219 L108.1406 55.7969 C107.7812 55.0312 107.1562 54.6562 106.3906 54.6562 C105.0469 54.6562 103.5625 55.8438 103.5625 57.9531 C103.5625 60.0938 104.7188 61.1719 106.1406 61.1719 C107.0156 61.1719 107.6875 60.8125 108.0938 59.9844 C108.2031 60.8594 108.5156 61.1719 109.0156 61.1719 C109.4688 61.1719 109.7969 60.9062 110.0156 60.5625 L109.9062 60.2812 Z"
      /><rect x="175" y="70" width="6" style="fill:white; stroke:none;" height="10"
      /><path style="stroke:none;" d="M177.2344 71.6562 C177.5156 71.5938 177.7656 71.5625 178.0156 71.5625 C179.0625 71.5625 179.6719 72.1719 179.6719 73.2656 C179.6719 74.4375 178.9062 75.1094 177.7031 75.1094 L177.1875 75.1094 L177.1875 75.6406 L177.7969 75.6406 C179.2188 75.6406 179.9062 76.4219 179.9062 77.6406 C179.9062 78.8438 179.1719 79.6875 177.875 79.6875 C177.6094 79.6875 177.3125 79.6562 177.0156 79.5625 L176.7812 78.8125 C176.625 78.2812 176.5 78.0469 176.1406 78.0469 C175.8906 78.0469 175.7031 78.1719 175.5781 78.4219 C175.8438 79.6406 176.7812 80.1719 178.0312 80.1719 C179.7188 80.1719 180.875 79.125 180.875 77.7031 C180.875 76.5 180.2031 75.625 178.7969 75.375 C179.9531 75.0156 180.6094 74.2031 180.6094 73.2031 C180.6094 71.9219 179.6719 71.0781 178.1875 71.0781 C177.0469 71.0781 176.0625 71.5938 175.7969 72.6875 C175.9062 73 176.1094 73.1094 176.3594 73.1094 C176.7344 73.1094 176.8906 72.8906 177 72.4062 L177.2344 71.6562 Z"
      /><rect x="160" y="71" width="8" style="fill:white; stroke:none;" height="8"
      /><path style="stroke:none;" d="M164.9844 76.7031 C164.9375 77.8906 164.1562 78.6562 163.3125 78.6562 C162.2656 78.6562 161.5 77.6875 161.5 75.7188 C161.5 74.2812 162.1562 73.1562 163.3438 73.1562 C164.1406 73.1562 164.7812 73.6875 165.0938 74.6406 L164.9844 76.7031 ZM166.9062 78.2812 C166.7344 78.375 166.5469 78.4219 166.3438 78.4219 C165.9531 78.4219 165.75 78.2188 165.75 77.4219 C165.75 76.4844 165.9688 74.5312 166.1875 72.8281 L166.0312 72.7188 L165.2344 72.9219 L165.1406 73.7969 C164.7812 73.0312 164.1562 72.6562 163.3906 72.6562 C162.0469 72.6562 160.5625 73.8438 160.5625 75.9531 C160.5625 78.0938 161.7188 79.1719 163.1406 79.1719 C164.0156 79.1719 164.6875 78.8125 165.0938 77.9844 C165.2031 78.8594 165.5156 79.1719 166.0156 79.1719 C166.4688 79.1719 166.7969 78.9062 167.0156 78.5625 L166.9062 78.2812 Z"
      /><rect x="212" y="71" width="8" style="fill:white; stroke:none;" height="8"
      /><path style="stroke:none;" d="M216.9844 76.7031 C216.9375 77.8906 216.1562 78.6562 215.3125 78.6562 C214.2656 78.6562 213.5 77.6875 213.5 75.7188 C213.5 74.2812 214.1562 73.1562 215.3438 73.1562 C216.1406 73.1562 216.7812 73.6875 217.0938 74.6406 L216.9844 76.7031 ZM218.9062 78.2812 C218.7344 78.375 218.5469 78.4219 218.3438 78.4219 C217.9531 78.4219 217.75 78.2188 217.75 77.4219 C217.75 76.4844 217.9688 74.5312 218.1875 72.8281 L218.0312 72.7188 L217.2344 72.9219 L217.1406 73.7969 C216.7812 73.0312 216.1562 72.6562 215.3906 72.6562 C214.0469 72.6562 212.5625 73.8438 212.5625 75.9531 C212.5625 78.0938 213.7188 79.1719 215.1406 79.1719 C216.0156 79.1719 216.6875 78.8125 217.0938 77.9844 C217.2031 78.8594 217.5156 79.1719 218.0156 79.1719 C218.4688 79.1719 218.7969 78.9062 219.0156 78.5625 L218.9062 78.2812 Z"
    /></g
  ></g
></svg
>
