<?xml version="1.0"?>
<!DOCTYPE svg PUBLIC '-//W3C//DTD SVG 1.0//EN'
          'http://www.w3.org/TR/2001/REC-SVG-20010904/DTD/svg10.dtd'>
<svg xmlns:xlink="http://www.w3.org/1999/xlink" style="fill-opacity:1; color-rendering:auto; color-interpolation:auto; text-rendering:auto; stroke:black; stroke-linecap:square; stroke-miterlimit:10; shape-rendering:auto; stroke-opacity:1; fill:black; stroke-dasharray:none; font-weight:normal; stroke-width:1; font-family:'Dialog'; font-style:normal; stroke-linejoin:miter; font-size:12px; stroke-dashoffset:0; image-rendering:auto;" viewBox="0 0 470 160" xmlns="http://www.w3.org/2000/svg"
><!--Generated by the Batik Graphics2D SVG Generator--><defs id="genericDefs"
  /><g
  ><defs id="defs1"
    ><clipPath clipPathUnits="userSpaceOnUse" id="clipPath1"
      ><path style="fill-rule:evenodd;" d="M353 56 L364 78 L342 78 Z"
      /></clipPath
      ><clipPath clipPathUnits="userSpaceOnUse" id="clipPath2"
      ><path style="fill-rule:evenodd;" d="M301 56 L312 67 L301 78 L290 67 Z"
      /></clipPath
      ><clipPath clipPathUnits="userSpaceOnUse" id="clipPath3"
      ><path style="fill-rule:evenodd;" d="M249 82 L260 104 L238 104 Z"
      /></clipPath
      ><clipPath clipPathUnits="userSpaceOnUse" id="clipPath4"
      ><path style="fill-rule:evenodd;" d="M197 82 L208 93 L197 104 L186 93 Z"
      /></clipPath
      ><clipPath clipPathUnits="userSpaceOnUse" id="clipPath5"
      ><path style="fill-rule:evenodd;" d="M145 108 L156 130 L134 130 Z"
      /></clipPath
      ><clipPath clipPathUnits="userSpaceOnUse" id="clipPath6"
      ><path style="fill-rule:evenodd;" d="M93 108 L104 119 L93 130 L82 119 Z"
      /></clipPath
      ><clipPath clipPathUnits="userSpaceOnUse" id="clipPath7"
      ><path style="fill-rule:evenodd;" d="M41 108 L52 119 L41 130 L30 119 Z"
      /></clipPath
      ><clipPath clipPathUnits="userSpaceOnUse" id="clipPath8"
      ><path style="fill-rule:evenodd;" d="M145 56 L156 67 L145 78 L134 67 Z"
      /></clipPath
      ><clipPath clipPathUnits="userSpaceOnUse" id="clipPath9"
      ><path style="fill-rule:evenodd;" d="M249 30 L260 41 L249 52 L238 41 Z"
      /></clipPath
    ></defs
    ><g style="fill:white; text-rendering:optimizeSpeed; stroke:white;"
    ><rect x="0" width="470" height="160" y="0" style="stroke:none;"
      /><polygon style="fill:none; stroke:black;" points=" 353 67 301 67"
      /><polygon style="clip-path:url(#clipPath1); stroke:none;" points=" 353 56 364 78 342 78"
      /><rect x="342" y="56" width="22" style="clip-path:url(#clipPath1); fill:rgb(0,166,81); stroke:none;" height="22"
      /><rect x="342" y="56" width="22" style="clip-path:url(#clipPath1); fill:none; stroke:black;" height="22"
      /><polygon style="fill:none; stroke:black;" points=" 353 56 364 78 342 78"
    /></g
    ><g style="font-style:italic; text-rendering:optimizeSpeed; font-size:10px; font-family:'SansSerif';"
    ><path style="stroke:none;" d="M353 69.125 C354.3281 69.125 355.7344 68.0938 356.125 66.2969 C356.5 64.4844 355.5469 63.4375 354.2188 63.4375 C352.8906 63.4375 351.4688 64.4844 351.0938 66.2969 C350.7031 68.0938 351.6719 69.125 353 69.125 ZM353.1719 68.375 C352.2344 68.375 351.7656 67.5469 352.0312 66.2969 C352.2969 65.0469 353.1094 64.1875 354.0469 64.1875 C354.9844 64.1875 355.4531 65.0469 355.1875 66.2969 C354.9219 67.5469 354.1094 68.375 353.1719 68.375 Z"
      /><polygon style="fill:none;" points=" 301 67 249 93"
      /><polygon style="fill:none;" points=" 301 67 249 41"
    /></g
    ><g style="fill:white; text-rendering:optimizeSpeed; stroke:white;"
    ><polygon style="stroke:none; clip-path:url(#clipPath2);" points=" 301 56 312 67 301 78 290 67"
      /><rect x="290" y="56" width="22" style="clip-path:url(#clipPath2); fill:rgb(255,212,0); stroke:none;" height="11"
      /><rect x="290" y="56" width="22" style="clip-path:url(#clipPath2); fill:none; stroke:black;" height="11"
      /><polygon style="fill:none; stroke:black;" points=" 301 56 312 67 301 78 290 67"
      /><polygon style="fill:none; stroke:black;" points=" 249 93 197 93"
      /><polygon style="clip-path:url(#clipPath3); stroke:none;" points=" 249 82 260 104 238 104"
      /><rect x="238" y="82" width="22" style="clip-path:url(#clipPath3); fill:rgb(0,166,81); stroke:none;" height="22"
      /><rect x="238" y="82" width="22" style="clip-path:url(#clipPath3); fill:none; stroke:black;" height="22"
      /><polygon style="fill:none; stroke:black;" points=" 249 82 260 104 238 104"
      /><polygon style="fill:none; stroke:black;" points=" 197 93 145 119"
      /><polygon style="fill:none; stroke:black;" points=" 197 93 145 67"
      /><polygon style="clip-path:url(#clipPath4); stroke:none;" points=" 197 82 208 93 197 104 186 93"
      /><rect x="186" y="82" width="22" style="clip-path:url(#clipPath4); fill:rgb(255,212,0); stroke:none;" height="11"
      /><rect x="186" y="82" width="22" style="clip-path:url(#clipPath4); fill:none; stroke:black;" height="11"
      /><polygon style="fill:none; stroke:black;" points=" 197 82 208 93 197 104 186 93"
      /><polygon style="fill:none; stroke:black;" points=" 145 119 93 119"
      /><polygon style="clip-path:url(#clipPath5); stroke:none;" points=" 145 108 156 130 134 130"
      /><rect x="134" y="108" width="22" style="clip-path:url(#clipPath5); fill:rgb(0,166,81); stroke:none;" height="22"
      /><rect x="134" y="108" width="22" style="clip-path:url(#clipPath5); fill:none; stroke:black;" height="22"
      /><polygon style="fill:none; stroke:black;" points=" 145 108 156 130 134 130"
      /><polygon style="fill:none; stroke:black;" points=" 93 119 41 119"
      /><polygon style="clip-path:url(#clipPath6); stroke:none;" points=" 93 108 104 119 93 130 82 119"
      /><rect x="82" y="108" width="22" style="clip-path:url(#clipPath6); fill:rgb(255,212,0); stroke:none;" height="11"
      /><rect x="82" y="108" width="22" style="clip-path:url(#clipPath6); fill:none; stroke:black;" height="11"
      /><polygon style="fill:none; stroke:black;" points=" 93 108 104 119 93 130 82 119"
      /><polygon style="clip-path:url(#clipPath7); stroke:none;" points=" 41 108 52 119 41 130 30 119"
      /><rect x="30" y="108" width="22" style="clip-path:url(#clipPath7); fill:rgb(0,144,188); stroke:none;" height="11"
      /><rect x="30" y="108" width="22" style="clip-path:url(#clipPath7); fill:none; stroke:black;" height="11"
      /><polygon style="fill:none; stroke:black;" points=" 41 108 52 119 41 130 30 119"
      /><rect x="71" width="5" height="10" y="122" style="stroke:none;"
      /><path d="M72.8906 130.6875 C72.4844 130.6875 72.1562 131.0469 72.1562 131.4219 C72.1562 131.8125 72.4844 132.1562 72.8906 132.1562 C73.2969 132.1562 73.6406 131.8125 73.6406 131.4219 C73.6406 131.0469 73.2969 130.6875 72.8906 130.6875 ZM74.4688 124.5781 C74.7188 124.8906 74.875 125.2656 74.8906 125.6562 C74.8906 126.1875 74.625 126.5 74.0312 126.7656 L73.4062 127.0156 C72.6406 127.3125 72.3906 127.5469 72.3906 127.9375 C72.3906 128.1094 72.4531 128.3438 72.5781 128.8125 L72.7344 129.3438 L73.1094 129.3438 L73.0938 128.5312 C73.0938 128.0938 73.2031 127.9688 73.7812 127.7344 L74.2031 127.5625 C75.0312 127.2188 75.4531 126.6875 75.4531 125.8438 C75.4531 124.1562 73.6562 123.1875 72.5 123.0312 C72.1094 123.125 71.9062 123.2969 71.9062 123.6406 C71.9062 123.9375 72.0625 124.1562 72.7188 124.2656 L74.4688 124.5781 Z" style="fill:black; stroke:none;"
      /><rect x="57" width="5" height="10" y="122" style="stroke:none;"
      /><path d="M58.8906 130.6875 C58.4844 130.6875 58.1562 131.0469 58.1562 131.4219 C58.1562 131.8125 58.4844 132.1562 58.8906 132.1562 C59.2969 132.1562 59.6406 131.8125 59.6406 131.4219 C59.6406 131.0469 59.2969 130.6875 58.8906 130.6875 ZM60.4688 124.5781 C60.7188 124.8906 60.875 125.2656 60.8906 125.6562 C60.8906 126.1875 60.625 126.5 60.0312 126.7656 L59.4062 127.0156 C58.6406 127.3125 58.3906 127.5469 58.3906 127.9375 C58.3906 128.1094 58.4531 128.3438 58.5781 128.8125 L58.7344 129.3438 L59.1094 129.3438 L59.0938 128.5312 C59.0938 128.0938 59.2031 127.9688 59.7812 127.7344 L60.2031 127.5625 C61.0312 127.2188 61.4531 126.6875 61.4531 125.8438 C61.4531 124.1562 59.6562 123.1875 58.5 123.0312 C58.1094 123.125 57.9062 123.2969 57.9062 123.6406 C57.9062 123.9375 58.0625 124.1562 58.7188 124.2656 L60.4688 124.5781 Z" style="fill:black; stroke:none;"
      /><rect x="123" width="5" height="10" y="122" style="stroke:none;"
      /><path d="M124.8906 130.6875 C124.4844 130.6875 124.1562 131.0469 124.1562 131.4219 C124.1562 131.8125 124.4844 132.1562 124.8906 132.1562 C125.2969 132.1562 125.6406 131.8125 125.6406 131.4219 C125.6406 131.0469 125.2969 130.6875 124.8906 130.6875 ZM126.4688 124.5781 C126.7188 124.8906 126.875 125.2656 126.8906 125.6562 C126.8906 126.1875 126.625 126.5 126.0312 126.7656 L125.4062 127.0156 C124.6406 127.3125 124.3906 127.5469 124.3906 127.9375 C124.3906 128.1094 124.4531 128.3438 124.5781 128.8125 L124.7344 129.3438 L125.1094 129.3438 L125.0938 128.5312 C125.0938 128.0938 125.2031 127.9688 125.7812 127.7344 L126.2031 127.5625 C127.0312 127.2188 127.4531 126.6875 127.4531 125.8438 C127.4531 124.1562 125.6562 123.1875 124.5 123.0312 C124.1094 123.125 123.9062 123.2969 123.9062 123.6406 C123.9062 123.9375 124.0625 124.1562 124.7188 124.2656 L126.4688 124.5781 Z" style="fill:black; stroke:none;"
      /><rect x="109" width="5" height="10" y="122" style="stroke:none;"
      /><path d="M110.8906 130.6875 C110.4844 130.6875 110.1562 131.0469 110.1562 131.4219 C110.1562 131.8125 110.4844 132.1562 110.8906 132.1562 C111.2969 132.1562 111.6406 131.8125 111.6406 131.4219 C111.6406 131.0469 111.2969 130.6875 110.8906 130.6875 ZM112.4688 124.5781 C112.7188 124.8906 112.875 125.2656 112.8906 125.6562 C112.8906 126.1875 112.625 126.5 112.0312 126.7656 L111.4062 127.0156 C110.6406 127.3125 110.3906 127.5469 110.3906 127.9375 C110.3906 128.1094 110.4531 128.3438 110.5781 128.8125 L110.7344 129.3438 L111.1094 129.3438 L111.0938 128.5312 C111.0938 128.0938 111.2031 127.9688 111.7812 127.7344 L112.2031 127.5625 C113.0312 127.2188 113.4531 126.6875 113.4531 125.8438 C113.4531 124.1562 111.6562 123.1875 110.5 123.0312 C110.1094 123.125 109.9062 123.2969 109.9062 123.6406 C109.9062 123.9375 110.0625 124.1562 110.7188 124.2656 L112.4688 124.5781 Z" style="fill:black; stroke:none;"
      /><polygon style="clip-path:url(#clipPath8); stroke:none;" points=" 145 56 156 67 145 78 134 67"
      /><rect x="134" y="56" width="22" style="clip-path:url(#clipPath8); fill:rgb(0,144,188); stroke:none;" height="11"
      /><rect x="134" y="56" width="22" style="clip-path:url(#clipPath8); fill:none; stroke:black;" height="11"
      /><polygon style="fill:none; stroke:black;" points=" 145 56 156 67 145 78 134 67"
      /><rect x="179" width="5" height="10" y="104" style="stroke:none;"
      /><path d="M180.8906 112.6875 C180.4844 112.6875 180.1562 113.0469 180.1562 113.4219 C180.1562 113.8125 180.4844 114.1562 180.8906 114.1562 C181.2969 114.1562 181.6406 113.8125 181.6406 113.4219 C181.6406 113.0469 181.2969 112.6875 180.8906 112.6875 ZM182.4688 106.5781 C182.7188 106.8906 182.875 107.2656 182.8906 107.6562 C182.8906 108.1875 182.625 108.5 182.0312 108.7656 L181.4062 109.0156 C180.6406 109.3125 180.3906 109.5469 180.3906 109.9375 C180.3906 110.1094 180.4531 110.3438 180.5781 110.8125 L180.7344 111.3438 L181.1094 111.3438 L181.0938 110.5312 C181.0938 110.0938 181.2031 109.9688 181.7812 109.7344 L182.2031 109.5625 C183.0312 109.2188 183.4531 108.6875 183.4531 107.8438 C183.4531 106.1562 181.6562 105.1875 180.5 105.0312 C180.1094 105.125 179.9062 105.2969 179.9062 105.6406 C179.9062 105.9375 180.0625 106.1562 180.7188 106.2656 L182.4688 106.5781 Z" style="fill:black; stroke:none;"
      /><rect x="164" width="5" height="10" y="112" style="stroke:none;"
      /><path d="M165.8906 120.6875 C165.4844 120.6875 165.1562 121.0469 165.1562 121.4219 C165.1562 121.8125 165.4844 122.1562 165.8906 122.1562 C166.2969 122.1562 166.6406 121.8125 166.6406 121.4219 C166.6406 121.0469 166.2969 120.6875 165.8906 120.6875 ZM167.4688 114.5781 C167.7188 114.8906 167.875 115.2656 167.8906 115.6562 C167.8906 116.1875 167.625 116.5 167.0312 116.7656 L166.4062 117.0156 C165.6406 117.3125 165.3906 117.5469 165.3906 117.9375 C165.3906 118.1094 165.4531 118.3438 165.5781 118.8125 L165.7344 119.3438 L166.1094 119.3438 L166.0938 118.5312 C166.0938 118.0938 166.2031 117.9688 166.7812 117.7344 L167.2031 117.5625 C168.0312 117.2188 168.4531 116.6875 168.4531 115.8438 C168.4531 114.1562 166.6562 113.1875 165.5 113.0312 C165.1094 113.125 164.9062 113.2969 164.9062 113.6406 C164.9062 113.9375 165.0625 114.1562 165.7188 114.2656 L167.4688 114.5781 Z" style="fill:black; stroke:none;"
      /><rect x="172" width="5" height="10" y="86" style="stroke:none;"
      /><path d="M173.8906 94.6875 C173.4844 94.6875 173.1562 95.0469 173.1562 95.4219 C173.1562 95.8125 173.4844 96.1562 173.8906 96.1562 C174.2969 96.1562 174.6406 95.8125 174.6406 95.4219 C174.6406 95.0469 174.2969 94.6875 173.8906 94.6875 ZM175.4688 88.5781 C175.7188 88.8906 175.875 89.2656 175.8906 89.6562 C175.8906 90.1875 175.625 90.5 175.0312 90.7656 L174.4062 91.0156 C173.6406 91.3125 173.3906 91.5469 173.3906 91.9375 C173.3906 92.1094 173.4531 92.3438 173.5781 92.8125 L173.7344 93.3438 L174.1094 93.3438 L174.0938 92.5312 C174.0938 92.0938 174.2031 91.9688 174.7812 91.7344 L175.2031 91.5625 C176.0312 91.2188 176.4531 90.6875 176.4531 89.8438 C176.4531 88.1562 174.6562 87.1875 173.5 87.0312 C173.1094 87.125 172.9062 87.2969 172.9062 87.6406 C172.9062 87.9375 173.0625 88.1562 173.7188 88.2656 L175.4688 88.5781 Z" style="fill:black; stroke:none;"
      /><rect x="157" width="5" height="10" y="78" style="stroke:none;"
      /><path d="M158.8906 86.6875 C158.4844 86.6875 158.1562 87.0469 158.1562 87.4219 C158.1562 87.8125 158.4844 88.1562 158.8906 88.1562 C159.2969 88.1562 159.6406 87.8125 159.6406 87.4219 C159.6406 87.0469 159.2969 86.6875 158.8906 86.6875 ZM160.4688 80.5781 C160.7188 80.8906 160.875 81.2656 160.8906 81.6562 C160.8906 82.1875 160.625 82.5 160.0312 82.7656 L159.4062 83.0156 C158.6406 83.3125 158.3906 83.5469 158.3906 83.9375 C158.3906 84.1094 158.4531 84.3438 158.5781 84.8125 L158.7344 85.3438 L159.1094 85.3438 L159.0938 84.5312 C159.0938 84.0938 159.2031 83.9688 159.7812 83.7344 L160.2031 83.5625 C161.0312 83.2188 161.4531 82.6875 161.4531 81.8438 C161.4531 80.1562 159.6562 79.1875 158.5 79.0312 C158.1094 79.125 157.9062 79.2969 157.9062 79.6406 C157.9062 79.9375 158.0625 80.1562 158.7188 80.2656 L160.4688 80.5781 Z" style="fill:black; stroke:none;"
      /><rect x="227" width="5" height="10" y="96" style="stroke:none;"
      /><path d="M228.8906 104.6875 C228.4844 104.6875 228.1562 105.0469 228.1562 105.4219 C228.1562 105.8125 228.4844 106.1562 228.8906 106.1562 C229.2969 106.1562 229.6406 105.8125 229.6406 105.4219 C229.6406 105.0469 229.2969 104.6875 228.8906 104.6875 ZM230.4688 98.5781 C230.7188 98.8906 230.875 99.2656 230.8906 99.6562 C230.8906 100.1875 230.625 100.5 230.0312 100.7656 L229.4062 101.0156 C228.6406 101.3125 228.3906 101.5469 228.3906 101.9375 C228.3906 102.1094 228.4531 102.3438 228.5781 102.8125 L228.7344 103.3438 L229.1094 103.3438 L229.0938 102.5312 C229.0938 102.0938 229.2031 101.9688 229.7812 101.7344 L230.2031 101.5625 C231.0312 101.2188 231.4531 100.6875 231.4531 99.8438 C231.4531 98.1562 229.6562 97.1875 228.5 97.0312 C228.1094 97.125 227.9062 97.2969 227.9062 97.6406 C227.9062 97.9375 228.0625 98.1562 228.7188 98.2656 L230.4688 98.5781 Z" style="fill:black; stroke:none;"
      /><rect x="213" width="5" height="10" y="96" style="stroke:none;"
      /><path d="M214.8906 104.6875 C214.4844 104.6875 214.1562 105.0469 214.1562 105.4219 C214.1562 105.8125 214.4844 106.1562 214.8906 106.1562 C215.2969 106.1562 215.6406 105.8125 215.6406 105.4219 C215.6406 105.0469 215.2969 104.6875 214.8906 104.6875 ZM216.4688 98.5781 C216.7188 98.8906 216.875 99.2656 216.8906 99.6562 C216.8906 100.1875 216.625 100.5 216.0312 100.7656 L215.4062 101.0156 C214.6406 101.3125 214.3906 101.5469 214.3906 101.9375 C214.3906 102.1094 214.4531 102.3438 214.5781 102.8125 L214.7344 103.3438 L215.1094 103.3438 L215.0938 102.5312 C215.0938 102.0938 215.2031 101.9688 215.7812 101.7344 L216.2031 101.5625 C217.0312 101.2188 217.4531 100.6875 217.4531 99.8438 C217.4531 98.1562 215.6562 97.1875 214.5 97.0312 C214.1094 97.125 213.9062 97.2969 213.9062 97.6406 C213.9062 97.9375 214.0625 98.1562 214.7188 98.2656 L216.4688 98.5781 Z" style="fill:black; stroke:none;"
      /><polygon style="clip-path:url(#clipPath9); stroke:none;" points=" 249 30 260 41 249 52 238 41"
      /><rect x="238" y="30" width="22" style="clip-path:url(#clipPath9); fill:rgb(0,144,188); stroke:none;" height="11"
      /><rect x="238" y="30" width="22" style="clip-path:url(#clipPath9); fill:none; stroke:black;" height="11"
      /><polygon style="fill:none; stroke:black;" points=" 249 30 260 41 249 52 238 41"
      /><rect x="283" width="5" height="10" y="78" style="stroke:none;"
      /><path d="M284.8906 86.6875 C284.4844 86.6875 284.1562 87.0469 284.1562 87.4219 C284.1562 87.8125 284.4844 88.1562 284.8906 88.1562 C285.2969 88.1562 285.6406 87.8125 285.6406 87.4219 C285.6406 87.0469 285.2969 86.6875 284.8906 86.6875 ZM286.4688 80.5781 C286.7188 80.8906 286.875 81.2656 286.8906 81.6562 C286.8906 82.1875 286.625 82.5 286.0312 82.7656 L285.4062 83.0156 C284.6406 83.3125 284.3906 83.5469 284.3906 83.9375 C284.3906 84.1094 284.4531 84.3438 284.5781 84.8125 L284.7344 85.3438 L285.1094 85.3438 L285.0938 84.5312 C285.0938 84.0938 285.2031 83.9688 285.7812 83.7344 L286.2031 83.5625 C287.0312 83.2188 287.4531 82.6875 287.4531 81.8438 C287.4531 80.1562 285.6562 79.1875 284.5 79.0312 C284.1094 79.125 283.9062 79.2969 283.9062 79.6406 C283.9062 79.9375 284.0625 80.1562 284.7188 80.2656 L286.4688 80.5781 Z" style="fill:black; stroke:none;"
      /><rect x="268" width="5" height="10" y="86" style="stroke:none;"
      /><path d="M269.8906 94.6875 C269.4844 94.6875 269.1562 95.0469 269.1562 95.4219 C269.1562 95.8125 269.4844 96.1562 269.8906 96.1562 C270.2969 96.1562 270.6406 95.8125 270.6406 95.4219 C270.6406 95.0469 270.2969 94.6875 269.8906 94.6875 ZM271.4688 88.5781 C271.7188 88.8906 271.875 89.2656 271.8906 89.6562 C271.8906 90.1875 271.625 90.5 271.0312 90.7656 L270.4062 91.0156 C269.6406 91.3125 269.3906 91.5469 269.3906 91.9375 C269.3906 92.1094 269.4531 92.3438 269.5781 92.8125 L269.7344 93.3438 L270.1094 93.3438 L270.0938 92.5312 C270.0938 92.0938 270.2031 91.9688 270.7812 91.7344 L271.2031 91.5625 C272.0312 91.2188 272.4531 90.6875 272.4531 89.8438 C272.4531 88.1562 270.6562 87.1875 269.5 87.0312 C269.1094 87.125 268.9062 87.2969 268.9062 87.6406 C268.9062 87.9375 269.0625 88.1562 269.7188 88.2656 L271.4688 88.5781 Z" style="fill:black; stroke:none;"
      /><rect x="276" width="5" height="10" y="60" style="stroke:none;"
      /><path d="M277.8906 68.6875 C277.4844 68.6875 277.1562 69.0469 277.1562 69.4219 C277.1562 69.8125 277.4844 70.1562 277.8906 70.1562 C278.2969 70.1562 278.6406 69.8125 278.6406 69.4219 C278.6406 69.0469 278.2969 68.6875 277.8906 68.6875 ZM279.4688 62.5781 C279.7188 62.8906 279.875 63.2656 279.8906 63.6562 C279.8906 64.1875 279.625 64.5 279.0312 64.7656 L278.4062 65.0156 C277.6406 65.3125 277.3906 65.5469 277.3906 65.9375 C277.3906 66.1094 277.4531 66.3438 277.5781 66.8125 L277.7344 67.3438 L278.1094 67.3438 L278.0938 66.5312 C278.0938 66.0938 278.2031 65.9688 278.7812 65.7344 L279.2031 65.5625 C280.0312 65.2188 280.4531 64.6875 280.4531 63.8438 C280.4531 62.1562 278.6562 61.1875 277.5 61.0312 C277.1094 61.125 276.9062 61.2969 276.9062 61.6406 C276.9062 61.9375 277.0625 62.1562 277.7188 62.2656 L279.4688 62.5781 Z" style="fill:black; stroke:none;"
      /><rect x="261" width="5" height="10" y="52" style="stroke:none;"
      /><path d="M262.8906 60.6875 C262.4844 60.6875 262.1562 61.0469 262.1562 61.4219 C262.1562 61.8125 262.4844 62.1562 262.8906 62.1562 C263.2969 62.1562 263.6406 61.8125 263.6406 61.4219 C263.6406 61.0469 263.2969 60.6875 262.8906 60.6875 ZM264.4688 54.5781 C264.7188 54.8906 264.875 55.2656 264.8906 55.6562 C264.8906 56.1875 264.625 56.5 264.0312 56.7656 L263.4062 57.0156 C262.6406 57.3125 262.3906 57.5469 262.3906 57.9375 C262.3906 58.1094 262.4531 58.3438 262.5781 58.8125 L262.7344 59.3438 L263.1094 59.3438 L263.0938 58.5312 C263.0938 58.0938 263.2031 57.9688 263.7812 57.7344 L264.2031 57.5625 C265.0312 57.2188 265.4531 56.6875 265.4531 55.8438 C265.4531 54.1562 263.6562 53.1875 262.5 53.0312 C262.1094 53.125 261.9062 53.2969 261.9062 53.6406 C261.9062 53.9375 262.0625 54.1562 262.7188 54.2656 L264.4688 54.5781 Z" style="fill:black; stroke:none;"
      /><rect x="331" width="5" height="10" y="70" style="stroke:none;"
      /><path d="M332.8906 78.6875 C332.4844 78.6875 332.1562 79.0469 332.1562 79.4219 C332.1562 79.8125 332.4844 80.1562 332.8906 80.1562 C333.2969 80.1562 333.6406 79.8125 333.6406 79.4219 C333.6406 79.0469 333.2969 78.6875 332.8906 78.6875 ZM334.4688 72.5781 C334.7188 72.8906 334.875 73.2656 334.8906 73.6562 C334.8906 74.1875 334.625 74.5 334.0312 74.7656 L333.4062 75.0156 C332.6406 75.3125 332.3906 75.5469 332.3906 75.9375 C332.3906 76.1094 332.4531 76.3438 332.5781 76.8125 L332.7344 77.3438 L333.1094 77.3438 L333.0938 76.5312 C333.0938 76.0938 333.2031 75.9688 333.7812 75.7344 L334.2031 75.5625 C335.0312 75.2188 335.4531 74.6875 335.4531 73.8438 C335.4531 72.1562 333.6562 71.1875 332.5 71.0312 C332.1094 71.125 331.9062 71.2969 331.9062 71.6406 C331.9062 71.9375 332.0625 72.1562 332.7188 72.2656 L334.4688 72.5781 Z" style="fill:black; stroke:none;"
      /><rect x="317" width="5" height="10" y="70" style="stroke:none;"
      /><path d="M318.8906 78.6875 C318.4844 78.6875 318.1562 79.0469 318.1562 79.4219 C318.1562 79.8125 318.4844 80.1562 318.8906 80.1562 C319.2969 80.1562 319.6406 79.8125 319.6406 79.4219 C319.6406 79.0469 319.2969 78.6875 318.8906 78.6875 ZM320.4688 72.5781 C320.7188 72.8906 320.875 73.2656 320.8906 73.6562 C320.8906 74.1875 320.625 74.5 320.0312 74.7656 L319.4062 75.0156 C318.6406 75.3125 318.3906 75.5469 318.3906 75.9375 C318.3906 76.1094 318.4531 76.3438 318.5781 76.8125 L318.7344 77.3438 L319.1094 77.3438 L319.0938 76.5312 C319.0938 76.0938 319.2031 75.9688 319.7812 75.7344 L320.2031 75.5625 C321.0312 75.2188 321.4531 74.6875 321.4531 73.8438 C321.4531 72.1562 319.6562 71.1875 318.5 71.0312 C318.1094 71.125 317.9062 71.2969 317.9062 71.6406 C317.9062 71.9375 318.0625 72.1562 318.7188 72.2656 L320.4688 72.5781 Z" style="fill:black; stroke:none;"
    /></g
  ></g
></svg
>
