<?xml version="1.0"?>
<!DOCTYPE svg PUBLIC '-//W3C//DTD SVG 1.0//EN'
          'http://www.w3.org/TR/2001/REC-SVG-20010904/DTD/svg10.dtd'>
<svg xmlns:xlink="http://www.w3.org/1999/xlink" style="fill-opacity:1; color-rendering:auto; color-interpolation:auto; text-rendering:auto; stroke:black; stroke-linecap:square; stroke-miterlimit:10; shape-rendering:auto; stroke-opacity:1; fill:black; stroke-dasharray:none; font-weight:normal; stroke-width:1; font-family:'Dialog'; font-style:normal; stroke-linejoin:miter; font-size:12px; stroke-dashoffset:0; image-rendering:auto;" viewBox="0 0 317 128" xmlns="http://www.w3.org/2000/svg"
><!--Generated by the Batik Graphics2D SVG Generator--><defs id="genericDefs"
  /><g
  ><defs id="defs1"
    ><clipPath clipPathUnits="userSpaceOnUse" id="clipPath1"
      ><path style="fill-rule:evenodd;" d="M218 42 L224 42 L224 86 L218 86 L224 86 L224 42 Z"
      /></clipPath
      ><clipPath clipPathUnits="userSpaceOnUse" id="clipPath2"
      ><path d="M147 53 L169 53 L169 75 L147 75 L147 53 Z"
      /></clipPath
      ><clipPath clipPathUnits="userSpaceOnUse" id="clipPath3"
      ><path style="fill-rule:evenodd;" d="M46 86 L41 86 L40 42 L46 42 L40 42 L41 86 Z"
      /></clipPath
    ></defs
    ><g style="fill:white; text-rendering:optimizeSpeed; stroke:white;"
    ><rect x="0" width="317" height="128" y="0" style="stroke:none;"
      /><polygon style="fill:none; stroke:black;" points=" 276 64 224 64"
      /><path d="M276 53 C270.5 58.5 281.5 69.5 276 75" style="fill:none; stroke:black;"
      /><polygon style="fill:none; stroke:black;" points=" 224 64 158 64"
      /><polygon style="clip-path:url(#clipPath1); stroke:none;" points=" 218 42 224 42 224 86 218 86 224 86 224 42"
      /><rect x="213" y="30" width="22" style="clip-path:url(#clipPath1); fill:black; stroke:none;" height="68"
      /><rect x="213" y="30" width="22" style="clip-path:url(#clipPath1); fill:none; stroke:black;" height="68"
      /><polygon style="fill:none; stroke:black;" points=" 218 42 224 42 224 86 218 86 224 86 224 42"
      /><polygon style="fill:none; stroke:black;" points=" 158 64 93 64"
      /><rect x="147" y="53" width="22" style="clip-path:url(#clipPath2); stroke:none;" height="22"
      /><rect x="147" y="53" width="22" style="clip-path:url(#clipPath2); fill:rgb(0,144,188); stroke:none;" height="22"
      /><rect x="147" y="53" width="22" style="clip-path:url(#clipPath2); fill:none; stroke:black;" height="22"
      /><rect x="147" y="53" width="22" style="fill:none; stroke:black;" height="22"
      /><rect x="134" y="35" width="22" style="stroke:none;" height="10"
    /></g
    ><g style="text-rendering:optimizeSpeed; font-size:14px; font-family:'SansSerif';"
    ><path style="stroke:none;" d="M135.6094 42.1562 L137.9531 38.6562 C138.2344 38.1406 138.5156 37.6406 138.7812 37.1406 L138.8281 37.1406 C138.7969 37.6719 138.7656 38.5 138.7656 39 L138.7656 42.1562 L135.6094 42.1562 ZM138.7656 46 L139.9688 46 L139.9688 43.1719 L141.3281 43.1719 L141.3281 42.1562 L139.9688 42.1562 L139.9688 35.7188 L138.5469 35.7188 L134.2812 42.3281 L134.2812 43.1719 L138.7656 43.1719 L138.7656 46 ZM144.9418 40.2656 C145.3168 39.0938 145.645 37.9844 145.9731 36.7812 L146.02 36.7812 C146.3637 37.9844 146.6762 39.0938 147.0668 40.2656 L147.5512 41.8281 L144.4418 41.8281 L144.9418 40.2656 ZM141.8168 46 L143.1293 46 L144.1293 42.8594 L147.8793 42.8594 L148.8481 46 L150.2231 46 L146.7387 35.7188 L145.3012 35.7188 L141.8168 46 ZM154.5492 46.1875 C155.4554 46.1875 156.3304 45.8281 157.0179 45.2188 L156.4554 44.3594 C155.9867 44.7969 155.3617 45.125 154.6586 45.125 C153.2679 45.125 152.3148 43.9531 152.3148 42.2031 C152.3148 40.4531 153.3148 39.2656 154.7054 39.2656 C155.3148 39.2656 155.7679 39.5469 156.2211 39.9375 L156.8773 39.0938 C156.3304 38.625 155.6429 38.2031 154.6429 38.2031 C152.7054 38.2031 150.9867 39.6719 150.9867 42.2031 C150.9867 44.7188 152.5336 46.1875 154.5492 46.1875 Z"
      /><rect x="159" y="35" width="22" style="fill:white; stroke:none;" height="10"
      /><path style="stroke:none;" d="M163.1094 40.5781 C164.3438 40.5781 164.9688 41.4688 164.9688 42.8438 C164.9688 44.25 164.1875 45.1875 163.2188 45.1875 C161.9219 45.1875 161.1562 44.0312 161 41.8906 C161.625 40.9531 162.4531 40.5781 163.1094 40.5781 ZM163.2188 46.1875 C164.8125 46.1875 166.1562 44.8438 166.1562 42.8438 C166.1562 40.7031 165.0469 39.625 163.3125 39.625 C162.5 39.625 161.6094 40.1094 160.9688 40.875 C161.0312 37.6875 162.2188 36.6094 163.625 36.6094 C164.25 36.6094 164.8594 36.9062 165.2656 37.3906 L165.9688 36.5938 C165.4062 35.9844 164.6406 35.5469 163.5781 35.5469 C161.5938 35.5469 159.7812 37.0781 159.7812 41.0938 C159.7812 44.4844 161.2344 46.1875 163.2188 46.1875 ZM169.9418 40.2656 C170.3168 39.0938 170.645 37.9844 170.9731 36.7812 L171.02 36.7812 C171.3637 37.9844 171.6762 39.0938 172.0668 40.2656 L172.5512 41.8281 L169.4418 41.8281 L169.9418 40.2656 ZM166.8168 46 L168.1293 46 L169.1293 42.8594 L172.8793 42.8594 L173.8481 46 L175.2231 46 L171.7387 35.7188 L170.3012 35.7188 L166.8168 46 ZM179.5492 46.1875 C180.4554 46.1875 181.3304 45.8281 182.0179 45.2188 L181.4554 44.3594 C180.9867 44.7969 180.3617 45.125 179.6586 45.125 C178.2679 45.125 177.3148 43.9531 177.3148 42.2031 C177.3148 40.4531 178.3148 39.2656 179.7054 39.2656 C180.3148 39.2656 180.7679 39.5469 181.2211 39.9375 L181.8773 39.0938 C181.3304 38.625 180.6429 38.2031 179.6429 38.2031 C177.7054 38.2031 175.9867 39.6719 175.9867 42.2031 C175.9867 44.7188 177.5336 46.1875 179.5492 46.1875 Z"
      /><polygon style="fill:none;" points=" 93 64 41 64"
      /><rect x="89" y="58" width="6" style="fill:white; stroke:none;" height="10"
      /><path style="stroke:none;" d="M90.4062 69 L91.7031 69 L91.7031 64.9219 L93.3906 64.9219 C95.6562 64.9219 97.1719 63.9219 97.1719 61.75 C97.1719 59.5156 95.6406 58.7188 93.3438 58.7188 L90.4062 58.7188 L90.4062 69 ZM91.7031 63.875 L91.7031 59.7812 L93.1719 59.7812 C94.9844 59.7812 95.8906 60.2656 95.8906 61.75 C95.8906 63.2188 95.0312 63.875 93.2344 63.875 L91.7031 63.875 Z"
    /></g
    ><g style="fill:white; text-rendering:optimizeSpeed; stroke:white;"
    ><polygon style="stroke:none; clip-path:url(#clipPath3);" points=" 46 86 41 86 40 42 46 42 40 42 41 86"
      /><rect x="30" y="30" width="22" style="clip-path:url(#clipPath3); fill:black; stroke:none;" height="68"
      /><rect x="30" y="30" width="22" style="clip-path:url(#clipPath3); fill:none; stroke:black;" height="68"
      /><polygon style="fill:none; stroke:black;" points=" 46 86 41 86 40 42 46 42 40 42 41 86"
      /><path d="M43.5469 95.9531 C43.5156 95.2969 43.5 94.3906 43.5 93.7656 L43.5 92.5156 C43.5 90.8281 42.9531 90.1562 41.8594 90.1562 C41.0625 90.1562 40.1562 90.625 39.4531 91.4062 L39.3594 90.2969 L39.2031 90.1719 L37.4688 90.8125 L37.4688 91.2031 L38.5312 91.2812 C38.5625 91.8438 38.5781 92.3438 38.5781 93.1094 L38.5781 93.7656 C38.5781 94.375 38.5781 95.2969 38.5469 95.9688 L37.5469 96.1094 L37.5469 96.5 L40.4688 96.5 L40.4688 96.1094 L39.5156 95.9531 C39.5156 95.2969 39.5 94.375 39.5 93.7656 L39.5 91.875 C40.2656 91.1562 40.875 90.9062 41.4688 90.9062 C42.2344 90.9062 42.5938 91.3125 42.5938 92.5625 L42.5938 93.7656 C42.5938 94.3906 42.5781 95.3125 42.5625 95.9688 L41.5469 96.1094 L41.5469 96.5 L44.4844 96.5 L44.4844 96.1094 L43.5469 95.9531 Z" style="fill:black; stroke:none;"
      /><rect x="71" width="5" height="9" y="67" style="stroke:none;"
      /><path d="M74.8594 75.3906 C74.8594 74.6719 74.8438 73.9531 74.8438 73.25 L74.8438 69.1406 L74.8906 67.2656 L74.7031 67.125 L72.1094 67.7969 L72.1094 68.2344 L73.9219 68.0312 L73.9219 73.25 C73.9219 73.9531 73.9062 74.6719 73.8906 75.3906 L72 75.6094 L72 76 L76.7344 76 L76.7344 75.6094 L74.8594 75.3906 Z" style="fill:black; stroke:none;"
      /><rect x="123" width="6" height="10" y="67" style="stroke:none;"
      /><path d="M125.2344 68.6562 C125.5156 68.5938 125.7656 68.5625 126.0156 68.5625 C127.0625 68.5625 127.6719 69.1719 127.6719 70.2656 C127.6719 71.4375 126.9062 72.1094 125.7031 72.1094 L125.1875 72.1094 L125.1875 72.6406 L125.7969 72.6406 C127.2188 72.6406 127.9062 73.4219 127.9062 74.6406 C127.9062 75.8438 127.1719 76.6875 125.875 76.6875 C125.6094 76.6875 125.3125 76.6562 125.0156 76.5625 L124.7812 75.8125 C124.625 75.2812 124.5 75.0469 124.1406 75.0469 C123.8906 75.0469 123.7031 75.1719 123.5781 75.4219 C123.8438 76.6406 124.7812 77.1719 126.0312 77.1719 C127.7188 77.1719 128.875 76.125 128.875 74.7031 C128.875 73.5 128.2031 72.625 126.7969 72.375 C127.9531 72.0156 128.6094 71.2031 128.6094 70.2031 C128.6094 68.9219 127.6719 68.0781 126.1875 68.0781 C125.0469 68.0781 124.0625 68.5938 123.7969 69.6875 C123.9062 70 124.1094 70.1094 124.3594 70.1094 C124.7344 70.1094 124.8906 69.8906 125 69.4062 L125.2344 68.6562 Z" style="fill:black; stroke:none;"
      /><rect x="187" width="8" height="8" y="68" style="stroke:none;"
      /><path d="M191.9844 73.7031 C191.9375 74.8906 191.1562 75.6562 190.3125 75.6562 C189.2656 75.6562 188.5 74.6875 188.5 72.7188 C188.5 71.2812 189.1562 70.1562 190.3438 70.1562 C191.1406 70.1562 191.7812 70.6875 192.0938 71.6406 L191.9844 73.7031 ZM193.9062 75.2812 C193.7344 75.375 193.5469 75.4219 193.3438 75.4219 C192.9531 75.4219 192.75 75.2188 192.75 74.4219 C192.75 73.4844 192.9688 71.5312 193.1875 69.8281 L193.0312 69.7188 L192.2344 69.9219 L192.1406 70.7969 C191.7812 70.0312 191.1562 69.6562 190.3906 69.6562 C189.0469 69.6562 187.5625 70.8438 187.5625 72.9531 C187.5625 75.0938 188.7188 76.1719 190.1406 76.1719 C191.0156 76.1719 191.6875 75.8125 192.0938 74.9844 C192.2031 75.8594 192.5156 76.1719 193.0156 76.1719 C193.4688 76.1719 193.7969 75.9062 194.0156 75.5625 L193.9062 75.2812 Z" style="fill:black; stroke:none;"
    /></g
  ></g
></svg
>
