<?xml version="1.0"?>
<!DOCTYPE svg PUBLIC '-//W3C//DTD SVG 1.0//EN'
          'http://www.w3.org/TR/2001/REC-SVG-20010904/DTD/svg10.dtd'>
<svg xmlns:xlink="http://www.w3.org/1999/xlink" style="fill-opacity:1; color-rendering:auto; color-interpolation:auto; text-rendering:auto; stroke:black; stroke-linecap:square; stroke-miterlimit:10; shape-rendering:auto; stroke-opacity:1; fill:black; stroke-dasharray:none; font-weight:normal; stroke-width:1; font-family:'Dialog'; font-style:normal; stroke-linejoin:miter; font-size:12px; stroke-dashoffset:0; image-rendering:auto;" viewBox="0 0 144 238" xmlns="http://www.w3.org/2000/svg"
><!--Generated by the Batik Graphics2D SVG Generator--><defs id="genericDefs"
  /><g
  ><defs id="defs1"
    ><clipPath clipPathUnits="userSpaceOnUse" id="clipPath1"
      ><path style="fill-rule:evenodd;" d="M59 186 L70 197 L59 208 L48 197 Z"
      /></clipPath
      ><clipPath clipPathUnits="userSpaceOnUse" id="clipPath2"
      ><path d="M48 134 L70 134 L70 156 L48 156 L48 134 Z"
      /></clipPath
      ><clipPath clipPathUnits="userSpaceOnUse" id="clipPath3"
      ><path d="M70 93 C70 99.0751 65.0751 104 59 104 C52.9249 104 48 99.0751 48 93 C48 86.9249 52.9249 82 59 82 C65.0751 82 70 86.9249 70 93 Z"
      /></clipPath
    ></defs
    ><g style="fill:white; text-rendering:optimizeSpeed; stroke:white;"
    ><rect x="0" width="144" height="238" y="0" style="stroke:none;"
      /><polygon style="clip-path:url(#clipPath1); stroke:none;" points=" 59 186 70 197 59 208 48 197"
      /><rect x="48" y="186" width="22" style="clip-path:url(#clipPath1); fill:rgb(165,67,153); stroke:none;" height="22"
      /><rect x="48" y="186" width="22" style="clip-path:url(#clipPath1); fill:none; stroke:black;" height="22"
      /><polygon style="fill:none; stroke:black;" points=" 59 186 70 197 59 208 48 197"
      /><rect x="75" y="200" width="5" style="stroke:none;" height="10"
    /></g
    ><g style="font-family:'Serif'; text-rendering:optimizeSpeed; "
    ><path style="stroke:none;" d="M76.8906 208.6875 C76.4844 208.6875 76.1562 209.0469 76.1562 209.4219 C76.1562 209.8125 76.4844 210.1562 76.8906 210.1562 C77.2969 210.1562 77.6406 209.8125 77.6406 209.4219 C77.6406 209.0469 77.2969 208.6875 76.8906 208.6875 ZM78.4688 202.5781 C78.7188 202.8906 78.875 203.2656 78.8906 203.6562 C78.8906 204.1875 78.625 204.5 78.0312 204.7656 L77.4062 205.0156 C76.6406 205.3125 76.3906 205.5469 76.3906 205.9375 C76.3906 206.1094 76.4531 206.3438 76.5781 206.8125 L76.7344 207.3438 L77.1094 207.3438 L77.0938 206.5312 C77.0938 206.0938 77.2031 205.9688 77.7812 205.7344 L78.2031 205.5625 C79.0312 205.2188 79.4531 204.6875 79.4531 203.8438 C79.4531 202.1562 77.6562 201.1875 76.5 201.0312 C76.1094 201.125 75.9062 201.2969 75.9062 201.6406 C75.9062 201.9375 76.0625 202.1562 76.7188 202.2656 L78.4688 202.5781 Z"
      /><path style="stroke:none;" d="M30.6094 202 L37.0625 202 L37.0625 200.8906 L34.2344 200.8906 C33.7031 200.8906 33.0781 200.9531 32.5469 200.9844 C34.9531 198.7031 36.5625 196.625 36.5625 194.5781 C36.5625 192.75 35.4219 191.5469 33.5781 191.5469 C32.2812 191.5469 31.4062 192.1406 30.5625 193.0469 L31.2969 193.7812 C31.8594 193.1094 32.5938 192.5938 33.4375 192.5938 C34.7031 192.5938 35.3125 193.4531 35.3125 194.625 C35.3125 196.3906 33.8438 198.4375 30.6094 201.25 L30.6094 202 ZM37.9731 202 L39.3168 202 L40.3481 200.2188 C40.6137 199.7656 40.8637 199.2969 41.1293 198.8594 L41.2075 198.8594 C41.4731 199.2969 41.7543 199.7656 42.0043 200.2188 L43.1293 202 L44.5356 202 L42.02 198.1562 L44.3325 194.3906 L43.0043 194.3906 L42.0668 196.0625 C41.8481 196.5 41.6137 196.9219 41.3793 197.3438 L41.3325 197.3438 C41.0668 196.9219 40.8012 196.5 40.5668 196.0625 L39.5512 194.3906 L38.1762 194.3906 L40.4887 198.0312 L37.9731 202 Z"
    /></g
    ><g style="fill:white; text-rendering:optimizeSpeed; font-size:14px; font-family:'SansSerif'; stroke:white;"
    ><rect x="48" y="134" width="22" style="clip-path:url(#clipPath2); stroke:none;" height="22"
      /><rect x="48" y="134" width="22" style="clip-path:url(#clipPath2); stroke:none;" height="22"
      /><rect x="48" y="134" width="22" style="clip-path:url(#clipPath2); fill:none; stroke:black;" height="22"
      /><rect x="48" y="134" width="22" style="fill:none; stroke:black;" height="22"
      /><rect x="75" width="5" height="10" y="148" style="stroke:none;"
    /></g
    ><g style="font-family:'Serif'; text-rendering:optimizeSpeed; "
    ><path style="stroke:none;" d="M76.8906 156.6875 C76.4844 156.6875 76.1562 157.0469 76.1562 157.4219 C76.1562 157.8125 76.4844 158.1562 76.8906 158.1562 C77.2969 158.1562 77.6406 157.8125 77.6406 157.4219 C77.6406 157.0469 77.2969 156.6875 76.8906 156.6875 ZM78.4688 150.5781 C78.7188 150.8906 78.875 151.2656 78.8906 151.6562 C78.8906 152.1875 78.625 152.5 78.0312 152.7656 L77.4062 153.0156 C76.6406 153.3125 76.3906 153.5469 76.3906 153.9375 C76.3906 154.1094 76.4531 154.3438 76.5781 154.8125 L76.7344 155.3438 L77.1094 155.3438 L77.0938 154.5312 C77.0938 154.0938 77.2031 153.9688 77.7812 153.7344 L78.2031 153.5625 C79.0312 153.2188 79.4531 152.6875 79.4531 151.8438 C79.4531 150.1562 77.6562 149.1875 76.5 149.0312 C76.1094 149.125 75.9062 149.2969 75.9062 149.6406 C75.9062 149.9375 76.0625 150.1562 76.7188 150.2656 L78.4688 150.5781 Z"
      /><path style="stroke:none;" d="M31.6094 145.1562 L33.9531 141.6562 C34.2344 141.1406 34.5156 140.6406 34.7812 140.1406 L34.8281 140.1406 C34.7969 140.6719 34.7656 141.5 34.7656 142 L34.7656 145.1562 L31.6094 145.1562 ZM34.7656 149 L35.9688 149 L35.9688 146.1719 L37.3281 146.1719 L37.3281 145.1562 L35.9688 145.1562 L35.9688 138.7188 L34.5469 138.7188 L30.2812 145.3281 L30.2812 146.1719 L34.7656 146.1719 L34.7656 149 ZM37.9731 149 L39.3168 149 L40.3481 147.2188 C40.6137 146.7656 40.8637 146.2969 41.1293 145.8594 L41.2075 145.8594 C41.4731 146.2969 41.7543 146.7656 42.0043 147.2188 L43.1293 149 L44.5356 149 L42.02 145.1562 L44.3325 141.3906 L43.0043 141.3906 L42.0668 143.0625 C41.8481 143.5 41.6137 143.9219 41.3793 144.3438 L41.3325 144.3438 C41.0668 143.9219 40.8012 143.5 40.5668 143.0625 L39.5512 141.3906 L38.1762 141.3906 L40.4887 145.0312 L37.9731 149 Z"
    /></g
    ><g style="fill:white; text-rendering:optimizeSpeed; font-size:14px; font-family:'SansSerif'; stroke:white;"
    ><circle r="11" style="clip-path:url(#clipPath3); stroke:none;" cx="59" cy="93"
      /><rect x="48" y="82" width="22" style="clip-path:url(#clipPath3); stroke:none;" height="22"
      /><rect x="48" y="82" width="22" style="clip-path:url(#clipPath3); fill:none; stroke:black;" height="22"
      /><circle r="11" style="fill:none; stroke:black;" cx="59" cy="93"
      /><rect x="75" width="5" height="10" y="96" style="stroke:none;"
    /></g
    ><g style="font-family:'Serif'; text-rendering:optimizeSpeed; "
    ><path style="stroke:none;" d="M76.8906 104.6875 C76.4844 104.6875 76.1562 105.0469 76.1562 105.4219 C76.1562 105.8125 76.4844 106.1562 76.8906 106.1562 C77.2969 106.1562 77.6406 105.8125 77.6406 105.4219 C77.6406 105.0469 77.2969 104.6875 76.8906 104.6875 ZM78.4688 98.5781 C78.7188 98.8906 78.875 99.2656 78.8906 99.6562 C78.8906 100.1875 78.625 100.5 78.0312 100.7656 L77.4062 101.0156 C76.6406 101.3125 76.3906 101.5469 76.3906 101.9375 C76.3906 102.1094 76.4531 102.3438 76.5781 102.8125 L76.7344 103.3438 L77.1094 103.3438 L77.0938 102.5312 C77.0938 102.0938 77.2031 101.9688 77.7812 101.7344 L78.2031 101.5625 C79.0312 101.2188 79.4531 100.6875 79.4531 99.8438 C79.4531 98.1562 77.6562 97.1875 76.5 97.0312 C76.1094 97.125 75.9062 97.2969 75.9062 97.6406 C75.9062 97.9375 76.0625 98.1562 76.7188 98.2656 L78.4688 98.5781 Z"
      /><path style="stroke:none;" d="M33.6562 98.1875 C35.3906 98.1875 37.0156 96.9062 37.0156 94.6562 C37.0156 92.4062 35.625 91.3906 33.9219 91.3906 C33.2969 91.3906 32.8594 91.5469 32.3906 91.7969 L32.6406 88.8281 L36.5312 88.8281 L36.5312 87.7188 L31.5312 87.7188 L31.2031 92.5469 L31.8906 92.9531 C32.4844 92.5625 32.9062 92.3594 33.5938 92.3594 C34.8906 92.3594 35.7188 93.2188 35.7188 94.7031 C35.7188 96.1875 34.75 97.125 33.5469 97.125 C32.3594 97.125 31.6094 96.5781 31.0156 95.9844 L30.3906 96.8281 C31.0781 97.5156 32.0625 98.1875 33.6562 98.1875 ZM37.9731 98 L39.3168 98 L40.3481 96.2188 C40.6137 95.7656 40.8637 95.2969 41.1293 94.8594 L41.2075 94.8594 C41.4731 95.2969 41.7543 95.7656 42.0043 96.2188 L43.1293 98 L44.5356 98 L42.02 94.1562 L44.3325 90.3906 L43.0043 90.3906 L42.0668 92.0625 C41.8481 92.5 41.6137 92.9219 41.3793 93.3438 L41.3325 93.3438 C41.0668 92.9219 40.8012 92.5 40.5668 92.0625 L39.5512 90.3906 L38.1762 90.3906 L40.4887 94.0312 L37.9731 98 Z"
    /></g
    ><g style="fill:white; text-rendering:optimizeSpeed; font-size:14px; font-family:'SansSerif'; stroke:white;"
    ><rect x="47" width="21" height="10" y="35" style="stroke:none;"
      /><path d="M49.4844 42.9062 L50.625 42.9062 C50.375 40.7031 52.8906 39.875 52.8906 37.8281 C52.8906 36.2969 51.8594 35.3281 50.2812 35.3281 C49.1406 35.3281 48.25 35.875 47.6094 36.625 L48.3281 37.2969 C48.8125 36.7344 49.4375 36.3906 50.1406 36.3906 C51.125 36.3906 51.6406 37.0625 51.6406 37.9062 C51.6406 39.5781 49.1719 40.4688 49.4844 42.9062 ZM50.0938 46.1875 C50.6094 46.1875 51.0312 45.7969 51.0312 45.2188 C51.0312 44.625 50.6094 44.2188 50.0938 44.2188 C49.5938 44.2188 49.1719 44.625 49.1719 45.2188 C49.1719 45.7969 49.5938 46.1875 50.0938 46.1875 ZM56.8078 40.2656 C57.1828 39.0938 57.511 37.9844 57.8391 36.7812 L57.886 36.7812 C58.2297 37.9844 58.5422 39.0938 58.9328 40.2656 L59.4172 41.8281 L56.3078 41.8281 L56.8078 40.2656 ZM53.6828 46 L54.9953 46 L55.9953 42.8594 L59.7453 42.8594 L60.7141 46 L62.0891 46 L58.6047 35.7188 L57.1672 35.7188 L53.6828 46 ZM66.4152 46.1875 C67.3214 46.1875 68.1964 45.8281 68.8839 45.2188 L68.3214 44.3594 C67.8527 44.7969 67.2277 45.125 66.5246 45.125 C65.1339 45.125 64.1808 43.9531 64.1808 42.2031 C64.1808 40.4531 65.1808 39.2656 66.5714 39.2656 C67.1808 39.2656 67.6339 39.5469 68.0871 39.9375 L68.7433 39.0938 C68.1964 38.625 67.5089 38.2031 66.5089 38.2031 C64.5714 38.2031 62.8527 39.6719 62.8527 42.2031 C62.8527 44.7188 64.3996 46.1875 66.4152 46.1875 Z" style="fill:black; stroke:none;"
      /><path d="M30.6094 41.1562 L32.9531 37.6562 C33.2344 37.1406 33.5156 36.6406 33.7812 36.1406 L33.8281 36.1406 C33.7969 36.6719 33.7656 37.5 33.7656 38 L33.7656 41.1562 L30.6094 41.1562 ZM33.7656 45 L34.9688 45 L34.9688 42.1719 L36.3281 42.1719 L36.3281 41.1562 L34.9688 41.1562 L34.9688 34.7188 L33.5469 34.7188 L29.2812 41.3281 L29.2812 42.1719 L33.7656 42.1719 L33.7656 45 ZM36.9731 45 L38.3168 45 L39.3481 43.2188 C39.6137 42.7656 39.8637 42.2969 40.1293 41.8594 L40.2075 41.8594 C40.4731 42.2969 40.7543 42.7656 41.0043 43.2188 L42.1293 45 L43.5356 45 L41.02 41.1562 L43.3325 37.3906 L42.0043 37.3906 L41.0668 39.0625 C40.8481 39.5 40.6137 39.9219 40.3793 40.3438 L40.3325 40.3438 C40.0668 39.9219 39.8012 39.5 39.5668 39.0625 L38.5512 37.3906 L37.1762 37.3906 L39.4887 41.0312 L36.9731 45 Z" style="fill:black; stroke:none;"
    /></g
  ></g
></svg
>
