<?xml version="1.0"?>
<!DOCTYPE svg PUBLIC '-//W3C//DTD SVG 1.0//EN'
          'http://www.w3.org/TR/2001/REC-SVG-20010904/DTD/svg10.dtd'>
<svg xmlns:xlink="http://www.w3.org/1999/xlink" style="fill-opacity:1; color-rendering:auto; color-interpolation:auto; text-rendering:auto; stroke:black; stroke-linecap:square; stroke-miterlimit:10; shape-rendering:auto; stroke-opacity:1; fill:black; stroke-dasharray:none; font-weight:normal; stroke-width:1; font-family:'Dialog'; font-style:normal; stroke-linejoin:miter; font-size:12px; stroke-dashoffset:0; image-rendering:auto;" viewBox="0 0 290 238" xmlns="http://www.w3.org/2000/svg"
><!--Generated by the Batik Graphics2D SVG Generator--><defs id="genericDefs"
  /><g
  ><defs id="defs1"
    ><clipPath clipPathUnits="userSpaceOnUse" id="clipPath1"
      ><path d="M208 197 C208 203.0751 203.0751 208 197 208 C190.9249 208 186 203.0751 186 197 C186 190.9249 190.9249 186 197 186 C203.0751 186 208 190.9249 208 197 Z"
      /></clipPath
      ><clipPath clipPathUnits="userSpaceOnUse" id="clipPath2"
      ><path d="M156 197 C156 203.0751 151.0751 208 145 208 C138.9249 208 134 203.0751 134 197 C134 190.9249 138.9249 186 145 186 C151.0751 186 156 190.9249 156 197 Z"
      /></clipPath
      ><clipPath clipPathUnits="userSpaceOnUse" id="clipPath3"
      ><path d="M104 197 C104 203.0751 99.0751 208 93 208 C86.9249 208 82 203.0751 82 197 C82 190.9249 86.9249 186 93 186 C99.0751 186 104 190.9249 104 197 Z"
      /></clipPath
      ><clipPath clipPathUnits="userSpaceOnUse" id="clipPath4"
      ><path d="M52 197 C52 203.0751 47.0751 208 41 208 C34.9249 208 30 203.0751 30 197 C30 190.9249 34.9249 186 41 186 C47.0751 186 52 190.9249 52 197 Z"
      /></clipPath
      ><clipPath clipPathUnits="userSpaceOnUse" id="clipPath5"
      ><path style="fill-rule:evenodd;" d="M41 134 L43 141 L51 141 L44 146 L47 153 L41 149 L34 153 L37 146 L30 141 L38 141 L41 134 Z"
      /></clipPath
      ><clipPath clipPathUnits="userSpaceOnUse" id="clipPath6"
      ><path style="fill-rule:evenodd;" d="M93 134 L95 141 L103 141 L96 146 L99 153 L93 149 L86 153 L89 146 L82 141 L90 141 L93 134 Z"
      /></clipPath
      ><clipPath clipPathUnits="userSpaceOnUse" id="clipPath7"
      ><path style="fill-rule:evenodd;" d="M145 134 L147 141 L155 141 L148 146 L151 153 L145 149 L138 153 L141 146 L134 141 L142 141 L145 134 Z"
      /></clipPath
      ><clipPath clipPathUnits="userSpaceOnUse" id="clipPath8"
      ><path d="M156 93 C156 99.0751 151.0751 104 145 104 C138.9249 104 134 99.0751 134 93 C134 86.9249 138.9249 82 145 82 C151.0751 82 156 86.9249 156 93 Z"
      /></clipPath
      ><clipPath clipPathUnits="userSpaceOnUse" id="clipPath9"
      ><path d="M156 41 C156 47.0751 151.0751 52 145 52 C138.9249 52 134 47.0751 134 41 C134 34.9249 138.9249 30 145 30 C151.0751 30 156 34.9249 156 41 Z"
      /></clipPath
    ></defs
    ><g style="fill:white; text-rendering:optimizeSpeed; stroke:white;"
    ><rect x="0" width="290" height="238" y="0" style="stroke:none;"
      /><polygon style="fill:none; stroke:black;" points=" 249 197 197 197"
      /><path d="M249 186 C243.5 191.5 254.5 202.5 249 208" style="fill:none; stroke:black;"
      /><polygon style="fill:none; stroke:black;" points=" 197 197 145 197"
      /><circle style="clip-path:url(#clipPath1); stroke:none;" r="11" cx="197" cy="197"
      /><rect x="186" y="186" width="22" style="clip-path:url(#clipPath1); fill:rgb(0,144,188); stroke:none;" height="22"
      /><rect x="186" y="186" width="22" style="clip-path:url(#clipPath1); fill:none; stroke:black;" height="22"
      /><circle style="fill:none; stroke:black;" r="11" cx="197" cy="197"
      /><polygon style="fill:none; stroke:black;" points=" 145 197 93 197"
      /><polygon style="fill:none; stroke:black;" points=" 145 197 145 145"
      /><circle style="clip-path:url(#clipPath2); stroke:none;" r="11" cx="145" cy="197"
      /><rect x="134" y="186" width="22" style="clip-path:url(#clipPath2); fill:rgb(0,144,188); stroke:none;" height="22"
      /><rect x="134" y="186" width="22" style="clip-path:url(#clipPath2); fill:none; stroke:black;" height="22"
      /><circle style="fill:none; stroke:black;" r="11" cx="145" cy="197"
      /><polygon style="fill:none; stroke:black;" points=" 93 197 41 197"
      /><polygon style="fill:none; stroke:black;" points=" 93 197 93 145"
      /><circle style="clip-path:url(#clipPath3); stroke:none;" r="11" cx="93" cy="197"
      /><rect x="82" y="186" width="22" style="clip-path:url(#clipPath3); fill:rgb(0,144,188); stroke:none;" height="22"
      /><rect x="82" y="186" width="22" style="clip-path:url(#clipPath3); fill:none; stroke:black;" height="22"
      /><circle style="fill:none; stroke:black;" r="11" cx="93" cy="197"
      /><polygon style="fill:none; stroke:black;" points=" 41 197 41 145"
      /><circle style="clip-path:url(#clipPath4); stroke:none;" r="11" cx="41" cy="197"
      /><rect x="30" y="186" width="22" style="clip-path:url(#clipPath4); fill:rgb(0,144,188); stroke:none;" height="22"
      /><rect x="30" y="186" width="22" style="clip-path:url(#clipPath4); fill:none; stroke:black;" height="22"
      /><circle style="fill:none; stroke:black;" r="11" cx="41" cy="197"
      /><polygon style="clip-path:url(#clipPath5); stroke:none;" points=" 41 134 43 141 51 141 44 146 47 153 41 149 34 153 37 146 30 141 38 141 41 134"
      /><rect x="30" y="134" width="22" style="clip-path:url(#clipPath5); fill:rgb(244,121,32); stroke:none;" height="22"
      /><rect x="30" y="134" width="22" style="clip-path:url(#clipPath5); fill:none; stroke:black;" height="22"
      /><polygon style="fill:none; stroke:black;" points=" 41 134 43 141 51 141 44 146 47 153 41 149 34 153 37 146 30 141 38 141 41 134"
      /><rect x="30" y="173" width="6" style="stroke:none;" height="10"
    /></g
    ><g style="font-family:'Serif'; text-rendering:optimizeSpeed; "
    ><path style="stroke:none;" d="M33.3438 182.6875 C32.2031 182.6875 31.5312 181.5 31.5312 179.2969 C31.5312 179.2188 31.5312 179.125 31.5312 179.0469 C32.0938 178.5 32.7188 178.3125 33.3438 178.3125 C34.3125 178.3125 34.9531 178.9844 34.9531 180.4531 C34.9531 181.9375 34.3125 182.6875 33.3438 182.6875 ZM35.5312 174.0781 C32.3438 174.4531 30.5625 176.7656 30.5625 179.4531 C30.5625 181.7812 31.6094 183.1719 33.3125 183.1719 C34.8438 183.1719 35.9219 182.1094 35.9219 180.2812 C35.9219 178.6875 34.9688 177.6562 33.5625 177.6562 C32.8281 177.6562 32.1406 177.9844 31.5781 178.5781 C31.7969 176.4062 33.0781 174.9688 35.5938 174.3906 L35.5312 174.0781 Z"
      /><rect x="29" y="160" width="8" style="fill:white; stroke:none;" height="8"
      /><path style="stroke:none;" d="M33.9844 165.7031 C33.9375 166.8906 33.1562 167.6562 32.3125 167.6562 C31.2656 167.6562 30.5 166.6875 30.5 164.7188 C30.5 163.2812 31.1562 162.1562 32.3438 162.1562 C33.1406 162.1562 33.7812 162.6875 34.0938 163.6406 L33.9844 165.7031 ZM35.9062 167.2812 C35.7344 167.375 35.5469 167.4219 35.3438 167.4219 C34.9531 167.4219 34.75 167.2188 34.75 166.4219 C34.75 165.4844 34.9688 163.5312 35.1875 161.8281 L35.0312 161.7188 L34.2344 161.9219 L34.1406 162.7969 C33.7812 162.0312 33.1562 161.6562 32.3906 161.6562 C31.0469 161.6562 29.5625 162.8438 29.5625 164.9531 C29.5625 167.0938 30.7188 168.1719 32.1406 168.1719 C33.0156 168.1719 33.6875 167.8125 34.0938 166.9844 C34.2031 167.8594 34.5156 168.1719 35.0156 168.1719 C35.4688 168.1719 35.7969 167.9062 36.0156 167.5625 L35.9062 167.2812 Z"
      /><polygon style="fill:white; clip-path:url(#clipPath6); stroke:none;" points=" 93 134 95 141 103 141 96 146 99 153 93 149 86 153 89 146 82 141 90 141 93 134"
      /><rect x="82" y="134" width="22" style="clip-path:url(#clipPath6); fill:rgb(244,121,32); stroke:none;" height="22"
      /><rect x="82" y="134" width="22" style="fill:none; clip-path:url(#clipPath6);" height="22"
      /><polygon style="fill:none;" points=" 93 134 95 141 103 141 96 146 99 153 93 149 86 153 89 146 82 141 90 141 93 134"
      /><rect x="70" y="200" width="7" style="fill:white; stroke:none;" height="9"
      /><path style="stroke:none;" d="M71 205.5156 L73.9531 201.2656 L73.9531 205.5156 L71 205.5156 ZM76.2812 205.5156 L74.8594 205.5156 L74.8594 200.125 L74.2344 200.125 L70.3438 205.6406 L70.3438 206.1875 L73.9531 206.1875 L73.9531 209 L74.8594 209 L74.8594 206.1875 L76.2812 206.1875 L76.2812 205.5156 Z"
      /><rect x="57" y="198" width="6" style="fill:white; stroke:none;" height="13"
      /><path style="stroke:none;" d="M59.0938 204.2031 C59.0938 202.6562 59.75 201.8125 60.7969 201.8125 C61.7188 201.8125 62.2656 202.4531 62.2656 203.5156 C62.2656 204.7188 61.5 205.4375 60.1875 205.7031 L60.2969 206.3125 C62.2188 206.2344 62.9375 207.2188 62.9375 208.4375 C62.9375 209.625 62.2344 210.4219 60.9531 210.4219 C60.25 210.4219 59.6562 210.1562 59.0938 209.7188 L59.0938 204.2031 ZM58.2031 210.9062 L58.1094 213.375 L58.2656 213.4844 L59.1562 213.2656 L59.0156 210.0938 C59.5469 210.8438 60.3594 211.1719 61.1719 211.1719 C62.5625 211.1719 63.8594 210.2188 63.8594 208.4844 C63.8594 206.9531 62.875 206.1094 61.125 206 C62.5625 205.6094 63.1875 204.4531 63.1875 203.4844 C63.1875 202.0938 62.1562 201.3125 60.9062 201.3125 C59.2969 201.3125 58.2188 202.5469 58.2188 204.5156 L58.2031 210.9062 Z"
      /><rect x="82" y="173" width="6" style="fill:white; stroke:none;" height="10"
      /><path style="stroke:none;" d="M85.3438 182.6875 C84.2031 182.6875 83.5312 181.5 83.5312 179.2969 C83.5312 179.2188 83.5312 179.125 83.5312 179.0469 C84.0938 178.5 84.7188 178.3125 85.3438 178.3125 C86.3125 178.3125 86.9531 178.9844 86.9531 180.4531 C86.9531 181.9375 86.3125 182.6875 85.3438 182.6875 ZM87.5312 174.0781 C84.3438 174.4531 82.5625 176.7656 82.5625 179.4531 C82.5625 181.7812 83.6094 183.1719 85.3125 183.1719 C86.8438 183.1719 87.9219 182.1094 87.9219 180.2812 C87.9219 178.6875 86.9688 177.6562 85.5625 177.6562 C84.8281 177.6562 84.1406 177.9844 83.5781 178.5781 C83.7969 176.4062 85.0781 174.9688 87.5938 174.3906 L87.5312 174.0781 Z"
      /><rect x="81" y="160" width="8" style="fill:white; stroke:none;" height="8"
      /><path style="stroke:none;" d="M85.9844 165.7031 C85.9375 166.8906 85.1562 167.6562 84.3125 167.6562 C83.2656 167.6562 82.5 166.6875 82.5 164.7188 C82.5 163.2812 83.1562 162.1562 84.3438 162.1562 C85.1406 162.1562 85.7812 162.6875 86.0938 163.6406 L85.9844 165.7031 ZM87.9062 167.2812 C87.7344 167.375 87.5469 167.4219 87.3438 167.4219 C86.9531 167.4219 86.75 167.2188 86.75 166.4219 C86.75 165.4844 86.9688 163.5312 87.1875 161.8281 L87.0312 161.7188 L86.2344 161.9219 L86.1406 162.7969 C85.7812 162.0312 85.1562 161.6562 84.3906 161.6562 C83.0469 161.6562 81.5625 162.8438 81.5625 164.9531 C81.5625 167.0938 82.7188 168.1719 84.1406 168.1719 C85.0156 168.1719 85.6875 167.8125 86.0938 166.9844 C86.2031 167.8594 86.5156 168.1719 87.0156 168.1719 C87.4688 168.1719 87.7969 167.9062 88.0156 167.5625 L87.9062 167.2812 Z"
      /><polygon style="fill:none;" points=" 145 145 145 93"
      /><polygon style="fill:white; clip-path:url(#clipPath7); stroke:none;" points=" 145 134 147 141 155 141 148 146 151 153 145 149 138 153 141 146 134 141 142 141 145 134"
      /><rect x="134" y="134" width="22" style="clip-path:url(#clipPath7); fill:rgb(244,121,32); stroke:none;" height="22"
      /><rect x="134" y="134" width="22" style="fill:none; clip-path:url(#clipPath7);" height="22"
      /><polygon style="fill:none;" points=" 145 134 147 141 155 141 148 146 151 153 145 149 138 153 141 146 134 141 142 141 145 134"
      /><polygon style="fill:none;" points=" 145 93 145 41"
      /><circle style="fill:white; clip-path:url(#clipPath8); stroke:none;" r="11" cx="145" cy="93"
      /><rect x="134" y="82" width="22" style="clip-path:url(#clipPath8); fill:rgb(255,212,0); stroke:none;" height="22"
      /><rect x="134" y="82" width="22" style="fill:none; clip-path:url(#clipPath8);" height="22"
      /><circle r="11" style="fill:none;" cx="145" cy="93"
      /><circle style="fill:white; clip-path:url(#clipPath9); stroke:none;" r="11" cx="145" cy="41"
      /><rect x="134" y="30" width="22" style="clip-path:url(#clipPath9); fill:rgb(255,212,0); stroke:none;" height="22"
      /><rect x="134" y="30" width="22" style="fill:none; clip-path:url(#clipPath9);" height="22"
      /><circle r="11" style="fill:none;" cx="145" cy="41"
      /><path style="stroke:none;" d="M143 44 L147.125 44 L147.125 43.2031 L143.9375 43.2031 L143.9375 36.6562 L143 36.6562 L143 44 Z"
      /><rect x="134" y="69" width="6" style="fill:white; stroke:none;" height="9"
      /><path style="stroke:none;" d="M135.4219 77.0938 C136.0781 76.375 136.7031 75.7188 137.0312 75.3438 C138.9219 73.3125 139.5312 72.4688 139.5312 71.3594 C139.5312 70.0156 138.7812 69.0781 137.1562 69.0781 C135.9062 69.0781 134.7969 69.7031 134.5938 70.9688 C134.7188 71.2031 134.9062 71.3438 135.1562 71.3438 C135.4688 71.3438 135.6562 71.1094 135.7969 70.5938 L136.0938 69.6719 C136.3906 69.5938 136.6562 69.5625 136.8906 69.5625 C137.9219 69.5625 138.5469 70.3125 138.5469 71.4219 C138.5469 72.4375 137.9844 73.4219 136.7031 74.9062 C136.125 75.5781 135.3906 76.4375 134.6406 77.2812 L134.6406 78 L139.9219 78 L139.9219 77.0938 L135.4219 77.0938 Z"
      /><rect x="133" y="56" width="8" style="fill:white; stroke:none;" height="8"
      /><path style="stroke:none;" d="M137.9844 61.7031 C137.9375 62.8906 137.1562 63.6562 136.3125 63.6562 C135.2656 63.6562 134.5 62.6875 134.5 60.7188 C134.5 59.2812 135.1562 58.1562 136.3438 58.1562 C137.1406 58.1562 137.7812 58.6875 138.0938 59.6406 L137.9844 61.7031 ZM139.9062 63.2812 C139.7344 63.375 139.5469 63.4219 139.3438 63.4219 C138.9531 63.4219 138.75 63.2188 138.75 62.4219 C138.75 61.4844 138.9688 59.5312 139.1875 57.8281 L139.0312 57.7188 L138.2344 57.9219 L138.1406 58.7969 C137.7812 58.0312 137.1562 57.6562 136.3906 57.6562 C135.0469 57.6562 133.5625 58.8438 133.5625 60.9531 C133.5625 63.0938 134.7188 64.1719 136.1406 64.1719 C137.0156 64.1719 137.6875 63.8125 138.0938 62.9844 C138.2031 63.8594 138.5156 64.1719 139.0156 64.1719 C139.4688 64.1719 139.7969 63.9062 140.0156 63.5625 L139.9062 63.2812 Z"
      /><rect x="134" y="121" width="6" style="fill:white; stroke:none;" height="9"
      /><path style="stroke:none;" d="M135.4219 129.0938 C136.0781 128.375 136.7031 127.7188 137.0312 127.3438 C138.9219 125.3125 139.5312 124.4688 139.5312 123.3594 C139.5312 122.0156 138.7812 121.0781 137.1562 121.0781 C135.9062 121.0781 134.7969 121.7031 134.5938 122.9688 C134.7188 123.2031 134.9062 123.3438 135.1562 123.3438 C135.4688 123.3438 135.6562 123.1094 135.7969 122.5938 L136.0938 121.6719 C136.3906 121.5938 136.6562 121.5625 136.8906 121.5625 C137.9219 121.5625 138.5469 122.3125 138.5469 123.4219 C138.5469 124.4375 137.9844 125.4219 136.7031 126.9062 C136.125 127.5781 135.3906 128.4375 134.6406 129.2812 L134.6406 130 L139.9219 130 L139.9219 129.0938 L135.4219 129.0938 Z"
      /><rect x="134" y="105" width="6" style="fill:white; stroke:none;" height="13"
      /><path style="stroke:none;" d="M136.0938 111.2031 C136.0938 109.6562 136.75 108.8125 137.7969 108.8125 C138.7188 108.8125 139.2656 109.4531 139.2656 110.5156 C139.2656 111.7188 138.5 112.4375 137.1875 112.7031 L137.2969 113.3125 C139.2188 113.2344 139.9375 114.2188 139.9375 115.4375 C139.9375 116.625 139.2344 117.4219 137.9531 117.4219 C137.25 117.4219 136.6562 117.1562 136.0938 116.7188 L136.0938 111.2031 ZM135.2031 117.9062 L135.1094 120.375 L135.2656 120.4844 L136.1562 120.2656 L136.0156 117.0938 C136.5469 117.8438 137.3594 118.1719 138.1719 118.1719 C139.5625 118.1719 140.8594 117.2188 140.8594 115.4844 C140.8594 113.9531 139.875 113.1094 138.125 113 C139.5625 112.6094 140.1875 111.4531 140.1875 110.4844 C140.1875 109.0938 139.1562 108.3125 137.9062 108.3125 C136.2969 108.3125 135.2188 109.5469 135.2188 111.5156 L135.2031 117.9062 Z"
      /><rect x="122" y="200" width="7" style="fill:white; stroke:none;" height="9"
      /><path style="stroke:none;" d="M123 205.5156 L125.9531 201.2656 L125.9531 205.5156 L123 205.5156 ZM128.2812 205.5156 L126.8594 205.5156 L126.8594 200.125 L126.2344 200.125 L122.3438 205.6406 L122.3438 206.1875 L125.9531 206.1875 L125.9531 209 L126.8594 209 L126.8594 206.1875 L128.2812 206.1875 L128.2812 205.5156 Z"
      /><rect x="109" y="198" width="6" style="fill:white; stroke:none;" height="13"
      /><path style="stroke:none;" d="M111.0938 204.2031 C111.0938 202.6562 111.75 201.8125 112.7969 201.8125 C113.7188 201.8125 114.2656 202.4531 114.2656 203.5156 C114.2656 204.7188 113.5 205.4375 112.1875 205.7031 L112.2969 206.3125 C114.2188 206.2344 114.9375 207.2188 114.9375 208.4375 C114.9375 209.625 114.2344 210.4219 112.9531 210.4219 C112.25 210.4219 111.6562 210.1562 111.0938 209.7188 L111.0938 204.2031 ZM110.2031 210.9062 L110.1094 213.375 L110.2656 213.4844 L111.1562 213.2656 L111.0156 210.0938 C111.5469 210.8438 112.3594 211.1719 113.1719 211.1719 C114.5625 211.1719 115.8594 210.2188 115.8594 208.4844 C115.8594 206.9531 114.875 206.1094 113.125 206 C114.5625 205.6094 115.1875 204.4531 115.1875 203.4844 C115.1875 202.0938 114.1562 201.3125 112.9062 201.3125 C111.2969 201.3125 110.2188 202.5469 110.2188 204.5156 L110.2031 210.9062 Z"
      /><rect x="134" y="173" width="6" style="fill:white; stroke:none;" height="10"
      /><path style="stroke:none;" d="M137.3438 182.6875 C136.2031 182.6875 135.5312 181.5 135.5312 179.2969 C135.5312 179.2188 135.5312 179.125 135.5312 179.0469 C136.0938 178.5 136.7188 178.3125 137.3438 178.3125 C138.3125 178.3125 138.9531 178.9844 138.9531 180.4531 C138.9531 181.9375 138.3125 182.6875 137.3438 182.6875 ZM139.5312 174.0781 C136.3438 174.4531 134.5625 176.7656 134.5625 179.4531 C134.5625 181.7812 135.6094 183.1719 137.3125 183.1719 C138.8438 183.1719 139.9219 182.1094 139.9219 180.2812 C139.9219 178.6875 138.9688 177.6562 137.5625 177.6562 C136.8281 177.6562 136.1406 177.9844 135.5781 178.5781 C135.7969 176.4062 137.0781 174.9688 139.5938 174.3906 L139.5312 174.0781 Z"
      /><rect x="133" y="160" width="8" style="fill:white; stroke:none;" height="8"
      /><path style="stroke:none;" d="M137.9844 165.7031 C137.9375 166.8906 137.1562 167.6562 136.3125 167.6562 C135.2656 167.6562 134.5 166.6875 134.5 164.7188 C134.5 163.2812 135.1562 162.1562 136.3438 162.1562 C137.1406 162.1562 137.7812 162.6875 138.0938 163.6406 L137.9844 165.7031 ZM139.9062 167.2812 C139.7344 167.375 139.5469 167.4219 139.3438 167.4219 C138.9531 167.4219 138.75 167.2188 138.75 166.4219 C138.75 165.4844 138.9688 163.5312 139.1875 161.8281 L139.0312 161.7188 L138.2344 161.9219 L138.1406 162.7969 C137.7812 162.0312 137.1562 161.6562 136.3906 161.6562 C135.0469 161.6562 133.5625 162.8438 133.5625 164.9531 C133.5625 167.0938 134.7188 168.1719 136.1406 168.1719 C137.0156 168.1719 137.6875 167.8125 138.0938 166.9844 C138.2031 167.8594 138.5156 168.1719 139.0156 168.1719 C139.4688 168.1719 139.7969 167.9062 140.0156 167.5625 L139.9062 167.2812 Z"
      /><rect x="174" y="200" width="7" style="fill:white; stroke:none;" height="9"
      /><path style="stroke:none;" d="M175 205.5156 L177.9531 201.2656 L177.9531 205.5156 L175 205.5156 ZM180.2812 205.5156 L178.8594 205.5156 L178.8594 200.125 L178.2344 200.125 L174.3438 205.6406 L174.3438 206.1875 L177.9531 206.1875 L177.9531 209 L178.8594 209 L178.8594 206.1875 L180.2812 206.1875 L180.2812 205.5156 Z"
      /><rect x="161" y="198" width="6" style="fill:white; stroke:none;" height="13"
      /><path style="stroke:none;" d="M163.0938 204.2031 C163.0938 202.6562 163.75 201.8125 164.7969 201.8125 C165.7188 201.8125 166.2656 202.4531 166.2656 203.5156 C166.2656 204.7188 165.5 205.4375 164.1875 205.7031 L164.2969 206.3125 C166.2188 206.2344 166.9375 207.2188 166.9375 208.4375 C166.9375 209.625 166.2344 210.4219 164.9531 210.4219 C164.25 210.4219 163.6562 210.1562 163.0938 209.7188 L163.0938 204.2031 ZM162.2031 210.9062 L162.1094 213.375 L162.2656 213.4844 L163.1562 213.2656 L163.0156 210.0938 C163.5469 210.8438 164.3594 211.1719 165.1719 211.1719 C166.5625 211.1719 167.8594 210.2188 167.8594 208.4844 C167.8594 206.9531 166.875 206.1094 165.125 206 C166.5625 205.6094 167.1875 204.4531 167.1875 203.4844 C167.1875 202.0938 166.1562 201.3125 164.9062 201.3125 C163.2969 201.3125 162.2188 202.5469 162.2188 204.5156 L162.2031 210.9062 Z"
      /><rect x="213" y="200" width="5" style="fill:white; stroke:none;" height="10"
      /><path style="stroke:none;" d="M214.8906 208.6875 C214.4844 208.6875 214.1562 209.0469 214.1562 209.4219 C214.1562 209.8125 214.4844 210.1562 214.8906 210.1562 C215.2969 210.1562 215.6406 209.8125 215.6406 209.4219 C215.6406 209.0469 215.2969 208.6875 214.8906 208.6875 ZM216.4688 202.5781 C216.7188 202.8906 216.875 203.2656 216.8906 203.6562 C216.8906 204.1875 216.625 204.5 216.0312 204.7656 L215.4062 205.0156 C214.6406 205.3125 214.3906 205.5469 214.3906 205.9375 C214.3906 206.1094 214.4531 206.3438 214.5781 206.8125 L214.7344 207.3438 L215.1094 207.3438 L215.0938 206.5312 C215.0938 206.0938 215.2031 205.9688 215.7812 205.7344 L216.2031 205.5625 C217.0312 205.2188 217.4531 204.6875 217.4531 203.8438 C217.4531 202.1562 215.6562 201.1875 214.5 201.0312 C214.1094 201.125 213.9062 201.2969 213.9062 201.6406 C213.9062 201.9375 214.0625 202.1562 214.7188 202.2656 L216.4688 202.5781 Z"
    /></g
  ></g
></svg
>
