<?xml version="1.0"?>
<!DOCTYPE svg PUBLIC '-//W3C//DTD SVG 1.0//EN'
          'http://www.w3.org/TR/2001/REC-SVG-20010904/DTD/svg10.dtd'>
<svg xmlns:xlink="http://www.w3.org/1999/xlink" style="fill-opacity:1; color-rendering:auto; color-interpolation:auto; text-rendering:auto; stroke:black; stroke-linecap:square; stroke-miterlimit:10; shape-rendering:auto; stroke-opacity:1; fill:black; stroke-dasharray:none; font-weight:normal; stroke-width:1; font-family:'Dialog'; font-style:normal; stroke-linejoin:miter; font-size:12px; stroke-dashoffset:0; image-rendering:auto;" viewBox="0 0 365 128" xmlns="http://www.w3.org/2000/svg"
><!--Generated by the Batik Graphics2D SVG Generator--><defs id="genericDefs"
  /><g
  ><defs id="defs1"
    ><clipPath clipPathUnits="userSpaceOnUse" id="clipPath1"
      ><path d="M261 53 L283 53 L283 75 L261 75 L261 53 Z"
      /></clipPath
      ><clipPath clipPathUnits="userSpaceOnUse" id="clipPath2"
      ><path style="fill-rule:evenodd;" d="M220 53 L231 64 L220 75 L209 64 Z"
      /></clipPath
      ><clipPath clipPathUnits="userSpaceOnUse" id="clipPath3"
      ><path d="M145 53 L167 53 L167 75 L145 75 L145 53 Z"
      /></clipPath
      ><clipPath clipPathUnits="userSpaceOnUse" id="clipPath4"
      ><path style="fill-rule:evenodd;" d="M93 53 L104 64 L93 75 L82 64 Z"
      /></clipPath
      ><clipPath clipPathUnits="userSpaceOnUse" id="clipPath5"
      ><path d="M30 53 L52 53 L52 75 L30 75 L30 53 Z"
      /></clipPath
    ></defs
    ><g style="fill:white; text-rendering:optimizeSpeed; stroke:white;"
    ><rect x="0" width="365" height="128" y="0" style="stroke:none;"
      /><polygon style="fill:none; stroke:black;" points=" 324 64 272 64"
      /><path d="M324 53 C318.5 58.5 329.5 69.5 324 75" style="fill:none; stroke:black;"
      /><polygon style="fill:none; stroke:black;" points=" 272 64 220 64"
      /><rect x="261" y="53" width="22" style="clip-path:url(#clipPath1); stroke:none;" height="22"
      /><polygon style="fill:rgb(0,144,188); clip-path:url(#clipPath1); stroke:none;" points=" 261 53 283 53 283 75"
      /><polygon style="fill:none; clip-path:url(#clipPath1); stroke:black;" points=" 261 53 283 53 283 75"
      /><rect x="261" y="53" width="22" style="fill:none; stroke:black;" height="22"
      /><rect x="264" y="81" width="14" style="stroke:none;" height="10"
    /></g
    ><g style="text-rendering:optimizeSpeed; font-size:14px; font-family:'SansSerif';"
    ><path style="stroke:none;" d="M264.6094 92 L271.0625 92 L271.0625 90.8906 L268.2344 90.8906 C267.7031 90.8906 267.0781 90.9531 266.5469 90.9844 C268.9531 88.7031 270.5625 86.625 270.5625 84.5781 C270.5625 82.75 269.4219 81.5469 267.5781 81.5469 C266.2812 81.5469 265.4062 82.1406 264.5625 83.0469 L265.2969 83.7812 C265.8594 83.1094 266.5938 82.5938 267.4375 82.5938 C268.7031 82.5938 269.3125 83.4531 269.3125 84.625 C269.3125 86.3906 267.8438 88.4375 264.6094 91.25 L264.6094 92 ZM276.02 92.1875 C278.1606 92.1875 279.5043 90.8906 279.5043 89.2656 C279.5043 87.75 278.5825 87.0469 277.395 86.5312 L275.9262 85.8906 C275.1293 85.5625 274.2387 85.1875 274.2387 84.1875 C274.2387 83.2656 274.9887 82.6719 276.145 82.6719 C277.0981 82.6719 277.8637 83.0469 278.4887 83.6406 L279.1762 82.8125 C278.4418 82.0625 277.3637 81.5469 276.145 81.5469 C274.2856 81.5469 272.9106 82.6875 272.9106 84.2656 C272.9106 85.7656 274.0512 86.5 275.0043 86.9062 L276.4887 87.5469 C277.4575 87.9844 278.1918 88.3125 278.1918 89.375 C278.1918 90.375 277.3793 91.0469 276.0356 91.0469 C274.9731 91.0469 273.9418 90.5469 273.2075 89.7812 L272.4262 90.6562 C273.3168 91.5938 274.5668 92.1875 276.02 92.1875 Z"
      /><rect x="264" y="35" width="14" style="fill:white; stroke:none;" height="10"
      /><path style="stroke:none;" d="M268.1094 40.5781 C269.3438 40.5781 269.9688 41.4688 269.9688 42.8438 C269.9688 44.25 269.1875 45.1875 268.2188 45.1875 C266.9219 45.1875 266.1562 44.0312 266 41.8906 C266.625 40.9531 267.4531 40.5781 268.1094 40.5781 ZM268.2188 46.1875 C269.8125 46.1875 271.1562 44.8438 271.1562 42.8438 C271.1562 40.7031 270.0469 39.625 268.3125 39.625 C267.5 39.625 266.6094 40.1094 265.9688 40.875 C266.0312 37.6875 267.2188 36.6094 268.625 36.6094 C269.25 36.6094 269.8594 36.9062 270.2656 37.3906 L270.9688 36.5938 C270.4062 35.9844 269.6406 35.5469 268.5781 35.5469 C266.5938 35.5469 264.7812 37.0781 264.7812 41.0938 C264.7812 44.4844 266.2344 46.1875 268.2188 46.1875 ZM276.02 46.1875 C278.1606 46.1875 279.5043 44.8906 279.5043 43.2656 C279.5043 41.75 278.5825 41.0469 277.395 40.5312 L275.9262 39.8906 C275.1293 39.5625 274.2387 39.1875 274.2387 38.1875 C274.2387 37.2656 274.9887 36.6719 276.145 36.6719 C277.0981 36.6719 277.8637 37.0469 278.4887 37.6406 L279.1762 36.8125 C278.4418 36.0625 277.3637 35.5469 276.145 35.5469 C274.2856 35.5469 272.9106 36.6875 272.9106 38.2656 C272.9106 39.7656 274.0512 40.5 275.0043 40.9062 L276.4887 41.5469 C277.4575 41.9844 278.1918 42.3125 278.1918 43.375 C278.1918 44.375 277.3793 45.0469 276.0356 45.0469 C274.9731 45.0469 273.9418 44.5469 273.2075 43.7812 L272.4262 44.6562 C273.3168 45.5938 274.5668 46.1875 276.02 46.1875 Z"
      /><polygon style="fill:none;" points=" 220 64 156 64"
    /></g
    ><g style="fill:white; text-rendering:optimizeSpeed; stroke:white;"
    ><polygon style="stroke:none; clip-path:url(#clipPath2);" points=" 220 53 231 64 220 75 209 64"
      /><rect x="209" y="64" width="22" style="clip-path:url(#clipPath2); fill:rgb(161,122,77); stroke:none;" height="11"
      /><rect x="209" y="64" width="22" style="clip-path:url(#clipPath2); fill:none; stroke:black;" height="11"
      /><polygon style="fill:none; stroke:black;" points=" 220 53 231 64 220 75 209 64"
      /><rect x="212" width="14" height="10" y="81" style="stroke:none;"
    /></g
    ><g style="text-rendering:optimizeSpeed; font-size:14px; font-family:'SansSerif';"
    ><path style="stroke:none;" d="M212.6094 92 L219.0625 92 L219.0625 90.8906 L216.2344 90.8906 C215.7031 90.8906 215.0781 90.9531 214.5469 90.9844 C216.9531 88.7031 218.5625 86.625 218.5625 84.5781 C218.5625 82.75 217.4219 81.5469 215.5781 81.5469 C214.2812 81.5469 213.4062 82.1406 212.5625 83.0469 L213.2969 83.7812 C213.8594 83.1094 214.5938 82.5938 215.4375 82.5938 C216.7031 82.5938 217.3125 83.4531 217.3125 84.625 C217.3125 86.3906 215.8438 88.4375 212.6094 91.25 L212.6094 92 ZM224.02 92.1875 C226.1606 92.1875 227.5043 90.8906 227.5043 89.2656 C227.5043 87.75 226.5825 87.0469 225.395 86.5312 L223.9262 85.8906 C223.1293 85.5625 222.2387 85.1875 222.2387 84.1875 C222.2387 83.2656 222.9887 82.6719 224.145 82.6719 C225.0981 82.6719 225.8637 83.0469 226.4887 83.6406 L227.1762 82.8125 C226.4418 82.0625 225.3637 81.5469 224.145 81.5469 C222.2856 81.5469 220.9106 82.6875 220.9106 84.2656 C220.9106 85.7656 222.0512 86.5 223.0043 86.9062 L224.4887 87.5469 C225.4575 87.9844 226.1918 88.3125 226.1918 89.375 C226.1918 90.375 225.3793 91.0469 224.0356 91.0469 C222.9731 91.0469 221.9418 90.5469 221.2075 89.7812 L220.4262 90.6562 C221.3168 91.5938 222.5668 92.1875 224.02 92.1875 Z"
      /><polygon style="fill:none;" points=" 156 64 93 64"
    /></g
    ><g style="fill:white; text-rendering:optimizeSpeed; stroke:white;"
    ><rect x="145" y="53" width="22" style="clip-path:url(#clipPath3); stroke:none;" height="22"
      /><polygon style="fill:rgb(0,144,188); clip-path:url(#clipPath3); stroke:none;" points=" 145 53 167 53 167 75"
      /><polygon style="fill:none; clip-path:url(#clipPath3); stroke:black;" points=" 145 53 167 53 167 75"
      /><rect x="145" y="53" width="22" style="fill:none; stroke:black;" height="22"
      /><rect x="160" width="14" height="10" y="81" style="stroke:none;"
    /></g
    ><g style="text-rendering:optimizeSpeed; font-size:14px; font-family:'SansSerif';"
    ><path style="stroke:none;" d="M160.6094 92 L167.0625 92 L167.0625 90.8906 L164.2344 90.8906 C163.7031 90.8906 163.0781 90.9531 162.5469 90.9844 C164.9531 88.7031 166.5625 86.625 166.5625 84.5781 C166.5625 82.75 165.4219 81.5469 163.5781 81.5469 C162.2812 81.5469 161.4062 82.1406 160.5625 83.0469 L161.2969 83.7812 C161.8594 83.1094 162.5938 82.5938 163.4375 82.5938 C164.7031 82.5938 165.3125 83.4531 165.3125 84.625 C165.3125 86.3906 163.8438 88.4375 160.6094 91.25 L160.6094 92 ZM172.02 92.1875 C174.1606 92.1875 175.5043 90.8906 175.5043 89.2656 C175.5043 87.75 174.5825 87.0469 173.395 86.5312 L171.9262 85.8906 C171.1293 85.5625 170.2387 85.1875 170.2387 84.1875 C170.2387 83.2656 170.9887 82.6719 172.145 82.6719 C173.0981 82.6719 173.8637 83.0469 174.4887 83.6406 L175.1762 82.8125 C174.4418 82.0625 173.3637 81.5469 172.145 81.5469 C170.2856 81.5469 168.9106 82.6875 168.9106 84.2656 C168.9106 85.7656 170.0512 86.5 171.0043 86.9062 L172.4887 87.5469 C173.4575 87.9844 174.1918 88.3125 174.1918 89.375 C174.1918 90.375 173.3793 91.0469 172.0356 91.0469 C170.9731 91.0469 169.9418 90.5469 169.2075 89.7812 L168.4262 90.6562 C169.3168 91.5938 170.5668 92.1875 172.02 92.1875 Z"
      /><rect x="137" y="81" width="15" style="fill:white; stroke:none;" height="10"
      /><path style="stroke:none;" d="M140.7031 92.1875 C142.5156 92.1875 143.9844 91.0938 143.9844 89.25 C143.9844 87.8594 143.0156 86.9375 141.8125 86.6562 L141.8125 86.5938 C142.8906 86.1875 143.6406 85.3594 143.6406 84.125 C143.6406 82.5 142.375 81.5469 140.6562 81.5469 C139.4688 81.5469 138.5469 82.0625 137.7812 82.7812 L138.4688 83.5938 C139.0469 83 139.7656 82.5938 140.5938 82.5938 C141.6562 82.5938 142.3281 83.2344 142.3281 84.2188 C142.3281 85.3281 141.6094 86.1719 139.4844 86.1719 L139.4844 87.1562 C141.8594 87.1562 142.6875 87.9844 142.6875 89.2031 C142.6875 90.3906 141.8125 91.125 140.5938 91.125 C139.4375 91.125 138.6562 90.5781 138.0469 89.9375 L137.4062 90.7812 C138.0781 91.5156 139.0938 92.1875 140.7031 92.1875 ZM149.02 92.1875 C151.1606 92.1875 152.5043 90.8906 152.5043 89.2656 C152.5043 87.75 151.5825 87.0469 150.395 86.5312 L148.9262 85.8906 C148.1293 85.5625 147.2387 85.1875 147.2387 84.1875 C147.2387 83.2656 147.9887 82.6719 149.145 82.6719 C150.0981 82.6719 150.8637 83.0469 151.4887 83.6406 L152.1762 82.8125 C151.4418 82.0625 150.3637 81.5469 149.145 81.5469 C147.2856 81.5469 145.9106 82.6875 145.9106 84.2656 C145.9106 85.7656 147.0512 86.5 148.0043 86.9062 L149.4887 87.5469 C150.4575 87.9844 151.1918 88.3125 151.1918 89.375 C151.1918 90.375 150.3793 91.0469 149.0356 91.0469 C147.9731 91.0469 146.9418 90.5469 146.2075 89.7812 L145.4262 90.6562 C146.3168 91.5938 147.5668 92.1875 149.02 92.1875 Z"
      /><rect x="148" y="35" width="14" style="fill:white; stroke:none;" height="10"
      /><path style="stroke:none;" d="M152.1094 40.5781 C153.3438 40.5781 153.9688 41.4688 153.9688 42.8438 C153.9688 44.25 153.1875 45.1875 152.2188 45.1875 C150.9219 45.1875 150.1562 44.0312 150 41.8906 C150.625 40.9531 151.4531 40.5781 152.1094 40.5781 ZM152.2188 46.1875 C153.8125 46.1875 155.1562 44.8438 155.1562 42.8438 C155.1562 40.7031 154.0469 39.625 152.3125 39.625 C151.5 39.625 150.6094 40.1094 149.9688 40.875 C150.0312 37.6875 151.2188 36.6094 152.625 36.6094 C153.25 36.6094 153.8594 36.9062 154.2656 37.3906 L154.9688 36.5938 C154.4062 35.9844 153.6406 35.5469 152.5781 35.5469 C150.5938 35.5469 148.7812 37.0781 148.7812 41.0938 C148.7812 44.4844 150.2344 46.1875 152.2188 46.1875 ZM160.02 46.1875 C162.1606 46.1875 163.5043 44.8906 163.5043 43.2656 C163.5043 41.75 162.5825 41.0469 161.395 40.5312 L159.9262 39.8906 C159.1293 39.5625 158.2387 39.1875 158.2387 38.1875 C158.2387 37.2656 158.9887 36.6719 160.145 36.6719 C161.0981 36.6719 161.8637 37.0469 162.4887 37.6406 L163.1762 36.8125 C162.4418 36.0625 161.3637 35.5469 160.145 35.5469 C158.2856 35.5469 156.9106 36.6875 156.9106 38.2656 C156.9106 39.7656 158.0512 40.5 159.0043 40.9062 L160.4887 41.5469 C161.4575 41.9844 162.1918 42.3125 162.1918 43.375 C162.1918 44.375 161.3793 45.0469 160.0356 45.0469 C158.9731 45.0469 157.9418 44.5469 157.2075 43.7812 L156.4262 44.6562 C157.3168 45.5938 158.5668 46.1875 160.02 46.1875 Z"
      /><polygon style="fill:none;" points=" 93 64 41 64"
    /></g
    ><g style="fill:white; text-rendering:optimizeSpeed; stroke:white;"
    ><polygon style="stroke:none; clip-path:url(#clipPath4);" points=" 93 53 104 64 93 75 82 64"
      /><rect x="82" y="53" width="22" style="clip-path:url(#clipPath4); fill:rgb(0,144,188); stroke:none;" height="11"
      /><rect x="82" y="53" width="22" style="clip-path:url(#clipPath4); fill:none; stroke:black;" height="11"
      /><polygon style="fill:none; stroke:black;" points=" 93 53 104 64 93 75 82 64"
      /><rect x="30" y="53" width="22" style="clip-path:url(#clipPath5); stroke:none;" height="22"
      /><rect x="30" y="53" width="22" style="clip-path:url(#clipPath5); fill:rgb(0,144,188); stroke:none;" height="22"
      /><rect x="30" y="53" width="22" style="clip-path:url(#clipPath5); fill:none; stroke:black;" height="22"
      /><rect x="30" y="53" width="22" style="fill:none; stroke:black;" height="22"
      /><rect x="33" width="14" height="10" y="35" style="stroke:none;"
    /></g
    ><g style="text-rendering:optimizeSpeed; font-size:14px; font-family:'SansSerif';"
    ><path style="stroke:none;" d="M37.1094 40.5781 C38.3438 40.5781 38.9688 41.4688 38.9688 42.8438 C38.9688 44.25 38.1875 45.1875 37.2188 45.1875 C35.9219 45.1875 35.1562 44.0312 35 41.8906 C35.625 40.9531 36.4531 40.5781 37.1094 40.5781 ZM37.2188 46.1875 C38.8125 46.1875 40.1562 44.8438 40.1562 42.8438 C40.1562 40.7031 39.0469 39.625 37.3125 39.625 C36.5 39.625 35.6094 40.1094 34.9688 40.875 C35.0312 37.6875 36.2188 36.6094 37.625 36.6094 C38.25 36.6094 38.8594 36.9062 39.2656 37.3906 L39.9688 36.5938 C39.4062 35.9844 38.6406 35.5469 37.5781 35.5469 C35.5938 35.5469 33.7812 37.0781 33.7812 41.0938 C33.7812 44.4844 35.2344 46.1875 37.2188 46.1875 ZM45.02 46.1875 C47.1606 46.1875 48.5043 44.8906 48.5043 43.2656 C48.5043 41.75 47.5825 41.0469 46.395 40.5312 L44.9262 39.8906 C44.1293 39.5625 43.2387 39.1875 43.2387 38.1875 C43.2387 37.2656 43.9887 36.6719 45.145 36.6719 C46.0981 36.6719 46.8637 37.0469 47.4887 37.6406 L48.1762 36.8125 C47.4418 36.0625 46.3637 35.5469 45.145 35.5469 C43.2856 35.5469 41.9106 36.6875 41.9106 38.2656 C41.9106 39.7656 43.0512 40.5 44.0043 40.9062 L45.4887 41.5469 C46.4575 41.9844 47.1918 42.3125 47.1918 43.375 C47.1918 44.375 46.3793 45.0469 45.0356 45.0469 C43.9731 45.0469 42.9418 44.5469 42.2075 43.7812 L41.4262 44.6562 C42.3168 45.5938 43.5668 46.1875 45.02 46.1875 Z"
    /></g
    ><g style="fill:white; text-rendering:optimizeSpeed; font-family:'Serif'; stroke:white;"
    ><rect x="70" width="7" height="9" y="67" style="stroke:none;"
      /><path d="M71 72.5156 L73.9531 68.2656 L73.9531 72.5156 L71 72.5156 ZM76.2812 72.5156 L74.8594 72.5156 L74.8594 67.125 L74.2344 67.125 L70.3438 72.6406 L70.3438 73.1875 L73.9531 73.1875 L73.9531 76 L74.8594 76 L74.8594 73.1875 L76.2812 73.1875 L76.2812 72.5156 Z" style="fill:black; stroke:none;"
      /><rect x="56" width="8" height="8" y="68" style="stroke:none;"
      /><path d="M60.9844 73.7031 C60.9375 74.8906 60.1562 75.6562 59.3125 75.6562 C58.2656 75.6562 57.5 74.6875 57.5 72.7188 C57.5 71.2812 58.1562 70.1562 59.3438 70.1562 C60.1406 70.1562 60.7812 70.6875 61.0938 71.6406 L60.9844 73.7031 ZM62.9062 75.2812 C62.7344 75.375 62.5469 75.4219 62.3438 75.4219 C61.9531 75.4219 61.75 75.2188 61.75 74.4219 C61.75 73.4844 61.9688 71.5312 62.1875 69.8281 L62.0312 69.7188 L61.2344 69.9219 L61.1406 70.7969 C60.7812 70.0312 60.1562 69.6562 59.3906 69.6562 C58.0469 69.6562 56.5625 70.8438 56.5625 72.9531 C56.5625 75.0938 57.7188 76.1719 59.1406 76.1719 C60.0156 76.1719 60.6875 75.8125 61.0938 74.9844 C61.2031 75.8594 61.5156 76.1719 62.0156 76.1719 C62.4688 76.1719 62.7969 75.9062 63.0156 75.5625 L62.9062 75.2812 Z" style="fill:black; stroke:none;"
      /><rect x="122" width="7" height="9" y="67" style="stroke:none;"
      /><path d="M123 72.5156 L125.9531 68.2656 L125.9531 72.5156 L123 72.5156 ZM128.2812 72.5156 L126.8594 72.5156 L126.8594 67.125 L126.2344 67.125 L122.3438 72.6406 L122.3438 73.1875 L125.9531 73.1875 L125.9531 76 L126.8594 76 L126.8594 73.1875 L128.2812 73.1875 L128.2812 72.5156 Z" style="fill:black; stroke:none;"
      /><rect x="109" width="6" height="13" y="65" style="stroke:none;"
      /><path d="M111.0938 71.2031 C111.0938 69.6562 111.75 68.8125 112.7969 68.8125 C113.7188 68.8125 114.2656 69.4531 114.2656 70.5156 C114.2656 71.7188 113.5 72.4375 112.1875 72.7031 L112.2969 73.3125 C114.2188 73.2344 114.9375 74.2188 114.9375 75.4375 C114.9375 76.625 114.2344 77.4219 112.9531 77.4219 C112.25 77.4219 111.6562 77.1562 111.0938 76.7188 L111.0938 71.2031 ZM110.2031 77.9062 L110.1094 80.375 L110.2656 80.4844 L111.1562 80.2656 L111.0156 77.0938 C111.5469 77.8438 112.3594 78.1719 113.1719 78.1719 C114.5625 78.1719 115.8594 77.2188 115.8594 75.4844 C115.8594 73.9531 114.875 73.1094 113.125 73 C114.5625 72.6094 115.1875 71.4531 115.1875 70.4844 C115.1875 69.0938 114.1562 68.3125 112.9062 68.3125 C111.2969 68.3125 110.2188 69.5469 110.2188 71.5156 L110.2031 77.9062 Z" style="fill:black; stroke:none;"
      /><rect x="197" width="7" height="9" y="67" style="stroke:none;"
      /><path d="M198 72.5156 L200.9531 68.2656 L200.9531 72.5156 L198 72.5156 ZM203.2812 72.5156 L201.8594 72.5156 L201.8594 67.125 L201.2344 67.125 L197.3438 72.6406 L197.3438 73.1875 L200.9531 73.1875 L200.9531 76 L201.8594 76 L201.8594 73.1875 L203.2812 73.1875 L203.2812 72.5156 Z" style="fill:black; stroke:none;"
      /><rect x="183" width="8" height="8" y="68" style="stroke:none;"
      /><path d="M187.9844 73.7031 C187.9375 74.8906 187.1562 75.6562 186.3125 75.6562 C185.2656 75.6562 184.5 74.6875 184.5 72.7188 C184.5 71.2812 185.1562 70.1562 186.3438 70.1562 C187.1406 70.1562 187.7812 70.6875 188.0938 71.6406 L187.9844 73.7031 ZM189.9062 75.2812 C189.7344 75.375 189.5469 75.4219 189.3438 75.4219 C188.9531 75.4219 188.75 75.2188 188.75 74.4219 C188.75 73.4844 188.9688 71.5312 189.1875 69.8281 L189.0312 69.7188 L188.2344 69.9219 L188.1406 70.7969 C187.7812 70.0312 187.1562 69.6562 186.3906 69.6562 C185.0469 69.6562 183.5625 70.8438 183.5625 72.9531 C183.5625 75.0938 184.7188 76.1719 186.1406 76.1719 C187.0156 76.1719 187.6875 75.8125 188.0938 74.9844 C188.2031 75.8594 188.5156 76.1719 189.0156 76.1719 C189.4688 76.1719 189.7969 75.9062 190.0156 75.5625 L189.9062 75.2812 Z" style="fill:black; stroke:none;"
      /><rect x="249" width="7" height="9" y="67" style="stroke:none;"
      /><path d="M250 72.5156 L252.9531 68.2656 L252.9531 72.5156 L250 72.5156 ZM255.2812 72.5156 L253.8594 72.5156 L253.8594 67.125 L253.2344 67.125 L249.3438 72.6406 L249.3438 73.1875 L252.9531 73.1875 L252.9531 76 L253.8594 76 L253.8594 73.1875 L255.2812 73.1875 L255.2812 72.5156 Z" style="fill:black; stroke:none;"
      /><rect x="235" width="8" height="8" y="68" style="stroke:none;"
      /><path d="M239.9844 73.7031 C239.9375 74.8906 239.1562 75.6562 238.3125 75.6562 C237.2656 75.6562 236.5 74.6875 236.5 72.7188 C236.5 71.2812 237.1562 70.1562 238.3438 70.1562 C239.1406 70.1562 239.7812 70.6875 240.0938 71.6406 L239.9844 73.7031 ZM241.9062 75.2812 C241.7344 75.375 241.5469 75.4219 241.3438 75.4219 C240.9531 75.4219 240.75 75.2188 240.75 74.4219 C240.75 73.4844 240.9688 71.5312 241.1875 69.8281 L241.0312 69.7188 L240.2344 69.9219 L240.1406 70.7969 C239.7812 70.0312 239.1562 69.6562 238.3906 69.6562 C237.0469 69.6562 235.5625 70.8438 235.5625 72.9531 C235.5625 75.0938 236.7188 76.1719 238.1406 76.1719 C239.0156 76.1719 239.6875 75.8125 240.0938 74.9844 C240.2031 75.8594 240.5156 76.1719 241.0156 76.1719 C241.4688 76.1719 241.7969 75.9062 242.0156 75.5625 L241.9062 75.2812 Z" style="fill:black; stroke:none;"
      /><rect x="287" width="8" height="8" y="68" style="stroke:none;"
      /><path d="M291.9844 73.7031 C291.9375 74.8906 291.1562 75.6562 290.3125 75.6562 C289.2656 75.6562 288.5 74.6875 288.5 72.7188 C288.5 71.2812 289.1562 70.1562 290.3438 70.1562 C291.1406 70.1562 291.7812 70.6875 292.0938 71.6406 L291.9844 73.7031 ZM293.9062 75.2812 C293.7344 75.375 293.5469 75.4219 293.3438 75.4219 C292.9531 75.4219 292.75 75.2188 292.75 74.4219 C292.75 73.4844 292.9688 71.5312 293.1875 69.8281 L293.0312 69.7188 L292.2344 69.9219 L292.1406 70.7969 C291.7812 70.0312 291.1562 69.6562 290.3906 69.6562 C289.0469 69.6562 287.5625 70.8438 287.5625 72.9531 C287.5625 75.0938 288.7188 76.1719 290.1406 76.1719 C291.0156 76.1719 291.6875 75.8125 292.0938 74.9844 C292.2031 75.8594 292.5156 76.1719 293.0156 76.1719 C293.4688 76.1719 293.7969 75.9062 294.0156 75.5625 L293.9062 75.2812 Z" style="fill:black; stroke:none;"
    /></g
  ></g
></svg
>
