<?xml version="1.0"?>
<!DOCTYPE svg PUBLIC '-//W3C//DTD SVG 1.0//EN'
          'http://www.w3.org/TR/2001/REC-SVG-20010904/DTD/svg10.dtd'>
<svg xmlns:xlink="http://www.w3.org/1999/xlink" style="fill-opacity:1; color-rendering:auto; color-interpolation:auto; text-rendering:auto; stroke:black; stroke-linecap:square; stroke-miterlimit:10; shape-rendering:auto; stroke-opacity:1; fill:black; stroke-dasharray:none; font-weight:normal; stroke-width:1; font-family:'Dialog'; font-style:normal; stroke-linejoin:miter; font-size:12px; stroke-dashoffset:0; image-rendering:auto;" viewBox="0 0 150 82" xmlns="http://www.w3.org/2000/svg"
><!--Generated by the Batik Graphics2D SVG Generator--><defs id="genericDefs"
  /><g
  ><defs id="defs1"
    ><clipPath clipPathUnits="userSpaceOnUse" id="clipPath1"
      ><path d="M76 41 C76 47.0751 71.0751 52 65 52 C58.9249 52 54 47.0751 54 41 C54 34.9249 58.9249 30 65 30 C71.0751 30 76 34.9249 76 41 Z"
      /></clipPath
    ></defs
    ><g style="fill:white; text-rendering:optimizeSpeed; stroke:white;"
    ><rect x="0" width="150" height="82" y="0" style="stroke:none;"
      /><circle style="clip-path:url(#clipPath1); stroke:none;" r="11" cx="65" cy="41"
      /><rect x="54" y="30" width="22" style="clip-path:url(#clipPath1); stroke:none;" height="22"
      /><rect x="54" y="30" width="22" style="clip-path:url(#clipPath1); fill:none; stroke:black;" height="22"
      /><circle style="fill:none; stroke:black;" r="11" cx="65" cy="41"
      /><rect x="81" y="28" width="5" style="stroke:none;" height="10"
    /></g
    ><g style="font-family:'Serif'; text-rendering:optimizeSpeed; "
    ><path style="stroke:none;" d="M82.8906 36.6875 C82.4844 36.6875 82.1562 37.0469 82.1562 37.4219 C82.1562 37.8125 82.4844 38.1562 82.8906 38.1562 C83.2969 38.1562 83.6406 37.8125 83.6406 37.4219 C83.6406 37.0469 83.2969 36.6875 82.8906 36.6875 ZM84.4688 30.5781 C84.7188 30.8906 84.875 31.2656 84.8906 31.6562 C84.8906 32.1875 84.625 32.5 84.0312 32.7656 L83.4062 33.0156 C82.6406 33.3125 82.3906 33.5469 82.3906 33.9375 C82.3906 34.1094 82.4531 34.3438 82.5781 34.8125 L82.7344 35.3438 L83.1094 35.3438 L83.0938 34.5312 C83.0938 34.0938 83.2031 33.9688 83.7812 33.7344 L84.2031 33.5625 C85.0312 33.2188 85.4531 32.6875 85.4531 31.8438 C85.4531 30.1562 83.6562 29.1875 82.5 29.0312 C82.1094 29.125 81.9062 29.2969 81.9062 29.6406 C81.9062 29.9375 82.0625 30.1562 82.7188 30.2656 L84.4688 30.5781 Z"
      /><rect x="81" y="44" width="5" style="fill:white; stroke:none;" height="10"
      /><path style="stroke:none;" d="M82.8906 52.6875 C82.4844 52.6875 82.1562 53.0469 82.1562 53.4219 C82.1562 53.8125 82.4844 54.1562 82.8906 54.1562 C83.2969 54.1562 83.6406 53.8125 83.6406 53.4219 C83.6406 53.0469 83.2969 52.6875 82.8906 52.6875 ZM84.4688 46.5781 C84.7188 46.8906 84.875 47.2656 84.8906 47.6562 C84.8906 48.1875 84.625 48.5 84.0312 48.7656 L83.4062 49.0156 C82.6406 49.3125 82.3906 49.5469 82.3906 49.9375 C82.3906 50.1094 82.4531 50.3438 82.5781 50.8125 L82.7344 51.3438 L83.1094 51.3438 L83.0938 50.5312 C83.0938 50.0938 83.2031 49.9688 83.7812 49.7344 L84.2031 49.5625 C85.0312 49.2188 85.4531 48.6875 85.4531 47.8438 C85.4531 46.1562 83.6562 45.1875 82.5 45.0312 C82.1094 45.125 81.9062 45.2969 81.9062 45.6406 C81.9062 45.9375 82.0625 46.1562 82.7188 46.2656 L84.4688 46.5781 Z"
      /><path style="stroke:none;" d="M30.2344 46 L35.8594 46 L35.8594 44.9375 L33.7969 44.9375 L33.7969 35.7188 L32.8281 35.7188 C32.2656 36.0625 31.6094 36.2969 30.6875 36.4688 L30.6875 37.2812 L32.5156 37.2812 L32.5156 44.9375 L30.2344 44.9375 L30.2344 46 ZM37.3793 46 L43.8325 46 L43.8325 44.8906 L41.0043 44.8906 C40.4731 44.8906 39.8481 44.9531 39.3168 44.9844 C41.7231 42.7031 43.3325 40.625 43.3325 38.5781 C43.3325 36.75 42.1918 35.5469 40.3481 35.5469 C39.0512 35.5469 38.1762 36.1406 37.3325 37.0469 L38.0668 37.7812 C38.6293 37.1094 39.3637 36.5938 40.2075 36.5938 C41.4731 36.5938 42.0825 37.4531 42.0825 38.625 C42.0825 40.3906 40.6137 42.4375 37.3793 45.25 L37.3793 46 ZM44.7431 46 L46.0868 46 L47.1181 44.2188 C47.3837 43.7656 47.6337 43.2969 47.8993 42.8594 L47.9774 42.8594 C48.2431 43.2969 48.5243 43.7656 48.7743 44.2188 L49.8993 46 L51.3056 46 L48.7899 42.1562 L51.1024 38.3906 L49.7743 38.3906 L48.8368 40.0625 C48.6181 40.5 48.3837 40.9219 48.1493 41.3438 L48.1024 41.3438 C47.8368 40.9219 47.5712 40.5 47.3368 40.0625 L46.3212 38.3906 L44.9462 38.3906 L47.2587 42.0312 L44.7431 46 Z"
    /></g
  ></g
></svg
>
