<?xml version="1.0"?>
<!DOCTYPE svg PUBLIC '-//W3C//DTD SVG 1.0//EN'
          'http://www.w3.org/TR/2001/REC-SVG-20010904/DTD/svg10.dtd'>
<svg xmlns:xlink="http://www.w3.org/1999/xlink" style="fill-opacity:1; color-rendering:auto; color-interpolation:auto; text-rendering:auto; stroke:black; stroke-linecap:square; stroke-miterlimit:10; shape-rendering:auto; stroke-opacity:1; fill:black; stroke-dasharray:none; font-weight:normal; stroke-width:1; font-family:'Dialog'; font-style:normal; stroke-linejoin:miter; font-size:12px; stroke-dashoffset:0; image-rendering:auto;" viewBox="0 0 290 82" xmlns="http://www.w3.org/2000/svg"
><!--Generated by the Batik Graphics2D SVG Generator--><defs id="genericDefs"
  /><g
  ><defs id="defs1"
    ><clipPath clipPathUnits="userSpaceOnUse" id="clipPath1"
      ><path style="fill-rule:evenodd;" d="M197 30 L208 41 L197 52 L186 41 Z"
      /></clipPath
      ><clipPath clipPathUnits="userSpaceOnUse" id="clipPath2"
      ><path style="fill-rule:evenodd;" d="M145 30 L156 41 L145 52 L134 41 Z"
      /></clipPath
      ><clipPath clipPathUnits="userSpaceOnUse" id="clipPath3"
      ><path style="fill-rule:evenodd;" d="M93 30 L104 41 L93 52 L82 41 Z"
      /></clipPath
      ><clipPath clipPathUnits="userSpaceOnUse" id="clipPath4"
      ><path style="fill-rule:evenodd;" d="M41 30 L52 41 L41 52 L30 41 Z"
      /></clipPath
    ></defs
    ><g style="fill:white; text-rendering:optimizeSpeed; stroke:white;"
    ><rect x="0" width="290" height="82" y="0" style="stroke:none;"
      /><polygon style="fill:none; stroke:black;" points=" 249 41 197 41"
      /><path d="M249 30 C243.5 35.5 254.5 46.5 249 52" style="fill:none; stroke:black;"
      /><polygon style="fill:none; stroke:black;" points=" 197 41 145 41"
      /><polygon style="clip-path:url(#clipPath1); stroke:none;" points=" 197 30 208 41 197 52 186 41"
      /><rect x="186" y="30" width="22" style="clip-path:url(#clipPath1); fill:rgb(165,67,153); stroke:none;" height="22"
      /><rect x="186" y="30" width="22" style="clip-path:url(#clipPath1); fill:none; stroke:black;" height="22"
      /><polygon style="fill:none; stroke:black;" points=" 197 30 208 41 197 52 186 41"
      /><polygon style="fill:none; stroke:black;" points=" 145 41 93 41"
      /><polygon style="clip-path:url(#clipPath2); stroke:none;" points=" 145 30 156 41 145 52 134 41"
      /><rect x="134" y="30" width="22" style="clip-path:url(#clipPath2); fill:rgb(165,67,153); stroke:none;" height="22"
      /><rect x="134" y="30" width="22" style="clip-path:url(#clipPath2); fill:none; stroke:black;" height="22"
      /><polygon style="fill:none; stroke:black;" points=" 145 30 156 41 145 52 134 41"
      /><polygon style="fill:none; stroke:black;" points=" 93 41 41 41"
      /><polygon style="clip-path:url(#clipPath3); stroke:none;" points=" 93 30 104 41 93 52 82 41"
      /><rect x="82" y="30" width="22" style="clip-path:url(#clipPath3); fill:rgb(165,67,153); stroke:none;" height="22"
      /><rect x="82" y="30" width="22" style="clip-path:url(#clipPath3); fill:none; stroke:black;" height="22"
      /><polygon style="fill:none; stroke:black;" points=" 93 30 104 41 93 52 82 41"
      /><polygon style="clip-path:url(#clipPath4); stroke:none;" points=" 41 30 52 41 41 52 30 41"
      /><rect x="30" y="30" width="22" style="clip-path:url(#clipPath4); fill:rgb(165,67,153); stroke:none;" height="22"
      /><rect x="30" y="30" width="22" style="clip-path:url(#clipPath4); fill:none; stroke:black;" height="22"
      /><polygon style="fill:none; stroke:black;" points=" 41 30 52 41 41 52 30 41"
      /><rect x="71" y="44" width="6" style="stroke:none;" height="10"
    /></g
    ><g style="font-family:'Serif'; text-rendering:optimizeSpeed; "
    ><path style="stroke:none;" d="M74.2656 53.7031 C73.2031 53.7031 72.5 52.9688 72.5 51.9062 C72.5 50.9688 72.9375 50.4219 73.9062 49.8438 C75.4688 50.5625 75.9531 51.1719 75.9531 52.0156 C75.9531 53 75.2969 53.7031 74.2656 53.7031 ZM72.75 47.0469 C72.75 46.1094 73.4531 45.5625 74.2344 45.5625 C75.1562 45.5625 75.6562 46.2656 75.6562 47.0938 C75.6562 47.9688 75.3281 48.5469 74.4688 49.1562 C73.0938 48.5156 72.75 47.7969 72.75 47.0469 ZM74.8594 49.3438 C76.0938 48.6562 76.4531 47.8125 76.4531 47.0938 C76.4531 45.9219 75.6094 45.0781 74.2656 45.0781 C72.9375 45.0781 71.8906 45.9062 71.8906 47.2031 C71.8906 48.2031 72.375 49.0469 73.5156 49.6562 C72.2656 50.2812 71.5938 51 71.5938 52.0156 C71.5938 53.3906 72.6562 54.1719 74.2344 54.1719 C75.75 54.1719 76.875 53.25 76.875 51.8906 C76.875 50.7344 76.2656 50 74.8594 49.3438 Z"
      /><rect x="56" y="45" width="8" style="fill:white; stroke:none;" height="8"
      /><path style="stroke:none;" d="M60.9844 50.7031 C60.9375 51.8906 60.1562 52.6562 59.3125 52.6562 C58.2656 52.6562 57.5 51.6875 57.5 49.7188 C57.5 48.2812 58.1562 47.1562 59.3438 47.1562 C60.1406 47.1562 60.7812 47.6875 61.0938 48.6406 L60.9844 50.7031 ZM62.9062 52.2812 C62.7344 52.375 62.5469 52.4219 62.3438 52.4219 C61.9531 52.4219 61.75 52.2188 61.75 51.4219 C61.75 50.4844 61.9688 48.5312 62.1875 46.8281 L62.0312 46.7188 L61.2344 46.9219 L61.1406 47.7969 C60.7812 47.0312 60.1562 46.6562 59.3906 46.6562 C58.0469 46.6562 56.5625 47.8438 56.5625 49.9531 C56.5625 52.0938 57.7188 53.1719 59.1406 53.1719 C60.0156 53.1719 60.6875 52.8125 61.0938 51.9844 C61.2031 52.8594 61.5156 53.1719 62.0156 53.1719 C62.4688 53.1719 62.7969 52.9062 63.0156 52.5625 L62.9062 52.2812 Z"
      /><rect x="123" y="44" width="6" style="fill:white; stroke:none;" height="10"
      /><path style="stroke:none;" d="M126.2656 53.7031 C125.2031 53.7031 124.5 52.9688 124.5 51.9062 C124.5 50.9688 124.9375 50.4219 125.9062 49.8438 C127.4688 50.5625 127.9531 51.1719 127.9531 52.0156 C127.9531 53 127.2969 53.7031 126.2656 53.7031 ZM124.75 47.0469 C124.75 46.1094 125.4531 45.5625 126.2344 45.5625 C127.1562 45.5625 127.6562 46.2656 127.6562 47.0938 C127.6562 47.9688 127.3281 48.5469 126.4688 49.1562 C125.0938 48.5156 124.75 47.7969 124.75 47.0469 ZM126.8594 49.3438 C128.0938 48.6562 128.4531 47.8125 128.4531 47.0938 C128.4531 45.9219 127.6094 45.0781 126.2656 45.0781 C124.9375 45.0781 123.8906 45.9062 123.8906 47.2031 C123.8906 48.2031 124.375 49.0469 125.5156 49.6562 C124.2656 50.2812 123.5938 51 123.5938 52.0156 C123.5938 53.3906 124.6562 54.1719 126.2344 54.1719 C127.75 54.1719 128.875 53.25 128.875 51.8906 C128.875 50.7344 128.2656 50 126.8594 49.3438 Z"
      /><rect x="108" y="45" width="8" style="fill:white; stroke:none;" height="8"
      /><path style="stroke:none;" d="M112.9844 50.7031 C112.9375 51.8906 112.1562 52.6562 111.3125 52.6562 C110.2656 52.6562 109.5 51.6875 109.5 49.7188 C109.5 48.2812 110.1562 47.1562 111.3438 47.1562 C112.1406 47.1562 112.7812 47.6875 113.0938 48.6406 L112.9844 50.7031 ZM114.9062 52.2812 C114.7344 52.375 114.5469 52.4219 114.3438 52.4219 C113.9531 52.4219 113.75 52.2188 113.75 51.4219 C113.75 50.4844 113.9688 48.5312 114.1875 46.8281 L114.0312 46.7188 L113.2344 46.9219 L113.1406 47.7969 C112.7812 47.0312 112.1562 46.6562 111.3906 46.6562 C110.0469 46.6562 108.5625 47.8438 108.5625 49.9531 C108.5625 52.0938 109.7188 53.1719 111.1406 53.1719 C112.0156 53.1719 112.6875 52.8125 113.0938 51.9844 C113.2031 52.8594 113.5156 53.1719 114.0156 53.1719 C114.4688 53.1719 114.7969 52.9062 115.0156 52.5625 L114.9062 52.2812 Z"
      /><rect x="175" y="44" width="6" style="fill:white; stroke:none;" height="10"
      /><path style="stroke:none;" d="M178.2656 53.7031 C177.2031 53.7031 176.5 52.9688 176.5 51.9062 C176.5 50.9688 176.9375 50.4219 177.9062 49.8438 C179.4688 50.5625 179.9531 51.1719 179.9531 52.0156 C179.9531 53 179.2969 53.7031 178.2656 53.7031 ZM176.75 47.0469 C176.75 46.1094 177.4531 45.5625 178.2344 45.5625 C179.1562 45.5625 179.6562 46.2656 179.6562 47.0938 C179.6562 47.9688 179.3281 48.5469 178.4688 49.1562 C177.0938 48.5156 176.75 47.7969 176.75 47.0469 ZM178.8594 49.3438 C180.0938 48.6562 180.4531 47.8125 180.4531 47.0938 C180.4531 45.9219 179.6094 45.0781 178.2656 45.0781 C176.9375 45.0781 175.8906 45.9062 175.8906 47.2031 C175.8906 48.2031 176.375 49.0469 177.5156 49.6562 C176.2656 50.2812 175.5938 51 175.5938 52.0156 C175.5938 53.3906 176.6562 54.1719 178.2344 54.1719 C179.75 54.1719 180.875 53.25 180.875 51.8906 C180.875 50.7344 180.2656 50 178.8594 49.3438 Z"
      /><rect x="160" y="45" width="8" style="fill:white; stroke:none;" height="8"
      /><path style="stroke:none;" d="M164.9844 50.7031 C164.9375 51.8906 164.1562 52.6562 163.3125 52.6562 C162.2656 52.6562 161.5 51.6875 161.5 49.7188 C161.5 48.2812 162.1562 47.1562 163.3438 47.1562 C164.1406 47.1562 164.7812 47.6875 165.0938 48.6406 L164.9844 50.7031 ZM166.9062 52.2812 C166.7344 52.375 166.5469 52.4219 166.3438 52.4219 C165.9531 52.4219 165.75 52.2188 165.75 51.4219 C165.75 50.4844 165.9688 48.5312 166.1875 46.8281 L166.0312 46.7188 L165.2344 46.9219 L165.1406 47.7969 C164.7812 47.0312 164.1562 46.6562 163.3906 46.6562 C162.0469 46.6562 160.5625 47.8438 160.5625 49.9531 C160.5625 52.0938 161.7188 53.1719 163.1406 53.1719 C164.0156 53.1719 164.6875 52.8125 165.0938 51.9844 C165.2031 52.8594 165.5156 53.1719 166.0156 53.1719 C166.4688 53.1719 166.7969 52.9062 167.0156 52.5625 L166.9062 52.2812 Z"
      /><rect x="213" y="44" width="5" style="fill:white; stroke:none;" height="10"
      /><path style="stroke:none;" d="M214.8906 52.6875 C214.4844 52.6875 214.1562 53.0469 214.1562 53.4219 C214.1562 53.8125 214.4844 54.1562 214.8906 54.1562 C215.2969 54.1562 215.6406 53.8125 215.6406 53.4219 C215.6406 53.0469 215.2969 52.6875 214.8906 52.6875 ZM216.4688 46.5781 C216.7188 46.8906 216.875 47.2656 216.8906 47.6562 C216.8906 48.1875 216.625 48.5 216.0312 48.7656 L215.4062 49.0156 C214.6406 49.3125 214.3906 49.5469 214.3906 49.9375 C214.3906 50.1094 214.4531 50.3438 214.5781 50.8125 L214.7344 51.3438 L215.1094 51.3438 L215.0938 50.5312 C215.0938 50.0938 215.2031 49.9688 215.7812 49.7344 L216.2031 49.5625 C217.0312 49.2188 217.4531 48.6875 217.4531 47.8438 C217.4531 46.1562 215.6562 45.1875 214.5 45.0312 C214.1094 45.125 213.9062 45.2969 213.9062 45.6406 C213.9062 45.9375 214.0625 46.1562 214.7188 46.2656 L216.4688 46.5781 Z"
    /></g
  ></g
></svg
>
