<?xml version="1.0"?>
<!DOCTYPE svg PUBLIC '-//W3C//DTD SVG 1.0//EN'
          'http://www.w3.org/TR/2001/REC-SVG-20010904/DTD/svg10.dtd'>
<svg xmlns:xlink="http://www.w3.org/1999/xlink" style="fill-opacity:1; color-rendering:auto; color-interpolation:auto; text-rendering:auto; stroke:black; stroke-linecap:square; stroke-miterlimit:10; shape-rendering:auto; stroke-opacity:1; fill:black; stroke-dasharray:none; font-weight:normal; stroke-width:1; font-family:'Dialog'; font-style:normal; stroke-linejoin:miter; font-size:12px; stroke-dashoffset:0; image-rendering:auto;" viewBox="0 0 290 134" xmlns="http://www.w3.org/2000/svg"
><!--Generated by the Batik Graphics2D SVG Generator--><defs id="genericDefs"
  /><g
  ><defs id="defs1"
    ><clipPath clipPathUnits="userSpaceOnUse" id="clipPath1"
      ><path style="fill-rule:evenodd;" d="M197 56 L208 78 L186 78 Z"
      /></clipPath
      ><clipPath clipPathUnits="userSpaceOnUse" id="clipPath2"
      ><path style="fill-rule:evenodd;" d="M145 56 L156 78 L134 78 Z"
      /></clipPath
      ><clipPath clipPathUnits="userSpaceOnUse" id="clipPath3"
      ><path style="fill-rule:evenodd;" d="M93 56 L104 78 L82 78 Z"
      /></clipPath
      ><clipPath clipPathUnits="userSpaceOnUse" id="clipPath4"
      ><path d="M52 93 C52 99.0751 47.0751 104 41 104 C34.9249 104 30 99.0751 30 93 C30 86.9249 34.9249 82 41 82 C47.0751 82 52 86.9249 52 93 Z"
      /></clipPath
      ><clipPath clipPathUnits="userSpaceOnUse" id="clipPath5"
      ><path style="fill-rule:evenodd;" d="M41 30 L52 52 L30 52 Z"
      /></clipPath
    ></defs
    ><g style="fill:white; text-rendering:optimizeSpeed; stroke:white;"
    ><rect x="0" width="290" height="134" y="0" style="stroke:none;"
      /><polygon style="fill:none; stroke:black;" points=" 249 67 197 67"
      /><path d="M249 56 C243.5 61.5 254.5 72.5 249 78" style="fill:none; stroke:black;"
      /><polygon style="fill:none; stroke:black;" points=" 197 67 145 67"
      /><polygon style="clip-path:url(#clipPath1); stroke:none;" points=" 197 56 208 78 186 78"
      /><rect x="186" y="56" width="22" style="clip-path:url(#clipPath1); fill:rgb(0,144,188); stroke:none;" height="22"
      /><rect x="186" y="56" width="22" style="clip-path:url(#clipPath1); fill:none; stroke:black;" height="22"
      /><polygon style="fill:none; stroke:black;" points=" 197 56 208 78 186 78"
      /><polygon style="fill:none; stroke:black;" points=" 145 67 93 67"
      /><polygon style="clip-path:url(#clipPath2); stroke:none;" points=" 145 56 156 78 134 78"
      /><rect x="134" y="56" width="22" style="clip-path:url(#clipPath2); fill:rgb(0,166,81); stroke:none;" height="22"
      /><rect x="134" y="56" width="22" style="clip-path:url(#clipPath2); fill:none; stroke:black;" height="22"
      /><polygon style="fill:none; stroke:black;" points=" 145 56 156 78 134 78"
      /><polygon style="fill:none; stroke:black;" points=" 93 67 41 93"
      /><polygon style="fill:none; stroke:black;" points=" 93 67 41 41"
      /><polygon style="clip-path:url(#clipPath3); stroke:none;" points=" 93 56 104 78 82 78"
      /><rect x="82" y="56" width="22" style="clip-path:url(#clipPath3); fill:rgb(0,166,81); stroke:none;" height="22"
      /><rect x="82" y="56" width="22" style="clip-path:url(#clipPath3); fill:none; stroke:black;" height="22"
      /><polygon style="fill:none; stroke:black;" points=" 93 56 104 78 82 78"
      /><circle style="clip-path:url(#clipPath4); stroke:none;" r="11" cx="41" cy="93"
      /><rect x="30" y="82" width="22" style="clip-path:url(#clipPath4); fill:rgb(0,144,188); stroke:none;" height="22"
      /><rect x="30" y="82" width="22" style="clip-path:url(#clipPath4); fill:none; stroke:black;" height="22"
      /><circle style="fill:none; stroke:black;" r="11" cx="41" cy="93"
      /><polygon style="clip-path:url(#clipPath5); stroke:none;" points=" 41 30 52 52 30 52"
      /><rect x="30" y="30" width="22" style="clip-path:url(#clipPath5); fill:rgb(0,166,81); stroke:none;" height="22"
      /><rect x="30" y="30" width="22" style="clip-path:url(#clipPath5); fill:none; stroke:black;" height="22"
      /><polygon style="fill:none; stroke:black;" points=" 41 30 52 52 30 52"
      /><rect x="75" y="78" width="6" style="stroke:none;" height="10"
    /></g
    ><g style="font-family:'Serif'; text-rendering:optimizeSpeed; "
    ><path style="stroke:none;" d="M77.2344 79.6562 C77.5156 79.5938 77.7656 79.5625 78.0156 79.5625 C79.0625 79.5625 79.6719 80.1719 79.6719 81.2656 C79.6719 82.4375 78.9062 83.1094 77.7031 83.1094 L77.1875 83.1094 L77.1875 83.6406 L77.7969 83.6406 C79.2188 83.6406 79.9062 84.4219 79.9062 85.6406 C79.9062 86.8438 79.1719 87.6875 77.875 87.6875 C77.6094 87.6875 77.3125 87.6562 77.0156 87.5625 L76.7812 86.8125 C76.625 86.2812 76.5 86.0469 76.1406 86.0469 C75.8906 86.0469 75.7031 86.1719 75.5781 86.4219 C75.8438 87.6406 76.7812 88.1719 78.0312 88.1719 C79.7188 88.1719 80.875 87.125 80.875 85.7031 C80.875 84.5 80.2031 83.625 78.7969 83.375 C79.9531 83.0156 80.6094 82.2031 80.6094 81.2031 C80.6094 79.9219 79.6719 79.0781 78.1875 79.0781 C77.0469 79.0781 76.0625 79.5938 75.7969 80.6875 C75.9062 81 76.1094 81.1094 76.3594 81.1094 C76.7344 81.1094 76.8906 80.8906 77 80.4062 L77.2344 79.6562 Z"
      /><rect x="59" y="84" width="6" style="fill:white; stroke:none;" height="13"
      /><path style="stroke:none;" d="M61.0938 90.2031 C61.0938 88.6562 61.75 87.8125 62.7969 87.8125 C63.7188 87.8125 64.2656 88.4531 64.2656 89.5156 C64.2656 90.7188 63.5 91.4375 62.1875 91.7031 L62.2969 92.3125 C64.2188 92.2344 64.9375 93.2188 64.9375 94.4375 C64.9375 95.625 64.2344 96.4219 62.9531 96.4219 C62.25 96.4219 61.6562 96.1562 61.0938 95.7188 L61.0938 90.2031 ZM60.2031 96.9062 L60.1094 99.375 L60.2656 99.4844 L61.1562 99.2656 L61.0156 96.0938 C61.5469 96.8438 62.3594 97.1719 63.1719 97.1719 C64.5625 97.1719 65.8594 96.2188 65.8594 94.4844 C65.8594 92.9531 64.875 92.1094 63.125 92 C64.5625 91.6094 65.1875 90.4531 65.1875 89.4844 C65.1875 88.0938 64.1562 87.3125 62.9062 87.3125 C61.2969 87.3125 60.2188 88.5469 60.2188 90.5156 L60.2031 96.9062 Z"
      /><rect x="67" y="60" width="7" style="fill:white; stroke:none;" height="9"
      /><path style="stroke:none;" d="M68 65.5156 L70.9531 61.2656 L70.9531 65.5156 L68 65.5156 ZM73.2812 65.5156 L71.8594 65.5156 L71.8594 60.125 L71.2344 60.125 L67.3438 65.6406 L67.3438 66.1875 L70.9531 66.1875 L70.9531 69 L71.8594 69 L71.8594 66.1875 L73.2812 66.1875 L73.2812 65.5156 Z"
      /><rect x="51" y="53" width="8" style="fill:white; stroke:none;" height="8"
      /><path style="stroke:none;" d="M55.9844 58.7031 C55.9375 59.8906 55.1562 60.6562 54.3125 60.6562 C53.2656 60.6562 52.5 59.6875 52.5 57.7188 C52.5 56.2812 53.1562 55.1562 54.3438 55.1562 C55.1406 55.1562 55.7812 55.6875 56.0938 56.6406 L55.9844 58.7031 ZM57.9062 60.2812 C57.7344 60.375 57.5469 60.4219 57.3438 60.4219 C56.9531 60.4219 56.75 60.2188 56.75 59.4219 C56.75 58.4844 56.9688 56.5312 57.1875 54.8281 L57.0312 54.7188 L56.2344 54.9219 L56.1406 55.7969 C55.7812 55.0312 55.1562 54.6562 54.3906 54.6562 C53.0469 54.6562 51.5625 55.8438 51.5625 57.9531 C51.5625 60.0938 52.7188 61.1719 54.1406 61.1719 C55.0156 61.1719 55.6875 60.8125 56.0938 59.9844 C56.2031 60.8594 56.5156 61.1719 57.0156 61.1719 C57.4688 61.1719 57.7969 60.9062 58.0156 60.5625 L57.9062 60.2812 Z"
      /><rect x="122" y="70" width="7" style="fill:white; stroke:none;" height="9"
      /><path style="stroke:none;" d="M123 75.5156 L125.9531 71.2656 L125.9531 75.5156 L123 75.5156 ZM128.2812 75.5156 L126.8594 75.5156 L126.8594 70.125 L126.2344 70.125 L122.3438 75.6406 L122.3438 76.1875 L125.9531 76.1875 L125.9531 79 L126.8594 79 L126.8594 76.1875 L128.2812 76.1875 L128.2812 75.5156 Z"
      /><rect x="108" y="71" width="8" style="fill:white; stroke:none;" height="8"
      /><path style="stroke:none;" d="M112.9844 76.7031 C112.9375 77.8906 112.1562 78.6562 111.3125 78.6562 C110.2656 78.6562 109.5 77.6875 109.5 75.7188 C109.5 74.2812 110.1562 73.1562 111.3438 73.1562 C112.1406 73.1562 112.7812 73.6875 113.0938 74.6406 L112.9844 76.7031 ZM114.9062 78.2812 C114.7344 78.375 114.5469 78.4219 114.3438 78.4219 C113.9531 78.4219 113.75 78.2188 113.75 77.4219 C113.75 76.4844 113.9688 74.5312 114.1875 72.8281 L114.0312 72.7188 L113.2344 72.9219 L113.1406 73.7969 C112.7812 73.0312 112.1562 72.6562 111.3906 72.6562 C110.0469 72.6562 108.5625 73.8438 108.5625 75.9531 C108.5625 78.0938 109.7188 79.1719 111.1406 79.1719 C112.0156 79.1719 112.6875 78.8125 113.0938 77.9844 C113.2031 78.8594 113.5156 79.1719 114.0156 79.1719 C114.4688 79.1719 114.7969 78.9062 115.0156 78.5625 L114.9062 78.2812 Z"
      /><rect x="175" y="70" width="6" style="fill:white; stroke:none;" height="9"
      /><path style="stroke:none;" d="M176.4219 78.0938 C177.0781 77.375 177.7031 76.7188 178.0312 76.3438 C179.9219 74.3125 180.5312 73.4688 180.5312 72.3594 C180.5312 71.0156 179.7812 70.0781 178.1562 70.0781 C176.9062 70.0781 175.7969 70.7031 175.5938 71.9688 C175.7188 72.2031 175.9062 72.3438 176.1562 72.3438 C176.4688 72.3438 176.6562 72.1094 176.7969 71.5938 L177.0938 70.6719 C177.3906 70.5938 177.6562 70.5625 177.8906 70.5625 C178.9219 70.5625 179.5469 71.3125 179.5469 72.4219 C179.5469 73.4375 178.9844 74.4219 177.7031 75.9062 C177.125 76.5781 176.3906 77.4375 175.6406 78.2812 L175.6406 79 L180.9219 79 L180.9219 78.0938 L176.4219 78.0938 Z"
      /><rect x="160" y="71" width="8" style="fill:white; stroke:none;" height="8"
      /><path style="stroke:none;" d="M164.9844 76.7031 C164.9375 77.8906 164.1562 78.6562 163.3125 78.6562 C162.2656 78.6562 161.5 77.6875 161.5 75.7188 C161.5 74.2812 162.1562 73.1562 163.3438 73.1562 C164.1406 73.1562 164.7812 73.6875 165.0938 74.6406 L164.9844 76.7031 ZM166.9062 78.2812 C166.7344 78.375 166.5469 78.4219 166.3438 78.4219 C165.9531 78.4219 165.75 78.2188 165.75 77.4219 C165.75 76.4844 165.9688 74.5312 166.1875 72.8281 L166.0312 72.7188 L165.2344 72.9219 L165.1406 73.7969 C164.7812 73.0312 164.1562 72.6562 163.3906 72.6562 C162.0469 72.6562 160.5625 73.8438 160.5625 75.9531 C160.5625 78.0938 161.7188 79.1719 163.1406 79.1719 C164.0156 79.1719 164.6875 78.8125 165.0938 77.9844 C165.2031 78.8594 165.5156 79.1719 166.0156 79.1719 C166.4688 79.1719 166.7969 78.9062 167.0156 78.5625 L166.9062 78.2812 Z"
      /><rect x="213" y="68" width="6" style="fill:white; stroke:none;" height="13"
      /><path style="stroke:none;" d="M215.0938 74.2031 C215.0938 72.6562 215.75 71.8125 216.7969 71.8125 C217.7188 71.8125 218.2656 72.4531 218.2656 73.5156 C218.2656 74.7188 217.5 75.4375 216.1875 75.7031 L216.2969 76.3125 C218.2188 76.2344 218.9375 77.2188 218.9375 78.4375 C218.9375 79.625 218.2344 80.4219 216.9531 80.4219 C216.25 80.4219 215.6562 80.1562 215.0938 79.7188 L215.0938 74.2031 ZM214.2031 80.9062 L214.1094 83.375 L214.2656 83.4844 L215.1562 83.2656 L215.0156 80.0938 C215.5469 80.8438 216.3594 81.1719 217.1719 81.1719 C218.5625 81.1719 219.8594 80.2188 219.8594 78.4844 C219.8594 76.9531 218.875 76.1094 217.125 76 C218.5625 75.6094 219.1875 74.4531 219.1875 73.4844 C219.1875 72.0938 218.1562 71.3125 216.9062 71.3125 C215.2969 71.3125 214.2188 72.5469 214.2188 74.5156 L214.2031 80.9062 Z"
    /></g
  ></g
></svg
>
