<?xml version="1.0"?>
<!DOCTYPE svg PUBLIC '-//W3C//DTD SVG 1.0//EN'
          'http://www.w3.org/TR/2001/REC-SVG-20010904/DTD/svg10.dtd'>
<svg xmlns:xlink="http://www.w3.org/1999/xlink" style="fill-opacity:1; color-rendering:auto; color-interpolation:auto; text-rendering:auto; stroke:black; stroke-linecap:square; stroke-miterlimit:10; shape-rendering:auto; stroke-opacity:1; fill:black; stroke-dasharray:none; font-weight:normal; stroke-width:1; font-family:'Dialog'; font-style:normal; stroke-linejoin:miter; font-size:12px; stroke-dashoffset:0; image-rendering:auto;" viewBox="0 0 139 209" xmlns="http://www.w3.org/2000/svg"
><!--Generated by the Batik Graphics2D SVG Generator--><defs id="genericDefs"
  /><g
  ><defs id="defs1"
    ><clipPath clipPathUnits="userSpaceOnUse" id="clipPath1"
      ><path style="fill-rule:evenodd;" d="M43 157 L54 168 L43 179 L32 168 Z"
      /></clipPath
      ><clipPath clipPathUnits="userSpaceOnUse" id="clipPath2"
      ><path style="fill-rule:evenodd;" d="M43 82 L45 89 L53 89 L46 94 L49 101 L43 97 L36 101 L39 94 L32 89 L40 89 L43 82 Z"
      /></clipPath
      ><clipPath clipPathUnits="userSpaceOnUse" id="clipPath3"
      ><path style="fill-rule:evenodd;" d="M43 30 L54 52 L32 52 Z"
      /></clipPath
    ></defs
    ><g style="fill:white; text-rendering:optimizeSpeed; stroke:white;"
    ><rect x="0" width="139" height="209" y="0" style="stroke:none;"
      /><polygon style="fill:none; stroke:black;" points=" 98 168 43 168"
      /><path d="M98 157 C92.5 162.5 103.5 173.5 98 179" style="fill:none; stroke:black;"
      /><polygon style="fill:none; stroke:black;" points=" 43 168 43 93"
      /><polygon style="clip-path:url(#clipPath1); stroke:none;" points=" 43 157 54 168 43 179 32 168"
      /><rect x="32" y="157" width="22" style="clip-path:url(#clipPath1); fill:rgb(0,144,188); stroke:none;" height="11"
      /><rect x="32" y="157" width="22" style="clip-path:url(#clipPath1); fill:none; stroke:black;" height="11"
      /><polygon style="fill:none; stroke:black;" points=" 43 157 54 168 43 179 32 168"
      /><rect x="30" y="139" width="25" style="stroke:none;" height="10"
    /></g
    ><g style="text-rendering:optimizeSpeed; font-size:14px; font-family:'SansSerif';"
    ><path style="stroke:none;" d="M34.1094 144.5781 C35.3438 144.5781 35.9688 145.4688 35.9688 146.8438 C35.9688 148.25 35.1875 149.1875 34.2188 149.1875 C32.9219 149.1875 32.1562 148.0312 32 145.8906 C32.625 144.9531 33.4531 144.5781 34.1094 144.5781 ZM34.2188 150.1875 C35.8125 150.1875 37.1562 148.8438 37.1562 146.8438 C37.1562 144.7031 36.0469 143.625 34.3125 143.625 C33.5 143.625 32.6094 144.1094 31.9688 144.875 C32.0312 141.6875 33.2188 140.6094 34.625 140.6094 C35.25 140.6094 35.8594 140.9062 36.2656 141.3906 L36.9688 140.5938 C36.4062 139.9844 35.6406 139.5469 34.5781 139.5469 C32.5938 139.5469 30.7812 141.0781 30.7812 145.0938 C30.7812 148.4844 32.2344 150.1875 34.2188 150.1875 ZM39.1762 150 L40.3481 150 L40.3481 144.3125 C40.3481 143.4375 40.2543 142.1875 40.1918 141.2969 L40.2543 141.2969 L41.0668 143.625 L43.0043 148.9688 L43.8793 148.9688 L45.8168 143.625 L46.6293 141.2969 L46.6918 141.2969 C46.6137 142.1875 46.52 143.4375 46.52 144.3125 L46.52 150 L47.7387 150 L47.7387 139.7188 L46.1762 139.7188 L44.2075 145.2188 C43.9731 145.9375 43.7543 146.6562 43.5043 147.375 L43.4418 147.375 C43.1918 146.6562 42.9575 145.9375 42.7075 145.2188 L40.7387 139.7188 L39.1762 139.7188 L39.1762 150 ZM53.4973 150.1875 C54.5285 150.1875 55.341 149.8281 56.0129 149.3906 L55.5442 148.5625 C54.9973 148.9375 54.3879 149.1562 53.6535 149.1562 C52.2004 149.1562 51.216 148.125 51.1223 146.5 L56.2473 146.5 C56.2785 146.3125 56.3098 146.0469 56.3098 145.7656 C56.3098 143.6094 55.216 142.2031 53.2785 142.2031 C51.5129 142.2031 49.8567 143.7344 49.8567 146.2031 C49.8567 148.7188 51.4817 150.1875 53.4973 150.1875 ZM51.1067 145.5781 C51.2629 144.0938 52.216 143.2188 53.2942 143.2188 C54.4817 143.2188 55.1848 144.0469 55.1848 145.5781 L51.1067 145.5781 Z"
      /><polygon style="fill:none;" points=" 43 93 43 41"
    /></g
    ><g style="fill:white; text-rendering:optimizeSpeed; stroke:white;"
    ><polygon style="stroke:none; clip-path:url(#clipPath2);" points=" 43 82 45 89 53 89 46 94 49 101 43 97 36 101 39 94 32 89 40 89 43 82"
      /><rect x="32" y="82" width="22" style="clip-path:url(#clipPath2); fill:rgb(244,121,32); stroke:none;" height="22"
      /><rect x="32" y="82" width="22" style="clip-path:url(#clipPath2); fill:none; stroke:black;" height="22"
      /><polygon style="fill:none; stroke:black;" points=" 43 82 45 89 53 89 46 94 49 101 43 97 36 101 39 94 32 89 40 89 43 82"
      /><polygon style="clip-path:url(#clipPath3); stroke:none;" points=" 43 30 54 52 32 52"
      /><rect x="32" y="30" width="22" style="clip-path:url(#clipPath3); fill:rgb(0,166,81); stroke:none;" height="22"
      /><rect x="32" y="30" width="22" style="clip-path:url(#clipPath3); fill:none; stroke:black;" height="22"
      /><polygon style="fill:none; stroke:black;" points=" 43 30 54 52 32 52"
      /><rect x="31" width="7" height="9" y="69" style="stroke:none;"
      /><path d="M32 74.5156 L34.9531 70.2656 L34.9531 74.5156 L32 74.5156 ZM37.2812 74.5156 L35.8594 74.5156 L35.8594 69.125 L35.2344 69.125 L31.3438 74.6406 L31.3438 75.1875 L34.9531 75.1875 L34.9531 78 L35.8594 78 L35.8594 75.1875 L37.2812 75.1875 L37.2812 74.5156 Z" style="fill:black; stroke:none;"
      /><rect x="31" width="8" height="8" y="56" style="stroke:none;"
      /><path d="M35.9844 61.7031 C35.9375 62.8906 35.1562 63.6562 34.3125 63.6562 C33.2656 63.6562 32.5 62.6875 32.5 60.7188 C32.5 59.2812 33.1562 58.1562 34.3438 58.1562 C35.1406 58.1562 35.7812 58.6875 36.0938 59.6406 L35.9844 61.7031 ZM37.9062 63.2812 C37.7344 63.375 37.5469 63.4219 37.3438 63.4219 C36.9531 63.4219 36.75 63.2188 36.75 62.4219 C36.75 61.4844 36.9688 59.5312 37.1875 57.8281 L37.0312 57.7188 L36.2344 57.9219 L36.1406 58.7969 C35.7812 58.0312 35.1562 57.6562 34.3906 57.6562 C33.0469 57.6562 31.5625 58.8438 31.5625 60.9531 C31.5625 63.0938 32.7188 64.1719 34.1406 64.1719 C35.0156 64.1719 35.6875 63.8125 36.0938 62.9844 C36.2031 63.8594 36.5156 64.1719 37.0156 64.1719 C37.4688 64.1719 37.7969 63.9062 38.0156 63.5625 L37.9062 63.2812 Z" style="fill:black; stroke:none;"
      /><rect x="31" width="7" height="9" y="121" style="stroke:none;"
      /><path d="M32 126.5156 L34.9531 122.2656 L34.9531 126.5156 L32 126.5156 ZM37.2812 126.5156 L35.8594 126.5156 L35.8594 121.125 L35.2344 121.125 L31.3438 126.6406 L31.3438 127.1875 L34.9531 127.1875 L34.9531 130 L35.8594 130 L35.8594 127.1875 L37.2812 127.1875 L37.2812 126.5156 Z" style="fill:black; stroke:none;"
      /><rect x="32" width="6" height="13" y="105" style="stroke:none;"
      /><path d="M34.0938 111.2031 C34.0938 109.6562 34.75 108.8125 35.7969 108.8125 C36.7188 108.8125 37.2656 109.4531 37.2656 110.5156 C37.2656 111.7188 36.5 112.4375 35.1875 112.7031 L35.2969 113.3125 C37.2188 113.2344 37.9375 114.2188 37.9375 115.4375 C37.9375 116.625 37.2344 117.4219 35.9531 117.4219 C35.25 117.4219 34.6562 117.1562 34.0938 116.7188 L34.0938 111.2031 ZM33.2031 117.9062 L33.1094 120.375 L33.2656 120.4844 L34.1562 120.2656 L34.0156 117.0938 C34.5469 117.8438 35.3594 118.1719 36.1719 118.1719 C37.5625 118.1719 38.8594 117.2188 38.8594 115.4844 C38.8594 113.9531 37.875 113.1094 36.125 113 C37.5625 112.6094 38.1875 111.4531 38.1875 110.4844 C38.1875 109.0938 37.1562 108.3125 35.9062 108.3125 C34.2969 108.3125 33.2188 109.5469 33.2188 111.5156 L33.2031 117.9062 Z" style="fill:black; stroke:none;"
      /><rect x="62" width="5" height="10" y="171" style="stroke:none;"
      /><path d="M63.8906 179.6875 C63.4844 179.6875 63.1562 180.0469 63.1562 180.4219 C63.1562 180.8125 63.4844 181.1562 63.8906 181.1562 C64.2969 181.1562 64.6406 180.8125 64.6406 180.4219 C64.6406 180.0469 64.2969 179.6875 63.8906 179.6875 ZM65.4688 173.5781 C65.7188 173.8906 65.875 174.2656 65.8906 174.6562 C65.8906 175.1875 65.625 175.5 65.0312 175.7656 L64.4062 176.0156 C63.6406 176.3125 63.3906 176.5469 63.3906 176.9375 C63.3906 177.1094 63.4531 177.3438 63.5781 177.8125 L63.7344 178.3438 L64.1094 178.3438 L64.0938 177.5312 C64.0938 177.0938 64.2031 176.9688 64.7812 176.7344 L65.2031 176.5625 C66.0312 176.2188 66.4531 175.6875 66.4531 174.8438 C66.4531 173.1562 64.6562 172.1875 63.5 172.0312 C63.1094 172.125 62.9062 172.2969 62.9062 172.6406 C62.9062 172.9375 63.0625 173.1562 63.7188 173.2656 L65.4688 173.5781 Z" style="fill:black; stroke:none;"
    /></g
  ></g
></svg
>
