<?xml version="1.0"?>
<!DOCTYPE svg PUBLIC '-//W3C//DTD SVG 1.0//EN'
          'http://www.w3.org/TR/2001/REC-SVG-20010904/DTD/svg10.dtd'>
<svg xmlns:xlink="http://www.w3.org/1999/xlink" style="fill-opacity:1; color-rendering:auto; color-interpolation:auto; text-rendering:auto; stroke:black; stroke-linecap:square; stroke-miterlimit:10; shape-rendering:auto; stroke-opacity:1; fill:black; stroke-dasharray:none; font-weight:normal; stroke-width:1; font-family:'Dialog'; font-style:normal; stroke-linejoin:miter; font-size:12px; stroke-dashoffset:0; image-rendering:auto;" viewBox="0 0 239 172" xmlns="http://www.w3.org/2000/svg"
><!--Generated by the Batik Graphics2D SVG Generator--><defs id="genericDefs"
  /><g
  ><defs id="defs1"
    ><clipPath clipPathUnits="userSpaceOnUse" id="clipPath1"
      ><path style="fill-rule:evenodd;" d="M146 67 L156 74 L152 86 L139 86 L135 74 L146 67 Z"
      /></clipPath
      ><clipPath clipPathUnits="userSpaceOnUse" id="clipPath2"
      ><path d="M105 78 C105 84.0751 100.0751 89 94 89 C87.9249 89 83 84.0751 83 78 C83 71.9249 87.9249 67 94 67 C100.0751 67 105 71.9249 105 78 Z"
      /></clipPath
      ><clipPath clipPathUnits="userSpaceOnUse" id="clipPath3"
      ><path d="M52 116 C52 122.0751 47.0751 127 41 127 C34.9249 127 30 122.0751 30 116 C30 109.9249 34.9249 105 41 105 C47.0751 105 52 109.9249 52 116 Z"
      /></clipPath
    ></defs
    ><g style="fill:white; text-rendering:optimizeSpeed; stroke:white;"
    ><rect x="0" width="239" height="172" y="0" style="stroke:none;"
      /><polygon style="fill:none; stroke:black;" points=" 198 78 146 78"
      /><path d="M198 67 C192.5 72.5 203.5 83.5 198 89" style="fill:none; stroke:black;"
      /><polygon style="fill:none; stroke:black;" points=" 146 78 94 78"
      /><polygon style="clip-path:url(#clipPath1); stroke:none;" points=" 146 67 156 74 152 86 139 86 135 74 146 67"
      /><rect x="135" y="67" width="22" style="clip-path:url(#clipPath1); stroke:none;" height="22"
      /><rect x="135" y="67" width="22" style="clip-path:url(#clipPath1); fill:none; stroke:black;" height="22"
      /><polygon style="fill:none; stroke:black;" points=" 146 67 156 74 152 86 139 86 135 74 146 67"
    /></g
    ><g style="text-rendering:optimizeSpeed; font-size:14px; font-family:'SansSerif';"
    ><path style="stroke:none;" d="M144.2344 83 L149.8594 83 L149.8594 81.9375 L147.7969 81.9375 L147.7969 72.7188 L146.8281 72.7188 C146.2656 73.0625 145.6094 73.2969 144.6875 73.4688 L144.6875 74.2812 L146.5156 74.2812 L146.5156 81.9375 L144.2344 81.9375 L144.2344 83 Z"
      /><polygon style="fill:none;" points=" 94 78 41 116"
      /><polygon style="fill:none;" points=" 94 78 41 41"
    /></g
    ><g style="fill:white; text-rendering:optimizeSpeed; stroke:white;"
    ><circle r="11" style="clip-path:url(#clipPath2); stroke:none;" cx="94" cy="78"
      /><rect x="83" y="67" width="22" style="clip-path:url(#clipPath2); fill:rgb(0,144,188); stroke:none;" height="22"
      /><rect x="83" y="67" width="22" style="clip-path:url(#clipPath2); fill:none; stroke:black;" height="22"
      /><circle r="11" style="fill:none; stroke:black;" cx="94" cy="78"
      /><circle r="11" style="clip-path:url(#clipPath3); stroke:none;" cx="41" cy="116"
      /><rect x="30" y="105" width="22" style="clip-path:url(#clipPath3); fill:rgb(0,144,188); stroke:none;" height="22"
      /><rect x="30" y="105" width="22" style="clip-path:url(#clipPath3); fill:none; stroke:black;" height="22"
      /><circle r="11" style="fill:none; stroke:black;" cx="41" cy="116"
      /><rect x="37" width="6" height="10" y="35" style="stroke:none;"
    /></g
    ><g style="text-rendering:optimizeSpeed; font-size:14px; font-family:'SansSerif';"
    ><path style="stroke:none;" d="M38.4062 46 L39.7031 46 L39.7031 41.9219 L41.3906 41.9219 C43.6562 41.9219 45.1719 40.9219 45.1719 38.75 C45.1719 36.5156 43.6406 35.7188 41.3438 35.7188 L38.4062 35.7188 L38.4062 46 ZM39.7031 40.875 L39.7031 36.7812 L41.1719 36.7812 C42.9844 36.7812 43.8906 37.2656 43.8906 38.75 C43.8906 40.2188 43.0312 40.875 41.2344 40.875 L39.7031 40.875 Z"
      /><path style="stroke:none;" d="M31.9688 68 L36.3906 68 L36.3906 67.1562 L34.7656 67.1562 L34.7656 59.9219 L34 59.9219 C33.5625 60.1875 33.0469 60.375 32.3281 60.5156 L32.3281 61.1406 L33.7656 61.1406 L33.7656 67.1562 L31.9688 67.1562 L31.9688 68 ZM39.8862 68 L40.9174 68 L40.9174 60.7969 L43.3549 60.7969 L43.3549 59.9219 L37.4487 59.9219 L37.4487 60.7969 L39.8862 60.7969 L39.8862 68 ZM44.7095 68 L45.7095 68 L45.7095 64.1562 C46.1001 63.1406 46.7251 62.7812 47.2095 62.7812 C47.4595 62.7812 47.6001 62.8125 47.8033 62.8906 L47.9908 62 C47.8033 61.9062 47.6158 61.875 47.3501 61.875 C46.6783 61.875 46.0689 62.3594 45.647 63.1094 L45.6158 63.1094 L45.5376 62.0312 L44.7095 62.0312 L44.7095 68 ZM48.9775 68 L49.9775 68 L49.9775 62.0312 L48.9775 62.0312 L48.9775 68 ZM49.4775 60.7969 C49.8681 60.7969 50.1494 60.5312 50.1494 60.125 C50.1494 59.7344 49.8681 59.4688 49.4775 59.4688 C49.0869 59.4688 48.8056 59.7344 48.8056 60.125 C48.8056 60.5312 49.0869 60.7969 49.4775 60.7969 Z"
    /></g
    ><g style="fill:white; text-rendering:optimizeSpeed; font-family:'Serif'; stroke:white;"
    ><rect x="78" width="5" height="10" y="92" style="stroke:none;"
      /><path d="M79.8906 100.6875 C79.4844 100.6875 79.1562 101.0469 79.1562 101.4219 C79.1562 101.8125 79.4844 102.1562 79.8906 102.1562 C80.2969 102.1562 80.6406 101.8125 80.6406 101.4219 C80.6406 101.0469 80.2969 100.6875 79.8906 100.6875 ZM81.4688 94.5781 C81.7188 94.8906 81.875 95.2656 81.8906 95.6562 C81.8906 96.1875 81.625 96.5 81.0312 96.7656 L80.4062 97.0156 C79.6406 97.3125 79.3906 97.5469 79.3906 97.9375 C79.3906 98.1094 79.4531 98.3438 79.5781 98.8125 L79.7344 99.3438 L80.1094 99.3438 L80.0938 98.5312 C80.0938 98.0938 80.2031 97.9688 80.7812 97.7344 L81.2031 97.5625 C82.0312 97.2188 82.4531 96.6875 82.4531 95.8438 C82.4531 94.1562 80.6562 93.1875 79.5 93.0312 C79.1094 93.125 78.9062 93.2969 78.9062 93.6406 C78.9062 93.9375 79.0625 94.1562 79.7188 94.2656 L81.4688 94.5781 Z" style="fill:black; stroke:none;"
      /><rect x="60" width="5" height="10" y="104" style="stroke:none;"
      /><path d="M61.8906 112.6875 C61.4844 112.6875 61.1562 113.0469 61.1562 113.4219 C61.1562 113.8125 61.4844 114.1562 61.8906 114.1562 C62.2969 114.1562 62.6406 113.8125 62.6406 113.4219 C62.6406 113.0469 62.2969 112.6875 61.8906 112.6875 ZM63.4688 106.5781 C63.7188 106.8906 63.875 107.2656 63.8906 107.6562 C63.8906 108.1875 63.625 108.5 63.0312 108.7656 L62.4062 109.0156 C61.6406 109.3125 61.3906 109.5469 61.3906 109.9375 C61.3906 110.1094 61.4531 110.3438 61.5781 110.8125 L61.7344 111.3438 L62.1094 111.3438 L62.0938 110.5312 C62.0938 110.0938 62.2031 109.9688 62.7812 109.7344 L63.2031 109.5625 C64.0312 109.2188 64.4531 108.6875 64.4531 107.8438 C64.4531 106.1562 62.6562 105.1875 61.5 105.0312 C61.1094 105.125 60.9062 105.2969 60.9062 105.6406 C60.9062 105.9375 61.0625 106.1562 61.7188 106.2656 L63.4688 106.5781 Z" style="fill:black; stroke:none;"
      /><rect x="68" width="6" height="10" y="67" style="stroke:none;"
      /><path d="M71.3438 76.6875 C70.2031 76.6875 69.5312 75.5 69.5312 73.2969 C69.5312 73.2188 69.5312 73.125 69.5312 73.0469 C70.0938 72.5 70.7188 72.3125 71.3438 72.3125 C72.3125 72.3125 72.9531 72.9844 72.9531 74.4531 C72.9531 75.9375 72.3125 76.6875 71.3438 76.6875 ZM73.5312 68.0781 C70.3438 68.4531 68.5625 70.7656 68.5625 73.4531 C68.5625 75.7812 69.6094 77.1719 71.3125 77.1719 C72.8438 77.1719 73.9219 76.1094 73.9219 74.2812 C73.9219 72.6875 72.9688 71.6562 71.5625 71.6562 C70.8281 71.6562 70.1406 71.9844 69.5781 72.5781 C69.7969 70.4062 71.0781 68.9688 73.5938 68.3906 L73.5312 68.0781 Z" style="fill:black; stroke:none;"
      /><rect x="124" width="5" height="10" y="81" style="stroke:none;"
      /><path d="M125.8906 89.6875 C125.4844 89.6875 125.1562 90.0469 125.1562 90.4219 C125.1562 90.8125 125.4844 91.1562 125.8906 91.1562 C126.2969 91.1562 126.6406 90.8125 126.6406 90.4219 C126.6406 90.0469 126.2969 89.6875 125.8906 89.6875 ZM127.4688 83.5781 C127.7188 83.8906 127.875 84.2656 127.8906 84.6562 C127.8906 85.1875 127.625 85.5 127.0312 85.7656 L126.4062 86.0156 C125.6406 86.3125 125.3906 86.5469 125.3906 86.9375 C125.3906 87.1094 125.4531 87.3438 125.5781 87.8125 L125.7344 88.3438 L126.1094 88.3438 L126.0938 87.5312 C126.0938 87.0938 126.2031 86.9688 126.7812 86.7344 L127.2031 86.5625 C128.0312 86.2188 128.4531 85.6875 128.4531 84.8438 C128.4531 83.1562 126.6562 82.1875 125.5 82.0312 C125.1094 82.125 124.9062 82.2969 124.9062 82.6406 C124.9062 82.9375 125.0625 83.1562 125.7188 83.2656 L127.4688 83.5781 Z" style="fill:black; stroke:none;"
      /><rect x="110" width="5" height="10" y="81" style="stroke:none;"
      /><path d="M111.8906 89.6875 C111.4844 89.6875 111.1562 90.0469 111.1562 90.4219 C111.1562 90.8125 111.4844 91.1562 111.8906 91.1562 C112.2969 91.1562 112.6406 90.8125 112.6406 90.4219 C112.6406 90.0469 112.2969 89.6875 111.8906 89.6875 ZM113.4688 83.5781 C113.7188 83.8906 113.875 84.2656 113.8906 84.6562 C113.8906 85.1875 113.625 85.5 113.0312 85.7656 L112.4062 86.0156 C111.6406 86.3125 111.3906 86.5469 111.3906 86.9375 C111.3906 87.1094 111.4531 87.3438 111.5781 87.8125 L111.7344 88.3438 L112.1094 88.3438 L112.0938 87.5312 C112.0938 87.0938 112.2031 86.9688 112.7812 86.7344 L113.2031 86.5625 C114.0312 86.2188 114.4531 85.6875 114.4531 84.8438 C114.4531 83.1562 112.6562 82.1875 111.5 82.0312 C111.1094 82.125 110.9062 82.2969 110.9062 82.6406 C110.9062 82.9375 111.0625 83.1562 111.7188 83.2656 L113.4688 83.5781 Z" style="fill:black; stroke:none;"
      /><rect x="162" width="5" height="10" y="81" style="stroke:none;"
      /><path d="M163.8906 89.6875 C163.4844 89.6875 163.1562 90.0469 163.1562 90.4219 C163.1562 90.8125 163.4844 91.1562 163.8906 91.1562 C164.2969 91.1562 164.6406 90.8125 164.6406 90.4219 C164.6406 90.0469 164.2969 89.6875 163.8906 89.6875 ZM165.4688 83.5781 C165.7188 83.8906 165.875 84.2656 165.8906 84.6562 C165.8906 85.1875 165.625 85.5 165.0312 85.7656 L164.4062 86.0156 C163.6406 86.3125 163.3906 86.5469 163.3906 86.9375 C163.3906 87.1094 163.4531 87.3438 163.5781 87.8125 L163.7344 88.3438 L164.1094 88.3438 L164.0938 87.5312 C164.0938 87.0938 164.2031 86.9688 164.7812 86.7344 L165.2031 86.5625 C166.0312 86.2188 166.4531 85.6875 166.4531 84.8438 C166.4531 83.1562 164.6562 82.1875 163.5 82.0312 C163.1094 82.125 162.9062 82.2969 162.9062 82.6406 C162.9062 82.9375 163.0625 83.1562 163.7188 83.2656 L165.4688 83.5781 Z" style="fill:black; stroke:none;"
    /></g
    ><g ID="legend-1:0" style="text-rendering:optimizeSpeed; font-size:10px; font-family:'SansSerif';"
    ><path style="stroke:none;" d="M30.875 142 L34.9062 142 L34.9062 141.2344 L33.4375 141.2344 L33.4375 134.6562 L32.7344 134.6562 C32.3281 134.9062 31.8594 135.0625 31.2031 135.1875 L31.2031 135.7656 L32.5156 135.7656 L32.5156 141.2344 L30.875 141.2344 L30.875 142 ZM35.925 137.4531 L40.7219 137.4531 L40.7219 136.7656 L35.925 136.7656 L35.925 137.4531 ZM35.925 139.8438 L40.7219 139.8438 L40.7219 139.1719 L35.925 139.1719 L35.925 139.8438 ZM43.2719 142.125 C43.9437 142.125 44.5531 141.7812 45.0687 141.3438 L45.1 141.3438 L45.1781 142 L45.9281 142 L45.9281 138.6562 C45.9281 137.3125 45.3656 136.4375 44.0531 136.4375 C43.1781 136.4375 42.4125 136.8125 41.9125 137.1406 L42.2719 137.7656 C42.6937 137.4844 43.2719 137.1875 43.8969 137.1875 C44.7875 137.1875 45.0219 137.8594 45.0219 138.5625 C42.7094 138.8125 41.6781 139.4062 41.6781 140.5938 C41.6781 141.5625 42.3656 142.125 43.2719 142.125 ZM43.5375 141.4062 C42.9906 141.4062 42.5687 141.1562 42.5687 140.5312 C42.5687 139.8281 43.1937 139.375 45.0219 139.1562 L45.0219 140.6875 C44.4906 141.1562 44.0531 141.4062 43.5375 141.4062 ZM48.615 142.125 C48.865 142.125 49.0212 142.0938 49.1462 142.0469 L49.0212 141.3438 C48.9275 141.375 48.8806 141.375 48.8337 141.375 C48.6931 141.375 48.5681 141.2656 48.5681 140.9844 L48.5681 134.0469 L47.6618 134.0469 L47.6618 140.9219 C47.6618 141.6875 47.9431 142.125 48.615 142.125 ZM52.3556 142.125 C53.0118 142.125 53.5743 141.7812 54.0118 141.3594 L54.0431 141.3594 L54.1212 142 L54.8556 142 L54.8556 134.0469 L53.965 134.0469 L53.965 136.125 L53.9962 137.0625 C53.5275 136.6719 53.1056 136.4375 52.465 136.4375 C51.2306 136.4375 50.1212 137.5312 50.1212 139.2969 C50.1212 141.0938 50.9962 142.125 52.3556 142.125 ZM52.5587 141.375 C51.6056 141.375 51.0587 140.5938 51.0587 139.2812 C51.0587 138.0469 51.7462 137.2031 52.6368 137.2031 C53.0743 137.2031 53.4962 137.3594 53.965 137.7656 L53.965 140.625 C53.4962 141.125 53.0587 141.375 52.5587 141.375 ZM58.8993 142.125 C59.6337 142.125 60.2275 141.875 60.6962 141.5625 L60.3681 140.9688 C59.9775 141.2344 59.54 141.4062 59.0087 141.4062 C57.9775 141.4062 57.2743 140.6562 57.2118 139.5 L60.8681 139.5 C60.8837 139.375 60.915 139.1875 60.915 138.9844 C60.915 137.4375 60.1337 136.4375 58.7431 136.4375 C57.4931 136.4375 56.3056 137.5312 56.3056 139.2969 C56.3056 141.0781 57.4618 142.125 58.8993 142.125 ZM57.1962 138.8438 C57.3056 137.7812 57.9931 137.1562 58.7587 137.1562 C59.6025 137.1562 60.1025 137.75 60.1025 138.8438 L57.1962 138.8438 ZM62.2518 142 L63.1581 142 L63.1581 138.0625 C63.705 137.5156 64.0956 137.2344 64.6425 137.2344 C65.3768 137.2344 65.6737 137.6562 65.6737 138.6875 L65.6737 142 L66.5956 142 L66.5956 138.5625 C66.5956 137.1719 66.0643 136.4375 64.9237 136.4375 C64.1893 136.4375 63.6268 136.8438 63.1268 137.3438 L63.1581 136.2188 L63.1581 134.0469 L62.2518 134.0469 L62.2518 142 ZM68.4156 144.3438 C69.4937 144.3438 70.0562 143.5156 70.4312 142.4531 L72.4781 136.5625 L71.5874 136.5625 L70.6187 139.5938 C70.4624 140.0625 70.3062 140.625 70.1656 141.1094 L70.1031 141.1094 C69.9468 140.625 69.7437 140.0625 69.5874 139.5938 L68.4781 136.5625 L67.5249 136.5625 L69.7124 142.0156 L69.5874 142.4219 C69.3687 143.0938 68.9781 143.5938 68.3531 143.5938 C68.2124 143.5938 68.0562 143.5469 67.9468 143.5 L67.7749 144.2344 C67.9468 144.2969 68.1499 144.3438 68.4156 144.3438 ZM75.3756 142.125 C76.0318 142.125 76.5943 141.7812 77.0318 141.3594 L77.0631 141.3594 L77.1412 142 L77.8756 142 L77.8756 134.0469 L76.9849 134.0469 L76.9849 136.125 L77.0162 137.0625 C76.5474 136.6719 76.1256 136.4375 75.4849 136.4375 C74.2506 136.4375 73.1412 137.5312 73.1412 139.2969 C73.1412 141.0938 74.0162 142.125 75.3756 142.125 ZM75.5787 141.375 C74.6256 141.375 74.0787 140.5938 74.0787 139.2812 C74.0787 138.0469 74.7662 137.2031 75.6568 137.2031 C76.0943 137.2031 76.5162 137.3594 76.9849 137.7656 L76.9849 140.625 C76.5162 141.125 76.0787 141.375 75.5787 141.375 ZM81.9193 142.125 C82.6537 142.125 83.2474 141.875 83.7162 141.5625 L83.3881 140.9688 C82.9974 141.2344 82.5599 141.4062 82.0287 141.4062 C80.9974 141.4062 80.2943 140.6562 80.2318 139.5 L83.8881 139.5 C83.9037 139.375 83.9349 139.1875 83.9349 138.9844 C83.9349 137.4375 83.1537 136.4375 81.7631 136.4375 C80.5131 136.4375 79.3256 137.5312 79.3256 139.2969 C79.3256 141.0781 80.4818 142.125 81.9193 142.125 ZM80.2162 138.8438 C80.3256 137.7812 81.0131 137.1562 81.7787 137.1562 C82.6224 137.1562 83.1224 137.75 83.1224 138.8438 L80.2162 138.8438 ZM84.8031 139.5469 L87.3656 139.5469 L87.3656 138.8438 L84.8031 138.8438 L84.8031 139.5469 ZM88.8199 142 L92.9449 142 L92.9449 141.2031 L89.7574 141.2031 L89.7574 134.6562 L88.8199 134.6562 L88.8199 142 ZM93.703 139.5469 L96.2655 139.5469 L96.2655 138.8438 L93.703 138.8438 L93.703 139.5469 ZM100.5949 142.125 C101.5949 142.125 102.4074 141.7656 102.8762 141.2812 L102.8762 138.2031 L100.4699 138.2031 L100.4699 138.9688 L102.0168 138.9688 L102.0168 140.8906 C101.7355 141.1562 101.2199 141.3125 100.7043 141.3125 C99.1262 141.3125 98.2512 140.1562 98.2512 138.3125 C98.2512 136.4844 99.2043 135.3438 100.673 135.3438 C101.423 135.3438 101.9074 135.6562 102.2668 136.0469 L102.7668 135.4375 C102.3449 134.9844 101.673 134.5312 100.6574 134.5312 C98.7199 134.5312 97.298 135.9688 97.298 138.3438 C97.298 140.7188 98.673 142.125 100.5949 142.125 ZM104.5318 142 L105.438 142 L105.438 138.5156 C105.7974 137.5781 106.3599 137.2656 106.813 137.2656 C107.0318 137.2656 107.1568 137.2812 107.3443 137.3438 L107.5162 136.5469 C107.3443 136.4531 107.1724 136.4375 106.9224 136.4375 C106.313 136.4375 105.7662 136.875 105.3912 137.5625 L105.3599 137.5625 L105.2818 136.5625 L104.5318 136.5625 L104.5318 142 ZM110.5212 142.125 C111.8493 142.125 113.0368 141.0938 113.0368 139.2969 C113.0368 137.4844 111.8493 136.4375 110.5212 136.4375 C109.193 136.4375 108.0055 137.4844 108.0055 139.2969 C108.0055 141.0938 109.193 142.125 110.5212 142.125 ZM110.5212 141.375 C109.5837 141.375 108.943 140.5469 108.943 139.2969 C108.943 138.0469 109.5837 137.1875 110.5212 137.1875 C111.4587 137.1875 112.0993 138.0469 112.0993 139.2969 C112.0993 140.5469 111.4587 141.375 110.5212 141.375 Z"
    /></g
  ></g
></svg
>
