<?xml version="1.0"?>
<!DOCTYPE svg PUBLIC '-//W3C//DTD SVG 1.0//EN'
          'http://www.w3.org/TR/2001/REC-SVG-20010904/DTD/svg10.dtd'>
<svg xmlns:xlink="http://www.w3.org/1999/xlink" style="fill-opacity:1; color-rendering:auto; color-interpolation:auto; text-rendering:auto; stroke:black; stroke-linecap:square; stroke-miterlimit:10; shape-rendering:auto; stroke-opacity:1; fill:black; stroke-dasharray:none; font-weight:normal; stroke-width:1; font-family:'Dialog'; font-style:normal; stroke-linejoin:miter; font-size:12px; stroke-dashoffset:0; image-rendering:auto;" viewBox="0 0 161 128" xmlns="http://www.w3.org/2000/svg"
><!--Generated by the Batik Graphics2D SVG Generator--><defs id="genericDefs"
  /><g
  ><defs id="defs1"
    ><clipPath clipPathUnits="userSpaceOnUse" id="clipPath1"
      ><path d="M43 53 L65 53 L65 75 L43 75 L43 53 Z"
      /></clipPath
    ></defs
    ><g style="fill:white; text-rendering:optimizeSpeed; stroke:white;"
    ><rect x="0" width="161" height="128" y="0" style="stroke:none;"
      /><polygon style="fill:none; stroke:black;" points=" 120 64 54 64"
      /><path d="M120 53 C114.5 58.5 125.5 69.5 120 75" style="fill:none; stroke:black;"
      /><rect x="43" y="53" width="22" style="clip-path:url(#clipPath1); stroke:none;" height="22"
      /><rect x="43" y="53" width="22" style="clip-path:url(#clipPath1); fill:rgb(255,212,0); stroke:none;" height="22"
      /><rect x="43" y="53" width="22" style="clip-path:url(#clipPath1); fill:none; stroke:black;" height="22"
      /><rect x="43" y="53" width="22" style="fill:none; stroke:black;" height="22"
    /></g
    ><g style="text-rendering:optimizeSpeed; font-size:10px; font-family:'SansSerif';"
    ><path style="stroke:none;" d="M52 67 L56.125 67 L56.125 66.2031 L52.9375 66.2031 L52.9375 59.6562 L52 59.6562 L52 67 Z"
      /><rect x="42" y="81" width="22" style="fill:white; stroke:none;" height="10"
      /><path style="stroke:none;" d="M45.7031 92.1875 C47.5156 92.1875 48.9844 91.0938 48.9844 89.25 C48.9844 87.8594 48.0156 86.9375 46.8125 86.6562 L46.8125 86.5938 C47.8906 86.1875 48.6406 85.3594 48.6406 84.125 C48.6406 82.5 47.375 81.5469 45.6562 81.5469 C44.4688 81.5469 43.5469 82.0625 42.7812 82.7812 L43.4688 83.5938 C44.0469 83 44.7656 82.5938 45.5938 82.5938 C46.6562 82.5938 47.3281 83.2344 47.3281 84.2188 C47.3281 85.3281 46.6094 86.1719 44.4844 86.1719 L44.4844 87.1562 C46.8594 87.1562 47.6875 87.9844 47.6875 89.2031 C47.6875 90.3906 46.8125 91.125 45.5938 91.125 C44.4375 91.125 43.6562 90.5781 43.0469 89.9375 L42.4062 90.7812 C43.0781 91.5156 44.0938 92.1875 45.7031 92.1875 ZM52.9418 86.2656 C53.3168 85.0938 53.645 83.9844 53.9731 82.7812 L54.02 82.7812 C54.3637 83.9844 54.6762 85.0938 55.0668 86.2656 L55.5512 87.8281 L52.4418 87.8281 L52.9418 86.2656 ZM49.8168 92 L51.1293 92 L52.1293 88.8594 L55.8793 88.8594 L56.8481 92 L58.2231 92 L54.7387 81.7188 L53.3012 81.7188 L49.8168 92 ZM62.5492 92.1875 C63.4554 92.1875 64.3304 91.8281 65.0179 91.2188 L64.4554 90.3594 C63.9867 90.7969 63.3617 91.125 62.6586 91.125 C61.2679 91.125 60.3148 89.9531 60.3148 88.2031 C60.3148 86.4531 61.3148 85.2656 62.7054 85.2656 C63.3148 85.2656 63.7679 85.5469 64.2211 85.9375 L64.8773 85.0938 C64.3304 84.625 63.6429 84.2031 62.6429 84.2031 C60.7054 84.2031 58.9867 85.6719 58.9867 88.2031 C58.9867 90.7188 60.5336 92.1875 62.5492 92.1875 Z"
      /><rect x="30" y="35" width="22" style="fill:white; stroke:none;" height="10"
      /><path style="stroke:none;" d="M31.6094 42.1562 L33.9531 38.6562 C34.2344 38.1406 34.5156 37.6406 34.7812 37.1406 L34.8281 37.1406 C34.7969 37.6719 34.7656 38.5 34.7656 39 L34.7656 42.1562 L31.6094 42.1562 ZM34.7656 46 L35.9688 46 L35.9688 43.1719 L37.3281 43.1719 L37.3281 42.1562 L35.9688 42.1562 L35.9688 35.7188 L34.5469 35.7188 L30.2812 42.3281 L30.2812 43.1719 L34.7656 43.1719 L34.7656 46 ZM40.9418 40.2656 C41.3168 39.0938 41.645 37.9844 41.9731 36.7812 L42.02 36.7812 C42.3637 37.9844 42.6762 39.0938 43.0668 40.2656 L43.5512 41.8281 L40.4418 41.8281 L40.9418 40.2656 ZM37.8168 46 L39.1293 46 L40.1293 42.8594 L43.8793 42.8594 L44.8481 46 L46.2231 46 L42.7387 35.7188 L41.3012 35.7188 L37.8168 46 ZM50.5492 46.1875 C51.4554 46.1875 52.3304 45.8281 53.0179 45.2188 L52.4554 44.3594 C51.9867 44.7969 51.3617 45.125 50.6586 45.125 C49.2679 45.125 48.3148 43.9531 48.3148 42.2031 C48.3148 40.4531 49.3148 39.2656 50.7054 39.2656 C51.3148 39.2656 51.7679 39.5469 52.2211 39.9375 L52.8773 39.0938 C52.3304 38.625 51.6429 38.2031 50.6429 38.2031 C48.7054 38.2031 46.9867 39.6719 46.9867 42.2031 C46.9867 44.7188 48.5336 46.1875 50.5492 46.1875 Z"
      /><rect x="55" y="35" width="22" style="fill:white; stroke:none;" height="10"
      /><path style="stroke:none;" d="M59.1094 40.5781 C60.3438 40.5781 60.9688 41.4688 60.9688 42.8438 C60.9688 44.25 60.1875 45.1875 59.2188 45.1875 C57.9219 45.1875 57.1562 44.0312 57 41.8906 C57.625 40.9531 58.4531 40.5781 59.1094 40.5781 ZM59.2188 46.1875 C60.8125 46.1875 62.1562 44.8438 62.1562 42.8438 C62.1562 40.7031 61.0469 39.625 59.3125 39.625 C58.5 39.625 57.6094 40.1094 56.9688 40.875 C57.0312 37.6875 58.2188 36.6094 59.625 36.6094 C60.25 36.6094 60.8594 36.9062 61.2656 37.3906 L61.9688 36.5938 C61.4062 35.9844 60.6406 35.5469 59.5781 35.5469 C57.5938 35.5469 55.7812 37.0781 55.7812 41.0938 C55.7812 44.4844 57.2344 46.1875 59.2188 46.1875 ZM65.9418 40.2656 C66.3168 39.0938 66.645 37.9844 66.9731 36.7812 L67.02 36.7812 C67.3637 37.9844 67.6762 39.0938 68.0668 40.2656 L68.5512 41.8281 L65.4418 41.8281 L65.9418 40.2656 ZM62.8168 46 L64.1293 46 L65.1293 42.8594 L68.8793 42.8594 L69.8481 46 L71.2231 46 L67.7387 35.7188 L66.3012 35.7188 L62.8168 46 ZM75.5492 46.1875 C76.4554 46.1875 77.3304 45.8281 78.0179 45.2188 L77.4554 44.3594 C76.9867 44.7969 76.3617 45.125 75.6586 45.125 C74.2679 45.125 73.3148 43.9531 73.3148 42.2031 C73.3148 40.4531 74.3148 39.2656 75.7054 39.2656 C76.3148 39.2656 76.7679 39.5469 77.2211 39.9375 L77.8773 39.0938 C77.3304 38.625 76.6429 38.2031 75.6429 38.2031 C73.7054 38.2031 71.9867 39.6719 71.9867 42.2031 C71.9867 44.7188 73.5336 46.1875 75.5492 46.1875 Z"
    /></g
    ><g style="fill:white; text-rendering:optimizeSpeed; font-family:'Serif'; stroke:white;"
    ><rect x="83" width="8" height="8" y="68" style="stroke:none;"
      /><path d="M87.9844 73.7031 C87.9375 74.8906 87.1562 75.6562 86.3125 75.6562 C85.2656 75.6562 84.5 74.6875 84.5 72.7188 C84.5 71.2812 85.1562 70.1562 86.3438 70.1562 C87.1406 70.1562 87.7812 70.6875 88.0938 71.6406 L87.9844 73.7031 ZM89.9062 75.2812 C89.7344 75.375 89.5469 75.4219 89.3438 75.4219 C88.9531 75.4219 88.75 75.2188 88.75 74.4219 C88.75 73.4844 88.9688 71.5312 89.1875 69.8281 L89.0312 69.7188 L88.2344 69.9219 L88.1406 70.7969 C87.7812 70.0312 87.1562 69.6562 86.3906 69.6562 C85.0469 69.6562 83.5625 70.8438 83.5625 72.9531 C83.5625 75.0938 84.7188 76.1719 86.1406 76.1719 C87.0156 76.1719 87.6875 75.8125 88.0938 74.9844 C88.2031 75.8594 88.5156 76.1719 89.0156 76.1719 C89.4688 76.1719 89.7969 75.9062 90.0156 75.5625 L89.9062 75.2812 Z" style="fill:black; stroke:none;"
    /></g
  ></g
></svg
>
