<?xml version="1.0"?>
<!DOCTYPE svg PUBLIC '-//W3C//DTD SVG 1.0//EN'
          'http://www.w3.org/TR/2001/REC-SVG-20010904/DTD/svg10.dtd'>
<svg xmlns:xlink="http://www.w3.org/1999/xlink" style="fill-opacity:1; color-rendering:auto; color-interpolation:auto; text-rendering:auto; stroke:black; stroke-linecap:square; stroke-miterlimit:10; shape-rendering:auto; stroke-opacity:1; fill:black; stroke-dasharray:none; font-weight:normal; stroke-width:1; font-family:'Dialog'; font-style:normal; stroke-linejoin:miter; font-size:12px; stroke-dashoffset:0; image-rendering:auto;" viewBox="0 0 361 229" xmlns="http://www.w3.org/2000/svg"
><!--Generated by the Batik Graphics2D SVG Generator--><defs id="genericDefs"
  /><g
  ><defs id="defs1"
    ><clipPath clipPathUnits="userSpaceOnUse" id="clipPath1"
      ><path style="fill-rule:evenodd;" d="M262 79 L268 79 L268 123 L262 123 L268 123 L268 79 Z"
      /></clipPath
      ><clipPath clipPathUnits="userSpaceOnUse" id="clipPath2"
      ><path d="M205 90 L227 90 L227 112 L205 112 L205 90 Z"
      /></clipPath
      ><clipPath clipPathUnits="userSpaceOnUse" id="clipPath3"
      ><path style="fill-rule:evenodd;" d="M174 139 L168 146 L157 146 L152 139 L157 131 L168 131 L174 139 Z"
      /></clipPath
      ><clipPath clipPathUnits="userSpaceOnUse" id="clipPath4"
      ><path d="M99 128 L121 128 L121 150 L99 150 L99 128 Z"
      /></clipPath
      ><clipPath clipPathUnits="userSpaceOnUse" id="clipPath5"
      ><path style="fill-rule:evenodd;" d="M63 187 L58 187 L57 143 L63 143 L57 143 L58 187 Z"
      /></clipPath
      ><clipPath clipPathUnits="userSpaceOnUse" id="clipPath6"
      ><path d="M69 90 C69 96.0751 64.0751 101 58 101 C51.9249 101 47 96.0751 47 90 C47 83.9249 51.9249 79 58 79 C64.0751 79 69 83.9249 69 90 Z"
      /></clipPath
      ><clipPath clipPathUnits="userSpaceOnUse" id="clipPath7"
      ><path d="M174 64 C174 70.0751 169.0751 75 163 75 C156.9249 75 152 70.0751 152 64 C152 57.9249 156.9249 53 163 53 C169.0751 53 174 57.9249 174 64 Z"
      /></clipPath
    ></defs
    ><g style="fill:white; text-rendering:optimizeSpeed; stroke:white;"
    ><rect x="0" width="361" height="229" y="0" style="stroke:none;"
      /><polygon style="fill:none; stroke:black;" points=" 320 101 268 101"
      /><path d="M320 90 C314.5 95.5 325.5 106.5 320 112" style="fill:none; stroke:black;"
      /><polygon style="fill:none; stroke:black;" points=" 268 101 216 101"
      /><polygon style="clip-path:url(#clipPath1); stroke:none;" points=" 262 79 268 79 268 123 262 123 268 123 268 79"
      /><rect x="257" y="67" width="22" style="clip-path:url(#clipPath1); fill:black; stroke:none;" height="68"
      /><rect x="257" y="67" width="22" style="clip-path:url(#clipPath1); fill:none; stroke:black;" height="68"
      /><polygon style="fill:none; stroke:black;" points=" 262 79 268 79 268 123 262 123 268 123 268 79"
      /><polygon style="fill:none; stroke:black;" points=" 216 101 163 139"
      /><polygon style="fill:none; stroke:black;" points=" 216 101 163 64"
      /><rect x="205" y="90" width="22" style="clip-path:url(#clipPath2); stroke:none;" height="22"
      /><rect x="205" y="90" width="22" style="clip-path:url(#clipPath2); fill:rgb(255,212,0); stroke:none;" height="22"
      /><rect x="205" y="90" width="22" style="clip-path:url(#clipPath2); fill:none; stroke:black;" height="22"
      /><rect x="205" y="90" width="22" style="fill:none; stroke:black;" height="22"
      /><polygon style="fill:none; stroke:black;" points=" 163 139 110 139"
      /><polygon style="clip-path:url(#clipPath3); stroke:none;" points=" 174 139 168 146 157 146 152 139 157 131 168 131 174 139"
      /><rect x="152" y="128" width="22" style="clip-path:url(#clipPath3); fill:rgb(0,144,188); stroke:none;" height="22"
      /><rect x="152" y="128" width="22" style="clip-path:url(#clipPath3); fill:none; stroke:black;" height="22"
      /><polygon style="fill:none; stroke:black;" points=" 174 139 168 146 157 146 152 139 157 131 168 131 174 139"
      /><rect x="151" y="156" width="22" style="stroke:none;" height="10"
    /></g
    ><g style="text-rendering:optimizeSpeed; font-size:14px; font-family:'SansSerif';"
    ><path style="stroke:none;" d="M151.6094 167 L158.0625 167 L158.0625 165.8906 L155.2344 165.8906 C154.7031 165.8906 154.0781 165.9531 153.5469 165.9844 C155.9531 163.7031 157.5625 161.625 157.5625 159.5781 C157.5625 157.75 156.4219 156.5469 154.5781 156.5469 C153.2812 156.5469 152.4062 157.1406 151.5625 158.0469 L152.2969 158.7812 C152.8594 158.1094 153.5938 157.5938 154.4375 157.5938 C155.7031 157.5938 156.3125 158.4531 156.3125 159.625 C156.3125 161.3906 154.8438 163.4375 151.6094 166.25 L151.6094 167 ZM161.9418 161.2656 C162.3168 160.0938 162.645 158.9844 162.9731 157.7812 L163.02 157.7812 C163.3637 158.9844 163.6762 160.0938 164.0668 161.2656 L164.5512 162.8281 L161.4418 162.8281 L161.9418 161.2656 ZM158.8168 167 L160.1293 167 L161.1293 163.8594 L164.8793 163.8594 L165.8481 167 L167.2231 167 L163.7387 156.7188 L162.3012 156.7188 L158.8168 167 ZM171.5492 167.1875 C172.4554 167.1875 173.3304 166.8281 174.0179 166.2188 L173.4554 165.3594 C172.9867 165.7969 172.3617 166.125 171.6586 166.125 C170.2679 166.125 169.3148 164.9531 169.3148 163.2031 C169.3148 161.4531 170.3148 160.2656 171.7054 160.2656 C172.3148 160.2656 172.7679 160.5469 173.2211 160.9375 L173.8773 160.0938 C173.3304 159.625 172.6429 159.2031 171.6429 159.2031 C169.7054 159.2031 167.9867 160.6719 167.9867 163.2031 C167.9867 165.7188 169.5336 167.1875 171.5492 167.1875 Z"
      /><rect x="151" y="110" width="22" style="fill:white; stroke:none;" height="10"
      /><path style="stroke:none;" d="M152.6094 117.1562 L154.9531 113.6562 C155.2344 113.1406 155.5156 112.6406 155.7812 112.1406 L155.8281 112.1406 C155.7969 112.6719 155.7656 113.5 155.7656 114 L155.7656 117.1562 L152.6094 117.1562 ZM155.7656 121 L156.9688 121 L156.9688 118.1719 L158.3281 118.1719 L158.3281 117.1562 L156.9688 117.1562 L156.9688 110.7188 L155.5469 110.7188 L151.2812 117.3281 L151.2812 118.1719 L155.7656 118.1719 L155.7656 121 ZM161.9418 115.2656 C162.3168 114.0938 162.645 112.9844 162.9731 111.7812 L163.02 111.7812 C163.3637 112.9844 163.6762 114.0938 164.0668 115.2656 L164.5512 116.8281 L161.4418 116.8281 L161.9418 115.2656 ZM158.8168 121 L160.1293 121 L161.1293 117.8594 L164.8793 117.8594 L165.8481 121 L167.2231 121 L163.7387 110.7188 L162.3012 110.7188 L158.8168 121 ZM171.5492 121.1875 C172.4554 121.1875 173.3304 120.8281 174.0179 120.2188 L173.4554 119.3594 C172.9867 119.7969 172.3617 120.125 171.6586 120.125 C170.2679 120.125 169.3148 118.9531 169.3148 117.2031 C169.3148 115.4531 170.3148 114.2656 171.7054 114.2656 C172.3148 114.2656 172.7679 114.5469 173.2211 114.9375 L173.8773 114.0938 C173.3304 113.625 172.6429 113.2031 171.6429 113.2031 C169.7054 113.2031 167.9867 114.6719 167.9867 117.2031 C167.9867 119.7188 169.5336 121.1875 171.5492 121.1875 Z"
      /><polygon style="fill:none;" points=" 110 139 58 165"
      /><polygon style="fill:none;" points=" 110 139 58 90"
    /></g
    ><g style="fill:white; text-rendering:optimizeSpeed; stroke:white;"
    ><rect x="99" y="128" width="22" style="clip-path:url(#clipPath4); stroke:none;" height="22"
      /><rect x="99" y="128" width="22" style="clip-path:url(#clipPath4); fill:rgb(0,144,188); stroke:none;" height="22"
      /><rect x="99" y="128" width="22" style="clip-path:url(#clipPath4); fill:none; stroke:black;" height="22"
      /><rect x="99" y="128" width="22" style="fill:none; stroke:black;" height="22"
      /><polygon style="clip-path:url(#clipPath5); stroke:none;" points=" 63 187 58 187 57 143 63 143 57 143 58 187"
      /><rect x="47" y="131" width="22" style="clip-path:url(#clipPath5); fill:black; stroke:none;" height="68"
      /><rect x="47" y="131" width="22" style="clip-path:url(#clipPath5); fill:none; stroke:black;" height="68"
      /><polygon style="fill:none; stroke:black;" points=" 63 187 58 187 57 143 63 143 57 143 58 187"
      /><path d="M60.5469 196.9531 C60.5156 196.2969 60.5 195.3906 60.5 194.7656 L60.5 193.5156 C60.5 191.8281 59.9531 191.1562 58.8594 191.1562 C58.0625 191.1562 57.1562 191.625 56.4531 192.4062 L56.3594 191.2969 L56.2031 191.1719 L54.4688 191.8125 L54.4688 192.2031 L55.5312 192.2812 C55.5625 192.8438 55.5781 193.3438 55.5781 194.1094 L55.5781 194.7656 C55.5781 195.375 55.5781 196.2969 55.5469 196.9688 L54.5469 197.1094 L54.5469 197.5 L57.4688 197.5 L57.4688 197.1094 L56.5156 196.9531 C56.5156 196.2969 56.5 195.375 56.5 194.7656 L56.5 192.875 C57.2656 192.1562 57.875 191.9062 58.4688 191.9062 C59.2344 191.9062 59.5938 192.3125 59.5938 193.5625 L59.5938 194.7656 C59.5938 195.3906 59.5781 196.3125 59.5625 196.9688 L58.5469 197.1094 L58.5469 197.5 L61.4844 197.5 L61.4844 197.1094 L60.5469 196.9531 Z" style="fill:black; stroke:none;"
      /><circle r="11" style="clip-path:url(#clipPath6); stroke:none;" cx="58" cy="90"
      /><rect x="47" y="79" width="22" style="clip-path:url(#clipPath6); fill:rgb(255,212,0); stroke:none;" height="22"
      /><rect x="47" y="79" width="22" style="clip-path:url(#clipPath6); fill:none; stroke:black;" height="22"
      /><circle r="11" style="fill:none; stroke:black;" cx="58" cy="90"
      /><rect x="31" width="53" height="14" y="59" style="stroke:none;"
    /></g
    ><g style="text-rendering:optimizeSpeed; font-size:14px; font-family:'SansSerif';"
    ><path style="stroke:none;" d="M34.7031 74.1875 C36.5156 74.1875 37.9844 73.0938 37.9844 71.25 C37.9844 69.8594 37.0156 68.9375 35.8125 68.6562 L35.8125 68.5938 C36.8906 68.1875 37.6406 67.3594 37.6406 66.125 C37.6406 64.5 36.375 63.5469 34.6562 63.5469 C33.4688 63.5469 32.5469 64.0625 31.7812 64.7812 L32.4688 65.5938 C33.0469 65 33.7656 64.5938 34.5938 64.5938 C35.6562 64.5938 36.3281 65.2344 36.3281 66.2188 C36.3281 67.3281 35.6094 68.1719 33.4844 68.1719 L33.4844 69.1562 C35.8594 69.1562 36.6875 69.9844 36.6875 71.2031 C36.6875 72.3906 35.8125 73.125 34.5938 73.125 C33.4375 73.125 32.6562 72.5781 32.0469 71.9375 L31.4062 72.7812 C32.0781 73.5156 33.0938 74.1875 34.7031 74.1875 ZM39.8168 76.6562 C41.0825 76.125 41.8637 75.0781 41.8637 73.7344 C41.8637 72.7969 41.4575 72.2188 40.7856 72.2188 C40.27 72.2188 39.8168 72.5781 39.8168 73.125 C39.8168 73.7031 40.27 74.0156 40.7543 74.0156 C40.8168 74.0156 40.8637 74.0156 40.9106 74 C40.9106 74.8281 40.395 75.5156 39.5043 75.9062 L39.8168 76.6562 ZM44.2713 70.1562 L46.6151 66.6562 C46.8963 66.1406 47.1776 65.6406 47.4432 65.1406 L47.4901 65.1406 C47.4588 65.6719 47.4276 66.5 47.4276 67 L47.4276 70.1562 L44.2713 70.1562 ZM47.4276 74 L48.6307 74 L48.6307 71.1719 L49.9901 71.1719 L49.9901 70.1562 L48.6307 70.1562 L48.6307 63.7188 L47.2088 63.7188 L42.9432 70.3281 L42.9432 71.1719 L47.4276 71.1719 L47.4276 74 ZM53.7757 76.7656 L54.5726 76.375 C53.3538 74.3906 52.7913 72.0312 52.7913 69.6406 C52.7913 67.2656 53.3538 64.9062 54.5726 62.9062 L53.7757 62.5469 C52.4944 64.6406 51.7132 66.9062 51.7132 69.6406 C51.7132 72.4062 52.4944 74.6562 53.7757 76.7656 ZM56.5702 74 L57.867 74 L57.867 69.6406 L59.7108 69.6406 L62.2108 74 L63.6795 74 L61.0389 69.5 C62.4452 69.1719 63.367 68.2188 63.367 66.625 C63.367 64.4844 61.867 63.7188 59.7889 63.7188 L56.5702 63.7188 L56.5702 74 ZM57.867 68.5938 L57.867 64.7812 L59.5858 64.7812 C61.1952 64.7812 62.0858 65.2656 62.0858 66.625 C62.0858 67.9531 61.1952 68.5938 59.5858 68.5938 L57.867 68.5938 ZM65.4585 76.7656 C66.7554 74.6562 67.521 72.4062 67.521 69.6406 C67.521 66.9062 66.7554 64.6406 65.4585 62.5469 L64.6772 62.9062 C65.8804 64.9062 66.4585 67.2656 66.4585 69.6406 C66.4585 72.0312 65.8804 74.3906 64.6772 76.375 L65.4585 76.7656 ZM70.2061 74 L71.503 74 L71.503 69.9219 L73.1905 69.9219 C75.4561 69.9219 76.9717 68.9219 76.9717 66.75 C76.9717 64.5156 75.4405 63.7188 73.1436 63.7188 L70.2061 63.7188 L70.2061 74 ZM71.503 68.875 L71.503 64.7812 L72.9717 64.7812 C74.7842 64.7812 75.6905 65.2656 75.6905 66.75 C75.6905 68.2188 74.8311 68.875 73.0342 68.875 L71.503 68.875 ZM79.0541 77.2812 C80.5697 77.2812 81.3666 76.125 81.8822 74.625 L84.7572 66.3906 L83.5072 66.3906 L82.1634 70.625 C81.9447 71.2969 81.7259 72.0625 81.5072 72.75 L81.4447 72.75 C81.2103 72.0625 80.9447 71.2812 80.7103 70.625 L79.1634 66.3906 L77.8353 66.3906 L80.8822 74.0156 L80.7103 74.5938 C80.4134 75.5312 79.8666 76.2188 78.9916 76.2188 C78.7884 76.2188 78.5697 76.1562 78.4134 76.0938 L78.1634 77.125 C78.3978 77.2188 78.6947 77.2812 79.0541 77.2812 Z"
    /></g
    ><g style="fill:white; text-rendering:optimizeSpeed; font-family:'Serif'; stroke:white;"
    ><rect x="92" width="6" height="10" y="150" style="stroke:none;"
      /><path d="M94.2344 151.6562 C94.5156 151.5938 94.7656 151.5625 95.0156 151.5625 C96.0625 151.5625 96.6719 152.1719 96.6719 153.2656 C96.6719 154.4375 95.9062 155.1094 94.7031 155.1094 L94.1875 155.1094 L94.1875 155.6406 L94.7969 155.6406 C96.2188 155.6406 96.9062 156.4219 96.9062 157.6406 C96.9062 158.8438 96.1719 159.6875 94.875 159.6875 C94.6094 159.6875 94.3125 159.6562 94.0156 159.5625 L93.7812 158.8125 C93.625 158.2812 93.5 158.0469 93.1406 158.0469 C92.8906 158.0469 92.7031 158.1719 92.5781 158.4219 C92.8438 159.6406 93.7812 160.1719 95.0312 160.1719 C96.7188 160.1719 97.875 159.125 97.875 157.7031 C97.875 156.5 97.2031 155.625 95.7969 155.375 C96.9531 155.0156 97.6094 154.2031 97.6094 153.2031 C97.6094 151.9219 96.6719 151.0781 95.1875 151.0781 C94.0469 151.0781 93.0625 151.5938 92.7969 152.6875 C92.9062 153 93.1094 153.1094 93.3594 153.1094 C93.7344 153.1094 93.8906 152.8906 94 152.4062 L94.2344 151.6562 Z" style="fill:black; stroke:none;"
      /><rect x="84" width="6" height="10" y="123" style="stroke:none;"
      /><path d="M87.3438 132.6875 C86.2031 132.6875 85.5312 131.5 85.5312 129.2969 C85.5312 129.2188 85.5312 129.125 85.5312 129.0469 C86.0938 128.5 86.7188 128.3125 87.3438 128.3125 C88.3125 128.3125 88.9531 128.9844 88.9531 130.4531 C88.9531 131.9375 88.3125 132.6875 87.3438 132.6875 ZM89.5312 124.0781 C86.3438 124.4531 84.5625 126.7656 84.5625 129.4531 C84.5625 131.7812 85.6094 133.1719 87.3125 133.1719 C88.8438 133.1719 89.9219 132.1094 89.9219 130.2812 C89.9219 128.6875 88.9688 127.6562 87.5625 127.6562 C86.8281 127.6562 86.1406 127.9844 85.5781 128.5781 C85.7969 126.4062 87.0781 124.9688 89.5938 124.3906 L89.5312 124.0781 Z" style="fill:black; stroke:none;"
      /><rect x="67" width="6" height="13" y="105" style="stroke:none;"
      /><path d="M69.0938 111.2031 C69.0938 109.6562 69.75 108.8125 70.7969 108.8125 C71.7188 108.8125 72.2656 109.4531 72.2656 110.5156 C72.2656 111.7188 71.5 112.4375 70.1875 112.7031 L70.2969 113.3125 C72.2188 113.2344 72.9375 114.2188 72.9375 115.4375 C72.9375 116.625 72.2344 117.4219 70.9531 117.4219 C70.25 117.4219 69.6562 117.1562 69.0938 116.7188 L69.0938 111.2031 ZM68.2031 117.9062 L68.1094 120.375 L68.2656 120.4844 L69.1562 120.2656 L69.0156 117.0938 C69.5469 117.8438 70.3594 118.1719 71.1719 118.1719 C72.5625 118.1719 73.8594 117.2188 73.8594 115.4844 C73.8594 113.9531 72.875 113.1094 71.125 113 C72.5625 112.6094 73.1875 111.4531 73.1875 110.4844 C73.1875 109.0938 72.1562 108.3125 70.9062 108.3125 C69.2969 108.3125 68.2188 109.5469 68.2188 111.5156 L68.2031 117.9062 Z" style="fill:black; stroke:none;"
      /><rect x="140" width="6" height="10" y="142" style="stroke:none;"
      /><path d="M142.2344 143.6562 C142.5156 143.5938 142.7656 143.5625 143.0156 143.5625 C144.0625 143.5625 144.6719 144.1719 144.6719 145.2656 C144.6719 146.4375 143.9062 147.1094 142.7031 147.1094 L142.1875 147.1094 L142.1875 147.6406 L142.7969 147.6406 C144.2188 147.6406 144.9062 148.4219 144.9062 149.6406 C144.9062 150.8438 144.1719 151.6875 142.875 151.6875 C142.6094 151.6875 142.3125 151.6562 142.0156 151.5625 L141.7812 150.8125 C141.625 150.2812 141.5 150.0469 141.1406 150.0469 C140.8906 150.0469 140.7031 150.1719 140.5781 150.4219 C140.8438 151.6406 141.7812 152.1719 143.0312 152.1719 C144.7188 152.1719 145.875 151.125 145.875 149.7031 C145.875 148.5 145.2031 147.625 143.7969 147.375 C144.9531 147.0156 145.6094 146.2031 145.6094 145.2031 C145.6094 143.9219 144.6719 143.0781 143.1875 143.0781 C142.0469 143.0781 141.0625 143.5938 140.7969 144.6875 C140.9062 145 141.1094 145.1094 141.3594 145.1094 C141.7344 145.1094 141.8906 144.8906 142 144.4062 L142.2344 143.6562 Z" style="fill:black; stroke:none;"
      /><rect x="125" width="8" height="8" y="143" style="stroke:none;"
      /><path d="M129.9844 148.7031 C129.9375 149.8906 129.1562 150.6562 128.3125 150.6562 C127.2656 150.6562 126.5 149.6875 126.5 147.7188 C126.5 146.2812 127.1562 145.1562 128.3438 145.1562 C129.1406 145.1562 129.7812 145.6875 130.0938 146.6406 L129.9844 148.7031 ZM131.9062 150.2812 C131.7344 150.375 131.5469 150.4219 131.3438 150.4219 C130.9531 150.4219 130.75 150.2188 130.75 149.4219 C130.75 148.4844 130.9688 146.5312 131.1875 144.8281 L131.0312 144.7188 L130.2344 144.9219 L130.1406 145.7969 C129.7812 145.0312 129.1562 144.6562 128.3906 144.6562 C127.0469 144.6562 125.5625 145.8438 125.5625 147.9531 C125.5625 150.0938 126.7188 151.1719 128.1406 151.1719 C129.0156 151.1719 129.6875 150.8125 130.0938 149.9844 C130.2031 150.8594 130.5156 151.1719 131.0156 151.1719 C131.4688 151.1719 131.7969 150.9062 132.0156 150.5625 L131.9062 150.2812 Z" style="fill:black; stroke:none;"
      /><circle r="11" style="clip-path:url(#clipPath7); stroke:none;" cx="163" cy="64"
      /><rect x="152" y="53" width="22" style="clip-path:url(#clipPath7); fill:rgb(255,212,0); stroke:none;" height="22"
      /><rect x="152" y="53" width="22" style="clip-path:url(#clipPath7); fill:none; stroke:black;" height="22"
      /><circle r="11" style="fill:none; stroke:black;" cx="163" cy="64"
      /><rect x="136" width="53" height="14" y="33" style="stroke:none;"
    /></g
    ><g style="text-rendering:optimizeSpeed; font-size:14px; font-family:'SansSerif';"
    ><path style="stroke:none;" d="M139.7031 48.1875 C141.5156 48.1875 142.9844 47.0938 142.9844 45.25 C142.9844 43.8594 142.0156 42.9375 140.8125 42.6562 L140.8125 42.5938 C141.8906 42.1875 142.6406 41.3594 142.6406 40.125 C142.6406 38.5 141.375 37.5469 139.6562 37.5469 C138.4688 37.5469 137.5469 38.0625 136.7812 38.7812 L137.4688 39.5938 C138.0469 39 138.7656 38.5938 139.5938 38.5938 C140.6562 38.5938 141.3281 39.2344 141.3281 40.2188 C141.3281 41.3281 140.6094 42.1719 138.4844 42.1719 L138.4844 43.1562 C140.8594 43.1562 141.6875 43.9844 141.6875 45.2031 C141.6875 46.3906 140.8125 47.125 139.5938 47.125 C138.4375 47.125 137.6562 46.5781 137.0469 45.9375 L136.4062 46.7812 C137.0781 47.5156 138.0938 48.1875 139.7031 48.1875 ZM144.8168 50.6562 C146.0825 50.125 146.8637 49.0781 146.8637 47.7344 C146.8637 46.7969 146.4575 46.2188 145.7856 46.2188 C145.27 46.2188 144.8168 46.5781 144.8168 47.125 C144.8168 47.7031 145.27 48.0156 145.7543 48.0156 C145.8168 48.0156 145.8637 48.0156 145.9106 48 C145.9106 48.8281 145.395 49.5156 144.5043 49.9062 L144.8168 50.6562 ZM149.2713 44.1562 L151.6151 40.6562 C151.8963 40.1406 152.1776 39.6406 152.4432 39.1406 L152.4901 39.1406 C152.4588 39.6719 152.4276 40.5 152.4276 41 L152.4276 44.1562 L149.2713 44.1562 ZM152.4276 48 L153.6307 48 L153.6307 45.1719 L154.9901 45.1719 L154.9901 44.1562 L153.6307 44.1562 L153.6307 37.7188 L152.2088 37.7188 L147.9432 44.3281 L147.9432 45.1719 L152.4276 45.1719 L152.4276 48 ZM158.7757 50.7656 L159.5726 50.375 C158.3538 48.3906 157.7913 46.0312 157.7913 43.6406 C157.7913 41.2656 158.3538 38.9062 159.5726 36.9062 L158.7757 36.5469 C157.4944 38.6406 156.7132 40.9062 156.7132 43.6406 C156.7132 46.4062 157.4944 48.6562 158.7757 50.7656 ZM161.5702 48 L162.867 48 L162.867 43.6406 L164.7108 43.6406 L167.2108 48 L168.6795 48 L166.0389 43.5 C167.4452 43.1719 168.367 42.2188 168.367 40.625 C168.367 38.4844 166.867 37.7188 164.7889 37.7188 L161.5702 37.7188 L161.5702 48 ZM162.867 42.5938 L162.867 38.7812 L164.5858 38.7812 C166.1952 38.7812 167.0858 39.2656 167.0858 40.625 C167.0858 41.9531 166.1952 42.5938 164.5858 42.5938 L162.867 42.5938 ZM170.4585 50.7656 C171.7554 48.6562 172.521 46.4062 172.521 43.6406 C172.521 40.9062 171.7554 38.6406 170.4585 36.5469 L169.6772 36.9062 C170.8804 38.9062 171.4585 41.2656 171.4585 43.6406 C171.4585 46.0312 170.8804 48.3906 169.6772 50.375 L170.4585 50.7656 ZM175.2061 48 L176.503 48 L176.503 43.9219 L178.1905 43.9219 C180.4561 43.9219 181.9717 42.9219 181.9717 40.75 C181.9717 38.5156 180.4405 37.7188 178.1436 37.7188 L175.2061 37.7188 L175.2061 48 ZM176.503 42.875 L176.503 38.7812 L177.9717 38.7812 C179.7842 38.7812 180.6905 39.2656 180.6905 40.75 C180.6905 42.2188 179.8311 42.875 178.0342 42.875 L176.503 42.875 ZM184.0541 51.2812 C185.5697 51.2812 186.3666 50.125 186.8822 48.625 L189.7572 40.3906 L188.5072 40.3906 L187.1634 44.625 C186.9447 45.2969 186.7259 46.0625 186.5072 46.75 L186.4447 46.75 C186.2103 46.0625 185.9447 45.2812 185.7103 44.625 L184.1634 40.3906 L182.8353 40.3906 L185.8822 48.0156 L185.7103 48.5938 C185.4134 49.5312 184.8666 50.2188 183.9916 50.2188 C183.7884 50.2188 183.5697 50.1562 183.4134 50.0938 L183.1634 51.125 C183.3978 51.2188 183.6947 51.2812 184.0541 51.2812 Z"
    /></g
    ><g style="fill:white; text-rendering:optimizeSpeed; font-family:'Serif'; stroke:white;"
    ><rect x="200" width="6" height="10" y="115" style="stroke:none;"
      /><path d="M202.2344 116.6562 C202.5156 116.5938 202.7656 116.5625 203.0156 116.5625 C204.0625 116.5625 204.6719 117.1719 204.6719 118.2656 C204.6719 119.4375 203.9062 120.1094 202.7031 120.1094 L202.1875 120.1094 L202.1875 120.6406 L202.7969 120.6406 C204.2188 120.6406 204.9062 121.4219 204.9062 122.6406 C204.9062 123.8438 204.1719 124.6875 202.875 124.6875 C202.6094 124.6875 202.3125 124.6562 202.0156 124.5625 L201.7812 123.8125 C201.625 123.2812 201.5 123.0469 201.1406 123.0469 C200.8906 123.0469 200.7031 123.1719 200.5781 123.4219 C200.8438 124.6406 201.7812 125.1719 203.0312 125.1719 C204.7188 125.1719 205.875 124.125 205.875 122.7031 C205.875 121.5 205.2031 120.625 203.7969 120.375 C204.9531 120.0156 205.6094 119.2031 205.6094 118.2031 C205.6094 116.9219 204.6719 116.0781 203.1875 116.0781 C202.0469 116.0781 201.0625 116.5938 200.7969 117.6875 C200.9062 118 201.1094 118.1094 201.3594 118.1094 C201.7344 118.1094 201.8906 117.8906 202 117.4062 L202.2344 116.6562 Z" style="fill:black; stroke:none;"
      /><rect x="183" width="6" height="13" y="125" style="stroke:none;"
      /><path d="M185.0938 131.2031 C185.0938 129.6562 185.75 128.8125 186.7969 128.8125 C187.7188 128.8125 188.2656 129.4531 188.2656 130.5156 C188.2656 131.7188 187.5 132.4375 186.1875 132.7031 L186.2969 133.3125 C188.2188 133.2344 188.9375 134.2188 188.9375 135.4375 C188.9375 136.625 188.2344 137.4219 186.9531 137.4219 C186.25 137.4219 185.6562 137.1562 185.0938 136.7188 L185.0938 131.2031 ZM184.2031 137.9062 L184.1094 140.375 L184.2656 140.4844 L185.1562 140.2656 L185.0156 137.0938 C185.5469 137.8438 186.3594 138.1719 187.1719 138.1719 C188.5625 138.1719 189.8594 137.2188 189.8594 135.4844 C189.8594 133.9531 188.875 133.1094 187.125 133 C188.5625 132.6094 189.1875 131.4531 189.1875 130.4844 C189.1875 129.0938 188.1562 128.3125 186.9062 128.3125 C185.2969 128.3125 184.2188 129.5469 184.2188 131.5156 L184.2031 137.9062 Z" style="fill:black; stroke:none;"
      /><rect x="190" width="6" height="10" y="90" style="stroke:none;"
      /><path d="M193.3438 99.6875 C192.2031 99.6875 191.5312 98.5 191.5312 96.2969 C191.5312 96.2188 191.5312 96.125 191.5312 96.0469 C192.0938 95.5 192.7188 95.3125 193.3438 95.3125 C194.3125 95.3125 194.9531 95.9844 194.9531 97.4531 C194.9531 98.9375 194.3125 99.6875 193.3438 99.6875 ZM195.5312 91.0781 C192.3438 91.4531 190.5625 93.7656 190.5625 96.4531 C190.5625 98.7812 191.6094 100.1719 193.3125 100.1719 C194.8438 100.1719 195.9219 99.1094 195.9219 97.2812 C195.9219 95.6875 194.9688 94.6562 193.5625 94.6562 C192.8281 94.6562 192.1406 94.9844 191.5781 95.5781 C191.7969 93.4062 193.0781 91.9688 195.5938 91.3906 L195.5312 91.0781 Z" style="fill:black; stroke:none;"
      /><rect x="177" width="6" height="13" y="79" style="stroke:none;"
      /><path d="M179.0938 85.2031 C179.0938 83.6562 179.75 82.8125 180.7969 82.8125 C181.7188 82.8125 182.2656 83.4531 182.2656 84.5156 C182.2656 85.7188 181.5 86.4375 180.1875 86.7031 L180.2969 87.3125 C182.2188 87.2344 182.9375 88.2188 182.9375 89.4375 C182.9375 90.625 182.2344 91.4219 180.9531 91.4219 C180.25 91.4219 179.6562 91.1562 179.0938 90.7188 L179.0938 85.2031 ZM178.2031 91.9062 L178.1094 94.375 L178.2656 94.4844 L179.1562 94.2656 L179.0156 91.0938 C179.5469 91.8438 180.3594 92.1719 181.1719 92.1719 C182.5625 92.1719 183.8594 91.2188 183.8594 89.4844 C183.8594 87.9531 182.875 87.1094 181.125 87 C182.5625 86.6094 183.1875 85.4531 183.1875 84.4844 C183.1875 83.0938 182.1562 82.3125 180.9062 82.3125 C179.2969 82.3125 178.2188 83.5469 178.2188 85.5156 L178.2031 91.9062 Z" style="fill:black; stroke:none;"
      /><rect x="232" width="6" height="13" y="102" style="stroke:none;"
      /><path d="M234.0938 108.2031 C234.0938 106.6562 234.75 105.8125 235.7969 105.8125 C236.7188 105.8125 237.2656 106.4531 237.2656 107.5156 C237.2656 108.7188 236.5 109.4375 235.1875 109.7031 L235.2969 110.3125 C237.2188 110.2344 237.9375 111.2188 237.9375 112.4375 C237.9375 113.625 237.2344 114.4219 235.9531 114.4219 C235.25 114.4219 234.6562 114.1562 234.0938 113.7188 L234.0938 108.2031 ZM233.2031 114.9062 L233.1094 117.375 L233.2656 117.4844 L234.1562 117.2656 L234.0156 114.0938 C234.5469 114.8438 235.3594 115.1719 236.1719 115.1719 C237.5625 115.1719 238.8594 114.2188 238.8594 112.4844 C238.8594 110.9531 237.875 110.1094 236.125 110 C237.5625 109.6094 238.1875 108.4531 238.1875 107.4844 C238.1875 106.0938 237.1562 105.3125 235.9062 105.3125 C234.2969 105.3125 233.2188 106.5469 233.2188 108.5156 L233.2031 114.9062 Z" style="fill:black; stroke:none;"
    /></g
  ></g
></svg
>
