<?xml version="1.0"?>
<!DOCTYPE svg PUBLIC '-//W3C//DTD SVG 1.0//EN'
          'http://www.w3.org/TR/2001/REC-SVG-20010904/DTD/svg10.dtd'>
<svg xmlns:xlink="http://www.w3.org/1999/xlink" style="fill-opacity:1; color-rendering:auto; color-interpolation:auto; text-rendering:auto; stroke:black; stroke-linecap:square; stroke-miterlimit:10; shape-rendering:auto; stroke-opacity:1; fill:black; stroke-dasharray:none; font-weight:normal; stroke-width:1; font-family:'Dialog'; font-style:normal; stroke-linejoin:miter; font-size:12px; stroke-dashoffset:0; image-rendering:auto;" viewBox="0 0 498 134" xmlns="http://www.w3.org/2000/svg"
><!--Generated by the Batik Graphics2D SVG Generator--><defs id="genericDefs"
  /><g
  ><defs id="defs1"
    ><clipPath clipPathUnits="userSpaceOnUse" id="clipPath1"
      ><path d="M416 67 C416 73.0751 411.0751 78 405 78 C398.9249 78 394 73.0751 394 67 C394 60.9249 398.9249 56 405 56 C411.0751 56 416 60.9249 416 67 Z"
      /></clipPath
      ><clipPath clipPathUnits="userSpaceOnUse" id="clipPath2"
      ><path d="M364 67 C364 73.0751 359.0751 78 353 78 C346.9249 78 342 73.0751 342 67 C342 60.9249 346.9249 56 353 56 C359.0751 56 364 60.9249 364 67 Z"
      /></clipPath
      ><clipPath clipPathUnits="userSpaceOnUse" id="clipPath3"
      ><path d="M312 67 C312 73.0751 307.0751 78 301 78 C294.9249 78 290 73.0751 290 67 C290 60.9249 294.9249 56 301 56 C307.0751 56 312 60.9249 312 67 Z"
      /></clipPath
      ><clipPath clipPathUnits="userSpaceOnUse" id="clipPath4"
      ><path d="M260 93 C260 99.0751 255.0751 104 249 104 C242.9249 104 238 99.0751 238 93 C238 86.9249 242.9249 82 249 82 C255.0751 82 260 86.9249 260 93 Z"
      /></clipPath
      ><clipPath clipPathUnits="userSpaceOnUse" id="clipPath5"
      ><path d="M208 93 C208 99.0751 203.0751 104 197 104 C190.9249 104 186 99.0751 186 93 C186 86.9249 190.9249 82 197 82 C203.0751 82 208 86.9249 208 93 Z"
      /></clipPath
      ><clipPath clipPathUnits="userSpaceOnUse" id="clipPath6"
      ><path d="M156 93 C156 99.0751 151.0751 104 145 104 C138.9249 104 134 99.0751 134 93 C134 86.9249 138.9249 82 145 82 C151.0751 82 156 86.9249 156 93 Z"
      /></clipPath
      ><clipPath clipPathUnits="userSpaceOnUse" id="clipPath7"
      ><path d="M260 41 C260 47.0751 255.0751 52 249 52 C242.9249 52 238 47.0751 238 41 C238 34.9249 242.9249 30 249 30 C255.0751 30 260 34.9249 260 41 Z"
      /></clipPath
      ><clipPath clipPathUnits="userSpaceOnUse" id="clipPath8"
      ><path d="M208 41 C208 47.0751 203.0751 52 197 52 C190.9249 52 186 47.0751 186 41 C186 34.9249 190.9249 30 197 30 C203.0751 30 208 34.9249 208 41 Z"
      /></clipPath
      ><clipPath clipPathUnits="userSpaceOnUse" id="clipPath9"
      ><path d="M156 41 C156 47.0751 151.0751 52 145 52 C138.9249 52 134 47.0751 134 41 C134 34.9249 138.9249 30 145 30 C151.0751 30 156 34.9249 156 41 Z"
      /></clipPath
      ><clipPath clipPathUnits="userSpaceOnUse" id="clipPath10"
      ><path d="M104 41 C104 47.0751 99.0751 52 93 52 C86.9249 52 82 47.0751 82 41 C82 34.9249 86.9249 30 93 30 C99.0751 30 104 34.9249 104 41 Z"
      /></clipPath
      ><clipPath clipPathUnits="userSpaceOnUse" id="clipPath11"
      ><path d="M52 41 C52 47.0751 47.0751 52 41 52 C34.9249 52 30 47.0751 30 41 C30 34.9249 34.9249 30 41 30 C47.0751 30 52 34.9249 52 41 Z"
      /></clipPath
    ></defs
    ><g style="fill:white; text-rendering:optimizeSpeed; stroke:white;"
    ><rect x="0" width="498" height="134" y="0" style="stroke:none;"
      /><polygon style="fill:none; stroke:black;" points=" 457 67 405 67"
      /><path d="M457 56 C451.5 61.5 462.5 72.5 457 78" style="fill:none; stroke:black;"
      /><polygon style="fill:none; stroke:black;" points=" 405 67 353 67"
      /><circle style="clip-path:url(#clipPath1); stroke:none;" r="11" cx="405" cy="67"
      /><rect x="394" y="56" width="22" style="clip-path:url(#clipPath1); fill:rgb(0,144,188); stroke:none;" height="22"
      /><rect x="394" y="56" width="22" style="clip-path:url(#clipPath1); fill:none; stroke:black;" height="22"
      /><circle style="fill:none; stroke:black;" r="11" cx="405" cy="67"
      /><polygon style="fill:none; stroke:black;" points=" 353 67 301 67"
      /><circle style="clip-path:url(#clipPath2); stroke:none;" r="11" cx="353" cy="67"
      /><rect x="342" y="56" width="22" style="clip-path:url(#clipPath2); fill:rgb(0,144,188); stroke:none;" height="22"
      /><rect x="342" y="56" width="22" style="clip-path:url(#clipPath2); fill:none; stroke:black;" height="22"
      /><circle style="fill:none; stroke:black;" r="11" cx="353" cy="67"
      /><polygon style="fill:none; stroke:black;" points=" 301 67 249 93"
      /><polygon style="fill:none; stroke:black;" points=" 301 67 249 41"
      /><circle style="clip-path:url(#clipPath3); stroke:none;" r="11" cx="301" cy="67"
      /><rect x="290" y="56" width="22" style="clip-path:url(#clipPath3); fill:rgb(0,144,188); stroke:none;" height="22"
      /><rect x="290" y="56" width="22" style="clip-path:url(#clipPath3); fill:none; stroke:black;" height="22"
      /><circle style="fill:none; stroke:black;" r="11" cx="301" cy="67"
      /><polygon style="fill:none; stroke:black;" points=" 249 93 197 93"
      /><circle style="clip-path:url(#clipPath4); stroke:none;" r="11" cx="249" cy="93"
      /><rect x="238" y="82" width="22" style="clip-path:url(#clipPath4); fill:rgb(0,144,188); stroke:none;" height="22"
      /><rect x="238" y="82" width="22" style="clip-path:url(#clipPath4); fill:none; stroke:black;" height="22"
      /><circle style="fill:none; stroke:black;" r="11" cx="249" cy="93"
      /><polygon style="fill:none; stroke:black;" points=" 197 93 145 93"
      /><circle style="clip-path:url(#clipPath5); stroke:none;" r="11" cx="197" cy="93"
      /><rect x="186" y="82" width="22" style="clip-path:url(#clipPath5); fill:rgb(0,144,188); stroke:none;" height="22"
      /><rect x="186" y="82" width="22" style="clip-path:url(#clipPath5); fill:none; stroke:black;" height="22"
      /><circle style="fill:none; stroke:black;" r="11" cx="197" cy="93"
      /><circle style="clip-path:url(#clipPath6); stroke:none;" r="11" cx="145" cy="93"
      /><rect x="134" y="82" width="22" style="clip-path:url(#clipPath6); fill:rgb(0,144,188); stroke:none;" height="22"
      /><rect x="134" y="82" width="22" style="clip-path:url(#clipPath6); fill:none; stroke:black;" height="22"
      /><circle style="fill:none; stroke:black;" r="11" cx="145" cy="93"
      /><rect x="174" y="96" width="7" style="stroke:none;" height="9"
    /></g
    ><g style="font-family:'Serif'; text-rendering:optimizeSpeed; "
    ><path style="stroke:none;" d="M175 101.5156 L177.9531 97.2656 L177.9531 101.5156 L175 101.5156 ZM180.2812 101.5156 L178.8594 101.5156 L178.8594 96.125 L178.2344 96.125 L174.3438 101.6406 L174.3438 102.1875 L177.9531 102.1875 L177.9531 105 L178.8594 105 L178.8594 102.1875 L180.2812 102.1875 L180.2812 101.5156 Z"
      /><rect x="160" y="97" width="8" style="fill:white; stroke:none;" height="8"
      /><path style="stroke:none;" d="M164.9844 102.7031 C164.9375 103.8906 164.1562 104.6562 163.3125 104.6562 C162.2656 104.6562 161.5 103.6875 161.5 101.7188 C161.5 100.2812 162.1562 99.1562 163.3438 99.1562 C164.1406 99.1562 164.7812 99.6875 165.0938 100.6406 L164.9844 102.7031 ZM166.9062 104.2812 C166.7344 104.375 166.5469 104.4219 166.3438 104.4219 C165.9531 104.4219 165.75 104.2188 165.75 103.4219 C165.75 102.4844 165.9688 100.5312 166.1875 98.8281 L166.0312 98.7188 L165.2344 98.9219 L165.1406 99.7969 C164.7812 99.0312 164.1562 98.6562 163.3906 98.6562 C162.0469 98.6562 160.5625 99.8438 160.5625 101.9531 C160.5625 104.0938 161.7188 105.1719 163.1406 105.1719 C164.0156 105.1719 164.6875 104.8125 165.0938 103.9844 C165.2031 104.8594 165.5156 105.1719 166.0156 105.1719 C166.4688 105.1719 166.7969 104.9062 167.0156 104.5625 L166.9062 104.2812 Z"
      /><rect x="226" y="96" width="7" style="fill:white; stroke:none;" height="9"
      /><path style="stroke:none;" d="M227 101.5156 L229.9531 97.2656 L229.9531 101.5156 L227 101.5156 ZM232.2812 101.5156 L230.8594 101.5156 L230.8594 96.125 L230.2344 96.125 L226.3438 101.6406 L226.3438 102.1875 L229.9531 102.1875 L229.9531 105 L230.8594 105 L230.8594 102.1875 L232.2812 102.1875 L232.2812 101.5156 Z"
      /><rect x="212" y="97" width="8" style="fill:white; stroke:none;" height="8"
      /><path style="stroke:none;" d="M216.9844 102.7031 C216.9375 103.8906 216.1562 104.6562 215.3125 104.6562 C214.2656 104.6562 213.5 103.6875 213.5 101.7188 C213.5 100.2812 214.1562 99.1562 215.3438 99.1562 C216.1406 99.1562 216.7812 99.6875 217.0938 100.6406 L216.9844 102.7031 ZM218.9062 104.2812 C218.7344 104.375 218.5469 104.4219 218.3438 104.4219 C217.9531 104.4219 217.75 104.2188 217.75 103.4219 C217.75 102.4844 217.9688 100.5312 218.1875 98.8281 L218.0312 98.7188 L217.2344 98.9219 L217.1406 99.7969 C216.7812 99.0312 216.1562 98.6562 215.3906 98.6562 C214.0469 98.6562 212.5625 99.8438 212.5625 101.9531 C212.5625 104.0938 213.7188 105.1719 215.1406 105.1719 C216.0156 105.1719 216.6875 104.8125 217.0938 103.9844 C217.2031 104.8594 217.5156 105.1719 218.0156 105.1719 C218.4688 105.1719 218.7969 104.9062 219.0156 104.5625 L218.9062 104.2812 Z"
      /><polygon style="fill:none;" points=" 249 41 197 41"
      /><circle style="fill:white; clip-path:url(#clipPath7); stroke:none;" r="11" cx="249" cy="41"
      /><rect x="238" y="30" width="22" style="clip-path:url(#clipPath7); fill:rgb(0,144,188); stroke:none;" height="22"
      /><rect x="238" y="30" width="22" style="fill:none; clip-path:url(#clipPath7);" height="22"
      /><circle r="11" style="fill:none;" cx="249" cy="41"
      /><polygon style="fill:none;" points=" 197 41 145 41"
      /><circle style="fill:white; clip-path:url(#clipPath8); stroke:none;" r="11" cx="197" cy="41"
      /><rect x="186" y="30" width="22" style="clip-path:url(#clipPath8); fill:rgb(0,144,188); stroke:none;" height="22"
      /><rect x="186" y="30" width="22" style="fill:none; clip-path:url(#clipPath8);" height="22"
      /><circle r="11" style="fill:none;" cx="197" cy="41"
      /><polygon style="fill:none;" points=" 145 41 93 41"
      /><circle style="fill:white; clip-path:url(#clipPath9); stroke:none;" r="11" cx="145" cy="41"
      /><rect x="134" y="30" width="22" style="clip-path:url(#clipPath9); fill:rgb(0,144,188); stroke:none;" height="22"
      /><rect x="134" y="30" width="22" style="fill:none; clip-path:url(#clipPath9);" height="22"
      /><circle r="11" style="fill:none;" cx="145" cy="41"
      /><polygon style="fill:none;" points=" 93 41 41 41"
      /><circle style="fill:white; clip-path:url(#clipPath10); stroke:none;" r="11" cx="93" cy="41"
      /><rect x="82" y="30" width="22" style="clip-path:url(#clipPath10); fill:rgb(0,144,188); stroke:none;" height="22"
      /><rect x="82" y="30" width="22" style="fill:none; clip-path:url(#clipPath10);" height="22"
      /><circle r="11" style="fill:none;" cx="93" cy="41"
      /><circle style="fill:white; clip-path:url(#clipPath11); stroke:none;" r="11" cx="41" cy="41"
      /><rect x="30" y="30" width="22" style="clip-path:url(#clipPath11); fill:rgb(0,144,188); stroke:none;" height="22"
      /><rect x="30" y="30" width="22" style="fill:none; clip-path:url(#clipPath11);" height="22"
      /><circle r="11" style="fill:none;" cx="41" cy="41"
      /><rect x="70" y="44" width="7" style="fill:white; stroke:none;" height="9"
      /><path style="stroke:none;" d="M71 49.5156 L73.9531 45.2656 L73.9531 49.5156 L71 49.5156 ZM76.2812 49.5156 L74.8594 49.5156 L74.8594 44.125 L74.2344 44.125 L70.3438 49.6406 L70.3438 50.1875 L73.9531 50.1875 L73.9531 53 L74.8594 53 L74.8594 50.1875 L76.2812 50.1875 L76.2812 49.5156 Z"
      /><rect x="56" y="45" width="8" style="fill:white; stroke:none;" height="8"
      /><path style="stroke:none;" d="M60.9844 50.7031 C60.9375 51.8906 60.1562 52.6562 59.3125 52.6562 C58.2656 52.6562 57.5 51.6875 57.5 49.7188 C57.5 48.2812 58.1562 47.1562 59.3438 47.1562 C60.1406 47.1562 60.7812 47.6875 61.0938 48.6406 L60.9844 50.7031 ZM62.9062 52.2812 C62.7344 52.375 62.5469 52.4219 62.3438 52.4219 C61.9531 52.4219 61.75 52.2188 61.75 51.4219 C61.75 50.4844 61.9688 48.5312 62.1875 46.8281 L62.0312 46.7188 L61.2344 46.9219 L61.1406 47.7969 C60.7812 47.0312 60.1562 46.6562 59.3906 46.6562 C58.0469 46.6562 56.5625 47.8438 56.5625 49.9531 C56.5625 52.0938 57.7188 53.1719 59.1406 53.1719 C60.0156 53.1719 60.6875 52.8125 61.0938 51.9844 C61.2031 52.8594 61.5156 53.1719 62.0156 53.1719 C62.4688 53.1719 62.7969 52.9062 63.0156 52.5625 L62.9062 52.2812 Z"
      /><rect x="122" y="44" width="7" style="fill:white; stroke:none;" height="9"
      /><path style="stroke:none;" d="M123 49.5156 L125.9531 45.2656 L125.9531 49.5156 L123 49.5156 ZM128.2812 49.5156 L126.8594 49.5156 L126.8594 44.125 L126.2344 44.125 L122.3438 49.6406 L122.3438 50.1875 L125.9531 50.1875 L125.9531 53 L126.8594 53 L126.8594 50.1875 L128.2812 50.1875 L128.2812 49.5156 Z"
      /><rect x="108" y="45" width="8" style="fill:white; stroke:none;" height="8"
      /><path style="stroke:none;" d="M112.9844 50.7031 C112.9375 51.8906 112.1562 52.6562 111.3125 52.6562 C110.2656 52.6562 109.5 51.6875 109.5 49.7188 C109.5 48.2812 110.1562 47.1562 111.3438 47.1562 C112.1406 47.1562 112.7812 47.6875 113.0938 48.6406 L112.9844 50.7031 ZM114.9062 52.2812 C114.7344 52.375 114.5469 52.4219 114.3438 52.4219 C113.9531 52.4219 113.75 52.2188 113.75 51.4219 C113.75 50.4844 113.9688 48.5312 114.1875 46.8281 L114.0312 46.7188 L113.2344 46.9219 L113.1406 47.7969 C112.7812 47.0312 112.1562 46.6562 111.3906 46.6562 C110.0469 46.6562 108.5625 47.8438 108.5625 49.9531 C108.5625 52.0938 109.7188 53.1719 111.1406 53.1719 C112.0156 53.1719 112.6875 52.8125 113.0938 51.9844 C113.2031 52.8594 113.5156 53.1719 114.0156 53.1719 C114.4688 53.1719 114.7969 52.9062 115.0156 52.5625 L114.9062 52.2812 Z"
      /><rect x="174" y="44" width="7" style="fill:white; stroke:none;" height="9"
      /><path style="stroke:none;" d="M175 49.5156 L177.9531 45.2656 L177.9531 49.5156 L175 49.5156 ZM180.2812 49.5156 L178.8594 49.5156 L178.8594 44.125 L178.2344 44.125 L174.3438 49.6406 L174.3438 50.1875 L177.9531 50.1875 L177.9531 53 L178.8594 53 L178.8594 50.1875 L180.2812 50.1875 L180.2812 49.5156 Z"
      /><rect x="160" y="45" width="8" style="fill:white; stroke:none;" height="8"
      /><path style="stroke:none;" d="M164.9844 50.7031 C164.9375 51.8906 164.1562 52.6562 163.3125 52.6562 C162.2656 52.6562 161.5 51.6875 161.5 49.7188 C161.5 48.2812 162.1562 47.1562 163.3438 47.1562 C164.1406 47.1562 164.7812 47.6875 165.0938 48.6406 L164.9844 50.7031 ZM166.9062 52.2812 C166.7344 52.375 166.5469 52.4219 166.3438 52.4219 C165.9531 52.4219 165.75 52.2188 165.75 51.4219 C165.75 50.4844 165.9688 48.5312 166.1875 46.8281 L166.0312 46.7188 L165.2344 46.9219 L165.1406 47.7969 C164.7812 47.0312 164.1562 46.6562 163.3906 46.6562 C162.0469 46.6562 160.5625 47.8438 160.5625 49.9531 C160.5625 52.0938 161.7188 53.1719 163.1406 53.1719 C164.0156 53.1719 164.6875 52.8125 165.0938 51.9844 C165.2031 52.8594 165.5156 53.1719 166.0156 53.1719 C166.4688 53.1719 166.7969 52.9062 167.0156 52.5625 L166.9062 52.2812 Z"
      /><rect x="226" y="44" width="7" style="fill:white; stroke:none;" height="9"
      /><path style="stroke:none;" d="M227 49.5156 L229.9531 45.2656 L229.9531 49.5156 L227 49.5156 ZM232.2812 49.5156 L230.8594 49.5156 L230.8594 44.125 L230.2344 44.125 L226.3438 49.6406 L226.3438 50.1875 L229.9531 50.1875 L229.9531 53 L230.8594 53 L230.8594 50.1875 L232.2812 50.1875 L232.2812 49.5156 Z"
      /><rect x="212" y="45" width="8" style="fill:white; stroke:none;" height="8"
      /><path style="stroke:none;" d="M216.9844 50.7031 C216.9375 51.8906 216.1562 52.6562 215.3125 52.6562 C214.2656 52.6562 213.5 51.6875 213.5 49.7188 C213.5 48.2812 214.1562 47.1562 215.3438 47.1562 C216.1406 47.1562 216.7812 47.6875 217.0938 48.6406 L216.9844 50.7031 ZM218.9062 52.2812 C218.7344 52.375 218.5469 52.4219 218.3438 52.4219 C217.9531 52.4219 217.75 52.2188 217.75 51.4219 C217.75 50.4844 217.9688 48.5312 218.1875 46.8281 L218.0312 46.7188 L217.2344 46.9219 L217.1406 47.7969 C216.7812 47.0312 216.1562 46.6562 215.3906 46.6562 C214.0469 46.6562 212.5625 47.8438 212.5625 49.9531 C212.5625 52.0938 213.7188 53.1719 215.1406 53.1719 C216.0156 53.1719 216.6875 52.8125 217.0938 51.9844 C217.2031 52.8594 217.5156 53.1719 218.0156 53.1719 C218.4688 53.1719 218.7969 52.9062 219.0156 52.5625 L218.9062 52.2812 Z"
      /><rect x="282" y="78" width="7" style="fill:white; stroke:none;" height="9"
      /><path style="stroke:none;" d="M283 83.5156 L285.9531 79.2656 L285.9531 83.5156 L283 83.5156 ZM288.2812 83.5156 L286.8594 83.5156 L286.8594 78.125 L286.2344 78.125 L282.3438 83.6406 L282.3438 84.1875 L285.9531 84.1875 L285.9531 87 L286.8594 87 L286.8594 84.1875 L288.2812 84.1875 L288.2812 83.5156 Z"
      /><rect x="266" y="87" width="8" style="fill:white; stroke:none;" height="8"
      /><path style="stroke:none;" d="M270.9844 92.7031 C270.9375 93.8906 270.1562 94.6562 269.3125 94.6562 C268.2656 94.6562 267.5 93.6875 267.5 91.7188 C267.5 90.2812 268.1562 89.1562 269.3438 89.1562 C270.1406 89.1562 270.7812 89.6875 271.0938 90.6406 L270.9844 92.7031 ZM272.9062 94.2812 C272.7344 94.375 272.5469 94.4219 272.3438 94.4219 C271.9531 94.4219 271.75 94.2188 271.75 93.4219 C271.75 92.4844 271.9688 90.5312 272.1875 88.8281 L272.0312 88.7188 L271.2344 88.9219 L271.1406 89.7969 C270.7812 89.0312 270.1562 88.6562 269.3906 88.6562 C268.0469 88.6562 266.5625 89.8438 266.5625 91.9531 C266.5625 94.0938 267.7188 95.1719 269.1406 95.1719 C270.0156 95.1719 270.6875 94.8125 271.0938 93.9844 C271.2031 94.8594 271.5156 95.1719 272.0156 95.1719 C272.4688 95.1719 272.7969 94.9062 273.0156 94.5625 L272.9062 94.2812 Z"
      /><rect x="276" y="60" width="6" style="fill:white; stroke:none;" height="10"
      /><path style="stroke:none;" d="M279.3438 69.6875 C278.2031 69.6875 277.5312 68.5 277.5312 66.2969 C277.5312 66.2188 277.5312 66.125 277.5312 66.0469 C278.0938 65.5 278.7188 65.3125 279.3438 65.3125 C280.3125 65.3125 280.9531 65.9844 280.9531 67.4531 C280.9531 68.9375 280.3125 69.6875 279.3438 69.6875 ZM281.5312 61.0781 C278.3438 61.4531 276.5625 63.7656 276.5625 66.4531 C276.5625 68.7812 277.6094 70.1719 279.3125 70.1719 C280.8438 70.1719 281.9219 69.1094 281.9219 67.2812 C281.9219 65.6875 280.9688 64.6562 279.5625 64.6562 C278.8281 64.6562 278.1406 64.9844 277.5781 65.5781 C277.7969 63.4062 279.0781 61.9688 281.5938 61.3906 L281.5312 61.0781 Z"
      /><rect x="259" y="53" width="8" style="fill:white; stroke:none;" height="8"
      /><path style="stroke:none;" d="M263.9844 58.7031 C263.9375 59.8906 263.1562 60.6562 262.3125 60.6562 C261.2656 60.6562 260.5 59.6875 260.5 57.7188 C260.5 56.2812 261.1562 55.1562 262.3438 55.1562 C263.1406 55.1562 263.7812 55.6875 264.0938 56.6406 L263.9844 58.7031 ZM265.9062 60.2812 C265.7344 60.375 265.5469 60.4219 265.3438 60.4219 C264.9531 60.4219 264.75 60.2188 264.75 59.4219 C264.75 58.4844 264.9688 56.5312 265.1875 54.8281 L265.0312 54.7188 L264.2344 54.9219 L264.1406 55.7969 C263.7812 55.0312 263.1562 54.6562 262.3906 54.6562 C261.0469 54.6562 259.5625 55.8438 259.5625 57.9531 C259.5625 60.0938 260.7188 61.1719 262.1406 61.1719 C263.0156 61.1719 263.6875 60.8125 264.0938 59.9844 C264.2031 60.8594 264.5156 61.1719 265.0156 61.1719 C265.4688 61.1719 265.7969 60.9062 266.0156 60.5625 L265.9062 60.2812 Z"
      /><rect x="330" y="70" width="7" style="fill:white; stroke:none;" height="9"
      /><path style="stroke:none;" d="M331 75.5156 L333.9531 71.2656 L333.9531 75.5156 L331 75.5156 ZM336.2812 75.5156 L334.8594 75.5156 L334.8594 70.125 L334.2344 70.125 L330.3438 75.6406 L330.3438 76.1875 L333.9531 76.1875 L333.9531 79 L334.8594 79 L334.8594 76.1875 L336.2812 76.1875 L336.2812 75.5156 Z"
      /><rect x="316" y="71" width="8" style="fill:white; stroke:none;" height="8"
      /><path style="stroke:none;" d="M320.9844 76.7031 C320.9375 77.8906 320.1562 78.6562 319.3125 78.6562 C318.2656 78.6562 317.5 77.6875 317.5 75.7188 C317.5 74.2812 318.1562 73.1562 319.3438 73.1562 C320.1406 73.1562 320.7812 73.6875 321.0938 74.6406 L320.9844 76.7031 ZM322.9062 78.2812 C322.7344 78.375 322.5469 78.4219 322.3438 78.4219 C321.9531 78.4219 321.75 78.2188 321.75 77.4219 C321.75 76.4844 321.9688 74.5312 322.1875 72.8281 L322.0312 72.7188 L321.2344 72.9219 L321.1406 73.7969 C320.7812 73.0312 320.1562 72.6562 319.3906 72.6562 C318.0469 72.6562 316.5625 73.8438 316.5625 75.9531 C316.5625 78.0938 317.7188 79.1719 319.1406 79.1719 C320.0156 79.1719 320.6875 78.8125 321.0938 77.9844 C321.2031 78.8594 321.5156 79.1719 322.0156 79.1719 C322.4688 79.1719 322.7969 78.9062 323.0156 78.5625 L322.9062 78.2812 Z"
      /><rect x="382" y="70" width="7" style="fill:white; stroke:none;" height="9"
      /><path style="stroke:none;" d="M383 75.5156 L385.9531 71.2656 L385.9531 75.5156 L383 75.5156 ZM388.2812 75.5156 L386.8594 75.5156 L386.8594 70.125 L386.2344 70.125 L382.3438 75.6406 L382.3438 76.1875 L385.9531 76.1875 L385.9531 79 L386.8594 79 L386.8594 76.1875 L388.2812 76.1875 L388.2812 75.5156 Z"
      /><rect x="368" y="71" width="8" style="fill:white; stroke:none;" height="8"
      /><path style="stroke:none;" d="M372.9844 76.7031 C372.9375 77.8906 372.1562 78.6562 371.3125 78.6562 C370.2656 78.6562 369.5 77.6875 369.5 75.7188 C369.5 74.2812 370.1562 73.1562 371.3438 73.1562 C372.1406 73.1562 372.7812 73.6875 373.0938 74.6406 L372.9844 76.7031 ZM374.9062 78.2812 C374.7344 78.375 374.5469 78.4219 374.3438 78.4219 C373.9531 78.4219 373.75 78.2188 373.75 77.4219 C373.75 76.4844 373.9688 74.5312 374.1875 72.8281 L374.0312 72.7188 L373.2344 72.9219 L373.1406 73.7969 C372.7812 73.0312 372.1562 72.6562 371.3906 72.6562 C370.0469 72.6562 368.5625 73.8438 368.5625 75.9531 C368.5625 78.0938 369.7188 79.1719 371.1406 79.1719 C372.0156 79.1719 372.6875 78.8125 373.0938 77.9844 C373.2031 78.8594 373.5156 79.1719 374.0156 79.1719 C374.4688 79.1719 374.7969 78.9062 375.0156 78.5625 L374.9062 78.2812 Z"
      /><rect x="421" y="70" width="5" style="fill:white; stroke:none;" height="10"
      /><path style="stroke:none;" d="M422.8906 78.6875 C422.4844 78.6875 422.1562 79.0469 422.1562 79.4219 C422.1562 79.8125 422.4844 80.1562 422.8906 80.1562 C423.2969 80.1562 423.6406 79.8125 423.6406 79.4219 C423.6406 79.0469 423.2969 78.6875 422.8906 78.6875 ZM424.4688 72.5781 C424.7188 72.8906 424.875 73.2656 424.8906 73.6562 C424.8906 74.1875 424.625 74.5 424.0312 74.7656 L423.4062 75.0156 C422.6406 75.3125 422.3906 75.5469 422.3906 75.9375 C422.3906 76.1094 422.4531 76.3438 422.5781 76.8125 L422.7344 77.3438 L423.1094 77.3438 L423.0938 76.5312 C423.0938 76.0938 423.2031 75.9688 423.7812 75.7344 L424.2031 75.5625 C425.0312 75.2188 425.4531 74.6875 425.4531 73.8438 C425.4531 72.1562 423.6562 71.1875 422.5 71.0312 C422.1094 71.125 421.9062 71.2969 421.9062 71.6406 C421.9062 71.9375 422.0625 72.1562 422.7188 72.2656 L424.4688 72.5781 Z"
    /></g
  ></g
></svg
>
