<?xml version="1.0"?>
<!DOCTYPE svg PUBLIC '-//W3C//DTD SVG 1.0//EN'
          'http://www.w3.org/TR/2001/REC-SVG-20010904/DTD/svg10.dtd'>
<svg xmlns:xlink="http://www.w3.org/1999/xlink" style="fill-opacity:1; color-rendering:auto; color-interpolation:auto; text-rendering:auto; stroke:black; stroke-linecap:square; stroke-miterlimit:10; shape-rendering:auto; stroke-opacity:1; fill:black; stroke-dasharray:none; font-weight:normal; stroke-width:1; font-family:'Dialog'; font-style:normal; stroke-linejoin:miter; font-size:12px; stroke-dashoffset:0; image-rendering:auto;" viewBox="0 0 290 238" xmlns="http://www.w3.org/2000/svg"
><!--Generated by the Batik Graphics2D SVG Generator--><defs id="genericDefs"
  /><g
  ><defs id="defs1"
    ><clipPath clipPathUnits="userSpaceOnUse" id="clipPath1"
      ><path d="M186 121 L208 121 L208 143 L186 143 L186 121 Z"
      /></clipPath
      ><clipPath clipPathUnits="userSpaceOnUse" id="clipPath2"
      ><path d="M156 171 C156 177.0751 151.0751 182 145 182 C138.9249 182 134 177.0751 134 171 C134 164.9249 138.9249 160 145 160 C151.0751 160 156 164.9249 156 171 Z"
      /></clipPath
      ><clipPath clipPathUnits="userSpaceOnUse" id="clipPath3"
      ><path style="fill-rule:evenodd;" d="M93 186 L104 197 L93 208 L82 197 Z"
      /></clipPath
      ><clipPath clipPathUnits="userSpaceOnUse" id="clipPath4"
      ><path d="M104 145 C104 151.0751 99.0751 156 93 156 C86.9249 156 82 151.0751 82 145 C82 138.9249 86.9249 134 93 134 C99.0751 134 104 138.9249 104 145 Z"
      /></clipPath
      ><clipPath clipPathUnits="userSpaceOnUse" id="clipPath5"
      ><path d="M30 134 L52 134 L52 156 L30 156 L30 134 Z"
      /></clipPath
      ><clipPath clipPathUnits="userSpaceOnUse" id="clipPath6"
      ><path d="M134 82 L156 82 L156 104 L134 104 L134 82 Z"
      /></clipPath
      ><clipPath clipPathUnits="userSpaceOnUse" id="clipPath7"
      ><path d="M82 82 L104 82 L104 104 L82 104 L82 82 Z"
      /></clipPath
      ><clipPath clipPathUnits="userSpaceOnUse" id="clipPath8"
      ><path style="fill-rule:evenodd;" d="M145 52 L134 30 L156 30 Z"
      /></clipPath
    ></defs
    ><g style="fill:white; text-rendering:optimizeSpeed; stroke:white;"
    ><rect x="0" width="290" height="238" y="0" style="stroke:none;"
      /><polygon style="fill:none; stroke:black;" points=" 249 132 197 132"
      /><path d="M249 121 C243.5 126.5 254.5 137.5 249 143" style="fill:none; stroke:black;"
      /><polygon style="fill:none; stroke:black;" points=" 197 132 145 171"
      /><polygon style="fill:none; stroke:black;" points=" 197 132 145 93"
      /><rect x="186" y="121" width="22" style="clip-path:url(#clipPath1); stroke:none;" height="22"
      /><rect x="186" y="121" width="22" style="clip-path:url(#clipPath1); fill:rgb(255,212,0); stroke:none;" height="22"
      /><rect x="186" y="121" width="22" style="clip-path:url(#clipPath1); fill:none; stroke:black;" height="22"
      /><rect x="186" y="121" width="22" style="fill:none; stroke:black;" height="22"
      /><polygon style="fill:none; stroke:black;" points=" 145 171 93 197"
      /><polygon style="fill:none; stroke:black;" points=" 145 171 93 145"
      /><circle style="clip-path:url(#clipPath2); stroke:none;" r="11" cx="145" cy="171"
      /><rect x="134" y="160" width="22" style="clip-path:url(#clipPath2); fill:rgb(255,212,0); stroke:none;" height="22"
      /><rect x="134" y="160" width="22" style="clip-path:url(#clipPath2); fill:none; stroke:black;" height="22"
      /><circle style="fill:none; stroke:black;" r="11" cx="145" cy="171"
      /><polygon style="clip-path:url(#clipPath3); stroke:none;" points=" 93 186 104 197 93 208 82 197"
      /><rect x="82" y="186" width="22" style="clip-path:url(#clipPath3); fill:rgb(143,204,233); stroke:none;" height="22"
      /><rect x="82" y="186" width="22" style="clip-path:url(#clipPath3); fill:none; stroke:black;" height="22"
      /><polygon style="fill:none; stroke:black;" points=" 93 186 104 197 93 208 82 197"
      /><polygon style="fill:none; stroke:black;" points=" 93 145 41 145"
      /><circle style="clip-path:url(#clipPath4); stroke:none;" r="11" cx="93" cy="145"
      /><rect x="82" y="134" width="22" style="clip-path:url(#clipPath4); fill:rgb(255,212,0); stroke:none;" height="22"
      /><rect x="82" y="134" width="22" style="clip-path:url(#clipPath4); fill:none; stroke:black;" height="22"
      /><circle style="fill:none; stroke:black;" r="11" cx="93" cy="145"
      /><rect x="30" y="134" width="22" style="clip-path:url(#clipPath5); stroke:none;" height="22"
      /><rect x="30" y="134" width="22" style="clip-path:url(#clipPath5); fill:rgb(0,144,188); stroke:none;" height="22"
      /><rect x="30" y="134" width="22" style="clip-path:url(#clipPath5); fill:none; stroke:black;" height="22"
      /><rect x="30" y="134" width="22" style="fill:none; stroke:black;" height="22"
      /><rect x="70" y="148" width="7" style="stroke:none;" height="9"
    /></g
    ><g style="font-family:'Serif'; text-rendering:optimizeSpeed; "
    ><path style="stroke:none;" d="M71 153.5156 L73.9531 149.2656 L73.9531 153.5156 L71 153.5156 ZM76.2812 153.5156 L74.8594 153.5156 L74.8594 148.125 L74.2344 148.125 L70.3438 153.6406 L70.3438 154.1875 L73.9531 154.1875 L73.9531 157 L74.8594 157 L74.8594 154.1875 L76.2812 154.1875 L76.2812 153.5156 Z"
      /><rect x="56" y="149" width="8" style="fill:white; stroke:none;" height="8"
      /><path style="stroke:none;" d="M60.9844 154.7031 C60.9375 155.8906 60.1562 156.6562 59.3125 156.6562 C58.2656 156.6562 57.5 155.6875 57.5 153.7188 C57.5 152.2812 58.1562 151.1562 59.3438 151.1562 C60.1406 151.1562 60.7812 151.6875 61.0938 152.6406 L60.9844 154.7031 ZM62.9062 156.2812 C62.7344 156.375 62.5469 156.4219 62.3438 156.4219 C61.9531 156.4219 61.75 156.2188 61.75 155.4219 C61.75 154.4844 61.9688 152.5312 62.1875 150.8281 L62.0312 150.7188 L61.2344 150.9219 L61.1406 151.7969 C60.7812 151.0312 60.1562 150.6562 59.3906 150.6562 C58.0469 150.6562 56.5625 151.8438 56.5625 153.9531 C56.5625 156.0938 57.7188 157.1719 59.1406 157.1719 C60.0156 157.1719 60.6875 156.8125 61.0938 155.9844 C61.2031 156.8594 61.5156 157.1719 62.0156 157.1719 C62.4688 157.1719 62.7969 156.9062 63.0156 156.5625 L62.9062 156.2812 Z"
      /><rect x="127" y="182" width="6" style="fill:white; stroke:none;" height="10"
      /><path style="stroke:none;" d="M129.2344 183.6562 C129.5156 183.5938 129.7656 183.5625 130.0156 183.5625 C131.0625 183.5625 131.6719 184.1719 131.6719 185.2656 C131.6719 186.4375 130.9062 187.1094 129.7031 187.1094 L129.1875 187.1094 L129.1875 187.6406 L129.7969 187.6406 C131.2188 187.6406 131.9062 188.4219 131.9062 189.6406 C131.9062 190.8438 131.1719 191.6875 129.875 191.6875 C129.6094 191.6875 129.3125 191.6562 129.0156 191.5625 L128.7812 190.8125 C128.625 190.2812 128.5 190.0469 128.1406 190.0469 C127.8906 190.0469 127.7031 190.1719 127.5781 190.4219 C127.8438 191.6406 128.7812 192.1719 130.0312 192.1719 C131.7188 192.1719 132.875 191.125 132.875 189.7031 C132.875 188.5 132.2031 187.625 130.7969 187.375 C131.9531 187.0156 132.6094 186.2031 132.6094 185.2031 C132.6094 183.9219 131.6719 183.0781 130.1875 183.0781 C129.0469 183.0781 128.0625 183.5938 127.7969 184.6875 C127.9062 185 128.1094 185.1094 128.3594 185.1094 C128.7344 185.1094 128.8906 184.8906 129 184.4062 L129.2344 183.6562 Z"
      /><rect x="110" y="191" width="8" style="fill:white; stroke:none;" height="8"
      /><path style="stroke:none;" d="M114.9844 196.7031 C114.9375 197.8906 114.1562 198.6562 113.3125 198.6562 C112.2656 198.6562 111.5 197.6875 111.5 195.7188 C111.5 194.2812 112.1562 193.1562 113.3438 193.1562 C114.1406 193.1562 114.7812 193.6875 115.0938 194.6406 L114.9844 196.7031 ZM116.9062 198.2812 C116.7344 198.375 116.5469 198.4219 116.3438 198.4219 C115.9531 198.4219 115.75 198.2188 115.75 197.4219 C115.75 196.4844 115.9688 194.5312 116.1875 192.8281 L116.0312 192.7188 L115.2344 192.9219 L115.1406 193.7969 C114.7812 193.0312 114.1562 192.6562 113.3906 192.6562 C112.0469 192.6562 110.5625 193.8438 110.5625 195.9531 C110.5625 198.0938 111.7188 199.1719 113.1406 199.1719 C114.0156 199.1719 114.6875 198.8125 115.0938 197.9844 C115.2031 198.8594 115.5156 199.1719 116.0156 199.1719 C116.4688 199.1719 116.7969 198.9062 117.0156 198.5625 L116.9062 198.2812 Z"
      /><rect x="119" y="164" width="7" style="fill:white; stroke:none;" height="9"
      /><path style="stroke:none;" d="M120 169.5156 L122.9531 165.2656 L122.9531 169.5156 L120 169.5156 ZM125.2812 169.5156 L123.8594 169.5156 L123.8594 164.125 L123.2344 164.125 L119.3438 169.6406 L119.3438 170.1875 L122.9531 170.1875 L122.9531 173 L123.8594 173 L123.8594 170.1875 L125.2812 170.1875 L125.2812 169.5156 Z"
      /><rect x="104" y="154" width="6" style="fill:white; stroke:none;" height="13"
      /><path style="stroke:none;" d="M106.0938 160.2031 C106.0938 158.6562 106.75 157.8125 107.7969 157.8125 C108.7188 157.8125 109.2656 158.4531 109.2656 159.5156 C109.2656 160.7188 108.5 161.4375 107.1875 161.7031 L107.2969 162.3125 C109.2188 162.2344 109.9375 163.2188 109.9375 164.4375 C109.9375 165.625 109.2344 166.4219 107.9531 166.4219 C107.25 166.4219 106.6562 166.1562 106.0938 165.7188 L106.0938 160.2031 ZM105.2031 166.9062 L105.1094 169.375 L105.2656 169.4844 L106.1562 169.2656 L106.0156 166.0938 C106.5469 166.8438 107.3594 167.1719 108.1719 167.1719 C109.5625 167.1719 110.8594 166.2188 110.8594 164.4844 C110.8594 162.9531 109.875 162.1094 108.125 162 C109.5625 161.6094 110.1875 160.4531 110.1875 159.4844 C110.1875 158.0938 109.1562 157.3125 107.9062 157.3125 C106.2969 157.3125 105.2188 158.5469 105.2188 160.5156 L105.2031 166.9062 Z"
      /><polygon style="fill:none;" points=" 145 93 93 93"
      /><polygon style="fill:none;" points=" 145 93 145 41"
      /><rect x="134" y="82" width="22" style="clip-path:url(#clipPath6); fill:white; stroke:none;" height="22"
      /><rect x="134" y="82" width="22" style="clip-path:url(#clipPath6); fill:rgb(0,144,188); stroke:none;" height="22"
      /><rect x="134" y="82" width="22" style="fill:none; clip-path:url(#clipPath6);" height="22"
      /><rect x="134" width="22" height="22" y="82" style="fill:none;"
      /><rect x="82" y="82" width="22" style="clip-path:url(#clipPath7); fill:white; stroke:none;" height="22"
      /><rect x="82" y="82" width="22" style="clip-path:url(#clipPath7); fill:rgb(0,144,188); stroke:none;" height="22"
      /><rect x="82" y="82" width="22" style="fill:none; clip-path:url(#clipPath7);" height="22"
      /><rect x="82" width="22" height="22" y="82" style="fill:none;"
      /><polygon style="fill:white; clip-path:url(#clipPath8); stroke:none;" points=" 145 52 134 30 156 30"
      /><rect x="134" y="30" width="22" style="clip-path:url(#clipPath8); fill:rgb(237,28,36); stroke:none;" height="22"
      /><rect x="134" y="30" width="22" style="fill:none; clip-path:url(#clipPath8);" height="22"
      /><polygon style="fill:none;" points=" 145 52 134 30 156 30"
      /><rect x="123" y="96" width="6" style="fill:white; stroke:none;" height="10"
      /><path style="stroke:none;" d="M125.2344 97.6562 C125.5156 97.5938 125.7656 97.5625 126.0156 97.5625 C127.0625 97.5625 127.6719 98.1719 127.6719 99.2656 C127.6719 100.4375 126.9062 101.1094 125.7031 101.1094 L125.1875 101.1094 L125.1875 101.6406 L125.7969 101.6406 C127.2188 101.6406 127.9062 102.4219 127.9062 103.6406 C127.9062 104.8438 127.1719 105.6875 125.875 105.6875 C125.6094 105.6875 125.3125 105.6562 125.0156 105.5625 L124.7812 104.8125 C124.625 104.2812 124.5 104.0469 124.1406 104.0469 C123.8906 104.0469 123.7031 104.1719 123.5781 104.4219 C123.8438 105.6406 124.7812 106.1719 126.0312 106.1719 C127.7188 106.1719 128.875 105.125 128.875 103.7031 C128.875 102.5 128.2031 101.625 126.7969 101.375 C127.9531 101.0156 128.6094 100.2031 128.6094 99.2031 C128.6094 97.9219 127.6719 97.0781 126.1875 97.0781 C125.0469 97.0781 124.0625 97.5938 123.7969 98.6875 C123.9062 99 124.1094 99.1094 124.3594 99.1094 C124.7344 99.1094 124.8906 98.8906 125 98.4062 L125.2344 97.6562 Z"
      /><rect x="109" y="94" width="6" style="fill:white; stroke:none;" height="13"
      /><path style="stroke:none;" d="M111.0938 100.2031 C111.0938 98.6562 111.75 97.8125 112.7969 97.8125 C113.7188 97.8125 114.2656 98.4531 114.2656 99.5156 C114.2656 100.7188 113.5 101.4375 112.1875 101.7031 L112.2969 102.3125 C114.2188 102.2344 114.9375 103.2188 114.9375 104.4375 C114.9375 105.625 114.2344 106.4219 112.9531 106.4219 C112.25 106.4219 111.6562 106.1562 111.0938 105.7188 L111.0938 100.2031 ZM110.2031 106.9062 L110.1094 109.375 L110.2656 109.4844 L111.1562 109.2656 L111.0156 106.0938 C111.5469 106.8438 112.3594 107.1719 113.1719 107.1719 C114.5625 107.1719 115.8594 106.2188 115.8594 104.4844 C115.8594 102.9531 114.875 102.1094 113.125 102 C114.5625 101.6094 115.1875 100.4531 115.1875 99.4844 C115.1875 98.0938 114.1562 97.3125 112.9062 97.3125 C111.2969 97.3125 110.2188 98.5469 110.2188 100.5156 L110.2031 106.9062 Z"
      /><rect x="133" y="69" width="7" style="fill:white; stroke:none;" height="9"
      /><path style="stroke:none;" d="M134 74.5156 L136.9531 70.2656 L136.9531 74.5156 L134 74.5156 ZM139.2812 74.5156 L137.8594 74.5156 L137.8594 69.125 L137.2344 69.125 L133.3438 74.6406 L133.3438 75.1875 L136.9531 75.1875 L136.9531 78 L137.8594 78 L137.8594 75.1875 L139.2812 75.1875 L139.2812 74.5156 Z"
      /><rect x="133" y="56" width="8" style="fill:white; stroke:none;" height="8"
      /><path style="stroke:none;" d="M137.9844 61.7031 C137.9375 62.8906 137.1562 63.6562 136.3125 63.6562 C135.2656 63.6562 134.5 62.6875 134.5 60.7188 C134.5 59.2812 135.1562 58.1562 136.3438 58.1562 C137.1406 58.1562 137.7812 58.6875 138.0938 59.6406 L137.9844 61.7031 ZM139.9062 63.2812 C139.7344 63.375 139.5469 63.4219 139.3438 63.4219 C138.9531 63.4219 138.75 63.2188 138.75 62.4219 C138.75 61.4844 138.9688 59.5312 139.1875 57.8281 L139.0312 57.7188 L138.2344 57.9219 L138.1406 58.7969 C137.7812 58.0312 137.1562 57.6562 136.3906 57.6562 C135.0469 57.6562 133.5625 58.8438 133.5625 60.9531 C133.5625 63.0938 134.7188 64.1719 136.1406 64.1719 C137.0156 64.1719 137.6875 63.8125 138.0938 62.9844 C138.2031 63.8594 138.5156 64.1719 139.0156 64.1719 C139.4688 64.1719 139.7969 63.9062 140.0156 63.5625 L139.9062 63.2812 Z"
      /><rect x="181" y="146" width="6" style="fill:white; stroke:none;" height="10"
      /><path style="stroke:none;" d="M183.2344 147.6562 C183.5156 147.5938 183.7656 147.5625 184.0156 147.5625 C185.0625 147.5625 185.6719 148.1719 185.6719 149.2656 C185.6719 150.4375 184.9062 151.1094 183.7031 151.1094 L183.1875 151.1094 L183.1875 151.6406 L183.7969 151.6406 C185.2188 151.6406 185.9062 152.4219 185.9062 153.6406 C185.9062 154.8438 185.1719 155.6875 183.875 155.6875 C183.6094 155.6875 183.3125 155.6562 183.0156 155.5625 L182.7812 154.8125 C182.625 154.2812 182.5 154.0469 182.1406 154.0469 C181.8906 154.0469 181.7031 154.1719 181.5781 154.4219 C181.8438 155.6406 182.7812 156.1719 184.0312 156.1719 C185.7188 156.1719 186.875 155.125 186.875 153.7031 C186.875 152.5 186.2031 151.625 184.7969 151.375 C185.9531 151.0156 186.6094 150.2031 186.6094 149.2031 C186.6094 147.9219 185.6719 147.0781 184.1875 147.0781 C183.0469 147.0781 182.0625 147.5938 181.7969 148.6875 C181.9062 149 182.1094 149.1094 182.3594 149.1094 C182.7344 149.1094 182.8906 148.8906 183 148.4062 L183.2344 147.6562 Z"
      /><rect x="164" y="157" width="6" style="fill:white; stroke:none;" height="13"
      /><path style="stroke:none;" d="M166.0938 163.2031 C166.0938 161.6562 166.75 160.8125 167.7969 160.8125 C168.7188 160.8125 169.2656 161.4531 169.2656 162.5156 C169.2656 163.7188 168.5 164.4375 167.1875 164.7031 L167.2969 165.3125 C169.2188 165.2344 169.9375 166.2188 169.9375 167.4375 C169.9375 168.625 169.2344 169.4219 167.9531 169.4219 C167.25 169.4219 166.6562 169.1562 166.0938 168.7188 L166.0938 163.2031 ZM165.2031 169.9062 L165.1094 172.375 L165.2656 172.4844 L166.1562 172.2656 L166.0156 169.0938 C166.5469 169.8438 167.3594 170.1719 168.1719 170.1719 C169.5625 170.1719 170.8594 169.2188 170.8594 167.4844 C170.8594 165.9531 169.875 165.1094 168.125 165 C169.5625 164.6094 170.1875 163.4531 170.1875 162.4844 C170.1875 161.0938 169.1562 160.3125 167.9062 160.3125 C166.2969 160.3125 165.2188 161.5469 165.2188 163.5156 L165.2031 169.9062 Z"
      /><rect x="171" y="120" width="6" style="fill:white; stroke:none;" height="10"
      /><path style="stroke:none;" d="M174.3438 129.6875 C173.2031 129.6875 172.5312 128.5 172.5312 126.2969 C172.5312 126.2188 172.5312 126.125 172.5312 126.0469 C173.0938 125.5 173.7188 125.3125 174.3438 125.3125 C175.3125 125.3125 175.9531 125.9844 175.9531 127.4531 C175.9531 128.9375 175.3125 129.6875 174.3438 129.6875 ZM176.5312 121.0781 C173.3438 121.4531 171.5625 123.7656 171.5625 126.4531 C171.5625 128.7812 172.6094 130.1719 174.3125 130.1719 C175.8438 130.1719 176.9219 129.1094 176.9219 127.2812 C176.9219 125.6875 175.9688 124.6562 174.5625 124.6562 C173.8281 124.6562 173.1406 124.9844 172.5781 125.5781 C172.7969 123.4062 174.0781 121.9688 176.5938 121.3906 L176.5312 121.0781 Z"
      /><rect x="154" y="105" width="6" style="fill:white; stroke:none;" height="13"
      /><path style="stroke:none;" d="M156.0938 111.2031 C156.0938 109.6562 156.75 108.8125 157.7969 108.8125 C158.7188 108.8125 159.2656 109.4531 159.2656 110.5156 C159.2656 111.7188 158.5 112.4375 157.1875 112.7031 L157.2969 113.3125 C159.2188 113.2344 159.9375 114.2188 159.9375 115.4375 C159.9375 116.625 159.2344 117.4219 157.9531 117.4219 C157.25 117.4219 156.6562 117.1562 156.0938 116.7188 L156.0938 111.2031 ZM155.2031 117.9062 L155.1094 120.375 L155.2656 120.4844 L156.1562 120.2656 L156.0156 117.0938 C156.5469 117.8438 157.3594 118.1719 158.1719 118.1719 C159.5625 118.1719 160.8594 117.2188 160.8594 115.4844 C160.8594 113.9531 159.875 113.1094 158.125 113 C159.5625 112.6094 160.1875 111.4531 160.1875 110.4844 C160.1875 109.0938 159.1562 108.3125 157.9062 108.3125 C156.2969 108.3125 155.2188 109.5469 155.2188 111.5156 L155.2031 117.9062 Z"
      /><rect x="213" y="135" width="5" style="fill:white; stroke:none;" height="10"
      /><path style="stroke:none;" d="M214.8906 143.6875 C214.4844 143.6875 214.1562 144.0469 214.1562 144.4219 C214.1562 144.8125 214.4844 145.1562 214.8906 145.1562 C215.2969 145.1562 215.6406 144.8125 215.6406 144.4219 C215.6406 144.0469 215.2969 143.6875 214.8906 143.6875 ZM216.4688 137.5781 C216.7188 137.8906 216.875 138.2656 216.8906 138.6562 C216.8906 139.1875 216.625 139.5 216.0312 139.7656 L215.4062 140.0156 C214.6406 140.3125 214.3906 140.5469 214.3906 140.9375 C214.3906 141.1094 214.4531 141.3438 214.5781 141.8125 L214.7344 142.3438 L215.1094 142.3438 L215.0938 141.5312 C215.0938 141.0938 215.2031 140.9688 215.7812 140.7344 L216.2031 140.5625 C217.0312 140.2188 217.4531 139.6875 217.4531 138.8438 C217.4531 137.1562 215.6562 136.1875 214.5 136.0312 C214.1094 136.125 213.9062 136.2969 213.9062 136.6406 C213.9062 136.9375 214.0625 137.1562 214.7188 137.2656 L216.4688 137.5781 Z"
    /></g
  ></g
></svg
>
