<?xml version="1.0"?>
<!DOCTYPE svg PUBLIC '-//W3C//DTD SVG 1.0//EN'
          'http://www.w3.org/TR/2001/REC-SVG-20010904/DTD/svg10.dtd'>
<svg xmlns:xlink="http://www.w3.org/1999/xlink" style="fill-opacity:1; color-rendering:auto; color-interpolation:auto; text-rendering:auto; stroke:black; stroke-linecap:square; stroke-miterlimit:10; shape-rendering:auto; stroke-opacity:1; fill:black; stroke-dasharray:none; font-weight:normal; stroke-width:1; font-family:'Dialog'; font-style:normal; stroke-linejoin:miter; font-size:12px; stroke-dashoffset:0; image-rendering:auto;" viewBox="0 0 143 261" xmlns="http://www.w3.org/2000/svg"
><!--Generated by the Batik Graphics2D SVG Generator--><defs id="genericDefs"
  /><g
  ><defs id="defs1"
    ><clipPath clipPathUnits="userSpaceOnUse" id="clipPath1"
      ><path style="fill-rule:evenodd;" d="M58 209 L69 220 L58 231 L47 220 Z"
      /></clipPath
      ><clipPath clipPathUnits="userSpaceOnUse" id="clipPath2"
      ><path d="M47 157 L69 157 L69 179 L47 179 L47 157 Z"
      /></clipPath
      ><clipPath clipPathUnits="userSpaceOnUse" id="clipPath3"
      ><path d="M47 105 L69 105 L69 127 L47 127 L47 105 Z"
      /></clipPath
      ><clipPath clipPathUnits="userSpaceOnUse" id="clipPath4"
      ><path d="M69 41 C69 47.0751 64.0751 52 58 52 C51.9249 52 47 47.0751 47 41 C47 34.9249 51.9249 30 58 30 C64.0751 30 69 34.9249 69 41 Z"
      /></clipPath
    ></defs
    ><g style="fill:white; text-rendering:optimizeSpeed; stroke:white;"
    ><rect x="0" width="143" height="261" y="0" style="stroke:none;"
      /><polygon style="clip-path:url(#clipPath1); stroke:none;" points=" 58 209 69 220 58 231 47 220"
      /><rect x="47" y="209" width="22" style="clip-path:url(#clipPath1); fill:rgb(165,67,153); stroke:none;" height="22"
      /><rect x="47" y="209" width="22" style="clip-path:url(#clipPath1); fill:none; stroke:black;" height="22"
      /><polygon style="fill:none; stroke:black;" points=" 58 209 69 220 58 231 47 220"
      /><rect x="74" y="207" width="5" style="stroke:none;" height="10"
    /></g
    ><g style="font-family:'Serif'; text-rendering:optimizeSpeed; "
    ><path style="stroke:none;" d="M75.8906 215.6875 C75.4844 215.6875 75.1562 216.0469 75.1562 216.4219 C75.1562 216.8125 75.4844 217.1562 75.8906 217.1562 C76.2969 217.1562 76.6406 216.8125 76.6406 216.4219 C76.6406 216.0469 76.2969 215.6875 75.8906 215.6875 ZM77.4688 209.5781 C77.7188 209.8906 77.875 210.2656 77.8906 210.6562 C77.8906 211.1875 77.625 211.5 77.0312 211.7656 L76.4062 212.0156 C75.6406 212.3125 75.3906 212.5469 75.3906 212.9375 C75.3906 213.1094 75.4531 213.3438 75.5781 213.8125 L75.7344 214.3438 L76.1094 214.3438 L76.0938 213.5312 C76.0938 213.0938 76.2031 212.9688 76.7812 212.7344 L77.2031 212.5625 C78.0312 212.2188 78.4531 211.6875 78.4531 210.8438 C78.4531 209.1562 76.6562 208.1875 75.5 208.0312 C75.1094 208.125 74.9062 208.2969 74.9062 208.6406 C74.9062 208.9375 75.0625 209.1562 75.7188 209.2656 L77.4688 209.5781 Z"
      /><rect x="74" y="223" width="5" style="fill:white; stroke:none;" height="10"
      /><path style="stroke:none;" d="M75.8906 231.6875 C75.4844 231.6875 75.1562 232.0469 75.1562 232.4219 C75.1562 232.8125 75.4844 233.1562 75.8906 233.1562 C76.2969 233.1562 76.6406 232.8125 76.6406 232.4219 C76.6406 232.0469 76.2969 231.6875 75.8906 231.6875 ZM77.4688 225.5781 C77.7188 225.8906 77.875 226.2656 77.8906 226.6562 C77.8906 227.1875 77.625 227.5 77.0312 227.7656 L76.4062 228.0156 C75.6406 228.3125 75.3906 228.5469 75.3906 228.9375 C75.3906 229.1094 75.4531 229.3438 75.5781 229.8125 L75.7344 230.3438 L76.1094 230.3438 L76.0938 229.5312 C76.0938 229.0938 76.2031 228.9688 76.7812 228.7344 L77.2031 228.5625 C78.0312 228.2188 78.4531 227.6875 78.4531 226.8438 C78.4531 225.1562 76.6562 224.1875 75.5 224.0312 C75.1094 224.125 74.9062 224.2969 74.9062 224.6406 C74.9062 224.9375 75.0625 225.1562 75.7188 225.2656 L77.4688 225.5781 Z"
      /><path style="stroke:none;" d="M29.6094 225 L36.0625 225 L36.0625 223.8906 L33.2344 223.8906 C32.7031 223.8906 32.0781 223.9531 31.5469 223.9844 C33.9531 221.7031 35.5625 219.625 35.5625 217.5781 C35.5625 215.75 34.4219 214.5469 32.5781 214.5469 C31.2812 214.5469 30.4062 215.1406 29.5625 216.0469 L30.2969 216.7812 C30.8594 216.1094 31.5938 215.5938 32.4375 215.5938 C33.7031 215.5938 34.3125 216.4531 34.3125 217.625 C34.3125 219.3906 32.8438 221.4375 29.6094 224.25 L29.6094 225 ZM36.9731 225 L38.3168 225 L39.3481 223.2188 C39.6137 222.7656 39.8637 222.2969 40.1293 221.8594 L40.2075 221.8594 C40.4731 222.2969 40.7543 222.7656 41.0043 223.2188 L42.1293 225 L43.5356 225 L41.02 221.1562 L43.3325 217.3906 L42.0043 217.3906 L41.0668 219.0625 C40.8481 219.5 40.6137 219.9219 40.3793 220.3438 L40.3325 220.3438 C40.0668 219.9219 39.8012 219.5 39.5668 219.0625 L38.5512 217.3906 L37.1762 217.3906 L39.4887 221.0312 L36.9731 225 Z"
    /></g
    ><g style="fill:white; text-rendering:optimizeSpeed; font-size:14px; font-family:'SansSerif'; stroke:white;"
    ><rect x="47" y="157" width="22" style="clip-path:url(#clipPath2); stroke:none;" height="22"
      /><rect x="47" y="157" width="22" style="clip-path:url(#clipPath2); fill:rgb(255,212,0); stroke:none;" height="22"
      /><rect x="47" y="157" width="22" style="clip-path:url(#clipPath2); fill:none; stroke:black;" height="22"
      /><rect x="47" y="157" width="22" style="fill:none; stroke:black;" height="22"
    /></g
    ><g style="font-style:italic; text-rendering:optimizeSpeed; font-size:10px; font-family:'SansSerif';"
    ><path style="stroke:none;" d="M58 170.125 C59.3281 170.125 60.7344 169.0938 61.125 167.2969 C61.5 165.4844 60.5469 164.4375 59.2188 164.4375 C57.8906 164.4375 56.4688 165.4844 56.0938 167.2969 C55.7031 169.0938 56.6719 170.125 58 170.125 ZM58.1719 169.375 C57.2344 169.375 56.7656 168.5469 57.0312 167.2969 C57.2969 166.0469 58.1094 165.1875 59.0469 165.1875 C59.9844 165.1875 60.4531 166.0469 60.1875 167.2969 C59.9219 168.5469 59.1094 169.375 58.1719 169.375 Z"
    /></g
    ><g style="fill:white; text-rendering:optimizeSpeed; font-family:'Serif'; stroke:white;"
    ><rect x="74" width="5" height="10" y="155" style="stroke:none;"
      /><path d="M75.8906 163.6875 C75.4844 163.6875 75.1562 164.0469 75.1562 164.4219 C75.1562 164.8125 75.4844 165.1562 75.8906 165.1562 C76.2969 165.1562 76.6406 164.8125 76.6406 164.4219 C76.6406 164.0469 76.2969 163.6875 75.8906 163.6875 ZM77.4688 157.5781 C77.7188 157.8906 77.875 158.2656 77.8906 158.6562 C77.8906 159.1875 77.625 159.5 77.0312 159.7656 L76.4062 160.0156 C75.6406 160.3125 75.3906 160.5469 75.3906 160.9375 C75.3906 161.1094 75.4531 161.3438 75.5781 161.8125 L75.7344 162.3438 L76.1094 162.3438 L76.0938 161.5312 C76.0938 161.0938 76.2031 160.9688 76.7812 160.7344 L77.2031 160.5625 C78.0312 160.2188 78.4531 159.6875 78.4531 158.8438 C78.4531 157.1562 76.6562 156.1875 75.5 156.0312 C75.1094 156.125 74.9062 156.2969 74.9062 156.6406 C74.9062 156.9375 75.0625 157.1562 75.7188 157.2656 L77.4688 157.5781 Z" style="fill:black; stroke:none;"
      /><rect x="74" width="5" height="10" y="171" style="stroke:none;"
      /><path d="M75.8906 179.6875 C75.4844 179.6875 75.1562 180.0469 75.1562 180.4219 C75.1562 180.8125 75.4844 181.1562 75.8906 181.1562 C76.2969 181.1562 76.6406 180.8125 76.6406 180.4219 C76.6406 180.0469 76.2969 179.6875 75.8906 179.6875 ZM77.4688 173.5781 C77.7188 173.8906 77.875 174.2656 77.8906 174.6562 C77.8906 175.1875 77.625 175.5 77.0312 175.7656 L76.4062 176.0156 C75.6406 176.3125 75.3906 176.5469 75.3906 176.9375 C75.3906 177.1094 75.4531 177.3438 75.5781 177.8125 L75.7344 178.3438 L76.1094 178.3438 L76.0938 177.5312 C76.0938 177.0938 76.2031 176.9688 76.7812 176.7344 L77.2031 176.5625 C78.0312 176.2188 78.4531 175.6875 78.4531 174.8438 C78.4531 173.1562 76.6562 172.1875 75.5 172.0312 C75.1094 172.125 74.9062 172.2969 74.9062 172.6406 C74.9062 172.9375 75.0625 173.1562 75.7188 173.2656 L77.4688 173.5781 Z" style="fill:black; stroke:none;"
      /><rect x="47" y="105" width="22" style="clip-path:url(#clipPath3); stroke:none;" height="22"
    /></g
    ><g style="fill:rgb(0,144,188); text-rendering:optimizeSpeed; font-size:14px; font-family:'SansSerif'; stroke:rgb(0,144,188);"
    ><rect x="47" y="105" width="22" style="clip-path:url(#clipPath3); stroke:none;" height="22"
      /><rect x="47" y="105" width="22" style="clip-path:url(#clipPath3); fill:none; stroke:black;" height="22"
      /><rect x="47" y="105" width="22" style="fill:none; stroke:black;" height="22"
      /><rect x="50" y="87" width="14" style="fill:white; stroke:none;" height="10"
      /><path d="M54.1094 92.5781 C55.3438 92.5781 55.9688 93.4688 55.9688 94.8438 C55.9688 96.25 55.1875 97.1875 54.2188 97.1875 C52.9219 97.1875 52.1562 96.0312 52 93.8906 C52.625 92.9531 53.4531 92.5781 54.1094 92.5781 ZM54.2188 98.1875 C55.8125 98.1875 57.1562 96.8438 57.1562 94.8438 C57.1562 92.7031 56.0469 91.625 54.3125 91.625 C53.5 91.625 52.6094 92.1094 51.9688 92.875 C52.0312 89.6875 53.2188 88.6094 54.625 88.6094 C55.25 88.6094 55.8594 88.9062 56.2656 89.3906 L56.9688 88.5938 C56.4062 87.9844 55.6406 87.5469 54.5781 87.5469 C52.5938 87.5469 50.7812 89.0781 50.7812 93.0938 C50.7812 96.4844 52.2344 98.1875 54.2188 98.1875 ZM62.02 98.1875 C64.1606 98.1875 65.5043 96.8906 65.5043 95.2656 C65.5043 93.75 64.5825 93.0469 63.395 92.5312 L61.9262 91.8906 C61.1293 91.5625 60.2387 91.1875 60.2387 90.1875 C60.2387 89.2656 60.9887 88.6719 62.145 88.6719 C63.0981 88.6719 63.8637 89.0469 64.4887 89.6406 L65.1762 88.8125 C64.4418 88.0625 63.3637 87.5469 62.145 87.5469 C60.2856 87.5469 58.9106 88.6875 58.9106 90.2656 C58.9106 91.7656 60.0512 92.5 61.0043 92.9062 L62.4887 93.5469 C63.4575 93.9844 64.1918 94.3125 64.1918 95.375 C64.1918 96.375 63.3793 97.0469 62.0356 97.0469 C60.9731 97.0469 59.9418 96.5469 59.2075 95.7812 L58.4262 96.6562 C59.3168 97.5938 60.5668 98.1875 62.02 98.1875 Z" style="fill:black; stroke:none;"
    /></g
    ><g style="fill:white; text-rendering:optimizeSpeed; font-family:'Serif'; stroke:white;"
    ><rect x="74" width="5" height="10" y="103" style="stroke:none;"
      /><path d="M75.8906 111.6875 C75.4844 111.6875 75.1562 112.0469 75.1562 112.4219 C75.1562 112.8125 75.4844 113.1562 75.8906 113.1562 C76.2969 113.1562 76.6406 112.8125 76.6406 112.4219 C76.6406 112.0469 76.2969 111.6875 75.8906 111.6875 ZM77.4688 105.5781 C77.7188 105.8906 77.875 106.2656 77.8906 106.6562 C77.8906 107.1875 77.625 107.5 77.0312 107.7656 L76.4062 108.0156 C75.6406 108.3125 75.3906 108.5469 75.3906 108.9375 C75.3906 109.1094 75.4531 109.3438 75.5781 109.8125 L75.7344 110.3438 L76.1094 110.3438 L76.0938 109.5312 C76.0938 109.0938 76.2031 108.9688 76.7812 108.7344 L77.2031 108.5625 C78.0312 108.2188 78.4531 107.6875 78.4531 106.8438 C78.4531 105.1562 76.6562 104.1875 75.5 104.0312 C75.1094 104.125 74.9062 104.2969 74.9062 104.6406 C74.9062 104.9375 75.0625 105.1562 75.7188 105.2656 L77.4688 105.5781 Z" style="fill:black; stroke:none;"
      /><rect x="74" width="5" height="10" y="119" style="stroke:none;"
      /><path d="M75.8906 127.6875 C75.4844 127.6875 75.1562 128.0469 75.1562 128.4219 C75.1562 128.8125 75.4844 129.1562 75.8906 129.1562 C76.2969 129.1562 76.6406 128.8125 76.6406 128.4219 C76.6406 128.0469 76.2969 127.6875 75.8906 127.6875 ZM77.4688 121.5781 C77.7188 121.8906 77.875 122.2656 77.8906 122.6562 C77.8906 123.1875 77.625 123.5 77.0312 123.7656 L76.4062 124.0156 C75.6406 124.3125 75.3906 124.5469 75.3906 124.9375 C75.3906 125.1094 75.4531 125.3438 75.5781 125.8125 L75.7344 126.3438 L76.1094 126.3438 L76.0938 125.5312 C76.0938 125.0938 76.2031 124.9688 76.7812 124.7344 L77.2031 124.5625 C78.0312 124.2188 78.4531 123.6875 78.4531 122.8438 C78.4531 121.1562 76.6562 120.1875 75.5 120.0312 C75.1094 120.125 74.9062 120.2969 74.9062 120.6406 C74.9062 120.9375 75.0625 121.1562 75.7188 121.2656 L77.4688 121.5781 Z" style="fill:black; stroke:none;"
      /><circle r="11" style="clip-path:url(#clipPath4); stroke:none;" cx="58" cy="41"
    /></g
    ><g style="fill:rgb(255,212,0); text-rendering:optimizeSpeed; font-size:14px; font-family:'SansSerif'; stroke:rgb(255,212,0);"
    ><rect x="47" y="30" width="22" style="clip-path:url(#clipPath4); stroke:none;" height="22"
      /><rect x="47" y="30" width="22" style="clip-path:url(#clipPath4); fill:none; stroke:black;" height="22"
      /><circle r="11" style="fill:none; stroke:black;" cx="58" cy="41"
    /></g
    ><g style="fill:white; text-rendering:optimizeSpeed; font-family:'Serif'; stroke:white;"
    ><rect x="74" width="5" height="10" y="28" style="stroke:none;"
      /><path d="M75.8906 36.6875 C75.4844 36.6875 75.1562 37.0469 75.1562 37.4219 C75.1562 37.8125 75.4844 38.1562 75.8906 38.1562 C76.2969 38.1562 76.6406 37.8125 76.6406 37.4219 C76.6406 37.0469 76.2969 36.6875 75.8906 36.6875 ZM77.4688 30.5781 C77.7188 30.8906 77.875 31.2656 77.8906 31.6562 C77.8906 32.1875 77.625 32.5 77.0312 32.7656 L76.4062 33.0156 C75.6406 33.3125 75.3906 33.5469 75.3906 33.9375 C75.3906 34.1094 75.4531 34.3438 75.5781 34.8125 L75.7344 35.3438 L76.1094 35.3438 L76.0938 34.5312 C76.0938 34.0938 76.2031 33.9688 76.7812 33.7344 L77.2031 33.5625 C78.0312 33.2188 78.4531 32.6875 78.4531 31.8438 C78.4531 30.1562 76.6562 29.1875 75.5 29.0312 C75.1094 29.125 74.9062 29.2969 74.9062 29.6406 C74.9062 29.9375 75.0625 30.1562 75.7188 30.2656 L77.4688 30.5781 Z" style="fill:black; stroke:none;"
      /><rect x="74" width="5" height="10" y="44" style="stroke:none;"
      /><path d="M75.8906 52.6875 C75.4844 52.6875 75.1562 53.0469 75.1562 53.4219 C75.1562 53.8125 75.4844 54.1562 75.8906 54.1562 C76.2969 54.1562 76.6406 53.8125 76.6406 53.4219 C76.6406 53.0469 76.2969 52.6875 75.8906 52.6875 ZM77.4688 46.5781 C77.7188 46.8906 77.875 47.2656 77.8906 47.6562 C77.8906 48.1875 77.625 48.5 77.0312 48.7656 L76.4062 49.0156 C75.6406 49.3125 75.3906 49.5469 75.3906 49.9375 C75.3906 50.1094 75.4531 50.3438 75.5781 50.8125 L75.7344 51.3438 L76.1094 51.3438 L76.0938 50.5312 C76.0938 50.0938 76.2031 49.9688 76.7812 49.7344 L77.2031 49.5625 C78.0312 49.2188 78.4531 48.6875 78.4531 47.8438 C78.4531 46.1562 76.6562 45.1875 75.5 45.0312 C75.1094 45.125 74.9062 45.2969 74.9062 45.6406 C74.9062 45.9375 75.0625 46.1562 75.7188 46.2656 L77.4688 46.5781 Z" style="fill:black; stroke:none;"
    /></g
    ><g style="text-rendering:optimizeSpeed; font-size:14px; font-family:'SansSerif';"
    ><path style="stroke:none;" d="M29.6094 46 L36.0625 46 L36.0625 44.8906 L33.2344 44.8906 C32.7031 44.8906 32.0781 44.9531 31.5469 44.9844 C33.9531 42.7031 35.5625 40.625 35.5625 38.5781 C35.5625 36.75 34.4219 35.5469 32.5781 35.5469 C31.2812 35.5469 30.4062 36.1406 29.5625 37.0469 L30.2969 37.7812 C30.8594 37.1094 31.5938 36.5938 32.4375 36.5938 C33.7031 36.5938 34.3125 37.4531 34.3125 38.625 C34.3125 40.3906 32.8438 42.4375 29.6094 45.25 L29.6094 46 ZM36.9731 46 L38.3168 46 L39.3481 44.2188 C39.6137 43.7656 39.8637 43.2969 40.1293 42.8594 L40.2075 42.8594 C40.4731 43.2969 40.7543 43.7656 41.0043 44.2188 L42.1293 46 L43.5356 46 L41.02 42.1562 L43.3325 38.3906 L42.0043 38.3906 L41.0668 40.0625 C40.8481 40.5 40.6137 40.9219 40.3793 41.3438 L40.3325 41.3438 C40.0668 40.9219 39.8012 40.5 39.5668 40.0625 L38.5512 38.3906 L37.1762 38.3906 L39.4887 42.0312 L36.9731 46 Z"
    /></g
  ></g
></svg
>
