<?xml version="1.0"?>
<!DOCTYPE svg PUBLIC '-//W3C//DTD SVG 1.0//EN'
          'http://www.w3.org/TR/2001/REC-SVG-20010904/DTD/svg10.dtd'>
<svg xmlns:xlink="http://www.w3.org/1999/xlink" style="fill-opacity:1; color-rendering:auto; color-interpolation:auto; text-rendering:auto; stroke:black; stroke-linecap:square; stroke-miterlimit:10; shape-rendering:auto; stroke-opacity:1; fill:black; stroke-dasharray:none; font-weight:normal; stroke-width:1; font-family:'Dialog'; font-style:normal; stroke-linejoin:miter; font-size:12px; stroke-dashoffset:0; image-rendering:auto;" viewBox="0 0 404 105" xmlns="http://www.w3.org/2000/svg"
><!--Generated by the Batik Graphics2D SVG Generator--><defs id="genericDefs"
  /><g
  ><defs id="defs1"
    ><clipPath clipPathUnits="userSpaceOnUse" id="clipPath1"
      ><path style="fill-rule:evenodd;" d="M308 53 L319 64 L308 75 L297 64 Z"
      /></clipPath
      ><clipPath clipPathUnits="userSpaceOnUse" id="clipPath2"
      ><path style="fill-rule:evenodd;" d="M254 53 L265 64 L254 75 L243 64 Z"
      /></clipPath
      ><clipPath clipPathUnits="userSpaceOnUse" id="clipPath3"
      ><path style="fill-rule:evenodd;" d="M202 53 L213 64 L202 75 L191 64 Z"
      /></clipPath
      ><clipPath clipPathUnits="userSpaceOnUse" id="clipPath4"
      ><path style="fill-rule:evenodd;" d="M150 53 L161 64 L150 75 L139 64 Z"
      /></clipPath
      ><clipPath clipPathUnits="userSpaceOnUse" id="clipPath5"
      ><path style="fill-rule:evenodd;" d="M98 53 L109 64 L98 75 L87 64 Z"
      /></clipPath
      ><clipPath clipPathUnits="userSpaceOnUse" id="clipPath6"
      ><path style="fill-rule:evenodd;" d="M43 53 L54 64 L43 75 L32 64 Z"
      /></clipPath
    ></defs
    ><g style="fill:white; text-rendering:optimizeSpeed; stroke:white;"
    ><rect x="0" width="404" height="105" y="0" style="stroke:none;"
      /><polygon style="fill:none; stroke:black;" points=" 363 64 308 64"
      /><path d="M363 53 C357.5 58.5 368.5 69.5 363 75" style="fill:none; stroke:black;"
      /><polygon style="fill:none; stroke:black;" points=" 308 64 254 64"
      /><polygon style="clip-path:url(#clipPath1); stroke:none;" points=" 308 53 319 64 308 75 297 64"
      /><rect x="297" y="53" width="22" style="clip-path:url(#clipPath1); fill:rgb(255,212,0); stroke:none;" height="11"
      /><rect x="297" y="53" width="22" style="clip-path:url(#clipPath1); fill:none; stroke:black;" height="11"
      /><polygon style="fill:none; stroke:black;" points=" 308 53 319 64 308 75 297 64"
      /><rect x="295" y="35" width="25" style="stroke:none;" height="10"
    /></g
    ><g style="text-rendering:optimizeSpeed; font-size:14px; font-family:'SansSerif';"
    ><path style="stroke:none;" d="M299.1094 40.5781 C300.3438 40.5781 300.9688 41.4688 300.9688 42.8438 C300.9688 44.25 300.1875 45.1875 299.2188 45.1875 C297.9219 45.1875 297.1562 44.0312 297 41.8906 C297.625 40.9531 298.4531 40.5781 299.1094 40.5781 ZM299.2188 46.1875 C300.8125 46.1875 302.1562 44.8438 302.1562 42.8438 C302.1562 40.7031 301.0469 39.625 299.3125 39.625 C298.5 39.625 297.6094 40.1094 296.9688 40.875 C297.0312 37.6875 298.2188 36.6094 299.625 36.6094 C300.25 36.6094 300.8594 36.9062 301.2656 37.3906 L301.9688 36.5938 C301.4062 35.9844 300.6406 35.5469 299.5781 35.5469 C297.5938 35.5469 295.7812 37.0781 295.7812 41.0938 C295.7812 44.4844 297.2344 46.1875 299.2188 46.1875 ZM304.1762 46 L305.3481 46 L305.3481 40.3125 C305.3481 39.4375 305.2543 38.1875 305.1918 37.2969 L305.2543 37.2969 L306.0668 39.625 L308.0043 44.9688 L308.8793 44.9688 L310.8168 39.625 L311.6293 37.2969 L311.6918 37.2969 C311.6137 38.1875 311.52 39.4375 311.52 40.3125 L311.52 46 L312.7387 46 L312.7387 35.7188 L311.1762 35.7188 L309.2075 41.2188 C308.9731 41.9375 308.7543 42.6562 308.5043 43.375 L308.4418 43.375 C308.1918 42.6562 307.9575 41.9375 307.7075 41.2188 L305.7387 35.7188 L304.1762 35.7188 L304.1762 46 ZM318.4973 46.1875 C319.5286 46.1875 320.3411 45.8281 321.0129 45.3906 L320.5442 44.5625 C319.9973 44.9375 319.3879 45.1562 318.6536 45.1562 C317.2004 45.1562 316.2161 44.125 316.1223 42.5 L321.2473 42.5 C321.2786 42.3125 321.3098 42.0469 321.3098 41.7656 C321.3098 39.6094 320.2161 38.2031 318.2786 38.2031 C316.5129 38.2031 314.8567 39.7344 314.8567 42.2031 C314.8567 44.7188 316.4817 46.1875 318.4973 46.1875 ZM316.1067 41.5781 C316.2629 40.0938 317.2161 39.2188 318.2942 39.2188 C319.4817 39.2188 320.1848 40.0469 320.1848 41.5781 L316.1067 41.5781 Z"
      /><polygon style="fill:none;" points=" 254 64 202 64"
    /></g
    ><g style="fill:white; text-rendering:optimizeSpeed; stroke:white;"
    ><polygon style="stroke:none; clip-path:url(#clipPath2);" points=" 254 53 265 64 254 75 243 64"
      /><rect x="243" y="53" width="22" style="clip-path:url(#clipPath2); fill:rgb(255,212,0); stroke:none;" height="11"
      /><rect x="243" y="53" width="22" style="clip-path:url(#clipPath2); fill:none; stroke:black;" height="11"
      /><polygon style="fill:none; stroke:black;" points=" 254 53 265 64 254 75 243 64"
      /><polygon style="fill:none; stroke:black;" points=" 202 64 150 64"
      /><polygon style="clip-path:url(#clipPath3); stroke:none;" points=" 202 53 213 64 202 75 191 64"
      /><rect x="191" y="53" width="22" style="clip-path:url(#clipPath3); fill:rgb(255,212,0); stroke:none;" height="11"
      /><rect x="191" y="53" width="22" style="clip-path:url(#clipPath3); fill:none; stroke:black;" height="11"
      /><polygon style="fill:none; stroke:black;" points=" 202 53 213 64 202 75 191 64"
      /><polygon style="fill:none; stroke:black;" points=" 150 64 98 64"
      /><polygon style="clip-path:url(#clipPath4); stroke:none;" points=" 150 53 161 64 150 75 139 64"
      /><rect x="139" y="53" width="22" style="clip-path:url(#clipPath4); fill:rgb(255,212,0); stroke:none;" height="11"
      /><rect x="139" y="53" width="22" style="clip-path:url(#clipPath4); fill:none; stroke:black;" height="11"
      /><polygon style="fill:none; stroke:black;" points=" 150 53 161 64 150 75 139 64"
      /><polygon style="fill:none; stroke:black;" points=" 98 64 43 64"
      /><polygon style="clip-path:url(#clipPath5); stroke:none;" points=" 98 53 109 64 98 75 87 64"
      /><rect x="87" y="53" width="22" style="clip-path:url(#clipPath5); fill:rgb(255,212,0); stroke:none;" height="11"
      /><rect x="87" y="53" width="22" style="clip-path:url(#clipPath5); fill:none; stroke:black;" height="11"
      /><polygon style="fill:none; stroke:black;" points=" 98 53 109 64 98 75 87 64"
      /><polygon style="clip-path:url(#clipPath6); stroke:none;" points=" 43 53 54 64 43 75 32 64"
      /><rect x="32" y="53" width="22" style="clip-path:url(#clipPath6); fill:rgb(255,212,0); stroke:none;" height="11"
      /><rect x="32" y="53" width="22" style="clip-path:url(#clipPath6); fill:none; stroke:black;" height="11"
      /><polygon style="fill:none; stroke:black;" points=" 43 53 54 64 43 75 32 64"
      /><rect x="30" width="25" height="10" y="35" style="stroke:none;"
    /></g
    ><g style="text-rendering:optimizeSpeed; font-size:14px; font-family:'SansSerif';"
    ><path style="stroke:none;" d="M34.1094 40.5781 C35.3438 40.5781 35.9688 41.4688 35.9688 42.8438 C35.9688 44.25 35.1875 45.1875 34.2188 45.1875 C32.9219 45.1875 32.1562 44.0312 32 41.8906 C32.625 40.9531 33.4531 40.5781 34.1094 40.5781 ZM34.2188 46.1875 C35.8125 46.1875 37.1562 44.8438 37.1562 42.8438 C37.1562 40.7031 36.0469 39.625 34.3125 39.625 C33.5 39.625 32.6094 40.1094 31.9688 40.875 C32.0312 37.6875 33.2188 36.6094 34.625 36.6094 C35.25 36.6094 35.8594 36.9062 36.2656 37.3906 L36.9688 36.5938 C36.4062 35.9844 35.6406 35.5469 34.5781 35.5469 C32.5938 35.5469 30.7812 37.0781 30.7812 41.0938 C30.7812 44.4844 32.2344 46.1875 34.2188 46.1875 ZM39.1762 46 L40.3481 46 L40.3481 40.3125 C40.3481 39.4375 40.2543 38.1875 40.1918 37.2969 L40.2543 37.2969 L41.0668 39.625 L43.0043 44.9688 L43.8793 44.9688 L45.8168 39.625 L46.6293 37.2969 L46.6918 37.2969 C46.6137 38.1875 46.52 39.4375 46.52 40.3125 L46.52 46 L47.7387 46 L47.7387 35.7188 L46.1762 35.7188 L44.2075 41.2188 C43.9731 41.9375 43.7543 42.6562 43.5043 43.375 L43.4418 43.375 C43.1918 42.6562 42.9575 41.9375 42.7075 41.2188 L40.7387 35.7188 L39.1762 35.7188 L39.1762 46 ZM53.4973 46.1875 C54.5285 46.1875 55.341 45.8281 56.0129 45.3906 L55.5442 44.5625 C54.9973 44.9375 54.3879 45.1562 53.6535 45.1562 C52.2004 45.1562 51.216 44.125 51.1223 42.5 L56.2473 42.5 C56.2785 42.3125 56.3098 42.0469 56.3098 41.7656 C56.3098 39.6094 55.216 38.2031 53.2785 38.2031 C51.5129 38.2031 49.8567 39.7344 49.8567 42.2031 C49.8567 44.7188 51.4817 46.1875 53.4973 46.1875 ZM51.1067 41.5781 C51.2629 40.0938 52.216 39.2188 53.2942 39.2188 C54.4817 39.2188 55.1848 40.0469 55.1848 41.5781 L51.1067 41.5781 Z"
    /></g
    ><g style="fill:white; text-rendering:optimizeSpeed; font-family:'Serif'; stroke:white;"
    ><rect x="75" width="7" height="9" y="67" style="stroke:none;"
      /><path d="M76 72.5156 L78.9531 68.2656 L78.9531 72.5156 L76 72.5156 ZM81.2812 72.5156 L79.8594 72.5156 L79.8594 67.125 L79.2344 67.125 L75.3438 72.6406 L75.3438 73.1875 L78.9531 73.1875 L78.9531 76 L79.8594 76 L79.8594 73.1875 L81.2812 73.1875 L81.2812 72.5156 Z" style="fill:black; stroke:none;"
      /><rect x="61" width="8" height="8" y="68" style="stroke:none;"
      /><path d="M65.9844 73.7031 C65.9375 74.8906 65.1562 75.6562 64.3125 75.6562 C63.2656 75.6562 62.5 74.6875 62.5 72.7188 C62.5 71.2812 63.1562 70.1562 64.3438 70.1562 C65.1406 70.1562 65.7812 70.6875 66.0938 71.6406 L65.9844 73.7031 ZM67.9062 75.2812 C67.7344 75.375 67.5469 75.4219 67.3438 75.4219 C66.9531 75.4219 66.75 75.2188 66.75 74.4219 C66.75 73.4844 66.9688 71.5312 67.1875 69.8281 L67.0312 69.7188 L66.2344 69.9219 L66.1406 70.7969 C65.7812 70.0312 65.1562 69.6562 64.3906 69.6562 C63.0469 69.6562 61.5625 70.8438 61.5625 72.9531 C61.5625 75.0938 62.7188 76.1719 64.1406 76.1719 C65.0156 76.1719 65.6875 75.8125 66.0938 74.9844 C66.2031 75.8594 66.5156 76.1719 67.0156 76.1719 C67.4688 76.1719 67.7969 75.9062 68.0156 75.5625 L67.9062 75.2812 Z" style="fill:black; stroke:none;"
      /><rect x="127" width="7" height="9" y="67" style="stroke:none;"
      /><path d="M128 72.5156 L130.9531 68.2656 L130.9531 72.5156 L128 72.5156 ZM133.2812 72.5156 L131.8594 72.5156 L131.8594 67.125 L131.2344 67.125 L127.3438 72.6406 L127.3438 73.1875 L130.9531 73.1875 L130.9531 76 L131.8594 76 L131.8594 73.1875 L133.2812 73.1875 L133.2812 72.5156 Z" style="fill:black; stroke:none;"
      /><rect x="114" width="6" height="13" y="65" style="stroke:none;"
      /><path d="M116.0938 71.2031 C116.0938 69.6562 116.75 68.8125 117.7969 68.8125 C118.7188 68.8125 119.2656 69.4531 119.2656 70.5156 C119.2656 71.7188 118.5 72.4375 117.1875 72.7031 L117.2969 73.3125 C119.2188 73.2344 119.9375 74.2188 119.9375 75.4375 C119.9375 76.625 119.2344 77.4219 117.9531 77.4219 C117.25 77.4219 116.6562 77.1562 116.0938 76.7188 L116.0938 71.2031 ZM115.2031 77.9062 L115.1094 80.375 L115.2656 80.4844 L116.1562 80.2656 L116.0156 77.0938 C116.5469 77.8438 117.3594 78.1719 118.1719 78.1719 C119.5625 78.1719 120.8594 77.2188 120.8594 75.4844 C120.8594 73.9531 119.875 73.1094 118.125 73 C119.5625 72.6094 120.1875 71.4531 120.1875 70.4844 C120.1875 69.0938 119.1562 68.3125 117.9062 68.3125 C116.2969 68.3125 115.2188 69.5469 115.2188 71.5156 L115.2031 77.9062 Z" style="fill:black; stroke:none;"
      /><rect x="179" width="7" height="9" y="67" style="stroke:none;"
      /><path d="M180 72.5156 L182.9531 68.2656 L182.9531 72.5156 L180 72.5156 ZM185.2812 72.5156 L183.8594 72.5156 L183.8594 67.125 L183.2344 67.125 L179.3438 72.6406 L179.3438 73.1875 L182.9531 73.1875 L182.9531 76 L183.8594 76 L183.8594 73.1875 L185.2812 73.1875 L185.2812 72.5156 Z" style="fill:black; stroke:none;"
      /><rect x="165" width="8" height="8" y="68" style="stroke:none;"
      /><path d="M169.9844 73.7031 C169.9375 74.8906 169.1562 75.6562 168.3125 75.6562 C167.2656 75.6562 166.5 74.6875 166.5 72.7188 C166.5 71.2812 167.1562 70.1562 168.3438 70.1562 C169.1406 70.1562 169.7812 70.6875 170.0938 71.6406 L169.9844 73.7031 ZM171.9062 75.2812 C171.7344 75.375 171.5469 75.4219 171.3438 75.4219 C170.9531 75.4219 170.75 75.2188 170.75 74.4219 C170.75 73.4844 170.9688 71.5312 171.1875 69.8281 L171.0312 69.7188 L170.2344 69.9219 L170.1406 70.7969 C169.7812 70.0312 169.1562 69.6562 168.3906 69.6562 C167.0469 69.6562 165.5625 70.8438 165.5625 72.9531 C165.5625 75.0938 166.7188 76.1719 168.1406 76.1719 C169.0156 76.1719 169.6875 75.8125 170.0938 74.9844 C170.2031 75.8594 170.5156 76.1719 171.0156 76.1719 C171.4688 76.1719 171.7969 75.9062 172.0156 75.5625 L171.9062 75.2812 Z" style="fill:black; stroke:none;"
      /><rect x="231" width="7" height="9" y="67" style="stroke:none;"
      /><path d="M232 72.5156 L234.9531 68.2656 L234.9531 72.5156 L232 72.5156 ZM237.2812 72.5156 L235.8594 72.5156 L235.8594 67.125 L235.2344 67.125 L231.3438 72.6406 L231.3438 73.1875 L234.9531 73.1875 L234.9531 76 L235.8594 76 L235.8594 73.1875 L237.2812 73.1875 L237.2812 72.5156 Z" style="fill:black; stroke:none;"
      /><rect x="217" width="8" height="8" y="68" style="stroke:none;"
      /><path d="M221.9844 73.7031 C221.9375 74.8906 221.1562 75.6562 220.3125 75.6562 C219.2656 75.6562 218.5 74.6875 218.5 72.7188 C218.5 71.2812 219.1562 70.1562 220.3438 70.1562 C221.1406 70.1562 221.7812 70.6875 222.0938 71.6406 L221.9844 73.7031 ZM223.9062 75.2812 C223.7344 75.375 223.5469 75.4219 223.3438 75.4219 C222.9531 75.4219 222.75 75.2188 222.75 74.4219 C222.75 73.4844 222.9688 71.5312 223.1875 69.8281 L223.0312 69.7188 L222.2344 69.9219 L222.1406 70.7969 C221.7812 70.0312 221.1562 69.6562 220.3906 69.6562 C219.0469 69.6562 217.5625 70.8438 217.5625 72.9531 C217.5625 75.0938 218.7188 76.1719 220.1406 76.1719 C221.0156 76.1719 221.6875 75.8125 222.0938 74.9844 C222.2031 75.8594 222.5156 76.1719 223.0156 76.1719 C223.4688 76.1719 223.7969 75.9062 224.0156 75.5625 L223.9062 75.2812 Z" style="fill:black; stroke:none;"
      /><rect x="283" width="7" height="9" y="67" style="stroke:none;"
      /><path d="M284 72.5156 L286.9531 68.2656 L286.9531 72.5156 L284 72.5156 ZM289.2812 72.5156 L287.8594 72.5156 L287.8594 67.125 L287.2344 67.125 L283.3438 72.6406 L283.3438 73.1875 L286.9531 73.1875 L286.9531 76 L287.8594 76 L287.8594 73.1875 L289.2812 73.1875 L289.2812 72.5156 Z" style="fill:black; stroke:none;"
      /><rect x="269" width="8" height="8" y="68" style="stroke:none;"
      /><path d="M273.9844 73.7031 C273.9375 74.8906 273.1562 75.6562 272.3125 75.6562 C271.2656 75.6562 270.5 74.6875 270.5 72.7188 C270.5 71.2812 271.1562 70.1562 272.3438 70.1562 C273.1406 70.1562 273.7812 70.6875 274.0938 71.6406 L273.9844 73.7031 ZM275.9062 75.2812 C275.7344 75.375 275.5469 75.4219 275.3438 75.4219 C274.9531 75.4219 274.75 75.2188 274.75 74.4219 C274.75 73.4844 274.9688 71.5312 275.1875 69.8281 L275.0312 69.7188 L274.2344 69.9219 L274.1406 70.7969 C273.7812 70.0312 273.1562 69.6562 272.3906 69.6562 C271.0469 69.6562 269.5625 70.8438 269.5625 72.9531 C269.5625 75.0938 270.7188 76.1719 272.1406 76.1719 C273.0156 76.1719 273.6875 75.8125 274.0938 74.9844 C274.2031 75.8594 274.5156 76.1719 275.0156 76.1719 C275.4688 76.1719 275.7969 75.9062 276.0156 75.5625 L275.9062 75.2812 Z" style="fill:black; stroke:none;"
      /><rect x="326" width="8" height="8" y="68" style="stroke:none;"
      /><path d="M330.9844 73.7031 C330.9375 74.8906 330.1562 75.6562 329.3125 75.6562 C328.2656 75.6562 327.5 74.6875 327.5 72.7188 C327.5 71.2812 328.1562 70.1562 329.3438 70.1562 C330.1406 70.1562 330.7812 70.6875 331.0938 71.6406 L330.9844 73.7031 ZM332.9062 75.2812 C332.7344 75.375 332.5469 75.4219 332.3438 75.4219 C331.9531 75.4219 331.75 75.2188 331.75 74.4219 C331.75 73.4844 331.9688 71.5312 332.1875 69.8281 L332.0312 69.7188 L331.2344 69.9219 L331.1406 70.7969 C330.7812 70.0312 330.1562 69.6562 329.3906 69.6562 C328.0469 69.6562 326.5625 70.8438 326.5625 72.9531 C326.5625 75.0938 327.7188 76.1719 329.1406 76.1719 C330.0156 76.1719 330.6875 75.8125 331.0938 74.9844 C331.2031 75.8594 331.5156 76.1719 332.0156 76.1719 C332.4688 76.1719 332.7969 75.9062 333.0156 75.5625 L332.9062 75.2812 Z" style="fill:black; stroke:none;"
    /></g
  ></g
></svg
>
