<?xml version="1.0"?>
<!DOCTYPE svg PUBLIC '-//W3C//DTD SVG 1.0//EN'
          'http://www.w3.org/TR/2001/REC-SVG-20010904/DTD/svg10.dtd'>
<svg xmlns:xlink="http://www.w3.org/1999/xlink" style="fill-opacity:1; color-rendering:auto; color-interpolation:auto; text-rendering:auto; stroke:black; stroke-linecap:square; stroke-miterlimit:10; shape-rendering:auto; stroke-opacity:1; fill:black; stroke-dasharray:none; font-weight:normal; stroke-width:1; font-family:'Dialog'; font-style:normal; stroke-linejoin:miter; font-size:12px; stroke-dashoffset:0; image-rendering:auto;" viewBox="0 0 567 128" xmlns="http://www.w3.org/2000/svg"
><!--Generated by the Batik Graphics2D SVG Generator--><defs id="genericDefs"
  /><g
  ><defs id="defs1"
    ><clipPath clipPathUnits="userSpaceOnUse" id="clipPath1"
      ><path style="fill-rule:evenodd;" d="M474 53 L485 64 L474 75 L463 64 Z"
      /></clipPath
      ><clipPath clipPathUnits="userSpaceOnUse" id="clipPath2"
      ><path d="M421 64 C421 70.0751 416.0751 75 410 75 C403.9249 75 399 70.0751 399 64 C399 57.9249 403.9249 53 410 53 C416.0751 53 421 57.9249 421 64 Z"
      /></clipPath
      ><clipPath clipPathUnits="userSpaceOnUse" id="clipPath3"
      ><path style="fill-rule:evenodd;" d="M347 53 L358 64 L347 75 L336 64 Z"
      /></clipPath
      ><clipPath clipPathUnits="userSpaceOnUse" id="clipPath4"
      ><path d="M294 64 C294 70.0751 289.0751 75 283 75 C276.9249 75 272 70.0751 272 64 C272 57.9249 276.9249 53 283 53 C289.0751 53 294 57.9249 294 64 Z"
      /></clipPath
      ><clipPath clipPathUnits="userSpaceOnUse" id="clipPath5"
      ><path style="fill-rule:evenodd;" d="M220 53 L231 64 L220 75 L209 64 Z"
      /></clipPath
      ><clipPath clipPathUnits="userSpaceOnUse" id="clipPath6"
      ><path d="M167 64 C167 70.0751 162.0751 75 156 75 C149.9249 75 145 70.0751 145 64 C145 57.9249 149.9249 53 156 53 C162.0751 53 167 57.9249 167 64 Z"
      /></clipPath
      ><clipPath clipPathUnits="userSpaceOnUse" id="clipPath7"
      ><path style="fill-rule:evenodd;" d="M93 53 L104 64 L93 75 L82 64 Z"
      /></clipPath
      ><clipPath clipPathUnits="userSpaceOnUse" id="clipPath8"
      ><path d="M52 64 C52 70.0751 47.0751 75 41 75 C34.9249 75 30 70.0751 30 64 C30 57.9249 34.9249 53 41 53 C47.0751 53 52 57.9249 52 64 Z"
      /></clipPath
    ></defs
    ><g style="fill:white; text-rendering:optimizeSpeed; stroke:white;"
    ><rect x="0" width="567" height="128" y="0" style="stroke:none;"
      /><polygon style="fill:none; stroke:black;" points=" 526 64 474 64"
      /><path d="M526 53 C520.5 58.5 531.5 69.5 526 75" style="fill:none; stroke:black;"
      /><polygon style="fill:none; stroke:black;" points=" 474 64 410 64"
      /><polygon style="clip-path:url(#clipPath1); stroke:none;" points=" 474 53 485 64 474 75 463 64"
      /><rect x="463" y="64" width="22" style="clip-path:url(#clipPath1); fill:rgb(161,122,77); stroke:none;" height="11"
      /><rect x="463" y="64" width="22" style="clip-path:url(#clipPath1); fill:none; stroke:black;" height="11"
      /><polygon style="fill:none; stroke:black;" points=" 474 53 485 64 474 75 463 64"
      /><rect x="466" y="81" width="14" style="stroke:none;" height="10"
    /></g
    ><g style="text-rendering:optimizeSpeed; font-size:14px; font-family:'SansSerif';"
    ><path style="stroke:none;" d="M466.6094 92 L473.0625 92 L473.0625 90.8906 L470.2344 90.8906 C469.7031 90.8906 469.0781 90.9531 468.5469 90.9844 C470.9531 88.7031 472.5625 86.625 472.5625 84.5781 C472.5625 82.75 471.4219 81.5469 469.5781 81.5469 C468.2812 81.5469 467.4062 82.1406 466.5625 83.0469 L467.2969 83.7812 C467.8594 83.1094 468.5938 82.5938 469.4375 82.5938 C470.7031 82.5938 471.3125 83.4531 471.3125 84.625 C471.3125 86.3906 469.8438 88.4375 466.6094 91.25 L466.6094 92 ZM478.02 92.1875 C480.1606 92.1875 481.5043 90.8906 481.5043 89.2656 C481.5043 87.75 480.5825 87.0469 479.395 86.5312 L477.9262 85.8906 C477.1293 85.5625 476.2387 85.1875 476.2387 84.1875 C476.2387 83.2656 476.9887 82.6719 478.145 82.6719 C479.0981 82.6719 479.8637 83.0469 480.4887 83.6406 L481.1762 82.8125 C480.4418 82.0625 479.3637 81.5469 478.145 81.5469 C476.2856 81.5469 474.9106 82.6875 474.9106 84.2656 C474.9106 85.7656 476.0512 86.5 477.0043 86.9062 L478.4887 87.5469 C479.4575 87.9844 480.1918 88.3125 480.1918 89.375 C480.1918 90.375 479.3793 91.0469 478.0356 91.0469 C476.9731 91.0469 475.9418 90.5469 475.2075 89.7812 L474.4262 90.6562 C475.3168 91.5938 476.5668 92.1875 478.02 92.1875 Z"
      /><polygon style="fill:none;" points=" 410 64 347 64"
    /></g
    ><g style="fill:white; text-rendering:optimizeSpeed; stroke:white;"
    ><circle r="11" style="clip-path:url(#clipPath2); stroke:none;" cx="410" cy="64"
      /><rect x="399" y="53" width="22" style="clip-path:url(#clipPath2); fill:rgb(0,144,188); stroke:none;" height="22"
      /><rect x="399" y="53" width="22" style="clip-path:url(#clipPath2); fill:none; stroke:black;" height="22"
      /><circle r="11" style="fill:none; stroke:black;" cx="410" cy="64"
      /><rect x="391" width="14" height="10" y="35" style="stroke:none;"
    /></g
    ><g style="text-rendering:optimizeSpeed; font-size:14px; font-family:'SansSerif';"
    ><path style="stroke:none;" d="M393.4844 42.9062 L394.625 42.9062 C394.375 40.7031 396.8906 39.875 396.8906 37.8281 C396.8906 36.2969 395.8594 35.3281 394.2812 35.3281 C393.1406 35.3281 392.25 35.875 391.6094 36.625 L392.3281 37.2969 C392.8125 36.7344 393.4375 36.3906 394.1406 36.3906 C395.125 36.3906 395.6406 37.0625 395.6406 37.9062 C395.6406 39.5781 393.1719 40.4688 393.4844 42.9062 ZM394.0938 46.1875 C394.6094 46.1875 395.0312 45.7969 395.0312 45.2188 C395.0312 44.625 394.6094 44.2188 394.0938 44.2188 C393.5938 44.2188 393.1719 44.625 393.1719 45.2188 C393.1719 45.7969 393.5938 46.1875 394.0938 46.1875 ZM399.0422 46 L400.261 46 L400.261 40.6094 C400.261 39.5312 400.1672 38.4375 400.1204 37.4062 L400.1672 37.4062 L401.2766 39.5156 L405.011 46 L406.3391 46 L406.3391 35.7188 L405.1047 35.7188 L405.1047 41.0781 C405.1047 42.1406 405.2141 43.2812 405.2766 44.3125 L405.2141 44.3125 L404.1204 42.2031 L400.386 35.7188 L399.0422 35.7188 L399.0422 46 Z"
      /><rect x="402" y="81" width="14" style="fill:white; stroke:none;" height="10"
      /><path style="stroke:none;" d="M402.6094 92 L409.0625 92 L409.0625 90.8906 L406.2344 90.8906 C405.7031 90.8906 405.0781 90.9531 404.5469 90.9844 C406.9531 88.7031 408.5625 86.625 408.5625 84.5781 C408.5625 82.75 407.4219 81.5469 405.5781 81.5469 C404.2812 81.5469 403.4062 82.1406 402.5625 83.0469 L403.2969 83.7812 C403.8594 83.1094 404.5938 82.5938 405.4375 82.5938 C406.7031 82.5938 407.3125 83.4531 407.3125 84.625 C407.3125 86.3906 405.8438 88.4375 402.6094 91.25 L402.6094 92 ZM414.02 92.1875 C416.1606 92.1875 417.5043 90.8906 417.5043 89.2656 C417.5043 87.75 416.5825 87.0469 415.395 86.5312 L413.9262 85.8906 C413.1293 85.5625 412.2387 85.1875 412.2387 84.1875 C412.2387 83.2656 412.9887 82.6719 414.145 82.6719 C415.0981 82.6719 415.8637 83.0469 416.4887 83.6406 L417.1762 82.8125 C416.4418 82.0625 415.3637 81.5469 414.145 81.5469 C412.2856 81.5469 410.9106 82.6875 410.9106 84.2656 C410.9106 85.7656 412.0512 86.5 413.0043 86.9062 L414.4887 87.5469 C415.4575 87.9844 416.1918 88.3125 416.1918 89.375 C416.1918 90.375 415.3793 91.0469 414.0356 91.0469 C412.9731 91.0469 411.9418 90.5469 411.2075 89.7812 L410.4262 90.6562 C411.3168 91.5938 412.5668 92.1875 414.02 92.1875 Z"
      /><rect x="414" y="35" width="14" style="fill:white; stroke:none;" height="10"
      /><path style="stroke:none;" d="M418.1094 40.5781 C419.3438 40.5781 419.9688 41.4688 419.9688 42.8438 C419.9688 44.25 419.1875 45.1875 418.2188 45.1875 C416.9219 45.1875 416.1562 44.0312 416 41.8906 C416.625 40.9531 417.4531 40.5781 418.1094 40.5781 ZM418.2188 46.1875 C419.8125 46.1875 421.1562 44.8438 421.1562 42.8438 C421.1562 40.7031 420.0469 39.625 418.3125 39.625 C417.5 39.625 416.6094 40.1094 415.9688 40.875 C416.0312 37.6875 417.2188 36.6094 418.625 36.6094 C419.25 36.6094 419.8594 36.9062 420.2656 37.3906 L420.9688 36.5938 C420.4062 35.9844 419.6406 35.5469 418.5781 35.5469 C416.5938 35.5469 414.7812 37.0781 414.7812 41.0938 C414.7812 44.4844 416.2344 46.1875 418.2188 46.1875 ZM426.02 46.1875 C428.1606 46.1875 429.5043 44.8906 429.5043 43.2656 C429.5043 41.75 428.5825 41.0469 427.395 40.5312 L425.9262 39.8906 C425.1293 39.5625 424.2387 39.1875 424.2387 38.1875 C424.2387 37.2656 424.9887 36.6719 426.145 36.6719 C427.0981 36.6719 427.8637 37.0469 428.4887 37.6406 L429.1762 36.8125 C428.4418 36.0625 427.3637 35.5469 426.145 35.5469 C424.2856 35.5469 422.9106 36.6875 422.9106 38.2656 C422.9106 39.7656 424.0512 40.5 425.0043 40.9062 L426.4887 41.5469 C427.4575 41.9844 428.1918 42.3125 428.1918 43.375 C428.1918 44.375 427.3793 45.0469 426.0356 45.0469 C424.9731 45.0469 423.9418 44.5469 423.2075 43.7812 L422.4262 44.6562 C423.3168 45.5938 424.5668 46.1875 426.02 46.1875 Z"
      /><polygon style="fill:none;" points=" 347 64 283 64"
    /></g
    ><g style="fill:white; text-rendering:optimizeSpeed; stroke:white;"
    ><polygon style="stroke:none; clip-path:url(#clipPath3);" points=" 347 53 358 64 347 75 336 64"
      /><rect x="336" y="64" width="22" style="clip-path:url(#clipPath3); fill:rgb(161,122,77); stroke:none;" height="11"
      /><rect x="336" y="64" width="22" style="clip-path:url(#clipPath3); fill:none; stroke:black;" height="11"
      /><polygon style="fill:none; stroke:black;" points=" 347 53 358 64 347 75 336 64"
      /><rect x="339" width="14" height="10" y="81" style="stroke:none;"
    /></g
    ><g style="text-rendering:optimizeSpeed; font-size:14px; font-family:'SansSerif';"
    ><path style="stroke:none;" d="M339.6094 92 L346.0625 92 L346.0625 90.8906 L343.2344 90.8906 C342.7031 90.8906 342.0781 90.9531 341.5469 90.9844 C343.9531 88.7031 345.5625 86.625 345.5625 84.5781 C345.5625 82.75 344.4219 81.5469 342.5781 81.5469 C341.2812 81.5469 340.4062 82.1406 339.5625 83.0469 L340.2969 83.7812 C340.8594 83.1094 341.5938 82.5938 342.4375 82.5938 C343.7031 82.5938 344.3125 83.4531 344.3125 84.625 C344.3125 86.3906 342.8438 88.4375 339.6094 91.25 L339.6094 92 ZM351.02 92.1875 C353.1606 92.1875 354.5043 90.8906 354.5043 89.2656 C354.5043 87.75 353.5825 87.0469 352.395 86.5312 L350.9262 85.8906 C350.1293 85.5625 349.2387 85.1875 349.2387 84.1875 C349.2387 83.2656 349.9887 82.6719 351.145 82.6719 C352.0981 82.6719 352.8637 83.0469 353.4887 83.6406 L354.1762 82.8125 C353.4418 82.0625 352.3637 81.5469 351.145 81.5469 C349.2856 81.5469 347.9106 82.6875 347.9106 84.2656 C347.9106 85.7656 349.0512 86.5 350.0043 86.9062 L351.4887 87.5469 C352.4575 87.9844 353.1918 88.3125 353.1918 89.375 C353.1918 90.375 352.3793 91.0469 351.0356 91.0469 C349.9731 91.0469 348.9418 90.5469 348.2075 89.7812 L347.4262 90.6562 C348.3168 91.5938 349.5668 92.1875 351.02 92.1875 Z"
      /><polygon style="fill:none;" points=" 283 64 220 64"
    /></g
    ><g style="fill:white; text-rendering:optimizeSpeed; stroke:white;"
    ><circle r="11" style="clip-path:url(#clipPath4); stroke:none;" cx="283" cy="64"
      /><rect x="272" y="53" width="22" style="clip-path:url(#clipPath4); fill:rgb(0,144,188); stroke:none;" height="22"
      /><rect x="272" y="53" width="22" style="clip-path:url(#clipPath4); fill:none; stroke:black;" height="22"
      /><circle r="11" style="fill:none; stroke:black;" cx="283" cy="64"
      /><rect x="264" width="14" height="10" y="35" style="stroke:none;"
    /></g
    ><g style="text-rendering:optimizeSpeed; font-size:14px; font-family:'SansSerif';"
    ><path style="stroke:none;" d="M266.4844 42.9062 L267.625 42.9062 C267.375 40.7031 269.8906 39.875 269.8906 37.8281 C269.8906 36.2969 268.8594 35.3281 267.2812 35.3281 C266.1406 35.3281 265.25 35.875 264.6094 36.625 L265.3281 37.2969 C265.8125 36.7344 266.4375 36.3906 267.1406 36.3906 C268.125 36.3906 268.6406 37.0625 268.6406 37.9062 C268.6406 39.5781 266.1719 40.4688 266.4844 42.9062 ZM267.0938 46.1875 C267.6094 46.1875 268.0312 45.7969 268.0312 45.2188 C268.0312 44.625 267.6094 44.2188 267.0938 44.2188 C266.5938 44.2188 266.1719 44.625 266.1719 45.2188 C266.1719 45.7969 266.5938 46.1875 267.0938 46.1875 ZM272.0422 46 L273.261 46 L273.261 40.6094 C273.261 39.5312 273.1672 38.4375 273.1204 37.4062 L273.1672 37.4062 L274.2766 39.5156 L278.011 46 L279.3391 46 L279.3391 35.7188 L278.1047 35.7188 L278.1047 41.0781 C278.1047 42.1406 278.2141 43.2812 278.2766 44.3125 L278.2141 44.3125 L277.1204 42.2031 L273.386 35.7188 L272.0422 35.7188 L272.0422 46 Z"
      /><rect x="275" y="81" width="14" style="fill:white; stroke:none;" height="10"
      /><path style="stroke:none;" d="M275.6094 92 L282.0625 92 L282.0625 90.8906 L279.2344 90.8906 C278.7031 90.8906 278.0781 90.9531 277.5469 90.9844 C279.9531 88.7031 281.5625 86.625 281.5625 84.5781 C281.5625 82.75 280.4219 81.5469 278.5781 81.5469 C277.2812 81.5469 276.4062 82.1406 275.5625 83.0469 L276.2969 83.7812 C276.8594 83.1094 277.5938 82.5938 278.4375 82.5938 C279.7031 82.5938 280.3125 83.4531 280.3125 84.625 C280.3125 86.3906 278.8438 88.4375 275.6094 91.25 L275.6094 92 ZM287.02 92.1875 C289.1606 92.1875 290.5043 90.8906 290.5043 89.2656 C290.5043 87.75 289.5825 87.0469 288.395 86.5312 L286.9262 85.8906 C286.1293 85.5625 285.2387 85.1875 285.2387 84.1875 C285.2387 83.2656 285.9887 82.6719 287.145 82.6719 C288.0981 82.6719 288.8637 83.0469 289.4887 83.6406 L290.1762 82.8125 C289.4418 82.0625 288.3637 81.5469 287.145 81.5469 C285.2856 81.5469 283.9106 82.6875 283.9106 84.2656 C283.9106 85.7656 285.0512 86.5 286.0043 86.9062 L287.4887 87.5469 C288.4575 87.9844 289.1918 88.3125 289.1918 89.375 C289.1918 90.375 288.3793 91.0469 287.0356 91.0469 C285.9731 91.0469 284.9418 90.5469 284.2075 89.7812 L283.4262 90.6562 C284.3168 91.5938 285.5668 92.1875 287.02 92.1875 Z"
      /><rect x="287" y="35" width="14" style="fill:white; stroke:none;" height="10"
      /><path style="stroke:none;" d="M291.1094 40.5781 C292.3438 40.5781 292.9688 41.4688 292.9688 42.8438 C292.9688 44.25 292.1875 45.1875 291.2188 45.1875 C289.9219 45.1875 289.1562 44.0312 289 41.8906 C289.625 40.9531 290.4531 40.5781 291.1094 40.5781 ZM291.2188 46.1875 C292.8125 46.1875 294.1562 44.8438 294.1562 42.8438 C294.1562 40.7031 293.0469 39.625 291.3125 39.625 C290.5 39.625 289.6094 40.1094 288.9688 40.875 C289.0312 37.6875 290.2188 36.6094 291.625 36.6094 C292.25 36.6094 292.8594 36.9062 293.2656 37.3906 L293.9688 36.5938 C293.4062 35.9844 292.6406 35.5469 291.5781 35.5469 C289.5938 35.5469 287.7812 37.0781 287.7812 41.0938 C287.7812 44.4844 289.2344 46.1875 291.2188 46.1875 ZM299.02 46.1875 C301.1606 46.1875 302.5043 44.8906 302.5043 43.2656 C302.5043 41.75 301.5825 41.0469 300.395 40.5312 L298.9262 39.8906 C298.1293 39.5625 297.2387 39.1875 297.2387 38.1875 C297.2387 37.2656 297.9887 36.6719 299.145 36.6719 C300.0981 36.6719 300.8637 37.0469 301.4887 37.6406 L302.1762 36.8125 C301.4418 36.0625 300.3637 35.5469 299.145 35.5469 C297.2856 35.5469 295.9106 36.6875 295.9106 38.2656 C295.9106 39.7656 297.0512 40.5 298.0043 40.9062 L299.4887 41.5469 C300.4575 41.9844 301.1918 42.3125 301.1918 43.375 C301.1918 44.375 300.3793 45.0469 299.0356 45.0469 C297.9731 45.0469 296.9418 44.5469 296.2075 43.7812 L295.4262 44.6562 C296.3168 45.5938 297.5668 46.1875 299.02 46.1875 Z"
      /><polygon style="fill:none;" points=" 220 64 156 64"
    /></g
    ><g style="fill:white; text-rendering:optimizeSpeed; stroke:white;"
    ><polygon style="stroke:none; clip-path:url(#clipPath5);" points=" 220 53 231 64 220 75 209 64"
      /><rect x="209" y="64" width="22" style="clip-path:url(#clipPath5); fill:rgb(161,122,77); stroke:none;" height="11"
      /><rect x="209" y="64" width="22" style="clip-path:url(#clipPath5); fill:none; stroke:black;" height="11"
      /><polygon style="fill:none; stroke:black;" points=" 220 53 231 64 220 75 209 64"
      /><rect x="212" width="14" height="10" y="81" style="stroke:none;"
    /></g
    ><g style="text-rendering:optimizeSpeed; font-size:14px; font-family:'SansSerif';"
    ><path style="stroke:none;" d="M212.6094 92 L219.0625 92 L219.0625 90.8906 L216.2344 90.8906 C215.7031 90.8906 215.0781 90.9531 214.5469 90.9844 C216.9531 88.7031 218.5625 86.625 218.5625 84.5781 C218.5625 82.75 217.4219 81.5469 215.5781 81.5469 C214.2812 81.5469 213.4062 82.1406 212.5625 83.0469 L213.2969 83.7812 C213.8594 83.1094 214.5938 82.5938 215.4375 82.5938 C216.7031 82.5938 217.3125 83.4531 217.3125 84.625 C217.3125 86.3906 215.8438 88.4375 212.6094 91.25 L212.6094 92 ZM224.02 92.1875 C226.1606 92.1875 227.5043 90.8906 227.5043 89.2656 C227.5043 87.75 226.5825 87.0469 225.395 86.5312 L223.9262 85.8906 C223.1293 85.5625 222.2387 85.1875 222.2387 84.1875 C222.2387 83.2656 222.9887 82.6719 224.145 82.6719 C225.0981 82.6719 225.8637 83.0469 226.4887 83.6406 L227.1762 82.8125 C226.4418 82.0625 225.3637 81.5469 224.145 81.5469 C222.2856 81.5469 220.9106 82.6875 220.9106 84.2656 C220.9106 85.7656 222.0512 86.5 223.0043 86.9062 L224.4887 87.5469 C225.4575 87.9844 226.1918 88.3125 226.1918 89.375 C226.1918 90.375 225.3793 91.0469 224.0356 91.0469 C222.9731 91.0469 221.9418 90.5469 221.2075 89.7812 L220.4262 90.6562 C221.3168 91.5938 222.5668 92.1875 224.02 92.1875 Z"
      /><polygon style="fill:none;" points=" 156 64 93 64"
    /></g
    ><g style="fill:white; text-rendering:optimizeSpeed; stroke:white;"
    ><circle r="11" style="clip-path:url(#clipPath6); stroke:none;" cx="156" cy="64"
      /><rect x="145" y="53" width="22" style="clip-path:url(#clipPath6); fill:rgb(0,144,188); stroke:none;" height="22"
      /><rect x="145" y="53" width="22" style="clip-path:url(#clipPath6); fill:none; stroke:black;" height="22"
      /><circle r="11" style="fill:none; stroke:black;" cx="156" cy="64"
      /><rect x="137" width="14" height="10" y="35" style="stroke:none;"
    /></g
    ><g style="text-rendering:optimizeSpeed; font-size:14px; font-family:'SansSerif';"
    ><path style="stroke:none;" d="M139.4844 42.9062 L140.625 42.9062 C140.375 40.7031 142.8906 39.875 142.8906 37.8281 C142.8906 36.2969 141.8594 35.3281 140.2812 35.3281 C139.1406 35.3281 138.25 35.875 137.6094 36.625 L138.3281 37.2969 C138.8125 36.7344 139.4375 36.3906 140.1406 36.3906 C141.125 36.3906 141.6406 37.0625 141.6406 37.9062 C141.6406 39.5781 139.1719 40.4688 139.4844 42.9062 ZM140.0938 46.1875 C140.6094 46.1875 141.0312 45.7969 141.0312 45.2188 C141.0312 44.625 140.6094 44.2188 140.0938 44.2188 C139.5938 44.2188 139.1719 44.625 139.1719 45.2188 C139.1719 45.7969 139.5938 46.1875 140.0938 46.1875 ZM145.0422 46 L146.261 46 L146.261 40.6094 C146.261 39.5312 146.1672 38.4375 146.1203 37.4062 L146.1672 37.4062 L147.2766 39.5156 L151.011 46 L152.3391 46 L152.3391 35.7188 L151.1047 35.7188 L151.1047 41.0781 C151.1047 42.1406 151.2141 43.2812 151.2766 44.3125 L151.2141 44.3125 L150.1203 42.2031 L146.386 35.7188 L145.0422 35.7188 L145.0422 46 Z"
      /><rect x="148" y="81" width="14" style="fill:white; stroke:none;" height="10"
      /><path style="stroke:none;" d="M148.6094 92 L155.0625 92 L155.0625 90.8906 L152.2344 90.8906 C151.7031 90.8906 151.0781 90.9531 150.5469 90.9844 C152.9531 88.7031 154.5625 86.625 154.5625 84.5781 C154.5625 82.75 153.4219 81.5469 151.5781 81.5469 C150.2812 81.5469 149.4062 82.1406 148.5625 83.0469 L149.2969 83.7812 C149.8594 83.1094 150.5938 82.5938 151.4375 82.5938 C152.7031 82.5938 153.3125 83.4531 153.3125 84.625 C153.3125 86.3906 151.8438 88.4375 148.6094 91.25 L148.6094 92 ZM160.02 92.1875 C162.1606 92.1875 163.5043 90.8906 163.5043 89.2656 C163.5043 87.75 162.5825 87.0469 161.395 86.5312 L159.9262 85.8906 C159.1293 85.5625 158.2387 85.1875 158.2387 84.1875 C158.2387 83.2656 158.9887 82.6719 160.145 82.6719 C161.0981 82.6719 161.8637 83.0469 162.4887 83.6406 L163.1762 82.8125 C162.4418 82.0625 161.3637 81.5469 160.145 81.5469 C158.2856 81.5469 156.9106 82.6875 156.9106 84.2656 C156.9106 85.7656 158.0512 86.5 159.0043 86.9062 L160.4887 87.5469 C161.4575 87.9844 162.1918 88.3125 162.1918 89.375 C162.1918 90.375 161.3793 91.0469 160.0356 91.0469 C158.9731 91.0469 157.9418 90.5469 157.2075 89.7812 L156.4262 90.6562 C157.3168 91.5938 158.5668 92.1875 160.02 92.1875 Z"
      /><rect x="160" y="35" width="14" style="fill:white; stroke:none;" height="10"
      /><path style="stroke:none;" d="M164.1094 40.5781 C165.3438 40.5781 165.9688 41.4688 165.9688 42.8438 C165.9688 44.25 165.1875 45.1875 164.2188 45.1875 C162.9219 45.1875 162.1562 44.0312 162 41.8906 C162.625 40.9531 163.4531 40.5781 164.1094 40.5781 ZM164.2188 46.1875 C165.8125 46.1875 167.1562 44.8438 167.1562 42.8438 C167.1562 40.7031 166.0469 39.625 164.3125 39.625 C163.5 39.625 162.6094 40.1094 161.9688 40.875 C162.0312 37.6875 163.2188 36.6094 164.625 36.6094 C165.25 36.6094 165.8594 36.9062 166.2656 37.3906 L166.9688 36.5938 C166.4062 35.9844 165.6406 35.5469 164.5781 35.5469 C162.5938 35.5469 160.7812 37.0781 160.7812 41.0938 C160.7812 44.4844 162.2344 46.1875 164.2188 46.1875 ZM172.02 46.1875 C174.1606 46.1875 175.5043 44.8906 175.5043 43.2656 C175.5043 41.75 174.5825 41.0469 173.395 40.5312 L171.9262 39.8906 C171.1293 39.5625 170.2387 39.1875 170.2387 38.1875 C170.2387 37.2656 170.9887 36.6719 172.145 36.6719 C173.0981 36.6719 173.8637 37.0469 174.4887 37.6406 L175.1762 36.8125 C174.4418 36.0625 173.3637 35.5469 172.145 35.5469 C170.2856 35.5469 168.9106 36.6875 168.9106 38.2656 C168.9106 39.7656 170.0512 40.5 171.0043 40.9062 L172.4887 41.5469 C173.4575 41.9844 174.1918 42.3125 174.1918 43.375 C174.1918 44.375 173.3793 45.0469 172.0356 45.0469 C170.9731 45.0469 169.9418 44.5469 169.2075 43.7812 L168.4262 44.6562 C169.3168 45.5938 170.5668 46.1875 172.02 46.1875 Z"
      /><polygon style="fill:none;" points=" 93 64 41 64"
    /></g
    ><g style="fill:white; text-rendering:optimizeSpeed; stroke:white;"
    ><polygon style="stroke:none; clip-path:url(#clipPath7);" points=" 93 53 104 64 93 75 82 64"
      /><rect x="82" y="64" width="22" style="clip-path:url(#clipPath7); fill:rgb(161,122,77); stroke:none;" height="11"
      /><rect x="82" y="64" width="22" style="clip-path:url(#clipPath7); fill:none; stroke:black;" height="11"
      /><polygon style="fill:none; stroke:black;" points=" 93 53 104 64 93 75 82 64"
      /><rect x="85" width="14" height="10" y="81" style="stroke:none;"
    /></g
    ><g style="text-rendering:optimizeSpeed; font-size:14px; font-family:'SansSerif';"
    ><path style="stroke:none;" d="M85.6094 92 L92.0625 92 L92.0625 90.8906 L89.2344 90.8906 C88.7031 90.8906 88.0781 90.9531 87.5469 90.9844 C89.9531 88.7031 91.5625 86.625 91.5625 84.5781 C91.5625 82.75 90.4219 81.5469 88.5781 81.5469 C87.2812 81.5469 86.4062 82.1406 85.5625 83.0469 L86.2969 83.7812 C86.8594 83.1094 87.5938 82.5938 88.4375 82.5938 C89.7031 82.5938 90.3125 83.4531 90.3125 84.625 C90.3125 86.3906 88.8438 88.4375 85.6094 91.25 L85.6094 92 ZM97.02 92.1875 C99.1606 92.1875 100.5043 90.8906 100.5043 89.2656 C100.5043 87.75 99.5825 87.0469 98.395 86.5312 L96.9262 85.8906 C96.1293 85.5625 95.2387 85.1875 95.2387 84.1875 C95.2387 83.2656 95.9887 82.6719 97.145 82.6719 C98.0981 82.6719 98.8637 83.0469 99.4887 83.6406 L100.1762 82.8125 C99.4418 82.0625 98.3637 81.5469 97.145 81.5469 C95.2856 81.5469 93.9106 82.6875 93.9106 84.2656 C93.9106 85.7656 95.0512 86.5 96.0043 86.9062 L97.4887 87.5469 C98.4575 87.9844 99.1918 88.3125 99.1918 89.375 C99.1918 90.375 98.3793 91.0469 97.0356 91.0469 C95.9731 91.0469 94.9418 90.5469 94.2075 89.7812 L93.4262 90.6562 C94.3168 91.5938 95.5668 92.1875 97.02 92.1875 Z"
    /></g
    ><g style="fill:white; text-rendering:optimizeSpeed; stroke:white;"
    ><circle r="11" style="clip-path:url(#clipPath8); stroke:none;" cx="41" cy="64"
      /><rect x="30" y="53" width="22" style="clip-path:url(#clipPath8); fill:rgb(0,144,188); stroke:none;" height="22"
      /><rect x="30" y="53" width="22" style="clip-path:url(#clipPath8); fill:none; stroke:black;" height="22"
      /><circle r="11" style="fill:none; stroke:black;" cx="41" cy="64"
      /><rect x="33" width="14" height="10" y="35" style="stroke:none;"
    /></g
    ><g style="text-rendering:optimizeSpeed; font-size:14px; font-family:'SansSerif';"
    ><path style="stroke:none;" d="M35.4844 42.9062 L36.625 42.9062 C36.375 40.7031 38.8906 39.875 38.8906 37.8281 C38.8906 36.2969 37.8594 35.3281 36.2812 35.3281 C35.1406 35.3281 34.25 35.875 33.6094 36.625 L34.3281 37.2969 C34.8125 36.7344 35.4375 36.3906 36.1406 36.3906 C37.125 36.3906 37.6406 37.0625 37.6406 37.9062 C37.6406 39.5781 35.1719 40.4688 35.4844 42.9062 ZM36.0938 46.1875 C36.6094 46.1875 37.0312 45.7969 37.0312 45.2188 C37.0312 44.625 36.6094 44.2188 36.0938 44.2188 C35.5938 44.2188 35.1719 44.625 35.1719 45.2188 C35.1719 45.7969 35.5938 46.1875 36.0938 46.1875 ZM41.0422 46 L42.261 46 L42.261 40.6094 C42.261 39.5312 42.1672 38.4375 42.1203 37.4062 L42.1672 37.4062 L43.2766 39.5156 L47.011 46 L48.3391 46 L48.3391 35.7188 L47.1047 35.7188 L47.1047 41.0781 C47.1047 42.1406 47.2141 43.2812 47.2766 44.3125 L47.2141 44.3125 L46.1203 42.2031 L42.386 35.7188 L41.0422 35.7188 L41.0422 46 Z"
    /></g
    ><g style="fill:white; text-rendering:optimizeSpeed; font-family:'Serif'; stroke:white;"
    ><rect x="70" width="7" height="9" y="67" style="stroke:none;"
      /><path d="M71 72.5156 L73.9531 68.2656 L73.9531 72.5156 L71 72.5156 ZM76.2812 72.5156 L74.8594 72.5156 L74.8594 67.125 L74.2344 67.125 L70.3438 72.6406 L70.3438 73.1875 L73.9531 73.1875 L73.9531 76 L74.8594 76 L74.8594 73.1875 L76.2812 73.1875 L76.2812 72.5156 Z" style="fill:black; stroke:none;"
      /><rect x="56" width="8" height="8" y="68" style="stroke:none;"
      /><path d="M60.9844 73.7031 C60.9375 74.8906 60.1562 75.6562 59.3125 75.6562 C58.2656 75.6562 57.5 74.6875 57.5 72.7188 C57.5 71.2812 58.1562 70.1562 59.3438 70.1562 C60.1406 70.1562 60.7812 70.6875 61.0938 71.6406 L60.9844 73.7031 ZM62.9062 75.2812 C62.7344 75.375 62.5469 75.4219 62.3438 75.4219 C61.9531 75.4219 61.75 75.2188 61.75 74.4219 C61.75 73.4844 61.9688 71.5312 62.1875 69.8281 L62.0312 69.7188 L61.2344 69.9219 L61.1406 70.7969 C60.7812 70.0312 60.1562 69.6562 59.3906 69.6562 C58.0469 69.6562 56.5625 70.8438 56.5625 72.9531 C56.5625 75.0938 57.7188 76.1719 59.1406 76.1719 C60.0156 76.1719 60.6875 75.8125 61.0938 74.9844 C61.2031 75.8594 61.5156 76.1719 62.0156 76.1719 C62.4688 76.1719 62.7969 75.9062 63.0156 75.5625 L62.9062 75.2812 Z" style="fill:black; stroke:none;"
      /><rect x="122" width="7" height="9" y="67" style="stroke:none;"
      /><path d="M123 72.5156 L125.9531 68.2656 L125.9531 72.5156 L123 72.5156 ZM128.2812 72.5156 L126.8594 72.5156 L126.8594 67.125 L126.2344 67.125 L122.3438 72.6406 L122.3438 73.1875 L125.9531 73.1875 L125.9531 76 L126.8594 76 L126.8594 73.1875 L128.2812 73.1875 L128.2812 72.5156 Z" style="fill:black; stroke:none;"
      /><rect x="108" width="8" height="8" y="68" style="stroke:none;"
      /><path d="M112.9844 73.7031 C112.9375 74.8906 112.1562 75.6562 111.3125 75.6562 C110.2656 75.6562 109.5 74.6875 109.5 72.7188 C109.5 71.2812 110.1562 70.1562 111.3438 70.1562 C112.1406 70.1562 112.7812 70.6875 113.0938 71.6406 L112.9844 73.7031 ZM114.9062 75.2812 C114.7344 75.375 114.5469 75.4219 114.3438 75.4219 C113.9531 75.4219 113.75 75.2188 113.75 74.4219 C113.75 73.4844 113.9688 71.5312 114.1875 69.8281 L114.0312 69.7188 L113.2344 69.9219 L113.1406 70.7969 C112.7812 70.0312 112.1562 69.6562 111.3906 69.6562 C110.0469 69.6562 108.5625 70.8438 108.5625 72.9531 C108.5625 75.0938 109.7188 76.1719 111.1406 76.1719 C112.0156 76.1719 112.6875 75.8125 113.0938 74.9844 C113.2031 75.8594 113.5156 76.1719 114.0156 76.1719 C114.4688 76.1719 114.7969 75.9062 115.0156 75.5625 L114.9062 75.2812 Z" style="fill:black; stroke:none;"
      /><rect x="197" width="7" height="9" y="67" style="stroke:none;"
      /><path d="M198 72.5156 L200.9531 68.2656 L200.9531 72.5156 L198 72.5156 ZM203.2812 72.5156 L201.8594 72.5156 L201.8594 67.125 L201.2344 67.125 L197.3438 72.6406 L197.3438 73.1875 L200.9531 73.1875 L200.9531 76 L201.8594 76 L201.8594 73.1875 L203.2812 73.1875 L203.2812 72.5156 Z" style="fill:black; stroke:none;"
      /><rect x="183" width="8" height="8" y="68" style="stroke:none;"
      /><path d="M187.9844 73.7031 C187.9375 74.8906 187.1562 75.6562 186.3125 75.6562 C185.2656 75.6562 184.5 74.6875 184.5 72.7188 C184.5 71.2812 185.1562 70.1562 186.3438 70.1562 C187.1406 70.1562 187.7812 70.6875 188.0938 71.6406 L187.9844 73.7031 ZM189.9062 75.2812 C189.7344 75.375 189.5469 75.4219 189.3438 75.4219 C188.9531 75.4219 188.75 75.2188 188.75 74.4219 C188.75 73.4844 188.9688 71.5312 189.1875 69.8281 L189.0312 69.7188 L188.2344 69.9219 L188.1406 70.7969 C187.7812 70.0312 187.1562 69.6562 186.3906 69.6562 C185.0469 69.6562 183.5625 70.8438 183.5625 72.9531 C183.5625 75.0938 184.7188 76.1719 186.1406 76.1719 C187.0156 76.1719 187.6875 75.8125 188.0938 74.9844 C188.2031 75.8594 188.5156 76.1719 189.0156 76.1719 C189.4688 76.1719 189.7969 75.9062 190.0156 75.5625 L189.9062 75.2812 Z" style="fill:black; stroke:none;"
      /><rect x="249" width="7" height="9" y="67" style="stroke:none;"
      /><path d="M250 72.5156 L252.9531 68.2656 L252.9531 72.5156 L250 72.5156 ZM255.2812 72.5156 L253.8594 72.5156 L253.8594 67.125 L253.2344 67.125 L249.3438 72.6406 L249.3438 73.1875 L252.9531 73.1875 L252.9531 76 L253.8594 76 L253.8594 73.1875 L255.2812 73.1875 L255.2812 72.5156 Z" style="fill:black; stroke:none;"
      /><rect x="235" width="8" height="8" y="68" style="stroke:none;"
      /><path d="M239.9844 73.7031 C239.9375 74.8906 239.1562 75.6562 238.3125 75.6562 C237.2656 75.6562 236.5 74.6875 236.5 72.7188 C236.5 71.2812 237.1562 70.1562 238.3438 70.1562 C239.1406 70.1562 239.7812 70.6875 240.0938 71.6406 L239.9844 73.7031 ZM241.9062 75.2812 C241.7344 75.375 241.5469 75.4219 241.3438 75.4219 C240.9531 75.4219 240.75 75.2188 240.75 74.4219 C240.75 73.4844 240.9688 71.5312 241.1875 69.8281 L241.0312 69.7188 L240.2344 69.9219 L240.1406 70.7969 C239.7812 70.0312 239.1562 69.6562 238.3906 69.6562 C237.0469 69.6562 235.5625 70.8438 235.5625 72.9531 C235.5625 75.0938 236.7188 76.1719 238.1406 76.1719 C239.0156 76.1719 239.6875 75.8125 240.0938 74.9844 C240.2031 75.8594 240.5156 76.1719 241.0156 76.1719 C241.4688 76.1719 241.7969 75.9062 242.0156 75.5625 L241.9062 75.2812 Z" style="fill:black; stroke:none;"
      /><rect x="324" width="7" height="9" y="67" style="stroke:none;"
      /><path d="M325 72.5156 L327.9531 68.2656 L327.9531 72.5156 L325 72.5156 ZM330.2812 72.5156 L328.8594 72.5156 L328.8594 67.125 L328.2344 67.125 L324.3438 72.6406 L324.3438 73.1875 L327.9531 73.1875 L327.9531 76 L328.8594 76 L328.8594 73.1875 L330.2812 73.1875 L330.2812 72.5156 Z" style="fill:black; stroke:none;"
      /><rect x="310" width="8" height="8" y="68" style="stroke:none;"
      /><path d="M314.9844 73.7031 C314.9375 74.8906 314.1562 75.6562 313.3125 75.6562 C312.2656 75.6562 311.5 74.6875 311.5 72.7188 C311.5 71.2812 312.1562 70.1562 313.3438 70.1562 C314.1406 70.1562 314.7812 70.6875 315.0938 71.6406 L314.9844 73.7031 ZM316.9062 75.2812 C316.7344 75.375 316.5469 75.4219 316.3438 75.4219 C315.9531 75.4219 315.75 75.2188 315.75 74.4219 C315.75 73.4844 315.9688 71.5312 316.1875 69.8281 L316.0312 69.7188 L315.2344 69.9219 L315.1406 70.7969 C314.7812 70.0312 314.1562 69.6562 313.3906 69.6562 C312.0469 69.6562 310.5625 70.8438 310.5625 72.9531 C310.5625 75.0938 311.7188 76.1719 313.1406 76.1719 C314.0156 76.1719 314.6875 75.8125 315.0938 74.9844 C315.2031 75.8594 315.5156 76.1719 316.0156 76.1719 C316.4688 76.1719 316.7969 75.9062 317.0156 75.5625 L316.9062 75.2812 Z" style="fill:black; stroke:none;"
      /><rect x="376" width="7" height="9" y="67" style="stroke:none;"
      /><path d="M377 72.5156 L379.9531 68.2656 L379.9531 72.5156 L377 72.5156 ZM382.2812 72.5156 L380.8594 72.5156 L380.8594 67.125 L380.2344 67.125 L376.3438 72.6406 L376.3438 73.1875 L379.9531 73.1875 L379.9531 76 L380.8594 76 L380.8594 73.1875 L382.2812 73.1875 L382.2812 72.5156 Z" style="fill:black; stroke:none;"
      /><rect x="362" width="8" height="8" y="68" style="stroke:none;"
      /><path d="M366.9844 73.7031 C366.9375 74.8906 366.1562 75.6562 365.3125 75.6562 C364.2656 75.6562 363.5 74.6875 363.5 72.7188 C363.5 71.2812 364.1562 70.1562 365.3438 70.1562 C366.1406 70.1562 366.7812 70.6875 367.0938 71.6406 L366.9844 73.7031 ZM368.9062 75.2812 C368.7344 75.375 368.5469 75.4219 368.3438 75.4219 C367.9531 75.4219 367.75 75.2188 367.75 74.4219 C367.75 73.4844 367.9688 71.5312 368.1875 69.8281 L368.0312 69.7188 L367.2344 69.9219 L367.1406 70.7969 C366.7812 70.0312 366.1562 69.6562 365.3906 69.6562 C364.0469 69.6562 362.5625 70.8438 362.5625 72.9531 C362.5625 75.0938 363.7188 76.1719 365.1406 76.1719 C366.0156 76.1719 366.6875 75.8125 367.0938 74.9844 C367.2031 75.8594 367.5156 76.1719 368.0156 76.1719 C368.4688 76.1719 368.7969 75.9062 369.0156 75.5625 L368.9062 75.2812 Z" style="fill:black; stroke:none;"
      /><rect x="451" width="7" height="9" y="67" style="stroke:none;"
      /><path d="M452 72.5156 L454.9531 68.2656 L454.9531 72.5156 L452 72.5156 ZM457.2812 72.5156 L455.8594 72.5156 L455.8594 67.125 L455.2344 67.125 L451.3438 72.6406 L451.3438 73.1875 L454.9531 73.1875 L454.9531 76 L455.8594 76 L455.8594 73.1875 L457.2812 73.1875 L457.2812 72.5156 Z" style="fill:black; stroke:none;"
      /><rect x="437" width="8" height="8" y="68" style="stroke:none;"
      /><path d="M441.9844 73.7031 C441.9375 74.8906 441.1562 75.6562 440.3125 75.6562 C439.2656 75.6562 438.5 74.6875 438.5 72.7188 C438.5 71.2812 439.1562 70.1562 440.3438 70.1562 C441.1406 70.1562 441.7812 70.6875 442.0938 71.6406 L441.9844 73.7031 ZM443.9062 75.2812 C443.7344 75.375 443.5469 75.4219 443.3438 75.4219 C442.9531 75.4219 442.75 75.2188 442.75 74.4219 C442.75 73.4844 442.9688 71.5312 443.1875 69.8281 L443.0312 69.7188 L442.2344 69.9219 L442.1406 70.7969 C441.7812 70.0312 441.1562 69.6562 440.3906 69.6562 C439.0469 69.6562 437.5625 70.8438 437.5625 72.9531 C437.5625 75.0938 438.7188 76.1719 440.1406 76.1719 C441.0156 76.1719 441.6875 75.8125 442.0938 74.9844 C442.2031 75.8594 442.5156 76.1719 443.0156 76.1719 C443.4688 76.1719 443.7969 75.9062 444.0156 75.5625 L443.9062 75.2812 Z" style="fill:black; stroke:none;"
      /><rect x="490" width="5" height="10" y="67" style="stroke:none;"
      /><path d="M491.8906 75.6875 C491.4844 75.6875 491.1562 76.0469 491.1562 76.4219 C491.1562 76.8125 491.4844 77.1562 491.8906 77.1562 C492.2969 77.1562 492.6406 76.8125 492.6406 76.4219 C492.6406 76.0469 492.2969 75.6875 491.8906 75.6875 ZM493.4688 69.5781 C493.7188 69.8906 493.875 70.2656 493.8906 70.6562 C493.8906 71.1875 493.625 71.5 493.0312 71.7656 L492.4062 72.0156 C491.6406 72.3125 491.3906 72.5469 491.3906 72.9375 C491.3906 73.1094 491.4531 73.3438 491.5781 73.8125 L491.7344 74.3438 L492.1094 74.3438 L492.0938 73.5312 C492.0938 73.0938 492.2031 72.9688 492.7812 72.7344 L493.2031 72.5625 C494.0312 72.2188 494.4531 71.6875 494.4531 70.8438 C494.4531 69.1562 492.6562 68.1875 491.5 68.0312 C491.1094 68.125 490.9062 68.2969 490.9062 68.6406 C490.9062 68.9375 491.0625 69.1562 491.7188 69.2656 L493.4688 69.5781 Z" style="fill:black; stroke:none;"
    /></g
  ></g
></svg
>
