<?xml version="1.0"?>
<!DOCTYPE svg PUBLIC '-//W3C//DTD SVG 1.0//EN'
          'http://www.w3.org/TR/2001/REC-SVG-20010904/DTD/svg10.dtd'>
<svg xmlns:xlink="http://www.w3.org/1999/xlink" style="fill-opacity:1; color-rendering:auto; color-interpolation:auto; text-rendering:auto; stroke:black; stroke-linecap:square; stroke-miterlimit:10; shape-rendering:auto; stroke-opacity:1; fill:black; stroke-dasharray:none; font-weight:normal; stroke-width:1; font-family:'Dialog'; font-style:normal; stroke-linejoin:miter; font-size:12px; stroke-dashoffset:0; image-rendering:auto;" viewBox="0 0 383 186" xmlns="http://www.w3.org/2000/svg"
><!--Generated by the Batik Graphics2D SVG Generator--><defs id="genericDefs"
  /><g
  ><defs id="defs1"
    ><clipPath clipPathUnits="userSpaceOnUse" id="clipPath1"
      ><path style="fill-rule:evenodd;" d="M288 80 L282 87 L271 87 L266 80 L271 72 L282 72 L288 80 Z"
      /></clipPath
      ><clipPath clipPathUnits="userSpaceOnUse" id="clipPath2"
      ><path style="fill-rule:evenodd;" d="M224 80 L218 87 L207 87 L202 80 L207 72 L218 72 L224 80 Z"
      /></clipPath
      ><clipPath clipPathUnits="userSpaceOnUse" id="clipPath3"
      ><path style="fill-rule:evenodd;" d="M164 119 L158 126 L147 126 L142 119 L147 111 L158 111 L164 119 Z"
      /></clipPath
      ><clipPath clipPathUnits="userSpaceOnUse" id="clipPath4"
      ><path style="fill-rule:evenodd;" d="M104 145 L98 152 L87 152 L82 145 L87 137 L98 137 L104 145 Z"
      /></clipPath
      ><clipPath clipPathUnits="userSpaceOnUse" id="clipPath5"
      ><path d="M52 145 C52 151.0751 47.0751 156 41 156 C34.9249 156 30 151.0751 30 145 C30 138.9249 34.9249 134 41 134 C47.0751 134 52 138.9249 52 145 Z"
      /></clipPath
      ><clipPath clipPathUnits="userSpaceOnUse" id="clipPath6"
      ><path d="M104 93 C104 99.0751 99.0751 104 93 104 C86.9249 104 82 99.0751 82 93 C82 86.9249 86.9249 82 93 82 C99.0751 82 104 86.9249 104 93 Z"
      /></clipPath
      ><clipPath clipPathUnits="userSpaceOnUse" id="clipPath7"
      ><path d="M164 41 C164 47.0751 159.0751 52 153 52 C146.9249 52 142 47.0751 142 41 C142 34.9249 146.9249 30 153 30 C159.0751 30 164 34.9249 164 41 Z"
      /></clipPath
      ><clipPath clipPathUnits="userSpaceOnUse" id="clipPath8"
      ><path style="fill-rule:evenodd;" d="M112 41 L106 48 L95 48 L90 41 L95 33 L106 33 L112 41 Z"
      /></clipPath
    ></defs
    ><g style="fill:white; text-rendering:optimizeSpeed; stroke:white;"
    ><rect x="0" width="383" height="186" y="0" style="stroke:none;"
      /><polygon style="fill:none; stroke:black;" points=" 342 80 277 80"
      /><path d="M342 69 C336.5 74.5 347.5 85.5 342 91" style="fill:none; stroke:black;"
      /><polygon style="fill:none; stroke:black;" points=" 277 80 213 80"
      /><polygon style="clip-path:url(#clipPath1); stroke:none;" points=" 288 80 282 87 271 87 266 80 271 72 282 72 288 80"
      /><rect x="266" y="69" width="22" style="clip-path:url(#clipPath1); fill:rgb(255,212,0); stroke:none;" height="22"
      /><rect x="266" y="69" width="22" style="clip-path:url(#clipPath1); fill:none; stroke:black;" height="22"
      /><polygon style="fill:none; stroke:black;" points=" 288 80 282 87 271 87 266 80 271 72 282 72 288 80"
      /><rect x="253" y="51" width="46" style="stroke:none;" height="10"
    /></g
    ><g style="text-rendering:optimizeSpeed; font-size:14px; font-family:'SansSerif';"
    ><path style="stroke:none;" d="M254.6094 58.1562 L256.9531 54.6562 C257.2344 54.1406 257.5156 53.6406 257.7812 53.1406 L257.8281 53.1406 C257.7969 53.6719 257.7656 54.5 257.7656 55 L257.7656 58.1562 L254.6094 58.1562 ZM257.7656 62 L258.9688 62 L258.9688 59.1719 L260.3281 59.1719 L260.3281 58.1562 L258.9688 58.1562 L258.9688 51.7188 L257.5469 51.7188 L253.2812 58.3281 L253.2812 59.1719 L257.7656 59.1719 L257.7656 62 ZM262.1762 62 L263.4731 62 L263.4731 57.9219 L265.1606 57.9219 C267.4262 57.9219 268.9418 56.9219 268.9418 54.75 C268.9418 52.5156 267.4106 51.7188 265.1137 51.7188 L262.1762 51.7188 L262.1762 62 ZM263.4731 56.875 L263.4731 52.7812 L264.9418 52.7812 C266.7543 52.7812 267.6606 53.2656 267.6606 54.75 C267.6606 56.2188 266.8012 56.875 265.0043 56.875 L263.4731 56.875 ZM271.0242 62 L272.321 62 L272.321 57.9219 L274.0085 57.9219 C276.2742 57.9219 277.7898 56.9219 277.7898 54.75 C277.7898 52.5156 276.2585 51.7188 273.9617 51.7188 L271.0242 51.7188 L271.0242 62 ZM272.321 56.875 L272.321 52.7812 L273.7898 52.7812 C275.6023 52.7812 276.5085 53.2656 276.5085 54.75 C276.5085 56.2188 275.6492 56.875 273.8523 56.875 L272.321 56.875 ZM279.8721 62 L285.9346 62 L285.9346 60.8906 L281.169 60.8906 L281.169 57.1562 L285.0596 57.1562 L285.0596 56.0469 L281.169 56.0469 L281.169 52.8281 L285.794 52.8281 L285.794 51.7188 L279.8721 51.7188 L279.8721 62 ZM290.3854 62.1875 C290.8385 62.1875 291.3385 62.0469 291.776 61.9062 L291.526 60.9531 C291.276 61.0469 290.9323 61.1406 290.6666 61.1406 C289.776 61.1406 289.4791 60.6094 289.4791 59.6719 L289.4791 55.4375 L291.5416 55.4375 L291.5416 54.3906 L289.4791 54.3906 L289.4791 52.25 L288.4166 52.25 L288.2604 54.3906 L287.0729 54.4688 L287.0729 55.4375 L288.2135 55.4375 L288.2135 59.6406 C288.2135 61.1562 288.7604 62.1875 290.3854 62.1875 ZM293.2571 62 L294.5383 62 L294.5383 56.4844 C295.304 55.7188 295.8352 55.3281 296.6165 55.3281 C297.6321 55.3281 298.0696 55.9219 298.0696 57.3594 L298.0696 62 L299.3352 62 L299.3352 57.1875 C299.3352 55.2344 298.6165 54.2031 297.0227 54.2031 C295.9758 54.2031 295.1946 54.7812 294.4602 55.4844 L294.429 55.4844 L294.3196 54.3906 L293.2571 54.3906 L293.2571 62 Z"
      /><polygon style="fill:none;" points=" 213 80 153 119"
      /><polygon style="fill:none;" points=" 213 80 153 41"
    /></g
    ><g style="fill:white; text-rendering:optimizeSpeed; stroke:white;"
    ><polygon style="stroke:none; clip-path:url(#clipPath2);" points=" 224 80 218 87 207 87 202 80 207 72 218 72 224 80"
      /><rect x="202" y="69" width="22" style="clip-path:url(#clipPath2); fill:rgb(0,166,81); stroke:none;" height="22"
      /><rect x="202" y="69" width="22" style="clip-path:url(#clipPath2); fill:none; stroke:black;" height="22"
      /><polygon style="fill:none; stroke:black;" points=" 224 80 218 87 207 87 202 80 207 72 218 72 224 80"
      /><polygon style="fill:none; stroke:black;" points=" 153 119 93 145"
      /><polygon style="fill:none; stroke:black;" points=" 153 119 93 93"
      /><polygon style="clip-path:url(#clipPath3); stroke:none;" points=" 164 119 158 126 147 126 142 119 147 111 158 111 164 119"
      /><rect x="142" y="108" width="22" style="clip-path:url(#clipPath3); fill:rgb(0,166,81); stroke:none;" height="22"
      /><rect x="142" y="108" width="22" style="clip-path:url(#clipPath3); fill:none; stroke:black;" height="22"
      /><polygon style="fill:none; stroke:black;" points=" 164 119 158 126 147 126 142 119 147 111 158 111 164 119"
      /><rect x="134" width="36" height="10" y="90" style="stroke:none;"
    /></g
    ><g style="text-rendering:optimizeSpeed; font-size:14px; font-family:'SansSerif';"
    ><path style="stroke:none;" d="M138.1094 95.5781 C139.3438 95.5781 139.9688 96.4688 139.9688 97.8438 C139.9688 99.25 139.1875 100.1875 138.2188 100.1875 C136.9219 100.1875 136.1562 99.0312 136 96.8906 C136.625 95.9531 137.4531 95.5781 138.1094 95.5781 ZM138.2188 101.1875 C139.8125 101.1875 141.1562 99.8438 141.1562 97.8438 C141.1562 95.7031 140.0469 94.625 138.3125 94.625 C137.5 94.625 136.6094 95.1094 135.9688 95.875 C136.0312 92.6875 137.2188 91.6094 138.625 91.6094 C139.25 91.6094 139.8594 91.9062 140.2656 92.3906 L140.9688 91.5938 C140.4062 90.9844 139.6406 90.5469 138.5781 90.5469 C136.5938 90.5469 134.7812 92.0781 134.7812 96.0938 C134.7812 99.4844 136.2344 101.1875 138.2188 101.1875 ZM143.1762 101 L144.4731 101 L144.4731 96.9219 L146.1606 96.9219 C148.4262 96.9219 149.9418 95.9219 149.9418 93.75 C149.9418 91.5156 148.4106 90.7188 146.1137 90.7188 L143.1762 90.7188 L143.1762 101 ZM144.4731 95.875 L144.4731 91.7812 L145.9418 91.7812 C147.7543 91.7812 148.6606 92.2656 148.6606 93.75 C148.6606 95.2188 147.8012 95.875 146.0043 95.875 L144.4731 95.875 ZM152.0242 101 L158.0867 101 L158.0867 99.8906 L153.3211 99.8906 L153.3211 96.1562 L157.2117 96.1562 L157.2117 95.0469 L153.3211 95.0469 L153.3211 91.8281 L157.9461 91.8281 L157.9461 90.7188 L152.0242 90.7188 L152.0242 101 ZM162.5374 101.1875 C162.9905 101.1875 163.4905 101.0469 163.928 100.9062 L163.678 99.9531 C163.428 100.0469 163.0843 100.1406 162.8186 100.1406 C161.928 100.1406 161.6311 99.6094 161.6311 98.6719 L161.6311 94.4375 L163.6936 94.4375 L163.6936 93.3906 L161.6311 93.3906 L161.6311 91.25 L160.5686 91.25 L160.4124 93.3906 L159.2249 93.4688 L159.2249 94.4375 L160.3655 94.4375 L160.3655 98.6406 C160.3655 100.1562 160.9124 101.1875 162.5374 101.1875 ZM165.4091 101 L166.6904 101 L166.6904 95.4844 C167.456 94.7188 167.9873 94.3281 168.7685 94.3281 C169.7841 94.3281 170.2216 94.9219 170.2216 96.3594 L170.2216 101 L171.4873 101 L171.4873 96.1875 C171.4873 94.2344 170.7685 93.2031 169.1748 93.2031 C168.1279 93.2031 167.3466 93.7812 166.6123 94.4844 L166.581 94.4844 L166.4716 93.3906 L165.4091 93.3906 L165.4091 101 Z"
      /><polygon style="fill:none;" points=" 93 145 41 145"
    /></g
    ><g style="fill:white; text-rendering:optimizeSpeed; stroke:white;"
    ><polygon style="stroke:none; clip-path:url(#clipPath4);" points=" 104 145 98 152 87 152 82 145 87 137 98 137 104 145"
      /><rect x="82" y="134" width="22" style="clip-path:url(#clipPath4); fill:rgb(0,166,81); stroke:none;" height="22"
      /><rect x="82" y="134" width="22" style="clip-path:url(#clipPath4); fill:none; stroke:black;" height="22"
      /><polygon style="fill:none; stroke:black;" points=" 104 145 98 152 87 152 82 145 87 137 98 137 104 145"
      /><circle r="11" style="clip-path:url(#clipPath5); stroke:none;" cx="41" cy="145"
      /><rect x="30" y="134" width="22" style="clip-path:url(#clipPath5); fill:rgb(255,212,0); stroke:none;" height="22"
      /><rect x="30" y="134" width="22" style="clip-path:url(#clipPath5); fill:none; stroke:black;" height="22"
      /><circle r="11" style="fill:none; stroke:black;" cx="41" cy="145"
      /><rect x="71" width="5" height="10" y="148" style="stroke:none;"
      /><path d="M72.8906 156.6875 C72.4844 156.6875 72.1562 157.0469 72.1562 157.4219 C72.1562 157.8125 72.4844 158.1562 72.8906 158.1562 C73.2969 158.1562 73.6406 157.8125 73.6406 157.4219 C73.6406 157.0469 73.2969 156.6875 72.8906 156.6875 ZM74.4688 150.5781 C74.7188 150.8906 74.875 151.2656 74.8906 151.6562 C74.8906 152.1875 74.625 152.5 74.0312 152.7656 L73.4062 153.0156 C72.6406 153.3125 72.3906 153.5469 72.3906 153.9375 C72.3906 154.1094 72.4531 154.3438 72.5781 154.8125 L72.7344 155.3438 L73.1094 155.3438 L73.0938 154.5312 C73.0938 154.0938 73.2031 153.9688 73.7812 153.7344 L74.2031 153.5625 C75.0312 153.2188 75.4531 152.6875 75.4531 151.8438 C75.4531 150.1562 73.6562 149.1875 72.5 149.0312 C72.1094 149.125 71.9062 149.2969 71.9062 149.6406 C71.9062 149.9375 72.0625 150.1562 72.7188 150.2656 L74.4688 150.5781 Z" style="fill:black; stroke:none;"
      /><rect x="57" width="5" height="10" y="148" style="stroke:none;"
      /><path d="M58.8906 156.6875 C58.4844 156.6875 58.1562 157.0469 58.1562 157.4219 C58.1562 157.8125 58.4844 158.1562 58.8906 158.1562 C59.2969 158.1562 59.6406 157.8125 59.6406 157.4219 C59.6406 157.0469 59.2969 156.6875 58.8906 156.6875 ZM60.4688 150.5781 C60.7188 150.8906 60.875 151.2656 60.8906 151.6562 C60.8906 152.1875 60.625 152.5 60.0312 152.7656 L59.4062 153.0156 C58.6406 153.3125 58.3906 153.5469 58.3906 153.9375 C58.3906 154.1094 58.4531 154.3438 58.5781 154.8125 L58.7344 155.3438 L59.1094 155.3438 L59.0938 154.5312 C59.0938 154.0938 59.2031 153.9688 59.7812 153.7344 L60.2031 153.5625 C61.0312 153.2188 61.4531 152.6875 61.4531 151.8438 C61.4531 150.1562 59.6562 149.1875 58.5 149.0312 C58.1094 149.125 57.9062 149.2969 57.9062 149.6406 C57.9062 149.9375 58.0625 150.1562 58.7188 150.2656 L60.4688 150.5781 Z" style="fill:black; stroke:none;"
      /><circle r="11" style="clip-path:url(#clipPath6); stroke:none;" cx="93" cy="93"
      /><rect x="82" y="82" width="22" style="clip-path:url(#clipPath6); fill:rgb(0,144,188); stroke:none;" height="22"
      /><rect x="82" y="82" width="22" style="clip-path:url(#clipPath6); fill:none; stroke:black;" height="22"
      /><circle r="11" style="fill:none; stroke:black;" cx="93" cy="93"
      /><rect x="127" width="5" height="10" y="132" style="stroke:none;"
      /><path d="M128.8906 140.6875 C128.4844 140.6875 128.1562 141.0469 128.1562 141.4219 C128.1562 141.8125 128.4844 142.1562 128.8906 142.1562 C129.2969 142.1562 129.6406 141.8125 129.6406 141.4219 C129.6406 141.0469 129.2969 140.6875 128.8906 140.6875 ZM130.4688 134.5781 C130.7188 134.8906 130.875 135.2656 130.8906 135.6562 C130.8906 136.1875 130.625 136.5 130.0312 136.7656 L129.4062 137.0156 C128.6406 137.3125 128.3906 137.5469 128.3906 137.9375 C128.3906 138.1094 128.4531 138.3438 128.5781 138.8125 L128.7344 139.3438 L129.1094 139.3438 L129.0938 138.5312 C129.0938 138.0938 129.2031 137.9688 129.7812 137.7344 L130.2031 137.5625 C131.0312 137.2188 131.4531 136.6875 131.4531 135.8438 C131.4531 134.1562 129.6562 133.1875 128.5 133.0312 C128.1094 133.125 127.9062 133.2969 127.9062 133.6406 C127.9062 133.9375 128.0625 134.1562 128.7188 134.2656 L130.4688 134.5781 Z" style="fill:black; stroke:none;"
      /><rect x="112" width="5" height="10" y="139" style="stroke:none;"
      /><path d="M113.8906 147.6875 C113.4844 147.6875 113.1562 148.0469 113.1562 148.4219 C113.1562 148.8125 113.4844 149.1562 113.8906 149.1562 C114.2969 149.1562 114.6406 148.8125 114.6406 148.4219 C114.6406 148.0469 114.2969 147.6875 113.8906 147.6875 ZM115.4688 141.5781 C115.7188 141.8906 115.875 142.2656 115.8906 142.6562 C115.8906 143.1875 115.625 143.5 115.0312 143.7656 L114.4062 144.0156 C113.6406 144.3125 113.3906 144.5469 113.3906 144.9375 C113.3906 145.1094 113.4531 145.3438 113.5781 145.8125 L113.7344 146.3438 L114.1094 146.3438 L114.0938 145.5312 C114.0938 145.0938 114.2031 144.9688 114.7812 144.7344 L115.2031 144.5625 C116.0312 144.2188 116.4531 143.6875 116.4531 142.8438 C116.4531 141.1562 114.6562 140.1875 113.5 140.0312 C113.1094 140.125 112.9062 140.2969 112.9062 140.6406 C112.9062 140.9375 113.0625 141.1562 113.7188 141.2656 L115.4688 141.5781 Z" style="fill:black; stroke:none;"
      /><rect x="120" width="5" height="10" y="109" style="stroke:none;"
      /><path d="M121.8906 117.6875 C121.4844 117.6875 121.1562 118.0469 121.1562 118.4219 C121.1562 118.8125 121.4844 119.1562 121.8906 119.1562 C122.2969 119.1562 122.6406 118.8125 122.6406 118.4219 C122.6406 118.0469 122.2969 117.6875 121.8906 117.6875 ZM123.4688 111.5781 C123.7188 111.8906 123.875 112.2656 123.8906 112.6562 C123.8906 113.1875 123.625 113.5 123.0312 113.7656 L122.4062 114.0156 C121.6406 114.3125 121.3906 114.5469 121.3906 114.9375 C121.3906 115.1094 121.4531 115.3438 121.5781 115.8125 L121.7344 116.3438 L122.1094 116.3438 L122.0938 115.5312 C122.0938 115.0938 122.2031 114.9688 122.7812 114.7344 L123.2031 114.5625 C124.0312 114.2188 124.4531 113.6875 124.4531 112.8438 C124.4531 111.1562 122.6562 110.1875 121.5 110.0312 C121.1094 110.125 120.9062 110.2969 120.9062 110.6406 C120.9062 110.9375 121.0625 111.1562 121.7188 111.2656 L123.4688 111.5781 Z" style="fill:black; stroke:none;"
      /><rect x="105" width="5" height="10" y="103" style="stroke:none;"
      /><path d="M106.8906 111.6875 C106.4844 111.6875 106.1562 112.0469 106.1562 112.4219 C106.1562 112.8125 106.4844 113.1562 106.8906 113.1562 C107.2969 113.1562 107.6406 112.8125 107.6406 112.4219 C107.6406 112.0469 107.2969 111.6875 106.8906 111.6875 ZM108.4688 105.5781 C108.7188 105.8906 108.875 106.2656 108.8906 106.6562 C108.8906 107.1875 108.625 107.5 108.0312 107.7656 L107.4062 108.0156 C106.6406 108.3125 106.3906 108.5469 106.3906 108.9375 C106.3906 109.1094 106.4531 109.3438 106.5781 109.8125 L106.7344 110.3438 L107.1094 110.3438 L107.0938 109.5312 C107.0938 109.0938 107.2031 108.9688 107.7812 108.7344 L108.2031 108.5625 C109.0312 108.2188 109.4531 107.6875 109.4531 106.8438 C109.4531 105.1562 107.6562 104.1875 106.5 104.0312 C106.1094 104.125 105.9062 104.2969 105.9062 104.6406 C105.9062 104.9375 106.0625 105.1562 106.7188 105.2656 L108.4688 105.5781 Z" style="fill:black; stroke:none;"
      /><polygon style="fill:none; stroke:black;" points=" 153 41 101 41"
      /><circle r="11" style="clip-path:url(#clipPath7); stroke:none;" cx="153" cy="41"
      /><rect x="142" y="30" width="22" style="clip-path:url(#clipPath7); fill:rgb(0,144,188); stroke:none;" height="22"
      /><rect x="142" y="30" width="22" style="clip-path:url(#clipPath7); fill:none; stroke:black;" height="22"
      /><circle r="11" style="fill:none; stroke:black;" cx="153" cy="41"
      /><polygon style="clip-path:url(#clipPath8); stroke:none;" points=" 112 41 106 48 95 48 90 41 95 33 106 33 112 41"
      /><rect x="90" y="30" width="22" style="clip-path:url(#clipPath8); fill:rgb(246,158,161); stroke:none;" height="22"
      /><rect x="90" y="30" width="22" style="clip-path:url(#clipPath8); fill:none; stroke:black;" height="22"
      /><polygon style="fill:none; stroke:black;" points=" 112 41 106 48 95 48 90 41 95 33 106 33 112 41"
      /><rect x="131" width="5" height="10" y="44" style="stroke:none;"
      /><path d="M132.8906 52.6875 C132.4844 52.6875 132.1562 53.0469 132.1562 53.4219 C132.1562 53.8125 132.4844 54.1562 132.8906 54.1562 C133.2969 54.1562 133.6406 53.8125 133.6406 53.4219 C133.6406 53.0469 133.2969 52.6875 132.8906 52.6875 ZM134.4688 46.5781 C134.7188 46.8906 134.875 47.2656 134.8906 47.6562 C134.8906 48.1875 134.625 48.5 134.0312 48.7656 L133.4062 49.0156 C132.6406 49.3125 132.3906 49.5469 132.3906 49.9375 C132.3906 50.1094 132.4531 50.3438 132.5781 50.8125 L132.7344 51.3438 L133.1094 51.3438 L133.0938 50.5312 C133.0938 50.0938 133.2031 49.9688 133.7812 49.7344 L134.2031 49.5625 C135.0312 49.2188 135.4531 48.6875 135.4531 47.8438 C135.4531 46.1562 133.6562 45.1875 132.5 45.0312 C132.1094 45.125 131.9062 45.2969 131.9062 45.6406 C131.9062 45.9375 132.0625 46.1562 132.7188 46.2656 L134.4688 46.5781 Z" style="fill:black; stroke:none;"
      /><rect x="117" width="5" height="10" y="44" style="stroke:none;"
      /><path d="M118.8906 52.6875 C118.4844 52.6875 118.1562 53.0469 118.1562 53.4219 C118.1562 53.8125 118.4844 54.1562 118.8906 54.1562 C119.2969 54.1562 119.6406 53.8125 119.6406 53.4219 C119.6406 53.0469 119.2969 52.6875 118.8906 52.6875 ZM120.4688 46.5781 C120.7188 46.8906 120.875 47.2656 120.8906 47.6562 C120.8906 48.1875 120.625 48.5 120.0312 48.7656 L119.4062 49.0156 C118.6406 49.3125 118.3906 49.5469 118.3906 49.9375 C118.3906 50.1094 118.4531 50.3438 118.5781 50.8125 L118.7344 51.3438 L119.1094 51.3438 L119.0938 50.5312 C119.0938 50.0938 119.2031 49.9688 119.7812 49.7344 L120.2031 49.5625 C121.0312 49.2188 121.4531 48.6875 121.4531 47.8438 C121.4531 46.1562 119.6562 45.1875 118.5 45.0312 C118.1094 45.125 117.9062 45.2969 117.9062 45.6406 C117.9062 45.9375 118.0625 46.1562 118.7188 46.2656 L120.4688 46.5781 Z" style="fill:black; stroke:none;"
      /><rect x="197" width="5" height="10" y="93" style="stroke:none;"
      /><path d="M198.8906 101.6875 C198.4844 101.6875 198.1562 102.0469 198.1562 102.4219 C198.1562 102.8125 198.4844 103.1562 198.8906 103.1562 C199.2969 103.1562 199.6406 102.8125 199.6406 102.4219 C199.6406 102.0469 199.2969 101.6875 198.8906 101.6875 ZM200.4688 95.5781 C200.7188 95.8906 200.875 96.2656 200.8906 96.6562 C200.8906 97.1875 200.625 97.5 200.0312 97.7656 L199.4062 98.0156 C198.6406 98.3125 198.3906 98.5469 198.3906 98.9375 C198.3906 99.1094 198.4531 99.3438 198.5781 99.8125 L198.7344 100.3438 L199.1094 100.3438 L199.0938 99.5312 C199.0938 99.0938 199.2031 98.9688 199.7812 98.7344 L200.2031 98.5625 C201.0312 98.2188 201.4531 97.6875 201.4531 96.8438 C201.4531 95.1562 199.6562 94.1875 198.5 94.0312 C198.1094 94.125 197.9062 94.2969 197.9062 94.6406 C197.9062 94.9375 198.0625 95.1562 198.7188 95.2656 L200.4688 95.5781 Z" style="fill:black; stroke:none;"
      /><rect x="180" width="5" height="10" y="103" style="stroke:none;"
      /><path d="M181.8906 111.6875 C181.4844 111.6875 181.1562 112.0469 181.1562 112.4219 C181.1562 112.8125 181.4844 113.1562 181.8906 113.1562 C182.2969 113.1562 182.6406 112.8125 182.6406 112.4219 C182.6406 112.0469 182.2969 111.6875 181.8906 111.6875 ZM183.4688 105.5781 C183.7188 105.8906 183.875 106.2656 183.8906 106.6562 C183.8906 107.1875 183.625 107.5 183.0312 107.7656 L182.4062 108.0156 C181.6406 108.3125 181.3906 108.5469 181.3906 108.9375 C181.3906 109.1094 181.4531 109.3438 181.5781 109.8125 L181.7344 110.3438 L182.1094 110.3438 L182.0938 109.5312 C182.0938 109.0938 182.2031 108.9688 182.7812 108.7344 L183.2031 108.5625 C184.0312 108.2188 184.4531 107.6875 184.4531 106.8438 C184.4531 105.1562 182.6562 104.1875 181.5 104.0312 C181.1094 104.125 180.9062 104.2969 180.9062 104.6406 C180.9062 104.9375 181.0625 105.1562 181.7188 105.2656 L183.4688 105.5781 Z" style="fill:black; stroke:none;"
      /><rect x="188" width="5" height="10" y="70" style="stroke:none;"
      /><path d="M189.8906 78.6875 C189.4844 78.6875 189.1562 79.0469 189.1562 79.4219 C189.1562 79.8125 189.4844 80.1562 189.8906 80.1562 C190.2969 80.1562 190.6406 79.8125 190.6406 79.4219 C190.6406 79.0469 190.2969 78.6875 189.8906 78.6875 ZM191.4688 72.5781 C191.7188 72.8906 191.875 73.2656 191.8906 73.6562 C191.8906 74.1875 191.625 74.5 191.0312 74.7656 L190.4062 75.0156 C189.6406 75.3125 189.3906 75.5469 189.3906 75.9375 C189.3906 76.1094 189.4531 76.3438 189.5781 76.8125 L189.7344 77.3438 L190.1094 77.3438 L190.0938 76.5312 C190.0938 76.0938 190.2031 75.9688 190.7812 75.7344 L191.2031 75.5625 C192.0312 75.2188 192.4531 74.6875 192.4531 73.8438 C192.4531 72.1562 190.6562 71.1875 189.5 71.0312 C189.1094 71.125 188.9062 71.2969 188.9062 71.6406 C188.9062 71.9375 189.0625 72.1562 189.7188 72.2656 L191.4688 72.5781 Z" style="fill:black; stroke:none;"
      /><rect x="163" width="5" height="10" y="54" style="stroke:none;"
      /><path d="M164.8906 62.6875 C164.4844 62.6875 164.1562 63.0469 164.1562 63.4219 C164.1562 63.8125 164.4844 64.1562 164.8906 64.1562 C165.2969 64.1562 165.6406 63.8125 165.6406 63.4219 C165.6406 63.0469 165.2969 62.6875 164.8906 62.6875 ZM166.4688 56.5781 C166.7188 56.8906 166.875 57.2656 166.8906 57.6562 C166.8906 58.1875 166.625 58.5 166.0312 58.7656 L165.4062 59.0156 C164.6406 59.3125 164.3906 59.5469 164.3906 59.9375 C164.3906 60.1094 164.4531 60.3438 164.5781 60.8125 L164.7344 61.3438 L165.1094 61.3438 L165.0938 60.5312 C165.0938 60.0938 165.2031 59.9688 165.7812 59.7344 L166.2031 59.5625 C167.0312 59.2188 167.4531 58.6875 167.4531 57.8438 C167.4531 56.1562 165.6562 55.1875 164.5 55.0312 C164.1094 55.125 163.9062 55.2969 163.9062 55.6406 C163.9062 55.9375 164.0625 56.1562 164.7188 56.2656 L166.4688 56.5781 Z" style="fill:black; stroke:none;"
      /><rect x="243" width="5" height="10" y="83" style="stroke:none;"
      /><path d="M244.8906 91.6875 C244.4844 91.6875 244.1562 92.0469 244.1562 92.4219 C244.1562 92.8125 244.4844 93.1562 244.8906 93.1562 C245.2969 93.1562 245.6406 92.8125 245.6406 92.4219 C245.6406 92.0469 245.2969 91.6875 244.8906 91.6875 ZM246.4688 85.5781 C246.7188 85.8906 246.875 86.2656 246.8906 86.6562 C246.8906 87.1875 246.625 87.5 246.0312 87.7656 L245.4062 88.0156 C244.6406 88.3125 244.3906 88.5469 244.3906 88.9375 C244.3906 89.1094 244.4531 89.3438 244.5781 89.8125 L244.7344 90.3438 L245.1094 90.3438 L245.0938 89.5312 C245.0938 89.0938 245.2031 88.9688 245.7812 88.7344 L246.2031 88.5625 C247.0312 88.2188 247.4531 87.6875 247.4531 86.8438 C247.4531 85.1562 245.6562 84.1875 244.5 84.0312 C244.1094 84.125 243.9062 84.2969 243.9062 84.6406 C243.9062 84.9375 244.0625 85.1562 244.7188 85.2656 L246.4688 85.5781 Z" style="fill:black; stroke:none;"
      /><rect x="229" width="5" height="10" y="83" style="stroke:none;"
      /><path d="M230.8906 91.6875 C230.4844 91.6875 230.1562 92.0469 230.1562 92.4219 C230.1562 92.8125 230.4844 93.1562 230.8906 93.1562 C231.2969 93.1562 231.6406 92.8125 231.6406 92.4219 C231.6406 92.0469 231.2969 91.6875 230.8906 91.6875 ZM232.4688 85.5781 C232.7188 85.8906 232.875 86.2656 232.8906 86.6562 C232.8906 87.1875 232.625 87.5 232.0312 87.7656 L231.4062 88.0156 C230.6406 88.3125 230.3906 88.5469 230.3906 88.9375 C230.3906 89.1094 230.4531 89.3438 230.5781 89.8125 L230.7344 90.3438 L231.1094 90.3438 L231.0938 89.5312 C231.0938 89.0938 231.2031 88.9688 231.7812 88.7344 L232.2031 88.5625 C233.0312 88.2188 233.4531 87.6875 233.4531 86.8438 C233.4531 85.1562 231.6562 84.1875 230.5 84.0312 C230.1094 84.125 229.9062 84.2969 229.9062 84.6406 C229.9062 84.9375 230.0625 85.1562 230.7188 85.2656 L232.4688 85.5781 Z" style="fill:black; stroke:none;"
      /><rect x="306" width="5" height="10" y="83" style="stroke:none;"
      /><path d="M307.8906 91.6875 C307.4844 91.6875 307.1562 92.0469 307.1562 92.4219 C307.1562 92.8125 307.4844 93.1562 307.8906 93.1562 C308.2969 93.1562 308.6406 92.8125 308.6406 92.4219 C308.6406 92.0469 308.2969 91.6875 307.8906 91.6875 ZM309.4688 85.5781 C309.7188 85.8906 309.875 86.2656 309.8906 86.6562 C309.8906 87.1875 309.625 87.5 309.0312 87.7656 L308.4062 88.0156 C307.6406 88.3125 307.3906 88.5469 307.3906 88.9375 C307.3906 89.1094 307.4531 89.3438 307.5781 89.8125 L307.7344 90.3438 L308.1094 90.3438 L308.0938 89.5312 C308.0938 89.0938 308.2031 88.9688 308.7812 88.7344 L309.2031 88.5625 C310.0312 88.2188 310.4531 87.6875 310.4531 86.8438 C310.4531 85.1562 308.6562 84.1875 307.5 84.0312 C307.1094 84.125 306.9062 84.2969 306.9062 84.6406 C306.9062 84.9375 307.0625 85.1562 307.7188 85.2656 L309.4688 85.5781 Z" style="fill:black; stroke:none;"
    /></g
  ></g
></svg
>
