<?xml version="1.0"?>
<!DOCTYPE svg PUBLIC '-//W3C//DTD SVG 1.0//EN'
          'http://www.w3.org/TR/2001/REC-SVG-20010904/DTD/svg10.dtd'>
<svg xmlns:xlink="http://www.w3.org/1999/xlink" style="fill-opacity:1; color-rendering:auto; color-interpolation:auto; text-rendering:auto; stroke:black; stroke-linecap:square; stroke-miterlimit:10; shape-rendering:auto; stroke-opacity:1; fill:black; stroke-dasharray:none; font-weight:normal; stroke-width:1; font-family:'Dialog'; font-style:normal; stroke-linejoin:miter; font-size:12px; stroke-dashoffset:0; image-rendering:auto;" viewBox="0 0 186 134" xmlns="http://www.w3.org/2000/svg"
><!--Generated by the Batik Graphics2D SVG Generator--><defs id="genericDefs"
  /><g
  ><defs id="defs1"
    ><clipPath clipPathUnits="userSpaceOnUse" id="clipPath1"
      ><path d="M82 56 L104 56 L104 78 L82 78 L82 56 Z"
      /></clipPath
      ><clipPath clipPathUnits="userSpaceOnUse" id="clipPath2"
      ><path d="M30 82 L52 82 L52 104 L30 104 L30 82 Z"
      /></clipPath
      ><clipPath clipPathUnits="userSpaceOnUse" id="clipPath3"
      ><path d="M30 30 L52 30 L52 52 L30 52 L30 30 Z"
      /></clipPath
    ></defs
    ><g style="fill:white; text-rendering:optimizeSpeed; stroke:white;"
    ><rect x="0" width="186" height="134" y="0" style="stroke:none;"
      /><polygon style="fill:none; stroke:black;" points=" 145 67 93 67"
      /><path d="M145 56 C139.5 61.5 150.5 72.5 145 78" style="fill:none; stroke:black;"
      /><polygon style="fill:none; stroke:black;" points=" 93 67 41 93"
      /><polygon style="fill:none; stroke:black;" points=" 93 67 41 41"
      /><rect x="82" y="56" width="22" style="clip-path:url(#clipPath1); stroke:none;" height="22"
      /><rect x="82" y="56" width="22" style="clip-path:url(#clipPath1); fill:rgb(0,144,188); stroke:none;" height="22"
      /><rect x="82" y="56" width="22" style="clip-path:url(#clipPath1); fill:none; stroke:black;" height="22"
      /><rect x="82" y="56" width="22" style="fill:none; stroke:black;" height="22"
      /><rect x="30" y="82" width="22" style="clip-path:url(#clipPath2); stroke:none;" height="22"
      /><rect x="30" y="82" width="22" style="clip-path:url(#clipPath2); fill:rgb(0,144,188); stroke:none;" height="22"
      /><rect x="30" y="82" width="22" style="clip-path:url(#clipPath2); fill:none; stroke:black;" height="22"
      /><rect x="30" y="82" width="22" style="fill:none; stroke:black;" height="22"
      /><rect x="30" y="30" width="22" style="clip-path:url(#clipPath3); stroke:none;" height="22"
      /><rect x="30" y="30" width="22" style="clip-path:url(#clipPath3); fill:rgb(0,144,188); stroke:none;" height="22"
      /><rect x="30" y="30" width="22" style="clip-path:url(#clipPath3); fill:none; stroke:black;" height="22"
      /><rect x="30" y="30" width="22" style="fill:none; stroke:black;" height="22"
      /><rect x="74" y="78" width="7" style="stroke:none;" height="9"
    /></g
    ><g style="font-family:'Serif'; text-rendering:optimizeSpeed; "
    ><path style="stroke:none;" d="M75 83.5156 L77.9531 79.2656 L77.9531 83.5156 L75 83.5156 ZM80.2812 83.5156 L78.8594 83.5156 L78.8594 78.125 L78.2344 78.125 L74.3438 83.6406 L74.3438 84.1875 L77.9531 84.1875 L77.9531 87 L78.8594 87 L78.8594 84.1875 L80.2812 84.1875 L80.2812 83.5156 Z"
      /><rect x="59" y="84" width="6" style="fill:white; stroke:none;" height="13"
      /><path style="stroke:none;" d="M61.0938 90.2031 C61.0938 88.6562 61.75 87.8125 62.7969 87.8125 C63.7188 87.8125 64.2656 88.4531 64.2656 89.5156 C64.2656 90.7188 63.5 91.4375 62.1875 91.7031 L62.2969 92.3125 C64.2188 92.2344 64.9375 93.2188 64.9375 94.4375 C64.9375 95.625 64.2344 96.4219 62.9531 96.4219 C62.25 96.4219 61.6562 96.1562 61.0938 95.7188 L61.0938 90.2031 ZM60.2031 96.9062 L60.1094 99.375 L60.2656 99.4844 L61.1562 99.2656 L61.0156 96.0938 C61.5469 96.8438 62.3594 97.1719 63.1719 97.1719 C64.5625 97.1719 65.8594 96.2188 65.8594 94.4844 C65.8594 92.9531 64.875 92.1094 63.125 92 C64.5625 91.6094 65.1875 90.4531 65.1875 89.4844 C65.1875 88.0938 64.1562 87.3125 62.9062 87.3125 C61.2969 87.3125 60.2188 88.5469 60.2188 90.5156 L60.2031 96.9062 Z"
      /><rect x="68" y="60" width="6" style="fill:white; stroke:none;" height="10"
      /><path style="stroke:none;" d="M71.3438 69.6875 C70.2031 69.6875 69.5312 68.5 69.5312 66.2969 C69.5312 66.2188 69.5312 66.125 69.5312 66.0469 C70.0938 65.5 70.7188 65.3125 71.3438 65.3125 C72.3125 65.3125 72.9531 65.9844 72.9531 67.4531 C72.9531 68.9375 72.3125 69.6875 71.3438 69.6875 ZM73.5312 61.0781 C70.3438 61.4531 68.5625 63.7656 68.5625 66.4531 C68.5625 68.7812 69.6094 70.1719 71.3125 70.1719 C72.8438 70.1719 73.9219 69.1094 73.9219 67.2812 C73.9219 65.6875 72.9688 64.6562 71.5625 64.6562 C70.8281 64.6562 70.1406 64.9844 69.5781 65.5781 C69.7969 63.4062 71.0781 61.9688 73.5938 61.3906 L73.5312 61.0781 Z"
      /><rect x="52" y="50" width="6" style="fill:white; stroke:none;" height="13"
      /><path style="stroke:none;" d="M54.0938 56.2031 C54.0938 54.6562 54.75 53.8125 55.7969 53.8125 C56.7188 53.8125 57.2656 54.4531 57.2656 55.5156 C57.2656 56.7188 56.5 57.4375 55.1875 57.7031 L55.2969 58.3125 C57.2188 58.2344 57.9375 59.2188 57.9375 60.4375 C57.9375 61.625 57.2344 62.4219 55.9531 62.4219 C55.25 62.4219 54.6562 62.1562 54.0938 61.7188 L54.0938 56.2031 ZM53.2031 62.9062 L53.1094 65.375 L53.2656 65.4844 L54.1562 65.2656 L54.0156 62.0938 C54.5469 62.8438 55.3594 63.1719 56.1719 63.1719 C57.5625 63.1719 58.8594 62.2188 58.8594 60.4844 C58.8594 58.9531 57.875 58.1094 56.125 58 C57.5625 57.6094 58.1875 56.4531 58.1875 55.4844 C58.1875 54.0938 57.1562 53.3125 55.9062 53.3125 C54.2969 53.3125 53.2188 54.5469 53.2188 56.5156 L53.2031 62.9062 Z"
      /><rect x="109" y="70" width="5" style="fill:white; stroke:none;" height="10"
      /><path style="stroke:none;" d="M110.8906 78.6875 C110.4844 78.6875 110.1562 79.0469 110.1562 79.4219 C110.1562 79.8125 110.4844 80.1562 110.8906 80.1562 C111.2969 80.1562 111.6406 79.8125 111.6406 79.4219 C111.6406 79.0469 111.2969 78.6875 110.8906 78.6875 ZM112.4688 72.5781 C112.7188 72.8906 112.875 73.2656 112.8906 73.6562 C112.8906 74.1875 112.625 74.5 112.0312 74.7656 L111.4062 75.0156 C110.6406 75.3125 110.3906 75.5469 110.3906 75.9375 C110.3906 76.1094 110.4531 76.3438 110.5781 76.8125 L110.7344 77.3438 L111.1094 77.3438 L111.0938 76.5312 C111.0938 76.0938 111.2031 75.9688 111.7812 75.7344 L112.2031 75.5625 C113.0312 75.2188 113.4531 74.6875 113.4531 73.8438 C113.4531 72.1562 111.6562 71.1875 110.5 71.0312 C110.1094 71.125 109.9062 71.2969 109.9062 71.6406 C109.9062 71.9375 110.0625 72.1562 110.7188 72.2656 L112.4688 72.5781 Z"
    /></g
  ></g
></svg
>
