<?xml version="1.0"?>
<!DOCTYPE svg PUBLIC '-//W3C//DTD SVG 1.0//EN'
          'http://www.w3.org/TR/2001/REC-SVG-20010904/DTD/svg10.dtd'>
<svg xmlns:xlink="http://www.w3.org/1999/xlink" style="fill-opacity:1; color-rendering:auto; color-interpolation:auto; text-rendering:auto; stroke:black; stroke-linecap:square; stroke-miterlimit:10; shape-rendering:auto; stroke-opacity:1; fill:black; stroke-dasharray:none; font-weight:normal; stroke-width:1; font-family:'Dialog'; font-style:normal; stroke-linejoin:miter; font-size:12px; stroke-dashoffset:0; image-rendering:auto;" viewBox="0 0 446 160" xmlns="http://www.w3.org/2000/svg"
><!--Generated by the Batik Graphics2D SVG Generator--><defs id="genericDefs"
  /><g
  ><defs id="defs1"
    ><clipPath clipPathUnits="userSpaceOnUse" id="clipPath1"
      ><path d="M342 82 L364 82 L364 104 L342 104 L342 82 Z"
      /></clipPath
      ><clipPath clipPathUnits="userSpaceOnUse" id="clipPath2"
      ><path d="M290 82 L312 82 L312 104 L290 104 L290 82 Z"
      /></clipPath
      ><clipPath clipPathUnits="userSpaceOnUse" id="clipPath3"
      ><path d="M260 93 C260 99.0751 255.0751 104 249 104 C242.9249 104 238 99.0751 238 93 C238 86.9249 242.9249 82 249 82 C255.0751 82 260 86.9249 260 93 Z"
      /></clipPath
      ><clipPath clipPathUnits="userSpaceOnUse" id="clipPath4"
      ><path d="M208 119 C208 125.0751 203.0751 130 197 130 C190.9249 130 186 125.0751 186 119 C186 112.9249 190.9249 108 197 108 C203.0751 108 208 112.9249 208 119 Z"
      /></clipPath
      ><clipPath clipPathUnits="userSpaceOnUse" id="clipPath5"
      ><path d="M134 108 L156 108 L156 130 L134 130 L134 108 Z"
      /></clipPath
      ><clipPath clipPathUnits="userSpaceOnUse" id="clipPath6"
      ><path d="M82 108 L104 108 L104 130 L82 130 L82 108 Z"
      /></clipPath
      ><clipPath clipPathUnits="userSpaceOnUse" id="clipPath7"
      ><path d="M30 108 L52 108 L52 130 L30 130 L30 108 Z"
      /></clipPath
      ><clipPath clipPathUnits="userSpaceOnUse" id="clipPath8"
      ><path d="M208 67 C208 73.0751 203.0751 78 197 78 C190.9249 78 186 73.0751 186 67 C186 60.9249 190.9249 56 197 56 C203.0751 56 208 60.9249 208 67 Z"
      /></clipPath
      ><clipPath clipPathUnits="userSpaceOnUse" id="clipPath9"
      ><path d="M134 56 L156 56 L156 78 L134 78 L134 56 Z"
      /></clipPath
      ><clipPath clipPathUnits="userSpaceOnUse" id="clipPath10"
      ><path d="M82 56 L104 56 L104 78 L82 78 L82 56 Z"
      /></clipPath
      ><clipPath clipPathUnits="userSpaceOnUse" id="clipPath11"
      ><path d="M30 56 L52 56 L52 78 L30 78 L30 56 Z"
      /></clipPath
      ><clipPath clipPathUnits="userSpaceOnUse" id="clipPath12"
      ><path style="fill-rule:evenodd;" d="M353 52 L342 30 L364 30 Z"
      /></clipPath
    ></defs
    ><g style="fill:white; text-rendering:optimizeSpeed; stroke:white;"
    ><rect x="0" width="446" height="160" y="0" style="stroke:none;"
      /><polygon style="fill:none; stroke:black;" points=" 405 93 353 93"
      /><path d="M405 82 C399.5 87.5 410.5 98.5 405 104" style="fill:none; stroke:black;"
      /><polygon style="fill:none; stroke:black;" points=" 353 93 301 93"
      /><polygon style="fill:none; stroke:black;" points=" 353 93 353 41"
      /><rect x="342" y="82" width="22" style="clip-path:url(#clipPath1); stroke:none;" height="22"
      /><rect x="342" y="82" width="22" style="clip-path:url(#clipPath1); fill:rgb(0,144,188); stroke:none;" height="22"
      /><rect x="342" y="82" width="22" style="clip-path:url(#clipPath1); fill:none; stroke:black;" height="22"
      /><rect x="342" y="82" width="22" style="fill:none; stroke:black;" height="22"
      /><polygon style="fill:none; stroke:black;" points=" 301 93 249 93"
      /><rect x="290" y="82" width="22" style="clip-path:url(#clipPath2); stroke:none;" height="22"
      /><rect x="290" y="82" width="22" style="clip-path:url(#clipPath2); fill:rgb(0,144,188); stroke:none;" height="22"
      /><rect x="290" y="82" width="22" style="clip-path:url(#clipPath2); fill:none; stroke:black;" height="22"
      /><rect x="290" y="82" width="22" style="fill:none; stroke:black;" height="22"
      /><polygon style="fill:none; stroke:black;" points=" 249 93 197 119"
      /><polygon style="fill:none; stroke:black;" points=" 249 93 197 67"
      /><circle style="clip-path:url(#clipPath3); stroke:none;" r="11" cx="249" cy="93"
      /><rect x="238" y="82" width="22" style="clip-path:url(#clipPath3); fill:rgb(0,166,81); stroke:none;" height="22"
      /><rect x="238" y="82" width="22" style="clip-path:url(#clipPath3); fill:none; stroke:black;" height="22"
      /><circle style="fill:none; stroke:black;" r="11" cx="249" cy="93"
      /><polygon style="fill:none; stroke:black;" points=" 197 119 145 119"
      /><circle style="clip-path:url(#clipPath4); stroke:none;" r="11" cx="197" cy="119"
      /><rect x="186" y="108" width="22" style="clip-path:url(#clipPath4); fill:rgb(0,166,81); stroke:none;" height="22"
      /><rect x="186" y="108" width="22" style="clip-path:url(#clipPath4); fill:none; stroke:black;" height="22"
      /><circle style="fill:none; stroke:black;" r="11" cx="197" cy="119"
      /><polygon style="fill:none; stroke:black;" points=" 145 119 93 119"
      /><rect x="134" y="108" width="22" style="clip-path:url(#clipPath5); stroke:none;" height="22"
      /><rect x="134" y="108" width="22" style="clip-path:url(#clipPath5); fill:rgb(0,144,188); stroke:none;" height="22"
      /><rect x="134" y="108" width="22" style="clip-path:url(#clipPath5); fill:none; stroke:black;" height="22"
      /><rect x="134" y="108" width="22" style="fill:none; stroke:black;" height="22"
      /><polygon style="fill:none; stroke:black;" points=" 93 119 41 119"
      /><rect x="82" y="108" width="22" style="clip-path:url(#clipPath6); stroke:none;" height="22"
      /><rect x="82" y="108" width="22" style="clip-path:url(#clipPath6); fill:rgb(0,144,188); stroke:none;" height="22"
      /><rect x="82" y="108" width="22" style="clip-path:url(#clipPath6); fill:none; stroke:black;" height="22"
      /><rect x="82" y="108" width="22" style="fill:none; stroke:black;" height="22"
      /><rect x="30" y="108" width="22" style="clip-path:url(#clipPath7); stroke:none;" height="22"
      /><rect x="30" y="108" width="22" style="clip-path:url(#clipPath7); fill:rgb(0,144,188); stroke:none;" height="22"
      /><rect x="30" y="108" width="22" style="clip-path:url(#clipPath7); fill:none; stroke:black;" height="22"
      /><rect x="30" y="108" width="22" style="fill:none; stroke:black;" height="22"
      /><rect x="71" y="122" width="5" style="stroke:none;" height="10"
    /></g
    ><g style="font-family:'Serif'; text-rendering:optimizeSpeed; "
    ><path style="stroke:none;" d="M72.8906 130.6875 C72.4844 130.6875 72.1562 131.0469 72.1562 131.4219 C72.1562 131.8125 72.4844 132.1562 72.8906 132.1562 C73.2969 132.1562 73.6406 131.8125 73.6406 131.4219 C73.6406 131.0469 73.2969 130.6875 72.8906 130.6875 ZM74.4688 124.5781 C74.7188 124.8906 74.875 125.2656 74.8906 125.6562 C74.8906 126.1875 74.625 126.5 74.0312 126.7656 L73.4062 127.0156 C72.6406 127.3125 72.3906 127.5469 72.3906 127.9375 C72.3906 128.1094 72.4531 128.3438 72.5781 128.8125 L72.7344 129.3438 L73.1094 129.3438 L73.0938 128.5312 C73.0938 128.0938 73.2031 127.9688 73.7812 127.7344 L74.2031 127.5625 C75.0312 127.2188 75.4531 126.6875 75.4531 125.8438 C75.4531 124.1562 73.6562 123.1875 72.5 123.0312 C72.1094 123.125 71.9062 123.2969 71.9062 123.6406 C71.9062 123.9375 72.0625 124.1562 72.7188 124.2656 L74.4688 124.5781 Z"
      /><rect x="57" y="122" width="5" style="fill:white; stroke:none;" height="10"
      /><path style="stroke:none;" d="M58.8906 130.6875 C58.4844 130.6875 58.1562 131.0469 58.1562 131.4219 C58.1562 131.8125 58.4844 132.1562 58.8906 132.1562 C59.2969 132.1562 59.6406 131.8125 59.6406 131.4219 C59.6406 131.0469 59.2969 130.6875 58.8906 130.6875 ZM60.4688 124.5781 C60.7188 124.8906 60.875 125.2656 60.8906 125.6562 C60.8906 126.1875 60.625 126.5 60.0312 126.7656 L59.4062 127.0156 C58.6406 127.3125 58.3906 127.5469 58.3906 127.9375 C58.3906 128.1094 58.4531 128.3438 58.5781 128.8125 L58.7344 129.3438 L59.1094 129.3438 L59.0938 128.5312 C59.0938 128.0938 59.2031 127.9688 59.7812 127.7344 L60.2031 127.5625 C61.0312 127.2188 61.4531 126.6875 61.4531 125.8438 C61.4531 124.1562 59.6562 123.1875 58.5 123.0312 C58.1094 123.125 57.9062 123.2969 57.9062 123.6406 C57.9062 123.9375 58.0625 124.1562 58.7188 124.2656 L60.4688 124.5781 Z"
      /><rect x="123" y="122" width="5" style="fill:white; stroke:none;" height="10"
      /><path style="stroke:none;" d="M124.8906 130.6875 C124.4844 130.6875 124.1562 131.0469 124.1562 131.4219 C124.1562 131.8125 124.4844 132.1562 124.8906 132.1562 C125.2969 132.1562 125.6406 131.8125 125.6406 131.4219 C125.6406 131.0469 125.2969 130.6875 124.8906 130.6875 ZM126.4688 124.5781 C126.7188 124.8906 126.875 125.2656 126.8906 125.6562 C126.8906 126.1875 126.625 126.5 126.0312 126.7656 L125.4062 127.0156 C124.6406 127.3125 124.3906 127.5469 124.3906 127.9375 C124.3906 128.1094 124.4531 128.3438 124.5781 128.8125 L124.7344 129.3438 L125.1094 129.3438 L125.0938 128.5312 C125.0938 128.0938 125.2031 127.9688 125.7812 127.7344 L126.2031 127.5625 C127.0312 127.2188 127.4531 126.6875 127.4531 125.8438 C127.4531 124.1562 125.6562 123.1875 124.5 123.0312 C124.1094 123.125 123.9062 123.2969 123.9062 123.6406 C123.9062 123.9375 124.0625 124.1562 124.7188 124.2656 L126.4688 124.5781 Z"
      /><rect x="109" y="122" width="5" style="fill:white; stroke:none;" height="10"
      /><path style="stroke:none;" d="M110.8906 130.6875 C110.4844 130.6875 110.1562 131.0469 110.1562 131.4219 C110.1562 131.8125 110.4844 132.1562 110.8906 132.1562 C111.2969 132.1562 111.6406 131.8125 111.6406 131.4219 C111.6406 131.0469 111.2969 130.6875 110.8906 130.6875 ZM112.4688 124.5781 C112.7188 124.8906 112.875 125.2656 112.8906 125.6562 C112.8906 126.1875 112.625 126.5 112.0312 126.7656 L111.4062 127.0156 C110.6406 127.3125 110.3906 127.5469 110.3906 127.9375 C110.3906 128.1094 110.4531 128.3438 110.5781 128.8125 L110.7344 129.3438 L111.1094 129.3438 L111.0938 128.5312 C111.0938 128.0938 111.2031 127.9688 111.7812 127.7344 L112.2031 127.5625 C113.0312 127.2188 113.4531 126.6875 113.4531 125.8438 C113.4531 124.1562 111.6562 123.1875 110.5 123.0312 C110.1094 123.125 109.9062 123.2969 109.9062 123.6406 C109.9062 123.9375 110.0625 124.1562 110.7188 124.2656 L112.4688 124.5781 Z"
      /><rect x="175" y="122" width="5" style="fill:white; stroke:none;" height="10"
      /><path style="stroke:none;" d="M176.8906 130.6875 C176.4844 130.6875 176.1562 131.0469 176.1562 131.4219 C176.1562 131.8125 176.4844 132.1562 176.8906 132.1562 C177.2969 132.1562 177.6406 131.8125 177.6406 131.4219 C177.6406 131.0469 177.2969 130.6875 176.8906 130.6875 ZM178.4688 124.5781 C178.7188 124.8906 178.875 125.2656 178.8906 125.6562 C178.8906 126.1875 178.625 126.5 178.0312 126.7656 L177.4062 127.0156 C176.6406 127.3125 176.3906 127.5469 176.3906 127.9375 C176.3906 128.1094 176.4531 128.3438 176.5781 128.8125 L176.7344 129.3438 L177.1094 129.3438 L177.0938 128.5312 C177.0938 128.0938 177.2031 127.9688 177.7812 127.7344 L178.2031 127.5625 C179.0312 127.2188 179.4531 126.6875 179.4531 125.8438 C179.4531 124.1562 177.6562 123.1875 176.5 123.0312 C176.1094 123.125 175.9062 123.2969 175.9062 123.6406 C175.9062 123.9375 176.0625 124.1562 176.7188 124.2656 L178.4688 124.5781 Z"
      /><rect x="161" y="122" width="5" style="fill:white; stroke:none;" height="10"
      /><path style="stroke:none;" d="M162.8906 130.6875 C162.4844 130.6875 162.1562 131.0469 162.1562 131.4219 C162.1562 131.8125 162.4844 132.1562 162.8906 132.1562 C163.2969 132.1562 163.6406 131.8125 163.6406 131.4219 C163.6406 131.0469 163.2969 130.6875 162.8906 130.6875 ZM164.4688 124.5781 C164.7188 124.8906 164.875 125.2656 164.8906 125.6562 C164.8906 126.1875 164.625 126.5 164.0312 126.7656 L163.4062 127.0156 C162.6406 127.3125 162.3906 127.5469 162.3906 127.9375 C162.3906 128.1094 162.4531 128.3438 162.5781 128.8125 L162.7344 129.3438 L163.1094 129.3438 L163.0938 128.5312 C163.0938 128.0938 163.2031 127.9688 163.7812 127.7344 L164.2031 127.5625 C165.0312 127.2188 165.4531 126.6875 165.4531 125.8438 C165.4531 124.1562 163.6562 123.1875 162.5 123.0312 C162.1094 123.125 161.9062 123.2969 161.9062 123.6406 C161.9062 123.9375 162.0625 124.1562 162.7188 124.2656 L164.4688 124.5781 Z"
      /><polygon style="fill:none;" points=" 197 67 145 67"
      /><circle style="fill:white; clip-path:url(#clipPath8); stroke:none;" r="11" cx="197" cy="67"
      /><rect x="186" y="56" width="22" style="clip-path:url(#clipPath8); fill:rgb(0,166,81); stroke:none;" height="22"
      /><rect x="186" y="56" width="22" style="fill:none; clip-path:url(#clipPath8);" height="22"
      /><circle r="11" style="fill:none;" cx="197" cy="67"
      /><polygon style="fill:none;" points=" 145 67 93 67"
      /><rect x="134" y="56" width="22" style="clip-path:url(#clipPath9); fill:white; stroke:none;" height="22"
      /><rect x="134" y="56" width="22" style="clip-path:url(#clipPath9); fill:rgb(0,144,188); stroke:none;" height="22"
      /><rect x="134" y="56" width="22" style="fill:none; clip-path:url(#clipPath9);" height="22"
      /><rect x="134" width="22" height="22" y="56" style="fill:none;"
      /><polygon style="fill:none;" points=" 93 67 41 67"
      /><rect x="82" y="56" width="22" style="clip-path:url(#clipPath10); fill:white; stroke:none;" height="22"
      /><rect x="82" y="56" width="22" style="clip-path:url(#clipPath10); fill:rgb(0,144,188); stroke:none;" height="22"
      /><rect x="82" y="56" width="22" style="fill:none; clip-path:url(#clipPath10);" height="22"
      /><rect x="82" width="22" height="22" y="56" style="fill:none;"
      /><rect x="30" y="56" width="22" style="clip-path:url(#clipPath11); fill:white; stroke:none;" height="22"
      /><rect x="30" y="56" width="22" style="clip-path:url(#clipPath11); fill:rgb(0,144,188); stroke:none;" height="22"
      /><rect x="30" y="56" width="22" style="fill:none; clip-path:url(#clipPath11);" height="22"
      /><rect x="30" width="22" height="22" y="56" style="fill:none;"
      /><rect x="71" y="70" width="5" style="fill:white; stroke:none;" height="10"
      /><path style="stroke:none;" d="M72.8906 78.6875 C72.4844 78.6875 72.1562 79.0469 72.1562 79.4219 C72.1562 79.8125 72.4844 80.1562 72.8906 80.1562 C73.2969 80.1562 73.6406 79.8125 73.6406 79.4219 C73.6406 79.0469 73.2969 78.6875 72.8906 78.6875 ZM74.4688 72.5781 C74.7188 72.8906 74.875 73.2656 74.8906 73.6562 C74.8906 74.1875 74.625 74.5 74.0312 74.7656 L73.4062 75.0156 C72.6406 75.3125 72.3906 75.5469 72.3906 75.9375 C72.3906 76.1094 72.4531 76.3438 72.5781 76.8125 L72.7344 77.3438 L73.1094 77.3438 L73.0938 76.5312 C73.0938 76.0938 73.2031 75.9688 73.7812 75.7344 L74.2031 75.5625 C75.0312 75.2188 75.4531 74.6875 75.4531 73.8438 C75.4531 72.1562 73.6562 71.1875 72.5 71.0312 C72.1094 71.125 71.9062 71.2969 71.9062 71.6406 C71.9062 71.9375 72.0625 72.1562 72.7188 72.2656 L74.4688 72.5781 Z"
      /><rect x="57" y="70" width="5" style="fill:white; stroke:none;" height="10"
      /><path style="stroke:none;" d="M58.8906 78.6875 C58.4844 78.6875 58.1562 79.0469 58.1562 79.4219 C58.1562 79.8125 58.4844 80.1562 58.8906 80.1562 C59.2969 80.1562 59.6406 79.8125 59.6406 79.4219 C59.6406 79.0469 59.2969 78.6875 58.8906 78.6875 ZM60.4688 72.5781 C60.7188 72.8906 60.875 73.2656 60.8906 73.6562 C60.8906 74.1875 60.625 74.5 60.0312 74.7656 L59.4062 75.0156 C58.6406 75.3125 58.3906 75.5469 58.3906 75.9375 C58.3906 76.1094 58.4531 76.3438 58.5781 76.8125 L58.7344 77.3438 L59.1094 77.3438 L59.0938 76.5312 C59.0938 76.0938 59.2031 75.9688 59.7812 75.7344 L60.2031 75.5625 C61.0312 75.2188 61.4531 74.6875 61.4531 73.8438 C61.4531 72.1562 59.6562 71.1875 58.5 71.0312 C58.1094 71.125 57.9062 71.2969 57.9062 71.6406 C57.9062 71.9375 58.0625 72.1562 58.7188 72.2656 L60.4688 72.5781 Z"
      /><rect x="123" y="70" width="5" style="fill:white; stroke:none;" height="10"
      /><path style="stroke:none;" d="M124.8906 78.6875 C124.4844 78.6875 124.1562 79.0469 124.1562 79.4219 C124.1562 79.8125 124.4844 80.1562 124.8906 80.1562 C125.2969 80.1562 125.6406 79.8125 125.6406 79.4219 C125.6406 79.0469 125.2969 78.6875 124.8906 78.6875 ZM126.4688 72.5781 C126.7188 72.8906 126.875 73.2656 126.8906 73.6562 C126.8906 74.1875 126.625 74.5 126.0312 74.7656 L125.4062 75.0156 C124.6406 75.3125 124.3906 75.5469 124.3906 75.9375 C124.3906 76.1094 124.4531 76.3438 124.5781 76.8125 L124.7344 77.3438 L125.1094 77.3438 L125.0938 76.5312 C125.0938 76.0938 125.2031 75.9688 125.7812 75.7344 L126.2031 75.5625 C127.0312 75.2188 127.4531 74.6875 127.4531 73.8438 C127.4531 72.1562 125.6562 71.1875 124.5 71.0312 C124.1094 71.125 123.9062 71.2969 123.9062 71.6406 C123.9062 71.9375 124.0625 72.1562 124.7188 72.2656 L126.4688 72.5781 Z"
      /><rect x="109" y="70" width="5" style="fill:white; stroke:none;" height="10"
      /><path style="stroke:none;" d="M110.8906 78.6875 C110.4844 78.6875 110.1562 79.0469 110.1562 79.4219 C110.1562 79.8125 110.4844 80.1562 110.8906 80.1562 C111.2969 80.1562 111.6406 79.8125 111.6406 79.4219 C111.6406 79.0469 111.2969 78.6875 110.8906 78.6875 ZM112.4688 72.5781 C112.7188 72.8906 112.875 73.2656 112.8906 73.6562 C112.8906 74.1875 112.625 74.5 112.0312 74.7656 L111.4062 75.0156 C110.6406 75.3125 110.3906 75.5469 110.3906 75.9375 C110.3906 76.1094 110.4531 76.3438 110.5781 76.8125 L110.7344 77.3438 L111.1094 77.3438 L111.0938 76.5312 C111.0938 76.0938 111.2031 75.9688 111.7812 75.7344 L112.2031 75.5625 C113.0312 75.2188 113.4531 74.6875 113.4531 73.8438 C113.4531 72.1562 111.6562 71.1875 110.5 71.0312 C110.1094 71.125 109.9062 71.2969 109.9062 71.6406 C109.9062 71.9375 110.0625 72.1562 110.7188 72.2656 L112.4688 72.5781 Z"
      /><rect x="175" y="70" width="5" style="fill:white; stroke:none;" height="10"
      /><path style="stroke:none;" d="M176.8906 78.6875 C176.4844 78.6875 176.1562 79.0469 176.1562 79.4219 C176.1562 79.8125 176.4844 80.1562 176.8906 80.1562 C177.2969 80.1562 177.6406 79.8125 177.6406 79.4219 C177.6406 79.0469 177.2969 78.6875 176.8906 78.6875 ZM178.4688 72.5781 C178.7188 72.8906 178.875 73.2656 178.8906 73.6562 C178.8906 74.1875 178.625 74.5 178.0312 74.7656 L177.4062 75.0156 C176.6406 75.3125 176.3906 75.5469 176.3906 75.9375 C176.3906 76.1094 176.4531 76.3438 176.5781 76.8125 L176.7344 77.3438 L177.1094 77.3438 L177.0938 76.5312 C177.0938 76.0938 177.2031 75.9688 177.7812 75.7344 L178.2031 75.5625 C179.0312 75.2188 179.4531 74.6875 179.4531 73.8438 C179.4531 72.1562 177.6562 71.1875 176.5 71.0312 C176.1094 71.125 175.9062 71.2969 175.9062 71.6406 C175.9062 71.9375 176.0625 72.1562 176.7188 72.2656 L178.4688 72.5781 Z"
      /><rect x="161" y="70" width="5" style="fill:white; stroke:none;" height="10"
      /><path style="stroke:none;" d="M162.8906 78.6875 C162.4844 78.6875 162.1562 79.0469 162.1562 79.4219 C162.1562 79.8125 162.4844 80.1562 162.8906 80.1562 C163.2969 80.1562 163.6406 79.8125 163.6406 79.4219 C163.6406 79.0469 163.2969 78.6875 162.8906 78.6875 ZM164.4688 72.5781 C164.7188 72.8906 164.875 73.2656 164.8906 73.6562 C164.8906 74.1875 164.625 74.5 164.0312 74.7656 L163.4062 75.0156 C162.6406 75.3125 162.3906 75.5469 162.3906 75.9375 C162.3906 76.1094 162.4531 76.3438 162.5781 76.8125 L162.7344 77.3438 L163.1094 77.3438 L163.0938 76.5312 C163.0938 76.0938 163.2031 75.9688 163.7812 75.7344 L164.2031 75.5625 C165.0312 75.2188 165.4531 74.6875 165.4531 73.8438 C165.4531 72.1562 163.6562 71.1875 162.5 71.0312 C162.1094 71.125 161.9062 71.2969 161.9062 71.6406 C161.9062 71.9375 162.0625 72.1562 162.7188 72.2656 L164.4688 72.5781 Z"
      /><rect x="231" y="104" width="5" style="fill:white; stroke:none;" height="10"
      /><path style="stroke:none;" d="M232.8906 112.6875 C232.4844 112.6875 232.1562 113.0469 232.1562 113.4219 C232.1562 113.8125 232.4844 114.1562 232.8906 114.1562 C233.2969 114.1562 233.6406 113.8125 233.6406 113.4219 C233.6406 113.0469 233.2969 112.6875 232.8906 112.6875 ZM234.4688 106.5781 C234.7188 106.8906 234.875 107.2656 234.8906 107.6562 C234.8906 108.1875 234.625 108.5 234.0312 108.7656 L233.4062 109.0156 C232.6406 109.3125 232.3906 109.5469 232.3906 109.9375 C232.3906 110.1094 232.4531 110.3438 232.5781 110.8125 L232.7344 111.3438 L233.1094 111.3438 L233.0938 110.5312 C233.0938 110.0938 233.2031 109.9688 233.7812 109.7344 L234.2031 109.5625 C235.0312 109.2188 235.4531 108.6875 235.4531 107.8438 C235.4531 106.1562 233.6562 105.1875 232.5 105.0312 C232.1094 105.125 231.9062 105.2969 231.9062 105.6406 C231.9062 105.9375 232.0625 106.1562 232.7188 106.2656 L234.4688 106.5781 Z"
      /><rect x="216" y="112" width="5" style="fill:white; stroke:none;" height="10"
      /><path style="stroke:none;" d="M217.8906 120.6875 C217.4844 120.6875 217.1562 121.0469 217.1562 121.4219 C217.1562 121.8125 217.4844 122.1562 217.8906 122.1562 C218.2969 122.1562 218.6406 121.8125 218.6406 121.4219 C218.6406 121.0469 218.2969 120.6875 217.8906 120.6875 ZM219.4688 114.5781 C219.7188 114.8906 219.875 115.2656 219.8906 115.6562 C219.8906 116.1875 219.625 116.5 219.0312 116.7656 L218.4062 117.0156 C217.6406 117.3125 217.3906 117.5469 217.3906 117.9375 C217.3906 118.1094 217.4531 118.3438 217.5781 118.8125 L217.7344 119.3438 L218.1094 119.3438 L218.0938 118.5312 C218.0938 118.0938 218.2031 117.9688 218.7812 117.7344 L219.2031 117.5625 C220.0312 117.2188 220.4531 116.6875 220.4531 115.8438 C220.4531 114.1562 218.6562 113.1875 217.5 113.0312 C217.1094 113.125 216.9062 113.2969 216.9062 113.6406 C216.9062 113.9375 217.0625 114.1562 217.7188 114.2656 L219.4688 114.5781 Z"
      /><rect x="224" y="86" width="5" style="fill:white; stroke:none;" height="10"
      /><path style="stroke:none;" d="M225.8906 94.6875 C225.4844 94.6875 225.1562 95.0469 225.1562 95.4219 C225.1562 95.8125 225.4844 96.1562 225.8906 96.1562 C226.2969 96.1562 226.6406 95.8125 226.6406 95.4219 C226.6406 95.0469 226.2969 94.6875 225.8906 94.6875 ZM227.4688 88.5781 C227.7188 88.8906 227.875 89.2656 227.8906 89.6562 C227.8906 90.1875 227.625 90.5 227.0312 90.7656 L226.4062 91.0156 C225.6406 91.3125 225.3906 91.5469 225.3906 91.9375 C225.3906 92.1094 225.4531 92.3438 225.5781 92.8125 L225.7344 93.3438 L226.1094 93.3438 L226.0938 92.5312 C226.0938 92.0938 226.2031 91.9688 226.7812 91.7344 L227.2031 91.5625 C228.0312 91.2188 228.4531 90.6875 228.4531 89.8438 C228.4531 88.1562 226.6562 87.1875 225.5 87.0312 C225.1094 87.125 224.9062 87.2969 224.9062 87.6406 C224.9062 87.9375 225.0625 88.1562 225.7188 88.2656 L227.4688 88.5781 Z"
      /><rect x="209" y="78" width="5" style="fill:white; stroke:none;" height="10"
      /><path style="stroke:none;" d="M210.8906 86.6875 C210.4844 86.6875 210.1562 87.0469 210.1562 87.4219 C210.1562 87.8125 210.4844 88.1562 210.8906 88.1562 C211.2969 88.1562 211.6406 87.8125 211.6406 87.4219 C211.6406 87.0469 211.2969 86.6875 210.8906 86.6875 ZM212.4688 80.5781 C212.7188 80.8906 212.875 81.2656 212.8906 81.6562 C212.8906 82.1875 212.625 82.5 212.0312 82.7656 L211.4062 83.0156 C210.6406 83.3125 210.3906 83.5469 210.3906 83.9375 C210.3906 84.1094 210.4531 84.3438 210.5781 84.8125 L210.7344 85.3438 L211.1094 85.3438 L211.0938 84.5312 C211.0938 84.0938 211.2031 83.9688 211.7812 83.7344 L212.2031 83.5625 C213.0312 83.2188 213.4531 82.6875 213.4531 81.8438 C213.4531 80.1562 211.6562 79.1875 210.5 79.0312 C210.1094 79.125 209.9062 79.2969 209.9062 79.6406 C209.9062 79.9375 210.0625 80.1562 210.7188 80.2656 L212.4688 80.5781 Z"
      /><rect x="279" y="96" width="5" style="fill:white; stroke:none;" height="10"
      /><path style="stroke:none;" d="M280.8906 104.6875 C280.4844 104.6875 280.1562 105.0469 280.1562 105.4219 C280.1562 105.8125 280.4844 106.1562 280.8906 106.1562 C281.2969 106.1562 281.6406 105.8125 281.6406 105.4219 C281.6406 105.0469 281.2969 104.6875 280.8906 104.6875 ZM282.4688 98.5781 C282.7188 98.8906 282.875 99.2656 282.8906 99.6562 C282.8906 100.1875 282.625 100.5 282.0312 100.7656 L281.4062 101.0156 C280.6406 101.3125 280.3906 101.5469 280.3906 101.9375 C280.3906 102.1094 280.4531 102.3438 280.5781 102.8125 L280.7344 103.3438 L281.1094 103.3438 L281.0938 102.5312 C281.0938 102.0938 281.2031 101.9688 281.7812 101.7344 L282.2031 101.5625 C283.0312 101.2188 283.4531 100.6875 283.4531 99.8438 C283.4531 98.1562 281.6562 97.1875 280.5 97.0312 C280.1094 97.125 279.9062 97.2969 279.9062 97.6406 C279.9062 97.9375 280.0625 98.1562 280.7188 98.2656 L282.4688 98.5781 Z"
      /><rect x="265" y="96" width="5" style="fill:white; stroke:none;" height="10"
      /><path style="stroke:none;" d="M266.8906 104.6875 C266.4844 104.6875 266.1562 105.0469 266.1562 105.4219 C266.1562 105.8125 266.4844 106.1562 266.8906 106.1562 C267.2969 106.1562 267.6406 105.8125 267.6406 105.4219 C267.6406 105.0469 267.2969 104.6875 266.8906 104.6875 ZM268.4688 98.5781 C268.7188 98.8906 268.875 99.2656 268.8906 99.6562 C268.8906 100.1875 268.625 100.5 268.0312 100.7656 L267.4062 101.0156 C266.6406 101.3125 266.3906 101.5469 266.3906 101.9375 C266.3906 102.1094 266.4531 102.3438 266.5781 102.8125 L266.7344 103.3438 L267.1094 103.3438 L267.0938 102.5312 C267.0938 102.0938 267.2031 101.9688 267.7812 101.7344 L268.2031 101.5625 C269.0312 101.2188 269.4531 100.6875 269.4531 99.8438 C269.4531 98.1562 267.6562 97.1875 266.5 97.0312 C266.1094 97.125 265.9062 97.2969 265.9062 97.6406 C265.9062 97.9375 266.0625 98.1562 266.7188 98.2656 L268.4688 98.5781 Z"
      /><polygon style="fill:white; clip-path:url(#clipPath12); stroke:none;" points=" 353 52 342 30 364 30"
      /><rect x="342" y="30" width="22" style="clip-path:url(#clipPath12); fill:rgb(237,28,36); stroke:none;" height="22"
      /><rect x="342" y="30" width="22" style="fill:none; clip-path:url(#clipPath12);" height="22"
      /><polygon style="fill:none;" points=" 353 52 342 30 364 30"
      /><rect x="331" y="96" width="5" style="fill:white; stroke:none;" height="10"
      /><path style="stroke:none;" d="M332.8906 104.6875 C332.4844 104.6875 332.1562 105.0469 332.1562 105.4219 C332.1562 105.8125 332.4844 106.1562 332.8906 106.1562 C333.2969 106.1562 333.6406 105.8125 333.6406 105.4219 C333.6406 105.0469 333.2969 104.6875 332.8906 104.6875 ZM334.4688 98.5781 C334.7188 98.8906 334.875 99.2656 334.8906 99.6562 C334.8906 100.1875 334.625 100.5 334.0312 100.7656 L333.4062 101.0156 C332.6406 101.3125 332.3906 101.5469 332.3906 101.9375 C332.3906 102.1094 332.4531 102.3438 332.5781 102.8125 L332.7344 103.3438 L333.1094 103.3438 L333.0938 102.5312 C333.0938 102.0938 333.2031 101.9688 333.7812 101.7344 L334.2031 101.5625 C335.0312 101.2188 335.4531 100.6875 335.4531 99.8438 C335.4531 98.1562 333.6562 97.1875 332.5 97.0312 C332.1094 97.125 331.9062 97.2969 331.9062 97.6406 C331.9062 97.9375 332.0625 98.1562 332.7188 98.2656 L334.4688 98.5781 Z"
      /><rect x="317" y="96" width="5" style="fill:white; stroke:none;" height="10"
      /><path style="stroke:none;" d="M318.8906 104.6875 C318.4844 104.6875 318.1562 105.0469 318.1562 105.4219 C318.1562 105.8125 318.4844 106.1562 318.8906 106.1562 C319.2969 106.1562 319.6406 105.8125 319.6406 105.4219 C319.6406 105.0469 319.2969 104.6875 318.8906 104.6875 ZM320.4688 98.5781 C320.7188 98.8906 320.875 99.2656 320.8906 99.6562 C320.8906 100.1875 320.625 100.5 320.0312 100.7656 L319.4062 101.0156 C318.6406 101.3125 318.3906 101.5469 318.3906 101.9375 C318.3906 102.1094 318.4531 102.3438 318.5781 102.8125 L318.7344 103.3438 L319.1094 103.3438 L319.0938 102.5312 C319.0938 102.0938 319.2031 101.9688 319.7812 101.7344 L320.2031 101.5625 C321.0312 101.2188 321.4531 100.6875 321.4531 99.8438 C321.4531 98.1562 319.6562 97.1875 318.5 97.0312 C318.1094 97.125 317.9062 97.2969 317.9062 97.6406 C317.9062 97.9375 318.0625 98.1562 318.7188 98.2656 L320.4688 98.5781 Z"
      /><rect x="342" y="69" width="5" style="fill:white; stroke:none;" height="10"
      /><path style="stroke:none;" d="M343.8906 77.6875 C343.4844 77.6875 343.1562 78.0469 343.1562 78.4219 C343.1562 78.8125 343.4844 79.1562 343.8906 79.1562 C344.2969 79.1562 344.6406 78.8125 344.6406 78.4219 C344.6406 78.0469 344.2969 77.6875 343.8906 77.6875 ZM345.4688 71.5781 C345.7188 71.8906 345.875 72.2656 345.8906 72.6562 C345.8906 73.1875 345.625 73.5 345.0312 73.7656 L344.4062 74.0156 C343.6406 74.3125 343.3906 74.5469 343.3906 74.9375 C343.3906 75.1094 343.4531 75.3438 343.5781 75.8125 L343.7344 76.3438 L344.1094 76.3438 L344.0938 75.5312 C344.0938 75.0938 344.2031 74.9688 344.7812 74.7344 L345.2031 74.5625 C346.0312 74.2188 346.4531 73.6875 346.4531 72.8438 C346.4531 71.1562 344.6562 70.1875 343.5 70.0312 C343.1094 70.125 342.9062 70.2969 342.9062 70.6406 C342.9062 70.9375 343.0625 71.1562 343.7188 71.2656 L345.4688 71.5781 Z"
      /><rect x="342" y="55" width="5" style="fill:white; stroke:none;" height="10"
      /><path style="stroke:none;" d="M343.8906 63.6875 C343.4844 63.6875 343.1562 64.0469 343.1562 64.4219 C343.1562 64.8125 343.4844 65.1562 343.8906 65.1562 C344.2969 65.1562 344.6406 64.8125 344.6406 64.4219 C344.6406 64.0469 344.2969 63.6875 343.8906 63.6875 ZM345.4688 57.5781 C345.7188 57.8906 345.875 58.2656 345.8906 58.6562 C345.8906 59.1875 345.625 59.5 345.0312 59.7656 L344.4062 60.0156 C343.6406 60.3125 343.3906 60.5469 343.3906 60.9375 C343.3906 61.1094 343.4531 61.3438 343.5781 61.8125 L343.7344 62.3438 L344.1094 62.3438 L344.0938 61.5312 C344.0938 61.0938 344.2031 60.9688 344.7812 60.7344 L345.2031 60.5625 C346.0312 60.2188 346.4531 59.6875 346.4531 58.8438 C346.4531 57.1562 344.6562 56.1875 343.5 56.0312 C343.1094 56.125 342.9062 56.2969 342.9062 56.6406 C342.9062 56.9375 343.0625 57.1562 343.7188 57.2656 L345.4688 57.5781 Z"
      /><rect x="369" y="96" width="5" style="fill:white; stroke:none;" height="10"
      /><path style="stroke:none;" d="M370.8906 104.6875 C370.4844 104.6875 370.1562 105.0469 370.1562 105.4219 C370.1562 105.8125 370.4844 106.1562 370.8906 106.1562 C371.2969 106.1562 371.6406 105.8125 371.6406 105.4219 C371.6406 105.0469 371.2969 104.6875 370.8906 104.6875 ZM372.4688 98.5781 C372.7188 98.8906 372.875 99.2656 372.8906 99.6562 C372.8906 100.1875 372.625 100.5 372.0312 100.7656 L371.4062 101.0156 C370.6406 101.3125 370.3906 101.5469 370.3906 101.9375 C370.3906 102.1094 370.4531 102.3438 370.5781 102.8125 L370.7344 103.3438 L371.1094 103.3438 L371.0938 102.5312 C371.0938 102.0938 371.2031 101.9688 371.7812 101.7344 L372.2031 101.5625 C373.0312 101.2188 373.4531 100.6875 373.4531 99.8438 C373.4531 98.1562 371.6562 97.1875 370.5 97.0312 C370.1094 97.125 369.9062 97.2969 369.9062 97.6406 C369.9062 97.9375 370.0625 98.1562 370.7188 98.2656 L372.4688 98.5781 Z"
    /></g
  ></g
></svg
>
