<?xml version="1.0"?>
<!DOCTYPE svg PUBLIC '-//W3C//DTD SVG 1.0//EN'
          'http://www.w3.org/TR/2001/REC-SVG-20010904/DTD/svg10.dtd'>
<svg xmlns:xlink="http://www.w3.org/1999/xlink" style="fill-opacity:1; color-rendering:auto; color-interpolation:auto; text-rendering:auto; stroke:black; stroke-linecap:square; stroke-miterlimit:10; shape-rendering:auto; stroke-opacity:1; fill:black; stroke-dasharray:none; font-weight:normal; stroke-width:1; font-family:'Dialog'; font-style:normal; stroke-linejoin:miter; font-size:12px; stroke-dashoffset:0; image-rendering:auto;" viewBox="0 0 554 105" xmlns="http://www.w3.org/2000/svg"
><!--Generated by the Batik Graphics2D SVG Generator--><defs id="genericDefs"
  /><g
  ><defs id="defs1"
    ><clipPath clipPathUnits="userSpaceOnUse" id="clipPath1"
      ><path d="M472 64 C472 70.0751 467.0751 75 461 75 C454.9249 75 450 70.0751 450 64 C450 57.9249 454.9249 53 461 53 C467.0751 53 472 57.9249 472 64 Z"
      /></clipPath
      ><clipPath clipPathUnits="userSpaceOnUse" id="clipPath2"
      ><path d="M420 64 C420 70.0751 415.0751 75 409 75 C402.9249 75 398 70.0751 398 64 C398 57.9249 402.9249 53 409 53 C415.0751 53 420 57.9249 420 64 Z"
      /></clipPath
      ><clipPath clipPathUnits="userSpaceOnUse" id="clipPath3"
      ><path d="M341 64 C341 70.0751 336.0751 75 330 75 C323.9249 75 319 70.0751 319 64 C319 57.9249 323.9249 53 330 53 C336.0751 53 341 57.9249 341 64 Z"
      /></clipPath
      ><clipPath clipPathUnits="userSpaceOnUse" id="clipPath4"
      ><path d="M262 64 C262 70.0751 257.0751 75 251 75 C244.9249 75 240 70.0751 240 64 C240 57.9249 244.9249 53 251 53 C257.0751 53 262 57.9249 262 64 Z"
      /></clipPath
      ><clipPath clipPathUnits="userSpaceOnUse" id="clipPath5"
      ><path d="M210 64 C210 70.0751 205.0751 75 199 75 C192.9249 75 188 70.0751 188 64 C188 57.9249 192.9249 53 199 53 C205.0751 53 210 57.9249 210 64 Z"
      /></clipPath
      ><clipPath clipPathUnits="userSpaceOnUse" id="clipPath6"
      ><path d="M131 64 C131 70.0751 126.0751 75 120 75 C113.9249 75 109 70.0751 109 64 C109 57.9249 113.9249 53 120 53 C126.0751 53 131 57.9249 131 64 Z"
      /></clipPath
      ><clipPath clipPathUnits="userSpaceOnUse" id="clipPath7"
      ><path d="M52 64 C52 70.0751 47.0751 75 41 75 C34.9249 75 30 70.0751 30 64 C30 57.9249 34.9249 53 41 53 C47.0751 53 52 57.9249 52 64 Z"
      /></clipPath
    ></defs
    ><g style="fill:white; text-rendering:optimizeSpeed; stroke:white;"
    ><rect x="0" width="554" height="105" y="0" style="stroke:none;"
      /><polygon style="fill:none; stroke:black;" points=" 513 64 461 64"
      /><path d="M513 53 C507.5 58.5 518.5 69.5 513 75" style="fill:none; stroke:black;"
      /><polygon style="fill:none; stroke:black;" points=" 461 64 409 64"
      /><circle style="clip-path:url(#clipPath1); stroke:none;" r="11" cx="461" cy="64"
      /><rect x="450" y="53" width="22" style="clip-path:url(#clipPath1); fill:rgb(0,144,188); stroke:none;" height="22"
      /><rect x="450" y="53" width="22" style="clip-path:url(#clipPath1); fill:none; stroke:black;" height="22"
      /><circle style="fill:none; stroke:black;" r="11" cx="461" cy="64"
      /><polygon style="fill:none; stroke:black;" points=" 409 64 330 64"
      /><circle style="clip-path:url(#clipPath2); stroke:none;" r="11" cx="409" cy="64"
      /><rect x="398" y="53" width="22" style="clip-path:url(#clipPath2); fill:rgb(0,144,188); stroke:none;" height="22"
      /><rect x="398" y="53" width="22" style="clip-path:url(#clipPath2); fill:none; stroke:black;" height="22"
      /><circle style="fill:none; stroke:black;" r="11" cx="409" cy="64"
      /><polygon style="fill:none; stroke:black;" points=" 330 64 251 64"
      /><circle style="clip-path:url(#clipPath3); stroke:none;" r="11" cx="330" cy="64"
      /><rect x="319" y="53" width="22" style="clip-path:url(#clipPath3); fill:rgb(0,166,81); stroke:none;" height="22"
      /><rect x="319" y="53" width="22" style="clip-path:url(#clipPath3); fill:none; stroke:black;" height="22"
      /><circle style="fill:none; stroke:black;" r="11" cx="330" cy="64"
      /><rect x="293" y="33" width="73" style="stroke:none;" height="14"
    /></g
    ><g style="text-rendering:optimizeSpeed; font-size:14px; font-family:'SansSerif';"
    ><path style="stroke:none;" d="M293.6094 48 L300.0625 48 L300.0625 46.8906 L297.2344 46.8906 C296.7031 46.8906 296.0781 46.9531 295.5469 46.9844 C297.9531 44.7031 299.5625 42.625 299.5625 40.5781 C299.5625 38.75 298.4219 37.5469 296.5781 37.5469 C295.2812 37.5469 294.4062 38.1406 293.5625 39.0469 L294.2969 39.7812 C294.8594 39.1094 295.5938 38.5938 296.4375 38.5938 C297.7031 38.5938 298.3125 39.4531 298.3125 40.625 C298.3125 42.3906 296.8438 44.4375 293.6094 47.25 L293.6094 48 ZM301.8168 50.6562 C303.0825 50.125 303.8637 49.0781 303.8637 47.7344 C303.8637 46.7969 303.4575 46.2188 302.7856 46.2188 C302.27 46.2188 301.8168 46.5781 301.8168 47.125 C301.8168 47.7031 302.27 48.0156 302.7543 48.0156 C302.8168 48.0156 302.8637 48.0156 302.9106 48 C302.9106 48.8281 302.395 49.5156 301.5043 49.9062 L301.8168 50.6562 ZM308.3651 48.1875 C310.1776 48.1875 311.6463 47.0938 311.6463 45.25 C311.6463 43.8594 310.6776 42.9375 309.4745 42.6562 L309.4745 42.5938 C310.5526 42.1875 311.3026 41.3594 311.3026 40.125 C311.3026 38.5 310.037 37.5469 308.3182 37.5469 C307.1307 37.5469 306.2088 38.0625 305.4432 38.7812 L306.1307 39.5938 C306.7088 39 307.4276 38.5938 308.2557 38.5938 C309.3182 38.5938 309.9901 39.2344 309.9901 40.2188 C309.9901 41.3281 309.2713 42.1719 307.1463 42.1719 L307.1463 43.1562 C309.5213 43.1562 310.3495 43.9844 310.3495 45.2031 C310.3495 46.3906 309.4745 47.125 308.2557 47.125 C307.0995 47.125 306.3182 46.5781 305.7088 45.9375 L305.0682 46.7812 C305.7401 47.5156 306.7557 48.1875 308.3651 48.1875 ZM315.6038 42.2656 C315.9788 41.0938 316.3069 39.9844 316.6351 38.7812 L316.6819 38.7812 C317.0257 39.9844 317.3382 41.0938 317.7288 42.2656 L318.2132 43.8281 L315.1038 43.8281 L315.6038 42.2656 ZM312.4788 48 L313.7913 48 L314.7913 44.8594 L318.5413 44.8594 L319.5101 48 L320.8851 48 L317.4007 37.7188 L315.9632 37.7188 L312.4788 48 ZM322.2112 48 L323.4924 48 L323.4924 42.4844 C324.258 41.7188 324.7893 41.3281 325.5705 41.3281 C326.5862 41.3281 327.0237 41.9219 327.0237 43.3594 L327.0237 48 L328.2893 48 L328.2893 43.1875 C328.2893 41.2344 327.5705 40.2031 325.9768 40.2031 C324.9299 40.2031 324.1487 40.7812 323.4143 41.4844 L323.383 41.4844 L323.2737 40.3906 L322.2112 40.3906 L322.2112 48 ZM330.7651 48 L332.0464 48 L332.0464 42.4844 C332.812 41.7188 333.3433 41.3281 334.1245 41.3281 C335.1401 41.3281 335.5776 41.9219 335.5776 43.3594 L335.5776 48 L336.8433 48 L336.8433 43.1875 C336.8433 41.2344 336.1245 40.2031 334.5308 40.2031 C333.4839 40.2031 332.7026 40.7812 331.9995 41.4688 L332.0464 39.9062 L332.0464 36.8594 L330.7651 36.8594 L330.7651 48 ZM339.3881 51.2812 C340.9037 51.2812 341.7006 50.125 342.2162 48.625 L345.0912 40.3906 L343.8412 40.3906 L342.4975 44.625 C342.2787 45.2969 342.06 46.0625 341.8412 46.75 L341.7787 46.75 C341.5443 46.0625 341.2787 45.2812 341.0443 44.625 L339.4975 40.3906 L338.1693 40.3906 L341.2162 48.0156 L341.0443 48.5938 C340.7475 49.5312 340.2006 50.2188 339.3256 50.2188 C339.1225 50.2188 338.9037 50.1562 338.7475 50.0938 L338.4975 51.125 C338.7318 51.2188 339.0287 51.2812 339.3881 51.2812 ZM349.1508 48.1875 C350.0571 48.1875 350.8696 47.6875 351.4633 47.1094 L351.5102 47.1094 L351.6196 48 L352.6508 48 L352.6508 36.8594 L351.4008 36.8594 L351.4008 39.7812 L351.4477 41.0938 C350.7758 40.5312 350.1977 40.2031 349.3071 40.2031 C347.5727 40.2031 346.0102 41.7344 346.0102 44.2031 C346.0102 46.7344 347.2446 48.1875 349.1508 48.1875 ZM349.4321 47.125 C348.0883 47.125 347.3383 46.0312 347.3383 44.1875 C347.3383 42.4531 348.3071 41.2812 349.5258 41.2812 C350.1664 41.2812 350.7289 41.5 351.4008 42.0781 L351.4008 46.0625 C350.7446 46.7656 350.1352 47.125 349.4321 47.125 ZM355.237 48 L356.5183 48 L356.5183 43.1094 C357.0183 41.8125 357.7995 41.3594 358.4402 41.3594 C358.737 41.3594 358.9245 41.3906 359.1745 41.4844 L359.4089 40.375 C359.1745 40.25 358.9402 40.2031 358.5964 40.2031 C357.7527 40.2031 356.987 40.8125 356.4402 41.7812 L356.4089 41.7812 L356.2995 40.3906 L355.237 40.3906 L355.237 48 ZM363.6221 48.1875 C365.4971 48.1875 367.1534 46.7188 367.1534 44.2031 C367.1534 41.6719 365.4971 40.2031 363.6221 40.2031 C361.7628 40.2031 360.1065 41.6719 360.1065 44.2031 C360.1065 46.7188 361.7628 48.1875 363.6221 48.1875 ZM363.6221 47.125 C362.3096 47.125 361.4346 45.9531 361.4346 44.2031 C361.4346 42.4531 362.3096 41.2656 363.6221 41.2656 C364.9503 41.2656 365.8409 42.4531 365.8409 44.2031 C365.8409 45.9531 364.9503 47.125 363.6221 47.125 Z"
      /><polygon style="fill:none;" points=" 251 64 199 64"
    /></g
    ><g style="fill:white; text-rendering:optimizeSpeed; stroke:white;"
    ><circle r="11" style="clip-path:url(#clipPath4); stroke:none;" cx="251" cy="64"
      /><rect x="240" y="53" width="22" style="clip-path:url(#clipPath4); fill:rgb(0,144,188); stroke:none;" height="22"
      /><rect x="240" y="53" width="22" style="clip-path:url(#clipPath4); fill:none; stroke:black;" height="22"
      /><circle r="11" style="fill:none; stroke:black;" cx="251" cy="64"
      /><polygon style="fill:none; stroke:black;" points=" 199 64 120 64"
      /><circle r="11" style="clip-path:url(#clipPath5); stroke:none;" cx="199" cy="64"
      /><rect x="188" y="53" width="22" style="clip-path:url(#clipPath5); fill:rgb(0,144,188); stroke:none;" height="22"
      /><rect x="188" y="53" width="22" style="clip-path:url(#clipPath5); fill:none; stroke:black;" height="22"
      /><circle r="11" style="fill:none; stroke:black;" cx="199" cy="64"
      /><polygon style="fill:none; stroke:black;" points=" 120 64 41 64"
      /><circle r="11" style="clip-path:url(#clipPath6); stroke:none;" cx="120" cy="64"
      /><rect x="109" y="53" width="22" style="clip-path:url(#clipPath6); fill:rgb(0,166,81); stroke:none;" height="22"
      /><rect x="109" y="53" width="22" style="clip-path:url(#clipPath6); fill:none; stroke:black;" height="22"
      /><circle r="11" style="fill:none; stroke:black;" cx="120" cy="64"
      /><rect x="83" width="73" height="14" y="33" style="stroke:none;"
    /></g
    ><g style="text-rendering:optimizeSpeed; font-size:14px; font-family:'SansSerif';"
    ><path style="stroke:none;" d="M83.6094 48 L90.0625 48 L90.0625 46.8906 L87.2344 46.8906 C86.7031 46.8906 86.0781 46.9531 85.5469 46.9844 C87.9531 44.7031 89.5625 42.625 89.5625 40.5781 C89.5625 38.75 88.4219 37.5469 86.5781 37.5469 C85.2812 37.5469 84.4062 38.1406 83.5625 39.0469 L84.2969 39.7812 C84.8594 39.1094 85.5938 38.5938 86.4375 38.5938 C87.7031 38.5938 88.3125 39.4531 88.3125 40.625 C88.3125 42.3906 86.8438 44.4375 83.6094 47.25 L83.6094 48 ZM91.8168 50.6562 C93.0825 50.125 93.8637 49.0781 93.8637 47.7344 C93.8637 46.7969 93.4575 46.2188 92.7856 46.2188 C92.27 46.2188 91.8168 46.5781 91.8168 47.125 C91.8168 47.7031 92.27 48.0156 92.7543 48.0156 C92.8168 48.0156 92.8637 48.0156 92.9106 48 C92.9106 48.8281 92.395 49.5156 91.5043 49.9062 L91.8168 50.6562 ZM98.3651 48.1875 C100.1776 48.1875 101.6463 47.0938 101.6463 45.25 C101.6463 43.8594 100.6776 42.9375 99.4745 42.6562 L99.4745 42.5938 C100.5526 42.1875 101.3026 41.3594 101.3026 40.125 C101.3026 38.5 100.037 37.5469 98.3182 37.5469 C97.1307 37.5469 96.2088 38.0625 95.4432 38.7812 L96.1307 39.5938 C96.7088 39 97.4276 38.5938 98.2557 38.5938 C99.3182 38.5938 99.9901 39.2344 99.9901 40.2188 C99.9901 41.3281 99.2713 42.1719 97.1463 42.1719 L97.1463 43.1562 C99.5213 43.1562 100.3495 43.9844 100.3495 45.2031 C100.3495 46.3906 99.4745 47.125 98.2557 47.125 C97.0995 47.125 96.3182 46.5781 95.7088 45.9375 L95.0682 46.7812 C95.7401 47.5156 96.7557 48.1875 98.3651 48.1875 ZM105.6038 42.2656 C105.9788 41.0938 106.3069 39.9844 106.6351 38.7812 L106.6819 38.7812 C107.0257 39.9844 107.3382 41.0938 107.7288 42.2656 L108.2132 43.8281 L105.1038 43.8281 L105.6038 42.2656 ZM102.4788 48 L103.7913 48 L104.7913 44.8594 L108.5413 44.8594 L109.5101 48 L110.8851 48 L107.4007 37.7188 L105.9632 37.7188 L102.4788 48 ZM112.2112 48 L113.4924 48 L113.4924 42.4844 C114.258 41.7188 114.7893 41.3281 115.5705 41.3281 C116.5862 41.3281 117.0237 41.9219 117.0237 43.3594 L117.0237 48 L118.2893 48 L118.2893 43.1875 C118.2893 41.2344 117.5705 40.2031 115.9768 40.2031 C114.9299 40.2031 114.1487 40.7812 113.4143 41.4844 L113.383 41.4844 L113.2737 40.3906 L112.2112 40.3906 L112.2112 48 ZM120.7651 48 L122.0464 48 L122.0464 42.4844 C122.812 41.7188 123.3432 41.3281 124.1245 41.3281 C125.1401 41.3281 125.5776 41.9219 125.5776 43.3594 L125.5776 48 L126.8432 48 L126.8432 43.1875 C126.8432 41.2344 126.1245 40.2031 124.5307 40.2031 C123.4839 40.2031 122.7026 40.7812 121.9995 41.4688 L122.0464 39.9062 L122.0464 36.8594 L120.7651 36.8594 L120.7651 48 ZM129.3881 51.2812 C130.9037 51.2812 131.7006 50.125 132.2162 48.625 L135.0912 40.3906 L133.8412 40.3906 L132.4975 44.625 C132.2787 45.2969 132.06 46.0625 131.8412 46.75 L131.7787 46.75 C131.5443 46.0625 131.2787 45.2812 131.0443 44.625 L129.4975 40.3906 L128.1693 40.3906 L131.2162 48.0156 L131.0443 48.5938 C130.7475 49.5312 130.2006 50.2188 129.3256 50.2188 C129.1225 50.2188 128.9037 50.1562 128.7475 50.0938 L128.4975 51.125 C128.7318 51.2188 129.0287 51.2812 129.3881 51.2812 ZM139.1508 48.1875 C140.0571 48.1875 140.8696 47.6875 141.4633 47.1094 L141.5102 47.1094 L141.6196 48 L142.6508 48 L142.6508 36.8594 L141.4008 36.8594 L141.4008 39.7812 L141.4477 41.0938 C140.7758 40.5312 140.1977 40.2031 139.3071 40.2031 C137.5727 40.2031 136.0102 41.7344 136.0102 44.2031 C136.0102 46.7344 137.2446 48.1875 139.1508 48.1875 ZM139.4321 47.125 C138.0883 47.125 137.3383 46.0312 137.3383 44.1875 C137.3383 42.4531 138.3071 41.2812 139.5258 41.2812 C140.1664 41.2812 140.7289 41.5 141.4008 42.0781 L141.4008 46.0625 C140.7446 46.7656 140.1352 47.125 139.4321 47.125 ZM145.237 48 L146.5183 48 L146.5183 43.1094 C147.0183 41.8125 147.7995 41.3594 148.4402 41.3594 C148.737 41.3594 148.9245 41.3906 149.1745 41.4844 L149.4089 40.375 C149.1745 40.25 148.9402 40.2031 148.5964 40.2031 C147.7527 40.2031 146.987 40.8125 146.4402 41.7812 L146.4089 41.7812 L146.2995 40.3906 L145.237 40.3906 L145.237 48 ZM153.6221 48.1875 C155.4971 48.1875 157.1534 46.7188 157.1534 44.2031 C157.1534 41.6719 155.4971 40.2031 153.6221 40.2031 C151.7628 40.2031 150.1065 41.6719 150.1065 44.2031 C150.1065 46.7188 151.7628 48.1875 153.6221 48.1875 ZM153.6221 47.125 C152.3096 47.125 151.4346 45.9531 151.4346 44.2031 C151.4346 42.4531 152.3096 41.2656 153.6221 41.2656 C154.9503 41.2656 155.8409 42.4531 155.8409 44.2031 C155.8409 45.9531 154.9503 47.125 153.6221 47.125 Z"
    /></g
    ><g style="fill:white; text-rendering:optimizeSpeed; stroke:white;"
    ><circle r="11" style="clip-path:url(#clipPath7); stroke:none;" cx="41" cy="64"
      /><rect x="30" y="53" width="22" style="clip-path:url(#clipPath7); fill:rgb(0,144,188); stroke:none;" height="22"
      /><rect x="30" y="53" width="22" style="clip-path:url(#clipPath7); fill:none; stroke:black;" height="22"
      /><circle r="11" style="fill:none; stroke:black;" cx="41" cy="64"
      /><rect x="70" width="7" height="9" y="67" style="stroke:none;"
      /><path d="M71 72.5156 L73.9531 68.2656 L73.9531 72.5156 L71 72.5156 ZM76.2812 72.5156 L74.8594 72.5156 L74.8594 67.125 L74.2344 67.125 L70.3438 72.6406 L70.3438 73.1875 L73.9531 73.1875 L73.9531 76 L74.8594 76 L74.8594 73.1875 L76.2812 73.1875 L76.2812 72.5156 Z" style="fill:black; stroke:none;"
      /><rect x="56" width="8" height="8" y="68" style="stroke:none;"
      /><path d="M60.9844 73.7031 C60.9375 74.8906 60.1562 75.6562 59.3125 75.6562 C58.2656 75.6562 57.5 74.6875 57.5 72.7188 C57.5 71.2812 58.1562 70.1562 59.3438 70.1562 C60.1406 70.1562 60.7812 70.6875 61.0938 71.6406 L60.9844 73.7031 ZM62.9062 75.2812 C62.7344 75.375 62.5469 75.4219 62.3438 75.4219 C61.9531 75.4219 61.75 75.2188 61.75 74.4219 C61.75 73.4844 61.9688 71.5312 62.1875 69.8281 L62.0312 69.7188 L61.2344 69.9219 L61.1406 70.7969 C60.7812 70.0312 60.1562 69.6562 59.3906 69.6562 C58.0469 69.6562 56.5625 70.8438 56.5625 72.9531 C56.5625 75.0938 57.7188 76.1719 59.1406 76.1719 C60.0156 76.1719 60.6875 75.8125 61.0938 74.9844 C61.2031 75.8594 61.5156 76.1719 62.0156 76.1719 C62.4688 76.1719 62.7969 75.9062 63.0156 75.5625 L62.9062 75.2812 Z" style="fill:black; stroke:none;"
      /><rect x="176" width="7" height="9" y="67" style="stroke:none;"
      /><path d="M177 72.5156 L179.9531 68.2656 L179.9531 72.5156 L177 72.5156 ZM182.2812 72.5156 L180.8594 72.5156 L180.8594 67.125 L180.2344 67.125 L176.3438 72.6406 L176.3438 73.1875 L179.9531 73.1875 L179.9531 76 L180.8594 76 L180.8594 73.1875 L182.2812 73.1875 L182.2812 72.5156 Z" style="fill:black; stroke:none;"
      /><rect x="162" width="8" height="8" y="68" style="stroke:none;"
      /><path d="M166.9844 73.7031 C166.9375 74.8906 166.1562 75.6562 165.3125 75.6562 C164.2656 75.6562 163.5 74.6875 163.5 72.7188 C163.5 71.2812 164.1562 70.1562 165.3438 70.1562 C166.1406 70.1562 166.7812 70.6875 167.0938 71.6406 L166.9844 73.7031 ZM168.9062 75.2812 C168.7344 75.375 168.5469 75.4219 168.3438 75.4219 C167.9531 75.4219 167.75 75.2188 167.75 74.4219 C167.75 73.4844 167.9688 71.5312 168.1875 69.8281 L168.0312 69.7188 L167.2344 69.9219 L167.1406 70.7969 C166.7812 70.0312 166.1562 69.6562 165.3906 69.6562 C164.0469 69.6562 162.5625 70.8438 162.5625 72.9531 C162.5625 75.0938 163.7188 76.1719 165.1406 76.1719 C166.0156 76.1719 166.6875 75.8125 167.0938 74.9844 C167.2031 75.8594 167.5156 76.1719 168.0156 76.1719 C168.4688 76.1719 168.7969 75.9062 169.0156 75.5625 L168.9062 75.2812 Z" style="fill:black; stroke:none;"
      /><rect x="228" width="7" height="9" y="67" style="stroke:none;"
      /><path d="M229 72.5156 L231.9531 68.2656 L231.9531 72.5156 L229 72.5156 ZM234.2812 72.5156 L232.8594 72.5156 L232.8594 67.125 L232.2344 67.125 L228.3438 72.6406 L228.3438 73.1875 L231.9531 73.1875 L231.9531 76 L232.8594 76 L232.8594 73.1875 L234.2812 73.1875 L234.2812 72.5156 Z" style="fill:black; stroke:none;"
      /><rect x="214" width="8" height="8" y="68" style="stroke:none;"
      /><path d="M218.9844 73.7031 C218.9375 74.8906 218.1562 75.6562 217.3125 75.6562 C216.2656 75.6562 215.5 74.6875 215.5 72.7188 C215.5 71.2812 216.1562 70.1562 217.3438 70.1562 C218.1406 70.1562 218.7812 70.6875 219.0938 71.6406 L218.9844 73.7031 ZM220.9062 75.2812 C220.7344 75.375 220.5469 75.4219 220.3438 75.4219 C219.9531 75.4219 219.75 75.2188 219.75 74.4219 C219.75 73.4844 219.9688 71.5312 220.1875 69.8281 L220.0312 69.7188 L219.2344 69.9219 L219.1406 70.7969 C218.7812 70.0312 218.1562 69.6562 217.3906 69.6562 C216.0469 69.6562 214.5625 70.8438 214.5625 72.9531 C214.5625 75.0938 215.7188 76.1719 217.1406 76.1719 C218.0156 76.1719 218.6875 75.8125 219.0938 74.9844 C219.2031 75.8594 219.5156 76.1719 220.0156 76.1719 C220.4688 76.1719 220.7969 75.9062 221.0156 75.5625 L220.9062 75.2812 Z" style="fill:black; stroke:none;"
      /><rect x="280" width="7" height="9" y="67" style="stroke:none;"
      /><path d="M281 72.5156 L283.9531 68.2656 L283.9531 72.5156 L281 72.5156 ZM286.2812 72.5156 L284.8594 72.5156 L284.8594 67.125 L284.2344 67.125 L280.3438 72.6406 L280.3438 73.1875 L283.9531 73.1875 L283.9531 76 L284.8594 76 L284.8594 73.1875 L286.2812 73.1875 L286.2812 72.5156 Z" style="fill:black; stroke:none;"
      /><rect x="266" width="8" height="8" y="68" style="stroke:none;"
      /><path d="M270.9844 73.7031 C270.9375 74.8906 270.1562 75.6562 269.3125 75.6562 C268.2656 75.6562 267.5 74.6875 267.5 72.7188 C267.5 71.2812 268.1562 70.1562 269.3438 70.1562 C270.1406 70.1562 270.7812 70.6875 271.0938 71.6406 L270.9844 73.7031 ZM272.9062 75.2812 C272.7344 75.375 272.5469 75.4219 272.3438 75.4219 C271.9531 75.4219 271.75 75.2188 271.75 74.4219 C271.75 73.4844 271.9688 71.5312 272.1875 69.8281 L272.0312 69.7188 L271.2344 69.9219 L271.1406 70.7969 C270.7812 70.0312 270.1562 69.6562 269.3906 69.6562 C268.0469 69.6562 266.5625 70.8438 266.5625 72.9531 C266.5625 75.0938 267.7188 76.1719 269.1406 76.1719 C270.0156 76.1719 270.6875 75.8125 271.0938 74.9844 C271.2031 75.8594 271.5156 76.1719 272.0156 76.1719 C272.4688 76.1719 272.7969 75.9062 273.0156 75.5625 L272.9062 75.2812 Z" style="fill:black; stroke:none;"
      /><rect x="386" width="7" height="9" y="67" style="stroke:none;"
      /><path d="M387 72.5156 L389.9531 68.2656 L389.9531 72.5156 L387 72.5156 ZM392.2812 72.5156 L390.8594 72.5156 L390.8594 67.125 L390.2344 67.125 L386.3438 72.6406 L386.3438 73.1875 L389.9531 73.1875 L389.9531 76 L390.8594 76 L390.8594 73.1875 L392.2812 73.1875 L392.2812 72.5156 Z" style="fill:black; stroke:none;"
      /><rect x="372" width="8" height="8" y="68" style="stroke:none;"
      /><path d="M376.9844 73.7031 C376.9375 74.8906 376.1562 75.6562 375.3125 75.6562 C374.2656 75.6562 373.5 74.6875 373.5 72.7188 C373.5 71.2812 374.1562 70.1562 375.3438 70.1562 C376.1406 70.1562 376.7812 70.6875 377.0938 71.6406 L376.9844 73.7031 ZM378.9062 75.2812 C378.7344 75.375 378.5469 75.4219 378.3438 75.4219 C377.9531 75.4219 377.75 75.2188 377.75 74.4219 C377.75 73.4844 377.9688 71.5312 378.1875 69.8281 L378.0312 69.7188 L377.2344 69.9219 L377.1406 70.7969 C376.7812 70.0312 376.1562 69.6562 375.3906 69.6562 C374.0469 69.6562 372.5625 70.8438 372.5625 72.9531 C372.5625 75.0938 373.7188 76.1719 375.1406 76.1719 C376.0156 76.1719 376.6875 75.8125 377.0938 74.9844 C377.2031 75.8594 377.5156 76.1719 378.0156 76.1719 C378.4688 76.1719 378.7969 75.9062 379.0156 75.5625 L378.9062 75.2812 Z" style="fill:black; stroke:none;"
      /><rect x="438" width="7" height="9" y="67" style="stroke:none;"
      /><path d="M439 72.5156 L441.9531 68.2656 L441.9531 72.5156 L439 72.5156 ZM444.2812 72.5156 L442.8594 72.5156 L442.8594 67.125 L442.2344 67.125 L438.3438 72.6406 L438.3438 73.1875 L441.9531 73.1875 L441.9531 76 L442.8594 76 L442.8594 73.1875 L444.2812 73.1875 L444.2812 72.5156 Z" style="fill:black; stroke:none;"
      /><rect x="424" width="8" height="8" y="68" style="stroke:none;"
      /><path d="M428.9844 73.7031 C428.9375 74.8906 428.1562 75.6562 427.3125 75.6562 C426.2656 75.6562 425.5 74.6875 425.5 72.7188 C425.5 71.2812 426.1562 70.1562 427.3438 70.1562 C428.1406 70.1562 428.7812 70.6875 429.0938 71.6406 L428.9844 73.7031 ZM430.9062 75.2812 C430.7344 75.375 430.5469 75.4219 430.3438 75.4219 C429.9531 75.4219 429.75 75.2188 429.75 74.4219 C429.75 73.4844 429.9688 71.5312 430.1875 69.8281 L430.0312 69.7188 L429.2344 69.9219 L429.1406 70.7969 C428.7812 70.0312 428.1562 69.6562 427.3906 69.6562 C426.0469 69.6562 424.5625 70.8438 424.5625 72.9531 C424.5625 75.0938 425.7188 76.1719 427.1406 76.1719 C428.0156 76.1719 428.6875 75.8125 429.0938 74.9844 C429.2031 75.8594 429.5156 76.1719 430.0156 76.1719 C430.4688 76.1719 430.7969 75.9062 431.0156 75.5625 L430.9062 75.2812 Z" style="fill:black; stroke:none;"
      /><rect x="477" width="5" height="10" y="67" style="stroke:none;"
      /><path d="M478.8906 75.6875 C478.4844 75.6875 478.1562 76.0469 478.1562 76.4219 C478.1562 76.8125 478.4844 77.1562 478.8906 77.1562 C479.2969 77.1562 479.6406 76.8125 479.6406 76.4219 C479.6406 76.0469 479.2969 75.6875 478.8906 75.6875 ZM480.4688 69.5781 C480.7188 69.8906 480.875 70.2656 480.8906 70.6562 C480.8906 71.1875 480.625 71.5 480.0312 71.7656 L479.4062 72.0156 C478.6406 72.3125 478.3906 72.5469 478.3906 72.9375 C478.3906 73.1094 478.4531 73.3438 478.5781 73.8125 L478.7344 74.3438 L479.1094 74.3438 L479.0938 73.5312 C479.0938 73.0938 479.2031 72.9688 479.7812 72.7344 L480.2031 72.5625 C481.0312 72.2188 481.4531 71.6875 481.4531 70.8438 C481.4531 69.1562 479.6562 68.1875 478.5 68.0312 C478.1094 68.125 477.9062 68.2969 477.9062 68.6406 C477.9062 68.9375 478.0625 69.1562 478.7188 69.2656 L480.4688 69.5781 Z" style="fill:black; stroke:none;"
    /></g
  ></g
></svg
>
