<?xml version="1.0"?>
<!DOCTYPE svg PUBLIC '-//W3C//DTD SVG 1.0//EN'
          'http://www.w3.org/TR/2001/REC-SVG-20010904/DTD/svg10.dtd'>
<svg xmlns:xlink="http://www.w3.org/1999/xlink" style="fill-opacity:1; color-rendering:auto; color-interpolation:auto; text-rendering:auto; stroke:black; stroke-linecap:square; stroke-miterlimit:10; shape-rendering:auto; stroke-opacity:1; fill:black; stroke-dasharray:none; font-weight:normal; stroke-width:1; font-family:'Dialog'; font-style:normal; stroke-linejoin:miter; font-size:12px; stroke-dashoffset:0; image-rendering:auto;" viewBox="0 0 550 342" xmlns="http://www.w3.org/2000/svg"
><!--Generated by the Batik Graphics2D SVG Generator--><defs id="genericDefs"
  /><g
  ><defs id="defs1"
    ><clipPath clipPathUnits="userSpaceOnUse" id="clipPath1"
      ><path d="M446 173 L468 173 L468 195 L446 195 L446 173 Z"
      /></clipPath
      ><clipPath clipPathUnits="userSpaceOnUse" id="clipPath2"
      ><path d="M394 173 L416 173 L416 195 L394 195 L394 173 Z"
      /></clipPath
      ><clipPath clipPathUnits="userSpaceOnUse" id="clipPath3"
      ><path d="M364 184 C364 190.0751 359.0751 195 353 195 C346.9249 195 342 190.0751 342 184 C342 177.9249 346.9249 173 353 173 C359.0751 173 364 177.9249 364 184 Z"
      /></clipPath
      ><clipPath clipPathUnits="userSpaceOnUse" id="clipPath4"
      ><path d="M312 275 C312 281.0751 307.0751 286 301 286 C294.9249 286 290 281.0751 290 275 C290 268.9249 294.9249 264 301 264 C307.0751 264 312 268.9249 312 275 Z"
      /></clipPath
      ><clipPath clipPathUnits="userSpaceOnUse" id="clipPath5"
      ><path d="M238 290 L260 290 L260 312 L238 312 L238 290 Z"
      /></clipPath
      ><clipPath clipPathUnits="userSpaceOnUse" id="clipPath6"
      ><path d="M208 301 C208 307.0751 203.0751 312 197 312 C190.9249 312 186 307.0751 186 301 C186 294.9249 190.9249 290 197 290 C203.0751 290 208 294.9249 208 301 Z"
      /></clipPath
      ><clipPath clipPathUnits="userSpaceOnUse" id="clipPath7"
      ><path d="M134 290 L156 290 L156 312 L134 312 L134 290 Z"
      /></clipPath
      ><clipPath clipPathUnits="userSpaceOnUse" id="clipPath8"
      ><path d="M104 301 C104 307.0751 99.0751 312 93 312 C86.9249 312 82 307.0751 82 301 C82 294.9249 86.9249 290 93 290 C99.0751 290 104 294.9249 104 301 Z"
      /></clipPath
      ><clipPath clipPathUnits="userSpaceOnUse" id="clipPath9"
      ><path style="fill-rule:evenodd;" d="M41 290 L52 301 L41 312 L30 301 Z"
      /></clipPath
      ><clipPath clipPathUnits="userSpaceOnUse" id="clipPath10"
      ><path style="fill-rule:evenodd;" d="M145 260 L134 238 L156 238 Z"
      /></clipPath
      ><clipPath clipPathUnits="userSpaceOnUse" id="clipPath11"
      ><path d="M238 238 L260 238 L260 260 L238 260 L238 238 Z"
      /></clipPath
      ><clipPath clipPathUnits="userSpaceOnUse" id="clipPath12"
      ><path style="fill-rule:evenodd;" d="M249 208 L238 186 L260 186 Z"
      /></clipPath
      ><clipPath clipPathUnits="userSpaceOnUse" id="clipPath13"
      ><path d="M208 249 C208 255.0751 203.0751 260 197 260 C190.9249 260 186 255.0751 186 249 C186 242.9249 190.9249 238 197 238 C203.0751 238 208 242.9249 208 249 Z"
      /></clipPath
      ><clipPath clipPathUnits="userSpaceOnUse" id="clipPath14"
      ><path d="M312 93 C312 99.0751 307.0751 104 301 104 C294.9249 104 290 99.0751 290 93 C290 86.9249 294.9249 82 301 82 C307.0751 82 312 86.9249 312 93 Z"
      /></clipPath
      ><clipPath clipPathUnits="userSpaceOnUse" id="clipPath15"
      ><path d="M238 134 L260 134 L260 156 L238 156 L238 134 Z"
      /></clipPath
      ><clipPath clipPathUnits="userSpaceOnUse" id="clipPath16"
      ><path d="M208 145 C208 151.0751 203.0751 156 197 156 C190.9249 156 186 151.0751 186 145 C186 138.9249 190.9249 134 197 134 C203.0751 134 208 138.9249 208 145 Z"
      /></clipPath
      ><clipPath clipPathUnits="userSpaceOnUse" id="clipPath17"
      ><path style="fill-rule:evenodd;" d="M197 104 L186 82 L208 82 Z"
      /></clipPath
      ><clipPath clipPathUnits="userSpaceOnUse" id="clipPath18"
      ><path style="fill-rule:evenodd;" d="M249 104 L238 82 L260 82 Z"
      /></clipPath
      ><clipPath clipPathUnits="userSpaceOnUse" id="clipPath19"
      ><path d="M238 30 L260 30 L260 52 L238 52 L238 30 Z"
      /></clipPath
      ><clipPath clipPathUnits="userSpaceOnUse" id="clipPath20"
      ><path d="M208 41 C208 47.0751 203.0751 52 197 52 C190.9249 52 186 47.0751 186 41 C186 34.9249 190.9249 30 197 30 C203.0751 30 208 34.9249 208 41 Z"
      /></clipPath
      ><clipPath clipPathUnits="userSpaceOnUse" id="clipPath21"
      ><path d="M156 41 C156 47.0751 151.0751 52 145 52 C138.9249 52 134 47.0751 134 41 C134 34.9249 138.9249 30 145 30 C151.0751 30 156 34.9249 156 41 Z"
      /></clipPath
    ></defs
    ><g style="fill:white; text-rendering:optimizeSpeed; stroke:white;"
    ><rect x="0" width="550" height="342" y="0" style="stroke:none;"
      /><polygon style="fill:none; stroke:black;" points=" 509 184 457 184"
      /><path d="M509 173 C503.5 178.5 514.5 189.5 509 195" style="fill:none; stroke:black;"
      /><polygon style="fill:none; stroke:black;" points=" 457 184 405 184"
      /><rect x="446" y="173" width="22" style="clip-path:url(#clipPath1); stroke:none;" height="22"
      /><rect x="446" y="173" width="22" style="clip-path:url(#clipPath1); fill:rgb(0,144,188); stroke:none;" height="22"
      /><rect x="446" y="173" width="22" style="clip-path:url(#clipPath1); fill:none; stroke:black;" height="22"
      /><rect x="446" y="173" width="22" style="fill:none; stroke:black;" height="22"
      /><polygon style="fill:none; stroke:black;" points=" 405 184 353 184"
      /><rect x="394" y="173" width="22" style="clip-path:url(#clipPath2); stroke:none;" height="22"
      /><rect x="394" y="173" width="22" style="clip-path:url(#clipPath2); fill:rgb(0,144,188); stroke:none;" height="22"
      /><rect x="394" y="173" width="22" style="clip-path:url(#clipPath2); fill:none; stroke:black;" height="22"
      /><rect x="394" y="173" width="22" style="fill:none; stroke:black;" height="22"
      /><polygon style="fill:none; stroke:black;" points=" 353 184 301 275"
      /><polygon style="fill:none; stroke:black;" points=" 353 184 301 93"
      /><circle style="clip-path:url(#clipPath3); stroke:none;" r="11" cx="353" cy="184"
      /><rect x="342" y="173" width="22" style="clip-path:url(#clipPath3); fill:rgb(0,166,81); stroke:none;" height="22"
      /><rect x="342" y="173" width="22" style="clip-path:url(#clipPath3); fill:none; stroke:black;" height="22"
      /><circle style="fill:none; stroke:black;" r="11" cx="353" cy="184"
      /><polygon style="fill:none; stroke:black;" points=" 301 275 249 301"
      /><polygon style="fill:none; stroke:black;" points=" 301 275 249 249"
      /><circle style="clip-path:url(#clipPath4); stroke:none;" r="11" cx="301" cy="275"
      /><rect x="290" y="264" width="22" style="clip-path:url(#clipPath4); fill:rgb(0,166,81); stroke:none;" height="22"
      /><rect x="290" y="264" width="22" style="clip-path:url(#clipPath4); fill:none; stroke:black;" height="22"
      /><circle style="fill:none; stroke:black;" r="11" cx="301" cy="275"
      /><polygon style="fill:none; stroke:black;" points=" 249 301 197 301"
      /><rect x="238" y="290" width="22" style="clip-path:url(#clipPath5); stroke:none;" height="22"
      /><rect x="238" y="290" width="22" style="clip-path:url(#clipPath5); fill:rgb(0,144,188); stroke:none;" height="22"
      /><rect x="238" y="290" width="22" style="clip-path:url(#clipPath5); fill:none; stroke:black;" height="22"
      /><rect x="238" y="290" width="22" style="fill:none; stroke:black;" height="22"
      /><polygon style="fill:none; stroke:black;" points=" 197 301 145 301"
      /><circle style="clip-path:url(#clipPath6); stroke:none;" r="11" cx="197" cy="301"
      /><rect x="186" y="290" width="22" style="clip-path:url(#clipPath6); fill:rgb(255,212,0); stroke:none;" height="22"
      /><rect x="186" y="290" width="22" style="clip-path:url(#clipPath6); fill:none; stroke:black;" height="22"
      /><circle style="fill:none; stroke:black;" r="11" cx="197" cy="301"
      /><polygon style="fill:none; stroke:black;" points=" 145 301 93 301"
      /><polygon style="fill:none; stroke:black;" points=" 145 301 145 249"
      /><rect x="134" y="290" width="22" style="clip-path:url(#clipPath7); stroke:none;" height="22"
      /><rect x="134" y="290" width="22" style="clip-path:url(#clipPath7); fill:rgb(0,144,188); stroke:none;" height="22"
      /><rect x="134" y="290" width="22" style="clip-path:url(#clipPath7); fill:none; stroke:black;" height="22"
      /><rect x="134" y="290" width="22" style="fill:none; stroke:black;" height="22"
      /><polygon style="fill:none; stroke:black;" points=" 93 301 41 301"
      /><circle style="clip-path:url(#clipPath8); stroke:none;" r="11" cx="93" cy="301"
      /><rect x="82" y="290" width="22" style="clip-path:url(#clipPath8); fill:rgb(255,212,0); stroke:none;" height="22"
      /><rect x="82" y="290" width="22" style="clip-path:url(#clipPath8); fill:none; stroke:black;" height="22"
      /><circle style="fill:none; stroke:black;" r="11" cx="93" cy="301"
      /><polygon style="clip-path:url(#clipPath9); stroke:none;" points=" 41 290 52 301 41 312 30 301"
      /><rect x="30" y="290" width="22" style="clip-path:url(#clipPath9); fill:rgb(143,204,233); stroke:none;" height="22"
      /><rect x="30" y="290" width="22" style="clip-path:url(#clipPath9); fill:none; stroke:black;" height="22"
      /><polygon style="fill:none; stroke:black;" points=" 41 290 52 301 41 312 30 301"
      /><rect x="71" y="304" width="5" style="stroke:none;" height="10"
    /></g
    ><g style="font-family:'Serif'; text-rendering:optimizeSpeed; "
    ><path style="stroke:none;" d="M72.8906 312.6875 C72.4844 312.6875 72.1562 313.0469 72.1562 313.4219 C72.1562 313.8125 72.4844 314.1562 72.8906 314.1562 C73.2969 314.1562 73.6406 313.8125 73.6406 313.4219 C73.6406 313.0469 73.2969 312.6875 72.8906 312.6875 ZM74.4688 306.5781 C74.7188 306.8906 74.875 307.2656 74.8906 307.6562 C74.8906 308.1875 74.625 308.5 74.0312 308.7656 L73.4062 309.0156 C72.6406 309.3125 72.3906 309.5469 72.3906 309.9375 C72.3906 310.1094 72.4531 310.3438 72.5781 310.8125 L72.7344 311.3438 L73.1094 311.3438 L73.0938 310.5312 C73.0938 310.0938 73.2031 309.9688 73.7812 309.7344 L74.2031 309.5625 C75.0312 309.2188 75.4531 308.6875 75.4531 307.8438 C75.4531 306.1562 73.6562 305.1875 72.5 305.0312 C72.1094 305.125 71.9062 305.2969 71.9062 305.6406 C71.9062 305.9375 72.0625 306.1562 72.7188 306.2656 L74.4688 306.5781 Z"
      /><rect x="57" y="304" width="5" style="fill:white; stroke:none;" height="10"
      /><path style="stroke:none;" d="M58.8906 312.6875 C58.4844 312.6875 58.1562 313.0469 58.1562 313.4219 C58.1562 313.8125 58.4844 314.1562 58.8906 314.1562 C59.2969 314.1562 59.6406 313.8125 59.6406 313.4219 C59.6406 313.0469 59.2969 312.6875 58.8906 312.6875 ZM60.4688 306.5781 C60.7188 306.8906 60.875 307.2656 60.8906 307.6562 C60.8906 308.1875 60.625 308.5 60.0312 308.7656 L59.4062 309.0156 C58.6406 309.3125 58.3906 309.5469 58.3906 309.9375 C58.3906 310.1094 58.4531 310.3438 58.5781 310.8125 L58.7344 311.3438 L59.1094 311.3438 L59.0938 310.5312 C59.0938 310.0938 59.2031 309.9688 59.7812 309.7344 L60.2031 309.5625 C61.0312 309.2188 61.4531 308.6875 61.4531 307.8438 C61.4531 306.1562 59.6562 305.1875 58.5 305.0312 C58.1094 305.125 57.9062 305.2969 57.9062 305.6406 C57.9062 305.9375 58.0625 306.1562 58.7188 306.2656 L60.4688 306.5781 Z"
      /><polygon style="fill:white; clip-path:url(#clipPath10); stroke:none;" points=" 145 260 134 238 156 238"
      /><rect x="134" y="238" width="22" style="clip-path:url(#clipPath10); fill:rgb(237,28,36); stroke:none;" height="22"
      /><rect x="134" y="238" width="22" style="fill:none; clip-path:url(#clipPath10);" height="22"
      /><polygon style="fill:none;" points=" 145 260 134 238 156 238"
      /><rect x="123" y="304" width="5" style="fill:white; stroke:none;" height="10"
      /><path style="stroke:none;" d="M124.8906 312.6875 C124.4844 312.6875 124.1562 313.0469 124.1562 313.4219 C124.1562 313.8125 124.4844 314.1562 124.8906 314.1562 C125.2969 314.1562 125.6406 313.8125 125.6406 313.4219 C125.6406 313.0469 125.2969 312.6875 124.8906 312.6875 ZM126.4688 306.5781 C126.7188 306.8906 126.875 307.2656 126.8906 307.6562 C126.8906 308.1875 126.625 308.5 126.0312 308.7656 L125.4062 309.0156 C124.6406 309.3125 124.3906 309.5469 124.3906 309.9375 C124.3906 310.1094 124.4531 310.3438 124.5781 310.8125 L124.7344 311.3438 L125.1094 311.3438 L125.0938 310.5312 C125.0938 310.0938 125.2031 309.9688 125.7812 309.7344 L126.2031 309.5625 C127.0312 309.2188 127.4531 308.6875 127.4531 307.8438 C127.4531 306.1562 125.6562 305.1875 124.5 305.0312 C124.1094 305.125 123.9062 305.2969 123.9062 305.6406 C123.9062 305.9375 124.0625 306.1562 124.7188 306.2656 L126.4688 306.5781 Z"
      /><rect x="109" y="304" width="5" style="fill:white; stroke:none;" height="10"
      /><path style="stroke:none;" d="M110.8906 312.6875 C110.4844 312.6875 110.1562 313.0469 110.1562 313.4219 C110.1562 313.8125 110.4844 314.1562 110.8906 314.1562 C111.2969 314.1562 111.6406 313.8125 111.6406 313.4219 C111.6406 313.0469 111.2969 312.6875 110.8906 312.6875 ZM112.4688 306.5781 C112.7188 306.8906 112.875 307.2656 112.8906 307.6562 C112.8906 308.1875 112.625 308.5 112.0312 308.7656 L111.4062 309.0156 C110.6406 309.3125 110.3906 309.5469 110.3906 309.9375 C110.3906 310.1094 110.4531 310.3438 110.5781 310.8125 L110.7344 311.3438 L111.1094 311.3438 L111.0938 310.5312 C111.0938 310.0938 111.2031 309.9688 111.7812 309.7344 L112.2031 309.5625 C113.0312 309.2188 113.4531 308.6875 113.4531 307.8438 C113.4531 306.1562 111.6562 305.1875 110.5 305.0312 C110.1094 305.125 109.9062 305.2969 109.9062 305.6406 C109.9062 305.9375 110.0625 306.1562 110.7188 306.2656 L112.4688 306.5781 Z"
      /><rect x="134" y="277" width="5" style="fill:white; stroke:none;" height="10"
      /><path style="stroke:none;" d="M135.8906 285.6875 C135.4844 285.6875 135.1562 286.0469 135.1562 286.4219 C135.1562 286.8125 135.4844 287.1562 135.8906 287.1562 C136.2969 287.1562 136.6406 286.8125 136.6406 286.4219 C136.6406 286.0469 136.2969 285.6875 135.8906 285.6875 ZM137.4688 279.5781 C137.7188 279.8906 137.875 280.2656 137.8906 280.6562 C137.8906 281.1875 137.625 281.5 137.0312 281.7656 L136.4062 282.0156 C135.6406 282.3125 135.3906 282.5469 135.3906 282.9375 C135.3906 283.1094 135.4531 283.3438 135.5781 283.8125 L135.7344 284.3438 L136.1094 284.3438 L136.0938 283.5312 C136.0938 283.0938 136.2031 282.9688 136.7812 282.7344 L137.2031 282.5625 C138.0312 282.2188 138.4531 281.6875 138.4531 280.8438 C138.4531 279.1562 136.6562 278.1875 135.5 278.0312 C135.1094 278.125 134.9062 278.2969 134.9062 278.6406 C134.9062 278.9375 135.0625 279.1562 135.7188 279.2656 L137.4688 279.5781 Z"
      /><rect x="134" y="263" width="5" style="fill:white; stroke:none;" height="10"
      /><path style="stroke:none;" d="M135.8906 271.6875 C135.4844 271.6875 135.1562 272.0469 135.1562 272.4219 C135.1562 272.8125 135.4844 273.1562 135.8906 273.1562 C136.2969 273.1562 136.6406 272.8125 136.6406 272.4219 C136.6406 272.0469 136.2969 271.6875 135.8906 271.6875 ZM137.4688 265.5781 C137.7188 265.8906 137.875 266.2656 137.8906 266.6562 C137.8906 267.1875 137.625 267.5 137.0312 267.7656 L136.4062 268.0156 C135.6406 268.3125 135.3906 268.5469 135.3906 268.9375 C135.3906 269.1094 135.4531 269.3438 135.5781 269.8125 L135.7344 270.3438 L136.1094 270.3438 L136.0938 269.5312 C136.0938 269.0938 136.2031 268.9688 136.7812 268.7344 L137.2031 268.5625 C138.0312 268.2188 138.4531 267.6875 138.4531 266.8438 C138.4531 265.1562 136.6562 264.1875 135.5 264.0312 C135.1094 264.125 134.9062 264.2969 134.9062 264.6406 C134.9062 264.9375 135.0625 265.1562 135.7188 265.2656 L137.4688 265.5781 Z"
      /><rect x="175" y="304" width="5" style="fill:white; stroke:none;" height="10"
      /><path style="stroke:none;" d="M176.8906 312.6875 C176.4844 312.6875 176.1562 313.0469 176.1562 313.4219 C176.1562 313.8125 176.4844 314.1562 176.8906 314.1562 C177.2969 314.1562 177.6406 313.8125 177.6406 313.4219 C177.6406 313.0469 177.2969 312.6875 176.8906 312.6875 ZM178.4688 306.5781 C178.7188 306.8906 178.875 307.2656 178.8906 307.6562 C178.8906 308.1875 178.625 308.5 178.0312 308.7656 L177.4062 309.0156 C176.6406 309.3125 176.3906 309.5469 176.3906 309.9375 C176.3906 310.1094 176.4531 310.3438 176.5781 310.8125 L176.7344 311.3438 L177.1094 311.3438 L177.0938 310.5312 C177.0938 310.0938 177.2031 309.9688 177.7812 309.7344 L178.2031 309.5625 C179.0312 309.2188 179.4531 308.6875 179.4531 307.8438 C179.4531 306.1562 177.6562 305.1875 176.5 305.0312 C176.1094 305.125 175.9062 305.2969 175.9062 305.6406 C175.9062 305.9375 176.0625 306.1562 176.7188 306.2656 L178.4688 306.5781 Z"
      /><rect x="161" y="304" width="5" style="fill:white; stroke:none;" height="10"
      /><path style="stroke:none;" d="M162.8906 312.6875 C162.4844 312.6875 162.1562 313.0469 162.1562 313.4219 C162.1562 313.8125 162.4844 314.1562 162.8906 314.1562 C163.2969 314.1562 163.6406 313.8125 163.6406 313.4219 C163.6406 313.0469 163.2969 312.6875 162.8906 312.6875 ZM164.4688 306.5781 C164.7188 306.8906 164.875 307.2656 164.8906 307.6562 C164.8906 308.1875 164.625 308.5 164.0312 308.7656 L163.4062 309.0156 C162.6406 309.3125 162.3906 309.5469 162.3906 309.9375 C162.3906 310.1094 162.4531 310.3438 162.5781 310.8125 L162.7344 311.3438 L163.1094 311.3438 L163.0938 310.5312 C163.0938 310.0938 163.2031 309.9688 163.7812 309.7344 L164.2031 309.5625 C165.0312 309.2188 165.4531 308.6875 165.4531 307.8438 C165.4531 306.1562 163.6562 305.1875 162.5 305.0312 C162.1094 305.125 161.9062 305.2969 161.9062 305.6406 C161.9062 305.9375 162.0625 306.1562 162.7188 306.2656 L164.4688 306.5781 Z"
      /><rect x="227" y="304" width="5" style="fill:white; stroke:none;" height="10"
      /><path style="stroke:none;" d="M228.8906 312.6875 C228.4844 312.6875 228.1562 313.0469 228.1562 313.4219 C228.1562 313.8125 228.4844 314.1562 228.8906 314.1562 C229.2969 314.1562 229.6406 313.8125 229.6406 313.4219 C229.6406 313.0469 229.2969 312.6875 228.8906 312.6875 ZM230.4688 306.5781 C230.7188 306.8906 230.875 307.2656 230.8906 307.6562 C230.8906 308.1875 230.625 308.5 230.0312 308.7656 L229.4062 309.0156 C228.6406 309.3125 228.3906 309.5469 228.3906 309.9375 C228.3906 310.1094 228.4531 310.3438 228.5781 310.8125 L228.7344 311.3438 L229.1094 311.3438 L229.0938 310.5312 C229.0938 310.0938 229.2031 309.9688 229.7812 309.7344 L230.2031 309.5625 C231.0312 309.2188 231.4531 308.6875 231.4531 307.8438 C231.4531 306.1562 229.6562 305.1875 228.5 305.0312 C228.1094 305.125 227.9062 305.2969 227.9062 305.6406 C227.9062 305.9375 228.0625 306.1562 228.7188 306.2656 L230.4688 306.5781 Z"
      /><rect x="213" y="304" width="5" style="fill:white; stroke:none;" height="10"
      /><path style="stroke:none;" d="M214.8906 312.6875 C214.4844 312.6875 214.1562 313.0469 214.1562 313.4219 C214.1562 313.8125 214.4844 314.1562 214.8906 314.1562 C215.2969 314.1562 215.6406 313.8125 215.6406 313.4219 C215.6406 313.0469 215.2969 312.6875 214.8906 312.6875 ZM216.4688 306.5781 C216.7188 306.8906 216.875 307.2656 216.8906 307.6562 C216.8906 308.1875 216.625 308.5 216.0312 308.7656 L215.4062 309.0156 C214.6406 309.3125 214.3906 309.5469 214.3906 309.9375 C214.3906 310.1094 214.4531 310.3438 214.5781 310.8125 L214.7344 311.3438 L215.1094 311.3438 L215.0938 310.5312 C215.0938 310.0938 215.2031 309.9688 215.7812 309.7344 L216.2031 309.5625 C217.0312 309.2188 217.4531 308.6875 217.4531 307.8438 C217.4531 306.1562 215.6562 305.1875 214.5 305.0312 C214.1094 305.125 213.9062 305.2969 213.9062 305.6406 C213.9062 305.9375 214.0625 306.1562 214.7188 306.2656 L216.4688 306.5781 Z"
      /><polygon style="fill:none;" points=" 249 249 249 197"
      /><polygon style="fill:none;" points=" 249 249 197 249"
      /><rect x="238" y="238" width="22" style="clip-path:url(#clipPath11); fill:white; stroke:none;" height="22"
      /><rect x="238" y="238" width="22" style="clip-path:url(#clipPath11); fill:rgb(0,144,188); stroke:none;" height="22"
      /><rect x="238" y="238" width="22" style="fill:none; clip-path:url(#clipPath11);" height="22"
      /><rect x="238" width="22" height="22" y="238" style="fill:none;"
      /><polygon style="fill:white; clip-path:url(#clipPath12); stroke:none;" points=" 249 208 238 186 260 186"
      /><rect x="238" y="186" width="22" style="clip-path:url(#clipPath12); fill:rgb(237,28,36); stroke:none;" height="22"
      /><rect x="238" y="186" width="22" style="fill:none; clip-path:url(#clipPath12);" height="22"
      /><polygon style="fill:none;" points=" 249 208 238 186 260 186"
      /><circle style="fill:white; clip-path:url(#clipPath13); stroke:none;" r="11" cx="197" cy="249"
      /><rect x="186" y="238" width="22" style="clip-path:url(#clipPath13); fill:rgb(255,212,0); stroke:none;" height="22"
      /><rect x="186" y="238" width="22" style="fill:none; clip-path:url(#clipPath13);" height="22"
      /><circle r="11" style="fill:none;" cx="197" cy="249"
      /><rect x="238" y="225" width="5" style="fill:white; stroke:none;" height="10"
      /><path style="stroke:none;" d="M239.8906 233.6875 C239.4844 233.6875 239.1562 234.0469 239.1562 234.4219 C239.1562 234.8125 239.4844 235.1562 239.8906 235.1562 C240.2969 235.1562 240.6406 234.8125 240.6406 234.4219 C240.6406 234.0469 240.2969 233.6875 239.8906 233.6875 ZM241.4688 227.5781 C241.7188 227.8906 241.875 228.2656 241.8906 228.6562 C241.8906 229.1875 241.625 229.5 241.0312 229.7656 L240.4062 230.0156 C239.6406 230.3125 239.3906 230.5469 239.3906 230.9375 C239.3906 231.1094 239.4531 231.3438 239.5781 231.8125 L239.7344 232.3438 L240.1094 232.3438 L240.0938 231.5312 C240.0938 231.0938 240.2031 230.9688 240.7812 230.7344 L241.2031 230.5625 C242.0312 230.2188 242.4531 229.6875 242.4531 228.8438 C242.4531 227.1562 240.6562 226.1875 239.5 226.0312 C239.1094 226.125 238.9062 226.2969 238.9062 226.6406 C238.9062 226.9375 239.0625 227.1562 239.7188 227.2656 L241.4688 227.5781 Z"
      /><rect x="238" y="211" width="5" style="fill:white; stroke:none;" height="10"
      /><path style="stroke:none;" d="M239.8906 219.6875 C239.4844 219.6875 239.1562 220.0469 239.1562 220.4219 C239.1562 220.8125 239.4844 221.1562 239.8906 221.1562 C240.2969 221.1562 240.6406 220.8125 240.6406 220.4219 C240.6406 220.0469 240.2969 219.6875 239.8906 219.6875 ZM241.4688 213.5781 C241.7188 213.8906 241.875 214.2656 241.8906 214.6562 C241.8906 215.1875 241.625 215.5 241.0312 215.7656 L240.4062 216.0156 C239.6406 216.3125 239.3906 216.5469 239.3906 216.9375 C239.3906 217.1094 239.4531 217.3438 239.5781 217.8125 L239.7344 218.3438 L240.1094 218.3438 L240.0938 217.5312 C240.0938 217.0938 240.2031 216.9688 240.7812 216.7344 L241.2031 216.5625 C242.0312 216.2188 242.4531 215.6875 242.4531 214.8438 C242.4531 213.1562 240.6562 212.1875 239.5 212.0312 C239.1094 212.125 238.9062 212.2969 238.9062 212.6406 C238.9062 212.9375 239.0625 213.1562 239.7188 213.2656 L241.4688 213.5781 Z"
      /><rect x="227" y="252" width="5" style="fill:white; stroke:none;" height="10"
      /><path style="stroke:none;" d="M228.8906 260.6875 C228.4844 260.6875 228.1562 261.0469 228.1562 261.4219 C228.1562 261.8125 228.4844 262.1562 228.8906 262.1562 C229.2969 262.1562 229.6406 261.8125 229.6406 261.4219 C229.6406 261.0469 229.2969 260.6875 228.8906 260.6875 ZM230.4688 254.5781 C230.7188 254.8906 230.875 255.2656 230.8906 255.6562 C230.8906 256.1875 230.625 256.5 230.0312 256.7656 L229.4062 257.0156 C228.6406 257.3125 228.3906 257.5469 228.3906 257.9375 C228.3906 258.1094 228.4531 258.3438 228.5781 258.8125 L228.7344 259.3438 L229.1094 259.3438 L229.0938 258.5312 C229.0938 258.0938 229.2031 257.9688 229.7812 257.7344 L230.2031 257.5625 C231.0312 257.2188 231.4531 256.6875 231.4531 255.8438 C231.4531 254.1562 229.6562 253.1875 228.5 253.0312 C228.1094 253.125 227.9062 253.2969 227.9062 253.6406 C227.9062 253.9375 228.0625 254.1562 228.7188 254.2656 L230.4688 254.5781 Z"
      /><rect x="213" y="252" width="5" style="fill:white; stroke:none;" height="10"
      /><path style="stroke:none;" d="M214.8906 260.6875 C214.4844 260.6875 214.1562 261.0469 214.1562 261.4219 C214.1562 261.8125 214.4844 262.1562 214.8906 262.1562 C215.2969 262.1562 215.6406 261.8125 215.6406 261.4219 C215.6406 261.0469 215.2969 260.6875 214.8906 260.6875 ZM216.4688 254.5781 C216.7188 254.8906 216.875 255.2656 216.8906 255.6562 C216.8906 256.1875 216.625 256.5 216.0312 256.7656 L215.4062 257.0156 C214.6406 257.3125 214.3906 257.5469 214.3906 257.9375 C214.3906 258.1094 214.4531 258.3438 214.5781 258.8125 L214.7344 259.3438 L215.1094 259.3438 L215.0938 258.5312 C215.0938 258.0938 215.2031 257.9688 215.7812 257.7344 L216.2031 257.5625 C217.0312 257.2188 217.4531 256.6875 217.4531 255.8438 C217.4531 254.1562 215.6562 253.1875 214.5 253.0312 C214.1094 253.125 213.9062 253.2969 213.9062 253.6406 C213.9062 253.9375 214.0625 254.1562 214.7188 254.2656 L216.4688 254.5781 Z"
      /><rect x="283" y="286" width="5" style="fill:white; stroke:none;" height="10"
      /><path style="stroke:none;" d="M284.8906 294.6875 C284.4844 294.6875 284.1562 295.0469 284.1562 295.4219 C284.1562 295.8125 284.4844 296.1562 284.8906 296.1562 C285.2969 296.1562 285.6406 295.8125 285.6406 295.4219 C285.6406 295.0469 285.2969 294.6875 284.8906 294.6875 ZM286.4688 288.5781 C286.7188 288.8906 286.875 289.2656 286.8906 289.6562 C286.8906 290.1875 286.625 290.5 286.0312 290.7656 L285.4062 291.0156 C284.6406 291.3125 284.3906 291.5469 284.3906 291.9375 C284.3906 292.1094 284.4531 292.3438 284.5781 292.8125 L284.7344 293.3438 L285.1094 293.3438 L285.0938 292.5312 C285.0938 292.0938 285.2031 291.9688 285.7812 291.7344 L286.2031 291.5625 C287.0312 291.2188 287.4531 290.6875 287.4531 289.8438 C287.4531 288.1562 285.6562 287.1875 284.5 287.0312 C284.1094 287.125 283.9062 287.2969 283.9062 287.6406 C283.9062 287.9375 284.0625 288.1562 284.7188 288.2656 L286.4688 288.5781 Z"
      /><rect x="268" y="294" width="5" style="fill:white; stroke:none;" height="10"
      /><path style="stroke:none;" d="M269.8906 302.6875 C269.4844 302.6875 269.1562 303.0469 269.1562 303.4219 C269.1562 303.8125 269.4844 304.1562 269.8906 304.1562 C270.2969 304.1562 270.6406 303.8125 270.6406 303.4219 C270.6406 303.0469 270.2969 302.6875 269.8906 302.6875 ZM271.4688 296.5781 C271.7188 296.8906 271.875 297.2656 271.8906 297.6562 C271.8906 298.1875 271.625 298.5 271.0312 298.7656 L270.4062 299.0156 C269.6406 299.3125 269.3906 299.5469 269.3906 299.9375 C269.3906 300.1094 269.4531 300.3438 269.5781 300.8125 L269.7344 301.3438 L270.1094 301.3438 L270.0938 300.5312 C270.0938 300.0938 270.2031 299.9688 270.7812 299.7344 L271.2031 299.5625 C272.0312 299.2188 272.4531 298.6875 272.4531 297.8438 C272.4531 296.1562 270.6562 295.1875 269.5 295.0312 C269.1094 295.125 268.9062 295.2969 268.9062 295.6406 C268.9062 295.9375 269.0625 296.1562 269.7188 296.2656 L271.4688 296.5781 Z"
      /><rect x="276" y="268" width="5" style="fill:white; stroke:none;" height="10"
      /><path style="stroke:none;" d="M277.8906 276.6875 C277.4844 276.6875 277.1562 277.0469 277.1562 277.4219 C277.1562 277.8125 277.4844 278.1562 277.8906 278.1562 C278.2969 278.1562 278.6406 277.8125 278.6406 277.4219 C278.6406 277.0469 278.2969 276.6875 277.8906 276.6875 ZM279.4688 270.5781 C279.7188 270.8906 279.875 271.2656 279.8906 271.6562 C279.8906 272.1875 279.625 272.5 279.0312 272.7656 L278.4062 273.0156 C277.6406 273.3125 277.3906 273.5469 277.3906 273.9375 C277.3906 274.1094 277.4531 274.3438 277.5781 274.8125 L277.7344 275.3438 L278.1094 275.3438 L278.0938 274.5312 C278.0938 274.0938 278.2031 273.9688 278.7812 273.7344 L279.2031 273.5625 C280.0312 273.2188 280.4531 272.6875 280.4531 271.8438 C280.4531 270.1562 278.6562 269.1875 277.5 269.0312 C277.1094 269.125 276.9062 269.2969 276.9062 269.6406 C276.9062 269.9375 277.0625 270.1562 277.7188 270.2656 L279.4688 270.5781 Z"
      /><rect x="261" y="260" width="5" style="fill:white; stroke:none;" height="10"
      /><path style="stroke:none;" d="M262.8906 268.6875 C262.4844 268.6875 262.1562 269.0469 262.1562 269.4219 C262.1562 269.8125 262.4844 270.1562 262.8906 270.1562 C263.2969 270.1562 263.6406 269.8125 263.6406 269.4219 C263.6406 269.0469 263.2969 268.6875 262.8906 268.6875 ZM264.4688 262.5781 C264.7188 262.8906 264.875 263.2656 264.8906 263.6562 C264.8906 264.1875 264.625 264.5 264.0312 264.7656 L263.4062 265.0156 C262.6406 265.3125 262.3906 265.5469 262.3906 265.9375 C262.3906 266.1094 262.4531 266.3438 262.5781 266.8125 L262.7344 267.3438 L263.1094 267.3438 L263.0938 266.5312 C263.0938 266.0938 263.2031 265.9688 263.7812 265.7344 L264.2031 265.5625 C265.0312 265.2188 265.4531 264.6875 265.4531 263.8438 C265.4531 262.1562 263.6562 261.1875 262.5 261.0312 C262.1094 261.125 261.9062 261.2969 261.9062 261.6406 C261.9062 261.9375 262.0625 262.1562 262.7188 262.2656 L264.4688 262.5781 Z"
      /><polygon style="fill:none;" points=" 301 93 249 145"
      /><polygon style="fill:none;" points=" 301 93 249 41"
      /><circle style="fill:white; clip-path:url(#clipPath14); stroke:none;" r="11" cx="301" cy="93"
      /><rect x="290" y="82" width="22" style="clip-path:url(#clipPath14); fill:rgb(0,166,81); stroke:none;" height="22"
      /><rect x="290" y="82" width="22" style="fill:none; clip-path:url(#clipPath14);" height="22"
      /><circle r="11" style="fill:none;" cx="301" cy="93"
      /><polygon style="fill:none;" points=" 249 145 197 145"
      /><polygon style="fill:none;" points=" 249 145 249 93"
      /><rect x="238" y="134" width="22" style="clip-path:url(#clipPath15); fill:white; stroke:none;" height="22"
      /><rect x="238" y="134" width="22" style="clip-path:url(#clipPath15); fill:rgb(0,144,188); stroke:none;" height="22"
      /><rect x="238" y="134" width="22" style="fill:none; clip-path:url(#clipPath15);" height="22"
      /><rect x="238" width="22" height="22" y="134" style="fill:none;"
      /><polygon style="fill:none;" points=" 197 145 197 93"
      /><circle style="fill:white; clip-path:url(#clipPath16); stroke:none;" r="11" cx="197" cy="145"
      /><rect x="186" y="134" width="22" style="clip-path:url(#clipPath16); fill:rgb(255,212,0); stroke:none;" height="22"
      /><rect x="186" y="134" width="22" style="fill:none; clip-path:url(#clipPath16);" height="22"
      /><circle r="11" style="fill:none;" cx="197" cy="145"
      /><polygon style="fill:white; clip-path:url(#clipPath17); stroke:none;" points=" 197 104 186 82 208 82"
      /><rect x="186" y="82" width="22" style="clip-path:url(#clipPath17); fill:rgb(237,28,36); stroke:none;" height="22"
      /><rect x="186" y="82" width="22" style="fill:none; clip-path:url(#clipPath17);" height="22"
      /><polygon style="fill:none;" points=" 197 104 186 82 208 82"
      /><rect x="186" y="121" width="5" style="fill:white; stroke:none;" height="10"
      /><path style="stroke:none;" d="M187.8906 129.6875 C187.4844 129.6875 187.1562 130.0469 187.1562 130.4219 C187.1562 130.8125 187.4844 131.1562 187.8906 131.1562 C188.2969 131.1562 188.6406 130.8125 188.6406 130.4219 C188.6406 130.0469 188.2969 129.6875 187.8906 129.6875 ZM189.4688 123.5781 C189.7188 123.8906 189.875 124.2656 189.8906 124.6562 C189.8906 125.1875 189.625 125.5 189.0312 125.7656 L188.4062 126.0156 C187.6406 126.3125 187.3906 126.5469 187.3906 126.9375 C187.3906 127.1094 187.4531 127.3438 187.5781 127.8125 L187.7344 128.3438 L188.1094 128.3438 L188.0938 127.5312 C188.0938 127.0938 188.2031 126.9688 188.7812 126.7344 L189.2031 126.5625 C190.0312 126.2188 190.4531 125.6875 190.4531 124.8438 C190.4531 123.1562 188.6562 122.1875 187.5 122.0312 C187.1094 122.125 186.9062 122.2969 186.9062 122.6406 C186.9062 122.9375 187.0625 123.1562 187.7188 123.2656 L189.4688 123.5781 Z"
      /><rect x="186" y="107" width="5" style="fill:white; stroke:none;" height="10"
      /><path style="stroke:none;" d="M187.8906 115.6875 C187.4844 115.6875 187.1562 116.0469 187.1562 116.4219 C187.1562 116.8125 187.4844 117.1562 187.8906 117.1562 C188.2969 117.1562 188.6406 116.8125 188.6406 116.4219 C188.6406 116.0469 188.2969 115.6875 187.8906 115.6875 ZM189.4688 109.5781 C189.7188 109.8906 189.875 110.2656 189.8906 110.6562 C189.8906 111.1875 189.625 111.5 189.0312 111.7656 L188.4062 112.0156 C187.6406 112.3125 187.3906 112.5469 187.3906 112.9375 C187.3906 113.1094 187.4531 113.3438 187.5781 113.8125 L187.7344 114.3438 L188.1094 114.3438 L188.0938 113.5312 C188.0938 113.0938 188.2031 112.9688 188.7812 112.7344 L189.2031 112.5625 C190.0312 112.2188 190.4531 111.6875 190.4531 110.8438 C190.4531 109.1562 188.6562 108.1875 187.5 108.0312 C187.1094 108.125 186.9062 108.2969 186.9062 108.6406 C186.9062 108.9375 187.0625 109.1562 187.7188 109.2656 L189.4688 109.5781 Z"
      /><polygon style="fill:white; clip-path:url(#clipPath18); stroke:none;" points=" 249 104 238 82 260 82"
      /><rect x="238" y="82" width="22" style="clip-path:url(#clipPath18); fill:rgb(237,28,36); stroke:none;" height="22"
      /><rect x="238" y="82" width="22" style="fill:none; clip-path:url(#clipPath18);" height="22"
      /><polygon style="fill:none;" points=" 249 104 238 82 260 82"
      /><rect x="227" y="148" width="5" style="fill:white; stroke:none;" height="10"
      /><path style="stroke:none;" d="M228.8906 156.6875 C228.4844 156.6875 228.1562 157.0469 228.1562 157.4219 C228.1562 157.8125 228.4844 158.1562 228.8906 158.1562 C229.2969 158.1562 229.6406 157.8125 229.6406 157.4219 C229.6406 157.0469 229.2969 156.6875 228.8906 156.6875 ZM230.4688 150.5781 C230.7188 150.8906 230.875 151.2656 230.8906 151.6562 C230.8906 152.1875 230.625 152.5 230.0312 152.7656 L229.4062 153.0156 C228.6406 153.3125 228.3906 153.5469 228.3906 153.9375 C228.3906 154.1094 228.4531 154.3438 228.5781 154.8125 L228.7344 155.3438 L229.1094 155.3438 L229.0938 154.5312 C229.0938 154.0938 229.2031 153.9688 229.7812 153.7344 L230.2031 153.5625 C231.0312 153.2188 231.4531 152.6875 231.4531 151.8438 C231.4531 150.1562 229.6562 149.1875 228.5 149.0312 C228.1094 149.125 227.9062 149.2969 227.9062 149.6406 C227.9062 149.9375 228.0625 150.1562 228.7188 150.2656 L230.4688 150.5781 Z"
      /><rect x="213" y="148" width="5" style="fill:white; stroke:none;" height="10"
      /><path style="stroke:none;" d="M214.8906 156.6875 C214.4844 156.6875 214.1562 157.0469 214.1562 157.4219 C214.1562 157.8125 214.4844 158.1562 214.8906 158.1562 C215.2969 158.1562 215.6406 157.8125 215.6406 157.4219 C215.6406 157.0469 215.2969 156.6875 214.8906 156.6875 ZM216.4688 150.5781 C216.7188 150.8906 216.875 151.2656 216.8906 151.6562 C216.8906 152.1875 216.625 152.5 216.0312 152.7656 L215.4062 153.0156 C214.6406 153.3125 214.3906 153.5469 214.3906 153.9375 C214.3906 154.1094 214.4531 154.3438 214.5781 154.8125 L214.7344 155.3438 L215.1094 155.3438 L215.0938 154.5312 C215.0938 154.0938 215.2031 153.9688 215.7812 153.7344 L216.2031 153.5625 C217.0312 153.2188 217.4531 152.6875 217.4531 151.8438 C217.4531 150.1562 215.6562 149.1875 214.5 149.0312 C214.1094 149.125 213.9062 149.2969 213.9062 149.6406 C213.9062 149.9375 214.0625 150.1562 214.7188 150.2656 L216.4688 150.5781 Z"
      /><rect x="238" y="121" width="5" style="fill:white; stroke:none;" height="10"
      /><path style="stroke:none;" d="M239.8906 129.6875 C239.4844 129.6875 239.1562 130.0469 239.1562 130.4219 C239.1562 130.8125 239.4844 131.1562 239.8906 131.1562 C240.2969 131.1562 240.6406 130.8125 240.6406 130.4219 C240.6406 130.0469 240.2969 129.6875 239.8906 129.6875 ZM241.4688 123.5781 C241.7188 123.8906 241.875 124.2656 241.8906 124.6562 C241.8906 125.1875 241.625 125.5 241.0312 125.7656 L240.4062 126.0156 C239.6406 126.3125 239.3906 126.5469 239.3906 126.9375 C239.3906 127.1094 239.4531 127.3438 239.5781 127.8125 L239.7344 128.3438 L240.1094 128.3438 L240.0938 127.5312 C240.0938 127.0938 240.2031 126.9688 240.7812 126.7344 L241.2031 126.5625 C242.0312 126.2188 242.4531 125.6875 242.4531 124.8438 C242.4531 123.1562 240.6562 122.1875 239.5 122.0312 C239.1094 122.125 238.9062 122.2969 238.9062 122.6406 C238.9062 122.9375 239.0625 123.1562 239.7188 123.2656 L241.4688 123.5781 Z"
      /><rect x="238" y="107" width="5" style="fill:white; stroke:none;" height="10"
      /><path style="stroke:none;" d="M239.8906 115.6875 C239.4844 115.6875 239.1562 116.0469 239.1562 116.4219 C239.1562 116.8125 239.4844 117.1562 239.8906 117.1562 C240.2969 117.1562 240.6406 116.8125 240.6406 116.4219 C240.6406 116.0469 240.2969 115.6875 239.8906 115.6875 ZM241.4688 109.5781 C241.7188 109.8906 241.875 110.2656 241.8906 110.6562 C241.8906 111.1875 241.625 111.5 241.0312 111.7656 L240.4062 112.0156 C239.6406 112.3125 239.3906 112.5469 239.3906 112.9375 C239.3906 113.1094 239.4531 113.3438 239.5781 113.8125 L239.7344 114.3438 L240.1094 114.3438 L240.0938 113.5312 C240.0938 113.0938 240.2031 112.9688 240.7812 112.7344 L241.2031 112.5625 C242.0312 112.2188 242.4531 111.6875 242.4531 110.8438 C242.4531 109.1562 240.6562 108.1875 239.5 108.0312 C239.1094 108.125 238.9062 108.2969 238.9062 108.6406 C238.9062 108.9375 239.0625 109.1562 239.7188 109.2656 L241.4688 109.5781 Z"
      /><polygon style="fill:none;" points=" 249 41 197 41"
      /><rect x="238" y="30" width="22" style="clip-path:url(#clipPath19); fill:white; stroke:none;" height="22"
      /><rect x="238" y="30" width="22" style="clip-path:url(#clipPath19); fill:rgb(0,144,188); stroke:none;" height="22"
      /><rect x="238" y="30" width="22" style="fill:none; clip-path:url(#clipPath19);" height="22"
      /><rect x="238" width="22" height="22" y="30" style="fill:none;"
      /><polygon style="fill:none;" points=" 197 41 145 41"
      /><circle style="fill:white; clip-path:url(#clipPath20); stroke:none;" r="11" cx="197" cy="41"
      /><rect x="186" y="30" width="22" style="clip-path:url(#clipPath20); fill:rgb(255,212,0); stroke:none;" height="22"
      /><rect x="186" y="30" width="22" style="fill:none; clip-path:url(#clipPath20);" height="22"
      /><circle r="11" style="fill:none;" cx="197" cy="41"
      /><circle style="fill:white; clip-path:url(#clipPath21); stroke:none;" r="11" cx="145" cy="41"
      /><rect x="134" y="30" width="22" style="clip-path:url(#clipPath21); fill:rgb(255,212,0); stroke:none;" height="22"
      /><rect x="134" y="30" width="22" style="fill:none; clip-path:url(#clipPath21);" height="22"
      /><circle r="11" style="fill:none;" cx="145" cy="41"
      /><rect x="175" y="44" width="5" style="fill:white; stroke:none;" height="10"
      /><path style="stroke:none;" d="M176.8906 52.6875 C176.4844 52.6875 176.1562 53.0469 176.1562 53.4219 C176.1562 53.8125 176.4844 54.1562 176.8906 54.1562 C177.2969 54.1562 177.6406 53.8125 177.6406 53.4219 C177.6406 53.0469 177.2969 52.6875 176.8906 52.6875 ZM178.4688 46.5781 C178.7188 46.8906 178.875 47.2656 178.8906 47.6562 C178.8906 48.1875 178.625 48.5 178.0312 48.7656 L177.4062 49.0156 C176.6406 49.3125 176.3906 49.5469 176.3906 49.9375 C176.3906 50.1094 176.4531 50.3438 176.5781 50.8125 L176.7344 51.3438 L177.1094 51.3438 L177.0938 50.5312 C177.0938 50.0938 177.2031 49.9688 177.7812 49.7344 L178.2031 49.5625 C179.0312 49.2188 179.4531 48.6875 179.4531 47.8438 C179.4531 46.1562 177.6562 45.1875 176.5 45.0312 C176.1094 45.125 175.9062 45.2969 175.9062 45.6406 C175.9062 45.9375 176.0625 46.1562 176.7188 46.2656 L178.4688 46.5781 Z"
      /><rect x="161" y="44" width="5" style="fill:white; stroke:none;" height="10"
      /><path style="stroke:none;" d="M162.8906 52.6875 C162.4844 52.6875 162.1562 53.0469 162.1562 53.4219 C162.1562 53.8125 162.4844 54.1562 162.8906 54.1562 C163.2969 54.1562 163.6406 53.8125 163.6406 53.4219 C163.6406 53.0469 163.2969 52.6875 162.8906 52.6875 ZM164.4688 46.5781 C164.7188 46.8906 164.875 47.2656 164.8906 47.6562 C164.8906 48.1875 164.625 48.5 164.0312 48.7656 L163.4062 49.0156 C162.6406 49.3125 162.3906 49.5469 162.3906 49.9375 C162.3906 50.1094 162.4531 50.3438 162.5781 50.8125 L162.7344 51.3438 L163.1094 51.3438 L163.0938 50.5312 C163.0938 50.0938 163.2031 49.9688 163.7812 49.7344 L164.2031 49.5625 C165.0312 49.2188 165.4531 48.6875 165.4531 47.8438 C165.4531 46.1562 163.6562 45.1875 162.5 45.0312 C162.1094 45.125 161.9062 45.2969 161.9062 45.6406 C161.9062 45.9375 162.0625 46.1562 162.7188 46.2656 L164.4688 46.5781 Z"
      /><rect x="227" y="44" width="5" style="fill:white; stroke:none;" height="10"
      /><path style="stroke:none;" d="M228.8906 52.6875 C228.4844 52.6875 228.1562 53.0469 228.1562 53.4219 C228.1562 53.8125 228.4844 54.1562 228.8906 54.1562 C229.2969 54.1562 229.6406 53.8125 229.6406 53.4219 C229.6406 53.0469 229.2969 52.6875 228.8906 52.6875 ZM230.4688 46.5781 C230.7188 46.8906 230.875 47.2656 230.8906 47.6562 C230.8906 48.1875 230.625 48.5 230.0312 48.7656 L229.4062 49.0156 C228.6406 49.3125 228.3906 49.5469 228.3906 49.9375 C228.3906 50.1094 228.4531 50.3438 228.5781 50.8125 L228.7344 51.3438 L229.1094 51.3438 L229.0938 50.5312 C229.0938 50.0938 229.2031 49.9688 229.7812 49.7344 L230.2031 49.5625 C231.0312 49.2188 231.4531 48.6875 231.4531 47.8438 C231.4531 46.1562 229.6562 45.1875 228.5 45.0312 C228.1094 45.125 227.9062 45.2969 227.9062 45.6406 C227.9062 45.9375 228.0625 46.1562 228.7188 46.2656 L230.4688 46.5781 Z"
      /><rect x="213" y="44" width="5" style="fill:white; stroke:none;" height="10"
      /><path style="stroke:none;" d="M214.8906 52.6875 C214.4844 52.6875 214.1562 53.0469 214.1562 53.4219 C214.1562 53.8125 214.4844 54.1562 214.8906 54.1562 C215.2969 54.1562 215.6406 53.8125 215.6406 53.4219 C215.6406 53.0469 215.2969 52.6875 214.8906 52.6875 ZM216.4688 46.5781 C216.7188 46.8906 216.875 47.2656 216.8906 47.6562 C216.8906 48.1875 216.625 48.5 216.0312 48.7656 L215.4062 49.0156 C214.6406 49.3125 214.3906 49.5469 214.3906 49.9375 C214.3906 50.1094 214.4531 50.3438 214.5781 50.8125 L214.7344 51.3438 L215.1094 51.3438 L215.0938 50.5312 C215.0938 50.0938 215.2031 49.9688 215.7812 49.7344 L216.2031 49.5625 C217.0312 49.2188 217.4531 48.6875 217.4531 47.8438 C217.4531 46.1562 215.6562 45.1875 214.5 45.0312 C214.1094 45.125 213.9062 45.2969 213.9062 45.6406 C213.9062 45.9375 214.0625 46.1562 214.7188 46.2656 L216.4688 46.5781 Z"
      /><rect x="287" y="110" width="5" style="fill:white; stroke:none;" height="10"
      /><path style="stroke:none;" d="M288.8906 118.6875 C288.4844 118.6875 288.1562 119.0469 288.1562 119.4219 C288.1562 119.8125 288.4844 120.1562 288.8906 120.1562 C289.2969 120.1562 289.6406 119.8125 289.6406 119.4219 C289.6406 119.0469 289.2969 118.6875 288.8906 118.6875 ZM290.4688 112.5781 C290.7188 112.8906 290.875 113.2656 290.8906 113.6562 C290.8906 114.1875 290.625 114.5 290.0312 114.7656 L289.4062 115.0156 C288.6406 115.3125 288.3906 115.5469 288.3906 115.9375 C288.3906 116.1094 288.4531 116.3438 288.5781 116.8125 L288.7344 117.3438 L289.1094 117.3438 L289.0938 116.5312 C289.0938 116.0938 289.2031 115.9688 289.7812 115.7344 L290.2031 115.5625 C291.0312 115.2188 291.4531 114.6875 291.4531 113.8438 C291.4531 112.1562 289.6562 111.1875 288.5 111.0312 C288.1094 111.125 287.9062 111.2969 287.9062 111.6406 C287.9062 111.9375 288.0625 112.1562 288.7188 112.2656 L290.4688 112.5781 Z"
      /><rect x="268" y="129" width="5" style="fill:white; stroke:none;" height="10"
      /><path style="stroke:none;" d="M269.8906 137.6875 C269.4844 137.6875 269.1562 138.0469 269.1562 138.4219 C269.1562 138.8125 269.4844 139.1562 269.8906 139.1562 C270.2969 139.1562 270.6406 138.8125 270.6406 138.4219 C270.6406 138.0469 270.2969 137.6875 269.8906 137.6875 ZM271.4688 131.5781 C271.7188 131.8906 271.875 132.2656 271.8906 132.6562 C271.8906 133.1875 271.625 133.5 271.0312 133.7656 L270.4062 134.0156 C269.6406 134.3125 269.3906 134.5469 269.3906 134.9375 C269.3906 135.1094 269.4531 135.3438 269.5781 135.8125 L269.7344 136.3438 L270.1094 136.3438 L270.0938 135.5312 C270.0938 135.0938 270.2031 134.9688 270.7812 134.7344 L271.2031 134.5625 C272.0312 134.2188 272.4531 133.6875 272.4531 132.8438 C272.4531 131.1562 270.6562 130.1875 269.5 130.0312 C269.1094 130.125 268.9062 130.2969 268.9062 130.6406 C268.9062 130.9375 269.0625 131.1562 269.7188 131.2656 L271.4688 131.5781 Z"
      /><rect x="276" y="77" width="5" style="fill:white; stroke:none;" height="10"
      /><path style="stroke:none;" d="M277.8906 85.6875 C277.4844 85.6875 277.1562 86.0469 277.1562 86.4219 C277.1562 86.8125 277.4844 87.1562 277.8906 87.1562 C278.2969 87.1562 278.6406 86.8125 278.6406 86.4219 C278.6406 86.0469 278.2969 85.6875 277.8906 85.6875 ZM279.4688 79.5781 C279.7188 79.8906 279.875 80.2656 279.8906 80.6562 C279.8906 81.1875 279.625 81.5 279.0312 81.7656 L278.4062 82.0156 C277.6406 82.3125 277.3906 82.5469 277.3906 82.9375 C277.3906 83.1094 277.4531 83.3438 277.5781 83.8125 L277.7344 84.3438 L278.1094 84.3438 L278.0938 83.5312 C278.0938 83.0938 278.2031 82.9688 278.7812 82.7344 L279.2031 82.5625 C280.0312 82.2188 280.4531 81.6875 280.4531 80.8438 C280.4531 79.1562 278.6562 78.1875 277.5 78.0312 C277.1094 78.125 276.9062 78.2969 276.9062 78.6406 C276.9062 78.9375 277.0625 79.1562 277.7188 79.2656 L279.4688 79.5781 Z"
      /><rect x="257" y="58" width="5" style="fill:white; stroke:none;" height="10"
      /><path style="stroke:none;" d="M258.8906 66.6875 C258.4844 66.6875 258.1562 67.0469 258.1562 67.4219 C258.1562 67.8125 258.4844 68.1562 258.8906 68.1562 C259.2969 68.1562 259.6406 67.8125 259.6406 67.4219 C259.6406 67.0469 259.2969 66.6875 258.8906 66.6875 ZM260.4688 60.5781 C260.7188 60.8906 260.875 61.2656 260.8906 61.6562 C260.8906 62.1875 260.625 62.5 260.0312 62.7656 L259.4062 63.0156 C258.6406 63.3125 258.3906 63.5469 258.3906 63.9375 C258.3906 64.1094 258.4531 64.3438 258.5781 64.8125 L258.7344 65.3438 L259.1094 65.3438 L259.0938 64.5312 C259.0938 64.0938 259.2031 63.9688 259.7812 63.7344 L260.2031 63.5625 C261.0312 63.2188 261.4531 62.6875 261.4531 61.8438 C261.4531 60.1562 259.6562 59.1875 258.5 59.0312 C258.1094 59.125 257.9062 59.2969 257.9062 59.6406 C257.9062 59.9375 258.0625 60.1562 258.7188 60.2656 L260.4688 60.5781 Z"
      /><rect x="347" y="200" width="5" style="fill:white; stroke:none;" height="10"
      /><path style="stroke:none;" d="M348.8906 208.6875 C348.4844 208.6875 348.1562 209.0469 348.1562 209.4219 C348.1562 209.8125 348.4844 210.1562 348.8906 210.1562 C349.2969 210.1562 349.6406 209.8125 349.6406 209.4219 C349.6406 209.0469 349.2969 208.6875 348.8906 208.6875 ZM350.4688 202.5781 C350.7188 202.8906 350.875 203.2656 350.8906 203.6562 C350.8906 204.1875 350.625 204.5 350.0312 204.7656 L349.4062 205.0156 C348.6406 205.3125 348.3906 205.5469 348.3906 205.9375 C348.3906 206.1094 348.4531 206.3438 348.5781 206.8125 L348.7344 207.3438 L349.1094 207.3438 L349.0938 206.5312 C349.0938 206.0938 349.2031 205.9688 349.7812 205.7344 L350.2031 205.5625 C351.0312 205.2188 351.4531 204.6875 351.4531 203.8438 C351.4531 202.1562 349.6562 201.1875 348.5 201.0312 C348.1094 201.125 347.9062 201.2969 347.9062 201.6406 C347.9062 201.9375 348.0625 202.1562 348.7188 202.2656 L350.4688 202.5781 Z"
      /><rect x="315" y="256" width="5" style="fill:white; stroke:none;" height="10"
      /><path style="stroke:none;" d="M316.8906 264.6875 C316.4844 264.6875 316.1562 265.0469 316.1562 265.4219 C316.1562 265.8125 316.4844 266.1562 316.8906 266.1562 C317.2969 266.1562 317.6406 265.8125 317.6406 265.4219 C317.6406 265.0469 317.2969 264.6875 316.8906 264.6875 ZM318.4688 258.5781 C318.7188 258.8906 318.875 259.2656 318.8906 259.6562 C318.8906 260.1875 318.625 260.5 318.0312 260.7656 L317.4062 261.0156 C316.6406 261.3125 316.3906 261.5469 316.3906 261.9375 C316.3906 262.1094 316.4531 262.3438 316.5781 262.8125 L316.7344 263.3438 L317.1094 263.3438 L317.0938 262.5312 C317.0938 262.0938 317.2031 261.9688 317.7812 261.7344 L318.2031 261.5625 C319.0312 261.2188 319.4531 260.6875 319.4531 259.8438 C319.4531 258.1562 317.6562 257.1875 316.5 257.0312 C316.1094 257.125 315.9062 257.2969 315.9062 257.6406 C315.9062 257.9375 316.0625 258.1562 316.7188 258.2656 L318.4688 258.5781 Z"
      /><rect x="333" y="165" width="5" style="fill:white; stroke:none;" height="10"
      /><path style="stroke:none;" d="M334.8906 173.6875 C334.4844 173.6875 334.1562 174.0469 334.1562 174.4219 C334.1562 174.8125 334.4844 175.1562 334.8906 175.1562 C335.2969 175.1562 335.6406 174.8125 335.6406 174.4219 C335.6406 174.0469 335.2969 173.6875 334.8906 173.6875 ZM336.4688 167.5781 C336.7188 167.8906 336.875 168.2656 336.8906 168.6562 C336.8906 169.1875 336.625 169.5 336.0312 169.7656 L335.4062 170.0156 C334.6406 170.3125 334.3906 170.5469 334.3906 170.9375 C334.3906 171.1094 334.4531 171.3438 334.5781 171.8125 L334.7344 172.3438 L335.1094 172.3438 L335.0938 171.5312 C335.0938 171.0938 335.2031 170.9688 335.7812 170.7344 L336.2031 170.5625 C337.0312 170.2188 337.4531 169.6875 337.4531 168.8438 C337.4531 167.1562 335.6562 166.1875 334.5 166.0312 C334.1094 166.125 333.9062 166.2969 333.9062 166.6406 C333.9062 166.9375 334.0625 167.1562 334.7188 167.2656 L336.4688 167.5781 Z"
      /><rect x="301" y="109" width="5" style="fill:white; stroke:none;" height="10"
      /><path style="stroke:none;" d="M302.8906 117.6875 C302.4844 117.6875 302.1562 118.0469 302.1562 118.4219 C302.1562 118.8125 302.4844 119.1562 302.8906 119.1562 C303.2969 119.1562 303.6406 118.8125 303.6406 118.4219 C303.6406 118.0469 303.2969 117.6875 302.8906 117.6875 ZM304.4688 111.5781 C304.7188 111.8906 304.875 112.2656 304.8906 112.6562 C304.8906 113.1875 304.625 113.5 304.0312 113.7656 L303.4062 114.0156 C302.6406 114.3125 302.3906 114.5469 302.3906 114.9375 C302.3906 115.1094 302.4531 115.3438 302.5781 115.8125 L302.7344 116.3438 L303.1094 116.3438 L303.0938 115.5312 C303.0938 115.0938 303.2031 114.9688 303.7812 114.7344 L304.2031 114.5625 C305.0312 114.2188 305.4531 113.6875 305.4531 112.8438 C305.4531 111.1562 303.6562 110.1875 302.5 110.0312 C302.1094 110.125 301.9062 110.2969 301.9062 110.6406 C301.9062 110.9375 302.0625 111.1562 302.7188 111.2656 L304.4688 111.5781 Z"
      /><rect x="383" y="187" width="5" style="fill:white; stroke:none;" height="10"
      /><path style="stroke:none;" d="M384.8906 195.6875 C384.4844 195.6875 384.1562 196.0469 384.1562 196.4219 C384.1562 196.8125 384.4844 197.1562 384.8906 197.1562 C385.2969 197.1562 385.6406 196.8125 385.6406 196.4219 C385.6406 196.0469 385.2969 195.6875 384.8906 195.6875 ZM386.4688 189.5781 C386.7188 189.8906 386.875 190.2656 386.8906 190.6562 C386.8906 191.1875 386.625 191.5 386.0312 191.7656 L385.4062 192.0156 C384.6406 192.3125 384.3906 192.5469 384.3906 192.9375 C384.3906 193.1094 384.4531 193.3438 384.5781 193.8125 L384.7344 194.3438 L385.1094 194.3438 L385.0938 193.5312 C385.0938 193.0938 385.2031 192.9688 385.7812 192.7344 L386.2031 192.5625 C387.0312 192.2188 387.4531 191.6875 387.4531 190.8438 C387.4531 189.1562 385.6562 188.1875 384.5 188.0312 C384.1094 188.125 383.9062 188.2969 383.9062 188.6406 C383.9062 188.9375 384.0625 189.1562 384.7188 189.2656 L386.4688 189.5781 Z"
      /><rect x="369" y="187" width="5" style="fill:white; stroke:none;" height="10"
      /><path style="stroke:none;" d="M370.8906 195.6875 C370.4844 195.6875 370.1562 196.0469 370.1562 196.4219 C370.1562 196.8125 370.4844 197.1562 370.8906 197.1562 C371.2969 197.1562 371.6406 196.8125 371.6406 196.4219 C371.6406 196.0469 371.2969 195.6875 370.8906 195.6875 ZM372.4688 189.5781 C372.7188 189.8906 372.875 190.2656 372.8906 190.6562 C372.8906 191.1875 372.625 191.5 372.0312 191.7656 L371.4062 192.0156 C370.6406 192.3125 370.3906 192.5469 370.3906 192.9375 C370.3906 193.1094 370.4531 193.3438 370.5781 193.8125 L370.7344 194.3438 L371.1094 194.3438 L371.0938 193.5312 C371.0938 193.0938 371.2031 192.9688 371.7812 192.7344 L372.2031 192.5625 C373.0312 192.2188 373.4531 191.6875 373.4531 190.8438 C373.4531 189.1562 371.6562 188.1875 370.5 188.0312 C370.1094 188.125 369.9062 188.2969 369.9062 188.6406 C369.9062 188.9375 370.0625 189.1562 370.7188 189.2656 L372.4688 189.5781 Z"
      /><rect x="435" y="187" width="5" style="fill:white; stroke:none;" height="10"
      /><path style="stroke:none;" d="M436.8906 195.6875 C436.4844 195.6875 436.1562 196.0469 436.1562 196.4219 C436.1562 196.8125 436.4844 197.1562 436.8906 197.1562 C437.2969 197.1562 437.6406 196.8125 437.6406 196.4219 C437.6406 196.0469 437.2969 195.6875 436.8906 195.6875 ZM438.4688 189.5781 C438.7188 189.8906 438.875 190.2656 438.8906 190.6562 C438.8906 191.1875 438.625 191.5 438.0312 191.7656 L437.4062 192.0156 C436.6406 192.3125 436.3906 192.5469 436.3906 192.9375 C436.3906 193.1094 436.4531 193.3438 436.5781 193.8125 L436.7344 194.3438 L437.1094 194.3438 L437.0938 193.5312 C437.0938 193.0938 437.2031 192.9688 437.7812 192.7344 L438.2031 192.5625 C439.0312 192.2188 439.4531 191.6875 439.4531 190.8438 C439.4531 189.1562 437.6562 188.1875 436.5 188.0312 C436.1094 188.125 435.9062 188.2969 435.9062 188.6406 C435.9062 188.9375 436.0625 189.1562 436.7188 189.2656 L438.4688 189.5781 Z"
      /><rect x="421" y="187" width="5" style="fill:white; stroke:none;" height="10"
      /><path style="stroke:none;" d="M422.8906 195.6875 C422.4844 195.6875 422.1562 196.0469 422.1562 196.4219 C422.1562 196.8125 422.4844 197.1562 422.8906 197.1562 C423.2969 197.1562 423.6406 196.8125 423.6406 196.4219 C423.6406 196.0469 423.2969 195.6875 422.8906 195.6875 ZM424.4688 189.5781 C424.7188 189.8906 424.875 190.2656 424.8906 190.6562 C424.8906 191.1875 424.625 191.5 424.0312 191.7656 L423.4062 192.0156 C422.6406 192.3125 422.3906 192.5469 422.3906 192.9375 C422.3906 193.1094 422.4531 193.3438 422.5781 193.8125 L422.7344 194.3438 L423.1094 194.3438 L423.0938 193.5312 C423.0938 193.0938 423.2031 192.9688 423.7812 192.7344 L424.2031 192.5625 C425.0312 192.2188 425.4531 191.6875 425.4531 190.8438 C425.4531 189.1562 423.6562 188.1875 422.5 188.0312 C422.1094 188.125 421.9062 188.2969 421.9062 188.6406 C421.9062 188.9375 422.0625 189.1562 422.7188 189.2656 L424.4688 189.5781 Z"
      /><rect x="473" y="187" width="5" style="fill:white; stroke:none;" height="10"
      /><path style="stroke:none;" d="M474.8906 195.6875 C474.4844 195.6875 474.1562 196.0469 474.1562 196.4219 C474.1562 196.8125 474.4844 197.1562 474.8906 197.1562 C475.2969 197.1562 475.6406 196.8125 475.6406 196.4219 C475.6406 196.0469 475.2969 195.6875 474.8906 195.6875 ZM476.4688 189.5781 C476.7188 189.8906 476.875 190.2656 476.8906 190.6562 C476.8906 191.1875 476.625 191.5 476.0312 191.7656 L475.4062 192.0156 C474.6406 192.3125 474.3906 192.5469 474.3906 192.9375 C474.3906 193.1094 474.4531 193.3438 474.5781 193.8125 L474.7344 194.3438 L475.1094 194.3438 L475.0938 193.5312 C475.0938 193.0938 475.2031 192.9688 475.7812 192.7344 L476.2031 192.5625 C477.0312 192.2188 477.4531 191.6875 477.4531 190.8438 C477.4531 189.1562 475.6562 188.1875 474.5 188.0312 C474.1094 188.125 473.9062 188.2969 473.9062 188.6406 C473.9062 188.9375 474.0625 189.1562 474.7188 189.2656 L476.4688 189.5781 Z"
    /></g
  ></g
></svg
>
