<?xml version="1.0"?>
<!DOCTYPE svg PUBLIC '-//W3C//DTD SVG 1.0//EN'
          'http://www.w3.org/TR/2001/REC-SVG-20010904/DTD/svg10.dtd'>
<svg xmlns:xlink="http://www.w3.org/1999/xlink" style="fill-opacity:1; color-rendering:auto; color-interpolation:auto; text-rendering:auto; stroke:black; stroke-linecap:square; stroke-miterlimit:10; shape-rendering:auto; stroke-opacity:1; fill:black; stroke-dasharray:none; font-weight:normal; stroke-width:1; font-family:'Dialog'; font-style:normal; stroke-linejoin:miter; font-size:12px; stroke-dashoffset:0; image-rendering:auto;" viewBox="0 0 394 186" xmlns="http://www.w3.org/2000/svg"
><!--Generated by the Batik Graphics2D SVG Generator--><defs id="genericDefs"
  /><g
  ><defs id="defs1"
    ><clipPath clipPathUnits="userSpaceOnUse" id="clipPath1"
      ><path style="fill-rule:evenodd;" d="M312 80 L306 87 L295 87 L290 80 L295 72 L306 72 L312 80 Z"
      /></clipPath
      ><clipPath clipPathUnits="userSpaceOnUse" id="clipPath2"
      ><path style="fill-rule:evenodd;" d="M260 106 L254 113 L243 113 L238 106 L243 98 L254 98 L260 106 Z"
      /></clipPath
      ><clipPath clipPathUnits="userSpaceOnUse" id="clipPath3"
      ><path d="M208 145 C208 151.0751 203.0751 156 197 156 C190.9249 156 186 151.0751 186 145 C186 138.9249 190.9249 134 197 134 C203.0751 134 208 138.9249 208 145 Z"
      /></clipPath
      ><clipPath clipPathUnits="userSpaceOnUse" id="clipPath4"
      ><path d="M156 145 C156 151.0751 151.0751 156 145 156 C138.9249 156 134 151.0751 134 145 C134 138.9249 138.9249 134 145 134 C151.0751 134 156 138.9249 156 145 Z"
      /></clipPath
      ><clipPath clipPathUnits="userSpaceOnUse" id="clipPath5"
      ><path d="M104 145 C104 151.0751 99.0751 156 93 156 C86.9249 156 82 151.0751 82 145 C82 138.9249 86.9249 134 93 134 C99.0751 134 104 138.9249 104 145 Z"
      /></clipPath
      ><clipPath clipPathUnits="userSpaceOnUse" id="clipPath6"
      ><path style="fill-rule:evenodd;" d="M41 134 L52 145 L41 156 L30 145 Z"
      /></clipPath
      ><clipPath clipPathUnits="userSpaceOnUse" id="clipPath7"
      ><path style="fill-rule:evenodd;" d="M208 67 L202 74 L191 74 L186 67 L191 59 L202 59 L208 67 Z"
      /></clipPath
      ><clipPath clipPathUnits="userSpaceOnUse" id="clipPath8"
      ><path d="M134 82 L156 82 L156 104 L134 104 L134 82 Z"
      /></clipPath
      ><clipPath clipPathUnits="userSpaceOnUse" id="clipPath9"
      ><path d="M156 41 C156 47.0751 151.0751 52 145 52 C138.9249 52 134 47.0751 134 41 C134 34.9249 138.9249 30 145 30 C151.0751 30 156 34.9249 156 41 Z"
      /></clipPath
      ><clipPath clipPathUnits="userSpaceOnUse" id="clipPath10"
      ><path style="fill-rule:evenodd;" d="M260 54 L254 61 L243 61 L238 54 L243 46 L254 46 L260 54 Z"
      /></clipPath
    ></defs
    ><g style="fill:white; text-rendering:optimizeSpeed; stroke:white;"
    ><rect x="0" width="394" height="186" y="0" style="stroke:none;"
      /><polygon style="fill:none; stroke:black;" points=" 353 80 301 80"
      /><path d="M353 69 C347.5 74.5 358.5 85.5 353 91" style="fill:none; stroke:black;"
      /><polygon style="fill:none; stroke:black;" points=" 301 80 249 106"
      /><polygon style="fill:none; stroke:black;" points=" 301 80 249 54"
      /><polygon style="clip-path:url(#clipPath1); stroke:none;" points=" 312 80 306 87 295 87 290 80 295 72 306 72 312 80"
      /><rect x="290" y="69" width="22" style="clip-path:url(#clipPath1); fill:rgb(255,212,0); stroke:none;" height="22"
      /><rect x="290" y="69" width="22" style="clip-path:url(#clipPath1); fill:none; stroke:black;" height="22"
      /><polygon style="fill:none; stroke:black;" points=" 312 80 306 87 295 87 290 80 295 72 306 72 312 80"
      /><polygon style="fill:none; stroke:black;" points=" 249 106 197 145"
      /><polygon style="fill:none; stroke:black;" points=" 249 106 197 67"
      /><polygon style="clip-path:url(#clipPath2); stroke:none;" points=" 260 106 254 113 243 113 238 106 243 98 254 98 260 106"
      /><rect x="238" y="95" width="22" style="clip-path:url(#clipPath2); fill:rgb(0,166,81); stroke:none;" height="22"
      /><rect x="238" y="95" width="22" style="clip-path:url(#clipPath2); fill:none; stroke:black;" height="22"
      /><polygon style="fill:none; stroke:black;" points=" 260 106 254 113 243 113 238 106 243 98 254 98 260 106"
      /><polygon style="fill:none; stroke:black;" points=" 197 145 145 145"
      /><circle style="clip-path:url(#clipPath3); stroke:none;" r="11" cx="197" cy="145"
      /><rect x="186" y="134" width="22" style="clip-path:url(#clipPath3); fill:rgb(0,144,188); stroke:none;" height="22"
      /><rect x="186" y="134" width="22" style="clip-path:url(#clipPath3); fill:none; stroke:black;" height="22"
      /><circle style="fill:none; stroke:black;" r="11" cx="197" cy="145"
      /><polygon style="fill:none; stroke:black;" points=" 145 145 93 145"
      /><circle style="clip-path:url(#clipPath4); stroke:none;" r="11" cx="145" cy="145"
      /><rect x="134" y="134" width="22" style="clip-path:url(#clipPath4); fill:rgb(255,212,0); stroke:none;" height="22"
      /><rect x="134" y="134" width="22" style="clip-path:url(#clipPath4); fill:none; stroke:black;" height="22"
      /><circle style="fill:none; stroke:black;" r="11" cx="145" cy="145"
      /><polygon style="fill:none; stroke:black;" points=" 93 145 41 145"
      /><circle style="clip-path:url(#clipPath5); stroke:none;" r="11" cx="93" cy="145"
      /><rect x="82" y="134" width="22" style="clip-path:url(#clipPath5); fill:rgb(255,212,0); stroke:none;" height="22"
      /><rect x="82" y="134" width="22" style="clip-path:url(#clipPath5); fill:none; stroke:black;" height="22"
      /><circle style="fill:none; stroke:black;" r="11" cx="93" cy="145"
      /><polygon style="clip-path:url(#clipPath6); stroke:none;" points=" 41 134 52 145 41 156 30 145"
      /><rect x="30" y="134" width="22" style="clip-path:url(#clipPath6); fill:rgb(165,67,153); stroke:none;" height="22"
      /><rect x="30" y="134" width="22" style="clip-path:url(#clipPath6); fill:none; stroke:black;" height="22"
      /><polygon style="fill:none; stroke:black;" points=" 41 134 52 145 41 156 30 145"
      /><rect x="71" y="148" width="5" style="stroke:none;" height="10"
    /></g
    ><g style="font-family:'Serif'; text-rendering:optimizeSpeed; "
    ><path style="stroke:none;" d="M72.8906 156.6875 C72.4844 156.6875 72.1562 157.0469 72.1562 157.4219 C72.1562 157.8125 72.4844 158.1562 72.8906 158.1562 C73.2969 158.1562 73.6406 157.8125 73.6406 157.4219 C73.6406 157.0469 73.2969 156.6875 72.8906 156.6875 ZM74.4688 150.5781 C74.7188 150.8906 74.875 151.2656 74.8906 151.6562 C74.8906 152.1875 74.625 152.5 74.0312 152.7656 L73.4062 153.0156 C72.6406 153.3125 72.3906 153.5469 72.3906 153.9375 C72.3906 154.1094 72.4531 154.3438 72.5781 154.8125 L72.7344 155.3438 L73.1094 155.3438 L73.0938 154.5312 C73.0938 154.0938 73.2031 153.9688 73.7812 153.7344 L74.2031 153.5625 C75.0312 153.2188 75.4531 152.6875 75.4531 151.8438 C75.4531 150.1562 73.6562 149.1875 72.5 149.0312 C72.1094 149.125 71.9062 149.2969 71.9062 149.6406 C71.9062 149.9375 72.0625 150.1562 72.7188 150.2656 L74.4688 150.5781 Z"
      /><rect x="57" y="148" width="5" style="fill:white; stroke:none;" height="10"
      /><path style="stroke:none;" d="M58.8906 156.6875 C58.4844 156.6875 58.1562 157.0469 58.1562 157.4219 C58.1562 157.8125 58.4844 158.1562 58.8906 158.1562 C59.2969 158.1562 59.6406 157.8125 59.6406 157.4219 C59.6406 157.0469 59.2969 156.6875 58.8906 156.6875 ZM60.4688 150.5781 C60.7188 150.8906 60.875 151.2656 60.8906 151.6562 C60.8906 152.1875 60.625 152.5 60.0312 152.7656 L59.4062 153.0156 C58.6406 153.3125 58.3906 153.5469 58.3906 153.9375 C58.3906 154.1094 58.4531 154.3438 58.5781 154.8125 L58.7344 155.3438 L59.1094 155.3438 L59.0938 154.5312 C59.0938 154.0938 59.2031 153.9688 59.7812 153.7344 L60.2031 153.5625 C61.0312 153.2188 61.4531 152.6875 61.4531 151.8438 C61.4531 150.1562 59.6562 149.1875 58.5 149.0312 C58.1094 149.125 57.9062 149.2969 57.9062 149.6406 C57.9062 149.9375 58.0625 150.1562 58.7188 150.2656 L60.4688 150.5781 Z"
      /><rect x="123" y="148" width="5" style="fill:white; stroke:none;" height="10"
      /><path style="stroke:none;" d="M124.8906 156.6875 C124.4844 156.6875 124.1562 157.0469 124.1562 157.4219 C124.1562 157.8125 124.4844 158.1562 124.8906 158.1562 C125.2969 158.1562 125.6406 157.8125 125.6406 157.4219 C125.6406 157.0469 125.2969 156.6875 124.8906 156.6875 ZM126.4688 150.5781 C126.7188 150.8906 126.875 151.2656 126.8906 151.6562 C126.8906 152.1875 126.625 152.5 126.0312 152.7656 L125.4062 153.0156 C124.6406 153.3125 124.3906 153.5469 124.3906 153.9375 C124.3906 154.1094 124.4531 154.3438 124.5781 154.8125 L124.7344 155.3438 L125.1094 155.3438 L125.0938 154.5312 C125.0938 154.0938 125.2031 153.9688 125.7812 153.7344 L126.2031 153.5625 C127.0312 153.2188 127.4531 152.6875 127.4531 151.8438 C127.4531 150.1562 125.6562 149.1875 124.5 149.0312 C124.1094 149.125 123.9062 149.2969 123.9062 149.6406 C123.9062 149.9375 124.0625 150.1562 124.7188 150.2656 L126.4688 150.5781 Z"
      /><rect x="109" y="148" width="5" style="fill:white; stroke:none;" height="10"
      /><path style="stroke:none;" d="M110.8906 156.6875 C110.4844 156.6875 110.1562 157.0469 110.1562 157.4219 C110.1562 157.8125 110.4844 158.1562 110.8906 158.1562 C111.2969 158.1562 111.6406 157.8125 111.6406 157.4219 C111.6406 157.0469 111.2969 156.6875 110.8906 156.6875 ZM112.4688 150.5781 C112.7188 150.8906 112.875 151.2656 112.8906 151.6562 C112.8906 152.1875 112.625 152.5 112.0312 152.7656 L111.4062 153.0156 C110.6406 153.3125 110.3906 153.5469 110.3906 153.9375 C110.3906 154.1094 110.4531 154.3438 110.5781 154.8125 L110.7344 155.3438 L111.1094 155.3438 L111.0938 154.5312 C111.0938 154.0938 111.2031 153.9688 111.7812 153.7344 L112.2031 153.5625 C113.0312 153.2188 113.4531 152.6875 113.4531 151.8438 C113.4531 150.1562 111.6562 149.1875 110.5 149.0312 C110.1094 149.125 109.9062 149.2969 109.9062 149.6406 C109.9062 149.9375 110.0625 150.1562 110.7188 150.2656 L112.4688 150.5781 Z"
      /><rect x="175" y="148" width="5" style="fill:white; stroke:none;" height="10"
      /><path style="stroke:none;" d="M176.8906 156.6875 C176.4844 156.6875 176.1562 157.0469 176.1562 157.4219 C176.1562 157.8125 176.4844 158.1562 176.8906 158.1562 C177.2969 158.1562 177.6406 157.8125 177.6406 157.4219 C177.6406 157.0469 177.2969 156.6875 176.8906 156.6875 ZM178.4688 150.5781 C178.7188 150.8906 178.875 151.2656 178.8906 151.6562 C178.8906 152.1875 178.625 152.5 178.0312 152.7656 L177.4062 153.0156 C176.6406 153.3125 176.3906 153.5469 176.3906 153.9375 C176.3906 154.1094 176.4531 154.3438 176.5781 154.8125 L176.7344 155.3438 L177.1094 155.3438 L177.0938 154.5312 C177.0938 154.0938 177.2031 153.9688 177.7812 153.7344 L178.2031 153.5625 C179.0312 153.2188 179.4531 152.6875 179.4531 151.8438 C179.4531 150.1562 177.6562 149.1875 176.5 149.0312 C176.1094 149.125 175.9062 149.2969 175.9062 149.6406 C175.9062 149.9375 176.0625 150.1562 176.7188 150.2656 L178.4688 150.5781 Z"
      /><rect x="161" y="148" width="5" style="fill:white; stroke:none;" height="10"
      /><path style="stroke:none;" d="M162.8906 156.6875 C162.4844 156.6875 162.1562 157.0469 162.1562 157.4219 C162.1562 157.8125 162.4844 158.1562 162.8906 158.1562 C163.2969 158.1562 163.6406 157.8125 163.6406 157.4219 C163.6406 157.0469 163.2969 156.6875 162.8906 156.6875 ZM164.4688 150.5781 C164.7188 150.8906 164.875 151.2656 164.8906 151.6562 C164.8906 152.1875 164.625 152.5 164.0312 152.7656 L163.4062 153.0156 C162.6406 153.3125 162.3906 153.5469 162.3906 153.9375 C162.3906 154.1094 162.4531 154.3438 162.5781 154.8125 L162.7344 155.3438 L163.1094 155.3438 L163.0938 154.5312 C163.0938 154.0938 163.2031 153.9688 163.7812 153.7344 L164.2031 153.5625 C165.0312 153.2188 165.4531 152.6875 165.4531 151.8438 C165.4531 150.1562 163.6562 149.1875 162.5 149.0312 C162.1094 149.125 161.9062 149.2969 161.9062 149.6406 C161.9062 149.9375 162.0625 150.1562 162.7188 150.2656 L164.4688 150.5781 Z"
      /><polygon style="fill:none;" points=" 197 67 145 93"
      /><polygon style="fill:none;" points=" 197 67 145 41"
      /><polygon style="fill:white; clip-path:url(#clipPath7); stroke:none;" points=" 208 67 202 74 191 74 186 67 191 59 202 59 208 67"
      /><rect x="186" y="56" width="22" style="clip-path:url(#clipPath7); fill:rgb(0,166,81); stroke:none;" height="22"
      /><rect x="186" y="56" width="22" style="fill:none; clip-path:url(#clipPath7);" height="22"
      /><polygon style="fill:none;" points=" 208 67 202 74 191 74 186 67 191 59 202 59 208 67"
      /><rect x="134" y="82" width="22" style="clip-path:url(#clipPath8); fill:white; stroke:none;" height="22"
      /><rect x="134" y="82" width="22" style="clip-path:url(#clipPath8); fill:rgb(0,144,188); stroke:none;" height="22"
      /><rect x="134" y="82" width="22" style="fill:none; clip-path:url(#clipPath8);" height="22"
      /><rect x="134" width="22" height="22" y="82" style="fill:none;"
      /><circle style="fill:white; clip-path:url(#clipPath9); stroke:none;" r="11" cx="145" cy="41"
      /><rect x="134" y="30" width="22" style="clip-path:url(#clipPath9); fill:rgb(0,144,188); stroke:none;" height="22"
      /><rect x="134" y="30" width="22" style="fill:none; clip-path:url(#clipPath9);" height="22"
      /><circle r="11" style="fill:none;" cx="145" cy="41"
      /><rect x="179" y="78" width="5" style="fill:white; stroke:none;" height="10"
      /><path style="stroke:none;" d="M180.8906 86.6875 C180.4844 86.6875 180.1562 87.0469 180.1562 87.4219 C180.1562 87.8125 180.4844 88.1562 180.8906 88.1562 C181.2969 88.1562 181.6406 87.8125 181.6406 87.4219 C181.6406 87.0469 181.2969 86.6875 180.8906 86.6875 ZM182.4688 80.5781 C182.7188 80.8906 182.875 81.2656 182.8906 81.6562 C182.8906 82.1875 182.625 82.5 182.0312 82.7656 L181.4062 83.0156 C180.6406 83.3125 180.3906 83.5469 180.3906 83.9375 C180.3906 84.1094 180.4531 84.3438 180.5781 84.8125 L180.7344 85.3438 L181.1094 85.3438 L181.0938 84.5312 C181.0938 84.0938 181.2031 83.9688 181.7812 83.7344 L182.2031 83.5625 C183.0312 83.2188 183.4531 82.6875 183.4531 81.8438 C183.4531 80.1562 181.6562 79.1875 180.5 79.0312 C180.1094 79.125 179.9062 79.2969 179.9062 79.6406 C179.9062 79.9375 180.0625 80.1562 180.7188 80.2656 L182.4688 80.5781 Z"
      /><rect x="164" y="86" width="5" style="fill:white; stroke:none;" height="10"
      /><path style="stroke:none;" d="M165.8906 94.6875 C165.4844 94.6875 165.1562 95.0469 165.1562 95.4219 C165.1562 95.8125 165.4844 96.1562 165.8906 96.1562 C166.2969 96.1562 166.6406 95.8125 166.6406 95.4219 C166.6406 95.0469 166.2969 94.6875 165.8906 94.6875 ZM167.4688 88.5781 C167.7188 88.8906 167.875 89.2656 167.8906 89.6562 C167.8906 90.1875 167.625 90.5 167.0312 90.7656 L166.4062 91.0156 C165.6406 91.3125 165.3906 91.5469 165.3906 91.9375 C165.3906 92.1094 165.4531 92.3438 165.5781 92.8125 L165.7344 93.3438 L166.1094 93.3438 L166.0938 92.5312 C166.0938 92.0938 166.2031 91.9688 166.7812 91.7344 L167.2031 91.5625 C168.0312 91.2188 168.4531 90.6875 168.4531 89.8438 C168.4531 88.1562 166.6562 87.1875 165.5 87.0312 C165.1094 87.125 164.9062 87.2969 164.9062 87.6406 C164.9062 87.9375 165.0625 88.1562 165.7188 88.2656 L167.4688 88.5781 Z"
      /><rect x="172" y="60" width="5" style="fill:white; stroke:none;" height="10"
      /><path style="stroke:none;" d="M173.8906 68.6875 C173.4844 68.6875 173.1562 69.0469 173.1562 69.4219 C173.1562 69.8125 173.4844 70.1562 173.8906 70.1562 C174.2969 70.1562 174.6406 69.8125 174.6406 69.4219 C174.6406 69.0469 174.2969 68.6875 173.8906 68.6875 ZM175.4688 62.5781 C175.7188 62.8906 175.875 63.2656 175.8906 63.6562 C175.8906 64.1875 175.625 64.5 175.0312 64.7656 L174.4062 65.0156 C173.6406 65.3125 173.3906 65.5469 173.3906 65.9375 C173.3906 66.1094 173.4531 66.3438 173.5781 66.8125 L173.7344 67.3438 L174.1094 67.3438 L174.0938 66.5312 C174.0938 66.0938 174.2031 65.9688 174.7812 65.7344 L175.2031 65.5625 C176.0312 65.2188 176.4531 64.6875 176.4531 63.8438 C176.4531 62.1562 174.6562 61.1875 173.5 61.0312 C173.1094 61.125 172.9062 61.2969 172.9062 61.6406 C172.9062 61.9375 173.0625 62.1562 173.7188 62.2656 L175.4688 62.5781 Z"
      /><rect x="157" y="52" width="5" style="fill:white; stroke:none;" height="10"
      /><path style="stroke:none;" d="M158.8906 60.6875 C158.4844 60.6875 158.1562 61.0469 158.1562 61.4219 C158.1562 61.8125 158.4844 62.1562 158.8906 62.1562 C159.2969 62.1562 159.6406 61.8125 159.6406 61.4219 C159.6406 61.0469 159.2969 60.6875 158.8906 60.6875 ZM160.4688 54.5781 C160.7188 54.8906 160.875 55.2656 160.8906 55.6562 C160.8906 56.1875 160.625 56.5 160.0312 56.7656 L159.4062 57.0156 C158.6406 57.3125 158.3906 57.5469 158.3906 57.9375 C158.3906 58.1094 158.4531 58.3438 158.5781 58.8125 L158.7344 59.3438 L159.1094 59.3438 L159.0938 58.5312 C159.0938 58.0938 159.2031 57.9688 159.7812 57.7344 L160.2031 57.5625 C161.0312 57.2188 161.4531 56.6875 161.4531 55.8438 C161.4531 54.1562 159.6562 53.1875 158.5 53.0312 C158.1094 53.125 157.9062 53.2969 157.9062 53.6406 C157.9062 53.9375 158.0625 54.1562 158.7188 54.2656 L160.4688 54.5781 Z"
      /><rect x="233" y="120" width="5" style="fill:white; stroke:none;" height="10"
      /><path style="stroke:none;" d="M234.8906 128.6875 C234.4844 128.6875 234.1562 129.0469 234.1562 129.4219 C234.1562 129.8125 234.4844 130.1562 234.8906 130.1562 C235.2969 130.1562 235.6406 129.8125 235.6406 129.4219 C235.6406 129.0469 235.2969 128.6875 234.8906 128.6875 ZM236.4688 122.5781 C236.7188 122.8906 236.875 123.2656 236.8906 123.6562 C236.8906 124.1875 236.625 124.5 236.0312 124.7656 L235.4062 125.0156 C234.6406 125.3125 234.3906 125.5469 234.3906 125.9375 C234.3906 126.1094 234.4531 126.3438 234.5781 126.8125 L234.7344 127.3438 L235.1094 127.3438 L235.0938 126.5312 C235.0938 126.0938 235.2031 125.9688 235.7812 125.7344 L236.2031 125.5625 C237.0312 125.2188 237.4531 124.6875 237.4531 123.8438 C237.4531 122.1562 235.6562 121.1875 234.5 121.0312 C234.1094 121.125 233.9062 121.2969 233.9062 121.6406 C233.9062 121.9375 234.0625 122.1562 234.7188 122.2656 L236.4688 122.5781 Z"
      /><rect x="216" y="133" width="5" style="fill:white; stroke:none;" height="10"
      /><path style="stroke:none;" d="M217.8906 141.6875 C217.4844 141.6875 217.1562 142.0469 217.1562 142.4219 C217.1562 142.8125 217.4844 143.1562 217.8906 143.1562 C218.2969 143.1562 218.6406 142.8125 218.6406 142.4219 C218.6406 142.0469 218.2969 141.6875 217.8906 141.6875 ZM219.4688 135.5781 C219.7188 135.8906 219.875 136.2656 219.8906 136.6562 C219.8906 137.1875 219.625 137.5 219.0312 137.7656 L218.4062 138.0156 C217.6406 138.3125 217.3906 138.5469 217.3906 138.9375 C217.3906 139.1094 217.4531 139.3438 217.5781 139.8125 L217.7344 140.3438 L218.1094 140.3438 L218.0938 139.5312 C218.0938 139.0938 218.2031 138.9688 218.7812 138.7344 L219.2031 138.5625 C220.0312 138.2188 220.4531 137.6875 220.4531 136.8438 C220.4531 135.1562 218.6562 134.1875 217.5 134.0312 C217.1094 134.125 216.9062 134.2969 216.9062 134.6406 C216.9062 134.9375 217.0625 135.1562 217.7188 135.2656 L219.4688 135.5781 Z"
      /><rect x="224" y="94" width="5" style="fill:white; stroke:none;" height="10"
      /><path style="stroke:none;" d="M225.8906 102.6875 C225.4844 102.6875 225.1562 103.0469 225.1562 103.4219 C225.1562 103.8125 225.4844 104.1562 225.8906 104.1562 C226.2969 104.1562 226.6406 103.8125 226.6406 103.4219 C226.6406 103.0469 226.2969 102.6875 225.8906 102.6875 ZM227.4688 96.5781 C227.7188 96.8906 227.875 97.2656 227.8906 97.6562 C227.8906 98.1875 227.625 98.5 227.0312 98.7656 L226.4062 99.0156 C225.6406 99.3125 225.3906 99.5469 225.3906 99.9375 C225.3906 100.1094 225.4531 100.3438 225.5781 100.8125 L225.7344 101.3438 L226.1094 101.3438 L226.0938 100.5312 C226.0938 100.0938 226.2031 99.9688 226.7812 99.7344 L227.2031 99.5625 C228.0312 99.2188 228.4531 98.6875 228.4531 97.8438 C228.4531 96.1562 226.6562 95.1875 225.5 95.0312 C225.1094 95.125 224.9062 95.2969 224.9062 95.6406 C224.9062 95.9375 225.0625 96.1562 225.7188 96.2656 L227.4688 96.5781 Z"
      /><rect x="207" y="81" width="5" style="fill:white; stroke:none;" height="10"
      /><path style="stroke:none;" d="M208.8906 89.6875 C208.4844 89.6875 208.1562 90.0469 208.1562 90.4219 C208.1562 90.8125 208.4844 91.1562 208.8906 91.1562 C209.2969 91.1562 209.6406 90.8125 209.6406 90.4219 C209.6406 90.0469 209.2969 89.6875 208.8906 89.6875 ZM210.4688 83.5781 C210.7188 83.8906 210.875 84.2656 210.8906 84.6562 C210.8906 85.1875 210.625 85.5 210.0312 85.7656 L209.4062 86.0156 C208.6406 86.3125 208.3906 86.5469 208.3906 86.9375 C208.3906 87.1094 208.4531 87.3438 208.5781 87.8125 L208.7344 88.3438 L209.1094 88.3438 L209.0938 87.5312 C209.0938 87.0938 209.2031 86.9688 209.7812 86.7344 L210.2031 86.5625 C211.0312 86.2188 211.4531 85.6875 211.4531 84.8438 C211.4531 83.1562 209.6562 82.1875 208.5 82.0312 C208.1094 82.125 207.9062 82.2969 207.9062 82.6406 C207.9062 82.9375 208.0625 83.1562 208.7188 83.2656 L210.4688 83.5781 Z"
      /><polygon style="fill:white; clip-path:url(#clipPath10); stroke:none;" points=" 260 54 254 61 243 61 238 54 243 46 254 46 260 54"
      /><rect x="238" y="43" width="22" style="clip-path:url(#clipPath10); fill:rgb(255,212,0); stroke:none;" height="22"
      /><rect x="238" y="43" width="22" style="fill:none; clip-path:url(#clipPath10);" height="22"
      /><polygon style="fill:none;" points=" 260 54 254 61 243 61 238 54 243 46 254 46 260 54"
      /><rect x="283" y="91" width="5" style="fill:white; stroke:none;" height="10"
      /><path style="stroke:none;" d="M284.8906 99.6875 C284.4844 99.6875 284.1562 100.0469 284.1562 100.4219 C284.1562 100.8125 284.4844 101.1562 284.8906 101.1562 C285.2969 101.1562 285.6406 100.8125 285.6406 100.4219 C285.6406 100.0469 285.2969 99.6875 284.8906 99.6875 ZM286.4688 93.5781 C286.7188 93.8906 286.875 94.2656 286.8906 94.6562 C286.8906 95.1875 286.625 95.5 286.0312 95.7656 L285.4062 96.0156 C284.6406 96.3125 284.3906 96.5469 284.3906 96.9375 C284.3906 97.1094 284.4531 97.3438 284.5781 97.8125 L284.7344 98.3438 L285.1094 98.3438 L285.0938 97.5312 C285.0938 97.0938 285.2031 96.9688 285.7812 96.7344 L286.2031 96.5625 C287.0312 96.2188 287.4531 95.6875 287.4531 94.8438 C287.4531 93.1562 285.6562 92.1875 284.5 92.0312 C284.1094 92.125 283.9062 92.2969 283.9062 92.6406 C283.9062 92.9375 284.0625 93.1562 284.7188 93.2656 L286.4688 93.5781 Z"
      /><rect x="268" y="99" width="5" style="fill:white; stroke:none;" height="10"
      /><path style="stroke:none;" d="M269.8906 107.6875 C269.4844 107.6875 269.1562 108.0469 269.1562 108.4219 C269.1562 108.8125 269.4844 109.1562 269.8906 109.1562 C270.2969 109.1562 270.6406 108.8125 270.6406 108.4219 C270.6406 108.0469 270.2969 107.6875 269.8906 107.6875 ZM271.4688 101.5781 C271.7188 101.8906 271.875 102.2656 271.8906 102.6562 C271.8906 103.1875 271.625 103.5 271.0312 103.7656 L270.4062 104.0156 C269.6406 104.3125 269.3906 104.5469 269.3906 104.9375 C269.3906 105.1094 269.4531 105.3438 269.5781 105.8125 L269.7344 106.3438 L270.1094 106.3438 L270.0938 105.5312 C270.0938 105.0938 270.2031 104.9688 270.7812 104.7344 L271.2031 104.5625 C272.0312 104.2188 272.4531 103.6875 272.4531 102.8438 C272.4531 101.1562 270.6562 100.1875 269.5 100.0312 C269.1094 100.125 268.9062 100.2969 268.9062 100.6406 C268.9062 100.9375 269.0625 101.1562 269.7188 101.2656 L271.4688 101.5781 Z"
      /><rect x="276" y="73" width="5" style="fill:white; stroke:none;" height="10"
      /><path style="stroke:none;" d="M277.8906 81.6875 C277.4844 81.6875 277.1562 82.0469 277.1562 82.4219 C277.1562 82.8125 277.4844 83.1562 277.8906 83.1562 C278.2969 83.1562 278.6406 82.8125 278.6406 82.4219 C278.6406 82.0469 278.2969 81.6875 277.8906 81.6875 ZM279.4688 75.5781 C279.7188 75.8906 279.875 76.2656 279.8906 76.6562 C279.8906 77.1875 279.625 77.5 279.0312 77.7656 L278.4062 78.0156 C277.6406 78.3125 277.3906 78.5469 277.3906 78.9375 C277.3906 79.1094 277.4531 79.3438 277.5781 79.8125 L277.7344 80.3438 L278.1094 80.3438 L278.0938 79.5312 C278.0938 79.0938 278.2031 78.9688 278.7812 78.7344 L279.2031 78.5625 C280.0312 78.2188 280.4531 77.6875 280.4531 76.8438 C280.4531 75.1562 278.6562 74.1875 277.5 74.0312 C277.1094 74.125 276.9062 74.2969 276.9062 74.6406 C276.9062 74.9375 277.0625 75.1562 277.7188 75.2656 L279.4688 75.5781 Z"
      /><rect x="261" y="65" width="5" style="fill:white; stroke:none;" height="10"
      /><path style="stroke:none;" d="M262.8906 73.6875 C262.4844 73.6875 262.1562 74.0469 262.1562 74.4219 C262.1562 74.8125 262.4844 75.1562 262.8906 75.1562 C263.2969 75.1562 263.6406 74.8125 263.6406 74.4219 C263.6406 74.0469 263.2969 73.6875 262.8906 73.6875 ZM264.4688 67.5781 C264.7188 67.8906 264.875 68.2656 264.8906 68.6562 C264.8906 69.1875 264.625 69.5 264.0312 69.7656 L263.4062 70.0156 C262.6406 70.3125 262.3906 70.5469 262.3906 70.9375 C262.3906 71.1094 262.4531 71.3438 262.5781 71.8125 L262.7344 72.3438 L263.1094 72.3438 L263.0938 71.5312 C263.0938 71.0938 263.2031 70.9688 263.7812 70.7344 L264.2031 70.5625 C265.0312 70.2188 265.4531 69.6875 265.4531 68.8438 C265.4531 67.1562 263.6562 66.1875 262.5 66.0312 C262.1094 66.125 261.9062 66.2969 261.9062 66.6406 C261.9062 66.9375 262.0625 67.1562 262.7188 67.2656 L264.4688 67.5781 Z"
      /><rect x="317" y="83" width="5" style="fill:white; stroke:none;" height="10"
      /><path style="stroke:none;" d="M318.8906 91.6875 C318.4844 91.6875 318.1562 92.0469 318.1562 92.4219 C318.1562 92.8125 318.4844 93.1562 318.8906 93.1562 C319.2969 93.1562 319.6406 92.8125 319.6406 92.4219 C319.6406 92.0469 319.2969 91.6875 318.8906 91.6875 ZM320.4688 85.5781 C320.7188 85.8906 320.875 86.2656 320.8906 86.6562 C320.8906 87.1875 320.625 87.5 320.0312 87.7656 L319.4062 88.0156 C318.6406 88.3125 318.3906 88.5469 318.3906 88.9375 C318.3906 89.1094 318.4531 89.3438 318.5781 89.8125 L318.7344 90.3438 L319.1094 90.3438 L319.0938 89.5312 C319.0938 89.0938 319.2031 88.9688 319.7812 88.7344 L320.2031 88.5625 C321.0312 88.2188 321.4531 87.6875 321.4531 86.8438 C321.4531 85.1562 319.6562 84.1875 318.5 84.0312 C318.1094 84.125 317.9062 84.2969 317.9062 84.6406 C317.9062 84.9375 318.0625 85.1562 318.7188 85.2656 L320.4688 85.5781 Z"
    /></g
  ></g
></svg
>
