<?xml version="1.0"?>
<!DOCTYPE svg PUBLIC '-//W3C//DTD SVG 1.0//EN'
          'http://www.w3.org/TR/2001/REC-SVG-20010904/DTD/svg10.dtd'>
<svg xmlns:xlink="http://www.w3.org/1999/xlink" style="fill-opacity:1; color-rendering:auto; color-interpolation:auto; text-rendering:auto; stroke:black; stroke-linecap:square; stroke-miterlimit:10; shape-rendering:auto; stroke-opacity:1; fill:black; stroke-dasharray:none; font-weight:normal; stroke-width:1; font-family:'Dialog'; font-style:normal; stroke-linejoin:miter; font-size:12px; stroke-dashoffset:0; image-rendering:auto;" viewBox="0 0 238 186" xmlns="http://www.w3.org/2000/svg"
><!--Generated by the Batik Graphics2D SVG Generator--><defs id="genericDefs"
  /><g
  ><defs id="defs1"
    ><clipPath clipPathUnits="userSpaceOnUse" id="clipPath1"
      ><path style="fill-rule:evenodd;" d="M156 93 L150 100 L139 100 L134 93 L139 85 L150 85 L156 93 Z"
      /></clipPath
      ><clipPath clipPathUnits="userSpaceOnUse" id="clipPath2"
      ><path style="fill-rule:evenodd;" d="M93 30 L104 52 L82 52 Z"
      /></clipPath
      ><clipPath clipPathUnits="userSpaceOnUse" id="clipPath3"
      ><path d="M30 30 L52 30 L52 52 L30 52 L30 30 Z"
      /></clipPath
    ></defs
    ><g style="fill:white; text-rendering:optimizeSpeed; stroke:white;"
    ><rect x="0" width="238" height="186" y="0" style="stroke:none;"
      /><polygon style="fill:none; stroke:black;" points=" 197 93 145 93"
      /><path d="M197 82 C191.5 87.5 202.5 98.5 197 104" style="fill:none; stroke:black;"
      /><path d="M146 94 L77 146 ZM143 91 L74 143 Z" style="fill:none; stroke:black;"
      /><polygon style="fill:none; stroke:black;" points=" 145 93 93 93"
      /><polygon style="fill:none; stroke:black;" points=" 145 93 93 41"
      /><polygon style="clip-path:url(#clipPath1); stroke:none;" points=" 156 93 150 100 139 100 134 93 139 85 150 85 156 93"
      /><rect x="134" y="82" width="22" style="clip-path:url(#clipPath1); stroke:none;" height="22"
      /><rect x="134" y="82" width="22" style="clip-path:url(#clipPath1); fill:none; stroke:black;" height="22"
      /><polygon style="fill:none; stroke:black;" points=" 156 93 150 100 139 100 134 93 139 85 150 85 156 93"
      /><rect x="48" y="137" width="54" style="stroke:none;" height="14"
    /></g
    ><g style="text-rendering:optimizeSpeed; font-size:14px; font-family:'SansSerif';"
    ><path style="stroke:none;" d="M51.1719 146.2656 C51.5469 145.0938 51.875 143.9844 52.2031 142.7812 L52.25 142.7812 C52.5938 143.9844 52.9062 145.0938 53.2969 146.2656 L53.7812 147.8281 L50.6719 147.8281 L51.1719 146.2656 ZM48.0469 152 L49.3594 152 L50.3594 148.8594 L54.1094 148.8594 L55.0781 152 L56.4531 152 L52.9688 141.7188 L51.5312 141.7188 L48.0469 152 ZM57.7792 152 L59.0605 152 L59.0605 146.4844 C59.8261 145.7188 60.3573 145.3281 61.1386 145.3281 C62.1542 145.3281 62.5917 145.9219 62.5917 147.3594 L62.5917 152 L63.8573 152 L63.8573 147.1875 C63.8573 145.2344 63.1386 144.2031 61.5448 144.2031 C60.498 144.2031 59.7167 144.7812 58.9823 145.4844 L58.9511 145.4844 L58.8417 144.3906 L57.7792 144.3906 L57.7792 152 ZM66.3332 152 L67.6144 152 L67.6144 146.4844 C68.3801 145.7188 68.9113 145.3281 69.6926 145.3281 C70.7082 145.3281 71.1457 145.9219 71.1457 147.3594 L71.1457 152 L72.4113 152 L72.4113 147.1875 C72.4113 145.2344 71.6926 144.2031 70.0988 144.2031 C69.0519 144.2031 68.2707 144.7812 67.5676 145.4688 L67.6144 143.9062 L67.6144 140.8594 L66.3332 140.8594 L66.3332 152 ZM74.9562 155.2812 C76.4718 155.2812 77.2687 154.125 77.7843 152.625 L80.6593 144.3906 L79.4093 144.3906 L78.0655 148.625 C77.8468 149.2969 77.628 150.0625 77.4093 150.75 L77.3468 150.75 C77.1124 150.0625 76.8468 149.2812 76.6124 148.625 L75.0655 144.3906 L73.7374 144.3906 L76.7843 152.0156 L76.6124 152.5938 C76.3155 153.5312 75.7687 154.2188 74.8937 154.2188 C74.6905 154.2188 74.4718 154.1562 74.3155 154.0938 L74.0655 155.125 C74.2999 155.2188 74.5968 155.2812 74.9562 155.2812 ZM84.7189 152.1875 C85.6251 152.1875 86.4376 151.6875 87.0314 151.1094 L87.0783 151.1094 L87.1876 152 L88.2189 152 L88.2189 140.8594 L86.9689 140.8594 L86.9689 143.7812 L87.0158 145.0938 C86.3439 144.5312 85.7658 144.2031 84.8751 144.2031 C83.1408 144.2031 81.5783 145.7344 81.5783 148.2031 C81.5783 150.7344 82.8126 152.1875 84.7189 152.1875 ZM85.0001 151.125 C83.6564 151.125 82.9064 150.0312 82.9064 148.1875 C82.9064 146.4531 83.8751 145.2812 85.0939 145.2812 C85.7345 145.2812 86.297 145.5 86.9689 146.0781 L86.9689 150.0625 C86.3126 150.7656 85.7033 151.125 85.0001 151.125 ZM90.8051 152 L92.0863 152 L92.0863 147.1094 C92.5863 145.8125 93.3676 145.3594 94.0082 145.3594 C94.3051 145.3594 94.4926 145.3906 94.7426 145.4844 L94.977 144.375 C94.7426 144.25 94.5082 144.2031 94.1645 144.2031 C93.3207 144.2031 92.5551 144.8125 92.0082 145.7812 L91.977 145.7812 L91.8676 144.3906 L90.8051 144.3906 L90.8051 152 ZM99.1902 152.1875 C101.0652 152.1875 102.7215 150.7188 102.7215 148.2031 C102.7215 145.6719 101.0652 144.2031 99.1902 144.2031 C97.3308 144.2031 95.6746 145.6719 95.6746 148.2031 C95.6746 150.7188 97.3308 152.1875 99.1902 152.1875 ZM99.1902 151.125 C97.8777 151.125 97.0027 149.9531 97.0027 148.2031 C97.0027 146.4531 97.8777 145.2656 99.1902 145.2656 C100.5183 145.2656 101.409 146.4531 101.409 148.2031 C101.409 149.9531 100.5183 151.125 99.1902 151.125 Z"
      /><rect x="89" y="87" width="6" style="fill:white; stroke:none;" height="11"
      /><path style="stroke:none;" d="M92.875 98.1875 C93.7812 98.1875 94.5938 97.6875 95.1875 97.1094 L95.2344 97.1094 L95.3438 98 L96.375 98 L96.375 86.8594 L95.125 86.8594 L95.125 89.7812 L95.1719 91.0938 C94.5 90.5312 93.9219 90.2031 93.0312 90.2031 C91.2969 90.2031 89.7344 91.7344 89.7344 94.2031 C89.7344 96.7344 90.9688 98.1875 92.875 98.1875 ZM93.1562 97.125 C91.8125 97.125 91.0625 96.0312 91.0625 94.1875 C91.0625 92.4531 92.0312 91.2812 93.25 91.2812 C93.8906 91.2812 94.4531 91.5 95.125 92.0781 L95.125 96.0625 C94.4688 96.7656 93.8594 97.125 93.1562 97.125 Z"
      /><polygon style="fill:none;" points=" 93 41 41 41"
    /></g
    ><g style="fill:white; text-rendering:optimizeSpeed; stroke:white;"
    ><polygon style="stroke:none; clip-path:url(#clipPath2);" points=" 93 30 104 52 82 52"
      /><rect x="82" y="30" width="22" style="clip-path:url(#clipPath2); fill:rgb(0,166,81); stroke:none;" height="22"
      /><rect x="82" y="30" width="22" style="clip-path:url(#clipPath2); fill:none; stroke:black;" height="22"
      /><polygon style="fill:none; stroke:black;" points=" 93 30 104 52 82 52"
    /></g
    ><g style="text-rendering:optimizeSpeed; font-size:10px; font-family:'SansSerif';"
    ><path style="stroke:none;" d="M91 44 L92.875 44 C95.0938 44 96.2969 42.625 96.2969 40.3125 C96.2969 37.9844 95.0938 36.6562 92.8438 36.6562 L91 36.6562 L91 44 ZM91.9375 43.2344 L91.9375 37.4219 L92.7656 37.4219 C94.4844 37.4219 95.3438 38.4531 95.3438 40.3125 C95.3438 42.1562 94.4844 43.2344 92.7656 43.2344 L91.9375 43.2344 Z"
    /></g
    ><g style="fill:white; text-rendering:optimizeSpeed; stroke:white;"
    ><rect x="30" y="30" width="22" style="clip-path:url(#clipPath3); stroke:none;" height="22"
      /><rect x="30" y="30" width="22" style="clip-path:url(#clipPath3); fill:rgb(0,144,188); stroke:none;" height="22"
      /><rect x="30" y="30" width="22" style="clip-path:url(#clipPath3); fill:none; stroke:black;" height="22"
      /><rect x="30" y="30" width="22" style="fill:none; stroke:black;" height="22"
      /><rect x="71" width="6" height="9" y="44" style="stroke:none;"
      /><path d="M72.4219 52.0938 C73.0781 51.375 73.7031 50.7188 74.0312 50.3438 C75.9219 48.3125 76.5312 47.4688 76.5312 46.3594 C76.5312 45.0156 75.7812 44.0781 74.1562 44.0781 C72.9062 44.0781 71.7969 44.7031 71.5938 45.9688 C71.7188 46.2031 71.9062 46.3438 72.1562 46.3438 C72.4688 46.3438 72.6562 46.1094 72.7969 45.5938 L73.0938 44.6719 C73.3906 44.5938 73.6562 44.5625 73.8906 44.5625 C74.9219 44.5625 75.5469 45.3125 75.5469 46.4219 C75.5469 47.4375 74.9844 48.4219 73.7031 49.9062 C73.125 50.5781 72.3906 51.4375 71.6406 52.2812 L71.6406 53 L76.9219 53 L76.9219 52.0938 L72.4219 52.0938 Z" style="fill:black; stroke:none;"
      /><rect x="57" width="6" height="13" y="42" style="stroke:none;"
      /><path d="M59.0938 48.2031 C59.0938 46.6562 59.75 45.8125 60.7969 45.8125 C61.7188 45.8125 62.2656 46.4531 62.2656 47.5156 C62.2656 48.7188 61.5 49.4375 60.1875 49.7031 L60.2969 50.3125 C62.2188 50.2344 62.9375 51.2188 62.9375 52.4375 C62.9375 53.625 62.2344 54.4219 60.9531 54.4219 C60.25 54.4219 59.6562 54.1562 59.0938 53.7188 L59.0938 48.2031 ZM58.2031 54.9062 L58.1094 57.375 L58.2656 57.4844 L59.1562 57.2656 L59.0156 54.0938 C59.5469 54.8438 60.3594 55.1719 61.1719 55.1719 C62.5625 55.1719 63.8594 54.2188 63.8594 52.4844 C63.8594 50.9531 62.875 50.1094 61.125 50 C62.5625 49.6094 63.1875 48.4531 63.1875 47.4844 C63.1875 46.0938 62.1562 45.3125 60.9062 45.3125 C59.2969 45.3125 58.2188 46.5469 58.2188 48.5156 L58.2031 54.9062 Z" style="fill:black; stroke:none;"
      /><rect x="109" width="5" height="10" y="96" style="stroke:none;"
      /><path d="M110.8906 104.6875 C110.4844 104.6875 110.1562 105.0469 110.1562 105.4219 C110.1562 105.8125 110.4844 106.1562 110.8906 106.1562 C111.2969 106.1562 111.6406 105.8125 111.6406 105.4219 C111.6406 105.0469 111.2969 104.6875 110.8906 104.6875 ZM112.4688 98.5781 C112.7188 98.8906 112.875 99.2656 112.8906 99.6562 C112.8906 100.1875 112.625 100.5 112.0312 100.7656 L111.4062 101.0156 C110.6406 101.3125 110.3906 101.5469 110.3906 101.9375 C110.3906 102.1094 110.4531 102.3438 110.5781 102.8125 L110.7344 103.3438 L111.1094 103.3438 L111.0938 102.5312 C111.0938 102.0938 111.2031 101.9688 111.7812 101.7344 L112.2031 101.5625 C113.0312 101.2188 113.4531 100.6875 113.4531 99.8438 C113.4531 98.1562 111.6562 97.1875 110.5 97.0312 C110.1094 97.125 109.9062 97.2969 109.9062 97.6406 C109.9062 97.9375 110.0625 98.1562 110.7188 98.2656 L112.4688 98.5781 Z" style="fill:black; stroke:none;"
      /><rect x="100" width="8" height="8" y="59" style="stroke:none;"
      /><path d="M104.9844 64.7031 C104.9375 65.8906 104.1562 66.6562 103.3125 66.6562 C102.2656 66.6562 101.5 65.6875 101.5 63.7188 C101.5 62.2812 102.1562 61.1562 103.3438 61.1562 C104.1406 61.1562 104.7812 61.6875 105.0938 62.6406 L104.9844 64.7031 ZM106.9062 66.2812 C106.7344 66.375 106.5469 66.4219 106.3438 66.4219 C105.9531 66.4219 105.75 66.2188 105.75 65.4219 C105.75 64.4844 105.9688 62.5312 106.1875 60.8281 L106.0312 60.7188 L105.2344 60.9219 L105.1406 61.7969 C104.7812 61.0312 104.1562 60.6562 103.3906 60.6562 C102.0469 60.6562 100.5625 61.8438 100.5625 63.9531 C100.5625 66.0938 101.7188 67.1719 103.1406 67.1719 C104.0156 67.1719 104.6875 66.8125 105.0938 65.9844 C105.2031 66.8594 105.5156 67.1719 106.0156 67.1719 C106.4688 67.1719 106.7969 66.9062 107.0156 66.5625 L106.9062 66.2812 Z" style="fill:black; stroke:none;"
      /><rect x="161" width="6" height="13" y="94" style="stroke:none;"
      /><path d="M163.0938 100.2031 C163.0938 98.6562 163.75 97.8125 164.7969 97.8125 C165.7188 97.8125 166.2656 98.4531 166.2656 99.5156 C166.2656 100.7188 165.5 101.4375 164.1875 101.7031 L164.2969 102.3125 C166.2188 102.2344 166.9375 103.2188 166.9375 104.4375 C166.9375 105.625 166.2344 106.4219 164.9531 106.4219 C164.25 106.4219 163.6562 106.1562 163.0938 105.7188 L163.0938 100.2031 ZM162.2031 106.9062 L162.1094 109.375 L162.2656 109.4844 L163.1562 109.2656 L163.0156 106.0938 C163.5469 106.8438 164.3594 107.1719 165.1719 107.1719 C166.5625 107.1719 167.8594 106.2188 167.8594 104.4844 C167.8594 102.9531 166.875 102.1094 165.125 102 C166.5625 101.6094 167.1875 100.4531 167.1875 99.4844 C167.1875 98.0938 166.1562 97.3125 164.9062 97.3125 C163.2969 97.3125 162.2188 98.5469 162.2188 100.5156 L162.2031 106.9062 Z" style="fill:black; stroke:none;"
    /></g
  ></g
></svg
>
