<?xml version="1.0"?>
<!DOCTYPE svg PUBLIC '-//W3C//DTD SVG 1.0//EN'
          'http://www.w3.org/TR/2001/REC-SVG-20010904/DTD/svg10.dtd'>
<svg xmlns:xlink="http://www.w3.org/1999/xlink" style="fill-opacity:1; color-rendering:auto; color-interpolation:auto; text-rendering:auto; stroke:black; stroke-linecap:square; stroke-miterlimit:10; shape-rendering:auto; stroke-opacity:1; fill:black; stroke-dasharray:none; font-weight:normal; stroke-width:1; font-family:'Dialog'; font-style:normal; stroke-linejoin:miter; font-size:12px; stroke-dashoffset:0; image-rendering:auto;" viewBox="0 0 498 160" xmlns="http://www.w3.org/2000/svg"
><!--Generated by the Batik Graphics2D SVG Generator--><defs id="genericDefs"
  /><g
  ><defs id="defs1"
    ><clipPath clipPathUnits="userSpaceOnUse" id="clipPath1"
      ><path d="M394 82 L416 82 L416 104 L394 104 L394 82 Z"
      /></clipPath
      ><clipPath clipPathUnits="userSpaceOnUse" id="clipPath2"
      ><path d="M342 82 L364 82 L364 104 L342 104 L342 82 Z"
      /></clipPath
      ><clipPath clipPathUnits="userSpaceOnUse" id="clipPath3"
      ><path d="M312 93 C312 99.0751 307.0751 104 301 104 C294.9249 104 290 99.0751 290 93 C290 86.9249 294.9249 82 301 82 C307.0751 82 312 86.9249 312 93 Z"
      /></clipPath
      ><clipPath clipPathUnits="userSpaceOnUse" id="clipPath4"
      ><path d="M260 119 C260 125.0751 255.0751 130 249 130 C242.9249 130 238 125.0751 238 119 C238 112.9249 242.9249 108 249 108 C255.0751 108 260 112.9249 260 119 Z"
      /></clipPath
      ><clipPath clipPathUnits="userSpaceOnUse" id="clipPath5"
      ><path d="M186 108 L208 108 L208 130 L186 130 L186 108 Z"
      /></clipPath
      ><clipPath clipPathUnits="userSpaceOnUse" id="clipPath6"
      ><path d="M260 67 C260 73.0751 255.0751 78 249 78 C242.9249 78 238 73.0751 238 67 C238 60.9249 242.9249 56 249 56 C255.0751 56 260 60.9249 260 67 Z"
      /></clipPath
      ><clipPath clipPathUnits="userSpaceOnUse" id="clipPath7"
      ><path d="M186 56 L208 56 L208 78 L186 78 L186 56 Z"
      /></clipPath
      ><clipPath clipPathUnits="userSpaceOnUse" id="clipPath8"
      ><path d="M156 67 C156 73.0751 151.0751 78 145 78 C138.9249 78 134 73.0751 134 67 C134 60.9249 138.9249 56 145 56 C151.0751 56 156 60.9249 156 67 Z"
      /></clipPath
      ><clipPath clipPathUnits="userSpaceOnUse" id="clipPath9"
      ><path d="M104 67 C104 73.0751 99.0751 78 93 78 C86.9249 78 82 73.0751 82 67 C82 60.9249 86.9249 56 93 56 C99.0751 56 104 60.9249 104 67 Z"
      /></clipPath
      ><clipPath clipPathUnits="userSpaceOnUse" id="clipPath10"
      ><path style="fill-rule:evenodd;" d="M41 56 L52 67 L41 78 L30 67 Z"
      /></clipPath
      ><clipPath clipPathUnits="userSpaceOnUse" id="clipPath11"
      ><path style="fill-rule:evenodd;" d="M405 52 L394 30 L416 30 Z"
      /></clipPath
    ></defs
    ><g style="fill:white; text-rendering:optimizeSpeed; stroke:white;"
    ><rect x="0" width="498" height="160" y="0" style="stroke:none;"
      /><polygon style="fill:none; stroke:black;" points=" 457 93 405 93"
      /><path d="M457 82 C451.5 87.5 462.5 98.5 457 104" style="fill:none; stroke:black;"
      /><polygon style="fill:none; stroke:black;" points=" 405 93 353 93"
      /><polygon style="fill:none; stroke:black;" points=" 405 93 405 41"
      /><rect x="394" y="82" width="22" style="clip-path:url(#clipPath1); stroke:none;" height="22"
      /><rect x="394" y="82" width="22" style="clip-path:url(#clipPath1); fill:rgb(0,144,188); stroke:none;" height="22"
      /><rect x="394" y="82" width="22" style="clip-path:url(#clipPath1); fill:none; stroke:black;" height="22"
      /><rect x="394" y="82" width="22" style="fill:none; stroke:black;" height="22"
      /><polygon style="fill:none; stroke:black;" points=" 353 93 301 93"
      /><rect x="342" y="82" width="22" style="clip-path:url(#clipPath2); stroke:none;" height="22"
      /><rect x="342" y="82" width="22" style="clip-path:url(#clipPath2); fill:rgb(0,144,188); stroke:none;" height="22"
      /><rect x="342" y="82" width="22" style="clip-path:url(#clipPath2); fill:none; stroke:black;" height="22"
      /><rect x="342" y="82" width="22" style="fill:none; stroke:black;" height="22"
      /><polygon style="fill:none; stroke:black;" points=" 301 93 249 119"
      /><polygon style="fill:none; stroke:black;" points=" 301 93 249 67"
      /><circle style="clip-path:url(#clipPath3); stroke:none;" r="11" cx="301" cy="93"
      /><rect x="290" y="82" width="22" style="clip-path:url(#clipPath3); fill:rgb(0,166,81); stroke:none;" height="22"
      /><rect x="290" y="82" width="22" style="clip-path:url(#clipPath3); fill:none; stroke:black;" height="22"
      /><circle style="fill:none; stroke:black;" r="11" cx="301" cy="93"
      /><polygon style="fill:none; stroke:black;" points=" 249 119 197 119"
      /><circle style="clip-path:url(#clipPath4); stroke:none;" r="11" cx="249" cy="119"
      /><rect x="238" y="108" width="22" style="clip-path:url(#clipPath4); fill:rgb(0,166,81); stroke:none;" height="22"
      /><rect x="238" y="108" width="22" style="clip-path:url(#clipPath4); fill:none; stroke:black;" height="22"
      /><circle style="fill:none; stroke:black;" r="11" cx="249" cy="119"
      /><rect x="186" y="108" width="22" style="clip-path:url(#clipPath5); stroke:none;" height="22"
      /><rect x="186" y="108" width="22" style="clip-path:url(#clipPath5); fill:rgb(0,144,188); stroke:none;" height="22"
      /><rect x="186" y="108" width="22" style="clip-path:url(#clipPath5); fill:none; stroke:black;" height="22"
      /><rect x="186" y="108" width="22" style="fill:none; stroke:black;" height="22"
      /><rect x="227" y="122" width="6" style="stroke:none;" height="9"
    /></g
    ><g style="font-family:'Serif'; text-rendering:optimizeSpeed; "
    ><path style="stroke:none;" d="M228.4219 130.0938 C229.0781 129.375 229.7031 128.7188 230.0312 128.3438 C231.9219 126.3125 232.5312 125.4688 232.5312 124.3594 C232.5312 123.0156 231.7812 122.0781 230.1562 122.0781 C228.9062 122.0781 227.7969 122.7031 227.5938 123.9688 C227.7188 124.2031 227.9062 124.3438 228.1562 124.3438 C228.4688 124.3438 228.6562 124.1094 228.7969 123.5938 L229.0938 122.6719 C229.3906 122.5938 229.6562 122.5625 229.8906 122.5625 C230.9219 122.5625 231.5469 123.3125 231.5469 124.4219 C231.5469 125.4375 230.9844 126.4219 229.7031 127.9062 C229.125 128.5781 228.3906 129.4375 227.6406 130.2812 L227.6406 131 L232.9219 131 L232.9219 130.0938 L228.4219 130.0938 Z"
      /><rect x="213" y="120" width="6" style="fill:white; stroke:none;" height="13"
      /><path style="stroke:none;" d="M215.0938 126.2031 C215.0938 124.6562 215.75 123.8125 216.7969 123.8125 C217.7188 123.8125 218.2656 124.4531 218.2656 125.5156 C218.2656 126.7188 217.5 127.4375 216.1875 127.7031 L216.2969 128.3125 C218.2188 128.2344 218.9375 129.2188 218.9375 130.4375 C218.9375 131.625 218.2344 132.4219 216.9531 132.4219 C216.25 132.4219 215.6562 132.1562 215.0938 131.7188 L215.0938 126.2031 ZM214.2031 132.9062 L214.1094 135.375 L214.2656 135.4844 L215.1562 135.2656 L215.0156 132.0938 C215.5469 132.8438 216.3594 133.1719 217.1719 133.1719 C218.5625 133.1719 219.8594 132.2188 219.8594 130.4844 C219.8594 128.9531 218.875 128.1094 217.125 128 C218.5625 127.6094 219.1875 126.4531 219.1875 125.4844 C219.1875 124.0938 218.1562 123.3125 216.9062 123.3125 C215.2969 123.3125 214.2188 124.5469 214.2188 126.5156 L214.2031 132.9062 Z"
      /><polygon style="fill:none;" points=" 249 67 197 67"
      /><circle style="fill:white; clip-path:url(#clipPath6); stroke:none;" r="11" cx="249" cy="67"
      /><rect x="238" y="56" width="22" style="clip-path:url(#clipPath6); fill:rgb(0,166,81); stroke:none;" height="22"
      /><rect x="238" y="56" width="22" style="fill:none; clip-path:url(#clipPath6);" height="22"
      /><circle r="11" style="fill:none;" cx="249" cy="67"
      /><polygon style="fill:none;" points=" 197 67 145 67"
      /><rect x="186" y="56" width="22" style="clip-path:url(#clipPath7); fill:white; stroke:none;" height="22"
      /><rect x="186" y="56" width="22" style="clip-path:url(#clipPath7); fill:rgb(0,144,188); stroke:none;" height="22"
      /><rect x="186" y="56" width="22" style="fill:none; clip-path:url(#clipPath7);" height="22"
      /><rect x="186" width="22" height="22" y="56" style="fill:none;"
      /><polygon style="fill:none;" points=" 145 67 93 67"
      /><circle style="fill:white; clip-path:url(#clipPath8); stroke:none;" r="11" cx="145" cy="67"
      /><rect x="134" y="56" width="22" style="clip-path:url(#clipPath8); fill:rgb(255,212,0); stroke:none;" height="22"
      /><rect x="134" y="56" width="22" style="fill:none; clip-path:url(#clipPath8);" height="22"
      /><circle r="11" style="fill:none;" cx="145" cy="67"
      /><polygon style="fill:none;" points=" 93 67 41 67"
      /><circle style="fill:white; clip-path:url(#clipPath9); stroke:none;" r="11" cx="93" cy="67"
      /><rect x="82" y="56" width="22" style="clip-path:url(#clipPath9); fill:rgb(255,212,0); stroke:none;" height="22"
      /><rect x="82" y="56" width="22" style="fill:none; clip-path:url(#clipPath9);" height="22"
      /><circle r="11" style="fill:none;" cx="93" cy="67"
      /><polygon style="fill:white; clip-path:url(#clipPath10); stroke:none;" points=" 41 56 52 67 41 78 30 67"
      /><rect x="30" y="56" width="22" style="clip-path:url(#clipPath10); fill:rgb(165,67,153); stroke:none;" height="22"
      /><rect x="30" y="56" width="22" style="fill:none; clip-path:url(#clipPath10);" height="22"
      /><polygon style="fill:none;" points=" 41 56 52 67 41 78 30 67"
      /><rect x="71" y="70" width="6" style="fill:white; stroke:none;" height="10"
      /><path style="stroke:none;" d="M74.3438 79.6875 C73.2031 79.6875 72.5312 78.5 72.5312 76.2969 C72.5312 76.2188 72.5312 76.125 72.5312 76.0469 C73.0938 75.5 73.7188 75.3125 74.3438 75.3125 C75.3125 75.3125 75.9531 75.9844 75.9531 77.4531 C75.9531 78.9375 75.3125 79.6875 74.3438 79.6875 ZM76.5312 71.0781 C73.3438 71.4531 71.5625 73.7656 71.5625 76.4531 C71.5625 78.7812 72.6094 80.1719 74.3125 80.1719 C75.8438 80.1719 76.9219 79.1094 76.9219 77.2812 C76.9219 75.6875 75.9688 74.6562 74.5625 74.6562 C73.8281 74.6562 73.1406 74.9844 72.5781 75.5781 C72.7969 73.4062 74.0781 71.9688 76.5938 71.3906 L76.5312 71.0781 Z"
      /><rect x="56" y="71" width="8" style="fill:white; stroke:none;" height="8"
      /><path style="stroke:none;" d="M60.9844 76.7031 C60.9375 77.8906 60.1562 78.6562 59.3125 78.6562 C58.2656 78.6562 57.5 77.6875 57.5 75.7188 C57.5 74.2812 58.1562 73.1562 59.3438 73.1562 C60.1406 73.1562 60.7812 73.6875 61.0938 74.6406 L60.9844 76.7031 ZM62.9062 78.2812 C62.7344 78.375 62.5469 78.4219 62.3438 78.4219 C61.9531 78.4219 61.75 78.2188 61.75 77.4219 C61.75 76.4844 61.9688 74.5312 62.1875 72.8281 L62.0312 72.7188 L61.2344 72.9219 L61.1406 73.7969 C60.7812 73.0312 60.1562 72.6562 59.3906 72.6562 C58.0469 72.6562 56.5625 73.8438 56.5625 75.9531 C56.5625 78.0938 57.7188 79.1719 59.1406 79.1719 C60.0156 79.1719 60.6875 78.8125 61.0938 77.9844 C61.2031 78.8594 61.5156 79.1719 62.0156 79.1719 C62.4688 79.1719 62.7969 78.9062 63.0156 78.5625 L62.9062 78.2812 Z"
      /><rect x="123" y="70" width="5" style="fill:white; stroke:none;" height="10"
      /><path style="stroke:none;" d="M124.8906 78.6875 C124.4844 78.6875 124.1562 79.0469 124.1562 79.4219 C124.1562 79.8125 124.4844 80.1562 124.8906 80.1562 C125.2969 80.1562 125.6406 79.8125 125.6406 79.4219 C125.6406 79.0469 125.2969 78.6875 124.8906 78.6875 ZM126.4688 72.5781 C126.7188 72.8906 126.875 73.2656 126.8906 73.6562 C126.8906 74.1875 126.625 74.5 126.0312 74.7656 L125.4062 75.0156 C124.6406 75.3125 124.3906 75.5469 124.3906 75.9375 C124.3906 76.1094 124.4531 76.3438 124.5781 76.8125 L124.7344 77.3438 L125.1094 77.3438 L125.0938 76.5312 C125.0938 76.0938 125.2031 75.9688 125.7812 75.7344 L126.2031 75.5625 C127.0312 75.2188 127.4531 74.6875 127.4531 73.8438 C127.4531 72.1562 125.6562 71.1875 124.5 71.0312 C124.1094 71.125 123.9062 71.2969 123.9062 71.6406 C123.9062 71.9375 124.0625 72.1562 124.7188 72.2656 L126.4688 72.5781 Z"
      /><rect x="108" y="71" width="8" style="fill:white; stroke:none;" height="8"
      /><path style="stroke:none;" d="M112.9844 76.7031 C112.9375 77.8906 112.1562 78.6562 111.3125 78.6562 C110.2656 78.6562 109.5 77.6875 109.5 75.7188 C109.5 74.2812 110.1562 73.1562 111.3438 73.1562 C112.1406 73.1562 112.7812 73.6875 113.0938 74.6406 L112.9844 76.7031 ZM114.9062 78.2812 C114.7344 78.375 114.5469 78.4219 114.3438 78.4219 C113.9531 78.4219 113.75 78.2188 113.75 77.4219 C113.75 76.4844 113.9688 74.5312 114.1875 72.8281 L114.0312 72.7188 L113.2344 72.9219 L113.1406 73.7969 C112.7812 73.0312 112.1562 72.6562 111.3906 72.6562 C110.0469 72.6562 108.5625 73.8438 108.5625 75.9531 C108.5625 78.0938 109.7188 79.1719 111.1406 79.1719 C112.0156 79.1719 112.6875 78.8125 113.0938 77.9844 C113.2031 78.8594 113.5156 79.1719 114.0156 79.1719 C114.4688 79.1719 114.7969 78.9062 115.0156 78.5625 L114.9062 78.2812 Z"
      /><rect x="175" y="70" width="5" style="fill:white; stroke:none;" height="10"
      /><path style="stroke:none;" d="M176.8906 78.6875 C176.4844 78.6875 176.1562 79.0469 176.1562 79.4219 C176.1562 79.8125 176.4844 80.1562 176.8906 80.1562 C177.2969 80.1562 177.6406 79.8125 177.6406 79.4219 C177.6406 79.0469 177.2969 78.6875 176.8906 78.6875 ZM178.4688 72.5781 C178.7188 72.8906 178.875 73.2656 178.8906 73.6562 C178.8906 74.1875 178.625 74.5 178.0312 74.7656 L177.4062 75.0156 C176.6406 75.3125 176.3906 75.5469 176.3906 75.9375 C176.3906 76.1094 176.4531 76.3438 176.5781 76.8125 L176.7344 77.3438 L177.1094 77.3438 L177.0938 76.5312 C177.0938 76.0938 177.2031 75.9688 177.7812 75.7344 L178.2031 75.5625 C179.0312 75.2188 179.4531 74.6875 179.4531 73.8438 C179.4531 72.1562 177.6562 71.1875 176.5 71.0312 C176.1094 71.125 175.9062 71.2969 175.9062 71.6406 C175.9062 71.9375 176.0625 72.1562 176.7188 72.2656 L178.4688 72.5781 Z"
      /><rect x="161" y="68" width="6" style="fill:white; stroke:none;" height="13"
      /><path style="stroke:none;" d="M163.0938 74.2031 C163.0938 72.6562 163.75 71.8125 164.7969 71.8125 C165.7188 71.8125 166.2656 72.4531 166.2656 73.5156 C166.2656 74.7188 165.5 75.4375 164.1875 75.7031 L164.2969 76.3125 C166.2188 76.2344 166.9375 77.2188 166.9375 78.4375 C166.9375 79.625 166.2344 80.4219 164.9531 80.4219 C164.25 80.4219 163.6562 80.1562 163.0938 79.7188 L163.0938 74.2031 ZM162.2031 80.9062 L162.1094 83.375 L162.2656 83.4844 L163.1562 83.2656 L163.0156 80.0938 C163.5469 80.8438 164.3594 81.1719 165.1719 81.1719 C166.5625 81.1719 167.8594 80.2188 167.8594 78.4844 C167.8594 76.9531 166.875 76.1094 165.125 76 C166.5625 75.6094 167.1875 74.4531 167.1875 73.4844 C167.1875 72.0938 166.1562 71.3125 164.9062 71.3125 C163.2969 71.3125 162.2188 72.5469 162.2188 74.5156 L162.2031 80.9062 Z"
      /><rect x="227" y="70" width="6" style="fill:white; stroke:none;" height="9"
      /><path style="stroke:none;" d="M228.4219 78.0938 C229.0781 77.375 229.7031 76.7188 230.0312 76.3438 C231.9219 74.3125 232.5312 73.4688 232.5312 72.3594 C232.5312 71.0156 231.7812 70.0781 230.1562 70.0781 C228.9062 70.0781 227.7969 70.7031 227.5938 71.9688 C227.7188 72.2031 227.9062 72.3438 228.1562 72.3438 C228.4688 72.3438 228.6562 72.1094 228.7969 71.5938 L229.0938 70.6719 C229.3906 70.5938 229.6562 70.5625 229.8906 70.5625 C230.9219 70.5625 231.5469 71.3125 231.5469 72.4219 C231.5469 73.4375 230.9844 74.4219 229.7031 75.9062 C229.125 76.5781 228.3906 77.4375 227.6406 78.2812 L227.6406 79 L232.9219 79 L232.9219 78.0938 L228.4219 78.0938 Z"
      /><rect x="213" y="68" width="6" style="fill:white; stroke:none;" height="13"
      /><path style="stroke:none;" d="M215.0938 74.2031 C215.0938 72.6562 215.75 71.8125 216.7969 71.8125 C217.7188 71.8125 218.2656 72.4531 218.2656 73.5156 C218.2656 74.7188 217.5 75.4375 216.1875 75.7031 L216.2969 76.3125 C218.2188 76.2344 218.9375 77.2188 218.9375 78.4375 C218.9375 79.625 218.2344 80.4219 216.9531 80.4219 C216.25 80.4219 215.6562 80.1562 215.0938 79.7188 L215.0938 74.2031 ZM214.2031 80.9062 L214.1094 83.375 L214.2656 83.4844 L215.1562 83.2656 L215.0156 80.0938 C215.5469 80.8438 216.3594 81.1719 217.1719 81.1719 C218.5625 81.1719 219.8594 80.2188 219.8594 78.4844 C219.8594 76.9531 218.875 76.1094 217.125 76 C218.5625 75.6094 219.1875 74.4531 219.1875 73.4844 C219.1875 72.0938 218.1562 71.3125 216.9062 71.3125 C215.2969 71.3125 214.2188 72.5469 214.2188 74.5156 L214.2031 80.9062 Z"
      /><rect x="283" y="104" width="6" style="fill:white; stroke:none;" height="10"
      /><path style="stroke:none;" d="M285.2344 105.6562 C285.5156 105.5938 285.7656 105.5625 286.0156 105.5625 C287.0625 105.5625 287.6719 106.1719 287.6719 107.2656 C287.6719 108.4375 286.9062 109.1094 285.7031 109.1094 L285.1875 109.1094 L285.1875 109.6406 L285.7969 109.6406 C287.2188 109.6406 287.9062 110.4219 287.9062 111.6406 C287.9062 112.8438 287.1719 113.6875 285.875 113.6875 C285.6094 113.6875 285.3125 113.6562 285.0156 113.5625 L284.7812 112.8125 C284.625 112.2812 284.5 112.0469 284.1406 112.0469 C283.8906 112.0469 283.7031 112.1719 283.5781 112.4219 C283.8438 113.6406 284.7812 114.1719 286.0312 114.1719 C287.7188 114.1719 288.875 113.125 288.875 111.7031 C288.875 110.5 288.2031 109.625 286.7969 109.375 C287.9531 109.0156 288.6094 108.2031 288.6094 107.2031 C288.6094 105.9219 287.6719 105.0781 286.1875 105.0781 C285.0469 105.0781 284.0625 105.5938 283.7969 106.6875 C283.9062 107 284.1094 107.1094 284.3594 107.1094 C284.7344 107.1094 284.8906 106.8906 285 106.4062 L285.2344 105.6562 Z"
      /><rect x="266" y="113" width="8" style="fill:white; stroke:none;" height="8"
      /><path style="stroke:none;" d="M270.9844 118.7031 C270.9375 119.8906 270.1562 120.6562 269.3125 120.6562 C268.2656 120.6562 267.5 119.6875 267.5 117.7188 C267.5 116.2812 268.1562 115.1562 269.3438 115.1562 C270.1406 115.1562 270.7812 115.6875 271.0938 116.6406 L270.9844 118.7031 ZM272.9062 120.2812 C272.7344 120.375 272.5469 120.4219 272.3438 120.4219 C271.9531 120.4219 271.75 120.2188 271.75 119.4219 C271.75 118.4844 271.9688 116.5312 272.1875 114.8281 L272.0312 114.7188 L271.2344 114.9219 L271.1406 115.7969 C270.7812 115.0312 270.1562 114.6562 269.3906 114.6562 C268.0469 114.6562 266.5625 115.8438 266.5625 117.9531 C266.5625 120.0938 267.7188 121.1719 269.1406 121.1719 C270.0156 121.1719 270.6875 120.8125 271.0938 119.9844 C271.2031 120.8594 271.5156 121.1719 272.0156 121.1719 C272.4688 121.1719 272.7969 120.9062 273.0156 120.5625 L272.9062 120.2812 Z"
      /><rect x="276" y="86" width="6" style="fill:white; stroke:none;" height="10"
      /><path style="stroke:none;" d="M279.3438 95.6875 C278.2031 95.6875 277.5312 94.5 277.5312 92.2969 C277.5312 92.2188 277.5312 92.125 277.5312 92.0469 C278.0938 91.5 278.7188 91.3125 279.3438 91.3125 C280.3125 91.3125 280.9531 91.9844 280.9531 93.4531 C280.9531 94.9375 280.3125 95.6875 279.3438 95.6875 ZM281.5312 87.0781 C278.3438 87.4531 276.5625 89.7656 276.5625 92.4531 C276.5625 94.7812 277.6094 96.1719 279.3125 96.1719 C280.8438 96.1719 281.9219 95.1094 281.9219 93.2812 C281.9219 91.6875 280.9688 90.6562 279.5625 90.6562 C278.8281 90.6562 278.1406 90.9844 277.5781 91.5781 C277.7969 89.4062 279.0781 87.9688 281.5938 87.3906 L281.5312 87.0781 Z"
      /><rect x="259" y="79" width="8" style="fill:white; stroke:none;" height="8"
      /><path style="stroke:none;" d="M263.9844 84.7031 C263.9375 85.8906 263.1562 86.6562 262.3125 86.6562 C261.2656 86.6562 260.5 85.6875 260.5 83.7188 C260.5 82.2812 261.1562 81.1562 262.3438 81.1562 C263.1406 81.1562 263.7812 81.6875 264.0938 82.6406 L263.9844 84.7031 ZM265.9062 86.2812 C265.7344 86.375 265.5469 86.4219 265.3438 86.4219 C264.9531 86.4219 264.75 86.2188 264.75 85.4219 C264.75 84.4844 264.9688 82.5312 265.1875 80.8281 L265.0312 80.7188 L264.2344 80.9219 L264.1406 81.7969 C263.7812 81.0312 263.1562 80.6562 262.3906 80.6562 C261.0469 80.6562 259.5625 81.8438 259.5625 83.9531 C259.5625 86.0938 260.7188 87.1719 262.1406 87.1719 C263.0156 87.1719 263.6875 86.8125 264.0938 85.9844 C264.2031 86.8594 264.5156 87.1719 265.0156 87.1719 C265.4688 87.1719 265.7969 86.9062 266.0156 86.5625 L265.9062 86.2812 Z"
      /><rect x="330" y="96" width="7" style="fill:white; stroke:none;" height="9"
      /><path style="stroke:none;" d="M331 101.5156 L333.9531 97.2656 L333.9531 101.5156 L331 101.5156 ZM336.2812 101.5156 L334.8594 101.5156 L334.8594 96.125 L334.2344 96.125 L330.3438 101.6406 L330.3438 102.1875 L333.9531 102.1875 L333.9531 105 L334.8594 105 L334.8594 102.1875 L336.2812 102.1875 L336.2812 101.5156 Z"
      /><rect x="317" y="94" width="6" style="fill:white; stroke:none;" height="13"
      /><path style="stroke:none;" d="M319.0938 100.2031 C319.0938 98.6562 319.75 97.8125 320.7969 97.8125 C321.7188 97.8125 322.2656 98.4531 322.2656 99.5156 C322.2656 100.7188 321.5 101.4375 320.1875 101.7031 L320.2969 102.3125 C322.2188 102.2344 322.9375 103.2188 322.9375 104.4375 C322.9375 105.625 322.2344 106.4219 320.9531 106.4219 C320.25 106.4219 319.6562 106.1562 319.0938 105.7188 L319.0938 100.2031 ZM318.2031 106.9062 L318.1094 109.375 L318.2656 109.4844 L319.1562 109.2656 L319.0156 106.0938 C319.5469 106.8438 320.3594 107.1719 321.1719 107.1719 C322.5625 107.1719 323.8594 106.2188 323.8594 104.4844 C323.8594 102.9531 322.875 102.1094 321.125 102 C322.5625 101.6094 323.1875 100.4531 323.1875 99.4844 C323.1875 98.0938 322.1562 97.3125 320.9062 97.3125 C319.2969 97.3125 318.2188 98.5469 318.2188 100.5156 L318.2031 106.9062 Z"
      /><polygon style="fill:white; clip-path:url(#clipPath11); stroke:none;" points=" 405 52 394 30 416 30"
      /><rect x="394" y="30" width="22" style="clip-path:url(#clipPath11); fill:rgb(237,28,36); stroke:none;" height="22"
      /><rect x="394" y="30" width="22" style="fill:none; clip-path:url(#clipPath11);" height="22"
      /><polygon style="fill:none;" points=" 405 52 394 30 416 30"
      /><path style="stroke:none;" d="M403 44 L404.875 44 C407.0938 44 408.2969 42.625 408.2969 40.3125 C408.2969 37.9844 407.0938 36.6562 404.8438 36.6562 L403 36.6562 L403 44 ZM403.9375 43.2344 L403.9375 37.4219 L404.7656 37.4219 C406.4844 37.4219 407.3438 38.4531 407.3438 40.3125 C407.3438 42.1562 406.4844 43.2344 404.7656 43.2344 L403.9375 43.2344 Z"
      /><rect x="382" y="96" width="7" style="fill:white; stroke:none;" height="9"
      /><path style="stroke:none;" d="M383 101.5156 L385.9531 97.2656 L385.9531 101.5156 L383 101.5156 ZM388.2812 101.5156 L386.8594 101.5156 L386.8594 96.125 L386.2344 96.125 L382.3438 101.6406 L382.3438 102.1875 L385.9531 102.1875 L385.9531 105 L386.8594 105 L386.8594 102.1875 L388.2812 102.1875 L388.2812 101.5156 Z"
      /><rect x="369" y="94" width="6" style="fill:white; stroke:none;" height="13"
      /><path style="stroke:none;" d="M371.0938 100.2031 C371.0938 98.6562 371.75 97.8125 372.7969 97.8125 C373.7188 97.8125 374.2656 98.4531 374.2656 99.5156 C374.2656 100.7188 373.5 101.4375 372.1875 101.7031 L372.2969 102.3125 C374.2188 102.2344 374.9375 103.2188 374.9375 104.4375 C374.9375 105.625 374.2344 106.4219 372.9531 106.4219 C372.25 106.4219 371.6562 106.1562 371.0938 105.7188 L371.0938 100.2031 ZM370.2031 106.9062 L370.1094 109.375 L370.2656 109.4844 L371.1562 109.2656 L371.0156 106.0938 C371.5469 106.8438 372.3594 107.1719 373.1719 107.1719 C374.5625 107.1719 375.8594 106.2188 375.8594 104.4844 C375.8594 102.9531 374.875 102.1094 373.125 102 C374.5625 101.6094 375.1875 100.4531 375.1875 99.4844 C375.1875 98.0938 374.1562 97.3125 372.9062 97.3125 C371.2969 97.3125 370.2188 98.5469 370.2188 100.5156 L370.2031 106.9062 Z"
      /><rect x="394" y="69" width="6" style="fill:white; stroke:none;" height="10"
      /><path style="stroke:none;" d="M397.3438 78.6875 C396.2031 78.6875 395.5312 77.5 395.5312 75.2969 C395.5312 75.2188 395.5312 75.125 395.5312 75.0469 C396.0938 74.5 396.7188 74.3125 397.3438 74.3125 C398.3125 74.3125 398.9531 74.9844 398.9531 76.4531 C398.9531 77.9375 398.3125 78.6875 397.3438 78.6875 ZM399.5312 70.0781 C396.3438 70.4531 394.5625 72.7656 394.5625 75.4531 C394.5625 77.7812 395.6094 79.1719 397.3125 79.1719 C398.8438 79.1719 399.9219 78.1094 399.9219 76.2812 C399.9219 74.6875 398.9688 73.6562 397.5625 73.6562 C396.8281 73.6562 396.1406 73.9844 395.5781 74.5781 C395.7969 72.4062 397.0781 70.9688 399.5938 70.3906 L399.5312 70.0781 Z"
      /><rect x="393" y="56" width="8" style="fill:white; stroke:none;" height="8"
      /><path style="stroke:none;" d="M397.9844 61.7031 C397.9375 62.8906 397.1562 63.6562 396.3125 63.6562 C395.2656 63.6562 394.5 62.6875 394.5 60.7188 C394.5 59.2812 395.1562 58.1562 396.3438 58.1562 C397.1406 58.1562 397.7812 58.6875 398.0938 59.6406 L397.9844 61.7031 ZM399.9062 63.2812 C399.7344 63.375 399.5469 63.4219 399.3438 63.4219 C398.9531 63.4219 398.75 63.2188 398.75 62.4219 C398.75 61.4844 398.9688 59.5312 399.1875 57.8281 L399.0312 57.7188 L398.2344 57.9219 L398.1406 58.7969 C397.7812 58.0312 397.1562 57.6562 396.3906 57.6562 C395.0469 57.6562 393.5625 58.8438 393.5625 60.9531 C393.5625 63.0938 394.7188 64.1719 396.1406 64.1719 C397.0156 64.1719 397.6875 63.8125 398.0938 62.9844 C398.2031 63.8594 398.5156 64.1719 399.0156 64.1719 C399.4688 64.1719 399.7969 63.9062 400.0156 63.5625 L399.9062 63.2812 Z"
      /><rect x="421" y="94" width="6" style="fill:white; stroke:none;" height="13"
      /><path style="stroke:none;" d="M423.0938 100.2031 C423.0938 98.6562 423.75 97.8125 424.7969 97.8125 C425.7188 97.8125 426.2656 98.4531 426.2656 99.5156 C426.2656 100.7188 425.5 101.4375 424.1875 101.7031 L424.2969 102.3125 C426.2188 102.2344 426.9375 103.2188 426.9375 104.4375 C426.9375 105.625 426.2344 106.4219 424.9531 106.4219 C424.25 106.4219 423.6562 106.1562 423.0938 105.7188 L423.0938 100.2031 ZM422.2031 106.9062 L422.1094 109.375 L422.2656 109.4844 L423.1562 109.2656 L423.0156 106.0938 C423.5469 106.8438 424.3594 107.1719 425.1719 107.1719 C426.5625 107.1719 427.8594 106.2188 427.8594 104.4844 C427.8594 102.9531 426.875 102.1094 425.125 102 C426.5625 101.6094 427.1875 100.4531 427.1875 99.4844 C427.1875 98.0938 426.1562 97.3125 424.9062 97.3125 C423.2969 97.3125 422.2188 98.5469 422.2188 100.5156 L422.2031 106.9062 Z"
    /></g
  ></g
></svg
>
