<?xml version="1.0"?>
<!DOCTYPE svg PUBLIC '-//W3C//DTD SVG 1.0//EN'
          'http://www.w3.org/TR/2001/REC-SVG-20010904/DTD/svg10.dtd'>
<svg xmlns:xlink="http://www.w3.org/1999/xlink" style="fill-opacity:1; color-rendering:auto; color-interpolation:auto; text-rendering:auto; stroke:black; stroke-linecap:square; stroke-miterlimit:10; shape-rendering:auto; stroke-opacity:1; fill:black; stroke-dasharray:none; font-weight:normal; stroke-width:1; font-family:'Dialog'; font-style:normal; stroke-linejoin:miter; font-size:12px; stroke-dashoffset:0; image-rendering:auto;" viewBox="0 0 394 222" xmlns="http://www.w3.org/2000/svg"
><!--Generated by the Batik Graphics2D SVG Generator--><defs id="genericDefs"
  /><g
  ><defs id="defs1"
    ><clipPath clipPathUnits="userSpaceOnUse" id="clipPath1"
      ><path style="fill-rule:evenodd;" d="M312 78 L306 85 L295 85 L290 78 L295 70 L306 70 L312 78 Z"
      /></clipPath
      ><clipPath clipPathUnits="userSpaceOnUse" id="clipPath2"
      ><path style="fill-rule:evenodd;" d="M260 116 L254 123 L243 123 L238 116 L243 108 L254 108 L260 116 Z"
      /></clipPath
      ><clipPath clipPathUnits="userSpaceOnUse" id="clipPath3"
      ><path style="fill-rule:evenodd;" d="M208 116 L202 123 L191 123 L186 116 L191 108 L202 108 L208 116 Z"
      /></clipPath
      ><clipPath clipPathUnits="userSpaceOnUse" id="clipPath4"
      ><path d="M156 155 C156 161.0751 151.0751 166 145 166 C138.9249 166 134 161.0751 134 155 C134 148.9249 138.9249 144 145 144 C151.0751 144 156 148.9249 156 155 Z"
      /></clipPath
      ><clipPath clipPathUnits="userSpaceOnUse" id="clipPath5"
      ><path d="M104 181 C104 187.0751 99.0751 192 93 192 C86.9249 192 82 187.0751 82 181 C82 174.9249 86.9249 170 93 170 C99.0751 170 104 174.9249 104 181 Z"
      /></clipPath
      ><clipPath clipPathUnits="userSpaceOnUse" id="clipPath6"
      ><path d="M52 181 C52 187.0751 47.0751 192 41 192 C34.9249 192 30 187.0751 30 181 C30 174.9249 34.9249 170 41 170 C47.0751 170 52 174.9249 52 181 Z"
      /></clipPath
      ><clipPath clipPathUnits="userSpaceOnUse" id="clipPath7"
      ><path d="M82 118 L104 118 L104 140 L82 140 L82 118 Z"
      /></clipPath
      ><clipPath clipPathUnits="userSpaceOnUse" id="clipPath8"
      ><path style="fill-rule:evenodd;" d="M156 77 L150 84 L139 84 L134 77 L139 69 L150 69 L156 77 Z"
      /></clipPath
      ><clipPath clipPathUnits="userSpaceOnUse" id="clipPath9"
      ><path d="M82 66 L104 66 L104 88 L82 88 L82 66 Z"
      /></clipPath
      ><clipPath clipPathUnits="userSpaceOnUse" id="clipPath10"
      ><path style="fill-rule:evenodd;" d="M260 41 L254 48 L243 48 L238 41 L243 33 L254 33 L260 41 Z"
      /></clipPath
      ><clipPath clipPathUnits="userSpaceOnUse" id="clipPath11"
      ><path style="fill-rule:evenodd;" d="M208 41 L202 48 L191 48 L186 41 L191 33 L202 33 L208 41 Z"
      /></clipPath
    ></defs
    ><g style="fill:white; text-rendering:optimizeSpeed; stroke:white;"
    ><rect x="0" width="394" height="222" y="0" style="stroke:none;"
      /><polygon style="fill:none; stroke:black;" points=" 353 78 301 78"
      /><path d="M353 67 C347.5 72.5 358.5 83.5 353 89" style="fill:none; stroke:black;"
      /><polygon style="fill:none; stroke:black;" points=" 301 78 249 116"
      /><polygon style="fill:none; stroke:black;" points=" 301 78 249 41"
      /><polygon style="clip-path:url(#clipPath1); stroke:none;" points=" 312 78 306 85 295 85 290 78 295 70 306 70 312 78"
      /><rect x="290" y="67" width="22" style="clip-path:url(#clipPath1); fill:rgb(255,212,0); stroke:none;" height="22"
      /><rect x="290" y="67" width="22" style="clip-path:url(#clipPath1); fill:none; stroke:black;" height="22"
      /><polygon style="fill:none; stroke:black;" points=" 312 78 306 85 295 85 290 78 295 70 306 70 312 78"
      /><polygon style="fill:none; stroke:black;" points=" 249 116 197 116"
      /><polygon style="clip-path:url(#clipPath2); stroke:none;" points=" 260 116 254 123 243 123 238 116 243 108 254 108 260 116"
      /><rect x="238" y="105" width="22" style="clip-path:url(#clipPath2); fill:rgb(0,166,81); stroke:none;" height="22"
      /><rect x="238" y="105" width="22" style="clip-path:url(#clipPath2); fill:none; stroke:black;" height="22"
      /><polygon style="fill:none; stroke:black;" points=" 260 116 254 123 243 123 238 116 243 108 254 108 260 116"
      /><rect x="241" y="87" width="15" style="stroke:none;" height="10"
    /></g
    ><g style="text-rendering:optimizeSpeed; font-size:14px; font-family:'SansSerif';"
    ><path style="stroke:none;" d="M242.6094 94.1562 L244.9531 90.6562 C245.2344 90.1406 245.5156 89.6406 245.7812 89.1406 L245.8281 89.1406 C245.7969 89.6719 245.7656 90.5 245.7656 91 L245.7656 94.1562 L242.6094 94.1562 ZM245.7656 98 L246.9688 98 L246.9688 95.1719 L248.3281 95.1719 L248.3281 94.1562 L246.9688 94.1562 L246.9688 87.7188 L245.5469 87.7188 L241.2812 94.3281 L241.2812 95.1719 L245.7656 95.1719 L245.7656 98 ZM250.1762 98 L251.4731 98 L251.4731 93.9219 L253.1606 93.9219 C255.4262 93.9219 256.9418 92.9219 256.9418 90.75 C256.9418 88.5156 255.4106 87.7188 253.1137 87.7188 L250.1762 87.7188 L250.1762 98 ZM251.4731 92.875 L251.4731 88.7812 L252.9418 88.7812 C254.7543 88.7812 255.6606 89.2656 255.6606 90.75 C255.6606 92.2188 254.8012 92.875 253.0043 92.875 L251.4731 92.875 Z"
      /><polygon style="fill:none;" points=" 197 116 145 155"
      /><polygon style="fill:none;" points=" 197 116 145 77"
    /></g
    ><g style="fill:white; text-rendering:optimizeSpeed; stroke:white;"
    ><polygon style="stroke:none; clip-path:url(#clipPath3);" points=" 208 116 202 123 191 123 186 116 191 108 202 108 208 116"
      /><rect x="186" y="105" width="22" style="clip-path:url(#clipPath3); fill:rgb(0,166,81); stroke:none;" height="22"
      /><rect x="186" y="105" width="22" style="clip-path:url(#clipPath3); fill:none; stroke:black;" height="22"
      /><polygon style="fill:none; stroke:black;" points=" 208 116 202 123 191 123 186 116 191 108 202 108 208 116"
      /><rect x="189" width="15" height="10" y="87" style="stroke:none;"
    /></g
    ><g style="text-rendering:optimizeSpeed; font-size:14px; font-family:'SansSerif';"
    ><path style="stroke:none;" d="M190.6094 94.1562 L192.9531 90.6562 C193.2344 90.1406 193.5156 89.6406 193.7812 89.1406 L193.8281 89.1406 C193.7969 89.6719 193.7656 90.5 193.7656 91 L193.7656 94.1562 L190.6094 94.1562 ZM193.7656 98 L194.9688 98 L194.9688 95.1719 L196.3281 95.1719 L196.3281 94.1562 L194.9688 94.1562 L194.9688 87.7188 L193.5469 87.7188 L189.2812 94.3281 L189.2812 95.1719 L193.7656 95.1719 L193.7656 98 ZM198.1762 98 L199.4731 98 L199.4731 93.9219 L201.1606 93.9219 C203.4262 93.9219 204.9418 92.9219 204.9418 90.75 C204.9418 88.5156 203.4106 87.7188 201.1137 87.7188 L198.1762 87.7188 L198.1762 98 ZM199.4731 92.875 L199.4731 88.7812 L200.9418 88.7812 C202.7543 88.7812 203.6606 89.2656 203.6606 90.75 C203.6606 92.2188 202.8012 92.875 201.0043 92.875 L199.4731 92.875 Z"
      /><polygon style="fill:none;" points=" 145 155 93 181"
      /><polygon style="fill:none;" points=" 145 155 93 129"
    /></g
    ><g style="fill:white; text-rendering:optimizeSpeed; stroke:white;"
    ><circle r="11" style="clip-path:url(#clipPath4); stroke:none;" cx="145" cy="155"
      /><rect x="134" y="144" width="22" style="clip-path:url(#clipPath4); fill:rgb(0,144,188); stroke:none;" height="22"
      /><rect x="134" y="144" width="22" style="clip-path:url(#clipPath4); fill:none; stroke:black;" height="22"
      /><circle r="11" style="fill:none; stroke:black;" cx="145" cy="155"
      /><polygon style="fill:none; stroke:black;" points=" 93 181 41 181"
      /><circle r="11" style="clip-path:url(#clipPath5); stroke:none;" cx="93" cy="181"
      /><rect x="82" y="170" width="22" style="clip-path:url(#clipPath5); fill:rgb(0,144,188); stroke:none;" height="22"
      /><rect x="82" y="170" width="22" style="clip-path:url(#clipPath5); fill:none; stroke:black;" height="22"
      /><circle r="11" style="fill:none; stroke:black;" cx="93" cy="181"
      /><circle r="11" style="clip-path:url(#clipPath6); stroke:none;" cx="41" cy="181"
      /><rect x="30" y="170" width="22" style="clip-path:url(#clipPath6); fill:rgb(0,144,188); stroke:none;" height="22"
      /><rect x="30" y="170" width="22" style="clip-path:url(#clipPath6); fill:none; stroke:black;" height="22"
      /><circle r="11" style="fill:none; stroke:black;" cx="41" cy="181"
      /><rect x="71" width="5" height="10" y="184" style="stroke:none;"
      /><path d="M72.8906 192.6875 C72.4844 192.6875 72.1562 193.0469 72.1562 193.4219 C72.1562 193.8125 72.4844 194.1562 72.8906 194.1562 C73.2969 194.1562 73.6406 193.8125 73.6406 193.4219 C73.6406 193.0469 73.2969 192.6875 72.8906 192.6875 ZM74.4688 186.5781 C74.7188 186.8906 74.875 187.2656 74.8906 187.6562 C74.8906 188.1875 74.625 188.5 74.0312 188.7656 L73.4062 189.0156 C72.6406 189.3125 72.3906 189.5469 72.3906 189.9375 C72.3906 190.1094 72.4531 190.3438 72.5781 190.8125 L72.7344 191.3438 L73.1094 191.3438 L73.0938 190.5312 C73.0938 190.0938 73.2031 189.9688 73.7812 189.7344 L74.2031 189.5625 C75.0312 189.2188 75.4531 188.6875 75.4531 187.8438 C75.4531 186.1562 73.6562 185.1875 72.5 185.0312 C72.1094 185.125 71.9062 185.2969 71.9062 185.6406 C71.9062 185.9375 72.0625 186.1562 72.7188 186.2656 L74.4688 186.5781 Z" style="fill:black; stroke:none;"
      /><rect x="57" width="5" height="10" y="184" style="stroke:none;"
      /><path d="M58.8906 192.6875 C58.4844 192.6875 58.1562 193.0469 58.1562 193.4219 C58.1562 193.8125 58.4844 194.1562 58.8906 194.1562 C59.2969 194.1562 59.6406 193.8125 59.6406 193.4219 C59.6406 193.0469 59.2969 192.6875 58.8906 192.6875 ZM60.4688 186.5781 C60.7188 186.8906 60.875 187.2656 60.8906 187.6562 C60.8906 188.1875 60.625 188.5 60.0312 188.7656 L59.4062 189.0156 C58.6406 189.3125 58.3906 189.5469 58.3906 189.9375 C58.3906 190.1094 58.4531 190.3438 58.5781 190.8125 L58.7344 191.3438 L59.1094 191.3438 L59.0938 190.5312 C59.0938 190.0938 59.2031 189.9688 59.7812 189.7344 L60.2031 189.5625 C61.0312 189.2188 61.4531 188.6875 61.4531 187.8438 C61.4531 186.1562 59.6562 185.1875 58.5 185.0312 C58.1094 185.125 57.9062 185.2969 57.9062 185.6406 C57.9062 185.9375 58.0625 186.1562 58.7188 186.2656 L60.4688 186.5781 Z" style="fill:black; stroke:none;"
      /><rect x="82" y="118" width="22" style="clip-path:url(#clipPath7); stroke:none;" height="22"
      /><rect x="82" y="118" width="22" style="clip-path:url(#clipPath7); fill:rgb(0,144,188); stroke:none;" height="22"
      /><rect x="82" y="118" width="22" style="clip-path:url(#clipPath7); fill:none; stroke:black;" height="22"
      /><rect x="82" y="118" width="22" style="fill:none; stroke:black;" height="22"
      /><rect x="127" width="5" height="10" y="166" style="stroke:none;"
      /><path d="M128.8906 174.6875 C128.4844 174.6875 128.1562 175.0469 128.1562 175.4219 C128.1562 175.8125 128.4844 176.1562 128.8906 176.1562 C129.2969 176.1562 129.6406 175.8125 129.6406 175.4219 C129.6406 175.0469 129.2969 174.6875 128.8906 174.6875 ZM130.4688 168.5781 C130.7188 168.8906 130.875 169.2656 130.8906 169.6562 C130.8906 170.1875 130.625 170.5 130.0312 170.7656 L129.4062 171.0156 C128.6406 171.3125 128.3906 171.5469 128.3906 171.9375 C128.3906 172.1094 128.4531 172.3438 128.5781 172.8125 L128.7344 173.3438 L129.1094 173.3438 L129.0938 172.5312 C129.0938 172.0938 129.2031 171.9688 129.7812 171.7344 L130.2031 171.5625 C131.0312 171.2188 131.4531 170.6875 131.4531 169.8438 C131.4531 168.1562 129.6562 167.1875 128.5 167.0312 C128.1094 167.125 127.9062 167.2969 127.9062 167.6406 C127.9062 167.9375 128.0625 168.1562 128.7188 168.2656 L130.4688 168.5781 Z" style="fill:black; stroke:none;"
      /><rect x="112" width="5" height="10" y="174" style="stroke:none;"
      /><path d="M113.8906 182.6875 C113.4844 182.6875 113.1562 183.0469 113.1562 183.4219 C113.1562 183.8125 113.4844 184.1562 113.8906 184.1562 C114.2969 184.1562 114.6406 183.8125 114.6406 183.4219 C114.6406 183.0469 114.2969 182.6875 113.8906 182.6875 ZM115.4688 176.5781 C115.7188 176.8906 115.875 177.2656 115.8906 177.6562 C115.8906 178.1875 115.625 178.5 115.0312 178.7656 L114.4062 179.0156 C113.6406 179.3125 113.3906 179.5469 113.3906 179.9375 C113.3906 180.1094 113.4531 180.3438 113.5781 180.8125 L113.7344 181.3438 L114.1094 181.3438 L114.0938 180.5312 C114.0938 180.0938 114.2031 179.9688 114.7812 179.7344 L115.2031 179.5625 C116.0312 179.2188 116.4531 178.6875 116.4531 177.8438 C116.4531 176.1562 114.6562 175.1875 113.5 175.0312 C113.1094 175.125 112.9062 175.2969 112.9062 175.6406 C112.9062 175.9375 113.0625 176.1562 113.7188 176.2656 L115.4688 176.5781 Z" style="fill:black; stroke:none;"
      /><rect x="120" width="5" height="10" y="148" style="stroke:none;"
      /><path d="M121.8906 156.6875 C121.4844 156.6875 121.1562 157.0469 121.1562 157.4219 C121.1562 157.8125 121.4844 158.1562 121.8906 158.1562 C122.2969 158.1562 122.6406 157.8125 122.6406 157.4219 C122.6406 157.0469 122.2969 156.6875 121.8906 156.6875 ZM123.4688 150.5781 C123.7188 150.8906 123.875 151.2656 123.8906 151.6562 C123.8906 152.1875 123.625 152.5 123.0312 152.7656 L122.4062 153.0156 C121.6406 153.3125 121.3906 153.5469 121.3906 153.9375 C121.3906 154.1094 121.4531 154.3438 121.5781 154.8125 L121.7344 155.3438 L122.1094 155.3438 L122.0938 154.5312 C122.0938 154.0938 122.2031 153.9688 122.7812 153.7344 L123.2031 153.5625 C124.0312 153.2188 124.4531 152.6875 124.4531 151.8438 C124.4531 150.1562 122.6562 149.1875 121.5 149.0312 C121.1094 149.125 120.9062 149.2969 120.9062 149.6406 C120.9062 149.9375 121.0625 150.1562 121.7188 150.2656 L123.4688 150.5781 Z" style="fill:black; stroke:none;"
      /><rect x="105" width="5" height="10" y="140" style="stroke:none;"
      /><path d="M106.8906 148.6875 C106.4844 148.6875 106.1562 149.0469 106.1562 149.4219 C106.1562 149.8125 106.4844 150.1562 106.8906 150.1562 C107.2969 150.1562 107.6406 149.8125 107.6406 149.4219 C107.6406 149.0469 107.2969 148.6875 106.8906 148.6875 ZM108.4688 142.5781 C108.7188 142.8906 108.875 143.2656 108.8906 143.6562 C108.8906 144.1875 108.625 144.5 108.0312 144.7656 L107.4062 145.0156 C106.6406 145.3125 106.3906 145.5469 106.3906 145.9375 C106.3906 146.1094 106.4531 146.3438 106.5781 146.8125 L106.7344 147.3438 L107.1094 147.3438 L107.0938 146.5312 C107.0938 146.0938 107.2031 145.9688 107.7812 145.7344 L108.2031 145.5625 C109.0312 145.2188 109.4531 144.6875 109.4531 143.8438 C109.4531 142.1562 107.6562 141.1875 106.5 141.0312 C106.1094 141.125 105.9062 141.2969 105.9062 141.6406 C105.9062 141.9375 106.0625 142.1562 106.7188 142.2656 L108.4688 142.5781 Z" style="fill:black; stroke:none;"
      /><polygon style="fill:none; stroke:black;" points=" 145 77 93 77"
      /><polygon style="clip-path:url(#clipPath8); stroke:none;" points=" 156 77 150 84 139 84 134 77 139 69 150 69 156 77"
      /><rect x="134" y="66" width="22" style="clip-path:url(#clipPath8); fill:rgb(0,166,81); stroke:none;" height="22"
      /><rect x="134" y="66" width="22" style="clip-path:url(#clipPath8); fill:none; stroke:black;" height="22"
      /><polygon style="fill:none; stroke:black;" points=" 156 77 150 84 139 84 134 77 139 69 150 69 156 77"
      /><rect x="82" y="66" width="22" style="clip-path:url(#clipPath9); stroke:none;" height="22"
      /><rect x="82" y="66" width="22" style="clip-path:url(#clipPath9); fill:rgb(0,144,188); stroke:none;" height="22"
      /><rect x="82" y="66" width="22" style="clip-path:url(#clipPath9); fill:none; stroke:black;" height="22"
      /><rect x="82" y="66" width="22" style="fill:none; stroke:black;" height="22"
      /><rect x="123" width="5" height="10" y="80" style="stroke:none;"
      /><path d="M124.8906 88.6875 C124.4844 88.6875 124.1562 89.0469 124.1562 89.4219 C124.1562 89.8125 124.4844 90.1562 124.8906 90.1562 C125.2969 90.1562 125.6406 89.8125 125.6406 89.4219 C125.6406 89.0469 125.2969 88.6875 124.8906 88.6875 ZM126.4688 82.5781 C126.7188 82.8906 126.875 83.2656 126.8906 83.6562 C126.8906 84.1875 126.625 84.5 126.0312 84.7656 L125.4062 85.0156 C124.6406 85.3125 124.3906 85.5469 124.3906 85.9375 C124.3906 86.1094 124.4531 86.3438 124.5781 86.8125 L124.7344 87.3438 L125.1094 87.3438 L125.0938 86.5312 C125.0938 86.0938 125.2031 85.9688 125.7812 85.7344 L126.2031 85.5625 C127.0312 85.2188 127.4531 84.6875 127.4531 83.8438 C127.4531 82.1562 125.6562 81.1875 124.5 81.0312 C124.1094 81.125 123.9062 81.2969 123.9062 81.6406 C123.9062 81.9375 124.0625 82.1562 124.7188 82.2656 L126.4688 82.5781 Z" style="fill:black; stroke:none;"
      /><rect x="109" width="5" height="10" y="80" style="stroke:none;"
      /><path d="M110.8906 88.6875 C110.4844 88.6875 110.1562 89.0469 110.1562 89.4219 C110.1562 89.8125 110.4844 90.1562 110.8906 90.1562 C111.2969 90.1562 111.6406 89.8125 111.6406 89.4219 C111.6406 89.0469 111.2969 88.6875 110.8906 88.6875 ZM112.4688 82.5781 C112.7188 82.8906 112.875 83.2656 112.8906 83.6562 C112.8906 84.1875 112.625 84.5 112.0312 84.7656 L111.4062 85.0156 C110.6406 85.3125 110.3906 85.5469 110.3906 85.9375 C110.3906 86.1094 110.4531 86.3438 110.5781 86.8125 L110.7344 87.3438 L111.1094 87.3438 L111.0938 86.5312 C111.0938 86.0938 111.2031 85.9688 111.7812 85.7344 L112.2031 85.5625 C113.0312 85.2188 113.4531 84.6875 113.4531 83.8438 C113.4531 82.1562 111.6562 81.1875 110.5 81.0312 C110.1094 81.125 109.9062 81.2969 109.9062 81.6406 C109.9062 81.9375 110.0625 82.1562 110.7188 82.2656 L112.4688 82.5781 Z" style="fill:black; stroke:none;"
      /><rect x="181" width="5" height="10" y="130" style="stroke:none;"
      /><path d="M182.8906 138.6875 C182.4844 138.6875 182.1562 139.0469 182.1562 139.4219 C182.1562 139.8125 182.4844 140.1562 182.8906 140.1562 C183.2969 140.1562 183.6406 139.8125 183.6406 139.4219 C183.6406 139.0469 183.2969 138.6875 182.8906 138.6875 ZM184.4688 132.5781 C184.7188 132.8906 184.875 133.2656 184.8906 133.6562 C184.8906 134.1875 184.625 134.5 184.0312 134.7656 L183.4062 135.0156 C182.6406 135.3125 182.3906 135.5469 182.3906 135.9375 C182.3906 136.1094 182.4531 136.3438 182.5781 136.8125 L182.7344 137.3438 L183.1094 137.3438 L183.0938 136.5312 C183.0938 136.0938 183.2031 135.9688 183.7812 135.7344 L184.2031 135.5625 C185.0312 135.2188 185.4531 134.6875 185.4531 133.8438 C185.4531 132.1562 183.6562 131.1875 182.5 131.0312 C182.1094 131.125 181.9062 131.2969 181.9062 131.6406 C181.9062 131.9375 182.0625 132.1562 182.7188 132.2656 L184.4688 132.5781 Z" style="fill:black; stroke:none;"
      /><rect x="164" width="5" height="10" y="143" style="stroke:none;"
      /><path d="M165.8906 151.6875 C165.4844 151.6875 165.1562 152.0469 165.1562 152.4219 C165.1562 152.8125 165.4844 153.1562 165.8906 153.1562 C166.2969 153.1562 166.6406 152.8125 166.6406 152.4219 C166.6406 152.0469 166.2969 151.6875 165.8906 151.6875 ZM167.4688 145.5781 C167.7188 145.8906 167.875 146.2656 167.8906 146.6562 C167.8906 147.1875 167.625 147.5 167.0312 147.7656 L166.4062 148.0156 C165.6406 148.3125 165.3906 148.5469 165.3906 148.9375 C165.3906 149.1094 165.4531 149.3438 165.5781 149.8125 L165.7344 150.3438 L166.1094 150.3438 L166.0938 149.5312 C166.0938 149.0938 166.2031 148.9688 166.7812 148.7344 L167.2031 148.5625 C168.0312 148.2188 168.4531 147.6875 168.4531 146.8438 C168.4531 145.1562 166.6562 144.1875 165.5 144.0312 C165.1094 144.125 164.9062 144.2969 164.9062 144.6406 C164.9062 144.9375 165.0625 145.1562 165.7188 145.2656 L167.4688 145.5781 Z" style="fill:black; stroke:none;"
      /><rect x="172" width="5" height="10" y="104" style="stroke:none;"
      /><path d="M173.8906 112.6875 C173.4844 112.6875 173.1562 113.0469 173.1562 113.4219 C173.1562 113.8125 173.4844 114.1562 173.8906 114.1562 C174.2969 114.1562 174.6406 113.8125 174.6406 113.4219 C174.6406 113.0469 174.2969 112.6875 173.8906 112.6875 ZM175.4688 106.5781 C175.7188 106.8906 175.875 107.2656 175.8906 107.6562 C175.8906 108.1875 175.625 108.5 175.0312 108.7656 L174.4062 109.0156 C173.6406 109.3125 173.3906 109.5469 173.3906 109.9375 C173.3906 110.1094 173.4531 110.3438 173.5781 110.8125 L173.7344 111.3438 L174.1094 111.3438 L174.0938 110.5312 C174.0938 110.0938 174.2031 109.9688 174.7812 109.7344 L175.2031 109.5625 C176.0312 109.2188 176.4531 108.6875 176.4531 107.8438 C176.4531 106.1562 174.6562 105.1875 173.5 105.0312 C173.1094 105.125 172.9062 105.2969 172.9062 105.6406 C172.9062 105.9375 173.0625 106.1562 173.7188 106.2656 L175.4688 106.5781 Z" style="fill:black; stroke:none;"
      /><rect x="155" width="5" height="10" y="91" style="stroke:none;"
      /><path d="M156.8906 99.6875 C156.4844 99.6875 156.1562 100.0469 156.1562 100.4219 C156.1562 100.8125 156.4844 101.1562 156.8906 101.1562 C157.2969 101.1562 157.6406 100.8125 157.6406 100.4219 C157.6406 100.0469 157.2969 99.6875 156.8906 99.6875 ZM158.4688 93.5781 C158.7188 93.8906 158.875 94.2656 158.8906 94.6562 C158.8906 95.1875 158.625 95.5 158.0312 95.7656 L157.4062 96.0156 C156.6406 96.3125 156.3906 96.5469 156.3906 96.9375 C156.3906 97.1094 156.4531 97.3438 156.5781 97.8125 L156.7344 98.3438 L157.1094 98.3438 L157.0938 97.5312 C157.0938 97.0938 157.2031 96.9688 157.7812 96.7344 L158.2031 96.5625 C159.0312 96.2188 159.4531 95.6875 159.4531 94.8438 C159.4531 93.1562 157.6562 92.1875 156.5 92.0312 C156.1094 92.125 155.9062 92.2969 155.9062 92.6406 C155.9062 92.9375 156.0625 93.1562 156.7188 93.2656 L158.4688 93.5781 Z" style="fill:black; stroke:none;"
      /><rect x="227" width="5" height="10" y="119" style="stroke:none;"
      /><path d="M228.8906 127.6875 C228.4844 127.6875 228.1562 128.0469 228.1562 128.4219 C228.1562 128.8125 228.4844 129.1562 228.8906 129.1562 C229.2969 129.1562 229.6406 128.8125 229.6406 128.4219 C229.6406 128.0469 229.2969 127.6875 228.8906 127.6875 ZM230.4688 121.5781 C230.7188 121.8906 230.875 122.2656 230.8906 122.6562 C230.8906 123.1875 230.625 123.5 230.0312 123.7656 L229.4062 124.0156 C228.6406 124.3125 228.3906 124.5469 228.3906 124.9375 C228.3906 125.1094 228.4531 125.3438 228.5781 125.8125 L228.7344 126.3438 L229.1094 126.3438 L229.0938 125.5312 C229.0938 125.0938 229.2031 124.9688 229.7812 124.7344 L230.2031 124.5625 C231.0312 124.2188 231.4531 123.6875 231.4531 122.8438 C231.4531 121.1562 229.6562 120.1875 228.5 120.0312 C228.1094 120.125 227.9062 120.2969 227.9062 120.6406 C227.9062 120.9375 228.0625 121.1562 228.7188 121.2656 L230.4688 121.5781 Z" style="fill:black; stroke:none;"
      /><rect x="213" width="5" height="10" y="119" style="stroke:none;"
      /><path d="M214.8906 127.6875 C214.4844 127.6875 214.1562 128.0469 214.1562 128.4219 C214.1562 128.8125 214.4844 129.1562 214.8906 129.1562 C215.2969 129.1562 215.6406 128.8125 215.6406 128.4219 C215.6406 128.0469 215.2969 127.6875 214.8906 127.6875 ZM216.4688 121.5781 C216.7188 121.8906 216.875 122.2656 216.8906 122.6562 C216.8906 123.1875 216.625 123.5 216.0312 123.7656 L215.4062 124.0156 C214.6406 124.3125 214.3906 124.5469 214.3906 124.9375 C214.3906 125.1094 214.4531 125.3438 214.5781 125.8125 L214.7344 126.3438 L215.1094 126.3438 L215.0938 125.5312 C215.0938 125.0938 215.2031 124.9688 215.7812 124.7344 L216.2031 124.5625 C217.0312 124.2188 217.4531 123.6875 217.4531 122.8438 C217.4531 121.1562 215.6562 120.1875 214.5 120.0312 C214.1094 120.125 213.9062 120.2969 213.9062 120.6406 C213.9062 120.9375 214.0625 121.1562 214.7188 121.2656 L216.4688 121.5781 Z" style="fill:black; stroke:none;"
      /><polygon style="fill:none; stroke:black;" points=" 249 41 197 41"
      /><polygon style="clip-path:url(#clipPath10); stroke:none;" points=" 260 41 254 48 243 48 238 41 243 33 254 33 260 41"
      /><rect x="238" y="30" width="22" style="clip-path:url(#clipPath10); fill:rgb(255,212,0); stroke:none;" height="22"
      /><rect x="238" y="30" width="22" style="clip-path:url(#clipPath10); fill:none; stroke:black;" height="22"
      /><polygon style="fill:none; stroke:black;" points=" 260 41 254 48 243 48 238 41 243 33 254 33 260 41"
      /><polygon style="clip-path:url(#clipPath11); stroke:none;" points=" 208 41 202 48 191 48 186 41 191 33 202 33 208 41"
      /><rect x="186" y="30" width="22" style="clip-path:url(#clipPath11); fill:rgb(255,212,0); stroke:none;" height="22"
      /><rect x="186" y="30" width="22" style="clip-path:url(#clipPath11); fill:none; stroke:black;" height="22"
      /><polygon style="fill:none; stroke:black;" points=" 208 41 202 48 191 48 186 41 191 33 202 33 208 41"
      /><rect x="227" width="5" height="10" y="44" style="stroke:none;"
      /><path d="M228.8906 52.6875 C228.4844 52.6875 228.1562 53.0469 228.1562 53.4219 C228.1562 53.8125 228.4844 54.1562 228.8906 54.1562 C229.2969 54.1562 229.6406 53.8125 229.6406 53.4219 C229.6406 53.0469 229.2969 52.6875 228.8906 52.6875 ZM230.4688 46.5781 C230.7188 46.8906 230.875 47.2656 230.8906 47.6562 C230.8906 48.1875 230.625 48.5 230.0312 48.7656 L229.4062 49.0156 C228.6406 49.3125 228.3906 49.5469 228.3906 49.9375 C228.3906 50.1094 228.4531 50.3438 228.5781 50.8125 L228.7344 51.3438 L229.1094 51.3438 L229.0938 50.5312 C229.0938 50.0938 229.2031 49.9688 229.7812 49.7344 L230.2031 49.5625 C231.0312 49.2188 231.4531 48.6875 231.4531 47.8438 C231.4531 46.1562 229.6562 45.1875 228.5 45.0312 C228.1094 45.125 227.9062 45.2969 227.9062 45.6406 C227.9062 45.9375 228.0625 46.1562 228.7188 46.2656 L230.4688 46.5781 Z" style="fill:black; stroke:none;"
      /><rect x="213" width="5" height="10" y="44" style="stroke:none;"
      /><path d="M214.8906 52.6875 C214.4844 52.6875 214.1562 53.0469 214.1562 53.4219 C214.1562 53.8125 214.4844 54.1562 214.8906 54.1562 C215.2969 54.1562 215.6406 53.8125 215.6406 53.4219 C215.6406 53.0469 215.2969 52.6875 214.8906 52.6875 ZM216.4688 46.5781 C216.7188 46.8906 216.875 47.2656 216.8906 47.6562 C216.8906 48.1875 216.625 48.5 216.0312 48.7656 L215.4062 49.0156 C214.6406 49.3125 214.3906 49.5469 214.3906 49.9375 C214.3906 50.1094 214.4531 50.3438 214.5781 50.8125 L214.7344 51.3438 L215.1094 51.3438 L215.0938 50.5312 C215.0938 50.0938 215.2031 49.9688 215.7812 49.7344 L216.2031 49.5625 C217.0312 49.2188 217.4531 48.6875 217.4531 47.8438 C217.4531 46.1562 215.6562 45.1875 214.5 45.0312 C214.1094 45.125 213.9062 45.2969 213.9062 45.6406 C213.9062 45.9375 214.0625 46.1562 214.7188 46.2656 L216.4688 46.5781 Z" style="fill:black; stroke:none;"
      /><rect x="285" width="5" height="10" y="92" style="stroke:none;"
      /><path d="M286.8906 100.6875 C286.4844 100.6875 286.1562 101.0469 286.1562 101.4219 C286.1562 101.8125 286.4844 102.1562 286.8906 102.1562 C287.2969 102.1562 287.6406 101.8125 287.6406 101.4219 C287.6406 101.0469 287.2969 100.6875 286.8906 100.6875 ZM288.4688 94.5781 C288.7188 94.8906 288.875 95.2656 288.8906 95.6562 C288.8906 96.1875 288.625 96.5 288.0312 96.7656 L287.4062 97.0156 C286.6406 97.3125 286.3906 97.5469 286.3906 97.9375 C286.3906 98.1094 286.4531 98.3438 286.5781 98.8125 L286.7344 99.3438 L287.1094 99.3438 L287.0938 98.5312 C287.0938 98.0938 287.2031 97.9688 287.7812 97.7344 L288.2031 97.5625 C289.0312 97.2188 289.4531 96.6875 289.4531 95.8438 C289.4531 94.1562 287.6562 93.1875 286.5 93.0312 C286.1094 93.125 285.9062 93.2969 285.9062 93.6406 C285.9062 93.9375 286.0625 94.1562 286.7188 94.2656 L288.4688 94.5781 Z" style="fill:black; stroke:none;"
      /><rect x="268" width="5" height="10" y="104" style="stroke:none;"
      /><path d="M269.8906 112.6875 C269.4844 112.6875 269.1562 113.0469 269.1562 113.4219 C269.1562 113.8125 269.4844 114.1562 269.8906 114.1562 C270.2969 114.1562 270.6406 113.8125 270.6406 113.4219 C270.6406 113.0469 270.2969 112.6875 269.8906 112.6875 ZM271.4688 106.5781 C271.7188 106.8906 271.875 107.2656 271.8906 107.6562 C271.8906 108.1875 271.625 108.5 271.0312 108.7656 L270.4062 109.0156 C269.6406 109.3125 269.3906 109.5469 269.3906 109.9375 C269.3906 110.1094 269.4531 110.3438 269.5781 110.8125 L269.7344 111.3438 L270.1094 111.3438 L270.0938 110.5312 C270.0938 110.0938 270.2031 109.9688 270.7812 109.7344 L271.2031 109.5625 C272.0312 109.2188 272.4531 108.6875 272.4531 107.8438 C272.4531 106.1562 270.6562 105.1875 269.5 105.0312 C269.1094 105.125 268.9062 105.2969 268.9062 105.6406 C268.9062 105.9375 269.0625 106.1562 269.7188 106.2656 L271.4688 106.5781 Z" style="fill:black; stroke:none;"
      /><rect x="276" width="5" height="10" y="67" style="stroke:none;"
      /><path d="M277.8906 75.6875 C277.4844 75.6875 277.1562 76.0469 277.1562 76.4219 C277.1562 76.8125 277.4844 77.1562 277.8906 77.1562 C278.2969 77.1562 278.6406 76.8125 278.6406 76.4219 C278.6406 76.0469 278.2969 75.6875 277.8906 75.6875 ZM279.4688 69.5781 C279.7188 69.8906 279.875 70.2656 279.8906 70.6562 C279.8906 71.1875 279.625 71.5 279.0312 71.7656 L278.4062 72.0156 C277.6406 72.3125 277.3906 72.5469 277.3906 72.9375 C277.3906 73.1094 277.4531 73.3438 277.5781 73.8125 L277.7344 74.3438 L278.1094 74.3438 L278.0938 73.5312 C278.0938 73.0938 278.2031 72.9688 278.7812 72.7344 L279.2031 72.5625 C280.0312 72.2188 280.4531 71.6875 280.4531 70.8438 C280.4531 69.1562 278.6562 68.1875 277.5 68.0312 C277.1094 68.125 276.9062 68.2969 276.9062 68.6406 C276.9062 68.9375 277.0625 69.1562 277.7188 69.2656 L279.4688 69.5781 Z" style="fill:black; stroke:none;"
      /><rect x="259" width="5" height="10" y="54" style="stroke:none;"
      /><path d="M260.8906 62.6875 C260.4844 62.6875 260.1562 63.0469 260.1562 63.4219 C260.1562 63.8125 260.4844 64.1562 260.8906 64.1562 C261.2969 64.1562 261.6406 63.8125 261.6406 63.4219 C261.6406 63.0469 261.2969 62.6875 260.8906 62.6875 ZM262.4688 56.5781 C262.7188 56.8906 262.875 57.2656 262.8906 57.6562 C262.8906 58.1875 262.625 58.5 262.0312 58.7656 L261.4062 59.0156 C260.6406 59.3125 260.3906 59.5469 260.3906 59.9375 C260.3906 60.1094 260.4531 60.3438 260.5781 60.8125 L260.7344 61.3438 L261.1094 61.3438 L261.0938 60.5312 C261.0938 60.0938 261.2031 59.9688 261.7812 59.7344 L262.2031 59.5625 C263.0312 59.2188 263.4531 58.6875 263.4531 57.8438 C263.4531 56.1562 261.6562 55.1875 260.5 55.0312 C260.1094 55.125 259.9062 55.2969 259.9062 55.6406 C259.9062 55.9375 260.0625 56.1562 260.7188 56.2656 L262.4688 56.5781 Z" style="fill:black; stroke:none;"
      /><rect x="317" width="5" height="10" y="81" style="stroke:none;"
      /><path d="M318.8906 89.6875 C318.4844 89.6875 318.1562 90.0469 318.1562 90.4219 C318.1562 90.8125 318.4844 91.1562 318.8906 91.1562 C319.2969 91.1562 319.6406 90.8125 319.6406 90.4219 C319.6406 90.0469 319.2969 89.6875 318.8906 89.6875 ZM320.4688 83.5781 C320.7188 83.8906 320.875 84.2656 320.8906 84.6562 C320.8906 85.1875 320.625 85.5 320.0312 85.7656 L319.4062 86.0156 C318.6406 86.3125 318.3906 86.5469 318.3906 86.9375 C318.3906 87.1094 318.4531 87.3438 318.5781 87.8125 L318.7344 88.3438 L319.1094 88.3438 L319.0938 87.5312 C319.0938 87.0938 319.2031 86.9688 319.7812 86.7344 L320.2031 86.5625 C321.0312 86.2188 321.4531 85.6875 321.4531 84.8438 C321.4531 83.1562 319.6562 82.1875 318.5 82.0312 C318.1094 82.125 317.9062 82.2969 317.9062 82.6406 C317.9062 82.9375 318.0625 83.1562 318.7188 83.2656 L320.4688 83.5781 Z" style="fill:black; stroke:none;"
    /></g
  ></g
></svg
>
