<?xml version="1.0"?>
<!DOCTYPE svg PUBLIC '-//W3C//DTD SVG 1.0//EN'
          'http://www.w3.org/TR/2001/REC-SVG-20010904/DTD/svg10.dtd'>
<svg xmlns:xlink="http://www.w3.org/1999/xlink" style="fill-opacity:1; color-rendering:auto; color-interpolation:auto; text-rendering:auto; stroke:black; stroke-linecap:square; stroke-miterlimit:10; shape-rendering:auto; stroke-opacity:1; fill:black; stroke-dasharray:none; font-weight:normal; stroke-width:1; font-family:'Dialog'; font-style:normal; stroke-linejoin:miter; font-size:12px; stroke-dashoffset:0; image-rendering:auto;" viewBox="0 0 398 105" xmlns="http://www.w3.org/2000/svg"
><!--Generated by the Batik Graphics2D SVG Generator--><defs id="genericDefs"
  /><g
  ><defs id="defs1"
    ><clipPath clipPathUnits="userSpaceOnUse" id="clipPath1"
      ><path d="M316 64 C316 70.0751 311.0751 75 305 75 C298.9249 75 294 70.0751 294 64 C294 57.9249 298.9249 53 305 53 C311.0751 53 316 57.9249 316 64 Z"
      /></clipPath
      ><clipPath clipPathUnits="userSpaceOnUse" id="clipPath2"
      ><path d="M237 64 C237 70.0751 232.0751 75 226 75 C219.9249 75 215 70.0751 215 64 C215 57.9249 219.9249 53 226 53 C232.0751 53 237 57.9249 237 64 Z"
      /></clipPath
      ><clipPath clipPathUnits="userSpaceOnUse" id="clipPath3"
      ><path d="M158 64 C158 70.0751 153.0751 75 147 75 C140.9249 75 136 70.0751 136 64 C136 57.9249 140.9249 53 147 53 C153.0751 53 158 57.9249 158 64 Z"
      /></clipPath
      ><clipPath clipPathUnits="userSpaceOnUse" id="clipPath4"
      ><path d="M79 64 C79 70.0751 74.0751 75 68 75 C61.9249 75 57 70.0751 57 64 C57 57.9249 61.9249 53 68 53 C74.0751 53 79 57.9249 79 64 Z"
      /></clipPath
    ></defs
    ><g style="fill:white; text-rendering:optimizeSpeed; stroke:white;"
    ><rect x="0" width="398" height="105" y="0" style="stroke:none;"
      /><polygon style="fill:none; stroke:black;" points=" 357 64 305 64"
      /><path d="M357 53 C351.5 58.5 362.5 69.5 357 75" style="fill:none; stroke:black;"
      /><polygon style="fill:none; stroke:black;" points=" 305 64 226 64"
      /><circle style="clip-path:url(#clipPath1); stroke:none;" r="11" cx="305" cy="64"
      /><rect x="294" y="53" width="22" style="clip-path:url(#clipPath1); fill:rgb(255,212,0); stroke:none;" height="22"
      /><rect x="294" y="53" width="22" style="clip-path:url(#clipPath1); fill:none; stroke:black;" height="22"
      /><circle style="fill:none; stroke:black;" r="11" cx="305" cy="64"
      /><polygon style="fill:none; stroke:black;" points=" 226 64 147 64"
      /><circle style="clip-path:url(#clipPath2); stroke:none;" r="11" cx="226" cy="64"
      /><rect x="215" y="53" width="22" style="clip-path:url(#clipPath2); fill:rgb(255,212,0); stroke:none;" height="22"
      /><rect x="215" y="53" width="22" style="clip-path:url(#clipPath2); fill:none; stroke:black;" height="22"
      /><circle style="fill:none; stroke:black;" r="11" cx="226" cy="64"
    /></g
    ><g style="text-rendering:optimizeSpeed; font-size:10px; font-family:'SansSerif';"
    ><path style="stroke:none;" d="M224 67 L228.125 67 L228.125 66.2031 L224.9375 66.2031 L224.9375 59.6562 L224 59.6562 L224 67 Z"
      /><rect x="189" y="33" width="73" style="fill:white; stroke:none;" height="14"
      /><path style="stroke:none;" d="M192.7031 48.1875 C194.5156 48.1875 195.9844 47.0938 195.9844 45.25 C195.9844 43.8594 195.0156 42.9375 193.8125 42.6562 L193.8125 42.5938 C194.8906 42.1875 195.6406 41.3594 195.6406 40.125 C195.6406 38.5 194.375 37.5469 192.6562 37.5469 C191.4688 37.5469 190.5469 38.0625 189.7812 38.7812 L190.4688 39.5938 C191.0469 39 191.7656 38.5938 192.5938 38.5938 C193.6562 38.5938 194.3281 39.2344 194.3281 40.2188 C194.3281 41.3281 193.6094 42.1719 191.4844 42.1719 L191.4844 43.1562 C193.8594 43.1562 194.6875 43.9844 194.6875 45.2031 C194.6875 46.3906 193.8125 47.125 192.5938 47.125 C191.4375 47.125 190.6562 46.5781 190.0469 45.9375 L189.4062 46.7812 C190.0781 47.5156 191.0938 48.1875 192.7031 48.1875 ZM197.8168 50.6562 C199.0825 50.125 199.8637 49.0781 199.8637 47.7344 C199.8637 46.7969 199.4575 46.2188 198.7856 46.2188 C198.27 46.2188 197.8168 46.5781 197.8168 47.125 C197.8168 47.7031 198.27 48.0156 198.7543 48.0156 C198.8168 48.0156 198.8637 48.0156 198.9106 48 C198.9106 48.8281 198.395 49.5156 197.5043 49.9062 L197.8168 50.6562 ZM204.7713 42.5781 C206.0057 42.5781 206.6307 43.4688 206.6307 44.8438 C206.6307 46.25 205.8495 47.1875 204.8807 47.1875 C203.5838 47.1875 202.8182 46.0312 202.662 43.8906 C203.287 42.9531 204.1151 42.5781 204.7713 42.5781 ZM204.8807 48.1875 C206.4745 48.1875 207.8182 46.8438 207.8182 44.8438 C207.8182 42.7031 206.7088 41.625 204.9745 41.625 C204.162 41.625 203.2713 42.1094 202.6307 42.875 C202.6932 39.6875 203.8807 38.6094 205.287 38.6094 C205.912 38.6094 206.5213 38.9062 206.9276 39.3906 L207.6307 38.5938 C207.0682 37.9844 206.3026 37.5469 205.2401 37.5469 C203.2557 37.5469 201.4432 39.0781 201.4432 43.0938 C201.4432 46.4844 202.8963 48.1875 204.8807 48.1875 ZM211.6038 42.2656 C211.9788 41.0938 212.3069 39.9844 212.6351 38.7812 L212.6819 38.7812 C213.0257 39.9844 213.3382 41.0938 213.7288 42.2656 L214.2132 43.8281 L211.1038 43.8281 L211.6038 42.2656 ZM208.4788 48 L209.7913 48 L210.7913 44.8594 L214.5413 44.8594 L215.5101 48 L216.8851 48 L213.4007 37.7188 L211.9632 37.7188 L208.4788 48 ZM218.2112 48 L219.4924 48 L219.4924 42.4844 C220.258 41.7188 220.7893 41.3281 221.5705 41.3281 C222.5862 41.3281 223.0237 41.9219 223.0237 43.3594 L223.0237 48 L224.2893 48 L224.2893 43.1875 C224.2893 41.2344 223.5705 40.2031 221.9768 40.2031 C220.9299 40.2031 220.1487 40.7812 219.4143 41.4844 L219.383 41.4844 L219.2737 40.3906 L218.2112 40.3906 L218.2112 48 ZM226.7651 48 L228.0464 48 L228.0464 42.4844 C228.812 41.7188 229.3432 41.3281 230.1245 41.3281 C231.1401 41.3281 231.5776 41.9219 231.5776 43.3594 L231.5776 48 L232.8432 48 L232.8432 43.1875 C232.8432 41.2344 232.1245 40.2031 230.5307 40.2031 C229.4839 40.2031 228.7026 40.7812 227.9995 41.4688 L228.0464 39.9062 L228.0464 36.8594 L226.7651 36.8594 L226.7651 48 ZM235.3881 51.2812 C236.9037 51.2812 237.7006 50.125 238.2162 48.625 L241.0912 40.3906 L239.8412 40.3906 L238.4975 44.625 C238.2787 45.2969 238.06 46.0625 237.8412 46.75 L237.7787 46.75 C237.5443 46.0625 237.2787 45.2812 237.0443 44.625 L235.4975 40.3906 L234.1693 40.3906 L237.2162 48.0156 L237.0443 48.5938 C236.7475 49.5312 236.2006 50.2188 235.3256 50.2188 C235.1225 50.2188 234.9037 50.1562 234.7475 50.0938 L234.4975 51.125 C234.7318 51.2188 235.0287 51.2812 235.3881 51.2812 ZM245.1508 48.1875 C246.0571 48.1875 246.8696 47.6875 247.4633 47.1094 L247.5102 47.1094 L247.6196 48 L248.6508 48 L248.6508 36.8594 L247.4008 36.8594 L247.4008 39.7812 L247.4477 41.0938 C246.7758 40.5312 246.1977 40.2031 245.3071 40.2031 C243.5727 40.2031 242.0102 41.7344 242.0102 44.2031 C242.0102 46.7344 243.2446 48.1875 245.1508 48.1875 ZM245.4321 47.125 C244.0883 47.125 243.3383 46.0312 243.3383 44.1875 C243.3383 42.4531 244.3071 41.2812 245.5258 41.2812 C246.1664 41.2812 246.7289 41.5 247.4008 42.0781 L247.4008 46.0625 C246.7446 46.7656 246.1352 47.125 245.4321 47.125 ZM251.237 48 L252.5183 48 L252.5183 43.1094 C253.0183 41.8125 253.7995 41.3594 254.4402 41.3594 C254.737 41.3594 254.9245 41.3906 255.1745 41.4844 L255.4089 40.375 C255.1745 40.25 254.9402 40.2031 254.5964 40.2031 C253.7527 40.2031 252.987 40.8125 252.4402 41.7812 L252.4089 41.7812 L252.2995 40.3906 L251.237 40.3906 L251.237 48 ZM259.6221 48.1875 C261.4971 48.1875 263.1534 46.7188 263.1534 44.2031 C263.1534 41.6719 261.4971 40.2031 259.6221 40.2031 C257.7628 40.2031 256.1065 41.6719 256.1065 44.2031 C256.1065 46.7188 257.7628 48.1875 259.6221 48.1875 ZM259.6221 47.125 C258.3096 47.125 257.4346 45.9531 257.4346 44.2031 C257.4346 42.4531 258.3096 41.2656 259.6221 41.2656 C260.9503 41.2656 261.8409 42.4531 261.8409 44.2031 C261.8409 45.9531 260.9503 47.125 259.6221 47.125 Z"
      /><polygon style="fill:none;" points=" 147 64 68 64"
    /></g
    ><g style="fill:white; text-rendering:optimizeSpeed; stroke:white;"
    ><circle r="11" style="clip-path:url(#clipPath3); stroke:none;" cx="147" cy="64"
      /><rect x="136" y="53" width="22" style="clip-path:url(#clipPath3); fill:rgb(255,212,0); stroke:none;" height="22"
      /><rect x="136" y="53" width="22" style="clip-path:url(#clipPath3); fill:none; stroke:black;" height="22"
      /><circle r="11" style="fill:none; stroke:black;" cx="147" cy="64"
      /><rect x="139" width="14" height="10" y="35" style="stroke:none;"
    /></g
    ><g style="text-rendering:optimizeSpeed; font-size:14px; font-family:'SansSerif';"
    ><path style="stroke:none;" d="M143.1094 40.5781 C144.3438 40.5781 144.9688 41.4688 144.9688 42.8438 C144.9688 44.25 144.1875 45.1875 143.2188 45.1875 C141.9219 45.1875 141.1562 44.0312 141 41.8906 C141.625 40.9531 142.4531 40.5781 143.1094 40.5781 ZM143.2188 46.1875 C144.8125 46.1875 146.1562 44.8438 146.1562 42.8438 C146.1562 40.7031 145.0469 39.625 143.3125 39.625 C142.5 39.625 141.6094 40.1094 140.9688 40.875 C141.0312 37.6875 142.2188 36.6094 143.625 36.6094 C144.25 36.6094 144.8594 36.9062 145.2656 37.3906 L145.9688 36.5938 C145.4062 35.9844 144.6406 35.5469 143.5781 35.5469 C141.5938 35.5469 139.7812 37.0781 139.7812 41.0938 C139.7812 44.4844 141.2344 46.1875 143.2188 46.1875 ZM151.02 46.1875 C153.1606 46.1875 154.5043 44.8906 154.5043 43.2656 C154.5043 41.75 153.5825 41.0469 152.395 40.5312 L150.9262 39.8906 C150.1293 39.5625 149.2387 39.1875 149.2387 38.1875 C149.2387 37.2656 149.9887 36.6719 151.145 36.6719 C152.0981 36.6719 152.8637 37.0469 153.4887 37.6406 L154.1762 36.8125 C153.4418 36.0625 152.3637 35.5469 151.145 35.5469 C149.2856 35.5469 147.9106 36.6875 147.9106 38.2656 C147.9106 39.7656 149.0512 40.5 150.0043 40.9062 L151.4887 41.5469 C152.4575 41.9844 153.1918 42.3125 153.1918 43.375 C153.1918 44.375 152.3793 45.0469 151.0356 45.0469 C149.9731 45.0469 148.9418 44.5469 148.2075 43.7812 L147.4262 44.6562 C148.3168 45.5938 149.5668 46.1875 151.02 46.1875 Z"
    /></g
    ><g style="fill:white; text-rendering:optimizeSpeed; stroke:white;"
    ><circle r="11" style="clip-path:url(#clipPath4); stroke:none;" cx="68" cy="64"
      /><rect x="57" y="53" width="22" style="clip-path:url(#clipPath4); fill:rgb(255,212,0); stroke:none;" height="22"
      /><rect x="57" y="53" width="22" style="clip-path:url(#clipPath4); fill:none; stroke:black;" height="22"
      /><circle r="11" style="fill:none; stroke:black;" cx="68" cy="64"
    /></g
    ><g style="text-rendering:optimizeSpeed; font-size:10px; font-family:'SansSerif';"
    ><path style="stroke:none;" d="M66 67 L70.125 67 L70.125 66.2031 L66.9375 66.2031 L66.9375 59.6562 L66 59.6562 L66 67 Z"
      /><rect x="31" y="33" width="73" style="fill:white; stroke:none;" height="14"
      /><path style="stroke:none;" d="M34.7031 48.1875 C36.5156 48.1875 37.9844 47.0938 37.9844 45.25 C37.9844 43.8594 37.0156 42.9375 35.8125 42.6562 L35.8125 42.5938 C36.8906 42.1875 37.6406 41.3594 37.6406 40.125 C37.6406 38.5 36.375 37.5469 34.6562 37.5469 C33.4688 37.5469 32.5469 38.0625 31.7812 38.7812 L32.4688 39.5938 C33.0469 39 33.7656 38.5938 34.5938 38.5938 C35.6562 38.5938 36.3281 39.2344 36.3281 40.2188 C36.3281 41.3281 35.6094 42.1719 33.4844 42.1719 L33.4844 43.1562 C35.8594 43.1562 36.6875 43.9844 36.6875 45.2031 C36.6875 46.3906 35.8125 47.125 34.5938 47.125 C33.4375 47.125 32.6562 46.5781 32.0469 45.9375 L31.4062 46.7812 C32.0781 47.5156 33.0938 48.1875 34.7031 48.1875 ZM39.8168 50.6562 C41.0825 50.125 41.8637 49.0781 41.8637 47.7344 C41.8637 46.7969 41.4575 46.2188 40.7856 46.2188 C40.27 46.2188 39.8168 46.5781 39.8168 47.125 C39.8168 47.7031 40.27 48.0156 40.7543 48.0156 C40.8168 48.0156 40.8637 48.0156 40.9106 48 C40.9106 48.8281 40.395 49.5156 39.5043 49.9062 L39.8168 50.6562 ZM46.7713 42.5781 C48.0057 42.5781 48.6307 43.4688 48.6307 44.8438 C48.6307 46.25 47.8495 47.1875 46.8807 47.1875 C45.5838 47.1875 44.8182 46.0312 44.662 43.8906 C45.287 42.9531 46.1151 42.5781 46.7713 42.5781 ZM46.8807 48.1875 C48.4745 48.1875 49.8182 46.8438 49.8182 44.8438 C49.8182 42.7031 48.7088 41.625 46.9745 41.625 C46.162 41.625 45.2713 42.1094 44.6307 42.875 C44.6932 39.6875 45.8807 38.6094 47.287 38.6094 C47.912 38.6094 48.5213 38.9062 48.9276 39.3906 L49.6307 38.5938 C49.0682 37.9844 48.3026 37.5469 47.2401 37.5469 C45.2557 37.5469 43.4432 39.0781 43.4432 43.0938 C43.4432 46.4844 44.8963 48.1875 46.8807 48.1875 ZM53.6038 42.2656 C53.9788 41.0938 54.3069 39.9844 54.6351 38.7812 L54.6819 38.7812 C55.0257 39.9844 55.3382 41.0938 55.7288 42.2656 L56.2132 43.8281 L53.1038 43.8281 L53.6038 42.2656 ZM50.4788 48 L51.7913 48 L52.7913 44.8594 L56.5413 44.8594 L57.5101 48 L58.8851 48 L55.4007 37.7188 L53.9632 37.7188 L50.4788 48 ZM60.2112 48 L61.4924 48 L61.4924 42.4844 C62.258 41.7188 62.7893 41.3281 63.5705 41.3281 C64.5862 41.3281 65.0237 41.9219 65.0237 43.3594 L65.0237 48 L66.2893 48 L66.2893 43.1875 C66.2893 41.2344 65.5705 40.2031 63.9768 40.2031 C62.9299 40.2031 62.1487 40.7812 61.4143 41.4844 L61.383 41.4844 L61.2737 40.3906 L60.2112 40.3906 L60.2112 48 ZM68.7651 48 L70.0464 48 L70.0464 42.4844 C70.812 41.7188 71.3432 41.3281 72.1245 41.3281 C73.1401 41.3281 73.5776 41.9219 73.5776 43.3594 L73.5776 48 L74.8432 48 L74.8432 43.1875 C74.8432 41.2344 74.1245 40.2031 72.5307 40.2031 C71.4839 40.2031 70.7026 40.7812 69.9995 41.4688 L70.0464 39.9062 L70.0464 36.8594 L68.7651 36.8594 L68.7651 48 ZM77.3881 51.2812 C78.9037 51.2812 79.7006 50.125 80.2162 48.625 L83.0912 40.3906 L81.8412 40.3906 L80.4975 44.625 C80.2787 45.2969 80.06 46.0625 79.8412 46.75 L79.7787 46.75 C79.5443 46.0625 79.2787 45.2812 79.0443 44.625 L77.4975 40.3906 L76.1693 40.3906 L79.2162 48.0156 L79.0443 48.5938 C78.7475 49.5312 78.2006 50.2188 77.3256 50.2188 C77.1225 50.2188 76.9037 50.1562 76.7475 50.0938 L76.4975 51.125 C76.7318 51.2188 77.0287 51.2812 77.3881 51.2812 ZM87.1508 48.1875 C88.0571 48.1875 88.8696 47.6875 89.4633 47.1094 L89.5102 47.1094 L89.6196 48 L90.6508 48 L90.6508 36.8594 L89.4008 36.8594 L89.4008 39.7812 L89.4477 41.0938 C88.7758 40.5312 88.1977 40.2031 87.3071 40.2031 C85.5727 40.2031 84.0102 41.7344 84.0102 44.2031 C84.0102 46.7344 85.2446 48.1875 87.1508 48.1875 ZM87.4321 47.125 C86.0883 47.125 85.3383 46.0312 85.3383 44.1875 C85.3383 42.4531 86.3071 41.2812 87.5258 41.2812 C88.1664 41.2812 88.7289 41.5 89.4008 42.0781 L89.4008 46.0625 C88.7446 46.7656 88.1352 47.125 87.4321 47.125 ZM93.237 48 L94.5183 48 L94.5183 43.1094 C95.0183 41.8125 95.7995 41.3594 96.4402 41.3594 C96.737 41.3594 96.9245 41.3906 97.1745 41.4844 L97.4089 40.375 C97.1745 40.25 96.9402 40.2031 96.5964 40.2031 C95.7527 40.2031 94.987 40.8125 94.4402 41.7812 L94.4089 41.7812 L94.2995 40.3906 L93.237 40.3906 L93.237 48 ZM101.6221 48.1875 C103.4971 48.1875 105.1534 46.7188 105.1534 44.2031 C105.1534 41.6719 103.4971 40.2031 101.6221 40.2031 C99.7628 40.2031 98.1065 41.6719 98.1065 44.2031 C98.1065 46.7188 99.7628 48.1875 101.6221 48.1875 ZM101.6221 47.125 C100.3096 47.125 99.4346 45.9531 99.4346 44.2031 C99.4346 42.4531 100.3096 41.2656 101.6221 41.2656 C102.9503 41.2656 103.8409 42.4531 103.8409 44.2031 C103.8409 45.9531 102.9503 47.125 101.6221 47.125 Z"
    /></g
    ><g style="fill:white; text-rendering:optimizeSpeed; font-family:'Serif'; stroke:white;"
    ><rect x="125" width="6" height="10" y="67" style="stroke:none;"
      /><path d="M127.2344 68.6562 C127.5156 68.5938 127.7656 68.5625 128.0156 68.5625 C129.0625 68.5625 129.6719 69.1719 129.6719 70.2656 C129.6719 71.4375 128.9062 72.1094 127.7031 72.1094 L127.1875 72.1094 L127.1875 72.6406 L127.7969 72.6406 C129.2188 72.6406 129.9062 73.4219 129.9062 74.6406 C129.9062 75.8438 129.1719 76.6875 127.875 76.6875 C127.6094 76.6875 127.3125 76.6562 127.0156 76.5625 L126.7812 75.8125 C126.625 75.2812 126.5 75.0469 126.1406 75.0469 C125.8906 75.0469 125.7031 75.1719 125.5781 75.4219 C125.8438 76.6406 126.7812 77.1719 128.0312 77.1719 C129.7188 77.1719 130.875 76.125 130.875 74.7031 C130.875 73.5 130.2031 72.625 128.7969 72.375 C129.9531 72.0156 130.6094 71.2031 130.6094 70.2031 C130.6094 68.9219 129.6719 68.0781 128.1875 68.0781 C127.0469 68.0781 126.0625 68.5938 125.7969 69.6875 C125.9062 70 126.1094 70.1094 126.3594 70.1094 C126.7344 70.1094 126.8906 69.8906 127 69.4062 L127.2344 68.6562 Z" style="fill:black; stroke:none;"
      /><rect x="110" width="8" height="8" y="68" style="stroke:none;"
      /><path d="M114.9844 73.7031 C114.9375 74.8906 114.1562 75.6562 113.3125 75.6562 C112.2656 75.6562 111.5 74.6875 111.5 72.7188 C111.5 71.2812 112.1562 70.1562 113.3438 70.1562 C114.1406 70.1562 114.7812 70.6875 115.0938 71.6406 L114.9844 73.7031 ZM116.9062 75.2812 C116.7344 75.375 116.5469 75.4219 116.3438 75.4219 C115.9531 75.4219 115.75 75.2188 115.75 74.4219 C115.75 73.4844 115.9688 71.5312 116.1875 69.8281 L116.0312 69.7188 L115.2344 69.9219 L115.1406 70.7969 C114.7812 70.0312 114.1562 69.6562 113.3906 69.6562 C112.0469 69.6562 110.5625 70.8438 110.5625 72.9531 C110.5625 75.0938 111.7188 76.1719 113.1406 76.1719 C114.0156 76.1719 114.6875 75.8125 115.0938 74.9844 C115.2031 75.8594 115.5156 76.1719 116.0156 76.1719 C116.4688 76.1719 116.7969 75.9062 117.0156 75.5625 L116.9062 75.2812 Z" style="fill:black; stroke:none;"
      /><rect x="176" width="7" height="9" y="67" style="stroke:none;"
      /><path d="M177 72.5156 L179.9531 68.2656 L179.9531 72.5156 L177 72.5156 ZM182.2812 72.5156 L180.8594 72.5156 L180.8594 67.125 L180.2344 67.125 L176.3438 72.6406 L176.3438 73.1875 L179.9531 73.1875 L179.9531 76 L180.8594 76 L180.8594 73.1875 L182.2812 73.1875 L182.2812 72.5156 Z" style="fill:black; stroke:none;"
      /><rect x="163" width="6" height="13" y="65" style="stroke:none;"
      /><path d="M165.0938 71.2031 C165.0938 69.6562 165.75 68.8125 166.7969 68.8125 C167.7188 68.8125 168.2656 69.4531 168.2656 70.5156 C168.2656 71.7188 167.5 72.4375 166.1875 72.7031 L166.2969 73.3125 C168.2188 73.2344 168.9375 74.2188 168.9375 75.4375 C168.9375 76.625 168.2344 77.4219 166.9531 77.4219 C166.25 77.4219 165.6562 77.1562 165.0938 76.7188 L165.0938 71.2031 ZM164.2031 77.9062 L164.1094 80.375 L164.2656 80.4844 L165.1562 80.2656 L165.0156 77.0938 C165.5469 77.8438 166.3594 78.1719 167.1719 78.1719 C168.5625 78.1719 169.8594 77.2188 169.8594 75.4844 C169.8594 73.9531 168.875 73.1094 167.125 73 C168.5625 72.6094 169.1875 71.4531 169.1875 70.4844 C169.1875 69.0938 168.1562 68.3125 166.9062 68.3125 C165.2969 68.3125 164.2188 69.5469 164.2188 71.5156 L164.2031 77.9062 Z" style="fill:black; stroke:none;"
      /><rect x="283" width="6" height="10" y="67" style="stroke:none;"
      /><path d="M285.2344 68.6562 C285.5156 68.5938 285.7656 68.5625 286.0156 68.5625 C287.0625 68.5625 287.6719 69.1719 287.6719 70.2656 C287.6719 71.4375 286.9062 72.1094 285.7031 72.1094 L285.1875 72.1094 L285.1875 72.6406 L285.7969 72.6406 C287.2188 72.6406 287.9062 73.4219 287.9062 74.6406 C287.9062 75.8438 287.1719 76.6875 285.875 76.6875 C285.6094 76.6875 285.3125 76.6562 285.0156 76.5625 L284.7812 75.8125 C284.625 75.2812 284.5 75.0469 284.1406 75.0469 C283.8906 75.0469 283.7031 75.1719 283.5781 75.4219 C283.8438 76.6406 284.7812 77.1719 286.0312 77.1719 C287.7188 77.1719 288.875 76.125 288.875 74.7031 C288.875 73.5 288.2031 72.625 286.7969 72.375 C287.9531 72.0156 288.6094 71.2031 288.6094 70.2031 C288.6094 68.9219 287.6719 68.0781 286.1875 68.0781 C285.0469 68.0781 284.0625 68.5938 283.7969 69.6875 C283.9062 70 284.1094 70.1094 284.3594 70.1094 C284.7344 70.1094 284.8906 69.8906 285 69.4062 L285.2344 68.6562 Z" style="fill:black; stroke:none;"
      /><rect x="268" width="8" height="8" y="68" style="stroke:none;"
      /><path d="M272.9844 73.7031 C272.9375 74.8906 272.1562 75.6562 271.3125 75.6562 C270.2656 75.6562 269.5 74.6875 269.5 72.7188 C269.5 71.2812 270.1562 70.1562 271.3438 70.1562 C272.1406 70.1562 272.7812 70.6875 273.0938 71.6406 L272.9844 73.7031 ZM274.9062 75.2812 C274.7344 75.375 274.5469 75.4219 274.3438 75.4219 C273.9531 75.4219 273.75 75.2188 273.75 74.4219 C273.75 73.4844 273.9688 71.5312 274.1875 69.8281 L274.0312 69.7188 L273.2344 69.9219 L273.1406 70.7969 C272.7812 70.0312 272.1562 69.6562 271.3906 69.6562 C270.0469 69.6562 268.5625 70.8438 268.5625 72.9531 C268.5625 75.0938 269.7188 76.1719 271.1406 76.1719 C272.0156 76.1719 272.6875 75.8125 273.0938 74.9844 C273.2031 75.8594 273.5156 76.1719 274.0156 76.1719 C274.4688 76.1719 274.7969 75.9062 275.0156 75.5625 L274.9062 75.2812 Z" style="fill:black; stroke:none;"
      /><rect x="321" width="6" height="13" y="65" style="stroke:none;"
      /><path d="M323.0938 71.2031 C323.0938 69.6562 323.75 68.8125 324.7969 68.8125 C325.7188 68.8125 326.2656 69.4531 326.2656 70.5156 C326.2656 71.7188 325.5 72.4375 324.1875 72.7031 L324.2969 73.3125 C326.2188 73.2344 326.9375 74.2188 326.9375 75.4375 C326.9375 76.625 326.2344 77.4219 324.9531 77.4219 C324.25 77.4219 323.6562 77.1562 323.0938 76.7188 L323.0938 71.2031 ZM322.2031 77.9062 L322.1094 80.375 L322.2656 80.4844 L323.1562 80.2656 L323.0156 77.0938 C323.5469 77.8438 324.3594 78.1719 325.1719 78.1719 C326.5625 78.1719 327.8594 77.2188 327.8594 75.4844 C327.8594 73.9531 326.875 73.1094 325.125 73 C326.5625 72.6094 327.1875 71.4531 327.1875 70.4844 C327.1875 69.0938 326.1562 68.3125 324.9062 68.3125 C323.2969 68.3125 322.2188 69.5469 322.2188 71.5156 L322.2031 77.9062 Z" style="fill:black; stroke:none;"
    /></g
  ></g
></svg
>
