<?xml version="1.0"?>
<!DOCTYPE svg PUBLIC '-//W3C//DTD SVG 1.0//EN'
          'http://www.w3.org/TR/2001/REC-SVG-20010904/DTD/svg10.dtd'>
<svg xmlns:xlink="http://www.w3.org/1999/xlink" style="fill-opacity:1; color-rendering:auto; color-interpolation:auto; text-rendering:auto; stroke:black; stroke-linecap:square; stroke-miterlimit:10; shape-rendering:auto; stroke-opacity:1; fill:black; stroke-dasharray:none; font-weight:normal; stroke-width:1; font-family:'Dialog'; font-style:normal; stroke-linejoin:miter; font-size:12px; stroke-dashoffset:0; image-rendering:auto;" viewBox="0 0 139 157" xmlns="http://www.w3.org/2000/svg"
><!--Generated by the Batik Graphics2D SVG Generator--><defs id="genericDefs"
  /><g
  ><defs id="defs1"
    ><clipPath clipPathUnits="userSpaceOnUse" id="clipPath1"
      ><path d="M54 64 C54 70.0751 49.0751 75 43 75 C36.9249 75 32 70.0751 32 64 C32 57.9249 36.9249 53 43 53 C49.0751 53 54 57.9249 54 64 Z"
      /></clipPath
      ><clipPath clipPathUnits="userSpaceOnUse" id="clipPath2"
      ><path style="fill-rule:evenodd;" d="M43 105 L54 127 L32 127 Z"
      /></clipPath
    ></defs
    ><g style="fill:white; text-rendering:optimizeSpeed; stroke:white;"
    ><rect x="0" width="139" height="157" y="0" style="stroke:none;"
      /><polygon style="fill:none; stroke:black;" points=" 98 64 43 64"
      /><path d="M98 53 C92.5 58.5 103.5 69.5 98 75" style="fill:none; stroke:black;"
      /><polygon style="fill:none; stroke:black;" points=" 43 64 43 116"
      /><circle style="clip-path:url(#clipPath1); stroke:none;" r="11" cx="43" cy="64"
      /><rect x="32" y="53" width="22" style="clip-path:url(#clipPath1); fill:rgb(255,212,0); stroke:none;" height="22"
      /><rect x="32" y="53" width="22" style="clip-path:url(#clipPath1); fill:none; stroke:black;" height="22"
      /><circle style="fill:none; stroke:black;" r="11" cx="43" cy="64"
      /><rect x="29" y="35" width="26" style="stroke:none;" height="10"
    /></g
    ><g style="text-rendering:optimizeSpeed; font-size:14px; font-family:'SansSerif';"
    ><path style="stroke:none;" d="M30.6094 42.1562 L32.9531 38.6562 C33.2344 38.1406 33.5156 37.6406 33.7812 37.1406 L33.8281 37.1406 C33.7969 37.6719 33.7656 38.5 33.7656 39 L33.7656 42.1562 L30.6094 42.1562 ZM33.7656 46 L34.9688 46 L34.9688 43.1719 L36.3281 43.1719 L36.3281 42.1562 L34.9688 42.1562 L34.9688 35.7188 L33.5469 35.7188 L29.2812 42.3281 L29.2812 43.1719 L33.7656 43.1719 L33.7656 46 ZM38.1762 46 L39.3481 46 L39.3481 40.3125 C39.3481 39.4375 39.2543 38.1875 39.1918 37.2969 L39.2543 37.2969 L40.0668 39.625 L42.0043 44.9688 L42.8793 44.9688 L44.8168 39.625 L45.6293 37.2969 L45.6918 37.2969 C45.6137 38.1875 45.52 39.4375 45.52 40.3125 L45.52 46 L46.7387 46 L46.7387 35.7188 L45.1762 35.7188 L43.2075 41.2188 C42.9731 41.9375 42.7543 42.6562 42.5043 43.375 L42.4418 43.375 C42.1918 42.6562 41.9575 41.9375 41.7075 41.2188 L39.7387 35.7188 L38.1762 35.7188 L38.1762 46 ZM52.4973 46.1875 C53.5285 46.1875 54.341 45.8281 55.0129 45.3906 L54.5442 44.5625 C53.9973 44.9375 53.3879 45.1562 52.6535 45.1562 C51.2004 45.1562 50.216 44.125 50.1223 42.5 L55.2473 42.5 C55.2785 42.3125 55.3098 42.0469 55.3098 41.7656 C55.3098 39.6094 54.216 38.2031 52.2785 38.2031 C50.5129 38.2031 48.8567 39.7344 48.8567 42.2031 C48.8567 44.7188 50.4817 46.1875 52.4973 46.1875 ZM50.1067 41.5781 C50.2629 40.0938 51.216 39.2188 52.2942 39.2188 C53.4817 39.2188 54.1848 40.0469 54.1848 41.5781 L50.1067 41.5781 Z"
    /></g
    ><g style="fill:white; text-rendering:optimizeSpeed; stroke:white;"
    ><polygon style="stroke:none; clip-path:url(#clipPath2);" points=" 43 105 54 127 32 127"
      /><rect x="32" y="105" width="22" style="clip-path:url(#clipPath2); fill:rgb(237,28,36); stroke:none;" height="22"
      /><rect x="32" y="105" width="22" style="clip-path:url(#clipPath2); fill:none; stroke:black;" height="22"
      /><polygon style="fill:none; stroke:black;" points=" 43 105 54 127 32 127"
      /><rect x="55" width="25" height="10" y="110" style="stroke:none;"
    /></g
    ><g style="text-rendering:optimizeSpeed; font-size:14px; font-family:'SansSerif';"
    ><path style="stroke:none;" d="M55.6094 121 L62.0625 121 L62.0625 119.8906 L59.2344 119.8906 C58.7031 119.8906 58.0781 119.9531 57.5469 119.9844 C59.9531 117.7031 61.5625 115.625 61.5625 113.5781 C61.5625 111.75 60.4219 110.5469 58.5781 110.5469 C57.2812 110.5469 56.4062 111.1406 55.5625 112.0469 L56.2969 112.7812 C56.8594 112.1094 57.5938 111.5938 58.4375 111.5938 C59.7031 111.5938 60.3125 112.4531 60.3125 113.625 C60.3125 115.3906 58.8438 117.4375 55.6094 120.25 L55.6094 121 ZM64.1762 121 L65.3481 121 L65.3481 115.3125 C65.3481 114.4375 65.2543 113.1875 65.1918 112.2969 L65.2543 112.2969 L66.0668 114.625 L68.0043 119.9688 L68.8793 119.9688 L70.8168 114.625 L71.6293 112.2969 L71.6918 112.2969 C71.6137 113.1875 71.52 114.4375 71.52 115.3125 L71.52 121 L72.7387 121 L72.7387 110.7188 L71.1762 110.7188 L69.2075 116.2188 C68.9731 116.9375 68.7543 117.6562 68.5043 118.375 L68.4418 118.375 C68.1918 117.6562 67.9575 116.9375 67.7075 116.2188 L65.7387 110.7188 L64.1762 110.7188 L64.1762 121 ZM78.4973 121.1875 C79.5285 121.1875 80.341 120.8281 81.0129 120.3906 L80.5442 119.5625 C79.9973 119.9375 79.3879 120.1562 78.6535 120.1562 C77.2004 120.1562 76.216 119.125 76.1223 117.5 L81.2473 117.5 C81.2785 117.3125 81.3098 117.0469 81.3098 116.7656 C81.3098 114.6094 80.216 113.2031 78.2785 113.2031 C76.5129 113.2031 74.8567 114.7344 74.8567 117.2031 C74.8567 119.7188 76.4817 121.1875 78.4973 121.1875 ZM76.1067 116.5781 C76.2629 115.0938 77.216 114.2188 78.2942 114.2188 C79.4817 114.2188 80.1848 115.0469 80.1848 116.5781 L76.1067 116.5781 Z"
    /></g
    ><g style="fill:white; text-rendering:optimizeSpeed; font-family:'Serif'; stroke:white;"
    ><rect x="48" width="6" height="9" y="78" style="stroke:none;"
      /><path d="M49.4219 86.0938 C50.0781 85.375 50.7031 84.7188 51.0312 84.3438 C52.9219 82.3125 53.5312 81.4688 53.5312 80.3594 C53.5312 79.0156 52.7812 78.0781 51.1562 78.0781 C49.9062 78.0781 48.7969 78.7031 48.5938 79.9688 C48.7188 80.2031 48.9062 80.3438 49.1562 80.3438 C49.4688 80.3438 49.6562 80.1094 49.7969 79.5938 L50.0938 78.6719 C50.3906 78.5938 50.6562 78.5625 50.8906 78.5625 C51.9219 78.5625 52.5469 79.3125 52.5469 80.4219 C52.5469 81.4375 51.9844 82.4219 50.7031 83.9062 C50.125 84.5781 49.3906 85.4375 48.6406 86.2812 L48.6406 87 L53.9219 87 L53.9219 86.0938 L49.4219 86.0938 Z" style="fill:black; stroke:none;"
      /><rect x="47" width="8" height="8" y="93" style="stroke:none;"
      /><path d="M51.9844 98.7031 C51.9375 99.8906 51.1562 100.6562 50.3125 100.6562 C49.2656 100.6562 48.5 99.6875 48.5 97.7188 C48.5 96.2812 49.1562 95.1562 50.3438 95.1562 C51.1406 95.1562 51.7812 95.6875 52.0938 96.6406 L51.9844 98.7031 ZM53.9062 100.2812 C53.7344 100.375 53.5469 100.4219 53.3438 100.4219 C52.9531 100.4219 52.75 100.2188 52.75 99.4219 C52.75 98.4844 52.9688 96.5312 53.1875 94.8281 L53.0312 94.7188 L52.2344 94.9219 L52.1406 95.7969 C51.7812 95.0312 51.1562 94.6562 50.3906 94.6562 C49.0469 94.6562 47.5625 95.8438 47.5625 97.9531 C47.5625 100.0938 48.7188 101.1719 50.1406 101.1719 C51.0156 101.1719 51.6875 100.8125 52.0938 99.9844 C52.2031 100.8594 52.5156 101.1719 53.0156 101.1719 C53.4688 101.1719 53.7969 100.9062 54.0156 100.5625 L53.9062 100.2812 Z" style="fill:black; stroke:none;"
      /><rect x="62" width="6" height="13" y="65" style="stroke:none;"
      /><path d="M64.0938 71.2031 C64.0938 69.6562 64.75 68.8125 65.7969 68.8125 C66.7188 68.8125 67.2656 69.4531 67.2656 70.5156 C67.2656 71.7188 66.5 72.4375 65.1875 72.7031 L65.2969 73.3125 C67.2188 73.2344 67.9375 74.2188 67.9375 75.4375 C67.9375 76.625 67.2344 77.4219 65.9531 77.4219 C65.25 77.4219 64.6562 77.1562 64.0938 76.7188 L64.0938 71.2031 ZM63.2031 77.9062 L63.1094 80.375 L63.2656 80.4844 L64.1562 80.2656 L64.0156 77.0938 C64.5469 77.8438 65.3594 78.1719 66.1719 78.1719 C67.5625 78.1719 68.8594 77.2188 68.8594 75.4844 C68.8594 73.9531 67.875 73.1094 66.125 73 C67.5625 72.6094 68.1875 71.4531 68.1875 70.4844 C68.1875 69.0938 67.1562 68.3125 65.9062 68.3125 C64.2969 68.3125 63.2188 69.5469 63.2188 71.5156 L63.2031 77.9062 Z" style="fill:black; stroke:none;"
    /></g
  ></g
></svg
>
