<?xml version="1.0"?>
<!DOCTYPE svg PUBLIC '-//W3C//DTD SVG 1.0//EN'
          'http://www.w3.org/TR/2001/REC-SVG-20010904/DTD/svg10.dtd'>
<svg xmlns:xlink="http://www.w3.org/1999/xlink" style="fill-opacity:1; color-rendering:auto; color-interpolation:auto; text-rendering:auto; stroke:black; stroke-linecap:square; stroke-miterlimit:10; shape-rendering:auto; stroke-opacity:1; fill:black; stroke-dasharray:none; font-weight:normal; stroke-width:1; font-family:'Dialog'; font-style:normal; stroke-linejoin:miter; font-size:12px; stroke-dashoffset:0; image-rendering:auto;" viewBox="0 0 394 160" xmlns="http://www.w3.org/2000/svg"
><!--Generated by the Batik Graphics2D SVG Generator--><defs id="genericDefs"
  /><g
  ><defs id="defs1"
    ><clipPath clipPathUnits="userSpaceOnUse" id="clipPath1"
      ><path style="fill-rule:evenodd;" d="M301 56 L303 63 L311 63 L304 68 L307 75 L301 71 L294 75 L297 68 L290 63 L298 63 L301 56 Z"
      /></clipPath
      ><clipPath clipPathUnits="userSpaceOnUse" id="clipPath2"
      ><path style="fill-rule:evenodd;" d="M249 56 L251 63 L259 63 L252 68 L255 75 L249 71 L242 75 L245 68 L238 63 L246 63 L249 56 Z"
      /></clipPath
      ><clipPath clipPathUnits="userSpaceOnUse" id="clipPath3"
      ><path style="fill-rule:evenodd;" d="M197 56 L199 63 L207 63 L200 68 L203 75 L197 71 L190 75 L193 68 L186 63 L194 63 L197 56 Z"
      /></clipPath
      ><clipPath clipPathUnits="userSpaceOnUse" id="clipPath4"
      ><path style="fill-rule:evenodd;" d="M145 82 L147 89 L155 89 L148 94 L151 101 L145 97 L138 101 L141 94 L134 89 L142 89 L145 82 Z"
      /></clipPath
      ><clipPath clipPathUnits="userSpaceOnUse" id="clipPath5"
      ><path style="fill-rule:evenodd;" d="M93 108 L95 115 L103 115 L96 120 L99 127 L93 123 L86 127 L89 120 L82 115 L90 115 L93 108 Z"
      /></clipPath
      ><clipPath clipPathUnits="userSpaceOnUse" id="clipPath6"
      ><path style="fill-rule:evenodd;" d="M41 108 L43 115 L51 115 L44 120 L47 127 L41 123 L34 127 L37 120 L30 115 L38 115 L41 108 Z"
      /></clipPath
      ><clipPath clipPathUnits="userSpaceOnUse" id="clipPath7"
      ><path style="fill-rule:evenodd;" d="M93 56 L95 63 L103 63 L96 68 L99 75 L93 71 L86 75 L89 68 L82 63 L90 63 L93 56 Z"
      /></clipPath
      ><clipPath clipPathUnits="userSpaceOnUse" id="clipPath8"
      ><path style="fill-rule:evenodd;" d="M145 30 L147 37 L155 37 L148 42 L151 49 L145 45 L138 49 L141 42 L134 37 L142 37 L145 30 Z"
      /></clipPath
    ></defs
    ><g style="fill:white; text-rendering:optimizeSpeed; stroke:white;"
    ><rect x="0" width="394" height="160" y="0" style="stroke:none;"
      /><polygon style="fill:none; stroke:black;" points=" 353 67 301 67"
      /><path d="M353 56 C347.5 61.5 358.5 72.5 353 78" style="fill:none; stroke:black;"
      /><polygon style="fill:none; stroke:black;" points=" 301 67 249 67"
      /><polygon style="clip-path:url(#clipPath1); stroke:none;" points=" 301 56 303 63 311 63 304 68 307 75 301 71 294 75 297 68 290 63 298 63 301 56"
      /><rect x="290" y="56" width="22" style="clip-path:url(#clipPath1); fill:rgb(244,121,32); stroke:none;" height="22"
      /><rect x="290" y="56" width="22" style="clip-path:url(#clipPath1); fill:none; stroke:black;" height="22"
      /><polygon style="fill:none; stroke:black;" points=" 301 56 303 63 311 63 304 68 307 75 301 71 294 75 297 68 290 63 298 63 301 56"
      /><polygon style="fill:none; stroke:black;" points=" 249 67 197 67"
      /><polygon style="clip-path:url(#clipPath2); stroke:none;" points=" 249 56 251 63 259 63 252 68 255 75 249 71 242 75 245 68 238 63 246 63 249 56"
      /><rect x="238" y="56" width="22" style="clip-path:url(#clipPath2); fill:rgb(244,121,32); stroke:none;" height="22"
      /><rect x="238" y="56" width="22" style="clip-path:url(#clipPath2); fill:none; stroke:black;" height="22"
      /><polygon style="fill:none; stroke:black;" points=" 249 56 251 63 259 63 252 68 255 75 249 71 242 75 245 68 238 63 246 63 249 56"
      /><polygon style="fill:none; stroke:black;" points=" 197 67 145 93"
      /><polygon style="fill:none; stroke:black;" points=" 197 67 145 41"
      /><polygon style="clip-path:url(#clipPath3); stroke:none;" points=" 197 56 199 63 207 63 200 68 203 75 197 71 190 75 193 68 186 63 194 63 197 56"
      /><rect x="186" y="56" width="22" style="clip-path:url(#clipPath3); fill:rgb(244,121,32); stroke:none;" height="22"
      /><rect x="186" y="56" width="22" style="clip-path:url(#clipPath3); fill:none; stroke:black;" height="22"
      /><polygon style="fill:none; stroke:black;" points=" 197 56 199 63 207 63 200 68 203 75 197 71 190 75 193 68 186 63 194 63 197 56"
      /><polygon style="fill:none; stroke:black;" points=" 145 93 93 119"
      /><polygon style="fill:none; stroke:black;" points=" 145 93 93 67"
      /><polygon style="clip-path:url(#clipPath4); stroke:none;" points=" 145 82 147 89 155 89 148 94 151 101 145 97 138 101 141 94 134 89 142 89 145 82"
      /><rect x="134" y="82" width="22" style="clip-path:url(#clipPath4); fill:rgb(244,121,32); stroke:none;" height="22"
      /><rect x="134" y="82" width="22" style="clip-path:url(#clipPath4); fill:none; stroke:black;" height="22"
      /><polygon style="fill:none; stroke:black;" points=" 145 82 147 89 155 89 148 94 151 101 145 97 138 101 141 94 134 89 142 89 145 82"
      /><polygon style="fill:none; stroke:black;" points=" 93 119 41 119"
      /><polygon style="clip-path:url(#clipPath5); stroke:none;" points=" 93 108 95 115 103 115 96 120 99 127 93 123 86 127 89 120 82 115 90 115 93 108"
      /><rect x="82" y="108" width="22" style="clip-path:url(#clipPath5); fill:rgb(244,121,32); stroke:none;" height="22"
      /><rect x="82" y="108" width="22" style="clip-path:url(#clipPath5); fill:none; stroke:black;" height="22"
      /><polygon style="fill:none; stroke:black;" points=" 93 108 95 115 103 115 96 120 99 127 93 123 86 127 89 120 82 115 90 115 93 108"
      /><polygon style="clip-path:url(#clipPath6); stroke:none;" points=" 41 108 43 115 51 115 44 120 47 127 41 123 34 127 37 120 30 115 38 115 41 108"
      /><rect x="30" y="108" width="22" style="clip-path:url(#clipPath6); fill:rgb(244,121,32); stroke:none;" height="22"
      /><rect x="30" y="108" width="22" style="clip-path:url(#clipPath6); fill:none; stroke:black;" height="22"
      /><polygon style="fill:none; stroke:black;" points=" 41 108 43 115 51 115 44 120 47 127 41 123 34 127 37 120 30 115 38 115 41 108"
      /><rect x="71" y="122" width="5" style="stroke:none;" height="10"
    /></g
    ><g style="font-family:'Serif'; text-rendering:optimizeSpeed; "
    ><path style="stroke:none;" d="M72.8906 130.6875 C72.4844 130.6875 72.1562 131.0469 72.1562 131.4219 C72.1562 131.8125 72.4844 132.1562 72.8906 132.1562 C73.2969 132.1562 73.6406 131.8125 73.6406 131.4219 C73.6406 131.0469 73.2969 130.6875 72.8906 130.6875 ZM74.4688 124.5781 C74.7188 124.8906 74.875 125.2656 74.8906 125.6562 C74.8906 126.1875 74.625 126.5 74.0312 126.7656 L73.4062 127.0156 C72.6406 127.3125 72.3906 127.5469 72.3906 127.9375 C72.3906 128.1094 72.4531 128.3438 72.5781 128.8125 L72.7344 129.3438 L73.1094 129.3438 L73.0938 128.5312 C73.0938 128.0938 73.2031 127.9688 73.7812 127.7344 L74.2031 127.5625 C75.0312 127.2188 75.4531 126.6875 75.4531 125.8438 C75.4531 124.1562 73.6562 123.1875 72.5 123.0312 C72.1094 123.125 71.9062 123.2969 71.9062 123.6406 C71.9062 123.9375 72.0625 124.1562 72.7188 124.2656 L74.4688 124.5781 Z"
      /><rect x="57" y="122" width="5" style="fill:white; stroke:none;" height="10"
      /><path style="stroke:none;" d="M58.8906 130.6875 C58.4844 130.6875 58.1562 131.0469 58.1562 131.4219 C58.1562 131.8125 58.4844 132.1562 58.8906 132.1562 C59.2969 132.1562 59.6406 131.8125 59.6406 131.4219 C59.6406 131.0469 59.2969 130.6875 58.8906 130.6875 ZM60.4688 124.5781 C60.7188 124.8906 60.875 125.2656 60.8906 125.6562 C60.8906 126.1875 60.625 126.5 60.0312 126.7656 L59.4062 127.0156 C58.6406 127.3125 58.3906 127.5469 58.3906 127.9375 C58.3906 128.1094 58.4531 128.3438 58.5781 128.8125 L58.7344 129.3438 L59.1094 129.3438 L59.0938 128.5312 C59.0938 128.0938 59.2031 127.9688 59.7812 127.7344 L60.2031 127.5625 C61.0312 127.2188 61.4531 126.6875 61.4531 125.8438 C61.4531 124.1562 59.6562 123.1875 58.5 123.0312 C58.1094 123.125 57.9062 123.2969 57.9062 123.6406 C57.9062 123.9375 58.0625 124.1562 58.7188 124.2656 L60.4688 124.5781 Z"
      /><polygon style="fill:white; clip-path:url(#clipPath7); stroke:none;" points=" 93 56 95 63 103 63 96 68 99 75 93 71 86 75 89 68 82 63 90 63 93 56"
      /><rect x="82" y="56" width="22" style="clip-path:url(#clipPath7); fill:rgb(0,166,81); stroke:none;" height="22"
      /><rect x="82" y="56" width="22" style="fill:none; clip-path:url(#clipPath7);" height="22"
      /><polygon style="fill:none;" points=" 93 56 95 63 103 63 96 68 99 75 93 71 86 75 89 68 82 63 90 63 93 56"
      /><path style="stroke:none;" d="M92.0625 71 L92.9844 71 L92.9844 66.3125 L94.125 66.3125 L94.125 65.5625 L92.9844 65.5625 L92.9844 64.7031 C92.9844 64.0156 93.2344 63.6406 93.75 63.6406 C93.9375 63.6406 94.1562 63.6875 94.3594 63.7812 L94.5625 63.0938 C94.3125 62.9844 93.9844 62.9062 93.6562 62.9062 C92.5625 62.9062 92.0625 63.5938 92.0625 64.7031 L92.0625 65.5625 L91.3281 65.625 L91.3281 66.3125 L92.0625 66.3125 L92.0625 71 Z"
      /><rect x="127" y="104" width="5" style="fill:white; stroke:none;" height="10"
      /><path style="stroke:none;" d="M128.8906 112.6875 C128.4844 112.6875 128.1562 113.0469 128.1562 113.4219 C128.1562 113.8125 128.4844 114.1562 128.8906 114.1562 C129.2969 114.1562 129.6406 113.8125 129.6406 113.4219 C129.6406 113.0469 129.2969 112.6875 128.8906 112.6875 ZM130.4688 106.5781 C130.7188 106.8906 130.875 107.2656 130.8906 107.6562 C130.8906 108.1875 130.625 108.5 130.0312 108.7656 L129.4062 109.0156 C128.6406 109.3125 128.3906 109.5469 128.3906 109.9375 C128.3906 110.1094 128.4531 110.3438 128.5781 110.8125 L128.7344 111.3438 L129.1094 111.3438 L129.0938 110.5312 C129.0938 110.0938 129.2031 109.9688 129.7812 109.7344 L130.2031 109.5625 C131.0312 109.2188 131.4531 108.6875 131.4531 107.8438 C131.4531 106.1562 129.6562 105.1875 128.5 105.0312 C128.1094 105.125 127.9062 105.2969 127.9062 105.6406 C127.9062 105.9375 128.0625 106.1562 128.7188 106.2656 L130.4688 106.5781 Z"
      /><rect x="112" y="112" width="5" style="fill:white; stroke:none;" height="10"
      /><path style="stroke:none;" d="M113.8906 120.6875 C113.4844 120.6875 113.1562 121.0469 113.1562 121.4219 C113.1562 121.8125 113.4844 122.1562 113.8906 122.1562 C114.2969 122.1562 114.6406 121.8125 114.6406 121.4219 C114.6406 121.0469 114.2969 120.6875 113.8906 120.6875 ZM115.4688 114.5781 C115.7188 114.8906 115.875 115.2656 115.8906 115.6562 C115.8906 116.1875 115.625 116.5 115.0312 116.7656 L114.4062 117.0156 C113.6406 117.3125 113.3906 117.5469 113.3906 117.9375 C113.3906 118.1094 113.4531 118.3438 113.5781 118.8125 L113.7344 119.3438 L114.1094 119.3438 L114.0938 118.5312 C114.0938 118.0938 114.2031 117.9688 114.7812 117.7344 L115.2031 117.5625 C116.0312 117.2188 116.4531 116.6875 116.4531 115.8438 C116.4531 114.1562 114.6562 113.1875 113.5 113.0312 C113.1094 113.125 112.9062 113.2969 112.9062 113.6406 C112.9062 113.9375 113.0625 114.1562 113.7188 114.2656 L115.4688 114.5781 Z"
      /><rect x="120" y="86" width="5" style="fill:white; stroke:none;" height="10"
      /><path style="stroke:none;" d="M121.8906 94.6875 C121.4844 94.6875 121.1562 95.0469 121.1562 95.4219 C121.1562 95.8125 121.4844 96.1562 121.8906 96.1562 C122.2969 96.1562 122.6406 95.8125 122.6406 95.4219 C122.6406 95.0469 122.2969 94.6875 121.8906 94.6875 ZM123.4688 88.5781 C123.7188 88.8906 123.875 89.2656 123.8906 89.6562 C123.8906 90.1875 123.625 90.5 123.0312 90.7656 L122.4062 91.0156 C121.6406 91.3125 121.3906 91.5469 121.3906 91.9375 C121.3906 92.1094 121.4531 92.3438 121.5781 92.8125 L121.7344 93.3438 L122.1094 93.3438 L122.0938 92.5312 C122.0938 92.0938 122.2031 91.9688 122.7812 91.7344 L123.2031 91.5625 C124.0312 91.2188 124.4531 90.6875 124.4531 89.8438 C124.4531 88.1562 122.6562 87.1875 121.5 87.0312 C121.1094 87.125 120.9062 87.2969 120.9062 87.6406 C120.9062 87.9375 121.0625 88.1562 121.7188 88.2656 L123.4688 88.5781 Z"
      /><rect x="105" y="78" width="5" style="fill:white; stroke:none;" height="10"
      /><path style="stroke:none;" d="M106.8906 86.6875 C106.4844 86.6875 106.1562 87.0469 106.1562 87.4219 C106.1562 87.8125 106.4844 88.1562 106.8906 88.1562 C107.2969 88.1562 107.6406 87.8125 107.6406 87.4219 C107.6406 87.0469 107.2969 86.6875 106.8906 86.6875 ZM108.4688 80.5781 C108.7188 80.8906 108.875 81.2656 108.8906 81.6562 C108.8906 82.1875 108.625 82.5 108.0312 82.7656 L107.4062 83.0156 C106.6406 83.3125 106.3906 83.5469 106.3906 83.9375 C106.3906 84.1094 106.4531 84.3438 106.5781 84.8125 L106.7344 85.3438 L107.1094 85.3438 L107.0938 84.5312 C107.0938 84.0938 107.2031 83.9688 107.7812 83.7344 L108.2031 83.5625 C109.0312 83.2188 109.4531 82.6875 109.4531 81.8438 C109.4531 80.1562 107.6562 79.1875 106.5 79.0312 C106.1094 79.125 105.9062 79.2969 105.9062 79.6406 C105.9062 79.9375 106.0625 80.1562 106.7188 80.2656 L108.4688 80.5781 Z"
      /><polygon style="fill:white; clip-path:url(#clipPath8); stroke:none;" points=" 145 30 147 37 155 37 148 42 151 49 145 45 138 49 141 42 134 37 142 37 145 30"
      /><rect x="134" y="30" width="22" style="clip-path:url(#clipPath8); fill:rgb(0,166,81); stroke:none;" height="22"
      /><rect x="134" y="30" width="22" style="fill:none; clip-path:url(#clipPath8);" height="22"
      /><polygon style="fill:none;" points=" 145 30 147 37 155 37 148 42 151 49 145 45 138 49 141 42 134 37 142 37 145 30"
      /><path style="stroke:none;" d="M144.0625 45 L144.9844 45 L144.9844 40.3125 L146.125 40.3125 L146.125 39.5625 L144.9844 39.5625 L144.9844 38.7031 C144.9844 38.0156 145.2344 37.6406 145.75 37.6406 C145.9375 37.6406 146.1562 37.6875 146.3594 37.7812 L146.5625 37.0938 C146.3125 36.9844 145.9844 36.9062 145.6562 36.9062 C144.5625 36.9062 144.0625 37.5938 144.0625 38.7031 L144.0625 39.5625 L143.3281 39.625 L143.3281 40.3125 L144.0625 40.3125 L144.0625 45 Z"
      /><rect x="179" y="78" width="5" style="fill:white; stroke:none;" height="10"
      /><path style="stroke:none;" d="M180.8906 86.6875 C180.4844 86.6875 180.1562 87.0469 180.1562 87.4219 C180.1562 87.8125 180.4844 88.1562 180.8906 88.1562 C181.2969 88.1562 181.6406 87.8125 181.6406 87.4219 C181.6406 87.0469 181.2969 86.6875 180.8906 86.6875 ZM182.4688 80.5781 C182.7188 80.8906 182.875 81.2656 182.8906 81.6562 C182.8906 82.1875 182.625 82.5 182.0312 82.7656 L181.4062 83.0156 C180.6406 83.3125 180.3906 83.5469 180.3906 83.9375 C180.3906 84.1094 180.4531 84.3438 180.5781 84.8125 L180.7344 85.3438 L181.1094 85.3438 L181.0938 84.5312 C181.0938 84.0938 181.2031 83.9688 181.7812 83.7344 L182.2031 83.5625 C183.0312 83.2188 183.4531 82.6875 183.4531 81.8438 C183.4531 80.1562 181.6562 79.1875 180.5 79.0312 C180.1094 79.125 179.9062 79.2969 179.9062 79.6406 C179.9062 79.9375 180.0625 80.1562 180.7188 80.2656 L182.4688 80.5781 Z"
      /><rect x="164" y="86" width="5" style="fill:white; stroke:none;" height="10"
      /><path style="stroke:none;" d="M165.8906 94.6875 C165.4844 94.6875 165.1562 95.0469 165.1562 95.4219 C165.1562 95.8125 165.4844 96.1562 165.8906 96.1562 C166.2969 96.1562 166.6406 95.8125 166.6406 95.4219 C166.6406 95.0469 166.2969 94.6875 165.8906 94.6875 ZM167.4688 88.5781 C167.7188 88.8906 167.875 89.2656 167.8906 89.6562 C167.8906 90.1875 167.625 90.5 167.0312 90.7656 L166.4062 91.0156 C165.6406 91.3125 165.3906 91.5469 165.3906 91.9375 C165.3906 92.1094 165.4531 92.3438 165.5781 92.8125 L165.7344 93.3438 L166.1094 93.3438 L166.0938 92.5312 C166.0938 92.0938 166.2031 91.9688 166.7812 91.7344 L167.2031 91.5625 C168.0312 91.2188 168.4531 90.6875 168.4531 89.8438 C168.4531 88.1562 166.6562 87.1875 165.5 87.0312 C165.1094 87.125 164.9062 87.2969 164.9062 87.6406 C164.9062 87.9375 165.0625 88.1562 165.7188 88.2656 L167.4688 88.5781 Z"
      /><rect x="172" y="60" width="5" style="fill:white; stroke:none;" height="10"
      /><path style="stroke:none;" d="M173.8906 68.6875 C173.4844 68.6875 173.1562 69.0469 173.1562 69.4219 C173.1562 69.8125 173.4844 70.1562 173.8906 70.1562 C174.2969 70.1562 174.6406 69.8125 174.6406 69.4219 C174.6406 69.0469 174.2969 68.6875 173.8906 68.6875 ZM175.4688 62.5781 C175.7188 62.8906 175.875 63.2656 175.8906 63.6562 C175.8906 64.1875 175.625 64.5 175.0312 64.7656 L174.4062 65.0156 C173.6406 65.3125 173.3906 65.5469 173.3906 65.9375 C173.3906 66.1094 173.4531 66.3438 173.5781 66.8125 L173.7344 67.3438 L174.1094 67.3438 L174.0938 66.5312 C174.0938 66.0938 174.2031 65.9688 174.7812 65.7344 L175.2031 65.5625 C176.0312 65.2188 176.4531 64.6875 176.4531 63.8438 C176.4531 62.1562 174.6562 61.1875 173.5 61.0312 C173.1094 61.125 172.9062 61.2969 172.9062 61.6406 C172.9062 61.9375 173.0625 62.1562 173.7188 62.2656 L175.4688 62.5781 Z"
      /><rect x="157" y="52" width="5" style="fill:white; stroke:none;" height="10"
      /><path style="stroke:none;" d="M158.8906 60.6875 C158.4844 60.6875 158.1562 61.0469 158.1562 61.4219 C158.1562 61.8125 158.4844 62.1562 158.8906 62.1562 C159.2969 62.1562 159.6406 61.8125 159.6406 61.4219 C159.6406 61.0469 159.2969 60.6875 158.8906 60.6875 ZM160.4688 54.5781 C160.7188 54.8906 160.875 55.2656 160.8906 55.6562 C160.8906 56.1875 160.625 56.5 160.0312 56.7656 L159.4062 57.0156 C158.6406 57.3125 158.3906 57.5469 158.3906 57.9375 C158.3906 58.1094 158.4531 58.3438 158.5781 58.8125 L158.7344 59.3438 L159.1094 59.3438 L159.0938 58.5312 C159.0938 58.0938 159.2031 57.9688 159.7812 57.7344 L160.2031 57.5625 C161.0312 57.2188 161.4531 56.6875 161.4531 55.8438 C161.4531 54.1562 159.6562 53.1875 158.5 53.0312 C158.1094 53.125 157.9062 53.2969 157.9062 53.6406 C157.9062 53.9375 158.0625 54.1562 158.7188 54.2656 L160.4688 54.5781 Z"
      /><rect x="227" y="70" width="5" style="fill:white; stroke:none;" height="10"
      /><path style="stroke:none;" d="M228.8906 78.6875 C228.4844 78.6875 228.1562 79.0469 228.1562 79.4219 C228.1562 79.8125 228.4844 80.1562 228.8906 80.1562 C229.2969 80.1562 229.6406 79.8125 229.6406 79.4219 C229.6406 79.0469 229.2969 78.6875 228.8906 78.6875 ZM230.4688 72.5781 C230.7188 72.8906 230.875 73.2656 230.8906 73.6562 C230.8906 74.1875 230.625 74.5 230.0312 74.7656 L229.4062 75.0156 C228.6406 75.3125 228.3906 75.5469 228.3906 75.9375 C228.3906 76.1094 228.4531 76.3438 228.5781 76.8125 L228.7344 77.3438 L229.1094 77.3438 L229.0938 76.5312 C229.0938 76.0938 229.2031 75.9688 229.7812 75.7344 L230.2031 75.5625 C231.0312 75.2188 231.4531 74.6875 231.4531 73.8438 C231.4531 72.1562 229.6562 71.1875 228.5 71.0312 C228.1094 71.125 227.9062 71.2969 227.9062 71.6406 C227.9062 71.9375 228.0625 72.1562 228.7188 72.2656 L230.4688 72.5781 Z"
      /><rect x="213" y="70" width="5" style="fill:white; stroke:none;" height="10"
      /><path style="stroke:none;" d="M214.8906 78.6875 C214.4844 78.6875 214.1562 79.0469 214.1562 79.4219 C214.1562 79.8125 214.4844 80.1562 214.8906 80.1562 C215.2969 80.1562 215.6406 79.8125 215.6406 79.4219 C215.6406 79.0469 215.2969 78.6875 214.8906 78.6875 ZM216.4688 72.5781 C216.7188 72.8906 216.875 73.2656 216.8906 73.6562 C216.8906 74.1875 216.625 74.5 216.0312 74.7656 L215.4062 75.0156 C214.6406 75.3125 214.3906 75.5469 214.3906 75.9375 C214.3906 76.1094 214.4531 76.3438 214.5781 76.8125 L214.7344 77.3438 L215.1094 77.3438 L215.0938 76.5312 C215.0938 76.0938 215.2031 75.9688 215.7812 75.7344 L216.2031 75.5625 C217.0312 75.2188 217.4531 74.6875 217.4531 73.8438 C217.4531 72.1562 215.6562 71.1875 214.5 71.0312 C214.1094 71.125 213.9062 71.2969 213.9062 71.6406 C213.9062 71.9375 214.0625 72.1562 214.7188 72.2656 L216.4688 72.5781 Z"
      /><rect x="279" y="70" width="5" style="fill:white; stroke:none;" height="10"
      /><path style="stroke:none;" d="M280.8906 78.6875 C280.4844 78.6875 280.1562 79.0469 280.1562 79.4219 C280.1562 79.8125 280.4844 80.1562 280.8906 80.1562 C281.2969 80.1562 281.6406 79.8125 281.6406 79.4219 C281.6406 79.0469 281.2969 78.6875 280.8906 78.6875 ZM282.4688 72.5781 C282.7188 72.8906 282.875 73.2656 282.8906 73.6562 C282.8906 74.1875 282.625 74.5 282.0312 74.7656 L281.4062 75.0156 C280.6406 75.3125 280.3906 75.5469 280.3906 75.9375 C280.3906 76.1094 280.4531 76.3438 280.5781 76.8125 L280.7344 77.3438 L281.1094 77.3438 L281.0938 76.5312 C281.0938 76.0938 281.2031 75.9688 281.7812 75.7344 L282.2031 75.5625 C283.0312 75.2188 283.4531 74.6875 283.4531 73.8438 C283.4531 72.1562 281.6562 71.1875 280.5 71.0312 C280.1094 71.125 279.9062 71.2969 279.9062 71.6406 C279.9062 71.9375 280.0625 72.1562 280.7188 72.2656 L282.4688 72.5781 Z"
      /><rect x="265" y="70" width="5" style="fill:white; stroke:none;" height="10"
      /><path style="stroke:none;" d="M266.8906 78.6875 C266.4844 78.6875 266.1562 79.0469 266.1562 79.4219 C266.1562 79.8125 266.4844 80.1562 266.8906 80.1562 C267.2969 80.1562 267.6406 79.8125 267.6406 79.4219 C267.6406 79.0469 267.2969 78.6875 266.8906 78.6875 ZM268.4688 72.5781 C268.7188 72.8906 268.875 73.2656 268.8906 73.6562 C268.8906 74.1875 268.625 74.5 268.0312 74.7656 L267.4062 75.0156 C266.6406 75.3125 266.3906 75.5469 266.3906 75.9375 C266.3906 76.1094 266.4531 76.3438 266.5781 76.8125 L266.7344 77.3438 L267.1094 77.3438 L267.0938 76.5312 C267.0938 76.0938 267.2031 75.9688 267.7812 75.7344 L268.2031 75.5625 C269.0312 75.2188 269.4531 74.6875 269.4531 73.8438 C269.4531 72.1562 267.6562 71.1875 266.5 71.0312 C266.1094 71.125 265.9062 71.2969 265.9062 71.6406 C265.9062 71.9375 266.0625 72.1562 266.7188 72.2656 L268.4688 72.5781 Z"
      /><rect x="317" y="70" width="5" style="fill:white; stroke:none;" height="10"
      /><path style="stroke:none;" d="M318.8906 78.6875 C318.4844 78.6875 318.1562 79.0469 318.1562 79.4219 C318.1562 79.8125 318.4844 80.1562 318.8906 80.1562 C319.2969 80.1562 319.6406 79.8125 319.6406 79.4219 C319.6406 79.0469 319.2969 78.6875 318.8906 78.6875 ZM320.4688 72.5781 C320.7188 72.8906 320.875 73.2656 320.8906 73.6562 C320.8906 74.1875 320.625 74.5 320.0312 74.7656 L319.4062 75.0156 C318.6406 75.3125 318.3906 75.5469 318.3906 75.9375 C318.3906 76.1094 318.4531 76.3438 318.5781 76.8125 L318.7344 77.3438 L319.1094 77.3438 L319.0938 76.5312 C319.0938 76.0938 319.2031 75.9688 319.7812 75.7344 L320.2031 75.5625 C321.0312 75.2188 321.4531 74.6875 321.4531 73.8438 C321.4531 72.1562 319.6562 71.1875 318.5 71.0312 C318.1094 71.125 317.9062 71.2969 317.9062 71.6406 C317.9062 71.9375 318.0625 72.1562 318.7188 72.2656 L320.4688 72.5781 Z"
    /></g
  ></g
></svg
>
