<?xml version="1.0"?>
<!DOCTYPE svg PUBLIC '-//W3C//DTD SVG 1.0//EN'
          'http://www.w3.org/TR/2001/REC-SVG-20010904/DTD/svg10.dtd'>
<svg xmlns:xlink="http://www.w3.org/1999/xlink" style="fill-opacity:1; color-rendering:auto; color-interpolation:auto; text-rendering:auto; stroke:black; stroke-linecap:square; stroke-miterlimit:10; shape-rendering:auto; stroke-opacity:1; fill:black; stroke-dasharray:none; font-weight:normal; stroke-width:1; font-family:'Dialog'; font-style:normal; stroke-linejoin:miter; font-size:12px; stroke-dashoffset:0; image-rendering:auto;" viewBox="0 0 408 128" xmlns="http://www.w3.org/2000/svg"
><!--Generated by the Batik Graphics2D SVG Generator--><defs id="genericDefs"
  /><g
  ><defs id="defs1"
    ><clipPath clipPathUnits="userSpaceOnUse" id="clipPath1"
      ><path d="M304 53 L326 53 L326 75 L304 75 L304 53 Z"
      /></clipPath
      ><clipPath clipPathUnits="userSpaceOnUse" id="clipPath2"
      ><path style="fill-rule:evenodd;" d="M263 53 L274 64 L263 75 L252 64 Z"
      /></clipPath
      ><clipPath clipPathUnits="userSpaceOnUse" id="clipPath3"
      ><path d="M200 53 L222 53 L222 75 L200 75 L200 53 Z"
      /></clipPath
      ><clipPath clipPathUnits="userSpaceOnUse" id="clipPath4"
      ><path style="fill-rule:evenodd;" d="M159 53 L170 64 L159 75 L148 64 Z"
      /></clipPath
      ><clipPath clipPathUnits="userSpaceOnUse" id="clipPath5"
      ><path d="M96 53 L118 53 L118 75 L96 75 L96 53 Z"
      /></clipPath
      ><clipPath clipPathUnits="userSpaceOnUse" id="clipPath6"
      ><path style="fill-rule:evenodd;" d="M48 53 L58 60 L54 72 L41 72 L37 60 L48 53 Z"
      /></clipPath
    ></defs
    ><g style="fill:white; text-rendering:optimizeSpeed; stroke:white;"
    ><rect x="0" width="408" height="128" y="0" style="stroke:none;"
      /><polygon style="fill:none; stroke:black;" points=" 367 64 315 64"
      /><path d="M367 53 C361.5 58.5 372.5 69.5 367 75" style="fill:none; stroke:black;"
      /><polygon style="fill:none; stroke:black;" points=" 315 64 263 64"
      /><rect x="304" y="53" width="22" style="clip-path:url(#clipPath1); stroke:none;" height="22"
      /><rect x="304" y="53" width="22" style="clip-path:url(#clipPath1); fill:rgb(255,212,0); stroke:none;" height="22"
      /><rect x="304" y="53" width="22" style="clip-path:url(#clipPath1); fill:none; stroke:black;" height="22"
      /><rect x="304" y="53" width="22" style="fill:none; stroke:black;" height="22"
      /><rect x="307" y="35" width="15" style="stroke:none;" height="10"
    /></g
    ><g style="text-rendering:optimizeSpeed; font-size:14px; font-family:'SansSerif';"
    ><path style="stroke:none;" d="M308.6094 42.1562 L310.9531 38.6562 C311.2344 38.1406 311.5156 37.6406 311.7812 37.1406 L311.8281 37.1406 C311.7969 37.6719 311.7656 38.5 311.7656 39 L311.7656 42.1562 L308.6094 42.1562 ZM311.7656 46 L312.9688 46 L312.9688 43.1719 L314.3281 43.1719 L314.3281 42.1562 L312.9688 42.1562 L312.9688 35.7188 L311.5469 35.7188 L307.2812 42.3281 L307.2812 43.1719 L311.7656 43.1719 L311.7656 46 ZM319.02 46.1875 C321.1606 46.1875 322.5043 44.8906 322.5043 43.2656 C322.5043 41.75 321.5825 41.0469 320.395 40.5312 L318.9262 39.8906 C318.1293 39.5625 317.2387 39.1875 317.2387 38.1875 C317.2387 37.2656 317.9887 36.6719 319.145 36.6719 C320.0981 36.6719 320.8637 37.0469 321.4887 37.6406 L322.1762 36.8125 C321.4418 36.0625 320.3637 35.5469 319.145 35.5469 C317.2856 35.5469 315.9106 36.6875 315.9106 38.2656 C315.9106 39.7656 317.0512 40.5 318.0043 40.9062 L319.4887 41.5469 C320.4575 41.9844 321.1918 42.3125 321.1918 43.375 C321.1918 44.375 320.3793 45.0469 319.0356 45.0469 C317.9731 45.0469 316.9418 44.5469 316.2075 43.7812 L315.4262 44.6562 C316.3168 45.5938 317.5668 46.1875 319.02 46.1875 Z"
      /><polygon style="fill:none;" points=" 263 64 211 64"
    /></g
    ><g style="fill:white; text-rendering:optimizeSpeed; stroke:white;"
    ><polygon style="stroke:none; clip-path:url(#clipPath2);" points=" 263 53 274 64 263 75 252 64"
      /><rect x="252" y="53" width="22" style="clip-path:url(#clipPath2); fill:rgb(0,144,188); stroke:none;" height="11"
      /><rect x="252" y="53" width="22" style="clip-path:url(#clipPath2); fill:none; stroke:black;" height="11"
      /><polygon style="fill:none; stroke:black;" points=" 263 53 274 64 263 75 252 64"
      /><polygon style="fill:none; stroke:black;" points=" 211 64 159 64"
      /><rect x="200" y="53" width="22" style="clip-path:url(#clipPath3); stroke:none;" height="22"
      /><rect x="200" y="53" width="22" style="clip-path:url(#clipPath3); fill:rgb(255,212,0); stroke:none;" height="22"
      /><rect x="200" y="53" width="22" style="clip-path:url(#clipPath3); fill:none; stroke:black;" height="22"
      /><rect x="200" y="53" width="22" style="fill:none; stroke:black;" height="22"
      /><rect x="203" width="14" height="10" y="35" style="stroke:none;"
    /></g
    ><g style="text-rendering:optimizeSpeed; font-size:14px; font-family:'SansSerif';"
    ><path style="stroke:none;" d="M207.1094 40.5781 C208.3438 40.5781 208.9688 41.4688 208.9688 42.8438 C208.9688 44.25 208.1875 45.1875 207.2188 45.1875 C205.9219 45.1875 205.1562 44.0312 205 41.8906 C205.625 40.9531 206.4531 40.5781 207.1094 40.5781 ZM207.2188 46.1875 C208.8125 46.1875 210.1562 44.8438 210.1562 42.8438 C210.1562 40.7031 209.0469 39.625 207.3125 39.625 C206.5 39.625 205.6094 40.1094 204.9688 40.875 C205.0312 37.6875 206.2188 36.6094 207.625 36.6094 C208.25 36.6094 208.8594 36.9062 209.2656 37.3906 L209.9688 36.5938 C209.4062 35.9844 208.6406 35.5469 207.5781 35.5469 C205.5938 35.5469 203.7812 37.0781 203.7812 41.0938 C203.7812 44.4844 205.2344 46.1875 207.2188 46.1875 ZM215.02 46.1875 C217.1606 46.1875 218.5043 44.8906 218.5043 43.2656 C218.5043 41.75 217.5825 41.0469 216.395 40.5312 L214.9262 39.8906 C214.1293 39.5625 213.2387 39.1875 213.2387 38.1875 C213.2387 37.2656 213.9887 36.6719 215.145 36.6719 C216.0981 36.6719 216.8637 37.0469 217.4887 37.6406 L218.1762 36.8125 C217.4418 36.0625 216.3637 35.5469 215.145 35.5469 C213.2856 35.5469 211.9106 36.6875 211.9106 38.2656 C211.9106 39.7656 213.0512 40.5 214.0043 40.9062 L215.4887 41.5469 C216.4575 41.9844 217.1918 42.3125 217.1918 43.375 C217.1918 44.375 216.3793 45.0469 215.0356 45.0469 C213.9731 45.0469 212.9418 44.5469 212.2075 43.7812 L211.4262 44.6562 C212.3168 45.5938 213.5668 46.1875 215.02 46.1875 Z"
      /><polygon style="fill:none;" points=" 159 64 107 64"
    /></g
    ><g style="fill:white; text-rendering:optimizeSpeed; stroke:white;"
    ><polygon style="stroke:none; clip-path:url(#clipPath4);" points=" 159 53 170 64 159 75 148 64"
      /><rect x="148" y="53" width="22" style="clip-path:url(#clipPath4); fill:rgb(0,144,188); stroke:none;" height="11"
      /><rect x="148" y="53" width="22" style="clip-path:url(#clipPath4); fill:none; stroke:black;" height="11"
      /><polygon style="fill:none; stroke:black;" points=" 159 53 170 64 159 75 148 64"
      /><polygon style="fill:none; stroke:black;" points=" 107 64 48 64"
      /><rect x="96" y="53" width="22" style="clip-path:url(#clipPath5); stroke:none;" height="22"
      /><rect x="96" y="53" width="22" style="clip-path:url(#clipPath5); fill:rgb(255,212,0); stroke:none;" height="22"
      /><rect x="96" y="53" width="22" style="clip-path:url(#clipPath5); fill:none; stroke:black;" height="22"
      /><rect x="96" y="53" width="22" style="fill:none; stroke:black;" height="22"
      /><rect x="99" width="14" height="10" y="35" style="stroke:none;"
    /></g
    ><g style="text-rendering:optimizeSpeed; font-size:14px; font-family:'SansSerif';"
    ><path style="stroke:none;" d="M103.1094 40.5781 C104.3438 40.5781 104.9688 41.4688 104.9688 42.8438 C104.9688 44.25 104.1875 45.1875 103.2188 45.1875 C101.9219 45.1875 101.1562 44.0312 101 41.8906 C101.625 40.9531 102.4531 40.5781 103.1094 40.5781 ZM103.2188 46.1875 C104.8125 46.1875 106.1562 44.8438 106.1562 42.8438 C106.1562 40.7031 105.0469 39.625 103.3125 39.625 C102.5 39.625 101.6094 40.1094 100.9688 40.875 C101.0312 37.6875 102.2188 36.6094 103.625 36.6094 C104.25 36.6094 104.8594 36.9062 105.2656 37.3906 L105.9688 36.5938 C105.4062 35.9844 104.6406 35.5469 103.5781 35.5469 C101.5938 35.5469 99.7812 37.0781 99.7812 41.0938 C99.7812 44.4844 101.2344 46.1875 103.2188 46.1875 ZM111.02 46.1875 C113.1606 46.1875 114.5043 44.8906 114.5043 43.2656 C114.5043 41.75 113.5825 41.0469 112.395 40.5312 L110.9262 39.8906 C110.1293 39.5625 109.2387 39.1875 109.2387 38.1875 C109.2387 37.2656 109.9887 36.6719 111.145 36.6719 C112.0981 36.6719 112.8637 37.0469 113.4887 37.6406 L114.1762 36.8125 C113.4418 36.0625 112.3637 35.5469 111.145 35.5469 C109.2856 35.5469 107.9106 36.6875 107.9106 38.2656 C107.9106 39.7656 109.0512 40.5 110.0043 40.9062 L111.4887 41.5469 C112.4575 41.9844 113.1918 42.3125 113.1918 43.375 C113.1918 44.375 112.3793 45.0469 111.0356 45.0469 C109.9731 45.0469 108.9418 44.5469 108.2075 43.7812 L107.4262 44.6562 C108.3168 45.5938 109.5668 46.1875 111.02 46.1875 Z"
    /></g
    ><g style="fill:white; text-rendering:optimizeSpeed; stroke:white;"
    ><polygon style="stroke:none; clip-path:url(#clipPath6);" points=" 48 53 58 60 54 72 41 72 37 60 48 53"
      /><rect x="37" y="53" width="22" style="clip-path:url(#clipPath6); stroke:none;" height="22"
      /><rect x="37" y="53" width="22" style="clip-path:url(#clipPath6); fill:none; stroke:black;" height="22"
      /><polygon style="fill:none; stroke:black;" points=" 48 53 58 60 54 72 41 72 37 60 48 53"
    /></g
    ><g style="text-rendering:optimizeSpeed; font-size:14px; font-family:'SansSerif';"
    ><path style="stroke:none;" d="M46.2344 69 L51.8594 69 L51.8594 67.9375 L49.7969 67.9375 L49.7969 58.7188 L48.8281 58.7188 C48.2656 59.0625 47.6094 59.2969 46.6875 59.4688 L46.6875 60.2812 L48.5156 60.2812 L48.5156 67.9375 L46.2344 67.9375 L46.2344 69 Z"
      /><rect x="40" y="81" width="14" style="fill:white; stroke:none;" height="10"
      /><path style="stroke:none;" d="M40.6094 92 L47.0625 92 L47.0625 90.8906 L44.2344 90.8906 C43.7031 90.8906 43.0781 90.9531 42.5469 90.9844 C44.9531 88.7031 46.5625 86.625 46.5625 84.5781 C46.5625 82.75 45.4219 81.5469 43.5781 81.5469 C42.2812 81.5469 41.4062 82.1406 40.5625 83.0469 L41.2969 83.7812 C41.8594 83.1094 42.5938 82.5938 43.4375 82.5938 C44.7031 82.5938 45.3125 83.4531 45.3125 84.625 C45.3125 86.3906 43.8438 88.4375 40.6094 91.25 L40.6094 92 ZM52.02 92.1875 C54.1606 92.1875 55.5043 90.8906 55.5043 89.2656 C55.5043 87.75 54.5825 87.0469 53.395 86.5312 L51.9262 85.8906 C51.1293 85.5625 50.2387 85.1875 50.2387 84.1875 C50.2387 83.2656 50.9887 82.6719 52.145 82.6719 C53.0981 82.6719 53.8637 83.0469 54.4887 83.6406 L55.1762 82.8125 C54.4418 82.0625 53.3637 81.5469 52.145 81.5469 C50.2856 81.5469 48.9106 82.6875 48.9106 84.2656 C48.9106 85.7656 50.0512 86.5 51.0043 86.9062 L52.4887 87.5469 C53.4575 87.9844 54.1918 88.3125 54.1918 89.375 C54.1918 90.375 53.3793 91.0469 52.0356 91.0469 C50.9731 91.0469 49.9418 90.5469 49.2075 89.7812 L48.4262 90.6562 C49.3168 91.5938 50.5668 92.1875 52.02 92.1875 Z"
      /><rect x="30" y="34" width="34" style="fill:white; stroke:none;" height="12"
      /><path style="stroke:none;" d="M33.6562 47.1875 C35.3906 47.1875 37.0156 45.9062 37.0156 43.6562 C37.0156 41.4062 35.625 40.3906 33.9219 40.3906 C33.2969 40.3906 32.8594 40.5469 32.3906 40.7969 L32.6406 37.8281 L36.5312 37.8281 L36.5312 36.7188 L31.5312 36.7188 L31.2031 41.5469 L31.8906 41.9531 C32.4844 41.5625 32.9062 41.3594 33.5938 41.3594 C34.8906 41.3594 35.7188 42.2188 35.7188 43.7031 C35.7188 45.1875 34.75 46.125 33.5469 46.125 C32.3594 46.125 31.6094 45.5781 31.0156 44.9844 L30.3906 45.8281 C31.0781 46.5156 32.0625 47.1875 33.6562 47.1875 ZM38.8168 49.6562 C40.0825 49.125 40.8637 48.0781 40.8637 46.7344 C40.8637 45.7969 40.4575 45.2188 39.7856 45.2188 C39.27 45.2188 38.8168 45.5781 38.8168 46.125 C38.8168 46.7031 39.27 47.0156 39.7543 47.0156 C39.8168 47.0156 39.8637 47.0156 39.9106 47 C39.9106 47.8281 39.395 48.5156 38.5043 48.9062 L38.8168 49.6562 ZM43.2713 43.1562 L45.6151 39.6562 C45.8963 39.1406 46.1776 38.6406 46.4432 38.1406 L46.4901 38.1406 C46.4588 38.6719 46.4276 39.5 46.4276 40 L46.4276 43.1562 L43.2713 43.1562 ZM46.4276 47 L47.6307 47 L47.6307 44.1719 L48.9901 44.1719 L48.9901 43.1562 L47.6307 43.1562 L47.6307 36.7188 L46.2088 36.7188 L41.9432 43.3281 L41.9432 44.1719 L46.4276 44.1719 L46.4276 47 ZM53.7913 47.1875 C54.8226 47.1875 55.6351 46.8281 56.3069 46.3906 L55.8382 45.5625 C55.2913 45.9375 54.6819 46.1562 53.9476 46.1562 C52.4944 46.1562 51.5101 45.125 51.4163 43.5 L56.5413 43.5 C56.5726 43.3125 56.6038 43.0469 56.6038 42.7656 C56.6038 40.6094 55.5101 39.2031 53.5726 39.2031 C51.8069 39.2031 50.1507 40.7344 50.1507 43.2031 C50.1507 45.7188 51.7757 47.1875 53.7913 47.1875 ZM51.4007 42.5781 C51.5569 41.0938 52.5101 40.2188 53.5882 40.2188 C54.7757 40.2188 55.4788 41.0469 55.4788 42.5781 L51.4007 42.5781 ZM58.4691 47 L59.7504 47 L59.7504 41.4844 C60.516 40.7188 61.0473 40.3281 61.8285 40.3281 C62.8441 40.3281 63.2816 40.9219 63.2816 42.3594 L63.2816 47 L64.5473 47 L64.5473 42.1875 C64.5473 40.2344 63.8285 39.2031 62.2348 39.2031 C61.1879 39.2031 60.4066 39.7812 59.6723 40.4844 L59.641 40.4844 L59.5316 39.3906 L58.4691 39.3906 L58.4691 47 Z"
    /></g
    ><g style="fill:white; text-rendering:optimizeSpeed; font-family:'Serif'; stroke:white;"
    ><rect x="85" width="5" height="10" y="67" style="stroke:none;"
      /><path d="M86.8906 75.6875 C86.4844 75.6875 86.1562 76.0469 86.1562 76.4219 C86.1562 76.8125 86.4844 77.1562 86.8906 77.1562 C87.2969 77.1562 87.6406 76.8125 87.6406 76.4219 C87.6406 76.0469 87.2969 75.6875 86.8906 75.6875 ZM88.4688 69.5781 C88.7188 69.8906 88.875 70.2656 88.8906 70.6562 C88.8906 71.1875 88.625 71.5 88.0312 71.7656 L87.4062 72.0156 C86.6406 72.3125 86.3906 72.5469 86.3906 72.9375 C86.3906 73.1094 86.4531 73.3438 86.5781 73.8125 L86.7344 74.3438 L87.1094 74.3438 L87.0938 73.5312 C87.0938 73.0938 87.2031 72.9688 87.7812 72.7344 L88.2031 72.5625 C89.0312 72.2188 89.4531 71.6875 89.4531 70.8438 C89.4531 69.1562 87.6562 68.1875 86.5 68.0312 C86.1094 68.125 85.9062 68.2969 85.9062 68.6406 C85.9062 68.9375 86.0625 69.1562 86.7188 69.2656 L88.4688 69.5781 Z" style="fill:black; stroke:none;"
      /><rect x="71" width="5" height="10" y="67" style="stroke:none;"
      /><path d="M72.8906 75.6875 C72.4844 75.6875 72.1562 76.0469 72.1562 76.4219 C72.1562 76.8125 72.4844 77.1562 72.8906 77.1562 C73.2969 77.1562 73.6406 76.8125 73.6406 76.4219 C73.6406 76.0469 73.2969 75.6875 72.8906 75.6875 ZM74.4688 69.5781 C74.7188 69.8906 74.875 70.2656 74.8906 70.6562 C74.8906 71.1875 74.625 71.5 74.0312 71.7656 L73.4062 72.0156 C72.6406 72.3125 72.3906 72.5469 72.3906 72.9375 C72.3906 73.1094 72.4531 73.3438 72.5781 73.8125 L72.7344 74.3438 L73.1094 74.3438 L73.0938 73.5312 C73.0938 73.0938 73.2031 72.9688 73.7812 72.7344 L74.2031 72.5625 C75.0312 72.2188 75.4531 71.6875 75.4531 70.8438 C75.4531 69.1562 73.6562 68.1875 72.5 68.0312 C72.1094 68.125 71.9062 68.2969 71.9062 68.6406 C71.9062 68.9375 72.0625 69.1562 72.7188 69.2656 L74.4688 69.5781 Z" style="fill:black; stroke:none;"
      /><rect x="137" width="5" height="10" y="67" style="stroke:none;"
      /><path d="M138.8906 75.6875 C138.4844 75.6875 138.1562 76.0469 138.1562 76.4219 C138.1562 76.8125 138.4844 77.1562 138.8906 77.1562 C139.2969 77.1562 139.6406 76.8125 139.6406 76.4219 C139.6406 76.0469 139.2969 75.6875 138.8906 75.6875 ZM140.4688 69.5781 C140.7188 69.8906 140.875 70.2656 140.8906 70.6562 C140.8906 71.1875 140.625 71.5 140.0312 71.7656 L139.4062 72.0156 C138.6406 72.3125 138.3906 72.5469 138.3906 72.9375 C138.3906 73.1094 138.4531 73.3438 138.5781 73.8125 L138.7344 74.3438 L139.1094 74.3438 L139.0938 73.5312 C139.0938 73.0938 139.2031 72.9688 139.7812 72.7344 L140.2031 72.5625 C141.0312 72.2188 141.4531 71.6875 141.4531 70.8438 C141.4531 69.1562 139.6562 68.1875 138.5 68.0312 C138.1094 68.125 137.9062 68.2969 137.9062 68.6406 C137.9062 68.9375 138.0625 69.1562 138.7188 69.2656 L140.4688 69.5781 Z" style="fill:black; stroke:none;"
      /><rect x="123" width="5" height="10" y="67" style="stroke:none;"
      /><path d="M124.8906 75.6875 C124.4844 75.6875 124.1562 76.0469 124.1562 76.4219 C124.1562 76.8125 124.4844 77.1562 124.8906 77.1562 C125.2969 77.1562 125.6406 76.8125 125.6406 76.4219 C125.6406 76.0469 125.2969 75.6875 124.8906 75.6875 ZM126.4688 69.5781 C126.7188 69.8906 126.875 70.2656 126.8906 70.6562 C126.8906 71.1875 126.625 71.5 126.0312 71.7656 L125.4062 72.0156 C124.6406 72.3125 124.3906 72.5469 124.3906 72.9375 C124.3906 73.1094 124.4531 73.3438 124.5781 73.8125 L124.7344 74.3438 L125.1094 74.3438 L125.0938 73.5312 C125.0938 73.0938 125.2031 72.9688 125.7812 72.7344 L126.2031 72.5625 C127.0312 72.2188 127.4531 71.6875 127.4531 70.8438 C127.4531 69.1562 125.6562 68.1875 124.5 68.0312 C124.1094 68.125 123.9062 68.2969 123.9062 68.6406 C123.9062 68.9375 124.0625 69.1562 124.7188 69.2656 L126.4688 69.5781 Z" style="fill:black; stroke:none;"
      /><rect x="189" width="5" height="10" y="67" style="stroke:none;"
      /><path d="M190.8906 75.6875 C190.4844 75.6875 190.1562 76.0469 190.1562 76.4219 C190.1562 76.8125 190.4844 77.1562 190.8906 77.1562 C191.2969 77.1562 191.6406 76.8125 191.6406 76.4219 C191.6406 76.0469 191.2969 75.6875 190.8906 75.6875 ZM192.4688 69.5781 C192.7188 69.8906 192.875 70.2656 192.8906 70.6562 C192.8906 71.1875 192.625 71.5 192.0312 71.7656 L191.4062 72.0156 C190.6406 72.3125 190.3906 72.5469 190.3906 72.9375 C190.3906 73.1094 190.4531 73.3438 190.5781 73.8125 L190.7344 74.3438 L191.1094 74.3438 L191.0938 73.5312 C191.0938 73.0938 191.2031 72.9688 191.7812 72.7344 L192.2031 72.5625 C193.0312 72.2188 193.4531 71.6875 193.4531 70.8438 C193.4531 69.1562 191.6562 68.1875 190.5 68.0312 C190.1094 68.125 189.9062 68.2969 189.9062 68.6406 C189.9062 68.9375 190.0625 69.1562 190.7188 69.2656 L192.4688 69.5781 Z" style="fill:black; stroke:none;"
      /><rect x="175" width="5" height="10" y="67" style="stroke:none;"
      /><path d="M176.8906 75.6875 C176.4844 75.6875 176.1562 76.0469 176.1562 76.4219 C176.1562 76.8125 176.4844 77.1562 176.8906 77.1562 C177.2969 77.1562 177.6406 76.8125 177.6406 76.4219 C177.6406 76.0469 177.2969 75.6875 176.8906 75.6875 ZM178.4688 69.5781 C178.7188 69.8906 178.875 70.2656 178.8906 70.6562 C178.8906 71.1875 178.625 71.5 178.0312 71.7656 L177.4062 72.0156 C176.6406 72.3125 176.3906 72.5469 176.3906 72.9375 C176.3906 73.1094 176.4531 73.3438 176.5781 73.8125 L176.7344 74.3438 L177.1094 74.3438 L177.0938 73.5312 C177.0938 73.0938 177.2031 72.9688 177.7812 72.7344 L178.2031 72.5625 C179.0312 72.2188 179.4531 71.6875 179.4531 70.8438 C179.4531 69.1562 177.6562 68.1875 176.5 68.0312 C176.1094 68.125 175.9062 68.2969 175.9062 68.6406 C175.9062 68.9375 176.0625 69.1562 176.7188 69.2656 L178.4688 69.5781 Z" style="fill:black; stroke:none;"
      /><rect x="241" width="5" height="10" y="67" style="stroke:none;"
      /><path d="M242.8906 75.6875 C242.4844 75.6875 242.1562 76.0469 242.1562 76.4219 C242.1562 76.8125 242.4844 77.1562 242.8906 77.1562 C243.2969 77.1562 243.6406 76.8125 243.6406 76.4219 C243.6406 76.0469 243.2969 75.6875 242.8906 75.6875 ZM244.4688 69.5781 C244.7188 69.8906 244.875 70.2656 244.8906 70.6562 C244.8906 71.1875 244.625 71.5 244.0312 71.7656 L243.4062 72.0156 C242.6406 72.3125 242.3906 72.5469 242.3906 72.9375 C242.3906 73.1094 242.4531 73.3438 242.5781 73.8125 L242.7344 74.3438 L243.1094 74.3438 L243.0938 73.5312 C243.0938 73.0938 243.2031 72.9688 243.7812 72.7344 L244.2031 72.5625 C245.0312 72.2188 245.4531 71.6875 245.4531 70.8438 C245.4531 69.1562 243.6562 68.1875 242.5 68.0312 C242.1094 68.125 241.9062 68.2969 241.9062 68.6406 C241.9062 68.9375 242.0625 69.1562 242.7188 69.2656 L244.4688 69.5781 Z" style="fill:black; stroke:none;"
      /><rect x="227" width="5" height="10" y="67" style="stroke:none;"
      /><path d="M228.8906 75.6875 C228.4844 75.6875 228.1562 76.0469 228.1562 76.4219 C228.1562 76.8125 228.4844 77.1562 228.8906 77.1562 C229.2969 77.1562 229.6406 76.8125 229.6406 76.4219 C229.6406 76.0469 229.2969 75.6875 228.8906 75.6875 ZM230.4688 69.5781 C230.7188 69.8906 230.875 70.2656 230.8906 70.6562 C230.8906 71.1875 230.625 71.5 230.0312 71.7656 L229.4062 72.0156 C228.6406 72.3125 228.3906 72.5469 228.3906 72.9375 C228.3906 73.1094 228.4531 73.3438 228.5781 73.8125 L228.7344 74.3438 L229.1094 74.3438 L229.0938 73.5312 C229.0938 73.0938 229.2031 72.9688 229.7812 72.7344 L230.2031 72.5625 C231.0312 72.2188 231.4531 71.6875 231.4531 70.8438 C231.4531 69.1562 229.6562 68.1875 228.5 68.0312 C228.1094 68.125 227.9062 68.2969 227.9062 68.6406 C227.9062 68.9375 228.0625 69.1562 228.7188 69.2656 L230.4688 69.5781 Z" style="fill:black; stroke:none;"
      /><rect x="293" width="5" height="10" y="67" style="stroke:none;"
      /><path d="M294.8906 75.6875 C294.4844 75.6875 294.1562 76.0469 294.1562 76.4219 C294.1562 76.8125 294.4844 77.1562 294.8906 77.1562 C295.2969 77.1562 295.6406 76.8125 295.6406 76.4219 C295.6406 76.0469 295.2969 75.6875 294.8906 75.6875 ZM296.4688 69.5781 C296.7188 69.8906 296.875 70.2656 296.8906 70.6562 C296.8906 71.1875 296.625 71.5 296.0312 71.7656 L295.4062 72.0156 C294.6406 72.3125 294.3906 72.5469 294.3906 72.9375 C294.3906 73.1094 294.4531 73.3438 294.5781 73.8125 L294.7344 74.3438 L295.1094 74.3438 L295.0938 73.5312 C295.0938 73.0938 295.2031 72.9688 295.7812 72.7344 L296.2031 72.5625 C297.0312 72.2188 297.4531 71.6875 297.4531 70.8438 C297.4531 69.1562 295.6562 68.1875 294.5 68.0312 C294.1094 68.125 293.9062 68.2969 293.9062 68.6406 C293.9062 68.9375 294.0625 69.1562 294.7188 69.2656 L296.4688 69.5781 Z" style="fill:black; stroke:none;"
      /><rect x="279" width="5" height="10" y="67" style="stroke:none;"
      /><path d="M280.8906 75.6875 C280.4844 75.6875 280.1562 76.0469 280.1562 76.4219 C280.1562 76.8125 280.4844 77.1562 280.8906 77.1562 C281.2969 77.1562 281.6406 76.8125 281.6406 76.4219 C281.6406 76.0469 281.2969 75.6875 280.8906 75.6875 ZM282.4688 69.5781 C282.7188 69.8906 282.875 70.2656 282.8906 70.6562 C282.8906 71.1875 282.625 71.5 282.0312 71.7656 L281.4062 72.0156 C280.6406 72.3125 280.3906 72.5469 280.3906 72.9375 C280.3906 73.1094 280.4531 73.3438 280.5781 73.8125 L280.7344 74.3438 L281.1094 74.3438 L281.0938 73.5312 C281.0938 73.0938 281.2031 72.9688 281.7812 72.7344 L282.2031 72.5625 C283.0312 72.2188 283.4531 71.6875 283.4531 70.8438 C283.4531 69.1562 281.6562 68.1875 280.5 68.0312 C280.1094 68.125 279.9062 68.2969 279.9062 68.6406 C279.9062 68.9375 280.0625 69.1562 280.7188 69.2656 L282.4688 69.5781 Z" style="fill:black; stroke:none;"
      /><rect x="331" width="5" height="10" y="67" style="stroke:none;"
      /><path d="M332.8906 75.6875 C332.4844 75.6875 332.1562 76.0469 332.1562 76.4219 C332.1562 76.8125 332.4844 77.1562 332.8906 77.1562 C333.2969 77.1562 333.6406 76.8125 333.6406 76.4219 C333.6406 76.0469 333.2969 75.6875 332.8906 75.6875 ZM334.4688 69.5781 C334.7188 69.8906 334.875 70.2656 334.8906 70.6562 C334.8906 71.1875 334.625 71.5 334.0312 71.7656 L333.4062 72.0156 C332.6406 72.3125 332.3906 72.5469 332.3906 72.9375 C332.3906 73.1094 332.4531 73.3438 332.5781 73.8125 L332.7344 74.3438 L333.1094 74.3438 L333.0938 73.5312 C333.0938 73.0938 333.2031 72.9688 333.7812 72.7344 L334.2031 72.5625 C335.0312 72.2188 335.4531 71.6875 335.4531 70.8438 C335.4531 69.1562 333.6562 68.1875 332.5 68.0312 C332.1094 68.125 331.9062 68.2969 331.9062 68.6406 C331.9062 68.9375 332.0625 69.1562 332.7188 69.2656 L334.4688 69.5781 Z" style="fill:black; stroke:none;"
    /></g
    ><g ID="legend-1:0" style="text-rendering:optimizeSpeed; font-size:10px; font-family:'SansSerif';"
    ><path style="stroke:none;" d="M30.875 113 L34.9062 113 L34.9062 112.2344 L33.4375 112.2344 L33.4375 105.6562 L32.7344 105.6562 C32.3281 105.9062 31.8594 106.0625 31.2031 106.1875 L31.2031 106.7656 L32.5156 106.7656 L32.5156 112.2344 L30.875 112.2344 L30.875 113 ZM35.925 108.4531 L40.7219 108.4531 L40.7219 107.7656 L35.925 107.7656 L35.925 108.4531 ZM35.925 110.8438 L40.7219 110.8438 L40.7219 110.1719 L35.925 110.1719 L35.925 110.8438 ZM42.8812 110.7969 L43.6937 110.7969 C43.5062 109.2188 45.3031 108.625 45.3031 107.1562 C45.3031 106.0625 44.5687 105.375 43.4437 105.375 C42.6312 105.375 41.9906 105.7656 41.5375 106.2969 L42.0531 106.7812 C42.3969 106.375 42.8344 106.1406 43.3344 106.1406 C44.0531 106.1406 44.4125 106.625 44.4125 107.2188 C44.4125 108.4062 42.6469 109.0469 42.8812 110.7969 ZM43.3031 113.125 C43.6781 113.125 43.975 112.8438 43.975 112.4375 C43.975 112.0156 43.6781 111.7344 43.3031 111.7344 C42.9437 111.7344 42.6469 112.0156 42.6469 112.4375 C42.6469 112.8438 42.9437 113.125 43.3031 113.125 ZM46.2931 110.5469 L48.8556 110.5469 L48.8556 109.8438 L46.2931 109.8438 L46.2931 110.5469 ZM50.31 113 L54.435 113 L54.435 112.2031 L51.2475 112.2031 L51.2475 105.6562 L50.31 105.6562 L50.31 113 ZM55.1931 110.5469 L57.7556 110.5469 L57.7556 109.8438 L55.1931 109.8438 L55.1931 110.5469 ZM60.835 113.125 C61.1631 113.125 61.5225 113.0312 61.835 112.9375 L61.6631 112.25 C61.4756 112.3125 61.2256 112.3906 61.0381 112.3906 C60.4131 112.3906 60.1943 112.0156 60.1943 111.3438 L60.1943 108.3125 L61.6631 108.3125 L61.6631 107.5625 L60.1943 107.5625 L60.1943 106.0469 L59.4443 106.0469 L59.335 107.5625 L58.4756 107.625 L58.4756 108.3125 L59.2881 108.3125 L59.2881 111.3125 C59.2881 112.4062 59.6787 113.125 60.835 113.125 ZM62.9018 113 L63.8081 113 L63.8081 109.0625 C64.3549 108.5156 64.7456 108.2344 65.2924 108.2344 C66.0268 108.2344 66.3237 108.6562 66.3237 109.6875 L66.3237 113 L67.2456 113 L67.2456 109.5625 C67.2456 108.1719 66.7143 107.4375 65.5737 107.4375 C64.8393 107.4375 64.2768 107.8438 63.7768 108.3438 L63.8081 107.2188 L63.8081 105.0469 L62.9018 105.0469 L62.9018 113 ZM68.9718 113 L69.8781 113 L69.8781 109.5156 C70.2374 108.5781 70.7999 108.2656 71.2531 108.2656 C71.4718 108.2656 71.5968 108.2812 71.7843 108.3438 L71.9562 107.5469 C71.7843 107.4531 71.6124 107.4375 71.3624 107.4375 C70.7531 107.4375 70.2062 107.875 69.8312 108.5625 L69.7999 108.5625 L69.7218 107.5625 L68.9718 107.5625 L68.9718 113 ZM72.9299 113 L73.8674 113 L73.8674 109.5469 L77.2737 109.5469 L77.2737 113 L78.1956 113 L78.1956 105.6562 L77.2737 105.6562 L77.2737 108.7344 L73.8674 108.7344 L73.8674 105.6562 L72.9299 105.6562 L72.9299 113 ZM82.3193 113.125 C83.0537 113.125 83.6474 112.875 84.1162 112.5625 L83.7881 111.9688 C83.3974 112.2344 82.9599 112.4062 82.4287 112.4062 C81.3974 112.4062 80.6943 111.6562 80.6318 110.5 L84.2881 110.5 C84.3037 110.375 84.3349 110.1875 84.3349 109.9844 C84.3349 108.4375 83.5537 107.4375 82.1631 107.4375 C80.9131 107.4375 79.7256 108.5312 79.7256 110.2969 C79.7256 112.0781 80.8818 113.125 82.3193 113.125 ZM80.6162 109.8438 C80.7256 108.7812 81.4131 108.1562 82.1787 108.1562 C83.0224 108.1562 83.5224 108.75 83.5224 109.8438 L80.6162 109.8438 ZM84.9062 113 L85.8593 113 L86.5937 111.7344 C86.7812 111.4062 86.953 111.0625 87.1562 110.7656 L87.203 110.7656 C87.4062 111.0625 87.5937 111.4062 87.7812 111.7344 L88.578 113 L89.578 113 L87.7968 110.2656 L89.4374 107.5625 L88.4843 107.5625 L87.8124 108.7656 C87.6562 109.0625 87.4999 109.375 87.328 109.6719 L87.2968 109.6719 C87.1093 109.375 86.9218 109.0625 86.7499 108.7656 L86.0155 107.5625 L85.0468 107.5625 L86.6874 110.1719 L84.9062 113 ZM90.6518 115.2969 L91.558 115.2969 L91.558 113.4531 L91.5424 112.5 C92.0268 112.9062 92.5424 113.125 93.0424 113.125 C94.2924 113.125 95.4018 112.0625 95.4018 110.2031 C95.4018 108.5312 94.6362 107.4375 93.2455 107.4375 C92.6049 107.4375 91.9955 107.7969 91.5112 108.1875 L91.4799 108.1875 L91.4018 107.5625 L90.6518 107.5625 L90.6518 115.2969 ZM92.8862 112.375 C92.5268 112.375 92.0424 112.2188 91.558 111.7969 L91.558 108.9531 C92.0893 108.4531 92.558 108.2031 93.0268 108.2031 C94.0424 108.2031 94.4487 109.0156 94.4487 110.2031 C94.4487 111.5625 93.7924 112.375 92.8862 112.375 ZM98.1955 108.9062 C98.4612 108.0625 98.6955 107.2812 98.9299 106.4219 L98.9768 106.4219 C99.2112 107.2656 99.4455 108.0625 99.7112 108.9062 L100.0549 110.0156 L97.8362 110.0156 L98.1955 108.9062 ZM95.9612 113 L96.8987 113 L97.6174 110.7656 L100.2893 110.7656 L100.9924 113 L101.9768 113 L99.4768 105.6562 L98.4455 105.6562 L95.9612 113 ZM102.4374 113 L107.0468 113 L107.0468 112.2031 L105.0155 112.2031 C104.6562 112.2031 104.203 112.25 103.8124 112.2812 C105.5468 110.6562 106.6874 109.1562 106.6874 107.7031 C106.6874 106.3906 105.8749 105.5312 104.5624 105.5312 C103.6249 105.5312 102.9999 105.9531 102.4062 106.6094 L102.9374 107.125 C103.328 106.6562 103.8437 106.2812 104.453 106.2812 C105.3593 106.2812 105.7968 106.8906 105.7968 107.7344 C105.7968 108.9844 104.7343 110.4531 102.4374 112.4531 L102.4374 113 ZM110.5968 113.125 C112.1124 113.125 113.0811 112.2031 113.0811 111.0469 C113.0811 109.9531 112.4249 109.4531 111.5655 109.0938 L110.5186 108.6406 C109.9561 108.4062 109.3155 108.125 109.3155 107.4219 C109.3155 106.7656 109.8468 106.3438 110.6749 106.3438 C111.3624 106.3438 111.8936 106.6094 112.3468 107.0312 L112.8468 106.4375 C112.3155 105.9062 111.5499 105.5312 110.6749 105.5312 C109.3468 105.5312 108.3624 106.3438 108.3624 107.4844 C108.3624 108.5469 109.1749 109.0625 109.8624 109.3594 L110.9249 109.8125 C111.6124 110.125 112.1436 110.375 112.1436 111.125 C112.1436 111.8438 111.5655 112.3125 110.5968 112.3125 C109.8468 112.3125 109.0968 111.9531 108.5811 111.4062 L108.0186 112.0469 C108.6593 112.7031 109.5499 113.125 110.5968 113.125 ZM114.6761 110.25 L116.3324 107.75 C116.5511 107.3906 116.7543 107.0312 116.9261 106.6719 L116.973 106.6719 C116.9574 107.0469 116.9261 107.6406 116.9261 108 L116.9261 110.25 L114.6761 110.25 ZM116.9261 113 L117.7855 113 L117.7855 110.9844 L118.7543 110.9844 L118.7543 110.25 L117.7855 110.25 L117.7855 105.6562 L116.7699 105.6562 L113.723 110.375 L113.723 110.9844 L116.9261 110.9844 L116.9261 113 ZM121.4605 114.9688 L122.023 114.7031 C121.1636 113.2812 120.7574 111.5938 120.7574 109.8906 C120.7574 108.1875 121.1636 106.5156 122.023 105.0781 L121.4605 104.8125 C120.5386 106.3125 119.9918 107.9375 119.9918 109.8906 C119.9918 111.8594 120.5386 113.4688 121.4605 114.9688 ZM123.4499 113 L127.7936 113 L127.7936 112.2031 L124.3874 112.2031 L124.3874 109.5469 L127.153 109.5469 L127.153 108.75 L124.3874 108.75 L124.3874 106.4531 L127.6842 106.4531 L127.6842 105.6562 L123.4499 105.6562 L123.4499 113 ZM129.3142 114.9688 C130.2517 113.4688 130.7986 111.8594 130.7986 109.8906 C130.7986 107.9375 130.2517 106.3125 129.3142 104.8125 L128.7674 105.0781 C129.6267 106.5156 130.033 108.1875 130.033 109.8906 C130.033 111.5938 129.6267 113.2812 128.7674 114.7031 L129.3142 114.9688 ZM134.8192 113.125 C135.5536 113.125 136.1474 112.875 136.6161 112.5625 L136.288 111.9688 C135.8974 112.2344 135.4599 112.4062 134.9286 112.4062 C133.8974 112.4062 133.1942 111.6562 133.1317 110.5 L136.788 110.5 C136.8036 110.375 136.8349 110.1875 136.8349 109.9844 C136.8349 108.4375 136.0536 107.4375 134.663 107.4375 C133.413 107.4375 132.2255 108.5312 132.2255 110.2969 C132.2255 112.0781 133.3817 113.125 134.8192 113.125 ZM133.1161 109.8438 C133.2255 108.7812 133.913 108.1562 134.6786 108.1562 C135.5224 108.1562 136.0224 108.75 136.0224 109.8438 L133.1161 109.8438 ZM138.1717 113 L139.078 113 L139.078 109.0625 C139.6248 108.5156 140.0155 108.2344 140.5623 108.2344 C141.2967 108.2344 141.5936 108.6562 141.5936 109.6875 L141.5936 113 L142.5155 113 L142.5155 109.5625 C142.5155 108.1719 141.9842 107.4375 140.8436 107.4375 C140.1092 107.4375 139.5467 107.8438 139.0311 108.3438 L138.9998 108.3438 L138.9217 107.5625 L138.1717 107.5625 L138.1717 113 Z"
    /></g
  ></g
></svg
>
