<?xml version="1.0"?>
<!DOCTYPE svg PUBLIC '-//W3C//DTD SVG 1.0//EN'
          'http://www.w3.org/TR/2001/REC-SVG-20010904/DTD/svg10.dtd'>
<svg xmlns:xlink="http://www.w3.org/1999/xlink" style="fill-opacity:1; color-rendering:auto; color-interpolation:auto; text-rendering:auto; stroke:black; stroke-linecap:square; stroke-miterlimit:10; shape-rendering:auto; stroke-opacity:1; fill:black; stroke-dasharray:none; font-weight:normal; stroke-width:1; font-family:'Dialog'; font-style:normal; stroke-linejoin:miter; font-size:12px; stroke-dashoffset:0; image-rendering:auto;" viewBox="0 0 243 128" xmlns="http://www.w3.org/2000/svg"
><!--Generated by the Batik Graphics2D SVG Generator--><defs id="genericDefs"
  /><g
  ><defs id="defs1"
    ><clipPath clipPathUnits="userSpaceOnUse" id="clipPath1"
      ><path style="fill-rule:evenodd;" d="M150 53 L161 75 L139 75 Z"
      /></clipPath
      ><clipPath clipPathUnits="userSpaceOnUse" id="clipPath2"
      ><path style="fill-rule:evenodd;" d="M98 53 L109 75 L87 75 Z"
      /></clipPath
      ><clipPath clipPathUnits="userSpaceOnUse" id="clipPath3"
      ><path style="fill-rule:evenodd;" d="M43 53 L54 75 L32 75 Z"
      /></clipPath
    ></defs
    ><g style="fill:white; text-rendering:optimizeSpeed; stroke:white;"
    ><rect x="0" width="243" height="128" y="0" style="stroke:none;"
      /><polygon style="fill:none; stroke:black;" points=" 202 64 150 64"
      /><path d="M202 53 C196.5 58.5 207.5 69.5 202 75" style="fill:none; stroke:black;"
      /><polygon style="fill:none; stroke:black;" points=" 150 64 98 64"
      /><polygon style="clip-path:url(#clipPath1); stroke:none;" points=" 150 53 161 75 139 75"
      /><rect x="139" y="53" width="22" style="clip-path:url(#clipPath1); fill:rgb(0,166,81); stroke:none;" height="22"
      /><rect x="139" y="53" width="22" style="clip-path:url(#clipPath1); fill:none; stroke:black;" height="22"
      /><polygon style="fill:none; stroke:black;" points=" 150 53 161 75 139 75"
    /></g
    ><g style="text-rendering:optimizeSpeed; font-size:10px; font-family:'SansSerif';"
    ><path style="stroke:none;" d="M148 67 L149.875 67 C152.0938 67 153.2969 65.625 153.2969 63.3125 C153.2969 60.9844 152.0938 59.6562 149.8438 59.6562 L148 59.6562 L148 67 ZM148.9375 66.2344 L148.9375 60.4219 L149.7656 60.4219 C151.4844 60.4219 152.3438 61.4531 152.3438 63.3125 C152.3438 65.1562 151.4844 66.2344 149.7656 66.2344 L148.9375 66.2344 Z"
      /><rect x="141" y="35" width="16" style="fill:white; stroke:none;" height="10"
      /><path style="stroke:none;" d="M142.6094 42.1562 L144.9531 38.6562 C145.2344 38.1406 145.5156 37.6406 145.7812 37.1406 L145.8281 37.1406 C145.7969 37.6719 145.7656 38.5 145.7656 39 L145.7656 42.1562 L142.6094 42.1562 ZM145.7656 46 L146.9688 46 L146.9688 43.1719 L148.3281 43.1719 L148.3281 42.1562 L146.9688 42.1562 L146.9688 35.7188 L145.5469 35.7188 L141.2812 42.3281 L141.2812 43.1719 L145.7656 43.1719 L145.7656 46 ZM150.1762 46 L151.395 46 L151.395 40.6094 C151.395 39.5312 151.3012 38.4375 151.2543 37.4062 L151.3012 37.4062 L152.4106 39.5156 L156.145 46 L157.4731 46 L157.4731 35.7188 L156.2387 35.7188 L156.2387 41.0781 C156.2387 42.1406 156.3481 43.2812 156.4106 44.3125 L156.3481 44.3125 L155.2543 42.2031 L151.52 35.7188 L150.1762 35.7188 L150.1762 46 Z"
      /><polygon style="fill:none;" points=" 98 64 43 64"
    /></g
    ><g style="fill:white; text-rendering:optimizeSpeed; stroke:white;"
    ><polygon style="stroke:none; clip-path:url(#clipPath2);" points=" 98 53 109 75 87 75"
      /><rect x="87" y="53" width="22" style="clip-path:url(#clipPath2); fill:rgb(0,166,81); stroke:none;" height="22"
      /><rect x="87" y="53" width="22" style="clip-path:url(#clipPath2); fill:none; stroke:black;" height="22"
      /><polygon style="fill:none; stroke:black;" points=" 98 53 109 75 87 75"
    /></g
    ><g style="text-rendering:optimizeSpeed; font-size:10px; font-family:'SansSerif';"
    ><path style="stroke:none;" d="M96 67 L97.875 67 C100.0938 67 101.2969 65.625 101.2969 63.3125 C101.2969 60.9844 100.0938 59.6562 97.8438 59.6562 L96 59.6562 L96 67 ZM96.9375 66.2344 L96.9375 60.4219 L97.7656 60.4219 C99.4844 60.4219 100.3438 61.4531 100.3438 63.3125 C100.3438 65.1562 99.4844 66.2344 97.7656 66.2344 L96.9375 66.2344 Z"
      /><rect x="89" y="35" width="16" style="fill:white; stroke:none;" height="10"
      /><path style="stroke:none;" d="M90.6094 42.1562 L92.9531 38.6562 C93.2344 38.1406 93.5156 37.6406 93.7812 37.1406 L93.8281 37.1406 C93.7969 37.6719 93.7656 38.5 93.7656 39 L93.7656 42.1562 L90.6094 42.1562 ZM93.7656 46 L94.9688 46 L94.9688 43.1719 L96.3281 43.1719 L96.3281 42.1562 L94.9688 42.1562 L94.9688 35.7188 L93.5469 35.7188 L89.2812 42.3281 L89.2812 43.1719 L93.7656 43.1719 L93.7656 46 ZM98.1762 46 L99.395 46 L99.395 40.6094 C99.395 39.5312 99.3012 38.4375 99.2543 37.4062 L99.3012 37.4062 L100.4106 39.5156 L104.145 46 L105.4731 46 L105.4731 35.7188 L104.2387 35.7188 L104.2387 41.0781 C104.2387 42.1406 104.3481 43.2812 104.4106 44.3125 L104.3481 44.3125 L103.2543 42.2031 L99.52 35.7188 L98.1762 35.7188 L98.1762 46 Z"
    /></g
    ><g style="fill:white; text-rendering:optimizeSpeed; stroke:white;"
    ><polygon style="stroke:none; clip-path:url(#clipPath3);" points=" 43 53 54 75 32 75"
      /><rect x="32" y="53" width="22" style="clip-path:url(#clipPath3); fill:rgb(0,166,81); stroke:none;" height="22"
      /><rect x="32" y="53" width="22" style="clip-path:url(#clipPath3); fill:none; stroke:black;" height="22"
      /><polygon style="fill:none; stroke:black;" points=" 43 53 54 75 32 75"
    /></g
    ><g style="text-rendering:optimizeSpeed; font-size:10px; font-family:'SansSerif';"
    ><path style="stroke:none;" d="M41 67 L42.875 67 C45.0938 67 46.2969 65.625 46.2969 63.3125 C46.2969 60.9844 45.0938 59.6562 42.8438 59.6562 L41 59.6562 L41 67 ZM41.9375 66.2344 L41.9375 60.4219 L42.7656 60.4219 C44.4844 60.4219 45.3438 61.4531 45.3438 63.3125 C45.3438 65.1562 44.4844 66.2344 42.7656 66.2344 L41.9375 66.2344 Z"
      /><rect x="34" y="35" width="16" style="fill:white; stroke:none;" height="10"
      /><path style="stroke:none;" d="M35.6094 42.1562 L37.9531 38.6562 C38.2344 38.1406 38.5156 37.6406 38.7812 37.1406 L38.8281 37.1406 C38.7969 37.6719 38.7656 38.5 38.7656 39 L38.7656 42.1562 L35.6094 42.1562 ZM38.7656 46 L39.9688 46 L39.9688 43.1719 L41.3281 43.1719 L41.3281 42.1562 L39.9688 42.1562 L39.9688 35.7188 L38.5469 35.7188 L34.2812 42.3281 L34.2812 43.1719 L38.7656 43.1719 L38.7656 46 ZM43.1762 46 L44.395 46 L44.395 40.6094 C44.395 39.5312 44.3012 38.4375 44.2543 37.4062 L44.3012 37.4062 L45.4106 39.5156 L49.145 46 L50.4731 46 L50.4731 35.7188 L49.2387 35.7188 L49.2387 41.0781 C49.2387 42.1406 49.3481 43.2812 49.4106 44.3125 L49.3481 44.3125 L48.2543 42.2031 L44.52 35.7188 L43.1762 35.7188 L43.1762 46 Z"
      /><rect x="30" y="81" width="25" style="fill:white; stroke:none;" height="10"
      /><path style="stroke:none;" d="M30.6094 92 L37.0625 92 L37.0625 90.8906 L34.2344 90.8906 C33.7031 90.8906 33.0781 90.9531 32.5469 90.9844 C34.9531 88.7031 36.5625 86.625 36.5625 84.5781 C36.5625 82.75 35.4219 81.5469 33.5781 81.5469 C32.2812 81.5469 31.4062 82.1406 30.5625 83.0469 L31.2969 83.7812 C31.8594 83.1094 32.5938 82.5938 33.4375 82.5938 C34.7031 82.5938 35.3125 83.4531 35.3125 84.625 C35.3125 86.3906 33.8438 88.4375 30.6094 91.25 L30.6094 92 ZM39.1762 92 L40.3481 92 L40.3481 86.3125 C40.3481 85.4375 40.2543 84.1875 40.1918 83.2969 L40.2543 83.2969 L41.0668 85.625 L43.0043 90.9688 L43.8793 90.9688 L45.8168 85.625 L46.6293 83.2969 L46.6918 83.2969 C46.6137 84.1875 46.52 85.4375 46.52 86.3125 L46.52 92 L47.7387 92 L47.7387 81.7188 L46.1762 81.7188 L44.2075 87.2188 C43.9731 87.9375 43.7543 88.6562 43.5043 89.375 L43.4418 89.375 C43.1918 88.6562 42.9575 87.9375 42.7075 87.2188 L40.7387 81.7188 L39.1762 81.7188 L39.1762 92 ZM53.4973 92.1875 C54.5285 92.1875 55.341 91.8281 56.0129 91.3906 L55.5442 90.5625 C54.9973 90.9375 54.3879 91.1562 53.6535 91.1562 C52.2004 91.1562 51.216 90.125 51.1223 88.5 L56.2473 88.5 C56.2785 88.3125 56.3098 88.0469 56.3098 87.7656 C56.3098 85.6094 55.216 84.2031 53.2785 84.2031 C51.5129 84.2031 49.8567 85.7344 49.8567 88.2031 C49.8567 90.7188 51.4817 92.1875 53.4973 92.1875 ZM51.1067 87.5781 C51.2629 86.0938 52.216 85.2188 53.2942 85.2188 C54.4817 85.2188 55.1848 86.0469 55.1848 87.5781 L51.1067 87.5781 Z"
    /></g
    ><g style="fill:white; text-rendering:optimizeSpeed; font-family:'Serif'; stroke:white;"
    ><rect x="76" width="5" height="10" y="67" style="stroke:none;"
      /><path d="M77.8906 75.6875 C77.4844 75.6875 77.1562 76.0469 77.1562 76.4219 C77.1562 76.8125 77.4844 77.1562 77.8906 77.1562 C78.2969 77.1562 78.6406 76.8125 78.6406 76.4219 C78.6406 76.0469 78.2969 75.6875 77.8906 75.6875 ZM79.4688 69.5781 C79.7188 69.8906 79.875 70.2656 79.8906 70.6562 C79.8906 71.1875 79.625 71.5 79.0312 71.7656 L78.4062 72.0156 C77.6406 72.3125 77.3906 72.5469 77.3906 72.9375 C77.3906 73.1094 77.4531 73.3438 77.5781 73.8125 L77.7344 74.3438 L78.1094 74.3438 L78.0938 73.5312 C78.0938 73.0938 78.2031 72.9688 78.7812 72.7344 L79.2031 72.5625 C80.0312 72.2188 80.4531 71.6875 80.4531 70.8438 C80.4531 69.1562 78.6562 68.1875 77.5 68.0312 C77.1094 68.125 76.9062 68.2969 76.9062 68.6406 C76.9062 68.9375 77.0625 69.1562 77.7188 69.2656 L79.4688 69.5781 Z" style="fill:black; stroke:none;"
      /><rect x="62" width="5" height="10" y="67" style="stroke:none;"
      /><path d="M63.8906 75.6875 C63.4844 75.6875 63.1562 76.0469 63.1562 76.4219 C63.1562 76.8125 63.4844 77.1562 63.8906 77.1562 C64.2969 77.1562 64.6406 76.8125 64.6406 76.4219 C64.6406 76.0469 64.2969 75.6875 63.8906 75.6875 ZM65.4688 69.5781 C65.7188 69.8906 65.875 70.2656 65.8906 70.6562 C65.8906 71.1875 65.625 71.5 65.0312 71.7656 L64.4062 72.0156 C63.6406 72.3125 63.3906 72.5469 63.3906 72.9375 C63.3906 73.1094 63.4531 73.3438 63.5781 73.8125 L63.7344 74.3438 L64.1094 74.3438 L64.0938 73.5312 C64.0938 73.0938 64.2031 72.9688 64.7812 72.7344 L65.2031 72.5625 C66.0312 72.2188 66.4531 71.6875 66.4531 70.8438 C66.4531 69.1562 64.6562 68.1875 63.5 68.0312 C63.1094 68.125 62.9062 68.2969 62.9062 68.6406 C62.9062 68.9375 63.0625 69.1562 63.7188 69.2656 L65.4688 69.5781 Z" style="fill:black; stroke:none;"
      /><rect x="128" width="5" height="10" y="67" style="stroke:none;"
      /><path d="M129.8906 75.6875 C129.4844 75.6875 129.1562 76.0469 129.1562 76.4219 C129.1562 76.8125 129.4844 77.1562 129.8906 77.1562 C130.2969 77.1562 130.6406 76.8125 130.6406 76.4219 C130.6406 76.0469 130.2969 75.6875 129.8906 75.6875 ZM131.4688 69.5781 C131.7188 69.8906 131.875 70.2656 131.8906 70.6562 C131.8906 71.1875 131.625 71.5 131.0312 71.7656 L130.4062 72.0156 C129.6406 72.3125 129.3906 72.5469 129.3906 72.9375 C129.3906 73.1094 129.4531 73.3438 129.5781 73.8125 L129.7344 74.3438 L130.1094 74.3438 L130.0938 73.5312 C130.0938 73.0938 130.2031 72.9688 130.7812 72.7344 L131.2031 72.5625 C132.0312 72.2188 132.4531 71.6875 132.4531 70.8438 C132.4531 69.1562 130.6562 68.1875 129.5 68.0312 C129.1094 68.125 128.9062 68.2969 128.9062 68.6406 C128.9062 68.9375 129.0625 69.1562 129.7188 69.2656 L131.4688 69.5781 Z" style="fill:black; stroke:none;"
      /><rect x="114" width="5" height="10" y="67" style="stroke:none;"
      /><path d="M115.8906 75.6875 C115.4844 75.6875 115.1562 76.0469 115.1562 76.4219 C115.1562 76.8125 115.4844 77.1562 115.8906 77.1562 C116.2969 77.1562 116.6406 76.8125 116.6406 76.4219 C116.6406 76.0469 116.2969 75.6875 115.8906 75.6875 ZM117.4688 69.5781 C117.7188 69.8906 117.875 70.2656 117.8906 70.6562 C117.8906 71.1875 117.625 71.5 117.0312 71.7656 L116.4062 72.0156 C115.6406 72.3125 115.3906 72.5469 115.3906 72.9375 C115.3906 73.1094 115.4531 73.3438 115.5781 73.8125 L115.7344 74.3438 L116.1094 74.3438 L116.0938 73.5312 C116.0938 73.0938 116.2031 72.9688 116.7812 72.7344 L117.2031 72.5625 C118.0312 72.2188 118.4531 71.6875 118.4531 70.8438 C118.4531 69.1562 116.6562 68.1875 115.5 68.0312 C115.1094 68.125 114.9062 68.2969 114.9062 68.6406 C114.9062 68.9375 115.0625 69.1562 115.7188 69.2656 L117.4688 69.5781 Z" style="fill:black; stroke:none;"
      /><rect x="166" width="5" height="10" y="67" style="stroke:none;"
      /><path d="M167.8906 75.6875 C167.4844 75.6875 167.1562 76.0469 167.1562 76.4219 C167.1562 76.8125 167.4844 77.1562 167.8906 77.1562 C168.2969 77.1562 168.6406 76.8125 168.6406 76.4219 C168.6406 76.0469 168.2969 75.6875 167.8906 75.6875 ZM169.4688 69.5781 C169.7188 69.8906 169.875 70.2656 169.8906 70.6562 C169.8906 71.1875 169.625 71.5 169.0312 71.7656 L168.4062 72.0156 C167.6406 72.3125 167.3906 72.5469 167.3906 72.9375 C167.3906 73.1094 167.4531 73.3438 167.5781 73.8125 L167.7344 74.3438 L168.1094 74.3438 L168.0938 73.5312 C168.0938 73.0938 168.2031 72.9688 168.7812 72.7344 L169.2031 72.5625 C170.0312 72.2188 170.4531 71.6875 170.4531 70.8438 C170.4531 69.1562 168.6562 68.1875 167.5 68.0312 C167.1094 68.125 166.9062 68.2969 166.9062 68.6406 C166.9062 68.9375 167.0625 69.1562 167.7188 69.2656 L169.4688 69.5781 Z" style="fill:black; stroke:none;"
    /></g
  ></g
></svg
>
