<?xml version="1.0"?>
<!DOCTYPE svg PUBLIC '-//W3C//DTD SVG 1.0//EN'
          'http://www.w3.org/TR/2001/REC-SVG-20010904/DTD/svg10.dtd'>
<svg xmlns:xlink="http://www.w3.org/1999/xlink" style="fill-opacity:1; color-rendering:auto; color-interpolation:auto; text-rendering:auto; stroke:black; stroke-linecap:square; stroke-miterlimit:10; shape-rendering:auto; stroke-opacity:1; fill:black; stroke-dasharray:none; font-weight:normal; stroke-width:1; font-family:'Dialog'; font-style:normal; stroke-linejoin:miter; font-size:12px; stroke-dashoffset:0; image-rendering:auto;" viewBox="0 0 446 222" xmlns="http://www.w3.org/2000/svg"
><!--Generated by the Batik Graphics2D SVG Generator--><defs id="genericDefs"
  /><g
  ><defs id="defs1"
    ><clipPath clipPathUnits="userSpaceOnUse" id="clipPath1"
      ><path d="M342 79 L364 79 L364 101 L342 101 L342 79 Z"
      /></clipPath
      ><clipPath clipPathUnits="userSpaceOnUse" id="clipPath2"
      ><path d="M290 105 L312 105 L312 127 L290 127 L290 105 Z"
      /></clipPath
      ><clipPath clipPathUnits="userSpaceOnUse" id="clipPath3"
      ><path d="M260 116 C260 122.0751 255.0751 127 249 127 C242.9249 127 238 122.0751 238 116 C238 109.9249 242.9249 105 249 105 C255.0751 105 260 109.9249 260 116 Z"
      /></clipPath
      ><clipPath clipPathUnits="userSpaceOnUse" id="clipPath4"
      ><path d="M208 155 C208 161.0751 203.0751 166 197 166 C190.9249 166 186 161.0751 186 155 C186 148.9249 190.9249 144 197 144 C203.0751 144 208 148.9249 208 155 Z"
      /></clipPath
      ><clipPath clipPathUnits="userSpaceOnUse" id="clipPath5"
      ><path d="M134 170 L156 170 L156 192 L134 192 L134 170 Z"
      /></clipPath
      ><clipPath clipPathUnits="userSpaceOnUse" id="clipPath6"
      ><path d="M104 181 C104 187.0751 99.0751 192 93 192 C86.9249 192 82 187.0751 82 181 C82 174.9249 86.9249 170 93 170 C99.0751 170 104 174.9249 104 181 Z"
      /></clipPath
      ><clipPath clipPathUnits="userSpaceOnUse" id="clipPath7"
      ><path style="fill-rule:evenodd;" d="M41 170 L52 181 L41 192 L30 181 Z"
      /></clipPath
      ><clipPath clipPathUnits="userSpaceOnUse" id="clipPath8"
      ><path d="M134 118 L156 118 L156 140 L134 140 L134 118 Z"
      /></clipPath
      ><clipPath clipPathUnits="userSpaceOnUse" id="clipPath9"
      ><path d="M104 129 C104 135.0751 99.0751 140 93 140 C86.9249 140 82 135.0751 82 129 C82 122.9249 86.9249 118 93 118 C99.0751 118 104 122.9249 104 129 Z"
      /></clipPath
      ><clipPath clipPathUnits="userSpaceOnUse" id="clipPath10"
      ><path style="fill-rule:evenodd;" d="M41 118 L52 129 L41 140 L30 129 Z"
      /></clipPath
      ><clipPath clipPathUnits="userSpaceOnUse" id="clipPath11"
      ><path d="M208 77 C208 83.0751 203.0751 88 197 88 C190.9249 88 186 83.0751 186 77 C186 70.9249 190.9249 66 197 66 C203.0751 66 208 70.9249 208 77 Z"
      /></clipPath
      ><clipPath clipPathUnits="userSpaceOnUse" id="clipPath12"
      ><path d="M134 66 L156 66 L156 88 L134 88 L134 66 Z"
      /></clipPath
      ><clipPath clipPathUnits="userSpaceOnUse" id="clipPath13"
      ><path d="M82 66 L104 66 L104 88 L82 88 L82 66 Z"
      /></clipPath
      ><clipPath clipPathUnits="userSpaceOnUse" id="clipPath14"
      ><path style="fill-rule:evenodd;" d="M41 66 L52 77 L41 88 L30 77 Z"
      /></clipPath
      ><clipPath clipPathUnits="userSpaceOnUse" id="clipPath15"
      ><path d="M312 64 C312 70.0751 307.0751 75 301 75 C294.9249 75 290 70.0751 290 64 C290 57.9249 294.9249 53 301 53 C307.0751 53 312 57.9249 312 64 Z"
      /></clipPath
    ></defs
    ><g style="fill:white; text-rendering:optimizeSpeed; stroke:white;"
    ><rect x="0" width="446" height="222" y="0" style="stroke:none;"
      /><polygon style="fill:none; stroke:black;" points=" 405 90 353 90"
      /><path d="M405 79 C399.5 84.5 410.5 95.5 405 101" style="fill:none; stroke:black;"
      /><polygon style="fill:none; stroke:black;" points=" 353 90 301 116"
      /><polygon style="fill:none; stroke:black;" points=" 353 90 301 64"
      /><rect x="342" y="79" width="22" style="clip-path:url(#clipPath1); stroke:none;" height="22"
      /><rect x="342" y="79" width="22" style="clip-path:url(#clipPath1); stroke:none;" height="22"
      /><rect x="342" y="79" width="22" style="clip-path:url(#clipPath1); fill:none; stroke:black;" height="22"
      /><rect x="342" y="79" width="22" style="fill:none; stroke:black;" height="22"
      /><polygon style="fill:none; stroke:black;" points=" 301 116 249 116"
      /><rect x="290" y="105" width="22" style="clip-path:url(#clipPath2); stroke:none;" height="22"
      /><rect x="290" y="105" width="22" style="clip-path:url(#clipPath2); stroke:none;" height="22"
      /><rect x="290" y="105" width="22" style="clip-path:url(#clipPath2); fill:none; stroke:black;" height="22"
      /><rect x="290" y="105" width="22" style="fill:none; stroke:black;" height="22"
      /><polygon style="fill:none; stroke:black;" points=" 249 116 197 155"
      /><polygon style="fill:none; stroke:black;" points=" 249 116 197 77"
      /><circle style="clip-path:url(#clipPath3); stroke:none;" r="11" cx="249" cy="116"
      /><rect x="238" y="105" width="22" style="clip-path:url(#clipPath3); stroke:none;" height="22"
      /><rect x="238" y="105" width="22" style="clip-path:url(#clipPath3); fill:none; stroke:black;" height="22"
      /><circle style="fill:none; stroke:black;" r="11" cx="249" cy="116"
      /><polygon style="fill:none; stroke:black;" points=" 197 155 145 181"
      /><polygon style="fill:none; stroke:black;" points=" 197 155 145 129"
      /><circle style="clip-path:url(#clipPath4); stroke:none;" r="11" cx="197" cy="155"
      /><rect x="186" y="144" width="22" style="clip-path:url(#clipPath4); stroke:none;" height="22"
      /><rect x="186" y="144" width="22" style="clip-path:url(#clipPath4); fill:none; stroke:black;" height="22"
      /><circle style="fill:none; stroke:black;" r="11" cx="197" cy="155"
      /><polygon style="fill:none; stroke:black;" points=" 145 181 93 181"
      /><rect x="134" y="170" width="22" style="clip-path:url(#clipPath5); stroke:none;" height="22"
      /><rect x="134" y="170" width="22" style="clip-path:url(#clipPath5); stroke:none;" height="22"
      /><rect x="134" y="170" width="22" style="clip-path:url(#clipPath5); fill:none; stroke:black;" height="22"
      /><rect x="134" y="170" width="22" style="fill:none; stroke:black;" height="22"
      /><polygon style="fill:none; stroke:black;" points=" 93 181 41 181"
      /><circle style="clip-path:url(#clipPath6); stroke:none;" r="11" cx="93" cy="181"
      /><rect x="82" y="170" width="22" style="clip-path:url(#clipPath6); stroke:none;" height="22"
      /><rect x="82" y="170" width="22" style="clip-path:url(#clipPath6); fill:none; stroke:black;" height="22"
      /><circle style="fill:none; stroke:black;" r="11" cx="93" cy="181"
      /><polygon style="clip-path:url(#clipPath7); stroke:none;" points=" 41 170 52 181 41 192 30 181"
      /><rect x="30" y="170" width="22" style="clip-path:url(#clipPath7); fill:rgb(165,67,153); stroke:none;" height="22"
      /><rect x="30" y="170" width="22" style="clip-path:url(#clipPath7); fill:none; stroke:black;" height="22"
      /><polygon style="fill:none; stroke:black;" points=" 41 170 52 181 41 192 30 181"
      /><rect x="71" y="184" width="5" style="stroke:none;" height="10"
    /></g
    ><g style="font-family:'Serif'; text-rendering:optimizeSpeed; "
    ><path style="stroke:none;" d="M72.8906 192.6875 C72.4844 192.6875 72.1562 193.0469 72.1562 193.4219 C72.1562 193.8125 72.4844 194.1562 72.8906 194.1562 C73.2969 194.1562 73.6406 193.8125 73.6406 193.4219 C73.6406 193.0469 73.2969 192.6875 72.8906 192.6875 ZM74.4688 186.5781 C74.7188 186.8906 74.875 187.2656 74.8906 187.6562 C74.8906 188.1875 74.625 188.5 74.0312 188.7656 L73.4062 189.0156 C72.6406 189.3125 72.3906 189.5469 72.3906 189.9375 C72.3906 190.1094 72.4531 190.3438 72.5781 190.8125 L72.7344 191.3438 L73.1094 191.3438 L73.0938 190.5312 C73.0938 190.0938 73.2031 189.9688 73.7812 189.7344 L74.2031 189.5625 C75.0312 189.2188 75.4531 188.6875 75.4531 187.8438 C75.4531 186.1562 73.6562 185.1875 72.5 185.0312 C72.1094 185.125 71.9062 185.2969 71.9062 185.6406 C71.9062 185.9375 72.0625 186.1562 72.7188 186.2656 L74.4688 186.5781 Z"
      /><rect x="57" y="184" width="5" style="fill:white; stroke:none;" height="10"
      /><path style="stroke:none;" d="M58.8906 192.6875 C58.4844 192.6875 58.1562 193.0469 58.1562 193.4219 C58.1562 193.8125 58.4844 194.1562 58.8906 194.1562 C59.2969 194.1562 59.6406 193.8125 59.6406 193.4219 C59.6406 193.0469 59.2969 192.6875 58.8906 192.6875 ZM60.4688 186.5781 C60.7188 186.8906 60.875 187.2656 60.8906 187.6562 C60.8906 188.1875 60.625 188.5 60.0312 188.7656 L59.4062 189.0156 C58.6406 189.3125 58.3906 189.5469 58.3906 189.9375 C58.3906 190.1094 58.4531 190.3438 58.5781 190.8125 L58.7344 191.3438 L59.1094 191.3438 L59.0938 190.5312 C59.0938 190.0938 59.2031 189.9688 59.7812 189.7344 L60.2031 189.5625 C61.0312 189.2188 61.4531 188.6875 61.4531 187.8438 C61.4531 186.1562 59.6562 185.1875 58.5 185.0312 C58.1094 185.125 57.9062 185.2969 57.9062 185.6406 C57.9062 185.9375 58.0625 186.1562 58.7188 186.2656 L60.4688 186.5781 Z"
      /><rect x="123" y="184" width="5" style="fill:white; stroke:none;" height="10"
      /><path style="stroke:none;" d="M124.8906 192.6875 C124.4844 192.6875 124.1562 193.0469 124.1562 193.4219 C124.1562 193.8125 124.4844 194.1562 124.8906 194.1562 C125.2969 194.1562 125.6406 193.8125 125.6406 193.4219 C125.6406 193.0469 125.2969 192.6875 124.8906 192.6875 ZM126.4688 186.5781 C126.7188 186.8906 126.875 187.2656 126.8906 187.6562 C126.8906 188.1875 126.625 188.5 126.0312 188.7656 L125.4062 189.0156 C124.6406 189.3125 124.3906 189.5469 124.3906 189.9375 C124.3906 190.1094 124.4531 190.3438 124.5781 190.8125 L124.7344 191.3438 L125.1094 191.3438 L125.0938 190.5312 C125.0938 190.0938 125.2031 189.9688 125.7812 189.7344 L126.2031 189.5625 C127.0312 189.2188 127.4531 188.6875 127.4531 187.8438 C127.4531 186.1562 125.6562 185.1875 124.5 185.0312 C124.1094 185.125 123.9062 185.2969 123.9062 185.6406 C123.9062 185.9375 124.0625 186.1562 124.7188 186.2656 L126.4688 186.5781 Z"
      /><rect x="109" y="184" width="5" style="fill:white; stroke:none;" height="10"
      /><path style="stroke:none;" d="M110.8906 192.6875 C110.4844 192.6875 110.1562 193.0469 110.1562 193.4219 C110.1562 193.8125 110.4844 194.1562 110.8906 194.1562 C111.2969 194.1562 111.6406 193.8125 111.6406 193.4219 C111.6406 193.0469 111.2969 192.6875 110.8906 192.6875 ZM112.4688 186.5781 C112.7188 186.8906 112.875 187.2656 112.8906 187.6562 C112.8906 188.1875 112.625 188.5 112.0312 188.7656 L111.4062 189.0156 C110.6406 189.3125 110.3906 189.5469 110.3906 189.9375 C110.3906 190.1094 110.4531 190.3438 110.5781 190.8125 L110.7344 191.3438 L111.1094 191.3438 L111.0938 190.5312 C111.0938 190.0938 111.2031 189.9688 111.7812 189.7344 L112.2031 189.5625 C113.0312 189.2188 113.4531 188.6875 113.4531 187.8438 C113.4531 186.1562 111.6562 185.1875 110.5 185.0312 C110.1094 185.125 109.9062 185.2969 109.9062 185.6406 C109.9062 185.9375 110.0625 186.1562 110.7188 186.2656 L112.4688 186.5781 Z"
      /><polygon style="fill:none;" points=" 145 129 93 129"
      /><rect x="134" y="118" width="22" style="clip-path:url(#clipPath8); fill:white; stroke:none;" height="22"
      /><rect x="134" y="118" width="22" style="clip-path:url(#clipPath8); fill:white; stroke:none;" height="22"
      /><rect x="134" y="118" width="22" style="fill:none; clip-path:url(#clipPath8);" height="22"
      /><rect x="134" width="22" height="22" y="118" style="fill:none;"
      /><polygon style="fill:none;" points=" 93 129 41 129"
      /><circle style="fill:white; clip-path:url(#clipPath9); stroke:none;" r="11" cx="93" cy="129"
      /><rect x="82" y="118" width="22" style="clip-path:url(#clipPath9); fill:white; stroke:none;" height="22"
      /><rect x="82" y="118" width="22" style="fill:none; clip-path:url(#clipPath9);" height="22"
      /><circle r="11" style="fill:none;" cx="93" cy="129"
      /><polygon style="fill:white; clip-path:url(#clipPath10); stroke:none;" points=" 41 118 52 129 41 140 30 129"
      /><rect x="30" y="118" width="22" style="clip-path:url(#clipPath10); fill:rgb(0,166,81); stroke:none;" height="22"
      /><rect x="30" y="118" width="22" style="fill:none; clip-path:url(#clipPath10);" height="22"
      /><polygon style="fill:none;" points=" 41 118 52 129 41 140 30 129"
      /><rect x="71" y="132" width="5" style="fill:white; stroke:none;" height="10"
      /><path style="stroke:none;" d="M72.8906 140.6875 C72.4844 140.6875 72.1562 141.0469 72.1562 141.4219 C72.1562 141.8125 72.4844 142.1562 72.8906 142.1562 C73.2969 142.1562 73.6406 141.8125 73.6406 141.4219 C73.6406 141.0469 73.2969 140.6875 72.8906 140.6875 ZM74.4688 134.5781 C74.7188 134.8906 74.875 135.2656 74.8906 135.6562 C74.8906 136.1875 74.625 136.5 74.0312 136.7656 L73.4062 137.0156 C72.6406 137.3125 72.3906 137.5469 72.3906 137.9375 C72.3906 138.1094 72.4531 138.3438 72.5781 138.8125 L72.7344 139.3438 L73.1094 139.3438 L73.0938 138.5312 C73.0938 138.0938 73.2031 137.9688 73.7812 137.7344 L74.2031 137.5625 C75.0312 137.2188 75.4531 136.6875 75.4531 135.8438 C75.4531 134.1562 73.6562 133.1875 72.5 133.0312 C72.1094 133.125 71.9062 133.2969 71.9062 133.6406 C71.9062 133.9375 72.0625 134.1562 72.7188 134.2656 L74.4688 134.5781 Z"
      /><rect x="57" y="132" width="5" style="fill:white; stroke:none;" height="10"
      /><path style="stroke:none;" d="M58.8906 140.6875 C58.4844 140.6875 58.1562 141.0469 58.1562 141.4219 C58.1562 141.8125 58.4844 142.1562 58.8906 142.1562 C59.2969 142.1562 59.6406 141.8125 59.6406 141.4219 C59.6406 141.0469 59.2969 140.6875 58.8906 140.6875 ZM60.4688 134.5781 C60.7188 134.8906 60.875 135.2656 60.8906 135.6562 C60.8906 136.1875 60.625 136.5 60.0312 136.7656 L59.4062 137.0156 C58.6406 137.3125 58.3906 137.5469 58.3906 137.9375 C58.3906 138.1094 58.4531 138.3438 58.5781 138.8125 L58.7344 139.3438 L59.1094 139.3438 L59.0938 138.5312 C59.0938 138.0938 59.2031 137.9688 59.7812 137.7344 L60.2031 137.5625 C61.0312 137.2188 61.4531 136.6875 61.4531 135.8438 C61.4531 134.1562 59.6562 133.1875 58.5 133.0312 C58.1094 133.125 57.9062 133.2969 57.9062 133.6406 C57.9062 133.9375 58.0625 134.1562 58.7188 134.2656 L60.4688 134.5781 Z"
      /><rect x="123" y="132" width="5" style="fill:white; stroke:none;" height="10"
      /><path style="stroke:none;" d="M124.8906 140.6875 C124.4844 140.6875 124.1562 141.0469 124.1562 141.4219 C124.1562 141.8125 124.4844 142.1562 124.8906 142.1562 C125.2969 142.1562 125.6406 141.8125 125.6406 141.4219 C125.6406 141.0469 125.2969 140.6875 124.8906 140.6875 ZM126.4688 134.5781 C126.7188 134.8906 126.875 135.2656 126.8906 135.6562 C126.8906 136.1875 126.625 136.5 126.0312 136.7656 L125.4062 137.0156 C124.6406 137.3125 124.3906 137.5469 124.3906 137.9375 C124.3906 138.1094 124.4531 138.3438 124.5781 138.8125 L124.7344 139.3438 L125.1094 139.3438 L125.0938 138.5312 C125.0938 138.0938 125.2031 137.9688 125.7812 137.7344 L126.2031 137.5625 C127.0312 137.2188 127.4531 136.6875 127.4531 135.8438 C127.4531 134.1562 125.6562 133.1875 124.5 133.0312 C124.1094 133.125 123.9062 133.2969 123.9062 133.6406 C123.9062 133.9375 124.0625 134.1562 124.7188 134.2656 L126.4688 134.5781 Z"
      /><rect x="109" y="132" width="5" style="fill:white; stroke:none;" height="10"
      /><path style="stroke:none;" d="M110.8906 140.6875 C110.4844 140.6875 110.1562 141.0469 110.1562 141.4219 C110.1562 141.8125 110.4844 142.1562 110.8906 142.1562 C111.2969 142.1562 111.6406 141.8125 111.6406 141.4219 C111.6406 141.0469 111.2969 140.6875 110.8906 140.6875 ZM112.4688 134.5781 C112.7188 134.8906 112.875 135.2656 112.8906 135.6562 C112.8906 136.1875 112.625 136.5 112.0312 136.7656 L111.4062 137.0156 C110.6406 137.3125 110.3906 137.5469 110.3906 137.9375 C110.3906 138.1094 110.4531 138.3438 110.5781 138.8125 L110.7344 139.3438 L111.1094 139.3438 L111.0938 138.5312 C111.0938 138.0938 111.2031 137.9688 111.7812 137.7344 L112.2031 137.5625 C113.0312 137.2188 113.4531 136.6875 113.4531 135.8438 C113.4531 134.1562 111.6562 133.1875 110.5 133.0312 C110.1094 133.125 109.9062 133.2969 109.9062 133.6406 C109.9062 133.9375 110.0625 134.1562 110.7188 134.2656 L112.4688 134.5781 Z"
      /><rect x="179" y="166" width="5" style="fill:white; stroke:none;" height="10"
      /><path style="stroke:none;" d="M180.8906 174.6875 C180.4844 174.6875 180.1562 175.0469 180.1562 175.4219 C180.1562 175.8125 180.4844 176.1562 180.8906 176.1562 C181.2969 176.1562 181.6406 175.8125 181.6406 175.4219 C181.6406 175.0469 181.2969 174.6875 180.8906 174.6875 ZM182.4688 168.5781 C182.7188 168.8906 182.875 169.2656 182.8906 169.6562 C182.8906 170.1875 182.625 170.5 182.0312 170.7656 L181.4062 171.0156 C180.6406 171.3125 180.3906 171.5469 180.3906 171.9375 C180.3906 172.1094 180.4531 172.3438 180.5781 172.8125 L180.7344 173.3438 L181.1094 173.3438 L181.0938 172.5312 C181.0938 172.0938 181.2031 171.9688 181.7812 171.7344 L182.2031 171.5625 C183.0312 171.2188 183.4531 170.6875 183.4531 169.8438 C183.4531 168.1562 181.6562 167.1875 180.5 167.0312 C180.1094 167.125 179.9062 167.2969 179.9062 167.6406 C179.9062 167.9375 180.0625 168.1562 180.7188 168.2656 L182.4688 168.5781 Z"
      /><rect x="164" y="174" width="5" style="fill:white; stroke:none;" height="10"
      /><path style="stroke:none;" d="M165.8906 182.6875 C165.4844 182.6875 165.1562 183.0469 165.1562 183.4219 C165.1562 183.8125 165.4844 184.1562 165.8906 184.1562 C166.2969 184.1562 166.6406 183.8125 166.6406 183.4219 C166.6406 183.0469 166.2969 182.6875 165.8906 182.6875 ZM167.4688 176.5781 C167.7188 176.8906 167.875 177.2656 167.8906 177.6562 C167.8906 178.1875 167.625 178.5 167.0312 178.7656 L166.4062 179.0156 C165.6406 179.3125 165.3906 179.5469 165.3906 179.9375 C165.3906 180.1094 165.4531 180.3438 165.5781 180.8125 L165.7344 181.3438 L166.1094 181.3438 L166.0938 180.5312 C166.0938 180.0938 166.2031 179.9688 166.7812 179.7344 L167.2031 179.5625 C168.0312 179.2188 168.4531 178.6875 168.4531 177.8438 C168.4531 176.1562 166.6562 175.1875 165.5 175.0312 C165.1094 175.125 164.9062 175.2969 164.9062 175.6406 C164.9062 175.9375 165.0625 176.1562 165.7188 176.2656 L167.4688 176.5781 Z"
      /><rect x="172" y="148" width="5" style="fill:white; stroke:none;" height="10"
      /><path style="stroke:none;" d="M173.8906 156.6875 C173.4844 156.6875 173.1562 157.0469 173.1562 157.4219 C173.1562 157.8125 173.4844 158.1562 173.8906 158.1562 C174.2969 158.1562 174.6406 157.8125 174.6406 157.4219 C174.6406 157.0469 174.2969 156.6875 173.8906 156.6875 ZM175.4688 150.5781 C175.7188 150.8906 175.875 151.2656 175.8906 151.6562 C175.8906 152.1875 175.625 152.5 175.0312 152.7656 L174.4062 153.0156 C173.6406 153.3125 173.3906 153.5469 173.3906 153.9375 C173.3906 154.1094 173.4531 154.3438 173.5781 154.8125 L173.7344 155.3438 L174.1094 155.3438 L174.0938 154.5312 C174.0938 154.0938 174.2031 153.9688 174.7812 153.7344 L175.2031 153.5625 C176.0312 153.2188 176.4531 152.6875 176.4531 151.8438 C176.4531 150.1562 174.6562 149.1875 173.5 149.0312 C173.1094 149.125 172.9062 149.2969 172.9062 149.6406 C172.9062 149.9375 173.0625 150.1562 173.7188 150.2656 L175.4688 150.5781 Z"
      /><rect x="157" y="140" width="5" style="fill:white; stroke:none;" height="10"
      /><path style="stroke:none;" d="M158.8906 148.6875 C158.4844 148.6875 158.1562 149.0469 158.1562 149.4219 C158.1562 149.8125 158.4844 150.1562 158.8906 150.1562 C159.2969 150.1562 159.6406 149.8125 159.6406 149.4219 C159.6406 149.0469 159.2969 148.6875 158.8906 148.6875 ZM160.4688 142.5781 C160.7188 142.8906 160.875 143.2656 160.8906 143.6562 C160.8906 144.1875 160.625 144.5 160.0312 144.7656 L159.4062 145.0156 C158.6406 145.3125 158.3906 145.5469 158.3906 145.9375 C158.3906 146.1094 158.4531 146.3438 158.5781 146.8125 L158.7344 147.3438 L159.1094 147.3438 L159.0938 146.5312 C159.0938 146.0938 159.2031 145.9688 159.7812 145.7344 L160.2031 145.5625 C161.0312 145.2188 161.4531 144.6875 161.4531 143.8438 C161.4531 142.1562 159.6562 141.1875 158.5 141.0312 C158.1094 141.125 157.9062 141.2969 157.9062 141.6406 C157.9062 141.9375 158.0625 142.1562 158.7188 142.2656 L160.4688 142.5781 Z"
      /><polygon style="fill:none;" points=" 197 77 145 77"
      /><circle style="fill:white; clip-path:url(#clipPath11); stroke:none;" r="11" cx="197" cy="77"
      /><rect x="186" y="66" width="22" style="clip-path:url(#clipPath11); fill:white; stroke:none;" height="22"
      /><rect x="186" y="66" width="22" style="fill:none; clip-path:url(#clipPath11);" height="22"
      /><circle r="11" style="fill:none;" cx="197" cy="77"
      /><polygon style="fill:none;" points=" 145 77 93 77"
      /><rect x="134" y="66" width="22" style="clip-path:url(#clipPath12); fill:white; stroke:none;" height="22"
      /><rect x="134" y="66" width="22" style="clip-path:url(#clipPath12); fill:white; stroke:none;" height="22"
      /><rect x="134" y="66" width="22" style="fill:none; clip-path:url(#clipPath12);" height="22"
      /><rect x="134" width="22" height="22" y="66" style="fill:none;"
      /><polygon style="fill:none;" points=" 93 77 41 77"
      /><rect x="82" y="66" width="22" style="clip-path:url(#clipPath13); fill:white; stroke:none;" height="22"
      /><rect x="82" y="66" width="22" style="clip-path:url(#clipPath13); fill:white; stroke:none;" height="22"
      /><rect x="82" y="66" width="22" style="fill:none; clip-path:url(#clipPath13);" height="22"
      /><rect x="82" width="22" height="22" y="66" style="fill:none;"
      /><polygon style="fill:white; clip-path:url(#clipPath14); stroke:none;" points=" 41 66 52 77 41 88 30 77"
      /><rect x="30" y="66" width="22" style="clip-path:url(#clipPath14); fill:rgb(165,67,153); stroke:none;" height="22"
      /><rect x="30" y="66" width="22" style="fill:none; clip-path:url(#clipPath14);" height="22"
      /><polygon style="fill:none;" points=" 41 66 52 77 41 88 30 77"
      /><rect x="71" y="80" width="5" style="fill:white; stroke:none;" height="10"
      /><path style="stroke:none;" d="M72.8906 88.6875 C72.4844 88.6875 72.1562 89.0469 72.1562 89.4219 C72.1562 89.8125 72.4844 90.1562 72.8906 90.1562 C73.2969 90.1562 73.6406 89.8125 73.6406 89.4219 C73.6406 89.0469 73.2969 88.6875 72.8906 88.6875 ZM74.4688 82.5781 C74.7188 82.8906 74.875 83.2656 74.8906 83.6562 C74.8906 84.1875 74.625 84.5 74.0312 84.7656 L73.4062 85.0156 C72.6406 85.3125 72.3906 85.5469 72.3906 85.9375 C72.3906 86.1094 72.4531 86.3438 72.5781 86.8125 L72.7344 87.3438 L73.1094 87.3438 L73.0938 86.5312 C73.0938 86.0938 73.2031 85.9688 73.7812 85.7344 L74.2031 85.5625 C75.0312 85.2188 75.4531 84.6875 75.4531 83.8438 C75.4531 82.1562 73.6562 81.1875 72.5 81.0312 C72.1094 81.125 71.9062 81.2969 71.9062 81.6406 C71.9062 81.9375 72.0625 82.1562 72.7188 82.2656 L74.4688 82.5781 Z"
      /><rect x="57" y="80" width="5" style="fill:white; stroke:none;" height="10"
      /><path style="stroke:none;" d="M58.8906 88.6875 C58.4844 88.6875 58.1562 89.0469 58.1562 89.4219 C58.1562 89.8125 58.4844 90.1562 58.8906 90.1562 C59.2969 90.1562 59.6406 89.8125 59.6406 89.4219 C59.6406 89.0469 59.2969 88.6875 58.8906 88.6875 ZM60.4688 82.5781 C60.7188 82.8906 60.875 83.2656 60.8906 83.6562 C60.8906 84.1875 60.625 84.5 60.0312 84.7656 L59.4062 85.0156 C58.6406 85.3125 58.3906 85.5469 58.3906 85.9375 C58.3906 86.1094 58.4531 86.3438 58.5781 86.8125 L58.7344 87.3438 L59.1094 87.3438 L59.0938 86.5312 C59.0938 86.0938 59.2031 85.9688 59.7812 85.7344 L60.2031 85.5625 C61.0312 85.2188 61.4531 84.6875 61.4531 83.8438 C61.4531 82.1562 59.6562 81.1875 58.5 81.0312 C58.1094 81.125 57.9062 81.2969 57.9062 81.6406 C57.9062 81.9375 58.0625 82.1562 58.7188 82.2656 L60.4688 82.5781 Z"
      /><rect x="123" y="80" width="5" style="fill:white; stroke:none;" height="10"
      /><path style="stroke:none;" d="M124.8906 88.6875 C124.4844 88.6875 124.1562 89.0469 124.1562 89.4219 C124.1562 89.8125 124.4844 90.1562 124.8906 90.1562 C125.2969 90.1562 125.6406 89.8125 125.6406 89.4219 C125.6406 89.0469 125.2969 88.6875 124.8906 88.6875 ZM126.4688 82.5781 C126.7188 82.8906 126.875 83.2656 126.8906 83.6562 C126.8906 84.1875 126.625 84.5 126.0312 84.7656 L125.4062 85.0156 C124.6406 85.3125 124.3906 85.5469 124.3906 85.9375 C124.3906 86.1094 124.4531 86.3438 124.5781 86.8125 L124.7344 87.3438 L125.1094 87.3438 L125.0938 86.5312 C125.0938 86.0938 125.2031 85.9688 125.7812 85.7344 L126.2031 85.5625 C127.0312 85.2188 127.4531 84.6875 127.4531 83.8438 C127.4531 82.1562 125.6562 81.1875 124.5 81.0312 C124.1094 81.125 123.9062 81.2969 123.9062 81.6406 C123.9062 81.9375 124.0625 82.1562 124.7188 82.2656 L126.4688 82.5781 Z"
      /><rect x="109" y="80" width="5" style="fill:white; stroke:none;" height="10"
      /><path style="stroke:none;" d="M110.8906 88.6875 C110.4844 88.6875 110.1562 89.0469 110.1562 89.4219 C110.1562 89.8125 110.4844 90.1562 110.8906 90.1562 C111.2969 90.1562 111.6406 89.8125 111.6406 89.4219 C111.6406 89.0469 111.2969 88.6875 110.8906 88.6875 ZM112.4688 82.5781 C112.7188 82.8906 112.875 83.2656 112.8906 83.6562 C112.8906 84.1875 112.625 84.5 112.0312 84.7656 L111.4062 85.0156 C110.6406 85.3125 110.3906 85.5469 110.3906 85.9375 C110.3906 86.1094 110.4531 86.3438 110.5781 86.8125 L110.7344 87.3438 L111.1094 87.3438 L111.0938 86.5312 C111.0938 86.0938 111.2031 85.9688 111.7812 85.7344 L112.2031 85.5625 C113.0312 85.2188 113.4531 84.6875 113.4531 83.8438 C113.4531 82.1562 111.6562 81.1875 110.5 81.0312 C110.1094 81.125 109.9062 81.2969 109.9062 81.6406 C109.9062 81.9375 110.0625 82.1562 110.7188 82.2656 L112.4688 82.5781 Z"
      /><rect x="175" y="80" width="5" style="fill:white; stroke:none;" height="10"
      /><path style="stroke:none;" d="M176.8906 88.6875 C176.4844 88.6875 176.1562 89.0469 176.1562 89.4219 C176.1562 89.8125 176.4844 90.1562 176.8906 90.1562 C177.2969 90.1562 177.6406 89.8125 177.6406 89.4219 C177.6406 89.0469 177.2969 88.6875 176.8906 88.6875 ZM178.4688 82.5781 C178.7188 82.8906 178.875 83.2656 178.8906 83.6562 C178.8906 84.1875 178.625 84.5 178.0312 84.7656 L177.4062 85.0156 C176.6406 85.3125 176.3906 85.5469 176.3906 85.9375 C176.3906 86.1094 176.4531 86.3438 176.5781 86.8125 L176.7344 87.3438 L177.1094 87.3438 L177.0938 86.5312 C177.0938 86.0938 177.2031 85.9688 177.7812 85.7344 L178.2031 85.5625 C179.0312 85.2188 179.4531 84.6875 179.4531 83.8438 C179.4531 82.1562 177.6562 81.1875 176.5 81.0312 C176.1094 81.125 175.9062 81.2969 175.9062 81.6406 C175.9062 81.9375 176.0625 82.1562 176.7188 82.2656 L178.4688 82.5781 Z"
      /><rect x="161" y="80" width="5" style="fill:white; stroke:none;" height="10"
      /><path style="stroke:none;" d="M162.8906 88.6875 C162.4844 88.6875 162.1562 89.0469 162.1562 89.4219 C162.1562 89.8125 162.4844 90.1562 162.8906 90.1562 C163.2969 90.1562 163.6406 89.8125 163.6406 89.4219 C163.6406 89.0469 163.2969 88.6875 162.8906 88.6875 ZM164.4688 82.5781 C164.7188 82.8906 164.875 83.2656 164.8906 83.6562 C164.8906 84.1875 164.625 84.5 164.0312 84.7656 L163.4062 85.0156 C162.6406 85.3125 162.3906 85.5469 162.3906 85.9375 C162.3906 86.1094 162.4531 86.3438 162.5781 86.8125 L162.7344 87.3438 L163.1094 87.3438 L163.0938 86.5312 C163.0938 86.0938 163.2031 85.9688 163.7812 85.7344 L164.2031 85.5625 C165.0312 85.2188 165.4531 84.6875 165.4531 83.8438 C165.4531 82.1562 163.6562 81.1875 162.5 81.0312 C162.1094 81.125 161.9062 81.2969 161.9062 81.6406 C161.9062 81.9375 162.0625 82.1562 162.7188 82.2656 L164.4688 82.5781 Z"
      /><rect x="233" y="130" width="5" style="fill:white; stroke:none;" height="10"
      /><path style="stroke:none;" d="M234.8906 138.6875 C234.4844 138.6875 234.1562 139.0469 234.1562 139.4219 C234.1562 139.8125 234.4844 140.1562 234.8906 140.1562 C235.2969 140.1562 235.6406 139.8125 235.6406 139.4219 C235.6406 139.0469 235.2969 138.6875 234.8906 138.6875 ZM236.4688 132.5781 C236.7188 132.8906 236.875 133.2656 236.8906 133.6562 C236.8906 134.1875 236.625 134.5 236.0312 134.7656 L235.4062 135.0156 C234.6406 135.3125 234.3906 135.5469 234.3906 135.9375 C234.3906 136.1094 234.4531 136.3438 234.5781 136.8125 L234.7344 137.3438 L235.1094 137.3438 L235.0938 136.5312 C235.0938 136.0938 235.2031 135.9688 235.7812 135.7344 L236.2031 135.5625 C237.0312 135.2188 237.4531 134.6875 237.4531 133.8438 C237.4531 132.1562 235.6562 131.1875 234.5 131.0312 C234.1094 131.125 233.9062 131.2969 233.9062 131.6406 C233.9062 131.9375 234.0625 132.1562 234.7188 132.2656 L236.4688 132.5781 Z"
      /><rect x="216" y="143" width="5" style="fill:white; stroke:none;" height="10"
      /><path style="stroke:none;" d="M217.8906 151.6875 C217.4844 151.6875 217.1562 152.0469 217.1562 152.4219 C217.1562 152.8125 217.4844 153.1562 217.8906 153.1562 C218.2969 153.1562 218.6406 152.8125 218.6406 152.4219 C218.6406 152.0469 218.2969 151.6875 217.8906 151.6875 ZM219.4688 145.5781 C219.7188 145.8906 219.875 146.2656 219.8906 146.6562 C219.8906 147.1875 219.625 147.5 219.0312 147.7656 L218.4062 148.0156 C217.6406 148.3125 217.3906 148.5469 217.3906 148.9375 C217.3906 149.1094 217.4531 149.3438 217.5781 149.8125 L217.7344 150.3438 L218.1094 150.3438 L218.0938 149.5312 C218.0938 149.0938 218.2031 148.9688 218.7812 148.7344 L219.2031 148.5625 C220.0312 148.2188 220.4531 147.6875 220.4531 146.8438 C220.4531 145.1562 218.6562 144.1875 217.5 144.0312 C217.1094 144.125 216.9062 144.2969 216.9062 144.6406 C216.9062 144.9375 217.0625 145.1562 217.7188 145.2656 L219.4688 145.5781 Z"
      /><rect x="224" y="104" width="5" style="fill:white; stroke:none;" height="10"
      /><path style="stroke:none;" d="M225.8906 112.6875 C225.4844 112.6875 225.1562 113.0469 225.1562 113.4219 C225.1562 113.8125 225.4844 114.1562 225.8906 114.1562 C226.2969 114.1562 226.6406 113.8125 226.6406 113.4219 C226.6406 113.0469 226.2969 112.6875 225.8906 112.6875 ZM227.4688 106.5781 C227.7188 106.8906 227.875 107.2656 227.8906 107.6562 C227.8906 108.1875 227.625 108.5 227.0312 108.7656 L226.4062 109.0156 C225.6406 109.3125 225.3906 109.5469 225.3906 109.9375 C225.3906 110.1094 225.4531 110.3438 225.5781 110.8125 L225.7344 111.3438 L226.1094 111.3438 L226.0938 110.5312 C226.0938 110.0938 226.2031 109.9688 226.7812 109.7344 L227.2031 109.5625 C228.0312 109.2188 228.4531 108.6875 228.4531 107.8438 C228.4531 106.1562 226.6562 105.1875 225.5 105.0312 C225.1094 105.125 224.9062 105.2969 224.9062 105.6406 C224.9062 105.9375 225.0625 106.1562 225.7188 106.2656 L227.4688 106.5781 Z"
      /><rect x="207" y="91" width="5" style="fill:white; stroke:none;" height="10"
      /><path style="stroke:none;" d="M208.8906 99.6875 C208.4844 99.6875 208.1562 100.0469 208.1562 100.4219 C208.1562 100.8125 208.4844 101.1562 208.8906 101.1562 C209.2969 101.1562 209.6406 100.8125 209.6406 100.4219 C209.6406 100.0469 209.2969 99.6875 208.8906 99.6875 ZM210.4688 93.5781 C210.7188 93.8906 210.875 94.2656 210.8906 94.6562 C210.8906 95.1875 210.625 95.5 210.0312 95.7656 L209.4062 96.0156 C208.6406 96.3125 208.3906 96.5469 208.3906 96.9375 C208.3906 97.1094 208.4531 97.3438 208.5781 97.8125 L208.7344 98.3438 L209.1094 98.3438 L209.0938 97.5312 C209.0938 97.0938 209.2031 96.9688 209.7812 96.7344 L210.2031 96.5625 C211.0312 96.2188 211.4531 95.6875 211.4531 94.8438 C211.4531 93.1562 209.6562 92.1875 208.5 92.0312 C208.1094 92.125 207.9062 92.2969 207.9062 92.6406 C207.9062 92.9375 208.0625 93.1562 208.7188 93.2656 L210.4688 93.5781 Z"
      /><rect x="279" y="119" width="5" style="fill:white; stroke:none;" height="10"
      /><path style="stroke:none;" d="M280.8906 127.6875 C280.4844 127.6875 280.1562 128.0469 280.1562 128.4219 C280.1562 128.8125 280.4844 129.1562 280.8906 129.1562 C281.2969 129.1562 281.6406 128.8125 281.6406 128.4219 C281.6406 128.0469 281.2969 127.6875 280.8906 127.6875 ZM282.4688 121.5781 C282.7188 121.8906 282.875 122.2656 282.8906 122.6562 C282.8906 123.1875 282.625 123.5 282.0312 123.7656 L281.4062 124.0156 C280.6406 124.3125 280.3906 124.5469 280.3906 124.9375 C280.3906 125.1094 280.4531 125.3438 280.5781 125.8125 L280.7344 126.3438 L281.1094 126.3438 L281.0938 125.5312 C281.0938 125.0938 281.2031 124.9688 281.7812 124.7344 L282.2031 124.5625 C283.0312 124.2188 283.4531 123.6875 283.4531 122.8438 C283.4531 121.1562 281.6562 120.1875 280.5 120.0312 C280.1094 120.125 279.9062 120.2969 279.9062 120.6406 C279.9062 120.9375 280.0625 121.1562 280.7188 121.2656 L282.4688 121.5781 Z"
      /><rect x="265" y="119" width="5" style="fill:white; stroke:none;" height="10"
      /><path style="stroke:none;" d="M266.8906 127.6875 C266.4844 127.6875 266.1562 128.0469 266.1562 128.4219 C266.1562 128.8125 266.4844 129.1562 266.8906 129.1562 C267.2969 129.1562 267.6406 128.8125 267.6406 128.4219 C267.6406 128.0469 267.2969 127.6875 266.8906 127.6875 ZM268.4688 121.5781 C268.7188 121.8906 268.875 122.2656 268.8906 122.6562 C268.8906 123.1875 268.625 123.5 268.0312 123.7656 L267.4062 124.0156 C266.6406 124.3125 266.3906 124.5469 266.3906 124.9375 C266.3906 125.1094 266.4531 125.3438 266.5781 125.8125 L266.7344 126.3438 L267.1094 126.3438 L267.0938 125.5312 C267.0938 125.0938 267.2031 124.9688 267.7812 124.7344 L268.2031 124.5625 C269.0312 124.2188 269.4531 123.6875 269.4531 122.8438 C269.4531 121.1562 267.6562 120.1875 266.5 120.0312 C266.1094 120.125 265.9062 120.2969 265.9062 120.6406 C265.9062 120.9375 266.0625 121.1562 266.7188 121.2656 L268.4688 121.5781 Z"
      /><circle style="fill:white; clip-path:url(#clipPath15); stroke:none;" r="11" cx="301" cy="64"
      /><rect x="290" y="53" width="22" style="clip-path:url(#clipPath15); fill:white; stroke:none;" height="22"
      /><rect x="290" y="53" width="22" style="fill:none; clip-path:url(#clipPath15);" height="22"
      /><circle r="11" style="fill:none;" cx="301" cy="64"
      /><path style="stroke:none;" d="M295.5156 40.3594 C296.5781 40.3594 297.1094 41.1094 297.1094 42.2969 C297.1094 43.5 296.4531 44.2969 295.6094 44.2969 C294.5156 44.2969 293.8438 43.3125 293.7188 41.4844 C294.25 40.6875 294.9688 40.3594 295.5156 40.3594 ZM295.6094 45.1562 C296.9844 45.1562 298.125 44 298.125 42.2969 C298.125 40.4688 297.1875 39.5469 295.7031 39.5469 C295 39.5469 294.2344 39.9531 293.6875 40.6094 C293.7344 37.875 294.7656 36.9531 295.9531 36.9531 C296.5 36.9531 297.0312 37.2031 297.375 37.625 L297.9688 36.9375 C297.5 36.4219 296.8438 36.0312 295.9219 36.0312 C294.2188 36.0312 292.6719 37.3594 292.6719 40.7969 C292.6719 43.7031 293.9219 45.1562 295.6094 45.1562 ZM299.7694 45 L300.8632 45 L300.8632 40.2656 C301.4569 39.5938 302.0038 39.2812 302.5038 39.2812 C303.3319 39.2812 303.7069 39.7969 303.7069 41.0156 L303.7069 45 L304.8007 45 L304.8007 40.2656 C305.41 39.5938 305.9413 39.2812 306.4413 39.2812 C307.2694 39.2812 307.66 39.7969 307.66 41.0156 L307.66 45 L308.7538 45 L308.7538 40.875 C308.7538 39.2031 308.1132 38.3125 306.7694 38.3125 C305.9725 38.3125 305.3007 38.8281 304.6288 39.5625 C304.3632 38.7969 303.8163 38.3125 302.8163 38.3125 C302.0507 38.3125 301.3632 38.8125 300.8007 39.4375 L300.7538 39.4375 L300.66 38.4844 L299.7694 38.4844 L299.7694 45 Z"
      /><rect x="335" y="101" width="5" style="fill:white; stroke:none;" height="10"
      /><path style="stroke:none;" d="M336.8906 109.6875 C336.4844 109.6875 336.1562 110.0469 336.1562 110.4219 C336.1562 110.8125 336.4844 111.1562 336.8906 111.1562 C337.2969 111.1562 337.6406 110.8125 337.6406 110.4219 C337.6406 110.0469 337.2969 109.6875 336.8906 109.6875 ZM338.4688 103.5781 C338.7188 103.8906 338.875 104.2656 338.8906 104.6562 C338.8906 105.1875 338.625 105.5 338.0312 105.7656 L337.4062 106.0156 C336.6406 106.3125 336.3906 106.5469 336.3906 106.9375 C336.3906 107.1094 336.4531 107.3438 336.5781 107.8125 L336.7344 108.3438 L337.1094 108.3438 L337.0938 107.5312 C337.0938 107.0938 337.2031 106.9688 337.7812 106.7344 L338.2031 106.5625 C339.0312 106.2188 339.4531 105.6875 339.4531 104.8438 C339.4531 103.1562 337.6562 102.1875 336.5 102.0312 C336.1094 102.125 335.9062 102.2969 335.9062 102.6406 C335.9062 102.9375 336.0625 103.1562 336.7188 103.2656 L338.4688 103.5781 Z"
      /><rect x="320" y="109" width="5" style="fill:white; stroke:none;" height="10"
      /><path style="stroke:none;" d="M321.8906 117.6875 C321.4844 117.6875 321.1562 118.0469 321.1562 118.4219 C321.1562 118.8125 321.4844 119.1562 321.8906 119.1562 C322.2969 119.1562 322.6406 118.8125 322.6406 118.4219 C322.6406 118.0469 322.2969 117.6875 321.8906 117.6875 ZM323.4688 111.5781 C323.7188 111.8906 323.875 112.2656 323.8906 112.6562 C323.8906 113.1875 323.625 113.5 323.0312 113.7656 L322.4062 114.0156 C321.6406 114.3125 321.3906 114.5469 321.3906 114.9375 C321.3906 115.1094 321.4531 115.3438 321.5781 115.8125 L321.7344 116.3438 L322.1094 116.3438 L322.0938 115.5312 C322.0938 115.0938 322.2031 114.9688 322.7812 114.7344 L323.2031 114.5625 C324.0312 114.2188 324.4531 113.6875 324.4531 112.8438 C324.4531 111.1562 322.6562 110.1875 321.5 110.0312 C321.1094 110.125 320.9062 110.2969 320.9062 110.6406 C320.9062 110.9375 321.0625 111.1562 321.7188 111.2656 L323.4688 111.5781 Z"
      /><rect x="328" y="83" width="5" style="fill:white; stroke:none;" height="10"
      /><path style="stroke:none;" d="M329.8906 91.6875 C329.4844 91.6875 329.1562 92.0469 329.1562 92.4219 C329.1562 92.8125 329.4844 93.1562 329.8906 93.1562 C330.2969 93.1562 330.6406 92.8125 330.6406 92.4219 C330.6406 92.0469 330.2969 91.6875 329.8906 91.6875 ZM331.4688 85.5781 C331.7188 85.8906 331.875 86.2656 331.8906 86.6562 C331.8906 87.1875 331.625 87.5 331.0312 87.7656 L330.4062 88.0156 C329.6406 88.3125 329.3906 88.5469 329.3906 88.9375 C329.3906 89.1094 329.4531 89.3438 329.5781 89.8125 L329.7344 90.3438 L330.1094 90.3438 L330.0938 89.5312 C330.0938 89.0938 330.2031 88.9688 330.7812 88.7344 L331.2031 88.5625 C332.0312 88.2188 332.4531 87.6875 332.4531 86.8438 C332.4531 85.1562 330.6562 84.1875 329.5 84.0312 C329.1094 84.125 328.9062 84.2969 328.9062 84.6406 C328.9062 84.9375 329.0625 85.1562 329.7188 85.2656 L331.4688 85.5781 Z"
      /><rect x="313" y="75" width="5" style="fill:white; stroke:none;" height="10"
      /><path style="stroke:none;" d="M314.8906 83.6875 C314.4844 83.6875 314.1562 84.0469 314.1562 84.4219 C314.1562 84.8125 314.4844 85.1562 314.8906 85.1562 C315.2969 85.1562 315.6406 84.8125 315.6406 84.4219 C315.6406 84.0469 315.2969 83.6875 314.8906 83.6875 ZM316.4688 77.5781 C316.7188 77.8906 316.875 78.2656 316.8906 78.6562 C316.8906 79.1875 316.625 79.5 316.0312 79.7656 L315.4062 80.0156 C314.6406 80.3125 314.3906 80.5469 314.3906 80.9375 C314.3906 81.1094 314.4531 81.3438 314.5781 81.8125 L314.7344 82.3438 L315.1094 82.3438 L315.0938 81.5312 C315.0938 81.0938 315.2031 80.9688 315.7812 80.7344 L316.2031 80.5625 C317.0312 80.2188 317.4531 79.6875 317.4531 78.8438 C317.4531 77.1562 315.6562 76.1875 314.5 76.0312 C314.1094 76.125 313.9062 76.2969 313.9062 76.6406 C313.9062 76.9375 314.0625 77.1562 314.7188 77.2656 L316.4688 77.5781 Z"
      /><rect x="369" y="93" width="5" style="fill:white; stroke:none;" height="10"
      /><path style="stroke:none;" d="M370.8906 101.6875 C370.4844 101.6875 370.1562 102.0469 370.1562 102.4219 C370.1562 102.8125 370.4844 103.1562 370.8906 103.1562 C371.2969 103.1562 371.6406 102.8125 371.6406 102.4219 C371.6406 102.0469 371.2969 101.6875 370.8906 101.6875 ZM372.4688 95.5781 C372.7188 95.8906 372.875 96.2656 372.8906 96.6562 C372.8906 97.1875 372.625 97.5 372.0312 97.7656 L371.4062 98.0156 C370.6406 98.3125 370.3906 98.5469 370.3906 98.9375 C370.3906 99.1094 370.4531 99.3438 370.5781 99.8125 L370.7344 100.3438 L371.1094 100.3438 L371.0938 99.5312 C371.0938 99.0938 371.2031 98.9688 371.7812 98.7344 L372.2031 98.5625 C373.0312 98.2188 373.4531 97.6875 373.4531 96.8438 C373.4531 95.1562 371.6562 94.1875 370.5 94.0312 C370.1094 94.125 369.9062 94.2969 369.9062 94.6406 C369.9062 94.9375 370.0625 95.1562 370.7188 95.2656 L372.4688 95.5781 Z"
    /></g
  ></g
></svg
>
