<?xml version="1.0"?>
<!DOCTYPE svg PUBLIC '-//W3C//DTD SVG 1.0//EN'
          'http://www.w3.org/TR/2001/REC-SVG-20010904/DTD/svg10.dtd'>
<svg xmlns:xlink="http://www.w3.org/1999/xlink" style="fill-opacity:1; color-rendering:auto; color-interpolation:auto; text-rendering:auto; stroke:black; stroke-linecap:square; stroke-miterlimit:10; shape-rendering:auto; stroke-opacity:1; fill:black; stroke-dasharray:none; font-weight:normal; stroke-width:1; font-family:'Dialog'; font-style:normal; stroke-linejoin:miter; font-size:12px; stroke-dashoffset:0; image-rendering:auto;" viewBox="0 0 394 82" xmlns="http://www.w3.org/2000/svg"
><!--Generated by the Batik Graphics2D SVG Generator--><defs id="genericDefs"
  /><g
  ><defs id="defs1"
    ><clipPath clipPathUnits="userSpaceOnUse" id="clipPath1"
      ><path d="M312 41 C312 47.0751 307.0751 52 301 52 C294.9249 52 290 47.0751 290 41 C290 34.9249 294.9249 30 301 30 C307.0751 30 312 34.9249 312 41 Z"
      /></clipPath
      ><clipPath clipPathUnits="userSpaceOnUse" id="clipPath2"
      ><path d="M260 41 C260 47.0751 255.0751 52 249 52 C242.9249 52 238 47.0751 238 41 C238 34.9249 242.9249 30 249 30 C255.0751 30 260 34.9249 260 41 Z"
      /></clipPath
      ><clipPath clipPathUnits="userSpaceOnUse" id="clipPath3"
      ><path d="M208 41 C208 47.0751 203.0751 52 197 52 C190.9249 52 186 47.0751 186 41 C186 34.9249 190.9249 30 197 30 C203.0751 30 208 34.9249 208 41 Z"
      /></clipPath
      ><clipPath clipPathUnits="userSpaceOnUse" id="clipPath4"
      ><path d="M156 41 C156 47.0751 151.0751 52 145 52 C138.9249 52 134 47.0751 134 41 C134 34.9249 138.9249 30 145 30 C151.0751 30 156 34.9249 156 41 Z"
      /></clipPath
      ><clipPath clipPathUnits="userSpaceOnUse" id="clipPath5"
      ><path d="M104 41 C104 47.0751 99.0751 52 93 52 C86.9249 52 82 47.0751 82 41 C82 34.9249 86.9249 30 93 30 C99.0751 30 104 34.9249 104 41 Z"
      /></clipPath
      ><clipPath clipPathUnits="userSpaceOnUse" id="clipPath6"
      ><path d="M52 41 C52 47.0751 47.0751 52 41 52 C34.9249 52 30 47.0751 30 41 C30 34.9249 34.9249 30 41 30 C47.0751 30 52 34.9249 52 41 Z"
      /></clipPath
    ></defs
    ><g style="fill:white; text-rendering:optimizeSpeed; stroke:white;"
    ><rect x="0" width="394" height="82" y="0" style="stroke:none;"
      /><polygon style="fill:none; stroke:black;" points=" 353 41 301 41"
      /><path d="M353 30 C347.5 35.5 358.5 46.5 353 52" style="fill:none; stroke:black;"
      /><polygon style="fill:none; stroke:black;" points=" 301 41 249 41"
      /><circle style="clip-path:url(#clipPath1); stroke:none;" r="11" cx="301" cy="41"
      /><rect x="290" y="30" width="22" style="clip-path:url(#clipPath1); fill:rgb(0,144,188); stroke:none;" height="22"
      /><rect x="290" y="30" width="22" style="clip-path:url(#clipPath1); fill:none; stroke:black;" height="22"
      /><circle style="fill:none; stroke:black;" r="11" cx="301" cy="41"
      /><polygon style="fill:none; stroke:black;" points=" 249 41 197 41"
      /><circle style="clip-path:url(#clipPath2); stroke:none;" r="11" cx="249" cy="41"
      /><rect x="238" y="30" width="22" style="clip-path:url(#clipPath2); fill:rgb(0,144,188); stroke:none;" height="22"
      /><rect x="238" y="30" width="22" style="clip-path:url(#clipPath2); fill:none; stroke:black;" height="22"
      /><circle style="fill:none; stroke:black;" r="11" cx="249" cy="41"
      /><polygon style="fill:none; stroke:black;" points=" 197 41 145 41"
      /><circle style="clip-path:url(#clipPath3); stroke:none;" r="11" cx="197" cy="41"
      /><rect x="186" y="30" width="22" style="clip-path:url(#clipPath3); fill:rgb(0,144,188); stroke:none;" height="22"
      /><rect x="186" y="30" width="22" style="clip-path:url(#clipPath3); fill:none; stroke:black;" height="22"
      /><circle style="fill:none; stroke:black;" r="11" cx="197" cy="41"
      /><polygon style="fill:none; stroke:black;" points=" 145 41 93 41"
      /><circle style="clip-path:url(#clipPath4); stroke:none;" r="11" cx="145" cy="41"
      /><rect x="134" y="30" width="22" style="clip-path:url(#clipPath4); fill:rgb(0,144,188); stroke:none;" height="22"
      /><rect x="134" y="30" width="22" style="clip-path:url(#clipPath4); fill:none; stroke:black;" height="22"
      /><circle style="fill:none; stroke:black;" r="11" cx="145" cy="41"
      /><polygon style="fill:none; stroke:black;" points=" 93 41 41 41"
      /><circle style="clip-path:url(#clipPath5); stroke:none;" r="11" cx="93" cy="41"
      /><rect x="82" y="30" width="22" style="clip-path:url(#clipPath5); fill:rgb(0,144,188); stroke:none;" height="22"
      /><rect x="82" y="30" width="22" style="clip-path:url(#clipPath5); fill:none; stroke:black;" height="22"
      /><circle style="fill:none; stroke:black;" r="11" cx="93" cy="41"
      /><circle style="clip-path:url(#clipPath6); stroke:none;" r="11" cx="41" cy="41"
      /><rect x="30" y="30" width="22" style="clip-path:url(#clipPath6); fill:rgb(0,144,188); stroke:none;" height="22"
      /><rect x="30" y="30" width="22" style="clip-path:url(#clipPath6); fill:none; stroke:black;" height="22"
      /><circle style="fill:none; stroke:black;" r="11" cx="41" cy="41"
      /><rect x="70" y="44" width="7" style="stroke:none;" height="9"
    /></g
    ><g style="font-family:'Serif'; text-rendering:optimizeSpeed; "
    ><path style="stroke:none;" d="M71 49.5156 L73.9531 45.2656 L73.9531 49.5156 L71 49.5156 ZM76.2812 49.5156 L74.8594 49.5156 L74.8594 44.125 L74.2344 44.125 L70.3438 49.6406 L70.3438 50.1875 L73.9531 50.1875 L73.9531 53 L74.8594 53 L74.8594 50.1875 L76.2812 50.1875 L76.2812 49.5156 Z"
      /><rect x="56" y="45" width="8" style="fill:white; stroke:none;" height="8"
      /><path style="stroke:none;" d="M60.9844 50.7031 C60.9375 51.8906 60.1562 52.6562 59.3125 52.6562 C58.2656 52.6562 57.5 51.6875 57.5 49.7188 C57.5 48.2812 58.1562 47.1562 59.3438 47.1562 C60.1406 47.1562 60.7812 47.6875 61.0938 48.6406 L60.9844 50.7031 ZM62.9062 52.2812 C62.7344 52.375 62.5469 52.4219 62.3438 52.4219 C61.9531 52.4219 61.75 52.2188 61.75 51.4219 C61.75 50.4844 61.9688 48.5312 62.1875 46.8281 L62.0312 46.7188 L61.2344 46.9219 L61.1406 47.7969 C60.7812 47.0312 60.1562 46.6562 59.3906 46.6562 C58.0469 46.6562 56.5625 47.8438 56.5625 49.9531 C56.5625 52.0938 57.7188 53.1719 59.1406 53.1719 C60.0156 53.1719 60.6875 52.8125 61.0938 51.9844 C61.2031 52.8594 61.5156 53.1719 62.0156 53.1719 C62.4688 53.1719 62.7969 52.9062 63.0156 52.5625 L62.9062 52.2812 Z"
      /><rect x="123" y="44" width="6" style="fill:white; stroke:none;" height="10"
      /><path style="stroke:none;" d="M126.3438 53.6875 C125.2031 53.6875 124.5312 52.5 124.5312 50.2969 C124.5312 50.2188 124.5312 50.125 124.5312 50.0469 C125.0938 49.5 125.7188 49.3125 126.3438 49.3125 C127.3125 49.3125 127.9531 49.9844 127.9531 51.4531 C127.9531 52.9375 127.3125 53.6875 126.3438 53.6875 ZM128.5312 45.0781 C125.3438 45.4531 123.5625 47.7656 123.5625 50.4531 C123.5625 52.7812 124.6094 54.1719 126.3125 54.1719 C127.8438 54.1719 128.9219 53.1094 128.9219 51.2812 C128.9219 49.6875 127.9688 48.6562 126.5625 48.6562 C125.8281 48.6562 125.1406 48.9844 124.5781 49.5781 C124.7969 47.4062 126.0781 45.9688 128.5938 45.3906 L128.5312 45.0781 Z"
      /><rect x="108" y="45" width="8" style="fill:white; stroke:none;" height="8"
      /><path style="stroke:none;" d="M112.9844 50.7031 C112.9375 51.8906 112.1562 52.6562 111.3125 52.6562 C110.2656 52.6562 109.5 51.6875 109.5 49.7188 C109.5 48.2812 110.1562 47.1562 111.3438 47.1562 C112.1406 47.1562 112.7812 47.6875 113.0938 48.6406 L112.9844 50.7031 ZM114.9062 52.2812 C114.7344 52.375 114.5469 52.4219 114.3438 52.4219 C113.9531 52.4219 113.75 52.2188 113.75 51.4219 C113.75 50.4844 113.9688 48.5312 114.1875 46.8281 L114.0312 46.7188 L113.2344 46.9219 L113.1406 47.7969 C112.7812 47.0312 112.1562 46.6562 111.3906 46.6562 C110.0469 46.6562 108.5625 47.8438 108.5625 49.9531 C108.5625 52.0938 109.7188 53.1719 111.1406 53.1719 C112.0156 53.1719 112.6875 52.8125 113.0938 51.9844 C113.2031 52.8594 113.5156 53.1719 114.0156 53.1719 C114.4688 53.1719 114.7969 52.9062 115.0156 52.5625 L114.9062 52.2812 Z"
      /><rect x="174" y="44" width="7" style="fill:white; stroke:none;" height="9"
      /><path style="stroke:none;" d="M175 49.5156 L177.9531 45.2656 L177.9531 49.5156 L175 49.5156 ZM180.2812 49.5156 L178.8594 49.5156 L178.8594 44.125 L178.2344 44.125 L174.3438 49.6406 L174.3438 50.1875 L177.9531 50.1875 L177.9531 53 L178.8594 53 L178.8594 50.1875 L180.2812 50.1875 L180.2812 49.5156 Z"
      /><rect x="160" y="45" width="8" style="fill:white; stroke:none;" height="8"
      /><path style="stroke:none;" d="M164.9844 50.7031 C164.9375 51.8906 164.1562 52.6562 163.3125 52.6562 C162.2656 52.6562 161.5 51.6875 161.5 49.7188 C161.5 48.2812 162.1562 47.1562 163.3438 47.1562 C164.1406 47.1562 164.7812 47.6875 165.0938 48.6406 L164.9844 50.7031 ZM166.9062 52.2812 C166.7344 52.375 166.5469 52.4219 166.3438 52.4219 C165.9531 52.4219 165.75 52.2188 165.75 51.4219 C165.75 50.4844 165.9688 48.5312 166.1875 46.8281 L166.0312 46.7188 L165.2344 46.9219 L165.1406 47.7969 C164.7812 47.0312 164.1562 46.6562 163.3906 46.6562 C162.0469 46.6562 160.5625 47.8438 160.5625 49.9531 C160.5625 52.0938 161.7188 53.1719 163.1406 53.1719 C164.0156 53.1719 164.6875 52.8125 165.0938 51.9844 C165.2031 52.8594 165.5156 53.1719 166.0156 53.1719 C166.4688 53.1719 166.7969 52.9062 167.0156 52.5625 L166.9062 52.2812 Z"
      /><rect x="227" y="44" width="6" style="fill:white; stroke:none;" height="10"
      /><path style="stroke:none;" d="M230.3438 53.6875 C229.2031 53.6875 228.5312 52.5 228.5312 50.2969 C228.5312 50.2188 228.5312 50.125 228.5312 50.0469 C229.0938 49.5 229.7188 49.3125 230.3438 49.3125 C231.3125 49.3125 231.9531 49.9844 231.9531 51.4531 C231.9531 52.9375 231.3125 53.6875 230.3438 53.6875 ZM232.5312 45.0781 C229.3438 45.4531 227.5625 47.7656 227.5625 50.4531 C227.5625 52.7812 228.6094 54.1719 230.3125 54.1719 C231.8438 54.1719 232.9219 53.1094 232.9219 51.2812 C232.9219 49.6875 231.9688 48.6562 230.5625 48.6562 C229.8281 48.6562 229.1406 48.9844 228.5781 49.5781 C228.7969 47.4062 230.0781 45.9688 232.5938 45.3906 L232.5312 45.0781 Z"
      /><rect x="212" y="45" width="8" style="fill:white; stroke:none;" height="8"
      /><path style="stroke:none;" d="M216.9844 50.7031 C216.9375 51.8906 216.1562 52.6562 215.3125 52.6562 C214.2656 52.6562 213.5 51.6875 213.5 49.7188 C213.5 48.2812 214.1562 47.1562 215.3438 47.1562 C216.1406 47.1562 216.7812 47.6875 217.0938 48.6406 L216.9844 50.7031 ZM218.9062 52.2812 C218.7344 52.375 218.5469 52.4219 218.3438 52.4219 C217.9531 52.4219 217.75 52.2188 217.75 51.4219 C217.75 50.4844 217.9688 48.5312 218.1875 46.8281 L218.0312 46.7188 L217.2344 46.9219 L217.1406 47.7969 C216.7812 47.0312 216.1562 46.6562 215.3906 46.6562 C214.0469 46.6562 212.5625 47.8438 212.5625 49.9531 C212.5625 52.0938 213.7188 53.1719 215.1406 53.1719 C216.0156 53.1719 216.6875 52.8125 217.0938 51.9844 C217.2031 52.8594 217.5156 53.1719 218.0156 53.1719 C218.4688 53.1719 218.7969 52.9062 219.0156 52.5625 L218.9062 52.2812 Z"
      /><rect x="278" y="44" width="7" style="fill:white; stroke:none;" height="9"
      /><path style="stroke:none;" d="M279 49.5156 L281.9531 45.2656 L281.9531 49.5156 L279 49.5156 ZM284.2812 49.5156 L282.8594 49.5156 L282.8594 44.125 L282.2344 44.125 L278.3438 49.6406 L278.3438 50.1875 L281.9531 50.1875 L281.9531 53 L282.8594 53 L282.8594 50.1875 L284.2812 50.1875 L284.2812 49.5156 Z"
      /><rect x="264" y="45" width="8" style="fill:white; stroke:none;" height="8"
      /><path style="stroke:none;" d="M268.9844 50.7031 C268.9375 51.8906 268.1562 52.6562 267.3125 52.6562 C266.2656 52.6562 265.5 51.6875 265.5 49.7188 C265.5 48.2812 266.1562 47.1562 267.3438 47.1562 C268.1406 47.1562 268.7812 47.6875 269.0938 48.6406 L268.9844 50.7031 ZM270.9062 52.2812 C270.7344 52.375 270.5469 52.4219 270.3438 52.4219 C269.9531 52.4219 269.75 52.2188 269.75 51.4219 C269.75 50.4844 269.9688 48.5312 270.1875 46.8281 L270.0312 46.7188 L269.2344 46.9219 L269.1406 47.7969 C268.7812 47.0312 268.1562 46.6562 267.3906 46.6562 C266.0469 46.6562 264.5625 47.8438 264.5625 49.9531 C264.5625 52.0938 265.7188 53.1719 267.1406 53.1719 C268.0156 53.1719 268.6875 52.8125 269.0938 51.9844 C269.2031 52.8594 269.5156 53.1719 270.0156 53.1719 C270.4688 53.1719 270.7969 52.9062 271.0156 52.5625 L270.9062 52.2812 Z"
      /><rect x="317" y="44" width="5" style="fill:white; stroke:none;" height="10"
      /><path style="stroke:none;" d="M318.8906 52.6875 C318.4844 52.6875 318.1562 53.0469 318.1562 53.4219 C318.1562 53.8125 318.4844 54.1562 318.8906 54.1562 C319.2969 54.1562 319.6406 53.8125 319.6406 53.4219 C319.6406 53.0469 319.2969 52.6875 318.8906 52.6875 ZM320.4688 46.5781 C320.7188 46.8906 320.875 47.2656 320.8906 47.6562 C320.8906 48.1875 320.625 48.5 320.0312 48.7656 L319.4062 49.0156 C318.6406 49.3125 318.3906 49.5469 318.3906 49.9375 C318.3906 50.1094 318.4531 50.3438 318.5781 50.8125 L318.7344 51.3438 L319.1094 51.3438 L319.0938 50.5312 C319.0938 50.0938 319.2031 49.9688 319.7812 49.7344 L320.2031 49.5625 C321.0312 49.2188 321.4531 48.6875 321.4531 47.8438 C321.4531 46.1562 319.6562 45.1875 318.5 45.0312 C318.1094 45.125 317.9062 45.2969 317.9062 45.6406 C317.9062 45.9375 318.0625 46.1562 318.7188 46.2656 L320.4688 46.5781 Z"
    /></g
  ></g
></svg
>
