<?xml version="1.0"?>
<!DOCTYPE svg PUBLIC '-//W3C//DTD SVG 1.0//EN'
          'http://www.w3.org/TR/2001/REC-SVG-20010904/DTD/svg10.dtd'>
<svg xmlns:xlink="http://www.w3.org/1999/xlink" style="fill-opacity:1; color-rendering:auto; color-interpolation:auto; text-rendering:auto; stroke:black; stroke-linecap:square; stroke-miterlimit:10; shape-rendering:auto; stroke-opacity:1; fill:black; stroke-dasharray:none; font-weight:normal; stroke-width:1; font-family:'Dialog'; font-style:normal; stroke-linejoin:miter; font-size:12px; stroke-dashoffset:0; image-rendering:auto;" viewBox="0 0 514 186" xmlns="http://www.w3.org/2000/svg"
><!--Generated by the Batik Graphics2D SVG Generator--><defs id="genericDefs"
  /><g
  ><defs id="defs1"
    ><clipPath clipPathUnits="userSpaceOnUse" id="clipPath1"
      ><path style="fill-rule:evenodd;" d="M432 93 L426 100 L415 100 L410 93 L415 85 L426 85 L432 93 Z"
      /></clipPath
      ><clipPath clipPathUnits="userSpaceOnUse" id="clipPath2"
      ><path style="fill-rule:evenodd;" d="M372 93 L366 100 L355 100 L350 93 L355 85 L366 85 L372 93 Z"
      /></clipPath
      ><clipPath clipPathUnits="userSpaceOnUse" id="clipPath3"
      ><path style="fill-rule:evenodd;" d="M312 93 L306 100 L295 100 L290 93 L295 85 L306 85 L312 93 Z"
      /></clipPath
      ><clipPath clipPathUnits="userSpaceOnUse" id="clipPath4"
      ><path style="fill-rule:evenodd;" d="M260 93 L254 100 L243 100 L238 93 L243 85 L254 85 L260 93 Z"
      /></clipPath
      ><clipPath clipPathUnits="userSpaceOnUse" id="clipPath5"
      ><path style="fill-rule:evenodd;" d="M208 145 L202 152 L191 152 L186 145 L191 137 L202 137 L208 145 Z"
      /></clipPath
      ><clipPath clipPathUnits="userSpaceOnUse" id="clipPath6"
      ><path d="M134 134 L156 134 L156 156 L134 156 L134 134 Z"
      /></clipPath
      ><clipPath clipPathUnits="userSpaceOnUse" id="clipPath7"
      ><path d="M104 145 C104 151.0751 99.0751 156 93 156 C86.9249 156 82 151.0751 82 145 C82 138.9249 86.9249 134 93 134 C99.0751 134 104 138.9249 104 145 Z"
      /></clipPath
      ><clipPath clipPathUnits="userSpaceOnUse" id="clipPath8"
      ><path style="fill-rule:evenodd;" d="M93 104 L82 82 L104 82 Z"
      /></clipPath
      ><clipPath clipPathUnits="userSpaceOnUse" id="clipPath9"
      ><path d="M30 134 L52 134 L52 156 L30 156 L30 134 Z"
      /></clipPath
      ><clipPath clipPathUnits="userSpaceOnUse" id="clipPath10"
      ><path style="fill-rule:evenodd;" d="M145 104 L134 82 L156 82 Z"
      /></clipPath
      ><clipPath clipPathUnits="userSpaceOnUse" id="clipPath11"
      ><path d="M208 41 C208 47.0751 203.0751 52 197 52 C190.9249 52 186 47.0751 186 41 C186 34.9249 190.9249 30 197 30 C203.0751 30 208 34.9249 208 41 Z"
      /></clipPath
      ><clipPath clipPathUnits="userSpaceOnUse" id="clipPath12"
      ><path d="M156 41 C156 47.0751 151.0751 52 145 52 C138.9249 52 134 47.0751 134 41 C134 34.9249 138.9249 30 145 30 C151.0751 30 156 34.9249 156 41 Z"
      /></clipPath
      ><clipPath clipPathUnits="userSpaceOnUse" id="clipPath13"
      ><path d="M104 41 C104 47.0751 99.0751 52 93 52 C86.9249 52 82 47.0751 82 41 C82 34.9249 86.9249 30 93 30 C99.0751 30 104 34.9249 104 41 Z"
      /></clipPath
    ></defs
    ><g style="fill:white; text-rendering:optimizeSpeed; stroke:white;"
    ><rect x="0" width="514" height="186" y="0" style="stroke:none;"
      /><polygon style="fill:none; stroke:black;" points=" 473 93 421 93"
      /><path d="M473 82 C467.5 87.5 478.5 98.5 473 104" style="fill:none; stroke:black;"
      /><polygon style="fill:none; stroke:black;" points=" 421 93 361 93"
      /><polygon style="clip-path:url(#clipPath1); stroke:none;" points=" 432 93 426 100 415 100 410 93 415 85 426 85 432 93"
      /><rect x="410" y="82" width="22" style="clip-path:url(#clipPath1); fill:rgb(255,212,0); stroke:none;" height="22"
      /><rect x="410" y="82" width="22" style="clip-path:url(#clipPath1); fill:none; stroke:black;" height="22"
      /><polygon style="fill:none; stroke:black;" points=" 432 93 426 100 415 100 410 93 415 85 426 85 432 93"
    /></g
    ><g style="text-rendering:optimizeSpeed; font-size:14px; font-family:'SansSerif';"
    ><path style="stroke:none;" d="M413.6094 121 L420.0625 121 L420.0625 119.8906 L417.2344 119.8906 C416.7031 119.8906 416.0781 119.9531 415.5469 119.9844 C417.9531 117.7031 419.5625 115.625 419.5625 113.5781 C419.5625 111.75 418.4219 110.5469 416.5781 110.5469 C415.2812 110.5469 414.4062 111.1406 413.5625 112.0469 L414.2969 112.7812 C414.8594 112.1094 415.5938 111.5938 416.4375 111.5938 C417.7031 111.5938 418.3125 112.4531 418.3125 113.625 C418.3125 115.3906 416.8438 117.4375 413.6094 120.25 L413.6094 121 ZM425.8168 121.1875 C427.9106 121.1875 429.5043 120.0625 429.5043 116.7656 L429.5043 110.7188 L428.2543 110.7188 L428.2543 116.7969 C428.2543 119.2812 427.1762 120.0469 425.8168 120.0469 C424.4731 120.0469 423.4262 119.2812 423.4262 116.7969 L423.4262 110.7188 L422.1293 110.7188 L422.1293 116.7656 C422.1293 120.0625 423.7231 121.1875 425.8168 121.1875 Z"
      /><polygon style="fill:none;" points=" 361 93 301 93"
    /></g
    ><g style="fill:white; text-rendering:optimizeSpeed; stroke:white;"
    ><polygon style="stroke:none; clip-path:url(#clipPath2);" points=" 372 93 366 100 355 100 350 93 355 85 366 85 372 93"
      /><rect x="350" y="82" width="22" style="clip-path:url(#clipPath2); fill:rgb(0,166,81); stroke:none;" height="22"
      /><rect x="350" y="82" width="22" style="clip-path:url(#clipPath2); fill:none; stroke:black;" height="22"
      /><polygon style="fill:none; stroke:black;" points=" 372 93 366 100 355 100 350 93 355 85 366 85 372 93"
      /><rect x="342" width="36" height="10" y="64" style="stroke:none;"
    /></g
    ><g style="text-rendering:optimizeSpeed; font-size:14px; font-family:'SansSerif';"
    ><path style="stroke:none;" d="M344.7656 75 L346.1094 75 C346.25 70.9844 346.7031 68.5938 349.1094 65.5156 L349.1094 64.7188 L342.6875 64.7188 L342.6875 65.8281 L347.6562 65.8281 C345.6562 68.625 344.9375 71.1094 344.7656 75 ZM351.1762 75 L352.4731 75 L352.4731 70.9219 L354.1606 70.9219 C356.4262 70.9219 357.9418 69.9219 357.9418 67.75 C357.9418 65.5156 356.4106 64.7188 354.1137 64.7188 L351.1762 64.7188 L351.1762 75 ZM352.4731 69.875 L352.4731 65.7812 L353.9418 65.7812 C355.7543 65.7812 356.6606 66.2656 356.6606 67.75 C356.6606 69.2188 355.8012 69.875 354.0043 69.875 L352.4731 69.875 ZM360.0242 75 L366.0867 75 L366.0867 73.8906 L361.321 73.8906 L361.321 70.1562 L365.2117 70.1562 L365.2117 69.0469 L361.321 69.0469 L361.321 65.8281 L365.946 65.8281 L365.946 64.7188 L360.0242 64.7188 L360.0242 75 ZM370.5374 75.1875 C370.9905 75.1875 371.4905 75.0469 371.928 74.9062 L371.678 73.9531 C371.428 74.0469 371.0843 74.1406 370.8187 74.1406 C369.928 74.1406 369.6312 73.6094 369.6312 72.6719 L369.6312 68.4375 L371.6937 68.4375 L371.6937 67.3906 L369.6312 67.3906 L369.6312 65.25 L368.5687 65.25 L368.4124 67.3906 L367.2249 67.4688 L367.2249 68.4375 L368.3655 68.4375 L368.3655 72.6406 C368.3655 74.1562 368.9124 75.1875 370.5374 75.1875 ZM373.4091 75 L374.6904 75 L374.6904 69.4844 C375.456 68.7188 375.9872 68.3281 376.7685 68.3281 C377.7841 68.3281 378.2216 68.9219 378.2216 70.3594 L378.2216 75 L379.4872 75 L379.4872 70.1875 C379.4872 68.2344 378.7685 67.2031 377.1747 67.2031 C376.1279 67.2031 375.3466 67.7812 374.6122 68.4844 L374.581 68.4844 L374.4716 67.3906 L373.4091 67.3906 L373.4091 75 Z"
      /><polygon style="fill:none;" points=" 301 93 249 93"
    /></g
    ><g style="fill:white; text-rendering:optimizeSpeed; stroke:white;"
    ><polygon style="stroke:none; clip-path:url(#clipPath3);" points=" 312 93 306 100 295 100 290 93 295 85 306 85 312 93"
      /><rect x="290" y="82" width="22" style="clip-path:url(#clipPath3); fill:rgb(0,166,81); stroke:none;" height="22"
      /><rect x="290" y="82" width="22" style="clip-path:url(#clipPath3); fill:none; stroke:black;" height="22"
      /><polygon style="fill:none; stroke:black;" points=" 312 93 306 100 295 100 290 93 295 85 306 85 312 93"
      /><polygon style="fill:none; stroke:black;" points=" 249 93 197 145"
      /><polygon style="fill:none; stroke:black;" points=" 249 93 197 41"
      /><polygon style="clip-path:url(#clipPath4); stroke:none;" points=" 260 93 254 100 243 100 238 93 243 85 254 85 260 93"
      /><rect x="238" y="82" width="22" style="clip-path:url(#clipPath4); fill:rgb(246,158,161); stroke:none;" height="22"
      /><rect x="238" y="82" width="22" style="clip-path:url(#clipPath4); fill:none; stroke:black;" height="22"
      /><polygon style="fill:none; stroke:black;" points=" 260 93 254 100 243 100 238 93 243 85 254 85 260 93"
      /><polygon style="fill:none; stroke:black;" points=" 197 145 145 145"
      /><polygon style="clip-path:url(#clipPath5); stroke:none;" points=" 208 145 202 152 191 152 186 145 191 137 202 137 208 145"
      /><rect x="186" y="134" width="22" style="clip-path:url(#clipPath5); fill:rgb(246,158,161); stroke:none;" height="22"
      /><rect x="186" y="134" width="22" style="clip-path:url(#clipPath5); fill:none; stroke:black;" height="22"
      /><polygon style="fill:none; stroke:black;" points=" 208 145 202 152 191 152 186 145 191 137 202 137 208 145"
      /><polygon style="fill:none; stroke:black;" points=" 145 145 93 145"
      /><polygon style="fill:none; stroke:black;" points=" 145 145 145 93"
      /><rect x="134" y="134" width="22" style="clip-path:url(#clipPath6); stroke:none;" height="22"
      /><rect x="134" y="134" width="22" style="clip-path:url(#clipPath6); fill:rgb(0,144,188); stroke:none;" height="22"
      /><rect x="134" y="134" width="22" style="clip-path:url(#clipPath6); fill:none; stroke:black;" height="22"
      /><rect x="134" y="134" width="22" style="fill:none; stroke:black;" height="22"
      /><polygon style="fill:none; stroke:black;" points=" 93 145 93 93"
      /><polygon style="fill:none; stroke:black;" points=" 93 145 41 145"
      /><circle r="11" style="clip-path:url(#clipPath7); stroke:none;" cx="93" cy="145"
      /><rect x="82" y="134" width="22" style="clip-path:url(#clipPath7); fill:rgb(255,212,0); stroke:none;" height="22"
      /><rect x="82" y="134" width="22" style="clip-path:url(#clipPath7); fill:none; stroke:black;" height="22"
      /><circle r="11" style="fill:none; stroke:black;" cx="93" cy="145"
      /><polygon style="clip-path:url(#clipPath8); stroke:none;" points=" 93 104 82 82 104 82"
      /><rect x="82" y="82" width="22" style="clip-path:url(#clipPath8); fill:rgb(237,28,36); stroke:none;" height="22"
      /><rect x="82" y="82" width="22" style="clip-path:url(#clipPath8); fill:none; stroke:black;" height="22"
      /><polygon style="fill:none; stroke:black;" points=" 93 104 82 82 104 82"
      /><rect x="30" y="134" width="22" style="clip-path:url(#clipPath9); stroke:none;" height="22"
      /><rect x="30" y="134" width="22" style="clip-path:url(#clipPath9); fill:rgb(255,212,0); stroke:none;" height="22"
      /><rect x="30" y="134" width="22" style="clip-path:url(#clipPath9); fill:none; stroke:black;" height="22"
      /><rect x="30" y="134" width="22" style="fill:none; stroke:black;" height="22"
      /><rect x="82" width="5" height="10" y="121" style="stroke:none;"
      /><path d="M83.8906 129.6875 C83.4844 129.6875 83.1562 130.0469 83.1562 130.4219 C83.1562 130.8125 83.4844 131.1562 83.8906 131.1562 C84.2969 131.1562 84.6406 130.8125 84.6406 130.4219 C84.6406 130.0469 84.2969 129.6875 83.8906 129.6875 ZM85.4688 123.5781 C85.7188 123.8906 85.875 124.2656 85.8906 124.6562 C85.8906 125.1875 85.625 125.5 85.0312 125.7656 L84.4062 126.0156 C83.6406 126.3125 83.3906 126.5469 83.3906 126.9375 C83.3906 127.1094 83.4531 127.3438 83.5781 127.8125 L83.7344 128.3438 L84.1094 128.3438 L84.0938 127.5312 C84.0938 127.0938 84.2031 126.9688 84.7812 126.7344 L85.2031 126.5625 C86.0312 126.2188 86.4531 125.6875 86.4531 124.8438 C86.4531 123.1562 84.6562 122.1875 83.5 122.0312 C83.1094 122.125 82.9062 122.2969 82.9062 122.6406 C82.9062 122.9375 83.0625 123.1562 83.7188 123.2656 L85.4688 123.5781 Z" style="fill:black; stroke:none;"
      /><rect x="82" width="5" height="10" y="107" style="stroke:none;"
      /><path d="M83.8906 115.6875 C83.4844 115.6875 83.1562 116.0469 83.1562 116.4219 C83.1562 116.8125 83.4844 117.1562 83.8906 117.1562 C84.2969 117.1562 84.6406 116.8125 84.6406 116.4219 C84.6406 116.0469 84.2969 115.6875 83.8906 115.6875 ZM85.4688 109.5781 C85.7188 109.8906 85.875 110.2656 85.8906 110.6562 C85.8906 111.1875 85.625 111.5 85.0312 111.7656 L84.4062 112.0156 C83.6406 112.3125 83.3906 112.5469 83.3906 112.9375 C83.3906 113.1094 83.4531 113.3438 83.5781 113.8125 L83.7344 114.3438 L84.1094 114.3438 L84.0938 113.5312 C84.0938 113.0938 84.2031 112.9688 84.7812 112.7344 L85.2031 112.5625 C86.0312 112.2188 86.4531 111.6875 86.4531 110.8438 C86.4531 109.1562 84.6562 108.1875 83.5 108.0312 C83.1094 108.125 82.9062 108.2969 82.9062 108.6406 C82.9062 108.9375 83.0625 109.1562 83.7188 109.2656 L85.4688 109.5781 Z" style="fill:black; stroke:none;"
      /><rect x="71" width="5" height="10" y="148" style="stroke:none;"
      /><path d="M72.8906 156.6875 C72.4844 156.6875 72.1562 157.0469 72.1562 157.4219 C72.1562 157.8125 72.4844 158.1562 72.8906 158.1562 C73.2969 158.1562 73.6406 157.8125 73.6406 157.4219 C73.6406 157.0469 73.2969 156.6875 72.8906 156.6875 ZM74.4688 150.5781 C74.7188 150.8906 74.875 151.2656 74.8906 151.6562 C74.8906 152.1875 74.625 152.5 74.0312 152.7656 L73.4062 153.0156 C72.6406 153.3125 72.3906 153.5469 72.3906 153.9375 C72.3906 154.1094 72.4531 154.3438 72.5781 154.8125 L72.7344 155.3438 L73.1094 155.3438 L73.0938 154.5312 C73.0938 154.0938 73.2031 153.9688 73.7812 153.7344 L74.2031 153.5625 C75.0312 153.2188 75.4531 152.6875 75.4531 151.8438 C75.4531 150.1562 73.6562 149.1875 72.5 149.0312 C72.1094 149.125 71.9062 149.2969 71.9062 149.6406 C71.9062 149.9375 72.0625 150.1562 72.7188 150.2656 L74.4688 150.5781 Z" style="fill:black; stroke:none;"
      /><rect x="57" width="5" height="10" y="148" style="stroke:none;"
      /><path d="M58.8906 156.6875 C58.4844 156.6875 58.1562 157.0469 58.1562 157.4219 C58.1562 157.8125 58.4844 158.1562 58.8906 158.1562 C59.2969 158.1562 59.6406 157.8125 59.6406 157.4219 C59.6406 157.0469 59.2969 156.6875 58.8906 156.6875 ZM60.4688 150.5781 C60.7188 150.8906 60.875 151.2656 60.8906 151.6562 C60.8906 152.1875 60.625 152.5 60.0312 152.7656 L59.4062 153.0156 C58.6406 153.3125 58.3906 153.5469 58.3906 153.9375 C58.3906 154.1094 58.4531 154.3438 58.5781 154.8125 L58.7344 155.3438 L59.1094 155.3438 L59.0938 154.5312 C59.0938 154.0938 59.2031 153.9688 59.7812 153.7344 L60.2031 153.5625 C61.0312 153.2188 61.4531 152.6875 61.4531 151.8438 C61.4531 150.1562 59.6562 149.1875 58.5 149.0312 C58.1094 149.125 57.9062 149.2969 57.9062 149.6406 C57.9062 149.9375 58.0625 150.1562 58.7188 150.2656 L60.4688 150.5781 Z" style="fill:black; stroke:none;"
      /><polygon style="clip-path:url(#clipPath10); stroke:none;" points=" 145 104 134 82 156 82"
      /><rect x="134" y="82" width="22" style="clip-path:url(#clipPath10); fill:rgb(237,28,36); stroke:none;" height="22"
      /><rect x="134" y="82" width="22" style="clip-path:url(#clipPath10); fill:none; stroke:black;" height="22"
      /><polygon style="fill:none; stroke:black;" points=" 145 104 134 82 156 82"
      /><rect x="123" width="5" height="10" y="148" style="stroke:none;"
      /><path d="M124.8906 156.6875 C124.4844 156.6875 124.1562 157.0469 124.1562 157.4219 C124.1562 157.8125 124.4844 158.1562 124.8906 158.1562 C125.2969 158.1562 125.6406 157.8125 125.6406 157.4219 C125.6406 157.0469 125.2969 156.6875 124.8906 156.6875 ZM126.4688 150.5781 C126.7188 150.8906 126.875 151.2656 126.8906 151.6562 C126.8906 152.1875 126.625 152.5 126.0312 152.7656 L125.4062 153.0156 C124.6406 153.3125 124.3906 153.5469 124.3906 153.9375 C124.3906 154.1094 124.4531 154.3438 124.5781 154.8125 L124.7344 155.3438 L125.1094 155.3438 L125.0938 154.5312 C125.0938 154.0938 125.2031 153.9688 125.7812 153.7344 L126.2031 153.5625 C127.0312 153.2188 127.4531 152.6875 127.4531 151.8438 C127.4531 150.1562 125.6562 149.1875 124.5 149.0312 C124.1094 149.125 123.9062 149.2969 123.9062 149.6406 C123.9062 149.9375 124.0625 150.1562 124.7188 150.2656 L126.4688 150.5781 Z" style="fill:black; stroke:none;"
      /><rect x="109" width="5" height="10" y="148" style="stroke:none;"
      /><path d="M110.8906 156.6875 C110.4844 156.6875 110.1562 157.0469 110.1562 157.4219 C110.1562 157.8125 110.4844 158.1562 110.8906 158.1562 C111.2969 158.1562 111.6406 157.8125 111.6406 157.4219 C111.6406 157.0469 111.2969 156.6875 110.8906 156.6875 ZM112.4688 150.5781 C112.7188 150.8906 112.875 151.2656 112.8906 151.6562 C112.8906 152.1875 112.625 152.5 112.0312 152.7656 L111.4062 153.0156 C110.6406 153.3125 110.3906 153.5469 110.3906 153.9375 C110.3906 154.1094 110.4531 154.3438 110.5781 154.8125 L110.7344 155.3438 L111.1094 155.3438 L111.0938 154.5312 C111.0938 154.0938 111.2031 153.9688 111.7812 153.7344 L112.2031 153.5625 C113.0312 153.2188 113.4531 152.6875 113.4531 151.8438 C113.4531 150.1562 111.6562 149.1875 110.5 149.0312 C110.1094 149.125 109.9062 149.2969 109.9062 149.6406 C109.9062 149.9375 110.0625 150.1562 110.7188 150.2656 L112.4688 150.5781 Z" style="fill:black; stroke:none;"
      /><rect x="134" width="5" height="10" y="121" style="stroke:none;"
      /><path d="M135.8906 129.6875 C135.4844 129.6875 135.1562 130.0469 135.1562 130.4219 C135.1562 130.8125 135.4844 131.1562 135.8906 131.1562 C136.2969 131.1562 136.6406 130.8125 136.6406 130.4219 C136.6406 130.0469 136.2969 129.6875 135.8906 129.6875 ZM137.4688 123.5781 C137.7188 123.8906 137.875 124.2656 137.8906 124.6562 C137.8906 125.1875 137.625 125.5 137.0312 125.7656 L136.4062 126.0156 C135.6406 126.3125 135.3906 126.5469 135.3906 126.9375 C135.3906 127.1094 135.4531 127.3438 135.5781 127.8125 L135.7344 128.3438 L136.1094 128.3438 L136.0938 127.5312 C136.0938 127.0938 136.2031 126.9688 136.7812 126.7344 L137.2031 126.5625 C138.0312 126.2188 138.4531 125.6875 138.4531 124.8438 C138.4531 123.1562 136.6562 122.1875 135.5 122.0312 C135.1094 122.125 134.9062 122.2969 134.9062 122.6406 C134.9062 122.9375 135.0625 123.1562 135.7188 123.2656 L137.4688 123.5781 Z" style="fill:black; stroke:none;"
      /><rect x="134" width="5" height="10" y="107" style="stroke:none;"
      /><path d="M135.8906 115.6875 C135.4844 115.6875 135.1562 116.0469 135.1562 116.4219 C135.1562 116.8125 135.4844 117.1562 135.8906 117.1562 C136.2969 117.1562 136.6406 116.8125 136.6406 116.4219 C136.6406 116.0469 136.2969 115.6875 135.8906 115.6875 ZM137.4688 109.5781 C137.7188 109.8906 137.875 110.2656 137.8906 110.6562 C137.8906 111.1875 137.625 111.5 137.0312 111.7656 L136.4062 112.0156 C135.6406 112.3125 135.3906 112.5469 135.3906 112.9375 C135.3906 113.1094 135.4531 113.3438 135.5781 113.8125 L135.7344 114.3438 L136.1094 114.3438 L136.0938 113.5312 C136.0938 113.0938 136.2031 112.9688 136.7812 112.7344 L137.2031 112.5625 C138.0312 112.2188 138.4531 111.6875 138.4531 110.8438 C138.4531 109.1562 136.6562 108.1875 135.5 108.0312 C135.1094 108.125 134.9062 108.2969 134.9062 108.6406 C134.9062 108.9375 135.0625 109.1562 135.7188 109.2656 L137.4688 109.5781 Z" style="fill:black; stroke:none;"
      /><rect x="175" width="5" height="10" y="148" style="stroke:none;"
      /><path d="M176.8906 156.6875 C176.4844 156.6875 176.1562 157.0469 176.1562 157.4219 C176.1562 157.8125 176.4844 158.1562 176.8906 158.1562 C177.2969 158.1562 177.6406 157.8125 177.6406 157.4219 C177.6406 157.0469 177.2969 156.6875 176.8906 156.6875 ZM178.4688 150.5781 C178.7188 150.8906 178.875 151.2656 178.8906 151.6562 C178.8906 152.1875 178.625 152.5 178.0312 152.7656 L177.4062 153.0156 C176.6406 153.3125 176.3906 153.5469 176.3906 153.9375 C176.3906 154.1094 176.4531 154.3438 176.5781 154.8125 L176.7344 155.3438 L177.1094 155.3438 L177.0938 154.5312 C177.0938 154.0938 177.2031 153.9688 177.7812 153.7344 L178.2031 153.5625 C179.0312 153.2188 179.4531 152.6875 179.4531 151.8438 C179.4531 150.1562 177.6562 149.1875 176.5 149.0312 C176.1094 149.125 175.9062 149.2969 175.9062 149.6406 C175.9062 149.9375 176.0625 150.1562 176.7188 150.2656 L178.4688 150.5781 Z" style="fill:black; stroke:none;"
      /><rect x="161" width="5" height="10" y="148" style="stroke:none;"
      /><path d="M162.8906 156.6875 C162.4844 156.6875 162.1562 157.0469 162.1562 157.4219 C162.1562 157.8125 162.4844 158.1562 162.8906 158.1562 C163.2969 158.1562 163.6406 157.8125 163.6406 157.4219 C163.6406 157.0469 163.2969 156.6875 162.8906 156.6875 ZM164.4688 150.5781 C164.7188 150.8906 164.875 151.2656 164.8906 151.6562 C164.8906 152.1875 164.625 152.5 164.0312 152.7656 L163.4062 153.0156 C162.6406 153.3125 162.3906 153.5469 162.3906 153.9375 C162.3906 154.1094 162.4531 154.3438 162.5781 154.8125 L162.7344 155.3438 L163.1094 155.3438 L163.0938 154.5312 C163.0938 154.0938 163.2031 153.9688 163.7812 153.7344 L164.2031 153.5625 C165.0312 153.2188 165.4531 152.6875 165.4531 151.8438 C165.4531 150.1562 163.6562 149.1875 162.5 149.0312 C162.1094 149.125 161.9062 149.2969 161.9062 149.6406 C161.9062 149.9375 162.0625 150.1562 162.7188 150.2656 L164.4688 150.5781 Z" style="fill:black; stroke:none;"
      /><polygon style="fill:none; stroke:black;" points=" 197 41 145 41"
      /><circle r="11" style="clip-path:url(#clipPath11); stroke:none;" cx="197" cy="41"
      /><rect x="186" y="30" width="22" style="clip-path:url(#clipPath11); fill:rgb(255,212,0); stroke:none;" height="22"
      /><rect x="186" y="30" width="22" style="clip-path:url(#clipPath11); fill:none; stroke:black;" height="22"
      /><circle r="11" style="fill:none; stroke:black;" cx="197" cy="41"
      /><polygon style="fill:none; stroke:black;" points=" 145 41 93 41"
      /><circle r="11" style="clip-path:url(#clipPath12); stroke:none;" cx="145" cy="41"
      /><rect x="134" y="30" width="22" style="clip-path:url(#clipPath12); fill:rgb(0,144,188); stroke:none;" height="22"
      /><rect x="134" y="30" width="22" style="clip-path:url(#clipPath12); fill:none; stroke:black;" height="22"
      /><circle r="11" style="fill:none; stroke:black;" cx="145" cy="41"
      /><circle r="11" style="clip-path:url(#clipPath13); stroke:none;" cx="93" cy="41"
      /><rect x="82" y="30" width="22" style="clip-path:url(#clipPath13); fill:rgb(0,144,188); stroke:none;" height="22"
      /><rect x="82" y="30" width="22" style="clip-path:url(#clipPath13); fill:none; stroke:black;" height="22"
      /><circle r="11" style="fill:none; stroke:black;" cx="93" cy="41"
      /><rect x="123" width="5" height="10" y="44" style="stroke:none;"
      /><path d="M124.8906 52.6875 C124.4844 52.6875 124.1562 53.0469 124.1562 53.4219 C124.1562 53.8125 124.4844 54.1562 124.8906 54.1562 C125.2969 54.1562 125.6406 53.8125 125.6406 53.4219 C125.6406 53.0469 125.2969 52.6875 124.8906 52.6875 ZM126.4688 46.5781 C126.7188 46.8906 126.875 47.2656 126.8906 47.6562 C126.8906 48.1875 126.625 48.5 126.0312 48.7656 L125.4062 49.0156 C124.6406 49.3125 124.3906 49.5469 124.3906 49.9375 C124.3906 50.1094 124.4531 50.3438 124.5781 50.8125 L124.7344 51.3438 L125.1094 51.3438 L125.0938 50.5312 C125.0938 50.0938 125.2031 49.9688 125.7812 49.7344 L126.2031 49.5625 C127.0312 49.2188 127.4531 48.6875 127.4531 47.8438 C127.4531 46.1562 125.6562 45.1875 124.5 45.0312 C124.1094 45.125 123.9062 45.2969 123.9062 45.6406 C123.9062 45.9375 124.0625 46.1562 124.7188 46.2656 L126.4688 46.5781 Z" style="fill:black; stroke:none;"
      /><rect x="109" width="5" height="10" y="44" style="stroke:none;"
      /><path d="M110.8906 52.6875 C110.4844 52.6875 110.1562 53.0469 110.1562 53.4219 C110.1562 53.8125 110.4844 54.1562 110.8906 54.1562 C111.2969 54.1562 111.6406 53.8125 111.6406 53.4219 C111.6406 53.0469 111.2969 52.6875 110.8906 52.6875 ZM112.4688 46.5781 C112.7188 46.8906 112.875 47.2656 112.8906 47.6562 C112.8906 48.1875 112.625 48.5 112.0312 48.7656 L111.4062 49.0156 C110.6406 49.3125 110.3906 49.5469 110.3906 49.9375 C110.3906 50.1094 110.4531 50.3438 110.5781 50.8125 L110.7344 51.3438 L111.1094 51.3438 L111.0938 50.5312 C111.0938 50.0938 111.2031 49.9688 111.7812 49.7344 L112.2031 49.5625 C113.0312 49.2188 113.4531 48.6875 113.4531 47.8438 C113.4531 46.1562 111.6562 45.1875 110.5 45.0312 C110.1094 45.125 109.9062 45.2969 109.9062 45.6406 C109.9062 45.9375 110.0625 46.1562 110.7188 46.2656 L112.4688 46.5781 Z" style="fill:black; stroke:none;"
      /><rect x="175" width="5" height="10" y="44" style="stroke:none;"
      /><path d="M176.8906 52.6875 C176.4844 52.6875 176.1562 53.0469 176.1562 53.4219 C176.1562 53.8125 176.4844 54.1562 176.8906 54.1562 C177.2969 54.1562 177.6406 53.8125 177.6406 53.4219 C177.6406 53.0469 177.2969 52.6875 176.8906 52.6875 ZM178.4688 46.5781 C178.7188 46.8906 178.875 47.2656 178.8906 47.6562 C178.8906 48.1875 178.625 48.5 178.0312 48.7656 L177.4062 49.0156 C176.6406 49.3125 176.3906 49.5469 176.3906 49.9375 C176.3906 50.1094 176.4531 50.3438 176.5781 50.8125 L176.7344 51.3438 L177.1094 51.3438 L177.0938 50.5312 C177.0938 50.0938 177.2031 49.9688 177.7812 49.7344 L178.2031 49.5625 C179.0312 49.2188 179.4531 48.6875 179.4531 47.8438 C179.4531 46.1562 177.6562 45.1875 176.5 45.0312 C176.1094 45.125 175.9062 45.2969 175.9062 45.6406 C175.9062 45.9375 176.0625 46.1562 176.7188 46.2656 L178.4688 46.5781 Z" style="fill:black; stroke:none;"
      /><rect x="161" width="5" height="10" y="44" style="stroke:none;"
      /><path d="M162.8906 52.6875 C162.4844 52.6875 162.1562 53.0469 162.1562 53.4219 C162.1562 53.8125 162.4844 54.1562 162.8906 54.1562 C163.2969 54.1562 163.6406 53.8125 163.6406 53.4219 C163.6406 53.0469 163.2969 52.6875 162.8906 52.6875 ZM164.4688 46.5781 C164.7188 46.8906 164.875 47.2656 164.8906 47.6562 C164.8906 48.1875 164.625 48.5 164.0312 48.7656 L163.4062 49.0156 C162.6406 49.3125 162.3906 49.5469 162.3906 49.9375 C162.3906 50.1094 162.4531 50.3438 162.5781 50.8125 L162.7344 51.3438 L163.1094 51.3438 L163.0938 50.5312 C163.0938 50.0938 163.2031 49.9688 163.7812 49.7344 L164.2031 49.5625 C165.0312 49.2188 165.4531 48.6875 165.4531 47.8438 C165.4531 46.1562 163.6562 45.1875 162.5 45.0312 C162.1094 45.125 161.9062 45.2969 161.9062 45.6406 C161.9062 45.9375 162.0625 46.1562 162.7188 46.2656 L164.4688 46.5781 Z" style="fill:black; stroke:none;"
      /><rect x="235" width="5" height="10" y="110" style="stroke:none;"
      /><path d="M236.8906 118.6875 C236.4844 118.6875 236.1562 119.0469 236.1562 119.4219 C236.1562 119.8125 236.4844 120.1562 236.8906 120.1562 C237.2969 120.1562 237.6406 119.8125 237.6406 119.4219 C237.6406 119.0469 237.2969 118.6875 236.8906 118.6875 ZM238.4688 112.5781 C238.7188 112.8906 238.875 113.2656 238.8906 113.6562 C238.8906 114.1875 238.625 114.5 238.0312 114.7656 L237.4062 115.0156 C236.6406 115.3125 236.3906 115.5469 236.3906 115.9375 C236.3906 116.1094 236.4531 116.3438 236.5781 116.8125 L236.7344 117.3438 L237.1094 117.3438 L237.0938 116.5312 C237.0938 116.0938 237.2031 115.9688 237.7812 115.7344 L238.2031 115.5625 C239.0312 115.2188 239.4531 114.6875 239.4531 113.8438 C239.4531 112.1562 237.6562 111.1875 236.5 111.0312 C236.1094 111.125 235.9062 111.2969 235.9062 111.6406 C235.9062 111.9375 236.0625 112.1562 236.7188 112.2656 L238.4688 112.5781 Z" style="fill:black; stroke:none;"
      /><rect x="216" width="5" height="10" y="129" style="stroke:none;"
      /><path d="M217.8906 137.6875 C217.4844 137.6875 217.1562 138.0469 217.1562 138.4219 C217.1562 138.8125 217.4844 139.1562 217.8906 139.1562 C218.2969 139.1562 218.6406 138.8125 218.6406 138.4219 C218.6406 138.0469 218.2969 137.6875 217.8906 137.6875 ZM219.4688 131.5781 C219.7188 131.8906 219.875 132.2656 219.8906 132.6562 C219.8906 133.1875 219.625 133.5 219.0312 133.7656 L218.4062 134.0156 C217.6406 134.3125 217.3906 134.5469 217.3906 134.9375 C217.3906 135.1094 217.4531 135.3438 217.5781 135.8125 L217.7344 136.3438 L218.1094 136.3438 L218.0938 135.5312 C218.0938 135.0938 218.2031 134.9688 218.7812 134.7344 L219.2031 134.5625 C220.0312 134.2188 220.4531 133.6875 220.4531 132.8438 C220.4531 131.1562 218.6562 130.1875 217.5 130.0312 C217.1094 130.125 216.9062 130.2969 216.9062 130.6406 C216.9062 130.9375 217.0625 131.1562 217.7188 131.2656 L219.4688 131.5781 Z" style="fill:black; stroke:none;"
      /><rect x="224" width="5" height="10" y="77" style="stroke:none;"
      /><path d="M225.8906 85.6875 C225.4844 85.6875 225.1562 86.0469 225.1562 86.4219 C225.1562 86.8125 225.4844 87.1562 225.8906 87.1562 C226.2969 87.1562 226.6406 86.8125 226.6406 86.4219 C226.6406 86.0469 226.2969 85.6875 225.8906 85.6875 ZM227.4688 79.5781 C227.7188 79.8906 227.875 80.2656 227.8906 80.6562 C227.8906 81.1875 227.625 81.5 227.0312 81.7656 L226.4062 82.0156 C225.6406 82.3125 225.3906 82.5469 225.3906 82.9375 C225.3906 83.1094 225.4531 83.3438 225.5781 83.8125 L225.7344 84.3438 L226.1094 84.3438 L226.0938 83.5312 C226.0938 83.0938 226.2031 82.9688 226.7812 82.7344 L227.2031 82.5625 C228.0312 82.2188 228.4531 81.6875 228.4531 80.8438 C228.4531 79.1562 226.6562 78.1875 225.5 78.0312 C225.1094 78.125 224.9062 78.2969 224.9062 78.6406 C224.9062 78.9375 225.0625 79.1562 225.7188 79.2656 L227.4688 79.5781 Z" style="fill:black; stroke:none;"
      /><rect x="205" width="5" height="10" y="58" style="stroke:none;"
      /><path d="M206.8906 66.6875 C206.4844 66.6875 206.1562 67.0469 206.1562 67.4219 C206.1562 67.8125 206.4844 68.1562 206.8906 68.1562 C207.2969 68.1562 207.6406 67.8125 207.6406 67.4219 C207.6406 67.0469 207.2969 66.6875 206.8906 66.6875 ZM208.4688 60.5781 C208.7188 60.8906 208.875 61.2656 208.8906 61.6562 C208.8906 62.1875 208.625 62.5 208.0312 62.7656 L207.4062 63.0156 C206.6406 63.3125 206.3906 63.5469 206.3906 63.9375 C206.3906 64.1094 206.4531 64.3438 206.5781 64.8125 L206.7344 65.3438 L207.1094 65.3438 L207.0938 64.5312 C207.0938 64.0938 207.2031 63.9688 207.7812 63.7344 L208.2031 63.5625 C209.0312 63.2188 209.4531 62.6875 209.4531 61.8438 C209.4531 60.1562 207.6562 59.1875 206.5 59.0312 C206.1094 59.125 205.9062 59.2969 205.9062 59.6406 C205.9062 59.9375 206.0625 60.1562 206.7188 60.2656 L208.4688 60.5781 Z" style="fill:black; stroke:none;"
      /><rect x="279" width="5" height="10" y="96" style="stroke:none;"
      /><path d="M280.8906 104.6875 C280.4844 104.6875 280.1562 105.0469 280.1562 105.4219 C280.1562 105.8125 280.4844 106.1562 280.8906 106.1562 C281.2969 106.1562 281.6406 105.8125 281.6406 105.4219 C281.6406 105.0469 281.2969 104.6875 280.8906 104.6875 ZM282.4688 98.5781 C282.7188 98.8906 282.875 99.2656 282.8906 99.6562 C282.8906 100.1875 282.625 100.5 282.0312 100.7656 L281.4062 101.0156 C280.6406 101.3125 280.3906 101.5469 280.3906 101.9375 C280.3906 102.1094 280.4531 102.3438 280.5781 102.8125 L280.7344 103.3438 L281.1094 103.3438 L281.0938 102.5312 C281.0938 102.0938 281.2031 101.9688 281.7812 101.7344 L282.2031 101.5625 C283.0312 101.2188 283.4531 100.6875 283.4531 99.8438 C283.4531 98.1562 281.6562 97.1875 280.5 97.0312 C280.1094 97.125 279.9062 97.2969 279.9062 97.6406 C279.9062 97.9375 280.0625 98.1562 280.7188 98.2656 L282.4688 98.5781 Z" style="fill:black; stroke:none;"
      /><rect x="265" width="5" height="10" y="96" style="stroke:none;"
      /><path d="M266.8906 104.6875 C266.4844 104.6875 266.1562 105.0469 266.1562 105.4219 C266.1562 105.8125 266.4844 106.1562 266.8906 106.1562 C267.2969 106.1562 267.6406 105.8125 267.6406 105.4219 C267.6406 105.0469 267.2969 104.6875 266.8906 104.6875 ZM268.4688 98.5781 C268.7188 98.8906 268.875 99.2656 268.8906 99.6562 C268.8906 100.1875 268.625 100.5 268.0312 100.7656 L267.4062 101.0156 C266.6406 101.3125 266.3906 101.5469 266.3906 101.9375 C266.3906 102.1094 266.4531 102.3438 266.5781 102.8125 L266.7344 103.3438 L267.1094 103.3438 L267.0938 102.5312 C267.0938 102.0938 267.2031 101.9688 267.7812 101.7344 L268.2031 101.5625 C269.0312 101.2188 269.4531 100.6875 269.4531 99.8438 C269.4531 98.1562 267.6562 97.1875 266.5 97.0312 C266.1094 97.125 265.9062 97.2969 265.9062 97.6406 C265.9062 97.9375 266.0625 98.1562 266.7188 98.2656 L268.4688 98.5781 Z" style="fill:black; stroke:none;"
      /><rect x="331" width="5" height="10" y="96" style="stroke:none;"
      /><path d="M332.8906 104.6875 C332.4844 104.6875 332.1562 105.0469 332.1562 105.4219 C332.1562 105.8125 332.4844 106.1562 332.8906 106.1562 C333.2969 106.1562 333.6406 105.8125 333.6406 105.4219 C333.6406 105.0469 333.2969 104.6875 332.8906 104.6875 ZM334.4688 98.5781 C334.7188 98.8906 334.875 99.2656 334.8906 99.6562 C334.8906 100.1875 334.625 100.5 334.0312 100.7656 L333.4062 101.0156 C332.6406 101.3125 332.3906 101.5469 332.3906 101.9375 C332.3906 102.1094 332.4531 102.3438 332.5781 102.8125 L332.7344 103.3438 L333.1094 103.3438 L333.0938 102.5312 C333.0938 102.0938 333.2031 101.9688 333.7812 101.7344 L334.2031 101.5625 C335.0312 101.2188 335.4531 100.6875 335.4531 99.8438 C335.4531 98.1562 333.6562 97.1875 332.5 97.0312 C332.1094 97.125 331.9062 97.2969 331.9062 97.6406 C331.9062 97.9375 332.0625 98.1562 332.7188 98.2656 L334.4688 98.5781 Z" style="fill:black; stroke:none;"
      /><rect x="317" width="5" height="10" y="96" style="stroke:none;"
      /><path d="M318.8906 104.6875 C318.4844 104.6875 318.1562 105.0469 318.1562 105.4219 C318.1562 105.8125 318.4844 106.1562 318.8906 106.1562 C319.2969 106.1562 319.6406 105.8125 319.6406 105.4219 C319.6406 105.0469 319.2969 104.6875 318.8906 104.6875 ZM320.4688 98.5781 C320.7188 98.8906 320.875 99.2656 320.8906 99.6562 C320.8906 100.1875 320.625 100.5 320.0312 100.7656 L319.4062 101.0156 C318.6406 101.3125 318.3906 101.5469 318.3906 101.9375 C318.3906 102.1094 318.4531 102.3438 318.5781 102.8125 L318.7344 103.3438 L319.1094 103.3438 L319.0938 102.5312 C319.0938 102.0938 319.2031 101.9688 319.7812 101.7344 L320.2031 101.5625 C321.0312 101.2188 321.4531 100.6875 321.4531 99.8438 C321.4531 98.1562 319.6562 97.1875 318.5 97.0312 C318.1094 97.125 317.9062 97.2969 317.9062 97.6406 C317.9062 97.9375 318.0625 98.1562 318.7188 98.2656 L320.4688 98.5781 Z" style="fill:black; stroke:none;"
      /><rect x="399" width="5" height="10" y="96" style="stroke:none;"
      /><path d="M400.8906 104.6875 C400.4844 104.6875 400.1562 105.0469 400.1562 105.4219 C400.1562 105.8125 400.4844 106.1562 400.8906 106.1562 C401.2969 106.1562 401.6406 105.8125 401.6406 105.4219 C401.6406 105.0469 401.2969 104.6875 400.8906 104.6875 ZM402.4688 98.5781 C402.7188 98.8906 402.875 99.2656 402.8906 99.6562 C402.8906 100.1875 402.625 100.5 402.0312 100.7656 L401.4062 101.0156 C400.6406 101.3125 400.3906 101.5469 400.3906 101.9375 C400.3906 102.1094 400.4531 102.3438 400.5781 102.8125 L400.7344 103.3438 L401.1094 103.3438 L401.0938 102.5312 C401.0938 102.0938 401.2031 101.9688 401.7812 101.7344 L402.2031 101.5625 C403.0312 101.2188 403.4531 100.6875 403.4531 99.8438 C403.4531 98.1562 401.6562 97.1875 400.5 97.0312 C400.1094 97.125 399.9062 97.2969 399.9062 97.6406 C399.9062 97.9375 400.0625 98.1562 400.7188 98.2656 L402.4688 98.5781 Z" style="fill:black; stroke:none;"
      /><rect x="385" width="5" height="10" y="96" style="stroke:none;"
      /><path d="M386.8906 104.6875 C386.4844 104.6875 386.1562 105.0469 386.1562 105.4219 C386.1562 105.8125 386.4844 106.1562 386.8906 106.1562 C387.2969 106.1562 387.6406 105.8125 387.6406 105.4219 C387.6406 105.0469 387.2969 104.6875 386.8906 104.6875 ZM388.4688 98.5781 C388.7188 98.8906 388.875 99.2656 388.8906 99.6562 C388.8906 100.1875 388.625 100.5 388.0312 100.7656 L387.4062 101.0156 C386.6406 101.3125 386.3906 101.5469 386.3906 101.9375 C386.3906 102.1094 386.4531 102.3438 386.5781 102.8125 L386.7344 103.3438 L387.1094 103.3438 L387.0938 102.5312 C387.0938 102.0938 387.2031 101.9688 387.7812 101.7344 L388.2031 101.5625 C389.0312 101.2188 389.4531 100.6875 389.4531 99.8438 C389.4531 98.1562 387.6562 97.1875 386.5 97.0312 C386.1094 97.125 385.9062 97.2969 385.9062 97.6406 C385.9062 97.9375 386.0625 98.1562 386.7188 98.2656 L388.4688 98.5781 Z" style="fill:black; stroke:none;"
      /><rect x="437" width="5" height="10" y="96" style="stroke:none;"
      /><path d="M438.8906 104.6875 C438.4844 104.6875 438.1562 105.0469 438.1562 105.4219 C438.1562 105.8125 438.4844 106.1562 438.8906 106.1562 C439.2969 106.1562 439.6406 105.8125 439.6406 105.4219 C439.6406 105.0469 439.2969 104.6875 438.8906 104.6875 ZM440.4688 98.5781 C440.7188 98.8906 440.875 99.2656 440.8906 99.6562 C440.8906 100.1875 440.625 100.5 440.0312 100.7656 L439.4062 101.0156 C438.6406 101.3125 438.3906 101.5469 438.3906 101.9375 C438.3906 102.1094 438.4531 102.3438 438.5781 102.8125 L438.7344 103.3438 L439.1094 103.3438 L439.0938 102.5312 C439.0938 102.0938 439.2031 101.9688 439.7812 101.7344 L440.2031 101.5625 C441.0312 101.2188 441.4531 100.6875 441.4531 99.8438 C441.4531 98.1562 439.6562 97.1875 438.5 97.0312 C438.1094 97.125 437.9062 97.2969 437.9062 97.6406 C437.9062 97.9375 438.0625 98.1562 438.7188 98.2656 L440.4688 98.5781 Z" style="fill:black; stroke:none;"
    /></g
  ></g
></svg
>
