<?xml version="1.0"?>
<!DOCTYPE svg PUBLIC '-//W3C//DTD SVG 1.0//EN'
          'http://www.w3.org/TR/2001/REC-SVG-20010904/DTD/svg10.dtd'>
<svg xmlns:xlink="http://www.w3.org/1999/xlink" style="fill-opacity:1; color-rendering:auto; color-interpolation:auto; text-rendering:auto; stroke:black; stroke-linecap:square; stroke-miterlimit:10; shape-rendering:auto; stroke-opacity:1; fill:black; stroke-dasharray:none; font-weight:normal; stroke-width:1; font-family:'Dialog'; font-style:normal; stroke-linejoin:miter; font-size:12px; stroke-dashoffset:0; image-rendering:auto;" viewBox="0 0 186 128" xmlns="http://www.w3.org/2000/svg"
><!--Generated by the Batik Graphics2D SVG Generator--><defs id="genericDefs"
  /><g
  ><defs id="defs1"
    ><clipPath clipPathUnits="userSpaceOnUse" id="clipPath1"
      ><path style="fill-rule:evenodd;" d="M78 64 L72 71 L61 71 L56 64 L61 56 L72 56 L78 64 Z"
      /></clipPath
    ></defs
    ><g style="fill:white; text-rendering:optimizeSpeed; stroke:white;"
    ><rect x="0" width="186" height="128" y="0" style="stroke:none;"
      /><polygon style="fill:none; stroke:black;" points=" 145 64 67 64"
      /><path d="M145 53 C139.5 58.5 150.5 69.5 145 75" style="fill:none; stroke:black;"
      /><polygon style="clip-path:url(#clipPath1); stroke:none;" points=" 78 64 72 71 61 71 56 64 61 56 72 56 78 64"
      /><rect x="56" y="53" width="22" style="clip-path:url(#clipPath1); fill:rgb(0,166,81); stroke:none;" height="22"
      /><rect x="56" y="53" width="22" style="clip-path:url(#clipPath1); fill:none; stroke:black;" height="22"
      /><polygon style="fill:none; stroke:black;" points=" 78 64 72 71 61 71 56 64 61 56 72 56 78 64"
      /><rect x="68" y="81" width="22" style="stroke:none;" height="10"
    /></g
    ><g style="text-rendering:optimizeSpeed; font-size:14px; font-family:'SansSerif';"
    ><path style="stroke:none;" d="M68.6094 92 L75.0625 92 L75.0625 90.8906 L72.2344 90.8906 C71.7031 90.8906 71.0781 90.9531 70.5469 90.9844 C72.9531 88.7031 74.5625 86.625 74.5625 84.5781 C74.5625 82.75 73.4219 81.5469 71.5781 81.5469 C70.2812 81.5469 69.4062 82.1406 68.5625 83.0469 L69.2969 83.7812 C69.8594 83.1094 70.5938 82.5938 71.4375 82.5938 C72.7031 82.5938 73.3125 83.4531 73.3125 84.625 C73.3125 86.3906 71.8438 88.4375 68.6094 91.25 L68.6094 92 ZM78.9418 86.2656 C79.3168 85.0938 79.645 83.9844 79.9731 82.7812 L80.02 82.7812 C80.3637 83.9844 80.6762 85.0938 81.0668 86.2656 L81.5512 87.8281 L78.4418 87.8281 L78.9418 86.2656 ZM75.8168 92 L77.1293 92 L78.1293 88.8594 L81.8793 88.8594 L82.8481 92 L84.2231 92 L80.7387 81.7188 L79.3012 81.7188 L75.8168 92 ZM88.5492 92.1875 C89.4554 92.1875 90.3304 91.8281 91.0179 91.2188 L90.4554 90.3594 C89.9867 90.7969 89.3617 91.125 88.6586 91.125 C87.2679 91.125 86.3148 89.9531 86.3148 88.2031 C86.3148 86.4531 87.3148 85.2656 88.7054 85.2656 C89.3148 85.2656 89.7679 85.5469 90.2211 85.9375 L90.8773 85.0938 C90.3304 84.625 89.6429 84.2031 88.6429 84.2031 C86.7054 84.2031 84.9867 85.6719 84.9867 88.2031 C84.9867 90.7188 86.5336 92.1875 88.5492 92.1875 Z"
      /><rect x="43" y="81" width="22" style="fill:white; stroke:none;" height="10"
      /><path style="stroke:none;" d="M46.7031 92.1875 C48.5156 92.1875 49.9844 91.0938 49.9844 89.25 C49.9844 87.8594 49.0156 86.9375 47.8125 86.6562 L47.8125 86.5938 C48.8906 86.1875 49.6406 85.3594 49.6406 84.125 C49.6406 82.5 48.375 81.5469 46.6562 81.5469 C45.4688 81.5469 44.5469 82.0625 43.7812 82.7812 L44.4688 83.5938 C45.0469 83 45.7656 82.5938 46.5938 82.5938 C47.6562 82.5938 48.3281 83.2344 48.3281 84.2188 C48.3281 85.3281 47.6094 86.1719 45.4844 86.1719 L45.4844 87.1562 C47.8594 87.1562 48.6875 87.9844 48.6875 89.2031 C48.6875 90.3906 47.8125 91.125 46.5938 91.125 C45.4375 91.125 44.6562 90.5781 44.0469 89.9375 L43.4062 90.7812 C44.0781 91.5156 45.0938 92.1875 46.7031 92.1875 ZM53.9418 86.2656 C54.3168 85.0938 54.645 83.9844 54.9731 82.7812 L55.02 82.7812 C55.3637 83.9844 55.6762 85.0938 56.0668 86.2656 L56.5512 87.8281 L53.4418 87.8281 L53.9418 86.2656 ZM50.8168 92 L52.1293 92 L53.1293 88.8594 L56.8793 88.8594 L57.8481 92 L59.2231 92 L55.7387 81.7188 L54.3012 81.7188 L50.8168 92 ZM63.5492 92.1875 C64.4554 92.1875 65.3304 91.8281 66.0179 91.2188 L65.4554 90.3594 C64.9867 90.7969 64.3617 91.125 63.6586 91.125 C62.2679 91.125 61.3148 89.9531 61.3148 88.2031 C61.3148 86.4531 62.3148 85.2656 63.7054 85.2656 C64.3148 85.2656 64.7679 85.5469 65.2211 85.9375 L65.8773 85.0938 C65.3304 84.625 64.6429 84.2031 63.6429 84.2031 C61.7054 84.2031 59.9867 85.6719 59.9867 88.2031 C59.9867 90.7188 61.5336 92.1875 63.5492 92.1875 Z"
      /><rect x="30" y="35" width="22" style="fill:white; stroke:none;" height="10"
      /><path style="stroke:none;" d="M31.6094 42.1562 L33.9531 38.6562 C34.2344 38.1406 34.5156 37.6406 34.7812 37.1406 L34.8281 37.1406 C34.7969 37.6719 34.7656 38.5 34.7656 39 L34.7656 42.1562 L31.6094 42.1562 ZM34.7656 46 L35.9688 46 L35.9688 43.1719 L37.3281 43.1719 L37.3281 42.1562 L35.9688 42.1562 L35.9688 35.7188 L34.5469 35.7188 L30.2812 42.3281 L30.2812 43.1719 L34.7656 43.1719 L34.7656 46 ZM40.9418 40.2656 C41.3168 39.0938 41.645 37.9844 41.9731 36.7812 L42.02 36.7812 C42.3637 37.9844 42.6762 39.0938 43.0668 40.2656 L43.5512 41.8281 L40.4418 41.8281 L40.9418 40.2656 ZM37.8168 46 L39.1293 46 L40.1293 42.8594 L43.8793 42.8594 L44.8481 46 L46.2231 46 L42.7387 35.7188 L41.3012 35.7188 L37.8168 46 ZM50.5492 46.1875 C51.4554 46.1875 52.3304 45.8281 53.0179 45.2188 L52.4554 44.3594 C51.9867 44.7969 51.3617 45.125 50.6586 45.125 C49.2679 45.125 48.3148 43.9531 48.3148 42.2031 C48.3148 40.4531 49.3148 39.2656 50.7054 39.2656 C51.3148 39.2656 51.7679 39.5469 52.2211 39.9375 L52.8773 39.0938 C52.3304 38.625 51.6429 38.2031 50.6429 38.2031 C48.7054 38.2031 46.9867 39.6719 46.9867 42.2031 C46.9867 44.7188 48.5336 46.1875 50.5492 46.1875 Z"
      /><rect x="55" y="35" width="22" style="fill:white; stroke:none;" height="10"
      /><path style="stroke:none;" d="M59.1094 40.5781 C60.3438 40.5781 60.9688 41.4688 60.9688 42.8438 C60.9688 44.25 60.1875 45.1875 59.2188 45.1875 C57.9219 45.1875 57.1562 44.0312 57 41.8906 C57.625 40.9531 58.4531 40.5781 59.1094 40.5781 ZM59.2188 46.1875 C60.8125 46.1875 62.1562 44.8438 62.1562 42.8438 C62.1562 40.7031 61.0469 39.625 59.3125 39.625 C58.5 39.625 57.6094 40.1094 56.9688 40.875 C57.0312 37.6875 58.2188 36.6094 59.625 36.6094 C60.25 36.6094 60.8594 36.9062 61.2656 37.3906 L61.9688 36.5938 C61.4062 35.9844 60.6406 35.5469 59.5781 35.5469 C57.5938 35.5469 55.7812 37.0781 55.7812 41.0938 C55.7812 44.4844 57.2344 46.1875 59.2188 46.1875 ZM65.9418 40.2656 C66.3168 39.0938 66.645 37.9844 66.9731 36.7812 L67.02 36.7812 C67.3637 37.9844 67.6762 39.0938 68.0668 40.2656 L68.5512 41.8281 L65.4418 41.8281 L65.9418 40.2656 ZM62.8168 46 L64.1293 46 L65.1293 42.8594 L68.8793 42.8594 L69.8481 46 L71.2231 46 L67.7387 35.7188 L66.3012 35.7188 L62.8168 46 ZM75.5492 46.1875 C76.4554 46.1875 77.3304 45.8281 78.0179 45.2188 L77.4554 44.3594 C76.9867 44.7969 76.3617 45.125 75.6586 45.125 C74.2679 45.125 73.3148 43.9531 73.3148 42.2031 C73.3148 40.4531 74.3148 39.2656 75.7054 39.2656 C76.3148 39.2656 76.7679 39.5469 77.2211 39.9375 L77.8773 39.0938 C77.3304 38.625 76.6429 38.2031 75.6429 38.2031 C73.7054 38.2031 71.9867 39.6719 71.9867 42.2031 C71.9867 44.7188 73.5336 46.1875 75.5492 46.1875 Z"
      /><rect x="80" y="35" width="22" style="fill:white; stroke:none;" height="10"
      /><path style="stroke:none;" d="M82.7656 46 L84.1094 46 C84.25 41.9844 84.7031 39.5938 87.1094 36.5156 L87.1094 35.7188 L80.6875 35.7188 L80.6875 36.8281 L85.6562 36.8281 C83.6562 39.625 82.9375 42.1094 82.7656 46 ZM90.9418 40.2656 C91.3168 39.0938 91.645 37.9844 91.9731 36.7812 L92.02 36.7812 C92.3637 37.9844 92.6762 39.0938 93.0668 40.2656 L93.5512 41.8281 L90.4418 41.8281 L90.9418 40.2656 ZM87.8168 46 L89.1293 46 L90.1293 42.8594 L93.8793 42.8594 L94.8481 46 L96.2231 46 L92.7387 35.7188 L91.3012 35.7188 L87.8168 46 ZM100.5492 46.1875 C101.4554 46.1875 102.3304 45.8281 103.0179 45.2188 L102.4554 44.3594 C101.9867 44.7969 101.3617 45.125 100.6586 45.125 C99.2679 45.125 98.3148 43.9531 98.3148 42.2031 C98.3148 40.4531 99.3148 39.2656 100.7054 39.2656 C101.3148 39.2656 101.7679 39.5469 102.2211 39.9375 L102.8773 39.0938 C102.3304 38.625 101.6429 38.2031 100.6429 38.2031 C98.7054 38.2031 96.9867 39.6719 96.9867 42.2031 C96.9867 44.7188 98.5336 46.1875 100.5492 46.1875 Z"
    /></g
    ><g style="fill:white; text-rendering:optimizeSpeed; font-family:'Serif'; stroke:white;"
    ><rect x="108" width="8" height="8" y="68" style="stroke:none;"
      /><path d="M112.9844 73.7031 C112.9375 74.8906 112.1562 75.6562 111.3125 75.6562 C110.2656 75.6562 109.5 74.6875 109.5 72.7188 C109.5 71.2812 110.1562 70.1562 111.3438 70.1562 C112.1406 70.1562 112.7812 70.6875 113.0938 71.6406 L112.9844 73.7031 ZM114.9062 75.2812 C114.7344 75.375 114.5469 75.4219 114.3438 75.4219 C113.9531 75.4219 113.75 75.2188 113.75 74.4219 C113.75 73.4844 113.9688 71.5312 114.1875 69.8281 L114.0312 69.7188 L113.2344 69.9219 L113.1406 70.7969 C112.7812 70.0312 112.1562 69.6562 111.3906 69.6562 C110.0469 69.6562 108.5625 70.8438 108.5625 72.9531 C108.5625 75.0938 109.7188 76.1719 111.1406 76.1719 C112.0156 76.1719 112.6875 75.8125 113.0938 74.9844 C113.2031 75.8594 113.5156 76.1719 114.0156 76.1719 C114.4688 76.1719 114.7969 75.9062 115.0156 75.5625 L114.9062 75.2812 Z" style="fill:black; stroke:none;"
    /></g
  ></g
></svg
>
