<?xml version="1.0"?>
<!DOCTYPE svg PUBLIC '-//W3C//DTD SVG 1.0//EN'
          'http://www.w3.org/TR/2001/REC-SVG-20010904/DTD/svg10.dtd'>
<svg xmlns:xlink="http://www.w3.org/1999/xlink" style="fill-opacity:1; color-rendering:auto; color-interpolation:auto; text-rendering:auto; stroke:black; stroke-linecap:square; stroke-miterlimit:10; shape-rendering:auto; stroke-opacity:1; fill:black; stroke-dasharray:none; font-weight:normal; stroke-width:1; font-family:'Dialog'; font-style:normal; stroke-linejoin:miter; font-size:12px; stroke-dashoffset:0; image-rendering:auto;" viewBox="0 0 394 134" xmlns="http://www.w3.org/2000/svg"
><!--Generated by the Batik Graphics2D SVG Generator--><defs id="genericDefs"
  /><g
  ><defs id="defs1"
    ><clipPath clipPathUnits="userSpaceOnUse" id="clipPath1"
      ><path d="M290 56 L312 56 L312 78 L290 78 L290 56 Z"
      /></clipPath
      ><clipPath clipPathUnits="userSpaceOnUse" id="clipPath2"
      ><path d="M260 93 C260 99.0751 255.0751 104 249 104 C242.9249 104 238 99.0751 238 93 C238 86.9249 242.9249 82 249 82 C255.0751 82 260 86.9249 260 93 Z"
      /></clipPath
      ><clipPath clipPathUnits="userSpaceOnUse" id="clipPath3"
      ><path style="fill-rule:evenodd;" d="M197 82 L208 93 L197 104 L186 93 Z"
      /></clipPath
      ><clipPath clipPathUnits="userSpaceOnUse" id="clipPath4"
      ><path d="M238 30 L260 30 L260 52 L238 52 L238 30 Z"
      /></clipPath
      ><clipPath clipPathUnits="userSpaceOnUse" id="clipPath5"
      ><path d="M208 41 C208 47.0751 203.0751 52 197 52 C190.9249 52 186 47.0751 186 41 C186 34.9249 190.9249 30 197 30 C203.0751 30 208 34.9249 208 41 Z"
      /></clipPath
      ><clipPath clipPathUnits="userSpaceOnUse" id="clipPath6"
      ><path d="M134 30 L156 30 L156 52 L134 52 L134 30 Z"
      /></clipPath
      ><clipPath clipPathUnits="userSpaceOnUse" id="clipPath7"
      ><path style="fill-rule:evenodd;" d="M145 82 L156 104 L134 104 Z"
      /></clipPath
      ><clipPath clipPathUnits="userSpaceOnUse" id="clipPath8"
      ><path d="M104 41 C104 47.0751 99.0751 52 93 52 C86.9249 52 82 47.0751 82 41 C82 34.9249 86.9249 30 93 30 C99.0751 30 104 34.9249 104 41 Z"
      /></clipPath
      ><clipPath clipPathUnits="userSpaceOnUse" id="clipPath9"
      ><path style="fill-rule:evenodd;" d="M41 30 L52 41 L41 52 L30 41 Z"
      /></clipPath
    ></defs
    ><g style="fill:white; text-rendering:optimizeSpeed; stroke:white;"
    ><rect x="0" width="394" height="134" y="0" style="stroke:none;"
      /><polygon style="fill:none; stroke:black;" points=" 353 67 301 67"
      /><path d="M353 56 C347.5 61.5 358.5 72.5 353 78" style="fill:none; stroke:black;"
      /><polygon style="fill:none; stroke:black;" points=" 301 67 249 93"
      /><polygon style="fill:none; stroke:black;" points=" 301 67 249 41"
      /><rect x="290" y="56" width="22" style="clip-path:url(#clipPath1); stroke:none;" height="22"
      /><rect x="290" y="56" width="22" style="clip-path:url(#clipPath1); fill:rgb(255,212,0); stroke:none;" height="22"
      /><rect x="290" y="56" width="22" style="clip-path:url(#clipPath1); fill:none; stroke:black;" height="22"
      /><rect x="290" y="56" width="22" style="fill:none; stroke:black;" height="22"
      /><polygon style="fill:none; stroke:black;" points=" 249 93 197 93"
      /><circle style="clip-path:url(#clipPath2); stroke:none;" r="11" cx="249" cy="93"
      /><rect x="238" y="82" width="22" style="clip-path:url(#clipPath2); fill:rgb(255,212,0); stroke:none;" height="22"
      /><rect x="238" y="82" width="22" style="clip-path:url(#clipPath2); fill:none; stroke:black;" height="22"
      /><circle style="fill:none; stroke:black;" r="11" cx="249" cy="93"
      /><polygon style="clip-path:url(#clipPath3); stroke:none;" points=" 197 82 208 93 197 104 186 93"
      /><rect x="186" y="82" width="22" style="clip-path:url(#clipPath3); fill:rgb(165,67,153); stroke:none;" height="22"
      /><rect x="186" y="82" width="22" style="clip-path:url(#clipPath3); fill:none; stroke:black;" height="22"
      /><polygon style="fill:none; stroke:black;" points=" 197 82 208 93 197 104 186 93"
      /><rect x="227" y="96" width="6" style="stroke:none;" height="10"
    /></g
    ><g style="font-family:'Serif'; text-rendering:optimizeSpeed; "
    ><path style="stroke:none;" d="M229.2344 97.6562 C229.5156 97.5938 229.7656 97.5625 230.0156 97.5625 C231.0625 97.5625 231.6719 98.1719 231.6719 99.2656 C231.6719 100.4375 230.9062 101.1094 229.7031 101.1094 L229.1875 101.1094 L229.1875 101.6406 L229.7969 101.6406 C231.2188 101.6406 231.9062 102.4219 231.9062 103.6406 C231.9062 104.8438 231.1719 105.6875 229.875 105.6875 C229.6094 105.6875 229.3125 105.6562 229.0156 105.5625 L228.7812 104.8125 C228.625 104.2812 228.5 104.0469 228.1406 104.0469 C227.8906 104.0469 227.7031 104.1719 227.5781 104.4219 C227.8438 105.6406 228.7812 106.1719 230.0312 106.1719 C231.7188 106.1719 232.875 105.125 232.875 103.7031 C232.875 102.5 232.2031 101.625 230.7969 101.375 C231.9531 101.0156 232.6094 100.2031 232.6094 99.2031 C232.6094 97.9219 231.6719 97.0781 230.1875 97.0781 C229.0469 97.0781 228.0625 97.5938 227.7969 98.6875 C227.9062 99 228.1094 99.1094 228.3594 99.1094 C228.7344 99.1094 228.8906 98.8906 229 98.4062 L229.2344 97.6562 Z"
      /><rect x="212" y="97" width="8" style="fill:white; stroke:none;" height="8"
      /><path style="stroke:none;" d="M216.9844 102.7031 C216.9375 103.8906 216.1562 104.6562 215.3125 104.6562 C214.2656 104.6562 213.5 103.6875 213.5 101.7188 C213.5 100.2812 214.1562 99.1562 215.3438 99.1562 C216.1406 99.1562 216.7812 99.6875 217.0938 100.6406 L216.9844 102.7031 ZM218.9062 104.2812 C218.7344 104.375 218.5469 104.4219 218.3438 104.4219 C217.9531 104.4219 217.75 104.2188 217.75 103.4219 C217.75 102.4844 217.9688 100.5312 218.1875 98.8281 L218.0312 98.7188 L217.2344 98.9219 L217.1406 99.7969 C216.7812 99.0312 216.1562 98.6562 215.3906 98.6562 C214.0469 98.6562 212.5625 99.8438 212.5625 101.9531 C212.5625 104.0938 213.7188 105.1719 215.1406 105.1719 C216.0156 105.1719 216.6875 104.8125 217.0938 103.9844 C217.2031 104.8594 217.5156 105.1719 218.0156 105.1719 C218.4688 105.1719 218.7969 104.9062 219.0156 104.5625 L218.9062 104.2812 Z"
      /><polygon style="fill:none;" points=" 249 41 197 41"
      /><rect x="238" y="30" width="22" style="clip-path:url(#clipPath4); fill:white; stroke:none;" height="22"
      /><rect x="238" y="30" width="22" style="clip-path:url(#clipPath4); fill:rgb(0,144,188); stroke:none;" height="22"
      /><rect x="238" y="30" width="22" style="fill:none; clip-path:url(#clipPath4);" height="22"
      /><rect x="238" width="22" height="22" y="30" style="fill:none;"
      /><polygon style="fill:none;" points=" 197 41 145 41"
      /><circle style="fill:white; clip-path:url(#clipPath5); stroke:none;" r="11" cx="197" cy="41"
      /><rect x="186" y="30" width="22" style="clip-path:url(#clipPath5); fill:rgb(255,212,0); stroke:none;" height="22"
      /><rect x="186" y="30" width="22" style="fill:none; clip-path:url(#clipPath5);" height="22"
      /><circle r="11" style="fill:none;" cx="197" cy="41"
      /><polygon style="fill:none;" points=" 145 41 145 93"
      /><polygon style="fill:none;" points=" 145 41 93 41"
      /><rect x="134" y="30" width="22" style="clip-path:url(#clipPath6); fill:white; stroke:none;" height="22"
      /><rect x="134" y="30" width="22" style="clip-path:url(#clipPath6); fill:rgb(0,144,188); stroke:none;" height="22"
      /><rect x="134" y="30" width="22" style="fill:none; clip-path:url(#clipPath6);" height="22"
      /><rect x="134" width="22" height="22" y="30" style="fill:none;"
      /><polygon style="fill:white; clip-path:url(#clipPath7); stroke:none;" points=" 145 82 156 104 134 104"
      /><rect x="134" y="82" width="22" style="clip-path:url(#clipPath7); fill:rgb(237,28,36); stroke:none;" height="22"
      /><rect x="134" y="82" width="22" style="fill:none; clip-path:url(#clipPath7);" height="22"
      /><polygon style="fill:none;" points=" 145 82 156 104 134 104"
      /><polygon style="fill:none;" points=" 93 41 41 41"
      /><circle style="fill:white; clip-path:url(#clipPath8); stroke:none;" r="11" cx="93" cy="41"
      /><rect x="82" y="30" width="22" style="clip-path:url(#clipPath8); fill:rgb(255,212,0); stroke:none;" height="22"
      /><rect x="82" y="30" width="22" style="fill:none; clip-path:url(#clipPath8);" height="22"
      /><circle r="11" style="fill:none;" cx="93" cy="41"
      /><polygon style="fill:white; clip-path:url(#clipPath9); stroke:none;" points=" 41 30 52 41 41 52 30 41"
      /><rect x="30" y="30" width="22" style="clip-path:url(#clipPath9); fill:rgb(165,67,153); stroke:none;" height="22"
      /><rect x="30" y="30" width="22" style="fill:none; clip-path:url(#clipPath9);" height="22"
      /><polygon style="fill:none;" points=" 41 30 52 41 41 52 30 41"
      /><rect x="71" y="44" width="6" style="fill:white; stroke:none;" height="10"
      /><path style="stroke:none;" d="M73.2344 45.6562 C73.5156 45.5938 73.7656 45.5625 74.0156 45.5625 C75.0625 45.5625 75.6719 46.1719 75.6719 47.2656 C75.6719 48.4375 74.9062 49.1094 73.7031 49.1094 L73.1875 49.1094 L73.1875 49.6406 L73.7969 49.6406 C75.2188 49.6406 75.9062 50.4219 75.9062 51.6406 C75.9062 52.8438 75.1719 53.6875 73.875 53.6875 C73.6094 53.6875 73.3125 53.6562 73.0156 53.5625 L72.7812 52.8125 C72.625 52.2812 72.5 52.0469 72.1406 52.0469 C71.8906 52.0469 71.7031 52.1719 71.5781 52.4219 C71.8438 53.6406 72.7812 54.1719 74.0312 54.1719 C75.7188 54.1719 76.875 53.125 76.875 51.7031 C76.875 50.5 76.2031 49.625 74.7969 49.375 C75.9531 49.0156 76.6094 48.2031 76.6094 47.2031 C76.6094 45.9219 75.6719 45.0781 74.1875 45.0781 C73.0469 45.0781 72.0625 45.5938 71.7969 46.6875 C71.9062 47 72.1094 47.1094 72.3594 47.1094 C72.7344 47.1094 72.8906 46.8906 73 46.4062 L73.2344 45.6562 Z"
      /><rect x="56" y="45" width="8" style="fill:white; stroke:none;" height="8"
      /><path style="stroke:none;" d="M60.9844 50.7031 C60.9375 51.8906 60.1562 52.6562 59.3125 52.6562 C58.2656 52.6562 57.5 51.6875 57.5 49.7188 C57.5 48.2812 58.1562 47.1562 59.3438 47.1562 C60.1406 47.1562 60.7812 47.6875 61.0938 48.6406 L60.9844 50.7031 ZM62.9062 52.2812 C62.7344 52.375 62.5469 52.4219 62.3438 52.4219 C61.9531 52.4219 61.75 52.2188 61.75 51.4219 C61.75 50.4844 61.9688 48.5312 62.1875 46.8281 L62.0312 46.7188 L61.2344 46.9219 L61.1406 47.7969 C60.7812 47.0312 60.1562 46.6562 59.3906 46.6562 C58.0469 46.6562 56.5625 47.8438 56.5625 49.9531 C56.5625 52.0938 57.7188 53.1719 59.1406 53.1719 C60.0156 53.1719 60.6875 52.8125 61.0938 51.9844 C61.2031 52.8594 61.5156 53.1719 62.0156 53.1719 C62.4688 53.1719 62.7969 52.9062 63.0156 52.5625 L62.9062 52.2812 Z"
      /><rect x="150" y="55" width="6" style="fill:white; stroke:none;" height="10"
      /><path style="stroke:none;" d="M152.2344 56.6562 C152.5156 56.5938 152.7656 56.5625 153.0156 56.5625 C154.0625 56.5625 154.6719 57.1719 154.6719 58.2656 C154.6719 59.4375 153.9062 60.1094 152.7031 60.1094 L152.1875 60.1094 L152.1875 60.6406 L152.7969 60.6406 C154.2188 60.6406 154.9062 61.4219 154.9062 62.6406 C154.9062 63.8438 154.1719 64.6875 152.875 64.6875 C152.6094 64.6875 152.3125 64.6562 152.0156 64.5625 L151.7812 63.8125 C151.625 63.2812 151.5 63.0469 151.1406 63.0469 C150.8906 63.0469 150.7031 63.1719 150.5781 63.4219 C150.8438 64.6406 151.7812 65.1719 153.0312 65.1719 C154.7188 65.1719 155.875 64.125 155.875 62.7031 C155.875 61.5 155.2031 60.625 153.7969 60.375 C154.9531 60.0156 155.6094 59.2031 155.6094 58.2031 C155.6094 56.9219 154.6719 56.0781 153.1875 56.0781 C152.0469 56.0781 151.0625 56.5938 150.7969 57.6875 C150.9062 58 151.1094 58.1094 151.3594 58.1094 C151.7344 58.1094 151.8906 57.8906 152 57.4062 L152.2344 56.6562 Z"
      /><rect x="149" y="70" width="8" style="fill:white; stroke:none;" height="8"
      /><path style="stroke:none;" d="M153.9844 75.7031 C153.9375 76.8906 153.1562 77.6562 152.3125 77.6562 C151.2656 77.6562 150.5 76.6875 150.5 74.7188 C150.5 73.2812 151.1562 72.1562 152.3438 72.1562 C153.1406 72.1562 153.7812 72.6875 154.0938 73.6406 L153.9844 75.7031 ZM155.9062 77.2812 C155.7344 77.375 155.5469 77.4219 155.3438 77.4219 C154.9531 77.4219 154.75 77.2188 154.75 76.4219 C154.75 75.4844 154.9688 73.5312 155.1875 71.8281 L155.0312 71.7188 L154.2344 71.9219 L154.1406 72.7969 C153.7812 72.0312 153.1562 71.6562 152.3906 71.6562 C151.0469 71.6562 149.5625 72.8438 149.5625 74.9531 C149.5625 77.0938 150.7188 78.1719 152.1406 78.1719 C153.0156 78.1719 153.6875 77.8125 154.0938 76.9844 C154.2031 77.8594 154.5156 78.1719 155.0156 78.1719 C155.4688 78.1719 155.7969 77.9062 156.0156 77.5625 L155.9062 77.2812 Z"
      /><rect x="122" y="44" width="7" style="fill:white; stroke:none;" height="9"
      /><path style="stroke:none;" d="M123 49.5156 L125.9531 45.2656 L125.9531 49.5156 L123 49.5156 ZM128.2812 49.5156 L126.8594 49.5156 L126.8594 44.125 L126.2344 44.125 L122.3438 49.6406 L122.3438 50.1875 L125.9531 50.1875 L125.9531 53 L126.8594 53 L126.8594 50.1875 L128.2812 50.1875 L128.2812 49.5156 Z"
      /><rect x="109" y="42" width="6" style="fill:white; stroke:none;" height="13"
      /><path style="stroke:none;" d="M111.0938 48.2031 C111.0938 46.6562 111.75 45.8125 112.7969 45.8125 C113.7188 45.8125 114.2656 46.4531 114.2656 47.5156 C114.2656 48.7188 113.5 49.4375 112.1875 49.7031 L112.2969 50.3125 C114.2188 50.2344 114.9375 51.2188 114.9375 52.4375 C114.9375 53.625 114.2344 54.4219 112.9531 54.4219 C112.25 54.4219 111.6562 54.1562 111.0938 53.7188 L111.0938 48.2031 ZM110.2031 54.9062 L110.1094 57.375 L110.2656 57.4844 L111.1562 57.2656 L111.0156 54.0938 C111.5469 54.8438 112.3594 55.1719 113.1719 55.1719 C114.5625 55.1719 115.8594 54.2188 115.8594 52.4844 C115.8594 50.9531 114.875 50.1094 113.125 50 C114.5625 49.6094 115.1875 48.4531 115.1875 47.4844 C115.1875 46.0938 114.1562 45.3125 112.9062 45.3125 C111.2969 45.3125 110.2188 46.5469 110.2188 48.5156 L110.2031 54.9062 Z"
      /><rect x="175" y="44" width="6" style="fill:white; stroke:none;" height="10"
      /><path style="stroke:none;" d="M177.2344 45.6562 C177.5156 45.5938 177.7656 45.5625 178.0156 45.5625 C179.0625 45.5625 179.6719 46.1719 179.6719 47.2656 C179.6719 48.4375 178.9062 49.1094 177.7031 49.1094 L177.1875 49.1094 L177.1875 49.6406 L177.7969 49.6406 C179.2188 49.6406 179.9062 50.4219 179.9062 51.6406 C179.9062 52.8438 179.1719 53.6875 177.875 53.6875 C177.6094 53.6875 177.3125 53.6562 177.0156 53.5625 L176.7812 52.8125 C176.625 52.2812 176.5 52.0469 176.1406 52.0469 C175.8906 52.0469 175.7031 52.1719 175.5781 52.4219 C175.8438 53.6406 176.7812 54.1719 178.0312 54.1719 C179.7188 54.1719 180.875 53.125 180.875 51.7031 C180.875 50.5 180.2031 49.625 178.7969 49.375 C179.9531 49.0156 180.6094 48.2031 180.6094 47.2031 C180.6094 45.9219 179.6719 45.0781 178.1875 45.0781 C177.0469 45.0781 176.0625 45.5938 175.7969 46.6875 C175.9062 47 176.1094 47.1094 176.3594 47.1094 C176.7344 47.1094 176.8906 46.8906 177 46.4062 L177.2344 45.6562 Z"
      /><rect x="161" y="42" width="6" style="fill:white; stroke:none;" height="13"
      /><path style="stroke:none;" d="M163.0938 48.2031 C163.0938 46.6562 163.75 45.8125 164.7969 45.8125 C165.7188 45.8125 166.2656 46.4531 166.2656 47.5156 C166.2656 48.7188 165.5 49.4375 164.1875 49.7031 L164.2969 50.3125 C166.2188 50.2344 166.9375 51.2188 166.9375 52.4375 C166.9375 53.625 166.2344 54.4219 164.9531 54.4219 C164.25 54.4219 163.6562 54.1562 163.0938 53.7188 L163.0938 48.2031 ZM162.2031 54.9062 L162.1094 57.375 L162.2656 57.4844 L163.1562 57.2656 L163.0156 54.0938 C163.5469 54.8438 164.3594 55.1719 165.1719 55.1719 C166.5625 55.1719 167.8594 54.2188 167.8594 52.4844 C167.8594 50.9531 166.875 50.1094 165.125 50 C166.5625 49.6094 167.1875 48.4531 167.1875 47.4844 C167.1875 46.0938 166.1562 45.3125 164.9062 45.3125 C163.2969 45.3125 162.2188 46.5469 162.2188 48.5156 L162.2031 54.9062 Z"
      /><rect x="226" y="44" width="7" style="fill:white; stroke:none;" height="9"
      /><path style="stroke:none;" d="M227 49.5156 L229.9531 45.2656 L229.9531 49.5156 L227 49.5156 ZM232.2812 49.5156 L230.8594 49.5156 L230.8594 44.125 L230.2344 44.125 L226.3438 49.6406 L226.3438 50.1875 L229.9531 50.1875 L229.9531 53 L230.8594 53 L230.8594 50.1875 L232.2812 50.1875 L232.2812 49.5156 Z"
      /><rect x="213" y="42" width="6" style="fill:white; stroke:none;" height="13"
      /><path style="stroke:none;" d="M215.0938 48.2031 C215.0938 46.6562 215.75 45.8125 216.7969 45.8125 C217.7188 45.8125 218.2656 46.4531 218.2656 47.5156 C218.2656 48.7188 217.5 49.4375 216.1875 49.7031 L216.2969 50.3125 C218.2188 50.2344 218.9375 51.2188 218.9375 52.4375 C218.9375 53.625 218.2344 54.4219 216.9531 54.4219 C216.25 54.4219 215.6562 54.1562 215.0938 53.7188 L215.0938 48.2031 ZM214.2031 54.9062 L214.1094 57.375 L214.2656 57.4844 L215.1562 57.2656 L215.0156 54.0938 C215.5469 54.8438 216.3594 55.1719 217.1719 55.1719 C218.5625 55.1719 219.8594 54.2188 219.8594 52.4844 C219.8594 50.9531 218.875 50.1094 217.125 50 C218.5625 49.6094 219.1875 48.4531 219.1875 47.4844 C219.1875 46.0938 218.1562 45.3125 216.9062 45.3125 C215.2969 45.3125 214.2188 46.5469 214.2188 48.5156 L214.2031 54.9062 Z"
      /><rect x="283" y="78" width="6" style="fill:white; stroke:none;" height="10"
      /><path style="stroke:none;" d="M285.2344 79.6562 C285.5156 79.5938 285.7656 79.5625 286.0156 79.5625 C287.0625 79.5625 287.6719 80.1719 287.6719 81.2656 C287.6719 82.4375 286.9062 83.1094 285.7031 83.1094 L285.1875 83.1094 L285.1875 83.6406 L285.7969 83.6406 C287.2188 83.6406 287.9062 84.4219 287.9062 85.6406 C287.9062 86.8438 287.1719 87.6875 285.875 87.6875 C285.6094 87.6875 285.3125 87.6562 285.0156 87.5625 L284.7812 86.8125 C284.625 86.2812 284.5 86.0469 284.1406 86.0469 C283.8906 86.0469 283.7031 86.1719 283.5781 86.4219 C283.8438 87.6406 284.7812 88.1719 286.0312 88.1719 C287.7188 88.1719 288.875 87.125 288.875 85.7031 C288.875 84.5 288.2031 83.625 286.7969 83.375 C287.9531 83.0156 288.6094 82.2031 288.6094 81.2031 C288.6094 79.9219 287.6719 79.0781 286.1875 79.0781 C285.0469 79.0781 284.0625 79.5938 283.7969 80.6875 C283.9062 81 284.1094 81.1094 284.3594 81.1094 C284.7344 81.1094 284.8906 80.8906 285 80.4062 L285.2344 79.6562 Z"
      /><rect x="267" y="84" width="6" style="fill:white; stroke:none;" height="13"
      /><path style="stroke:none;" d="M269.0938 90.2031 C269.0938 88.6562 269.75 87.8125 270.7969 87.8125 C271.7188 87.8125 272.2656 88.4531 272.2656 89.5156 C272.2656 90.7188 271.5 91.4375 270.1875 91.7031 L270.2969 92.3125 C272.2188 92.2344 272.9375 93.2188 272.9375 94.4375 C272.9375 95.625 272.2344 96.4219 270.9531 96.4219 C270.25 96.4219 269.6562 96.1562 269.0938 95.7188 L269.0938 90.2031 ZM268.2031 96.9062 L268.1094 99.375 L268.2656 99.4844 L269.1562 99.2656 L269.0156 96.0938 C269.5469 96.8438 270.3594 97.1719 271.1719 97.1719 C272.5625 97.1719 273.8594 96.2188 273.8594 94.4844 C273.8594 92.9531 272.875 92.1094 271.125 92 C272.5625 91.6094 273.1875 90.4531 273.1875 89.4844 C273.1875 88.0938 272.1562 87.3125 270.9062 87.3125 C269.2969 87.3125 268.2188 88.5469 268.2188 90.5156 L268.2031 96.9062 Z"
      /><rect x="276" y="60" width="6" style="fill:white; stroke:none;" height="10"
      /><path style="stroke:none;" d="M279.3438 69.6875 C278.2031 69.6875 277.5312 68.5 277.5312 66.2969 C277.5312 66.2188 277.5312 66.125 277.5312 66.0469 C278.0938 65.5 278.7188 65.3125 279.3438 65.3125 C280.3125 65.3125 280.9531 65.9844 280.9531 67.4531 C280.9531 68.9375 280.3125 69.6875 279.3438 69.6875 ZM281.5312 61.0781 C278.3438 61.4531 276.5625 63.7656 276.5625 66.4531 C276.5625 68.7812 277.6094 70.1719 279.3125 70.1719 C280.8438 70.1719 281.9219 69.1094 281.9219 67.2812 C281.9219 65.6875 280.9688 64.6562 279.5625 64.6562 C278.8281 64.6562 278.1406 64.9844 277.5781 65.5781 C277.7969 63.4062 279.0781 61.9688 281.5938 61.3906 L281.5312 61.0781 Z"
      /><rect x="260" y="50" width="6" style="fill:white; stroke:none;" height="13"
      /><path style="stroke:none;" d="M262.0938 56.2031 C262.0938 54.6562 262.75 53.8125 263.7969 53.8125 C264.7188 53.8125 265.2656 54.4531 265.2656 55.5156 C265.2656 56.7188 264.5 57.4375 263.1875 57.7031 L263.2969 58.3125 C265.2188 58.2344 265.9375 59.2188 265.9375 60.4375 C265.9375 61.625 265.2344 62.4219 263.9531 62.4219 C263.25 62.4219 262.6562 62.1562 262.0938 61.7188 L262.0938 56.2031 ZM261.2031 62.9062 L261.1094 65.375 L261.2656 65.4844 L262.1562 65.2656 L262.0156 62.0938 C262.5469 62.8438 263.3594 63.1719 264.1719 63.1719 C265.5625 63.1719 266.8594 62.2188 266.8594 60.4844 C266.8594 58.9531 265.875 58.1094 264.125 58 C265.5625 57.6094 266.1875 56.4531 266.1875 55.4844 C266.1875 54.0938 265.1562 53.3125 263.9062 53.3125 C262.2969 53.3125 261.2188 54.5469 261.2188 56.5156 L261.2031 62.9062 Z"
      /><rect x="317" y="70" width="5" style="fill:white; stroke:none;" height="10"
      /><path style="stroke:none;" d="M318.8906 78.6875 C318.4844 78.6875 318.1562 79.0469 318.1562 79.4219 C318.1562 79.8125 318.4844 80.1562 318.8906 80.1562 C319.2969 80.1562 319.6406 79.8125 319.6406 79.4219 C319.6406 79.0469 319.2969 78.6875 318.8906 78.6875 ZM320.4688 72.5781 C320.7188 72.8906 320.875 73.2656 320.8906 73.6562 C320.8906 74.1875 320.625 74.5 320.0312 74.7656 L319.4062 75.0156 C318.6406 75.3125 318.3906 75.5469 318.3906 75.9375 C318.3906 76.1094 318.4531 76.3438 318.5781 76.8125 L318.7344 77.3438 L319.1094 77.3438 L319.0938 76.5312 C319.0938 76.0938 319.2031 75.9688 319.7812 75.7344 L320.2031 75.5625 C321.0312 75.2188 321.4531 74.6875 321.4531 73.8438 C321.4531 72.1562 319.6562 71.1875 318.5 71.0312 C318.1094 71.125 317.9062 71.2969 317.9062 71.6406 C317.9062 71.9375 318.0625 72.1562 318.7188 72.2656 L320.4688 72.5781 Z"
    /></g
  ></g
></svg
>
