<?xml version="1.0"?>
<!DOCTYPE svg PUBLIC '-//W3C//DTD SVG 1.0//EN'
          'http://www.w3.org/TR/2001/REC-SVG-20010904/DTD/svg10.dtd'>
<svg xmlns:xlink="http://www.w3.org/1999/xlink" style="fill-opacity:1; color-rendering:auto; color-interpolation:auto; text-rendering:auto; stroke:black; stroke-linecap:square; stroke-miterlimit:10; shape-rendering:auto; stroke-opacity:1; fill:black; stroke-dasharray:none; font-weight:normal; stroke-width:1; font-family:'Dialog'; font-style:normal; stroke-linejoin:miter; font-size:12px; stroke-dashoffset:0; image-rendering:auto;" viewBox="0 0 490 186" xmlns="http://www.w3.org/2000/svg"
><!--Generated by the Batik Graphics2D SVG Generator--><defs id="genericDefs"
  /><g
  ><defs id="defs1"
    ><clipPath clipPathUnits="userSpaceOnUse" id="clipPath1"
      ><path d="M386 95 L408 95 L408 117 L386 117 L386 95 Z"
      /></clipPath
      ><clipPath clipPathUnits="userSpaceOnUse" id="clipPath2"
      ><path d="M334 95 L356 95 L356 117 L334 117 L334 95 Z"
      /></clipPath
      ><clipPath clipPathUnits="userSpaceOnUse" id="clipPath3"
      ><path d="M304 106 C304 112.0751 299.0751 117 293 117 C286.9249 117 282 112.0751 282 106 C282 99.9249 286.9249 95 293 95 C299.0751 95 304 99.9249 304 106 Z"
      /></clipPath
      ><clipPath clipPathUnits="userSpaceOnUse" id="clipPath4"
      ><path d="M252 145 C252 151.0751 247.0751 156 241 156 C234.9249 156 230 151.0751 230 145 C230 138.9249 234.9249 134 241 134 C247.0751 134 252 138.9249 252 145 Z"
      /></clipPath
      ><clipPath clipPathUnits="userSpaceOnUse" id="clipPath5"
      ><path d="M178 134 L200 134 L200 156 L178 156 L178 134 Z"
      /></clipPath
      ><clipPath clipPathUnits="userSpaceOnUse" id="clipPath6"
      ><path d="M148 145 C148 151.0751 143.0751 156 137 156 C130.9249 156 126 151.0751 126 145 C126 138.9249 130.9249 134 137 134 C143.0751 134 148 138.9249 148 145 Z"
      /></clipPath
      ><clipPath clipPathUnits="userSpaceOnUse" id="clipPath7"
      ><path d="M252 67 C252 73.0751 247.0751 78 241 78 C234.9249 78 230 73.0751 230 67 C230 60.9249 234.9249 56 241 56 C247.0751 56 252 60.9249 252 67 Z"
      /></clipPath
      ><clipPath clipPathUnits="userSpaceOnUse" id="clipPath8"
      ><path d="M178 82 L200 82 L200 104 L178 104 L178 82 Z"
      /></clipPath
      ><clipPath clipPathUnits="userSpaceOnUse" id="clipPath9"
      ><path d="M148 93 C148 99.0751 143.0751 104 137 104 C130.9249 104 126 99.0751 126 93 C126 86.9249 130.9249 82 137 82 C143.0751 82 148 86.9249 148 93 Z"
      /></clipPath
      ><clipPath clipPathUnits="userSpaceOnUse" id="clipPath10"
      ><path d="M178 30 L200 30 L200 52 L178 52 L178 30 Z"
      /></clipPath
      ><clipPath clipPathUnits="userSpaceOnUse" id="clipPath11"
      ><path d="M148 41 C148 47.0751 143.0751 52 137 52 C130.9249 52 126 47.0751 126 41 C126 34.9249 130.9249 30 137 30 C143.0751 30 148 34.9249 148 41 Z"
      /></clipPath
      ><clipPath clipPathUnits="userSpaceOnUse" id="clipPath12"
      ><path style="fill-rule:evenodd;" d="M397 65 L386 43 L408 43 Z"
      /></clipPath
      ><clipPath clipPathUnits="userSpaceOnUse" id="clipPath13"
      ><path style="fill-rule:evenodd;" d="M41 82 L52 93 L41 104 L30 93 Z"
      /></clipPath
    ></defs
    ><g style="fill:white; text-rendering:optimizeSpeed; stroke:white;"
    ><rect x="0" width="490" height="186" y="0" style="stroke:none;"
      /><polygon style="fill:none; stroke:black;" points=" 449 106 397 106"
      /><path d="M449 95 C443.5 100.5 454.5 111.5 449 117" style="fill:none; stroke:black;"
      /><polygon style="fill:none; stroke:black;" points=" 397 106 345 106"
      /><polygon style="fill:none; stroke:black;" points=" 397 106 397 54"
      /><rect x="386" y="95" width="22" style="clip-path:url(#clipPath1); stroke:none;" height="22"
      /><rect x="386" y="95" width="22" style="clip-path:url(#clipPath1); fill:rgb(0,144,188); stroke:none;" height="22"
      /><rect x="386" y="95" width="22" style="clip-path:url(#clipPath1); fill:none; stroke:black;" height="22"
      /><rect x="386" y="95" width="22" style="fill:none; stroke:black;" height="22"
      /><polygon style="fill:none; stroke:black;" points=" 345 106 293 106"
      /><rect x="334" y="95" width="22" style="clip-path:url(#clipPath2); stroke:none;" height="22"
      /><rect x="334" y="95" width="22" style="clip-path:url(#clipPath2); fill:rgb(0,144,188); stroke:none;" height="22"
      /><rect x="334" y="95" width="22" style="clip-path:url(#clipPath2); fill:none; stroke:black;" height="22"
      /><rect x="334" y="95" width="22" style="fill:none; stroke:black;" height="22"
      /><polygon style="fill:none; stroke:black;" points=" 293 106 241 145"
      /><polygon style="fill:none; stroke:black;" points=" 293 106 241 67"
      /><circle style="clip-path:url(#clipPath3); stroke:none;" r="11" cx="293" cy="106"
      /><rect x="282" y="95" width="22" style="clip-path:url(#clipPath3); fill:rgb(0,166,81); stroke:none;" height="22"
      /><rect x="282" y="95" width="22" style="clip-path:url(#clipPath3); fill:none; stroke:black;" height="22"
      /><circle style="fill:none; stroke:black;" r="11" cx="293" cy="106"
      /><polygon style="fill:none; stroke:black;" points=" 241 145 189 145"
      /><circle style="clip-path:url(#clipPath4); stroke:none;" r="11" cx="241" cy="145"
      /><rect x="230" y="134" width="22" style="clip-path:url(#clipPath4); fill:rgb(0,166,81); stroke:none;" height="22"
      /><rect x="230" y="134" width="22" style="clip-path:url(#clipPath4); fill:none; stroke:black;" height="22"
      /><circle style="fill:none; stroke:black;" r="11" cx="241" cy="145"
      /><polygon style="fill:none; stroke:black;" points=" 189 145 137 145"
      /><rect x="178" y="134" width="22" style="clip-path:url(#clipPath5); stroke:none;" height="22"
      /><rect x="178" y="134" width="22" style="clip-path:url(#clipPath5); fill:rgb(0,144,188); stroke:none;" height="22"
      /><rect x="178" y="134" width="22" style="clip-path:url(#clipPath5); fill:none; stroke:black;" height="22"
      /><rect x="178" y="134" width="22" style="fill:none; stroke:black;" height="22"
      /><circle style="clip-path:url(#clipPath6); stroke:none;" r="11" cx="137" cy="145"
      /><rect x="126" y="134" width="22" style="clip-path:url(#clipPath6); fill:rgb(255,212,0); stroke:none;" height="22"
      /><rect x="126" y="134" width="22" style="clip-path:url(#clipPath6); fill:none; stroke:black;" height="22"
      /><circle style="fill:none; stroke:black;" r="11" cx="137" cy="145"
      /><rect x="166" y="148" width="7" style="stroke:none;" height="9"
    /></g
    ><g style="font-family:'Serif'; text-rendering:optimizeSpeed; "
    ><path style="stroke:none;" d="M167 153.5156 L169.9531 149.2656 L169.9531 153.5156 L167 153.5156 ZM172.2812 153.5156 L170.8594 153.5156 L170.8594 148.125 L170.2344 148.125 L166.3438 153.6406 L166.3438 154.1875 L169.9531 154.1875 L169.9531 157 L170.8594 157 L170.8594 154.1875 L172.2812 154.1875 L172.2812 153.5156 Z"
      /><rect x="153" y="146" width="6" style="fill:white; stroke:none;" height="13"
      /><path style="stroke:none;" d="M155.0938 152.2031 C155.0938 150.6562 155.75 149.8125 156.7969 149.8125 C157.7188 149.8125 158.2656 150.4531 158.2656 151.5156 C158.2656 152.7188 157.5 153.4375 156.1875 153.7031 L156.2969 154.3125 C158.2188 154.2344 158.9375 155.2188 158.9375 156.4375 C158.9375 157.625 158.2344 158.4219 156.9531 158.4219 C156.25 158.4219 155.6562 158.1562 155.0938 157.7188 L155.0938 152.2031 ZM154.2031 158.9062 L154.1094 161.375 L154.2656 161.4844 L155.1562 161.2656 L155.0156 158.0938 C155.5469 158.8438 156.3594 159.1719 157.1719 159.1719 C158.5625 159.1719 159.8594 158.2188 159.8594 156.4844 C159.8594 154.9531 158.875 154.1094 157.125 154 C158.5625 153.6094 159.1875 152.4531 159.1875 151.4844 C159.1875 150.0938 158.1562 149.3125 156.9062 149.3125 C155.2969 149.3125 154.2188 150.5469 154.2188 152.5156 L154.2031 158.9062 Z"
      /><rect x="219" y="148" width="6" style="fill:white; stroke:none;" height="9"
      /><path style="stroke:none;" d="M220.4219 156.0938 C221.0781 155.375 221.7031 154.7188 222.0312 154.3438 C223.9219 152.3125 224.5312 151.4688 224.5312 150.3594 C224.5312 149.0156 223.7812 148.0781 222.1562 148.0781 C220.9062 148.0781 219.7969 148.7031 219.5938 149.9688 C219.7188 150.2031 219.9062 150.3438 220.1562 150.3438 C220.4688 150.3438 220.6562 150.1094 220.7969 149.5938 L221.0938 148.6719 C221.3906 148.5938 221.6562 148.5625 221.8906 148.5625 C222.9219 148.5625 223.5469 149.3125 223.5469 150.4219 C223.5469 151.4375 222.9844 152.4219 221.7031 153.9062 C221.125 154.5781 220.3906 155.4375 219.6406 156.2812 L219.6406 157 L224.9219 157 L224.9219 156.0938 L220.4219 156.0938 Z"
      /><rect x="205" y="146" width="6" style="fill:white; stroke:none;" height="13"
      /><path style="stroke:none;" d="M207.0938 152.2031 C207.0938 150.6562 207.75 149.8125 208.7969 149.8125 C209.7188 149.8125 210.2656 150.4531 210.2656 151.5156 C210.2656 152.7188 209.5 153.4375 208.1875 153.7031 L208.2969 154.3125 C210.2188 154.2344 210.9375 155.2188 210.9375 156.4375 C210.9375 157.625 210.2344 158.4219 208.9531 158.4219 C208.25 158.4219 207.6562 158.1562 207.0938 157.7188 L207.0938 152.2031 ZM206.2031 158.9062 L206.1094 161.375 L206.2656 161.4844 L207.1562 161.2656 L207.0156 158.0938 C207.5469 158.8438 208.3594 159.1719 209.1719 159.1719 C210.5625 159.1719 211.8594 158.2188 211.8594 156.4844 C211.8594 154.9531 210.875 154.1094 209.125 154 C210.5625 153.6094 211.1875 152.4531 211.1875 151.4844 C211.1875 150.0938 210.1562 149.3125 208.9062 149.3125 C207.2969 149.3125 206.2188 150.5469 206.2188 152.5156 L206.2031 158.9062 Z"
      /><polygon style="fill:none;" points=" 241 67 189 93"
      /><polygon style="fill:none;" points=" 241 67 189 41"
      /><circle style="fill:white; clip-path:url(#clipPath7); stroke:none;" r="11" cx="241" cy="67"
      /><rect x="230" y="56" width="22" style="clip-path:url(#clipPath7); fill:rgb(0,166,81); stroke:none;" height="22"
      /><rect x="230" y="56" width="22" style="fill:none; clip-path:url(#clipPath7);" height="22"
      /><circle r="11" style="fill:none;" cx="241" cy="67"
      /><polygon style="fill:none;" points=" 189 93 137 93"
      /><rect x="178" y="82" width="22" style="clip-path:url(#clipPath8); fill:white; stroke:none;" height="22"
      /><rect x="178" y="82" width="22" style="clip-path:url(#clipPath8); fill:rgb(0,144,188); stroke:none;" height="22"
      /><rect x="178" y="82" width="22" style="fill:none; clip-path:url(#clipPath8);" height="22"
      /><rect x="178" width="22" height="22" y="82" style="fill:none;"
      /><circle style="fill:white; clip-path:url(#clipPath9); stroke:none;" r="11" cx="137" cy="93"
      /><rect x="126" y="82" width="22" style="clip-path:url(#clipPath9); fill:rgb(255,212,0); stroke:none;" height="22"
      /><rect x="126" y="82" width="22" style="fill:none; clip-path:url(#clipPath9);" height="22"
      /><circle r="11" style="fill:none;" cx="137" cy="93"
      /><rect x="166" y="96" width="7" style="fill:white; stroke:none;" height="9"
      /><path style="stroke:none;" d="M167 101.5156 L169.9531 97.2656 L169.9531 101.5156 L167 101.5156 ZM172.2812 101.5156 L170.8594 101.5156 L170.8594 96.125 L170.2344 96.125 L166.3438 101.6406 L166.3438 102.1875 L169.9531 102.1875 L169.9531 105 L170.8594 105 L170.8594 102.1875 L172.2812 102.1875 L172.2812 101.5156 Z"
      /><rect x="153" y="94" width="6" style="fill:white; stroke:none;" height="13"
      /><path style="stroke:none;" d="M155.0938 100.2031 C155.0938 98.6562 155.75 97.8125 156.7969 97.8125 C157.7188 97.8125 158.2656 98.4531 158.2656 99.5156 C158.2656 100.7188 157.5 101.4375 156.1875 101.7031 L156.2969 102.3125 C158.2188 102.2344 158.9375 103.2188 158.9375 104.4375 C158.9375 105.625 158.2344 106.4219 156.9531 106.4219 C156.25 106.4219 155.6562 106.1562 155.0938 105.7188 L155.0938 100.2031 ZM154.2031 106.9062 L154.1094 109.375 L154.2656 109.4844 L155.1562 109.2656 L155.0156 106.0938 C155.5469 106.8438 156.3594 107.1719 157.1719 107.1719 C158.5625 107.1719 159.8594 106.2188 159.8594 104.4844 C159.8594 102.9531 158.875 102.1094 157.125 102 C158.5625 101.6094 159.1875 100.4531 159.1875 99.4844 C159.1875 98.0938 158.1562 97.3125 156.9062 97.3125 C155.2969 97.3125 154.2188 98.5469 154.2188 100.5156 L154.2031 106.9062 Z"
      /><polygon style="fill:none;" points=" 189 41 137 41"
      /><rect x="178" y="30" width="22" style="clip-path:url(#clipPath10); fill:white; stroke:none;" height="22"
      /><rect x="178" y="30" width="22" style="clip-path:url(#clipPath10); fill:rgb(0,144,188); stroke:none;" height="22"
      /><rect x="178" y="30" width="22" style="fill:none; clip-path:url(#clipPath10);" height="22"
      /><rect x="178" width="22" height="22" y="30" style="fill:none;"
      /><circle style="fill:white; clip-path:url(#clipPath11); stroke:none;" r="11" cx="137" cy="41"
      /><rect x="126" y="30" width="22" style="clip-path:url(#clipPath11); fill:rgb(255,212,0); stroke:none;" height="22"
      /><rect x="126" y="30" width="22" style="fill:none; clip-path:url(#clipPath11);" height="22"
      /><circle r="11" style="fill:none;" cx="137" cy="41"
      /><rect x="166" y="44" width="7" style="fill:white; stroke:none;" height="9"
      /><path style="stroke:none;" d="M167 49.5156 L169.9531 45.2656 L169.9531 49.5156 L167 49.5156 ZM172.2812 49.5156 L170.8594 49.5156 L170.8594 44.125 L170.2344 44.125 L166.3438 49.6406 L166.3438 50.1875 L169.9531 50.1875 L169.9531 53 L170.8594 53 L170.8594 50.1875 L172.2812 50.1875 L172.2812 49.5156 Z"
      /><rect x="153" y="42" width="6" style="fill:white; stroke:none;" height="13"
      /><path style="stroke:none;" d="M155.0938 48.2031 C155.0938 46.6562 155.75 45.8125 156.7969 45.8125 C157.7188 45.8125 158.2656 46.4531 158.2656 47.5156 C158.2656 48.7188 157.5 49.4375 156.1875 49.7031 L156.2969 50.3125 C158.2188 50.2344 158.9375 51.2188 158.9375 52.4375 C158.9375 53.625 158.2344 54.4219 156.9531 54.4219 C156.25 54.4219 155.6562 54.1562 155.0938 53.7188 L155.0938 48.2031 ZM154.2031 54.9062 L154.1094 57.375 L154.2656 57.4844 L155.1562 57.2656 L155.0156 54.0938 C155.5469 54.8438 156.3594 55.1719 157.1719 55.1719 C158.5625 55.1719 159.8594 54.2188 159.8594 52.4844 C159.8594 50.9531 158.875 50.1094 157.125 50 C158.5625 49.6094 159.1875 48.4531 159.1875 47.4844 C159.1875 46.0938 158.1562 45.3125 156.9062 45.3125 C155.2969 45.3125 154.2188 46.5469 154.2188 48.5156 L154.2031 54.9062 Z"
      /><rect x="223" y="78" width="6" style="fill:white; stroke:none;" height="9"
      /><path style="stroke:none;" d="M224.4219 86.0938 C225.0781 85.375 225.7031 84.7188 226.0312 84.3438 C227.9219 82.3125 228.5312 81.4688 228.5312 80.3594 C228.5312 79.0156 227.7812 78.0781 226.1562 78.0781 C224.9062 78.0781 223.7969 78.7031 223.5938 79.9688 C223.7188 80.2031 223.9062 80.3438 224.1562 80.3438 C224.4688 80.3438 224.6562 80.1094 224.7969 79.5938 L225.0938 78.6719 C225.3906 78.5938 225.6562 78.5625 225.8906 78.5625 C226.9219 78.5625 227.5469 79.3125 227.5469 80.4219 C227.5469 81.4375 226.9844 82.4219 225.7031 83.9062 C225.125 84.5781 224.3906 85.4375 223.6406 86.2812 L223.6406 87 L228.9219 87 L228.9219 86.0938 L224.4219 86.0938 Z"
      /><rect x="207" y="84" width="6" style="fill:white; stroke:none;" height="13"
      /><path style="stroke:none;" d="M209.0938 90.2031 C209.0938 88.6562 209.75 87.8125 210.7969 87.8125 C211.7188 87.8125 212.2656 88.4531 212.2656 89.5156 C212.2656 90.7188 211.5 91.4375 210.1875 91.7031 L210.2969 92.3125 C212.2188 92.2344 212.9375 93.2188 212.9375 94.4375 C212.9375 95.625 212.2344 96.4219 210.9531 96.4219 C210.25 96.4219 209.6562 96.1562 209.0938 95.7188 L209.0938 90.2031 ZM208.2031 96.9062 L208.1094 99.375 L208.2656 99.4844 L209.1562 99.2656 L209.0156 96.0938 C209.5469 96.8438 210.3594 97.1719 211.1719 97.1719 C212.5625 97.1719 213.8594 96.2188 213.8594 94.4844 C213.8594 92.9531 212.875 92.1094 211.125 92 C212.5625 91.6094 213.1875 90.4531 213.1875 89.4844 C213.1875 88.0938 212.1562 87.3125 210.9062 87.3125 C209.2969 87.3125 208.2188 88.5469 208.2188 90.5156 L208.2031 96.9062 Z"
      /><rect x="216" y="60" width="6" style="fill:white; stroke:none;" height="10"
      /><path style="stroke:none;" d="M219.3438 69.6875 C218.2031 69.6875 217.5312 68.5 217.5312 66.2969 C217.5312 66.2188 217.5312 66.125 217.5312 66.0469 C218.0938 65.5 218.7188 65.3125 219.3438 65.3125 C220.3125 65.3125 220.9531 65.9844 220.9531 67.4531 C220.9531 68.9375 220.3125 69.6875 219.3438 69.6875 ZM221.5312 61.0781 C218.3438 61.4531 216.5625 63.7656 216.5625 66.4531 C216.5625 68.7812 217.6094 70.1719 219.3125 70.1719 C220.8438 70.1719 221.9219 69.1094 221.9219 67.2812 C221.9219 65.6875 220.9688 64.6562 219.5625 64.6562 C218.8281 64.6562 218.1406 64.9844 217.5781 65.5781 C217.7969 63.4062 219.0781 61.9688 221.5938 61.3906 L221.5312 61.0781 Z"
      /><rect x="200" y="50" width="6" style="fill:white; stroke:none;" height="13"
      /><path style="stroke:none;" d="M202.0938 56.2031 C202.0938 54.6562 202.75 53.8125 203.7969 53.8125 C204.7188 53.8125 205.2656 54.4531 205.2656 55.5156 C205.2656 56.7188 204.5 57.4375 203.1875 57.7031 L203.2969 58.3125 C205.2188 58.2344 205.9375 59.2188 205.9375 60.4375 C205.9375 61.625 205.2344 62.4219 203.9531 62.4219 C203.25 62.4219 202.6562 62.1562 202.0938 61.7188 L202.0938 56.2031 ZM201.2031 62.9062 L201.1094 65.375 L201.2656 65.4844 L202.1562 65.2656 L202.0156 62.0938 C202.5469 62.8438 203.3594 63.1719 204.1719 63.1719 C205.5625 63.1719 206.8594 62.2188 206.8594 60.4844 C206.8594 58.9531 205.875 58.1094 204.125 58 C205.5625 57.6094 206.1875 56.4531 206.1875 55.4844 C206.1875 54.0938 205.1562 53.3125 203.9062 53.3125 C202.2969 53.3125 201.2188 54.5469 201.2188 56.5156 L201.2031 62.9062 Z"
      /><rect x="277" y="120" width="6" style="fill:white; stroke:none;" height="10"
      /><path style="stroke:none;" d="M279.2344 121.6562 C279.5156 121.5938 279.7656 121.5625 280.0156 121.5625 C281.0625 121.5625 281.6719 122.1719 281.6719 123.2656 C281.6719 124.4375 280.9062 125.1094 279.7031 125.1094 L279.1875 125.1094 L279.1875 125.6406 L279.7969 125.6406 C281.2188 125.6406 281.9062 126.4219 281.9062 127.6406 C281.9062 128.8438 281.1719 129.6875 279.875 129.6875 C279.6094 129.6875 279.3125 129.6562 279.0156 129.5625 L278.7812 128.8125 C278.625 128.2812 278.5 128.0469 278.1406 128.0469 C277.8906 128.0469 277.7031 128.1719 277.5781 128.4219 C277.8438 129.6406 278.7812 130.1719 280.0312 130.1719 C281.7188 130.1719 282.875 129.125 282.875 127.7031 C282.875 126.5 282.2031 125.625 280.7969 125.375 C281.9531 125.0156 282.6094 124.2031 282.6094 123.2031 C282.6094 121.9219 281.6719 121.0781 280.1875 121.0781 C279.0469 121.0781 278.0625 121.5938 277.7969 122.6875 C277.9062 123 278.1094 123.1094 278.3594 123.1094 C278.7344 123.1094 278.8906 122.8906 279 122.4062 L279.2344 121.6562 Z"
      /><rect x="259" y="134" width="8" style="fill:white; stroke:none;" height="8"
      /><path style="stroke:none;" d="M263.9844 139.7031 C263.9375 140.8906 263.1562 141.6562 262.3125 141.6562 C261.2656 141.6562 260.5 140.6875 260.5 138.7188 C260.5 137.2812 261.1562 136.1562 262.3438 136.1562 C263.1406 136.1562 263.7812 136.6875 264.0938 137.6406 L263.9844 139.7031 ZM265.9062 141.2812 C265.7344 141.375 265.5469 141.4219 265.3438 141.4219 C264.9531 141.4219 264.75 141.2188 264.75 140.4219 C264.75 139.4844 264.9688 137.5312 265.1875 135.8281 L265.0312 135.7188 L264.2344 135.9219 L264.1406 136.7969 C263.7812 136.0312 263.1562 135.6562 262.3906 135.6562 C261.0469 135.6562 259.5625 136.8438 259.5625 138.9531 C259.5625 141.0938 260.7188 142.1719 262.1406 142.1719 C263.0156 142.1719 263.6875 141.8125 264.0938 140.9844 C264.2031 141.8594 264.5156 142.1719 265.0156 142.1719 C265.4688 142.1719 265.7969 141.9062 266.0156 141.5625 L265.9062 141.2812 Z"
      /><rect x="267" y="94" width="6" style="fill:white; stroke:none;" height="10"
      /><path style="stroke:none;" d="M270.3438 103.6875 C269.2031 103.6875 268.5312 102.5 268.5312 100.2969 C268.5312 100.2188 268.5312 100.125 268.5312 100.0469 C269.0938 99.5 269.7188 99.3125 270.3438 99.3125 C271.3125 99.3125 271.9531 99.9844 271.9531 101.4531 C271.9531 102.9375 271.3125 103.6875 270.3438 103.6875 ZM272.5312 95.0781 C269.3438 95.4531 267.5625 97.7656 267.5625 100.4531 C267.5625 102.7812 268.6094 104.1719 270.3125 104.1719 C271.8438 104.1719 272.9219 103.1094 272.9219 101.2812 C272.9219 99.6875 271.9688 98.6562 270.5625 98.6562 C269.8281 98.6562 269.1406 98.9844 268.5781 99.5781 C268.7969 97.4062 270.0781 95.9688 272.5938 95.3906 L272.5312 95.0781 Z"
      /><rect x="249" y="82" width="8" style="fill:white; stroke:none;" height="8"
      /><path style="stroke:none;" d="M253.9844 87.7031 C253.9375 88.8906 253.1562 89.6562 252.3125 89.6562 C251.2656 89.6562 250.5 88.6875 250.5 86.7188 C250.5 85.2812 251.1562 84.1562 252.3438 84.1562 C253.1406 84.1562 253.7812 84.6875 254.0938 85.6406 L253.9844 87.7031 ZM255.9062 89.2812 C255.7344 89.375 255.5469 89.4219 255.3438 89.4219 C254.9531 89.4219 254.75 89.2188 254.75 88.4219 C254.75 87.4844 254.9688 85.5312 255.1875 83.8281 L255.0312 83.7188 L254.2344 83.9219 L254.1406 84.7969 C253.7812 84.0312 253.1562 83.6562 252.3906 83.6562 C251.0469 83.6562 249.5625 84.8438 249.5625 86.9531 C249.5625 89.0938 250.7188 90.1719 252.1406 90.1719 C253.0156 90.1719 253.6875 89.8125 254.0938 88.9844 C254.2031 89.8594 254.5156 90.1719 255.0156 90.1719 C255.4688 90.1719 255.7969 89.9062 256.0156 89.5625 L255.9062 89.2812 Z"
      /><rect x="322" y="109" width="7" style="fill:white; stroke:none;" height="9"
      /><path style="stroke:none;" d="M323 114.5156 L325.9531 110.2656 L325.9531 114.5156 L323 114.5156 ZM328.2812 114.5156 L326.8594 114.5156 L326.8594 109.125 L326.2344 109.125 L322.3438 114.6406 L322.3438 115.1875 L325.9531 115.1875 L325.9531 118 L326.8594 118 L326.8594 115.1875 L328.2812 115.1875 L328.2812 114.5156 Z"
      /><rect x="309" y="107" width="6" style="fill:white; stroke:none;" height="13"
      /><path style="stroke:none;" d="M311.0938 113.2031 C311.0938 111.6562 311.75 110.8125 312.7969 110.8125 C313.7188 110.8125 314.2656 111.4531 314.2656 112.5156 C314.2656 113.7188 313.5 114.4375 312.1875 114.7031 L312.2969 115.3125 C314.2188 115.2344 314.9375 116.2188 314.9375 117.4375 C314.9375 118.625 314.2344 119.4219 312.9531 119.4219 C312.25 119.4219 311.6562 119.1562 311.0938 118.7188 L311.0938 113.2031 ZM310.2031 119.9062 L310.1094 122.375 L310.2656 122.4844 L311.1562 122.2656 L311.0156 119.0938 C311.5469 119.8438 312.3594 120.1719 313.1719 120.1719 C314.5625 120.1719 315.8594 119.2188 315.8594 117.4844 C315.8594 115.9531 314.875 115.1094 313.125 115 C314.5625 114.6094 315.1875 113.4531 315.1875 112.4844 C315.1875 111.0938 314.1562 110.3125 312.9062 110.3125 C311.2969 110.3125 310.2188 111.5469 310.2188 113.5156 L310.2031 119.9062 Z"
      /><polygon style="fill:white; clip-path:url(#clipPath12); stroke:none;" points=" 397 65 386 43 408 43"
      /><rect x="386" y="43" width="22" style="clip-path:url(#clipPath12); fill:rgb(237,28,36); stroke:none;" height="22"
      /><rect x="386" y="43" width="22" style="fill:none; clip-path:url(#clipPath12);" height="22"
      /><polygon style="fill:none;" points=" 397 65 386 43 408 43"
      /><rect x="374" y="109" width="7" style="fill:white; stroke:none;" height="9"
      /><path style="stroke:none;" d="M375 114.5156 L377.9531 110.2656 L377.9531 114.5156 L375 114.5156 ZM380.2812 114.5156 L378.8594 114.5156 L378.8594 109.125 L378.2344 109.125 L374.3438 114.6406 L374.3438 115.1875 L377.9531 115.1875 L377.9531 118 L378.8594 118 L378.8594 115.1875 L380.2812 115.1875 L380.2812 114.5156 Z"
      /><rect x="361" y="107" width="6" style="fill:white; stroke:none;" height="13"
      /><path style="stroke:none;" d="M363.0938 113.2031 C363.0938 111.6562 363.75 110.8125 364.7969 110.8125 C365.7188 110.8125 366.2656 111.4531 366.2656 112.5156 C366.2656 113.7188 365.5 114.4375 364.1875 114.7031 L364.2969 115.3125 C366.2188 115.2344 366.9375 116.2188 366.9375 117.4375 C366.9375 118.625 366.2344 119.4219 364.9531 119.4219 C364.25 119.4219 363.6562 119.1562 363.0938 118.7188 L363.0938 113.2031 ZM362.2031 119.9062 L362.1094 122.375 L362.2656 122.4844 L363.1562 122.2656 L363.0156 119.0938 C363.5469 119.8438 364.3594 120.1719 365.1719 120.1719 C366.5625 120.1719 367.8594 119.2188 367.8594 117.4844 C367.8594 115.9531 366.875 115.1094 365.125 115 C366.5625 114.6094 367.1875 113.4531 367.1875 112.4844 C367.1875 111.0938 366.1562 110.3125 364.9062 110.3125 C363.2969 110.3125 362.2188 111.5469 362.2188 113.5156 L362.2031 119.9062 Z"
      /><rect x="386" y="82" width="6" style="fill:white; stroke:none;" height="10"
      /><path style="stroke:none;" d="M389.3438 91.6875 C388.2031 91.6875 387.5312 90.5 387.5312 88.2969 C387.5312 88.2188 387.5312 88.125 387.5312 88.0469 C388.0938 87.5 388.7188 87.3125 389.3438 87.3125 C390.3125 87.3125 390.9531 87.9844 390.9531 89.4531 C390.9531 90.9375 390.3125 91.6875 389.3438 91.6875 ZM391.5312 83.0781 C388.3438 83.4531 386.5625 85.7656 386.5625 88.4531 C386.5625 90.7812 387.6094 92.1719 389.3125 92.1719 C390.8438 92.1719 391.9219 91.1094 391.9219 89.2812 C391.9219 87.6875 390.9688 86.6562 389.5625 86.6562 C388.8281 86.6562 388.1406 86.9844 387.5781 87.5781 C387.7969 85.4062 389.0781 83.9688 391.5938 83.3906 L391.5312 83.0781 Z"
      /><rect x="385" y="69" width="8" style="fill:white; stroke:none;" height="8"
      /><path style="stroke:none;" d="M389.9844 74.7031 C389.9375 75.8906 389.1562 76.6562 388.3125 76.6562 C387.2656 76.6562 386.5 75.6875 386.5 73.7188 C386.5 72.2812 387.1562 71.1562 388.3438 71.1562 C389.1406 71.1562 389.7812 71.6875 390.0938 72.6406 L389.9844 74.7031 ZM391.9062 76.2812 C391.7344 76.375 391.5469 76.4219 391.3438 76.4219 C390.9531 76.4219 390.75 76.2188 390.75 75.4219 C390.75 74.4844 390.9688 72.5312 391.1875 70.8281 L391.0312 70.7188 L390.2344 70.9219 L390.1406 71.7969 C389.7812 71.0312 389.1562 70.6562 388.3906 70.6562 C387.0469 70.6562 385.5625 71.8438 385.5625 73.9531 C385.5625 76.0938 386.7188 77.1719 388.1406 77.1719 C389.0156 77.1719 389.6875 76.8125 390.0938 75.9844 C390.2031 76.8594 390.5156 77.1719 391.0156 77.1719 C391.4688 77.1719 391.7969 76.9062 392.0156 76.5625 L391.9062 76.2812 Z"
      /><rect x="413" y="107" width="6" style="fill:white; stroke:none;" height="13"
      /><path style="stroke:none;" d="M415.0938 113.2031 C415.0938 111.6562 415.75 110.8125 416.7969 110.8125 C417.7188 110.8125 418.2656 111.4531 418.2656 112.5156 C418.2656 113.7188 417.5 114.4375 416.1875 114.7031 L416.2969 115.3125 C418.2188 115.2344 418.9375 116.2188 418.9375 117.4375 C418.9375 118.625 418.2344 119.4219 416.9531 119.4219 C416.25 119.4219 415.6562 119.1562 415.0938 118.7188 L415.0938 113.2031 ZM414.2031 119.9062 L414.1094 122.375 L414.2656 122.4844 L415.1562 122.2656 L415.0156 119.0938 C415.5469 119.8438 416.3594 120.1719 417.1719 120.1719 C418.5625 120.1719 419.8594 119.2188 419.8594 117.4844 C419.8594 115.9531 418.875 115.1094 417.125 115 C418.5625 114.6094 419.1875 113.4531 419.1875 112.4844 C419.1875 111.0938 418.1562 110.3125 416.9062 110.3125 C415.2969 110.3125 414.2188 111.5469 414.2188 113.5156 L414.2031 119.9062 Z"
      /><polygon style="fill:none;" points=" 126 156 115 156 115 30 126 30 115 30 115 156"
      /><polygon style="fill:none;" points=" 93 93 41 93"
      /><polygon style="fill:white; clip-path:url(#clipPath13); stroke:none;" points=" 41 82 52 93 41 104 30 93"
      /><rect x="30" y="82" width="22" style="clip-path:url(#clipPath13); fill:rgb(165,67,153); stroke:none;" height="22"
      /><rect x="30" y="82" width="22" style="fill:none; clip-path:url(#clipPath13);" height="22"
      /><polygon style="fill:none;" points=" 41 82 52 93 41 104 30 93"
      /><rect x="71" y="96" width="5" style="fill:white; stroke:none;" height="10"
      /><path style="stroke:none;" d="M72.8906 104.6875 C72.4844 104.6875 72.1562 105.0469 72.1562 105.4219 C72.1562 105.8125 72.4844 106.1562 72.8906 106.1562 C73.2969 106.1562 73.6406 105.8125 73.6406 105.4219 C73.6406 105.0469 73.2969 104.6875 72.8906 104.6875 ZM74.4688 98.5781 C74.7188 98.8906 74.875 99.2656 74.8906 99.6562 C74.8906 100.1875 74.625 100.5 74.0312 100.7656 L73.4062 101.0156 C72.6406 101.3125 72.3906 101.5469 72.3906 101.9375 C72.3906 102.1094 72.4531 102.3438 72.5781 102.8125 L72.7344 103.3438 L73.1094 103.3438 L73.0938 102.5312 C73.0938 102.0938 73.2031 101.9688 73.7812 101.7344 L74.2031 101.5625 C75.0312 101.2188 75.4531 100.6875 75.4531 99.8438 C75.4531 98.1562 73.6562 97.1875 72.5 97.0312 C72.1094 97.125 71.9062 97.2969 71.9062 97.6406 C71.9062 97.9375 72.0625 98.1562 72.7188 98.2656 L74.4688 98.5781 Z"
      /><rect x="57" y="96" width="5" style="fill:white; stroke:none;" height="10"
      /><path style="stroke:none;" d="M58.8906 104.6875 C58.4844 104.6875 58.1562 105.0469 58.1562 105.4219 C58.1562 105.8125 58.4844 106.1562 58.8906 106.1562 C59.2969 106.1562 59.6406 105.8125 59.6406 105.4219 C59.6406 105.0469 59.2969 104.6875 58.8906 104.6875 ZM60.4688 98.5781 C60.7188 98.8906 60.875 99.2656 60.8906 99.6562 C60.8906 100.1875 60.625 100.5 60.0312 100.7656 L59.4062 101.0156 C58.6406 101.3125 58.3906 101.5469 58.3906 101.9375 C58.3906 102.1094 58.4531 102.3438 58.5781 102.8125 L58.7344 103.3438 L59.1094 103.3438 L59.0938 102.5312 C59.0938 102.0938 59.2031 101.9688 59.7812 101.7344 L60.2031 101.5625 C61.0312 101.2188 61.4531 100.6875 61.4531 99.8438 C61.4531 98.1562 59.6562 97.1875 58.5 97.0312 C58.1094 97.125 57.9062 97.2969 57.9062 97.6406 C57.9062 97.9375 58.0625 98.1562 58.7188 98.2656 L60.4688 98.5781 Z"
    /></g
  ></g
></svg
>
