<?xml version="1.0"?>
<!DOCTYPE svg PUBLIC '-//W3C//DTD SVG 1.0//EN'
          'http://www.w3.org/TR/2001/REC-SVG-20010904/DTD/svg10.dtd'>
<svg xmlns:xlink="http://www.w3.org/1999/xlink" style="fill-opacity:1; color-rendering:auto; color-interpolation:auto; text-rendering:auto; stroke:black; stroke-linecap:square; stroke-miterlimit:10; shape-rendering:auto; stroke-opacity:1; fill:black; stroke-dasharray:none; font-weight:normal; stroke-width:1; font-family:'Dialog'; font-style:normal; stroke-linejoin:miter; font-size:12px; stroke-dashoffset:0; image-rendering:auto;" viewBox="0 0 490 186" xmlns="http://www.w3.org/2000/svg"
><!--Generated by the Batik Graphics2D SVG Generator--><defs id="genericDefs"
  /><g
  ><defs id="defs1"
    ><clipPath clipPathUnits="userSpaceOnUse" id="clipPath1"
      ><path d="M386 82 L408 82 L408 104 L386 104 L386 82 Z"
      /></clipPath
      ><clipPath clipPathUnits="userSpaceOnUse" id="clipPath2"
      ><path d="M334 82 L356 82 L356 104 L334 104 L334 82 Z"
      /></clipPath
      ><clipPath clipPathUnits="userSpaceOnUse" id="clipPath3"
      ><path d="M304 93 C304 99.0751 299.0751 104 293 104 C286.9249 104 282 99.0751 282 93 C282 86.9249 286.9249 82 293 82 C299.0751 82 304 86.9249 304 93 Z"
      /></clipPath
      ><clipPath clipPathUnits="userSpaceOnUse" id="clipPath4"
      ><path d="M252 145 C252 151.0751 247.0751 156 241 156 C234.9249 156 230 151.0751 230 145 C230 138.9249 234.9249 134 241 134 C247.0751 134 252 138.9249 252 145 Z"
      /></clipPath
      ><clipPath clipPathUnits="userSpaceOnUse" id="clipPath5"
      ><path d="M178 134 L200 134 L200 156 L178 156 L178 134 Z"
      /></clipPath
      ><clipPath clipPathUnits="userSpaceOnUse" id="clipPath6"
      ><path d="M148 145 C148 151.0751 143.0751 156 137 156 C130.9249 156 126 151.0751 126 145 C126 138.9249 130.9249 134 137 134 C143.0751 134 148 138.9249 148 145 Z"
      /></clipPath
      ><clipPath clipPathUnits="userSpaceOnUse" id="clipPath7"
      ><path d="M252 93 C252 99.0751 247.0751 104 241 104 C234.9249 104 230 99.0751 230 93 C230 86.9249 234.9249 82 241 82 C247.0751 82 252 86.9249 252 93 Z"
      /></clipPath
      ><clipPath clipPathUnits="userSpaceOnUse" id="clipPath8"
      ><path d="M178 82 L200 82 L200 104 L178 104 L178 82 Z"
      /></clipPath
      ><clipPath clipPathUnits="userSpaceOnUse" id="clipPath9"
      ><path d="M230 30 L252 30 L252 52 L230 52 L230 30 Z"
      /></clipPath
      ><clipPath clipPathUnits="userSpaceOnUse" id="clipPath10"
      ><path style="fill-rule:evenodd;" d="M397 52 L386 30 L408 30 Z"
      /></clipPath
      ><clipPath clipPathUnits="userSpaceOnUse" id="clipPath11"
      ><path d="M30 82 L52 82 L52 104 L30 104 L30 82 Z"
      /></clipPath
    ></defs
    ><g style="fill:white; text-rendering:optimizeSpeed; stroke:white;"
    ><rect x="0" width="490" height="186" y="0" style="stroke:none;"
      /><polygon style="fill:none; stroke:black;" points=" 449 93 397 93"
      /><path d="M449 82 C443.5 87.5 454.5 98.5 449 104" style="fill:none; stroke:black;"
      /><polygon style="fill:none; stroke:black;" points=" 397 93 345 93"
      /><polygon style="fill:none; stroke:black;" points=" 397 93 397 41"
      /><rect x="386" y="82" width="22" style="clip-path:url(#clipPath1); stroke:none;" height="22"
      /><rect x="386" y="82" width="22" style="clip-path:url(#clipPath1); fill:rgb(0,144,188); stroke:none;" height="22"
      /><rect x="386" y="82" width="22" style="clip-path:url(#clipPath1); fill:none; stroke:black;" height="22"
      /><rect x="386" y="82" width="22" style="fill:none; stroke:black;" height="22"
      /><polygon style="fill:none; stroke:black;" points=" 345 93 293 93"
      /><rect x="334" y="82" width="22" style="clip-path:url(#clipPath2); stroke:none;" height="22"
      /><rect x="334" y="82" width="22" style="clip-path:url(#clipPath2); fill:rgb(0,144,188); stroke:none;" height="22"
      /><rect x="334" y="82" width="22" style="clip-path:url(#clipPath2); fill:none; stroke:black;" height="22"
      /><rect x="334" y="82" width="22" style="fill:none; stroke:black;" height="22"
      /><polygon style="fill:none; stroke:black;" points=" 293 93 241 145"
      /><polygon style="fill:none; stroke:black;" points=" 293 93 241 93"
      /><polygon style="fill:none; stroke:black;" points=" 293 93 241 41"
      /><circle style="clip-path:url(#clipPath3); stroke:none;" r="11" cx="293" cy="93"
      /><rect x="282" y="82" width="22" style="clip-path:url(#clipPath3); fill:rgb(0,166,81); stroke:none;" height="22"
      /><rect x="282" y="82" width="22" style="clip-path:url(#clipPath3); fill:none; stroke:black;" height="22"
      /><circle style="fill:none; stroke:black;" r="11" cx="293" cy="93"
      /><polygon style="fill:none; stroke:black;" points=" 241 145 189 145"
      /><circle style="clip-path:url(#clipPath4); stroke:none;" r="11" cx="241" cy="145"
      /><rect x="230" y="134" width="22" style="clip-path:url(#clipPath4); fill:rgb(0,166,81); stroke:none;" height="22"
      /><rect x="230" y="134" width="22" style="clip-path:url(#clipPath4); fill:none; stroke:black;" height="22"
      /><circle style="fill:none; stroke:black;" r="11" cx="241" cy="145"
      /><polygon style="fill:none; stroke:black;" points=" 189 145 137 145"
      /><rect x="178" y="134" width="22" style="clip-path:url(#clipPath5); stroke:none;" height="22"
      /><rect x="178" y="134" width="22" style="clip-path:url(#clipPath5); fill:rgb(0,144,188); stroke:none;" height="22"
      /><rect x="178" y="134" width="22" style="clip-path:url(#clipPath5); fill:none; stroke:black;" height="22"
      /><rect x="178" y="134" width="22" style="fill:none; stroke:black;" height="22"
      /><circle style="clip-path:url(#clipPath6); stroke:none;" r="11" cx="137" cy="145"
      /><rect x="126" y="134" width="22" style="clip-path:url(#clipPath6); fill:rgb(255,212,0); stroke:none;" height="22"
      /><rect x="126" y="134" width="22" style="clip-path:url(#clipPath6); fill:none; stroke:black;" height="22"
      /><circle style="fill:none; stroke:black;" r="11" cx="137" cy="145"
      /><rect x="167" y="148" width="5" style="stroke:none;" height="10"
    /></g
    ><g style="font-family:'Serif'; text-rendering:optimizeSpeed; "
    ><path style="stroke:none;" d="M168.8906 156.6875 C168.4844 156.6875 168.1562 157.0469 168.1562 157.4219 C168.1562 157.8125 168.4844 158.1562 168.8906 158.1562 C169.2969 158.1562 169.6406 157.8125 169.6406 157.4219 C169.6406 157.0469 169.2969 156.6875 168.8906 156.6875 ZM170.4688 150.5781 C170.7188 150.8906 170.875 151.2656 170.8906 151.6562 C170.8906 152.1875 170.625 152.5 170.0312 152.7656 L169.4062 153.0156 C168.6406 153.3125 168.3906 153.5469 168.3906 153.9375 C168.3906 154.1094 168.4531 154.3438 168.5781 154.8125 L168.7344 155.3438 L169.1094 155.3438 L169.0938 154.5312 C169.0938 154.0938 169.2031 153.9688 169.7812 153.7344 L170.2031 153.5625 C171.0312 153.2188 171.4531 152.6875 171.4531 151.8438 C171.4531 150.1562 169.6562 149.1875 168.5 149.0312 C168.1094 149.125 167.9062 149.2969 167.9062 149.6406 C167.9062 149.9375 168.0625 150.1562 168.7188 150.2656 L170.4688 150.5781 Z"
      /><rect x="153" y="148" width="5" style="fill:white; stroke:none;" height="10"
      /><path style="stroke:none;" d="M154.8906 156.6875 C154.4844 156.6875 154.1562 157.0469 154.1562 157.4219 C154.1562 157.8125 154.4844 158.1562 154.8906 158.1562 C155.2969 158.1562 155.6406 157.8125 155.6406 157.4219 C155.6406 157.0469 155.2969 156.6875 154.8906 156.6875 ZM156.4688 150.5781 C156.7188 150.8906 156.875 151.2656 156.8906 151.6562 C156.8906 152.1875 156.625 152.5 156.0312 152.7656 L155.4062 153.0156 C154.6406 153.3125 154.3906 153.5469 154.3906 153.9375 C154.3906 154.1094 154.4531 154.3438 154.5781 154.8125 L154.7344 155.3438 L155.1094 155.3438 L155.0938 154.5312 C155.0938 154.0938 155.2031 153.9688 155.7812 153.7344 L156.2031 153.5625 C157.0312 153.2188 157.4531 152.6875 157.4531 151.8438 C157.4531 150.1562 155.6562 149.1875 154.5 149.0312 C154.1094 149.125 153.9062 149.2969 153.9062 149.6406 C153.9062 149.9375 154.0625 150.1562 154.7188 150.2656 L156.4688 150.5781 Z"
      /><rect x="219" y="148" width="5" style="fill:white; stroke:none;" height="10"
      /><path style="stroke:none;" d="M220.8906 156.6875 C220.4844 156.6875 220.1562 157.0469 220.1562 157.4219 C220.1562 157.8125 220.4844 158.1562 220.8906 158.1562 C221.2969 158.1562 221.6406 157.8125 221.6406 157.4219 C221.6406 157.0469 221.2969 156.6875 220.8906 156.6875 ZM222.4688 150.5781 C222.7188 150.8906 222.875 151.2656 222.8906 151.6562 C222.8906 152.1875 222.625 152.5 222.0312 152.7656 L221.4062 153.0156 C220.6406 153.3125 220.3906 153.5469 220.3906 153.9375 C220.3906 154.1094 220.4531 154.3438 220.5781 154.8125 L220.7344 155.3438 L221.1094 155.3438 L221.0938 154.5312 C221.0938 154.0938 221.2031 153.9688 221.7812 153.7344 L222.2031 153.5625 C223.0312 153.2188 223.4531 152.6875 223.4531 151.8438 C223.4531 150.1562 221.6562 149.1875 220.5 149.0312 C220.1094 149.125 219.9062 149.2969 219.9062 149.6406 C219.9062 149.9375 220.0625 150.1562 220.7188 150.2656 L222.4688 150.5781 Z"
      /><rect x="205" y="148" width="5" style="fill:white; stroke:none;" height="10"
      /><path style="stroke:none;" d="M206.8906 156.6875 C206.4844 156.6875 206.1562 157.0469 206.1562 157.4219 C206.1562 157.8125 206.4844 158.1562 206.8906 158.1562 C207.2969 158.1562 207.6406 157.8125 207.6406 157.4219 C207.6406 157.0469 207.2969 156.6875 206.8906 156.6875 ZM208.4688 150.5781 C208.7188 150.8906 208.875 151.2656 208.8906 151.6562 C208.8906 152.1875 208.625 152.5 208.0312 152.7656 L207.4062 153.0156 C206.6406 153.3125 206.3906 153.5469 206.3906 153.9375 C206.3906 154.1094 206.4531 154.3438 206.5781 154.8125 L206.7344 155.3438 L207.1094 155.3438 L207.0938 154.5312 C207.0938 154.0938 207.2031 153.9688 207.7812 153.7344 L208.2031 153.5625 C209.0312 153.2188 209.4531 152.6875 209.4531 151.8438 C209.4531 150.1562 207.6562 149.1875 206.5 149.0312 C206.1094 149.125 205.9062 149.2969 205.9062 149.6406 C205.9062 149.9375 206.0625 150.1562 206.7188 150.2656 L208.4688 150.5781 Z"
      /><polygon style="fill:none;" points=" 241 93 189 93"
      /><circle style="fill:white; clip-path:url(#clipPath7); stroke:none;" r="11" cx="241" cy="93"
      /><rect x="230" y="82" width="22" style="clip-path:url(#clipPath7); fill:rgb(0,166,81); stroke:none;" height="22"
      /><rect x="230" y="82" width="22" style="fill:none; clip-path:url(#clipPath7);" height="22"
      /><circle r="11" style="fill:none;" cx="241" cy="93"
      /><rect x="178" y="82" width="22" style="clip-path:url(#clipPath8); fill:white; stroke:none;" height="22"
      /><rect x="178" y="82" width="22" style="clip-path:url(#clipPath8); fill:rgb(0,144,188); stroke:none;" height="22"
      /><rect x="178" y="82" width="22" style="fill:none; clip-path:url(#clipPath8);" height="22"
      /><rect x="178" width="22" height="22" y="82" style="fill:none;"
      /><rect x="219" y="96" width="5" style="fill:white; stroke:none;" height="10"
      /><path style="stroke:none;" d="M220.8906 104.6875 C220.4844 104.6875 220.1562 105.0469 220.1562 105.4219 C220.1562 105.8125 220.4844 106.1562 220.8906 106.1562 C221.2969 106.1562 221.6406 105.8125 221.6406 105.4219 C221.6406 105.0469 221.2969 104.6875 220.8906 104.6875 ZM222.4688 98.5781 C222.7188 98.8906 222.875 99.2656 222.8906 99.6562 C222.8906 100.1875 222.625 100.5 222.0312 100.7656 L221.4062 101.0156 C220.6406 101.3125 220.3906 101.5469 220.3906 101.9375 C220.3906 102.1094 220.4531 102.3438 220.5781 102.8125 L220.7344 103.3438 L221.1094 103.3438 L221.0938 102.5312 C221.0938 102.0938 221.2031 101.9688 221.7812 101.7344 L222.2031 101.5625 C223.0312 101.2188 223.4531 100.6875 223.4531 99.8438 C223.4531 98.1562 221.6562 97.1875 220.5 97.0312 C220.1094 97.125 219.9062 97.2969 219.9062 97.6406 C219.9062 97.9375 220.0625 98.1562 220.7188 98.2656 L222.4688 98.5781 Z"
      /><rect x="205" y="96" width="5" style="fill:white; stroke:none;" height="10"
      /><path style="stroke:none;" d="M206.8906 104.6875 C206.4844 104.6875 206.1562 105.0469 206.1562 105.4219 C206.1562 105.8125 206.4844 106.1562 206.8906 106.1562 C207.2969 106.1562 207.6406 105.8125 207.6406 105.4219 C207.6406 105.0469 207.2969 104.6875 206.8906 104.6875 ZM208.4688 98.5781 C208.7188 98.8906 208.875 99.2656 208.8906 99.6562 C208.8906 100.1875 208.625 100.5 208.0312 100.7656 L207.4062 101.0156 C206.6406 101.3125 206.3906 101.5469 206.3906 101.9375 C206.3906 102.1094 206.4531 102.3438 206.5781 102.8125 L206.7344 103.3438 L207.1094 103.3438 L207.0938 102.5312 C207.0938 102.0938 207.2031 101.9688 207.7812 101.7344 L208.2031 101.5625 C209.0312 101.2188 209.4531 100.6875 209.4531 99.8438 C209.4531 98.1562 207.6562 97.1875 206.5 97.0312 C206.1094 97.125 205.9062 97.2969 205.9062 97.6406 C205.9062 97.9375 206.0625 98.1562 206.7188 98.2656 L208.4688 98.5781 Z"
      /><rect x="230" y="30" width="22" style="clip-path:url(#clipPath9); fill:white; stroke:none;" height="22"
      /><rect x="230" y="30" width="22" style="clip-path:url(#clipPath9); fill:rgb(0,144,188); stroke:none;" height="22"
      /><rect x="230" y="30" width="22" style="fill:none; clip-path:url(#clipPath9);" height="22"
      /><rect x="230" width="22" height="22" y="30" style="fill:none;"
      /><rect x="279" y="110" width="5" style="fill:white; stroke:none;" height="10"
      /><path style="stroke:none;" d="M280.8906 118.6875 C280.4844 118.6875 280.1562 119.0469 280.1562 119.4219 C280.1562 119.8125 280.4844 120.1562 280.8906 120.1562 C281.2969 120.1562 281.6406 119.8125 281.6406 119.4219 C281.6406 119.0469 281.2969 118.6875 280.8906 118.6875 ZM282.4688 112.5781 C282.7188 112.8906 282.875 113.2656 282.8906 113.6562 C282.8906 114.1875 282.625 114.5 282.0312 114.7656 L281.4062 115.0156 C280.6406 115.3125 280.3906 115.5469 280.3906 115.9375 C280.3906 116.1094 280.4531 116.3438 280.5781 116.8125 L280.7344 117.3438 L281.1094 117.3438 L281.0938 116.5312 C281.0938 116.0938 281.2031 115.9688 281.7812 115.7344 L282.2031 115.5625 C283.0312 115.2188 283.4531 114.6875 283.4531 113.8438 C283.4531 112.1562 281.6562 111.1875 280.5 111.0312 C280.1094 111.125 279.9062 111.2969 279.9062 111.6406 C279.9062 111.9375 280.0625 112.1562 280.7188 112.2656 L282.4688 112.5781 Z"
      /><rect x="260" y="129" width="5" style="fill:white; stroke:none;" height="10"
      /><path style="stroke:none;" d="M261.8906 137.6875 C261.4844 137.6875 261.1562 138.0469 261.1562 138.4219 C261.1562 138.8125 261.4844 139.1562 261.8906 139.1562 C262.2969 139.1562 262.6406 138.8125 262.6406 138.4219 C262.6406 138.0469 262.2969 137.6875 261.8906 137.6875 ZM263.4688 131.5781 C263.7188 131.8906 263.875 132.2656 263.8906 132.6562 C263.8906 133.1875 263.625 133.5 263.0312 133.7656 L262.4062 134.0156 C261.6406 134.3125 261.3906 134.5469 261.3906 134.9375 C261.3906 135.1094 261.4531 135.3438 261.5781 135.8125 L261.7344 136.3438 L262.1094 136.3438 L262.0938 135.5312 C262.0938 135.0938 262.2031 134.9688 262.7812 134.7344 L263.2031 134.5625 C264.0312 134.2188 264.4531 133.6875 264.4531 132.8438 C264.4531 131.1562 262.6562 130.1875 261.5 130.0312 C261.1094 130.125 260.9062 130.2969 260.9062 130.6406 C260.9062 130.9375 261.0625 131.1562 261.7188 131.2656 L263.4688 131.5781 Z"
      /><rect x="271" y="96" width="5" style="fill:white; stroke:none;" height="10"
      /><path style="stroke:none;" d="M272.8906 104.6875 C272.4844 104.6875 272.1562 105.0469 272.1562 105.4219 C272.1562 105.8125 272.4844 106.1562 272.8906 106.1562 C273.2969 106.1562 273.6406 105.8125 273.6406 105.4219 C273.6406 105.0469 273.2969 104.6875 272.8906 104.6875 ZM274.4688 98.5781 C274.7188 98.8906 274.875 99.2656 274.8906 99.6562 C274.8906 100.1875 274.625 100.5 274.0312 100.7656 L273.4062 101.0156 C272.6406 101.3125 272.3906 101.5469 272.3906 101.9375 C272.3906 102.1094 272.4531 102.3438 272.5781 102.8125 L272.7344 103.3438 L273.1094 103.3438 L273.0938 102.5312 C273.0938 102.0938 273.2031 101.9688 273.7812 101.7344 L274.2031 101.5625 C275.0312 101.2188 275.4531 100.6875 275.4531 99.8438 C275.4531 98.1562 273.6562 97.1875 272.5 97.0312 C272.1094 97.125 271.9062 97.2969 271.9062 97.6406 C271.9062 97.9375 272.0625 98.1562 272.7188 98.2656 L274.4688 98.5781 Z"
      /><rect x="257" y="96" width="5" style="fill:white; stroke:none;" height="10"
      /><path style="stroke:none;" d="M258.8906 104.6875 C258.4844 104.6875 258.1562 105.0469 258.1562 105.4219 C258.1562 105.8125 258.4844 106.1562 258.8906 106.1562 C259.2969 106.1562 259.6406 105.8125 259.6406 105.4219 C259.6406 105.0469 259.2969 104.6875 258.8906 104.6875 ZM260.4688 98.5781 C260.7188 98.8906 260.875 99.2656 260.8906 99.6562 C260.8906 100.1875 260.625 100.5 260.0312 100.7656 L259.4062 101.0156 C258.6406 101.3125 258.3906 101.5469 258.3906 101.9375 C258.3906 102.1094 258.4531 102.3438 258.5781 102.8125 L258.7344 103.3438 L259.1094 103.3438 L259.0938 102.5312 C259.0938 102.0938 259.2031 101.9688 259.7812 101.7344 L260.2031 101.5625 C261.0312 101.2188 261.4531 100.6875 261.4531 99.8438 C261.4531 98.1562 259.6562 97.1875 258.5 97.0312 C258.1094 97.125 257.9062 97.2969 257.9062 97.6406 C257.9062 97.9375 258.0625 98.1562 258.7188 98.2656 L260.4688 98.5781 Z"
      /><rect x="268" y="77" width="5" style="fill:white; stroke:none;" height="10"
      /><path style="stroke:none;" d="M269.8906 85.6875 C269.4844 85.6875 269.1562 86.0469 269.1562 86.4219 C269.1562 86.8125 269.4844 87.1562 269.8906 87.1562 C270.2969 87.1562 270.6406 86.8125 270.6406 86.4219 C270.6406 86.0469 270.2969 85.6875 269.8906 85.6875 ZM271.4688 79.5781 C271.7188 79.8906 271.875 80.2656 271.8906 80.6562 C271.8906 81.1875 271.625 81.5 271.0312 81.7656 L270.4062 82.0156 C269.6406 82.3125 269.3906 82.5469 269.3906 82.9375 C269.3906 83.1094 269.4531 83.3438 269.5781 83.8125 L269.7344 84.3438 L270.1094 84.3438 L270.0938 83.5312 C270.0938 83.0938 270.2031 82.9688 270.7812 82.7344 L271.2031 82.5625 C272.0312 82.2188 272.4531 81.6875 272.4531 80.8438 C272.4531 79.1562 270.6562 78.1875 269.5 78.0312 C269.1094 78.125 268.9062 78.2969 268.9062 78.6406 C268.9062 78.9375 269.0625 79.1562 269.7188 79.2656 L271.4688 79.5781 Z"
      /><rect x="249" y="58" width="5" style="fill:white; stroke:none;" height="10"
      /><path style="stroke:none;" d="M250.8906 66.6875 C250.4844 66.6875 250.1562 67.0469 250.1562 67.4219 C250.1562 67.8125 250.4844 68.1562 250.8906 68.1562 C251.2969 68.1562 251.6406 67.8125 251.6406 67.4219 C251.6406 67.0469 251.2969 66.6875 250.8906 66.6875 ZM252.4688 60.5781 C252.7188 60.8906 252.875 61.2656 252.8906 61.6562 C252.8906 62.1875 252.625 62.5 252.0312 62.7656 L251.4062 63.0156 C250.6406 63.3125 250.3906 63.5469 250.3906 63.9375 C250.3906 64.1094 250.4531 64.3438 250.5781 64.8125 L250.7344 65.3438 L251.1094 65.3438 L251.0938 64.5312 C251.0938 64.0938 251.2031 63.9688 251.7812 63.7344 L252.2031 63.5625 C253.0312 63.2188 253.4531 62.6875 253.4531 61.8438 C253.4531 60.1562 251.6562 59.1875 250.5 59.0312 C250.1094 59.125 249.9062 59.2969 249.9062 59.6406 C249.9062 59.9375 250.0625 60.1562 250.7188 60.2656 L252.4688 60.5781 Z"
      /><rect x="323" y="96" width="5" style="fill:white; stroke:none;" height="10"
      /><path style="stroke:none;" d="M324.8906 104.6875 C324.4844 104.6875 324.1562 105.0469 324.1562 105.4219 C324.1562 105.8125 324.4844 106.1562 324.8906 106.1562 C325.2969 106.1562 325.6406 105.8125 325.6406 105.4219 C325.6406 105.0469 325.2969 104.6875 324.8906 104.6875 ZM326.4688 98.5781 C326.7188 98.8906 326.875 99.2656 326.8906 99.6562 C326.8906 100.1875 326.625 100.5 326.0312 100.7656 L325.4062 101.0156 C324.6406 101.3125 324.3906 101.5469 324.3906 101.9375 C324.3906 102.1094 324.4531 102.3438 324.5781 102.8125 L324.7344 103.3438 L325.1094 103.3438 L325.0938 102.5312 C325.0938 102.0938 325.2031 101.9688 325.7812 101.7344 L326.2031 101.5625 C327.0312 101.2188 327.4531 100.6875 327.4531 99.8438 C327.4531 98.1562 325.6562 97.1875 324.5 97.0312 C324.1094 97.125 323.9062 97.2969 323.9062 97.6406 C323.9062 97.9375 324.0625 98.1562 324.7188 98.2656 L326.4688 98.5781 Z"
      /><rect x="309" y="96" width="5" style="fill:white; stroke:none;" height="10"
      /><path style="stroke:none;" d="M310.8906 104.6875 C310.4844 104.6875 310.1562 105.0469 310.1562 105.4219 C310.1562 105.8125 310.4844 106.1562 310.8906 106.1562 C311.2969 106.1562 311.6406 105.8125 311.6406 105.4219 C311.6406 105.0469 311.2969 104.6875 310.8906 104.6875 ZM312.4688 98.5781 C312.7188 98.8906 312.875 99.2656 312.8906 99.6562 C312.8906 100.1875 312.625 100.5 312.0312 100.7656 L311.4062 101.0156 C310.6406 101.3125 310.3906 101.5469 310.3906 101.9375 C310.3906 102.1094 310.4531 102.3438 310.5781 102.8125 L310.7344 103.3438 L311.1094 103.3438 L311.0938 102.5312 C311.0938 102.0938 311.2031 101.9688 311.7812 101.7344 L312.2031 101.5625 C313.0312 101.2188 313.4531 100.6875 313.4531 99.8438 C313.4531 98.1562 311.6562 97.1875 310.5 97.0312 C310.1094 97.125 309.9062 97.2969 309.9062 97.6406 C309.9062 97.9375 310.0625 98.1562 310.7188 98.2656 L312.4688 98.5781 Z"
      /><polygon style="fill:white; clip-path:url(#clipPath10); stroke:none;" points=" 397 52 386 30 408 30"
      /><rect x="386" y="30" width="22" style="clip-path:url(#clipPath10); fill:rgb(237,28,36); stroke:none;" height="22"
      /><rect x="386" y="30" width="22" style="fill:none; clip-path:url(#clipPath10);" height="22"
      /><polygon style="fill:none;" points=" 397 52 386 30 408 30"
      /><rect x="375" y="96" width="5" style="fill:white; stroke:none;" height="10"
      /><path style="stroke:none;" d="M376.8906 104.6875 C376.4844 104.6875 376.1562 105.0469 376.1562 105.4219 C376.1562 105.8125 376.4844 106.1562 376.8906 106.1562 C377.2969 106.1562 377.6406 105.8125 377.6406 105.4219 C377.6406 105.0469 377.2969 104.6875 376.8906 104.6875 ZM378.4688 98.5781 C378.7188 98.8906 378.875 99.2656 378.8906 99.6562 C378.8906 100.1875 378.625 100.5 378.0312 100.7656 L377.4062 101.0156 C376.6406 101.3125 376.3906 101.5469 376.3906 101.9375 C376.3906 102.1094 376.4531 102.3438 376.5781 102.8125 L376.7344 103.3438 L377.1094 103.3438 L377.0938 102.5312 C377.0938 102.0938 377.2031 101.9688 377.7812 101.7344 L378.2031 101.5625 C379.0312 101.2188 379.4531 100.6875 379.4531 99.8438 C379.4531 98.1562 377.6562 97.1875 376.5 97.0312 C376.1094 97.125 375.9062 97.2969 375.9062 97.6406 C375.9062 97.9375 376.0625 98.1562 376.7188 98.2656 L378.4688 98.5781 Z"
      /><rect x="361" y="96" width="5" style="fill:white; stroke:none;" height="10"
      /><path style="stroke:none;" d="M362.8906 104.6875 C362.4844 104.6875 362.1562 105.0469 362.1562 105.4219 C362.1562 105.8125 362.4844 106.1562 362.8906 106.1562 C363.2969 106.1562 363.6406 105.8125 363.6406 105.4219 C363.6406 105.0469 363.2969 104.6875 362.8906 104.6875 ZM364.4688 98.5781 C364.7188 98.8906 364.875 99.2656 364.8906 99.6562 C364.8906 100.1875 364.625 100.5 364.0312 100.7656 L363.4062 101.0156 C362.6406 101.3125 362.3906 101.5469 362.3906 101.9375 C362.3906 102.1094 362.4531 102.3438 362.5781 102.8125 L362.7344 103.3438 L363.1094 103.3438 L363.0938 102.5312 C363.0938 102.0938 363.2031 101.9688 363.7812 101.7344 L364.2031 101.5625 C365.0312 101.2188 365.4531 100.6875 365.4531 99.8438 C365.4531 98.1562 363.6562 97.1875 362.5 97.0312 C362.1094 97.125 361.9062 97.2969 361.9062 97.6406 C361.9062 97.9375 362.0625 98.1562 362.7188 98.2656 L364.4688 98.5781 Z"
      /><rect x="386" y="69" width="5" style="fill:white; stroke:none;" height="10"
      /><path style="stroke:none;" d="M387.8906 77.6875 C387.4844 77.6875 387.1562 78.0469 387.1562 78.4219 C387.1562 78.8125 387.4844 79.1562 387.8906 79.1562 C388.2969 79.1562 388.6406 78.8125 388.6406 78.4219 C388.6406 78.0469 388.2969 77.6875 387.8906 77.6875 ZM389.4688 71.5781 C389.7188 71.8906 389.875 72.2656 389.8906 72.6562 C389.8906 73.1875 389.625 73.5 389.0312 73.7656 L388.4062 74.0156 C387.6406 74.3125 387.3906 74.5469 387.3906 74.9375 C387.3906 75.1094 387.4531 75.3438 387.5781 75.8125 L387.7344 76.3438 L388.1094 76.3438 L388.0938 75.5312 C388.0938 75.0938 388.2031 74.9688 388.7812 74.7344 L389.2031 74.5625 C390.0312 74.2188 390.4531 73.6875 390.4531 72.8438 C390.4531 71.1562 388.6562 70.1875 387.5 70.0312 C387.1094 70.125 386.9062 70.2969 386.9062 70.6406 C386.9062 70.9375 387.0625 71.1562 387.7188 71.2656 L389.4688 71.5781 Z"
      /><rect x="386" y="55" width="5" style="fill:white; stroke:none;" height="10"
      /><path style="stroke:none;" d="M387.8906 63.6875 C387.4844 63.6875 387.1562 64.0469 387.1562 64.4219 C387.1562 64.8125 387.4844 65.1562 387.8906 65.1562 C388.2969 65.1562 388.6406 64.8125 388.6406 64.4219 C388.6406 64.0469 388.2969 63.6875 387.8906 63.6875 ZM389.4688 57.5781 C389.7188 57.8906 389.875 58.2656 389.8906 58.6562 C389.8906 59.1875 389.625 59.5 389.0312 59.7656 L388.4062 60.0156 C387.6406 60.3125 387.3906 60.5469 387.3906 60.9375 C387.3906 61.1094 387.4531 61.3438 387.5781 61.8125 L387.7344 62.3438 L388.1094 62.3438 L388.0938 61.5312 C388.0938 61.0938 388.2031 60.9688 388.7812 60.7344 L389.2031 60.5625 C390.0312 60.2188 390.4531 59.6875 390.4531 58.8438 C390.4531 57.1562 388.6562 56.1875 387.5 56.0312 C387.1094 56.125 386.9062 56.2969 386.9062 56.6406 C386.9062 56.9375 387.0625 57.1562 387.7188 57.2656 L389.4688 57.5781 Z"
      /><rect x="413" y="96" width="5" style="fill:white; stroke:none;" height="10"
      /><path style="stroke:none;" d="M414.8906 104.6875 C414.4844 104.6875 414.1562 105.0469 414.1562 105.4219 C414.1562 105.8125 414.4844 106.1562 414.8906 106.1562 C415.2969 106.1562 415.6406 105.8125 415.6406 105.4219 C415.6406 105.0469 415.2969 104.6875 414.8906 104.6875 ZM416.4688 98.5781 C416.7188 98.8906 416.875 99.2656 416.8906 99.6562 C416.8906 100.1875 416.625 100.5 416.0312 100.7656 L415.4062 101.0156 C414.6406 101.3125 414.3906 101.5469 414.3906 101.9375 C414.3906 102.1094 414.4531 102.3438 414.5781 102.8125 L414.7344 103.3438 L415.1094 103.3438 L415.0938 102.5312 C415.0938 102.0938 415.2031 101.9688 415.7812 101.7344 L416.2031 101.5625 C417.0312 101.2188 417.4531 100.6875 417.4531 99.8438 C417.4531 98.1562 415.6562 97.1875 414.5 97.0312 C414.1094 97.125 413.9062 97.2969 413.9062 97.6406 C413.9062 97.9375 414.0625 98.1562 414.7188 98.2656 L416.4688 98.5781 Z"
      /><polygon style="fill:none;" points=" 126 156 115 156 115 30 126 30 115 30 115 156"
      /><polygon style="fill:none;" points=" 93 93 41 93"
      /><rect x="30" y="82" width="22" style="clip-path:url(#clipPath11); fill:white; stroke:none;" height="22"
      /><rect x="30" y="82" width="22" style="clip-path:url(#clipPath11); fill:rgb(0,144,188); stroke:none;" height="22"
      /><rect x="30" y="82" width="22" style="fill:none; clip-path:url(#clipPath11);" height="22"
      /><rect x="30" width="22" height="22" y="82" style="fill:none;"
      /><rect x="71" y="96" width="5" style="fill:white; stroke:none;" height="10"
      /><path style="stroke:none;" d="M72.8906 104.6875 C72.4844 104.6875 72.1562 105.0469 72.1562 105.4219 C72.1562 105.8125 72.4844 106.1562 72.8906 106.1562 C73.2969 106.1562 73.6406 105.8125 73.6406 105.4219 C73.6406 105.0469 73.2969 104.6875 72.8906 104.6875 ZM74.4688 98.5781 C74.7188 98.8906 74.875 99.2656 74.8906 99.6562 C74.8906 100.1875 74.625 100.5 74.0312 100.7656 L73.4062 101.0156 C72.6406 101.3125 72.3906 101.5469 72.3906 101.9375 C72.3906 102.1094 72.4531 102.3438 72.5781 102.8125 L72.7344 103.3438 L73.1094 103.3438 L73.0938 102.5312 C73.0938 102.0938 73.2031 101.9688 73.7812 101.7344 L74.2031 101.5625 C75.0312 101.2188 75.4531 100.6875 75.4531 99.8438 C75.4531 98.1562 73.6562 97.1875 72.5 97.0312 C72.1094 97.125 71.9062 97.2969 71.9062 97.6406 C71.9062 97.9375 72.0625 98.1562 72.7188 98.2656 L74.4688 98.5781 Z"
      /><rect x="57" y="96" width="5" style="fill:white; stroke:none;" height="10"
      /><path style="stroke:none;" d="M58.8906 104.6875 C58.4844 104.6875 58.1562 105.0469 58.1562 105.4219 C58.1562 105.8125 58.4844 106.1562 58.8906 106.1562 C59.2969 106.1562 59.6406 105.8125 59.6406 105.4219 C59.6406 105.0469 59.2969 104.6875 58.8906 104.6875 ZM60.4688 98.5781 C60.7188 98.8906 60.875 99.2656 60.8906 99.6562 C60.8906 100.1875 60.625 100.5 60.0312 100.7656 L59.4062 101.0156 C58.6406 101.3125 58.3906 101.5469 58.3906 101.9375 C58.3906 102.1094 58.4531 102.3438 58.5781 102.8125 L58.7344 103.3438 L59.1094 103.3438 L59.0938 102.5312 C59.0938 102.0938 59.2031 101.9688 59.7812 101.7344 L60.2031 101.5625 C61.0312 101.2188 61.4531 100.6875 61.4531 99.8438 C61.4531 98.1562 59.6562 97.1875 58.5 97.0312 C58.1094 97.125 57.9062 97.2969 57.9062 97.6406 C57.9062 97.9375 58.0625 98.1562 58.7188 98.2656 L60.4688 98.5781 Z"
    /></g
  ></g
></svg
>
