<?xml version="1.0"?>
<!DOCTYPE svg PUBLIC '-//W3C//DTD SVG 1.0//EN'
          'http://www.w3.org/TR/2001/REC-SVG-20010904/DTD/svg10.dtd'>
<svg xmlns:xlink="http://www.w3.org/1999/xlink" style="fill-opacity:1; color-rendering:auto; color-interpolation:auto; text-rendering:auto; stroke:black; stroke-linecap:square; stroke-miterlimit:10; shape-rendering:auto; stroke-opacity:1; fill:black; stroke-dasharray:none; font-weight:normal; stroke-width:1; font-family:'Dialog'; font-style:normal; stroke-linejoin:miter; font-size:12px; stroke-dashoffset:0; image-rendering:auto;" viewBox="0 0 290 238" xmlns="http://www.w3.org/2000/svg"
><!--Generated by the Batik Graphics2D SVG Generator--><defs id="genericDefs"
  /><g
  ><defs id="defs1"
    ><clipPath clipPathUnits="userSpaceOnUse" id="clipPath1"
      ><path d="M208 197 C208 203.0751 203.0751 208 197 208 C190.9249 208 186 203.0751 186 197 C186 190.9249 190.9249 186 197 186 C203.0751 186 208 190.9249 208 197 Z"
      /></clipPath
      ><clipPath clipPathUnits="userSpaceOnUse" id="clipPath2"
      ><path d="M156 197 C156 203.0751 151.0751 208 145 208 C138.9249 208 134 203.0751 134 197 C134 190.9249 138.9249 186 145 186 C151.0751 186 156 190.9249 156 197 Z"
      /></clipPath
      ><clipPath clipPathUnits="userSpaceOnUse" id="clipPath3"
      ><path d="M104 197 C104 203.0751 99.0751 208 93 208 C86.9249 208 82 203.0751 82 197 C82 190.9249 86.9249 186 93 186 C99.0751 186 104 190.9249 104 197 Z"
      /></clipPath
      ><clipPath clipPathUnits="userSpaceOnUse" id="clipPath4"
      ><path d="M30 186 L52 186 L52 208 L30 208 L30 186 Z"
      /></clipPath
      ><clipPath clipPathUnits="userSpaceOnUse" id="clipPath5"
      ><path style="fill-rule:evenodd;" d="M41 156 L30 134 L52 134 Z"
      /></clipPath
      ><clipPath clipPathUnits="userSpaceOnUse" id="clipPath6"
      ><path d="M52 93 C52 99.0751 47.0751 104 41 104 C34.9249 104 30 99.0751 30 93 C30 86.9249 34.9249 82 41 82 C47.0751 82 52 86.9249 52 93 Z"
      /></clipPath
      ><clipPath clipPathUnits="userSpaceOnUse" id="clipPath7"
      ><path d="M52 41 C52 47.0751 47.0751 52 41 52 C34.9249 52 30 47.0751 30 41 C30 34.9249 34.9249 30 41 30 C47.0751 30 52 34.9249 52 41 Z"
      /></clipPath
      ><clipPath clipPathUnits="userSpaceOnUse" id="clipPath8"
      ><path style="fill-rule:evenodd;" d="M145 134 L147 141 L155 141 L148 146 L151 153 L145 149 L138 153 L141 146 L134 141 L142 141 L145 134 Z"
      /></clipPath
    ></defs
    ><g style="fill:white; text-rendering:optimizeSpeed; stroke:white;"
    ><rect x="0" width="290" height="238" y="0" style="stroke:none;"
      /><polygon style="fill:none; stroke:black;" points=" 249 197 197 197"
      /><path d="M249 186 C243.5 191.5 254.5 202.5 249 208" style="fill:none; stroke:black;"
      /><polygon style="fill:none; stroke:black;" points=" 197 197 145 197"
      /><circle style="clip-path:url(#clipPath1); stroke:none;" r="11" cx="197" cy="197"
      /><rect x="186" y="186" width="22" style="clip-path:url(#clipPath1); fill:rgb(0,144,188); stroke:none;" height="22"
      /><rect x="186" y="186" width="22" style="clip-path:url(#clipPath1); fill:none; stroke:black;" height="22"
      /><circle style="fill:none; stroke:black;" r="11" cx="197" cy="197"
      /><polygon style="fill:none; stroke:black;" points=" 145 197 93 197"
      /><polygon style="fill:none; stroke:black;" points=" 145 197 145 145"
      /><circle style="clip-path:url(#clipPath2); stroke:none;" r="11" cx="145" cy="197"
      /><rect x="134" y="186" width="22" style="clip-path:url(#clipPath2); fill:rgb(0,166,81); stroke:none;" height="22"
      /><rect x="134" y="186" width="22" style="clip-path:url(#clipPath2); fill:none; stroke:black;" height="22"
      /><circle style="fill:none; stroke:black;" r="11" cx="145" cy="197"
      /><polygon style="fill:none; stroke:black;" points=" 93 197 41 197"
      /><circle style="clip-path:url(#clipPath3); stroke:none;" r="11" cx="93" cy="197"
      /><rect x="82" y="186" width="22" style="clip-path:url(#clipPath3); fill:rgb(0,166,81); stroke:none;" height="22"
      /><rect x="82" y="186" width="22" style="clip-path:url(#clipPath3); fill:none; stroke:black;" height="22"
      /><circle style="fill:none; stroke:black;" r="11" cx="93" cy="197"
      /><polygon style="fill:none; stroke:black;" points=" 41 197 41 145"
      /><rect x="30" y="186" width="22" style="clip-path:url(#clipPath4); stroke:none;" height="22"
      /><rect x="30" y="186" width="22" style="clip-path:url(#clipPath4); fill:rgb(0,144,188); stroke:none;" height="22"
      /><rect x="30" y="186" width="22" style="clip-path:url(#clipPath4); fill:none; stroke:black;" height="22"
      /><rect x="30" y="186" width="22" style="fill:none; stroke:black;" height="22"
      /><polygon style="fill:none; stroke:black;" points=" 41 145 41 93"
      /><polygon style="clip-path:url(#clipPath5); stroke:none;" points=" 41 156 30 134 52 134"
      /><rect x="30" y="134" width="22" style="clip-path:url(#clipPath5); fill:rgb(237,28,36); stroke:none;" height="22"
      /><rect x="30" y="134" width="22" style="clip-path:url(#clipPath5); fill:none; stroke:black;" height="22"
      /><polygon style="fill:none; stroke:black;" points=" 41 156 30 134 52 134"
      /><polygon style="fill:none; stroke:black;" points=" 41 93 41 41"
      /><circle style="clip-path:url(#clipPath6); stroke:none;" r="11" cx="41" cy="93"
      /><rect x="30" y="82" width="22" style="clip-path:url(#clipPath6); fill:rgb(0,144,188); stroke:none;" height="22"
      /><rect x="30" y="82" width="22" style="clip-path:url(#clipPath6); fill:none; stroke:black;" height="22"
      /><circle style="fill:none; stroke:black;" r="11" cx="41" cy="93"
      /><rect x="52" y="87" width="26" style="stroke:none;" height="10"
    /></g
    ><g style="text-rendering:optimizeSpeed; font-size:14px; font-family:'SansSerif';"
    ><path style="stroke:none;" d="M53.6094 94.1562 L55.9531 90.6562 C56.2344 90.1406 56.5156 89.6406 56.7812 89.1406 L56.8281 89.1406 C56.7969 89.6719 56.7656 90.5 56.7656 91 L56.7656 94.1562 L53.6094 94.1562 ZM56.7656 98 L57.9688 98 L57.9688 95.1719 L59.3281 95.1719 L59.3281 94.1562 L57.9688 94.1562 L57.9688 87.7188 L56.5469 87.7188 L52.2812 94.3281 L52.2812 95.1719 L56.7656 95.1719 L56.7656 98 ZM61.1762 98 L62.3481 98 L62.3481 92.3125 C62.3481 91.4375 62.2543 90.1875 62.1918 89.2969 L62.2543 89.2969 L63.0668 91.625 L65.0043 96.9688 L65.8793 96.9688 L67.8168 91.625 L68.6293 89.2969 L68.6918 89.2969 C68.6137 90.1875 68.52 91.4375 68.52 92.3125 L68.52 98 L69.7387 98 L69.7387 87.7188 L68.1762 87.7188 L66.2075 93.2188 C65.9731 93.9375 65.7543 94.6562 65.5043 95.375 L65.4418 95.375 C65.1918 94.6562 64.9575 93.9375 64.7075 93.2188 L62.7387 87.7188 L61.1762 87.7188 L61.1762 98 ZM75.4973 98.1875 C76.5285 98.1875 77.341 97.8281 78.0129 97.3906 L77.5442 96.5625 C76.9973 96.9375 76.3879 97.1562 75.6535 97.1562 C74.2004 97.1562 73.216 96.125 73.1223 94.5 L78.2473 94.5 C78.2785 94.3125 78.3098 94.0469 78.3098 93.7656 C78.3098 91.6094 77.216 90.2031 75.2785 90.2031 C73.5129 90.2031 71.8567 91.7344 71.8567 94.2031 C71.8567 96.7188 73.4817 98.1875 75.4973 98.1875 ZM73.1067 93.5781 C73.2629 92.0938 74.216 91.2188 75.2942 91.2188 C76.4817 91.2188 77.1848 92.0469 77.1848 93.5781 L73.1067 93.5781 Z"
    /></g
    ><g style="fill:white; text-rendering:optimizeSpeed; stroke:white;"
    ><circle r="11" style="clip-path:url(#clipPath7); stroke:none;" cx="41" cy="41"
      /><rect x="30" y="30" width="22" style="clip-path:url(#clipPath7); fill:rgb(255,212,0); stroke:none;" height="22"
      /><rect x="30" y="30" width="22" style="clip-path:url(#clipPath7); fill:none; stroke:black;" height="22"
      /><circle r="11" style="fill:none; stroke:black;" cx="41" cy="41"
      /><rect x="52" width="26" height="10" y="35" style="stroke:none;"
    /></g
    ><g style="text-rendering:optimizeSpeed; font-size:14px; font-family:'SansSerif';"
    ><path style="stroke:none;" d="M53.6094 42.1562 L55.9531 38.6562 C56.2344 38.1406 56.5156 37.6406 56.7812 37.1406 L56.8281 37.1406 C56.7969 37.6719 56.7656 38.5 56.7656 39 L56.7656 42.1562 L53.6094 42.1562 ZM56.7656 46 L57.9688 46 L57.9688 43.1719 L59.3281 43.1719 L59.3281 42.1562 L57.9688 42.1562 L57.9688 35.7188 L56.5469 35.7188 L52.2812 42.3281 L52.2812 43.1719 L56.7656 43.1719 L56.7656 46 ZM61.1762 46 L62.3481 46 L62.3481 40.3125 C62.3481 39.4375 62.2543 38.1875 62.1918 37.2969 L62.2543 37.2969 L63.0668 39.625 L65.0043 44.9688 L65.8793 44.9688 L67.8168 39.625 L68.6293 37.2969 L68.6918 37.2969 C68.6137 38.1875 68.52 39.4375 68.52 40.3125 L68.52 46 L69.7387 46 L69.7387 35.7188 L68.1762 35.7188 L66.2075 41.2188 C65.9731 41.9375 65.7543 42.6562 65.5043 43.375 L65.4418 43.375 C65.1918 42.6562 64.9575 41.9375 64.7075 41.2188 L62.7387 35.7188 L61.1762 35.7188 L61.1762 46 ZM75.4973 46.1875 C76.5285 46.1875 77.341 45.8281 78.0129 45.3906 L77.5442 44.5625 C76.9973 44.9375 76.3879 45.1562 75.6535 45.1562 C74.2004 45.1562 73.216 44.125 73.1223 42.5 L78.2473 42.5 C78.2785 42.3125 78.3098 42.0469 78.3098 41.7656 C78.3098 39.6094 77.216 38.2031 75.2785 38.2031 C73.5129 38.2031 71.8567 39.7344 71.8567 42.2031 C71.8567 44.7188 73.4817 46.1875 75.4973 46.1875 ZM73.1067 41.5781 C73.2629 40.0938 74.216 39.2188 75.2942 39.2188 C76.4817 39.2188 77.1848 40.0469 77.1848 41.5781 L73.1067 41.5781 Z"
    /></g
    ><g style="fill:white; text-rendering:optimizeSpeed; font-family:'Serif'; stroke:white;"
    ><rect x="30" width="5" height="10" y="69" style="stroke:none;"
      /><path d="M31.8906 77.6875 C31.4844 77.6875 31.1562 78.0469 31.1562 78.4219 C31.1562 78.8125 31.4844 79.1562 31.8906 79.1562 C32.2969 79.1562 32.6406 78.8125 32.6406 78.4219 C32.6406 78.0469 32.2969 77.6875 31.8906 77.6875 ZM33.4688 71.5781 C33.7188 71.8906 33.875 72.2656 33.8906 72.6562 C33.8906 73.1875 33.625 73.5 33.0312 73.7656 L32.4062 74.0156 C31.6406 74.3125 31.3906 74.5469 31.3906 74.9375 C31.3906 75.1094 31.4531 75.3438 31.5781 75.8125 L31.7344 76.3438 L32.1094 76.3438 L32.0938 75.5312 C32.0938 75.0938 32.2031 74.9688 32.7812 74.7344 L33.2031 74.5625 C34.0312 74.2188 34.4531 73.6875 34.4531 72.8438 C34.4531 71.1562 32.6562 70.1875 31.5 70.0312 C31.1094 70.125 30.9062 70.2969 30.9062 70.6406 C30.9062 70.9375 31.0625 71.1562 31.7188 71.2656 L33.4688 71.5781 Z" style="fill:black; stroke:none;"
      /><rect x="30" width="5" height="10" y="55" style="stroke:none;"
      /><path d="M31.8906 63.6875 C31.4844 63.6875 31.1562 64.0469 31.1562 64.4219 C31.1562 64.8125 31.4844 65.1562 31.8906 65.1562 C32.2969 65.1562 32.6406 64.8125 32.6406 64.4219 C32.6406 64.0469 32.2969 63.6875 31.8906 63.6875 ZM33.4688 57.5781 C33.7188 57.8906 33.875 58.2656 33.8906 58.6562 C33.8906 59.1875 33.625 59.5 33.0312 59.7656 L32.4062 60.0156 C31.6406 60.3125 31.3906 60.5469 31.3906 60.9375 C31.3906 61.1094 31.4531 61.3438 31.5781 61.8125 L31.7344 62.3438 L32.1094 62.3438 L32.0938 61.5312 C32.0938 61.0938 32.2031 60.9688 32.7812 60.7344 L33.2031 60.5625 C34.0312 60.2188 34.4531 59.6875 34.4531 58.8438 C34.4531 57.1562 32.6562 56.1875 31.5 56.0312 C31.1094 56.125 30.9062 56.2969 30.9062 56.6406 C30.9062 56.9375 31.0625 57.1562 31.7188 57.2656 L33.4688 57.5781 Z" style="fill:black; stroke:none;"
      /><rect x="30" width="5" height="10" y="121" style="stroke:none;"
      /><path d="M31.8906 129.6875 C31.4844 129.6875 31.1562 130.0469 31.1562 130.4219 C31.1562 130.8125 31.4844 131.1562 31.8906 131.1562 C32.2969 131.1562 32.6406 130.8125 32.6406 130.4219 C32.6406 130.0469 32.2969 129.6875 31.8906 129.6875 ZM33.4688 123.5781 C33.7188 123.8906 33.875 124.2656 33.8906 124.6562 C33.8906 125.1875 33.625 125.5 33.0312 125.7656 L32.4062 126.0156 C31.6406 126.3125 31.3906 126.5469 31.3906 126.9375 C31.3906 127.1094 31.4531 127.3438 31.5781 127.8125 L31.7344 128.3438 L32.1094 128.3438 L32.0938 127.5312 C32.0938 127.0938 32.2031 126.9688 32.7812 126.7344 L33.2031 126.5625 C34.0312 126.2188 34.4531 125.6875 34.4531 124.8438 C34.4531 123.1562 32.6562 122.1875 31.5 122.0312 C31.1094 122.125 30.9062 122.2969 30.9062 122.6406 C30.9062 122.9375 31.0625 123.1562 31.7188 123.2656 L33.4688 123.5781 Z" style="fill:black; stroke:none;"
      /><rect x="30" width="5" height="10" y="107" style="stroke:none;"
      /><path d="M31.8906 115.6875 C31.4844 115.6875 31.1562 116.0469 31.1562 116.4219 C31.1562 116.8125 31.4844 117.1562 31.8906 117.1562 C32.2969 117.1562 32.6406 116.8125 32.6406 116.4219 C32.6406 116.0469 32.2969 115.6875 31.8906 115.6875 ZM33.4688 109.5781 C33.7188 109.8906 33.875 110.2656 33.8906 110.6562 C33.8906 111.1875 33.625 111.5 33.0312 111.7656 L32.4062 112.0156 C31.6406 112.3125 31.3906 112.5469 31.3906 112.9375 C31.3906 113.1094 31.4531 113.3438 31.5781 113.8125 L31.7344 114.3438 L32.1094 114.3438 L32.0938 113.5312 C32.0938 113.0938 32.2031 112.9688 32.7812 112.7344 L33.2031 112.5625 C34.0312 112.2188 34.4531 111.6875 34.4531 110.8438 C34.4531 109.1562 32.6562 108.1875 31.5 108.0312 C31.1094 108.125 30.9062 108.2969 30.9062 108.6406 C30.9062 108.9375 31.0625 109.1562 31.7188 109.2656 L33.4688 109.5781 Z" style="fill:black; stroke:none;"
      /><rect x="30" width="5" height="10" y="173" style="stroke:none;"
      /><path d="M31.8906 181.6875 C31.4844 181.6875 31.1562 182.0469 31.1562 182.4219 C31.1562 182.8125 31.4844 183.1562 31.8906 183.1562 C32.2969 183.1562 32.6406 182.8125 32.6406 182.4219 C32.6406 182.0469 32.2969 181.6875 31.8906 181.6875 ZM33.4688 175.5781 C33.7188 175.8906 33.875 176.2656 33.8906 176.6562 C33.8906 177.1875 33.625 177.5 33.0312 177.7656 L32.4062 178.0156 C31.6406 178.3125 31.3906 178.5469 31.3906 178.9375 C31.3906 179.1094 31.4531 179.3438 31.5781 179.8125 L31.7344 180.3438 L32.1094 180.3438 L32.0938 179.5312 C32.0938 179.0938 32.2031 178.9688 32.7812 178.7344 L33.2031 178.5625 C34.0312 178.2188 34.4531 177.6875 34.4531 176.8438 C34.4531 175.1562 32.6562 174.1875 31.5 174.0312 C31.1094 174.125 30.9062 174.2969 30.9062 174.6406 C30.9062 174.9375 31.0625 175.1562 31.7188 175.2656 L33.4688 175.5781 Z" style="fill:black; stroke:none;"
      /><rect x="30" width="5" height="10" y="159" style="stroke:none;"
      /><path d="M31.8906 167.6875 C31.4844 167.6875 31.1562 168.0469 31.1562 168.4219 C31.1562 168.8125 31.4844 169.1562 31.8906 169.1562 C32.2969 169.1562 32.6406 168.8125 32.6406 168.4219 C32.6406 168.0469 32.2969 167.6875 31.8906 167.6875 ZM33.4688 161.5781 C33.7188 161.8906 33.875 162.2656 33.8906 162.6562 C33.8906 163.1875 33.625 163.5 33.0312 163.7656 L32.4062 164.0156 C31.6406 164.3125 31.3906 164.5469 31.3906 164.9375 C31.3906 165.1094 31.4531 165.3438 31.5781 165.8125 L31.7344 166.3438 L32.1094 166.3438 L32.0938 165.5312 C32.0938 165.0938 32.2031 164.9688 32.7812 164.7344 L33.2031 164.5625 C34.0312 164.2188 34.4531 163.6875 34.4531 162.8438 C34.4531 161.1562 32.6562 160.1875 31.5 160.0312 C31.1094 160.125 30.9062 160.2969 30.9062 160.6406 C30.9062 160.9375 31.0625 161.1562 31.7188 161.2656 L33.4688 161.5781 Z" style="fill:black; stroke:none;"
      /><rect x="71" width="5" height="10" y="200" style="stroke:none;"
      /><path d="M72.8906 208.6875 C72.4844 208.6875 72.1562 209.0469 72.1562 209.4219 C72.1562 209.8125 72.4844 210.1562 72.8906 210.1562 C73.2969 210.1562 73.6406 209.8125 73.6406 209.4219 C73.6406 209.0469 73.2969 208.6875 72.8906 208.6875 ZM74.4688 202.5781 C74.7188 202.8906 74.875 203.2656 74.8906 203.6562 C74.8906 204.1875 74.625 204.5 74.0312 204.7656 L73.4062 205.0156 C72.6406 205.3125 72.3906 205.5469 72.3906 205.9375 C72.3906 206.1094 72.4531 206.3438 72.5781 206.8125 L72.7344 207.3438 L73.1094 207.3438 L73.0938 206.5312 C73.0938 206.0938 73.2031 205.9688 73.7812 205.7344 L74.2031 205.5625 C75.0312 205.2188 75.4531 204.6875 75.4531 203.8438 C75.4531 202.1562 73.6562 201.1875 72.5 201.0312 C72.1094 201.125 71.9062 201.2969 71.9062 201.6406 C71.9062 201.9375 72.0625 202.1562 72.7188 202.2656 L74.4688 202.5781 Z" style="fill:black; stroke:none;"
      /><rect x="57" width="5" height="10" y="200" style="stroke:none;"
      /><path d="M58.8906 208.6875 C58.4844 208.6875 58.1562 209.0469 58.1562 209.4219 C58.1562 209.8125 58.4844 210.1562 58.8906 210.1562 C59.2969 210.1562 59.6406 209.8125 59.6406 209.4219 C59.6406 209.0469 59.2969 208.6875 58.8906 208.6875 ZM60.4688 202.5781 C60.7188 202.8906 60.875 203.2656 60.8906 203.6562 C60.8906 204.1875 60.625 204.5 60.0312 204.7656 L59.4062 205.0156 C58.6406 205.3125 58.3906 205.5469 58.3906 205.9375 C58.3906 206.1094 58.4531 206.3438 58.5781 206.8125 L58.7344 207.3438 L59.1094 207.3438 L59.0938 206.5312 C59.0938 206.0938 59.2031 205.9688 59.7812 205.7344 L60.2031 205.5625 C61.0312 205.2188 61.4531 204.6875 61.4531 203.8438 C61.4531 202.1562 59.6562 201.1875 58.5 201.0312 C58.1094 201.125 57.9062 201.2969 57.9062 201.6406 C57.9062 201.9375 58.0625 202.1562 58.7188 202.2656 L60.4688 202.5781 Z" style="fill:black; stroke:none;"
      /><polygon style="clip-path:url(#clipPath8); stroke:none;" points=" 145 134 147 141 155 141 148 146 151 153 145 149 138 153 141 146 134 141 142 141 145 134"
      /><rect x="134" y="134" width="22" style="clip-path:url(#clipPath8); fill:rgb(244,121,32); stroke:none;" height="22"
      /><rect x="134" y="134" width="22" style="clip-path:url(#clipPath8); fill:none; stroke:black;" height="22"
      /><polygon style="fill:none; stroke:black;" points=" 145 134 147 141 155 141 148 146 151 153 145 149 138 153 141 146 134 141 142 141 145 134"
      /><rect x="123" width="5" height="10" y="200" style="stroke:none;"
      /><path d="M124.8906 208.6875 C124.4844 208.6875 124.1562 209.0469 124.1562 209.4219 C124.1562 209.8125 124.4844 210.1562 124.8906 210.1562 C125.2969 210.1562 125.6406 209.8125 125.6406 209.4219 C125.6406 209.0469 125.2969 208.6875 124.8906 208.6875 ZM126.4688 202.5781 C126.7188 202.8906 126.875 203.2656 126.8906 203.6562 C126.8906 204.1875 126.625 204.5 126.0312 204.7656 L125.4062 205.0156 C124.6406 205.3125 124.3906 205.5469 124.3906 205.9375 C124.3906 206.1094 124.4531 206.3438 124.5781 206.8125 L124.7344 207.3438 L125.1094 207.3438 L125.0938 206.5312 C125.0938 206.0938 125.2031 205.9688 125.7812 205.7344 L126.2031 205.5625 C127.0312 205.2188 127.4531 204.6875 127.4531 203.8438 C127.4531 202.1562 125.6562 201.1875 124.5 201.0312 C124.1094 201.125 123.9062 201.2969 123.9062 201.6406 C123.9062 201.9375 124.0625 202.1562 124.7188 202.2656 L126.4688 202.5781 Z" style="fill:black; stroke:none;"
      /><rect x="109" width="5" height="10" y="200" style="stroke:none;"
      /><path d="M110.8906 208.6875 C110.4844 208.6875 110.1562 209.0469 110.1562 209.4219 C110.1562 209.8125 110.4844 210.1562 110.8906 210.1562 C111.2969 210.1562 111.6406 209.8125 111.6406 209.4219 C111.6406 209.0469 111.2969 208.6875 110.8906 208.6875 ZM112.4688 202.5781 C112.7188 202.8906 112.875 203.2656 112.8906 203.6562 C112.8906 204.1875 112.625 204.5 112.0312 204.7656 L111.4062 205.0156 C110.6406 205.3125 110.3906 205.5469 110.3906 205.9375 C110.3906 206.1094 110.4531 206.3438 110.5781 206.8125 L110.7344 207.3438 L111.1094 207.3438 L111.0938 206.5312 C111.0938 206.0938 111.2031 205.9688 111.7812 205.7344 L112.2031 205.5625 C113.0312 205.2188 113.4531 204.6875 113.4531 203.8438 C113.4531 202.1562 111.6562 201.1875 110.5 201.0312 C110.1094 201.125 109.9062 201.2969 109.9062 201.6406 C109.9062 201.9375 110.0625 202.1562 110.7188 202.2656 L112.4688 202.5781 Z" style="fill:black; stroke:none;"
      /><rect x="134" width="5" height="10" y="173" style="stroke:none;"
      /><path d="M135.8906 181.6875 C135.4844 181.6875 135.1562 182.0469 135.1562 182.4219 C135.1562 182.8125 135.4844 183.1562 135.8906 183.1562 C136.2969 183.1562 136.6406 182.8125 136.6406 182.4219 C136.6406 182.0469 136.2969 181.6875 135.8906 181.6875 ZM137.4688 175.5781 C137.7188 175.8906 137.875 176.2656 137.8906 176.6562 C137.8906 177.1875 137.625 177.5 137.0312 177.7656 L136.4062 178.0156 C135.6406 178.3125 135.3906 178.5469 135.3906 178.9375 C135.3906 179.1094 135.4531 179.3438 135.5781 179.8125 L135.7344 180.3438 L136.1094 180.3438 L136.0938 179.5312 C136.0938 179.0938 136.2031 178.9688 136.7812 178.7344 L137.2031 178.5625 C138.0312 178.2188 138.4531 177.6875 138.4531 176.8438 C138.4531 175.1562 136.6562 174.1875 135.5 174.0312 C135.1094 174.125 134.9062 174.2969 134.9062 174.6406 C134.9062 174.9375 135.0625 175.1562 135.7188 175.2656 L137.4688 175.5781 Z" style="fill:black; stroke:none;"
      /><rect x="134" width="5" height="10" y="159" style="stroke:none;"
      /><path d="M135.8906 167.6875 C135.4844 167.6875 135.1562 168.0469 135.1562 168.4219 C135.1562 168.8125 135.4844 169.1562 135.8906 169.1562 C136.2969 169.1562 136.6406 168.8125 136.6406 168.4219 C136.6406 168.0469 136.2969 167.6875 135.8906 167.6875 ZM137.4688 161.5781 C137.7188 161.8906 137.875 162.2656 137.8906 162.6562 C137.8906 163.1875 137.625 163.5 137.0312 163.7656 L136.4062 164.0156 C135.6406 164.3125 135.3906 164.5469 135.3906 164.9375 C135.3906 165.1094 135.4531 165.3438 135.5781 165.8125 L135.7344 166.3438 L136.1094 166.3438 L136.0938 165.5312 C136.0938 165.0938 136.2031 164.9688 136.7812 164.7344 L137.2031 164.5625 C138.0312 164.2188 138.4531 163.6875 138.4531 162.8438 C138.4531 161.1562 136.6562 160.1875 135.5 160.0312 C135.1094 160.125 134.9062 160.2969 134.9062 160.6406 C134.9062 160.9375 135.0625 161.1562 135.7188 161.2656 L137.4688 161.5781 Z" style="fill:black; stroke:none;"
      /><rect x="175" width="5" height="10" y="200" style="stroke:none;"
      /><path d="M176.8906 208.6875 C176.4844 208.6875 176.1562 209.0469 176.1562 209.4219 C176.1562 209.8125 176.4844 210.1562 176.8906 210.1562 C177.2969 210.1562 177.6406 209.8125 177.6406 209.4219 C177.6406 209.0469 177.2969 208.6875 176.8906 208.6875 ZM178.4688 202.5781 C178.7188 202.8906 178.875 203.2656 178.8906 203.6562 C178.8906 204.1875 178.625 204.5 178.0312 204.7656 L177.4062 205.0156 C176.6406 205.3125 176.3906 205.5469 176.3906 205.9375 C176.3906 206.1094 176.4531 206.3438 176.5781 206.8125 L176.7344 207.3438 L177.1094 207.3438 L177.0938 206.5312 C177.0938 206.0938 177.2031 205.9688 177.7812 205.7344 L178.2031 205.5625 C179.0312 205.2188 179.4531 204.6875 179.4531 203.8438 C179.4531 202.1562 177.6562 201.1875 176.5 201.0312 C176.1094 201.125 175.9062 201.2969 175.9062 201.6406 C175.9062 201.9375 176.0625 202.1562 176.7188 202.2656 L178.4688 202.5781 Z" style="fill:black; stroke:none;"
      /><rect x="161" width="5" height="10" y="200" style="stroke:none;"
      /><path d="M162.8906 208.6875 C162.4844 208.6875 162.1562 209.0469 162.1562 209.4219 C162.1562 209.8125 162.4844 210.1562 162.8906 210.1562 C163.2969 210.1562 163.6406 209.8125 163.6406 209.4219 C163.6406 209.0469 163.2969 208.6875 162.8906 208.6875 ZM164.4688 202.5781 C164.7188 202.8906 164.875 203.2656 164.8906 203.6562 C164.8906 204.1875 164.625 204.5 164.0312 204.7656 L163.4062 205.0156 C162.6406 205.3125 162.3906 205.5469 162.3906 205.9375 C162.3906 206.1094 162.4531 206.3438 162.5781 206.8125 L162.7344 207.3438 L163.1094 207.3438 L163.0938 206.5312 C163.0938 206.0938 163.2031 205.9688 163.7812 205.7344 L164.2031 205.5625 C165.0312 205.2188 165.4531 204.6875 165.4531 203.8438 C165.4531 202.1562 163.6562 201.1875 162.5 201.0312 C162.1094 201.125 161.9062 201.2969 161.9062 201.6406 C161.9062 201.9375 162.0625 202.1562 162.7188 202.2656 L164.4688 202.5781 Z" style="fill:black; stroke:none;"
      /><rect x="213" width="5" height="10" y="200" style="stroke:none;"
      /><path d="M214.8906 208.6875 C214.4844 208.6875 214.1562 209.0469 214.1562 209.4219 C214.1562 209.8125 214.4844 210.1562 214.8906 210.1562 C215.2969 210.1562 215.6406 209.8125 215.6406 209.4219 C215.6406 209.0469 215.2969 208.6875 214.8906 208.6875 ZM216.4688 202.5781 C216.7188 202.8906 216.875 203.2656 216.8906 203.6562 C216.8906 204.1875 216.625 204.5 216.0312 204.7656 L215.4062 205.0156 C214.6406 205.3125 214.3906 205.5469 214.3906 205.9375 C214.3906 206.1094 214.4531 206.3438 214.5781 206.8125 L214.7344 207.3438 L215.1094 207.3438 L215.0938 206.5312 C215.0938 206.0938 215.2031 205.9688 215.7812 205.7344 L216.2031 205.5625 C217.0312 205.2188 217.4531 204.6875 217.4531 203.8438 C217.4531 202.1562 215.6562 201.1875 214.5 201.0312 C214.1094 201.125 213.9062 201.2969 213.9062 201.6406 C213.9062 201.9375 214.0625 202.1562 214.7188 202.2656 L216.4688 202.5781 Z" style="fill:black; stroke:none;"
    /></g
  ></g
></svg
>
