<?xml version="1.0"?>
<!DOCTYPE svg PUBLIC '-//W3C//DTD SVG 1.0//EN'
          'http://www.w3.org/TR/2001/REC-SVG-20010904/DTD/svg10.dtd'>
<svg xmlns:xlink="http://www.w3.org/1999/xlink" style="fill-opacity:1; color-rendering:auto; color-interpolation:auto; text-rendering:auto; stroke:black; stroke-linecap:square; stroke-miterlimit:10; shape-rendering:auto; stroke-opacity:1; fill:black; stroke-dasharray:none; font-weight:normal; stroke-width:1; font-family:'Dialog'; font-style:normal; stroke-linejoin:miter; font-size:12px; stroke-dashoffset:0; image-rendering:auto;" viewBox="0 0 446 160" xmlns="http://www.w3.org/2000/svg"
><!--Generated by the Batik Graphics2D SVG Generator--><defs id="genericDefs"
  /><g
  ><defs id="defs1"
    ><clipPath clipPathUnits="userSpaceOnUse" id="clipPath1"
      ><path d="M342 82 L364 82 L364 104 L342 104 L342 82 Z"
      /></clipPath
      ><clipPath clipPathUnits="userSpaceOnUse" id="clipPath2"
      ><path d="M290 82 L312 82 L312 104 L290 104 L290 82 Z"
      /></clipPath
      ><clipPath clipPathUnits="userSpaceOnUse" id="clipPath3"
      ><path d="M260 93 C260 99.0751 255.0751 104 249 104 C242.9249 104 238 99.0751 238 93 C238 86.9249 242.9249 82 249 82 C255.0751 82 260 86.9249 260 93 Z"
      /></clipPath
      ><clipPath clipPathUnits="userSpaceOnUse" id="clipPath4"
      ><path d="M208 119 C208 125.0751 203.0751 130 197 130 C190.9249 130 186 125.0751 186 119 C186 112.9249 190.9249 108 197 108 C203.0751 108 208 112.9249 208 119 Z"
      /></clipPath
      ><clipPath clipPathUnits="userSpaceOnUse" id="clipPath5"
      ><path d="M134 108 L156 108 L156 130 L134 130 L134 108 Z"
      /></clipPath
      ><clipPath clipPathUnits="userSpaceOnUse" id="clipPath6"
      ><path d="M104 119 C104 125.0751 99.0751 130 93 130 C86.9249 130 82 125.0751 82 119 C82 112.9249 86.9249 108 93 108 C99.0751 108 104 112.9249 104 119 Z"
      /></clipPath
      ><clipPath clipPathUnits="userSpaceOnUse" id="clipPath7"
      ><path style="fill-rule:evenodd;" d="M41 108 L52 119 L41 130 L30 119 Z"
      /></clipPath
      ><clipPath clipPathUnits="userSpaceOnUse" id="clipPath8"
      ><path d="M208 67 C208 73.0751 203.0751 78 197 78 C190.9249 78 186 73.0751 186 67 C186 60.9249 190.9249 56 197 56 C203.0751 56 208 60.9249 208 67 Z"
      /></clipPath
      ><clipPath clipPathUnits="userSpaceOnUse" id="clipPath9"
      ><path d="M134 56 L156 56 L156 78 L134 78 L134 56 Z"
      /></clipPath
      ><clipPath clipPathUnits="userSpaceOnUse" id="clipPath10"
      ><path d="M104 67 C104 73.0751 99.0751 78 93 78 C86.9249 78 82 73.0751 82 67 C82 60.9249 86.9249 56 93 56 C99.0751 56 104 60.9249 104 67 Z"
      /></clipPath
      ><clipPath clipPathUnits="userSpaceOnUse" id="clipPath11"
      ><path d="M52 67 C52 73.0751 47.0751 78 41 78 C34.9249 78 30 73.0751 30 67 C30 60.9249 34.9249 56 41 56 C47.0751 56 52 60.9249 52 67 Z"
      /></clipPath
      ><clipPath clipPathUnits="userSpaceOnUse" id="clipPath12"
      ><path style="fill-rule:evenodd;" d="M353 52 L342 30 L364 30 Z"
      /></clipPath
    ></defs
    ><g style="fill:white; text-rendering:optimizeSpeed; stroke:white;"
    ><rect x="0" width="446" height="160" y="0" style="stroke:none;"
      /><polygon style="fill:none; stroke:black;" points=" 405 93 353 93"
      /><path d="M405 82 C399.5 87.5 410.5 98.5 405 104" style="fill:none; stroke:black;"
      /><polygon style="fill:none; stroke:black;" points=" 353 93 301 93"
      /><polygon style="fill:none; stroke:black;" points=" 353 93 353 41"
      /><rect x="342" y="82" width="22" style="clip-path:url(#clipPath1); stroke:none;" height="22"
      /><rect x="342" y="82" width="22" style="clip-path:url(#clipPath1); fill:rgb(0,144,188); stroke:none;" height="22"
      /><rect x="342" y="82" width="22" style="clip-path:url(#clipPath1); fill:none; stroke:black;" height="22"
      /><rect x="342" y="82" width="22" style="fill:none; stroke:black;" height="22"
      /><polygon style="fill:none; stroke:black;" points=" 301 93 249 93"
      /><rect x="290" y="82" width="22" style="clip-path:url(#clipPath2); stroke:none;" height="22"
      /><rect x="290" y="82" width="22" style="clip-path:url(#clipPath2); fill:rgb(0,144,188); stroke:none;" height="22"
      /><rect x="290" y="82" width="22" style="clip-path:url(#clipPath2); fill:none; stroke:black;" height="22"
      /><rect x="290" y="82" width="22" style="fill:none; stroke:black;" height="22"
      /><polygon style="fill:none; stroke:black;" points=" 249 93 197 119"
      /><polygon style="fill:none; stroke:black;" points=" 249 93 197 67"
      /><circle style="clip-path:url(#clipPath3); stroke:none;" r="11" cx="249" cy="93"
      /><rect x="238" y="82" width="22" style="clip-path:url(#clipPath3); fill:rgb(0,166,81); stroke:none;" height="22"
      /><rect x="238" y="82" width="22" style="clip-path:url(#clipPath3); fill:none; stroke:black;" height="22"
      /><circle style="fill:none; stroke:black;" r="11" cx="249" cy="93"
      /><polygon style="fill:none; stroke:black;" points=" 197 119 145 119"
      /><circle style="clip-path:url(#clipPath4); stroke:none;" r="11" cx="197" cy="119"
      /><rect x="186" y="108" width="22" style="clip-path:url(#clipPath4); fill:rgb(0,166,81); stroke:none;" height="22"
      /><rect x="186" y="108" width="22" style="clip-path:url(#clipPath4); fill:none; stroke:black;" height="22"
      /><circle style="fill:none; stroke:black;" r="11" cx="197" cy="119"
      /><polygon style="fill:none; stroke:black;" points=" 145 119 93 119"
      /><rect x="134" y="108" width="22" style="clip-path:url(#clipPath5); stroke:none;" height="22"
      /><rect x="134" y="108" width="22" style="clip-path:url(#clipPath5); fill:rgb(0,166,81); stroke:none;" height="22"
      /><rect x="134" y="108" width="22" style="clip-path:url(#clipPath5); fill:none; stroke:black;" height="22"
      /><rect x="134" y="108" width="22" style="fill:none; stroke:black;" height="22"
      /><polygon style="fill:none; stroke:black;" points=" 93 119 41 119"
      /><circle style="clip-path:url(#clipPath6); stroke:none;" r="11" cx="93" cy="119"
      /><rect x="82" y="108" width="22" style="clip-path:url(#clipPath6); fill:rgb(255,212,0); stroke:none;" height="22"
      /><rect x="82" y="108" width="22" style="clip-path:url(#clipPath6); fill:none; stroke:black;" height="22"
      /><circle style="fill:none; stroke:black;" r="11" cx="93" cy="119"
      /><polygon style="clip-path:url(#clipPath7); stroke:none;" points=" 41 108 52 119 41 130 30 119"
      /><rect x="30" y="108" width="22" style="clip-path:url(#clipPath7); fill:rgb(165,67,153); stroke:none;" height="22"
      /><rect x="30" y="108" width="22" style="clip-path:url(#clipPath7); fill:none; stroke:black;" height="22"
      /><polygon style="fill:none; stroke:black;" points=" 41 108 52 119 41 130 30 119"
      /><rect x="71" y="122" width="6" style="stroke:none;" height="10"
    /></g
    ><g style="font-family:'Serif'; text-rendering:optimizeSpeed; "
    ><path style="stroke:none;" d="M73.2344 123.6562 C73.5156 123.5938 73.7656 123.5625 74.0156 123.5625 C75.0625 123.5625 75.6719 124.1719 75.6719 125.2656 C75.6719 126.4375 74.9062 127.1094 73.7031 127.1094 L73.1875 127.1094 L73.1875 127.6406 L73.7969 127.6406 C75.2188 127.6406 75.9062 128.4219 75.9062 129.6406 C75.9062 130.8438 75.1719 131.6875 73.875 131.6875 C73.6094 131.6875 73.3125 131.6562 73.0156 131.5625 L72.7812 130.8125 C72.625 130.2812 72.5 130.0469 72.1406 130.0469 C71.8906 130.0469 71.7031 130.1719 71.5781 130.4219 C71.8438 131.6406 72.7812 132.1719 74.0312 132.1719 C75.7188 132.1719 76.875 131.125 76.875 129.7031 C76.875 128.5 76.2031 127.625 74.7969 127.375 C75.9531 127.0156 76.6094 126.2031 76.6094 125.2031 C76.6094 123.9219 75.6719 123.0781 74.1875 123.0781 C73.0469 123.0781 72.0625 123.5938 71.7969 124.6875 C71.9062 125 72.1094 125.1094 72.3594 125.1094 C72.7344 125.1094 72.8906 124.8906 73 124.4062 L73.2344 123.6562 Z"
      /><rect x="56" y="123" width="8" style="fill:white; stroke:none;" height="8"
      /><path style="stroke:none;" d="M60.9844 128.7031 C60.9375 129.8906 60.1562 130.6562 59.3125 130.6562 C58.2656 130.6562 57.5 129.6875 57.5 127.7188 C57.5 126.2812 58.1562 125.1562 59.3438 125.1562 C60.1406 125.1562 60.7812 125.6875 61.0938 126.6406 L60.9844 128.7031 ZM62.9062 130.2812 C62.7344 130.375 62.5469 130.4219 62.3438 130.4219 C61.9531 130.4219 61.75 130.2188 61.75 129.4219 C61.75 128.4844 61.9688 126.5312 62.1875 124.8281 L62.0312 124.7188 L61.2344 124.9219 L61.1406 125.7969 C60.7812 125.0312 60.1562 124.6562 59.3906 124.6562 C58.0469 124.6562 56.5625 125.8438 56.5625 127.9531 C56.5625 130.0938 57.7188 131.1719 59.1406 131.1719 C60.0156 131.1719 60.6875 130.8125 61.0938 129.9844 C61.2031 130.8594 61.5156 131.1719 62.0156 131.1719 C62.4688 131.1719 62.7969 130.9062 63.0156 130.5625 L62.9062 130.2812 Z"
      /><rect x="122" y="122" width="7" style="fill:white; stroke:none;" height="9"
      /><path style="stroke:none;" d="M123 127.5156 L125.9531 123.2656 L125.9531 127.5156 L123 127.5156 ZM128.2812 127.5156 L126.8594 127.5156 L126.8594 122.125 L126.2344 122.125 L122.3438 127.6406 L122.3438 128.1875 L125.9531 128.1875 L125.9531 131 L126.8594 131 L126.8594 128.1875 L128.2812 128.1875 L128.2812 127.5156 Z"
      /><rect x="109" y="120" width="6" style="fill:white; stroke:none;" height="13"
      /><path style="stroke:none;" d="M111.0938 126.2031 C111.0938 124.6562 111.75 123.8125 112.7969 123.8125 C113.7188 123.8125 114.2656 124.4531 114.2656 125.5156 C114.2656 126.7188 113.5 127.4375 112.1875 127.7031 L112.2969 128.3125 C114.2188 128.2344 114.9375 129.2188 114.9375 130.4375 C114.9375 131.625 114.2344 132.4219 112.9531 132.4219 C112.25 132.4219 111.6562 132.1562 111.0938 131.7188 L111.0938 126.2031 ZM110.2031 132.9062 L110.1094 135.375 L110.2656 135.4844 L111.1562 135.2656 L111.0156 132.0938 C111.5469 132.8438 112.3594 133.1719 113.1719 133.1719 C114.5625 133.1719 115.8594 132.2188 115.8594 130.4844 C115.8594 128.9531 114.875 128.1094 113.125 128 C114.5625 127.6094 115.1875 126.4531 115.1875 125.4844 C115.1875 124.0938 114.1562 123.3125 112.9062 123.3125 C111.2969 123.3125 110.2188 124.5469 110.2188 126.5156 L110.2031 132.9062 Z"
      /><rect x="175" y="122" width="6" style="fill:white; stroke:none;" height="9"
      /><path style="stroke:none;" d="M176.4219 130.0938 C177.0781 129.375 177.7031 128.7188 178.0312 128.3438 C179.9219 126.3125 180.5312 125.4688 180.5312 124.3594 C180.5312 123.0156 179.7812 122.0781 178.1562 122.0781 C176.9062 122.0781 175.7969 122.7031 175.5938 123.9688 C175.7188 124.2031 175.9062 124.3438 176.1562 124.3438 C176.4688 124.3438 176.6562 124.1094 176.7969 123.5938 L177.0938 122.6719 C177.3906 122.5938 177.6562 122.5625 177.8906 122.5625 C178.9219 122.5625 179.5469 123.3125 179.5469 124.4219 C179.5469 125.4375 178.9844 126.4219 177.7031 127.9062 C177.125 128.5781 176.3906 129.4375 175.6406 130.2812 L175.6406 131 L180.9219 131 L180.9219 130.0938 L176.4219 130.0938 Z"
      /><rect x="161" y="120" width="6" style="fill:white; stroke:none;" height="13"
      /><path style="stroke:none;" d="M163.0938 126.2031 C163.0938 124.6562 163.75 123.8125 164.7969 123.8125 C165.7188 123.8125 166.2656 124.4531 166.2656 125.5156 C166.2656 126.7188 165.5 127.4375 164.1875 127.7031 L164.2969 128.3125 C166.2188 128.2344 166.9375 129.2188 166.9375 130.4375 C166.9375 131.625 166.2344 132.4219 164.9531 132.4219 C164.25 132.4219 163.6562 132.1562 163.0938 131.7188 L163.0938 126.2031 ZM162.2031 132.9062 L162.1094 135.375 L162.2656 135.4844 L163.1562 135.2656 L163.0156 132.0938 C163.5469 132.8438 164.3594 133.1719 165.1719 133.1719 C166.5625 133.1719 167.8594 132.2188 167.8594 130.4844 C167.8594 128.9531 166.875 128.1094 165.125 128 C166.5625 127.6094 167.1875 126.4531 167.1875 125.4844 C167.1875 124.0938 166.1562 123.3125 164.9062 123.3125 C163.2969 123.3125 162.2188 124.5469 162.2188 126.5156 L162.2031 132.9062 Z"
      /><polygon style="fill:none;" points=" 197 67 145 67"
      /><circle style="fill:white; clip-path:url(#clipPath8); stroke:none;" r="11" cx="197" cy="67"
      /><rect x="186" y="56" width="22" style="clip-path:url(#clipPath8); fill:rgb(0,166,81); stroke:none;" height="22"
      /><rect x="186" y="56" width="22" style="fill:none; clip-path:url(#clipPath8);" height="22"
      /><circle r="11" style="fill:none;" cx="197" cy="67"
      /><polygon style="fill:none;" points=" 145 67 93 67"
      /><rect x="134" y="56" width="22" style="clip-path:url(#clipPath9); fill:white; stroke:none;" height="22"
      /><rect x="134" y="56" width="22" style="clip-path:url(#clipPath9); fill:rgb(0,144,188); stroke:none;" height="22"
      /><rect x="134" y="56" width="22" style="fill:none; clip-path:url(#clipPath9);" height="22"
      /><rect x="134" width="22" height="22" y="56" style="fill:none;"
      /><polygon style="fill:none;" points=" 93 67 41 67"
      /><circle style="fill:white; clip-path:url(#clipPath10); stroke:none;" r="11" cx="93" cy="67"
      /><rect x="82" y="56" width="22" style="clip-path:url(#clipPath10); fill:rgb(255,212,0); stroke:none;" height="22"
      /><rect x="82" y="56" width="22" style="fill:none; clip-path:url(#clipPath10);" height="22"
      /><circle r="11" style="fill:none;" cx="93" cy="67"
      /><circle style="fill:white; clip-path:url(#clipPath11); stroke:none;" r="11" cx="41" cy="67"
      /><rect x="30" y="56" width="22" style="clip-path:url(#clipPath11); fill:rgb(255,212,0); stroke:none;" height="22"
      /><rect x="30" y="56" width="22" style="fill:none; clip-path:url(#clipPath11);" height="22"
      /><circle r="11" style="fill:none;" cx="41" cy="67"
      /><rect x="71" y="70" width="6" style="fill:white; stroke:none;" height="10"
      /><path style="stroke:none;" d="M73.2344 71.6562 C73.5156 71.5938 73.7656 71.5625 74.0156 71.5625 C75.0625 71.5625 75.6719 72.1719 75.6719 73.2656 C75.6719 74.4375 74.9062 75.1094 73.7031 75.1094 L73.1875 75.1094 L73.1875 75.6406 L73.7969 75.6406 C75.2188 75.6406 75.9062 76.4219 75.9062 77.6406 C75.9062 78.8438 75.1719 79.6875 73.875 79.6875 C73.6094 79.6875 73.3125 79.6562 73.0156 79.5625 L72.7812 78.8125 C72.625 78.2812 72.5 78.0469 72.1406 78.0469 C71.8906 78.0469 71.7031 78.1719 71.5781 78.4219 C71.8438 79.6406 72.7812 80.1719 74.0312 80.1719 C75.7188 80.1719 76.875 79.125 76.875 77.7031 C76.875 76.5 76.2031 75.625 74.7969 75.375 C75.9531 75.0156 76.6094 74.2031 76.6094 73.2031 C76.6094 71.9219 75.6719 71.0781 74.1875 71.0781 C73.0469 71.0781 72.0625 71.5938 71.7969 72.6875 C71.9062 73 72.1094 73.1094 72.3594 73.1094 C72.7344 73.1094 72.8906 72.8906 73 72.4062 L73.2344 71.6562 Z"
      /><rect x="56" y="71" width="8" style="fill:white; stroke:none;" height="8"
      /><path style="stroke:none;" d="M60.9844 76.7031 C60.9375 77.8906 60.1562 78.6562 59.3125 78.6562 C58.2656 78.6562 57.5 77.6875 57.5 75.7188 C57.5 74.2812 58.1562 73.1562 59.3438 73.1562 C60.1406 73.1562 60.7812 73.6875 61.0938 74.6406 L60.9844 76.7031 ZM62.9062 78.2812 C62.7344 78.375 62.5469 78.4219 62.3438 78.4219 C61.9531 78.4219 61.75 78.2188 61.75 77.4219 C61.75 76.4844 61.9688 74.5312 62.1875 72.8281 L62.0312 72.7188 L61.2344 72.9219 L61.1406 73.7969 C60.7812 73.0312 60.1562 72.6562 59.3906 72.6562 C58.0469 72.6562 56.5625 73.8438 56.5625 75.9531 C56.5625 78.0938 57.7188 79.1719 59.1406 79.1719 C60.0156 79.1719 60.6875 78.8125 61.0938 77.9844 C61.2031 78.8594 61.5156 79.1719 62.0156 79.1719 C62.4688 79.1719 62.7969 78.9062 63.0156 78.5625 L62.9062 78.2812 Z"
      /><rect x="122" y="70" width="7" style="fill:white; stroke:none;" height="9"
      /><path style="stroke:none;" d="M123 75.5156 L125.9531 71.2656 L125.9531 75.5156 L123 75.5156 ZM128.2812 75.5156 L126.8594 75.5156 L126.8594 70.125 L126.2344 70.125 L122.3438 75.6406 L122.3438 76.1875 L125.9531 76.1875 L125.9531 79 L126.8594 79 L126.8594 76.1875 L128.2812 76.1875 L128.2812 75.5156 Z"
      /><rect x="109" y="68" width="6" style="fill:white; stroke:none;" height="13"
      /><path style="stroke:none;" d="M111.0938 74.2031 C111.0938 72.6562 111.75 71.8125 112.7969 71.8125 C113.7188 71.8125 114.2656 72.4531 114.2656 73.5156 C114.2656 74.7188 113.5 75.4375 112.1875 75.7031 L112.2969 76.3125 C114.2188 76.2344 114.9375 77.2188 114.9375 78.4375 C114.9375 79.625 114.2344 80.4219 112.9531 80.4219 C112.25 80.4219 111.6562 80.1562 111.0938 79.7188 L111.0938 74.2031 ZM110.2031 80.9062 L110.1094 83.375 L110.2656 83.4844 L111.1562 83.2656 L111.0156 80.0938 C111.5469 80.8438 112.3594 81.1719 113.1719 81.1719 C114.5625 81.1719 115.8594 80.2188 115.8594 78.4844 C115.8594 76.9531 114.875 76.1094 113.125 76 C114.5625 75.6094 115.1875 74.4531 115.1875 73.4844 C115.1875 72.0938 114.1562 71.3125 112.9062 71.3125 C111.2969 71.3125 110.2188 72.5469 110.2188 74.5156 L110.2031 80.9062 Z"
      /><rect x="175" y="70" width="6" style="fill:white; stroke:none;" height="9"
      /><path style="stroke:none;" d="M176.4219 78.0938 C177.0781 77.375 177.7031 76.7188 178.0312 76.3438 C179.9219 74.3125 180.5312 73.4688 180.5312 72.3594 C180.5312 71.0156 179.7812 70.0781 178.1562 70.0781 C176.9062 70.0781 175.7969 70.7031 175.5938 71.9688 C175.7188 72.2031 175.9062 72.3438 176.1562 72.3438 C176.4688 72.3438 176.6562 72.1094 176.7969 71.5938 L177.0938 70.6719 C177.3906 70.5938 177.6562 70.5625 177.8906 70.5625 C178.9219 70.5625 179.5469 71.3125 179.5469 72.4219 C179.5469 73.4375 178.9844 74.4219 177.7031 75.9062 C177.125 76.5781 176.3906 77.4375 175.6406 78.2812 L175.6406 79 L180.9219 79 L180.9219 78.0938 L176.4219 78.0938 Z"
      /><rect x="161" y="68" width="6" style="fill:white; stroke:none;" height="13"
      /><path style="stroke:none;" d="M163.0938 74.2031 C163.0938 72.6562 163.75 71.8125 164.7969 71.8125 C165.7188 71.8125 166.2656 72.4531 166.2656 73.5156 C166.2656 74.7188 165.5 75.4375 164.1875 75.7031 L164.2969 76.3125 C166.2188 76.2344 166.9375 77.2188 166.9375 78.4375 C166.9375 79.625 166.2344 80.4219 164.9531 80.4219 C164.25 80.4219 163.6562 80.1562 163.0938 79.7188 L163.0938 74.2031 ZM162.2031 80.9062 L162.1094 83.375 L162.2656 83.4844 L163.1562 83.2656 L163.0156 80.0938 C163.5469 80.8438 164.3594 81.1719 165.1719 81.1719 C166.5625 81.1719 167.8594 80.2188 167.8594 78.4844 C167.8594 76.9531 166.875 76.1094 165.125 76 C166.5625 75.6094 167.1875 74.4531 167.1875 73.4844 C167.1875 72.0938 166.1562 71.3125 164.9062 71.3125 C163.2969 71.3125 162.2188 72.5469 162.2188 74.5156 L162.2031 80.9062 Z"
      /><rect x="231" y="104" width="6" style="fill:white; stroke:none;" height="10"
      /><path style="stroke:none;" d="M233.2344 105.6562 C233.5156 105.5938 233.7656 105.5625 234.0156 105.5625 C235.0625 105.5625 235.6719 106.1719 235.6719 107.2656 C235.6719 108.4375 234.9062 109.1094 233.7031 109.1094 L233.1875 109.1094 L233.1875 109.6406 L233.7969 109.6406 C235.2188 109.6406 235.9062 110.4219 235.9062 111.6406 C235.9062 112.8438 235.1719 113.6875 233.875 113.6875 C233.6094 113.6875 233.3125 113.6562 233.0156 113.5625 L232.7812 112.8125 C232.625 112.2812 232.5 112.0469 232.1406 112.0469 C231.8906 112.0469 231.7031 112.1719 231.5781 112.4219 C231.8438 113.6406 232.7812 114.1719 234.0312 114.1719 C235.7188 114.1719 236.875 113.125 236.875 111.7031 C236.875 110.5 236.2031 109.625 234.7969 109.375 C235.9531 109.0156 236.6094 108.2031 236.6094 107.2031 C236.6094 105.9219 235.6719 105.0781 234.1875 105.0781 C233.0469 105.0781 232.0625 105.5938 231.7969 106.6875 C231.9062 107 232.1094 107.1094 232.3594 107.1094 C232.7344 107.1094 232.8906 106.8906 233 106.4062 L233.2344 105.6562 Z"
      /><rect x="214" y="113" width="8" style="fill:white; stroke:none;" height="8"
      /><path style="stroke:none;" d="M218.9844 118.7031 C218.9375 119.8906 218.1562 120.6562 217.3125 120.6562 C216.2656 120.6562 215.5 119.6875 215.5 117.7188 C215.5 116.2812 216.1562 115.1562 217.3438 115.1562 C218.1406 115.1562 218.7812 115.6875 219.0938 116.6406 L218.9844 118.7031 ZM220.9062 120.2812 C220.7344 120.375 220.5469 120.4219 220.3438 120.4219 C219.9531 120.4219 219.75 120.2188 219.75 119.4219 C219.75 118.4844 219.9688 116.5312 220.1875 114.8281 L220.0312 114.7188 L219.2344 114.9219 L219.1406 115.7969 C218.7812 115.0312 218.1562 114.6562 217.3906 114.6562 C216.0469 114.6562 214.5625 115.8438 214.5625 117.9531 C214.5625 120.0938 215.7188 121.1719 217.1406 121.1719 C218.0156 121.1719 218.6875 120.8125 219.0938 119.9844 C219.2031 120.8594 219.5156 121.1719 220.0156 121.1719 C220.4688 121.1719 220.7969 120.9062 221.0156 120.5625 L220.9062 120.2812 Z"
      /><rect x="224" y="86" width="6" style="fill:white; stroke:none;" height="10"
      /><path style="stroke:none;" d="M227.3438 95.6875 C226.2031 95.6875 225.5312 94.5 225.5312 92.2969 C225.5312 92.2188 225.5312 92.125 225.5312 92.0469 C226.0938 91.5 226.7188 91.3125 227.3438 91.3125 C228.3125 91.3125 228.9531 91.9844 228.9531 93.4531 C228.9531 94.9375 228.3125 95.6875 227.3438 95.6875 ZM229.5312 87.0781 C226.3438 87.4531 224.5625 89.7656 224.5625 92.4531 C224.5625 94.7812 225.6094 96.1719 227.3125 96.1719 C228.8438 96.1719 229.9219 95.1094 229.9219 93.2812 C229.9219 91.6875 228.9688 90.6562 227.5625 90.6562 C226.8281 90.6562 226.1406 90.9844 225.5781 91.5781 C225.7969 89.4062 227.0781 87.9688 229.5938 87.3906 L229.5312 87.0781 Z"
      /><rect x="207" y="79" width="8" style="fill:white; stroke:none;" height="8"
      /><path style="stroke:none;" d="M211.9844 84.7031 C211.9375 85.8906 211.1562 86.6562 210.3125 86.6562 C209.2656 86.6562 208.5 85.6875 208.5 83.7188 C208.5 82.2812 209.1562 81.1562 210.3438 81.1562 C211.1406 81.1562 211.7812 81.6875 212.0938 82.6406 L211.9844 84.7031 ZM213.9062 86.2812 C213.7344 86.375 213.5469 86.4219 213.3438 86.4219 C212.9531 86.4219 212.75 86.2188 212.75 85.4219 C212.75 84.4844 212.9688 82.5312 213.1875 80.8281 L213.0312 80.7188 L212.2344 80.9219 L212.1406 81.7969 C211.7812 81.0312 211.1562 80.6562 210.3906 80.6562 C209.0469 80.6562 207.5625 81.8438 207.5625 83.9531 C207.5625 86.0938 208.7188 87.1719 210.1406 87.1719 C211.0156 87.1719 211.6875 86.8125 212.0938 85.9844 C212.2031 86.8594 212.5156 87.1719 213.0156 87.1719 C213.4688 87.1719 213.7969 86.9062 214.0156 86.5625 L213.9062 86.2812 Z"
      /><rect x="278" y="96" width="7" style="fill:white; stroke:none;" height="9"
      /><path style="stroke:none;" d="M279 101.5156 L281.9531 97.2656 L281.9531 101.5156 L279 101.5156 ZM284.2812 101.5156 L282.8594 101.5156 L282.8594 96.125 L282.2344 96.125 L278.3438 101.6406 L278.3438 102.1875 L281.9531 102.1875 L281.9531 105 L282.8594 105 L282.8594 102.1875 L284.2812 102.1875 L284.2812 101.5156 Z"
      /><rect x="265" y="94" width="6" style="fill:white; stroke:none;" height="13"
      /><path style="stroke:none;" d="M267.0938 100.2031 C267.0938 98.6562 267.75 97.8125 268.7969 97.8125 C269.7188 97.8125 270.2656 98.4531 270.2656 99.5156 C270.2656 100.7188 269.5 101.4375 268.1875 101.7031 L268.2969 102.3125 C270.2188 102.2344 270.9375 103.2188 270.9375 104.4375 C270.9375 105.625 270.2344 106.4219 268.9531 106.4219 C268.25 106.4219 267.6562 106.1562 267.0938 105.7188 L267.0938 100.2031 ZM266.2031 106.9062 L266.1094 109.375 L266.2656 109.4844 L267.1562 109.2656 L267.0156 106.0938 C267.5469 106.8438 268.3594 107.1719 269.1719 107.1719 C270.5625 107.1719 271.8594 106.2188 271.8594 104.4844 C271.8594 102.9531 270.875 102.1094 269.125 102 C270.5625 101.6094 271.1875 100.4531 271.1875 99.4844 C271.1875 98.0938 270.1562 97.3125 268.9062 97.3125 C267.2969 97.3125 266.2188 98.5469 266.2188 100.5156 L266.2031 106.9062 Z"
      /><polygon style="fill:white; clip-path:url(#clipPath12); stroke:none;" points=" 353 52 342 30 364 30"
      /><rect x="342" y="30" width="22" style="clip-path:url(#clipPath12); fill:rgb(237,28,36); stroke:none;" height="22"
      /><rect x="342" y="30" width="22" style="fill:none; clip-path:url(#clipPath12);" height="22"
      /><polygon style="fill:none;" points=" 353 52 342 30 364 30"
      /><rect x="330" y="96" width="7" style="fill:white; stroke:none;" height="9"
      /><path style="stroke:none;" d="M331 101.5156 L333.9531 97.2656 L333.9531 101.5156 L331 101.5156 ZM336.2812 101.5156 L334.8594 101.5156 L334.8594 96.125 L334.2344 96.125 L330.3438 101.6406 L330.3438 102.1875 L333.9531 102.1875 L333.9531 105 L334.8594 105 L334.8594 102.1875 L336.2812 102.1875 L336.2812 101.5156 Z"
      /><rect x="317" y="94" width="6" style="fill:white; stroke:none;" height="13"
      /><path style="stroke:none;" d="M319.0938 100.2031 C319.0938 98.6562 319.75 97.8125 320.7969 97.8125 C321.7188 97.8125 322.2656 98.4531 322.2656 99.5156 C322.2656 100.7188 321.5 101.4375 320.1875 101.7031 L320.2969 102.3125 C322.2188 102.2344 322.9375 103.2188 322.9375 104.4375 C322.9375 105.625 322.2344 106.4219 320.9531 106.4219 C320.25 106.4219 319.6562 106.1562 319.0938 105.7188 L319.0938 100.2031 ZM318.2031 106.9062 L318.1094 109.375 L318.2656 109.4844 L319.1562 109.2656 L319.0156 106.0938 C319.5469 106.8438 320.3594 107.1719 321.1719 107.1719 C322.5625 107.1719 323.8594 106.2188 323.8594 104.4844 C323.8594 102.9531 322.875 102.1094 321.125 102 C322.5625 101.6094 323.1875 100.4531 323.1875 99.4844 C323.1875 98.0938 322.1562 97.3125 320.9062 97.3125 C319.2969 97.3125 318.2188 98.5469 318.2188 100.5156 L318.2031 106.9062 Z"
      /><rect x="342" y="69" width="6" style="fill:white; stroke:none;" height="10"
      /><path style="stroke:none;" d="M345.3438 78.6875 C344.2031 78.6875 343.5312 77.5 343.5312 75.2969 C343.5312 75.2188 343.5312 75.125 343.5312 75.0469 C344.0938 74.5 344.7188 74.3125 345.3438 74.3125 C346.3125 74.3125 346.9531 74.9844 346.9531 76.4531 C346.9531 77.9375 346.3125 78.6875 345.3438 78.6875 ZM347.5312 70.0781 C344.3438 70.4531 342.5625 72.7656 342.5625 75.4531 C342.5625 77.7812 343.6094 79.1719 345.3125 79.1719 C346.8438 79.1719 347.9219 78.1094 347.9219 76.2812 C347.9219 74.6875 346.9688 73.6562 345.5625 73.6562 C344.8281 73.6562 344.1406 73.9844 343.5781 74.5781 C343.7969 72.4062 345.0781 70.9688 347.5938 70.3906 L347.5312 70.0781 Z"
      /><rect x="341" y="56" width="8" style="fill:white; stroke:none;" height="8"
      /><path style="stroke:none;" d="M345.9844 61.7031 C345.9375 62.8906 345.1562 63.6562 344.3125 63.6562 C343.2656 63.6562 342.5 62.6875 342.5 60.7188 C342.5 59.2812 343.1562 58.1562 344.3438 58.1562 C345.1406 58.1562 345.7812 58.6875 346.0938 59.6406 L345.9844 61.7031 ZM347.9062 63.2812 C347.7344 63.375 347.5469 63.4219 347.3438 63.4219 C346.9531 63.4219 346.75 63.2188 346.75 62.4219 C346.75 61.4844 346.9688 59.5312 347.1875 57.8281 L347.0312 57.7188 L346.2344 57.9219 L346.1406 58.7969 C345.7812 58.0312 345.1562 57.6562 344.3906 57.6562 C343.0469 57.6562 341.5625 58.8438 341.5625 60.9531 C341.5625 63.0938 342.7188 64.1719 344.1406 64.1719 C345.0156 64.1719 345.6875 63.8125 346.0938 62.9844 C346.2031 63.8594 346.5156 64.1719 347.0156 64.1719 C347.4688 64.1719 347.7969 63.9062 348.0156 63.5625 L347.9062 63.2812 Z"
      /><rect x="369" y="96" width="5" style="fill:white; stroke:none;" height="10"
      /><path style="stroke:none;" d="M370.8906 104.6875 C370.4844 104.6875 370.1562 105.0469 370.1562 105.4219 C370.1562 105.8125 370.4844 106.1562 370.8906 106.1562 C371.2969 106.1562 371.6406 105.8125 371.6406 105.4219 C371.6406 105.0469 371.2969 104.6875 370.8906 104.6875 ZM372.4688 98.5781 C372.7188 98.8906 372.875 99.2656 372.8906 99.6562 C372.8906 100.1875 372.625 100.5 372.0312 100.7656 L371.4062 101.0156 C370.6406 101.3125 370.3906 101.5469 370.3906 101.9375 C370.3906 102.1094 370.4531 102.3438 370.5781 102.8125 L370.7344 103.3438 L371.1094 103.3438 L371.0938 102.5312 C371.0938 102.0938 371.2031 101.9688 371.7812 101.7344 L372.2031 101.5625 C373.0312 101.2188 373.4531 100.6875 373.4531 99.8438 C373.4531 98.1562 371.6562 97.1875 370.5 97.0312 C370.1094 97.125 369.9062 97.2969 369.9062 97.6406 C369.9062 97.9375 370.0625 98.1562 370.7188 98.2656 L372.4688 98.5781 Z"
    /></g
  ></g
></svg
>
