<?xml version="1.0"?>
<!DOCTYPE svg PUBLIC '-//W3C//DTD SVG 1.0//EN'
          'http://www.w3.org/TR/2001/REC-SVG-20010904/DTD/svg10.dtd'>
<svg xmlns:xlink="http://www.w3.org/1999/xlink" style="fill-opacity:1; color-rendering:auto; color-interpolation:auto; text-rendering:auto; stroke:black; stroke-linecap:square; stroke-miterlimit:10; shape-rendering:auto; stroke-opacity:1; fill:black; stroke-dasharray:none; font-weight:normal; stroke-width:1; font-family:'Dialog'; font-style:normal; stroke-linejoin:miter; font-size:12px; stroke-dashoffset:0; image-rendering:auto;" viewBox="0 0 394 128" xmlns="http://www.w3.org/2000/svg"
><!--Generated by the Batik Graphics2D SVG Generator--><defs id="genericDefs"
  /><g
  ><defs id="defs1"
    ><clipPath clipPathUnits="userSpaceOnUse" id="clipPath1"
      ><path d="M290 53 L312 53 L312 75 L290 75 L290 53 Z"
      /></clipPath
      ><clipPath clipPathUnits="userSpaceOnUse" id="clipPath2"
      ><path style="fill-rule:evenodd;" d="M249 53 L260 64 L249 75 L238 64 Z"
      /></clipPath
      ><clipPath clipPathUnits="userSpaceOnUse" id="clipPath3"
      ><path d="M186 53 L208 53 L208 75 L186 75 L186 53 Z"
      /></clipPath
      ><clipPath clipPathUnits="userSpaceOnUse" id="clipPath4"
      ><path style="fill-rule:evenodd;" d="M145 53 L156 64 L145 75 L134 64 Z"
      /></clipPath
      ><clipPath clipPathUnits="userSpaceOnUse" id="clipPath5"
      ><path d="M82 53 L104 53 L104 75 L82 75 L82 53 Z"
      /></clipPath
      ><clipPath clipPathUnits="userSpaceOnUse" id="clipPath6"
      ><path style="fill-rule:evenodd;" d="M41 53 L52 64 L41 75 L30 64 Z"
      /></clipPath
    ></defs
    ><g style="fill:white; text-rendering:optimizeSpeed; stroke:white;"
    ><rect x="0" width="394" height="128" y="0" style="stroke:none;"
      /><polygon style="fill:none; stroke:black;" points=" 353 64 301 64"
      /><path d="M353 53 C347.5 58.5 358.5 69.5 353 75" style="fill:none; stroke:black;"
      /><polygon style="fill:none; stroke:black;" points=" 301 64 249 64"
      /><rect x="290" y="53" width="22" style="clip-path:url(#clipPath1); stroke:none;" height="22"
      /><polygon style="fill:rgb(0,144,188); clip-path:url(#clipPath1); stroke:none;" points=" 290 53 312 53 312 75"
      /><polygon style="fill:none; clip-path:url(#clipPath1); stroke:black;" points=" 290 53 312 53 312 75"
      /><rect x="290" y="53" width="22" style="fill:none; stroke:black;" height="22"
      /><rect x="293" y="81" width="14" style="stroke:none;" height="10"
    /></g
    ><g style="text-rendering:optimizeSpeed; font-size:14px; font-family:'SansSerif';"
    ><path style="stroke:none;" d="M293.6094 92 L300.0625 92 L300.0625 90.8906 L297.2344 90.8906 C296.7031 90.8906 296.0781 90.9531 295.5469 90.9844 C297.9531 88.7031 299.5625 86.625 299.5625 84.5781 C299.5625 82.75 298.4219 81.5469 296.5781 81.5469 C295.2812 81.5469 294.4062 82.1406 293.5625 83.0469 L294.2969 83.7812 C294.8594 83.1094 295.5938 82.5938 296.4375 82.5938 C297.7031 82.5938 298.3125 83.4531 298.3125 84.625 C298.3125 86.3906 296.8438 88.4375 293.6094 91.25 L293.6094 92 ZM305.02 92.1875 C307.1606 92.1875 308.5043 90.8906 308.5043 89.2656 C308.5043 87.75 307.5825 87.0469 306.395 86.5312 L304.9262 85.8906 C304.1293 85.5625 303.2387 85.1875 303.2387 84.1875 C303.2387 83.2656 303.9887 82.6719 305.145 82.6719 C306.0981 82.6719 306.8637 83.0469 307.4887 83.6406 L308.1762 82.8125 C307.4418 82.0625 306.3637 81.5469 305.145 81.5469 C303.2856 81.5469 301.9106 82.6875 301.9106 84.2656 C301.9106 85.7656 303.0512 86.5 304.0043 86.9062 L305.4887 87.5469 C306.4575 87.9844 307.1918 88.3125 307.1918 89.375 C307.1918 90.375 306.3793 91.0469 305.0356 91.0469 C303.9731 91.0469 302.9418 90.5469 302.2075 89.7812 L301.4262 90.6562 C302.3168 91.5938 303.5668 92.1875 305.02 92.1875 Z"
      /><rect x="293" y="35" width="14" style="fill:white; stroke:none;" height="10"
      /><path style="stroke:none;" d="M297.1094 40.5781 C298.3438 40.5781 298.9688 41.4688 298.9688 42.8438 C298.9688 44.25 298.1875 45.1875 297.2188 45.1875 C295.9219 45.1875 295.1562 44.0312 295 41.8906 C295.625 40.9531 296.4531 40.5781 297.1094 40.5781 ZM297.2188 46.1875 C298.8125 46.1875 300.1562 44.8438 300.1562 42.8438 C300.1562 40.7031 299.0469 39.625 297.3125 39.625 C296.5 39.625 295.6094 40.1094 294.9688 40.875 C295.0312 37.6875 296.2188 36.6094 297.625 36.6094 C298.25 36.6094 298.8594 36.9062 299.2656 37.3906 L299.9688 36.5938 C299.4062 35.9844 298.6406 35.5469 297.5781 35.5469 C295.5938 35.5469 293.7812 37.0781 293.7812 41.0938 C293.7812 44.4844 295.2344 46.1875 297.2188 46.1875 ZM305.02 46.1875 C307.1606 46.1875 308.5043 44.8906 308.5043 43.2656 C308.5043 41.75 307.5825 41.0469 306.395 40.5312 L304.9262 39.8906 C304.1293 39.5625 303.2387 39.1875 303.2387 38.1875 C303.2387 37.2656 303.9887 36.6719 305.145 36.6719 C306.0981 36.6719 306.8637 37.0469 307.4887 37.6406 L308.1762 36.8125 C307.4418 36.0625 306.3637 35.5469 305.145 35.5469 C303.2856 35.5469 301.9106 36.6875 301.9106 38.2656 C301.9106 39.7656 303.0512 40.5 304.0043 40.9062 L305.4887 41.5469 C306.4575 41.9844 307.1918 42.3125 307.1918 43.375 C307.1918 44.375 306.3793 45.0469 305.0356 45.0469 C303.9731 45.0469 302.9418 44.5469 302.2075 43.7812 L301.4262 44.6562 C302.3168 45.5938 303.5668 46.1875 305.02 46.1875 Z"
      /><polygon style="fill:none;" points=" 249 64 197 64"
    /></g
    ><g style="fill:white; text-rendering:optimizeSpeed; stroke:white;"
    ><polygon style="stroke:none; clip-path:url(#clipPath2);" points=" 249 53 260 64 249 75 238 64"
      /><rect x="238" y="64" width="22" style="clip-path:url(#clipPath2); fill:rgb(161,122,77); stroke:none;" height="11"
      /><rect x="238" y="64" width="22" style="clip-path:url(#clipPath2); fill:none; stroke:black;" height="11"
      /><polygon style="fill:none; stroke:black;" points=" 249 53 260 64 249 75 238 64"
      /><rect x="241" width="14" height="10" y="81" style="stroke:none;"
    /></g
    ><g style="text-rendering:optimizeSpeed; font-size:14px; font-family:'SansSerif';"
    ><path style="stroke:none;" d="M241.6094 92 L248.0625 92 L248.0625 90.8906 L245.2344 90.8906 C244.7031 90.8906 244.0781 90.9531 243.5469 90.9844 C245.9531 88.7031 247.5625 86.625 247.5625 84.5781 C247.5625 82.75 246.4219 81.5469 244.5781 81.5469 C243.2812 81.5469 242.4062 82.1406 241.5625 83.0469 L242.2969 83.7812 C242.8594 83.1094 243.5938 82.5938 244.4375 82.5938 C245.7031 82.5938 246.3125 83.4531 246.3125 84.625 C246.3125 86.3906 244.8438 88.4375 241.6094 91.25 L241.6094 92 ZM253.02 92.1875 C255.1606 92.1875 256.5043 90.8906 256.5043 89.2656 C256.5043 87.75 255.5825 87.0469 254.395 86.5312 L252.9262 85.8906 C252.1293 85.5625 251.2387 85.1875 251.2387 84.1875 C251.2387 83.2656 251.9887 82.6719 253.145 82.6719 C254.0981 82.6719 254.8637 83.0469 255.4887 83.6406 L256.1762 82.8125 C255.4418 82.0625 254.3637 81.5469 253.145 81.5469 C251.2856 81.5469 249.9106 82.6875 249.9106 84.2656 C249.9106 85.7656 251.0512 86.5 252.0043 86.9062 L253.4887 87.5469 C254.4575 87.9844 255.1918 88.3125 255.1918 89.375 C255.1918 90.375 254.3793 91.0469 253.0356 91.0469 C251.9731 91.0469 250.9418 90.5469 250.2075 89.7812 L249.4262 90.6562 C250.3168 91.5938 251.5668 92.1875 253.02 92.1875 Z"
      /><polygon style="fill:none;" points=" 197 64 145 64"
    /></g
    ><g style="fill:white; text-rendering:optimizeSpeed; stroke:white;"
    ><rect x="186" y="53" width="22" style="clip-path:url(#clipPath3); stroke:none;" height="22"
      /><polygon style="fill:rgb(0,144,188); clip-path:url(#clipPath3); stroke:none;" points=" 186 53 208 53 208 75"
      /><polygon style="fill:none; clip-path:url(#clipPath3); stroke:black;" points=" 186 53 208 53 208 75"
      /><rect x="186" y="53" width="22" style="fill:none; stroke:black;" height="22"
      /><rect x="189" width="15" height="10" y="81" style="stroke:none;"
    /></g
    ><g style="text-rendering:optimizeSpeed; font-size:14px; font-family:'SansSerif';"
    ><path style="stroke:none;" d="M192.7031 92.1875 C194.5156 92.1875 195.9844 91.0938 195.9844 89.25 C195.9844 87.8594 195.0156 86.9375 193.8125 86.6562 L193.8125 86.5938 C194.8906 86.1875 195.6406 85.3594 195.6406 84.125 C195.6406 82.5 194.375 81.5469 192.6562 81.5469 C191.4688 81.5469 190.5469 82.0625 189.7812 82.7812 L190.4688 83.5938 C191.0469 83 191.7656 82.5938 192.5938 82.5938 C193.6562 82.5938 194.3281 83.2344 194.3281 84.2188 C194.3281 85.3281 193.6094 86.1719 191.4844 86.1719 L191.4844 87.1562 C193.8594 87.1562 194.6875 87.9844 194.6875 89.2031 C194.6875 90.3906 193.8125 91.125 192.5938 91.125 C191.4375 91.125 190.6562 90.5781 190.0469 89.9375 L189.4062 90.7812 C190.0781 91.5156 191.0938 92.1875 192.7031 92.1875 ZM201.02 92.1875 C203.1606 92.1875 204.5043 90.8906 204.5043 89.2656 C204.5043 87.75 203.5825 87.0469 202.395 86.5312 L200.9262 85.8906 C200.1293 85.5625 199.2387 85.1875 199.2387 84.1875 C199.2387 83.2656 199.9887 82.6719 201.145 82.6719 C202.0981 82.6719 202.8637 83.0469 203.4887 83.6406 L204.1762 82.8125 C203.4418 82.0625 202.3637 81.5469 201.145 81.5469 C199.2856 81.5469 197.9106 82.6875 197.9106 84.2656 C197.9106 85.7656 199.0512 86.5 200.0043 86.9062 L201.4887 87.5469 C202.4575 87.9844 203.1918 88.3125 203.1918 89.375 C203.1918 90.375 202.3793 91.0469 201.0356 91.0469 C199.9731 91.0469 198.9418 90.5469 198.2075 89.7812 L197.4262 90.6562 C198.3168 91.5938 199.5668 92.1875 201.02 92.1875 Z"
      /><polygon style="fill:none;" points=" 145 64 93 64"
    /></g
    ><g style="fill:white; text-rendering:optimizeSpeed; stroke:white;"
    ><polygon style="stroke:none; clip-path:url(#clipPath4);" points=" 145 53 156 64 145 75 134 64"
      /><rect x="134" y="53" width="22" style="clip-path:url(#clipPath4); fill:rgb(0,144,188); stroke:none;" height="11"
      /><rect x="134" y="53" width="22" style="clip-path:url(#clipPath4); fill:none; stroke:black;" height="11"
      /><polygon style="fill:none; stroke:black;" points=" 145 53 156 64 145 75 134 64"
      /><polygon style="fill:none; stroke:black;" points=" 93 64 41 64"
      /><rect x="82" y="53" width="22" style="clip-path:url(#clipPath5); stroke:none;" height="22"
      /><rect x="82" y="53" width="22" style="clip-path:url(#clipPath5); fill:rgb(0,144,188); stroke:none;" height="22"
      /><rect x="82" y="53" width="22" style="clip-path:url(#clipPath5); fill:none; stroke:black;" height="22"
      /><rect x="82" y="53" width="22" style="fill:none; stroke:black;" height="22"
      /><rect x="85" width="14" height="10" y="35" style="stroke:none;"
    /></g
    ><g style="text-rendering:optimizeSpeed; font-size:14px; font-family:'SansSerif';"
    ><path style="stroke:none;" d="M89.1094 40.5781 C90.3438 40.5781 90.9688 41.4688 90.9688 42.8438 C90.9688 44.25 90.1875 45.1875 89.2188 45.1875 C87.9219 45.1875 87.1562 44.0312 87 41.8906 C87.625 40.9531 88.4531 40.5781 89.1094 40.5781 ZM89.2188 46.1875 C90.8125 46.1875 92.1562 44.8438 92.1562 42.8438 C92.1562 40.7031 91.0469 39.625 89.3125 39.625 C88.5 39.625 87.6094 40.1094 86.9688 40.875 C87.0312 37.6875 88.2188 36.6094 89.625 36.6094 C90.25 36.6094 90.8594 36.9062 91.2656 37.3906 L91.9688 36.5938 C91.4062 35.9844 90.6406 35.5469 89.5781 35.5469 C87.5938 35.5469 85.7812 37.0781 85.7812 41.0938 C85.7812 44.4844 87.2344 46.1875 89.2188 46.1875 ZM97.02 46.1875 C99.1606 46.1875 100.5043 44.8906 100.5043 43.2656 C100.5043 41.75 99.5825 41.0469 98.395 40.5312 L96.9262 39.8906 C96.1293 39.5625 95.2387 39.1875 95.2387 38.1875 C95.2387 37.2656 95.9887 36.6719 97.145 36.6719 C98.0981 36.6719 98.8637 37.0469 99.4887 37.6406 L100.1762 36.8125 C99.4418 36.0625 98.3637 35.5469 97.145 35.5469 C95.2856 35.5469 93.9106 36.6875 93.9106 38.2656 C93.9106 39.7656 95.0512 40.5 96.0043 40.9062 L97.4887 41.5469 C98.4575 41.9844 99.1918 42.3125 99.1918 43.375 C99.1918 44.375 98.3793 45.0469 97.0356 45.0469 C95.9731 45.0469 94.9418 44.5469 94.2075 43.7812 L93.4262 44.6562 C94.3168 45.5938 95.5668 46.1875 97.02 46.1875 Z"
    /></g
    ><g style="fill:white; text-rendering:optimizeSpeed; stroke:white;"
    ><polygon style="stroke:none; clip-path:url(#clipPath6);" points=" 41 53 52 64 41 75 30 64"
      /><rect x="30" y="64" width="22" style="clip-path:url(#clipPath6); fill:rgb(161,122,77); stroke:none;" height="11"
      /><rect x="30" y="64" width="22" style="clip-path:url(#clipPath6); fill:none; stroke:black;" height="11"
      /><polygon style="fill:none; stroke:black;" points=" 41 53 52 64 41 75 30 64"
      /><rect x="70" width="7" height="9" y="67" style="stroke:none;"
      /><path d="M71 72.5156 L73.9531 68.2656 L73.9531 72.5156 L71 72.5156 ZM76.2812 72.5156 L74.8594 72.5156 L74.8594 67.125 L74.2344 67.125 L70.3438 72.6406 L70.3438 73.1875 L73.9531 73.1875 L73.9531 76 L74.8594 76 L74.8594 73.1875 L76.2812 73.1875 L76.2812 72.5156 Z" style="fill:black; stroke:none;"
      /><rect x="56" width="8" height="8" y="68" style="stroke:none;"
      /><path d="M60.9844 73.7031 C60.9375 74.8906 60.1562 75.6562 59.3125 75.6562 C58.2656 75.6562 57.5 74.6875 57.5 72.7188 C57.5 71.2812 58.1562 70.1562 59.3438 70.1562 C60.1406 70.1562 60.7812 70.6875 61.0938 71.6406 L60.9844 73.7031 ZM62.9062 75.2812 C62.7344 75.375 62.5469 75.4219 62.3438 75.4219 C61.9531 75.4219 61.75 75.2188 61.75 74.4219 C61.75 73.4844 61.9688 71.5312 62.1875 69.8281 L62.0312 69.7188 L61.2344 69.9219 L61.1406 70.7969 C60.7812 70.0312 60.1562 69.6562 59.3906 69.6562 C58.0469 69.6562 56.5625 70.8438 56.5625 72.9531 C56.5625 75.0938 57.7188 76.1719 59.1406 76.1719 C60.0156 76.1719 60.6875 75.8125 61.0938 74.9844 C61.2031 75.8594 61.5156 76.1719 62.0156 76.1719 C62.4688 76.1719 62.7969 75.9062 63.0156 75.5625 L62.9062 75.2812 Z" style="fill:black; stroke:none;"
      /><rect x="122" width="7" height="9" y="67" style="stroke:none;"
      /><path d="M123 72.5156 L125.9531 68.2656 L125.9531 72.5156 L123 72.5156 ZM128.2812 72.5156 L126.8594 72.5156 L126.8594 67.125 L126.2344 67.125 L122.3438 72.6406 L122.3438 73.1875 L125.9531 73.1875 L125.9531 76 L126.8594 76 L126.8594 73.1875 L128.2812 73.1875 L128.2812 72.5156 Z" style="fill:black; stroke:none;"
      /><rect x="108" width="8" height="8" y="68" style="stroke:none;"
      /><path d="M112.9844 73.7031 C112.9375 74.8906 112.1562 75.6562 111.3125 75.6562 C110.2656 75.6562 109.5 74.6875 109.5 72.7188 C109.5 71.2812 110.1562 70.1562 111.3438 70.1562 C112.1406 70.1562 112.7812 70.6875 113.0938 71.6406 L112.9844 73.7031 ZM114.9062 75.2812 C114.7344 75.375 114.5469 75.4219 114.3438 75.4219 C113.9531 75.4219 113.75 75.2188 113.75 74.4219 C113.75 73.4844 113.9688 71.5312 114.1875 69.8281 L114.0312 69.7188 L113.2344 69.9219 L113.1406 70.7969 C112.7812 70.0312 112.1562 69.6562 111.3906 69.6562 C110.0469 69.6562 108.5625 70.8438 108.5625 72.9531 C108.5625 75.0938 109.7188 76.1719 111.1406 76.1719 C112.0156 76.1719 112.6875 75.8125 113.0938 74.9844 C113.2031 75.8594 113.5156 76.1719 114.0156 76.1719 C114.4688 76.1719 114.7969 75.9062 115.0156 75.5625 L114.9062 75.2812 Z" style="fill:black; stroke:none;"
      /><rect x="174" width="7" height="9" y="67" style="stroke:none;"
      /><path d="M175 72.5156 L177.9531 68.2656 L177.9531 72.5156 L175 72.5156 ZM180.2812 72.5156 L178.8594 72.5156 L178.8594 67.125 L178.2344 67.125 L174.3438 72.6406 L174.3438 73.1875 L177.9531 73.1875 L177.9531 76 L178.8594 76 L178.8594 73.1875 L180.2812 73.1875 L180.2812 72.5156 Z" style="fill:black; stroke:none;"
      /><rect x="161" width="6" height="13" y="65" style="stroke:none;"
      /><path d="M163.0938 71.2031 C163.0938 69.6562 163.75 68.8125 164.7969 68.8125 C165.7188 68.8125 166.2656 69.4531 166.2656 70.5156 C166.2656 71.7188 165.5 72.4375 164.1875 72.7031 L164.2969 73.3125 C166.2188 73.2344 166.9375 74.2188 166.9375 75.4375 C166.9375 76.625 166.2344 77.4219 164.9531 77.4219 C164.25 77.4219 163.6562 77.1562 163.0938 76.7188 L163.0938 71.2031 ZM162.2031 77.9062 L162.1094 80.375 L162.2656 80.4844 L163.1562 80.2656 L163.0156 77.0938 C163.5469 77.8438 164.3594 78.1719 165.1719 78.1719 C166.5625 78.1719 167.8594 77.2188 167.8594 75.4844 C167.8594 73.9531 166.875 73.1094 165.125 73 C166.5625 72.6094 167.1875 71.4531 167.1875 70.4844 C167.1875 69.0938 166.1562 68.3125 164.9062 68.3125 C163.2969 68.3125 162.2188 69.5469 162.2188 71.5156 L162.2031 77.9062 Z" style="fill:black; stroke:none;"
      /><rect x="226" width="7" height="9" y="67" style="stroke:none;"
      /><path d="M227 72.5156 L229.9531 68.2656 L229.9531 72.5156 L227 72.5156 ZM232.2812 72.5156 L230.8594 72.5156 L230.8594 67.125 L230.2344 67.125 L226.3438 72.6406 L226.3438 73.1875 L229.9531 73.1875 L229.9531 76 L230.8594 76 L230.8594 73.1875 L232.2812 73.1875 L232.2812 72.5156 Z" style="fill:black; stroke:none;"
      /><rect x="212" width="8" height="8" y="68" style="stroke:none;"
      /><path d="M216.9844 73.7031 C216.9375 74.8906 216.1562 75.6562 215.3125 75.6562 C214.2656 75.6562 213.5 74.6875 213.5 72.7188 C213.5 71.2812 214.1562 70.1562 215.3438 70.1562 C216.1406 70.1562 216.7812 70.6875 217.0938 71.6406 L216.9844 73.7031 ZM218.9062 75.2812 C218.7344 75.375 218.5469 75.4219 218.3438 75.4219 C217.9531 75.4219 217.75 75.2188 217.75 74.4219 C217.75 73.4844 217.9688 71.5312 218.1875 69.8281 L218.0312 69.7188 L217.2344 69.9219 L217.1406 70.7969 C216.7812 70.0312 216.1562 69.6562 215.3906 69.6562 C214.0469 69.6562 212.5625 70.8438 212.5625 72.9531 C212.5625 75.0938 213.7188 76.1719 215.1406 76.1719 C216.0156 76.1719 216.6875 75.8125 217.0938 74.9844 C217.2031 75.8594 217.5156 76.1719 218.0156 76.1719 C218.4688 76.1719 218.7969 75.9062 219.0156 75.5625 L218.9062 75.2812 Z" style="fill:black; stroke:none;"
      /><rect x="278" width="7" height="9" y="67" style="stroke:none;"
      /><path d="M279 72.5156 L281.9531 68.2656 L281.9531 72.5156 L279 72.5156 ZM284.2812 72.5156 L282.8594 72.5156 L282.8594 67.125 L282.2344 67.125 L278.3438 72.6406 L278.3438 73.1875 L281.9531 73.1875 L281.9531 76 L282.8594 76 L282.8594 73.1875 L284.2812 73.1875 L284.2812 72.5156 Z" style="fill:black; stroke:none;"
      /><rect x="264" width="8" height="8" y="68" style="stroke:none;"
      /><path d="M268.9844 73.7031 C268.9375 74.8906 268.1562 75.6562 267.3125 75.6562 C266.2656 75.6562 265.5 74.6875 265.5 72.7188 C265.5 71.2812 266.1562 70.1562 267.3438 70.1562 C268.1406 70.1562 268.7812 70.6875 269.0938 71.6406 L268.9844 73.7031 ZM270.9062 75.2812 C270.7344 75.375 270.5469 75.4219 270.3438 75.4219 C269.9531 75.4219 269.75 75.2188 269.75 74.4219 C269.75 73.4844 269.9688 71.5312 270.1875 69.8281 L270.0312 69.7188 L269.2344 69.9219 L269.1406 70.7969 C268.7812 70.0312 268.1562 69.6562 267.3906 69.6562 C266.0469 69.6562 264.5625 70.8438 264.5625 72.9531 C264.5625 75.0938 265.7188 76.1719 267.1406 76.1719 C268.0156 76.1719 268.6875 75.8125 269.0938 74.9844 C269.2031 75.8594 269.5156 76.1719 270.0156 76.1719 C270.4688 76.1719 270.7969 75.9062 271.0156 75.5625 L270.9062 75.2812 Z" style="fill:black; stroke:none;"
      /><rect x="317" width="5" height="10" y="67" style="stroke:none;"
      /><path d="M318.8906 75.6875 C318.4844 75.6875 318.1562 76.0469 318.1562 76.4219 C318.1562 76.8125 318.4844 77.1562 318.8906 77.1562 C319.2969 77.1562 319.6406 76.8125 319.6406 76.4219 C319.6406 76.0469 319.2969 75.6875 318.8906 75.6875 ZM320.4688 69.5781 C320.7188 69.8906 320.875 70.2656 320.8906 70.6562 C320.8906 71.1875 320.625 71.5 320.0312 71.7656 L319.4062 72.0156 C318.6406 72.3125 318.3906 72.5469 318.3906 72.9375 C318.3906 73.1094 318.4531 73.3438 318.5781 73.8125 L318.7344 74.3438 L319.1094 74.3438 L319.0938 73.5312 C319.0938 73.0938 319.2031 72.9688 319.7812 72.7344 L320.2031 72.5625 C321.0312 72.2188 321.4531 71.6875 321.4531 70.8438 C321.4531 69.1562 319.6562 68.1875 318.5 68.0312 C318.1094 68.125 317.9062 68.2969 317.9062 68.6406 C317.9062 68.9375 318.0625 69.1562 318.7188 69.2656 L320.4688 69.5781 Z" style="fill:black; stroke:none;"
    /></g
  ></g
></svg
>
