<?xml version="1.0"?>
<!DOCTYPE svg PUBLIC '-//W3C//DTD SVG 1.0//EN'
          'http://www.w3.org/TR/2001/REC-SVG-20010904/DTD/svg10.dtd'>
<svg xmlns:xlink="http://www.w3.org/1999/xlink" style="fill-opacity:1; color-rendering:auto; color-interpolation:auto; text-rendering:auto; stroke:black; stroke-linecap:square; stroke-miterlimit:10; shape-rendering:auto; stroke-opacity:1; fill:black; stroke-dasharray:none; font-weight:normal; stroke-width:1; font-family:'Dialog'; font-style:normal; stroke-linejoin:miter; font-size:12px; stroke-dashoffset:0; image-rendering:auto;" viewBox="0 0 446 316" xmlns="http://www.w3.org/2000/svg"
><!--Generated by the Batik Graphics2D SVG Generator--><defs id="genericDefs"
  /><g
  ><defs id="defs1"
    ><clipPath clipPathUnits="userSpaceOnUse" id="clipPath1"
      ><path d="M342 82 L364 82 L364 104 L342 104 L342 82 Z"
      /></clipPath
      ><clipPath clipPathUnits="userSpaceOnUse" id="clipPath2"
      ><path d="M290 82 L312 82 L312 104 L290 104 L290 82 Z"
      /></clipPath
      ><clipPath clipPathUnits="userSpaceOnUse" id="clipPath3"
      ><path d="M260 93 C260 99.0751 255.0751 104 249 104 C242.9249 104 238 99.0751 238 93 C238 86.9249 242.9249 82 249 82 C255.0751 82 260 86.9249 260 93 Z"
      /></clipPath
      ><clipPath clipPathUnits="userSpaceOnUse" id="clipPath4"
      ><path d="M208 223 C208 229.0751 203.0751 234 197 234 C190.9249 234 186 229.0751 186 223 C186 216.9249 190.9249 212 197 212 C203.0751 212 208 216.9249 208 223 Z"
      /></clipPath
      ><clipPath clipPathUnits="userSpaceOnUse" id="clipPath5"
      ><path d="M134 264 L156 264 L156 286 L134 286 L134 264 Z"
      /></clipPath
      ><clipPath clipPathUnits="userSpaceOnUse" id="clipPath6"
      ><path d="M104 275 C104 281.0751 99.0751 286 93 286 C86.9249 286 82 281.0751 82 275 C82 268.9249 86.9249 264 93 264 C99.0751 264 104 268.9249 104 275 Z"
      /></clipPath
      ><clipPath clipPathUnits="userSpaceOnUse" id="clipPath7"
      ><path style="fill-rule:evenodd;" d="M41 264 L52 275 L41 286 L30 275 Z"
      /></clipPath
      ><clipPath clipPathUnits="userSpaceOnUse" id="clipPath8"
      ><path style="fill-rule:evenodd;" d="M145 234 L134 212 L156 212 Z"
      /></clipPath
      ><clipPath clipPathUnits="userSpaceOnUse" id="clipPath9"
      ><path d="M134 160 L156 160 L156 182 L134 182 L134 160 Z"
      /></clipPath
      ><clipPath clipPathUnits="userSpaceOnUse" id="clipPath10"
      ><path d="M208 93 C208 99.0751 203.0751 104 197 104 C190.9249 104 186 99.0751 186 93 C186 86.9249 190.9249 82 197 82 C203.0751 82 208 86.9249 208 93 Z"
      /></clipPath
      ><clipPath clipPathUnits="userSpaceOnUse" id="clipPath11"
      ><path d="M134 108 L156 108 L156 130 L134 130 L134 108 Z"
      /></clipPath
      ><clipPath clipPathUnits="userSpaceOnUse" id="clipPath12"
      ><path d="M104 119 C104 125.0751 99.0751 130 93 130 C86.9249 130 82 125.0751 82 119 C82 112.9249 86.9249 108 93 108 C99.0751 108 104 112.9249 104 119 Z"
      /></clipPath
      ><clipPath clipPathUnits="userSpaceOnUse" id="clipPath13"
      ><path style="fill-rule:evenodd;" d="M41 108 L52 119 L41 130 L30 119 Z"
      /></clipPath
      ><clipPath clipPathUnits="userSpaceOnUse" id="clipPath14"
      ><path d="M134 56 L156 56 L156 78 L134 78 L134 56 Z"
      /></clipPath
      ><clipPath clipPathUnits="userSpaceOnUse" id="clipPath15"
      ><path d="M104 67 C104 73.0751 99.0751 78 93 78 C86.9249 78 82 73.0751 82 67 C82 60.9249 86.9249 56 93 56 C99.0751 56 104 60.9249 104 67 Z"
      /></clipPath
      ><clipPath clipPathUnits="userSpaceOnUse" id="clipPath16"
      ><path d="M186 30 L208 30 L208 52 L186 52 L186 30 Z"
      /></clipPath
    ></defs
    ><g style="fill:white; text-rendering:optimizeSpeed; stroke:white;"
    ><rect x="0" width="446" height="316" y="0" style="stroke:none;"
      /><polygon style="fill:none; stroke:black;" points=" 405 93 353 93"
      /><path d="M405 82 C399.5 87.5 410.5 98.5 405 104" style="fill:none; stroke:black;"
      /><polygon style="fill:none; stroke:black;" points=" 353 93 301 93"
      /><rect x="342" y="82" width="22" style="clip-path:url(#clipPath1); stroke:none;" height="22"
      /><rect x="342" y="82" width="22" style="clip-path:url(#clipPath1); fill:rgb(0,144,188); stroke:none;" height="22"
      /><rect x="342" y="82" width="22" style="clip-path:url(#clipPath1); fill:none; stroke:black;" height="22"
      /><rect x="342" y="82" width="22" style="fill:none; stroke:black;" height="22"
      /><polygon style="fill:none; stroke:black;" points=" 301 93 249 93"
      /><rect x="290" y="82" width="22" style="clip-path:url(#clipPath2); stroke:none;" height="22"
      /><rect x="290" y="82" width="22" style="clip-path:url(#clipPath2); fill:rgb(0,144,188); stroke:none;" height="22"
      /><rect x="290" y="82" width="22" style="clip-path:url(#clipPath2); fill:none; stroke:black;" height="22"
      /><rect x="290" y="82" width="22" style="fill:none; stroke:black;" height="22"
      /><polygon style="fill:none; stroke:black;" points=" 249 93 197 223"
      /><polygon style="fill:none; stroke:black;" points=" 249 93 197 93"
      /><polygon style="fill:none; stroke:black;" points=" 249 93 197 41"
      /><circle style="clip-path:url(#clipPath3); stroke:none;" r="11" cx="249" cy="93"
      /><rect x="238" y="82" width="22" style="clip-path:url(#clipPath3); fill:rgb(0,166,81); stroke:none;" height="22"
      /><rect x="238" y="82" width="22" style="clip-path:url(#clipPath3); fill:none; stroke:black;" height="22"
      /><circle style="fill:none; stroke:black;" r="11" cx="249" cy="93"
      /><polygon style="fill:none; stroke:black;" points=" 197 223 145 275"
      /><polygon style="fill:none; stroke:black;" points=" 197 223 145 171"
      /><circle style="clip-path:url(#clipPath4); stroke:none;" r="11" cx="197" cy="223"
      /><rect x="186" y="212" width="22" style="clip-path:url(#clipPath4); fill:rgb(0,166,81); stroke:none;" height="22"
      /><rect x="186" y="212" width="22" style="clip-path:url(#clipPath4); fill:none; stroke:black;" height="22"
      /><circle style="fill:none; stroke:black;" r="11" cx="197" cy="223"
      /><polygon style="fill:none; stroke:black;" points=" 145 275 93 275"
      /><polygon style="fill:none; stroke:black;" points=" 145 275 145 223"
      /><rect x="134" y="264" width="22" style="clip-path:url(#clipPath5); stroke:none;" height="22"
      /><rect x="134" y="264" width="22" style="clip-path:url(#clipPath5); fill:rgb(0,144,188); stroke:none;" height="22"
      /><rect x="134" y="264" width="22" style="clip-path:url(#clipPath5); fill:none; stroke:black;" height="22"
      /><rect x="134" y="264" width="22" style="fill:none; stroke:black;" height="22"
      /><polygon style="fill:none; stroke:black;" points=" 93 275 41 275"
      /><circle style="clip-path:url(#clipPath6); stroke:none;" r="11" cx="93" cy="275"
      /><rect x="82" y="264" width="22" style="clip-path:url(#clipPath6); fill:rgb(255,212,0); stroke:none;" height="22"
      /><rect x="82" y="264" width="22" style="clip-path:url(#clipPath6); fill:none; stroke:black;" height="22"
      /><circle style="fill:none; stroke:black;" r="11" cx="93" cy="275"
      /><polygon style="clip-path:url(#clipPath7); stroke:none;" points=" 41 264 52 275 41 286 30 275"
      /><rect x="30" y="264" width="22" style="clip-path:url(#clipPath7); fill:rgb(165,67,153); stroke:none;" height="22"
      /><rect x="30" y="264" width="22" style="clip-path:url(#clipPath7); fill:none; stroke:black;" height="22"
      /><polygon style="fill:none; stroke:black;" points=" 41 264 52 275 41 286 30 275"
      /><rect x="71" y="278" width="5" style="stroke:none;" height="10"
    /></g
    ><g style="font-family:'Serif'; text-rendering:optimizeSpeed; "
    ><path style="stroke:none;" d="M72.8906 286.6875 C72.4844 286.6875 72.1562 287.0469 72.1562 287.4219 C72.1562 287.8125 72.4844 288.1562 72.8906 288.1562 C73.2969 288.1562 73.6406 287.8125 73.6406 287.4219 C73.6406 287.0469 73.2969 286.6875 72.8906 286.6875 ZM74.4688 280.5781 C74.7188 280.8906 74.875 281.2656 74.8906 281.6562 C74.8906 282.1875 74.625 282.5 74.0312 282.7656 L73.4062 283.0156 C72.6406 283.3125 72.3906 283.5469 72.3906 283.9375 C72.3906 284.1094 72.4531 284.3438 72.5781 284.8125 L72.7344 285.3438 L73.1094 285.3438 L73.0938 284.5312 C73.0938 284.0938 73.2031 283.9688 73.7812 283.7344 L74.2031 283.5625 C75.0312 283.2188 75.4531 282.6875 75.4531 281.8438 C75.4531 280.1562 73.6562 279.1875 72.5 279.0312 C72.1094 279.125 71.9062 279.2969 71.9062 279.6406 C71.9062 279.9375 72.0625 280.1562 72.7188 280.2656 L74.4688 280.5781 Z"
      /><rect x="57" y="278" width="5" style="fill:white; stroke:none;" height="10"
      /><path style="stroke:none;" d="M58.8906 286.6875 C58.4844 286.6875 58.1562 287.0469 58.1562 287.4219 C58.1562 287.8125 58.4844 288.1562 58.8906 288.1562 C59.2969 288.1562 59.6406 287.8125 59.6406 287.4219 C59.6406 287.0469 59.2969 286.6875 58.8906 286.6875 ZM60.4688 280.5781 C60.7188 280.8906 60.875 281.2656 60.8906 281.6562 C60.8906 282.1875 60.625 282.5 60.0312 282.7656 L59.4062 283.0156 C58.6406 283.3125 58.3906 283.5469 58.3906 283.9375 C58.3906 284.1094 58.4531 284.3438 58.5781 284.8125 L58.7344 285.3438 L59.1094 285.3438 L59.0938 284.5312 C59.0938 284.0938 59.2031 283.9688 59.7812 283.7344 L60.2031 283.5625 C61.0312 283.2188 61.4531 282.6875 61.4531 281.8438 C61.4531 280.1562 59.6562 279.1875 58.5 279.0312 C58.1094 279.125 57.9062 279.2969 57.9062 279.6406 C57.9062 279.9375 58.0625 280.1562 58.7188 280.2656 L60.4688 280.5781 Z"
      /><polygon style="fill:white; clip-path:url(#clipPath8); stroke:none;" points=" 145 234 134 212 156 212"
      /><rect x="134" y="212" width="22" style="clip-path:url(#clipPath8); fill:rgb(237,28,36); stroke:none;" height="22"
      /><rect x="134" y="212" width="22" style="fill:none; clip-path:url(#clipPath8);" height="22"
      /><polygon style="fill:none;" points=" 145 234 134 212 156 212"
      /><rect x="123" y="278" width="5" style="fill:white; stroke:none;" height="10"
      /><path style="stroke:none;" d="M124.8906 286.6875 C124.4844 286.6875 124.1562 287.0469 124.1562 287.4219 C124.1562 287.8125 124.4844 288.1562 124.8906 288.1562 C125.2969 288.1562 125.6406 287.8125 125.6406 287.4219 C125.6406 287.0469 125.2969 286.6875 124.8906 286.6875 ZM126.4688 280.5781 C126.7188 280.8906 126.875 281.2656 126.8906 281.6562 C126.8906 282.1875 126.625 282.5 126.0312 282.7656 L125.4062 283.0156 C124.6406 283.3125 124.3906 283.5469 124.3906 283.9375 C124.3906 284.1094 124.4531 284.3438 124.5781 284.8125 L124.7344 285.3438 L125.1094 285.3438 L125.0938 284.5312 C125.0938 284.0938 125.2031 283.9688 125.7812 283.7344 L126.2031 283.5625 C127.0312 283.2188 127.4531 282.6875 127.4531 281.8438 C127.4531 280.1562 125.6562 279.1875 124.5 279.0312 C124.1094 279.125 123.9062 279.2969 123.9062 279.6406 C123.9062 279.9375 124.0625 280.1562 124.7188 280.2656 L126.4688 280.5781 Z"
      /><rect x="109" y="278" width="5" style="fill:white; stroke:none;" height="10"
      /><path style="stroke:none;" d="M110.8906 286.6875 C110.4844 286.6875 110.1562 287.0469 110.1562 287.4219 C110.1562 287.8125 110.4844 288.1562 110.8906 288.1562 C111.2969 288.1562 111.6406 287.8125 111.6406 287.4219 C111.6406 287.0469 111.2969 286.6875 110.8906 286.6875 ZM112.4688 280.5781 C112.7188 280.8906 112.875 281.2656 112.8906 281.6562 C112.8906 282.1875 112.625 282.5 112.0312 282.7656 L111.4062 283.0156 C110.6406 283.3125 110.3906 283.5469 110.3906 283.9375 C110.3906 284.1094 110.4531 284.3438 110.5781 284.8125 L110.7344 285.3438 L111.1094 285.3438 L111.0938 284.5312 C111.0938 284.0938 111.2031 283.9688 111.7812 283.7344 L112.2031 283.5625 C113.0312 283.2188 113.4531 282.6875 113.4531 281.8438 C113.4531 280.1562 111.6562 279.1875 110.5 279.0312 C110.1094 279.125 109.9062 279.2969 109.9062 279.6406 C109.9062 279.9375 110.0625 280.1562 110.7188 280.2656 L112.4688 280.5781 Z"
      /><rect x="134" y="251" width="5" style="fill:white; stroke:none;" height="10"
      /><path style="stroke:none;" d="M135.8906 259.6875 C135.4844 259.6875 135.1562 260.0469 135.1562 260.4219 C135.1562 260.8125 135.4844 261.1562 135.8906 261.1562 C136.2969 261.1562 136.6406 260.8125 136.6406 260.4219 C136.6406 260.0469 136.2969 259.6875 135.8906 259.6875 ZM137.4688 253.5781 C137.7188 253.8906 137.875 254.2656 137.8906 254.6562 C137.8906 255.1875 137.625 255.5 137.0312 255.7656 L136.4062 256.0156 C135.6406 256.3125 135.3906 256.5469 135.3906 256.9375 C135.3906 257.1094 135.4531 257.3438 135.5781 257.8125 L135.7344 258.3438 L136.1094 258.3438 L136.0938 257.5312 C136.0938 257.0938 136.2031 256.9688 136.7812 256.7344 L137.2031 256.5625 C138.0312 256.2188 138.4531 255.6875 138.4531 254.8438 C138.4531 253.1562 136.6562 252.1875 135.5 252.0312 C135.1094 252.125 134.9062 252.2969 134.9062 252.6406 C134.9062 252.9375 135.0625 253.1562 135.7188 253.2656 L137.4688 253.5781 Z"
      /><rect x="134" y="237" width="5" style="fill:white; stroke:none;" height="10"
      /><path style="stroke:none;" d="M135.8906 245.6875 C135.4844 245.6875 135.1562 246.0469 135.1562 246.4219 C135.1562 246.8125 135.4844 247.1562 135.8906 247.1562 C136.2969 247.1562 136.6406 246.8125 136.6406 246.4219 C136.6406 246.0469 136.2969 245.6875 135.8906 245.6875 ZM137.4688 239.5781 C137.7188 239.8906 137.875 240.2656 137.8906 240.6562 C137.8906 241.1875 137.625 241.5 137.0312 241.7656 L136.4062 242.0156 C135.6406 242.3125 135.3906 242.5469 135.3906 242.9375 C135.3906 243.1094 135.4531 243.3438 135.5781 243.8125 L135.7344 244.3438 L136.1094 244.3438 L136.0938 243.5312 C136.0938 243.0938 136.2031 242.9688 136.7812 242.7344 L137.2031 242.5625 C138.0312 242.2188 138.4531 241.6875 138.4531 240.8438 C138.4531 239.1562 136.6562 238.1875 135.5 238.0312 C135.1094 238.125 134.9062 238.2969 134.9062 238.6406 C134.9062 238.9375 135.0625 239.1562 135.7188 239.2656 L137.4688 239.5781 Z"
      /><rect x="134" y="160" width="22" style="clip-path:url(#clipPath9); fill:white; stroke:none;" height="22"
      /><rect x="134" y="160" width="22" style="clip-path:url(#clipPath9); fill:rgb(0,144,188); stroke:none;" height="22"
      /><rect x="134" y="160" width="22" style="fill:none; clip-path:url(#clipPath9);" height="22"
      /><rect x="134" width="22" height="22" y="160" style="fill:none;"
      /><rect x="183" y="240" width="5" style="fill:white; stroke:none;" height="10"
      /><path style="stroke:none;" d="M184.8906 248.6875 C184.4844 248.6875 184.1562 249.0469 184.1562 249.4219 C184.1562 249.8125 184.4844 250.1562 184.8906 250.1562 C185.2969 250.1562 185.6406 249.8125 185.6406 249.4219 C185.6406 249.0469 185.2969 248.6875 184.8906 248.6875 ZM186.4688 242.5781 C186.7188 242.8906 186.875 243.2656 186.8906 243.6562 C186.8906 244.1875 186.625 244.5 186.0312 244.7656 L185.4062 245.0156 C184.6406 245.3125 184.3906 245.5469 184.3906 245.9375 C184.3906 246.1094 184.4531 246.3438 184.5781 246.8125 L184.7344 247.3438 L185.1094 247.3438 L185.0938 246.5312 C185.0938 246.0938 185.2031 245.9688 185.7812 245.7344 L186.2031 245.5625 C187.0312 245.2188 187.4531 244.6875 187.4531 243.8438 C187.4531 242.1562 185.6562 241.1875 184.5 241.0312 C184.1094 241.125 183.9062 241.2969 183.9062 241.6406 C183.9062 241.9375 184.0625 242.1562 184.7188 242.2656 L186.4688 242.5781 Z"
      /><rect x="164" y="259" width="5" style="fill:white; stroke:none;" height="10"
      /><path style="stroke:none;" d="M165.8906 267.6875 C165.4844 267.6875 165.1562 268.0469 165.1562 268.4219 C165.1562 268.8125 165.4844 269.1562 165.8906 269.1562 C166.2969 269.1562 166.6406 268.8125 166.6406 268.4219 C166.6406 268.0469 166.2969 267.6875 165.8906 267.6875 ZM167.4688 261.5781 C167.7188 261.8906 167.875 262.2656 167.8906 262.6562 C167.8906 263.1875 167.625 263.5 167.0312 263.7656 L166.4062 264.0156 C165.6406 264.3125 165.3906 264.5469 165.3906 264.9375 C165.3906 265.1094 165.4531 265.3438 165.5781 265.8125 L165.7344 266.3438 L166.1094 266.3438 L166.0938 265.5312 C166.0938 265.0938 166.2031 264.9688 166.7812 264.7344 L167.2031 264.5625 C168.0312 264.2188 168.4531 263.6875 168.4531 262.8438 C168.4531 261.1562 166.6562 260.1875 165.5 260.0312 C165.1094 260.125 164.9062 260.2969 164.9062 260.6406 C164.9062 260.9375 165.0625 261.1562 165.7188 261.2656 L167.4688 261.5781 Z"
      /><rect x="172" y="207" width="5" style="fill:white; stroke:none;" height="10"
      /><path style="stroke:none;" d="M173.8906 215.6875 C173.4844 215.6875 173.1562 216.0469 173.1562 216.4219 C173.1562 216.8125 173.4844 217.1562 173.8906 217.1562 C174.2969 217.1562 174.6406 216.8125 174.6406 216.4219 C174.6406 216.0469 174.2969 215.6875 173.8906 215.6875 ZM175.4688 209.5781 C175.7188 209.8906 175.875 210.2656 175.8906 210.6562 C175.8906 211.1875 175.625 211.5 175.0312 211.7656 L174.4062 212.0156 C173.6406 212.3125 173.3906 212.5469 173.3906 212.9375 C173.3906 213.1094 173.4531 213.3438 173.5781 213.8125 L173.7344 214.3438 L174.1094 214.3438 L174.0938 213.5312 C174.0938 213.0938 174.2031 212.9688 174.7812 212.7344 L175.2031 212.5625 C176.0312 212.2188 176.4531 211.6875 176.4531 210.8438 C176.4531 209.1562 174.6562 208.1875 173.5 208.0312 C173.1094 208.125 172.9062 208.2969 172.9062 208.6406 C172.9062 208.9375 173.0625 209.1562 173.7188 209.2656 L175.4688 209.5781 Z"
      /><rect x="153" y="188" width="5" style="fill:white; stroke:none;" height="10"
      /><path style="stroke:none;" d="M154.8906 196.6875 C154.4844 196.6875 154.1562 197.0469 154.1562 197.4219 C154.1562 197.8125 154.4844 198.1562 154.8906 198.1562 C155.2969 198.1562 155.6406 197.8125 155.6406 197.4219 C155.6406 197.0469 155.2969 196.6875 154.8906 196.6875 ZM156.4688 190.5781 C156.7188 190.8906 156.875 191.2656 156.8906 191.6562 C156.8906 192.1875 156.625 192.5 156.0312 192.7656 L155.4062 193.0156 C154.6406 193.3125 154.3906 193.5469 154.3906 193.9375 C154.3906 194.1094 154.4531 194.3438 154.5781 194.8125 L154.7344 195.3438 L155.1094 195.3438 L155.0938 194.5312 C155.0938 194.0938 155.2031 193.9688 155.7812 193.7344 L156.2031 193.5625 C157.0312 193.2188 157.4531 192.6875 157.4531 191.8438 C157.4531 190.1562 155.6562 189.1875 154.5 189.0312 C154.1094 189.125 153.9062 189.2969 153.9062 189.6406 C153.9062 189.9375 154.0625 190.1562 154.7188 190.2656 L156.4688 190.5781 Z"
      /><polygon style="fill:none;" points=" 197 93 145 119"
      /><polygon style="fill:none;" points=" 197 93 145 67"
      /><circle style="fill:white; clip-path:url(#clipPath10); stroke:none;" r="11" cx="197" cy="93"
      /><rect x="186" y="82" width="22" style="clip-path:url(#clipPath10); fill:rgb(0,166,81); stroke:none;" height="22"
      /><rect x="186" y="82" width="22" style="fill:none; clip-path:url(#clipPath10);" height="22"
      /><circle r="11" style="fill:none;" cx="197" cy="93"
      /><polygon style="fill:none;" points=" 145 119 93 119"
      /><rect x="134" y="108" width="22" style="clip-path:url(#clipPath11); fill:white; stroke:none;" height="22"
      /><rect x="134" y="108" width="22" style="clip-path:url(#clipPath11); fill:rgb(0,144,188); stroke:none;" height="22"
      /><rect x="134" y="108" width="22" style="fill:none; clip-path:url(#clipPath11);" height="22"
      /><rect x="134" width="22" height="22" y="108" style="fill:none;"
      /><polygon style="fill:none;" points=" 93 119 41 119"
      /><circle style="fill:white; clip-path:url(#clipPath12); stroke:none;" r="11" cx="93" cy="119"
      /><rect x="82" y="108" width="22" style="clip-path:url(#clipPath12); fill:rgb(255,212,0); stroke:none;" height="22"
      /><rect x="82" y="108" width="22" style="fill:none; clip-path:url(#clipPath12);" height="22"
      /><circle r="11" style="fill:none;" cx="93" cy="119"
      /><polygon style="fill:white; clip-path:url(#clipPath13); stroke:none;" points=" 41 108 52 119 41 130 30 119"
      /><rect x="30" y="108" width="22" style="clip-path:url(#clipPath13); fill:rgb(165,67,153); stroke:none;" height="22"
      /><rect x="30" y="108" width="22" style="fill:none; clip-path:url(#clipPath13);" height="22"
      /><polygon style="fill:none;" points=" 41 108 52 119 41 130 30 119"
      /><rect x="71" y="122" width="5" style="fill:white; stroke:none;" height="10"
      /><path style="stroke:none;" d="M72.8906 130.6875 C72.4844 130.6875 72.1562 131.0469 72.1562 131.4219 C72.1562 131.8125 72.4844 132.1562 72.8906 132.1562 C73.2969 132.1562 73.6406 131.8125 73.6406 131.4219 C73.6406 131.0469 73.2969 130.6875 72.8906 130.6875 ZM74.4688 124.5781 C74.7188 124.8906 74.875 125.2656 74.8906 125.6562 C74.8906 126.1875 74.625 126.5 74.0312 126.7656 L73.4062 127.0156 C72.6406 127.3125 72.3906 127.5469 72.3906 127.9375 C72.3906 128.1094 72.4531 128.3438 72.5781 128.8125 L72.7344 129.3438 L73.1094 129.3438 L73.0938 128.5312 C73.0938 128.0938 73.2031 127.9688 73.7812 127.7344 L74.2031 127.5625 C75.0312 127.2188 75.4531 126.6875 75.4531 125.8438 C75.4531 124.1562 73.6562 123.1875 72.5 123.0312 C72.1094 123.125 71.9062 123.2969 71.9062 123.6406 C71.9062 123.9375 72.0625 124.1562 72.7188 124.2656 L74.4688 124.5781 Z"
      /><rect x="57" y="122" width="5" style="fill:white; stroke:none;" height="10"
      /><path style="stroke:none;" d="M58.8906 130.6875 C58.4844 130.6875 58.1562 131.0469 58.1562 131.4219 C58.1562 131.8125 58.4844 132.1562 58.8906 132.1562 C59.2969 132.1562 59.6406 131.8125 59.6406 131.4219 C59.6406 131.0469 59.2969 130.6875 58.8906 130.6875 ZM60.4688 124.5781 C60.7188 124.8906 60.875 125.2656 60.8906 125.6562 C60.8906 126.1875 60.625 126.5 60.0312 126.7656 L59.4062 127.0156 C58.6406 127.3125 58.3906 127.5469 58.3906 127.9375 C58.3906 128.1094 58.4531 128.3438 58.5781 128.8125 L58.7344 129.3438 L59.1094 129.3438 L59.0938 128.5312 C59.0938 128.0938 59.2031 127.9688 59.7812 127.7344 L60.2031 127.5625 C61.0312 127.2188 61.4531 126.6875 61.4531 125.8438 C61.4531 124.1562 59.6562 123.1875 58.5 123.0312 C58.1094 123.125 57.9062 123.2969 57.9062 123.6406 C57.9062 123.9375 58.0625 124.1562 58.7188 124.2656 L60.4688 124.5781 Z"
      /><rect x="123" y="122" width="5" style="fill:white; stroke:none;" height="10"
      /><path style="stroke:none;" d="M124.8906 130.6875 C124.4844 130.6875 124.1562 131.0469 124.1562 131.4219 C124.1562 131.8125 124.4844 132.1562 124.8906 132.1562 C125.2969 132.1562 125.6406 131.8125 125.6406 131.4219 C125.6406 131.0469 125.2969 130.6875 124.8906 130.6875 ZM126.4688 124.5781 C126.7188 124.8906 126.875 125.2656 126.8906 125.6562 C126.8906 126.1875 126.625 126.5 126.0312 126.7656 L125.4062 127.0156 C124.6406 127.3125 124.3906 127.5469 124.3906 127.9375 C124.3906 128.1094 124.4531 128.3438 124.5781 128.8125 L124.7344 129.3438 L125.1094 129.3438 L125.0938 128.5312 C125.0938 128.0938 125.2031 127.9688 125.7812 127.7344 L126.2031 127.5625 C127.0312 127.2188 127.4531 126.6875 127.4531 125.8438 C127.4531 124.1562 125.6562 123.1875 124.5 123.0312 C124.1094 123.125 123.9062 123.2969 123.9062 123.6406 C123.9062 123.9375 124.0625 124.1562 124.7188 124.2656 L126.4688 124.5781 Z"
      /><rect x="109" y="122" width="5" style="fill:white; stroke:none;" height="10"
      /><path style="stroke:none;" d="M110.8906 130.6875 C110.4844 130.6875 110.1562 131.0469 110.1562 131.4219 C110.1562 131.8125 110.4844 132.1562 110.8906 132.1562 C111.2969 132.1562 111.6406 131.8125 111.6406 131.4219 C111.6406 131.0469 111.2969 130.6875 110.8906 130.6875 ZM112.4688 124.5781 C112.7188 124.8906 112.875 125.2656 112.8906 125.6562 C112.8906 126.1875 112.625 126.5 112.0312 126.7656 L111.4062 127.0156 C110.6406 127.3125 110.3906 127.5469 110.3906 127.9375 C110.3906 128.1094 110.4531 128.3438 110.5781 128.8125 L110.7344 129.3438 L111.1094 129.3438 L111.0938 128.5312 C111.0938 128.0938 111.2031 127.9688 111.7812 127.7344 L112.2031 127.5625 C113.0312 127.2188 113.4531 126.6875 113.4531 125.8438 C113.4531 124.1562 111.6562 123.1875 110.5 123.0312 C110.1094 123.125 109.9062 123.2969 109.9062 123.6406 C109.9062 123.9375 110.0625 124.1562 110.7188 124.2656 L112.4688 124.5781 Z"
      /><polygon style="fill:none;" points=" 145 67 93 67"
      /><rect x="134" y="56" width="22" style="clip-path:url(#clipPath14); fill:white; stroke:none;" height="22"
      /><rect x="134" y="56" width="22" style="clip-path:url(#clipPath14); fill:rgb(0,144,188); stroke:none;" height="22"
      /><rect x="134" y="56" width="22" style="fill:none; clip-path:url(#clipPath14);" height="22"
      /><rect x="134" width="22" height="22" y="56" style="fill:none;"
      /><circle style="fill:white; clip-path:url(#clipPath15); stroke:none;" r="11" cx="93" cy="67"
      /><rect x="82" y="56" width="22" style="clip-path:url(#clipPath15); fill:rgb(255,212,0); stroke:none;" height="22"
      /><rect x="82" y="56" width="22" style="fill:none; clip-path:url(#clipPath15);" height="22"
      /><circle r="11" style="fill:none;" cx="93" cy="67"
      /><rect x="123" y="70" width="5" style="fill:white; stroke:none;" height="10"
      /><path style="stroke:none;" d="M124.8906 78.6875 C124.4844 78.6875 124.1562 79.0469 124.1562 79.4219 C124.1562 79.8125 124.4844 80.1562 124.8906 80.1562 C125.2969 80.1562 125.6406 79.8125 125.6406 79.4219 C125.6406 79.0469 125.2969 78.6875 124.8906 78.6875 ZM126.4688 72.5781 C126.7188 72.8906 126.875 73.2656 126.8906 73.6562 C126.8906 74.1875 126.625 74.5 126.0312 74.7656 L125.4062 75.0156 C124.6406 75.3125 124.3906 75.5469 124.3906 75.9375 C124.3906 76.1094 124.4531 76.3438 124.5781 76.8125 L124.7344 77.3438 L125.1094 77.3438 L125.0938 76.5312 C125.0938 76.0938 125.2031 75.9688 125.7812 75.7344 L126.2031 75.5625 C127.0312 75.2188 127.4531 74.6875 127.4531 73.8438 C127.4531 72.1562 125.6562 71.1875 124.5 71.0312 C124.1094 71.125 123.9062 71.2969 123.9062 71.6406 C123.9062 71.9375 124.0625 72.1562 124.7188 72.2656 L126.4688 72.5781 Z"
      /><rect x="109" y="70" width="5" style="fill:white; stroke:none;" height="10"
      /><path style="stroke:none;" d="M110.8906 78.6875 C110.4844 78.6875 110.1562 79.0469 110.1562 79.4219 C110.1562 79.8125 110.4844 80.1562 110.8906 80.1562 C111.2969 80.1562 111.6406 79.8125 111.6406 79.4219 C111.6406 79.0469 111.2969 78.6875 110.8906 78.6875 ZM112.4688 72.5781 C112.7188 72.8906 112.875 73.2656 112.8906 73.6562 C112.8906 74.1875 112.625 74.5 112.0312 74.7656 L111.4062 75.0156 C110.6406 75.3125 110.3906 75.5469 110.3906 75.9375 C110.3906 76.1094 110.4531 76.3438 110.5781 76.8125 L110.7344 77.3438 L111.1094 77.3438 L111.0938 76.5312 C111.0938 76.0938 111.2031 75.9688 111.7812 75.7344 L112.2031 75.5625 C113.0312 75.2188 113.4531 74.6875 113.4531 73.8438 C113.4531 72.1562 111.6562 71.1875 110.5 71.0312 C110.1094 71.125 109.9062 71.2969 109.9062 71.6406 C109.9062 71.9375 110.0625 72.1562 110.7188 72.2656 L112.4688 72.5781 Z"
      /><rect x="179" y="104" width="5" style="fill:white; stroke:none;" height="10"
      /><path style="stroke:none;" d="M180.8906 112.6875 C180.4844 112.6875 180.1562 113.0469 180.1562 113.4219 C180.1562 113.8125 180.4844 114.1562 180.8906 114.1562 C181.2969 114.1562 181.6406 113.8125 181.6406 113.4219 C181.6406 113.0469 181.2969 112.6875 180.8906 112.6875 ZM182.4688 106.5781 C182.7188 106.8906 182.875 107.2656 182.8906 107.6562 C182.8906 108.1875 182.625 108.5 182.0312 108.7656 L181.4062 109.0156 C180.6406 109.3125 180.3906 109.5469 180.3906 109.9375 C180.3906 110.1094 180.4531 110.3438 180.5781 110.8125 L180.7344 111.3438 L181.1094 111.3438 L181.0938 110.5312 C181.0938 110.0938 181.2031 109.9688 181.7812 109.7344 L182.2031 109.5625 C183.0312 109.2188 183.4531 108.6875 183.4531 107.8438 C183.4531 106.1562 181.6562 105.1875 180.5 105.0312 C180.1094 105.125 179.9062 105.2969 179.9062 105.6406 C179.9062 105.9375 180.0625 106.1562 180.7188 106.2656 L182.4688 106.5781 Z"
      /><rect x="164" y="112" width="5" style="fill:white; stroke:none;" height="10"
      /><path style="stroke:none;" d="M165.8906 120.6875 C165.4844 120.6875 165.1562 121.0469 165.1562 121.4219 C165.1562 121.8125 165.4844 122.1562 165.8906 122.1562 C166.2969 122.1562 166.6406 121.8125 166.6406 121.4219 C166.6406 121.0469 166.2969 120.6875 165.8906 120.6875 ZM167.4688 114.5781 C167.7188 114.8906 167.875 115.2656 167.8906 115.6562 C167.8906 116.1875 167.625 116.5 167.0312 116.7656 L166.4062 117.0156 C165.6406 117.3125 165.3906 117.5469 165.3906 117.9375 C165.3906 118.1094 165.4531 118.3438 165.5781 118.8125 L165.7344 119.3438 L166.1094 119.3438 L166.0938 118.5312 C166.0938 118.0938 166.2031 117.9688 166.7812 117.7344 L167.2031 117.5625 C168.0312 117.2188 168.4531 116.6875 168.4531 115.8438 C168.4531 114.1562 166.6562 113.1875 165.5 113.0312 C165.1094 113.125 164.9062 113.2969 164.9062 113.6406 C164.9062 113.9375 165.0625 114.1562 165.7188 114.2656 L167.4688 114.5781 Z"
      /><rect x="172" y="86" width="5" style="fill:white; stroke:none;" height="10"
      /><path style="stroke:none;" d="M173.8906 94.6875 C173.4844 94.6875 173.1562 95.0469 173.1562 95.4219 C173.1562 95.8125 173.4844 96.1562 173.8906 96.1562 C174.2969 96.1562 174.6406 95.8125 174.6406 95.4219 C174.6406 95.0469 174.2969 94.6875 173.8906 94.6875 ZM175.4688 88.5781 C175.7188 88.8906 175.875 89.2656 175.8906 89.6562 C175.8906 90.1875 175.625 90.5 175.0312 90.7656 L174.4062 91.0156 C173.6406 91.3125 173.3906 91.5469 173.3906 91.9375 C173.3906 92.1094 173.4531 92.3438 173.5781 92.8125 L173.7344 93.3438 L174.1094 93.3438 L174.0938 92.5312 C174.0938 92.0938 174.2031 91.9688 174.7812 91.7344 L175.2031 91.5625 C176.0312 91.2188 176.4531 90.6875 176.4531 89.8438 C176.4531 88.1562 174.6562 87.1875 173.5 87.0312 C173.1094 87.125 172.9062 87.2969 172.9062 87.6406 C172.9062 87.9375 173.0625 88.1562 173.7188 88.2656 L175.4688 88.5781 Z"
      /><rect x="157" y="78" width="5" style="fill:white; stroke:none;" height="10"
      /><path style="stroke:none;" d="M158.8906 86.6875 C158.4844 86.6875 158.1562 87.0469 158.1562 87.4219 C158.1562 87.8125 158.4844 88.1562 158.8906 88.1562 C159.2969 88.1562 159.6406 87.8125 159.6406 87.4219 C159.6406 87.0469 159.2969 86.6875 158.8906 86.6875 ZM160.4688 80.5781 C160.7188 80.8906 160.875 81.2656 160.8906 81.6562 C160.8906 82.1875 160.625 82.5 160.0312 82.7656 L159.4062 83.0156 C158.6406 83.3125 158.3906 83.5469 158.3906 83.9375 C158.3906 84.1094 158.4531 84.3438 158.5781 84.8125 L158.7344 85.3438 L159.1094 85.3438 L159.0938 84.5312 C159.0938 84.0938 159.2031 83.9688 159.7812 83.7344 L160.2031 83.5625 C161.0312 83.2188 161.4531 82.6875 161.4531 81.8438 C161.4531 80.1562 159.6562 79.1875 158.5 79.0312 C158.1094 79.125 157.9062 79.2969 157.9062 79.6406 C157.9062 79.9375 158.0625 80.1562 158.7188 80.2656 L160.4688 80.5781 Z"
      /><rect x="186" y="30" width="22" style="clip-path:url(#clipPath16); fill:white; stroke:none;" height="22"
      /><rect x="186" y="30" width="22" style="clip-path:url(#clipPath16); fill:rgb(0,144,188); stroke:none;" height="22"
      /><rect x="186" y="30" width="22" style="fill:none; clip-path:url(#clipPath16);" height="22"
      /><rect x="186" width="22" height="22" y="30" style="fill:none;"
      /><rect x="246" y="109" width="5" style="fill:white; stroke:none;" height="10"
      /><path style="stroke:none;" d="M247.8906 117.6875 C247.4844 117.6875 247.1562 118.0469 247.1562 118.4219 C247.1562 118.8125 247.4844 119.1562 247.8906 119.1562 C248.2969 119.1562 248.6406 118.8125 248.6406 118.4219 C248.6406 118.0469 248.2969 117.6875 247.8906 117.6875 ZM249.4688 111.5781 C249.7188 111.8906 249.875 112.2656 249.8906 112.6562 C249.8906 113.1875 249.625 113.5 249.0312 113.7656 L248.4062 114.0156 C247.6406 114.3125 247.3906 114.5469 247.3906 114.9375 C247.3906 115.1094 247.4531 115.3438 247.5781 115.8125 L247.7344 116.3438 L248.1094 116.3438 L248.0938 115.5312 C248.0938 115.0938 248.2031 114.9688 248.7812 114.7344 L249.2031 114.5625 C250.0312 114.2188 250.4531 113.6875 250.4531 112.8438 C250.4531 111.1562 248.6562 110.1875 247.5 110.0312 C247.1094 110.125 246.9062 110.2969 246.9062 110.6406 C246.9062 110.9375 247.0625 111.1562 247.7188 111.2656 L249.4688 111.5781 Z"
      /><rect x="209" y="202" width="5" style="fill:white; stroke:none;" height="10"
      /><path style="stroke:none;" d="M210.8906 210.6875 C210.4844 210.6875 210.1562 211.0469 210.1562 211.4219 C210.1562 211.8125 210.4844 212.1562 210.8906 212.1562 C211.2969 212.1562 211.6406 211.8125 211.6406 211.4219 C211.6406 211.0469 211.2969 210.6875 210.8906 210.6875 ZM212.4688 204.5781 C212.7188 204.8906 212.875 205.2656 212.8906 205.6562 C212.8906 206.1875 212.625 206.5 212.0312 206.7656 L211.4062 207.0156 C210.6406 207.3125 210.3906 207.5469 210.3906 207.9375 C210.3906 208.1094 210.4531 208.3438 210.5781 208.8125 L210.7344 209.3438 L211.1094 209.3438 L211.0938 208.5312 C211.0938 208.0938 211.2031 207.9688 211.7812 207.7344 L212.2031 207.5625 C213.0312 207.2188 213.4531 206.6875 213.4531 205.8438 C213.4531 204.1562 211.6562 203.1875 210.5 203.0312 C210.1094 203.125 209.9062 203.2969 209.9062 203.6406 C209.9062 203.9375 210.0625 204.1562 210.7188 204.2656 L212.4688 204.5781 Z"
      /><rect x="227" y="96" width="5" style="fill:white; stroke:none;" height="10"
      /><path style="stroke:none;" d="M228.8906 104.6875 C228.4844 104.6875 228.1562 105.0469 228.1562 105.4219 C228.1562 105.8125 228.4844 106.1562 228.8906 106.1562 C229.2969 106.1562 229.6406 105.8125 229.6406 105.4219 C229.6406 105.0469 229.2969 104.6875 228.8906 104.6875 ZM230.4688 98.5781 C230.7188 98.8906 230.875 99.2656 230.8906 99.6562 C230.8906 100.1875 230.625 100.5 230.0312 100.7656 L229.4062 101.0156 C228.6406 101.3125 228.3906 101.5469 228.3906 101.9375 C228.3906 102.1094 228.4531 102.3438 228.5781 102.8125 L228.7344 103.3438 L229.1094 103.3438 L229.0938 102.5312 C229.0938 102.0938 229.2031 101.9688 229.7812 101.7344 L230.2031 101.5625 C231.0312 101.2188 231.4531 100.6875 231.4531 99.8438 C231.4531 98.1562 229.6562 97.1875 228.5 97.0312 C228.1094 97.125 227.9062 97.2969 227.9062 97.6406 C227.9062 97.9375 228.0625 98.1562 228.7188 98.2656 L230.4688 98.5781 Z"
      /><rect x="213" y="96" width="5" style="fill:white; stroke:none;" height="10"
      /><path style="stroke:none;" d="M214.8906 104.6875 C214.4844 104.6875 214.1562 105.0469 214.1562 105.4219 C214.1562 105.8125 214.4844 106.1562 214.8906 106.1562 C215.2969 106.1562 215.6406 105.8125 215.6406 105.4219 C215.6406 105.0469 215.2969 104.6875 214.8906 104.6875 ZM216.4688 98.5781 C216.7188 98.8906 216.875 99.2656 216.8906 99.6562 C216.8906 100.1875 216.625 100.5 216.0312 100.7656 L215.4062 101.0156 C214.6406 101.3125 214.3906 101.5469 214.3906 101.9375 C214.3906 102.1094 214.4531 102.3438 214.5781 102.8125 L214.7344 103.3438 L215.1094 103.3438 L215.0938 102.5312 C215.0938 102.0938 215.2031 101.9688 215.7812 101.7344 L216.2031 101.5625 C217.0312 101.2188 217.4531 100.6875 217.4531 99.8438 C217.4531 98.1562 215.6562 97.1875 214.5 97.0312 C214.1094 97.125 213.9062 97.2969 213.9062 97.6406 C213.9062 97.9375 214.0625 98.1562 214.7188 98.2656 L216.4688 98.5781 Z"
      /><rect x="224" y="77" width="5" style="fill:white; stroke:none;" height="10"
      /><path style="stroke:none;" d="M225.8906 85.6875 C225.4844 85.6875 225.1562 86.0469 225.1562 86.4219 C225.1562 86.8125 225.4844 87.1562 225.8906 87.1562 C226.2969 87.1562 226.6406 86.8125 226.6406 86.4219 C226.6406 86.0469 226.2969 85.6875 225.8906 85.6875 ZM227.4688 79.5781 C227.7188 79.8906 227.875 80.2656 227.8906 80.6562 C227.8906 81.1875 227.625 81.5 227.0312 81.7656 L226.4062 82.0156 C225.6406 82.3125 225.3906 82.5469 225.3906 82.9375 C225.3906 83.1094 225.4531 83.3438 225.5781 83.8125 L225.7344 84.3438 L226.1094 84.3438 L226.0938 83.5312 C226.0938 83.0938 226.2031 82.9688 226.7812 82.7344 L227.2031 82.5625 C228.0312 82.2188 228.4531 81.6875 228.4531 80.8438 C228.4531 79.1562 226.6562 78.1875 225.5 78.0312 C225.1094 78.125 224.9062 78.2969 224.9062 78.6406 C224.9062 78.9375 225.0625 79.1562 225.7188 79.2656 L227.4688 79.5781 Z"
      /><rect x="205" y="58" width="5" style="fill:white; stroke:none;" height="10"
      /><path style="stroke:none;" d="M206.8906 66.6875 C206.4844 66.6875 206.1562 67.0469 206.1562 67.4219 C206.1562 67.8125 206.4844 68.1562 206.8906 68.1562 C207.2969 68.1562 207.6406 67.8125 207.6406 67.4219 C207.6406 67.0469 207.2969 66.6875 206.8906 66.6875 ZM208.4688 60.5781 C208.7188 60.8906 208.875 61.2656 208.8906 61.6562 C208.8906 62.1875 208.625 62.5 208.0312 62.7656 L207.4062 63.0156 C206.6406 63.3125 206.3906 63.5469 206.3906 63.9375 C206.3906 64.1094 206.4531 64.3438 206.5781 64.8125 L206.7344 65.3438 L207.1094 65.3438 L207.0938 64.5312 C207.0938 64.0938 207.2031 63.9688 207.7812 63.7344 L208.2031 63.5625 C209.0312 63.2188 209.4531 62.6875 209.4531 61.8438 C209.4531 60.1562 207.6562 59.1875 206.5 59.0312 C206.1094 59.125 205.9062 59.2969 205.9062 59.6406 C205.9062 59.9375 206.0625 60.1562 206.7188 60.2656 L208.4688 60.5781 Z"
      /><rect x="279" y="96" width="5" style="fill:white; stroke:none;" height="10"
      /><path style="stroke:none;" d="M280.8906 104.6875 C280.4844 104.6875 280.1562 105.0469 280.1562 105.4219 C280.1562 105.8125 280.4844 106.1562 280.8906 106.1562 C281.2969 106.1562 281.6406 105.8125 281.6406 105.4219 C281.6406 105.0469 281.2969 104.6875 280.8906 104.6875 ZM282.4688 98.5781 C282.7188 98.8906 282.875 99.2656 282.8906 99.6562 C282.8906 100.1875 282.625 100.5 282.0312 100.7656 L281.4062 101.0156 C280.6406 101.3125 280.3906 101.5469 280.3906 101.9375 C280.3906 102.1094 280.4531 102.3438 280.5781 102.8125 L280.7344 103.3438 L281.1094 103.3438 L281.0938 102.5312 C281.0938 102.0938 281.2031 101.9688 281.7812 101.7344 L282.2031 101.5625 C283.0312 101.2188 283.4531 100.6875 283.4531 99.8438 C283.4531 98.1562 281.6562 97.1875 280.5 97.0312 C280.1094 97.125 279.9062 97.2969 279.9062 97.6406 C279.9062 97.9375 280.0625 98.1562 280.7188 98.2656 L282.4688 98.5781 Z"
      /><rect x="265" y="96" width="5" style="fill:white; stroke:none;" height="10"
      /><path style="stroke:none;" d="M266.8906 104.6875 C266.4844 104.6875 266.1562 105.0469 266.1562 105.4219 C266.1562 105.8125 266.4844 106.1562 266.8906 106.1562 C267.2969 106.1562 267.6406 105.8125 267.6406 105.4219 C267.6406 105.0469 267.2969 104.6875 266.8906 104.6875 ZM268.4688 98.5781 C268.7188 98.8906 268.875 99.2656 268.8906 99.6562 C268.8906 100.1875 268.625 100.5 268.0312 100.7656 L267.4062 101.0156 C266.6406 101.3125 266.3906 101.5469 266.3906 101.9375 C266.3906 102.1094 266.4531 102.3438 266.5781 102.8125 L266.7344 103.3438 L267.1094 103.3438 L267.0938 102.5312 C267.0938 102.0938 267.2031 101.9688 267.7812 101.7344 L268.2031 101.5625 C269.0312 101.2188 269.4531 100.6875 269.4531 99.8438 C269.4531 98.1562 267.6562 97.1875 266.5 97.0312 C266.1094 97.125 265.9062 97.2969 265.9062 97.6406 C265.9062 97.9375 266.0625 98.1562 266.7188 98.2656 L268.4688 98.5781 Z"
      /><rect x="331" y="96" width="5" style="fill:white; stroke:none;" height="10"
      /><path style="stroke:none;" d="M332.8906 104.6875 C332.4844 104.6875 332.1562 105.0469 332.1562 105.4219 C332.1562 105.8125 332.4844 106.1562 332.8906 106.1562 C333.2969 106.1562 333.6406 105.8125 333.6406 105.4219 C333.6406 105.0469 333.2969 104.6875 332.8906 104.6875 ZM334.4688 98.5781 C334.7188 98.8906 334.875 99.2656 334.8906 99.6562 C334.8906 100.1875 334.625 100.5 334.0312 100.7656 L333.4062 101.0156 C332.6406 101.3125 332.3906 101.5469 332.3906 101.9375 C332.3906 102.1094 332.4531 102.3438 332.5781 102.8125 L332.7344 103.3438 L333.1094 103.3438 L333.0938 102.5312 C333.0938 102.0938 333.2031 101.9688 333.7812 101.7344 L334.2031 101.5625 C335.0312 101.2188 335.4531 100.6875 335.4531 99.8438 C335.4531 98.1562 333.6562 97.1875 332.5 97.0312 C332.1094 97.125 331.9062 97.2969 331.9062 97.6406 C331.9062 97.9375 332.0625 98.1562 332.7188 98.2656 L334.4688 98.5781 Z"
      /><rect x="317" y="96" width="5" style="fill:white; stroke:none;" height="10"
      /><path style="stroke:none;" d="M318.8906 104.6875 C318.4844 104.6875 318.1562 105.0469 318.1562 105.4219 C318.1562 105.8125 318.4844 106.1562 318.8906 106.1562 C319.2969 106.1562 319.6406 105.8125 319.6406 105.4219 C319.6406 105.0469 319.2969 104.6875 318.8906 104.6875 ZM320.4688 98.5781 C320.7188 98.8906 320.875 99.2656 320.8906 99.6562 C320.8906 100.1875 320.625 100.5 320.0312 100.7656 L319.4062 101.0156 C318.6406 101.3125 318.3906 101.5469 318.3906 101.9375 C318.3906 102.1094 318.4531 102.3438 318.5781 102.8125 L318.7344 103.3438 L319.1094 103.3438 L319.0938 102.5312 C319.0938 102.0938 319.2031 101.9688 319.7812 101.7344 L320.2031 101.5625 C321.0312 101.2188 321.4531 100.6875 321.4531 99.8438 C321.4531 98.1562 319.6562 97.1875 318.5 97.0312 C318.1094 97.125 317.9062 97.2969 317.9062 97.6406 C317.9062 97.9375 318.0625 98.1562 318.7188 98.2656 L320.4688 98.5781 Z"
      /><rect x="369" y="96" width="5" style="fill:white; stroke:none;" height="10"
      /><path style="stroke:none;" d="M370.8906 104.6875 C370.4844 104.6875 370.1562 105.0469 370.1562 105.4219 C370.1562 105.8125 370.4844 106.1562 370.8906 106.1562 C371.2969 106.1562 371.6406 105.8125 371.6406 105.4219 C371.6406 105.0469 371.2969 104.6875 370.8906 104.6875 ZM372.4688 98.5781 C372.7188 98.8906 372.875 99.2656 372.8906 99.6562 C372.8906 100.1875 372.625 100.5 372.0312 100.7656 L371.4062 101.0156 C370.6406 101.3125 370.3906 101.5469 370.3906 101.9375 C370.3906 102.1094 370.4531 102.3438 370.5781 102.8125 L370.7344 103.3438 L371.1094 103.3438 L371.0938 102.5312 C371.0938 102.0938 371.2031 101.9688 371.7812 101.7344 L372.2031 101.5625 C373.0312 101.2188 373.4531 100.6875 373.4531 99.8438 C373.4531 98.1562 371.6562 97.1875 370.5 97.0312 C370.1094 97.125 369.9062 97.2969 369.9062 97.6406 C369.9062 97.9375 370.0625 98.1562 370.7188 98.2656 L372.4688 98.5781 Z"
    /></g
  ></g
></svg
>
