<?xml version="1.0"?>
<!DOCTYPE svg PUBLIC '-//W3C//DTD SVG 1.0//EN'
          'http://www.w3.org/TR/2001/REC-SVG-20010904/DTD/svg10.dtd'>
<svg xmlns:xlink="http://www.w3.org/1999/xlink" style="fill-opacity:1; color-rendering:auto; color-interpolation:auto; text-rendering:auto; stroke:black; stroke-linecap:square; stroke-miterlimit:10; shape-rendering:auto; stroke-opacity:1; fill:black; stroke-dasharray:none; font-weight:normal; stroke-width:1; font-family:'Dialog'; font-style:normal; stroke-linejoin:miter; font-size:12px; stroke-dashoffset:0; image-rendering:auto;" viewBox="0 0 200 120" xmlns="http://www.w3.org/2000/svg"
><!--Generated by the Batik Graphics2D SVG Generator--><defs id="genericDefs"
  /><g
  ><defs id="defs1"
    ><clipPath clipPathUnits="userSpaceOnUse" id="clipPath1"
      ><path style="fill-rule:evenodd;" d="M100 53 L110 60 L106 72 L93 72 L89 60 L100 53 Z"
      /></clipPath
      ><clipPath clipPathUnits="userSpaceOnUse" id="clipPath2"
      ><path d="M52 64 C52 70.0751 47.0751 75 41 75 C34.9249 75 30 70.0751 30 64 C30 57.9249 34.9249 53 41 53 C47.0751 53 52 57.9249 52 64 Z"
      /></clipPath
    ></defs
    ><g style="fill:white; text-rendering:optimizeSpeed; stroke:white;"
    ><rect x="0" width="200" height="120" y="0" style="stroke:none;"
      /><polygon style="fill:none; stroke:black;" points=" 159 64 100 64"
      /><path d="M159 53 C153.5 58.5 164.5 69.5 159 75" style="fill:none; stroke:black;"
      /><polygon style="fill:none; stroke:black;" points=" 100 64 41 64"
      /><polygon style="clip-path:url(#clipPath1); stroke:none;" points=" 100 53 110 60 106 72 93 72 89 60 100 53"
      /><rect x="89" y="53" width="22" style="clip-path:url(#clipPath1); stroke:none;" height="22"
      /><rect x="89" y="53" width="22" style="clip-path:url(#clipPath1); fill:none; stroke:black;" height="22"
      /><polygon style="fill:none; stroke:black;" points=" 100 53 110 60 106 72 93 72 89 60 100 53"
    /></g
    ><g style="text-rendering:optimizeSpeed; font-size:14px; font-family:'SansSerif';"
    ><path style="stroke:none;" d="M98.2344 69 L103.8594 69 L103.8594 67.9375 L101.7969 67.9375 L101.7969 58.7188 L100.8281 58.7188 C100.2656 59.0625 99.6094 59.2969 98.6875 59.4688 L98.6875 60.2812 L100.5156 60.2812 L100.5156 67.9375 L98.2344 67.9375 L98.2344 69 Z"
      /><rect x="82" y="34" width="34" style="fill:white; stroke:none;" height="12"
      /><path style="stroke:none;" d="M85.7031 47.1875 C87.5156 47.1875 88.9844 46.0938 88.9844 44.25 C88.9844 42.8594 88.0156 41.9375 86.8125 41.6562 L86.8125 41.5938 C87.8906 41.1875 88.6406 40.3594 88.6406 39.125 C88.6406 37.5 87.375 36.5469 85.6562 36.5469 C84.4688 36.5469 83.5469 37.0625 82.7812 37.7812 L83.4688 38.5938 C84.0469 38 84.7656 37.5938 85.5938 37.5938 C86.6562 37.5938 87.3281 38.2344 87.3281 39.2188 C87.3281 40.3281 86.6094 41.1719 84.4844 41.1719 L84.4844 42.1562 C86.8594 42.1562 87.6875 42.9844 87.6875 44.2031 C87.6875 45.3906 86.8125 46.125 85.5938 46.125 C84.4375 46.125 83.6562 45.5781 83.0469 44.9375 L82.4062 45.7812 C83.0781 46.5156 84.0938 47.1875 85.7031 47.1875 ZM90.8168 49.6562 C92.0825 49.125 92.8637 48.0781 92.8637 46.7344 C92.8637 45.7969 92.4575 45.2188 91.7856 45.2188 C91.27 45.2188 90.8168 45.5781 90.8168 46.125 C90.8168 46.7031 91.27 47.0156 91.7543 47.0156 C91.8168 47.0156 91.8637 47.0156 91.9106 47 C91.9106 47.8281 91.395 48.5156 90.5043 48.9062 L90.8168 49.6562 ZM94.2713 47 L100.7245 47 L100.7245 45.8906 L97.8963 45.8906 C97.3651 45.8906 96.7401 45.9531 96.2088 45.9844 C98.6151 43.7031 100.2245 41.625 100.2245 39.5781 C100.2245 37.75 99.0838 36.5469 97.2401 36.5469 C95.9432 36.5469 95.0682 37.1406 94.2245 38.0469 L94.9588 38.7812 C95.5213 38.1094 96.2557 37.5938 97.0995 37.5938 C98.3651 37.5938 98.9745 38.4531 98.9745 39.625 C98.9745 41.3906 97.5057 43.4375 94.2713 46.25 L94.2713 47 ZM105.7913 47.1875 C106.8226 47.1875 107.6351 46.8281 108.3069 46.3906 L107.8382 45.5625 C107.2913 45.9375 106.6819 46.1562 105.9476 46.1562 C104.4944 46.1562 103.5101 45.125 103.4163 43.5 L108.5413 43.5 C108.5726 43.3125 108.6038 43.0469 108.6038 42.7656 C108.6038 40.6094 107.5101 39.2031 105.5726 39.2031 C103.8069 39.2031 102.1507 40.7344 102.1507 43.2031 C102.1507 45.7188 103.7757 47.1875 105.7913 47.1875 ZM103.4007 42.5781 C103.5569 41.0938 104.5101 40.2188 105.5882 40.2188 C106.7757 40.2188 107.4788 41.0469 107.4788 42.5781 L103.4007 42.5781 ZM110.4691 47 L111.7504 47 L111.7504 41.4844 C112.516 40.7188 113.0473 40.3281 113.8285 40.3281 C114.8441 40.3281 115.2816 40.9219 115.2816 42.3594 L115.2816 47 L116.5473 47 L116.5473 42.1875 C116.5473 40.2344 115.8285 39.2031 114.2348 39.2031 C113.1879 39.2031 112.4066 39.7812 111.6723 40.4844 L111.641 40.4844 L111.5316 39.3906 L110.4691 39.3906 L110.4691 47 Z"
    /></g
    ><g style="fill:white; text-rendering:optimizeSpeed; stroke:white;"
    ><circle r="11" style="clip-path:url(#clipPath2); stroke:none;" cx="41" cy="64"
      /><rect x="30" y="53" width="22" style="clip-path:url(#clipPath2); fill:rgb(0,166,81); stroke:none;" height="22"
      /><rect x="30" y="53" width="22" style="clip-path:url(#clipPath2); fill:none; stroke:black;" height="22"
      /><circle r="11" style="fill:none; stroke:black;" cx="41" cy="64"
    /></g
    ><g style="text-rendering:optimizeSpeed; font-size:10px; font-family:'SansSerif';"
    ><path style="stroke:none;" d="M40.0625 68 L40.9844 68 L40.9844 63.3125 L42.125 63.3125 L42.125 62.5625 L40.9844 62.5625 L40.9844 61.7031 C40.9844 61.0156 41.2344 60.6406 41.75 60.6406 C41.9375 60.6406 42.1562 60.6875 42.3594 60.7812 L42.5625 60.0938 C42.3125 59.9844 41.9844 59.9062 41.6562 59.9062 C40.5625 59.9062 40.0625 60.5938 40.0625 61.7031 L40.0625 62.5625 L39.3281 62.625 L39.3281 63.3125 L40.0625 63.3125 L40.0625 68 Z"
    /></g
    ><g style="fill:white; text-rendering:optimizeSpeed; font-family:'Serif'; stroke:white;"
    ><rect x="71" width="5" height="10" y="67" style="stroke:none;"
      /><path d="M72.8906 75.6875 C72.4844 75.6875 72.1562 76.0469 72.1562 76.4219 C72.1562 76.8125 72.4844 77.1562 72.8906 77.1562 C73.2969 77.1562 73.6406 76.8125 73.6406 76.4219 C73.6406 76.0469 73.2969 75.6875 72.8906 75.6875 ZM74.4688 69.5781 C74.7188 69.8906 74.875 70.2656 74.8906 70.6562 C74.8906 71.1875 74.625 71.5 74.0312 71.7656 L73.4062 72.0156 C72.6406 72.3125 72.3906 72.5469 72.3906 72.9375 C72.3906 73.1094 72.4531 73.3438 72.5781 73.8125 L72.7344 74.3438 L73.1094 74.3438 L73.0938 73.5312 C73.0938 73.0938 73.2031 72.9688 73.7812 72.7344 L74.2031 72.5625 C75.0312 72.2188 75.4531 71.6875 75.4531 70.8438 C75.4531 69.1562 73.6562 68.1875 72.5 68.0312 C72.1094 68.125 71.9062 68.2969 71.9062 68.6406 C71.9062 68.9375 72.0625 69.1562 72.7188 69.2656 L74.4688 69.5781 Z" style="fill:black; stroke:none;"
      /><rect x="57" width="5" height="10" y="67" style="stroke:none;"
      /><path d="M58.8906 75.6875 C58.4844 75.6875 58.1562 76.0469 58.1562 76.4219 C58.1562 76.8125 58.4844 77.1562 58.8906 77.1562 C59.2969 77.1562 59.6406 76.8125 59.6406 76.4219 C59.6406 76.0469 59.2969 75.6875 58.8906 75.6875 ZM60.4688 69.5781 C60.7188 69.8906 60.875 70.2656 60.8906 70.6562 C60.8906 71.1875 60.625 71.5 60.0312 71.7656 L59.4062 72.0156 C58.6406 72.3125 58.3906 72.5469 58.3906 72.9375 C58.3906 73.1094 58.4531 73.3438 58.5781 73.8125 L58.7344 74.3438 L59.1094 74.3438 L59.0938 73.5312 C59.0938 73.0938 59.2031 72.9688 59.7812 72.7344 L60.2031 72.5625 C61.0312 72.2188 61.4531 71.6875 61.4531 70.8438 C61.4531 69.1562 59.6562 68.1875 58.5 68.0312 C58.1094 68.125 57.9062 68.2969 57.9062 68.6406 C57.9062 68.9375 58.0625 69.1562 58.7188 69.2656 L60.4688 69.5781 Z" style="fill:black; stroke:none;"
      /><rect x="123" width="5" height="10" y="67" style="stroke:none;"
      /><path d="M124.8906 75.6875 C124.4844 75.6875 124.1562 76.0469 124.1562 76.4219 C124.1562 76.8125 124.4844 77.1562 124.8906 77.1562 C125.2969 77.1562 125.6406 76.8125 125.6406 76.4219 C125.6406 76.0469 125.2969 75.6875 124.8906 75.6875 ZM126.4688 69.5781 C126.7188 69.8906 126.875 70.2656 126.8906 70.6562 C126.8906 71.1875 126.625 71.5 126.0312 71.7656 L125.4062 72.0156 C124.6406 72.3125 124.3906 72.5469 124.3906 72.9375 C124.3906 73.1094 124.4531 73.3438 124.5781 73.8125 L124.7344 74.3438 L125.1094 74.3438 L125.0938 73.5312 C125.0938 73.0938 125.2031 72.9688 125.7812 72.7344 L126.2031 72.5625 C127.0312 72.2188 127.4531 71.6875 127.4531 70.8438 C127.4531 69.1562 125.6562 68.1875 124.5 68.0312 C124.1094 68.125 123.9062 68.2969 123.9062 68.6406 C123.9062 68.9375 124.0625 69.1562 124.7188 69.2656 L126.4688 69.5781 Z" style="fill:black; stroke:none;"
    /></g
    ><g ID="legend-1:0" style="text-rendering:optimizeSpeed; font-size:10px; font-family:'SansSerif';"
    ><path style="stroke:none;" d="M30.875 90 L34.9062 90 L34.9062 89.2344 L33.4375 89.2344 L33.4375 82.6562 L32.7344 82.6562 C32.3281 82.9062 31.8594 83.0625 31.2031 83.1875 L31.2031 83.7656 L32.5156 83.7656 L32.5156 89.2344 L30.875 89.2344 L30.875 90 ZM35.925 85.4531 L40.7219 85.4531 L40.7219 84.7656 L35.925 84.7656 L35.925 85.4531 ZM35.925 87.8438 L40.7219 87.8438 L40.7219 87.1719 L35.925 87.1719 L35.925 87.8438 ZM42.1 90 L43.975 90 C46.1937 90 47.3969 88.625 47.3969 86.3125 C47.3969 83.9844 46.1937 82.6562 43.9437 82.6562 L42.1 82.6562 L42.1 90 ZM43.0375 89.2344 L43.0375 83.4219 L43.8656 83.4219 C45.5844 83.4219 46.4437 84.4531 46.4437 86.3125 C46.4437 88.1562 45.5844 89.2344 43.8656 89.2344 L43.0375 89.2344 ZM48.4231 87.5469 L50.9856 87.5469 L50.9856 86.8438 L48.4231 86.8438 L48.4231 87.5469 ZM54.5493 90.125 C55.2837 90.125 55.8775 89.875 56.3462 89.5625 L56.0181 88.9688 C55.6275 89.2344 55.19 89.4062 54.6587 89.4062 C53.6275 89.4062 52.9243 88.6562 52.8618 87.5 L56.5181 87.5 C56.5337 87.375 56.565 87.1875 56.565 86.9844 C56.565 85.4375 55.7837 84.4375 54.3931 84.4375 C53.1431 84.4375 51.9556 85.5312 51.9556 87.2969 C51.9556 89.0781 53.1118 90.125 54.5493 90.125 ZM52.8462 86.8438 C52.9556 85.7812 53.6431 85.1562 54.4087 85.1562 C55.2525 85.1562 55.7525 85.75 55.7525 86.8438 L52.8462 86.8438 ZM57.9018 90 L58.8081 90 L58.8081 86.5156 C59.1675 85.5781 59.73 85.2656 60.1831 85.2656 C60.4018 85.2656 60.5268 85.2812 60.7143 85.3438 L60.8862 84.5469 C60.7143 84.4531 60.5425 84.4375 60.2925 84.4375 C59.6831 84.4375 59.1362 84.875 58.7612 85.5625 L58.73 85.5625 L58.6518 84.5625 L57.9018 84.5625 L57.9018 90 ZM61.8756 92.3438 C62.9537 92.3438 63.5162 91.5156 63.8912 90.4531 L65.9381 84.5625 L65.0475 84.5625 L64.0787 87.5938 C63.9225 88.0625 63.7662 88.625 63.6256 89.1094 L63.5631 89.1094 C63.4068 88.625 63.2037 88.0625 63.0475 87.5938 L61.9381 84.5625 L60.985 84.5625 L63.1725 90.0156 L63.0475 90.4219 C62.8287 91.0938 62.4381 91.5938 61.8131 91.5938 C61.6725 91.5938 61.5162 91.5469 61.4068 91.5 L61.235 92.2344 C61.4068 92.2969 61.61 92.3438 61.8756 92.3438 ZM67.0699 90 L68.0074 90 L68.0074 86.5469 L71.4137 86.5469 L71.4137 90 L72.3356 90 L72.3356 82.6562 L71.4137 82.6562 L71.4137 85.7344 L68.0074 85.7344 L68.0074 82.6562 L67.0699 82.6562 L67.0699 90 ZM76.4593 90.125 C77.1937 90.125 77.7874 89.875 78.2562 89.5625 L77.9281 88.9688 C77.5374 89.2344 77.0999 89.4062 76.5687 89.4062 C75.5374 89.4062 74.8343 88.6562 74.7718 87.5 L78.4281 87.5 C78.4437 87.375 78.4749 87.1875 78.4749 86.9844 C78.4749 85.4375 77.6937 84.4375 76.3031 84.4375 C75.0531 84.4375 73.8656 85.5312 73.8656 87.2969 C73.8656 89.0781 75.0218 90.125 76.4593 90.125 ZM74.7562 86.8438 C74.8656 85.7812 75.5531 85.1562 76.3187 85.1562 C77.1624 85.1562 77.6624 85.75 77.6624 86.8438 L74.7562 86.8438 ZM79.0462 90 L79.9993 90 L80.7337 88.7344 C80.9212 88.4062 81.0931 88.0625 81.2962 87.7656 L81.3431 87.7656 C81.5462 88.0625 81.7337 88.4062 81.9212 88.7344 L82.7181 90 L83.7181 90 L81.9368 87.2656 L83.5774 84.5625 L82.6243 84.5625 L81.9524 85.7656 C81.7962 86.0625 81.6399 86.375 81.4681 86.6719 L81.4368 86.6719 C81.2493 86.375 81.0618 86.0625 80.8899 85.7656 L80.1556 84.5625 L79.1868 84.5625 L80.8274 87.1719 L79.0462 90 ZM84.3074 90 L88.9168 90 L88.9168 89.2031 L86.8856 89.2031 C86.5262 89.2031 86.0731 89.25 85.6824 89.2812 C87.4168 87.6562 88.5574 86.1562 88.5574 84.7031 C88.5574 83.3906 87.7449 82.5312 86.4324 82.5312 C85.4949 82.5312 84.8699 82.9531 84.2762 83.6094 L84.8074 84.125 C85.1981 83.6562 85.7137 83.2812 86.3231 83.2812 C87.2293 83.2812 87.6668 83.8906 87.6668 84.7344 C87.6668 85.9844 86.6043 87.4531 84.3074 89.4531 L84.3074 90 ZM91.8105 91.9688 L92.373 91.7031 C91.5137 90.2812 91.1074 88.5938 91.1074 86.8906 C91.1074 85.1875 91.5137 83.5156 92.373 82.0781 L91.8105 81.8125 C90.8887 83.3125 90.3418 84.9375 90.3418 86.8906 C90.3418 88.8594 90.8887 90.4688 91.8105 91.9688 ZM92.9718 90 L93.9405 90 L95.003 88.0156 C95.1905 87.6562 95.378 87.2812 95.5968 86.8438 L95.628 86.8438 C95.8624 87.2812 96.0655 87.6562 96.253 88.0156 L97.3468 90 L98.3624 90 L96.2218 86.2656 L98.2218 82.6562 L97.253 82.6562 L96.2687 84.5469 C96.0968 84.875 95.9562 85.1875 95.753 85.6094 L95.7062 85.6094 C95.4718 85.1875 95.3155 84.875 95.128 84.5469 L94.128 82.6562 L93.1124 82.6562 L95.1124 86.2031 L92.9718 90 ZM99.5143 91.9688 C100.4518 90.4688 100.9987 88.8594 100.9987 86.8906 C100.9987 84.9375 100.4518 83.3125 99.5143 81.8125 L98.9674 82.0781 C99.8268 83.5156 100.233 85.1875 100.233 86.8906 C100.233 88.5938 99.8268 90.2812 98.9674 91.7031 L99.5143 91.9688 ZM105.0193 90.125 C105.7536 90.125 106.3474 89.875 106.8161 89.5625 L106.488 88.9688 C106.0974 89.2344 105.6599 89.4062 105.1286 89.4062 C104.0974 89.4062 103.3943 88.6562 103.3318 87.5 L106.988 87.5 C107.0036 87.375 107.0349 87.1875 107.0349 86.9844 C107.0349 85.4375 106.2536 84.4375 104.863 84.4375 C103.613 84.4375 102.4255 85.5312 102.4255 87.2969 C102.4255 89.0781 103.5818 90.125 105.0193 90.125 ZM103.3161 86.8438 C103.4255 85.7812 104.113 85.1562 104.8786 85.1562 C105.7224 85.1562 106.2224 85.75 106.2224 86.8438 L103.3161 86.8438 ZM108.3718 90 L109.278 90 L109.278 86.0625 C109.8249 85.5156 110.2155 85.2344 110.7624 85.2344 C111.4968 85.2344 111.7936 85.6562 111.7936 86.6875 L111.7936 90 L112.7155 90 L112.7155 86.5625 C112.7155 85.1719 112.1843 84.4375 111.0436 84.4375 C110.3093 84.4375 109.7468 84.8438 109.2311 85.3438 L109.1999 85.3438 L109.1218 84.5625 L108.3718 84.5625 L108.3718 90 Z"
    /></g
  ></g
></svg
>
