<?xml version="1.0"?>
<!DOCTYPE svg PUBLIC '-//W3C//DTD SVG 1.0//EN'
          'http://www.w3.org/TR/2001/REC-SVG-20010904/DTD/svg10.dtd'>
<svg xmlns:xlink="http://www.w3.org/1999/xlink" style="fill-opacity:1; color-rendering:auto; color-interpolation:auto; text-rendering:auto; stroke:black; stroke-linecap:square; stroke-miterlimit:10; shape-rendering:auto; stroke-opacity:1; fill:black; stroke-dasharray:none; font-weight:normal; stroke-width:1; font-family:'Dialog'; font-style:normal; stroke-linejoin:miter; font-size:12px; stroke-dashoffset:0; image-rendering:auto;" viewBox="0 0 290 105" xmlns="http://www.w3.org/2000/svg"
><!--Generated by the Batik Graphics2D SVG Generator--><defs id="genericDefs"
  /><g
  ><defs id="defs1"
    ><clipPath clipPathUnits="userSpaceOnUse" id="clipPath1"
      ><path d="M208 64 C208 70.0751 203.0751 75 197 75 C190.9249 75 186 70.0751 186 64 C186 57.9249 190.9249 53 197 53 C203.0751 53 208 57.9249 208 64 Z"
      /></clipPath
      ><clipPath clipPathUnits="userSpaceOnUse" id="clipPath2"
      ><path d="M156 64 C156 70.0751 151.0751 75 145 75 C138.9249 75 134 70.0751 134 64 C134 57.9249 138.9249 53 145 53 C151.0751 53 156 57.9249 156 64 Z"
      /></clipPath
      ><clipPath clipPathUnits="userSpaceOnUse" id="clipPath3"
      ><path d="M104 64 C104 70.0751 99.0751 75 93 75 C86.9249 75 82 70.0751 82 64 C82 57.9249 86.9249 53 93 53 C99.0751 53 104 57.9249 104 64 Z"
      /></clipPath
      ><clipPath clipPathUnits="userSpaceOnUse" id="clipPath4"
      ><path d="M52 64 C52 70.0751 47.0751 75 41 75 C34.9249 75 30 70.0751 30 64 C30 57.9249 34.9249 53 41 53 C47.0751 53 52 57.9249 52 64 Z"
      /></clipPath
    ></defs
    ><g style="fill:white; text-rendering:optimizeSpeed; stroke:white;"
    ><rect x="0" width="290" height="105" y="0" style="stroke:none;"
      /><polygon style="fill:none; stroke:black;" points=" 249 64 197 64"
      /><path d="M249 53 C243.5 58.5 254.5 69.5 249 75" style="fill:none; stroke:black;"
      /><polygon style="fill:none; stroke:black;" points=" 197 64 145 64"
      /><circle style="clip-path:url(#clipPath1); stroke:none;" r="11" cx="197" cy="64"
      /><rect x="186" y="53" width="22" style="clip-path:url(#clipPath1); fill:rgb(0,144,188); stroke:none;" height="22"
      /><rect x="186" y="53" width="22" style="clip-path:url(#clipPath1); fill:none; stroke:black;" height="22"
      /><circle style="fill:none; stroke:black;" r="11" cx="197" cy="64"
      /><polygon style="fill:none; stroke:black;" points=" 145 64 93 64"
      /><circle style="clip-path:url(#clipPath2); stroke:none;" r="11" cx="145" cy="64"
      /><rect x="134" y="53" width="22" style="clip-path:url(#clipPath2); fill:rgb(0,144,188); stroke:none;" height="22"
      /><rect x="134" y="53" width="22" style="clip-path:url(#clipPath2); fill:none; stroke:black;" height="22"
      /><circle style="fill:none; stroke:black;" r="11" cx="145" cy="64"
      /><polygon style="fill:none; stroke:black;" points=" 93 64 41 64"
      /><circle style="clip-path:url(#clipPath3); stroke:none;" r="11" cx="93" cy="64"
      /><rect x="82" y="53" width="22" style="clip-path:url(#clipPath3); fill:rgb(0,144,188); stroke:none;" height="22"
      /><rect x="82" y="53" width="22" style="clip-path:url(#clipPath3); fill:none; stroke:black;" height="22"
      /><circle style="fill:none; stroke:black;" r="11" cx="93" cy="64"
      /><rect x="88" y="35" width="9" style="stroke:none;" height="10"
    /></g
    ><g style="text-rendering:optimizeSpeed; font-size:14px; font-family:'SansSerif';"
    ><path style="stroke:none;" d="M92.1094 40.5781 C93.3438 40.5781 93.9688 41.4688 93.9688 42.8438 C93.9688 44.25 93.1875 45.1875 92.2188 45.1875 C90.9219 45.1875 90.1562 44.0312 90 41.8906 C90.625 40.9531 91.4531 40.5781 92.1094 40.5781 ZM92.2188 46.1875 C93.8125 46.1875 95.1562 44.8438 95.1562 42.8438 C95.1562 40.7031 94.0469 39.625 92.3125 39.625 C91.5 39.625 90.6094 40.1094 89.9688 40.875 C90.0312 37.6875 91.2188 36.6094 92.625 36.6094 C93.25 36.6094 93.8594 36.9062 94.2656 37.3906 L94.9688 36.5938 C94.4062 35.9844 93.6406 35.5469 92.5781 35.5469 C90.5938 35.5469 88.7812 37.0781 88.7812 41.0938 C88.7812 44.4844 90.2344 46.1875 92.2188 46.1875 ZM97.1762 46 L98.4731 46 L98.4731 35.7188 L97.1762 35.7188 L97.1762 46 Z"
    /></g
    ><g style="fill:white; text-rendering:optimizeSpeed; stroke:white;"
    ><circle r="11" style="clip-path:url(#clipPath4); stroke:none;" cx="41" cy="64"
      /><rect x="30" y="53" width="22" style="clip-path:url(#clipPath4); fill:rgb(0,144,188); stroke:none;" height="22"
      /><rect x="30" y="53" width="22" style="clip-path:url(#clipPath4); fill:none; stroke:black;" height="22"
      /><circle r="11" style="fill:none; stroke:black;" cx="41" cy="64"
      /><rect x="70" width="7" height="9" y="67" style="stroke:none;"
      /><path d="M71 72.5156 L73.9531 68.2656 L73.9531 72.5156 L71 72.5156 ZM76.2812 72.5156 L74.8594 72.5156 L74.8594 67.125 L74.2344 67.125 L70.3438 72.6406 L70.3438 73.1875 L73.9531 73.1875 L73.9531 76 L74.8594 76 L74.8594 73.1875 L76.2812 73.1875 L76.2812 72.5156 Z" style="fill:black; stroke:none;"
      /><rect x="56" width="8" height="8" y="68" style="stroke:none;"
      /><path d="M60.9844 73.7031 C60.9375 74.8906 60.1562 75.6562 59.3125 75.6562 C58.2656 75.6562 57.5 74.6875 57.5 72.7188 C57.5 71.2812 58.1562 70.1562 59.3438 70.1562 C60.1406 70.1562 60.7812 70.6875 61.0938 71.6406 L60.9844 73.7031 ZM62.9062 75.2812 C62.7344 75.375 62.5469 75.4219 62.3438 75.4219 C61.9531 75.4219 61.75 75.2188 61.75 74.4219 C61.75 73.4844 61.9688 71.5312 62.1875 69.8281 L62.0312 69.7188 L61.2344 69.9219 L61.1406 70.7969 C60.7812 70.0312 60.1562 69.6562 59.3906 69.6562 C58.0469 69.6562 56.5625 70.8438 56.5625 72.9531 C56.5625 75.0938 57.7188 76.1719 59.1406 76.1719 C60.0156 76.1719 60.6875 75.8125 61.0938 74.9844 C61.2031 75.8594 61.5156 76.1719 62.0156 76.1719 C62.4688 76.1719 62.7969 75.9062 63.0156 75.5625 L62.9062 75.2812 Z" style="fill:black; stroke:none;"
      /><rect x="122" width="7" height="9" y="67" style="stroke:none;"
      /><path d="M123 72.5156 L125.9531 68.2656 L125.9531 72.5156 L123 72.5156 ZM128.2812 72.5156 L126.8594 72.5156 L126.8594 67.125 L126.2344 67.125 L122.3438 72.6406 L122.3438 73.1875 L125.9531 73.1875 L125.9531 76 L126.8594 76 L126.8594 73.1875 L128.2812 73.1875 L128.2812 72.5156 Z" style="fill:black; stroke:none;"
      /><rect x="108" width="8" height="8" y="68" style="stroke:none;"
      /><path d="M112.9844 73.7031 C112.9375 74.8906 112.1562 75.6562 111.3125 75.6562 C110.2656 75.6562 109.5 74.6875 109.5 72.7188 C109.5 71.2812 110.1562 70.1562 111.3438 70.1562 C112.1406 70.1562 112.7812 70.6875 113.0938 71.6406 L112.9844 73.7031 ZM114.9062 75.2812 C114.7344 75.375 114.5469 75.4219 114.3438 75.4219 C113.9531 75.4219 113.75 75.2188 113.75 74.4219 C113.75 73.4844 113.9688 71.5312 114.1875 69.8281 L114.0312 69.7188 L113.2344 69.9219 L113.1406 70.7969 C112.7812 70.0312 112.1562 69.6562 111.3906 69.6562 C110.0469 69.6562 108.5625 70.8438 108.5625 72.9531 C108.5625 75.0938 109.7188 76.1719 111.1406 76.1719 C112.0156 76.1719 112.6875 75.8125 113.0938 74.9844 C113.2031 75.8594 113.5156 76.1719 114.0156 76.1719 C114.4688 76.1719 114.7969 75.9062 115.0156 75.5625 L114.9062 75.2812 Z" style="fill:black; stroke:none;"
      /><rect x="174" width="7" height="9" y="67" style="stroke:none;"
      /><path d="M175 72.5156 L177.9531 68.2656 L177.9531 72.5156 L175 72.5156 ZM180.2812 72.5156 L178.8594 72.5156 L178.8594 67.125 L178.2344 67.125 L174.3438 72.6406 L174.3438 73.1875 L177.9531 73.1875 L177.9531 76 L178.8594 76 L178.8594 73.1875 L180.2812 73.1875 L180.2812 72.5156 Z" style="fill:black; stroke:none;"
      /><rect x="160" width="8" height="8" y="68" style="stroke:none;"
      /><path d="M164.9844 73.7031 C164.9375 74.8906 164.1562 75.6562 163.3125 75.6562 C162.2656 75.6562 161.5 74.6875 161.5 72.7188 C161.5 71.2812 162.1562 70.1562 163.3438 70.1562 C164.1406 70.1562 164.7812 70.6875 165.0938 71.6406 L164.9844 73.7031 ZM166.9062 75.2812 C166.7344 75.375 166.5469 75.4219 166.3438 75.4219 C165.9531 75.4219 165.75 75.2188 165.75 74.4219 C165.75 73.4844 165.9688 71.5312 166.1875 69.8281 L166.0312 69.7188 L165.2344 69.9219 L165.1406 70.7969 C164.7812 70.0312 164.1562 69.6562 163.3906 69.6562 C162.0469 69.6562 160.5625 70.8438 160.5625 72.9531 C160.5625 75.0938 161.7188 76.1719 163.1406 76.1719 C164.0156 76.1719 164.6875 75.8125 165.0938 74.9844 C165.2031 75.8594 165.5156 76.1719 166.0156 76.1719 C166.4688 76.1719 166.7969 75.9062 167.0156 75.5625 L166.9062 75.2812 Z" style="fill:black; stroke:none;"
      /><rect x="213" width="5" height="10" y="67" style="stroke:none;"
      /><path d="M214.8906 75.6875 C214.4844 75.6875 214.1562 76.0469 214.1562 76.4219 C214.1562 76.8125 214.4844 77.1562 214.8906 77.1562 C215.2969 77.1562 215.6406 76.8125 215.6406 76.4219 C215.6406 76.0469 215.2969 75.6875 214.8906 75.6875 ZM216.4688 69.5781 C216.7188 69.8906 216.875 70.2656 216.8906 70.6562 C216.8906 71.1875 216.625 71.5 216.0312 71.7656 L215.4062 72.0156 C214.6406 72.3125 214.3906 72.5469 214.3906 72.9375 C214.3906 73.1094 214.4531 73.3438 214.5781 73.8125 L214.7344 74.3438 L215.1094 74.3438 L215.0938 73.5312 C215.0938 73.0938 215.2031 72.9688 215.7812 72.7344 L216.2031 72.5625 C217.0312 72.2188 217.4531 71.6875 217.4531 70.8438 C217.4531 69.1562 215.6562 68.1875 214.5 68.0312 C214.1094 68.125 213.9062 68.2969 213.9062 68.6406 C213.9062 68.9375 214.0625 69.1562 214.7188 69.2656 L216.4688 69.5781 Z" style="fill:black; stroke:none;"
    /></g
  ></g
></svg
>
