<?xml version="1.0"?>
<!DOCTYPE svg PUBLIC '-//W3C//DTD SVG 1.0//EN'
          'http://www.w3.org/TR/2001/REC-SVG-20010904/DTD/svg10.dtd'>
<svg xmlns:xlink="http://www.w3.org/1999/xlink" style="fill-opacity:1; color-rendering:auto; color-interpolation:auto; text-rendering:auto; stroke:black; stroke-linecap:square; stroke-miterlimit:10; shape-rendering:auto; stroke-opacity:1; fill:black; stroke-dasharray:none; font-weight:normal; stroke-width:1; font-family:'Dialog'; font-style:normal; stroke-linejoin:miter; font-size:12px; stroke-dashoffset:0; image-rendering:auto;" viewBox="0 0 342 180" xmlns="http://www.w3.org/2000/svg"
><!--Generated by the Batik Graphics2D SVG Generator--><defs id="genericDefs"
  /><g
  ><defs id="defs1"
    ><clipPath clipPathUnits="userSpaceOnUse" id="clipPath1"
      ><path style="fill-rule:evenodd;" d="M243 68 L249 68 L249 112 L243 112 L249 112 L249 68 Z"
      /></clipPath
      ><clipPath clipPathUnits="userSpaceOnUse" id="clipPath2"
      ><path d="M186 79 L208 79 L208 101 L186 101 L186 79 Z"
      /></clipPath
      ><clipPath clipPathUnits="userSpaceOnUse" id="clipPath3"
      ><path d="M156 90 C156 96.0751 151.0751 101 145 101 C138.9249 101 134 96.0751 134 90 C134 83.9249 138.9249 79 145 79 C151.0751 79 156 83.9249 156 90 Z"
      /></clipPath
      ><clipPath clipPathUnits="userSpaceOnUse" id="clipPath4"
      ><path d="M104 90 C104 96.0751 99.0751 101 93 101 C86.9249 101 82 96.0751 82 90 C82 83.9249 86.9249 79 93 79 C99.0751 79 104 83.9249 104 90 Z"
      /></clipPath
      ><clipPath clipPathUnits="userSpaceOnUse" id="clipPath5"
      ><path style="fill-rule:evenodd;" d="M46 138 L41 138 L40 94 L46 94 L40 94 L41 138 Z"
      /></clipPath
      ><clipPath clipPathUnits="userSpaceOnUse" id="clipPath6"
      ><path d="M30 35.5 L52 35.5 L52 46.5 L30 46.5 L30 35.5 Z"
      /></clipPath
    ></defs
    ><g style="fill:white; text-rendering:optimizeSpeed; stroke:white;"
    ><rect x="0" width="342" height="180" y="0" style="stroke:none;"
      /><polygon style="fill:none; stroke:black;" points=" 301 90 249 90"
      /><path d="M301 79 C295.5 84.5 306.5 95.5 301 101" style="fill:none; stroke:black;"
      /><polygon style="fill:none; stroke:black;" points=" 249 90 197 90"
      /><polygon style="clip-path:url(#clipPath1); stroke:none;" points=" 243 68 249 68 249 112 243 112 249 112 249 68"
      /><rect x="238" y="56" width="22" style="clip-path:url(#clipPath1); fill:black; stroke:none;" height="68"
      /><rect x="238" y="56" width="22" style="clip-path:url(#clipPath1); fill:none; stroke:black;" height="68"
      /><polygon style="fill:none; stroke:black;" points=" 243 68 249 68 249 112 243 112 249 112 249 68"
      /><polygon style="fill:none; stroke:black;" points=" 197 90 145 90"
      /><rect x="186" y="79" width="22" style="clip-path:url(#clipPath2); stroke:none;" height="22"
      /><rect x="186" y="79" width="22" style="clip-path:url(#clipPath2); fill:rgb(255,212,0); stroke:none;" height="22"
      /><rect x="186" y="79" width="22" style="clip-path:url(#clipPath2); fill:none; stroke:black;" height="22"
      /><rect x="186" y="79" width="22" style="fill:none; stroke:black;" height="22"
      /><polygon style="fill:none; stroke:black;" points=" 145 90 93 90"
      /><circle style="clip-path:url(#clipPath3); stroke:none;" r="11" cx="145" cy="90"
      /><rect x="134" y="79" width="22" style="clip-path:url(#clipPath3); fill:rgb(255,212,0); stroke:none;" height="22"
      /><rect x="134" y="79" width="22" style="clip-path:url(#clipPath3); fill:none; stroke:black;" height="22"
      /><circle style="fill:none; stroke:black;" r="11" cx="145" cy="90"
      /><polygon style="fill:none; stroke:black;" points=" 93 90 41 116"
      /><polygon style="fill:none; stroke:black;" points=" 93 90 41 41"
      /><circle style="clip-path:url(#clipPath4); stroke:none;" r="11" cx="93" cy="90"
      /><rect x="82" y="79" width="22" style="clip-path:url(#clipPath4); fill:rgb(0,144,188); stroke:none;" height="22"
      /><rect x="82" y="79" width="22" style="clip-path:url(#clipPath4); fill:none; stroke:black;" height="22"
      /><circle style="fill:none; stroke:black;" r="11" cx="93" cy="90"
      /><polygon style="clip-path:url(#clipPath5); stroke:none;" points=" 46 138 41 138 40 94 46 94 40 94 41 138"
      /><rect x="30" y="82" width="22" style="clip-path:url(#clipPath5); fill:black; stroke:none;" height="68"
      /><rect x="30" y="82" width="22" style="clip-path:url(#clipPath5); fill:none; stroke:black;" height="68"
      /><polygon style="fill:none; stroke:black;" points=" 46 138 41 138 40 94 46 94 40 94 41 138"
      /><path d="M43.5469 147.9531 C43.5156 147.2969 43.5 146.3906 43.5 145.7656 L43.5 144.5156 C43.5 142.8281 42.9531 142.1562 41.8594 142.1562 C41.0625 142.1562 40.1562 142.625 39.4531 143.4062 L39.3594 142.2969 L39.2031 142.1719 L37.4688 142.8125 L37.4688 143.2031 L38.5312 143.2812 C38.5625 143.8438 38.5781 144.3438 38.5781 145.1094 L38.5781 145.7656 C38.5781 146.375 38.5781 147.2969 38.5469 147.9688 L37.5469 148.1094 L37.5469 148.5 L40.4688 148.5 L40.4688 148.1094 L39.5156 147.9531 C39.5156 147.2969 39.5 146.375 39.5 145.7656 L39.5 143.875 C40.2656 143.1562 40.875 142.9062 41.4688 142.9062 C42.2344 142.9062 42.5938 143.3125 42.5938 144.5625 L42.5938 145.7656 C42.5938 146.3906 42.5781 147.3125 42.5625 147.9688 L41.5469 148.1094 L41.5469 148.5 L44.4844 148.5 L44.4844 148.1094 L43.5469 147.9531 Z" style="fill:black; stroke:none;"
      /><rect x="30" y="35.5" width="22" style="clip-path:url(#clipPath6); stroke:none;" height="11"
      /><rect x="30" y="30" width="22" style="clip-path:url(#clipPath6); fill:rgb(143,204,233); stroke:none;" height="22"
      /><rect x="30" y="30" width="22" style="clip-path:url(#clipPath6); fill:none; stroke:black;" height="22"
      /><rect x="30" y="35.5" width="22" style="fill:none; stroke:black;" height="11"
      /><rect x="74" y="101" width="7" style="stroke:none;" height="9"
    /></g
    ><g style="font-family:'Serif'; text-rendering:optimizeSpeed; "
    ><path style="stroke:none;" d="M75 106.5156 L77.9531 102.2656 L77.9531 106.5156 L75 106.5156 ZM80.2812 106.5156 L78.8594 106.5156 L78.8594 101.125 L78.2344 101.125 L74.3438 106.6406 L74.3438 107.1875 L77.9531 107.1875 L77.9531 110 L78.8594 110 L78.8594 107.1875 L80.2812 107.1875 L80.2812 106.5156 Z"
      /><rect x="67" y="74" width="6" style="fill:white; stroke:none;" height="10"
      /><path style="stroke:none;" d="M70.3438 83.6875 C69.2031 83.6875 68.5312 82.5 68.5312 80.2969 C68.5312 80.2188 68.5312 80.125 68.5312 80.0469 C69.0938 79.5 69.7188 79.3125 70.3438 79.3125 C71.3125 79.3125 71.9531 79.9844 71.9531 81.4531 C71.9531 82.9375 71.3125 83.6875 70.3438 83.6875 ZM72.5312 75.0781 C69.3438 75.4531 67.5625 77.7656 67.5625 80.4531 C67.5625 82.7812 68.6094 84.1719 70.3125 84.1719 C71.8438 84.1719 72.9219 83.1094 72.9219 81.2812 C72.9219 79.6875 71.9688 78.6562 70.5625 78.6562 C69.8281 78.6562 69.1406 78.9844 68.5781 79.5781 C68.7969 77.4062 70.0781 75.9688 72.5938 75.3906 L72.5312 75.0781 Z"
      /><rect x="48" y="58" width="8" style="fill:white; stroke:none;" height="8"
      /><path style="stroke:none;" d="M52.9844 63.7031 C52.9375 64.8906 52.1562 65.6562 51.3125 65.6562 C50.2656 65.6562 49.5 64.6875 49.5 62.7188 C49.5 61.2812 50.1562 60.1562 51.3438 60.1562 C52.1406 60.1562 52.7812 60.6875 53.0938 61.6406 L52.9844 63.7031 ZM54.9062 65.2812 C54.7344 65.375 54.5469 65.4219 54.3438 65.4219 C53.9531 65.4219 53.75 65.2188 53.75 64.4219 C53.75 63.4844 53.9688 61.5312 54.1875 59.8281 L54.0312 59.7188 L53.2344 59.9219 L53.1406 60.7969 C52.7812 60.0312 52.1562 59.6562 51.3906 59.6562 C50.0469 59.6562 48.5625 60.8438 48.5625 62.9531 C48.5625 65.0938 49.7188 66.1719 51.1406 66.1719 C52.0156 66.1719 52.6875 65.8125 53.0938 64.9844 C53.2031 65.8594 53.5156 66.1719 54.0156 66.1719 C54.4688 66.1719 54.7969 65.9062 55.0156 65.5625 L54.9062 65.2812 Z"
      /><rect x="122" y="93" width="7" style="fill:white; stroke:none;" height="9"
      /><path style="stroke:none;" d="M123 98.5156 L125.9531 94.2656 L125.9531 98.5156 L123 98.5156 ZM128.2812 98.5156 L126.8594 98.5156 L126.8594 93.125 L126.2344 93.125 L122.3438 98.6406 L122.3438 99.1875 L125.9531 99.1875 L125.9531 102 L126.8594 102 L126.8594 99.1875 L128.2812 99.1875 L128.2812 98.5156 Z"
      /><rect x="108" y="94" width="8" style="fill:white; stroke:none;" height="8"
      /><path style="stroke:none;" d="M112.9844 99.7031 C112.9375 100.8906 112.1562 101.6562 111.3125 101.6562 C110.2656 101.6562 109.5 100.6875 109.5 98.7188 C109.5 97.2812 110.1562 96.1562 111.3438 96.1562 C112.1406 96.1562 112.7812 96.6875 113.0938 97.6406 L112.9844 99.7031 ZM114.9062 101.2812 C114.7344 101.375 114.5469 101.4219 114.3438 101.4219 C113.9531 101.4219 113.75 101.2188 113.75 100.4219 C113.75 99.4844 113.9688 97.5312 114.1875 95.8281 L114.0312 95.7188 L113.2344 95.9219 L113.1406 96.7969 C112.7812 96.0312 112.1562 95.6562 111.3906 95.6562 C110.0469 95.6562 108.5625 96.8438 108.5625 98.9531 C108.5625 101.0938 109.7188 102.1719 111.1406 102.1719 C112.0156 102.1719 112.6875 101.8125 113.0938 100.9844 C113.2031 101.8594 113.5156 102.1719 114.0156 102.1719 C114.4688 102.1719 114.7969 101.9062 115.0156 101.5625 L114.9062 101.2812 Z"
      /><rect x="175" y="93" width="6" style="fill:white; stroke:none;" height="10"
      /><path style="stroke:none;" d="M177.2344 94.6562 C177.5156 94.5938 177.7656 94.5625 178.0156 94.5625 C179.0625 94.5625 179.6719 95.1719 179.6719 96.2656 C179.6719 97.4375 178.9062 98.1094 177.7031 98.1094 L177.1875 98.1094 L177.1875 98.6406 L177.7969 98.6406 C179.2188 98.6406 179.9062 99.4219 179.9062 100.6406 C179.9062 101.8438 179.1719 102.6875 177.875 102.6875 C177.6094 102.6875 177.3125 102.6562 177.0156 102.5625 L176.7812 101.8125 C176.625 101.2812 176.5 101.0469 176.1406 101.0469 C175.8906 101.0469 175.7031 101.1719 175.5781 101.4219 C175.8438 102.6406 176.7812 103.1719 178.0312 103.1719 C179.7188 103.1719 180.875 102.125 180.875 100.7031 C180.875 99.5 180.2031 98.625 178.7969 98.375 C179.9531 98.0156 180.6094 97.2031 180.6094 96.2031 C180.6094 94.9219 179.6719 94.0781 178.1875 94.0781 C177.0469 94.0781 176.0625 94.5938 175.7969 95.6875 C175.9062 96 176.1094 96.1094 176.3594 96.1094 C176.7344 96.1094 176.8906 95.8906 177 95.4062 L177.2344 94.6562 Z"
      /><rect x="160" y="94" width="8" style="fill:white; stroke:none;" height="8"
      /><path style="stroke:none;" d="M164.9844 99.7031 C164.9375 100.8906 164.1562 101.6562 163.3125 101.6562 C162.2656 101.6562 161.5 100.6875 161.5 98.7188 C161.5 97.2812 162.1562 96.1562 163.3438 96.1562 C164.1406 96.1562 164.7812 96.6875 165.0938 97.6406 L164.9844 99.7031 ZM166.9062 101.2812 C166.7344 101.375 166.5469 101.4219 166.3438 101.4219 C165.9531 101.4219 165.75 101.2188 165.75 100.4219 C165.75 99.4844 165.9688 97.5312 166.1875 95.8281 L166.0312 95.7188 L165.2344 95.9219 L165.1406 96.7969 C164.7812 96.0312 164.1562 95.6562 163.3906 95.6562 C162.0469 95.6562 160.5625 96.8438 160.5625 98.9531 C160.5625 101.0938 161.7188 102.1719 163.1406 102.1719 C164.0156 102.1719 164.6875 101.8125 165.0938 100.9844 C165.2031 101.8594 165.5156 102.1719 166.0156 102.1719 C166.4688 102.1719 166.7969 101.9062 167.0156 101.5625 L166.9062 101.2812 Z"
      /><rect x="213" y="91" width="6" style="fill:white; stroke:none;" height="13"
      /><path style="stroke:none;" d="M215.0938 97.2031 C215.0938 95.6562 215.75 94.8125 216.7969 94.8125 C217.7188 94.8125 218.2656 95.4531 218.2656 96.5156 C218.2656 97.7188 217.5 98.4375 216.1875 98.7031 L216.2969 99.3125 C218.2188 99.2344 218.9375 100.2188 218.9375 101.4375 C218.9375 102.625 218.2344 103.4219 216.9531 103.4219 C216.25 103.4219 215.6562 103.1562 215.0938 102.7188 L215.0938 97.2031 ZM214.2031 103.9062 L214.1094 106.375 L214.2656 106.4844 L215.1562 106.2656 L215.0156 103.0938 C215.5469 103.8438 216.3594 104.1719 217.1719 104.1719 C218.5625 104.1719 219.8594 103.2188 219.8594 101.4844 C219.8594 99.9531 218.875 99.1094 217.125 99 C218.5625 98.6094 219.1875 97.4531 219.1875 96.4844 C219.1875 95.0938 218.1562 94.3125 216.9062 94.3125 C215.2969 94.3125 214.2188 95.5469 214.2188 97.5156 L214.2031 103.9062 Z"
    /></g
  ></g
></svg
>
