<?xml version="1.0"?>
<!DOCTYPE svg PUBLIC '-//W3C//DTD SVG 1.0//EN'
          'http://www.w3.org/TR/2001/REC-SVG-20010904/DTD/svg10.dtd'>
<svg xmlns:xlink="http://www.w3.org/1999/xlink" style="fill-opacity:1; color-rendering:auto; color-interpolation:auto; text-rendering:auto; stroke:black; stroke-linecap:square; stroke-miterlimit:10; shape-rendering:auto; stroke-opacity:1; fill:black; stroke-dasharray:none; font-weight:normal; stroke-width:1; font-family:'Dialog'; font-style:normal; stroke-linejoin:miter; font-size:12px; stroke-dashoffset:0; image-rendering:auto;" viewBox="0 0 186 134" xmlns="http://www.w3.org/2000/svg"
><!--Generated by the Batik Graphics2D SVG Generator--><defs id="genericDefs"
  /><g
  ><defs id="defs1"
    ><clipPath clipPathUnits="userSpaceOnUse" id="clipPath1"
      ><path style="fill-rule:evenodd;" d="M93 30 L95 37 L103 37 L96 42 L99 49 L93 45 L86 49 L89 42 L82 37 L90 37 L93 30 Z"
      /></clipPath
      ><clipPath clipPathUnits="userSpaceOnUse" id="clipPath2"
      ><path style="fill-rule:evenodd;" d="M93 82 L95 89 L103 89 L96 94 L99 101 L93 97 L86 101 L89 94 L82 89 L90 89 L93 82 Z"
      /></clipPath
      ><clipPath clipPathUnits="userSpaceOnUse" id="clipPath3"
      ><path d="M52 41 C52 47.0751 47.0751 52 41 52 C34.9249 52 30 47.0751 30 41 C30 34.9249 34.9249 30 41 30 C47.0751 30 52 34.9249 52 41 Z"
      /></clipPath
    ></defs
    ><g style="fill:white; text-rendering:optimizeSpeed; stroke:white;"
    ><rect x="0" width="186" height="134" y="0" style="stroke:none;"
      /><polygon style="fill:none; stroke:black;" points=" 145 41 93 41"
      /><path d="M145 30 C139.5 35.5 150.5 46.5 145 52" style="fill:none; stroke:black;"
      /><polygon style="fill:none; stroke:black;" points=" 93 41 93 93"
      /><polygon style="fill:none; stroke:black;" points=" 93 41 41 41"
      /><polygon style="clip-path:url(#clipPath1); stroke:none;" points=" 93 30 95 37 103 37 96 42 99 49 93 45 86 49 89 42 82 37 90 37 93 30"
      /><rect x="82" y="30" width="22" style="clip-path:url(#clipPath1); fill:rgb(0,166,81); stroke:none;" height="22"
      /><rect x="82" y="30" width="22" style="clip-path:url(#clipPath1); fill:none; stroke:black;" height="22"
      /><polygon style="fill:none; stroke:black;" points=" 93 30 95 37 103 37 96 42 99 49 93 45 86 49 89 42 82 37 90 37 93 30"
      /><polygon style="clip-path:url(#clipPath2); stroke:none;" points=" 93 82 95 89 103 89 96 94 99 101 93 97 86 101 89 94 82 89 90 89 93 82"
      /><rect x="82" y="82" width="22" style="clip-path:url(#clipPath2); fill:rgb(244,121,32); stroke:none;" height="22"
      /><rect x="82" y="82" width="22" style="clip-path:url(#clipPath2); fill:none; stroke:black;" height="22"
      /><polygon style="fill:none; stroke:black;" points=" 93 82 95 89 103 89 96 94 99 101 93 97 86 101 89 94 82 89 90 89 93 82"
      /><circle style="clip-path:url(#clipPath3); stroke:none;" r="11" cx="41" cy="41"
      /><rect x="30" y="30" width="22" style="clip-path:url(#clipPath3); fill:rgb(0,144,188); stroke:none;" height="22"
      /><rect x="30" y="30" width="22" style="clip-path:url(#clipPath3); fill:none; stroke:black;" height="22"
      /><circle style="fill:none; stroke:black;" r="11" cx="41" cy="41"
      /><rect x="98" y="55" width="6" style="stroke:none;" height="9"
    /></g
    ><g style="font-family:'Serif'; text-rendering:optimizeSpeed; "
    ><path style="stroke:none;" d="M99.4219 63.0938 C100.0781 62.375 100.7031 61.7188 101.0312 61.3438 C102.9219 59.3125 103.5312 58.4688 103.5312 57.3594 C103.5312 56.0156 102.7812 55.0781 101.1562 55.0781 C99.9062 55.0781 98.7969 55.7031 98.5938 56.9688 C98.7188 57.2031 98.9062 57.3438 99.1562 57.3438 C99.4688 57.3438 99.6562 57.1094 99.7969 56.5938 L100.0938 55.6719 C100.3906 55.5938 100.6562 55.5625 100.8906 55.5625 C101.9219 55.5625 102.5469 56.3125 102.5469 57.4219 C102.5469 58.4375 101.9844 59.4219 100.7031 60.9062 C100.125 61.5781 99.3906 62.4375 98.6406 63.2812 L98.6406 64 L103.9219 64 L103.9219 63.0938 L99.4219 63.0938 Z"
      /><rect x="98" y="67" width="6" style="fill:white; stroke:none;" height="13"
      /><path style="stroke:none;" d="M100.0938 73.2031 C100.0938 71.6562 100.75 70.8125 101.7969 70.8125 C102.7188 70.8125 103.2656 71.4531 103.2656 72.5156 C103.2656 73.7188 102.5 74.4375 101.1875 74.7031 L101.2969 75.3125 C103.2188 75.2344 103.9375 76.2188 103.9375 77.4375 C103.9375 78.625 103.2344 79.4219 101.9531 79.4219 C101.25 79.4219 100.6562 79.1562 100.0938 78.7188 L100.0938 73.2031 ZM99.2031 79.9062 L99.1094 82.375 L99.2656 82.4844 L100.1562 82.2656 L100.0156 79.0938 C100.5469 79.8438 101.3594 80.1719 102.1719 80.1719 C103.5625 80.1719 104.8594 79.2188 104.8594 77.4844 C104.8594 75.9531 103.875 75.1094 102.125 75 C103.5625 74.6094 104.1875 73.4531 104.1875 72.4844 C104.1875 71.0938 103.1562 70.3125 101.9062 70.3125 C100.2969 70.3125 99.2188 71.5469 99.2188 73.5156 L99.2031 79.9062 Z"
      /><rect x="71" y="44" width="6" style="fill:white; stroke:none;" height="10"
      /><path style="stroke:none;" d="M73.2344 45.6562 C73.5156 45.5938 73.7656 45.5625 74.0156 45.5625 C75.0625 45.5625 75.6719 46.1719 75.6719 47.2656 C75.6719 48.4375 74.9062 49.1094 73.7031 49.1094 L73.1875 49.1094 L73.1875 49.6406 L73.7969 49.6406 C75.2188 49.6406 75.9062 50.4219 75.9062 51.6406 C75.9062 52.8438 75.1719 53.6875 73.875 53.6875 C73.6094 53.6875 73.3125 53.6562 73.0156 53.5625 L72.7812 52.8125 C72.625 52.2812 72.5 52.0469 72.1406 52.0469 C71.8906 52.0469 71.7031 52.1719 71.5781 52.4219 C71.8438 53.6406 72.7812 54.1719 74.0312 54.1719 C75.7188 54.1719 76.875 53.125 76.875 51.7031 C76.875 50.5 76.2031 49.625 74.7969 49.375 C75.9531 49.0156 76.6094 48.2031 76.6094 47.2031 C76.6094 45.9219 75.6719 45.0781 74.1875 45.0781 C73.0469 45.0781 72.0625 45.5938 71.7969 46.6875 C71.9062 47 72.1094 47.1094 72.3594 47.1094 C72.7344 47.1094 72.8906 46.8906 73 46.4062 L73.2344 45.6562 Z"
      /><rect x="57" y="42" width="6" style="fill:white; stroke:none;" height="13"
      /><path style="stroke:none;" d="M59.0938 48.2031 C59.0938 46.6562 59.75 45.8125 60.7969 45.8125 C61.7188 45.8125 62.2656 46.4531 62.2656 47.5156 C62.2656 48.7188 61.5 49.4375 60.1875 49.7031 L60.2969 50.3125 C62.2188 50.2344 62.9375 51.2188 62.9375 52.4375 C62.9375 53.625 62.2344 54.4219 60.9531 54.4219 C60.25 54.4219 59.6562 54.1562 59.0938 53.7188 L59.0938 48.2031 ZM58.2031 54.9062 L58.1094 57.375 L58.2656 57.4844 L59.1562 57.2656 L59.0156 54.0938 C59.5469 54.8438 60.3594 55.1719 61.1719 55.1719 C62.5625 55.1719 63.8594 54.2188 63.8594 52.4844 C63.8594 50.9531 62.875 50.1094 61.125 50 C62.5625 49.6094 63.1875 48.4531 63.1875 47.4844 C63.1875 46.0938 62.1562 45.3125 60.9062 45.3125 C59.2969 45.3125 58.2188 46.5469 58.2188 48.5156 L58.2031 54.9062 Z"
      /><rect x="109" y="44" width="5" style="fill:white; stroke:none;" height="10"
      /><path style="stroke:none;" d="M110.8906 52.6875 C110.4844 52.6875 110.1562 53.0469 110.1562 53.4219 C110.1562 53.8125 110.4844 54.1562 110.8906 54.1562 C111.2969 54.1562 111.6406 53.8125 111.6406 53.4219 C111.6406 53.0469 111.2969 52.6875 110.8906 52.6875 ZM112.4688 46.5781 C112.7188 46.8906 112.875 47.2656 112.8906 47.6562 C112.8906 48.1875 112.625 48.5 112.0312 48.7656 L111.4062 49.0156 C110.6406 49.3125 110.3906 49.5469 110.3906 49.9375 C110.3906 50.1094 110.4531 50.3438 110.5781 50.8125 L110.7344 51.3438 L111.1094 51.3438 L111.0938 50.5312 C111.0938 50.0938 111.2031 49.9688 111.7812 49.7344 L112.2031 49.5625 C113.0312 49.2188 113.4531 48.6875 113.4531 47.8438 C113.4531 46.1562 111.6562 45.1875 110.5 45.0312 C110.1094 45.125 109.9062 45.2969 109.9062 45.6406 C109.9062 45.9375 110.0625 46.1562 110.7188 46.2656 L112.4688 46.5781 Z"
    /></g
  ></g
></svg
>
