<?xml version="1.0"?>
<!DOCTYPE svg PUBLIC '-//W3C//DTD SVG 1.0//EN'
          'http://www.w3.org/TR/2001/REC-SVG-20010904/DTD/svg10.dtd'>
<svg xmlns:xlink="http://www.w3.org/1999/xlink" style="fill-opacity:1; color-rendering:auto; color-interpolation:auto; text-rendering:auto; stroke:black; stroke-linecap:square; stroke-miterlimit:10; shape-rendering:auto; stroke-opacity:1; fill:black; stroke-dasharray:none; font-weight:normal; stroke-width:1; font-family:'Dialog'; font-style:normal; stroke-linejoin:miter; font-size:12px; stroke-dashoffset:0; image-rendering:auto;" viewBox="0 0 446 199" xmlns="http://www.w3.org/2000/svg"
><!--Generated by the Batik Graphics2D SVG Generator--><defs id="genericDefs"
  /><g
  ><defs id="defs1"
    ><clipPath clipPathUnits="userSpaceOnUse" id="clipPath1"
      ><path d="M342 82 L364 82 L364 104 L342 104 L342 82 Z"
      /></clipPath
      ><clipPath clipPathUnits="userSpaceOnUse" id="clipPath2"
      ><path d="M290 82 L312 82 L312 104 L290 104 L290 82 Z"
      /></clipPath
      ><clipPath clipPathUnits="userSpaceOnUse" id="clipPath3"
      ><path d="M260 93 C260 99.0751 255.0751 104 249 104 C242.9249 104 238 99.0751 238 93 C238 86.9249 242.9249 82 249 82 C255.0751 82 260 86.9249 260 93 Z"
      /></clipPath
      ><clipPath clipPathUnits="userSpaceOnUse" id="clipPath4"
      ><path d="M208 132 C208 138.0751 203.0751 143 197 143 C190.9249 143 186 138.0751 186 132 C186 125.9249 190.9249 121 197 121 C203.0751 121 208 125.9249 208 132 Z"
      /></clipPath
      ><clipPath clipPathUnits="userSpaceOnUse" id="clipPath5"
      ><path d="M134 147 L156 147 L156 169 L134 169 L134 147 Z"
      /></clipPath
      ><clipPath clipPathUnits="userSpaceOnUse" id="clipPath6"
      ><path d="M104 158 C104 164.0751 99.0751 169 93 169 C86.9249 169 82 164.0751 82 158 C82 151.9249 86.9249 147 93 147 C99.0751 147 104 151.9249 104 158 Z"
      /></clipPath
      ><clipPath clipPathUnits="userSpaceOnUse" id="clipPath7"
      ><path style="fill-rule:evenodd;" d="M41 147 L52 158 L41 169 L30 158 Z"
      /></clipPath
      ><clipPath clipPathUnits="userSpaceOnUse" id="clipPath8"
      ><path d="M134 95 L156 95 L156 117 L134 117 L134 95 Z"
      /></clipPath
      ><clipPath clipPathUnits="userSpaceOnUse" id="clipPath9"
      ><path d="M104 106 C104 112.0751 99.0751 117 93 117 C86.9249 117 82 112.0751 82 106 C82 99.9249 86.9249 95 93 95 C99.0751 95 104 99.9249 104 106 Z"
      /></clipPath
      ><clipPath clipPathUnits="userSpaceOnUse" id="clipPath10"
      ><path style="fill-rule:evenodd;" d="M41 95 L52 106 L41 117 L30 106 Z"
      /></clipPath
      ><clipPath clipPathUnits="userSpaceOnUse" id="clipPath11"
      ><path d="M208 54 C208 60.0751 203.0751 65 197 65 C190.9249 65 186 60.0751 186 54 C186 47.9249 190.9249 43 197 43 C203.0751 43 208 47.9249 208 54 Z"
      /></clipPath
      ><clipPath clipPathUnits="userSpaceOnUse" id="clipPath12"
      ><path d="M134 43 L156 43 L156 65 L134 65 L134 43 Z"
      /></clipPath
      ><clipPath clipPathUnits="userSpaceOnUse" id="clipPath13"
      ><path d="M104 54 C104 60.0751 99.0751 65 93 65 C86.9249 65 82 60.0751 82 54 C82 47.9249 86.9249 43 93 43 C99.0751 43 104 47.9249 104 54 Z"
      /></clipPath
      ><clipPath clipPathUnits="userSpaceOnUse" id="clipPath14"
      ><path style="fill-rule:evenodd;" d="M41 43 L52 54 L41 65 L30 54 Z"
      /></clipPath
      ><clipPath clipPathUnits="userSpaceOnUse" id="clipPath15"
      ><path style="fill-rule:evenodd;" d="M353 52 L342 30 L364 30 Z"
      /></clipPath
    ></defs
    ><g style="fill:white; text-rendering:optimizeSpeed; stroke:white;"
    ><rect x="0" width="446" height="199" y="0" style="stroke:none;"
      /><polygon style="fill:none; stroke:black;" points=" 405 93 353 93"
      /><path d="M405 82 C399.5 87.5 410.5 98.5 405 104" style="fill:none; stroke:black;"
      /><polygon style="fill:none; stroke:black;" points=" 353 93 301 93"
      /><polygon style="fill:none; stroke:black;" points=" 353 93 353 41"
      /><rect x="342" y="82" width="22" style="clip-path:url(#clipPath1); stroke:none;" height="22"
      /><rect x="342" y="82" width="22" style="clip-path:url(#clipPath1); fill:rgb(0,144,188); stroke:none;" height="22"
      /><rect x="342" y="82" width="22" style="clip-path:url(#clipPath1); fill:none; stroke:black;" height="22"
      /><rect x="342" y="82" width="22" style="fill:none; stroke:black;" height="22"
      /><polygon style="fill:none; stroke:black;" points=" 301 93 249 93"
      /><rect x="290" y="82" width="22" style="clip-path:url(#clipPath2); stroke:none;" height="22"
      /><rect x="290" y="82" width="22" style="clip-path:url(#clipPath2); fill:rgb(0,144,188); stroke:none;" height="22"
      /><rect x="290" y="82" width="22" style="clip-path:url(#clipPath2); fill:none; stroke:black;" height="22"
      /><rect x="290" y="82" width="22" style="fill:none; stroke:black;" height="22"
      /><polygon style="fill:none; stroke:black;" points=" 249 93 197 132"
      /><polygon style="fill:none; stroke:black;" points=" 249 93 197 54"
      /><circle style="clip-path:url(#clipPath3); stroke:none;" r="11" cx="249" cy="93"
      /><rect x="238" y="82" width="22" style="clip-path:url(#clipPath3); fill:rgb(0,166,81); stroke:none;" height="22"
      /><rect x="238" y="82" width="22" style="clip-path:url(#clipPath3); fill:none; stroke:black;" height="22"
      /><circle style="fill:none; stroke:black;" r="11" cx="249" cy="93"
      /><polygon style="fill:none; stroke:black;" points=" 197 132 145 158"
      /><polygon style="fill:none; stroke:black;" points=" 197 132 145 106"
      /><circle style="clip-path:url(#clipPath4); stroke:none;" r="11" cx="197" cy="132"
      /><rect x="186" y="121" width="22" style="clip-path:url(#clipPath4); fill:rgb(0,166,81); stroke:none;" height="22"
      /><rect x="186" y="121" width="22" style="clip-path:url(#clipPath4); fill:none; stroke:black;" height="22"
      /><circle style="fill:none; stroke:black;" r="11" cx="197" cy="132"
      /><polygon style="fill:none; stroke:black;" points=" 145 158 93 158"
      /><rect x="134" y="147" width="22" style="clip-path:url(#clipPath5); stroke:none;" height="22"
      /><rect x="134" y="147" width="22" style="clip-path:url(#clipPath5); fill:rgb(0,144,188); stroke:none;" height="22"
      /><rect x="134" y="147" width="22" style="clip-path:url(#clipPath5); fill:none; stroke:black;" height="22"
      /><rect x="134" y="147" width="22" style="fill:none; stroke:black;" height="22"
      /><polygon style="fill:none; stroke:black;" points=" 93 158 41 158"
      /><circle style="clip-path:url(#clipPath6); stroke:none;" r="11" cx="93" cy="158"
      /><rect x="82" y="147" width="22" style="clip-path:url(#clipPath6); fill:rgb(255,212,0); stroke:none;" height="22"
      /><rect x="82" y="147" width="22" style="clip-path:url(#clipPath6); fill:none; stroke:black;" height="22"
      /><circle style="fill:none; stroke:black;" r="11" cx="93" cy="158"
      /><polygon style="clip-path:url(#clipPath7); stroke:none;" points=" 41 147 52 158 41 169 30 158"
      /><rect x="30" y="147" width="22" style="clip-path:url(#clipPath7); fill:rgb(165,67,153); stroke:none;" height="22"
      /><rect x="30" y="147" width="22" style="clip-path:url(#clipPath7); fill:none; stroke:black;" height="22"
      /><polygon style="fill:none; stroke:black;" points=" 41 147 52 158 41 169 30 158"
      /><rect x="71" y="161" width="6" style="stroke:none;" height="10"
    /></g
    ><g style="font-family:'Serif'; text-rendering:optimizeSpeed; "
    ><path style="stroke:none;" d="M74.3438 170.6875 C73.2031 170.6875 72.5312 169.5 72.5312 167.2969 C72.5312 167.2188 72.5312 167.125 72.5312 167.0469 C73.0938 166.5 73.7188 166.3125 74.3438 166.3125 C75.3125 166.3125 75.9531 166.9844 75.9531 168.4531 C75.9531 169.9375 75.3125 170.6875 74.3438 170.6875 ZM76.5312 162.0781 C73.3438 162.4531 71.5625 164.7656 71.5625 167.4531 C71.5625 169.7812 72.6094 171.1719 74.3125 171.1719 C75.8438 171.1719 76.9219 170.1094 76.9219 168.2812 C76.9219 166.6875 75.9688 165.6562 74.5625 165.6562 C73.8281 165.6562 73.1406 165.9844 72.5781 166.5781 C72.7969 164.4062 74.0781 162.9688 76.5938 162.3906 L76.5312 162.0781 Z"
      /><rect x="56" y="162" width="8" style="fill:white; stroke:none;" height="8"
      /><path style="stroke:none;" d="M60.9844 167.7031 C60.9375 168.8906 60.1562 169.6562 59.3125 169.6562 C58.2656 169.6562 57.5 168.6875 57.5 166.7188 C57.5 165.2812 58.1562 164.1562 59.3438 164.1562 C60.1406 164.1562 60.7812 164.6875 61.0938 165.6406 L60.9844 167.7031 ZM62.9062 169.2812 C62.7344 169.375 62.5469 169.4219 62.3438 169.4219 C61.9531 169.4219 61.75 169.2188 61.75 168.4219 C61.75 167.4844 61.9688 165.5312 62.1875 163.8281 L62.0312 163.7188 L61.2344 163.9219 L61.1406 164.7969 C60.7812 164.0312 60.1562 163.6562 59.3906 163.6562 C58.0469 163.6562 56.5625 164.8438 56.5625 166.9531 C56.5625 169.0938 57.7188 170.1719 59.1406 170.1719 C60.0156 170.1719 60.6875 169.8125 61.0938 168.9844 C61.2031 169.8594 61.5156 170.1719 62.0156 170.1719 C62.4688 170.1719 62.7969 169.9062 63.0156 169.5625 L62.9062 169.2812 Z"
      /><rect x="122" y="161" width="7" style="fill:white; stroke:none;" height="9"
      /><path style="stroke:none;" d="M123 166.5156 L125.9531 162.2656 L125.9531 166.5156 L123 166.5156 ZM128.2812 166.5156 L126.8594 166.5156 L126.8594 161.125 L126.2344 161.125 L122.3438 166.6406 L122.3438 167.1875 L125.9531 167.1875 L125.9531 170 L126.8594 170 L126.8594 167.1875 L128.2812 167.1875 L128.2812 166.5156 Z"
      /><rect x="109" y="159" width="6" style="fill:white; stroke:none;" height="13"
      /><path style="stroke:none;" d="M111.0938 165.2031 C111.0938 163.6562 111.75 162.8125 112.7969 162.8125 C113.7188 162.8125 114.2656 163.4531 114.2656 164.5156 C114.2656 165.7188 113.5 166.4375 112.1875 166.7031 L112.2969 167.3125 C114.2188 167.2344 114.9375 168.2188 114.9375 169.4375 C114.9375 170.625 114.2344 171.4219 112.9531 171.4219 C112.25 171.4219 111.6562 171.1562 111.0938 170.7188 L111.0938 165.2031 ZM110.2031 171.9062 L110.1094 174.375 L110.2656 174.4844 L111.1562 174.2656 L111.0156 171.0938 C111.5469 171.8438 112.3594 172.1719 113.1719 172.1719 C114.5625 172.1719 115.8594 171.2188 115.8594 169.4844 C115.8594 167.9531 114.875 167.1094 113.125 167 C114.5625 166.6094 115.1875 165.4531 115.1875 164.4844 C115.1875 163.0938 114.1562 162.3125 112.9062 162.3125 C111.2969 162.3125 110.2188 163.5469 110.2188 165.5156 L110.2031 171.9062 Z"
      /><polygon style="fill:none;" points=" 145 106 93 106"
      /><rect x="134" y="95" width="22" style="clip-path:url(#clipPath8); fill:white; stroke:none;" height="22"
      /><rect x="134" y="95" width="22" style="clip-path:url(#clipPath8); fill:rgb(0,144,188); stroke:none;" height="22"
      /><rect x="134" y="95" width="22" style="fill:none; clip-path:url(#clipPath8);" height="22"
      /><rect x="134" width="22" height="22" y="95" style="fill:none;"
      /><polygon style="fill:none;" points=" 93 106 41 106"
      /><circle style="fill:white; clip-path:url(#clipPath9); stroke:none;" r="11" cx="93" cy="106"
      /><rect x="82" y="95" width="22" style="clip-path:url(#clipPath9); fill:rgb(255,212,0); stroke:none;" height="22"
      /><rect x="82" y="95" width="22" style="fill:none; clip-path:url(#clipPath9);" height="22"
      /><circle r="11" style="fill:none;" cx="93" cy="106"
      /><polygon style="fill:white; clip-path:url(#clipPath10); stroke:none;" points=" 41 95 52 106 41 117 30 106"
      /><rect x="30" y="95" width="22" style="clip-path:url(#clipPath10); fill:rgb(165,67,153); stroke:none;" height="22"
      /><rect x="30" y="95" width="22" style="fill:none; clip-path:url(#clipPath10);" height="22"
      /><polygon style="fill:none;" points=" 41 95 52 106 41 117 30 106"
      /><rect x="71" y="109" width="6" style="fill:white; stroke:none;" height="10"
      /><path style="stroke:none;" d="M73.2344 110.6562 C73.5156 110.5938 73.7656 110.5625 74.0156 110.5625 C75.0625 110.5625 75.6719 111.1719 75.6719 112.2656 C75.6719 113.4375 74.9062 114.1094 73.7031 114.1094 L73.1875 114.1094 L73.1875 114.6406 L73.7969 114.6406 C75.2188 114.6406 75.9062 115.4219 75.9062 116.6406 C75.9062 117.8438 75.1719 118.6875 73.875 118.6875 C73.6094 118.6875 73.3125 118.6562 73.0156 118.5625 L72.7812 117.8125 C72.625 117.2812 72.5 117.0469 72.1406 117.0469 C71.8906 117.0469 71.7031 117.1719 71.5781 117.4219 C71.8438 118.6406 72.7812 119.1719 74.0312 119.1719 C75.7188 119.1719 76.875 118.125 76.875 116.7031 C76.875 115.5 76.2031 114.625 74.7969 114.375 C75.9531 114.0156 76.6094 113.2031 76.6094 112.2031 C76.6094 110.9219 75.6719 110.0781 74.1875 110.0781 C73.0469 110.0781 72.0625 110.5938 71.7969 111.6875 C71.9062 112 72.1094 112.1094 72.3594 112.1094 C72.7344 112.1094 72.8906 111.8906 73 111.4062 L73.2344 110.6562 Z"
      /><rect x="56" y="110" width="8" style="fill:white; stroke:none;" height="8"
      /><path style="stroke:none;" d="M60.9844 115.7031 C60.9375 116.8906 60.1562 117.6562 59.3125 117.6562 C58.2656 117.6562 57.5 116.6875 57.5 114.7188 C57.5 113.2812 58.1562 112.1562 59.3438 112.1562 C60.1406 112.1562 60.7812 112.6875 61.0938 113.6406 L60.9844 115.7031 ZM62.9062 117.2812 C62.7344 117.375 62.5469 117.4219 62.3438 117.4219 C61.9531 117.4219 61.75 117.2188 61.75 116.4219 C61.75 115.4844 61.9688 113.5312 62.1875 111.8281 L62.0312 111.7188 L61.2344 111.9219 L61.1406 112.7969 C60.7812 112.0312 60.1562 111.6562 59.3906 111.6562 C58.0469 111.6562 56.5625 112.8438 56.5625 114.9531 C56.5625 117.0938 57.7188 118.1719 59.1406 118.1719 C60.0156 118.1719 60.6875 117.8125 61.0938 116.9844 C61.2031 117.8594 61.5156 118.1719 62.0156 118.1719 C62.4688 118.1719 62.7969 117.9062 63.0156 117.5625 L62.9062 117.2812 Z"
      /><rect x="122" y="109" width="7" style="fill:white; stroke:none;" height="9"
      /><path style="stroke:none;" d="M123 114.5156 L125.9531 110.2656 L125.9531 114.5156 L123 114.5156 ZM128.2812 114.5156 L126.8594 114.5156 L126.8594 109.125 L126.2344 109.125 L122.3438 114.6406 L122.3438 115.1875 L125.9531 115.1875 L125.9531 118 L126.8594 118 L126.8594 115.1875 L128.2812 115.1875 L128.2812 114.5156 Z"
      /><rect x="109" y="107" width="6" style="fill:white; stroke:none;" height="13"
      /><path style="stroke:none;" d="M111.0938 113.2031 C111.0938 111.6562 111.75 110.8125 112.7969 110.8125 C113.7188 110.8125 114.2656 111.4531 114.2656 112.5156 C114.2656 113.7188 113.5 114.4375 112.1875 114.7031 L112.2969 115.3125 C114.2188 115.2344 114.9375 116.2188 114.9375 117.4375 C114.9375 118.625 114.2344 119.4219 112.9531 119.4219 C112.25 119.4219 111.6562 119.1562 111.0938 118.7188 L111.0938 113.2031 ZM110.2031 119.9062 L110.1094 122.375 L110.2656 122.4844 L111.1562 122.2656 L111.0156 119.0938 C111.5469 119.8438 112.3594 120.1719 113.1719 120.1719 C114.5625 120.1719 115.8594 119.2188 115.8594 117.4844 C115.8594 115.9531 114.875 115.1094 113.125 115 C114.5625 114.6094 115.1875 113.4531 115.1875 112.4844 C115.1875 111.0938 114.1562 110.3125 112.9062 110.3125 C111.2969 110.3125 110.2188 111.5469 110.2188 113.5156 L110.2031 119.9062 Z"
      /><rect x="179" y="143" width="6" style="fill:white; stroke:none;" height="9"
      /><path style="stroke:none;" d="M180.4219 151.0938 C181.0781 150.375 181.7031 149.7188 182.0312 149.3438 C183.9219 147.3125 184.5312 146.4688 184.5312 145.3594 C184.5312 144.0156 183.7812 143.0781 182.1562 143.0781 C180.9062 143.0781 179.7969 143.7031 179.5938 144.9688 C179.7188 145.2031 179.9062 145.3438 180.1562 145.3438 C180.4688 145.3438 180.6562 145.1094 180.7969 144.5938 L181.0938 143.6719 C181.3906 143.5938 181.6562 143.5625 181.8906 143.5625 C182.9219 143.5625 183.5469 144.3125 183.5469 145.4219 C183.5469 146.4375 182.9844 147.4219 181.7031 148.9062 C181.125 149.5781 180.3906 150.4375 179.6406 151.2812 L179.6406 152 L184.9219 152 L184.9219 151.0938 L180.4219 151.0938 Z"
      /><rect x="163" y="149" width="6" style="fill:white; stroke:none;" height="13"
      /><path style="stroke:none;" d="M165.0938 155.2031 C165.0938 153.6562 165.75 152.8125 166.7969 152.8125 C167.7188 152.8125 168.2656 153.4531 168.2656 154.5156 C168.2656 155.7188 167.5 156.4375 166.1875 156.7031 L166.2969 157.3125 C168.2188 157.2344 168.9375 158.2188 168.9375 159.4375 C168.9375 160.625 168.2344 161.4219 166.9531 161.4219 C166.25 161.4219 165.6562 161.1562 165.0938 160.7188 L165.0938 155.2031 ZM164.2031 161.9062 L164.1094 164.375 L164.2656 164.4844 L165.1562 164.2656 L165.0156 161.0938 C165.5469 161.8438 166.3594 162.1719 167.1719 162.1719 C168.5625 162.1719 169.8594 161.2188 169.8594 159.4844 C169.8594 157.9531 168.875 157.1094 167.125 157 C168.5625 156.6094 169.1875 155.4531 169.1875 154.4844 C169.1875 153.0938 168.1562 152.3125 166.9062 152.3125 C165.2969 152.3125 164.2188 153.5469 164.2188 155.5156 L164.2031 161.9062 Z"
      /><rect x="171" y="125" width="7" style="fill:white; stroke:none;" height="9"
      /><path style="stroke:none;" d="M172 130.5156 L174.9531 126.2656 L174.9531 130.5156 L172 130.5156 ZM177.2812 130.5156 L175.8594 130.5156 L175.8594 125.125 L175.2344 125.125 L171.3438 130.6406 L171.3438 131.1875 L174.9531 131.1875 L174.9531 134 L175.8594 134 L175.8594 131.1875 L177.2812 131.1875 L177.2812 130.5156 Z"
      /><rect x="156" y="115" width="6" style="fill:white; stroke:none;" height="13"
      /><path style="stroke:none;" d="M158.0938 121.2031 C158.0938 119.6562 158.75 118.8125 159.7969 118.8125 C160.7188 118.8125 161.2656 119.4531 161.2656 120.5156 C161.2656 121.7188 160.5 122.4375 159.1875 122.7031 L159.2969 123.3125 C161.2188 123.2344 161.9375 124.2188 161.9375 125.4375 C161.9375 126.625 161.2344 127.4219 159.9531 127.4219 C159.25 127.4219 158.6562 127.1562 158.0938 126.7188 L158.0938 121.2031 ZM157.2031 127.9062 L157.1094 130.375 L157.2656 130.4844 L158.1562 130.2656 L158.0156 127.0938 C158.5469 127.8438 159.3594 128.1719 160.1719 128.1719 C161.5625 128.1719 162.8594 127.2188 162.8594 125.4844 C162.8594 123.9531 161.875 123.1094 160.125 123 C161.5625 122.6094 162.1875 121.4531 162.1875 120.4844 C162.1875 119.0938 161.1562 118.3125 159.9062 118.3125 C158.2969 118.3125 157.2188 119.5469 157.2188 121.5156 L157.2031 127.9062 Z"
      /><polygon style="fill:none;" points=" 197 54 145 54"
      /><circle style="fill:white; clip-path:url(#clipPath11); stroke:none;" r="11" cx="197" cy="54"
      /><rect x="186" y="43" width="22" style="clip-path:url(#clipPath11); fill:rgb(0,166,81); stroke:none;" height="22"
      /><rect x="186" y="43" width="22" style="fill:none; clip-path:url(#clipPath11);" height="22"
      /><circle r="11" style="fill:none;" cx="197" cy="54"
      /><polygon style="fill:none;" points=" 145 54 93 54"
      /><rect x="134" y="43" width="22" style="clip-path:url(#clipPath12); fill:white; stroke:none;" height="22"
      /><rect x="134" y="43" width="22" style="clip-path:url(#clipPath12); fill:rgb(0,144,188); stroke:none;" height="22"
      /><rect x="134" y="43" width="22" style="fill:none; clip-path:url(#clipPath12);" height="22"
      /><rect x="134" width="22" height="22" y="43" style="fill:none;"
      /><polygon style="fill:none;" points=" 93 54 41 54"
      /><circle style="fill:white; clip-path:url(#clipPath13); stroke:none;" r="11" cx="93" cy="54"
      /><rect x="82" y="43" width="22" style="clip-path:url(#clipPath13); fill:rgb(255,212,0); stroke:none;" height="22"
      /><rect x="82" y="43" width="22" style="fill:none; clip-path:url(#clipPath13);" height="22"
      /><circle r="11" style="fill:none;" cx="93" cy="54"
      /><polygon style="fill:white; clip-path:url(#clipPath14); stroke:none;" points=" 41 43 52 54 41 65 30 54"
      /><rect x="30" y="43" width="22" style="clip-path:url(#clipPath14); fill:rgb(143,204,233); stroke:none;" height="22"
      /><rect x="30" y="43" width="22" style="fill:none; clip-path:url(#clipPath14);" height="22"
      /><polygon style="fill:none;" points=" 41 43 52 54 41 65 30 54"
      /><rect x="71" y="57" width="6" style="fill:white; stroke:none;" height="10"
      /><path style="stroke:none;" d="M74.3438 66.6875 C73.2031 66.6875 72.5312 65.5 72.5312 63.2969 C72.5312 63.2188 72.5312 63.125 72.5312 63.0469 C73.0938 62.5 73.7188 62.3125 74.3438 62.3125 C75.3125 62.3125 75.9531 62.9844 75.9531 64.4531 C75.9531 65.9375 75.3125 66.6875 74.3438 66.6875 ZM76.5312 58.0781 C73.3438 58.4531 71.5625 60.7656 71.5625 63.4531 C71.5625 65.7812 72.6094 67.1719 74.3125 67.1719 C75.8438 67.1719 76.9219 66.1094 76.9219 64.2812 C76.9219 62.6875 75.9688 61.6562 74.5625 61.6562 C73.8281 61.6562 73.1406 61.9844 72.5781 62.5781 C72.7969 60.4062 74.0781 58.9688 76.5938 58.3906 L76.5312 58.0781 Z"
      /><rect x="56" y="58" width="8" style="fill:white; stroke:none;" height="8"
      /><path style="stroke:none;" d="M60.9844 63.7031 C60.9375 64.8906 60.1562 65.6562 59.3125 65.6562 C58.2656 65.6562 57.5 64.6875 57.5 62.7188 C57.5 61.2812 58.1562 60.1562 59.3438 60.1562 C60.1406 60.1562 60.7812 60.6875 61.0938 61.6406 L60.9844 63.7031 ZM62.9062 65.2812 C62.7344 65.375 62.5469 65.4219 62.3438 65.4219 C61.9531 65.4219 61.75 65.2188 61.75 64.4219 C61.75 63.4844 61.9688 61.5312 62.1875 59.8281 L62.0312 59.7188 L61.2344 59.9219 L61.1406 60.7969 C60.7812 60.0312 60.1562 59.6562 59.3906 59.6562 C58.0469 59.6562 56.5625 60.8438 56.5625 62.9531 C56.5625 65.0938 57.7188 66.1719 59.1406 66.1719 C60.0156 66.1719 60.6875 65.8125 61.0938 64.9844 C61.2031 65.8594 61.5156 66.1719 62.0156 66.1719 C62.4688 66.1719 62.7969 65.9062 63.0156 65.5625 L62.9062 65.2812 Z"
      /><rect x="122" y="57" width="7" style="fill:white; stroke:none;" height="9"
      /><path style="stroke:none;" d="M123 62.5156 L125.9531 58.2656 L125.9531 62.5156 L123 62.5156 ZM128.2812 62.5156 L126.8594 62.5156 L126.8594 57.125 L126.2344 57.125 L122.3438 62.6406 L122.3438 63.1875 L125.9531 63.1875 L125.9531 66 L126.8594 66 L126.8594 63.1875 L128.2812 63.1875 L128.2812 62.5156 Z"
      /><rect x="109" y="55" width="6" style="fill:white; stroke:none;" height="13"
      /><path style="stroke:none;" d="M111.0938 61.2031 C111.0938 59.6562 111.75 58.8125 112.7969 58.8125 C113.7188 58.8125 114.2656 59.4531 114.2656 60.5156 C114.2656 61.7188 113.5 62.4375 112.1875 62.7031 L112.2969 63.3125 C114.2188 63.2344 114.9375 64.2188 114.9375 65.4375 C114.9375 66.625 114.2344 67.4219 112.9531 67.4219 C112.25 67.4219 111.6562 67.1562 111.0938 66.7188 L111.0938 61.2031 ZM110.2031 67.9062 L110.1094 70.375 L110.2656 70.4844 L111.1562 70.2656 L111.0156 67.0938 C111.5469 67.8438 112.3594 68.1719 113.1719 68.1719 C114.5625 68.1719 115.8594 67.2188 115.8594 65.4844 C115.8594 63.9531 114.875 63.1094 113.125 63 C114.5625 62.6094 115.1875 61.4531 115.1875 60.4844 C115.1875 59.0938 114.1562 58.3125 112.9062 58.3125 C111.2969 58.3125 110.2188 59.5469 110.2188 61.5156 L110.2031 67.9062 Z"
      /><rect x="175" y="57" width="6" style="fill:white; stroke:none;" height="9"
      /><path style="stroke:none;" d="M176.4219 65.0938 C177.0781 64.375 177.7031 63.7188 178.0312 63.3438 C179.9219 61.3125 180.5312 60.4688 180.5312 59.3594 C180.5312 58.0156 179.7812 57.0781 178.1562 57.0781 C176.9062 57.0781 175.7969 57.7031 175.5938 58.9688 C175.7188 59.2031 175.9062 59.3438 176.1562 59.3438 C176.4688 59.3438 176.6562 59.1094 176.7969 58.5938 L177.0938 57.6719 C177.3906 57.5938 177.6562 57.5625 177.8906 57.5625 C178.9219 57.5625 179.5469 58.3125 179.5469 59.4219 C179.5469 60.4375 178.9844 61.4219 177.7031 62.9062 C177.125 63.5781 176.3906 64.4375 175.6406 65.2812 L175.6406 66 L180.9219 66 L180.9219 65.0938 L176.4219 65.0938 Z"
      /><rect x="161" y="55" width="6" style="fill:white; stroke:none;" height="13"
      /><path style="stroke:none;" d="M163.0938 61.2031 C163.0938 59.6562 163.75 58.8125 164.7969 58.8125 C165.7188 58.8125 166.2656 59.4531 166.2656 60.5156 C166.2656 61.7188 165.5 62.4375 164.1875 62.7031 L164.2969 63.3125 C166.2188 63.2344 166.9375 64.2188 166.9375 65.4375 C166.9375 66.625 166.2344 67.4219 164.9531 67.4219 C164.25 67.4219 163.6562 67.1562 163.0938 66.7188 L163.0938 61.2031 ZM162.2031 67.9062 L162.1094 70.375 L162.2656 70.4844 L163.1562 70.2656 L163.0156 67.0938 C163.5469 67.8438 164.3594 68.1719 165.1719 68.1719 C166.5625 68.1719 167.8594 67.2188 167.8594 65.4844 C167.8594 63.9531 166.875 63.1094 165.125 63 C166.5625 62.6094 167.1875 61.4531 167.1875 60.4844 C167.1875 59.0938 166.1562 58.3125 164.9062 58.3125 C163.2969 58.3125 162.2188 59.5469 162.2188 61.5156 L162.2031 67.9062 Z"
      /><rect x="233" y="107" width="6" style="fill:white; stroke:none;" height="10"
      /><path style="stroke:none;" d="M235.2344 108.6562 C235.5156 108.5938 235.7656 108.5625 236.0156 108.5625 C237.0625 108.5625 237.6719 109.1719 237.6719 110.2656 C237.6719 111.4375 236.9062 112.1094 235.7031 112.1094 L235.1875 112.1094 L235.1875 112.6406 L235.7969 112.6406 C237.2188 112.6406 237.9062 113.4219 237.9062 114.6406 C237.9062 115.8438 237.1719 116.6875 235.875 116.6875 C235.6094 116.6875 235.3125 116.6562 235.0156 116.5625 L234.7812 115.8125 C234.625 115.2812 234.5 115.0469 234.1406 115.0469 C233.8906 115.0469 233.7031 115.1719 233.5781 115.4219 C233.8438 116.6406 234.7812 117.1719 236.0312 117.1719 C237.7188 117.1719 238.875 116.125 238.875 114.7031 C238.875 113.5 238.2031 112.625 236.7969 112.375 C237.9531 112.0156 238.6094 111.2031 238.6094 110.2031 C238.6094 108.9219 237.6719 108.0781 236.1875 108.0781 C235.0469 108.0781 234.0625 108.5938 233.7969 109.6875 C233.9062 110 234.1094 110.1094 234.3594 110.1094 C234.7344 110.1094 234.8906 109.8906 235 109.4062 L235.2344 108.6562 Z"
      /><rect x="215" y="121" width="8" style="fill:white; stroke:none;" height="8"
      /><path style="stroke:none;" d="M219.9844 126.7031 C219.9375 127.8906 219.1562 128.6562 218.3125 128.6562 C217.2656 128.6562 216.5 127.6875 216.5 125.7188 C216.5 124.2812 217.1562 123.1562 218.3438 123.1562 C219.1406 123.1562 219.7812 123.6875 220.0938 124.6406 L219.9844 126.7031 ZM221.9062 128.2812 C221.7344 128.375 221.5469 128.4219 221.3438 128.4219 C220.9531 128.4219 220.75 128.2188 220.75 127.4219 C220.75 126.4844 220.9688 124.5312 221.1875 122.8281 L221.0312 122.7188 L220.2344 122.9219 L220.1406 123.7969 C219.7812 123.0312 219.1562 122.6562 218.3906 122.6562 C217.0469 122.6562 215.5625 123.8438 215.5625 125.9531 C215.5625 128.0938 216.7188 129.1719 218.1406 129.1719 C219.0156 129.1719 219.6875 128.8125 220.0938 127.9844 C220.2031 128.8594 220.5156 129.1719 221.0156 129.1719 C221.4688 129.1719 221.7969 128.9062 222.0156 128.5625 L221.9062 128.2812 Z"
      /><rect x="223" y="81" width="6" style="fill:white; stroke:none;" height="10"
      /><path style="stroke:none;" d="M226.3438 90.6875 C225.2031 90.6875 224.5312 89.5 224.5312 87.2969 C224.5312 87.2188 224.5312 87.125 224.5312 87.0469 C225.0938 86.5 225.7188 86.3125 226.3438 86.3125 C227.3125 86.3125 227.9531 86.9844 227.9531 88.4531 C227.9531 89.9375 227.3125 90.6875 226.3438 90.6875 ZM228.5312 82.0781 C225.3438 82.4531 223.5625 84.7656 223.5625 87.4531 C223.5625 89.7812 224.6094 91.1719 226.3125 91.1719 C227.8438 91.1719 228.9219 90.1094 228.9219 88.2812 C228.9219 86.6875 227.9688 85.6562 226.5625 85.6562 C225.8281 85.6562 225.1406 85.9844 224.5781 86.5781 C224.7969 84.4062 226.0781 82.9688 228.5938 82.3906 L228.5312 82.0781 Z"
      /><rect x="205" y="69" width="8" style="fill:white; stroke:none;" height="8"
      /><path style="stroke:none;" d="M209.9844 74.7031 C209.9375 75.8906 209.1562 76.6562 208.3125 76.6562 C207.2656 76.6562 206.5 75.6875 206.5 73.7188 C206.5 72.2812 207.1562 71.1562 208.3438 71.1562 C209.1406 71.1562 209.7812 71.6875 210.0938 72.6406 L209.9844 74.7031 ZM211.9062 76.2812 C211.7344 76.375 211.5469 76.4219 211.3438 76.4219 C210.9531 76.4219 210.75 76.2188 210.75 75.4219 C210.75 74.4844 210.9688 72.5312 211.1875 70.8281 L211.0312 70.7188 L210.2344 70.9219 L210.1406 71.7969 C209.7812 71.0312 209.1562 70.6562 208.3906 70.6562 C207.0469 70.6562 205.5625 71.8438 205.5625 73.9531 C205.5625 76.0938 206.7188 77.1719 208.1406 77.1719 C209.0156 77.1719 209.6875 76.8125 210.0938 75.9844 C210.2031 76.8594 210.5156 77.1719 211.0156 77.1719 C211.4688 77.1719 211.7969 76.9062 212.0156 76.5625 L211.9062 76.2812 Z"
      /><rect x="278" y="96" width="7" style="fill:white; stroke:none;" height="9"
      /><path style="stroke:none;" d="M279 101.5156 L281.9531 97.2656 L281.9531 101.5156 L279 101.5156 ZM284.2812 101.5156 L282.8594 101.5156 L282.8594 96.125 L282.2344 96.125 L278.3438 101.6406 L278.3438 102.1875 L281.9531 102.1875 L281.9531 105 L282.8594 105 L282.8594 102.1875 L284.2812 102.1875 L284.2812 101.5156 Z"
      /><rect x="265" y="94" width="6" style="fill:white; stroke:none;" height="13"
      /><path style="stroke:none;" d="M267.0938 100.2031 C267.0938 98.6562 267.75 97.8125 268.7969 97.8125 C269.7188 97.8125 270.2656 98.4531 270.2656 99.5156 C270.2656 100.7188 269.5 101.4375 268.1875 101.7031 L268.2969 102.3125 C270.2188 102.2344 270.9375 103.2188 270.9375 104.4375 C270.9375 105.625 270.2344 106.4219 268.9531 106.4219 C268.25 106.4219 267.6562 106.1562 267.0938 105.7188 L267.0938 100.2031 ZM266.2031 106.9062 L266.1094 109.375 L266.2656 109.4844 L267.1562 109.2656 L267.0156 106.0938 C267.5469 106.8438 268.3594 107.1719 269.1719 107.1719 C270.5625 107.1719 271.8594 106.2188 271.8594 104.4844 C271.8594 102.9531 270.875 102.1094 269.125 102 C270.5625 101.6094 271.1875 100.4531 271.1875 99.4844 C271.1875 98.0938 270.1562 97.3125 268.9062 97.3125 C267.2969 97.3125 266.2188 98.5469 266.2188 100.5156 L266.2031 106.9062 Z"
      /><polygon style="fill:white; clip-path:url(#clipPath15); stroke:none;" points=" 353 52 342 30 364 30"
      /><rect x="342" y="30" width="22" style="clip-path:url(#clipPath15); fill:rgb(237,28,36); stroke:none;" height="22"
      /><rect x="342" y="30" width="22" style="fill:none; clip-path:url(#clipPath15);" height="22"
      /><polygon style="fill:none;" points=" 353 52 342 30 364 30"
      /><rect x="330" y="96" width="7" style="fill:white; stroke:none;" height="9"
      /><path style="stroke:none;" d="M331 101.5156 L333.9531 97.2656 L333.9531 101.5156 L331 101.5156 ZM336.2812 101.5156 L334.8594 101.5156 L334.8594 96.125 L334.2344 96.125 L330.3438 101.6406 L330.3438 102.1875 L333.9531 102.1875 L333.9531 105 L334.8594 105 L334.8594 102.1875 L336.2812 102.1875 L336.2812 101.5156 Z"
      /><rect x="317" y="94" width="6" style="fill:white; stroke:none;" height="13"
      /><path style="stroke:none;" d="M319.0938 100.2031 C319.0938 98.6562 319.75 97.8125 320.7969 97.8125 C321.7188 97.8125 322.2656 98.4531 322.2656 99.5156 C322.2656 100.7188 321.5 101.4375 320.1875 101.7031 L320.2969 102.3125 C322.2188 102.2344 322.9375 103.2188 322.9375 104.4375 C322.9375 105.625 322.2344 106.4219 320.9531 106.4219 C320.25 106.4219 319.6562 106.1562 319.0938 105.7188 L319.0938 100.2031 ZM318.2031 106.9062 L318.1094 109.375 L318.2656 109.4844 L319.1562 109.2656 L319.0156 106.0938 C319.5469 106.8438 320.3594 107.1719 321.1719 107.1719 C322.5625 107.1719 323.8594 106.2188 323.8594 104.4844 C323.8594 102.9531 322.875 102.1094 321.125 102 C322.5625 101.6094 323.1875 100.4531 323.1875 99.4844 C323.1875 98.0938 322.1562 97.3125 320.9062 97.3125 C319.2969 97.3125 318.2188 98.5469 318.2188 100.5156 L318.2031 106.9062 Z"
      /><rect x="342" y="69" width="6" style="fill:white; stroke:none;" height="10"
      /><path style="stroke:none;" d="M345.3438 78.6875 C344.2031 78.6875 343.5312 77.5 343.5312 75.2969 C343.5312 75.2188 343.5312 75.125 343.5312 75.0469 C344.0938 74.5 344.7188 74.3125 345.3438 74.3125 C346.3125 74.3125 346.9531 74.9844 346.9531 76.4531 C346.9531 77.9375 346.3125 78.6875 345.3438 78.6875 ZM347.5312 70.0781 C344.3438 70.4531 342.5625 72.7656 342.5625 75.4531 C342.5625 77.7812 343.6094 79.1719 345.3125 79.1719 C346.8438 79.1719 347.9219 78.1094 347.9219 76.2812 C347.9219 74.6875 346.9688 73.6562 345.5625 73.6562 C344.8281 73.6562 344.1406 73.9844 343.5781 74.5781 C343.7969 72.4062 345.0781 70.9688 347.5938 70.3906 L347.5312 70.0781 Z"
      /><rect x="341" y="56" width="8" style="fill:white; stroke:none;" height="8"
      /><path style="stroke:none;" d="M345.9844 61.7031 C345.9375 62.8906 345.1562 63.6562 344.3125 63.6562 C343.2656 63.6562 342.5 62.6875 342.5 60.7188 C342.5 59.2812 343.1562 58.1562 344.3438 58.1562 C345.1406 58.1562 345.7812 58.6875 346.0938 59.6406 L345.9844 61.7031 ZM347.9062 63.2812 C347.7344 63.375 347.5469 63.4219 347.3438 63.4219 C346.9531 63.4219 346.75 63.2188 346.75 62.4219 C346.75 61.4844 346.9688 59.5312 347.1875 57.8281 L347.0312 57.7188 L346.2344 57.9219 L346.1406 58.7969 C345.7812 58.0312 345.1562 57.6562 344.3906 57.6562 C343.0469 57.6562 341.5625 58.8438 341.5625 60.9531 C341.5625 63.0938 342.7188 64.1719 344.1406 64.1719 C345.0156 64.1719 345.6875 63.8125 346.0938 62.9844 C346.2031 63.8594 346.5156 64.1719 347.0156 64.1719 C347.4688 64.1719 347.7969 63.9062 348.0156 63.5625 L347.9062 63.2812 Z"
      /><rect x="369" y="96" width="5" style="fill:white; stroke:none;" height="10"
      /><path style="stroke:none;" d="M370.8906 104.6875 C370.4844 104.6875 370.1562 105.0469 370.1562 105.4219 C370.1562 105.8125 370.4844 106.1562 370.8906 106.1562 C371.2969 106.1562 371.6406 105.8125 371.6406 105.4219 C371.6406 105.0469 371.2969 104.6875 370.8906 104.6875 ZM372.4688 98.5781 C372.7188 98.8906 372.875 99.2656 372.8906 99.6562 C372.8906 100.1875 372.625 100.5 372.0312 100.7656 L371.4062 101.0156 C370.6406 101.3125 370.3906 101.5469 370.3906 101.9375 C370.3906 102.1094 370.4531 102.3438 370.5781 102.8125 L370.7344 103.3438 L371.1094 103.3438 L371.0938 102.5312 C371.0938 102.0938 371.2031 101.9688 371.7812 101.7344 L372.2031 101.5625 C373.0312 101.2188 373.4531 100.6875 373.4531 99.8438 C373.4531 98.1562 371.6562 97.1875 370.5 97.0312 C370.1094 97.125 369.9062 97.2969 369.9062 97.6406 C369.9062 97.9375 370.0625 98.1562 370.7188 98.2656 L372.4688 98.5781 Z"
    /></g
  ></g
></svg
>
