<?xml version="1.0"?>
<!DOCTYPE svg PUBLIC '-//W3C//DTD SVG 1.0//EN'
          'http://www.w3.org/TR/2001/REC-SVG-20010904/DTD/svg10.dtd'>
<svg xmlns:xlink="http://www.w3.org/1999/xlink" style="fill-opacity:1; color-rendering:auto; color-interpolation:auto; text-rendering:auto; stroke:black; stroke-linecap:square; stroke-miterlimit:10; shape-rendering:auto; stroke-opacity:1; fill:black; stroke-dasharray:none; font-weight:normal; stroke-width:1; font-family:'Dialog'; font-style:normal; stroke-linejoin:miter; font-size:12px; stroke-dashoffset:0; image-rendering:auto;" viewBox="0 0 498 394" xmlns="http://www.w3.org/2000/svg"
><!--Generated by the Batik Graphics2D SVG Generator--><defs id="genericDefs"
  /><g
  ><defs id="defs1"
    ><clipPath clipPathUnits="userSpaceOnUse" id="clipPath1"
      ><path d="M394 186 L416 186 L416 208 L394 208 L394 186 Z"
      /></clipPath
      ><clipPath clipPathUnits="userSpaceOnUse" id="clipPath2"
      ><path d="M342 186 L364 186 L364 208 L342 208 L342 186 Z"
      /></clipPath
      ><clipPath clipPathUnits="userSpaceOnUse" id="clipPath3"
      ><path d="M312 197 C312 203.0751 307.0751 208 301 208 C294.9249 208 290 203.0751 290 197 C290 190.9249 294.9249 186 301 186 C307.0751 186 312 190.9249 312 197 Z"
      /></clipPath
      ><clipPath clipPathUnits="userSpaceOnUse" id="clipPath4"
      ><path d="M260 249 C260 255.0751 255.0751 260 249 260 C242.9249 260 238 255.0751 238 249 C238 242.9249 242.9249 238 249 238 C255.0751 238 260 242.9249 260 249 Z"
      /></clipPath
      ><clipPath clipPathUnits="userSpaceOnUse" id="clipPath5"
      ><path d="M186 290 L208 290 L208 312 L186 312 L186 290 Z"
      /></clipPath
      ><clipPath clipPathUnits="userSpaceOnUse" id="clipPath6"
      ><path style="fill-rule:evenodd;" d="M197 342 L208 364 L186 364 Z"
      /></clipPath
      ><clipPath clipPathUnits="userSpaceOnUse" id="clipPath7"
      ><path d="M156 301 C156 307.0751 151.0751 312 145 312 C138.9249 312 134 307.0751 134 301 C134 294.9249 138.9249 290 145 290 C151.0751 290 156 294.9249 156 301 Z"
      /></clipPath
      ><clipPath clipPathUnits="userSpaceOnUse" id="clipPath8"
      ><path style="fill-rule:evenodd;" d="M93 290 L104 301 L93 312 L82 301 Z"
      /></clipPath
      ><clipPath clipPathUnits="userSpaceOnUse" id="clipPath9"
      ><path style="fill-rule:evenodd;" d="M41 290 L52 301 L41 312 L30 301 Z"
      /></clipPath
      ><clipPath clipPathUnits="userSpaceOnUse" id="clipPath10"
      ><path d="M186 186 L208 186 L208 208 L186 208 L186 186 Z"
      /></clipPath
      ><clipPath clipPathUnits="userSpaceOnUse" id="clipPath11"
      ><path style="fill-rule:evenodd;" d="M197 238 L208 260 L186 260 Z"
      /></clipPath
      ><clipPath clipPathUnits="userSpaceOnUse" id="clipPath12"
      ><path d="M238 186 L260 186 L260 208 L238 208 L238 186 Z"
      /></clipPath
      ><clipPath clipPathUnits="userSpaceOnUse" id="clipPath13"
      ><path d="M260 93 C260 99.0751 255.0751 104 249 104 C242.9249 104 238 99.0751 238 93 C238 86.9249 242.9249 82 249 82 C255.0751 82 260 86.9249 260 93 Z"
      /></clipPath
      ><clipPath clipPathUnits="userSpaceOnUse" id="clipPath14"
      ><path d="M186 134 L208 134 L208 156 L186 156 L186 134 Z"
      /></clipPath
      ><clipPath clipPathUnits="userSpaceOnUse" id="clipPath15"
      ><path d="M186 30 L208 30 L208 52 L186 52 L186 30 Z"
      /></clipPath
      ><clipPath clipPathUnits="userSpaceOnUse" id="clipPath16"
      ><path style="fill-rule:evenodd;" d="M197 82 L208 104 L186 104 Z"
      /></clipPath
    ></defs
    ><g style="fill:white; text-rendering:optimizeSpeed; stroke:white;"
    ><rect x="0" width="498" height="394" y="0" style="stroke:none;"
      /><polygon style="fill:none; stroke:black;" points=" 457 197 405 197"
      /><path d="M457 186 C451.5 191.5 462.5 202.5 457 208" style="fill:none; stroke:black;"
      /><polygon style="fill:none; stroke:black;" points=" 405 197 353 197"
      /><rect x="394" y="186" width="22" style="clip-path:url(#clipPath1); stroke:none;" height="22"
      /><rect x="394" y="186" width="22" style="clip-path:url(#clipPath1); fill:rgb(0,144,188); stroke:none;" height="22"
      /><rect x="394" y="186" width="22" style="clip-path:url(#clipPath1); fill:none; stroke:black;" height="22"
      /><rect x="394" y="186" width="22" style="fill:none; stroke:black;" height="22"
      /><polygon style="fill:none; stroke:black;" points=" 353 197 301 197"
      /><rect x="342" y="186" width="22" style="clip-path:url(#clipPath2); stroke:none;" height="22"
      /><rect x="342" y="186" width="22" style="clip-path:url(#clipPath2); fill:rgb(0,144,188); stroke:none;" height="22"
      /><rect x="342" y="186" width="22" style="clip-path:url(#clipPath2); fill:none; stroke:black;" height="22"
      /><rect x="342" y="186" width="22" style="fill:none; stroke:black;" height="22"
      /><polygon style="fill:none; stroke:black;" points=" 301 197 249 249"
      /><polygon style="fill:none; stroke:black;" points=" 301 197 249 197"
      /><polygon style="fill:none; stroke:black;" points=" 301 197 249 93"
      /><circle style="clip-path:url(#clipPath3); stroke:none;" r="11" cx="301" cy="197"
      /><rect x="290" y="186" width="22" style="clip-path:url(#clipPath3); fill:rgb(0,166,81); stroke:none;" height="22"
      /><rect x="290" y="186" width="22" style="clip-path:url(#clipPath3); fill:none; stroke:black;" height="22"
      /><circle style="fill:none; stroke:black;" r="11" cx="301" cy="197"
      /><polygon style="fill:none; stroke:black;" points=" 249 249 197 301"
      /><polygon style="fill:none; stroke:black;" points=" 249 249 197 197"
      /><circle style="clip-path:url(#clipPath4); stroke:none;" r="11" cx="249" cy="249"
      /><rect x="238" y="238" width="22" style="clip-path:url(#clipPath4); fill:rgb(0,166,81); stroke:none;" height="22"
      /><rect x="238" y="238" width="22" style="clip-path:url(#clipPath4); fill:none; stroke:black;" height="22"
      /><circle style="fill:none; stroke:black;" r="11" cx="249" cy="249"
      /><polygon style="fill:none; stroke:black;" points=" 197 301 197 353"
      /><polygon style="fill:none; stroke:black;" points=" 197 301 145 301"
      /><rect x="186" y="290" width="22" style="clip-path:url(#clipPath5); stroke:none;" height="22"
      /><rect x="186" y="290" width="22" style="clip-path:url(#clipPath5); fill:rgb(0,144,188); stroke:none;" height="22"
      /><rect x="186" y="290" width="22" style="clip-path:url(#clipPath5); fill:none; stroke:black;" height="22"
      /><rect x="186" y="290" width="22" style="fill:none; stroke:black;" height="22"
      /><polygon style="clip-path:url(#clipPath6); stroke:none;" points=" 197 342 208 364 186 364"
      /><rect x="186" y="342" width="22" style="clip-path:url(#clipPath6); fill:rgb(237,28,36); stroke:none;" height="22"
      /><rect x="186" y="342" width="22" style="clip-path:url(#clipPath6); fill:none; stroke:black;" height="22"
      /><polygon style="fill:none; stroke:black;" points=" 197 342 208 364 186 364"
      /><polygon style="fill:none; stroke:black;" points=" 145 301 93 301"
      /><circle style="clip-path:url(#clipPath7); stroke:none;" r="11" cx="145" cy="301"
      /><rect x="134" y="290" width="22" style="clip-path:url(#clipPath7); fill:rgb(255,212,0); stroke:none;" height="22"
      /><rect x="134" y="290" width="22" style="clip-path:url(#clipPath7); fill:none; stroke:black;" height="22"
      /><circle style="fill:none; stroke:black;" r="11" cx="145" cy="301"
      /><polygon style="fill:none; stroke:black;" points=" 93 301 41 301"
      /><polygon style="clip-path:url(#clipPath8); stroke:none;" points=" 93 290 104 301 93 312 82 301"
      /><rect x="82" y="290" width="22" style="clip-path:url(#clipPath8); fill:rgb(143,204,233); stroke:none;" height="22"
      /><rect x="82" y="290" width="22" style="clip-path:url(#clipPath8); fill:none; stroke:black;" height="22"
      /><polygon style="fill:none; stroke:black;" points=" 93 290 104 301 93 312 82 301"
      /><polygon style="clip-path:url(#clipPath9); stroke:none;" points=" 41 290 52 301 41 312 30 301"
      /><rect x="30" y="290" width="22" style="clip-path:url(#clipPath9); fill:rgb(143,204,233); stroke:none;" height="22"
      /><rect x="30" y="290" width="22" style="clip-path:url(#clipPath9); fill:none; stroke:black;" height="22"
      /><polygon style="fill:none; stroke:black;" points=" 41 290 52 301 41 312 30 301"
      /><rect x="71" y="304" width="6" style="stroke:none;" height="10"
    /></g
    ><g style="font-family:'Serif'; text-rendering:optimizeSpeed; "
    ><path style="stroke:none;" d="M74.2656 313.7031 C73.2031 313.7031 72.5 312.9688 72.5 311.9062 C72.5 310.9688 72.9375 310.4219 73.9062 309.8438 C75.4688 310.5625 75.9531 311.1719 75.9531 312.0156 C75.9531 313 75.2969 313.7031 74.2656 313.7031 ZM72.75 307.0469 C72.75 306.1094 73.4531 305.5625 74.2344 305.5625 C75.1562 305.5625 75.6562 306.2656 75.6562 307.0938 C75.6562 307.9688 75.3281 308.5469 74.4688 309.1562 C73.0938 308.5156 72.75 307.7969 72.75 307.0469 ZM74.8594 309.3438 C76.0938 308.6562 76.4531 307.8125 76.4531 307.0938 C76.4531 305.9219 75.6094 305.0781 74.2656 305.0781 C72.9375 305.0781 71.8906 305.9062 71.8906 307.2031 C71.8906 308.2031 72.375 309.0469 73.5156 309.6562 C72.2656 310.2812 71.5938 311 71.5938 312.0156 C71.5938 313.3906 72.6562 314.1719 74.2344 314.1719 C75.75 314.1719 76.875 313.25 76.875 311.8906 C76.875 310.7344 76.2656 310 74.8594 309.3438 Z"
      /><rect x="56" y="305" width="8" style="fill:white; stroke:none;" height="8"
      /><path style="stroke:none;" d="M60.9844 310.7031 C60.9375 311.8906 60.1562 312.6562 59.3125 312.6562 C58.2656 312.6562 57.5 311.6875 57.5 309.7188 C57.5 308.2812 58.1562 307.1562 59.3438 307.1562 C60.1406 307.1562 60.7812 307.6875 61.0938 308.6406 L60.9844 310.7031 ZM62.9062 312.2812 C62.7344 312.375 62.5469 312.4219 62.3438 312.4219 C61.9531 312.4219 61.75 312.2188 61.75 311.4219 C61.75 310.4844 61.9688 308.5312 62.1875 306.8281 L62.0312 306.7188 L61.2344 306.9219 L61.1406 307.7969 C60.7812 307.0312 60.1562 306.6562 59.3906 306.6562 C58.0469 306.6562 56.5625 307.8438 56.5625 309.9531 C56.5625 312.0938 57.7188 313.1719 59.1406 313.1719 C60.0156 313.1719 60.6875 312.8125 61.0938 311.9844 C61.2031 312.8594 61.5156 313.1719 62.0156 313.1719 C62.4688 313.1719 62.7969 312.9062 63.0156 312.5625 L62.9062 312.2812 Z"
      /><rect x="118" y="302" width="16" style="fill:white; stroke:none;" height="13"
      /><path style="stroke:none;" d="M120.2344 306.6562 C120.5156 306.5938 120.7656 306.5625 121.0156 306.5625 C122.0625 306.5625 122.6719 307.1719 122.6719 308.2656 C122.6719 309.4375 121.9062 310.1094 120.7031 310.1094 L120.1875 310.1094 L120.1875 310.6406 L120.7969 310.6406 C122.2188 310.6406 122.9062 311.4219 122.9062 312.6406 C122.9062 313.8438 122.1719 314.6875 120.875 314.6875 C120.6094 314.6875 120.3125 314.6562 120.0156 314.5625 L119.7812 313.8125 C119.625 313.2812 119.5 313.0469 119.1406 313.0469 C118.8906 313.0469 118.7031 313.1719 118.5781 313.4219 C118.8438 314.6406 119.7812 315.1719 121.0312 315.1719 C122.7188 315.1719 123.875 314.125 123.875 312.7031 C123.875 311.5 123.2031 310.625 121.7969 310.375 C122.9531 310.0156 123.6094 309.2031 123.6094 308.2031 C123.6094 306.9219 122.6719 306.0781 121.1875 306.0781 C120.0469 306.0781 119.0625 306.5938 118.7969 307.6875 C118.9062 308 119.1094 308.1094 119.3594 308.1094 C119.7344 308.1094 119.8906 307.8906 120 307.4062 L120.2344 306.6562 ZM124.4993 317.0938 L125.1087 317.0938 L128.6087 305.7344 L127.9837 305.7344 L124.4993 317.0938 ZM131.9878 314.6875 C130.8472 314.6875 130.1753 313.5 130.1753 311.2969 C130.1753 311.2188 130.1753 311.125 130.1753 311.0469 C130.7378 310.5 131.3628 310.3125 131.9878 310.3125 C132.9566 310.3125 133.5972 310.9844 133.5972 312.4531 C133.5972 313.9375 132.9566 314.6875 131.9878 314.6875 ZM134.1753 306.0781 C130.9878 306.4531 129.2066 308.7656 129.2066 311.4531 C129.2066 313.7812 130.2534 315.1719 131.9566 315.1719 C133.4878 315.1719 134.5659 314.1094 134.5659 312.2812 C134.5659 310.6875 133.6128 309.6562 132.2066 309.6562 C131.4722 309.6562 130.7847 309.9844 130.2222 310.5781 C130.4409 308.4062 131.7222 306.9688 134.2378 306.3906 L134.1753 306.0781 Z"
      /><rect x="108" y="305" width="8" style="fill:white; stroke:none;" height="8"
      /><path style="stroke:none;" d="M112.9844 310.7031 C112.9375 311.8906 112.1562 312.6562 111.3125 312.6562 C110.2656 312.6562 109.5 311.6875 109.5 309.7188 C109.5 308.2812 110.1562 307.1562 111.3438 307.1562 C112.1406 307.1562 112.7812 307.6875 113.0938 308.6406 L112.9844 310.7031 ZM114.9062 312.2812 C114.7344 312.375 114.5469 312.4219 114.3438 312.4219 C113.9531 312.4219 113.75 312.2188 113.75 311.4219 C113.75 310.4844 113.9688 308.5312 114.1875 306.8281 L114.0312 306.7188 L113.2344 306.9219 L113.1406 307.7969 C112.7812 307.0312 112.1562 306.6562 111.3906 306.6562 C110.0469 306.6562 108.5625 307.8438 108.5625 309.9531 C108.5625 312.0938 109.7188 313.1719 111.1406 313.1719 C112.0156 313.1719 112.6875 312.8125 113.0938 311.9844 C113.2031 312.8594 113.5156 313.1719 114.0156 313.1719 C114.4688 313.1719 114.7969 312.9062 115.0156 312.5625 L114.9062 312.2812 Z"
      /><rect x="202" y="315" width="6" style="fill:white; stroke:none;" height="10"
      /><path style="stroke:none;" d="M204.2344 316.6562 C204.5156 316.5938 204.7656 316.5625 205.0156 316.5625 C206.0625 316.5625 206.6719 317.1719 206.6719 318.2656 C206.6719 319.4375 205.9062 320.1094 204.7031 320.1094 L204.1875 320.1094 L204.1875 320.6406 L204.7969 320.6406 C206.2188 320.6406 206.9062 321.4219 206.9062 322.6406 C206.9062 323.8438 206.1719 324.6875 204.875 324.6875 C204.6094 324.6875 204.3125 324.6562 204.0156 324.5625 L203.7812 323.8125 C203.625 323.2812 203.5 323.0469 203.1406 323.0469 C202.8906 323.0469 202.7031 323.1719 202.5781 323.4219 C202.8438 324.6406 203.7812 325.1719 205.0312 325.1719 C206.7188 325.1719 207.875 324.125 207.875 322.7031 C207.875 321.5 207.2031 320.625 205.7969 320.375 C206.9531 320.0156 207.6094 319.2031 207.6094 318.2031 C207.6094 316.9219 206.6719 316.0781 205.1875 316.0781 C204.0469 316.0781 203.0625 316.5938 202.7969 317.6875 C202.9062 318 203.1094 318.1094 203.3594 318.1094 C203.7344 318.1094 203.8906 317.8906 204 317.4062 L204.2344 316.6562 Z"
      /><rect x="201" y="330" width="8" style="fill:white; stroke:none;" height="8"
      /><path style="stroke:none;" d="M205.9844 335.7031 C205.9375 336.8906 205.1562 337.6562 204.3125 337.6562 C203.2656 337.6562 202.5 336.6875 202.5 334.7188 C202.5 333.2812 203.1562 332.1562 204.3438 332.1562 C205.1406 332.1562 205.7812 332.6875 206.0938 333.6406 L205.9844 335.7031 ZM207.9062 337.2812 C207.7344 337.375 207.5469 337.4219 207.3438 337.4219 C206.9531 337.4219 206.75 337.2188 206.75 336.4219 C206.75 335.4844 206.9688 333.5312 207.1875 331.8281 L207.0312 331.7188 L206.2344 331.9219 L206.1406 332.7969 C205.7812 332.0312 205.1562 331.6562 204.3906 331.6562 C203.0469 331.6562 201.5625 332.8438 201.5625 334.9531 C201.5625 337.0938 202.7188 338.1719 204.1406 338.1719 C205.0156 338.1719 205.6875 337.8125 206.0938 336.9844 C206.2031 337.8594 206.5156 338.1719 207.0156 338.1719 C207.4688 338.1719 207.7969 337.9062 208.0156 337.5625 L207.9062 337.2812 Z"
      /><rect x="174" y="304" width="7" style="fill:white; stroke:none;" height="9"
      /><path style="stroke:none;" d="M175 309.5156 L177.9531 305.2656 L177.9531 309.5156 L175 309.5156 ZM180.2812 309.5156 L178.8594 309.5156 L178.8594 304.125 L178.2344 304.125 L174.3438 309.6406 L174.3438 310.1875 L177.9531 310.1875 L177.9531 313 L178.8594 313 L178.8594 310.1875 L180.2812 310.1875 L180.2812 309.5156 Z"
      /><rect x="161" y="302" width="6" style="fill:white; stroke:none;" height="13"
      /><path style="stroke:none;" d="M163.0938 308.2031 C163.0938 306.6562 163.75 305.8125 164.7969 305.8125 C165.7188 305.8125 166.2656 306.4531 166.2656 307.5156 C166.2656 308.7188 165.5 309.4375 164.1875 309.7031 L164.2969 310.3125 C166.2188 310.2344 166.9375 311.2188 166.9375 312.4375 C166.9375 313.625 166.2344 314.4219 164.9531 314.4219 C164.25 314.4219 163.6562 314.1562 163.0938 313.7188 L163.0938 308.2031 ZM162.2031 314.9062 L162.1094 317.375 L162.2656 317.4844 L163.1562 317.2656 L163.0156 314.0938 C163.5469 314.8438 164.3594 315.1719 165.1719 315.1719 C166.5625 315.1719 167.8594 314.2188 167.8594 312.4844 C167.8594 310.9531 166.875 310.1094 165.125 310 C166.5625 309.6094 167.1875 308.4531 167.1875 307.4844 C167.1875 306.0938 166.1562 305.3125 164.9062 305.3125 C163.2969 305.3125 162.2188 306.5469 162.2188 308.5156 L162.2031 314.9062 Z"
      /><polygon style="fill:none;" points=" 197 197 197 249"
      /><rect x="186" y="186" width="22" style="clip-path:url(#clipPath10); fill:white; stroke:none;" height="22"
      /><rect x="186" y="186" width="22" style="clip-path:url(#clipPath10); fill:rgb(0,144,188); stroke:none;" height="22"
      /><rect x="186" y="186" width="22" style="fill:none; clip-path:url(#clipPath10);" height="22"
      /><rect x="186" width="22" height="22" y="186" style="fill:none;"
      /><polygon style="fill:white; clip-path:url(#clipPath11); stroke:none;" points=" 197 238 208 260 186 260"
      /><rect x="186" y="238" width="22" style="clip-path:url(#clipPath11); fill:rgb(237,28,36); stroke:none;" height="22"
      /><rect x="186" y="238" width="22" style="fill:none; clip-path:url(#clipPath11);" height="22"
      /><polygon style="fill:none;" points=" 197 238 208 260 186 260"
      /><rect x="202" y="211" width="6" style="fill:white; stroke:none;" height="10"
      /><path style="stroke:none;" d="M204.2344 212.6562 C204.5156 212.5938 204.7656 212.5625 205.0156 212.5625 C206.0625 212.5625 206.6719 213.1719 206.6719 214.2656 C206.6719 215.4375 205.9062 216.1094 204.7031 216.1094 L204.1875 216.1094 L204.1875 216.6406 L204.7969 216.6406 C206.2188 216.6406 206.9062 217.4219 206.9062 218.6406 C206.9062 219.8438 206.1719 220.6875 204.875 220.6875 C204.6094 220.6875 204.3125 220.6562 204.0156 220.5625 L203.7812 219.8125 C203.625 219.2812 203.5 219.0469 203.1406 219.0469 C202.8906 219.0469 202.7031 219.1719 202.5781 219.4219 C202.8438 220.6406 203.7812 221.1719 205.0312 221.1719 C206.7188 221.1719 207.875 220.125 207.875 218.7031 C207.875 217.5 207.2031 216.625 205.7969 216.375 C206.9531 216.0156 207.6094 215.2031 207.6094 214.2031 C207.6094 212.9219 206.6719 212.0781 205.1875 212.0781 C204.0469 212.0781 203.0625 212.5938 202.7969 213.6875 C202.9062 214 203.1094 214.1094 203.3594 214.1094 C203.7344 214.1094 203.8906 213.8906 204 213.4062 L204.2344 212.6562 Z"
      /><rect x="201" y="226" width="8" style="fill:white; stroke:none;" height="8"
      /><path style="stroke:none;" d="M205.9844 231.7031 C205.9375 232.8906 205.1562 233.6562 204.3125 233.6562 C203.2656 233.6562 202.5 232.6875 202.5 230.7188 C202.5 229.2812 203.1562 228.1562 204.3438 228.1562 C205.1406 228.1562 205.7812 228.6875 206.0938 229.6406 L205.9844 231.7031 ZM207.9062 233.2812 C207.7344 233.375 207.5469 233.4219 207.3438 233.4219 C206.9531 233.4219 206.75 233.2188 206.75 232.4219 C206.75 231.4844 206.9688 229.5312 207.1875 227.8281 L207.0312 227.7188 L206.2344 227.9219 L206.1406 228.7969 C205.7812 228.0312 205.1562 227.6562 204.3906 227.6562 C203.0469 227.6562 201.5625 228.8438 201.5625 230.9531 C201.5625 233.0938 202.7188 234.1719 204.1406 234.1719 C205.0156 234.1719 205.6875 233.8125 206.0938 232.9844 C206.2031 233.8594 206.5156 234.1719 207.0156 234.1719 C207.4688 234.1719 207.7969 233.9062 208.0156 233.5625 L207.9062 233.2812 Z"
      /><rect x="235" y="266" width="6" style="fill:white; stroke:none;" height="9"
      /><path style="stroke:none;" d="M236.4219 274.0938 C237.0781 273.375 237.7031 272.7188 238.0312 272.3438 C239.9219 270.3125 240.5312 269.4688 240.5312 268.3594 C240.5312 267.0156 239.7812 266.0781 238.1562 266.0781 C236.9062 266.0781 235.7969 266.7031 235.5938 267.9688 C235.7188 268.2031 235.9062 268.3438 236.1562 268.3438 C236.4688 268.3438 236.6562 268.1094 236.7969 267.5938 L237.0938 266.6719 C237.3906 266.5938 237.6562 266.5625 237.8906 266.5625 C238.9219 266.5625 239.5469 267.3125 239.5469 268.4219 C239.5469 269.4375 238.9844 270.4219 237.7031 271.9062 C237.125 272.5781 236.3906 273.4375 235.6406 274.2812 L235.6406 275 L240.9219 275 L240.9219 274.0938 L236.4219 274.0938 Z"
      /><rect x="216" y="283" width="6" style="fill:white; stroke:none;" height="13"
      /><path style="stroke:none;" d="M218.0938 289.2031 C218.0938 287.6562 218.75 286.8125 219.7969 286.8125 C220.7188 286.8125 221.2656 287.4531 221.2656 288.5156 C221.2656 289.7188 220.5 290.4375 219.1875 290.7031 L219.2969 291.3125 C221.2188 291.2344 221.9375 292.2188 221.9375 293.4375 C221.9375 294.625 221.2344 295.4219 219.9531 295.4219 C219.25 295.4219 218.6562 295.1562 218.0938 294.7188 L218.0938 289.2031 ZM217.2031 295.9062 L217.1094 298.375 L217.2656 298.4844 L218.1562 298.2656 L218.0156 295.0938 C218.5469 295.8438 219.3594 296.1719 220.1719 296.1719 C221.5625 296.1719 222.8594 295.2188 222.8594 293.4844 C222.8594 291.9531 221.875 291.1094 220.125 291 C221.5625 290.6094 222.1875 289.4531 222.1875 288.4844 C222.1875 287.0938 221.1562 286.3125 219.9062 286.3125 C218.2969 286.3125 217.2188 287.5469 217.2188 289.5156 L217.2031 295.9062 Z"
      /><rect x="223" y="233" width="7" style="fill:white; stroke:none;" height="9"
      /><path style="stroke:none;" d="M224 238.5156 L226.9531 234.2656 L226.9531 238.5156 L224 238.5156 ZM229.2812 238.5156 L227.8594 238.5156 L227.8594 233.125 L227.2344 233.125 L223.3438 238.6406 L223.3438 239.1875 L226.9531 239.1875 L226.9531 242 L227.8594 242 L227.8594 239.1875 L229.2812 239.1875 L229.2812 238.5156 Z"
      /><rect x="205" y="212" width="6" style="fill:white; stroke:none;" height="13"
      /><path style="stroke:none;" d="M207.0938 218.2031 C207.0938 216.6562 207.75 215.8125 208.7969 215.8125 C209.7188 215.8125 210.2656 216.4531 210.2656 217.5156 C210.2656 218.7188 209.5 219.4375 208.1875 219.7031 L208.2969 220.3125 C210.2188 220.2344 210.9375 221.2188 210.9375 222.4375 C210.9375 223.625 210.2344 224.4219 208.9531 224.4219 C208.25 224.4219 207.6562 224.1562 207.0938 223.7188 L207.0938 218.2031 ZM206.2031 224.9062 L206.1094 227.375 L206.2656 227.4844 L207.1562 227.2656 L207.0156 224.0938 C207.5469 224.8438 208.3594 225.1719 209.1719 225.1719 C210.5625 225.1719 211.8594 224.2188 211.8594 222.4844 C211.8594 220.9531 210.875 220.1094 209.125 220 C210.5625 219.6094 211.1875 218.4531 211.1875 217.4844 C211.1875 216.0938 210.1562 215.3125 208.9062 215.3125 C207.2969 215.3125 206.2188 216.5469 206.2188 218.5156 L206.2031 224.9062 Z"
      /><rect x="238" y="186" width="22" style="clip-path:url(#clipPath12); fill:white; stroke:none;" height="22"
      /><rect x="238" y="186" width="22" style="clip-path:url(#clipPath12); fill:rgb(0,144,188); stroke:none;" height="22"
      /><rect x="238" y="186" width="22" style="fill:none; clip-path:url(#clipPath12);" height="22"
      /><rect x="238" width="22" height="22" y="186" style="fill:none;"
      /><polygon style="fill:none;" points=" 249 93 197 145"
      /><polygon style="fill:none;" points=" 249 93 197 41"
      /><circle style="fill:white; clip-path:url(#clipPath13); stroke:none;" r="11" cx="249" cy="93"
      /><rect x="238" y="82" width="22" style="clip-path:url(#clipPath13); fill:rgb(0,166,81); stroke:none;" height="22"
      /><rect x="238" y="82" width="22" style="fill:none; clip-path:url(#clipPath13);" height="22"
      /><circle r="11" style="fill:none;" cx="249" cy="93"
      /><rect x="186" y="134" width="22" style="clip-path:url(#clipPath14); fill:white; stroke:none;" height="22"
      /><rect x="186" y="134" width="22" style="clip-path:url(#clipPath14); fill:rgb(0,144,188); stroke:none;" height="22"
      /><rect x="186" y="134" width="22" style="fill:none; clip-path:url(#clipPath14);" height="22"
      /><rect x="186" width="22" height="22" y="134" style="fill:none;"
      /><polygon style="fill:none;" points=" 197 41 197 93"
      /><rect x="186" y="30" width="22" style="clip-path:url(#clipPath15); fill:white; stroke:none;" height="22"
      /><rect x="186" y="30" width="22" style="clip-path:url(#clipPath15); fill:rgb(0,144,188); stroke:none;" height="22"
      /><rect x="186" y="30" width="22" style="fill:none; clip-path:url(#clipPath15);" height="22"
      /><rect x="186" width="22" height="22" y="30" style="fill:none;"
      /><polygon style="fill:white; clip-path:url(#clipPath16); stroke:none;" points=" 197 82 208 104 186 104"
      /><rect x="186" y="82" width="22" style="clip-path:url(#clipPath16); fill:rgb(237,28,36); stroke:none;" height="22"
      /><rect x="186" y="82" width="22" style="fill:none; clip-path:url(#clipPath16);" height="22"
      /><polygon style="fill:none;" points=" 197 82 208 104 186 104"
      /><rect x="202" y="55" width="6" style="fill:white; stroke:none;" height="10"
      /><path style="stroke:none;" d="M204.2344 56.6562 C204.5156 56.5938 204.7656 56.5625 205.0156 56.5625 C206.0625 56.5625 206.6719 57.1719 206.6719 58.2656 C206.6719 59.4375 205.9062 60.1094 204.7031 60.1094 L204.1875 60.1094 L204.1875 60.6406 L204.7969 60.6406 C206.2188 60.6406 206.9062 61.4219 206.9062 62.6406 C206.9062 63.8438 206.1719 64.6875 204.875 64.6875 C204.6094 64.6875 204.3125 64.6562 204.0156 64.5625 L203.7812 63.8125 C203.625 63.2812 203.5 63.0469 203.1406 63.0469 C202.8906 63.0469 202.7031 63.1719 202.5781 63.4219 C202.8438 64.6406 203.7812 65.1719 205.0312 65.1719 C206.7188 65.1719 207.875 64.125 207.875 62.7031 C207.875 61.5 207.2031 60.625 205.7969 60.375 C206.9531 60.0156 207.6094 59.2031 207.6094 58.2031 C207.6094 56.9219 206.6719 56.0781 205.1875 56.0781 C204.0469 56.0781 203.0625 56.5938 202.7969 57.6875 C202.9062 58 203.1094 58.1094 203.3594 58.1094 C203.7344 58.1094 203.8906 57.8906 204 57.4062 L204.2344 56.6562 Z"
      /><rect x="201" y="70" width="8" style="fill:white; stroke:none;" height="8"
      /><path style="stroke:none;" d="M205.9844 75.7031 C205.9375 76.8906 205.1562 77.6562 204.3125 77.6562 C203.2656 77.6562 202.5 76.6875 202.5 74.7188 C202.5 73.2812 203.1562 72.1562 204.3438 72.1562 C205.1406 72.1562 205.7812 72.6875 206.0938 73.6406 L205.9844 75.7031 ZM207.9062 77.2812 C207.7344 77.375 207.5469 77.4219 207.3438 77.4219 C206.9531 77.4219 206.75 77.2188 206.75 76.4219 C206.75 75.4844 206.9688 73.5312 207.1875 71.8281 L207.0312 71.7188 L206.2344 71.9219 L206.1406 72.7969 C205.7812 72.0312 205.1562 71.6562 204.3906 71.6562 C203.0469 71.6562 201.5625 72.8438 201.5625 74.9531 C201.5625 77.0938 202.7188 78.1719 204.1406 78.1719 C205.0156 78.1719 205.6875 77.8125 206.0938 76.9844 C206.2031 77.8594 206.5156 78.1719 207.0156 78.1719 C207.4688 78.1719 207.7969 77.9062 208.0156 77.5625 L207.9062 77.2812 Z"
      /><rect x="235" y="110" width="6" style="fill:white; stroke:none;" height="9"
      /><path style="stroke:none;" d="M236.4219 118.0938 C237.0781 117.375 237.7031 116.7188 238.0312 116.3438 C239.9219 114.3125 240.5312 113.4688 240.5312 112.3594 C240.5312 111.0156 239.7812 110.0781 238.1562 110.0781 C236.9062 110.0781 235.7969 110.7031 235.5938 111.9688 C235.7188 112.2031 235.9062 112.3438 236.1562 112.3438 C236.4688 112.3438 236.6562 112.1094 236.7969 111.5938 L237.0938 110.6719 C237.3906 110.5938 237.6562 110.5625 237.8906 110.5625 C238.9219 110.5625 239.5469 111.3125 239.5469 112.4219 C239.5469 113.4375 238.9844 114.4219 237.7031 115.9062 C237.125 116.5781 236.3906 117.4375 235.6406 118.2812 L235.6406 119 L240.9219 119 L240.9219 118.0938 L236.4219 118.0938 Z"
      /><rect x="216" y="127" width="6" style="fill:white; stroke:none;" height="13"
      /><path style="stroke:none;" d="M218.0938 133.2031 C218.0938 131.6562 218.75 130.8125 219.7969 130.8125 C220.7188 130.8125 221.2656 131.4531 221.2656 132.5156 C221.2656 133.7188 220.5 134.4375 219.1875 134.7031 L219.2969 135.3125 C221.2188 135.2344 221.9375 136.2188 221.9375 137.4375 C221.9375 138.625 221.2344 139.4219 219.9531 139.4219 C219.25 139.4219 218.6562 139.1562 218.0938 138.7188 L218.0938 133.2031 ZM217.2031 139.9062 L217.1094 142.375 L217.2656 142.4844 L218.1562 142.2656 L218.0156 139.0938 C218.5469 139.8438 219.3594 140.1719 220.1719 140.1719 C221.5625 140.1719 222.8594 139.2188 222.8594 137.4844 C222.8594 135.9531 221.875 135.1094 220.125 135 C221.5625 134.6094 222.1875 133.4531 222.1875 132.4844 C222.1875 131.0938 221.1562 130.3125 219.9062 130.3125 C218.2969 130.3125 217.2188 131.5469 217.2188 133.5156 L217.2031 139.9062 Z"
      /><rect x="223" y="77" width="6" style="fill:white; stroke:none;" height="10"
      /><path style="stroke:none;" d="M226.3438 86.6875 C225.2031 86.6875 224.5312 85.5 224.5312 83.2969 C224.5312 83.2188 224.5312 83.125 224.5312 83.0469 C225.0938 82.5 225.7188 82.3125 226.3438 82.3125 C227.3125 82.3125 227.9531 82.9844 227.9531 84.4531 C227.9531 85.9375 227.3125 86.6875 226.3438 86.6875 ZM228.5312 78.0781 C225.3438 78.4531 223.5625 80.7656 223.5625 83.4531 C223.5625 85.7812 224.6094 87.1719 226.3125 87.1719 C227.8438 87.1719 228.9219 86.1094 228.9219 84.2812 C228.9219 82.6875 227.9688 81.6562 226.5625 81.6562 C225.8281 81.6562 225.1406 81.9844 224.5781 82.5781 C224.7969 80.4062 226.0781 78.9688 228.5938 78.3906 L228.5312 78.0781 Z"
      /><rect x="205" y="56" width="6" style="fill:white; stroke:none;" height="13"
      /><path style="stroke:none;" d="M207.0938 62.2031 C207.0938 60.6562 207.75 59.8125 208.7969 59.8125 C209.7188 59.8125 210.2656 60.4531 210.2656 61.5156 C210.2656 62.7188 209.5 63.4375 208.1875 63.7031 L208.2969 64.3125 C210.2188 64.2344 210.9375 65.2188 210.9375 66.4375 C210.9375 67.625 210.2344 68.4219 208.9531 68.4219 C208.25 68.4219 207.6562 68.1562 207.0938 67.7188 L207.0938 62.2031 ZM206.2031 68.9062 L206.1094 71.375 L206.2656 71.4844 L207.1562 71.2656 L207.0156 68.0938 C207.5469 68.8438 208.3594 69.1719 209.1719 69.1719 C210.5625 69.1719 211.8594 68.2188 211.8594 66.4844 C211.8594 64.9531 210.875 64.1094 209.125 64 C210.5625 63.6094 211.1875 62.4531 211.1875 61.4844 C211.1875 60.0938 210.1562 59.3125 208.9062 59.3125 C207.2969 59.3125 206.2188 60.5469 206.2188 62.5156 L206.2031 68.9062 Z"
      /><rect x="287" y="214" width="6" style="fill:white; stroke:none;" height="10"
      /><path style="stroke:none;" d="M289.2344 215.6562 C289.5156 215.5938 289.7656 215.5625 290.0156 215.5625 C291.0625 215.5625 291.6719 216.1719 291.6719 217.2656 C291.6719 218.4375 290.9062 219.1094 289.7031 219.1094 L289.1875 219.1094 L289.1875 219.6406 L289.7969 219.6406 C291.2188 219.6406 291.9062 220.4219 291.9062 221.6406 C291.9062 222.8438 291.1719 223.6875 289.875 223.6875 C289.6094 223.6875 289.3125 223.6562 289.0156 223.5625 L288.7812 222.8125 C288.625 222.2812 288.5 222.0469 288.1406 222.0469 C287.8906 222.0469 287.7031 222.1719 287.5781 222.4219 C287.8438 223.6406 288.7812 224.1719 290.0312 224.1719 C291.7188 224.1719 292.875 223.125 292.875 221.7031 C292.875 220.5 292.2031 219.625 290.7969 219.375 C291.9531 219.0156 292.6094 218.2031 292.6094 217.2031 C292.6094 215.9219 291.6719 215.0781 290.1875 215.0781 C289.0469 215.0781 288.0625 215.5938 287.7969 216.6875 C287.9062 217 288.1094 217.1094 288.3594 217.1094 C288.7344 217.1094 288.8906 216.8906 289 216.4062 L289.2344 215.6562 Z"
      /><rect x="267" y="234" width="8" style="fill:white; stroke:none;" height="8"
      /><path style="stroke:none;" d="M271.9844 239.7031 C271.9375 240.8906 271.1562 241.6562 270.3125 241.6562 C269.2656 241.6562 268.5 240.6875 268.5 238.7188 C268.5 237.2812 269.1562 236.1562 270.3438 236.1562 C271.1406 236.1562 271.7812 236.6875 272.0938 237.6406 L271.9844 239.7031 ZM273.9062 241.2812 C273.7344 241.375 273.5469 241.4219 273.3438 241.4219 C272.9531 241.4219 272.75 241.2188 272.75 240.4219 C272.75 239.4844 272.9688 237.5312 273.1875 235.8281 L273.0312 235.7188 L272.2344 235.9219 L272.1406 236.7969 C271.7812 236.0312 271.1562 235.6562 270.3906 235.6562 C269.0469 235.6562 267.5625 236.8438 267.5625 238.9531 C267.5625 241.0938 268.7188 242.1719 270.1406 242.1719 C271.0156 242.1719 271.6875 241.8125 272.0938 240.9844 C272.2031 241.8594 272.5156 242.1719 273.0156 242.1719 C273.4688 242.1719 273.7969 241.9062 274.0156 241.5625 L273.9062 241.2812 Z"
      /><rect x="278" y="200" width="7" style="fill:white; stroke:none;" height="9"
      /><path style="stroke:none;" d="M279 205.5156 L281.9531 201.2656 L281.9531 205.5156 L279 205.5156 ZM284.2812 205.5156 L282.8594 205.5156 L282.8594 200.125 L282.2344 200.125 L278.3438 205.6406 L278.3438 206.1875 L281.9531 206.1875 L281.9531 209 L282.8594 209 L282.8594 206.1875 L284.2812 206.1875 L284.2812 205.5156 Z"
      /><rect x="265" y="198" width="6" style="fill:white; stroke:none;" height="13"
      /><path style="stroke:none;" d="M267.0938 204.2031 C267.0938 202.6562 267.75 201.8125 268.7969 201.8125 C269.7188 201.8125 270.2656 202.4531 270.2656 203.5156 C270.2656 204.7188 269.5 205.4375 268.1875 205.7031 L268.2969 206.3125 C270.2188 206.2344 270.9375 207.2188 270.9375 208.4375 C270.9375 209.625 270.2344 210.4219 268.9531 210.4219 C268.25 210.4219 267.6562 210.1562 267.0938 209.7188 L267.0938 204.2031 ZM266.2031 210.9062 L266.1094 213.375 L266.2656 213.4844 L267.1562 213.2656 L267.0156 210.0938 C267.5469 210.8438 268.3594 211.1719 269.1719 211.1719 C270.5625 211.1719 271.8594 210.2188 271.8594 208.4844 C271.8594 206.9531 270.875 206.1094 269.125 206 C270.5625 205.6094 271.1875 204.4531 271.1875 203.4844 C271.1875 202.0938 270.1562 201.3125 268.9062 201.3125 C267.2969 201.3125 266.2188 202.5469 266.2188 204.5156 L266.2031 210.9062 Z"
      /><rect x="281" y="177" width="6" style="fill:white; stroke:none;" height="10"
      /><path style="stroke:none;" d="M284.3438 186.6875 C283.2031 186.6875 282.5312 185.5 282.5312 183.2969 C282.5312 183.2188 282.5312 183.125 282.5312 183.0469 C283.0938 182.5 283.7188 182.3125 284.3438 182.3125 C285.3125 182.3125 285.9531 182.9844 285.9531 184.4531 C285.9531 185.9375 285.3125 186.6875 284.3438 186.6875 ZM286.5312 178.0781 C283.3438 178.4531 281.5625 180.7656 281.5625 183.4531 C281.5625 185.7812 282.6094 187.1719 284.3125 187.1719 C285.8438 187.1719 286.9219 186.1094 286.9219 184.2812 C286.9219 182.6875 285.9688 181.6562 284.5625 181.6562 C283.8281 181.6562 283.1406 181.9844 282.5781 182.5781 C282.7969 180.4062 284.0781 178.9688 286.5938 178.3906 L286.5312 178.0781 Z"
      /><rect x="246" y="110" width="8" style="fill:white; stroke:none;" height="8"
      /><path style="stroke:none;" d="M250.9844 115.7031 C250.9375 116.8906 250.1562 117.6562 249.3125 117.6562 C248.2656 117.6562 247.5 116.6875 247.5 114.7188 C247.5 113.2812 248.1562 112.1562 249.3438 112.1562 C250.1406 112.1562 250.7812 112.6875 251.0938 113.6406 L250.9844 115.7031 ZM252.9062 117.2812 C252.7344 117.375 252.5469 117.4219 252.3438 117.4219 C251.9531 117.4219 251.75 117.2188 251.75 116.4219 C251.75 115.4844 251.9688 113.5312 252.1875 111.8281 L252.0312 111.7188 L251.2344 111.9219 L251.1406 112.7969 C250.7812 112.0312 250.1562 111.6562 249.3906 111.6562 C248.0469 111.6562 246.5625 112.8438 246.5625 114.9531 C246.5625 117.0938 247.7188 118.1719 249.1406 118.1719 C250.0156 118.1719 250.6875 117.8125 251.0938 116.9844 C251.2031 117.8594 251.5156 118.1719 252.0156 118.1719 C252.4688 118.1719 252.7969 117.9062 253.0156 117.5625 L252.9062 117.2812 Z"
      /><rect x="330" y="200" width="7" style="fill:white; stroke:none;" height="9"
      /><path style="stroke:none;" d="M331 205.5156 L333.9531 201.2656 L333.9531 205.5156 L331 205.5156 ZM336.2812 205.5156 L334.8594 205.5156 L334.8594 200.125 L334.2344 200.125 L330.3438 205.6406 L330.3438 206.1875 L333.9531 206.1875 L333.9531 209 L334.8594 209 L334.8594 206.1875 L336.2812 206.1875 L336.2812 205.5156 Z"
      /><rect x="317" y="198" width="6" style="fill:white; stroke:none;" height="13"
      /><path style="stroke:none;" d="M319.0938 204.2031 C319.0938 202.6562 319.75 201.8125 320.7969 201.8125 C321.7188 201.8125 322.2656 202.4531 322.2656 203.5156 C322.2656 204.7188 321.5 205.4375 320.1875 205.7031 L320.2969 206.3125 C322.2188 206.2344 322.9375 207.2188 322.9375 208.4375 C322.9375 209.625 322.2344 210.4219 320.9531 210.4219 C320.25 210.4219 319.6562 210.1562 319.0938 209.7188 L319.0938 204.2031 ZM318.2031 210.9062 L318.1094 213.375 L318.2656 213.4844 L319.1562 213.2656 L319.0156 210.0938 C319.5469 210.8438 320.3594 211.1719 321.1719 211.1719 C322.5625 211.1719 323.8594 210.2188 323.8594 208.4844 C323.8594 206.9531 322.875 206.1094 321.125 206 C322.5625 205.6094 323.1875 204.4531 323.1875 203.4844 C323.1875 202.0938 322.1562 201.3125 320.9062 201.3125 C319.2969 201.3125 318.2188 202.5469 318.2188 204.5156 L318.2031 210.9062 Z"
      /><rect x="382" y="200" width="7" style="fill:white; stroke:none;" height="9"
      /><path style="stroke:none;" d="M383 205.5156 L385.9531 201.2656 L385.9531 205.5156 L383 205.5156 ZM388.2812 205.5156 L386.8594 205.5156 L386.8594 200.125 L386.2344 200.125 L382.3438 205.6406 L382.3438 206.1875 L385.9531 206.1875 L385.9531 209 L386.8594 209 L386.8594 206.1875 L388.2812 206.1875 L388.2812 205.5156 Z"
      /><rect x="369" y="198" width="6" style="fill:white; stroke:none;" height="13"
      /><path style="stroke:none;" d="M371.0938 204.2031 C371.0938 202.6562 371.75 201.8125 372.7969 201.8125 C373.7188 201.8125 374.2656 202.4531 374.2656 203.5156 C374.2656 204.7188 373.5 205.4375 372.1875 205.7031 L372.2969 206.3125 C374.2188 206.2344 374.9375 207.2188 374.9375 208.4375 C374.9375 209.625 374.2344 210.4219 372.9531 210.4219 C372.25 210.4219 371.6562 210.1562 371.0938 209.7188 L371.0938 204.2031 ZM370.2031 210.9062 L370.1094 213.375 L370.2656 213.4844 L371.1562 213.2656 L371.0156 210.0938 C371.5469 210.8438 372.3594 211.1719 373.1719 211.1719 C374.5625 211.1719 375.8594 210.2188 375.8594 208.4844 C375.8594 206.9531 374.875 206.1094 373.125 206 C374.5625 205.6094 375.1875 204.4531 375.1875 203.4844 C375.1875 202.0938 374.1562 201.3125 372.9062 201.3125 C371.2969 201.3125 370.2188 202.5469 370.2188 204.5156 L370.2031 210.9062 Z"
      /><rect x="421" y="200" width="5" style="fill:white; stroke:none;" height="10"
      /><path style="stroke:none;" d="M422.8906 208.6875 C422.4844 208.6875 422.1562 209.0469 422.1562 209.4219 C422.1562 209.8125 422.4844 210.1562 422.8906 210.1562 C423.2969 210.1562 423.6406 209.8125 423.6406 209.4219 C423.6406 209.0469 423.2969 208.6875 422.8906 208.6875 ZM424.4688 202.5781 C424.7188 202.8906 424.875 203.2656 424.8906 203.6562 C424.8906 204.1875 424.625 204.5 424.0312 204.7656 L423.4062 205.0156 C422.6406 205.3125 422.3906 205.5469 422.3906 205.9375 C422.3906 206.1094 422.4531 206.3438 422.5781 206.8125 L422.7344 207.3438 L423.1094 207.3438 L423.0938 206.5312 C423.0938 206.0938 423.2031 205.9688 423.7812 205.7344 L424.2031 205.5625 C425.0312 205.2188 425.4531 204.6875 425.4531 203.8438 C425.4531 202.1562 423.6562 201.1875 422.5 201.0312 C422.1094 201.125 421.9062 201.2969 421.9062 201.6406 C421.9062 201.9375 422.0625 202.1562 422.7188 202.2656 L424.4688 202.5781 Z"
    /></g
  ></g
></svg
>
