<?xml version="1.0"?>
<!DOCTYPE svg PUBLIC '-//W3C//DTD SVG 1.0//EN'
          'http://www.w3.org/TR/2001/REC-SVG-20010904/DTD/svg10.dtd'>
<svg xmlns:xlink="http://www.w3.org/1999/xlink" style="fill-opacity:1; color-rendering:auto; color-interpolation:auto; text-rendering:auto; stroke:black; stroke-linecap:square; stroke-miterlimit:10; shape-rendering:auto; stroke-opacity:1; fill:black; stroke-dasharray:none; font-weight:normal; stroke-width:1; font-family:'Dialog'; font-style:normal; stroke-linejoin:miter; font-size:12px; stroke-dashoffset:0; image-rendering:auto;" viewBox="0 0 156 134" xmlns="http://www.w3.org/2000/svg"
><!--Generated by the Batik Graphics2D SVG Generator--><defs id="genericDefs"
  /><g
  ><defs id="defs1"
    ><clipPath clipPathUnits="userSpaceOnUse" id="clipPath1"
      ><path d="M30 82 L52 82 L52 104 L30 104 L30 82 Z"
      /></clipPath
      ><clipPath clipPathUnits="userSpaceOnUse" id="clipPath2"
      ><path d="M52 41 C52 47.0751 47.0751 52 41 52 C34.9249 52 30 47.0751 30 41 C30 34.9249 34.9249 30 41 30 C47.0751 30 52 34.9249 52 41 Z"
      /></clipPath
    ></defs
    ><g style="fill:white; text-rendering:optimizeSpeed; stroke:white;"
    ><rect x="0" width="156" height="134" y="0" style="stroke:none;"
      /><rect x="30" y="82" width="22" style="clip-path:url(#clipPath1); stroke:none;" height="22"
      /><rect x="30" y="82" width="22" style="clip-path:url(#clipPath1); fill:rgb(0,144,188); stroke:none;" height="22"
      /><rect x="30" y="82" width="22" style="clip-path:url(#clipPath1); fill:none; stroke:black;" height="22"
      /><rect x="30" y="82" width="22" style="fill:none; stroke:black;" height="22"
      /><rect x="57" y="80" width="5" style="stroke:none;" height="10"
    /></g
    ><g style="font-family:'Serif'; text-rendering:optimizeSpeed; "
    ><path style="stroke:none;" d="M58.8906 88.6875 C58.4844 88.6875 58.1562 89.0469 58.1562 89.4219 C58.1562 89.8125 58.4844 90.1562 58.8906 90.1562 C59.2969 90.1562 59.6406 89.8125 59.6406 89.4219 C59.6406 89.0469 59.2969 88.6875 58.8906 88.6875 ZM60.4688 82.5781 C60.7188 82.8906 60.875 83.2656 60.8906 83.6562 C60.8906 84.1875 60.625 84.5 60.0312 84.7656 L59.4062 85.0156 C58.6406 85.3125 58.3906 85.5469 58.3906 85.9375 C58.3906 86.1094 58.4531 86.3438 58.5781 86.8125 L58.7344 87.3438 L59.1094 87.3438 L59.0938 86.5312 C59.0938 86.0938 59.2031 85.9688 59.7812 85.7344 L60.2031 85.5625 C61.0312 85.2188 61.4531 84.6875 61.4531 83.8438 C61.4531 82.1562 59.6562 81.1875 58.5 81.0312 C58.1094 81.125 57.9062 81.2969 57.9062 81.6406 C57.9062 81.9375 58.0625 82.1562 58.7188 82.2656 L60.4688 82.5781 Z"
      /><rect x="57" y="96" width="5" style="fill:white; stroke:none;" height="10"
      /><path style="stroke:none;" d="M58.8906 104.6875 C58.4844 104.6875 58.1562 105.0469 58.1562 105.4219 C58.1562 105.8125 58.4844 106.1562 58.8906 106.1562 C59.2969 106.1562 59.6406 105.8125 59.6406 105.4219 C59.6406 105.0469 59.2969 104.6875 58.8906 104.6875 ZM60.4688 98.5781 C60.7188 98.8906 60.875 99.2656 60.8906 99.6562 C60.8906 100.1875 60.625 100.5 60.0312 100.7656 L59.4062 101.0156 C58.6406 101.3125 58.3906 101.5469 58.3906 101.9375 C58.3906 102.1094 58.4531 102.3438 58.5781 102.8125 L58.7344 103.3438 L59.1094 103.3438 L59.0938 102.5312 C59.0938 102.0938 59.2031 101.9688 59.7812 101.7344 L60.2031 101.5625 C61.0312 101.2188 61.4531 100.6875 61.4531 99.8438 C61.4531 98.1562 59.6562 97.1875 58.5 97.0312 C58.1094 97.125 57.9062 97.2969 57.9062 97.6406 C57.9062 97.9375 58.0625 98.1562 58.7188 98.2656 L60.4688 98.5781 Z"
      /><circle style="fill:white; clip-path:url(#clipPath2); stroke:none;" r="11" cx="41" cy="41"
      /><rect x="30" y="30" width="22" style="clip-path:url(#clipPath2); fill:rgb(255,212,0); stroke:none;" height="22"
      /><rect x="30" y="30" width="22" style="fill:none; clip-path:url(#clipPath2);" height="22"
      /><circle r="11" style="fill:none;" cx="41" cy="41"
      /><rect x="57" y="28" width="5" style="fill:white; stroke:none;" height="10"
      /><path style="stroke:none;" d="M58.8906 36.6875 C58.4844 36.6875 58.1562 37.0469 58.1562 37.4219 C58.1562 37.8125 58.4844 38.1562 58.8906 38.1562 C59.2969 38.1562 59.6406 37.8125 59.6406 37.4219 C59.6406 37.0469 59.2969 36.6875 58.8906 36.6875 ZM60.4688 30.5781 C60.7188 30.8906 60.875 31.2656 60.8906 31.6562 C60.8906 32.1875 60.625 32.5 60.0312 32.7656 L59.4062 33.0156 C58.6406 33.3125 58.3906 33.5469 58.3906 33.9375 C58.3906 34.1094 58.4531 34.3438 58.5781 34.8125 L58.7344 35.3438 L59.1094 35.3438 L59.0938 34.5312 C59.0938 34.0938 59.2031 33.9688 59.7812 33.7344 L60.2031 33.5625 C61.0312 33.2188 61.4531 32.6875 61.4531 31.8438 C61.4531 30.1562 59.6562 29.1875 58.5 29.0312 C58.1094 29.125 57.9062 29.2969 57.9062 29.6406 C57.9062 29.9375 58.0625 30.1562 58.7188 30.2656 L60.4688 30.5781 Z"
      /><rect x="57" y="44" width="5" style="fill:white; stroke:none;" height="10"
      /><path style="stroke:none;" d="M58.8906 52.6875 C58.4844 52.6875 58.1562 53.0469 58.1562 53.4219 C58.1562 53.8125 58.4844 54.1562 58.8906 54.1562 C59.2969 54.1562 59.6406 53.8125 59.6406 53.4219 C59.6406 53.0469 59.2969 52.6875 58.8906 52.6875 ZM60.4688 46.5781 C60.7188 46.8906 60.875 47.2656 60.8906 47.6562 C60.8906 48.1875 60.625 48.5 60.0312 48.7656 L59.4062 49.0156 C58.6406 49.3125 58.3906 49.5469 58.3906 49.9375 C58.3906 50.1094 58.4531 50.3438 58.5781 50.8125 L58.7344 51.3438 L59.1094 51.3438 L59.0938 50.5312 C59.0938 50.0938 59.2031 49.9688 59.7812 49.7344 L60.2031 49.5625 C61.0312 49.2188 61.4531 48.6875 61.4531 47.8438 C61.4531 46.1562 59.6562 45.1875 58.5 45.0312 C58.1094 45.125 57.9062 45.2969 57.9062 45.6406 C57.9062 45.9375 58.0625 46.1562 58.7188 46.2656 L60.4688 46.5781 Z"
    /></g
    ><g ID="legend-1:0" style="text-rendering:optimizeSpeed; font-size:10px; font-family:'SansSerif';"
    ><path style="stroke:none;" d="M30.9219 119 L31.8281 119 L31.8281 115.0625 C32.375 114.5156 32.7656 114.2344 33.3125 114.2344 C34.0469 114.2344 34.3438 114.6562 34.3438 115.6875 L34.3438 119 L35.2656 119 L35.2656 115.5625 C35.2656 114.1719 34.7344 113.4375 33.5938 113.4375 C32.8594 113.4375 32.2969 113.8438 31.7812 114.3438 L31.75 114.3438 L31.6719 113.5625 L30.9219 113.5625 L30.9219 119 ZM39.1413 119.125 C40.4694 119.125 41.6569 118.0938 41.6569 116.2969 C41.6569 114.4844 40.4694 113.4375 39.1413 113.4375 C37.8131 113.4375 36.6256 114.4844 36.6256 116.2969 C36.6256 118.0938 37.8131 119.125 39.1413 119.125 ZM39.1413 118.375 C38.2038 118.375 37.5631 117.5469 37.5631 116.2969 C37.5631 115.0469 38.2038 114.1875 39.1413 114.1875 C40.0788 114.1875 40.7194 115.0469 40.7194 116.2969 C40.7194 117.5469 40.0788 118.375 39.1413 118.375 ZM47.16 121.5 C48.8475 121.5 49.91 120.625 49.91 119.625 C49.91 118.7344 49.2694 118.3281 48.0038 118.3281 L46.9569 118.3281 C46.2225 118.3281 46.0038 118.0938 46.0038 117.7344 C46.0038 117.4375 46.1444 117.2656 46.3475 117.0938 C46.5975 117.2031 46.8944 117.2812 47.16 117.2812 C48.2538 117.2812 49.1444 116.5469 49.1444 115.3906 C49.1444 114.9219 48.9569 114.5156 48.7069 114.2656 L49.8163 114.2656 L49.8163 113.5625 L47.9256 113.5625 C47.7225 113.5 47.4569 113.4375 47.16 113.4375 C46.0663 113.4375 45.1131 114.1875 45.1131 115.375 C45.1131 116.0156 45.4725 116.5469 45.8319 116.8281 L45.8319 116.875 C45.5506 117.0625 45.2225 117.4375 45.2225 117.875 C45.2225 118.3125 45.4256 118.5938 45.7225 118.7656 L45.7225 118.8125 C45.2069 119.1406 44.9256 119.5781 44.9256 120.0469 C44.9256 120.9844 45.8319 121.5 47.16 121.5 ZM47.16 116.6562 C46.535 116.6562 46.0038 116.1562 46.0038 115.375 C46.0038 114.5625 46.5194 114.0938 47.16 114.0938 C47.8006 114.0938 48.3163 114.5781 48.3163 115.375 C48.3163 116.1562 47.785 116.6562 47.16 116.6562 ZM47.285 120.875 C46.3163 120.875 45.7225 120.5 45.7225 119.9219 C45.7225 119.5938 45.8788 119.2812 46.2694 119 C46.5038 119.0625 46.7694 119.0938 46.9725 119.0938 L47.91 119.0938 C48.6288 119.0938 49.0194 119.2656 49.0194 119.7656 C49.0194 120.3281 48.3319 120.875 47.285 120.875 ZM51.915 119.125 C52.165 119.125 52.3212 119.0938 52.4462 119.0469 L52.3212 118.3438 C52.2275 118.375 52.1806 118.375 52.1337 118.375 C51.9931 118.375 51.8681 118.2656 51.8681 117.9844 L51.8681 111.0469 L50.9619 111.0469 L50.9619 117.9219 C50.9619 118.6875 51.2431 119.125 51.915 119.125 ZM53.9056 121.3438 C54.9837 121.3438 55.5462 120.5156 55.9212 119.4531 L57.9681 113.5625 L57.0775 113.5625 L56.1087 116.5938 C55.9525 117.0625 55.7962 117.625 55.6556 118.1094 L55.5931 118.1094 C55.4369 117.625 55.2337 117.0625 55.0775 116.5938 L53.9681 113.5625 L53.015 113.5625 L55.2025 119.0156 L55.0775 119.4219 C54.8587 120.0938 54.4681 120.5938 53.8431 120.5938 C53.7025 120.5938 53.5462 120.5469 53.4369 120.5 L53.265 121.2344 C53.4369 121.2969 53.64 121.3438 53.9056 121.3438 ZM61.1625 119.125 C61.8031 119.125 62.4281 118.875 62.9125 118.4375 L62.5219 117.8281 C62.1781 118.1406 61.7406 118.375 61.2406 118.375 C60.2406 118.375 59.5531 117.5469 59.5531 116.2969 C59.5531 115.0469 60.2875 114.1875 61.2719 114.1875 C61.6937 114.1875 62.0375 114.3906 62.35 114.6719 L62.8187 114.0625 C62.4281 113.7344 61.9437 113.4375 61.225 113.4375 C59.8344 113.4375 58.6156 114.4844 58.6156 116.2969 C58.6156 118.0938 59.725 119.125 61.1625 119.125 ZM66.2212 119.125 C67.5493 119.125 68.7368 118.0938 68.7368 116.2969 C68.7368 114.4844 67.5493 113.4375 66.2212 113.4375 C64.8931 113.4375 63.7056 114.4844 63.7056 116.2969 C63.7056 118.0938 64.8931 119.125 66.2212 119.125 ZM66.2212 118.375 C65.2837 118.375 64.6431 117.5469 64.6431 116.2969 C64.6431 115.0469 65.2837 114.1875 66.2212 114.1875 C67.1587 114.1875 67.7993 115.0469 67.7993 116.2969 C67.7993 117.5469 67.1587 118.375 66.2212 118.375 ZM71.5937 119.125 C72.875 119.125 73.5625 118.4062 73.5625 117.5156 C73.5625 116.4844 72.7031 116.1719 71.9062 115.875 C71.2968 115.6406 70.7343 115.4531 70.7343 114.9375 C70.7343 114.5156 71.0625 114.1562 71.75 114.1562 C72.2343 114.1562 72.6093 114.3438 72.9843 114.625 L73.4218 114.0469 C73 113.7031 72.4062 113.4375 71.7343 113.4375 C70.5625 113.4375 69.8593 114.1094 69.8593 114.9688 C69.8593 115.8906 70.6875 116.2656 71.4531 116.5469 C72.0468 116.7656 72.6875 117.0156 72.6875 117.5625 C72.6875 118.0469 72.3437 118.4219 71.625 118.4219 C70.9687 118.4219 70.4843 118.1562 70.0156 117.7812 L69.5625 118.375 C70.0781 118.8125 70.8125 119.125 71.5937 119.125 ZM74.8518 119 L75.7581 119 L75.7581 113.5625 L74.8518 113.5625 L74.8518 119 ZM75.305 112.4531 C75.6643 112.4531 75.9143 112.2031 75.9143 111.8438 C75.9143 111.4844 75.6643 111.25 75.305 111.25 C74.9456 111.25 74.6956 111.4844 74.6956 111.8438 C74.6956 112.2031 74.9456 112.4531 75.305 112.4531 ZM79.4456 119.125 C80.1018 119.125 80.6643 118.7812 81.1018 118.3594 L81.1331 118.3594 L81.2112 119 L81.9456 119 L81.9456 111.0469 L81.055 111.0469 L81.055 113.125 L81.0862 114.0625 C80.6175 113.6719 80.1956 113.4375 79.555 113.4375 C78.3206 113.4375 77.2112 114.5312 77.2112 116.2969 C77.2112 118.0938 78.0862 119.125 79.4456 119.125 ZM79.6487 118.375 C78.6956 118.375 78.1487 117.5938 78.1487 116.2812 C78.1487 115.0469 78.8362 114.2031 79.7268 114.2031 C80.1643 114.2031 80.5862 114.3594 81.055 114.7656 L81.055 117.625 C80.5862 118.125 80.1487 118.375 79.6487 118.375 ZM83.8018 119 L84.7081 119 L84.7081 113.5625 L83.8018 113.5625 L83.8018 119 ZM84.255 112.4531 C84.6143 112.4531 84.8643 112.2031 84.8643 111.8438 C84.8643 111.4844 84.6143 111.25 84.255 111.25 C83.8956 111.25 83.6456 111.4844 83.6456 111.8438 C83.6456 112.2031 83.8956 112.4531 84.255 112.4531 ZM88.6925 119.125 C89.3331 119.125 89.9581 118.875 90.4425 118.4375 L90.0518 117.8281 C89.7081 118.1406 89.2706 118.375 88.7706 118.375 C87.7706 118.375 87.0831 117.5469 87.0831 116.2969 C87.0831 115.0469 87.8175 114.1875 88.8018 114.1875 C89.2237 114.1875 89.5675 114.3906 89.88 114.6719 L90.3487 114.0625 C89.9581 113.7344 89.4737 113.4375 88.755 113.4375 C87.3643 113.4375 86.1456 114.4844 86.1456 116.2969 C86.1456 118.0938 87.255 119.125 88.6925 119.125 ZM94.835 119.125 C95.085 119.125 95.2412 119.0938 95.3662 119.0469 L95.2412 118.3438 C95.1475 118.375 95.1006 118.375 95.0537 118.375 C94.9131 118.375 94.7881 118.2656 94.7881 117.9844 L94.7881 111.0469 L93.8818 111.0469 L93.8818 117.9219 C93.8818 118.6875 94.1631 119.125 94.835 119.125 ZM96.7318 119 L97.6381 119 L97.6381 113.5625 L96.7318 113.5625 L96.7318 119 ZM97.185 112.4531 C97.5443 112.4531 97.7943 112.2031 97.7943 111.8438 C97.7943 111.4844 97.5443 111.25 97.185 111.25 C96.8256 111.25 96.5756 111.4844 96.5756 111.8438 C96.5756 112.2031 96.8256 112.4531 97.185 112.4531 ZM99.4818 119 L100.3881 119 L100.3881 115.0625 C100.935 114.5156 101.3256 114.2344 101.8725 114.2344 C102.6068 114.2344 102.9037 114.6562 102.9037 115.6875 L102.9037 119 L103.8256 119 L103.8256 115.5625 C103.8256 114.1719 103.2943 113.4375 102.1537 113.4375 C101.4193 113.4375 100.8568 113.8438 100.3412 114.3438 L100.31 114.3438 L100.2318 113.5625 L99.4818 113.5625 L99.4818 119 ZM105.5918 119 L106.4825 119 L106.4825 117.5625 L107.5137 116.375 L109.1075 119 L110.0918 119 L108.045 115.7656 L109.8575 113.5625 L108.8262 113.5625 L106.5137 116.4375 L106.4825 116.4375 L106.4825 111.0469 L105.5918 111.0469 L105.5918 119 ZM112.3618 119.125 C113.0337 119.125 113.6431 118.7812 114.1587 118.3438 L114.1899 118.3438 L114.2681 119 L115.0181 119 L115.0181 115.6562 C115.0181 114.3125 114.4556 113.4375 113.1431 113.4375 C112.2681 113.4375 111.5024 113.8125 111.0024 114.1406 L111.3618 114.7656 C111.7837 114.4844 112.3618 114.1875 112.9868 114.1875 C113.8774 114.1875 114.1118 114.8594 114.1118 115.5625 C111.7993 115.8125 110.7681 116.4062 110.7681 117.5938 C110.7681 118.5625 111.4556 119.125 112.3618 119.125 ZM112.6274 118.4062 C112.0806 118.4062 111.6587 118.1562 111.6587 117.5312 C111.6587 116.8281 112.2837 116.375 114.1118 116.1562 L114.1118 117.6875 C113.5806 118.1562 113.1431 118.4062 112.6274 118.4062 ZM118.5799 121.5 C120.2674 121.5 121.3299 120.625 121.3299 119.625 C121.3299 118.7344 120.6893 118.3281 119.4237 118.3281 L118.3768 118.3281 C117.6424 118.3281 117.4237 118.0938 117.4237 117.7344 C117.4237 117.4375 117.5643 117.2656 117.7674 117.0938 C118.0174 117.2031 118.3143 117.2812 118.5799 117.2812 C119.6737 117.2812 120.5643 116.5469 120.5643 115.3906 C120.5643 114.9219 120.3768 114.5156 120.1268 114.2656 L121.2362 114.2656 L121.2362 113.5625 L119.3456 113.5625 C119.1424 113.5 118.8768 113.4375 118.5799 113.4375 C117.4862 113.4375 116.5331 114.1875 116.5331 115.375 C116.5331 116.0156 116.8924 116.5469 117.2518 116.8281 L117.2518 116.875 C116.9706 117.0625 116.6424 117.4375 116.6424 117.875 C116.6424 118.3125 116.8456 118.5938 117.1424 118.7656 L117.1424 118.8125 C116.6268 119.1406 116.3456 119.5781 116.3456 120.0469 C116.3456 120.9844 117.2518 121.5 118.5799 121.5 ZM118.5799 116.6562 C117.9549 116.6562 117.4237 116.1562 117.4237 115.375 C117.4237 114.5625 117.9393 114.0938 118.5799 114.0938 C119.2206 114.0938 119.7362 114.5781 119.7362 115.375 C119.7362 116.1562 119.2049 116.6562 118.5799 116.6562 ZM118.7049 120.875 C117.7362 120.875 117.1424 120.5 117.1424 119.9219 C117.1424 119.5938 117.2987 119.2812 117.6893 119 C117.9237 119.0625 118.1893 119.0938 118.3924 119.0938 L119.3299 119.0938 C120.0487 119.0938 120.4393 119.2656 120.4393 119.7656 C120.4393 120.3281 119.7518 120.875 118.7049 120.875 ZM124.5693 119.125 C125.3037 119.125 125.8974 118.875 126.3662 118.5625 L126.0381 117.9688 C125.6474 118.2344 125.2099 118.4062 124.6787 118.4062 C123.6474 118.4062 122.9443 117.6562 122.8818 116.5 L126.5381 116.5 C126.5537 116.375 126.5849 116.1875 126.5849 115.9844 C126.5849 114.4375 125.8037 113.4375 124.4131 113.4375 C123.1631 113.4375 121.9756 114.5312 121.9756 116.2969 C121.9756 118.0781 123.1318 119.125 124.5693 119.125 ZM122.8662 115.8438 C122.9756 114.7812 123.6631 114.1562 124.4287 114.1562 C125.2724 114.1562 125.7724 114.75 125.7724 115.8438 L122.8662 115.8438 ZM129.3437 119.125 C130.6249 119.125 131.3124 118.4062 131.3124 117.5156 C131.3124 116.4844 130.453 116.1719 129.6562 115.875 C129.0468 115.6406 128.4843 115.4531 128.4843 114.9375 C128.4843 114.5156 128.8124 114.1562 129.4999 114.1562 C129.9843 114.1562 130.3593 114.3438 130.7343 114.625 L131.1718 114.0469 C130.7499 113.7031 130.1562 113.4375 129.4843 113.4375 C128.3124 113.4375 127.6093 114.1094 127.6093 114.9688 C127.6093 115.8906 128.4374 116.2656 129.203 116.5469 C129.7968 116.7656 130.4374 117.0156 130.4374 117.5625 C130.4374 118.0469 130.0937 118.4219 129.3749 118.4219 C128.7187 118.4219 128.2343 118.1562 127.7655 117.7812 L127.3124 118.375 C127.828 118.8125 128.5624 119.125 129.3437 119.125 Z"
    /></g
  ></g
></svg
>
