<?xml version="1.0"?>
<!DOCTYPE svg PUBLIC '-//W3C//DTD SVG 1.0//EN'
          'http://www.w3.org/TR/2001/REC-SVG-20010904/DTD/svg10.dtd'>
<svg xmlns:xlink="http://www.w3.org/1999/xlink" style="fill-opacity:1; color-rendering:auto; color-interpolation:auto; text-rendering:auto; stroke:black; stroke-linecap:square; stroke-miterlimit:10; shape-rendering:auto; stroke-opacity:1; fill:black; stroke-dasharray:none; font-weight:normal; stroke-width:1; font-family:'Dialog'; font-style:normal; stroke-linejoin:miter; font-size:12px; stroke-dashoffset:0; image-rendering:auto;" viewBox="0 0 446 342" xmlns="http://www.w3.org/2000/svg"
><!--Generated by the Batik Graphics2D SVG Generator--><defs id="genericDefs"
  /><g
  ><defs id="defs1"
    ><clipPath clipPathUnits="userSpaceOnUse" id="clipPath1"
      ><path d="M342 134 L364 134 L364 156 L342 156 L342 134 Z"
      /></clipPath
      ><clipPath clipPathUnits="userSpaceOnUse" id="clipPath2"
      ><path d="M290 134 L312 134 L312 156 L290 156 L290 134 Z"
      /></clipPath
      ><clipPath clipPathUnits="userSpaceOnUse" id="clipPath3"
      ><path d="M260 145 C260 151.0751 255.0751 156 249 156 C242.9249 156 238 151.0751 238 145 C238 138.9249 242.9249 134 249 134 C255.0751 134 260 138.9249 260 145 Z"
      /></clipPath
      ><clipPath clipPathUnits="userSpaceOnUse" id="clipPath4"
      ><path d="M208 197 C208 203.0751 203.0751 208 197 208 C190.9249 208 186 203.0751 186 197 C186 190.9249 190.9249 186 197 186 C203.0751 186 208 190.9249 208 197 Z"
      /></clipPath
      ><clipPath clipPathUnits="userSpaceOnUse" id="clipPath5"
      ><path d="M134 238 L156 238 L156 260 L134 260 L134 238 Z"
      /></clipPath
      ><clipPath clipPathUnits="userSpaceOnUse" id="clipPath6"
      ><path style="fill-rule:evenodd;" d="M145 290 L156 312 L134 312 Z"
      /></clipPath
      ><clipPath clipPathUnits="userSpaceOnUse" id="clipPath7"
      ><path d="M104 249 C104 255.0751 99.0751 260 93 260 C86.9249 260 82 255.0751 82 249 C82 242.9249 86.9249 238 93 238 C99.0751 238 104 242.9249 104 249 Z"
      /></clipPath
      ><clipPath clipPathUnits="userSpaceOnUse" id="clipPath8"
      ><path style="fill-rule:evenodd;" d="M41 238 L52 249 L41 260 L30 249 Z"
      /></clipPath
      ><clipPath clipPathUnits="userSpaceOnUse" id="clipPath9"
      ><path d="M134 134 L156 134 L156 156 L134 156 L134 134 Z"
      /></clipPath
      ><clipPath clipPathUnits="userSpaceOnUse" id="clipPath10"
      ><path style="fill-rule:evenodd;" d="M145 186 L156 208 L134 208 Z"
      /></clipPath
      ><clipPath clipPathUnits="userSpaceOnUse" id="clipPath11"
      ><path d="M104 145 C104 151.0751 99.0751 156 93 156 C86.9249 156 82 151.0751 82 145 C82 138.9249 86.9249 134 93 134 C99.0751 134 104 138.9249 104 145 Z"
      /></clipPath
      ><clipPath clipPathUnits="userSpaceOnUse" id="clipPath12"
      ><path d="M186 134 L208 134 L208 156 L186 156 L186 134 Z"
      /></clipPath
      ><clipPath clipPathUnits="userSpaceOnUse" id="clipPath13"
      ><path d="M208 67 C208 73.0751 203.0751 78 197 78 C190.9249 78 186 73.0751 186 67 C186 60.9249 190.9249 56 197 56 C203.0751 56 208 60.9249 208 67 Z"
      /></clipPath
      ><clipPath clipPathUnits="userSpaceOnUse" id="clipPath14"
      ><path d="M156 93 C156 99.0751 151.0751 104 145 104 C138.9249 104 134 99.0751 134 93 C134 86.9249 138.9249 82 145 82 C151.0751 82 156 86.9249 156 93 Z"
      /></clipPath
      ><clipPath clipPathUnits="userSpaceOnUse" id="clipPath15"
      ><path d="M156 41 C156 47.0751 151.0751 52 145 52 C138.9249 52 134 47.0751 134 41 C134 34.9249 138.9249 30 145 30 C151.0751 30 156 34.9249 156 41 Z"
      /></clipPath
    ></defs
    ><g style="fill:white; text-rendering:optimizeSpeed; stroke:white;"
    ><rect x="0" width="446" height="342" y="0" style="stroke:none;"
      /><polygon style="fill:none; stroke:black;" points=" 405 145 353 145"
      /><path d="M405 134 C399.5 139.5 410.5 150.5 405 156" style="fill:none; stroke:black;"
      /><polygon style="fill:none; stroke:black;" points=" 353 145 301 145"
      /><rect x="342" y="134" width="22" style="clip-path:url(#clipPath1); stroke:none;" height="22"
      /><rect x="342" y="134" width="22" style="clip-path:url(#clipPath1); fill:rgb(0,144,188); stroke:none;" height="22"
      /><rect x="342" y="134" width="22" style="clip-path:url(#clipPath1); fill:none; stroke:black;" height="22"
      /><rect x="342" y="134" width="22" style="fill:none; stroke:black;" height="22"
      /><polygon style="fill:none; stroke:black;" points=" 301 145 249 145"
      /><rect x="290" y="134" width="22" style="clip-path:url(#clipPath2); stroke:none;" height="22"
      /><rect x="290" y="134" width="22" style="clip-path:url(#clipPath2); fill:rgb(0,144,188); stroke:none;" height="22"
      /><rect x="290" y="134" width="22" style="clip-path:url(#clipPath2); fill:none; stroke:black;" height="22"
      /><rect x="290" y="134" width="22" style="fill:none; stroke:black;" height="22"
      /><polygon style="fill:none; stroke:black;" points=" 249 145 197 197"
      /><polygon style="fill:none; stroke:black;" points=" 249 145 197 145"
      /><polygon style="fill:none; stroke:black;" points=" 249 145 197 67"
      /><circle style="clip-path:url(#clipPath3); stroke:none;" r="11" cx="249" cy="145"
      /><rect x="238" y="134" width="22" style="clip-path:url(#clipPath3); fill:rgb(0,166,81); stroke:none;" height="22"
      /><rect x="238" y="134" width="22" style="clip-path:url(#clipPath3); fill:none; stroke:black;" height="22"
      /><circle style="fill:none; stroke:black;" r="11" cx="249" cy="145"
      /><polygon style="fill:none; stroke:black;" points=" 197 197 145 249"
      /><polygon style="fill:none; stroke:black;" points=" 197 197 145 145"
      /><circle style="clip-path:url(#clipPath4); stroke:none;" r="11" cx="197" cy="197"
      /><rect x="186" y="186" width="22" style="clip-path:url(#clipPath4); fill:rgb(0,166,81); stroke:none;" height="22"
      /><rect x="186" y="186" width="22" style="clip-path:url(#clipPath4); fill:none; stroke:black;" height="22"
      /><circle style="fill:none; stroke:black;" r="11" cx="197" cy="197"
      /><polygon style="fill:none; stroke:black;" points=" 145 249 145 301"
      /><polygon style="fill:none; stroke:black;" points=" 145 249 93 249"
      /><rect x="134" y="238" width="22" style="clip-path:url(#clipPath5); stroke:none;" height="22"
      /><rect x="134" y="238" width="22" style="clip-path:url(#clipPath5); fill:rgb(0,144,188); stroke:none;" height="22"
      /><rect x="134" y="238" width="22" style="clip-path:url(#clipPath5); fill:none; stroke:black;" height="22"
      /><rect x="134" y="238" width="22" style="fill:none; stroke:black;" height="22"
      /><polygon style="clip-path:url(#clipPath6); stroke:none;" points=" 145 290 156 312 134 312"
      /><rect x="134" y="290" width="22" style="clip-path:url(#clipPath6); fill:rgb(237,28,36); stroke:none;" height="22"
      /><rect x="134" y="290" width="22" style="clip-path:url(#clipPath6); fill:none; stroke:black;" height="22"
      /><polygon style="fill:none; stroke:black;" points=" 145 290 156 312 134 312"
      /><polygon style="fill:none; stroke:black;" points=" 93 249 41 249"
      /><circle style="clip-path:url(#clipPath7); stroke:none;" r="11" cx="93" cy="249"
      /><rect x="82" y="238" width="22" style="clip-path:url(#clipPath7); fill:rgb(255,212,0); stroke:none;" height="22"
      /><rect x="82" y="238" width="22" style="clip-path:url(#clipPath7); fill:none; stroke:black;" height="22"
      /><circle style="fill:none; stroke:black;" r="11" cx="93" cy="249"
      /><polygon style="clip-path:url(#clipPath8); stroke:none;" points=" 41 238 52 249 41 260 30 249"
      /><rect x="30" y="238" width="22" style="clip-path:url(#clipPath8); fill:rgb(165,67,153); stroke:none;" height="22"
      /><rect x="30" y="238" width="22" style="clip-path:url(#clipPath8); fill:none; stroke:black;" height="22"
      /><polygon style="fill:none; stroke:black;" points=" 41 238 52 249 41 260 30 249"
      /><rect x="66" y="250" width="16" style="stroke:none;" height="13"
    /></g
    ><g style="font-family:'Serif'; text-rendering:optimizeSpeed; "
    ><path style="stroke:none;" d="M68.2344 254.6562 C68.5156 254.5938 68.7656 254.5625 69.0156 254.5625 C70.0625 254.5625 70.6719 255.1719 70.6719 256.2656 C70.6719 257.4375 69.9062 258.1094 68.7031 258.1094 L68.1875 258.1094 L68.1875 258.6406 L68.7969 258.6406 C70.2188 258.6406 70.9062 259.4219 70.9062 260.6406 C70.9062 261.8438 70.1719 262.6875 68.875 262.6875 C68.6094 262.6875 68.3125 262.6562 68.0156 262.5625 L67.7812 261.8125 C67.625 261.2812 67.5 261.0469 67.1406 261.0469 C66.8906 261.0469 66.7031 261.1719 66.5781 261.4219 C66.8438 262.6406 67.7812 263.1719 69.0312 263.1719 C70.7188 263.1719 71.875 262.125 71.875 260.7031 C71.875 259.5 71.2031 258.625 69.7969 258.375 C70.9531 258.0156 71.6094 257.2031 71.6094 256.2031 C71.6094 254.9219 70.6719 254.0781 69.1875 254.0781 C68.0469 254.0781 67.0625 254.5938 66.7969 255.6875 C66.9062 256 67.1094 256.1094 67.3594 256.1094 C67.7344 256.1094 67.8906 255.8906 68 255.4062 L68.2344 254.6562 ZM72.4993 265.0938 L73.1087 265.0938 L76.6087 253.7344 L75.9837 253.7344 L72.4993 265.0938 ZM79.9878 262.6875 C78.8472 262.6875 78.1753 261.5 78.1753 259.2969 C78.1753 259.2188 78.1753 259.125 78.1753 259.0469 C78.7378 258.5 79.3628 258.3125 79.9878 258.3125 C80.9566 258.3125 81.5972 258.9844 81.5972 260.4531 C81.5972 261.9375 80.9566 262.6875 79.9878 262.6875 ZM82.1753 254.0781 C78.9878 254.4531 77.2066 256.7656 77.2066 259.4531 C77.2066 261.7812 78.2534 263.1719 79.9566 263.1719 C81.4878 263.1719 82.5659 262.1094 82.5659 260.2812 C82.5659 258.6875 81.6128 257.6562 80.2066 257.6562 C79.4722 257.6562 78.7847 257.9844 78.2222 258.5781 C78.4409 256.4062 79.7222 254.9688 82.2378 254.3906 L82.1753 254.0781 Z"
      /><rect x="56" y="253" width="8" style="fill:white; stroke:none;" height="8"
      /><path style="stroke:none;" d="M60.9844 258.7031 C60.9375 259.8906 60.1562 260.6562 59.3125 260.6562 C58.2656 260.6562 57.5 259.6875 57.5 257.7188 C57.5 256.2812 58.1562 255.1562 59.3438 255.1562 C60.1406 255.1562 60.7812 255.6875 61.0938 256.6406 L60.9844 258.7031 ZM62.9062 260.2812 C62.7344 260.375 62.5469 260.4219 62.3438 260.4219 C61.9531 260.4219 61.75 260.2188 61.75 259.4219 C61.75 258.4844 61.9688 256.5312 62.1875 254.8281 L62.0312 254.7188 L61.2344 254.9219 L61.1406 255.7969 C60.7812 255.0312 60.1562 254.6562 59.3906 254.6562 C58.0469 254.6562 56.5625 255.8438 56.5625 257.9531 C56.5625 260.0938 57.7188 261.1719 59.1406 261.1719 C60.0156 261.1719 60.6875 260.8125 61.0938 259.9844 C61.2031 260.8594 61.5156 261.1719 62.0156 261.1719 C62.4688 261.1719 62.7969 260.9062 63.0156 260.5625 L62.9062 260.2812 Z"
      /><rect x="150" y="263" width="6" style="fill:white; stroke:none;" height="10"
      /><path style="stroke:none;" d="M152.2344 264.6562 C152.5156 264.5938 152.7656 264.5625 153.0156 264.5625 C154.0625 264.5625 154.6719 265.1719 154.6719 266.2656 C154.6719 267.4375 153.9062 268.1094 152.7031 268.1094 L152.1875 268.1094 L152.1875 268.6406 L152.7969 268.6406 C154.2188 268.6406 154.9062 269.4219 154.9062 270.6406 C154.9062 271.8438 154.1719 272.6875 152.875 272.6875 C152.6094 272.6875 152.3125 272.6562 152.0156 272.5625 L151.7812 271.8125 C151.625 271.2812 151.5 271.0469 151.1406 271.0469 C150.8906 271.0469 150.7031 271.1719 150.5781 271.4219 C150.8438 272.6406 151.7812 273.1719 153.0312 273.1719 C154.7188 273.1719 155.875 272.125 155.875 270.7031 C155.875 269.5 155.2031 268.625 153.7969 268.375 C154.9531 268.0156 155.6094 267.2031 155.6094 266.2031 C155.6094 264.9219 154.6719 264.0781 153.1875 264.0781 C152.0469 264.0781 151.0625 264.5938 150.7969 265.6875 C150.9062 266 151.1094 266.1094 151.3594 266.1094 C151.7344 266.1094 151.8906 265.8906 152 265.4062 L152.2344 264.6562 Z"
      /><rect x="149" y="278" width="8" style="fill:white; stroke:none;" height="8"
      /><path style="stroke:none;" d="M153.9844 283.7031 C153.9375 284.8906 153.1562 285.6562 152.3125 285.6562 C151.2656 285.6562 150.5 284.6875 150.5 282.7188 C150.5 281.2812 151.1562 280.1562 152.3438 280.1562 C153.1406 280.1562 153.7812 280.6875 154.0938 281.6406 L153.9844 283.7031 ZM155.9062 285.2812 C155.7344 285.375 155.5469 285.4219 155.3438 285.4219 C154.9531 285.4219 154.75 285.2188 154.75 284.4219 C154.75 283.4844 154.9688 281.5312 155.1875 279.8281 L155.0312 279.7188 L154.2344 279.9219 L154.1406 280.7969 C153.7812 280.0312 153.1562 279.6562 152.3906 279.6562 C151.0469 279.6562 149.5625 280.8438 149.5625 282.9531 C149.5625 285.0938 150.7188 286.1719 152.1406 286.1719 C153.0156 286.1719 153.6875 285.8125 154.0938 284.9844 C154.2031 285.8594 154.5156 286.1719 155.0156 286.1719 C155.4688 286.1719 155.7969 285.9062 156.0156 285.5625 L155.9062 285.2812 Z"
      /><rect x="122" y="252" width="7" style="fill:white; stroke:none;" height="9"
      /><path style="stroke:none;" d="M123 257.5156 L125.9531 253.2656 L125.9531 257.5156 L123 257.5156 ZM128.2812 257.5156 L126.8594 257.5156 L126.8594 252.125 L126.2344 252.125 L122.3438 257.6406 L122.3438 258.1875 L125.9531 258.1875 L125.9531 261 L126.8594 261 L126.8594 258.1875 L128.2812 258.1875 L128.2812 257.5156 Z"
      /><rect x="109" y="250" width="6" style="fill:white; stroke:none;" height="13"
      /><path style="stroke:none;" d="M111.0938 256.2031 C111.0938 254.6562 111.75 253.8125 112.7969 253.8125 C113.7188 253.8125 114.2656 254.4531 114.2656 255.5156 C114.2656 256.7188 113.5 257.4375 112.1875 257.7031 L112.2969 258.3125 C114.2188 258.2344 114.9375 259.2188 114.9375 260.4375 C114.9375 261.625 114.2344 262.4219 112.9531 262.4219 C112.25 262.4219 111.6562 262.1562 111.0938 261.7188 L111.0938 256.2031 ZM110.2031 262.9062 L110.1094 265.375 L110.2656 265.4844 L111.1562 265.2656 L111.0156 262.0938 C111.5469 262.8438 112.3594 263.1719 113.1719 263.1719 C114.5625 263.1719 115.8594 262.2188 115.8594 260.4844 C115.8594 258.9531 114.875 258.1094 113.125 258 C114.5625 257.6094 115.1875 256.4531 115.1875 255.4844 C115.1875 254.0938 114.1562 253.3125 112.9062 253.3125 C111.2969 253.3125 110.2188 254.5469 110.2188 256.5156 L110.2031 262.9062 Z"
      /><polygon style="fill:none;" points=" 145 145 145 197"
      /><polygon style="fill:none;" points=" 145 145 93 145"
      /><rect x="134" y="134" width="22" style="clip-path:url(#clipPath9); fill:white; stroke:none;" height="22"
      /><rect x="134" y="134" width="22" style="clip-path:url(#clipPath9); fill:rgb(0,144,188); stroke:none;" height="22"
      /><rect x="134" y="134" width="22" style="fill:none; clip-path:url(#clipPath9);" height="22"
      /><rect x="134" width="22" height="22" y="134" style="fill:none;"
      /><polygon style="fill:white; clip-path:url(#clipPath10); stroke:none;" points=" 145 186 156 208 134 208"
      /><rect x="134" y="186" width="22" style="clip-path:url(#clipPath10); fill:rgb(237,28,36); stroke:none;" height="22"
      /><rect x="134" y="186" width="22" style="fill:none; clip-path:url(#clipPath10);" height="22"
      /><polygon style="fill:none;" points=" 145 186 156 208 134 208"
      /><circle style="fill:white; clip-path:url(#clipPath11); stroke:none;" r="11" cx="93" cy="145"
      /><rect x="82" y="134" width="22" style="clip-path:url(#clipPath11); fill:rgb(255,212,0); stroke:none;" height="22"
      /><rect x="82" y="134" width="22" style="fill:none; clip-path:url(#clipPath11);" height="22"
      /><circle r="11" style="fill:none;" cx="93" cy="145"
      /><rect x="150" y="159" width="6" style="fill:white; stroke:none;" height="10"
      /><path style="stroke:none;" d="M152.2344 160.6562 C152.5156 160.5938 152.7656 160.5625 153.0156 160.5625 C154.0625 160.5625 154.6719 161.1719 154.6719 162.2656 C154.6719 163.4375 153.9062 164.1094 152.7031 164.1094 L152.1875 164.1094 L152.1875 164.6406 L152.7969 164.6406 C154.2188 164.6406 154.9062 165.4219 154.9062 166.6406 C154.9062 167.8438 154.1719 168.6875 152.875 168.6875 C152.6094 168.6875 152.3125 168.6562 152.0156 168.5625 L151.7812 167.8125 C151.625 167.2812 151.5 167.0469 151.1406 167.0469 C150.8906 167.0469 150.7031 167.1719 150.5781 167.4219 C150.8438 168.6406 151.7812 169.1719 153.0312 169.1719 C154.7188 169.1719 155.875 168.125 155.875 166.7031 C155.875 165.5 155.2031 164.625 153.7969 164.375 C154.9531 164.0156 155.6094 163.2031 155.6094 162.2031 C155.6094 160.9219 154.6719 160.0781 153.1875 160.0781 C152.0469 160.0781 151.0625 160.5938 150.7969 161.6875 C150.9062 162 151.1094 162.1094 151.3594 162.1094 C151.7344 162.1094 151.8906 161.8906 152 161.4062 L152.2344 160.6562 Z"
      /><rect x="149" y="174" width="8" style="fill:white; stroke:none;" height="8"
      /><path style="stroke:none;" d="M153.9844 179.7031 C153.9375 180.8906 153.1562 181.6562 152.3125 181.6562 C151.2656 181.6562 150.5 180.6875 150.5 178.7188 C150.5 177.2812 151.1562 176.1562 152.3438 176.1562 C153.1406 176.1562 153.7812 176.6875 154.0938 177.6406 L153.9844 179.7031 ZM155.9062 181.2812 C155.7344 181.375 155.5469 181.4219 155.3438 181.4219 C154.9531 181.4219 154.75 181.2188 154.75 180.4219 C154.75 179.4844 154.9688 177.5312 155.1875 175.8281 L155.0312 175.7188 L154.2344 175.9219 L154.1406 176.7969 C153.7812 176.0312 153.1562 175.6562 152.3906 175.6562 C151.0469 175.6562 149.5625 176.8438 149.5625 178.9531 C149.5625 181.0938 150.7188 182.1719 152.1406 182.1719 C153.0156 182.1719 153.6875 181.8125 154.0938 180.9844 C154.2031 181.8594 154.5156 182.1719 155.0156 182.1719 C155.4688 182.1719 155.7969 181.9062 156.0156 181.5625 L155.9062 181.2812 Z"
      /><rect x="122" y="148" width="7" style="fill:white; stroke:none;" height="9"
      /><path style="stroke:none;" d="M123 153.5156 L125.9531 149.2656 L125.9531 153.5156 L123 153.5156 ZM128.2812 153.5156 L126.8594 153.5156 L126.8594 148.125 L126.2344 148.125 L122.3438 153.6406 L122.3438 154.1875 L125.9531 154.1875 L125.9531 157 L126.8594 157 L126.8594 154.1875 L128.2812 154.1875 L128.2812 153.5156 Z"
      /><rect x="109" y="146" width="6" style="fill:white; stroke:none;" height="13"
      /><path style="stroke:none;" d="M111.0938 152.2031 C111.0938 150.6562 111.75 149.8125 112.7969 149.8125 C113.7188 149.8125 114.2656 150.4531 114.2656 151.5156 C114.2656 152.7188 113.5 153.4375 112.1875 153.7031 L112.2969 154.3125 C114.2188 154.2344 114.9375 155.2188 114.9375 156.4375 C114.9375 157.625 114.2344 158.4219 112.9531 158.4219 C112.25 158.4219 111.6562 158.1562 111.0938 157.7188 L111.0938 152.2031 ZM110.2031 158.9062 L110.1094 161.375 L110.2656 161.4844 L111.1562 161.2656 L111.0156 158.0938 C111.5469 158.8438 112.3594 159.1719 113.1719 159.1719 C114.5625 159.1719 115.8594 158.2188 115.8594 156.4844 C115.8594 154.9531 114.875 154.1094 113.125 154 C114.5625 153.6094 115.1875 152.4531 115.1875 151.4844 C115.1875 150.0938 114.1562 149.3125 112.9062 149.3125 C111.2969 149.3125 110.2188 150.5469 110.2188 152.5156 L110.2031 158.9062 Z"
      /><rect x="183" y="214" width="6" style="fill:white; stroke:none;" height="9"
      /><path style="stroke:none;" d="M184.4219 222.0938 C185.0781 221.375 185.7031 220.7188 186.0312 220.3438 C187.9219 218.3125 188.5312 217.4688 188.5312 216.3594 C188.5312 215.0156 187.7812 214.0781 186.1562 214.0781 C184.9062 214.0781 183.7969 214.7031 183.5938 215.9688 C183.7188 216.2031 183.9062 216.3438 184.1562 216.3438 C184.4688 216.3438 184.6562 216.1094 184.7969 215.5938 L185.0938 214.6719 C185.3906 214.5938 185.6562 214.5625 185.8906 214.5625 C186.9219 214.5625 187.5469 215.3125 187.5469 216.4219 C187.5469 217.4375 186.9844 218.4219 185.7031 219.9062 C185.125 220.5781 184.3906 221.4375 183.6406 222.2812 L183.6406 223 L188.9219 223 L188.9219 222.0938 L184.4219 222.0938 Z"
      /><rect x="164" y="231" width="6" style="fill:white; stroke:none;" height="13"
      /><path style="stroke:none;" d="M166.0938 237.2031 C166.0938 235.6562 166.75 234.8125 167.7969 234.8125 C168.7188 234.8125 169.2656 235.4531 169.2656 236.5156 C169.2656 237.7188 168.5 238.4375 167.1875 238.7031 L167.2969 239.3125 C169.2188 239.2344 169.9375 240.2188 169.9375 241.4375 C169.9375 242.625 169.2344 243.4219 167.9531 243.4219 C167.25 243.4219 166.6562 243.1562 166.0938 242.7188 L166.0938 237.2031 ZM165.2031 243.9062 L165.1094 246.375 L165.2656 246.4844 L166.1562 246.2656 L166.0156 243.0938 C166.5469 243.8438 167.3594 244.1719 168.1719 244.1719 C169.5625 244.1719 170.8594 243.2188 170.8594 241.4844 C170.8594 239.9531 169.875 239.1094 168.125 239 C169.5625 238.6094 170.1875 237.4531 170.1875 236.4844 C170.1875 235.0938 169.1562 234.3125 167.9062 234.3125 C166.2969 234.3125 165.2188 235.5469 165.2188 237.5156 L165.2031 243.9062 Z"
      /><rect x="171" y="181" width="7" style="fill:white; stroke:none;" height="9"
      /><path style="stroke:none;" d="M172 186.5156 L174.9531 182.2656 L174.9531 186.5156 L172 186.5156 ZM177.2812 186.5156 L175.8594 186.5156 L175.8594 181.125 L175.2344 181.125 L171.3438 186.6406 L171.3438 187.1875 L174.9531 187.1875 L174.9531 190 L175.8594 190 L175.8594 187.1875 L177.2812 187.1875 L177.2812 186.5156 Z"
      /><rect x="153" y="160" width="6" style="fill:white; stroke:none;" height="13"
      /><path style="stroke:none;" d="M155.0938 166.2031 C155.0938 164.6562 155.75 163.8125 156.7969 163.8125 C157.7188 163.8125 158.2656 164.4531 158.2656 165.5156 C158.2656 166.7188 157.5 167.4375 156.1875 167.7031 L156.2969 168.3125 C158.2188 168.2344 158.9375 169.2188 158.9375 170.4375 C158.9375 171.625 158.2344 172.4219 156.9531 172.4219 C156.25 172.4219 155.6562 172.1562 155.0938 171.7188 L155.0938 166.2031 ZM154.2031 172.9062 L154.1094 175.375 L154.2656 175.4844 L155.1562 175.2656 L155.0156 172.0938 C155.5469 172.8438 156.3594 173.1719 157.1719 173.1719 C158.5625 173.1719 159.8594 172.2188 159.8594 170.4844 C159.8594 168.9531 158.875 168.1094 157.125 168 C158.5625 167.6094 159.1875 166.4531 159.1875 165.4844 C159.1875 164.0938 158.1562 163.3125 156.9062 163.3125 C155.2969 163.3125 154.2188 164.5469 154.2188 166.5156 L154.2031 172.9062 Z"
      /><rect x="186" y="134" width="22" style="clip-path:url(#clipPath12); fill:white; stroke:none;" height="22"
      /><rect x="186" y="134" width="22" style="clip-path:url(#clipPath12); fill:rgb(0,144,188); stroke:none;" height="22"
      /><rect x="186" y="134" width="22" style="fill:none; clip-path:url(#clipPath12);" height="22"
      /><rect x="186" width="22" height="22" y="134" style="fill:none;"
      /><polygon style="fill:none;" points=" 197 67 145 93"
      /><polygon style="fill:none;" points=" 197 67 145 41"
      /><circle style="fill:white; clip-path:url(#clipPath13); stroke:none;" r="11" cx="197" cy="67"
      /><rect x="186" y="56" width="22" style="clip-path:url(#clipPath13); fill:rgb(0,166,81); stroke:none;" height="22"
      /><rect x="186" y="56" width="22" style="fill:none; clip-path:url(#clipPath13);" height="22"
      /><circle r="11" style="fill:none;" cx="197" cy="67"
      /><circle style="fill:white; clip-path:url(#clipPath14); stroke:none;" r="11" cx="145" cy="93"
      /><rect x="134" y="82" width="22" style="clip-path:url(#clipPath14); fill:rgb(0,166,81); stroke:none;" height="22"
      /><rect x="134" y="82" width="22" style="fill:none; clip-path:url(#clipPath14);" height="22"
      /><circle r="11" style="fill:none;" cx="145" cy="93"
      /><circle style="fill:white; clip-path:url(#clipPath15); stroke:none;" r="11" cx="145" cy="41"
      /><rect x="134" y="30" width="22" style="clip-path:url(#clipPath15); fill:rgb(0,166,81); stroke:none;" height="22"
      /><rect x="134" y="30" width="22" style="fill:none; clip-path:url(#clipPath15);" height="22"
      /><circle r="11" style="fill:none;" cx="145" cy="41"
      /><rect x="179" y="78" width="6" style="fill:white; stroke:none;" height="10"
      /><path style="stroke:none;" d="M181.2344 79.6562 C181.5156 79.5938 181.7656 79.5625 182.0156 79.5625 C183.0625 79.5625 183.6719 80.1719 183.6719 81.2656 C183.6719 82.4375 182.9062 83.1094 181.7031 83.1094 L181.1875 83.1094 L181.1875 83.6406 L181.7969 83.6406 C183.2188 83.6406 183.9062 84.4219 183.9062 85.6406 C183.9062 86.8438 183.1719 87.6875 181.875 87.6875 C181.6094 87.6875 181.3125 87.6562 181.0156 87.5625 L180.7812 86.8125 C180.625 86.2812 180.5 86.0469 180.1406 86.0469 C179.8906 86.0469 179.7031 86.1719 179.5781 86.4219 C179.8438 87.6406 180.7812 88.1719 182.0312 88.1719 C183.7188 88.1719 184.875 87.125 184.875 85.7031 C184.875 84.5 184.2031 83.625 182.7969 83.375 C183.9531 83.0156 184.6094 82.2031 184.6094 81.2031 C184.6094 79.9219 183.6719 79.0781 182.1875 79.0781 C181.0469 79.0781 180.0625 79.5938 179.7969 80.6875 C179.9062 81 180.1094 81.1094 180.3594 81.1094 C180.7344 81.1094 180.8906 80.8906 181 80.4062 L181.2344 79.6562 Z"
      /><rect x="162" y="87" width="8" style="fill:white; stroke:none;" height="8"
      /><path style="stroke:none;" d="M166.9844 92.7031 C166.9375 93.8906 166.1562 94.6562 165.3125 94.6562 C164.2656 94.6562 163.5 93.6875 163.5 91.7188 C163.5 90.2812 164.1562 89.1562 165.3438 89.1562 C166.1406 89.1562 166.7812 89.6875 167.0938 90.6406 L166.9844 92.7031 ZM168.9062 94.2812 C168.7344 94.375 168.5469 94.4219 168.3438 94.4219 C167.9531 94.4219 167.75 94.2188 167.75 93.4219 C167.75 92.4844 167.9688 90.5312 168.1875 88.8281 L168.0312 88.7188 L167.2344 88.9219 L167.1406 89.7969 C166.7812 89.0312 166.1562 88.6562 165.3906 88.6562 C164.0469 88.6562 162.5625 89.8438 162.5625 91.9531 C162.5625 94.0938 163.7188 95.1719 165.1406 95.1719 C166.0156 95.1719 166.6875 94.8125 167.0938 93.9844 C167.2031 94.8594 167.5156 95.1719 168.0156 95.1719 C168.4688 95.1719 168.7969 94.9062 169.0156 94.5625 L168.9062 94.2812 Z"
      /><rect x="172" y="60" width="6" style="fill:white; stroke:none;" height="10"
      /><path style="stroke:none;" d="M175.3438 69.6875 C174.2031 69.6875 173.5312 68.5 173.5312 66.2969 C173.5312 66.2188 173.5312 66.125 173.5312 66.0469 C174.0938 65.5 174.7188 65.3125 175.3438 65.3125 C176.3125 65.3125 176.9531 65.9844 176.9531 67.4531 C176.9531 68.9375 176.3125 69.6875 175.3438 69.6875 ZM177.5312 61.0781 C174.3438 61.4531 172.5625 63.7656 172.5625 66.4531 C172.5625 68.7812 173.6094 70.1719 175.3125 70.1719 C176.8438 70.1719 177.9219 69.1094 177.9219 67.2812 C177.9219 65.6875 176.9688 64.6562 175.5625 64.6562 C174.8281 64.6562 174.1406 64.9844 173.5781 65.5781 C173.7969 63.4062 175.0781 61.9688 177.5938 61.3906 L177.5312 61.0781 Z"
      /><rect x="155" y="53" width="8" style="fill:white; stroke:none;" height="8"
      /><path style="stroke:none;" d="M159.9844 58.7031 C159.9375 59.8906 159.1562 60.6562 158.3125 60.6562 C157.2656 60.6562 156.5 59.6875 156.5 57.7188 C156.5 56.2812 157.1562 55.1562 158.3438 55.1562 C159.1406 55.1562 159.7812 55.6875 160.0938 56.6406 L159.9844 58.7031 ZM161.9062 60.2812 C161.7344 60.375 161.5469 60.4219 161.3438 60.4219 C160.9531 60.4219 160.75 60.2188 160.75 59.4219 C160.75 58.4844 160.9688 56.5312 161.1875 54.8281 L161.0312 54.7188 L160.2344 54.9219 L160.1406 55.7969 C159.7812 55.0312 159.1562 54.6562 158.3906 54.6562 C157.0469 54.6562 155.5625 55.8438 155.5625 57.9531 C155.5625 60.0938 156.7188 61.1719 158.1406 61.1719 C159.0156 61.1719 159.6875 60.8125 160.0938 59.9844 C160.2031 60.8594 160.5156 61.1719 161.0156 61.1719 C161.4688 61.1719 161.7969 60.9062 162.0156 60.5625 L161.9062 60.2812 Z"
      /><rect x="235" y="162" width="6" style="fill:white; stroke:none;" height="10"
      /><path style="stroke:none;" d="M237.2344 163.6562 C237.5156 163.5938 237.7656 163.5625 238.0156 163.5625 C239.0625 163.5625 239.6719 164.1719 239.6719 165.2656 C239.6719 166.4375 238.9062 167.1094 237.7031 167.1094 L237.1875 167.1094 L237.1875 167.6406 L237.7969 167.6406 C239.2188 167.6406 239.9062 168.4219 239.9062 169.6406 C239.9062 170.8438 239.1719 171.6875 237.875 171.6875 C237.6094 171.6875 237.3125 171.6562 237.0156 171.5625 L236.7812 170.8125 C236.625 170.2812 236.5 170.0469 236.1406 170.0469 C235.8906 170.0469 235.7031 170.1719 235.5781 170.4219 C235.8438 171.6406 236.7812 172.1719 238.0312 172.1719 C239.7188 172.1719 240.875 171.125 240.875 169.7031 C240.875 168.5 240.2031 167.625 238.7969 167.375 C239.9531 167.0156 240.6094 166.2031 240.6094 165.2031 C240.6094 163.9219 239.6719 163.0781 238.1875 163.0781 C237.0469 163.0781 236.0625 163.5938 235.7969 164.6875 C235.9062 165 236.1094 165.1094 236.3594 165.1094 C236.7344 165.1094 236.8906 164.8906 237 164.4062 L237.2344 163.6562 Z"
      /><rect x="215" y="182" width="8" style="fill:white; stroke:none;" height="8"
      /><path style="stroke:none;" d="M219.9844 187.7031 C219.9375 188.8906 219.1562 189.6562 218.3125 189.6562 C217.2656 189.6562 216.5 188.6875 216.5 186.7188 C216.5 185.2812 217.1562 184.1562 218.3438 184.1562 C219.1406 184.1562 219.7812 184.6875 220.0938 185.6406 L219.9844 187.7031 ZM221.9062 189.2812 C221.7344 189.375 221.5469 189.4219 221.3438 189.4219 C220.9531 189.4219 220.75 189.2188 220.75 188.4219 C220.75 187.4844 220.9688 185.5312 221.1875 183.8281 L221.0312 183.7188 L220.2344 183.9219 L220.1406 184.7969 C219.7812 184.0312 219.1562 183.6562 218.3906 183.6562 C217.0469 183.6562 215.5625 184.8438 215.5625 186.9531 C215.5625 189.0938 216.7188 190.1719 218.1406 190.1719 C219.0156 190.1719 219.6875 189.8125 220.0938 188.9844 C220.2031 189.8594 220.5156 190.1719 221.0156 190.1719 C221.4688 190.1719 221.7969 189.9062 222.0156 189.5625 L221.9062 189.2812 Z"
      /><rect x="226" y="148" width="7" style="fill:white; stroke:none;" height="9"
      /><path style="stroke:none;" d="M227 153.5156 L229.9531 149.2656 L229.9531 153.5156 L227 153.5156 ZM232.2812 153.5156 L230.8594 153.5156 L230.8594 148.125 L230.2344 148.125 L226.3438 153.6406 L226.3438 154.1875 L229.9531 154.1875 L229.9531 157 L230.8594 157 L230.8594 154.1875 L232.2812 154.1875 L232.2812 153.5156 Z"
      /><rect x="213" y="146" width="6" style="fill:white; stroke:none;" height="13"
      /><path style="stroke:none;" d="M215.0938 152.2031 C215.0938 150.6562 215.75 149.8125 216.7969 149.8125 C217.7188 149.8125 218.2656 150.4531 218.2656 151.5156 C218.2656 152.7188 217.5 153.4375 216.1875 153.7031 L216.2969 154.3125 C218.2188 154.2344 218.9375 155.2188 218.9375 156.4375 C218.9375 157.625 218.2344 158.4219 216.9531 158.4219 C216.25 158.4219 215.6562 158.1562 215.0938 157.7188 L215.0938 152.2031 ZM214.2031 158.9062 L214.1094 161.375 L214.2656 161.4844 L215.1562 161.2656 L215.0156 158.0938 C215.5469 158.8438 216.3594 159.1719 217.1719 159.1719 C218.5625 159.1719 219.8594 158.2188 219.8594 156.4844 C219.8594 154.9531 218.875 154.1094 217.125 154 C218.5625 153.6094 219.1875 152.4531 219.1875 151.4844 C219.1875 150.0938 218.1562 149.3125 216.9062 149.3125 C215.2969 149.3125 214.2188 150.5469 214.2188 152.5156 L214.2031 158.9062 Z"
      /><rect x="227" y="126" width="6" style="fill:white; stroke:none;" height="10"
      /><path style="stroke:none;" d="M230.3438 135.6875 C229.2031 135.6875 228.5312 134.5 228.5312 132.2969 C228.5312 132.2188 228.5312 132.125 228.5312 132.0469 C229.0938 131.5 229.7188 131.3125 230.3438 131.3125 C231.3125 131.3125 231.9531 131.9844 231.9531 133.4531 C231.9531 134.9375 231.3125 135.6875 230.3438 135.6875 ZM232.5312 127.0781 C229.3438 127.4531 227.5625 129.7656 227.5625 132.4531 C227.5625 134.7812 228.6094 136.1719 230.3125 136.1719 C231.8438 136.1719 232.9219 135.1094 232.9219 133.2812 C232.9219 131.6875 231.9688 130.6562 230.5625 130.6562 C229.8281 130.6562 229.1406 130.9844 228.5781 131.5781 C228.7969 129.4062 230.0781 127.9688 232.5938 127.3906 L232.5312 127.0781 Z"
      /><rect x="198" y="85" width="8" style="fill:white; stroke:none;" height="8"
      /><path style="stroke:none;" d="M202.9844 90.7031 C202.9375 91.8906 202.1562 92.6562 201.3125 92.6562 C200.2656 92.6562 199.5 91.6875 199.5 89.7188 C199.5 88.2812 200.1562 87.1562 201.3438 87.1562 C202.1406 87.1562 202.7812 87.6875 203.0938 88.6406 L202.9844 90.7031 ZM204.9062 92.2812 C204.7344 92.375 204.5469 92.4219 204.3438 92.4219 C203.9531 92.4219 203.75 92.2188 203.75 91.4219 C203.75 90.4844 203.9688 88.5312 204.1875 86.8281 L204.0312 86.7188 L203.2344 86.9219 L203.1406 87.7969 C202.7812 87.0312 202.1562 86.6562 201.3906 86.6562 C200.0469 86.6562 198.5625 87.8438 198.5625 89.9531 C198.5625 92.0938 199.7188 93.1719 201.1406 93.1719 C202.0156 93.1719 202.6875 92.8125 203.0938 91.9844 C203.2031 92.8594 203.5156 93.1719 204.0156 93.1719 C204.4688 93.1719 204.7969 92.9062 205.0156 92.5625 L204.9062 92.2812 Z"
      /><rect x="278" y="148" width="7" style="fill:white; stroke:none;" height="9"
      /><path style="stroke:none;" d="M279 153.5156 L281.9531 149.2656 L281.9531 153.5156 L279 153.5156 ZM284.2812 153.5156 L282.8594 153.5156 L282.8594 148.125 L282.2344 148.125 L278.3438 153.6406 L278.3438 154.1875 L281.9531 154.1875 L281.9531 157 L282.8594 157 L282.8594 154.1875 L284.2812 154.1875 L284.2812 153.5156 Z"
      /><rect x="265" y="146" width="6" style="fill:white; stroke:none;" height="13"
      /><path style="stroke:none;" d="M267.0938 152.2031 C267.0938 150.6562 267.75 149.8125 268.7969 149.8125 C269.7188 149.8125 270.2656 150.4531 270.2656 151.5156 C270.2656 152.7188 269.5 153.4375 268.1875 153.7031 L268.2969 154.3125 C270.2188 154.2344 270.9375 155.2188 270.9375 156.4375 C270.9375 157.625 270.2344 158.4219 268.9531 158.4219 C268.25 158.4219 267.6562 158.1562 267.0938 157.7188 L267.0938 152.2031 ZM266.2031 158.9062 L266.1094 161.375 L266.2656 161.4844 L267.1562 161.2656 L267.0156 158.0938 C267.5469 158.8438 268.3594 159.1719 269.1719 159.1719 C270.5625 159.1719 271.8594 158.2188 271.8594 156.4844 C271.8594 154.9531 270.875 154.1094 269.125 154 C270.5625 153.6094 271.1875 152.4531 271.1875 151.4844 C271.1875 150.0938 270.1562 149.3125 268.9062 149.3125 C267.2969 149.3125 266.2188 150.5469 266.2188 152.5156 L266.2031 158.9062 Z"
      /><rect x="330" y="148" width="7" style="fill:white; stroke:none;" height="9"
      /><path style="stroke:none;" d="M331 153.5156 L333.9531 149.2656 L333.9531 153.5156 L331 153.5156 ZM336.2812 153.5156 L334.8594 153.5156 L334.8594 148.125 L334.2344 148.125 L330.3438 153.6406 L330.3438 154.1875 L333.9531 154.1875 L333.9531 157 L334.8594 157 L334.8594 154.1875 L336.2812 154.1875 L336.2812 153.5156 Z"
      /><rect x="317" y="146" width="6" style="fill:white; stroke:none;" height="13"
      /><path style="stroke:none;" d="M319.0938 152.2031 C319.0938 150.6562 319.75 149.8125 320.7969 149.8125 C321.7188 149.8125 322.2656 150.4531 322.2656 151.5156 C322.2656 152.7188 321.5 153.4375 320.1875 153.7031 L320.2969 154.3125 C322.2188 154.2344 322.9375 155.2188 322.9375 156.4375 C322.9375 157.625 322.2344 158.4219 320.9531 158.4219 C320.25 158.4219 319.6562 158.1562 319.0938 157.7188 L319.0938 152.2031 ZM318.2031 158.9062 L318.1094 161.375 L318.2656 161.4844 L319.1562 161.2656 L319.0156 158.0938 C319.5469 158.8438 320.3594 159.1719 321.1719 159.1719 C322.5625 159.1719 323.8594 158.2188 323.8594 156.4844 C323.8594 154.9531 322.875 154.1094 321.125 154 C322.5625 153.6094 323.1875 152.4531 323.1875 151.4844 C323.1875 150.0938 322.1562 149.3125 320.9062 149.3125 C319.2969 149.3125 318.2188 150.5469 318.2188 152.5156 L318.2031 158.9062 Z"
      /><rect x="369" y="148" width="5" style="fill:white; stroke:none;" height="10"
      /><path style="stroke:none;" d="M370.8906 156.6875 C370.4844 156.6875 370.1562 157.0469 370.1562 157.4219 C370.1562 157.8125 370.4844 158.1562 370.8906 158.1562 C371.2969 158.1562 371.6406 157.8125 371.6406 157.4219 C371.6406 157.0469 371.2969 156.6875 370.8906 156.6875 ZM372.4688 150.5781 C372.7188 150.8906 372.875 151.2656 372.8906 151.6562 C372.8906 152.1875 372.625 152.5 372.0312 152.7656 L371.4062 153.0156 C370.6406 153.3125 370.3906 153.5469 370.3906 153.9375 C370.3906 154.1094 370.4531 154.3438 370.5781 154.8125 L370.7344 155.3438 L371.1094 155.3438 L371.0938 154.5312 C371.0938 154.0938 371.2031 153.9688 371.7812 153.7344 L372.2031 153.5625 C373.0312 153.2188 373.4531 152.6875 373.4531 151.8438 C373.4531 150.1562 371.6562 149.1875 370.5 149.0312 C370.1094 149.125 369.9062 149.2969 369.9062 149.6406 C369.9062 149.9375 370.0625 150.1562 370.7188 150.2656 L372.4688 150.5781 Z"
    /></g
  ></g
></svg
>
