<?xml version="1.0"?>
<!DOCTYPE svg PUBLIC '-//W3C//DTD SVG 1.0//EN'
          'http://www.w3.org/TR/2001/REC-SVG-20010904/DTD/svg10.dtd'>
<svg xmlns:xlink="http://www.w3.org/1999/xlink" style="fill-opacity:1; color-rendering:auto; color-interpolation:auto; text-rendering:auto; stroke:black; stroke-linecap:square; stroke-miterlimit:10; shape-rendering:auto; stroke-opacity:1; fill:black; stroke-dasharray:none; font-weight:normal; stroke-width:1; font-family:'Dialog'; font-style:normal; stroke-linejoin:miter; font-size:12px; stroke-dashoffset:0; image-rendering:auto;" viewBox="0 0 158 120" xmlns="http://www.w3.org/2000/svg"
><!--Generated by the Batik Graphics2D SVG Generator--><defs id="genericDefs"
  /><g
  ><defs id="defs1"
    ><clipPath clipPathUnits="userSpaceOnUse" id="clipPath1"
      ><path style="fill-rule:evenodd;" d="M53 30 L63 37 L59 49 L46 49 L42 37 L53 30 Z"
      /></clipPath
    ></defs
    ><g style="fill:white; text-rendering:optimizeSpeed; stroke:white;"
    ><rect x="0" width="158" height="120" y="0" style="stroke:none;"
      /><polygon style="fill:none; stroke:black;" points=" 117 41 53 41"
      /><path d="M117 30 C111.5 35.5 122.5 46.5 117 52" style="fill:none; stroke:black;"
      /><polygon style="clip-path:url(#clipPath1); stroke:none;" points=" 53 30 63 37 59 49 46 49 42 37 53 30"
      /><rect x="42" y="30" width="22" style="clip-path:url(#clipPath1); stroke:none;" height="22"
      /><rect x="42" y="30" width="22" style="clip-path:url(#clipPath1); fill:none; stroke:black;" height="22"
      /><polygon style="fill:none; stroke:black;" points=" 53 30 63 37 59 49 46 49 42 37 53 30"
    /></g
    ><g style="text-rendering:optimizeSpeed; font-size:14px; font-family:'SansSerif';"
    ><path style="stroke:none;" d="M51.2344 46 L56.8594 46 L56.8594 44.9375 L54.7969 44.9375 L54.7969 35.7188 L53.8281 35.7188 C53.2656 36.0625 52.6094 36.2969 51.6875 36.4688 L51.6875 37.2812 L53.5156 37.2812 L53.5156 44.9375 L51.2344 44.9375 L51.2344 46 Z"
      /><path style="stroke:none;" d="M35.4844 68 L40.5625 68 L40.5625 67.125 L38.3281 67.125 C37.9219 67.125 37.4219 67.1719 37 67.2031 C38.8906 65.4219 40.1562 63.7812 40.1562 62.1719 C40.1562 60.7344 39.25 59.7812 37.8125 59.7812 C36.7969 59.7812 36.0938 60.25 35.4375 60.9688 L36.0156 61.5469 C36.4688 61.0156 37.0312 60.6094 37.6875 60.6094 C38.7031 60.6094 39.1875 61.2812 39.1875 62.2031 C39.1875 63.5938 38.0156 65.1875 35.4844 67.4062 L35.4844 68 ZM42.1987 68 L43.1362 68 L43.1362 63.5312 C43.1362 62.8438 43.0581 61.8594 43.0112 61.1562 L43.0581 61.1562 L43.6831 63 L45.2143 67.1875 L45.9018 67.1875 L47.4331 63 L48.0737 61.1562 L48.1049 61.1562 C48.0581 61.8594 47.9799 62.8438 47.9799 63.5312 L47.9799 68 L48.9331 68 L48.9331 59.9219 L47.6987 59.9219 L46.1674 64.25 C45.9799 64.8125 45.8081 65.375 45.6206 65.9375 L45.5581 65.9375 C45.3549 65.375 45.1674 64.8125 44.9956 64.25 L43.4331 59.9219 L42.1987 59.9219 L42.1987 68 ZM53.4588 68.1406 C54.2713 68.1406 54.9119 67.875 55.4431 67.5312 L55.0681 66.8594 C54.6306 67.1562 54.1619 67.3438 53.5838 67.3438 C52.4431 67.3438 51.6619 66.5312 51.5994 65.25 L55.6306 65.25 C55.6463 65.1094 55.6619 64.8906 55.6619 64.6719 C55.6619 62.9688 54.8181 61.875 53.2869 61.875 C51.9119 61.875 50.5994 63.0781 50.5994 65.0156 C50.5994 66.9844 51.8806 68.1406 53.4588 68.1406 ZM51.5838 64.5312 C51.7088 63.3594 52.4588 62.6719 53.3025 62.6719 C54.24 62.6719 54.7869 63.3281 54.7869 64.5312 L51.5838 64.5312 ZM60.209 68.1406 C62.2402 68.1406 63.6621 66.5312 63.6621 63.9375 C63.6621 61.3594 62.2402 59.7812 60.209 59.7812 C58.1933 59.7812 56.7715 61.3594 56.7715 63.9375 C56.7715 66.5312 58.1933 68.1406 60.209 68.1406 ZM60.209 67.25 C58.7558 67.25 57.8183 65.9531 57.8183 63.9375 C57.8183 61.9219 58.7558 60.6719 60.209 60.6719 C61.6465 60.6719 62.6152 61.9219 62.6152 63.9375 C62.6152 65.9531 61.6465 67.25 60.209 67.25 ZM65.3865 68 L66.4178 68 L66.4178 64.1875 L70.1834 64.1875 L70.1834 68 L71.1834 68 L71.1834 59.9219 L70.1834 59.9219 L70.1834 63.3125 L66.4178 63.3125 L66.4178 59.9219 L65.3865 59.9219 L65.3865 68 Z"
    /></g
    ><g style="fill:white; text-rendering:optimizeSpeed; font-family:'Serif'; stroke:white;"
    ><rect x="81" width="5" height="10" y="44" style="stroke:none;"
      /><path d="M82.8906 52.6875 C82.4844 52.6875 82.1562 53.0469 82.1562 53.4219 C82.1562 53.8125 82.4844 54.1562 82.8906 54.1562 C83.2969 54.1562 83.6406 53.8125 83.6406 53.4219 C83.6406 53.0469 83.2969 52.6875 82.8906 52.6875 ZM84.4688 46.5781 C84.7188 46.8906 84.875 47.2656 84.8906 47.6562 C84.8906 48.1875 84.625 48.5 84.0312 48.7656 L83.4062 49.0156 C82.6406 49.3125 82.3906 49.5469 82.3906 49.9375 C82.3906 50.1094 82.4531 50.3438 82.5781 50.8125 L82.7344 51.3438 L83.1094 51.3438 L83.0938 50.5312 C83.0938 50.0938 83.2031 49.9688 83.7812 49.7344 L84.2031 49.5625 C85.0312 49.2188 85.4531 48.6875 85.4531 47.8438 C85.4531 46.1562 83.6562 45.1875 82.5 45.0312 C82.1094 45.125 81.9062 45.2969 81.9062 45.6406 C81.9062 45.9375 82.0625 46.1562 82.7188 46.2656 L84.4688 46.5781 Z" style="fill:black; stroke:none;"
    /></g
    ><g ID="legend-1:0" style="text-rendering:optimizeSpeed; font-size:10px; font-family:'SansSerif';"
    ><path style="stroke:none;" d="M30.875 90 L34.9062 90 L34.9062 89.2344 L33.4375 89.2344 L33.4375 82.6562 L32.7344 82.6562 C32.3281 82.9062 31.8594 83.0625 31.2031 83.1875 L31.2031 83.7656 L32.5156 83.7656 L32.5156 89.2344 L30.875 89.2344 L30.875 90 ZM35.925 85.4531 L40.7219 85.4531 L40.7219 84.7656 L35.925 84.7656 L35.925 85.4531 ZM35.925 87.8438 L40.7219 87.8438 L40.7219 87.1719 L35.925 87.1719 L35.925 87.8438 ZM43.2719 90.125 C43.9437 90.125 44.5531 89.7812 45.0687 89.3438 L45.1 89.3438 L45.1781 90 L45.9281 90 L45.9281 86.6562 C45.9281 85.3125 45.3656 84.4375 44.0531 84.4375 C43.1781 84.4375 42.4125 84.8125 41.9125 85.1406 L42.2719 85.7656 C42.6937 85.4844 43.2719 85.1875 43.8969 85.1875 C44.7875 85.1875 45.0219 85.8594 45.0219 86.5625 C42.7094 86.8125 41.6781 87.4062 41.6781 88.5938 C41.6781 89.5625 42.3656 90.125 43.2719 90.125 ZM43.5375 89.4062 C42.9906 89.4062 42.5687 89.1562 42.5687 88.5312 C42.5687 87.8281 43.1937 87.375 45.0219 87.1562 L45.0219 88.6875 C44.4906 89.1562 44.0531 89.4062 43.5375 89.4062 ZM48.615 90.125 C48.865 90.125 49.0212 90.0938 49.1462 90.0469 L49.0212 89.3438 C48.9275 89.375 48.8806 89.375 48.8337 89.375 C48.6931 89.375 48.5681 89.2656 48.5681 88.9844 L48.5681 82.0469 L47.6618 82.0469 L47.6618 88.9219 C47.6618 89.6875 47.9431 90.125 48.615 90.125 ZM52.3556 90.125 C53.0118 90.125 53.5743 89.7812 54.0118 89.3594 L54.0431 89.3594 L54.1212 90 L54.8556 90 L54.8556 82.0469 L53.965 82.0469 L53.965 84.125 L53.9962 85.0625 C53.5275 84.6719 53.1056 84.4375 52.465 84.4375 C51.2306 84.4375 50.1212 85.5312 50.1212 87.2969 C50.1212 89.0938 50.9962 90.125 52.3556 90.125 ZM52.5587 89.375 C51.6056 89.375 51.0587 88.5938 51.0587 87.2812 C51.0587 86.0469 51.7462 85.2031 52.6368 85.2031 C53.0743 85.2031 53.4962 85.3594 53.965 85.7656 L53.965 88.625 C53.4962 89.125 53.0587 89.375 52.5587 89.375 ZM58.8993 90.125 C59.6337 90.125 60.2275 89.875 60.6962 89.5625 L60.3681 88.9688 C59.9775 89.2344 59.54 89.4062 59.0087 89.4062 C57.9775 89.4062 57.2743 88.6562 57.2118 87.5 L60.8681 87.5 C60.8837 87.375 60.915 87.1875 60.915 86.9844 C60.915 85.4375 60.1337 84.4375 58.7431 84.4375 C57.4931 84.4375 56.3056 85.5312 56.3056 87.2969 C56.3056 89.0781 57.4618 90.125 58.8993 90.125 ZM57.1962 86.8438 C57.3056 85.7812 57.9931 85.1562 58.7587 85.1562 C59.6025 85.1562 60.1025 85.75 60.1025 86.8438 L57.1962 86.8438 ZM62.2518 90 L63.1581 90 L63.1581 86.0625 C63.705 85.5156 64.0956 85.2344 64.6425 85.2344 C65.3768 85.2344 65.6737 85.6562 65.6737 86.6875 L65.6737 90 L66.5956 90 L66.5956 86.5625 C66.5956 85.1719 66.0643 84.4375 64.9237 84.4375 C64.1893 84.4375 63.6268 84.8438 63.1268 85.3438 L63.1581 84.2188 L63.1581 82.0469 L62.2518 82.0469 L62.2518 90 ZM68.4156 92.3438 C69.4937 92.3438 70.0562 91.5156 70.4312 90.4531 L72.4781 84.5625 L71.5874 84.5625 L70.6187 87.5938 C70.4624 88.0625 70.3062 88.625 70.1656 89.1094 L70.1031 89.1094 C69.9468 88.625 69.7437 88.0625 69.5874 87.5938 L68.4781 84.5625 L67.5249 84.5625 L69.7124 90.0156 L69.5874 90.4219 C69.3687 91.0938 68.9781 91.5938 68.3531 91.5938 C68.2124 91.5938 68.0562 91.5469 67.9468 91.5 L67.7749 92.2344 C67.9468 92.2969 68.1499 92.3438 68.4156 92.3438 ZM75.3756 90.125 C76.0318 90.125 76.5943 89.7812 77.0318 89.3594 L77.0631 89.3594 L77.1412 90 L77.8756 90 L77.8756 82.0469 L76.9849 82.0469 L76.9849 84.125 L77.0162 85.0625 C76.5474 84.6719 76.1256 84.4375 75.4849 84.4375 C74.2506 84.4375 73.1412 85.5312 73.1412 87.2969 C73.1412 89.0938 74.0162 90.125 75.3756 90.125 ZM75.5787 89.375 C74.6256 89.375 74.0787 88.5938 74.0787 87.2812 C74.0787 86.0469 74.7662 85.2031 75.6568 85.2031 C76.0943 85.2031 76.5162 85.3594 76.9849 85.7656 L76.9849 88.625 C76.5162 89.125 76.0787 89.375 75.5787 89.375 ZM81.9193 90.125 C82.6537 90.125 83.2474 89.875 83.7162 89.5625 L83.3881 88.9688 C82.9974 89.2344 82.5599 89.4062 82.0287 89.4062 C80.9974 89.4062 80.2943 88.6562 80.2318 87.5 L83.8881 87.5 C83.9037 87.375 83.9349 87.1875 83.9349 86.9844 C83.9349 85.4375 83.1537 84.4375 81.7631 84.4375 C80.5131 84.4375 79.3256 85.5312 79.3256 87.2969 C79.3256 89.0781 80.4818 90.125 81.9193 90.125 ZM80.2162 86.8438 C80.3256 85.7812 81.0131 85.1562 81.7787 85.1562 C82.6224 85.1562 83.1224 85.75 83.1224 86.8438 L80.2162 86.8438 ZM84.8031 87.5469 L87.3656 87.5469 L87.3656 86.8438 L84.8031 86.8438 L84.8031 87.5469 ZM88.8199 90 L90.6949 90 C92.9137 90 94.1168 88.625 94.1168 86.3125 C94.1168 83.9844 92.9137 82.6562 90.6637 82.6562 L88.8199 82.6562 L88.8199 90 ZM89.7574 89.2344 L89.7574 83.4219 L90.5856 83.4219 C92.3043 83.4219 93.1637 84.4531 93.1637 86.3125 C93.1637 88.1562 92.3043 89.2344 90.5856 89.2344 L89.7574 89.2344 ZM95.1431 87.5469 L97.7056 87.5469 L97.7056 86.8438 L95.1431 86.8438 L95.1431 87.5469 ZM100.6912 90 L101.6131 90 L101.6131 83.4531 L103.8474 83.4531 L103.8474 82.6562 L98.4724 82.6562 L98.4724 83.4531 L100.6912 83.4531 L100.6912 90 ZM105.0718 90 L105.978 90 L105.978 86.0625 C106.5249 85.5156 106.9155 85.2344 107.4624 85.2344 C108.1968 85.2344 108.4937 85.6562 108.4937 86.6875 L108.4937 90 L109.4155 90 L109.4155 86.5625 C109.4155 85.1719 108.8843 84.4375 107.7437 84.4375 C107.0093 84.4375 106.4468 84.8438 105.9468 85.3438 L105.978 84.2188 L105.978 82.0469 L105.0718 82.0469 L105.0718 90 ZM111.1418 90 L112.048 90 L112.048 86.5156 C112.4074 85.5781 112.9699 85.2656 113.423 85.2656 C113.6418 85.2656 113.7668 85.2812 113.9543 85.3438 L114.1262 84.5469 C113.9543 84.4531 113.7824 84.4375 113.5324 84.4375 C112.923 84.4375 112.3762 84.875 112.0012 85.5625 L111.9699 85.5625 L111.8918 84.5625 L111.1418 84.5625 L111.1418 90 ZM114.5374 90 L119.1468 90 L119.1468 89.2031 L117.1155 89.2031 C116.7561 89.2031 116.303 89.25 115.9124 89.2812 C117.6468 87.6562 118.7874 86.1562 118.7874 84.7031 C118.7874 83.3906 117.9749 82.5312 116.6624 82.5312 C115.7249 82.5312 115.0999 82.9531 114.5061 83.6094 L115.0374 84.125 C115.428 83.6562 115.9436 83.2812 116.553 83.2812 C117.4593 83.2812 117.8968 83.8906 117.8968 84.7344 C117.8968 85.9844 116.8343 87.4531 114.5374 89.4531 L114.5374 90 ZM123.4155 90.125 C124.3686 90.125 125.0874 89.75 125.6655 89.0781 L125.1655 88.5 C124.6968 89.0156 124.1655 89.3125 123.4624 89.3125 C122.0561 89.3125 121.1811 88.1562 121.1811 86.3125 C121.1811 84.4844 122.103 83.3438 123.4936 83.3438 C124.1186 83.3438 124.603 83.625 124.9936 84.0469 L125.4936 83.4375 C125.0718 82.9688 124.3686 82.5312 123.478 82.5312 C121.6186 82.5312 120.228 83.9688 120.228 86.3438 C120.228 88.7188 121.603 90.125 123.4155 90.125 ZM127.0299 90 L127.8736 90 L127.8736 85.9375 C127.8736 85.3125 127.7955 84.4219 127.7643 83.7812 L127.7955 83.7812 L128.3736 85.4531 L129.7643 89.2656 L130.3893 89.2656 L131.7799 85.4531 L132.358 83.7812 L132.4049 83.7812 C132.3424 84.4219 132.2799 85.3125 132.2799 85.9375 L132.2799 90 L133.1549 90 L133.1549 82.6562 L132.0299 82.6562 L130.6236 86.5938 C130.4674 87.0938 130.2955 87.6094 130.1236 88.125 L130.0768 88.125 C129.9049 87.6094 129.733 87.0938 129.5611 86.5938 L128.1549 82.6562 L127.0299 82.6562 L127.0299 90 ZM137.2592 90.125 C137.9936 90.125 138.5874 89.875 139.0561 89.5625 L138.728 88.9688 C138.3374 89.2344 137.8999 89.4062 137.3686 89.4062 C136.3374 89.4062 135.6342 88.6562 135.5717 87.5 L139.228 87.5 C139.2436 87.375 139.2749 87.1875 139.2749 86.9844 C139.2749 85.4375 138.4936 84.4375 137.103 84.4375 C135.853 84.4375 134.6655 85.5312 134.6655 87.2969 C134.6655 89.0781 135.8217 90.125 137.2592 90.125 ZM135.5561 86.8438 C135.6655 85.7812 136.353 85.1562 137.1186 85.1562 C137.9624 85.1562 138.4624 85.75 138.4624 86.8438 L135.5561 86.8438 ZM143.393 90.125 C145.2367 90.125 146.5336 88.6562 146.5336 86.3125 C146.5336 83.9531 145.2367 82.5312 143.393 82.5312 C141.5649 82.5312 140.268 83.9531 140.268 86.3125 C140.268 88.6562 141.5649 90.125 143.393 90.125 ZM143.393 89.3125 C142.0805 89.3125 141.2211 88.1406 141.2211 86.3125 C141.2211 84.4688 142.0805 83.3438 143.393 83.3438 C144.7055 83.3438 145.5805 84.4688 145.5805 86.3125 C145.5805 88.1406 144.7055 89.3125 143.393 89.3125 ZM148.1099 90 L149.0474 90 L149.0474 86.5469 L152.4536 86.5469 L152.4536 90 L153.3755 90 L153.3755 82.6562 L152.4536 82.6562 L152.4536 85.7344 L149.0474 85.7344 L149.0474 82.6562 L148.1099 82.6562 L148.1099 90 Z"
    /></g
  ></g
></svg
>
