<?xml version="1.0"?>
<!DOCTYPE svg PUBLIC '-//W3C//DTD SVG 1.0//EN'
          'http://www.w3.org/TR/2001/REC-SVG-20010904/DTD/svg10.dtd'>
<svg xmlns:xlink="http://www.w3.org/1999/xlink" style="fill-opacity:1; color-rendering:auto; color-interpolation:auto; text-rendering:auto; stroke:black; stroke-linecap:square; stroke-miterlimit:10; shape-rendering:auto; stroke-opacity:1; fill:black; stroke-dasharray:none; font-weight:normal; stroke-width:1; font-family:'Dialog'; font-style:normal; stroke-linejoin:miter; font-size:12px; stroke-dashoffset:0; image-rendering:auto;" viewBox="0 0 300 128" xmlns="http://www.w3.org/2000/svg"
><!--Generated by the Batik Graphics2D SVG Generator--><defs id="genericDefs"
  /><g
  ><defs id="defs1"
    ><clipPath clipPathUnits="userSpaceOnUse" id="clipPath1"
      ><path d="M196 53 L218 53 L218 75 L196 75 L196 53 Z"
      /></clipPath
      ><clipPath clipPathUnits="userSpaceOnUse" id="clipPath2"
      ><path style="fill-rule:evenodd;" d="M152 53 L163 64 L152 75 L141 64 Z"
      /></clipPath
      ><clipPath clipPathUnits="userSpaceOnUse" id="clipPath3"
      ><path d="M87 53 L109 53 L109 75 L87 75 L87 53 Z"
      /></clipPath
      ><clipPath clipPathUnits="userSpaceOnUse" id="clipPath4"
      ><path style="fill-rule:evenodd;" d="M43 53 L54 64 L43 75 L32 64 Z"
      /></clipPath
    ></defs
    ><g style="fill:white; text-rendering:optimizeSpeed; stroke:white;"
    ><rect x="0" width="300" height="128" y="0" style="stroke:none;"
      /><polygon style="fill:none; stroke:black;" points=" 259 64 207 64"
      /><path d="M259 53 C253.5 58.5 264.5 69.5 259 75" style="fill:none; stroke:black;"
      /><polygon style="fill:none; stroke:black;" points=" 207 64 152 64"
      /><rect x="196" y="53" width="22" style="clip-path:url(#clipPath1); stroke:none;" height="22"
      /><polygon style="fill:rgb(0,144,188); clip-path:url(#clipPath1); stroke:none;" points=" 196 53 218 53 218 75"
      /><polygon style="fill:none; clip-path:url(#clipPath1); stroke:black;" points=" 196 53 218 53 218 75"
      /><rect x="196" y="53" width="22" style="fill:none; stroke:black;" height="22"
      /><rect x="199" y="35" width="14" style="stroke:none;" height="10"
    /></g
    ><g style="text-rendering:optimizeSpeed; font-size:14px; font-family:'SansSerif';"
    ><path style="stroke:none;" d="M203.1094 40.5781 C204.3438 40.5781 204.9688 41.4688 204.9688 42.8438 C204.9688 44.25 204.1875 45.1875 203.2188 45.1875 C201.9219 45.1875 201.1562 44.0312 201 41.8906 C201.625 40.9531 202.4531 40.5781 203.1094 40.5781 ZM203.2188 46.1875 C204.8125 46.1875 206.1562 44.8438 206.1562 42.8438 C206.1562 40.7031 205.0469 39.625 203.3125 39.625 C202.5 39.625 201.6094 40.1094 200.9688 40.875 C201.0312 37.6875 202.2188 36.6094 203.625 36.6094 C204.25 36.6094 204.8594 36.9062 205.2656 37.3906 L205.9688 36.5938 C205.4062 35.9844 204.6406 35.5469 203.5781 35.5469 C201.5938 35.5469 199.7812 37.0781 199.7812 41.0938 C199.7812 44.4844 201.2344 46.1875 203.2188 46.1875 ZM211.02 46.1875 C213.1606 46.1875 214.5043 44.8906 214.5043 43.2656 C214.5043 41.75 213.5825 41.0469 212.395 40.5312 L210.9262 39.8906 C210.1293 39.5625 209.2387 39.1875 209.2387 38.1875 C209.2387 37.2656 209.9887 36.6719 211.145 36.6719 C212.0981 36.6719 212.8637 37.0469 213.4887 37.6406 L214.1762 36.8125 C213.4418 36.0625 212.3637 35.5469 211.145 35.5469 C209.2856 35.5469 207.9106 36.6875 207.9106 38.2656 C207.9106 39.7656 209.0512 40.5 210.0043 40.9062 L211.4887 41.5469 C212.4575 41.9844 213.1918 42.3125 213.1918 43.375 C213.1918 44.375 212.3793 45.0469 211.0356 45.0469 C209.9731 45.0469 208.9418 44.5469 208.2075 43.7812 L207.4262 44.6562 C208.3168 45.5938 209.5668 46.1875 211.02 46.1875 Z"
      /><polygon style="fill:none;" points=" 152 64 98 64"
    /></g
    ><g style="fill:white; text-rendering:optimizeSpeed; stroke:white;"
    ><polygon style="stroke:none; clip-path:url(#clipPath2);" points=" 152 53 163 64 152 75 141 64"
      /><rect x="141" y="64" width="22" style="clip-path:url(#clipPath2); fill:rgb(161,122,77); stroke:none;" height="11"
      /><rect x="141" y="64" width="22" style="clip-path:url(#clipPath2); fill:none; stroke:black;" height="11"
      /><polygon style="fill:none; stroke:black;" points=" 152 53 163 64 152 75 141 64"
      /><rect x="144" width="14" height="10" y="81" style="stroke:none;"
    /></g
    ><g style="text-rendering:optimizeSpeed; font-size:14px; font-family:'SansSerif';"
    ><path style="stroke:none;" d="M144.6094 92 L151.0625 92 L151.0625 90.8906 L148.2344 90.8906 C147.7031 90.8906 147.0781 90.9531 146.5469 90.9844 C148.9531 88.7031 150.5625 86.625 150.5625 84.5781 C150.5625 82.75 149.4219 81.5469 147.5781 81.5469 C146.2812 81.5469 145.4062 82.1406 144.5625 83.0469 L145.2969 83.7812 C145.8594 83.1094 146.5938 82.5938 147.4375 82.5938 C148.7031 82.5938 149.3125 83.4531 149.3125 84.625 C149.3125 86.3906 147.8438 88.4375 144.6094 91.25 L144.6094 92 ZM156.02 92.1875 C158.1606 92.1875 159.5043 90.8906 159.5043 89.2656 C159.5043 87.75 158.5825 87.0469 157.395 86.5312 L155.9262 85.8906 C155.1293 85.5625 154.2387 85.1875 154.2387 84.1875 C154.2387 83.2656 154.9887 82.6719 156.145 82.6719 C157.0981 82.6719 157.8637 83.0469 158.4887 83.6406 L159.1762 82.8125 C158.4418 82.0625 157.3637 81.5469 156.145 81.5469 C154.2856 81.5469 152.9106 82.6875 152.9106 84.2656 C152.9106 85.7656 154.0512 86.5 155.0043 86.9062 L156.4887 87.5469 C157.4575 87.9844 158.1918 88.3125 158.1918 89.375 C158.1918 90.375 157.3793 91.0469 156.0356 91.0469 C154.9731 91.0469 153.9418 90.5469 153.2075 89.7812 L152.4262 90.6562 C153.3168 91.5938 154.5668 92.1875 156.02 92.1875 Z"
      /><rect x="139" y="35" width="25" style="fill:white; stroke:none;" height="10"
      /><path style="stroke:none;" d="M143.1094 40.5781 C144.3438 40.5781 144.9688 41.4688 144.9688 42.8438 C144.9688 44.25 144.1875 45.1875 143.2188 45.1875 C141.9219 45.1875 141.1562 44.0312 141 41.8906 C141.625 40.9531 142.4531 40.5781 143.1094 40.5781 ZM143.2188 46.1875 C144.8125 46.1875 146.1562 44.8438 146.1562 42.8438 C146.1562 40.7031 145.0469 39.625 143.3125 39.625 C142.5 39.625 141.6094 40.1094 140.9688 40.875 C141.0312 37.6875 142.2188 36.6094 143.625 36.6094 C144.25 36.6094 144.8594 36.9062 145.2656 37.3906 L145.9688 36.5938 C145.4062 35.9844 144.6406 35.5469 143.5781 35.5469 C141.5938 35.5469 139.7812 37.0781 139.7812 41.0938 C139.7812 44.4844 141.2344 46.1875 143.2188 46.1875 ZM148.1762 46 L149.3481 46 L149.3481 40.3125 C149.3481 39.4375 149.2543 38.1875 149.1918 37.2969 L149.2543 37.2969 L150.0668 39.625 L152.0043 44.9688 L152.8793 44.9688 L154.8168 39.625 L155.6293 37.2969 L155.6918 37.2969 C155.6137 38.1875 155.52 39.4375 155.52 40.3125 L155.52 46 L156.7387 46 L156.7387 35.7188 L155.1762 35.7188 L153.2075 41.2188 C152.9731 41.9375 152.7543 42.6562 152.5043 43.375 L152.4418 43.375 C152.1918 42.6562 151.9575 41.9375 151.7075 41.2188 L149.7387 35.7188 L148.1762 35.7188 L148.1762 46 ZM162.4973 46.1875 C163.5285 46.1875 164.341 45.8281 165.0129 45.3906 L164.5442 44.5625 C163.9973 44.9375 163.3879 45.1562 162.6535 45.1562 C161.2004 45.1562 160.216 44.125 160.1223 42.5 L165.2473 42.5 C165.2785 42.3125 165.3098 42.0469 165.3098 41.7656 C165.3098 39.6094 164.216 38.2031 162.2785 38.2031 C160.5129 38.2031 158.8567 39.7344 158.8567 42.2031 C158.8567 44.7188 160.4817 46.1875 162.4973 46.1875 ZM160.1067 41.5781 C160.2629 40.0938 161.216 39.2188 162.2942 39.2188 C163.4817 39.2188 164.1848 40.0469 164.1848 41.5781 L160.1067 41.5781 Z"
      /><polygon style="fill:none;" points=" 98 64 43 64"
    /></g
    ><g style="fill:white; text-rendering:optimizeSpeed; stroke:white;"
    ><rect x="87" y="53" width="22" style="clip-path:url(#clipPath3); stroke:none;" height="22"
      /><polygon style="fill:rgb(0,144,188); clip-path:url(#clipPath3); stroke:none;" points=" 87 53 109 53 109 75"
      /><polygon style="fill:none; clip-path:url(#clipPath3); stroke:black;" points=" 87 53 109 53 109 75"
      /><rect x="87" y="53" width="22" style="fill:none; stroke:black;" height="22"
      /><rect x="90" width="15" height="10" y="81" style="stroke:none;"
    /></g
    ><g style="text-rendering:optimizeSpeed; font-size:14px; font-family:'SansSerif';"
    ><path style="stroke:none;" d="M93.7031 92.1875 C95.5156 92.1875 96.9844 91.0938 96.9844 89.25 C96.9844 87.8594 96.0156 86.9375 94.8125 86.6562 L94.8125 86.5938 C95.8906 86.1875 96.6406 85.3594 96.6406 84.125 C96.6406 82.5 95.375 81.5469 93.6562 81.5469 C92.4688 81.5469 91.5469 82.0625 90.7812 82.7812 L91.4688 83.5938 C92.0469 83 92.7656 82.5938 93.5938 82.5938 C94.6562 82.5938 95.3281 83.2344 95.3281 84.2188 C95.3281 85.3281 94.6094 86.1719 92.4844 86.1719 L92.4844 87.1562 C94.8594 87.1562 95.6875 87.9844 95.6875 89.2031 C95.6875 90.3906 94.8125 91.125 93.5938 91.125 C92.4375 91.125 91.6562 90.5781 91.0469 89.9375 L90.4062 90.7812 C91.0781 91.5156 92.0938 92.1875 93.7031 92.1875 ZM102.02 92.1875 C104.1606 92.1875 105.5043 90.8906 105.5043 89.2656 C105.5043 87.75 104.5825 87.0469 103.395 86.5312 L101.9262 85.8906 C101.1293 85.5625 100.2387 85.1875 100.2387 84.1875 C100.2387 83.2656 100.9887 82.6719 102.145 82.6719 C103.0981 82.6719 103.8637 83.0469 104.4887 83.6406 L105.1762 82.8125 C104.4418 82.0625 103.3637 81.5469 102.145 81.5469 C100.2856 81.5469 98.9106 82.6875 98.9106 84.2656 C98.9106 85.7656 100.0512 86.5 101.0043 86.9062 L102.4887 87.5469 C103.4575 87.9844 104.1918 88.3125 104.1918 89.375 C104.1918 90.375 103.3793 91.0469 102.0356 91.0469 C100.9731 91.0469 99.9418 90.5469 99.2075 89.7812 L98.4262 90.6562 C99.3168 91.5938 100.5668 92.1875 102.02 92.1875 Z"
      /><rect x="90" y="35" width="14" style="fill:white; stroke:none;" height="10"
      /><path style="stroke:none;" d="M94.1094 40.5781 C95.3438 40.5781 95.9688 41.4688 95.9688 42.8438 C95.9688 44.25 95.1875 45.1875 94.2188 45.1875 C92.9219 45.1875 92.1562 44.0312 92 41.8906 C92.625 40.9531 93.4531 40.5781 94.1094 40.5781 ZM94.2188 46.1875 C95.8125 46.1875 97.1562 44.8438 97.1562 42.8438 C97.1562 40.7031 96.0469 39.625 94.3125 39.625 C93.5 39.625 92.6094 40.1094 91.9688 40.875 C92.0312 37.6875 93.2188 36.6094 94.625 36.6094 C95.25 36.6094 95.8594 36.9062 96.2656 37.3906 L96.9688 36.5938 C96.4062 35.9844 95.6406 35.5469 94.5781 35.5469 C92.5938 35.5469 90.7812 37.0781 90.7812 41.0938 C90.7812 44.4844 92.2344 46.1875 94.2188 46.1875 ZM102.02 46.1875 C104.1606 46.1875 105.5043 44.8906 105.5043 43.2656 C105.5043 41.75 104.5825 41.0469 103.395 40.5312 L101.9262 39.8906 C101.1293 39.5625 100.2387 39.1875 100.2387 38.1875 C100.2387 37.2656 100.9887 36.6719 102.145 36.6719 C103.0981 36.6719 103.8637 37.0469 104.4887 37.6406 L105.1762 36.8125 C104.4418 36.0625 103.3637 35.5469 102.145 35.5469 C100.2856 35.5469 98.9106 36.6875 98.9106 38.2656 C98.9106 39.7656 100.0512 40.5 101.0043 40.9062 L102.4887 41.5469 C103.4575 41.9844 104.1918 42.3125 104.1918 43.375 C104.1918 44.375 103.3793 45.0469 102.0356 45.0469 C100.9731 45.0469 99.9418 44.5469 99.2075 43.7812 L98.4262 44.6562 C99.3168 45.5938 100.5668 46.1875 102.02 46.1875 Z"
    /></g
    ><g style="fill:white; text-rendering:optimizeSpeed; stroke:white;"
    ><polygon style="stroke:none; clip-path:url(#clipPath4);" points=" 43 53 54 64 43 75 32 64"
      /><rect x="32" y="53" width="22" style="clip-path:url(#clipPath4); fill:rgb(0,144,188); stroke:none;" height="11"
      /><rect x="32" y="53" width="22" style="clip-path:url(#clipPath4); fill:none; stroke:black;" height="11"
      /><polygon style="fill:none; stroke:black;" points=" 43 53 54 64 43 75 32 64"
      /><rect x="30" width="25" height="10" y="35" style="stroke:none;"
    /></g
    ><g style="text-rendering:optimizeSpeed; font-size:14px; font-family:'SansSerif';"
    ><path style="stroke:none;" d="M34.1094 40.5781 C35.3438 40.5781 35.9688 41.4688 35.9688 42.8438 C35.9688 44.25 35.1875 45.1875 34.2188 45.1875 C32.9219 45.1875 32.1562 44.0312 32 41.8906 C32.625 40.9531 33.4531 40.5781 34.1094 40.5781 ZM34.2188 46.1875 C35.8125 46.1875 37.1562 44.8438 37.1562 42.8438 C37.1562 40.7031 36.0469 39.625 34.3125 39.625 C33.5 39.625 32.6094 40.1094 31.9688 40.875 C32.0312 37.6875 33.2188 36.6094 34.625 36.6094 C35.25 36.6094 35.8594 36.9062 36.2656 37.3906 L36.9688 36.5938 C36.4062 35.9844 35.6406 35.5469 34.5781 35.5469 C32.5938 35.5469 30.7812 37.0781 30.7812 41.0938 C30.7812 44.4844 32.2344 46.1875 34.2188 46.1875 ZM39.1762 46 L40.3481 46 L40.3481 40.3125 C40.3481 39.4375 40.2543 38.1875 40.1918 37.2969 L40.2543 37.2969 L41.0668 39.625 L43.0043 44.9688 L43.8793 44.9688 L45.8168 39.625 L46.6293 37.2969 L46.6918 37.2969 C46.6137 38.1875 46.52 39.4375 46.52 40.3125 L46.52 46 L47.7387 46 L47.7387 35.7188 L46.1762 35.7188 L44.2075 41.2188 C43.9731 41.9375 43.7543 42.6562 43.5043 43.375 L43.4418 43.375 C43.1918 42.6562 42.9575 41.9375 42.7075 41.2188 L40.7387 35.7188 L39.1762 35.7188 L39.1762 46 ZM53.4973 46.1875 C54.5285 46.1875 55.341 45.8281 56.0129 45.3906 L55.5442 44.5625 C54.9973 44.9375 54.3879 45.1562 53.6535 45.1562 C52.2004 45.1562 51.216 44.125 51.1223 42.5 L56.2473 42.5 C56.2785 42.3125 56.3098 42.0469 56.3098 41.7656 C56.3098 39.6094 55.216 38.2031 53.2785 38.2031 C51.5129 38.2031 49.8567 39.7344 49.8567 42.2031 C49.8567 44.7188 51.4817 46.1875 53.4973 46.1875 ZM51.1067 41.5781 C51.2629 40.0938 52.216 39.2188 53.2942 39.2188 C54.4817 39.2188 55.1848 40.0469 55.1848 41.5781 L51.1067 41.5781 Z"
    /></g
    ><g style="fill:white; text-rendering:optimizeSpeed; font-family:'Serif'; stroke:white;"
    ><rect x="75" width="7" height="9" y="67" style="stroke:none;"
      /><path d="M76 72.5156 L78.9531 68.2656 L78.9531 72.5156 L76 72.5156 ZM81.2812 72.5156 L79.8594 72.5156 L79.8594 67.125 L79.2344 67.125 L75.3438 72.6406 L75.3438 73.1875 L78.9531 73.1875 L78.9531 76 L79.8594 76 L79.8594 73.1875 L81.2812 73.1875 L81.2812 72.5156 Z" style="fill:black; stroke:none;"
      /><rect x="62" width="6" height="13" y="65" style="stroke:none;"
      /><path d="M64.0938 71.2031 C64.0938 69.6562 64.75 68.8125 65.7969 68.8125 C66.7188 68.8125 67.2656 69.4531 67.2656 70.5156 C67.2656 71.7188 66.5 72.4375 65.1875 72.7031 L65.2969 73.3125 C67.2188 73.2344 67.9375 74.2188 67.9375 75.4375 C67.9375 76.625 67.2344 77.4219 65.9531 77.4219 C65.25 77.4219 64.6562 77.1562 64.0938 76.7188 L64.0938 71.2031 ZM63.2031 77.9062 L63.1094 80.375 L63.2656 80.4844 L64.1562 80.2656 L64.0156 77.0938 C64.5469 77.8438 65.3594 78.1719 66.1719 78.1719 C67.5625 78.1719 68.8594 77.2188 68.8594 75.4844 C68.8594 73.9531 67.875 73.1094 66.125 73 C67.5625 72.6094 68.1875 71.4531 68.1875 70.4844 C68.1875 69.0938 67.1562 68.3125 65.9062 68.3125 C64.2969 68.3125 63.2188 69.5469 63.2188 71.5156 L63.2031 77.9062 Z" style="fill:black; stroke:none;"
      /><rect x="127" width="7" height="9" y="67" style="stroke:none;"
      /><path d="M128 72.5156 L130.9531 68.2656 L130.9531 72.5156 L128 72.5156 ZM133.2812 72.5156 L131.8594 72.5156 L131.8594 67.125 L131.2344 67.125 L127.3438 72.6406 L127.3438 73.1875 L130.9531 73.1875 L130.9531 76 L131.8594 76 L131.8594 73.1875 L133.2812 73.1875 L133.2812 72.5156 Z" style="fill:black; stroke:none;"
      /><rect x="113" width="8" height="8" y="68" style="stroke:none;"
      /><path d="M117.9844 73.7031 C117.9375 74.8906 117.1562 75.6562 116.3125 75.6562 C115.2656 75.6562 114.5 74.6875 114.5 72.7188 C114.5 71.2812 115.1562 70.1562 116.3438 70.1562 C117.1406 70.1562 117.7812 70.6875 118.0938 71.6406 L117.9844 73.7031 ZM119.9062 75.2812 C119.7344 75.375 119.5469 75.4219 119.3438 75.4219 C118.9531 75.4219 118.75 75.2188 118.75 74.4219 C118.75 73.4844 118.9688 71.5312 119.1875 69.8281 L119.0312 69.7188 L118.2344 69.9219 L118.1406 70.7969 C117.7812 70.0312 117.1562 69.6562 116.3906 69.6562 C115.0469 69.6562 113.5625 70.8438 113.5625 72.9531 C113.5625 75.0938 114.7188 76.1719 116.1406 76.1719 C117.0156 76.1719 117.6875 75.8125 118.0938 74.9844 C118.2031 75.8594 118.5156 76.1719 119.0156 76.1719 C119.4688 76.1719 119.7969 75.9062 120.0156 75.5625 L119.9062 75.2812 Z" style="fill:black; stroke:none;"
      /><rect x="184" width="7" height="9" y="67" style="stroke:none;"
      /><path d="M185 72.5156 L187.9531 68.2656 L187.9531 72.5156 L185 72.5156 ZM190.2812 72.5156 L188.8594 72.5156 L188.8594 67.125 L188.2344 67.125 L184.3438 72.6406 L184.3438 73.1875 L187.9531 73.1875 L187.9531 76 L188.8594 76 L188.8594 73.1875 L190.2812 73.1875 L190.2812 72.5156 Z" style="fill:black; stroke:none;"
      /><rect x="170" width="8" height="8" y="68" style="stroke:none;"
      /><path d="M174.9844 73.7031 C174.9375 74.8906 174.1562 75.6562 173.3125 75.6562 C172.2656 75.6562 171.5 74.6875 171.5 72.7188 C171.5 71.2812 172.1562 70.1562 173.3438 70.1562 C174.1406 70.1562 174.7812 70.6875 175.0938 71.6406 L174.9844 73.7031 ZM176.9062 75.2812 C176.7344 75.375 176.5469 75.4219 176.3438 75.4219 C175.9531 75.4219 175.75 75.2188 175.75 74.4219 C175.75 73.4844 175.9688 71.5312 176.1875 69.8281 L176.0312 69.7188 L175.2344 69.9219 L175.1406 70.7969 C174.7812 70.0312 174.1562 69.6562 173.3906 69.6562 C172.0469 69.6562 170.5625 70.8438 170.5625 72.9531 C170.5625 75.0938 171.7188 76.1719 173.1406 76.1719 C174.0156 76.1719 174.6875 75.8125 175.0938 74.9844 C175.2031 75.8594 175.5156 76.1719 176.0156 76.1719 C176.4688 76.1719 176.7969 75.9062 177.0156 75.5625 L176.9062 75.2812 Z" style="fill:black; stroke:none;"
      /><rect x="222" width="8" height="8" y="68" style="stroke:none;"
      /><path d="M226.9844 73.7031 C226.9375 74.8906 226.1562 75.6562 225.3125 75.6562 C224.2656 75.6562 223.5 74.6875 223.5 72.7188 C223.5 71.2812 224.1562 70.1562 225.3438 70.1562 C226.1406 70.1562 226.7812 70.6875 227.0938 71.6406 L226.9844 73.7031 ZM228.9062 75.2812 C228.7344 75.375 228.5469 75.4219 228.3438 75.4219 C227.9531 75.4219 227.75 75.2188 227.75 74.4219 C227.75 73.4844 227.9688 71.5312 228.1875 69.8281 L228.0312 69.7188 L227.2344 69.9219 L227.1406 70.7969 C226.7812 70.0312 226.1562 69.6562 225.3906 69.6562 C224.0469 69.6562 222.5625 70.8438 222.5625 72.9531 C222.5625 75.0938 223.7188 76.1719 225.1406 76.1719 C226.0156 76.1719 226.6875 75.8125 227.0938 74.9844 C227.2031 75.8594 227.5156 76.1719 228.0156 76.1719 C228.4688 76.1719 228.7969 75.9062 229.0156 75.5625 L228.9062 75.2812 Z" style="fill:black; stroke:none;"
    /></g
  ></g
></svg
>
