<?xml version="1.0"?>
<!DOCTYPE svg PUBLIC '-//W3C//DTD SVG 1.0//EN'
          'http://www.w3.org/TR/2001/REC-SVG-20010904/DTD/svg10.dtd'>
<svg xmlns:xlink="http://www.w3.org/1999/xlink" style="fill-opacity:1; color-rendering:auto; color-interpolation:auto; text-rendering:auto; stroke:black; stroke-linecap:square; stroke-miterlimit:10; shape-rendering:auto; stroke-opacity:1; fill:black; stroke-dasharray:none; font-weight:normal; stroke-width:1; font-family:'Dialog'; font-style:normal; stroke-linejoin:miter; font-size:12px; stroke-dashoffset:0; image-rendering:auto;" viewBox="0 0 134 157" xmlns="http://www.w3.org/2000/svg"
><!--Generated by the Batik Graphics2D SVG Generator--><defs id="genericDefs"
  /><g
  ><defs id="defs1"
    ><clipPath clipPathUnits="userSpaceOnUse" id="clipPath1"
      ><path d="M52 41 C52 47.0751 47.0751 52 41 52 C34.9249 52 30 47.0751 30 41 C30 34.9249 34.9249 30 41 30 C47.0751 30 52 34.9249 52 41 Z"
      /></clipPath
      ><clipPath clipPathUnits="userSpaceOnUse" id="clipPath2"
      ><path style="fill-rule:evenodd;" d="M41 105 L52 127 L30 127 Z"
      /></clipPath
    ></defs
    ><g style="fill:white; text-rendering:optimizeSpeed; stroke:white;"
    ><rect x="0" width="134" height="157" y="0" style="stroke:none;"
      /><polygon style="fill:none; stroke:black;" points=" 93 41 41 41"
      /><path d="M93 30 C87.5 35.5 98.5 46.5 93 52" style="fill:none; stroke:black;"
      /><polygon style="fill:none; stroke:black;" points=" 41 41 41 116"
      /><circle style="clip-path:url(#clipPath1); stroke:none;" r="11" cx="41" cy="41"
      /><rect x="30" y="30" width="22" style="clip-path:url(#clipPath1); fill:rgb(0,144,188); stroke:none;" height="22"
      /><rect x="30" y="30" width="22" style="clip-path:url(#clipPath1); fill:none; stroke:black;" height="22"
      /><circle style="fill:none; stroke:black;" r="11" cx="41" cy="41"
      /><rect x="32" y="58" width="16" style="stroke:none;" height="10"
    /></g
    ><g style="text-rendering:optimizeSpeed; font-size:14px; font-family:'SansSerif';"
    ><path style="stroke:none;" d="M35.7031 69.1875 C37.5156 69.1875 38.9844 68.0938 38.9844 66.25 C38.9844 64.8594 38.0156 63.9375 36.8125 63.6562 L36.8125 63.5938 C37.8906 63.1875 38.6406 62.3594 38.6406 61.125 C38.6406 59.5 37.375 58.5469 35.6562 58.5469 C34.4688 58.5469 33.5469 59.0625 32.7812 59.7812 L33.4688 60.5938 C34.0469 60 34.7656 59.5938 35.5938 59.5938 C36.6562 59.5938 37.3281 60.2344 37.3281 61.2188 C37.3281 62.3281 36.6094 63.1719 34.4844 63.1719 L34.4844 64.1562 C36.8594 64.1562 37.6875 64.9844 37.6875 66.2031 C37.6875 67.3906 36.8125 68.125 35.5938 68.125 C34.4375 68.125 33.6562 67.5781 33.0469 66.9375 L32.4062 67.7812 C33.0781 68.5156 34.0938 69.1875 35.7031 69.1875 ZM41.1762 69 L42.395 69 L42.395 63.6094 C42.395 62.5312 42.3012 61.4375 42.2543 60.4062 L42.3012 60.4062 L43.4106 62.5156 L47.145 69 L48.4731 69 L48.4731 58.7188 L47.2387 58.7188 L47.2387 64.0781 C47.2387 65.1406 47.3481 66.2812 47.4106 67.3125 L47.3481 67.3125 L46.2543 65.2031 L42.52 58.7188 L41.1762 58.7188 L41.1762 69 Z"
    /></g
    ><g style="fill:white; text-rendering:optimizeSpeed; stroke:white;"
    ><polygon style="stroke:none; clip-path:url(#clipPath2);" points=" 41 105 52 127 30 127"
      /><rect x="30" y="105" width="22" style="clip-path:url(#clipPath2); fill:rgb(237,28,36); stroke:none;" height="22"
      /><rect x="30" y="105" width="22" style="clip-path:url(#clipPath2); fill:none; stroke:black;" height="22"
      /><polygon style="fill:none; stroke:black;" points=" 41 105 52 127 30 127"
      /><rect x="46" width="6" height="9" y="78" style="stroke:none;"
      /><path d="M47.4219 86.0938 C48.0781 85.375 48.7031 84.7188 49.0312 84.3438 C50.9219 82.3125 51.5312 81.4688 51.5312 80.3594 C51.5312 79.0156 50.7812 78.0781 49.1562 78.0781 C47.9062 78.0781 46.7969 78.7031 46.5938 79.9688 C46.7188 80.2031 46.9062 80.3438 47.1562 80.3438 C47.4688 80.3438 47.6562 80.1094 47.7969 79.5938 L48.0938 78.6719 C48.3906 78.5938 48.6562 78.5625 48.8906 78.5625 C49.9219 78.5625 50.5469 79.3125 50.5469 80.4219 C50.5469 81.4375 49.9844 82.4219 48.7031 83.9062 C48.125 84.5781 47.3906 85.4375 46.6406 86.2812 L46.6406 87 L51.9219 87 L51.9219 86.0938 L47.4219 86.0938 Z" style="fill:black; stroke:none;"
      /><rect x="45" width="8" height="8" y="93" style="stroke:none;"
      /><path d="M49.9844 98.7031 C49.9375 99.8906 49.1562 100.6562 48.3125 100.6562 C47.2656 100.6562 46.5 99.6875 46.5 97.7188 C46.5 96.2812 47.1562 95.1562 48.3438 95.1562 C49.1406 95.1562 49.7812 95.6875 50.0938 96.6406 L49.9844 98.7031 ZM51.9062 100.2812 C51.7344 100.375 51.5469 100.4219 51.3438 100.4219 C50.9531 100.4219 50.75 100.2188 50.75 99.4219 C50.75 98.4844 50.9688 96.5312 51.1875 94.8281 L51.0312 94.7188 L50.2344 94.9219 L50.1406 95.7969 C49.7812 95.0312 49.1562 94.6562 48.3906 94.6562 C47.0469 94.6562 45.5625 95.8438 45.5625 97.9531 C45.5625 100.0938 46.7188 101.1719 48.1406 101.1719 C49.0156 101.1719 49.6875 100.8125 50.0938 99.9844 C50.2031 100.8594 50.5156 101.1719 51.0156 101.1719 C51.4688 101.1719 51.7969 100.9062 52.0156 100.5625 L51.9062 100.2812 Z" style="fill:black; stroke:none;"
      /><rect x="57" width="6" height="13" y="42" style="stroke:none;"
      /><path d="M59.0938 48.2031 C59.0938 46.6562 59.75 45.8125 60.7969 45.8125 C61.7188 45.8125 62.2656 46.4531 62.2656 47.5156 C62.2656 48.7188 61.5 49.4375 60.1875 49.7031 L60.2969 50.3125 C62.2188 50.2344 62.9375 51.2188 62.9375 52.4375 C62.9375 53.625 62.2344 54.4219 60.9531 54.4219 C60.25 54.4219 59.6562 54.1562 59.0938 53.7188 L59.0938 48.2031 ZM58.2031 54.9062 L58.1094 57.375 L58.2656 57.4844 L59.1562 57.2656 L59.0156 54.0938 C59.5469 54.8438 60.3594 55.1719 61.1719 55.1719 C62.5625 55.1719 63.8594 54.2188 63.8594 52.4844 C63.8594 50.9531 62.875 50.1094 61.125 50 C62.5625 49.6094 63.1875 48.4531 63.1875 47.4844 C63.1875 46.0938 62.1562 45.3125 60.9062 45.3125 C59.2969 45.3125 58.2188 46.5469 58.2188 48.5156 L58.2031 54.9062 Z" style="fill:black; stroke:none;"
    /></g
  ></g
></svg
>
