<?xml version="1.0"?>
<!DOCTYPE svg PUBLIC '-//W3C//DTD SVG 1.0//EN'
          'http://www.w3.org/TR/2001/REC-SVG-20010904/DTD/svg10.dtd'>
<svg xmlns:xlink="http://www.w3.org/1999/xlink" style="fill-opacity:1; color-rendering:auto; color-interpolation:auto; text-rendering:auto; stroke:black; stroke-linecap:square; stroke-miterlimit:10; shape-rendering:auto; stroke-opacity:1; fill:black; stroke-dasharray:none; font-weight:normal; stroke-width:1; font-family:'Dialog'; font-style:normal; stroke-linejoin:miter; font-size:12px; stroke-dashoffset:0; image-rendering:auto;" viewBox="0 0 252 105" xmlns="http://www.w3.org/2000/svg"
><!--Generated by the Batik Graphics2D SVG Generator--><defs id="genericDefs"
  /><g
  ><defs id="defs1"
    ><clipPath clipPathUnits="userSpaceOnUse" id="clipPath1"
      ><path style="fill-rule:evenodd;" d="M159 53 L170 64 L159 75 L148 64 Z"
      /></clipPath
      ><clipPath clipPathUnits="userSpaceOnUse" id="clipPath2"
      ><path style="fill-rule:evenodd;" d="M107 53 L118 64 L107 75 L96 64 Z"
      /></clipPath
      ><clipPath clipPathUnits="userSpaceOnUse" id="clipPath3"
      ><path style="fill-rule:evenodd;" d="M48 53 L58 60 L54 72 L41 72 L37 60 L48 53 Z"
      /></clipPath
    ></defs
    ><g style="fill:white; text-rendering:optimizeSpeed; stroke:white;"
    ><rect x="0" width="252" height="105" y="0" style="stroke:none;"
      /><polygon style="fill:none; stroke:black;" points=" 211 64 159 64"
      /><path d="M211 53 C205.5 58.5 216.5 69.5 211 75" style="fill:none; stroke:black;"
      /><polygon style="fill:none; stroke:black;" points=" 159 64 107 64"
      /><polygon style="clip-path:url(#clipPath1); stroke:none;" points=" 159 53 170 64 159 75 148 64"
      /><rect x="148" y="53" width="22" style="clip-path:url(#clipPath1); fill:rgb(244,121,32); stroke:none;" height="11"
      /><rect x="148" y="53" width="22" style="clip-path:url(#clipPath1); fill:none; stroke:black;" height="11"
      /><polygon style="fill:none; stroke:black;" points=" 159 53 170 64 159 75 148 64"
    /></g
    ><g style="text-rendering:optimizeSpeed; font-size:10px; font-family:'SansSerif';"
    ><path style="stroke:none;" d="M157 67 L161.125 67 L161.125 66.2031 L157.9375 66.2031 L157.9375 59.6562 L157 59.6562 L157 67 Z"
      /><polygon style="fill:none;" points=" 107 64 48 64"
    /></g
    ><g style="fill:white; text-rendering:optimizeSpeed; stroke:white;"
    ><polygon style="stroke:none; clip-path:url(#clipPath2);" points=" 107 53 118 64 107 75 96 64"
      /><rect x="96" y="53" width="22" style="clip-path:url(#clipPath2); fill:rgb(244,121,32); stroke:none;" height="11"
      /><rect x="96" y="53" width="22" style="clip-path:url(#clipPath2); fill:none; stroke:black;" height="11"
      /><polygon style="fill:none; stroke:black;" points=" 107 53 118 64 107 75 96 64"
    /></g
    ><g style="text-rendering:optimizeSpeed; font-size:10px; font-family:'SansSerif';"
    ><path style="stroke:none;" d="M105 67 L109.125 67 L109.125 66.2031 L105.9375 66.2031 L105.9375 59.6562 L105 59.6562 L105 67 Z"
    /></g
    ><g style="fill:white; text-rendering:optimizeSpeed; stroke:white;"
    ><polygon style="stroke:none; clip-path:url(#clipPath3);" points=" 48 53 58 60 54 72 41 72 37 60 48 53"
      /><rect x="37" y="53" width="22" style="clip-path:url(#clipPath3); stroke:none;" height="22"
      /><rect x="37" y="53" width="22" style="clip-path:url(#clipPath3); fill:none; stroke:black;" height="22"
      /><polygon style="fill:none; stroke:black;" points=" 48 53 58 60 54 72 41 72 37 60 48 53"
    /></g
    ><g style="text-rendering:optimizeSpeed; font-size:14px; font-family:'SansSerif';"
    ><path style="stroke:none;" d="M46.2344 69 L51.8594 69 L51.8594 67.9375 L49.7969 67.9375 L49.7969 58.7188 L48.8281 58.7188 C48.2656 59.0625 47.6094 59.2969 46.6875 59.4688 L46.6875 60.2812 L48.5156 60.2812 L48.5156 67.9375 L46.2344 67.9375 L46.2344 69 Z"
      /><rect x="30" y="34" width="34" style="fill:white; stroke:none;" height="12"
      /><path style="stroke:none;" d="M33.6562 47.1875 C35.3906 47.1875 37.0156 45.9062 37.0156 43.6562 C37.0156 41.4062 35.625 40.3906 33.9219 40.3906 C33.2969 40.3906 32.8594 40.5469 32.3906 40.7969 L32.6406 37.8281 L36.5312 37.8281 L36.5312 36.7188 L31.5312 36.7188 L31.2031 41.5469 L31.8906 41.9531 C32.4844 41.5625 32.9062 41.3594 33.5938 41.3594 C34.8906 41.3594 35.7188 42.2188 35.7188 43.7031 C35.7188 45.1875 34.75 46.125 33.5469 46.125 C32.3594 46.125 31.6094 45.5781 31.0156 44.9844 L30.3906 45.8281 C31.0781 46.5156 32.0625 47.1875 33.6562 47.1875 ZM38.8168 49.6562 C40.0825 49.125 40.8637 48.0781 40.8637 46.7344 C40.8637 45.7969 40.4575 45.2188 39.7856 45.2188 C39.27 45.2188 38.8168 45.5781 38.8168 46.125 C38.8168 46.7031 39.27 47.0156 39.7543 47.0156 C39.8168 47.0156 39.8637 47.0156 39.9106 47 C39.9106 47.8281 39.395 48.5156 38.5043 48.9062 L38.8168 49.6562 ZM43.2713 43.1562 L45.6151 39.6562 C45.8963 39.1406 46.1776 38.6406 46.4432 38.1406 L46.4901 38.1406 C46.4588 38.6719 46.4276 39.5 46.4276 40 L46.4276 43.1562 L43.2713 43.1562 ZM46.4276 47 L47.6307 47 L47.6307 44.1719 L48.9901 44.1719 L48.9901 43.1562 L47.6307 43.1562 L47.6307 36.7188 L46.2088 36.7188 L41.9432 43.3281 L41.9432 44.1719 L46.4276 44.1719 L46.4276 47 ZM53.7913 47.1875 C54.8226 47.1875 55.6351 46.8281 56.3069 46.3906 L55.8382 45.5625 C55.2913 45.9375 54.6819 46.1562 53.9476 46.1562 C52.4944 46.1562 51.5101 45.125 51.4163 43.5 L56.5413 43.5 C56.5726 43.3125 56.6038 43.0469 56.6038 42.7656 C56.6038 40.6094 55.5101 39.2031 53.5726 39.2031 C51.8069 39.2031 50.1507 40.7344 50.1507 43.2031 C50.1507 45.7188 51.7757 47.1875 53.7913 47.1875 ZM51.4007 42.5781 C51.5569 41.0938 52.5101 40.2188 53.5882 40.2188 C54.7757 40.2188 55.4788 41.0469 55.4788 42.5781 L51.4007 42.5781 ZM58.4691 47 L59.7504 47 L59.7504 41.4844 C60.516 40.7188 61.0473 40.3281 61.8285 40.3281 C62.8441 40.3281 63.2816 40.9219 63.2816 42.3594 L63.2816 47 L64.5473 47 L64.5473 42.1875 C64.5473 40.2344 63.8285 39.2031 62.2348 39.2031 C61.1879 39.2031 60.4066 39.7812 59.6723 40.4844 L59.641 40.4844 L59.5316 39.3906 L58.4691 39.3906 L58.4691 47 Z"
    /></g
    ><g style="fill:white; text-rendering:optimizeSpeed; font-family:'Serif'; stroke:white;"
    ><rect x="84" width="7" height="9" y="67" style="stroke:none;"
      /><path d="M85 72.5156 L87.9531 68.2656 L87.9531 72.5156 L85 72.5156 ZM90.2812 72.5156 L88.8594 72.5156 L88.8594 67.125 L88.2344 67.125 L84.3438 72.6406 L84.3438 73.1875 L87.9531 73.1875 L87.9531 76 L88.8594 76 L88.8594 73.1875 L90.2812 73.1875 L90.2812 72.5156 Z" style="fill:black; stroke:none;"
      /><rect x="70" width="8" height="8" y="68" style="stroke:none;"
      /><path d="M74.9844 73.7031 C74.9375 74.8906 74.1562 75.6562 73.3125 75.6562 C72.2656 75.6562 71.5 74.6875 71.5 72.7188 C71.5 71.2812 72.1562 70.1562 73.3438 70.1562 C74.1406 70.1562 74.7812 70.6875 75.0938 71.6406 L74.9844 73.7031 ZM76.9062 75.2812 C76.7344 75.375 76.5469 75.4219 76.3438 75.4219 C75.9531 75.4219 75.75 75.2188 75.75 74.4219 C75.75 73.4844 75.9688 71.5312 76.1875 69.8281 L76.0312 69.7188 L75.2344 69.9219 L75.1406 70.7969 C74.7812 70.0312 74.1562 69.6562 73.3906 69.6562 C72.0469 69.6562 70.5625 70.8438 70.5625 72.9531 C70.5625 75.0938 71.7188 76.1719 73.1406 76.1719 C74.0156 76.1719 74.6875 75.8125 75.0938 74.9844 C75.2031 75.8594 75.5156 76.1719 76.0156 76.1719 C76.4688 76.1719 76.7969 75.9062 77.0156 75.5625 L76.9062 75.2812 Z" style="fill:black; stroke:none;"
      /><rect x="136" width="7" height="9" y="67" style="stroke:none;"
      /><path d="M137 72.5156 L139.9531 68.2656 L139.9531 72.5156 L137 72.5156 ZM142.2812 72.5156 L140.8594 72.5156 L140.8594 67.125 L140.2344 67.125 L136.3438 72.6406 L136.3438 73.1875 L139.9531 73.1875 L139.9531 76 L140.8594 76 L140.8594 73.1875 L142.2812 73.1875 L142.2812 72.5156 Z" style="fill:black; stroke:none;"
      /><rect x="122" width="8" height="8" y="68" style="stroke:none;"
      /><path d="M126.9844 73.7031 C126.9375 74.8906 126.1562 75.6562 125.3125 75.6562 C124.2656 75.6562 123.5 74.6875 123.5 72.7188 C123.5 71.2812 124.1562 70.1562 125.3438 70.1562 C126.1406 70.1562 126.7812 70.6875 127.0938 71.6406 L126.9844 73.7031 ZM128.9062 75.2812 C128.7344 75.375 128.5469 75.4219 128.3438 75.4219 C127.9531 75.4219 127.75 75.2188 127.75 74.4219 C127.75 73.4844 127.9688 71.5312 128.1875 69.8281 L128.0312 69.7188 L127.2344 69.9219 L127.1406 70.7969 C126.7812 70.0312 126.1562 69.6562 125.3906 69.6562 C124.0469 69.6562 122.5625 70.8438 122.5625 72.9531 C122.5625 75.0938 123.7188 76.1719 125.1406 76.1719 C126.0156 76.1719 126.6875 75.8125 127.0938 74.9844 C127.2031 75.8594 127.5156 76.1719 128.0156 76.1719 C128.4688 76.1719 128.7969 75.9062 129.0156 75.5625 L128.9062 75.2812 Z" style="fill:black; stroke:none;"
      /><rect x="174" width="8" height="8" y="68" style="stroke:none;"
      /><path d="M178.9844 73.7031 C178.9375 74.8906 178.1562 75.6562 177.3125 75.6562 C176.2656 75.6562 175.5 74.6875 175.5 72.7188 C175.5 71.2812 176.1562 70.1562 177.3438 70.1562 C178.1406 70.1562 178.7812 70.6875 179.0938 71.6406 L178.9844 73.7031 ZM180.9062 75.2812 C180.7344 75.375 180.5469 75.4219 180.3438 75.4219 C179.9531 75.4219 179.75 75.2188 179.75 74.4219 C179.75 73.4844 179.9688 71.5312 180.1875 69.8281 L180.0312 69.7188 L179.2344 69.9219 L179.1406 70.7969 C178.7812 70.0312 178.1562 69.6562 177.3906 69.6562 C176.0469 69.6562 174.5625 70.8438 174.5625 72.9531 C174.5625 75.0938 175.7188 76.1719 177.1406 76.1719 C178.0156 76.1719 178.6875 75.8125 179.0938 74.9844 C179.2031 75.8594 179.5156 76.1719 180.0156 76.1719 C180.4688 76.1719 180.7969 75.9062 181.0156 75.5625 L180.9062 75.2812 Z" style="fill:black; stroke:none;"
    /></g
    ><g ID="legend-1:0" style="text-rendering:optimizeSpeed; font-size:10px; font-family:'SansSerif';"
    ><path style="stroke:none;" d="M30.875 90 L34.9062 90 L34.9062 89.2344 L33.4375 89.2344 L33.4375 82.6562 L32.7344 82.6562 C32.3281 82.9062 31.8594 83.0625 31.2031 83.1875 L31.2031 83.7656 L32.5156 83.7656 L32.5156 89.2344 L30.875 89.2344 L30.875 90 ZM35.925 85.4531 L40.7219 85.4531 L40.7219 84.7656 L35.925 84.7656 L35.925 85.4531 ZM35.925 87.8438 L40.7219 87.8438 L40.7219 87.1719 L35.925 87.1719 L35.925 87.8438 ZM43.7094 90.125 C44.4125 90.125 44.975 89.7656 45.3969 89.0312 L45.4281 89.0312 C45.4125 89.7969 45.85 90.125 46.5062 90.125 C46.8187 90.125 47.0375 90.0625 47.1937 89.9844 L47.0531 89.2969 C46.9437 89.3438 46.8031 89.375 46.6937 89.375 C46.3969 89.375 46.1469 89.1875 46.1469 88.8125 C46.1469 87.8125 46.5375 86 46.8344 84.5625 L45.9281 84.5625 L45.6937 85.8594 L45.6625 85.8594 C45.3656 84.8125 44.6625 84.4375 43.9906 84.4375 C42.7406 84.4375 41.6156 85.5156 41.6156 87.375 C41.6156 89.1562 42.475 90.125 43.7094 90.125 ZM43.8969 89.375 C43.0531 89.375 42.5531 88.6406 42.5531 87.375 C42.5531 85.9375 43.3031 85.2031 44.0844 85.2031 C44.6 85.2031 45.1625 85.4688 45.4594 86.6562 L45.3812 87.6875 C45.3031 88.5938 44.6156 89.375 43.8969 89.375 ZM47.8031 87.5469 L50.3656 87.5469 L50.3656 86.8438 L47.8031 86.8438 L47.8031 87.5469 ZM51.9762 87.25 L53.6325 84.75 C53.8512 84.3906 54.0544 84.0312 54.2262 83.6719 L54.2731 83.6719 C54.2575 84.0469 54.2262 84.6406 54.2262 85 L54.2262 87.25 L51.9762 87.25 ZM54.2262 90 L55.0856 90 L55.0856 87.9844 L56.0544 87.9844 L56.0544 87.25 L55.0856 87.25 L55.0856 82.6562 L54.07 82.6562 L51.0231 87.375 L51.0231 87.9844 L54.2262 87.9844 L54.2262 90 ZM56.8231 87.5469 L59.3856 87.5469 L59.3856 86.8438 L56.8231 86.8438 L56.8231 87.5469 ZM62.6056 90.125 C63.2618 90.125 63.8243 89.7812 64.2618 89.3594 L64.2931 89.3594 L64.3712 90 L65.1056 90 L65.1056 82.0469 L64.215 82.0469 L64.215 84.125 L64.2462 85.0625 C63.7775 84.6719 63.3556 84.4375 62.715 84.4375 C61.4806 84.4375 60.3712 85.5312 60.3712 87.2969 C60.3712 89.0938 61.2462 90.125 62.6056 90.125 ZM62.8087 89.375 C61.8556 89.375 61.3087 88.5938 61.3087 87.2812 C61.3087 86.0469 61.9962 85.2031 62.8868 85.2031 C63.3243 85.2031 63.7462 85.3594 64.215 85.7656 L64.215 88.625 C63.7462 89.125 63.3087 89.375 62.8087 89.375 ZM69.1493 90.125 C69.8837 90.125 70.4775 89.875 70.9462 89.5625 L70.6181 88.9688 C70.2275 89.2344 69.79 89.4062 69.2587 89.4062 C68.2275 89.4062 67.5243 88.6562 67.4618 87.5 L71.1181 87.5 C71.1337 87.375 71.165 87.1875 71.165 86.9844 C71.165 85.4375 70.3837 84.4375 68.9931 84.4375 C67.7431 84.4375 66.5556 85.5312 66.5556 87.2969 C66.5556 89.0781 67.7118 90.125 69.1493 90.125 ZM67.4462 86.8438 C67.5556 85.7812 68.2431 85.1562 69.0087 85.1562 C69.8525 85.1562 70.3525 85.75 70.3525 86.8438 L67.4462 86.8438 ZM74.6112 90.125 C75.9393 90.125 77.1268 89.0938 77.1268 87.2969 C77.1268 85.4844 75.9393 84.4375 74.6112 84.4375 C73.2831 84.4375 72.0956 85.4844 72.0956 87.2969 C72.0956 89.0938 73.2831 90.125 74.6112 90.125 ZM74.6112 89.375 C73.6737 89.375 73.0331 88.5469 73.0331 87.2969 C73.0331 86.0469 73.6737 85.1875 74.6112 85.1875 C75.5487 85.1875 76.1893 86.0469 76.1893 87.2969 C76.1893 88.5469 75.5487 89.375 74.6112 89.375 ZM77.7962 90 L78.7493 90 L79.4837 88.7344 C79.6712 88.4062 79.8431 88.0625 80.0462 87.7656 L80.0931 87.7656 C80.2962 88.0625 80.4837 88.4062 80.6712 88.7344 L81.4681 90 L82.4681 90 L80.6868 87.2656 L82.3275 84.5625 L81.3743 84.5625 L80.7025 85.7656 C80.5462 86.0625 80.39 86.375 80.2181 86.6719 L80.1868 86.6719 C79.9993 86.375 79.8118 86.0625 79.64 85.7656 L78.9056 84.5625 L77.9368 84.5625 L79.5775 87.1719 L77.7962 90 ZM83.6356 92.3438 C84.7137 92.3438 85.2762 91.5156 85.6512 90.4531 L87.6981 84.5625 L86.8074 84.5625 L85.8387 87.5938 C85.6824 88.0625 85.5262 88.625 85.3856 89.1094 L85.3231 89.1094 C85.1668 88.625 84.9637 88.0625 84.8074 87.5938 L83.6981 84.5625 L82.7449 84.5625 L84.9324 90.0156 L84.8074 90.4219 C84.5887 91.0938 84.1981 91.5938 83.5731 91.5938 C83.4324 91.5938 83.2762 91.5469 83.1668 91.5 L82.9949 92.2344 C83.1668 92.2969 83.3699 92.3438 83.6356 92.3438 ZM88.2831 87.5469 L90.8456 87.5469 L90.8456 86.8438 L88.2831 86.8438 L88.2831 87.5469 ZM92.2999 90 L96.4249 90 L96.4249 89.2031 L93.2374 89.2031 L93.2374 82.6562 L92.2999 82.6562 L92.2999 90 ZM97.1831 87.5469 L99.7456 87.5469 L99.7456 86.8438 L97.1831 86.8438 L97.1831 87.5469 ZM103.3093 90.125 C104.0437 90.125 104.6374 89.875 105.1062 89.5625 L104.7781 88.9688 C104.3874 89.2344 103.9499 89.4062 103.4187 89.4062 C102.3874 89.4062 101.6843 88.6562 101.6218 87.5 L105.2781 87.5 C105.2937 87.375 105.3249 87.1875 105.3249 86.9844 C105.3249 85.4375 104.5437 84.4375 103.1531 84.4375 C101.9031 84.4375 100.7156 85.5312 100.7156 87.2969 C100.7156 89.0781 101.8718 90.125 103.3093 90.125 ZM101.6062 86.8438 C101.7156 85.7812 102.4031 85.1562 103.1687 85.1562 C104.0124 85.1562 104.5124 85.75 104.5124 86.8438 L101.6062 86.8438 ZM106.6618 90 L107.5681 90 L107.5681 86.5156 C107.9274 85.5781 108.4899 85.2656 108.9431 85.2656 C109.1618 85.2656 109.2868 85.2812 109.4743 85.3438 L109.6462 84.5469 C109.4743 84.4531 109.3024 84.4375 109.0524 84.4375 C108.4431 84.4375 107.8962 84.875 107.5212 85.5625 L107.4899 85.5625 L107.4118 84.5625 L106.6618 84.5625 L106.6618 90 ZM110.6355 92.3438 C111.7137 92.3438 112.2762 91.5156 112.6512 90.4531 L114.698 84.5625 L113.8074 84.5625 L112.8387 87.5938 C112.6824 88.0625 112.5262 88.625 112.3855 89.1094 L112.323 89.1094 C112.1668 88.625 111.9637 88.0625 111.8074 87.5938 L110.698 84.5625 L109.7449 84.5625 L111.9324 90.0156 L111.8074 90.4219 C111.5887 91.0938 111.198 91.5938 110.573 91.5938 C110.4324 91.5938 110.2762 91.5469 110.1668 91.5 L109.9949 92.2344 C110.1668 92.2969 110.3699 92.3438 110.6355 92.3438 ZM115.8299 90 L116.7674 90 L116.7674 86.5469 L120.1737 86.5469 L120.1737 90 L121.0955 90 L121.0955 82.6562 L120.1737 82.6562 L120.1737 85.7344 L116.7674 85.7344 L116.7674 82.6562 L115.8299 82.6562 L115.8299 90 ZM125.2193 90.125 C125.9537 90.125 126.5474 89.875 127.0162 89.5625 L126.688 88.9688 C126.2974 89.2344 125.8599 89.4062 125.3287 89.4062 C124.2974 89.4062 123.5943 88.6562 123.5318 87.5 L127.188 87.5 C127.2037 87.375 127.2349 87.1875 127.2349 86.9844 C127.2349 85.4375 126.4537 84.4375 125.063 84.4375 C123.813 84.4375 122.6255 85.5312 122.6255 87.2969 C122.6255 89.0781 123.7818 90.125 125.2193 90.125 ZM123.5162 86.8438 C123.6255 85.7812 124.313 85.1562 125.0787 85.1562 C125.9224 85.1562 126.4224 85.75 126.4224 86.8438 L123.5162 86.8438 ZM127.8062 90 L128.7593 90 L129.4937 88.7344 C129.6812 88.4062 129.853 88.0625 130.0562 87.7656 L130.103 87.7656 C130.3062 88.0625 130.4937 88.4062 130.6812 88.7344 L131.478 90 L132.478 90 L130.6968 87.2656 L132.3374 84.5625 L131.3843 84.5625 L130.7124 85.7656 C130.5562 86.0625 130.3999 86.375 130.228 86.6719 L130.1968 86.6719 C130.0093 86.375 129.8218 86.0625 129.6499 85.7656 L128.9155 84.5625 L127.9468 84.5625 L129.5874 87.1719 L127.8062 90 ZM133.5518 92.2969 L134.458 92.2969 L134.458 90.4531 L134.4424 89.5 C134.9268 89.9062 135.4424 90.125 135.9424 90.125 C137.1924 90.125 138.3018 89.0625 138.3018 87.2031 C138.3018 85.5312 137.5361 84.4375 136.1455 84.4375 C135.5049 84.4375 134.8955 84.7969 134.4111 85.1875 L134.3799 85.1875 L134.3018 84.5625 L133.5518 84.5625 L133.5518 92.2969 ZM135.7861 89.375 C135.4268 89.375 134.9424 89.2188 134.458 88.7969 L134.458 85.9531 C134.9893 85.4531 135.458 85.2031 135.9268 85.2031 C136.9424 85.2031 137.3486 86.0156 137.3486 87.2031 C137.3486 88.5625 136.6924 89.375 135.7861 89.375 ZM141.0955 85.9062 C141.3611 85.0625 141.5955 84.2812 141.8299 83.4219 L141.8768 83.4219 C142.1111 84.2656 142.3455 85.0625 142.6111 85.9062 L142.9549 87.0156 L140.7361 87.0156 L141.0955 85.9062 ZM138.8611 90 L139.7986 90 L140.5174 87.7656 L143.1893 87.7656 L143.8924 90 L144.8768 90 L142.3768 82.6562 L141.3455 82.6562 L138.8611 90 ZM146.0561 87.25 L147.7124 84.75 C147.9311 84.3906 148.1343 84.0312 148.3061 83.6719 L148.353 83.6719 C148.3374 84.0469 148.3061 84.6406 148.3061 85 L148.3061 87.25 L146.0561 87.25 ZM148.3061 90 L149.1655 90 L149.1655 87.9844 L150.1343 87.9844 L150.1343 87.25 L149.1655 87.25 L149.1655 82.6562 L148.1499 82.6562 L145.103 87.375 L145.103 87.9844 L148.3061 87.9844 L148.3061 90 ZM152.8405 91.9688 L153.403 91.7031 C152.5436 90.2812 152.1374 88.5938 152.1374 86.8906 C152.1374 85.1875 152.5436 83.5156 153.403 82.0781 L152.8405 81.8125 C151.9186 83.3125 151.3717 84.9375 151.3717 86.8906 C151.3717 88.8594 151.9186 90.4688 152.8405 91.9688 ZM154.8299 90 L159.1736 90 L159.1736 89.2031 L155.7674 89.2031 L155.7674 86.5469 L158.533 86.5469 L158.533 85.75 L155.7674 85.75 L155.7674 83.4531 L159.0642 83.4531 L159.0642 82.6562 L154.8299 82.6562 L154.8299 90 ZM160.6942 91.9688 C161.6317 90.4688 162.1786 88.8594 162.1786 86.8906 C162.1786 84.9375 161.6317 83.3125 160.6942 81.8125 L160.1474 82.0781 C161.0067 83.5156 161.413 85.1875 161.413 86.8906 C161.413 88.5938 161.0067 90.2812 160.1474 91.7031 L160.6942 91.9688 ZM166.1992 90.125 C166.9336 90.125 167.5273 89.875 167.9961 89.5625 L167.668 88.9688 C167.2773 89.2344 166.8398 89.4062 166.3086 89.4062 C165.2773 89.4062 164.5742 88.6562 164.5117 87.5 L168.168 87.5 C168.1836 87.375 168.2148 87.1875 168.2148 86.9844 C168.2148 85.4375 167.4336 84.4375 166.043 84.4375 C164.793 84.4375 163.6055 85.5312 163.6055 87.2969 C163.6055 89.0781 164.7617 90.125 166.1992 90.125 ZM164.4961 86.8438 C164.6055 85.7812 165.293 85.1562 166.0586 85.1562 C166.9023 85.1562 167.4023 85.75 167.4023 86.8438 L164.4961 86.8438 ZM169.5517 90 L170.458 90 L170.458 86.0625 C171.0048 85.5156 171.3955 85.2344 171.9423 85.2344 C172.6767 85.2344 172.9736 85.6562 172.9736 86.6875 L172.9736 90 L173.8955 90 L173.8955 86.5625 C173.8955 85.1719 173.3642 84.4375 172.2236 84.4375 C171.4892 84.4375 170.9267 84.8438 170.4111 85.3438 L170.3798 85.3438 L170.3017 84.5625 L169.5517 84.5625 L169.5517 90 Z"
    /></g
  ></g
></svg
>
