<?xml version="1.0"?>
<!DOCTYPE svg PUBLIC '-//W3C//DTD SVG 1.0//EN'
          'http://www.w3.org/TR/2001/REC-SVG-20010904/DTD/svg10.dtd'>
<svg xmlns:xlink="http://www.w3.org/1999/xlink" style="fill-opacity:1; color-rendering:auto; color-interpolation:auto; text-rendering:auto; stroke:black; stroke-linecap:square; stroke-miterlimit:10; shape-rendering:auto; stroke-opacity:1; fill:black; stroke-dasharray:none; font-weight:normal; stroke-width:1; font-family:'Dialog'; font-style:normal; stroke-linejoin:miter; font-size:12px; stroke-dashoffset:0; image-rendering:auto;" viewBox="0 0 498 186" xmlns="http://www.w3.org/2000/svg"
><!--Generated by the Batik Graphics2D SVG Generator--><defs id="genericDefs"
  /><g
  ><defs id="defs1"
    ><clipPath clipPathUnits="userSpaceOnUse" id="clipPath1"
      ><path d="M394 82 L416 82 L416 104 L394 104 L394 82 Z"
      /></clipPath
      ><clipPath clipPathUnits="userSpaceOnUse" id="clipPath2"
      ><path d="M342 82 L364 82 L364 104 L342 104 L342 82 Z"
      /></clipPath
      ><clipPath clipPathUnits="userSpaceOnUse" id="clipPath3"
      ><path d="M312 93 C312 99.0751 307.0751 104 301 104 C294.9249 104 290 99.0751 290 93 C290 86.9249 294.9249 82 301 82 C307.0751 82 312 86.9249 312 93 Z"
      /></clipPath
      ><clipPath clipPathUnits="userSpaceOnUse" id="clipPath4"
      ><path d="M260 145 C260 151.0751 255.0751 156 249 156 C242.9249 156 238 151.0751 238 145 C238 138.9249 242.9249 134 249 134 C255.0751 134 260 138.9249 260 145 Z"
      /></clipPath
      ><clipPath clipPathUnits="userSpaceOnUse" id="clipPath5"
      ><path d="M186 134 L208 134 L208 156 L186 156 L186 134 Z"
      /></clipPath
      ><clipPath clipPathUnits="userSpaceOnUse" id="clipPath6"
      ><path d="M156 145 C156 151.0751 151.0751 156 145 156 C138.9249 156 134 151.0751 134 145 C134 138.9249 138.9249 134 145 134 C151.0751 134 156 138.9249 156 145 Z"
      /></clipPath
      ><clipPath clipPathUnits="userSpaceOnUse" id="clipPath7"
      ><path style="fill-rule:evenodd;" d="M93 134 L104 145 L93 156 L82 145 Z"
      /></clipPath
      ><clipPath clipPathUnits="userSpaceOnUse" id="clipPath8"
      ><path style="fill-rule:evenodd;" d="M41 134 L52 145 L41 156 L30 145 Z"
      /></clipPath
      ><clipPath clipPathUnits="userSpaceOnUse" id="clipPath9"
      ><path d="M238 82 L260 82 L260 104 L238 104 L238 82 Z"
      /></clipPath
      ><clipPath clipPathUnits="userSpaceOnUse" id="clipPath10"
      ><path d="M260 41 C260 47.0751 255.0751 52 249 52 C242.9249 52 238 47.0751 238 41 C238 34.9249 242.9249 30 249 30 C255.0751 30 260 34.9249 260 41 Z"
      /></clipPath
      ><clipPath clipPathUnits="userSpaceOnUse" id="clipPath11"
      ><path style="fill-rule:evenodd;" d="M405 52 L394 30 L416 30 Z"
      /></clipPath
    ></defs
    ><g style="fill:white; text-rendering:optimizeSpeed; stroke:white;"
    ><rect x="0" width="498" height="186" y="0" style="stroke:none;"
      /><polygon style="fill:none; stroke:black;" points=" 457 93 405 93"
      /><path d="M457 82 C451.5 87.5 462.5 98.5 457 104" style="fill:none; stroke:black;"
      /><polygon style="fill:none; stroke:black;" points=" 405 93 353 93"
      /><polygon style="fill:none; stroke:black;" points=" 405 93 405 41"
      /><rect x="394" y="82" width="22" style="clip-path:url(#clipPath1); stroke:none;" height="22"
      /><rect x="394" y="82" width="22" style="clip-path:url(#clipPath1); fill:rgb(0,144,188); stroke:none;" height="22"
      /><rect x="394" y="82" width="22" style="clip-path:url(#clipPath1); fill:none; stroke:black;" height="22"
      /><rect x="394" y="82" width="22" style="fill:none; stroke:black;" height="22"
      /><polygon style="fill:none; stroke:black;" points=" 353 93 301 93"
      /><rect x="342" y="82" width="22" style="clip-path:url(#clipPath2); stroke:none;" height="22"
      /><rect x="342" y="82" width="22" style="clip-path:url(#clipPath2); fill:rgb(0,144,188); stroke:none;" height="22"
      /><rect x="342" y="82" width="22" style="clip-path:url(#clipPath2); fill:none; stroke:black;" height="22"
      /><rect x="342" y="82" width="22" style="fill:none; stroke:black;" height="22"
      /><polygon style="fill:none; stroke:black;" points=" 301 93 249 145"
      /><polygon style="fill:none; stroke:black;" points=" 301 93 249 93"
      /><polygon style="fill:none; stroke:black;" points=" 301 93 249 41"
      /><circle style="clip-path:url(#clipPath3); stroke:none;" r="11" cx="301" cy="93"
      /><rect x="290" y="82" width="22" style="clip-path:url(#clipPath3); fill:rgb(0,166,81); stroke:none;" height="22"
      /><rect x="290" y="82" width="22" style="clip-path:url(#clipPath3); fill:none; stroke:black;" height="22"
      /><circle style="fill:none; stroke:black;" r="11" cx="301" cy="93"
      /><polygon style="fill:none; stroke:black;" points=" 249 145 197 145"
      /><circle style="clip-path:url(#clipPath4); stroke:none;" r="11" cx="249" cy="145"
      /><rect x="238" y="134" width="22" style="clip-path:url(#clipPath4); fill:rgb(0,166,81); stroke:none;" height="22"
      /><rect x="238" y="134" width="22" style="clip-path:url(#clipPath4); fill:none; stroke:black;" height="22"
      /><circle style="fill:none; stroke:black;" r="11" cx="249" cy="145"
      /><polygon style="fill:none; stroke:black;" points=" 197 145 145 145"
      /><rect x="186" y="134" width="22" style="clip-path:url(#clipPath5); stroke:none;" height="22"
      /><rect x="186" y="134" width="22" style="clip-path:url(#clipPath5); fill:rgb(0,144,188); stroke:none;" height="22"
      /><rect x="186" y="134" width="22" style="clip-path:url(#clipPath5); fill:none; stroke:black;" height="22"
      /><rect x="186" y="134" width="22" style="fill:none; stroke:black;" height="22"
      /><polygon style="fill:none; stroke:black;" points=" 145 145 93 145"
      /><circle style="clip-path:url(#clipPath6); stroke:none;" r="11" cx="145" cy="145"
      /><rect x="134" y="134" width="22" style="clip-path:url(#clipPath6); fill:rgb(255,212,0); stroke:none;" height="22"
      /><rect x="134" y="134" width="22" style="clip-path:url(#clipPath6); fill:none; stroke:black;" height="22"
      /><circle style="fill:none; stroke:black;" r="11" cx="145" cy="145"
      /><polygon style="fill:none; stroke:black;" points=" 93 145 41 145"
      /><polygon style="clip-path:url(#clipPath7); stroke:none;" points=" 93 134 104 145 93 156 82 145"
      /><rect x="82" y="134" width="22" style="clip-path:url(#clipPath7); fill:rgb(143,204,233); stroke:none;" height="22"
      /><rect x="82" y="134" width="22" style="clip-path:url(#clipPath7); fill:none; stroke:black;" height="22"
      /><polygon style="fill:none; stroke:black;" points=" 93 134 104 145 93 156 82 145"
      /><polygon style="clip-path:url(#clipPath8); stroke:none;" points=" 41 134 52 145 41 156 30 145"
      /><rect x="30" y="134" width="22" style="clip-path:url(#clipPath8); fill:rgb(143,204,233); stroke:none;" height="22"
      /><rect x="30" y="134" width="22" style="clip-path:url(#clipPath8); fill:none; stroke:black;" height="22"
      /><polygon style="fill:none; stroke:black;" points=" 41 134 52 145 41 156 30 145"
      /><rect x="71" y="148" width="5" style="stroke:none;" height="10"
    /></g
    ><g style="font-family:'Serif'; text-rendering:optimizeSpeed; "
    ><path style="stroke:none;" d="M72.8906 156.6875 C72.4844 156.6875 72.1562 157.0469 72.1562 157.4219 C72.1562 157.8125 72.4844 158.1562 72.8906 158.1562 C73.2969 158.1562 73.6406 157.8125 73.6406 157.4219 C73.6406 157.0469 73.2969 156.6875 72.8906 156.6875 ZM74.4688 150.5781 C74.7188 150.8906 74.875 151.2656 74.8906 151.6562 C74.8906 152.1875 74.625 152.5 74.0312 152.7656 L73.4062 153.0156 C72.6406 153.3125 72.3906 153.5469 72.3906 153.9375 C72.3906 154.1094 72.4531 154.3438 72.5781 154.8125 L72.7344 155.3438 L73.1094 155.3438 L73.0938 154.5312 C73.0938 154.0938 73.2031 153.9688 73.7812 153.7344 L74.2031 153.5625 C75.0312 153.2188 75.4531 152.6875 75.4531 151.8438 C75.4531 150.1562 73.6562 149.1875 72.5 149.0312 C72.1094 149.125 71.9062 149.2969 71.9062 149.6406 C71.9062 149.9375 72.0625 150.1562 72.7188 150.2656 L74.4688 150.5781 Z"
      /><rect x="57" y="148" width="5" style="fill:white; stroke:none;" height="10"
      /><path style="stroke:none;" d="M58.8906 156.6875 C58.4844 156.6875 58.1562 157.0469 58.1562 157.4219 C58.1562 157.8125 58.4844 158.1562 58.8906 158.1562 C59.2969 158.1562 59.6406 157.8125 59.6406 157.4219 C59.6406 157.0469 59.2969 156.6875 58.8906 156.6875 ZM60.4688 150.5781 C60.7188 150.8906 60.875 151.2656 60.8906 151.6562 C60.8906 152.1875 60.625 152.5 60.0312 152.7656 L59.4062 153.0156 C58.6406 153.3125 58.3906 153.5469 58.3906 153.9375 C58.3906 154.1094 58.4531 154.3438 58.5781 154.8125 L58.7344 155.3438 L59.1094 155.3438 L59.0938 154.5312 C59.0938 154.0938 59.2031 153.9688 59.7812 153.7344 L60.2031 153.5625 C61.0312 153.2188 61.4531 152.6875 61.4531 151.8438 C61.4531 150.1562 59.6562 149.1875 58.5 149.0312 C58.1094 149.125 57.9062 149.2969 57.9062 149.6406 C57.9062 149.9375 58.0625 150.1562 58.7188 150.2656 L60.4688 150.5781 Z"
      /><rect x="123" y="148" width="5" style="fill:white; stroke:none;" height="10"
      /><path style="stroke:none;" d="M124.8906 156.6875 C124.4844 156.6875 124.1562 157.0469 124.1562 157.4219 C124.1562 157.8125 124.4844 158.1562 124.8906 158.1562 C125.2969 158.1562 125.6406 157.8125 125.6406 157.4219 C125.6406 157.0469 125.2969 156.6875 124.8906 156.6875 ZM126.4688 150.5781 C126.7188 150.8906 126.875 151.2656 126.8906 151.6562 C126.8906 152.1875 126.625 152.5 126.0312 152.7656 L125.4062 153.0156 C124.6406 153.3125 124.3906 153.5469 124.3906 153.9375 C124.3906 154.1094 124.4531 154.3438 124.5781 154.8125 L124.7344 155.3438 L125.1094 155.3438 L125.0938 154.5312 C125.0938 154.0938 125.2031 153.9688 125.7812 153.7344 L126.2031 153.5625 C127.0312 153.2188 127.4531 152.6875 127.4531 151.8438 C127.4531 150.1562 125.6562 149.1875 124.5 149.0312 C124.1094 149.125 123.9062 149.2969 123.9062 149.6406 C123.9062 149.9375 124.0625 150.1562 124.7188 150.2656 L126.4688 150.5781 Z"
      /><rect x="109" y="148" width="5" style="fill:white; stroke:none;" height="10"
      /><path style="stroke:none;" d="M110.8906 156.6875 C110.4844 156.6875 110.1562 157.0469 110.1562 157.4219 C110.1562 157.8125 110.4844 158.1562 110.8906 158.1562 C111.2969 158.1562 111.6406 157.8125 111.6406 157.4219 C111.6406 157.0469 111.2969 156.6875 110.8906 156.6875 ZM112.4688 150.5781 C112.7188 150.8906 112.875 151.2656 112.8906 151.6562 C112.8906 152.1875 112.625 152.5 112.0312 152.7656 L111.4062 153.0156 C110.6406 153.3125 110.3906 153.5469 110.3906 153.9375 C110.3906 154.1094 110.4531 154.3438 110.5781 154.8125 L110.7344 155.3438 L111.1094 155.3438 L111.0938 154.5312 C111.0938 154.0938 111.2031 153.9688 111.7812 153.7344 L112.2031 153.5625 C113.0312 153.2188 113.4531 152.6875 113.4531 151.8438 C113.4531 150.1562 111.6562 149.1875 110.5 149.0312 C110.1094 149.125 109.9062 149.2969 109.9062 149.6406 C109.9062 149.9375 110.0625 150.1562 110.7188 150.2656 L112.4688 150.5781 Z"
      /><rect x="175" y="148" width="5" style="fill:white; stroke:none;" height="10"
      /><path style="stroke:none;" d="M176.8906 156.6875 C176.4844 156.6875 176.1562 157.0469 176.1562 157.4219 C176.1562 157.8125 176.4844 158.1562 176.8906 158.1562 C177.2969 158.1562 177.6406 157.8125 177.6406 157.4219 C177.6406 157.0469 177.2969 156.6875 176.8906 156.6875 ZM178.4688 150.5781 C178.7188 150.8906 178.875 151.2656 178.8906 151.6562 C178.8906 152.1875 178.625 152.5 178.0312 152.7656 L177.4062 153.0156 C176.6406 153.3125 176.3906 153.5469 176.3906 153.9375 C176.3906 154.1094 176.4531 154.3438 176.5781 154.8125 L176.7344 155.3438 L177.1094 155.3438 L177.0938 154.5312 C177.0938 154.0938 177.2031 153.9688 177.7812 153.7344 L178.2031 153.5625 C179.0312 153.2188 179.4531 152.6875 179.4531 151.8438 C179.4531 150.1562 177.6562 149.1875 176.5 149.0312 C176.1094 149.125 175.9062 149.2969 175.9062 149.6406 C175.9062 149.9375 176.0625 150.1562 176.7188 150.2656 L178.4688 150.5781 Z"
      /><rect x="161" y="148" width="5" style="fill:white; stroke:none;" height="10"
      /><path style="stroke:none;" d="M162.8906 156.6875 C162.4844 156.6875 162.1562 157.0469 162.1562 157.4219 C162.1562 157.8125 162.4844 158.1562 162.8906 158.1562 C163.2969 158.1562 163.6406 157.8125 163.6406 157.4219 C163.6406 157.0469 163.2969 156.6875 162.8906 156.6875 ZM164.4688 150.5781 C164.7188 150.8906 164.875 151.2656 164.8906 151.6562 C164.8906 152.1875 164.625 152.5 164.0312 152.7656 L163.4062 153.0156 C162.6406 153.3125 162.3906 153.5469 162.3906 153.9375 C162.3906 154.1094 162.4531 154.3438 162.5781 154.8125 L162.7344 155.3438 L163.1094 155.3438 L163.0938 154.5312 C163.0938 154.0938 163.2031 153.9688 163.7812 153.7344 L164.2031 153.5625 C165.0312 153.2188 165.4531 152.6875 165.4531 151.8438 C165.4531 150.1562 163.6562 149.1875 162.5 149.0312 C162.1094 149.125 161.9062 149.2969 161.9062 149.6406 C161.9062 149.9375 162.0625 150.1562 162.7188 150.2656 L164.4688 150.5781 Z"
      /><rect x="227" y="148" width="5" style="fill:white; stroke:none;" height="10"
      /><path style="stroke:none;" d="M228.8906 156.6875 C228.4844 156.6875 228.1562 157.0469 228.1562 157.4219 C228.1562 157.8125 228.4844 158.1562 228.8906 158.1562 C229.2969 158.1562 229.6406 157.8125 229.6406 157.4219 C229.6406 157.0469 229.2969 156.6875 228.8906 156.6875 ZM230.4688 150.5781 C230.7188 150.8906 230.875 151.2656 230.8906 151.6562 C230.8906 152.1875 230.625 152.5 230.0312 152.7656 L229.4062 153.0156 C228.6406 153.3125 228.3906 153.5469 228.3906 153.9375 C228.3906 154.1094 228.4531 154.3438 228.5781 154.8125 L228.7344 155.3438 L229.1094 155.3438 L229.0938 154.5312 C229.0938 154.0938 229.2031 153.9688 229.7812 153.7344 L230.2031 153.5625 C231.0312 153.2188 231.4531 152.6875 231.4531 151.8438 C231.4531 150.1562 229.6562 149.1875 228.5 149.0312 C228.1094 149.125 227.9062 149.2969 227.9062 149.6406 C227.9062 149.9375 228.0625 150.1562 228.7188 150.2656 L230.4688 150.5781 Z"
      /><rect x="213" y="148" width="5" style="fill:white; stroke:none;" height="10"
      /><path style="stroke:none;" d="M214.8906 156.6875 C214.4844 156.6875 214.1562 157.0469 214.1562 157.4219 C214.1562 157.8125 214.4844 158.1562 214.8906 158.1562 C215.2969 158.1562 215.6406 157.8125 215.6406 157.4219 C215.6406 157.0469 215.2969 156.6875 214.8906 156.6875 ZM216.4688 150.5781 C216.7188 150.8906 216.875 151.2656 216.8906 151.6562 C216.8906 152.1875 216.625 152.5 216.0312 152.7656 L215.4062 153.0156 C214.6406 153.3125 214.3906 153.5469 214.3906 153.9375 C214.3906 154.1094 214.4531 154.3438 214.5781 154.8125 L214.7344 155.3438 L215.1094 155.3438 L215.0938 154.5312 C215.0938 154.0938 215.2031 153.9688 215.7812 153.7344 L216.2031 153.5625 C217.0312 153.2188 217.4531 152.6875 217.4531 151.8438 C217.4531 150.1562 215.6562 149.1875 214.5 149.0312 C214.1094 149.125 213.9062 149.2969 213.9062 149.6406 C213.9062 149.9375 214.0625 150.1562 214.7188 150.2656 L216.4688 150.5781 Z"
      /><rect x="238" y="82" width="22" style="clip-path:url(#clipPath9); fill:white; stroke:none;" height="22"
      /><rect x="238" y="82" width="22" style="clip-path:url(#clipPath9); fill:rgb(0,144,188); stroke:none;" height="22"
      /><rect x="238" y="82" width="22" style="fill:none; clip-path:url(#clipPath9);" height="22"
      /><rect x="238" width="22" height="22" y="82" style="fill:none;"
      /><circle style="fill:white; clip-path:url(#clipPath10); stroke:none;" r="11" cx="249" cy="41"
      /><rect x="238" y="30" width="22" style="clip-path:url(#clipPath10); fill:rgb(0,166,81); stroke:none;" height="22"
      /><rect x="238" y="30" width="22" style="fill:none; clip-path:url(#clipPath10);" height="22"
      /><circle r="11" style="fill:none;" cx="249" cy="41"
      /><rect x="287" y="110" width="5" style="fill:white; stroke:none;" height="10"
      /><path style="stroke:none;" d="M288.8906 118.6875 C288.4844 118.6875 288.1562 119.0469 288.1562 119.4219 C288.1562 119.8125 288.4844 120.1562 288.8906 120.1562 C289.2969 120.1562 289.6406 119.8125 289.6406 119.4219 C289.6406 119.0469 289.2969 118.6875 288.8906 118.6875 ZM290.4688 112.5781 C290.7188 112.8906 290.875 113.2656 290.8906 113.6562 C290.8906 114.1875 290.625 114.5 290.0312 114.7656 L289.4062 115.0156 C288.6406 115.3125 288.3906 115.5469 288.3906 115.9375 C288.3906 116.1094 288.4531 116.3438 288.5781 116.8125 L288.7344 117.3438 L289.1094 117.3438 L289.0938 116.5312 C289.0938 116.0938 289.2031 115.9688 289.7812 115.7344 L290.2031 115.5625 C291.0312 115.2188 291.4531 114.6875 291.4531 113.8438 C291.4531 112.1562 289.6562 111.1875 288.5 111.0312 C288.1094 111.125 287.9062 111.2969 287.9062 111.6406 C287.9062 111.9375 288.0625 112.1562 288.7188 112.2656 L290.4688 112.5781 Z"
      /><rect x="268" y="129" width="5" style="fill:white; stroke:none;" height="10"
      /><path style="stroke:none;" d="M269.8906 137.6875 C269.4844 137.6875 269.1562 138.0469 269.1562 138.4219 C269.1562 138.8125 269.4844 139.1562 269.8906 139.1562 C270.2969 139.1562 270.6406 138.8125 270.6406 138.4219 C270.6406 138.0469 270.2969 137.6875 269.8906 137.6875 ZM271.4688 131.5781 C271.7188 131.8906 271.875 132.2656 271.8906 132.6562 C271.8906 133.1875 271.625 133.5 271.0312 133.7656 L270.4062 134.0156 C269.6406 134.3125 269.3906 134.5469 269.3906 134.9375 C269.3906 135.1094 269.4531 135.3438 269.5781 135.8125 L269.7344 136.3438 L270.1094 136.3438 L270.0938 135.5312 C270.0938 135.0938 270.2031 134.9688 270.7812 134.7344 L271.2031 134.5625 C272.0312 134.2188 272.4531 133.6875 272.4531 132.8438 C272.4531 131.1562 270.6562 130.1875 269.5 130.0312 C269.1094 130.125 268.9062 130.2969 268.9062 130.6406 C268.9062 130.9375 269.0625 131.1562 269.7188 131.2656 L271.4688 131.5781 Z"
      /><rect x="279" y="96" width="5" style="fill:white; stroke:none;" height="10"
      /><path style="stroke:none;" d="M280.8906 104.6875 C280.4844 104.6875 280.1562 105.0469 280.1562 105.4219 C280.1562 105.8125 280.4844 106.1562 280.8906 106.1562 C281.2969 106.1562 281.6406 105.8125 281.6406 105.4219 C281.6406 105.0469 281.2969 104.6875 280.8906 104.6875 ZM282.4688 98.5781 C282.7188 98.8906 282.875 99.2656 282.8906 99.6562 C282.8906 100.1875 282.625 100.5 282.0312 100.7656 L281.4062 101.0156 C280.6406 101.3125 280.3906 101.5469 280.3906 101.9375 C280.3906 102.1094 280.4531 102.3438 280.5781 102.8125 L280.7344 103.3438 L281.1094 103.3438 L281.0938 102.5312 C281.0938 102.0938 281.2031 101.9688 281.7812 101.7344 L282.2031 101.5625 C283.0312 101.2188 283.4531 100.6875 283.4531 99.8438 C283.4531 98.1562 281.6562 97.1875 280.5 97.0312 C280.1094 97.125 279.9062 97.2969 279.9062 97.6406 C279.9062 97.9375 280.0625 98.1562 280.7188 98.2656 L282.4688 98.5781 Z"
      /><rect x="265" y="96" width="5" style="fill:white; stroke:none;" height="10"
      /><path style="stroke:none;" d="M266.8906 104.6875 C266.4844 104.6875 266.1562 105.0469 266.1562 105.4219 C266.1562 105.8125 266.4844 106.1562 266.8906 106.1562 C267.2969 106.1562 267.6406 105.8125 267.6406 105.4219 C267.6406 105.0469 267.2969 104.6875 266.8906 104.6875 ZM268.4688 98.5781 C268.7188 98.8906 268.875 99.2656 268.8906 99.6562 C268.8906 100.1875 268.625 100.5 268.0312 100.7656 L267.4062 101.0156 C266.6406 101.3125 266.3906 101.5469 266.3906 101.9375 C266.3906 102.1094 266.4531 102.3438 266.5781 102.8125 L266.7344 103.3438 L267.1094 103.3438 L267.0938 102.5312 C267.0938 102.0938 267.2031 101.9688 267.7812 101.7344 L268.2031 101.5625 C269.0312 101.2188 269.4531 100.6875 269.4531 99.8438 C269.4531 98.1562 267.6562 97.1875 266.5 97.0312 C266.1094 97.125 265.9062 97.2969 265.9062 97.6406 C265.9062 97.9375 266.0625 98.1562 266.7188 98.2656 L268.4688 98.5781 Z"
      /><rect x="276" y="77" width="5" style="fill:white; stroke:none;" height="10"
      /><path style="stroke:none;" d="M277.8906 85.6875 C277.4844 85.6875 277.1562 86.0469 277.1562 86.4219 C277.1562 86.8125 277.4844 87.1562 277.8906 87.1562 C278.2969 87.1562 278.6406 86.8125 278.6406 86.4219 C278.6406 86.0469 278.2969 85.6875 277.8906 85.6875 ZM279.4688 79.5781 C279.7188 79.8906 279.875 80.2656 279.8906 80.6562 C279.8906 81.1875 279.625 81.5 279.0312 81.7656 L278.4062 82.0156 C277.6406 82.3125 277.3906 82.5469 277.3906 82.9375 C277.3906 83.1094 277.4531 83.3438 277.5781 83.8125 L277.7344 84.3438 L278.1094 84.3438 L278.0938 83.5312 C278.0938 83.0938 278.2031 82.9688 278.7812 82.7344 L279.2031 82.5625 C280.0312 82.2188 280.4531 81.6875 280.4531 80.8438 C280.4531 79.1562 278.6562 78.1875 277.5 78.0312 C277.1094 78.125 276.9062 78.2969 276.9062 78.6406 C276.9062 78.9375 277.0625 79.1562 277.7188 79.2656 L279.4688 79.5781 Z"
      /><rect x="257" y="58" width="5" style="fill:white; stroke:none;" height="10"
      /><path style="stroke:none;" d="M258.8906 66.6875 C258.4844 66.6875 258.1562 67.0469 258.1562 67.4219 C258.1562 67.8125 258.4844 68.1562 258.8906 68.1562 C259.2969 68.1562 259.6406 67.8125 259.6406 67.4219 C259.6406 67.0469 259.2969 66.6875 258.8906 66.6875 ZM260.4688 60.5781 C260.7188 60.8906 260.875 61.2656 260.8906 61.6562 C260.8906 62.1875 260.625 62.5 260.0312 62.7656 L259.4062 63.0156 C258.6406 63.3125 258.3906 63.5469 258.3906 63.9375 C258.3906 64.1094 258.4531 64.3438 258.5781 64.8125 L258.7344 65.3438 L259.1094 65.3438 L259.0938 64.5312 C259.0938 64.0938 259.2031 63.9688 259.7812 63.7344 L260.2031 63.5625 C261.0312 63.2188 261.4531 62.6875 261.4531 61.8438 C261.4531 60.1562 259.6562 59.1875 258.5 59.0312 C258.1094 59.125 257.9062 59.2969 257.9062 59.6406 C257.9062 59.9375 258.0625 60.1562 258.7188 60.2656 L260.4688 60.5781 Z"
      /><rect x="331" y="96" width="5" style="fill:white; stroke:none;" height="10"
      /><path style="stroke:none;" d="M332.8906 104.6875 C332.4844 104.6875 332.1562 105.0469 332.1562 105.4219 C332.1562 105.8125 332.4844 106.1562 332.8906 106.1562 C333.2969 106.1562 333.6406 105.8125 333.6406 105.4219 C333.6406 105.0469 333.2969 104.6875 332.8906 104.6875 ZM334.4688 98.5781 C334.7188 98.8906 334.875 99.2656 334.8906 99.6562 C334.8906 100.1875 334.625 100.5 334.0312 100.7656 L333.4062 101.0156 C332.6406 101.3125 332.3906 101.5469 332.3906 101.9375 C332.3906 102.1094 332.4531 102.3438 332.5781 102.8125 L332.7344 103.3438 L333.1094 103.3438 L333.0938 102.5312 C333.0938 102.0938 333.2031 101.9688 333.7812 101.7344 L334.2031 101.5625 C335.0312 101.2188 335.4531 100.6875 335.4531 99.8438 C335.4531 98.1562 333.6562 97.1875 332.5 97.0312 C332.1094 97.125 331.9062 97.2969 331.9062 97.6406 C331.9062 97.9375 332.0625 98.1562 332.7188 98.2656 L334.4688 98.5781 Z"
      /><rect x="317" y="96" width="5" style="fill:white; stroke:none;" height="10"
      /><path style="stroke:none;" d="M318.8906 104.6875 C318.4844 104.6875 318.1562 105.0469 318.1562 105.4219 C318.1562 105.8125 318.4844 106.1562 318.8906 106.1562 C319.2969 106.1562 319.6406 105.8125 319.6406 105.4219 C319.6406 105.0469 319.2969 104.6875 318.8906 104.6875 ZM320.4688 98.5781 C320.7188 98.8906 320.875 99.2656 320.8906 99.6562 C320.8906 100.1875 320.625 100.5 320.0312 100.7656 L319.4062 101.0156 C318.6406 101.3125 318.3906 101.5469 318.3906 101.9375 C318.3906 102.1094 318.4531 102.3438 318.5781 102.8125 L318.7344 103.3438 L319.1094 103.3438 L319.0938 102.5312 C319.0938 102.0938 319.2031 101.9688 319.7812 101.7344 L320.2031 101.5625 C321.0312 101.2188 321.4531 100.6875 321.4531 99.8438 C321.4531 98.1562 319.6562 97.1875 318.5 97.0312 C318.1094 97.125 317.9062 97.2969 317.9062 97.6406 C317.9062 97.9375 318.0625 98.1562 318.7188 98.2656 L320.4688 98.5781 Z"
      /><polygon style="fill:white; clip-path:url(#clipPath11); stroke:none;" points=" 405 52 394 30 416 30"
      /><rect x="394" y="30" width="22" style="clip-path:url(#clipPath11); fill:rgb(237,28,36); stroke:none;" height="22"
      /><rect x="394" y="30" width="22" style="fill:none; clip-path:url(#clipPath11);" height="22"
      /><polygon style="fill:none;" points=" 405 52 394 30 416 30"
      /><rect x="383" y="96" width="5" style="fill:white; stroke:none;" height="10"
      /><path style="stroke:none;" d="M384.8906 104.6875 C384.4844 104.6875 384.1562 105.0469 384.1562 105.4219 C384.1562 105.8125 384.4844 106.1562 384.8906 106.1562 C385.2969 106.1562 385.6406 105.8125 385.6406 105.4219 C385.6406 105.0469 385.2969 104.6875 384.8906 104.6875 ZM386.4688 98.5781 C386.7188 98.8906 386.875 99.2656 386.8906 99.6562 C386.8906 100.1875 386.625 100.5 386.0312 100.7656 L385.4062 101.0156 C384.6406 101.3125 384.3906 101.5469 384.3906 101.9375 C384.3906 102.1094 384.4531 102.3438 384.5781 102.8125 L384.7344 103.3438 L385.1094 103.3438 L385.0938 102.5312 C385.0938 102.0938 385.2031 101.9688 385.7812 101.7344 L386.2031 101.5625 C387.0312 101.2188 387.4531 100.6875 387.4531 99.8438 C387.4531 98.1562 385.6562 97.1875 384.5 97.0312 C384.1094 97.125 383.9062 97.2969 383.9062 97.6406 C383.9062 97.9375 384.0625 98.1562 384.7188 98.2656 L386.4688 98.5781 Z"
      /><rect x="369" y="96" width="5" style="fill:white; stroke:none;" height="10"
      /><path style="stroke:none;" d="M370.8906 104.6875 C370.4844 104.6875 370.1562 105.0469 370.1562 105.4219 C370.1562 105.8125 370.4844 106.1562 370.8906 106.1562 C371.2969 106.1562 371.6406 105.8125 371.6406 105.4219 C371.6406 105.0469 371.2969 104.6875 370.8906 104.6875 ZM372.4688 98.5781 C372.7188 98.8906 372.875 99.2656 372.8906 99.6562 C372.8906 100.1875 372.625 100.5 372.0312 100.7656 L371.4062 101.0156 C370.6406 101.3125 370.3906 101.5469 370.3906 101.9375 C370.3906 102.1094 370.4531 102.3438 370.5781 102.8125 L370.7344 103.3438 L371.1094 103.3438 L371.0938 102.5312 C371.0938 102.0938 371.2031 101.9688 371.7812 101.7344 L372.2031 101.5625 C373.0312 101.2188 373.4531 100.6875 373.4531 99.8438 C373.4531 98.1562 371.6562 97.1875 370.5 97.0312 C370.1094 97.125 369.9062 97.2969 369.9062 97.6406 C369.9062 97.9375 370.0625 98.1562 370.7188 98.2656 L372.4688 98.5781 Z"
      /><rect x="394" y="69" width="5" style="fill:white; stroke:none;" height="10"
      /><path style="stroke:none;" d="M395.8906 77.6875 C395.4844 77.6875 395.1562 78.0469 395.1562 78.4219 C395.1562 78.8125 395.4844 79.1562 395.8906 79.1562 C396.2969 79.1562 396.6406 78.8125 396.6406 78.4219 C396.6406 78.0469 396.2969 77.6875 395.8906 77.6875 ZM397.4688 71.5781 C397.7188 71.8906 397.875 72.2656 397.8906 72.6562 C397.8906 73.1875 397.625 73.5 397.0312 73.7656 L396.4062 74.0156 C395.6406 74.3125 395.3906 74.5469 395.3906 74.9375 C395.3906 75.1094 395.4531 75.3438 395.5781 75.8125 L395.7344 76.3438 L396.1094 76.3438 L396.0938 75.5312 C396.0938 75.0938 396.2031 74.9688 396.7812 74.7344 L397.2031 74.5625 C398.0312 74.2188 398.4531 73.6875 398.4531 72.8438 C398.4531 71.1562 396.6562 70.1875 395.5 70.0312 C395.1094 70.125 394.9062 70.2969 394.9062 70.6406 C394.9062 70.9375 395.0625 71.1562 395.7188 71.2656 L397.4688 71.5781 Z"
      /><rect x="394" y="55" width="5" style="fill:white; stroke:none;" height="10"
      /><path style="stroke:none;" d="M395.8906 63.6875 C395.4844 63.6875 395.1562 64.0469 395.1562 64.4219 C395.1562 64.8125 395.4844 65.1562 395.8906 65.1562 C396.2969 65.1562 396.6406 64.8125 396.6406 64.4219 C396.6406 64.0469 396.2969 63.6875 395.8906 63.6875 ZM397.4688 57.5781 C397.7188 57.8906 397.875 58.2656 397.8906 58.6562 C397.8906 59.1875 397.625 59.5 397.0312 59.7656 L396.4062 60.0156 C395.6406 60.3125 395.3906 60.5469 395.3906 60.9375 C395.3906 61.1094 395.4531 61.3438 395.5781 61.8125 L395.7344 62.3438 L396.1094 62.3438 L396.0938 61.5312 C396.0938 61.0938 396.2031 60.9688 396.7812 60.7344 L397.2031 60.5625 C398.0312 60.2188 398.4531 59.6875 398.4531 58.8438 C398.4531 57.1562 396.6562 56.1875 395.5 56.0312 C395.1094 56.125 394.9062 56.2969 394.9062 56.6406 C394.9062 56.9375 395.0625 57.1562 395.7188 57.2656 L397.4688 57.5781 Z"
      /><rect x="421" y="96" width="5" style="fill:white; stroke:none;" height="10"
      /><path style="stroke:none;" d="M422.8906 104.6875 C422.4844 104.6875 422.1562 105.0469 422.1562 105.4219 C422.1562 105.8125 422.4844 106.1562 422.8906 106.1562 C423.2969 106.1562 423.6406 105.8125 423.6406 105.4219 C423.6406 105.0469 423.2969 104.6875 422.8906 104.6875 ZM424.4688 98.5781 C424.7188 98.8906 424.875 99.2656 424.8906 99.6562 C424.8906 100.1875 424.625 100.5 424.0312 100.7656 L423.4062 101.0156 C422.6406 101.3125 422.3906 101.5469 422.3906 101.9375 C422.3906 102.1094 422.4531 102.3438 422.5781 102.8125 L422.7344 103.3438 L423.1094 103.3438 L423.0938 102.5312 C423.0938 102.0938 423.2031 101.9688 423.7812 101.7344 L424.2031 101.5625 C425.0312 101.2188 425.4531 100.6875 425.4531 99.8438 C425.4531 98.1562 423.6562 97.1875 422.5 97.0312 C422.1094 97.125 421.9062 97.2969 421.9062 97.6406 C421.9062 97.9375 422.0625 98.1562 422.7188 98.2656 L424.4688 98.5781 Z"
    /></g
  ></g
></svg
>
