<?xml version="1.0"?>
<!DOCTYPE svg PUBLIC '-//W3C//DTD SVG 1.0//EN'
          'http://www.w3.org/TR/2001/REC-SVG-20010904/DTD/svg10.dtd'>
<svg xmlns:xlink="http://www.w3.org/1999/xlink" style="fill-opacity:1; color-rendering:auto; color-interpolation:auto; text-rendering:auto; stroke:black; stroke-linecap:square; stroke-miterlimit:10; shape-rendering:auto; stroke-opacity:1; fill:black; stroke-dasharray:none; font-weight:normal; stroke-width:1; font-family:'Dialog'; font-style:normal; stroke-linejoin:miter; font-size:12px; stroke-dashoffset:0; image-rendering:auto;" viewBox="0 0 342 238" xmlns="http://www.w3.org/2000/svg"
><!--Generated by the Batik Graphics2D SVG Generator--><defs id="genericDefs"
  /><g
  ><defs id="defs1"
    ><clipPath clipPathUnits="userSpaceOnUse" id="clipPath1"
      ><path d="M238 108 L260 108 L260 130 L238 130 L238 108 Z"
      /></clipPath
      ><clipPath clipPathUnits="userSpaceOnUse" id="clipPath2"
      ><path d="M208 119 C208 125.0751 203.0751 130 197 130 C190.9249 130 186 125.0751 186 119 C186 112.9249 190.9249 108 197 108 C203.0751 108 208 112.9249 208 119 Z"
      /></clipPath
      ><clipPath clipPathUnits="userSpaceOnUse" id="clipPath3"
      ><path d="M156 171 C156 177.0751 151.0751 182 145 182 C138.9249 182 134 177.0751 134 171 C134 164.9249 138.9249 160 145 160 C151.0751 160 156 164.9249 156 171 Z"
      /></clipPath
      ><clipPath clipPathUnits="userSpaceOnUse" id="clipPath4"
      ><path d="M104 197 C104 203.0751 99.0751 208 93 208 C86.9249 208 82 203.0751 82 197 C82 190.9249 86.9249 186 93 186 C99.0751 186 104 190.9249 104 197 Z"
      /></clipPath
      ><clipPath clipPathUnits="userSpaceOnUse" id="clipPath5"
      ><path d="M52 197 C52 203.0751 47.0751 208 41 208 C34.9249 208 30 203.0751 30 197 C30 190.9249 34.9249 186 41 186 C47.0751 186 52 190.9249 52 197 Z"
      /></clipPath
      ><clipPath clipPathUnits="userSpaceOnUse" id="clipPath6"
      ><path d="M104 145 C104 151.0751 99.0751 156 93 156 C86.9249 156 82 151.0751 82 145 C82 138.9249 86.9249 134 93 134 C99.0751 134 104 138.9249 104 145 Z"
      /></clipPath
      ><clipPath clipPathUnits="userSpaceOnUse" id="clipPath7"
      ><path d="M156 67 C156 73.0751 151.0751 78 145 78 C138.9249 78 134 73.0751 134 67 C134 60.9249 138.9249 56 145 56 C151.0751 56 156 60.9249 156 67 Z"
      /></clipPath
      ><clipPath clipPathUnits="userSpaceOnUse" id="clipPath8"
      ><path d="M104 93 C104 99.0751 99.0751 104 93 104 C86.9249 104 82 99.0751 82 93 C82 86.9249 86.9249 82 93 82 C99.0751 82 104 86.9249 104 93 Z"
      /></clipPath
      ><clipPath clipPathUnits="userSpaceOnUse" id="clipPath9"
      ><path d="M52 93 C52 99.0751 47.0751 104 41 104 C34.9249 104 30 99.0751 30 93 C30 86.9249 34.9249 82 41 82 C47.0751 82 52 86.9249 52 93 Z"
      /></clipPath
      ><clipPath clipPathUnits="userSpaceOnUse" id="clipPath10"
      ><path d="M104 41 C104 47.0751 99.0751 52 93 52 C86.9249 52 82 47.0751 82 41 C82 34.9249 86.9249 30 93 30 C99.0751 30 104 34.9249 104 41 Z"
      /></clipPath
      ><clipPath clipPathUnits="userSpaceOnUse" id="clipPath11"
      ><path d="M52 41 C52 47.0751 47.0751 52 41 52 C34.9249 52 30 47.0751 30 41 C30 34.9249 34.9249 30 41 30 C47.0751 30 52 34.9249 52 41 Z"
      /></clipPath
    ></defs
    ><g style="fill:white; text-rendering:optimizeSpeed; stroke:white;"
    ><rect x="0" width="342" height="238" y="0" style="stroke:none;"
      /><polygon style="fill:none; stroke:black;" points=" 301 119 249 119"
      /><path d="M301 108 C295.5 113.5 306.5 124.5 301 130" style="fill:none; stroke:black;"
      /><polygon style="fill:none; stroke:black;" points=" 249 119 197 119"
      /><rect x="238" y="108" width="22" style="clip-path:url(#clipPath1); stroke:none;" height="22"
      /><rect x="238" y="108" width="22" style="clip-path:url(#clipPath1); fill:rgb(0,144,188); stroke:none;" height="22"
      /><rect x="238" y="108" width="22" style="clip-path:url(#clipPath1); fill:none; stroke:black;" height="22"
      /><rect x="238" y="108" width="22" style="fill:none; stroke:black;" height="22"
      /><polygon style="fill:none; stroke:black;" points=" 197 119 145 171"
      /><polygon style="fill:none; stroke:black;" points=" 197 119 145 67"
      /><circle style="clip-path:url(#clipPath2); stroke:none;" r="11" cx="197" cy="119"
      /><rect x="186" y="108" width="22" style="clip-path:url(#clipPath2); fill:rgb(0,166,81); stroke:none;" height="22"
      /><rect x="186" y="108" width="22" style="clip-path:url(#clipPath2); fill:none; stroke:black;" height="22"
      /><circle style="fill:none; stroke:black;" r="11" cx="197" cy="119"
      /><polygon style="fill:none; stroke:black;" points=" 145 171 93 197"
      /><polygon style="fill:none; stroke:black;" points=" 145 171 93 145"
      /><circle style="clip-path:url(#clipPath3); stroke:none;" r="11" cx="145" cy="171"
      /><rect x="134" y="160" width="22" style="clip-path:url(#clipPath3); fill:rgb(0,166,81); stroke:none;" height="22"
      /><rect x="134" y="160" width="22" style="clip-path:url(#clipPath3); fill:none; stroke:black;" height="22"
      /><circle style="fill:none; stroke:black;" r="11" cx="145" cy="171"
      /><polygon style="fill:none; stroke:black;" points=" 93 197 41 197"
      /><circle style="clip-path:url(#clipPath4); stroke:none;" r="11" cx="93" cy="197"
      /><rect x="82" y="186" width="22" style="clip-path:url(#clipPath4); fill:rgb(0,166,81); stroke:none;" height="22"
      /><rect x="82" y="186" width="22" style="clip-path:url(#clipPath4); fill:none; stroke:black;" height="22"
      /><circle style="fill:none; stroke:black;" r="11" cx="93" cy="197"
      /><circle style="clip-path:url(#clipPath5); stroke:none;" r="11" cx="41" cy="197"
      /><rect x="30" y="186" width="22" style="clip-path:url(#clipPath5); fill:rgb(0,166,81); stroke:none;" height="22"
      /><rect x="30" y="186" width="22" style="clip-path:url(#clipPath5); fill:none; stroke:black;" height="22"
      /><circle style="fill:none; stroke:black;" r="11" cx="41" cy="197"
      /><rect x="71" y="200" width="6" style="stroke:none;" height="9"
    /></g
    ><g style="font-family:'Serif'; text-rendering:optimizeSpeed; "
    ><path style="stroke:none;" d="M72.4219 208.0938 C73.0781 207.375 73.7031 206.7188 74.0312 206.3438 C75.9219 204.3125 76.5312 203.4688 76.5312 202.3594 C76.5312 201.0156 75.7812 200.0781 74.1562 200.0781 C72.9062 200.0781 71.7969 200.7031 71.5938 201.9688 C71.7188 202.2031 71.9062 202.3438 72.1562 202.3438 C72.4688 202.3438 72.6562 202.1094 72.7969 201.5938 L73.0938 200.6719 C73.3906 200.5938 73.6562 200.5625 73.8906 200.5625 C74.9219 200.5625 75.5469 201.3125 75.5469 202.4219 C75.5469 203.4375 74.9844 204.4219 73.7031 205.9062 C73.125 206.5781 72.3906 207.4375 71.6406 208.2812 L71.6406 209 L76.9219 209 L76.9219 208.0938 L72.4219 208.0938 Z"
      /><rect x="56" y="201" width="8" style="fill:white; stroke:none;" height="8"
      /><path style="stroke:none;" d="M60.9844 206.7031 C60.9375 207.8906 60.1562 208.6562 59.3125 208.6562 C58.2656 208.6562 57.5 207.6875 57.5 205.7188 C57.5 204.2812 58.1562 203.1562 59.3438 203.1562 C60.1406 203.1562 60.7812 203.6875 61.0938 204.6406 L60.9844 206.7031 ZM62.9062 208.2812 C62.7344 208.375 62.5469 208.4219 62.3438 208.4219 C61.9531 208.4219 61.75 208.2188 61.75 207.4219 C61.75 206.4844 61.9688 204.5312 62.1875 202.8281 L62.0312 202.7188 L61.2344 202.9219 L61.1406 203.7969 C60.7812 203.0312 60.1562 202.6562 59.3906 202.6562 C58.0469 202.6562 56.5625 203.8438 56.5625 205.9531 C56.5625 208.0938 57.7188 209.1719 59.1406 209.1719 C60.0156 209.1719 60.6875 208.8125 61.0938 207.9844 C61.2031 208.8594 61.5156 209.1719 62.0156 209.1719 C62.4688 209.1719 62.7969 208.9062 63.0156 208.5625 L62.9062 208.2812 Z"
      /><circle style="fill:white; clip-path:url(#clipPath6); stroke:none;" r="11" cx="93" cy="145"
      /><rect x="82" y="134" width="22" style="clip-path:url(#clipPath6); fill:rgb(0,166,81); stroke:none;" height="22"
      /><rect x="82" y="134" width="22" style="fill:none; clip-path:url(#clipPath6);" height="22"
      /><circle r="11" style="fill:none;" cx="93" cy="145"
      /><rect x="127" y="182" width="6" style="fill:white; stroke:none;" height="9"
      /><path style="stroke:none;" d="M128.4219 190.0938 C129.0781 189.375 129.7031 188.7188 130.0312 188.3438 C131.9219 186.3125 132.5312 185.4688 132.5312 184.3594 C132.5312 183.0156 131.7812 182.0781 130.1562 182.0781 C128.9062 182.0781 127.7969 182.7031 127.5938 183.9688 C127.7188 184.2031 127.9062 184.3438 128.1562 184.3438 C128.4688 184.3438 128.6562 184.1094 128.7969 183.5938 L129.0938 182.6719 C129.3906 182.5938 129.6562 182.5625 129.8906 182.5625 C130.9219 182.5625 131.5469 183.3125 131.5469 184.4219 C131.5469 185.4375 130.9844 186.4219 129.7031 187.9062 C129.125 188.5781 128.3906 189.4375 127.6406 190.2812 L127.6406 191 L132.9219 191 L132.9219 190.0938 L128.4219 190.0938 Z"
      /><rect x="110" y="191" width="8" style="fill:white; stroke:none;" height="8"
      /><path style="stroke:none;" d="M114.9844 196.7031 C114.9375 197.8906 114.1562 198.6562 113.3125 198.6562 C112.2656 198.6562 111.5 197.6875 111.5 195.7188 C111.5 194.2812 112.1562 193.1562 113.3438 193.1562 C114.1406 193.1562 114.7812 193.6875 115.0938 194.6406 L114.9844 196.7031 ZM116.9062 198.2812 C116.7344 198.375 116.5469 198.4219 116.3438 198.4219 C115.9531 198.4219 115.75 198.2188 115.75 197.4219 C115.75 196.4844 115.9688 194.5312 116.1875 192.8281 L116.0312 192.7188 L115.2344 192.9219 L115.1406 193.7969 C114.7812 193.0312 114.1562 192.6562 113.3906 192.6562 C112.0469 192.6562 110.5625 193.8438 110.5625 195.9531 C110.5625 198.0938 111.7188 199.1719 113.1406 199.1719 C114.0156 199.1719 114.6875 198.8125 115.0938 197.9844 C115.2031 198.8594 115.5156 199.1719 116.0156 199.1719 C116.4688 199.1719 116.7969 198.9062 117.0156 198.5625 L116.9062 198.2812 Z"
      /><rect x="120" y="164" width="6" style="fill:white; stroke:none;" height="10"
      /><path style="stroke:none;" d="M123.3438 173.6875 C122.2031 173.6875 121.5312 172.5 121.5312 170.2969 C121.5312 170.2188 121.5312 170.125 121.5312 170.0469 C122.0938 169.5 122.7188 169.3125 123.3438 169.3125 C124.3125 169.3125 124.9531 169.9844 124.9531 171.4531 C124.9531 172.9375 124.3125 173.6875 123.3438 173.6875 ZM125.5312 165.0781 C122.3438 165.4531 120.5625 167.7656 120.5625 170.4531 C120.5625 172.7812 121.6094 174.1719 123.3125 174.1719 C124.8438 174.1719 125.9219 173.1094 125.9219 171.2812 C125.9219 169.6875 124.9688 168.6562 123.5625 168.6562 C122.8281 168.6562 122.1406 168.9844 121.5781 169.5781 C121.7969 167.4062 123.0781 165.9688 125.5938 165.3906 L125.5312 165.0781 Z"
      /><rect x="103" y="157" width="8" style="fill:white; stroke:none;" height="8"
      /><path style="stroke:none;" d="M107.9844 162.7031 C107.9375 163.8906 107.1562 164.6562 106.3125 164.6562 C105.2656 164.6562 104.5 163.6875 104.5 161.7188 C104.5 160.2812 105.1562 159.1562 106.3438 159.1562 C107.1406 159.1562 107.7812 159.6875 108.0938 160.6406 L107.9844 162.7031 ZM109.9062 164.2812 C109.7344 164.375 109.5469 164.4219 109.3438 164.4219 C108.9531 164.4219 108.75 164.2188 108.75 163.4219 C108.75 162.4844 108.9688 160.5312 109.1875 158.8281 L109.0312 158.7188 L108.2344 158.9219 L108.1406 159.7969 C107.7812 159.0312 107.1562 158.6562 106.3906 158.6562 C105.0469 158.6562 103.5625 159.8438 103.5625 161.9531 C103.5625 164.0938 104.7188 165.1719 106.1406 165.1719 C107.0156 165.1719 107.6875 164.8125 108.0938 163.9844 C108.2031 164.8594 108.5156 165.1719 109.0156 165.1719 C109.4688 165.1719 109.7969 164.9062 110.0156 164.5625 L109.9062 164.2812 Z"
      /><polygon style="fill:none;" points=" 145 67 93 93"
      /><polygon style="fill:none;" points=" 145 67 93 41"
      /><circle style="fill:white; clip-path:url(#clipPath7); stroke:none;" r="11" cx="145" cy="67"
      /><rect x="134" y="56" width="22" style="clip-path:url(#clipPath7); fill:rgb(0,166,81); stroke:none;" height="22"
      /><rect x="134" y="56" width="22" style="fill:none; clip-path:url(#clipPath7);" height="22"
      /><circle r="11" style="fill:none;" cx="145" cy="67"
      /><polygon style="fill:none;" points=" 93 93 41 93"
      /><circle style="fill:white; clip-path:url(#clipPath8); stroke:none;" r="11" cx="93" cy="93"
      /><rect x="82" y="82" width="22" style="clip-path:url(#clipPath8); fill:rgb(0,166,81); stroke:none;" height="22"
      /><rect x="82" y="82" width="22" style="fill:none; clip-path:url(#clipPath8);" height="22"
      /><circle r="11" style="fill:none;" cx="93" cy="93"
      /><circle style="fill:white; clip-path:url(#clipPath9); stroke:none;" r="11" cx="41" cy="93"
      /><rect x="30" y="82" width="22" style="clip-path:url(#clipPath9); fill:rgb(0,166,81); stroke:none;" height="22"
      /><rect x="30" y="82" width="22" style="fill:none; clip-path:url(#clipPath9);" height="22"
      /><circle r="11" style="fill:none;" cx="41" cy="93"
      /><rect x="71" y="96" width="6" style="fill:white; stroke:none;" height="9"
      /><path style="stroke:none;" d="M72.4219 104.0938 C73.0781 103.375 73.7031 102.7188 74.0312 102.3438 C75.9219 100.3125 76.5312 99.4688 76.5312 98.3594 C76.5312 97.0156 75.7812 96.0781 74.1562 96.0781 C72.9062 96.0781 71.7969 96.7031 71.5938 97.9688 C71.7188 98.2031 71.9062 98.3438 72.1562 98.3438 C72.4688 98.3438 72.6562 98.1094 72.7969 97.5938 L73.0938 96.6719 C73.3906 96.5938 73.6562 96.5625 73.8906 96.5625 C74.9219 96.5625 75.5469 97.3125 75.5469 98.4219 C75.5469 99.4375 74.9844 100.4219 73.7031 101.9062 C73.125 102.5781 72.3906 103.4375 71.6406 104.2812 L71.6406 105 L76.9219 105 L76.9219 104.0938 L72.4219 104.0938 Z"
      /><rect x="56" y="97" width="8" style="fill:white; stroke:none;" height="8"
      /><path style="stroke:none;" d="M60.9844 102.7031 C60.9375 103.8906 60.1562 104.6562 59.3125 104.6562 C58.2656 104.6562 57.5 103.6875 57.5 101.7188 C57.5 100.2812 58.1562 99.1562 59.3438 99.1562 C60.1406 99.1562 60.7812 99.6875 61.0938 100.6406 L60.9844 102.7031 ZM62.9062 104.2812 C62.7344 104.375 62.5469 104.4219 62.3438 104.4219 C61.9531 104.4219 61.75 104.2188 61.75 103.4219 C61.75 102.4844 61.9688 100.5312 62.1875 98.8281 L62.0312 98.7188 L61.2344 98.9219 L61.1406 99.7969 C60.7812 99.0312 60.1562 98.6562 59.3906 98.6562 C58.0469 98.6562 56.5625 99.8438 56.5625 101.9531 C56.5625 104.0938 57.7188 105.1719 59.1406 105.1719 C60.0156 105.1719 60.6875 104.8125 61.0938 103.9844 C61.2031 104.8594 61.5156 105.1719 62.0156 105.1719 C62.4688 105.1719 62.7969 104.9062 63.0156 104.5625 L62.9062 104.2812 Z"
      /><polygon style="fill:none;" points=" 93 41 41 41"
      /><circle style="fill:white; clip-path:url(#clipPath10); stroke:none;" r="11" cx="93" cy="41"
      /><rect x="82" y="30" width="22" style="clip-path:url(#clipPath10); fill:rgb(0,166,81); stroke:none;" height="22"
      /><rect x="82" y="30" width="22" style="fill:none; clip-path:url(#clipPath10);" height="22"
      /><circle r="11" style="fill:none;" cx="93" cy="41"
      /><circle style="fill:white; clip-path:url(#clipPath11); stroke:none;" r="11" cx="41" cy="41"
      /><rect x="30" y="30" width="22" style="clip-path:url(#clipPath11); fill:rgb(0,166,81); stroke:none;" height="22"
      /><rect x="30" y="30" width="22" style="fill:none; clip-path:url(#clipPath11);" height="22"
      /><circle r="11" style="fill:none;" cx="41" cy="41"
      /><rect x="71" y="44" width="6" style="fill:white; stroke:none;" height="9"
      /><path style="stroke:none;" d="M72.4219 52.0938 C73.0781 51.375 73.7031 50.7188 74.0312 50.3438 C75.9219 48.3125 76.5312 47.4688 76.5312 46.3594 C76.5312 45.0156 75.7812 44.0781 74.1562 44.0781 C72.9062 44.0781 71.7969 44.7031 71.5938 45.9688 C71.7188 46.2031 71.9062 46.3438 72.1562 46.3438 C72.4688 46.3438 72.6562 46.1094 72.7969 45.5938 L73.0938 44.6719 C73.3906 44.5938 73.6562 44.5625 73.8906 44.5625 C74.9219 44.5625 75.5469 45.3125 75.5469 46.4219 C75.5469 47.4375 74.9844 48.4219 73.7031 49.9062 C73.125 50.5781 72.3906 51.4375 71.6406 52.2812 L71.6406 53 L76.9219 53 L76.9219 52.0938 L72.4219 52.0938 Z"
      /><rect x="56" y="45" width="8" style="fill:white; stroke:none;" height="8"
      /><path style="stroke:none;" d="M60.9844 50.7031 C60.9375 51.8906 60.1562 52.6562 59.3125 52.6562 C58.2656 52.6562 57.5 51.6875 57.5 49.7188 C57.5 48.2812 58.1562 47.1562 59.3438 47.1562 C60.1406 47.1562 60.7812 47.6875 61.0938 48.6406 L60.9844 50.7031 ZM62.9062 52.2812 C62.7344 52.375 62.5469 52.4219 62.3438 52.4219 C61.9531 52.4219 61.75 52.2188 61.75 51.4219 C61.75 50.4844 61.9688 48.5312 62.1875 46.8281 L62.0312 46.7188 L61.2344 46.9219 L61.1406 47.7969 C60.7812 47.0312 60.1562 46.6562 59.3906 46.6562 C58.0469 46.6562 56.5625 47.8438 56.5625 49.9531 C56.5625 52.0938 57.7188 53.1719 59.1406 53.1719 C60.0156 53.1719 60.6875 52.8125 61.0938 51.9844 C61.2031 52.8594 61.5156 53.1719 62.0156 53.1719 C62.4688 53.1719 62.7969 52.9062 63.0156 52.5625 L62.9062 52.2812 Z"
      /><rect x="127" y="78" width="6" style="fill:white; stroke:none;" height="10"
      /><path style="stroke:none;" d="M129.2344 79.6562 C129.5156 79.5938 129.7656 79.5625 130.0156 79.5625 C131.0625 79.5625 131.6719 80.1719 131.6719 81.2656 C131.6719 82.4375 130.9062 83.1094 129.7031 83.1094 L129.1875 83.1094 L129.1875 83.6406 L129.7969 83.6406 C131.2188 83.6406 131.9062 84.4219 131.9062 85.6406 C131.9062 86.8438 131.1719 87.6875 129.875 87.6875 C129.6094 87.6875 129.3125 87.6562 129.0156 87.5625 L128.7812 86.8125 C128.625 86.2812 128.5 86.0469 128.1406 86.0469 C127.8906 86.0469 127.7031 86.1719 127.5781 86.4219 C127.8438 87.6406 128.7812 88.1719 130.0312 88.1719 C131.7188 88.1719 132.875 87.125 132.875 85.7031 C132.875 84.5 132.2031 83.625 130.7969 83.375 C131.9531 83.0156 132.6094 82.2031 132.6094 81.2031 C132.6094 79.9219 131.6719 79.0781 130.1875 79.0781 C129.0469 79.0781 128.0625 79.5938 127.7969 80.6875 C127.9062 81 128.1094 81.1094 128.3594 81.1094 C128.7344 81.1094 128.8906 80.8906 129 80.4062 L129.2344 79.6562 Z"
      /><rect x="110" y="87" width="8" style="fill:white; stroke:none;" height="8"
      /><path style="stroke:none;" d="M114.9844 92.7031 C114.9375 93.8906 114.1562 94.6562 113.3125 94.6562 C112.2656 94.6562 111.5 93.6875 111.5 91.7188 C111.5 90.2812 112.1562 89.1562 113.3438 89.1562 C114.1406 89.1562 114.7812 89.6875 115.0938 90.6406 L114.9844 92.7031 ZM116.9062 94.2812 C116.7344 94.375 116.5469 94.4219 116.3438 94.4219 C115.9531 94.4219 115.75 94.2188 115.75 93.4219 C115.75 92.4844 115.9688 90.5312 116.1875 88.8281 L116.0312 88.7188 L115.2344 88.9219 L115.1406 89.7969 C114.7812 89.0312 114.1562 88.6562 113.3906 88.6562 C112.0469 88.6562 110.5625 89.8438 110.5625 91.9531 C110.5625 94.0938 111.7188 95.1719 113.1406 95.1719 C114.0156 95.1719 114.6875 94.8125 115.0938 93.9844 C115.2031 94.8594 115.5156 95.1719 116.0156 95.1719 C116.4688 95.1719 116.7969 94.9062 117.0156 94.5625 L116.9062 94.2812 Z"
      /><rect x="120" y="60" width="6" style="fill:white; stroke:none;" height="10"
      /><path style="stroke:none;" d="M123.3438 69.6875 C122.2031 69.6875 121.5312 68.5 121.5312 66.2969 C121.5312 66.2188 121.5312 66.125 121.5312 66.0469 C122.0938 65.5 122.7188 65.3125 123.3438 65.3125 C124.3125 65.3125 124.9531 65.9844 124.9531 67.4531 C124.9531 68.9375 124.3125 69.6875 123.3438 69.6875 ZM125.5312 61.0781 C122.3438 61.4531 120.5625 63.7656 120.5625 66.4531 C120.5625 68.7812 121.6094 70.1719 123.3125 70.1719 C124.8438 70.1719 125.9219 69.1094 125.9219 67.2812 C125.9219 65.6875 124.9688 64.6562 123.5625 64.6562 C122.8281 64.6562 122.1406 64.9844 121.5781 65.5781 C121.7969 63.4062 123.0781 61.9688 125.5938 61.3906 L125.5312 61.0781 Z"
      /><rect x="103" y="53" width="8" style="fill:white; stroke:none;" height="8"
      /><path style="stroke:none;" d="M107.9844 58.7031 C107.9375 59.8906 107.1562 60.6562 106.3125 60.6562 C105.2656 60.6562 104.5 59.6875 104.5 57.7188 C104.5 56.2812 105.1562 55.1562 106.3438 55.1562 C107.1406 55.1562 107.7812 55.6875 108.0938 56.6406 L107.9844 58.7031 ZM109.9062 60.2812 C109.7344 60.375 109.5469 60.4219 109.3438 60.4219 C108.9531 60.4219 108.75 60.2188 108.75 59.4219 C108.75 58.4844 108.9688 56.5312 109.1875 54.8281 L109.0312 54.7188 L108.2344 54.9219 L108.1406 55.7969 C107.7812 55.0312 107.1562 54.6562 106.3906 54.6562 C105.0469 54.6562 103.5625 55.8438 103.5625 57.9531 C103.5625 60.0938 104.7188 61.1719 106.1406 61.1719 C107.0156 61.1719 107.6875 60.8125 108.0938 59.9844 C108.2031 60.8594 108.5156 61.1719 109.0156 61.1719 C109.4688 61.1719 109.7969 60.9062 110.0156 60.5625 L109.9062 60.2812 Z"
      /><rect x="183" y="136" width="6" style="fill:white; stroke:none;" height="10"
      /><path style="stroke:none;" d="M185.2344 137.6562 C185.5156 137.5938 185.7656 137.5625 186.0156 137.5625 C187.0625 137.5625 187.6719 138.1719 187.6719 139.2656 C187.6719 140.4375 186.9062 141.1094 185.7031 141.1094 L185.1875 141.1094 L185.1875 141.6406 L185.7969 141.6406 C187.2188 141.6406 187.9062 142.4219 187.9062 143.6406 C187.9062 144.8438 187.1719 145.6875 185.875 145.6875 C185.6094 145.6875 185.3125 145.6562 185.0156 145.5625 L184.7812 144.8125 C184.625 144.2812 184.5 144.0469 184.1406 144.0469 C183.8906 144.0469 183.7031 144.1719 183.5781 144.4219 C183.8438 145.6406 184.7812 146.1719 186.0312 146.1719 C187.7188 146.1719 188.875 145.125 188.875 143.7031 C188.875 142.5 188.2031 141.625 186.7969 141.375 C187.9531 141.0156 188.6094 140.2031 188.6094 139.2031 C188.6094 137.9219 187.6719 137.0781 186.1875 137.0781 C185.0469 137.0781 184.0625 137.5938 183.7969 138.6875 C183.9062 139 184.1094 139.1094 184.3594 139.1094 C184.7344 139.1094 184.8906 138.8906 185 138.4062 L185.2344 137.6562 Z"
      /><rect x="163" y="156" width="8" style="fill:white; stroke:none;" height="8"
      /><path style="stroke:none;" d="M167.9844 161.7031 C167.9375 162.8906 167.1562 163.6562 166.3125 163.6562 C165.2656 163.6562 164.5 162.6875 164.5 160.7188 C164.5 159.2812 165.1562 158.1562 166.3438 158.1562 C167.1406 158.1562 167.7812 158.6875 168.0938 159.6406 L167.9844 161.7031 ZM169.9062 163.2812 C169.7344 163.375 169.5469 163.4219 169.3438 163.4219 C168.9531 163.4219 168.75 163.2188 168.75 162.4219 C168.75 161.4844 168.9688 159.5312 169.1875 157.8281 L169.0312 157.7188 L168.2344 157.9219 L168.1406 158.7969 C167.7812 158.0312 167.1562 157.6562 166.3906 157.6562 C165.0469 157.6562 163.5625 158.8438 163.5625 160.9531 C163.5625 163.0938 164.7188 164.1719 166.1406 164.1719 C167.0156 164.1719 167.6875 163.8125 168.0938 162.9844 C168.2031 163.8594 168.5156 164.1719 169.0156 164.1719 C169.4688 164.1719 169.7969 163.9062 170.0156 163.5625 L169.9062 163.2812 Z"
      /><rect x="171" y="103" width="6" style="fill:white; stroke:none;" height="10"
      /><path style="stroke:none;" d="M174.3438 112.6875 C173.2031 112.6875 172.5312 111.5 172.5312 109.2969 C172.5312 109.2188 172.5312 109.125 172.5312 109.0469 C173.0938 108.5 173.7188 108.3125 174.3438 108.3125 C175.3125 108.3125 175.9531 108.9844 175.9531 110.4531 C175.9531 111.9375 175.3125 112.6875 174.3438 112.6875 ZM176.5312 104.0781 C173.3438 104.4531 171.5625 106.7656 171.5625 109.4531 C171.5625 111.7812 172.6094 113.1719 174.3125 113.1719 C175.8438 113.1719 176.9219 112.1094 176.9219 110.2812 C176.9219 108.6875 175.9688 107.6562 174.5625 107.6562 C173.8281 107.6562 173.1406 107.9844 172.5781 108.5781 C172.7969 106.4062 174.0781 104.9688 176.5938 104.3906 L176.5312 104.0781 Z"
      /><rect x="152" y="85" width="8" style="fill:white; stroke:none;" height="8"
      /><path style="stroke:none;" d="M156.9844 90.7031 C156.9375 91.8906 156.1562 92.6562 155.3125 92.6562 C154.2656 92.6562 153.5 91.6875 153.5 89.7188 C153.5 88.2812 154.1562 87.1562 155.3438 87.1562 C156.1406 87.1562 156.7812 87.6875 157.0938 88.6406 L156.9844 90.7031 ZM158.9062 92.2812 C158.7344 92.375 158.5469 92.4219 158.3438 92.4219 C157.9531 92.4219 157.75 92.2188 157.75 91.4219 C157.75 90.4844 157.9688 88.5312 158.1875 86.8281 L158.0312 86.7188 L157.2344 86.9219 L157.1406 87.7969 C156.7812 87.0312 156.1562 86.6562 155.3906 86.6562 C154.0469 86.6562 152.5625 87.8438 152.5625 89.9531 C152.5625 92.0938 153.7188 93.1719 155.1406 93.1719 C156.0156 93.1719 156.6875 92.8125 157.0938 91.9844 C157.2031 92.8594 157.5156 93.1719 158.0156 93.1719 C158.4688 93.1719 158.7969 92.9062 159.0156 92.5625 L158.9062 92.2812 Z"
      /><rect x="226" y="122" width="7" style="fill:white; stroke:none;" height="9"
      /><path style="stroke:none;" d="M227 127.5156 L229.9531 123.2656 L229.9531 127.5156 L227 127.5156 ZM232.2812 127.5156 L230.8594 127.5156 L230.8594 122.125 L230.2344 122.125 L226.3438 127.6406 L226.3438 128.1875 L229.9531 128.1875 L229.9531 131 L230.8594 131 L230.8594 128.1875 L232.2812 128.1875 L232.2812 127.5156 Z"
      /><rect x="213" y="120" width="6" style="fill:white; stroke:none;" height="13"
      /><path style="stroke:none;" d="M215.0938 126.2031 C215.0938 124.6562 215.75 123.8125 216.7969 123.8125 C217.7188 123.8125 218.2656 124.4531 218.2656 125.5156 C218.2656 126.7188 217.5 127.4375 216.1875 127.7031 L216.2969 128.3125 C218.2188 128.2344 218.9375 129.2188 218.9375 130.4375 C218.9375 131.625 218.2344 132.4219 216.9531 132.4219 C216.25 132.4219 215.6562 132.1562 215.0938 131.7188 L215.0938 126.2031 ZM214.2031 132.9062 L214.1094 135.375 L214.2656 135.4844 L215.1562 135.2656 L215.0156 132.0938 C215.5469 132.8438 216.3594 133.1719 217.1719 133.1719 C218.5625 133.1719 219.8594 132.2188 219.8594 130.4844 C219.8594 128.9531 218.875 128.1094 217.125 128 C218.5625 127.6094 219.1875 126.4531 219.1875 125.4844 C219.1875 124.0938 218.1562 123.3125 216.9062 123.3125 C215.2969 123.3125 214.2188 124.5469 214.2188 126.5156 L214.2031 132.9062 Z"
      /><rect x="265" y="122" width="5" style="fill:white; stroke:none;" height="10"
      /><path style="stroke:none;" d="M266.8906 130.6875 C266.4844 130.6875 266.1562 131.0469 266.1562 131.4219 C266.1562 131.8125 266.4844 132.1562 266.8906 132.1562 C267.2969 132.1562 267.6406 131.8125 267.6406 131.4219 C267.6406 131.0469 267.2969 130.6875 266.8906 130.6875 ZM268.4688 124.5781 C268.7188 124.8906 268.875 125.2656 268.8906 125.6562 C268.8906 126.1875 268.625 126.5 268.0312 126.7656 L267.4062 127.0156 C266.6406 127.3125 266.3906 127.5469 266.3906 127.9375 C266.3906 128.1094 266.4531 128.3438 266.5781 128.8125 L266.7344 129.3438 L267.1094 129.3438 L267.0938 128.5312 C267.0938 128.0938 267.2031 127.9688 267.7812 127.7344 L268.2031 127.5625 C269.0312 127.2188 269.4531 126.6875 269.4531 125.8438 C269.4531 124.1562 267.6562 123.1875 266.5 123.0312 C266.1094 123.125 265.9062 123.2969 265.9062 123.6406 C265.9062 123.9375 266.0625 124.1562 266.7188 124.2656 L268.4688 124.5781 Z"
    /></g
  ></g
></svg
>
