<?xml version="1.0"?>
<!DOCTYPE svg PUBLIC '-//W3C//DTD SVG 1.0//EN'
          'http://www.w3.org/TR/2001/REC-SVG-20010904/DTD/svg10.dtd'>
<svg xmlns:xlink="http://www.w3.org/1999/xlink" style="fill-opacity:1; color-rendering:auto; color-interpolation:auto; text-rendering:auto; stroke:black; stroke-linecap:square; stroke-miterlimit:10; shape-rendering:auto; stroke-opacity:1; fill:black; stroke-dasharray:none; font-weight:normal; stroke-width:1; font-family:'Dialog'; font-style:normal; stroke-linejoin:miter; font-size:12px; stroke-dashoffset:0; image-rendering:auto;" viewBox="0 0 238 105" xmlns="http://www.w3.org/2000/svg"
><!--Generated by the Batik Graphics2D SVG Generator--><defs id="genericDefs"
  /><g
  ><defs id="defs1"
    ><clipPath clipPathUnits="userSpaceOnUse" id="clipPath1"
      ><path d="M134 30 L156 30 L156 52 L134 52 L134 30 Z"
      /></clipPath
      ><clipPath clipPathUnits="userSpaceOnUse" id="clipPath2"
      ><path style="fill-rule:evenodd;" d="M93 30 L104 41 L93 52 L82 41 Z"
      /></clipPath
      ><clipPath clipPathUnits="userSpaceOnUse" id="clipPath3"
      ><path d="M30 30 L52 30 L52 52 L30 52 L30 30 Z"
      /></clipPath
    ></defs
    ><g style="fill:white; text-rendering:optimizeSpeed; stroke:white;"
    ><rect x="0" width="238" height="105" y="0" style="stroke:none;"
      /><polygon style="fill:none; stroke:black;" points=" 197 41 145 41"
      /><path d="M197 30 C191.5 35.5 202.5 46.5 197 52" style="fill:none; stroke:black;"
      /><polygon style="fill:none; stroke:black;" points=" 145 41 93 41"
      /><rect x="134" y="30" width="22" style="clip-path:url(#clipPath1); stroke:none;" height="22"
      /><rect x="134" y="30" width="22" style="clip-path:url(#clipPath1); fill:rgb(0,144,188); stroke:none;" height="22"
      /><rect x="134" y="30" width="22" style="clip-path:url(#clipPath1); fill:none; stroke:black;" height="22"
      /><rect x="134" y="30" width="22" style="fill:none; stroke:black;" height="22"
      /><polygon style="fill:none; stroke:black;" points=" 93 41 41 41"
      /><polygon style="clip-path:url(#clipPath2); stroke:none;" points=" 93 30 104 41 93 52 82 41"
      /><rect x="82" y="30" width="22" style="clip-path:url(#clipPath2); fill:rgb(0,144,188); stroke:none;" height="11"
      /><rect x="82" y="30" width="22" style="clip-path:url(#clipPath2); fill:none; stroke:black;" height="11"
      /><polygon style="fill:none; stroke:black;" points=" 93 30 104 41 93 52 82 41"
      /><rect x="85" y="58" width="14" style="stroke:none;" height="10"
    /></g
    ><g style="text-rendering:optimizeSpeed; font-size:14px; font-family:'SansSerif';"
    ><path style="stroke:none;" d="M85.6094 69 L92.0625 69 L92.0625 67.8906 L89.2344 67.8906 C88.7031 67.8906 88.0781 67.9531 87.5469 67.9844 C89.9531 65.7031 91.5625 63.625 91.5625 61.5781 C91.5625 59.75 90.4219 58.5469 88.5781 58.5469 C87.2812 58.5469 86.4062 59.1406 85.5625 60.0469 L86.2969 60.7812 C86.8594 60.1094 87.5938 59.5938 88.4375 59.5938 C89.7031 59.5938 90.3125 60.4531 90.3125 61.625 C90.3125 63.3906 88.8438 65.4375 85.6094 68.25 L85.6094 69 ZM97.02 69.1875 C99.1606 69.1875 100.5043 67.8906 100.5043 66.2656 C100.5043 64.75 99.5825 64.0469 98.395 63.5312 L96.9262 62.8906 C96.1293 62.5625 95.2387 62.1875 95.2387 61.1875 C95.2387 60.2656 95.9887 59.6719 97.145 59.6719 C98.0981 59.6719 98.8637 60.0469 99.4887 60.6406 L100.1762 59.8125 C99.4418 59.0625 98.3637 58.5469 97.145 58.5469 C95.2856 58.5469 93.9106 59.6875 93.9106 61.2656 C93.9106 62.7656 95.0512 63.5 96.0043 63.9062 L97.4887 64.5469 C98.4575 64.9844 99.1918 65.3125 99.1918 66.375 C99.1918 67.375 98.3793 68.0469 97.0356 68.0469 C95.9731 68.0469 94.9418 67.5469 94.2075 66.7812 L93.4262 67.6562 C94.3168 68.5938 95.5668 69.1875 97.02 69.1875 Z"
    /></g
    ><g style="fill:white; text-rendering:optimizeSpeed; stroke:white;"
    ><rect x="30" y="30" width="22" style="clip-path:url(#clipPath3); stroke:none;" height="22"
      /><polygon style="fill:rgb(0,144,188); clip-path:url(#clipPath3); stroke:none;" points=" 30 30 52 30 52 52"
      /><polygon style="fill:none; clip-path:url(#clipPath3); stroke:black;" points=" 30 30 52 30 52 52"
      /><rect x="30" y="30" width="22" style="fill:none; stroke:black;" height="22"
      /><rect x="33" width="14" height="10" y="58" style="stroke:none;"
    /></g
    ><g style="text-rendering:optimizeSpeed; font-size:14px; font-family:'SansSerif';"
    ><path style="stroke:none;" d="M33.6094 69 L40.0625 69 L40.0625 67.8906 L37.2344 67.8906 C36.7031 67.8906 36.0781 67.9531 35.5469 67.9844 C37.9531 65.7031 39.5625 63.625 39.5625 61.5781 C39.5625 59.75 38.4219 58.5469 36.5781 58.5469 C35.2812 58.5469 34.4062 59.1406 33.5625 60.0469 L34.2969 60.7812 C34.8594 60.1094 35.5938 59.5938 36.4375 59.5938 C37.7031 59.5938 38.3125 60.4531 38.3125 61.625 C38.3125 63.3906 36.8438 65.4375 33.6094 68.25 L33.6094 69 ZM45.02 69.1875 C47.1606 69.1875 48.5043 67.8906 48.5043 66.2656 C48.5043 64.75 47.5825 64.0469 46.395 63.5312 L44.9262 62.8906 C44.1293 62.5625 43.2387 62.1875 43.2387 61.1875 C43.2387 60.2656 43.9887 59.6719 45.145 59.6719 C46.0981 59.6719 46.8637 60.0469 47.4887 60.6406 L48.1762 59.8125 C47.4418 59.0625 46.3637 58.5469 45.145 58.5469 C43.2856 58.5469 41.9106 59.6875 41.9106 61.2656 C41.9106 62.7656 43.0512 63.5 44.0043 63.9062 L45.4887 64.5469 C46.4575 64.9844 47.1918 65.3125 47.1918 66.375 C47.1918 67.375 46.3793 68.0469 45.0356 68.0469 C43.9731 68.0469 42.9418 67.5469 42.2075 66.7812 L41.4262 67.6562 C42.3168 68.5938 43.5668 69.1875 45.02 69.1875 Z"
    /></g
    ><g style="fill:white; text-rendering:optimizeSpeed; font-family:'Serif'; stroke:white;"
    ><rect x="70" width="7" height="9" y="44" style="stroke:none;"
      /><path d="M71 49.5156 L73.9531 45.2656 L73.9531 49.5156 L71 49.5156 ZM76.2812 49.5156 L74.8594 49.5156 L74.8594 44.125 L74.2344 44.125 L70.3438 49.6406 L70.3438 50.1875 L73.9531 50.1875 L73.9531 53 L74.8594 53 L74.8594 50.1875 L76.2812 50.1875 L76.2812 49.5156 Z" style="fill:black; stroke:none;"
      /><rect x="56" width="8" height="8" y="45" style="stroke:none;"
      /><path d="M60.9844 50.7031 C60.9375 51.8906 60.1562 52.6562 59.3125 52.6562 C58.2656 52.6562 57.5 51.6875 57.5 49.7188 C57.5 48.2812 58.1562 47.1562 59.3438 47.1562 C60.1406 47.1562 60.7812 47.6875 61.0938 48.6406 L60.9844 50.7031 ZM62.9062 52.2812 C62.7344 52.375 62.5469 52.4219 62.3438 52.4219 C61.9531 52.4219 61.75 52.2188 61.75 51.4219 C61.75 50.4844 61.9688 48.5312 62.1875 46.8281 L62.0312 46.7188 L61.2344 46.9219 L61.1406 47.7969 C60.7812 47.0312 60.1562 46.6562 59.3906 46.6562 C58.0469 46.6562 56.5625 47.8438 56.5625 49.9531 C56.5625 52.0938 57.7188 53.1719 59.1406 53.1719 C60.0156 53.1719 60.6875 52.8125 61.0938 51.9844 C61.2031 52.8594 61.5156 53.1719 62.0156 53.1719 C62.4688 53.1719 62.7969 52.9062 63.0156 52.5625 L62.9062 52.2812 Z" style="fill:black; stroke:none;"
      /><rect x="122" width="7" height="9" y="44" style="stroke:none;"
      /><path d="M123 49.5156 L125.9531 45.2656 L125.9531 49.5156 L123 49.5156 ZM128.2812 49.5156 L126.8594 49.5156 L126.8594 44.125 L126.2344 44.125 L122.3438 49.6406 L122.3438 50.1875 L125.9531 50.1875 L125.9531 53 L126.8594 53 L126.8594 50.1875 L128.2812 50.1875 L128.2812 49.5156 Z" style="fill:black; stroke:none;"
      /><rect x="109" width="6" height="13" y="42" style="stroke:none;"
      /><path d="M111.0938 48.2031 C111.0938 46.6562 111.75 45.8125 112.7969 45.8125 C113.7188 45.8125 114.2656 46.4531 114.2656 47.5156 C114.2656 48.7188 113.5 49.4375 112.1875 49.7031 L112.2969 50.3125 C114.2188 50.2344 114.9375 51.2188 114.9375 52.4375 C114.9375 53.625 114.2344 54.4219 112.9531 54.4219 C112.25 54.4219 111.6562 54.1562 111.0938 53.7188 L111.0938 48.2031 ZM110.2031 54.9062 L110.1094 57.375 L110.2656 57.4844 L111.1562 57.2656 L111.0156 54.0938 C111.5469 54.8438 112.3594 55.1719 113.1719 55.1719 C114.5625 55.1719 115.8594 54.2188 115.8594 52.4844 C115.8594 50.9531 114.875 50.1094 113.125 50 C114.5625 49.6094 115.1875 48.4531 115.1875 47.4844 C115.1875 46.0938 114.1562 45.3125 112.9062 45.3125 C111.2969 45.3125 110.2188 46.5469 110.2188 48.5156 L110.2031 54.9062 Z" style="fill:black; stroke:none;"
      /><rect x="160" width="8" height="8" y="45" style="stroke:none;"
      /><path d="M164.9844 50.7031 C164.9375 51.8906 164.1562 52.6562 163.3125 52.6562 C162.2656 52.6562 161.5 51.6875 161.5 49.7188 C161.5 48.2812 162.1562 47.1562 163.3438 47.1562 C164.1406 47.1562 164.7812 47.6875 165.0938 48.6406 L164.9844 50.7031 ZM166.9062 52.2812 C166.7344 52.375 166.5469 52.4219 166.3438 52.4219 C165.9531 52.4219 165.75 52.2188 165.75 51.4219 C165.75 50.4844 165.9688 48.5312 166.1875 46.8281 L166.0312 46.7188 L165.2344 46.9219 L165.1406 47.7969 C164.7812 47.0312 164.1562 46.6562 163.3906 46.6562 C162.0469 46.6562 160.5625 47.8438 160.5625 49.9531 C160.5625 52.0938 161.7188 53.1719 163.1406 53.1719 C164.0156 53.1719 164.6875 52.8125 165.0938 51.9844 C165.2031 52.8594 165.5156 53.1719 166.0156 53.1719 C166.4688 53.1719 166.7969 52.9062 167.0156 52.5625 L166.9062 52.2812 Z" style="fill:black; stroke:none;"
    /></g
  ></g
></svg
>
