<?xml version="1.0"?>
<!DOCTYPE svg PUBLIC '-//W3C//DTD SVG 1.0//EN'
          'http://www.w3.org/TR/2001/REC-SVG-20010904/DTD/svg10.dtd'>
<svg xmlns:xlink="http://www.w3.org/1999/xlink" style="fill-opacity:1; color-rendering:auto; color-interpolation:auto; text-rendering:auto; stroke:black; stroke-linecap:square; stroke-miterlimit:10; shape-rendering:auto; stroke-opacity:1; fill:black; stroke-dasharray:none; font-weight:normal; stroke-width:1; font-family:'Dialog'; font-style:normal; stroke-linejoin:miter; font-size:12px; stroke-dashoffset:0; image-rendering:auto;" viewBox="0 0 143 261" xmlns="http://www.w3.org/2000/svg"
><!--Generated by the Batik Graphics2D SVG Generator--><defs id="genericDefs"
  /><g
  ><defs id="defs1"
    ><clipPath clipPathUnits="userSpaceOnUse" id="clipPath1"
      ><path style="fill-rule:evenodd;" d="M58 209 L69 220 L58 231 L47 220 Z"
      /></clipPath
      ><clipPath clipPathUnits="userSpaceOnUse" id="clipPath2"
      ><path style="fill-rule:evenodd;" d="M58 157 L69 168 L58 179 L47 168 Z"
      /></clipPath
      ><clipPath clipPathUnits="userSpaceOnUse" id="clipPath3"
      ><path d="M69 116 C69 122.0751 64.0751 127 58 127 C51.9249 127 47 122.0751 47 116 C47 109.9249 51.9249 105 58 105 C64.0751 105 69 109.9249 69 116 Z"
      /></clipPath
      ><clipPath clipPathUnits="userSpaceOnUse" id="clipPath4"
      ><path d="M47 30 L69 30 L69 52 L47 52 L47 30 Z"
      /></clipPath
    ></defs
    ><g style="fill:white; text-rendering:optimizeSpeed; stroke:white;"
    ><rect x="0" width="143" height="261" y="0" style="stroke:none;"
      /><polygon style="clip-path:url(#clipPath1); stroke:none;" points=" 58 209 69 220 58 231 47 220"
      /><rect x="47" y="209" width="22" style="clip-path:url(#clipPath1); fill:rgb(165,67,153); stroke:none;" height="22"
      /><rect x="47" y="209" width="22" style="clip-path:url(#clipPath1); fill:none; stroke:black;" height="22"
      /><polygon style="fill:none; stroke:black;" points=" 58 209 69 220 58 231 47 220"
      /><rect x="74" y="207" width="5" style="stroke:none;" height="10"
    /></g
    ><g style="font-family:'Serif'; text-rendering:optimizeSpeed; "
    ><path style="stroke:none;" d="M75.8906 215.6875 C75.4844 215.6875 75.1562 216.0469 75.1562 216.4219 C75.1562 216.8125 75.4844 217.1562 75.8906 217.1562 C76.2969 217.1562 76.6406 216.8125 76.6406 216.4219 C76.6406 216.0469 76.2969 215.6875 75.8906 215.6875 ZM77.4688 209.5781 C77.7188 209.8906 77.875 210.2656 77.8906 210.6562 C77.8906 211.1875 77.625 211.5 77.0312 211.7656 L76.4062 212.0156 C75.6406 212.3125 75.3906 212.5469 75.3906 212.9375 C75.3906 213.1094 75.4531 213.3438 75.5781 213.8125 L75.7344 214.3438 L76.1094 214.3438 L76.0938 213.5312 C76.0938 213.0938 76.2031 212.9688 76.7812 212.7344 L77.2031 212.5625 C78.0312 212.2188 78.4531 211.6875 78.4531 210.8438 C78.4531 209.1562 76.6562 208.1875 75.5 208.0312 C75.1094 208.125 74.9062 208.2969 74.9062 208.6406 C74.9062 208.9375 75.0625 209.1562 75.7188 209.2656 L77.4688 209.5781 Z"
      /><rect x="74" y="223" width="5" style="fill:white; stroke:none;" height="10"
      /><path style="stroke:none;" d="M75.8906 231.6875 C75.4844 231.6875 75.1562 232.0469 75.1562 232.4219 C75.1562 232.8125 75.4844 233.1562 75.8906 233.1562 C76.2969 233.1562 76.6406 232.8125 76.6406 232.4219 C76.6406 232.0469 76.2969 231.6875 75.8906 231.6875 ZM77.4688 225.5781 C77.7188 225.8906 77.875 226.2656 77.8906 226.6562 C77.8906 227.1875 77.625 227.5 77.0312 227.7656 L76.4062 228.0156 C75.6406 228.3125 75.3906 228.5469 75.3906 228.9375 C75.3906 229.1094 75.4531 229.3438 75.5781 229.8125 L75.7344 230.3438 L76.1094 230.3438 L76.0938 229.5312 C76.0938 229.0938 76.2031 228.9688 76.7812 228.7344 L77.2031 228.5625 C78.0312 228.2188 78.4531 227.6875 78.4531 226.8438 C78.4531 225.1562 76.6562 224.1875 75.5 224.0312 C75.1094 224.125 74.9062 224.2969 74.9062 224.6406 C74.9062 224.9375 75.0625 225.1562 75.7188 225.2656 L77.4688 225.5781 Z"
      /><polygon style="fill:white; clip-path:url(#clipPath2); stroke:none;" points=" 58 157 69 168 58 179 47 168"
      /><rect x="47" y="157" width="22" style="clip-path:url(#clipPath2); fill:rgb(143,204,233); stroke:none;" height="22"
      /><rect x="47" y="157" width="22" style="fill:none; clip-path:url(#clipPath2);" height="22"
      /><polygon style="fill:none;" points=" 58 157 69 168 58 179 47 168"
      /><rect x="74" y="155" width="5" style="fill:white; stroke:none;" height="10"
      /><path style="stroke:none;" d="M75.8906 163.6875 C75.4844 163.6875 75.1562 164.0469 75.1562 164.4219 C75.1562 164.8125 75.4844 165.1562 75.8906 165.1562 C76.2969 165.1562 76.6406 164.8125 76.6406 164.4219 C76.6406 164.0469 76.2969 163.6875 75.8906 163.6875 ZM77.4688 157.5781 C77.7188 157.8906 77.875 158.2656 77.8906 158.6562 C77.8906 159.1875 77.625 159.5 77.0312 159.7656 L76.4062 160.0156 C75.6406 160.3125 75.3906 160.5469 75.3906 160.9375 C75.3906 161.1094 75.4531 161.3438 75.5781 161.8125 L75.7344 162.3438 L76.1094 162.3438 L76.0938 161.5312 C76.0938 161.0938 76.2031 160.9688 76.7812 160.7344 L77.2031 160.5625 C78.0312 160.2188 78.4531 159.6875 78.4531 158.8438 C78.4531 157.1562 76.6562 156.1875 75.5 156.0312 C75.1094 156.125 74.9062 156.2969 74.9062 156.6406 C74.9062 156.9375 75.0625 157.1562 75.7188 157.2656 L77.4688 157.5781 Z"
      /><rect x="74" y="171" width="5" style="fill:white; stroke:none;" height="10"
      /><path style="stroke:none;" d="M75.8906 179.6875 C75.4844 179.6875 75.1562 180.0469 75.1562 180.4219 C75.1562 180.8125 75.4844 181.1562 75.8906 181.1562 C76.2969 181.1562 76.6406 180.8125 76.6406 180.4219 C76.6406 180.0469 76.2969 179.6875 75.8906 179.6875 ZM77.4688 173.5781 C77.7188 173.8906 77.875 174.2656 77.8906 174.6562 C77.8906 175.1875 77.625 175.5 77.0312 175.7656 L76.4062 176.0156 C75.6406 176.3125 75.3906 176.5469 75.3906 176.9375 C75.3906 177.1094 75.4531 177.3438 75.5781 177.8125 L75.7344 178.3438 L76.1094 178.3438 L76.0938 177.5312 C76.0938 177.0938 76.2031 176.9688 76.7812 176.7344 L77.2031 176.5625 C78.0312 176.2188 78.4531 175.6875 78.4531 174.8438 C78.4531 173.1562 76.6562 172.1875 75.5 172.0312 C75.1094 172.125 74.9062 172.2969 74.9062 172.6406 C74.9062 172.9375 75.0625 173.1562 75.7188 173.2656 L77.4688 173.5781 Z"
      /><circle style="fill:white; clip-path:url(#clipPath3); stroke:none;" r="11" cx="58" cy="116"
      /><rect x="47" y="105" width="22" style="clip-path:url(#clipPath3); fill:white; stroke:none;" height="22"
      /><rect x="47" y="105" width="22" style="fill:none; clip-path:url(#clipPath3);" height="22"
      /><circle r="11" style="fill:none;" cx="58" cy="116"
      /><path style="stroke:none;" d="M52.5156 92.3594 C53.5781 92.3594 54.1094 93.1094 54.1094 94.2969 C54.1094 95.5 53.4531 96.2969 52.6094 96.2969 C51.5156 96.2969 50.8438 95.3125 50.7188 93.4844 C51.25 92.6875 51.9688 92.3594 52.5156 92.3594 ZM52.6094 97.1562 C53.9844 97.1562 55.125 96 55.125 94.2969 C55.125 92.4688 54.1875 91.5469 52.7031 91.5469 C52 91.5469 51.2344 91.9531 50.6875 92.6094 C50.7344 89.875 51.7656 88.9531 52.9531 88.9531 C53.5 88.9531 54.0312 89.2031 54.375 89.625 L54.9688 88.9375 C54.5 88.4219 53.8438 88.0312 52.9219 88.0312 C51.2188 88.0312 49.6719 89.3594 49.6719 92.7969 C49.6719 95.7031 50.9219 97.1562 52.6094 97.1562 ZM56.7694 97 L57.8632 97 L57.8632 92.2656 C58.4569 91.5938 59.0038 91.2812 59.5038 91.2812 C60.3319 91.2812 60.7069 91.7969 60.7069 93.0156 L60.7069 97 L61.8007 97 L61.8007 92.2656 C62.41 91.5938 62.9413 91.2812 63.4413 91.2812 C64.2694 91.2812 64.66 91.7969 64.66 93.0156 L64.66 97 L65.7538 97 L65.7538 92.875 C65.7538 91.2031 65.1132 90.3125 63.7694 90.3125 C62.9725 90.3125 62.3007 90.8281 61.6288 91.5625 C61.3632 90.7969 60.8163 90.3125 59.8163 90.3125 C59.0507 90.3125 58.3632 90.8125 57.8007 91.4375 L57.7538 91.4375 L57.66 90.4844 L56.7694 90.4844 L56.7694 97 Z"
      /><rect x="74" y="103" width="5" style="fill:white; stroke:none;" height="10"
      /><path style="stroke:none;" d="M75.8906 111.6875 C75.4844 111.6875 75.1562 112.0469 75.1562 112.4219 C75.1562 112.8125 75.4844 113.1562 75.8906 113.1562 C76.2969 113.1562 76.6406 112.8125 76.6406 112.4219 C76.6406 112.0469 76.2969 111.6875 75.8906 111.6875 ZM77.4688 105.5781 C77.7188 105.8906 77.875 106.2656 77.8906 106.6562 C77.8906 107.1875 77.625 107.5 77.0312 107.7656 L76.4062 108.0156 C75.6406 108.3125 75.3906 108.5469 75.3906 108.9375 C75.3906 109.1094 75.4531 109.3438 75.5781 109.8125 L75.7344 110.3438 L76.1094 110.3438 L76.0938 109.5312 C76.0938 109.0938 76.2031 108.9688 76.7812 108.7344 L77.2031 108.5625 C78.0312 108.2188 78.4531 107.6875 78.4531 106.8438 C78.4531 105.1562 76.6562 104.1875 75.5 104.0312 C75.1094 104.125 74.9062 104.2969 74.9062 104.6406 C74.9062 104.9375 75.0625 105.1562 75.7188 105.2656 L77.4688 105.5781 Z"
      /><rect x="74" y="119" width="5" style="fill:white; stroke:none;" height="10"
      /><path style="stroke:none;" d="M75.8906 127.6875 C75.4844 127.6875 75.1562 128.0469 75.1562 128.4219 C75.1562 128.8125 75.4844 129.1562 75.8906 129.1562 C76.2969 129.1562 76.6406 128.8125 76.6406 128.4219 C76.6406 128.0469 76.2969 127.6875 75.8906 127.6875 ZM77.4688 121.5781 C77.7188 121.8906 77.875 122.2656 77.8906 122.6562 C77.8906 123.1875 77.625 123.5 77.0312 123.7656 L76.4062 124.0156 C75.6406 124.3125 75.3906 124.5469 75.3906 124.9375 C75.3906 125.1094 75.4531 125.3438 75.5781 125.8125 L75.7344 126.3438 L76.1094 126.3438 L76.0938 125.5312 C76.0938 125.0938 76.2031 124.9688 76.7812 124.7344 L77.2031 124.5625 C78.0312 124.2188 78.4531 123.6875 78.4531 122.8438 C78.4531 121.1562 76.6562 120.1875 75.5 120.0312 C75.1094 120.125 74.9062 120.2969 74.9062 120.6406 C74.9062 120.9375 75.0625 121.1562 75.7188 121.2656 L77.4688 121.5781 Z"
      /><path style="stroke:none;" d="M29.6094 109 L36.0625 109 L36.0625 107.8906 L33.2344 107.8906 C32.7031 107.8906 32.0781 107.9531 31.5469 107.9844 C33.9531 105.7031 35.5625 103.625 35.5625 101.5781 C35.5625 99.75 34.4219 98.5469 32.5781 98.5469 C31.2812 98.5469 30.4062 99.1406 29.5625 100.0469 L30.2969 100.7812 C30.8594 100.1094 31.5938 99.5938 32.4375 99.5938 C33.7031 99.5938 34.3125 100.4531 34.3125 101.625 C34.3125 103.3906 32.8438 105.4375 29.6094 108.25 L29.6094 109 ZM36.9731 109 L38.3168 109 L39.3481 107.2188 C39.6137 106.7656 39.8637 106.2969 40.1293 105.8594 L40.2075 105.8594 C40.4731 106.2969 40.7543 106.7656 41.0043 107.2188 L42.1293 109 L43.5356 109 L41.02 105.1562 L43.3325 101.3906 L42.0043 101.3906 L41.0668 103.0625 C40.8481 103.5 40.6137 103.9219 40.3793 104.3438 L40.3325 104.3438 C40.0668 103.9219 39.8012 103.5 39.5668 103.0625 L38.5512 101.3906 L37.1762 101.3906 L39.4887 105.0312 L36.9731 109 Z"
    /></g
    ><g style="fill:white; text-rendering:optimizeSpeed; font-size:14px; font-family:'SansSerif'; stroke:white;"
    ><rect x="47" y="30" width="22" style="clip-path:url(#clipPath4); stroke:none;" height="22"
      /><rect x="47" y="30" width="22" style="clip-path:url(#clipPath4); stroke:none;" height="22"
      /><rect x="47" y="30" width="22" style="clip-path:url(#clipPath4); fill:none; stroke:black;" height="22"
      /><rect x="47" y="30" width="22" style="fill:none; stroke:black;" height="22"
      /><rect x="74" width="5" height="10" y="28" style="stroke:none;"
    /></g
    ><g style="font-family:'Serif'; text-rendering:optimizeSpeed; "
    ><path style="stroke:none;" d="M75.8906 36.6875 C75.4844 36.6875 75.1562 37.0469 75.1562 37.4219 C75.1562 37.8125 75.4844 38.1562 75.8906 38.1562 C76.2969 38.1562 76.6406 37.8125 76.6406 37.4219 C76.6406 37.0469 76.2969 36.6875 75.8906 36.6875 ZM77.4688 30.5781 C77.7188 30.8906 77.875 31.2656 77.8906 31.6562 C77.8906 32.1875 77.625 32.5 77.0312 32.7656 L76.4062 33.0156 C75.6406 33.3125 75.3906 33.5469 75.3906 33.9375 C75.3906 34.1094 75.4531 34.3438 75.5781 34.8125 L75.7344 35.3438 L76.1094 35.3438 L76.0938 34.5312 C76.0938 34.0938 76.2031 33.9688 76.7812 33.7344 L77.2031 33.5625 C78.0312 33.2188 78.4531 32.6875 78.4531 31.8438 C78.4531 30.1562 76.6562 29.1875 75.5 29.0312 C75.1094 29.125 74.9062 29.2969 74.9062 29.6406 C74.9062 29.9375 75.0625 30.1562 75.7188 30.2656 L77.4688 30.5781 Z"
      /><rect x="74" y="44" width="5" style="fill:white; stroke:none;" height="10"
      /><path style="stroke:none;" d="M75.8906 52.6875 C75.4844 52.6875 75.1562 53.0469 75.1562 53.4219 C75.1562 53.8125 75.4844 54.1562 75.8906 54.1562 C76.2969 54.1562 76.6406 53.8125 76.6406 53.4219 C76.6406 53.0469 76.2969 52.6875 75.8906 52.6875 ZM77.4688 46.5781 C77.7188 46.8906 77.875 47.2656 77.8906 47.6562 C77.8906 48.1875 77.625 48.5 77.0312 48.7656 L76.4062 49.0156 C75.6406 49.3125 75.3906 49.5469 75.3906 49.9375 C75.3906 50.1094 75.4531 50.3438 75.5781 50.8125 L75.7344 51.3438 L76.1094 51.3438 L76.0938 50.5312 C76.0938 50.0938 76.2031 49.9688 76.7812 49.7344 L77.2031 49.5625 C78.0312 49.2188 78.4531 48.6875 78.4531 47.8438 C78.4531 46.1562 76.6562 45.1875 75.5 45.0312 C75.1094 45.125 74.9062 45.2969 74.9062 45.6406 C74.9062 45.9375 75.0625 46.1562 75.7188 46.2656 L77.4688 46.5781 Z"
      /><path style="stroke:none;" d="M30.6094 41.1562 L32.9531 37.6562 C33.2344 37.1406 33.5156 36.6406 33.7812 36.1406 L33.8281 36.1406 C33.7969 36.6719 33.7656 37.5 33.7656 38 L33.7656 41.1562 L30.6094 41.1562 ZM33.7656 45 L34.9688 45 L34.9688 42.1719 L36.3281 42.1719 L36.3281 41.1562 L34.9688 41.1562 L34.9688 34.7188 L33.5469 34.7188 L29.2812 41.3281 L29.2812 42.1719 L33.7656 42.1719 L33.7656 45 ZM36.9731 45 L38.3168 45 L39.3481 43.2188 C39.6137 42.7656 39.8637 42.2969 40.1293 41.8594 L40.2075 41.8594 C40.4731 42.2969 40.7543 42.7656 41.0043 43.2188 L42.1293 45 L43.5356 45 L41.02 41.1562 L43.3325 37.3906 L42.0043 37.3906 L41.0668 39.0625 C40.8481 39.5 40.6137 39.9219 40.3793 40.3438 L40.3325 40.3438 C40.0668 39.9219 39.8012 39.5 39.5668 39.0625 L38.5512 37.3906 L37.1762 37.3906 L39.4887 41.0312 L36.9731 45 Z"
    /></g
  ></g
></svg
>
