<?xml version="1.0"?>
<!DOCTYPE svg PUBLIC '-//W3C//DTD SVG 1.0//EN'
          'http://www.w3.org/TR/2001/REC-SVG-20010904/DTD/svg10.dtd'>
<svg xmlns:xlink="http://www.w3.org/1999/xlink" style="fill-opacity:1; color-rendering:auto; color-interpolation:auto; text-rendering:auto; stroke:black; stroke-linecap:square; stroke-miterlimit:10; shape-rendering:auto; stroke-opacity:1; fill:black; stroke-dasharray:none; font-weight:normal; stroke-width:1; font-family:'Dialog'; font-style:normal; stroke-linejoin:miter; font-size:12px; stroke-dashoffset:0; image-rendering:auto;" viewBox="0 0 134 120" xmlns="http://www.w3.org/2000/svg"
><!--Generated by the Batik Graphics2D SVG Generator--><defs id="genericDefs"
  /><g
  ><defs id="defs1"
    ><clipPath clipPathUnits="userSpaceOnUse" id="clipPath1"
      ><path style="fill-rule:evenodd;" d="M41 30 L51 37 L47 49 L34 49 L30 37 L41 30 Z"
      /></clipPath
    ></defs
    ><g style="fill:white; text-rendering:optimizeSpeed; stroke:white;"
    ><rect x="0" width="134" height="120" y="0" style="stroke:none;"
      /><polygon style="fill:none; stroke:black;" points=" 93 41 41 41"
      /><path d="M93 30 C87.5 35.5 98.5 46.5 93 52" style="fill:none; stroke:black;"
      /><polygon style="clip-path:url(#clipPath1); stroke:none;" points=" 41 30 51 37 47 49 34 49 30 37 41 30"
      /><rect x="30" y="30" width="22" style="clip-path:url(#clipPath1); stroke:none;" height="22"
      /><rect x="30" y="30" width="22" style="clip-path:url(#clipPath1); fill:none; stroke:black;" height="22"
      /><polygon style="fill:none; stroke:black;" points=" 41 30 51 37 47 49 34 49 30 37 41 30"
    /></g
    ><g style="text-rendering:optimizeSpeed; font-size:10px; font-family:'SansSerif';"
    ><path style="stroke:none;" d="M40.0625 45 L40.9844 45 L40.9844 40.3125 L42.125 40.3125 L42.125 39.5625 L40.9844 39.5625 L40.9844 38.7031 C40.9844 38.0156 41.2344 37.6406 41.75 37.6406 C41.9375 37.6406 42.1562 37.6875 42.3594 37.7812 L42.5625 37.0938 C42.3125 36.9844 41.9844 36.9062 41.6562 36.9062 C40.5625 36.9062 40.0625 37.5938 40.0625 38.7031 L40.0625 39.5625 L39.3281 39.625 L39.3281 40.3125 L40.0625 40.3125 L40.0625 45 Z"
      /><rect x="33" y="58" width="14" style="fill:white; stroke:none;" height="11"
      /><path style="stroke:none;" d="M36.7031 69.1875 C38.5156 69.1875 39.9844 68.0938 39.9844 66.25 C39.9844 64.8594 39.0156 63.9375 37.8125 63.6562 L37.8125 63.5938 C38.8906 63.1875 39.6406 62.3594 39.6406 61.125 C39.6406 59.5 38.375 58.5469 36.6562 58.5469 C35.4688 58.5469 34.5469 59.0625 33.7812 59.7812 L34.4688 60.5938 C35.0469 60 35.7656 59.5938 36.5938 59.5938 C37.6562 59.5938 38.3281 60.2344 38.3281 61.2188 C38.3281 62.3281 37.6094 63.1719 35.4844 63.1719 L35.4844 64.1562 C37.8594 64.1562 38.6875 64.9844 38.6875 66.2031 C38.6875 67.3906 37.8125 68.125 36.5938 68.125 C35.4375 68.125 34.6562 67.5781 34.0469 66.9375 L33.4062 67.7812 C34.0781 68.5156 35.0938 69.1875 36.7031 69.1875 ZM44.645 69.1875 C45.5512 69.1875 46.3637 68.6875 46.9575 68.1094 L47.0043 68.1094 L47.1137 69 L48.145 69 L48.145 57.8594 L46.895 57.8594 L46.895 60.7812 L46.9418 62.0938 C46.27 61.5312 45.6918 61.2031 44.8012 61.2031 C43.0668 61.2031 41.5043 62.7344 41.5043 65.2031 C41.5043 67.7344 42.7387 69.1875 44.645 69.1875 ZM44.9262 68.125 C43.5825 68.125 42.8325 67.0312 42.8325 65.1875 C42.8325 63.4531 43.8012 62.2812 45.02 62.2812 C45.6606 62.2812 46.2231 62.5 46.895 63.0781 L46.895 67.0625 C46.2387 67.7656 45.6293 68.125 44.9262 68.125 Z"
    /></g
    ><g style="fill:white; text-rendering:optimizeSpeed; font-family:'Serif'; stroke:white;"
    ><rect x="56" width="8" height="8" y="45" style="stroke:none;"
      /><path d="M60.9844 50.7031 C60.9375 51.8906 60.1562 52.6562 59.3125 52.6562 C58.2656 52.6562 57.5 51.6875 57.5 49.7188 C57.5 48.2812 58.1562 47.1562 59.3438 47.1562 C60.1406 47.1562 60.7812 47.6875 61.0938 48.6406 L60.9844 50.7031 ZM62.9062 52.2812 C62.7344 52.375 62.5469 52.4219 62.3438 52.4219 C61.9531 52.4219 61.75 52.2188 61.75 51.4219 C61.75 50.4844 61.9688 48.5312 62.1875 46.8281 L62.0312 46.7188 L61.2344 46.9219 L61.1406 47.7969 C60.7812 47.0312 60.1562 46.6562 59.3906 46.6562 C58.0469 46.6562 56.5625 47.8438 56.5625 49.9531 C56.5625 52.0938 57.7188 53.1719 59.1406 53.1719 C60.0156 53.1719 60.6875 52.8125 61.0938 51.9844 C61.2031 52.8594 61.5156 53.1719 62.0156 53.1719 C62.4688 53.1719 62.7969 52.9062 63.0156 52.5625 L62.9062 52.2812 Z" style="fill:black; stroke:none;"
    /></g
    ><g ID="legend-1:0" style="text-rendering:optimizeSpeed; font-size:10px; font-family:'SansSerif';"
    ><path style="stroke:none;" d="M30.875 90 L34.9062 90 L34.9062 89.2344 L33.4375 89.2344 L33.4375 82.6562 L32.7344 82.6562 C32.3281 82.9062 31.8594 83.0625 31.2031 83.1875 L31.2031 83.7656 L32.5156 83.7656 L32.5156 89.2344 L30.875 89.2344 L30.875 90 ZM35.925 85.4531 L40.7219 85.4531 L40.7219 84.7656 L35.925 84.7656 L35.925 85.4531 ZM35.925 87.8438 L40.7219 87.8438 L40.7219 87.1719 L35.925 87.1719 L35.925 87.8438 ZM43.7094 90.125 C44.4125 90.125 44.975 89.7656 45.3969 89.0312 L45.4281 89.0312 C45.4125 89.7969 45.85 90.125 46.5062 90.125 C46.8187 90.125 47.0375 90.0625 47.1937 89.9844 L47.0531 89.2969 C46.9437 89.3438 46.8031 89.375 46.6937 89.375 C46.3969 89.375 46.1469 89.1875 46.1469 88.8125 C46.1469 87.8125 46.5375 86 46.8344 84.5625 L45.9281 84.5625 L45.6937 85.8594 L45.6625 85.8594 C45.3656 84.8125 44.6625 84.4375 43.9906 84.4375 C42.7406 84.4375 41.6156 85.5156 41.6156 87.375 C41.6156 89.1562 42.475 90.125 43.7094 90.125 ZM43.8969 89.375 C43.0531 89.375 42.5531 88.6406 42.5531 87.375 C42.5531 85.9375 43.3031 85.2031 44.0844 85.2031 C44.6 85.2031 45.1625 85.4688 45.4594 86.6562 L45.3812 87.6875 C45.3031 88.5938 44.6156 89.375 43.8969 89.375 ZM47.8031 87.5469 L50.3656 87.5469 L50.3656 86.8438 L47.8031 86.8438 L47.8031 87.5469 ZM53.4606 90.125 C54.7575 90.125 55.8044 89.3438 55.8044 88.0469 C55.8044 87.0469 55.1169 86.375 54.2575 86.1875 L54.2575 86.1406 C55.0231 85.8438 55.5544 85.2656 55.5544 84.375 C55.5544 83.2031 54.6637 82.5312 53.4294 82.5312 C52.5856 82.5312 51.9294 82.9062 51.3825 83.4062 L51.8669 83.9844 C52.2731 83.5625 52.8044 83.2812 53.3825 83.2812 C54.1481 83.2812 54.6325 83.7344 54.6325 84.4375 C54.6325 85.2344 54.1169 85.8438 52.6012 85.8438 L52.6012 86.5469 C54.2887 86.5469 54.8825 87.125 54.8825 88 C54.8825 88.8438 54.2575 89.375 53.3825 89.375 C52.5544 89.375 52.0075 88.9844 51.57 88.5312 L51.1169 89.125 C51.5856 89.6562 52.3044 90.125 53.4606 90.125 ZM56.8231 87.5469 L59.3856 87.5469 L59.3856 86.8438 L56.8231 86.8438 L56.8231 87.5469 ZM62.6056 90.125 C63.2618 90.125 63.8243 89.7812 64.2618 89.3594 L64.2931 89.3594 L64.3712 90 L65.1056 90 L65.1056 82.0469 L64.215 82.0469 L64.215 84.125 L64.2462 85.0625 C63.7775 84.6719 63.3556 84.4375 62.715 84.4375 C61.4806 84.4375 60.3712 85.5312 60.3712 87.2969 C60.3712 89.0938 61.2462 90.125 62.6056 90.125 ZM62.8087 89.375 C61.8556 89.375 61.3087 88.5938 61.3087 87.2812 C61.3087 86.0469 61.9962 85.2031 62.8868 85.2031 C63.3243 85.2031 63.7462 85.3594 64.215 85.7656 L64.215 88.625 C63.7462 89.125 63.3087 89.375 62.8087 89.375 ZM69.1493 90.125 C69.8837 90.125 70.4775 89.875 70.9462 89.5625 L70.6181 88.9688 C70.2275 89.2344 69.79 89.4062 69.2587 89.4062 C68.2275 89.4062 67.5243 88.6562 67.4618 87.5 L71.1181 87.5 C71.1337 87.375 71.165 87.1875 71.165 86.9844 C71.165 85.4375 70.3837 84.4375 68.9931 84.4375 C67.7431 84.4375 66.5556 85.5312 66.5556 87.2969 C66.5556 89.0781 67.7118 90.125 69.1493 90.125 ZM67.4462 86.8438 C67.5556 85.7812 68.2431 85.1562 69.0087 85.1562 C69.8525 85.1562 70.3525 85.75 70.3525 86.8438 L67.4462 86.8438 ZM74.6112 90.125 C75.9393 90.125 77.1268 89.0938 77.1268 87.2969 C77.1268 85.4844 75.9393 84.4375 74.6112 84.4375 C73.2831 84.4375 72.0956 85.4844 72.0956 87.2969 C72.0956 89.0938 73.2831 90.125 74.6112 90.125 ZM74.6112 89.375 C73.6737 89.375 73.0331 88.5469 73.0331 87.2969 C73.0331 86.0469 73.6737 85.1875 74.6112 85.1875 C75.5487 85.1875 76.1893 86.0469 76.1893 87.2969 C76.1893 88.5469 75.5487 89.375 74.6112 89.375 ZM77.7962 90 L78.7493 90 L79.4837 88.7344 C79.6712 88.4062 79.8431 88.0625 80.0462 87.7656 L80.0931 87.7656 C80.2962 88.0625 80.4837 88.4062 80.6712 88.7344 L81.4681 90 L82.4681 90 L80.6868 87.2656 L82.3275 84.5625 L81.3743 84.5625 L80.7025 85.7656 C80.5462 86.0625 80.39 86.375 80.2181 86.6719 L80.1868 86.6719 C79.9993 86.375 79.8118 86.0625 79.64 85.7656 L78.9056 84.5625 L77.9368 84.5625 L79.5775 87.1719 L77.7962 90 ZM83.6356 92.3438 C84.7137 92.3438 85.2762 91.5156 85.6512 90.4531 L87.6981 84.5625 L86.8074 84.5625 L85.8387 87.5938 C85.6824 88.0625 85.5262 88.625 85.3856 89.1094 L85.3231 89.1094 C85.1668 88.625 84.9637 88.0625 84.8074 87.5938 L83.6981 84.5625 L82.7449 84.5625 L84.9324 90.0156 L84.8074 90.4219 C84.5887 91.0938 84.1981 91.5938 83.5731 91.5938 C83.4324 91.5938 83.2762 91.5469 83.1668 91.5 L82.9949 92.2344 C83.1668 92.2969 83.3699 92.3438 83.6356 92.3438 ZM88.2831 87.5469 L90.8456 87.5469 L90.8456 86.8438 L88.2831 86.8438 L88.2831 87.5469 ZM92.2999 90 L96.4249 90 L96.4249 89.2031 L93.2374 89.2031 L93.2374 82.6562 L92.2999 82.6562 L92.2999 90 ZM97.1831 87.5469 L99.7456 87.5469 L99.7456 86.8438 L97.1831 86.8438 L97.1831 87.5469 ZM102.8249 90.125 C103.1531 90.125 103.5124 90.0312 103.8249 89.9375 L103.6531 89.25 C103.4656 89.3125 103.2156 89.3906 103.0281 89.3906 C102.4031 89.3906 102.1843 89.0156 102.1843 88.3438 L102.1843 85.3125 L103.6531 85.3125 L103.6531 84.5625 L102.1843 84.5625 L102.1843 83.0469 L101.4343 83.0469 L101.3249 84.5625 L100.4656 84.625 L100.4656 85.3125 L101.2781 85.3125 L101.2781 88.3125 C101.2781 89.4062 101.6687 90.125 102.8249 90.125 ZM104.8918 90 L105.798 90 L105.798 86.0625 C106.3449 85.5156 106.7355 85.2344 107.2824 85.2344 C108.0168 85.2344 108.3137 85.6562 108.3137 86.6875 L108.3137 90 L109.2355 90 L109.2355 86.5625 C109.2355 85.1719 108.7043 84.4375 107.5637 84.4375 C106.8293 84.4375 106.2668 84.8438 105.7668 85.3438 L105.798 84.2188 L105.798 82.0469 L104.8918 82.0469 L104.8918 90 ZM110.9618 90 L111.868 90 L111.868 86.5156 C112.2274 85.5781 112.7899 85.2656 113.243 85.2656 C113.4618 85.2656 113.5868 85.2812 113.7743 85.3438 L113.9462 84.5469 C113.7743 84.4531 113.6024 84.4375 113.3524 84.4375 C112.743 84.4375 112.1962 84.875 111.8212 85.5625 L111.7899 85.5625 L111.7118 84.5625 L110.9618 84.5625 L110.9618 90 ZM114.9199 90 L115.8574 90 L115.8574 87.0938 L117.0605 87.0938 C118.6699 87.0938 119.7637 86.375 119.7637 84.8125 C119.7637 83.2188 118.6543 82.6562 117.0137 82.6562 L114.9199 82.6562 L114.9199 90 ZM115.8574 86.3438 L115.8574 83.4219 L116.9043 83.4219 C118.1855 83.4219 118.8418 83.7656 118.8418 84.8125 C118.8418 85.875 118.2324 86.3438 116.9355 86.3438 L115.8574 86.3438 ZM123.3493 90.125 C124.0836 90.125 124.6774 89.875 125.1461 89.5625 L124.818 88.9688 C124.4274 89.2344 123.9899 89.4062 123.4586 89.4062 C122.4274 89.4062 121.7243 88.6562 121.6618 87.5 L125.318 87.5 C125.3336 87.375 125.3649 87.1875 125.3649 86.9844 C125.3649 85.4375 124.5836 84.4375 123.193 84.4375 C121.943 84.4375 120.7555 85.5312 120.7555 87.2969 C120.7555 89.0781 121.9118 90.125 123.3493 90.125 ZM121.6461 86.8438 C121.7555 85.7812 122.443 85.1562 123.2086 85.1562 C124.0524 85.1562 124.5524 85.75 124.5524 86.8438 L121.6461 86.8438 ZM126.7018 90 L127.608 90 L127.608 86.0625 C128.1549 85.5156 128.5455 85.2344 129.0924 85.2344 C129.8268 85.2344 130.1236 85.6562 130.1236 86.6875 L130.1236 90 L131.0455 90 L131.0455 86.5625 C131.0455 85.1719 130.5143 84.4375 129.3736 84.4375 C128.6393 84.4375 128.0768 84.8438 127.5611 85.3438 L127.5299 85.3438 L127.4518 84.5625 L126.7018 84.5625 L126.7018 90 ZM132.9524 90 L133.8743 90 L133.8743 85.3125 L135.0149 85.3125 L135.0149 84.5625 L133.8743 84.5625 L133.8743 83.7031 C133.8743 83.0156 134.1243 82.6406 134.6399 82.6406 C134.8274 82.6406 135.0461 82.6875 135.2493 82.7812 L135.4524 82.0938 C135.2024 81.9844 134.8743 81.9062 134.5461 81.9062 C133.4524 81.9062 132.9524 82.5938 132.9524 83.7031 L132.9524 84.5625 L132.218 84.625 L132.218 85.3125 L132.9524 85.3125 L132.9524 90 Z"
    /></g
  ></g
></svg
>
