<?xml version="1.0"?>
<!DOCTYPE svg PUBLIC '-//W3C//DTD SVG 1.0//EN'
          'http://www.w3.org/TR/2001/REC-SVG-20010904/DTD/svg10.dtd'>
<svg xmlns:xlink="http://www.w3.org/1999/xlink" style="fill-opacity:1; color-rendering:auto; color-interpolation:auto; text-rendering:auto; stroke:black; stroke-linecap:square; stroke-miterlimit:10; shape-rendering:auto; stroke-opacity:1; fill:black; stroke-dasharray:none; font-weight:normal; stroke-width:1; font-family:'Dialog'; font-style:normal; stroke-linejoin:miter; font-size:12px; stroke-dashoffset:0; image-rendering:auto;" viewBox="0 0 394 186" xmlns="http://www.w3.org/2000/svg"
><!--Generated by the Batik Graphics2D SVG Generator--><defs id="genericDefs"
  /><g
  ><defs id="defs1"
    ><clipPath clipPathUnits="userSpaceOnUse" id="clipPath1"
      ><path d="M290 69 L312 69 L312 91 L290 91 L290 69 Z"
      /></clipPath
      ><clipPath clipPathUnits="userSpaceOnUse" id="clipPath2"
      ><path d="M238 69 L260 69 L260 91 L238 91 L238 69 Z"
      /></clipPath
      ><clipPath clipPathUnits="userSpaceOnUse" id="clipPath3"
      ><path d="M208 80 C208 86.0751 203.0751 91 197 91 C190.9249 91 186 86.0751 186 80 C186 73.9249 190.9249 69 197 69 C203.0751 69 208 73.9249 208 80 Z"
      /></clipPath
      ><clipPath clipPathUnits="userSpaceOnUse" id="clipPath4"
      ><path d="M156 119 C156 125.0751 151.0751 130 145 130 C138.9249 130 134 125.0751 134 119 C134 112.9249 138.9249 108 145 108 C151.0751 108 156 112.9249 156 119 Z"
      /></clipPath
      ><clipPath clipPathUnits="userSpaceOnUse" id="clipPath5"
      ><path d="M104 145 C104 151.0751 99.0751 156 93 156 C86.9249 156 82 151.0751 82 145 C82 138.9249 86.9249 134 93 134 C99.0751 134 104 138.9249 104 145 Z"
      /></clipPath
      ><clipPath clipPathUnits="userSpaceOnUse" id="clipPath6"
      ><path d="M52 145 C52 151.0751 47.0751 156 41 156 C34.9249 156 30 151.0751 30 145 C30 138.9249 34.9249 134 41 134 C47.0751 134 52 138.9249 52 145 Z"
      /></clipPath
      ><clipPath clipPathUnits="userSpaceOnUse" id="clipPath7"
      ><path d="M104 93 C104 99.0751 99.0751 104 93 104 C86.9249 104 82 99.0751 82 93 C82 86.9249 86.9249 82 93 82 C99.0751 82 104 86.9249 104 93 Z"
      /></clipPath
      ><clipPath clipPathUnits="userSpaceOnUse" id="clipPath8"
      ><path d="M156 41 C156 47.0751 151.0751 52 145 52 C138.9249 52 134 47.0751 134 41 C134 34.9249 138.9249 30 145 30 C151.0751 30 156 34.9249 156 41 Z"
      /></clipPath
      ><clipPath clipPathUnits="userSpaceOnUse" id="clipPath9"
      ><path d="M104 41 C104 47.0751 99.0751 52 93 52 C86.9249 52 82 47.0751 82 41 C82 34.9249 86.9249 30 93 30 C99.0751 30 104 34.9249 104 41 Z"
      /></clipPath
      ><clipPath clipPathUnits="userSpaceOnUse" id="clipPath10"
      ><path d="M52 41 C52 47.0751 47.0751 52 41 52 C34.9249 52 30 47.0751 30 41 C30 34.9249 34.9249 30 41 30 C47.0751 30 52 34.9249 52 41 Z"
      /></clipPath
    ></defs
    ><g style="fill:white; text-rendering:optimizeSpeed; stroke:white;"
    ><rect x="0" width="394" height="186" y="0" style="stroke:none;"
      /><polygon style="fill:none; stroke:black;" points=" 353 80 301 80"
      /><path d="M353 69 C347.5 74.5 358.5 85.5 353 91" style="fill:none; stroke:black;"
      /><polygon style="fill:none; stroke:black;" points=" 301 80 249 80"
      /><rect x="290" y="69" width="22" style="clip-path:url(#clipPath1); stroke:none;" height="22"
      /><rect x="290" y="69" width="22" style="clip-path:url(#clipPath1); fill:rgb(0,144,188); stroke:none;" height="22"
      /><rect x="290" y="69" width="22" style="clip-path:url(#clipPath1); fill:none; stroke:black;" height="22"
      /><rect x="290" y="69" width="22" style="fill:none; stroke:black;" height="22"
      /><polygon style="fill:none; stroke:black;" points=" 249 80 197 80"
      /><rect x="238" y="69" width="22" style="clip-path:url(#clipPath2); stroke:none;" height="22"
      /><rect x="238" y="69" width="22" style="clip-path:url(#clipPath2); fill:rgb(0,144,188); stroke:none;" height="22"
      /><rect x="238" y="69" width="22" style="clip-path:url(#clipPath2); fill:none; stroke:black;" height="22"
      /><rect x="238" y="69" width="22" style="fill:none; stroke:black;" height="22"
      /><polygon style="fill:none; stroke:black;" points=" 197 80 145 119"
      /><polygon style="fill:none; stroke:black;" points=" 197 80 145 41"
      /><circle style="clip-path:url(#clipPath3); stroke:none;" r="11" cx="197" cy="80"
      /><rect x="186" y="69" width="22" style="clip-path:url(#clipPath3); fill:rgb(0,166,81); stroke:none;" height="22"
      /><rect x="186" y="69" width="22" style="clip-path:url(#clipPath3); fill:none; stroke:black;" height="22"
      /><circle style="fill:none; stroke:black;" r="11" cx="197" cy="80"
      /><polygon style="fill:none; stroke:black;" points=" 145 119 93 145"
      /><polygon style="fill:none; stroke:black;" points=" 145 119 93 93"
      /><circle style="clip-path:url(#clipPath4); stroke:none;" r="11" cx="145" cy="119"
      /><rect x="134" y="108" width="22" style="clip-path:url(#clipPath4); fill:rgb(0,166,81); stroke:none;" height="22"
      /><rect x="134" y="108" width="22" style="clip-path:url(#clipPath4); fill:none; stroke:black;" height="22"
      /><circle style="fill:none; stroke:black;" r="11" cx="145" cy="119"
      /><polygon style="fill:none; stroke:black;" points=" 93 145 41 145"
      /><circle style="clip-path:url(#clipPath5); stroke:none;" r="11" cx="93" cy="145"
      /><rect x="82" y="134" width="22" style="clip-path:url(#clipPath5); fill:rgb(0,166,81); stroke:none;" height="22"
      /><rect x="82" y="134" width="22" style="clip-path:url(#clipPath5); fill:none; stroke:black;" height="22"
      /><circle style="fill:none; stroke:black;" r="11" cx="93" cy="145"
      /><circle style="clip-path:url(#clipPath6); stroke:none;" r="11" cx="41" cy="145"
      /><rect x="30" y="134" width="22" style="clip-path:url(#clipPath6); fill:rgb(0,166,81); stroke:none;" height="22"
      /><rect x="30" y="134" width="22" style="clip-path:url(#clipPath6); fill:none; stroke:black;" height="22"
      /><circle style="fill:none; stroke:black;" r="11" cx="41" cy="145"
      /><rect x="71" y="148" width="5" style="stroke:none;" height="10"
    /></g
    ><g style="font-family:'Serif'; text-rendering:optimizeSpeed; "
    ><path style="stroke:none;" d="M72.8906 156.6875 C72.4844 156.6875 72.1562 157.0469 72.1562 157.4219 C72.1562 157.8125 72.4844 158.1562 72.8906 158.1562 C73.2969 158.1562 73.6406 157.8125 73.6406 157.4219 C73.6406 157.0469 73.2969 156.6875 72.8906 156.6875 ZM74.4688 150.5781 C74.7188 150.8906 74.875 151.2656 74.8906 151.6562 C74.8906 152.1875 74.625 152.5 74.0312 152.7656 L73.4062 153.0156 C72.6406 153.3125 72.3906 153.5469 72.3906 153.9375 C72.3906 154.1094 72.4531 154.3438 72.5781 154.8125 L72.7344 155.3438 L73.1094 155.3438 L73.0938 154.5312 C73.0938 154.0938 73.2031 153.9688 73.7812 153.7344 L74.2031 153.5625 C75.0312 153.2188 75.4531 152.6875 75.4531 151.8438 C75.4531 150.1562 73.6562 149.1875 72.5 149.0312 C72.1094 149.125 71.9062 149.2969 71.9062 149.6406 C71.9062 149.9375 72.0625 150.1562 72.7188 150.2656 L74.4688 150.5781 Z"
      /><rect x="57" y="148" width="5" style="fill:white; stroke:none;" height="10"
      /><path style="stroke:none;" d="M58.8906 156.6875 C58.4844 156.6875 58.1562 157.0469 58.1562 157.4219 C58.1562 157.8125 58.4844 158.1562 58.8906 158.1562 C59.2969 158.1562 59.6406 157.8125 59.6406 157.4219 C59.6406 157.0469 59.2969 156.6875 58.8906 156.6875 ZM60.4688 150.5781 C60.7188 150.8906 60.875 151.2656 60.8906 151.6562 C60.8906 152.1875 60.625 152.5 60.0312 152.7656 L59.4062 153.0156 C58.6406 153.3125 58.3906 153.5469 58.3906 153.9375 C58.3906 154.1094 58.4531 154.3438 58.5781 154.8125 L58.7344 155.3438 L59.1094 155.3438 L59.0938 154.5312 C59.0938 154.0938 59.2031 153.9688 59.7812 153.7344 L60.2031 153.5625 C61.0312 153.2188 61.4531 152.6875 61.4531 151.8438 C61.4531 150.1562 59.6562 149.1875 58.5 149.0312 C58.1094 149.125 57.9062 149.2969 57.9062 149.6406 C57.9062 149.9375 58.0625 150.1562 58.7188 150.2656 L60.4688 150.5781 Z"
      /><circle style="fill:white; clip-path:url(#clipPath7); stroke:none;" r="11" cx="93" cy="93"
      /><rect x="82" y="82" width="22" style="clip-path:url(#clipPath7); fill:rgb(0,166,81); stroke:none;" height="22"
      /><rect x="82" y="82" width="22" style="fill:none; clip-path:url(#clipPath7);" height="22"
      /><circle r="11" style="fill:none;" cx="93" cy="93"
      /><rect x="127" y="130" width="5" style="fill:white; stroke:none;" height="10"
      /><path style="stroke:none;" d="M128.8906 138.6875 C128.4844 138.6875 128.1562 139.0469 128.1562 139.4219 C128.1562 139.8125 128.4844 140.1562 128.8906 140.1562 C129.2969 140.1562 129.6406 139.8125 129.6406 139.4219 C129.6406 139.0469 129.2969 138.6875 128.8906 138.6875 ZM130.4688 132.5781 C130.7188 132.8906 130.875 133.2656 130.8906 133.6562 C130.8906 134.1875 130.625 134.5 130.0312 134.7656 L129.4062 135.0156 C128.6406 135.3125 128.3906 135.5469 128.3906 135.9375 C128.3906 136.1094 128.4531 136.3438 128.5781 136.8125 L128.7344 137.3438 L129.1094 137.3438 L129.0938 136.5312 C129.0938 136.0938 129.2031 135.9688 129.7812 135.7344 L130.2031 135.5625 C131.0312 135.2188 131.4531 134.6875 131.4531 133.8438 C131.4531 132.1562 129.6562 131.1875 128.5 131.0312 C128.1094 131.125 127.9062 131.2969 127.9062 131.6406 C127.9062 131.9375 128.0625 132.1562 128.7188 132.2656 L130.4688 132.5781 Z"
      /><rect x="112" y="138" width="5" style="fill:white; stroke:none;" height="10"
      /><path style="stroke:none;" d="M113.8906 146.6875 C113.4844 146.6875 113.1562 147.0469 113.1562 147.4219 C113.1562 147.8125 113.4844 148.1562 113.8906 148.1562 C114.2969 148.1562 114.6406 147.8125 114.6406 147.4219 C114.6406 147.0469 114.2969 146.6875 113.8906 146.6875 ZM115.4688 140.5781 C115.7188 140.8906 115.875 141.2656 115.8906 141.6562 C115.8906 142.1875 115.625 142.5 115.0312 142.7656 L114.4062 143.0156 C113.6406 143.3125 113.3906 143.5469 113.3906 143.9375 C113.3906 144.1094 113.4531 144.3438 113.5781 144.8125 L113.7344 145.3438 L114.1094 145.3438 L114.0938 144.5312 C114.0938 144.0938 114.2031 143.9688 114.7812 143.7344 L115.2031 143.5625 C116.0312 143.2188 116.4531 142.6875 116.4531 141.8438 C116.4531 140.1562 114.6562 139.1875 113.5 139.0312 C113.1094 139.125 112.9062 139.2969 112.9062 139.6406 C112.9062 139.9375 113.0625 140.1562 113.7188 140.2656 L115.4688 140.5781 Z"
      /><rect x="120" y="112" width="5" style="fill:white; stroke:none;" height="10"
      /><path style="stroke:none;" d="M121.8906 120.6875 C121.4844 120.6875 121.1562 121.0469 121.1562 121.4219 C121.1562 121.8125 121.4844 122.1562 121.8906 122.1562 C122.2969 122.1562 122.6406 121.8125 122.6406 121.4219 C122.6406 121.0469 122.2969 120.6875 121.8906 120.6875 ZM123.4688 114.5781 C123.7188 114.8906 123.875 115.2656 123.8906 115.6562 C123.8906 116.1875 123.625 116.5 123.0312 116.7656 L122.4062 117.0156 C121.6406 117.3125 121.3906 117.5469 121.3906 117.9375 C121.3906 118.1094 121.4531 118.3438 121.5781 118.8125 L121.7344 119.3438 L122.1094 119.3438 L122.0938 118.5312 C122.0938 118.0938 122.2031 117.9688 122.7812 117.7344 L123.2031 117.5625 C124.0312 117.2188 124.4531 116.6875 124.4531 115.8438 C124.4531 114.1562 122.6562 113.1875 121.5 113.0312 C121.1094 113.125 120.9062 113.2969 120.9062 113.6406 C120.9062 113.9375 121.0625 114.1562 121.7188 114.2656 L123.4688 114.5781 Z"
      /><rect x="105" y="104" width="5" style="fill:white; stroke:none;" height="10"
      /><path style="stroke:none;" d="M106.8906 112.6875 C106.4844 112.6875 106.1562 113.0469 106.1562 113.4219 C106.1562 113.8125 106.4844 114.1562 106.8906 114.1562 C107.2969 114.1562 107.6406 113.8125 107.6406 113.4219 C107.6406 113.0469 107.2969 112.6875 106.8906 112.6875 ZM108.4688 106.5781 C108.7188 106.8906 108.875 107.2656 108.8906 107.6562 C108.8906 108.1875 108.625 108.5 108.0312 108.7656 L107.4062 109.0156 C106.6406 109.3125 106.3906 109.5469 106.3906 109.9375 C106.3906 110.1094 106.4531 110.3438 106.5781 110.8125 L106.7344 111.3438 L107.1094 111.3438 L107.0938 110.5312 C107.0938 110.0938 107.2031 109.9688 107.7812 109.7344 L108.2031 109.5625 C109.0312 109.2188 109.4531 108.6875 109.4531 107.8438 C109.4531 106.1562 107.6562 105.1875 106.5 105.0312 C106.1094 105.125 105.9062 105.2969 105.9062 105.6406 C105.9062 105.9375 106.0625 106.1562 106.7188 106.2656 L108.4688 106.5781 Z"
      /><polygon style="fill:none;" points=" 145 41 93 41"
      /><circle style="fill:white; clip-path:url(#clipPath8); stroke:none;" r="11" cx="145" cy="41"
      /><rect x="134" y="30" width="22" style="clip-path:url(#clipPath8); fill:rgb(0,166,81); stroke:none;" height="22"
      /><rect x="134" y="30" width="22" style="fill:none; clip-path:url(#clipPath8);" height="22"
      /><circle r="11" style="fill:none;" cx="145" cy="41"
      /><polygon style="fill:none;" points=" 93 41 41 41"
      /><circle style="fill:white; clip-path:url(#clipPath9); stroke:none;" r="11" cx="93" cy="41"
      /><rect x="82" y="30" width="22" style="clip-path:url(#clipPath9); fill:rgb(0,166,81); stroke:none;" height="22"
      /><rect x="82" y="30" width="22" style="fill:none; clip-path:url(#clipPath9);" height="22"
      /><circle r="11" style="fill:none;" cx="93" cy="41"
      /><circle style="fill:white; clip-path:url(#clipPath10); stroke:none;" r="11" cx="41" cy="41"
      /><rect x="30" y="30" width="22" style="clip-path:url(#clipPath10); fill:rgb(0,166,81); stroke:none;" height="22"
      /><rect x="30" y="30" width="22" style="fill:none; clip-path:url(#clipPath10);" height="22"
      /><circle r="11" style="fill:none;" cx="41" cy="41"
      /><rect x="71" y="44" width="5" style="fill:white; stroke:none;" height="10"
      /><path style="stroke:none;" d="M72.8906 52.6875 C72.4844 52.6875 72.1562 53.0469 72.1562 53.4219 C72.1562 53.8125 72.4844 54.1562 72.8906 54.1562 C73.2969 54.1562 73.6406 53.8125 73.6406 53.4219 C73.6406 53.0469 73.2969 52.6875 72.8906 52.6875 ZM74.4688 46.5781 C74.7188 46.8906 74.875 47.2656 74.8906 47.6562 C74.8906 48.1875 74.625 48.5 74.0312 48.7656 L73.4062 49.0156 C72.6406 49.3125 72.3906 49.5469 72.3906 49.9375 C72.3906 50.1094 72.4531 50.3438 72.5781 50.8125 L72.7344 51.3438 L73.1094 51.3438 L73.0938 50.5312 C73.0938 50.0938 73.2031 49.9688 73.7812 49.7344 L74.2031 49.5625 C75.0312 49.2188 75.4531 48.6875 75.4531 47.8438 C75.4531 46.1562 73.6562 45.1875 72.5 45.0312 C72.1094 45.125 71.9062 45.2969 71.9062 45.6406 C71.9062 45.9375 72.0625 46.1562 72.7188 46.2656 L74.4688 46.5781 Z"
      /><rect x="57" y="44" width="5" style="fill:white; stroke:none;" height="10"
      /><path style="stroke:none;" d="M58.8906 52.6875 C58.4844 52.6875 58.1562 53.0469 58.1562 53.4219 C58.1562 53.8125 58.4844 54.1562 58.8906 54.1562 C59.2969 54.1562 59.6406 53.8125 59.6406 53.4219 C59.6406 53.0469 59.2969 52.6875 58.8906 52.6875 ZM60.4688 46.5781 C60.7188 46.8906 60.875 47.2656 60.8906 47.6562 C60.8906 48.1875 60.625 48.5 60.0312 48.7656 L59.4062 49.0156 C58.6406 49.3125 58.3906 49.5469 58.3906 49.9375 C58.3906 50.1094 58.4531 50.3438 58.5781 50.8125 L58.7344 51.3438 L59.1094 51.3438 L59.0938 50.5312 C59.0938 50.0938 59.2031 49.9688 59.7812 49.7344 L60.2031 49.5625 C61.0312 49.2188 61.4531 48.6875 61.4531 47.8438 C61.4531 46.1562 59.6562 45.1875 58.5 45.0312 C58.1094 45.125 57.9062 45.2969 57.9062 45.6406 C57.9062 45.9375 58.0625 46.1562 58.7188 46.2656 L60.4688 46.5781 Z"
      /><rect x="123" y="44" width="5" style="fill:white; stroke:none;" height="10"
      /><path style="stroke:none;" d="M124.8906 52.6875 C124.4844 52.6875 124.1562 53.0469 124.1562 53.4219 C124.1562 53.8125 124.4844 54.1562 124.8906 54.1562 C125.2969 54.1562 125.6406 53.8125 125.6406 53.4219 C125.6406 53.0469 125.2969 52.6875 124.8906 52.6875 ZM126.4688 46.5781 C126.7188 46.8906 126.875 47.2656 126.8906 47.6562 C126.8906 48.1875 126.625 48.5 126.0312 48.7656 L125.4062 49.0156 C124.6406 49.3125 124.3906 49.5469 124.3906 49.9375 C124.3906 50.1094 124.4531 50.3438 124.5781 50.8125 L124.7344 51.3438 L125.1094 51.3438 L125.0938 50.5312 C125.0938 50.0938 125.2031 49.9688 125.7812 49.7344 L126.2031 49.5625 C127.0312 49.2188 127.4531 48.6875 127.4531 47.8438 C127.4531 46.1562 125.6562 45.1875 124.5 45.0312 C124.1094 45.125 123.9062 45.2969 123.9062 45.6406 C123.9062 45.9375 124.0625 46.1562 124.7188 46.2656 L126.4688 46.5781 Z"
      /><rect x="109" y="44" width="5" style="fill:white; stroke:none;" height="10"
      /><path style="stroke:none;" d="M110.8906 52.6875 C110.4844 52.6875 110.1562 53.0469 110.1562 53.4219 C110.1562 53.8125 110.4844 54.1562 110.8906 54.1562 C111.2969 54.1562 111.6406 53.8125 111.6406 53.4219 C111.6406 53.0469 111.2969 52.6875 110.8906 52.6875 ZM112.4688 46.5781 C112.7188 46.8906 112.875 47.2656 112.8906 47.6562 C112.8906 48.1875 112.625 48.5 112.0312 48.7656 L111.4062 49.0156 C110.6406 49.3125 110.3906 49.5469 110.3906 49.9375 C110.3906 50.1094 110.4531 50.3438 110.5781 50.8125 L110.7344 51.3438 L111.1094 51.3438 L111.0938 50.5312 C111.0938 50.0938 111.2031 49.9688 111.7812 49.7344 L112.2031 49.5625 C113.0312 49.2188 113.4531 48.6875 113.4531 47.8438 C113.4531 46.1562 111.6562 45.1875 110.5 45.0312 C110.1094 45.125 109.9062 45.2969 109.9062 45.6406 C109.9062 45.9375 110.0625 46.1562 110.7188 46.2656 L112.4688 46.5781 Z"
      /><rect x="176" y="92" width="16" style="fill:white; stroke:none;" height="13"
      /><path style="stroke:none;" d="M178.2344 96.6562 C178.5156 96.5938 178.7656 96.5625 179.0156 96.5625 C180.0625 96.5625 180.6719 97.1719 180.6719 98.2656 C180.6719 99.4375 179.9062 100.1094 178.7031 100.1094 L178.1875 100.1094 L178.1875 100.6406 L178.7969 100.6406 C180.2188 100.6406 180.9062 101.4219 180.9062 102.6406 C180.9062 103.8438 180.1719 104.6875 178.875 104.6875 C178.6094 104.6875 178.3125 104.6562 178.0156 104.5625 L177.7812 103.8125 C177.625 103.2812 177.5 103.0469 177.1406 103.0469 C176.8906 103.0469 176.7031 103.1719 176.5781 103.4219 C176.8438 104.6406 177.7812 105.1719 179.0312 105.1719 C180.7188 105.1719 181.875 104.125 181.875 102.7031 C181.875 101.5 181.2031 100.625 179.7969 100.375 C180.9531 100.0156 181.6094 99.2031 181.6094 98.2031 C181.6094 96.9219 180.6719 96.0781 179.1875 96.0781 C178.0469 96.0781 177.0625 96.5938 176.7969 97.6875 C176.9062 98 177.1094 98.1094 177.3594 98.1094 C177.7344 98.1094 177.8906 97.8906 178 97.4062 L178.2344 96.6562 ZM182.4993 107.0938 L183.1087 107.0938 L186.6087 95.7344 L185.9837 95.7344 L182.4993 107.0938 ZM189.9878 104.6875 C188.8472 104.6875 188.1753 103.5 188.1753 101.2969 C188.1753 101.2188 188.1753 101.125 188.1753 101.0469 C188.7378 100.5 189.3628 100.3125 189.9878 100.3125 C190.9566 100.3125 191.5972 100.9844 191.5972 102.4531 C191.5972 103.9375 190.9566 104.6875 189.9878 104.6875 ZM192.1753 96.0781 C188.9878 96.4531 187.2066 98.7656 187.2066 101.4531 C187.2066 103.7812 188.2534 105.1719 189.9566 105.1719 C191.4878 105.1719 192.5659 104.1094 192.5659 102.2812 C192.5659 100.6875 191.6128 99.6562 190.2066 99.6562 C189.4722 99.6562 188.7847 99.9844 188.2222 100.5781 C188.4409 98.4062 189.7222 96.9688 192.2378 96.3906 L192.1753 96.0781 Z"
      /><rect x="163" y="108" width="8" style="fill:white; stroke:none;" height="8"
      /><path style="stroke:none;" d="M167.9844 113.7031 C167.9375 114.8906 167.1562 115.6562 166.3125 115.6562 C165.2656 115.6562 164.5 114.6875 164.5 112.7188 C164.5 111.2812 165.1562 110.1562 166.3438 110.1562 C167.1406 110.1562 167.7812 110.6875 168.0938 111.6406 L167.9844 113.7031 ZM169.9062 115.2812 C169.7344 115.375 169.5469 115.4219 169.3438 115.4219 C168.9531 115.4219 168.75 115.2188 168.75 114.4219 C168.75 113.4844 168.9688 111.5312 169.1875 109.8281 L169.0312 109.7188 L168.2344 109.9219 L168.1406 110.7969 C167.7812 110.0312 167.1562 109.6562 166.3906 109.6562 C165.0469 109.6562 163.5625 110.8438 163.5625 112.9531 C163.5625 115.0938 164.7188 116.1719 166.1406 116.1719 C167.0156 116.1719 167.6875 115.8125 168.0938 114.9844 C168.2031 115.8594 168.5156 116.1719 169.0156 116.1719 C169.4688 116.1719 169.7969 115.9062 170.0156 115.5625 L169.9062 115.2812 Z"
      /><rect x="166" y="66" width="16" style="fill:white; stroke:none;" height="13"
      /><path style="stroke:none;" d="M168.2344 70.6562 C168.5156 70.5938 168.7656 70.5625 169.0156 70.5625 C170.0625 70.5625 170.6719 71.1719 170.6719 72.2656 C170.6719 73.4375 169.9062 74.1094 168.7031 74.1094 L168.1875 74.1094 L168.1875 74.6406 L168.7969 74.6406 C170.2188 74.6406 170.9062 75.4219 170.9062 76.6406 C170.9062 77.8438 170.1719 78.6875 168.875 78.6875 C168.6094 78.6875 168.3125 78.6562 168.0156 78.5625 L167.7812 77.8125 C167.625 77.2812 167.5 77.0469 167.1406 77.0469 C166.8906 77.0469 166.7031 77.1719 166.5781 77.4219 C166.8438 78.6406 167.7812 79.1719 169.0312 79.1719 C170.7188 79.1719 171.875 78.125 171.875 76.7031 C171.875 75.5 171.2031 74.625 169.7969 74.375 C170.9531 74.0156 171.6094 73.2031 171.6094 72.2031 C171.6094 70.9219 170.6719 70.0781 169.1875 70.0781 C168.0469 70.0781 167.0625 70.5938 166.7969 71.6875 C166.9062 72 167.1094 72.1094 167.3594 72.1094 C167.7344 72.1094 167.8906 71.8906 168 71.4062 L168.2344 70.6562 ZM172.4993 81.0938 L173.1087 81.0938 L176.6087 69.7344 L175.9837 69.7344 L172.4993 81.0938 ZM179.9878 78.6875 C178.8472 78.6875 178.1753 77.5 178.1753 75.2969 C178.1753 75.2188 178.1753 75.125 178.1753 75.0469 C178.7378 74.5 179.3628 74.3125 179.9878 74.3125 C180.9566 74.3125 181.5972 74.9844 181.5972 76.4531 C181.5972 77.9375 180.9566 78.6875 179.9878 78.6875 ZM182.1753 70.0781 C178.9878 70.4531 177.2066 72.7656 177.2066 75.4531 C177.2066 77.7812 178.2534 79.1719 179.9566 79.1719 C181.4878 79.1719 182.5659 78.1094 182.5659 76.2812 C182.5659 74.6875 181.6128 73.6562 180.2066 73.6562 C179.4722 73.6562 178.7847 73.9844 178.2222 74.5781 C178.4409 72.4062 179.7222 70.9688 182.2378 70.3906 L182.1753 70.0781 Z"
      /><rect x="153" y="56" width="8" style="fill:white; stroke:none;" height="8"
      /><path style="stroke:none;" d="M157.9844 61.7031 C157.9375 62.8906 157.1562 63.6562 156.3125 63.6562 C155.2656 63.6562 154.5 62.6875 154.5 60.7188 C154.5 59.2812 155.1562 58.1562 156.3438 58.1562 C157.1406 58.1562 157.7812 58.6875 158.0938 59.6406 L157.9844 61.7031 ZM159.9062 63.2812 C159.7344 63.375 159.5469 63.4219 159.3438 63.4219 C158.9531 63.4219 158.75 63.2188 158.75 62.4219 C158.75 61.4844 158.9688 59.5312 159.1875 57.8281 L159.0312 57.7188 L158.2344 57.9219 L158.1406 58.7969 C157.7812 58.0312 157.1562 57.6562 156.3906 57.6562 C155.0469 57.6562 153.5625 58.8438 153.5625 60.9531 C153.5625 63.0938 154.7188 64.1719 156.1406 64.1719 C157.0156 64.1719 157.6875 63.8125 158.0938 62.9844 C158.2031 63.8594 158.5156 64.1719 159.0156 64.1719 C159.4688 64.1719 159.7969 63.9062 160.0156 63.5625 L159.9062 63.2812 Z"
      /><rect x="226" y="83" width="7" style="fill:white; stroke:none;" height="9"
      /><path style="stroke:none;" d="M227 88.5156 L229.9531 84.2656 L229.9531 88.5156 L227 88.5156 ZM232.2812 88.5156 L230.8594 88.5156 L230.8594 83.125 L230.2344 83.125 L226.3438 88.6406 L226.3438 89.1875 L229.9531 89.1875 L229.9531 92 L230.8594 92 L230.8594 89.1875 L232.2812 89.1875 L232.2812 88.5156 Z"
      /><rect x="213" y="81" width="6" style="fill:white; stroke:none;" height="13"
      /><path style="stroke:none;" d="M215.0938 87.2031 C215.0938 85.6562 215.75 84.8125 216.7969 84.8125 C217.7188 84.8125 218.2656 85.4531 218.2656 86.5156 C218.2656 87.7188 217.5 88.4375 216.1875 88.7031 L216.2969 89.3125 C218.2188 89.2344 218.9375 90.2188 218.9375 91.4375 C218.9375 92.625 218.2344 93.4219 216.9531 93.4219 C216.25 93.4219 215.6562 93.1562 215.0938 92.7188 L215.0938 87.2031 ZM214.2031 93.9062 L214.1094 96.375 L214.2656 96.4844 L215.1562 96.2656 L215.0156 93.0938 C215.5469 93.8438 216.3594 94.1719 217.1719 94.1719 C218.5625 94.1719 219.8594 93.2188 219.8594 91.4844 C219.8594 89.9531 218.875 89.1094 217.125 89 C218.5625 88.6094 219.1875 87.4531 219.1875 86.4844 C219.1875 85.0938 218.1562 84.3125 216.9062 84.3125 C215.2969 84.3125 214.2188 85.5469 214.2188 87.5156 L214.2031 93.9062 Z"
      /><rect x="278" y="83" width="7" style="fill:white; stroke:none;" height="9"
      /><path style="stroke:none;" d="M279 88.5156 L281.9531 84.2656 L281.9531 88.5156 L279 88.5156 ZM284.2812 88.5156 L282.8594 88.5156 L282.8594 83.125 L282.2344 83.125 L278.3438 88.6406 L278.3438 89.1875 L281.9531 89.1875 L281.9531 92 L282.8594 92 L282.8594 89.1875 L284.2812 89.1875 L284.2812 88.5156 Z"
      /><rect x="265" y="81" width="6" style="fill:white; stroke:none;" height="13"
      /><path style="stroke:none;" d="M267.0938 87.2031 C267.0938 85.6562 267.75 84.8125 268.7969 84.8125 C269.7188 84.8125 270.2656 85.4531 270.2656 86.5156 C270.2656 87.7188 269.5 88.4375 268.1875 88.7031 L268.2969 89.3125 C270.2188 89.2344 270.9375 90.2188 270.9375 91.4375 C270.9375 92.625 270.2344 93.4219 268.9531 93.4219 C268.25 93.4219 267.6562 93.1562 267.0938 92.7188 L267.0938 87.2031 ZM266.2031 93.9062 L266.1094 96.375 L266.2656 96.4844 L267.1562 96.2656 L267.0156 93.0938 C267.5469 93.8438 268.3594 94.1719 269.1719 94.1719 C270.5625 94.1719 271.8594 93.2188 271.8594 91.4844 C271.8594 89.9531 270.875 89.1094 269.125 89 C270.5625 88.6094 271.1875 87.4531 271.1875 86.4844 C271.1875 85.0938 270.1562 84.3125 268.9062 84.3125 C267.2969 84.3125 266.2188 85.5469 266.2188 87.5156 L266.2031 93.9062 Z"
      /><rect x="317" y="81" width="6" style="fill:white; stroke:none;" height="13"
      /><path style="stroke:none;" d="M319.0938 87.2031 C319.0938 85.6562 319.75 84.8125 320.7969 84.8125 C321.7188 84.8125 322.2656 85.4531 322.2656 86.5156 C322.2656 87.7188 321.5 88.4375 320.1875 88.7031 L320.2969 89.3125 C322.2188 89.2344 322.9375 90.2188 322.9375 91.4375 C322.9375 92.625 322.2344 93.4219 320.9531 93.4219 C320.25 93.4219 319.6562 93.1562 319.0938 92.7188 L319.0938 87.2031 ZM318.2031 93.9062 L318.1094 96.375 L318.2656 96.4844 L319.1562 96.2656 L319.0156 93.0938 C319.5469 93.8438 320.3594 94.1719 321.1719 94.1719 C322.5625 94.1719 323.8594 93.2188 323.8594 91.4844 C323.8594 89.9531 322.875 89.1094 321.125 89 C322.5625 88.6094 323.1875 87.4531 323.1875 86.4844 C323.1875 85.0938 322.1562 84.3125 320.9062 84.3125 C319.2969 84.3125 318.2188 85.5469 318.2188 87.5156 L318.2031 93.9062 Z"
    /></g
  ></g
></svg
>
