<?xml version="1.0"?>
<!DOCTYPE svg PUBLIC '-//W3C//DTD SVG 1.0//EN'
          'http://www.w3.org/TR/2001/REC-SVG-20010904/DTD/svg10.dtd'>
<svg xmlns:xlink="http://www.w3.org/1999/xlink" style="fill-opacity:1; color-rendering:auto; color-interpolation:auto; text-rendering:auto; stroke:black; stroke-linecap:square; stroke-miterlimit:10; shape-rendering:auto; stroke-opacity:1; fill:black; stroke-dasharray:none; font-weight:normal; stroke-width:1; font-family:'Dialog'; font-style:normal; stroke-linejoin:miter; font-size:12px; stroke-dashoffset:0; image-rendering:auto;" viewBox="0 0 157 120" xmlns="http://www.w3.org/2000/svg"
><!--Generated by the Batik Graphics2D SVG Generator--><defs id="genericDefs"
  /><g
  ><defs id="defs1"
    ><clipPath clipPathUnits="userSpaceOnUse" id="clipPath1"
      ><path style="fill-rule:evenodd;" d="M52 53 L62 60 L58 72 L45 72 L41 60 L52 53 Z"
      /></clipPath
    ></defs
    ><g style="fill:white; text-rendering:optimizeSpeed; stroke:white;"
    ><rect x="0" width="157" height="120" y="0" style="stroke:none;"
      /><polygon style="fill:none; stroke:black;" points=" 116 64 52 64"
      /><path d="M116 53 C110.5 58.5 121.5 69.5 116 75" style="fill:none; stroke:black;"
      /><polygon style="clip-path:url(#clipPath1); stroke:none;" points=" 52 53 62 60 58 72 45 72 41 60 52 53"
      /><rect x="41" y="53" width="22" style="clip-path:url(#clipPath1); stroke:none;" height="22"
      /><rect x="41" y="53" width="22" style="clip-path:url(#clipPath1); fill:none; stroke:black;" height="22"
      /><polygon style="fill:none; stroke:black;" points=" 52 53 62 60 58 72 45 72 41 60 52 53"
    /></g
    ><g style="text-rendering:optimizeSpeed; font-size:14px; font-family:'SansSerif';"
    ><path style="stroke:none;" d="M50.2344 69 L55.8594 69 L55.8594 67.9375 L53.7969 67.9375 L53.7969 58.7188 L52.8281 58.7188 C52.2656 59.0625 51.6094 59.2969 50.6875 59.4688 L50.6875 60.2812 L52.5156 60.2812 L52.5156 67.9375 L50.2344 67.9375 L50.2344 69 Z"
      /><rect x="33" y="35" width="14" style="fill:white; stroke:none;" height="11"
      /><path style="stroke:none;" d="M34.6094 42.1562 L36.9531 38.6562 C37.2344 38.1406 37.5156 37.6406 37.7812 37.1406 L37.8281 37.1406 C37.7969 37.6719 37.7656 38.5 37.7656 39 L37.7656 42.1562 L34.6094 42.1562 ZM37.7656 46 L38.9688 46 L38.9688 43.1719 L40.3281 43.1719 L40.3281 42.1562 L38.9688 42.1562 L38.9688 35.7188 L37.5469 35.7188 L33.2812 42.3281 L33.2812 43.1719 L37.7656 43.1719 L37.7656 46 ZM44.645 46.1875 C45.5512 46.1875 46.3637 45.6875 46.9575 45.1094 L47.0043 45.1094 L47.1137 46 L48.145 46 L48.145 34.8594 L46.895 34.8594 L46.895 37.7812 L46.9418 39.0938 C46.27 38.5312 45.6918 38.2031 44.8012 38.2031 C43.0668 38.2031 41.5043 39.7344 41.5043 42.2031 C41.5043 44.7344 42.7387 46.1875 44.645 46.1875 ZM44.9262 45.125 C43.5825 45.125 42.8325 44.0312 42.8325 42.1875 C42.8325 40.4531 43.8012 39.2812 45.02 39.2812 C45.6606 39.2812 46.2231 39.5 46.895 40.0781 L46.895 44.0625 C46.2387 44.7656 45.6293 45.125 44.9262 45.125 Z"
      /><path style="stroke:none;" d="M58.5156 40.3594 C59.5781 40.3594 60.1094 41.1094 60.1094 42.2969 C60.1094 43.5 59.4531 44.2969 58.6094 44.2969 C57.5156 44.2969 56.8438 43.3125 56.7188 41.4844 C57.25 40.6875 57.9688 40.3594 58.5156 40.3594 ZM58.6094 45.1562 C59.9844 45.1562 61.125 44 61.125 42.2969 C61.125 40.4688 60.1875 39.5469 58.7031 39.5469 C58 39.5469 57.2344 39.9531 56.6875 40.6094 C56.7344 37.875 57.7656 36.9531 58.9531 36.9531 C59.5 36.9531 60.0312 37.2031 60.375 37.625 L60.9688 36.9375 C60.5 36.4219 59.8438 36.0312 58.9219 36.0312 C57.2188 36.0312 55.6719 37.3594 55.6719 40.7969 C55.6719 43.7031 56.9219 45.1562 58.6094 45.1562 ZM62.7694 45 L63.8632 45 L63.8632 40.2656 C64.4569 39.5938 65.0038 39.2812 65.5038 39.2812 C66.3319 39.2812 66.7069 39.7969 66.7069 41.0156 L66.7069 45 L67.8007 45 L67.8007 40.2656 C68.41 39.5938 68.9413 39.2812 69.4413 39.2812 C70.2694 39.2812 70.66 39.7969 70.66 41.0156 L70.66 45 L71.7538 45 L71.7538 40.875 C71.7538 39.2031 71.1132 38.3125 69.7694 38.3125 C68.9725 38.3125 68.3007 38.8281 67.6288 39.5625 C67.3632 38.7969 66.8163 38.3125 65.8163 38.3125 C65.0507 38.3125 64.3632 38.8125 63.8007 39.4375 L63.7538 39.4375 L63.66 38.4844 L62.7694 38.4844 L62.7694 45 Z"
    /></g
    ><g style="fill:white; text-rendering:optimizeSpeed; font-family:'Serif'; stroke:white;"
    ><rect x="79" width="8" height="8" y="68" style="stroke:none;"
      /><path d="M83.9844 73.7031 C83.9375 74.8906 83.1562 75.6562 82.3125 75.6562 C81.2656 75.6562 80.5 74.6875 80.5 72.7188 C80.5 71.2812 81.1562 70.1562 82.3438 70.1562 C83.1406 70.1562 83.7812 70.6875 84.0938 71.6406 L83.9844 73.7031 ZM85.9062 75.2812 C85.7344 75.375 85.5469 75.4219 85.3438 75.4219 C84.9531 75.4219 84.75 75.2188 84.75 74.4219 C84.75 73.4844 84.9688 71.5312 85.1875 69.8281 L85.0312 69.7188 L84.2344 69.9219 L84.1406 70.7969 C83.7812 70.0312 83.1562 69.6562 82.3906 69.6562 C81.0469 69.6562 79.5625 70.8438 79.5625 72.9531 C79.5625 75.0938 80.7188 76.1719 82.1406 76.1719 C83.0156 76.1719 83.6875 75.8125 84.0938 74.9844 C84.2031 75.8594 84.5156 76.1719 85.0156 76.1719 C85.4688 76.1719 85.7969 75.9062 86.0156 75.5625 L85.9062 75.2812 Z" style="fill:black; stroke:none;"
    /></g
    ><g ID="legend-1:0" style="text-rendering:optimizeSpeed; font-size:10px; font-family:'SansSerif';"
    ><path style="stroke:none;" d="M30.875 90 L34.9062 90 L34.9062 89.2344 L33.4375 89.2344 L33.4375 82.6562 L32.7344 82.6562 C32.3281 82.9062 31.8594 83.0625 31.2031 83.1875 L31.2031 83.7656 L32.5156 83.7656 L32.5156 89.2344 L30.875 89.2344 L30.875 90 ZM35.925 85.4531 L40.7219 85.4531 L40.7219 84.7656 L35.925 84.7656 L35.925 85.4531 ZM35.925 87.8438 L40.7219 87.8438 L40.7219 87.1719 L35.925 87.1719 L35.925 87.8438 ZM43.7094 90.125 C44.4125 90.125 44.975 89.7656 45.3969 89.0312 L45.4281 89.0312 C45.4125 89.7969 45.85 90.125 46.5062 90.125 C46.8187 90.125 47.0375 90.0625 47.1937 89.9844 L47.0531 89.2969 C46.9437 89.3438 46.8031 89.375 46.6937 89.375 C46.3969 89.375 46.1469 89.1875 46.1469 88.8125 C46.1469 87.8125 46.5375 86 46.8344 84.5625 L45.9281 84.5625 L45.6937 85.8594 L45.6625 85.8594 C45.3656 84.8125 44.6625 84.4375 43.9906 84.4375 C42.7406 84.4375 41.6156 85.5156 41.6156 87.375 C41.6156 89.1562 42.475 90.125 43.7094 90.125 ZM43.8969 89.375 C43.0531 89.375 42.5531 88.6406 42.5531 87.375 C42.5531 85.9375 43.3031 85.2031 44.0844 85.2031 C44.6 85.2031 45.1625 85.4688 45.4594 86.6562 L45.3812 87.6875 C45.3031 88.5938 44.6156 89.375 43.8969 89.375 ZM47.8031 87.5469 L50.3656 87.5469 L50.3656 86.8438 L47.8031 86.8438 L47.8031 87.5469 ZM51.9762 87.25 L53.6325 84.75 C53.8512 84.3906 54.0544 84.0312 54.2262 83.6719 L54.2731 83.6719 C54.2575 84.0469 54.2262 84.6406 54.2262 85 L54.2262 87.25 L51.9762 87.25 ZM54.2262 90 L55.0856 90 L55.0856 87.9844 L56.0544 87.9844 L56.0544 87.25 L55.0856 87.25 L55.0856 82.6562 L54.07 82.6562 L51.0231 87.375 L51.0231 87.9844 L54.2262 87.9844 L54.2262 90 ZM57.12 91.9062 C58.0262 91.5156 58.5731 90.7656 58.5731 89.8125 C58.5731 89.1406 58.2918 88.7344 57.8075 88.7344 C57.4325 88.7344 57.12 88.9844 57.12 89.375 C57.12 89.7969 57.4325 90.0156 57.7918 90.0156 C57.8231 90.0156 57.8543 90.0156 57.9012 90 C57.9012 90.5938 57.5262 91.0781 56.9012 91.3594 L57.12 91.9062 ZM62.0875 86.125 C62.9625 86.125 63.4156 86.7656 63.4156 87.75 C63.4156 88.75 62.8531 89.4219 62.1656 89.4219 C61.2437 89.4219 60.6968 88.5938 60.5875 87.0625 C61.025 86.4062 61.6187 86.125 62.0875 86.125 ZM62.1656 90.125 C63.3062 90.125 64.2593 89.1719 64.2593 87.75 C64.2593 86.2188 63.4625 85.4531 62.2281 85.4531 C61.65 85.4531 61.0093 85.7969 60.5562 86.3438 C60.6031 84.0625 61.4468 83.2969 62.4468 83.2969 C62.9 83.2969 63.3375 83.5 63.6343 83.8438 L64.1343 83.2812 C63.7281 82.8438 63.1812 82.5312 62.4156 82.5312 C60.9937 82.5312 59.7125 83.625 59.7125 86.5 C59.7125 88.9219 60.7437 90.125 62.1656 90.125 ZM65.1531 87.5469 L67.7156 87.5469 L67.7156 86.8438 L65.1531 86.8438 L65.1531 87.5469 ZM70.9356 90.125 C71.5918 90.125 72.1543 89.7812 72.5918 89.3594 L72.6231 89.3594 L72.7012 90 L73.4356 90 L73.4356 82.0469 L72.545 82.0469 L72.545 84.125 L72.5762 85.0625 C72.1075 84.6719 71.6856 84.4375 71.045 84.4375 C69.8106 84.4375 68.7012 85.5312 68.7012 87.2969 C68.7012 89.0938 69.5762 90.125 70.9356 90.125 ZM71.1387 89.375 C70.1856 89.375 69.6387 88.5938 69.6387 87.2812 C69.6387 86.0469 70.3262 85.2031 71.2168 85.2031 C71.6543 85.2031 72.0762 85.3594 72.545 85.7656 L72.545 88.625 C72.0762 89.125 71.6387 89.375 71.1387 89.375 ZM75.2918 90 L76.1981 90 L76.1981 84.5625 L75.2918 84.5625 L75.2918 90 ZM75.7449 83.4531 C76.1043 83.4531 76.3543 83.2031 76.3543 82.8438 C76.3543 82.4844 76.1043 82.25 75.7449 82.25 C75.3856 82.25 75.1356 82.4844 75.1356 82.8438 C75.1356 83.2031 75.3856 83.4531 75.7449 83.4531 ZM79.8856 90.125 C80.5418 90.125 81.1043 89.7812 81.5418 89.3594 L81.5731 89.3594 L81.6512 90 L82.3856 90 L82.3856 82.0469 L81.4949 82.0469 L81.4949 84.125 L81.5262 85.0625 C81.0574 84.6719 80.6356 84.4375 79.9949 84.4375 C78.7606 84.4375 77.6512 85.5312 77.6512 87.2969 C77.6512 89.0938 78.5262 90.125 79.8856 90.125 ZM80.0887 89.375 C79.1356 89.375 78.5887 88.5938 78.5887 87.2812 C78.5887 86.0469 79.2762 85.2031 80.1668 85.2031 C80.6043 85.2031 81.0262 85.3594 81.4949 85.7656 L81.4949 88.625 C81.0262 89.125 80.5887 89.375 80.0887 89.375 ZM86.4293 90.125 C87.1637 90.125 87.7574 89.875 88.2262 89.5625 L87.8981 88.9688 C87.5074 89.2344 87.0699 89.4062 86.5387 89.4062 C85.5074 89.4062 84.8043 88.6562 84.7418 87.5 L88.3981 87.5 C88.4137 87.375 88.4449 87.1875 88.4449 86.9844 C88.4449 85.4375 87.6637 84.4375 86.2731 84.4375 C85.0231 84.4375 83.8356 85.5312 83.8356 87.2969 C83.8356 89.0781 84.9918 90.125 86.4293 90.125 ZM84.7262 86.8438 C84.8356 85.7812 85.5231 85.1562 86.2887 85.1562 C87.1324 85.1562 87.6324 85.75 87.6324 86.8438 L84.7262 86.8438 ZM91.8912 90.125 C93.2193 90.125 94.4068 89.0938 94.4068 87.2969 C94.4068 85.4844 93.2193 84.4375 91.8912 84.4375 C90.5631 84.4375 89.3756 85.4844 89.3756 87.2969 C89.3756 89.0938 90.5631 90.125 91.8912 90.125 ZM91.8912 89.375 C90.9537 89.375 90.3131 88.5469 90.3131 87.2969 C90.3131 86.0469 90.9537 85.1875 91.8912 85.1875 C92.8287 85.1875 93.4693 86.0469 93.4693 87.2969 C93.4693 88.5469 92.8287 89.375 91.8912 89.375 ZM95.0762 90 L96.0293 90 L96.7637 88.7344 C96.9512 88.4062 97.1231 88.0625 97.3262 87.7656 L97.3731 87.7656 C97.5762 88.0625 97.7637 88.4062 97.9512 88.7344 L98.7481 90 L99.7481 90 L97.9668 87.2656 L99.6074 84.5625 L98.6543 84.5625 L97.9824 85.7656 C97.8262 86.0625 97.6699 86.375 97.4981 86.6719 L97.4668 86.6719 C97.2793 86.375 97.0918 86.0625 96.9199 85.7656 L96.1856 84.5625 L95.2168 84.5625 L96.8574 87.1719 L95.0762 90 ZM100.9156 92.3438 C101.9937 92.3438 102.5562 91.5156 102.9312 90.4531 L104.9781 84.5625 L104.0874 84.5625 L103.1187 87.5938 C102.9624 88.0625 102.8062 88.625 102.6656 89.1094 L102.6031 89.1094 C102.4468 88.625 102.2437 88.0625 102.0874 87.5938 L100.9781 84.5625 L100.0249 84.5625 L102.2124 90.0156 L102.0874 90.4219 C101.8687 91.0938 101.4781 91.5938 100.8531 91.5938 C100.7124 91.5938 100.5562 91.5469 100.4468 91.5 L100.2749 92.2344 C100.4468 92.2969 100.6499 92.3438 100.9156 92.3438 ZM105.563 87.5469 L108.1255 87.5469 L108.1255 86.8438 L105.563 86.8438 L105.563 87.5469 ZM109.5799 90 L113.7049 90 L113.7049 89.2031 L110.5174 89.2031 L110.5174 82.6562 L109.5799 82.6562 L109.5799 90 ZM114.463 87.5469 L117.0255 87.5469 L117.0255 86.8438 L114.463 86.8438 L114.463 87.5469 ZM119.6518 90.125 C120.3237 90.125 120.933 89.7812 121.4487 89.3438 L121.4799 89.3438 L121.558 90 L122.308 90 L122.308 86.6562 C122.308 85.3125 121.7455 84.4375 120.433 84.4375 C119.558 84.4375 118.7924 84.8125 118.2924 85.1406 L118.6518 85.7656 C119.0737 85.4844 119.6518 85.1875 120.2768 85.1875 C121.1674 85.1875 121.4018 85.8594 121.4018 86.5625 C119.0893 86.8125 118.058 87.4062 118.058 88.5938 C118.058 89.5625 118.7455 90.125 119.6518 90.125 ZM119.9174 89.4062 C119.3705 89.4062 118.9487 89.1562 118.9487 88.5312 C118.9487 87.8281 119.5737 87.375 121.4018 87.1562 L121.4018 88.6875 C120.8705 89.1562 120.433 89.4062 119.9174 89.4062 ZM124.0418 90 L124.948 90 L124.948 86.5156 C125.3074 85.5781 125.8699 85.2656 126.323 85.2656 C126.5418 85.2656 126.6668 85.2812 126.8543 85.3438 L127.0262 84.5469 C126.8543 84.4531 126.6824 84.4375 126.4324 84.4375 C125.823 84.4375 125.2762 84.875 124.9012 85.5625 L124.8699 85.5625 L124.7918 84.5625 L124.0418 84.5625 L124.0418 90 ZM129.1718 90.125 C129.8437 90.125 130.453 89.7812 130.9687 89.3438 L130.9999 89.3438 L131.078 90 L131.828 90 L131.828 86.6562 C131.828 85.3125 131.2655 84.4375 129.953 84.4375 C129.078 84.4375 128.3124 84.8125 127.8124 85.1406 L128.1718 85.7656 C128.5937 85.4844 129.1718 85.1875 129.7968 85.1875 C130.6874 85.1875 130.9218 85.8594 130.9218 86.5625 C128.6093 86.8125 127.578 87.4062 127.578 88.5938 C127.578 89.5625 128.2655 90.125 129.1718 90.125 ZM129.4374 89.4062 C128.8905 89.4062 128.4687 89.1562 128.4687 88.5312 C128.4687 87.8281 129.0937 87.375 130.9218 87.1562 L130.9218 88.6875 C130.3905 89.1562 129.953 89.4062 129.4374 89.4062 ZM133.6399 90 L134.5774 90 L134.5774 86.5469 L137.9837 86.5469 L137.9837 90 L138.9055 90 L138.9055 82.6562 L137.9837 82.6562 L137.9837 85.7344 L134.5774 85.7344 L134.5774 82.6562 L133.6399 82.6562 L133.6399 90 ZM143.0293 90.125 C143.7637 90.125 144.3574 89.875 144.8262 89.5625 L144.498 88.9688 C144.1074 89.2344 143.6699 89.4062 143.1387 89.4062 C142.1074 89.4062 141.4043 88.6562 141.3418 87.5 L144.998 87.5 C145.0137 87.375 145.0449 87.1875 145.0449 86.9844 C145.0449 85.4375 144.2637 84.4375 142.873 84.4375 C141.623 84.4375 140.4355 85.5312 140.4355 87.2969 C140.4355 89.0781 141.5918 90.125 143.0293 90.125 ZM141.3262 86.8438 C141.4355 85.7812 142.123 85.1562 142.8887 85.1562 C143.7324 85.1562 144.2324 85.75 144.2324 86.8438 L141.3262 86.8438 ZM145.6161 90 L146.5693 90 L147.3036 88.7344 C147.4911 88.4062 147.663 88.0625 147.8661 87.7656 L147.913 87.7656 C148.1161 88.0625 148.3036 88.4062 148.4911 88.7344 L149.288 90 L150.288 90 L148.5068 87.2656 L150.1474 84.5625 L149.1943 84.5625 L148.5224 85.7656 C148.3661 86.0625 148.2099 86.375 148.038 86.6719 L148.0068 86.6719 C147.8193 86.375 147.6318 86.0625 147.4599 85.7656 L146.7255 84.5625 L145.7568 84.5625 L147.3974 87.1719 L145.6161 90 ZM151.3618 92.2969 L152.268 92.2969 L152.268 90.4531 L152.2524 89.5 C152.7368 89.9062 153.2524 90.125 153.7524 90.125 C155.0024 90.125 156.1118 89.0625 156.1118 87.2031 C156.1118 85.5312 155.3461 84.4375 153.9555 84.4375 C153.3149 84.4375 152.7055 84.7969 152.2211 85.1875 L152.1899 85.1875 L152.1118 84.5625 L151.3618 84.5625 L151.3618 92.2969 ZM153.5961 89.375 C153.2368 89.375 152.7524 89.2188 152.268 88.7969 L152.268 85.9531 C152.7993 85.4531 153.268 85.2031 153.7368 85.2031 C154.7524 85.2031 155.1586 86.0156 155.1586 87.2031 C155.1586 88.5625 154.5024 89.375 153.5961 89.375 Z"
    /></g
  ></g
></svg
>
