<?xml version="1.0"?>
<!DOCTYPE svg PUBLIC '-//W3C//DTD SVG 1.0//EN'
          'http://www.w3.org/TR/2001/REC-SVG-20010904/DTD/svg10.dtd'>
<svg xmlns:xlink="http://www.w3.org/1999/xlink" style="fill-opacity:1; color-rendering:auto; color-interpolation:auto; text-rendering:auto; stroke:black; stroke-linecap:square; stroke-miterlimit:10; shape-rendering:auto; stroke-opacity:1; fill:black; stroke-dasharray:none; font-weight:normal; stroke-width:1; font-family:'Dialog'; font-style:normal; stroke-linejoin:miter; font-size:12px; stroke-dashoffset:0; image-rendering:auto;" viewBox="0 0 186 186" xmlns="http://www.w3.org/2000/svg"
><!--Generated by the Batik Graphics2D SVG Generator--><defs id="genericDefs"
  /><g
  ><defs id="defs1"
    ><clipPath clipPathUnits="userSpaceOnUse" id="clipPath1"
      ><path d="M104 119 C104 125.0751 99.0751 130 93 130 C86.9249 130 82 125.0751 82 119 C82 112.9249 86.9249 108 93 108 C99.0751 108 104 112.9249 104 119 Z"
      /></clipPath
      ><clipPath clipPathUnits="userSpaceOnUse" id="clipPath2"
      ><path style="fill-rule:evenodd;" d="M41 134 L52 156 L30 156 Z"
      /></clipPath
      ><clipPath clipPathUnits="userSpaceOnUse" id="clipPath3"
      ><path d="M52 93 C52 99.0751 47.0751 104 41 104 C34.9249 104 30 99.0751 30 93 C30 86.9249 34.9249 82 41 82 C47.0751 82 52 86.9249 52 93 Z"
      /></clipPath
      ><clipPath clipPathUnits="userSpaceOnUse" id="clipPath4"
      ><path style="fill-rule:evenodd;" d="M41 30 L43 37 L51 37 L44 42 L47 49 L41 45 L34 49 L37 42 L30 37 L38 37 L41 30 Z"
      /></clipPath
    ></defs
    ><g style="fill:white; text-rendering:optimizeSpeed; stroke:white;"
    ><rect x="0" width="186" height="186" y="0" style="stroke:none;"
      /><polygon style="fill:none; stroke:black;" points=" 145 119 93 119"
      /><path d="M145 108 C139.5 113.5 150.5 124.5 145 130" style="fill:none; stroke:black;"
      /><polygon style="fill:none; stroke:black;" points=" 93 119 41 145"
      /><polygon style="fill:none; stroke:black;" points=" 93 119 41 93"
      /><circle style="clip-path:url(#clipPath1); stroke:none;" r="11" cx="93" cy="119"
      /><rect x="82" y="108" width="22" style="clip-path:url(#clipPath1); fill:rgb(0,144,188); stroke:none;" height="22"
      /><rect x="82" y="108" width="22" style="clip-path:url(#clipPath1); fill:none; stroke:black;" height="22"
      /><circle style="fill:none; stroke:black;" r="11" cx="93" cy="119"
      /><polygon style="clip-path:url(#clipPath2); stroke:none;" points=" 41 134 52 156 30 156"
      /><rect x="30" y="134" width="22" style="clip-path:url(#clipPath2); fill:rgb(0,166,81); stroke:none;" height="22"
      /><rect x="30" y="134" width="22" style="clip-path:url(#clipPath2); fill:none; stroke:black;" height="22"
      /><polygon style="fill:none; stroke:black;" points=" 41 134 52 156 30 156"
      /><polygon style="fill:none; stroke:black;" points=" 41 93 41 41"
      /><circle style="clip-path:url(#clipPath3); stroke:none;" r="11" cx="41" cy="93"
      /><rect x="30" y="82" width="22" style="clip-path:url(#clipPath3); fill:rgb(0,144,188); stroke:none;" height="22"
      /><rect x="30" y="82" width="22" style="clip-path:url(#clipPath3); fill:none; stroke:black;" height="22"
      /><circle style="fill:none; stroke:black;" r="11" cx="41" cy="93"
      /><polygon style="clip-path:url(#clipPath4); stroke:none;" points=" 41 30 43 37 51 37 44 42 47 49 41 45 34 49 37 42 30 37 38 37 41 30"
      /><rect x="30" y="30" width="22" style="clip-path:url(#clipPath4); fill:rgb(244,121,32); stroke:none;" height="22"
      /><rect x="30" y="30" width="22" style="clip-path:url(#clipPath4); fill:none; stroke:black;" height="22"
      /><polygon style="fill:none; stroke:black;" points=" 41 30 43 37 51 37 44 42 47 49 41 45 34 49 37 42 30 37 38 37 41 30"
      /><rect x="30" y="69" width="6" style="stroke:none;" height="10"
    /></g
    ><g style="font-family:'Serif'; text-rendering:optimizeSpeed; "
    ><path style="stroke:none;" d="M33.3438 78.6875 C32.2031 78.6875 31.5312 77.5 31.5312 75.2969 C31.5312 75.2188 31.5312 75.125 31.5312 75.0469 C32.0938 74.5 32.7188 74.3125 33.3438 74.3125 C34.3125 74.3125 34.9531 74.9844 34.9531 76.4531 C34.9531 77.9375 34.3125 78.6875 33.3438 78.6875 ZM35.5312 70.0781 C32.3438 70.4531 30.5625 72.7656 30.5625 75.4531 C30.5625 77.7812 31.6094 79.1719 33.3125 79.1719 C34.8438 79.1719 35.9219 78.1094 35.9219 76.2812 C35.9219 74.6875 34.9688 73.6562 33.5625 73.6562 C32.8281 73.6562 32.1406 73.9844 31.5781 74.5781 C31.7969 72.4062 33.0781 70.9688 35.5938 70.3906 L35.5312 70.0781 Z"
      /><rect x="30" y="53" width="6" style="fill:white; stroke:none;" height="13"
      /><path style="stroke:none;" d="M32.0938 59.2031 C32.0938 57.6562 32.75 56.8125 33.7969 56.8125 C34.7188 56.8125 35.2656 57.4531 35.2656 58.5156 C35.2656 59.7188 34.5 60.4375 33.1875 60.7031 L33.2969 61.3125 C35.2188 61.2344 35.9375 62.2188 35.9375 63.4375 C35.9375 64.625 35.2344 65.4219 33.9531 65.4219 C33.25 65.4219 32.6562 65.1562 32.0938 64.7188 L32.0938 59.2031 ZM31.2031 65.9062 L31.1094 68.375 L31.2656 68.4844 L32.1562 68.2656 L32.0156 65.0938 C32.5469 65.8438 33.3594 66.1719 34.1719 66.1719 C35.5625 66.1719 36.8594 65.2188 36.8594 63.4844 C36.8594 61.9531 35.875 61.1094 34.125 61 C35.5625 60.6094 36.1875 59.4531 36.1875 58.4844 C36.1875 57.0938 35.1562 56.3125 33.9062 56.3125 C32.2969 56.3125 31.2188 57.5469 31.2188 59.5156 L31.2031 65.9062 Z"
      /><rect x="75" y="130" width="6" style="fill:white; stroke:none;" height="9"
      /><path style="stroke:none;" d="M76.4219 138.0938 C77.0781 137.375 77.7031 136.7188 78.0312 136.3438 C79.9219 134.3125 80.5312 133.4688 80.5312 132.3594 C80.5312 131.0156 79.7812 130.0781 78.1562 130.0781 C76.9062 130.0781 75.7969 130.7031 75.5938 131.9688 C75.7188 132.2031 75.9062 132.3438 76.1562 132.3438 C76.4688 132.3438 76.6562 132.1094 76.7969 131.5938 L77.0938 130.6719 C77.3906 130.5938 77.6562 130.5625 77.8906 130.5625 C78.9219 130.5625 79.5469 131.3125 79.5469 132.4219 C79.5469 133.4375 78.9844 134.4219 77.7031 135.9062 C77.125 136.5781 76.3906 137.4375 75.6406 138.2812 L75.6406 139 L80.9219 139 L80.9219 138.0938 L76.4219 138.0938 Z"
      /><rect x="58" y="139" width="8" style="fill:white; stroke:none;" height="8"
      /><path style="stroke:none;" d="M62.9844 144.7031 C62.9375 145.8906 62.1562 146.6562 61.3125 146.6562 C60.2656 146.6562 59.5 145.6875 59.5 143.7188 C59.5 142.2812 60.1562 141.1562 61.3438 141.1562 C62.1406 141.1562 62.7812 141.6875 63.0938 142.6406 L62.9844 144.7031 ZM64.9062 146.2812 C64.7344 146.375 64.5469 146.4219 64.3438 146.4219 C63.9531 146.4219 63.75 146.2188 63.75 145.4219 C63.75 144.4844 63.9688 142.5312 64.1875 140.8281 L64.0312 140.7188 L63.2344 140.9219 L63.1406 141.7969 C62.7812 141.0312 62.1562 140.6562 61.3906 140.6562 C60.0469 140.6562 58.5625 141.8438 58.5625 143.9531 C58.5625 146.0938 59.7188 147.1719 61.1406 147.1719 C62.0156 147.1719 62.6875 146.8125 63.0938 145.9844 C63.2031 146.8594 63.5156 147.1719 64.0156 147.1719 C64.4688 147.1719 64.7969 146.9062 65.0156 146.5625 L64.9062 146.2812 Z"
      /><rect x="68" y="112" width="6" style="fill:white; stroke:none;" height="10"
      /><path style="stroke:none;" d="M70.2344 113.6562 C70.5156 113.5938 70.7656 113.5625 71.0156 113.5625 C72.0625 113.5625 72.6719 114.1719 72.6719 115.2656 C72.6719 116.4375 71.9062 117.1094 70.7031 117.1094 L70.1875 117.1094 L70.1875 117.6406 L70.7969 117.6406 C72.2188 117.6406 72.9062 118.4219 72.9062 119.6406 C72.9062 120.8438 72.1719 121.6875 70.875 121.6875 C70.6094 121.6875 70.3125 121.6562 70.0156 121.5625 L69.7812 120.8125 C69.625 120.2812 69.5 120.0469 69.1406 120.0469 C68.8906 120.0469 68.7031 120.1719 68.5781 120.4219 C68.8438 121.6406 69.7812 122.1719 71.0312 122.1719 C72.7188 122.1719 73.875 121.125 73.875 119.7031 C73.875 118.5 73.2031 117.625 71.7969 117.375 C72.9531 117.0156 73.6094 116.2031 73.6094 115.2031 C73.6094 113.9219 72.6719 113.0781 71.1875 113.0781 C70.0469 113.0781 69.0625 113.5938 68.7969 114.6875 C68.9062 115 69.1094 115.1094 69.3594 115.1094 C69.7344 115.1094 69.8906 114.8906 70 114.4062 L70.2344 113.6562 Z"
      /><rect x="52" y="102" width="6" style="fill:white; stroke:none;" height="13"
      /><path style="stroke:none;" d="M54.0938 108.2031 C54.0938 106.6562 54.75 105.8125 55.7969 105.8125 C56.7188 105.8125 57.2656 106.4531 57.2656 107.5156 C57.2656 108.7188 56.5 109.4375 55.1875 109.7031 L55.2969 110.3125 C57.2188 110.2344 57.9375 111.2188 57.9375 112.4375 C57.9375 113.625 57.2344 114.4219 55.9531 114.4219 C55.25 114.4219 54.6562 114.1562 54.0938 113.7188 L54.0938 108.2031 ZM53.2031 114.9062 L53.1094 117.375 L53.2656 117.4844 L54.1562 117.2656 L54.0156 114.0938 C54.5469 114.8438 55.3594 115.1719 56.1719 115.1719 C57.5625 115.1719 58.8594 114.2188 58.8594 112.4844 C58.8594 110.9531 57.875 110.1094 56.125 110 C57.5625 109.6094 58.1875 108.4531 58.1875 107.4844 C58.1875 106.0938 57.1562 105.3125 55.9062 105.3125 C54.2969 105.3125 53.2188 106.5469 53.2188 108.5156 L53.2031 114.9062 Z"
      /><rect x="109" y="122" width="5" style="fill:white; stroke:none;" height="10"
      /><path style="stroke:none;" d="M110.8906 130.6875 C110.4844 130.6875 110.1562 131.0469 110.1562 131.4219 C110.1562 131.8125 110.4844 132.1562 110.8906 132.1562 C111.2969 132.1562 111.6406 131.8125 111.6406 131.4219 C111.6406 131.0469 111.2969 130.6875 110.8906 130.6875 ZM112.4688 124.5781 C112.7188 124.8906 112.875 125.2656 112.8906 125.6562 C112.8906 126.1875 112.625 126.5 112.0312 126.7656 L111.4062 127.0156 C110.6406 127.3125 110.3906 127.5469 110.3906 127.9375 C110.3906 128.1094 110.4531 128.3438 110.5781 128.8125 L110.7344 129.3438 L111.1094 129.3438 L111.0938 128.5312 C111.0938 128.0938 111.2031 127.9688 111.7812 127.7344 L112.2031 127.5625 C113.0312 127.2188 113.4531 126.6875 113.4531 125.8438 C113.4531 124.1562 111.6562 123.1875 110.5 123.0312 C110.1094 123.125 109.9062 123.2969 109.9062 123.6406 C109.9062 123.9375 110.0625 124.1562 110.7188 124.2656 L112.4688 124.5781 Z"
    /></g
  ></g
></svg
>
