<?xml version="1.0"?>
<!DOCTYPE svg PUBLIC '-//W3C//DTD SVG 1.0//EN'
          'http://www.w3.org/TR/2001/REC-SVG-20010904/DTD/svg10.dtd'>
<svg xmlns:xlink="http://www.w3.org/1999/xlink" style="fill-opacity:1; color-rendering:auto; color-interpolation:auto; text-rendering:auto; stroke:black; stroke-linecap:square; stroke-miterlimit:10; shape-rendering:auto; stroke-opacity:1; fill:black; stroke-dasharray:none; font-weight:normal; stroke-width:1; font-family:'Dialog'; font-style:normal; stroke-linejoin:miter; font-size:12px; stroke-dashoffset:0; image-rendering:auto;" viewBox="0 0 550 368" xmlns="http://www.w3.org/2000/svg"
><!--Generated by the Batik Graphics2D SVG Generator--><defs id="genericDefs"
  /><g
  ><defs id="defs1"
    ><clipPath clipPathUnits="userSpaceOnUse" id="clipPath1"
      ><path d="M446 82 L468 82 L468 104 L446 104 L446 82 Z"
      /></clipPath
      ><clipPath clipPathUnits="userSpaceOnUse" id="clipPath2"
      ><path d="M394 82 L416 82 L416 104 L394 104 L394 82 Z"
      /></clipPath
      ><clipPath clipPathUnits="userSpaceOnUse" id="clipPath3"
      ><path d="M364 93 C364 99.0751 359.0751 104 353 104 C346.9249 104 342 99.0751 342 93 C342 86.9249 346.9249 82 353 82 C359.0751 82 364 86.9249 364 93 Z"
      /></clipPath
      ><clipPath clipPathUnits="userSpaceOnUse" id="clipPath4"
      ><path d="M312 275 C312 281.0751 307.0751 286 301 286 C294.9249 286 290 281.0751 290 275 C290 268.9249 294.9249 264 301 264 C307.0751 264 312 268.9249 312 275 Z"
      /></clipPath
      ><clipPath clipPathUnits="userSpaceOnUse" id="clipPath5"
      ><path d="M238 316 L260 316 L260 338 L238 338 L238 316 Z"
      /></clipPath
      ><clipPath clipPathUnits="userSpaceOnUse" id="clipPath6"
      ><path d="M208 327 C208 333.0751 203.0751 338 197 338 C190.9249 338 186 333.0751 186 327 C186 320.9249 190.9249 316 197 316 C203.0751 316 208 320.9249 208 327 Z"
      /></clipPath
      ><clipPath clipPathUnits="userSpaceOnUse" id="clipPath7"
      ><path d="M134 316 L156 316 L156 338 L134 338 L134 316 Z"
      /></clipPath
      ><clipPath clipPathUnits="userSpaceOnUse" id="clipPath8"
      ><path d="M104 327 C104 333.0751 99.0751 338 93 338 C86.9249 338 82 333.0751 82 327 C82 320.9249 86.9249 316 93 316 C99.0751 316 104 320.9249 104 327 Z"
      /></clipPath
      ><clipPath clipPathUnits="userSpaceOnUse" id="clipPath9"
      ><path style="fill-rule:evenodd;" d="M41 316 L52 327 L41 338 L30 327 Z"
      /></clipPath
      ><clipPath clipPathUnits="userSpaceOnUse" id="clipPath10"
      ><path style="fill-rule:evenodd;" d="M145 286 L134 264 L156 264 Z"
      /></clipPath
      ><clipPath clipPathUnits="userSpaceOnUse" id="clipPath11"
      ><path d="M238 212 L260 212 L260 234 L238 234 L238 212 Z"
      /></clipPath
      ><clipPath clipPathUnits="userSpaceOnUse" id="clipPath12"
      ><path d="M208 223 C208 229.0751 203.0751 234 197 234 C190.9249 234 186 229.0751 186 223 C186 216.9249 190.9249 212 197 212 C203.0751 212 208 216.9249 208 223 Z"
      /></clipPath
      ><clipPath clipPathUnits="userSpaceOnUse" id="clipPath13"
      ><path d="M134 212 L156 212 L156 234 L134 234 L134 212 Z"
      /></clipPath
      ><clipPath clipPathUnits="userSpaceOnUse" id="clipPath14"
      ><path d="M104 223 C104 229.0751 99.0751 234 93 234 C86.9249 234 82 229.0751 82 223 C82 216.9249 86.9249 212 93 212 C99.0751 212 104 216.9249 104 223 Z"
      /></clipPath
      ><clipPath clipPathUnits="userSpaceOnUse" id="clipPath15"
      ><path d="M52 223 C52 229.0751 47.0751 234 41 234 C34.9249 234 30 229.0751 30 223 C30 216.9249 34.9249 212 41 212 C47.0751 212 52 216.9249 52 223 Z"
      /></clipPath
      ><clipPath clipPathUnits="userSpaceOnUse" id="clipPath16"
      ><path style="fill-rule:evenodd;" d="M249 182 L238 160 L260 160 Z"
      /></clipPath
      ><clipPath clipPathUnits="userSpaceOnUse" id="clipPath17"
      ><path d="M312 93 C312 99.0751 307.0751 104 301 104 C294.9249 104 290 99.0751 290 93 C290 86.9249 294.9249 82 301 82 C307.0751 82 312 86.9249 312 93 Z"
      /></clipPath
      ><clipPath clipPathUnits="userSpaceOnUse" id="clipPath18"
      ><path d="M260 119 C260 125.0751 255.0751 130 249 130 C242.9249 130 238 125.0751 238 119 C238 112.9249 242.9249 108 249 108 C255.0751 108 260 112.9249 260 119 Z"
      /></clipPath
      ><clipPath clipPathUnits="userSpaceOnUse" id="clipPath19"
      ><path d="M260 67 C260 73.0751 255.0751 78 249 78 C242.9249 78 238 73.0751 238 67 C238 60.9249 242.9249 56 249 56 C255.0751 56 260 60.9249 260 67 Z"
      /></clipPath
      ><clipPath clipPathUnits="userSpaceOnUse" id="clipPath20"
      ><path d="M290 30 L312 30 L312 52 L290 52 L290 30 Z"
      /></clipPath
    ></defs
    ><g style="fill:white; text-rendering:optimizeSpeed; stroke:white;"
    ><rect x="0" width="550" height="368" y="0" style="stroke:none;"
      /><polygon style="fill:none; stroke:black;" points=" 509 93 457 93"
      /><path d="M509 82 C503.5 87.5 514.5 98.5 509 104" style="fill:none; stroke:black;"
      /><polygon style="fill:none; stroke:black;" points=" 457 93 405 93"
      /><rect x="446" y="82" width="22" style="clip-path:url(#clipPath1); stroke:none;" height="22"
      /><rect x="446" y="82" width="22" style="clip-path:url(#clipPath1); fill:rgb(0,144,188); stroke:none;" height="22"
      /><rect x="446" y="82" width="22" style="clip-path:url(#clipPath1); fill:none; stroke:black;" height="22"
      /><rect x="446" y="82" width="22" style="fill:none; stroke:black;" height="22"
      /><polygon style="fill:none; stroke:black;" points=" 405 93 353 93"
      /><rect x="394" y="82" width="22" style="clip-path:url(#clipPath2); stroke:none;" height="22"
      /><rect x="394" y="82" width="22" style="clip-path:url(#clipPath2); fill:rgb(0,144,188); stroke:none;" height="22"
      /><rect x="394" y="82" width="22" style="clip-path:url(#clipPath2); fill:none; stroke:black;" height="22"
      /><rect x="394" y="82" width="22" style="fill:none; stroke:black;" height="22"
      /><polygon style="fill:none; stroke:black;" points=" 353 93 301 275"
      /><polygon style="fill:none; stroke:black;" points=" 353 93 301 93"
      /><polygon style="fill:none; stroke:black;" points=" 353 93 301 41"
      /><circle style="clip-path:url(#clipPath3); stroke:none;" r="11" cx="353" cy="93"
      /><rect x="342" y="82" width="22" style="clip-path:url(#clipPath3); fill:rgb(0,166,81); stroke:none;" height="22"
      /><rect x="342" y="82" width="22" style="clip-path:url(#clipPath3); fill:none; stroke:black;" height="22"
      /><circle style="fill:none; stroke:black;" r="11" cx="353" cy="93"
      /><polygon style="fill:none; stroke:black;" points=" 301 275 249 327"
      /><polygon style="fill:none; stroke:black;" points=" 301 275 249 223"
      /><circle style="clip-path:url(#clipPath4); stroke:none;" r="11" cx="301" cy="275"
      /><rect x="290" y="264" width="22" style="clip-path:url(#clipPath4); fill:rgb(0,166,81); stroke:none;" height="22"
      /><rect x="290" y="264" width="22" style="clip-path:url(#clipPath4); fill:none; stroke:black;" height="22"
      /><circle style="fill:none; stroke:black;" r="11" cx="301" cy="275"
      /><polygon style="fill:none; stroke:black;" points=" 249 327 197 327"
      /><rect x="238" y="316" width="22" style="clip-path:url(#clipPath5); stroke:none;" height="22"
      /><rect x="238" y="316" width="22" style="clip-path:url(#clipPath5); fill:rgb(0,144,188); stroke:none;" height="22"
      /><rect x="238" y="316" width="22" style="clip-path:url(#clipPath5); fill:none; stroke:black;" height="22"
      /><rect x="238" y="316" width="22" style="fill:none; stroke:black;" height="22"
      /><polygon style="fill:none; stroke:black;" points=" 197 327 145 327"
      /><circle style="clip-path:url(#clipPath6); stroke:none;" r="11" cx="197" cy="327"
      /><rect x="186" y="316" width="22" style="clip-path:url(#clipPath6); fill:rgb(255,212,0); stroke:none;" height="22"
      /><rect x="186" y="316" width="22" style="clip-path:url(#clipPath6); fill:none; stroke:black;" height="22"
      /><circle style="fill:none; stroke:black;" r="11" cx="197" cy="327"
      /><polygon style="fill:none; stroke:black;" points=" 145 327 93 327"
      /><polygon style="fill:none; stroke:black;" points=" 145 327 145 275"
      /><rect x="134" y="316" width="22" style="clip-path:url(#clipPath7); stroke:none;" height="22"
      /><rect x="134" y="316" width="22" style="clip-path:url(#clipPath7); fill:rgb(0,144,188); stroke:none;" height="22"
      /><rect x="134" y="316" width="22" style="clip-path:url(#clipPath7); fill:none; stroke:black;" height="22"
      /><rect x="134" y="316" width="22" style="fill:none; stroke:black;" height="22"
      /><polygon style="fill:none; stroke:black;" points=" 93 327 41 327"
      /><circle style="clip-path:url(#clipPath8); stroke:none;" r="11" cx="93" cy="327"
      /><rect x="82" y="316" width="22" style="clip-path:url(#clipPath8); fill:rgb(255,212,0); stroke:none;" height="22"
      /><rect x="82" y="316" width="22" style="clip-path:url(#clipPath8); fill:none; stroke:black;" height="22"
      /><circle style="fill:none; stroke:black;" r="11" cx="93" cy="327"
      /><polygon style="clip-path:url(#clipPath9); stroke:none;" points=" 41 316 52 327 41 338 30 327"
      /><rect x="30" y="316" width="22" style="clip-path:url(#clipPath9); fill:rgb(143,204,233); stroke:none;" height="22"
      /><rect x="30" y="316" width="22" style="clip-path:url(#clipPath9); fill:none; stroke:black;" height="22"
      /><polygon style="fill:none; stroke:black;" points=" 41 316 52 327 41 338 30 327"
      /><rect x="71" y="330" width="5" style="stroke:none;" height="10"
    /></g
    ><g style="font-family:'Serif'; text-rendering:optimizeSpeed; "
    ><path style="stroke:none;" d="M72.8906 338.6875 C72.4844 338.6875 72.1562 339.0469 72.1562 339.4219 C72.1562 339.8125 72.4844 340.1562 72.8906 340.1562 C73.2969 340.1562 73.6406 339.8125 73.6406 339.4219 C73.6406 339.0469 73.2969 338.6875 72.8906 338.6875 ZM74.4688 332.5781 C74.7188 332.8906 74.875 333.2656 74.8906 333.6562 C74.8906 334.1875 74.625 334.5 74.0312 334.7656 L73.4062 335.0156 C72.6406 335.3125 72.3906 335.5469 72.3906 335.9375 C72.3906 336.1094 72.4531 336.3438 72.5781 336.8125 L72.7344 337.3438 L73.1094 337.3438 L73.0938 336.5312 C73.0938 336.0938 73.2031 335.9688 73.7812 335.7344 L74.2031 335.5625 C75.0312 335.2188 75.4531 334.6875 75.4531 333.8438 C75.4531 332.1562 73.6562 331.1875 72.5 331.0312 C72.1094 331.125 71.9062 331.2969 71.9062 331.6406 C71.9062 331.9375 72.0625 332.1562 72.7188 332.2656 L74.4688 332.5781 Z"
      /><rect x="57" y="330" width="5" style="fill:white; stroke:none;" height="10"
      /><path style="stroke:none;" d="M58.8906 338.6875 C58.4844 338.6875 58.1562 339.0469 58.1562 339.4219 C58.1562 339.8125 58.4844 340.1562 58.8906 340.1562 C59.2969 340.1562 59.6406 339.8125 59.6406 339.4219 C59.6406 339.0469 59.2969 338.6875 58.8906 338.6875 ZM60.4688 332.5781 C60.7188 332.8906 60.875 333.2656 60.8906 333.6562 C60.8906 334.1875 60.625 334.5 60.0312 334.7656 L59.4062 335.0156 C58.6406 335.3125 58.3906 335.5469 58.3906 335.9375 C58.3906 336.1094 58.4531 336.3438 58.5781 336.8125 L58.7344 337.3438 L59.1094 337.3438 L59.0938 336.5312 C59.0938 336.0938 59.2031 335.9688 59.7812 335.7344 L60.2031 335.5625 C61.0312 335.2188 61.4531 334.6875 61.4531 333.8438 C61.4531 332.1562 59.6562 331.1875 58.5 331.0312 C58.1094 331.125 57.9062 331.2969 57.9062 331.6406 C57.9062 331.9375 58.0625 332.1562 58.7188 332.2656 L60.4688 332.5781 Z"
      /><polygon style="fill:white; clip-path:url(#clipPath10); stroke:none;" points=" 145 286 134 264 156 264"
      /><rect x="134" y="264" width="22" style="clip-path:url(#clipPath10); fill:rgb(237,28,36); stroke:none;" height="22"
      /><rect x="134" y="264" width="22" style="fill:none; clip-path:url(#clipPath10);" height="22"
      /><polygon style="fill:none;" points=" 145 286 134 264 156 264"
      /><rect x="123" y="330" width="5" style="fill:white; stroke:none;" height="10"
      /><path style="stroke:none;" d="M124.8906 338.6875 C124.4844 338.6875 124.1562 339.0469 124.1562 339.4219 C124.1562 339.8125 124.4844 340.1562 124.8906 340.1562 C125.2969 340.1562 125.6406 339.8125 125.6406 339.4219 C125.6406 339.0469 125.2969 338.6875 124.8906 338.6875 ZM126.4688 332.5781 C126.7188 332.8906 126.875 333.2656 126.8906 333.6562 C126.8906 334.1875 126.625 334.5 126.0312 334.7656 L125.4062 335.0156 C124.6406 335.3125 124.3906 335.5469 124.3906 335.9375 C124.3906 336.1094 124.4531 336.3438 124.5781 336.8125 L124.7344 337.3438 L125.1094 337.3438 L125.0938 336.5312 C125.0938 336.0938 125.2031 335.9688 125.7812 335.7344 L126.2031 335.5625 C127.0312 335.2188 127.4531 334.6875 127.4531 333.8438 C127.4531 332.1562 125.6562 331.1875 124.5 331.0312 C124.1094 331.125 123.9062 331.2969 123.9062 331.6406 C123.9062 331.9375 124.0625 332.1562 124.7188 332.2656 L126.4688 332.5781 Z"
      /><rect x="109" y="330" width="5" style="fill:white; stroke:none;" height="10"
      /><path style="stroke:none;" d="M110.8906 338.6875 C110.4844 338.6875 110.1562 339.0469 110.1562 339.4219 C110.1562 339.8125 110.4844 340.1562 110.8906 340.1562 C111.2969 340.1562 111.6406 339.8125 111.6406 339.4219 C111.6406 339.0469 111.2969 338.6875 110.8906 338.6875 ZM112.4688 332.5781 C112.7188 332.8906 112.875 333.2656 112.8906 333.6562 C112.8906 334.1875 112.625 334.5 112.0312 334.7656 L111.4062 335.0156 C110.6406 335.3125 110.3906 335.5469 110.3906 335.9375 C110.3906 336.1094 110.4531 336.3438 110.5781 336.8125 L110.7344 337.3438 L111.1094 337.3438 L111.0938 336.5312 C111.0938 336.0938 111.2031 335.9688 111.7812 335.7344 L112.2031 335.5625 C113.0312 335.2188 113.4531 334.6875 113.4531 333.8438 C113.4531 332.1562 111.6562 331.1875 110.5 331.0312 C110.1094 331.125 109.9062 331.2969 109.9062 331.6406 C109.9062 331.9375 110.0625 332.1562 110.7188 332.2656 L112.4688 332.5781 Z"
      /><rect x="134" y="303" width="5" style="fill:white; stroke:none;" height="10"
      /><path style="stroke:none;" d="M135.8906 311.6875 C135.4844 311.6875 135.1562 312.0469 135.1562 312.4219 C135.1562 312.8125 135.4844 313.1562 135.8906 313.1562 C136.2969 313.1562 136.6406 312.8125 136.6406 312.4219 C136.6406 312.0469 136.2969 311.6875 135.8906 311.6875 ZM137.4688 305.5781 C137.7188 305.8906 137.875 306.2656 137.8906 306.6562 C137.8906 307.1875 137.625 307.5 137.0312 307.7656 L136.4062 308.0156 C135.6406 308.3125 135.3906 308.5469 135.3906 308.9375 C135.3906 309.1094 135.4531 309.3438 135.5781 309.8125 L135.7344 310.3438 L136.1094 310.3438 L136.0938 309.5312 C136.0938 309.0938 136.2031 308.9688 136.7812 308.7344 L137.2031 308.5625 C138.0312 308.2188 138.4531 307.6875 138.4531 306.8438 C138.4531 305.1562 136.6562 304.1875 135.5 304.0312 C135.1094 304.125 134.9062 304.2969 134.9062 304.6406 C134.9062 304.9375 135.0625 305.1562 135.7188 305.2656 L137.4688 305.5781 Z"
      /><rect x="134" y="289" width="5" style="fill:white; stroke:none;" height="10"
      /><path style="stroke:none;" d="M135.8906 297.6875 C135.4844 297.6875 135.1562 298.0469 135.1562 298.4219 C135.1562 298.8125 135.4844 299.1562 135.8906 299.1562 C136.2969 299.1562 136.6406 298.8125 136.6406 298.4219 C136.6406 298.0469 136.2969 297.6875 135.8906 297.6875 ZM137.4688 291.5781 C137.7188 291.8906 137.875 292.2656 137.8906 292.6562 C137.8906 293.1875 137.625 293.5 137.0312 293.7656 L136.4062 294.0156 C135.6406 294.3125 135.3906 294.5469 135.3906 294.9375 C135.3906 295.1094 135.4531 295.3438 135.5781 295.8125 L135.7344 296.3438 L136.1094 296.3438 L136.0938 295.5312 C136.0938 295.0938 136.2031 294.9688 136.7812 294.7344 L137.2031 294.5625 C138.0312 294.2188 138.4531 293.6875 138.4531 292.8438 C138.4531 291.1562 136.6562 290.1875 135.5 290.0312 C135.1094 290.125 134.9062 290.2969 134.9062 290.6406 C134.9062 290.9375 135.0625 291.1562 135.7188 291.2656 L137.4688 291.5781 Z"
      /><rect x="175" y="330" width="5" style="fill:white; stroke:none;" height="10"
      /><path style="stroke:none;" d="M176.8906 338.6875 C176.4844 338.6875 176.1562 339.0469 176.1562 339.4219 C176.1562 339.8125 176.4844 340.1562 176.8906 340.1562 C177.2969 340.1562 177.6406 339.8125 177.6406 339.4219 C177.6406 339.0469 177.2969 338.6875 176.8906 338.6875 ZM178.4688 332.5781 C178.7188 332.8906 178.875 333.2656 178.8906 333.6562 C178.8906 334.1875 178.625 334.5 178.0312 334.7656 L177.4062 335.0156 C176.6406 335.3125 176.3906 335.5469 176.3906 335.9375 C176.3906 336.1094 176.4531 336.3438 176.5781 336.8125 L176.7344 337.3438 L177.1094 337.3438 L177.0938 336.5312 C177.0938 336.0938 177.2031 335.9688 177.7812 335.7344 L178.2031 335.5625 C179.0312 335.2188 179.4531 334.6875 179.4531 333.8438 C179.4531 332.1562 177.6562 331.1875 176.5 331.0312 C176.1094 331.125 175.9062 331.2969 175.9062 331.6406 C175.9062 331.9375 176.0625 332.1562 176.7188 332.2656 L178.4688 332.5781 Z"
      /><rect x="161" y="330" width="5" style="fill:white; stroke:none;" height="10"
      /><path style="stroke:none;" d="M162.8906 338.6875 C162.4844 338.6875 162.1562 339.0469 162.1562 339.4219 C162.1562 339.8125 162.4844 340.1562 162.8906 340.1562 C163.2969 340.1562 163.6406 339.8125 163.6406 339.4219 C163.6406 339.0469 163.2969 338.6875 162.8906 338.6875 ZM164.4688 332.5781 C164.7188 332.8906 164.875 333.2656 164.8906 333.6562 C164.8906 334.1875 164.625 334.5 164.0312 334.7656 L163.4062 335.0156 C162.6406 335.3125 162.3906 335.5469 162.3906 335.9375 C162.3906 336.1094 162.4531 336.3438 162.5781 336.8125 L162.7344 337.3438 L163.1094 337.3438 L163.0938 336.5312 C163.0938 336.0938 163.2031 335.9688 163.7812 335.7344 L164.2031 335.5625 C165.0312 335.2188 165.4531 334.6875 165.4531 333.8438 C165.4531 332.1562 163.6562 331.1875 162.5 331.0312 C162.1094 331.125 161.9062 331.2969 161.9062 331.6406 C161.9062 331.9375 162.0625 332.1562 162.7188 332.2656 L164.4688 332.5781 Z"
      /><rect x="227" y="330" width="5" style="fill:white; stroke:none;" height="10"
      /><path style="stroke:none;" d="M228.8906 338.6875 C228.4844 338.6875 228.1562 339.0469 228.1562 339.4219 C228.1562 339.8125 228.4844 340.1562 228.8906 340.1562 C229.2969 340.1562 229.6406 339.8125 229.6406 339.4219 C229.6406 339.0469 229.2969 338.6875 228.8906 338.6875 ZM230.4688 332.5781 C230.7188 332.8906 230.875 333.2656 230.8906 333.6562 C230.8906 334.1875 230.625 334.5 230.0312 334.7656 L229.4062 335.0156 C228.6406 335.3125 228.3906 335.5469 228.3906 335.9375 C228.3906 336.1094 228.4531 336.3438 228.5781 336.8125 L228.7344 337.3438 L229.1094 337.3438 L229.0938 336.5312 C229.0938 336.0938 229.2031 335.9688 229.7812 335.7344 L230.2031 335.5625 C231.0312 335.2188 231.4531 334.6875 231.4531 333.8438 C231.4531 332.1562 229.6562 331.1875 228.5 331.0312 C228.1094 331.125 227.9062 331.2969 227.9062 331.6406 C227.9062 331.9375 228.0625 332.1562 228.7188 332.2656 L230.4688 332.5781 Z"
      /><rect x="213" y="330" width="5" style="fill:white; stroke:none;" height="10"
      /><path style="stroke:none;" d="M214.8906 338.6875 C214.4844 338.6875 214.1562 339.0469 214.1562 339.4219 C214.1562 339.8125 214.4844 340.1562 214.8906 340.1562 C215.2969 340.1562 215.6406 339.8125 215.6406 339.4219 C215.6406 339.0469 215.2969 338.6875 214.8906 338.6875 ZM216.4688 332.5781 C216.7188 332.8906 216.875 333.2656 216.8906 333.6562 C216.8906 334.1875 216.625 334.5 216.0312 334.7656 L215.4062 335.0156 C214.6406 335.3125 214.3906 335.5469 214.3906 335.9375 C214.3906 336.1094 214.4531 336.3438 214.5781 336.8125 L214.7344 337.3438 L215.1094 337.3438 L215.0938 336.5312 C215.0938 336.0938 215.2031 335.9688 215.7812 335.7344 L216.2031 335.5625 C217.0312 335.2188 217.4531 334.6875 217.4531 333.8438 C217.4531 332.1562 215.6562 331.1875 214.5 331.0312 C214.1094 331.125 213.9062 331.2969 213.9062 331.6406 C213.9062 331.9375 214.0625 332.1562 214.7188 332.2656 L216.4688 332.5781 Z"
      /><polygon style="fill:none;" points=" 249 223 197 223"
      /><polygon style="fill:none;" points=" 249 223 249 171"
      /><rect x="238" y="212" width="22" style="clip-path:url(#clipPath11); fill:white; stroke:none;" height="22"
      /><rect x="238" y="212" width="22" style="clip-path:url(#clipPath11); fill:rgb(0,144,188); stroke:none;" height="22"
      /><rect x="238" y="212" width="22" style="fill:none; clip-path:url(#clipPath11);" height="22"
      /><rect x="238" width="22" height="22" y="212" style="fill:none;"
      /><polygon style="fill:none;" points=" 197 223 145 223"
      /><circle style="fill:white; clip-path:url(#clipPath12); stroke:none;" r="11" cx="197" cy="223"
      /><rect x="186" y="212" width="22" style="clip-path:url(#clipPath12); fill:rgb(255,212,0); stroke:none;" height="22"
      /><rect x="186" y="212" width="22" style="fill:none; clip-path:url(#clipPath12);" height="22"
      /><circle r="11" style="fill:none;" cx="197" cy="223"
      /><polygon style="fill:none;" points=" 145 223 93 223"
      /><rect x="134" y="212" width="22" style="clip-path:url(#clipPath13); fill:white; stroke:none;" height="22"
      /><rect x="134" y="212" width="22" style="clip-path:url(#clipPath13); fill:rgb(0,144,188); stroke:none;" height="22"
      /><rect x="134" y="212" width="22" style="fill:none; clip-path:url(#clipPath13);" height="22"
      /><rect x="134" width="22" height="22" y="212" style="fill:none;"
      /><polygon style="fill:none;" points=" 93 223 41 223"
      /><circle style="fill:white; clip-path:url(#clipPath14); stroke:none;" r="11" cx="93" cy="223"
      /><rect x="82" y="212" width="22" style="clip-path:url(#clipPath14); fill:rgb(255,212,0); stroke:none;" height="22"
      /><rect x="82" y="212" width="22" style="fill:none; clip-path:url(#clipPath14);" height="22"
      /><circle r="11" style="fill:none;" cx="93" cy="223"
      /><circle style="fill:white; clip-path:url(#clipPath15); stroke:none;" r="11" cx="41" cy="223"
      /><rect x="30" y="212" width="22" style="clip-path:url(#clipPath15); fill:rgb(255,212,0); stroke:none;" height="22"
      /><rect x="30" y="212" width="22" style="fill:none; clip-path:url(#clipPath15);" height="22"
      /><circle r="11" style="fill:none;" cx="41" cy="223"
      /><rect x="71" y="226" width="5" style="fill:white; stroke:none;" height="10"
      /><path style="stroke:none;" d="M72.8906 234.6875 C72.4844 234.6875 72.1562 235.0469 72.1562 235.4219 C72.1562 235.8125 72.4844 236.1562 72.8906 236.1562 C73.2969 236.1562 73.6406 235.8125 73.6406 235.4219 C73.6406 235.0469 73.2969 234.6875 72.8906 234.6875 ZM74.4688 228.5781 C74.7188 228.8906 74.875 229.2656 74.8906 229.6562 C74.8906 230.1875 74.625 230.5 74.0312 230.7656 L73.4062 231.0156 C72.6406 231.3125 72.3906 231.5469 72.3906 231.9375 C72.3906 232.1094 72.4531 232.3438 72.5781 232.8125 L72.7344 233.3438 L73.1094 233.3438 L73.0938 232.5312 C73.0938 232.0938 73.2031 231.9688 73.7812 231.7344 L74.2031 231.5625 C75.0312 231.2188 75.4531 230.6875 75.4531 229.8438 C75.4531 228.1562 73.6562 227.1875 72.5 227.0312 C72.1094 227.125 71.9062 227.2969 71.9062 227.6406 C71.9062 227.9375 72.0625 228.1562 72.7188 228.2656 L74.4688 228.5781 Z"
      /><rect x="57" y="226" width="5" style="fill:white; stroke:none;" height="10"
      /><path style="stroke:none;" d="M58.8906 234.6875 C58.4844 234.6875 58.1562 235.0469 58.1562 235.4219 C58.1562 235.8125 58.4844 236.1562 58.8906 236.1562 C59.2969 236.1562 59.6406 235.8125 59.6406 235.4219 C59.6406 235.0469 59.2969 234.6875 58.8906 234.6875 ZM60.4688 228.5781 C60.7188 228.8906 60.875 229.2656 60.8906 229.6562 C60.8906 230.1875 60.625 230.5 60.0312 230.7656 L59.4062 231.0156 C58.6406 231.3125 58.3906 231.5469 58.3906 231.9375 C58.3906 232.1094 58.4531 232.3438 58.5781 232.8125 L58.7344 233.3438 L59.1094 233.3438 L59.0938 232.5312 C59.0938 232.0938 59.2031 231.9688 59.7812 231.7344 L60.2031 231.5625 C61.0312 231.2188 61.4531 230.6875 61.4531 229.8438 C61.4531 228.1562 59.6562 227.1875 58.5 227.0312 C58.1094 227.125 57.9062 227.2969 57.9062 227.6406 C57.9062 227.9375 58.0625 228.1562 58.7188 228.2656 L60.4688 228.5781 Z"
      /><rect x="123" y="226" width="5" style="fill:white; stroke:none;" height="10"
      /><path style="stroke:none;" d="M124.8906 234.6875 C124.4844 234.6875 124.1562 235.0469 124.1562 235.4219 C124.1562 235.8125 124.4844 236.1562 124.8906 236.1562 C125.2969 236.1562 125.6406 235.8125 125.6406 235.4219 C125.6406 235.0469 125.2969 234.6875 124.8906 234.6875 ZM126.4688 228.5781 C126.7188 228.8906 126.875 229.2656 126.8906 229.6562 C126.8906 230.1875 126.625 230.5 126.0312 230.7656 L125.4062 231.0156 C124.6406 231.3125 124.3906 231.5469 124.3906 231.9375 C124.3906 232.1094 124.4531 232.3438 124.5781 232.8125 L124.7344 233.3438 L125.1094 233.3438 L125.0938 232.5312 C125.0938 232.0938 125.2031 231.9688 125.7812 231.7344 L126.2031 231.5625 C127.0312 231.2188 127.4531 230.6875 127.4531 229.8438 C127.4531 228.1562 125.6562 227.1875 124.5 227.0312 C124.1094 227.125 123.9062 227.2969 123.9062 227.6406 C123.9062 227.9375 124.0625 228.1562 124.7188 228.2656 L126.4688 228.5781 Z"
      /><rect x="109" y="226" width="5" style="fill:white; stroke:none;" height="10"
      /><path style="stroke:none;" d="M110.8906 234.6875 C110.4844 234.6875 110.1562 235.0469 110.1562 235.4219 C110.1562 235.8125 110.4844 236.1562 110.8906 236.1562 C111.2969 236.1562 111.6406 235.8125 111.6406 235.4219 C111.6406 235.0469 111.2969 234.6875 110.8906 234.6875 ZM112.4688 228.5781 C112.7188 228.8906 112.875 229.2656 112.8906 229.6562 C112.8906 230.1875 112.625 230.5 112.0312 230.7656 L111.4062 231.0156 C110.6406 231.3125 110.3906 231.5469 110.3906 231.9375 C110.3906 232.1094 110.4531 232.3438 110.5781 232.8125 L110.7344 233.3438 L111.1094 233.3438 L111.0938 232.5312 C111.0938 232.0938 111.2031 231.9688 111.7812 231.7344 L112.2031 231.5625 C113.0312 231.2188 113.4531 230.6875 113.4531 229.8438 C113.4531 228.1562 111.6562 227.1875 110.5 227.0312 C110.1094 227.125 109.9062 227.2969 109.9062 227.6406 C109.9062 227.9375 110.0625 228.1562 110.7188 228.2656 L112.4688 228.5781 Z"
      /><rect x="175" y="226" width="5" style="fill:white; stroke:none;" height="10"
      /><path style="stroke:none;" d="M176.8906 234.6875 C176.4844 234.6875 176.1562 235.0469 176.1562 235.4219 C176.1562 235.8125 176.4844 236.1562 176.8906 236.1562 C177.2969 236.1562 177.6406 235.8125 177.6406 235.4219 C177.6406 235.0469 177.2969 234.6875 176.8906 234.6875 ZM178.4688 228.5781 C178.7188 228.8906 178.875 229.2656 178.8906 229.6562 C178.8906 230.1875 178.625 230.5 178.0312 230.7656 L177.4062 231.0156 C176.6406 231.3125 176.3906 231.5469 176.3906 231.9375 C176.3906 232.1094 176.4531 232.3438 176.5781 232.8125 L176.7344 233.3438 L177.1094 233.3438 L177.0938 232.5312 C177.0938 232.0938 177.2031 231.9688 177.7812 231.7344 L178.2031 231.5625 C179.0312 231.2188 179.4531 230.6875 179.4531 229.8438 C179.4531 228.1562 177.6562 227.1875 176.5 227.0312 C176.1094 227.125 175.9062 227.2969 175.9062 227.6406 C175.9062 227.9375 176.0625 228.1562 176.7188 228.2656 L178.4688 228.5781 Z"
      /><rect x="161" y="226" width="5" style="fill:white; stroke:none;" height="10"
      /><path style="stroke:none;" d="M162.8906 234.6875 C162.4844 234.6875 162.1562 235.0469 162.1562 235.4219 C162.1562 235.8125 162.4844 236.1562 162.8906 236.1562 C163.2969 236.1562 163.6406 235.8125 163.6406 235.4219 C163.6406 235.0469 163.2969 234.6875 162.8906 234.6875 ZM164.4688 228.5781 C164.7188 228.8906 164.875 229.2656 164.8906 229.6562 C164.8906 230.1875 164.625 230.5 164.0312 230.7656 L163.4062 231.0156 C162.6406 231.3125 162.3906 231.5469 162.3906 231.9375 C162.3906 232.1094 162.4531 232.3438 162.5781 232.8125 L162.7344 233.3438 L163.1094 233.3438 L163.0938 232.5312 C163.0938 232.0938 163.2031 231.9688 163.7812 231.7344 L164.2031 231.5625 C165.0312 231.2188 165.4531 230.6875 165.4531 229.8438 C165.4531 228.1562 163.6562 227.1875 162.5 227.0312 C162.1094 227.125 161.9062 227.2969 161.9062 227.6406 C161.9062 227.9375 162.0625 228.1562 162.7188 228.2656 L164.4688 228.5781 Z"
      /><polygon style="fill:white; clip-path:url(#clipPath16); stroke:none;" points=" 249 182 238 160 260 160"
      /><rect x="238" y="160" width="22" style="clip-path:url(#clipPath16); fill:rgb(237,28,36); stroke:none;" height="22"
      /><rect x="238" y="160" width="22" style="fill:none; clip-path:url(#clipPath16);" height="22"
      /><polygon style="fill:none;" points=" 249 182 238 160 260 160"
      /><rect x="227" y="226" width="5" style="fill:white; stroke:none;" height="10"
      /><path style="stroke:none;" d="M228.8906 234.6875 C228.4844 234.6875 228.1562 235.0469 228.1562 235.4219 C228.1562 235.8125 228.4844 236.1562 228.8906 236.1562 C229.2969 236.1562 229.6406 235.8125 229.6406 235.4219 C229.6406 235.0469 229.2969 234.6875 228.8906 234.6875 ZM230.4688 228.5781 C230.7188 228.8906 230.875 229.2656 230.8906 229.6562 C230.8906 230.1875 230.625 230.5 230.0312 230.7656 L229.4062 231.0156 C228.6406 231.3125 228.3906 231.5469 228.3906 231.9375 C228.3906 232.1094 228.4531 232.3438 228.5781 232.8125 L228.7344 233.3438 L229.1094 233.3438 L229.0938 232.5312 C229.0938 232.0938 229.2031 231.9688 229.7812 231.7344 L230.2031 231.5625 C231.0312 231.2188 231.4531 230.6875 231.4531 229.8438 C231.4531 228.1562 229.6562 227.1875 228.5 227.0312 C228.1094 227.125 227.9062 227.2969 227.9062 227.6406 C227.9062 227.9375 228.0625 228.1562 228.7188 228.2656 L230.4688 228.5781 Z"
      /><rect x="213" y="226" width="5" style="fill:white; stroke:none;" height="10"
      /><path style="stroke:none;" d="M214.8906 234.6875 C214.4844 234.6875 214.1562 235.0469 214.1562 235.4219 C214.1562 235.8125 214.4844 236.1562 214.8906 236.1562 C215.2969 236.1562 215.6406 235.8125 215.6406 235.4219 C215.6406 235.0469 215.2969 234.6875 214.8906 234.6875 ZM216.4688 228.5781 C216.7188 228.8906 216.875 229.2656 216.8906 229.6562 C216.8906 230.1875 216.625 230.5 216.0312 230.7656 L215.4062 231.0156 C214.6406 231.3125 214.3906 231.5469 214.3906 231.9375 C214.3906 232.1094 214.4531 232.3438 214.5781 232.8125 L214.7344 233.3438 L215.1094 233.3438 L215.0938 232.5312 C215.0938 232.0938 215.2031 231.9688 215.7812 231.7344 L216.2031 231.5625 C217.0312 231.2188 217.4531 230.6875 217.4531 229.8438 C217.4531 228.1562 215.6562 227.1875 214.5 227.0312 C214.1094 227.125 213.9062 227.2969 213.9062 227.6406 C213.9062 227.9375 214.0625 228.1562 214.7188 228.2656 L216.4688 228.5781 Z"
      /><rect x="238" y="199" width="5" style="fill:white; stroke:none;" height="10"
      /><path style="stroke:none;" d="M239.8906 207.6875 C239.4844 207.6875 239.1562 208.0469 239.1562 208.4219 C239.1562 208.8125 239.4844 209.1562 239.8906 209.1562 C240.2969 209.1562 240.6406 208.8125 240.6406 208.4219 C240.6406 208.0469 240.2969 207.6875 239.8906 207.6875 ZM241.4688 201.5781 C241.7188 201.8906 241.875 202.2656 241.8906 202.6562 C241.8906 203.1875 241.625 203.5 241.0312 203.7656 L240.4062 204.0156 C239.6406 204.3125 239.3906 204.5469 239.3906 204.9375 C239.3906 205.1094 239.4531 205.3438 239.5781 205.8125 L239.7344 206.3438 L240.1094 206.3438 L240.0938 205.5312 C240.0938 205.0938 240.2031 204.9688 240.7812 204.7344 L241.2031 204.5625 C242.0312 204.2188 242.4531 203.6875 242.4531 202.8438 C242.4531 201.1562 240.6562 200.1875 239.5 200.0312 C239.1094 200.125 238.9062 200.2969 238.9062 200.6406 C238.9062 200.9375 239.0625 201.1562 239.7188 201.2656 L241.4688 201.5781 Z"
      /><rect x="238" y="185" width="5" style="fill:white; stroke:none;" height="10"
      /><path style="stroke:none;" d="M239.8906 193.6875 C239.4844 193.6875 239.1562 194.0469 239.1562 194.4219 C239.1562 194.8125 239.4844 195.1562 239.8906 195.1562 C240.2969 195.1562 240.6406 194.8125 240.6406 194.4219 C240.6406 194.0469 240.2969 193.6875 239.8906 193.6875 ZM241.4688 187.5781 C241.7188 187.8906 241.875 188.2656 241.8906 188.6562 C241.8906 189.1875 241.625 189.5 241.0312 189.7656 L240.4062 190.0156 C239.6406 190.3125 239.3906 190.5469 239.3906 190.9375 C239.3906 191.1094 239.4531 191.3438 239.5781 191.8125 L239.7344 192.3438 L240.1094 192.3438 L240.0938 191.5312 C240.0938 191.0938 240.2031 190.9688 240.7812 190.7344 L241.2031 190.5625 C242.0312 190.2188 242.4531 189.6875 242.4531 188.8438 C242.4531 187.1562 240.6562 186.1875 239.5 186.0312 C239.1094 186.125 238.9062 186.2969 238.9062 186.6406 C238.9062 186.9375 239.0625 187.1562 239.7188 187.2656 L241.4688 187.5781 Z"
      /><rect x="287" y="292" width="5" style="fill:white; stroke:none;" height="10"
      /><path style="stroke:none;" d="M288.8906 300.6875 C288.4844 300.6875 288.1562 301.0469 288.1562 301.4219 C288.1562 301.8125 288.4844 302.1562 288.8906 302.1562 C289.2969 302.1562 289.6406 301.8125 289.6406 301.4219 C289.6406 301.0469 289.2969 300.6875 288.8906 300.6875 ZM290.4688 294.5781 C290.7188 294.8906 290.875 295.2656 290.8906 295.6562 C290.8906 296.1875 290.625 296.5 290.0312 296.7656 L289.4062 297.0156 C288.6406 297.3125 288.3906 297.5469 288.3906 297.9375 C288.3906 298.1094 288.4531 298.3438 288.5781 298.8125 L288.7344 299.3438 L289.1094 299.3438 L289.0938 298.5312 C289.0938 298.0938 289.2031 297.9688 289.7812 297.7344 L290.2031 297.5625 C291.0312 297.2188 291.4531 296.6875 291.4531 295.8438 C291.4531 294.1562 289.6562 293.1875 288.5 293.0312 C288.1094 293.125 287.9062 293.2969 287.9062 293.6406 C287.9062 293.9375 288.0625 294.1562 288.7188 294.2656 L290.4688 294.5781 Z"
      /><rect x="268" y="311" width="5" style="fill:white; stroke:none;" height="10"
      /><path style="stroke:none;" d="M269.8906 319.6875 C269.4844 319.6875 269.1562 320.0469 269.1562 320.4219 C269.1562 320.8125 269.4844 321.1562 269.8906 321.1562 C270.2969 321.1562 270.6406 320.8125 270.6406 320.4219 C270.6406 320.0469 270.2969 319.6875 269.8906 319.6875 ZM271.4688 313.5781 C271.7188 313.8906 271.875 314.2656 271.8906 314.6562 C271.8906 315.1875 271.625 315.5 271.0312 315.7656 L270.4062 316.0156 C269.6406 316.3125 269.3906 316.5469 269.3906 316.9375 C269.3906 317.1094 269.4531 317.3438 269.5781 317.8125 L269.7344 318.3438 L270.1094 318.3438 L270.0938 317.5312 C270.0938 317.0938 270.2031 316.9688 270.7812 316.7344 L271.2031 316.5625 C272.0312 316.2188 272.4531 315.6875 272.4531 314.8438 C272.4531 313.1562 270.6562 312.1875 269.5 312.0312 C269.1094 312.125 268.9062 312.2969 268.9062 312.6406 C268.9062 312.9375 269.0625 313.1562 269.7188 313.2656 L271.4688 313.5781 Z"
      /><rect x="276" y="259" width="5" style="fill:white; stroke:none;" height="10"
      /><path style="stroke:none;" d="M277.8906 267.6875 C277.4844 267.6875 277.1562 268.0469 277.1562 268.4219 C277.1562 268.8125 277.4844 269.1562 277.8906 269.1562 C278.2969 269.1562 278.6406 268.8125 278.6406 268.4219 C278.6406 268.0469 278.2969 267.6875 277.8906 267.6875 ZM279.4688 261.5781 C279.7188 261.8906 279.875 262.2656 279.8906 262.6562 C279.8906 263.1875 279.625 263.5 279.0312 263.7656 L278.4062 264.0156 C277.6406 264.3125 277.3906 264.5469 277.3906 264.9375 C277.3906 265.1094 277.4531 265.3438 277.5781 265.8125 L277.7344 266.3438 L278.1094 266.3438 L278.0938 265.5312 C278.0938 265.0938 278.2031 264.9688 278.7812 264.7344 L279.2031 264.5625 C280.0312 264.2188 280.4531 263.6875 280.4531 262.8438 C280.4531 261.1562 278.6562 260.1875 277.5 260.0312 C277.1094 260.125 276.9062 260.2969 276.9062 260.6406 C276.9062 260.9375 277.0625 261.1562 277.7188 261.2656 L279.4688 261.5781 Z"
      /><rect x="257" y="240" width="5" style="fill:white; stroke:none;" height="10"
      /><path style="stroke:none;" d="M258.8906 248.6875 C258.4844 248.6875 258.1562 249.0469 258.1562 249.4219 C258.1562 249.8125 258.4844 250.1562 258.8906 250.1562 C259.2969 250.1562 259.6406 249.8125 259.6406 249.4219 C259.6406 249.0469 259.2969 248.6875 258.8906 248.6875 ZM260.4688 242.5781 C260.7188 242.8906 260.875 243.2656 260.8906 243.6562 C260.8906 244.1875 260.625 244.5 260.0312 244.7656 L259.4062 245.0156 C258.6406 245.3125 258.3906 245.5469 258.3906 245.9375 C258.3906 246.1094 258.4531 246.3438 258.5781 246.8125 L258.7344 247.3438 L259.1094 247.3438 L259.0938 246.5312 C259.0938 246.0938 259.2031 245.9688 259.7812 245.7344 L260.2031 245.5625 C261.0312 245.2188 261.4531 244.6875 261.4531 243.8438 C261.4531 242.1562 259.6562 241.1875 258.5 241.0312 C258.1094 241.125 257.9062 241.2969 257.9062 241.6406 C257.9062 241.9375 258.0625 242.1562 258.7188 242.2656 L260.4688 242.5781 Z"
      /><polygon style="fill:none;" points=" 301 93 249 119"
      /><polygon style="fill:none;" points=" 301 93 249 67"
      /><circle style="fill:white; clip-path:url(#clipPath17); stroke:none;" r="11" cx="301" cy="93"
      /><rect x="290" y="82" width="22" style="clip-path:url(#clipPath17); fill:rgb(0,166,81); stroke:none;" height="22"
      /><rect x="290" y="82" width="22" style="fill:none; clip-path:url(#clipPath17);" height="22"
      /><circle r="11" style="fill:none;" cx="301" cy="93"
      /><circle style="fill:white; clip-path:url(#clipPath18); stroke:none;" r="11" cx="249" cy="119"
      /><rect x="238" y="108" width="22" style="clip-path:url(#clipPath18); fill:rgb(0,166,81); stroke:none;" height="22"
      /><rect x="238" y="108" width="22" style="fill:none; clip-path:url(#clipPath18);" height="22"
      /><circle r="11" style="fill:none;" cx="249" cy="119"
      /><circle style="fill:white; clip-path:url(#clipPath19); stroke:none;" r="11" cx="249" cy="67"
      /><rect x="238" y="56" width="22" style="clip-path:url(#clipPath19); fill:rgb(0,166,81); stroke:none;" height="22"
      /><rect x="238" y="56" width="22" style="fill:none; clip-path:url(#clipPath19);" height="22"
      /><circle r="11" style="fill:none;" cx="249" cy="67"
      /><rect x="283" y="104" width="5" style="fill:white; stroke:none;" height="10"
      /><path style="stroke:none;" d="M284.8906 112.6875 C284.4844 112.6875 284.1562 113.0469 284.1562 113.4219 C284.1562 113.8125 284.4844 114.1562 284.8906 114.1562 C285.2969 114.1562 285.6406 113.8125 285.6406 113.4219 C285.6406 113.0469 285.2969 112.6875 284.8906 112.6875 ZM286.4688 106.5781 C286.7188 106.8906 286.875 107.2656 286.8906 107.6562 C286.8906 108.1875 286.625 108.5 286.0312 108.7656 L285.4062 109.0156 C284.6406 109.3125 284.3906 109.5469 284.3906 109.9375 C284.3906 110.1094 284.4531 110.3438 284.5781 110.8125 L284.7344 111.3438 L285.1094 111.3438 L285.0938 110.5312 C285.0938 110.0938 285.2031 109.9688 285.7812 109.7344 L286.2031 109.5625 C287.0312 109.2188 287.4531 108.6875 287.4531 107.8438 C287.4531 106.1562 285.6562 105.1875 284.5 105.0312 C284.1094 105.125 283.9062 105.2969 283.9062 105.6406 C283.9062 105.9375 284.0625 106.1562 284.7188 106.2656 L286.4688 106.5781 Z"
      /><rect x="268" y="112" width="5" style="fill:white; stroke:none;" height="10"
      /><path style="stroke:none;" d="M269.8906 120.6875 C269.4844 120.6875 269.1562 121.0469 269.1562 121.4219 C269.1562 121.8125 269.4844 122.1562 269.8906 122.1562 C270.2969 122.1562 270.6406 121.8125 270.6406 121.4219 C270.6406 121.0469 270.2969 120.6875 269.8906 120.6875 ZM271.4688 114.5781 C271.7188 114.8906 271.875 115.2656 271.8906 115.6562 C271.8906 116.1875 271.625 116.5 271.0312 116.7656 L270.4062 117.0156 C269.6406 117.3125 269.3906 117.5469 269.3906 117.9375 C269.3906 118.1094 269.4531 118.3438 269.5781 118.8125 L269.7344 119.3438 L270.1094 119.3438 L270.0938 118.5312 C270.0938 118.0938 270.2031 117.9688 270.7812 117.7344 L271.2031 117.5625 C272.0312 117.2188 272.4531 116.6875 272.4531 115.8438 C272.4531 114.1562 270.6562 113.1875 269.5 113.0312 C269.1094 113.125 268.9062 113.2969 268.9062 113.6406 C268.9062 113.9375 269.0625 114.1562 269.7188 114.2656 L271.4688 114.5781 Z"
      /><rect x="276" y="86" width="5" style="fill:white; stroke:none;" height="10"
      /><path style="stroke:none;" d="M277.8906 94.6875 C277.4844 94.6875 277.1562 95.0469 277.1562 95.4219 C277.1562 95.8125 277.4844 96.1562 277.8906 96.1562 C278.2969 96.1562 278.6406 95.8125 278.6406 95.4219 C278.6406 95.0469 278.2969 94.6875 277.8906 94.6875 ZM279.4688 88.5781 C279.7188 88.8906 279.875 89.2656 279.8906 89.6562 C279.8906 90.1875 279.625 90.5 279.0312 90.7656 L278.4062 91.0156 C277.6406 91.3125 277.3906 91.5469 277.3906 91.9375 C277.3906 92.1094 277.4531 92.3438 277.5781 92.8125 L277.7344 93.3438 L278.1094 93.3438 L278.0938 92.5312 C278.0938 92.0938 278.2031 91.9688 278.7812 91.7344 L279.2031 91.5625 C280.0312 91.2188 280.4531 90.6875 280.4531 89.8438 C280.4531 88.1562 278.6562 87.1875 277.5 87.0312 C277.1094 87.125 276.9062 87.2969 276.9062 87.6406 C276.9062 87.9375 277.0625 88.1562 277.7188 88.2656 L279.4688 88.5781 Z"
      /><rect x="261" y="78" width="5" style="fill:white; stroke:none;" height="10"
      /><path style="stroke:none;" d="M262.8906 86.6875 C262.4844 86.6875 262.1562 87.0469 262.1562 87.4219 C262.1562 87.8125 262.4844 88.1562 262.8906 88.1562 C263.2969 88.1562 263.6406 87.8125 263.6406 87.4219 C263.6406 87.0469 263.2969 86.6875 262.8906 86.6875 ZM264.4688 80.5781 C264.7188 80.8906 264.875 81.2656 264.8906 81.6562 C264.8906 82.1875 264.625 82.5 264.0312 82.7656 L263.4062 83.0156 C262.6406 83.3125 262.3906 83.5469 262.3906 83.9375 C262.3906 84.1094 262.4531 84.3438 262.5781 84.8125 L262.7344 85.3438 L263.1094 85.3438 L263.0938 84.5312 C263.0938 84.0938 263.2031 83.9688 263.7812 83.7344 L264.2031 83.5625 C265.0312 83.2188 265.4531 82.6875 265.4531 81.8438 C265.4531 80.1562 263.6562 79.1875 262.5 79.0312 C262.1094 79.125 261.9062 79.2969 261.9062 79.6406 C261.9062 79.9375 262.0625 80.1562 262.7188 80.2656 L264.4688 80.5781 Z"
      /><rect x="290" y="30" width="22" style="clip-path:url(#clipPath20); fill:white; stroke:none;" height="22"
      /><rect x="290" y="30" width="22" style="clip-path:url(#clipPath20); fill:rgb(0,144,188); stroke:none;" height="22"
      /><rect x="290" y="30" width="22" style="fill:none; clip-path:url(#clipPath20);" height="22"
      /><rect x="290" width="22" height="22" y="30" style="fill:none;"
      /><rect x="352" y="108" width="5" style="fill:white; stroke:none;" height="10"
      /><path style="stroke:none;" d="M353.8906 116.6875 C353.4844 116.6875 353.1562 117.0469 353.1562 117.4219 C353.1562 117.8125 353.4844 118.1562 353.8906 118.1562 C354.2969 118.1562 354.6406 117.8125 354.6406 117.4219 C354.6406 117.0469 354.2969 116.6875 353.8906 116.6875 ZM355.4688 110.5781 C355.7188 110.8906 355.875 111.2656 355.8906 111.6562 C355.8906 112.1875 355.625 112.5 355.0312 112.7656 L354.4062 113.0156 C353.6406 113.3125 353.3906 113.5469 353.3906 113.9375 C353.3906 114.1094 353.4531 114.3438 353.5781 114.8125 L353.7344 115.3438 L354.1094 115.3438 L354.0938 114.5312 C354.0938 114.0938 354.2031 113.9688 354.7812 113.7344 L355.2031 113.5625 C356.0312 113.2188 356.4531 112.6875 356.4531 111.8438 C356.4531 110.1562 354.6562 109.1875 353.5 109.0312 C353.1094 109.125 352.9062 109.2969 352.9062 109.6406 C352.9062 109.9375 353.0625 110.1562 353.7188 110.2656 L355.4688 110.5781 Z"
      /><rect x="311" y="253" width="5" style="fill:white; stroke:none;" height="10"
      /><path style="stroke:none;" d="M312.8906 261.6875 C312.4844 261.6875 312.1562 262.0469 312.1562 262.4219 C312.1562 262.8125 312.4844 263.1562 312.8906 263.1562 C313.2969 263.1562 313.6406 262.8125 313.6406 262.4219 C313.6406 262.0469 313.2969 261.6875 312.8906 261.6875 ZM314.4688 255.5781 C314.7188 255.8906 314.875 256.2656 314.8906 256.6562 C314.8906 257.1875 314.625 257.5 314.0312 257.7656 L313.4062 258.0156 C312.6406 258.3125 312.3906 258.5469 312.3906 258.9375 C312.3906 259.1094 312.4531 259.3438 312.5781 259.8125 L312.7344 260.3438 L313.1094 260.3438 L313.0938 259.5312 C313.0938 259.0938 313.2031 258.9688 313.7812 258.7344 L314.2031 258.5625 C315.0312 258.2188 315.4531 257.6875 315.4531 256.8438 C315.4531 255.1562 313.6562 254.1875 312.5 254.0312 C312.1094 254.125 311.9062 254.2969 311.9062 254.6406 C311.9062 254.9375 312.0625 255.1562 312.7188 255.2656 L314.4688 255.5781 Z"
      /><rect x="331" y="96" width="5" style="fill:white; stroke:none;" height="10"
      /><path style="stroke:none;" d="M332.8906 104.6875 C332.4844 104.6875 332.1562 105.0469 332.1562 105.4219 C332.1562 105.8125 332.4844 106.1562 332.8906 106.1562 C333.2969 106.1562 333.6406 105.8125 333.6406 105.4219 C333.6406 105.0469 333.2969 104.6875 332.8906 104.6875 ZM334.4688 98.5781 C334.7188 98.8906 334.875 99.2656 334.8906 99.6562 C334.8906 100.1875 334.625 100.5 334.0312 100.7656 L333.4062 101.0156 C332.6406 101.3125 332.3906 101.5469 332.3906 101.9375 C332.3906 102.1094 332.4531 102.3438 332.5781 102.8125 L332.7344 103.3438 L333.1094 103.3438 L333.0938 102.5312 C333.0938 102.0938 333.2031 101.9688 333.7812 101.7344 L334.2031 101.5625 C335.0312 101.2188 335.4531 100.6875 335.4531 99.8438 C335.4531 98.1562 333.6562 97.1875 332.5 97.0312 C332.1094 97.125 331.9062 97.2969 331.9062 97.6406 C331.9062 97.9375 332.0625 98.1562 332.7188 98.2656 L334.4688 98.5781 Z"
      /><rect x="317" y="96" width="5" style="fill:white; stroke:none;" height="10"
      /><path style="stroke:none;" d="M318.8906 104.6875 C318.4844 104.6875 318.1562 105.0469 318.1562 105.4219 C318.1562 105.8125 318.4844 106.1562 318.8906 106.1562 C319.2969 106.1562 319.6406 105.8125 319.6406 105.4219 C319.6406 105.0469 319.2969 104.6875 318.8906 104.6875 ZM320.4688 98.5781 C320.7188 98.8906 320.875 99.2656 320.8906 99.6562 C320.8906 100.1875 320.625 100.5 320.0312 100.7656 L319.4062 101.0156 C318.6406 101.3125 318.3906 101.5469 318.3906 101.9375 C318.3906 102.1094 318.4531 102.3438 318.5781 102.8125 L318.7344 103.3438 L319.1094 103.3438 L319.0938 102.5312 C319.0938 102.0938 319.2031 101.9688 319.7812 101.7344 L320.2031 101.5625 C321.0312 101.2188 321.4531 100.6875 321.4531 99.8438 C321.4531 98.1562 319.6562 97.1875 318.5 97.0312 C318.1094 97.125 317.9062 97.2969 317.9062 97.6406 C317.9062 97.9375 318.0625 98.1562 318.7188 98.2656 L320.4688 98.5781 Z"
      /><rect x="328" y="77" width="5" style="fill:white; stroke:none;" height="10"
      /><path style="stroke:none;" d="M329.8906 85.6875 C329.4844 85.6875 329.1562 86.0469 329.1562 86.4219 C329.1562 86.8125 329.4844 87.1562 329.8906 87.1562 C330.2969 87.1562 330.6406 86.8125 330.6406 86.4219 C330.6406 86.0469 330.2969 85.6875 329.8906 85.6875 ZM331.4688 79.5781 C331.7188 79.8906 331.875 80.2656 331.8906 80.6562 C331.8906 81.1875 331.625 81.5 331.0312 81.7656 L330.4062 82.0156 C329.6406 82.3125 329.3906 82.5469 329.3906 82.9375 C329.3906 83.1094 329.4531 83.3438 329.5781 83.8125 L329.7344 84.3438 L330.1094 84.3438 L330.0938 83.5312 C330.0938 83.0938 330.2031 82.9688 330.7812 82.7344 L331.2031 82.5625 C332.0312 82.2188 332.4531 81.6875 332.4531 80.8438 C332.4531 79.1562 330.6562 78.1875 329.5 78.0312 C329.1094 78.125 328.9062 78.2969 328.9062 78.6406 C328.9062 78.9375 329.0625 79.1562 329.7188 79.2656 L331.4688 79.5781 Z"
      /><rect x="309" y="58" width="5" style="fill:white; stroke:none;" height="10"
      /><path style="stroke:none;" d="M310.8906 66.6875 C310.4844 66.6875 310.1562 67.0469 310.1562 67.4219 C310.1562 67.8125 310.4844 68.1562 310.8906 68.1562 C311.2969 68.1562 311.6406 67.8125 311.6406 67.4219 C311.6406 67.0469 311.2969 66.6875 310.8906 66.6875 ZM312.4688 60.5781 C312.7188 60.8906 312.875 61.2656 312.8906 61.6562 C312.8906 62.1875 312.625 62.5 312.0312 62.7656 L311.4062 63.0156 C310.6406 63.3125 310.3906 63.5469 310.3906 63.9375 C310.3906 64.1094 310.4531 64.3438 310.5781 64.8125 L310.7344 65.3438 L311.1094 65.3438 L311.0938 64.5312 C311.0938 64.0938 311.2031 63.9688 311.7812 63.7344 L312.2031 63.5625 C313.0312 63.2188 313.4531 62.6875 313.4531 61.8438 C313.4531 60.1562 311.6562 59.1875 310.5 59.0312 C310.1094 59.125 309.9062 59.2969 309.9062 59.6406 C309.9062 59.9375 310.0625 60.1562 310.7188 60.2656 L312.4688 60.5781 Z"
      /><rect x="383" y="96" width="5" style="fill:white; stroke:none;" height="10"
      /><path style="stroke:none;" d="M384.8906 104.6875 C384.4844 104.6875 384.1562 105.0469 384.1562 105.4219 C384.1562 105.8125 384.4844 106.1562 384.8906 106.1562 C385.2969 106.1562 385.6406 105.8125 385.6406 105.4219 C385.6406 105.0469 385.2969 104.6875 384.8906 104.6875 ZM386.4688 98.5781 C386.7188 98.8906 386.875 99.2656 386.8906 99.6562 C386.8906 100.1875 386.625 100.5 386.0312 100.7656 L385.4062 101.0156 C384.6406 101.3125 384.3906 101.5469 384.3906 101.9375 C384.3906 102.1094 384.4531 102.3438 384.5781 102.8125 L384.7344 103.3438 L385.1094 103.3438 L385.0938 102.5312 C385.0938 102.0938 385.2031 101.9688 385.7812 101.7344 L386.2031 101.5625 C387.0312 101.2188 387.4531 100.6875 387.4531 99.8438 C387.4531 98.1562 385.6562 97.1875 384.5 97.0312 C384.1094 97.125 383.9062 97.2969 383.9062 97.6406 C383.9062 97.9375 384.0625 98.1562 384.7188 98.2656 L386.4688 98.5781 Z"
      /><rect x="369" y="96" width="5" style="fill:white; stroke:none;" height="10"
      /><path style="stroke:none;" d="M370.8906 104.6875 C370.4844 104.6875 370.1562 105.0469 370.1562 105.4219 C370.1562 105.8125 370.4844 106.1562 370.8906 106.1562 C371.2969 106.1562 371.6406 105.8125 371.6406 105.4219 C371.6406 105.0469 371.2969 104.6875 370.8906 104.6875 ZM372.4688 98.5781 C372.7188 98.8906 372.875 99.2656 372.8906 99.6562 C372.8906 100.1875 372.625 100.5 372.0312 100.7656 L371.4062 101.0156 C370.6406 101.3125 370.3906 101.5469 370.3906 101.9375 C370.3906 102.1094 370.4531 102.3438 370.5781 102.8125 L370.7344 103.3438 L371.1094 103.3438 L371.0938 102.5312 C371.0938 102.0938 371.2031 101.9688 371.7812 101.7344 L372.2031 101.5625 C373.0312 101.2188 373.4531 100.6875 373.4531 99.8438 C373.4531 98.1562 371.6562 97.1875 370.5 97.0312 C370.1094 97.125 369.9062 97.2969 369.9062 97.6406 C369.9062 97.9375 370.0625 98.1562 370.7188 98.2656 L372.4688 98.5781 Z"
      /><rect x="435" y="96" width="5" style="fill:white; stroke:none;" height="10"
      /><path style="stroke:none;" d="M436.8906 104.6875 C436.4844 104.6875 436.1562 105.0469 436.1562 105.4219 C436.1562 105.8125 436.4844 106.1562 436.8906 106.1562 C437.2969 106.1562 437.6406 105.8125 437.6406 105.4219 C437.6406 105.0469 437.2969 104.6875 436.8906 104.6875 ZM438.4688 98.5781 C438.7188 98.8906 438.875 99.2656 438.8906 99.6562 C438.8906 100.1875 438.625 100.5 438.0312 100.7656 L437.4062 101.0156 C436.6406 101.3125 436.3906 101.5469 436.3906 101.9375 C436.3906 102.1094 436.4531 102.3438 436.5781 102.8125 L436.7344 103.3438 L437.1094 103.3438 L437.0938 102.5312 C437.0938 102.0938 437.2031 101.9688 437.7812 101.7344 L438.2031 101.5625 C439.0312 101.2188 439.4531 100.6875 439.4531 99.8438 C439.4531 98.1562 437.6562 97.1875 436.5 97.0312 C436.1094 97.125 435.9062 97.2969 435.9062 97.6406 C435.9062 97.9375 436.0625 98.1562 436.7188 98.2656 L438.4688 98.5781 Z"
      /><rect x="421" y="96" width="5" style="fill:white; stroke:none;" height="10"
      /><path style="stroke:none;" d="M422.8906 104.6875 C422.4844 104.6875 422.1562 105.0469 422.1562 105.4219 C422.1562 105.8125 422.4844 106.1562 422.8906 106.1562 C423.2969 106.1562 423.6406 105.8125 423.6406 105.4219 C423.6406 105.0469 423.2969 104.6875 422.8906 104.6875 ZM424.4688 98.5781 C424.7188 98.8906 424.875 99.2656 424.8906 99.6562 C424.8906 100.1875 424.625 100.5 424.0312 100.7656 L423.4062 101.0156 C422.6406 101.3125 422.3906 101.5469 422.3906 101.9375 C422.3906 102.1094 422.4531 102.3438 422.5781 102.8125 L422.7344 103.3438 L423.1094 103.3438 L423.0938 102.5312 C423.0938 102.0938 423.2031 101.9688 423.7812 101.7344 L424.2031 101.5625 C425.0312 101.2188 425.4531 100.6875 425.4531 99.8438 C425.4531 98.1562 423.6562 97.1875 422.5 97.0312 C422.1094 97.125 421.9062 97.2969 421.9062 97.6406 C421.9062 97.9375 422.0625 98.1562 422.7188 98.2656 L424.4688 98.5781 Z"
      /><rect x="473" y="96" width="5" style="fill:white; stroke:none;" height="10"
      /><path style="stroke:none;" d="M474.8906 104.6875 C474.4844 104.6875 474.1562 105.0469 474.1562 105.4219 C474.1562 105.8125 474.4844 106.1562 474.8906 106.1562 C475.2969 106.1562 475.6406 105.8125 475.6406 105.4219 C475.6406 105.0469 475.2969 104.6875 474.8906 104.6875 ZM476.4688 98.5781 C476.7188 98.8906 476.875 99.2656 476.8906 99.6562 C476.8906 100.1875 476.625 100.5 476.0312 100.7656 L475.4062 101.0156 C474.6406 101.3125 474.3906 101.5469 474.3906 101.9375 C474.3906 102.1094 474.4531 102.3438 474.5781 102.8125 L474.7344 103.3438 L475.1094 103.3438 L475.0938 102.5312 C475.0938 102.0938 475.2031 101.9688 475.7812 101.7344 L476.2031 101.5625 C477.0312 101.2188 477.4531 100.6875 477.4531 99.8438 C477.4531 98.1562 475.6562 97.1875 474.5 97.0312 C474.1094 97.125 473.9062 97.2969 473.9062 97.6406 C473.9062 97.9375 474.0625 98.1562 474.7188 98.2656 L476.4688 98.5781 Z"
    /></g
  ></g
></svg
>
