<?xml version="1.0"?>
<!DOCTYPE svg PUBLIC '-//W3C//DTD SVG 1.0//EN'
          'http://www.w3.org/TR/2001/REC-SVG-20010904/DTD/svg10.dtd'>
<svg xmlns:xlink="http://www.w3.org/1999/xlink" style="fill-opacity:1; color-rendering:auto; color-interpolation:auto; text-rendering:auto; stroke:black; stroke-linecap:square; stroke-miterlimit:10; shape-rendering:auto; stroke-opacity:1; fill:black; stroke-dasharray:none; font-weight:normal; stroke-width:1; font-family:'Dialog'; font-style:normal; stroke-linejoin:miter; font-size:12px; stroke-dashoffset:0; image-rendering:auto;" viewBox="0 0 342 157" xmlns="http://www.w3.org/2000/svg"
><!--Generated by the Batik Graphics2D SVG Generator--><defs id="genericDefs"
  /><g
  ><defs id="defs1"
    ><clipPath clipPathUnits="userSpaceOnUse" id="clipPath1"
      ><path d="M260 67 C260 73.0751 255.0751 78 249 78 C242.9249 78 238 73.0751 238 67 C238 60.9249 242.9249 56 249 56 C255.0751 56 260 60.9249 260 67 Z"
      /></clipPath
      ><clipPath clipPathUnits="userSpaceOnUse" id="clipPath2"
      ><path d="M208 67 C208 73.0751 203.0751 78 197 78 C190.9249 78 186 73.0751 186 67 C186 60.9249 190.9249 56 197 56 C203.0751 56 208 60.9249 208 67 Z"
      /></clipPath
      ><clipPath clipPathUnits="userSpaceOnUse" id="clipPath3"
      ><path d="M156 93 C156 99.0751 151.0751 104 145 104 C138.9249 104 134 99.0751 134 93 C134 86.9249 138.9249 82 145 82 C151.0751 82 156 86.9249 156 93 Z"
      /></clipPath
      ><clipPath clipPathUnits="userSpaceOnUse" id="clipPath4"
      ><path d="M104 93 C104 99.0751 99.0751 104 93 104 C86.9249 104 82 99.0751 82 93 C82 86.9249 86.9249 82 93 82 C99.0751 82 104 86.9249 104 93 Z"
      /></clipPath
      ><clipPath clipPathUnits="userSpaceOnUse" id="clipPath5"
      ><path d="M52 93 C52 99.0751 47.0751 104 41 104 C34.9249 104 30 99.0751 30 93 C30 86.9249 34.9249 82 41 82 C47.0751 82 52 86.9249 52 93 Z"
      /></clipPath
      ><clipPath clipPathUnits="userSpaceOnUse" id="clipPath6"
      ><path d="M134 30 L156 30 L156 52 L134 52 L134 30 Z"
      /></clipPath
      ><clipPath clipPathUnits="userSpaceOnUse" id="clipPath7"
      ><path d="M104 41 C104 47.0751 99.0751 52 93 52 C86.9249 52 82 47.0751 82 41 C82 34.9249 86.9249 30 93 30 C99.0751 30 104 34.9249 104 41 Z"
      /></clipPath
    ></defs
    ><g style="fill:white; text-rendering:optimizeSpeed; stroke:white;"
    ><rect x="0" width="342" height="157" y="0" style="stroke:none;"
      /><polygon style="fill:none; stroke:black;" points=" 301 67 249 67"
      /><path d="M301 56 C295.5 61.5 306.5 72.5 301 78" style="fill:none; stroke:black;"
      /><polygon style="fill:none; stroke:black;" points=" 249 67 197 67"
      /><circle style="clip-path:url(#clipPath1); stroke:none;" r="11" cx="249" cy="67"
      /><rect x="238" y="56" width="22" style="clip-path:url(#clipPath1); fill:rgb(0,144,188); stroke:none;" height="22"
      /><rect x="238" y="56" width="22" style="clip-path:url(#clipPath1); fill:none; stroke:black;" height="22"
      /><circle style="fill:none; stroke:black;" r="11" cx="249" cy="67"
      /><polygon style="fill:none; stroke:black;" points=" 197 67 145 93"
      /><polygon style="fill:none; stroke:black;" points=" 197 67 145 41"
      /><circle style="clip-path:url(#clipPath2); stroke:none;" r="11" cx="197" cy="67"
      /><rect x="186" y="56" width="22" style="clip-path:url(#clipPath2); fill:rgb(255,212,0); stroke:none;" height="22"
      /><rect x="186" y="56" width="22" style="clip-path:url(#clipPath2); fill:none; stroke:black;" height="22"
      /><circle style="fill:none; stroke:black;" r="11" cx="197" cy="67"
      /><polygon style="fill:none; stroke:black;" points=" 145 93 93 93"
      /><circle style="clip-path:url(#clipPath3); stroke:none;" r="11" cx="145" cy="93"
      /><rect x="134" y="82" width="22" style="clip-path:url(#clipPath3); fill:rgb(255,212,0); stroke:none;" height="22"
      /><rect x="134" y="82" width="22" style="clip-path:url(#clipPath3); fill:none; stroke:black;" height="22"
      /><circle style="fill:none; stroke:black;" r="11" cx="145" cy="93"
      /><polygon style="fill:none; stroke:black;" points=" 93 93 41 93"
      /><circle style="clip-path:url(#clipPath4); stroke:none;" r="11" cx="93" cy="93"
      /><rect x="82" y="82" width="22" style="clip-path:url(#clipPath4); fill:rgb(255,212,0); stroke:none;" height="22"
      /><rect x="82" y="82" width="22" style="clip-path:url(#clipPath4); fill:none; stroke:black;" height="22"
      /><circle style="fill:none; stroke:black;" r="11" cx="93" cy="93"
      /><circle style="clip-path:url(#clipPath5); stroke:none;" r="11" cx="41" cy="93"
      /><rect x="30" y="82" width="22" style="clip-path:url(#clipPath5); fill:rgb(255,212,0); stroke:none;" height="22"
      /><rect x="30" y="82" width="22" style="clip-path:url(#clipPath5); fill:none; stroke:black;" height="22"
      /><circle style="fill:none; stroke:black;" r="11" cx="41" cy="93"
      /><rect x="33" y="110" width="15" style="stroke:none;" height="10"
    /></g
    ><g style="text-rendering:optimizeSpeed; font-size:14px; font-family:'SansSerif';"
    ><path style="stroke:none;" d="M36.7031 121.1875 C38.5156 121.1875 39.9844 120.0938 39.9844 118.25 C39.9844 116.8594 39.0156 115.9375 37.8125 115.6562 L37.8125 115.5938 C38.8906 115.1875 39.6406 114.3594 39.6406 113.125 C39.6406 111.5 38.375 110.5469 36.6562 110.5469 C35.4688 110.5469 34.5469 111.0625 33.7812 111.7812 L34.4688 112.5938 C35.0469 112 35.7656 111.5938 36.5938 111.5938 C37.6562 111.5938 38.3281 112.2344 38.3281 113.2188 C38.3281 114.3281 37.6094 115.1719 35.4844 115.1719 L35.4844 116.1562 C37.8594 116.1562 38.6875 116.9844 38.6875 118.2031 C38.6875 119.3906 37.8125 120.125 36.5938 120.125 C35.4375 120.125 34.6562 119.5781 34.0469 118.9375 L33.4062 119.7812 C34.0781 120.5156 35.0938 121.1875 36.7031 121.1875 ZM45.02 121.1875 C47.1606 121.1875 48.5043 119.8906 48.5043 118.2656 C48.5043 116.75 47.5825 116.0469 46.395 115.5312 L44.9262 114.8906 C44.1293 114.5625 43.2387 114.1875 43.2387 113.1875 C43.2387 112.2656 43.9887 111.6719 45.145 111.6719 C46.0981 111.6719 46.8637 112.0469 47.4887 112.6406 L48.1762 111.8125 C47.4418 111.0625 46.3637 110.5469 45.145 110.5469 C43.2856 110.5469 41.9106 111.6875 41.9106 113.2656 C41.9106 114.7656 43.0512 115.5 44.0043 115.9062 L45.4887 116.5469 C46.4575 116.9844 47.1918 117.3125 47.1918 118.375 C47.1918 119.375 46.3793 120.0469 45.0356 120.0469 C43.9731 120.0469 42.9418 119.5469 42.2075 118.7812 L41.4262 119.6562 C42.3168 120.5938 43.5668 121.1875 45.02 121.1875 Z"
    /></g
    ><g style="fill:white; text-rendering:optimizeSpeed; font-family:'Serif'; stroke:white;"
    ><rect x="71" width="6" height="10" y="96" style="stroke:none;"
      /><path d="M73.2344 97.6562 C73.5156 97.5938 73.7656 97.5625 74.0156 97.5625 C75.0625 97.5625 75.6719 98.1719 75.6719 99.2656 C75.6719 100.4375 74.9062 101.1094 73.7031 101.1094 L73.1875 101.1094 L73.1875 101.6406 L73.7969 101.6406 C75.2188 101.6406 75.9062 102.4219 75.9062 103.6406 C75.9062 104.8438 75.1719 105.6875 73.875 105.6875 C73.6094 105.6875 73.3125 105.6562 73.0156 105.5625 L72.7812 104.8125 C72.625 104.2812 72.5 104.0469 72.1406 104.0469 C71.8906 104.0469 71.7031 104.1719 71.5781 104.4219 C71.8438 105.6406 72.7812 106.1719 74.0312 106.1719 C75.7188 106.1719 76.875 105.125 76.875 103.7031 C76.875 102.5 76.2031 101.625 74.7969 101.375 C75.9531 101.0156 76.6094 100.2031 76.6094 99.2031 C76.6094 97.9219 75.6719 97.0781 74.1875 97.0781 C73.0469 97.0781 72.0625 97.5938 71.7969 98.6875 C71.9062 99 72.1094 99.1094 72.3594 99.1094 C72.7344 99.1094 72.8906 98.8906 73 98.4062 L73.2344 97.6562 Z" style="fill:black; stroke:none;"
      /><rect x="57" width="6" height="13" y="94" style="stroke:none;"
      /><path d="M59.0938 100.2031 C59.0938 98.6562 59.75 97.8125 60.7969 97.8125 C61.7188 97.8125 62.2656 98.4531 62.2656 99.5156 C62.2656 100.7188 61.5 101.4375 60.1875 101.7031 L60.2969 102.3125 C62.2188 102.2344 62.9375 103.2188 62.9375 104.4375 C62.9375 105.625 62.2344 106.4219 60.9531 106.4219 C60.25 106.4219 59.6562 106.1562 59.0938 105.7188 L59.0938 100.2031 ZM58.2031 106.9062 L58.1094 109.375 L58.2656 109.4844 L59.1562 109.2656 L59.0156 106.0938 C59.5469 106.8438 60.3594 107.1719 61.1719 107.1719 C62.5625 107.1719 63.8594 106.2188 63.8594 104.4844 C63.8594 102.9531 62.875 102.1094 61.125 102 C62.5625 101.6094 63.1875 100.4531 63.1875 99.4844 C63.1875 98.0938 62.1562 97.3125 60.9062 97.3125 C59.2969 97.3125 58.2188 98.5469 58.2188 100.5156 L58.2031 106.9062 Z" style="fill:black; stroke:none;"
      /><rect x="123" width="6" height="10" y="96" style="stroke:none;"
      /><path d="M125.2344 97.6562 C125.5156 97.5938 125.7656 97.5625 126.0156 97.5625 C127.0625 97.5625 127.6719 98.1719 127.6719 99.2656 C127.6719 100.4375 126.9062 101.1094 125.7031 101.1094 L125.1875 101.1094 L125.1875 101.6406 L125.7969 101.6406 C127.2188 101.6406 127.9062 102.4219 127.9062 103.6406 C127.9062 104.8438 127.1719 105.6875 125.875 105.6875 C125.6094 105.6875 125.3125 105.6562 125.0156 105.5625 L124.7812 104.8125 C124.625 104.2812 124.5 104.0469 124.1406 104.0469 C123.8906 104.0469 123.7031 104.1719 123.5781 104.4219 C123.8438 105.6406 124.7812 106.1719 126.0312 106.1719 C127.7188 106.1719 128.875 105.125 128.875 103.7031 C128.875 102.5 128.2031 101.625 126.7969 101.375 C127.9531 101.0156 128.6094 100.2031 128.6094 99.2031 C128.6094 97.9219 127.6719 97.0781 126.1875 97.0781 C125.0469 97.0781 124.0625 97.5938 123.7969 98.6875 C123.9062 99 124.1094 99.1094 124.3594 99.1094 C124.7344 99.1094 124.8906 98.8906 125 98.4062 L125.2344 97.6562 Z" style="fill:black; stroke:none;"
      /><rect x="109" width="6" height="13" y="94" style="stroke:none;"
      /><path d="M111.0938 100.2031 C111.0938 98.6562 111.75 97.8125 112.7969 97.8125 C113.7188 97.8125 114.2656 98.4531 114.2656 99.5156 C114.2656 100.7188 113.5 101.4375 112.1875 101.7031 L112.2969 102.3125 C114.2188 102.2344 114.9375 103.2188 114.9375 104.4375 C114.9375 105.625 114.2344 106.4219 112.9531 106.4219 C112.25 106.4219 111.6562 106.1562 111.0938 105.7188 L111.0938 100.2031 ZM110.2031 106.9062 L110.1094 109.375 L110.2656 109.4844 L111.1562 109.2656 L111.0156 106.0938 C111.5469 106.8438 112.3594 107.1719 113.1719 107.1719 C114.5625 107.1719 115.8594 106.2188 115.8594 104.4844 C115.8594 102.9531 114.875 102.1094 113.125 102 C114.5625 101.6094 115.1875 100.4531 115.1875 99.4844 C115.1875 98.0938 114.1562 97.3125 112.9062 97.3125 C111.2969 97.3125 110.2188 98.5469 110.2188 100.5156 L110.2031 106.9062 Z" style="fill:black; stroke:none;"
      /><polygon style="fill:none; stroke:black;" points=" 145 41 93 41"
      /><rect x="134" y="30" width="22" style="clip-path:url(#clipPath6); stroke:none;" height="22"
      /><rect x="134" y="30" width="22" style="clip-path:url(#clipPath6); fill:rgb(0,144,188); stroke:none;" height="22"
      /><rect x="134" y="30" width="22" style="clip-path:url(#clipPath6); fill:none; stroke:black;" height="22"
      /><rect x="134" y="30" width="22" style="fill:none; stroke:black;" height="22"
      /><circle r="11" style="clip-path:url(#clipPath7); stroke:none;" cx="93" cy="41"
      /><rect x="82" y="30" width="22" style="clip-path:url(#clipPath7); fill:rgb(255,212,0); stroke:none;" height="22"
      /><rect x="82" y="30" width="22" style="clip-path:url(#clipPath7); fill:none; stroke:black;" height="22"
      /><circle r="11" style="fill:none; stroke:black;" cx="93" cy="41"
      /><rect x="122" width="7" height="9" y="44" style="stroke:none;"
      /><path d="M123 49.5156 L125.9531 45.2656 L125.9531 49.5156 L123 49.5156 ZM128.2812 49.5156 L126.8594 49.5156 L126.8594 44.125 L126.2344 44.125 L122.3438 49.6406 L122.3438 50.1875 L125.9531 50.1875 L125.9531 53 L126.8594 53 L126.8594 50.1875 L128.2812 50.1875 L128.2812 49.5156 Z" style="fill:black; stroke:none;"
      /><rect x="109" width="6" height="13" y="42" style="stroke:none;"
      /><path d="M111.0938 48.2031 C111.0938 46.6562 111.75 45.8125 112.7969 45.8125 C113.7188 45.8125 114.2656 46.4531 114.2656 47.5156 C114.2656 48.7188 113.5 49.4375 112.1875 49.7031 L112.2969 50.3125 C114.2188 50.2344 114.9375 51.2188 114.9375 52.4375 C114.9375 53.625 114.2344 54.4219 112.9531 54.4219 C112.25 54.4219 111.6562 54.1562 111.0938 53.7188 L111.0938 48.2031 ZM110.2031 54.9062 L110.1094 57.375 L110.2656 57.4844 L111.1562 57.2656 L111.0156 54.0938 C111.5469 54.8438 112.3594 55.1719 113.1719 55.1719 C114.5625 55.1719 115.8594 54.2188 115.8594 52.4844 C115.8594 50.9531 114.875 50.1094 113.125 50 C114.5625 49.6094 115.1875 48.4531 115.1875 47.4844 C115.1875 46.0938 114.1562 45.3125 112.9062 45.3125 C111.2969 45.3125 110.2188 46.5469 110.2188 48.5156 L110.2031 54.9062 Z" style="fill:black; stroke:none;"
      /><rect x="179" width="6" height="10" y="78" style="stroke:none;"
      /><path d="M181.2344 79.6562 C181.5156 79.5938 181.7656 79.5625 182.0156 79.5625 C183.0625 79.5625 183.6719 80.1719 183.6719 81.2656 C183.6719 82.4375 182.9062 83.1094 181.7031 83.1094 L181.1875 83.1094 L181.1875 83.6406 L181.7969 83.6406 C183.2188 83.6406 183.9062 84.4219 183.9062 85.6406 C183.9062 86.8438 183.1719 87.6875 181.875 87.6875 C181.6094 87.6875 181.3125 87.6562 181.0156 87.5625 L180.7812 86.8125 C180.625 86.2812 180.5 86.0469 180.1406 86.0469 C179.8906 86.0469 179.7031 86.1719 179.5781 86.4219 C179.8438 87.6406 180.7812 88.1719 182.0312 88.1719 C183.7188 88.1719 184.875 87.125 184.875 85.7031 C184.875 84.5 184.2031 83.625 182.7969 83.375 C183.9531 83.0156 184.6094 82.2031 184.6094 81.2031 C184.6094 79.9219 183.6719 79.0781 182.1875 79.0781 C181.0469 79.0781 180.0625 79.5938 179.7969 80.6875 C179.9062 81 180.1094 81.1094 180.3594 81.1094 C180.7344 81.1094 180.8906 80.8906 181 80.4062 L181.2344 79.6562 Z" style="fill:black; stroke:none;"
      /><rect x="163" width="6" height="13" y="84" style="stroke:none;"
      /><path d="M165.0938 90.2031 C165.0938 88.6562 165.75 87.8125 166.7969 87.8125 C167.7188 87.8125 168.2656 88.4531 168.2656 89.5156 C168.2656 90.7188 167.5 91.4375 166.1875 91.7031 L166.2969 92.3125 C168.2188 92.2344 168.9375 93.2188 168.9375 94.4375 C168.9375 95.625 168.2344 96.4219 166.9531 96.4219 C166.25 96.4219 165.6562 96.1562 165.0938 95.7188 L165.0938 90.2031 ZM164.2031 96.9062 L164.1094 99.375 L164.2656 99.4844 L165.1562 99.2656 L165.0156 96.0938 C165.5469 96.8438 166.3594 97.1719 167.1719 97.1719 C168.5625 97.1719 169.8594 96.2188 169.8594 94.4844 C169.8594 92.9531 168.875 92.1094 167.125 92 C168.5625 91.6094 169.1875 90.4531 169.1875 89.4844 C169.1875 88.0938 168.1562 87.3125 166.9062 87.3125 C165.2969 87.3125 164.2188 88.5469 164.2188 90.5156 L164.2031 96.9062 Z" style="fill:black; stroke:none;"
      /><rect x="172" width="6" height="10" y="60" style="stroke:none;"
      /><path d="M175.3438 69.6875 C174.2031 69.6875 173.5312 68.5 173.5312 66.2969 C173.5312 66.2188 173.5312 66.125 173.5312 66.0469 C174.0938 65.5 174.7188 65.3125 175.3438 65.3125 C176.3125 65.3125 176.9531 65.9844 176.9531 67.4531 C176.9531 68.9375 176.3125 69.6875 175.3438 69.6875 ZM177.5312 61.0781 C174.3438 61.4531 172.5625 63.7656 172.5625 66.4531 C172.5625 68.7812 173.6094 70.1719 175.3125 70.1719 C176.8438 70.1719 177.9219 69.1094 177.9219 67.2812 C177.9219 65.6875 176.9688 64.6562 175.5625 64.6562 C174.8281 64.6562 174.1406 64.9844 173.5781 65.5781 C173.7969 63.4062 175.0781 61.9688 177.5938 61.3906 L177.5312 61.0781 Z" style="fill:black; stroke:none;"
      /><rect x="156" width="6" height="13" y="50" style="stroke:none;"
      /><path d="M158.0938 56.2031 C158.0938 54.6562 158.75 53.8125 159.7969 53.8125 C160.7188 53.8125 161.2656 54.4531 161.2656 55.5156 C161.2656 56.7188 160.5 57.4375 159.1875 57.7031 L159.2969 58.3125 C161.2188 58.2344 161.9375 59.2188 161.9375 60.4375 C161.9375 61.625 161.2344 62.4219 159.9531 62.4219 C159.25 62.4219 158.6562 62.1562 158.0938 61.7188 L158.0938 56.2031 ZM157.2031 62.9062 L157.1094 65.375 L157.2656 65.4844 L158.1562 65.2656 L158.0156 62.0938 C158.5469 62.8438 159.3594 63.1719 160.1719 63.1719 C161.5625 63.1719 162.8594 62.2188 162.8594 60.4844 C162.8594 58.9531 161.875 58.1094 160.125 58 C161.5625 57.6094 162.1875 56.4531 162.1875 55.4844 C162.1875 54.0938 161.1562 53.3125 159.9062 53.3125 C158.2969 53.3125 157.2188 54.5469 157.2188 56.5156 L157.2031 62.9062 Z" style="fill:black; stroke:none;"
      /><rect x="226" width="7" height="9" y="70" style="stroke:none;"
      /><path d="M227 75.5156 L229.9531 71.2656 L229.9531 75.5156 L227 75.5156 ZM232.2812 75.5156 L230.8594 75.5156 L230.8594 70.125 L230.2344 70.125 L226.3438 75.6406 L226.3438 76.1875 L229.9531 76.1875 L229.9531 79 L230.8594 79 L230.8594 76.1875 L232.2812 76.1875 L232.2812 75.5156 Z" style="fill:black; stroke:none;"
      /><rect x="213" width="6" height="13" y="68" style="stroke:none;"
      /><path d="M215.0938 74.2031 C215.0938 72.6562 215.75 71.8125 216.7969 71.8125 C217.7188 71.8125 218.2656 72.4531 218.2656 73.5156 C218.2656 74.7188 217.5 75.4375 216.1875 75.7031 L216.2969 76.3125 C218.2188 76.2344 218.9375 77.2188 218.9375 78.4375 C218.9375 79.625 218.2344 80.4219 216.9531 80.4219 C216.25 80.4219 215.6562 80.1562 215.0938 79.7188 L215.0938 74.2031 ZM214.2031 80.9062 L214.1094 83.375 L214.2656 83.4844 L215.1562 83.2656 L215.0156 80.0938 C215.5469 80.8438 216.3594 81.1719 217.1719 81.1719 C218.5625 81.1719 219.8594 80.2188 219.8594 78.4844 C219.8594 76.9531 218.875 76.1094 217.125 76 C218.5625 75.6094 219.1875 74.4531 219.1875 73.4844 C219.1875 72.0938 218.1562 71.3125 216.9062 71.3125 C215.2969 71.3125 214.2188 72.5469 214.2188 74.5156 L214.2031 80.9062 Z" style="fill:black; stroke:none;"
      /><rect x="265" width="5" height="10" y="70" style="stroke:none;"
      /><path d="M266.8906 78.6875 C266.4844 78.6875 266.1562 79.0469 266.1562 79.4219 C266.1562 79.8125 266.4844 80.1562 266.8906 80.1562 C267.2969 80.1562 267.6406 79.8125 267.6406 79.4219 C267.6406 79.0469 267.2969 78.6875 266.8906 78.6875 ZM268.4688 72.5781 C268.7188 72.8906 268.875 73.2656 268.8906 73.6562 C268.8906 74.1875 268.625 74.5 268.0312 74.7656 L267.4062 75.0156 C266.6406 75.3125 266.3906 75.5469 266.3906 75.9375 C266.3906 76.1094 266.4531 76.3438 266.5781 76.8125 L266.7344 77.3438 L267.1094 77.3438 L267.0938 76.5312 C267.0938 76.0938 267.2031 75.9688 267.7812 75.7344 L268.2031 75.5625 C269.0312 75.2188 269.4531 74.6875 269.4531 73.8438 C269.4531 72.1562 267.6562 71.1875 266.5 71.0312 C266.1094 71.125 265.9062 71.2969 265.9062 71.6406 C265.9062 71.9375 266.0625 72.1562 266.7188 72.2656 L268.4688 72.5781 Z" style="fill:black; stroke:none;"
    /></g
  ></g
></svg
>
