<?xml version="1.0"?>
<!DOCTYPE svg PUBLIC '-//W3C//DTD SVG 1.0//EN'
          'http://www.w3.org/TR/2001/REC-SVG-20010904/DTD/svg10.dtd'>
<svg xmlns:xlink="http://www.w3.org/1999/xlink" style="fill-opacity:1; color-rendering:auto; color-interpolation:auto; text-rendering:auto; stroke:black; stroke-linecap:square; stroke-miterlimit:10; shape-rendering:auto; stroke-opacity:1; fill:black; stroke-dasharray:none; font-weight:normal; stroke-width:1; font-family:'Dialog'; font-style:normal; stroke-linejoin:miter; font-size:12px; stroke-dashoffset:0; image-rendering:auto;" viewBox="0 0 292 128" xmlns="http://www.w3.org/2000/svg"
><!--Generated by the Batik Graphics2D SVG Generator--><defs id="genericDefs"
  /><g
  ><defs id="defs1"
    ><clipPath clipPathUnits="userSpaceOnUse" id="clipPath1"
      ><path d="M188 53 L210 53 L210 75 L188 75 L188 53 Z"
      /></clipPath
      ><clipPath clipPathUnits="userSpaceOnUse" id="clipPath2"
      ><path d="M144 64 C144 70.0751 139.0751 75 133 75 C126.9249 75 122 70.0751 122 64 C122 57.9249 126.9249 53 133 53 C139.0751 53 144 57.9249 144 64 Z"
      /></clipPath
      ><clipPath clipPathUnits="userSpaceOnUse" id="clipPath3"
      ><path d="M65 64 C65 70.0751 60.0751 75 54 75 C47.9249 75 43 70.0751 43 64 C43 57.9249 47.9249 53 54 53 C60.0751 53 65 57.9249 65 64 Z"
      /></clipPath
    ></defs
    ><g style="fill:white; text-rendering:optimizeSpeed; stroke:white;"
    ><rect x="0" width="292" height="128" y="0" style="stroke:none;"
      /><polygon style="fill:none; stroke:black;" points=" 251 64 199 64"
      /><path d="M251 53 C245.5 58.5 256.5 69.5 251 75" style="fill:none; stroke:black;"
      /><polygon style="fill:none; stroke:black;" points=" 199 64 133 64"
      /><rect x="188" y="53" width="22" style="clip-path:url(#clipPath1); stroke:none;" height="22"
      /><rect x="188" y="53" width="22" style="clip-path:url(#clipPath1); fill:rgb(0,144,188); stroke:none;" height="22"
      /><rect x="188" y="53" width="22" style="clip-path:url(#clipPath1); fill:none; stroke:black;" height="22"
      /><rect x="188" y="53" width="22" style="fill:none; stroke:black;" height="22"
      /><polygon style="fill:none; stroke:black;" points=" 133 64 54 64"
      /><circle style="clip-path:url(#clipPath2); stroke:none;" r="11" cx="133" cy="64"
      /><rect x="122" y="53" width="22" style="clip-path:url(#clipPath2); fill:rgb(255,212,0); stroke:none;" height="22"
      /><rect x="122" y="53" width="22" style="clip-path:url(#clipPath2); fill:none; stroke:black;" height="22"
      /><circle style="fill:none; stroke:black;" r="11" cx="133" cy="64"
      /><rect x="134" y="81" width="22" style="stroke:none;" height="10"
    /></g
    ><g style="text-rendering:optimizeSpeed; font-size:14px; font-family:'SansSerif';"
    ><path style="stroke:none;" d="M134.6094 92 L141.0625 92 L141.0625 90.8906 L138.2344 90.8906 C137.7031 90.8906 137.0781 90.9531 136.5469 90.9844 C138.9531 88.7031 140.5625 86.625 140.5625 84.5781 C140.5625 82.75 139.4219 81.5469 137.5781 81.5469 C136.2812 81.5469 135.4062 82.1406 134.5625 83.0469 L135.2969 83.7812 C135.8594 83.1094 136.5938 82.5938 137.4375 82.5938 C138.7031 82.5938 139.3125 83.4531 139.3125 84.625 C139.3125 86.3906 137.8438 88.4375 134.6094 91.25 L134.6094 92 ZM144.9418 86.2656 C145.3168 85.0938 145.645 83.9844 145.9731 82.7812 L146.02 82.7812 C146.3637 83.9844 146.6762 85.0938 147.0668 86.2656 L147.5512 87.8281 L144.4418 87.8281 L144.9418 86.2656 ZM141.8168 92 L143.1293 92 L144.1293 88.8594 L147.8793 88.8594 L148.8481 92 L150.2231 92 L146.7387 81.7188 L145.3012 81.7188 L141.8168 92 ZM154.5492 92.1875 C155.4554 92.1875 156.3304 91.8281 157.0179 91.2188 L156.4554 90.3594 C155.9867 90.7969 155.3617 91.125 154.6586 91.125 C153.2679 91.125 152.3148 89.9531 152.3148 88.2031 C152.3148 86.4531 153.3148 85.2656 154.7054 85.2656 C155.3148 85.2656 155.7679 85.5469 156.2211 85.9375 L156.8773 85.0938 C156.3304 84.625 155.6429 84.2031 154.6429 84.2031 C152.7054 84.2031 150.9867 85.6719 150.9867 88.2031 C150.9867 90.7188 152.5336 92.1875 154.5492 92.1875 Z"
      /><rect x="109" y="81" width="22" style="fill:white; stroke:none;" height="10"
      /><path style="stroke:none;" d="M112.7031 92.1875 C114.5156 92.1875 115.9844 91.0938 115.9844 89.25 C115.9844 87.8594 115.0156 86.9375 113.8125 86.6562 L113.8125 86.5938 C114.8906 86.1875 115.6406 85.3594 115.6406 84.125 C115.6406 82.5 114.375 81.5469 112.6562 81.5469 C111.4688 81.5469 110.5469 82.0625 109.7812 82.7812 L110.4688 83.5938 C111.0469 83 111.7656 82.5938 112.5938 82.5938 C113.6562 82.5938 114.3281 83.2344 114.3281 84.2188 C114.3281 85.3281 113.6094 86.1719 111.4844 86.1719 L111.4844 87.1562 C113.8594 87.1562 114.6875 87.9844 114.6875 89.2031 C114.6875 90.3906 113.8125 91.125 112.5938 91.125 C111.4375 91.125 110.6562 90.5781 110.0469 89.9375 L109.4062 90.7812 C110.0781 91.5156 111.0938 92.1875 112.7031 92.1875 ZM119.9418 86.2656 C120.3168 85.0938 120.645 83.9844 120.9731 82.7812 L121.02 82.7812 C121.3637 83.9844 121.6762 85.0938 122.0668 86.2656 L122.5512 87.8281 L119.4418 87.8281 L119.9418 86.2656 ZM116.8168 92 L118.1293 92 L119.1293 88.8594 L122.8793 88.8594 L123.8481 92 L125.2231 92 L121.7387 81.7188 L120.3012 81.7188 L116.8168 92 ZM129.5492 92.1875 C130.4554 92.1875 131.3304 91.8281 132.0179 91.2188 L131.4554 90.3594 C130.9867 90.7969 130.3617 91.125 129.6586 91.125 C128.2679 91.125 127.3148 89.9531 127.3148 88.2031 C127.3148 86.4531 128.3148 85.2656 129.7054 85.2656 C130.3148 85.2656 130.7679 85.5469 131.2211 85.9375 L131.8773 85.0938 C131.3304 84.625 130.6429 84.2031 129.6429 84.2031 C127.7054 84.2031 125.9867 85.6719 125.9867 88.2031 C125.9867 90.7188 127.5336 92.1875 129.5492 92.1875 Z"
      /><rect x="121" y="35" width="22" style="fill:white; stroke:none;" height="10"
      /><path style="stroke:none;" d="M125.1094 40.5781 C126.3438 40.5781 126.9688 41.4688 126.9688 42.8438 C126.9688 44.25 126.1875 45.1875 125.2188 45.1875 C123.9219 45.1875 123.1562 44.0312 123 41.8906 C123.625 40.9531 124.4531 40.5781 125.1094 40.5781 ZM125.2188 46.1875 C126.8125 46.1875 128.1562 44.8438 128.1562 42.8438 C128.1562 40.7031 127.0469 39.625 125.3125 39.625 C124.5 39.625 123.6094 40.1094 122.9688 40.875 C123.0312 37.6875 124.2188 36.6094 125.625 36.6094 C126.25 36.6094 126.8594 36.9062 127.2656 37.3906 L127.9688 36.5938 C127.4062 35.9844 126.6406 35.5469 125.5781 35.5469 C123.5938 35.5469 121.7812 37.0781 121.7812 41.0938 C121.7812 44.4844 123.2344 46.1875 125.2188 46.1875 ZM131.9418 40.2656 C132.3168 39.0938 132.645 37.9844 132.9731 36.7812 L133.02 36.7812 C133.3637 37.9844 133.6762 39.0938 134.0668 40.2656 L134.5512 41.8281 L131.4418 41.8281 L131.9418 40.2656 ZM128.8168 46 L130.1293 46 L131.1293 42.8594 L134.8793 42.8594 L135.8481 46 L137.2231 46 L133.7387 35.7188 L132.3012 35.7188 L128.8168 46 ZM141.5492 46.1875 C142.4554 46.1875 143.3304 45.8281 144.0179 45.2188 L143.4554 44.3594 C142.9867 44.7969 142.3617 45.125 141.6586 45.125 C140.2679 45.125 139.3148 43.9531 139.3148 42.2031 C139.3148 40.4531 140.3148 39.2656 141.7054 39.2656 C142.3148 39.2656 142.7679 39.5469 143.2211 39.9375 L143.8773 39.0938 C143.3304 38.625 142.6429 38.2031 141.6429 38.2031 C139.7054 38.2031 137.9867 39.6719 137.9867 42.2031 C137.9867 44.7188 139.5336 46.1875 141.5492 46.1875 Z"
    /></g
    ><g style="fill:white; text-rendering:optimizeSpeed; stroke:white;"
    ><circle r="11" style="clip-path:url(#clipPath3); stroke:none;" cx="54" cy="64"
      /><rect x="43" y="53" width="22" style="clip-path:url(#clipPath3); fill:rgb(255,212,0); stroke:none;" height="22"
      /><rect x="43" y="53" width="22" style="clip-path:url(#clipPath3); fill:none; stroke:black;" height="22"
      /><circle r="11" style="fill:none; stroke:black;" cx="54" cy="64"
      /><rect x="55" width="22" height="10" y="81" style="stroke:none;"
    /></g
    ><g style="text-rendering:optimizeSpeed; font-size:14px; font-family:'SansSerif';"
    ><path style="stroke:none;" d="M55.6094 92 L62.0625 92 L62.0625 90.8906 L59.2344 90.8906 C58.7031 90.8906 58.0781 90.9531 57.5469 90.9844 C59.9531 88.7031 61.5625 86.625 61.5625 84.5781 C61.5625 82.75 60.4219 81.5469 58.5781 81.5469 C57.2812 81.5469 56.4062 82.1406 55.5625 83.0469 L56.2969 83.7812 C56.8594 83.1094 57.5938 82.5938 58.4375 82.5938 C59.7031 82.5938 60.3125 83.4531 60.3125 84.625 C60.3125 86.3906 58.8438 88.4375 55.6094 91.25 L55.6094 92 ZM65.9418 86.2656 C66.3168 85.0938 66.645 83.9844 66.9731 82.7812 L67.02 82.7812 C67.3637 83.9844 67.6762 85.0938 68.0668 86.2656 L68.5512 87.8281 L65.4418 87.8281 L65.9418 86.2656 ZM62.8168 92 L64.1293 92 L65.1293 88.8594 L68.8793 88.8594 L69.8481 92 L71.2231 92 L67.7387 81.7188 L66.3012 81.7188 L62.8168 92 ZM75.5492 92.1875 C76.4554 92.1875 77.3304 91.8281 78.0179 91.2188 L77.4554 90.3594 C76.9867 90.7969 76.3617 91.125 75.6586 91.125 C74.2679 91.125 73.3148 89.9531 73.3148 88.2031 C73.3148 86.4531 74.3148 85.2656 75.7054 85.2656 C76.3148 85.2656 76.7679 85.5469 77.2211 85.9375 L77.8773 85.0938 C77.3304 84.625 76.6429 84.2031 75.6429 84.2031 C73.7054 84.2031 71.9867 85.6719 71.9867 88.2031 C71.9867 90.7188 73.5336 92.1875 75.5492 92.1875 Z"
      /><rect x="30" y="81" width="22" style="fill:white; stroke:none;" height="10"
      /><path style="stroke:none;" d="M33.7031 92.1875 C35.5156 92.1875 36.9844 91.0938 36.9844 89.25 C36.9844 87.8594 36.0156 86.9375 34.8125 86.6562 L34.8125 86.5938 C35.8906 86.1875 36.6406 85.3594 36.6406 84.125 C36.6406 82.5 35.375 81.5469 33.6562 81.5469 C32.4688 81.5469 31.5469 82.0625 30.7812 82.7812 L31.4688 83.5938 C32.0469 83 32.7656 82.5938 33.5938 82.5938 C34.6562 82.5938 35.3281 83.2344 35.3281 84.2188 C35.3281 85.3281 34.6094 86.1719 32.4844 86.1719 L32.4844 87.1562 C34.8594 87.1562 35.6875 87.9844 35.6875 89.2031 C35.6875 90.3906 34.8125 91.125 33.5938 91.125 C32.4375 91.125 31.6562 90.5781 31.0469 89.9375 L30.4062 90.7812 C31.0781 91.5156 32.0938 92.1875 33.7031 92.1875 ZM40.9418 86.2656 C41.3168 85.0938 41.645 83.9844 41.9731 82.7812 L42.02 82.7812 C42.3637 83.9844 42.6762 85.0938 43.0668 86.2656 L43.5512 87.8281 L40.4418 87.8281 L40.9418 86.2656 ZM37.8168 92 L39.1293 92 L40.1293 88.8594 L43.8793 88.8594 L44.8481 92 L46.2231 92 L42.7387 81.7188 L41.3012 81.7188 L37.8168 92 ZM50.5492 92.1875 C51.4554 92.1875 52.3304 91.8281 53.0179 91.2188 L52.4554 90.3594 C51.9867 90.7969 51.3617 91.125 50.6586 91.125 C49.2679 91.125 48.3148 89.9531 48.3148 88.2031 C48.3148 86.4531 49.3148 85.2656 50.7054 85.2656 C51.3148 85.2656 51.7679 85.5469 52.2211 85.9375 L52.8773 85.0938 C52.3304 84.625 51.6429 84.2031 50.6429 84.2031 C48.7054 84.2031 46.9867 85.6719 46.9867 88.2031 C46.9867 90.7188 48.5336 92.1875 50.5492 92.1875 Z"
      /><rect x="30" y="35" width="22" style="fill:white; stroke:none;" height="10"
      /><path style="stroke:none;" d="M31.6094 42.1562 L33.9531 38.6562 C34.2344 38.1406 34.5156 37.6406 34.7812 37.1406 L34.8281 37.1406 C34.7969 37.6719 34.7656 38.5 34.7656 39 L34.7656 42.1562 L31.6094 42.1562 ZM34.7656 46 L35.9688 46 L35.9688 43.1719 L37.3281 43.1719 L37.3281 42.1562 L35.9688 42.1562 L35.9688 35.7188 L34.5469 35.7188 L30.2812 42.3281 L30.2812 43.1719 L34.7656 43.1719 L34.7656 46 ZM40.9418 40.2656 C41.3168 39.0938 41.645 37.9844 41.9731 36.7812 L42.02 36.7812 C42.3637 37.9844 42.6762 39.0938 43.0668 40.2656 L43.5512 41.8281 L40.4418 41.8281 L40.9418 40.2656 ZM37.8168 46 L39.1293 46 L40.1293 42.8594 L43.8793 42.8594 L44.8481 46 L46.2231 46 L42.7387 35.7188 L41.3012 35.7188 L37.8168 46 ZM50.5492 46.1875 C51.4554 46.1875 52.3304 45.8281 53.0179 45.2188 L52.4554 44.3594 C51.9867 44.7969 51.3617 45.125 50.6586 45.125 C49.2679 45.125 48.3148 43.9531 48.3148 42.2031 C48.3148 40.4531 49.3148 39.2656 50.7054 39.2656 C51.3148 39.2656 51.7679 39.5469 52.2211 39.9375 L52.8773 39.0938 C52.3304 38.625 51.6429 38.2031 50.6429 38.2031 C48.7054 38.2031 46.9867 39.6719 46.9867 42.2031 C46.9867 44.7188 48.5336 46.1875 50.5492 46.1875 Z"
      /><rect x="55" y="35" width="22" style="fill:white; stroke:none;" height="10"
      /><path style="stroke:none;" d="M59.1094 40.5781 C60.3438 40.5781 60.9688 41.4688 60.9688 42.8438 C60.9688 44.25 60.1875 45.1875 59.2188 45.1875 C57.9219 45.1875 57.1562 44.0312 57 41.8906 C57.625 40.9531 58.4531 40.5781 59.1094 40.5781 ZM59.2188 46.1875 C60.8125 46.1875 62.1562 44.8438 62.1562 42.8438 C62.1562 40.7031 61.0469 39.625 59.3125 39.625 C58.5 39.625 57.6094 40.1094 56.9688 40.875 C57.0312 37.6875 58.2188 36.6094 59.625 36.6094 C60.25 36.6094 60.8594 36.9062 61.2656 37.3906 L61.9688 36.5938 C61.4062 35.9844 60.6406 35.5469 59.5781 35.5469 C57.5938 35.5469 55.7812 37.0781 55.7812 41.0938 C55.7812 44.4844 57.2344 46.1875 59.2188 46.1875 ZM65.9418 40.2656 C66.3168 39.0938 66.645 37.9844 66.9731 36.7812 L67.02 36.7812 C67.3637 37.9844 67.6762 39.0938 68.0668 40.2656 L68.5512 41.8281 L65.4418 41.8281 L65.9418 40.2656 ZM62.8168 46 L64.1293 46 L65.1293 42.8594 L68.8793 42.8594 L69.8481 46 L71.2231 46 L67.7387 35.7188 L66.3012 35.7188 L62.8168 46 ZM75.5492 46.1875 C76.4554 46.1875 77.3304 45.8281 78.0179 45.2188 L77.4554 44.3594 C76.9867 44.7969 76.3617 45.125 75.6586 45.125 C74.2679 45.125 73.3148 43.9531 73.3148 42.2031 C73.3148 40.4531 74.3148 39.2656 75.7054 39.2656 C76.3148 39.2656 76.7679 39.5469 77.2211 39.9375 L77.8773 39.0938 C77.3304 38.625 76.6429 38.2031 75.6429 38.2031 C73.7054 38.2031 71.9867 39.6719 71.9867 42.2031 C71.9867 44.7188 73.5336 46.1875 75.5492 46.1875 Z"
    /></g
    ><g style="fill:white; text-rendering:optimizeSpeed; font-family:'Serif'; stroke:white;"
    ><rect x="97" width="7" height="9" y="67" style="stroke:none;"
      /><path d="M98 72.5156 L100.9531 68.2656 L100.9531 72.5156 L98 72.5156 ZM103.2812 72.5156 L101.8594 72.5156 L101.8594 67.125 L101.2344 67.125 L97.3438 72.6406 L97.3438 73.1875 L100.9531 73.1875 L100.9531 76 L101.8594 76 L101.8594 73.1875 L103.2812 73.1875 L103.2812 72.5156 Z" style="fill:black; stroke:none;"
      /><rect x="83" width="8" height="8" y="68" style="stroke:none;"
      /><path d="M87.9844 73.7031 C87.9375 74.8906 87.1562 75.6562 86.3125 75.6562 C85.2656 75.6562 84.5 74.6875 84.5 72.7188 C84.5 71.2812 85.1562 70.1562 86.3438 70.1562 C87.1406 70.1562 87.7812 70.6875 88.0938 71.6406 L87.9844 73.7031 ZM89.9062 75.2812 C89.7344 75.375 89.5469 75.4219 89.3438 75.4219 C88.9531 75.4219 88.75 75.2188 88.75 74.4219 C88.75 73.4844 88.9688 71.5312 89.1875 69.8281 L89.0312 69.7188 L88.2344 69.9219 L88.1406 70.7969 C87.7812 70.0312 87.1562 69.6562 86.3906 69.6562 C85.0469 69.6562 83.5625 70.8438 83.5625 72.9531 C83.5625 75.0938 84.7188 76.1719 86.1406 76.1719 C87.0156 76.1719 87.6875 75.8125 88.0938 74.9844 C88.2031 75.8594 88.5156 76.1719 89.0156 76.1719 C89.4688 76.1719 89.7969 75.9062 90.0156 75.5625 L89.9062 75.2812 Z" style="fill:black; stroke:none;"
      /><rect x="176" width="7" height="9" y="67" style="stroke:none;"
      /><path d="M177 72.5156 L179.9531 68.2656 L179.9531 72.5156 L177 72.5156 ZM182.2812 72.5156 L180.8594 72.5156 L180.8594 67.125 L180.2344 67.125 L176.3438 72.6406 L176.3438 73.1875 L179.9531 73.1875 L179.9531 76 L180.8594 76 L180.8594 73.1875 L182.2812 73.1875 L182.2812 72.5156 Z" style="fill:black; stroke:none;"
      /><rect x="163" width="6" height="13" y="65" style="stroke:none;"
      /><path d="M165.0938 71.2031 C165.0938 69.6562 165.75 68.8125 166.7969 68.8125 C167.7188 68.8125 168.2656 69.4531 168.2656 70.5156 C168.2656 71.7188 167.5 72.4375 166.1875 72.7031 L166.2969 73.3125 C168.2188 73.2344 168.9375 74.2188 168.9375 75.4375 C168.9375 76.625 168.2344 77.4219 166.9531 77.4219 C166.25 77.4219 165.6562 77.1562 165.0938 76.7188 L165.0938 71.2031 ZM164.2031 77.9062 L164.1094 80.375 L164.2656 80.4844 L165.1562 80.2656 L165.0156 77.0938 C165.5469 77.8438 166.3594 78.1719 167.1719 78.1719 C168.5625 78.1719 169.8594 77.2188 169.8594 75.4844 C169.8594 73.9531 168.875 73.1094 167.125 73 C168.5625 72.6094 169.1875 71.4531 169.1875 70.4844 C169.1875 69.0938 168.1562 68.3125 166.9062 68.3125 C165.2969 68.3125 164.2188 69.5469 164.2188 71.5156 L164.2031 77.9062 Z" style="fill:black; stroke:none;"
      /><rect x="215" width="6" height="13" y="65" style="stroke:none;"
      /><path d="M217.0938 71.2031 C217.0938 69.6562 217.75 68.8125 218.7969 68.8125 C219.7188 68.8125 220.2656 69.4531 220.2656 70.5156 C220.2656 71.7188 219.5 72.4375 218.1875 72.7031 L218.2969 73.3125 C220.2188 73.2344 220.9375 74.2188 220.9375 75.4375 C220.9375 76.625 220.2344 77.4219 218.9531 77.4219 C218.25 77.4219 217.6562 77.1562 217.0938 76.7188 L217.0938 71.2031 ZM216.2031 77.9062 L216.1094 80.375 L216.2656 80.4844 L217.1562 80.2656 L217.0156 77.0938 C217.5469 77.8438 218.3594 78.1719 219.1719 78.1719 C220.5625 78.1719 221.8594 77.2188 221.8594 75.4844 C221.8594 73.9531 220.875 73.1094 219.125 73 C220.5625 72.6094 221.1875 71.4531 221.1875 70.4844 C221.1875 69.0938 220.1562 68.3125 218.9062 68.3125 C217.2969 68.3125 216.2188 69.5469 216.2188 71.5156 L216.2031 77.9062 Z" style="fill:black; stroke:none;"
    /></g
  ></g
></svg
>
