<?xml version="1.0"?>
<!DOCTYPE svg PUBLIC '-//W3C//DTD SVG 1.0//EN'
          'http://www.w3.org/TR/2001/REC-SVG-20010904/DTD/svg10.dtd'>
<svg xmlns:xlink="http://www.w3.org/1999/xlink" style="fill-opacity:1; color-rendering:auto; color-interpolation:auto; text-rendering:auto; stroke:black; stroke-linecap:square; stroke-miterlimit:10; shape-rendering:auto; stroke-opacity:1; fill:black; stroke-dasharray:none; font-weight:normal; stroke-width:1; font-family:'Dialog'; font-style:normal; stroke-linejoin:miter; font-size:12px; stroke-dashoffset:0; image-rendering:auto;" viewBox="0 0 358 180" xmlns="http://www.w3.org/2000/svg"
><!--Generated by the Batik Graphics2D SVG Generator--><defs id="genericDefs"
  /><g
  ><defs id="defs1"
    ><clipPath clipPathUnits="userSpaceOnUse" id="clipPath1"
      ><path style="fill-rule:evenodd;" d="M276 101 L270 108 L259 108 L254 101 L259 93 L270 93 L276 101 Z"
      /></clipPath
      ><clipPath clipPathUnits="userSpaceOnUse" id="clipPath2"
      ><path style="fill-rule:evenodd;" d="M224 101 L218 108 L207 108 L202 101 L207 93 L218 93 L224 101 Z"
      /></clipPath
      ><clipPath clipPathUnits="userSpaceOnUse" id="clipPath3"
      ><path style="fill-rule:evenodd;" d="M164 139 L158 146 L147 146 L142 139 L147 131 L158 131 L164 139 Z"
      /></clipPath
      ><clipPath clipPathUnits="userSpaceOnUse" id="clipPath4"
      ><path style="fill-rule:evenodd;" d="M104 139 L98 146 L87 146 L82 139 L87 131 L98 131 L104 139 Z"
      /></clipPath
      ><clipPath clipPathUnits="userSpaceOnUse" id="clipPath5"
      ><path d="M52 139 C52 145.0751 47.0751 150 41 150 C34.9249 150 30 145.0751 30 139 C30 132.9249 34.9249 128 41 128 C47.0751 128 52 132.9249 52 139 Z"
      /></clipPath
      ><clipPath clipPathUnits="userSpaceOnUse" id="clipPath6"
      ><path d="M164 64 C164 70.0751 159.0751 75 153 75 C146.9249 75 142 70.0751 142 64 C142 57.9249 146.9249 53 153 53 C159.0751 53 164 57.9249 164 64 Z"
      /></clipPath
      ><clipPath clipPathUnits="userSpaceOnUse" id="clipPath7"
      ><path d="M112 64 C112 70.0751 107.0751 75 101 75 C94.9249 75 90 70.0751 90 64 C90 57.9249 94.9249 53 101 53 C107.0751 53 112 57.9249 112 64 Z"
      /></clipPath
    ></defs
    ><g style="fill:white; text-rendering:optimizeSpeed; stroke:white;"
    ><rect x="0" width="358" height="180" y="0" style="stroke:none;"
      /><polygon style="fill:none; stroke:black;" points=" 317 101 265 101"
      /><path d="M317 90 C311.5 95.5 322.5 106.5 317 112" style="fill:none; stroke:black;"
      /><polygon style="fill:none; stroke:black;" points=" 265 101 213 101"
      /><polygon style="clip-path:url(#clipPath1); stroke:none;" points=" 276 101 270 108 259 108 254 101 259 93 270 93 276 101"
      /><rect x="254" y="90" width="22" style="clip-path:url(#clipPath1); fill:rgb(255,212,0); stroke:none;" height="22"
      /><rect x="254" y="90" width="22" style="clip-path:url(#clipPath1); fill:none; stroke:black;" height="22"
      /><polygon style="fill:none; stroke:black;" points=" 276 101 270 108 259 108 254 101 259 93 270 93 276 101"
    /></g
    ><g style="text-rendering:optimizeSpeed; font-size:14px; font-family:'SansSerif';"
    ><path style="stroke:none;" d="M257.6094 129 L264.0625 129 L264.0625 127.8906 L261.2344 127.8906 C260.7031 127.8906 260.0781 127.9531 259.5469 127.9844 C261.9531 125.7031 263.5625 123.625 263.5625 121.5781 C263.5625 119.75 262.4219 118.5469 260.5781 118.5469 C259.2812 118.5469 258.4062 119.1406 257.5625 120.0469 L258.2969 120.7812 C258.8594 120.1094 259.5938 119.5938 260.4375 119.5938 C261.7031 119.5938 262.3125 120.4531 262.3125 121.625 C262.3125 123.3906 260.8438 125.4375 257.6094 128.25 L257.6094 129 ZM269.8168 129.1875 C271.9106 129.1875 273.5043 128.0625 273.5043 124.7656 L273.5043 118.7188 L272.2543 118.7188 L272.2543 124.7969 C272.2543 127.2812 271.1762 128.0469 269.8168 128.0469 C268.4731 128.0469 267.4262 127.2812 267.4262 124.7969 L267.4262 118.7188 L266.1293 118.7188 L266.1293 124.7656 C266.1293 128.0625 267.7231 129.1875 269.8168 129.1875 Z"
      /><polygon style="fill:none;" points=" 213 101 153 139"
      /><polygon style="fill:none;" points=" 213 101 153 64"
    /></g
    ><g style="fill:white; text-rendering:optimizeSpeed; stroke:white;"
    ><polygon style="stroke:none; clip-path:url(#clipPath2);" points=" 224 101 218 108 207 108 202 101 207 93 218 93 224 101"
      /><rect x="202" y="90" width="22" style="clip-path:url(#clipPath2); fill:rgb(0,166,81); stroke:none;" height="22"
      /><rect x="202" y="90" width="22" style="clip-path:url(#clipPath2); fill:none; stroke:black;" height="22"
      /><polygon style="fill:none; stroke:black;" points=" 224 101 218 108 207 108 202 101 207 93 218 93 224 101"
      /><polygon style="fill:none; stroke:black;" points=" 153 139 93 139"
      /><polygon style="clip-path:url(#clipPath3); stroke:none;" points=" 164 139 158 146 147 146 142 139 147 131 158 131 164 139"
      /><rect x="142" y="128" width="22" style="clip-path:url(#clipPath3); fill:rgb(0,166,81); stroke:none;" height="22"
      /><rect x="142" y="128" width="22" style="clip-path:url(#clipPath3); fill:none; stroke:black;" height="22"
      /><polygon style="fill:none; stroke:black;" points=" 164 139 158 146 147 146 142 139 147 131 158 131 164 139"
      /><rect x="134" width="36" height="10" y="110" style="stroke:none;"
    /></g
    ><g style="text-rendering:optimizeSpeed; font-size:14px; font-family:'SansSerif';"
    ><path style="stroke:none;" d="M138.1094 115.5781 C139.3438 115.5781 139.9688 116.4688 139.9688 117.8438 C139.9688 119.25 139.1875 120.1875 138.2188 120.1875 C136.9219 120.1875 136.1562 119.0312 136 116.8906 C136.625 115.9531 137.4531 115.5781 138.1094 115.5781 ZM138.2188 121.1875 C139.8125 121.1875 141.1562 119.8438 141.1562 117.8438 C141.1562 115.7031 140.0469 114.625 138.3125 114.625 C137.5 114.625 136.6094 115.1094 135.9688 115.875 C136.0312 112.6875 137.2188 111.6094 138.625 111.6094 C139.25 111.6094 139.8594 111.9062 140.2656 112.3906 L140.9688 111.5938 C140.4062 110.9844 139.6406 110.5469 138.5781 110.5469 C136.5938 110.5469 134.7812 112.0781 134.7812 116.0938 C134.7812 119.4844 136.2344 121.1875 138.2188 121.1875 ZM143.1762 121 L144.4731 121 L144.4731 116.9219 L146.1606 116.9219 C148.4262 116.9219 149.9418 115.9219 149.9418 113.75 C149.9418 111.5156 148.4106 110.7188 146.1137 110.7188 L143.1762 110.7188 L143.1762 121 ZM144.4731 115.875 L144.4731 111.7812 L145.9418 111.7812 C147.7543 111.7812 148.6606 112.2656 148.6606 113.75 C148.6606 115.2188 147.8012 115.875 146.0043 115.875 L144.4731 115.875 ZM152.0242 121 L158.0867 121 L158.0867 119.8906 L153.3211 119.8906 L153.3211 116.1562 L157.2117 116.1562 L157.2117 115.0469 L153.3211 115.0469 L153.3211 111.8281 L157.9461 111.8281 L157.9461 110.7188 L152.0242 110.7188 L152.0242 121 ZM162.5374 121.1875 C162.9905 121.1875 163.4905 121.0469 163.928 120.9062 L163.678 119.9531 C163.428 120.0469 163.0843 120.1406 162.8186 120.1406 C161.928 120.1406 161.6311 119.6094 161.6311 118.6719 L161.6311 114.4375 L163.6936 114.4375 L163.6936 113.3906 L161.6311 113.3906 L161.6311 111.25 L160.5686 111.25 L160.4124 113.3906 L159.2249 113.4688 L159.2249 114.4375 L160.3655 114.4375 L160.3655 118.6406 C160.3655 120.1562 160.9124 121.1875 162.5374 121.1875 ZM165.4091 121 L166.6904 121 L166.6904 115.4844 C167.456 114.7188 167.9873 114.3281 168.7685 114.3281 C169.7841 114.3281 170.2216 114.9219 170.2216 116.3594 L170.2216 121 L171.4873 121 L171.4873 116.1875 C171.4873 114.2344 170.7685 113.2031 169.1748 113.2031 C168.1279 113.2031 167.3466 113.7812 166.6123 114.4844 L166.581 114.4844 L166.4716 113.3906 L165.4091 113.3906 L165.4091 121 Z"
      /><polygon style="fill:none;" points=" 93 139 41 139"
    /></g
    ><g style="fill:white; text-rendering:optimizeSpeed; stroke:white;"
    ><polygon style="stroke:none; clip-path:url(#clipPath4);" points=" 104 139 98 146 87 146 82 139 87 131 98 131 104 139"
      /><rect x="82" y="128" width="22" style="clip-path:url(#clipPath4); fill:rgb(0,166,81); stroke:none;" height="22"
      /><rect x="82" y="128" width="22" style="clip-path:url(#clipPath4); fill:none; stroke:black;" height="22"
      /><polygon style="fill:none; stroke:black;" points=" 104 139 98 146 87 146 82 139 87 131 98 131 104 139"
      /><circle r="11" style="clip-path:url(#clipPath5); stroke:none;" cx="41" cy="139"
      /><rect x="30" y="128" width="22" style="clip-path:url(#clipPath5); fill:rgb(255,212,0); stroke:none;" height="22"
      /><rect x="30" y="128" width="22" style="clip-path:url(#clipPath5); fill:none; stroke:black;" height="22"
      /><circle r="11" style="fill:none; stroke:black;" cx="41" cy="139"
      /><rect x="71" width="6" height="9" y="142" style="stroke:none;"
      /><path d="M72.4219 150.0938 C73.0781 149.375 73.7031 148.7188 74.0312 148.3438 C75.9219 146.3125 76.5312 145.4688 76.5312 144.3594 C76.5312 143.0156 75.7812 142.0781 74.1562 142.0781 C72.9062 142.0781 71.7969 142.7031 71.5938 143.9688 C71.7188 144.2031 71.9062 144.3438 72.1562 144.3438 C72.4688 144.3438 72.6562 144.1094 72.7969 143.5938 L73.0938 142.6719 C73.3906 142.5938 73.6562 142.5625 73.8906 142.5625 C74.9219 142.5625 75.5469 143.3125 75.5469 144.4219 C75.5469 145.4375 74.9844 146.4219 73.7031 147.9062 C73.125 148.5781 72.3906 149.4375 71.6406 150.2812 L71.6406 151 L76.9219 151 L76.9219 150.0938 L72.4219 150.0938 Z" style="fill:black; stroke:none;"
      /><rect x="57" width="6" height="13" y="140" style="stroke:none;"
      /><path d="M59.0938 146.2031 C59.0938 144.6562 59.75 143.8125 60.7969 143.8125 C61.7188 143.8125 62.2656 144.4531 62.2656 145.5156 C62.2656 146.7188 61.5 147.4375 60.1875 147.7031 L60.2969 148.3125 C62.2188 148.2344 62.9375 149.2188 62.9375 150.4375 C62.9375 151.625 62.2344 152.4219 60.9531 152.4219 C60.25 152.4219 59.6562 152.1562 59.0938 151.7188 L59.0938 146.2031 ZM58.2031 152.9062 L58.1094 155.375 L58.2656 155.4844 L59.1562 155.2656 L59.0156 152.0938 C59.5469 152.8438 60.3594 153.1719 61.1719 153.1719 C62.5625 153.1719 63.8594 152.2188 63.8594 150.4844 C63.8594 148.9531 62.875 148.1094 61.125 148 C62.5625 147.6094 63.1875 146.4531 63.1875 145.4844 C63.1875 144.0938 62.1562 143.3125 60.9062 143.3125 C59.2969 143.3125 58.2188 144.5469 58.2188 146.5156 L58.2031 152.9062 Z" style="fill:black; stroke:none;"
      /><rect x="123" width="6" height="9" y="142" style="stroke:none;"
      /><path d="M124.4219 150.0938 C125.0781 149.375 125.7031 148.7188 126.0312 148.3438 C127.9219 146.3125 128.5312 145.4688 128.5312 144.3594 C128.5312 143.0156 127.7812 142.0781 126.1562 142.0781 C124.9062 142.0781 123.7969 142.7031 123.5938 143.9688 C123.7188 144.2031 123.9062 144.3438 124.1562 144.3438 C124.4688 144.3438 124.6562 144.1094 124.7969 143.5938 L125.0938 142.6719 C125.3906 142.5938 125.6562 142.5625 125.8906 142.5625 C126.9219 142.5625 127.5469 143.3125 127.5469 144.4219 C127.5469 145.4375 126.9844 146.4219 125.7031 147.9062 C125.125 148.5781 124.3906 149.4375 123.6406 150.2812 L123.6406 151 L128.9219 151 L128.9219 150.0938 L124.4219 150.0938 Z" style="fill:black; stroke:none;"
      /><rect x="108" width="8" height="8" y="143" style="stroke:none;"
      /><path d="M112.9844 148.7031 C112.9375 149.8906 112.1562 150.6562 111.3125 150.6562 C110.2656 150.6562 109.5 149.6875 109.5 147.7188 C109.5 146.2812 110.1562 145.1562 111.3438 145.1562 C112.1406 145.1562 112.7812 145.6875 113.0938 146.6406 L112.9844 148.7031 ZM114.9062 150.2812 C114.7344 150.375 114.5469 150.4219 114.3438 150.4219 C113.9531 150.4219 113.75 150.2188 113.75 149.4219 C113.75 148.4844 113.9688 146.5312 114.1875 144.8281 L114.0312 144.7188 L113.2344 144.9219 L113.1406 145.7969 C112.7812 145.0312 112.1562 144.6562 111.3906 144.6562 C110.0469 144.6562 108.5625 145.8438 108.5625 147.9531 C108.5625 150.0938 109.7188 151.1719 111.1406 151.1719 C112.0156 151.1719 112.6875 150.8125 113.0938 149.9844 C113.2031 150.8594 113.5156 151.1719 114.0156 151.1719 C114.4688 151.1719 114.7969 150.9062 115.0156 150.5625 L114.9062 150.2812 Z" style="fill:black; stroke:none;"
      /><polygon style="fill:none; stroke:black;" points=" 153 64 101 64"
      /><circle r="11" style="clip-path:url(#clipPath6); stroke:none;" cx="153" cy="64"
      /><rect x="142" y="53" width="22" style="clip-path:url(#clipPath6); fill:rgb(0,144,188); stroke:none;" height="22"
      /><rect x="142" y="53" width="22" style="clip-path:url(#clipPath6); fill:none; stroke:black;" height="22"
      /><circle r="11" style="fill:none; stroke:black;" cx="153" cy="64"
      /><rect x="145" width="15" height="10" y="35" style="stroke:none;"
    /></g
    ><g style="text-rendering:optimizeSpeed; font-size:14px; font-family:'SansSerif';"
    ><path style="stroke:none;" d="M149.1094 40.5781 C150.3438 40.5781 150.9688 41.4688 150.9688 42.8438 C150.9688 44.25 150.1875 45.1875 149.2188 45.1875 C147.9219 45.1875 147.1562 44.0312 147 41.8906 C147.625 40.9531 148.4531 40.5781 149.1094 40.5781 ZM149.2188 46.1875 C150.8125 46.1875 152.1562 44.8438 152.1562 42.8438 C152.1562 40.7031 151.0469 39.625 149.3125 39.625 C148.5 39.625 147.6094 40.1094 146.9688 40.875 C147.0312 37.6875 148.2188 36.6094 149.625 36.6094 C150.25 36.6094 150.8594 36.9062 151.2656 37.3906 L151.9688 36.5938 C151.4062 35.9844 150.6406 35.5469 149.5781 35.5469 C147.5938 35.5469 145.7812 37.0781 145.7812 41.0938 C145.7812 44.4844 147.2344 46.1875 149.2188 46.1875 ZM154.1762 46 L155.4731 46 L155.4731 41.9219 L157.1606 41.9219 C159.4262 41.9219 160.9418 40.9219 160.9418 38.75 C160.9418 36.5156 159.4106 35.7188 157.1137 35.7188 L154.1762 35.7188 L154.1762 46 ZM155.4731 40.875 L155.4731 36.7812 L156.9418 36.7812 C158.7543 36.7812 159.6606 37.2656 159.6606 38.75 C159.6606 40.2188 158.8012 40.875 157.0043 40.875 L155.4731 40.875 Z"
    /></g
    ><g style="fill:white; text-rendering:optimizeSpeed; stroke:white;"
    ><circle r="11" style="clip-path:url(#clipPath7); stroke:none;" cx="101" cy="64"
      /><rect x="90" y="53" width="22" style="clip-path:url(#clipPath7); fill:rgb(0,144,188); stroke:none;" height="22"
      /><rect x="90" y="53" width="22" style="clip-path:url(#clipPath7); fill:none; stroke:black;" height="22"
      /><circle r="11" style="fill:none; stroke:black;" cx="101" cy="64"
      /><rect x="130" width="7" height="9" y="67" style="stroke:none;"
      /><path d="M131 72.5156 L133.9531 68.2656 L133.9531 72.5156 L131 72.5156 ZM136.2812 72.5156 L134.8594 72.5156 L134.8594 67.125 L134.2344 67.125 L130.3438 72.6406 L130.3438 73.1875 L133.9531 73.1875 L133.9531 76 L134.8594 76 L134.8594 73.1875 L136.2812 73.1875 L136.2812 72.5156 Z" style="fill:black; stroke:none;"
      /><rect x="117" width="6" height="13" y="65" style="stroke:none;"
      /><path d="M119.0938 71.2031 C119.0938 69.6562 119.75 68.8125 120.7969 68.8125 C121.7188 68.8125 122.2656 69.4531 122.2656 70.5156 C122.2656 71.7188 121.5 72.4375 120.1875 72.7031 L120.2969 73.3125 C122.2188 73.2344 122.9375 74.2188 122.9375 75.4375 C122.9375 76.625 122.2344 77.4219 120.9531 77.4219 C120.25 77.4219 119.6562 77.1562 119.0938 76.7188 L119.0938 71.2031 ZM118.2031 77.9062 L118.1094 80.375 L118.2656 80.4844 L119.1562 80.2656 L119.0156 77.0938 C119.5469 77.8438 120.3594 78.1719 121.1719 78.1719 C122.5625 78.1719 123.8594 77.2188 123.8594 75.4844 C123.8594 73.9531 122.875 73.1094 121.125 73 C122.5625 72.6094 123.1875 71.4531 123.1875 70.4844 C123.1875 69.0938 122.1562 68.3125 120.9062 68.3125 C119.2969 68.3125 118.2188 69.5469 118.2188 71.5156 L118.2031 77.9062 Z" style="fill:black; stroke:none;"
      /><rect x="196" width="6" height="10" y="114" style="stroke:none;"
      /><path d="M198.2344 115.6562 C198.5156 115.5938 198.7656 115.5625 199.0156 115.5625 C200.0625 115.5625 200.6719 116.1719 200.6719 117.2656 C200.6719 118.4375 199.9062 119.1094 198.7031 119.1094 L198.1875 119.1094 L198.1875 119.6406 L198.7969 119.6406 C200.2188 119.6406 200.9062 120.4219 200.9062 121.6406 C200.9062 122.8438 200.1719 123.6875 198.875 123.6875 C198.6094 123.6875 198.3125 123.6562 198.0156 123.5625 L197.7812 122.8125 C197.625 122.2812 197.5 122.0469 197.1406 122.0469 C196.8906 122.0469 196.7031 122.1719 196.5781 122.4219 C196.8438 123.6406 197.7812 124.1719 199.0312 124.1719 C200.7188 124.1719 201.875 123.125 201.875 121.7031 C201.875 120.5 201.2031 119.625 199.7969 119.375 C200.9531 119.0156 201.6094 118.2031 201.6094 117.2031 C201.6094 115.9219 200.6719 115.0781 199.1875 115.0781 C198.0469 115.0781 197.0625 115.5938 196.7969 116.6875 C196.9062 117 197.1094 117.1094 197.3594 117.1094 C197.7344 117.1094 197.8906 116.8906 198 116.4062 L198.2344 115.6562 Z" style="fill:black; stroke:none;"
      /><rect x="179" width="8" height="8" y="125" style="stroke:none;"
      /><path d="M183.9844 130.7031 C183.9375 131.8906 183.1562 132.6562 182.3125 132.6562 C181.2656 132.6562 180.5 131.6875 180.5 129.7188 C180.5 128.2812 181.1562 127.1562 182.3438 127.1562 C183.1406 127.1562 183.7812 127.6875 184.0938 128.6406 L183.9844 130.7031 ZM185.9062 132.2812 C185.7344 132.375 185.5469 132.4219 185.3438 132.4219 C184.9531 132.4219 184.75 132.2188 184.75 131.4219 C184.75 130.4844 184.9688 128.5312 185.1875 126.8281 L185.0312 126.7188 L184.2344 126.9219 L184.1406 127.7969 C183.7812 127.0312 183.1562 126.6562 182.3906 126.6562 C181.0469 126.6562 179.5625 127.8438 179.5625 129.9531 C179.5625 132.0938 180.7188 133.1719 182.1406 133.1719 C183.0156 133.1719 183.6875 132.8125 184.0938 131.9844 C184.2031 132.8594 184.5156 133.1719 185.0156 133.1719 C185.4688 133.1719 185.7969 132.9062 186.0156 132.5625 L185.9062 132.2812 Z" style="fill:black; stroke:none;"
      /><rect x="187" width="7" height="9" y="92" style="stroke:none;"
      /><path d="M188 97.5156 L190.9531 93.2656 L190.9531 97.5156 L188 97.5156 ZM193.2812 97.5156 L191.8594 97.5156 L191.8594 92.125 L191.2344 92.125 L187.3438 97.6406 L187.3438 98.1875 L190.9531 98.1875 L190.9531 101 L191.8594 101 L191.8594 98.1875 L193.2812 98.1875 L193.2812 97.5156 Z" style="fill:black; stroke:none;"
      /><rect x="163" width="6" height="13" y="75" style="stroke:none;"
      /><path d="M165.0938 81.2031 C165.0938 79.6562 165.75 78.8125 166.7969 78.8125 C167.7188 78.8125 168.2656 79.4531 168.2656 80.5156 C168.2656 81.7188 167.5 82.4375 166.1875 82.7031 L166.2969 83.3125 C168.2188 83.2344 168.9375 84.2188 168.9375 85.4375 C168.9375 86.625 168.2344 87.4219 166.9531 87.4219 C166.25 87.4219 165.6562 87.1562 165.0938 86.7188 L165.0938 81.2031 ZM164.2031 87.9062 L164.1094 90.375 L164.2656 90.4844 L165.1562 90.2656 L165.0156 87.0938 C165.5469 87.8438 166.3594 88.1719 167.1719 88.1719 C168.5625 88.1719 169.8594 87.2188 169.8594 85.4844 C169.8594 83.9531 168.875 83.1094 167.125 83 C168.5625 82.6094 169.1875 81.4531 169.1875 80.4844 C169.1875 79.0938 168.1562 78.3125 166.9062 78.3125 C165.2969 78.3125 164.2188 79.5469 164.2188 81.5156 L164.2031 87.9062 Z" style="fill:black; stroke:none;"
      /><rect x="243" width="6" height="10" y="104" style="stroke:none;"
      /><path d="M244.9219 106.1406 L248.6562 106.1406 L248.6562 105.25 L244.4531 105.25 L244.1719 109.3125 L244.5156 109.3906 C244.9219 109.25 245.3906 109.1875 245.8125 109.1875 C247.0781 109.1875 247.9219 109.9531 247.9219 111.3906 C247.9219 112.7812 247.1719 113.6875 245.8281 113.6875 C245.5156 113.6875 245.2344 113.6406 244.9375 113.5625 L244.6875 112.7812 C244.5312 112.2188 244.3906 112.0469 244.0625 112.0469 C243.7969 112.0469 243.5938 112.1719 243.4844 112.4375 C243.7656 113.5938 244.625 114.1719 245.8906 114.1719 C247.7031 114.1719 248.875 112.9844 248.875 111.2812 C248.875 109.5312 247.75 108.5469 246.0938 108.5469 C245.6094 108.5469 245.1719 108.625 244.7344 108.7656 L244.9219 106.1406 Z" style="fill:black; stroke:none;"
      /><rect x="228" width="8" height="8" y="105" style="stroke:none;"
      /><path d="M232.9844 110.7031 C232.9375 111.8906 232.1562 112.6562 231.3125 112.6562 C230.2656 112.6562 229.5 111.6875 229.5 109.7188 C229.5 108.2812 230.1562 107.1562 231.3438 107.1562 C232.1406 107.1562 232.7812 107.6875 233.0938 108.6406 L232.9844 110.7031 ZM234.9062 112.2812 C234.7344 112.375 234.5469 112.4219 234.3438 112.4219 C233.9531 112.4219 233.75 112.2188 233.75 111.4219 C233.75 110.4844 233.9688 108.5312 234.1875 106.8281 L234.0312 106.7188 L233.2344 106.9219 L233.1406 107.7969 C232.7812 107.0312 232.1562 106.6562 231.3906 106.6562 C230.0469 106.6562 228.5625 107.8438 228.5625 109.9531 C228.5625 112.0938 229.7188 113.1719 231.1406 113.1719 C232.0156 113.1719 232.6875 112.8125 233.0938 111.9844 C233.2031 112.8594 233.5156 113.1719 234.0156 113.1719 C234.4688 113.1719 234.7969 112.9062 235.0156 112.5625 L234.9062 112.2812 Z" style="fill:black; stroke:none;"
      /><rect x="281" width="5" height="10" y="104" style="stroke:none;"
      /><path d="M282.8906 112.6875 C282.4844 112.6875 282.1562 113.0469 282.1562 113.4219 C282.1562 113.8125 282.4844 114.1562 282.8906 114.1562 C283.2969 114.1562 283.6406 113.8125 283.6406 113.4219 C283.6406 113.0469 283.2969 112.6875 282.8906 112.6875 ZM284.4688 106.5781 C284.7188 106.8906 284.875 107.2656 284.8906 107.6562 C284.8906 108.1875 284.625 108.5 284.0312 108.7656 L283.4062 109.0156 C282.6406 109.3125 282.3906 109.5469 282.3906 109.9375 C282.3906 110.1094 282.4531 110.3438 282.5781 110.8125 L282.7344 111.3438 L283.1094 111.3438 L283.0938 110.5312 C283.0938 110.0938 283.2031 109.9688 283.7812 109.7344 L284.2031 109.5625 C285.0312 109.2188 285.4531 108.6875 285.4531 107.8438 C285.4531 106.1562 283.6562 105.1875 282.5 105.0312 C282.1094 105.125 281.9062 105.2969 281.9062 105.6406 C281.9062 105.9375 282.0625 106.1562 282.7188 106.2656 L284.4688 106.5781 Z" style="fill:black; stroke:none;"
    /></g
  ></g
></svg
>
