<?xml version="1.0"?>
<!DOCTYPE svg PUBLIC '-//W3C//DTD SVG 1.0//EN'
          'http://www.w3.org/TR/2001/REC-SVG-20010904/DTD/svg10.dtd'>
<svg xmlns:xlink="http://www.w3.org/1999/xlink" style="fill-opacity:1; color-rendering:auto; color-interpolation:auto; text-rendering:auto; stroke:black; stroke-linecap:square; stroke-miterlimit:10; shape-rendering:auto; stroke-opacity:1; fill:black; stroke-dasharray:none; font-weight:normal; stroke-width:1; font-family:'Dialog'; font-style:normal; stroke-linejoin:miter; font-size:12px; stroke-dashoffset:0; image-rendering:auto;" viewBox="0 0 438 160" xmlns="http://www.w3.org/2000/svg"
><!--Generated by the Batik Graphics2D SVG Generator--><defs id="genericDefs"
  /><g
  ><defs id="defs1"
    ><clipPath clipPathUnits="userSpaceOnUse" id="clipPath1"
      ><path d="M334 82 L356 82 L356 104 L334 104 L334 82 Z"
      /></clipPath
      ><clipPath clipPathUnits="userSpaceOnUse" id="clipPath2"
      ><path d="M282 82 L304 82 L304 104 L282 104 L282 82 Z"
      /></clipPath
      ><clipPath clipPathUnits="userSpaceOnUse" id="clipPath3"
      ><path d="M252 93 C252 99.0751 247.0751 104 241 104 C234.9249 104 230 99.0751 230 93 C230 86.9249 234.9249 82 241 82 C247.0751 82 252 86.9249 252 93 Z"
      /></clipPath
      ><clipPath clipPathUnits="userSpaceOnUse" id="clipPath4"
      ><path d="M200 119 C200 125.0751 195.0751 130 189 130 C182.9249 130 178 125.0751 178 119 C178 112.9249 182.9249 108 189 108 C195.0751 108 200 112.9249 200 119 Z"
      /></clipPath
      ><clipPath clipPathUnits="userSpaceOnUse" id="clipPath5"
      ><path d="M126 108 L148 108 L148 130 L126 130 L126 108 Z"
      /></clipPath
      ><clipPath clipPathUnits="userSpaceOnUse" id="clipPath6"
      ><path d="M96 119 C96 125.0751 91.0751 130 85 130 C78.9249 130 74 125.0751 74 119 C74 112.9249 78.9249 108 85 108 C91.0751 108 96 112.9249 96 119 Z"
      /></clipPath
      ><clipPath clipPathUnits="userSpaceOnUse" id="clipPath7"
      ><path d="M200 67 C200 73.0751 195.0751 78 189 78 C182.9249 78 178 73.0751 178 67 C178 60.9249 182.9249 56 189 56 C195.0751 56 200 60.9249 200 67 Z"
      /></clipPath
      ><clipPath clipPathUnits="userSpaceOnUse" id="clipPath8"
      ><path style="fill-rule:evenodd;" d="M345 52 L334 30 L356 30 Z"
      /></clipPath
    ></defs
    ><g style="fill:white; text-rendering:optimizeSpeed; stroke:white;"
    ><rect x="0" width="438" height="160" y="0" style="stroke:none;"
      /><polygon style="fill:none; stroke:black;" points=" 397 93 345 93"
      /><path d="M397 82 C391.5 87.5 402.5 98.5 397 104" style="fill:none; stroke:black;"
      /><polygon style="fill:none; stroke:black;" points=" 345 93 293 93"
      /><polygon style="fill:none; stroke:black;" points=" 345 93 345 41"
      /><rect x="334" y="82" width="22" style="clip-path:url(#clipPath1); stroke:none;" height="22"
      /><rect x="334" y="82" width="22" style="clip-path:url(#clipPath1); fill:rgb(0,144,188); stroke:none;" height="22"
      /><rect x="334" y="82" width="22" style="clip-path:url(#clipPath1); fill:none; stroke:black;" height="22"
      /><rect x="334" y="82" width="22" style="fill:none; stroke:black;" height="22"
      /><polygon style="fill:none; stroke:black;" points=" 293 93 241 93"
      /><rect x="282" y="82" width="22" style="clip-path:url(#clipPath2); stroke:none;" height="22"
      /><rect x="282" y="82" width="22" style="clip-path:url(#clipPath2); fill:rgb(0,144,188); stroke:none;" height="22"
      /><rect x="282" y="82" width="22" style="clip-path:url(#clipPath2); fill:none; stroke:black;" height="22"
      /><rect x="282" y="82" width="22" style="fill:none; stroke:black;" height="22"
      /><polygon style="fill:none; stroke:black;" points=" 241 93 189 119"
      /><polygon style="fill:none; stroke:black;" points=" 241 93 189 67"
      /><circle style="clip-path:url(#clipPath3); stroke:none;" r="11" cx="241" cy="93"
      /><rect x="230" y="82" width="22" style="clip-path:url(#clipPath3); fill:rgb(0,166,81); stroke:none;" height="22"
      /><rect x="230" y="82" width="22" style="clip-path:url(#clipPath3); fill:none; stroke:black;" height="22"
      /><circle style="fill:none; stroke:black;" r="11" cx="241" cy="93"
      /><polygon style="fill:none; stroke:black;" points=" 189 119 137 119"
      /><circle style="clip-path:url(#clipPath4); stroke:none;" r="11" cx="189" cy="119"
      /><rect x="178" y="108" width="22" style="clip-path:url(#clipPath4); fill:rgb(0,166,81); stroke:none;" height="22"
      /><rect x="178" y="108" width="22" style="clip-path:url(#clipPath4); fill:none; stroke:black;" height="22"
      /><circle style="fill:none; stroke:black;" r="11" cx="189" cy="119"
      /><polygon style="fill:none; stroke:black;" points=" 137 119 85 119"
      /><rect x="126" y="108" width="22" style="clip-path:url(#clipPath5); stroke:none;" height="22"
      /><rect x="126" y="108" width="22" style="clip-path:url(#clipPath5); fill:rgb(0,144,188); stroke:none;" height="22"
      /><rect x="126" y="108" width="22" style="clip-path:url(#clipPath5); fill:none; stroke:black;" height="22"
      /><rect x="126" y="108" width="22" style="fill:none; stroke:black;" height="22"
      /><circle style="clip-path:url(#clipPath6); stroke:none;" r="11" cx="85" cy="119"
      /><rect x="74" y="108" width="22" style="clip-path:url(#clipPath6); fill:rgb(255,212,0); stroke:none;" height="22"
      /><rect x="74" y="108" width="22" style="clip-path:url(#clipPath6); fill:none; stroke:black;" height="22"
      /><circle style="fill:none; stroke:black;" r="11" cx="85" cy="119"
      /><rect x="115" y="122" width="5" style="stroke:none;" height="10"
    /></g
    ><g style="font-family:'Serif'; text-rendering:optimizeSpeed; "
    ><path style="stroke:none;" d="M116.8906 130.6875 C116.4844 130.6875 116.1562 131.0469 116.1562 131.4219 C116.1562 131.8125 116.4844 132.1562 116.8906 132.1562 C117.2969 132.1562 117.6406 131.8125 117.6406 131.4219 C117.6406 131.0469 117.2969 130.6875 116.8906 130.6875 ZM118.4688 124.5781 C118.7188 124.8906 118.875 125.2656 118.8906 125.6562 C118.8906 126.1875 118.625 126.5 118.0312 126.7656 L117.4062 127.0156 C116.6406 127.3125 116.3906 127.5469 116.3906 127.9375 C116.3906 128.1094 116.4531 128.3438 116.5781 128.8125 L116.7344 129.3438 L117.1094 129.3438 L117.0938 128.5312 C117.0938 128.0938 117.2031 127.9688 117.7812 127.7344 L118.2031 127.5625 C119.0312 127.2188 119.4531 126.6875 119.4531 125.8438 C119.4531 124.1562 117.6562 123.1875 116.5 123.0312 C116.1094 123.125 115.9062 123.2969 115.9062 123.6406 C115.9062 123.9375 116.0625 124.1562 116.7188 124.2656 L118.4688 124.5781 Z"
      /><rect x="101" y="122" width="5" style="fill:white; stroke:none;" height="10"
      /><path style="stroke:none;" d="M102.8906 130.6875 C102.4844 130.6875 102.1562 131.0469 102.1562 131.4219 C102.1562 131.8125 102.4844 132.1562 102.8906 132.1562 C103.2969 132.1562 103.6406 131.8125 103.6406 131.4219 C103.6406 131.0469 103.2969 130.6875 102.8906 130.6875 ZM104.4688 124.5781 C104.7188 124.8906 104.875 125.2656 104.8906 125.6562 C104.8906 126.1875 104.625 126.5 104.0312 126.7656 L103.4062 127.0156 C102.6406 127.3125 102.3906 127.5469 102.3906 127.9375 C102.3906 128.1094 102.4531 128.3438 102.5781 128.8125 L102.7344 129.3438 L103.1094 129.3438 L103.0938 128.5312 C103.0938 128.0938 103.2031 127.9688 103.7812 127.7344 L104.2031 127.5625 C105.0312 127.2188 105.4531 126.6875 105.4531 125.8438 C105.4531 124.1562 103.6562 123.1875 102.5 123.0312 C102.1094 123.125 101.9062 123.2969 101.9062 123.6406 C101.9062 123.9375 102.0625 124.1562 102.7188 124.2656 L104.4688 124.5781 Z"
      /><rect x="167" y="122" width="5" style="fill:white; stroke:none;" height="10"
      /><path style="stroke:none;" d="M168.8906 130.6875 C168.4844 130.6875 168.1562 131.0469 168.1562 131.4219 C168.1562 131.8125 168.4844 132.1562 168.8906 132.1562 C169.2969 132.1562 169.6406 131.8125 169.6406 131.4219 C169.6406 131.0469 169.2969 130.6875 168.8906 130.6875 ZM170.4688 124.5781 C170.7188 124.8906 170.875 125.2656 170.8906 125.6562 C170.8906 126.1875 170.625 126.5 170.0312 126.7656 L169.4062 127.0156 C168.6406 127.3125 168.3906 127.5469 168.3906 127.9375 C168.3906 128.1094 168.4531 128.3438 168.5781 128.8125 L168.7344 129.3438 L169.1094 129.3438 L169.0938 128.5312 C169.0938 128.0938 169.2031 127.9688 169.7812 127.7344 L170.2031 127.5625 C171.0312 127.2188 171.4531 126.6875 171.4531 125.8438 C171.4531 124.1562 169.6562 123.1875 168.5 123.0312 C168.1094 123.125 167.9062 123.2969 167.9062 123.6406 C167.9062 123.9375 168.0625 124.1562 168.7188 124.2656 L170.4688 124.5781 Z"
      /><rect x="153" y="122" width="5" style="fill:white; stroke:none;" height="10"
      /><path style="stroke:none;" d="M154.8906 130.6875 C154.4844 130.6875 154.1562 131.0469 154.1562 131.4219 C154.1562 131.8125 154.4844 132.1562 154.8906 132.1562 C155.2969 132.1562 155.6406 131.8125 155.6406 131.4219 C155.6406 131.0469 155.2969 130.6875 154.8906 130.6875 ZM156.4688 124.5781 C156.7188 124.8906 156.875 125.2656 156.8906 125.6562 C156.8906 126.1875 156.625 126.5 156.0312 126.7656 L155.4062 127.0156 C154.6406 127.3125 154.3906 127.5469 154.3906 127.9375 C154.3906 128.1094 154.4531 128.3438 154.5781 128.8125 L154.7344 129.3438 L155.1094 129.3438 L155.0938 128.5312 C155.0938 128.0938 155.2031 127.9688 155.7812 127.7344 L156.2031 127.5625 C157.0312 127.2188 157.4531 126.6875 157.4531 125.8438 C157.4531 124.1562 155.6562 123.1875 154.5 123.0312 C154.1094 123.125 153.9062 123.2969 153.9062 123.6406 C153.9062 123.9375 154.0625 124.1562 154.7188 124.2656 L156.4688 124.5781 Z"
      /><circle style="fill:white; clip-path:url(#clipPath7); stroke:none;" r="11" cx="189" cy="67"
      /><rect x="178" y="56" width="22" style="clip-path:url(#clipPath7); fill:rgb(0,166,81); stroke:none;" height="22"
      /><rect x="178" y="56" width="22" style="fill:none; clip-path:url(#clipPath7);" height="22"
      /><circle r="11" style="fill:none;" cx="189" cy="67"
      /><rect x="223" y="104" width="5" style="fill:white; stroke:none;" height="10"
      /><path style="stroke:none;" d="M224.8906 112.6875 C224.4844 112.6875 224.1562 113.0469 224.1562 113.4219 C224.1562 113.8125 224.4844 114.1562 224.8906 114.1562 C225.2969 114.1562 225.6406 113.8125 225.6406 113.4219 C225.6406 113.0469 225.2969 112.6875 224.8906 112.6875 ZM226.4688 106.5781 C226.7188 106.8906 226.875 107.2656 226.8906 107.6562 C226.8906 108.1875 226.625 108.5 226.0312 108.7656 L225.4062 109.0156 C224.6406 109.3125 224.3906 109.5469 224.3906 109.9375 C224.3906 110.1094 224.4531 110.3438 224.5781 110.8125 L224.7344 111.3438 L225.1094 111.3438 L225.0938 110.5312 C225.0938 110.0938 225.2031 109.9688 225.7812 109.7344 L226.2031 109.5625 C227.0312 109.2188 227.4531 108.6875 227.4531 107.8438 C227.4531 106.1562 225.6562 105.1875 224.5 105.0312 C224.1094 105.125 223.9062 105.2969 223.9062 105.6406 C223.9062 105.9375 224.0625 106.1562 224.7188 106.2656 L226.4688 106.5781 Z"
      /><rect x="208" y="112" width="5" style="fill:white; stroke:none;" height="10"
      /><path style="stroke:none;" d="M209.8906 120.6875 C209.4844 120.6875 209.1562 121.0469 209.1562 121.4219 C209.1562 121.8125 209.4844 122.1562 209.8906 122.1562 C210.2969 122.1562 210.6406 121.8125 210.6406 121.4219 C210.6406 121.0469 210.2969 120.6875 209.8906 120.6875 ZM211.4688 114.5781 C211.7188 114.8906 211.875 115.2656 211.8906 115.6562 C211.8906 116.1875 211.625 116.5 211.0312 116.7656 L210.4062 117.0156 C209.6406 117.3125 209.3906 117.5469 209.3906 117.9375 C209.3906 118.1094 209.4531 118.3438 209.5781 118.8125 L209.7344 119.3438 L210.1094 119.3438 L210.0938 118.5312 C210.0938 118.0938 210.2031 117.9688 210.7812 117.7344 L211.2031 117.5625 C212.0312 117.2188 212.4531 116.6875 212.4531 115.8438 C212.4531 114.1562 210.6562 113.1875 209.5 113.0312 C209.1094 113.125 208.9062 113.2969 208.9062 113.6406 C208.9062 113.9375 209.0625 114.1562 209.7188 114.2656 L211.4688 114.5781 Z"
      /><rect x="216" y="86" width="5" style="fill:white; stroke:none;" height="10"
      /><path style="stroke:none;" d="M217.8906 94.6875 C217.4844 94.6875 217.1562 95.0469 217.1562 95.4219 C217.1562 95.8125 217.4844 96.1562 217.8906 96.1562 C218.2969 96.1562 218.6406 95.8125 218.6406 95.4219 C218.6406 95.0469 218.2969 94.6875 217.8906 94.6875 ZM219.4688 88.5781 C219.7188 88.8906 219.875 89.2656 219.8906 89.6562 C219.8906 90.1875 219.625 90.5 219.0312 90.7656 L218.4062 91.0156 C217.6406 91.3125 217.3906 91.5469 217.3906 91.9375 C217.3906 92.1094 217.4531 92.3438 217.5781 92.8125 L217.7344 93.3438 L218.1094 93.3438 L218.0938 92.5312 C218.0938 92.0938 218.2031 91.9688 218.7812 91.7344 L219.2031 91.5625 C220.0312 91.2188 220.4531 90.6875 220.4531 89.8438 C220.4531 88.1562 218.6562 87.1875 217.5 87.0312 C217.1094 87.125 216.9062 87.2969 216.9062 87.6406 C216.9062 87.9375 217.0625 88.1562 217.7188 88.2656 L219.4688 88.5781 Z"
      /><rect x="201" y="78" width="5" style="fill:white; stroke:none;" height="10"
      /><path style="stroke:none;" d="M202.8906 86.6875 C202.4844 86.6875 202.1562 87.0469 202.1562 87.4219 C202.1562 87.8125 202.4844 88.1562 202.8906 88.1562 C203.2969 88.1562 203.6406 87.8125 203.6406 87.4219 C203.6406 87.0469 203.2969 86.6875 202.8906 86.6875 ZM204.4688 80.5781 C204.7188 80.8906 204.875 81.2656 204.8906 81.6562 C204.8906 82.1875 204.625 82.5 204.0312 82.7656 L203.4062 83.0156 C202.6406 83.3125 202.3906 83.5469 202.3906 83.9375 C202.3906 84.1094 202.4531 84.3438 202.5781 84.8125 L202.7344 85.3438 L203.1094 85.3438 L203.0938 84.5312 C203.0938 84.0938 203.2031 83.9688 203.7812 83.7344 L204.2031 83.5625 C205.0312 83.2188 205.4531 82.6875 205.4531 81.8438 C205.4531 80.1562 203.6562 79.1875 202.5 79.0312 C202.1094 79.125 201.9062 79.2969 201.9062 79.6406 C201.9062 79.9375 202.0625 80.1562 202.7188 80.2656 L204.4688 80.5781 Z"
      /><rect x="271" y="96" width="5" style="fill:white; stroke:none;" height="10"
      /><path style="stroke:none;" d="M272.8906 104.6875 C272.4844 104.6875 272.1562 105.0469 272.1562 105.4219 C272.1562 105.8125 272.4844 106.1562 272.8906 106.1562 C273.2969 106.1562 273.6406 105.8125 273.6406 105.4219 C273.6406 105.0469 273.2969 104.6875 272.8906 104.6875 ZM274.4688 98.5781 C274.7188 98.8906 274.875 99.2656 274.8906 99.6562 C274.8906 100.1875 274.625 100.5 274.0312 100.7656 L273.4062 101.0156 C272.6406 101.3125 272.3906 101.5469 272.3906 101.9375 C272.3906 102.1094 272.4531 102.3438 272.5781 102.8125 L272.7344 103.3438 L273.1094 103.3438 L273.0938 102.5312 C273.0938 102.0938 273.2031 101.9688 273.7812 101.7344 L274.2031 101.5625 C275.0312 101.2188 275.4531 100.6875 275.4531 99.8438 C275.4531 98.1562 273.6562 97.1875 272.5 97.0312 C272.1094 97.125 271.9062 97.2969 271.9062 97.6406 C271.9062 97.9375 272.0625 98.1562 272.7188 98.2656 L274.4688 98.5781 Z"
      /><rect x="257" y="96" width="5" style="fill:white; stroke:none;" height="10"
      /><path style="stroke:none;" d="M258.8906 104.6875 C258.4844 104.6875 258.1562 105.0469 258.1562 105.4219 C258.1562 105.8125 258.4844 106.1562 258.8906 106.1562 C259.2969 106.1562 259.6406 105.8125 259.6406 105.4219 C259.6406 105.0469 259.2969 104.6875 258.8906 104.6875 ZM260.4688 98.5781 C260.7188 98.8906 260.875 99.2656 260.8906 99.6562 C260.8906 100.1875 260.625 100.5 260.0312 100.7656 L259.4062 101.0156 C258.6406 101.3125 258.3906 101.5469 258.3906 101.9375 C258.3906 102.1094 258.4531 102.3438 258.5781 102.8125 L258.7344 103.3438 L259.1094 103.3438 L259.0938 102.5312 C259.0938 102.0938 259.2031 101.9688 259.7812 101.7344 L260.2031 101.5625 C261.0312 101.2188 261.4531 100.6875 261.4531 99.8438 C261.4531 98.1562 259.6562 97.1875 258.5 97.0312 C258.1094 97.125 257.9062 97.2969 257.9062 97.6406 C257.9062 97.9375 258.0625 98.1562 258.7188 98.2656 L260.4688 98.5781 Z"
      /><polygon style="fill:white; clip-path:url(#clipPath8); stroke:none;" points=" 345 52 334 30 356 30"
      /><rect x="334" y="30" width="22" style="clip-path:url(#clipPath8); fill:rgb(237,28,36); stroke:none;" height="22"
      /><rect x="334" y="30" width="22" style="fill:none; clip-path:url(#clipPath8);" height="22"
      /><polygon style="fill:none;" points=" 345 52 334 30 356 30"
      /><rect x="323" y="96" width="5" style="fill:white; stroke:none;" height="10"
      /><path style="stroke:none;" d="M324.8906 104.6875 C324.4844 104.6875 324.1562 105.0469 324.1562 105.4219 C324.1562 105.8125 324.4844 106.1562 324.8906 106.1562 C325.2969 106.1562 325.6406 105.8125 325.6406 105.4219 C325.6406 105.0469 325.2969 104.6875 324.8906 104.6875 ZM326.4688 98.5781 C326.7188 98.8906 326.875 99.2656 326.8906 99.6562 C326.8906 100.1875 326.625 100.5 326.0312 100.7656 L325.4062 101.0156 C324.6406 101.3125 324.3906 101.5469 324.3906 101.9375 C324.3906 102.1094 324.4531 102.3438 324.5781 102.8125 L324.7344 103.3438 L325.1094 103.3438 L325.0938 102.5312 C325.0938 102.0938 325.2031 101.9688 325.7812 101.7344 L326.2031 101.5625 C327.0312 101.2188 327.4531 100.6875 327.4531 99.8438 C327.4531 98.1562 325.6562 97.1875 324.5 97.0312 C324.1094 97.125 323.9062 97.2969 323.9062 97.6406 C323.9062 97.9375 324.0625 98.1562 324.7188 98.2656 L326.4688 98.5781 Z"
      /><rect x="309" y="96" width="5" style="fill:white; stroke:none;" height="10"
      /><path style="stroke:none;" d="M310.8906 104.6875 C310.4844 104.6875 310.1562 105.0469 310.1562 105.4219 C310.1562 105.8125 310.4844 106.1562 310.8906 106.1562 C311.2969 106.1562 311.6406 105.8125 311.6406 105.4219 C311.6406 105.0469 311.2969 104.6875 310.8906 104.6875 ZM312.4688 98.5781 C312.7188 98.8906 312.875 99.2656 312.8906 99.6562 C312.8906 100.1875 312.625 100.5 312.0312 100.7656 L311.4062 101.0156 C310.6406 101.3125 310.3906 101.5469 310.3906 101.9375 C310.3906 102.1094 310.4531 102.3438 310.5781 102.8125 L310.7344 103.3438 L311.1094 103.3438 L311.0938 102.5312 C311.0938 102.0938 311.2031 101.9688 311.7812 101.7344 L312.2031 101.5625 C313.0312 101.2188 313.4531 100.6875 313.4531 99.8438 C313.4531 98.1562 311.6562 97.1875 310.5 97.0312 C310.1094 97.125 309.9062 97.2969 309.9062 97.6406 C309.9062 97.9375 310.0625 98.1562 310.7188 98.2656 L312.4688 98.5781 Z"
      /><rect x="334" y="69" width="5" style="fill:white; stroke:none;" height="10"
      /><path style="stroke:none;" d="M335.8906 77.6875 C335.4844 77.6875 335.1562 78.0469 335.1562 78.4219 C335.1562 78.8125 335.4844 79.1562 335.8906 79.1562 C336.2969 79.1562 336.6406 78.8125 336.6406 78.4219 C336.6406 78.0469 336.2969 77.6875 335.8906 77.6875 ZM337.4688 71.5781 C337.7188 71.8906 337.875 72.2656 337.8906 72.6562 C337.8906 73.1875 337.625 73.5 337.0312 73.7656 L336.4062 74.0156 C335.6406 74.3125 335.3906 74.5469 335.3906 74.9375 C335.3906 75.1094 335.4531 75.3438 335.5781 75.8125 L335.7344 76.3438 L336.1094 76.3438 L336.0938 75.5312 C336.0938 75.0938 336.2031 74.9688 336.7812 74.7344 L337.2031 74.5625 C338.0312 74.2188 338.4531 73.6875 338.4531 72.8438 C338.4531 71.1562 336.6562 70.1875 335.5 70.0312 C335.1094 70.125 334.9062 70.2969 334.9062 70.6406 C334.9062 70.9375 335.0625 71.1562 335.7188 71.2656 L337.4688 71.5781 Z"
      /><rect x="334" y="55" width="5" style="fill:white; stroke:none;" height="10"
      /><path style="stroke:none;" d="M335.8906 63.6875 C335.4844 63.6875 335.1562 64.0469 335.1562 64.4219 C335.1562 64.8125 335.4844 65.1562 335.8906 65.1562 C336.2969 65.1562 336.6406 64.8125 336.6406 64.4219 C336.6406 64.0469 336.2969 63.6875 335.8906 63.6875 ZM337.4688 57.5781 C337.7188 57.8906 337.875 58.2656 337.8906 58.6562 C337.8906 59.1875 337.625 59.5 337.0312 59.7656 L336.4062 60.0156 C335.6406 60.3125 335.3906 60.5469 335.3906 60.9375 C335.3906 61.1094 335.4531 61.3438 335.5781 61.8125 L335.7344 62.3438 L336.1094 62.3438 L336.0938 61.5312 C336.0938 61.0938 336.2031 60.9688 336.7812 60.7344 L337.2031 60.5625 C338.0312 60.2188 338.4531 59.6875 338.4531 58.8438 C338.4531 57.1562 336.6562 56.1875 335.5 56.0312 C335.1094 56.125 334.9062 56.2969 334.9062 56.6406 C334.9062 56.9375 335.0625 57.1562 335.7188 57.2656 L337.4688 57.5781 Z"
      /><rect x="361" y="96" width="5" style="fill:white; stroke:none;" height="10"
      /><path style="stroke:none;" d="M362.8906 104.6875 C362.4844 104.6875 362.1562 105.0469 362.1562 105.4219 C362.1562 105.8125 362.4844 106.1562 362.8906 106.1562 C363.2969 106.1562 363.6406 105.8125 363.6406 105.4219 C363.6406 105.0469 363.2969 104.6875 362.8906 104.6875 ZM364.4688 98.5781 C364.7188 98.8906 364.875 99.2656 364.8906 99.6562 C364.8906 100.1875 364.625 100.5 364.0312 100.7656 L363.4062 101.0156 C362.6406 101.3125 362.3906 101.5469 362.3906 101.9375 C362.3906 102.1094 362.4531 102.3438 362.5781 102.8125 L362.7344 103.3438 L363.1094 103.3438 L363.0938 102.5312 C363.0938 102.0938 363.2031 101.9688 363.7812 101.7344 L364.2031 101.5625 C365.0312 101.2188 365.4531 100.6875 365.4531 99.8438 C365.4531 98.1562 363.6562 97.1875 362.5 97.0312 C362.1094 97.125 361.9062 97.2969 361.9062 97.6406 C361.9062 97.9375 362.0625 98.1562 362.7188 98.2656 L364.4688 98.5781 Z"
      /><polygon style="fill:none;" points=" 74 130 63 130 63 30 74 30 63 30 63 130"
    /></g
    ><g style="fill:white; text-rendering:optimizeSpeed; font-size:14px; font-family:'SansSerif'; stroke:white;"
    ><rect x="34" width="13" height="10" y="74" style="stroke:none;"
      /><path d="M36.4844 81.9062 L37.625 81.9062 C37.375 79.7031 39.8906 78.875 39.8906 76.8281 C39.8906 75.2969 38.8594 74.3281 37.2812 74.3281 C36.1406 74.3281 35.25 74.875 34.6094 75.625 L35.3281 76.2969 C35.8125 75.7344 36.4375 75.3906 37.1406 75.3906 C38.125 75.3906 38.6406 76.0625 38.6406 76.9062 C38.6406 78.5781 36.1719 79.4688 36.4844 81.9062 ZM37.0938 85.1875 C37.6094 85.1875 38.0312 84.7969 38.0312 84.2188 C38.0312 83.625 37.6094 83.2188 37.0938 83.2188 C36.5938 83.2188 36.1719 83.625 36.1719 84.2188 C36.1719 84.7969 36.5938 85.1875 37.0938 85.1875 ZM44.886 85.1875 C47.0266 85.1875 48.3703 83.8906 48.3703 82.2656 C48.3703 80.75 47.4485 80.0469 46.261 79.5312 L44.7922 78.8906 C43.9953 78.5625 43.1047 78.1875 43.1047 77.1875 C43.1047 76.2656 43.8547 75.6719 45.011 75.6719 C45.9641 75.6719 46.7297 76.0469 47.3547 76.6406 L48.0422 75.8125 C47.3078 75.0625 46.2297 74.5469 45.011 74.5469 C43.1516 74.5469 41.7766 75.6875 41.7766 77.2656 C41.7766 78.7656 42.9172 79.5 43.8703 79.9062 L45.3547 80.5469 C46.3235 80.9844 47.0578 81.3125 47.0578 82.375 C47.0578 83.375 46.2453 84.0469 44.9016 84.0469 C43.8391 84.0469 42.8078 83.5469 42.0735 82.7812 L41.2922 83.6562 C42.1828 84.5938 43.4328 85.1875 44.886 85.1875 Z" style="fill:black; stroke:none;"
    /></g
  ></g
></svg
>
