<?xml version="1.0"?>
<!DOCTYPE svg PUBLIC '-//W3C//DTD SVG 1.0//EN'
          'http://www.w3.org/TR/2001/REC-SVG-20010904/DTD/svg10.dtd'>
<svg xmlns:xlink="http://www.w3.org/1999/xlink" style="fill-opacity:1; color-rendering:auto; color-interpolation:auto; text-rendering:auto; stroke:black; stroke-linecap:square; stroke-miterlimit:10; shape-rendering:auto; stroke-opacity:1; fill:black; stroke-dasharray:none; font-weight:normal; stroke-width:1; font-family:'Dialog'; font-style:normal; stroke-linejoin:miter; font-size:12px; stroke-dashoffset:0; image-rendering:auto;" viewBox="0 0 446 183" xmlns="http://www.w3.org/2000/svg"
><!--Generated by the Batik Graphics2D SVG Generator--><defs id="genericDefs"
  /><g
  ><defs id="defs1"
    ><clipPath clipPathUnits="userSpaceOnUse" id="clipPath1"
      ><path d="M342 79 L364 79 L364 101 L342 101 L342 79 Z"
      /></clipPath
      ><clipPath clipPathUnits="userSpaceOnUse" id="clipPath2"
      ><path d="M290 105 L312 105 L312 127 L290 127 L290 105 Z"
      /></clipPath
      ><clipPath clipPathUnits="userSpaceOnUse" id="clipPath3"
      ><path d="M260 116 C260 122.0751 255.0751 127 249 127 C242.9249 127 238 122.0751 238 116 C238 109.9249 242.9249 105 249 105 C255.0751 105 260 109.9249 260 116 Z"
      /></clipPath
      ><clipPath clipPathUnits="userSpaceOnUse" id="clipPath4"
      ><path d="M208 142 C208 148.0751 203.0751 153 197 153 C190.9249 153 186 148.0751 186 142 C186 135.9249 190.9249 131 197 131 C203.0751 131 208 135.9249 208 142 Z"
      /></clipPath
      ><clipPath clipPathUnits="userSpaceOnUse" id="clipPath5"
      ><path d="M134 131 L156 131 L156 153 L134 153 L134 131 Z"
      /></clipPath
      ><clipPath clipPathUnits="userSpaceOnUse" id="clipPath6"
      ><path d="M104 142 C104 148.0751 99.0751 153 93 153 C86.9249 153 82 148.0751 82 142 C82 135.9249 86.9249 131 93 131 C99.0751 131 104 135.9249 104 142 Z"
      /></clipPath
      ><clipPath clipPathUnits="userSpaceOnUse" id="clipPath7"
      ><path style="fill-rule:evenodd;" d="M41 131 L52 142 L41 153 L30 142 Z"
      /></clipPath
      ><clipPath clipPathUnits="userSpaceOnUse" id="clipPath8"
      ><path d="M208 90 C208 96.0751 203.0751 101 197 101 C190.9249 101 186 96.0751 186 90 C186 83.9249 190.9249 79 197 79 C203.0751 79 208 83.9249 208 90 Z"
      /></clipPath
      ><clipPath clipPathUnits="userSpaceOnUse" id="clipPath9"
      ><path d="M134 79 L156 79 L156 101 L134 101 L134 79 Z"
      /></clipPath
      ><clipPath clipPathUnits="userSpaceOnUse" id="clipPath10"
      ><path d="M312 64 C312 70.0751 307.0751 75 301 75 C294.9249 75 290 70.0751 290 64 C290 57.9249 294.9249 53 301 53 C307.0751 53 312 57.9249 312 64 Z"
      /></clipPath
    ></defs
    ><g style="fill:white; text-rendering:optimizeSpeed; stroke:white;"
    ><rect x="0" width="446" height="183" y="0" style="stroke:none;"
      /><polygon style="fill:none; stroke:black;" points=" 405 90 353 90"
      /><path d="M405 79 C399.5 84.5 410.5 95.5 405 101" style="fill:none; stroke:black;"
      /><polygon style="fill:none; stroke:black;" points=" 353 90 301 116"
      /><polygon style="fill:none; stroke:black;" points=" 353 90 301 64"
      /><rect x="342" y="79" width="22" style="clip-path:url(#clipPath1); stroke:none;" height="22"
      /><rect x="342" y="79" width="22" style="clip-path:url(#clipPath1); stroke:none;" height="22"
      /><rect x="342" y="79" width="22" style="clip-path:url(#clipPath1); fill:none; stroke:black;" height="22"
      /><rect x="342" y="79" width="22" style="fill:none; stroke:black;" height="22"
      /><polygon style="fill:none; stroke:black;" points=" 301 116 249 116"
      /><rect x="290" y="105" width="22" style="clip-path:url(#clipPath2); stroke:none;" height="22"
      /><rect x="290" y="105" width="22" style="clip-path:url(#clipPath2); stroke:none;" height="22"
      /><rect x="290" y="105" width="22" style="clip-path:url(#clipPath2); fill:none; stroke:black;" height="22"
      /><rect x="290" y="105" width="22" style="fill:none; stroke:black;" height="22"
      /><polygon style="fill:none; stroke:black;" points=" 249 116 197 142"
      /><polygon style="fill:none; stroke:black;" points=" 249 116 197 90"
      /><circle style="clip-path:url(#clipPath3); stroke:none;" r="11" cx="249" cy="116"
      /><rect x="238" y="105" width="22" style="clip-path:url(#clipPath3); stroke:none;" height="22"
      /><rect x="238" y="105" width="22" style="clip-path:url(#clipPath3); fill:none; stroke:black;" height="22"
      /><circle style="fill:none; stroke:black;" r="11" cx="249" cy="116"
      /><polygon style="fill:none; stroke:black;" points=" 197 142 145 142"
      /><circle style="clip-path:url(#clipPath4); stroke:none;" r="11" cx="197" cy="142"
      /><rect x="186" y="131" width="22" style="clip-path:url(#clipPath4); stroke:none;" height="22"
      /><rect x="186" y="131" width="22" style="clip-path:url(#clipPath4); fill:none; stroke:black;" height="22"
      /><circle style="fill:none; stroke:black;" r="11" cx="197" cy="142"
      /><polygon style="fill:none; stroke:black;" points=" 145 142 93 142"
      /><rect x="134" y="131" width="22" style="clip-path:url(#clipPath5); stroke:none;" height="22"
      /><rect x="134" y="131" width="22" style="clip-path:url(#clipPath5); stroke:none;" height="22"
      /><rect x="134" y="131" width="22" style="clip-path:url(#clipPath5); fill:none; stroke:black;" height="22"
      /><rect x="134" y="131" width="22" style="fill:none; stroke:black;" height="22"
      /><polygon style="fill:none; stroke:black;" points=" 93 142 41 142"
      /><circle style="clip-path:url(#clipPath6); stroke:none;" r="11" cx="93" cy="142"
      /><rect x="82" y="131" width="22" style="clip-path:url(#clipPath6); stroke:none;" height="22"
      /><rect x="82" y="131" width="22" style="clip-path:url(#clipPath6); fill:none; stroke:black;" height="22"
      /><circle style="fill:none; stroke:black;" r="11" cx="93" cy="142"
      /><polygon style="clip-path:url(#clipPath7); stroke:none;" points=" 41 131 52 142 41 153 30 142"
      /><rect x="30" y="131" width="22" style="clip-path:url(#clipPath7); fill:rgb(143,204,233); stroke:none;" height="22"
      /><rect x="30" y="131" width="22" style="clip-path:url(#clipPath7); fill:none; stroke:black;" height="22"
      /><polygon style="fill:none; stroke:black;" points=" 41 131 52 142 41 153 30 142"
      /><rect x="71" y="145" width="5" style="stroke:none;" height="10"
    /></g
    ><g style="font-family:'Serif'; text-rendering:optimizeSpeed; "
    ><path style="stroke:none;" d="M72.8906 153.6875 C72.4844 153.6875 72.1562 154.0469 72.1562 154.4219 C72.1562 154.8125 72.4844 155.1562 72.8906 155.1562 C73.2969 155.1562 73.6406 154.8125 73.6406 154.4219 C73.6406 154.0469 73.2969 153.6875 72.8906 153.6875 ZM74.4688 147.5781 C74.7188 147.8906 74.875 148.2656 74.8906 148.6562 C74.8906 149.1875 74.625 149.5 74.0312 149.7656 L73.4062 150.0156 C72.6406 150.3125 72.3906 150.5469 72.3906 150.9375 C72.3906 151.1094 72.4531 151.3438 72.5781 151.8125 L72.7344 152.3438 L73.1094 152.3438 L73.0938 151.5312 C73.0938 151.0938 73.2031 150.9688 73.7812 150.7344 L74.2031 150.5625 C75.0312 150.2188 75.4531 149.6875 75.4531 148.8438 C75.4531 147.1562 73.6562 146.1875 72.5 146.0312 C72.1094 146.125 71.9062 146.2969 71.9062 146.6406 C71.9062 146.9375 72.0625 147.1562 72.7188 147.2656 L74.4688 147.5781 Z"
      /><rect x="57" y="145" width="5" style="fill:white; stroke:none;" height="10"
      /><path style="stroke:none;" d="M58.8906 153.6875 C58.4844 153.6875 58.1562 154.0469 58.1562 154.4219 C58.1562 154.8125 58.4844 155.1562 58.8906 155.1562 C59.2969 155.1562 59.6406 154.8125 59.6406 154.4219 C59.6406 154.0469 59.2969 153.6875 58.8906 153.6875 ZM60.4688 147.5781 C60.7188 147.8906 60.875 148.2656 60.8906 148.6562 C60.8906 149.1875 60.625 149.5 60.0312 149.7656 L59.4062 150.0156 C58.6406 150.3125 58.3906 150.5469 58.3906 150.9375 C58.3906 151.1094 58.4531 151.3438 58.5781 151.8125 L58.7344 152.3438 L59.1094 152.3438 L59.0938 151.5312 C59.0938 151.0938 59.2031 150.9688 59.7812 150.7344 L60.2031 150.5625 C61.0312 150.2188 61.4531 149.6875 61.4531 148.8438 C61.4531 147.1562 59.6562 146.1875 58.5 146.0312 C58.1094 146.125 57.9062 146.2969 57.9062 146.6406 C57.9062 146.9375 58.0625 147.1562 58.7188 147.2656 L60.4688 147.5781 Z"
      /><rect x="123" y="145" width="5" style="fill:white; stroke:none;" height="10"
      /><path style="stroke:none;" d="M124.8906 153.6875 C124.4844 153.6875 124.1562 154.0469 124.1562 154.4219 C124.1562 154.8125 124.4844 155.1562 124.8906 155.1562 C125.2969 155.1562 125.6406 154.8125 125.6406 154.4219 C125.6406 154.0469 125.2969 153.6875 124.8906 153.6875 ZM126.4688 147.5781 C126.7188 147.8906 126.875 148.2656 126.8906 148.6562 C126.8906 149.1875 126.625 149.5 126.0312 149.7656 L125.4062 150.0156 C124.6406 150.3125 124.3906 150.5469 124.3906 150.9375 C124.3906 151.1094 124.4531 151.3438 124.5781 151.8125 L124.7344 152.3438 L125.1094 152.3438 L125.0938 151.5312 C125.0938 151.0938 125.2031 150.9688 125.7812 150.7344 L126.2031 150.5625 C127.0312 150.2188 127.4531 149.6875 127.4531 148.8438 C127.4531 147.1562 125.6562 146.1875 124.5 146.0312 C124.1094 146.125 123.9062 146.2969 123.9062 146.6406 C123.9062 146.9375 124.0625 147.1562 124.7188 147.2656 L126.4688 147.5781 Z"
      /><rect x="109" y="145" width="5" style="fill:white; stroke:none;" height="10"
      /><path style="stroke:none;" d="M110.8906 153.6875 C110.4844 153.6875 110.1562 154.0469 110.1562 154.4219 C110.1562 154.8125 110.4844 155.1562 110.8906 155.1562 C111.2969 155.1562 111.6406 154.8125 111.6406 154.4219 C111.6406 154.0469 111.2969 153.6875 110.8906 153.6875 ZM112.4688 147.5781 C112.7188 147.8906 112.875 148.2656 112.8906 148.6562 C112.8906 149.1875 112.625 149.5 112.0312 149.7656 L111.4062 150.0156 C110.6406 150.3125 110.3906 150.5469 110.3906 150.9375 C110.3906 151.1094 110.4531 151.3438 110.5781 151.8125 L110.7344 152.3438 L111.1094 152.3438 L111.0938 151.5312 C111.0938 151.0938 111.2031 150.9688 111.7812 150.7344 L112.2031 150.5625 C113.0312 150.2188 113.4531 149.6875 113.4531 148.8438 C113.4531 147.1562 111.6562 146.1875 110.5 146.0312 C110.1094 146.125 109.9062 146.2969 109.9062 146.6406 C109.9062 146.9375 110.0625 147.1562 110.7188 147.2656 L112.4688 147.5781 Z"
      /><rect x="175" y="145" width="5" style="fill:white; stroke:none;" height="10"
      /><path style="stroke:none;" d="M176.8906 153.6875 C176.4844 153.6875 176.1562 154.0469 176.1562 154.4219 C176.1562 154.8125 176.4844 155.1562 176.8906 155.1562 C177.2969 155.1562 177.6406 154.8125 177.6406 154.4219 C177.6406 154.0469 177.2969 153.6875 176.8906 153.6875 ZM178.4688 147.5781 C178.7188 147.8906 178.875 148.2656 178.8906 148.6562 C178.8906 149.1875 178.625 149.5 178.0312 149.7656 L177.4062 150.0156 C176.6406 150.3125 176.3906 150.5469 176.3906 150.9375 C176.3906 151.1094 176.4531 151.3438 176.5781 151.8125 L176.7344 152.3438 L177.1094 152.3438 L177.0938 151.5312 C177.0938 151.0938 177.2031 150.9688 177.7812 150.7344 L178.2031 150.5625 C179.0312 150.2188 179.4531 149.6875 179.4531 148.8438 C179.4531 147.1562 177.6562 146.1875 176.5 146.0312 C176.1094 146.125 175.9062 146.2969 175.9062 146.6406 C175.9062 146.9375 176.0625 147.1562 176.7188 147.2656 L178.4688 147.5781 Z"
      /><rect x="161" y="145" width="5" style="fill:white; stroke:none;" height="10"
      /><path style="stroke:none;" d="M162.8906 153.6875 C162.4844 153.6875 162.1562 154.0469 162.1562 154.4219 C162.1562 154.8125 162.4844 155.1562 162.8906 155.1562 C163.2969 155.1562 163.6406 154.8125 163.6406 154.4219 C163.6406 154.0469 163.2969 153.6875 162.8906 153.6875 ZM164.4688 147.5781 C164.7188 147.8906 164.875 148.2656 164.8906 148.6562 C164.8906 149.1875 164.625 149.5 164.0312 149.7656 L163.4062 150.0156 C162.6406 150.3125 162.3906 150.5469 162.3906 150.9375 C162.3906 151.1094 162.4531 151.3438 162.5781 151.8125 L162.7344 152.3438 L163.1094 152.3438 L163.0938 151.5312 C163.0938 151.0938 163.2031 150.9688 163.7812 150.7344 L164.2031 150.5625 C165.0312 150.2188 165.4531 149.6875 165.4531 148.8438 C165.4531 147.1562 163.6562 146.1875 162.5 146.0312 C162.1094 146.125 161.9062 146.2969 161.9062 146.6406 C161.9062 146.9375 162.0625 147.1562 162.7188 147.2656 L164.4688 147.5781 Z"
      /><polygon style="fill:none;" points=" 197 90 145 90"
      /><circle style="fill:white; clip-path:url(#clipPath8); stroke:none;" r="11" cx="197" cy="90"
      /><rect x="186" y="79" width="22" style="clip-path:url(#clipPath8); fill:white; stroke:none;" height="22"
      /><rect x="186" y="79" width="22" style="fill:none; clip-path:url(#clipPath8);" height="22"
      /><circle r="11" style="fill:none;" cx="197" cy="90"
      /><rect x="134" y="79" width="22" style="clip-path:url(#clipPath9); fill:white; stroke:none;" height="22"
      /><rect x="134" y="79" width="22" style="clip-path:url(#clipPath9); fill:white; stroke:none;" height="22"
      /><rect x="134" y="79" width="22" style="fill:none; clip-path:url(#clipPath9);" height="22"
      /><rect x="134" width="22" height="22" y="79" style="fill:none;"
      /><rect x="175" y="93" width="5" style="fill:white; stroke:none;" height="10"
      /><path style="stroke:none;" d="M176.8906 101.6875 C176.4844 101.6875 176.1562 102.0469 176.1562 102.4219 C176.1562 102.8125 176.4844 103.1562 176.8906 103.1562 C177.2969 103.1562 177.6406 102.8125 177.6406 102.4219 C177.6406 102.0469 177.2969 101.6875 176.8906 101.6875 ZM178.4688 95.5781 C178.7188 95.8906 178.875 96.2656 178.8906 96.6562 C178.8906 97.1875 178.625 97.5 178.0312 97.7656 L177.4062 98.0156 C176.6406 98.3125 176.3906 98.5469 176.3906 98.9375 C176.3906 99.1094 176.4531 99.3438 176.5781 99.8125 L176.7344 100.3438 L177.1094 100.3438 L177.0938 99.5312 C177.0938 99.0938 177.2031 98.9688 177.7812 98.7344 L178.2031 98.5625 C179.0312 98.2188 179.4531 97.6875 179.4531 96.8438 C179.4531 95.1562 177.6562 94.1875 176.5 94.0312 C176.1094 94.125 175.9062 94.2969 175.9062 94.6406 C175.9062 94.9375 176.0625 95.1562 176.7188 95.2656 L178.4688 95.5781 Z"
      /><rect x="161" y="93" width="5" style="fill:white; stroke:none;" height="10"
      /><path style="stroke:none;" d="M162.8906 101.6875 C162.4844 101.6875 162.1562 102.0469 162.1562 102.4219 C162.1562 102.8125 162.4844 103.1562 162.8906 103.1562 C163.2969 103.1562 163.6406 102.8125 163.6406 102.4219 C163.6406 102.0469 163.2969 101.6875 162.8906 101.6875 ZM164.4688 95.5781 C164.7188 95.8906 164.875 96.2656 164.8906 96.6562 C164.8906 97.1875 164.625 97.5 164.0312 97.7656 L163.4062 98.0156 C162.6406 98.3125 162.3906 98.5469 162.3906 98.9375 C162.3906 99.1094 162.4531 99.3438 162.5781 99.8125 L162.7344 100.3438 L163.1094 100.3438 L163.0938 99.5312 C163.0938 99.0938 163.2031 98.9688 163.7812 98.7344 L164.2031 98.5625 C165.0312 98.2188 165.4531 97.6875 165.4531 96.8438 C165.4531 95.1562 163.6562 94.1875 162.5 94.0312 C162.1094 94.125 161.9062 94.2969 161.9062 94.6406 C161.9062 94.9375 162.0625 95.1562 162.7188 95.2656 L164.4688 95.5781 Z"
      /><rect x="231" y="127" width="5" style="fill:white; stroke:none;" height="10"
      /><path style="stroke:none;" d="M232.8906 135.6875 C232.4844 135.6875 232.1562 136.0469 232.1562 136.4219 C232.1562 136.8125 232.4844 137.1562 232.8906 137.1562 C233.2969 137.1562 233.6406 136.8125 233.6406 136.4219 C233.6406 136.0469 233.2969 135.6875 232.8906 135.6875 ZM234.4688 129.5781 C234.7188 129.8906 234.875 130.2656 234.8906 130.6562 C234.8906 131.1875 234.625 131.5 234.0312 131.7656 L233.4062 132.0156 C232.6406 132.3125 232.3906 132.5469 232.3906 132.9375 C232.3906 133.1094 232.4531 133.3438 232.5781 133.8125 L232.7344 134.3438 L233.1094 134.3438 L233.0938 133.5312 C233.0938 133.0938 233.2031 132.9688 233.7812 132.7344 L234.2031 132.5625 C235.0312 132.2188 235.4531 131.6875 235.4531 130.8438 C235.4531 129.1562 233.6562 128.1875 232.5 128.0312 C232.1094 128.125 231.9062 128.2969 231.9062 128.6406 C231.9062 128.9375 232.0625 129.1562 232.7188 129.2656 L234.4688 129.5781 Z"
      /><rect x="216" y="135" width="5" style="fill:white; stroke:none;" height="10"
      /><path style="stroke:none;" d="M217.8906 143.6875 C217.4844 143.6875 217.1562 144.0469 217.1562 144.4219 C217.1562 144.8125 217.4844 145.1562 217.8906 145.1562 C218.2969 145.1562 218.6406 144.8125 218.6406 144.4219 C218.6406 144.0469 218.2969 143.6875 217.8906 143.6875 ZM219.4688 137.5781 C219.7188 137.8906 219.875 138.2656 219.8906 138.6562 C219.8906 139.1875 219.625 139.5 219.0312 139.7656 L218.4062 140.0156 C217.6406 140.3125 217.3906 140.5469 217.3906 140.9375 C217.3906 141.1094 217.4531 141.3438 217.5781 141.8125 L217.7344 142.3438 L218.1094 142.3438 L218.0938 141.5312 C218.0938 141.0938 218.2031 140.9688 218.7812 140.7344 L219.2031 140.5625 C220.0312 140.2188 220.4531 139.6875 220.4531 138.8438 C220.4531 137.1562 218.6562 136.1875 217.5 136.0312 C217.1094 136.125 216.9062 136.2969 216.9062 136.6406 C216.9062 136.9375 217.0625 137.1562 217.7188 137.2656 L219.4688 137.5781 Z"
      /><rect x="224" y="109" width="5" style="fill:white; stroke:none;" height="10"
      /><path style="stroke:none;" d="M225.8906 117.6875 C225.4844 117.6875 225.1562 118.0469 225.1562 118.4219 C225.1562 118.8125 225.4844 119.1562 225.8906 119.1562 C226.2969 119.1562 226.6406 118.8125 226.6406 118.4219 C226.6406 118.0469 226.2969 117.6875 225.8906 117.6875 ZM227.4688 111.5781 C227.7188 111.8906 227.875 112.2656 227.8906 112.6562 C227.8906 113.1875 227.625 113.5 227.0312 113.7656 L226.4062 114.0156 C225.6406 114.3125 225.3906 114.5469 225.3906 114.9375 C225.3906 115.1094 225.4531 115.3438 225.5781 115.8125 L225.7344 116.3438 L226.1094 116.3438 L226.0938 115.5312 C226.0938 115.0938 226.2031 114.9688 226.7812 114.7344 L227.2031 114.5625 C228.0312 114.2188 228.4531 113.6875 228.4531 112.8438 C228.4531 111.1562 226.6562 110.1875 225.5 110.0312 C225.1094 110.125 224.9062 110.2969 224.9062 110.6406 C224.9062 110.9375 225.0625 111.1562 225.7188 111.2656 L227.4688 111.5781 Z"
      /><rect x="209" y="101" width="5" style="fill:white; stroke:none;" height="10"
      /><path style="stroke:none;" d="M210.8906 109.6875 C210.4844 109.6875 210.1562 110.0469 210.1562 110.4219 C210.1562 110.8125 210.4844 111.1562 210.8906 111.1562 C211.2969 111.1562 211.6406 110.8125 211.6406 110.4219 C211.6406 110.0469 211.2969 109.6875 210.8906 109.6875 ZM212.4688 103.5781 C212.7188 103.8906 212.875 104.2656 212.8906 104.6562 C212.8906 105.1875 212.625 105.5 212.0312 105.7656 L211.4062 106.0156 C210.6406 106.3125 210.3906 106.5469 210.3906 106.9375 C210.3906 107.1094 210.4531 107.3438 210.5781 107.8125 L210.7344 108.3438 L211.1094 108.3438 L211.0938 107.5312 C211.0938 107.0938 211.2031 106.9688 211.7812 106.7344 L212.2031 106.5625 C213.0312 106.2188 213.4531 105.6875 213.4531 104.8438 C213.4531 103.1562 211.6562 102.1875 210.5 102.0312 C210.1094 102.125 209.9062 102.2969 209.9062 102.6406 C209.9062 102.9375 210.0625 103.1562 210.7188 103.2656 L212.4688 103.5781 Z"
      /><rect x="279" y="119" width="5" style="fill:white; stroke:none;" height="10"
      /><path style="stroke:none;" d="M280.8906 127.6875 C280.4844 127.6875 280.1562 128.0469 280.1562 128.4219 C280.1562 128.8125 280.4844 129.1562 280.8906 129.1562 C281.2969 129.1562 281.6406 128.8125 281.6406 128.4219 C281.6406 128.0469 281.2969 127.6875 280.8906 127.6875 ZM282.4688 121.5781 C282.7188 121.8906 282.875 122.2656 282.8906 122.6562 C282.8906 123.1875 282.625 123.5 282.0312 123.7656 L281.4062 124.0156 C280.6406 124.3125 280.3906 124.5469 280.3906 124.9375 C280.3906 125.1094 280.4531 125.3438 280.5781 125.8125 L280.7344 126.3438 L281.1094 126.3438 L281.0938 125.5312 C281.0938 125.0938 281.2031 124.9688 281.7812 124.7344 L282.2031 124.5625 C283.0312 124.2188 283.4531 123.6875 283.4531 122.8438 C283.4531 121.1562 281.6562 120.1875 280.5 120.0312 C280.1094 120.125 279.9062 120.2969 279.9062 120.6406 C279.9062 120.9375 280.0625 121.1562 280.7188 121.2656 L282.4688 121.5781 Z"
      /><rect x="265" y="119" width="5" style="fill:white; stroke:none;" height="10"
      /><path style="stroke:none;" d="M266.8906 127.6875 C266.4844 127.6875 266.1562 128.0469 266.1562 128.4219 C266.1562 128.8125 266.4844 129.1562 266.8906 129.1562 C267.2969 129.1562 267.6406 128.8125 267.6406 128.4219 C267.6406 128.0469 267.2969 127.6875 266.8906 127.6875 ZM268.4688 121.5781 C268.7188 121.8906 268.875 122.2656 268.8906 122.6562 C268.8906 123.1875 268.625 123.5 268.0312 123.7656 L267.4062 124.0156 C266.6406 124.3125 266.3906 124.5469 266.3906 124.9375 C266.3906 125.1094 266.4531 125.3438 266.5781 125.8125 L266.7344 126.3438 L267.1094 126.3438 L267.0938 125.5312 C267.0938 125.0938 267.2031 124.9688 267.7812 124.7344 L268.2031 124.5625 C269.0312 124.2188 269.4531 123.6875 269.4531 122.8438 C269.4531 121.1562 267.6562 120.1875 266.5 120.0312 C266.1094 120.125 265.9062 120.2969 265.9062 120.6406 C265.9062 120.9375 266.0625 121.1562 266.7188 121.2656 L268.4688 121.5781 Z"
      /><circle style="fill:white; clip-path:url(#clipPath10); stroke:none;" r="11" cx="301" cy="64"
      /><rect x="290" y="53" width="22" style="clip-path:url(#clipPath10); fill:white; stroke:none;" height="22"
      /><rect x="290" y="53" width="22" style="fill:none; clip-path:url(#clipPath10);" height="22"
      /><circle r="11" style="fill:none;" cx="301" cy="64"
      /><path style="stroke:none;" d="M295.5156 40.3594 C296.5781 40.3594 297.1094 41.1094 297.1094 42.2969 C297.1094 43.5 296.4531 44.2969 295.6094 44.2969 C294.5156 44.2969 293.8438 43.3125 293.7188 41.4844 C294.25 40.6875 294.9688 40.3594 295.5156 40.3594 ZM295.6094 45.1562 C296.9844 45.1562 298.125 44 298.125 42.2969 C298.125 40.4688 297.1875 39.5469 295.7031 39.5469 C295 39.5469 294.2344 39.9531 293.6875 40.6094 C293.7344 37.875 294.7656 36.9531 295.9531 36.9531 C296.5 36.9531 297.0312 37.2031 297.375 37.625 L297.9688 36.9375 C297.5 36.4219 296.8438 36.0312 295.9219 36.0312 C294.2188 36.0312 292.6719 37.3594 292.6719 40.7969 C292.6719 43.7031 293.9219 45.1562 295.6094 45.1562 ZM299.7694 45 L300.8632 45 L300.8632 40.2656 C301.4569 39.5938 302.0038 39.2812 302.5038 39.2812 C303.3319 39.2812 303.7069 39.7969 303.7069 41.0156 L303.7069 45 L304.8007 45 L304.8007 40.2656 C305.41 39.5938 305.9413 39.2812 306.4413 39.2812 C307.2694 39.2812 307.66 39.7969 307.66 41.0156 L307.66 45 L308.7538 45 L308.7538 40.875 C308.7538 39.2031 308.1132 38.3125 306.7694 38.3125 C305.9725 38.3125 305.3007 38.8281 304.6288 39.5625 C304.3632 38.7969 303.8163 38.3125 302.8163 38.3125 C302.0507 38.3125 301.3632 38.8125 300.8007 39.4375 L300.7538 39.4375 L300.66 38.4844 L299.7694 38.4844 L299.7694 45 Z"
      /><rect x="335" y="101" width="5" style="fill:white; stroke:none;" height="10"
      /><path style="stroke:none;" d="M336.8906 109.6875 C336.4844 109.6875 336.1562 110.0469 336.1562 110.4219 C336.1562 110.8125 336.4844 111.1562 336.8906 111.1562 C337.2969 111.1562 337.6406 110.8125 337.6406 110.4219 C337.6406 110.0469 337.2969 109.6875 336.8906 109.6875 ZM338.4688 103.5781 C338.7188 103.8906 338.875 104.2656 338.8906 104.6562 C338.8906 105.1875 338.625 105.5 338.0312 105.7656 L337.4062 106.0156 C336.6406 106.3125 336.3906 106.5469 336.3906 106.9375 C336.3906 107.1094 336.4531 107.3438 336.5781 107.8125 L336.7344 108.3438 L337.1094 108.3438 L337.0938 107.5312 C337.0938 107.0938 337.2031 106.9688 337.7812 106.7344 L338.2031 106.5625 C339.0312 106.2188 339.4531 105.6875 339.4531 104.8438 C339.4531 103.1562 337.6562 102.1875 336.5 102.0312 C336.1094 102.125 335.9062 102.2969 335.9062 102.6406 C335.9062 102.9375 336.0625 103.1562 336.7188 103.2656 L338.4688 103.5781 Z"
      /><rect x="320" y="109" width="5" style="fill:white; stroke:none;" height="10"
      /><path style="stroke:none;" d="M321.8906 117.6875 C321.4844 117.6875 321.1562 118.0469 321.1562 118.4219 C321.1562 118.8125 321.4844 119.1562 321.8906 119.1562 C322.2969 119.1562 322.6406 118.8125 322.6406 118.4219 C322.6406 118.0469 322.2969 117.6875 321.8906 117.6875 ZM323.4688 111.5781 C323.7188 111.8906 323.875 112.2656 323.8906 112.6562 C323.8906 113.1875 323.625 113.5 323.0312 113.7656 L322.4062 114.0156 C321.6406 114.3125 321.3906 114.5469 321.3906 114.9375 C321.3906 115.1094 321.4531 115.3438 321.5781 115.8125 L321.7344 116.3438 L322.1094 116.3438 L322.0938 115.5312 C322.0938 115.0938 322.2031 114.9688 322.7812 114.7344 L323.2031 114.5625 C324.0312 114.2188 324.4531 113.6875 324.4531 112.8438 C324.4531 111.1562 322.6562 110.1875 321.5 110.0312 C321.1094 110.125 320.9062 110.2969 320.9062 110.6406 C320.9062 110.9375 321.0625 111.1562 321.7188 111.2656 L323.4688 111.5781 Z"
      /><rect x="328" y="83" width="5" style="fill:white; stroke:none;" height="10"
      /><path style="stroke:none;" d="M329.8906 91.6875 C329.4844 91.6875 329.1562 92.0469 329.1562 92.4219 C329.1562 92.8125 329.4844 93.1562 329.8906 93.1562 C330.2969 93.1562 330.6406 92.8125 330.6406 92.4219 C330.6406 92.0469 330.2969 91.6875 329.8906 91.6875 ZM331.4688 85.5781 C331.7188 85.8906 331.875 86.2656 331.8906 86.6562 C331.8906 87.1875 331.625 87.5 331.0312 87.7656 L330.4062 88.0156 C329.6406 88.3125 329.3906 88.5469 329.3906 88.9375 C329.3906 89.1094 329.4531 89.3438 329.5781 89.8125 L329.7344 90.3438 L330.1094 90.3438 L330.0938 89.5312 C330.0938 89.0938 330.2031 88.9688 330.7812 88.7344 L331.2031 88.5625 C332.0312 88.2188 332.4531 87.6875 332.4531 86.8438 C332.4531 85.1562 330.6562 84.1875 329.5 84.0312 C329.1094 84.125 328.9062 84.2969 328.9062 84.6406 C328.9062 84.9375 329.0625 85.1562 329.7188 85.2656 L331.4688 85.5781 Z"
      /><rect x="313" y="75" width="5" style="fill:white; stroke:none;" height="10"
      /><path style="stroke:none;" d="M314.8906 83.6875 C314.4844 83.6875 314.1562 84.0469 314.1562 84.4219 C314.1562 84.8125 314.4844 85.1562 314.8906 85.1562 C315.2969 85.1562 315.6406 84.8125 315.6406 84.4219 C315.6406 84.0469 315.2969 83.6875 314.8906 83.6875 ZM316.4688 77.5781 C316.7188 77.8906 316.875 78.2656 316.8906 78.6562 C316.8906 79.1875 316.625 79.5 316.0312 79.7656 L315.4062 80.0156 C314.6406 80.3125 314.3906 80.5469 314.3906 80.9375 C314.3906 81.1094 314.4531 81.3438 314.5781 81.8125 L314.7344 82.3438 L315.1094 82.3438 L315.0938 81.5312 C315.0938 81.0938 315.2031 80.9688 315.7812 80.7344 L316.2031 80.5625 C317.0312 80.2188 317.4531 79.6875 317.4531 78.8438 C317.4531 77.1562 315.6562 76.1875 314.5 76.0312 C314.1094 76.125 313.9062 76.2969 313.9062 76.6406 C313.9062 76.9375 314.0625 77.1562 314.7188 77.2656 L316.4688 77.5781 Z"
      /><rect x="369" y="93" width="5" style="fill:white; stroke:none;" height="10"
      /><path style="stroke:none;" d="M370.8906 101.6875 C370.4844 101.6875 370.1562 102.0469 370.1562 102.4219 C370.1562 102.8125 370.4844 103.1562 370.8906 103.1562 C371.2969 103.1562 371.6406 102.8125 371.6406 102.4219 C371.6406 102.0469 371.2969 101.6875 370.8906 101.6875 ZM372.4688 95.5781 C372.7188 95.8906 372.875 96.2656 372.8906 96.6562 C372.8906 97.1875 372.625 97.5 372.0312 97.7656 L371.4062 98.0156 C370.6406 98.3125 370.3906 98.5469 370.3906 98.9375 C370.3906 99.1094 370.4531 99.3438 370.5781 99.8125 L370.7344 100.3438 L371.1094 100.3438 L371.0938 99.5312 C371.0938 99.0938 371.2031 98.9688 371.7812 98.7344 L372.2031 98.5625 C373.0312 98.2188 373.4531 97.6875 373.4531 96.8438 C373.4531 95.1562 371.6562 94.1875 370.5 94.0312 C370.1094 94.125 369.9062 94.2969 369.9062 94.6406 C369.9062 94.9375 370.0625 95.1562 370.7188 95.2656 L372.4688 95.5781 Z"
    /></g
  ></g
></svg
>
