<?xml version="1.0"?>
<!DOCTYPE svg PUBLIC '-//W3C//DTD SVG 1.0//EN'
          'http://www.w3.org/TR/2001/REC-SVG-20010904/DTD/svg10.dtd'>
<svg xmlns:xlink="http://www.w3.org/1999/xlink" style="fill-opacity:1; color-rendering:auto; color-interpolation:auto; text-rendering:auto; stroke:black; stroke-linecap:square; stroke-miterlimit:10; shape-rendering:auto; stroke-opacity:1; fill:black; stroke-dasharray:none; font-weight:normal; stroke-width:1; font-family:'Dialog'; font-style:normal; stroke-linejoin:miter; font-size:12px; stroke-dashoffset:0; image-rendering:auto;" viewBox="0 0 446 209" xmlns="http://www.w3.org/2000/svg"
><!--Generated by the Batik Graphics2D SVG Generator--><defs id="genericDefs"
  /><g
  ><defs id="defs1"
    ><clipPath clipPathUnits="userSpaceOnUse" id="clipPath1"
      ><path d="M342 74 L364 74 L364 96 L342 96 L342 74 Z"
      /></clipPath
      ><clipPath clipPathUnits="userSpaceOnUse" id="clipPath2"
      ><path d="M290 74 L312 74 L312 96 L290 96 L290 74 Z"
      /></clipPath
      ><clipPath clipPathUnits="userSpaceOnUse" id="clipPath3"
      ><path d="M260 85 C260 91.0751 255.0751 96 249 96 C242.9249 96 238 91.0751 238 85 C238 78.9249 242.9249 74 249 74 C255.0751 74 260 78.9249 260 85 Z"
      /></clipPath
      ><clipPath clipPathUnits="userSpaceOnUse" id="clipPath4"
      ><path d="M208 130 C208 136.0751 203.0751 141 197 141 C190.9249 141 186 136.0751 186 130 C186 123.9249 190.9249 119 197 119 C203.0751 119 208 123.9249 208 130 Z"
      /></clipPath
      ><clipPath clipPathUnits="userSpaceOnUse" id="clipPath5"
      ><path d="M134 157 L156 157 L156 179 L134 179 L134 157 Z"
      /></clipPath
      ><clipPath clipPathUnits="userSpaceOnUse" id="clipPath6"
      ><path d="M104 168 C104 174.0751 99.0751 179 93 179 C86.9249 179 82 174.0751 82 168 C82 161.9249 86.9249 157 93 157 C99.0751 157 104 161.9249 104 168 Z"
      /></clipPath
      ><clipPath clipPathUnits="userSpaceOnUse" id="clipPath7"
      ><path style="fill-rule:evenodd;" d="M41 157 L52 168 L41 179 L30 168 Z"
      /></clipPath
      ><clipPath clipPathUnits="userSpaceOnUse" id="clipPath8"
      ><path d="M134 82 L156 82 L156 104 L134 104 L134 82 Z"
      /></clipPath
      ><clipPath clipPathUnits="userSpaceOnUse" id="clipPath9"
      ><path d="M104 93 C104 99.0751 99.0751 104 93 104 C86.9249 104 82 99.0751 82 93 C82 86.9249 86.9249 82 93 82 C99.0751 82 104 86.9249 104 93 Z"
      /></clipPath
      ><clipPath clipPathUnits="userSpaceOnUse" id="clipPath10"
      ><path d="M208 41 C208 47.0751 203.0751 52 197 52 C190.9249 52 186 47.0751 186 41 C186 34.9249 190.9249 30 197 30 C203.0751 30 208 34.9249 208 41 Z"
      /></clipPath
      ><clipPath clipPathUnits="userSpaceOnUse" id="clipPath11"
      ><path d="M134 30 L156 30 L156 52 L134 52 L134 30 Z"
      /></clipPath
      ><clipPath clipPathUnits="userSpaceOnUse" id="clipPath12"
      ><path d="M104 41 C104 47.0751 99.0751 52 93 52 C86.9249 52 82 47.0751 82 41 C82 34.9249 86.9249 30 93 30 C99.0751 30 104 34.9249 104 41 Z"
      /></clipPath
    ></defs
    ><g style="fill:white; text-rendering:optimizeSpeed; stroke:white;"
    ><rect x="0" width="446" height="209" y="0" style="stroke:none;"
      /><polygon style="fill:none; stroke:black;" points=" 405 85 353 85"
      /><path d="M405 74 C399.5 79.5 410.5 90.5 405 96" style="fill:none; stroke:black;"
      /><polygon style="fill:none; stroke:black;" points=" 353 85 301 85"
      /><rect x="342" y="74" width="22" style="clip-path:url(#clipPath1); stroke:none;" height="22"
      /><rect x="342" y="74" width="22" style="clip-path:url(#clipPath1); fill:rgb(0,144,188); stroke:none;" height="22"
      /><rect x="342" y="74" width="22" style="clip-path:url(#clipPath1); fill:none; stroke:black;" height="22"
      /><rect x="342" y="74" width="22" style="fill:none; stroke:black;" height="22"
      /><polygon style="fill:none; stroke:black;" points=" 301 85 249 85"
      /><rect x="290" y="74" width="22" style="clip-path:url(#clipPath2); stroke:none;" height="22"
      /><rect x="290" y="74" width="22" style="clip-path:url(#clipPath2); fill:rgb(0,144,188); stroke:none;" height="22"
      /><rect x="290" y="74" width="22" style="clip-path:url(#clipPath2); fill:none; stroke:black;" height="22"
      /><rect x="290" y="74" width="22" style="fill:none; stroke:black;" height="22"
      /><polygon style="fill:none; stroke:black;" points=" 249 85 197 130"
      /><polygon style="fill:none; stroke:black;" points=" 249 85 197 41"
      /><circle style="clip-path:url(#clipPath3); stroke:none;" r="11" cx="249" cy="85"
      /><rect x="238" y="74" width="22" style="clip-path:url(#clipPath3); fill:rgb(0,166,81); stroke:none;" height="22"
      /><rect x="238" y="74" width="22" style="clip-path:url(#clipPath3); fill:none; stroke:black;" height="22"
      /><circle style="fill:none; stroke:black;" r="11" cx="249" cy="85"
      /><polygon style="fill:none; stroke:black;" points=" 197 130 145 168"
      /><polygon style="fill:none; stroke:black;" points=" 197 130 145 93"
      /><circle style="clip-path:url(#clipPath4); stroke:none;" r="11" cx="197" cy="130"
      /><rect x="186" y="119" width="22" style="clip-path:url(#clipPath4); fill:rgb(0,166,81); stroke:none;" height="22"
      /><rect x="186" y="119" width="22" style="clip-path:url(#clipPath4); fill:none; stroke:black;" height="22"
      /><circle style="fill:none; stroke:black;" r="11" cx="197" cy="130"
      /><polygon style="fill:none; stroke:black;" points=" 145 168 93 168"
      /><rect x="134" y="157" width="22" style="clip-path:url(#clipPath5); stroke:none;" height="22"
      /><rect x="134" y="157" width="22" style="clip-path:url(#clipPath5); fill:rgb(0,144,188); stroke:none;" height="22"
      /><rect x="134" y="157" width="22" style="clip-path:url(#clipPath5); fill:none; stroke:black;" height="22"
      /><rect x="134" y="157" width="22" style="fill:none; stroke:black;" height="22"
      /><polygon style="fill:none; stroke:black;" points=" 93 168 41 168"
      /><circle style="clip-path:url(#clipPath6); stroke:none;" r="11" cx="93" cy="168"
      /><rect x="82" y="157" width="22" style="clip-path:url(#clipPath6); fill:rgb(255,212,0); stroke:none;" height="22"
      /><rect x="82" y="157" width="22" style="clip-path:url(#clipPath6); fill:none; stroke:black;" height="22"
      /><circle style="fill:none; stroke:black;" r="11" cx="93" cy="168"
      /><polygon style="clip-path:url(#clipPath7); stroke:none;" points=" 41 157 52 168 41 179 30 168"
      /><rect x="30" y="157" width="22" style="clip-path:url(#clipPath7); fill:rgb(165,67,153); stroke:none;" height="22"
      /><rect x="30" y="157" width="22" style="clip-path:url(#clipPath7); fill:none; stroke:black;" height="22"
      /><polygon style="fill:none; stroke:black;" points=" 41 157 52 168 41 179 30 168"
      /><rect x="71" y="171" width="6" style="stroke:none;" height="10"
    /></g
    ><g style="font-family:'Serif'; text-rendering:optimizeSpeed; "
    ><path style="stroke:none;" d="M74.3438 180.6875 C73.2031 180.6875 72.5312 179.5 72.5312 177.2969 C72.5312 177.2188 72.5312 177.125 72.5312 177.0469 C73.0938 176.5 73.7188 176.3125 74.3438 176.3125 C75.3125 176.3125 75.9531 176.9844 75.9531 178.4531 C75.9531 179.9375 75.3125 180.6875 74.3438 180.6875 ZM76.5312 172.0781 C73.3438 172.4531 71.5625 174.7656 71.5625 177.4531 C71.5625 179.7812 72.6094 181.1719 74.3125 181.1719 C75.8438 181.1719 76.9219 180.1094 76.9219 178.2812 C76.9219 176.6875 75.9688 175.6562 74.5625 175.6562 C73.8281 175.6562 73.1406 175.9844 72.5781 176.5781 C72.7969 174.4062 74.0781 172.9688 76.5938 172.3906 L76.5312 172.0781 Z"
      /><rect x="56" y="172" width="8" style="fill:white; stroke:none;" height="8"
      /><path style="stroke:none;" d="M60.9844 177.7031 C60.9375 178.8906 60.1562 179.6562 59.3125 179.6562 C58.2656 179.6562 57.5 178.6875 57.5 176.7188 C57.5 175.2812 58.1562 174.1562 59.3438 174.1562 C60.1406 174.1562 60.7812 174.6875 61.0938 175.6406 L60.9844 177.7031 ZM62.9062 179.2812 C62.7344 179.375 62.5469 179.4219 62.3438 179.4219 C61.9531 179.4219 61.75 179.2188 61.75 178.4219 C61.75 177.4844 61.9688 175.5312 62.1875 173.8281 L62.0312 173.7188 L61.2344 173.9219 L61.1406 174.7969 C60.7812 174.0312 60.1562 173.6562 59.3906 173.6562 C58.0469 173.6562 56.5625 174.8438 56.5625 176.9531 C56.5625 179.0938 57.7188 180.1719 59.1406 180.1719 C60.0156 180.1719 60.6875 179.8125 61.0938 178.9844 C61.2031 179.8594 61.5156 180.1719 62.0156 180.1719 C62.4688 180.1719 62.7969 179.9062 63.0156 179.5625 L62.9062 179.2812 Z"
      /><rect x="122" y="171" width="7" style="fill:white; stroke:none;" height="9"
      /><path style="stroke:none;" d="M123 176.5156 L125.9531 172.2656 L125.9531 176.5156 L123 176.5156 ZM128.2812 176.5156 L126.8594 176.5156 L126.8594 171.125 L126.2344 171.125 L122.3438 176.6406 L122.3438 177.1875 L125.9531 177.1875 L125.9531 180 L126.8594 180 L126.8594 177.1875 L128.2812 177.1875 L128.2812 176.5156 Z"
      /><rect x="109" y="169" width="6" style="fill:white; stroke:none;" height="13"
      /><path style="stroke:none;" d="M111.0938 175.2031 C111.0938 173.6562 111.75 172.8125 112.7969 172.8125 C113.7188 172.8125 114.2656 173.4531 114.2656 174.5156 C114.2656 175.7188 113.5 176.4375 112.1875 176.7031 L112.2969 177.3125 C114.2188 177.2344 114.9375 178.2188 114.9375 179.4375 C114.9375 180.625 114.2344 181.4219 112.9531 181.4219 C112.25 181.4219 111.6562 181.1562 111.0938 180.7188 L111.0938 175.2031 ZM110.2031 181.9062 L110.1094 184.375 L110.2656 184.4844 L111.1562 184.2656 L111.0156 181.0938 C111.5469 181.8438 112.3594 182.1719 113.1719 182.1719 C114.5625 182.1719 115.8594 181.2188 115.8594 179.4844 C115.8594 177.9531 114.875 177.1094 113.125 177 C114.5625 176.6094 115.1875 175.4531 115.1875 174.4844 C115.1875 173.0938 114.1562 172.3125 112.9062 172.3125 C111.2969 172.3125 110.2188 173.5469 110.2188 175.5156 L110.2031 181.9062 Z"
      /><polygon style="fill:none;" points=" 145 93 93 93"
      /><rect x="134" y="82" width="22" style="clip-path:url(#clipPath8); fill:white; stroke:none;" height="22"
      /><rect x="134" y="82" width="22" style="clip-path:url(#clipPath8); fill:rgb(0,144,188); stroke:none;" height="22"
      /><rect x="134" y="82" width="22" style="fill:none; clip-path:url(#clipPath8);" height="22"
      /><rect x="134" width="22" height="22" y="82" style="fill:none;"
      /><circle style="fill:white; clip-path:url(#clipPath9); stroke:none;" r="11" cx="93" cy="93"
      /><rect x="82" y="82" width="22" style="clip-path:url(#clipPath9); fill:rgb(255,212,0); stroke:none;" height="22"
      /><rect x="82" y="82" width="22" style="fill:none; clip-path:url(#clipPath9);" height="22"
      /><circle r="11" style="fill:none;" cx="93" cy="93"
    /></g
    ><g style="fill:white; text-rendering:optimizeSpeed; font-size:14px; font-family:'SansSerif'; stroke:white;"
    ><rect x="85" width="15" height="10" y="110" style="stroke:none;"
      /><path d="M88.7031 121.1875 C90.5156 121.1875 91.9844 120.0938 91.9844 118.25 C91.9844 116.8594 91.0156 115.9375 89.8125 115.6562 L89.8125 115.5938 C90.8906 115.1875 91.6406 114.3594 91.6406 113.125 C91.6406 111.5 90.375 110.5469 88.6562 110.5469 C87.4688 110.5469 86.5469 111.0625 85.7812 111.7812 L86.4688 112.5938 C87.0469 112 87.7656 111.5938 88.5938 111.5938 C89.6562 111.5938 90.3281 112.2344 90.3281 113.2188 C90.3281 114.3281 89.6094 115.1719 87.4844 115.1719 L87.4844 116.1562 C89.8594 116.1562 90.6875 116.9844 90.6875 118.2031 C90.6875 119.3906 89.8125 120.125 88.5938 120.125 C87.4375 120.125 86.6562 119.5781 86.0469 118.9375 L85.4062 119.7812 C86.0781 120.5156 87.0938 121.1875 88.7031 121.1875 ZM97.02 121.1875 C99.1606 121.1875 100.5043 119.8906 100.5043 118.2656 C100.5043 116.75 99.5825 116.0469 98.395 115.5312 L96.9262 114.8906 C96.1293 114.5625 95.2387 114.1875 95.2387 113.1875 C95.2387 112.2656 95.9887 111.6719 97.145 111.6719 C98.0981 111.6719 98.8637 112.0469 99.4887 112.6406 L100.1762 111.8125 C99.4418 111.0625 98.3637 110.5469 97.145 110.5469 C95.2856 110.5469 93.9106 111.6875 93.9106 113.2656 C93.9106 114.7656 95.0512 115.5 96.0043 115.9062 L97.4887 116.5469 C98.4575 116.9844 99.1918 117.3125 99.1918 118.375 C99.1918 119.375 98.3793 120.0469 97.0356 120.0469 C95.9731 120.0469 94.9418 119.5469 94.2075 118.7812 L93.4262 119.6562 C94.3168 120.5938 95.5668 121.1875 97.02 121.1875 Z" style="fill:black; stroke:none;"
      /><rect x="122" width="7" height="9" y="96" style="stroke:none;"
    /></g
    ><g style="font-family:'Serif'; text-rendering:optimizeSpeed; "
    ><path style="stroke:none;" d="M123 101.5156 L125.9531 97.2656 L125.9531 101.5156 L123 101.5156 ZM128.2812 101.5156 L126.8594 101.5156 L126.8594 96.125 L126.2344 96.125 L122.3438 101.6406 L122.3438 102.1875 L125.9531 102.1875 L125.9531 105 L126.8594 105 L126.8594 102.1875 L128.2812 102.1875 L128.2812 101.5156 Z"
      /><rect x="109" y="94" width="6" style="fill:white; stroke:none;" height="13"
      /><path style="stroke:none;" d="M111.0938 100.2031 C111.0938 98.6562 111.75 97.8125 112.7969 97.8125 C113.7188 97.8125 114.2656 98.4531 114.2656 99.5156 C114.2656 100.7188 113.5 101.4375 112.1875 101.7031 L112.2969 102.3125 C114.2188 102.2344 114.9375 103.2188 114.9375 104.4375 C114.9375 105.625 114.2344 106.4219 112.9531 106.4219 C112.25 106.4219 111.6562 106.1562 111.0938 105.7188 L111.0938 100.2031 ZM110.2031 106.9062 L110.1094 109.375 L110.2656 109.4844 L111.1562 109.2656 L111.0156 106.0938 C111.5469 106.8438 112.3594 107.1719 113.1719 107.1719 C114.5625 107.1719 115.8594 106.2188 115.8594 104.4844 C115.8594 102.9531 114.875 102.1094 113.125 102 C114.5625 101.6094 115.1875 100.4531 115.1875 99.4844 C115.1875 98.0938 114.1562 97.3125 112.9062 97.3125 C111.2969 97.3125 110.2188 98.5469 110.2188 100.5156 L110.2031 106.9062 Z"
      /><rect x="181" y="144" width="6" style="fill:white; stroke:none;" height="9"
      /><path style="stroke:none;" d="M182.4219 152.0938 C183.0781 151.375 183.7031 150.7188 184.0312 150.3438 C185.9219 148.3125 186.5312 147.4688 186.5312 146.3594 C186.5312 145.0156 185.7812 144.0781 184.1562 144.0781 C182.9062 144.0781 181.7969 144.7031 181.5938 145.9688 C181.7188 146.2031 181.9062 146.3438 182.1562 146.3438 C182.4688 146.3438 182.6562 146.1094 182.7969 145.5938 L183.0938 144.6719 C183.3906 144.5938 183.6562 144.5625 183.8906 144.5625 C184.9219 144.5625 185.5469 145.3125 185.5469 146.4219 C185.5469 147.4375 184.9844 148.4219 183.7031 149.9062 C183.125 150.5781 182.3906 151.4375 181.6406 152.2812 L181.6406 153 L186.9219 153 L186.9219 152.0938 L182.4219 152.0938 Z"
      /><rect x="164" y="155" width="6" style="fill:white; stroke:none;" height="13"
      /><path style="stroke:none;" d="M166.0938 161.2031 C166.0938 159.6562 166.75 158.8125 167.7969 158.8125 C168.7188 158.8125 169.2656 159.4531 169.2656 160.5156 C169.2656 161.7188 168.5 162.4375 167.1875 162.7031 L167.2969 163.3125 C169.2188 163.2344 169.9375 164.2188 169.9375 165.4375 C169.9375 166.625 169.2344 167.4219 167.9531 167.4219 C167.25 167.4219 166.6562 167.1562 166.0938 166.7188 L166.0938 161.2031 ZM165.2031 167.9062 L165.1094 170.375 L165.2656 170.4844 L166.1562 170.2656 L166.0156 167.0938 C166.5469 167.8438 167.3594 168.1719 168.1719 168.1719 C169.5625 168.1719 170.8594 167.2188 170.8594 165.4844 C170.8594 163.9531 169.875 163.1094 168.125 163 C169.5625 162.6094 170.1875 161.4531 170.1875 160.4844 C170.1875 159.0938 169.1562 158.3125 167.9062 158.3125 C166.2969 158.3125 165.2188 159.5469 165.2188 161.5156 L165.2031 167.9062 Z"
      /><rect x="171" y="119" width="7" style="fill:white; stroke:none;" height="9"
      /><path style="stroke:none;" d="M172 124.5156 L174.9531 120.2656 L174.9531 124.5156 L172 124.5156 ZM177.2812 124.5156 L175.8594 124.5156 L175.8594 119.125 L175.2344 119.125 L171.3438 124.6406 L171.3438 125.1875 L174.9531 125.1875 L174.9531 128 L175.8594 128 L175.8594 125.1875 L177.2812 125.1875 L177.2812 124.5156 Z"
      /><rect x="154" y="105" width="6" style="fill:white; stroke:none;" height="13"
      /><path style="stroke:none;" d="M156.0938 111.2031 C156.0938 109.6562 156.75 108.8125 157.7969 108.8125 C158.7188 108.8125 159.2656 109.4531 159.2656 110.5156 C159.2656 111.7188 158.5 112.4375 157.1875 112.7031 L157.2969 113.3125 C159.2188 113.2344 159.9375 114.2188 159.9375 115.4375 C159.9375 116.625 159.2344 117.4219 157.9531 117.4219 C157.25 117.4219 156.6562 117.1562 156.0938 116.7188 L156.0938 111.2031 ZM155.2031 117.9062 L155.1094 120.375 L155.2656 120.4844 L156.1562 120.2656 L156.0156 117.0938 C156.5469 117.8438 157.3594 118.1719 158.1719 118.1719 C159.5625 118.1719 160.8594 117.2188 160.8594 115.4844 C160.8594 113.9531 159.875 113.1094 158.125 113 C159.5625 112.6094 160.1875 111.4531 160.1875 110.4844 C160.1875 109.0938 159.1562 108.3125 157.9062 108.3125 C156.2969 108.3125 155.2188 109.5469 155.2188 111.5156 L155.2031 117.9062 Z"
      /><polygon style="fill:none;" points=" 197 41 145 41"
      /><circle style="fill:white; clip-path:url(#clipPath10); stroke:none;" r="11" cx="197" cy="41"
      /><rect x="186" y="30" width="22" style="clip-path:url(#clipPath10); fill:rgb(0,166,81); stroke:none;" height="22"
      /><rect x="186" y="30" width="22" style="fill:none; clip-path:url(#clipPath10);" height="22"
      /><circle r="11" style="fill:none;" cx="197" cy="41"
      /><polygon style="fill:none;" points=" 145 41 93 41"
      /><rect x="134" y="30" width="22" style="clip-path:url(#clipPath11); fill:white; stroke:none;" height="22"
      /><rect x="134" y="30" width="22" style="clip-path:url(#clipPath11); fill:rgb(0,144,188); stroke:none;" height="22"
      /><rect x="134" y="30" width="22" style="fill:none; clip-path:url(#clipPath11);" height="22"
      /><rect x="134" width="22" height="22" y="30" style="fill:none;"
      /><circle style="fill:white; clip-path:url(#clipPath12); stroke:none;" r="11" cx="93" cy="41"
      /><rect x="82" y="30" width="22" style="clip-path:url(#clipPath12); fill:rgb(255,212,0); stroke:none;" height="22"
      /><rect x="82" y="30" width="22" style="fill:none; clip-path:url(#clipPath12);" height="22"
      /><circle r="11" style="fill:none;" cx="93" cy="41"
      /><rect x="122" y="44" width="7" style="fill:white; stroke:none;" height="9"
      /><path style="stroke:none;" d="M123 49.5156 L125.9531 45.2656 L125.9531 49.5156 L123 49.5156 ZM128.2812 49.5156 L126.8594 49.5156 L126.8594 44.125 L126.2344 44.125 L122.3438 49.6406 L122.3438 50.1875 L125.9531 50.1875 L125.9531 53 L126.8594 53 L126.8594 50.1875 L128.2812 50.1875 L128.2812 49.5156 Z"
      /><rect x="109" y="42" width="6" style="fill:white; stroke:none;" height="13"
      /><path style="stroke:none;" d="M111.0938 48.2031 C111.0938 46.6562 111.75 45.8125 112.7969 45.8125 C113.7188 45.8125 114.2656 46.4531 114.2656 47.5156 C114.2656 48.7188 113.5 49.4375 112.1875 49.7031 L112.2969 50.3125 C114.2188 50.2344 114.9375 51.2188 114.9375 52.4375 C114.9375 53.625 114.2344 54.4219 112.9531 54.4219 C112.25 54.4219 111.6562 54.1562 111.0938 53.7188 L111.0938 48.2031 ZM110.2031 54.9062 L110.1094 57.375 L110.2656 57.4844 L111.1562 57.2656 L111.0156 54.0938 C111.5469 54.8438 112.3594 55.1719 113.1719 55.1719 C114.5625 55.1719 115.8594 54.2188 115.8594 52.4844 C115.8594 50.9531 114.875 50.1094 113.125 50 C114.5625 49.6094 115.1875 48.4531 115.1875 47.4844 C115.1875 46.0938 114.1562 45.3125 112.9062 45.3125 C111.2969 45.3125 110.2188 46.5469 110.2188 48.5156 L110.2031 54.9062 Z"
      /><rect x="175" y="44" width="6" style="fill:white; stroke:none;" height="9"
      /><path style="stroke:none;" d="M176.4219 52.0938 C177.0781 51.375 177.7031 50.7188 178.0312 50.3438 C179.9219 48.3125 180.5312 47.4688 180.5312 46.3594 C180.5312 45.0156 179.7812 44.0781 178.1562 44.0781 C176.9062 44.0781 175.7969 44.7031 175.5938 45.9688 C175.7188 46.2031 175.9062 46.3438 176.1562 46.3438 C176.4688 46.3438 176.6562 46.1094 176.7969 45.5938 L177.0938 44.6719 C177.3906 44.5938 177.6562 44.5625 177.8906 44.5625 C178.9219 44.5625 179.5469 45.3125 179.5469 46.4219 C179.5469 47.4375 178.9844 48.4219 177.7031 49.9062 C177.125 50.5781 176.3906 51.4375 175.6406 52.2812 L175.6406 53 L180.9219 53 L180.9219 52.0938 L176.4219 52.0938 Z"
      /><rect x="161" y="42" width="6" style="fill:white; stroke:none;" height="13"
      /><path style="stroke:none;" d="M163.0938 48.2031 C163.0938 46.6562 163.75 45.8125 164.7969 45.8125 C165.7188 45.8125 166.2656 46.4531 166.2656 47.5156 C166.2656 48.7188 165.5 49.4375 164.1875 49.7031 L164.2969 50.3125 C166.2188 50.2344 166.9375 51.2188 166.9375 52.4375 C166.9375 53.625 166.2344 54.4219 164.9531 54.4219 C164.25 54.4219 163.6562 54.1562 163.0938 53.7188 L163.0938 48.2031 ZM162.2031 54.9062 L162.1094 57.375 L162.2656 57.4844 L163.1562 57.2656 L163.0156 54.0938 C163.5469 54.8438 164.3594 55.1719 165.1719 55.1719 C166.5625 55.1719 167.8594 54.2188 167.8594 52.4844 C167.8594 50.9531 166.875 50.1094 165.125 50 C166.5625 49.6094 167.1875 48.4531 167.1875 47.4844 C167.1875 46.0938 166.1562 45.3125 164.9062 45.3125 C163.2969 45.3125 162.2188 46.5469 162.2188 48.5156 L162.2031 54.9062 Z"
      /><rect x="234" y="100" width="6" style="fill:white; stroke:none;" height="10"
      /><path style="stroke:none;" d="M236.2344 101.6562 C236.5156 101.5938 236.7656 101.5625 237.0156 101.5625 C238.0625 101.5625 238.6719 102.1719 238.6719 103.2656 C238.6719 104.4375 237.9062 105.1094 236.7031 105.1094 L236.1875 105.1094 L236.1875 105.6406 L236.7969 105.6406 C238.2188 105.6406 238.9062 106.4219 238.9062 107.6406 C238.9062 108.8438 238.1719 109.6875 236.875 109.6875 C236.6094 109.6875 236.3125 109.6562 236.0156 109.5625 L235.7812 108.8125 C235.625 108.2812 235.5 108.0469 235.1406 108.0469 C234.8906 108.0469 234.7031 108.1719 234.5781 108.4219 C234.8438 109.6406 235.7812 110.1719 237.0312 110.1719 C238.7188 110.1719 239.875 109.125 239.875 107.7031 C239.875 106.5 239.2031 105.625 237.7969 105.375 C238.9531 105.0156 239.6094 104.2031 239.6094 103.2031 C239.6094 101.9219 238.6719 101.0781 237.1875 101.0781 C236.0469 101.0781 235.0625 101.5938 234.7969 102.6875 C234.9062 103 235.1094 103.1094 235.3594 103.1094 C235.7344 103.1094 235.8906 102.8906 236 102.4062 L236.2344 101.6562 Z"
      /><rect x="215" y="117" width="8" style="fill:white; stroke:none;" height="8"
      /><path style="stroke:none;" d="M219.9844 122.7031 C219.9375 123.8906 219.1562 124.6562 218.3125 124.6562 C217.2656 124.6562 216.5 123.6875 216.5 121.7188 C216.5 120.2812 217.1562 119.1562 218.3438 119.1562 C219.1406 119.1562 219.7812 119.6875 220.0938 120.6406 L219.9844 122.7031 ZM221.9062 124.2812 C221.7344 124.375 221.5469 124.4219 221.3438 124.4219 C220.9531 124.4219 220.75 124.2188 220.75 123.4219 C220.75 122.4844 220.9688 120.5312 221.1875 118.8281 L221.0312 118.7188 L220.2344 118.9219 L220.1406 119.7969 C219.7812 119.0312 219.1562 118.6562 218.3906 118.6562 C217.0469 118.6562 215.5625 119.8438 215.5625 121.9531 C215.5625 124.0938 216.7188 125.1719 218.1406 125.1719 C219.0156 125.1719 219.6875 124.8125 220.0938 123.9844 C220.2031 124.8594 220.5156 125.1719 221.0156 125.1719 C221.4688 125.1719 221.7969 124.9062 222.0156 124.5625 L221.9062 124.2812 Z"
      /><rect x="223" y="71" width="6" style="fill:white; stroke:none;" height="10"
      /><path style="stroke:none;" d="M226.3438 80.6875 C225.2031 80.6875 224.5312 79.5 224.5312 77.2969 C224.5312 77.2188 224.5312 77.125 224.5312 77.0469 C225.0938 76.5 225.7188 76.3125 226.3438 76.3125 C227.3125 76.3125 227.9531 76.9844 227.9531 78.4531 C227.9531 79.9375 227.3125 80.6875 226.3438 80.6875 ZM228.5312 72.0781 C225.3438 72.4531 223.5625 74.7656 223.5625 77.4531 C223.5625 79.7812 224.6094 81.1719 226.3125 81.1719 C227.8438 81.1719 228.9219 80.1094 228.9219 78.2812 C228.9219 76.6875 227.9688 75.6562 226.5625 75.6562 C225.8281 75.6562 225.1406 75.9844 224.5781 76.5781 C224.7969 74.4062 226.0781 72.9688 228.5938 72.3906 L228.5312 72.0781 Z"
      /><rect x="204" y="57" width="8" style="fill:white; stroke:none;" height="8"
      /><path style="stroke:none;" d="M208.9844 62.7031 C208.9375 63.8906 208.1562 64.6562 207.3125 64.6562 C206.2656 64.6562 205.5 63.6875 205.5 61.7188 C205.5 60.2812 206.1562 59.1562 207.3438 59.1562 C208.1406 59.1562 208.7812 59.6875 209.0938 60.6406 L208.9844 62.7031 ZM210.9062 64.2812 C210.7344 64.375 210.5469 64.4219 210.3438 64.4219 C209.9531 64.4219 209.75 64.2188 209.75 63.4219 C209.75 62.4844 209.9688 60.5312 210.1875 58.8281 L210.0312 58.7188 L209.2344 58.9219 L209.1406 59.7969 C208.7812 59.0312 208.1562 58.6562 207.3906 58.6562 C206.0469 58.6562 204.5625 59.8438 204.5625 61.9531 C204.5625 64.0938 205.7188 65.1719 207.1406 65.1719 C208.0156 65.1719 208.6875 64.8125 209.0938 63.9844 C209.2031 64.8594 209.5156 65.1719 210.0156 65.1719 C210.4688 65.1719 210.7969 64.9062 211.0156 64.5625 L210.9062 64.2812 Z"
      /><rect x="278" y="88" width="7" style="fill:white; stroke:none;" height="9"
      /><path style="stroke:none;" d="M279 93.5156 L281.9531 89.2656 L281.9531 93.5156 L279 93.5156 ZM284.2812 93.5156 L282.8594 93.5156 L282.8594 88.125 L282.2344 88.125 L278.3438 93.6406 L278.3438 94.1875 L281.9531 94.1875 L281.9531 97 L282.8594 97 L282.8594 94.1875 L284.2812 94.1875 L284.2812 93.5156 Z"
      /><rect x="265" y="86" width="6" style="fill:white; stroke:none;" height="13"
      /><path style="stroke:none;" d="M267.0938 92.2031 C267.0938 90.6562 267.75 89.8125 268.7969 89.8125 C269.7188 89.8125 270.2656 90.4531 270.2656 91.5156 C270.2656 92.7188 269.5 93.4375 268.1875 93.7031 L268.2969 94.3125 C270.2188 94.2344 270.9375 95.2188 270.9375 96.4375 C270.9375 97.625 270.2344 98.4219 268.9531 98.4219 C268.25 98.4219 267.6562 98.1562 267.0938 97.7188 L267.0938 92.2031 ZM266.2031 98.9062 L266.1094 101.375 L266.2656 101.4844 L267.1562 101.2656 L267.0156 98.0938 C267.5469 98.8438 268.3594 99.1719 269.1719 99.1719 C270.5625 99.1719 271.8594 98.2188 271.8594 96.4844 C271.8594 94.9531 270.875 94.1094 269.125 94 C270.5625 93.6094 271.1875 92.4531 271.1875 91.4844 C271.1875 90.0938 270.1562 89.3125 268.9062 89.3125 C267.2969 89.3125 266.2188 90.5469 266.2188 92.5156 L266.2031 98.9062 Z"
      /><rect x="330" y="88" width="7" style="fill:white; stroke:none;" height="9"
      /><path style="stroke:none;" d="M331 93.5156 L333.9531 89.2656 L333.9531 93.5156 L331 93.5156 ZM336.2812 93.5156 L334.8594 93.5156 L334.8594 88.125 L334.2344 88.125 L330.3438 93.6406 L330.3438 94.1875 L333.9531 94.1875 L333.9531 97 L334.8594 97 L334.8594 94.1875 L336.2812 94.1875 L336.2812 93.5156 Z"
      /><rect x="317" y="86" width="6" style="fill:white; stroke:none;" height="13"
      /><path style="stroke:none;" d="M319.0938 92.2031 C319.0938 90.6562 319.75 89.8125 320.7969 89.8125 C321.7188 89.8125 322.2656 90.4531 322.2656 91.5156 C322.2656 92.7188 321.5 93.4375 320.1875 93.7031 L320.2969 94.3125 C322.2188 94.2344 322.9375 95.2188 322.9375 96.4375 C322.9375 97.625 322.2344 98.4219 320.9531 98.4219 C320.25 98.4219 319.6562 98.1562 319.0938 97.7188 L319.0938 92.2031 ZM318.2031 98.9062 L318.1094 101.375 L318.2656 101.4844 L319.1562 101.2656 L319.0156 98.0938 C319.5469 98.8438 320.3594 99.1719 321.1719 99.1719 C322.5625 99.1719 323.8594 98.2188 323.8594 96.4844 C323.8594 94.9531 322.875 94.1094 321.125 94 C322.5625 93.6094 323.1875 92.4531 323.1875 91.4844 C323.1875 90.0938 322.1562 89.3125 320.9062 89.3125 C319.2969 89.3125 318.2188 90.5469 318.2188 92.5156 L318.2031 98.9062 Z"
      /><rect x="369" y="86" width="6" style="fill:white; stroke:none;" height="13"
      /><path style="stroke:none;" d="M371.0938 92.2031 C371.0938 90.6562 371.75 89.8125 372.7969 89.8125 C373.7188 89.8125 374.2656 90.4531 374.2656 91.5156 C374.2656 92.7188 373.5 93.4375 372.1875 93.7031 L372.2969 94.3125 C374.2188 94.2344 374.9375 95.2188 374.9375 96.4375 C374.9375 97.625 374.2344 98.4219 372.9531 98.4219 C372.25 98.4219 371.6562 98.1562 371.0938 97.7188 L371.0938 92.2031 ZM370.2031 98.9062 L370.1094 101.375 L370.2656 101.4844 L371.1562 101.2656 L371.0156 98.0938 C371.5469 98.8438 372.3594 99.1719 373.1719 99.1719 C374.5625 99.1719 375.8594 98.2188 375.8594 96.4844 C375.8594 94.9531 374.875 94.1094 373.125 94 C374.5625 93.6094 375.1875 92.4531 375.1875 91.4844 C375.1875 90.0938 374.1562 89.3125 372.9062 89.3125 C371.2969 89.3125 370.2188 90.5469 370.2188 92.5156 L370.2031 98.9062 Z"
    /></g
  ></g
></svg
>
