<?xml version="1.0"?>
<!DOCTYPE svg PUBLIC '-//W3C//DTD SVG 1.0//EN'
          'http://www.w3.org/TR/2001/REC-SVG-20010904/DTD/svg10.dtd'>
<svg xmlns:xlink="http://www.w3.org/1999/xlink" style="fill-opacity:1; color-rendering:auto; color-interpolation:auto; text-rendering:auto; stroke:black; stroke-linecap:square; stroke-miterlimit:10; shape-rendering:auto; stroke-opacity:1; fill:black; stroke-dasharray:none; font-weight:normal; stroke-width:1; font-family:'Dialog'; font-style:normal; stroke-linejoin:miter; font-size:12px; stroke-dashoffset:0; image-rendering:auto;" viewBox="0 0 186 134" xmlns="http://www.w3.org/2000/svg"
><!--Generated by the Batik Graphics2D SVG Generator--><defs id="genericDefs"
  /><g
  ><defs id="defs1"
    ><clipPath clipPathUnits="userSpaceOnUse" id="clipPath1"
      ><path d="M104 67 C104 73.0751 99.0751 78 93 78 C86.9249 78 82 73.0751 82 67 C82 60.9249 86.9249 56 93 56 C99.0751 56 104 60.9249 104 67 Z"
      /></clipPath
      ><clipPath clipPathUnits="userSpaceOnUse" id="clipPath2"
      ><path d="M52 93 C52 99.0751 47.0751 104 41 104 C34.9249 104 30 99.0751 30 93 C30 86.9249 34.9249 82 41 82 C47.0751 82 52 86.9249 52 93 Z"
      /></clipPath
      ><clipPath clipPathUnits="userSpaceOnUse" id="clipPath3"
      ><path d="M52 41 C52 47.0751 47.0751 52 41 52 C34.9249 52 30 47.0751 30 41 C30 34.9249 34.9249 30 41 30 C47.0751 30 52 34.9249 52 41 Z"
      /></clipPath
    ></defs
    ><g style="fill:white; text-rendering:optimizeSpeed; stroke:white;"
    ><rect x="0" width="186" height="134" y="0" style="stroke:none;"
      /><polygon style="fill:none; stroke:black;" points=" 145 67 93 67"
      /><path d="M145 56 C139.5 61.5 150.5 72.5 145 78" style="fill:none; stroke:black;"
      /><polygon style="fill:none; stroke:black;" points=" 93 67 41 93"
      /><polygon style="fill:none; stroke:black;" points=" 93 67 41 41"
      /><circle style="clip-path:url(#clipPath1); stroke:none;" r="11" cx="93" cy="67"
      /><rect x="82" y="56" width="22" style="clip-path:url(#clipPath1); fill:rgb(255,212,0); stroke:none;" height="22"
      /><rect x="82" y="56" width="22" style="clip-path:url(#clipPath1); fill:none; stroke:black;" height="22"
      /><circle style="fill:none; stroke:black;" r="11" cx="93" cy="67"
      /><circle style="clip-path:url(#clipPath2); stroke:none;" r="11" cx="41" cy="93"
      /><rect x="30" y="82" width="22" style="clip-path:url(#clipPath2); fill:rgb(255,212,0); stroke:none;" height="22"
      /><rect x="30" y="82" width="22" style="clip-path:url(#clipPath2); fill:none; stroke:black;" height="22"
      /><circle style="fill:none; stroke:black;" r="11" cx="41" cy="93"
      /><circle style="clip-path:url(#clipPath3); stroke:none;" r="11" cx="41" cy="41"
      /><rect x="30" y="30" width="22" style="clip-path:url(#clipPath3); fill:rgb(255,212,0); stroke:none;" height="22"
      /><rect x="30" y="30" width="22" style="clip-path:url(#clipPath3); fill:none; stroke:black;" height="22"
      /><circle style="fill:none; stroke:black;" r="11" cx="41" cy="41"
      /><rect x="75" y="78" width="6" style="stroke:none;" height="9"
    /></g
    ><g style="font-family:'Serif'; text-rendering:optimizeSpeed; "
    ><path style="stroke:none;" d="M76.4219 86.0938 C77.0781 85.375 77.7031 84.7188 78.0312 84.3438 C79.9219 82.3125 80.5312 81.4688 80.5312 80.3594 C80.5312 79.0156 79.7812 78.0781 78.1562 78.0781 C76.9062 78.0781 75.7969 78.7031 75.5938 79.9688 C75.7188 80.2031 75.9062 80.3438 76.1562 80.3438 C76.4688 80.3438 76.6562 80.1094 76.7969 79.5938 L77.0938 78.6719 C77.3906 78.5938 77.6562 78.5625 77.8906 78.5625 C78.9219 78.5625 79.5469 79.3125 79.5469 80.4219 C79.5469 81.4375 78.9844 82.4219 77.7031 83.9062 C77.125 84.5781 76.3906 85.4375 75.6406 86.2812 L75.6406 87 L80.9219 87 L80.9219 86.0938 L76.4219 86.0938 Z"
      /><rect x="59" y="84" width="6" style="fill:white; stroke:none;" height="13"
      /><path style="stroke:none;" d="M61.0938 90.2031 C61.0938 88.6562 61.75 87.8125 62.7969 87.8125 C63.7188 87.8125 64.2656 88.4531 64.2656 89.5156 C64.2656 90.7188 63.5 91.4375 62.1875 91.7031 L62.2969 92.3125 C64.2188 92.2344 64.9375 93.2188 64.9375 94.4375 C64.9375 95.625 64.2344 96.4219 62.9531 96.4219 C62.25 96.4219 61.6562 96.1562 61.0938 95.7188 L61.0938 90.2031 ZM60.2031 96.9062 L60.1094 99.375 L60.2656 99.4844 L61.1562 99.2656 L61.0156 96.0938 C61.5469 96.8438 62.3594 97.1719 63.1719 97.1719 C64.5625 97.1719 65.8594 96.2188 65.8594 94.4844 C65.8594 92.9531 64.875 92.1094 63.125 92 C64.5625 91.6094 65.1875 90.4531 65.1875 89.4844 C65.1875 88.0938 64.1562 87.3125 62.9062 87.3125 C61.2969 87.3125 60.2188 88.5469 60.2188 90.5156 L60.2031 96.9062 Z"
      /><rect x="67" y="60" width="7" style="fill:white; stroke:none;" height="9"
      /><path style="stroke:none;" d="M68 65.5156 L70.9531 61.2656 L70.9531 65.5156 L68 65.5156 ZM73.2812 65.5156 L71.8594 65.5156 L71.8594 60.125 L71.2344 60.125 L67.3438 65.6406 L67.3438 66.1875 L70.9531 66.1875 L70.9531 69 L71.8594 69 L71.8594 66.1875 L73.2812 66.1875 L73.2812 65.5156 Z"
      /><rect x="52" y="50" width="6" style="fill:white; stroke:none;" height="13"
      /><path style="stroke:none;" d="M54.0938 56.2031 C54.0938 54.6562 54.75 53.8125 55.7969 53.8125 C56.7188 53.8125 57.2656 54.4531 57.2656 55.5156 C57.2656 56.7188 56.5 57.4375 55.1875 57.7031 L55.2969 58.3125 C57.2188 58.2344 57.9375 59.2188 57.9375 60.4375 C57.9375 61.625 57.2344 62.4219 55.9531 62.4219 C55.25 62.4219 54.6562 62.1562 54.0938 61.7188 L54.0938 56.2031 ZM53.2031 62.9062 L53.1094 65.375 L53.2656 65.4844 L54.1562 65.2656 L54.0156 62.0938 C54.5469 62.8438 55.3594 63.1719 56.1719 63.1719 C57.5625 63.1719 58.8594 62.2188 58.8594 60.4844 C58.8594 58.9531 57.875 58.1094 56.125 58 C57.5625 57.6094 58.1875 56.4531 58.1875 55.4844 C58.1875 54.0938 57.1562 53.3125 55.9062 53.3125 C54.2969 53.3125 53.2188 54.5469 53.2188 56.5156 L53.2031 62.9062 Z"
      /><rect x="109" y="70" width="5" style="fill:white; stroke:none;" height="10"
      /><path style="stroke:none;" d="M110.8906 78.6875 C110.4844 78.6875 110.1562 79.0469 110.1562 79.4219 C110.1562 79.8125 110.4844 80.1562 110.8906 80.1562 C111.2969 80.1562 111.6406 79.8125 111.6406 79.4219 C111.6406 79.0469 111.2969 78.6875 110.8906 78.6875 ZM112.4688 72.5781 C112.7188 72.8906 112.875 73.2656 112.8906 73.6562 C112.8906 74.1875 112.625 74.5 112.0312 74.7656 L111.4062 75.0156 C110.6406 75.3125 110.3906 75.5469 110.3906 75.9375 C110.3906 76.1094 110.4531 76.3438 110.5781 76.8125 L110.7344 77.3438 L111.1094 77.3438 L111.0938 76.5312 C111.0938 76.0938 111.2031 75.9688 111.7812 75.7344 L112.2031 75.5625 C113.0312 75.2188 113.4531 74.6875 113.4531 73.8438 C113.4531 72.1562 111.6562 71.1875 110.5 71.0312 C110.1094 71.125 109.9062 71.2969 109.9062 71.6406 C109.9062 71.9375 110.0625 72.1562 110.7188 72.2656 L112.4688 72.5781 Z"
    /></g
  ></g
></svg
>
