<?xml version="1.0"?>
<!DOCTYPE svg PUBLIC '-//W3C//DTD SVG 1.0//EN'
          'http://www.w3.org/TR/2001/REC-SVG-20010904/DTD/svg10.dtd'>
<svg xmlns:xlink="http://www.w3.org/1999/xlink" style="fill-opacity:1; color-rendering:auto; color-interpolation:auto; text-rendering:auto; stroke:black; stroke-linecap:square; stroke-miterlimit:10; shape-rendering:auto; stroke-opacity:1; fill:black; stroke-dasharray:none; font-weight:normal; stroke-width:1; font-family:'Dialog'; font-style:normal; stroke-linejoin:miter; font-size:12px; stroke-dashoffset:0; image-rendering:auto;" viewBox="0 0 1135 233" xmlns="http://www.w3.org/2000/svg"
><!--Generated by the Batik Graphics2D SVG Generator--><defs id="genericDefs"
  /><g
  ><defs id="defs1"
    ><clipPath clipPathUnits="userSpaceOnUse" id="clipPath1"
      ><path style="fill-rule:evenodd;" d="M1042 67 L1052 74 L1048 86 L1035 86 L1031 74 L1042 67 Z"
      /></clipPath
      ><clipPath clipPathUnits="userSpaceOnUse" id="clipPath2"
      ><path d="M1001 78 C1001 84.0751 996.0751 89 990 89 C983.9249 89 979 84.0751 979 78 C979 71.9249 983.9249 67 990 67 C996.0751 67 1001 71.9249 1001 78 Z"
      /></clipPath
      ><clipPath clipPathUnits="userSpaceOnUse" id="clipPath3"
      ><path d="M949 78 C949 84.0751 944.0751 89 938 89 C931.9249 89 927 84.0751 927 78 C927 71.9249 931.9249 67 938 67 C944.0751 67 949 71.9249 949 78 Z"
      /></clipPath
      ><clipPath clipPathUnits="userSpaceOnUse" id="clipPath4"
      ><path d="M894 116 C894 122.0751 889.0751 127 883 127 C876.9249 127 872 122.0751 872 116 C872 109.9249 876.9249 105 883 105 C889.0751 105 894 109.9249 894 116 Z"
      /></clipPath
      ><clipPath clipPathUnits="userSpaceOnUse" id="clipPath5"
      ><path d="M837 116 C837 122.0751 832.0751 127 826 127 C819.9249 127 815 122.0751 815 116 C815 109.9249 819.9249 105 826 105 C832.0751 105 837 109.9249 837 116 Z"
      /></clipPath
      ><clipPath clipPathUnits="userSpaceOnUse" id="clipPath6"
      ><path d="M780 154 C780 160.0751 775.0751 165 769 165 C762.9249 165 758 160.0751 758 154 C758 147.9249 762.9249 143 769 143 C775.0751 143 780 147.9249 780 154 Z"
      /></clipPath
      ><clipPath clipPathUnits="userSpaceOnUse" id="clipPath7"
      ><path d="M723 154 C723 160.0751 718.0751 165 712 165 C705.9249 165 701 160.0751 701 154 C701 147.9249 705.9249 143 712 143 C718.0751 143 723 147.9249 723 154 Z"
      /></clipPath
      ><clipPath clipPathUnits="userSpaceOnUse" id="clipPath8"
      ><path d="M666 154 C666 160.0751 661.0751 165 655 165 C648.9249 165 644 160.0751 644 154 C644 147.9249 648.9249 143 655 143 C661.0751 143 666 147.9249 666 154 Z"
      /></clipPath
      ><clipPath clipPathUnits="userSpaceOnUse" id="clipPath9"
      ><path d="M609 154 C609 160.0751 604.0751 165 598 165 C591.9249 165 587 160.0751 587 154 C587 147.9249 591.9249 143 598 143 C604.0751 143 609 147.9249 609 154 Z"
      /></clipPath
      ><clipPath clipPathUnits="userSpaceOnUse" id="clipPath10"
      ><path d="M552 154 C552 160.0751 547.0751 165 541 165 C534.9249 165 530 160.0751 530 154 C530 147.9249 534.9249 143 541 143 C547.0751 143 552 147.9249 552 154 Z"
      /></clipPath
      ><clipPath clipPathUnits="userSpaceOnUse" id="clipPath11"
      ><path d="M495 154 C495 160.0751 490.0751 165 484 165 C477.9249 165 473 160.0751 473 154 C473 147.9249 477.9249 143 484 143 C490.0751 143 495 147.9249 495 154 Z"
      /></clipPath
      ><clipPath clipPathUnits="userSpaceOnUse" id="clipPath12"
      ><path d="M438 154 C438 160.0751 433.0751 165 427 165 C420.9249 165 416 160.0751 416 154 C416 147.9249 420.9249 143 427 143 C433.0751 143 438 147.9249 438 154 Z"
      /></clipPath
      ><clipPath clipPathUnits="userSpaceOnUse" id="clipPath13"
      ><path d="M381 154 C381 160.0751 376.0751 165 370 165 C363.9249 165 359 160.0751 359 154 C359 147.9249 363.9249 143 370 143 C376.0751 143 381 147.9249 381 154 Z"
      /></clipPath
      ><clipPath clipPathUnits="userSpaceOnUse" id="clipPath14"
      ><path d="M324 154 C324 160.0751 319.0751 165 313 165 C306.9249 165 302 160.0751 302 154 C302 147.9249 306.9249 143 313 143 C319.0751 143 324 147.9249 324 154 Z"
      /></clipPath
      ><clipPath clipPathUnits="userSpaceOnUse" id="clipPath15"
      ><path d="M267 154 C267 160.0751 262.0751 165 256 165 C249.9249 165 245 160.0751 245 154 C245 147.9249 249.9249 143 256 143 C262.0751 143 267 147.9249 267 154 Z"
      /></clipPath
      ><clipPath clipPathUnits="userSpaceOnUse" id="clipPath16"
      ><path d="M213 154 C213 160.0751 208.0751 165 202 165 C195.9249 165 191 160.0751 191 154 C191 147.9249 195.9249 143 202 143 C208.0751 143 213 147.9249 213 154 Z"
      /></clipPath
      ><clipPath clipPathUnits="userSpaceOnUse" id="clipPath17"
      ><path d="M161 154 C161 160.0751 156.0751 165 150 165 C143.9249 165 139 160.0751 139 154 C139 147.9249 143.9249 143 150 143 C156.0751 143 161 147.9249 161 154 Z"
      /></clipPath
      ><clipPath clipPathUnits="userSpaceOnUse" id="clipPath18"
      ><path d="M109 154 C109 160.0751 104.0751 165 98 165 C91.9249 165 87 160.0751 87 154 C87 147.9249 91.9249 143 98 143 C104.0751 143 109 147.9249 109 154 Z"
      /></clipPath
      ><clipPath clipPathUnits="userSpaceOnUse" id="clipPath19"
      ><path d="M54 154 C54 160.0751 49.0751 165 43 165 C36.9249 165 32 160.0751 32 154 C32 147.9249 36.9249 143 43 143 C49.0751 143 54 147.9249 54 154 Z"
      /></clipPath
      ><clipPath clipPathUnits="userSpaceOnUse" id="clipPath20"
      ><path d="M780 79 C780 85.0751 775.0751 90 769 90 C762.9249 90 758 85.0751 758 79 C758 72.9249 762.9249 68 769 68 C775.0751 68 780 72.9249 780 79 Z"
      /></clipPath
      ><clipPath clipPathUnits="userSpaceOnUse" id="clipPath21"
      ><path d="M894 41 C894 47.0751 889.0751 52 883 52 C876.9249 52 872 47.0751 872 41 C872 34.9249 876.9249 30 883 30 C889.0751 30 894 34.9249 894 41 Z"
      /></clipPath
    ></defs
    ><g style="fill:white; text-rendering:optimizeSpeed; stroke:white;"
    ><rect x="0" width="1135" height="233" y="0" style="stroke:none;"
      /><polygon style="fill:none; stroke:black;" points=" 1094 78 1042 78"
      /><path d="M1094 67 C1088.5 72.5 1099.5 83.5 1094 89" style="fill:none; stroke:black;"
      /><polygon style="fill:none; stroke:black;" points=" 1042 78 990 78"
      /><polygon style="clip-path:url(#clipPath1); stroke:none;" points=" 1042 67 1052 74 1048 86 1035 86 1031 74 1042 67"
      /><rect x="1031" y="67" width="22" style="clip-path:url(#clipPath1); stroke:none;" height="22"
      /><rect x="1031" y="67" width="22" style="clip-path:url(#clipPath1); fill:none; stroke:black;" height="22"
      /><polygon style="fill:none; stroke:black;" points=" 1042 67 1052 74 1048 86 1035 86 1031 74 1042 67"
    /></g
    ><g style="text-rendering:optimizeSpeed; font-size:14px; font-family:'SansSerif';"
    ><path style="stroke:none;" d="M1040.2344 83 L1045.8594 83 L1045.8594 81.9375 L1043.7969 81.9375 L1043.7969 72.7188 L1042.8281 72.7188 C1042.2656 73.0625 1041.6094 73.2969 1040.6875 73.4688 L1040.6875 74.2812 L1042.5156 74.2812 L1042.5156 81.9375 L1040.2344 81.9375 L1040.2344 83 Z"
      /><rect x="1035" y="95" width="13" style="fill:white; stroke:none;" height="10"
      /><path style="stroke:none;" d="M1036.2344 106 L1041.8594 106 L1041.8594 104.9375 L1039.7969 104.9375 L1039.7969 95.7188 L1038.8281 95.7188 C1038.2656 96.0625 1037.6094 96.2969 1036.6875 96.4688 L1036.6875 97.2812 L1038.5156 97.2812 L1038.5156 104.9375 L1036.2344 104.9375 L1036.2344 106 ZM1045.8013 106.1875 C1046.7388 106.1875 1047.5981 105.6875 1048.3325 105.0938 L1048.3638 105.0938 L1048.4888 106 L1049.5356 106 L1049.5356 101.3281 C1049.5356 99.4531 1048.7544 98.2031 1046.895 98.2031 C1045.6763 98.2031 1044.5981 98.75 1043.9106 99.2031 L1044.4106 100.0781 C1045.0044 99.6719 1045.8013 99.2656 1046.6919 99.2656 C1047.9419 99.2656 1048.2544 100.2031 1048.2544 101.1875 C1045.02 101.5469 1043.5825 102.375 1043.5825 104.0312 C1043.5825 105.3906 1044.5356 106.1875 1045.8013 106.1875 ZM1046.1763 105.1562 C1045.4106 105.1562 1044.8325 104.8125 1044.8325 103.9375 C1044.8325 102.9688 1045.6919 102.3281 1048.2544 102.0312 L1048.2544 104.1562 C1047.52 104.8125 1046.9106 105.1562 1046.1763 105.1562 Z"
      /><polygon style="fill:none;" points=" 990 78 938 78"
    /></g
    ><g style="fill:white; text-rendering:optimizeSpeed; stroke:white;"
    ><circle r="11" style="clip-path:url(#clipPath2); stroke:none;" cx="990" cy="78"
      /><rect x="979" y="67" width="22" style="clip-path:url(#clipPath2); fill:rgb(0,144,188); stroke:none;" height="22"
      /><rect x="979" y="67" width="22" style="clip-path:url(#clipPath2); fill:none; stroke:black;" height="22"
      /><circle r="11" style="fill:none; stroke:black;" cx="990" cy="78"
      /><polygon style="fill:none; stroke:black;" points=" 938 78 883 116"
      /><polygon style="fill:none; stroke:black;" points=" 938 78 883 41"
      /><circle r="11" style="clip-path:url(#clipPath3); stroke:none;" cx="938" cy="78"
      /><rect x="927" y="67" width="22" style="clip-path:url(#clipPath3); fill:rgb(0,144,188); stroke:none;" height="22"
      /><rect x="927" y="67" width="22" style="clip-path:url(#clipPath3); fill:none; stroke:black;" height="22"
      /><circle r="11" style="fill:none; stroke:black;" cx="938" cy="78"
      /><polygon style="fill:none; stroke:black;" points=" 883 116 826 116"
      /><circle r="11" style="clip-path:url(#clipPath4); stroke:none;" cx="883" cy="116"
      /><rect x="872" y="105" width="22" style="clip-path:url(#clipPath4); fill:rgb(0,144,188); stroke:none;" height="22"
      /><rect x="872" y="105" width="22" style="clip-path:url(#clipPath4); fill:none; stroke:black;" height="22"
      /><circle r="11" style="fill:none; stroke:black;" cx="883" cy="116"
      /><rect x="870" width="25" height="10" y="87" style="stroke:none;"
    /></g
    ><g style="text-rendering:optimizeSpeed; font-size:14px; font-family:'SansSerif';"
    ><path style="stroke:none;" d="M874.1094 92.5781 C875.3438 92.5781 875.9688 93.4688 875.9688 94.8438 C875.9688 96.25 875.1875 97.1875 874.2188 97.1875 C872.9219 97.1875 872.1562 96.0312 872 93.8906 C872.625 92.9531 873.4531 92.5781 874.1094 92.5781 ZM874.2188 98.1875 C875.8125 98.1875 877.1562 96.8438 877.1562 94.8438 C877.1562 92.7031 876.0469 91.625 874.3125 91.625 C873.5 91.625 872.6094 92.1094 871.9688 92.875 C872.0312 89.6875 873.2188 88.6094 874.625 88.6094 C875.25 88.6094 875.8594 88.9062 876.2656 89.3906 L876.9688 88.5938 C876.4062 87.9844 875.6406 87.5469 874.5781 87.5469 C872.5938 87.5469 870.7812 89.0781 870.7812 93.0938 C870.7812 96.4844 872.2344 98.1875 874.2188 98.1875 ZM879.1762 98 L880.3481 98 L880.3481 92.3125 C880.3481 91.4375 880.2543 90.1875 880.1918 89.2969 L880.2543 89.2969 L881.0668 91.625 L883.0043 96.9688 L883.8793 96.9688 L885.8168 91.625 L886.6293 89.2969 L886.6918 89.2969 C886.6137 90.1875 886.52 91.4375 886.52 92.3125 L886.52 98 L887.7387 98 L887.7387 87.7188 L886.1762 87.7188 L884.2075 93.2188 C883.9731 93.9375 883.7543 94.6562 883.5043 95.375 L883.4418 95.375 C883.1918 94.6562 882.9575 93.9375 882.7075 93.2188 L880.7387 87.7188 L879.1762 87.7188 L879.1762 98 ZM893.4973 98.1875 C894.5286 98.1875 895.3411 97.8281 896.0129 97.3906 L895.5442 96.5625 C894.9973 96.9375 894.3879 97.1562 893.6536 97.1562 C892.2004 97.1562 891.2161 96.125 891.1223 94.5 L896.2473 94.5 C896.2786 94.3125 896.3098 94.0469 896.3098 93.7656 C896.3098 91.6094 895.2161 90.2031 893.2786 90.2031 C891.5129 90.2031 889.8567 91.7344 889.8567 94.2031 C889.8567 96.7188 891.4817 98.1875 893.4973 98.1875 ZM891.1067 93.5781 C891.2629 92.0938 892.2161 91.2188 893.2942 91.2188 C894.4817 91.2188 895.1848 92.0469 895.1848 93.5781 L891.1067 93.5781 Z"
      /><polygon style="fill:none;" points=" 826 116 769 154"
      /><polygon style="fill:none;" points=" 826 116 769 79"
    /></g
    ><g style="fill:white; text-rendering:optimizeSpeed; stroke:white;"
    ><circle r="11" style="clip-path:url(#clipPath5); stroke:none;" cx="826" cy="116"
      /><rect x="815" y="105" width="22" style="clip-path:url(#clipPath5); fill:rgb(0,144,188); stroke:none;" height="22"
      /><rect x="815" y="105" width="22" style="clip-path:url(#clipPath5); fill:none; stroke:black;" height="22"
      /><circle r="11" style="fill:none; stroke:black;" cx="826" cy="116"
      /><rect x="813" width="25" height="10" y="87" style="stroke:none;"
    /></g
    ><g style="text-rendering:optimizeSpeed; font-size:14px; font-family:'SansSerif';"
    ><path style="stroke:none;" d="M817.1094 92.5781 C818.3438 92.5781 818.9688 93.4688 818.9688 94.8438 C818.9688 96.25 818.1875 97.1875 817.2188 97.1875 C815.9219 97.1875 815.1562 96.0312 815 93.8906 C815.625 92.9531 816.4531 92.5781 817.1094 92.5781 ZM817.2188 98.1875 C818.8125 98.1875 820.1562 96.8438 820.1562 94.8438 C820.1562 92.7031 819.0469 91.625 817.3125 91.625 C816.5 91.625 815.6094 92.1094 814.9688 92.875 C815.0312 89.6875 816.2188 88.6094 817.625 88.6094 C818.25 88.6094 818.8594 88.9062 819.2656 89.3906 L819.9688 88.5938 C819.4062 87.9844 818.6406 87.5469 817.5781 87.5469 C815.5938 87.5469 813.7812 89.0781 813.7812 93.0938 C813.7812 96.4844 815.2344 98.1875 817.2188 98.1875 ZM822.1762 98 L823.3481 98 L823.3481 92.3125 C823.3481 91.4375 823.2543 90.1875 823.1918 89.2969 L823.2543 89.2969 L824.0668 91.625 L826.0043 96.9688 L826.8793 96.9688 L828.8168 91.625 L829.6293 89.2969 L829.6918 89.2969 C829.6137 90.1875 829.52 91.4375 829.52 92.3125 L829.52 98 L830.7387 98 L830.7387 87.7188 L829.1762 87.7188 L827.2075 93.2188 C826.9731 93.9375 826.7543 94.6562 826.5043 95.375 L826.4418 95.375 C826.1918 94.6562 825.9575 93.9375 825.7075 93.2188 L823.7387 87.7188 L822.1762 87.7188 L822.1762 98 ZM836.4973 98.1875 C837.5286 98.1875 838.3411 97.8281 839.0129 97.3906 L838.5442 96.5625 C837.9973 96.9375 837.3879 97.1562 836.6536 97.1562 C835.2004 97.1562 834.2161 96.125 834.1223 94.5 L839.2473 94.5 C839.2786 94.3125 839.3098 94.0469 839.3098 93.7656 C839.3098 91.6094 838.2161 90.2031 836.2786 90.2031 C834.5129 90.2031 832.8567 91.7344 832.8567 94.2031 C832.8567 96.7188 834.4817 98.1875 836.4973 98.1875 ZM834.1067 93.5781 C834.2629 92.0938 835.2161 91.2188 836.2942 91.2188 C837.4817 91.2188 838.1848 92.0469 838.1848 93.5781 L834.1067 93.5781 Z"
      /><polygon style="fill:none;" points=" 769 154 712 154"
    /></g
    ><g style="fill:white; text-rendering:optimizeSpeed; stroke:white;"
    ><circle r="11" style="clip-path:url(#clipPath6); stroke:none;" cx="769" cy="154"
      /><rect x="758" y="143" width="22" style="clip-path:url(#clipPath6); fill:rgb(0,144,188); stroke:none;" height="22"
      /><rect x="758" y="143" width="22" style="clip-path:url(#clipPath6); fill:none; stroke:black;" height="22"
      /><circle r="11" style="fill:none; stroke:black;" cx="769" cy="154"
      /><rect x="756" width="25" height="10" y="125" style="stroke:none;"
    /></g
    ><g style="text-rendering:optimizeSpeed; font-size:14px; font-family:'SansSerif';"
    ><path style="stroke:none;" d="M760.1094 130.5781 C761.3438 130.5781 761.9688 131.4688 761.9688 132.8438 C761.9688 134.25 761.1875 135.1875 760.2188 135.1875 C758.9219 135.1875 758.1562 134.0312 758 131.8906 C758.625 130.9531 759.4531 130.5781 760.1094 130.5781 ZM760.2188 136.1875 C761.8125 136.1875 763.1562 134.8438 763.1562 132.8438 C763.1562 130.7031 762.0469 129.625 760.3125 129.625 C759.5 129.625 758.6094 130.1094 757.9688 130.875 C758.0312 127.6875 759.2188 126.6094 760.625 126.6094 C761.25 126.6094 761.8594 126.9062 762.2656 127.3906 L762.9688 126.5938 C762.4062 125.9844 761.6406 125.5469 760.5781 125.5469 C758.5938 125.5469 756.7812 127.0781 756.7812 131.0938 C756.7812 134.4844 758.2344 136.1875 760.2188 136.1875 ZM765.1762 136 L766.3481 136 L766.3481 130.3125 C766.3481 129.4375 766.2543 128.1875 766.1918 127.2969 L766.2543 127.2969 L767.0668 129.625 L769.0043 134.9688 L769.8793 134.9688 L771.8168 129.625 L772.6293 127.2969 L772.6918 127.2969 C772.6137 128.1875 772.52 129.4375 772.52 130.3125 L772.52 136 L773.7387 136 L773.7387 125.7188 L772.1762 125.7188 L770.2075 131.2188 C769.9731 131.9375 769.7543 132.6562 769.5043 133.375 L769.4418 133.375 C769.1918 132.6562 768.9575 131.9375 768.7075 131.2188 L766.7387 125.7188 L765.1762 125.7188 L765.1762 136 ZM779.4973 136.1875 C780.5286 136.1875 781.3411 135.8281 782.0129 135.3906 L781.5442 134.5625 C780.9973 134.9375 780.3879 135.1562 779.6536 135.1562 C778.2004 135.1562 777.2161 134.125 777.1223 132.5 L782.2473 132.5 C782.2786 132.3125 782.3098 132.0469 782.3098 131.7656 C782.3098 129.6094 781.2161 128.2031 779.2786 128.2031 C777.5129 128.2031 775.8567 129.7344 775.8567 132.2031 C775.8567 134.7188 777.4817 136.1875 779.4973 136.1875 ZM777.1067 131.5781 C777.2629 130.0938 778.2161 129.2188 779.2942 129.2188 C780.4817 129.2188 781.1848 130.0469 781.1848 131.5781 L777.1067 131.5781 Z"
      /><polygon style="fill:none;" points=" 712 154 655 154"
    /></g
    ><g style="fill:white; text-rendering:optimizeSpeed; stroke:white;"
    ><circle r="11" style="clip-path:url(#clipPath7); stroke:none;" cx="712" cy="154"
      /><rect x="701" y="143" width="22" style="clip-path:url(#clipPath7); fill:rgb(0,144,188); stroke:none;" height="22"
      /><rect x="701" y="143" width="22" style="clip-path:url(#clipPath7); fill:none; stroke:black;" height="22"
      /><circle r="11" style="fill:none; stroke:black;" cx="712" cy="154"
      /><rect x="699" width="25" height="10" y="125" style="stroke:none;"
    /></g
    ><g style="text-rendering:optimizeSpeed; font-size:14px; font-family:'SansSerif';"
    ><path style="stroke:none;" d="M703.1094 130.5781 C704.3438 130.5781 704.9688 131.4688 704.9688 132.8438 C704.9688 134.25 704.1875 135.1875 703.2188 135.1875 C701.9219 135.1875 701.1562 134.0312 701 131.8906 C701.625 130.9531 702.4531 130.5781 703.1094 130.5781 ZM703.2188 136.1875 C704.8125 136.1875 706.1562 134.8438 706.1562 132.8438 C706.1562 130.7031 705.0469 129.625 703.3125 129.625 C702.5 129.625 701.6094 130.1094 700.9688 130.875 C701.0312 127.6875 702.2188 126.6094 703.625 126.6094 C704.25 126.6094 704.8594 126.9062 705.2656 127.3906 L705.9688 126.5938 C705.4062 125.9844 704.6406 125.5469 703.5781 125.5469 C701.5938 125.5469 699.7812 127.0781 699.7812 131.0938 C699.7812 134.4844 701.2344 136.1875 703.2188 136.1875 ZM708.1762 136 L709.3481 136 L709.3481 130.3125 C709.3481 129.4375 709.2543 128.1875 709.1918 127.2969 L709.2543 127.2969 L710.0668 129.625 L712.0043 134.9688 L712.8793 134.9688 L714.8168 129.625 L715.6293 127.2969 L715.6918 127.2969 C715.6137 128.1875 715.52 129.4375 715.52 130.3125 L715.52 136 L716.7387 136 L716.7387 125.7188 L715.1762 125.7188 L713.2075 131.2188 C712.9731 131.9375 712.7543 132.6562 712.5043 133.375 L712.4418 133.375 C712.1918 132.6562 711.9575 131.9375 711.7075 131.2188 L709.7387 125.7188 L708.1762 125.7188 L708.1762 136 ZM722.4973 136.1875 C723.5286 136.1875 724.3411 135.8281 725.0129 135.3906 L724.5442 134.5625 C723.9973 134.9375 723.3879 135.1562 722.6536 135.1562 C721.2004 135.1562 720.2161 134.125 720.1223 132.5 L725.2473 132.5 C725.2786 132.3125 725.3098 132.0469 725.3098 131.7656 C725.3098 129.6094 724.2161 128.2031 722.2786 128.2031 C720.5129 128.2031 718.8567 129.7344 718.8567 132.2031 C718.8567 134.7188 720.4817 136.1875 722.4973 136.1875 ZM720.1067 131.5781 C720.2629 130.0938 721.2161 129.2188 722.2942 129.2188 C723.4817 129.2188 724.1848 130.0469 724.1848 131.5781 L720.1067 131.5781 Z"
      /><polygon style="fill:none;" points=" 655 154 598 154"
    /></g
    ><g style="fill:white; text-rendering:optimizeSpeed; stroke:white;"
    ><circle r="11" style="clip-path:url(#clipPath8); stroke:none;" cx="655" cy="154"
      /><rect x="644" y="143" width="22" style="clip-path:url(#clipPath8); fill:rgb(0,144,188); stroke:none;" height="22"
      /><rect x="644" y="143" width="22" style="clip-path:url(#clipPath8); fill:none; stroke:black;" height="22"
      /><circle r="11" style="fill:none; stroke:black;" cx="655" cy="154"
      /><rect x="642" width="25" height="10" y="125" style="stroke:none;"
    /></g
    ><g style="text-rendering:optimizeSpeed; font-size:14px; font-family:'SansSerif';"
    ><path style="stroke:none;" d="M646.1094 130.5781 C647.3438 130.5781 647.9688 131.4688 647.9688 132.8438 C647.9688 134.25 647.1875 135.1875 646.2188 135.1875 C644.9219 135.1875 644.1562 134.0312 644 131.8906 C644.625 130.9531 645.4531 130.5781 646.1094 130.5781 ZM646.2188 136.1875 C647.8125 136.1875 649.1562 134.8438 649.1562 132.8438 C649.1562 130.7031 648.0469 129.625 646.3125 129.625 C645.5 129.625 644.6094 130.1094 643.9688 130.875 C644.0312 127.6875 645.2188 126.6094 646.625 126.6094 C647.25 126.6094 647.8594 126.9062 648.2656 127.3906 L648.9688 126.5938 C648.4062 125.9844 647.6406 125.5469 646.5781 125.5469 C644.5938 125.5469 642.7812 127.0781 642.7812 131.0938 C642.7812 134.4844 644.2344 136.1875 646.2188 136.1875 ZM651.1762 136 L652.3481 136 L652.3481 130.3125 C652.3481 129.4375 652.2543 128.1875 652.1918 127.2969 L652.2543 127.2969 L653.0668 129.625 L655.0043 134.9688 L655.8793 134.9688 L657.8168 129.625 L658.6293 127.2969 L658.6918 127.2969 C658.6137 128.1875 658.52 129.4375 658.52 130.3125 L658.52 136 L659.7387 136 L659.7387 125.7188 L658.1762 125.7188 L656.2075 131.2188 C655.9731 131.9375 655.7543 132.6562 655.5043 133.375 L655.4418 133.375 C655.1918 132.6562 654.9575 131.9375 654.7075 131.2188 L652.7387 125.7188 L651.1762 125.7188 L651.1762 136 ZM665.4973 136.1875 C666.5286 136.1875 667.3411 135.8281 668.0129 135.3906 L667.5442 134.5625 C666.9973 134.9375 666.3879 135.1562 665.6536 135.1562 C664.2004 135.1562 663.2161 134.125 663.1223 132.5 L668.2473 132.5 C668.2786 132.3125 668.3098 132.0469 668.3098 131.7656 C668.3098 129.6094 667.2161 128.2031 665.2786 128.2031 C663.5129 128.2031 661.8567 129.7344 661.8567 132.2031 C661.8567 134.7188 663.4817 136.1875 665.4973 136.1875 ZM663.1067 131.5781 C663.2629 130.0938 664.2161 129.2188 665.2942 129.2188 C666.4817 129.2188 667.1848 130.0469 667.1848 131.5781 L663.1067 131.5781 Z"
      /><polygon style="fill:none;" points=" 598 154 541 154"
    /></g
    ><g style="fill:white; text-rendering:optimizeSpeed; stroke:white;"
    ><circle r="11" style="clip-path:url(#clipPath9); stroke:none;" cx="598" cy="154"
      /><rect x="587" y="143" width="22" style="clip-path:url(#clipPath9); fill:rgb(0,144,188); stroke:none;" height="22"
      /><rect x="587" y="143" width="22" style="clip-path:url(#clipPath9); fill:none; stroke:black;" height="22"
      /><circle r="11" style="fill:none; stroke:black;" cx="598" cy="154"
      /><rect x="585" width="25" height="10" y="125" style="stroke:none;"
    /></g
    ><g style="text-rendering:optimizeSpeed; font-size:14px; font-family:'SansSerif';"
    ><path style="stroke:none;" d="M589.1094 130.5781 C590.3438 130.5781 590.9688 131.4688 590.9688 132.8438 C590.9688 134.25 590.1875 135.1875 589.2188 135.1875 C587.9219 135.1875 587.1562 134.0312 587 131.8906 C587.625 130.9531 588.4531 130.5781 589.1094 130.5781 ZM589.2188 136.1875 C590.8125 136.1875 592.1562 134.8438 592.1562 132.8438 C592.1562 130.7031 591.0469 129.625 589.3125 129.625 C588.5 129.625 587.6094 130.1094 586.9688 130.875 C587.0312 127.6875 588.2188 126.6094 589.625 126.6094 C590.25 126.6094 590.8594 126.9062 591.2656 127.3906 L591.9688 126.5938 C591.4062 125.9844 590.6406 125.5469 589.5781 125.5469 C587.5938 125.5469 585.7812 127.0781 585.7812 131.0938 C585.7812 134.4844 587.2344 136.1875 589.2188 136.1875 ZM594.1762 136 L595.3481 136 L595.3481 130.3125 C595.3481 129.4375 595.2543 128.1875 595.1918 127.2969 L595.2543 127.2969 L596.0668 129.625 L598.0043 134.9688 L598.8793 134.9688 L600.8168 129.625 L601.6293 127.2969 L601.6918 127.2969 C601.6137 128.1875 601.52 129.4375 601.52 130.3125 L601.52 136 L602.7387 136 L602.7387 125.7188 L601.1762 125.7188 L599.2075 131.2188 C598.9731 131.9375 598.7543 132.6562 598.5043 133.375 L598.4418 133.375 C598.1918 132.6562 597.9575 131.9375 597.7075 131.2188 L595.7387 125.7188 L594.1762 125.7188 L594.1762 136 ZM608.4973 136.1875 C609.5286 136.1875 610.3411 135.8281 611.0129 135.3906 L610.5442 134.5625 C609.9973 134.9375 609.3879 135.1562 608.6536 135.1562 C607.2004 135.1562 606.2161 134.125 606.1223 132.5 L611.2473 132.5 C611.2786 132.3125 611.3098 132.0469 611.3098 131.7656 C611.3098 129.6094 610.2161 128.2031 608.2786 128.2031 C606.5129 128.2031 604.8567 129.7344 604.8567 132.2031 C604.8567 134.7188 606.4817 136.1875 608.4973 136.1875 ZM606.1067 131.5781 C606.2629 130.0938 607.2161 129.2188 608.2942 129.2188 C609.4817 129.2188 610.1848 130.0469 610.1848 131.5781 L606.1067 131.5781 Z"
      /><polygon style="fill:none;" points=" 541 154 484 154"
    /></g
    ><g style="fill:white; text-rendering:optimizeSpeed; stroke:white;"
    ><circle r="11" style="clip-path:url(#clipPath10); stroke:none;" cx="541" cy="154"
      /><rect x="530" y="143" width="22" style="clip-path:url(#clipPath10); fill:rgb(0,144,188); stroke:none;" height="22"
      /><rect x="530" y="143" width="22" style="clip-path:url(#clipPath10); fill:none; stroke:black;" height="22"
      /><circle r="11" style="fill:none; stroke:black;" cx="541" cy="154"
      /><rect x="528" width="25" height="10" y="125" style="stroke:none;"
    /></g
    ><g style="text-rendering:optimizeSpeed; font-size:14px; font-family:'SansSerif';"
    ><path style="stroke:none;" d="M532.1094 130.5781 C533.3438 130.5781 533.9688 131.4688 533.9688 132.8438 C533.9688 134.25 533.1875 135.1875 532.2188 135.1875 C530.9219 135.1875 530.1562 134.0312 530 131.8906 C530.625 130.9531 531.4531 130.5781 532.1094 130.5781 ZM532.2188 136.1875 C533.8125 136.1875 535.1562 134.8438 535.1562 132.8438 C535.1562 130.7031 534.0469 129.625 532.3125 129.625 C531.5 129.625 530.6094 130.1094 529.9688 130.875 C530.0312 127.6875 531.2188 126.6094 532.625 126.6094 C533.25 126.6094 533.8594 126.9062 534.2656 127.3906 L534.9688 126.5938 C534.4062 125.9844 533.6406 125.5469 532.5781 125.5469 C530.5938 125.5469 528.7812 127.0781 528.7812 131.0938 C528.7812 134.4844 530.2344 136.1875 532.2188 136.1875 ZM537.1762 136 L538.3481 136 L538.3481 130.3125 C538.3481 129.4375 538.2543 128.1875 538.1918 127.2969 L538.2543 127.2969 L539.0668 129.625 L541.0043 134.9688 L541.8793 134.9688 L543.8168 129.625 L544.6293 127.2969 L544.6918 127.2969 C544.6137 128.1875 544.52 129.4375 544.52 130.3125 L544.52 136 L545.7387 136 L545.7387 125.7188 L544.1762 125.7188 L542.2075 131.2188 C541.9731 131.9375 541.7543 132.6562 541.5043 133.375 L541.4418 133.375 C541.1918 132.6562 540.9575 131.9375 540.7075 131.2188 L538.7387 125.7188 L537.1762 125.7188 L537.1762 136 ZM551.4973 136.1875 C552.5286 136.1875 553.3411 135.8281 554.0129 135.3906 L553.5442 134.5625 C552.9973 134.9375 552.3879 135.1562 551.6536 135.1562 C550.2004 135.1562 549.2161 134.125 549.1223 132.5 L554.2473 132.5 C554.2786 132.3125 554.3098 132.0469 554.3098 131.7656 C554.3098 129.6094 553.2161 128.2031 551.2786 128.2031 C549.5129 128.2031 547.8567 129.7344 547.8567 132.2031 C547.8567 134.7188 549.4817 136.1875 551.4973 136.1875 ZM549.1067 131.5781 C549.2629 130.0938 550.2161 129.2188 551.2942 129.2188 C552.4817 129.2188 553.1848 130.0469 553.1848 131.5781 L549.1067 131.5781 Z"
      /><polygon style="fill:none;" points=" 484 154 427 154"
    /></g
    ><g style="fill:white; text-rendering:optimizeSpeed; stroke:white;"
    ><circle r="11" style="clip-path:url(#clipPath11); stroke:none;" cx="484" cy="154"
      /><rect x="473" y="143" width="22" style="clip-path:url(#clipPath11); fill:rgb(0,144,188); stroke:none;" height="22"
      /><rect x="473" y="143" width="22" style="clip-path:url(#clipPath11); fill:none; stroke:black;" height="22"
      /><circle r="11" style="fill:none; stroke:black;" cx="484" cy="154"
      /><rect x="471" width="25" height="10" y="125" style="stroke:none;"
    /></g
    ><g style="text-rendering:optimizeSpeed; font-size:14px; font-family:'SansSerif';"
    ><path style="stroke:none;" d="M475.1094 130.5781 C476.3438 130.5781 476.9688 131.4688 476.9688 132.8438 C476.9688 134.25 476.1875 135.1875 475.2188 135.1875 C473.9219 135.1875 473.1562 134.0312 473 131.8906 C473.625 130.9531 474.4531 130.5781 475.1094 130.5781 ZM475.2188 136.1875 C476.8125 136.1875 478.1562 134.8438 478.1562 132.8438 C478.1562 130.7031 477.0469 129.625 475.3125 129.625 C474.5 129.625 473.6094 130.1094 472.9688 130.875 C473.0312 127.6875 474.2188 126.6094 475.625 126.6094 C476.25 126.6094 476.8594 126.9062 477.2656 127.3906 L477.9688 126.5938 C477.4062 125.9844 476.6406 125.5469 475.5781 125.5469 C473.5938 125.5469 471.7812 127.0781 471.7812 131.0938 C471.7812 134.4844 473.2344 136.1875 475.2188 136.1875 ZM480.1762 136 L481.3481 136 L481.3481 130.3125 C481.3481 129.4375 481.2543 128.1875 481.1918 127.2969 L481.2543 127.2969 L482.0668 129.625 L484.0043 134.9688 L484.8793 134.9688 L486.8168 129.625 L487.6293 127.2969 L487.6918 127.2969 C487.6137 128.1875 487.52 129.4375 487.52 130.3125 L487.52 136 L488.7387 136 L488.7387 125.7188 L487.1762 125.7188 L485.2075 131.2188 C484.9731 131.9375 484.7543 132.6562 484.5043 133.375 L484.4418 133.375 C484.1918 132.6562 483.9575 131.9375 483.7075 131.2188 L481.7387 125.7188 L480.1762 125.7188 L480.1762 136 ZM494.4973 136.1875 C495.5286 136.1875 496.3411 135.8281 497.0129 135.3906 L496.5442 134.5625 C495.9973 134.9375 495.3879 135.1562 494.6536 135.1562 C493.2004 135.1562 492.2161 134.125 492.1223 132.5 L497.2473 132.5 C497.2786 132.3125 497.3098 132.0469 497.3098 131.7656 C497.3098 129.6094 496.2161 128.2031 494.2786 128.2031 C492.5129 128.2031 490.8567 129.7344 490.8567 132.2031 C490.8567 134.7188 492.4817 136.1875 494.4973 136.1875 ZM492.1067 131.5781 C492.2629 130.0938 493.2161 129.2188 494.2942 129.2188 C495.4817 129.2188 496.1848 130.0469 496.1848 131.5781 L492.1067 131.5781 Z"
      /><polygon style="fill:none;" points=" 427 154 370 154"
    /></g
    ><g style="fill:white; text-rendering:optimizeSpeed; stroke:white;"
    ><circle r="11" style="clip-path:url(#clipPath12); stroke:none;" cx="427" cy="154"
      /><rect x="416" y="143" width="22" style="clip-path:url(#clipPath12); fill:rgb(0,144,188); stroke:none;" height="22"
      /><rect x="416" y="143" width="22" style="clip-path:url(#clipPath12); fill:none; stroke:black;" height="22"
      /><circle r="11" style="fill:none; stroke:black;" cx="427" cy="154"
      /><rect x="414" width="25" height="10" y="125" style="stroke:none;"
    /></g
    ><g style="text-rendering:optimizeSpeed; font-size:14px; font-family:'SansSerif';"
    ><path style="stroke:none;" d="M418.1094 130.5781 C419.3438 130.5781 419.9688 131.4688 419.9688 132.8438 C419.9688 134.25 419.1875 135.1875 418.2188 135.1875 C416.9219 135.1875 416.1562 134.0312 416 131.8906 C416.625 130.9531 417.4531 130.5781 418.1094 130.5781 ZM418.2188 136.1875 C419.8125 136.1875 421.1562 134.8438 421.1562 132.8438 C421.1562 130.7031 420.0469 129.625 418.3125 129.625 C417.5 129.625 416.6094 130.1094 415.9688 130.875 C416.0312 127.6875 417.2188 126.6094 418.625 126.6094 C419.25 126.6094 419.8594 126.9062 420.2656 127.3906 L420.9688 126.5938 C420.4062 125.9844 419.6406 125.5469 418.5781 125.5469 C416.5938 125.5469 414.7812 127.0781 414.7812 131.0938 C414.7812 134.4844 416.2344 136.1875 418.2188 136.1875 ZM423.1762 136 L424.3481 136 L424.3481 130.3125 C424.3481 129.4375 424.2543 128.1875 424.1918 127.2969 L424.2543 127.2969 L425.0668 129.625 L427.0043 134.9688 L427.8793 134.9688 L429.8168 129.625 L430.6293 127.2969 L430.6918 127.2969 C430.6137 128.1875 430.52 129.4375 430.52 130.3125 L430.52 136 L431.7387 136 L431.7387 125.7188 L430.1762 125.7188 L428.2075 131.2188 C427.9731 131.9375 427.7543 132.6562 427.5043 133.375 L427.4418 133.375 C427.1918 132.6562 426.9575 131.9375 426.7075 131.2188 L424.7387 125.7188 L423.1762 125.7188 L423.1762 136 ZM437.4973 136.1875 C438.5286 136.1875 439.3411 135.8281 440.0129 135.3906 L439.5442 134.5625 C438.9973 134.9375 438.3879 135.1562 437.6536 135.1562 C436.2004 135.1562 435.2161 134.125 435.1223 132.5 L440.2473 132.5 C440.2786 132.3125 440.3098 132.0469 440.3098 131.7656 C440.3098 129.6094 439.2161 128.2031 437.2786 128.2031 C435.5129 128.2031 433.8567 129.7344 433.8567 132.2031 C433.8567 134.7188 435.4817 136.1875 437.4973 136.1875 ZM435.1067 131.5781 C435.2629 130.0938 436.2161 129.2188 437.2942 129.2188 C438.4817 129.2188 439.1848 130.0469 439.1848 131.5781 L435.1067 131.5781 Z"
      /><polygon style="fill:none;" points=" 370 154 313 154"
    /></g
    ><g style="fill:white; text-rendering:optimizeSpeed; stroke:white;"
    ><circle r="11" style="clip-path:url(#clipPath13); stroke:none;" cx="370" cy="154"
      /><rect x="359" y="143" width="22" style="clip-path:url(#clipPath13); fill:rgb(0,144,188); stroke:none;" height="22"
      /><rect x="359" y="143" width="22" style="clip-path:url(#clipPath13); fill:none; stroke:black;" height="22"
      /><circle r="11" style="fill:none; stroke:black;" cx="370" cy="154"
      /><rect x="357" width="25" height="10" y="125" style="stroke:none;"
    /></g
    ><g style="text-rendering:optimizeSpeed; font-size:14px; font-family:'SansSerif';"
    ><path style="stroke:none;" d="M361.1094 130.5781 C362.3438 130.5781 362.9688 131.4688 362.9688 132.8438 C362.9688 134.25 362.1875 135.1875 361.2188 135.1875 C359.9219 135.1875 359.1562 134.0312 359 131.8906 C359.625 130.9531 360.4531 130.5781 361.1094 130.5781 ZM361.2188 136.1875 C362.8125 136.1875 364.1562 134.8438 364.1562 132.8438 C364.1562 130.7031 363.0469 129.625 361.3125 129.625 C360.5 129.625 359.6094 130.1094 358.9688 130.875 C359.0312 127.6875 360.2188 126.6094 361.625 126.6094 C362.25 126.6094 362.8594 126.9062 363.2656 127.3906 L363.9688 126.5938 C363.4062 125.9844 362.6406 125.5469 361.5781 125.5469 C359.5938 125.5469 357.7812 127.0781 357.7812 131.0938 C357.7812 134.4844 359.2344 136.1875 361.2188 136.1875 ZM366.1762 136 L367.3481 136 L367.3481 130.3125 C367.3481 129.4375 367.2543 128.1875 367.1918 127.2969 L367.2543 127.2969 L368.0668 129.625 L370.0043 134.9688 L370.8793 134.9688 L372.8168 129.625 L373.6293 127.2969 L373.6918 127.2969 C373.6137 128.1875 373.52 129.4375 373.52 130.3125 L373.52 136 L374.7387 136 L374.7387 125.7188 L373.1762 125.7188 L371.2075 131.2188 C370.9731 131.9375 370.7543 132.6562 370.5043 133.375 L370.4418 133.375 C370.1918 132.6562 369.9575 131.9375 369.7075 131.2188 L367.7387 125.7188 L366.1762 125.7188 L366.1762 136 ZM380.4973 136.1875 C381.5286 136.1875 382.3411 135.8281 383.0129 135.3906 L382.5442 134.5625 C381.9973 134.9375 381.3879 135.1562 380.6536 135.1562 C379.2004 135.1562 378.2161 134.125 378.1223 132.5 L383.2473 132.5 C383.2786 132.3125 383.3098 132.0469 383.3098 131.7656 C383.3098 129.6094 382.2161 128.2031 380.2786 128.2031 C378.5129 128.2031 376.8567 129.7344 376.8567 132.2031 C376.8567 134.7188 378.4817 136.1875 380.4973 136.1875 ZM378.1067 131.5781 C378.2629 130.0938 379.2161 129.2188 380.2942 129.2188 C381.4817 129.2188 382.1848 130.0469 382.1848 131.5781 L378.1067 131.5781 Z"
      /><polygon style="fill:none;" points=" 313 154 256 154"
    /></g
    ><g style="fill:white; text-rendering:optimizeSpeed; stroke:white;"
    ><circle r="11" style="clip-path:url(#clipPath14); stroke:none;" cx="313" cy="154"
      /><rect x="302" y="143" width="22" style="clip-path:url(#clipPath14); fill:rgb(0,144,188); stroke:none;" height="22"
      /><rect x="302" y="143" width="22" style="clip-path:url(#clipPath14); fill:none; stroke:black;" height="22"
      /><circle r="11" style="fill:none; stroke:black;" cx="313" cy="154"
      /><rect x="300" width="25" height="10" y="125" style="stroke:none;"
    /></g
    ><g style="text-rendering:optimizeSpeed; font-size:14px; font-family:'SansSerif';"
    ><path style="stroke:none;" d="M304.1094 130.5781 C305.3438 130.5781 305.9688 131.4688 305.9688 132.8438 C305.9688 134.25 305.1875 135.1875 304.2188 135.1875 C302.9219 135.1875 302.1562 134.0312 302 131.8906 C302.625 130.9531 303.4531 130.5781 304.1094 130.5781 ZM304.2188 136.1875 C305.8125 136.1875 307.1562 134.8438 307.1562 132.8438 C307.1562 130.7031 306.0469 129.625 304.3125 129.625 C303.5 129.625 302.6094 130.1094 301.9688 130.875 C302.0312 127.6875 303.2188 126.6094 304.625 126.6094 C305.25 126.6094 305.8594 126.9062 306.2656 127.3906 L306.9688 126.5938 C306.4062 125.9844 305.6406 125.5469 304.5781 125.5469 C302.5938 125.5469 300.7812 127.0781 300.7812 131.0938 C300.7812 134.4844 302.2344 136.1875 304.2188 136.1875 ZM309.1762 136 L310.3481 136 L310.3481 130.3125 C310.3481 129.4375 310.2543 128.1875 310.1918 127.2969 L310.2543 127.2969 L311.0668 129.625 L313.0043 134.9688 L313.8793 134.9688 L315.8168 129.625 L316.6293 127.2969 L316.6918 127.2969 C316.6137 128.1875 316.52 129.4375 316.52 130.3125 L316.52 136 L317.7387 136 L317.7387 125.7188 L316.1762 125.7188 L314.2075 131.2188 C313.9731 131.9375 313.7543 132.6562 313.5043 133.375 L313.4418 133.375 C313.1918 132.6562 312.9575 131.9375 312.7075 131.2188 L310.7387 125.7188 L309.1762 125.7188 L309.1762 136 ZM323.4973 136.1875 C324.5286 136.1875 325.3411 135.8281 326.0129 135.3906 L325.5442 134.5625 C324.9973 134.9375 324.3879 135.1562 323.6536 135.1562 C322.2004 135.1562 321.2161 134.125 321.1223 132.5 L326.2473 132.5 C326.2786 132.3125 326.3098 132.0469 326.3098 131.7656 C326.3098 129.6094 325.2161 128.2031 323.2786 128.2031 C321.5129 128.2031 319.8567 129.7344 319.8567 132.2031 C319.8567 134.7188 321.4817 136.1875 323.4973 136.1875 ZM321.1067 131.5781 C321.2629 130.0938 322.2161 129.2188 323.2942 129.2188 C324.4817 129.2188 325.1848 130.0469 325.1848 131.5781 L321.1067 131.5781 Z"
      /><polygon style="fill:none;" points=" 256 154 202 154"
    /></g
    ><g style="fill:white; text-rendering:optimizeSpeed; stroke:white;"
    ><circle r="11" style="clip-path:url(#clipPath15); stroke:none;" cx="256" cy="154"
      /><rect x="245" y="143" width="22" style="clip-path:url(#clipPath15); fill:rgb(0,144,188); stroke:none;" height="22"
      /><rect x="245" y="143" width="22" style="clip-path:url(#clipPath15); fill:none; stroke:black;" height="22"
      /><circle r="11" style="fill:none; stroke:black;" cx="256" cy="154"
      /><rect x="243" width="25" height="10" y="125" style="stroke:none;"
    /></g
    ><g style="text-rendering:optimizeSpeed; font-size:14px; font-family:'SansSerif';"
    ><path style="stroke:none;" d="M247.1094 130.5781 C248.3438 130.5781 248.9688 131.4688 248.9688 132.8438 C248.9688 134.25 248.1875 135.1875 247.2188 135.1875 C245.9219 135.1875 245.1562 134.0312 245 131.8906 C245.625 130.9531 246.4531 130.5781 247.1094 130.5781 ZM247.2188 136.1875 C248.8125 136.1875 250.1562 134.8438 250.1562 132.8438 C250.1562 130.7031 249.0469 129.625 247.3125 129.625 C246.5 129.625 245.6094 130.1094 244.9688 130.875 C245.0312 127.6875 246.2188 126.6094 247.625 126.6094 C248.25 126.6094 248.8594 126.9062 249.2656 127.3906 L249.9688 126.5938 C249.4062 125.9844 248.6406 125.5469 247.5781 125.5469 C245.5938 125.5469 243.7812 127.0781 243.7812 131.0938 C243.7812 134.4844 245.2344 136.1875 247.2188 136.1875 ZM252.1762 136 L253.3481 136 L253.3481 130.3125 C253.3481 129.4375 253.2543 128.1875 253.1918 127.2969 L253.2543 127.2969 L254.0668 129.625 L256.0043 134.9688 L256.8793 134.9688 L258.8168 129.625 L259.6293 127.2969 L259.6918 127.2969 C259.6137 128.1875 259.52 129.4375 259.52 130.3125 L259.52 136 L260.7387 136 L260.7387 125.7188 L259.1762 125.7188 L257.2075 131.2188 C256.9731 131.9375 256.7543 132.6562 256.5043 133.375 L256.4418 133.375 C256.1918 132.6562 255.9575 131.9375 255.7075 131.2188 L253.7387 125.7188 L252.1762 125.7188 L252.1762 136 ZM266.4973 136.1875 C267.5286 136.1875 268.3411 135.8281 269.0129 135.3906 L268.5442 134.5625 C267.9973 134.9375 267.3879 135.1562 266.6536 135.1562 C265.2004 135.1562 264.2161 134.125 264.1223 132.5 L269.2473 132.5 C269.2786 132.3125 269.3098 132.0469 269.3098 131.7656 C269.3098 129.6094 268.2161 128.2031 266.2786 128.2031 C264.5129 128.2031 262.8567 129.7344 262.8567 132.2031 C262.8567 134.7188 264.4817 136.1875 266.4973 136.1875 ZM264.1067 131.5781 C264.2629 130.0938 265.2161 129.2188 266.2942 129.2188 C267.4817 129.2188 268.1848 130.0469 268.1848 131.5781 L264.1067 131.5781 Z"
      /><polygon style="fill:none;" points=" 202 154 150 154"
    /></g
    ><g style="fill:white; text-rendering:optimizeSpeed; stroke:white;"
    ><circle r="11" style="clip-path:url(#clipPath16); stroke:none;" cx="202" cy="154"
      /><rect x="191" y="143" width="22" style="clip-path:url(#clipPath16); fill:rgb(0,144,188); stroke:none;" height="22"
      /><rect x="191" y="143" width="22" style="clip-path:url(#clipPath16); fill:none; stroke:black;" height="22"
      /><circle r="11" style="fill:none; stroke:black;" cx="202" cy="154"
      /><polygon style="fill:none; stroke:black;" points=" 150 154 98 154"
      /><circle r="11" style="clip-path:url(#clipPath17); stroke:none;" cx="150" cy="154"
      /><rect x="139" y="143" width="22" style="clip-path:url(#clipPath17); fill:rgb(0,144,188); stroke:none;" height="22"
      /><rect x="139" y="143" width="22" style="clip-path:url(#clipPath17); fill:none; stroke:black;" height="22"
      /><circle r="11" style="fill:none; stroke:black;" cx="150" cy="154"
      /><polygon style="fill:none; stroke:black;" points=" 98 154 43 154"
      /><circle r="11" style="clip-path:url(#clipPath18); stroke:none;" cx="98" cy="154"
      /><rect x="87" y="143" width="22" style="clip-path:url(#clipPath18); fill:rgb(0,144,188); stroke:none;" height="22"
      /><rect x="87" y="143" width="22" style="clip-path:url(#clipPath18); fill:none; stroke:black;" height="22"
      /><circle r="11" style="fill:none; stroke:black;" cx="98" cy="154"
      /><circle r="11" style="clip-path:url(#clipPath19); stroke:none;" cx="43" cy="154"
      /><rect x="32" y="143" width="22" style="clip-path:url(#clipPath19); fill:rgb(0,144,188); stroke:none;" height="22"
      /><rect x="32" y="143" width="22" style="clip-path:url(#clipPath19); fill:none; stroke:black;" height="22"
      /><circle r="11" style="fill:none; stroke:black;" cx="43" cy="154"
      /><rect x="30" width="25" height="10" y="171" style="stroke:none;"
    /></g
    ><g style="text-rendering:optimizeSpeed; font-size:14px; font-family:'SansSerif';"
    ><path style="stroke:none;" d="M33.7031 182.1875 C35.5156 182.1875 36.9844 181.0938 36.9844 179.25 C36.9844 177.8594 36.0156 176.9375 34.8125 176.6562 L34.8125 176.5938 C35.8906 176.1875 36.6406 175.3594 36.6406 174.125 C36.6406 172.5 35.375 171.5469 33.6562 171.5469 C32.4688 171.5469 31.5469 172.0625 30.7812 172.7812 L31.4688 173.5938 C32.0469 173 32.7656 172.5938 33.5938 172.5938 C34.6562 172.5938 35.3281 173.2344 35.3281 174.2188 C35.3281 175.3281 34.6094 176.1719 32.4844 176.1719 L32.4844 177.1562 C34.8594 177.1562 35.6875 177.9844 35.6875 179.2031 C35.6875 180.3906 34.8125 181.125 33.5938 181.125 C32.4375 181.125 31.6562 180.5781 31.0469 179.9375 L30.4062 180.7812 C31.0781 181.5156 32.0938 182.1875 33.7031 182.1875 ZM39.1762 182 L40.3481 182 L40.3481 176.3125 C40.3481 175.4375 40.2543 174.1875 40.1918 173.2969 L40.2543 173.2969 L41.0668 175.625 L43.0043 180.9688 L43.8793 180.9688 L45.8168 175.625 L46.6293 173.2969 L46.6918 173.2969 C46.6137 174.1875 46.52 175.4375 46.52 176.3125 L46.52 182 L47.7387 182 L47.7387 171.7188 L46.1762 171.7188 L44.2075 177.2188 C43.9731 177.9375 43.7543 178.6562 43.5043 179.375 L43.4418 179.375 C43.1918 178.6562 42.9575 177.9375 42.7075 177.2188 L40.7387 171.7188 L39.1762 171.7188 L39.1762 182 ZM53.4973 182.1875 C54.5285 182.1875 55.341 181.8281 56.0129 181.3906 L55.5442 180.5625 C54.9973 180.9375 54.3879 181.1562 53.6535 181.1562 C52.2004 181.1562 51.216 180.125 51.1223 178.5 L56.2473 178.5 C56.2785 178.3125 56.3098 178.0469 56.3098 177.7656 C56.3098 175.6094 55.216 174.2031 53.2785 174.2031 C51.5129 174.2031 49.8567 175.7344 49.8567 178.2031 C49.8567 180.7188 51.4817 182.1875 53.4973 182.1875 ZM51.1067 177.5781 C51.2629 176.0938 52.216 175.2188 53.2942 175.2188 C54.4817 175.2188 55.1848 176.0469 55.1848 177.5781 L51.1067 177.5781 Z"
    /></g
    ><g style="fill:white; text-rendering:optimizeSpeed; font-family:'Serif'; stroke:white;"
    ><rect x="76" width="5" height="10" y="157" style="stroke:none;"
      /><path d="M77.8906 165.6875 C77.4844 165.6875 77.1562 166.0469 77.1562 166.4219 C77.1562 166.8125 77.4844 167.1562 77.8906 167.1562 C78.2969 167.1562 78.6406 166.8125 78.6406 166.4219 C78.6406 166.0469 78.2969 165.6875 77.8906 165.6875 ZM79.4688 159.5781 C79.7188 159.8906 79.875 160.2656 79.8906 160.6562 C79.8906 161.1875 79.625 161.5 79.0312 161.7656 L78.4062 162.0156 C77.6406 162.3125 77.3906 162.5469 77.3906 162.9375 C77.3906 163.1094 77.4531 163.3438 77.5781 163.8125 L77.7344 164.3438 L78.1094 164.3438 L78.0938 163.5312 C78.0938 163.0938 78.2031 162.9688 78.7812 162.7344 L79.2031 162.5625 C80.0312 162.2188 80.4531 161.6875 80.4531 160.8438 C80.4531 159.1562 78.6562 158.1875 77.5 158.0312 C77.1094 158.125 76.9062 158.2969 76.9062 158.6406 C76.9062 158.9375 77.0625 159.1562 77.7188 159.2656 L79.4688 159.5781 Z" style="fill:black; stroke:none;"
      /><rect x="62" width="5" height="10" y="157" style="stroke:none;"
      /><path d="M63.8906 165.6875 C63.4844 165.6875 63.1562 166.0469 63.1562 166.4219 C63.1562 166.8125 63.4844 167.1562 63.8906 167.1562 C64.2969 167.1562 64.6406 166.8125 64.6406 166.4219 C64.6406 166.0469 64.2969 165.6875 63.8906 165.6875 ZM65.4688 159.5781 C65.7188 159.8906 65.875 160.2656 65.8906 160.6562 C65.8906 161.1875 65.625 161.5 65.0312 161.7656 L64.4062 162.0156 C63.6406 162.3125 63.3906 162.5469 63.3906 162.9375 C63.3906 163.1094 63.4531 163.3438 63.5781 163.8125 L63.7344 164.3438 L64.1094 164.3438 L64.0938 163.5312 C64.0938 163.0938 64.2031 162.9688 64.7812 162.7344 L65.2031 162.5625 C66.0312 162.2188 66.4531 161.6875 66.4531 160.8438 C66.4531 159.1562 64.6562 158.1875 63.5 158.0312 C63.1094 158.125 62.9062 158.2969 62.9062 158.6406 C62.9062 158.9375 63.0625 159.1562 63.7188 159.2656 L65.4688 159.5781 Z" style="fill:black; stroke:none;"
      /><rect x="128" width="5" height="10" y="157" style="stroke:none;"
      /><path d="M129.8906 165.6875 C129.4844 165.6875 129.1562 166.0469 129.1562 166.4219 C129.1562 166.8125 129.4844 167.1562 129.8906 167.1562 C130.2969 167.1562 130.6406 166.8125 130.6406 166.4219 C130.6406 166.0469 130.2969 165.6875 129.8906 165.6875 ZM131.4688 159.5781 C131.7188 159.8906 131.875 160.2656 131.8906 160.6562 C131.8906 161.1875 131.625 161.5 131.0312 161.7656 L130.4062 162.0156 C129.6406 162.3125 129.3906 162.5469 129.3906 162.9375 C129.3906 163.1094 129.4531 163.3438 129.5781 163.8125 L129.7344 164.3438 L130.1094 164.3438 L130.0938 163.5312 C130.0938 163.0938 130.2031 162.9688 130.7812 162.7344 L131.2031 162.5625 C132.0312 162.2188 132.4531 161.6875 132.4531 160.8438 C132.4531 159.1562 130.6562 158.1875 129.5 158.0312 C129.1094 158.125 128.9062 158.2969 128.9062 158.6406 C128.9062 158.9375 129.0625 159.1562 129.7188 159.2656 L131.4688 159.5781 Z" style="fill:black; stroke:none;"
      /><rect x="114" width="5" height="10" y="157" style="stroke:none;"
      /><path d="M115.8906 165.6875 C115.4844 165.6875 115.1562 166.0469 115.1562 166.4219 C115.1562 166.8125 115.4844 167.1562 115.8906 167.1562 C116.2969 167.1562 116.6406 166.8125 116.6406 166.4219 C116.6406 166.0469 116.2969 165.6875 115.8906 165.6875 ZM117.4688 159.5781 C117.7188 159.8906 117.875 160.2656 117.8906 160.6562 C117.8906 161.1875 117.625 161.5 117.0312 161.7656 L116.4062 162.0156 C115.6406 162.3125 115.3906 162.5469 115.3906 162.9375 C115.3906 163.1094 115.4531 163.3438 115.5781 163.8125 L115.7344 164.3438 L116.1094 164.3438 L116.0938 163.5312 C116.0938 163.0938 116.2031 162.9688 116.7812 162.7344 L117.2031 162.5625 C118.0312 162.2188 118.4531 161.6875 118.4531 160.8438 C118.4531 159.1562 116.6562 158.1875 115.5 158.0312 C115.1094 158.125 114.9062 158.2969 114.9062 158.6406 C114.9062 158.9375 115.0625 159.1562 115.7188 159.2656 L117.4688 159.5781 Z" style="fill:black; stroke:none;"
      /><rect x="180" width="5" height="10" y="157" style="stroke:none;"
      /><path d="M181.8906 165.6875 C181.4844 165.6875 181.1562 166.0469 181.1562 166.4219 C181.1562 166.8125 181.4844 167.1562 181.8906 167.1562 C182.2969 167.1562 182.6406 166.8125 182.6406 166.4219 C182.6406 166.0469 182.2969 165.6875 181.8906 165.6875 ZM183.4688 159.5781 C183.7188 159.8906 183.875 160.2656 183.8906 160.6562 C183.8906 161.1875 183.625 161.5 183.0312 161.7656 L182.4062 162.0156 C181.6406 162.3125 181.3906 162.5469 181.3906 162.9375 C181.3906 163.1094 181.4531 163.3438 181.5781 163.8125 L181.7344 164.3438 L182.1094 164.3438 L182.0938 163.5312 C182.0938 163.0938 182.2031 162.9688 182.7812 162.7344 L183.2031 162.5625 C184.0312 162.2188 184.4531 161.6875 184.4531 160.8438 C184.4531 159.1562 182.6562 158.1875 181.5 158.0312 C181.1094 158.125 180.9062 158.2969 180.9062 158.6406 C180.9062 158.9375 181.0625 159.1562 181.7188 159.2656 L183.4688 159.5781 Z" style="fill:black; stroke:none;"
      /><rect x="166" width="5" height="10" y="157" style="stroke:none;"
      /><path d="M167.8906 165.6875 C167.4844 165.6875 167.1562 166.0469 167.1562 166.4219 C167.1562 166.8125 167.4844 167.1562 167.8906 167.1562 C168.2969 167.1562 168.6406 166.8125 168.6406 166.4219 C168.6406 166.0469 168.2969 165.6875 167.8906 165.6875 ZM169.4688 159.5781 C169.7188 159.8906 169.875 160.2656 169.8906 160.6562 C169.8906 161.1875 169.625 161.5 169.0312 161.7656 L168.4062 162.0156 C167.6406 162.3125 167.3906 162.5469 167.3906 162.9375 C167.3906 163.1094 167.4531 163.3438 167.5781 163.8125 L167.7344 164.3438 L168.1094 164.3438 L168.0938 163.5312 C168.0938 163.0938 168.2031 162.9688 168.7812 162.7344 L169.2031 162.5625 C170.0312 162.2188 170.4531 161.6875 170.4531 160.8438 C170.4531 159.1562 168.6562 158.1875 167.5 158.0312 C167.1094 158.125 166.9062 158.2969 166.9062 158.6406 C166.9062 158.9375 167.0625 159.1562 167.7188 159.2656 L169.4688 159.5781 Z" style="fill:black; stroke:none;"
      /><rect x="232" width="5" height="10" y="157" style="stroke:none;"
      /><path d="M233.8906 165.6875 C233.4844 165.6875 233.1562 166.0469 233.1562 166.4219 C233.1562 166.8125 233.4844 167.1562 233.8906 167.1562 C234.2969 167.1562 234.6406 166.8125 234.6406 166.4219 C234.6406 166.0469 234.2969 165.6875 233.8906 165.6875 ZM235.4688 159.5781 C235.7188 159.8906 235.875 160.2656 235.8906 160.6562 C235.8906 161.1875 235.625 161.5 235.0312 161.7656 L234.4062 162.0156 C233.6406 162.3125 233.3906 162.5469 233.3906 162.9375 C233.3906 163.1094 233.4531 163.3438 233.5781 163.8125 L233.7344 164.3438 L234.1094 164.3438 L234.0938 163.5312 C234.0938 163.0938 234.2031 162.9688 234.7812 162.7344 L235.2031 162.5625 C236.0312 162.2188 236.4531 161.6875 236.4531 160.8438 C236.4531 159.1562 234.6562 158.1875 233.5 158.0312 C233.1094 158.125 232.9062 158.2969 232.9062 158.6406 C232.9062 158.9375 233.0625 159.1562 233.7188 159.2656 L235.4688 159.5781 Z" style="fill:black; stroke:none;"
      /><rect x="218" width="5" height="10" y="157" style="stroke:none;"
      /><path d="M219.8906 165.6875 C219.4844 165.6875 219.1562 166.0469 219.1562 166.4219 C219.1562 166.8125 219.4844 167.1562 219.8906 167.1562 C220.2969 167.1562 220.6406 166.8125 220.6406 166.4219 C220.6406 166.0469 220.2969 165.6875 219.8906 165.6875 ZM221.4688 159.5781 C221.7188 159.8906 221.875 160.2656 221.8906 160.6562 C221.8906 161.1875 221.625 161.5 221.0312 161.7656 L220.4062 162.0156 C219.6406 162.3125 219.3906 162.5469 219.3906 162.9375 C219.3906 163.1094 219.4531 163.3438 219.5781 163.8125 L219.7344 164.3438 L220.1094 164.3438 L220.0938 163.5312 C220.0938 163.0938 220.2031 162.9688 220.7812 162.7344 L221.2031 162.5625 C222.0312 162.2188 222.4531 161.6875 222.4531 160.8438 C222.4531 159.1562 220.6562 158.1875 219.5 158.0312 C219.1094 158.125 218.9062 158.2969 218.9062 158.6406 C218.9062 158.9375 219.0625 159.1562 219.7188 159.2656 L221.4688 159.5781 Z" style="fill:black; stroke:none;"
      /><rect x="289" width="5" height="10" y="157" style="stroke:none;"
      /><path d="M290.8906 165.6875 C290.4844 165.6875 290.1562 166.0469 290.1562 166.4219 C290.1562 166.8125 290.4844 167.1562 290.8906 167.1562 C291.2969 167.1562 291.6406 166.8125 291.6406 166.4219 C291.6406 166.0469 291.2969 165.6875 290.8906 165.6875 ZM292.4688 159.5781 C292.7188 159.8906 292.875 160.2656 292.8906 160.6562 C292.8906 161.1875 292.625 161.5 292.0312 161.7656 L291.4062 162.0156 C290.6406 162.3125 290.3906 162.5469 290.3906 162.9375 C290.3906 163.1094 290.4531 163.3438 290.5781 163.8125 L290.7344 164.3438 L291.1094 164.3438 L291.0938 163.5312 C291.0938 163.0938 291.2031 162.9688 291.7812 162.7344 L292.2031 162.5625 C293.0312 162.2188 293.4531 161.6875 293.4531 160.8438 C293.4531 159.1562 291.6562 158.1875 290.5 158.0312 C290.1094 158.125 289.9062 158.2969 289.9062 158.6406 C289.9062 158.9375 290.0625 159.1562 290.7188 159.2656 L292.4688 159.5781 Z" style="fill:black; stroke:none;"
      /><rect x="275" width="5" height="10" y="157" style="stroke:none;"
      /><path d="M276.8906 165.6875 C276.4844 165.6875 276.1562 166.0469 276.1562 166.4219 C276.1562 166.8125 276.4844 167.1562 276.8906 167.1562 C277.2969 167.1562 277.6406 166.8125 277.6406 166.4219 C277.6406 166.0469 277.2969 165.6875 276.8906 165.6875 ZM278.4688 159.5781 C278.7188 159.8906 278.875 160.2656 278.8906 160.6562 C278.8906 161.1875 278.625 161.5 278.0312 161.7656 L277.4062 162.0156 C276.6406 162.3125 276.3906 162.5469 276.3906 162.9375 C276.3906 163.1094 276.4531 163.3438 276.5781 163.8125 L276.7344 164.3438 L277.1094 164.3438 L277.0938 163.5312 C277.0938 163.0938 277.2031 162.9688 277.7812 162.7344 L278.2031 162.5625 C279.0312 162.2188 279.4531 161.6875 279.4531 160.8438 C279.4531 159.1562 277.6562 158.1875 276.5 158.0312 C276.1094 158.125 275.9062 158.2969 275.9062 158.6406 C275.9062 158.9375 276.0625 159.1562 276.7188 159.2656 L278.4688 159.5781 Z" style="fill:black; stroke:none;"
      /><rect x="346" width="5" height="10" y="157" style="stroke:none;"
      /><path d="M347.8906 165.6875 C347.4844 165.6875 347.1562 166.0469 347.1562 166.4219 C347.1562 166.8125 347.4844 167.1562 347.8906 167.1562 C348.2969 167.1562 348.6406 166.8125 348.6406 166.4219 C348.6406 166.0469 348.2969 165.6875 347.8906 165.6875 ZM349.4688 159.5781 C349.7188 159.8906 349.875 160.2656 349.8906 160.6562 C349.8906 161.1875 349.625 161.5 349.0312 161.7656 L348.4062 162.0156 C347.6406 162.3125 347.3906 162.5469 347.3906 162.9375 C347.3906 163.1094 347.4531 163.3438 347.5781 163.8125 L347.7344 164.3438 L348.1094 164.3438 L348.0938 163.5312 C348.0938 163.0938 348.2031 162.9688 348.7812 162.7344 L349.2031 162.5625 C350.0312 162.2188 350.4531 161.6875 350.4531 160.8438 C350.4531 159.1562 348.6562 158.1875 347.5 158.0312 C347.1094 158.125 346.9062 158.2969 346.9062 158.6406 C346.9062 158.9375 347.0625 159.1562 347.7188 159.2656 L349.4688 159.5781 Z" style="fill:black; stroke:none;"
      /><rect x="332" width="5" height="10" y="157" style="stroke:none;"
      /><path d="M333.8906 165.6875 C333.4844 165.6875 333.1562 166.0469 333.1562 166.4219 C333.1562 166.8125 333.4844 167.1562 333.8906 167.1562 C334.2969 167.1562 334.6406 166.8125 334.6406 166.4219 C334.6406 166.0469 334.2969 165.6875 333.8906 165.6875 ZM335.4688 159.5781 C335.7188 159.8906 335.875 160.2656 335.8906 160.6562 C335.8906 161.1875 335.625 161.5 335.0312 161.7656 L334.4062 162.0156 C333.6406 162.3125 333.3906 162.5469 333.3906 162.9375 C333.3906 163.1094 333.4531 163.3438 333.5781 163.8125 L333.7344 164.3438 L334.1094 164.3438 L334.0938 163.5312 C334.0938 163.0938 334.2031 162.9688 334.7812 162.7344 L335.2031 162.5625 C336.0312 162.2188 336.4531 161.6875 336.4531 160.8438 C336.4531 159.1562 334.6562 158.1875 333.5 158.0312 C333.1094 158.125 332.9062 158.2969 332.9062 158.6406 C332.9062 158.9375 333.0625 159.1562 333.7188 159.2656 L335.4688 159.5781 Z" style="fill:black; stroke:none;"
      /><rect x="403" width="5" height="10" y="157" style="stroke:none;"
      /><path d="M404.8906 165.6875 C404.4844 165.6875 404.1562 166.0469 404.1562 166.4219 C404.1562 166.8125 404.4844 167.1562 404.8906 167.1562 C405.2969 167.1562 405.6406 166.8125 405.6406 166.4219 C405.6406 166.0469 405.2969 165.6875 404.8906 165.6875 ZM406.4688 159.5781 C406.7188 159.8906 406.875 160.2656 406.8906 160.6562 C406.8906 161.1875 406.625 161.5 406.0312 161.7656 L405.4062 162.0156 C404.6406 162.3125 404.3906 162.5469 404.3906 162.9375 C404.3906 163.1094 404.4531 163.3438 404.5781 163.8125 L404.7344 164.3438 L405.1094 164.3438 L405.0938 163.5312 C405.0938 163.0938 405.2031 162.9688 405.7812 162.7344 L406.2031 162.5625 C407.0312 162.2188 407.4531 161.6875 407.4531 160.8438 C407.4531 159.1562 405.6562 158.1875 404.5 158.0312 C404.1094 158.125 403.9062 158.2969 403.9062 158.6406 C403.9062 158.9375 404.0625 159.1562 404.7188 159.2656 L406.4688 159.5781 Z" style="fill:black; stroke:none;"
      /><rect x="389" width="5" height="10" y="157" style="stroke:none;"
      /><path d="M390.8906 165.6875 C390.4844 165.6875 390.1562 166.0469 390.1562 166.4219 C390.1562 166.8125 390.4844 167.1562 390.8906 167.1562 C391.2969 167.1562 391.6406 166.8125 391.6406 166.4219 C391.6406 166.0469 391.2969 165.6875 390.8906 165.6875 ZM392.4688 159.5781 C392.7188 159.8906 392.875 160.2656 392.8906 160.6562 C392.8906 161.1875 392.625 161.5 392.0312 161.7656 L391.4062 162.0156 C390.6406 162.3125 390.3906 162.5469 390.3906 162.9375 C390.3906 163.1094 390.4531 163.3438 390.5781 163.8125 L390.7344 164.3438 L391.1094 164.3438 L391.0938 163.5312 C391.0938 163.0938 391.2031 162.9688 391.7812 162.7344 L392.2031 162.5625 C393.0312 162.2188 393.4531 161.6875 393.4531 160.8438 C393.4531 159.1562 391.6562 158.1875 390.5 158.0312 C390.1094 158.125 389.9062 158.2969 389.9062 158.6406 C389.9062 158.9375 390.0625 159.1562 390.7188 159.2656 L392.4688 159.5781 Z" style="fill:black; stroke:none;"
      /><rect x="460" width="5" height="10" y="157" style="stroke:none;"
      /><path d="M461.8906 165.6875 C461.4844 165.6875 461.1562 166.0469 461.1562 166.4219 C461.1562 166.8125 461.4844 167.1562 461.8906 167.1562 C462.2969 167.1562 462.6406 166.8125 462.6406 166.4219 C462.6406 166.0469 462.2969 165.6875 461.8906 165.6875 ZM463.4688 159.5781 C463.7188 159.8906 463.875 160.2656 463.8906 160.6562 C463.8906 161.1875 463.625 161.5 463.0312 161.7656 L462.4062 162.0156 C461.6406 162.3125 461.3906 162.5469 461.3906 162.9375 C461.3906 163.1094 461.4531 163.3438 461.5781 163.8125 L461.7344 164.3438 L462.1094 164.3438 L462.0938 163.5312 C462.0938 163.0938 462.2031 162.9688 462.7812 162.7344 L463.2031 162.5625 C464.0312 162.2188 464.4531 161.6875 464.4531 160.8438 C464.4531 159.1562 462.6562 158.1875 461.5 158.0312 C461.1094 158.125 460.9062 158.2969 460.9062 158.6406 C460.9062 158.9375 461.0625 159.1562 461.7188 159.2656 L463.4688 159.5781 Z" style="fill:black; stroke:none;"
      /><rect x="446" width="5" height="10" y="157" style="stroke:none;"
      /><path d="M447.8906 165.6875 C447.4844 165.6875 447.1562 166.0469 447.1562 166.4219 C447.1562 166.8125 447.4844 167.1562 447.8906 167.1562 C448.2969 167.1562 448.6406 166.8125 448.6406 166.4219 C448.6406 166.0469 448.2969 165.6875 447.8906 165.6875 ZM449.4688 159.5781 C449.7188 159.8906 449.875 160.2656 449.8906 160.6562 C449.8906 161.1875 449.625 161.5 449.0312 161.7656 L448.4062 162.0156 C447.6406 162.3125 447.3906 162.5469 447.3906 162.9375 C447.3906 163.1094 447.4531 163.3438 447.5781 163.8125 L447.7344 164.3438 L448.1094 164.3438 L448.0938 163.5312 C448.0938 163.0938 448.2031 162.9688 448.7812 162.7344 L449.2031 162.5625 C450.0312 162.2188 450.4531 161.6875 450.4531 160.8438 C450.4531 159.1562 448.6562 158.1875 447.5 158.0312 C447.1094 158.125 446.9062 158.2969 446.9062 158.6406 C446.9062 158.9375 447.0625 159.1562 447.7188 159.2656 L449.4688 159.5781 Z" style="fill:black; stroke:none;"
      /><rect x="517" width="5" height="10" y="157" style="stroke:none;"
      /><path d="M518.8906 165.6875 C518.4844 165.6875 518.1562 166.0469 518.1562 166.4219 C518.1562 166.8125 518.4844 167.1562 518.8906 167.1562 C519.2969 167.1562 519.6406 166.8125 519.6406 166.4219 C519.6406 166.0469 519.2969 165.6875 518.8906 165.6875 ZM520.4688 159.5781 C520.7188 159.8906 520.875 160.2656 520.8906 160.6562 C520.8906 161.1875 520.625 161.5 520.0312 161.7656 L519.4062 162.0156 C518.6406 162.3125 518.3906 162.5469 518.3906 162.9375 C518.3906 163.1094 518.4531 163.3438 518.5781 163.8125 L518.7344 164.3438 L519.1094 164.3438 L519.0938 163.5312 C519.0938 163.0938 519.2031 162.9688 519.7812 162.7344 L520.2031 162.5625 C521.0312 162.2188 521.4531 161.6875 521.4531 160.8438 C521.4531 159.1562 519.6562 158.1875 518.5 158.0312 C518.1094 158.125 517.9062 158.2969 517.9062 158.6406 C517.9062 158.9375 518.0625 159.1562 518.7188 159.2656 L520.4688 159.5781 Z" style="fill:black; stroke:none;"
      /><rect x="503" width="5" height="10" y="157" style="stroke:none;"
      /><path d="M504.8906 165.6875 C504.4844 165.6875 504.1562 166.0469 504.1562 166.4219 C504.1562 166.8125 504.4844 167.1562 504.8906 167.1562 C505.2969 167.1562 505.6406 166.8125 505.6406 166.4219 C505.6406 166.0469 505.2969 165.6875 504.8906 165.6875 ZM506.4688 159.5781 C506.7188 159.8906 506.875 160.2656 506.8906 160.6562 C506.8906 161.1875 506.625 161.5 506.0312 161.7656 L505.4062 162.0156 C504.6406 162.3125 504.3906 162.5469 504.3906 162.9375 C504.3906 163.1094 504.4531 163.3438 504.5781 163.8125 L504.7344 164.3438 L505.1094 164.3438 L505.0938 163.5312 C505.0938 163.0938 505.2031 162.9688 505.7812 162.7344 L506.2031 162.5625 C507.0312 162.2188 507.4531 161.6875 507.4531 160.8438 C507.4531 159.1562 505.6562 158.1875 504.5 158.0312 C504.1094 158.125 503.9062 158.2969 503.9062 158.6406 C503.9062 158.9375 504.0625 159.1562 504.7188 159.2656 L506.4688 159.5781 Z" style="fill:black; stroke:none;"
      /><rect x="574" width="5" height="10" y="157" style="stroke:none;"
      /><path d="M575.8906 165.6875 C575.4844 165.6875 575.1562 166.0469 575.1562 166.4219 C575.1562 166.8125 575.4844 167.1562 575.8906 167.1562 C576.2969 167.1562 576.6406 166.8125 576.6406 166.4219 C576.6406 166.0469 576.2969 165.6875 575.8906 165.6875 ZM577.4688 159.5781 C577.7188 159.8906 577.875 160.2656 577.8906 160.6562 C577.8906 161.1875 577.625 161.5 577.0312 161.7656 L576.4062 162.0156 C575.6406 162.3125 575.3906 162.5469 575.3906 162.9375 C575.3906 163.1094 575.4531 163.3438 575.5781 163.8125 L575.7344 164.3438 L576.1094 164.3438 L576.0938 163.5312 C576.0938 163.0938 576.2031 162.9688 576.7812 162.7344 L577.2031 162.5625 C578.0312 162.2188 578.4531 161.6875 578.4531 160.8438 C578.4531 159.1562 576.6562 158.1875 575.5 158.0312 C575.1094 158.125 574.9062 158.2969 574.9062 158.6406 C574.9062 158.9375 575.0625 159.1562 575.7188 159.2656 L577.4688 159.5781 Z" style="fill:black; stroke:none;"
      /><rect x="560" width="5" height="10" y="157" style="stroke:none;"
      /><path d="M561.8906 165.6875 C561.4844 165.6875 561.1562 166.0469 561.1562 166.4219 C561.1562 166.8125 561.4844 167.1562 561.8906 167.1562 C562.2969 167.1562 562.6406 166.8125 562.6406 166.4219 C562.6406 166.0469 562.2969 165.6875 561.8906 165.6875 ZM563.4688 159.5781 C563.7188 159.8906 563.875 160.2656 563.8906 160.6562 C563.8906 161.1875 563.625 161.5 563.0312 161.7656 L562.4062 162.0156 C561.6406 162.3125 561.3906 162.5469 561.3906 162.9375 C561.3906 163.1094 561.4531 163.3438 561.5781 163.8125 L561.7344 164.3438 L562.1094 164.3438 L562.0938 163.5312 C562.0938 163.0938 562.2031 162.9688 562.7812 162.7344 L563.2031 162.5625 C564.0312 162.2188 564.4531 161.6875 564.4531 160.8438 C564.4531 159.1562 562.6562 158.1875 561.5 158.0312 C561.1094 158.125 560.9062 158.2969 560.9062 158.6406 C560.9062 158.9375 561.0625 159.1562 561.7188 159.2656 L563.4688 159.5781 Z" style="fill:black; stroke:none;"
      /><rect x="631" width="5" height="10" y="157" style="stroke:none;"
      /><path d="M632.8906 165.6875 C632.4844 165.6875 632.1562 166.0469 632.1562 166.4219 C632.1562 166.8125 632.4844 167.1562 632.8906 167.1562 C633.2969 167.1562 633.6406 166.8125 633.6406 166.4219 C633.6406 166.0469 633.2969 165.6875 632.8906 165.6875 ZM634.4688 159.5781 C634.7188 159.8906 634.875 160.2656 634.8906 160.6562 C634.8906 161.1875 634.625 161.5 634.0312 161.7656 L633.4062 162.0156 C632.6406 162.3125 632.3906 162.5469 632.3906 162.9375 C632.3906 163.1094 632.4531 163.3438 632.5781 163.8125 L632.7344 164.3438 L633.1094 164.3438 L633.0938 163.5312 C633.0938 163.0938 633.2031 162.9688 633.7812 162.7344 L634.2031 162.5625 C635.0312 162.2188 635.4531 161.6875 635.4531 160.8438 C635.4531 159.1562 633.6562 158.1875 632.5 158.0312 C632.1094 158.125 631.9062 158.2969 631.9062 158.6406 C631.9062 158.9375 632.0625 159.1562 632.7188 159.2656 L634.4688 159.5781 Z" style="fill:black; stroke:none;"
      /><rect x="617" width="5" height="10" y="157" style="stroke:none;"
      /><path d="M618.8906 165.6875 C618.4844 165.6875 618.1562 166.0469 618.1562 166.4219 C618.1562 166.8125 618.4844 167.1562 618.8906 167.1562 C619.2969 167.1562 619.6406 166.8125 619.6406 166.4219 C619.6406 166.0469 619.2969 165.6875 618.8906 165.6875 ZM620.4688 159.5781 C620.7188 159.8906 620.875 160.2656 620.8906 160.6562 C620.8906 161.1875 620.625 161.5 620.0312 161.7656 L619.4062 162.0156 C618.6406 162.3125 618.3906 162.5469 618.3906 162.9375 C618.3906 163.1094 618.4531 163.3438 618.5781 163.8125 L618.7344 164.3438 L619.1094 164.3438 L619.0938 163.5312 C619.0938 163.0938 619.2031 162.9688 619.7812 162.7344 L620.2031 162.5625 C621.0312 162.2188 621.4531 161.6875 621.4531 160.8438 C621.4531 159.1562 619.6562 158.1875 618.5 158.0312 C618.1094 158.125 617.9062 158.2969 617.9062 158.6406 C617.9062 158.9375 618.0625 159.1562 618.7188 159.2656 L620.4688 159.5781 Z" style="fill:black; stroke:none;"
      /><rect x="688" width="5" height="10" y="157" style="stroke:none;"
      /><path d="M689.8906 165.6875 C689.4844 165.6875 689.1562 166.0469 689.1562 166.4219 C689.1562 166.8125 689.4844 167.1562 689.8906 167.1562 C690.2969 167.1562 690.6406 166.8125 690.6406 166.4219 C690.6406 166.0469 690.2969 165.6875 689.8906 165.6875 ZM691.4688 159.5781 C691.7188 159.8906 691.875 160.2656 691.8906 160.6562 C691.8906 161.1875 691.625 161.5 691.0312 161.7656 L690.4062 162.0156 C689.6406 162.3125 689.3906 162.5469 689.3906 162.9375 C689.3906 163.1094 689.4531 163.3438 689.5781 163.8125 L689.7344 164.3438 L690.1094 164.3438 L690.0938 163.5312 C690.0938 163.0938 690.2031 162.9688 690.7812 162.7344 L691.2031 162.5625 C692.0312 162.2188 692.4531 161.6875 692.4531 160.8438 C692.4531 159.1562 690.6562 158.1875 689.5 158.0312 C689.1094 158.125 688.9062 158.2969 688.9062 158.6406 C688.9062 158.9375 689.0625 159.1562 689.7188 159.2656 L691.4688 159.5781 Z" style="fill:black; stroke:none;"
      /><rect x="674" width="5" height="10" y="157" style="stroke:none;"
      /><path d="M675.8906 165.6875 C675.4844 165.6875 675.1562 166.0469 675.1562 166.4219 C675.1562 166.8125 675.4844 167.1562 675.8906 167.1562 C676.2969 167.1562 676.6406 166.8125 676.6406 166.4219 C676.6406 166.0469 676.2969 165.6875 675.8906 165.6875 ZM677.4688 159.5781 C677.7188 159.8906 677.875 160.2656 677.8906 160.6562 C677.8906 161.1875 677.625 161.5 677.0312 161.7656 L676.4062 162.0156 C675.6406 162.3125 675.3906 162.5469 675.3906 162.9375 C675.3906 163.1094 675.4531 163.3438 675.5781 163.8125 L675.7344 164.3438 L676.1094 164.3438 L676.0938 163.5312 C676.0938 163.0938 676.2031 162.9688 676.7812 162.7344 L677.2031 162.5625 C678.0312 162.2188 678.4531 161.6875 678.4531 160.8438 C678.4531 159.1562 676.6562 158.1875 675.5 158.0312 C675.1094 158.125 674.9062 158.2969 674.9062 158.6406 C674.9062 158.9375 675.0625 159.1562 675.7188 159.2656 L677.4688 159.5781 Z" style="fill:black; stroke:none;"
      /><rect x="745" width="5" height="10" y="157" style="stroke:none;"
      /><path d="M746.8906 165.6875 C746.4844 165.6875 746.1562 166.0469 746.1562 166.4219 C746.1562 166.8125 746.4844 167.1562 746.8906 167.1562 C747.2969 167.1562 747.6406 166.8125 747.6406 166.4219 C747.6406 166.0469 747.2969 165.6875 746.8906 165.6875 ZM748.4688 159.5781 C748.7188 159.8906 748.875 160.2656 748.8906 160.6562 C748.8906 161.1875 748.625 161.5 748.0312 161.7656 L747.4062 162.0156 C746.6406 162.3125 746.3906 162.5469 746.3906 162.9375 C746.3906 163.1094 746.4531 163.3438 746.5781 163.8125 L746.7344 164.3438 L747.1094 164.3438 L747.0938 163.5312 C747.0938 163.0938 747.2031 162.9688 747.7812 162.7344 L748.2031 162.5625 C749.0312 162.2188 749.4531 161.6875 749.4531 160.8438 C749.4531 159.1562 747.6562 158.1875 746.5 158.0312 C746.1094 158.125 745.9062 158.2969 745.9062 158.6406 C745.9062 158.9375 746.0625 159.1562 746.7188 159.2656 L748.4688 159.5781 Z" style="fill:black; stroke:none;"
      /><rect x="731" width="5" height="10" y="157" style="stroke:none;"
      /><path d="M732.8906 165.6875 C732.4844 165.6875 732.1562 166.0469 732.1562 166.4219 C732.1562 166.8125 732.4844 167.1562 732.8906 167.1562 C733.2969 167.1562 733.6406 166.8125 733.6406 166.4219 C733.6406 166.0469 733.2969 165.6875 732.8906 165.6875 ZM734.4688 159.5781 C734.7188 159.8906 734.875 160.2656 734.8906 160.6562 C734.8906 161.1875 734.625 161.5 734.0312 161.7656 L733.4062 162.0156 C732.6406 162.3125 732.3906 162.5469 732.3906 162.9375 C732.3906 163.1094 732.4531 163.3438 732.5781 163.8125 L732.7344 164.3438 L733.1094 164.3438 L733.0938 163.5312 C733.0938 163.0938 733.2031 162.9688 733.7812 162.7344 L734.2031 162.5625 C735.0312 162.2188 735.4531 161.6875 735.4531 160.8438 C735.4531 159.1562 733.6562 158.1875 732.5 158.0312 C732.1094 158.125 731.9062 158.2969 731.9062 158.6406 C731.9062 158.9375 732.0625 159.1562 732.7188 159.2656 L734.4688 159.5781 Z" style="fill:black; stroke:none;"
      /><circle r="11" style="clip-path:url(#clipPath20); stroke:none;" cx="769" cy="79"
      /><rect x="758" y="68" width="22" style="clip-path:url(#clipPath20); fill:rgb(0,144,188); stroke:none;" height="22"
      /><rect x="758" y="68" width="22" style="clip-path:url(#clipPath20); fill:none; stroke:black;" height="22"
      /><circle r="11" style="fill:none; stroke:black;" cx="769" cy="79"
      /><rect x="808" width="5" height="10" y="130" style="stroke:none;"
      /><path d="M809.8906 138.6875 C809.4844 138.6875 809.1562 139.0469 809.1562 139.4219 C809.1562 139.8125 809.4844 140.1562 809.8906 140.1562 C810.2969 140.1562 810.6406 139.8125 810.6406 139.4219 C810.6406 139.0469 810.2969 138.6875 809.8906 138.6875 ZM811.4688 132.5781 C811.7188 132.8906 811.875 133.2656 811.8906 133.6562 C811.8906 134.1875 811.625 134.5 811.0312 134.7656 L810.4062 135.0156 C809.6406 135.3125 809.3906 135.5469 809.3906 135.9375 C809.3906 136.1094 809.4531 136.3438 809.5781 136.8125 L809.7344 137.3438 L810.1094 137.3438 L810.0938 136.5312 C810.0938 136.0938 810.2031 135.9688 810.7812 135.7344 L811.2031 135.5625 C812.0312 135.2188 812.4531 134.6875 812.4531 133.8438 C812.4531 132.1562 810.6562 131.1875 809.5 131.0312 C809.1094 131.125 808.9062 131.2969 808.9062 131.6406 C808.9062 131.9375 809.0625 132.1562 809.7188 132.2656 L811.4688 132.5781 Z" style="fill:black; stroke:none;"
      /><rect x="791" width="5" height="10" y="141" style="stroke:none;"
      /><path d="M792.8906 149.6875 C792.4844 149.6875 792.1562 150.0469 792.1562 150.4219 C792.1562 150.8125 792.4844 151.1562 792.8906 151.1562 C793.2969 151.1562 793.6406 150.8125 793.6406 150.4219 C793.6406 150.0469 793.2969 149.6875 792.8906 149.6875 ZM794.4688 143.5781 C794.7188 143.8906 794.875 144.2656 794.8906 144.6562 C794.8906 145.1875 794.625 145.5 794.0312 145.7656 L793.4062 146.0156 C792.6406 146.3125 792.3906 146.5469 792.3906 146.9375 C792.3906 147.1094 792.4531 147.3438 792.5781 147.8125 L792.7344 148.3438 L793.1094 148.3438 L793.0938 147.5312 C793.0938 147.0938 793.2031 146.9688 793.7812 146.7344 L794.2031 146.5625 C795.0312 146.2188 795.4531 145.6875 795.4531 144.8438 C795.4531 143.1562 793.6562 142.1875 792.5 142.0312 C792.1094 142.125 791.9062 142.2969 791.9062 142.6406 C791.9062 142.9375 792.0625 143.1562 792.7188 143.2656 L794.4688 143.5781 Z" style="fill:black; stroke:none;"
      /><rect x="799" width="5" height="10" y="104" style="stroke:none;"
      /><path d="M800.8906 112.6875 C800.4844 112.6875 800.1562 113.0469 800.1562 113.4219 C800.1562 113.8125 800.4844 114.1562 800.8906 114.1562 C801.2969 114.1562 801.6406 113.8125 801.6406 113.4219 C801.6406 113.0469 801.2969 112.6875 800.8906 112.6875 ZM802.4688 106.5781 C802.7188 106.8906 802.875 107.2656 802.8906 107.6562 C802.8906 108.1875 802.625 108.5 802.0312 108.7656 L801.4062 109.0156 C800.6406 109.3125 800.3906 109.5469 800.3906 109.9375 C800.3906 110.1094 800.4531 110.3438 800.5781 110.8125 L800.7344 111.3438 L801.1094 111.3438 L801.0938 110.5312 C801.0938 110.0938 801.2031 109.9688 801.7812 109.7344 L802.2031 109.5625 C803.0312 109.2188 803.4531 108.6875 803.4531 107.8438 C803.4531 106.1562 801.6562 105.1875 800.5 105.0312 C800.1094 105.125 799.9062 105.2969 799.9062 105.6406 C799.9062 105.9375 800.0625 106.1562 800.7188 106.2656 L802.4688 106.5781 Z" style="fill:black; stroke:none;"
      /><rect x="779" width="5" height="10" y="92" style="stroke:none;"
      /><path d="M780.8906 100.6875 C780.4844 100.6875 780.1562 101.0469 780.1562 101.4219 C780.1562 101.8125 780.4844 102.1562 780.8906 102.1562 C781.2969 102.1562 781.6406 101.8125 781.6406 101.4219 C781.6406 101.0469 781.2969 100.6875 780.8906 100.6875 ZM782.4688 94.5781 C782.7188 94.8906 782.875 95.2656 782.8906 95.6562 C782.8906 96.1875 782.625 96.5 782.0312 96.7656 L781.4062 97.0156 C780.6406 97.3125 780.3906 97.5469 780.3906 97.9375 C780.3906 98.1094 780.4531 98.3438 780.5781 98.8125 L780.7344 99.3438 L781.1094 99.3438 L781.0938 98.5312 C781.0938 98.0938 781.2031 97.9688 781.7812 97.7344 L782.2031 97.5625 C783.0312 97.2188 783.4531 96.6875 783.4531 95.8438 C783.4531 94.1562 781.6562 93.1875 780.5 93.0312 C780.1094 93.125 779.9062 93.2969 779.9062 93.6406 C779.9062 93.9375 780.0625 94.1562 780.7188 94.2656 L782.4688 94.5781 Z" style="fill:black; stroke:none;"
      /><rect x="859" width="5" height="10" y="119" style="stroke:none;"
      /><path d="M860.8906 127.6875 C860.4844 127.6875 860.1562 128.0469 860.1562 128.4219 C860.1562 128.8125 860.4844 129.1562 860.8906 129.1562 C861.2969 129.1562 861.6406 128.8125 861.6406 128.4219 C861.6406 128.0469 861.2969 127.6875 860.8906 127.6875 ZM862.4688 121.5781 C862.7188 121.8906 862.875 122.2656 862.8906 122.6562 C862.8906 123.1875 862.625 123.5 862.0312 123.7656 L861.4062 124.0156 C860.6406 124.3125 860.3906 124.5469 860.3906 124.9375 C860.3906 125.1094 860.4531 125.3438 860.5781 125.8125 L860.7344 126.3438 L861.1094 126.3438 L861.0938 125.5312 C861.0938 125.0938 861.2031 124.9688 861.7812 124.7344 L862.2031 124.5625 C863.0312 124.2188 863.4531 123.6875 863.4531 122.8438 C863.4531 121.1562 861.6562 120.1875 860.5 120.0312 C860.1094 120.125 859.9062 120.2969 859.9062 120.6406 C859.9062 120.9375 860.0625 121.1562 860.7188 121.2656 L862.4688 121.5781 Z" style="fill:black; stroke:none;"
      /><rect x="845" width="5" height="10" y="119" style="stroke:none;"
      /><path d="M846.8906 127.6875 C846.4844 127.6875 846.1562 128.0469 846.1562 128.4219 C846.1562 128.8125 846.4844 129.1562 846.8906 129.1562 C847.2969 129.1562 847.6406 128.8125 847.6406 128.4219 C847.6406 128.0469 847.2969 127.6875 846.8906 127.6875 ZM848.4688 121.5781 C848.7188 121.8906 848.875 122.2656 848.8906 122.6562 C848.8906 123.1875 848.625 123.5 848.0312 123.7656 L847.4062 124.0156 C846.6406 124.3125 846.3906 124.5469 846.3906 124.9375 C846.3906 125.1094 846.4531 125.3438 846.5781 125.8125 L846.7344 126.3438 L847.1094 126.3438 L847.0938 125.5312 C847.0938 125.0938 847.2031 124.9688 847.7812 124.7344 L848.2031 124.5625 C849.0312 124.2188 849.4531 123.6875 849.4531 122.8438 C849.4531 121.1562 847.6562 120.1875 846.5 120.0312 C846.1094 120.125 845.9062 120.2969 845.9062 120.6406 C845.9062 120.9375 846.0625 121.1562 846.7188 121.2656 L848.4688 121.5781 Z" style="fill:black; stroke:none;"
      /><circle r="11" style="clip-path:url(#clipPath21); stroke:none;" cx="883" cy="41"
      /><rect x="872" y="30" width="22" style="clip-path:url(#clipPath21); fill:rgb(0,144,188); stroke:none;" height="22"
      /><rect x="872" y="30" width="22" style="clip-path:url(#clipPath21); fill:none; stroke:black;" height="22"
      /><circle r="11" style="fill:none; stroke:black;" cx="883" cy="41"
      /><rect x="922" width="5" height="10" y="91" style="stroke:none;"
      /><path d="M923.8906 99.6875 C923.4844 99.6875 923.1562 100.0469 923.1562 100.4219 C923.1562 100.8125 923.4844 101.1562 923.8906 101.1562 C924.2969 101.1562 924.6406 100.8125 924.6406 100.4219 C924.6406 100.0469 924.2969 99.6875 923.8906 99.6875 ZM925.4688 93.5781 C925.7188 93.8906 925.875 94.2656 925.8906 94.6562 C925.8906 95.1875 925.625 95.5 925.0312 95.7656 L924.4062 96.0156 C923.6406 96.3125 923.3906 96.5469 923.3906 96.9375 C923.3906 97.1094 923.4531 97.3438 923.5781 97.8125 L923.7344 98.3438 L924.1094 98.3438 L924.0938 97.5312 C924.0938 97.0938 924.2031 96.9688 924.7812 96.7344 L925.2031 96.5625 C926.0312 96.2188 926.4531 95.6875 926.4531 94.8438 C926.4531 93.1562 924.6562 92.1875 923.5 92.0312 C923.1094 92.125 922.9062 92.2969 922.9062 92.6406 C922.9062 92.9375 923.0625 93.1562 923.7188 93.2656 L925.4688 93.5781 Z" style="fill:black; stroke:none;"
      /><rect x="905" width="5" height="10" y="103" style="stroke:none;"
      /><path d="M906.8906 111.6875 C906.4844 111.6875 906.1562 112.0469 906.1562 112.4219 C906.1562 112.8125 906.4844 113.1562 906.8906 113.1562 C907.2969 113.1562 907.6406 112.8125 907.6406 112.4219 C907.6406 112.0469 907.2969 111.6875 906.8906 111.6875 ZM908.4688 105.5781 C908.7188 105.8906 908.875 106.2656 908.8906 106.6562 C908.8906 107.1875 908.625 107.5 908.0312 107.7656 L907.4062 108.0156 C906.6406 108.3125 906.3906 108.5469 906.3906 108.9375 C906.3906 109.1094 906.4531 109.3438 906.5781 109.8125 L906.7344 110.3438 L907.1094 110.3438 L907.0938 109.5312 C907.0938 109.0938 907.2031 108.9688 907.7812 108.7344 L908.2031 108.5625 C909.0312 108.2188 909.4531 107.6875 909.4531 106.8438 C909.4531 105.1562 907.6562 104.1875 906.5 104.0312 C906.1094 104.125 905.9062 104.2969 905.9062 104.6406 C905.9062 104.9375 906.0625 105.1562 906.7188 105.2656 L908.4688 105.5781 Z" style="fill:black; stroke:none;"
      /><rect x="913" width="5" height="10" y="67" style="stroke:none;"
      /><path d="M914.8906 75.6875 C914.4844 75.6875 914.1562 76.0469 914.1562 76.4219 C914.1562 76.8125 914.4844 77.1562 914.8906 77.1562 C915.2969 77.1562 915.6406 76.8125 915.6406 76.4219 C915.6406 76.0469 915.2969 75.6875 914.8906 75.6875 ZM916.4688 69.5781 C916.7188 69.8906 916.875 70.2656 916.8906 70.6562 C916.8906 71.1875 916.625 71.5 916.0312 71.7656 L915.4062 72.0156 C914.6406 72.3125 914.3906 72.5469 914.3906 72.9375 C914.3906 73.1094 914.4531 73.3438 914.5781 73.8125 L914.7344 74.3438 L915.1094 74.3438 L915.0938 73.5312 C915.0938 73.0938 915.2031 72.9688 915.7812 72.7344 L916.2031 72.5625 C917.0312 72.2188 917.4531 71.6875 917.4531 70.8438 C917.4531 69.1562 915.6562 68.1875 914.5 68.0312 C914.1094 68.125 913.9062 68.2969 913.9062 68.6406 C913.9062 68.9375 914.0625 69.1562 914.7188 69.2656 L916.4688 69.5781 Z" style="fill:black; stroke:none;"
      /><rect x="893" width="5" height="10" y="54" style="stroke:none;"
      /><path d="M894.8906 62.6875 C894.4844 62.6875 894.1562 63.0469 894.1562 63.4219 C894.1562 63.8125 894.4844 64.1562 894.8906 64.1562 C895.2969 64.1562 895.6406 63.8125 895.6406 63.4219 C895.6406 63.0469 895.2969 62.6875 894.8906 62.6875 ZM896.4688 56.5781 C896.7188 56.8906 896.875 57.2656 896.8906 57.6562 C896.8906 58.1875 896.625 58.5 896.0312 58.7656 L895.4062 59.0156 C894.6406 59.3125 894.3906 59.5469 894.3906 59.9375 C894.3906 60.1094 894.4531 60.3438 894.5781 60.8125 L894.7344 61.3438 L895.1094 61.3438 L895.0938 60.5312 C895.0938 60.0938 895.2031 59.9688 895.7812 59.7344 L896.2031 59.5625 C897.0312 59.2188 897.4531 58.6875 897.4531 57.8438 C897.4531 56.1562 895.6562 55.1875 894.5 55.0312 C894.1094 55.125 893.9062 55.2969 893.9062 55.6406 C893.9062 55.9375 894.0625 56.1562 894.7188 56.2656 L896.4688 56.5781 Z" style="fill:black; stroke:none;"
      /><rect x="968" width="5" height="10" y="81" style="stroke:none;"
      /><path d="M969.8906 89.6875 C969.4844 89.6875 969.1562 90.0469 969.1562 90.4219 C969.1562 90.8125 969.4844 91.1562 969.8906 91.1562 C970.2969 91.1562 970.6406 90.8125 970.6406 90.4219 C970.6406 90.0469 970.2969 89.6875 969.8906 89.6875 ZM971.4688 83.5781 C971.7188 83.8906 971.875 84.2656 971.8906 84.6562 C971.8906 85.1875 971.625 85.5 971.0312 85.7656 L970.4062 86.0156 C969.6406 86.3125 969.3906 86.5469 969.3906 86.9375 C969.3906 87.1094 969.4531 87.3438 969.5781 87.8125 L969.7344 88.3438 L970.1094 88.3438 L970.0938 87.5312 C970.0938 87.0938 970.2031 86.9688 970.7812 86.7344 L971.2031 86.5625 C972.0312 86.2188 972.4531 85.6875 972.4531 84.8438 C972.4531 83.1562 970.6562 82.1875 969.5 82.0312 C969.1094 82.125 968.9062 82.2969 968.9062 82.6406 C968.9062 82.9375 969.0625 83.1562 969.7188 83.2656 L971.4688 83.5781 Z" style="fill:black; stroke:none;"
      /><rect x="954" width="5" height="10" y="81" style="stroke:none;"
      /><path d="M955.8906 89.6875 C955.4844 89.6875 955.1562 90.0469 955.1562 90.4219 C955.1562 90.8125 955.4844 91.1562 955.8906 91.1562 C956.2969 91.1562 956.6406 90.8125 956.6406 90.4219 C956.6406 90.0469 956.2969 89.6875 955.8906 89.6875 ZM957.4688 83.5781 C957.7188 83.8906 957.875 84.2656 957.8906 84.6562 C957.8906 85.1875 957.625 85.5 957.0312 85.7656 L956.4062 86.0156 C955.6406 86.3125 955.3906 86.5469 955.3906 86.9375 C955.3906 87.1094 955.4531 87.3438 955.5781 87.8125 L955.7344 88.3438 L956.1094 88.3438 L956.0938 87.5312 C956.0938 87.0938 956.2031 86.9688 956.7812 86.7344 L957.2031 86.5625 C958.0312 86.2188 958.4531 85.6875 958.4531 84.8438 C958.4531 83.1562 956.6562 82.1875 955.5 82.0312 C955.1094 82.125 954.9062 82.2969 954.9062 82.6406 C954.9062 82.9375 955.0625 83.1562 955.7188 83.2656 L957.4688 83.5781 Z" style="fill:black; stroke:none;"
      /><rect x="1020" width="5" height="10" y="81" style="stroke:none;"
      /><path d="M1021.8906 89.6875 C1021.4844 89.6875 1021.1562 90.0469 1021.1562 90.4219 C1021.1562 90.8125 1021.4844 91.1562 1021.8906 91.1562 C1022.2969 91.1562 1022.6406 90.8125 1022.6406 90.4219 C1022.6406 90.0469 1022.2969 89.6875 1021.8906 89.6875 ZM1023.4688 83.5781 C1023.7188 83.8906 1023.875 84.2656 1023.8906 84.6562 C1023.8906 85.1875 1023.625 85.5 1023.0312 85.7656 L1022.4062 86.0156 C1021.6406 86.3125 1021.3906 86.5469 1021.3906 86.9375 C1021.3906 87.1094 1021.4531 87.3438 1021.5781 87.8125 L1021.7344 88.3438 L1022.1094 88.3438 L1022.0938 87.5312 C1022.0938 87.0938 1022.2031 86.9688 1022.7812 86.7344 L1023.2031 86.5625 C1024.0312 86.2188 1024.4531 85.6875 1024.4531 84.8438 C1024.4531 83.1562 1022.6562 82.1875 1021.5 82.0312 C1021.1094 82.125 1020.9062 82.2969 1020.9062 82.6406 C1020.9062 82.9375 1021.0625 83.1562 1021.7188 83.2656 L1023.4688 83.5781 Z" style="fill:black; stroke:none;"
      /><rect x="1006" width="5" height="10" y="81" style="stroke:none;"
      /><path d="M1007.8906 89.6875 C1007.4844 89.6875 1007.1562 90.0469 1007.1562 90.4219 C1007.1562 90.8125 1007.4844 91.1562 1007.8906 91.1562 C1008.2969 91.1562 1008.6406 90.8125 1008.6406 90.4219 C1008.6406 90.0469 1008.2969 89.6875 1007.8906 89.6875 ZM1009.4688 83.5781 C1009.7188 83.8906 1009.875 84.2656 1009.8906 84.6562 C1009.8906 85.1875 1009.625 85.5 1009.0312 85.7656 L1008.4062 86.0156 C1007.6406 86.3125 1007.3906 86.5469 1007.3906 86.9375 C1007.3906 87.1094 1007.4531 87.3438 1007.5781 87.8125 L1007.7344 88.3438 L1008.1094 88.3438 L1008.0938 87.5312 C1008.0938 87.0938 1008.2031 86.9688 1008.7812 86.7344 L1009.2031 86.5625 C1010.0312 86.2188 1010.4531 85.6875 1010.4531 84.8438 C1010.4531 83.1562 1008.6562 82.1875 1007.5 82.0312 C1007.1094 82.125 1006.9062 82.2969 1006.9062 82.6406 C1006.9062 82.9375 1007.0625 83.1562 1007.7188 83.2656 L1009.4688 83.5781 Z" style="fill:black; stroke:none;"
      /><rect x="1058" width="5" height="10" y="81" style="stroke:none;"
      /><path d="M1059.8906 89.6875 C1059.4844 89.6875 1059.1562 90.0469 1059.1562 90.4219 C1059.1562 90.8125 1059.4844 91.1562 1059.8906 91.1562 C1060.2969 91.1562 1060.6406 90.8125 1060.6406 90.4219 C1060.6406 90.0469 1060.2969 89.6875 1059.8906 89.6875 ZM1061.4688 83.5781 C1061.7188 83.8906 1061.875 84.2656 1061.8906 84.6562 C1061.8906 85.1875 1061.625 85.5 1061.0312 85.7656 L1060.4062 86.0156 C1059.6406 86.3125 1059.3906 86.5469 1059.3906 86.9375 C1059.3906 87.1094 1059.4531 87.3438 1059.5781 87.8125 L1059.7344 88.3438 L1060.1094 88.3438 L1060.0938 87.5312 C1060.0938 87.0938 1060.2031 86.9688 1060.7812 86.7344 L1061.2031 86.5625 C1062.0312 86.2188 1062.4531 85.6875 1062.4531 84.8438 C1062.4531 83.1562 1060.6562 82.1875 1059.5 82.0312 C1059.1094 82.125 1058.9062 82.2969 1058.9062 82.6406 C1058.9062 82.9375 1059.0625 83.1562 1059.7188 83.2656 L1061.4688 83.5781 Z" style="fill:black; stroke:none;"
    /></g
    ><g ID="legend-1:0" style="text-rendering:optimizeSpeed; font-size:10px; font-family:'SansSerif';"
    ><path style="stroke:none;" d="M30.875 203 L34.9062 203 L34.9062 202.2344 L33.4375 202.2344 L33.4375 195.6562 L32.7344 195.6562 C32.3281 195.9062 31.8594 196.0625 31.2031 196.1875 L31.2031 196.7656 L32.5156 196.7656 L32.5156 202.2344 L30.875 202.2344 L30.875 203 ZM35.925 198.4531 L40.7219 198.4531 L40.7219 197.7656 L35.925 197.7656 L35.925 198.4531 ZM35.925 200.8438 L40.7219 200.8438 L40.7219 200.1719 L35.925 200.1719 L35.925 200.8438 ZM42.1 203 L46.225 203 L46.225 202.2031 L43.0375 202.2031 L43.0375 195.6562 L42.1 195.6562 L42.1 203 ZM46.9831 200.5469 L49.5456 200.5469 L49.5456 199.8438 L46.9831 199.8438 L46.9831 200.5469 ZM53.875 203.125 C54.875 203.125 55.6875 202.7656 56.1562 202.2812 L56.1562 199.2031 L53.75 199.2031 L53.75 199.9688 L55.2968 199.9688 L55.2968 201.8906 C55.0156 202.1562 54.5 202.3125 53.9843 202.3125 C52.4062 202.3125 51.5312 201.1562 51.5312 199.3125 C51.5312 197.4844 52.4843 196.3438 53.9531 196.3438 C54.7031 196.3438 55.1875 196.6562 55.5468 197.0469 L56.0468 196.4375 C55.625 195.9844 54.9531 195.5312 53.9375 195.5312 C52 195.5312 50.5781 196.9688 50.5781 199.3438 C50.5781 201.7188 51.9531 203.125 53.875 203.125 ZM57.8118 203 L58.7181 203 L58.7181 199.5156 C59.0775 198.5781 59.64 198.2656 60.0931 198.2656 C60.3118 198.2656 60.4368 198.2812 60.6243 198.3438 L60.7962 197.5469 C60.6243 197.4531 60.4525 197.4375 60.2025 197.4375 C59.5931 197.4375 59.0462 197.875 58.6712 198.5625 L58.64 198.5625 L58.5618 197.5625 L57.8118 197.5625 L57.8118 203 ZM63.8012 203.125 C65.1293 203.125 66.3168 202.0938 66.3168 200.2969 C66.3168 198.4844 65.1293 197.4375 63.8012 197.4375 C62.4731 197.4375 61.2856 198.4844 61.2856 200.2969 C61.2856 202.0938 62.4731 203.125 63.8012 203.125 ZM63.8012 202.375 C62.8637 202.375 62.2231 201.5469 62.2231 200.2969 C62.2231 199.0469 62.8637 198.1875 63.8012 198.1875 C64.7387 198.1875 65.3793 199.0469 65.3793 200.2969 C65.3793 201.5469 64.7387 202.375 63.8012 202.375 ZM67.2831 200.5469 L69.8456 200.5469 L69.8456 199.8438 L67.2831 199.8438 L67.2831 200.5469 ZM73.3312 203.125 C74.6593 203.125 75.8468 202.0938 75.8468 200.2969 C75.8468 198.4844 74.6593 197.4375 73.3312 197.4375 C72.0031 197.4375 70.8156 198.4844 70.8156 200.2969 C70.8156 202.0938 72.0031 203.125 73.3312 203.125 ZM73.3312 202.375 C72.3937 202.375 71.7531 201.5469 71.7531 200.2969 C71.7531 199.0469 72.3937 198.1875 73.3312 198.1875 C74.2687 198.1875 74.9093 199.0469 74.9093 200.2969 C74.9093 201.5469 74.2687 202.375 73.3312 202.375 ZM77.2818 203 L78.1881 203 L78.1881 199.0625 C78.735 198.5156 79.1256 198.2344 79.6725 198.2344 C80.4068 198.2344 80.7037 198.6562 80.7037 199.6875 L80.7037 203 L81.6256 203 L81.6256 199.5625 C81.6256 198.1719 81.0943 197.4375 79.9537 197.4375 C79.2193 197.4375 78.6568 197.8438 78.1412 198.3438 L78.11 198.3438 L78.0318 197.5625 L77.2818 197.5625 L77.2818 203 ZM83.3918 203 L84.2981 203 L84.2981 197.5625 L83.3918 197.5625 L83.3918 203 ZM83.845 196.4531 C84.2043 196.4531 84.4543 196.2031 84.4543 195.8438 C84.4543 195.4844 84.2043 195.25 83.845 195.25 C83.4856 195.25 83.2356 195.4844 83.2356 195.8438 C83.2356 196.2031 83.4856 196.4531 83.845 196.4531 ZM88.2825 203.125 C88.9231 203.125 89.5481 202.875 90.0325 202.4375 L89.6418 201.8281 C89.2981 202.1406 88.8606 202.375 88.3606 202.375 C87.3606 202.375 86.6731 201.5469 86.6731 200.2969 C86.6731 199.0469 87.4075 198.1875 88.3918 198.1875 C88.8137 198.1875 89.1575 198.3906 89.47 198.6719 L89.9387 198.0625 C89.5481 197.7344 89.0637 197.4375 88.345 197.4375 C86.9543 197.4375 85.7356 198.4844 85.7356 200.2969 C85.7356 202.0938 86.845 203.125 88.2825 203.125 Z"
    /></g
  ></g
></svg
>
