<?xml version="1.0"?>
<!DOCTYPE svg PUBLIC '-//W3C//DTD SVG 1.0//EN'
          'http://www.w3.org/TR/2001/REC-SVG-20010904/DTD/svg10.dtd'>
<svg xmlns:xlink="http://www.w3.org/1999/xlink" style="fill-opacity:1; color-rendering:auto; color-interpolation:auto; text-rendering:auto; stroke:black; stroke-linecap:square; stroke-miterlimit:10; shape-rendering:auto; stroke-opacity:1; fill:black; stroke-dasharray:none; font-weight:normal; stroke-width:1; font-family:'Dialog'; font-style:normal; stroke-linejoin:miter; font-size:12px; stroke-dashoffset:0; image-rendering:auto;" viewBox="0 0 602 82" xmlns="http://www.w3.org/2000/svg"
><!--Generated by the Batik Graphics2D SVG Generator--><defs id="genericDefs"
  /><g
  ><defs id="defs1"
    ><clipPath clipPathUnits="userSpaceOnUse" id="clipPath1"
      ><path d="M520 41 C520 47.0751 515.0751 52 509 52 C502.9249 52 498 47.0751 498 41 C498 34.9249 502.9249 30 509 30 C515.0751 30 520 34.9249 520 41 Z"
      /></clipPath
      ><clipPath clipPathUnits="userSpaceOnUse" id="clipPath2"
      ><path d="M468 41 C468 47.0751 463.0751 52 457 52 C450.9249 52 446 47.0751 446 41 C446 34.9249 450.9249 30 457 30 C463.0751 30 468 34.9249 468 41 Z"
      /></clipPath
      ><clipPath clipPathUnits="userSpaceOnUse" id="clipPath3"
      ><path d="M416 41 C416 47.0751 411.0751 52 405 52 C398.9249 52 394 47.0751 394 41 C394 34.9249 398.9249 30 405 30 C411.0751 30 416 34.9249 416 41 Z"
      /></clipPath
      ><clipPath clipPathUnits="userSpaceOnUse" id="clipPath4"
      ><path d="M342 30 L364 30 L364 52 L342 52 L342 30 Z"
      /></clipPath
      ><clipPath clipPathUnits="userSpaceOnUse" id="clipPath5"
      ><path style="fill-rule:evenodd;" d="M301 30 L312 52 L290 52 Z"
      /></clipPath
      ><clipPath clipPathUnits="userSpaceOnUse" id="clipPath6"
      ><path d="M238 30 L260 30 L260 52 L238 52 L238 30 Z"
      /></clipPath
      ><clipPath clipPathUnits="userSpaceOnUse" id="clipPath7"
      ><path style="fill-rule:evenodd;" d="M197 30 L208 52 L186 52 Z"
      /></clipPath
      ><clipPath clipPathUnits="userSpaceOnUse" id="clipPath8"
      ><path d="M134 30 L156 30 L156 52 L134 52 L134 30 Z"
      /></clipPath
      ><clipPath clipPathUnits="userSpaceOnUse" id="clipPath9"
      ><path style="fill-rule:evenodd;" d="M93 30 L104 52 L82 52 Z"
      /></clipPath
      ><clipPath clipPathUnits="userSpaceOnUse" id="clipPath10"
      ><path style="fill-rule:evenodd;" d="M52 41 L46 48 L35 48 L30 41 L35 33 L46 33 L52 41 Z"
      /></clipPath
    ></defs
    ><g style="fill:white; text-rendering:optimizeSpeed; stroke:white;"
    ><rect x="0" width="602" height="82" y="0" style="stroke:none;"
      /><polygon style="fill:none; stroke:black;" points=" 561 41 509 41"
      /><path d="M561 30 C555.5 35.5 566.5 46.5 561 52" style="fill:none; stroke:black;"
      /><polygon style="fill:none; stroke:black;" points=" 509 41 457 41"
      /><circle style="clip-path:url(#clipPath1); stroke:none;" r="11" cx="509" cy="41"
      /><rect x="498" y="30" width="22" style="clip-path:url(#clipPath1); fill:rgb(0,166,81); stroke:none;" height="22"
      /><rect x="498" y="30" width="22" style="clip-path:url(#clipPath1); fill:none; stroke:black;" height="22"
      /><circle style="fill:none; stroke:black;" r="11" cx="509" cy="41"
      /><polygon style="fill:none; stroke:black;" points=" 457 41 405 41"
      /><circle style="clip-path:url(#clipPath2); stroke:none;" r="11" cx="457" cy="41"
      /><rect x="446" y="30" width="22" style="clip-path:url(#clipPath2); fill:rgb(0,144,188); stroke:none;" height="22"
      /><rect x="446" y="30" width="22" style="clip-path:url(#clipPath2); fill:none; stroke:black;" height="22"
      /><circle style="fill:none; stroke:black;" r="11" cx="457" cy="41"
      /><polygon style="fill:none; stroke:black;" points=" 405 41 353 41"
      /><circle style="clip-path:url(#clipPath3); stroke:none;" r="11" cx="405" cy="41"
      /><rect x="394" y="30" width="22" style="clip-path:url(#clipPath3); fill:rgb(0,144,188); stroke:none;" height="22"
      /><rect x="394" y="30" width="22" style="clip-path:url(#clipPath3); fill:none; stroke:black;" height="22"
      /><circle style="fill:none; stroke:black;" r="11" cx="405" cy="41"
      /><polygon style="fill:none; stroke:black;" points=" 353 41 301 41"
      /><rect x="342" y="30" width="22" style="clip-path:url(#clipPath4); stroke:none;" height="22"
      /><rect x="342" y="30" width="22" style="clip-path:url(#clipPath4); fill:rgb(0,144,188); stroke:none;" height="22"
      /><rect x="342" y="30" width="22" style="clip-path:url(#clipPath4); fill:none; stroke:black;" height="22"
      /><rect x="342" y="30" width="22" style="fill:none; stroke:black;" height="22"
      /><polygon style="fill:none; stroke:black;" points=" 301 41 249 41"
      /><polygon style="clip-path:url(#clipPath5); stroke:none;" points=" 301 30 312 52 290 52"
      /><rect x="290" y="30" width="22" style="clip-path:url(#clipPath5); fill:rgb(0,166,81); stroke:none;" height="22"
      /><rect x="290" y="30" width="22" style="clip-path:url(#clipPath5); fill:none; stroke:black;" height="22"
      /><polygon style="fill:none; stroke:black;" points=" 301 30 312 52 290 52"
    /></g
    ><g style="text-rendering:optimizeSpeed; font-size:10px; font-family:'SansSerif';"
    ><path style="stroke:none;" d="M299 44 L300.875 44 C303.0938 44 304.2969 42.625 304.2969 40.3125 C304.2969 37.9844 303.0938 36.6562 300.8438 36.6562 L299 36.6562 L299 44 ZM299.9375 43.2344 L299.9375 37.4219 L300.7656 37.4219 C302.4844 37.4219 303.3438 38.4531 303.3438 40.3125 C303.3438 42.1562 302.4844 43.2344 300.7656 43.2344 L299.9375 43.2344 Z"
      /><polygon style="fill:none;" points=" 249 41 197 41"
    /></g
    ><g style="fill:white; text-rendering:optimizeSpeed; stroke:white;"
    ><rect x="238" y="30" width="22" style="clip-path:url(#clipPath6); stroke:none;" height="22"
      /><rect x="238" y="30" width="22" style="clip-path:url(#clipPath6); fill:rgb(0,144,188); stroke:none;" height="22"
      /><rect x="238" y="30" width="22" style="clip-path:url(#clipPath6); fill:none; stroke:black;" height="22"
      /><rect x="238" y="30" width="22" style="fill:none; stroke:black;" height="22"
      /><polygon style="fill:none; stroke:black;" points=" 197 41 145 41"
      /><polygon style="clip-path:url(#clipPath7); stroke:none;" points=" 197 30 208 52 186 52"
      /><rect x="186" y="30" width="22" style="clip-path:url(#clipPath7); fill:rgb(0,166,81); stroke:none;" height="22"
      /><rect x="186" y="30" width="22" style="clip-path:url(#clipPath7); fill:none; stroke:black;" height="22"
      /><polygon style="fill:none; stroke:black;" points=" 197 30 208 52 186 52"
    /></g
    ><g style="text-rendering:optimizeSpeed; font-size:10px; font-family:'SansSerif';"
    ><path style="stroke:none;" d="M195 44 L196.875 44 C199.0938 44 200.2969 42.625 200.2969 40.3125 C200.2969 37.9844 199.0938 36.6562 196.8438 36.6562 L195 36.6562 L195 44 ZM195.9375 43.2344 L195.9375 37.4219 L196.7656 37.4219 C198.4844 37.4219 199.3438 38.4531 199.3438 40.3125 C199.3438 42.1562 198.4844 43.2344 196.7656 43.2344 L195.9375 43.2344 Z"
      /><polygon style="fill:none;" points=" 145 41 93 41"
    /></g
    ><g style="fill:white; text-rendering:optimizeSpeed; stroke:white;"
    ><rect x="134" y="30" width="22" style="clip-path:url(#clipPath8); stroke:none;" height="22"
      /><rect x="134" y="30" width="22" style="clip-path:url(#clipPath8); fill:rgb(0,144,188); stroke:none;" height="22"
      /><rect x="134" y="30" width="22" style="clip-path:url(#clipPath8); fill:none; stroke:black;" height="22"
      /><rect x="134" y="30" width="22" style="fill:none; stroke:black;" height="22"
      /><polygon style="fill:none; stroke:black;" points=" 93 41 41 41"
      /><polygon style="clip-path:url(#clipPath9); stroke:none;" points=" 93 30 104 52 82 52"
      /><rect x="82" y="30" width="22" style="clip-path:url(#clipPath9); fill:rgb(0,166,81); stroke:none;" height="22"
      /><rect x="82" y="30" width="22" style="clip-path:url(#clipPath9); fill:none; stroke:black;" height="22"
      /><polygon style="fill:none; stroke:black;" points=" 93 30 104 52 82 52"
    /></g
    ><g style="text-rendering:optimizeSpeed; font-size:10px; font-family:'SansSerif';"
    ><path style="stroke:none;" d="M91 44 L92.875 44 C95.0938 44 96.2969 42.625 96.2969 40.3125 C96.2969 37.9844 95.0938 36.6562 92.8438 36.6562 L91 36.6562 L91 44 ZM91.9375 43.2344 L91.9375 37.4219 L92.7656 37.4219 C94.4844 37.4219 95.3438 38.4531 95.3438 40.3125 C95.3438 42.1562 94.4844 43.2344 92.7656 43.2344 L91.9375 43.2344 Z"
    /></g
    ><g style="fill:white; text-rendering:optimizeSpeed; stroke:white;"
    ><polygon style="stroke:none; clip-path:url(#clipPath10);" points=" 52 41 46 48 35 48 30 41 35 33 46 33 52 41"
      /><rect x="30" y="30" width="22" style="clip-path:url(#clipPath10); fill:rgb(255,212,0); stroke:none;" height="22"
      /><rect x="30" y="30" width="22" style="clip-path:url(#clipPath10); fill:none; stroke:black;" height="22"
      /><polygon style="fill:none; stroke:black;" points=" 52 41 46 48 35 48 30 41 35 33 46 33 52 41"
      /><rect x="71" width="5" height="10" y="44" style="stroke:none;"
      /><path d="M72.8906 52.6875 C72.4844 52.6875 72.1562 53.0469 72.1562 53.4219 C72.1562 53.8125 72.4844 54.1562 72.8906 54.1562 C73.2969 54.1562 73.6406 53.8125 73.6406 53.4219 C73.6406 53.0469 73.2969 52.6875 72.8906 52.6875 ZM74.4688 46.5781 C74.7188 46.8906 74.875 47.2656 74.8906 47.6562 C74.8906 48.1875 74.625 48.5 74.0312 48.7656 L73.4062 49.0156 C72.6406 49.3125 72.3906 49.5469 72.3906 49.9375 C72.3906 50.1094 72.4531 50.3438 72.5781 50.8125 L72.7344 51.3438 L73.1094 51.3438 L73.0938 50.5312 C73.0938 50.0938 73.2031 49.9688 73.7812 49.7344 L74.2031 49.5625 C75.0312 49.2188 75.4531 48.6875 75.4531 47.8438 C75.4531 46.1562 73.6562 45.1875 72.5 45.0312 C72.1094 45.125 71.9062 45.2969 71.9062 45.6406 C71.9062 45.9375 72.0625 46.1562 72.7188 46.2656 L74.4688 46.5781 Z" style="fill:black; stroke:none;"
      /><rect x="57" width="5" height="10" y="44" style="stroke:none;"
      /><path d="M58.8906 52.6875 C58.4844 52.6875 58.1562 53.0469 58.1562 53.4219 C58.1562 53.8125 58.4844 54.1562 58.8906 54.1562 C59.2969 54.1562 59.6406 53.8125 59.6406 53.4219 C59.6406 53.0469 59.2969 52.6875 58.8906 52.6875 ZM60.4688 46.5781 C60.7188 46.8906 60.875 47.2656 60.8906 47.6562 C60.8906 48.1875 60.625 48.5 60.0312 48.7656 L59.4062 49.0156 C58.6406 49.3125 58.3906 49.5469 58.3906 49.9375 C58.3906 50.1094 58.4531 50.3438 58.5781 50.8125 L58.7344 51.3438 L59.1094 51.3438 L59.0938 50.5312 C59.0938 50.0938 59.2031 49.9688 59.7812 49.7344 L60.2031 49.5625 C61.0312 49.2188 61.4531 48.6875 61.4531 47.8438 C61.4531 46.1562 59.6562 45.1875 58.5 45.0312 C58.1094 45.125 57.9062 45.2969 57.9062 45.6406 C57.9062 45.9375 58.0625 46.1562 58.7188 46.2656 L60.4688 46.5781 Z" style="fill:black; stroke:none;"
      /><rect x="123" width="5" height="10" y="44" style="stroke:none;"
      /><path d="M124.8906 52.6875 C124.4844 52.6875 124.1562 53.0469 124.1562 53.4219 C124.1562 53.8125 124.4844 54.1562 124.8906 54.1562 C125.2969 54.1562 125.6406 53.8125 125.6406 53.4219 C125.6406 53.0469 125.2969 52.6875 124.8906 52.6875 ZM126.4688 46.5781 C126.7188 46.8906 126.875 47.2656 126.8906 47.6562 C126.8906 48.1875 126.625 48.5 126.0312 48.7656 L125.4062 49.0156 C124.6406 49.3125 124.3906 49.5469 124.3906 49.9375 C124.3906 50.1094 124.4531 50.3438 124.5781 50.8125 L124.7344 51.3438 L125.1094 51.3438 L125.0938 50.5312 C125.0938 50.0938 125.2031 49.9688 125.7812 49.7344 L126.2031 49.5625 C127.0312 49.2188 127.4531 48.6875 127.4531 47.8438 C127.4531 46.1562 125.6562 45.1875 124.5 45.0312 C124.1094 45.125 123.9062 45.2969 123.9062 45.6406 C123.9062 45.9375 124.0625 46.1562 124.7188 46.2656 L126.4688 46.5781 Z" style="fill:black; stroke:none;"
      /><rect x="109" width="5" height="10" y="44" style="stroke:none;"
      /><path d="M110.8906 52.6875 C110.4844 52.6875 110.1562 53.0469 110.1562 53.4219 C110.1562 53.8125 110.4844 54.1562 110.8906 54.1562 C111.2969 54.1562 111.6406 53.8125 111.6406 53.4219 C111.6406 53.0469 111.2969 52.6875 110.8906 52.6875 ZM112.4688 46.5781 C112.7188 46.8906 112.875 47.2656 112.8906 47.6562 C112.8906 48.1875 112.625 48.5 112.0312 48.7656 L111.4062 49.0156 C110.6406 49.3125 110.3906 49.5469 110.3906 49.9375 C110.3906 50.1094 110.4531 50.3438 110.5781 50.8125 L110.7344 51.3438 L111.1094 51.3438 L111.0938 50.5312 C111.0938 50.0938 111.2031 49.9688 111.7812 49.7344 L112.2031 49.5625 C113.0312 49.2188 113.4531 48.6875 113.4531 47.8438 C113.4531 46.1562 111.6562 45.1875 110.5 45.0312 C110.1094 45.125 109.9062 45.2969 109.9062 45.6406 C109.9062 45.9375 110.0625 46.1562 110.7188 46.2656 L112.4688 46.5781 Z" style="fill:black; stroke:none;"
      /><rect x="175" width="5" height="10" y="44" style="stroke:none;"
      /><path d="M176.8906 52.6875 C176.4844 52.6875 176.1562 53.0469 176.1562 53.4219 C176.1562 53.8125 176.4844 54.1562 176.8906 54.1562 C177.2969 54.1562 177.6406 53.8125 177.6406 53.4219 C177.6406 53.0469 177.2969 52.6875 176.8906 52.6875 ZM178.4688 46.5781 C178.7188 46.8906 178.875 47.2656 178.8906 47.6562 C178.8906 48.1875 178.625 48.5 178.0312 48.7656 L177.4062 49.0156 C176.6406 49.3125 176.3906 49.5469 176.3906 49.9375 C176.3906 50.1094 176.4531 50.3438 176.5781 50.8125 L176.7344 51.3438 L177.1094 51.3438 L177.0938 50.5312 C177.0938 50.0938 177.2031 49.9688 177.7812 49.7344 L178.2031 49.5625 C179.0312 49.2188 179.4531 48.6875 179.4531 47.8438 C179.4531 46.1562 177.6562 45.1875 176.5 45.0312 C176.1094 45.125 175.9062 45.2969 175.9062 45.6406 C175.9062 45.9375 176.0625 46.1562 176.7188 46.2656 L178.4688 46.5781 Z" style="fill:black; stroke:none;"
      /><rect x="161" width="5" height="10" y="44" style="stroke:none;"
      /><path d="M162.8906 52.6875 C162.4844 52.6875 162.1562 53.0469 162.1562 53.4219 C162.1562 53.8125 162.4844 54.1562 162.8906 54.1562 C163.2969 54.1562 163.6406 53.8125 163.6406 53.4219 C163.6406 53.0469 163.2969 52.6875 162.8906 52.6875 ZM164.4688 46.5781 C164.7188 46.8906 164.875 47.2656 164.8906 47.6562 C164.8906 48.1875 164.625 48.5 164.0312 48.7656 L163.4062 49.0156 C162.6406 49.3125 162.3906 49.5469 162.3906 49.9375 C162.3906 50.1094 162.4531 50.3438 162.5781 50.8125 L162.7344 51.3438 L163.1094 51.3438 L163.0938 50.5312 C163.0938 50.0938 163.2031 49.9688 163.7812 49.7344 L164.2031 49.5625 C165.0312 49.2188 165.4531 48.6875 165.4531 47.8438 C165.4531 46.1562 163.6562 45.1875 162.5 45.0312 C162.1094 45.125 161.9062 45.2969 161.9062 45.6406 C161.9062 45.9375 162.0625 46.1562 162.7188 46.2656 L164.4688 46.5781 Z" style="fill:black; stroke:none;"
      /><rect x="227" width="5" height="10" y="44" style="stroke:none;"
      /><path d="M228.8906 52.6875 C228.4844 52.6875 228.1562 53.0469 228.1562 53.4219 C228.1562 53.8125 228.4844 54.1562 228.8906 54.1562 C229.2969 54.1562 229.6406 53.8125 229.6406 53.4219 C229.6406 53.0469 229.2969 52.6875 228.8906 52.6875 ZM230.4688 46.5781 C230.7188 46.8906 230.875 47.2656 230.8906 47.6562 C230.8906 48.1875 230.625 48.5 230.0312 48.7656 L229.4062 49.0156 C228.6406 49.3125 228.3906 49.5469 228.3906 49.9375 C228.3906 50.1094 228.4531 50.3438 228.5781 50.8125 L228.7344 51.3438 L229.1094 51.3438 L229.0938 50.5312 C229.0938 50.0938 229.2031 49.9688 229.7812 49.7344 L230.2031 49.5625 C231.0312 49.2188 231.4531 48.6875 231.4531 47.8438 C231.4531 46.1562 229.6562 45.1875 228.5 45.0312 C228.1094 45.125 227.9062 45.2969 227.9062 45.6406 C227.9062 45.9375 228.0625 46.1562 228.7188 46.2656 L230.4688 46.5781 Z" style="fill:black; stroke:none;"
      /><rect x="213" width="5" height="10" y="44" style="stroke:none;"
      /><path d="M214.8906 52.6875 C214.4844 52.6875 214.1562 53.0469 214.1562 53.4219 C214.1562 53.8125 214.4844 54.1562 214.8906 54.1562 C215.2969 54.1562 215.6406 53.8125 215.6406 53.4219 C215.6406 53.0469 215.2969 52.6875 214.8906 52.6875 ZM216.4688 46.5781 C216.7188 46.8906 216.875 47.2656 216.8906 47.6562 C216.8906 48.1875 216.625 48.5 216.0312 48.7656 L215.4062 49.0156 C214.6406 49.3125 214.3906 49.5469 214.3906 49.9375 C214.3906 50.1094 214.4531 50.3438 214.5781 50.8125 L214.7344 51.3438 L215.1094 51.3438 L215.0938 50.5312 C215.0938 50.0938 215.2031 49.9688 215.7812 49.7344 L216.2031 49.5625 C217.0312 49.2188 217.4531 48.6875 217.4531 47.8438 C217.4531 46.1562 215.6562 45.1875 214.5 45.0312 C214.1094 45.125 213.9062 45.2969 213.9062 45.6406 C213.9062 45.9375 214.0625 46.1562 214.7188 46.2656 L216.4688 46.5781 Z" style="fill:black; stroke:none;"
      /><rect x="279" width="5" height="10" y="44" style="stroke:none;"
      /><path d="M280.8906 52.6875 C280.4844 52.6875 280.1562 53.0469 280.1562 53.4219 C280.1562 53.8125 280.4844 54.1562 280.8906 54.1562 C281.2969 54.1562 281.6406 53.8125 281.6406 53.4219 C281.6406 53.0469 281.2969 52.6875 280.8906 52.6875 ZM282.4688 46.5781 C282.7188 46.8906 282.875 47.2656 282.8906 47.6562 C282.8906 48.1875 282.625 48.5 282.0312 48.7656 L281.4062 49.0156 C280.6406 49.3125 280.3906 49.5469 280.3906 49.9375 C280.3906 50.1094 280.4531 50.3438 280.5781 50.8125 L280.7344 51.3438 L281.1094 51.3438 L281.0938 50.5312 C281.0938 50.0938 281.2031 49.9688 281.7812 49.7344 L282.2031 49.5625 C283.0312 49.2188 283.4531 48.6875 283.4531 47.8438 C283.4531 46.1562 281.6562 45.1875 280.5 45.0312 C280.1094 45.125 279.9062 45.2969 279.9062 45.6406 C279.9062 45.9375 280.0625 46.1562 280.7188 46.2656 L282.4688 46.5781 Z" style="fill:black; stroke:none;"
      /><rect x="265" width="5" height="10" y="44" style="stroke:none;"
      /><path d="M266.8906 52.6875 C266.4844 52.6875 266.1562 53.0469 266.1562 53.4219 C266.1562 53.8125 266.4844 54.1562 266.8906 54.1562 C267.2969 54.1562 267.6406 53.8125 267.6406 53.4219 C267.6406 53.0469 267.2969 52.6875 266.8906 52.6875 ZM268.4688 46.5781 C268.7188 46.8906 268.875 47.2656 268.8906 47.6562 C268.8906 48.1875 268.625 48.5 268.0312 48.7656 L267.4062 49.0156 C266.6406 49.3125 266.3906 49.5469 266.3906 49.9375 C266.3906 50.1094 266.4531 50.3438 266.5781 50.8125 L266.7344 51.3438 L267.1094 51.3438 L267.0938 50.5312 C267.0938 50.0938 267.2031 49.9688 267.7812 49.7344 L268.2031 49.5625 C269.0312 49.2188 269.4531 48.6875 269.4531 47.8438 C269.4531 46.1562 267.6562 45.1875 266.5 45.0312 C266.1094 45.125 265.9062 45.2969 265.9062 45.6406 C265.9062 45.9375 266.0625 46.1562 266.7188 46.2656 L268.4688 46.5781 Z" style="fill:black; stroke:none;"
      /><rect x="331" width="5" height="10" y="44" style="stroke:none;"
      /><path d="M332.8906 52.6875 C332.4844 52.6875 332.1562 53.0469 332.1562 53.4219 C332.1562 53.8125 332.4844 54.1562 332.8906 54.1562 C333.2969 54.1562 333.6406 53.8125 333.6406 53.4219 C333.6406 53.0469 333.2969 52.6875 332.8906 52.6875 ZM334.4688 46.5781 C334.7188 46.8906 334.875 47.2656 334.8906 47.6562 C334.8906 48.1875 334.625 48.5 334.0312 48.7656 L333.4062 49.0156 C332.6406 49.3125 332.3906 49.5469 332.3906 49.9375 C332.3906 50.1094 332.4531 50.3438 332.5781 50.8125 L332.7344 51.3438 L333.1094 51.3438 L333.0938 50.5312 C333.0938 50.0938 333.2031 49.9688 333.7812 49.7344 L334.2031 49.5625 C335.0312 49.2188 335.4531 48.6875 335.4531 47.8438 C335.4531 46.1562 333.6562 45.1875 332.5 45.0312 C332.1094 45.125 331.9062 45.2969 331.9062 45.6406 C331.9062 45.9375 332.0625 46.1562 332.7188 46.2656 L334.4688 46.5781 Z" style="fill:black; stroke:none;"
      /><rect x="317" width="5" height="10" y="44" style="stroke:none;"
      /><path d="M318.8906 52.6875 C318.4844 52.6875 318.1562 53.0469 318.1562 53.4219 C318.1562 53.8125 318.4844 54.1562 318.8906 54.1562 C319.2969 54.1562 319.6406 53.8125 319.6406 53.4219 C319.6406 53.0469 319.2969 52.6875 318.8906 52.6875 ZM320.4688 46.5781 C320.7188 46.8906 320.875 47.2656 320.8906 47.6562 C320.8906 48.1875 320.625 48.5 320.0312 48.7656 L319.4062 49.0156 C318.6406 49.3125 318.3906 49.5469 318.3906 49.9375 C318.3906 50.1094 318.4531 50.3438 318.5781 50.8125 L318.7344 51.3438 L319.1094 51.3438 L319.0938 50.5312 C319.0938 50.0938 319.2031 49.9688 319.7812 49.7344 L320.2031 49.5625 C321.0312 49.2188 321.4531 48.6875 321.4531 47.8438 C321.4531 46.1562 319.6562 45.1875 318.5 45.0312 C318.1094 45.125 317.9062 45.2969 317.9062 45.6406 C317.9062 45.9375 318.0625 46.1562 318.7188 46.2656 L320.4688 46.5781 Z" style="fill:black; stroke:none;"
      /><rect x="383" width="5" height="10" y="44" style="stroke:none;"
      /><path d="M384.8906 52.6875 C384.4844 52.6875 384.1562 53.0469 384.1562 53.4219 C384.1562 53.8125 384.4844 54.1562 384.8906 54.1562 C385.2969 54.1562 385.6406 53.8125 385.6406 53.4219 C385.6406 53.0469 385.2969 52.6875 384.8906 52.6875 ZM386.4688 46.5781 C386.7188 46.8906 386.875 47.2656 386.8906 47.6562 C386.8906 48.1875 386.625 48.5 386.0312 48.7656 L385.4062 49.0156 C384.6406 49.3125 384.3906 49.5469 384.3906 49.9375 C384.3906 50.1094 384.4531 50.3438 384.5781 50.8125 L384.7344 51.3438 L385.1094 51.3438 L385.0938 50.5312 C385.0938 50.0938 385.2031 49.9688 385.7812 49.7344 L386.2031 49.5625 C387.0312 49.2188 387.4531 48.6875 387.4531 47.8438 C387.4531 46.1562 385.6562 45.1875 384.5 45.0312 C384.1094 45.125 383.9062 45.2969 383.9062 45.6406 C383.9062 45.9375 384.0625 46.1562 384.7188 46.2656 L386.4688 46.5781 Z" style="fill:black; stroke:none;"
      /><rect x="369" width="5" height="10" y="44" style="stroke:none;"
      /><path d="M370.8906 52.6875 C370.4844 52.6875 370.1562 53.0469 370.1562 53.4219 C370.1562 53.8125 370.4844 54.1562 370.8906 54.1562 C371.2969 54.1562 371.6406 53.8125 371.6406 53.4219 C371.6406 53.0469 371.2969 52.6875 370.8906 52.6875 ZM372.4688 46.5781 C372.7188 46.8906 372.875 47.2656 372.8906 47.6562 C372.8906 48.1875 372.625 48.5 372.0312 48.7656 L371.4062 49.0156 C370.6406 49.3125 370.3906 49.5469 370.3906 49.9375 C370.3906 50.1094 370.4531 50.3438 370.5781 50.8125 L370.7344 51.3438 L371.1094 51.3438 L371.0938 50.5312 C371.0938 50.0938 371.2031 49.9688 371.7812 49.7344 L372.2031 49.5625 C373.0312 49.2188 373.4531 48.6875 373.4531 47.8438 C373.4531 46.1562 371.6562 45.1875 370.5 45.0312 C370.1094 45.125 369.9062 45.2969 369.9062 45.6406 C369.9062 45.9375 370.0625 46.1562 370.7188 46.2656 L372.4688 46.5781 Z" style="fill:black; stroke:none;"
      /><rect x="435" width="5" height="10" y="44" style="stroke:none;"
      /><path d="M436.8906 52.6875 C436.4844 52.6875 436.1562 53.0469 436.1562 53.4219 C436.1562 53.8125 436.4844 54.1562 436.8906 54.1562 C437.2969 54.1562 437.6406 53.8125 437.6406 53.4219 C437.6406 53.0469 437.2969 52.6875 436.8906 52.6875 ZM438.4688 46.5781 C438.7188 46.8906 438.875 47.2656 438.8906 47.6562 C438.8906 48.1875 438.625 48.5 438.0312 48.7656 L437.4062 49.0156 C436.6406 49.3125 436.3906 49.5469 436.3906 49.9375 C436.3906 50.1094 436.4531 50.3438 436.5781 50.8125 L436.7344 51.3438 L437.1094 51.3438 L437.0938 50.5312 C437.0938 50.0938 437.2031 49.9688 437.7812 49.7344 L438.2031 49.5625 C439.0312 49.2188 439.4531 48.6875 439.4531 47.8438 C439.4531 46.1562 437.6562 45.1875 436.5 45.0312 C436.1094 45.125 435.9062 45.2969 435.9062 45.6406 C435.9062 45.9375 436.0625 46.1562 436.7188 46.2656 L438.4688 46.5781 Z" style="fill:black; stroke:none;"
      /><rect x="421" width="5" height="10" y="44" style="stroke:none;"
      /><path d="M422.8906 52.6875 C422.4844 52.6875 422.1562 53.0469 422.1562 53.4219 C422.1562 53.8125 422.4844 54.1562 422.8906 54.1562 C423.2969 54.1562 423.6406 53.8125 423.6406 53.4219 C423.6406 53.0469 423.2969 52.6875 422.8906 52.6875 ZM424.4688 46.5781 C424.7188 46.8906 424.875 47.2656 424.8906 47.6562 C424.8906 48.1875 424.625 48.5 424.0312 48.7656 L423.4062 49.0156 C422.6406 49.3125 422.3906 49.5469 422.3906 49.9375 C422.3906 50.1094 422.4531 50.3438 422.5781 50.8125 L422.7344 51.3438 L423.1094 51.3438 L423.0938 50.5312 C423.0938 50.0938 423.2031 49.9688 423.7812 49.7344 L424.2031 49.5625 C425.0312 49.2188 425.4531 48.6875 425.4531 47.8438 C425.4531 46.1562 423.6562 45.1875 422.5 45.0312 C422.1094 45.125 421.9062 45.2969 421.9062 45.6406 C421.9062 45.9375 422.0625 46.1562 422.7188 46.2656 L424.4688 46.5781 Z" style="fill:black; stroke:none;"
      /><rect x="487" width="5" height="10" y="44" style="stroke:none;"
      /><path d="M488.8906 52.6875 C488.4844 52.6875 488.1562 53.0469 488.1562 53.4219 C488.1562 53.8125 488.4844 54.1562 488.8906 54.1562 C489.2969 54.1562 489.6406 53.8125 489.6406 53.4219 C489.6406 53.0469 489.2969 52.6875 488.8906 52.6875 ZM490.4688 46.5781 C490.7188 46.8906 490.875 47.2656 490.8906 47.6562 C490.8906 48.1875 490.625 48.5 490.0312 48.7656 L489.4062 49.0156 C488.6406 49.3125 488.3906 49.5469 488.3906 49.9375 C488.3906 50.1094 488.4531 50.3438 488.5781 50.8125 L488.7344 51.3438 L489.1094 51.3438 L489.0938 50.5312 C489.0938 50.0938 489.2031 49.9688 489.7812 49.7344 L490.2031 49.5625 C491.0312 49.2188 491.4531 48.6875 491.4531 47.8438 C491.4531 46.1562 489.6562 45.1875 488.5 45.0312 C488.1094 45.125 487.9062 45.2969 487.9062 45.6406 C487.9062 45.9375 488.0625 46.1562 488.7188 46.2656 L490.4688 46.5781 Z" style="fill:black; stroke:none;"
      /><rect x="473" width="5" height="10" y="44" style="stroke:none;"
      /><path d="M474.8906 52.6875 C474.4844 52.6875 474.1562 53.0469 474.1562 53.4219 C474.1562 53.8125 474.4844 54.1562 474.8906 54.1562 C475.2969 54.1562 475.6406 53.8125 475.6406 53.4219 C475.6406 53.0469 475.2969 52.6875 474.8906 52.6875 ZM476.4688 46.5781 C476.7188 46.8906 476.875 47.2656 476.8906 47.6562 C476.8906 48.1875 476.625 48.5 476.0312 48.7656 L475.4062 49.0156 C474.6406 49.3125 474.3906 49.5469 474.3906 49.9375 C474.3906 50.1094 474.4531 50.3438 474.5781 50.8125 L474.7344 51.3438 L475.1094 51.3438 L475.0938 50.5312 C475.0938 50.0938 475.2031 49.9688 475.7812 49.7344 L476.2031 49.5625 C477.0312 49.2188 477.4531 48.6875 477.4531 47.8438 C477.4531 46.1562 475.6562 45.1875 474.5 45.0312 C474.1094 45.125 473.9062 45.2969 473.9062 45.6406 C473.9062 45.9375 474.0625 46.1562 474.7188 46.2656 L476.4688 46.5781 Z" style="fill:black; stroke:none;"
      /><rect x="525" width="5" height="10" y="44" style="stroke:none;"
      /><path d="M526.8906 52.6875 C526.4844 52.6875 526.1562 53.0469 526.1562 53.4219 C526.1562 53.8125 526.4844 54.1562 526.8906 54.1562 C527.2969 54.1562 527.6406 53.8125 527.6406 53.4219 C527.6406 53.0469 527.2969 52.6875 526.8906 52.6875 ZM528.4688 46.5781 C528.7188 46.8906 528.875 47.2656 528.8906 47.6562 C528.8906 48.1875 528.625 48.5 528.0312 48.7656 L527.4062 49.0156 C526.6406 49.3125 526.3906 49.5469 526.3906 49.9375 C526.3906 50.1094 526.4531 50.3438 526.5781 50.8125 L526.7344 51.3438 L527.1094 51.3438 L527.0938 50.5312 C527.0938 50.0938 527.2031 49.9688 527.7812 49.7344 L528.2031 49.5625 C529.0312 49.2188 529.4531 48.6875 529.4531 47.8438 C529.4531 46.1562 527.6562 45.1875 526.5 45.0312 C526.1094 45.125 525.9062 45.2969 525.9062 45.6406 C525.9062 45.9375 526.0625 46.1562 526.7188 46.2656 L528.4688 46.5781 Z" style="fill:black; stroke:none;"
    /></g
  ></g
></svg
>
