<?xml version="1.0"?>
<!DOCTYPE svg PUBLIC '-//W3C//DTD SVG 1.0//EN'
          'http://www.w3.org/TR/2001/REC-SVG-20010904/DTD/svg10.dtd'>
<svg xmlns:xlink="http://www.w3.org/1999/xlink" style="fill-opacity:1; color-rendering:auto; color-interpolation:auto; text-rendering:auto; stroke:black; stroke-linecap:square; stroke-miterlimit:10; shape-rendering:auto; stroke-opacity:1; fill:black; stroke-dasharray:none; font-weight:normal; stroke-width:1; font-family:'Dialog'; font-style:normal; stroke-linejoin:miter; font-size:12px; stroke-dashoffset:0; image-rendering:auto;" viewBox="0 0 222 157" xmlns="http://www.w3.org/2000/svg"
><!--Generated by the Batik Graphics2D SVG Generator--><defs id="genericDefs"
  /><g
  ><defs id="defs1"
    ><clipPath clipPathUnits="userSpaceOnUse" id="clipPath1"
      ><path style="fill-rule:evenodd;" d="M126 82 L137 104 L115 104 Z"
      /></clipPath
      ><clipPath clipPathUnits="userSpaceOnUse" id="clipPath2"
      ><path style="fill-rule:evenodd;" d="M69 82 L80 104 L58 104 Z"
      /></clipPath
      ><clipPath clipPathUnits="userSpaceOnUse" id="clipPath3"
      ><path style="fill-rule:evenodd;" d="M69 52 L58 30 L80 30 Z"
      /></clipPath
    ></defs
    ><g style="fill:white; text-rendering:optimizeSpeed; stroke:white;"
    ><rect x="0" width="222" height="157" y="0" style="stroke:none;"
      /><polygon style="fill:none; stroke:black;" points=" 181 93 126 93"
      /><path d="M181 82 C175.5 87.5 186.5 98.5 181 104" style="fill:none; stroke:black;"
      /><polygon style="fill:none; stroke:black;" points=" 126 93 69 93"
      /><polygon style="clip-path:url(#clipPath1); stroke:none;" points=" 126 82 137 104 115 104"
      /><rect x="115" y="82" width="22" style="clip-path:url(#clipPath1); fill:rgb(0,166,81); stroke:none;" height="22"
      /><rect x="115" y="82" width="22" style="clip-path:url(#clipPath1); fill:none; stroke:black;" height="22"
      /><polygon style="fill:none; stroke:black;" points=" 126 82 137 104 115 104"
      /><rect x="113" y="110" width="25" style="stroke:none;" height="10"
    /></g
    ><g style="text-rendering:optimizeSpeed; font-size:14px; font-family:'SansSerif';"
    ><path style="stroke:none;" d="M113.6094 121 L120.0625 121 L120.0625 119.8906 L117.2344 119.8906 C116.7031 119.8906 116.0781 119.9531 115.5469 119.9844 C117.9531 117.7031 119.5625 115.625 119.5625 113.5781 C119.5625 111.75 118.4219 110.5469 116.5781 110.5469 C115.2812 110.5469 114.4062 111.1406 113.5625 112.0469 L114.2969 112.7812 C114.8594 112.1094 115.5938 111.5938 116.4375 111.5938 C117.7031 111.5938 118.3125 112.4531 118.3125 113.625 C118.3125 115.3906 116.8438 117.4375 113.6094 120.25 L113.6094 121 ZM122.1762 121 L123.3481 121 L123.3481 115.3125 C123.3481 114.4375 123.2543 113.1875 123.1918 112.2969 L123.2543 112.2969 L124.0668 114.625 L126.0043 119.9688 L126.8793 119.9688 L128.8168 114.625 L129.6293 112.2969 L129.6918 112.2969 C129.6137 113.1875 129.52 114.4375 129.52 115.3125 L129.52 121 L130.7387 121 L130.7387 110.7188 L129.1762 110.7188 L127.2075 116.2188 C126.9731 116.9375 126.7543 117.6562 126.5043 118.375 L126.4418 118.375 C126.1918 117.6562 125.9575 116.9375 125.7075 116.2188 L123.7387 110.7188 L122.1762 110.7188 L122.1762 121 ZM136.4973 121.1875 C137.5285 121.1875 138.341 120.8281 139.0129 120.3906 L138.5442 119.5625 C137.9973 119.9375 137.3879 120.1562 136.6535 120.1562 C135.2004 120.1562 134.216 119.125 134.1223 117.5 L139.2473 117.5 C139.2785 117.3125 139.3098 117.0469 139.3098 116.7656 C139.3098 114.6094 138.216 113.2031 136.2785 113.2031 C134.5129 113.2031 132.8567 114.7344 132.8567 117.2031 C132.8567 119.7188 134.4817 121.1875 136.4973 121.1875 ZM134.1067 116.5781 C134.2629 115.0938 135.216 114.2188 136.2942 114.2188 C137.4817 114.2188 138.1848 115.0469 138.1848 116.5781 L134.1067 116.5781 Z"
      /><polygon style="fill:none;" points=" 69 93 69 41"
    /></g
    ><g style="fill:white; text-rendering:optimizeSpeed; stroke:white;"
    ><polygon style="stroke:none; clip-path:url(#clipPath2);" points=" 69 82 80 104 58 104"
      /><rect x="58" y="82" width="22" style="clip-path:url(#clipPath2); fill:rgb(0,166,81); stroke:none;" height="22"
      /><rect x="58" y="82" width="22" style="clip-path:url(#clipPath2); fill:none; stroke:black;" height="22"
      /><polygon style="fill:none; stroke:black;" points=" 69 82 80 104 58 104"
      /><rect x="56" width="25" height="10" y="110" style="stroke:none;"
    /></g
    ><g style="text-rendering:optimizeSpeed; font-size:14px; font-family:'SansSerif';"
    ><path style="stroke:none;" d="M56.6094 121 L63.0625 121 L63.0625 119.8906 L60.2344 119.8906 C59.7031 119.8906 59.0781 119.9531 58.5469 119.9844 C60.9531 117.7031 62.5625 115.625 62.5625 113.5781 C62.5625 111.75 61.4219 110.5469 59.5781 110.5469 C58.2812 110.5469 57.4062 111.1406 56.5625 112.0469 L57.2969 112.7812 C57.8594 112.1094 58.5938 111.5938 59.4375 111.5938 C60.7031 111.5938 61.3125 112.4531 61.3125 113.625 C61.3125 115.3906 59.8438 117.4375 56.6094 120.25 L56.6094 121 ZM65.1762 121 L66.3481 121 L66.3481 115.3125 C66.3481 114.4375 66.2543 113.1875 66.1918 112.2969 L66.2543 112.2969 L67.0668 114.625 L69.0043 119.9688 L69.8793 119.9688 L71.8168 114.625 L72.6293 112.2969 L72.6918 112.2969 C72.6137 113.1875 72.52 114.4375 72.52 115.3125 L72.52 121 L73.7387 121 L73.7387 110.7188 L72.1762 110.7188 L70.2075 116.2188 C69.9731 116.9375 69.7543 117.6562 69.5043 118.375 L69.4418 118.375 C69.1918 117.6562 68.9575 116.9375 68.7075 116.2188 L66.7387 110.7188 L65.1762 110.7188 L65.1762 121 ZM79.4973 121.1875 C80.5285 121.1875 81.341 120.8281 82.0129 120.3906 L81.5442 119.5625 C80.9973 119.9375 80.3879 120.1562 79.6535 120.1562 C78.2004 120.1562 77.216 119.125 77.1223 117.5 L82.2473 117.5 C82.2785 117.3125 82.3098 117.0469 82.3098 116.7656 C82.3098 114.6094 81.216 113.2031 79.2785 113.2031 C77.5129 113.2031 75.8567 114.7344 75.8567 117.2031 C75.8567 119.7188 77.4817 121.1875 79.4973 121.1875 ZM77.1067 116.5781 C77.2629 115.0938 78.216 114.2188 79.2942 114.2188 C80.4817 114.2188 81.1848 115.0469 81.1848 116.5781 L77.1067 116.5781 Z"
    /></g
    ><g style="fill:white; text-rendering:optimizeSpeed; stroke:white;"
    ><polygon style="stroke:none; clip-path:url(#clipPath3);" points=" 69 52 58 30 80 30"
      /><rect x="58" y="30" width="22" style="clip-path:url(#clipPath3); fill:rgb(237,28,36); stroke:none;" height="22"
      /><rect x="58" y="30" width="22" style="clip-path:url(#clipPath3); fill:none; stroke:black;" height="22"
      /><polygon style="fill:none; stroke:black;" points=" 69 52 58 30 80 30"
      /><rect x="30" width="25" height="10" y="35" style="stroke:none;"
    /></g
    ><g style="text-rendering:optimizeSpeed; font-size:14px; font-family:'SansSerif';"
    ><path style="stroke:none;" d="M30.6094 46 L37.0625 46 L37.0625 44.8906 L34.2344 44.8906 C33.7031 44.8906 33.0781 44.9531 32.5469 44.9844 C34.9531 42.7031 36.5625 40.625 36.5625 38.5781 C36.5625 36.75 35.4219 35.5469 33.5781 35.5469 C32.2812 35.5469 31.4062 36.1406 30.5625 37.0469 L31.2969 37.7812 C31.8594 37.1094 32.5938 36.5938 33.4375 36.5938 C34.7031 36.5938 35.3125 37.4531 35.3125 38.625 C35.3125 40.3906 33.8438 42.4375 30.6094 45.25 L30.6094 46 ZM39.1762 46 L40.3481 46 L40.3481 40.3125 C40.3481 39.4375 40.2543 38.1875 40.1918 37.2969 L40.2543 37.2969 L41.0668 39.625 L43.0043 44.9688 L43.8793 44.9688 L45.8168 39.625 L46.6293 37.2969 L46.6918 37.2969 C46.6137 38.1875 46.52 39.4375 46.52 40.3125 L46.52 46 L47.7387 46 L47.7387 35.7188 L46.1762 35.7188 L44.2075 41.2188 C43.9731 41.9375 43.7543 42.6562 43.5043 43.375 L43.4418 43.375 C43.1918 42.6562 42.9575 41.9375 42.7075 41.2188 L40.7387 35.7188 L39.1762 35.7188 L39.1762 46 ZM53.4973 46.1875 C54.5285 46.1875 55.341 45.8281 56.0129 45.3906 L55.5442 44.5625 C54.9973 44.9375 54.3879 45.1562 53.6535 45.1562 C52.2004 45.1562 51.216 44.125 51.1223 42.5 L56.2473 42.5 C56.2785 42.3125 56.3098 42.0469 56.3098 41.7656 C56.3098 39.6094 55.216 38.2031 53.2785 38.2031 C51.5129 38.2031 49.8567 39.7344 49.8567 42.2031 C49.8567 44.7188 51.4817 46.1875 53.4973 46.1875 ZM51.1067 41.5781 C51.2629 40.0938 52.216 39.2188 53.2942 39.2188 C54.4817 39.2188 55.1848 40.0469 55.1848 41.5781 L51.1067 41.5781 Z"
    /></g
    ><g style="fill:white; text-rendering:optimizeSpeed; font-family:'Serif'; stroke:white;"
    ><rect x="58" width="5" height="10" y="69" style="stroke:none;"
      /><path d="M59.8906 77.6875 C59.4844 77.6875 59.1562 78.0469 59.1562 78.4219 C59.1562 78.8125 59.4844 79.1562 59.8906 79.1562 C60.2969 79.1562 60.6406 78.8125 60.6406 78.4219 C60.6406 78.0469 60.2969 77.6875 59.8906 77.6875 ZM61.4688 71.5781 C61.7188 71.8906 61.875 72.2656 61.8906 72.6562 C61.8906 73.1875 61.625 73.5 61.0312 73.7656 L60.4062 74.0156 C59.6406 74.3125 59.3906 74.5469 59.3906 74.9375 C59.3906 75.1094 59.4531 75.3438 59.5781 75.8125 L59.7344 76.3438 L60.1094 76.3438 L60.0938 75.5312 C60.0938 75.0938 60.2031 74.9688 60.7812 74.7344 L61.2031 74.5625 C62.0312 74.2188 62.4531 73.6875 62.4531 72.8438 C62.4531 71.1562 60.6562 70.1875 59.5 70.0312 C59.1094 70.125 58.9062 70.2969 58.9062 70.6406 C58.9062 70.9375 59.0625 71.1562 59.7188 71.2656 L61.4688 71.5781 Z" style="fill:black; stroke:none;"
      /><rect x="58" width="5" height="10" y="55" style="stroke:none;"
      /><path d="M59.8906 63.6875 C59.4844 63.6875 59.1562 64.0469 59.1562 64.4219 C59.1562 64.8125 59.4844 65.1562 59.8906 65.1562 C60.2969 65.1562 60.6406 64.8125 60.6406 64.4219 C60.6406 64.0469 60.2969 63.6875 59.8906 63.6875 ZM61.4688 57.5781 C61.7188 57.8906 61.875 58.2656 61.8906 58.6562 C61.8906 59.1875 61.625 59.5 61.0312 59.7656 L60.4062 60.0156 C59.6406 60.3125 59.3906 60.5469 59.3906 60.9375 C59.3906 61.1094 59.4531 61.3438 59.5781 61.8125 L59.7344 62.3438 L60.1094 62.3438 L60.0938 61.5312 C60.0938 61.0938 60.2031 60.9688 60.7812 60.7344 L61.2031 60.5625 C62.0312 60.2188 62.4531 59.6875 62.4531 58.8438 C62.4531 57.1562 60.6562 56.1875 59.5 56.0312 C59.1094 56.125 58.9062 56.2969 58.9062 56.6406 C58.9062 56.9375 59.0625 57.1562 59.7188 57.2656 L61.4688 57.5781 Z" style="fill:black; stroke:none;"
      /><rect x="102" width="5" height="10" y="96" style="stroke:none;"
      /><path d="M103.8906 104.6875 C103.4844 104.6875 103.1562 105.0469 103.1562 105.4219 C103.1562 105.8125 103.4844 106.1562 103.8906 106.1562 C104.2969 106.1562 104.6406 105.8125 104.6406 105.4219 C104.6406 105.0469 104.2969 104.6875 103.8906 104.6875 ZM105.4688 98.5781 C105.7188 98.8906 105.875 99.2656 105.8906 99.6562 C105.8906 100.1875 105.625 100.5 105.0312 100.7656 L104.4062 101.0156 C103.6406 101.3125 103.3906 101.5469 103.3906 101.9375 C103.3906 102.1094 103.4531 102.3438 103.5781 102.8125 L103.7344 103.3438 L104.1094 103.3438 L104.0938 102.5312 C104.0938 102.0938 104.2031 101.9688 104.7812 101.7344 L105.2031 101.5625 C106.0312 101.2188 106.4531 100.6875 106.4531 99.8438 C106.4531 98.1562 104.6562 97.1875 103.5 97.0312 C103.1094 97.125 102.9062 97.2969 102.9062 97.6406 C102.9062 97.9375 103.0625 98.1562 103.7188 98.2656 L105.4688 98.5781 Z" style="fill:black; stroke:none;"
      /><rect x="88" width="5" height="10" y="96" style="stroke:none;"
      /><path d="M89.8906 104.6875 C89.4844 104.6875 89.1562 105.0469 89.1562 105.4219 C89.1562 105.8125 89.4844 106.1562 89.8906 106.1562 C90.2969 106.1562 90.6406 105.8125 90.6406 105.4219 C90.6406 105.0469 90.2969 104.6875 89.8906 104.6875 ZM91.4688 98.5781 C91.7188 98.8906 91.875 99.2656 91.8906 99.6562 C91.8906 100.1875 91.625 100.5 91.0312 100.7656 L90.4062 101.0156 C89.6406 101.3125 89.3906 101.5469 89.3906 101.9375 C89.3906 102.1094 89.4531 102.3438 89.5781 102.8125 L89.7344 103.3438 L90.1094 103.3438 L90.0938 102.5312 C90.0938 102.0938 90.2031 101.9688 90.7812 101.7344 L91.2031 101.5625 C92.0312 101.2188 92.4531 100.6875 92.4531 99.8438 C92.4531 98.1562 90.6562 97.1875 89.5 97.0312 C89.1094 97.125 88.9062 97.2969 88.9062 97.6406 C88.9062 97.9375 89.0625 98.1562 89.7188 98.2656 L91.4688 98.5781 Z" style="fill:black; stroke:none;"
      /><rect x="145" width="5" height="10" y="96" style="stroke:none;"
      /><path d="M146.8906 104.6875 C146.4844 104.6875 146.1562 105.0469 146.1562 105.4219 C146.1562 105.8125 146.4844 106.1562 146.8906 106.1562 C147.2969 106.1562 147.6406 105.8125 147.6406 105.4219 C147.6406 105.0469 147.2969 104.6875 146.8906 104.6875 ZM148.4688 98.5781 C148.7188 98.8906 148.875 99.2656 148.8906 99.6562 C148.8906 100.1875 148.625 100.5 148.0312 100.7656 L147.4062 101.0156 C146.6406 101.3125 146.3906 101.5469 146.3906 101.9375 C146.3906 102.1094 146.4531 102.3438 146.5781 102.8125 L146.7344 103.3438 L147.1094 103.3438 L147.0938 102.5312 C147.0938 102.0938 147.2031 101.9688 147.7812 101.7344 L148.2031 101.5625 C149.0312 101.2188 149.4531 100.6875 149.4531 99.8438 C149.4531 98.1562 147.6562 97.1875 146.5 97.0312 C146.1094 97.125 145.9062 97.2969 145.9062 97.6406 C145.9062 97.9375 146.0625 98.1562 146.7188 98.2656 L148.4688 98.5781 Z" style="fill:black; stroke:none;"
    /></g
  ></g
></svg
>
