<?xml version="1.0"?>
<!DOCTYPE svg PUBLIC '-//W3C//DTD SVG 1.0//EN'
          'http://www.w3.org/TR/2001/REC-SVG-20010904/DTD/svg10.dtd'>
<svg xmlns:xlink="http://www.w3.org/1999/xlink" style="fill-opacity:1; color-rendering:auto; color-interpolation:auto; text-rendering:auto; stroke:black; stroke-linecap:square; stroke-miterlimit:10; shape-rendering:auto; stroke-opacity:1; fill:black; stroke-dasharray:none; font-weight:normal; stroke-width:1; font-family:'Dialog'; font-style:normal; stroke-linejoin:miter; font-size:12px; stroke-dashoffset:0; image-rendering:auto;" viewBox="0 0 446 186" xmlns="http://www.w3.org/2000/svg"
><!--Generated by the Batik Graphics2D SVG Generator--><defs id="genericDefs"
  /><g
  ><defs id="defs1"
    ><clipPath clipPathUnits="userSpaceOnUse" id="clipPath1"
      ><path d="M342 82 L364 82 L364 104 L342 104 L342 82 Z"
      /></clipPath
      ><clipPath clipPathUnits="userSpaceOnUse" id="clipPath2"
      ><path d="M290 82 L312 82 L312 104 L290 104 L290 82 Z"
      /></clipPath
      ><clipPath clipPathUnits="userSpaceOnUse" id="clipPath3"
      ><path d="M260 93 C260 99.0751 255.0751 104 249 104 C242.9249 104 238 99.0751 238 93 C238 86.9249 242.9249 82 249 82 C255.0751 82 260 86.9249 260 93 Z"
      /></clipPath
      ><clipPath clipPathUnits="userSpaceOnUse" id="clipPath4"
      ><path d="M208 119 C208 125.0751 203.0751 130 197 130 C190.9249 130 186 125.0751 186 119 C186 112.9249 190.9249 108 197 108 C203.0751 108 208 112.9249 208 119 Z"
      /></clipPath
      ><clipPath clipPathUnits="userSpaceOnUse" id="clipPath5"
      ><path d="M134 134 L156 134 L156 156 L134 156 L134 134 Z"
      /></clipPath
      ><clipPath clipPathUnits="userSpaceOnUse" id="clipPath6"
      ><path d="M104 145 C104 151.0751 99.0751 156 93 156 C86.9249 156 82 151.0751 82 145 C82 138.9249 86.9249 134 93 134 C99.0751 134 104 138.9249 104 145 Z"
      /></clipPath
      ><clipPath clipPathUnits="userSpaceOnUse" id="clipPath7"
      ><path style="fill-rule:evenodd;" d="M41 134 L52 145 L41 156 L30 145 Z"
      /></clipPath
      ><clipPath clipPathUnits="userSpaceOnUse" id="clipPath8"
      ><path d="M134 82 L156 82 L156 104 L134 104 L134 82 Z"
      /></clipPath
      ><clipPath clipPathUnits="userSpaceOnUse" id="clipPath9"
      ><path d="M104 93 C104 99.0751 99.0751 104 93 104 C86.9249 104 82 99.0751 82 93 C82 86.9249 86.9249 82 93 82 C99.0751 82 104 86.9249 104 93 Z"
      /></clipPath
      ><clipPath clipPathUnits="userSpaceOnUse" id="clipPath10"
      ><path style="fill-rule:evenodd;" d="M41 82 L52 93 L41 104 L30 93 Z"
      /></clipPath
      ><clipPath clipPathUnits="userSpaceOnUse" id="clipPath11"
      ><path d="M208 67 C208 73.0751 203.0751 78 197 78 C190.9249 78 186 73.0751 186 67 C186 60.9249 190.9249 56 197 56 C203.0751 56 208 60.9249 208 67 Z"
      /></clipPath
      ><clipPath clipPathUnits="userSpaceOnUse" id="clipPath12"
      ><path style="fill-rule:evenodd;" d="M353 52 L342 30 L364 30 Z"
      /></clipPath
    ></defs
    ><g style="fill:white; text-rendering:optimizeSpeed; stroke:white;"
    ><rect x="0" width="446" height="186" y="0" style="stroke:none;"
      /><polygon style="fill:none; stroke:black;" points=" 405 93 353 93"
      /><path d="M405 82 C399.5 87.5 410.5 98.5 405 104" style="fill:none; stroke:black;"
      /><polygon style="fill:none; stroke:black;" points=" 353 93 301 93"
      /><polygon style="fill:none; stroke:black;" points=" 353 93 353 41"
      /><rect x="342" y="82" width="22" style="clip-path:url(#clipPath1); stroke:none;" height="22"
      /><rect x="342" y="82" width="22" style="clip-path:url(#clipPath1); fill:rgb(0,144,188); stroke:none;" height="22"
      /><rect x="342" y="82" width="22" style="clip-path:url(#clipPath1); fill:none; stroke:black;" height="22"
      /><rect x="342" y="82" width="22" style="fill:none; stroke:black;" height="22"
      /><polygon style="fill:none; stroke:black;" points=" 301 93 249 93"
      /><rect x="290" y="82" width="22" style="clip-path:url(#clipPath2); stroke:none;" height="22"
      /><rect x="290" y="82" width="22" style="clip-path:url(#clipPath2); fill:rgb(0,144,188); stroke:none;" height="22"
      /><rect x="290" y="82" width="22" style="clip-path:url(#clipPath2); fill:none; stroke:black;" height="22"
      /><rect x="290" y="82" width="22" style="fill:none; stroke:black;" height="22"
      /><polygon style="fill:none; stroke:black;" points=" 249 93 197 119"
      /><polygon style="fill:none; stroke:black;" points=" 249 93 197 67"
      /><circle style="clip-path:url(#clipPath3); stroke:none;" r="11" cx="249" cy="93"
      /><rect x="238" y="82" width="22" style="clip-path:url(#clipPath3); fill:rgb(0,166,81); stroke:none;" height="22"
      /><rect x="238" y="82" width="22" style="clip-path:url(#clipPath3); fill:none; stroke:black;" height="22"
      /><circle style="fill:none; stroke:black;" r="11" cx="249" cy="93"
      /><polygon style="fill:none; stroke:black;" points=" 197 119 145 145"
      /><polygon style="fill:none; stroke:black;" points=" 197 119 145 93"
      /><circle style="clip-path:url(#clipPath4); stroke:none;" r="11" cx="197" cy="119"
      /><rect x="186" y="108" width="22" style="clip-path:url(#clipPath4); fill:rgb(0,166,81); stroke:none;" height="22"
      /><rect x="186" y="108" width="22" style="clip-path:url(#clipPath4); fill:none; stroke:black;" height="22"
      /><circle style="fill:none; stroke:black;" r="11" cx="197" cy="119"
      /><polygon style="fill:none; stroke:black;" points=" 145 145 93 145"
      /><rect x="134" y="134" width="22" style="clip-path:url(#clipPath5); stroke:none;" height="22"
      /><rect x="134" y="134" width="22" style="clip-path:url(#clipPath5); fill:rgb(0,144,188); stroke:none;" height="22"
      /><rect x="134" y="134" width="22" style="clip-path:url(#clipPath5); fill:none; stroke:black;" height="22"
      /><rect x="134" y="134" width="22" style="fill:none; stroke:black;" height="22"
      /><polygon style="fill:none; stroke:black;" points=" 93 145 41 145"
      /><circle style="clip-path:url(#clipPath6); stroke:none;" r="11" cx="93" cy="145"
      /><rect x="82" y="134" width="22" style="clip-path:url(#clipPath6); fill:rgb(255,212,0); stroke:none;" height="22"
      /><rect x="82" y="134" width="22" style="clip-path:url(#clipPath6); fill:none; stroke:black;" height="22"
      /><circle style="fill:none; stroke:black;" r="11" cx="93" cy="145"
      /><polygon style="clip-path:url(#clipPath7); stroke:none;" points=" 41 134 52 145 41 156 30 145"
      /><rect x="30" y="134" width="22" style="clip-path:url(#clipPath7); fill:rgb(165,67,153); stroke:none;" height="22"
      /><rect x="30" y="134" width="22" style="clip-path:url(#clipPath7); fill:none; stroke:black;" height="22"
      /><polygon style="fill:none; stroke:black;" points=" 41 134 52 145 41 156 30 145"
      /><rect x="71" y="148" width="6" style="stroke:none;" height="10"
    /></g
    ><g style="font-family:'Serif'; text-rendering:optimizeSpeed; "
    ><path style="stroke:none;" d="M73.2344 149.6562 C73.5156 149.5938 73.7656 149.5625 74.0156 149.5625 C75.0625 149.5625 75.6719 150.1719 75.6719 151.2656 C75.6719 152.4375 74.9062 153.1094 73.7031 153.1094 L73.1875 153.1094 L73.1875 153.6406 L73.7969 153.6406 C75.2188 153.6406 75.9062 154.4219 75.9062 155.6406 C75.9062 156.8438 75.1719 157.6875 73.875 157.6875 C73.6094 157.6875 73.3125 157.6562 73.0156 157.5625 L72.7812 156.8125 C72.625 156.2812 72.5 156.0469 72.1406 156.0469 C71.8906 156.0469 71.7031 156.1719 71.5781 156.4219 C71.8438 157.6406 72.7812 158.1719 74.0312 158.1719 C75.7188 158.1719 76.875 157.125 76.875 155.7031 C76.875 154.5 76.2031 153.625 74.7969 153.375 C75.9531 153.0156 76.6094 152.2031 76.6094 151.2031 C76.6094 149.9219 75.6719 149.0781 74.1875 149.0781 C73.0469 149.0781 72.0625 149.5938 71.7969 150.6875 C71.9062 151 72.1094 151.1094 72.3594 151.1094 C72.7344 151.1094 72.8906 150.8906 73 150.4062 L73.2344 149.6562 Z"
      /><rect x="56" y="149" width="8" style="fill:white; stroke:none;" height="8"
      /><path style="stroke:none;" d="M60.9844 154.7031 C60.9375 155.8906 60.1562 156.6562 59.3125 156.6562 C58.2656 156.6562 57.5 155.6875 57.5 153.7188 C57.5 152.2812 58.1562 151.1562 59.3438 151.1562 C60.1406 151.1562 60.7812 151.6875 61.0938 152.6406 L60.9844 154.7031 ZM62.9062 156.2812 C62.7344 156.375 62.5469 156.4219 62.3438 156.4219 C61.9531 156.4219 61.75 156.2188 61.75 155.4219 C61.75 154.4844 61.9688 152.5312 62.1875 150.8281 L62.0312 150.7188 L61.2344 150.9219 L61.1406 151.7969 C60.7812 151.0312 60.1562 150.6562 59.3906 150.6562 C58.0469 150.6562 56.5625 151.8438 56.5625 153.9531 C56.5625 156.0938 57.7188 157.1719 59.1406 157.1719 C60.0156 157.1719 60.6875 156.8125 61.0938 155.9844 C61.2031 156.8594 61.5156 157.1719 62.0156 157.1719 C62.4688 157.1719 62.7969 156.9062 63.0156 156.5625 L62.9062 156.2812 Z"
      /><rect x="122" y="148" width="7" style="fill:white; stroke:none;" height="9"
      /><path style="stroke:none;" d="M123 153.5156 L125.9531 149.2656 L125.9531 153.5156 L123 153.5156 ZM128.2812 153.5156 L126.8594 153.5156 L126.8594 148.125 L126.2344 148.125 L122.3438 153.6406 L122.3438 154.1875 L125.9531 154.1875 L125.9531 157 L126.8594 157 L126.8594 154.1875 L128.2812 154.1875 L128.2812 153.5156 Z"
      /><rect x="109" y="146" width="6" style="fill:white; stroke:none;" height="13"
      /><path style="stroke:none;" d="M111.0938 152.2031 C111.0938 150.6562 111.75 149.8125 112.7969 149.8125 C113.7188 149.8125 114.2656 150.4531 114.2656 151.5156 C114.2656 152.7188 113.5 153.4375 112.1875 153.7031 L112.2969 154.3125 C114.2188 154.2344 114.9375 155.2188 114.9375 156.4375 C114.9375 157.625 114.2344 158.4219 112.9531 158.4219 C112.25 158.4219 111.6562 158.1562 111.0938 157.7188 L111.0938 152.2031 ZM110.2031 158.9062 L110.1094 161.375 L110.2656 161.4844 L111.1562 161.2656 L111.0156 158.0938 C111.5469 158.8438 112.3594 159.1719 113.1719 159.1719 C114.5625 159.1719 115.8594 158.2188 115.8594 156.4844 C115.8594 154.9531 114.875 154.1094 113.125 154 C114.5625 153.6094 115.1875 152.4531 115.1875 151.4844 C115.1875 150.0938 114.1562 149.3125 112.9062 149.3125 C111.2969 149.3125 110.2188 150.5469 110.2188 152.5156 L110.2031 158.9062 Z"
      /><polygon style="fill:none;" points=" 145 93 93 93"
      /><rect x="134" y="82" width="22" style="clip-path:url(#clipPath8); fill:white; stroke:none;" height="22"
      /><rect x="134" y="82" width="22" style="clip-path:url(#clipPath8); fill:rgb(0,144,188); stroke:none;" height="22"
      /><rect x="134" y="82" width="22" style="fill:none; clip-path:url(#clipPath8);" height="22"
      /><rect x="134" width="22" height="22" y="82" style="fill:none;"
      /><polygon style="fill:none;" points=" 93 93 41 93"
      /><circle style="fill:white; clip-path:url(#clipPath9); stroke:none;" r="11" cx="93" cy="93"
      /><rect x="82" y="82" width="22" style="clip-path:url(#clipPath9); fill:rgb(255,212,0); stroke:none;" height="22"
      /><rect x="82" y="82" width="22" style="fill:none; clip-path:url(#clipPath9);" height="22"
      /><circle r="11" style="fill:none;" cx="93" cy="93"
      /><polygon style="fill:white; clip-path:url(#clipPath10); stroke:none;" points=" 41 82 52 93 41 104 30 93"
      /><rect x="30" y="82" width="22" style="clip-path:url(#clipPath10); fill:rgb(165,67,153); stroke:none;" height="22"
      /><rect x="30" y="82" width="22" style="fill:none; clip-path:url(#clipPath10);" height="22"
      /><polygon style="fill:none;" points=" 41 82 52 93 41 104 30 93"
      /><rect x="71" y="96" width="6" style="fill:white; stroke:none;" height="10"
      /><path style="stroke:none;" d="M73.2344 97.6562 C73.5156 97.5938 73.7656 97.5625 74.0156 97.5625 C75.0625 97.5625 75.6719 98.1719 75.6719 99.2656 C75.6719 100.4375 74.9062 101.1094 73.7031 101.1094 L73.1875 101.1094 L73.1875 101.6406 L73.7969 101.6406 C75.2188 101.6406 75.9062 102.4219 75.9062 103.6406 C75.9062 104.8438 75.1719 105.6875 73.875 105.6875 C73.6094 105.6875 73.3125 105.6562 73.0156 105.5625 L72.7812 104.8125 C72.625 104.2812 72.5 104.0469 72.1406 104.0469 C71.8906 104.0469 71.7031 104.1719 71.5781 104.4219 C71.8438 105.6406 72.7812 106.1719 74.0312 106.1719 C75.7188 106.1719 76.875 105.125 76.875 103.7031 C76.875 102.5 76.2031 101.625 74.7969 101.375 C75.9531 101.0156 76.6094 100.2031 76.6094 99.2031 C76.6094 97.9219 75.6719 97.0781 74.1875 97.0781 C73.0469 97.0781 72.0625 97.5938 71.7969 98.6875 C71.9062 99 72.1094 99.1094 72.3594 99.1094 C72.7344 99.1094 72.8906 98.8906 73 98.4062 L73.2344 97.6562 Z"
      /><rect x="56" y="97" width="8" style="fill:white; stroke:none;" height="8"
      /><path style="stroke:none;" d="M60.9844 102.7031 C60.9375 103.8906 60.1562 104.6562 59.3125 104.6562 C58.2656 104.6562 57.5 103.6875 57.5 101.7188 C57.5 100.2812 58.1562 99.1562 59.3438 99.1562 C60.1406 99.1562 60.7812 99.6875 61.0938 100.6406 L60.9844 102.7031 ZM62.9062 104.2812 C62.7344 104.375 62.5469 104.4219 62.3438 104.4219 C61.9531 104.4219 61.75 104.2188 61.75 103.4219 C61.75 102.4844 61.9688 100.5312 62.1875 98.8281 L62.0312 98.7188 L61.2344 98.9219 L61.1406 99.7969 C60.7812 99.0312 60.1562 98.6562 59.3906 98.6562 C58.0469 98.6562 56.5625 99.8438 56.5625 101.9531 C56.5625 104.0938 57.7188 105.1719 59.1406 105.1719 C60.0156 105.1719 60.6875 104.8125 61.0938 103.9844 C61.2031 104.8594 61.5156 105.1719 62.0156 105.1719 C62.4688 105.1719 62.7969 104.9062 63.0156 104.5625 L62.9062 104.2812 Z"
      /><rect x="122" y="96" width="7" style="fill:white; stroke:none;" height="9"
      /><path style="stroke:none;" d="M123 101.5156 L125.9531 97.2656 L125.9531 101.5156 L123 101.5156 ZM128.2812 101.5156 L126.8594 101.5156 L126.8594 96.125 L126.2344 96.125 L122.3438 101.6406 L122.3438 102.1875 L125.9531 102.1875 L125.9531 105 L126.8594 105 L126.8594 102.1875 L128.2812 102.1875 L128.2812 101.5156 Z"
      /><rect x="109" y="94" width="6" style="fill:white; stroke:none;" height="13"
      /><path style="stroke:none;" d="M111.0938 100.2031 C111.0938 98.6562 111.75 97.8125 112.7969 97.8125 C113.7188 97.8125 114.2656 98.4531 114.2656 99.5156 C114.2656 100.7188 113.5 101.4375 112.1875 101.7031 L112.2969 102.3125 C114.2188 102.2344 114.9375 103.2188 114.9375 104.4375 C114.9375 105.625 114.2344 106.4219 112.9531 106.4219 C112.25 106.4219 111.6562 106.1562 111.0938 105.7188 L111.0938 100.2031 ZM110.2031 106.9062 L110.1094 109.375 L110.2656 109.4844 L111.1562 109.2656 L111.0156 106.0938 C111.5469 106.8438 112.3594 107.1719 113.1719 107.1719 C114.5625 107.1719 115.8594 106.2188 115.8594 104.4844 C115.8594 102.9531 114.875 102.1094 113.125 102 C114.5625 101.6094 115.1875 100.4531 115.1875 99.4844 C115.1875 98.0938 114.1562 97.3125 112.9062 97.3125 C111.2969 97.3125 110.2188 98.5469 110.2188 100.5156 L110.2031 106.9062 Z"
      /><rect x="179" y="130" width="6" style="fill:white; stroke:none;" height="9"
      /><path style="stroke:none;" d="M180.4219 138.0938 C181.0781 137.375 181.7031 136.7188 182.0312 136.3438 C183.9219 134.3125 184.5312 133.4688 184.5312 132.3594 C184.5312 131.0156 183.7812 130.0781 182.1562 130.0781 C180.9062 130.0781 179.7969 130.7031 179.5938 131.9688 C179.7188 132.2031 179.9062 132.3438 180.1562 132.3438 C180.4688 132.3438 180.6562 132.1094 180.7969 131.5938 L181.0938 130.6719 C181.3906 130.5938 181.6562 130.5625 181.8906 130.5625 C182.9219 130.5625 183.5469 131.3125 183.5469 132.4219 C183.5469 133.4375 182.9844 134.4219 181.7031 135.9062 C181.125 136.5781 180.3906 137.4375 179.6406 138.2812 L179.6406 139 L184.9219 139 L184.9219 138.0938 L180.4219 138.0938 Z"
      /><rect x="163" y="136" width="6" style="fill:white; stroke:none;" height="13"
      /><path style="stroke:none;" d="M165.0938 142.2031 C165.0938 140.6562 165.75 139.8125 166.7969 139.8125 C167.7188 139.8125 168.2656 140.4531 168.2656 141.5156 C168.2656 142.7188 167.5 143.4375 166.1875 143.7031 L166.2969 144.3125 C168.2188 144.2344 168.9375 145.2188 168.9375 146.4375 C168.9375 147.625 168.2344 148.4219 166.9531 148.4219 C166.25 148.4219 165.6562 148.1562 165.0938 147.7188 L165.0938 142.2031 ZM164.2031 148.9062 L164.1094 151.375 L164.2656 151.4844 L165.1562 151.2656 L165.0156 148.0938 C165.5469 148.8438 166.3594 149.1719 167.1719 149.1719 C168.5625 149.1719 169.8594 148.2188 169.8594 146.4844 C169.8594 144.9531 168.875 144.1094 167.125 144 C168.5625 143.6094 169.1875 142.4531 169.1875 141.4844 C169.1875 140.0938 168.1562 139.3125 166.9062 139.3125 C165.2969 139.3125 164.2188 140.5469 164.2188 142.5156 L164.2031 148.9062 Z"
      /><rect x="171" y="112" width="7" style="fill:white; stroke:none;" height="9"
      /><path style="stroke:none;" d="M172 117.5156 L174.9531 113.2656 L174.9531 117.5156 L172 117.5156 ZM177.2812 117.5156 L175.8594 117.5156 L175.8594 112.125 L175.2344 112.125 L171.3438 117.6406 L171.3438 118.1875 L174.9531 118.1875 L174.9531 121 L175.8594 121 L175.8594 118.1875 L177.2812 118.1875 L177.2812 117.5156 Z"
      /><rect x="156" y="102" width="6" style="fill:white; stroke:none;" height="13"
      /><path style="stroke:none;" d="M158.0938 108.2031 C158.0938 106.6562 158.75 105.8125 159.7969 105.8125 C160.7188 105.8125 161.2656 106.4531 161.2656 107.5156 C161.2656 108.7188 160.5 109.4375 159.1875 109.7031 L159.2969 110.3125 C161.2188 110.2344 161.9375 111.2188 161.9375 112.4375 C161.9375 113.625 161.2344 114.4219 159.9531 114.4219 C159.25 114.4219 158.6562 114.1562 158.0938 113.7188 L158.0938 108.2031 ZM157.2031 114.9062 L157.1094 117.375 L157.2656 117.4844 L158.1562 117.2656 L158.0156 114.0938 C158.5469 114.8438 159.3594 115.1719 160.1719 115.1719 C161.5625 115.1719 162.8594 114.2188 162.8594 112.4844 C162.8594 110.9531 161.875 110.1094 160.125 110 C161.5625 109.6094 162.1875 108.4531 162.1875 107.4844 C162.1875 106.0938 161.1562 105.3125 159.9062 105.3125 C158.2969 105.3125 157.2188 106.5469 157.2188 108.5156 L157.2031 114.9062 Z"
      /><circle style="fill:white; clip-path:url(#clipPath11); stroke:none;" r="11" cx="197" cy="67"
      /><rect x="186" y="56" width="22" style="clip-path:url(#clipPath11); fill:rgb(0,166,81); stroke:none;" height="22"
      /><rect x="186" y="56" width="22" style="fill:none; clip-path:url(#clipPath11);" height="22"
      /><circle r="11" style="fill:none;" cx="197" cy="67"
      /><rect x="231" y="104" width="6" style="fill:white; stroke:none;" height="10"
      /><path style="stroke:none;" d="M233.2344 105.6562 C233.5156 105.5938 233.7656 105.5625 234.0156 105.5625 C235.0625 105.5625 235.6719 106.1719 235.6719 107.2656 C235.6719 108.4375 234.9062 109.1094 233.7031 109.1094 L233.1875 109.1094 L233.1875 109.6406 L233.7969 109.6406 C235.2188 109.6406 235.9062 110.4219 235.9062 111.6406 C235.9062 112.8438 235.1719 113.6875 233.875 113.6875 C233.6094 113.6875 233.3125 113.6562 233.0156 113.5625 L232.7812 112.8125 C232.625 112.2812 232.5 112.0469 232.1406 112.0469 C231.8906 112.0469 231.7031 112.1719 231.5781 112.4219 C231.8438 113.6406 232.7812 114.1719 234.0312 114.1719 C235.7188 114.1719 236.875 113.125 236.875 111.7031 C236.875 110.5 236.2031 109.625 234.7969 109.375 C235.9531 109.0156 236.6094 108.2031 236.6094 107.2031 C236.6094 105.9219 235.6719 105.0781 234.1875 105.0781 C233.0469 105.0781 232.0625 105.5938 231.7969 106.6875 C231.9062 107 232.1094 107.1094 232.3594 107.1094 C232.7344 107.1094 232.8906 106.8906 233 106.4062 L233.2344 105.6562 Z"
      /><rect x="214" y="113" width="8" style="fill:white; stroke:none;" height="8"
      /><path style="stroke:none;" d="M218.9844 118.7031 C218.9375 119.8906 218.1562 120.6562 217.3125 120.6562 C216.2656 120.6562 215.5 119.6875 215.5 117.7188 C215.5 116.2812 216.1562 115.1562 217.3438 115.1562 C218.1406 115.1562 218.7812 115.6875 219.0938 116.6406 L218.9844 118.7031 ZM220.9062 120.2812 C220.7344 120.375 220.5469 120.4219 220.3438 120.4219 C219.9531 120.4219 219.75 120.2188 219.75 119.4219 C219.75 118.4844 219.9688 116.5312 220.1875 114.8281 L220.0312 114.7188 L219.2344 114.9219 L219.1406 115.7969 C218.7812 115.0312 218.1562 114.6562 217.3906 114.6562 C216.0469 114.6562 214.5625 115.8438 214.5625 117.9531 C214.5625 120.0938 215.7188 121.1719 217.1406 121.1719 C218.0156 121.1719 218.6875 120.8125 219.0938 119.9844 C219.2031 120.8594 219.5156 121.1719 220.0156 121.1719 C220.4688 121.1719 220.7969 120.9062 221.0156 120.5625 L220.9062 120.2812 Z"
      /><rect x="224" y="86" width="6" style="fill:white; stroke:none;" height="10"
      /><path style="stroke:none;" d="M227.3438 95.6875 C226.2031 95.6875 225.5312 94.5 225.5312 92.2969 C225.5312 92.2188 225.5312 92.125 225.5312 92.0469 C226.0938 91.5 226.7188 91.3125 227.3438 91.3125 C228.3125 91.3125 228.9531 91.9844 228.9531 93.4531 C228.9531 94.9375 228.3125 95.6875 227.3438 95.6875 ZM229.5312 87.0781 C226.3438 87.4531 224.5625 89.7656 224.5625 92.4531 C224.5625 94.7812 225.6094 96.1719 227.3125 96.1719 C228.8438 96.1719 229.9219 95.1094 229.9219 93.2812 C229.9219 91.6875 228.9688 90.6562 227.5625 90.6562 C226.8281 90.6562 226.1406 90.9844 225.5781 91.5781 C225.7969 89.4062 227.0781 87.9688 229.5938 87.3906 L229.5312 87.0781 Z"
      /><rect x="207" y="79" width="8" style="fill:white; stroke:none;" height="8"
      /><path style="stroke:none;" d="M211.9844 84.7031 C211.9375 85.8906 211.1562 86.6562 210.3125 86.6562 C209.2656 86.6562 208.5 85.6875 208.5 83.7188 C208.5 82.2812 209.1562 81.1562 210.3438 81.1562 C211.1406 81.1562 211.7812 81.6875 212.0938 82.6406 L211.9844 84.7031 ZM213.9062 86.2812 C213.7344 86.375 213.5469 86.4219 213.3438 86.4219 C212.9531 86.4219 212.75 86.2188 212.75 85.4219 C212.75 84.4844 212.9688 82.5312 213.1875 80.8281 L213.0312 80.7188 L212.2344 80.9219 L212.1406 81.7969 C211.7812 81.0312 211.1562 80.6562 210.3906 80.6562 C209.0469 80.6562 207.5625 81.8438 207.5625 83.9531 C207.5625 86.0938 208.7188 87.1719 210.1406 87.1719 C211.0156 87.1719 211.6875 86.8125 212.0938 85.9844 C212.2031 86.8594 212.5156 87.1719 213.0156 87.1719 C213.4688 87.1719 213.7969 86.9062 214.0156 86.5625 L213.9062 86.2812 Z"
      /><rect x="278" y="96" width="7" style="fill:white; stroke:none;" height="9"
      /><path style="stroke:none;" d="M279 101.5156 L281.9531 97.2656 L281.9531 101.5156 L279 101.5156 ZM284.2812 101.5156 L282.8594 101.5156 L282.8594 96.125 L282.2344 96.125 L278.3438 101.6406 L278.3438 102.1875 L281.9531 102.1875 L281.9531 105 L282.8594 105 L282.8594 102.1875 L284.2812 102.1875 L284.2812 101.5156 Z"
      /><rect x="265" y="94" width="6" style="fill:white; stroke:none;" height="13"
      /><path style="stroke:none;" d="M267.0938 100.2031 C267.0938 98.6562 267.75 97.8125 268.7969 97.8125 C269.7188 97.8125 270.2656 98.4531 270.2656 99.5156 C270.2656 100.7188 269.5 101.4375 268.1875 101.7031 L268.2969 102.3125 C270.2188 102.2344 270.9375 103.2188 270.9375 104.4375 C270.9375 105.625 270.2344 106.4219 268.9531 106.4219 C268.25 106.4219 267.6562 106.1562 267.0938 105.7188 L267.0938 100.2031 ZM266.2031 106.9062 L266.1094 109.375 L266.2656 109.4844 L267.1562 109.2656 L267.0156 106.0938 C267.5469 106.8438 268.3594 107.1719 269.1719 107.1719 C270.5625 107.1719 271.8594 106.2188 271.8594 104.4844 C271.8594 102.9531 270.875 102.1094 269.125 102 C270.5625 101.6094 271.1875 100.4531 271.1875 99.4844 C271.1875 98.0938 270.1562 97.3125 268.9062 97.3125 C267.2969 97.3125 266.2188 98.5469 266.2188 100.5156 L266.2031 106.9062 Z"
      /><polygon style="fill:white; clip-path:url(#clipPath12); stroke:none;" points=" 353 52 342 30 364 30"
      /><rect x="342" y="30" width="22" style="clip-path:url(#clipPath12); fill:rgb(237,28,36); stroke:none;" height="22"
      /><rect x="342" y="30" width="22" style="fill:none; clip-path:url(#clipPath12);" height="22"
      /><polygon style="fill:none;" points=" 353 52 342 30 364 30"
      /><rect x="330" y="96" width="7" style="fill:white; stroke:none;" height="9"
      /><path style="stroke:none;" d="M331 101.5156 L333.9531 97.2656 L333.9531 101.5156 L331 101.5156 ZM336.2812 101.5156 L334.8594 101.5156 L334.8594 96.125 L334.2344 96.125 L330.3438 101.6406 L330.3438 102.1875 L333.9531 102.1875 L333.9531 105 L334.8594 105 L334.8594 102.1875 L336.2812 102.1875 L336.2812 101.5156 Z"
      /><rect x="317" y="94" width="6" style="fill:white; stroke:none;" height="13"
      /><path style="stroke:none;" d="M319.0938 100.2031 C319.0938 98.6562 319.75 97.8125 320.7969 97.8125 C321.7188 97.8125 322.2656 98.4531 322.2656 99.5156 C322.2656 100.7188 321.5 101.4375 320.1875 101.7031 L320.2969 102.3125 C322.2188 102.2344 322.9375 103.2188 322.9375 104.4375 C322.9375 105.625 322.2344 106.4219 320.9531 106.4219 C320.25 106.4219 319.6562 106.1562 319.0938 105.7188 L319.0938 100.2031 ZM318.2031 106.9062 L318.1094 109.375 L318.2656 109.4844 L319.1562 109.2656 L319.0156 106.0938 C319.5469 106.8438 320.3594 107.1719 321.1719 107.1719 C322.5625 107.1719 323.8594 106.2188 323.8594 104.4844 C323.8594 102.9531 322.875 102.1094 321.125 102 C322.5625 101.6094 323.1875 100.4531 323.1875 99.4844 C323.1875 98.0938 322.1562 97.3125 320.9062 97.3125 C319.2969 97.3125 318.2188 98.5469 318.2188 100.5156 L318.2031 106.9062 Z"
      /><rect x="342" y="69" width="6" style="fill:white; stroke:none;" height="10"
      /><path style="stroke:none;" d="M345.3438 78.6875 C344.2031 78.6875 343.5312 77.5 343.5312 75.2969 C343.5312 75.2188 343.5312 75.125 343.5312 75.0469 C344.0938 74.5 344.7188 74.3125 345.3438 74.3125 C346.3125 74.3125 346.9531 74.9844 346.9531 76.4531 C346.9531 77.9375 346.3125 78.6875 345.3438 78.6875 ZM347.5312 70.0781 C344.3438 70.4531 342.5625 72.7656 342.5625 75.4531 C342.5625 77.7812 343.6094 79.1719 345.3125 79.1719 C346.8438 79.1719 347.9219 78.1094 347.9219 76.2812 C347.9219 74.6875 346.9688 73.6562 345.5625 73.6562 C344.8281 73.6562 344.1406 73.9844 343.5781 74.5781 C343.7969 72.4062 345.0781 70.9688 347.5938 70.3906 L347.5312 70.0781 Z"
      /><rect x="341" y="56" width="8" style="fill:white; stroke:none;" height="8"
      /><path style="stroke:none;" d="M345.9844 61.7031 C345.9375 62.8906 345.1562 63.6562 344.3125 63.6562 C343.2656 63.6562 342.5 62.6875 342.5 60.7188 C342.5 59.2812 343.1562 58.1562 344.3438 58.1562 C345.1406 58.1562 345.7812 58.6875 346.0938 59.6406 L345.9844 61.7031 ZM347.9062 63.2812 C347.7344 63.375 347.5469 63.4219 347.3438 63.4219 C346.9531 63.4219 346.75 63.2188 346.75 62.4219 C346.75 61.4844 346.9688 59.5312 347.1875 57.8281 L347.0312 57.7188 L346.2344 57.9219 L346.1406 58.7969 C345.7812 58.0312 345.1562 57.6562 344.3906 57.6562 C343.0469 57.6562 341.5625 58.8438 341.5625 60.9531 C341.5625 63.0938 342.7188 64.1719 344.1406 64.1719 C345.0156 64.1719 345.6875 63.8125 346.0938 62.9844 C346.2031 63.8594 346.5156 64.1719 347.0156 64.1719 C347.4688 64.1719 347.7969 63.9062 348.0156 63.5625 L347.9062 63.2812 Z"
      /><rect x="369" y="96" width="5" style="fill:white; stroke:none;" height="10"
      /><path style="stroke:none;" d="M370.8906 104.6875 C370.4844 104.6875 370.1562 105.0469 370.1562 105.4219 C370.1562 105.8125 370.4844 106.1562 370.8906 106.1562 C371.2969 106.1562 371.6406 105.8125 371.6406 105.4219 C371.6406 105.0469 371.2969 104.6875 370.8906 104.6875 ZM372.4688 98.5781 C372.7188 98.8906 372.875 99.2656 372.8906 99.6562 C372.8906 100.1875 372.625 100.5 372.0312 100.7656 L371.4062 101.0156 C370.6406 101.3125 370.3906 101.5469 370.3906 101.9375 C370.3906 102.1094 370.4531 102.3438 370.5781 102.8125 L370.7344 103.3438 L371.1094 103.3438 L371.0938 102.5312 C371.0938 102.0938 371.2031 101.9688 371.7812 101.7344 L372.2031 101.5625 C373.0312 101.2188 373.4531 100.6875 373.4531 99.8438 C373.4531 98.1562 371.6562 97.1875 370.5 97.0312 C370.1094 97.125 369.9062 97.2969 369.9062 97.6406 C369.9062 97.9375 370.0625 98.1562 370.7188 98.2656 L372.4688 98.5781 Z"
    /></g
  ></g
></svg
>
