<?xml version="1.0"?>
<!DOCTYPE svg PUBLIC '-//W3C//DTD SVG 1.0//EN'
          'http://www.w3.org/TR/2001/REC-SVG-20010904/DTD/svg10.dtd'>
<svg xmlns:xlink="http://www.w3.org/1999/xlink" style="fill-opacity:1; color-rendering:auto; color-interpolation:auto; text-rendering:auto; stroke:black; stroke-linecap:square; stroke-miterlimit:10; shape-rendering:auto; stroke-opacity:1; fill:black; stroke-dasharray:none; font-weight:normal; stroke-width:1; font-family:'Dialog'; font-style:normal; stroke-linejoin:miter; font-size:12px; stroke-dashoffset:0; image-rendering:auto;" viewBox="0 0 550 342" xmlns="http://www.w3.org/2000/svg"
><!--Generated by the Batik Graphics2D SVG Generator--><defs id="genericDefs"
  /><g
  ><defs id="defs1"
    ><clipPath clipPathUnits="userSpaceOnUse" id="clipPath1"
      ><path d="M446 134 L468 134 L468 156 L446 156 L446 134 Z"
      /></clipPath
      ><clipPath clipPathUnits="userSpaceOnUse" id="clipPath2"
      ><path d="M394 134 L416 134 L416 156 L394 156 L394 134 Z"
      /></clipPath
      ><clipPath clipPathUnits="userSpaceOnUse" id="clipPath3"
      ><path d="M364 145 C364 151.0751 359.0751 156 353 156 C346.9249 156 342 151.0751 342 145 C342 138.9249 346.9249 134 353 134 C359.0751 134 364 138.9249 364 145 Z"
      /></clipPath
      ><clipPath clipPathUnits="userSpaceOnUse" id="clipPath4"
      ><path d="M312 275 C312 281.0751 307.0751 286 301 286 C294.9249 286 290 281.0751 290 275 C290 268.9249 294.9249 264 301 264 C307.0751 264 312 268.9249 312 275 Z"
      /></clipPath
      ><clipPath clipPathUnits="userSpaceOnUse" id="clipPath5"
      ><path d="M238 290 L260 290 L260 312 L238 312 L238 290 Z"
      /></clipPath
      ><clipPath clipPathUnits="userSpaceOnUse" id="clipPath6"
      ><path d="M208 301 C208 307.0751 203.0751 312 197 312 C190.9249 312 186 307.0751 186 301 C186 294.9249 190.9249 290 197 290 C203.0751 290 208 294.9249 208 301 Z"
      /></clipPath
      ><clipPath clipPathUnits="userSpaceOnUse" id="clipPath7"
      ><path d="M134 290 L156 290 L156 312 L134 312 L134 290 Z"
      /></clipPath
      ><clipPath clipPathUnits="userSpaceOnUse" id="clipPath8"
      ><path d="M104 301 C104 307.0751 99.0751 312 93 312 C86.9249 312 82 307.0751 82 301 C82 294.9249 86.9249 290 93 290 C99.0751 290 104 294.9249 104 301 Z"
      /></clipPath
      ><clipPath clipPathUnits="userSpaceOnUse" id="clipPath9"
      ><path style="fill-rule:evenodd;" d="M41 290 L52 301 L41 312 L30 301 Z"
      /></clipPath
      ><clipPath clipPathUnits="userSpaceOnUse" id="clipPath10"
      ><path d="M238 238 L260 238 L260 260 L238 260 L238 238 Z"
      /></clipPath
      ><clipPath clipPathUnits="userSpaceOnUse" id="clipPath11"
      ><path d="M208 249 C208 255.0751 203.0751 260 197 260 C190.9249 260 186 255.0751 186 249 C186 242.9249 190.9249 238 197 238 C203.0751 238 208 242.9249 208 249 Z"
      /></clipPath
      ><clipPath clipPathUnits="userSpaceOnUse" id="clipPath12"
      ><path d="M312 145 C312 151.0751 307.0751 156 301 156 C294.9249 156 290 151.0751 290 145 C290 138.9249 294.9249 134 301 134 C307.0751 134 312 138.9249 312 145 Z"
      /></clipPath
      ><clipPath clipPathUnits="userSpaceOnUse" id="clipPath13"
      ><path d="M238 186 L260 186 L260 208 L238 208 L238 186 Z"
      /></clipPath
      ><clipPath clipPathUnits="userSpaceOnUse" id="clipPath14"
      ><path d="M208 197 C208 203.0751 203.0751 208 197 208 C190.9249 208 186 203.0751 186 197 C186 190.9249 190.9249 186 197 186 C203.0751 186 208 190.9249 208 197 Z"
      /></clipPath
      ><clipPath clipPathUnits="userSpaceOnUse" id="clipPath15"
      ><path style="fill-rule:evenodd;" d="M145 186 L156 197 L145 208 L134 197 Z"
      /></clipPath
      ><clipPath clipPathUnits="userSpaceOnUse" id="clipPath16"
      ><path style="fill-rule:evenodd;" d="M249 156 L238 134 L260 134 Z"
      /></clipPath
      ><clipPath clipPathUnits="userSpaceOnUse" id="clipPath17"
      ><path d="M238 82 L260 82 L260 104 L238 104 L238 82 Z"
      /></clipPath
      ><clipPath clipPathUnits="userSpaceOnUse" id="clipPath18"
      ><path style="fill-rule:evenodd;" d="M249 52 L238 30 L260 30 Z"
      /></clipPath
      ><clipPath clipPathUnits="userSpaceOnUse" id="clipPath19"
      ><path d="M208 93 C208 99.0751 203.0751 104 197 104 C190.9249 104 186 99.0751 186 93 C186 86.9249 190.9249 82 197 82 C203.0751 82 208 86.9249 208 93 Z"
      /></clipPath
      ><clipPath clipPathUnits="userSpaceOnUse" id="clipPath20"
      ><path d="M290 82 L312 82 L312 104 L290 104 L290 82 Z"
      /></clipPath
      ><clipPath clipPathUnits="userSpaceOnUse" id="clipPath21"
      ><path style="fill-rule:evenodd;" d="M457 104 L446 82 L468 82 Z"
      /></clipPath
    ></defs
    ><g style="fill:white; text-rendering:optimizeSpeed; stroke:white;"
    ><rect x="0" width="550" height="342" y="0" style="stroke:none;"
      /><polygon style="fill:none; stroke:black;" points=" 509 145 457 145"
      /><path d="M509 134 C503.5 139.5 514.5 150.5 509 156" style="fill:none; stroke:black;"
      /><polygon style="fill:none; stroke:black;" points=" 457 145 405 145"
      /><polygon style="fill:none; stroke:black;" points=" 457 145 457 93"
      /><rect x="446" y="134" width="22" style="clip-path:url(#clipPath1); stroke:none;" height="22"
      /><rect x="446" y="134" width="22" style="clip-path:url(#clipPath1); fill:rgb(0,144,188); stroke:none;" height="22"
      /><rect x="446" y="134" width="22" style="clip-path:url(#clipPath1); fill:none; stroke:black;" height="22"
      /><rect x="446" y="134" width="22" style="fill:none; stroke:black;" height="22"
      /><polygon style="fill:none; stroke:black;" points=" 405 145 353 145"
      /><rect x="394" y="134" width="22" style="clip-path:url(#clipPath2); stroke:none;" height="22"
      /><rect x="394" y="134" width="22" style="clip-path:url(#clipPath2); fill:rgb(0,144,188); stroke:none;" height="22"
      /><rect x="394" y="134" width="22" style="clip-path:url(#clipPath2); fill:none; stroke:black;" height="22"
      /><rect x="394" y="134" width="22" style="fill:none; stroke:black;" height="22"
      /><polygon style="fill:none; stroke:black;" points=" 353 145 301 275"
      /><polygon style="fill:none; stroke:black;" points=" 353 145 301 145"
      /><polygon style="fill:none; stroke:black;" points=" 353 145 301 93"
      /><circle style="clip-path:url(#clipPath3); stroke:none;" r="11" cx="353" cy="145"
      /><rect x="342" y="134" width="22" style="clip-path:url(#clipPath3); fill:rgb(0,166,81); stroke:none;" height="22"
      /><rect x="342" y="134" width="22" style="clip-path:url(#clipPath3); fill:none; stroke:black;" height="22"
      /><circle style="fill:none; stroke:black;" r="11" cx="353" cy="145"
      /><polygon style="fill:none; stroke:black;" points=" 301 275 249 301"
      /><polygon style="fill:none; stroke:black;" points=" 301 275 249 249"
      /><circle style="clip-path:url(#clipPath4); stroke:none;" r="11" cx="301" cy="275"
      /><rect x="290" y="264" width="22" style="clip-path:url(#clipPath4); fill:rgb(0,166,81); stroke:none;" height="22"
      /><rect x="290" y="264" width="22" style="clip-path:url(#clipPath4); fill:none; stroke:black;" height="22"
      /><circle style="fill:none; stroke:black;" r="11" cx="301" cy="275"
      /><polygon style="fill:none; stroke:black;" points=" 249 301 197 301"
      /><rect x="238" y="290" width="22" style="clip-path:url(#clipPath5); stroke:none;" height="22"
      /><rect x="238" y="290" width="22" style="clip-path:url(#clipPath5); fill:rgb(0,144,188); stroke:none;" height="22"
      /><rect x="238" y="290" width="22" style="clip-path:url(#clipPath5); fill:none; stroke:black;" height="22"
      /><rect x="238" y="290" width="22" style="fill:none; stroke:black;" height="22"
      /><polygon style="fill:none; stroke:black;" points=" 197 301 145 301"
      /><circle style="clip-path:url(#clipPath6); stroke:none;" r="11" cx="197" cy="301"
      /><rect x="186" y="290" width="22" style="clip-path:url(#clipPath6); fill:rgb(255,212,0); stroke:none;" height="22"
      /><rect x="186" y="290" width="22" style="clip-path:url(#clipPath6); fill:none; stroke:black;" height="22"
      /><circle style="fill:none; stroke:black;" r="11" cx="197" cy="301"
      /><polygon style="fill:none; stroke:black;" points=" 145 301 93 301"
      /><rect x="134" y="290" width="22" style="clip-path:url(#clipPath7); stroke:none;" height="22"
      /><rect x="134" y="290" width="22" style="clip-path:url(#clipPath7); fill:rgb(0,144,188); stroke:none;" height="22"
      /><rect x="134" y="290" width="22" style="clip-path:url(#clipPath7); fill:none; stroke:black;" height="22"
      /><rect x="134" y="290" width="22" style="fill:none; stroke:black;" height="22"
      /><polygon style="fill:none; stroke:black;" points=" 93 301 41 301"
      /><circle style="clip-path:url(#clipPath8); stroke:none;" r="11" cx="93" cy="301"
      /><rect x="82" y="290" width="22" style="clip-path:url(#clipPath8); fill:rgb(255,212,0); stroke:none;" height="22"
      /><rect x="82" y="290" width="22" style="clip-path:url(#clipPath8); fill:none; stroke:black;" height="22"
      /><circle style="fill:none; stroke:black;" r="11" cx="93" cy="301"
      /><polygon style="clip-path:url(#clipPath9); stroke:none;" points=" 41 290 52 301 41 312 30 301"
      /><rect x="30" y="290" width="22" style="clip-path:url(#clipPath9); fill:rgb(143,204,233); stroke:none;" height="22"
      /><rect x="30" y="290" width="22" style="clip-path:url(#clipPath9); fill:none; stroke:black;" height="22"
      /><polygon style="fill:none; stroke:black;" points=" 41 290 52 301 41 312 30 301"
      /><rect x="71" y="304" width="5" style="stroke:none;" height="10"
    /></g
    ><g style="font-family:'Serif'; text-rendering:optimizeSpeed; "
    ><path style="stroke:none;" d="M72.8906 312.6875 C72.4844 312.6875 72.1562 313.0469 72.1562 313.4219 C72.1562 313.8125 72.4844 314.1562 72.8906 314.1562 C73.2969 314.1562 73.6406 313.8125 73.6406 313.4219 C73.6406 313.0469 73.2969 312.6875 72.8906 312.6875 ZM74.4688 306.5781 C74.7188 306.8906 74.875 307.2656 74.8906 307.6562 C74.8906 308.1875 74.625 308.5 74.0312 308.7656 L73.4062 309.0156 C72.6406 309.3125 72.3906 309.5469 72.3906 309.9375 C72.3906 310.1094 72.4531 310.3438 72.5781 310.8125 L72.7344 311.3438 L73.1094 311.3438 L73.0938 310.5312 C73.0938 310.0938 73.2031 309.9688 73.7812 309.7344 L74.2031 309.5625 C75.0312 309.2188 75.4531 308.6875 75.4531 307.8438 C75.4531 306.1562 73.6562 305.1875 72.5 305.0312 C72.1094 305.125 71.9062 305.2969 71.9062 305.6406 C71.9062 305.9375 72.0625 306.1562 72.7188 306.2656 L74.4688 306.5781 Z"
      /><rect x="57" y="304" width="5" style="fill:white; stroke:none;" height="10"
      /><path style="stroke:none;" d="M58.8906 312.6875 C58.4844 312.6875 58.1562 313.0469 58.1562 313.4219 C58.1562 313.8125 58.4844 314.1562 58.8906 314.1562 C59.2969 314.1562 59.6406 313.8125 59.6406 313.4219 C59.6406 313.0469 59.2969 312.6875 58.8906 312.6875 ZM60.4688 306.5781 C60.7188 306.8906 60.875 307.2656 60.8906 307.6562 C60.8906 308.1875 60.625 308.5 60.0312 308.7656 L59.4062 309.0156 C58.6406 309.3125 58.3906 309.5469 58.3906 309.9375 C58.3906 310.1094 58.4531 310.3438 58.5781 310.8125 L58.7344 311.3438 L59.1094 311.3438 L59.0938 310.5312 C59.0938 310.0938 59.2031 309.9688 59.7812 309.7344 L60.2031 309.5625 C61.0312 309.2188 61.4531 308.6875 61.4531 307.8438 C61.4531 306.1562 59.6562 305.1875 58.5 305.0312 C58.1094 305.125 57.9062 305.2969 57.9062 305.6406 C57.9062 305.9375 58.0625 306.1562 58.7188 306.2656 L60.4688 306.5781 Z"
      /><rect x="123" y="304" width="5" style="fill:white; stroke:none;" height="10"
      /><path style="stroke:none;" d="M124.8906 312.6875 C124.4844 312.6875 124.1562 313.0469 124.1562 313.4219 C124.1562 313.8125 124.4844 314.1562 124.8906 314.1562 C125.2969 314.1562 125.6406 313.8125 125.6406 313.4219 C125.6406 313.0469 125.2969 312.6875 124.8906 312.6875 ZM126.4688 306.5781 C126.7188 306.8906 126.875 307.2656 126.8906 307.6562 C126.8906 308.1875 126.625 308.5 126.0312 308.7656 L125.4062 309.0156 C124.6406 309.3125 124.3906 309.5469 124.3906 309.9375 C124.3906 310.1094 124.4531 310.3438 124.5781 310.8125 L124.7344 311.3438 L125.1094 311.3438 L125.0938 310.5312 C125.0938 310.0938 125.2031 309.9688 125.7812 309.7344 L126.2031 309.5625 C127.0312 309.2188 127.4531 308.6875 127.4531 307.8438 C127.4531 306.1562 125.6562 305.1875 124.5 305.0312 C124.1094 305.125 123.9062 305.2969 123.9062 305.6406 C123.9062 305.9375 124.0625 306.1562 124.7188 306.2656 L126.4688 306.5781 Z"
      /><rect x="109" y="304" width="5" style="fill:white; stroke:none;" height="10"
      /><path style="stroke:none;" d="M110.8906 312.6875 C110.4844 312.6875 110.1562 313.0469 110.1562 313.4219 C110.1562 313.8125 110.4844 314.1562 110.8906 314.1562 C111.2969 314.1562 111.6406 313.8125 111.6406 313.4219 C111.6406 313.0469 111.2969 312.6875 110.8906 312.6875 ZM112.4688 306.5781 C112.7188 306.8906 112.875 307.2656 112.8906 307.6562 C112.8906 308.1875 112.625 308.5 112.0312 308.7656 L111.4062 309.0156 C110.6406 309.3125 110.3906 309.5469 110.3906 309.9375 C110.3906 310.1094 110.4531 310.3438 110.5781 310.8125 L110.7344 311.3438 L111.1094 311.3438 L111.0938 310.5312 C111.0938 310.0938 111.2031 309.9688 111.7812 309.7344 L112.2031 309.5625 C113.0312 309.2188 113.4531 308.6875 113.4531 307.8438 C113.4531 306.1562 111.6562 305.1875 110.5 305.0312 C110.1094 305.125 109.9062 305.2969 109.9062 305.6406 C109.9062 305.9375 110.0625 306.1562 110.7188 306.2656 L112.4688 306.5781 Z"
      /><rect x="175" y="304" width="5" style="fill:white; stroke:none;" height="10"
      /><path style="stroke:none;" d="M176.8906 312.6875 C176.4844 312.6875 176.1562 313.0469 176.1562 313.4219 C176.1562 313.8125 176.4844 314.1562 176.8906 314.1562 C177.2969 314.1562 177.6406 313.8125 177.6406 313.4219 C177.6406 313.0469 177.2969 312.6875 176.8906 312.6875 ZM178.4688 306.5781 C178.7188 306.8906 178.875 307.2656 178.8906 307.6562 C178.8906 308.1875 178.625 308.5 178.0312 308.7656 L177.4062 309.0156 C176.6406 309.3125 176.3906 309.5469 176.3906 309.9375 C176.3906 310.1094 176.4531 310.3438 176.5781 310.8125 L176.7344 311.3438 L177.1094 311.3438 L177.0938 310.5312 C177.0938 310.0938 177.2031 309.9688 177.7812 309.7344 L178.2031 309.5625 C179.0312 309.2188 179.4531 308.6875 179.4531 307.8438 C179.4531 306.1562 177.6562 305.1875 176.5 305.0312 C176.1094 305.125 175.9062 305.2969 175.9062 305.6406 C175.9062 305.9375 176.0625 306.1562 176.7188 306.2656 L178.4688 306.5781 Z"
      /><rect x="161" y="304" width="5" style="fill:white; stroke:none;" height="10"
      /><path style="stroke:none;" d="M162.8906 312.6875 C162.4844 312.6875 162.1562 313.0469 162.1562 313.4219 C162.1562 313.8125 162.4844 314.1562 162.8906 314.1562 C163.2969 314.1562 163.6406 313.8125 163.6406 313.4219 C163.6406 313.0469 163.2969 312.6875 162.8906 312.6875 ZM164.4688 306.5781 C164.7188 306.8906 164.875 307.2656 164.8906 307.6562 C164.8906 308.1875 164.625 308.5 164.0312 308.7656 L163.4062 309.0156 C162.6406 309.3125 162.3906 309.5469 162.3906 309.9375 C162.3906 310.1094 162.4531 310.3438 162.5781 310.8125 L162.7344 311.3438 L163.1094 311.3438 L163.0938 310.5312 C163.0938 310.0938 163.2031 309.9688 163.7812 309.7344 L164.2031 309.5625 C165.0312 309.2188 165.4531 308.6875 165.4531 307.8438 C165.4531 306.1562 163.6562 305.1875 162.5 305.0312 C162.1094 305.125 161.9062 305.2969 161.9062 305.6406 C161.9062 305.9375 162.0625 306.1562 162.7188 306.2656 L164.4688 306.5781 Z"
      /><rect x="227" y="304" width="5" style="fill:white; stroke:none;" height="10"
      /><path style="stroke:none;" d="M228.8906 312.6875 C228.4844 312.6875 228.1562 313.0469 228.1562 313.4219 C228.1562 313.8125 228.4844 314.1562 228.8906 314.1562 C229.2969 314.1562 229.6406 313.8125 229.6406 313.4219 C229.6406 313.0469 229.2969 312.6875 228.8906 312.6875 ZM230.4688 306.5781 C230.7188 306.8906 230.875 307.2656 230.8906 307.6562 C230.8906 308.1875 230.625 308.5 230.0312 308.7656 L229.4062 309.0156 C228.6406 309.3125 228.3906 309.5469 228.3906 309.9375 C228.3906 310.1094 228.4531 310.3438 228.5781 310.8125 L228.7344 311.3438 L229.1094 311.3438 L229.0938 310.5312 C229.0938 310.0938 229.2031 309.9688 229.7812 309.7344 L230.2031 309.5625 C231.0312 309.2188 231.4531 308.6875 231.4531 307.8438 C231.4531 306.1562 229.6562 305.1875 228.5 305.0312 C228.1094 305.125 227.9062 305.2969 227.9062 305.6406 C227.9062 305.9375 228.0625 306.1562 228.7188 306.2656 L230.4688 306.5781 Z"
      /><rect x="213" y="304" width="5" style="fill:white; stroke:none;" height="10"
      /><path style="stroke:none;" d="M214.8906 312.6875 C214.4844 312.6875 214.1562 313.0469 214.1562 313.4219 C214.1562 313.8125 214.4844 314.1562 214.8906 314.1562 C215.2969 314.1562 215.6406 313.8125 215.6406 313.4219 C215.6406 313.0469 215.2969 312.6875 214.8906 312.6875 ZM216.4688 306.5781 C216.7188 306.8906 216.875 307.2656 216.8906 307.6562 C216.8906 308.1875 216.625 308.5 216.0312 308.7656 L215.4062 309.0156 C214.6406 309.3125 214.3906 309.5469 214.3906 309.9375 C214.3906 310.1094 214.4531 310.3438 214.5781 310.8125 L214.7344 311.3438 L215.1094 311.3438 L215.0938 310.5312 C215.0938 310.0938 215.2031 309.9688 215.7812 309.7344 L216.2031 309.5625 C217.0312 309.2188 217.4531 308.6875 217.4531 307.8438 C217.4531 306.1562 215.6562 305.1875 214.5 305.0312 C214.1094 305.125 213.9062 305.2969 213.9062 305.6406 C213.9062 305.9375 214.0625 306.1562 214.7188 306.2656 L216.4688 306.5781 Z"
      /><polygon style="fill:none;" points=" 249 249 197 249"
      /><rect x="238" y="238" width="22" style="clip-path:url(#clipPath10); fill:white; stroke:none;" height="22"
      /><rect x="238" y="238" width="22" style="clip-path:url(#clipPath10); fill:rgb(0,144,188); stroke:none;" height="22"
      /><rect x="238" y="238" width="22" style="fill:none; clip-path:url(#clipPath10);" height="22"
      /><rect x="238" width="22" height="22" y="238" style="fill:none;"
      /><circle style="fill:white; clip-path:url(#clipPath11); stroke:none;" r="11" cx="197" cy="249"
      /><rect x="186" y="238" width="22" style="clip-path:url(#clipPath11); fill:rgb(255,212,0); stroke:none;" height="22"
      /><rect x="186" y="238" width="22" style="fill:none; clip-path:url(#clipPath11);" height="22"
      /><circle r="11" style="fill:none;" cx="197" cy="249"
      /><rect x="227" y="252" width="5" style="fill:white; stroke:none;" height="10"
      /><path style="stroke:none;" d="M228.8906 260.6875 C228.4844 260.6875 228.1562 261.0469 228.1562 261.4219 C228.1562 261.8125 228.4844 262.1562 228.8906 262.1562 C229.2969 262.1562 229.6406 261.8125 229.6406 261.4219 C229.6406 261.0469 229.2969 260.6875 228.8906 260.6875 ZM230.4688 254.5781 C230.7188 254.8906 230.875 255.2656 230.8906 255.6562 C230.8906 256.1875 230.625 256.5 230.0312 256.7656 L229.4062 257.0156 C228.6406 257.3125 228.3906 257.5469 228.3906 257.9375 C228.3906 258.1094 228.4531 258.3438 228.5781 258.8125 L228.7344 259.3438 L229.1094 259.3438 L229.0938 258.5312 C229.0938 258.0938 229.2031 257.9688 229.7812 257.7344 L230.2031 257.5625 C231.0312 257.2188 231.4531 256.6875 231.4531 255.8438 C231.4531 254.1562 229.6562 253.1875 228.5 253.0312 C228.1094 253.125 227.9062 253.2969 227.9062 253.6406 C227.9062 253.9375 228.0625 254.1562 228.7188 254.2656 L230.4688 254.5781 Z"
      /><rect x="213" y="252" width="5" style="fill:white; stroke:none;" height="10"
      /><path style="stroke:none;" d="M214.8906 260.6875 C214.4844 260.6875 214.1562 261.0469 214.1562 261.4219 C214.1562 261.8125 214.4844 262.1562 214.8906 262.1562 C215.2969 262.1562 215.6406 261.8125 215.6406 261.4219 C215.6406 261.0469 215.2969 260.6875 214.8906 260.6875 ZM216.4688 254.5781 C216.7188 254.8906 216.875 255.2656 216.8906 255.6562 C216.8906 256.1875 216.625 256.5 216.0312 256.7656 L215.4062 257.0156 C214.6406 257.3125 214.3906 257.5469 214.3906 257.9375 C214.3906 258.1094 214.4531 258.3438 214.5781 258.8125 L214.7344 259.3438 L215.1094 259.3438 L215.0938 258.5312 C215.0938 258.0938 215.2031 257.9688 215.7812 257.7344 L216.2031 257.5625 C217.0312 257.2188 217.4531 256.6875 217.4531 255.8438 C217.4531 254.1562 215.6562 253.1875 214.5 253.0312 C214.1094 253.125 213.9062 253.2969 213.9062 253.6406 C213.9062 253.9375 214.0625 254.1562 214.7188 254.2656 L216.4688 254.5781 Z"
      /><rect x="283" y="286" width="5" style="fill:white; stroke:none;" height="10"
      /><path style="stroke:none;" d="M284.8906 294.6875 C284.4844 294.6875 284.1562 295.0469 284.1562 295.4219 C284.1562 295.8125 284.4844 296.1562 284.8906 296.1562 C285.2969 296.1562 285.6406 295.8125 285.6406 295.4219 C285.6406 295.0469 285.2969 294.6875 284.8906 294.6875 ZM286.4688 288.5781 C286.7188 288.8906 286.875 289.2656 286.8906 289.6562 C286.8906 290.1875 286.625 290.5 286.0312 290.7656 L285.4062 291.0156 C284.6406 291.3125 284.3906 291.5469 284.3906 291.9375 C284.3906 292.1094 284.4531 292.3438 284.5781 292.8125 L284.7344 293.3438 L285.1094 293.3438 L285.0938 292.5312 C285.0938 292.0938 285.2031 291.9688 285.7812 291.7344 L286.2031 291.5625 C287.0312 291.2188 287.4531 290.6875 287.4531 289.8438 C287.4531 288.1562 285.6562 287.1875 284.5 287.0312 C284.1094 287.125 283.9062 287.2969 283.9062 287.6406 C283.9062 287.9375 284.0625 288.1562 284.7188 288.2656 L286.4688 288.5781 Z"
      /><rect x="268" y="294" width="5" style="fill:white; stroke:none;" height="10"
      /><path style="stroke:none;" d="M269.8906 302.6875 C269.4844 302.6875 269.1562 303.0469 269.1562 303.4219 C269.1562 303.8125 269.4844 304.1562 269.8906 304.1562 C270.2969 304.1562 270.6406 303.8125 270.6406 303.4219 C270.6406 303.0469 270.2969 302.6875 269.8906 302.6875 ZM271.4688 296.5781 C271.7188 296.8906 271.875 297.2656 271.8906 297.6562 C271.8906 298.1875 271.625 298.5 271.0312 298.7656 L270.4062 299.0156 C269.6406 299.3125 269.3906 299.5469 269.3906 299.9375 C269.3906 300.1094 269.4531 300.3438 269.5781 300.8125 L269.7344 301.3438 L270.1094 301.3438 L270.0938 300.5312 C270.0938 300.0938 270.2031 299.9688 270.7812 299.7344 L271.2031 299.5625 C272.0312 299.2188 272.4531 298.6875 272.4531 297.8438 C272.4531 296.1562 270.6562 295.1875 269.5 295.0312 C269.1094 295.125 268.9062 295.2969 268.9062 295.6406 C268.9062 295.9375 269.0625 296.1562 269.7188 296.2656 L271.4688 296.5781 Z"
      /><rect x="276" y="268" width="5" style="fill:white; stroke:none;" height="10"
      /><path style="stroke:none;" d="M277.8906 276.6875 C277.4844 276.6875 277.1562 277.0469 277.1562 277.4219 C277.1562 277.8125 277.4844 278.1562 277.8906 278.1562 C278.2969 278.1562 278.6406 277.8125 278.6406 277.4219 C278.6406 277.0469 278.2969 276.6875 277.8906 276.6875 ZM279.4688 270.5781 C279.7188 270.8906 279.875 271.2656 279.8906 271.6562 C279.8906 272.1875 279.625 272.5 279.0312 272.7656 L278.4062 273.0156 C277.6406 273.3125 277.3906 273.5469 277.3906 273.9375 C277.3906 274.1094 277.4531 274.3438 277.5781 274.8125 L277.7344 275.3438 L278.1094 275.3438 L278.0938 274.5312 C278.0938 274.0938 278.2031 273.9688 278.7812 273.7344 L279.2031 273.5625 C280.0312 273.2188 280.4531 272.6875 280.4531 271.8438 C280.4531 270.1562 278.6562 269.1875 277.5 269.0312 C277.1094 269.125 276.9062 269.2969 276.9062 269.6406 C276.9062 269.9375 277.0625 270.1562 277.7188 270.2656 L279.4688 270.5781 Z"
      /><rect x="261" y="260" width="5" style="fill:white; stroke:none;" height="10"
      /><path style="stroke:none;" d="M262.8906 268.6875 C262.4844 268.6875 262.1562 269.0469 262.1562 269.4219 C262.1562 269.8125 262.4844 270.1562 262.8906 270.1562 C263.2969 270.1562 263.6406 269.8125 263.6406 269.4219 C263.6406 269.0469 263.2969 268.6875 262.8906 268.6875 ZM264.4688 262.5781 C264.7188 262.8906 264.875 263.2656 264.8906 263.6562 C264.8906 264.1875 264.625 264.5 264.0312 264.7656 L263.4062 265.0156 C262.6406 265.3125 262.3906 265.5469 262.3906 265.9375 C262.3906 266.1094 262.4531 266.3438 262.5781 266.8125 L262.7344 267.3438 L263.1094 267.3438 L263.0938 266.5312 C263.0938 266.0938 263.2031 265.9688 263.7812 265.7344 L264.2031 265.5625 C265.0312 265.2188 265.4531 264.6875 265.4531 263.8438 C265.4531 262.1562 263.6562 261.1875 262.5 261.0312 C262.1094 261.125 261.9062 261.2969 261.9062 261.6406 C261.9062 261.9375 262.0625 262.1562 262.7188 262.2656 L264.4688 262.5781 Z"
      /><polygon style="fill:none;" points=" 301 145 249 197"
      /><polygon style="fill:none;" points=" 301 145 249 93"
      /><circle style="fill:white; clip-path:url(#clipPath12); stroke:none;" r="11" cx="301" cy="145"
      /><rect x="290" y="134" width="22" style="clip-path:url(#clipPath12); fill:rgb(0,166,81); stroke:none;" height="22"
      /><rect x="290" y="134" width="22" style="fill:none; clip-path:url(#clipPath12);" height="22"
      /><circle r="11" style="fill:none;" cx="301" cy="145"
      /><polygon style="fill:none;" points=" 249 197 197 197"
      /><polygon style="fill:none;" points=" 249 197 249 145"
      /><rect x="238" y="186" width="22" style="clip-path:url(#clipPath13); fill:white; stroke:none;" height="22"
      /><rect x="238" y="186" width="22" style="clip-path:url(#clipPath13); fill:rgb(0,144,188); stroke:none;" height="22"
      /><rect x="238" y="186" width="22" style="fill:none; clip-path:url(#clipPath13);" height="22"
      /><rect x="238" width="22" height="22" y="186" style="fill:none;"
      /><polygon style="fill:none;" points=" 197 197 145 197"
      /><circle style="fill:white; clip-path:url(#clipPath14); stroke:none;" r="11" cx="197" cy="197"
      /><rect x="186" y="186" width="22" style="clip-path:url(#clipPath14); fill:rgb(255,212,0); stroke:none;" height="22"
      /><rect x="186" y="186" width="22" style="fill:none; clip-path:url(#clipPath14);" height="22"
      /><circle r="11" style="fill:none;" cx="197" cy="197"
      /><polygon style="fill:white; clip-path:url(#clipPath15); stroke:none;" points=" 145 186 156 197 145 208 134 197"
      /><rect x="134" y="186" width="22" style="clip-path:url(#clipPath15); fill:rgb(143,204,233); stroke:none;" height="22"
      /><rect x="134" y="186" width="22" style="fill:none; clip-path:url(#clipPath15);" height="22"
      /><polygon style="fill:none;" points=" 145 186 156 197 145 208 134 197"
      /><rect x="175" y="200" width="5" style="fill:white; stroke:none;" height="10"
      /><path style="stroke:none;" d="M176.8906 208.6875 C176.4844 208.6875 176.1562 209.0469 176.1562 209.4219 C176.1562 209.8125 176.4844 210.1562 176.8906 210.1562 C177.2969 210.1562 177.6406 209.8125 177.6406 209.4219 C177.6406 209.0469 177.2969 208.6875 176.8906 208.6875 ZM178.4688 202.5781 C178.7188 202.8906 178.875 203.2656 178.8906 203.6562 C178.8906 204.1875 178.625 204.5 178.0312 204.7656 L177.4062 205.0156 C176.6406 205.3125 176.3906 205.5469 176.3906 205.9375 C176.3906 206.1094 176.4531 206.3438 176.5781 206.8125 L176.7344 207.3438 L177.1094 207.3438 L177.0938 206.5312 C177.0938 206.0938 177.2031 205.9688 177.7812 205.7344 L178.2031 205.5625 C179.0312 205.2188 179.4531 204.6875 179.4531 203.8438 C179.4531 202.1562 177.6562 201.1875 176.5 201.0312 C176.1094 201.125 175.9062 201.2969 175.9062 201.6406 C175.9062 201.9375 176.0625 202.1562 176.7188 202.2656 L178.4688 202.5781 Z"
      /><rect x="161" y="200" width="5" style="fill:white; stroke:none;" height="10"
      /><path style="stroke:none;" d="M162.8906 208.6875 C162.4844 208.6875 162.1562 209.0469 162.1562 209.4219 C162.1562 209.8125 162.4844 210.1562 162.8906 210.1562 C163.2969 210.1562 163.6406 209.8125 163.6406 209.4219 C163.6406 209.0469 163.2969 208.6875 162.8906 208.6875 ZM164.4688 202.5781 C164.7188 202.8906 164.875 203.2656 164.8906 203.6562 C164.8906 204.1875 164.625 204.5 164.0312 204.7656 L163.4062 205.0156 C162.6406 205.3125 162.3906 205.5469 162.3906 205.9375 C162.3906 206.1094 162.4531 206.3438 162.5781 206.8125 L162.7344 207.3438 L163.1094 207.3438 L163.0938 206.5312 C163.0938 206.0938 163.2031 205.9688 163.7812 205.7344 L164.2031 205.5625 C165.0312 205.2188 165.4531 204.6875 165.4531 203.8438 C165.4531 202.1562 163.6562 201.1875 162.5 201.0312 C162.1094 201.125 161.9062 201.2969 161.9062 201.6406 C161.9062 201.9375 162.0625 202.1562 162.7188 202.2656 L164.4688 202.5781 Z"
      /><polygon style="fill:white; clip-path:url(#clipPath16); stroke:none;" points=" 249 156 238 134 260 134"
      /><rect x="238" y="134" width="22" style="clip-path:url(#clipPath16); fill:rgb(237,28,36); stroke:none;" height="22"
      /><rect x="238" y="134" width="22" style="fill:none; clip-path:url(#clipPath16);" height="22"
      /><polygon style="fill:none;" points=" 249 156 238 134 260 134"
      /><rect x="227" y="200" width="5" style="fill:white; stroke:none;" height="10"
      /><path style="stroke:none;" d="M228.8906 208.6875 C228.4844 208.6875 228.1562 209.0469 228.1562 209.4219 C228.1562 209.8125 228.4844 210.1562 228.8906 210.1562 C229.2969 210.1562 229.6406 209.8125 229.6406 209.4219 C229.6406 209.0469 229.2969 208.6875 228.8906 208.6875 ZM230.4688 202.5781 C230.7188 202.8906 230.875 203.2656 230.8906 203.6562 C230.8906 204.1875 230.625 204.5 230.0312 204.7656 L229.4062 205.0156 C228.6406 205.3125 228.3906 205.5469 228.3906 205.9375 C228.3906 206.1094 228.4531 206.3438 228.5781 206.8125 L228.7344 207.3438 L229.1094 207.3438 L229.0938 206.5312 C229.0938 206.0938 229.2031 205.9688 229.7812 205.7344 L230.2031 205.5625 C231.0312 205.2188 231.4531 204.6875 231.4531 203.8438 C231.4531 202.1562 229.6562 201.1875 228.5 201.0312 C228.1094 201.125 227.9062 201.2969 227.9062 201.6406 C227.9062 201.9375 228.0625 202.1562 228.7188 202.2656 L230.4688 202.5781 Z"
      /><rect x="213" y="200" width="5" style="fill:white; stroke:none;" height="10"
      /><path style="stroke:none;" d="M214.8906 208.6875 C214.4844 208.6875 214.1562 209.0469 214.1562 209.4219 C214.1562 209.8125 214.4844 210.1562 214.8906 210.1562 C215.2969 210.1562 215.6406 209.8125 215.6406 209.4219 C215.6406 209.0469 215.2969 208.6875 214.8906 208.6875 ZM216.4688 202.5781 C216.7188 202.8906 216.875 203.2656 216.8906 203.6562 C216.8906 204.1875 216.625 204.5 216.0312 204.7656 L215.4062 205.0156 C214.6406 205.3125 214.3906 205.5469 214.3906 205.9375 C214.3906 206.1094 214.4531 206.3438 214.5781 206.8125 L214.7344 207.3438 L215.1094 207.3438 L215.0938 206.5312 C215.0938 206.0938 215.2031 205.9688 215.7812 205.7344 L216.2031 205.5625 C217.0312 205.2188 217.4531 204.6875 217.4531 203.8438 C217.4531 202.1562 215.6562 201.1875 214.5 201.0312 C214.1094 201.125 213.9062 201.2969 213.9062 201.6406 C213.9062 201.9375 214.0625 202.1562 214.7188 202.2656 L216.4688 202.5781 Z"
      /><rect x="238" y="173" width="5" style="fill:white; stroke:none;" height="10"
      /><path style="stroke:none;" d="M239.8906 181.6875 C239.4844 181.6875 239.1562 182.0469 239.1562 182.4219 C239.1562 182.8125 239.4844 183.1562 239.8906 183.1562 C240.2969 183.1562 240.6406 182.8125 240.6406 182.4219 C240.6406 182.0469 240.2969 181.6875 239.8906 181.6875 ZM241.4688 175.5781 C241.7188 175.8906 241.875 176.2656 241.8906 176.6562 C241.8906 177.1875 241.625 177.5 241.0312 177.7656 L240.4062 178.0156 C239.6406 178.3125 239.3906 178.5469 239.3906 178.9375 C239.3906 179.1094 239.4531 179.3438 239.5781 179.8125 L239.7344 180.3438 L240.1094 180.3438 L240.0938 179.5312 C240.0938 179.0938 240.2031 178.9688 240.7812 178.7344 L241.2031 178.5625 C242.0312 178.2188 242.4531 177.6875 242.4531 176.8438 C242.4531 175.1562 240.6562 174.1875 239.5 174.0312 C239.1094 174.125 238.9062 174.2969 238.9062 174.6406 C238.9062 174.9375 239.0625 175.1562 239.7188 175.2656 L241.4688 175.5781 Z"
      /><rect x="238" y="159" width="5" style="fill:white; stroke:none;" height="10"
      /><path style="stroke:none;" d="M239.8906 167.6875 C239.4844 167.6875 239.1562 168.0469 239.1562 168.4219 C239.1562 168.8125 239.4844 169.1562 239.8906 169.1562 C240.2969 169.1562 240.6406 168.8125 240.6406 168.4219 C240.6406 168.0469 240.2969 167.6875 239.8906 167.6875 ZM241.4688 161.5781 C241.7188 161.8906 241.875 162.2656 241.8906 162.6562 C241.8906 163.1875 241.625 163.5 241.0312 163.7656 L240.4062 164.0156 C239.6406 164.3125 239.3906 164.5469 239.3906 164.9375 C239.3906 165.1094 239.4531 165.3438 239.5781 165.8125 L239.7344 166.3438 L240.1094 166.3438 L240.0938 165.5312 C240.0938 165.0938 240.2031 164.9688 240.7812 164.7344 L241.2031 164.5625 C242.0312 164.2188 242.4531 163.6875 242.4531 162.8438 C242.4531 161.1562 240.6562 160.1875 239.5 160.0312 C239.1094 160.125 238.9062 160.2969 238.9062 160.6406 C238.9062 160.9375 239.0625 161.1562 239.7188 161.2656 L241.4688 161.5781 Z"
      /><polygon style="fill:none;" points=" 249 93 249 41"
      /><polygon style="fill:none;" points=" 249 93 197 93"
      /><rect x="238" y="82" width="22" style="clip-path:url(#clipPath17); fill:white; stroke:none;" height="22"
      /><rect x="238" y="82" width="22" style="clip-path:url(#clipPath17); fill:rgb(0,144,188); stroke:none;" height="22"
      /><rect x="238" y="82" width="22" style="fill:none; clip-path:url(#clipPath17);" height="22"
      /><rect x="238" width="22" height="22" y="82" style="fill:none;"
      /><polygon style="fill:white; clip-path:url(#clipPath18); stroke:none;" points=" 249 52 238 30 260 30"
      /><rect x="238" y="30" width="22" style="clip-path:url(#clipPath18); fill:rgb(237,28,36); stroke:none;" height="22"
      /><rect x="238" y="30" width="22" style="fill:none; clip-path:url(#clipPath18);" height="22"
      /><polygon style="fill:none;" points=" 249 52 238 30 260 30"
      /><circle style="fill:white; clip-path:url(#clipPath19); stroke:none;" r="11" cx="197" cy="93"
      /><rect x="186" y="82" width="22" style="clip-path:url(#clipPath19); fill:rgb(255,212,0); stroke:none;" height="22"
      /><rect x="186" y="82" width="22" style="fill:none; clip-path:url(#clipPath19);" height="22"
      /><circle r="11" style="fill:none;" cx="197" cy="93"
      /><rect x="238" y="69" width="5" style="fill:white; stroke:none;" height="10"
      /><path style="stroke:none;" d="M239.8906 77.6875 C239.4844 77.6875 239.1562 78.0469 239.1562 78.4219 C239.1562 78.8125 239.4844 79.1562 239.8906 79.1562 C240.2969 79.1562 240.6406 78.8125 240.6406 78.4219 C240.6406 78.0469 240.2969 77.6875 239.8906 77.6875 ZM241.4688 71.5781 C241.7188 71.8906 241.875 72.2656 241.8906 72.6562 C241.8906 73.1875 241.625 73.5 241.0312 73.7656 L240.4062 74.0156 C239.6406 74.3125 239.3906 74.5469 239.3906 74.9375 C239.3906 75.1094 239.4531 75.3438 239.5781 75.8125 L239.7344 76.3438 L240.1094 76.3438 L240.0938 75.5312 C240.0938 75.0938 240.2031 74.9688 240.7812 74.7344 L241.2031 74.5625 C242.0312 74.2188 242.4531 73.6875 242.4531 72.8438 C242.4531 71.1562 240.6562 70.1875 239.5 70.0312 C239.1094 70.125 238.9062 70.2969 238.9062 70.6406 C238.9062 70.9375 239.0625 71.1562 239.7188 71.2656 L241.4688 71.5781 Z"
      /><rect x="238" y="55" width="5" style="fill:white; stroke:none;" height="10"
      /><path style="stroke:none;" d="M239.8906 63.6875 C239.4844 63.6875 239.1562 64.0469 239.1562 64.4219 C239.1562 64.8125 239.4844 65.1562 239.8906 65.1562 C240.2969 65.1562 240.6406 64.8125 240.6406 64.4219 C240.6406 64.0469 240.2969 63.6875 239.8906 63.6875 ZM241.4688 57.5781 C241.7188 57.8906 241.875 58.2656 241.8906 58.6562 C241.8906 59.1875 241.625 59.5 241.0312 59.7656 L240.4062 60.0156 C239.6406 60.3125 239.3906 60.5469 239.3906 60.9375 C239.3906 61.1094 239.4531 61.3438 239.5781 61.8125 L239.7344 62.3438 L240.1094 62.3438 L240.0938 61.5312 C240.0938 61.0938 240.2031 60.9688 240.7812 60.7344 L241.2031 60.5625 C242.0312 60.2188 242.4531 59.6875 242.4531 58.8438 C242.4531 57.1562 240.6562 56.1875 239.5 56.0312 C239.1094 56.125 238.9062 56.2969 238.9062 56.6406 C238.9062 56.9375 239.0625 57.1562 239.7188 57.2656 L241.4688 57.5781 Z"
      /><rect x="227" y="96" width="5" style="fill:white; stroke:none;" height="10"
      /><path style="stroke:none;" d="M228.8906 104.6875 C228.4844 104.6875 228.1562 105.0469 228.1562 105.4219 C228.1562 105.8125 228.4844 106.1562 228.8906 106.1562 C229.2969 106.1562 229.6406 105.8125 229.6406 105.4219 C229.6406 105.0469 229.2969 104.6875 228.8906 104.6875 ZM230.4688 98.5781 C230.7188 98.8906 230.875 99.2656 230.8906 99.6562 C230.8906 100.1875 230.625 100.5 230.0312 100.7656 L229.4062 101.0156 C228.6406 101.3125 228.3906 101.5469 228.3906 101.9375 C228.3906 102.1094 228.4531 102.3438 228.5781 102.8125 L228.7344 103.3438 L229.1094 103.3438 L229.0938 102.5312 C229.0938 102.0938 229.2031 101.9688 229.7812 101.7344 L230.2031 101.5625 C231.0312 101.2188 231.4531 100.6875 231.4531 99.8438 C231.4531 98.1562 229.6562 97.1875 228.5 97.0312 C228.1094 97.125 227.9062 97.2969 227.9062 97.6406 C227.9062 97.9375 228.0625 98.1562 228.7188 98.2656 L230.4688 98.5781 Z"
      /><rect x="213" y="96" width="5" style="fill:white; stroke:none;" height="10"
      /><path style="stroke:none;" d="M214.8906 104.6875 C214.4844 104.6875 214.1562 105.0469 214.1562 105.4219 C214.1562 105.8125 214.4844 106.1562 214.8906 106.1562 C215.2969 106.1562 215.6406 105.8125 215.6406 105.4219 C215.6406 105.0469 215.2969 104.6875 214.8906 104.6875 ZM216.4688 98.5781 C216.7188 98.8906 216.875 99.2656 216.8906 99.6562 C216.8906 100.1875 216.625 100.5 216.0312 100.7656 L215.4062 101.0156 C214.6406 101.3125 214.3906 101.5469 214.3906 101.9375 C214.3906 102.1094 214.4531 102.3438 214.5781 102.8125 L214.7344 103.3438 L215.1094 103.3438 L215.0938 102.5312 C215.0938 102.0938 215.2031 101.9688 215.7812 101.7344 L216.2031 101.5625 C217.0312 101.2188 217.4531 100.6875 217.4531 99.8438 C217.4531 98.1562 215.6562 97.1875 214.5 97.0312 C214.1094 97.125 213.9062 97.2969 213.9062 97.6406 C213.9062 97.9375 214.0625 98.1562 214.7188 98.2656 L216.4688 98.5781 Z"
      /><rect x="287" y="162" width="5" style="fill:white; stroke:none;" height="10"
      /><path style="stroke:none;" d="M288.8906 170.6875 C288.4844 170.6875 288.1562 171.0469 288.1562 171.4219 C288.1562 171.8125 288.4844 172.1562 288.8906 172.1562 C289.2969 172.1562 289.6406 171.8125 289.6406 171.4219 C289.6406 171.0469 289.2969 170.6875 288.8906 170.6875 ZM290.4688 164.5781 C290.7188 164.8906 290.875 165.2656 290.8906 165.6562 C290.8906 166.1875 290.625 166.5 290.0312 166.7656 L289.4062 167.0156 C288.6406 167.3125 288.3906 167.5469 288.3906 167.9375 C288.3906 168.1094 288.4531 168.3438 288.5781 168.8125 L288.7344 169.3438 L289.1094 169.3438 L289.0938 168.5312 C289.0938 168.0938 289.2031 167.9688 289.7812 167.7344 L290.2031 167.5625 C291.0312 167.2188 291.4531 166.6875 291.4531 165.8438 C291.4531 164.1562 289.6562 163.1875 288.5 163.0312 C288.1094 163.125 287.9062 163.2969 287.9062 163.6406 C287.9062 163.9375 288.0625 164.1562 288.7188 164.2656 L290.4688 164.5781 Z"
      /><rect x="268" y="181" width="5" style="fill:white; stroke:none;" height="10"
      /><path style="stroke:none;" d="M269.8906 189.6875 C269.4844 189.6875 269.1562 190.0469 269.1562 190.4219 C269.1562 190.8125 269.4844 191.1562 269.8906 191.1562 C270.2969 191.1562 270.6406 190.8125 270.6406 190.4219 C270.6406 190.0469 270.2969 189.6875 269.8906 189.6875 ZM271.4688 183.5781 C271.7188 183.8906 271.875 184.2656 271.8906 184.6562 C271.8906 185.1875 271.625 185.5 271.0312 185.7656 L270.4062 186.0156 C269.6406 186.3125 269.3906 186.5469 269.3906 186.9375 C269.3906 187.1094 269.4531 187.3438 269.5781 187.8125 L269.7344 188.3438 L270.1094 188.3438 L270.0938 187.5312 C270.0938 187.0938 270.2031 186.9688 270.7812 186.7344 L271.2031 186.5625 C272.0312 186.2188 272.4531 185.6875 272.4531 184.8438 C272.4531 183.1562 270.6562 182.1875 269.5 182.0312 C269.1094 182.125 268.9062 182.2969 268.9062 182.6406 C268.9062 182.9375 269.0625 183.1562 269.7188 183.2656 L271.4688 183.5781 Z"
      /><rect x="276" y="129" width="5" style="fill:white; stroke:none;" height="10"
      /><path style="stroke:none;" d="M277.8906 137.6875 C277.4844 137.6875 277.1562 138.0469 277.1562 138.4219 C277.1562 138.8125 277.4844 139.1562 277.8906 139.1562 C278.2969 139.1562 278.6406 138.8125 278.6406 138.4219 C278.6406 138.0469 278.2969 137.6875 277.8906 137.6875 ZM279.4688 131.5781 C279.7188 131.8906 279.875 132.2656 279.8906 132.6562 C279.8906 133.1875 279.625 133.5 279.0312 133.7656 L278.4062 134.0156 C277.6406 134.3125 277.3906 134.5469 277.3906 134.9375 C277.3906 135.1094 277.4531 135.3438 277.5781 135.8125 L277.7344 136.3438 L278.1094 136.3438 L278.0938 135.5312 C278.0938 135.0938 278.2031 134.9688 278.7812 134.7344 L279.2031 134.5625 C280.0312 134.2188 280.4531 133.6875 280.4531 132.8438 C280.4531 131.1562 278.6562 130.1875 277.5 130.0312 C277.1094 130.125 276.9062 130.2969 276.9062 130.6406 C276.9062 130.9375 277.0625 131.1562 277.7188 131.2656 L279.4688 131.5781 Z"
      /><rect x="257" y="110" width="5" style="fill:white; stroke:none;" height="10"
      /><path style="stroke:none;" d="M258.8906 118.6875 C258.4844 118.6875 258.1562 119.0469 258.1562 119.4219 C258.1562 119.8125 258.4844 120.1562 258.8906 120.1562 C259.2969 120.1562 259.6406 119.8125 259.6406 119.4219 C259.6406 119.0469 259.2969 118.6875 258.8906 118.6875 ZM260.4688 112.5781 C260.7188 112.8906 260.875 113.2656 260.8906 113.6562 C260.8906 114.1875 260.625 114.5 260.0312 114.7656 L259.4062 115.0156 C258.6406 115.3125 258.3906 115.5469 258.3906 115.9375 C258.3906 116.1094 258.4531 116.3438 258.5781 116.8125 L258.7344 117.3438 L259.1094 117.3438 L259.0938 116.5312 C259.0938 116.0938 259.2031 115.9688 259.7812 115.7344 L260.2031 115.5625 C261.0312 115.2188 261.4531 114.6875 261.4531 113.8438 C261.4531 112.1562 259.6562 111.1875 258.5 111.0312 C258.1094 111.125 257.9062 111.2969 257.9062 111.6406 C257.9062 111.9375 258.0625 112.1562 258.7188 112.2656 L260.4688 112.5781 Z"
      /><rect x="290" y="82" width="22" style="clip-path:url(#clipPath20); fill:white; stroke:none;" height="22"
      /><rect x="290" y="82" width="22" style="clip-path:url(#clipPath20); fill:rgb(0,144,188); stroke:none;" height="22"
      /><rect x="290" y="82" width="22" style="fill:none; clip-path:url(#clipPath20);" height="22"
      /><rect x="290" width="22" height="22" y="82" style="fill:none;"
      /><rect x="350" y="161" width="5" style="fill:white; stroke:none;" height="10"
      /><path style="stroke:none;" d="M351.8906 169.6875 C351.4844 169.6875 351.1562 170.0469 351.1562 170.4219 C351.1562 170.8125 351.4844 171.1562 351.8906 171.1562 C352.2969 171.1562 352.6406 170.8125 352.6406 170.4219 C352.6406 170.0469 352.2969 169.6875 351.8906 169.6875 ZM353.4688 163.5781 C353.7188 163.8906 353.875 164.2656 353.8906 164.6562 C353.8906 165.1875 353.625 165.5 353.0312 165.7656 L352.4062 166.0156 C351.6406 166.3125 351.3906 166.5469 351.3906 166.9375 C351.3906 167.1094 351.4531 167.3438 351.5781 167.8125 L351.7344 168.3438 L352.1094 168.3438 L352.0938 167.5312 C352.0938 167.0938 352.2031 166.9688 352.7812 166.7344 L353.2031 166.5625 C354.0312 166.2188 354.4531 165.6875 354.4531 164.8438 C354.4531 163.1562 352.6562 162.1875 351.5 162.0312 C351.1094 162.125 350.9062 162.2969 350.9062 162.6406 C350.9062 162.9375 351.0625 163.1562 351.7188 163.2656 L353.4688 163.5781 Z"
      /><rect x="313" y="254" width="5" style="fill:white; stroke:none;" height="10"
      /><path style="stroke:none;" d="M314.8906 262.6875 C314.4844 262.6875 314.1562 263.0469 314.1562 263.4219 C314.1562 263.8125 314.4844 264.1562 314.8906 264.1562 C315.2969 264.1562 315.6406 263.8125 315.6406 263.4219 C315.6406 263.0469 315.2969 262.6875 314.8906 262.6875 ZM316.4688 256.5781 C316.7188 256.8906 316.875 257.2656 316.8906 257.6562 C316.8906 258.1875 316.625 258.5 316.0312 258.7656 L315.4062 259.0156 C314.6406 259.3125 314.3906 259.5469 314.3906 259.9375 C314.3906 260.1094 314.4531 260.3438 314.5781 260.8125 L314.7344 261.3438 L315.1094 261.3438 L315.0938 260.5312 C315.0938 260.0938 315.2031 259.9688 315.7812 259.7344 L316.2031 259.5625 C317.0312 259.2188 317.4531 258.6875 317.4531 257.8438 C317.4531 256.1562 315.6562 255.1875 314.5 255.0312 C314.1094 255.125 313.9062 255.2969 313.9062 255.6406 C313.9062 255.9375 314.0625 256.1562 314.7188 256.2656 L316.4688 256.5781 Z"
      /><rect x="331" y="148" width="5" style="fill:white; stroke:none;" height="10"
      /><path style="stroke:none;" d="M332.8906 156.6875 C332.4844 156.6875 332.1562 157.0469 332.1562 157.4219 C332.1562 157.8125 332.4844 158.1562 332.8906 158.1562 C333.2969 158.1562 333.6406 157.8125 333.6406 157.4219 C333.6406 157.0469 333.2969 156.6875 332.8906 156.6875 ZM334.4688 150.5781 C334.7188 150.8906 334.875 151.2656 334.8906 151.6562 C334.8906 152.1875 334.625 152.5 334.0312 152.7656 L333.4062 153.0156 C332.6406 153.3125 332.3906 153.5469 332.3906 153.9375 C332.3906 154.1094 332.4531 154.3438 332.5781 154.8125 L332.7344 155.3438 L333.1094 155.3438 L333.0938 154.5312 C333.0938 154.0938 333.2031 153.9688 333.7812 153.7344 L334.2031 153.5625 C335.0312 153.2188 335.4531 152.6875 335.4531 151.8438 C335.4531 150.1562 333.6562 149.1875 332.5 149.0312 C332.1094 149.125 331.9062 149.2969 331.9062 149.6406 C331.9062 149.9375 332.0625 150.1562 332.7188 150.2656 L334.4688 150.5781 Z"
      /><rect x="317" y="148" width="5" style="fill:white; stroke:none;" height="10"
      /><path style="stroke:none;" d="M318.8906 156.6875 C318.4844 156.6875 318.1562 157.0469 318.1562 157.4219 C318.1562 157.8125 318.4844 158.1562 318.8906 158.1562 C319.2969 158.1562 319.6406 157.8125 319.6406 157.4219 C319.6406 157.0469 319.2969 156.6875 318.8906 156.6875 ZM320.4688 150.5781 C320.7188 150.8906 320.875 151.2656 320.8906 151.6562 C320.8906 152.1875 320.625 152.5 320.0312 152.7656 L319.4062 153.0156 C318.6406 153.3125 318.3906 153.5469 318.3906 153.9375 C318.3906 154.1094 318.4531 154.3438 318.5781 154.8125 L318.7344 155.3438 L319.1094 155.3438 L319.0938 154.5312 C319.0938 154.0938 319.2031 153.9688 319.7812 153.7344 L320.2031 153.5625 C321.0312 153.2188 321.4531 152.6875 321.4531 151.8438 C321.4531 150.1562 319.6562 149.1875 318.5 149.0312 C318.1094 149.125 317.9062 149.2969 317.9062 149.6406 C317.9062 149.9375 318.0625 150.1562 318.7188 150.2656 L320.4688 150.5781 Z"
      /><rect x="328" y="129" width="5" style="fill:white; stroke:none;" height="10"
      /><path style="stroke:none;" d="M329.8906 137.6875 C329.4844 137.6875 329.1562 138.0469 329.1562 138.4219 C329.1562 138.8125 329.4844 139.1562 329.8906 139.1562 C330.2969 139.1562 330.6406 138.8125 330.6406 138.4219 C330.6406 138.0469 330.2969 137.6875 329.8906 137.6875 ZM331.4688 131.5781 C331.7188 131.8906 331.875 132.2656 331.8906 132.6562 C331.8906 133.1875 331.625 133.5 331.0312 133.7656 L330.4062 134.0156 C329.6406 134.3125 329.3906 134.5469 329.3906 134.9375 C329.3906 135.1094 329.4531 135.3438 329.5781 135.8125 L329.7344 136.3438 L330.1094 136.3438 L330.0938 135.5312 C330.0938 135.0938 330.2031 134.9688 330.7812 134.7344 L331.2031 134.5625 C332.0312 134.2188 332.4531 133.6875 332.4531 132.8438 C332.4531 131.1562 330.6562 130.1875 329.5 130.0312 C329.1094 130.125 328.9062 130.2969 328.9062 130.6406 C328.9062 130.9375 329.0625 131.1562 329.7188 131.2656 L331.4688 131.5781 Z"
      /><rect x="309" y="110" width="5" style="fill:white; stroke:none;" height="10"
      /><path style="stroke:none;" d="M310.8906 118.6875 C310.4844 118.6875 310.1562 119.0469 310.1562 119.4219 C310.1562 119.8125 310.4844 120.1562 310.8906 120.1562 C311.2969 120.1562 311.6406 119.8125 311.6406 119.4219 C311.6406 119.0469 311.2969 118.6875 310.8906 118.6875 ZM312.4688 112.5781 C312.7188 112.8906 312.875 113.2656 312.8906 113.6562 C312.8906 114.1875 312.625 114.5 312.0312 114.7656 L311.4062 115.0156 C310.6406 115.3125 310.3906 115.5469 310.3906 115.9375 C310.3906 116.1094 310.4531 116.3438 310.5781 116.8125 L310.7344 117.3438 L311.1094 117.3438 L311.0938 116.5312 C311.0938 116.0938 311.2031 115.9688 311.7812 115.7344 L312.2031 115.5625 C313.0312 115.2188 313.4531 114.6875 313.4531 113.8438 C313.4531 112.1562 311.6562 111.1875 310.5 111.0312 C310.1094 111.125 309.9062 111.2969 309.9062 111.6406 C309.9062 111.9375 310.0625 112.1562 310.7188 112.2656 L312.4688 112.5781 Z"
      /><rect x="383" y="148" width="5" style="fill:white; stroke:none;" height="10"
      /><path style="stroke:none;" d="M384.8906 156.6875 C384.4844 156.6875 384.1562 157.0469 384.1562 157.4219 C384.1562 157.8125 384.4844 158.1562 384.8906 158.1562 C385.2969 158.1562 385.6406 157.8125 385.6406 157.4219 C385.6406 157.0469 385.2969 156.6875 384.8906 156.6875 ZM386.4688 150.5781 C386.7188 150.8906 386.875 151.2656 386.8906 151.6562 C386.8906 152.1875 386.625 152.5 386.0312 152.7656 L385.4062 153.0156 C384.6406 153.3125 384.3906 153.5469 384.3906 153.9375 C384.3906 154.1094 384.4531 154.3438 384.5781 154.8125 L384.7344 155.3438 L385.1094 155.3438 L385.0938 154.5312 C385.0938 154.0938 385.2031 153.9688 385.7812 153.7344 L386.2031 153.5625 C387.0312 153.2188 387.4531 152.6875 387.4531 151.8438 C387.4531 150.1562 385.6562 149.1875 384.5 149.0312 C384.1094 149.125 383.9062 149.2969 383.9062 149.6406 C383.9062 149.9375 384.0625 150.1562 384.7188 150.2656 L386.4688 150.5781 Z"
      /><rect x="369" y="148" width="5" style="fill:white; stroke:none;" height="10"
      /><path style="stroke:none;" d="M370.8906 156.6875 C370.4844 156.6875 370.1562 157.0469 370.1562 157.4219 C370.1562 157.8125 370.4844 158.1562 370.8906 158.1562 C371.2969 158.1562 371.6406 157.8125 371.6406 157.4219 C371.6406 157.0469 371.2969 156.6875 370.8906 156.6875 ZM372.4688 150.5781 C372.7188 150.8906 372.875 151.2656 372.8906 151.6562 C372.8906 152.1875 372.625 152.5 372.0312 152.7656 L371.4062 153.0156 C370.6406 153.3125 370.3906 153.5469 370.3906 153.9375 C370.3906 154.1094 370.4531 154.3438 370.5781 154.8125 L370.7344 155.3438 L371.1094 155.3438 L371.0938 154.5312 C371.0938 154.0938 371.2031 153.9688 371.7812 153.7344 L372.2031 153.5625 C373.0312 153.2188 373.4531 152.6875 373.4531 151.8438 C373.4531 150.1562 371.6562 149.1875 370.5 149.0312 C370.1094 149.125 369.9062 149.2969 369.9062 149.6406 C369.9062 149.9375 370.0625 150.1562 370.7188 150.2656 L372.4688 150.5781 Z"
      /><polygon style="fill:white; clip-path:url(#clipPath21); stroke:none;" points=" 457 104 446 82 468 82"
      /><rect x="446" y="82" width="22" style="clip-path:url(#clipPath21); fill:rgb(237,28,36); stroke:none;" height="22"
      /><rect x="446" y="82" width="22" style="fill:none; clip-path:url(#clipPath21);" height="22"
      /><polygon style="fill:none;" points=" 457 104 446 82 468 82"
      /><rect x="435" y="148" width="5" style="fill:white; stroke:none;" height="10"
      /><path style="stroke:none;" d="M436.8906 156.6875 C436.4844 156.6875 436.1562 157.0469 436.1562 157.4219 C436.1562 157.8125 436.4844 158.1562 436.8906 158.1562 C437.2969 158.1562 437.6406 157.8125 437.6406 157.4219 C437.6406 157.0469 437.2969 156.6875 436.8906 156.6875 ZM438.4688 150.5781 C438.7188 150.8906 438.875 151.2656 438.8906 151.6562 C438.8906 152.1875 438.625 152.5 438.0312 152.7656 L437.4062 153.0156 C436.6406 153.3125 436.3906 153.5469 436.3906 153.9375 C436.3906 154.1094 436.4531 154.3438 436.5781 154.8125 L436.7344 155.3438 L437.1094 155.3438 L437.0938 154.5312 C437.0938 154.0938 437.2031 153.9688 437.7812 153.7344 L438.2031 153.5625 C439.0312 153.2188 439.4531 152.6875 439.4531 151.8438 C439.4531 150.1562 437.6562 149.1875 436.5 149.0312 C436.1094 149.125 435.9062 149.2969 435.9062 149.6406 C435.9062 149.9375 436.0625 150.1562 436.7188 150.2656 L438.4688 150.5781 Z"
      /><rect x="421" y="148" width="5" style="fill:white; stroke:none;" height="10"
      /><path style="stroke:none;" d="M422.8906 156.6875 C422.4844 156.6875 422.1562 157.0469 422.1562 157.4219 C422.1562 157.8125 422.4844 158.1562 422.8906 158.1562 C423.2969 158.1562 423.6406 157.8125 423.6406 157.4219 C423.6406 157.0469 423.2969 156.6875 422.8906 156.6875 ZM424.4688 150.5781 C424.7188 150.8906 424.875 151.2656 424.8906 151.6562 C424.8906 152.1875 424.625 152.5 424.0312 152.7656 L423.4062 153.0156 C422.6406 153.3125 422.3906 153.5469 422.3906 153.9375 C422.3906 154.1094 422.4531 154.3438 422.5781 154.8125 L422.7344 155.3438 L423.1094 155.3438 L423.0938 154.5312 C423.0938 154.0938 423.2031 153.9688 423.7812 153.7344 L424.2031 153.5625 C425.0312 153.2188 425.4531 152.6875 425.4531 151.8438 C425.4531 150.1562 423.6562 149.1875 422.5 149.0312 C422.1094 149.125 421.9062 149.2969 421.9062 149.6406 C421.9062 149.9375 422.0625 150.1562 422.7188 150.2656 L424.4688 150.5781 Z"
      /><rect x="446" y="121" width="5" style="fill:white; stroke:none;" height="10"
      /><path style="stroke:none;" d="M447.8906 129.6875 C447.4844 129.6875 447.1562 130.0469 447.1562 130.4219 C447.1562 130.8125 447.4844 131.1562 447.8906 131.1562 C448.2969 131.1562 448.6406 130.8125 448.6406 130.4219 C448.6406 130.0469 448.2969 129.6875 447.8906 129.6875 ZM449.4688 123.5781 C449.7188 123.8906 449.875 124.2656 449.8906 124.6562 C449.8906 125.1875 449.625 125.5 449.0312 125.7656 L448.4062 126.0156 C447.6406 126.3125 447.3906 126.5469 447.3906 126.9375 C447.3906 127.1094 447.4531 127.3438 447.5781 127.8125 L447.7344 128.3438 L448.1094 128.3438 L448.0938 127.5312 C448.0938 127.0938 448.2031 126.9688 448.7812 126.7344 L449.2031 126.5625 C450.0312 126.2188 450.4531 125.6875 450.4531 124.8438 C450.4531 123.1562 448.6562 122.1875 447.5 122.0312 C447.1094 122.125 446.9062 122.2969 446.9062 122.6406 C446.9062 122.9375 447.0625 123.1562 447.7188 123.2656 L449.4688 123.5781 Z"
      /><rect x="446" y="107" width="5" style="fill:white; stroke:none;" height="10"
      /><path style="stroke:none;" d="M447.8906 115.6875 C447.4844 115.6875 447.1562 116.0469 447.1562 116.4219 C447.1562 116.8125 447.4844 117.1562 447.8906 117.1562 C448.2969 117.1562 448.6406 116.8125 448.6406 116.4219 C448.6406 116.0469 448.2969 115.6875 447.8906 115.6875 ZM449.4688 109.5781 C449.7188 109.8906 449.875 110.2656 449.8906 110.6562 C449.8906 111.1875 449.625 111.5 449.0312 111.7656 L448.4062 112.0156 C447.6406 112.3125 447.3906 112.5469 447.3906 112.9375 C447.3906 113.1094 447.4531 113.3438 447.5781 113.8125 L447.7344 114.3438 L448.1094 114.3438 L448.0938 113.5312 C448.0938 113.0938 448.2031 112.9688 448.7812 112.7344 L449.2031 112.5625 C450.0312 112.2188 450.4531 111.6875 450.4531 110.8438 C450.4531 109.1562 448.6562 108.1875 447.5 108.0312 C447.1094 108.125 446.9062 108.2969 446.9062 108.6406 C446.9062 108.9375 447.0625 109.1562 447.7188 109.2656 L449.4688 109.5781 Z"
      /><rect x="473" y="148" width="5" style="fill:white; stroke:none;" height="10"
      /><path style="stroke:none;" d="M474.8906 156.6875 C474.4844 156.6875 474.1562 157.0469 474.1562 157.4219 C474.1562 157.8125 474.4844 158.1562 474.8906 158.1562 C475.2969 158.1562 475.6406 157.8125 475.6406 157.4219 C475.6406 157.0469 475.2969 156.6875 474.8906 156.6875 ZM476.4688 150.5781 C476.7188 150.8906 476.875 151.2656 476.8906 151.6562 C476.8906 152.1875 476.625 152.5 476.0312 152.7656 L475.4062 153.0156 C474.6406 153.3125 474.3906 153.5469 474.3906 153.9375 C474.3906 154.1094 474.4531 154.3438 474.5781 154.8125 L474.7344 155.3438 L475.1094 155.3438 L475.0938 154.5312 C475.0938 154.0938 475.2031 153.9688 475.7812 153.7344 L476.2031 153.5625 C477.0312 153.2188 477.4531 152.6875 477.4531 151.8438 C477.4531 150.1562 475.6562 149.1875 474.5 149.0312 C474.1094 149.125 473.9062 149.2969 473.9062 149.6406 C473.9062 149.9375 474.0625 150.1562 474.7188 150.2656 L476.4688 150.5781 Z"
    /></g
  ></g
></svg
>
