<?xml version="1.0"?>
<!DOCTYPE svg PUBLIC '-//W3C//DTD SVG 1.0//EN'
          'http://www.w3.org/TR/2001/REC-SVG-20010904/DTD/svg10.dtd'>
<svg xmlns:xlink="http://www.w3.org/1999/xlink" style="fill-opacity:1; color-rendering:auto; color-interpolation:auto; text-rendering:auto; stroke:black; stroke-linecap:square; stroke-miterlimit:10; shape-rendering:auto; stroke-opacity:1; fill:black; stroke-dasharray:none; font-weight:normal; stroke-width:1; font-family:'Dialog'; font-style:normal; stroke-linejoin:miter; font-size:12px; stroke-dashoffset:0; image-rendering:auto;" viewBox="0 0 290 82" xmlns="http://www.w3.org/2000/svg"
><!--Generated by the Batik Graphics2D SVG Generator--><defs id="genericDefs"
  /><g
  ><defs id="defs1"
    ><clipPath clipPathUnits="userSpaceOnUse" id="clipPath1"
      ><path d="M208 41 C208 47.0751 203.0751 52 197 52 C190.9249 52 186 47.0751 186 41 C186 34.9249 190.9249 30 197 30 C203.0751 30 208 34.9249 208 41 Z"
      /></clipPath
      ><clipPath clipPathUnits="userSpaceOnUse" id="clipPath2"
      ><path d="M156 41 C156 47.0751 151.0751 52 145 52 C138.9249 52 134 47.0751 134 41 C134 34.9249 138.9249 30 145 30 C151.0751 30 156 34.9249 156 41 Z"
      /></clipPath
      ><clipPath clipPathUnits="userSpaceOnUse" id="clipPath3"
      ><path style="fill-rule:evenodd;" d="M93 30 L104 41 L93 52 L82 41 Z"
      /></clipPath
      ><clipPath clipPathUnits="userSpaceOnUse" id="clipPath4"
      ><path d="M52 41 C52 47.0751 47.0751 52 41 52 C34.9249 52 30 47.0751 30 41 C30 34.9249 34.9249 30 41 30 C47.0751 30 52 34.9249 52 41 Z"
      /></clipPath
    ></defs
    ><g style="fill:white; text-rendering:optimizeSpeed; stroke:white;"
    ><rect x="0" width="290" height="82" y="0" style="stroke:none;"
      /><polygon style="fill:none; stroke:black;" points=" 249 41 197 41"
      /><path d="M249 30 C243.5 35.5 254.5 46.5 249 52" style="fill:none; stroke:black;"
      /><polygon style="fill:none; stroke:black;" points=" 197 41 145 41"
      /><circle style="clip-path:url(#clipPath1); stroke:none;" r="11" cx="197" cy="41"
      /><rect x="186" y="30" width="22" style="clip-path:url(#clipPath1); fill:rgb(0,144,188); stroke:none;" height="22"
      /><rect x="186" y="30" width="22" style="clip-path:url(#clipPath1); fill:none; stroke:black;" height="22"
      /><circle style="fill:none; stroke:black;" r="11" cx="197" cy="41"
      /><polygon style="fill:none; stroke:black;" points=" 145 41 93 41"
      /><circle style="clip-path:url(#clipPath2); stroke:none;" r="11" cx="145" cy="41"
      /><rect x="134" y="30" width="22" style="clip-path:url(#clipPath2); fill:rgb(0,144,188); stroke:none;" height="22"
      /><rect x="134" y="30" width="22" style="clip-path:url(#clipPath2); fill:none; stroke:black;" height="22"
      /><circle style="fill:none; stroke:black;" r="11" cx="145" cy="41"
      /><polygon style="fill:none; stroke:black;" points=" 93 41 41 41"
      /><polygon style="clip-path:url(#clipPath3); stroke:none;" points=" 93 30 104 41 93 52 82 41"
      /><rect x="82" y="30" width="22" style="clip-path:url(#clipPath3); fill:rgb(0,144,188); stroke:none;" height="11"
      /><rect x="82" y="30" width="22" style="clip-path:url(#clipPath3); fill:none; stroke:black;" height="11"
      /><polygon style="fill:none; stroke:black;" points=" 93 30 104 41 93 52 82 41"
      /><circle style="clip-path:url(#clipPath4); stroke:none;" r="11" cx="41" cy="41"
      /><rect x="30" y="30" width="22" style="clip-path:url(#clipPath4); fill:rgb(255,212,0); stroke:none;" height="22"
      /><rect x="30" y="30" width="22" style="clip-path:url(#clipPath4); fill:none; stroke:black;" height="22"
      /><circle style="fill:none; stroke:black;" r="11" cx="41" cy="41"
      /><rect x="70" y="44" width="7" style="stroke:none;" height="9"
    /></g
    ><g style="font-family:'Serif'; text-rendering:optimizeSpeed; "
    ><path style="stroke:none;" d="M71 49.5156 L73.9531 45.2656 L73.9531 49.5156 L71 49.5156 ZM76.2812 49.5156 L74.8594 49.5156 L74.8594 44.125 L74.2344 44.125 L70.3438 49.6406 L70.3438 50.1875 L73.9531 50.1875 L73.9531 53 L74.8594 53 L74.8594 50.1875 L76.2812 50.1875 L76.2812 49.5156 Z"
      /><rect x="56" y="45" width="8" style="fill:white; stroke:none;" height="8"
      /><path style="stroke:none;" d="M60.9844 50.7031 C60.9375 51.8906 60.1562 52.6562 59.3125 52.6562 C58.2656 52.6562 57.5 51.6875 57.5 49.7188 C57.5 48.2812 58.1562 47.1562 59.3438 47.1562 C60.1406 47.1562 60.7812 47.6875 61.0938 48.6406 L60.9844 50.7031 ZM62.9062 52.2812 C62.7344 52.375 62.5469 52.4219 62.3438 52.4219 C61.9531 52.4219 61.75 52.2188 61.75 51.4219 C61.75 50.4844 61.9688 48.5312 62.1875 46.8281 L62.0312 46.7188 L61.2344 46.9219 L61.1406 47.7969 C60.7812 47.0312 60.1562 46.6562 59.3906 46.6562 C58.0469 46.6562 56.5625 47.8438 56.5625 49.9531 C56.5625 52.0938 57.7188 53.1719 59.1406 53.1719 C60.0156 53.1719 60.6875 52.8125 61.0938 51.9844 C61.2031 52.8594 61.5156 53.1719 62.0156 53.1719 C62.4688 53.1719 62.7969 52.9062 63.0156 52.5625 L62.9062 52.2812 Z"
      /><rect x="122" y="44" width="7" style="fill:white; stroke:none;" height="9"
      /><path style="stroke:none;" d="M123 49.5156 L125.9531 45.2656 L125.9531 49.5156 L123 49.5156 ZM128.2812 49.5156 L126.8594 49.5156 L126.8594 44.125 L126.2344 44.125 L122.3438 49.6406 L122.3438 50.1875 L125.9531 50.1875 L125.9531 53 L126.8594 53 L126.8594 50.1875 L128.2812 50.1875 L128.2812 49.5156 Z"
      /><rect x="109" y="42" width="6" style="fill:white; stroke:none;" height="13"
      /><path style="stroke:none;" d="M111.0938 48.2031 C111.0938 46.6562 111.75 45.8125 112.7969 45.8125 C113.7188 45.8125 114.2656 46.4531 114.2656 47.5156 C114.2656 48.7188 113.5 49.4375 112.1875 49.7031 L112.2969 50.3125 C114.2188 50.2344 114.9375 51.2188 114.9375 52.4375 C114.9375 53.625 114.2344 54.4219 112.9531 54.4219 C112.25 54.4219 111.6562 54.1562 111.0938 53.7188 L111.0938 48.2031 ZM110.2031 54.9062 L110.1094 57.375 L110.2656 57.4844 L111.1562 57.2656 L111.0156 54.0938 C111.5469 54.8438 112.3594 55.1719 113.1719 55.1719 C114.5625 55.1719 115.8594 54.2188 115.8594 52.4844 C115.8594 50.9531 114.875 50.1094 113.125 50 C114.5625 49.6094 115.1875 48.4531 115.1875 47.4844 C115.1875 46.0938 114.1562 45.3125 112.9062 45.3125 C111.2969 45.3125 110.2188 46.5469 110.2188 48.5156 L110.2031 54.9062 Z"
      /><rect x="174" y="44" width="7" style="fill:white; stroke:none;" height="9"
      /><path style="stroke:none;" d="M175 49.5156 L177.9531 45.2656 L177.9531 49.5156 L175 49.5156 ZM180.2812 49.5156 L178.8594 49.5156 L178.8594 44.125 L178.2344 44.125 L174.3438 49.6406 L174.3438 50.1875 L177.9531 50.1875 L177.9531 53 L178.8594 53 L178.8594 50.1875 L180.2812 50.1875 L180.2812 49.5156 Z"
      /><rect x="161" y="42" width="6" style="fill:white; stroke:none;" height="13"
      /><path style="stroke:none;" d="M163.0938 48.2031 C163.0938 46.6562 163.75 45.8125 164.7969 45.8125 C165.7188 45.8125 166.2656 46.4531 166.2656 47.5156 C166.2656 48.7188 165.5 49.4375 164.1875 49.7031 L164.2969 50.3125 C166.2188 50.2344 166.9375 51.2188 166.9375 52.4375 C166.9375 53.625 166.2344 54.4219 164.9531 54.4219 C164.25 54.4219 163.6562 54.1562 163.0938 53.7188 L163.0938 48.2031 ZM162.2031 54.9062 L162.1094 57.375 L162.2656 57.4844 L163.1562 57.2656 L163.0156 54.0938 C163.5469 54.8438 164.3594 55.1719 165.1719 55.1719 C166.5625 55.1719 167.8594 54.2188 167.8594 52.4844 C167.8594 50.9531 166.875 50.1094 165.125 50 C166.5625 49.6094 167.1875 48.4531 167.1875 47.4844 C167.1875 46.0938 166.1562 45.3125 164.9062 45.3125 C163.2969 45.3125 162.2188 46.5469 162.2188 48.5156 L162.2031 54.9062 Z"
      /><rect x="212" y="45" width="8" style="fill:white; stroke:none;" height="8"
      /><path style="stroke:none;" d="M216.9844 50.7031 C216.9375 51.8906 216.1562 52.6562 215.3125 52.6562 C214.2656 52.6562 213.5 51.6875 213.5 49.7188 C213.5 48.2812 214.1562 47.1562 215.3438 47.1562 C216.1406 47.1562 216.7812 47.6875 217.0938 48.6406 L216.9844 50.7031 ZM218.9062 52.2812 C218.7344 52.375 218.5469 52.4219 218.3438 52.4219 C217.9531 52.4219 217.75 52.2188 217.75 51.4219 C217.75 50.4844 217.9688 48.5312 218.1875 46.8281 L218.0312 46.7188 L217.2344 46.9219 L217.1406 47.7969 C216.7812 47.0312 216.1562 46.6562 215.3906 46.6562 C214.0469 46.6562 212.5625 47.8438 212.5625 49.9531 C212.5625 52.0938 213.7188 53.1719 215.1406 53.1719 C216.0156 53.1719 216.6875 52.8125 217.0938 51.9844 C217.2031 52.8594 217.5156 53.1719 218.0156 53.1719 C218.4688 53.1719 218.7969 52.9062 219.0156 52.5625 L218.9062 52.2812 Z"
    /></g
  ></g
></svg
>
