<?xml version="1.0"?>
<!DOCTYPE svg PUBLIC '-//W3C//DTD SVG 1.0//EN'
          'http://www.w3.org/TR/2001/REC-SVG-20010904/DTD/svg10.dtd'>
<svg xmlns:xlink="http://www.w3.org/1999/xlink" style="fill-opacity:1; color-rendering:auto; color-interpolation:auto; text-rendering:auto; stroke:black; stroke-linecap:square; stroke-miterlimit:10; shape-rendering:auto; stroke-opacity:1; fill:black; stroke-dasharray:none; font-weight:normal; stroke-width:1; font-family:'Dialog'; font-style:normal; stroke-linejoin:miter; font-size:12px; stroke-dashoffset:0; image-rendering:auto;" viewBox="0 0 402 157" xmlns="http://www.w3.org/2000/svg"
><!--Generated by the Batik Graphics2D SVG Generator--><defs id="genericDefs"
  /><g
  ><defs id="defs1"
    ><clipPath clipPathUnits="userSpaceOnUse" id="clipPath1"
      ><path style="fill-rule:evenodd;" d="M320 78 L314 85 L303 85 L298 78 L303 70 L314 70 L320 78 Z"
      /></clipPath
      ><clipPath clipPathUnits="userSpaceOnUse" id="clipPath2"
      ><path style="fill-rule:evenodd;" d="M268 78 L262 85 L251 85 L246 78 L251 70 L262 70 L268 78 Z"
      /></clipPath
      ><clipPath clipPathUnits="userSpaceOnUse" id="clipPath3"
      ><path d="M208 116 C208 122.0751 203.0751 127 197 127 C190.9249 127 186 122.0751 186 116 C186 109.9249 190.9249 105 197 105 C203.0751 105 208 109.9249 208 116 Z"
      /></clipPath
      ><clipPath clipPathUnits="userSpaceOnUse" id="clipPath4"
      ><path d="M156 116 C156 122.0751 151.0751 127 145 127 C138.9249 127 134 122.0751 134 116 C134 109.9249 138.9249 105 145 105 C151.0751 105 156 109.9249 156 116 Z"
      /></clipPath
      ><clipPath clipPathUnits="userSpaceOnUse" id="clipPath5"
      ><path d="M82 105 L104 105 L104 127 L82 127 L82 105 Z"
      /></clipPath
      ><clipPath clipPathUnits="userSpaceOnUse" id="clipPath6"
      ><path d="M52 116 C52 122.0751 47.0751 127 41 127 C34.9249 127 30 122.0751 30 116 C30 109.9249 34.9249 105 41 105 C47.0751 105 52 109.9249 52 116 Z"
      /></clipPath
      ><clipPath clipPathUnits="userSpaceOnUse" id="clipPath7"
      ><path style="fill-rule:evenodd;" d="M208 41 L202 48 L191 48 L186 41 L191 33 L202 33 L208 41 Z"
      /></clipPath
      ><clipPath clipPathUnits="userSpaceOnUse" id="clipPath8"
      ><path d="M126 30 L148 30 L148 52 L126 52 L126 30 Z"
      /></clipPath
    ></defs
    ><g style="fill:white; text-rendering:optimizeSpeed; stroke:white;"
    ><rect x="0" width="402" height="157" y="0" style="stroke:none;"
      /><polygon style="fill:none; stroke:black;" points=" 361 78 309 78"
      /><path d="M361 67 C355.5 72.5 366.5 83.5 361 89" style="fill:none; stroke:black;"
      /><polygon style="fill:none; stroke:black;" points=" 309 78 257 78"
      /><polygon style="clip-path:url(#clipPath1); stroke:none;" points=" 320 78 314 85 303 85 298 78 303 70 314 70 320 78"
      /><rect x="298" y="67" width="22" style="clip-path:url(#clipPath1); fill:rgb(255,212,0); stroke:none;" height="22"
      /><rect x="298" y="67" width="22" style="clip-path:url(#clipPath1); fill:none; stroke:black;" height="22"
      /><polygon style="fill:none; stroke:black;" points=" 320 78 314 85 303 85 298 78 303 70 314 70 320 78"
      /><polygon style="fill:none; stroke:black;" points=" 257 78 197 116"
      /><polygon style="fill:none; stroke:black;" points=" 257 78 197 41"
      /><polygon style="clip-path:url(#clipPath2); stroke:none;" points=" 268 78 262 85 251 85 246 78 251 70 262 70 268 78"
      /><rect x="246" y="67" width="22" style="clip-path:url(#clipPath2); fill:rgb(0,166,81); stroke:none;" height="22"
      /><rect x="246" y="67" width="22" style="clip-path:url(#clipPath2); fill:none; stroke:black;" height="22"
      /><polygon style="fill:none; stroke:black;" points=" 268 78 262 85 251 85 246 78 251 70 262 70 268 78"
      /><polygon style="fill:none; stroke:black;" points=" 197 116 145 116"
      /><circle style="clip-path:url(#clipPath3); stroke:none;" r="11" cx="197" cy="116"
      /><rect x="186" y="105" width="22" style="clip-path:url(#clipPath3); fill:rgb(0,144,188); stroke:none;" height="22"
      /><rect x="186" y="105" width="22" style="clip-path:url(#clipPath3); fill:none; stroke:black;" height="22"
      /><circle style="fill:none; stroke:black;" r="11" cx="197" cy="116"
      /><polygon style="fill:none; stroke:black;" points=" 145 116 93 116"
      /><circle style="clip-path:url(#clipPath4); stroke:none;" r="11" cx="145" cy="116"
      /><rect x="134" y="105" width="22" style="clip-path:url(#clipPath4); fill:rgb(255,212,0); stroke:none;" height="22"
      /><rect x="134" y="105" width="22" style="clip-path:url(#clipPath4); fill:none; stroke:black;" height="22"
      /><circle style="fill:none; stroke:black;" r="11" cx="145" cy="116"
      /><polygon style="fill:none; stroke:black;" points=" 93 116 41 116"
      /><rect x="82" y="105" width="22" style="clip-path:url(#clipPath5); stroke:none;" height="22"
      /><rect x="82" y="105" width="22" style="clip-path:url(#clipPath5); fill:rgb(0,144,188); stroke:none;" height="22"
      /><rect x="82" y="105" width="22" style="clip-path:url(#clipPath5); fill:none; stroke:black;" height="22"
      /><rect x="82" y="105" width="22" style="fill:none; stroke:black;" height="22"
      /><circle style="clip-path:url(#clipPath6); stroke:none;" r="11" cx="41" cy="116"
      /><rect x="30" y="105" width="22" style="clip-path:url(#clipPath6); fill:rgb(255,212,0); stroke:none;" height="22"
      /><rect x="30" y="105" width="22" style="clip-path:url(#clipPath6); fill:none; stroke:black;" height="22"
      /><circle style="fill:none; stroke:black;" r="11" cx="41" cy="116"
      /><rect x="71" y="119" width="5" style="stroke:none;" height="10"
    /></g
    ><g style="font-family:'Serif'; text-rendering:optimizeSpeed; "
    ><path style="stroke:none;" d="M72.8906 127.6875 C72.4844 127.6875 72.1562 128.0469 72.1562 128.4219 C72.1562 128.8125 72.4844 129.1562 72.8906 129.1562 C73.2969 129.1562 73.6406 128.8125 73.6406 128.4219 C73.6406 128.0469 73.2969 127.6875 72.8906 127.6875 ZM74.4688 121.5781 C74.7188 121.8906 74.875 122.2656 74.8906 122.6562 C74.8906 123.1875 74.625 123.5 74.0312 123.7656 L73.4062 124.0156 C72.6406 124.3125 72.3906 124.5469 72.3906 124.9375 C72.3906 125.1094 72.4531 125.3438 72.5781 125.8125 L72.7344 126.3438 L73.1094 126.3438 L73.0938 125.5312 C73.0938 125.0938 73.2031 124.9688 73.7812 124.7344 L74.2031 124.5625 C75.0312 124.2188 75.4531 123.6875 75.4531 122.8438 C75.4531 121.1562 73.6562 120.1875 72.5 120.0312 C72.1094 120.125 71.9062 120.2969 71.9062 120.6406 C71.9062 120.9375 72.0625 121.1562 72.7188 121.2656 L74.4688 121.5781 Z"
      /><rect x="57" y="119" width="5" style="fill:white; stroke:none;" height="10"
      /><path style="stroke:none;" d="M58.8906 127.6875 C58.4844 127.6875 58.1562 128.0469 58.1562 128.4219 C58.1562 128.8125 58.4844 129.1562 58.8906 129.1562 C59.2969 129.1562 59.6406 128.8125 59.6406 128.4219 C59.6406 128.0469 59.2969 127.6875 58.8906 127.6875 ZM60.4688 121.5781 C60.7188 121.8906 60.875 122.2656 60.8906 122.6562 C60.8906 123.1875 60.625 123.5 60.0312 123.7656 L59.4062 124.0156 C58.6406 124.3125 58.3906 124.5469 58.3906 124.9375 C58.3906 125.1094 58.4531 125.3438 58.5781 125.8125 L58.7344 126.3438 L59.1094 126.3438 L59.0938 125.5312 C59.0938 125.0938 59.2031 124.9688 59.7812 124.7344 L60.2031 124.5625 C61.0312 124.2188 61.4531 123.6875 61.4531 122.8438 C61.4531 121.1562 59.6562 120.1875 58.5 120.0312 C58.1094 120.125 57.9062 120.2969 57.9062 120.6406 C57.9062 120.9375 58.0625 121.1562 58.7188 121.2656 L60.4688 121.5781 Z"
      /><rect x="123" y="119" width="5" style="fill:white; stroke:none;" height="10"
      /><path style="stroke:none;" d="M124.8906 127.6875 C124.4844 127.6875 124.1562 128.0469 124.1562 128.4219 C124.1562 128.8125 124.4844 129.1562 124.8906 129.1562 C125.2969 129.1562 125.6406 128.8125 125.6406 128.4219 C125.6406 128.0469 125.2969 127.6875 124.8906 127.6875 ZM126.4688 121.5781 C126.7188 121.8906 126.875 122.2656 126.8906 122.6562 C126.8906 123.1875 126.625 123.5 126.0312 123.7656 L125.4062 124.0156 C124.6406 124.3125 124.3906 124.5469 124.3906 124.9375 C124.3906 125.1094 124.4531 125.3438 124.5781 125.8125 L124.7344 126.3438 L125.1094 126.3438 L125.0938 125.5312 C125.0938 125.0938 125.2031 124.9688 125.7812 124.7344 L126.2031 124.5625 C127.0312 124.2188 127.4531 123.6875 127.4531 122.8438 C127.4531 121.1562 125.6562 120.1875 124.5 120.0312 C124.1094 120.125 123.9062 120.2969 123.9062 120.6406 C123.9062 120.9375 124.0625 121.1562 124.7188 121.2656 L126.4688 121.5781 Z"
      /><rect x="109" y="119" width="5" style="fill:white; stroke:none;" height="10"
      /><path style="stroke:none;" d="M110.8906 127.6875 C110.4844 127.6875 110.1562 128.0469 110.1562 128.4219 C110.1562 128.8125 110.4844 129.1562 110.8906 129.1562 C111.2969 129.1562 111.6406 128.8125 111.6406 128.4219 C111.6406 128.0469 111.2969 127.6875 110.8906 127.6875 ZM112.4688 121.5781 C112.7188 121.8906 112.875 122.2656 112.8906 122.6562 C112.8906 123.1875 112.625 123.5 112.0312 123.7656 L111.4062 124.0156 C110.6406 124.3125 110.3906 124.5469 110.3906 124.9375 C110.3906 125.1094 110.4531 125.3438 110.5781 125.8125 L110.7344 126.3438 L111.1094 126.3438 L111.0938 125.5312 C111.0938 125.0938 111.2031 124.9688 111.7812 124.7344 L112.2031 124.5625 C113.0312 124.2188 113.4531 123.6875 113.4531 122.8438 C113.4531 121.1562 111.6562 120.1875 110.5 120.0312 C110.1094 120.125 109.9062 120.2969 109.9062 120.6406 C109.9062 120.9375 110.0625 121.1562 110.7188 121.2656 L112.4688 121.5781 Z"
      /><rect x="175" y="119" width="5" style="fill:white; stroke:none;" height="10"
      /><path style="stroke:none;" d="M176.8906 127.6875 C176.4844 127.6875 176.1562 128.0469 176.1562 128.4219 C176.1562 128.8125 176.4844 129.1562 176.8906 129.1562 C177.2969 129.1562 177.6406 128.8125 177.6406 128.4219 C177.6406 128.0469 177.2969 127.6875 176.8906 127.6875 ZM178.4688 121.5781 C178.7188 121.8906 178.875 122.2656 178.8906 122.6562 C178.8906 123.1875 178.625 123.5 178.0312 123.7656 L177.4062 124.0156 C176.6406 124.3125 176.3906 124.5469 176.3906 124.9375 C176.3906 125.1094 176.4531 125.3438 176.5781 125.8125 L176.7344 126.3438 L177.1094 126.3438 L177.0938 125.5312 C177.0938 125.0938 177.2031 124.9688 177.7812 124.7344 L178.2031 124.5625 C179.0312 124.2188 179.4531 123.6875 179.4531 122.8438 C179.4531 121.1562 177.6562 120.1875 176.5 120.0312 C176.1094 120.125 175.9062 120.2969 175.9062 120.6406 C175.9062 120.9375 176.0625 121.1562 176.7188 121.2656 L178.4688 121.5781 Z"
      /><rect x="161" y="119" width="5" style="fill:white; stroke:none;" height="10"
      /><path style="stroke:none;" d="M162.8906 127.6875 C162.4844 127.6875 162.1562 128.0469 162.1562 128.4219 C162.1562 128.8125 162.4844 129.1562 162.8906 129.1562 C163.2969 129.1562 163.6406 128.8125 163.6406 128.4219 C163.6406 128.0469 163.2969 127.6875 162.8906 127.6875 ZM164.4688 121.5781 C164.7188 121.8906 164.875 122.2656 164.8906 122.6562 C164.8906 123.1875 164.625 123.5 164.0312 123.7656 L163.4062 124.0156 C162.6406 124.3125 162.3906 124.5469 162.3906 124.9375 C162.3906 125.1094 162.4531 125.3438 162.5781 125.8125 L162.7344 126.3438 L163.1094 126.3438 L163.0938 125.5312 C163.0938 125.0938 163.2031 124.9688 163.7812 124.7344 L164.2031 124.5625 C165.0312 124.2188 165.4531 123.6875 165.4531 122.8438 C165.4531 121.1562 163.6562 120.1875 162.5 120.0312 C162.1094 120.125 161.9062 120.2969 161.9062 120.6406 C161.9062 120.9375 162.0625 121.1562 162.7188 121.2656 L164.4688 121.5781 Z"
      /><polygon style="fill:none;" points=" 197 41 137 41"
      /><polygon style="fill:white; clip-path:url(#clipPath7); stroke:none;" points=" 208 41 202 48 191 48 186 41 191 33 202 33 208 41"
      /><rect x="186" y="30" width="22" style="clip-path:url(#clipPath7); fill:rgb(0,166,81); stroke:none;" height="22"
      /><rect x="186" y="30" width="22" style="fill:none; clip-path:url(#clipPath7);" height="22"
      /><polygon style="fill:none;" points=" 208 41 202 48 191 48 186 41 191 33 202 33 208 41"
    /></g
    ><g style="fill:white; text-rendering:optimizeSpeed; font-size:14px; font-family:'SansSerif'; stroke:white;"
    ><rect x="178" width="37" height="10" y="58" style="stroke:none;"
      /><path d="M181.7031 69.1875 C183.5156 69.1875 184.9844 68.0938 184.9844 66.25 C184.9844 64.8594 184.0156 63.9375 182.8125 63.6562 L182.8125 63.5938 C183.8906 63.1875 184.6406 62.3594 184.6406 61.125 C184.6406 59.5 183.375 58.5469 181.6562 58.5469 C180.4688 58.5469 179.5469 59.0625 178.7812 59.7812 L179.4688 60.5938 C180.0469 60 180.7656 59.5938 181.5938 59.5938 C182.6562 59.5938 183.3281 60.2344 183.3281 61.2188 C183.3281 62.3281 182.6094 63.1719 180.4844 63.1719 L180.4844 64.1562 C182.8594 64.1562 183.6875 64.9844 183.6875 66.2031 C183.6875 67.3906 182.8125 68.125 181.5938 68.125 C180.4375 68.125 179.6562 67.5781 179.0469 66.9375 L178.4062 67.7812 C179.0781 68.5156 180.0938 69.1875 181.7031 69.1875 ZM187.1762 69 L188.4731 69 L188.4731 64.9219 L190.1606 64.9219 C192.4262 64.9219 193.9418 63.9219 193.9418 61.75 C193.9418 59.5156 192.4106 58.7188 190.1137 58.7188 L187.1762 58.7188 L187.1762 69 ZM188.4731 63.875 L188.4731 59.7812 L189.9418 59.7812 C191.7543 59.7812 192.6606 60.2656 192.6606 61.75 C192.6606 63.2188 191.8012 63.875 190.0043 63.875 L188.4731 63.875 ZM196.0242 69 L202.0867 69 L202.0867 67.8906 L197.3211 67.8906 L197.3211 64.1562 L201.2117 64.1562 L201.2117 63.0469 L197.3211 63.0469 L197.3211 59.8281 L201.9461 59.8281 L201.9461 58.7188 L196.0242 58.7188 L196.0242 69 ZM206.5374 69.1875 C206.9905 69.1875 207.4905 69.0469 207.928 68.9062 L207.678 67.9531 C207.428 68.0469 207.0843 68.1406 206.8186 68.1406 C205.928 68.1406 205.6311 67.6094 205.6311 66.6719 L205.6311 62.4375 L207.6936 62.4375 L207.6936 61.3906 L205.6311 61.3906 L205.6311 59.25 L204.5686 59.25 L204.4124 61.3906 L203.2249 61.4688 L203.2249 62.4375 L204.3655 62.4375 L204.3655 66.6406 C204.3655 68.1562 204.9124 69.1875 206.5374 69.1875 ZM209.4091 69 L210.6904 69 L210.6904 63.4844 C211.456 62.7188 211.9873 62.3281 212.7685 62.3281 C213.7841 62.3281 214.2216 62.9219 214.2216 64.3594 L214.2216 69 L215.4873 69 L215.4873 64.1875 C215.4873 62.2344 214.7685 61.2031 213.1748 61.2031 C212.1279 61.2031 211.3466 61.7812 210.6123 62.4844 L210.581 62.4844 L210.4716 61.3906 L209.4091 61.3906 L209.4091 69 Z" style="fill:black; stroke:none;"
      /><rect x="126" y="30" width="22" style="clip-path:url(#clipPath8); stroke:none;" height="22"
    /></g
    ><g style="fill:rgb(0,144,188); text-rendering:optimizeSpeed; stroke:rgb(0,144,188);"
    ><rect x="126" y="30" width="22" style="clip-path:url(#clipPath8); stroke:none;" height="22"
      /><rect x="126" y="30" width="22" style="clip-path:url(#clipPath8); fill:none; stroke:black;" height="22"
      /><rect x="126" y="30" width="22" style="fill:none; stroke:black;" height="22"
      /><rect x="167" y="44" width="5" style="fill:white; stroke:none;" height="10"
      /><path d="M168.8906 52.6875 C168.4844 52.6875 168.1562 53.0469 168.1562 53.4219 C168.1562 53.8125 168.4844 54.1562 168.8906 54.1562 C169.2969 54.1562 169.6406 53.8125 169.6406 53.4219 C169.6406 53.0469 169.2969 52.6875 168.8906 52.6875 ZM170.4688 46.5781 C170.7188 46.8906 170.875 47.2656 170.8906 47.6562 C170.8906 48.1875 170.625 48.5 170.0312 48.7656 L169.4062 49.0156 C168.6406 49.3125 168.3906 49.5469 168.3906 49.9375 C168.3906 50.1094 168.4531 50.3438 168.5781 50.8125 L168.7344 51.3438 L169.1094 51.3438 L169.0938 50.5312 C169.0938 50.0938 169.2031 49.9688 169.7812 49.7344 L170.2031 49.5625 C171.0312 49.2188 171.4531 48.6875 171.4531 47.8438 C171.4531 46.1562 169.6562 45.1875 168.5 45.0312 C168.1094 45.125 167.9062 45.2969 167.9062 45.6406 C167.9062 45.9375 168.0625 46.1562 168.7188 46.2656 L170.4688 46.5781 Z" style="fill:black; stroke:none;"
      /><rect x="153" y="44" width="5" style="fill:white; stroke:none;" height="10"
      /><path d="M154.8906 52.6875 C154.4844 52.6875 154.1562 53.0469 154.1562 53.4219 C154.1562 53.8125 154.4844 54.1562 154.8906 54.1562 C155.2969 54.1562 155.6406 53.8125 155.6406 53.4219 C155.6406 53.0469 155.2969 52.6875 154.8906 52.6875 ZM156.4688 46.5781 C156.7188 46.8906 156.875 47.2656 156.8906 47.6562 C156.8906 48.1875 156.625 48.5 156.0312 48.7656 L155.4062 49.0156 C154.6406 49.3125 154.3906 49.5469 154.3906 49.9375 C154.3906 50.1094 154.4531 50.3438 154.5781 50.8125 L154.7344 51.3438 L155.1094 51.3438 L155.0938 50.5312 C155.0938 50.0938 155.2031 49.9688 155.7812 49.7344 L156.2031 49.5625 C157.0312 49.2188 157.4531 48.6875 157.4531 47.8438 C157.4531 46.1562 155.6562 45.1875 154.5 45.0312 C154.1094 45.125 153.9062 45.2969 153.9062 45.6406 C153.9062 45.9375 154.0625 46.1562 154.7188 46.2656 L156.4688 46.5781 Z" style="fill:black; stroke:none;"
      /><rect x="241" y="91" width="5" style="fill:white; stroke:none;" height="10"
      /><path d="M242.8906 99.6875 C242.4844 99.6875 242.1562 100.0469 242.1562 100.4219 C242.1562 100.8125 242.4844 101.1562 242.8906 101.1562 C243.2969 101.1562 243.6406 100.8125 243.6406 100.4219 C243.6406 100.0469 243.2969 99.6875 242.8906 99.6875 ZM244.4688 93.5781 C244.7188 93.8906 244.875 94.2656 244.8906 94.6562 C244.8906 95.1875 244.625 95.5 244.0312 95.7656 L243.4062 96.0156 C242.6406 96.3125 242.3906 96.5469 242.3906 96.9375 C242.3906 97.1094 242.4531 97.3438 242.5781 97.8125 L242.7344 98.3438 L243.1094 98.3438 L243.0938 97.5312 C243.0938 97.0938 243.2031 96.9688 243.7812 96.7344 L244.2031 96.5625 C245.0312 96.2188 245.4531 95.6875 245.4531 94.8438 C245.4531 93.1562 243.6562 92.1875 242.5 92.0312 C242.1094 92.125 241.9062 92.2969 241.9062 92.6406 C241.9062 92.9375 242.0625 93.1562 242.7188 93.2656 L244.4688 93.5781 Z" style="fill:black; stroke:none;"
      /><rect x="216" y="106" width="5" style="fill:white; stroke:none;" height="10"
      /><path d="M217.8906 114.6875 C217.4844 114.6875 217.1562 115.0469 217.1562 115.4219 C217.1562 115.8125 217.4844 116.1562 217.8906 116.1562 C218.2969 116.1562 218.6406 115.8125 218.6406 115.4219 C218.6406 115.0469 218.2969 114.6875 217.8906 114.6875 ZM219.4688 108.5781 C219.7188 108.8906 219.875 109.2656 219.8906 109.6562 C219.8906 110.1875 219.625 110.5 219.0312 110.7656 L218.4062 111.0156 C217.6406 111.3125 217.3906 111.5469 217.3906 111.9375 C217.3906 112.1094 217.4531 112.3438 217.5781 112.8125 L217.7344 113.3438 L218.1094 113.3438 L218.0938 112.5312 C218.0938 112.0938 218.2031 111.9688 218.7812 111.7344 L219.2031 111.5625 C220.0312 111.2188 220.4531 110.6875 220.4531 109.8438 C220.4531 108.1562 218.6562 107.1875 217.5 107.0312 C217.1094 107.125 216.9062 107.2969 216.9062 107.6406 C216.9062 107.9375 217.0625 108.1562 217.7188 108.2656 L219.4688 108.5781 Z" style="fill:black; stroke:none;"
      /><rect x="232" y="68" width="5" style="fill:white; stroke:none;" height="10"
      /><path d="M233.8906 76.6875 C233.4844 76.6875 233.1562 77.0469 233.1562 77.4219 C233.1562 77.8125 233.4844 78.1562 233.8906 78.1562 C234.2969 78.1562 234.6406 77.8125 234.6406 77.4219 C234.6406 77.0469 234.2969 76.6875 233.8906 76.6875 ZM235.4688 70.5781 C235.7188 70.8906 235.875 71.2656 235.8906 71.6562 C235.8906 72.1875 235.625 72.5 235.0312 72.7656 L234.4062 73.0156 C233.6406 73.3125 233.3906 73.5469 233.3906 73.9375 C233.3906 74.1094 233.4531 74.3438 233.5781 74.8125 L233.7344 75.3438 L234.1094 75.3438 L234.0938 74.5312 C234.0938 74.0938 234.2031 73.9688 234.7812 73.7344 L235.2031 73.5625 C236.0312 73.2188 236.4531 72.6875 236.4531 71.8438 C236.4531 70.1562 234.6562 69.1875 233.5 69.0312 C233.1094 69.125 232.9062 69.2969 232.9062 69.6406 C232.9062 69.9375 233.0625 70.1562 233.7188 70.2656 L235.4688 70.5781 Z" style="fill:black; stroke:none;"
      /><rect x="216" y="58" width="5" style="fill:white; stroke:none;" height="10"
      /><path d="M217.8906 66.6875 C217.4844 66.6875 217.1562 67.0469 217.1562 67.4219 C217.1562 67.8125 217.4844 68.1562 217.8906 68.1562 C218.2969 68.1562 218.6406 67.8125 218.6406 67.4219 C218.6406 67.0469 218.2969 66.6875 217.8906 66.6875 ZM219.4688 60.5781 C219.7188 60.8906 219.875 61.2656 219.8906 61.6562 C219.8906 62.1875 219.625 62.5 219.0312 62.7656 L218.4062 63.0156 C217.6406 63.3125 217.3906 63.5469 217.3906 63.9375 C217.3906 64.1094 217.4531 64.3438 217.5781 64.8125 L217.7344 65.3438 L218.1094 65.3438 L218.0938 64.5312 C218.0938 64.0938 218.2031 63.9688 218.7812 63.7344 L219.2031 63.5625 C220.0312 63.2188 220.4531 62.6875 220.4531 61.8438 C220.4531 60.1562 218.6562 59.1875 217.5 59.0312 C217.1094 59.125 216.9062 59.2969 216.9062 59.6406 C216.9062 59.9375 217.0625 60.1562 217.7188 60.2656 L219.4688 60.5781 Z" style="fill:black; stroke:none;"
      /><rect x="287" y="81" width="5" style="fill:white; stroke:none;" height="10"
      /><path d="M288.8906 89.6875 C288.4844 89.6875 288.1562 90.0469 288.1562 90.4219 C288.1562 90.8125 288.4844 91.1562 288.8906 91.1562 C289.2969 91.1562 289.6406 90.8125 289.6406 90.4219 C289.6406 90.0469 289.2969 89.6875 288.8906 89.6875 ZM290.4688 83.5781 C290.7188 83.8906 290.875 84.2656 290.8906 84.6562 C290.8906 85.1875 290.625 85.5 290.0312 85.7656 L289.4062 86.0156 C288.6406 86.3125 288.3906 86.5469 288.3906 86.9375 C288.3906 87.1094 288.4531 87.3438 288.5781 87.8125 L288.7344 88.3438 L289.1094 88.3438 L289.0938 87.5312 C289.0938 87.0938 289.2031 86.9688 289.7812 86.7344 L290.2031 86.5625 C291.0312 86.2188 291.4531 85.6875 291.4531 84.8438 C291.4531 83.1562 289.6562 82.1875 288.5 82.0312 C288.1094 82.125 287.9062 82.2969 287.9062 82.6406 C287.9062 82.9375 288.0625 83.1562 288.7188 83.2656 L290.4688 83.5781 Z" style="fill:black; stroke:none;"
      /><rect x="273" y="81" width="5" style="fill:white; stroke:none;" height="10"
      /><path d="M274.8906 89.6875 C274.4844 89.6875 274.1562 90.0469 274.1562 90.4219 C274.1562 90.8125 274.4844 91.1562 274.8906 91.1562 C275.2969 91.1562 275.6406 90.8125 275.6406 90.4219 C275.6406 90.0469 275.2969 89.6875 274.8906 89.6875 ZM276.4688 83.5781 C276.7188 83.8906 276.875 84.2656 276.8906 84.6562 C276.8906 85.1875 276.625 85.5 276.0312 85.7656 L275.4062 86.0156 C274.6406 86.3125 274.3906 86.5469 274.3906 86.9375 C274.3906 87.1094 274.4531 87.3438 274.5781 87.8125 L274.7344 88.3438 L275.1094 88.3438 L275.0938 87.5312 C275.0938 87.0938 275.2031 86.9688 275.7812 86.7344 L276.2031 86.5625 C277.0312 86.2188 277.4531 85.6875 277.4531 84.8438 C277.4531 83.1562 275.6562 82.1875 274.5 82.0312 C274.1094 82.125 273.9062 82.2969 273.9062 82.6406 C273.9062 82.9375 274.0625 83.1562 274.7188 83.2656 L276.4688 83.5781 Z" style="fill:black; stroke:none;"
      /><rect x="325" y="81" width="5" style="fill:white; stroke:none;" height="10"
      /><path d="M326.8906 89.6875 C326.4844 89.6875 326.1562 90.0469 326.1562 90.4219 C326.1562 90.8125 326.4844 91.1562 326.8906 91.1562 C327.2969 91.1562 327.6406 90.8125 327.6406 90.4219 C327.6406 90.0469 327.2969 89.6875 326.8906 89.6875 ZM328.4688 83.5781 C328.7188 83.8906 328.875 84.2656 328.8906 84.6562 C328.8906 85.1875 328.625 85.5 328.0312 85.7656 L327.4062 86.0156 C326.6406 86.3125 326.3906 86.5469 326.3906 86.9375 C326.3906 87.1094 326.4531 87.3438 326.5781 87.8125 L326.7344 88.3438 L327.1094 88.3438 L327.0938 87.5312 C327.0938 87.0938 327.2031 86.9688 327.7812 86.7344 L328.2031 86.5625 C329.0312 86.2188 329.4531 85.6875 329.4531 84.8438 C329.4531 83.1562 327.6562 82.1875 326.5 82.0312 C326.1094 82.125 325.9062 82.2969 325.9062 82.6406 C325.9062 82.9375 326.0625 83.1562 326.7188 83.2656 L328.4688 83.5781 Z" style="fill:black; stroke:none;"
    /></g
  ></g
></svg
>
