<?xml version="1.0"?>
<!DOCTYPE svg PUBLIC '-//W3C//DTD SVG 1.0//EN'
          'http://www.w3.org/TR/2001/REC-SVG-20010904/DTD/svg10.dtd'>
<svg xmlns:xlink="http://www.w3.org/1999/xlink" style="fill-opacity:1; color-rendering:auto; color-interpolation:auto; text-rendering:auto; stroke:black; stroke-linecap:square; stroke-miterlimit:10; shape-rendering:auto; stroke-opacity:1; fill:black; stroke-dasharray:none; font-weight:normal; stroke-width:1; font-family:'Dialog'; font-style:normal; stroke-linejoin:miter; font-size:12px; stroke-dashoffset:0; image-rendering:auto;" viewBox="0 0 134 290" xmlns="http://www.w3.org/2000/svg"
><!--Generated by the Batik Graphics2D SVG Generator--><defs id="genericDefs"
  /><g
  ><defs id="defs1"
    ><clipPath clipPathUnits="userSpaceOnUse" id="clipPath1"
      ><path d="M52 249 C52 255.0751 47.0751 260 41 260 C34.9249 260 30 255.0751 30 249 C30 242.9249 34.9249 238 41 238 C47.0751 238 52 242.9249 52 249 Z"
      /></clipPath
      ><clipPath clipPathUnits="userSpaceOnUse" id="clipPath2"
      ><path style="fill-rule:evenodd;" d="M41 208 L30 186 L52 186 Z"
      /></clipPath
      ><clipPath clipPathUnits="userSpaceOnUse" id="clipPath3"
      ><path style="fill-rule:evenodd;" d="M41 134 L43 141 L51 141 L44 146 L47 153 L41 149 L34 153 L37 146 L30 141 L38 141 L41 134 Z"
      /></clipPath
      ><clipPath clipPathUnits="userSpaceOnUse" id="clipPath4"
      ><path style="fill-rule:evenodd;" d="M41 104 L30 82 L52 82 Z"
      /></clipPath
      ><clipPath clipPathUnits="userSpaceOnUse" id="clipPath5"
      ><path style="fill-rule:evenodd;" d="M41 30 L43 37 L51 37 L44 42 L47 49 L41 45 L34 49 L37 42 L30 37 L38 37 L41 30 Z"
      /></clipPath
    ></defs
    ><g style="fill:white; text-rendering:optimizeSpeed; stroke:white;"
    ><rect x="0" width="134" height="290" y="0" style="stroke:none;"
      /><polygon style="fill:none; stroke:black;" points=" 93 249 41 249"
      /><path d="M93 238 C87.5 243.5 98.5 254.5 93 260" style="fill:none; stroke:black;"
      /><polygon style="fill:none; stroke:black;" points=" 41 249 41 197"
      /><circle style="clip-path:url(#clipPath1); stroke:none;" r="11" cx="41" cy="249"
      /><rect x="30" y="238" width="22" style="clip-path:url(#clipPath1); fill:rgb(0,166,81); stroke:none;" height="22"
      /><rect x="30" y="238" width="22" style="clip-path:url(#clipPath1); fill:none; stroke:black;" height="22"
      /><circle style="fill:none; stroke:black;" r="11" cx="41" cy="249"
      /><polygon style="fill:none; stroke:black;" points=" 41 197 41 145"
      /><polygon style="clip-path:url(#clipPath2); stroke:none;" points=" 41 208 30 186 52 186"
      /><rect x="30" y="186" width="22" style="clip-path:url(#clipPath2); fill:rgb(237,28,36); stroke:none;" height="22"
      /><rect x="30" y="186" width="22" style="clip-path:url(#clipPath2); fill:none; stroke:black;" height="22"
      /><polygon style="fill:none; stroke:black;" points=" 41 208 30 186 52 186"
      /><polygon style="fill:none; stroke:black;" points=" 41 145 41 93"
      /><polygon style="clip-path:url(#clipPath3); stroke:none;" points=" 41 134 43 141 51 141 44 146 47 153 41 149 34 153 37 146 30 141 38 141 41 134"
      /><rect x="30" y="134" width="22" style="clip-path:url(#clipPath3); fill:rgb(255,212,0); stroke:none;" height="22"
      /><rect x="30" y="134" width="22" style="clip-path:url(#clipPath3); fill:none; stroke:black;" height="22"
      /><polygon style="fill:none; stroke:black;" points=" 41 134 43 141 51 141 44 146 47 153 41 149 34 153 37 146 30 141 38 141 41 134"
      /><polygon style="fill:none; stroke:black;" points=" 41 93 41 41"
      /><polygon style="clip-path:url(#clipPath4); stroke:none;" points=" 41 104 30 82 52 82"
      /><rect x="30" y="82" width="22" style="clip-path:url(#clipPath4); fill:rgb(237,28,36); stroke:none;" height="22"
      /><rect x="30" y="82" width="22" style="clip-path:url(#clipPath4); fill:none; stroke:black;" height="22"
      /><polygon style="fill:none; stroke:black;" points=" 41 104 30 82 52 82"
      /><polygon style="clip-path:url(#clipPath5); stroke:none;" points=" 41 30 43 37 51 37 44 42 47 49 41 45 34 49 37 42 30 37 38 37 41 30"
      /><rect x="30" y="30" width="22" style="clip-path:url(#clipPath5); fill:rgb(255,212,0); stroke:none;" height="22"
      /><rect x="30" y="30" width="22" style="clip-path:url(#clipPath5); fill:none; stroke:black;" height="22"
      /><polygon style="fill:none; stroke:black;" points=" 41 30 43 37 51 37 44 42 47 49 41 45 34 49 37 42 30 37 38 37 41 30"
      /><rect x="30" y="69" width="5" style="stroke:none;" height="10"
    /></g
    ><g style="font-family:'Serif'; text-rendering:optimizeSpeed; "
    ><path style="stroke:none;" d="M31.8906 77.6875 C31.4844 77.6875 31.1562 78.0469 31.1562 78.4219 C31.1562 78.8125 31.4844 79.1562 31.8906 79.1562 C32.2969 79.1562 32.6406 78.8125 32.6406 78.4219 C32.6406 78.0469 32.2969 77.6875 31.8906 77.6875 ZM33.4688 71.5781 C33.7188 71.8906 33.875 72.2656 33.8906 72.6562 C33.8906 73.1875 33.625 73.5 33.0312 73.7656 L32.4062 74.0156 C31.6406 74.3125 31.3906 74.5469 31.3906 74.9375 C31.3906 75.1094 31.4531 75.3438 31.5781 75.8125 L31.7344 76.3438 L32.1094 76.3438 L32.0938 75.5312 C32.0938 75.0938 32.2031 74.9688 32.7812 74.7344 L33.2031 74.5625 C34.0312 74.2188 34.4531 73.6875 34.4531 72.8438 C34.4531 71.1562 32.6562 70.1875 31.5 70.0312 C31.1094 70.125 30.9062 70.2969 30.9062 70.6406 C30.9062 70.9375 31.0625 71.1562 31.7188 71.2656 L33.4688 71.5781 Z"
      /><rect x="30" y="55" width="5" style="fill:white; stroke:none;" height="10"
      /><path style="stroke:none;" d="M31.8906 63.6875 C31.4844 63.6875 31.1562 64.0469 31.1562 64.4219 C31.1562 64.8125 31.4844 65.1562 31.8906 65.1562 C32.2969 65.1562 32.6406 64.8125 32.6406 64.4219 C32.6406 64.0469 32.2969 63.6875 31.8906 63.6875 ZM33.4688 57.5781 C33.7188 57.8906 33.875 58.2656 33.8906 58.6562 C33.8906 59.1875 33.625 59.5 33.0312 59.7656 L32.4062 60.0156 C31.6406 60.3125 31.3906 60.5469 31.3906 60.9375 C31.3906 61.1094 31.4531 61.3438 31.5781 61.8125 L31.7344 62.3438 L32.1094 62.3438 L32.0938 61.5312 C32.0938 61.0938 32.2031 60.9688 32.7812 60.7344 L33.2031 60.5625 C34.0312 60.2188 34.4531 59.6875 34.4531 58.8438 C34.4531 57.1562 32.6562 56.1875 31.5 56.0312 C31.1094 56.125 30.9062 56.2969 30.9062 56.6406 C30.9062 56.9375 31.0625 57.1562 31.7188 57.2656 L33.4688 57.5781 Z"
      /><rect x="30" y="121" width="5" style="fill:white; stroke:none;" height="10"
      /><path style="stroke:none;" d="M31.8906 129.6875 C31.4844 129.6875 31.1562 130.0469 31.1562 130.4219 C31.1562 130.8125 31.4844 131.1562 31.8906 131.1562 C32.2969 131.1562 32.6406 130.8125 32.6406 130.4219 C32.6406 130.0469 32.2969 129.6875 31.8906 129.6875 ZM33.4688 123.5781 C33.7188 123.8906 33.875 124.2656 33.8906 124.6562 C33.8906 125.1875 33.625 125.5 33.0312 125.7656 L32.4062 126.0156 C31.6406 126.3125 31.3906 126.5469 31.3906 126.9375 C31.3906 127.1094 31.4531 127.3438 31.5781 127.8125 L31.7344 128.3438 L32.1094 128.3438 L32.0938 127.5312 C32.0938 127.0938 32.2031 126.9688 32.7812 126.7344 L33.2031 126.5625 C34.0312 126.2188 34.4531 125.6875 34.4531 124.8438 C34.4531 123.1562 32.6562 122.1875 31.5 122.0312 C31.1094 122.125 30.9062 122.2969 30.9062 122.6406 C30.9062 122.9375 31.0625 123.1562 31.7188 123.2656 L33.4688 123.5781 Z"
      /><rect x="30" y="107" width="5" style="fill:white; stroke:none;" height="10"
      /><path style="stroke:none;" d="M31.8906 115.6875 C31.4844 115.6875 31.1562 116.0469 31.1562 116.4219 C31.1562 116.8125 31.4844 117.1562 31.8906 117.1562 C32.2969 117.1562 32.6406 116.8125 32.6406 116.4219 C32.6406 116.0469 32.2969 115.6875 31.8906 115.6875 ZM33.4688 109.5781 C33.7188 109.8906 33.875 110.2656 33.8906 110.6562 C33.8906 111.1875 33.625 111.5 33.0312 111.7656 L32.4062 112.0156 C31.6406 112.3125 31.3906 112.5469 31.3906 112.9375 C31.3906 113.1094 31.4531 113.3438 31.5781 113.8125 L31.7344 114.3438 L32.1094 114.3438 L32.0938 113.5312 C32.0938 113.0938 32.2031 112.9688 32.7812 112.7344 L33.2031 112.5625 C34.0312 112.2188 34.4531 111.6875 34.4531 110.8438 C34.4531 109.1562 32.6562 108.1875 31.5 108.0312 C31.1094 108.125 30.9062 108.2969 30.9062 108.6406 C30.9062 108.9375 31.0625 109.1562 31.7188 109.2656 L33.4688 109.5781 Z"
      /><rect x="30" y="173" width="5" style="fill:white; stroke:none;" height="10"
      /><path style="stroke:none;" d="M31.8906 181.6875 C31.4844 181.6875 31.1562 182.0469 31.1562 182.4219 C31.1562 182.8125 31.4844 183.1562 31.8906 183.1562 C32.2969 183.1562 32.6406 182.8125 32.6406 182.4219 C32.6406 182.0469 32.2969 181.6875 31.8906 181.6875 ZM33.4688 175.5781 C33.7188 175.8906 33.875 176.2656 33.8906 176.6562 C33.8906 177.1875 33.625 177.5 33.0312 177.7656 L32.4062 178.0156 C31.6406 178.3125 31.3906 178.5469 31.3906 178.9375 C31.3906 179.1094 31.4531 179.3438 31.5781 179.8125 L31.7344 180.3438 L32.1094 180.3438 L32.0938 179.5312 C32.0938 179.0938 32.2031 178.9688 32.7812 178.7344 L33.2031 178.5625 C34.0312 178.2188 34.4531 177.6875 34.4531 176.8438 C34.4531 175.1562 32.6562 174.1875 31.5 174.0312 C31.1094 174.125 30.9062 174.2969 30.9062 174.6406 C30.9062 174.9375 31.0625 175.1562 31.7188 175.2656 L33.4688 175.5781 Z"
      /><rect x="30" y="159" width="5" style="fill:white; stroke:none;" height="10"
      /><path style="stroke:none;" d="M31.8906 167.6875 C31.4844 167.6875 31.1562 168.0469 31.1562 168.4219 C31.1562 168.8125 31.4844 169.1562 31.8906 169.1562 C32.2969 169.1562 32.6406 168.8125 32.6406 168.4219 C32.6406 168.0469 32.2969 167.6875 31.8906 167.6875 ZM33.4688 161.5781 C33.7188 161.8906 33.875 162.2656 33.8906 162.6562 C33.8906 163.1875 33.625 163.5 33.0312 163.7656 L32.4062 164.0156 C31.6406 164.3125 31.3906 164.5469 31.3906 164.9375 C31.3906 165.1094 31.4531 165.3438 31.5781 165.8125 L31.7344 166.3438 L32.1094 166.3438 L32.0938 165.5312 C32.0938 165.0938 32.2031 164.9688 32.7812 164.7344 L33.2031 164.5625 C34.0312 164.2188 34.4531 163.6875 34.4531 162.8438 C34.4531 161.1562 32.6562 160.1875 31.5 160.0312 C31.1094 160.125 30.9062 160.2969 30.9062 160.6406 C30.9062 160.9375 31.0625 161.1562 31.7188 161.2656 L33.4688 161.5781 Z"
      /><rect x="30" y="225" width="5" style="fill:white; stroke:none;" height="10"
      /><path style="stroke:none;" d="M31.8906 233.6875 C31.4844 233.6875 31.1562 234.0469 31.1562 234.4219 C31.1562 234.8125 31.4844 235.1562 31.8906 235.1562 C32.2969 235.1562 32.6406 234.8125 32.6406 234.4219 C32.6406 234.0469 32.2969 233.6875 31.8906 233.6875 ZM33.4688 227.5781 C33.7188 227.8906 33.875 228.2656 33.8906 228.6562 C33.8906 229.1875 33.625 229.5 33.0312 229.7656 L32.4062 230.0156 C31.6406 230.3125 31.3906 230.5469 31.3906 230.9375 C31.3906 231.1094 31.4531 231.3438 31.5781 231.8125 L31.7344 232.3438 L32.1094 232.3438 L32.0938 231.5312 C32.0938 231.0938 32.2031 230.9688 32.7812 230.7344 L33.2031 230.5625 C34.0312 230.2188 34.4531 229.6875 34.4531 228.8438 C34.4531 227.1562 32.6562 226.1875 31.5 226.0312 C31.1094 226.125 30.9062 226.2969 30.9062 226.6406 C30.9062 226.9375 31.0625 227.1562 31.7188 227.2656 L33.4688 227.5781 Z"
      /><rect x="30" y="211" width="5" style="fill:white; stroke:none;" height="10"
      /><path style="stroke:none;" d="M31.8906 219.6875 C31.4844 219.6875 31.1562 220.0469 31.1562 220.4219 C31.1562 220.8125 31.4844 221.1562 31.8906 221.1562 C32.2969 221.1562 32.6406 220.8125 32.6406 220.4219 C32.6406 220.0469 32.2969 219.6875 31.8906 219.6875 ZM33.4688 213.5781 C33.7188 213.8906 33.875 214.2656 33.8906 214.6562 C33.8906 215.1875 33.625 215.5 33.0312 215.7656 L32.4062 216.0156 C31.6406 216.3125 31.3906 216.5469 31.3906 216.9375 C31.3906 217.1094 31.4531 217.3438 31.5781 217.8125 L31.7344 218.3438 L32.1094 218.3438 L32.0938 217.5312 C32.0938 217.0938 32.2031 216.9688 32.7812 216.7344 L33.2031 216.5625 C34.0312 216.2188 34.4531 215.6875 34.4531 214.8438 C34.4531 213.1562 32.6562 212.1875 31.5 212.0312 C31.1094 212.125 30.9062 212.2969 30.9062 212.6406 C30.9062 212.9375 31.0625 213.1562 31.7188 213.2656 L33.4688 213.5781 Z"
      /><rect x="57" y="252" width="5" style="fill:white; stroke:none;" height="10"
      /><path style="stroke:none;" d="M58.8906 260.6875 C58.4844 260.6875 58.1562 261.0469 58.1562 261.4219 C58.1562 261.8125 58.4844 262.1562 58.8906 262.1562 C59.2969 262.1562 59.6406 261.8125 59.6406 261.4219 C59.6406 261.0469 59.2969 260.6875 58.8906 260.6875 ZM60.4688 254.5781 C60.7188 254.8906 60.875 255.2656 60.8906 255.6562 C60.8906 256.1875 60.625 256.5 60.0312 256.7656 L59.4062 257.0156 C58.6406 257.3125 58.3906 257.5469 58.3906 257.9375 C58.3906 258.1094 58.4531 258.3438 58.5781 258.8125 L58.7344 259.3438 L59.1094 259.3438 L59.0938 258.5312 C59.0938 258.0938 59.2031 257.9688 59.7812 257.7344 L60.2031 257.5625 C61.0312 257.2188 61.4531 256.6875 61.4531 255.8438 C61.4531 254.1562 59.6562 253.1875 58.5 253.0312 C58.1094 253.125 57.9062 253.2969 57.9062 253.6406 C57.9062 253.9375 58.0625 254.1562 58.7188 254.2656 L60.4688 254.5781 Z"
    /></g
  ></g
></svg
>
