<?xml version="1.0"?>
<!DOCTYPE svg PUBLIC '-//W3C//DTD SVG 1.0//EN'
          'http://www.w3.org/TR/2001/REC-SVG-20010904/DTD/svg10.dtd'>
<svg xmlns:xlink="http://www.w3.org/1999/xlink" style="fill-opacity:1; color-rendering:auto; color-interpolation:auto; text-rendering:auto; stroke:black; stroke-linecap:square; stroke-miterlimit:10; shape-rendering:auto; stroke-opacity:1; fill:black; stroke-dasharray:none; font-weight:normal; stroke-width:1; font-family:'Dialog'; font-style:normal; stroke-linejoin:miter; font-size:12px; stroke-dashoffset:0; image-rendering:auto;" viewBox="0 0 191 128" xmlns="http://www.w3.org/2000/svg"
><!--Generated by the Batik Graphics2D SVG Generator--><defs id="genericDefs"
  /><g
  ><defs id="defs1"
    ><clipPath clipPathUnits="userSpaceOnUse" id="clipPath1"
      ><path d="M109 64 C109 70.0751 104.0751 75 98 75 C91.9249 75 87 70.0751 87 64 C87 57.9249 91.9249 53 98 53 C104.0751 53 109 57.9249 109 64 Z"
      /></clipPath
      ><clipPath clipPathUnits="userSpaceOnUse" id="clipPath2"
      ><path d="M54 64 C54 70.0751 49.0751 75 43 75 C36.9249 75 32 70.0751 32 64 C32 57.9249 36.9249 53 43 53 C49.0751 53 54 57.9249 54 64 Z"
      /></clipPath
    ></defs
    ><g style="fill:white; text-rendering:optimizeSpeed; stroke:white;"
    ><rect x="0" width="191" height="128" y="0" style="stroke:none;"
      /><polygon style="fill:none; stroke:black;" points=" 150 64 98 64"
      /><path d="M150 53 C144.5 58.5 155.5 69.5 150 75" style="fill:none; stroke:black;"
      /><polygon style="fill:none; stroke:black;" points=" 98 64 43 64"
      /><circle style="clip-path:url(#clipPath1); stroke:none;" r="11" cx="98" cy="64"
      /><rect x="87" y="53" width="22" style="clip-path:url(#clipPath1); fill:rgb(0,144,188); stroke:none;" height="22"
      /><rect x="87" y="53" width="22" style="clip-path:url(#clipPath1); fill:none; stroke:black;" height="22"
      /><circle style="fill:none; stroke:black;" r="11" cx="98" cy="64"
      /><circle style="clip-path:url(#clipPath2); stroke:none;" r="11" cx="43" cy="64"
      /><rect x="32" y="53" width="22" style="clip-path:url(#clipPath2); fill:rgb(255,212,0); stroke:none;" height="22"
      /><rect x="32" y="53" width="22" style="clip-path:url(#clipPath2); fill:none; stroke:black;" height="22"
      /><circle style="fill:none; stroke:black;" r="11" cx="43" cy="64"
      /><rect x="30" y="81" width="25" style="stroke:none;" height="10"
    /></g
    ><g style="text-rendering:optimizeSpeed; font-size:14px; font-family:'SansSerif';"
    ><path style="stroke:none;" d="M30.6094 92 L37.0625 92 L37.0625 90.8906 L34.2344 90.8906 C33.7031 90.8906 33.0781 90.9531 32.5469 90.9844 C34.9531 88.7031 36.5625 86.625 36.5625 84.5781 C36.5625 82.75 35.4219 81.5469 33.5781 81.5469 C32.2812 81.5469 31.4062 82.1406 30.5625 83.0469 L31.2969 83.7812 C31.8594 83.1094 32.5938 82.5938 33.4375 82.5938 C34.7031 82.5938 35.3125 83.4531 35.3125 84.625 C35.3125 86.3906 33.8438 88.4375 30.6094 91.25 L30.6094 92 ZM39.1762 92 L40.3481 92 L40.3481 86.3125 C40.3481 85.4375 40.2543 84.1875 40.1918 83.2969 L40.2543 83.2969 L41.0668 85.625 L43.0043 90.9688 L43.8793 90.9688 L45.8168 85.625 L46.6293 83.2969 L46.6918 83.2969 C46.6137 84.1875 46.52 85.4375 46.52 86.3125 L46.52 92 L47.7387 92 L47.7387 81.7188 L46.1762 81.7188 L44.2075 87.2188 C43.9731 87.9375 43.7543 88.6562 43.5043 89.375 L43.4418 89.375 C43.1918 88.6562 42.9575 87.9375 42.7075 87.2188 L40.7387 81.7188 L39.1762 81.7188 L39.1762 92 ZM53.4973 92.1875 C54.5285 92.1875 55.341 91.8281 56.0129 91.3906 L55.5442 90.5625 C54.9973 90.9375 54.3879 91.1562 53.6535 91.1562 C52.2004 91.1562 51.216 90.125 51.1223 88.5 L56.2473 88.5 C56.2785 88.3125 56.3098 88.0469 56.3098 87.7656 C56.3098 85.6094 55.216 84.2031 53.2785 84.2031 C51.5129 84.2031 49.8567 85.7344 49.8567 88.2031 C49.8567 90.7188 51.4817 92.1875 53.4973 92.1875 ZM51.1067 87.5781 C51.2629 86.0938 52.216 85.2188 53.2942 85.2188 C54.4817 85.2188 55.1848 86.0469 55.1848 87.5781 L51.1067 87.5781 Z"
      /><rect x="30" y="35" width="25" style="fill:white; stroke:none;" height="10"
      /><path style="stroke:none;" d="M34.1094 40.5781 C35.3438 40.5781 35.9688 41.4688 35.9688 42.8438 C35.9688 44.25 35.1875 45.1875 34.2188 45.1875 C32.9219 45.1875 32.1562 44.0312 32 41.8906 C32.625 40.9531 33.4531 40.5781 34.1094 40.5781 ZM34.2188 46.1875 C35.8125 46.1875 37.1562 44.8438 37.1562 42.8438 C37.1562 40.7031 36.0469 39.625 34.3125 39.625 C33.5 39.625 32.6094 40.1094 31.9688 40.875 C32.0312 37.6875 33.2188 36.6094 34.625 36.6094 C35.25 36.6094 35.8594 36.9062 36.2656 37.3906 L36.9688 36.5938 C36.4062 35.9844 35.6406 35.5469 34.5781 35.5469 C32.5938 35.5469 30.7812 37.0781 30.7812 41.0938 C30.7812 44.4844 32.2344 46.1875 34.2188 46.1875 ZM39.1762 46 L40.3481 46 L40.3481 40.3125 C40.3481 39.4375 40.2543 38.1875 40.1918 37.2969 L40.2543 37.2969 L41.0668 39.625 L43.0043 44.9688 L43.8793 44.9688 L45.8168 39.625 L46.6293 37.2969 L46.6918 37.2969 C46.6137 38.1875 46.52 39.4375 46.52 40.3125 L46.52 46 L47.7387 46 L47.7387 35.7188 L46.1762 35.7188 L44.2075 41.2188 C43.9731 41.9375 43.7543 42.6562 43.5043 43.375 L43.4418 43.375 C43.1918 42.6562 42.9575 41.9375 42.7075 41.2188 L40.7387 35.7188 L39.1762 35.7188 L39.1762 46 ZM53.4973 46.1875 C54.5285 46.1875 55.341 45.8281 56.0129 45.3906 L55.5442 44.5625 C54.9973 44.9375 54.3879 45.1562 53.6535 45.1562 C52.2004 45.1562 51.216 44.125 51.1223 42.5 L56.2473 42.5 C56.2785 42.3125 56.3098 42.0469 56.3098 41.7656 C56.3098 39.6094 55.216 38.2031 53.2785 38.2031 C51.5129 38.2031 49.8567 39.7344 49.8567 42.2031 C49.8567 44.7188 51.4817 46.1875 53.4973 46.1875 ZM51.1067 41.5781 C51.2629 40.0938 52.216 39.2188 53.2942 39.2188 C54.4817 39.2188 55.1848 40.0469 55.1848 41.5781 L51.1067 41.5781 Z"
    /></g
    ><g style="fill:white; text-rendering:optimizeSpeed; font-family:'Serif'; stroke:white;"
    ><rect x="75" width="7" height="9" y="67" style="stroke:none;"
      /><path d="M76 72.5156 L78.9531 68.2656 L78.9531 72.5156 L76 72.5156 ZM81.2812 72.5156 L79.8594 72.5156 L79.8594 67.125 L79.2344 67.125 L75.3438 72.6406 L75.3438 73.1875 L78.9531 73.1875 L78.9531 76 L79.8594 76 L79.8594 73.1875 L81.2812 73.1875 L81.2812 72.5156 Z" style="fill:black; stroke:none;"
      /><rect x="62" width="6" height="13" y="65" style="stroke:none;"
      /><path d="M64.0938 71.2031 C64.0938 69.6562 64.75 68.8125 65.7969 68.8125 C66.7188 68.8125 67.2656 69.4531 67.2656 70.5156 C67.2656 71.7188 66.5 72.4375 65.1875 72.7031 L65.2969 73.3125 C67.2188 73.2344 67.9375 74.2188 67.9375 75.4375 C67.9375 76.625 67.2344 77.4219 65.9531 77.4219 C65.25 77.4219 64.6562 77.1562 64.0938 76.7188 L64.0938 71.2031 ZM63.2031 77.9062 L63.1094 80.375 L63.2656 80.4844 L64.1562 80.2656 L64.0156 77.0938 C64.5469 77.8438 65.3594 78.1719 66.1719 78.1719 C67.5625 78.1719 68.8594 77.2188 68.8594 75.4844 C68.8594 73.9531 67.875 73.1094 66.125 73 C67.5625 72.6094 68.1875 71.4531 68.1875 70.4844 C68.1875 69.0938 67.1562 68.3125 65.9062 68.3125 C64.2969 68.3125 63.2188 69.5469 63.2188 71.5156 L63.2031 77.9062 Z" style="fill:black; stroke:none;"
      /><rect x="114" width="5" height="10" y="67" style="stroke:none;"
      /><path d="M115.8906 75.6875 C115.4844 75.6875 115.1562 76.0469 115.1562 76.4219 C115.1562 76.8125 115.4844 77.1562 115.8906 77.1562 C116.2969 77.1562 116.6406 76.8125 116.6406 76.4219 C116.6406 76.0469 116.2969 75.6875 115.8906 75.6875 ZM117.4688 69.5781 C117.7188 69.8906 117.875 70.2656 117.8906 70.6562 C117.8906 71.1875 117.625 71.5 117.0312 71.7656 L116.4062 72.0156 C115.6406 72.3125 115.3906 72.5469 115.3906 72.9375 C115.3906 73.1094 115.4531 73.3438 115.5781 73.8125 L115.7344 74.3438 L116.1094 74.3438 L116.0938 73.5312 C116.0938 73.0938 116.2031 72.9688 116.7812 72.7344 L117.2031 72.5625 C118.0312 72.2188 118.4531 71.6875 118.4531 70.8438 C118.4531 69.1562 116.6562 68.1875 115.5 68.0312 C115.1094 68.125 114.9062 68.2969 114.9062 68.6406 C114.9062 68.9375 115.0625 69.1562 115.7188 69.2656 L117.4688 69.5781 Z" style="fill:black; stroke:none;"
    /></g
  ></g
></svg
>
