<?xml version="1.0"?>
<!DOCTYPE svg PUBLIC '-//W3C//DTD SVG 1.0//EN'
          'http://www.w3.org/TR/2001/REC-SVG-20010904/DTD/svg10.dtd'>
<svg xmlns:xlink="http://www.w3.org/1999/xlink" style="fill-opacity:1; color-rendering:auto; color-interpolation:auto; text-rendering:auto; stroke:black; stroke-linecap:square; stroke-miterlimit:10; shape-rendering:auto; stroke-opacity:1; fill:black; stroke-dasharray:none; font-weight:normal; stroke-width:1; font-family:'Dialog'; font-style:normal; stroke-linejoin:miter; font-size:12px; stroke-dashoffset:0; image-rendering:auto;" viewBox="0 0 173 157" xmlns="http://www.w3.org/2000/svg"
><!--Generated by the Batik Graphics2D SVG Generator--><defs id="genericDefs"
  /><g
  ><defs id="defs1"
    ><clipPath clipPathUnits="userSpaceOnUse" id="clipPath1"
      ><path d="M77 93 C77 99.0751 72.0751 104 66 104 C59.9249 104 55 99.0751 55 93 C55 86.9249 59.9249 82 66 82 C72.0751 82 77 86.9249 77 93 Z"
      /></clipPath
      ><clipPath clipPathUnits="userSpaceOnUse" id="clipPath2"
      ><path style="fill-rule:evenodd;" d="M66 30 L68 37 L76 37 L69 42 L72 49 L66 45 L59 49 L62 42 L55 37 L63 37 L66 30 Z"
      /></clipPath
    ></defs
    ><g style="fill:white; text-rendering:optimizeSpeed; stroke:white;"
    ><rect x="0" width="173" height="157" y="0" style="stroke:none;"
      /><polygon style="fill:none; stroke:black;" points=" 132 93 66 93"
      /><path d="M132 82 C126.5 87.5 137.5 98.5 132 104" style="fill:none; stroke:black;"
      /><polygon style="fill:none; stroke:black;" points=" 66 93 66 41"
      /><circle style="clip-path:url(#clipPath1); stroke:none;" r="11" cx="66" cy="93"
      /><rect x="55" y="82" width="22" style="clip-path:url(#clipPath1); fill:rgb(165,67,153); stroke:none;" height="22"
      /><rect x="55" y="82" width="22" style="clip-path:url(#clipPath1); fill:none; stroke:black;" height="22"
      /><circle style="fill:none; stroke:black;" r="11" cx="66" cy="93"
      /><rect x="67" y="110" width="22" style="stroke:none;" height="10"
    /></g
    ><g style="text-rendering:optimizeSpeed; font-size:14px; font-family:'SansSerif';"
    ><path style="stroke:none;" d="M67.6094 121 L74.0625 121 L74.0625 119.8906 L71.2344 119.8906 C70.7031 119.8906 70.0781 119.9531 69.5469 119.9844 C71.9531 117.7031 73.5625 115.625 73.5625 113.5781 C73.5625 111.75 72.4219 110.5469 70.5781 110.5469 C69.2812 110.5469 68.4062 111.1406 67.5625 112.0469 L68.2969 112.7812 C68.8594 112.1094 69.5938 111.5938 70.4375 111.5938 C71.7031 111.5938 72.3125 112.4531 72.3125 113.625 C72.3125 115.3906 70.8438 117.4375 67.6094 120.25 L67.6094 121 ZM77.9418 115.2656 C78.3168 114.0938 78.645 112.9844 78.9731 111.7812 L79.02 111.7812 C79.3637 112.9844 79.6762 114.0938 80.0668 115.2656 L80.5512 116.8281 L77.4418 116.8281 L77.9418 115.2656 ZM74.8168 121 L76.1293 121 L77.1293 117.8594 L80.8793 117.8594 L81.8481 121 L83.2231 121 L79.7387 110.7188 L78.3012 110.7188 L74.8168 121 ZM87.5492 121.1875 C88.4554 121.1875 89.3304 120.8281 90.0179 120.2188 L89.4554 119.3594 C88.9867 119.7969 88.3617 120.125 87.6586 120.125 C86.2679 120.125 85.3148 118.9531 85.3148 117.2031 C85.3148 115.4531 86.3148 114.2656 87.7054 114.2656 C88.3148 114.2656 88.7679 114.5469 89.2211 114.9375 L89.8773 114.0938 C89.3304 113.625 88.6429 113.2031 87.6429 113.2031 C85.7054 113.2031 83.9867 114.6719 83.9867 117.2031 C83.9867 119.7188 85.5336 121.1875 87.5492 121.1875 Z"
      /><rect x="42" y="110" width="22" style="fill:white; stroke:none;" height="10"
      /><path style="stroke:none;" d="M45.7031 121.1875 C47.5156 121.1875 48.9844 120.0938 48.9844 118.25 C48.9844 116.8594 48.0156 115.9375 46.8125 115.6562 L46.8125 115.5938 C47.8906 115.1875 48.6406 114.3594 48.6406 113.125 C48.6406 111.5 47.375 110.5469 45.6562 110.5469 C44.4688 110.5469 43.5469 111.0625 42.7812 111.7812 L43.4688 112.5938 C44.0469 112 44.7656 111.5938 45.5938 111.5938 C46.6562 111.5938 47.3281 112.2344 47.3281 113.2188 C47.3281 114.3281 46.6094 115.1719 44.4844 115.1719 L44.4844 116.1562 C46.8594 116.1562 47.6875 116.9844 47.6875 118.2031 C47.6875 119.3906 46.8125 120.125 45.5938 120.125 C44.4375 120.125 43.6562 119.5781 43.0469 118.9375 L42.4062 119.7812 C43.0781 120.5156 44.0938 121.1875 45.7031 121.1875 ZM52.9418 115.2656 C53.3168 114.0938 53.645 112.9844 53.9731 111.7812 L54.02 111.7812 C54.3637 112.9844 54.6762 114.0938 55.0668 115.2656 L55.5512 116.8281 L52.4418 116.8281 L52.9418 115.2656 ZM49.8168 121 L51.1293 121 L52.1293 117.8594 L55.8793 117.8594 L56.8481 121 L58.2231 121 L54.7387 110.7188 L53.3012 110.7188 L49.8168 121 ZM62.5492 121.1875 C63.4554 121.1875 64.3304 120.8281 65.0179 120.2188 L64.4554 119.3594 C63.9867 119.7969 63.3617 120.125 62.6586 120.125 C61.2679 120.125 60.3148 118.9531 60.3148 117.2031 C60.3148 115.4531 61.3148 114.2656 62.7054 114.2656 C63.3148 114.2656 63.7679 114.5469 64.2211 114.9375 L64.8773 114.0938 C64.3304 113.625 63.6429 113.2031 62.6429 113.2031 C60.7054 113.2031 58.9867 114.6719 58.9867 117.2031 C58.9867 119.7188 60.5336 121.1875 62.5492 121.1875 Z"
    /></g
    ><g style="fill:white; text-rendering:optimizeSpeed; stroke:white;"
    ><polygon style="stroke:none; clip-path:url(#clipPath2);" points=" 66 30 68 37 76 37 69 42 72 49 66 45 59 49 62 42 55 37 63 37 66 30"
      /><rect x="55" y="30" width="22" style="clip-path:url(#clipPath2); fill:rgb(244,121,32); stroke:none;" height="22"
      /><rect x="55" y="30" width="22" style="clip-path:url(#clipPath2); fill:none; stroke:black;" height="22"
      /><polygon style="fill:none; stroke:black;" points=" 66 30 68 37 76 37 69 42 72 49 66 45 59 49 62 42 55 37 63 37 66 30"
      /><rect x="30" width="22" height="10" y="35" style="stroke:none;"
    /></g
    ><g style="text-rendering:optimizeSpeed; font-size:14px; font-family:'SansSerif';"
    ><path style="stroke:none;" d="M30.6094 46 L37.0625 46 L37.0625 44.8906 L34.2344 44.8906 C33.7031 44.8906 33.0781 44.9531 32.5469 44.9844 C34.9531 42.7031 36.5625 40.625 36.5625 38.5781 C36.5625 36.75 35.4219 35.5469 33.5781 35.5469 C32.2812 35.5469 31.4062 36.1406 30.5625 37.0469 L31.2969 37.7812 C31.8594 37.1094 32.5938 36.5938 33.4375 36.5938 C34.7031 36.5938 35.3125 37.4531 35.3125 38.625 C35.3125 40.3906 33.8438 42.4375 30.6094 45.25 L30.6094 46 ZM40.9418 40.2656 C41.3168 39.0938 41.645 37.9844 41.9731 36.7812 L42.02 36.7812 C42.3637 37.9844 42.6762 39.0938 43.0668 40.2656 L43.5512 41.8281 L40.4418 41.8281 L40.9418 40.2656 ZM37.8168 46 L39.1293 46 L40.1293 42.8594 L43.8793 42.8594 L44.8481 46 L46.2231 46 L42.7387 35.7188 L41.3012 35.7188 L37.8168 46 ZM50.5492 46.1875 C51.4554 46.1875 52.3304 45.8281 53.0179 45.2188 L52.4554 44.3594 C51.9867 44.7969 51.3617 45.125 50.6586 45.125 C49.2679 45.125 48.3148 43.9531 48.3148 42.2031 C48.3148 40.4531 49.3148 39.2656 50.7054 39.2656 C51.3148 39.2656 51.7679 39.5469 52.2211 39.9375 L52.8773 39.0938 C52.3304 38.625 51.6429 38.2031 50.6429 38.2031 C48.7054 38.2031 46.9867 39.6719 46.9867 42.2031 C46.9867 44.7188 48.5336 46.1875 50.5492 46.1875 Z"
    /></g
    ><g style="fill:white; text-rendering:optimizeSpeed; font-family:'Serif'; stroke:white;"
    ><rect x="55" width="5" height="10" y="69" style="stroke:none;"
      /><path d="M56.8906 77.6875 C56.4844 77.6875 56.1562 78.0469 56.1562 78.4219 C56.1562 78.8125 56.4844 79.1562 56.8906 79.1562 C57.2969 79.1562 57.6406 78.8125 57.6406 78.4219 C57.6406 78.0469 57.2969 77.6875 56.8906 77.6875 ZM58.4688 71.5781 C58.7188 71.8906 58.875 72.2656 58.8906 72.6562 C58.8906 73.1875 58.625 73.5 58.0312 73.7656 L57.4062 74.0156 C56.6406 74.3125 56.3906 74.5469 56.3906 74.9375 C56.3906 75.1094 56.4531 75.3438 56.5781 75.8125 L56.7344 76.3438 L57.1094 76.3438 L57.0938 75.5312 C57.0938 75.0938 57.2031 74.9688 57.7812 74.7344 L58.2031 74.5625 C59.0312 74.2188 59.4531 73.6875 59.4531 72.8438 C59.4531 71.1562 57.6562 70.1875 56.5 70.0312 C56.1094 70.125 55.9062 70.2969 55.9062 70.6406 C55.9062 70.9375 56.0625 71.1562 56.7188 71.2656 L58.4688 71.5781 Z" style="fill:black; stroke:none;"
      /><rect x="55" width="5" height="10" y="55" style="stroke:none;"
      /><path d="M56.8906 63.6875 C56.4844 63.6875 56.1562 64.0469 56.1562 64.4219 C56.1562 64.8125 56.4844 65.1562 56.8906 65.1562 C57.2969 65.1562 57.6406 64.8125 57.6406 64.4219 C57.6406 64.0469 57.2969 63.6875 56.8906 63.6875 ZM58.4688 57.5781 C58.7188 57.8906 58.875 58.2656 58.8906 58.6562 C58.8906 59.1875 58.625 59.5 58.0312 59.7656 L57.4062 60.0156 C56.6406 60.3125 56.3906 60.5469 56.3906 60.9375 C56.3906 61.1094 56.4531 61.3438 56.5781 61.8125 L56.7344 62.3438 L57.1094 62.3438 L57.0938 61.5312 C57.0938 61.0938 57.2031 60.9688 57.7812 60.7344 L58.2031 60.5625 C59.0312 60.2188 59.4531 59.6875 59.4531 58.8438 C59.4531 57.1562 57.6562 56.1875 56.5 56.0312 C56.1094 56.125 55.9062 56.2969 55.9062 56.6406 C55.9062 56.9375 56.0625 57.1562 56.7188 57.2656 L58.4688 57.5781 Z" style="fill:black; stroke:none;"
      /><rect x="96" width="5" height="10" y="96" style="stroke:none;"
      /><path d="M97.8906 104.6875 C97.4844 104.6875 97.1562 105.0469 97.1562 105.4219 C97.1562 105.8125 97.4844 106.1562 97.8906 106.1562 C98.2969 106.1562 98.6406 105.8125 98.6406 105.4219 C98.6406 105.0469 98.2969 104.6875 97.8906 104.6875 ZM99.4688 98.5781 C99.7188 98.8906 99.875 99.2656 99.8906 99.6562 C99.8906 100.1875 99.625 100.5 99.0312 100.7656 L98.4062 101.0156 C97.6406 101.3125 97.3906 101.5469 97.3906 101.9375 C97.3906 102.1094 97.4531 102.3438 97.5781 102.8125 L97.7344 103.3438 L98.1094 103.3438 L98.0938 102.5312 C98.0938 102.0938 98.2031 101.9688 98.7812 101.7344 L99.2031 101.5625 C100.0312 101.2188 100.4531 100.6875 100.4531 99.8438 C100.4531 98.1562 98.6562 97.1875 97.5 97.0312 C97.1094 97.125 96.9062 97.2969 96.9062 97.6406 C96.9062 97.9375 97.0625 98.1562 97.7188 98.2656 L99.4688 98.5781 Z" style="fill:black; stroke:none;"
    /></g
  ></g
></svg
>
