<?xml version="1.0"?>
<!DOCTYPE svg PUBLIC '-//W3C//DTD SVG 1.0//EN'
          'http://www.w3.org/TR/2001/REC-SVG-20010904/DTD/svg10.dtd'>
<svg xmlns:xlink="http://www.w3.org/1999/xlink" style="fill-opacity:1; color-rendering:auto; color-interpolation:auto; text-rendering:auto; stroke:black; stroke-linecap:square; stroke-miterlimit:10; shape-rendering:auto; stroke-opacity:1; fill:black; stroke-dasharray:none; font-weight:normal; stroke-width:1; font-family:'Dialog'; font-style:normal; stroke-linejoin:miter; font-size:12px; stroke-dashoffset:0; image-rendering:auto;" viewBox="0 0 550 160" xmlns="http://www.w3.org/2000/svg"
><!--Generated by the Batik Graphics2D SVG Generator--><defs id="genericDefs"
  /><g
  ><defs id="defs1"
    ><clipPath clipPathUnits="userSpaceOnUse" id="clipPath1"
      ><path d="M446 56 L468 56 L468 78 L446 78 L446 56 Z"
      /></clipPath
      ><clipPath clipPathUnits="userSpaceOnUse" id="clipPath2"
      ><path d="M394 56 L416 56 L416 78 L394 78 L394 56 Z"
      /></clipPath
      ><clipPath clipPathUnits="userSpaceOnUse" id="clipPath3"
      ><path d="M364 67 C364 73.0751 359.0751 78 353 78 C346.9249 78 342 73.0751 342 67 C342 60.9249 346.9249 56 353 56 C359.0751 56 364 60.9249 364 67 Z"
      /></clipPath
      ><clipPath clipPathUnits="userSpaceOnUse" id="clipPath4"
      ><path d="M312 93 C312 99.0751 307.0751 104 301 104 C294.9249 104 290 99.0751 290 93 C290 86.9249 294.9249 82 301 82 C307.0751 82 312 86.9249 312 93 Z"
      /></clipPath
      ><clipPath clipPathUnits="userSpaceOnUse" id="clipPath5"
      ><path d="M260 119 C260 125.0751 255.0751 130 249 130 C242.9249 130 238 125.0751 238 119 C238 112.9249 242.9249 108 249 108 C255.0751 108 260 112.9249 260 119 Z"
      /></clipPath
      ><clipPath clipPathUnits="userSpaceOnUse" id="clipPath6"
      ><path d="M208 119 C208 125.0751 203.0751 130 197 130 C190.9249 130 186 125.0751 186 119 C186 112.9249 190.9249 108 197 108 C203.0751 108 208 112.9249 208 119 Z"
      /></clipPath
      ><clipPath clipPathUnits="userSpaceOnUse" id="clipPath7"
      ><path d="M156 119 C156 125.0751 151.0751 130 145 130 C138.9249 130 134 125.0751 134 119 C134 112.9249 138.9249 108 145 108 C151.0751 108 156 112.9249 156 119 Z"
      /></clipPath
      ><clipPath clipPathUnits="userSpaceOnUse" id="clipPath8"
      ><path d="M104 119 C104 125.0751 99.0751 130 93 130 C86.9249 130 82 125.0751 82 119 C82 112.9249 86.9249 108 93 108 C99.0751 108 104 112.9249 104 119 Z"
      /></clipPath
      ><clipPath clipPathUnits="userSpaceOnUse" id="clipPath9"
      ><path d="M52 119 C52 125.0751 47.0751 130 41 130 C34.9249 130 30 125.0751 30 119 C30 112.9249 34.9249 108 41 108 C47.0751 108 52 112.9249 52 119 Z"
      /></clipPath
      ><clipPath clipPathUnits="userSpaceOnUse" id="clipPath10"
      ><path d="M260 67 C260 73.0751 255.0751 78 249 78 C242.9249 78 238 73.0751 238 67 C238 60.9249 242.9249 56 249 56 C255.0751 56 260 60.9249 260 67 Z"
      /></clipPath
      ><clipPath clipPathUnits="userSpaceOnUse" id="clipPath11"
      ><path d="M208 67 C208 73.0751 203.0751 78 197 78 C190.9249 78 186 73.0751 186 67 C186 60.9249 190.9249 56 197 56 C203.0751 56 208 60.9249 208 67 Z"
      /></clipPath
      ><clipPath clipPathUnits="userSpaceOnUse" id="clipPath12"
      ><path d="M312 41 C312 47.0751 307.0751 52 301 52 C294.9249 52 290 47.0751 290 41 C290 34.9249 294.9249 30 301 30 C307.0751 30 312 34.9249 312 41 Z"
      /></clipPath
    ></defs
    ><g style="fill:white; text-rendering:optimizeSpeed; stroke:white;"
    ><rect x="0" width="550" height="160" y="0" style="stroke:none;"
      /><polygon style="fill:none; stroke:black;" points=" 509 67 457 67"
      /><path d="M509 56 C503.5 61.5 514.5 72.5 509 78" style="fill:none; stroke:black;"
      /><polygon style="fill:none; stroke:black;" points=" 457 67 405 67"
      /><rect x="446" y="56" width="22" style="clip-path:url(#clipPath1); stroke:none;" height="22"
      /><rect x="446" y="56" width="22" style="clip-path:url(#clipPath1); fill:rgb(0,144,188); stroke:none;" height="22"
      /><rect x="446" y="56" width="22" style="clip-path:url(#clipPath1); fill:none; stroke:black;" height="22"
      /><rect x="446" y="56" width="22" style="fill:none; stroke:black;" height="22"
      /><polygon style="fill:none; stroke:black;" points=" 405 67 353 67"
      /><rect x="394" y="56" width="22" style="clip-path:url(#clipPath2); stroke:none;" height="22"
      /><rect x="394" y="56" width="22" style="clip-path:url(#clipPath2); fill:rgb(0,144,188); stroke:none;" height="22"
      /><rect x="394" y="56" width="22" style="clip-path:url(#clipPath2); fill:none; stroke:black;" height="22"
      /><rect x="394" y="56" width="22" style="fill:none; stroke:black;" height="22"
      /><polygon style="fill:none; stroke:black;" points=" 353 67 301 93"
      /><polygon style="fill:none; stroke:black;" points=" 353 67 301 41"
      /><circle style="clip-path:url(#clipPath3); stroke:none;" r="11" cx="353" cy="67"
      /><rect x="342" y="56" width="22" style="clip-path:url(#clipPath3); fill:rgb(0,166,81); stroke:none;" height="22"
      /><rect x="342" y="56" width="22" style="clip-path:url(#clipPath3); fill:none; stroke:black;" height="22"
      /><circle style="fill:none; stroke:black;" r="11" cx="353" cy="67"
      /><polygon style="fill:none; stroke:black;" points=" 301 93 249 119"
      /><polygon style="fill:none; stroke:black;" points=" 301 93 249 67"
      /><circle style="clip-path:url(#clipPath4); stroke:none;" r="11" cx="301" cy="93"
      /><rect x="290" y="82" width="22" style="clip-path:url(#clipPath4); fill:rgb(0,166,81); stroke:none;" height="22"
      /><rect x="290" y="82" width="22" style="clip-path:url(#clipPath4); fill:none; stroke:black;" height="22"
      /><circle style="fill:none; stroke:black;" r="11" cx="301" cy="93"
      /><polygon style="fill:none; stroke:black;" points=" 249 119 197 119"
      /><circle style="clip-path:url(#clipPath5); stroke:none;" r="11" cx="249" cy="119"
      /><rect x="238" y="108" width="22" style="clip-path:url(#clipPath5); fill:rgb(0,166,81); stroke:none;" height="22"
      /><rect x="238" y="108" width="22" style="clip-path:url(#clipPath5); fill:none; stroke:black;" height="22"
      /><circle style="fill:none; stroke:black;" r="11" cx="249" cy="119"
      /><polygon style="fill:none; stroke:black;" points=" 197 119 145 119"
      /><circle style="clip-path:url(#clipPath6); stroke:none;" r="11" cx="197" cy="119"
      /><rect x="186" y="108" width="22" style="clip-path:url(#clipPath6); fill:rgb(0,166,81); stroke:none;" height="22"
      /><rect x="186" y="108" width="22" style="clip-path:url(#clipPath6); fill:none; stroke:black;" height="22"
      /><circle style="fill:none; stroke:black;" r="11" cx="197" cy="119"
      /><polygon style="fill:none; stroke:black;" points=" 145 119 93 119"
      /><circle style="clip-path:url(#clipPath7); stroke:none;" r="11" cx="145" cy="119"
      /><rect x="134" y="108" width="22" style="clip-path:url(#clipPath7); fill:rgb(0,144,188); stroke:none;" height="22"
      /><rect x="134" y="108" width="22" style="clip-path:url(#clipPath7); fill:none; stroke:black;" height="22"
      /><circle style="fill:none; stroke:black;" r="11" cx="145" cy="119"
      /><polygon style="fill:none; stroke:black;" points=" 93 119 41 119"
      /><circle style="clip-path:url(#clipPath8); stroke:none;" r="11" cx="93" cy="119"
      /><rect x="82" y="108" width="22" style="clip-path:url(#clipPath8); fill:rgb(0,144,188); stroke:none;" height="22"
      /><rect x="82" y="108" width="22" style="clip-path:url(#clipPath8); fill:none; stroke:black;" height="22"
      /><circle style="fill:none; stroke:black;" r="11" cx="93" cy="119"
      /><circle style="clip-path:url(#clipPath9); stroke:none;" r="11" cx="41" cy="119"
      /><rect x="30" y="108" width="22" style="clip-path:url(#clipPath9); fill:rgb(0,144,188); stroke:none;" height="22"
      /><rect x="30" y="108" width="22" style="clip-path:url(#clipPath9); fill:none; stroke:black;" height="22"
      /><circle style="fill:none; stroke:black;" r="11" cx="41" cy="119"
      /><rect x="71" y="122" width="5" style="stroke:none;" height="10"
    /></g
    ><g style="font-family:'Serif'; text-rendering:optimizeSpeed; "
    ><path style="stroke:none;" d="M72.8906 130.6875 C72.4844 130.6875 72.1562 131.0469 72.1562 131.4219 C72.1562 131.8125 72.4844 132.1562 72.8906 132.1562 C73.2969 132.1562 73.6406 131.8125 73.6406 131.4219 C73.6406 131.0469 73.2969 130.6875 72.8906 130.6875 ZM74.4688 124.5781 C74.7188 124.8906 74.875 125.2656 74.8906 125.6562 C74.8906 126.1875 74.625 126.5 74.0312 126.7656 L73.4062 127.0156 C72.6406 127.3125 72.3906 127.5469 72.3906 127.9375 C72.3906 128.1094 72.4531 128.3438 72.5781 128.8125 L72.7344 129.3438 L73.1094 129.3438 L73.0938 128.5312 C73.0938 128.0938 73.2031 127.9688 73.7812 127.7344 L74.2031 127.5625 C75.0312 127.2188 75.4531 126.6875 75.4531 125.8438 C75.4531 124.1562 73.6562 123.1875 72.5 123.0312 C72.1094 123.125 71.9062 123.2969 71.9062 123.6406 C71.9062 123.9375 72.0625 124.1562 72.7188 124.2656 L74.4688 124.5781 Z"
      /><rect x="57" y="122" width="5" style="fill:white; stroke:none;" height="10"
      /><path style="stroke:none;" d="M58.8906 130.6875 C58.4844 130.6875 58.1562 131.0469 58.1562 131.4219 C58.1562 131.8125 58.4844 132.1562 58.8906 132.1562 C59.2969 132.1562 59.6406 131.8125 59.6406 131.4219 C59.6406 131.0469 59.2969 130.6875 58.8906 130.6875 ZM60.4688 124.5781 C60.7188 124.8906 60.875 125.2656 60.8906 125.6562 C60.8906 126.1875 60.625 126.5 60.0312 126.7656 L59.4062 127.0156 C58.6406 127.3125 58.3906 127.5469 58.3906 127.9375 C58.3906 128.1094 58.4531 128.3438 58.5781 128.8125 L58.7344 129.3438 L59.1094 129.3438 L59.0938 128.5312 C59.0938 128.0938 59.2031 127.9688 59.7812 127.7344 L60.2031 127.5625 C61.0312 127.2188 61.4531 126.6875 61.4531 125.8438 C61.4531 124.1562 59.6562 123.1875 58.5 123.0312 C58.1094 123.125 57.9062 123.2969 57.9062 123.6406 C57.9062 123.9375 58.0625 124.1562 58.7188 124.2656 L60.4688 124.5781 Z"
      /><rect x="123" y="122" width="5" style="fill:white; stroke:none;" height="10"
      /><path style="stroke:none;" d="M124.8906 130.6875 C124.4844 130.6875 124.1562 131.0469 124.1562 131.4219 C124.1562 131.8125 124.4844 132.1562 124.8906 132.1562 C125.2969 132.1562 125.6406 131.8125 125.6406 131.4219 C125.6406 131.0469 125.2969 130.6875 124.8906 130.6875 ZM126.4688 124.5781 C126.7188 124.8906 126.875 125.2656 126.8906 125.6562 C126.8906 126.1875 126.625 126.5 126.0312 126.7656 L125.4062 127.0156 C124.6406 127.3125 124.3906 127.5469 124.3906 127.9375 C124.3906 128.1094 124.4531 128.3438 124.5781 128.8125 L124.7344 129.3438 L125.1094 129.3438 L125.0938 128.5312 C125.0938 128.0938 125.2031 127.9688 125.7812 127.7344 L126.2031 127.5625 C127.0312 127.2188 127.4531 126.6875 127.4531 125.8438 C127.4531 124.1562 125.6562 123.1875 124.5 123.0312 C124.1094 123.125 123.9062 123.2969 123.9062 123.6406 C123.9062 123.9375 124.0625 124.1562 124.7188 124.2656 L126.4688 124.5781 Z"
      /><rect x="109" y="122" width="5" style="fill:white; stroke:none;" height="10"
      /><path style="stroke:none;" d="M110.8906 130.6875 C110.4844 130.6875 110.1562 131.0469 110.1562 131.4219 C110.1562 131.8125 110.4844 132.1562 110.8906 132.1562 C111.2969 132.1562 111.6406 131.8125 111.6406 131.4219 C111.6406 131.0469 111.2969 130.6875 110.8906 130.6875 ZM112.4688 124.5781 C112.7188 124.8906 112.875 125.2656 112.8906 125.6562 C112.8906 126.1875 112.625 126.5 112.0312 126.7656 L111.4062 127.0156 C110.6406 127.3125 110.3906 127.5469 110.3906 127.9375 C110.3906 128.1094 110.4531 128.3438 110.5781 128.8125 L110.7344 129.3438 L111.1094 129.3438 L111.0938 128.5312 C111.0938 128.0938 111.2031 127.9688 111.7812 127.7344 L112.2031 127.5625 C113.0312 127.2188 113.4531 126.6875 113.4531 125.8438 C113.4531 124.1562 111.6562 123.1875 110.5 123.0312 C110.1094 123.125 109.9062 123.2969 109.9062 123.6406 C109.9062 123.9375 110.0625 124.1562 110.7188 124.2656 L112.4688 124.5781 Z"
      /><rect x="175" y="122" width="5" style="fill:white; stroke:none;" height="10"
      /><path style="stroke:none;" d="M176.8906 130.6875 C176.4844 130.6875 176.1562 131.0469 176.1562 131.4219 C176.1562 131.8125 176.4844 132.1562 176.8906 132.1562 C177.2969 132.1562 177.6406 131.8125 177.6406 131.4219 C177.6406 131.0469 177.2969 130.6875 176.8906 130.6875 ZM178.4688 124.5781 C178.7188 124.8906 178.875 125.2656 178.8906 125.6562 C178.8906 126.1875 178.625 126.5 178.0312 126.7656 L177.4062 127.0156 C176.6406 127.3125 176.3906 127.5469 176.3906 127.9375 C176.3906 128.1094 176.4531 128.3438 176.5781 128.8125 L176.7344 129.3438 L177.1094 129.3438 L177.0938 128.5312 C177.0938 128.0938 177.2031 127.9688 177.7812 127.7344 L178.2031 127.5625 C179.0312 127.2188 179.4531 126.6875 179.4531 125.8438 C179.4531 124.1562 177.6562 123.1875 176.5 123.0312 C176.1094 123.125 175.9062 123.2969 175.9062 123.6406 C175.9062 123.9375 176.0625 124.1562 176.7188 124.2656 L178.4688 124.5781 Z"
      /><rect x="161" y="122" width="5" style="fill:white; stroke:none;" height="10"
      /><path style="stroke:none;" d="M162.8906 130.6875 C162.4844 130.6875 162.1562 131.0469 162.1562 131.4219 C162.1562 131.8125 162.4844 132.1562 162.8906 132.1562 C163.2969 132.1562 163.6406 131.8125 163.6406 131.4219 C163.6406 131.0469 163.2969 130.6875 162.8906 130.6875 ZM164.4688 124.5781 C164.7188 124.8906 164.875 125.2656 164.8906 125.6562 C164.8906 126.1875 164.625 126.5 164.0312 126.7656 L163.4062 127.0156 C162.6406 127.3125 162.3906 127.5469 162.3906 127.9375 C162.3906 128.1094 162.4531 128.3438 162.5781 128.8125 L162.7344 129.3438 L163.1094 129.3438 L163.0938 128.5312 C163.0938 128.0938 163.2031 127.9688 163.7812 127.7344 L164.2031 127.5625 C165.0312 127.2188 165.4531 126.6875 165.4531 125.8438 C165.4531 124.1562 163.6562 123.1875 162.5 123.0312 C162.1094 123.125 161.9062 123.2969 161.9062 123.6406 C161.9062 123.9375 162.0625 124.1562 162.7188 124.2656 L164.4688 124.5781 Z"
      /><rect x="227" y="122" width="5" style="fill:white; stroke:none;" height="10"
      /><path style="stroke:none;" d="M228.8906 130.6875 C228.4844 130.6875 228.1562 131.0469 228.1562 131.4219 C228.1562 131.8125 228.4844 132.1562 228.8906 132.1562 C229.2969 132.1562 229.6406 131.8125 229.6406 131.4219 C229.6406 131.0469 229.2969 130.6875 228.8906 130.6875 ZM230.4688 124.5781 C230.7188 124.8906 230.875 125.2656 230.8906 125.6562 C230.8906 126.1875 230.625 126.5 230.0312 126.7656 L229.4062 127.0156 C228.6406 127.3125 228.3906 127.5469 228.3906 127.9375 C228.3906 128.1094 228.4531 128.3438 228.5781 128.8125 L228.7344 129.3438 L229.1094 129.3438 L229.0938 128.5312 C229.0938 128.0938 229.2031 127.9688 229.7812 127.7344 L230.2031 127.5625 C231.0312 127.2188 231.4531 126.6875 231.4531 125.8438 C231.4531 124.1562 229.6562 123.1875 228.5 123.0312 C228.1094 123.125 227.9062 123.2969 227.9062 123.6406 C227.9062 123.9375 228.0625 124.1562 228.7188 124.2656 L230.4688 124.5781 Z"
      /><rect x="213" y="122" width="5" style="fill:white; stroke:none;" height="10"
      /><path style="stroke:none;" d="M214.8906 130.6875 C214.4844 130.6875 214.1562 131.0469 214.1562 131.4219 C214.1562 131.8125 214.4844 132.1562 214.8906 132.1562 C215.2969 132.1562 215.6406 131.8125 215.6406 131.4219 C215.6406 131.0469 215.2969 130.6875 214.8906 130.6875 ZM216.4688 124.5781 C216.7188 124.8906 216.875 125.2656 216.8906 125.6562 C216.8906 126.1875 216.625 126.5 216.0312 126.7656 L215.4062 127.0156 C214.6406 127.3125 214.3906 127.5469 214.3906 127.9375 C214.3906 128.1094 214.4531 128.3438 214.5781 128.8125 L214.7344 129.3438 L215.1094 129.3438 L215.0938 128.5312 C215.0938 128.0938 215.2031 127.9688 215.7812 127.7344 L216.2031 127.5625 C217.0312 127.2188 217.4531 126.6875 217.4531 125.8438 C217.4531 124.1562 215.6562 123.1875 214.5 123.0312 C214.1094 123.125 213.9062 123.2969 213.9062 123.6406 C213.9062 123.9375 214.0625 124.1562 214.7188 124.2656 L216.4688 124.5781 Z"
      /><polygon style="fill:none;" points=" 249 67 197 67"
      /><circle style="fill:white; clip-path:url(#clipPath10); stroke:none;" r="11" cx="249" cy="67"
      /><rect x="238" y="56" width="22" style="clip-path:url(#clipPath10); fill:rgb(0,166,81); stroke:none;" height="22"
      /><rect x="238" y="56" width="22" style="fill:none; clip-path:url(#clipPath10);" height="22"
      /><circle r="11" style="fill:none;" cx="249" cy="67"
      /><circle style="fill:white; clip-path:url(#clipPath11); stroke:none;" r="11" cx="197" cy="67"
      /><rect x="186" y="56" width="22" style="clip-path:url(#clipPath11); fill:rgb(0,166,81); stroke:none;" height="22"
      /><rect x="186" y="56" width="22" style="fill:none; clip-path:url(#clipPath11);" height="22"
      /><circle r="11" style="fill:none;" cx="197" cy="67"
      /><rect x="227" y="70" width="5" style="fill:white; stroke:none;" height="10"
      /><path style="stroke:none;" d="M228.8906 78.6875 C228.4844 78.6875 228.1562 79.0469 228.1562 79.4219 C228.1562 79.8125 228.4844 80.1562 228.8906 80.1562 C229.2969 80.1562 229.6406 79.8125 229.6406 79.4219 C229.6406 79.0469 229.2969 78.6875 228.8906 78.6875 ZM230.4688 72.5781 C230.7188 72.8906 230.875 73.2656 230.8906 73.6562 C230.8906 74.1875 230.625 74.5 230.0312 74.7656 L229.4062 75.0156 C228.6406 75.3125 228.3906 75.5469 228.3906 75.9375 C228.3906 76.1094 228.4531 76.3438 228.5781 76.8125 L228.7344 77.3438 L229.1094 77.3438 L229.0938 76.5312 C229.0938 76.0938 229.2031 75.9688 229.7812 75.7344 L230.2031 75.5625 C231.0312 75.2188 231.4531 74.6875 231.4531 73.8438 C231.4531 72.1562 229.6562 71.1875 228.5 71.0312 C228.1094 71.125 227.9062 71.2969 227.9062 71.6406 C227.9062 71.9375 228.0625 72.1562 228.7188 72.2656 L230.4688 72.5781 Z"
      /><rect x="213" y="70" width="5" style="fill:white; stroke:none;" height="10"
      /><path style="stroke:none;" d="M214.8906 78.6875 C214.4844 78.6875 214.1562 79.0469 214.1562 79.4219 C214.1562 79.8125 214.4844 80.1562 214.8906 80.1562 C215.2969 80.1562 215.6406 79.8125 215.6406 79.4219 C215.6406 79.0469 215.2969 78.6875 214.8906 78.6875 ZM216.4688 72.5781 C216.7188 72.8906 216.875 73.2656 216.8906 73.6562 C216.8906 74.1875 216.625 74.5 216.0312 74.7656 L215.4062 75.0156 C214.6406 75.3125 214.3906 75.5469 214.3906 75.9375 C214.3906 76.1094 214.4531 76.3438 214.5781 76.8125 L214.7344 77.3438 L215.1094 77.3438 L215.0938 76.5312 C215.0938 76.0938 215.2031 75.9688 215.7812 75.7344 L216.2031 75.5625 C217.0312 75.2188 217.4531 74.6875 217.4531 73.8438 C217.4531 72.1562 215.6562 71.1875 214.5 71.0312 C214.1094 71.125 213.9062 71.2969 213.9062 71.6406 C213.9062 71.9375 214.0625 72.1562 214.7188 72.2656 L216.4688 72.5781 Z"
      /><rect x="283" y="104" width="5" style="fill:white; stroke:none;" height="10"
      /><path style="stroke:none;" d="M284.8906 112.6875 C284.4844 112.6875 284.1562 113.0469 284.1562 113.4219 C284.1562 113.8125 284.4844 114.1562 284.8906 114.1562 C285.2969 114.1562 285.6406 113.8125 285.6406 113.4219 C285.6406 113.0469 285.2969 112.6875 284.8906 112.6875 ZM286.4688 106.5781 C286.7188 106.8906 286.875 107.2656 286.8906 107.6562 C286.8906 108.1875 286.625 108.5 286.0312 108.7656 L285.4062 109.0156 C284.6406 109.3125 284.3906 109.5469 284.3906 109.9375 C284.3906 110.1094 284.4531 110.3438 284.5781 110.8125 L284.7344 111.3438 L285.1094 111.3438 L285.0938 110.5312 C285.0938 110.0938 285.2031 109.9688 285.7812 109.7344 L286.2031 109.5625 C287.0312 109.2188 287.4531 108.6875 287.4531 107.8438 C287.4531 106.1562 285.6562 105.1875 284.5 105.0312 C284.1094 105.125 283.9062 105.2969 283.9062 105.6406 C283.9062 105.9375 284.0625 106.1562 284.7188 106.2656 L286.4688 106.5781 Z"
      /><rect x="268" y="112" width="5" style="fill:white; stroke:none;" height="10"
      /><path style="stroke:none;" d="M269.8906 120.6875 C269.4844 120.6875 269.1562 121.0469 269.1562 121.4219 C269.1562 121.8125 269.4844 122.1562 269.8906 122.1562 C270.2969 122.1562 270.6406 121.8125 270.6406 121.4219 C270.6406 121.0469 270.2969 120.6875 269.8906 120.6875 ZM271.4688 114.5781 C271.7188 114.8906 271.875 115.2656 271.8906 115.6562 C271.8906 116.1875 271.625 116.5 271.0312 116.7656 L270.4062 117.0156 C269.6406 117.3125 269.3906 117.5469 269.3906 117.9375 C269.3906 118.1094 269.4531 118.3438 269.5781 118.8125 L269.7344 119.3438 L270.1094 119.3438 L270.0938 118.5312 C270.0938 118.0938 270.2031 117.9688 270.7812 117.7344 L271.2031 117.5625 C272.0312 117.2188 272.4531 116.6875 272.4531 115.8438 C272.4531 114.1562 270.6562 113.1875 269.5 113.0312 C269.1094 113.125 268.9062 113.2969 268.9062 113.6406 C268.9062 113.9375 269.0625 114.1562 269.7188 114.2656 L271.4688 114.5781 Z"
      /><rect x="276" y="86" width="5" style="fill:white; stroke:none;" height="10"
      /><path style="stroke:none;" d="M277.8906 94.6875 C277.4844 94.6875 277.1562 95.0469 277.1562 95.4219 C277.1562 95.8125 277.4844 96.1562 277.8906 96.1562 C278.2969 96.1562 278.6406 95.8125 278.6406 95.4219 C278.6406 95.0469 278.2969 94.6875 277.8906 94.6875 ZM279.4688 88.5781 C279.7188 88.8906 279.875 89.2656 279.8906 89.6562 C279.8906 90.1875 279.625 90.5 279.0312 90.7656 L278.4062 91.0156 C277.6406 91.3125 277.3906 91.5469 277.3906 91.9375 C277.3906 92.1094 277.4531 92.3438 277.5781 92.8125 L277.7344 93.3438 L278.1094 93.3438 L278.0938 92.5312 C278.0938 92.0938 278.2031 91.9688 278.7812 91.7344 L279.2031 91.5625 C280.0312 91.2188 280.4531 90.6875 280.4531 89.8438 C280.4531 88.1562 278.6562 87.1875 277.5 87.0312 C277.1094 87.125 276.9062 87.2969 276.9062 87.6406 C276.9062 87.9375 277.0625 88.1562 277.7188 88.2656 L279.4688 88.5781 Z"
      /><rect x="261" y="78" width="5" style="fill:white; stroke:none;" height="10"
      /><path style="stroke:none;" d="M262.8906 86.6875 C262.4844 86.6875 262.1562 87.0469 262.1562 87.4219 C262.1562 87.8125 262.4844 88.1562 262.8906 88.1562 C263.2969 88.1562 263.6406 87.8125 263.6406 87.4219 C263.6406 87.0469 263.2969 86.6875 262.8906 86.6875 ZM264.4688 80.5781 C264.7188 80.8906 264.875 81.2656 264.8906 81.6562 C264.8906 82.1875 264.625 82.5 264.0312 82.7656 L263.4062 83.0156 C262.6406 83.3125 262.3906 83.5469 262.3906 83.9375 C262.3906 84.1094 262.4531 84.3438 262.5781 84.8125 L262.7344 85.3438 L263.1094 85.3438 L263.0938 84.5312 C263.0938 84.0938 263.2031 83.9688 263.7812 83.7344 L264.2031 83.5625 C265.0312 83.2188 265.4531 82.6875 265.4531 81.8438 C265.4531 80.1562 263.6562 79.1875 262.5 79.0312 C262.1094 79.125 261.9062 79.2969 261.9062 79.6406 C261.9062 79.9375 262.0625 80.1562 262.7188 80.2656 L264.4688 80.5781 Z"
      /><circle style="fill:white; clip-path:url(#clipPath12); stroke:none;" r="11" cx="301" cy="41"
      /><rect x="290" y="30" width="22" style="clip-path:url(#clipPath12); fill:rgb(0,166,81); stroke:none;" height="22"
      /><rect x="290" y="30" width="22" style="fill:none; clip-path:url(#clipPath12);" height="22"
      /><circle r="11" style="fill:none;" cx="301" cy="41"
      /><rect x="335" y="78" width="5" style="fill:white; stroke:none;" height="10"
      /><path style="stroke:none;" d="M336.8906 86.6875 C336.4844 86.6875 336.1562 87.0469 336.1562 87.4219 C336.1562 87.8125 336.4844 88.1562 336.8906 88.1562 C337.2969 88.1562 337.6406 87.8125 337.6406 87.4219 C337.6406 87.0469 337.2969 86.6875 336.8906 86.6875 ZM338.4688 80.5781 C338.7188 80.8906 338.875 81.2656 338.8906 81.6562 C338.8906 82.1875 338.625 82.5 338.0312 82.7656 L337.4062 83.0156 C336.6406 83.3125 336.3906 83.5469 336.3906 83.9375 C336.3906 84.1094 336.4531 84.3438 336.5781 84.8125 L336.7344 85.3438 L337.1094 85.3438 L337.0938 84.5312 C337.0938 84.0938 337.2031 83.9688 337.7812 83.7344 L338.2031 83.5625 C339.0312 83.2188 339.4531 82.6875 339.4531 81.8438 C339.4531 80.1562 337.6562 79.1875 336.5 79.0312 C336.1094 79.125 335.9062 79.2969 335.9062 79.6406 C335.9062 79.9375 336.0625 80.1562 336.7188 80.2656 L338.4688 80.5781 Z"
      /><rect x="320" y="86" width="5" style="fill:white; stroke:none;" height="10"
      /><path style="stroke:none;" d="M321.8906 94.6875 C321.4844 94.6875 321.1562 95.0469 321.1562 95.4219 C321.1562 95.8125 321.4844 96.1562 321.8906 96.1562 C322.2969 96.1562 322.6406 95.8125 322.6406 95.4219 C322.6406 95.0469 322.2969 94.6875 321.8906 94.6875 ZM323.4688 88.5781 C323.7188 88.8906 323.875 89.2656 323.8906 89.6562 C323.8906 90.1875 323.625 90.5 323.0312 90.7656 L322.4062 91.0156 C321.6406 91.3125 321.3906 91.5469 321.3906 91.9375 C321.3906 92.1094 321.4531 92.3438 321.5781 92.8125 L321.7344 93.3438 L322.1094 93.3438 L322.0938 92.5312 C322.0938 92.0938 322.2031 91.9688 322.7812 91.7344 L323.2031 91.5625 C324.0312 91.2188 324.4531 90.6875 324.4531 89.8438 C324.4531 88.1562 322.6562 87.1875 321.5 87.0312 C321.1094 87.125 320.9062 87.2969 320.9062 87.6406 C320.9062 87.9375 321.0625 88.1562 321.7188 88.2656 L323.4688 88.5781 Z"
      /><rect x="328" y="60" width="5" style="fill:white; stroke:none;" height="10"
      /><path style="stroke:none;" d="M329.8906 68.6875 C329.4844 68.6875 329.1562 69.0469 329.1562 69.4219 C329.1562 69.8125 329.4844 70.1562 329.8906 70.1562 C330.2969 70.1562 330.6406 69.8125 330.6406 69.4219 C330.6406 69.0469 330.2969 68.6875 329.8906 68.6875 ZM331.4688 62.5781 C331.7188 62.8906 331.875 63.2656 331.8906 63.6562 C331.8906 64.1875 331.625 64.5 331.0312 64.7656 L330.4062 65.0156 C329.6406 65.3125 329.3906 65.5469 329.3906 65.9375 C329.3906 66.1094 329.4531 66.3438 329.5781 66.8125 L329.7344 67.3438 L330.1094 67.3438 L330.0938 66.5312 C330.0938 66.0938 330.2031 65.9688 330.7812 65.7344 L331.2031 65.5625 C332.0312 65.2188 332.4531 64.6875 332.4531 63.8438 C332.4531 62.1562 330.6562 61.1875 329.5 61.0312 C329.1094 61.125 328.9062 61.2969 328.9062 61.6406 C328.9062 61.9375 329.0625 62.1562 329.7188 62.2656 L331.4688 62.5781 Z"
      /><rect x="313" y="52" width="5" style="fill:white; stroke:none;" height="10"
      /><path style="stroke:none;" d="M314.8906 60.6875 C314.4844 60.6875 314.1562 61.0469 314.1562 61.4219 C314.1562 61.8125 314.4844 62.1562 314.8906 62.1562 C315.2969 62.1562 315.6406 61.8125 315.6406 61.4219 C315.6406 61.0469 315.2969 60.6875 314.8906 60.6875 ZM316.4688 54.5781 C316.7188 54.8906 316.875 55.2656 316.8906 55.6562 C316.8906 56.1875 316.625 56.5 316.0312 56.7656 L315.4062 57.0156 C314.6406 57.3125 314.3906 57.5469 314.3906 57.9375 C314.3906 58.1094 314.4531 58.3438 314.5781 58.8125 L314.7344 59.3438 L315.1094 59.3438 L315.0938 58.5312 C315.0938 58.0938 315.2031 57.9688 315.7812 57.7344 L316.2031 57.5625 C317.0312 57.2188 317.4531 56.6875 317.4531 55.8438 C317.4531 54.1562 315.6562 53.1875 314.5 53.0312 C314.1094 53.125 313.9062 53.2969 313.9062 53.6406 C313.9062 53.9375 314.0625 54.1562 314.7188 54.2656 L316.4688 54.5781 Z"
      /><rect x="383" y="70" width="5" style="fill:white; stroke:none;" height="10"
      /><path style="stroke:none;" d="M384.8906 78.6875 C384.4844 78.6875 384.1562 79.0469 384.1562 79.4219 C384.1562 79.8125 384.4844 80.1562 384.8906 80.1562 C385.2969 80.1562 385.6406 79.8125 385.6406 79.4219 C385.6406 79.0469 385.2969 78.6875 384.8906 78.6875 ZM386.4688 72.5781 C386.7188 72.8906 386.875 73.2656 386.8906 73.6562 C386.8906 74.1875 386.625 74.5 386.0312 74.7656 L385.4062 75.0156 C384.6406 75.3125 384.3906 75.5469 384.3906 75.9375 C384.3906 76.1094 384.4531 76.3438 384.5781 76.8125 L384.7344 77.3438 L385.1094 77.3438 L385.0938 76.5312 C385.0938 76.0938 385.2031 75.9688 385.7812 75.7344 L386.2031 75.5625 C387.0312 75.2188 387.4531 74.6875 387.4531 73.8438 C387.4531 72.1562 385.6562 71.1875 384.5 71.0312 C384.1094 71.125 383.9062 71.2969 383.9062 71.6406 C383.9062 71.9375 384.0625 72.1562 384.7188 72.2656 L386.4688 72.5781 Z"
      /><rect x="369" y="70" width="5" style="fill:white; stroke:none;" height="10"
      /><path style="stroke:none;" d="M370.8906 78.6875 C370.4844 78.6875 370.1562 79.0469 370.1562 79.4219 C370.1562 79.8125 370.4844 80.1562 370.8906 80.1562 C371.2969 80.1562 371.6406 79.8125 371.6406 79.4219 C371.6406 79.0469 371.2969 78.6875 370.8906 78.6875 ZM372.4688 72.5781 C372.7188 72.8906 372.875 73.2656 372.8906 73.6562 C372.8906 74.1875 372.625 74.5 372.0312 74.7656 L371.4062 75.0156 C370.6406 75.3125 370.3906 75.5469 370.3906 75.9375 C370.3906 76.1094 370.4531 76.3438 370.5781 76.8125 L370.7344 77.3438 L371.1094 77.3438 L371.0938 76.5312 C371.0938 76.0938 371.2031 75.9688 371.7812 75.7344 L372.2031 75.5625 C373.0312 75.2188 373.4531 74.6875 373.4531 73.8438 C373.4531 72.1562 371.6562 71.1875 370.5 71.0312 C370.1094 71.125 369.9062 71.2969 369.9062 71.6406 C369.9062 71.9375 370.0625 72.1562 370.7188 72.2656 L372.4688 72.5781 Z"
      /><rect x="435" y="70" width="5" style="fill:white; stroke:none;" height="10"
      /><path style="stroke:none;" d="M436.8906 78.6875 C436.4844 78.6875 436.1562 79.0469 436.1562 79.4219 C436.1562 79.8125 436.4844 80.1562 436.8906 80.1562 C437.2969 80.1562 437.6406 79.8125 437.6406 79.4219 C437.6406 79.0469 437.2969 78.6875 436.8906 78.6875 ZM438.4688 72.5781 C438.7188 72.8906 438.875 73.2656 438.8906 73.6562 C438.8906 74.1875 438.625 74.5 438.0312 74.7656 L437.4062 75.0156 C436.6406 75.3125 436.3906 75.5469 436.3906 75.9375 C436.3906 76.1094 436.4531 76.3438 436.5781 76.8125 L436.7344 77.3438 L437.1094 77.3438 L437.0938 76.5312 C437.0938 76.0938 437.2031 75.9688 437.7812 75.7344 L438.2031 75.5625 C439.0312 75.2188 439.4531 74.6875 439.4531 73.8438 C439.4531 72.1562 437.6562 71.1875 436.5 71.0312 C436.1094 71.125 435.9062 71.2969 435.9062 71.6406 C435.9062 71.9375 436.0625 72.1562 436.7188 72.2656 L438.4688 72.5781 Z"
      /><rect x="421" y="70" width="5" style="fill:white; stroke:none;" height="10"
      /><path style="stroke:none;" d="M422.8906 78.6875 C422.4844 78.6875 422.1562 79.0469 422.1562 79.4219 C422.1562 79.8125 422.4844 80.1562 422.8906 80.1562 C423.2969 80.1562 423.6406 79.8125 423.6406 79.4219 C423.6406 79.0469 423.2969 78.6875 422.8906 78.6875 ZM424.4688 72.5781 C424.7188 72.8906 424.875 73.2656 424.8906 73.6562 C424.8906 74.1875 424.625 74.5 424.0312 74.7656 L423.4062 75.0156 C422.6406 75.3125 422.3906 75.5469 422.3906 75.9375 C422.3906 76.1094 422.4531 76.3438 422.5781 76.8125 L422.7344 77.3438 L423.1094 77.3438 L423.0938 76.5312 C423.0938 76.0938 423.2031 75.9688 423.7812 75.7344 L424.2031 75.5625 C425.0312 75.2188 425.4531 74.6875 425.4531 73.8438 C425.4531 72.1562 423.6562 71.1875 422.5 71.0312 C422.1094 71.125 421.9062 71.2969 421.9062 71.6406 C421.9062 71.9375 422.0625 72.1562 422.7188 72.2656 L424.4688 72.5781 Z"
      /><rect x="473" y="70" width="5" style="fill:white; stroke:none;" height="10"
      /><path style="stroke:none;" d="M474.8906 78.6875 C474.4844 78.6875 474.1562 79.0469 474.1562 79.4219 C474.1562 79.8125 474.4844 80.1562 474.8906 80.1562 C475.2969 80.1562 475.6406 79.8125 475.6406 79.4219 C475.6406 79.0469 475.2969 78.6875 474.8906 78.6875 ZM476.4688 72.5781 C476.7188 72.8906 476.875 73.2656 476.8906 73.6562 C476.8906 74.1875 476.625 74.5 476.0312 74.7656 L475.4062 75.0156 C474.6406 75.3125 474.3906 75.5469 474.3906 75.9375 C474.3906 76.1094 474.4531 76.3438 474.5781 76.8125 L474.7344 77.3438 L475.1094 77.3438 L475.0938 76.5312 C475.0938 76.0938 475.2031 75.9688 475.7812 75.7344 L476.2031 75.5625 C477.0312 75.2188 477.4531 74.6875 477.4531 73.8438 C477.4531 72.1562 475.6562 71.1875 474.5 71.0312 C474.1094 71.125 473.9062 71.2969 473.9062 71.6406 C473.9062 71.9375 474.0625 72.1562 474.7188 72.2656 L476.4688 72.5781 Z"
    /></g
  ></g
></svg
>
