<?xml version="1.0"?>
<!DOCTYPE svg PUBLIC '-//W3C//DTD SVG 1.0//EN'
          'http://www.w3.org/TR/2001/REC-SVG-20010904/DTD/svg10.dtd'>
<svg xmlns:xlink="http://www.w3.org/1999/xlink" style="fill-opacity:1; color-rendering:auto; color-interpolation:auto; text-rendering:auto; stroke:black; stroke-linecap:square; stroke-miterlimit:10; shape-rendering:auto; stroke-opacity:1; fill:black; stroke-dasharray:none; font-weight:normal; stroke-width:1; font-family:'Dialog'; font-style:normal; stroke-linejoin:miter; font-size:12px; stroke-dashoffset:0; image-rendering:auto;" viewBox="0 0 240 128" xmlns="http://www.w3.org/2000/svg"
><!--Generated by the Batik Graphics2D SVG Generator--><defs id="genericDefs"
  /><g
  ><defs id="defs1"
    ><clipPath clipPathUnits="userSpaceOnUse" id="clipPath1"
      ><path d="M144 64 C144 70.0751 139.0751 75 133 75 C126.9249 75 122 70.0751 122 64 C122 57.9249 126.9249 53 133 53 C139.0751 53 144 57.9249 144 64 Z"
      /></clipPath
      ><clipPath clipPathUnits="userSpaceOnUse" id="clipPath2"
      ><path d="M43 53 L65 53 L65 75 L43 75 L43 53 Z"
      /></clipPath
    ></defs
    ><g style="fill:white; text-rendering:optimizeSpeed; stroke:white;"
    ><rect x="0" width="240" height="128" y="0" style="stroke:none;"
      /><polygon style="fill:none; stroke:black;" points=" 199 64 133 64"
      /><path d="M199 53 C193.5 58.5 204.5 69.5 199 75" style="fill:none; stroke:black;"
      /><polygon style="fill:none; stroke:black;" points=" 133 64 54 64"
      /><circle style="clip-path:url(#clipPath1); stroke:none;" r="11" cx="133" cy="64"
      /><rect x="122" y="53" width="22" style="clip-path:url(#clipPath1); fill:rgb(0,144,188); stroke:none;" height="22"
      /><rect x="122" y="53" width="22" style="clip-path:url(#clipPath1); fill:none; stroke:black;" height="22"
      /><circle style="fill:none; stroke:black;" r="11" cx="133" cy="64"
      /><rect x="134" y="81" width="22" style="stroke:none;" height="10"
    /></g
    ><g style="text-rendering:optimizeSpeed; font-size:14px; font-family:'SansSerif';"
    ><path style="stroke:none;" d="M134.6094 92 L141.0625 92 L141.0625 90.8906 L138.2344 90.8906 C137.7031 90.8906 137.0781 90.9531 136.5469 90.9844 C138.9531 88.7031 140.5625 86.625 140.5625 84.5781 C140.5625 82.75 139.4219 81.5469 137.5781 81.5469 C136.2812 81.5469 135.4062 82.1406 134.5625 83.0469 L135.2969 83.7812 C135.8594 83.1094 136.5938 82.5938 137.4375 82.5938 C138.7031 82.5938 139.3125 83.4531 139.3125 84.625 C139.3125 86.3906 137.8438 88.4375 134.6094 91.25 L134.6094 92 ZM144.9418 86.2656 C145.3168 85.0938 145.645 83.9844 145.9731 82.7812 L146.02 82.7812 C146.3637 83.9844 146.6762 85.0938 147.0668 86.2656 L147.5512 87.8281 L144.4418 87.8281 L144.9418 86.2656 ZM141.8168 92 L143.1293 92 L144.1293 88.8594 L147.8793 88.8594 L148.8481 92 L150.2231 92 L146.7387 81.7188 L145.3012 81.7188 L141.8168 92 ZM154.5492 92.1875 C155.4554 92.1875 156.3304 91.8281 157.0179 91.2188 L156.4554 90.3594 C155.9867 90.7969 155.3617 91.125 154.6586 91.125 C153.2679 91.125 152.3148 89.9531 152.3148 88.2031 C152.3148 86.4531 153.3148 85.2656 154.7054 85.2656 C155.3148 85.2656 155.7679 85.5469 156.2211 85.9375 L156.8773 85.0938 C156.3304 84.625 155.6429 84.2031 154.6429 84.2031 C152.7054 84.2031 150.9867 85.6719 150.9867 88.2031 C150.9867 90.7188 152.5336 92.1875 154.5492 92.1875 Z"
      /><rect x="109" y="81" width="22" style="fill:white; stroke:none;" height="10"
      /><path style="stroke:none;" d="M112.7031 92.1875 C114.5156 92.1875 115.9844 91.0938 115.9844 89.25 C115.9844 87.8594 115.0156 86.9375 113.8125 86.6562 L113.8125 86.5938 C114.8906 86.1875 115.6406 85.3594 115.6406 84.125 C115.6406 82.5 114.375 81.5469 112.6562 81.5469 C111.4688 81.5469 110.5469 82.0625 109.7812 82.7812 L110.4688 83.5938 C111.0469 83 111.7656 82.5938 112.5938 82.5938 C113.6562 82.5938 114.3281 83.2344 114.3281 84.2188 C114.3281 85.3281 113.6094 86.1719 111.4844 86.1719 L111.4844 87.1562 C113.8594 87.1562 114.6875 87.9844 114.6875 89.2031 C114.6875 90.3906 113.8125 91.125 112.5938 91.125 C111.4375 91.125 110.6562 90.5781 110.0469 89.9375 L109.4062 90.7812 C110.0781 91.5156 111.0938 92.1875 112.7031 92.1875 ZM119.9418 86.2656 C120.3168 85.0938 120.645 83.9844 120.9731 82.7812 L121.02 82.7812 C121.3637 83.9844 121.6762 85.0938 122.0668 86.2656 L122.5512 87.8281 L119.4418 87.8281 L119.9418 86.2656 ZM116.8168 92 L118.1293 92 L119.1293 88.8594 L122.8793 88.8594 L123.8481 92 L125.2231 92 L121.7387 81.7188 L120.3012 81.7188 L116.8168 92 ZM129.5492 92.1875 C130.4554 92.1875 131.3304 91.8281 132.0179 91.2188 L131.4554 90.3594 C130.9867 90.7969 130.3617 91.125 129.6586 91.125 C128.2679 91.125 127.3148 89.9531 127.3148 88.2031 C127.3148 86.4531 128.3148 85.2656 129.7054 85.2656 C130.3148 85.2656 130.7679 85.5469 131.2211 85.9375 L131.8773 85.0938 C131.3304 84.625 130.6429 84.2031 129.6429 84.2031 C127.7054 84.2031 125.9867 85.6719 125.9867 88.2031 C125.9867 90.7188 127.5336 92.1875 129.5492 92.1875 Z"
      /><rect x="121" y="35" width="22" style="fill:white; stroke:none;" height="10"
      /><path style="stroke:none;" d="M125.1094 40.5781 C126.3438 40.5781 126.9688 41.4688 126.9688 42.8438 C126.9688 44.25 126.1875 45.1875 125.2188 45.1875 C123.9219 45.1875 123.1562 44.0312 123 41.8906 C123.625 40.9531 124.4531 40.5781 125.1094 40.5781 ZM125.2188 46.1875 C126.8125 46.1875 128.1562 44.8438 128.1562 42.8438 C128.1562 40.7031 127.0469 39.625 125.3125 39.625 C124.5 39.625 123.6094 40.1094 122.9688 40.875 C123.0312 37.6875 124.2188 36.6094 125.625 36.6094 C126.25 36.6094 126.8594 36.9062 127.2656 37.3906 L127.9688 36.5938 C127.4062 35.9844 126.6406 35.5469 125.5781 35.5469 C123.5938 35.5469 121.7812 37.0781 121.7812 41.0938 C121.7812 44.4844 123.2344 46.1875 125.2188 46.1875 ZM131.9418 40.2656 C132.3168 39.0938 132.645 37.9844 132.9731 36.7812 L133.02 36.7812 C133.3637 37.9844 133.6762 39.0938 134.0668 40.2656 L134.5512 41.8281 L131.4418 41.8281 L131.9418 40.2656 ZM128.8168 46 L130.1293 46 L131.1293 42.8594 L134.8793 42.8594 L135.8481 46 L137.2231 46 L133.7387 35.7188 L132.3012 35.7188 L128.8168 46 ZM141.5492 46.1875 C142.4554 46.1875 143.3304 45.8281 144.0179 45.2188 L143.4554 44.3594 C142.9867 44.7969 142.3617 45.125 141.6586 45.125 C140.2679 45.125 139.3148 43.9531 139.3148 42.2031 C139.3148 40.4531 140.3148 39.2656 141.7054 39.2656 C142.3148 39.2656 142.7679 39.5469 143.2211 39.9375 L143.8773 39.0938 C143.3304 38.625 142.6429 38.2031 141.6429 38.2031 C139.7054 38.2031 137.9867 39.6719 137.9867 42.2031 C137.9867 44.7188 139.5336 46.1875 141.5492 46.1875 Z"
    /></g
    ><g style="fill:white; text-rendering:optimizeSpeed; stroke:white;"
    ><rect x="43" y="53" width="22" style="clip-path:url(#clipPath2); stroke:none;" height="22"
      /><rect x="43" y="53" width="22" style="clip-path:url(#clipPath2); fill:rgb(143,204,233); stroke:none;" height="22"
      /><rect x="43" y="53" width="22" style="clip-path:url(#clipPath2); fill:none; stroke:black;" height="22"
      /><rect x="43" y="53" width="22" style="fill:none; stroke:black;" height="22"
      /><rect x="42" width="22" height="10" y="81" style="stroke:none;"
    /></g
    ><g style="text-rendering:optimizeSpeed; font-size:14px; font-family:'SansSerif';"
    ><path style="stroke:none;" d="M45.7031 92.1875 C47.5156 92.1875 48.9844 91.0938 48.9844 89.25 C48.9844 87.8594 48.0156 86.9375 46.8125 86.6562 L46.8125 86.5938 C47.8906 86.1875 48.6406 85.3594 48.6406 84.125 C48.6406 82.5 47.375 81.5469 45.6562 81.5469 C44.4688 81.5469 43.5469 82.0625 42.7812 82.7812 L43.4688 83.5938 C44.0469 83 44.7656 82.5938 45.5938 82.5938 C46.6562 82.5938 47.3281 83.2344 47.3281 84.2188 C47.3281 85.3281 46.6094 86.1719 44.4844 86.1719 L44.4844 87.1562 C46.8594 87.1562 47.6875 87.9844 47.6875 89.2031 C47.6875 90.3906 46.8125 91.125 45.5938 91.125 C44.4375 91.125 43.6562 90.5781 43.0469 89.9375 L42.4062 90.7812 C43.0781 91.5156 44.0938 92.1875 45.7031 92.1875 ZM52.9418 86.2656 C53.3168 85.0938 53.645 83.9844 53.9731 82.7812 L54.02 82.7812 C54.3637 83.9844 54.6762 85.0938 55.0668 86.2656 L55.5512 87.8281 L52.4418 87.8281 L52.9418 86.2656 ZM49.8168 92 L51.1293 92 L52.1293 88.8594 L55.8793 88.8594 L56.8481 92 L58.2231 92 L54.7387 81.7188 L53.3012 81.7188 L49.8168 92 ZM62.5492 92.1875 C63.4554 92.1875 64.3304 91.8281 65.0179 91.2188 L64.4554 90.3594 C63.9867 90.7969 63.3617 91.125 62.6586 91.125 C61.2679 91.125 60.3148 89.9531 60.3148 88.2031 C60.3148 86.4531 61.3148 85.2656 62.7054 85.2656 C63.3148 85.2656 63.7679 85.5469 64.2211 85.9375 L64.8773 85.0938 C64.3304 84.625 63.6429 84.2031 62.6429 84.2031 C60.7054 84.2031 58.9867 85.6719 58.9867 88.2031 C58.9867 90.7188 60.5336 92.1875 62.5492 92.1875 Z"
      /><rect x="30" y="35" width="22" style="fill:white; stroke:none;" height="10"
      /><path style="stroke:none;" d="M31.6094 42.1562 L33.9531 38.6562 C34.2344 38.1406 34.5156 37.6406 34.7812 37.1406 L34.8281 37.1406 C34.7969 37.6719 34.7656 38.5 34.7656 39 L34.7656 42.1562 L31.6094 42.1562 ZM34.7656 46 L35.9688 46 L35.9688 43.1719 L37.3281 43.1719 L37.3281 42.1562 L35.9688 42.1562 L35.9688 35.7188 L34.5469 35.7188 L30.2812 42.3281 L30.2812 43.1719 L34.7656 43.1719 L34.7656 46 ZM40.9418 40.2656 C41.3168 39.0938 41.645 37.9844 41.9731 36.7812 L42.02 36.7812 C42.3637 37.9844 42.6762 39.0938 43.0668 40.2656 L43.5512 41.8281 L40.4418 41.8281 L40.9418 40.2656 ZM37.8168 46 L39.1293 46 L40.1293 42.8594 L43.8793 42.8594 L44.8481 46 L46.2231 46 L42.7387 35.7188 L41.3012 35.7188 L37.8168 46 ZM50.5492 46.1875 C51.4554 46.1875 52.3304 45.8281 53.0179 45.2188 L52.4554 44.3594 C51.9867 44.7969 51.3617 45.125 50.6586 45.125 C49.2679 45.125 48.3148 43.9531 48.3148 42.2031 C48.3148 40.4531 49.3148 39.2656 50.7054 39.2656 C51.3148 39.2656 51.7679 39.5469 52.2211 39.9375 L52.8773 39.0938 C52.3304 38.625 51.6429 38.2031 50.6429 38.2031 C48.7054 38.2031 46.9867 39.6719 46.9867 42.2031 C46.9867 44.7188 48.5336 46.1875 50.5492 46.1875 Z"
      /><rect x="55" y="35" width="22" style="fill:white; stroke:none;" height="10"
      /><path style="stroke:none;" d="M59.1094 40.5781 C60.3438 40.5781 60.9688 41.4688 60.9688 42.8438 C60.9688 44.25 60.1875 45.1875 59.2188 45.1875 C57.9219 45.1875 57.1562 44.0312 57 41.8906 C57.625 40.9531 58.4531 40.5781 59.1094 40.5781 ZM59.2188 46.1875 C60.8125 46.1875 62.1562 44.8438 62.1562 42.8438 C62.1562 40.7031 61.0469 39.625 59.3125 39.625 C58.5 39.625 57.6094 40.1094 56.9688 40.875 C57.0312 37.6875 58.2188 36.6094 59.625 36.6094 C60.25 36.6094 60.8594 36.9062 61.2656 37.3906 L61.9688 36.5938 C61.4062 35.9844 60.6406 35.5469 59.5781 35.5469 C57.5938 35.5469 55.7812 37.0781 55.7812 41.0938 C55.7812 44.4844 57.2344 46.1875 59.2188 46.1875 ZM65.9418 40.2656 C66.3168 39.0938 66.645 37.9844 66.9731 36.7812 L67.02 36.7812 C67.3637 37.9844 67.6762 39.0938 68.0668 40.2656 L68.5512 41.8281 L65.4418 41.8281 L65.9418 40.2656 ZM62.8168 46 L64.1293 46 L65.1293 42.8594 L68.8793 42.8594 L69.8481 46 L71.2231 46 L67.7387 35.7188 L66.3012 35.7188 L62.8168 46 ZM75.5492 46.1875 C76.4554 46.1875 77.3304 45.8281 78.0179 45.2188 L77.4554 44.3594 C76.9867 44.7969 76.3617 45.125 75.6586 45.125 C74.2679 45.125 73.3148 43.9531 73.3148 42.2031 C73.3148 40.4531 74.3148 39.2656 75.7054 39.2656 C76.3148 39.2656 76.7679 39.5469 77.2211 39.9375 L77.8773 39.0938 C77.3304 38.625 76.6429 38.2031 75.6429 38.2031 C73.7054 38.2031 71.9867 39.6719 71.9867 42.2031 C71.9867 44.7188 73.5336 46.1875 75.5492 46.1875 Z"
    /></g
    ><g style="fill:white; text-rendering:optimizeSpeed; font-family:'Serif'; stroke:white;"
    ><rect x="97" width="7" height="9" y="67" style="stroke:none;"
      /><path d="M98 72.5156 L100.9531 68.2656 L100.9531 72.5156 L98 72.5156 ZM103.2812 72.5156 L101.8594 72.5156 L101.8594 67.125 L101.2344 67.125 L97.3438 72.6406 L97.3438 73.1875 L100.9531 73.1875 L100.9531 76 L101.8594 76 L101.8594 73.1875 L103.2812 73.1875 L103.2812 72.5156 Z" style="fill:black; stroke:none;"
      /><rect x="84" width="6" height="13" y="65" style="stroke:none;"
      /><path d="M86.0938 71.2031 C86.0938 69.6562 86.75 68.8125 87.7969 68.8125 C88.7188 68.8125 89.2656 69.4531 89.2656 70.5156 C89.2656 71.7188 88.5 72.4375 87.1875 72.7031 L87.2969 73.3125 C89.2188 73.2344 89.9375 74.2188 89.9375 75.4375 C89.9375 76.625 89.2344 77.4219 87.9531 77.4219 C87.25 77.4219 86.6562 77.1562 86.0938 76.7188 L86.0938 71.2031 ZM85.2031 77.9062 L85.1094 80.375 L85.2656 80.4844 L86.1562 80.2656 L86.0156 77.0938 C86.5469 77.8438 87.3594 78.1719 88.1719 78.1719 C89.5625 78.1719 90.8594 77.2188 90.8594 75.4844 C90.8594 73.9531 89.875 73.1094 88.125 73 C89.5625 72.6094 90.1875 71.4531 90.1875 70.4844 C90.1875 69.0938 89.1562 68.3125 87.9062 68.3125 C86.2969 68.3125 85.2188 69.5469 85.2188 71.5156 L85.2031 77.9062 Z" style="fill:black; stroke:none;"
      /><rect x="163" width="5" height="10" y="67" style="stroke:none;"
      /><path d="M164.8906 75.6875 C164.4844 75.6875 164.1562 76.0469 164.1562 76.4219 C164.1562 76.8125 164.4844 77.1562 164.8906 77.1562 C165.2969 77.1562 165.6406 76.8125 165.6406 76.4219 C165.6406 76.0469 165.2969 75.6875 164.8906 75.6875 ZM166.4688 69.5781 C166.7188 69.8906 166.875 70.2656 166.8906 70.6562 C166.8906 71.1875 166.625 71.5 166.0312 71.7656 L165.4062 72.0156 C164.6406 72.3125 164.3906 72.5469 164.3906 72.9375 C164.3906 73.1094 164.4531 73.3438 164.5781 73.8125 L164.7344 74.3438 L165.1094 74.3438 L165.0938 73.5312 C165.0938 73.0938 165.2031 72.9688 165.7812 72.7344 L166.2031 72.5625 C167.0312 72.2188 167.4531 71.6875 167.4531 70.8438 C167.4531 69.1562 165.6562 68.1875 164.5 68.0312 C164.1094 68.125 163.9062 68.2969 163.9062 68.6406 C163.9062 68.9375 164.0625 69.1562 164.7188 69.2656 L166.4688 69.5781 Z" style="fill:black; stroke:none;"
    /></g
  ></g
></svg
>
