<?xml version="1.0"?>
<!DOCTYPE svg PUBLIC '-//W3C//DTD SVG 1.0//EN'
          'http://www.w3.org/TR/2001/REC-SVG-20010904/DTD/svg10.dtd'>
<svg xmlns:xlink="http://www.w3.org/1999/xlink" style="fill-opacity:1; color-rendering:auto; color-interpolation:auto; text-rendering:auto; stroke:black; stroke-linecap:square; stroke-miterlimit:10; shape-rendering:auto; stroke-opacity:1; fill:black; stroke-dasharray:none; font-weight:normal; stroke-width:1; font-family:'Dialog'; font-style:normal; stroke-linejoin:miter; font-size:12px; stroke-dashoffset:0; image-rendering:auto;" viewBox="0 0 238 105" xmlns="http://www.w3.org/2000/svg"
><!--Generated by the Batik Graphics2D SVG Generator--><defs id="genericDefs"
  /><g
  ><defs id="defs1"
    ><clipPath clipPathUnits="userSpaceOnUse" id="clipPath1"
      ><path style="fill-rule:evenodd;" d="M156 64 L150 71 L139 71 L134 64 L139 56 L150 56 L156 64 Z"
      /></clipPath
      ><clipPath clipPathUnits="userSpaceOnUse" id="clipPath2"
      ><path d="M82 53 L104 53 L104 75 L82 75 L82 53 Z"
      /></clipPath
      ><clipPath clipPathUnits="userSpaceOnUse" id="clipPath3"
      ><path d="M52 64 C52 70.0751 47.0751 75 41 75 C34.9249 75 30 70.0751 30 64 C30 57.9249 34.9249 53 41 53 C47.0751 53 52 57.9249 52 64 Z"
      /></clipPath
    ></defs
    ><g style="fill:white; text-rendering:optimizeSpeed; stroke:white;"
    ><rect x="0" width="238" height="105" y="0" style="stroke:none;"
      /><polygon style="fill:none; stroke:black;" points=" 197 64 145 64"
      /><path d="M197 53 C191.5 58.5 202.5 69.5 197 75" style="fill:none; stroke:black;"
      /><polygon style="fill:none; stroke:black;" points=" 145 64 93 64"
      /><polygon style="clip-path:url(#clipPath1); stroke:none;" points=" 156 64 150 71 139 71 134 64 139 56 150 56 156 64"
      /><rect x="134" y="53" width="22" style="clip-path:url(#clipPath1); stroke:none;" height="22"
      /><rect x="134" y="53" width="22" style="clip-path:url(#clipPath1); fill:none; stroke:black;" height="22"
      /><polygon style="fill:none; stroke:black;" points=" 156 64 150 71 139 71 134 64 139 56 150 56 156 64"
    /></g
    ><g style="text-rendering:optimizeSpeed; font-size:14px; font-family:'SansSerif';"
    ><path style="stroke:none;" d="M143.2344 69 L148.8594 69 L148.8594 67.9375 L146.7969 67.9375 L146.7969 58.7188 L145.8281 58.7188 C145.2656 59.0625 144.6094 59.2969 143.6875 59.4688 L143.6875 60.2812 L145.5156 60.2812 L145.5156 67.9375 L143.2344 67.9375 L143.2344 69 Z"
      /><path style="stroke:none;" d="M138.375 45 L139.5156 45 C139.6406 41.5625 140.0312 39.5 142.0938 36.8594 L142.0938 36.1875 L136.5938 36.1875 L136.5938 37.1406 L140.8438 37.1406 C139.125 39.5469 138.5156 41.6562 138.375 45 ZM143.7694 45 L144.8632 45 L144.8632 40.2656 C145.4569 39.5938 146.0038 39.2812 146.5038 39.2812 C147.3319 39.2812 147.7069 39.7969 147.7069 41.0156 L147.7069 45 L148.8007 45 L148.8007 40.2656 C149.41 39.5938 149.9413 39.2812 150.4413 39.2812 C151.2694 39.2812 151.66 39.7969 151.66 41.0156 L151.66 45 L152.7538 45 L152.7538 40.875 C152.7538 39.2031 152.1132 38.3125 150.7694 38.3125 C149.9725 38.3125 149.3007 38.8281 148.6288 39.5625 C148.3632 38.7969 147.8163 38.3125 146.8163 38.3125 C146.0507 38.3125 145.3632 38.8125 144.8007 39.4375 L144.7538 39.4375 L144.66 38.4844 L143.7694 38.4844 L143.7694 45 Z"
      /><polygon style="fill:none;" points=" 93 64 41 64"
    /></g
    ><g style="fill:white; text-rendering:optimizeSpeed; stroke:white;"
    ><rect x="82" y="53" width="22" style="clip-path:url(#clipPath2); stroke:none;" height="22"
      /><rect x="82" y="53" width="22" style="clip-path:url(#clipPath2); fill:rgb(0,144,188); stroke:none;" height="22"
      /><rect x="82" y="53" width="22" style="clip-path:url(#clipPath2); fill:none; stroke:black;" height="22"
      /><rect x="82" y="53" width="22" style="fill:none; stroke:black;" height="22"
      /><circle r="11" style="clip-path:url(#clipPath3); stroke:none;" cx="41" cy="64"
      /><rect x="30" y="53" width="22" style="clip-path:url(#clipPath3); fill:rgb(255,212,0); stroke:none;" height="22"
      /><rect x="30" y="53" width="22" style="clip-path:url(#clipPath3); fill:none; stroke:black;" height="22"
      /><circle r="11" style="fill:none; stroke:black;" cx="41" cy="64"
      /><rect x="70" width="7" height="9" y="67" style="stroke:none;"
      /><path d="M71 72.5156 L73.9531 68.2656 L73.9531 72.5156 L71 72.5156 ZM76.2812 72.5156 L74.8594 72.5156 L74.8594 67.125 L74.2344 67.125 L70.3438 72.6406 L70.3438 73.1875 L73.9531 73.1875 L73.9531 76 L74.8594 76 L74.8594 73.1875 L76.2812 73.1875 L76.2812 72.5156 Z" style="fill:black; stroke:none;"
      /><rect x="57" width="6" height="13" y="65" style="stroke:none;"
      /><path d="M59.0938 71.2031 C59.0938 69.6562 59.75 68.8125 60.7969 68.8125 C61.7188 68.8125 62.2656 69.4531 62.2656 70.5156 C62.2656 71.7188 61.5 72.4375 60.1875 72.7031 L60.2969 73.3125 C62.2188 73.2344 62.9375 74.2188 62.9375 75.4375 C62.9375 76.625 62.2344 77.4219 60.9531 77.4219 C60.25 77.4219 59.6562 77.1562 59.0938 76.7188 L59.0938 71.2031 ZM58.2031 77.9062 L58.1094 80.375 L58.2656 80.4844 L59.1562 80.2656 L59.0156 77.0938 C59.5469 77.8438 60.3594 78.1719 61.1719 78.1719 C62.5625 78.1719 63.8594 77.2188 63.8594 75.4844 C63.8594 73.9531 62.875 73.1094 61.125 73 C62.5625 72.6094 63.1875 71.4531 63.1875 70.4844 C63.1875 69.0938 62.1562 68.3125 60.9062 68.3125 C59.2969 68.3125 58.2188 69.5469 58.2188 71.5156 L58.2031 77.9062 Z" style="fill:black; stroke:none;"
      /><rect x="123" width="6" height="10" y="67" style="stroke:none;"
      /><path d="M126.3438 76.6875 C125.2031 76.6875 124.5312 75.5 124.5312 73.2969 C124.5312 73.2188 124.5312 73.125 124.5312 73.0469 C125.0938 72.5 125.7188 72.3125 126.3438 72.3125 C127.3125 72.3125 127.9531 72.9844 127.9531 74.4531 C127.9531 75.9375 127.3125 76.6875 126.3438 76.6875 ZM128.5312 68.0781 C125.3438 68.4531 123.5625 70.7656 123.5625 73.4531 C123.5625 75.7812 124.6094 77.1719 126.3125 77.1719 C127.8438 77.1719 128.9219 76.1094 128.9219 74.2812 C128.9219 72.6875 127.9688 71.6562 126.5625 71.6562 C125.8281 71.6562 125.1406 71.9844 124.5781 72.5781 C124.7969 70.4062 126.0781 68.9688 128.5938 68.3906 L128.5312 68.0781 Z" style="fill:black; stroke:none;"
      /><rect x="109" width="6" height="13" y="65" style="stroke:none;"
      /><path d="M111.0938 71.2031 C111.0938 69.6562 111.75 68.8125 112.7969 68.8125 C113.7188 68.8125 114.2656 69.4531 114.2656 70.5156 C114.2656 71.7188 113.5 72.4375 112.1875 72.7031 L112.2969 73.3125 C114.2188 73.2344 114.9375 74.2188 114.9375 75.4375 C114.9375 76.625 114.2344 77.4219 112.9531 77.4219 C112.25 77.4219 111.6562 77.1562 111.0938 76.7188 L111.0938 71.2031 ZM110.2031 77.9062 L110.1094 80.375 L110.2656 80.4844 L111.1562 80.2656 L111.0156 77.0938 C111.5469 77.8438 112.3594 78.1719 113.1719 78.1719 C114.5625 78.1719 115.8594 77.2188 115.8594 75.4844 C115.8594 73.9531 114.875 73.1094 113.125 73 C114.5625 72.6094 115.1875 71.4531 115.1875 70.4844 C115.1875 69.0938 114.1562 68.3125 112.9062 68.3125 C111.2969 68.3125 110.2188 69.5469 110.2188 71.5156 L110.2031 77.9062 Z" style="fill:black; stroke:none;"
      /><rect x="161" width="5" height="10" y="67" style="stroke:none;"
      /><path d="M162.8906 75.6875 C162.4844 75.6875 162.1562 76.0469 162.1562 76.4219 C162.1562 76.8125 162.4844 77.1562 162.8906 77.1562 C163.2969 77.1562 163.6406 76.8125 163.6406 76.4219 C163.6406 76.0469 163.2969 75.6875 162.8906 75.6875 ZM164.4688 69.5781 C164.7188 69.8906 164.875 70.2656 164.8906 70.6562 C164.8906 71.1875 164.625 71.5 164.0312 71.7656 L163.4062 72.0156 C162.6406 72.3125 162.3906 72.5469 162.3906 72.9375 C162.3906 73.1094 162.4531 73.3438 162.5781 73.8125 L162.7344 74.3438 L163.1094 74.3438 L163.0938 73.5312 C163.0938 73.0938 163.2031 72.9688 163.7812 72.7344 L164.2031 72.5625 C165.0312 72.2188 165.4531 71.6875 165.4531 70.8438 C165.4531 69.1562 163.6562 68.1875 162.5 68.0312 C162.1094 68.125 161.9062 68.2969 161.9062 68.6406 C161.9062 68.9375 162.0625 69.1562 162.7188 69.2656 L164.4688 69.5781 Z" style="fill:black; stroke:none;"
    /></g
    ><g ID="legend-1:0" style="text-rendering:optimizeSpeed; font-size:10px; font-family:'SansSerif';"
    ><path style="stroke:none;" d="M30.875 90 L34.9062 90 L34.9062 89.2344 L33.4375 89.2344 L33.4375 82.6562 L32.7344 82.6562 C32.3281 82.9062 31.8594 83.0625 31.2031 83.1875 L31.2031 83.7656 L32.5156 83.7656 L32.5156 89.2344 L30.875 89.2344 L30.875 90 ZM35.925 85.4531 L40.7219 85.4531 L40.7219 84.7656 L35.925 84.7656 L35.925 85.4531 ZM35.925 87.8438 L40.7219 87.8438 L40.7219 87.1719 L35.925 87.1719 L35.925 87.8438 ZM43.0844 90 L44.0375 90 C44.1469 87.125 44.4594 85.4219 46.1781 83.2188 L46.1781 82.6562 L41.5844 82.6562 L41.5844 83.4531 L45.1469 83.4531 C43.7094 85.4531 43.1937 87.2188 43.0844 90 ZM47.1031 87.5469 L49.6656 87.5469 L49.6656 86.8438 L47.1031 86.8438 L47.1031 87.5469 ZM52.8856 90.125 C53.5418 90.125 54.1043 89.7812 54.5418 89.3594 L54.5731 89.3594 L54.6512 90 L55.3856 90 L55.3856 82.0469 L54.495 82.0469 L54.495 84.125 L54.5262 85.0625 C54.0575 84.6719 53.6356 84.4375 52.995 84.4375 C51.7606 84.4375 50.6512 85.5312 50.6512 87.2969 C50.6512 89.0938 51.5262 90.125 52.8856 90.125 ZM53.0887 89.375 C52.1356 89.375 51.5887 88.5938 51.5887 87.2812 C51.5887 86.0469 52.2762 85.2031 53.1668 85.2031 C53.6043 85.2031 54.0262 85.3594 54.495 85.7656 L54.495 88.625 C54.0262 89.125 53.5887 89.375 53.0887 89.375 ZM59.4293 90.125 C60.1637 90.125 60.7575 89.875 61.2262 89.5625 L60.8981 88.9688 C60.5075 89.2344 60.07 89.4062 59.5387 89.4062 C58.5075 89.4062 57.8043 88.6562 57.7418 87.5 L61.3981 87.5 C61.4137 87.375 61.445 87.1875 61.445 86.9844 C61.445 85.4375 60.6637 84.4375 59.2731 84.4375 C58.0231 84.4375 56.8356 85.5312 56.8356 87.2969 C56.8356 89.0781 57.9918 90.125 59.4293 90.125 ZM57.7262 86.8438 C57.8356 85.7812 58.5231 85.1562 59.2887 85.1562 C60.1325 85.1562 60.6325 85.75 60.6325 86.8438 L57.7262 86.8438 ZM64.8912 90.125 C66.2193 90.125 67.4068 89.0938 67.4068 87.2969 C67.4068 85.4844 66.2193 84.4375 64.8912 84.4375 C63.5631 84.4375 62.3756 85.4844 62.3756 87.2969 C62.3756 89.0938 63.5631 90.125 64.8912 90.125 ZM64.8912 89.375 C63.9537 89.375 63.3131 88.5469 63.3131 87.2969 C63.3131 86.0469 63.9537 85.1875 64.8912 85.1875 C65.8287 85.1875 66.4693 86.0469 66.4693 87.2969 C66.4693 88.5469 65.8287 89.375 64.8912 89.375 ZM68.0762 90 L69.0293 90 L69.7637 88.7344 C69.9512 88.4062 70.1231 88.0625 70.3262 87.7656 L70.3731 87.7656 C70.5762 88.0625 70.7637 88.4062 70.9512 88.7344 L71.7481 90 L72.7481 90 L70.9668 87.2656 L72.6075 84.5625 L71.6543 84.5625 L70.9825 85.7656 C70.8262 86.0625 70.67 86.375 70.4981 86.6719 L70.4668 86.6719 C70.2793 86.375 70.0918 86.0625 69.92 85.7656 L69.1856 84.5625 L68.2168 84.5625 L69.8575 87.1719 L68.0762 90 ZM73.9156 92.3438 C74.9937 92.3438 75.5562 91.5156 75.9312 90.4531 L77.9781 84.5625 L77.0874 84.5625 L76.1187 87.5938 C75.9624 88.0625 75.8062 88.625 75.6656 89.1094 L75.6031 89.1094 C75.4468 88.625 75.2437 88.0625 75.0874 87.5938 L73.9781 84.5625 L73.0249 84.5625 L75.2124 90.0156 L75.0874 90.4219 C74.8687 91.0938 74.4781 91.5938 73.8531 91.5938 C73.7124 91.5938 73.5562 91.5469 73.4468 91.5 L73.2749 92.2344 C73.4468 92.2969 73.6499 92.3438 73.9156 92.3438 ZM78.5631 87.5469 L81.1256 87.5469 L81.1256 86.8438 L78.5631 86.8438 L78.5631 87.5469 ZM82.5799 90 L84.4549 90 C86.6737 90 87.8768 88.625 87.8768 86.3125 C87.8768 83.9844 86.6737 82.6562 84.4237 82.6562 L82.5799 82.6562 L82.5799 90 ZM83.5174 89.2344 L83.5174 83.4219 L84.3456 83.4219 C86.0643 83.4219 86.9237 84.4531 86.9237 86.3125 C86.9237 88.1562 86.0643 89.2344 84.3456 89.2344 L83.5174 89.2344 ZM88.9031 87.5469 L91.4656 87.5469 L91.4656 86.8438 L88.9031 86.8438 L88.9031 87.5469 ZM94.6699 92.5 C96.3574 92.5 97.4199 91.625 97.4199 90.625 C97.4199 89.7344 96.7793 89.3281 95.5137 89.3281 L94.4668 89.3281 C93.7324 89.3281 93.5137 89.0938 93.5137 88.7344 C93.5137 88.4375 93.6543 88.2656 93.8574 88.0938 C94.1074 88.2031 94.4043 88.2812 94.6699 88.2812 C95.7637 88.2812 96.6543 87.5469 96.6543 86.3906 C96.6543 85.9219 96.4668 85.5156 96.2168 85.2656 L97.3262 85.2656 L97.3262 84.5625 L95.4356 84.5625 C95.2324 84.5 94.9668 84.4375 94.6699 84.4375 C93.5762 84.4375 92.6231 85.1875 92.6231 86.375 C92.6231 87.0156 92.9824 87.5469 93.3418 87.8281 L93.3418 87.875 C93.0606 88.0625 92.7324 88.4375 92.7324 88.875 C92.7324 89.3125 92.9356 89.5938 93.2324 89.7656 L93.2324 89.8125 C92.7168 90.1406 92.4356 90.5781 92.4356 91.0469 C92.4356 91.9844 93.3418 92.5 94.6699 92.5 ZM94.6699 87.6562 C94.0449 87.6562 93.5137 87.1562 93.5137 86.375 C93.5137 85.5625 94.0293 85.0938 94.6699 85.0938 C95.3106 85.0938 95.8262 85.5781 95.8262 86.375 C95.8262 87.1562 95.2949 87.6562 94.6699 87.6562 ZM94.7949 91.875 C93.8262 91.875 93.2324 91.5 93.2324 90.9219 C93.2324 90.5938 93.3887 90.2812 93.7793 90 C94.0137 90.0625 94.2793 90.0938 94.4824 90.0938 L95.4199 90.0938 C96.1387 90.0938 96.5293 90.2656 96.5293 90.7656 C96.5293 91.3281 95.8418 91.875 94.7949 91.875 ZM98.4718 90 L99.3781 90 L99.3781 86.5156 C99.7374 85.5781 100.2999 85.2656 100.7531 85.2656 C100.9718 85.2656 101.0968 85.2812 101.2843 85.3438 L101.4562 84.5469 C101.2843 84.4531 101.1124 84.4375 100.8624 84.4375 C100.2531 84.4375 99.7062 84.875 99.3312 85.5625 L99.2999 85.5625 L99.2218 84.5625 L98.4718 84.5625 L98.4718 90 ZM104.4612 90.125 C105.7893 90.125 106.9768 89.0938 106.9768 87.2969 C106.9768 85.4844 105.7893 84.4375 104.4612 84.4375 C103.133 84.4375 101.9455 85.4844 101.9455 87.2969 C101.9455 89.0938 103.133 90.125 104.4612 90.125 ZM104.4612 89.375 C103.5237 89.375 102.883 88.5469 102.883 87.2969 C102.883 86.0469 103.5237 85.1875 104.4612 85.1875 C105.3987 85.1875 106.0393 86.0469 106.0393 87.2969 C106.0393 88.5469 105.3987 89.375 104.4612 89.375 ZM107.943 87.5469 L110.5055 87.5469 L110.5055 86.8438 L107.943 86.8438 L107.943 87.5469 ZM112.7412 87.7969 L113.5537 87.7969 C113.3662 86.2188 115.163 85.625 115.163 84.1562 C115.163 83.0625 114.4287 82.375 113.3037 82.375 C112.4912 82.375 111.8505 82.7656 111.3974 83.2969 L111.913 83.7812 C112.2568 83.375 112.6943 83.1406 113.1943 83.1406 C113.913 83.1406 114.2724 83.625 114.2724 84.2188 C114.2724 85.4062 112.5068 86.0469 112.7412 87.7969 ZM113.163 90.125 C113.538 90.125 113.8349 89.8438 113.8349 89.4375 C113.8349 89.0156 113.538 88.7344 113.163 88.7344 C112.8037 88.7344 112.5068 89.0156 112.5068 89.4375 C112.5068 89.8438 112.8037 90.125 113.163 90.125 ZM116.153 87.5469 L118.7155 87.5469 L118.7155 86.8438 L116.153 86.8438 L116.153 87.5469 ZM120.1699 90 L122.0449 90 C124.2637 90 125.4668 88.625 125.4668 86.3125 C125.4668 83.9844 124.2637 82.6562 122.0137 82.6562 L120.1699 82.6562 L120.1699 90 ZM121.1074 89.2344 L121.1074 83.4219 L121.9355 83.4219 C123.6543 83.4219 124.5137 84.4531 124.5137 86.3125 C124.5137 88.1562 123.6543 89.2344 121.9355 89.2344 L121.1074 89.2344 ZM126.493 87.5469 L129.0555 87.5469 L129.0555 86.8438 L126.493 86.8438 L126.493 87.5469 ZM132.2599 92.5 C133.9474 92.5 135.0099 91.625 135.0099 90.625 C135.0099 89.7344 134.3693 89.3281 133.1037 89.3281 L132.0568 89.3281 C131.3224 89.3281 131.1037 89.0938 131.1037 88.7344 C131.1037 88.4375 131.2443 88.2656 131.4474 88.0938 C131.6974 88.2031 131.9943 88.2812 132.2599 88.2812 C133.3537 88.2812 134.2443 87.5469 134.2443 86.3906 C134.2443 85.9219 134.0568 85.5156 133.8068 85.2656 L134.9162 85.2656 L134.9162 84.5625 L133.0255 84.5625 C132.8224 84.5 132.5568 84.4375 132.2599 84.4375 C131.1662 84.4375 130.213 85.1875 130.213 86.375 C130.213 87.0156 130.5724 87.5469 130.9318 87.8281 L130.9318 87.875 C130.6505 88.0625 130.3224 88.4375 130.3224 88.875 C130.3224 89.3125 130.5255 89.5938 130.8224 89.7656 L130.8224 89.8125 C130.3068 90.1406 130.0255 90.5781 130.0255 91.0469 C130.0255 91.9844 130.9318 92.5 132.2599 92.5 ZM132.2599 87.6562 C131.6349 87.6562 131.1037 87.1562 131.1037 86.375 C131.1037 85.5625 131.6193 85.0938 132.2599 85.0938 C132.9005 85.0938 133.4162 85.5781 133.4162 86.375 C133.4162 87.1562 132.8849 87.6562 132.2599 87.6562 ZM132.3849 91.875 C131.4162 91.875 130.8224 91.5 130.8224 90.9219 C130.8224 90.5938 130.9787 90.2812 131.3693 90 C131.6037 90.0625 131.8693 90.0938 132.0724 90.0938 L133.0099 90.0938 C133.7287 90.0938 134.1193 90.2656 134.1193 90.7656 C134.1193 91.3281 133.4318 91.875 132.3849 91.875 ZM137.3118 90.125 C137.9836 90.125 138.593 89.7812 139.1086 89.3438 L139.1399 89.3438 L139.218 90 L139.968 90 L139.968 86.6562 C139.968 85.3125 139.4055 84.4375 138.093 84.4375 C137.218 84.4375 136.4524 84.8125 135.9524 85.1406 L136.3118 85.7656 C136.7336 85.4844 137.3118 85.1875 137.9368 85.1875 C138.8274 85.1875 139.0618 85.8594 139.0618 86.5625 C136.7493 86.8125 135.718 87.4062 135.718 88.5938 C135.718 89.5625 136.4055 90.125 137.3118 90.125 ZM137.5774 89.4062 C137.0305 89.4062 136.6086 89.1562 136.6086 88.5312 C136.6086 87.8281 137.2336 87.375 139.0618 87.1562 L139.0618 88.6875 C138.5305 89.1562 138.093 89.4062 137.5774 89.4062 ZM142.6549 90.125 C142.9049 90.125 143.0611 90.0938 143.1861 90.0469 L143.0611 89.3438 C142.9674 89.375 142.9205 89.375 142.8736 89.375 C142.733 89.375 142.608 89.2656 142.608 88.9844 L142.608 82.0469 L141.7018 82.0469 L141.7018 88.9219 C141.7018 89.6875 141.983 90.125 142.6549 90.125 ZM144.6299 90 L145.5674 90 L145.5674 86.5469 L148.9736 86.5469 L148.9736 90 L149.8955 90 L149.8955 82.6562 L148.9736 82.6562 L148.9736 85.7344 L145.5674 85.7344 L145.5674 82.6562 L144.6299 82.6562 L144.6299 90 ZM154.0193 90.125 C154.7536 90.125 155.3474 89.875 155.8161 89.5625 L155.488 88.9688 C155.0974 89.2344 154.6599 89.4062 154.1286 89.4062 C153.0974 89.4062 152.3943 88.6562 152.3318 87.5 L155.988 87.5 C156.0036 87.375 156.0349 87.1875 156.0349 86.9844 C156.0349 85.4375 155.2536 84.4375 153.863 84.4375 C152.613 84.4375 151.4255 85.5312 151.4255 87.2969 C151.4255 89.0781 152.5818 90.125 154.0193 90.125 ZM152.3161 86.8438 C152.4255 85.7812 153.113 85.1562 153.8786 85.1562 C154.7224 85.1562 155.2224 85.75 155.2224 86.8438 L152.3161 86.8438 ZM157.3717 92.2969 L158.278 92.2969 L158.278 90.4531 L158.2624 89.5 C158.7467 89.9062 159.2624 90.125 159.7624 90.125 C161.0124 90.125 162.1217 89.0625 162.1217 87.2031 C162.1217 85.5312 161.3561 84.4375 159.9655 84.4375 C159.3249 84.4375 158.7155 84.7969 158.2311 85.1875 L158.1999 85.1875 L158.1217 84.5625 L157.3717 84.5625 L157.3717 92.2969 ZM159.6061 89.375 C159.2467 89.375 158.7624 89.2188 158.278 88.7969 L158.278 85.9531 C158.8092 85.4531 159.278 85.2031 159.7467 85.2031 C160.7624 85.2031 161.1686 86.0156 161.1686 87.2031 C161.1686 88.5625 160.5124 89.375 159.6061 89.375 ZM163.5717 92.2969 L164.478 92.2969 L164.478 90.4531 L164.4624 89.5 C164.9467 89.9062 165.4624 90.125 165.9624 90.125 C167.2124 90.125 168.3217 89.0625 168.3217 87.2031 C168.3217 85.5312 167.5561 84.4375 166.1655 84.4375 C165.5249 84.4375 164.9155 84.7969 164.4311 85.1875 L164.3999 85.1875 L164.3217 84.5625 L163.5717 84.5625 L163.5717 92.2969 ZM165.8061 89.375 C165.4467 89.375 164.9624 89.2188 164.478 88.7969 L164.478 85.9531 C165.0092 85.4531 165.478 85.2031 165.9467 85.2031 C166.9624 85.2031 167.3686 86.0156 167.3686 87.2031 C167.3686 88.5625 166.7124 89.375 165.8061 89.375 Z"
    /></g
  ></g
></svg
>
