<?xml version="1.0"?>
<!DOCTYPE svg PUBLIC '-//W3C//DTD SVG 1.0//EN'
          'http://www.w3.org/TR/2001/REC-SVG-20010904/DTD/svg10.dtd'>
<svg xmlns:xlink="http://www.w3.org/1999/xlink" style="fill-opacity:1; color-rendering:auto; color-interpolation:auto; text-rendering:auto; stroke:black; stroke-linecap:square; stroke-miterlimit:10; shape-rendering:auto; stroke-opacity:1; fill:black; stroke-dasharray:none; font-weight:normal; stroke-width:1; font-family:'Dialog'; font-style:normal; stroke-linejoin:miter; font-size:12px; stroke-dashoffset:0; image-rendering:auto;" viewBox="0 0 238 157" xmlns="http://www.w3.org/2000/svg"
><!--Generated by the Batik Graphics2D SVG Generator--><defs id="genericDefs"
  /><g
  ><defs id="defs1"
    ><clipPath clipPathUnits="userSpaceOnUse" id="clipPath1"
      ><path d="M134 79 L156 79 L156 101 L134 101 L134 79 Z"
      /></clipPath
      ><clipPath clipPathUnits="userSpaceOnUse" id="clipPath2"
      ><path d="M104 116 C104 122.0751 99.0751 127 93 127 C86.9249 127 82 122.0751 82 116 C82 109.9249 86.9249 105 93 105 C99.0751 105 104 109.9249 104 116 Z"
      /></clipPath
      ><clipPath clipPathUnits="userSpaceOnUse" id="clipPath3"
      ><path d="M82 53 L104 53 L104 75 L82 75 L82 53 Z"
      /></clipPath
      ><clipPath clipPathUnits="userSpaceOnUse" id="clipPath4"
      ><path d="M30 53 L52 53 L52 75 L30 75 L30 53 Z"
      /></clipPath
    ></defs
    ><g style="fill:white; text-rendering:optimizeSpeed; stroke:white;"
    ><rect x="0" width="238" height="157" y="0" style="stroke:none;"
      /><polygon style="fill:none; stroke:black;" points=" 197 90 145 90"
      /><path d="M197 79 C191.5 84.5 202.5 95.5 197 101" style="fill:none; stroke:black;"
      /><polygon style="fill:none; stroke:black;" points=" 145 90 93 116"
      /><polygon style="fill:none; stroke:black;" points=" 145 90 93 64"
      /><rect x="134" y="79" width="22" style="clip-path:url(#clipPath1); stroke:none;" height="22"
      /><rect x="134" y="79" width="22" style="clip-path:url(#clipPath1); fill:rgb(255,212,0); stroke:none;" height="22"
      /><rect x="134" y="79" width="22" style="clip-path:url(#clipPath1); fill:none; stroke:black;" height="22"
      /><rect x="134" y="79" width="22" style="fill:none; stroke:black;" height="22"
      /><circle style="clip-path:url(#clipPath2); stroke:none;" r="11" cx="93" cy="116"
      /><rect x="82" y="105" width="22" style="clip-path:url(#clipPath2); fill:rgb(255,212,0); stroke:none;" height="22"
      /><rect x="82" y="105" width="22" style="clip-path:url(#clipPath2); fill:none; stroke:black;" height="22"
      /><circle style="fill:none; stroke:black;" r="11" cx="93" cy="116"
      /><polygon style="fill:none; stroke:black;" points=" 93 64 41 64"
      /><rect x="82" y="53" width="22" style="clip-path:url(#clipPath3); stroke:none;" height="22"
      /><rect x="82" y="53" width="22" style="clip-path:url(#clipPath3); fill:rgb(0,144,188); stroke:none;" height="22"
      /><rect x="82" y="53" width="22" style="clip-path:url(#clipPath3); fill:none; stroke:black;" height="22"
      /><rect x="82" y="53" width="22" style="fill:none; stroke:black;" height="22"
      /><rect x="30" y="53" width="22" style="clip-path:url(#clipPath4); stroke:none;" height="22"
      /><rect x="30" y="53" width="22" style="clip-path:url(#clipPath4); fill:rgb(255,212,0); stroke:none;" height="22"
      /><rect x="30" y="53" width="22" style="clip-path:url(#clipPath4); fill:none; stroke:black;" height="22"
      /><rect x="30" y="53" width="22" style="fill:none; stroke:black;" height="22"
      /><rect x="33" y="35" width="15" style="stroke:none;" height="10"
    /></g
    ><g style="text-rendering:optimizeSpeed; font-size:14px; font-family:'SansSerif';"
    ><path style="stroke:none;" d="M34.6094 42.1562 L36.9531 38.6562 C37.2344 38.1406 37.5156 37.6406 37.7812 37.1406 L37.8281 37.1406 C37.7969 37.6719 37.7656 38.5 37.7656 39 L37.7656 42.1562 L34.6094 42.1562 ZM37.7656 46 L38.9688 46 L38.9688 43.1719 L40.3281 43.1719 L40.3281 42.1562 L38.9688 42.1562 L38.9688 35.7188 L37.5469 35.7188 L33.2812 42.3281 L33.2812 43.1719 L37.7656 43.1719 L37.7656 46 ZM45.02 46.1875 C47.1606 46.1875 48.5043 44.8906 48.5043 43.2656 C48.5043 41.75 47.5825 41.0469 46.395 40.5312 L44.9262 39.8906 C44.1293 39.5625 43.2387 39.1875 43.2387 38.1875 C43.2387 37.2656 43.9887 36.6719 45.145 36.6719 C46.0981 36.6719 46.8637 37.0469 47.4887 37.6406 L48.1762 36.8125 C47.4418 36.0625 46.3637 35.5469 45.145 35.5469 C43.2856 35.5469 41.9106 36.6875 41.9106 38.2656 C41.9106 39.7656 43.0512 40.5 44.0043 40.9062 L45.4887 41.5469 C46.4575 41.9844 47.1918 42.3125 47.1918 43.375 C47.1918 44.375 46.3793 45.0469 45.0356 45.0469 C43.9731 45.0469 42.9418 44.5469 42.2075 43.7812 L41.4262 44.6562 C42.3168 45.5938 43.5668 46.1875 45.02 46.1875 Z"
    /></g
    ><g style="fill:white; text-rendering:optimizeSpeed; font-family:'Serif'; stroke:white;"
    ><rect x="70" width="7" height="9" y="67" style="stroke:none;"
      /><path d="M71 72.5156 L73.9531 68.2656 L73.9531 72.5156 L71 72.5156 ZM76.2812 72.5156 L74.8594 72.5156 L74.8594 67.125 L74.2344 67.125 L70.3438 72.6406 L70.3438 73.1875 L73.9531 73.1875 L73.9531 76 L74.8594 76 L74.8594 73.1875 L76.2812 73.1875 L76.2812 72.5156 Z" style="fill:black; stroke:none;"
      /><rect x="57" width="6" height="13" y="65" style="stroke:none;"
      /><path d="M59.0938 71.2031 C59.0938 69.6562 59.75 68.8125 60.7969 68.8125 C61.7188 68.8125 62.2656 69.4531 62.2656 70.5156 C62.2656 71.7188 61.5 72.4375 60.1875 72.7031 L60.2969 73.3125 C62.2188 73.2344 62.9375 74.2188 62.9375 75.4375 C62.9375 76.625 62.2344 77.4219 60.9531 77.4219 C60.25 77.4219 59.6562 77.1562 59.0938 76.7188 L59.0938 71.2031 ZM58.2031 77.9062 L58.1094 80.375 L58.2656 80.4844 L59.1562 80.2656 L59.0156 77.0938 C59.5469 77.8438 60.3594 78.1719 61.1719 78.1719 C62.5625 78.1719 63.8594 77.2188 63.8594 75.4844 C63.8594 73.9531 62.875 73.1094 61.125 73 C62.5625 72.6094 63.1875 71.4531 63.1875 70.4844 C63.1875 69.0938 62.1562 68.3125 60.9062 68.3125 C59.2969 68.3125 58.2188 69.5469 58.2188 71.5156 L58.2031 77.9062 Z" style="fill:black; stroke:none;"
      /><rect x="127" width="6" height="10" y="101" style="stroke:none;"
      /><path d="M129.2344 102.6562 C129.5156 102.5938 129.7656 102.5625 130.0156 102.5625 C131.0625 102.5625 131.6719 103.1719 131.6719 104.2656 C131.6719 105.4375 130.9062 106.1094 129.7031 106.1094 L129.1875 106.1094 L129.1875 106.6406 L129.7969 106.6406 C131.2188 106.6406 131.9062 107.4219 131.9062 108.6406 C131.9062 109.8438 131.1719 110.6875 129.875 110.6875 C129.6094 110.6875 129.3125 110.6562 129.0156 110.5625 L128.7812 109.8125 C128.625 109.2812 128.5 109.0469 128.1406 109.0469 C127.8906 109.0469 127.7031 109.1719 127.5781 109.4219 C127.8438 110.6406 128.7812 111.1719 130.0312 111.1719 C131.7188 111.1719 132.875 110.125 132.875 108.7031 C132.875 107.5 132.2031 106.625 130.7969 106.375 C131.9531 106.0156 132.6094 105.2031 132.6094 104.2031 C132.6094 102.9219 131.6719 102.0781 130.1875 102.0781 C129.0469 102.0781 128.0625 102.5938 127.7969 103.6875 C127.9062 104 128.1094 104.1094 128.3594 104.1094 C128.7344 104.1094 128.8906 103.8906 129 103.4062 L129.2344 102.6562 Z" style="fill:black; stroke:none;"
      /><rect x="111" width="6" height="13" y="107" style="stroke:none;"
      /><path d="M113.0938 113.2031 C113.0938 111.6562 113.75 110.8125 114.7969 110.8125 C115.7188 110.8125 116.2656 111.4531 116.2656 112.5156 C116.2656 113.7188 115.5 114.4375 114.1875 114.7031 L114.2969 115.3125 C116.2188 115.2344 116.9375 116.2188 116.9375 117.4375 C116.9375 118.625 116.2344 119.4219 114.9531 119.4219 C114.25 119.4219 113.6562 119.1562 113.0938 118.7188 L113.0938 113.2031 ZM112.2031 119.9062 L112.1094 122.375 L112.2656 122.4844 L113.1562 122.2656 L113.0156 119.0938 C113.5469 119.8438 114.3594 120.1719 115.1719 120.1719 C116.5625 120.1719 117.8594 119.2188 117.8594 117.4844 C117.8594 115.9531 116.875 115.1094 115.125 115 C116.5625 114.6094 117.1875 113.4531 117.1875 112.4844 C117.1875 111.0938 116.1562 110.3125 114.9062 110.3125 C113.2969 110.3125 112.2188 111.5469 112.2188 113.5156 L112.2031 119.9062 Z" style="fill:black; stroke:none;"
      /><rect x="120" width="6" height="10" y="83" style="stroke:none;"
      /><path d="M123.3438 92.6875 C122.2031 92.6875 121.5312 91.5 121.5312 89.2969 C121.5312 89.2188 121.5312 89.125 121.5312 89.0469 C122.0938 88.5 122.7188 88.3125 123.3438 88.3125 C124.3125 88.3125 124.9531 88.9844 124.9531 90.4531 C124.9531 91.9375 124.3125 92.6875 123.3438 92.6875 ZM125.5312 84.0781 C122.3438 84.4531 120.5625 86.7656 120.5625 89.4531 C120.5625 91.7812 121.6094 93.1719 123.3125 93.1719 C124.8438 93.1719 125.9219 92.1094 125.9219 90.2812 C125.9219 88.6875 124.9688 87.6562 123.5625 87.6562 C122.8281 87.6562 122.1406 87.9844 121.5781 88.5781 C121.7969 86.4062 123.0781 84.9688 125.5938 84.3906 L125.5312 84.0781 Z" style="fill:black; stroke:none;"
      /><rect x="104" width="6" height="13" y="73" style="stroke:none;"
      /><path d="M106.0938 79.2031 C106.0938 77.6562 106.75 76.8125 107.7969 76.8125 C108.7188 76.8125 109.2656 77.4531 109.2656 78.5156 C109.2656 79.7188 108.5 80.4375 107.1875 80.7031 L107.2969 81.3125 C109.2188 81.2344 109.9375 82.2188 109.9375 83.4375 C109.9375 84.625 109.2344 85.4219 107.9531 85.4219 C107.25 85.4219 106.6562 85.1562 106.0938 84.7188 L106.0938 79.2031 ZM105.2031 85.9062 L105.1094 88.375 L105.2656 88.4844 L106.1562 88.2656 L106.0156 85.0938 C106.5469 85.8438 107.3594 86.1719 108.1719 86.1719 C109.5625 86.1719 110.8594 85.2188 110.8594 83.4844 C110.8594 81.9531 109.875 81.1094 108.125 81 C109.5625 80.6094 110.1875 79.4531 110.1875 78.4844 C110.1875 77.0938 109.1562 76.3125 107.9062 76.3125 C106.2969 76.3125 105.2188 77.5469 105.2188 79.5156 L105.2031 85.9062 Z" style="fill:black; stroke:none;"
      /><rect x="161" width="6" height="13" y="91" style="stroke:none;"
      /><path d="M163.0938 97.2031 C163.0938 95.6562 163.75 94.8125 164.7969 94.8125 C165.7188 94.8125 166.2656 95.4531 166.2656 96.5156 C166.2656 97.7188 165.5 98.4375 164.1875 98.7031 L164.2969 99.3125 C166.2188 99.2344 166.9375 100.2188 166.9375 101.4375 C166.9375 102.625 166.2344 103.4219 164.9531 103.4219 C164.25 103.4219 163.6562 103.1562 163.0938 102.7188 L163.0938 97.2031 ZM162.2031 103.9062 L162.1094 106.375 L162.2656 106.4844 L163.1562 106.2656 L163.0156 103.0938 C163.5469 103.8438 164.3594 104.1719 165.1719 104.1719 C166.5625 104.1719 167.8594 103.2188 167.8594 101.4844 C167.8594 99.9531 166.875 99.1094 165.125 99 C166.5625 98.6094 167.1875 97.4531 167.1875 96.4844 C167.1875 95.0938 166.1562 94.3125 164.9062 94.3125 C163.2969 94.3125 162.2188 95.5469 162.2188 97.5156 L162.2031 103.9062 Z" style="fill:black; stroke:none;"
    /></g
  ></g
></svg
>
