<?xml version="1.0"?>
<!DOCTYPE svg PUBLIC '-//W3C//DTD SVG 1.0//EN'
          'http://www.w3.org/TR/2001/REC-SVG-20010904/DTD/svg10.dtd'>
<svg xmlns:xlink="http://www.w3.org/1999/xlink" style="fill-opacity:1; color-rendering:auto; color-interpolation:auto; text-rendering:auto; stroke:black; stroke-linecap:square; stroke-miterlimit:10; shape-rendering:auto; stroke-opacity:1; fill:black; stroke-dasharray:none; font-weight:normal; stroke-width:1; font-family:'Dialog'; font-style:normal; stroke-linejoin:miter; font-size:12px; stroke-dashoffset:0; image-rendering:auto;" viewBox="0 0 342 157" xmlns="http://www.w3.org/2000/svg"
><!--Generated by the Batik Graphics2D SVG Generator--><defs id="genericDefs"
  /><g
  ><defs id="defs1"
    ><clipPath clipPathUnits="userSpaceOnUse" id="clipPath1"
      ><path d="M238 67 L260 67 L260 89 L238 89 L238 67 Z"
      /></clipPath
      ><clipPath clipPathUnits="userSpaceOnUse" id="clipPath2"
      ><path d="M186 67 L208 67 L208 89 L186 89 L186 67 Z"
      /></clipPath
      ><clipPath clipPathUnits="userSpaceOnUse" id="clipPath3"
      ><path d="M156 78 C156 84.0751 151.0751 89 145 89 C138.9249 89 134 84.0751 134 78 C134 71.9249 138.9249 67 145 67 C151.0751 67 156 71.9249 156 78 Z"
      /></clipPath
      ><clipPath clipPathUnits="userSpaceOnUse" id="clipPath4"
      ><path d="M104 116 C104 122.0751 99.0751 127 93 127 C86.9249 127 82 122.0751 82 116 C82 109.9249 86.9249 105 93 105 C99.0751 105 104 109.9249 104 116 Z"
      /></clipPath
      ><clipPath clipPathUnits="userSpaceOnUse" id="clipPath5"
      ><path d="M30 105 L52 105 L52 127 L30 127 L30 105 Z"
      /></clipPath
      ><clipPath clipPathUnits="userSpaceOnUse" id="clipPath6"
      ><path d="M104 41 C104 47.0751 99.0751 52 93 52 C86.9249 52 82 47.0751 82 41 C82 34.9249 86.9249 30 93 30 C99.0751 30 104 34.9249 104 41 Z"
      /></clipPath
      ><clipPath clipPathUnits="userSpaceOnUse" id="clipPath7"
      ><path d="M30 30 L52 30 L52 52 L30 52 L30 30 Z"
      /></clipPath
    ></defs
    ><g style="fill:white; text-rendering:optimizeSpeed; stroke:white;"
    ><rect x="0" width="342" height="157" y="0" style="stroke:none;"
      /><polygon style="fill:none; stroke:black;" points=" 301 78 249 78"
      /><path d="M301 67 C295.5 72.5 306.5 83.5 301 89" style="fill:none; stroke:black;"
      /><polygon style="fill:none; stroke:black;" points=" 249 78 197 78"
      /><rect x="238" y="67" width="22" style="clip-path:url(#clipPath1); stroke:none;" height="22"
      /><rect x="238" y="67" width="22" style="clip-path:url(#clipPath1); fill:rgb(0,144,188); stroke:none;" height="22"
      /><rect x="238" y="67" width="22" style="clip-path:url(#clipPath1); fill:none; stroke:black;" height="22"
      /><rect x="238" y="67" width="22" style="fill:none; stroke:black;" height="22"
      /><polygon style="fill:none; stroke:black;" points=" 197 78 145 78"
      /><rect x="186" y="67" width="22" style="clip-path:url(#clipPath2); stroke:none;" height="22"
      /><rect x="186" y="67" width="22" style="clip-path:url(#clipPath2); fill:rgb(0,144,188); stroke:none;" height="22"
      /><rect x="186" y="67" width="22" style="clip-path:url(#clipPath2); fill:none; stroke:black;" height="22"
      /><rect x="186" y="67" width="22" style="fill:none; stroke:black;" height="22"
      /><polygon style="fill:none; stroke:black;" points=" 145 78 93 116"
      /><polygon style="fill:none; stroke:black;" points=" 145 78 93 41"
      /><circle style="clip-path:url(#clipPath3); stroke:none;" r="11" cx="145" cy="78"
      /><rect x="134" y="67" width="22" style="clip-path:url(#clipPath3); fill:rgb(0,166,81); stroke:none;" height="22"
      /><rect x="134" y="67" width="22" style="clip-path:url(#clipPath3); fill:none; stroke:black;" height="22"
      /><circle style="fill:none; stroke:black;" r="11" cx="145" cy="78"
      /><polygon style="fill:none; stroke:black;" points=" 93 116 41 116"
      /><circle style="clip-path:url(#clipPath4); stroke:none;" r="11" cx="93" cy="116"
      /><rect x="82" y="105" width="22" style="clip-path:url(#clipPath4); fill:rgb(0,166,81); stroke:none;" height="22"
      /><rect x="82" y="105" width="22" style="clip-path:url(#clipPath4); fill:none; stroke:black;" height="22"
      /><circle style="fill:none; stroke:black;" r="11" cx="93" cy="116"
      /><rect x="30" y="105" width="22" style="clip-path:url(#clipPath5); stroke:none;" height="22"
      /><rect x="30" y="105" width="22" style="clip-path:url(#clipPath5); fill:rgb(0,144,188); stroke:none;" height="22"
      /><rect x="30" y="105" width="22" style="clip-path:url(#clipPath5); fill:none; stroke:black;" height="22"
      /><rect x="30" y="105" width="22" style="fill:none; stroke:black;" height="22"
      /><rect x="33" y="87" width="14" style="stroke:none;" height="10"
    /></g
    ><g style="text-rendering:optimizeSpeed; font-size:14px; font-family:'SansSerif';"
    ><path style="stroke:none;" d="M37.1094 92.5781 C38.3438 92.5781 38.9688 93.4688 38.9688 94.8438 C38.9688 96.25 38.1875 97.1875 37.2188 97.1875 C35.9219 97.1875 35.1562 96.0312 35 93.8906 C35.625 92.9531 36.4531 92.5781 37.1094 92.5781 ZM37.2188 98.1875 C38.8125 98.1875 40.1562 96.8438 40.1562 94.8438 C40.1562 92.7031 39.0469 91.625 37.3125 91.625 C36.5 91.625 35.6094 92.1094 34.9688 92.875 C35.0312 89.6875 36.2188 88.6094 37.625 88.6094 C38.25 88.6094 38.8594 88.9062 39.2656 89.3906 L39.9688 88.5938 C39.4062 87.9844 38.6406 87.5469 37.5781 87.5469 C35.5938 87.5469 33.7812 89.0781 33.7812 93.0938 C33.7812 96.4844 35.2344 98.1875 37.2188 98.1875 ZM45.02 98.1875 C47.1606 98.1875 48.5043 96.8906 48.5043 95.2656 C48.5043 93.75 47.5825 93.0469 46.395 92.5312 L44.9262 91.8906 C44.1293 91.5625 43.2387 91.1875 43.2387 90.1875 C43.2387 89.2656 43.9887 88.6719 45.145 88.6719 C46.0981 88.6719 46.8637 89.0469 47.4887 89.6406 L48.1762 88.8125 C47.4418 88.0625 46.3637 87.5469 45.145 87.5469 C43.2856 87.5469 41.9106 88.6875 41.9106 90.2656 C41.9106 91.7656 43.0512 92.5 44.0043 92.9062 L45.4887 93.5469 C46.4575 93.9844 47.1918 94.3125 47.1918 95.375 C47.1918 96.375 46.3793 97.0469 45.0356 97.0469 C43.9731 97.0469 42.9418 96.5469 42.2075 95.7812 L41.4262 96.6562 C42.3168 97.5938 43.5668 98.1875 45.02 98.1875 Z"
    /></g
    ><g style="fill:white; text-rendering:optimizeSpeed; font-family:'Serif'; stroke:white;"
    ><rect x="71" width="6" height="9" y="119" style="stroke:none;"
      /><path d="M72.4219 127.0938 C73.0781 126.375 73.7031 125.7188 74.0312 125.3438 C75.9219 123.3125 76.5312 122.4688 76.5312 121.3594 C76.5312 120.0156 75.7812 119.0781 74.1562 119.0781 C72.9062 119.0781 71.7969 119.7031 71.5938 120.9688 C71.7188 121.2031 71.9062 121.3438 72.1562 121.3438 C72.4688 121.3438 72.6562 121.1094 72.7969 120.5938 L73.0938 119.6719 C73.3906 119.5938 73.6562 119.5625 73.8906 119.5625 C74.9219 119.5625 75.5469 120.3125 75.5469 121.4219 C75.5469 122.4375 74.9844 123.4219 73.7031 124.9062 C73.125 125.5781 72.3906 126.4375 71.6406 127.2812 L71.6406 128 L76.9219 128 L76.9219 127.0938 L72.4219 127.0938 Z" style="fill:black; stroke:none;"
      /><rect x="57" width="6" height="13" y="117" style="stroke:none;"
      /><path d="M59.0938 123.2031 C59.0938 121.6562 59.75 120.8125 60.7969 120.8125 C61.7188 120.8125 62.2656 121.4531 62.2656 122.5156 C62.2656 123.7188 61.5 124.4375 60.1875 124.7031 L60.2969 125.3125 C62.2188 125.2344 62.9375 126.2188 62.9375 127.4375 C62.9375 128.625 62.2344 129.4219 60.9531 129.4219 C60.25 129.4219 59.6562 129.1562 59.0938 128.7188 L59.0938 123.2031 ZM58.2031 129.9062 L58.1094 132.375 L58.2656 132.4844 L59.1562 132.2656 L59.0156 129.0938 C59.5469 129.8438 60.3594 130.1719 61.1719 130.1719 C62.5625 130.1719 63.8594 129.2188 63.8594 127.4844 C63.8594 125.9531 62.875 125.1094 61.125 125 C62.5625 124.6094 63.1875 123.4531 63.1875 122.4844 C63.1875 121.0938 62.1562 120.3125 60.9062 120.3125 C59.2969 120.3125 58.2188 121.5469 58.2188 123.5156 L58.2031 129.9062 Z" style="fill:black; stroke:none;"
      /><polygon style="fill:none; stroke:black;" points=" 93 41 41 41"
      /><circle r="11" style="clip-path:url(#clipPath6); stroke:none;" cx="93" cy="41"
      /><rect x="82" y="30" width="22" style="clip-path:url(#clipPath6); fill:rgb(0,166,81); stroke:none;" height="22"
      /><rect x="82" y="30" width="22" style="clip-path:url(#clipPath6); fill:none; stroke:black;" height="22"
      /><circle r="11" style="fill:none; stroke:black;" cx="93" cy="41"
      /><rect x="30" y="30" width="22" style="clip-path:url(#clipPath7); stroke:none;" height="22"
      /><rect x="30" y="30" width="22" style="clip-path:url(#clipPath7); fill:rgb(0,144,188); stroke:none;" height="22"
      /><rect x="30" y="30" width="22" style="clip-path:url(#clipPath7); fill:none; stroke:black;" height="22"
      /><rect x="30" y="30" width="22" style="fill:none; stroke:black;" height="22"
      /><rect x="71" width="6" height="9" y="44" style="stroke:none;"
      /><path d="M72.4219 52.0938 C73.0781 51.375 73.7031 50.7188 74.0312 50.3438 C75.9219 48.3125 76.5312 47.4688 76.5312 46.3594 C76.5312 45.0156 75.7812 44.0781 74.1562 44.0781 C72.9062 44.0781 71.7969 44.7031 71.5938 45.9688 C71.7188 46.2031 71.9062 46.3438 72.1562 46.3438 C72.4688 46.3438 72.6562 46.1094 72.7969 45.5938 L73.0938 44.6719 C73.3906 44.5938 73.6562 44.5625 73.8906 44.5625 C74.9219 44.5625 75.5469 45.3125 75.5469 46.4219 C75.5469 47.4375 74.9844 48.4219 73.7031 49.9062 C73.125 50.5781 72.3906 51.4375 71.6406 52.2812 L71.6406 53 L76.9219 53 L76.9219 52.0938 L72.4219 52.0938 Z" style="fill:black; stroke:none;"
      /><rect x="57" width="6" height="13" y="42" style="stroke:none;"
      /><path d="M59.0938 48.2031 C59.0938 46.6562 59.75 45.8125 60.7969 45.8125 C61.7188 45.8125 62.2656 46.4531 62.2656 47.5156 C62.2656 48.7188 61.5 49.4375 60.1875 49.7031 L60.2969 50.3125 C62.2188 50.2344 62.9375 51.2188 62.9375 52.4375 C62.9375 53.625 62.2344 54.4219 60.9531 54.4219 C60.25 54.4219 59.6562 54.1562 59.0938 53.7188 L59.0938 48.2031 ZM58.2031 54.9062 L58.1094 57.375 L58.2656 57.4844 L59.1562 57.2656 L59.0156 54.0938 C59.5469 54.8438 60.3594 55.1719 61.1719 55.1719 C62.5625 55.1719 63.8594 54.2188 63.8594 52.4844 C63.8594 50.9531 62.875 50.1094 61.125 50 C62.5625 49.6094 63.1875 48.4531 63.1875 47.4844 C63.1875 46.0938 62.1562 45.3125 60.9062 45.3125 C59.2969 45.3125 58.2188 46.5469 58.2188 48.5156 L58.2031 54.9062 Z" style="fill:black; stroke:none;"
      /><rect x="129" width="6" height="10" y="92" style="stroke:none;"
      /><path d="M131.2344 93.6562 C131.5156 93.5938 131.7656 93.5625 132.0156 93.5625 C133.0625 93.5625 133.6719 94.1719 133.6719 95.2656 C133.6719 96.4375 132.9062 97.1094 131.7031 97.1094 L131.1875 97.1094 L131.1875 97.6406 L131.7969 97.6406 C133.2188 97.6406 133.9062 98.4219 133.9062 99.6406 C133.9062 100.8438 133.1719 101.6875 131.875 101.6875 C131.6094 101.6875 131.3125 101.6562 131.0156 101.5625 L130.7812 100.8125 C130.625 100.2812 130.5 100.0469 130.1406 100.0469 C129.8906 100.0469 129.7031 100.1719 129.5781 100.4219 C129.8438 101.6406 130.7812 102.1719 132.0312 102.1719 C133.7188 102.1719 134.875 101.125 134.875 99.7031 C134.875 98.5 134.2031 97.625 132.7969 97.375 C133.9531 97.0156 134.6094 96.2031 134.6094 95.2031 C134.6094 93.9219 133.6719 93.0781 132.1875 93.0781 C131.0469 93.0781 130.0625 93.5938 129.7969 94.6875 C129.9062 95 130.1094 95.1094 130.3594 95.1094 C130.7344 95.1094 130.8906 94.8906 131 94.4062 L131.2344 93.6562 Z" style="fill:black; stroke:none;"
      /><rect x="111" width="8" height="8" y="105" style="stroke:none;"
      /><path d="M115.9844 110.7031 C115.9375 111.8906 115.1562 112.6562 114.3125 112.6562 C113.2656 112.6562 112.5 111.6875 112.5 109.7188 C112.5 108.2812 113.1562 107.1562 114.3438 107.1562 C115.1406 107.1562 115.7812 107.6875 116.0938 108.6406 L115.9844 110.7031 ZM117.9062 112.2812 C117.7344 112.375 117.5469 112.4219 117.3438 112.4219 C116.9531 112.4219 116.75 112.2188 116.75 111.4219 C116.75 110.4844 116.9688 108.5312 117.1875 106.8281 L117.0312 106.7188 L116.2344 106.9219 L116.1406 107.7969 C115.7812 107.0312 115.1562 106.6562 114.3906 106.6562 C113.0469 106.6562 111.5625 107.8438 111.5625 109.9531 C111.5625 112.0938 112.7188 113.1719 114.1406 113.1719 C115.0156 113.1719 115.6875 112.8125 116.0938 111.9844 C116.2031 112.8594 116.5156 113.1719 117.0156 113.1719 C117.4688 113.1719 117.7969 112.9062 118.0156 112.5625 L117.9062 112.2812 Z" style="fill:black; stroke:none;"
      /><rect x="119" width="6" height="10" y="67" style="stroke:none;"
      /><path d="M122.3438 76.6875 C121.2031 76.6875 120.5312 75.5 120.5312 73.2969 C120.5312 73.2188 120.5312 73.125 120.5312 73.0469 C121.0938 72.5 121.7188 72.3125 122.3438 72.3125 C123.3125 72.3125 123.9531 72.9844 123.9531 74.4531 C123.9531 75.9375 123.3125 76.6875 122.3438 76.6875 ZM124.5312 68.0781 C121.3438 68.4531 119.5625 70.7656 119.5625 73.4531 C119.5625 75.7812 120.6094 77.1719 122.3125 77.1719 C123.8438 77.1719 124.9219 76.1094 124.9219 74.2812 C124.9219 72.6875 123.9688 71.6562 122.5625 71.6562 C121.8281 71.6562 121.1406 71.9844 120.5781 72.5781 C120.7969 70.4062 122.0781 68.9688 124.5938 68.3906 L124.5312 68.0781 Z" style="fill:black; stroke:none;"
      /><rect x="101" width="8" height="8" y="55" style="stroke:none;"
      /><path d="M105.9844 60.7031 C105.9375 61.8906 105.1562 62.6562 104.3125 62.6562 C103.2656 62.6562 102.5 61.6875 102.5 59.7188 C102.5 58.2812 103.1562 57.1562 104.3438 57.1562 C105.1406 57.1562 105.7812 57.6875 106.0938 58.6406 L105.9844 60.7031 ZM107.9062 62.2812 C107.7344 62.375 107.5469 62.4219 107.3438 62.4219 C106.9531 62.4219 106.75 62.2188 106.75 61.4219 C106.75 60.4844 106.9688 58.5312 107.1875 56.8281 L107.0312 56.7188 L106.2344 56.9219 L106.1406 57.7969 C105.7812 57.0312 105.1562 56.6562 104.3906 56.6562 C103.0469 56.6562 101.5625 57.8438 101.5625 59.9531 C101.5625 62.0938 102.7188 63.1719 104.1406 63.1719 C105.0156 63.1719 105.6875 62.8125 106.0938 61.9844 C106.2031 62.8594 106.5156 63.1719 107.0156 63.1719 C107.4688 63.1719 107.7969 62.9062 108.0156 62.5625 L107.9062 62.2812 Z" style="fill:black; stroke:none;"
      /><rect x="174" width="7" height="9" y="81" style="stroke:none;"
      /><path d="M175 86.5156 L177.9531 82.2656 L177.9531 86.5156 L175 86.5156 ZM180.2812 86.5156 L178.8594 86.5156 L178.8594 81.125 L178.2344 81.125 L174.3438 86.6406 L174.3438 87.1875 L177.9531 87.1875 L177.9531 90 L178.8594 90 L178.8594 87.1875 L180.2812 87.1875 L180.2812 86.5156 Z" style="fill:black; stroke:none;"
      /><rect x="161" width="6" height="13" y="79" style="stroke:none;"
      /><path d="M163.0938 85.2031 C163.0938 83.6562 163.75 82.8125 164.7969 82.8125 C165.7188 82.8125 166.2656 83.4531 166.2656 84.5156 C166.2656 85.7188 165.5 86.4375 164.1875 86.7031 L164.2969 87.3125 C166.2188 87.2344 166.9375 88.2188 166.9375 89.4375 C166.9375 90.625 166.2344 91.4219 164.9531 91.4219 C164.25 91.4219 163.6562 91.1562 163.0938 90.7188 L163.0938 85.2031 ZM162.2031 91.9062 L162.1094 94.375 L162.2656 94.4844 L163.1562 94.2656 L163.0156 91.0938 C163.5469 91.8438 164.3594 92.1719 165.1719 92.1719 C166.5625 92.1719 167.8594 91.2188 167.8594 89.4844 C167.8594 87.9531 166.875 87.1094 165.125 87 C166.5625 86.6094 167.1875 85.4531 167.1875 84.4844 C167.1875 83.0938 166.1562 82.3125 164.9062 82.3125 C163.2969 82.3125 162.2188 83.5469 162.2188 85.5156 L162.2031 91.9062 Z" style="fill:black; stroke:none;"
      /><rect x="226" width="7" height="9" y="81" style="stroke:none;"
      /><path d="M227 86.5156 L229.9531 82.2656 L229.9531 86.5156 L227 86.5156 ZM232.2812 86.5156 L230.8594 86.5156 L230.8594 81.125 L230.2344 81.125 L226.3438 86.6406 L226.3438 87.1875 L229.9531 87.1875 L229.9531 90 L230.8594 90 L230.8594 87.1875 L232.2812 87.1875 L232.2812 86.5156 Z" style="fill:black; stroke:none;"
      /><rect x="213" width="6" height="13" y="79" style="stroke:none;"
      /><path d="M215.0938 85.2031 C215.0938 83.6562 215.75 82.8125 216.7969 82.8125 C217.7188 82.8125 218.2656 83.4531 218.2656 84.5156 C218.2656 85.7188 217.5 86.4375 216.1875 86.7031 L216.2969 87.3125 C218.2188 87.2344 218.9375 88.2188 218.9375 89.4375 C218.9375 90.625 218.2344 91.4219 216.9531 91.4219 C216.25 91.4219 215.6562 91.1562 215.0938 90.7188 L215.0938 85.2031 ZM214.2031 91.9062 L214.1094 94.375 L214.2656 94.4844 L215.1562 94.2656 L215.0156 91.0938 C215.5469 91.8438 216.3594 92.1719 217.1719 92.1719 C218.5625 92.1719 219.8594 91.2188 219.8594 89.4844 C219.8594 87.9531 218.875 87.1094 217.125 87 C218.5625 86.6094 219.1875 85.4531 219.1875 84.4844 C219.1875 83.0938 218.1562 82.3125 216.9062 82.3125 C215.2969 82.3125 214.2188 83.5469 214.2188 85.5156 L214.2031 91.9062 Z" style="fill:black; stroke:none;"
      /><rect x="265" width="6" height="13" y="79" style="stroke:none;"
      /><path d="M267.0938 85.2031 C267.0938 83.6562 267.75 82.8125 268.7969 82.8125 C269.7188 82.8125 270.2656 83.4531 270.2656 84.5156 C270.2656 85.7188 269.5 86.4375 268.1875 86.7031 L268.2969 87.3125 C270.2188 87.2344 270.9375 88.2188 270.9375 89.4375 C270.9375 90.625 270.2344 91.4219 268.9531 91.4219 C268.25 91.4219 267.6562 91.1562 267.0938 90.7188 L267.0938 85.2031 ZM266.2031 91.9062 L266.1094 94.375 L266.2656 94.4844 L267.1562 94.2656 L267.0156 91.0938 C267.5469 91.8438 268.3594 92.1719 269.1719 92.1719 C270.5625 92.1719 271.8594 91.2188 271.8594 89.4844 C271.8594 87.9531 270.875 87.1094 269.125 87 C270.5625 86.6094 271.1875 85.4531 271.1875 84.4844 C271.1875 83.0938 270.1562 82.3125 268.9062 82.3125 C267.2969 82.3125 266.2188 83.5469 266.2188 85.5156 L266.2031 91.9062 Z" style="fill:black; stroke:none;"
    /></g
  ></g
></svg
>
