<?xml version="1.0"?>
<!DOCTYPE svg PUBLIC '-//W3C//DTD SVG 1.0//EN'
          'http://www.w3.org/TR/2001/REC-SVG-20010904/DTD/svg10.dtd'>
<svg xmlns:xlink="http://www.w3.org/1999/xlink" style="fill-opacity:1; color-rendering:auto; color-interpolation:auto; text-rendering:auto; stroke:black; stroke-linecap:square; stroke-miterlimit:10; shape-rendering:auto; stroke-opacity:1; fill:black; stroke-dasharray:none; font-weight:normal; stroke-width:1; font-family:'Dialog'; font-style:normal; stroke-linejoin:miter; font-size:12px; stroke-dashoffset:0; image-rendering:auto;" viewBox="0 0 438 186" xmlns="http://www.w3.org/2000/svg"
><!--Generated by the Batik Graphics2D SVG Generator--><defs id="genericDefs"
  /><g
  ><defs id="defs1"
    ><clipPath clipPathUnits="userSpaceOnUse" id="clipPath1"
      ><path d="M334 69 L356 69 L356 91 L334 91 L334 69 Z"
      /></clipPath
      ><clipPath clipPathUnits="userSpaceOnUse" id="clipPath2"
      ><path d="M282 69 L304 69 L304 91 L282 91 L282 69 Z"
      /></clipPath
      ><clipPath clipPathUnits="userSpaceOnUse" id="clipPath3"
      ><path d="M252 80 C252 86.0751 247.0751 91 241 91 C234.9249 91 230 86.0751 230 80 C230 73.9249 234.9249 69 241 69 C247.0751 69 252 73.9249 252 80 Z"
      /></clipPath
      ><clipPath clipPathUnits="userSpaceOnUse" id="clipPath4"
      ><path d="M200 119 C200 125.0751 195.0751 130 189 130 C182.9249 130 178 125.0751 178 119 C178 112.9249 182.9249 108 189 108 C195.0751 108 200 112.9249 200 119 Z"
      /></clipPath
      ><clipPath clipPathUnits="userSpaceOnUse" id="clipPath5"
      ><path d="M126 134 L148 134 L148 156 L126 156 L126 134 Z"
      /></clipPath
      ><clipPath clipPathUnits="userSpaceOnUse" id="clipPath6"
      ><path d="M126 82 L148 82 L148 104 L126 104 L126 82 Z"
      /></clipPath
      ><clipPath clipPathUnits="userSpaceOnUse" id="clipPath7"
      ><path d="M200 41 C200 47.0751 195.0751 52 189 52 C182.9249 52 178 47.0751 178 41 C178 34.9249 182.9249 30 189 30 C195.0751 30 200 34.9249 200 41 Z"
      /></clipPath
      ><clipPath clipPathUnits="userSpaceOnUse" id="clipPath8"
      ><path d="M126 30 L148 30 L148 52 L126 52 L126 30 Z"
      /></clipPath
      ><clipPath clipPathUnits="userSpaceOnUse" id="clipPath9"
      ><path style="fill-rule:evenodd;" d="M41 108 L52 130 L30 130 Z"
      /></clipPath
      ><clipPath clipPathUnits="userSpaceOnUse" id="clipPath10"
      ><path d="M52 67 C52 73.0751 47.0751 78 41 78 C34.9249 78 30 73.0751 30 67 C30 60.9249 34.9249 56 41 56 C47.0751 56 52 60.9249 52 67 Z"
      /></clipPath
    ></defs
    ><g style="fill:white; text-rendering:optimizeSpeed; stroke:white;"
    ><rect x="0" width="438" height="186" y="0" style="stroke:none;"
      /><polygon style="fill:none; stroke:black;" points=" 397 80 345 80"
      /><path d="M397 69 C391.5 74.5 402.5 85.5 397 91" style="fill:none; stroke:black;"
      /><polygon style="fill:none; stroke:black;" points=" 345 80 293 80"
      /><rect x="334" y="69" width="22" style="clip-path:url(#clipPath1); stroke:none;" height="22"
      /><rect x="334" y="69" width="22" style="clip-path:url(#clipPath1); fill:rgb(0,144,188); stroke:none;" height="22"
      /><rect x="334" y="69" width="22" style="clip-path:url(#clipPath1); fill:none; stroke:black;" height="22"
      /><rect x="334" y="69" width="22" style="fill:none; stroke:black;" height="22"
      /><polygon style="fill:none; stroke:black;" points=" 293 80 241 80"
      /><rect x="282" y="69" width="22" style="clip-path:url(#clipPath2); stroke:none;" height="22"
      /><rect x="282" y="69" width="22" style="clip-path:url(#clipPath2); fill:rgb(0,144,188); stroke:none;" height="22"
      /><rect x="282" y="69" width="22" style="clip-path:url(#clipPath2); fill:none; stroke:black;" height="22"
      /><rect x="282" y="69" width="22" style="fill:none; stroke:black;" height="22"
      /><polygon style="fill:none; stroke:black;" points=" 241 80 189 119"
      /><polygon style="fill:none; stroke:black;" points=" 241 80 189 41"
      /><circle style="clip-path:url(#clipPath3); stroke:none;" r="11" cx="241" cy="80"
      /><rect x="230" y="69" width="22" style="clip-path:url(#clipPath3); fill:rgb(0,166,81); stroke:none;" height="22"
      /><rect x="230" y="69" width="22" style="clip-path:url(#clipPath3); fill:none; stroke:black;" height="22"
      /><circle style="fill:none; stroke:black;" r="11" cx="241" cy="80"
      /><polygon style="fill:none; stroke:black;" points=" 189 119 137 145"
      /><polygon style="fill:none; stroke:black;" points=" 189 119 137 93"
      /><circle style="clip-path:url(#clipPath4); stroke:none;" r="11" cx="189" cy="119"
      /><rect x="178" y="108" width="22" style="clip-path:url(#clipPath4); fill:rgb(0,166,81); stroke:none;" height="22"
      /><rect x="178" y="108" width="22" style="clip-path:url(#clipPath4); fill:none; stroke:black;" height="22"
      /><circle style="fill:none; stroke:black;" r="11" cx="189" cy="119"
      /><rect x="126" y="134" width="22" style="clip-path:url(#clipPath5); stroke:none;" height="22"
      /><rect x="126" y="134" width="22" style="clip-path:url(#clipPath5); fill:rgb(0,144,188); stroke:none;" height="22"
      /><rect x="126" y="134" width="22" style="clip-path:url(#clipPath5); fill:none; stroke:black;" height="22"
      /><rect x="126" y="134" width="22" style="fill:none; stroke:black;" height="22"
      /><rect x="126" y="82" width="22" style="clip-path:url(#clipPath6); stroke:none;" height="22"
      /><rect x="126" y="82" width="22" style="clip-path:url(#clipPath6); fill:rgb(0,144,188); stroke:none;" height="22"
      /><rect x="126" y="82" width="22" style="clip-path:url(#clipPath6); fill:none; stroke:black;" height="22"
      /><rect x="126" y="82" width="22" style="fill:none; stroke:black;" height="22"
      /><rect x="171" y="130" width="6" style="stroke:none;" height="9"
    /></g
    ><g style="font-family:'Serif'; text-rendering:optimizeSpeed; "
    ><path style="stroke:none;" d="M172.4219 138.0938 C173.0781 137.375 173.7031 136.7188 174.0312 136.3438 C175.9219 134.3125 176.5312 133.4688 176.5312 132.3594 C176.5312 131.0156 175.7812 130.0781 174.1562 130.0781 C172.9062 130.0781 171.7969 130.7031 171.5938 131.9688 C171.7188 132.2031 171.9062 132.3438 172.1562 132.3438 C172.4688 132.3438 172.6562 132.1094 172.7969 131.5938 L173.0938 130.6719 C173.3906 130.5938 173.6562 130.5625 173.8906 130.5625 C174.9219 130.5625 175.5469 131.3125 175.5469 132.4219 C175.5469 133.4375 174.9844 134.4219 173.7031 135.9062 C173.125 136.5781 172.3906 137.4375 171.6406 138.2812 L171.6406 139 L176.9219 139 L176.9219 138.0938 L172.4219 138.0938 Z"
      /><rect x="155" y="136" width="6" style="fill:white; stroke:none;" height="13"
      /><path style="stroke:none;" d="M157.0938 142.2031 C157.0938 140.6562 157.75 139.8125 158.7969 139.8125 C159.7188 139.8125 160.2656 140.4531 160.2656 141.5156 C160.2656 142.7188 159.5 143.4375 158.1875 143.7031 L158.2969 144.3125 C160.2188 144.2344 160.9375 145.2188 160.9375 146.4375 C160.9375 147.625 160.2344 148.4219 158.9531 148.4219 C158.25 148.4219 157.6562 148.1562 157.0938 147.7188 L157.0938 142.2031 ZM156.2031 148.9062 L156.1094 151.375 L156.2656 151.4844 L157.1562 151.2656 L157.0156 148.0938 C157.5469 148.8438 158.3594 149.1719 159.1719 149.1719 C160.5625 149.1719 161.8594 148.2188 161.8594 146.4844 C161.8594 144.9531 160.875 144.1094 159.125 144 C160.5625 143.6094 161.1875 142.4531 161.1875 141.4844 C161.1875 140.0938 160.1562 139.3125 158.9062 139.3125 C157.2969 139.3125 156.2188 140.5469 156.2188 142.5156 L156.2031 148.9062 Z"
      /><rect x="163" y="112" width="7" style="fill:white; stroke:none;" height="9"
      /><path style="stroke:none;" d="M164 117.5156 L166.9531 113.2656 L166.9531 117.5156 L164 117.5156 ZM169.2812 117.5156 L167.8594 117.5156 L167.8594 112.125 L167.2344 112.125 L163.3438 117.6406 L163.3438 118.1875 L166.9531 118.1875 L166.9531 121 L167.8594 121 L167.8594 118.1875 L169.2812 118.1875 L169.2812 117.5156 Z"
      /><rect x="148" y="102" width="6" style="fill:white; stroke:none;" height="13"
      /><path style="stroke:none;" d="M150.0938 108.2031 C150.0938 106.6562 150.75 105.8125 151.7969 105.8125 C152.7188 105.8125 153.2656 106.4531 153.2656 107.5156 C153.2656 108.7188 152.5 109.4375 151.1875 109.7031 L151.2969 110.3125 C153.2188 110.2344 153.9375 111.2188 153.9375 112.4375 C153.9375 113.625 153.2344 114.4219 151.9531 114.4219 C151.25 114.4219 150.6562 114.1562 150.0938 113.7188 L150.0938 108.2031 ZM149.2031 114.9062 L149.1094 117.375 L149.2656 117.4844 L150.1562 117.2656 L150.0156 114.0938 C150.5469 114.8438 151.3594 115.1719 152.1719 115.1719 C153.5625 115.1719 154.8594 114.2188 154.8594 112.4844 C154.8594 110.9531 153.875 110.1094 152.125 110 C153.5625 109.6094 154.1875 108.4531 154.1875 107.4844 C154.1875 106.0938 153.1562 105.3125 151.9062 105.3125 C150.2969 105.3125 149.2188 106.5469 149.2188 108.5156 L149.2031 114.9062 Z"
      /><polygon style="fill:none;" points=" 189 41 137 41"
      /><circle style="fill:white; clip-path:url(#clipPath7); stroke:none;" r="11" cx="189" cy="41"
      /><rect x="178" y="30" width="22" style="clip-path:url(#clipPath7); fill:rgb(0,166,81); stroke:none;" height="22"
      /><rect x="178" y="30" width="22" style="fill:none; clip-path:url(#clipPath7);" height="22"
      /><circle r="11" style="fill:none;" cx="189" cy="41"
      /><rect x="126" y="30" width="22" style="clip-path:url(#clipPath8); fill:white; stroke:none;" height="22"
      /><rect x="126" y="30" width="22" style="clip-path:url(#clipPath8); fill:rgb(0,144,188); stroke:none;" height="22"
      /><rect x="126" y="30" width="22" style="fill:none; clip-path:url(#clipPath8);" height="22"
      /><rect x="126" width="22" height="22" y="30" style="fill:none;"
      /><rect x="167" y="44" width="6" style="fill:white; stroke:none;" height="9"
      /><path style="stroke:none;" d="M168.4219 52.0938 C169.0781 51.375 169.7031 50.7188 170.0312 50.3438 C171.9219 48.3125 172.5312 47.4688 172.5312 46.3594 C172.5312 45.0156 171.7812 44.0781 170.1562 44.0781 C168.9062 44.0781 167.7969 44.7031 167.5938 45.9688 C167.7188 46.2031 167.9062 46.3438 168.1562 46.3438 C168.4688 46.3438 168.6562 46.1094 168.7969 45.5938 L169.0938 44.6719 C169.3906 44.5938 169.6562 44.5625 169.8906 44.5625 C170.9219 44.5625 171.5469 45.3125 171.5469 46.4219 C171.5469 47.4375 170.9844 48.4219 169.7031 49.9062 C169.125 50.5781 168.3906 51.4375 167.6406 52.2812 L167.6406 53 L172.9219 53 L172.9219 52.0938 L168.4219 52.0938 Z"
      /><rect x="153" y="42" width="6" style="fill:white; stroke:none;" height="13"
      /><path style="stroke:none;" d="M155.0938 48.2031 C155.0938 46.6562 155.75 45.8125 156.7969 45.8125 C157.7188 45.8125 158.2656 46.4531 158.2656 47.5156 C158.2656 48.7188 157.5 49.4375 156.1875 49.7031 L156.2969 50.3125 C158.2188 50.2344 158.9375 51.2188 158.9375 52.4375 C158.9375 53.625 158.2344 54.4219 156.9531 54.4219 C156.25 54.4219 155.6562 54.1562 155.0938 53.7188 L155.0938 48.2031 ZM154.2031 54.9062 L154.1094 57.375 L154.2656 57.4844 L155.1562 57.2656 L155.0156 54.0938 C155.5469 54.8438 156.3594 55.1719 157.1719 55.1719 C158.5625 55.1719 159.8594 54.2188 159.8594 52.4844 C159.8594 50.9531 158.875 50.1094 157.125 50 C158.5625 49.6094 159.1875 48.4531 159.1875 47.4844 C159.1875 46.0938 158.1562 45.3125 156.9062 45.3125 C155.2969 45.3125 154.2188 46.5469 154.2188 48.5156 L154.2031 54.9062 Z"
      /><rect x="225" y="94" width="6" style="fill:white; stroke:none;" height="10"
      /><path style="stroke:none;" d="M227.2344 95.6562 C227.5156 95.5938 227.7656 95.5625 228.0156 95.5625 C229.0625 95.5625 229.6719 96.1719 229.6719 97.2656 C229.6719 98.4375 228.9062 99.1094 227.7031 99.1094 L227.1875 99.1094 L227.1875 99.6406 L227.7969 99.6406 C229.2188 99.6406 229.9062 100.4219 229.9062 101.6406 C229.9062 102.8438 229.1719 103.6875 227.875 103.6875 C227.6094 103.6875 227.3125 103.6562 227.0156 103.5625 L226.7812 102.8125 C226.625 102.2812 226.5 102.0469 226.1406 102.0469 C225.8906 102.0469 225.7031 102.1719 225.5781 102.4219 C225.8438 103.6406 226.7812 104.1719 228.0312 104.1719 C229.7188 104.1719 230.875 103.125 230.875 101.7031 C230.875 100.5 230.2031 99.625 228.7969 99.375 C229.9531 99.0156 230.6094 98.2031 230.6094 97.2031 C230.6094 95.9219 229.6719 95.0781 228.1875 95.0781 C227.0469 95.0781 226.0625 95.5938 225.7969 96.6875 C225.9062 97 226.1094 97.1094 226.3594 97.1094 C226.7344 97.1094 226.8906 96.8906 227 96.4062 L227.2344 95.6562 Z"
      /><rect x="207" y="108" width="8" style="fill:white; stroke:none;" height="8"
      /><path style="stroke:none;" d="M211.9844 113.7031 C211.9375 114.8906 211.1562 115.6562 210.3125 115.6562 C209.2656 115.6562 208.5 114.6875 208.5 112.7188 C208.5 111.2812 209.1562 110.1562 210.3438 110.1562 C211.1406 110.1562 211.7812 110.6875 212.0938 111.6406 L211.9844 113.7031 ZM213.9062 115.2812 C213.7344 115.375 213.5469 115.4219 213.3438 115.4219 C212.9531 115.4219 212.75 115.2188 212.75 114.4219 C212.75 113.4844 212.9688 111.5312 213.1875 109.8281 L213.0312 109.7188 L212.2344 109.9219 L212.1406 110.7969 C211.7812 110.0312 211.1562 109.6562 210.3906 109.6562 C209.0469 109.6562 207.5625 110.8438 207.5625 112.9531 C207.5625 115.0938 208.7188 116.1719 210.1406 116.1719 C211.0156 116.1719 211.6875 115.8125 212.0938 114.9844 C212.2031 115.8594 212.5156 116.1719 213.0156 116.1719 C213.4688 116.1719 213.7969 115.9062 214.0156 115.5625 L213.9062 115.2812 Z"
      /><rect x="215" y="68" width="6" style="fill:white; stroke:none;" height="10"
      /><path style="stroke:none;" d="M218.3438 77.6875 C217.2031 77.6875 216.5312 76.5 216.5312 74.2969 C216.5312 74.2188 216.5312 74.125 216.5312 74.0469 C217.0938 73.5 217.7188 73.3125 218.3438 73.3125 C219.3125 73.3125 219.9531 73.9844 219.9531 75.4531 C219.9531 76.9375 219.3125 77.6875 218.3438 77.6875 ZM220.5312 69.0781 C217.3438 69.4531 215.5625 71.7656 215.5625 74.4531 C215.5625 76.7812 216.6094 78.1719 218.3125 78.1719 C219.8438 78.1719 220.9219 77.1094 220.9219 75.2812 C220.9219 73.6875 219.9688 72.6562 218.5625 72.6562 C217.8281 72.6562 217.1406 72.9844 216.5781 73.5781 C216.7969 71.4062 218.0781 69.9688 220.5938 69.3906 L220.5312 69.0781 Z"
      /><rect x="197" y="56" width="8" style="fill:white; stroke:none;" height="8"
      /><path style="stroke:none;" d="M201.9844 61.7031 C201.9375 62.8906 201.1562 63.6562 200.3125 63.6562 C199.2656 63.6562 198.5 62.6875 198.5 60.7188 C198.5 59.2812 199.1562 58.1562 200.3438 58.1562 C201.1406 58.1562 201.7812 58.6875 202.0938 59.6406 L201.9844 61.7031 ZM203.9062 63.2812 C203.7344 63.375 203.5469 63.4219 203.3438 63.4219 C202.9531 63.4219 202.75 63.2188 202.75 62.4219 C202.75 61.4844 202.9688 59.5312 203.1875 57.8281 L203.0312 57.7188 L202.2344 57.9219 L202.1406 58.7969 C201.7812 58.0312 201.1562 57.6562 200.3906 57.6562 C199.0469 57.6562 197.5625 58.8438 197.5625 60.9531 C197.5625 63.0938 198.7188 64.1719 200.1406 64.1719 C201.0156 64.1719 201.6875 63.8125 202.0938 62.9844 C202.2031 63.8594 202.5156 64.1719 203.0156 64.1719 C203.4688 64.1719 203.7969 63.9062 204.0156 63.5625 L203.9062 63.2812 Z"
      /><rect x="270" y="83" width="7" style="fill:white; stroke:none;" height="9"
      /><path style="stroke:none;" d="M271 88.5156 L273.9531 84.2656 L273.9531 88.5156 L271 88.5156 ZM276.2812 88.5156 L274.8594 88.5156 L274.8594 83.125 L274.2344 83.125 L270.3438 88.6406 L270.3438 89.1875 L273.9531 89.1875 L273.9531 92 L274.8594 92 L274.8594 89.1875 L276.2812 89.1875 L276.2812 88.5156 Z"
      /><rect x="257" y="81" width="6" style="fill:white; stroke:none;" height="13"
      /><path style="stroke:none;" d="M259.0938 87.2031 C259.0938 85.6562 259.75 84.8125 260.7969 84.8125 C261.7188 84.8125 262.2656 85.4531 262.2656 86.5156 C262.2656 87.7188 261.5 88.4375 260.1875 88.7031 L260.2969 89.3125 C262.2188 89.2344 262.9375 90.2188 262.9375 91.4375 C262.9375 92.625 262.2344 93.4219 260.9531 93.4219 C260.25 93.4219 259.6562 93.1562 259.0938 92.7188 L259.0938 87.2031 ZM258.2031 93.9062 L258.1094 96.375 L258.2656 96.4844 L259.1562 96.2656 L259.0156 93.0938 C259.5469 93.8438 260.3594 94.1719 261.1719 94.1719 C262.5625 94.1719 263.8594 93.2188 263.8594 91.4844 C263.8594 89.9531 262.875 89.1094 261.125 89 C262.5625 88.6094 263.1875 87.4531 263.1875 86.4844 C263.1875 85.0938 262.1562 84.3125 260.9062 84.3125 C259.2969 84.3125 258.2188 85.5469 258.2188 87.5156 L258.2031 93.9062 Z"
      /><rect x="322" y="83" width="7" style="fill:white; stroke:none;" height="9"
      /><path style="stroke:none;" d="M323 88.5156 L325.9531 84.2656 L325.9531 88.5156 L323 88.5156 ZM328.2812 88.5156 L326.8594 88.5156 L326.8594 83.125 L326.2344 83.125 L322.3438 88.6406 L322.3438 89.1875 L325.9531 89.1875 L325.9531 92 L326.8594 92 L326.8594 89.1875 L328.2812 89.1875 L328.2812 88.5156 Z"
      /><rect x="309" y="81" width="6" style="fill:white; stroke:none;" height="13"
      /><path style="stroke:none;" d="M311.0938 87.2031 C311.0938 85.6562 311.75 84.8125 312.7969 84.8125 C313.7188 84.8125 314.2656 85.4531 314.2656 86.5156 C314.2656 87.7188 313.5 88.4375 312.1875 88.7031 L312.2969 89.3125 C314.2188 89.2344 314.9375 90.2188 314.9375 91.4375 C314.9375 92.625 314.2344 93.4219 312.9531 93.4219 C312.25 93.4219 311.6562 93.1562 311.0938 92.7188 L311.0938 87.2031 ZM310.2031 93.9062 L310.1094 96.375 L310.2656 96.4844 L311.1562 96.2656 L311.0156 93.0938 C311.5469 93.8438 312.3594 94.1719 313.1719 94.1719 C314.5625 94.1719 315.8594 93.2188 315.8594 91.4844 C315.8594 89.9531 314.875 89.1094 313.125 89 C314.5625 88.6094 315.1875 87.4531 315.1875 86.4844 C315.1875 85.0938 314.1562 84.3125 312.9062 84.3125 C311.2969 84.3125 310.2188 85.5469 310.2188 87.5156 L310.2031 93.9062 Z"
      /><rect x="361" y="81" width="6" style="fill:white; stroke:none;" height="13"
      /><path style="stroke:none;" d="M363.0938 87.2031 C363.0938 85.6562 363.75 84.8125 364.7969 84.8125 C365.7188 84.8125 366.2656 85.4531 366.2656 86.5156 C366.2656 87.7188 365.5 88.4375 364.1875 88.7031 L364.2969 89.3125 C366.2188 89.2344 366.9375 90.2188 366.9375 91.4375 C366.9375 92.625 366.2344 93.4219 364.9531 93.4219 C364.25 93.4219 363.6562 93.1562 363.0938 92.7188 L363.0938 87.2031 ZM362.2031 93.9062 L362.1094 96.375 L362.2656 96.4844 L363.1562 96.2656 L363.0156 93.0938 C363.5469 93.8438 364.3594 94.1719 365.1719 94.1719 C366.5625 94.1719 367.8594 93.2188 367.8594 91.4844 C367.8594 89.9531 366.875 89.1094 365.125 89 C366.5625 88.6094 367.1875 87.4531 367.1875 86.4844 C367.1875 85.0938 366.1562 84.3125 364.9062 84.3125 C363.2969 84.3125 362.2188 85.5469 362.2188 87.5156 L362.2031 93.9062 Z"
      /><polygon style="fill:none;" points=" 126 156 115 156 115 30 126 30 115 30 115 156"
      /><polygon style="fill:none;" points=" 93 119 41 119"
      /><polygon style="fill:white; clip-path:url(#clipPath9); stroke:none;" points=" 41 108 52 130 30 130"
      /><rect x="30" y="108" width="22" style="clip-path:url(#clipPath9); fill:rgb(237,28,36); stroke:none;" height="22"
      /><rect x="30" y="108" width="22" style="fill:none; clip-path:url(#clipPath9);" height="22"
      /><polygon style="fill:none;" points=" 41 108 52 130 30 130"
      /><rect x="71" y="122" width="6" style="fill:white; stroke:none;" height="10"
      /><path style="stroke:none;" d="M73.2344 123.6562 C73.5156 123.5938 73.7656 123.5625 74.0156 123.5625 C75.0625 123.5625 75.6719 124.1719 75.6719 125.2656 C75.6719 126.4375 74.9062 127.1094 73.7031 127.1094 L73.1875 127.1094 L73.1875 127.6406 L73.7969 127.6406 C75.2188 127.6406 75.9062 128.4219 75.9062 129.6406 C75.9062 130.8438 75.1719 131.6875 73.875 131.6875 C73.6094 131.6875 73.3125 131.6562 73.0156 131.5625 L72.7812 130.8125 C72.625 130.2812 72.5 130.0469 72.1406 130.0469 C71.8906 130.0469 71.7031 130.1719 71.5781 130.4219 C71.8438 131.6406 72.7812 132.1719 74.0312 132.1719 C75.7188 132.1719 76.875 131.125 76.875 129.7031 C76.875 128.5 76.2031 127.625 74.7969 127.375 C75.9531 127.0156 76.6094 126.2031 76.6094 125.2031 C76.6094 123.9219 75.6719 123.0781 74.1875 123.0781 C73.0469 123.0781 72.0625 123.5938 71.7969 124.6875 C71.9062 125 72.1094 125.1094 72.3594 125.1094 C72.7344 125.1094 72.8906 124.8906 73 124.4062 L73.2344 123.6562 Z"
      /><rect x="56" y="123" width="8" style="fill:white; stroke:none;" height="8"
      /><path style="stroke:none;" d="M60.9844 128.7031 C60.9375 129.8906 60.1562 130.6562 59.3125 130.6562 C58.2656 130.6562 57.5 129.6875 57.5 127.7188 C57.5 126.2812 58.1562 125.1562 59.3438 125.1562 C60.1406 125.1562 60.7812 125.6875 61.0938 126.6406 L60.9844 128.7031 ZM62.9062 130.2812 C62.7344 130.375 62.5469 130.4219 62.3438 130.4219 C61.9531 130.4219 61.75 130.2188 61.75 129.4219 C61.75 128.4844 61.9688 126.5312 62.1875 124.8281 L62.0312 124.7188 L61.2344 124.9219 L61.1406 125.7969 C60.7812 125.0312 60.1562 124.6562 59.3906 124.6562 C58.0469 124.6562 56.5625 125.8438 56.5625 127.9531 C56.5625 130.0938 57.7188 131.1719 59.1406 131.1719 C60.0156 131.1719 60.6875 130.8125 61.0938 129.9844 C61.2031 130.8594 61.5156 131.1719 62.0156 131.1719 C62.4688 131.1719 62.7969 130.9062 63.0156 130.5625 L62.9062 130.2812 Z"
      /><polygon style="fill:none;" points=" 93 67 41 67"
      /><circle style="fill:white; clip-path:url(#clipPath10); stroke:none;" r="11" cx="41" cy="67"
      /><rect x="30" y="56" width="22" style="clip-path:url(#clipPath10); fill:rgb(255,212,0); stroke:none;" height="22"
      /><rect x="30" y="56" width="22" style="fill:none; clip-path:url(#clipPath10);" height="22"
      /><circle r="11" style="fill:none;" cx="41" cy="67"
      /><rect x="70" y="70" width="7" style="fill:white; stroke:none;" height="9"
      /><path style="stroke:none;" d="M71 75.5156 L73.9531 71.2656 L73.9531 75.5156 L71 75.5156 ZM76.2812 75.5156 L74.8594 75.5156 L74.8594 70.125 L74.2344 70.125 L70.3438 75.6406 L70.3438 76.1875 L73.9531 76.1875 L73.9531 79 L74.8594 79 L74.8594 76.1875 L76.2812 76.1875 L76.2812 75.5156 Z"
      /><rect x="57" y="68" width="6" style="fill:white; stroke:none;" height="13"
      /><path style="stroke:none;" d="M59.0938 74.2031 C59.0938 72.6562 59.75 71.8125 60.7969 71.8125 C61.7188 71.8125 62.2656 72.4531 62.2656 73.5156 C62.2656 74.7188 61.5 75.4375 60.1875 75.7031 L60.2969 76.3125 C62.2188 76.2344 62.9375 77.2188 62.9375 78.4375 C62.9375 79.625 62.2344 80.4219 60.9531 80.4219 C60.25 80.4219 59.6562 80.1562 59.0938 79.7188 L59.0938 74.2031 ZM58.2031 80.9062 L58.1094 83.375 L58.2656 83.4844 L59.1562 83.2656 L59.0156 80.0938 C59.5469 80.8438 60.3594 81.1719 61.1719 81.1719 C62.5625 81.1719 63.8594 80.2188 63.8594 78.4844 C63.8594 76.9531 62.875 76.1094 61.125 76 C62.5625 75.6094 63.1875 74.4531 63.1875 73.4844 C63.1875 72.0938 62.1562 71.3125 60.9062 71.3125 C59.2969 71.3125 58.2188 72.5469 58.2188 74.5156 L58.2031 80.9062 Z"
    /></g
  ></g
></svg
>
