<?xml version="1.0"?>
<!DOCTYPE svg PUBLIC '-//W3C//DTD SVG 1.0//EN'
          'http://www.w3.org/TR/2001/REC-SVG-20010904/DTD/svg10.dtd'>
<svg xmlns:xlink="http://www.w3.org/1999/xlink" style="fill-opacity:1; color-rendering:auto; color-interpolation:auto; text-rendering:auto; stroke:black; stroke-linecap:square; stroke-miterlimit:10; shape-rendering:auto; stroke-opacity:1; fill:black; stroke-dasharray:none; font-weight:normal; stroke-width:1; font-family:'Dialog'; font-style:normal; stroke-linejoin:miter; font-size:12px; stroke-dashoffset:0; image-rendering:auto;" viewBox="0 0 162 143" xmlns="http://www.w3.org/2000/svg"
><!--Generated by the Batik Graphics2D SVG Generator--><defs id="genericDefs"
  /><g
  ><defs id="defs1"
    ><clipPath clipPathUnits="userSpaceOnUse" id="clipPath1"
      ><path style="fill-rule:evenodd;" d="M55 53 L65 60 L61 72 L48 72 L44 60 L55 53 Z"
      /></clipPath
    ></defs
    ><g style="fill:white; text-rendering:optimizeSpeed; stroke:white;"
    ><rect x="0" width="162" height="143" y="0" style="stroke:none;"
      /><polygon style="fill:none; stroke:black;" points=" 121 64 55 64"
      /><path d="M121 53 C115.5 58.5 126.5 69.5 121 75" style="fill:none; stroke:black;"
      /><polygon style="clip-path:url(#clipPath1); stroke:none;" points=" 55 53 65 60 61 72 48 72 44 60 55 53"
      /><rect x="44" y="53" width="22" style="clip-path:url(#clipPath1); stroke:none;" height="22"
      /><rect x="44" y="53" width="22" style="clip-path:url(#clipPath1); fill:none; stroke:black;" height="22"
      /><polygon style="fill:none; stroke:black;" points=" 55 53 65 60 61 72 48 72 44 60 55 53"
    /></g
    ><g style="text-rendering:optimizeSpeed; font-size:14px; font-family:'SansSerif';"
    ><path style="stroke:none;" d="M53.2344 69 L58.8594 69 L58.8594 67.9375 L56.7969 67.9375 L56.7969 58.7188 L55.8281 58.7188 C55.2656 59.0625 54.6094 59.2969 53.6875 59.4688 L53.6875 60.2812 L55.5156 60.2812 L55.5156 67.9375 L53.2344 67.9375 L53.2344 69 Z"
      /><rect x="30" y="35" width="25" style="fill:white; stroke:none;" height="10"
      /><path style="stroke:none;" d="M34.1094 40.5781 C35.3438 40.5781 35.9688 41.4688 35.9688 42.8438 C35.9688 44.25 35.1875 45.1875 34.2188 45.1875 C32.9219 45.1875 32.1562 44.0312 32 41.8906 C32.625 40.9531 33.4531 40.5781 34.1094 40.5781 ZM34.2188 46.1875 C35.8125 46.1875 37.1562 44.8438 37.1562 42.8438 C37.1562 40.7031 36.0469 39.625 34.3125 39.625 C33.5 39.625 32.6094 40.1094 31.9688 40.875 C32.0312 37.6875 33.2188 36.6094 34.625 36.6094 C35.25 36.6094 35.8594 36.9062 36.2656 37.3906 L36.9688 36.5938 C36.4062 35.9844 35.6406 35.5469 34.5781 35.5469 C32.5938 35.5469 30.7812 37.0781 30.7812 41.0938 C30.7812 44.4844 32.2344 46.1875 34.2188 46.1875 ZM39.1762 46 L40.3481 46 L40.3481 40.3125 C40.3481 39.4375 40.2543 38.1875 40.1918 37.2969 L40.2543 37.2969 L41.0668 39.625 L43.0043 44.9688 L43.8793 44.9688 L45.8168 39.625 L46.6293 37.2969 L46.6918 37.2969 C46.6137 38.1875 46.52 39.4375 46.52 40.3125 L46.52 46 L47.7387 46 L47.7387 35.7188 L46.1762 35.7188 L44.2075 41.2188 C43.9731 41.9375 43.7543 42.6562 43.5043 43.375 L43.4418 43.375 C43.1918 42.6562 42.9575 41.9375 42.7075 41.2188 L40.7387 35.7188 L39.1762 35.7188 L39.1762 46 ZM53.4973 46.1875 C54.5285 46.1875 55.341 45.8281 56.0129 45.3906 L55.5442 44.5625 C54.9973 44.9375 54.3879 45.1562 53.6535 45.1562 C52.2004 45.1562 51.216 44.125 51.1223 42.5 L56.2473 42.5 C56.2785 42.3125 56.3098 42.0469 56.3098 41.7656 C56.3098 39.6094 55.216 38.2031 53.2785 38.2031 C51.5129 38.2031 49.8567 39.7344 49.8567 42.2031 C49.8567 44.7188 51.4817 46.1875 53.4973 46.1875 ZM51.1067 41.5781 C51.2629 40.0938 52.216 39.2188 53.2942 39.2188 C54.4817 39.2188 55.1848 40.0469 55.1848 41.5781 L51.1067 41.5781 Z"
      /><rect x="47" y="81" width="14" style="fill:white; stroke:none;" height="11"
      /><path style="stroke:none;" d="M47.6094 92 L54.0625 92 L54.0625 90.8906 L51.2344 90.8906 C50.7031 90.8906 50.0781 90.9531 49.5469 90.9844 C51.9531 88.7031 53.5625 86.625 53.5625 84.5781 C53.5625 82.75 52.4219 81.5469 50.5781 81.5469 C49.2812 81.5469 48.4062 82.1406 47.5625 83.0469 L48.2969 83.7812 C48.8594 83.1094 49.5938 82.5938 50.4375 82.5938 C51.7031 82.5938 52.3125 83.4531 52.3125 84.625 C52.3125 86.3906 50.8438 88.4375 47.6094 91.25 L47.6094 92 ZM58.645 92.1875 C59.5512 92.1875 60.3637 91.6875 60.9575 91.1094 L61.0043 91.1094 L61.1137 92 L62.145 92 L62.145 80.8594 L60.895 80.8594 L60.895 83.7812 L60.9418 85.0938 C60.27 84.5312 59.6918 84.2031 58.8012 84.2031 C57.0668 84.2031 55.5043 85.7344 55.5043 88.2031 C55.5043 90.7344 56.7387 92.1875 58.645 92.1875 ZM58.9262 91.125 C57.5825 91.125 56.8325 90.0312 56.8325 88.1875 C56.8325 86.4531 57.8012 85.2812 59.02 85.2812 C59.6606 85.2812 60.2231 85.5 60.895 86.0781 L60.895 90.0625 C60.2387 90.7656 59.6293 91.125 58.9262 91.125 Z"
      /><rect x="61" y="35" width="14" style="fill:white; stroke:none;" height="11"
      /><path style="stroke:none;" d="M62.6094 42.1562 L64.9531 38.6562 C65.2344 38.1406 65.5156 37.6406 65.7812 37.1406 L65.8281 37.1406 C65.7969 37.6719 65.7656 38.5 65.7656 39 L65.7656 42.1562 L62.6094 42.1562 ZM65.7656 46 L66.9688 46 L66.9688 43.1719 L68.3281 43.1719 L68.3281 42.1562 L66.9688 42.1562 L66.9688 35.7188 L65.5469 35.7188 L61.2812 42.3281 L61.2812 43.1719 L65.7656 43.1719 L65.7656 46 ZM72.645 46.1875 C73.5512 46.1875 74.3637 45.6875 74.9575 45.1094 L75.0043 45.1094 L75.1137 46 L76.145 46 L76.145 34.8594 L74.895 34.8594 L74.895 37.7812 L74.9418 39.0938 C74.27 38.5312 73.6918 38.2031 72.8012 38.2031 C71.0668 38.2031 69.5043 39.7344 69.5043 42.2031 C69.5043 44.7344 70.7387 46.1875 72.645 46.1875 ZM72.9262 45.125 C71.5825 45.125 70.8325 44.0312 70.8325 42.1875 C70.8325 40.4531 71.8012 39.2812 73.02 39.2812 C73.6606 39.2812 74.2231 39.5 74.895 40.0781 L74.895 44.0625 C74.2387 44.7656 73.6293 45.125 72.9262 45.125 Z"
    /></g
    ><g style="fill:white; text-rendering:optimizeSpeed; font-family:'Serif'; stroke:white;"
    ><rect x="85" width="5" height="10" y="67" style="stroke:none;"
      /><path d="M86.8906 75.6875 C86.4844 75.6875 86.1562 76.0469 86.1562 76.4219 C86.1562 76.8125 86.4844 77.1562 86.8906 77.1562 C87.2969 77.1562 87.6406 76.8125 87.6406 76.4219 C87.6406 76.0469 87.2969 75.6875 86.8906 75.6875 ZM88.4688 69.5781 C88.7188 69.8906 88.875 70.2656 88.8906 70.6562 C88.8906 71.1875 88.625 71.5 88.0312 71.7656 L87.4062 72.0156 C86.6406 72.3125 86.3906 72.5469 86.3906 72.9375 C86.3906 73.1094 86.4531 73.3438 86.5781 73.8125 L86.7344 74.3438 L87.1094 74.3438 L87.0938 73.5312 C87.0938 73.0938 87.2031 72.9688 87.7812 72.7344 L88.2031 72.5625 C89.0312 72.2188 89.4531 71.6875 89.4531 70.8438 C89.4531 69.1562 87.6562 68.1875 86.5 68.0312 C86.1094 68.125 85.9062 68.2969 85.9062 68.6406 C85.9062 68.9375 86.0625 69.1562 86.7188 69.2656 L88.4688 69.5781 Z" style="fill:black; stroke:none;"
    /></g
    ><g ID="legend-1:0" style="text-rendering:optimizeSpeed; font-size:10px; font-family:'SansSerif';"
    ><path style="stroke:none;" d="M30.875 113 L34.9062 113 L34.9062 112.2344 L33.4375 112.2344 L33.4375 105.6562 L32.7344 105.6562 C32.3281 105.9062 31.8594 106.0625 31.2031 106.1875 L31.2031 106.7656 L32.5156 106.7656 L32.5156 112.2344 L30.875 112.2344 L30.875 113 ZM35.925 108.4531 L40.7219 108.4531 L40.7219 107.7656 L35.925 107.7656 L35.925 108.4531 ZM35.925 110.8438 L40.7219 110.8438 L40.7219 110.1719 L35.925 110.1719 L35.925 110.8438 ZM42.8812 110.7969 L43.6937 110.7969 C43.5062 109.2188 45.3031 108.625 45.3031 107.1562 C45.3031 106.0625 44.5687 105.375 43.4437 105.375 C42.6312 105.375 41.9906 105.7656 41.5375 106.2969 L42.0531 106.7812 C42.3969 106.375 42.8344 106.1406 43.3344 106.1406 C44.0531 106.1406 44.4125 106.625 44.4125 107.2188 C44.4125 108.4062 42.6469 109.0469 42.8812 110.7969 ZM43.3031 113.125 C43.6781 113.125 43.975 112.8438 43.975 112.4375 C43.975 112.0156 43.6781 111.7344 43.3031 111.7344 C42.9437 111.7344 42.6469 112.0156 42.6469 112.4375 C42.6469 112.8438 42.9437 113.125 43.3031 113.125 ZM46.2931 110.5469 L48.8556 110.5469 L48.8556 109.8438 L46.2931 109.8438 L46.2931 110.5469 ZM49.7475 113 L54.3568 113 L54.3568 112.2031 L52.3256 112.2031 C51.9662 112.2031 51.5131 112.25 51.1225 112.2812 C52.8568 110.6562 53.9975 109.1562 53.9975 107.7031 C53.9975 106.3906 53.185 105.5312 51.8725 105.5312 C50.935 105.5312 50.31 105.9531 49.7162 106.6094 L50.2475 107.125 C50.6381 106.6562 51.1537 106.2812 51.7631 106.2812 C52.6693 106.2812 53.1068 106.8906 53.1068 107.7344 C53.1068 108.9844 52.0443 110.4531 49.7475 112.4531 L49.7475 113 ZM55.61 114.9062 C56.5162 114.5156 57.0631 113.7656 57.0631 112.8125 C57.0631 112.1406 56.7818 111.7344 56.2975 111.7344 C55.9225 111.7344 55.61 111.9844 55.61 112.375 C55.61 112.7969 55.9225 113.0156 56.2818 113.0156 C56.3131 113.0156 56.3443 113.0156 56.3912 113 C56.3912 113.5938 56.0162 114.0781 55.3912 114.3594 L55.61 114.9062 ZM58.7962 110.25 L60.4525 107.75 C60.6712 107.3906 60.8743 107.0312 61.0462 106.6719 L61.0931 106.6719 C61.0775 107.0469 61.0462 107.6406 61.0462 108 L61.0462 110.25 L58.7962 110.25 ZM61.0462 113 L61.9056 113 L61.9056 110.9844 L62.8743 110.9844 L62.8743 110.25 L61.9056 110.25 L61.9056 105.6562 L60.89 105.6562 L57.8431 110.375 L57.8431 110.9844 L61.0462 110.9844 L61.0462 113 ZM63.6431 110.5469 L66.2056 110.5469 L66.2056 109.8438 L63.6431 109.8438 L63.6431 110.5469 ZM69.4256 113.125 C70.0818 113.125 70.6443 112.7812 71.0818 112.3594 L71.1131 112.3594 L71.1912 113 L71.9256 113 L71.9256 105.0469 L71.0349 105.0469 L71.0349 107.125 L71.0662 108.0625 C70.5974 107.6719 70.1756 107.4375 69.5349 107.4375 C68.3006 107.4375 67.1912 108.5312 67.1912 110.2969 C67.1912 112.0938 68.0662 113.125 69.4256 113.125 ZM69.6287 112.375 C68.6756 112.375 68.1287 111.5938 68.1287 110.2812 C68.1287 109.0469 68.8162 108.2031 69.7068 108.2031 C70.1443 108.2031 70.5662 108.3594 71.0349 108.7656 L71.0349 111.625 C70.5662 112.125 70.1287 112.375 69.6287 112.375 ZM73.7818 113 L74.6881 113 L74.6881 107.5625 L73.7818 107.5625 L73.7818 113 ZM74.2349 106.4531 C74.5943 106.4531 74.8443 106.2031 74.8443 105.8438 C74.8443 105.4844 74.5943 105.25 74.2349 105.25 C73.8756 105.25 73.6256 105.4844 73.6256 105.8438 C73.6256 106.2031 73.8756 106.4531 74.2349 106.4531 ZM78.3756 113.125 C79.0318 113.125 79.5943 112.7812 80.0318 112.3594 L80.0631 112.3594 L80.1412 113 L80.8756 113 L80.8756 105.0469 L79.9849 105.0469 L79.9849 107.125 L80.0162 108.0625 C79.5474 107.6719 79.1256 107.4375 78.4849 107.4375 C77.2506 107.4375 76.1412 108.5312 76.1412 110.2969 C76.1412 112.0938 77.0162 113.125 78.3756 113.125 ZM78.5787 112.375 C77.6256 112.375 77.0787 111.5938 77.0787 110.2812 C77.0787 109.0469 77.7662 108.2031 78.6568 108.2031 C79.0943 108.2031 79.5162 108.3594 79.9849 108.7656 L79.9849 111.625 C79.5162 112.125 79.0787 112.375 78.5787 112.375 ZM84.9193 113.125 C85.6537 113.125 86.2474 112.875 86.7162 112.5625 L86.3881 111.9688 C85.9974 112.2344 85.5599 112.4062 85.0287 112.4062 C83.9974 112.4062 83.2943 111.6562 83.2318 110.5 L86.8881 110.5 C86.9037 110.375 86.9349 110.1875 86.9349 109.9844 C86.9349 108.4375 86.1537 107.4375 84.7631 107.4375 C83.5131 107.4375 82.3256 108.5312 82.3256 110.2969 C82.3256 112.0781 83.4818 113.125 84.9193 113.125 ZM83.2162 109.8438 C83.3256 108.7812 84.0131 108.1562 84.7787 108.1562 C85.6224 108.1562 86.1224 108.75 86.1224 109.8438 L83.2162 109.8438 ZM90.3812 113.125 C91.7093 113.125 92.8968 112.0938 92.8968 110.2969 C92.8968 108.4844 91.7093 107.4375 90.3812 107.4375 C89.0531 107.4375 87.8656 108.4844 87.8656 110.2969 C87.8656 112.0938 89.0531 113.125 90.3812 113.125 ZM90.3812 112.375 C89.4437 112.375 88.8031 111.5469 88.8031 110.2969 C88.8031 109.0469 89.4437 108.1875 90.3812 108.1875 C91.3187 108.1875 91.9593 109.0469 91.9593 110.2969 C91.9593 111.5469 91.3187 112.375 90.3812 112.375 ZM93.5662 113 L94.5193 113 L95.2537 111.7344 C95.4412 111.4062 95.6131 111.0625 95.8162 110.7656 L95.8631 110.7656 C96.0662 111.0625 96.2537 111.4062 96.4412 111.7344 L97.2381 113 L98.2381 113 L96.4568 110.2656 L98.0974 107.5625 L97.1443 107.5625 L96.4724 108.7656 C96.3162 109.0625 96.1599 109.375 95.9881 109.6719 L95.9568 109.6719 C95.7693 109.375 95.5818 109.0625 95.4099 108.7656 L94.6756 107.5625 L93.7068 107.5625 L95.3474 110.1719 L93.5662 113 ZM99.4055 115.3438 C100.4837 115.3438 101.0462 114.5156 101.4212 113.4531 L103.468 107.5625 L102.5774 107.5625 L101.6087 110.5938 C101.4524 111.0625 101.2962 111.625 101.1555 112.1094 L101.093 112.1094 C100.9368 111.625 100.7337 111.0625 100.5774 110.5938 L99.468 107.5625 L98.5149 107.5625 L100.7024 113.0156 L100.5774 113.4219 C100.3587 114.0938 99.968 114.5938 99.343 114.5938 C99.2024 114.5938 99.0462 114.5469 98.9368 114.5 L98.7649 115.2344 C98.9368 115.2969 99.1399 115.3438 99.4055 115.3438 ZM104.053 110.5469 L106.6155 110.5469 L106.6155 109.8438 L104.053 109.8438 L104.053 110.5469 ZM108.0699 113 L109.9449 113 C112.1637 113 113.3668 111.625 113.3668 109.3125 C113.3668 106.9844 112.1637 105.6562 109.9137 105.6562 L108.0699 105.6562 L108.0699 113 ZM109.0074 112.2344 L109.0074 106.4219 L109.8355 106.4219 C111.5543 106.4219 112.4137 107.4531 112.4137 109.3125 C112.4137 111.1562 111.5543 112.2344 109.8355 112.2344 L109.0074 112.2344 ZM114.393 110.5469 L116.9555 110.5469 L116.9555 109.8438 L114.393 109.8438 L114.393 110.5469 ZM120.5193 113.125 C121.2537 113.125 121.8474 112.875 122.3162 112.5625 L121.988 111.9688 C121.5974 112.2344 121.1599 112.4062 120.6287 112.4062 C119.5974 112.4062 118.8943 111.6562 118.8318 110.5 L122.488 110.5 C122.5037 110.375 122.5349 110.1875 122.5349 109.9844 C122.5349 108.4375 121.7537 107.4375 120.363 107.4375 C119.113 107.4375 117.9255 108.5312 117.9255 110.2969 C117.9255 112.0781 119.0818 113.125 120.5193 113.125 ZM118.8162 109.8438 C118.9255 108.7812 119.613 108.1562 120.3787 108.1562 C121.2224 108.1562 121.7224 108.75 121.7224 109.8438 L118.8162 109.8438 ZM123.8718 113 L124.778 113 L124.778 109.5156 C125.1374 108.5781 125.6999 108.2656 126.153 108.2656 C126.3718 108.2656 126.4968 108.2812 126.6843 108.3438 L126.8562 107.5469 C126.6843 107.4531 126.5124 107.4375 126.2624 107.4375 C125.653 107.4375 125.1062 107.875 124.7312 108.5625 L124.6999 108.5625 L124.6218 107.5625 L123.8718 107.5625 L123.8718 113 ZM127.8455 115.3438 C128.9236 115.3438 129.4861 114.5156 129.8611 113.4531 L131.908 107.5625 L131.0174 107.5625 L130.0486 110.5938 C129.8924 111.0625 129.7361 111.625 129.5955 112.1094 L129.533 112.1094 C129.3768 111.625 129.1736 111.0625 129.0174 110.5938 L127.908 107.5625 L126.9549 107.5625 L129.1424 113.0156 L129.0174 113.4219 C128.7986 114.0938 128.408 114.5938 127.783 114.5938 C127.6424 114.5938 127.4861 114.5469 127.3768 114.5 L127.2049 115.2344 C127.3768 115.2969 127.5799 115.3438 127.8455 115.3438 ZM133.0399 113 L133.9774 113 L133.9774 109.5469 L137.3836 109.5469 L137.3836 113 L138.3055 113 L138.3055 105.6562 L137.3836 105.6562 L137.3836 108.7344 L133.9774 108.7344 L133.9774 105.6562 L133.0399 105.6562 L133.0399 113 ZM142.4293 113.125 C143.1636 113.125 143.7574 112.875 144.2261 112.5625 L143.898 111.9688 C143.5074 112.2344 143.0699 112.4062 142.5386 112.4062 C141.5074 112.4062 140.8043 111.6562 140.7418 110.5 L144.398 110.5 C144.4136 110.375 144.4449 110.1875 144.4449 109.9844 C144.4449 108.4375 143.6636 107.4375 142.273 107.4375 C141.023 107.4375 139.8355 108.5312 139.8355 110.2969 C139.8355 112.0781 140.9918 113.125 142.4293 113.125 ZM140.7261 109.8438 C140.8355 108.7812 141.523 108.1562 142.2886 108.1562 C143.1324 108.1562 143.6324 108.75 143.6324 109.8438 L140.7261 109.8438 ZM145.0161 113 L145.9693 113 L146.7036 111.7344 C146.8911 111.4062 147.063 111.0625 147.2661 110.7656 L147.313 110.7656 C147.5161 111.0625 147.7036 111.4062 147.8911 111.7344 L148.688 113 L149.688 113 L147.9068 110.2656 L149.5474 107.5625 L148.5943 107.5625 L147.9224 108.7656 C147.7661 109.0625 147.6099 109.375 147.438 109.6719 L147.4068 109.6719 C147.2193 109.375 147.0318 109.0625 146.8599 108.7656 L146.1255 107.5625 L145.1568 107.5625 L146.7974 110.1719 L145.0161 113 ZM150.7617 115.2969 L151.668 115.2969 L151.668 113.4531 L151.6524 112.5 C152.1367 112.9062 152.6524 113.125 153.1524 113.125 C154.4024 113.125 155.5117 112.0625 155.5117 110.2031 C155.5117 108.5312 154.7461 107.4375 153.3555 107.4375 C152.7149 107.4375 152.1055 107.7969 151.6211 108.1875 L151.5899 108.1875 L151.5117 107.5625 L150.7617 107.5625 L150.7617 115.2969 ZM152.9961 112.375 C152.6367 112.375 152.1524 112.2188 151.668 111.7969 L151.668 108.9531 C152.1992 108.4531 152.668 108.2031 153.1367 108.2031 C154.1524 108.2031 154.5586 109.0156 154.5586 110.2031 C154.5586 111.5625 153.9024 112.375 152.9961 112.375 ZM158.9774 109.125 C159.8524 109.125 160.3055 109.7656 160.3055 110.75 C160.3055 111.75 159.743 112.4219 159.0555 112.4219 C158.1336 112.4219 157.5867 111.5938 157.4774 110.0625 C157.9149 109.4062 158.5086 109.125 158.9774 109.125 ZM159.0555 113.125 C160.1961 113.125 161.1492 112.1719 161.1492 110.75 C161.1492 109.2188 160.3524 108.4531 159.118 108.4531 C158.5399 108.4531 157.8992 108.7969 157.4461 109.3438 C157.493 107.0625 158.3367 106.2969 159.3367 106.2969 C159.7899 106.2969 160.2274 106.5 160.5242 106.8438 L161.0242 106.2812 C160.618 105.8438 160.0711 105.5312 159.3055 105.5312 C157.8836 105.5312 156.6024 106.625 156.6024 109.5 C156.6024 111.9219 157.6336 113.125 159.0555 113.125 ZM162.5899 113 L163.4336 113 L163.4336 108.9375 C163.4336 108.3125 163.3555 107.4219 163.3242 106.7812 L163.3555 106.7812 L163.9336 108.4531 L165.3242 112.2656 L165.9492 112.2656 L167.3399 108.4531 L167.918 106.7812 L167.9649 106.7812 C167.9024 107.4219 167.8399 108.3125 167.8399 108.9375 L167.8399 113 L168.7149 113 L168.7149 105.6562 L167.5899 105.6562 L166.1836 109.5938 C166.0274 110.0938 165.8555 110.6094 165.6836 111.125 L165.6367 111.125 C165.4649 110.6094 165.293 110.0938 165.1211 109.5938 L163.7149 105.6562 L162.5899 105.6562 L162.5899 113 ZM172.8192 113.125 C173.5536 113.125 174.1474 112.875 174.6161 112.5625 L174.288 111.9688 C173.8974 112.2344 173.4599 112.4062 172.9286 112.4062 C171.8974 112.4062 171.1942 111.6562 171.1317 110.5 L174.788 110.5 C174.8036 110.375 174.8349 110.1875 174.8349 109.9844 C174.8349 108.4375 174.0536 107.4375 172.663 107.4375 C171.413 107.4375 170.2255 108.5312 170.2255 110.2969 C170.2255 112.0781 171.3817 113.125 172.8192 113.125 ZM171.1161 109.8438 C171.2255 108.7812 171.913 108.1562 172.6786 108.1562 C173.5224 108.1562 174.0224 108.75 174.0224 109.8438 L171.1161 109.8438 Z"
    /></g
  ></g
></svg
>
