<?xml version="1.0"?>
<!DOCTYPE svg PUBLIC '-//W3C//DTD SVG 1.0//EN'
          'http://www.w3.org/TR/2001/REC-SVG-20010904/DTD/svg10.dtd'>
<svg xmlns:xlink="http://www.w3.org/1999/xlink" style="fill-opacity:1; color-rendering:auto; color-interpolation:auto; text-rendering:auto; stroke:black; stroke-linecap:square; stroke-miterlimit:10; shape-rendering:auto; stroke-opacity:1; fill:black; stroke-dasharray:none; font-weight:normal; stroke-width:1; font-family:'Dialog'; font-style:normal; stroke-linejoin:miter; font-size:12px; stroke-dashoffset:0; image-rendering:auto;" viewBox="0 0 186 134" xmlns="http://www.w3.org/2000/svg"
><!--Generated by the Batik Graphics2D SVG Generator--><defs id="genericDefs"
  /><g
  ><defs id="defs1"
    ><clipPath clipPathUnits="userSpaceOnUse" id="clipPath1"
      ><path d="M104 67 C104 73.0751 99.0751 78 93 78 C86.9249 78 82 73.0751 82 67 C82 60.9249 86.9249 56 93 56 C99.0751 56 104 60.9249 104 67 Z"
      /></clipPath
      ><clipPath clipPathUnits="userSpaceOnUse" id="clipPath2"
      ><path d="M52 93 C52 99.0751 47.0751 104 41 104 C34.9249 104 30 99.0751 30 93 C30 86.9249 34.9249 82 41 82 C47.0751 82 52 86.9249 52 93 Z"
      /></clipPath
      ><clipPath clipPathUnits="userSpaceOnUse" id="clipPath3"
      ><path d="M52 41 C52 47.0751 47.0751 52 41 52 C34.9249 52 30 47.0751 30 41 C30 34.9249 34.9249 30 41 30 C47.0751 30 52 34.9249 52 41 Z"
      /></clipPath
    ></defs
    ><g style="fill:white; text-rendering:optimizeSpeed; stroke:white;"
    ><rect x="0" width="186" height="134" y="0" style="stroke:none;"
      /><polygon style="fill:none; stroke:black;" points=" 145 67 93 67"
      /><path d="M145 56 C139.5 61.5 150.5 72.5 145 78" style="fill:none; stroke:black;"
      /><polygon style="fill:none; stroke:black;" points=" 93 67 41 93"
      /><polygon style="fill:none; stroke:black;" points=" 93 67 41 41"
      /><circle style="clip-path:url(#clipPath1); stroke:none;" r="11" cx="93" cy="67"
      /><rect x="82" y="56" width="22" style="clip-path:url(#clipPath1); fill:rgb(0,166,81); stroke:none;" height="22"
      /><rect x="82" y="56" width="22" style="clip-path:url(#clipPath1); fill:none; stroke:black;" height="22"
      /><circle style="fill:none; stroke:black;" r="11" cx="93" cy="67"
      /><rect x="85" y="38" width="14" style="stroke:none;" height="10"
    /></g
    ><g style="text-rendering:optimizeSpeed; font-size:14px; font-family:'SansSerif';"
    ><path style="stroke:none;" d="M89.1094 43.5781 C90.3438 43.5781 90.9688 44.4688 90.9688 45.8438 C90.9688 47.25 90.1875 48.1875 89.2188 48.1875 C87.9219 48.1875 87.1562 47.0312 87 44.8906 C87.625 43.9531 88.4531 43.5781 89.1094 43.5781 ZM89.2188 49.1875 C90.8125 49.1875 92.1562 47.8438 92.1562 45.8438 C92.1562 43.7031 91.0469 42.625 89.3125 42.625 C88.5 42.625 87.6094 43.1094 86.9688 43.875 C87.0312 40.6875 88.2188 39.6094 89.625 39.6094 C90.25 39.6094 90.8594 39.9062 91.2656 40.3906 L91.9688 39.5938 C91.4062 38.9844 90.6406 38.5469 89.5781 38.5469 C87.5938 38.5469 85.7812 40.0781 85.7812 44.0938 C85.7812 47.4844 87.2344 49.1875 89.2188 49.1875 ZM94.1762 49 L95.4731 49 L95.4731 44.3906 L99.395 44.3906 L99.395 43.2969 L95.4731 43.2969 L95.4731 39.8281 L100.0981 39.8281 L100.0981 38.7188 L94.1762 38.7188 L94.1762 49 Z"
    /></g
    ><g style="fill:white; text-rendering:optimizeSpeed; stroke:white;"
    ><circle r="11" style="clip-path:url(#clipPath2); stroke:none;" cx="41" cy="93"
      /><rect x="30" y="82" width="22" style="clip-path:url(#clipPath2); fill:rgb(0,166,81); stroke:none;" height="22"
      /><rect x="30" y="82" width="22" style="clip-path:url(#clipPath2); fill:none; stroke:black;" height="22"
      /><circle r="11" style="fill:none; stroke:black;" cx="41" cy="93"
      /><circle r="11" style="clip-path:url(#clipPath3); stroke:none;" cx="41" cy="41"
      /><rect x="30" y="30" width="22" style="clip-path:url(#clipPath3); fill:rgb(0,166,81); stroke:none;" height="22"
      /><rect x="30" y="30" width="22" style="clip-path:url(#clipPath3); fill:none; stroke:black;" height="22"
      /><circle r="11" style="fill:none; stroke:black;" cx="41" cy="41"
      /><rect x="75" width="6" height="9" y="78" style="stroke:none;"
      /><path d="M76.4219 86.0938 C77.0781 85.375 77.7031 84.7188 78.0312 84.3438 C79.9219 82.3125 80.5312 81.4688 80.5312 80.3594 C80.5312 79.0156 79.7812 78.0781 78.1562 78.0781 C76.9062 78.0781 75.7969 78.7031 75.5938 79.9688 C75.7188 80.2031 75.9062 80.3438 76.1562 80.3438 C76.4688 80.3438 76.6562 80.1094 76.7969 79.5938 L77.0938 78.6719 C77.3906 78.5938 77.6562 78.5625 77.8906 78.5625 C78.9219 78.5625 79.5469 79.3125 79.5469 80.4219 C79.5469 81.4375 78.9844 82.4219 77.7031 83.9062 C77.125 84.5781 76.3906 85.4375 75.6406 86.2812 L75.6406 87 L80.9219 87 L80.9219 86.0938 L76.4219 86.0938 Z" style="fill:black; stroke:none;"
      /><rect x="58" width="8" height="8" y="87" style="stroke:none;"
      /><path d="M62.9844 92.7031 C62.9375 93.8906 62.1562 94.6562 61.3125 94.6562 C60.2656 94.6562 59.5 93.6875 59.5 91.7188 C59.5 90.2812 60.1562 89.1562 61.3438 89.1562 C62.1406 89.1562 62.7812 89.6875 63.0938 90.6406 L62.9844 92.7031 ZM64.9062 94.2812 C64.7344 94.375 64.5469 94.4219 64.3438 94.4219 C63.9531 94.4219 63.75 94.2188 63.75 93.4219 C63.75 92.4844 63.9688 90.5312 64.1875 88.8281 L64.0312 88.7188 L63.2344 88.9219 L63.1406 89.7969 C62.7812 89.0312 62.1562 88.6562 61.3906 88.6562 C60.0469 88.6562 58.5625 89.8438 58.5625 91.9531 C58.5625 94.0938 59.7188 95.1719 61.1406 95.1719 C62.0156 95.1719 62.6875 94.8125 63.0938 93.9844 C63.2031 94.8594 63.5156 95.1719 64.0156 95.1719 C64.4688 95.1719 64.7969 94.9062 65.0156 94.5625 L64.9062 94.2812 Z" style="fill:black; stroke:none;"
      /><rect x="68" width="6" height="10" y="60" style="stroke:none;"
      /><path d="M70.2344 61.6562 C70.5156 61.5938 70.7656 61.5625 71.0156 61.5625 C72.0625 61.5625 72.6719 62.1719 72.6719 63.2656 C72.6719 64.4375 71.9062 65.1094 70.7031 65.1094 L70.1875 65.1094 L70.1875 65.6406 L70.7969 65.6406 C72.2188 65.6406 72.9062 66.4219 72.9062 67.6406 C72.9062 68.8438 72.1719 69.6875 70.875 69.6875 C70.6094 69.6875 70.3125 69.6562 70.0156 69.5625 L69.7812 68.8125 C69.625 68.2812 69.5 68.0469 69.1406 68.0469 C68.8906 68.0469 68.7031 68.1719 68.5781 68.4219 C68.8438 69.6406 69.7812 70.1719 71.0312 70.1719 C72.7188 70.1719 73.875 69.125 73.875 67.7031 C73.875 66.5 73.2031 65.625 71.7969 65.375 C72.9531 65.0156 73.6094 64.2031 73.6094 63.2031 C73.6094 61.9219 72.6719 61.0781 71.1875 61.0781 C70.0469 61.0781 69.0625 61.5938 68.7969 62.6875 C68.9062 63 69.1094 63.1094 69.3594 63.1094 C69.7344 63.1094 69.8906 62.8906 70 62.4062 L70.2344 61.6562 Z" style="fill:black; stroke:none;"
      /><rect x="51" width="8" height="8" y="53" style="stroke:none;"
      /><path d="M55.9844 58.7031 C55.9375 59.8906 55.1562 60.6562 54.3125 60.6562 C53.2656 60.6562 52.5 59.6875 52.5 57.7188 C52.5 56.2812 53.1562 55.1562 54.3438 55.1562 C55.1406 55.1562 55.7812 55.6875 56.0938 56.6406 L55.9844 58.7031 ZM57.9062 60.2812 C57.7344 60.375 57.5469 60.4219 57.3438 60.4219 C56.9531 60.4219 56.75 60.2188 56.75 59.4219 C56.75 58.4844 56.9688 56.5312 57.1875 54.8281 L57.0312 54.7188 L56.2344 54.9219 L56.1406 55.7969 C55.7812 55.0312 55.1562 54.6562 54.3906 54.6562 C53.0469 54.6562 51.5625 55.8438 51.5625 57.9531 C51.5625 60.0938 52.7188 61.1719 54.1406 61.1719 C55.0156 61.1719 55.6875 60.8125 56.0938 59.9844 C56.2031 60.8594 56.5156 61.1719 57.0156 61.1719 C57.4688 61.1719 57.7969 60.9062 58.0156 60.5625 L57.9062 60.2812 Z" style="fill:black; stroke:none;"
      /><rect x="108" width="8" height="8" y="71" style="stroke:none;"
      /><path d="M112.9844 76.7031 C112.9375 77.8906 112.1562 78.6562 111.3125 78.6562 C110.2656 78.6562 109.5 77.6875 109.5 75.7188 C109.5 74.2812 110.1562 73.1562 111.3438 73.1562 C112.1406 73.1562 112.7812 73.6875 113.0938 74.6406 L112.9844 76.7031 ZM114.9062 78.2812 C114.7344 78.375 114.5469 78.4219 114.3438 78.4219 C113.9531 78.4219 113.75 78.2188 113.75 77.4219 C113.75 76.4844 113.9688 74.5312 114.1875 72.8281 L114.0312 72.7188 L113.2344 72.9219 L113.1406 73.7969 C112.7812 73.0312 112.1562 72.6562 111.3906 72.6562 C110.0469 72.6562 108.5625 73.8438 108.5625 75.9531 C108.5625 78.0938 109.7188 79.1719 111.1406 79.1719 C112.0156 79.1719 112.6875 78.8125 113.0938 77.9844 C113.2031 78.8594 113.5156 79.1719 114.0156 79.1719 C114.4688 79.1719 114.7969 78.9062 115.0156 78.5625 L114.9062 78.2812 Z" style="fill:black; stroke:none;"
    /></g
  ></g
></svg
>
