<?xml version="1.0"?>
<!DOCTYPE svg PUBLIC '-//W3C//DTD SVG 1.0//EN'
          'http://www.w3.org/TR/2001/REC-SVG-20010904/DTD/svg10.dtd'>
<svg xmlns:xlink="http://www.w3.org/1999/xlink" style="fill-opacity:1; color-rendering:auto; color-interpolation:auto; text-rendering:auto; stroke:black; stroke-linecap:square; stroke-miterlimit:10; shape-rendering:auto; stroke-opacity:1; fill:black; stroke-dasharray:none; font-weight:normal; stroke-width:1; font-family:'Dialog'; font-style:normal; stroke-linejoin:miter; font-size:12px; stroke-dashoffset:0; image-rendering:auto;" viewBox="0 0 446 186" xmlns="http://www.w3.org/2000/svg"
><!--Generated by the Batik Graphics2D SVG Generator--><defs id="genericDefs"
  /><g
  ><defs id="defs1"
    ><clipPath clipPathUnits="userSpaceOnUse" id="clipPath1"
      ><path d="M342 82 L364 82 L364 104 L342 104 L342 82 Z"
      /></clipPath
      ><clipPath clipPathUnits="userSpaceOnUse" id="clipPath2"
      ><path style="fill-rule:evenodd;" d="M353 134 L364 156 L342 156 Z"
      /></clipPath
      ><clipPath clipPathUnits="userSpaceOnUse" id="clipPath3"
      ><path d="M290 82 L312 82 L312 104 L290 104 L290 82 Z"
      /></clipPath
      ><clipPath clipPathUnits="userSpaceOnUse" id="clipPath4"
      ><path d="M260 93 C260 99.0751 255.0751 104 249 104 C242.9249 104 238 99.0751 238 93 C238 86.9249 242.9249 82 249 82 C255.0751 82 260 86.9249 260 93 Z"
      /></clipPath
      ><clipPath clipPathUnits="userSpaceOnUse" id="clipPath5"
      ><path d="M208 145 C208 151.0751 203.0751 156 197 156 C190.9249 156 186 151.0751 186 145 C186 138.9249 190.9249 134 197 134 C203.0751 134 208 138.9249 208 145 Z"
      /></clipPath
      ><clipPath clipPathUnits="userSpaceOnUse" id="clipPath6"
      ><path d="M134 134 L156 134 L156 156 L134 156 L134 134 Z"
      /></clipPath
      ><clipPath clipPathUnits="userSpaceOnUse" id="clipPath7"
      ><path d="M104 145 C104 151.0751 99.0751 156 93 156 C86.9249 156 82 151.0751 82 145 C82 138.9249 86.9249 134 93 134 C99.0751 134 104 138.9249 104 145 Z"
      /></clipPath
      ><clipPath clipPathUnits="userSpaceOnUse" id="clipPath8"
      ><path d="M52 145 C52 151.0751 47.0751 156 41 156 C34.9249 156 30 151.0751 30 145 C30 138.9249 34.9249 134 41 134 C47.0751 134 52 138.9249 52 145 Z"
      /></clipPath
      ><clipPath clipPathUnits="userSpaceOnUse" id="clipPath9"
      ><path d="M186 82 L208 82 L208 104 L186 104 L186 82 Z"
      /></clipPath
      ><clipPath clipPathUnits="userSpaceOnUse" id="clipPath10"
      ><path d="M208 41 C208 47.0751 203.0751 52 197 52 C190.9249 52 186 47.0751 186 41 C186 34.9249 190.9249 30 197 30 C203.0751 30 208 34.9249 208 41 Z"
      /></clipPath
      ><clipPath clipPathUnits="userSpaceOnUse" id="clipPath11"
      ><path d="M134 30 L156 30 L156 52 L134 52 L134 30 Z"
      /></clipPath
      ><clipPath clipPathUnits="userSpaceOnUse" id="clipPath12"
      ><path d="M104 41 C104 47.0751 99.0751 52 93 52 C86.9249 52 82 47.0751 82 41 C82 34.9249 86.9249 30 93 30 C99.0751 30 104 34.9249 104 41 Z"
      /></clipPath
    ></defs
    ><g style="fill:white; text-rendering:optimizeSpeed; stroke:white;"
    ><rect x="0" width="446" height="186" y="0" style="stroke:none;"
      /><polygon style="fill:none; stroke:black;" points=" 405 93 353 93"
      /><path d="M405 82 C399.5 87.5 410.5 98.5 405 104" style="fill:none; stroke:black;"
      /><polygon style="fill:none; stroke:black;" points=" 353 93 353 145"
      /><polygon style="fill:none; stroke:black;" points=" 353 93 301 93"
      /><rect x="342" y="82" width="22" style="clip-path:url(#clipPath1); stroke:none;" height="22"
      /><rect x="342" y="82" width="22" style="clip-path:url(#clipPath1); fill:rgb(0,144,188); stroke:none;" height="22"
      /><rect x="342" y="82" width="22" style="clip-path:url(#clipPath1); fill:none; stroke:black;" height="22"
      /><rect x="342" y="82" width="22" style="fill:none; stroke:black;" height="22"
      /><polygon style="clip-path:url(#clipPath2); stroke:none;" points=" 353 134 364 156 342 156"
      /><rect x="342" y="134" width="22" style="clip-path:url(#clipPath2); fill:rgb(237,28,36); stroke:none;" height="22"
      /><rect x="342" y="134" width="22" style="clip-path:url(#clipPath2); fill:none; stroke:black;" height="22"
      /><polygon style="fill:none; stroke:black;" points=" 353 134 364 156 342 156"
      /><polygon style="fill:none; stroke:black;" points=" 301 93 249 93"
      /><rect x="290" y="82" width="22" style="clip-path:url(#clipPath3); stroke:none;" height="22"
      /><rect x="290" y="82" width="22" style="clip-path:url(#clipPath3); fill:rgb(0,144,188); stroke:none;" height="22"
      /><rect x="290" y="82" width="22" style="clip-path:url(#clipPath3); fill:none; stroke:black;" height="22"
      /><rect x="290" y="82" width="22" style="fill:none; stroke:black;" height="22"
      /><polygon style="fill:none; stroke:black;" points=" 249 93 197 145"
      /><polygon style="fill:none; stroke:black;" points=" 249 93 197 93"
      /><polygon style="fill:none; stroke:black;" points=" 249 93 197 41"
      /><circle style="clip-path:url(#clipPath4); stroke:none;" r="11" cx="249" cy="93"
      /><rect x="238" y="82" width="22" style="clip-path:url(#clipPath4); fill:rgb(0,166,81); stroke:none;" height="22"
      /><rect x="238" y="82" width="22" style="clip-path:url(#clipPath4); fill:none; stroke:black;" height="22"
      /><circle style="fill:none; stroke:black;" r="11" cx="249" cy="93"
      /><polygon style="fill:none; stroke:black;" points=" 197 145 145 145"
      /><circle style="clip-path:url(#clipPath5); stroke:none;" r="11" cx="197" cy="145"
      /><rect x="186" y="134" width="22" style="clip-path:url(#clipPath5); fill:rgb(0,166,81); stroke:none;" height="22"
      /><rect x="186" y="134" width="22" style="clip-path:url(#clipPath5); fill:none; stroke:black;" height="22"
      /><circle style="fill:none; stroke:black;" r="11" cx="197" cy="145"
      /><polygon style="fill:none; stroke:black;" points=" 145 145 93 145"
      /><rect x="134" y="134" width="22" style="clip-path:url(#clipPath6); stroke:none;" height="22"
      /><rect x="134" y="134" width="22" style="clip-path:url(#clipPath6); fill:rgb(0,144,188); stroke:none;" height="22"
      /><rect x="134" y="134" width="22" style="clip-path:url(#clipPath6); fill:none; stroke:black;" height="22"
      /><rect x="134" y="134" width="22" style="fill:none; stroke:black;" height="22"
      /><polygon style="fill:none; stroke:black;" points=" 93 145 41 145"
      /><circle style="clip-path:url(#clipPath7); stroke:none;" r="11" cx="93" cy="145"
      /><rect x="82" y="134" width="22" style="clip-path:url(#clipPath7); fill:rgb(255,212,0); stroke:none;" height="22"
      /><rect x="82" y="134" width="22" style="clip-path:url(#clipPath7); fill:none; stroke:black;" height="22"
      /><circle style="fill:none; stroke:black;" r="11" cx="93" cy="145"
      /><circle style="clip-path:url(#clipPath8); stroke:none;" r="11" cx="41" cy="145"
      /><rect x="30" y="134" width="22" style="clip-path:url(#clipPath8); fill:rgb(255,212,0); stroke:none;" height="22"
      /><rect x="30" y="134" width="22" style="clip-path:url(#clipPath8); fill:none; stroke:black;" height="22"
      /><circle style="fill:none; stroke:black;" r="11" cx="41" cy="145"
      /><rect x="71" y="148" width="6" style="stroke:none;" height="10"
    /></g
    ><g style="font-family:'Serif'; text-rendering:optimizeSpeed; "
    ><path style="stroke:none;" d="M73.2344 149.6562 C73.5156 149.5938 73.7656 149.5625 74.0156 149.5625 C75.0625 149.5625 75.6719 150.1719 75.6719 151.2656 C75.6719 152.4375 74.9062 153.1094 73.7031 153.1094 L73.1875 153.1094 L73.1875 153.6406 L73.7969 153.6406 C75.2188 153.6406 75.9062 154.4219 75.9062 155.6406 C75.9062 156.8438 75.1719 157.6875 73.875 157.6875 C73.6094 157.6875 73.3125 157.6562 73.0156 157.5625 L72.7812 156.8125 C72.625 156.2812 72.5 156.0469 72.1406 156.0469 C71.8906 156.0469 71.7031 156.1719 71.5781 156.4219 C71.8438 157.6406 72.7812 158.1719 74.0312 158.1719 C75.7188 158.1719 76.875 157.125 76.875 155.7031 C76.875 154.5 76.2031 153.625 74.7969 153.375 C75.9531 153.0156 76.6094 152.2031 76.6094 151.2031 C76.6094 149.9219 75.6719 149.0781 74.1875 149.0781 C73.0469 149.0781 72.0625 149.5938 71.7969 150.6875 C71.9062 151 72.1094 151.1094 72.3594 151.1094 C72.7344 151.1094 72.8906 150.8906 73 150.4062 L73.2344 149.6562 Z"
      /><rect x="56" y="149" width="8" style="fill:white; stroke:none;" height="8"
      /><path style="stroke:none;" d="M60.9844 154.7031 C60.9375 155.8906 60.1562 156.6562 59.3125 156.6562 C58.2656 156.6562 57.5 155.6875 57.5 153.7188 C57.5 152.2812 58.1562 151.1562 59.3438 151.1562 C60.1406 151.1562 60.7812 151.6875 61.0938 152.6406 L60.9844 154.7031 ZM62.9062 156.2812 C62.7344 156.375 62.5469 156.4219 62.3438 156.4219 C61.9531 156.4219 61.75 156.2188 61.75 155.4219 C61.75 154.4844 61.9688 152.5312 62.1875 150.8281 L62.0312 150.7188 L61.2344 150.9219 L61.1406 151.7969 C60.7812 151.0312 60.1562 150.6562 59.3906 150.6562 C58.0469 150.6562 56.5625 151.8438 56.5625 153.9531 C56.5625 156.0938 57.7188 157.1719 59.1406 157.1719 C60.0156 157.1719 60.6875 156.8125 61.0938 155.9844 C61.2031 156.8594 61.5156 157.1719 62.0156 157.1719 C62.4688 157.1719 62.7969 156.9062 63.0156 156.5625 L62.9062 156.2812 Z"
      /><rect x="122" y="148" width="7" style="fill:white; stroke:none;" height="9"
      /><path style="stroke:none;" d="M123 153.5156 L125.9531 149.2656 L125.9531 153.5156 L123 153.5156 ZM128.2812 153.5156 L126.8594 153.5156 L126.8594 148.125 L126.2344 148.125 L122.3438 153.6406 L122.3438 154.1875 L125.9531 154.1875 L125.9531 157 L126.8594 157 L126.8594 154.1875 L128.2812 154.1875 L128.2812 153.5156 Z"
      /><rect x="109" y="146" width="6" style="fill:white; stroke:none;" height="13"
      /><path style="stroke:none;" d="M111.0938 152.2031 C111.0938 150.6562 111.75 149.8125 112.7969 149.8125 C113.7188 149.8125 114.2656 150.4531 114.2656 151.5156 C114.2656 152.7188 113.5 153.4375 112.1875 153.7031 L112.2969 154.3125 C114.2188 154.2344 114.9375 155.2188 114.9375 156.4375 C114.9375 157.625 114.2344 158.4219 112.9531 158.4219 C112.25 158.4219 111.6562 158.1562 111.0938 157.7188 L111.0938 152.2031 ZM110.2031 158.9062 L110.1094 161.375 L110.2656 161.4844 L111.1562 161.2656 L111.0156 158.0938 C111.5469 158.8438 112.3594 159.1719 113.1719 159.1719 C114.5625 159.1719 115.8594 158.2188 115.8594 156.4844 C115.8594 154.9531 114.875 154.1094 113.125 154 C114.5625 153.6094 115.1875 152.4531 115.1875 151.4844 C115.1875 150.0938 114.1562 149.3125 112.9062 149.3125 C111.2969 149.3125 110.2188 150.5469 110.2188 152.5156 L110.2031 158.9062 Z"
      /><rect x="175" y="148" width="6" style="fill:white; stroke:none;" height="9"
      /><path style="stroke:none;" d="M176.4219 156.0938 C177.0781 155.375 177.7031 154.7188 178.0312 154.3438 C179.9219 152.3125 180.5312 151.4688 180.5312 150.3594 C180.5312 149.0156 179.7812 148.0781 178.1562 148.0781 C176.9062 148.0781 175.7969 148.7031 175.5938 149.9688 C175.7188 150.2031 175.9062 150.3438 176.1562 150.3438 C176.4688 150.3438 176.6562 150.1094 176.7969 149.5938 L177.0938 148.6719 C177.3906 148.5938 177.6562 148.5625 177.8906 148.5625 C178.9219 148.5625 179.5469 149.3125 179.5469 150.4219 C179.5469 151.4375 178.9844 152.4219 177.7031 153.9062 C177.125 154.5781 176.3906 155.4375 175.6406 156.2812 L175.6406 157 L180.9219 157 L180.9219 156.0938 L176.4219 156.0938 Z"
      /><rect x="161" y="146" width="6" style="fill:white; stroke:none;" height="13"
      /><path style="stroke:none;" d="M163.0938 152.2031 C163.0938 150.6562 163.75 149.8125 164.7969 149.8125 C165.7188 149.8125 166.2656 150.4531 166.2656 151.5156 C166.2656 152.7188 165.5 153.4375 164.1875 153.7031 L164.2969 154.3125 C166.2188 154.2344 166.9375 155.2188 166.9375 156.4375 C166.9375 157.625 166.2344 158.4219 164.9531 158.4219 C164.25 158.4219 163.6562 158.1562 163.0938 157.7188 L163.0938 152.2031 ZM162.2031 158.9062 L162.1094 161.375 L162.2656 161.4844 L163.1562 161.2656 L163.0156 158.0938 C163.5469 158.8438 164.3594 159.1719 165.1719 159.1719 C166.5625 159.1719 167.8594 158.2188 167.8594 156.4844 C167.8594 154.9531 166.875 154.1094 165.125 154 C166.5625 153.6094 167.1875 152.4531 167.1875 151.4844 C167.1875 150.0938 166.1562 149.3125 164.9062 149.3125 C163.2969 149.3125 162.2188 150.5469 162.2188 152.5156 L162.2031 158.9062 Z"
      /><rect x="186" y="82" width="22" style="clip-path:url(#clipPath9); fill:white; stroke:none;" height="22"
      /><rect x="186" y="82" width="22" style="clip-path:url(#clipPath9); fill:rgb(0,144,188); stroke:none;" height="22"
      /><rect x="186" y="82" width="22" style="fill:none; clip-path:url(#clipPath9);" height="22"
      /><rect x="186" width="22" height="22" y="82" style="fill:none;"
      /><polygon style="fill:none;" points=" 197 41 145 41"
      /><circle style="fill:white; clip-path:url(#clipPath10); stroke:none;" r="11" cx="197" cy="41"
      /><rect x="186" y="30" width="22" style="clip-path:url(#clipPath10); fill:rgb(0,166,81); stroke:none;" height="22"
      /><rect x="186" y="30" width="22" style="fill:none; clip-path:url(#clipPath10);" height="22"
      /><circle r="11" style="fill:none;" cx="197" cy="41"
      /><polygon style="fill:none;" points=" 145 41 93 41"
      /><rect x="134" y="30" width="22" style="clip-path:url(#clipPath11); fill:white; stroke:none;" height="22"
      /><rect x="134" y="30" width="22" style="clip-path:url(#clipPath11); fill:rgb(0,144,188); stroke:none;" height="22"
      /><rect x="134" y="30" width="22" style="fill:none; clip-path:url(#clipPath11);" height="22"
      /><rect x="134" width="22" height="22" y="30" style="fill:none;"
      /><circle style="fill:white; clip-path:url(#clipPath12); stroke:none;" r="11" cx="93" cy="41"
      /><rect x="82" y="30" width="22" style="clip-path:url(#clipPath12); fill:rgb(255,212,0); stroke:none;" height="22"
      /><rect x="82" y="30" width="22" style="fill:none; clip-path:url(#clipPath12);" height="22"
      /><circle r="11" style="fill:none;" cx="93" cy="41"
      /><rect x="122" y="44" width="7" style="fill:white; stroke:none;" height="9"
      /><path style="stroke:none;" d="M123 49.5156 L125.9531 45.2656 L125.9531 49.5156 L123 49.5156 ZM128.2812 49.5156 L126.8594 49.5156 L126.8594 44.125 L126.2344 44.125 L122.3438 49.6406 L122.3438 50.1875 L125.9531 50.1875 L125.9531 53 L126.8594 53 L126.8594 50.1875 L128.2812 50.1875 L128.2812 49.5156 Z"
      /><rect x="109" y="42" width="6" style="fill:white; stroke:none;" height="13"
      /><path style="stroke:none;" d="M111.0938 48.2031 C111.0938 46.6562 111.75 45.8125 112.7969 45.8125 C113.7188 45.8125 114.2656 46.4531 114.2656 47.5156 C114.2656 48.7188 113.5 49.4375 112.1875 49.7031 L112.2969 50.3125 C114.2188 50.2344 114.9375 51.2188 114.9375 52.4375 C114.9375 53.625 114.2344 54.4219 112.9531 54.4219 C112.25 54.4219 111.6562 54.1562 111.0938 53.7188 L111.0938 48.2031 ZM110.2031 54.9062 L110.1094 57.375 L110.2656 57.4844 L111.1562 57.2656 L111.0156 54.0938 C111.5469 54.8438 112.3594 55.1719 113.1719 55.1719 C114.5625 55.1719 115.8594 54.2188 115.8594 52.4844 C115.8594 50.9531 114.875 50.1094 113.125 50 C114.5625 49.6094 115.1875 48.4531 115.1875 47.4844 C115.1875 46.0938 114.1562 45.3125 112.9062 45.3125 C111.2969 45.3125 110.2188 46.5469 110.2188 48.5156 L110.2031 54.9062 Z"
      /><rect x="175" y="44" width="6" style="fill:white; stroke:none;" height="9"
      /><path style="stroke:none;" d="M176.4219 52.0938 C177.0781 51.375 177.7031 50.7188 178.0312 50.3438 C179.9219 48.3125 180.5312 47.4688 180.5312 46.3594 C180.5312 45.0156 179.7812 44.0781 178.1562 44.0781 C176.9062 44.0781 175.7969 44.7031 175.5938 45.9688 C175.7188 46.2031 175.9062 46.3438 176.1562 46.3438 C176.4688 46.3438 176.6562 46.1094 176.7969 45.5938 L177.0938 44.6719 C177.3906 44.5938 177.6562 44.5625 177.8906 44.5625 C178.9219 44.5625 179.5469 45.3125 179.5469 46.4219 C179.5469 47.4375 178.9844 48.4219 177.7031 49.9062 C177.125 50.5781 176.3906 51.4375 175.6406 52.2812 L175.6406 53 L180.9219 53 L180.9219 52.0938 L176.4219 52.0938 Z"
      /><rect x="161" y="42" width="6" style="fill:white; stroke:none;" height="13"
      /><path style="stroke:none;" d="M163.0938 48.2031 C163.0938 46.6562 163.75 45.8125 164.7969 45.8125 C165.7188 45.8125 166.2656 46.4531 166.2656 47.5156 C166.2656 48.7188 165.5 49.4375 164.1875 49.7031 L164.2969 50.3125 C166.2188 50.2344 166.9375 51.2188 166.9375 52.4375 C166.9375 53.625 166.2344 54.4219 164.9531 54.4219 C164.25 54.4219 163.6562 54.1562 163.0938 53.7188 L163.0938 48.2031 ZM162.2031 54.9062 L162.1094 57.375 L162.2656 57.4844 L163.1562 57.2656 L163.0156 54.0938 C163.5469 54.8438 164.3594 55.1719 165.1719 55.1719 C166.5625 55.1719 167.8594 54.2188 167.8594 52.4844 C167.8594 50.9531 166.875 50.1094 165.125 50 C166.5625 49.6094 167.1875 48.4531 167.1875 47.4844 C167.1875 46.0938 166.1562 45.3125 164.9062 45.3125 C163.2969 45.3125 162.2188 46.5469 162.2188 48.5156 L162.2031 54.9062 Z"
      /><rect x="235" y="110" width="6" style="fill:white; stroke:none;" height="10"
      /><path style="stroke:none;" d="M237.2344 111.6562 C237.5156 111.5938 237.7656 111.5625 238.0156 111.5625 C239.0625 111.5625 239.6719 112.1719 239.6719 113.2656 C239.6719 114.4375 238.9062 115.1094 237.7031 115.1094 L237.1875 115.1094 L237.1875 115.6406 L237.7969 115.6406 C239.2188 115.6406 239.9062 116.4219 239.9062 117.6406 C239.9062 118.8438 239.1719 119.6875 237.875 119.6875 C237.6094 119.6875 237.3125 119.6562 237.0156 119.5625 L236.7812 118.8125 C236.625 118.2812 236.5 118.0469 236.1406 118.0469 C235.8906 118.0469 235.7031 118.1719 235.5781 118.4219 C235.8438 119.6406 236.7812 120.1719 238.0312 120.1719 C239.7188 120.1719 240.875 119.125 240.875 117.7031 C240.875 116.5 240.2031 115.625 238.7969 115.375 C239.9531 115.0156 240.6094 114.2031 240.6094 113.2031 C240.6094 111.9219 239.6719 111.0781 238.1875 111.0781 C237.0469 111.0781 236.0625 111.5938 235.7969 112.6875 C235.9062 113 236.1094 113.1094 236.3594 113.1094 C236.7344 113.1094 236.8906 112.8906 237 112.4062 L237.2344 111.6562 Z"
      /><rect x="215" y="130" width="8" style="fill:white; stroke:none;" height="8"
      /><path style="stroke:none;" d="M219.9844 135.7031 C219.9375 136.8906 219.1562 137.6562 218.3125 137.6562 C217.2656 137.6562 216.5 136.6875 216.5 134.7188 C216.5 133.2812 217.1562 132.1562 218.3438 132.1562 C219.1406 132.1562 219.7812 132.6875 220.0938 133.6406 L219.9844 135.7031 ZM221.9062 137.2812 C221.7344 137.375 221.5469 137.4219 221.3438 137.4219 C220.9531 137.4219 220.75 137.2188 220.75 136.4219 C220.75 135.4844 220.9688 133.5312 221.1875 131.8281 L221.0312 131.7188 L220.2344 131.9219 L220.1406 132.7969 C219.7812 132.0312 219.1562 131.6562 218.3906 131.6562 C217.0469 131.6562 215.5625 132.8438 215.5625 134.9531 C215.5625 137.0938 216.7188 138.1719 218.1406 138.1719 C219.0156 138.1719 219.6875 137.8125 220.0938 136.9844 C220.2031 137.8594 220.5156 138.1719 221.0156 138.1719 C221.4688 138.1719 221.7969 137.9062 222.0156 137.5625 L221.9062 137.2812 Z"
      /><rect x="226" y="96" width="7" style="fill:white; stroke:none;" height="9"
      /><path style="stroke:none;" d="M227 101.5156 L229.9531 97.2656 L229.9531 101.5156 L227 101.5156 ZM232.2812 101.5156 L230.8594 101.5156 L230.8594 96.125 L230.2344 96.125 L226.3438 101.6406 L226.3438 102.1875 L229.9531 102.1875 L229.9531 105 L230.8594 105 L230.8594 102.1875 L232.2812 102.1875 L232.2812 101.5156 Z"
      /><rect x="213" y="94" width="6" style="fill:white; stroke:none;" height="13"
      /><path style="stroke:none;" d="M215.0938 100.2031 C215.0938 98.6562 215.75 97.8125 216.7969 97.8125 C217.7188 97.8125 218.2656 98.4531 218.2656 99.5156 C218.2656 100.7188 217.5 101.4375 216.1875 101.7031 L216.2969 102.3125 C218.2188 102.2344 218.9375 103.2188 218.9375 104.4375 C218.9375 105.625 218.2344 106.4219 216.9531 106.4219 C216.25 106.4219 215.6562 106.1562 215.0938 105.7188 L215.0938 100.2031 ZM214.2031 106.9062 L214.1094 109.375 L214.2656 109.4844 L215.1562 109.2656 L215.0156 106.0938 C215.5469 106.8438 216.3594 107.1719 217.1719 107.1719 C218.5625 107.1719 219.8594 106.2188 219.8594 104.4844 C219.8594 102.9531 218.875 102.1094 217.125 102 C218.5625 101.6094 219.1875 100.4531 219.1875 99.4844 C219.1875 98.0938 218.1562 97.3125 216.9062 97.3125 C215.2969 97.3125 214.2188 98.5469 214.2188 100.5156 L214.2031 106.9062 Z"
      /><rect x="223" y="77" width="6" style="fill:white; stroke:none;" height="10"
      /><path style="stroke:none;" d="M226.3438 86.6875 C225.2031 86.6875 224.5312 85.5 224.5312 83.2969 C224.5312 83.2188 224.5312 83.125 224.5312 83.0469 C225.0938 82.5 225.7188 82.3125 226.3438 82.3125 C227.3125 82.3125 227.9531 82.9844 227.9531 84.4531 C227.9531 85.9375 227.3125 86.6875 226.3438 86.6875 ZM228.5312 78.0781 C225.3438 78.4531 223.5625 80.7656 223.5625 83.4531 C223.5625 85.7812 224.6094 87.1719 226.3125 87.1719 C227.8438 87.1719 228.9219 86.1094 228.9219 84.2812 C228.9219 82.6875 227.9688 81.6562 226.5625 81.6562 C225.8281 81.6562 225.1406 81.9844 224.5781 82.5781 C224.7969 80.4062 226.0781 78.9688 228.5938 78.3906 L228.5312 78.0781 Z"
      /><rect x="204" y="59" width="8" style="fill:white; stroke:none;" height="8"
      /><path style="stroke:none;" d="M208.9844 64.7031 C208.9375 65.8906 208.1562 66.6562 207.3125 66.6562 C206.2656 66.6562 205.5 65.6875 205.5 63.7188 C205.5 62.2812 206.1562 61.1562 207.3438 61.1562 C208.1406 61.1562 208.7812 61.6875 209.0938 62.6406 L208.9844 64.7031 ZM210.9062 66.2812 C210.7344 66.375 210.5469 66.4219 210.3438 66.4219 C209.9531 66.4219 209.75 66.2188 209.75 65.4219 C209.75 64.4844 209.9688 62.5312 210.1875 60.8281 L210.0312 60.7188 L209.2344 60.9219 L209.1406 61.7969 C208.7812 61.0312 208.1562 60.6562 207.3906 60.6562 C206.0469 60.6562 204.5625 61.8438 204.5625 63.9531 C204.5625 66.0938 205.7188 67.1719 207.1406 67.1719 C208.0156 67.1719 208.6875 66.8125 209.0938 65.9844 C209.2031 66.8594 209.5156 67.1719 210.0156 67.1719 C210.4688 67.1719 210.7969 66.9062 211.0156 66.5625 L210.9062 66.2812 Z"
      /><rect x="278" y="96" width="7" style="fill:white; stroke:none;" height="9"
      /><path style="stroke:none;" d="M279 101.5156 L281.9531 97.2656 L281.9531 101.5156 L279 101.5156 ZM284.2812 101.5156 L282.8594 101.5156 L282.8594 96.125 L282.2344 96.125 L278.3438 101.6406 L278.3438 102.1875 L281.9531 102.1875 L281.9531 105 L282.8594 105 L282.8594 102.1875 L284.2812 102.1875 L284.2812 101.5156 Z"
      /><rect x="265" y="94" width="6" style="fill:white; stroke:none;" height="13"
      /><path style="stroke:none;" d="M267.0938 100.2031 C267.0938 98.6562 267.75 97.8125 268.7969 97.8125 C269.7188 97.8125 270.2656 98.4531 270.2656 99.5156 C270.2656 100.7188 269.5 101.4375 268.1875 101.7031 L268.2969 102.3125 C270.2188 102.2344 270.9375 103.2188 270.9375 104.4375 C270.9375 105.625 270.2344 106.4219 268.9531 106.4219 C268.25 106.4219 267.6562 106.1562 267.0938 105.7188 L267.0938 100.2031 ZM266.2031 106.9062 L266.1094 109.375 L266.2656 109.4844 L267.1562 109.2656 L267.0156 106.0938 C267.5469 106.8438 268.3594 107.1719 269.1719 107.1719 C270.5625 107.1719 271.8594 106.2188 271.8594 104.4844 C271.8594 102.9531 270.875 102.1094 269.125 102 C270.5625 101.6094 271.1875 100.4531 271.1875 99.4844 C271.1875 98.0938 270.1562 97.3125 268.9062 97.3125 C267.2969 97.3125 266.2188 98.5469 266.2188 100.5156 L266.2031 106.9062 Z"
      /><rect x="358" y="107" width="6" style="fill:white; stroke:none;" height="10"
      /><path style="stroke:none;" d="M360.2344 108.6562 C360.5156 108.5938 360.7656 108.5625 361.0156 108.5625 C362.0625 108.5625 362.6719 109.1719 362.6719 110.2656 C362.6719 111.4375 361.9062 112.1094 360.7031 112.1094 L360.1875 112.1094 L360.1875 112.6406 L360.7969 112.6406 C362.2188 112.6406 362.9062 113.4219 362.9062 114.6406 C362.9062 115.8438 362.1719 116.6875 360.875 116.6875 C360.6094 116.6875 360.3125 116.6562 360.0156 116.5625 L359.7812 115.8125 C359.625 115.2812 359.5 115.0469 359.1406 115.0469 C358.8906 115.0469 358.7031 115.1719 358.5781 115.4219 C358.8438 116.6406 359.7812 117.1719 361.0312 117.1719 C362.7188 117.1719 363.875 116.125 363.875 114.7031 C363.875 113.5 363.2031 112.625 361.7969 112.375 C362.9531 112.0156 363.6094 111.2031 363.6094 110.2031 C363.6094 108.9219 362.6719 108.0781 361.1875 108.0781 C360.0469 108.0781 359.0625 108.5938 358.7969 109.6875 C358.9062 110 359.1094 110.1094 359.3594 110.1094 C359.7344 110.1094 359.8906 109.8906 360 109.4062 L360.2344 108.6562 Z"
      /><rect x="357" y="122" width="8" style="fill:white; stroke:none;" height="8"
      /><path style="stroke:none;" d="M361.9844 127.7031 C361.9375 128.8906 361.1562 129.6562 360.3125 129.6562 C359.2656 129.6562 358.5 128.6875 358.5 126.7188 C358.5 125.2812 359.1562 124.1562 360.3438 124.1562 C361.1406 124.1562 361.7812 124.6875 362.0938 125.6406 L361.9844 127.7031 ZM363.9062 129.2812 C363.7344 129.375 363.5469 129.4219 363.3438 129.4219 C362.9531 129.4219 362.75 129.2188 362.75 128.4219 C362.75 127.4844 362.9688 125.5312 363.1875 123.8281 L363.0312 123.7188 L362.2344 123.9219 L362.1406 124.7969 C361.7812 124.0312 361.1562 123.6562 360.3906 123.6562 C359.0469 123.6562 357.5625 124.8438 357.5625 126.9531 C357.5625 129.0938 358.7188 130.1719 360.1406 130.1719 C361.0156 130.1719 361.6875 129.8125 362.0938 128.9844 C362.2031 129.8594 362.5156 130.1719 363.0156 130.1719 C363.4688 130.1719 363.7969 129.9062 364.0156 129.5625 L363.9062 129.2812 Z"
      /><rect x="330" y="96" width="7" style="fill:white; stroke:none;" height="9"
      /><path style="stroke:none;" d="M331 101.5156 L333.9531 97.2656 L333.9531 101.5156 L331 101.5156 ZM336.2812 101.5156 L334.8594 101.5156 L334.8594 96.125 L334.2344 96.125 L330.3438 101.6406 L330.3438 102.1875 L333.9531 102.1875 L333.9531 105 L334.8594 105 L334.8594 102.1875 L336.2812 102.1875 L336.2812 101.5156 Z"
      /><rect x="317" y="94" width="6" style="fill:white; stroke:none;" height="13"
      /><path style="stroke:none;" d="M319.0938 100.2031 C319.0938 98.6562 319.75 97.8125 320.7969 97.8125 C321.7188 97.8125 322.2656 98.4531 322.2656 99.5156 C322.2656 100.7188 321.5 101.4375 320.1875 101.7031 L320.2969 102.3125 C322.2188 102.2344 322.9375 103.2188 322.9375 104.4375 C322.9375 105.625 322.2344 106.4219 320.9531 106.4219 C320.25 106.4219 319.6562 106.1562 319.0938 105.7188 L319.0938 100.2031 ZM318.2031 106.9062 L318.1094 109.375 L318.2656 109.4844 L319.1562 109.2656 L319.0156 106.0938 C319.5469 106.8438 320.3594 107.1719 321.1719 107.1719 C322.5625 107.1719 323.8594 106.2188 323.8594 104.4844 C323.8594 102.9531 322.875 102.1094 321.125 102 C322.5625 101.6094 323.1875 100.4531 323.1875 99.4844 C323.1875 98.0938 322.1562 97.3125 320.9062 97.3125 C319.2969 97.3125 318.2188 98.5469 318.2188 100.5156 L318.2031 106.9062 Z"
      /><rect x="369" y="96" width="5" style="fill:white; stroke:none;" height="10"
      /><path style="stroke:none;" d="M370.8906 104.6875 C370.4844 104.6875 370.1562 105.0469 370.1562 105.4219 C370.1562 105.8125 370.4844 106.1562 370.8906 106.1562 C371.2969 106.1562 371.6406 105.8125 371.6406 105.4219 C371.6406 105.0469 371.2969 104.6875 370.8906 104.6875 ZM372.4688 98.5781 C372.7188 98.8906 372.875 99.2656 372.8906 99.6562 C372.8906 100.1875 372.625 100.5 372.0312 100.7656 L371.4062 101.0156 C370.6406 101.3125 370.3906 101.5469 370.3906 101.9375 C370.3906 102.1094 370.4531 102.3438 370.5781 102.8125 L370.7344 103.3438 L371.1094 103.3438 L371.0938 102.5312 C371.0938 102.0938 371.2031 101.9688 371.7812 101.7344 L372.2031 101.5625 C373.0312 101.2188 373.4531 100.6875 373.4531 99.8438 C373.4531 98.1562 371.6562 97.1875 370.5 97.0312 C370.1094 97.125 369.9062 97.2969 369.9062 97.6406 C369.9062 97.9375 370.0625 98.1562 370.7188 98.2656 L372.4688 98.5781 Z"
    /></g
  ></g
></svg
>
