<?xml version="1.0"?>
<!DOCTYPE svg PUBLIC '-//W3C//DTD SVG 1.0//EN'
          'http://www.w3.org/TR/2001/REC-SVG-20010904/DTD/svg10.dtd'>
<svg xmlns:xlink="http://www.w3.org/1999/xlink" style="fill-opacity:1; color-rendering:auto; color-interpolation:auto; text-rendering:auto; stroke:black; stroke-linecap:square; stroke-miterlimit:10; shape-rendering:auto; stroke-opacity:1; fill:black; stroke-dasharray:none; font-weight:normal; stroke-width:1; font-family:'Dialog'; font-style:normal; stroke-linejoin:miter; font-size:12px; stroke-dashoffset:0; image-rendering:auto;" viewBox="0 0 191 157" xmlns="http://www.w3.org/2000/svg"
><!--Generated by the Batik Graphics2D SVG Generator--><defs id="genericDefs"
  /><g
  ><defs id="defs1"
    ><clipPath clipPathUnits="userSpaceOnUse" id="clipPath1"
      ><path d="M109 67 C109 73.0751 104.0751 78 98 78 C91.9249 78 87 73.0751 87 67 C87 60.9249 91.9249 56 98 56 C104.0751 56 109 60.9249 109 67 Z"
      /></clipPath
      ><clipPath clipPathUnits="userSpaceOnUse" id="clipPath2"
      ><path d="M54 93 C54 99.0751 49.0751 104 43 104 C36.9249 104 32 99.0751 32 93 C32 86.9249 36.9249 82 43 82 C49.0751 82 54 86.9249 54 93 Z"
      /></clipPath
      ><clipPath clipPathUnits="userSpaceOnUse" id="clipPath3"
      ><path d="M54 41 C54 47.0751 49.0751 52 43 52 C36.9249 52 32 47.0751 32 41 C32 34.9249 36.9249 30 43 30 C49.0751 30 54 34.9249 54 41 Z"
      /></clipPath
    ></defs
    ><g style="fill:white; text-rendering:optimizeSpeed; stroke:white;"
    ><rect x="0" width="191" height="157" y="0" style="stroke:none;"
      /><polygon style="fill:none; stroke:black;" points=" 150 67 98 67"
      /><path d="M150 56 C144.5 61.5 155.5 72.5 150 78" style="fill:none; stroke:black;"
      /><polygon style="fill:none; stroke:black;" points=" 98 67 43 93"
      /><polygon style="fill:none; stroke:black;" points=" 98 67 43 41"
      /><circle style="clip-path:url(#clipPath1); stroke:none;" r="11" cx="98" cy="67"
      /><rect x="87" y="56" width="22" style="clip-path:url(#clipPath1); fill:rgb(0,166,81); stroke:none;" height="22"
      /><rect x="87" y="56" width="22" style="clip-path:url(#clipPath1); fill:none; stroke:black;" height="22"
      /><circle style="fill:none; stroke:black;" r="11" cx="98" cy="67"
      /><circle style="clip-path:url(#clipPath2); stroke:none;" r="11" cx="43" cy="93"
      /><rect x="32" y="82" width="22" style="clip-path:url(#clipPath2); fill:rgb(0,166,81); stroke:none;" height="22"
      /><rect x="32" y="82" width="22" style="clip-path:url(#clipPath2); fill:none; stroke:black;" height="22"
      /><circle style="fill:none; stroke:black;" r="11" cx="43" cy="93"
      /><rect x="30" y="110" width="25" style="stroke:none;" height="10"
    /></g
    ><g style="text-rendering:optimizeSpeed; font-size:14px; font-family:'SansSerif';"
    ><path style="stroke:none;" d="M33.7031 121.1875 C35.5156 121.1875 36.9844 120.0938 36.9844 118.25 C36.9844 116.8594 36.0156 115.9375 34.8125 115.6562 L34.8125 115.5938 C35.8906 115.1875 36.6406 114.3594 36.6406 113.125 C36.6406 111.5 35.375 110.5469 33.6562 110.5469 C32.4688 110.5469 31.5469 111.0625 30.7812 111.7812 L31.4688 112.5938 C32.0469 112 32.7656 111.5938 33.5938 111.5938 C34.6562 111.5938 35.3281 112.2344 35.3281 113.2188 C35.3281 114.3281 34.6094 115.1719 32.4844 115.1719 L32.4844 116.1562 C34.8594 116.1562 35.6875 116.9844 35.6875 118.2031 C35.6875 119.3906 34.8125 120.125 33.5938 120.125 C32.4375 120.125 31.6562 119.5781 31.0469 118.9375 L30.4062 119.7812 C31.0781 120.5156 32.0938 121.1875 33.7031 121.1875 ZM39.1762 121 L40.3481 121 L40.3481 115.3125 C40.3481 114.4375 40.2543 113.1875 40.1918 112.2969 L40.2543 112.2969 L41.0668 114.625 L43.0043 119.9688 L43.8793 119.9688 L45.8168 114.625 L46.6293 112.2969 L46.6918 112.2969 C46.6137 113.1875 46.52 114.4375 46.52 115.3125 L46.52 121 L47.7387 121 L47.7387 110.7188 L46.1762 110.7188 L44.2075 116.2188 C43.9731 116.9375 43.7543 117.6562 43.5043 118.375 L43.4418 118.375 C43.1918 117.6562 42.9575 116.9375 42.7075 116.2188 L40.7387 110.7188 L39.1762 110.7188 L39.1762 121 ZM53.4973 121.1875 C54.5285 121.1875 55.341 120.8281 56.0129 120.3906 L55.5442 119.5625 C54.9973 119.9375 54.3879 120.1562 53.6535 120.1562 C52.2004 120.1562 51.216 119.125 51.1223 117.5 L56.2473 117.5 C56.2785 117.3125 56.3098 117.0469 56.3098 116.7656 C56.3098 114.6094 55.216 113.2031 53.2785 113.2031 C51.5129 113.2031 49.8567 114.7344 49.8567 117.2031 C49.8567 119.7188 51.4817 121.1875 53.4973 121.1875 ZM51.1067 116.5781 C51.2629 115.0938 52.216 114.2188 53.2942 114.2188 C54.4817 114.2188 55.1848 115.0469 55.1848 116.5781 L51.1067 116.5781 Z"
    /></g
    ><g style="fill:white; text-rendering:optimizeSpeed; stroke:white;"
    ><circle r="11" style="clip-path:url(#clipPath3); stroke:none;" cx="43" cy="41"
      /><rect x="32" y="30" width="22" style="clip-path:url(#clipPath3); fill:rgb(0,166,81); stroke:none;" height="22"
      /><rect x="32" y="30" width="22" style="clip-path:url(#clipPath3); fill:none; stroke:black;" height="22"
      /><circle r="11" style="fill:none; stroke:black;" cx="43" cy="41"
      /><rect x="80" width="6" height="10" y="77" style="stroke:none;"
      /><path d="M82.2344 78.6562 C82.5156 78.5938 82.7656 78.5625 83.0156 78.5625 C84.0625 78.5625 84.6719 79.1719 84.6719 80.2656 C84.6719 81.4375 83.9062 82.1094 82.7031 82.1094 L82.1875 82.1094 L82.1875 82.6406 L82.7969 82.6406 C84.2188 82.6406 84.9062 83.4219 84.9062 84.6406 C84.9062 85.8438 84.1719 86.6875 82.875 86.6875 C82.6094 86.6875 82.3125 86.6562 82.0156 86.5625 L81.7812 85.8125 C81.625 85.2812 81.5 85.0469 81.1406 85.0469 C80.8906 85.0469 80.7031 85.1719 80.5781 85.4219 C80.8438 86.6406 81.7812 87.1719 83.0312 87.1719 C84.7188 87.1719 85.875 86.125 85.875 84.7031 C85.875 83.5 85.2031 82.625 83.7969 82.375 C84.9531 82.0156 85.6094 81.2031 85.6094 80.2031 C85.6094 78.9219 84.6719 78.0781 83.1875 78.0781 C82.0469 78.0781 81.0625 78.5938 80.7969 79.6875 C80.9062 80 81.1094 80.1094 81.3594 80.1094 C81.7344 80.1094 81.8906 79.8906 82 79.4062 L82.2344 78.6562 Z" style="fill:black; stroke:none;"
      /><rect x="63" width="8" height="8" y="86" style="stroke:none;"
      /><path d="M67.9844 91.7031 C67.9375 92.8906 67.1562 93.6562 66.3125 93.6562 C65.2656 93.6562 64.5 92.6875 64.5 90.7188 C64.5 89.2812 65.1562 88.1562 66.3438 88.1562 C67.1406 88.1562 67.7812 88.6875 68.0938 89.6406 L67.9844 91.7031 ZM69.9062 93.2812 C69.7344 93.375 69.5469 93.4219 69.3438 93.4219 C68.9531 93.4219 68.75 93.2188 68.75 92.4219 C68.75 91.4844 68.9688 89.5312 69.1875 87.8281 L69.0312 87.7188 L68.2344 87.9219 L68.1406 88.7969 C67.7812 88.0312 67.1562 87.6562 66.3906 87.6562 C65.0469 87.6562 63.5625 88.8438 63.5625 90.9531 C63.5625 93.0938 64.7188 94.1719 66.1406 94.1719 C67.0156 94.1719 67.6875 93.8125 68.0938 92.9844 C68.2031 93.8594 68.5156 94.1719 69.0156 94.1719 C69.4688 94.1719 69.7969 93.9062 70.0156 93.5625 L69.9062 93.2812 Z" style="fill:black; stroke:none;"
      /><rect x="73" width="6" height="10" y="60" style="stroke:none;"
      /><path d="M76.3438 69.6875 C75.2031 69.6875 74.5312 68.5 74.5312 66.2969 C74.5312 66.2188 74.5312 66.125 74.5312 66.0469 C75.0938 65.5 75.7188 65.3125 76.3438 65.3125 C77.3125 65.3125 77.9531 65.9844 77.9531 67.4531 C77.9531 68.9375 77.3125 69.6875 76.3438 69.6875 ZM78.5312 61.0781 C75.3438 61.4531 73.5625 63.7656 73.5625 66.4531 C73.5625 68.7812 74.6094 70.1719 76.3125 70.1719 C77.8438 70.1719 78.9219 69.1094 78.9219 67.2812 C78.9219 65.6875 77.9688 64.6562 76.5625 64.6562 C75.8281 64.6562 75.1406 64.9844 74.5781 65.5781 C74.7969 63.4062 76.0781 61.9688 78.5938 61.3906 L78.5312 61.0781 Z" style="fill:black; stroke:none;"
      /><rect x="53" width="8" height="8" y="52" style="stroke:none;"
      /><path d="M57.9844 57.7031 C57.9375 58.8906 57.1562 59.6562 56.3125 59.6562 C55.2656 59.6562 54.5 58.6875 54.5 56.7188 C54.5 55.2812 55.1562 54.1562 56.3438 54.1562 C57.1406 54.1562 57.7812 54.6875 58.0938 55.6406 L57.9844 57.7031 ZM59.9062 59.2812 C59.7344 59.375 59.5469 59.4219 59.3438 59.4219 C58.9531 59.4219 58.75 59.2188 58.75 58.4219 C58.75 57.4844 58.9688 55.5312 59.1875 53.8281 L59.0312 53.7188 L58.2344 53.9219 L58.1406 54.7969 C57.7812 54.0312 57.1562 53.6562 56.3906 53.6562 C55.0469 53.6562 53.5625 54.8438 53.5625 56.9531 C53.5625 59.0938 54.7188 60.1719 56.1406 60.1719 C57.0156 60.1719 57.6875 59.8125 58.0938 58.9844 C58.2031 59.8594 58.5156 60.1719 59.0156 60.1719 C59.4688 60.1719 59.7969 59.9062 60.0156 59.5625 L59.9062 59.2812 Z" style="fill:black; stroke:none;"
      /><rect x="114" width="6" height="13" y="68" style="stroke:none;"
      /><path d="M116.0938 74.2031 C116.0938 72.6562 116.75 71.8125 117.7969 71.8125 C118.7188 71.8125 119.2656 72.4531 119.2656 73.5156 C119.2656 74.7188 118.5 75.4375 117.1875 75.7031 L117.2969 76.3125 C119.2188 76.2344 119.9375 77.2188 119.9375 78.4375 C119.9375 79.625 119.2344 80.4219 117.9531 80.4219 C117.25 80.4219 116.6562 80.1562 116.0938 79.7188 L116.0938 74.2031 ZM115.2031 80.9062 L115.1094 83.375 L115.2656 83.4844 L116.1562 83.2656 L116.0156 80.0938 C116.5469 80.8438 117.3594 81.1719 118.1719 81.1719 C119.5625 81.1719 120.8594 80.2188 120.8594 78.4844 C120.8594 76.9531 119.875 76.1094 118.125 76 C119.5625 75.6094 120.1875 74.4531 120.1875 73.4844 C120.1875 72.0938 119.1562 71.3125 117.9062 71.3125 C116.2969 71.3125 115.2188 72.5469 115.2188 74.5156 L115.2031 80.9062 Z" style="fill:black; stroke:none;"
    /></g
  ></g
></svg
>
