<?xml version="1.0"?>
<!DOCTYPE svg PUBLIC '-//W3C//DTD SVG 1.0//EN'
          'http://www.w3.org/TR/2001/REC-SVG-20010904/DTD/svg10.dtd'>
<svg xmlns:xlink="http://www.w3.org/1999/xlink" style="fill-opacity:1; color-rendering:auto; color-interpolation:auto; text-rendering:auto; stroke:black; stroke-linecap:square; stroke-miterlimit:10; shape-rendering:auto; stroke-opacity:1; fill:black; stroke-dasharray:none; font-weight:normal; stroke-width:1; font-family:'Dialog'; font-style:normal; stroke-linejoin:miter; font-size:12px; stroke-dashoffset:0; image-rendering:auto;" viewBox="0 0 143 365" xmlns="http://www.w3.org/2000/svg"
><!--Generated by the Batik Graphics2D SVG Generator--><defs id="genericDefs"
  /><g
  ><defs id="defs1"
    ><clipPath clipPathUnits="userSpaceOnUse" id="clipPath1"
      ><path style="fill-rule:evenodd;" d="M58 313 L69 324 L58 335 L47 324 Z"
      /></clipPath
      ><clipPath clipPathUnits="userSpaceOnUse" id="clipPath2"
      ><path d="M47 261 L69 261 L69 283 L47 283 L47 261 Z"
      /></clipPath
      ><clipPath clipPathUnits="userSpaceOnUse" id="clipPath3"
      ><path d="M69 220 C69 226.0751 64.0751 231 58 231 C51.9249 231 47 226.0751 47 220 C47 213.9249 51.9249 209 58 209 C64.0751 209 69 213.9249 69 220 Z"
      /></clipPath
      ><clipPath clipPathUnits="userSpaceOnUse" id="clipPath4"
      ><path d="M47 157 L69 157 L69 179 L47 179 L47 157 Z"
      /></clipPath
      ><clipPath clipPathUnits="userSpaceOnUse" id="clipPath5"
      ><path d="M69 93 C69 99.0751 64.0751 104 58 104 C51.9249 104 47 99.0751 47 93 C47 86.9249 51.9249 82 58 82 C64.0751 82 69 86.9249 69 93 Z"
      /></clipPath
      ><clipPath clipPathUnits="userSpaceOnUse" id="clipPath6"
      ><path d="M69 41 C69 47.0751 64.0751 52 58 52 C51.9249 52 47 47.0751 47 41 C47 34.9249 51.9249 30 58 30 C64.0751 30 69 34.9249 69 41 Z"
      /></clipPath
    ></defs
    ><g style="fill:white; text-rendering:optimizeSpeed; stroke:white;"
    ><rect x="0" width="143" height="365" y="0" style="stroke:none;"
      /><polygon style="clip-path:url(#clipPath1); stroke:none;" points=" 58 313 69 324 58 335 47 324"
      /><rect x="47" y="313" width="22" style="clip-path:url(#clipPath1); fill:rgb(165,67,153); stroke:none;" height="22"
      /><rect x="47" y="313" width="22" style="clip-path:url(#clipPath1); fill:none; stroke:black;" height="22"
      /><polygon style="fill:none; stroke:black;" points=" 58 313 69 324 58 335 47 324"
      /><rect x="74" y="311" width="5" style="stroke:none;" height="10"
    /></g
    ><g style="font-family:'Serif'; text-rendering:optimizeSpeed; "
    ><path style="stroke:none;" d="M75.8906 319.6875 C75.4844 319.6875 75.1562 320.0469 75.1562 320.4219 C75.1562 320.8125 75.4844 321.1562 75.8906 321.1562 C76.2969 321.1562 76.6406 320.8125 76.6406 320.4219 C76.6406 320.0469 76.2969 319.6875 75.8906 319.6875 ZM77.4688 313.5781 C77.7188 313.8906 77.875 314.2656 77.8906 314.6562 C77.8906 315.1875 77.625 315.5 77.0312 315.7656 L76.4062 316.0156 C75.6406 316.3125 75.3906 316.5469 75.3906 316.9375 C75.3906 317.1094 75.4531 317.3438 75.5781 317.8125 L75.7344 318.3438 L76.1094 318.3438 L76.0938 317.5312 C76.0938 317.0938 76.2031 316.9688 76.7812 316.7344 L77.2031 316.5625 C78.0312 316.2188 78.4531 315.6875 78.4531 314.8438 C78.4531 313.1562 76.6562 312.1875 75.5 312.0312 C75.1094 312.125 74.9062 312.2969 74.9062 312.6406 C74.9062 312.9375 75.0625 313.1562 75.7188 313.2656 L77.4688 313.5781 Z"
      /><rect x="74" y="327" width="5" style="fill:white; stroke:none;" height="10"
      /><path style="stroke:none;" d="M75.8906 335.6875 C75.4844 335.6875 75.1562 336.0469 75.1562 336.4219 C75.1562 336.8125 75.4844 337.1562 75.8906 337.1562 C76.2969 337.1562 76.6406 336.8125 76.6406 336.4219 C76.6406 336.0469 76.2969 335.6875 75.8906 335.6875 ZM77.4688 329.5781 C77.7188 329.8906 77.875 330.2656 77.8906 330.6562 C77.8906 331.1875 77.625 331.5 77.0312 331.7656 L76.4062 332.0156 C75.6406 332.3125 75.3906 332.5469 75.3906 332.9375 C75.3906 333.1094 75.4531 333.3438 75.5781 333.8125 L75.7344 334.3438 L76.1094 334.3438 L76.0938 333.5312 C76.0938 333.0938 76.2031 332.9688 76.7812 332.7344 L77.2031 332.5625 C78.0312 332.2188 78.4531 331.6875 78.4531 330.8438 C78.4531 329.1562 76.6562 328.1875 75.5 328.0312 C75.1094 328.125 74.9062 328.2969 74.9062 328.6406 C74.9062 328.9375 75.0625 329.1562 75.7188 329.2656 L77.4688 329.5781 Z"
      /><rect x="47" y="261" width="22" style="clip-path:url(#clipPath2); fill:white; stroke:none;" height="22"
      /><rect x="47" y="261" width="22" style="clip-path:url(#clipPath2); fill:rgb(0,144,188); stroke:none;" height="22"
      /><rect x="47" y="261" width="22" style="fill:none; clip-path:url(#clipPath2);" height="22"
      /><rect x="47" width="22" height="22" y="261" style="fill:none;"
      /><rect x="74" y="259" width="5" style="fill:white; stroke:none;" height="10"
      /><path style="stroke:none;" d="M75.8906 267.6875 C75.4844 267.6875 75.1562 268.0469 75.1562 268.4219 C75.1562 268.8125 75.4844 269.1562 75.8906 269.1562 C76.2969 269.1562 76.6406 268.8125 76.6406 268.4219 C76.6406 268.0469 76.2969 267.6875 75.8906 267.6875 ZM77.4688 261.5781 C77.7188 261.8906 77.875 262.2656 77.8906 262.6562 C77.8906 263.1875 77.625 263.5 77.0312 263.7656 L76.4062 264.0156 C75.6406 264.3125 75.3906 264.5469 75.3906 264.9375 C75.3906 265.1094 75.4531 265.3438 75.5781 265.8125 L75.7344 266.3438 L76.1094 266.3438 L76.0938 265.5312 C76.0938 265.0938 76.2031 264.9688 76.7812 264.7344 L77.2031 264.5625 C78.0312 264.2188 78.4531 263.6875 78.4531 262.8438 C78.4531 261.1562 76.6562 260.1875 75.5 260.0312 C75.1094 260.125 74.9062 260.2969 74.9062 260.6406 C74.9062 260.9375 75.0625 261.1562 75.7188 261.2656 L77.4688 261.5781 Z"
      /><rect x="74" y="275" width="5" style="fill:white; stroke:none;" height="10"
      /><path style="stroke:none;" d="M75.8906 283.6875 C75.4844 283.6875 75.1562 284.0469 75.1562 284.4219 C75.1562 284.8125 75.4844 285.1562 75.8906 285.1562 C76.2969 285.1562 76.6406 284.8125 76.6406 284.4219 C76.6406 284.0469 76.2969 283.6875 75.8906 283.6875 ZM77.4688 277.5781 C77.7188 277.8906 77.875 278.2656 77.8906 278.6562 C77.8906 279.1875 77.625 279.5 77.0312 279.7656 L76.4062 280.0156 C75.6406 280.3125 75.3906 280.5469 75.3906 280.9375 C75.3906 281.1094 75.4531 281.3438 75.5781 281.8125 L75.7344 282.3438 L76.1094 282.3438 L76.0938 281.5312 C76.0938 281.0938 76.2031 280.9688 76.7812 280.7344 L77.2031 280.5625 C78.0312 280.2188 78.4531 279.6875 78.4531 278.8438 C78.4531 277.1562 76.6562 276.1875 75.5 276.0312 C75.1094 276.125 74.9062 276.2969 74.9062 276.6406 C74.9062 276.9375 75.0625 277.1562 75.7188 277.2656 L77.4688 277.5781 Z"
      /><path style="stroke:none;" d="M33.1094 271.5781 C34.3438 271.5781 34.9688 272.4688 34.9688 273.8438 C34.9688 275.25 34.1875 276.1875 33.2188 276.1875 C31.9219 276.1875 31.1562 275.0312 31 272.8906 C31.625 271.9531 32.4531 271.5781 33.1094 271.5781 ZM33.2188 277.1875 C34.8125 277.1875 36.1562 275.8438 36.1562 273.8438 C36.1562 271.7031 35.0469 270.625 33.3125 270.625 C32.5 270.625 31.6094 271.1094 30.9688 271.875 C31.0312 268.6875 32.2188 267.6094 33.625 267.6094 C34.25 267.6094 34.8594 267.9062 35.2656 268.3906 L35.9688 267.5938 C35.4062 266.9844 34.6406 266.5469 33.5781 266.5469 C31.5938 266.5469 29.7812 268.0781 29.7812 272.0938 C29.7812 275.4844 31.2344 277.1875 33.2188 277.1875 ZM36.9731 277 L38.3168 277 L39.3481 275.2188 C39.6137 274.7656 39.8637 274.2969 40.1293 273.8594 L40.2075 273.8594 C40.4731 274.2969 40.7543 274.7656 41.0043 275.2188 L42.1293 277 L43.5356 277 L41.02 273.1562 L43.3325 269.3906 L42.0043 269.3906 L41.0668 271.0625 C40.8481 271.5 40.6137 271.9219 40.3793 272.3438 L40.3325 272.3438 C40.0668 271.9219 39.8012 271.5 39.5668 271.0625 L38.5512 269.3906 L37.1762 269.3906 L39.4887 273.0312 L36.9731 277 Z"
    /></g
    ><g style="fill:white; text-rendering:optimizeSpeed; font-size:14px; font-family:'SansSerif'; stroke:white;"
    ><circle r="11" style="clip-path:url(#clipPath3); stroke:none;" cx="58" cy="220"
      /><rect x="47" y="209" width="22" style="clip-path:url(#clipPath3); fill:rgb(0,166,81); stroke:none;" height="22"
      /><rect x="47" y="209" width="22" style="clip-path:url(#clipPath3); fill:none; stroke:black;" height="22"
      /><circle r="11" style="fill:none; stroke:black;" cx="58" cy="220"
      /><rect x="74" width="5" height="10" y="207" style="stroke:none;"
    /></g
    ><g style="font-family:'Serif'; text-rendering:optimizeSpeed; "
    ><path style="stroke:none;" d="M75.8906 215.6875 C75.4844 215.6875 75.1562 216.0469 75.1562 216.4219 C75.1562 216.8125 75.4844 217.1562 75.8906 217.1562 C76.2969 217.1562 76.6406 216.8125 76.6406 216.4219 C76.6406 216.0469 76.2969 215.6875 75.8906 215.6875 ZM77.4688 209.5781 C77.7188 209.8906 77.875 210.2656 77.8906 210.6562 C77.8906 211.1875 77.625 211.5 77.0312 211.7656 L76.4062 212.0156 C75.6406 212.3125 75.3906 212.5469 75.3906 212.9375 C75.3906 213.1094 75.4531 213.3438 75.5781 213.8125 L75.7344 214.3438 L76.1094 214.3438 L76.0938 213.5312 C76.0938 213.0938 76.2031 212.9688 76.7812 212.7344 L77.2031 212.5625 C78.0312 212.2188 78.4531 211.6875 78.4531 210.8438 C78.4531 209.1562 76.6562 208.1875 75.5 208.0312 C75.1094 208.125 74.9062 208.2969 74.9062 208.6406 C74.9062 208.9375 75.0625 209.1562 75.7188 209.2656 L77.4688 209.5781 Z"
      /><rect x="74" y="223" width="5" style="fill:white; stroke:none;" height="10"
      /><path style="stroke:none;" d="M75.8906 231.6875 C75.4844 231.6875 75.1562 232.0469 75.1562 232.4219 C75.1562 232.8125 75.4844 233.1562 75.8906 233.1562 C76.2969 233.1562 76.6406 232.8125 76.6406 232.4219 C76.6406 232.0469 76.2969 231.6875 75.8906 231.6875 ZM77.4688 225.5781 C77.7188 225.8906 77.875 226.2656 77.8906 226.6562 C77.8906 227.1875 77.625 227.5 77.0312 227.7656 L76.4062 228.0156 C75.6406 228.3125 75.3906 228.5469 75.3906 228.9375 C75.3906 229.1094 75.4531 229.3438 75.5781 229.8125 L75.7344 230.3438 L76.1094 230.3438 L76.0938 229.5312 C76.0938 229.0938 76.2031 228.9688 76.7812 228.7344 L77.2031 228.5625 C78.0312 228.2188 78.4531 227.6875 78.4531 226.8438 C78.4531 225.1562 76.6562 224.1875 75.5 224.0312 C75.1094 224.125 74.9062 224.2969 74.9062 224.6406 C74.9062 224.9375 75.0625 225.1562 75.7188 225.2656 L77.4688 225.5781 Z"
      /><path style="stroke:none;" d="M32.7031 225.1875 C34.5156 225.1875 35.9844 224.0938 35.9844 222.25 C35.9844 220.8594 35.0156 219.9375 33.8125 219.6562 L33.8125 219.5938 C34.8906 219.1875 35.6406 218.3594 35.6406 217.125 C35.6406 215.5 34.375 214.5469 32.6562 214.5469 C31.4688 214.5469 30.5469 215.0625 29.7812 215.7812 L30.4688 216.5938 C31.0469 216 31.7656 215.5938 32.5938 215.5938 C33.6562 215.5938 34.3281 216.2344 34.3281 217.2188 C34.3281 218.3281 33.6094 219.1719 31.4844 219.1719 L31.4844 220.1562 C33.8594 220.1562 34.6875 220.9844 34.6875 222.2031 C34.6875 223.3906 33.8125 224.125 32.5938 224.125 C31.4375 224.125 30.6562 223.5781 30.0469 222.9375 L29.4062 223.7812 C30.0781 224.5156 31.0938 225.1875 32.7031 225.1875 ZM36.9731 225 L38.3168 225 L39.3481 223.2188 C39.6137 222.7656 39.8637 222.2969 40.1293 221.8594 L40.2075 221.8594 C40.4731 222.2969 40.7543 222.7656 41.0043 223.2188 L42.1293 225 L43.5356 225 L41.02 221.1562 L43.3325 217.3906 L42.0043 217.3906 L41.0668 219.0625 C40.8481 219.5 40.6137 219.9219 40.3793 220.3438 L40.3325 220.3438 C40.0668 219.9219 39.8012 219.5 39.5668 219.0625 L38.5512 217.3906 L37.1762 217.3906 L39.4887 221.0312 L36.9731 225 Z"
    /></g
    ><g style="fill:white; text-rendering:optimizeSpeed; font-size:14px; font-family:'SansSerif'; stroke:white;"
    ><rect x="47" y="157" width="22" style="clip-path:url(#clipPath4); stroke:none;" height="22"
      /><rect x="47" y="157" width="22" style="clip-path:url(#clipPath4); fill:rgb(255,212,0); stroke:none;" height="22"
      /><rect x="47" y="157" width="22" style="clip-path:url(#clipPath4); fill:none; stroke:black;" height="22"
      /><rect x="47" y="157" width="22" style="fill:none; stroke:black;" height="22"
      /><rect x="74" width="5" height="10" y="155" style="stroke:none;"
    /></g
    ><g style="font-family:'Serif'; text-rendering:optimizeSpeed; "
    ><path style="stroke:none;" d="M75.8906 163.6875 C75.4844 163.6875 75.1562 164.0469 75.1562 164.4219 C75.1562 164.8125 75.4844 165.1562 75.8906 165.1562 C76.2969 165.1562 76.6406 164.8125 76.6406 164.4219 C76.6406 164.0469 76.2969 163.6875 75.8906 163.6875 ZM77.4688 157.5781 C77.7188 157.8906 77.875 158.2656 77.8906 158.6562 C77.8906 159.1875 77.625 159.5 77.0312 159.7656 L76.4062 160.0156 C75.6406 160.3125 75.3906 160.5469 75.3906 160.9375 C75.3906 161.1094 75.4531 161.3438 75.5781 161.8125 L75.7344 162.3438 L76.1094 162.3438 L76.0938 161.5312 C76.0938 161.0938 76.2031 160.9688 76.7812 160.7344 L77.2031 160.5625 C78.0312 160.2188 78.4531 159.6875 78.4531 158.8438 C78.4531 157.1562 76.6562 156.1875 75.5 156.0312 C75.1094 156.125 74.9062 156.2969 74.9062 156.6406 C74.9062 156.9375 75.0625 157.1562 75.7188 157.2656 L77.4688 157.5781 Z"
      /><rect x="74" y="171" width="5" style="fill:white; stroke:none;" height="10"
      /><path style="stroke:none;" d="M75.8906 179.6875 C75.4844 179.6875 75.1562 180.0469 75.1562 180.4219 C75.1562 180.8125 75.4844 181.1562 75.8906 181.1562 C76.2969 181.1562 76.6406 180.8125 76.6406 180.4219 C76.6406 180.0469 76.2969 179.6875 75.8906 179.6875 ZM77.4688 173.5781 C77.7188 173.8906 77.875 174.2656 77.8906 174.6562 C77.8906 175.1875 77.625 175.5 77.0312 175.7656 L76.4062 176.0156 C75.6406 176.3125 75.3906 176.5469 75.3906 176.9375 C75.3906 177.1094 75.4531 177.3438 75.5781 177.8125 L75.7344 178.3438 L76.1094 178.3438 L76.0938 177.5312 C76.0938 177.0938 76.2031 176.9688 76.7812 176.7344 L77.2031 176.5625 C78.0312 176.2188 78.4531 175.6875 78.4531 174.8438 C78.4531 173.1562 76.6562 172.1875 75.5 172.0312 C75.1094 172.125 74.9062 172.2969 74.9062 172.6406 C74.9062 172.9375 75.0625 173.1562 75.7188 173.2656 L77.4688 173.5781 Z"
    /></g
    ><g style="fill:white; text-rendering:optimizeSpeed; font-size:14px; font-family:'SansSerif'; stroke:white;"
    ><circle r="11" style="clip-path:url(#clipPath5); stroke:none;" cx="58" cy="93"
      /><rect x="47" y="82" width="22" style="clip-path:url(#clipPath5); fill:rgb(255,212,0); stroke:none;" height="22"
      /><rect x="47" y="82" width="22" style="clip-path:url(#clipPath5); fill:none; stroke:black;" height="22"
      /><circle r="11" style="fill:none; stroke:black;" cx="58" cy="93"
      /><rect x="50" width="15" height="10" y="110" style="stroke:none;"
      /><path d="M53.7031 121.1875 C55.5156 121.1875 56.9844 120.0938 56.9844 118.25 C56.9844 116.8594 56.0156 115.9375 54.8125 115.6562 L54.8125 115.5938 C55.8906 115.1875 56.6406 114.3594 56.6406 113.125 C56.6406 111.5 55.375 110.5469 53.6562 110.5469 C52.4688 110.5469 51.5469 111.0625 50.7812 111.7812 L51.4688 112.5938 C52.0469 112 52.7656 111.5938 53.5938 111.5938 C54.6562 111.5938 55.3281 112.2344 55.3281 113.2188 C55.3281 114.3281 54.6094 115.1719 52.4844 115.1719 L52.4844 116.1562 C54.8594 116.1562 55.6875 116.9844 55.6875 118.2031 C55.6875 119.3906 54.8125 120.125 53.5938 120.125 C52.4375 120.125 51.6562 119.5781 51.0469 118.9375 L50.4062 119.7812 C51.0781 120.5156 52.0938 121.1875 53.7031 121.1875 ZM62.02 121.1875 C64.1606 121.1875 65.5043 119.8906 65.5043 118.2656 C65.5043 116.75 64.5825 116.0469 63.395 115.5312 L61.9262 114.8906 C61.1293 114.5625 60.2387 114.1875 60.2387 113.1875 C60.2387 112.2656 60.9887 111.6719 62.145 111.6719 C63.0981 111.6719 63.8637 112.0469 64.4887 112.6406 L65.1762 111.8125 C64.4418 111.0625 63.3637 110.5469 62.145 110.5469 C60.2856 110.5469 58.9106 111.6875 58.9106 113.2656 C58.9106 114.7656 60.0512 115.5 61.0043 115.9062 L62.4887 116.5469 C63.4575 116.9844 64.1918 117.3125 64.1918 118.375 C64.1918 119.375 63.3793 120.0469 62.0356 120.0469 C60.9731 120.0469 59.9418 119.5469 59.2075 118.7812 L58.4262 119.6562 C59.3168 120.5938 60.5668 121.1875 62.02 121.1875 Z" style="fill:black; stroke:none;"
      /><rect x="74" width="5" height="10" y="80" style="stroke:none;"
    /></g
    ><g style="font-family:'Serif'; text-rendering:optimizeSpeed; "
    ><path style="stroke:none;" d="M75.8906 88.6875 C75.4844 88.6875 75.1562 89.0469 75.1562 89.4219 C75.1562 89.8125 75.4844 90.1562 75.8906 90.1562 C76.2969 90.1562 76.6406 89.8125 76.6406 89.4219 C76.6406 89.0469 76.2969 88.6875 75.8906 88.6875 ZM77.4688 82.5781 C77.7188 82.8906 77.875 83.2656 77.8906 83.6562 C77.8906 84.1875 77.625 84.5 77.0312 84.7656 L76.4062 85.0156 C75.6406 85.3125 75.3906 85.5469 75.3906 85.9375 C75.3906 86.1094 75.4531 86.3438 75.5781 86.8125 L75.7344 87.3438 L76.1094 87.3438 L76.0938 86.5312 C76.0938 86.0938 76.2031 85.9688 76.7812 85.7344 L77.2031 85.5625 C78.0312 85.2188 78.4531 84.6875 78.4531 83.8438 C78.4531 82.1562 76.6562 81.1875 75.5 81.0312 C75.1094 81.125 74.9062 81.2969 74.9062 81.6406 C74.9062 81.9375 75.0625 82.1562 75.7188 82.2656 L77.4688 82.5781 Z"
      /><rect x="74" y="96" width="5" style="fill:white; stroke:none;" height="10"
      /><path style="stroke:none;" d="M75.8906 104.6875 C75.4844 104.6875 75.1562 105.0469 75.1562 105.4219 C75.1562 105.8125 75.4844 106.1562 75.8906 106.1562 C76.2969 106.1562 76.6406 105.8125 76.6406 105.4219 C76.6406 105.0469 76.2969 104.6875 75.8906 104.6875 ZM77.4688 98.5781 C77.7188 98.8906 77.875 99.2656 77.8906 99.6562 C77.8906 100.1875 77.625 100.5 77.0312 100.7656 L76.4062 101.0156 C75.6406 101.3125 75.3906 101.5469 75.3906 101.9375 C75.3906 102.1094 75.4531 102.3438 75.5781 102.8125 L75.7344 103.3438 L76.1094 103.3438 L76.0938 102.5312 C76.0938 102.0938 76.2031 101.9688 76.7812 101.7344 L77.2031 101.5625 C78.0312 101.2188 78.4531 100.6875 78.4531 99.8438 C78.4531 98.1562 76.6562 97.1875 75.5 97.0312 C75.1094 97.125 74.9062 97.2969 74.9062 97.6406 C74.9062 97.9375 75.0625 98.1562 75.7188 98.2656 L77.4688 98.5781 Z"
      /><path style="stroke:none;" d="M32.7031 109.1875 C34.5156 109.1875 35.9844 108.0938 35.9844 106.25 C35.9844 104.8594 35.0156 103.9375 33.8125 103.6562 L33.8125 103.5938 C34.8906 103.1875 35.6406 102.3594 35.6406 101.125 C35.6406 99.5 34.375 98.5469 32.6562 98.5469 C31.4688 98.5469 30.5469 99.0625 29.7812 99.7812 L30.4688 100.5938 C31.0469 100 31.7656 99.5938 32.5938 99.5938 C33.6562 99.5938 34.3281 100.2344 34.3281 101.2188 C34.3281 102.3281 33.6094 103.1719 31.4844 103.1719 L31.4844 104.1562 C33.8594 104.1562 34.6875 104.9844 34.6875 106.2031 C34.6875 107.3906 33.8125 108.125 32.5938 108.125 C31.4375 108.125 30.6562 107.5781 30.0469 106.9375 L29.4062 107.7812 C30.0781 108.5156 31.0938 109.1875 32.7031 109.1875 ZM36.9731 109 L38.3168 109 L39.3481 107.2188 C39.6137 106.7656 39.8637 106.2969 40.1293 105.8594 L40.2075 105.8594 C40.4731 106.2969 40.7543 106.7656 41.0043 107.2188 L42.1293 109 L43.5356 109 L41.02 105.1562 L43.3325 101.3906 L42.0043 101.3906 L41.0668 103.0625 C40.8481 103.5 40.6137 103.9219 40.3793 104.3438 L40.3325 104.3438 C40.0668 103.9219 39.8012 103.5 39.5668 103.0625 L38.5512 101.3906 L37.1762 101.3906 L39.4887 105.0312 L36.9731 109 Z"
    /></g
    ><g style="fill:white; text-rendering:optimizeSpeed; font-size:14px; font-family:'SansSerif'; stroke:white;"
    ><circle r="11" style="clip-path:url(#clipPath6); stroke:none;" cx="58" cy="41"
      /><rect x="47" y="30" width="22" style="clip-path:url(#clipPath6); fill:rgb(255,212,0); stroke:none;" height="22"
      /><rect x="47" y="30" width="22" style="clip-path:url(#clipPath6); fill:none; stroke:black;" height="22"
      /><circle r="11" style="fill:none; stroke:black;" cx="58" cy="41"
      /><rect x="74" width="5" height="10" y="28" style="stroke:none;"
    /></g
    ><g style="font-family:'Serif'; text-rendering:optimizeSpeed; "
    ><path style="stroke:none;" d="M75.8906 36.6875 C75.4844 36.6875 75.1562 37.0469 75.1562 37.4219 C75.1562 37.8125 75.4844 38.1562 75.8906 38.1562 C76.2969 38.1562 76.6406 37.8125 76.6406 37.4219 C76.6406 37.0469 76.2969 36.6875 75.8906 36.6875 ZM77.4688 30.5781 C77.7188 30.8906 77.875 31.2656 77.8906 31.6562 C77.8906 32.1875 77.625 32.5 77.0312 32.7656 L76.4062 33.0156 C75.6406 33.3125 75.3906 33.5469 75.3906 33.9375 C75.3906 34.1094 75.4531 34.3438 75.5781 34.8125 L75.7344 35.3438 L76.1094 35.3438 L76.0938 34.5312 C76.0938 34.0938 76.2031 33.9688 76.7812 33.7344 L77.2031 33.5625 C78.0312 33.2188 78.4531 32.6875 78.4531 31.8438 C78.4531 30.1562 76.6562 29.1875 75.5 29.0312 C75.1094 29.125 74.9062 29.2969 74.9062 29.6406 C74.9062 29.9375 75.0625 30.1562 75.7188 30.2656 L77.4688 30.5781 Z"
      /><rect x="74" y="44" width="5" style="fill:white; stroke:none;" height="10"
      /><path style="stroke:none;" d="M75.8906 52.6875 C75.4844 52.6875 75.1562 53.0469 75.1562 53.4219 C75.1562 53.8125 75.4844 54.1562 75.8906 54.1562 C76.2969 54.1562 76.6406 53.8125 76.6406 53.4219 C76.6406 53.0469 76.2969 52.6875 75.8906 52.6875 ZM77.4688 46.5781 C77.7188 46.8906 77.875 47.2656 77.8906 47.6562 C77.8906 48.1875 77.625 48.5 77.0312 48.7656 L76.4062 49.0156 C75.6406 49.3125 75.3906 49.5469 75.3906 49.9375 C75.3906 50.1094 75.4531 50.3438 75.5781 50.8125 L75.7344 51.3438 L76.1094 51.3438 L76.0938 50.5312 C76.0938 50.0938 76.2031 49.9688 76.7812 49.7344 L77.2031 49.5625 C78.0312 49.2188 78.4531 48.6875 78.4531 47.8438 C78.4531 46.1562 76.6562 45.1875 75.5 45.0312 C75.1094 45.125 74.9062 45.2969 74.9062 45.6406 C74.9062 45.9375 75.0625 46.1562 75.7188 46.2656 L77.4688 46.5781 Z"
    /></g
  ></g
></svg
>
