<?xml version="1.0"?>
<!DOCTYPE svg PUBLIC '-//W3C//DTD SVG 1.0//EN'
          'http://www.w3.org/TR/2001/REC-SVG-20010904/DTD/svg10.dtd'>
<svg xmlns:xlink="http://www.w3.org/1999/xlink" style="fill-opacity:1; color-rendering:auto; color-interpolation:auto; text-rendering:auto; stroke:black; stroke-linecap:square; stroke-miterlimit:10; shape-rendering:auto; stroke-opacity:1; fill:black; stroke-dasharray:none; font-weight:normal; stroke-width:1; font-family:'Dialog'; font-style:normal; stroke-linejoin:miter; font-size:12px; stroke-dashoffset:0; image-rendering:auto;" viewBox="0 0 150 261" xmlns="http://www.w3.org/2000/svg"
><!--Generated by the Batik Graphics2D SVG Generator--><defs id="genericDefs"
  /><g
  ><defs id="defs1"
    ><clipPath clipPathUnits="userSpaceOnUse" id="clipPath1"
      ><path style="fill-rule:evenodd;" d="M65 209 L76 220 L65 231 L54 220 Z"
      /></clipPath
      ><clipPath clipPathUnits="userSpaceOnUse" id="clipPath2"
      ><path style="fill-rule:evenodd;" d="M65 157 L76 168 L65 179 L54 168 Z"
      /></clipPath
      ><clipPath clipPathUnits="userSpaceOnUse" id="clipPath3"
      ><path d="M76 116 C76 122.0751 71.0751 127 65 127 C58.9249 127 54 122.0751 54 116 C54 109.9249 58.9249 105 65 105 C71.0751 105 76 109.9249 76 116 Z"
      /></clipPath
      ><clipPath clipPathUnits="userSpaceOnUse" id="clipPath4"
      ><path d="M54 30 L76 30 L76 52 L54 52 L54 30 Z"
      /></clipPath
    ></defs
    ><g style="fill:white; text-rendering:optimizeSpeed; stroke:white;"
    ><rect x="0" width="150" height="261" y="0" style="stroke:none;"
      /><polygon style="clip-path:url(#clipPath1); stroke:none;" points=" 65 209 76 220 65 231 54 220"
      /><rect x="54" y="209" width="22" style="clip-path:url(#clipPath1); fill:rgb(165,67,153); stroke:none;" height="22"
      /><rect x="54" y="209" width="22" style="clip-path:url(#clipPath1); fill:none; stroke:black;" height="22"
      /><polygon style="fill:none; stroke:black;" points=" 65 209 76 220 65 231 54 220"
      /><rect x="81" y="207" width="5" style="stroke:none;" height="10"
    /></g
    ><g style="font-family:'Serif'; text-rendering:optimizeSpeed; "
    ><path style="stroke:none;" d="M82.8906 215.6875 C82.4844 215.6875 82.1562 216.0469 82.1562 216.4219 C82.1562 216.8125 82.4844 217.1562 82.8906 217.1562 C83.2969 217.1562 83.6406 216.8125 83.6406 216.4219 C83.6406 216.0469 83.2969 215.6875 82.8906 215.6875 ZM84.4688 209.5781 C84.7188 209.8906 84.875 210.2656 84.8906 210.6562 C84.8906 211.1875 84.625 211.5 84.0312 211.7656 L83.4062 212.0156 C82.6406 212.3125 82.3906 212.5469 82.3906 212.9375 C82.3906 213.1094 82.4531 213.3438 82.5781 213.8125 L82.7344 214.3438 L83.1094 214.3438 L83.0938 213.5312 C83.0938 213.0938 83.2031 212.9688 83.7812 212.7344 L84.2031 212.5625 C85.0312 212.2188 85.4531 211.6875 85.4531 210.8438 C85.4531 209.1562 83.6562 208.1875 82.5 208.0312 C82.1094 208.125 81.9062 208.2969 81.9062 208.6406 C81.9062 208.9375 82.0625 209.1562 82.7188 209.2656 L84.4688 209.5781 Z"
      /><rect x="81" y="223" width="5" style="fill:white; stroke:none;" height="10"
      /><path style="stroke:none;" d="M82.8906 231.6875 C82.4844 231.6875 82.1562 232.0469 82.1562 232.4219 C82.1562 232.8125 82.4844 233.1562 82.8906 233.1562 C83.2969 233.1562 83.6406 232.8125 83.6406 232.4219 C83.6406 232.0469 83.2969 231.6875 82.8906 231.6875 ZM84.4688 225.5781 C84.7188 225.8906 84.875 226.2656 84.8906 226.6562 C84.8906 227.1875 84.625 227.5 84.0312 227.7656 L83.4062 228.0156 C82.6406 228.3125 82.3906 228.5469 82.3906 228.9375 C82.3906 229.1094 82.4531 229.3438 82.5781 229.8125 L82.7344 230.3438 L83.1094 230.3438 L83.0938 229.5312 C83.0938 229.0938 83.2031 228.9688 83.7812 228.7344 L84.2031 228.5625 C85.0312 228.2188 85.4531 227.6875 85.4531 226.8438 C85.4531 225.1562 83.6562 224.1875 82.5 224.0312 C82.1094 224.125 81.9062 224.2969 81.9062 224.6406 C81.9062 224.9375 82.0625 225.1562 82.7188 225.2656 L84.4688 225.5781 Z"
      /><path style="stroke:none;" d="M40.1094 219.5781 C41.3438 219.5781 41.9688 220.4688 41.9688 221.8438 C41.9688 223.25 41.1875 224.1875 40.2188 224.1875 C38.9219 224.1875 38.1562 223.0312 38 220.8906 C38.625 219.9531 39.4531 219.5781 40.1094 219.5781 ZM40.2188 225.1875 C41.8125 225.1875 43.1562 223.8438 43.1562 221.8438 C43.1562 219.7031 42.0469 218.625 40.3125 218.625 C39.5 218.625 38.6094 219.1094 37.9688 219.875 C38.0312 216.6875 39.2188 215.6094 40.625 215.6094 C41.25 215.6094 41.8594 215.9062 42.2656 216.3906 L42.9688 215.5938 C42.4062 214.9844 41.6406 214.5469 40.5781 214.5469 C38.5938 214.5469 36.7812 216.0781 36.7812 220.0938 C36.7812 223.4844 38.2344 225.1875 40.2188 225.1875 ZM43.9731 225 L45.3168 225 L46.3481 223.2188 C46.6137 222.7656 46.8637 222.2969 47.1293 221.8594 L47.2075 221.8594 C47.4731 222.2969 47.7543 222.7656 48.0043 223.2188 L49.1293 225 L50.5356 225 L48.02 221.1562 L50.3325 217.3906 L49.0043 217.3906 L48.0668 219.0625 C47.8481 219.5 47.6137 219.9219 47.3793 220.3438 L47.3325 220.3438 C47.0668 219.9219 46.8012 219.5 46.5668 219.0625 L45.5512 217.3906 L44.1762 217.3906 L46.4887 221.0312 L43.9731 225 Z"
    /></g
    ><g style="fill:white; text-rendering:optimizeSpeed; font-size:14px; font-family:'SansSerif'; stroke:white;"
    ><polygon style="stroke:none; clip-path:url(#clipPath2);" points=" 65 157 76 168 65 179 54 168"
      /><rect x="54" y="157" width="22" style="clip-path:url(#clipPath2); fill:rgb(143,204,233); stroke:none;" height="22"
      /><rect x="54" y="157" width="22" style="clip-path:url(#clipPath2); fill:none; stroke:black;" height="22"
      /><polygon style="fill:none; stroke:black;" points=" 65 157 76 168 65 179 54 168"
      /><rect x="81" width="5" height="10" y="155" style="stroke:none;"
    /></g
    ><g style="font-family:'Serif'; text-rendering:optimizeSpeed; "
    ><path style="stroke:none;" d="M82.8906 163.6875 C82.4844 163.6875 82.1562 164.0469 82.1562 164.4219 C82.1562 164.8125 82.4844 165.1562 82.8906 165.1562 C83.2969 165.1562 83.6406 164.8125 83.6406 164.4219 C83.6406 164.0469 83.2969 163.6875 82.8906 163.6875 ZM84.4688 157.5781 C84.7188 157.8906 84.875 158.2656 84.8906 158.6562 C84.8906 159.1875 84.625 159.5 84.0312 159.7656 L83.4062 160.0156 C82.6406 160.3125 82.3906 160.5469 82.3906 160.9375 C82.3906 161.1094 82.4531 161.3438 82.5781 161.8125 L82.7344 162.3438 L83.1094 162.3438 L83.0938 161.5312 C83.0938 161.0938 83.2031 160.9688 83.7812 160.7344 L84.2031 160.5625 C85.0312 160.2188 85.4531 159.6875 85.4531 158.8438 C85.4531 157.1562 83.6562 156.1875 82.5 156.0312 C82.1094 156.125 81.9062 156.2969 81.9062 156.6406 C81.9062 156.9375 82.0625 157.1562 82.7188 157.2656 L84.4688 157.5781 Z"
      /><rect x="81" y="171" width="5" style="fill:white; stroke:none;" height="10"
      /><path style="stroke:none;" d="M82.8906 179.6875 C82.4844 179.6875 82.1562 180.0469 82.1562 180.4219 C82.1562 180.8125 82.4844 181.1562 82.8906 181.1562 C83.2969 181.1562 83.6406 180.8125 83.6406 180.4219 C83.6406 180.0469 83.2969 179.6875 82.8906 179.6875 ZM84.4688 173.5781 C84.7188 173.8906 84.875 174.2656 84.8906 174.6562 C84.8906 175.1875 84.625 175.5 84.0312 175.7656 L83.4062 176.0156 C82.6406 176.3125 82.3906 176.5469 82.3906 176.9375 C82.3906 177.1094 82.4531 177.3438 82.5781 177.8125 L82.7344 178.3438 L83.1094 178.3438 L83.0938 177.5312 C83.0938 177.0938 83.2031 176.9688 83.7812 176.7344 L84.2031 176.5625 C85.0312 176.2188 85.4531 175.6875 85.4531 174.8438 C85.4531 173.1562 83.6562 172.1875 82.5 172.0312 C82.1094 172.125 81.9062 172.2969 81.9062 172.6406 C81.9062 172.9375 82.0625 173.1562 82.7188 173.2656 L84.4688 173.5781 Z"
      /><path style="stroke:none;" d="M36.6094 173 L43.0625 173 L43.0625 171.8906 L40.2344 171.8906 C39.7031 171.8906 39.0781 171.9531 38.5469 171.9844 C40.9531 169.7031 42.5625 167.625 42.5625 165.5781 C42.5625 163.75 41.4219 162.5469 39.5781 162.5469 C38.2812 162.5469 37.4062 163.1406 36.5625 164.0469 L37.2969 164.7812 C37.8594 164.1094 38.5938 163.5938 39.4375 163.5938 C40.7031 163.5938 41.3125 164.4531 41.3125 165.625 C41.3125 167.3906 39.8438 169.4375 36.6094 172.25 L36.6094 173 ZM43.9731 173 L45.3168 173 L46.3481 171.2188 C46.6137 170.7656 46.8637 170.2969 47.1293 169.8594 L47.2075 169.8594 C47.4731 170.2969 47.7543 170.7656 48.0043 171.2188 L49.1293 173 L50.5356 173 L48.02 169.1562 L50.3325 165.3906 L49.0043 165.3906 L48.0668 167.0625 C47.8481 167.5 47.6137 167.9219 47.3793 168.3438 L47.3325 168.3438 C47.0668 167.9219 46.8012 167.5 46.5668 167.0625 L45.5512 165.3906 L44.1762 165.3906 L46.4887 169.0312 L43.9731 173 Z"
    /></g
    ><g style="fill:white; text-rendering:optimizeSpeed; font-size:14px; font-family:'SansSerif'; stroke:white;"
    ><circle r="11" style="clip-path:url(#clipPath3); stroke:none;" cx="65" cy="116"
      /><rect x="54" y="105" width="22" style="clip-path:url(#clipPath3); stroke:none;" height="22"
      /><rect x="54" y="105" width="22" style="clip-path:url(#clipPath3); fill:none; stroke:black;" height="22"
      /><circle r="11" style="fill:none; stroke:black;" cx="65" cy="116"
      /><path d="M59.5156 92.3594 C60.5781 92.3594 61.1094 93.1094 61.1094 94.2969 C61.1094 95.5 60.4531 96.2969 59.6094 96.2969 C58.5156 96.2969 57.8438 95.3125 57.7188 93.4844 C58.25 92.6875 58.9688 92.3594 59.5156 92.3594 ZM59.6094 97.1562 C60.9844 97.1562 62.125 96 62.125 94.2969 C62.125 92.4688 61.1875 91.5469 59.7031 91.5469 C59 91.5469 58.2344 91.9531 57.6875 92.6094 C57.7344 89.875 58.7656 88.9531 59.9531 88.9531 C60.5 88.9531 61.0312 89.2031 61.375 89.625 L61.9688 88.9375 C61.5 88.4219 60.8438 88.0312 59.9219 88.0312 C58.2188 88.0312 56.6719 89.3594 56.6719 92.7969 C56.6719 95.7031 57.9219 97.1562 59.6094 97.1562 ZM63.7694 97 L64.8632 97 L64.8632 92.2656 C65.4569 91.5938 66.0038 91.2812 66.5038 91.2812 C67.3319 91.2812 67.7069 91.7969 67.7069 93.0156 L67.7069 97 L68.8007 97 L68.8007 92.2656 C69.41 91.5938 69.9413 91.2812 70.4413 91.2812 C71.2694 91.2812 71.66 91.7969 71.66 93.0156 L71.66 97 L72.7538 97 L72.7538 92.875 C72.7538 91.2031 72.1132 90.3125 70.7694 90.3125 C69.9725 90.3125 69.3007 90.8281 68.6288 91.5625 C68.3632 90.7969 67.8163 90.3125 66.8163 90.3125 C66.0507 90.3125 65.3632 90.8125 64.8007 91.4375 L64.7538 91.4375 L64.66 90.4844 L63.7694 90.4844 L63.7694 97 Z" style="fill:black; stroke:none;"
      /><rect x="81" width="5" height="10" y="103" style="stroke:none;"
    /></g
    ><g style="font-family:'Serif'; text-rendering:optimizeSpeed; "
    ><path style="stroke:none;" d="M82.8906 111.6875 C82.4844 111.6875 82.1562 112.0469 82.1562 112.4219 C82.1562 112.8125 82.4844 113.1562 82.8906 113.1562 C83.2969 113.1562 83.6406 112.8125 83.6406 112.4219 C83.6406 112.0469 83.2969 111.6875 82.8906 111.6875 ZM84.4688 105.5781 C84.7188 105.8906 84.875 106.2656 84.8906 106.6562 C84.8906 107.1875 84.625 107.5 84.0312 107.7656 L83.4062 108.0156 C82.6406 108.3125 82.3906 108.5469 82.3906 108.9375 C82.3906 109.1094 82.4531 109.3438 82.5781 109.8125 L82.7344 110.3438 L83.1094 110.3438 L83.0938 109.5312 C83.0938 109.0938 83.2031 108.9688 83.7812 108.7344 L84.2031 108.5625 C85.0312 108.2188 85.4531 107.6875 85.4531 106.8438 C85.4531 105.1562 83.6562 104.1875 82.5 104.0312 C82.1094 104.125 81.9062 104.2969 81.9062 104.6406 C81.9062 104.9375 82.0625 105.1562 82.7188 105.2656 L84.4688 105.5781 Z"
      /><rect x="81" y="119" width="5" style="fill:white; stroke:none;" height="10"
      /><path style="stroke:none;" d="M82.8906 127.6875 C82.4844 127.6875 82.1562 128.0469 82.1562 128.4219 C82.1562 128.8125 82.4844 129.1562 82.8906 129.1562 C83.2969 129.1562 83.6406 128.8125 83.6406 128.4219 C83.6406 128.0469 83.2969 127.6875 82.8906 127.6875 ZM84.4688 121.5781 C84.7188 121.8906 84.875 122.2656 84.8906 122.6562 C84.8906 123.1875 84.625 123.5 84.0312 123.7656 L83.4062 124.0156 C82.6406 124.3125 82.3906 124.5469 82.3906 124.9375 C82.3906 125.1094 82.4531 125.3438 82.5781 125.8125 L82.7344 126.3438 L83.1094 126.3438 L83.0938 125.5312 C83.0938 125.0938 83.2031 124.9688 83.7812 124.7344 L84.2031 124.5625 C85.0312 124.2188 85.4531 123.6875 85.4531 122.8438 C85.4531 121.1562 83.6562 120.1875 82.5 120.0312 C82.1094 120.125 81.9062 120.2969 81.9062 120.6406 C81.9062 120.9375 82.0625 121.1562 82.7188 121.2656 L84.4688 121.5781 Z"
      /><path style="stroke:none;" d="M30.2344 108 L35.8594 108 L35.8594 106.9375 L33.7969 106.9375 L33.7969 97.7188 L32.8281 97.7188 C32.2656 98.0625 31.6094 98.2969 30.6875 98.4688 L30.6875 99.2812 L32.5156 99.2812 L32.5156 106.9375 L30.2344 106.9375 L30.2344 108 ZM38.3793 104.1562 L40.7231 100.6562 C41.0043 100.1406 41.2856 99.6406 41.5512 99.1406 L41.5981 99.1406 C41.5668 99.6719 41.5356 100.5 41.5356 101 L41.5356 104.1562 L38.3793 104.1562 ZM41.5356 108 L42.7387 108 L42.7387 105.1719 L44.0981 105.1719 L44.0981 104.1562 L42.7387 104.1562 L42.7387 97.7188 L41.3168 97.7188 L37.0512 104.3281 L37.0512 105.1719 L41.5356 105.1719 L41.5356 108 ZM44.7431 108 L46.0868 108 L47.1181 106.2188 C47.3837 105.7656 47.6337 105.2969 47.8993 104.8594 L47.9774 104.8594 C48.2431 105.2969 48.5243 105.7656 48.7743 106.2188 L49.8993 108 L51.3056 108 L48.7899 104.1562 L51.1024 100.3906 L49.7743 100.3906 L48.8368 102.0625 C48.6181 102.5 48.3837 102.9219 48.1493 103.3438 L48.1024 103.3438 C47.8368 102.9219 47.5712 102.5 47.3368 102.0625 L46.3212 100.3906 L44.9462 100.3906 L47.2587 104.0312 L44.7431 108 Z"
    /></g
    ><g style="fill:white; text-rendering:optimizeSpeed; font-size:14px; font-family:'SansSerif'; stroke:white;"
    ><rect x="54" y="30" width="22" style="clip-path:url(#clipPath4); stroke:none;" height="22"
      /><rect x="54" y="30" width="22" style="clip-path:url(#clipPath4); stroke:none;" height="22"
      /><rect x="54" y="30" width="22" style="clip-path:url(#clipPath4); fill:none; stroke:black;" height="22"
      /><rect x="54" y="30" width="22" style="fill:none; stroke:black;" height="22"
      /><rect x="81" width="5" height="10" y="28" style="stroke:none;"
    /></g
    ><g style="font-family:'Serif'; text-rendering:optimizeSpeed; "
    ><path style="stroke:none;" d="M82.8906 36.6875 C82.4844 36.6875 82.1562 37.0469 82.1562 37.4219 C82.1562 37.8125 82.4844 38.1562 82.8906 38.1562 C83.2969 38.1562 83.6406 37.8125 83.6406 37.4219 C83.6406 37.0469 83.2969 36.6875 82.8906 36.6875 ZM84.4688 30.5781 C84.7188 30.8906 84.875 31.2656 84.8906 31.6562 C84.8906 32.1875 84.625 32.5 84.0312 32.7656 L83.4062 33.0156 C82.6406 33.3125 82.3906 33.5469 82.3906 33.9375 C82.3906 34.1094 82.4531 34.3438 82.5781 34.8125 L82.7344 35.3438 L83.1094 35.3438 L83.0938 34.5312 C83.0938 34.0938 83.2031 33.9688 83.7812 33.7344 L84.2031 33.5625 C85.0312 33.2188 85.4531 32.6875 85.4531 31.8438 C85.4531 30.1562 83.6562 29.1875 82.5 29.0312 C82.1094 29.125 81.9062 29.2969 81.9062 29.6406 C81.9062 29.9375 82.0625 30.1562 82.7188 30.2656 L84.4688 30.5781 Z"
      /><rect x="81" y="44" width="5" style="fill:white; stroke:none;" height="10"
      /><path style="stroke:none;" d="M82.8906 52.6875 C82.4844 52.6875 82.1562 53.0469 82.1562 53.4219 C82.1562 53.8125 82.4844 54.1562 82.8906 54.1562 C83.2969 54.1562 83.6406 53.8125 83.6406 53.4219 C83.6406 53.0469 83.2969 52.6875 82.8906 52.6875 ZM84.4688 46.5781 C84.7188 46.8906 84.875 47.2656 84.8906 47.6562 C84.8906 48.1875 84.625 48.5 84.0312 48.7656 L83.4062 49.0156 C82.6406 49.3125 82.3906 49.5469 82.3906 49.9375 C82.3906 50.1094 82.4531 50.3438 82.5781 50.8125 L82.7344 51.3438 L83.1094 51.3438 L83.0938 50.5312 C83.0938 50.0938 83.2031 49.9688 83.7812 49.7344 L84.2031 49.5625 C85.0312 49.2188 85.4531 48.6875 85.4531 47.8438 C85.4531 46.1562 83.6562 45.1875 82.5 45.0312 C82.1094 45.125 81.9062 45.2969 81.9062 45.6406 C81.9062 45.9375 82.0625 46.1562 82.7188 46.2656 L84.4688 46.5781 Z"
      /><path style="stroke:none;" d="M30.2344 46 L35.8594 46 L35.8594 44.9375 L33.7969 44.9375 L33.7969 35.7188 L32.8281 35.7188 C32.2656 36.0625 31.6094 36.2969 30.6875 36.4688 L30.6875 37.2812 L32.5156 37.2812 L32.5156 44.9375 L30.2344 44.9375 L30.2344 46 ZM40.4262 46.1875 C42.1606 46.1875 43.7856 44.9062 43.7856 42.6562 C43.7856 40.4062 42.395 39.3906 40.6918 39.3906 C40.0668 39.3906 39.6293 39.5469 39.1606 39.7969 L39.4106 36.8281 L43.3012 36.8281 L43.3012 35.7188 L38.3012 35.7188 L37.9731 40.5469 L38.6606 40.9531 C39.2543 40.5625 39.6762 40.3594 40.3637 40.3594 C41.6606 40.3594 42.4887 41.2188 42.4887 42.7031 C42.4887 44.1875 41.52 45.125 40.3168 45.125 C39.1293 45.125 38.3793 44.5781 37.7856 43.9844 L37.1606 44.8281 C37.8481 45.5156 38.8325 46.1875 40.4262 46.1875 ZM44.7431 46 L46.0868 46 L47.1181 44.2188 C47.3837 43.7656 47.6337 43.2969 47.8993 42.8594 L47.9774 42.8594 C48.2431 43.2969 48.5243 43.7656 48.7743 44.2188 L49.8993 46 L51.3056 46 L48.7899 42.1562 L51.1024 38.3906 L49.7743 38.3906 L48.8368 40.0625 C48.6181 40.5 48.3837 40.9219 48.1493 41.3438 L48.1024 41.3438 C47.8368 40.9219 47.5712 40.5 47.3368 40.0625 L46.3212 38.3906 L44.9462 38.3906 L47.2587 42.0312 L44.7431 46 Z"
    /></g
  ></g
></svg
>
