<?xml version="1.0"?>
<!DOCTYPE svg PUBLIC '-//W3C//DTD SVG 1.0//EN'
          'http://www.w3.org/TR/2001/REC-SVG-20010904/DTD/svg10.dtd'>
<svg xmlns:xlink="http://www.w3.org/1999/xlink" style="fill-opacity:1; color-rendering:auto; color-interpolation:auto; text-rendering:auto; stroke:black; stroke-linecap:square; stroke-miterlimit:10; shape-rendering:auto; stroke-opacity:1; fill:black; stroke-dasharray:none; font-weight:normal; stroke-width:1; font-family:'Dialog'; font-style:normal; stroke-linejoin:miter; font-size:12px; stroke-dashoffset:0; image-rendering:auto;" viewBox="0 0 646 186" xmlns="http://www.w3.org/2000/svg"
><!--Generated by the Batik Graphics2D SVG Generator--><defs id="genericDefs"
  /><g
  ><defs id="defs1"
    ><clipPath clipPathUnits="userSpaceOnUse" id="clipPath1"
      ><path d="M542 82 L564 82 L564 104 L542 104 L542 82 Z"
      /></clipPath
      ><clipPath clipPathUnits="userSpaceOnUse" id="clipPath2"
      ><path d="M490 82 L512 82 L512 104 L490 104 L490 82 Z"
      /></clipPath
      ><clipPath clipPathUnits="userSpaceOnUse" id="clipPath3"
      ><path d="M460 93 C460 99.0751 455.0751 104 449 104 C442.9249 104 438 99.0751 438 93 C438 86.9249 442.9249 82 449 82 C455.0751 82 460 86.9249 460 93 Z"
      /></clipPath
      ><clipPath clipPathUnits="userSpaceOnUse" id="clipPath4"
      ><path d="M408 145 C408 151.0751 403.0751 156 397 156 C390.9249 156 386 151.0751 386 145 C386 138.9249 390.9249 134 397 134 C403.0751 134 408 138.9249 408 145 Z"
      /></clipPath
      ><clipPath clipPathUnits="userSpaceOnUse" id="clipPath5"
      ><path d="M334 134 L356 134 L356 156 L334 156 L334 134 Z"
      /></clipPath
      ><clipPath clipPathUnits="userSpaceOnUse" id="clipPath6"
      ><path d="M304 145 C304 151.0751 299.0751 156 293 156 C286.9249 156 282 151.0751 282 145 C282 138.9249 286.9249 134 293 134 C299.0751 134 304 138.9249 304 145 Z"
      /></clipPath
      ><clipPath clipPathUnits="userSpaceOnUse" id="clipPath7"
      ><path style="fill-rule:evenodd;" d="M241 134 L252 145 L241 156 L230 145 Z"
      /></clipPath
      ><clipPath clipPathUnits="userSpaceOnUse" id="clipPath8"
      ><path d="M408 93 C408 99.0751 403.0751 104 397 104 C390.9249 104 386 99.0751 386 93 C386 86.9249 390.9249 82 397 82 C403.0751 82 408 86.9249 408 93 Z"
      /></clipPath
      ><clipPath clipPathUnits="userSpaceOnUse" id="clipPath9"
      ><path d="M334 82 L356 82 L356 104 L334 104 L334 82 Z"
      /></clipPath
      ><clipPath clipPathUnits="userSpaceOnUse" id="clipPath10"
      ><path d="M304 93 C304 99.0751 299.0751 104 293 104 C286.9249 104 282 99.0751 282 93 C282 86.9249 286.9249 82 293 82 C299.0751 82 304 86.9249 304 93 Z"
      /></clipPath
      ><clipPath clipPathUnits="userSpaceOnUse" id="clipPath11"
      ><path d="M386 30 L408 30 L408 52 L386 52 L386 30 Z"
      /></clipPath
      ><clipPath clipPathUnits="userSpaceOnUse" id="clipPath12"
      ><path d="M134 82 L156 82 L156 104 L134 104 L134 82 Z"
      /></clipPath
      ><clipPath clipPathUnits="userSpaceOnUse" id="clipPath13"
      ><path d="M104 93 C104 99.0751 99.0751 104 93 104 C86.9249 104 82 99.0751 82 93 C82 86.9249 86.9249 82 93 82 C99.0751 82 104 86.9249 104 93 Z"
      /></clipPath
      ><clipPath clipPathUnits="userSpaceOnUse" id="clipPath14"
      ><path d="M52 93 C52 99.0751 47.0751 104 41 104 C34.9249 104 30 99.0751 30 93 C30 86.9249 34.9249 82 41 82 C47.0751 82 52 86.9249 52 93 Z"
      /></clipPath
    ></defs
    ><g style="fill:white; text-rendering:optimizeSpeed; stroke:white;"
    ><rect x="0" width="646" height="186" y="0" style="stroke:none;"
      /><polygon style="fill:none; stroke:black;" points=" 605 93 553 93"
      /><path d="M605 82 C599.5 87.5 610.5 98.5 605 104" style="fill:none; stroke:black;"
      /><polygon style="fill:none; stroke:black;" points=" 553 93 501 93"
      /><rect x="542" y="82" width="22" style="clip-path:url(#clipPath1); stroke:none;" height="22"
      /><rect x="542" y="82" width="22" style="clip-path:url(#clipPath1); fill:rgb(0,144,188); stroke:none;" height="22"
      /><rect x="542" y="82" width="22" style="clip-path:url(#clipPath1); fill:none; stroke:black;" height="22"
      /><rect x="542" y="82" width="22" style="fill:none; stroke:black;" height="22"
      /><polygon style="fill:none; stroke:black;" points=" 501 93 449 93"
      /><rect x="490" y="82" width="22" style="clip-path:url(#clipPath2); stroke:none;" height="22"
      /><rect x="490" y="82" width="22" style="clip-path:url(#clipPath2); fill:rgb(0,144,188); stroke:none;" height="22"
      /><rect x="490" y="82" width="22" style="clip-path:url(#clipPath2); fill:none; stroke:black;" height="22"
      /><rect x="490" y="82" width="22" style="fill:none; stroke:black;" height="22"
      /><polygon style="fill:none; stroke:black;" points=" 449 93 397 145"
      /><polygon style="fill:none; stroke:black;" points=" 449 93 397 93"
      /><polygon style="fill:none; stroke:black;" points=" 449 93 397 41"
      /><circle style="clip-path:url(#clipPath3); stroke:none;" r="11" cx="449" cy="93"
      /><rect x="438" y="82" width="22" style="clip-path:url(#clipPath3); fill:rgb(0,166,81); stroke:none;" height="22"
      /><rect x="438" y="82" width="22" style="clip-path:url(#clipPath3); fill:none; stroke:black;" height="22"
      /><circle style="fill:none; stroke:black;" r="11" cx="449" cy="93"
      /><polygon style="fill:none; stroke:black;" points=" 397 145 345 145"
      /><circle style="clip-path:url(#clipPath4); stroke:none;" r="11" cx="397" cy="145"
      /><rect x="386" y="134" width="22" style="clip-path:url(#clipPath4); fill:rgb(0,166,81); stroke:none;" height="22"
      /><rect x="386" y="134" width="22" style="clip-path:url(#clipPath4); fill:none; stroke:black;" height="22"
      /><circle style="fill:none; stroke:black;" r="11" cx="397" cy="145"
      /><polygon style="fill:none; stroke:black;" points=" 345 145 293 145"
      /><rect x="334" y="134" width="22" style="clip-path:url(#clipPath5); stroke:none;" height="22"
      /><rect x="334" y="134" width="22" style="clip-path:url(#clipPath5); fill:rgb(0,144,188); stroke:none;" height="22"
      /><rect x="334" y="134" width="22" style="clip-path:url(#clipPath5); fill:none; stroke:black;" height="22"
      /><rect x="334" y="134" width="22" style="fill:none; stroke:black;" height="22"
      /><polygon style="fill:none; stroke:black;" points=" 293 145 241 145"
      /><circle style="clip-path:url(#clipPath6); stroke:none;" r="11" cx="293" cy="145"
      /><rect x="282" y="134" width="22" style="clip-path:url(#clipPath6); fill:rgb(255,212,0); stroke:none;" height="22"
      /><rect x="282" y="134" width="22" style="clip-path:url(#clipPath6); fill:none; stroke:black;" height="22"
      /><circle style="fill:none; stroke:black;" r="11" cx="293" cy="145"
      /><polygon style="clip-path:url(#clipPath7); stroke:none;" points=" 241 134 252 145 241 156 230 145"
      /><rect x="230" y="134" width="22" style="clip-path:url(#clipPath7); fill:rgb(165,67,153); stroke:none;" height="22"
      /><rect x="230" y="134" width="22" style="clip-path:url(#clipPath7); fill:none; stroke:black;" height="22"
      /><polygon style="fill:none; stroke:black;" points=" 241 134 252 145 241 156 230 145"
      /><rect x="271" y="148" width="5" style="stroke:none;" height="10"
    /></g
    ><g style="font-family:'Serif'; text-rendering:optimizeSpeed; "
    ><path style="stroke:none;" d="M272.8906 156.6875 C272.4844 156.6875 272.1562 157.0469 272.1562 157.4219 C272.1562 157.8125 272.4844 158.1562 272.8906 158.1562 C273.2969 158.1562 273.6406 157.8125 273.6406 157.4219 C273.6406 157.0469 273.2969 156.6875 272.8906 156.6875 ZM274.4688 150.5781 C274.7188 150.8906 274.875 151.2656 274.8906 151.6562 C274.8906 152.1875 274.625 152.5 274.0312 152.7656 L273.4062 153.0156 C272.6406 153.3125 272.3906 153.5469 272.3906 153.9375 C272.3906 154.1094 272.4531 154.3438 272.5781 154.8125 L272.7344 155.3438 L273.1094 155.3438 L273.0938 154.5312 C273.0938 154.0938 273.2031 153.9688 273.7812 153.7344 L274.2031 153.5625 C275.0312 153.2188 275.4531 152.6875 275.4531 151.8438 C275.4531 150.1562 273.6562 149.1875 272.5 149.0312 C272.1094 149.125 271.9062 149.2969 271.9062 149.6406 C271.9062 149.9375 272.0625 150.1562 272.7188 150.2656 L274.4688 150.5781 Z"
      /><rect x="257" y="148" width="5" style="fill:white; stroke:none;" height="10"
      /><path style="stroke:none;" d="M258.8906 156.6875 C258.4844 156.6875 258.1562 157.0469 258.1562 157.4219 C258.1562 157.8125 258.4844 158.1562 258.8906 158.1562 C259.2969 158.1562 259.6406 157.8125 259.6406 157.4219 C259.6406 157.0469 259.2969 156.6875 258.8906 156.6875 ZM260.4688 150.5781 C260.7188 150.8906 260.875 151.2656 260.8906 151.6562 C260.8906 152.1875 260.625 152.5 260.0312 152.7656 L259.4062 153.0156 C258.6406 153.3125 258.3906 153.5469 258.3906 153.9375 C258.3906 154.1094 258.4531 154.3438 258.5781 154.8125 L258.7344 155.3438 L259.1094 155.3438 L259.0938 154.5312 C259.0938 154.0938 259.2031 153.9688 259.7812 153.7344 L260.2031 153.5625 C261.0312 153.2188 261.4531 152.6875 261.4531 151.8438 C261.4531 150.1562 259.6562 149.1875 258.5 149.0312 C258.1094 149.125 257.9062 149.2969 257.9062 149.6406 C257.9062 149.9375 258.0625 150.1562 258.7188 150.2656 L260.4688 150.5781 Z"
      /><rect x="323" y="148" width="5" style="fill:white; stroke:none;" height="10"
      /><path style="stroke:none;" d="M324.8906 156.6875 C324.4844 156.6875 324.1562 157.0469 324.1562 157.4219 C324.1562 157.8125 324.4844 158.1562 324.8906 158.1562 C325.2969 158.1562 325.6406 157.8125 325.6406 157.4219 C325.6406 157.0469 325.2969 156.6875 324.8906 156.6875 ZM326.4688 150.5781 C326.7188 150.8906 326.875 151.2656 326.8906 151.6562 C326.8906 152.1875 326.625 152.5 326.0312 152.7656 L325.4062 153.0156 C324.6406 153.3125 324.3906 153.5469 324.3906 153.9375 C324.3906 154.1094 324.4531 154.3438 324.5781 154.8125 L324.7344 155.3438 L325.1094 155.3438 L325.0938 154.5312 C325.0938 154.0938 325.2031 153.9688 325.7812 153.7344 L326.2031 153.5625 C327.0312 153.2188 327.4531 152.6875 327.4531 151.8438 C327.4531 150.1562 325.6562 149.1875 324.5 149.0312 C324.1094 149.125 323.9062 149.2969 323.9062 149.6406 C323.9062 149.9375 324.0625 150.1562 324.7188 150.2656 L326.4688 150.5781 Z"
      /><rect x="309" y="148" width="5" style="fill:white; stroke:none;" height="10"
      /><path style="stroke:none;" d="M310.8906 156.6875 C310.4844 156.6875 310.1562 157.0469 310.1562 157.4219 C310.1562 157.8125 310.4844 158.1562 310.8906 158.1562 C311.2969 158.1562 311.6406 157.8125 311.6406 157.4219 C311.6406 157.0469 311.2969 156.6875 310.8906 156.6875 ZM312.4688 150.5781 C312.7188 150.8906 312.875 151.2656 312.8906 151.6562 C312.8906 152.1875 312.625 152.5 312.0312 152.7656 L311.4062 153.0156 C310.6406 153.3125 310.3906 153.5469 310.3906 153.9375 C310.3906 154.1094 310.4531 154.3438 310.5781 154.8125 L310.7344 155.3438 L311.1094 155.3438 L311.0938 154.5312 C311.0938 154.0938 311.2031 153.9688 311.7812 153.7344 L312.2031 153.5625 C313.0312 153.2188 313.4531 152.6875 313.4531 151.8438 C313.4531 150.1562 311.6562 149.1875 310.5 149.0312 C310.1094 149.125 309.9062 149.2969 309.9062 149.6406 C309.9062 149.9375 310.0625 150.1562 310.7188 150.2656 L312.4688 150.5781 Z"
      /><rect x="375" y="148" width="5" style="fill:white; stroke:none;" height="10"
      /><path style="stroke:none;" d="M376.8906 156.6875 C376.4844 156.6875 376.1562 157.0469 376.1562 157.4219 C376.1562 157.8125 376.4844 158.1562 376.8906 158.1562 C377.2969 158.1562 377.6406 157.8125 377.6406 157.4219 C377.6406 157.0469 377.2969 156.6875 376.8906 156.6875 ZM378.4688 150.5781 C378.7188 150.8906 378.875 151.2656 378.8906 151.6562 C378.8906 152.1875 378.625 152.5 378.0312 152.7656 L377.4062 153.0156 C376.6406 153.3125 376.3906 153.5469 376.3906 153.9375 C376.3906 154.1094 376.4531 154.3438 376.5781 154.8125 L376.7344 155.3438 L377.1094 155.3438 L377.0938 154.5312 C377.0938 154.0938 377.2031 153.9688 377.7812 153.7344 L378.2031 153.5625 C379.0312 153.2188 379.4531 152.6875 379.4531 151.8438 C379.4531 150.1562 377.6562 149.1875 376.5 149.0312 C376.1094 149.125 375.9062 149.2969 375.9062 149.6406 C375.9062 149.9375 376.0625 150.1562 376.7188 150.2656 L378.4688 150.5781 Z"
      /><rect x="361" y="148" width="5" style="fill:white; stroke:none;" height="10"
      /><path style="stroke:none;" d="M362.8906 156.6875 C362.4844 156.6875 362.1562 157.0469 362.1562 157.4219 C362.1562 157.8125 362.4844 158.1562 362.8906 158.1562 C363.2969 158.1562 363.6406 157.8125 363.6406 157.4219 C363.6406 157.0469 363.2969 156.6875 362.8906 156.6875 ZM364.4688 150.5781 C364.7188 150.8906 364.875 151.2656 364.8906 151.6562 C364.8906 152.1875 364.625 152.5 364.0312 152.7656 L363.4062 153.0156 C362.6406 153.3125 362.3906 153.5469 362.3906 153.9375 C362.3906 154.1094 362.4531 154.3438 362.5781 154.8125 L362.7344 155.3438 L363.1094 155.3438 L363.0938 154.5312 C363.0938 154.0938 363.2031 153.9688 363.7812 153.7344 L364.2031 153.5625 C365.0312 153.2188 365.4531 152.6875 365.4531 151.8438 C365.4531 150.1562 363.6562 149.1875 362.5 149.0312 C362.1094 149.125 361.9062 149.2969 361.9062 149.6406 C361.9062 149.9375 362.0625 150.1562 362.7188 150.2656 L364.4688 150.5781 Z"
      /><polygon style="fill:none;" points=" 397 93 345 93"
      /><circle style="fill:white; clip-path:url(#clipPath8); stroke:none;" r="11" cx="397" cy="93"
      /><rect x="386" y="82" width="22" style="clip-path:url(#clipPath8); fill:rgb(0,166,81); stroke:none;" height="22"
      /><rect x="386" y="82" width="22" style="fill:none; clip-path:url(#clipPath8);" height="22"
      /><circle r="11" style="fill:none;" cx="397" cy="93"
      /><polygon style="fill:none;" points=" 345 93 293 93"
      /><rect x="334" y="82" width="22" style="clip-path:url(#clipPath9); fill:white; stroke:none;" height="22"
      /><rect x="334" y="82" width="22" style="clip-path:url(#clipPath9); fill:rgb(0,144,188); stroke:none;" height="22"
      /><rect x="334" y="82" width="22" style="fill:none; clip-path:url(#clipPath9);" height="22"
      /><rect x="334" width="22" height="22" y="82" style="fill:none;"
      /><circle style="fill:white; clip-path:url(#clipPath10); stroke:none;" r="11" cx="293" cy="93"
      /><rect x="282" y="82" width="22" style="clip-path:url(#clipPath10); fill:rgb(255,212,0); stroke:none;" height="22"
      /><rect x="282" y="82" width="22" style="fill:none; clip-path:url(#clipPath10);" height="22"
      /><circle r="11" style="fill:none;" cx="293" cy="93"
      /><rect x="323" y="96" width="5" style="fill:white; stroke:none;" height="10"
      /><path style="stroke:none;" d="M324.8906 104.6875 C324.4844 104.6875 324.1562 105.0469 324.1562 105.4219 C324.1562 105.8125 324.4844 106.1562 324.8906 106.1562 C325.2969 106.1562 325.6406 105.8125 325.6406 105.4219 C325.6406 105.0469 325.2969 104.6875 324.8906 104.6875 ZM326.4688 98.5781 C326.7188 98.8906 326.875 99.2656 326.8906 99.6562 C326.8906 100.1875 326.625 100.5 326.0312 100.7656 L325.4062 101.0156 C324.6406 101.3125 324.3906 101.5469 324.3906 101.9375 C324.3906 102.1094 324.4531 102.3438 324.5781 102.8125 L324.7344 103.3438 L325.1094 103.3438 L325.0938 102.5312 C325.0938 102.0938 325.2031 101.9688 325.7812 101.7344 L326.2031 101.5625 C327.0312 101.2188 327.4531 100.6875 327.4531 99.8438 C327.4531 98.1562 325.6562 97.1875 324.5 97.0312 C324.1094 97.125 323.9062 97.2969 323.9062 97.6406 C323.9062 97.9375 324.0625 98.1562 324.7188 98.2656 L326.4688 98.5781 Z"
      /><rect x="309" y="96" width="5" style="fill:white; stroke:none;" height="10"
      /><path style="stroke:none;" d="M310.8906 104.6875 C310.4844 104.6875 310.1562 105.0469 310.1562 105.4219 C310.1562 105.8125 310.4844 106.1562 310.8906 106.1562 C311.2969 106.1562 311.6406 105.8125 311.6406 105.4219 C311.6406 105.0469 311.2969 104.6875 310.8906 104.6875 ZM312.4688 98.5781 C312.7188 98.8906 312.875 99.2656 312.8906 99.6562 C312.8906 100.1875 312.625 100.5 312.0312 100.7656 L311.4062 101.0156 C310.6406 101.3125 310.3906 101.5469 310.3906 101.9375 C310.3906 102.1094 310.4531 102.3438 310.5781 102.8125 L310.7344 103.3438 L311.1094 103.3438 L311.0938 102.5312 C311.0938 102.0938 311.2031 101.9688 311.7812 101.7344 L312.2031 101.5625 C313.0312 101.2188 313.4531 100.6875 313.4531 99.8438 C313.4531 98.1562 311.6562 97.1875 310.5 97.0312 C310.1094 97.125 309.9062 97.2969 309.9062 97.6406 C309.9062 97.9375 310.0625 98.1562 310.7188 98.2656 L312.4688 98.5781 Z"
      /><rect x="375" y="96" width="5" style="fill:white; stroke:none;" height="10"
      /><path style="stroke:none;" d="M376.8906 104.6875 C376.4844 104.6875 376.1562 105.0469 376.1562 105.4219 C376.1562 105.8125 376.4844 106.1562 376.8906 106.1562 C377.2969 106.1562 377.6406 105.8125 377.6406 105.4219 C377.6406 105.0469 377.2969 104.6875 376.8906 104.6875 ZM378.4688 98.5781 C378.7188 98.8906 378.875 99.2656 378.8906 99.6562 C378.8906 100.1875 378.625 100.5 378.0312 100.7656 L377.4062 101.0156 C376.6406 101.3125 376.3906 101.5469 376.3906 101.9375 C376.3906 102.1094 376.4531 102.3438 376.5781 102.8125 L376.7344 103.3438 L377.1094 103.3438 L377.0938 102.5312 C377.0938 102.0938 377.2031 101.9688 377.7812 101.7344 L378.2031 101.5625 C379.0312 101.2188 379.4531 100.6875 379.4531 99.8438 C379.4531 98.1562 377.6562 97.1875 376.5 97.0312 C376.1094 97.125 375.9062 97.2969 375.9062 97.6406 C375.9062 97.9375 376.0625 98.1562 376.7188 98.2656 L378.4688 98.5781 Z"
      /><rect x="361" y="96" width="5" style="fill:white; stroke:none;" height="10"
      /><path style="stroke:none;" d="M362.8906 104.6875 C362.4844 104.6875 362.1562 105.0469 362.1562 105.4219 C362.1562 105.8125 362.4844 106.1562 362.8906 106.1562 C363.2969 106.1562 363.6406 105.8125 363.6406 105.4219 C363.6406 105.0469 363.2969 104.6875 362.8906 104.6875 ZM364.4688 98.5781 C364.7188 98.8906 364.875 99.2656 364.8906 99.6562 C364.8906 100.1875 364.625 100.5 364.0312 100.7656 L363.4062 101.0156 C362.6406 101.3125 362.3906 101.5469 362.3906 101.9375 C362.3906 102.1094 362.4531 102.3438 362.5781 102.8125 L362.7344 103.3438 L363.1094 103.3438 L363.0938 102.5312 C363.0938 102.0938 363.2031 101.9688 363.7812 101.7344 L364.2031 101.5625 C365.0312 101.2188 365.4531 100.6875 365.4531 99.8438 C365.4531 98.1562 363.6562 97.1875 362.5 97.0312 C362.1094 97.125 361.9062 97.2969 361.9062 97.6406 C361.9062 97.9375 362.0625 98.1562 362.7188 98.2656 L364.4688 98.5781 Z"
      /><rect x="386" y="30" width="22" style="clip-path:url(#clipPath11); fill:white; stroke:none;" height="22"
      /><rect x="386" y="30" width="22" style="clip-path:url(#clipPath11); fill:rgb(0,144,188); stroke:none;" height="22"
      /><rect x="386" y="30" width="22" style="fill:none; clip-path:url(#clipPath11);" height="22"
      /><rect x="386" width="22" height="22" y="30" style="fill:none;"
      /><rect x="435" y="110" width="5" style="fill:white; stroke:none;" height="10"
      /><path style="stroke:none;" d="M436.8906 118.6875 C436.4844 118.6875 436.1562 119.0469 436.1562 119.4219 C436.1562 119.8125 436.4844 120.1562 436.8906 120.1562 C437.2969 120.1562 437.6406 119.8125 437.6406 119.4219 C437.6406 119.0469 437.2969 118.6875 436.8906 118.6875 ZM438.4688 112.5781 C438.7188 112.8906 438.875 113.2656 438.8906 113.6562 C438.8906 114.1875 438.625 114.5 438.0312 114.7656 L437.4062 115.0156 C436.6406 115.3125 436.3906 115.5469 436.3906 115.9375 C436.3906 116.1094 436.4531 116.3438 436.5781 116.8125 L436.7344 117.3438 L437.1094 117.3438 L437.0938 116.5312 C437.0938 116.0938 437.2031 115.9688 437.7812 115.7344 L438.2031 115.5625 C439.0312 115.2188 439.4531 114.6875 439.4531 113.8438 C439.4531 112.1562 437.6562 111.1875 436.5 111.0312 C436.1094 111.125 435.9062 111.2969 435.9062 111.6406 C435.9062 111.9375 436.0625 112.1562 436.7188 112.2656 L438.4688 112.5781 Z"
      /><rect x="416" y="129" width="5" style="fill:white; stroke:none;" height="10"
      /><path style="stroke:none;" d="M417.8906 137.6875 C417.4844 137.6875 417.1562 138.0469 417.1562 138.4219 C417.1562 138.8125 417.4844 139.1562 417.8906 139.1562 C418.2969 139.1562 418.6406 138.8125 418.6406 138.4219 C418.6406 138.0469 418.2969 137.6875 417.8906 137.6875 ZM419.4688 131.5781 C419.7188 131.8906 419.875 132.2656 419.8906 132.6562 C419.8906 133.1875 419.625 133.5 419.0312 133.7656 L418.4062 134.0156 C417.6406 134.3125 417.3906 134.5469 417.3906 134.9375 C417.3906 135.1094 417.4531 135.3438 417.5781 135.8125 L417.7344 136.3438 L418.1094 136.3438 L418.0938 135.5312 C418.0938 135.0938 418.2031 134.9688 418.7812 134.7344 L419.2031 134.5625 C420.0312 134.2188 420.4531 133.6875 420.4531 132.8438 C420.4531 131.1562 418.6562 130.1875 417.5 130.0312 C417.1094 130.125 416.9062 130.2969 416.9062 130.6406 C416.9062 130.9375 417.0625 131.1562 417.7188 131.2656 L419.4688 131.5781 Z"
      /><rect x="427" y="96" width="5" style="fill:white; stroke:none;" height="10"
      /><path style="stroke:none;" d="M428.8906 104.6875 C428.4844 104.6875 428.1562 105.0469 428.1562 105.4219 C428.1562 105.8125 428.4844 106.1562 428.8906 106.1562 C429.2969 106.1562 429.6406 105.8125 429.6406 105.4219 C429.6406 105.0469 429.2969 104.6875 428.8906 104.6875 ZM430.4688 98.5781 C430.7188 98.8906 430.875 99.2656 430.8906 99.6562 C430.8906 100.1875 430.625 100.5 430.0312 100.7656 L429.4062 101.0156 C428.6406 101.3125 428.3906 101.5469 428.3906 101.9375 C428.3906 102.1094 428.4531 102.3438 428.5781 102.8125 L428.7344 103.3438 L429.1094 103.3438 L429.0938 102.5312 C429.0938 102.0938 429.2031 101.9688 429.7812 101.7344 L430.2031 101.5625 C431.0312 101.2188 431.4531 100.6875 431.4531 99.8438 C431.4531 98.1562 429.6562 97.1875 428.5 97.0312 C428.1094 97.125 427.9062 97.2969 427.9062 97.6406 C427.9062 97.9375 428.0625 98.1562 428.7188 98.2656 L430.4688 98.5781 Z"
      /><rect x="413" y="96" width="5" style="fill:white; stroke:none;" height="10"
      /><path style="stroke:none;" d="M414.8906 104.6875 C414.4844 104.6875 414.1562 105.0469 414.1562 105.4219 C414.1562 105.8125 414.4844 106.1562 414.8906 106.1562 C415.2969 106.1562 415.6406 105.8125 415.6406 105.4219 C415.6406 105.0469 415.2969 104.6875 414.8906 104.6875 ZM416.4688 98.5781 C416.7188 98.8906 416.875 99.2656 416.8906 99.6562 C416.8906 100.1875 416.625 100.5 416.0312 100.7656 L415.4062 101.0156 C414.6406 101.3125 414.3906 101.5469 414.3906 101.9375 C414.3906 102.1094 414.4531 102.3438 414.5781 102.8125 L414.7344 103.3438 L415.1094 103.3438 L415.0938 102.5312 C415.0938 102.0938 415.2031 101.9688 415.7812 101.7344 L416.2031 101.5625 C417.0312 101.2188 417.4531 100.6875 417.4531 99.8438 C417.4531 98.1562 415.6562 97.1875 414.5 97.0312 C414.1094 97.125 413.9062 97.2969 413.9062 97.6406 C413.9062 97.9375 414.0625 98.1562 414.7188 98.2656 L416.4688 98.5781 Z"
      /><rect x="424" y="77" width="5" style="fill:white; stroke:none;" height="10"
      /><path style="stroke:none;" d="M425.8906 85.6875 C425.4844 85.6875 425.1562 86.0469 425.1562 86.4219 C425.1562 86.8125 425.4844 87.1562 425.8906 87.1562 C426.2969 87.1562 426.6406 86.8125 426.6406 86.4219 C426.6406 86.0469 426.2969 85.6875 425.8906 85.6875 ZM427.4688 79.5781 C427.7188 79.8906 427.875 80.2656 427.8906 80.6562 C427.8906 81.1875 427.625 81.5 427.0312 81.7656 L426.4062 82.0156 C425.6406 82.3125 425.3906 82.5469 425.3906 82.9375 C425.3906 83.1094 425.4531 83.3438 425.5781 83.8125 L425.7344 84.3438 L426.1094 84.3438 L426.0938 83.5312 C426.0938 83.0938 426.2031 82.9688 426.7812 82.7344 L427.2031 82.5625 C428.0312 82.2188 428.4531 81.6875 428.4531 80.8438 C428.4531 79.1562 426.6562 78.1875 425.5 78.0312 C425.1094 78.125 424.9062 78.2969 424.9062 78.6406 C424.9062 78.9375 425.0625 79.1562 425.7188 79.2656 L427.4688 79.5781 Z"
      /><rect x="405" y="58" width="5" style="fill:white; stroke:none;" height="10"
      /><path style="stroke:none;" d="M406.8906 66.6875 C406.4844 66.6875 406.1562 67.0469 406.1562 67.4219 C406.1562 67.8125 406.4844 68.1562 406.8906 68.1562 C407.2969 68.1562 407.6406 67.8125 407.6406 67.4219 C407.6406 67.0469 407.2969 66.6875 406.8906 66.6875 ZM408.4688 60.5781 C408.7188 60.8906 408.875 61.2656 408.8906 61.6562 C408.8906 62.1875 408.625 62.5 408.0312 62.7656 L407.4062 63.0156 C406.6406 63.3125 406.3906 63.5469 406.3906 63.9375 C406.3906 64.1094 406.4531 64.3438 406.5781 64.8125 L406.7344 65.3438 L407.1094 65.3438 L407.0938 64.5312 C407.0938 64.0938 407.2031 63.9688 407.7812 63.7344 L408.2031 63.5625 C409.0312 63.2188 409.4531 62.6875 409.4531 61.8438 C409.4531 60.1562 407.6562 59.1875 406.5 59.0312 C406.1094 59.125 405.9062 59.2969 405.9062 59.6406 C405.9062 59.9375 406.0625 60.1562 406.7188 60.2656 L408.4688 60.5781 Z"
      /><rect x="479" y="96" width="5" style="fill:white; stroke:none;" height="10"
      /><path style="stroke:none;" d="M480.8906 104.6875 C480.4844 104.6875 480.1562 105.0469 480.1562 105.4219 C480.1562 105.8125 480.4844 106.1562 480.8906 106.1562 C481.2969 106.1562 481.6406 105.8125 481.6406 105.4219 C481.6406 105.0469 481.2969 104.6875 480.8906 104.6875 ZM482.4688 98.5781 C482.7188 98.8906 482.875 99.2656 482.8906 99.6562 C482.8906 100.1875 482.625 100.5 482.0312 100.7656 L481.4062 101.0156 C480.6406 101.3125 480.3906 101.5469 480.3906 101.9375 C480.3906 102.1094 480.4531 102.3438 480.5781 102.8125 L480.7344 103.3438 L481.1094 103.3438 L481.0938 102.5312 C481.0938 102.0938 481.2031 101.9688 481.7812 101.7344 L482.2031 101.5625 C483.0312 101.2188 483.4531 100.6875 483.4531 99.8438 C483.4531 98.1562 481.6562 97.1875 480.5 97.0312 C480.1094 97.125 479.9062 97.2969 479.9062 97.6406 C479.9062 97.9375 480.0625 98.1562 480.7188 98.2656 L482.4688 98.5781 Z"
      /><rect x="465" y="96" width="5" style="fill:white; stroke:none;" height="10"
      /><path style="stroke:none;" d="M466.8906 104.6875 C466.4844 104.6875 466.1562 105.0469 466.1562 105.4219 C466.1562 105.8125 466.4844 106.1562 466.8906 106.1562 C467.2969 106.1562 467.6406 105.8125 467.6406 105.4219 C467.6406 105.0469 467.2969 104.6875 466.8906 104.6875 ZM468.4688 98.5781 C468.7188 98.8906 468.875 99.2656 468.8906 99.6562 C468.8906 100.1875 468.625 100.5 468.0312 100.7656 L467.4062 101.0156 C466.6406 101.3125 466.3906 101.5469 466.3906 101.9375 C466.3906 102.1094 466.4531 102.3438 466.5781 102.8125 L466.7344 103.3438 L467.1094 103.3438 L467.0938 102.5312 C467.0938 102.0938 467.2031 101.9688 467.7812 101.7344 L468.2031 101.5625 C469.0312 101.2188 469.4531 100.6875 469.4531 99.8438 C469.4531 98.1562 467.6562 97.1875 466.5 97.0312 C466.1094 97.125 465.9062 97.2969 465.9062 97.6406 C465.9062 97.9375 466.0625 98.1562 466.7188 98.2656 L468.4688 98.5781 Z"
      /><rect x="531" y="96" width="5" style="fill:white; stroke:none;" height="10"
      /><path style="stroke:none;" d="M532.8906 104.6875 C532.4844 104.6875 532.1562 105.0469 532.1562 105.4219 C532.1562 105.8125 532.4844 106.1562 532.8906 106.1562 C533.2969 106.1562 533.6406 105.8125 533.6406 105.4219 C533.6406 105.0469 533.2969 104.6875 532.8906 104.6875 ZM534.4688 98.5781 C534.7188 98.8906 534.875 99.2656 534.8906 99.6562 C534.8906 100.1875 534.625 100.5 534.0312 100.7656 L533.4062 101.0156 C532.6406 101.3125 532.3906 101.5469 532.3906 101.9375 C532.3906 102.1094 532.4531 102.3438 532.5781 102.8125 L532.7344 103.3438 L533.1094 103.3438 L533.0938 102.5312 C533.0938 102.0938 533.2031 101.9688 533.7812 101.7344 L534.2031 101.5625 C535.0312 101.2188 535.4531 100.6875 535.4531 99.8438 C535.4531 98.1562 533.6562 97.1875 532.5 97.0312 C532.1094 97.125 531.9062 97.2969 531.9062 97.6406 C531.9062 97.9375 532.0625 98.1562 532.7188 98.2656 L534.4688 98.5781 Z"
      /><rect x="517" y="96" width="5" style="fill:white; stroke:none;" height="10"
      /><path style="stroke:none;" d="M518.8906 104.6875 C518.4844 104.6875 518.1562 105.0469 518.1562 105.4219 C518.1562 105.8125 518.4844 106.1562 518.8906 106.1562 C519.2969 106.1562 519.6406 105.8125 519.6406 105.4219 C519.6406 105.0469 519.2969 104.6875 518.8906 104.6875 ZM520.4688 98.5781 C520.7188 98.8906 520.875 99.2656 520.8906 99.6562 C520.8906 100.1875 520.625 100.5 520.0312 100.7656 L519.4062 101.0156 C518.6406 101.3125 518.3906 101.5469 518.3906 101.9375 C518.3906 102.1094 518.4531 102.3438 518.5781 102.8125 L518.7344 103.3438 L519.1094 103.3438 L519.0938 102.5312 C519.0938 102.0938 519.2031 101.9688 519.7812 101.7344 L520.2031 101.5625 C521.0312 101.2188 521.4531 100.6875 521.4531 99.8438 C521.4531 98.1562 519.6562 97.1875 518.5 97.0312 C518.1094 97.125 517.9062 97.2969 517.9062 97.6406 C517.9062 97.9375 518.0625 98.1562 518.7188 98.2656 L520.4688 98.5781 Z"
      /><rect x="569" y="96" width="5" style="fill:white; stroke:none;" height="10"
      /><path style="stroke:none;" d="M570.8906 104.6875 C570.4844 104.6875 570.1562 105.0469 570.1562 105.4219 C570.1562 105.8125 570.4844 106.1562 570.8906 106.1562 C571.2969 106.1562 571.6406 105.8125 571.6406 105.4219 C571.6406 105.0469 571.2969 104.6875 570.8906 104.6875 ZM572.4688 98.5781 C572.7188 98.8906 572.875 99.2656 572.8906 99.6562 C572.8906 100.1875 572.625 100.5 572.0312 100.7656 L571.4062 101.0156 C570.6406 101.3125 570.3906 101.5469 570.3906 101.9375 C570.3906 102.1094 570.4531 102.3438 570.5781 102.8125 L570.7344 103.3438 L571.1094 103.3438 L571.0938 102.5312 C571.0938 102.0938 571.2031 101.9688 571.7812 101.7344 L572.2031 101.5625 C573.0312 101.2188 573.4531 100.6875 573.4531 99.8438 C573.4531 98.1562 571.6562 97.1875 570.5 97.0312 C570.1094 97.125 569.9062 97.2969 569.9062 97.6406 C569.9062 97.9375 570.0625 98.1562 570.7188 98.2656 L572.4688 98.5781 Z"
      /><polygon style="fill:none;" points=" 230 156 219 156 219 30 230 30 219 30 219 156"
      /><polygon style="fill:none;" points=" 197 93 145 93"
      /><polygon style="fill:none;" points=" 145 93 93 93"
      /><rect x="134" y="82" width="22" style="clip-path:url(#clipPath12); fill:white; stroke:none;" height="22"
      /><rect x="134" y="82" width="22" style="clip-path:url(#clipPath12); fill:rgb(0,144,188); stroke:none;" height="22"
      /><rect x="134" y="82" width="22" style="fill:none; clip-path:url(#clipPath12);" height="22"
      /><rect x="134" width="22" height="22" y="82" style="fill:none;"
      /><polygon style="fill:none;" points=" 93 93 41 93"
      /><circle style="fill:white; clip-path:url(#clipPath13); stroke:none;" r="11" cx="93" cy="93"
      /><rect x="82" y="82" width="22" style="clip-path:url(#clipPath13); fill:rgb(255,212,0); stroke:none;" height="22"
      /><rect x="82" y="82" width="22" style="fill:none; clip-path:url(#clipPath13);" height="22"
      /><circle r="11" style="fill:none;" cx="93" cy="93"
      /><circle style="fill:white; clip-path:url(#clipPath14); stroke:none;" r="11" cx="41" cy="93"
      /><rect x="30" y="82" width="22" style="clip-path:url(#clipPath14); fill:rgb(255,212,0); stroke:none;" height="22"
      /><rect x="30" y="82" width="22" style="fill:none; clip-path:url(#clipPath14);" height="22"
      /><circle r="11" style="fill:none;" cx="41" cy="93"
      /><rect x="71" y="96" width="5" style="fill:white; stroke:none;" height="10"
      /><path style="stroke:none;" d="M72.8906 104.6875 C72.4844 104.6875 72.1562 105.0469 72.1562 105.4219 C72.1562 105.8125 72.4844 106.1562 72.8906 106.1562 C73.2969 106.1562 73.6406 105.8125 73.6406 105.4219 C73.6406 105.0469 73.2969 104.6875 72.8906 104.6875 ZM74.4688 98.5781 C74.7188 98.8906 74.875 99.2656 74.8906 99.6562 C74.8906 100.1875 74.625 100.5 74.0312 100.7656 L73.4062 101.0156 C72.6406 101.3125 72.3906 101.5469 72.3906 101.9375 C72.3906 102.1094 72.4531 102.3438 72.5781 102.8125 L72.7344 103.3438 L73.1094 103.3438 L73.0938 102.5312 C73.0938 102.0938 73.2031 101.9688 73.7812 101.7344 L74.2031 101.5625 C75.0312 101.2188 75.4531 100.6875 75.4531 99.8438 C75.4531 98.1562 73.6562 97.1875 72.5 97.0312 C72.1094 97.125 71.9062 97.2969 71.9062 97.6406 C71.9062 97.9375 72.0625 98.1562 72.7188 98.2656 L74.4688 98.5781 Z"
      /><rect x="57" y="96" width="5" style="fill:white; stroke:none;" height="10"
      /><path style="stroke:none;" d="M58.8906 104.6875 C58.4844 104.6875 58.1562 105.0469 58.1562 105.4219 C58.1562 105.8125 58.4844 106.1562 58.8906 106.1562 C59.2969 106.1562 59.6406 105.8125 59.6406 105.4219 C59.6406 105.0469 59.2969 104.6875 58.8906 104.6875 ZM60.4688 98.5781 C60.7188 98.8906 60.875 99.2656 60.8906 99.6562 C60.8906 100.1875 60.625 100.5 60.0312 100.7656 L59.4062 101.0156 C58.6406 101.3125 58.3906 101.5469 58.3906 101.9375 C58.3906 102.1094 58.4531 102.3438 58.5781 102.8125 L58.7344 103.3438 L59.1094 103.3438 L59.0938 102.5312 C59.0938 102.0938 59.2031 101.9688 59.7812 101.7344 L60.2031 101.5625 C61.0312 101.2188 61.4531 100.6875 61.4531 99.8438 C61.4531 98.1562 59.6562 97.1875 58.5 97.0312 C58.1094 97.125 57.9062 97.2969 57.9062 97.6406 C57.9062 97.9375 58.0625 98.1562 58.7188 98.2656 L60.4688 98.5781 Z"
      /><rect x="123" y="96" width="5" style="fill:white; stroke:none;" height="10"
      /><path style="stroke:none;" d="M124.8906 104.6875 C124.4844 104.6875 124.1562 105.0469 124.1562 105.4219 C124.1562 105.8125 124.4844 106.1562 124.8906 106.1562 C125.2969 106.1562 125.6406 105.8125 125.6406 105.4219 C125.6406 105.0469 125.2969 104.6875 124.8906 104.6875 ZM126.4688 98.5781 C126.7188 98.8906 126.875 99.2656 126.8906 99.6562 C126.8906 100.1875 126.625 100.5 126.0312 100.7656 L125.4062 101.0156 C124.6406 101.3125 124.3906 101.5469 124.3906 101.9375 C124.3906 102.1094 124.4531 102.3438 124.5781 102.8125 L124.7344 103.3438 L125.1094 103.3438 L125.0938 102.5312 C125.0938 102.0938 125.2031 101.9688 125.7812 101.7344 L126.2031 101.5625 C127.0312 101.2188 127.4531 100.6875 127.4531 99.8438 C127.4531 98.1562 125.6562 97.1875 124.5 97.0312 C124.1094 97.125 123.9062 97.2969 123.9062 97.6406 C123.9062 97.9375 124.0625 98.1562 124.7188 98.2656 L126.4688 98.5781 Z"
      /><rect x="109" y="96" width="5" style="fill:white; stroke:none;" height="10"
      /><path style="stroke:none;" d="M110.8906 104.6875 C110.4844 104.6875 110.1562 105.0469 110.1562 105.4219 C110.1562 105.8125 110.4844 106.1562 110.8906 106.1562 C111.2969 106.1562 111.6406 105.8125 111.6406 105.4219 C111.6406 105.0469 111.2969 104.6875 110.8906 104.6875 ZM112.4688 98.5781 C112.7188 98.8906 112.875 99.2656 112.8906 99.6562 C112.8906 100.1875 112.625 100.5 112.0312 100.7656 L111.4062 101.0156 C110.6406 101.3125 110.3906 101.5469 110.3906 101.9375 C110.3906 102.1094 110.4531 102.3438 110.5781 102.8125 L110.7344 103.3438 L111.1094 103.3438 L111.0938 102.5312 C111.0938 102.0938 111.2031 101.9688 111.7812 101.7344 L112.2031 101.5625 C113.0312 101.2188 113.4531 100.6875 113.4531 99.8438 C113.4531 98.1562 111.6562 97.1875 110.5 97.0312 C110.1094 97.125 109.9062 97.2969 109.9062 97.6406 C109.9062 97.9375 110.0625 98.1562 110.7188 98.2656 L112.4688 98.5781 Z"
      /><rect x="175" y="96" width="5" style="fill:white; stroke:none;" height="10"
      /><path style="stroke:none;" d="M176.8906 104.6875 C176.4844 104.6875 176.1562 105.0469 176.1562 105.4219 C176.1562 105.8125 176.4844 106.1562 176.8906 106.1562 C177.2969 106.1562 177.6406 105.8125 177.6406 105.4219 C177.6406 105.0469 177.2969 104.6875 176.8906 104.6875 ZM178.4688 98.5781 C178.7188 98.8906 178.875 99.2656 178.8906 99.6562 C178.8906 100.1875 178.625 100.5 178.0312 100.7656 L177.4062 101.0156 C176.6406 101.3125 176.3906 101.5469 176.3906 101.9375 C176.3906 102.1094 176.4531 102.3438 176.5781 102.8125 L176.7344 103.3438 L177.1094 103.3438 L177.0938 102.5312 C177.0938 102.0938 177.2031 101.9688 177.7812 101.7344 L178.2031 101.5625 C179.0312 101.2188 179.4531 100.6875 179.4531 99.8438 C179.4531 98.1562 177.6562 97.1875 176.5 97.0312 C176.1094 97.125 175.9062 97.2969 175.9062 97.6406 C175.9062 97.9375 176.0625 98.1562 176.7188 98.2656 L178.4688 98.5781 Z"
      /><rect x="161" y="96" width="5" style="fill:white; stroke:none;" height="10"
      /><path style="stroke:none;" d="M162.8906 104.6875 C162.4844 104.6875 162.1562 105.0469 162.1562 105.4219 C162.1562 105.8125 162.4844 106.1562 162.8906 106.1562 C163.2969 106.1562 163.6406 105.8125 163.6406 105.4219 C163.6406 105.0469 163.2969 104.6875 162.8906 104.6875 ZM164.4688 98.5781 C164.7188 98.8906 164.875 99.2656 164.8906 99.6562 C164.8906 100.1875 164.625 100.5 164.0312 100.7656 L163.4062 101.0156 C162.6406 101.3125 162.3906 101.5469 162.3906 101.9375 C162.3906 102.1094 162.4531 102.3438 162.5781 102.8125 L162.7344 103.3438 L163.1094 103.3438 L163.0938 102.5312 C163.0938 102.0938 163.2031 101.9688 163.7812 101.7344 L164.2031 101.5625 C165.0312 101.2188 165.4531 100.6875 165.4531 99.8438 C165.4531 98.1562 163.6562 97.1875 162.5 97.0312 C162.1094 97.125 161.9062 97.2969 161.9062 97.6406 C161.9062 97.9375 162.0625 98.1562 162.7188 98.2656 L164.4688 98.5781 Z"
    /></g
  ></g
></svg
>
