<?xml version="1.0"?>
<!DOCTYPE svg PUBLIC '-//W3C//DTD SVG 1.0//EN'
          'http://www.w3.org/TR/2001/REC-SVG-20010904/DTD/svg10.dtd'>
<svg xmlns:xlink="http://www.w3.org/1999/xlink" style="fill-opacity:1; color-rendering:auto; color-interpolation:auto; text-rendering:auto; stroke:black; stroke-linecap:square; stroke-miterlimit:10; shape-rendering:auto; stroke-opacity:1; fill:black; stroke-dasharray:none; font-weight:normal; stroke-width:1; font-family:'Dialog'; font-style:normal; stroke-linejoin:miter; font-size:12px; stroke-dashoffset:0; image-rendering:auto;" viewBox="0 0 394 388" xmlns="http://www.w3.org/2000/svg"
><!--Generated by the Batik Graphics2D SVG Generator--><defs id="genericDefs"
  /><g
  ><defs id="defs1"
    ><clipPath clipPathUnits="userSpaceOnUse" id="clipPath1"
      ><path d="M290 163 L312 163 L312 185 L290 185 L290 163 Z"
      /></clipPath
      ><clipPath clipPathUnits="userSpaceOnUse" id="clipPath2"
      ><path d="M238 163 L260 163 L260 185 L238 185 L238 163 Z"
      /></clipPath
      ><clipPath clipPathUnits="userSpaceOnUse" id="clipPath3"
      ><path d="M208 174 C208 180.0751 203.0751 185 197 185 C190.9249 185 186 180.0751 186 174 C186 167.9249 190.9249 163 197 163 C203.0751 163 208 167.9249 208 174 Z"
      /></clipPath
      ><clipPath clipPathUnits="userSpaceOnUse" id="clipPath4"
      ><path d="M156 264 C156 270.0751 151.0751 275 145 275 C138.9249 275 134 270.0751 134 264 C134 257.9249 138.9249 253 145 253 C151.0751 253 156 257.9249 156 264 Z"
      /></clipPath
      ><clipPath clipPathUnits="userSpaceOnUse" id="clipPath5"
      ><path d="M82 298 L104 298 L104 320 L82 320 L82 298 Z"
      /></clipPath
      ><clipPath clipPathUnits="userSpaceOnUse" id="clipPath6"
      ><path d="M52 347 C52 353.0751 47.0751 358 41 358 C34.9249 358 30 353.0751 30 347 C30 340.9249 34.9249 336 41 336 C47.0751 336 52 340.9249 52 347 Z"
      /></clipPath
      ><clipPath clipPathUnits="userSpaceOnUse" id="clipPath7"
      ><path d="M52 272 C52 278.0751 47.0751 283 41 283 C34.9249 283 30 278.0751 30 272 C30 265.9249 34.9249 261 41 261 C47.0751 261 52 265.9249 52 272 Z"
      /></clipPath
      ><clipPath clipPathUnits="userSpaceOnUse" id="clipPath8"
      ><path d="M82 209 L104 209 L104 231 L82 231 L82 209 Z"
      /></clipPath
      ><clipPath clipPathUnits="userSpaceOnUse" id="clipPath9"
      ><path d="M52 220 C52 226.0751 47.0751 231 41 231 C34.9249 231 30 226.0751 30 220 C30 213.9249 34.9249 209 41 209 C47.0751 209 52 213.9249 52 220 Z"
      /></clipPath
      ><clipPath clipPathUnits="userSpaceOnUse" id="clipPath10"
      ><path d="M156 85 C156 91.0751 151.0751 96 145 96 C138.9249 96 134 91.0751 134 85 C134 78.9249 138.9249 74 145 74 C151.0751 74 156 78.9249 156 85 Z"
      /></clipPath
      ><clipPath clipPathUnits="userSpaceOnUse" id="clipPath11"
      ><path d="M82 119 L104 119 L104 141 L82 141 L82 119 Z"
      /></clipPath
      ><clipPath clipPathUnits="userSpaceOnUse" id="clipPath12"
      ><path d="M52 168 C52 174.0751 47.0751 179 41 179 C34.9249 179 30 174.0751 30 168 C30 161.9249 34.9249 157 41 157 C47.0751 157 52 161.9249 52 168 Z"
      /></clipPath
      ><clipPath clipPathUnits="userSpaceOnUse" id="clipPath13"
      ><path d="M52 93 C52 99.0751 47.0751 104 41 104 C34.9249 104 30 99.0751 30 93 C30 86.9249 34.9249 82 41 82 C47.0751 82 52 86.9249 52 93 Z"
      /></clipPath
      ><clipPath clipPathUnits="userSpaceOnUse" id="clipPath14"
      ><path d="M82 30 L104 30 L104 52 L82 52 L82 30 Z"
      /></clipPath
      ><clipPath clipPathUnits="userSpaceOnUse" id="clipPath15"
      ><path d="M52 41 C52 47.0751 47.0751 52 41 52 C34.9249 52 30 47.0751 30 41 C30 34.9249 34.9249 30 41 30 C47.0751 30 52 34.9249 52 41 Z"
      /></clipPath
    ></defs
    ><g style="fill:white; text-rendering:optimizeSpeed; stroke:white;"
    ><rect x="0" width="394" height="388" y="0" style="stroke:none;"
      /><polygon style="fill:none; stroke:black;" points=" 353 174 301 174"
      /><path d="M353 163 C347.5 168.5 358.5 179.5 353 185" style="fill:none; stroke:black;"
      /><polygon style="fill:none; stroke:black;" points=" 301 174 249 174"
      /><rect x="290" y="163" width="22" style="clip-path:url(#clipPath1); stroke:none;" height="22"
      /><rect x="290" y="163" width="22" style="clip-path:url(#clipPath1); stroke:none;" height="22"
      /><rect x="290" y="163" width="22" style="clip-path:url(#clipPath1); fill:none; stroke:black;" height="22"
      /><rect x="290" y="163" width="22" style="fill:none; stroke:black;" height="22"
      /><polygon style="fill:none; stroke:black;" points=" 249 174 197 174"
      /><rect x="238" y="163" width="22" style="clip-path:url(#clipPath2); stroke:none;" height="22"
      /><rect x="238" y="163" width="22" style="clip-path:url(#clipPath2); stroke:none;" height="22"
      /><rect x="238" y="163" width="22" style="clip-path:url(#clipPath2); fill:none; stroke:black;" height="22"
      /><rect x="238" y="163" width="22" style="fill:none; stroke:black;" height="22"
      /><polygon style="fill:none; stroke:black;" points=" 197 174 145 264"
      /><polygon style="fill:none; stroke:black;" points=" 197 174 145 85"
      /><circle style="clip-path:url(#clipPath3); stroke:none;" r="11" cx="197" cy="174"
      /><rect x="186" y="163" width="22" style="clip-path:url(#clipPath3); stroke:none;" height="22"
      /><rect x="186" y="163" width="22" style="clip-path:url(#clipPath3); fill:none; stroke:black;" height="22"
      /><circle style="fill:none; stroke:black;" r="11" cx="197" cy="174"
      /><polygon style="fill:none; stroke:black;" points=" 145 264 93 309"
      /><polygon style="fill:none; stroke:black;" points=" 145 264 93 220"
      /><circle style="clip-path:url(#clipPath4); stroke:none;" r="11" cx="145" cy="264"
      /><rect x="134" y="253" width="22" style="clip-path:url(#clipPath4); stroke:none;" height="22"
      /><rect x="134" y="253" width="22" style="clip-path:url(#clipPath4); fill:none; stroke:black;" height="22"
      /><circle style="fill:none; stroke:black;" r="11" cx="145" cy="264"
      /><polygon style="fill:none; stroke:black;" points=" 93 309 41 347"
      /><polygon style="fill:none; stroke:black;" points=" 93 309 41 272"
      /><rect x="82" y="298" width="22" style="clip-path:url(#clipPath5); stroke:none;" height="22"
      /><rect x="82" y="298" width="22" style="clip-path:url(#clipPath5); stroke:none;" height="22"
      /><rect x="82" y="298" width="22" style="clip-path:url(#clipPath5); fill:none; stroke:black;" height="22"
      /><rect x="82" y="298" width="22" style="fill:none; stroke:black;" height="22"
      /><circle style="clip-path:url(#clipPath6); stroke:none;" r="11" cx="41" cy="347"
      /><rect x="30" y="336" width="22" style="clip-path:url(#clipPath6); stroke:none;" height="22"
      /><rect x="30" y="336" width="22" style="clip-path:url(#clipPath6); fill:none; stroke:black;" height="22"
      /><circle style="fill:none; stroke:black;" r="11" cx="41" cy="347"
    /></g
    ><g style="font-family:'SansSerif'; text-rendering:optimizeSpeed; "
    ><path style="stroke:none;" d="M35.5156 323.3594 C36.5781 323.3594 37.1094 324.1094 37.1094 325.2969 C37.1094 326.5 36.4531 327.2969 35.6094 327.2969 C34.5156 327.2969 33.8438 326.3125 33.7188 324.4844 C34.25 323.6875 34.9688 323.3594 35.5156 323.3594 ZM35.6094 328.1562 C36.9844 328.1562 38.125 327 38.125 325.2969 C38.125 323.4688 37.1875 322.5469 35.7031 322.5469 C35 322.5469 34.2344 322.9531 33.6875 323.6094 C33.7344 320.875 34.7656 319.9531 35.9531 319.9531 C36.5 319.9531 37.0312 320.2031 37.375 320.625 L37.9688 319.9375 C37.5 319.4219 36.8438 319.0312 35.9219 319.0312 C34.2188 319.0312 32.6719 320.3594 32.6719 323.7969 C32.6719 326.7031 33.9219 328.1562 35.6094 328.1562 ZM39.7694 328 L40.8632 328 L40.8632 323.2656 C41.4569 322.5938 42.0038 322.2812 42.5038 322.2812 C43.3319 322.2812 43.7069 322.7969 43.7069 324.0156 L43.7069 328 L44.8007 328 L44.8007 323.2656 C45.41 322.5938 45.9413 322.2812 46.4413 322.2812 C47.2694 322.2812 47.66 322.7969 47.66 324.0156 L47.66 328 L48.7538 328 L48.7538 323.875 C48.7538 322.2031 48.1132 321.3125 46.7694 321.3125 C45.9725 321.3125 45.3007 321.8281 44.6288 322.5625 C44.3632 321.7969 43.8163 321.3125 42.8163 321.3125 C42.0507 321.3125 41.3632 321.8125 40.8007 322.4375 L40.7538 322.4375 L40.66 321.4844 L39.7694 321.4844 L39.7694 328 Z"
      /><circle style="fill:white; clip-path:url(#clipPath7); stroke:none;" r="11" cx="41" cy="272"
      /><rect x="30" y="261" width="22" style="clip-path:url(#clipPath7); fill:white; stroke:none;" height="22"
      /><rect x="30" y="261" width="22" style="fill:none; clip-path:url(#clipPath7);" height="22"
      /><circle r="11" style="fill:none;" cx="41" cy="272"
      /><rect x="77" y="323" width="5" style="fill:white; stroke:none;" height="10"
      /><path style="stroke:none;" d="M78.8906 331.6875 C78.4844 331.6875 78.1562 332.0469 78.1562 332.4219 C78.1562 332.8125 78.4844 333.1562 78.8906 333.1562 C79.2969 333.1562 79.6406 332.8125 79.6406 332.4219 C79.6406 332.0469 79.2969 331.6875 78.8906 331.6875 ZM80.4688 325.5781 C80.7188 325.8906 80.875 326.2656 80.8906 326.6562 C80.8906 327.1875 80.625 327.5 80.0312 327.7656 L79.4062 328.0156 C78.6406 328.3125 78.3906 328.5469 78.3906 328.9375 C78.3906 329.1094 78.4531 329.3438 78.5781 329.8125 L78.7344 330.3438 L79.1094 330.3438 L79.0938 329.5312 C79.0938 329.0938 79.2031 328.9688 79.7812 328.7344 L80.2031 328.5625 C81.0312 328.2188 81.4531 327.6875 81.4531 326.8438 C81.4531 325.1562 79.6562 324.1875 78.5 324.0312 C78.1094 324.125 77.9062 324.2969 77.9062 324.6406 C77.9062 324.9375 78.0625 325.1562 78.7188 325.2656 L80.4688 325.5781 Z"
      /><rect x="60" y="335" width="5" style="fill:white; stroke:none;" height="10"
      /><path style="stroke:none;" d="M61.8906 343.6875 C61.4844 343.6875 61.1562 344.0469 61.1562 344.4219 C61.1562 344.8125 61.4844 345.1562 61.8906 345.1562 C62.2969 345.1562 62.6406 344.8125 62.6406 344.4219 C62.6406 344.0469 62.2969 343.6875 61.8906 343.6875 ZM63.4688 337.5781 C63.7188 337.8906 63.875 338.2656 63.8906 338.6562 C63.8906 339.1875 63.625 339.5 63.0312 339.7656 L62.4062 340.0156 C61.6406 340.3125 61.3906 340.5469 61.3906 340.9375 C61.3906 341.1094 61.4531 341.3438 61.5781 341.8125 L61.7344 342.3438 L62.1094 342.3438 L62.0938 341.5312 C62.0938 341.0938 62.2031 340.9688 62.7812 340.7344 L63.2031 340.5625 C64.0312 340.2188 64.4531 339.6875 64.4531 338.8438 C64.4531 337.1562 62.6562 336.1875 61.5 336.0312 C61.1094 336.125 60.9062 336.2969 60.9062 336.6406 C60.9062 336.9375 61.0625 337.1562 61.7188 337.2656 L63.4688 337.5781 Z"
      /><rect x="68" y="298" width="5" style="fill:white; stroke:none;" height="10"
      /><path style="stroke:none;" d="M69.8906 306.6875 C69.4844 306.6875 69.1562 307.0469 69.1562 307.4219 C69.1562 307.8125 69.4844 308.1562 69.8906 308.1562 C70.2969 308.1562 70.6406 307.8125 70.6406 307.4219 C70.6406 307.0469 70.2969 306.6875 69.8906 306.6875 ZM71.4688 300.5781 C71.7188 300.8906 71.875 301.2656 71.8906 301.6562 C71.8906 302.1875 71.625 302.5 71.0312 302.7656 L70.4062 303.0156 C69.6406 303.3125 69.3906 303.5469 69.3906 303.9375 C69.3906 304.1094 69.4531 304.3438 69.5781 304.8125 L69.7344 305.3438 L70.1094 305.3438 L70.0938 304.5312 C70.0938 304.0938 70.2031 303.9688 70.7812 303.7344 L71.2031 303.5625 C72.0312 303.2188 72.4531 302.6875 72.4531 301.8438 C72.4531 300.1562 70.6562 299.1875 69.5 299.0312 C69.1094 299.125 68.9062 299.2969 68.9062 299.6406 C68.9062 299.9375 69.0625 300.1562 69.7188 300.2656 L71.4688 300.5781 Z"
      /><rect x="51" y="285" width="5" style="fill:white; stroke:none;" height="10"
      /><path style="stroke:none;" d="M52.8906 293.6875 C52.4844 293.6875 52.1562 294.0469 52.1562 294.4219 C52.1562 294.8125 52.4844 295.1562 52.8906 295.1562 C53.2969 295.1562 53.6406 294.8125 53.6406 294.4219 C53.6406 294.0469 53.2969 293.6875 52.8906 293.6875 ZM54.4688 287.5781 C54.7188 287.8906 54.875 288.2656 54.8906 288.6562 C54.8906 289.1875 54.625 289.5 54.0312 289.7656 L53.4062 290.0156 C52.6406 290.3125 52.3906 290.5469 52.3906 290.9375 C52.3906 291.1094 52.4531 291.3438 52.5781 291.8125 L52.7344 292.3438 L53.1094 292.3438 L53.0938 291.5312 C53.0938 291.0938 53.2031 290.9688 53.7812 290.7344 L54.2031 290.5625 C55.0312 290.2188 55.4531 289.6875 55.4531 288.8438 C55.4531 287.1562 53.6562 286.1875 52.5 286.0312 C52.1094 286.125 51.9062 286.2969 51.9062 286.6406 C51.9062 286.9375 52.0625 287.1562 52.7188 287.2656 L54.4688 287.5781 Z"
      /><polygon style="fill:none;" points=" 93 220 41 220"
      /><rect x="82" y="209" width="22" style="clip-path:url(#clipPath8); fill:white; stroke:none;" height="22"
      /><rect x="82" y="209" width="22" style="clip-path:url(#clipPath8); fill:white; stroke:none;" height="22"
      /><rect x="82" y="209" width="22" style="fill:none; clip-path:url(#clipPath8);" height="22"
      /><rect x="82" width="22" height="22" y="209" style="fill:none;"
      /><circle style="fill:white; clip-path:url(#clipPath9); stroke:none;" r="11" cx="41" cy="220"
      /><rect x="30" y="209" width="22" style="clip-path:url(#clipPath9); fill:white; stroke:none;" height="22"
      /><rect x="30" y="209" width="22" style="fill:none; clip-path:url(#clipPath9);" height="22"
      /><circle r="11" style="fill:none;" cx="41" cy="220"
      /><rect x="71" y="223" width="5" style="fill:white; stroke:none;" height="10"
      /><path style="stroke:none;" d="M72.8906 231.6875 C72.4844 231.6875 72.1562 232.0469 72.1562 232.4219 C72.1562 232.8125 72.4844 233.1562 72.8906 233.1562 C73.2969 233.1562 73.6406 232.8125 73.6406 232.4219 C73.6406 232.0469 73.2969 231.6875 72.8906 231.6875 ZM74.4688 225.5781 C74.7188 225.8906 74.875 226.2656 74.8906 226.6562 C74.8906 227.1875 74.625 227.5 74.0312 227.7656 L73.4062 228.0156 C72.6406 228.3125 72.3906 228.5469 72.3906 228.9375 C72.3906 229.1094 72.4531 229.3438 72.5781 229.8125 L72.7344 230.3438 L73.1094 230.3438 L73.0938 229.5312 C73.0938 229.0938 73.2031 228.9688 73.7812 228.7344 L74.2031 228.5625 C75.0312 228.2188 75.4531 227.6875 75.4531 226.8438 C75.4531 225.1562 73.6562 224.1875 72.5 224.0312 C72.1094 224.125 71.9062 224.2969 71.9062 224.6406 C71.9062 224.9375 72.0625 225.1562 72.7188 225.2656 L74.4688 225.5781 Z"
      /><rect x="57" y="223" width="5" style="fill:white; stroke:none;" height="10"
      /><path style="stroke:none;" d="M58.8906 231.6875 C58.4844 231.6875 58.1562 232.0469 58.1562 232.4219 C58.1562 232.8125 58.4844 233.1562 58.8906 233.1562 C59.2969 233.1562 59.6406 232.8125 59.6406 232.4219 C59.6406 232.0469 59.2969 231.6875 58.8906 231.6875 ZM60.4688 225.5781 C60.7188 225.8906 60.875 226.2656 60.8906 226.6562 C60.8906 227.1875 60.625 227.5 60.0312 227.7656 L59.4062 228.0156 C58.6406 228.3125 58.3906 228.5469 58.3906 228.9375 C58.3906 229.1094 58.4531 229.3438 58.5781 229.8125 L58.7344 230.3438 L59.1094 230.3438 L59.0938 229.5312 C59.0938 229.0938 59.2031 228.9688 59.7812 228.7344 L60.2031 228.5625 C61.0312 228.2188 61.4531 227.6875 61.4531 226.8438 C61.4531 225.1562 59.6562 224.1875 58.5 224.0312 C58.1094 224.125 57.9062 224.2969 57.9062 224.6406 C57.9062 224.9375 58.0625 225.1562 58.7188 225.2656 L60.4688 225.5781 Z"
      /><rect x="130" y="279" width="5" style="fill:white; stroke:none;" height="10"
      /><path style="stroke:none;" d="M131.8906 287.6875 C131.4844 287.6875 131.1562 288.0469 131.1562 288.4219 C131.1562 288.8125 131.4844 289.1562 131.8906 289.1562 C132.2969 289.1562 132.6406 288.8125 132.6406 288.4219 C132.6406 288.0469 132.2969 287.6875 131.8906 287.6875 ZM133.4688 281.5781 C133.7188 281.8906 133.875 282.2656 133.8906 282.6562 C133.8906 283.1875 133.625 283.5 133.0312 283.7656 L132.4062 284.0156 C131.6406 284.3125 131.3906 284.5469 131.3906 284.9375 C131.3906 285.1094 131.4531 285.3438 131.5781 285.8125 L131.7344 286.3438 L132.1094 286.3438 L132.0938 285.5312 C132.0938 285.0938 132.2031 284.9688 132.7812 284.7344 L133.2031 284.5625 C134.0312 284.2188 134.4531 283.6875 134.4531 282.8438 C134.4531 281.1562 132.6562 280.1875 131.5 280.0312 C131.1094 280.125 130.9062 280.2969 130.9062 280.6406 C130.9062 280.9375 131.0625 281.1562 131.7188 281.2656 L133.4688 281.5781 Z"
      /><rect x="112" y="295" width="5" style="fill:white; stroke:none;" height="10"
      /><path style="stroke:none;" d="M113.8906 303.6875 C113.4844 303.6875 113.1562 304.0469 113.1562 304.4219 C113.1562 304.8125 113.4844 305.1562 113.8906 305.1562 C114.2969 305.1562 114.6406 304.8125 114.6406 304.4219 C114.6406 304.0469 114.2969 303.6875 113.8906 303.6875 ZM115.4688 297.5781 C115.7188 297.8906 115.875 298.2656 115.8906 298.6562 C115.8906 299.1875 115.625 299.5 115.0312 299.7656 L114.4062 300.0156 C113.6406 300.3125 113.3906 300.5469 113.3906 300.9375 C113.3906 301.1094 113.4531 301.3438 113.5781 301.8125 L113.7344 302.3438 L114.1094 302.3438 L114.0938 301.5312 C114.0938 301.0938 114.2031 300.9688 114.7812 300.7344 L115.2031 300.5625 C116.0312 300.2188 116.4531 299.6875 116.4531 298.8438 C116.4531 297.1562 114.6562 296.1875 113.5 296.0312 C113.1094 296.125 112.9062 296.2969 112.9062 296.6406 C112.9062 296.9375 113.0625 297.1562 113.7188 297.2656 L115.4688 297.5781 Z"
      /><rect x="120" y="250" width="5" style="fill:white; stroke:none;" height="10"
      /><path style="stroke:none;" d="M121.8906 258.6875 C121.4844 258.6875 121.1562 259.0469 121.1562 259.4219 C121.1562 259.8125 121.4844 260.1562 121.8906 260.1562 C122.2969 260.1562 122.6406 259.8125 122.6406 259.4219 C122.6406 259.0469 122.2969 258.6875 121.8906 258.6875 ZM123.4688 252.5781 C123.7188 252.8906 123.875 253.2656 123.8906 253.6562 C123.8906 254.1875 123.625 254.5 123.0312 254.7656 L122.4062 255.0156 C121.6406 255.3125 121.3906 255.5469 121.3906 255.9375 C121.3906 256.1094 121.4531 256.3438 121.5781 256.8125 L121.7344 257.3438 L122.1094 257.3438 L122.0938 256.5312 C122.0938 256.0938 122.2031 255.9688 122.7812 255.7344 L123.2031 255.5625 C124.0312 255.2188 124.4531 254.6875 124.4531 253.8438 C124.4531 252.1562 122.6562 251.1875 121.5 251.0312 C121.1094 251.125 120.9062 251.2969 120.9062 251.6406 C120.9062 251.9375 121.0625 252.1562 121.7188 252.2656 L123.4688 252.5781 Z"
      /><rect x="102" y="235" width="5" style="fill:white; stroke:none;" height="10"
      /><path style="stroke:none;" d="M103.8906 243.6875 C103.4844 243.6875 103.1562 244.0469 103.1562 244.4219 C103.1562 244.8125 103.4844 245.1562 103.8906 245.1562 C104.2969 245.1562 104.6406 244.8125 104.6406 244.4219 C104.6406 244.0469 104.2969 243.6875 103.8906 243.6875 ZM105.4688 237.5781 C105.7188 237.8906 105.875 238.2656 105.8906 238.6562 C105.8906 239.1875 105.625 239.5 105.0312 239.7656 L104.4062 240.0156 C103.6406 240.3125 103.3906 240.5469 103.3906 240.9375 C103.3906 241.1094 103.4531 241.3438 103.5781 241.8125 L103.7344 242.3438 L104.1094 242.3438 L104.0938 241.5312 C104.0938 241.0938 104.2031 240.9688 104.7812 240.7344 L105.2031 240.5625 C106.0312 240.2188 106.4531 239.6875 106.4531 238.8438 C106.4531 237.1562 104.6562 236.1875 103.5 236.0312 C103.1094 236.125 102.9062 236.2969 102.9062 236.6406 C102.9062 236.9375 103.0625 237.1562 103.7188 237.2656 L105.4688 237.5781 Z"
      /><polygon style="fill:none;" points=" 145 85 93 130"
      /><polygon style="fill:none;" points=" 145 85 93 41"
      /><circle style="fill:white; clip-path:url(#clipPath10); stroke:none;" r="11" cx="145" cy="85"
      /><rect x="134" y="74" width="22" style="clip-path:url(#clipPath10); fill:white; stroke:none;" height="22"
      /><rect x="134" y="74" width="22" style="fill:none; clip-path:url(#clipPath10);" height="22"
      /><circle r="11" style="fill:none;" cx="145" cy="85"
      /><polygon style="fill:none;" points=" 93 130 41 168"
      /><polygon style="fill:none;" points=" 93 130 41 93"
      /><rect x="82" y="119" width="22" style="clip-path:url(#clipPath11); fill:white; stroke:none;" height="22"
      /><rect x="82" y="119" width="22" style="clip-path:url(#clipPath11); fill:white; stroke:none;" height="22"
      /><rect x="82" y="119" width="22" style="fill:none; clip-path:url(#clipPath11);" height="22"
      /><rect x="82" width="22" height="22" y="119" style="fill:none;"
      /><circle style="fill:white; clip-path:url(#clipPath12); stroke:none;" r="11" cx="41" cy="168"
      /><rect x="30" y="157" width="22" style="clip-path:url(#clipPath12); fill:white; stroke:none;" height="22"
      /><rect x="30" y="157" width="22" style="fill:none; clip-path:url(#clipPath12);" height="22"
      /><circle r="11" style="fill:none;" cx="41" cy="168"
      /><path style="stroke:none;" d="M35.5156 144.3594 C36.5781 144.3594 37.1094 145.1094 37.1094 146.2969 C37.1094 147.5 36.4531 148.2969 35.6094 148.2969 C34.5156 148.2969 33.8438 147.3125 33.7188 145.4844 C34.25 144.6875 34.9688 144.3594 35.5156 144.3594 ZM35.6094 149.1562 C36.9844 149.1562 38.125 148 38.125 146.2969 C38.125 144.4688 37.1875 143.5469 35.7031 143.5469 C35 143.5469 34.2344 143.9531 33.6875 144.6094 C33.7344 141.875 34.7656 140.9531 35.9531 140.9531 C36.5 140.9531 37.0312 141.2031 37.375 141.625 L37.9688 140.9375 C37.5 140.4219 36.8438 140.0312 35.9219 140.0312 C34.2188 140.0312 32.6719 141.3594 32.6719 144.7969 C32.6719 147.7031 33.9219 149.1562 35.6094 149.1562 ZM39.7694 149 L40.8632 149 L40.8632 144.2656 C41.4569 143.5938 42.0038 143.2812 42.5038 143.2812 C43.3319 143.2812 43.7069 143.7969 43.7069 145.0156 L43.7069 149 L44.8007 149 L44.8007 144.2656 C45.41 143.5938 45.9413 143.2812 46.4413 143.2812 C47.2694 143.2812 47.66 143.7969 47.66 145.0156 L47.66 149 L48.7538 149 L48.7538 144.875 C48.7538 143.2031 48.1132 142.3125 46.7694 142.3125 C45.9725 142.3125 45.3007 142.8281 44.6288 143.5625 C44.3632 142.7969 43.8163 142.3125 42.8163 142.3125 C42.0507 142.3125 41.3632 142.8125 40.8007 143.4375 L40.7538 143.4375 L40.66 142.4844 L39.7694 142.4844 L39.7694 149 Z"
      /><circle style="fill:white; clip-path:url(#clipPath13); stroke:none;" r="11" cx="41" cy="93"
      /><rect x="30" y="82" width="22" style="clip-path:url(#clipPath13); fill:white; stroke:none;" height="22"
      /><rect x="30" y="82" width="22" style="fill:none; clip-path:url(#clipPath13);" height="22"
      /><circle r="11" style="fill:none;" cx="41" cy="93"
      /><rect x="77" y="144" width="5" style="fill:white; stroke:none;" height="10"
      /><path style="stroke:none;" d="M78.8906 152.6875 C78.4844 152.6875 78.1562 153.0469 78.1562 153.4219 C78.1562 153.8125 78.4844 154.1562 78.8906 154.1562 C79.2969 154.1562 79.6406 153.8125 79.6406 153.4219 C79.6406 153.0469 79.2969 152.6875 78.8906 152.6875 ZM80.4688 146.5781 C80.7188 146.8906 80.875 147.2656 80.8906 147.6562 C80.8906 148.1875 80.625 148.5 80.0312 148.7656 L79.4062 149.0156 C78.6406 149.3125 78.3906 149.5469 78.3906 149.9375 C78.3906 150.1094 78.4531 150.3438 78.5781 150.8125 L78.7344 151.3438 L79.1094 151.3438 L79.0938 150.5312 C79.0938 150.0938 79.2031 149.9688 79.7812 149.7344 L80.2031 149.5625 C81.0312 149.2188 81.4531 148.6875 81.4531 147.8438 C81.4531 146.1562 79.6562 145.1875 78.5 145.0312 C78.1094 145.125 77.9062 145.2969 77.9062 145.6406 C77.9062 145.9375 78.0625 146.1562 78.7188 146.2656 L80.4688 146.5781 Z"
      /><rect x="60" y="156" width="5" style="fill:white; stroke:none;" height="10"
      /><path style="stroke:none;" d="M61.8906 164.6875 C61.4844 164.6875 61.1562 165.0469 61.1562 165.4219 C61.1562 165.8125 61.4844 166.1562 61.8906 166.1562 C62.2969 166.1562 62.6406 165.8125 62.6406 165.4219 C62.6406 165.0469 62.2969 164.6875 61.8906 164.6875 ZM63.4688 158.5781 C63.7188 158.8906 63.875 159.2656 63.8906 159.6562 C63.8906 160.1875 63.625 160.5 63.0312 160.7656 L62.4062 161.0156 C61.6406 161.3125 61.3906 161.5469 61.3906 161.9375 C61.3906 162.1094 61.4531 162.3438 61.5781 162.8125 L61.7344 163.3438 L62.1094 163.3438 L62.0938 162.5312 C62.0938 162.0938 62.2031 161.9688 62.7812 161.7344 L63.2031 161.5625 C64.0312 161.2188 64.4531 160.6875 64.4531 159.8438 C64.4531 158.1562 62.6562 157.1875 61.5 157.0312 C61.1094 157.125 60.9062 157.2969 60.9062 157.6406 C60.9062 157.9375 61.0625 158.1562 61.7188 158.2656 L63.4688 158.5781 Z"
      /><rect x="68" y="119" width="5" style="fill:white; stroke:none;" height="10"
      /><path style="stroke:none;" d="M69.8906 127.6875 C69.4844 127.6875 69.1562 128.0469 69.1562 128.4219 C69.1562 128.8125 69.4844 129.1562 69.8906 129.1562 C70.2969 129.1562 70.6406 128.8125 70.6406 128.4219 C70.6406 128.0469 70.2969 127.6875 69.8906 127.6875 ZM71.4688 121.5781 C71.7188 121.8906 71.875 122.2656 71.8906 122.6562 C71.8906 123.1875 71.625 123.5 71.0312 123.7656 L70.4062 124.0156 C69.6406 124.3125 69.3906 124.5469 69.3906 124.9375 C69.3906 125.1094 69.4531 125.3438 69.5781 125.8125 L69.7344 126.3438 L70.1094 126.3438 L70.0938 125.5312 C70.0938 125.0938 70.2031 124.9688 70.7812 124.7344 L71.2031 124.5625 C72.0312 124.2188 72.4531 123.6875 72.4531 122.8438 C72.4531 121.1562 70.6562 120.1875 69.5 120.0312 C69.1094 120.125 68.9062 120.2969 68.9062 120.6406 C68.9062 120.9375 69.0625 121.1562 69.7188 121.2656 L71.4688 121.5781 Z"
      /><rect x="51" y="106" width="5" style="fill:white; stroke:none;" height="10"
      /><path style="stroke:none;" d="M52.8906 114.6875 C52.4844 114.6875 52.1562 115.0469 52.1562 115.4219 C52.1562 115.8125 52.4844 116.1562 52.8906 116.1562 C53.2969 116.1562 53.6406 115.8125 53.6406 115.4219 C53.6406 115.0469 53.2969 114.6875 52.8906 114.6875 ZM54.4688 108.5781 C54.7188 108.8906 54.875 109.2656 54.8906 109.6562 C54.8906 110.1875 54.625 110.5 54.0312 110.7656 L53.4062 111.0156 C52.6406 111.3125 52.3906 111.5469 52.3906 111.9375 C52.3906 112.1094 52.4531 112.3438 52.5781 112.8125 L52.7344 113.3438 L53.1094 113.3438 L53.0938 112.5312 C53.0938 112.0938 53.2031 111.9688 53.7812 111.7344 L54.2031 111.5625 C55.0312 111.2188 55.4531 110.6875 55.4531 109.8438 C55.4531 108.1562 53.6562 107.1875 52.5 107.0312 C52.1094 107.125 51.9062 107.2969 51.9062 107.6406 C51.9062 107.9375 52.0625 108.1562 52.7188 108.2656 L54.4688 108.5781 Z"
      /><polygon style="fill:none;" points=" 93 41 41 41"
      /><rect x="82" y="30" width="22" style="clip-path:url(#clipPath14); fill:white; stroke:none;" height="22"
      /><rect x="82" y="30" width="22" style="clip-path:url(#clipPath14); fill:white; stroke:none;" height="22"
      /><rect x="82" y="30" width="22" style="fill:none; clip-path:url(#clipPath14);" height="22"
      /><rect x="82" width="22" height="22" y="30" style="fill:none;"
      /><circle style="fill:white; clip-path:url(#clipPath15); stroke:none;" r="11" cx="41" cy="41"
      /><rect x="30" y="30" width="22" style="clip-path:url(#clipPath15); fill:white; stroke:none;" height="22"
      /><rect x="30" y="30" width="22" style="fill:none; clip-path:url(#clipPath15);" height="22"
      /><circle r="11" style="fill:none;" cx="41" cy="41"
      /><rect x="71" y="44" width="5" style="fill:white; stroke:none;" height="10"
      /><path style="stroke:none;" d="M72.8906 52.6875 C72.4844 52.6875 72.1562 53.0469 72.1562 53.4219 C72.1562 53.8125 72.4844 54.1562 72.8906 54.1562 C73.2969 54.1562 73.6406 53.8125 73.6406 53.4219 C73.6406 53.0469 73.2969 52.6875 72.8906 52.6875 ZM74.4688 46.5781 C74.7188 46.8906 74.875 47.2656 74.8906 47.6562 C74.8906 48.1875 74.625 48.5 74.0312 48.7656 L73.4062 49.0156 C72.6406 49.3125 72.3906 49.5469 72.3906 49.9375 C72.3906 50.1094 72.4531 50.3438 72.5781 50.8125 L72.7344 51.3438 L73.1094 51.3438 L73.0938 50.5312 C73.0938 50.0938 73.2031 49.9688 73.7812 49.7344 L74.2031 49.5625 C75.0312 49.2188 75.4531 48.6875 75.4531 47.8438 C75.4531 46.1562 73.6562 45.1875 72.5 45.0312 C72.1094 45.125 71.9062 45.2969 71.9062 45.6406 C71.9062 45.9375 72.0625 46.1562 72.7188 46.2656 L74.4688 46.5781 Z"
      /><rect x="57" y="44" width="5" style="fill:white; stroke:none;" height="10"
      /><path style="stroke:none;" d="M58.8906 52.6875 C58.4844 52.6875 58.1562 53.0469 58.1562 53.4219 C58.1562 53.8125 58.4844 54.1562 58.8906 54.1562 C59.2969 54.1562 59.6406 53.8125 59.6406 53.4219 C59.6406 53.0469 59.2969 52.6875 58.8906 52.6875 ZM60.4688 46.5781 C60.7188 46.8906 60.875 47.2656 60.8906 47.6562 C60.8906 48.1875 60.625 48.5 60.0312 48.7656 L59.4062 49.0156 C58.6406 49.3125 58.3906 49.5469 58.3906 49.9375 C58.3906 50.1094 58.4531 50.3438 58.5781 50.8125 L58.7344 51.3438 L59.1094 51.3438 L59.0938 50.5312 C59.0938 50.0938 59.2031 49.9688 59.7812 49.7344 L60.2031 49.5625 C61.0312 49.2188 61.4531 48.6875 61.4531 47.8438 C61.4531 46.1562 59.6562 45.1875 58.5 45.0312 C58.1094 45.125 57.9062 45.2969 57.9062 45.6406 C57.9062 45.9375 58.0625 46.1562 58.7188 46.2656 L60.4688 46.5781 Z"
      /><rect x="130" y="100" width="5" style="fill:white; stroke:none;" height="10"
      /><path style="stroke:none;" d="M131.8906 108.6875 C131.4844 108.6875 131.1562 109.0469 131.1562 109.4219 C131.1562 109.8125 131.4844 110.1562 131.8906 110.1562 C132.2969 110.1562 132.6406 109.8125 132.6406 109.4219 C132.6406 109.0469 132.2969 108.6875 131.8906 108.6875 ZM133.4688 102.5781 C133.7188 102.8906 133.875 103.2656 133.8906 103.6562 C133.8906 104.1875 133.625 104.5 133.0312 104.7656 L132.4062 105.0156 C131.6406 105.3125 131.3906 105.5469 131.3906 105.9375 C131.3906 106.1094 131.4531 106.3438 131.5781 106.8125 L131.7344 107.3438 L132.1094 107.3438 L132.0938 106.5312 C132.0938 106.0938 132.2031 105.9688 132.7812 105.7344 L133.2031 105.5625 C134.0312 105.2188 134.4531 104.6875 134.4531 103.8438 C134.4531 102.1562 132.6562 101.1875 131.5 101.0312 C131.1094 101.125 130.9062 101.2969 130.9062 101.6406 C130.9062 101.9375 131.0625 102.1562 131.7188 102.2656 L133.4688 102.5781 Z"
      /><rect x="112" y="116" width="5" style="fill:white; stroke:none;" height="10"
      /><path style="stroke:none;" d="M113.8906 124.6875 C113.4844 124.6875 113.1562 125.0469 113.1562 125.4219 C113.1562 125.8125 113.4844 126.1562 113.8906 126.1562 C114.2969 126.1562 114.6406 125.8125 114.6406 125.4219 C114.6406 125.0469 114.2969 124.6875 113.8906 124.6875 ZM115.4688 118.5781 C115.7188 118.8906 115.875 119.2656 115.8906 119.6562 C115.8906 120.1875 115.625 120.5 115.0312 120.7656 L114.4062 121.0156 C113.6406 121.3125 113.3906 121.5469 113.3906 121.9375 C113.3906 122.1094 113.4531 122.3438 113.5781 122.8125 L113.7344 123.3438 L114.1094 123.3438 L114.0938 122.5312 C114.0938 122.0938 114.2031 121.9688 114.7812 121.7344 L115.2031 121.5625 C116.0312 121.2188 116.4531 120.6875 116.4531 119.8438 C116.4531 118.1562 114.6562 117.1875 113.5 117.0312 C113.1094 117.125 112.9062 117.2969 112.9062 117.6406 C112.9062 117.9375 113.0625 118.1562 113.7188 118.2656 L115.4688 118.5781 Z"
      /><rect x="120" y="71" width="5" style="fill:white; stroke:none;" height="10"
      /><path style="stroke:none;" d="M121.8906 79.6875 C121.4844 79.6875 121.1562 80.0469 121.1562 80.4219 C121.1562 80.8125 121.4844 81.1562 121.8906 81.1562 C122.2969 81.1562 122.6406 80.8125 122.6406 80.4219 C122.6406 80.0469 122.2969 79.6875 121.8906 79.6875 ZM123.4688 73.5781 C123.7188 73.8906 123.875 74.2656 123.8906 74.6562 C123.8906 75.1875 123.625 75.5 123.0312 75.7656 L122.4062 76.0156 C121.6406 76.3125 121.3906 76.5469 121.3906 76.9375 C121.3906 77.1094 121.4531 77.3438 121.5781 77.8125 L121.7344 78.3438 L122.1094 78.3438 L122.0938 77.5312 C122.0938 77.0938 122.2031 76.9688 122.7812 76.7344 L123.2031 76.5625 C124.0312 76.2188 124.4531 75.6875 124.4531 74.8438 C124.4531 73.1562 122.6562 72.1875 121.5 72.0312 C121.1094 72.125 120.9062 72.2969 120.9062 72.6406 C120.9062 72.9375 121.0625 73.1562 121.7188 73.2656 L123.4688 73.5781 Z"
      /><rect x="102" y="56" width="5" style="fill:white; stroke:none;" height="10"
      /><path style="stroke:none;" d="M103.8906 64.6875 C103.4844 64.6875 103.1562 65.0469 103.1562 65.4219 C103.1562 65.8125 103.4844 66.1562 103.8906 66.1562 C104.2969 66.1562 104.6406 65.8125 104.6406 65.4219 C104.6406 65.0469 104.2969 64.6875 103.8906 64.6875 ZM105.4688 58.5781 C105.7188 58.8906 105.875 59.2656 105.8906 59.6562 C105.8906 60.1875 105.625 60.5 105.0312 60.7656 L104.4062 61.0156 C103.6406 61.3125 103.3906 61.5469 103.3906 61.9375 C103.3906 62.1094 103.4531 62.3438 103.5781 62.8125 L103.7344 63.3438 L104.1094 63.3438 L104.0938 62.5312 C104.0938 62.0938 104.2031 61.9688 104.7812 61.7344 L105.2031 61.5625 C106.0312 61.2188 106.4531 60.6875 106.4531 59.8438 C106.4531 58.1562 104.6562 57.1875 103.5 57.0312 C103.1094 57.125 102.9062 57.2969 102.9062 57.6406 C102.9062 57.9375 103.0625 58.1562 103.7188 58.2656 L105.4688 58.5781 Z"
      /><rect x="191" y="190" width="5" style="fill:white; stroke:none;" height="10"
      /><path style="stroke:none;" d="M192.8906 198.6875 C192.4844 198.6875 192.1562 199.0469 192.1562 199.4219 C192.1562 199.8125 192.4844 200.1562 192.8906 200.1562 C193.2969 200.1562 193.6406 199.8125 193.6406 199.4219 C193.6406 199.0469 193.2969 198.6875 192.8906 198.6875 ZM194.4688 192.5781 C194.7188 192.8906 194.875 193.2656 194.8906 193.6562 C194.8906 194.1875 194.625 194.5 194.0312 194.7656 L193.4062 195.0156 C192.6406 195.3125 192.3906 195.5469 192.3906 195.9375 C192.3906 196.1094 192.4531 196.3438 192.5781 196.8125 L192.7344 197.3438 L193.1094 197.3438 L193.0938 196.5312 C193.0938 196.0938 193.2031 195.9688 193.7812 195.7344 L194.2031 195.5625 C195.0312 195.2188 195.4531 194.6875 195.4531 193.8438 C195.4531 192.1562 193.6562 191.1875 192.5 191.0312 C192.1094 191.125 191.9062 191.2969 191.9062 191.6406 C191.9062 191.9375 192.0625 192.1562 192.7188 192.2656 L194.4688 192.5781 Z"
      /><rect x="159" y="245" width="5" style="fill:white; stroke:none;" height="10"
      /><path style="stroke:none;" d="M160.8906 253.6875 C160.4844 253.6875 160.1562 254.0469 160.1562 254.4219 C160.1562 254.8125 160.4844 255.1562 160.8906 255.1562 C161.2969 255.1562 161.6406 254.8125 161.6406 254.4219 C161.6406 254.0469 161.2969 253.6875 160.8906 253.6875 ZM162.4688 247.5781 C162.7188 247.8906 162.875 248.2656 162.8906 248.6562 C162.8906 249.1875 162.625 249.5 162.0312 249.7656 L161.4062 250.0156 C160.6406 250.3125 160.3906 250.5469 160.3906 250.9375 C160.3906 251.1094 160.4531 251.3438 160.5781 251.8125 L160.7344 252.3438 L161.1094 252.3438 L161.0938 251.5312 C161.0938 251.0938 161.2031 250.9688 161.7812 250.7344 L162.2031 250.5625 C163.0312 250.2188 163.4531 249.6875 163.4531 248.8438 C163.4531 247.1562 161.6562 246.1875 160.5 246.0312 C160.1094 246.125 159.9062 246.2969 159.9062 246.6406 C159.9062 246.9375 160.0625 247.1562 160.7188 247.2656 L162.4688 247.5781 Z"
      /><rect x="177" y="155" width="5" style="fill:white; stroke:none;" height="10"
      /><path style="stroke:none;" d="M178.8906 163.6875 C178.4844 163.6875 178.1562 164.0469 178.1562 164.4219 C178.1562 164.8125 178.4844 165.1562 178.8906 165.1562 C179.2969 165.1562 179.6406 164.8125 179.6406 164.4219 C179.6406 164.0469 179.2969 163.6875 178.8906 163.6875 ZM180.4688 157.5781 C180.7188 157.8906 180.875 158.2656 180.8906 158.6562 C180.8906 159.1875 180.625 159.5 180.0312 159.7656 L179.4062 160.0156 C178.6406 160.3125 178.3906 160.5469 178.3906 160.9375 C178.3906 161.1094 178.4531 161.3438 178.5781 161.8125 L178.7344 162.3438 L179.1094 162.3438 L179.0938 161.5312 C179.0938 161.0938 179.2031 160.9688 179.7812 160.7344 L180.2031 160.5625 C181.0312 160.2188 181.4531 159.6875 181.4531 158.8438 C181.4531 157.1562 179.6562 156.1875 178.5 156.0312 C178.1094 156.125 177.9062 156.2969 177.9062 156.6406 C177.9062 156.9375 178.0625 157.1562 178.7188 157.2656 L180.4688 157.5781 Z"
      /><rect x="146" y="101" width="5" style="fill:white; stroke:none;" height="10"
      /><path style="stroke:none;" d="M147.8906 109.6875 C147.4844 109.6875 147.1562 110.0469 147.1562 110.4219 C147.1562 110.8125 147.4844 111.1562 147.8906 111.1562 C148.2969 111.1562 148.6406 110.8125 148.6406 110.4219 C148.6406 110.0469 148.2969 109.6875 147.8906 109.6875 ZM149.4688 103.5781 C149.7188 103.8906 149.875 104.2656 149.8906 104.6562 C149.8906 105.1875 149.625 105.5 149.0312 105.7656 L148.4062 106.0156 C147.6406 106.3125 147.3906 106.5469 147.3906 106.9375 C147.3906 107.1094 147.4531 107.3438 147.5781 107.8125 L147.7344 108.3438 L148.1094 108.3438 L148.0938 107.5312 C148.0938 107.0938 148.2031 106.9688 148.7812 106.7344 L149.2031 106.5625 C150.0312 106.2188 150.4531 105.6875 150.4531 104.8438 C150.4531 103.1562 148.6562 102.1875 147.5 102.0312 C147.1094 102.125 146.9062 102.2969 146.9062 102.6406 C146.9062 102.9375 147.0625 103.1562 147.7188 103.2656 L149.4688 103.5781 Z"
      /><rect x="227" y="177" width="5" style="fill:white; stroke:none;" height="10"
      /><path style="stroke:none;" d="M228.8906 185.6875 C228.4844 185.6875 228.1562 186.0469 228.1562 186.4219 C228.1562 186.8125 228.4844 187.1562 228.8906 187.1562 C229.2969 187.1562 229.6406 186.8125 229.6406 186.4219 C229.6406 186.0469 229.2969 185.6875 228.8906 185.6875 ZM230.4688 179.5781 C230.7188 179.8906 230.875 180.2656 230.8906 180.6562 C230.8906 181.1875 230.625 181.5 230.0312 181.7656 L229.4062 182.0156 C228.6406 182.3125 228.3906 182.5469 228.3906 182.9375 C228.3906 183.1094 228.4531 183.3438 228.5781 183.8125 L228.7344 184.3438 L229.1094 184.3438 L229.0938 183.5312 C229.0938 183.0938 229.2031 182.9688 229.7812 182.7344 L230.2031 182.5625 C231.0312 182.2188 231.4531 181.6875 231.4531 180.8438 C231.4531 179.1562 229.6562 178.1875 228.5 178.0312 C228.1094 178.125 227.9062 178.2969 227.9062 178.6406 C227.9062 178.9375 228.0625 179.1562 228.7188 179.2656 L230.4688 179.5781 Z"
      /><rect x="213" y="177" width="5" style="fill:white; stroke:none;" height="10"
      /><path style="stroke:none;" d="M214.8906 185.6875 C214.4844 185.6875 214.1562 186.0469 214.1562 186.4219 C214.1562 186.8125 214.4844 187.1562 214.8906 187.1562 C215.2969 187.1562 215.6406 186.8125 215.6406 186.4219 C215.6406 186.0469 215.2969 185.6875 214.8906 185.6875 ZM216.4688 179.5781 C216.7188 179.8906 216.875 180.2656 216.8906 180.6562 C216.8906 181.1875 216.625 181.5 216.0312 181.7656 L215.4062 182.0156 C214.6406 182.3125 214.3906 182.5469 214.3906 182.9375 C214.3906 183.1094 214.4531 183.3438 214.5781 183.8125 L214.7344 184.3438 L215.1094 184.3438 L215.0938 183.5312 C215.0938 183.0938 215.2031 182.9688 215.7812 182.7344 L216.2031 182.5625 C217.0312 182.2188 217.4531 181.6875 217.4531 180.8438 C217.4531 179.1562 215.6562 178.1875 214.5 178.0312 C214.1094 178.125 213.9062 178.2969 213.9062 178.6406 C213.9062 178.9375 214.0625 179.1562 214.7188 179.2656 L216.4688 179.5781 Z"
      /><rect x="279" y="177" width="5" style="fill:white; stroke:none;" height="10"
      /><path style="stroke:none;" d="M280.8906 185.6875 C280.4844 185.6875 280.1562 186.0469 280.1562 186.4219 C280.1562 186.8125 280.4844 187.1562 280.8906 187.1562 C281.2969 187.1562 281.6406 186.8125 281.6406 186.4219 C281.6406 186.0469 281.2969 185.6875 280.8906 185.6875 ZM282.4688 179.5781 C282.7188 179.8906 282.875 180.2656 282.8906 180.6562 C282.8906 181.1875 282.625 181.5 282.0312 181.7656 L281.4062 182.0156 C280.6406 182.3125 280.3906 182.5469 280.3906 182.9375 C280.3906 183.1094 280.4531 183.3438 280.5781 183.8125 L280.7344 184.3438 L281.1094 184.3438 L281.0938 183.5312 C281.0938 183.0938 281.2031 182.9688 281.7812 182.7344 L282.2031 182.5625 C283.0312 182.2188 283.4531 181.6875 283.4531 180.8438 C283.4531 179.1562 281.6562 178.1875 280.5 178.0312 C280.1094 178.125 279.9062 178.2969 279.9062 178.6406 C279.9062 178.9375 280.0625 179.1562 280.7188 179.2656 L282.4688 179.5781 Z"
      /><rect x="265" y="177" width="5" style="fill:white; stroke:none;" height="10"
      /><path style="stroke:none;" d="M266.8906 185.6875 C266.4844 185.6875 266.1562 186.0469 266.1562 186.4219 C266.1562 186.8125 266.4844 187.1562 266.8906 187.1562 C267.2969 187.1562 267.6406 186.8125 267.6406 186.4219 C267.6406 186.0469 267.2969 185.6875 266.8906 185.6875 ZM268.4688 179.5781 C268.7188 179.8906 268.875 180.2656 268.8906 180.6562 C268.8906 181.1875 268.625 181.5 268.0312 181.7656 L267.4062 182.0156 C266.6406 182.3125 266.3906 182.5469 266.3906 182.9375 C266.3906 183.1094 266.4531 183.3438 266.5781 183.8125 L266.7344 184.3438 L267.1094 184.3438 L267.0938 183.5312 C267.0938 183.0938 267.2031 182.9688 267.7812 182.7344 L268.2031 182.5625 C269.0312 182.2188 269.4531 181.6875 269.4531 180.8438 C269.4531 179.1562 267.6562 178.1875 266.5 178.0312 C266.1094 178.125 265.9062 178.2969 265.9062 178.6406 C265.9062 178.9375 266.0625 179.1562 266.7188 179.2656 L268.4688 179.5781 Z"
      /><rect x="317" y="177" width="5" style="fill:white; stroke:none;" height="10"
      /><path style="stroke:none;" d="M318.8906 185.6875 C318.4844 185.6875 318.1562 186.0469 318.1562 186.4219 C318.1562 186.8125 318.4844 187.1562 318.8906 187.1562 C319.2969 187.1562 319.6406 186.8125 319.6406 186.4219 C319.6406 186.0469 319.2969 185.6875 318.8906 185.6875 ZM320.4688 179.5781 C320.7188 179.8906 320.875 180.2656 320.8906 180.6562 C320.8906 181.1875 320.625 181.5 320.0312 181.7656 L319.4062 182.0156 C318.6406 182.3125 318.3906 182.5469 318.3906 182.9375 C318.3906 183.1094 318.4531 183.3438 318.5781 183.8125 L318.7344 184.3438 L319.1094 184.3438 L319.0938 183.5312 C319.0938 183.0938 319.2031 182.9688 319.7812 182.7344 L320.2031 182.5625 C321.0312 182.2188 321.4531 181.6875 321.4531 180.8438 C321.4531 179.1562 319.6562 178.1875 318.5 178.0312 C318.1094 178.125 317.9062 178.2969 317.9062 178.6406 C317.9062 178.9375 318.0625 179.1562 318.7188 179.2656 L320.4688 179.5781 Z"
    /></g
  ></g
></svg
>
