<?xml version="1.0"?>
<!DOCTYPE svg PUBLIC '-//W3C//DTD SVG 1.0//EN'
          'http://www.w3.org/TR/2001/REC-SVG-20010904/DTD/svg10.dtd'>
<svg xmlns:xlink="http://www.w3.org/1999/xlink" style="fill-opacity:1; color-rendering:auto; color-interpolation:auto; text-rendering:auto; stroke:black; stroke-linecap:square; stroke-miterlimit:10; shape-rendering:auto; stroke-opacity:1; fill:black; stroke-dasharray:none; font-weight:normal; stroke-width:1; font-family:'Dialog'; font-style:normal; stroke-linejoin:miter; font-size:12px; stroke-dashoffset:0; image-rendering:auto;" viewBox="0 0 470 186" xmlns="http://www.w3.org/2000/svg"
><!--Generated by the Batik Graphics2D SVG Generator--><defs id="genericDefs"
  /><g
  ><defs id="defs1"
    ><clipPath clipPathUnits="userSpaceOnUse" id="clipPath1"
      ><path d="M342 82 L364 82 L364 104 L342 104 L342 82 Z"
      /></clipPath
      ><clipPath clipPathUnits="userSpaceOnUse" id="clipPath2"
      ><path d="M290 82 L312 82 L312 104 L290 104 L290 82 Z"
      /></clipPath
      ><clipPath clipPathUnits="userSpaceOnUse" id="clipPath3"
      ><path d="M260 93 C260 99.0751 255.0751 104 249 104 C242.9249 104 238 99.0751 238 93 C238 86.9249 242.9249 82 249 82 C255.0751 82 260 86.9249 260 93 Z"
      /></clipPath
      ><clipPath clipPathUnits="userSpaceOnUse" id="clipPath4"
      ><path d="M208 145 C208 151.0751 203.0751 156 197 156 C190.9249 156 186 151.0751 186 145 C186 138.9249 190.9249 134 197 134 C203.0751 134 208 138.9249 208 145 Z"
      /></clipPath
      ><clipPath clipPathUnits="userSpaceOnUse" id="clipPath5"
      ><path d="M134 134 L156 134 L156 156 L134 156 L134 134 Z"
      /></clipPath
      ><clipPath clipPathUnits="userSpaceOnUse" id="clipPath6"
      ><path d="M104 145 C104 151.0751 99.0751 156 93 156 C86.9249 156 82 151.0751 82 145 C82 138.9249 86.9249 134 93 134 C99.0751 134 104 138.9249 104 145 Z"
      /></clipPath
      ><clipPath clipPathUnits="userSpaceOnUse" id="clipPath7"
      ><path style="fill-rule:evenodd;" d="M41 134 L52 145 L41 156 L30 145 Z"
      /></clipPath
      ><clipPath clipPathUnits="userSpaceOnUse" id="clipPath8"
      ><path d="M208 93 C208 99.0751 203.0751 104 197 104 C190.9249 104 186 99.0751 186 93 C186 86.9249 190.9249 82 197 82 C203.0751 82 208 86.9249 208 93 Z"
      /></clipPath
      ><clipPath clipPathUnits="userSpaceOnUse" id="clipPath9"
      ><path d="M134 82 L156 82 L156 104 L134 104 L134 82 Z"
      /></clipPath
      ><clipPath clipPathUnits="userSpaceOnUse" id="clipPath10"
      ><path d="M104 93 C104 99.0751 99.0751 104 93 104 C86.9249 104 82 99.0751 82 93 C82 86.9249 86.9249 82 93 82 C99.0751 82 104 86.9249 104 93 Z"
      /></clipPath
      ><clipPath clipPathUnits="userSpaceOnUse" id="clipPath11"
      ><path style="fill-rule:evenodd;" d="M41 82 L52 93 L41 104 L30 93 Z"
      /></clipPath
      ><clipPath clipPathUnits="userSpaceOnUse" id="clipPath12"
      ><path d="M186 30 L208 30 L208 52 L186 52 L186 30 Z"
      /></clipPath
      ><clipPath clipPathUnits="userSpaceOnUse" id="clipPath13"
      ><path style="fill-rule:evenodd;" d="M353 52 L342 30 L364 30 Z"
      /></clipPath
    ></defs
    ><g style="fill:white; text-rendering:optimizeSpeed; stroke:white;"
    ><rect x="0" width="470" height="186" y="0" style="stroke:none;"
      /><polygon style="fill:none; stroke:black;" points=" 353 93 301 93"
      /><polygon style="fill:none; stroke:black;" points=" 353 93 353 41"
      /><rect x="342" y="82" width="22" style="clip-path:url(#clipPath1); stroke:none;" height="22"
      /><rect x="342" y="82" width="22" style="clip-path:url(#clipPath1); fill:rgb(0,144,188); stroke:none;" height="22"
      /><rect x="342" y="82" width="22" style="clip-path:url(#clipPath1); fill:none; stroke:black;" height="22"
      /><rect x="342" y="82" width="22" style="fill:none; stroke:black;" height="22"
    /></g
    ><g style="font-style:italic; text-rendering:optimizeSpeed; font-size:10px; font-family:'SansSerif';"
    ><path style="stroke:none;" d="M353 95.125 C354.3281 95.125 355.7344 94.0938 356.125 92.2969 C356.5 90.4844 355.5469 89.4375 354.2188 89.4375 C352.8906 89.4375 351.4688 90.4844 351.0938 92.2969 C350.7031 94.0938 351.6719 95.125 353 95.125 ZM353.1719 94.375 C352.2344 94.375 351.7656 93.5469 352.0312 92.2969 C352.2969 91.0469 353.1094 90.1875 354.0469 90.1875 C354.9844 90.1875 355.4531 91.0469 355.1875 92.2969 C354.9219 93.5469 354.1094 94.375 353.1719 94.375 Z"
      /><polygon style="fill:none;" points=" 301 93 249 93"
    /></g
    ><g style="fill:white; text-rendering:optimizeSpeed; stroke:white;"
    ><rect x="290" y="82" width="22" style="clip-path:url(#clipPath2); stroke:none;" height="22"
      /><rect x="290" y="82" width="22" style="clip-path:url(#clipPath2); fill:rgb(0,144,188); stroke:none;" height="22"
      /><rect x="290" y="82" width="22" style="clip-path:url(#clipPath2); fill:none; stroke:black;" height="22"
      /><rect x="290" y="82" width="22" style="fill:none; stroke:black;" height="22"
      /><polygon style="fill:none; stroke:black;" points=" 249 93 197 145"
      /><polygon style="fill:none; stroke:black;" points=" 249 93 197 93"
      /><polygon style="fill:none; stroke:black;" points=" 249 93 197 41"
      /><circle r="11" style="clip-path:url(#clipPath3); stroke:none;" cx="249" cy="93"
      /><rect x="238" y="82" width="22" style="clip-path:url(#clipPath3); fill:rgb(0,166,81); stroke:none;" height="22"
      /><rect x="238" y="82" width="22" style="clip-path:url(#clipPath3); fill:none; stroke:black;" height="22"
      /><circle r="11" style="fill:none; stroke:black;" cx="249" cy="93"
      /><polygon style="fill:none; stroke:black;" points=" 197 145 145 145"
      /><circle r="11" style="clip-path:url(#clipPath4); stroke:none;" cx="197" cy="145"
      /><rect x="186" y="134" width="22" style="clip-path:url(#clipPath4); fill:rgb(0,166,81); stroke:none;" height="22"
      /><rect x="186" y="134" width="22" style="clip-path:url(#clipPath4); fill:none; stroke:black;" height="22"
      /><circle r="11" style="fill:none; stroke:black;" cx="197" cy="145"
      /><polygon style="fill:none; stroke:black;" points=" 145 145 93 145"
      /><rect x="134" y="134" width="22" style="clip-path:url(#clipPath5); stroke:none;" height="22"
      /><rect x="134" y="134" width="22" style="clip-path:url(#clipPath5); fill:rgb(0,144,188); stroke:none;" height="22"
      /><rect x="134" y="134" width="22" style="clip-path:url(#clipPath5); fill:none; stroke:black;" height="22"
      /><rect x="134" y="134" width="22" style="fill:none; stroke:black;" height="22"
      /><polygon style="fill:none; stroke:black;" points=" 93 145 41 145"
      /><circle r="11" style="clip-path:url(#clipPath6); stroke:none;" cx="93" cy="145"
      /><rect x="82" y="134" width="22" style="clip-path:url(#clipPath6); fill:rgb(255,212,0); stroke:none;" height="22"
      /><rect x="82" y="134" width="22" style="clip-path:url(#clipPath6); fill:none; stroke:black;" height="22"
      /><circle r="11" style="fill:none; stroke:black;" cx="93" cy="145"
      /><polygon style="clip-path:url(#clipPath7); stroke:none;" points=" 41 134 52 145 41 156 30 145"
      /><rect x="30" y="134" width="22" style="clip-path:url(#clipPath7); fill:rgb(161,122,77); stroke:none;" height="22"
      /><rect x="30" y="134" width="22" style="clip-path:url(#clipPath7); fill:none; stroke:black;" height="22"
      /><polygon style="fill:none; stroke:black;" points=" 41 134 52 145 41 156 30 145"
      /><rect x="71" width="5" height="10" y="148" style="stroke:none;"
      /><path d="M72.8906 156.6875 C72.4844 156.6875 72.1562 157.0469 72.1562 157.4219 C72.1562 157.8125 72.4844 158.1562 72.8906 158.1562 C73.2969 158.1562 73.6406 157.8125 73.6406 157.4219 C73.6406 157.0469 73.2969 156.6875 72.8906 156.6875 ZM74.4688 150.5781 C74.7188 150.8906 74.875 151.2656 74.8906 151.6562 C74.8906 152.1875 74.625 152.5 74.0312 152.7656 L73.4062 153.0156 C72.6406 153.3125 72.3906 153.5469 72.3906 153.9375 C72.3906 154.1094 72.4531 154.3438 72.5781 154.8125 L72.7344 155.3438 L73.1094 155.3438 L73.0938 154.5312 C73.0938 154.0938 73.2031 153.9688 73.7812 153.7344 L74.2031 153.5625 C75.0312 153.2188 75.4531 152.6875 75.4531 151.8438 C75.4531 150.1562 73.6562 149.1875 72.5 149.0312 C72.1094 149.125 71.9062 149.2969 71.9062 149.6406 C71.9062 149.9375 72.0625 150.1562 72.7188 150.2656 L74.4688 150.5781 Z" style="fill:black; stroke:none;"
      /><rect x="57" width="5" height="10" y="148" style="stroke:none;"
      /><path d="M58.8906 156.6875 C58.4844 156.6875 58.1562 157.0469 58.1562 157.4219 C58.1562 157.8125 58.4844 158.1562 58.8906 158.1562 C59.2969 158.1562 59.6406 157.8125 59.6406 157.4219 C59.6406 157.0469 59.2969 156.6875 58.8906 156.6875 ZM60.4688 150.5781 C60.7188 150.8906 60.875 151.2656 60.8906 151.6562 C60.8906 152.1875 60.625 152.5 60.0312 152.7656 L59.4062 153.0156 C58.6406 153.3125 58.3906 153.5469 58.3906 153.9375 C58.3906 154.1094 58.4531 154.3438 58.5781 154.8125 L58.7344 155.3438 L59.1094 155.3438 L59.0938 154.5312 C59.0938 154.0938 59.2031 153.9688 59.7812 153.7344 L60.2031 153.5625 C61.0312 153.2188 61.4531 152.6875 61.4531 151.8438 C61.4531 150.1562 59.6562 149.1875 58.5 149.0312 C58.1094 149.125 57.9062 149.2969 57.9062 149.6406 C57.9062 149.9375 58.0625 150.1562 58.7188 150.2656 L60.4688 150.5781 Z" style="fill:black; stroke:none;"
      /><rect x="123" width="5" height="10" y="148" style="stroke:none;"
      /><path d="M124.8906 156.6875 C124.4844 156.6875 124.1562 157.0469 124.1562 157.4219 C124.1562 157.8125 124.4844 158.1562 124.8906 158.1562 C125.2969 158.1562 125.6406 157.8125 125.6406 157.4219 C125.6406 157.0469 125.2969 156.6875 124.8906 156.6875 ZM126.4688 150.5781 C126.7188 150.8906 126.875 151.2656 126.8906 151.6562 C126.8906 152.1875 126.625 152.5 126.0312 152.7656 L125.4062 153.0156 C124.6406 153.3125 124.3906 153.5469 124.3906 153.9375 C124.3906 154.1094 124.4531 154.3438 124.5781 154.8125 L124.7344 155.3438 L125.1094 155.3438 L125.0938 154.5312 C125.0938 154.0938 125.2031 153.9688 125.7812 153.7344 L126.2031 153.5625 C127.0312 153.2188 127.4531 152.6875 127.4531 151.8438 C127.4531 150.1562 125.6562 149.1875 124.5 149.0312 C124.1094 149.125 123.9062 149.2969 123.9062 149.6406 C123.9062 149.9375 124.0625 150.1562 124.7188 150.2656 L126.4688 150.5781 Z" style="fill:black; stroke:none;"
      /><rect x="109" width="5" height="10" y="148" style="stroke:none;"
      /><path d="M110.8906 156.6875 C110.4844 156.6875 110.1562 157.0469 110.1562 157.4219 C110.1562 157.8125 110.4844 158.1562 110.8906 158.1562 C111.2969 158.1562 111.6406 157.8125 111.6406 157.4219 C111.6406 157.0469 111.2969 156.6875 110.8906 156.6875 ZM112.4688 150.5781 C112.7188 150.8906 112.875 151.2656 112.8906 151.6562 C112.8906 152.1875 112.625 152.5 112.0312 152.7656 L111.4062 153.0156 C110.6406 153.3125 110.3906 153.5469 110.3906 153.9375 C110.3906 154.1094 110.4531 154.3438 110.5781 154.8125 L110.7344 155.3438 L111.1094 155.3438 L111.0938 154.5312 C111.0938 154.0938 111.2031 153.9688 111.7812 153.7344 L112.2031 153.5625 C113.0312 153.2188 113.4531 152.6875 113.4531 151.8438 C113.4531 150.1562 111.6562 149.1875 110.5 149.0312 C110.1094 149.125 109.9062 149.2969 109.9062 149.6406 C109.9062 149.9375 110.0625 150.1562 110.7188 150.2656 L112.4688 150.5781 Z" style="fill:black; stroke:none;"
      /><rect x="175" width="5" height="10" y="148" style="stroke:none;"
      /><path d="M176.8906 156.6875 C176.4844 156.6875 176.1562 157.0469 176.1562 157.4219 C176.1562 157.8125 176.4844 158.1562 176.8906 158.1562 C177.2969 158.1562 177.6406 157.8125 177.6406 157.4219 C177.6406 157.0469 177.2969 156.6875 176.8906 156.6875 ZM178.4688 150.5781 C178.7188 150.8906 178.875 151.2656 178.8906 151.6562 C178.8906 152.1875 178.625 152.5 178.0312 152.7656 L177.4062 153.0156 C176.6406 153.3125 176.3906 153.5469 176.3906 153.9375 C176.3906 154.1094 176.4531 154.3438 176.5781 154.8125 L176.7344 155.3438 L177.1094 155.3438 L177.0938 154.5312 C177.0938 154.0938 177.2031 153.9688 177.7812 153.7344 L178.2031 153.5625 C179.0312 153.2188 179.4531 152.6875 179.4531 151.8438 C179.4531 150.1562 177.6562 149.1875 176.5 149.0312 C176.1094 149.125 175.9062 149.2969 175.9062 149.6406 C175.9062 149.9375 176.0625 150.1562 176.7188 150.2656 L178.4688 150.5781 Z" style="fill:black; stroke:none;"
      /><rect x="161" width="5" height="10" y="148" style="stroke:none;"
      /><path d="M162.8906 156.6875 C162.4844 156.6875 162.1562 157.0469 162.1562 157.4219 C162.1562 157.8125 162.4844 158.1562 162.8906 158.1562 C163.2969 158.1562 163.6406 157.8125 163.6406 157.4219 C163.6406 157.0469 163.2969 156.6875 162.8906 156.6875 ZM164.4688 150.5781 C164.7188 150.8906 164.875 151.2656 164.8906 151.6562 C164.8906 152.1875 164.625 152.5 164.0312 152.7656 L163.4062 153.0156 C162.6406 153.3125 162.3906 153.5469 162.3906 153.9375 C162.3906 154.1094 162.4531 154.3438 162.5781 154.8125 L162.7344 155.3438 L163.1094 155.3438 L163.0938 154.5312 C163.0938 154.0938 163.2031 153.9688 163.7812 153.7344 L164.2031 153.5625 C165.0312 153.2188 165.4531 152.6875 165.4531 151.8438 C165.4531 150.1562 163.6562 149.1875 162.5 149.0312 C162.1094 149.125 161.9062 149.2969 161.9062 149.6406 C161.9062 149.9375 162.0625 150.1562 162.7188 150.2656 L164.4688 150.5781 Z" style="fill:black; stroke:none;"
      /><polygon style="fill:none; stroke:black;" points=" 197 93 145 93"
      /><circle r="11" style="clip-path:url(#clipPath8); stroke:none;" cx="197" cy="93"
      /><rect x="186" y="82" width="22" style="clip-path:url(#clipPath8); fill:rgb(0,166,81); stroke:none;" height="22"
      /><rect x="186" y="82" width="22" style="clip-path:url(#clipPath8); fill:none; stroke:black;" height="22"
      /><circle r="11" style="fill:none; stroke:black;" cx="197" cy="93"
      /><polygon style="fill:none; stroke:black;" points=" 145 93 93 93"
      /><rect x="134" y="82" width="22" style="clip-path:url(#clipPath9); stroke:none;" height="22"
      /><rect x="134" y="82" width="22" style="clip-path:url(#clipPath9); fill:rgb(0,144,188); stroke:none;" height="22"
      /><rect x="134" y="82" width="22" style="clip-path:url(#clipPath9); fill:none; stroke:black;" height="22"
      /><rect x="134" y="82" width="22" style="fill:none; stroke:black;" height="22"
      /><polygon style="fill:none; stroke:black;" points=" 93 93 41 93"
      /><circle r="11" style="clip-path:url(#clipPath10); stroke:none;" cx="93" cy="93"
      /><rect x="82" y="82" width="22" style="clip-path:url(#clipPath10); fill:rgb(255,212,0); stroke:none;" height="22"
      /><rect x="82" y="82" width="22" style="clip-path:url(#clipPath10); fill:none; stroke:black;" height="22"
      /><circle r="11" style="fill:none; stroke:black;" cx="93" cy="93"
      /><polygon style="clip-path:url(#clipPath11); stroke:none;" points=" 41 82 52 93 41 104 30 93"
      /><rect x="30" y="82" width="22" style="clip-path:url(#clipPath11); fill:rgb(161,122,77); stroke:none;" height="22"
      /><rect x="30" y="82" width="22" style="clip-path:url(#clipPath11); fill:none; stroke:black;" height="22"
      /><polygon style="fill:none; stroke:black;" points=" 41 82 52 93 41 104 30 93"
      /><rect x="71" width="5" height="10" y="96" style="stroke:none;"
      /><path d="M72.8906 104.6875 C72.4844 104.6875 72.1562 105.0469 72.1562 105.4219 C72.1562 105.8125 72.4844 106.1562 72.8906 106.1562 C73.2969 106.1562 73.6406 105.8125 73.6406 105.4219 C73.6406 105.0469 73.2969 104.6875 72.8906 104.6875 ZM74.4688 98.5781 C74.7188 98.8906 74.875 99.2656 74.8906 99.6562 C74.8906 100.1875 74.625 100.5 74.0312 100.7656 L73.4062 101.0156 C72.6406 101.3125 72.3906 101.5469 72.3906 101.9375 C72.3906 102.1094 72.4531 102.3438 72.5781 102.8125 L72.7344 103.3438 L73.1094 103.3438 L73.0938 102.5312 C73.0938 102.0938 73.2031 101.9688 73.7812 101.7344 L74.2031 101.5625 C75.0312 101.2188 75.4531 100.6875 75.4531 99.8438 C75.4531 98.1562 73.6562 97.1875 72.5 97.0312 C72.1094 97.125 71.9062 97.2969 71.9062 97.6406 C71.9062 97.9375 72.0625 98.1562 72.7188 98.2656 L74.4688 98.5781 Z" style="fill:black; stroke:none;"
      /><rect x="57" width="5" height="10" y="96" style="stroke:none;"
      /><path d="M58.8906 104.6875 C58.4844 104.6875 58.1562 105.0469 58.1562 105.4219 C58.1562 105.8125 58.4844 106.1562 58.8906 106.1562 C59.2969 106.1562 59.6406 105.8125 59.6406 105.4219 C59.6406 105.0469 59.2969 104.6875 58.8906 104.6875 ZM60.4688 98.5781 C60.7188 98.8906 60.875 99.2656 60.8906 99.6562 C60.8906 100.1875 60.625 100.5 60.0312 100.7656 L59.4062 101.0156 C58.6406 101.3125 58.3906 101.5469 58.3906 101.9375 C58.3906 102.1094 58.4531 102.3438 58.5781 102.8125 L58.7344 103.3438 L59.1094 103.3438 L59.0938 102.5312 C59.0938 102.0938 59.2031 101.9688 59.7812 101.7344 L60.2031 101.5625 C61.0312 101.2188 61.4531 100.6875 61.4531 99.8438 C61.4531 98.1562 59.6562 97.1875 58.5 97.0312 C58.1094 97.125 57.9062 97.2969 57.9062 97.6406 C57.9062 97.9375 58.0625 98.1562 58.7188 98.2656 L60.4688 98.5781 Z" style="fill:black; stroke:none;"
      /><rect x="123" width="5" height="10" y="96" style="stroke:none;"
      /><path d="M124.8906 104.6875 C124.4844 104.6875 124.1562 105.0469 124.1562 105.4219 C124.1562 105.8125 124.4844 106.1562 124.8906 106.1562 C125.2969 106.1562 125.6406 105.8125 125.6406 105.4219 C125.6406 105.0469 125.2969 104.6875 124.8906 104.6875 ZM126.4688 98.5781 C126.7188 98.8906 126.875 99.2656 126.8906 99.6562 C126.8906 100.1875 126.625 100.5 126.0312 100.7656 L125.4062 101.0156 C124.6406 101.3125 124.3906 101.5469 124.3906 101.9375 C124.3906 102.1094 124.4531 102.3438 124.5781 102.8125 L124.7344 103.3438 L125.1094 103.3438 L125.0938 102.5312 C125.0938 102.0938 125.2031 101.9688 125.7812 101.7344 L126.2031 101.5625 C127.0312 101.2188 127.4531 100.6875 127.4531 99.8438 C127.4531 98.1562 125.6562 97.1875 124.5 97.0312 C124.1094 97.125 123.9062 97.2969 123.9062 97.6406 C123.9062 97.9375 124.0625 98.1562 124.7188 98.2656 L126.4688 98.5781 Z" style="fill:black; stroke:none;"
      /><rect x="109" width="5" height="10" y="96" style="stroke:none;"
      /><path d="M110.8906 104.6875 C110.4844 104.6875 110.1562 105.0469 110.1562 105.4219 C110.1562 105.8125 110.4844 106.1562 110.8906 106.1562 C111.2969 106.1562 111.6406 105.8125 111.6406 105.4219 C111.6406 105.0469 111.2969 104.6875 110.8906 104.6875 ZM112.4688 98.5781 C112.7188 98.8906 112.875 99.2656 112.8906 99.6562 C112.8906 100.1875 112.625 100.5 112.0312 100.7656 L111.4062 101.0156 C110.6406 101.3125 110.3906 101.5469 110.3906 101.9375 C110.3906 102.1094 110.4531 102.3438 110.5781 102.8125 L110.7344 103.3438 L111.1094 103.3438 L111.0938 102.5312 C111.0938 102.0938 111.2031 101.9688 111.7812 101.7344 L112.2031 101.5625 C113.0312 101.2188 113.4531 100.6875 113.4531 99.8438 C113.4531 98.1562 111.6562 97.1875 110.5 97.0312 C110.1094 97.125 109.9062 97.2969 109.9062 97.6406 C109.9062 97.9375 110.0625 98.1562 110.7188 98.2656 L112.4688 98.5781 Z" style="fill:black; stroke:none;"
      /><rect x="175" width="5" height="10" y="96" style="stroke:none;"
      /><path d="M176.8906 104.6875 C176.4844 104.6875 176.1562 105.0469 176.1562 105.4219 C176.1562 105.8125 176.4844 106.1562 176.8906 106.1562 C177.2969 106.1562 177.6406 105.8125 177.6406 105.4219 C177.6406 105.0469 177.2969 104.6875 176.8906 104.6875 ZM178.4688 98.5781 C178.7188 98.8906 178.875 99.2656 178.8906 99.6562 C178.8906 100.1875 178.625 100.5 178.0312 100.7656 L177.4062 101.0156 C176.6406 101.3125 176.3906 101.5469 176.3906 101.9375 C176.3906 102.1094 176.4531 102.3438 176.5781 102.8125 L176.7344 103.3438 L177.1094 103.3438 L177.0938 102.5312 C177.0938 102.0938 177.2031 101.9688 177.7812 101.7344 L178.2031 101.5625 C179.0312 101.2188 179.4531 100.6875 179.4531 99.8438 C179.4531 98.1562 177.6562 97.1875 176.5 97.0312 C176.1094 97.125 175.9062 97.2969 175.9062 97.6406 C175.9062 97.9375 176.0625 98.1562 176.7188 98.2656 L178.4688 98.5781 Z" style="fill:black; stroke:none;"
      /><rect x="161" width="5" height="10" y="96" style="stroke:none;"
      /><path d="M162.8906 104.6875 C162.4844 104.6875 162.1562 105.0469 162.1562 105.4219 C162.1562 105.8125 162.4844 106.1562 162.8906 106.1562 C163.2969 106.1562 163.6406 105.8125 163.6406 105.4219 C163.6406 105.0469 163.2969 104.6875 162.8906 104.6875 ZM164.4688 98.5781 C164.7188 98.8906 164.875 99.2656 164.8906 99.6562 C164.8906 100.1875 164.625 100.5 164.0312 100.7656 L163.4062 101.0156 C162.6406 101.3125 162.3906 101.5469 162.3906 101.9375 C162.3906 102.1094 162.4531 102.3438 162.5781 102.8125 L162.7344 103.3438 L163.1094 103.3438 L163.0938 102.5312 C163.0938 102.0938 163.2031 101.9688 163.7812 101.7344 L164.2031 101.5625 C165.0312 101.2188 165.4531 100.6875 165.4531 99.8438 C165.4531 98.1562 163.6562 97.1875 162.5 97.0312 C162.1094 97.125 161.9062 97.2969 161.9062 97.6406 C161.9062 97.9375 162.0625 98.1562 162.7188 98.2656 L164.4688 98.5781 Z" style="fill:black; stroke:none;"
      /><rect x="186" y="30" width="22" style="clip-path:url(#clipPath12); stroke:none;" height="22"
      /><rect x="186" y="30" width="22" style="clip-path:url(#clipPath12); fill:rgb(0,144,188); stroke:none;" height="22"
      /><rect x="186" y="30" width="22" style="clip-path:url(#clipPath12); fill:none; stroke:black;" height="22"
      /><rect x="186" y="30" width="22" style="fill:none; stroke:black;" height="22"
      /><rect x="235" width="5" height="10" y="110" style="stroke:none;"
      /><path d="M236.8906 118.6875 C236.4844 118.6875 236.1562 119.0469 236.1562 119.4219 C236.1562 119.8125 236.4844 120.1562 236.8906 120.1562 C237.2969 120.1562 237.6406 119.8125 237.6406 119.4219 C237.6406 119.0469 237.2969 118.6875 236.8906 118.6875 ZM238.4688 112.5781 C238.7188 112.8906 238.875 113.2656 238.8906 113.6562 C238.8906 114.1875 238.625 114.5 238.0312 114.7656 L237.4062 115.0156 C236.6406 115.3125 236.3906 115.5469 236.3906 115.9375 C236.3906 116.1094 236.4531 116.3438 236.5781 116.8125 L236.7344 117.3438 L237.1094 117.3438 L237.0938 116.5312 C237.0938 116.0938 237.2031 115.9688 237.7812 115.7344 L238.2031 115.5625 C239.0312 115.2188 239.4531 114.6875 239.4531 113.8438 C239.4531 112.1562 237.6562 111.1875 236.5 111.0312 C236.1094 111.125 235.9062 111.2969 235.9062 111.6406 C235.9062 111.9375 236.0625 112.1562 236.7188 112.2656 L238.4688 112.5781 Z" style="fill:black; stroke:none;"
      /><rect x="216" width="5" height="10" y="129" style="stroke:none;"
      /><path d="M217.8906 137.6875 C217.4844 137.6875 217.1562 138.0469 217.1562 138.4219 C217.1562 138.8125 217.4844 139.1562 217.8906 139.1562 C218.2969 139.1562 218.6406 138.8125 218.6406 138.4219 C218.6406 138.0469 218.2969 137.6875 217.8906 137.6875 ZM219.4688 131.5781 C219.7188 131.8906 219.875 132.2656 219.8906 132.6562 C219.8906 133.1875 219.625 133.5 219.0312 133.7656 L218.4062 134.0156 C217.6406 134.3125 217.3906 134.5469 217.3906 134.9375 C217.3906 135.1094 217.4531 135.3438 217.5781 135.8125 L217.7344 136.3438 L218.1094 136.3438 L218.0938 135.5312 C218.0938 135.0938 218.2031 134.9688 218.7812 134.7344 L219.2031 134.5625 C220.0312 134.2188 220.4531 133.6875 220.4531 132.8438 C220.4531 131.1562 218.6562 130.1875 217.5 130.0312 C217.1094 130.125 216.9062 130.2969 216.9062 130.6406 C216.9062 130.9375 217.0625 131.1562 217.7188 131.2656 L219.4688 131.5781 Z" style="fill:black; stroke:none;"
      /><rect x="227" width="5" height="10" y="96" style="stroke:none;"
      /><path d="M228.8906 104.6875 C228.4844 104.6875 228.1562 105.0469 228.1562 105.4219 C228.1562 105.8125 228.4844 106.1562 228.8906 106.1562 C229.2969 106.1562 229.6406 105.8125 229.6406 105.4219 C229.6406 105.0469 229.2969 104.6875 228.8906 104.6875 ZM230.4688 98.5781 C230.7188 98.8906 230.875 99.2656 230.8906 99.6562 C230.8906 100.1875 230.625 100.5 230.0312 100.7656 L229.4062 101.0156 C228.6406 101.3125 228.3906 101.5469 228.3906 101.9375 C228.3906 102.1094 228.4531 102.3438 228.5781 102.8125 L228.7344 103.3438 L229.1094 103.3438 L229.0938 102.5312 C229.0938 102.0938 229.2031 101.9688 229.7812 101.7344 L230.2031 101.5625 C231.0312 101.2188 231.4531 100.6875 231.4531 99.8438 C231.4531 98.1562 229.6562 97.1875 228.5 97.0312 C228.1094 97.125 227.9062 97.2969 227.9062 97.6406 C227.9062 97.9375 228.0625 98.1562 228.7188 98.2656 L230.4688 98.5781 Z" style="fill:black; stroke:none;"
      /><rect x="213" width="5" height="10" y="96" style="stroke:none;"
      /><path d="M214.8906 104.6875 C214.4844 104.6875 214.1562 105.0469 214.1562 105.4219 C214.1562 105.8125 214.4844 106.1562 214.8906 106.1562 C215.2969 106.1562 215.6406 105.8125 215.6406 105.4219 C215.6406 105.0469 215.2969 104.6875 214.8906 104.6875 ZM216.4688 98.5781 C216.7188 98.8906 216.875 99.2656 216.8906 99.6562 C216.8906 100.1875 216.625 100.5 216.0312 100.7656 L215.4062 101.0156 C214.6406 101.3125 214.3906 101.5469 214.3906 101.9375 C214.3906 102.1094 214.4531 102.3438 214.5781 102.8125 L214.7344 103.3438 L215.1094 103.3438 L215.0938 102.5312 C215.0938 102.0938 215.2031 101.9688 215.7812 101.7344 L216.2031 101.5625 C217.0312 101.2188 217.4531 100.6875 217.4531 99.8438 C217.4531 98.1562 215.6562 97.1875 214.5 97.0312 C214.1094 97.125 213.9062 97.2969 213.9062 97.6406 C213.9062 97.9375 214.0625 98.1562 214.7188 98.2656 L216.4688 98.5781 Z" style="fill:black; stroke:none;"
      /><rect x="224" width="5" height="10" y="77" style="stroke:none;"
      /><path d="M225.8906 85.6875 C225.4844 85.6875 225.1562 86.0469 225.1562 86.4219 C225.1562 86.8125 225.4844 87.1562 225.8906 87.1562 C226.2969 87.1562 226.6406 86.8125 226.6406 86.4219 C226.6406 86.0469 226.2969 85.6875 225.8906 85.6875 ZM227.4688 79.5781 C227.7188 79.8906 227.875 80.2656 227.8906 80.6562 C227.8906 81.1875 227.625 81.5 227.0312 81.7656 L226.4062 82.0156 C225.6406 82.3125 225.3906 82.5469 225.3906 82.9375 C225.3906 83.1094 225.4531 83.3438 225.5781 83.8125 L225.7344 84.3438 L226.1094 84.3438 L226.0938 83.5312 C226.0938 83.0938 226.2031 82.9688 226.7812 82.7344 L227.2031 82.5625 C228.0312 82.2188 228.4531 81.6875 228.4531 80.8438 C228.4531 79.1562 226.6562 78.1875 225.5 78.0312 C225.1094 78.125 224.9062 78.2969 224.9062 78.6406 C224.9062 78.9375 225.0625 79.1562 225.7188 79.2656 L227.4688 79.5781 Z" style="fill:black; stroke:none;"
      /><rect x="205" width="5" height="10" y="58" style="stroke:none;"
      /><path d="M206.8906 66.6875 C206.4844 66.6875 206.1562 67.0469 206.1562 67.4219 C206.1562 67.8125 206.4844 68.1562 206.8906 68.1562 C207.2969 68.1562 207.6406 67.8125 207.6406 67.4219 C207.6406 67.0469 207.2969 66.6875 206.8906 66.6875 ZM208.4688 60.5781 C208.7188 60.8906 208.875 61.2656 208.8906 61.6562 C208.8906 62.1875 208.625 62.5 208.0312 62.7656 L207.4062 63.0156 C206.6406 63.3125 206.3906 63.5469 206.3906 63.9375 C206.3906 64.1094 206.4531 64.3438 206.5781 64.8125 L206.7344 65.3438 L207.1094 65.3438 L207.0938 64.5312 C207.0938 64.0938 207.2031 63.9688 207.7812 63.7344 L208.2031 63.5625 C209.0312 63.2188 209.4531 62.6875 209.4531 61.8438 C209.4531 60.1562 207.6562 59.1875 206.5 59.0312 C206.1094 59.125 205.9062 59.2969 205.9062 59.6406 C205.9062 59.9375 206.0625 60.1562 206.7188 60.2656 L208.4688 60.5781 Z" style="fill:black; stroke:none;"
      /><rect x="279" width="5" height="10" y="96" style="stroke:none;"
      /><path d="M280.8906 104.6875 C280.4844 104.6875 280.1562 105.0469 280.1562 105.4219 C280.1562 105.8125 280.4844 106.1562 280.8906 106.1562 C281.2969 106.1562 281.6406 105.8125 281.6406 105.4219 C281.6406 105.0469 281.2969 104.6875 280.8906 104.6875 ZM282.4688 98.5781 C282.7188 98.8906 282.875 99.2656 282.8906 99.6562 C282.8906 100.1875 282.625 100.5 282.0312 100.7656 L281.4062 101.0156 C280.6406 101.3125 280.3906 101.5469 280.3906 101.9375 C280.3906 102.1094 280.4531 102.3438 280.5781 102.8125 L280.7344 103.3438 L281.1094 103.3438 L281.0938 102.5312 C281.0938 102.0938 281.2031 101.9688 281.7812 101.7344 L282.2031 101.5625 C283.0312 101.2188 283.4531 100.6875 283.4531 99.8438 C283.4531 98.1562 281.6562 97.1875 280.5 97.0312 C280.1094 97.125 279.9062 97.2969 279.9062 97.6406 C279.9062 97.9375 280.0625 98.1562 280.7188 98.2656 L282.4688 98.5781 Z" style="fill:black; stroke:none;"
      /><rect x="265" width="5" height="10" y="96" style="stroke:none;"
      /><path d="M266.8906 104.6875 C266.4844 104.6875 266.1562 105.0469 266.1562 105.4219 C266.1562 105.8125 266.4844 106.1562 266.8906 106.1562 C267.2969 106.1562 267.6406 105.8125 267.6406 105.4219 C267.6406 105.0469 267.2969 104.6875 266.8906 104.6875 ZM268.4688 98.5781 C268.7188 98.8906 268.875 99.2656 268.8906 99.6562 C268.8906 100.1875 268.625 100.5 268.0312 100.7656 L267.4062 101.0156 C266.6406 101.3125 266.3906 101.5469 266.3906 101.9375 C266.3906 102.1094 266.4531 102.3438 266.5781 102.8125 L266.7344 103.3438 L267.1094 103.3438 L267.0938 102.5312 C267.0938 102.0938 267.2031 101.9688 267.7812 101.7344 L268.2031 101.5625 C269.0312 101.2188 269.4531 100.6875 269.4531 99.8438 C269.4531 98.1562 267.6562 97.1875 266.5 97.0312 C266.1094 97.125 265.9062 97.2969 265.9062 97.6406 C265.9062 97.9375 266.0625 98.1562 266.7188 98.2656 L268.4688 98.5781 Z" style="fill:black; stroke:none;"
      /><polygon style="clip-path:url(#clipPath13); stroke:none;" points=" 353 52 342 30 364 30"
      /><rect x="342" y="30" width="22" style="clip-path:url(#clipPath13); fill:rgb(237,28,36); stroke:none;" height="22"
      /><rect x="342" y="30" width="22" style="clip-path:url(#clipPath13); fill:none; stroke:black;" height="22"
      /><polygon style="fill:none; stroke:black;" points=" 353 52 342 30 364 30"
      /><rect x="331" width="5" height="10" y="96" style="stroke:none;"
      /><path d="M332.8906 104.6875 C332.4844 104.6875 332.1562 105.0469 332.1562 105.4219 C332.1562 105.8125 332.4844 106.1562 332.8906 106.1562 C333.2969 106.1562 333.6406 105.8125 333.6406 105.4219 C333.6406 105.0469 333.2969 104.6875 332.8906 104.6875 ZM334.4688 98.5781 C334.7188 98.8906 334.875 99.2656 334.8906 99.6562 C334.8906 100.1875 334.625 100.5 334.0312 100.7656 L333.4062 101.0156 C332.6406 101.3125 332.3906 101.5469 332.3906 101.9375 C332.3906 102.1094 332.4531 102.3438 332.5781 102.8125 L332.7344 103.3438 L333.1094 103.3438 L333.0938 102.5312 C333.0938 102.0938 333.2031 101.9688 333.7812 101.7344 L334.2031 101.5625 C335.0312 101.2188 335.4531 100.6875 335.4531 99.8438 C335.4531 98.1562 333.6562 97.1875 332.5 97.0312 C332.1094 97.125 331.9062 97.2969 331.9062 97.6406 C331.9062 97.9375 332.0625 98.1562 332.7188 98.2656 L334.4688 98.5781 Z" style="fill:black; stroke:none;"
      /><rect x="317" width="5" height="10" y="96" style="stroke:none;"
      /><path d="M318.8906 104.6875 C318.4844 104.6875 318.1562 105.0469 318.1562 105.4219 C318.1562 105.8125 318.4844 106.1562 318.8906 106.1562 C319.2969 106.1562 319.6406 105.8125 319.6406 105.4219 C319.6406 105.0469 319.2969 104.6875 318.8906 104.6875 ZM320.4688 98.5781 C320.7188 98.8906 320.875 99.2656 320.8906 99.6562 C320.8906 100.1875 320.625 100.5 320.0312 100.7656 L319.4062 101.0156 C318.6406 101.3125 318.3906 101.5469 318.3906 101.9375 C318.3906 102.1094 318.4531 102.3438 318.5781 102.8125 L318.7344 103.3438 L319.1094 103.3438 L319.0938 102.5312 C319.0938 102.0938 319.2031 101.9688 319.7812 101.7344 L320.2031 101.5625 C321.0312 101.2188 321.4531 100.6875 321.4531 99.8438 C321.4531 98.1562 319.6562 97.1875 318.5 97.0312 C318.1094 97.125 317.9062 97.2969 317.9062 97.6406 C317.9062 97.9375 318.0625 98.1562 318.7188 98.2656 L320.4688 98.5781 Z" style="fill:black; stroke:none;"
      /><rect x="342" width="5" height="10" y="69" style="stroke:none;"
      /><path d="M343.8906 77.6875 C343.4844 77.6875 343.1562 78.0469 343.1562 78.4219 C343.1562 78.8125 343.4844 79.1562 343.8906 79.1562 C344.2969 79.1562 344.6406 78.8125 344.6406 78.4219 C344.6406 78.0469 344.2969 77.6875 343.8906 77.6875 ZM345.4688 71.5781 C345.7188 71.8906 345.875 72.2656 345.8906 72.6562 C345.8906 73.1875 345.625 73.5 345.0312 73.7656 L344.4062 74.0156 C343.6406 74.3125 343.3906 74.5469 343.3906 74.9375 C343.3906 75.1094 343.4531 75.3438 343.5781 75.8125 L343.7344 76.3438 L344.1094 76.3438 L344.0938 75.5312 C344.0938 75.0938 344.2031 74.9688 344.7812 74.7344 L345.2031 74.5625 C346.0312 74.2188 346.4531 73.6875 346.4531 72.8438 C346.4531 71.1562 344.6562 70.1875 343.5 70.0312 C343.1094 70.125 342.9062 70.2969 342.9062 70.6406 C342.9062 70.9375 343.0625 71.1562 343.7188 71.2656 L345.4688 71.5781 Z" style="fill:black; stroke:none;"
      /><rect x="342" width="5" height="10" y="55" style="stroke:none;"
      /><path d="M343.8906 63.6875 C343.4844 63.6875 343.1562 64.0469 343.1562 64.4219 C343.1562 64.8125 343.4844 65.1562 343.8906 65.1562 C344.2969 65.1562 344.6406 64.8125 344.6406 64.4219 C344.6406 64.0469 344.2969 63.6875 343.8906 63.6875 ZM345.4688 57.5781 C345.7188 57.8906 345.875 58.2656 345.8906 58.6562 C345.8906 59.1875 345.625 59.5 345.0312 59.7656 L344.4062 60.0156 C343.6406 60.3125 343.3906 60.5469 343.3906 60.9375 C343.3906 61.1094 343.4531 61.3438 343.5781 61.8125 L343.7344 62.3438 L344.1094 62.3438 L344.0938 61.5312 C344.0938 61.0938 344.2031 60.9688 344.7812 60.7344 L345.2031 60.5625 C346.0312 60.2188 346.4531 59.6875 346.4531 58.8438 C346.4531 57.1562 344.6562 56.1875 343.5 56.0312 C343.1094 56.125 342.9062 56.2969 342.9062 56.6406 C342.9062 56.9375 343.0625 57.1562 343.7188 57.2656 L345.4688 57.5781 Z" style="fill:black; stroke:none;"
    /></g
  ></g
></svg
>
