<?xml version="1.0"?>
<!DOCTYPE svg PUBLIC '-//W3C//DTD SVG 1.0//EN'
          'http://www.w3.org/TR/2001/REC-SVG-20010904/DTD/svg10.dtd'>
<svg xmlns:xlink="http://www.w3.org/1999/xlink" style="fill-opacity:1; color-rendering:auto; color-interpolation:auto; text-rendering:auto; stroke:black; stroke-linecap:square; stroke-miterlimit:10; shape-rendering:auto; stroke-opacity:1; fill:black; stroke-dasharray:none; font-weight:normal; stroke-width:1; font-family:'Dialog'; font-style:normal; stroke-linejoin:miter; font-size:12px; stroke-dashoffset:0; image-rendering:auto;" viewBox="0 0 344 180" xmlns="http://www.w3.org/2000/svg"
><!--Generated by the Batik Graphics2D SVG Generator--><defs id="genericDefs"
  /><g
  ><defs id="defs1"
    ><clipPath clipPathUnits="userSpaceOnUse" id="clipPath1"
      ><path style="fill-rule:evenodd;" d="M245 68 L251 68 L251 112 L245 112 L251 112 L251 68 Z"
      /></clipPath
      ><clipPath clipPathUnits="userSpaceOnUse" id="clipPath2"
      ><path d="M210 90 C210 96.0751 205.0751 101 199 101 C192.9249 101 188 96.0751 188 90 C188 83.9249 192.9249 79 199 79 C205.0751 79 210 83.9249 210 90 Z"
      /></clipPath
      ><clipPath clipPathUnits="userSpaceOnUse" id="clipPath3"
      ><path style="fill-rule:evenodd;" d="M146 79 L157 101 L135 101 Z"
      /></clipPath
      ><clipPath clipPathUnits="userSpaceOnUse" id="clipPath4"
      ><path style="fill-rule:evenodd;" d="M98 138 L93 138 L93 94 L98 94 L93 94 L93 138 Z"
      /></clipPath
      ><clipPath clipPathUnits="userSpaceOnUse" id="clipPath5"
      ><path d="M104 41 C104 47.0751 99.0751 52 93 52 C86.9249 52 82 47.0751 82 41 C82 34.9249 86.9249 30 93 30 C99.0751 30 104 34.9249 104 41 Z"
      /></clipPath
      ><clipPath clipPathUnits="userSpaceOnUse" id="clipPath6"
      ><path style="fill-rule:evenodd;" d="M41 30 L52 41 L41 52 L30 41 Z"
      /></clipPath
    ></defs
    ><g style="fill:white; text-rendering:optimizeSpeed; stroke:white;"
    ><rect x="0" width="344" height="180" y="0" style="stroke:none;"
      /><polygon style="fill:none; stroke:black;" points=" 303 90 251 90"
      /><path d="M303 79 C297.5 84.5 308.5 95.5 303 101" style="fill:none; stroke:black;"
      /><polygon style="fill:none; stroke:black;" points=" 251 90 199 90"
      /><polygon style="clip-path:url(#clipPath1); stroke:none;" points=" 245 68 251 68 251 112 245 112 251 112 251 68"
      /><rect x="240" y="56" width="22" style="clip-path:url(#clipPath1); fill:black; stroke:none;" height="68"
      /><rect x="240" y="56" width="22" style="clip-path:url(#clipPath1); fill:none; stroke:black;" height="68"
      /><polygon style="fill:none; stroke:black;" points=" 245 68 251 68 251 112 245 112 251 112 251 68"
      /><polygon style="fill:none; stroke:black;" points=" 199 90 146 90"
      /><circle style="clip-path:url(#clipPath2); stroke:none;" r="11" cx="199" cy="90"
      /><rect x="188" y="79" width="22" style="clip-path:url(#clipPath2); fill:rgb(0,144,188); stroke:none;" height="22"
      /><rect x="188" y="79" width="22" style="clip-path:url(#clipPath2); fill:none; stroke:black;" height="22"
      /><circle style="fill:none; stroke:black;" r="11" cx="199" cy="90"
      /><polygon style="fill:none; stroke:black;" points=" 146 90 93 116"
      /><polygon style="fill:none; stroke:black;" points=" 146 90 93 41"
      /><polygon style="clip-path:url(#clipPath3); stroke:none;" points=" 146 79 157 101 135 101"
      /><rect x="135" y="79" width="22" style="clip-path:url(#clipPath3); fill:rgb(0,166,81); stroke:none;" height="22"
      /><rect x="135" y="79" width="22" style="clip-path:url(#clipPath3); fill:none; stroke:black;" height="22"
      /><polygon style="fill:none; stroke:black;" points=" 146 79 157 101 135 101"
      /><rect x="134" y="107" width="22" style="stroke:none;" height="10"
    /></g
    ><g style="text-rendering:optimizeSpeed; font-size:14px; font-family:'SansSerif';"
    ><path style="stroke:none;" d="M134.6094 118 L141.0625 118 L141.0625 116.8906 L138.2344 116.8906 C137.7031 116.8906 137.0781 116.9531 136.5469 116.9844 C138.9531 114.7031 140.5625 112.625 140.5625 110.5781 C140.5625 108.75 139.4219 107.5469 137.5781 107.5469 C136.2812 107.5469 135.4062 108.1406 134.5625 109.0469 L135.2969 109.7812 C135.8594 109.1094 136.5938 108.5938 137.4375 108.5938 C138.7031 108.5938 139.3125 109.4531 139.3125 110.625 C139.3125 112.3906 137.8438 114.4375 134.6094 117.25 L134.6094 118 ZM144.9418 112.2656 C145.3168 111.0938 145.645 109.9844 145.9731 108.7812 L146.02 108.7812 C146.3637 109.9844 146.6762 111.0938 147.0668 112.2656 L147.5512 113.8281 L144.4418 113.8281 L144.9418 112.2656 ZM141.8168 118 L143.1293 118 L144.1293 114.8594 L147.8793 114.8594 L148.8481 118 L150.2231 118 L146.7387 107.7188 L145.3012 107.7188 L141.8168 118 ZM154.5492 118.1875 C155.4554 118.1875 156.3304 117.8281 157.0179 117.2188 L156.4554 116.3594 C155.9867 116.7969 155.3617 117.125 154.6586 117.125 C153.2679 117.125 152.3148 115.9531 152.3148 114.2031 C152.3148 112.4531 153.3148 111.2656 154.7054 111.2656 C155.3148 111.2656 155.7679 111.5469 156.2211 111.9375 L156.8773 111.0938 C156.3304 110.625 155.6429 110.2031 154.6429 110.2031 C152.7054 110.2031 150.9867 111.6719 150.9867 114.2031 C150.9867 116.7188 152.5336 118.1875 154.5492 118.1875 Z"
    /></g
    ><g style="fill:white; text-rendering:optimizeSpeed; stroke:white;"
    ><polygon style="stroke:none; clip-path:url(#clipPath4);" points=" 98 138 93 138 93 94 98 94 93 94 93 138"
      /><rect x="82" y="82" width="22" style="clip-path:url(#clipPath4); fill:black; stroke:none;" height="68"
      /><rect x="82" y="82" width="22" style="clip-path:url(#clipPath4); fill:none; stroke:black;" height="68"
      /><polygon style="fill:none; stroke:black;" points=" 98 138 93 138 93 94 98 94 93 94 93 138"
      /><path d="M95.5469 147.9531 C95.5156 147.2969 95.5 146.3906 95.5 145.7656 L95.5 144.5156 C95.5 142.8281 94.9531 142.1562 93.8594 142.1562 C93.0625 142.1562 92.1562 142.625 91.4531 143.4062 L91.3594 142.2969 L91.2031 142.1719 L89.4688 142.8125 L89.4688 143.2031 L90.5312 143.2812 C90.5625 143.8438 90.5781 144.3438 90.5781 145.1094 L90.5781 145.7656 C90.5781 146.375 90.5781 147.2969 90.5469 147.9688 L89.5469 148.1094 L89.5469 148.5 L92.4688 148.5 L92.4688 148.1094 L91.5156 147.9531 C91.5156 147.2969 91.5 146.375 91.5 145.7656 L91.5 143.875 C92.2656 143.1562 92.875 142.9062 93.4688 142.9062 C94.2344 142.9062 94.5938 143.3125 94.5938 144.5625 L94.5938 145.7656 C94.5938 146.3906 94.5781 147.3125 94.5625 147.9688 L93.5469 148.1094 L93.5469 148.5 L96.4844 148.5 L96.4844 148.1094 L95.5469 147.9531 Z" style="fill:black; stroke:none;"
      /><polygon style="fill:none; stroke:black;" points=" 93 41 41 41"
      /><circle r="11" style="clip-path:url(#clipPath5); stroke:none;" cx="93" cy="41"
      /><rect x="82" y="30" width="22" style="clip-path:url(#clipPath5); fill:rgb(255,212,0); stroke:none;" height="22"
      /><rect x="82" y="30" width="22" style="clip-path:url(#clipPath5); fill:none; stroke:black;" height="22"
      /><circle r="11" style="fill:none; stroke:black;" cx="93" cy="41"
      /><polygon style="clip-path:url(#clipPath6); stroke:none;" points=" 41 30 52 41 41 52 30 41"
      /><rect x="30" y="30" width="22" style="clip-path:url(#clipPath6); fill:rgb(0,144,188); stroke:none;" height="11"
      /><rect x="30" y="30" width="22" style="clip-path:url(#clipPath6); fill:none; stroke:black;" height="11"
      /><polygon style="fill:none; stroke:black;" points=" 41 30 52 41 41 52 30 41"
      /><rect x="71" width="6" height="10" y="44" style="stroke:none;"
      /><path d="M73.2344 45.6562 C73.5156 45.5938 73.7656 45.5625 74.0156 45.5625 C75.0625 45.5625 75.6719 46.1719 75.6719 47.2656 C75.6719 48.4375 74.9062 49.1094 73.7031 49.1094 L73.1875 49.1094 L73.1875 49.6406 L73.7969 49.6406 C75.2188 49.6406 75.9062 50.4219 75.9062 51.6406 C75.9062 52.8438 75.1719 53.6875 73.875 53.6875 C73.6094 53.6875 73.3125 53.6562 73.0156 53.5625 L72.7812 52.8125 C72.625 52.2812 72.5 52.0469 72.1406 52.0469 C71.8906 52.0469 71.7031 52.1719 71.5781 52.4219 C71.8438 53.6406 72.7812 54.1719 74.0312 54.1719 C75.7188 54.1719 76.875 53.125 76.875 51.7031 C76.875 50.5 76.2031 49.625 74.7969 49.375 C75.9531 49.0156 76.6094 48.2031 76.6094 47.2031 C76.6094 45.9219 75.6719 45.0781 74.1875 45.0781 C73.0469 45.0781 72.0625 45.5938 71.7969 46.6875 C71.9062 47 72.1094 47.1094 72.3594 47.1094 C72.7344 47.1094 72.8906 46.8906 73 46.4062 L73.2344 45.6562 Z" style="fill:black; stroke:none;"
      /><rect x="56" width="8" height="8" y="45" style="stroke:none;"
      /><path d="M60.9844 50.7031 C60.9375 51.8906 60.1562 52.6562 59.3125 52.6562 C58.2656 52.6562 57.5 51.6875 57.5 49.7188 C57.5 48.2812 58.1562 47.1562 59.3438 47.1562 C60.1406 47.1562 60.7812 47.6875 61.0938 48.6406 L60.9844 50.7031 ZM62.9062 52.2812 C62.7344 52.375 62.5469 52.4219 62.3438 52.4219 C61.9531 52.4219 61.75 52.2188 61.75 51.4219 C61.75 50.4844 61.9688 48.5312 62.1875 46.8281 L62.0312 46.7188 L61.2344 46.9219 L61.1406 47.7969 C60.7812 47.0312 60.1562 46.6562 59.3906 46.6562 C58.0469 46.6562 56.5625 47.8438 56.5625 49.9531 C56.5625 52.0938 57.7188 53.1719 59.1406 53.1719 C60.0156 53.1719 60.6875 52.8125 61.0938 51.9844 C61.2031 52.8594 61.5156 53.1719 62.0156 53.1719 C62.4688 53.1719 62.7969 52.9062 63.0156 52.5625 L62.9062 52.2812 Z" style="fill:black; stroke:none;"
      /><rect x="126" width="7" height="9" y="102" style="stroke:none;"
      /><path d="M127 107.5156 L129.9531 103.2656 L129.9531 107.5156 L127 107.5156 ZM132.2812 107.5156 L130.8594 107.5156 L130.8594 102.125 L130.2344 102.125 L126.3438 107.6406 L126.3438 108.1875 L129.9531 108.1875 L129.9531 111 L130.8594 111 L130.8594 108.1875 L132.2812 108.1875 L132.2812 107.5156 Z" style="fill:black; stroke:none;"
      /><rect x="119" width="6" height="10" y="74" style="stroke:none;"
      /><path d="M121.2344 75.6562 C121.5156 75.5938 121.7656 75.5625 122.0156 75.5625 C123.0625 75.5625 123.6719 76.1719 123.6719 77.2656 C123.6719 78.4375 122.9062 79.1094 121.7031 79.1094 L121.1875 79.1094 L121.1875 79.6406 L121.7969 79.6406 C123.2188 79.6406 123.9062 80.4219 123.9062 81.6406 C123.9062 82.8438 123.1719 83.6875 121.875 83.6875 C121.6094 83.6875 121.3125 83.6562 121.0156 83.5625 L120.7812 82.8125 C120.625 82.2812 120.5 82.0469 120.1406 82.0469 C119.8906 82.0469 119.7031 82.1719 119.5781 82.4219 C119.8438 83.6406 120.7812 84.1719 122.0312 84.1719 C123.7188 84.1719 124.875 83.125 124.875 81.7031 C124.875 80.5 124.2031 79.625 122.7969 79.375 C123.9531 79.0156 124.6094 78.2031 124.6094 77.2031 C124.6094 75.9219 123.6719 75.0781 122.1875 75.0781 C121.0469 75.0781 120.0625 75.5938 119.7969 76.6875 C119.9062 77 120.1094 77.1094 120.3594 77.1094 C120.7344 77.1094 120.8906 76.8906 121 76.4062 L121.2344 75.6562 Z" style="fill:black; stroke:none;"
      /><rect x="100" width="8" height="8" y="58" style="stroke:none;"
      /><path d="M104.9844 63.7031 C104.9375 64.8906 104.1562 65.6562 103.3125 65.6562 C102.2656 65.6562 101.5 64.6875 101.5 62.7188 C101.5 61.2812 102.1562 60.1562 103.3438 60.1562 C104.1406 60.1562 104.7812 60.6875 105.0938 61.6406 L104.9844 63.7031 ZM106.9062 65.2812 C106.7344 65.375 106.5469 65.4219 106.3438 65.4219 C105.9531 65.4219 105.75 65.2188 105.75 64.4219 C105.75 63.4844 105.9688 61.5312 106.1875 59.8281 L106.0312 59.7188 L105.2344 59.9219 L105.1406 60.7969 C104.7812 60.0312 104.1562 59.6562 103.3906 59.6562 C102.0469 59.6562 100.5625 60.8438 100.5625 62.9531 C100.5625 65.0938 101.7188 66.1719 103.1406 66.1719 C104.0156 66.1719 104.6875 65.8125 105.0938 64.9844 C105.2031 65.8594 105.5156 66.1719 106.0156 66.1719 C106.4688 66.1719 106.7969 65.9062 107.0156 65.5625 L106.9062 65.2812 Z" style="fill:black; stroke:none;"
      /><rect x="177" width="6" height="10" y="93" style="stroke:none;"
      /><path d="M179.2344 94.6562 C179.5156 94.5938 179.7656 94.5625 180.0156 94.5625 C181.0625 94.5625 181.6719 95.1719 181.6719 96.2656 C181.6719 97.4375 180.9062 98.1094 179.7031 98.1094 L179.1875 98.1094 L179.1875 98.6406 L179.7969 98.6406 C181.2188 98.6406 181.9062 99.4219 181.9062 100.6406 C181.9062 101.8438 181.1719 102.6875 179.875 102.6875 C179.6094 102.6875 179.3125 102.6562 179.0156 102.5625 L178.7812 101.8125 C178.625 101.2812 178.5 101.0469 178.1406 101.0469 C177.8906 101.0469 177.7031 101.1719 177.5781 101.4219 C177.8438 102.6406 178.7812 103.1719 180.0312 103.1719 C181.7188 103.1719 182.875 102.125 182.875 100.7031 C182.875 99.5 182.2031 98.625 180.7969 98.375 C181.9531 98.0156 182.6094 97.2031 182.6094 96.2031 C182.6094 94.9219 181.6719 94.0781 180.1875 94.0781 C179.0469 94.0781 178.0625 94.5938 177.7969 95.6875 C177.9062 96 178.1094 96.1094 178.3594 96.1094 C178.7344 96.1094 178.8906 95.8906 179 95.4062 L179.2344 94.6562 Z" style="fill:black; stroke:none;"
      /><rect x="162" width="8" height="8" y="94" style="stroke:none;"
      /><path d="M166.9844 99.7031 C166.9375 100.8906 166.1562 101.6562 165.3125 101.6562 C164.2656 101.6562 163.5 100.6875 163.5 98.7188 C163.5 97.2812 164.1562 96.1562 165.3438 96.1562 C166.1406 96.1562 166.7812 96.6875 167.0938 97.6406 L166.9844 99.7031 ZM168.9062 101.2812 C168.7344 101.375 168.5469 101.4219 168.3438 101.4219 C167.9531 101.4219 167.75 101.2188 167.75 100.4219 C167.75 99.4844 167.9688 97.5312 168.1875 95.8281 L168.0312 95.7188 L167.2344 95.9219 L167.1406 96.7969 C166.7812 96.0312 166.1562 95.6562 165.3906 95.6562 C164.0469 95.6562 162.5625 96.8438 162.5625 98.9531 C162.5625 101.0938 163.7188 102.1719 165.1406 102.1719 C166.0156 102.1719 166.6875 101.8125 167.0938 100.9844 C167.2031 101.8594 167.5156 102.1719 168.0156 102.1719 C168.4688 102.1719 168.7969 101.9062 169.0156 101.5625 L168.9062 101.2812 Z" style="fill:black; stroke:none;"
      /><rect x="215" width="6" height="13" y="91" style="stroke:none;"
      /><path d="M217.0938 97.2031 C217.0938 95.6562 217.75 94.8125 218.7969 94.8125 C219.7188 94.8125 220.2656 95.4531 220.2656 96.5156 C220.2656 97.7188 219.5 98.4375 218.1875 98.7031 L218.2969 99.3125 C220.2188 99.2344 220.9375 100.2188 220.9375 101.4375 C220.9375 102.625 220.2344 103.4219 218.9531 103.4219 C218.25 103.4219 217.6562 103.1562 217.0938 102.7188 L217.0938 97.2031 ZM216.2031 103.9062 L216.1094 106.375 L216.2656 106.4844 L217.1562 106.2656 L217.0156 103.0938 C217.5469 103.8438 218.3594 104.1719 219.1719 104.1719 C220.5625 104.1719 221.8594 103.2188 221.8594 101.4844 C221.8594 99.9531 220.875 99.1094 219.125 99 C220.5625 98.6094 221.1875 97.4531 221.1875 96.4844 C221.1875 95.0938 220.1562 94.3125 218.9062 94.3125 C217.2969 94.3125 216.2188 95.5469 216.2188 97.5156 L216.2031 103.9062 Z" style="fill:black; stroke:none;"
    /></g
  ></g
></svg
>
