<?xml version="1.0"?>
<!DOCTYPE svg PUBLIC '-//W3C//DTD SVG 1.0//EN'
          'http://www.w3.org/TR/2001/REC-SVG-20010904/DTD/svg10.dtd'>
<svg xmlns:xlink="http://www.w3.org/1999/xlink" style="fill-opacity:1; color-rendering:auto; color-interpolation:auto; text-rendering:auto; stroke:black; stroke-linecap:square; stroke-miterlimit:10; shape-rendering:auto; stroke-opacity:1; fill:black; stroke-dasharray:none; font-weight:normal; stroke-width:1; font-family:'Dialog'; font-style:normal; stroke-linejoin:miter; font-size:12px; stroke-dashoffset:0; image-rendering:auto;" viewBox="0 0 146 105" xmlns="http://www.w3.org/2000/svg"
><!--Generated by the Batik Graphics2D SVG Generator--><defs id="genericDefs"
  /><g
  ><defs id="defs1"
    ><clipPath clipPathUnits="userSpaceOnUse" id="clipPath1"
      ><path style="fill-rule:evenodd;" d="M47 30 L58 52 L36 52 Z"
      /></clipPath
    ></defs
    ><g style="fill:white; text-rendering:optimizeSpeed; stroke:white;"
    ><rect x="0" width="146" height="105" y="0" style="stroke:none;"
      /><polygon style="fill:none; stroke:black;" points=" 105 41 47 41"
      /><path d="M105 30 C99.5 35.5 110.5 46.5 105 52" style="fill:none; stroke:black;"
      /><polygon style="clip-path:url(#clipPath1); stroke:none;" points=" 47 30 58 52 36 52"
      /><rect x="36" y="30" width="22" style="clip-path:url(#clipPath1); fill:rgb(0,166,81); stroke:none;" height="22"
      /><rect x="36" y="30" width="22" style="clip-path:url(#clipPath1); fill:none; stroke:black;" height="22"
      /><polygon style="fill:none; stroke:black;" points=" 47 30 58 52 36 52"
    /></g
    ><g style="text-rendering:optimizeSpeed; font-size:10px; font-family:'SansSerif';"
    ><path style="stroke:none;" d="M45 44 L46.875 44 C49.0938 44 50.2969 42.625 50.2969 40.3125 C50.2969 37.9844 49.0938 36.6562 46.8438 36.6562 L45 36.6562 L45 44 ZM45.9375 43.2344 L45.9375 37.4219 L46.7656 37.4219 C48.4844 37.4219 49.3438 38.4531 49.3438 40.3125 C49.3438 42.1562 48.4844 43.2344 46.7656 43.2344 L45.9375 43.2344 Z"
      /><rect x="30" y="58" width="32" style="fill:white; stroke:none;" height="10"
      /><path style="stroke:none;" d="M33.7031 69.1875 C35.5156 69.1875 36.9844 68.0938 36.9844 66.25 C36.9844 64.8594 36.0156 63.9375 34.8125 63.6562 L34.8125 63.5938 C35.8906 63.1875 36.6406 62.3594 36.6406 61.125 C36.6406 59.5 35.375 58.5469 33.6562 58.5469 C32.4688 58.5469 31.5469 59.0625 30.7812 59.7812 L31.4688 60.5938 C32.0469 60 32.7656 59.5938 33.5938 59.5938 C34.6562 59.5938 35.3281 60.2344 35.3281 61.2188 C35.3281 62.3281 34.6094 63.1719 32.4844 63.1719 L32.4844 64.1562 C34.8594 64.1562 35.6875 64.9844 35.6875 66.2031 C35.6875 67.3906 34.8125 68.125 33.5938 68.125 C32.4375 68.125 31.6562 67.5781 31.0469 66.9375 L30.4062 67.7812 C31.0781 68.5156 32.0938 69.1875 33.7031 69.1875 ZM39.1762 69 L40.395 69 L40.395 63.6094 C40.395 62.5312 40.3012 61.4375 40.2543 60.4062 L40.3012 60.4062 L41.4106 62.5156 L45.145 69 L46.4731 69 L46.4731 58.7188 L45.2387 58.7188 L45.2387 64.0781 C45.2387 65.1406 45.3481 66.2812 45.4106 67.3125 L45.3481 67.3125 L44.2543 65.2031 L40.52 58.7188 L39.1762 58.7188 L39.1762 69 ZM51.0498 63.2656 C51.4248 62.0938 51.7529 60.9844 52.0811 59.7812 L52.1279 59.7812 C52.4717 60.9844 52.7842 62.0938 53.1748 63.2656 L53.6592 64.8281 L50.5498 64.8281 L51.0498 63.2656 ZM47.9248 69 L49.2373 69 L50.2373 65.8594 L53.9873 65.8594 L54.9561 69 L56.3311 69 L52.8467 58.7188 L51.4092 58.7188 L47.9248 69 ZM60.6572 69.1875 C61.5634 69.1875 62.4384 68.8281 63.1259 68.2188 L62.5634 67.3594 C62.0947 67.7969 61.4697 68.125 60.7665 68.125 C59.3759 68.125 58.4228 66.9531 58.4228 65.2031 C58.4228 63.4531 59.4228 62.2656 60.8134 62.2656 C61.4228 62.2656 61.8759 62.5469 62.329 62.9375 L62.9853 62.0938 C62.4384 61.625 61.7509 61.2031 60.7509 61.2031 C58.8134 61.2031 57.0947 62.6719 57.0947 65.2031 C57.0947 67.7188 58.6415 69.1875 60.6572 69.1875 Z"
    /></g
    ><g style="fill:white; text-rendering:optimizeSpeed; font-family:'Serif'; stroke:white;"
    ><rect x="69" width="5" height="10" y="44" style="stroke:none;"
      /><path d="M70.8906 52.6875 C70.4844 52.6875 70.1562 53.0469 70.1562 53.4219 C70.1562 53.8125 70.4844 54.1562 70.8906 54.1562 C71.2969 54.1562 71.6406 53.8125 71.6406 53.4219 C71.6406 53.0469 71.2969 52.6875 70.8906 52.6875 ZM72.4688 46.5781 C72.7188 46.8906 72.875 47.2656 72.8906 47.6562 C72.8906 48.1875 72.625 48.5 72.0312 48.7656 L71.4062 49.0156 C70.6406 49.3125 70.3906 49.5469 70.3906 49.9375 C70.3906 50.1094 70.4531 50.3438 70.5781 50.8125 L70.7344 51.3438 L71.1094 51.3438 L71.0938 50.5312 C71.0938 50.0938 71.2031 49.9688 71.7812 49.7344 L72.2031 49.5625 C73.0312 49.2188 73.4531 48.6875 73.4531 47.8438 C73.4531 46.1562 71.6562 45.1875 70.5 45.0312 C70.1094 45.125 69.9062 45.2969 69.9062 45.6406 C69.9062 45.9375 70.0625 46.1562 70.7188 46.2656 L72.4688 46.5781 Z" style="fill:black; stroke:none;"
    /></g
  ></g
></svg
>
