<?xml version="1.0"?>
<!DOCTYPE svg PUBLIC '-//W3C//DTD SVG 1.0//EN'
          'http://www.w3.org/TR/2001/REC-SVG-20010904/DTD/svg10.dtd'>
<svg xmlns:xlink="http://www.w3.org/1999/xlink" style="fill-opacity:1; color-rendering:auto; color-interpolation:auto; text-rendering:auto; stroke:black; stroke-linecap:square; stroke-miterlimit:10; shape-rendering:auto; stroke-opacity:1; fill:black; stroke-dasharray:none; font-weight:normal; stroke-width:1; font-family:'Dialog'; font-style:normal; stroke-linejoin:miter; font-size:12px; stroke-dashoffset:0; image-rendering:auto;" viewBox="0 0 394 186" xmlns="http://www.w3.org/2000/svg"
><!--Generated by the Batik Graphics2D SVG Generator--><defs id="genericDefs"
  /><g
  ><defs id="defs1"
    ><clipPath clipPathUnits="userSpaceOnUse" id="clipPath1"
      ><path d="M290 95 L312 95 L312 117 L290 117 L290 95 Z"
      /></clipPath
      ><clipPath clipPathUnits="userSpaceOnUse" id="clipPath2"
      ><path d="M238 95 L260 95 L260 117 L238 117 L238 95 Z"
      /></clipPath
      ><clipPath clipPathUnits="userSpaceOnUse" id="clipPath3"
      ><path d="M208 106 C208 112.0751 203.0751 117 197 117 C190.9249 117 186 112.0751 186 106 C186 99.9249 190.9249 95 197 95 C203.0751 95 208 99.9249 208 106 Z"
      /></clipPath
      ><clipPath clipPathUnits="userSpaceOnUse" id="clipPath4"
      ><path d="M156 145 C156 151.0751 151.0751 156 145 156 C138.9249 156 134 151.0751 134 145 C134 138.9249 138.9249 134 145 134 C151.0751 134 156 138.9249 156 145 Z"
      /></clipPath
      ><clipPath clipPathUnits="userSpaceOnUse" id="clipPath5"
      ><path d="M82 134 L104 134 L104 156 L82 156 L82 134 Z"
      /></clipPath
      ><clipPath clipPathUnits="userSpaceOnUse" id="clipPath6"
      ><path d="M30 134 L52 134 L52 156 L30 156 L30 134 Z"
      /></clipPath
      ><clipPath clipPathUnits="userSpaceOnUse" id="clipPath7"
      ><path d="M156 67 C156 73.0751 151.0751 78 145 78 C138.9249 78 134 73.0751 134 67 C134 60.9249 138.9249 56 145 56 C151.0751 56 156 60.9249 156 67 Z"
      /></clipPath
      ><clipPath clipPathUnits="userSpaceOnUse" id="clipPath8"
      ><path d="M82 82 L104 82 L104 104 L82 104 L82 82 Z"
      /></clipPath
      ><clipPath clipPathUnits="userSpaceOnUse" id="clipPath9"
      ><path d="M52 93 C52 99.0751 47.0751 104 41 104 C34.9249 104 30 99.0751 30 93 C30 86.9249 34.9249 82 41 82 C47.0751 82 52 86.9249 52 93 Z"
      /></clipPath
      ><clipPath clipPathUnits="userSpaceOnUse" id="clipPath10"
      ><path d="M82 30 L104 30 L104 52 L82 52 L82 30 Z"
      /></clipPath
      ><clipPath clipPathUnits="userSpaceOnUse" id="clipPath11"
      ><path d="M30 30 L52 30 L52 52 L30 52 L30 30 Z"
      /></clipPath
      ><clipPath clipPathUnits="userSpaceOnUse" id="clipPath12"
      ><path style="fill-rule:evenodd;" d="M301 65 L290 43 L312 43 Z"
      /></clipPath
    ></defs
    ><g style="fill:white; text-rendering:optimizeSpeed; stroke:white;"
    ><rect x="0" width="394" height="186" y="0" style="stroke:none;"
      /><polygon style="fill:none; stroke:black;" points=" 353 106 301 106"
      /><path d="M353 95 C347.5 100.5 358.5 111.5 353 117" style="fill:none; stroke:black;"
      /><polygon style="fill:none; stroke:black;" points=" 301 106 249 106"
      /><polygon style="fill:none; stroke:black;" points=" 301 106 301 54"
      /><rect x="290" y="95" width="22" style="clip-path:url(#clipPath1); stroke:none;" height="22"
      /><rect x="290" y="95" width="22" style="clip-path:url(#clipPath1); fill:rgb(0,144,188); stroke:none;" height="22"
      /><rect x="290" y="95" width="22" style="clip-path:url(#clipPath1); fill:none; stroke:black;" height="22"
      /><rect x="290" y="95" width="22" style="fill:none; stroke:black;" height="22"
      /><polygon style="fill:none; stroke:black;" points=" 249 106 197 106"
      /><rect x="238" y="95" width="22" style="clip-path:url(#clipPath2); stroke:none;" height="22"
      /><rect x="238" y="95" width="22" style="clip-path:url(#clipPath2); fill:rgb(0,144,188); stroke:none;" height="22"
      /><rect x="238" y="95" width="22" style="clip-path:url(#clipPath2); fill:none; stroke:black;" height="22"
      /><rect x="238" y="95" width="22" style="fill:none; stroke:black;" height="22"
      /><polygon style="fill:none; stroke:black;" points=" 197 106 145 145"
      /><polygon style="fill:none; stroke:black;" points=" 197 106 145 67"
      /><circle style="clip-path:url(#clipPath3); stroke:none;" r="11" cx="197" cy="106"
      /><rect x="186" y="95" width="22" style="clip-path:url(#clipPath3); fill:rgb(0,166,81); stroke:none;" height="22"
      /><rect x="186" y="95" width="22" style="clip-path:url(#clipPath3); fill:none; stroke:black;" height="22"
      /><circle style="fill:none; stroke:black;" r="11" cx="197" cy="106"
      /><polygon style="fill:none; stroke:black;" points=" 145 145 93 145"
      /><circle style="clip-path:url(#clipPath4); stroke:none;" r="11" cx="145" cy="145"
      /><rect x="134" y="134" width="22" style="clip-path:url(#clipPath4); fill:rgb(0,166,81); stroke:none;" height="22"
      /><rect x="134" y="134" width="22" style="clip-path:url(#clipPath4); fill:none; stroke:black;" height="22"
      /><circle style="fill:none; stroke:black;" r="11" cx="145" cy="145"
      /><polygon style="fill:none; stroke:black;" points=" 93 145 41 145"
      /><rect x="82" y="134" width="22" style="clip-path:url(#clipPath5); stroke:none;" height="22"
      /><rect x="82" y="134" width="22" style="clip-path:url(#clipPath5); fill:rgb(0,144,188); stroke:none;" height="22"
      /><rect x="82" y="134" width="22" style="clip-path:url(#clipPath5); fill:none; stroke:black;" height="22"
      /><rect x="82" y="134" width="22" style="fill:none; stroke:black;" height="22"
      /><rect x="30" y="134" width="22" style="clip-path:url(#clipPath6); stroke:none;" height="22"
      /><rect x="30" y="134" width="22" style="clip-path:url(#clipPath6); fill:rgb(255,212,0); stroke:none;" height="22"
      /><rect x="30" y="134" width="22" style="clip-path:url(#clipPath6); fill:none; stroke:black;" height="22"
      /><rect x="30" y="134" width="22" style="fill:none; stroke:black;" height="22"
      /><rect x="70" y="148" width="7" style="stroke:none;" height="9"
    /></g
    ><g style="font-family:'Serif'; text-rendering:optimizeSpeed; "
    ><path style="stroke:none;" d="M71 153.5156 L73.9531 149.2656 L73.9531 153.5156 L71 153.5156 ZM76.2812 153.5156 L74.8594 153.5156 L74.8594 148.125 L74.2344 148.125 L70.3438 153.6406 L70.3438 154.1875 L73.9531 154.1875 L73.9531 157 L74.8594 157 L74.8594 154.1875 L76.2812 154.1875 L76.2812 153.5156 Z"
      /><rect x="57" y="146" width="6" style="fill:white; stroke:none;" height="13"
      /><path style="stroke:none;" d="M59.0938 152.2031 C59.0938 150.6562 59.75 149.8125 60.7969 149.8125 C61.7188 149.8125 62.2656 150.4531 62.2656 151.5156 C62.2656 152.7188 61.5 153.4375 60.1875 153.7031 L60.2969 154.3125 C62.2188 154.2344 62.9375 155.2188 62.9375 156.4375 C62.9375 157.625 62.2344 158.4219 60.9531 158.4219 C60.25 158.4219 59.6562 158.1562 59.0938 157.7188 L59.0938 152.2031 ZM58.2031 158.9062 L58.1094 161.375 L58.2656 161.4844 L59.1562 161.2656 L59.0156 158.0938 C59.5469 158.8438 60.3594 159.1719 61.1719 159.1719 C62.5625 159.1719 63.8594 158.2188 63.8594 156.4844 C63.8594 154.9531 62.875 154.1094 61.125 154 C62.5625 153.6094 63.1875 152.4531 63.1875 151.4844 C63.1875 150.0938 62.1562 149.3125 60.9062 149.3125 C59.2969 149.3125 58.2188 150.5469 58.2188 152.5156 L58.2031 158.9062 Z"
      /><rect x="123" y="148" width="6" style="fill:white; stroke:none;" height="9"
      /><path style="stroke:none;" d="M124.4219 156.0938 C125.0781 155.375 125.7031 154.7188 126.0312 154.3438 C127.9219 152.3125 128.5312 151.4688 128.5312 150.3594 C128.5312 149.0156 127.7812 148.0781 126.1562 148.0781 C124.9062 148.0781 123.7969 148.7031 123.5938 149.9688 C123.7188 150.2031 123.9062 150.3438 124.1562 150.3438 C124.4688 150.3438 124.6562 150.1094 124.7969 149.5938 L125.0938 148.6719 C125.3906 148.5938 125.6562 148.5625 125.8906 148.5625 C126.9219 148.5625 127.5469 149.3125 127.5469 150.4219 C127.5469 151.4375 126.9844 152.4219 125.7031 153.9062 C125.125 154.5781 124.3906 155.4375 123.6406 156.2812 L123.6406 157 L128.9219 157 L128.9219 156.0938 L124.4219 156.0938 Z"
      /><rect x="109" y="146" width="6" style="fill:white; stroke:none;" height="13"
      /><path style="stroke:none;" d="M111.0938 152.2031 C111.0938 150.6562 111.75 149.8125 112.7969 149.8125 C113.7188 149.8125 114.2656 150.4531 114.2656 151.5156 C114.2656 152.7188 113.5 153.4375 112.1875 153.7031 L112.2969 154.3125 C114.2188 154.2344 114.9375 155.2188 114.9375 156.4375 C114.9375 157.625 114.2344 158.4219 112.9531 158.4219 C112.25 158.4219 111.6562 158.1562 111.0938 157.7188 L111.0938 152.2031 ZM110.2031 158.9062 L110.1094 161.375 L110.2656 161.4844 L111.1562 161.2656 L111.0156 158.0938 C111.5469 158.8438 112.3594 159.1719 113.1719 159.1719 C114.5625 159.1719 115.8594 158.2188 115.8594 156.4844 C115.8594 154.9531 114.875 154.1094 113.125 154 C114.5625 153.6094 115.1875 152.4531 115.1875 151.4844 C115.1875 150.0938 114.1562 149.3125 112.9062 149.3125 C111.2969 149.3125 110.2188 150.5469 110.2188 152.5156 L110.2031 158.9062 Z"
      /><polygon style="fill:none;" points=" 145 67 93 93"
      /><polygon style="fill:none;" points=" 145 67 93 41"
      /><circle style="fill:white; clip-path:url(#clipPath7); stroke:none;" r="11" cx="145" cy="67"
      /><rect x="134" y="56" width="22" style="clip-path:url(#clipPath7); fill:rgb(0,166,81); stroke:none;" height="22"
      /><rect x="134" y="56" width="22" style="fill:none; clip-path:url(#clipPath7);" height="22"
      /><circle r="11" style="fill:none;" cx="145" cy="67"
      /><polygon style="fill:none;" points=" 93 93 41 93"
      /><rect x="82" y="82" width="22" style="clip-path:url(#clipPath8); fill:white; stroke:none;" height="22"
      /><rect x="82" y="82" width="22" style="clip-path:url(#clipPath8); fill:rgb(0,144,188); stroke:none;" height="22"
      /><rect x="82" y="82" width="22" style="fill:none; clip-path:url(#clipPath8);" height="22"
      /><rect x="82" width="22" height="22" y="82" style="fill:none;"
      /><circle style="fill:white; clip-path:url(#clipPath9); stroke:none;" r="11" cx="41" cy="93"
      /><rect x="30" y="82" width="22" style="clip-path:url(#clipPath9); fill:rgb(255,212,0); stroke:none;" height="22"
      /><rect x="30" y="82" width="22" style="fill:none; clip-path:url(#clipPath9);" height="22"
      /><circle r="11" style="fill:none;" cx="41" cy="93"
      /><rect x="70" y="96" width="7" style="fill:white; stroke:none;" height="9"
      /><path style="stroke:none;" d="M71 101.5156 L73.9531 97.2656 L73.9531 101.5156 L71 101.5156 ZM76.2812 101.5156 L74.8594 101.5156 L74.8594 96.125 L74.2344 96.125 L70.3438 101.6406 L70.3438 102.1875 L73.9531 102.1875 L73.9531 105 L74.8594 105 L74.8594 102.1875 L76.2812 102.1875 L76.2812 101.5156 Z"
      /><rect x="57" y="94" width="6" style="fill:white; stroke:none;" height="13"
      /><path style="stroke:none;" d="M59.0938 100.2031 C59.0938 98.6562 59.75 97.8125 60.7969 97.8125 C61.7188 97.8125 62.2656 98.4531 62.2656 99.5156 C62.2656 100.7188 61.5 101.4375 60.1875 101.7031 L60.2969 102.3125 C62.2188 102.2344 62.9375 103.2188 62.9375 104.4375 C62.9375 105.625 62.2344 106.4219 60.9531 106.4219 C60.25 106.4219 59.6562 106.1562 59.0938 105.7188 L59.0938 100.2031 ZM58.2031 106.9062 L58.1094 109.375 L58.2656 109.4844 L59.1562 109.2656 L59.0156 106.0938 C59.5469 106.8438 60.3594 107.1719 61.1719 107.1719 C62.5625 107.1719 63.8594 106.2188 63.8594 104.4844 C63.8594 102.9531 62.875 102.1094 61.125 102 C62.5625 101.6094 63.1875 100.4531 63.1875 99.4844 C63.1875 98.0938 62.1562 97.3125 60.9062 97.3125 C59.2969 97.3125 58.2188 98.5469 58.2188 100.5156 L58.2031 106.9062 Z"
      /><polygon style="fill:none;" points=" 93 41 41 41"
      /><rect x="82" y="30" width="22" style="clip-path:url(#clipPath10); fill:white; stroke:none;" height="22"
      /><rect x="82" y="30" width="22" style="clip-path:url(#clipPath10); fill:rgb(165,67,153); stroke:none;" height="22"
      /><rect x="82" y="30" width="22" style="fill:none; clip-path:url(#clipPath10);" height="22"
      /><rect x="82" width="22" height="22" y="30" style="fill:none;"
      /><rect x="30" y="30" width="22" style="clip-path:url(#clipPath11); fill:white; stroke:none;" height="22"
      /><rect x="30" y="30" width="22" style="clip-path:url(#clipPath11); fill:rgb(255,212,0); stroke:none;" height="22"
      /><rect x="30" y="30" width="22" style="fill:none; clip-path:url(#clipPath11);" height="22"
      /><rect x="30" width="22" height="22" y="30" style="fill:none;"
      /><rect x="70" y="44" width="7" style="fill:white; stroke:none;" height="9"
      /><path style="stroke:none;" d="M71 49.5156 L73.9531 45.2656 L73.9531 49.5156 L71 49.5156 ZM76.2812 49.5156 L74.8594 49.5156 L74.8594 44.125 L74.2344 44.125 L70.3438 49.6406 L70.3438 50.1875 L73.9531 50.1875 L73.9531 53 L74.8594 53 L74.8594 50.1875 L76.2812 50.1875 L76.2812 49.5156 Z"
      /><rect x="57" y="42" width="6" style="fill:white; stroke:none;" height="13"
      /><path style="stroke:none;" d="M59.0938 48.2031 C59.0938 46.6562 59.75 45.8125 60.7969 45.8125 C61.7188 45.8125 62.2656 46.4531 62.2656 47.5156 C62.2656 48.7188 61.5 49.4375 60.1875 49.7031 L60.2969 50.3125 C62.2188 50.2344 62.9375 51.2188 62.9375 52.4375 C62.9375 53.625 62.2344 54.4219 60.9531 54.4219 C60.25 54.4219 59.6562 54.1562 59.0938 53.7188 L59.0938 48.2031 ZM58.2031 54.9062 L58.1094 57.375 L58.2656 57.4844 L59.1562 57.2656 L59.0156 54.0938 C59.5469 54.8438 60.3594 55.1719 61.1719 55.1719 C62.5625 55.1719 63.8594 54.2188 63.8594 52.4844 C63.8594 50.9531 62.875 50.1094 61.125 50 C62.5625 49.6094 63.1875 48.4531 63.1875 47.4844 C63.1875 46.0938 62.1562 45.3125 60.9062 45.3125 C59.2969 45.3125 58.2188 46.5469 58.2188 48.5156 L58.2031 54.9062 Z"
      /><rect x="127" y="78" width="6" style="fill:white; stroke:none;" height="9"
      /><path style="stroke:none;" d="M128.4219 86.0938 C129.0781 85.375 129.7031 84.7188 130.0312 84.3438 C131.9219 82.3125 132.5312 81.4688 132.5312 80.3594 C132.5312 79.0156 131.7812 78.0781 130.1562 78.0781 C128.9062 78.0781 127.7969 78.7031 127.5938 79.9688 C127.7188 80.2031 127.9062 80.3438 128.1562 80.3438 C128.4688 80.3438 128.6562 80.1094 128.7969 79.5938 L129.0938 78.6719 C129.3906 78.5938 129.6562 78.5625 129.8906 78.5625 C130.9219 78.5625 131.5469 79.3125 131.5469 80.4219 C131.5469 81.4375 130.9844 82.4219 129.7031 83.9062 C129.125 84.5781 128.3906 85.4375 127.6406 86.2812 L127.6406 87 L132.9219 87 L132.9219 86.0938 L128.4219 86.0938 Z"
      /><rect x="111" y="84" width="6" style="fill:white; stroke:none;" height="13"
      /><path style="stroke:none;" d="M113.0938 90.2031 C113.0938 88.6562 113.75 87.8125 114.7969 87.8125 C115.7188 87.8125 116.2656 88.4531 116.2656 89.5156 C116.2656 90.7188 115.5 91.4375 114.1875 91.7031 L114.2969 92.3125 C116.2188 92.2344 116.9375 93.2188 116.9375 94.4375 C116.9375 95.625 116.2344 96.4219 114.9531 96.4219 C114.25 96.4219 113.6562 96.1562 113.0938 95.7188 L113.0938 90.2031 ZM112.2031 96.9062 L112.1094 99.375 L112.2656 99.4844 L113.1562 99.2656 L113.0156 96.0938 C113.5469 96.8438 114.3594 97.1719 115.1719 97.1719 C116.5625 97.1719 117.8594 96.2188 117.8594 94.4844 C117.8594 92.9531 116.875 92.1094 115.125 92 C116.5625 91.6094 117.1875 90.4531 117.1875 89.4844 C117.1875 88.0938 116.1562 87.3125 114.9062 87.3125 C113.2969 87.3125 112.2188 88.5469 112.2188 90.5156 L112.2031 96.9062 Z"
      /><rect x="120" y="60" width="6" style="fill:white; stroke:none;" height="10"
      /><path style="stroke:none;" d="M123.3438 69.6875 C122.2031 69.6875 121.5312 68.5 121.5312 66.2969 C121.5312 66.2188 121.5312 66.125 121.5312 66.0469 C122.0938 65.5 122.7188 65.3125 123.3438 65.3125 C124.3125 65.3125 124.9531 65.9844 124.9531 67.4531 C124.9531 68.9375 124.3125 69.6875 123.3438 69.6875 ZM125.5312 61.0781 C122.3438 61.4531 120.5625 63.7656 120.5625 66.4531 C120.5625 68.7812 121.6094 70.1719 123.3125 70.1719 C124.8438 70.1719 125.9219 69.1094 125.9219 67.2812 C125.9219 65.6875 124.9688 64.6562 123.5625 64.6562 C122.8281 64.6562 122.1406 64.9844 121.5781 65.5781 C121.7969 63.4062 123.0781 61.9688 125.5938 61.3906 L125.5312 61.0781 Z"
      /><rect x="104" y="50" width="6" style="fill:white; stroke:none;" height="13"
      /><path style="stroke:none;" d="M106.0938 56.2031 C106.0938 54.6562 106.75 53.8125 107.7969 53.8125 C108.7188 53.8125 109.2656 54.4531 109.2656 55.5156 C109.2656 56.7188 108.5 57.4375 107.1875 57.7031 L107.2969 58.3125 C109.2188 58.2344 109.9375 59.2188 109.9375 60.4375 C109.9375 61.625 109.2344 62.4219 107.9531 62.4219 C107.25 62.4219 106.6562 62.1562 106.0938 61.7188 L106.0938 56.2031 ZM105.2031 62.9062 L105.1094 65.375 L105.2656 65.4844 L106.1562 65.2656 L106.0156 62.0938 C106.5469 62.8438 107.3594 63.1719 108.1719 63.1719 C109.5625 63.1719 110.8594 62.2188 110.8594 60.4844 C110.8594 58.9531 109.875 58.1094 108.125 58 C109.5625 57.6094 110.1875 56.4531 110.1875 55.4844 C110.1875 54.0938 109.1562 53.3125 107.9062 53.3125 C106.2969 53.3125 105.2188 54.5469 105.2188 56.5156 L105.2031 62.9062 Z"
      /><rect x="181" y="120" width="6" style="fill:white; stroke:none;" height="10"
      /><path style="stroke:none;" d="M183.2344 121.6562 C183.5156 121.5938 183.7656 121.5625 184.0156 121.5625 C185.0625 121.5625 185.6719 122.1719 185.6719 123.2656 C185.6719 124.4375 184.9062 125.1094 183.7031 125.1094 L183.1875 125.1094 L183.1875 125.6406 L183.7969 125.6406 C185.2188 125.6406 185.9062 126.4219 185.9062 127.6406 C185.9062 128.8438 185.1719 129.6875 183.875 129.6875 C183.6094 129.6875 183.3125 129.6562 183.0156 129.5625 L182.7812 128.8125 C182.625 128.2812 182.5 128.0469 182.1406 128.0469 C181.8906 128.0469 181.7031 128.1719 181.5781 128.4219 C181.8438 129.6406 182.7812 130.1719 184.0312 130.1719 C185.7188 130.1719 186.875 129.125 186.875 127.7031 C186.875 126.5 186.2031 125.625 184.7969 125.375 C185.9531 125.0156 186.6094 124.2031 186.6094 123.2031 C186.6094 121.9219 185.6719 121.0781 184.1875 121.0781 C183.0469 121.0781 182.0625 121.5938 181.7969 122.6875 C181.9062 123 182.1094 123.1094 182.3594 123.1094 C182.7344 123.1094 182.8906 122.8906 183 122.4062 L183.2344 121.6562 Z"
      /><rect x="163" y="134" width="8" style="fill:white; stroke:none;" height="8"
      /><path style="stroke:none;" d="M167.9844 139.7031 C167.9375 140.8906 167.1562 141.6562 166.3125 141.6562 C165.2656 141.6562 164.5 140.6875 164.5 138.7188 C164.5 137.2812 165.1562 136.1562 166.3438 136.1562 C167.1406 136.1562 167.7812 136.6875 168.0938 137.6406 L167.9844 139.7031 ZM169.9062 141.2812 C169.7344 141.375 169.5469 141.4219 169.3438 141.4219 C168.9531 141.4219 168.75 141.2188 168.75 140.4219 C168.75 139.4844 168.9688 137.5312 169.1875 135.8281 L169.0312 135.7188 L168.2344 135.9219 L168.1406 136.7969 C167.7812 136.0312 167.1562 135.6562 166.3906 135.6562 C165.0469 135.6562 163.5625 136.8438 163.5625 138.9531 C163.5625 141.0938 164.7188 142.1719 166.1406 142.1719 C167.0156 142.1719 167.6875 141.8125 168.0938 140.9844 C168.2031 141.8594 168.5156 142.1719 169.0156 142.1719 C169.4688 142.1719 169.7969 141.9062 170.0156 141.5625 L169.9062 141.2812 Z"
      /><rect x="171" y="94" width="6" style="fill:white; stroke:none;" height="10"
      /><path style="stroke:none;" d="M174.3438 103.6875 C173.2031 103.6875 172.5312 102.5 172.5312 100.2969 C172.5312 100.2188 172.5312 100.125 172.5312 100.0469 C173.0938 99.5 173.7188 99.3125 174.3438 99.3125 C175.3125 99.3125 175.9531 99.9844 175.9531 101.4531 C175.9531 102.9375 175.3125 103.6875 174.3438 103.6875 ZM176.5312 95.0781 C173.3438 95.4531 171.5625 97.7656 171.5625 100.4531 C171.5625 102.7812 172.6094 104.1719 174.3125 104.1719 C175.8438 104.1719 176.9219 103.1094 176.9219 101.2812 C176.9219 99.6875 175.9688 98.6562 174.5625 98.6562 C173.8281 98.6562 173.1406 98.9844 172.5781 99.5781 C172.7969 97.4062 174.0781 95.9688 176.5938 95.3906 L176.5312 95.0781 Z"
      /><rect x="153" y="82" width="8" style="fill:white; stroke:none;" height="8"
      /><path style="stroke:none;" d="M157.9844 87.7031 C157.9375 88.8906 157.1562 89.6562 156.3125 89.6562 C155.2656 89.6562 154.5 88.6875 154.5 86.7188 C154.5 85.2812 155.1562 84.1562 156.3438 84.1562 C157.1406 84.1562 157.7812 84.6875 158.0938 85.6406 L157.9844 87.7031 ZM159.9062 89.2812 C159.7344 89.375 159.5469 89.4219 159.3438 89.4219 C158.9531 89.4219 158.75 89.2188 158.75 88.4219 C158.75 87.4844 158.9688 85.5312 159.1875 83.8281 L159.0312 83.7188 L158.2344 83.9219 L158.1406 84.7969 C157.7812 84.0312 157.1562 83.6562 156.3906 83.6562 C155.0469 83.6562 153.5625 84.8438 153.5625 86.9531 C153.5625 89.0938 154.7188 90.1719 156.1406 90.1719 C157.0156 90.1719 157.6875 89.8125 158.0938 88.9844 C158.2031 89.8594 158.5156 90.1719 159.0156 90.1719 C159.4688 90.1719 159.7969 89.9062 160.0156 89.5625 L159.9062 89.2812 Z"
      /><rect x="226" y="109" width="7" style="fill:white; stroke:none;" height="9"
      /><path style="stroke:none;" d="M227 114.5156 L229.9531 110.2656 L229.9531 114.5156 L227 114.5156 ZM232.2812 114.5156 L230.8594 114.5156 L230.8594 109.125 L230.2344 109.125 L226.3438 114.6406 L226.3438 115.1875 L229.9531 115.1875 L229.9531 118 L230.8594 118 L230.8594 115.1875 L232.2812 115.1875 L232.2812 114.5156 Z"
      /><rect x="213" y="107" width="6" style="fill:white; stroke:none;" height="13"
      /><path style="stroke:none;" d="M215.0938 113.2031 C215.0938 111.6562 215.75 110.8125 216.7969 110.8125 C217.7188 110.8125 218.2656 111.4531 218.2656 112.5156 C218.2656 113.7188 217.5 114.4375 216.1875 114.7031 L216.2969 115.3125 C218.2188 115.2344 218.9375 116.2188 218.9375 117.4375 C218.9375 118.625 218.2344 119.4219 216.9531 119.4219 C216.25 119.4219 215.6562 119.1562 215.0938 118.7188 L215.0938 113.2031 ZM214.2031 119.9062 L214.1094 122.375 L214.2656 122.4844 L215.1562 122.2656 L215.0156 119.0938 C215.5469 119.8438 216.3594 120.1719 217.1719 120.1719 C218.5625 120.1719 219.8594 119.2188 219.8594 117.4844 C219.8594 115.9531 218.875 115.1094 217.125 115 C218.5625 114.6094 219.1875 113.4531 219.1875 112.4844 C219.1875 111.0938 218.1562 110.3125 216.9062 110.3125 C215.2969 110.3125 214.2188 111.5469 214.2188 113.5156 L214.2031 119.9062 Z"
      /><polygon style="fill:white; clip-path:url(#clipPath12); stroke:none;" points=" 301 65 290 43 312 43"
      /><rect x="290" y="43" width="22" style="clip-path:url(#clipPath12); fill:rgb(237,28,36); stroke:none;" height="22"
      /><rect x="290" y="43" width="22" style="fill:none; clip-path:url(#clipPath12);" height="22"
      /><polygon style="fill:none;" points=" 301 65 290 43 312 43"
      /><rect x="278" y="109" width="7" style="fill:white; stroke:none;" height="9"
      /><path style="stroke:none;" d="M279 114.5156 L281.9531 110.2656 L281.9531 114.5156 L279 114.5156 ZM284.2812 114.5156 L282.8594 114.5156 L282.8594 109.125 L282.2344 109.125 L278.3438 114.6406 L278.3438 115.1875 L281.9531 115.1875 L281.9531 118 L282.8594 118 L282.8594 115.1875 L284.2812 115.1875 L284.2812 114.5156 Z"
      /><rect x="265" y="107" width="6" style="fill:white; stroke:none;" height="13"
      /><path style="stroke:none;" d="M267.0938 113.2031 C267.0938 111.6562 267.75 110.8125 268.7969 110.8125 C269.7188 110.8125 270.2656 111.4531 270.2656 112.5156 C270.2656 113.7188 269.5 114.4375 268.1875 114.7031 L268.2969 115.3125 C270.2188 115.2344 270.9375 116.2188 270.9375 117.4375 C270.9375 118.625 270.2344 119.4219 268.9531 119.4219 C268.25 119.4219 267.6562 119.1562 267.0938 118.7188 L267.0938 113.2031 ZM266.2031 119.9062 L266.1094 122.375 L266.2656 122.4844 L267.1562 122.2656 L267.0156 119.0938 C267.5469 119.8438 268.3594 120.1719 269.1719 120.1719 C270.5625 120.1719 271.8594 119.2188 271.8594 117.4844 C271.8594 115.9531 270.875 115.1094 269.125 115 C270.5625 114.6094 271.1875 113.4531 271.1875 112.4844 C271.1875 111.0938 270.1562 110.3125 268.9062 110.3125 C267.2969 110.3125 266.2188 111.5469 266.2188 113.5156 L266.2031 119.9062 Z"
      /><rect x="290" y="82" width="6" style="fill:white; stroke:none;" height="10"
      /><path style="stroke:none;" d="M293.3438 91.6875 C292.2031 91.6875 291.5312 90.5 291.5312 88.2969 C291.5312 88.2188 291.5312 88.125 291.5312 88.0469 C292.0938 87.5 292.7188 87.3125 293.3438 87.3125 C294.3125 87.3125 294.9531 87.9844 294.9531 89.4531 C294.9531 90.9375 294.3125 91.6875 293.3438 91.6875 ZM295.5312 83.0781 C292.3438 83.4531 290.5625 85.7656 290.5625 88.4531 C290.5625 90.7812 291.6094 92.1719 293.3125 92.1719 C294.8438 92.1719 295.9219 91.1094 295.9219 89.2812 C295.9219 87.6875 294.9688 86.6562 293.5625 86.6562 C292.8281 86.6562 292.1406 86.9844 291.5781 87.5781 C291.7969 85.4062 293.0781 83.9688 295.5938 83.3906 L295.5312 83.0781 Z"
      /><rect x="289" y="69" width="8" style="fill:white; stroke:none;" height="8"
      /><path style="stroke:none;" d="M293.9844 74.7031 C293.9375 75.8906 293.1562 76.6562 292.3125 76.6562 C291.2656 76.6562 290.5 75.6875 290.5 73.7188 C290.5 72.2812 291.1562 71.1562 292.3438 71.1562 C293.1406 71.1562 293.7812 71.6875 294.0938 72.6406 L293.9844 74.7031 ZM295.9062 76.2812 C295.7344 76.375 295.5469 76.4219 295.3438 76.4219 C294.9531 76.4219 294.75 76.2188 294.75 75.4219 C294.75 74.4844 294.9688 72.5312 295.1875 70.8281 L295.0312 70.7188 L294.2344 70.9219 L294.1406 71.7969 C293.7812 71.0312 293.1562 70.6562 292.3906 70.6562 C291.0469 70.6562 289.5625 71.8438 289.5625 73.9531 C289.5625 76.0938 290.7188 77.1719 292.1406 77.1719 C293.0156 77.1719 293.6875 76.8125 294.0938 75.9844 C294.2031 76.8594 294.5156 77.1719 295.0156 77.1719 C295.4688 77.1719 295.7969 76.9062 296.0156 76.5625 L295.9062 76.2812 Z"
      /><rect x="317" y="109" width="5" style="fill:white; stroke:none;" height="10"
      /><path style="stroke:none;" d="M318.8906 117.6875 C318.4844 117.6875 318.1562 118.0469 318.1562 118.4219 C318.1562 118.8125 318.4844 119.1562 318.8906 119.1562 C319.2969 119.1562 319.6406 118.8125 319.6406 118.4219 C319.6406 118.0469 319.2969 117.6875 318.8906 117.6875 ZM320.4688 111.5781 C320.7188 111.8906 320.875 112.2656 320.8906 112.6562 C320.8906 113.1875 320.625 113.5 320.0312 113.7656 L319.4062 114.0156 C318.6406 114.3125 318.3906 114.5469 318.3906 114.9375 C318.3906 115.1094 318.4531 115.3438 318.5781 115.8125 L318.7344 116.3438 L319.1094 116.3438 L319.0938 115.5312 C319.0938 115.0938 319.2031 114.9688 319.7812 114.7344 L320.2031 114.5625 C321.0312 114.2188 321.4531 113.6875 321.4531 112.8438 C321.4531 111.1562 319.6562 110.1875 318.5 110.0312 C318.1094 110.125 317.9062 110.2969 317.9062 110.6406 C317.9062 110.9375 318.0625 111.1562 318.7188 111.2656 L320.4688 111.5781 Z"
    /></g
  ></g
></svg
>
