<?xml version="1.0"?>
<!DOCTYPE svg PUBLIC '-//W3C//DTD SVG 1.0//EN'
          'http://www.w3.org/TR/2001/REC-SVG-20010904/DTD/svg10.dtd'>
<svg xmlns:xlink="http://www.w3.org/1999/xlink" style="fill-opacity:1; color-rendering:auto; color-interpolation:auto; text-rendering:auto; stroke:black; stroke-linecap:square; stroke-miterlimit:10; shape-rendering:auto; stroke-opacity:1; fill:black; stroke-dasharray:none; font-weight:normal; stroke-width:1; font-family:'Dialog'; font-style:normal; stroke-linejoin:miter; font-size:12px; stroke-dashoffset:0; image-rendering:auto;" viewBox="0 0 342 180" xmlns="http://www.w3.org/2000/svg"
><!--Generated by the Batik Graphics2D SVG Generator--><defs id="genericDefs"
  /><g
  ><defs id="defs1"
    ><clipPath clipPathUnits="userSpaceOnUse" id="clipPath1"
      ><path d="M238 90 L260 90 L260 112 L238 112 L238 90 Z"
      /></clipPath
      ><clipPath clipPathUnits="userSpaceOnUse" id="clipPath2"
      ><path d="M186 90 L208 90 L208 112 L186 112 L186 90 Z"
      /></clipPath
      ><clipPath clipPathUnits="userSpaceOnUse" id="clipPath3"
      ><path d="M156 101 C156 107.0751 151.0751 112 145 112 C138.9249 112 134 107.0751 134 101 C134 94.9249 138.9249 90 145 90 C151.0751 90 156 94.9249 156 101 Z"
      /></clipPath
      ><clipPath clipPathUnits="userSpaceOnUse" id="clipPath4"
      ><path d="M104 139 C104 145.0751 99.0751 150 93 150 C86.9249 150 82 145.0751 82 139 C82 132.9249 86.9249 128 93 128 C99.0751 128 104 132.9249 104 139 Z"
      /></clipPath
      ><clipPath clipPathUnits="userSpaceOnUse" id="clipPath5"
      ><path d="M30 128 L52 128 L52 150 L30 150 L30 128 Z"
      /></clipPath
      ><clipPath clipPathUnits="userSpaceOnUse" id="clipPath6"
      ><path d="M104 64 C104 70.0751 99.0751 75 93 75 C86.9249 75 82 70.0751 82 64 C82 57.9249 86.9249 53 93 53 C99.0751 53 104 57.9249 104 64 Z"
      /></clipPath
      ><clipPath clipPathUnits="userSpaceOnUse" id="clipPath7"
      ><path d="M30 53 L52 53 L52 75 L30 75 L30 53 Z"
      /></clipPath
    ></defs
    ><g style="fill:white; text-rendering:optimizeSpeed; stroke:white;"
    ><rect x="0" width="342" height="180" y="0" style="stroke:none;"
      /><polygon style="fill:none; stroke:black;" points=" 301 101 249 101"
      /><path d="M301 90 C295.5 95.5 306.5 106.5 301 112" style="fill:none; stroke:black;"
      /><polygon style="fill:none; stroke:black;" points=" 249 101 197 101"
      /><rect x="238" y="90" width="22" style="clip-path:url(#clipPath1); stroke:none;" height="22"
      /><rect x="238" y="90" width="22" style="clip-path:url(#clipPath1); fill:rgb(0,144,188); stroke:none;" height="22"
      /><rect x="238" y="90" width="22" style="clip-path:url(#clipPath1); fill:none; stroke:black;" height="22"
      /><rect x="238" y="90" width="22" style="fill:none; stroke:black;" height="22"
      /><polygon style="fill:none; stroke:black;" points=" 197 101 145 101"
      /><rect x="186" y="90" width="22" style="clip-path:url(#clipPath2); stroke:none;" height="22"
      /><rect x="186" y="90" width="22" style="clip-path:url(#clipPath2); fill:rgb(0,144,188); stroke:none;" height="22"
      /><rect x="186" y="90" width="22" style="clip-path:url(#clipPath2); fill:none; stroke:black;" height="22"
      /><rect x="186" y="90" width="22" style="fill:none; stroke:black;" height="22"
      /><polygon style="fill:none; stroke:black;" points=" 145 101 93 139"
      /><polygon style="fill:none; stroke:black;" points=" 145 101 93 64"
      /><circle style="clip-path:url(#clipPath3); stroke:none;" r="11" cx="145" cy="101"
      /><rect x="134" y="90" width="22" style="clip-path:url(#clipPath3); fill:rgb(0,166,81); stroke:none;" height="22"
      /><rect x="134" y="90" width="22" style="clip-path:url(#clipPath3); fill:none; stroke:black;" height="22"
      /><circle style="fill:none; stroke:black;" r="11" cx="145" cy="101"
      /><polygon style="fill:none; stroke:black;" points=" 93 139 41 139"
      /><circle style="clip-path:url(#clipPath4); stroke:none;" r="11" cx="93" cy="139"
      /><rect x="82" y="128" width="22" style="clip-path:url(#clipPath4); fill:rgb(0,166,81); stroke:none;" height="22"
      /><rect x="82" y="128" width="22" style="clip-path:url(#clipPath4); fill:none; stroke:black;" height="22"
      /><circle style="fill:none; stroke:black;" r="11" cx="93" cy="139"
      /><rect x="30" y="128" width="22" style="clip-path:url(#clipPath5); stroke:none;" height="22"
      /><rect x="30" y="128" width="22" style="clip-path:url(#clipPath5); fill:rgb(0,144,188); stroke:none;" height="22"
      /><rect x="30" y="128" width="22" style="clip-path:url(#clipPath5); fill:none; stroke:black;" height="22"
      /><rect x="30" y="128" width="22" style="fill:none; stroke:black;" height="22"
      /><rect x="33" y="110" width="14" style="stroke:none;" height="10"
    /></g
    ><g style="text-rendering:optimizeSpeed; font-size:14px; font-family:'SansSerif';"
    ><path style="stroke:none;" d="M37.1094 115.5781 C38.3438 115.5781 38.9688 116.4688 38.9688 117.8438 C38.9688 119.25 38.1875 120.1875 37.2188 120.1875 C35.9219 120.1875 35.1562 119.0312 35 116.8906 C35.625 115.9531 36.4531 115.5781 37.1094 115.5781 ZM37.2188 121.1875 C38.8125 121.1875 40.1562 119.8438 40.1562 117.8438 C40.1562 115.7031 39.0469 114.625 37.3125 114.625 C36.5 114.625 35.6094 115.1094 34.9688 115.875 C35.0312 112.6875 36.2188 111.6094 37.625 111.6094 C38.25 111.6094 38.8594 111.9062 39.2656 112.3906 L39.9688 111.5938 C39.4062 110.9844 38.6406 110.5469 37.5781 110.5469 C35.5938 110.5469 33.7812 112.0781 33.7812 116.0938 C33.7812 119.4844 35.2344 121.1875 37.2188 121.1875 ZM45.02 121.1875 C47.1606 121.1875 48.5043 119.8906 48.5043 118.2656 C48.5043 116.75 47.5825 116.0469 46.395 115.5312 L44.9262 114.8906 C44.1293 114.5625 43.2387 114.1875 43.2387 113.1875 C43.2387 112.2656 43.9887 111.6719 45.145 111.6719 C46.0981 111.6719 46.8637 112.0469 47.4887 112.6406 L48.1762 111.8125 C47.4418 111.0625 46.3637 110.5469 45.145 110.5469 C43.2856 110.5469 41.9106 111.6875 41.9106 113.2656 C41.9106 114.7656 43.0512 115.5 44.0043 115.9062 L45.4887 116.5469 C46.4575 116.9844 47.1918 117.3125 47.1918 118.375 C47.1918 119.375 46.3793 120.0469 45.0356 120.0469 C43.9731 120.0469 42.9418 119.5469 42.2075 118.7812 L41.4262 119.6562 C42.3168 120.5938 43.5668 121.1875 45.02 121.1875 Z"
    /></g
    ><g style="fill:white; text-rendering:optimizeSpeed; font-family:'Serif'; stroke:white;"
    ><rect x="71" width="6" height="9" y="142" style="stroke:none;"
      /><path d="M72.4219 150.0938 C73.0781 149.375 73.7031 148.7188 74.0312 148.3438 C75.9219 146.3125 76.5312 145.4688 76.5312 144.3594 C76.5312 143.0156 75.7812 142.0781 74.1562 142.0781 C72.9062 142.0781 71.7969 142.7031 71.5938 143.9688 C71.7188 144.2031 71.9062 144.3438 72.1562 144.3438 C72.4688 144.3438 72.6562 144.1094 72.7969 143.5938 L73.0938 142.6719 C73.3906 142.5938 73.6562 142.5625 73.8906 142.5625 C74.9219 142.5625 75.5469 143.3125 75.5469 144.4219 C75.5469 145.4375 74.9844 146.4219 73.7031 147.9062 C73.125 148.5781 72.3906 149.4375 71.6406 150.2812 L71.6406 151 L76.9219 151 L76.9219 150.0938 L72.4219 150.0938 Z" style="fill:black; stroke:none;"
      /><rect x="57" width="6" height="13" y="140" style="stroke:none;"
      /><path d="M59.0938 146.2031 C59.0938 144.6562 59.75 143.8125 60.7969 143.8125 C61.7188 143.8125 62.2656 144.4531 62.2656 145.5156 C62.2656 146.7188 61.5 147.4375 60.1875 147.7031 L60.2969 148.3125 C62.2188 148.2344 62.9375 149.2188 62.9375 150.4375 C62.9375 151.625 62.2344 152.4219 60.9531 152.4219 C60.25 152.4219 59.6562 152.1562 59.0938 151.7188 L59.0938 146.2031 ZM58.2031 152.9062 L58.1094 155.375 L58.2656 155.4844 L59.1562 155.2656 L59.0156 152.0938 C59.5469 152.8438 60.3594 153.1719 61.1719 153.1719 C62.5625 153.1719 63.8594 152.2188 63.8594 150.4844 C63.8594 148.9531 62.875 148.1094 61.125 148 C62.5625 147.6094 63.1875 146.4531 63.1875 145.4844 C63.1875 144.0938 62.1562 143.3125 60.9062 143.3125 C59.2969 143.3125 58.2188 144.5469 58.2188 146.5156 L58.2031 152.9062 Z" style="fill:black; stroke:none;"
      /><polygon style="fill:none; stroke:black;" points=" 93 64 41 64"
      /><circle r="11" style="clip-path:url(#clipPath6); stroke:none;" cx="93" cy="64"
      /><rect x="82" y="53" width="22" style="clip-path:url(#clipPath6); fill:rgb(0,166,81); stroke:none;" height="22"
      /><rect x="82" y="53" width="22" style="clip-path:url(#clipPath6); fill:none; stroke:black;" height="22"
      /><circle r="11" style="fill:none; stroke:black;" cx="93" cy="64"
      /><rect x="30" y="53" width="22" style="clip-path:url(#clipPath7); stroke:none;" height="22"
      /><rect x="30" y="53" width="22" style="clip-path:url(#clipPath7); fill:rgb(0,144,188); stroke:none;" height="22"
      /><rect x="30" y="53" width="22" style="clip-path:url(#clipPath7); fill:none; stroke:black;" height="22"
      /><rect x="30" y="53" width="22" style="fill:none; stroke:black;" height="22"
      /><rect x="33" width="14" height="10" y="35" style="stroke:none;"
    /></g
    ><g style="text-rendering:optimizeSpeed; font-size:14px; font-family:'SansSerif';"
    ><path style="stroke:none;" d="M37.1094 40.5781 C38.3438 40.5781 38.9688 41.4688 38.9688 42.8438 C38.9688 44.25 38.1875 45.1875 37.2188 45.1875 C35.9219 45.1875 35.1562 44.0312 35 41.8906 C35.625 40.9531 36.4531 40.5781 37.1094 40.5781 ZM37.2188 46.1875 C38.8125 46.1875 40.1562 44.8438 40.1562 42.8438 C40.1562 40.7031 39.0469 39.625 37.3125 39.625 C36.5 39.625 35.6094 40.1094 34.9688 40.875 C35.0312 37.6875 36.2188 36.6094 37.625 36.6094 C38.25 36.6094 38.8594 36.9062 39.2656 37.3906 L39.9688 36.5938 C39.4062 35.9844 38.6406 35.5469 37.5781 35.5469 C35.5938 35.5469 33.7812 37.0781 33.7812 41.0938 C33.7812 44.4844 35.2344 46.1875 37.2188 46.1875 ZM45.02 46.1875 C47.1606 46.1875 48.5043 44.8906 48.5043 43.2656 C48.5043 41.75 47.5825 41.0469 46.395 40.5312 L44.9262 39.8906 C44.1293 39.5625 43.2387 39.1875 43.2387 38.1875 C43.2387 37.2656 43.9887 36.6719 45.145 36.6719 C46.0981 36.6719 46.8637 37.0469 47.4887 37.6406 L48.1762 36.8125 C47.4418 36.0625 46.3637 35.5469 45.145 35.5469 C43.2856 35.5469 41.9106 36.6875 41.9106 38.2656 C41.9106 39.7656 43.0512 40.5 44.0043 40.9062 L45.4887 41.5469 C46.4575 41.9844 47.1918 42.3125 47.1918 43.375 C47.1918 44.375 46.3793 45.0469 45.0356 45.0469 C43.9731 45.0469 42.9418 44.5469 42.2075 43.7812 L41.4262 44.6562 C42.3168 45.5938 43.5668 46.1875 45.02 46.1875 Z"
    /></g
    ><g style="fill:white; text-rendering:optimizeSpeed; font-family:'Serif'; stroke:white;"
    ><rect x="71" width="6" height="9" y="67" style="stroke:none;"
      /><path d="M72.4219 75.0938 C73.0781 74.375 73.7031 73.7188 74.0312 73.3438 C75.9219 71.3125 76.5312 70.4688 76.5312 69.3594 C76.5312 68.0156 75.7812 67.0781 74.1562 67.0781 C72.9062 67.0781 71.7969 67.7031 71.5938 68.9688 C71.7188 69.2031 71.9062 69.3438 72.1562 69.3438 C72.4688 69.3438 72.6562 69.1094 72.7969 68.5938 L73.0938 67.6719 C73.3906 67.5938 73.6562 67.5625 73.8906 67.5625 C74.9219 67.5625 75.5469 68.3125 75.5469 69.4219 C75.5469 70.4375 74.9844 71.4219 73.7031 72.9062 C73.125 73.5781 72.3906 74.4375 71.6406 75.2812 L71.6406 76 L76.9219 76 L76.9219 75.0938 L72.4219 75.0938 Z" style="fill:black; stroke:none;"
      /><rect x="57" width="6" height="13" y="65" style="stroke:none;"
      /><path d="M59.0938 71.2031 C59.0938 69.6562 59.75 68.8125 60.7969 68.8125 C61.7188 68.8125 62.2656 69.4531 62.2656 70.5156 C62.2656 71.7188 61.5 72.4375 60.1875 72.7031 L60.2969 73.3125 C62.2188 73.2344 62.9375 74.2188 62.9375 75.4375 C62.9375 76.625 62.2344 77.4219 60.9531 77.4219 C60.25 77.4219 59.6562 77.1562 59.0938 76.7188 L59.0938 71.2031 ZM58.2031 77.9062 L58.1094 80.375 L58.2656 80.4844 L59.1562 80.2656 L59.0156 77.0938 C59.5469 77.8438 60.3594 78.1719 61.1719 78.1719 C62.5625 78.1719 63.8594 77.2188 63.8594 75.4844 C63.8594 73.9531 62.875 73.1094 61.125 73 C62.5625 72.6094 63.1875 71.4531 63.1875 70.4844 C63.1875 69.0938 62.1562 68.3125 60.9062 68.3125 C59.2969 68.3125 58.2188 69.5469 58.2188 71.5156 L58.2031 77.9062 Z" style="fill:black; stroke:none;"
      /><rect x="129" width="6" height="10" y="115" style="stroke:none;"
      /><path d="M131.2344 116.6562 C131.5156 116.5938 131.7656 116.5625 132.0156 116.5625 C133.0625 116.5625 133.6719 117.1719 133.6719 118.2656 C133.6719 119.4375 132.9062 120.1094 131.7031 120.1094 L131.1875 120.1094 L131.1875 120.6406 L131.7969 120.6406 C133.2188 120.6406 133.9062 121.4219 133.9062 122.6406 C133.9062 123.8438 133.1719 124.6875 131.875 124.6875 C131.6094 124.6875 131.3125 124.6562 131.0156 124.5625 L130.7812 123.8125 C130.625 123.2812 130.5 123.0469 130.1406 123.0469 C129.8906 123.0469 129.7031 123.1719 129.5781 123.4219 C129.8438 124.6406 130.7812 125.1719 132.0312 125.1719 C133.7188 125.1719 134.875 124.125 134.875 122.7031 C134.875 121.5 134.2031 120.625 132.7969 120.375 C133.9531 120.0156 134.6094 119.2031 134.6094 118.2031 C134.6094 116.9219 133.6719 116.0781 132.1875 116.0781 C131.0469 116.0781 130.0625 116.5938 129.7969 117.6875 C129.9062 118 130.1094 118.1094 130.3594 118.1094 C130.7344 118.1094 130.8906 117.8906 131 117.4062 L131.2344 116.6562 Z" style="fill:black; stroke:none;"
      /><rect x="111" width="8" height="8" y="128" style="stroke:none;"
      /><path d="M115.9844 133.7031 C115.9375 134.8906 115.1562 135.6562 114.3125 135.6562 C113.2656 135.6562 112.5 134.6875 112.5 132.7188 C112.5 131.2812 113.1562 130.1562 114.3438 130.1562 C115.1406 130.1562 115.7812 130.6875 116.0938 131.6406 L115.9844 133.7031 ZM117.9062 135.2812 C117.7344 135.375 117.5469 135.4219 117.3438 135.4219 C116.9531 135.4219 116.75 135.2188 116.75 134.4219 C116.75 133.4844 116.9688 131.5312 117.1875 129.8281 L117.0312 129.7188 L116.2344 129.9219 L116.1406 130.7969 C115.7812 130.0312 115.1562 129.6562 114.3906 129.6562 C113.0469 129.6562 111.5625 130.8438 111.5625 132.9531 C111.5625 135.0938 112.7188 136.1719 114.1406 136.1719 C115.0156 136.1719 115.6875 135.8125 116.0938 134.9844 C116.2031 135.8594 116.5156 136.1719 117.0156 136.1719 C117.4688 136.1719 117.7969 135.9062 118.0156 135.5625 L117.9062 135.2812 Z" style="fill:black; stroke:none;"
      /><rect x="119" width="6" height="10" y="90" style="stroke:none;"
      /><path d="M122.3438 99.6875 C121.2031 99.6875 120.5312 98.5 120.5312 96.2969 C120.5312 96.2188 120.5312 96.125 120.5312 96.0469 C121.0938 95.5 121.7188 95.3125 122.3438 95.3125 C123.3125 95.3125 123.9531 95.9844 123.9531 97.4531 C123.9531 98.9375 123.3125 99.6875 122.3438 99.6875 ZM124.5312 91.0781 C121.3438 91.4531 119.5625 93.7656 119.5625 96.4531 C119.5625 98.7812 120.6094 100.1719 122.3125 100.1719 C123.8438 100.1719 124.9219 99.1094 124.9219 97.2812 C124.9219 95.6875 123.9688 94.6562 122.5625 94.6562 C121.8281 94.6562 121.1406 94.9844 120.5781 95.5781 C120.7969 93.4062 122.0781 91.9688 124.5938 91.3906 L124.5312 91.0781 Z" style="fill:black; stroke:none;"
      /><rect x="101" width="8" height="8" y="78" style="stroke:none;"
      /><path d="M105.9844 83.7031 C105.9375 84.8906 105.1562 85.6562 104.3125 85.6562 C103.2656 85.6562 102.5 84.6875 102.5 82.7188 C102.5 81.2812 103.1562 80.1562 104.3438 80.1562 C105.1406 80.1562 105.7812 80.6875 106.0938 81.6406 L105.9844 83.7031 ZM107.9062 85.2812 C107.7344 85.375 107.5469 85.4219 107.3438 85.4219 C106.9531 85.4219 106.75 85.2188 106.75 84.4219 C106.75 83.4844 106.9688 81.5312 107.1875 79.8281 L107.0312 79.7188 L106.2344 79.9219 L106.1406 80.7969 C105.7812 80.0312 105.1562 79.6562 104.3906 79.6562 C103.0469 79.6562 101.5625 80.8438 101.5625 82.9531 C101.5625 85.0938 102.7188 86.1719 104.1406 86.1719 C105.0156 86.1719 105.6875 85.8125 106.0938 84.9844 C106.2031 85.8594 106.5156 86.1719 107.0156 86.1719 C107.4688 86.1719 107.7969 85.9062 108.0156 85.5625 L107.9062 85.2812 Z" style="fill:black; stroke:none;"
      /><rect x="174" width="7" height="9" y="104" style="stroke:none;"
      /><path d="M175 109.5156 L177.9531 105.2656 L177.9531 109.5156 L175 109.5156 ZM180.2812 109.5156 L178.8594 109.5156 L178.8594 104.125 L178.2344 104.125 L174.3438 109.6406 L174.3438 110.1875 L177.9531 110.1875 L177.9531 113 L178.8594 113 L178.8594 110.1875 L180.2812 110.1875 L180.2812 109.5156 Z" style="fill:black; stroke:none;"
      /><rect x="161" width="6" height="13" y="102" style="stroke:none;"
      /><path d="M163.0938 108.2031 C163.0938 106.6562 163.75 105.8125 164.7969 105.8125 C165.7188 105.8125 166.2656 106.4531 166.2656 107.5156 C166.2656 108.7188 165.5 109.4375 164.1875 109.7031 L164.2969 110.3125 C166.2188 110.2344 166.9375 111.2188 166.9375 112.4375 C166.9375 113.625 166.2344 114.4219 164.9531 114.4219 C164.25 114.4219 163.6562 114.1562 163.0938 113.7188 L163.0938 108.2031 ZM162.2031 114.9062 L162.1094 117.375 L162.2656 117.4844 L163.1562 117.2656 L163.0156 114.0938 C163.5469 114.8438 164.3594 115.1719 165.1719 115.1719 C166.5625 115.1719 167.8594 114.2188 167.8594 112.4844 C167.8594 110.9531 166.875 110.1094 165.125 110 C166.5625 109.6094 167.1875 108.4531 167.1875 107.4844 C167.1875 106.0938 166.1562 105.3125 164.9062 105.3125 C163.2969 105.3125 162.2188 106.5469 162.2188 108.5156 L162.2031 114.9062 Z" style="fill:black; stroke:none;"
      /><rect x="226" width="7" height="9" y="104" style="stroke:none;"
      /><path d="M227 109.5156 L229.9531 105.2656 L229.9531 109.5156 L227 109.5156 ZM232.2812 109.5156 L230.8594 109.5156 L230.8594 104.125 L230.2344 104.125 L226.3438 109.6406 L226.3438 110.1875 L229.9531 110.1875 L229.9531 113 L230.8594 113 L230.8594 110.1875 L232.2812 110.1875 L232.2812 109.5156 Z" style="fill:black; stroke:none;"
      /><rect x="213" width="6" height="13" y="102" style="stroke:none;"
      /><path d="M215.0938 108.2031 C215.0938 106.6562 215.75 105.8125 216.7969 105.8125 C217.7188 105.8125 218.2656 106.4531 218.2656 107.5156 C218.2656 108.7188 217.5 109.4375 216.1875 109.7031 L216.2969 110.3125 C218.2188 110.2344 218.9375 111.2188 218.9375 112.4375 C218.9375 113.625 218.2344 114.4219 216.9531 114.4219 C216.25 114.4219 215.6562 114.1562 215.0938 113.7188 L215.0938 108.2031 ZM214.2031 114.9062 L214.1094 117.375 L214.2656 117.4844 L215.1562 117.2656 L215.0156 114.0938 C215.5469 114.8438 216.3594 115.1719 217.1719 115.1719 C218.5625 115.1719 219.8594 114.2188 219.8594 112.4844 C219.8594 110.9531 218.875 110.1094 217.125 110 C218.5625 109.6094 219.1875 108.4531 219.1875 107.4844 C219.1875 106.0938 218.1562 105.3125 216.9062 105.3125 C215.2969 105.3125 214.2188 106.5469 214.2188 108.5156 L214.2031 114.9062 Z" style="fill:black; stroke:none;"
      /><rect x="265" width="6" height="13" y="102" style="stroke:none;"
      /><path d="M267.0938 108.2031 C267.0938 106.6562 267.75 105.8125 268.7969 105.8125 C269.7188 105.8125 270.2656 106.4531 270.2656 107.5156 C270.2656 108.7188 269.5 109.4375 268.1875 109.7031 L268.2969 110.3125 C270.2188 110.2344 270.9375 111.2188 270.9375 112.4375 C270.9375 113.625 270.2344 114.4219 268.9531 114.4219 C268.25 114.4219 267.6562 114.1562 267.0938 113.7188 L267.0938 108.2031 ZM266.2031 114.9062 L266.1094 117.375 L266.2656 117.4844 L267.1562 117.2656 L267.0156 114.0938 C267.5469 114.8438 268.3594 115.1719 269.1719 115.1719 C270.5625 115.1719 271.8594 114.2188 271.8594 112.4844 C271.8594 110.9531 270.875 110.1094 269.125 110 C270.5625 109.6094 271.1875 108.4531 271.1875 107.4844 C271.1875 106.0938 270.1562 105.3125 268.9062 105.3125 C267.2969 105.3125 266.2188 106.5469 266.2188 108.5156 L266.2031 114.9062 Z" style="fill:black; stroke:none;"
    /></g
  ></g
></svg
>
