<?xml version="1.0"?>
<!DOCTYPE svg PUBLIC '-//W3C//DTD SVG 1.0//EN'
          'http://www.w3.org/TR/2001/REC-SVG-20010904/DTD/svg10.dtd'>
<svg xmlns:xlink="http://www.w3.org/1999/xlink" style="fill-opacity:1; color-rendering:auto; color-interpolation:auto; text-rendering:auto; stroke:black; stroke-linecap:square; stroke-miterlimit:10; shape-rendering:auto; stroke-opacity:1; fill:black; stroke-dasharray:none; font-weight:normal; stroke-width:1; font-family:'Dialog'; font-style:normal; stroke-linejoin:miter; font-size:12px; stroke-dashoffset:0; image-rendering:auto;" viewBox="0 0 342 160" xmlns="http://www.w3.org/2000/svg"
><!--Generated by the Batik Graphics2D SVG Generator--><defs id="genericDefs"
  /><g
  ><defs id="defs1"
    ><clipPath clipPathUnits="userSpaceOnUse" id="clipPath1"
      ><path d="M260 67 C260 73.0751 255.0751 78 249 78 C242.9249 78 238 73.0751 238 67 C238 60.9249 242.9249 56 249 56 C255.0751 56 260 60.9249 260 67 Z"
      /></clipPath
      ><clipPath clipPathUnits="userSpaceOnUse" id="clipPath2"
      ><path style="fill-rule:evenodd;" d="M197 56 L208 67 L197 78 L186 67 Z"
      /></clipPath
      ><clipPath clipPathUnits="userSpaceOnUse" id="clipPath3"
      ><path style="fill-rule:evenodd;" d="M145 82 L156 93 L145 104 L134 93 Z"
      /></clipPath
      ><clipPath clipPathUnits="userSpaceOnUse" id="clipPath4"
      ><path style="fill-rule:evenodd;" d="M93 108 L104 119 L93 130 L82 119 Z"
      /></clipPath
      ><clipPath clipPathUnits="userSpaceOnUse" id="clipPath5"
      ><path d="M30 108 L52 108 L52 130 L30 130 L30 108 Z"
      /></clipPath
      ><clipPath clipPathUnits="userSpaceOnUse" id="clipPath6"
      ><path d="M82 56 L104 56 L104 78 L82 78 L82 56 Z"
      /></clipPath
      ><clipPath clipPathUnits="userSpaceOnUse" id="clipPath7"
      ><path d="M134 30 L156 30 L156 52 L134 52 L134 30 Z"
      /></clipPath
    ></defs
    ><g style="fill:white; text-rendering:optimizeSpeed; stroke:white;"
    ><rect x="0" width="342" height="160" y="0" style="stroke:none;"
      /><polygon style="fill:none; stroke:black;" points=" 301 67 249 67"
      /><path d="M301 56 C295.5 61.5 306.5 72.5 301 78" style="fill:none; stroke:black;"
      /><polygon style="fill:none; stroke:black;" points=" 249 67 197 67"
      /><circle style="clip-path:url(#clipPath1); stroke:none;" r="11" cx="249" cy="67"
      /><rect x="238" y="56" width="22" style="clip-path:url(#clipPath1); fill:rgb(255,212,0); stroke:none;" height="22"
      /><rect x="238" y="56" width="22" style="clip-path:url(#clipPath1); fill:none; stroke:black;" height="22"
      /><circle style="fill:none; stroke:black;" r="11" cx="249" cy="67"
      /><polygon style="fill:none; stroke:black;" points=" 197 67 145 93"
      /><polygon style="fill:none; stroke:black;" points=" 197 67 145 41"
      /><polygon style="clip-path:url(#clipPath2); stroke:none;" points=" 197 56 208 67 197 78 186 67"
      /><rect x="186" y="56" width="22" style="clip-path:url(#clipPath2); fill:rgb(0,144,188); stroke:none;" height="11"
      /><rect x="186" y="56" width="22" style="clip-path:url(#clipPath2); fill:none; stroke:black;" height="11"
      /><polygon style="fill:none; stroke:black;" points=" 197 56 208 67 197 78 186 67"
      /><polygon style="fill:none; stroke:black;" points=" 145 93 93 119"
      /><polygon style="fill:none; stroke:black;" points=" 145 93 93 67"
      /><polygon style="clip-path:url(#clipPath3); stroke:none;" points=" 145 82 156 93 145 104 134 93"
      /><rect x="134" y="82" width="22" style="clip-path:url(#clipPath3); fill:rgb(0,144,188); stroke:none;" height="11"
      /><rect x="134" y="82" width="22" style="clip-path:url(#clipPath3); fill:none; stroke:black;" height="11"
      /><polygon style="fill:none; stroke:black;" points=" 145 82 156 93 145 104 134 93"
      /><polygon style="fill:none; stroke:black;" points=" 93 119 41 119"
      /><polygon style="clip-path:url(#clipPath4); stroke:none;" points=" 93 108 104 119 93 130 82 119"
      /><rect x="82" y="108" width="22" style="clip-path:url(#clipPath4); fill:rgb(0,144,188); stroke:none;" height="11"
      /><rect x="82" y="108" width="22" style="clip-path:url(#clipPath4); fill:none; stroke:black;" height="11"
      /><polygon style="fill:none; stroke:black;" points=" 93 108 104 119 93 130 82 119"
      /><rect x="30" y="108" width="22" style="clip-path:url(#clipPath5); stroke:none;" height="22"
      /><rect x="30" y="108" width="22" style="clip-path:url(#clipPath5); fill:rgb(0,144,188); stroke:none;" height="22"
      /><rect x="30" y="108" width="22" style="clip-path:url(#clipPath5); fill:none; stroke:black;" height="22"
      /><rect x="30" y="108" width="22" style="fill:none; stroke:black;" height="22"
      /><rect x="70" y="122" width="7" style="stroke:none;" height="9"
    /></g
    ><g style="font-family:'Serif'; text-rendering:optimizeSpeed; "
    ><path style="stroke:none;" d="M71 127.5156 L73.9531 123.2656 L73.9531 127.5156 L71 127.5156 ZM76.2812 127.5156 L74.8594 127.5156 L74.8594 122.125 L74.2344 122.125 L70.3438 127.6406 L70.3438 128.1875 L73.9531 128.1875 L73.9531 131 L74.8594 131 L74.8594 128.1875 L76.2812 128.1875 L76.2812 127.5156 Z"
      /><rect x="56" y="123" width="8" style="fill:white; stroke:none;" height="8"
      /><path style="stroke:none;" d="M60.9844 128.7031 C60.9375 129.8906 60.1562 130.6562 59.3125 130.6562 C58.2656 130.6562 57.5 129.6875 57.5 127.7188 C57.5 126.2812 58.1562 125.1562 59.3438 125.1562 C60.1406 125.1562 60.7812 125.6875 61.0938 126.6406 L60.9844 128.7031 ZM62.9062 130.2812 C62.7344 130.375 62.5469 130.4219 62.3438 130.4219 C61.9531 130.4219 61.75 130.2188 61.75 129.4219 C61.75 128.4844 61.9688 126.5312 62.1875 124.8281 L62.0312 124.7188 L61.2344 124.9219 L61.1406 125.7969 C60.7812 125.0312 60.1562 124.6562 59.3906 124.6562 C58.0469 124.6562 56.5625 125.8438 56.5625 127.9531 C56.5625 130.0938 57.7188 131.1719 59.1406 131.1719 C60.0156 131.1719 60.6875 130.8125 61.0938 129.9844 C61.2031 130.8594 61.5156 131.1719 62.0156 131.1719 C62.4688 131.1719 62.7969 130.9062 63.0156 130.5625 L62.9062 130.2812 Z"
      /><rect x="82" y="56" width="22" style="clip-path:url(#clipPath6); fill:white; stroke:none;" height="22"
      /><rect x="82" y="56" width="22" style="clip-path:url(#clipPath6); fill:rgb(0,144,188); stroke:none;" height="22"
      /><rect x="82" y="56" width="22" style="fill:none; clip-path:url(#clipPath6);" height="22"
      /><rect x="82" width="22" height="22" y="56" style="fill:none;"
      /><rect x="127" y="104" width="6" style="fill:white; stroke:none;" height="9"
      /><path style="stroke:none;" d="M128.4219 112.0938 C129.0781 111.375 129.7031 110.7188 130.0312 110.3438 C131.9219 108.3125 132.5312 107.4688 132.5312 106.3594 C132.5312 105.0156 131.7812 104.0781 130.1562 104.0781 C128.9062 104.0781 127.7969 104.7031 127.5938 105.9688 C127.7188 106.2031 127.9062 106.3438 128.1562 106.3438 C128.4688 106.3438 128.6562 106.1094 128.7969 105.5938 L129.0938 104.6719 C129.3906 104.5938 129.6562 104.5625 129.8906 104.5625 C130.9219 104.5625 131.5469 105.3125 131.5469 106.4219 C131.5469 107.4375 130.9844 108.4219 129.7031 109.9062 C129.125 110.5781 128.3906 111.4375 127.6406 112.2812 L127.6406 113 L132.9219 113 L132.9219 112.0938 L128.4219 112.0938 Z"
      /><rect x="110" y="113" width="8" style="fill:white; stroke:none;" height="8"
      /><path style="stroke:none;" d="M114.9844 118.7031 C114.9375 119.8906 114.1562 120.6562 113.3125 120.6562 C112.2656 120.6562 111.5 119.6875 111.5 117.7188 C111.5 116.2812 112.1562 115.1562 113.3438 115.1562 C114.1406 115.1562 114.7812 115.6875 115.0938 116.6406 L114.9844 118.7031 ZM116.9062 120.2812 C116.7344 120.375 116.5469 120.4219 116.3438 120.4219 C115.9531 120.4219 115.75 120.2188 115.75 119.4219 C115.75 118.4844 115.9688 116.5312 116.1875 114.8281 L116.0312 114.7188 L115.2344 114.9219 L115.1406 115.7969 C114.7812 115.0312 114.1562 114.6562 113.3906 114.6562 C112.0469 114.6562 110.5625 115.8438 110.5625 117.9531 C110.5625 120.0938 111.7188 121.1719 113.1406 121.1719 C114.0156 121.1719 114.6875 120.8125 115.0938 119.9844 C115.2031 120.8594 115.5156 121.1719 116.0156 121.1719 C116.4688 121.1719 116.7969 120.9062 117.0156 120.5625 L116.9062 120.2812 Z"
      /><rect x="119" y="86" width="7" style="fill:white; stroke:none;" height="9"
      /><path style="stroke:none;" d="M120 91.5156 L122.9531 87.2656 L122.9531 91.5156 L120 91.5156 ZM125.2812 91.5156 L123.8594 91.5156 L123.8594 86.125 L123.2344 86.125 L119.3438 91.6406 L119.3438 92.1875 L122.9531 92.1875 L122.9531 95 L123.8594 95 L123.8594 92.1875 L125.2812 92.1875 L125.2812 91.5156 Z"
      /><rect x="103" y="79" width="8" style="fill:white; stroke:none;" height="8"
      /><path style="stroke:none;" d="M107.9844 84.7031 C107.9375 85.8906 107.1562 86.6562 106.3125 86.6562 C105.2656 86.6562 104.5 85.6875 104.5 83.7188 C104.5 82.2812 105.1562 81.1562 106.3438 81.1562 C107.1406 81.1562 107.7812 81.6875 108.0938 82.6406 L107.9844 84.7031 ZM109.9062 86.2812 C109.7344 86.375 109.5469 86.4219 109.3438 86.4219 C108.9531 86.4219 108.75 86.2188 108.75 85.4219 C108.75 84.4844 108.9688 82.5312 109.1875 80.8281 L109.0312 80.7188 L108.2344 80.9219 L108.1406 81.7969 C107.7812 81.0312 107.1562 80.6562 106.3906 80.6562 C105.0469 80.6562 103.5625 81.8438 103.5625 83.9531 C103.5625 86.0938 104.7188 87.1719 106.1406 87.1719 C107.0156 87.1719 107.6875 86.8125 108.0938 85.9844 C108.2031 86.8594 108.5156 87.1719 109.0156 87.1719 C109.4688 87.1719 109.7969 86.9062 110.0156 86.5625 L109.9062 86.2812 Z"
      /><rect x="134" y="30" width="22" style="clip-path:url(#clipPath7); fill:white; stroke:none;" height="22"
      /><rect x="134" y="30" width="22" style="clip-path:url(#clipPath7); fill:rgb(0,144,188); stroke:none;" height="22"
      /><rect x="134" y="30" width="22" style="fill:none; clip-path:url(#clipPath7);" height="22"
      /><rect x="134" width="22" height="22" y="30" style="fill:none;"
      /><rect x="179" y="78" width="6" style="fill:white; stroke:none;" height="9"
      /><path style="stroke:none;" d="M180.4219 86.0938 C181.0781 85.375 181.7031 84.7188 182.0312 84.3438 C183.9219 82.3125 184.5312 81.4688 184.5312 80.3594 C184.5312 79.0156 183.7812 78.0781 182.1562 78.0781 C180.9062 78.0781 179.7969 78.7031 179.5938 79.9688 C179.7188 80.2031 179.9062 80.3438 180.1562 80.3438 C180.4688 80.3438 180.6562 80.1094 180.7969 79.5938 L181.0938 78.6719 C181.3906 78.5938 181.6562 78.5625 181.8906 78.5625 C182.9219 78.5625 183.5469 79.3125 183.5469 80.4219 C183.5469 81.4375 182.9844 82.4219 181.7031 83.9062 C181.125 84.5781 180.3906 85.4375 179.6406 86.2812 L179.6406 87 L184.9219 87 L184.9219 86.0938 L180.4219 86.0938 Z"
      /><rect x="162" y="87" width="8" style="fill:white; stroke:none;" height="8"
      /><path style="stroke:none;" d="M166.9844 92.7031 C166.9375 93.8906 166.1562 94.6562 165.3125 94.6562 C164.2656 94.6562 163.5 93.6875 163.5 91.7188 C163.5 90.2812 164.1562 89.1562 165.3438 89.1562 C166.1406 89.1562 166.7812 89.6875 167.0938 90.6406 L166.9844 92.7031 ZM168.9062 94.2812 C168.7344 94.375 168.5469 94.4219 168.3438 94.4219 C167.9531 94.4219 167.75 94.2188 167.75 93.4219 C167.75 92.4844 167.9688 90.5312 168.1875 88.8281 L168.0312 88.7188 L167.2344 88.9219 L167.1406 89.7969 C166.7812 89.0312 166.1562 88.6562 165.3906 88.6562 C164.0469 88.6562 162.5625 89.8438 162.5625 91.9531 C162.5625 94.0938 163.7188 95.1719 165.1406 95.1719 C166.0156 95.1719 166.6875 94.8125 167.0938 93.9844 C167.2031 94.8594 167.5156 95.1719 168.0156 95.1719 C168.4688 95.1719 168.7969 94.9062 169.0156 94.5625 L168.9062 94.2812 Z"
      /><rect x="171" y="60" width="7" style="fill:white; stroke:none;" height="9"
      /><path style="stroke:none;" d="M172 65.5156 L174.9531 61.2656 L174.9531 65.5156 L172 65.5156 ZM177.2812 65.5156 L175.8594 65.5156 L175.8594 60.125 L175.2344 60.125 L171.3438 65.6406 L171.3438 66.1875 L174.9531 66.1875 L174.9531 69 L175.8594 69 L175.8594 66.1875 L177.2812 66.1875 L177.2812 65.5156 Z"
      /><rect x="155" y="53" width="8" style="fill:white; stroke:none;" height="8"
      /><path style="stroke:none;" d="M159.9844 58.7031 C159.9375 59.8906 159.1562 60.6562 158.3125 60.6562 C157.2656 60.6562 156.5 59.6875 156.5 57.7188 C156.5 56.2812 157.1562 55.1562 158.3438 55.1562 C159.1406 55.1562 159.7812 55.6875 160.0938 56.6406 L159.9844 58.7031 ZM161.9062 60.2812 C161.7344 60.375 161.5469 60.4219 161.3438 60.4219 C160.9531 60.4219 160.75 60.2188 160.75 59.4219 C160.75 58.4844 160.9688 56.5312 161.1875 54.8281 L161.0312 54.7188 L160.2344 54.9219 L160.1406 55.7969 C159.7812 55.0312 159.1562 54.6562 158.3906 54.6562 C157.0469 54.6562 155.5625 55.8438 155.5625 57.9531 C155.5625 60.0938 156.7188 61.1719 158.1406 61.1719 C159.0156 61.1719 159.6875 60.8125 160.0938 59.9844 C160.2031 60.8594 160.5156 61.1719 161.0156 61.1719 C161.4688 61.1719 161.7969 60.9062 162.0156 60.5625 L161.9062 60.2812 Z"
      /><rect x="227" y="70" width="6" style="fill:white; stroke:none;" height="9"
      /><path style="stroke:none;" d="M228.4219 78.0938 C229.0781 77.375 229.7031 76.7188 230.0312 76.3438 C231.9219 74.3125 232.5312 73.4688 232.5312 72.3594 C232.5312 71.0156 231.7812 70.0781 230.1562 70.0781 C228.9062 70.0781 227.7969 70.7031 227.5938 71.9688 C227.7188 72.2031 227.9062 72.3438 228.1562 72.3438 C228.4688 72.3438 228.6562 72.1094 228.7969 71.5938 L229.0938 70.6719 C229.3906 70.5938 229.6562 70.5625 229.8906 70.5625 C230.9219 70.5625 231.5469 71.3125 231.5469 72.4219 C231.5469 73.4375 230.9844 74.4219 229.7031 75.9062 C229.125 76.5781 228.3906 77.4375 227.6406 78.2812 L227.6406 79 L232.9219 79 L232.9219 78.0938 L228.4219 78.0938 Z"
      /><rect x="212" y="71" width="8" style="fill:white; stroke:none;" height="8"
      /><path style="stroke:none;" d="M216.9844 76.7031 C216.9375 77.8906 216.1562 78.6562 215.3125 78.6562 C214.2656 78.6562 213.5 77.6875 213.5 75.7188 C213.5 74.2812 214.1562 73.1562 215.3438 73.1562 C216.1406 73.1562 216.7812 73.6875 217.0938 74.6406 L216.9844 76.7031 ZM218.9062 78.2812 C218.7344 78.375 218.5469 78.4219 218.3438 78.4219 C217.9531 78.4219 217.75 78.2188 217.75 77.4219 C217.75 76.4844 217.9688 74.5312 218.1875 72.8281 L218.0312 72.7188 L217.2344 72.9219 L217.1406 73.7969 C216.7812 73.0312 216.1562 72.6562 215.3906 72.6562 C214.0469 72.6562 212.5625 73.8438 212.5625 75.9531 C212.5625 78.0938 213.7188 79.1719 215.1406 79.1719 C216.0156 79.1719 216.6875 78.8125 217.0938 77.9844 C217.2031 78.8594 217.5156 79.1719 218.0156 79.1719 C218.4688 79.1719 218.7969 78.9062 219.0156 78.5625 L218.9062 78.2812 Z"
      /><rect x="264" y="71" width="8" style="fill:white; stroke:none;" height="8"
      /><path style="stroke:none;" d="M268.9844 76.7031 C268.9375 77.8906 268.1562 78.6562 267.3125 78.6562 C266.2656 78.6562 265.5 77.6875 265.5 75.7188 C265.5 74.2812 266.1562 73.1562 267.3438 73.1562 C268.1406 73.1562 268.7812 73.6875 269.0938 74.6406 L268.9844 76.7031 ZM270.9062 78.2812 C270.7344 78.375 270.5469 78.4219 270.3438 78.4219 C269.9531 78.4219 269.75 78.2188 269.75 77.4219 C269.75 76.4844 269.9688 74.5312 270.1875 72.8281 L270.0312 72.7188 L269.2344 72.9219 L269.1406 73.7969 C268.7812 73.0312 268.1562 72.6562 267.3906 72.6562 C266.0469 72.6562 264.5625 73.8438 264.5625 75.9531 C264.5625 78.0938 265.7188 79.1719 267.1406 79.1719 C268.0156 79.1719 268.6875 78.8125 269.0938 77.9844 C269.2031 78.8594 269.5156 79.1719 270.0156 79.1719 C270.4688 79.1719 270.7969 78.9062 271.0156 78.5625 L270.9062 78.2812 Z"
    /></g
  ></g
></svg
>
