<?xml version="1.0"?>
<!DOCTYPE svg PUBLIC '-//W3C//DTD SVG 1.0//EN'
          'http://www.w3.org/TR/2001/REC-SVG-20010904/DTD/svg10.dtd'>
<svg xmlns:xlink="http://www.w3.org/1999/xlink" style="fill-opacity:1; color-rendering:auto; color-interpolation:auto; text-rendering:auto; stroke:black; stroke-linecap:square; stroke-miterlimit:10; shape-rendering:auto; stroke-opacity:1; fill:black; stroke-dasharray:none; font-weight:normal; stroke-width:1; font-family:'Dialog'; font-style:normal; stroke-linejoin:miter; font-size:12px; stroke-dashoffset:0; image-rendering:auto;" viewBox="0 0 542 160" xmlns="http://www.w3.org/2000/svg"
><!--Generated by the Batik Graphics2D SVG Generator--><defs id="genericDefs"
  /><g
  ><defs id="defs1"
    ><clipPath clipPathUnits="userSpaceOnUse" id="clipPath1"
      ><path d="M438 56 L460 56 L460 78 L438 78 L438 56 Z"
      /></clipPath
      ><clipPath clipPathUnits="userSpaceOnUse" id="clipPath2"
      ><path d="M386 56 L408 56 L408 78 L386 78 L386 56 Z"
      /></clipPath
      ><clipPath clipPathUnits="userSpaceOnUse" id="clipPath3"
      ><path d="M356 67 C356 73.0751 351.0751 78 345 78 C338.9249 78 334 73.0751 334 67 C334 60.9249 338.9249 56 345 56 C351.0751 56 356 60.9249 356 67 Z"
      /></clipPath
      ><clipPath clipPathUnits="userSpaceOnUse" id="clipPath4"
      ><path d="M304 93 C304 99.0751 299.0751 104 293 104 C286.9249 104 282 99.0751 282 93 C282 86.9249 286.9249 82 293 82 C299.0751 82 304 86.9249 304 93 Z"
      /></clipPath
      ><clipPath clipPathUnits="userSpaceOnUse" id="clipPath5"
      ><path d="M252 119 C252 125.0751 247.0751 130 241 130 C234.9249 130 230 125.0751 230 119 C230 112.9249 234.9249 108 241 108 C247.0751 108 252 112.9249 252 119 Z"
      /></clipPath
      ><clipPath clipPathUnits="userSpaceOnUse" id="clipPath6"
      ><path d="M200 119 C200 125.0751 195.0751 130 189 130 C182.9249 130 178 125.0751 178 119 C178 112.9249 182.9249 108 189 108 C195.0751 108 200 112.9249 200 119 Z"
      /></clipPath
      ><clipPath clipPathUnits="userSpaceOnUse" id="clipPath7"
      ><path d="M252 67 C252 73.0751 247.0751 78 241 78 C234.9249 78 230 73.0751 230 67 C230 60.9249 234.9249 56 241 56 C247.0751 56 252 60.9249 252 67 Z"
      /></clipPath
      ><clipPath clipPathUnits="userSpaceOnUse" id="clipPath8"
      ><path d="M200 67 C200 73.0751 195.0751 78 189 78 C182.9249 78 178 73.0751 178 67 C178 60.9249 182.9249 56 189 56 C195.0751 56 200 60.9249 200 67 Z"
      /></clipPath
      ><clipPath clipPathUnits="userSpaceOnUse" id="clipPath9"
      ><path d="M304 41 C304 47.0751 299.0751 52 293 52 C286.9249 52 282 47.0751 282 41 C282 34.9249 286.9249 30 293 30 C299.0751 30 304 34.9249 304 41 Z"
      /></clipPath
      ><clipPath clipPathUnits="userSpaceOnUse" id="clipPath10"
      ><path d="M104 80 C104 86.0751 99.0751 91 93 91 C86.9249 91 82 86.0751 82 80 C82 73.9249 86.9249 69 93 69 C99.0751 69 104 73.9249 104 80 Z"
      /></clipPath
      ><clipPath clipPathUnits="userSpaceOnUse" id="clipPath11"
      ><path d="M52 80 C52 86.0751 47.0751 91 41 91 C34.9249 91 30 86.0751 30 80 C30 73.9249 34.9249 69 41 69 C47.0751 69 52 73.9249 52 80 Z"
      /></clipPath
    ></defs
    ><g style="fill:white; text-rendering:optimizeSpeed; stroke:white;"
    ><rect x="0" width="542" height="160" y="0" style="stroke:none;"
      /><polygon style="fill:none; stroke:black;" points=" 501 67 449 67"
      /><path d="M501 56 C495.5 61.5 506.5 72.5 501 78" style="fill:none; stroke:black;"
      /><polygon style="fill:none; stroke:black;" points=" 449 67 397 67"
      /><rect x="438" y="56" width="22" style="clip-path:url(#clipPath1); stroke:none;" height="22"
      /><rect x="438" y="56" width="22" style="clip-path:url(#clipPath1); fill:rgb(0,144,188); stroke:none;" height="22"
      /><rect x="438" y="56" width="22" style="clip-path:url(#clipPath1); fill:none; stroke:black;" height="22"
      /><rect x="438" y="56" width="22" style="fill:none; stroke:black;" height="22"
      /><polygon style="fill:none; stroke:black;" points=" 397 67 345 67"
      /><rect x="386" y="56" width="22" style="clip-path:url(#clipPath2); stroke:none;" height="22"
      /><rect x="386" y="56" width="22" style="clip-path:url(#clipPath2); fill:rgb(0,144,188); stroke:none;" height="22"
      /><rect x="386" y="56" width="22" style="clip-path:url(#clipPath2); fill:none; stroke:black;" height="22"
      /><rect x="386" y="56" width="22" style="fill:none; stroke:black;" height="22"
      /><polygon style="fill:none; stroke:black;" points=" 345 67 293 93"
      /><polygon style="fill:none; stroke:black;" points=" 345 67 293 41"
      /><circle style="clip-path:url(#clipPath3); stroke:none;" r="11" cx="345" cy="67"
      /><rect x="334" y="56" width="22" style="clip-path:url(#clipPath3); fill:rgb(0,166,81); stroke:none;" height="22"
      /><rect x="334" y="56" width="22" style="clip-path:url(#clipPath3); fill:none; stroke:black;" height="22"
      /><circle style="fill:none; stroke:black;" r="11" cx="345" cy="67"
      /><polygon style="fill:none; stroke:black;" points=" 293 93 241 119"
      /><polygon style="fill:none; stroke:black;" points=" 293 93 241 67"
      /><circle style="clip-path:url(#clipPath4); stroke:none;" r="11" cx="293" cy="93"
      /><rect x="282" y="82" width="22" style="clip-path:url(#clipPath4); fill:rgb(0,166,81); stroke:none;" height="22"
      /><rect x="282" y="82" width="22" style="clip-path:url(#clipPath4); fill:none; stroke:black;" height="22"
      /><circle style="fill:none; stroke:black;" r="11" cx="293" cy="93"
      /><polygon style="fill:none; stroke:black;" points=" 241 119 189 119"
      /><circle style="clip-path:url(#clipPath5); stroke:none;" r="11" cx="241" cy="119"
      /><rect x="230" y="108" width="22" style="clip-path:url(#clipPath5); fill:rgb(0,166,81); stroke:none;" height="22"
      /><rect x="230" y="108" width="22" style="clip-path:url(#clipPath5); fill:none; stroke:black;" height="22"
      /><circle style="fill:none; stroke:black;" r="11" cx="241" cy="119"
      /><circle style="clip-path:url(#clipPath6); stroke:none;" r="11" cx="189" cy="119"
      /><rect x="178" y="108" width="22" style="clip-path:url(#clipPath6); fill:rgb(0,166,81); stroke:none;" height="22"
      /><rect x="178" y="108" width="22" style="clip-path:url(#clipPath6); fill:none; stroke:black;" height="22"
      /><circle style="fill:none; stroke:black;" r="11" cx="189" cy="119"
      /><rect x="219" y="122" width="5" style="stroke:none;" height="10"
    /></g
    ><g style="font-family:'Serif'; text-rendering:optimizeSpeed; "
    ><path style="stroke:none;" d="M220.8906 130.6875 C220.4844 130.6875 220.1562 131.0469 220.1562 131.4219 C220.1562 131.8125 220.4844 132.1562 220.8906 132.1562 C221.2969 132.1562 221.6406 131.8125 221.6406 131.4219 C221.6406 131.0469 221.2969 130.6875 220.8906 130.6875 ZM222.4688 124.5781 C222.7188 124.8906 222.875 125.2656 222.8906 125.6562 C222.8906 126.1875 222.625 126.5 222.0312 126.7656 L221.4062 127.0156 C220.6406 127.3125 220.3906 127.5469 220.3906 127.9375 C220.3906 128.1094 220.4531 128.3438 220.5781 128.8125 L220.7344 129.3438 L221.1094 129.3438 L221.0938 128.5312 C221.0938 128.0938 221.2031 127.9688 221.7812 127.7344 L222.2031 127.5625 C223.0312 127.2188 223.4531 126.6875 223.4531 125.8438 C223.4531 124.1562 221.6562 123.1875 220.5 123.0312 C220.1094 123.125 219.9062 123.2969 219.9062 123.6406 C219.9062 123.9375 220.0625 124.1562 220.7188 124.2656 L222.4688 124.5781 Z"
      /><rect x="205" y="122" width="5" style="fill:white; stroke:none;" height="10"
      /><path style="stroke:none;" d="M206.8906 130.6875 C206.4844 130.6875 206.1562 131.0469 206.1562 131.4219 C206.1562 131.8125 206.4844 132.1562 206.8906 132.1562 C207.2969 132.1562 207.6406 131.8125 207.6406 131.4219 C207.6406 131.0469 207.2969 130.6875 206.8906 130.6875 ZM208.4688 124.5781 C208.7188 124.8906 208.875 125.2656 208.8906 125.6562 C208.8906 126.1875 208.625 126.5 208.0312 126.7656 L207.4062 127.0156 C206.6406 127.3125 206.3906 127.5469 206.3906 127.9375 C206.3906 128.1094 206.4531 128.3438 206.5781 128.8125 L206.7344 129.3438 L207.1094 129.3438 L207.0938 128.5312 C207.0938 128.0938 207.2031 127.9688 207.7812 127.7344 L208.2031 127.5625 C209.0312 127.2188 209.4531 126.6875 209.4531 125.8438 C209.4531 124.1562 207.6562 123.1875 206.5 123.0312 C206.1094 123.125 205.9062 123.2969 205.9062 123.6406 C205.9062 123.9375 206.0625 124.1562 206.7188 124.2656 L208.4688 124.5781 Z"
      /><polygon style="fill:none;" points=" 241 67 189 67"
      /><circle style="fill:white; clip-path:url(#clipPath7); stroke:none;" r="11" cx="241" cy="67"
      /><rect x="230" y="56" width="22" style="clip-path:url(#clipPath7); fill:rgb(0,166,81); stroke:none;" height="22"
      /><rect x="230" y="56" width="22" style="fill:none; clip-path:url(#clipPath7);" height="22"
      /><circle r="11" style="fill:none;" cx="241" cy="67"
      /><circle style="fill:white; clip-path:url(#clipPath8); stroke:none;" r="11" cx="189" cy="67"
      /><rect x="178" y="56" width="22" style="clip-path:url(#clipPath8); fill:rgb(0,166,81); stroke:none;" height="22"
      /><rect x="178" y="56" width="22" style="fill:none; clip-path:url(#clipPath8);" height="22"
      /><circle r="11" style="fill:none;" cx="189" cy="67"
      /><rect x="219" y="70" width="5" style="fill:white; stroke:none;" height="10"
      /><path style="stroke:none;" d="M220.8906 78.6875 C220.4844 78.6875 220.1562 79.0469 220.1562 79.4219 C220.1562 79.8125 220.4844 80.1562 220.8906 80.1562 C221.2969 80.1562 221.6406 79.8125 221.6406 79.4219 C221.6406 79.0469 221.2969 78.6875 220.8906 78.6875 ZM222.4688 72.5781 C222.7188 72.8906 222.875 73.2656 222.8906 73.6562 C222.8906 74.1875 222.625 74.5 222.0312 74.7656 L221.4062 75.0156 C220.6406 75.3125 220.3906 75.5469 220.3906 75.9375 C220.3906 76.1094 220.4531 76.3438 220.5781 76.8125 L220.7344 77.3438 L221.1094 77.3438 L221.0938 76.5312 C221.0938 76.0938 221.2031 75.9688 221.7812 75.7344 L222.2031 75.5625 C223.0312 75.2188 223.4531 74.6875 223.4531 73.8438 C223.4531 72.1562 221.6562 71.1875 220.5 71.0312 C220.1094 71.125 219.9062 71.2969 219.9062 71.6406 C219.9062 71.9375 220.0625 72.1562 220.7188 72.2656 L222.4688 72.5781 Z"
      /><rect x="205" y="70" width="5" style="fill:white; stroke:none;" height="10"
      /><path style="stroke:none;" d="M206.8906 78.6875 C206.4844 78.6875 206.1562 79.0469 206.1562 79.4219 C206.1562 79.8125 206.4844 80.1562 206.8906 80.1562 C207.2969 80.1562 207.6406 79.8125 207.6406 79.4219 C207.6406 79.0469 207.2969 78.6875 206.8906 78.6875 ZM208.4688 72.5781 C208.7188 72.8906 208.875 73.2656 208.8906 73.6562 C208.8906 74.1875 208.625 74.5 208.0312 74.7656 L207.4062 75.0156 C206.6406 75.3125 206.3906 75.5469 206.3906 75.9375 C206.3906 76.1094 206.4531 76.3438 206.5781 76.8125 L206.7344 77.3438 L207.1094 77.3438 L207.0938 76.5312 C207.0938 76.0938 207.2031 75.9688 207.7812 75.7344 L208.2031 75.5625 C209.0312 75.2188 209.4531 74.6875 209.4531 73.8438 C209.4531 72.1562 207.6562 71.1875 206.5 71.0312 C206.1094 71.125 205.9062 71.2969 205.9062 71.6406 C205.9062 71.9375 206.0625 72.1562 206.7188 72.2656 L208.4688 72.5781 Z"
      /><rect x="275" y="104" width="5" style="fill:white; stroke:none;" height="10"
      /><path style="stroke:none;" d="M276.8906 112.6875 C276.4844 112.6875 276.1562 113.0469 276.1562 113.4219 C276.1562 113.8125 276.4844 114.1562 276.8906 114.1562 C277.2969 114.1562 277.6406 113.8125 277.6406 113.4219 C277.6406 113.0469 277.2969 112.6875 276.8906 112.6875 ZM278.4688 106.5781 C278.7188 106.8906 278.875 107.2656 278.8906 107.6562 C278.8906 108.1875 278.625 108.5 278.0312 108.7656 L277.4062 109.0156 C276.6406 109.3125 276.3906 109.5469 276.3906 109.9375 C276.3906 110.1094 276.4531 110.3438 276.5781 110.8125 L276.7344 111.3438 L277.1094 111.3438 L277.0938 110.5312 C277.0938 110.0938 277.2031 109.9688 277.7812 109.7344 L278.2031 109.5625 C279.0312 109.2188 279.4531 108.6875 279.4531 107.8438 C279.4531 106.1562 277.6562 105.1875 276.5 105.0312 C276.1094 105.125 275.9062 105.2969 275.9062 105.6406 C275.9062 105.9375 276.0625 106.1562 276.7188 106.2656 L278.4688 106.5781 Z"
      /><rect x="260" y="112" width="5" style="fill:white; stroke:none;" height="10"
      /><path style="stroke:none;" d="M261.8906 120.6875 C261.4844 120.6875 261.1562 121.0469 261.1562 121.4219 C261.1562 121.8125 261.4844 122.1562 261.8906 122.1562 C262.2969 122.1562 262.6406 121.8125 262.6406 121.4219 C262.6406 121.0469 262.2969 120.6875 261.8906 120.6875 ZM263.4688 114.5781 C263.7188 114.8906 263.875 115.2656 263.8906 115.6562 C263.8906 116.1875 263.625 116.5 263.0312 116.7656 L262.4062 117.0156 C261.6406 117.3125 261.3906 117.5469 261.3906 117.9375 C261.3906 118.1094 261.4531 118.3438 261.5781 118.8125 L261.7344 119.3438 L262.1094 119.3438 L262.0938 118.5312 C262.0938 118.0938 262.2031 117.9688 262.7812 117.7344 L263.2031 117.5625 C264.0312 117.2188 264.4531 116.6875 264.4531 115.8438 C264.4531 114.1562 262.6562 113.1875 261.5 113.0312 C261.1094 113.125 260.9062 113.2969 260.9062 113.6406 C260.9062 113.9375 261.0625 114.1562 261.7188 114.2656 L263.4688 114.5781 Z"
      /><rect x="268" y="86" width="5" style="fill:white; stroke:none;" height="10"
      /><path style="stroke:none;" d="M269.8906 94.6875 C269.4844 94.6875 269.1562 95.0469 269.1562 95.4219 C269.1562 95.8125 269.4844 96.1562 269.8906 96.1562 C270.2969 96.1562 270.6406 95.8125 270.6406 95.4219 C270.6406 95.0469 270.2969 94.6875 269.8906 94.6875 ZM271.4688 88.5781 C271.7188 88.8906 271.875 89.2656 271.8906 89.6562 C271.8906 90.1875 271.625 90.5 271.0312 90.7656 L270.4062 91.0156 C269.6406 91.3125 269.3906 91.5469 269.3906 91.9375 C269.3906 92.1094 269.4531 92.3438 269.5781 92.8125 L269.7344 93.3438 L270.1094 93.3438 L270.0938 92.5312 C270.0938 92.0938 270.2031 91.9688 270.7812 91.7344 L271.2031 91.5625 C272.0312 91.2188 272.4531 90.6875 272.4531 89.8438 C272.4531 88.1562 270.6562 87.1875 269.5 87.0312 C269.1094 87.125 268.9062 87.2969 268.9062 87.6406 C268.9062 87.9375 269.0625 88.1562 269.7188 88.2656 L271.4688 88.5781 Z"
      /><rect x="253" y="78" width="5" style="fill:white; stroke:none;" height="10"
      /><path style="stroke:none;" d="M254.8906 86.6875 C254.4844 86.6875 254.1562 87.0469 254.1562 87.4219 C254.1562 87.8125 254.4844 88.1562 254.8906 88.1562 C255.2969 88.1562 255.6406 87.8125 255.6406 87.4219 C255.6406 87.0469 255.2969 86.6875 254.8906 86.6875 ZM256.4688 80.5781 C256.7188 80.8906 256.875 81.2656 256.8906 81.6562 C256.8906 82.1875 256.625 82.5 256.0312 82.7656 L255.4062 83.0156 C254.6406 83.3125 254.3906 83.5469 254.3906 83.9375 C254.3906 84.1094 254.4531 84.3438 254.5781 84.8125 L254.7344 85.3438 L255.1094 85.3438 L255.0938 84.5312 C255.0938 84.0938 255.2031 83.9688 255.7812 83.7344 L256.2031 83.5625 C257.0312 83.2188 257.4531 82.6875 257.4531 81.8438 C257.4531 80.1562 255.6562 79.1875 254.5 79.0312 C254.1094 79.125 253.9062 79.2969 253.9062 79.6406 C253.9062 79.9375 254.0625 80.1562 254.7188 80.2656 L256.4688 80.5781 Z"
      /><circle style="fill:white; clip-path:url(#clipPath9); stroke:none;" r="11" cx="293" cy="41"
      /><rect x="282" y="30" width="22" style="clip-path:url(#clipPath9); fill:rgb(0,166,81); stroke:none;" height="22"
      /><rect x="282" y="30" width="22" style="fill:none; clip-path:url(#clipPath9);" height="22"
      /><circle r="11" style="fill:none;" cx="293" cy="41"
      /><rect x="327" y="78" width="5" style="fill:white; stroke:none;" height="10"
      /><path style="stroke:none;" d="M328.8906 86.6875 C328.4844 86.6875 328.1562 87.0469 328.1562 87.4219 C328.1562 87.8125 328.4844 88.1562 328.8906 88.1562 C329.2969 88.1562 329.6406 87.8125 329.6406 87.4219 C329.6406 87.0469 329.2969 86.6875 328.8906 86.6875 ZM330.4688 80.5781 C330.7188 80.8906 330.875 81.2656 330.8906 81.6562 C330.8906 82.1875 330.625 82.5 330.0312 82.7656 L329.4062 83.0156 C328.6406 83.3125 328.3906 83.5469 328.3906 83.9375 C328.3906 84.1094 328.4531 84.3438 328.5781 84.8125 L328.7344 85.3438 L329.1094 85.3438 L329.0938 84.5312 C329.0938 84.0938 329.2031 83.9688 329.7812 83.7344 L330.2031 83.5625 C331.0312 83.2188 331.4531 82.6875 331.4531 81.8438 C331.4531 80.1562 329.6562 79.1875 328.5 79.0312 C328.1094 79.125 327.9062 79.2969 327.9062 79.6406 C327.9062 79.9375 328.0625 80.1562 328.7188 80.2656 L330.4688 80.5781 Z"
      /><rect x="312" y="86" width="5" style="fill:white; stroke:none;" height="10"
      /><path style="stroke:none;" d="M313.8906 94.6875 C313.4844 94.6875 313.1562 95.0469 313.1562 95.4219 C313.1562 95.8125 313.4844 96.1562 313.8906 96.1562 C314.2969 96.1562 314.6406 95.8125 314.6406 95.4219 C314.6406 95.0469 314.2969 94.6875 313.8906 94.6875 ZM315.4688 88.5781 C315.7188 88.8906 315.875 89.2656 315.8906 89.6562 C315.8906 90.1875 315.625 90.5 315.0312 90.7656 L314.4062 91.0156 C313.6406 91.3125 313.3906 91.5469 313.3906 91.9375 C313.3906 92.1094 313.4531 92.3438 313.5781 92.8125 L313.7344 93.3438 L314.1094 93.3438 L314.0938 92.5312 C314.0938 92.0938 314.2031 91.9688 314.7812 91.7344 L315.2031 91.5625 C316.0312 91.2188 316.4531 90.6875 316.4531 89.8438 C316.4531 88.1562 314.6562 87.1875 313.5 87.0312 C313.1094 87.125 312.9062 87.2969 312.9062 87.6406 C312.9062 87.9375 313.0625 88.1562 313.7188 88.2656 L315.4688 88.5781 Z"
      /><rect x="320" y="60" width="5" style="fill:white; stroke:none;" height="10"
      /><path style="stroke:none;" d="M321.8906 68.6875 C321.4844 68.6875 321.1562 69.0469 321.1562 69.4219 C321.1562 69.8125 321.4844 70.1562 321.8906 70.1562 C322.2969 70.1562 322.6406 69.8125 322.6406 69.4219 C322.6406 69.0469 322.2969 68.6875 321.8906 68.6875 ZM323.4688 62.5781 C323.7188 62.8906 323.875 63.2656 323.8906 63.6562 C323.8906 64.1875 323.625 64.5 323.0312 64.7656 L322.4062 65.0156 C321.6406 65.3125 321.3906 65.5469 321.3906 65.9375 C321.3906 66.1094 321.4531 66.3438 321.5781 66.8125 L321.7344 67.3438 L322.1094 67.3438 L322.0938 66.5312 C322.0938 66.0938 322.2031 65.9688 322.7812 65.7344 L323.2031 65.5625 C324.0312 65.2188 324.4531 64.6875 324.4531 63.8438 C324.4531 62.1562 322.6562 61.1875 321.5 61.0312 C321.1094 61.125 320.9062 61.2969 320.9062 61.6406 C320.9062 61.9375 321.0625 62.1562 321.7188 62.2656 L323.4688 62.5781 Z"
      /><rect x="305" y="52" width="5" style="fill:white; stroke:none;" height="10"
      /><path style="stroke:none;" d="M306.8906 60.6875 C306.4844 60.6875 306.1562 61.0469 306.1562 61.4219 C306.1562 61.8125 306.4844 62.1562 306.8906 62.1562 C307.2969 62.1562 307.6406 61.8125 307.6406 61.4219 C307.6406 61.0469 307.2969 60.6875 306.8906 60.6875 ZM308.4688 54.5781 C308.7188 54.8906 308.875 55.2656 308.8906 55.6562 C308.8906 56.1875 308.625 56.5 308.0312 56.7656 L307.4062 57.0156 C306.6406 57.3125 306.3906 57.5469 306.3906 57.9375 C306.3906 58.1094 306.4531 58.3438 306.5781 58.8125 L306.7344 59.3438 L307.1094 59.3438 L307.0938 58.5312 C307.0938 58.0938 307.2031 57.9688 307.7812 57.7344 L308.2031 57.5625 C309.0312 57.2188 309.4531 56.6875 309.4531 55.8438 C309.4531 54.1562 307.6562 53.1875 306.5 53.0312 C306.1094 53.125 305.9062 53.2969 305.9062 53.6406 C305.9062 53.9375 306.0625 54.1562 306.7188 54.2656 L308.4688 54.5781 Z"
      /><rect x="375" y="70" width="5" style="fill:white; stroke:none;" height="10"
      /><path style="stroke:none;" d="M376.8906 78.6875 C376.4844 78.6875 376.1562 79.0469 376.1562 79.4219 C376.1562 79.8125 376.4844 80.1562 376.8906 80.1562 C377.2969 80.1562 377.6406 79.8125 377.6406 79.4219 C377.6406 79.0469 377.2969 78.6875 376.8906 78.6875 ZM378.4688 72.5781 C378.7188 72.8906 378.875 73.2656 378.8906 73.6562 C378.8906 74.1875 378.625 74.5 378.0312 74.7656 L377.4062 75.0156 C376.6406 75.3125 376.3906 75.5469 376.3906 75.9375 C376.3906 76.1094 376.4531 76.3438 376.5781 76.8125 L376.7344 77.3438 L377.1094 77.3438 L377.0938 76.5312 C377.0938 76.0938 377.2031 75.9688 377.7812 75.7344 L378.2031 75.5625 C379.0312 75.2188 379.4531 74.6875 379.4531 73.8438 C379.4531 72.1562 377.6562 71.1875 376.5 71.0312 C376.1094 71.125 375.9062 71.2969 375.9062 71.6406 C375.9062 71.9375 376.0625 72.1562 376.7188 72.2656 L378.4688 72.5781 Z"
      /><rect x="361" y="70" width="5" style="fill:white; stroke:none;" height="10"
      /><path style="stroke:none;" d="M362.8906 78.6875 C362.4844 78.6875 362.1562 79.0469 362.1562 79.4219 C362.1562 79.8125 362.4844 80.1562 362.8906 80.1562 C363.2969 80.1562 363.6406 79.8125 363.6406 79.4219 C363.6406 79.0469 363.2969 78.6875 362.8906 78.6875 ZM364.4688 72.5781 C364.7188 72.8906 364.875 73.2656 364.8906 73.6562 C364.8906 74.1875 364.625 74.5 364.0312 74.7656 L363.4062 75.0156 C362.6406 75.3125 362.3906 75.5469 362.3906 75.9375 C362.3906 76.1094 362.4531 76.3438 362.5781 76.8125 L362.7344 77.3438 L363.1094 77.3438 L363.0938 76.5312 C363.0938 76.0938 363.2031 75.9688 363.7812 75.7344 L364.2031 75.5625 C365.0312 75.2188 365.4531 74.6875 365.4531 73.8438 C365.4531 72.1562 363.6562 71.1875 362.5 71.0312 C362.1094 71.125 361.9062 71.2969 361.9062 71.6406 C361.9062 71.9375 362.0625 72.1562 362.7188 72.2656 L364.4688 72.5781 Z"
      /><rect x="427" y="70" width="5" style="fill:white; stroke:none;" height="10"
      /><path style="stroke:none;" d="M428.8906 78.6875 C428.4844 78.6875 428.1562 79.0469 428.1562 79.4219 C428.1562 79.8125 428.4844 80.1562 428.8906 80.1562 C429.2969 80.1562 429.6406 79.8125 429.6406 79.4219 C429.6406 79.0469 429.2969 78.6875 428.8906 78.6875 ZM430.4688 72.5781 C430.7188 72.8906 430.875 73.2656 430.8906 73.6562 C430.8906 74.1875 430.625 74.5 430.0312 74.7656 L429.4062 75.0156 C428.6406 75.3125 428.3906 75.5469 428.3906 75.9375 C428.3906 76.1094 428.4531 76.3438 428.5781 76.8125 L428.7344 77.3438 L429.1094 77.3438 L429.0938 76.5312 C429.0938 76.0938 429.2031 75.9688 429.7812 75.7344 L430.2031 75.5625 C431.0312 75.2188 431.4531 74.6875 431.4531 73.8438 C431.4531 72.1562 429.6562 71.1875 428.5 71.0312 C428.1094 71.125 427.9062 71.2969 427.9062 71.6406 C427.9062 71.9375 428.0625 72.1562 428.7188 72.2656 L430.4688 72.5781 Z"
      /><rect x="413" y="70" width="5" style="fill:white; stroke:none;" height="10"
      /><path style="stroke:none;" d="M414.8906 78.6875 C414.4844 78.6875 414.1562 79.0469 414.1562 79.4219 C414.1562 79.8125 414.4844 80.1562 414.8906 80.1562 C415.2969 80.1562 415.6406 79.8125 415.6406 79.4219 C415.6406 79.0469 415.2969 78.6875 414.8906 78.6875 ZM416.4688 72.5781 C416.7188 72.8906 416.875 73.2656 416.8906 73.6562 C416.8906 74.1875 416.625 74.5 416.0312 74.7656 L415.4062 75.0156 C414.6406 75.3125 414.3906 75.5469 414.3906 75.9375 C414.3906 76.1094 414.4531 76.3438 414.5781 76.8125 L414.7344 77.3438 L415.1094 77.3438 L415.0938 76.5312 C415.0938 76.0938 415.2031 75.9688 415.7812 75.7344 L416.2031 75.5625 C417.0312 75.2188 417.4531 74.6875 417.4531 73.8438 C417.4531 72.1562 415.6562 71.1875 414.5 71.0312 C414.1094 71.125 413.9062 71.2969 413.9062 71.6406 C413.9062 71.9375 414.0625 72.1562 414.7188 72.2656 L416.4688 72.5781 Z"
      /><rect x="465" y="70" width="5" style="fill:white; stroke:none;" height="10"
      /><path style="stroke:none;" d="M466.8906 78.6875 C466.4844 78.6875 466.1562 79.0469 466.1562 79.4219 C466.1562 79.8125 466.4844 80.1562 466.8906 80.1562 C467.2969 80.1562 467.6406 79.8125 467.6406 79.4219 C467.6406 79.0469 467.2969 78.6875 466.8906 78.6875 ZM468.4688 72.5781 C468.7188 72.8906 468.875 73.2656 468.8906 73.6562 C468.8906 74.1875 468.625 74.5 468.0312 74.7656 L467.4062 75.0156 C466.6406 75.3125 466.3906 75.5469 466.3906 75.9375 C466.3906 76.1094 466.4531 76.3438 466.5781 76.8125 L466.7344 77.3438 L467.1094 77.3438 L467.0938 76.5312 C467.0938 76.0938 467.2031 75.9688 467.7812 75.7344 L468.2031 75.5625 C469.0312 75.2188 469.4531 74.6875 469.4531 73.8438 C469.4531 72.1562 467.6562 71.1875 466.5 71.0312 C466.1094 71.125 465.9062 71.2969 465.9062 71.6406 C465.9062 71.9375 466.0625 72.1562 466.7188 72.2656 L468.4688 72.5781 Z"
      /><polygon style="fill:none;" points=" 178 130 167 130 167 30 178 30 167 30 167 130"
      /><polygon style="fill:none;" points=" 145 80 93 80"
      /><polygon style="fill:none;" points=" 93 80 41 80"
      /><circle style="fill:white; clip-path:url(#clipPath10); stroke:none;" r="11" cx="93" cy="80"
      /><rect x="82" y="69" width="22" style="clip-path:url(#clipPath10); fill:rgb(0,166,81); stroke:none;" height="22"
      /><rect x="82" y="69" width="22" style="fill:none; clip-path:url(#clipPath10);" height="22"
      /><circle r="11" style="fill:none;" cx="93" cy="80"
      /><circle style="fill:white; clip-path:url(#clipPath11); stroke:none;" r="11" cx="41" cy="80"
      /><rect x="30" y="69" width="22" style="clip-path:url(#clipPath11); fill:rgb(0,166,81); stroke:none;" height="22"
      /><rect x="30" y="69" width="22" style="fill:none; clip-path:url(#clipPath11);" height="22"
      /><circle r="11" style="fill:none;" cx="41" cy="80"
      /><rect x="71" y="83" width="5" style="fill:white; stroke:none;" height="10"
      /><path style="stroke:none;" d="M72.8906 91.6875 C72.4844 91.6875 72.1562 92.0469 72.1562 92.4219 C72.1562 92.8125 72.4844 93.1562 72.8906 93.1562 C73.2969 93.1562 73.6406 92.8125 73.6406 92.4219 C73.6406 92.0469 73.2969 91.6875 72.8906 91.6875 ZM74.4688 85.5781 C74.7188 85.8906 74.875 86.2656 74.8906 86.6562 C74.8906 87.1875 74.625 87.5 74.0312 87.7656 L73.4062 88.0156 C72.6406 88.3125 72.3906 88.5469 72.3906 88.9375 C72.3906 89.1094 72.4531 89.3438 72.5781 89.8125 L72.7344 90.3438 L73.1094 90.3438 L73.0938 89.5312 C73.0938 89.0938 73.2031 88.9688 73.7812 88.7344 L74.2031 88.5625 C75.0312 88.2188 75.4531 87.6875 75.4531 86.8438 C75.4531 85.1562 73.6562 84.1875 72.5 84.0312 C72.1094 84.125 71.9062 84.2969 71.9062 84.6406 C71.9062 84.9375 72.0625 85.1562 72.7188 85.2656 L74.4688 85.5781 Z"
      /><rect x="57" y="83" width="5" style="fill:white; stroke:none;" height="10"
      /><path style="stroke:none;" d="M58.8906 91.6875 C58.4844 91.6875 58.1562 92.0469 58.1562 92.4219 C58.1562 92.8125 58.4844 93.1562 58.8906 93.1562 C59.2969 93.1562 59.6406 92.8125 59.6406 92.4219 C59.6406 92.0469 59.2969 91.6875 58.8906 91.6875 ZM60.4688 85.5781 C60.7188 85.8906 60.875 86.2656 60.8906 86.6562 C60.8906 87.1875 60.625 87.5 60.0312 87.7656 L59.4062 88.0156 C58.6406 88.3125 58.3906 88.5469 58.3906 88.9375 C58.3906 89.1094 58.4531 89.3438 58.5781 89.8125 L58.7344 90.3438 L59.1094 90.3438 L59.0938 89.5312 C59.0938 89.0938 59.2031 88.9688 59.7812 88.7344 L60.2031 88.5625 C61.0312 88.2188 61.4531 87.6875 61.4531 86.8438 C61.4531 85.1562 59.6562 84.1875 58.5 84.0312 C58.1094 84.125 57.9062 84.2969 57.9062 84.6406 C57.9062 84.9375 58.0625 85.1562 58.7188 85.2656 L60.4688 85.5781 Z"
      /><rect x="123" y="83" width="5" style="fill:white; stroke:none;" height="10"
      /><path style="stroke:none;" d="M124.8906 91.6875 C124.4844 91.6875 124.1562 92.0469 124.1562 92.4219 C124.1562 92.8125 124.4844 93.1562 124.8906 93.1562 C125.2969 93.1562 125.6406 92.8125 125.6406 92.4219 C125.6406 92.0469 125.2969 91.6875 124.8906 91.6875 ZM126.4688 85.5781 C126.7188 85.8906 126.875 86.2656 126.8906 86.6562 C126.8906 87.1875 126.625 87.5 126.0312 87.7656 L125.4062 88.0156 C124.6406 88.3125 124.3906 88.5469 124.3906 88.9375 C124.3906 89.1094 124.4531 89.3438 124.5781 89.8125 L124.7344 90.3438 L125.1094 90.3438 L125.0938 89.5312 C125.0938 89.0938 125.2031 88.9688 125.7812 88.7344 L126.2031 88.5625 C127.0312 88.2188 127.4531 87.6875 127.4531 86.8438 C127.4531 85.1562 125.6562 84.1875 124.5 84.0312 C124.1094 84.125 123.9062 84.2969 123.9062 84.6406 C123.9062 84.9375 124.0625 85.1562 124.7188 85.2656 L126.4688 85.5781 Z"
      /><rect x="109" y="83" width="5" style="fill:white; stroke:none;" height="10"
      /><path style="stroke:none;" d="M110.8906 91.6875 C110.4844 91.6875 110.1562 92.0469 110.1562 92.4219 C110.1562 92.8125 110.4844 93.1562 110.8906 93.1562 C111.2969 93.1562 111.6406 92.8125 111.6406 92.4219 C111.6406 92.0469 111.2969 91.6875 110.8906 91.6875 ZM112.4688 85.5781 C112.7188 85.8906 112.875 86.2656 112.8906 86.6562 C112.8906 87.1875 112.625 87.5 112.0312 87.7656 L111.4062 88.0156 C110.6406 88.3125 110.3906 88.5469 110.3906 88.9375 C110.3906 89.1094 110.4531 89.3438 110.5781 89.8125 L110.7344 90.3438 L111.1094 90.3438 L111.0938 89.5312 C111.0938 89.0938 111.2031 88.9688 111.7812 88.7344 L112.2031 88.5625 C113.0312 88.2188 113.4531 87.6875 113.4531 86.8438 C113.4531 85.1562 111.6562 84.1875 110.5 84.0312 C110.1094 84.125 109.9062 84.2969 109.9062 84.6406 C109.9062 84.9375 110.0625 85.1562 110.7188 85.2656 L112.4688 85.5781 Z"
    /></g
  ></g
></svg
>
