<?xml version="1.0"?>
<!DOCTYPE svg PUBLIC '-//W3C//DTD SVG 1.0//EN'
          'http://www.w3.org/TR/2001/REC-SVG-20010904/DTD/svg10.dtd'>
<svg xmlns:xlink="http://www.w3.org/1999/xlink" style="fill-opacity:1; color-rendering:auto; color-interpolation:auto; text-rendering:auto; stroke:black; stroke-linecap:square; stroke-miterlimit:10; shape-rendering:auto; stroke-opacity:1; fill:black; stroke-dasharray:none; font-weight:normal; stroke-width:1; font-family:'Dialog'; font-style:normal; stroke-linejoin:miter; font-size:12px; stroke-dashoffset:0; image-rendering:auto;" viewBox="0 0 313 180" xmlns="http://www.w3.org/2000/svg"
><!--Generated by the Batik Graphics2D SVG Generator--><defs id="genericDefs"
  /><g
  ><defs id="defs1"
    ><clipPath clipPathUnits="userSpaceOnUse" id="clipPath1"
      ><path d="M209 90 L231 90 L231 112 L209 112 L209 90 Z"
      /></clipPath
      ><clipPath clipPathUnits="userSpaceOnUse" id="clipPath2"
      ><path d="M167 139 C167 145.0751 162.0751 150 156 150 C149.9249 150 145 145.0751 145 139 C145 132.9249 149.9249 128 156 128 C162.0751 128 167 132.9249 167 139 Z"
      /></clipPath
      ><clipPath clipPathUnits="userSpaceOnUse" id="clipPath3"
      ><path d="M115 139 C115 145.0751 110.0751 150 104 150 C97.9249 150 93 145.0751 93 139 C93 132.9249 97.9249 128 104 128 C110.0751 128 115 132.9249 115 139 Z"
      /></clipPath
      ><clipPath clipPathUnits="userSpaceOnUse" id="clipPath4"
      ><path style="fill-rule:evenodd;" d="M156 53 L166 60 L162 72 L149 72 L145 60 L156 53 Z"
      /></clipPath
      ><clipPath clipPathUnits="userSpaceOnUse" id="clipPath5"
      ><path style="fill-rule:evenodd;" d="M93 53 L104 64 L93 75 L82 64 Z"
      /></clipPath
      ><clipPath clipPathUnits="userSpaceOnUse" id="clipPath6"
      ><path style="fill-rule:evenodd;" d="M41 53 L52 64 L41 75 L30 64 Z"
      /></clipPath
    ></defs
    ><g style="fill:white; text-rendering:optimizeSpeed; stroke:white;"
    ><rect x="0" width="313" height="180" y="0" style="stroke:none;"
      /><polygon style="fill:none; stroke:black;" points=" 272 101 220 101"
      /><path d="M272 90 C266.5 95.5 277.5 106.5 272 112" style="fill:none; stroke:black;"
      /><polygon style="fill:none; stroke:black;" points=" 220 101 156 139"
      /><polygon style="fill:none; stroke:black;" points=" 220 101 156 64"
      /><rect x="209" y="90" width="22" style="clip-path:url(#clipPath1); stroke:none;" height="22"
      /><rect x="209" y="90" width="22" style="clip-path:url(#clipPath1); fill:rgb(255,212,0); stroke:none;" height="22"
      /><rect x="209" y="90" width="22" style="clip-path:url(#clipPath1); fill:none; stroke:black;" height="22"
      /><rect x="209" y="90" width="22" style="fill:none; stroke:black;" height="22"
      /><polygon style="fill:none; stroke:black;" points=" 156 139 104 139"
      /><circle style="clip-path:url(#clipPath2); stroke:none;" r="11" cx="156" cy="139"
      /><rect x="145" y="128" width="22" style="clip-path:url(#clipPath2); fill:rgb(255,212,0); stroke:none;" height="22"
      /><rect x="145" y="128" width="22" style="clip-path:url(#clipPath2); fill:none; stroke:black;" height="22"
      /><circle style="fill:none; stroke:black;" r="11" cx="156" cy="139"
      /><circle style="clip-path:url(#clipPath3); stroke:none;" r="11" cx="104" cy="139"
      /><rect x="93" y="128" width="22" style="clip-path:url(#clipPath3); fill:rgb(255,212,0); stroke:none;" height="22"
      /><rect x="93" y="128" width="22" style="clip-path:url(#clipPath3); fill:none; stroke:black;" height="22"
      /><circle style="fill:none; stroke:black;" r="11" cx="104" cy="139"
      /><rect x="134" y="142" width="6" style="stroke:none;" height="10"
    /></g
    ><g style="font-family:'Serif'; text-rendering:optimizeSpeed; "
    ><path style="stroke:none;" d="M136.2344 143.6562 C136.5156 143.5938 136.7656 143.5625 137.0156 143.5625 C138.0625 143.5625 138.6719 144.1719 138.6719 145.2656 C138.6719 146.4375 137.9062 147.1094 136.7031 147.1094 L136.1875 147.1094 L136.1875 147.6406 L136.7969 147.6406 C138.2188 147.6406 138.9062 148.4219 138.9062 149.6406 C138.9062 150.8438 138.1719 151.6875 136.875 151.6875 C136.6094 151.6875 136.3125 151.6562 136.0156 151.5625 L135.7812 150.8125 C135.625 150.2812 135.5 150.0469 135.1406 150.0469 C134.8906 150.0469 134.7031 150.1719 134.5781 150.4219 C134.8438 151.6406 135.7812 152.1719 137.0312 152.1719 C138.7188 152.1719 139.875 151.125 139.875 149.7031 C139.875 148.5 139.2031 147.625 137.7969 147.375 C138.9531 147.0156 139.6094 146.2031 139.6094 145.2031 C139.6094 143.9219 138.6719 143.0781 137.1875 143.0781 C136.0469 143.0781 135.0625 143.5938 134.7969 144.6875 C134.9062 145 135.1094 145.1094 135.3594 145.1094 C135.7344 145.1094 135.8906 144.8906 136 144.4062 L136.2344 143.6562 Z"
      /><rect x="120" y="140" width="6" style="fill:white; stroke:none;" height="13"
      /><path style="stroke:none;" d="M122.0938 146.2031 C122.0938 144.6562 122.75 143.8125 123.7969 143.8125 C124.7188 143.8125 125.2656 144.4531 125.2656 145.5156 C125.2656 146.7188 124.5 147.4375 123.1875 147.7031 L123.2969 148.3125 C125.2188 148.2344 125.9375 149.2188 125.9375 150.4375 C125.9375 151.625 125.2344 152.4219 123.9531 152.4219 C123.25 152.4219 122.6562 152.1562 122.0938 151.7188 L122.0938 146.2031 ZM121.2031 152.9062 L121.1094 155.375 L121.2656 155.4844 L122.1562 155.2656 L122.0156 152.0938 C122.5469 152.8438 123.3594 153.1719 124.1719 153.1719 C125.5625 153.1719 126.8594 152.2188 126.8594 150.4844 C126.8594 148.9531 125.875 148.1094 124.125 148 C125.5625 147.6094 126.1875 146.4531 126.1875 145.4844 C126.1875 144.0938 125.1562 143.3125 123.9062 143.3125 C122.2969 143.3125 121.2188 144.5469 121.2188 146.5156 L121.2031 152.9062 Z"
      /><polygon style="fill:none;" points=" 156 64 93 64"
      /><polygon style="fill:white; clip-path:url(#clipPath4); stroke:none;" points=" 156 53 166 60 162 72 149 72 145 60 156 53"
      /><rect x="145" y="53" width="22" style="clip-path:url(#clipPath4); fill:white; stroke:none;" height="22"
      /><rect x="145" y="53" width="22" style="fill:none; clip-path:url(#clipPath4);" height="22"
      /><polygon style="fill:none;" points=" 156 53 166 60 162 72 149 72 145 60 156 53"
      /><path style="stroke:none;" d="M154.2344 69 L159.8594 69 L159.8594 67.9375 L157.7969 67.9375 L157.7969 58.7188 L156.8281 58.7188 C156.2656 59.0625 155.6094 59.2969 154.6875 59.4688 L154.6875 60.2812 L156.5156 60.2812 L156.5156 67.9375 L154.2344 67.9375 L154.2344 69 Z"
    /></g
    ><g style="fill:white; text-rendering:optimizeSpeed; font-size:14px; font-family:'SansSerif'; stroke:white;"
    ><rect x="144" width="22" height="10" y="35" style="stroke:none;"
      /><path d="M147.6562 46.1875 C149.3906 46.1875 151.0156 44.9062 151.0156 42.6562 C151.0156 40.4062 149.625 39.3906 147.9219 39.3906 C147.2969 39.3906 146.8594 39.5469 146.3906 39.7969 L146.6406 36.8281 L150.5312 36.8281 L150.5312 35.7188 L145.5312 35.7188 L145.2031 40.5469 L145.8906 40.9531 C146.4844 40.5625 146.9062 40.3594 147.5938 40.3594 C148.8906 40.3594 149.7188 41.2188 149.7188 42.7031 C149.7188 44.1875 148.75 45.125 147.5469 45.125 C146.3594 45.125 145.6094 44.5781 145.0156 43.9844 L144.3906 44.8281 C145.0781 45.5156 146.0625 46.1875 147.6562 46.1875 ZM154.9418 40.2656 C155.3168 39.0938 155.645 37.9844 155.9731 36.7812 L156.02 36.7812 C156.3637 37.9844 156.6762 39.0938 157.0668 40.2656 L157.5512 41.8281 L154.4418 41.8281 L154.9418 40.2656 ZM151.8168 46 L153.1293 46 L154.1293 42.8594 L157.8793 42.8594 L158.8481 46 L160.2231 46 L156.7387 35.7188 L155.3012 35.7188 L151.8168 46 ZM164.5492 46.1875 C165.4554 46.1875 166.3304 45.8281 167.0179 45.2188 L166.4554 44.3594 C165.9867 44.7969 165.3617 45.125 164.6586 45.125 C163.2679 45.125 162.3148 43.9531 162.3148 42.2031 C162.3148 40.4531 163.3148 39.2656 164.7054 39.2656 C165.3148 39.2656 165.7679 39.5469 166.2211 39.9375 L166.8773 39.0938 C166.3304 38.625 165.6429 38.2031 164.6429 38.2031 C162.7054 38.2031 160.9867 39.6719 160.9867 42.2031 C160.9867 44.7188 162.5336 46.1875 164.5492 46.1875 Z" style="fill:black; stroke:none;"
      /><rect x="161" width="13" height="10" y="81" style="stroke:none;"
      /><path d="M162.2344 92 L167.8594 92 L167.8594 90.9375 L165.7969 90.9375 L165.7969 81.7188 L164.8281 81.7188 C164.2656 82.0625 163.6094 82.2969 162.6875 82.4688 L162.6875 83.2812 L164.5156 83.2812 L164.5156 90.9375 L162.2344 90.9375 L162.2344 92 ZM171.8012 92.1875 C172.7387 92.1875 173.5981 91.6875 174.3325 91.0938 L174.3637 91.0938 L174.4887 92 L175.5356 92 L175.5356 87.3281 C175.5356 85.4531 174.7543 84.2031 172.895 84.2031 C171.6762 84.2031 170.5981 84.75 169.9106 85.2031 L170.4106 86.0781 C171.0043 85.6719 171.8012 85.2656 172.6918 85.2656 C173.9418 85.2656 174.2543 86.2031 174.2543 87.1875 C171.02 87.5469 169.5825 88.375 169.5825 90.0312 C169.5825 91.3906 170.5356 92.1875 171.8012 92.1875 ZM172.1762 91.1562 C171.4106 91.1562 170.8325 90.8125 170.8325 89.9375 C170.8325 88.9688 171.6918 88.3281 174.2543 88.0312 L174.2543 90.1562 C173.52 90.8125 172.9106 91.1562 172.1762 91.1562 Z" style="fill:black; stroke:none;"
      /><rect x="137" width="14" height="11" y="81" style="stroke:none;"
      /><path d="M140.7031 92.1875 C142.5156 92.1875 143.9844 91.0938 143.9844 89.25 C143.9844 87.8594 143.0156 86.9375 141.8125 86.6562 L141.8125 86.5938 C142.8906 86.1875 143.6406 85.3594 143.6406 84.125 C143.6406 82.5 142.375 81.5469 140.6562 81.5469 C139.4688 81.5469 138.5469 82.0625 137.7812 82.7812 L138.4688 83.5938 C139.0469 83 139.7656 82.5938 140.5938 82.5938 C141.6562 82.5938 142.3281 83.2344 142.3281 84.2188 C142.3281 85.3281 141.6094 86.1719 139.4844 86.1719 L139.4844 87.1562 C141.8594 87.1562 142.6875 87.9844 142.6875 89.2031 C142.6875 90.3906 141.8125 91.125 140.5938 91.125 C139.4375 91.125 138.6562 90.5781 138.0469 89.9375 L137.4062 90.7812 C138.0781 91.5156 139.0938 92.1875 140.7031 92.1875 ZM148.645 92.1875 C149.5512 92.1875 150.3637 91.6875 150.9575 91.1094 L151.0043 91.1094 L151.1137 92 L152.145 92 L152.145 80.8594 L150.895 80.8594 L150.895 83.7812 L150.9418 85.0938 C150.27 84.5312 149.6918 84.2031 148.8012 84.2031 C147.0668 84.2031 145.5043 85.7344 145.5043 88.2031 C145.5043 90.7344 146.7387 92.1875 148.645 92.1875 ZM148.9262 91.125 C147.5825 91.125 146.8325 90.0312 146.8325 88.1875 C146.8325 86.4531 147.8012 85.2812 149.02 85.2812 C149.6606 85.2812 150.2231 85.5 150.895 86.0781 L150.895 90.0625 C150.2387 90.7656 149.6293 91.125 148.9262 91.125 Z" style="fill:black; stroke:none;"
    /></g
    ><g style="text-rendering:optimizeSpeed; "
    ><polygon style="fill:none;" points=" 93 64 41 64"
      /><polygon style="fill:white; clip-path:url(#clipPath5); stroke:none;" points=" 93 53 104 64 93 75 82 64"
      /><rect x="82" y="53" width="22" style="clip-path:url(#clipPath5); fill:rgb(165,67,153); stroke:none;" height="22"
      /><rect x="82" y="53" width="22" style="fill:none; clip-path:url(#clipPath5);" height="22"
      /><polygon style="fill:none;" points=" 93 53 104 64 93 75 82 64"
      /><polygon style="fill:white; clip-path:url(#clipPath6); stroke:none;" points=" 41 53 52 64 41 75 30 64"
      /><rect x="30" y="53" width="22" style="clip-path:url(#clipPath6); fill:rgb(165,67,153); stroke:none;" height="22"
      /><rect x="30" y="53" width="22" style="fill:none; clip-path:url(#clipPath6);" height="22"
      /><polygon style="fill:none;" points=" 41 53 52 64 41 75 30 64"
      /><rect x="71" y="67" width="6" style="fill:white; stroke:none;" height="10"
      /><path style="stroke:none;" d="M74.2656 76.7031 C73.2031 76.7031 72.5 75.9688 72.5 74.9062 C72.5 73.9688 72.9375 73.4219 73.9062 72.8438 C75.4688 73.5625 75.9531 74.1719 75.9531 75.0156 C75.9531 76 75.2969 76.7031 74.2656 76.7031 ZM72.75 70.0469 C72.75 69.1094 73.4531 68.5625 74.2344 68.5625 C75.1562 68.5625 75.6562 69.2656 75.6562 70.0938 C75.6562 70.9688 75.3281 71.5469 74.4688 72.1562 C73.0938 71.5156 72.75 70.7969 72.75 70.0469 ZM74.8594 72.3438 C76.0938 71.6562 76.4531 70.8125 76.4531 70.0938 C76.4531 68.9219 75.6094 68.0781 74.2656 68.0781 C72.9375 68.0781 71.8906 68.9062 71.8906 70.2031 C71.8906 71.2031 72.375 72.0469 73.5156 72.6562 C72.2656 73.2812 71.5938 74 71.5938 75.0156 C71.5938 76.3906 72.6562 77.1719 74.2344 77.1719 C75.75 77.1719 76.875 76.25 76.875 74.8906 C76.875 73.7344 76.2656 73 74.8594 72.3438 Z"
      /><rect x="56" y="68" width="8" style="fill:white; stroke:none;" height="8"
      /><path style="stroke:none;" d="M60.9844 73.7031 C60.9375 74.8906 60.1562 75.6562 59.3125 75.6562 C58.2656 75.6562 57.5 74.6875 57.5 72.7188 C57.5 71.2812 58.1562 70.1562 59.3438 70.1562 C60.1406 70.1562 60.7812 70.6875 61.0938 71.6406 L60.9844 73.7031 ZM62.9062 75.2812 C62.7344 75.375 62.5469 75.4219 62.3438 75.4219 C61.9531 75.4219 61.75 75.2188 61.75 74.4219 C61.75 73.4844 61.9688 71.5312 62.1875 69.8281 L62.0312 69.7188 L61.2344 69.9219 L61.1406 70.7969 C60.7812 70.0312 60.1562 69.6562 59.3906 69.6562 C58.0469 69.6562 56.5625 70.8438 56.5625 72.9531 C56.5625 75.0938 57.7188 76.1719 59.1406 76.1719 C60.0156 76.1719 60.6875 75.8125 61.0938 74.9844 C61.2031 75.8594 61.5156 76.1719 62.0156 76.1719 C62.4688 76.1719 62.7969 75.9062 63.0156 75.5625 L62.9062 75.2812 Z"
      /><rect x="123" y="67" width="6" style="fill:white; stroke:none;" height="10"
      /><path style="stroke:none;" d="M126.2656 76.7031 C125.2031 76.7031 124.5 75.9688 124.5 74.9062 C124.5 73.9688 124.9375 73.4219 125.9062 72.8438 C127.4688 73.5625 127.9531 74.1719 127.9531 75.0156 C127.9531 76 127.2969 76.7031 126.2656 76.7031 ZM124.75 70.0469 C124.75 69.1094 125.4531 68.5625 126.2344 68.5625 C127.1562 68.5625 127.6562 69.2656 127.6562 70.0938 C127.6562 70.9688 127.3281 71.5469 126.4688 72.1562 C125.0938 71.5156 124.75 70.7969 124.75 70.0469 ZM126.8594 72.3438 C128.0938 71.6562 128.4531 70.8125 128.4531 70.0938 C128.4531 68.9219 127.6094 68.0781 126.2656 68.0781 C124.9375 68.0781 123.8906 68.9062 123.8906 70.2031 C123.8906 71.2031 124.375 72.0469 125.5156 72.6562 C124.2656 73.2812 123.5938 74 123.5938 75.0156 C123.5938 76.3906 124.6562 77.1719 126.2344 77.1719 C127.75 77.1719 128.875 76.25 128.875 74.8906 C128.875 73.7344 128.2656 73 126.8594 72.3438 Z"
      /><rect x="108" y="68" width="8" style="fill:white; stroke:none;" height="8"
      /><path style="stroke:none;" d="M112.9844 73.7031 C112.9375 74.8906 112.1562 75.6562 111.3125 75.6562 C110.2656 75.6562 109.5 74.6875 109.5 72.7188 C109.5 71.2812 110.1562 70.1562 111.3438 70.1562 C112.1406 70.1562 112.7812 70.6875 113.0938 71.6406 L112.9844 73.7031 ZM114.9062 75.2812 C114.7344 75.375 114.5469 75.4219 114.3438 75.4219 C113.9531 75.4219 113.75 75.2188 113.75 74.4219 C113.75 73.4844 113.9688 71.5312 114.1875 69.8281 L114.0312 69.7188 L113.2344 69.9219 L113.1406 70.7969 C112.7812 70.0312 112.1562 69.6562 111.3906 69.6562 C110.0469 69.6562 108.5625 70.8438 108.5625 72.9531 C108.5625 75.0938 109.7188 76.1719 111.1406 76.1719 C112.0156 76.1719 112.6875 75.8125 113.0938 74.9844 C113.2031 75.8594 113.5156 76.1719 114.0156 76.1719 C114.4688 76.1719 114.7969 75.9062 115.0156 75.5625 L114.9062 75.2812 Z"
      /><rect x="203" y="113" width="6" style="fill:white; stroke:none;" height="10"
      /><path style="stroke:none;" d="M205.2344 114.6562 C205.5156 114.5938 205.7656 114.5625 206.0156 114.5625 C207.0625 114.5625 207.6719 115.1719 207.6719 116.2656 C207.6719 117.4375 206.9062 118.1094 205.7031 118.1094 L205.1875 118.1094 L205.1875 118.6406 L205.7969 118.6406 C207.2188 118.6406 207.9062 119.4219 207.9062 120.6406 C207.9062 121.8438 207.1719 122.6875 205.875 122.6875 C205.6094 122.6875 205.3125 122.6562 205.0156 122.5625 L204.7812 121.8125 C204.625 121.2812 204.5 121.0469 204.1406 121.0469 C203.8906 121.0469 203.7031 121.1719 203.5781 121.4219 C203.8438 122.6406 204.7812 123.1719 206.0312 123.1719 C207.7188 123.1719 208.875 122.125 208.875 120.7031 C208.875 119.5 208.2031 118.625 206.7969 118.375 C207.9531 118.0156 208.6094 117.2031 208.6094 116.2031 C208.6094 114.9219 207.6719 114.0781 206.1875 114.0781 C205.0469 114.0781 204.0625 114.5938 203.7969 115.6875 C203.9062 116 204.1094 116.1094 204.3594 116.1094 C204.7344 116.1094 204.8906 115.8906 205 115.4062 L205.2344 114.6562 Z"
      /><rect x="174" y="128" width="6" style="fill:white; stroke:none;" height="13"
      /><path style="stroke:none;" d="M176.0938 134.2031 C176.0938 132.6562 176.75 131.8125 177.7969 131.8125 C178.7188 131.8125 179.2656 132.4531 179.2656 133.5156 C179.2656 134.7188 178.5 135.4375 177.1875 135.7031 L177.2969 136.3125 C179.2188 136.2344 179.9375 137.2188 179.9375 138.4375 C179.9375 139.625 179.2344 140.4219 177.9531 140.4219 C177.25 140.4219 176.6562 140.1562 176.0938 139.7188 L176.0938 134.2031 ZM175.2031 140.9062 L175.1094 143.375 L175.2656 143.4844 L176.1562 143.2656 L176.0156 140.0938 C176.5469 140.8438 177.3594 141.1719 178.1719 141.1719 C179.5625 141.1719 180.8594 140.2188 180.8594 138.4844 C180.8594 136.9531 179.875 136.1094 178.125 136 C179.5625 135.6094 180.1875 134.4531 180.1875 133.4844 C180.1875 132.0938 179.1562 131.3125 177.9062 131.3125 C176.2969 131.3125 175.2188 132.5469 175.2188 134.5156 L175.2031 140.9062 Z"
      /><rect x="195" y="92" width="6" style="fill:white; stroke:none;" height="10"
      /><path style="stroke:none;" d="M198.3438 101.6875 C197.2031 101.6875 196.5312 100.5 196.5312 98.2969 C196.5312 98.2188 196.5312 98.125 196.5312 98.0469 C197.0938 97.5 197.7188 97.3125 198.3438 97.3125 C199.3125 97.3125 199.9531 97.9844 199.9531 99.4531 C199.9531 100.9375 199.3125 101.6875 198.3438 101.6875 ZM200.5312 93.0781 C197.3438 93.4531 195.5625 95.7656 195.5625 98.4531 C195.5625 100.7812 196.6094 102.1719 198.3125 102.1719 C199.8438 102.1719 200.9219 101.1094 200.9219 99.2812 C200.9219 97.6875 199.9688 96.6562 198.5625 96.6562 C197.8281 96.6562 197.1406 96.9844 196.5781 97.5781 C196.7969 95.4062 198.0781 93.9688 200.5938 93.3906 L200.5312 93.0781 Z"
      /><rect x="178" y="81" width="6" style="fill:white; stroke:none;" height="13"
      /><path style="stroke:none;" d="M180.0938 87.2031 C180.0938 85.6562 180.75 84.8125 181.7969 84.8125 C182.7188 84.8125 183.2656 85.4531 183.2656 86.5156 C183.2656 87.7188 182.5 88.4375 181.1875 88.7031 L181.2969 89.3125 C183.2188 89.2344 183.9375 90.2188 183.9375 91.4375 C183.9375 92.625 183.2344 93.4219 181.9531 93.4219 C181.25 93.4219 180.6562 93.1562 180.0938 92.7188 L180.0938 87.2031 ZM179.2031 93.9062 L179.1094 96.375 L179.2656 96.4844 L180.1562 96.2656 L180.0156 93.0938 C180.5469 93.8438 181.3594 94.1719 182.1719 94.1719 C183.5625 94.1719 184.8594 93.2188 184.8594 91.4844 C184.8594 89.9531 183.875 89.1094 182.125 89 C183.5625 88.6094 184.1875 87.4531 184.1875 86.4844 C184.1875 85.0938 183.1562 84.3125 181.9062 84.3125 C180.2969 84.3125 179.2188 85.5469 179.2188 87.5156 L179.2031 93.9062 Z"
      /><rect x="235" y="105" width="8" style="fill:white; stroke:none;" height="8"
      /><path style="stroke:none;" d="M239.9844 110.7031 C239.9375 111.8906 239.1562 112.6562 238.3125 112.6562 C237.2656 112.6562 236.5 111.6875 236.5 109.7188 C236.5 108.2812 237.1562 107.1562 238.3438 107.1562 C239.1406 107.1562 239.7812 107.6875 240.0938 108.6406 L239.9844 110.7031 ZM241.9062 112.2812 C241.7344 112.375 241.5469 112.4219 241.3438 112.4219 C240.9531 112.4219 240.75 112.2188 240.75 111.4219 C240.75 110.4844 240.9688 108.5312 241.1875 106.8281 L241.0312 106.7188 L240.2344 106.9219 L240.1406 107.7969 C239.7812 107.0312 239.1562 106.6562 238.3906 106.6562 C237.0469 106.6562 235.5625 107.8438 235.5625 109.9531 C235.5625 112.0938 236.7188 113.1719 238.1406 113.1719 C239.0156 113.1719 239.6875 112.8125 240.0938 111.9844 C240.2031 112.8594 240.5156 113.1719 241.0156 113.1719 C241.4688 113.1719 241.7969 112.9062 242.0156 112.5625 L241.9062 112.2812 Z"
    /></g
    ><g ID="legend-1:0" style="text-rendering:optimizeSpeed; font-size:10px; font-family:'SansSerif';"
    ><path style="stroke:none;" d="M30.875 165 L34.9062 165 L34.9062 164.2344 L33.4375 164.2344 L33.4375 157.6562 L32.7344 157.6562 C32.3281 157.9062 31.8594 158.0625 31.2031 158.1875 L31.2031 158.7656 L32.5156 158.7656 L32.5156 164.2344 L30.875 164.2344 L30.875 165 ZM35.925 160.4531 L40.7219 160.4531 L40.7219 159.7656 L35.925 159.7656 L35.925 160.4531 ZM35.925 162.8438 L40.7219 162.8438 L40.7219 162.1719 L35.925 162.1719 L35.925 162.8438 ZM43.7406 165.125 C45.0375 165.125 46.0844 164.3438 46.0844 163.0469 C46.0844 162.0469 45.3969 161.375 44.5375 161.1875 L44.5375 161.1406 C45.3031 160.8438 45.8344 160.2656 45.8344 159.375 C45.8344 158.2031 44.9437 157.5312 43.7094 157.5312 C42.8656 157.5312 42.2094 157.9062 41.6625 158.4062 L42.1469 158.9844 C42.5531 158.5625 43.0844 158.2812 43.6625 158.2812 C44.4281 158.2812 44.9125 158.7344 44.9125 159.4375 C44.9125 160.2344 44.3969 160.8438 42.8812 160.8438 L42.8812 161.5469 C44.5687 161.5469 45.1625 162.125 45.1625 163 C45.1625 163.8438 44.5375 164.375 43.6625 164.375 C42.8344 164.375 42.2875 163.9844 41.85 163.5312 L41.3969 164.125 C41.8656 164.6562 42.5844 165.125 43.7406 165.125 ZM47.1031 162.5469 L49.6656 162.5469 L49.6656 161.8438 L47.1031 161.8438 L47.1031 162.5469 ZM52.8856 165.125 C53.5418 165.125 54.1043 164.7812 54.5418 164.3594 L54.5731 164.3594 L54.6512 165 L55.3856 165 L55.3856 157.0469 L54.495 157.0469 L54.495 159.125 L54.5262 160.0625 C54.0575 159.6719 53.6356 159.4375 52.995 159.4375 C51.7606 159.4375 50.6512 160.5312 50.6512 162.2969 C50.6512 164.0938 51.5262 165.125 52.8856 165.125 ZM53.0887 164.375 C52.1356 164.375 51.5887 163.5938 51.5887 162.2812 C51.5887 161.0469 52.2762 160.2031 53.1668 160.2031 C53.6043 160.2031 54.0262 160.3594 54.495 160.7656 L54.495 163.625 C54.0262 164.125 53.5887 164.375 53.0887 164.375 ZM59.4293 165.125 C60.1637 165.125 60.7575 164.875 61.2262 164.5625 L60.8981 163.9688 C60.5075 164.2344 60.07 164.4062 59.5387 164.4062 C58.5075 164.4062 57.8043 163.6562 57.7418 162.5 L61.3981 162.5 C61.4137 162.375 61.445 162.1875 61.445 161.9844 C61.445 160.4375 60.6637 159.4375 59.2731 159.4375 C58.0231 159.4375 56.8356 160.5312 56.8356 162.2969 C56.8356 164.0781 57.9918 165.125 59.4293 165.125 ZM57.7262 161.8438 C57.8356 160.7812 58.5231 160.1562 59.2887 160.1562 C60.1325 160.1562 60.6325 160.75 60.6325 161.8438 L57.7262 161.8438 ZM64.8912 165.125 C66.2193 165.125 67.4068 164.0938 67.4068 162.2969 C67.4068 160.4844 66.2193 159.4375 64.8912 159.4375 C63.5631 159.4375 62.3756 160.4844 62.3756 162.2969 C62.3756 164.0938 63.5631 165.125 64.8912 165.125 ZM64.8912 164.375 C63.9537 164.375 63.3131 163.5469 63.3131 162.2969 C63.3131 161.0469 63.9537 160.1875 64.8912 160.1875 C65.8287 160.1875 66.4693 161.0469 66.4693 162.2969 C66.4693 163.5469 65.8287 164.375 64.8912 164.375 ZM68.0762 165 L69.0293 165 L69.7637 163.7344 C69.9512 163.4062 70.1231 163.0625 70.3262 162.7656 L70.3731 162.7656 C70.5762 163.0625 70.7637 163.4062 70.9512 163.7344 L71.7481 165 L72.7481 165 L70.9668 162.2656 L72.6075 159.5625 L71.6543 159.5625 L70.9825 160.7656 C70.8262 161.0625 70.67 161.375 70.4981 161.6719 L70.4668 161.6719 C70.2793 161.375 70.0918 161.0625 69.92 160.7656 L69.1856 159.5625 L68.2168 159.5625 L69.8575 162.1719 L68.0762 165 ZM73.9156 167.3438 C74.9937 167.3438 75.5562 166.5156 75.9312 165.4531 L77.9781 159.5625 L77.0874 159.5625 L76.1187 162.5938 C75.9624 163.0625 75.8062 163.625 75.6656 164.1094 L75.6031 164.1094 C75.4468 163.625 75.2437 163.0625 75.0874 162.5938 L73.9781 159.5625 L73.0249 159.5625 L75.2124 165.0156 L75.0874 165.4219 C74.8687 166.0938 74.4781 166.5938 73.8531 166.5938 C73.7124 166.5938 73.5562 166.5469 73.4468 166.5 L73.2749 167.2344 C73.4468 167.2969 73.6499 167.3438 73.9156 167.3438 ZM78.5631 162.5469 L81.1256 162.5469 L81.1256 161.8438 L78.5631 161.8438 L78.5631 162.5469 ZM82.5799 165 L84.4549 165 C86.6737 165 87.8768 163.625 87.8768 161.3125 C87.8768 158.9844 86.6737 157.6562 84.4237 157.6562 L82.5799 157.6562 L82.5799 165 ZM83.5174 164.2344 L83.5174 158.4219 L84.3456 158.4219 C86.0643 158.4219 86.9237 159.4531 86.9237 161.3125 C86.9237 163.1562 86.0643 164.2344 84.3456 164.2344 L83.5174 164.2344 ZM88.9031 162.5469 L91.4656 162.5469 L91.4656 161.8438 L88.9031 161.8438 L88.9031 162.5469 ZM94.6699 167.5 C96.3574 167.5 97.4199 166.625 97.4199 165.625 C97.4199 164.7344 96.7793 164.3281 95.5137 164.3281 L94.4668 164.3281 C93.7324 164.3281 93.5137 164.0938 93.5137 163.7344 C93.5137 163.4375 93.6543 163.2656 93.8574 163.0938 C94.1074 163.2031 94.4043 163.2812 94.6699 163.2812 C95.7637 163.2812 96.6543 162.5469 96.6543 161.3906 C96.6543 160.9219 96.4668 160.5156 96.2168 160.2656 L97.3262 160.2656 L97.3262 159.5625 L95.4356 159.5625 C95.2324 159.5 94.9668 159.4375 94.6699 159.4375 C93.5762 159.4375 92.6231 160.1875 92.6231 161.375 C92.6231 162.0156 92.9824 162.5469 93.3418 162.8281 L93.3418 162.875 C93.0606 163.0625 92.7324 163.4375 92.7324 163.875 C92.7324 164.3125 92.9356 164.5938 93.2324 164.7656 L93.2324 164.8125 C92.7168 165.1406 92.4356 165.5781 92.4356 166.0469 C92.4356 166.9844 93.3418 167.5 94.6699 167.5 ZM94.6699 162.6562 C94.0449 162.6562 93.5137 162.1562 93.5137 161.375 C93.5137 160.5625 94.0293 160.0938 94.6699 160.0938 C95.3106 160.0938 95.8262 160.5781 95.8262 161.375 C95.8262 162.1562 95.2949 162.6562 94.6699 162.6562 ZM94.7949 166.875 C93.8262 166.875 93.2324 166.5 93.2324 165.9219 C93.2324 165.5938 93.3887 165.2812 93.7793 165 C94.0137 165.0625 94.2793 165.0938 94.4824 165.0938 L95.4199 165.0938 C96.1387 165.0938 96.5293 165.2656 96.5293 165.7656 C96.5293 166.3281 95.8418 166.875 94.7949 166.875 ZM98.4718 165 L99.3781 165 L99.3781 161.5156 C99.7374 160.5781 100.2999 160.2656 100.7531 160.2656 C100.9718 160.2656 101.0968 160.2812 101.2843 160.3438 L101.4562 159.5469 C101.2843 159.4531 101.1124 159.4375 100.8624 159.4375 C100.2531 159.4375 99.7062 159.875 99.3312 160.5625 L99.2999 160.5625 L99.2218 159.5625 L98.4718 159.5625 L98.4718 165 ZM104.4612 165.125 C105.7893 165.125 106.9768 164.0938 106.9768 162.2969 C106.9768 160.4844 105.7893 159.4375 104.4612 159.4375 C103.133 159.4375 101.9455 160.4844 101.9455 162.2969 C101.9455 164.0938 103.133 165.125 104.4612 165.125 ZM104.4612 164.375 C103.5237 164.375 102.883 163.5469 102.883 162.2969 C102.883 161.0469 103.5237 160.1875 104.4612 160.1875 C105.3987 160.1875 106.0393 161.0469 106.0393 162.2969 C106.0393 163.5469 105.3987 164.375 104.4612 164.375 ZM107.943 162.5469 L110.5055 162.5469 L110.5055 161.8438 L107.943 161.8438 L107.943 162.5469 ZM111.8505 166.9844 L112.7724 166.9844 C112.7568 166.0781 112.7412 165.2188 112.7099 164.2969 C113.2724 164.9219 113.9755 165.125 114.6474 165.125 C115.7568 165.125 116.7724 164.3125 116.7724 162.8438 C116.7724 161.7031 116.1162 160.8906 115.0224 160.7344 L115.0224 160.6875 C115.7255 160.2656 116.1162 159.6406 116.1162 158.8281 C116.1162 157.5312 115.1318 156.9062 114.0849 156.9062 C112.5537 156.9062 111.8505 158.0156 111.8505 159.5156 L111.8505 166.9844 ZM114.4443 164.375 C113.8662 164.375 113.2412 164.1875 112.7099 163.5156 C112.7099 162.2031 112.7255 160.9375 112.7412 159.6406 C112.7568 158.3438 113.2568 157.6406 114.0849 157.6406 C114.6943 157.6406 115.2255 158.0625 115.2255 158.9062 C115.2255 159.625 114.788 160.4062 113.6474 160.625 L113.7724 161.3281 C113.9599 161.2812 114.1474 161.2656 114.3349 161.2656 C115.3662 161.2656 115.8662 161.9219 115.8662 162.7969 C115.8662 163.7812 115.2255 164.375 114.4443 164.375 ZM117.723 162.5469 L120.2855 162.5469 L120.2855 161.8438 L117.723 161.8438 L117.723 162.5469 ZM121.7399 165 L125.8649 165 L125.8649 164.2031 L122.6774 164.2031 L122.6774 157.6562 L121.7399 157.6562 L121.7399 165 ZM126.623 162.5469 L129.1855 162.5469 L129.1855 161.8438 L126.623 161.8438 L126.623 162.5469 ZM131.8118 165.125 C132.4837 165.125 133.093 164.7812 133.6087 164.3438 L133.6399 164.3438 L133.718 165 L134.468 165 L134.468 161.6562 C134.468 160.3125 133.9055 159.4375 132.593 159.4375 C131.718 159.4375 130.9524 159.8125 130.4524 160.1406 L130.8118 160.7656 C131.2337 160.4844 131.8118 160.1875 132.4368 160.1875 C133.3274 160.1875 133.5618 160.8594 133.5618 161.5625 C131.2493 161.8125 130.218 162.4062 130.218 163.5938 C130.218 164.5625 130.9055 165.125 131.8118 165.125 ZM132.0774 164.4062 C131.5305 164.4062 131.1087 164.1562 131.1087 163.5312 C131.1087 162.8281 131.7337 162.375 133.5618 162.1562 L133.5618 163.6875 C133.0305 164.1562 132.593 164.4062 132.0774 164.4062 ZM137.1549 165.125 C137.4049 165.125 137.5612 165.0938 137.6862 165.0469 L137.5612 164.3438 C137.4674 164.375 137.4205 164.375 137.3737 164.375 C137.233 164.375 137.108 164.2656 137.108 163.9844 L137.108 157.0469 L136.2018 157.0469 L136.2018 163.9219 C136.2018 164.6875 136.483 165.125 137.1549 165.125 ZM140.7549 165.125 C141.083 165.125 141.4424 165.0312 141.7549 164.9375 L141.583 164.25 C141.3955 164.3125 141.1455 164.3906 140.958 164.3906 C140.333 164.3906 140.1143 164.0156 140.1143 163.3438 L140.1143 160.3125 L141.583 160.3125 L141.583 159.5625 L140.1143 159.5625 L140.1143 158.0469 L139.3643 158.0469 L139.2549 159.5625 L138.3955 159.625 L138.3955 160.3125 L139.208 160.3125 L139.208 163.3125 C139.208 164.4062 139.5986 165.125 140.7549 165.125 ZM142.8999 165 L143.7749 165 L143.7749 161.1562 C143.7749 160.375 143.7124 159.5938 143.6655 158.8594 L143.7124 158.8594 L144.4936 160.375 L147.1655 165 L148.1186 165 L148.1186 157.6562 L147.2436 157.6562 L147.2436 161.4844 C147.2436 162.2344 147.3061 163.0625 147.353 163.7969 L147.3061 163.7969 L146.5249 162.2969 L143.853 157.6562 L142.8999 157.6562 L142.8999 165 ZM152.1511 165.125 C153.4792 165.125 154.6667 164.0938 154.6667 162.2969 C154.6667 160.4844 153.4792 159.4375 152.1511 159.4375 C150.823 159.4375 149.6355 160.4844 149.6355 162.2969 C149.6355 164.0938 150.823 165.125 152.1511 165.125 ZM152.1511 164.375 C151.2136 164.375 150.573 163.5469 150.573 162.2969 C150.573 161.0469 151.2136 160.1875 152.1511 160.1875 C153.0886 160.1875 153.7292 161.0469 153.7292 162.2969 C153.7292 163.5469 153.0886 164.375 152.1511 164.375 ZM156.1017 165 L157.008 165 L157.008 161.0625 C157.5549 160.5156 157.9455 160.2344 158.4924 160.2344 C159.2267 160.2344 159.5236 160.6562 159.5236 161.6875 L159.5236 165 L160.4455 165 L160.4455 161.5625 C160.4455 160.1719 159.9142 159.4375 158.7736 159.4375 C158.0392 159.4375 157.4767 159.8438 156.9611 160.3438 L156.9299 160.3438 L156.8517 159.5625 L156.1017 159.5625 L156.1017 165 ZM161.7274 165 L166.3367 165 L166.3367 164.2031 L164.3055 164.2031 C163.9461 164.2031 163.493 164.25 163.1024 164.2812 C164.8367 162.6562 165.9774 161.1562 165.9774 159.7031 C165.9774 158.3906 165.1649 157.5312 163.8524 157.5312 C162.9149 157.5312 162.2899 157.9531 161.6961 158.6094 L162.2274 159.125 C162.618 158.6562 163.1336 158.2812 163.743 158.2812 C164.6492 158.2812 165.0867 158.8906 165.0867 159.7344 C165.0867 160.9844 164.0242 162.4531 161.7274 164.4531 L161.7274 165 ZM169.3399 165.125 C170.0899 165.125 170.6367 164.7344 171.1367 164.1562 L171.168 164.1562 L171.2461 165 L171.9961 165 L171.9961 159.5625 L171.0899 159.5625 L171.0899 163.4219 C170.5742 164.0625 170.1836 164.3438 169.6211 164.3438 C168.9024 164.3438 168.6055 163.9062 168.6055 162.9062 L168.6055 159.5625 L167.6836 159.5625 L167.6836 163.0156 C167.6836 164.3906 168.1992 165.125 169.3399 165.125 ZM174.7849 165.125 C175.0349 165.125 175.1911 165.0938 175.3161 165.0469 L175.1911 164.3438 C175.0974 164.375 175.0505 164.375 175.0036 164.375 C174.863 164.375 174.738 164.2656 174.738 163.9844 L174.738 157.0469 L173.8317 157.0469 L173.8317 163.9219 C173.8317 164.6875 174.113 165.125 174.7849 165.125 ZM178.7911 165.125 C180.1192 165.125 181.3067 164.0938 181.3067 162.2969 C181.3067 160.4844 180.1192 159.4375 178.7911 159.4375 C177.463 159.4375 176.2755 160.4844 176.2755 162.2969 C176.2755 164.0938 177.463 165.125 178.7911 165.125 ZM178.7911 164.375 C177.8536 164.375 177.213 163.5469 177.213 162.2969 C177.213 161.0469 177.8536 160.1875 178.7911 160.1875 C179.7286 160.1875 180.3692 161.0469 180.3692 162.2969 C180.3692 163.5469 179.7286 164.375 178.7911 164.375 ZM182.7417 167.2969 L183.648 167.2969 L183.648 165.4531 L183.6323 164.5 C184.1167 164.9062 184.6323 165.125 185.1323 165.125 C186.3823 165.125 187.4917 164.0625 187.4917 162.2031 C187.4917 160.5312 186.7261 159.4375 185.3355 159.4375 C184.6948 159.4375 184.0855 159.7969 183.6011 160.1875 L183.5698 160.1875 L183.4917 159.5625 L182.7417 159.5625 L182.7417 167.2969 ZM184.9761 164.375 C184.6167 164.375 184.1323 164.2188 183.648 163.7969 L183.648 160.9531 C184.1792 160.4531 184.648 160.2031 185.1167 160.2031 C186.1323 160.2031 186.5386 161.0156 186.5386 162.2031 C186.5386 163.5625 185.8823 164.375 184.9761 164.375 ZM190.6292 165.125 C191.8636 165.125 193.0355 164.2188 193.0355 162.6094 C193.0355 161 192.0355 160.2812 190.8167 160.2812 C190.3792 160.2812 190.0667 160.3906 189.723 160.5625 L189.9105 158.4531 L192.6761 158.4531 L192.6761 157.6562 L189.1136 157.6562 L188.8792 161.0938 L189.3636 161.4062 C189.7855 161.125 190.098 160.9688 190.5823 160.9688 C191.5042 160.9688 192.1136 161.5938 192.1136 162.6406 C192.1136 163.7031 191.4105 164.375 190.5511 164.375 C189.7073 164.375 189.1761 163.9844 188.7542 163.5625 L188.3011 164.1562 C188.7855 164.6562 189.4886 165.125 190.6292 165.125 ZM194.5698 165 L195.4448 165 L195.4448 161.1562 C195.4448 160.375 195.3823 159.5938 195.3354 158.8594 L195.3823 158.8594 L196.1636 160.375 L198.8354 165 L199.7886 165 L199.7886 157.6562 L198.9136 157.6562 L198.9136 161.4844 C198.9136 162.2344 198.9761 163.0625 199.0229 163.7969 L198.9761 163.7969 L198.1948 162.2969 L195.5229 157.6562 L194.5698 157.6562 L194.5698 165 ZM203.0554 160.9062 C203.3211 160.0625 203.5554 159.2812 203.7898 158.4219 L203.8367 158.4219 C204.0711 159.2656 204.3054 160.0625 204.5711 160.9062 L204.9148 162.0156 L202.6961 162.0156 L203.0554 160.9062 ZM200.8211 165 L201.7586 165 L202.4773 162.7656 L205.1492 162.7656 L205.8523 165 L206.8367 165 L204.3367 157.6562 L203.3054 157.6562 L200.8211 165 ZM209.9223 165.125 C210.5629 165.125 211.1879 164.875 211.6723 164.4375 L211.2817 163.8281 C210.9379 164.1406 210.5004 164.375 210.0004 164.375 C209.0004 164.375 208.3129 163.5469 208.3129 162.2969 C208.3129 161.0469 209.0473 160.1875 210.0317 160.1875 C210.4536 160.1875 210.7973 160.3906 211.1098 160.6719 L211.5786 160.0625 C211.1879 159.7344 210.7036 159.4375 209.9848 159.4375 C208.5942 159.4375 207.3754 160.4844 207.3754 162.2969 C207.3754 164.0938 208.4848 165.125 209.9223 165.125 ZM212.4029 162.5469 L214.9654 162.5469 L214.9654 161.8438 L212.4029 161.8438 L212.4029 162.5469 ZM218.451 165.125 C219.7792 165.125 220.9667 164.0938 220.9667 162.2969 C220.9667 160.4844 219.7792 159.4375 218.451 159.4375 C217.1229 159.4375 215.9354 160.4844 215.9354 162.2969 C215.9354 164.0938 217.1229 165.125 218.451 165.125 ZM218.451 164.375 C217.5135 164.375 216.8729 163.5469 216.8729 162.2969 C216.8729 161.0469 217.5135 160.1875 218.451 160.1875 C219.3885 160.1875 220.0292 161.0469 220.0292 162.2969 C220.0292 163.5469 219.3885 164.375 218.451 164.375 ZM222.4017 165 L223.3079 165 L223.3079 161.0625 C223.8548 160.5156 224.2454 160.2344 224.7923 160.2344 C225.5267 160.2344 225.8235 160.6562 225.8235 161.6875 L225.8235 165 L226.7454 165 L226.7454 161.5625 C226.7454 160.1719 226.2142 159.4375 225.0735 159.4375 C224.3392 159.4375 223.7767 159.8438 223.261 160.3438 L223.2298 160.3438 L223.1517 159.5625 L222.4017 159.5625 L222.4017 165 ZM228.5117 165 L229.4179 165 L229.4179 159.5625 L228.5117 159.5625 L228.5117 165 ZM228.9648 158.4531 C229.3242 158.4531 229.5742 158.2031 229.5742 157.8438 C229.5742 157.4844 229.3242 157.25 228.9648 157.25 C228.6054 157.25 228.3554 157.4844 228.3554 157.8438 C228.3554 158.2031 228.6054 158.4531 228.9648 158.4531 ZM233.4023 165.125 C234.0429 165.125 234.6679 164.875 235.1523 164.4375 L234.7617 163.8281 C234.4179 164.1406 233.9804 164.375 233.4804 164.375 C232.4804 164.375 231.7929 163.5469 231.7929 162.2969 C231.7929 161.0469 232.5273 160.1875 233.5117 160.1875 C233.9335 160.1875 234.2773 160.3906 234.5898 160.6719 L235.0585 160.0625 C234.6679 159.7344 234.1835 159.4375 233.4648 159.4375 C232.0742 159.4375 230.8554 160.4844 230.8554 162.2969 C230.8554 164.0938 231.9648 165.125 233.4023 165.125 Z"
    /></g
  ></g
></svg
>
