<?xml version="1.0"?>
<!DOCTYPE svg PUBLIC '-//W3C//DTD SVG 1.0//EN'
          'http://www.w3.org/TR/2001/REC-SVG-20010904/DTD/svg10.dtd'>
<svg xmlns:xlink="http://www.w3.org/1999/xlink" style="fill-opacity:1; color-rendering:auto; color-interpolation:auto; text-rendering:auto; stroke:black; stroke-linecap:square; stroke-miterlimit:10; shape-rendering:auto; stroke-opacity:1; fill:black; stroke-dasharray:none; font-weight:normal; stroke-width:1; font-family:'Dialog'; font-style:normal; stroke-linejoin:miter; font-size:12px; stroke-dashoffset:0; image-rendering:auto;" viewBox="0 0 290 134" xmlns="http://www.w3.org/2000/svg"
><!--Generated by the Batik Graphics2D SVG Generator--><defs id="genericDefs"
  /><g
  ><defs id="defs1"
    ><clipPath clipPathUnits="userSpaceOnUse" id="clipPath1"
      ><path style="fill-rule:evenodd;" d="M208 67 L202 74 L191 74 L186 67 L191 59 L202 59 L208 67 Z"
      /></clipPath
      ><clipPath clipPathUnits="userSpaceOnUse" id="clipPath2"
      ><path style="fill-rule:evenodd;" d="M156 67 L150 74 L139 74 L134 67 L139 59 L150 59 L156 67 Z"
      /></clipPath
      ><clipPath clipPathUnits="userSpaceOnUse" id="clipPath3"
      ><path style="fill-rule:evenodd;" d="M104 93 L98 100 L87 100 L82 93 L87 85 L98 85 L104 93 Z"
      /></clipPath
      ><clipPath clipPathUnits="userSpaceOnUse" id="clipPath4"
      ><path d="M30 82 L52 82 L52 104 L30 104 L30 82 Z"
      /></clipPath
      ><clipPath clipPathUnits="userSpaceOnUse" id="clipPath5"
      ><path d="M104 41 C104 47.0751 99.0751 52 93 52 C86.9249 52 82 47.0751 82 41 C82 34.9249 86.9249 30 93 30 C99.0751 30 104 34.9249 104 41 Z"
      /></clipPath
      ><clipPath clipPathUnits="userSpaceOnUse" id="clipPath6"
      ><path d="M30 30 L52 30 L52 52 L30 52 L30 30 Z"
      /></clipPath
    ></defs
    ><g style="fill:white; text-rendering:optimizeSpeed; stroke:white;"
    ><rect x="0" width="290" height="134" y="0" style="stroke:none;"
      /><polygon style="fill:none; stroke:black;" points=" 249 67 197 67"
      /><path d="M249 56 C243.5 61.5 254.5 72.5 249 78" style="fill:none; stroke:black;"
      /><polygon style="fill:none; stroke:black;" points=" 197 67 145 67"
      /><polygon style="clip-path:url(#clipPath1); stroke:none;" points=" 208 67 202 74 191 74 186 67 191 59 202 59 208 67"
      /><rect x="186" y="56" width="22" style="clip-path:url(#clipPath1); fill:rgb(255,212,0); stroke:none;" height="22"
      /><rect x="186" y="56" width="22" style="clip-path:url(#clipPath1); fill:none; stroke:black;" height="22"
      /><polygon style="fill:none; stroke:black;" points=" 208 67 202 74 191 74 186 67 191 59 202 59 208 67"
    /></g
    ><g style="text-rendering:optimizeSpeed; font-size:14px; font-family:'SansSerif';"
    ><path style="stroke:none;" d="M189.6094 95 L196.0625 95 L196.0625 93.8906 L193.2344 93.8906 C192.7031 93.8906 192.0781 93.9531 191.5469 93.9844 C193.9531 91.7031 195.5625 89.625 195.5625 87.5781 C195.5625 85.75 194.4219 84.5469 192.5781 84.5469 C191.2812 84.5469 190.4062 85.1406 189.5625 86.0469 L190.2969 86.7812 C190.8594 86.1094 191.5938 85.5938 192.4375 85.5938 C193.7031 85.5938 194.3125 86.4531 194.3125 87.625 C194.3125 89.3906 192.8438 91.4375 189.6094 94.25 L189.6094 95 ZM201.8168 95.1875 C203.9106 95.1875 205.5043 94.0625 205.5043 90.7656 L205.5043 84.7188 L204.2543 84.7188 L204.2543 90.7969 C204.2543 93.2812 203.1762 94.0469 201.8168 94.0469 C200.4731 94.0469 199.4262 93.2812 199.4262 90.7969 L199.4262 84.7188 L198.1293 84.7188 L198.1293 90.7656 C198.1293 94.0625 199.7231 95.1875 201.8168 95.1875 Z"
      /><polygon style="fill:none;" points=" 145 67 93 93"
      /><polygon style="fill:none;" points=" 145 67 93 41"
    /></g
    ><g style="fill:white; text-rendering:optimizeSpeed; stroke:white;"
    ><polygon style="stroke:none; clip-path:url(#clipPath2);" points=" 156 67 150 74 139 74 134 67 139 59 150 59 156 67"
      /><rect x="134" y="56" width="22" style="clip-path:url(#clipPath2); fill:rgb(0,166,81); stroke:none;" height="22"
      /><rect x="134" y="56" width="22" style="clip-path:url(#clipPath2); fill:none; stroke:black;" height="22"
      /><polygon style="fill:none; stroke:black;" points=" 156 67 150 74 139 74 134 67 139 59 150 59 156 67"
      /><polygon style="fill:none; stroke:black;" points=" 93 93 41 93"
      /><polygon style="clip-path:url(#clipPath3); stroke:none;" points=" 104 93 98 100 87 100 82 93 87 85 98 85 104 93"
      /><rect x="82" y="82" width="22" style="clip-path:url(#clipPath3); fill:rgb(0,166,81); stroke:none;" height="22"
      /><rect x="82" y="82" width="22" style="clip-path:url(#clipPath3); fill:none; stroke:black;" height="22"
      /><polygon style="fill:none; stroke:black;" points=" 104 93 98 100 87 100 82 93 87 85 98 85 104 93"
      /><rect x="30" y="82" width="22" style="clip-path:url(#clipPath4); stroke:none;" height="22"
      /><rect x="30" y="82" width="22" style="clip-path:url(#clipPath4); fill:rgb(0,144,188); stroke:none;" height="22"
      /><rect x="30" y="82" width="22" style="clip-path:url(#clipPath4); fill:none; stroke:black;" height="22"
      /><rect x="30" y="82" width="22" style="fill:none; stroke:black;" height="22"
      /><rect x="71" width="5" height="10" y="96" style="stroke:none;"
      /><path d="M72.8906 104.6875 C72.4844 104.6875 72.1562 105.0469 72.1562 105.4219 C72.1562 105.8125 72.4844 106.1562 72.8906 106.1562 C73.2969 106.1562 73.6406 105.8125 73.6406 105.4219 C73.6406 105.0469 73.2969 104.6875 72.8906 104.6875 ZM74.4688 98.5781 C74.7188 98.8906 74.875 99.2656 74.8906 99.6562 C74.8906 100.1875 74.625 100.5 74.0312 100.7656 L73.4062 101.0156 C72.6406 101.3125 72.3906 101.5469 72.3906 101.9375 C72.3906 102.1094 72.4531 102.3438 72.5781 102.8125 L72.7344 103.3438 L73.1094 103.3438 L73.0938 102.5312 C73.0938 102.0938 73.2031 101.9688 73.7812 101.7344 L74.2031 101.5625 C75.0312 101.2188 75.4531 100.6875 75.4531 99.8438 C75.4531 98.1562 73.6562 97.1875 72.5 97.0312 C72.1094 97.125 71.9062 97.2969 71.9062 97.6406 C71.9062 97.9375 72.0625 98.1562 72.7188 98.2656 L74.4688 98.5781 Z" style="fill:black; stroke:none;"
      /><rect x="57" width="5" height="10" y="96" style="stroke:none;"
      /><path d="M58.8906 104.6875 C58.4844 104.6875 58.1562 105.0469 58.1562 105.4219 C58.1562 105.8125 58.4844 106.1562 58.8906 106.1562 C59.2969 106.1562 59.6406 105.8125 59.6406 105.4219 C59.6406 105.0469 59.2969 104.6875 58.8906 104.6875 ZM60.4688 98.5781 C60.7188 98.8906 60.875 99.2656 60.8906 99.6562 C60.8906 100.1875 60.625 100.5 60.0312 100.7656 L59.4062 101.0156 C58.6406 101.3125 58.3906 101.5469 58.3906 101.9375 C58.3906 102.1094 58.4531 102.3438 58.5781 102.8125 L58.7344 103.3438 L59.1094 103.3438 L59.0938 102.5312 C59.0938 102.0938 59.2031 101.9688 59.7812 101.7344 L60.2031 101.5625 C61.0312 101.2188 61.4531 100.6875 61.4531 99.8438 C61.4531 98.1562 59.6562 97.1875 58.5 97.0312 C58.1094 97.125 57.9062 97.2969 57.9062 97.6406 C57.9062 97.9375 58.0625 98.1562 58.7188 98.2656 L60.4688 98.5781 Z" style="fill:black; stroke:none;"
      /><polygon style="fill:none; stroke:black;" points=" 93 41 41 41"
      /><circle r="11" style="clip-path:url(#clipPath5); stroke:none;" cx="93" cy="41"
      /><rect x="82" y="30" width="22" style="clip-path:url(#clipPath5); fill:rgb(0,144,188); stroke:none;" height="22"
      /><rect x="82" y="30" width="22" style="clip-path:url(#clipPath5); fill:none; stroke:black;" height="22"
      /><circle r="11" style="fill:none; stroke:black;" cx="93" cy="41"
      /><rect x="30" y="30" width="22" style="clip-path:url(#clipPath6); stroke:none;" height="22"
      /><rect x="30" y="30" width="22" style="clip-path:url(#clipPath6); stroke:none;" height="22"
      /><rect x="30" y="30" width="22" style="clip-path:url(#clipPath6); fill:none; stroke:black;" height="22"
      /><rect x="30" y="30" width="22" style="fill:none; stroke:black;" height="22"
      /><rect x="71" width="5" height="10" y="44" style="stroke:none;"
      /><path d="M72.8906 52.6875 C72.4844 52.6875 72.1562 53.0469 72.1562 53.4219 C72.1562 53.8125 72.4844 54.1562 72.8906 54.1562 C73.2969 54.1562 73.6406 53.8125 73.6406 53.4219 C73.6406 53.0469 73.2969 52.6875 72.8906 52.6875 ZM74.4688 46.5781 C74.7188 46.8906 74.875 47.2656 74.8906 47.6562 C74.8906 48.1875 74.625 48.5 74.0312 48.7656 L73.4062 49.0156 C72.6406 49.3125 72.3906 49.5469 72.3906 49.9375 C72.3906 50.1094 72.4531 50.3438 72.5781 50.8125 L72.7344 51.3438 L73.1094 51.3438 L73.0938 50.5312 C73.0938 50.0938 73.2031 49.9688 73.7812 49.7344 L74.2031 49.5625 C75.0312 49.2188 75.4531 48.6875 75.4531 47.8438 C75.4531 46.1562 73.6562 45.1875 72.5 45.0312 C72.1094 45.125 71.9062 45.2969 71.9062 45.6406 C71.9062 45.9375 72.0625 46.1562 72.7188 46.2656 L74.4688 46.5781 Z" style="fill:black; stroke:none;"
      /><rect x="57" width="5" height="10" y="44" style="stroke:none;"
      /><path d="M58.8906 52.6875 C58.4844 52.6875 58.1562 53.0469 58.1562 53.4219 C58.1562 53.8125 58.4844 54.1562 58.8906 54.1562 C59.2969 54.1562 59.6406 53.8125 59.6406 53.4219 C59.6406 53.0469 59.2969 52.6875 58.8906 52.6875 ZM60.4688 46.5781 C60.7188 46.8906 60.875 47.2656 60.8906 47.6562 C60.8906 48.1875 60.625 48.5 60.0312 48.7656 L59.4062 49.0156 C58.6406 49.3125 58.3906 49.5469 58.3906 49.9375 C58.3906 50.1094 58.4531 50.3438 58.5781 50.8125 L58.7344 51.3438 L59.1094 51.3438 L59.0938 50.5312 C59.0938 50.0938 59.2031 49.9688 59.7812 49.7344 L60.2031 49.5625 C61.0312 49.2188 61.4531 48.6875 61.4531 47.8438 C61.4531 46.1562 59.6562 45.1875 58.5 45.0312 C58.1094 45.125 57.9062 45.2969 57.9062 45.6406 C57.9062 45.9375 58.0625 46.1562 58.7188 46.2656 L60.4688 46.5781 Z" style="fill:black; stroke:none;"
      /><rect x="127" width="5" height="10" y="78" style="stroke:none;"
      /><path d="M128.8906 86.6875 C128.4844 86.6875 128.1562 87.0469 128.1562 87.4219 C128.1562 87.8125 128.4844 88.1562 128.8906 88.1562 C129.2969 88.1562 129.6406 87.8125 129.6406 87.4219 C129.6406 87.0469 129.2969 86.6875 128.8906 86.6875 ZM130.4688 80.5781 C130.7188 80.8906 130.875 81.2656 130.8906 81.6562 C130.8906 82.1875 130.625 82.5 130.0312 82.7656 L129.4062 83.0156 C128.6406 83.3125 128.3906 83.5469 128.3906 83.9375 C128.3906 84.1094 128.4531 84.3438 128.5781 84.8125 L128.7344 85.3438 L129.1094 85.3438 L129.0938 84.5312 C129.0938 84.0938 129.2031 83.9688 129.7812 83.7344 L130.2031 83.5625 C131.0312 83.2188 131.4531 82.6875 131.4531 81.8438 C131.4531 80.1562 129.6562 79.1875 128.5 79.0312 C128.1094 79.125 127.9062 79.2969 127.9062 79.6406 C127.9062 79.9375 128.0625 80.1562 128.7188 80.2656 L130.4688 80.5781 Z" style="fill:black; stroke:none;"
      /><rect x="112" width="5" height="10" y="86" style="stroke:none;"
      /><path d="M113.8906 94.6875 C113.4844 94.6875 113.1562 95.0469 113.1562 95.4219 C113.1562 95.8125 113.4844 96.1562 113.8906 96.1562 C114.2969 96.1562 114.6406 95.8125 114.6406 95.4219 C114.6406 95.0469 114.2969 94.6875 113.8906 94.6875 ZM115.4688 88.5781 C115.7188 88.8906 115.875 89.2656 115.8906 89.6562 C115.8906 90.1875 115.625 90.5 115.0312 90.7656 L114.4062 91.0156 C113.6406 91.3125 113.3906 91.5469 113.3906 91.9375 C113.3906 92.1094 113.4531 92.3438 113.5781 92.8125 L113.7344 93.3438 L114.1094 93.3438 L114.0938 92.5312 C114.0938 92.0938 114.2031 91.9688 114.7812 91.7344 L115.2031 91.5625 C116.0312 91.2188 116.4531 90.6875 116.4531 89.8438 C116.4531 88.1562 114.6562 87.1875 113.5 87.0312 C113.1094 87.125 112.9062 87.2969 112.9062 87.6406 C112.9062 87.9375 113.0625 88.1562 113.7188 88.2656 L115.4688 88.5781 Z" style="fill:black; stroke:none;"
      /><rect x="120" width="5" height="10" y="60" style="stroke:none;"
      /><path d="M121.8906 68.6875 C121.4844 68.6875 121.1562 69.0469 121.1562 69.4219 C121.1562 69.8125 121.4844 70.1562 121.8906 70.1562 C122.2969 70.1562 122.6406 69.8125 122.6406 69.4219 C122.6406 69.0469 122.2969 68.6875 121.8906 68.6875 ZM123.4688 62.5781 C123.7188 62.8906 123.875 63.2656 123.8906 63.6562 C123.8906 64.1875 123.625 64.5 123.0312 64.7656 L122.4062 65.0156 C121.6406 65.3125 121.3906 65.5469 121.3906 65.9375 C121.3906 66.1094 121.4531 66.3438 121.5781 66.8125 L121.7344 67.3438 L122.1094 67.3438 L122.0938 66.5312 C122.0938 66.0938 122.2031 65.9688 122.7812 65.7344 L123.2031 65.5625 C124.0312 65.2188 124.4531 64.6875 124.4531 63.8438 C124.4531 62.1562 122.6562 61.1875 121.5 61.0312 C121.1094 61.125 120.9062 61.2969 120.9062 61.6406 C120.9062 61.9375 121.0625 62.1562 121.7188 62.2656 L123.4688 62.5781 Z" style="fill:black; stroke:none;"
      /><rect x="105" width="5" height="10" y="52" style="stroke:none;"
      /><path d="M106.8906 60.6875 C106.4844 60.6875 106.1562 61.0469 106.1562 61.4219 C106.1562 61.8125 106.4844 62.1562 106.8906 62.1562 C107.2969 62.1562 107.6406 61.8125 107.6406 61.4219 C107.6406 61.0469 107.2969 60.6875 106.8906 60.6875 ZM108.4688 54.5781 C108.7188 54.8906 108.875 55.2656 108.8906 55.6562 C108.8906 56.1875 108.625 56.5 108.0312 56.7656 L107.4062 57.0156 C106.6406 57.3125 106.3906 57.5469 106.3906 57.9375 C106.3906 58.1094 106.4531 58.3438 106.5781 58.8125 L106.7344 59.3438 L107.1094 59.3438 L107.0938 58.5312 C107.0938 58.0938 107.2031 57.9688 107.7812 57.7344 L108.2031 57.5625 C109.0312 57.2188 109.4531 56.6875 109.4531 55.8438 C109.4531 54.1562 107.6562 53.1875 106.5 53.0312 C106.1094 53.125 105.9062 53.2969 105.9062 53.6406 C105.9062 53.9375 106.0625 54.1562 106.7188 54.2656 L108.4688 54.5781 Z" style="fill:black; stroke:none;"
      /><rect x="175" width="5" height="10" y="70" style="stroke:none;"
      /><path d="M176.8906 78.6875 C176.4844 78.6875 176.1562 79.0469 176.1562 79.4219 C176.1562 79.8125 176.4844 80.1562 176.8906 80.1562 C177.2969 80.1562 177.6406 79.8125 177.6406 79.4219 C177.6406 79.0469 177.2969 78.6875 176.8906 78.6875 ZM178.4688 72.5781 C178.7188 72.8906 178.875 73.2656 178.8906 73.6562 C178.8906 74.1875 178.625 74.5 178.0312 74.7656 L177.4062 75.0156 C176.6406 75.3125 176.3906 75.5469 176.3906 75.9375 C176.3906 76.1094 176.4531 76.3438 176.5781 76.8125 L176.7344 77.3438 L177.1094 77.3438 L177.0938 76.5312 C177.0938 76.0938 177.2031 75.9688 177.7812 75.7344 L178.2031 75.5625 C179.0312 75.2188 179.4531 74.6875 179.4531 73.8438 C179.4531 72.1562 177.6562 71.1875 176.5 71.0312 C176.1094 71.125 175.9062 71.2969 175.9062 71.6406 C175.9062 71.9375 176.0625 72.1562 176.7188 72.2656 L178.4688 72.5781 Z" style="fill:black; stroke:none;"
      /><rect x="161" width="5" height="10" y="70" style="stroke:none;"
      /><path d="M162.8906 78.6875 C162.4844 78.6875 162.1562 79.0469 162.1562 79.4219 C162.1562 79.8125 162.4844 80.1562 162.8906 80.1562 C163.2969 80.1562 163.6406 79.8125 163.6406 79.4219 C163.6406 79.0469 163.2969 78.6875 162.8906 78.6875 ZM164.4688 72.5781 C164.7188 72.8906 164.875 73.2656 164.8906 73.6562 C164.8906 74.1875 164.625 74.5 164.0312 74.7656 L163.4062 75.0156 C162.6406 75.3125 162.3906 75.5469 162.3906 75.9375 C162.3906 76.1094 162.4531 76.3438 162.5781 76.8125 L162.7344 77.3438 L163.1094 77.3438 L163.0938 76.5312 C163.0938 76.0938 163.2031 75.9688 163.7812 75.7344 L164.2031 75.5625 C165.0312 75.2188 165.4531 74.6875 165.4531 73.8438 C165.4531 72.1562 163.6562 71.1875 162.5 71.0312 C162.1094 71.125 161.9062 71.2969 161.9062 71.6406 C161.9062 71.9375 162.0625 72.1562 162.7188 72.2656 L164.4688 72.5781 Z" style="fill:black; stroke:none;"
      /><rect x="213" width="5" height="10" y="70" style="stroke:none;"
      /><path d="M214.8906 78.6875 C214.4844 78.6875 214.1562 79.0469 214.1562 79.4219 C214.1562 79.8125 214.4844 80.1562 214.8906 80.1562 C215.2969 80.1562 215.6406 79.8125 215.6406 79.4219 C215.6406 79.0469 215.2969 78.6875 214.8906 78.6875 ZM216.4688 72.5781 C216.7188 72.8906 216.875 73.2656 216.8906 73.6562 C216.8906 74.1875 216.625 74.5 216.0312 74.7656 L215.4062 75.0156 C214.6406 75.3125 214.3906 75.5469 214.3906 75.9375 C214.3906 76.1094 214.4531 76.3438 214.5781 76.8125 L214.7344 77.3438 L215.1094 77.3438 L215.0938 76.5312 C215.0938 76.0938 215.2031 75.9688 215.7812 75.7344 L216.2031 75.5625 C217.0312 75.2188 217.4531 74.6875 217.4531 73.8438 C217.4531 72.1562 215.6562 71.1875 214.5 71.0312 C214.1094 71.125 213.9062 71.2969 213.9062 71.6406 C213.9062 71.9375 214.0625 72.1562 214.7188 72.2656 L216.4688 72.5781 Z" style="fill:black; stroke:none;"
    /></g
  ></g
></svg
>
