<?xml version="1.0"?>
<!DOCTYPE svg PUBLIC '-//W3C//DTD SVG 1.0//EN'
          'http://www.w3.org/TR/2001/REC-SVG-20010904/DTD/svg10.dtd'>
<svg xmlns:xlink="http://www.w3.org/1999/xlink" style="fill-opacity:1; color-rendering:auto; color-interpolation:auto; text-rendering:auto; stroke:black; stroke-linecap:square; stroke-miterlimit:10; shape-rendering:auto; stroke-opacity:1; fill:black; stroke-dasharray:none; font-weight:normal; stroke-width:1; font-family:'Dialog'; font-style:normal; stroke-linejoin:miter; font-size:12px; stroke-dashoffset:0; image-rendering:auto;" viewBox="0 0 126 238" xmlns="http://www.w3.org/2000/svg"
><!--Generated by the Batik Graphics2D SVG Generator--><defs id="genericDefs"
  /><g
  ><defs id="defs1"
    ><clipPath clipPathUnits="userSpaceOnUse" id="clipPath1"
      ><path style="fill-rule:evenodd;" d="M41 186 L52 208 L30 208 Z"
      /></clipPath
      ><clipPath clipPathUnits="userSpaceOnUse" id="clipPath2"
      ><path d="M52 145 C52 151.0751 47.0751 156 41 156 C34.9249 156 30 151.0751 30 145 C30 138.9249 34.9249 134 41 134 C47.0751 134 52 138.9249 52 145 Z"
      /></clipPath
      ><clipPath clipPathUnits="userSpaceOnUse" id="clipPath3"
      ><path d="M52 93 C52 99.0751 47.0751 104 41 104 C34.9249 104 30 99.0751 30 93 C30 86.9249 34.9249 82 41 82 C47.0751 82 52 86.9249 52 93 Z"
      /></clipPath
    ></defs
    ><g style="fill:white; text-rendering:optimizeSpeed; stroke:white;"
    ><rect x="0" width="126" height="238" y="0" style="stroke:none;"
      /><polygon style="clip-path:url(#clipPath1); stroke:none;" points=" 41 186 52 208 30 208"
      /><rect x="30" y="186" width="22" style="clip-path:url(#clipPath1); fill:rgb(0,166,81); stroke:none;" height="22"
      /><rect x="30" y="186" width="22" style="clip-path:url(#clipPath1); fill:none; stroke:black;" height="22"
      /><polygon style="fill:none; stroke:black;" points=" 41 186 52 208 30 208"
      /><rect x="57" y="184" width="5" style="stroke:none;" height="10"
    /></g
    ><g style="font-family:'Serif'; text-rendering:optimizeSpeed; "
    ><path style="stroke:none;" d="M58.8906 192.6875 C58.4844 192.6875 58.1562 193.0469 58.1562 193.4219 C58.1562 193.8125 58.4844 194.1562 58.8906 194.1562 C59.2969 194.1562 59.6406 193.8125 59.6406 193.4219 C59.6406 193.0469 59.2969 192.6875 58.8906 192.6875 ZM60.4688 186.5781 C60.7188 186.8906 60.875 187.2656 60.8906 187.6562 C60.8906 188.1875 60.625 188.5 60.0312 188.7656 L59.4062 189.0156 C58.6406 189.3125 58.3906 189.5469 58.3906 189.9375 C58.3906 190.1094 58.4531 190.3438 58.5781 190.8125 L58.7344 191.3438 L59.1094 191.3438 L59.0938 190.5312 C59.0938 190.0938 59.2031 189.9688 59.7812 189.7344 L60.2031 189.5625 C61.0312 189.2188 61.4531 188.6875 61.4531 187.8438 C61.4531 186.1562 59.6562 185.1875 58.5 185.0312 C58.1094 185.125 57.9062 185.2969 57.9062 185.6406 C57.9062 185.9375 58.0625 186.1562 58.7188 186.2656 L60.4688 186.5781 Z"
      /><rect x="57" y="200" width="5" style="fill:white; stroke:none;" height="10"
      /><path style="stroke:none;" d="M58.8906 208.6875 C58.4844 208.6875 58.1562 209.0469 58.1562 209.4219 C58.1562 209.8125 58.4844 210.1562 58.8906 210.1562 C59.2969 210.1562 59.6406 209.8125 59.6406 209.4219 C59.6406 209.0469 59.2969 208.6875 58.8906 208.6875 ZM60.4688 202.5781 C60.7188 202.8906 60.875 203.2656 60.8906 203.6562 C60.8906 204.1875 60.625 204.5 60.0312 204.7656 L59.4062 205.0156 C58.6406 205.3125 58.3906 205.5469 58.3906 205.9375 C58.3906 206.1094 58.4531 206.3438 58.5781 206.8125 L58.7344 207.3438 L59.1094 207.3438 L59.0938 206.5312 C59.0938 206.0938 59.2031 205.9688 59.7812 205.7344 L60.2031 205.5625 C61.0312 205.2188 61.4531 204.6875 61.4531 203.8438 C61.4531 202.1562 59.6562 201.1875 58.5 201.0312 C58.1094 201.125 57.9062 201.2969 57.9062 201.6406 C57.9062 201.9375 58.0625 202.1562 58.7188 202.2656 L60.4688 202.5781 Z"
      /><circle style="fill:white; clip-path:url(#clipPath2); stroke:none;" r="11" cx="41" cy="145"
      /><rect x="30" y="134" width="22" style="clip-path:url(#clipPath2); fill:rgb(0,144,188); stroke:none;" height="22"
      /><rect x="30" y="134" width="22" style="fill:none; clip-path:url(#clipPath2);" height="22"
      /><circle r="11" style="fill:none;" cx="41" cy="145"
      /><rect x="57" y="132" width="5" style="fill:white; stroke:none;" height="10"
      /><path style="stroke:none;" d="M58.8906 140.6875 C58.4844 140.6875 58.1562 141.0469 58.1562 141.4219 C58.1562 141.8125 58.4844 142.1562 58.8906 142.1562 C59.2969 142.1562 59.6406 141.8125 59.6406 141.4219 C59.6406 141.0469 59.2969 140.6875 58.8906 140.6875 ZM60.4688 134.5781 C60.7188 134.8906 60.875 135.2656 60.8906 135.6562 C60.8906 136.1875 60.625 136.5 60.0312 136.7656 L59.4062 137.0156 C58.6406 137.3125 58.3906 137.5469 58.3906 137.9375 C58.3906 138.1094 58.4531 138.3438 58.5781 138.8125 L58.7344 139.3438 L59.1094 139.3438 L59.0938 138.5312 C59.0938 138.0938 59.2031 137.9688 59.7812 137.7344 L60.2031 137.5625 C61.0312 137.2188 61.4531 136.6875 61.4531 135.8438 C61.4531 134.1562 59.6562 133.1875 58.5 133.0312 C58.1094 133.125 57.9062 133.2969 57.9062 133.6406 C57.9062 133.9375 58.0625 134.1562 58.7188 134.2656 L60.4688 134.5781 Z"
      /><rect x="57" y="148" width="5" style="fill:white; stroke:none;" height="10"
      /><path style="stroke:none;" d="M58.8906 156.6875 C58.4844 156.6875 58.1562 157.0469 58.1562 157.4219 C58.1562 157.8125 58.4844 158.1562 58.8906 158.1562 C59.2969 158.1562 59.6406 157.8125 59.6406 157.4219 C59.6406 157.0469 59.2969 156.6875 58.8906 156.6875 ZM60.4688 150.5781 C60.7188 150.8906 60.875 151.2656 60.8906 151.6562 C60.8906 152.1875 60.625 152.5 60.0312 152.7656 L59.4062 153.0156 C58.6406 153.3125 58.3906 153.5469 58.3906 153.9375 C58.3906 154.1094 58.4531 154.3438 58.5781 154.8125 L58.7344 155.3438 L59.1094 155.3438 L59.0938 154.5312 C59.0938 154.0938 59.2031 153.9688 59.7812 153.7344 L60.2031 153.5625 C61.0312 153.2188 61.4531 152.6875 61.4531 151.8438 C61.4531 150.1562 59.6562 149.1875 58.5 149.0312 C58.1094 149.125 57.9062 149.2969 57.9062 149.6406 C57.9062 149.9375 58.0625 150.1562 58.7188 150.2656 L60.4688 150.5781 Z"
      /><circle style="fill:white; clip-path:url(#clipPath3); stroke:none;" r="11" cx="41" cy="93"
      /><rect x="30" y="82" width="22" style="clip-path:url(#clipPath3); fill:rgb(255,212,0); stroke:none;" height="22"
      /><rect x="30" y="82" width="22" style="fill:none; clip-path:url(#clipPath3);" height="22"
      /><circle r="11" style="fill:none;" cx="41" cy="93"
      /><rect x="57" y="80" width="5" style="fill:white; stroke:none;" height="10"
      /><path style="stroke:none;" d="M58.8906 88.6875 C58.4844 88.6875 58.1562 89.0469 58.1562 89.4219 C58.1562 89.8125 58.4844 90.1562 58.8906 90.1562 C59.2969 90.1562 59.6406 89.8125 59.6406 89.4219 C59.6406 89.0469 59.2969 88.6875 58.8906 88.6875 ZM60.4688 82.5781 C60.7188 82.8906 60.875 83.2656 60.8906 83.6562 C60.8906 84.1875 60.625 84.5 60.0312 84.7656 L59.4062 85.0156 C58.6406 85.3125 58.3906 85.5469 58.3906 85.9375 C58.3906 86.1094 58.4531 86.3438 58.5781 86.8125 L58.7344 87.3438 L59.1094 87.3438 L59.0938 86.5312 C59.0938 86.0938 59.2031 85.9688 59.7812 85.7344 L60.2031 85.5625 C61.0312 85.2188 61.4531 84.6875 61.4531 83.8438 C61.4531 82.1562 59.6562 81.1875 58.5 81.0312 C58.1094 81.125 57.9062 81.2969 57.9062 81.6406 C57.9062 81.9375 58.0625 82.1562 58.7188 82.2656 L60.4688 82.5781 Z"
      /><rect x="57" y="96" width="5" style="fill:white; stroke:none;" height="10"
      /><path style="stroke:none;" d="M58.8906 104.6875 C58.4844 104.6875 58.1562 105.0469 58.1562 105.4219 C58.1562 105.8125 58.4844 106.1562 58.8906 106.1562 C59.2969 106.1562 59.6406 105.8125 59.6406 105.4219 C59.6406 105.0469 59.2969 104.6875 58.8906 104.6875 ZM60.4688 98.5781 C60.7188 98.8906 60.875 99.2656 60.8906 99.6562 C60.8906 100.1875 60.625 100.5 60.0312 100.7656 L59.4062 101.0156 C58.6406 101.3125 58.3906 101.5469 58.3906 101.9375 C58.3906 102.1094 58.4531 102.3438 58.5781 102.8125 L58.7344 103.3438 L59.1094 103.3438 L59.0938 102.5312 C59.0938 102.0938 59.2031 101.9688 59.7812 101.7344 L60.2031 101.5625 C61.0312 101.2188 61.4531 100.6875 61.4531 99.8438 C61.4531 98.1562 59.6562 97.1875 58.5 97.0312 C58.1094 97.125 57.9062 97.2969 57.9062 97.6406 C57.9062 97.9375 58.0625 98.1562 58.7188 98.2656 L60.4688 98.5781 Z"
    /></g
    ><g style="fill:white; text-rendering:optimizeSpeed; font-size:14px; font-family:'SansSerif'; stroke:white;"
    ><rect x="33" width="14" height="10" y="35" style="stroke:none;"
      /><path d="M35.4844 42.9062 L36.625 42.9062 C36.375 40.7031 38.8906 39.875 38.8906 37.8281 C38.8906 36.2969 37.8594 35.3281 36.2812 35.3281 C35.1406 35.3281 34.25 35.875 33.6094 36.625 L34.3281 37.2969 C34.8125 36.7344 35.4375 36.3906 36.1406 36.3906 C37.125 36.3906 37.6406 37.0625 37.6406 37.9062 C37.6406 39.5781 35.1719 40.4688 35.4844 42.9062 ZM36.0938 46.1875 C36.6094 46.1875 37.0312 45.7969 37.0312 45.2188 C37.0312 44.625 36.6094 44.2188 36.0938 44.2188 C35.5938 44.2188 35.1719 44.625 35.1719 45.2188 C35.1719 45.7969 35.5938 46.1875 36.0938 46.1875 ZM41.0422 46 L42.3391 46 L42.3391 41.9219 L44.0266 41.9219 C46.2922 41.9219 47.8078 40.9219 47.8078 38.75 C47.8078 36.5156 46.2766 35.7188 43.9797 35.7188 L41.0422 35.7188 L41.0422 46 ZM42.3391 40.875 L42.3391 36.7812 L43.8078 36.7812 C45.6203 36.7812 46.5266 37.2656 46.5266 38.75 C46.5266 40.2188 45.6672 40.875 43.8703 40.875 L42.3391 40.875 Z" style="fill:black; stroke:none;"
    /></g
  ></g
></svg
>
