<?xml version="1.0"?>
<!DOCTYPE svg PUBLIC '-//W3C//DTD SVG 1.0//EN'
          'http://www.w3.org/TR/2001/REC-SVG-20010904/DTD/svg10.dtd'>
<svg xmlns:xlink="http://www.w3.org/1999/xlink" style="fill-opacity:1; color-rendering:auto; color-interpolation:auto; text-rendering:auto; stroke:black; stroke-linecap:square; stroke-miterlimit:10; shape-rendering:auto; stroke-opacity:1; fill:black; stroke-dasharray:none; font-weight:normal; stroke-width:1; font-family:'Dialog'; font-style:normal; stroke-linejoin:miter; font-size:12px; stroke-dashoffset:0; image-rendering:auto;" viewBox="0 0 256 180" xmlns="http://www.w3.org/2000/svg"
><!--Generated by the Batik Graphics2D SVG Generator--><defs id="genericDefs"
  /><g
  ><defs id="defs1"
    ><clipPath clipPathUnits="userSpaceOnUse" id="clipPath1"
      ><path style="fill-rule:evenodd;" d="M163 79 L174 101 L152 101 Z"
      /></clipPath
      ><clipPath clipPathUnits="userSpaceOnUse" id="clipPath2"
      ><path style="fill-rule:evenodd;" d="M105 105 L116 127 L94 127 Z"
      /></clipPath
      ><clipPath clipPathUnits="userSpaceOnUse" id="clipPath3"
      ><path d="M36 110.5 L58 110.5 L58 121.5 L36 121.5 L36 110.5 Z"
      /></clipPath
      ><clipPath clipPathUnits="userSpaceOnUse" id="clipPath4"
      ><path style="fill-rule:evenodd;" d="M105 53 L116 75 L94 75 Z"
      /></clipPath
    ></defs
    ><g style="fill:white; text-rendering:optimizeSpeed; stroke:white;"
    ><rect x="0" width="256" height="180" y="0" style="stroke:none;"
      /><polygon style="fill:none; stroke:black;" points=" 215 90 163 90"
      /><path d="M215 79 C209.5 84.5 220.5 95.5 215 101" style="fill:none; stroke:black;"
      /><polygon style="fill:none; stroke:black;" points=" 163 90 105 116"
      /><polygon style="fill:none; stroke:black;" points=" 163 90 105 64"
      /><polygon style="clip-path:url(#clipPath1); stroke:none;" points=" 163 79 174 101 152 101"
      /><rect x="152" y="79" width="22" style="clip-path:url(#clipPath1); fill:rgb(0,144,188); stroke:none;" height="22"
      /><rect x="152" y="79" width="22" style="clip-path:url(#clipPath1); fill:none; stroke:black;" height="22"
      /><polygon style="fill:none; stroke:black;" points=" 163 79 174 101 152 101"
      /><polygon style="fill:none; stroke:black;" points=" 105 116 47 116"
      /><polygon style="clip-path:url(#clipPath2); stroke:none;" points=" 105 105 116 127 94 127"
      /><rect x="94" y="105" width="22" style="clip-path:url(#clipPath2); fill:rgb(0,144,188); stroke:none;" height="22"
      /><rect x="94" y="105" width="22" style="clip-path:url(#clipPath2); fill:none; stroke:black;" height="22"
      /><polygon style="fill:none; stroke:black;" points=" 105 105 116 127 94 127"
      /><rect x="36" y="110.5" width="22" style="clip-path:url(#clipPath3); stroke:none;" height="11"
      /><rect x="36" y="105" width="22" style="clip-path:url(#clipPath3); fill:rgb(0,144,188); stroke:none;" height="22"
      /><rect x="36" y="105" width="22" style="clip-path:url(#clipPath3); fill:none; stroke:black;" height="22"
      /><rect x="36" y="110.5" width="22" style="fill:none; stroke:black;" height="11"
      /><rect x="30" y="133" width="32" style="stroke:none;" height="10"
    /></g
    ><g style="text-rendering:optimizeSpeed; font-size:14px; font-family:'SansSerif';"
    ><path style="stroke:none;" d="M33.7031 144.1875 C35.5156 144.1875 36.9844 143.0938 36.9844 141.25 C36.9844 139.8594 36.0156 138.9375 34.8125 138.6562 L34.8125 138.5938 C35.8906 138.1875 36.6406 137.3594 36.6406 136.125 C36.6406 134.5 35.375 133.5469 33.6562 133.5469 C32.4688 133.5469 31.5469 134.0625 30.7812 134.7812 L31.4688 135.5938 C32.0469 135 32.7656 134.5938 33.5938 134.5938 C34.6562 134.5938 35.3281 135.2344 35.3281 136.2188 C35.3281 137.3281 34.6094 138.1719 32.4844 138.1719 L32.4844 139.1562 C34.8594 139.1562 35.6875 139.9844 35.6875 141.2031 C35.6875 142.3906 34.8125 143.125 33.5938 143.125 C32.4375 143.125 31.6562 142.5781 31.0469 141.9375 L30.4062 142.7812 C31.0781 143.5156 32.0938 144.1875 33.7031 144.1875 ZM39.1762 144 L40.395 144 L40.395 138.6094 C40.395 137.5312 40.3012 136.4375 40.2543 135.4062 L40.3012 135.4062 L41.4106 137.5156 L45.145 144 L46.4731 144 L46.4731 133.7188 L45.2387 133.7188 L45.2387 139.0781 C45.2387 140.1406 45.3481 141.2812 45.4106 142.3125 L45.3481 142.3125 L44.2543 140.2031 L40.52 133.7188 L39.1762 133.7188 L39.1762 144 ZM51.0498 138.2656 C51.4248 137.0938 51.7529 135.9844 52.0811 134.7812 L52.1279 134.7812 C52.4717 135.9844 52.7842 137.0938 53.1748 138.2656 L53.6592 139.8281 L50.5498 139.8281 L51.0498 138.2656 ZM47.9248 144 L49.2373 144 L50.2373 140.8594 L53.9873 140.8594 L54.9561 144 L56.3311 144 L52.8467 133.7188 L51.4092 133.7188 L47.9248 144 ZM60.6572 144.1875 C61.5634 144.1875 62.4384 143.8281 63.1259 143.2188 L62.5634 142.3594 C62.0947 142.7969 61.4697 143.125 60.7665 143.125 C59.3759 143.125 58.4228 141.9531 58.4228 140.2031 C58.4228 138.4531 59.4228 137.2656 60.8134 137.2656 C61.4228 137.2656 61.8759 137.5469 62.329 137.9375 L62.9853 137.0938 C62.4384 136.625 61.7509 136.2031 60.7509 136.2031 C58.8134 136.2031 57.0947 137.6719 57.0947 140.2031 C57.0947 142.7188 58.6415 144.1875 60.6572 144.1875 Z"
    /></g
    ><g style="fill:white; text-rendering:optimizeSpeed; font-family:'Serif'; stroke:white;"
    ><rect x="83" width="5" height="10" y="119" style="stroke:none;"
      /><path d="M84.8906 127.6875 C84.4844 127.6875 84.1562 128.0469 84.1562 128.4219 C84.1562 128.8125 84.4844 129.1562 84.8906 129.1562 C85.2969 129.1562 85.6406 128.8125 85.6406 128.4219 C85.6406 128.0469 85.2969 127.6875 84.8906 127.6875 ZM86.4688 121.5781 C86.7188 121.8906 86.875 122.2656 86.8906 122.6562 C86.8906 123.1875 86.625 123.5 86.0312 123.7656 L85.4062 124.0156 C84.6406 124.3125 84.3906 124.5469 84.3906 124.9375 C84.3906 125.1094 84.4531 125.3438 84.5781 125.8125 L84.7344 126.3438 L85.1094 126.3438 L85.0938 125.5312 C85.0938 125.0938 85.2031 124.9688 85.7812 124.7344 L86.2031 124.5625 C87.0312 124.2188 87.4531 123.6875 87.4531 122.8438 C87.4531 121.1562 85.6562 120.1875 84.5 120.0312 C84.1094 120.125 83.9062 120.2969 83.9062 120.6406 C83.9062 120.9375 84.0625 121.1562 84.7188 121.2656 L86.4688 121.5781 Z" style="fill:black; stroke:none;"
      /><rect x="69" width="5" height="10" y="119" style="stroke:none;"
      /><path d="M70.8906 127.6875 C70.4844 127.6875 70.1562 128.0469 70.1562 128.4219 C70.1562 128.8125 70.4844 129.1562 70.8906 129.1562 C71.2969 129.1562 71.6406 128.8125 71.6406 128.4219 C71.6406 128.0469 71.2969 127.6875 70.8906 127.6875 ZM72.4688 121.5781 C72.7188 121.8906 72.875 122.2656 72.8906 122.6562 C72.8906 123.1875 72.625 123.5 72.0312 123.7656 L71.4062 124.0156 C70.6406 124.3125 70.3906 124.5469 70.3906 124.9375 C70.3906 125.1094 70.4531 125.3438 70.5781 125.8125 L70.7344 126.3438 L71.1094 126.3438 L71.0938 125.5312 C71.0938 125.0938 71.2031 124.9688 71.7812 124.7344 L72.2031 124.5625 C73.0312 124.2188 73.4531 123.6875 73.4531 122.8438 C73.4531 121.1562 71.6562 120.1875 70.5 120.0312 C70.1094 120.125 69.9062 120.2969 69.9062 120.6406 C69.9062 120.9375 70.0625 121.1562 70.7188 121.2656 L72.4688 121.5781 Z" style="fill:black; stroke:none;"
      /><polygon style="clip-path:url(#clipPath4); stroke:none;" points=" 105 53 116 75 94 75"
      /><rect x="94" y="53" width="22" style="clip-path:url(#clipPath4); fill:rgb(0,144,188); stroke:none;" height="22"
      /><rect x="94" y="53" width="22" style="clip-path:url(#clipPath4); fill:none; stroke:black;" height="22"
      /><polygon style="fill:none; stroke:black;" points=" 105 53 116 75 94 75"
      /><rect x="88" width="32" height="10" y="35" style="stroke:none;"
    /></g
    ><g style="text-rendering:optimizeSpeed; font-size:14px; font-family:'SansSerif';"
    ><path style="stroke:none;" d="M89.6094 42.1562 L91.9531 38.6562 C92.2344 38.1406 92.5156 37.6406 92.7812 37.1406 L92.8281 37.1406 C92.7969 37.6719 92.7656 38.5 92.7656 39 L92.7656 42.1562 L89.6094 42.1562 ZM92.7656 46 L93.9688 46 L93.9688 43.1719 L95.3281 43.1719 L95.3281 42.1562 L93.9688 42.1562 L93.9688 35.7188 L92.5469 35.7188 L88.2812 42.3281 L88.2812 43.1719 L92.7656 43.1719 L92.7656 46 ZM97.1762 46 L98.395 46 L98.395 40.6094 C98.395 39.5312 98.3012 38.4375 98.2543 37.4062 L98.3012 37.4062 L99.4106 39.5156 L103.145 46 L104.4731 46 L104.4731 35.7188 L103.2387 35.7188 L103.2387 41.0781 C103.2387 42.1406 103.3481 43.2812 103.4106 44.3125 L103.3481 44.3125 L102.2543 42.2031 L98.52 35.7188 L97.1762 35.7188 L97.1762 46 ZM109.0498 40.2656 C109.4248 39.0938 109.7529 37.9844 110.0811 36.7812 L110.1279 36.7812 C110.4717 37.9844 110.7842 39.0938 111.1748 40.2656 L111.6592 41.8281 L108.5498 41.8281 L109.0498 40.2656 ZM105.9248 46 L107.2373 46 L108.2373 42.8594 L111.9873 42.8594 L112.9561 46 L114.3311 46 L110.8467 35.7188 L109.4092 35.7188 L105.9248 46 ZM118.6572 46.1875 C119.5634 46.1875 120.4384 45.8281 121.1259 45.2188 L120.5634 44.3594 C120.0947 44.7969 119.4697 45.125 118.7665 45.125 C117.3759 45.125 116.4228 43.9531 116.4228 42.2031 C116.4228 40.4531 117.4228 39.2656 118.8134 39.2656 C119.4228 39.2656 119.8759 39.5469 120.329 39.9375 L120.9853 39.0938 C120.4384 38.625 119.7509 38.2031 118.7509 38.2031 C116.8134 38.2031 115.0947 39.6719 115.0947 42.2031 C115.0947 44.7188 116.6415 46.1875 118.6572 46.1875 Z"
    /></g
    ><g style="fill:white; text-rendering:optimizeSpeed; font-family:'Serif'; stroke:white;"
    ><rect x="145" width="5" height="10" y="100" style="stroke:none;"
      /><path d="M146.8906 108.6875 C146.4844 108.6875 146.1562 109.0469 146.1562 109.4219 C146.1562 109.8125 146.4844 110.1562 146.8906 110.1562 C147.2969 110.1562 147.6406 109.8125 147.6406 109.4219 C147.6406 109.0469 147.2969 108.6875 146.8906 108.6875 ZM148.4688 102.5781 C148.7188 102.8906 148.875 103.2656 148.8906 103.6562 C148.8906 104.1875 148.625 104.5 148.0312 104.7656 L147.4062 105.0156 C146.6406 105.3125 146.3906 105.5469 146.3906 105.9375 C146.3906 106.1094 146.4531 106.3438 146.5781 106.8125 L146.7344 107.3438 L147.1094 107.3438 L147.0938 106.5312 C147.0938 106.0938 147.2031 105.9688 147.7812 105.7344 L148.2031 105.5625 C149.0312 105.2188 149.4531 104.6875 149.4531 103.8438 C149.4531 102.1562 147.6562 101.1875 146.5 101.0312 C146.1094 101.125 145.9062 101.2969 145.9062 101.6406 C145.9062 101.9375 146.0625 102.1562 146.7188 102.2656 L148.4688 102.5781 Z" style="fill:black; stroke:none;"
      /><rect x="124" width="5" height="10" y="110" style="stroke:none;"
      /><path d="M125.8906 118.6875 C125.4844 118.6875 125.1562 119.0469 125.1562 119.4219 C125.1562 119.8125 125.4844 120.1562 125.8906 120.1562 C126.2969 120.1562 126.6406 119.8125 126.6406 119.4219 C126.6406 119.0469 126.2969 118.6875 125.8906 118.6875 ZM127.4688 112.5781 C127.7188 112.8906 127.875 113.2656 127.8906 113.6562 C127.8906 114.1875 127.625 114.5 127.0312 114.7656 L126.4062 115.0156 C125.6406 115.3125 125.3906 115.5469 125.3906 115.9375 C125.3906 116.1094 125.4531 116.3438 125.5781 116.8125 L125.7344 117.3438 L126.1094 117.3438 L126.0938 116.5312 C126.0938 116.0938 126.2031 115.9688 126.7812 115.7344 L127.2031 115.5625 C128.0312 115.2188 128.4531 114.6875 128.4531 113.8438 C128.4531 112.1562 126.6562 111.1875 125.5 111.0312 C125.1094 111.125 124.9062 111.2969 124.9062 111.6406 C124.9062 111.9375 125.0625 112.1562 125.7188 112.2656 L127.4688 112.5781 Z" style="fill:black; stroke:none;"
      /><rect x="138" width="5" height="10" y="84" style="stroke:none;"
      /><path d="M139.8906 92.6875 C139.4844 92.6875 139.1562 93.0469 139.1562 93.4219 C139.1562 93.8125 139.4844 94.1562 139.8906 94.1562 C140.2969 94.1562 140.6406 93.8125 140.6406 93.4219 C140.6406 93.0469 140.2969 92.6875 139.8906 92.6875 ZM141.4688 86.5781 C141.7188 86.8906 141.875 87.2656 141.8906 87.6562 C141.8906 88.1875 141.625 88.5 141.0312 88.7656 L140.4062 89.0156 C139.6406 89.3125 139.3906 89.5469 139.3906 89.9375 C139.3906 90.1094 139.4531 90.3438 139.5781 90.8125 L139.7344 91.3438 L140.1094 91.3438 L140.0938 90.5312 C140.0938 90.0938 140.2031 89.9688 140.7812 89.7344 L141.2031 89.5625 C142.0312 89.2188 142.4531 88.6875 142.4531 87.8438 C142.4531 86.1562 140.6562 85.1875 139.5 85.0312 C139.1094 85.125 138.9062 85.2969 138.9062 85.6406 C138.9062 85.9375 139.0625 86.1562 139.7188 86.2656 L141.4688 86.5781 Z" style="fill:black; stroke:none;"
      /><rect x="123" width="5" height="10" y="77" style="stroke:none;"
      /><path d="M124.8906 85.6875 C124.4844 85.6875 124.1562 86.0469 124.1562 86.4219 C124.1562 86.8125 124.4844 87.1562 124.8906 87.1562 C125.2969 87.1562 125.6406 86.8125 125.6406 86.4219 C125.6406 86.0469 125.2969 85.6875 124.8906 85.6875 ZM126.4688 79.5781 C126.7188 79.8906 126.875 80.2656 126.8906 80.6562 C126.8906 81.1875 126.625 81.5 126.0312 81.7656 L125.4062 82.0156 C124.6406 82.3125 124.3906 82.5469 124.3906 82.9375 C124.3906 83.1094 124.4531 83.3438 124.5781 83.8125 L124.7344 84.3438 L125.1094 84.3438 L125.0938 83.5312 C125.0938 83.0938 125.2031 82.9688 125.7812 82.7344 L126.2031 82.5625 C127.0312 82.2188 127.4531 81.6875 127.4531 80.8438 C127.4531 79.1562 125.6562 78.1875 124.5 78.0312 C124.1094 78.125 123.9062 78.2969 123.9062 78.6406 C123.9062 78.9375 124.0625 79.1562 124.7188 79.2656 L126.4688 79.5781 Z" style="fill:black; stroke:none;"
      /><rect x="179" width="5" height="10" y="93" style="stroke:none;"
      /><path d="M180.8906 101.6875 C180.4844 101.6875 180.1562 102.0469 180.1562 102.4219 C180.1562 102.8125 180.4844 103.1562 180.8906 103.1562 C181.2969 103.1562 181.6406 102.8125 181.6406 102.4219 C181.6406 102.0469 181.2969 101.6875 180.8906 101.6875 ZM182.4688 95.5781 C182.7188 95.8906 182.875 96.2656 182.8906 96.6562 C182.8906 97.1875 182.625 97.5 182.0312 97.7656 L181.4062 98.0156 C180.6406 98.3125 180.3906 98.5469 180.3906 98.9375 C180.3906 99.1094 180.4531 99.3438 180.5781 99.8125 L180.7344 100.3438 L181.1094 100.3438 L181.0938 99.5312 C181.0938 99.0938 181.2031 98.9688 181.7812 98.7344 L182.2031 98.5625 C183.0312 98.2188 183.4531 97.6875 183.4531 96.8438 C183.4531 95.1562 181.6562 94.1875 180.5 94.0312 C180.1094 94.125 179.9062 94.2969 179.9062 94.6406 C179.9062 94.9375 180.0625 95.1562 180.7188 95.2656 L182.4688 95.5781 Z" style="fill:black; stroke:none;"
    /></g
  ></g
></svg
>
