<?xml version="1.0"?>
<!DOCTYPE svg PUBLIC '-//W3C//DTD SVG 1.0//EN'
          'http://www.w3.org/TR/2001/REC-SVG-20010904/DTD/svg10.dtd'>
<svg xmlns:xlink="http://www.w3.org/1999/xlink" style="fill-opacity:1; color-rendering:auto; color-interpolation:auto; text-rendering:auto; stroke:black; stroke-linecap:square; stroke-miterlimit:10; shape-rendering:auto; stroke-opacity:1; fill:black; stroke-dasharray:none; font-weight:normal; stroke-width:1; font-family:'Dialog'; font-style:normal; stroke-linejoin:miter; font-size:12px; stroke-dashoffset:0; image-rendering:auto;" viewBox="0 0 144 186" xmlns="http://www.w3.org/2000/svg"
><!--Generated by the Batik Graphics2D SVG Generator--><defs id="genericDefs"
  /><g
  ><defs id="defs1"
    ><clipPath clipPathUnits="userSpaceOnUse" id="clipPath1"
      ><path style="fill-rule:evenodd;" d="M59 134 L70 156 L48 156 Z"
      /></clipPath
      ><clipPath clipPathUnits="userSpaceOnUse" id="clipPath2"
      ><path d="M70 93 C70 99.0751 65.0751 104 59 104 C52.9249 104 48 99.0751 48 93 C48 86.9249 52.9249 82 59 82 C65.0751 82 70 86.9249 70 93 Z"
      /></clipPath
    ></defs
    ><g style="fill:white; text-rendering:optimizeSpeed; stroke:white;"
    ><rect x="0" width="144" height="186" y="0" style="stroke:none;"
      /><polygon style="clip-path:url(#clipPath1); stroke:none;" points=" 59 134 70 156 48 156"
      /><rect x="48" y="134" width="22" style="clip-path:url(#clipPath1); fill:rgb(0,166,81); stroke:none;" height="22"
      /><rect x="48" y="134" width="22" style="clip-path:url(#clipPath1); fill:none; stroke:black;" height="22"
      /><polygon style="fill:none; stroke:black;" points=" 59 134 70 156 48 156"
      /><rect x="75" y="132" width="5" style="stroke:none;" height="10"
    /></g
    ><g style="font-family:'Serif'; text-rendering:optimizeSpeed; "
    ><path style="stroke:none;" d="M76.8906 140.6875 C76.4844 140.6875 76.1562 141.0469 76.1562 141.4219 C76.1562 141.8125 76.4844 142.1562 76.8906 142.1562 C77.2969 142.1562 77.6406 141.8125 77.6406 141.4219 C77.6406 141.0469 77.2969 140.6875 76.8906 140.6875 ZM78.4688 134.5781 C78.7188 134.8906 78.875 135.2656 78.8906 135.6562 C78.8906 136.1875 78.625 136.5 78.0312 136.7656 L77.4062 137.0156 C76.6406 137.3125 76.3906 137.5469 76.3906 137.9375 C76.3906 138.1094 76.4531 138.3438 76.5781 138.8125 L76.7344 139.3438 L77.1094 139.3438 L77.0938 138.5312 C77.0938 138.0938 77.2031 137.9688 77.7812 137.7344 L78.2031 137.5625 C79.0312 137.2188 79.4531 136.6875 79.4531 135.8438 C79.4531 134.1562 77.6562 133.1875 76.5 133.0312 C76.1094 133.125 75.9062 133.2969 75.9062 133.6406 C75.9062 133.9375 76.0625 134.1562 76.7188 134.2656 L78.4688 134.5781 Z"
      /><rect x="75" y="148" width="5" style="fill:white; stroke:none;" height="10"
      /><path style="stroke:none;" d="M76.8906 156.6875 C76.4844 156.6875 76.1562 157.0469 76.1562 157.4219 C76.1562 157.8125 76.4844 158.1562 76.8906 158.1562 C77.2969 158.1562 77.6406 157.8125 77.6406 157.4219 C77.6406 157.0469 77.2969 156.6875 76.8906 156.6875 ZM78.4688 150.5781 C78.7188 150.8906 78.875 151.2656 78.8906 151.6562 C78.8906 152.1875 78.625 152.5 78.0312 152.7656 L77.4062 153.0156 C76.6406 153.3125 76.3906 153.5469 76.3906 153.9375 C76.3906 154.1094 76.4531 154.3438 76.5781 154.8125 L76.7344 155.3438 L77.1094 155.3438 L77.0938 154.5312 C77.0938 154.0938 77.2031 153.9688 77.7812 153.7344 L78.2031 153.5625 C79.0312 153.2188 79.4531 152.6875 79.4531 151.8438 C79.4531 150.1562 77.6562 149.1875 76.5 149.0312 C76.1094 149.125 75.9062 149.2969 75.9062 149.6406 C75.9062 149.9375 76.0625 150.1562 76.7188 150.2656 L78.4688 150.5781 Z"
      /><circle style="fill:white; clip-path:url(#clipPath2); stroke:none;" r="11" cx="59" cy="93"
      /><rect x="48" y="82" width="22" style="clip-path:url(#clipPath2); fill:rgb(0,144,188); stroke:none;" height="22"
      /><rect x="48" y="82" width="22" style="fill:none; clip-path:url(#clipPath2);" height="22"
      /><circle r="11" style="fill:none;" cx="59" cy="93"
      /><rect x="75" y="80" width="5" style="fill:white; stroke:none;" height="10"
      /><path style="stroke:none;" d="M76.8906 88.6875 C76.4844 88.6875 76.1562 89.0469 76.1562 89.4219 C76.1562 89.8125 76.4844 90.1562 76.8906 90.1562 C77.2969 90.1562 77.6406 89.8125 77.6406 89.4219 C77.6406 89.0469 77.2969 88.6875 76.8906 88.6875 ZM78.4688 82.5781 C78.7188 82.8906 78.875 83.2656 78.8906 83.6562 C78.8906 84.1875 78.625 84.5 78.0312 84.7656 L77.4062 85.0156 C76.6406 85.3125 76.3906 85.5469 76.3906 85.9375 C76.3906 86.1094 76.4531 86.3438 76.5781 86.8125 L76.7344 87.3438 L77.1094 87.3438 L77.0938 86.5312 C77.0938 86.0938 77.2031 85.9688 77.7812 85.7344 L78.2031 85.5625 C79.0312 85.2188 79.4531 84.6875 79.4531 83.8438 C79.4531 82.1562 77.6562 81.1875 76.5 81.0312 C76.1094 81.125 75.9062 81.2969 75.9062 81.6406 C75.9062 81.9375 76.0625 82.1562 76.7188 82.2656 L78.4688 82.5781 Z"
      /><rect x="75" y="96" width="5" style="fill:white; stroke:none;" height="10"
      /><path style="stroke:none;" d="M76.8906 104.6875 C76.4844 104.6875 76.1562 105.0469 76.1562 105.4219 C76.1562 105.8125 76.4844 106.1562 76.8906 106.1562 C77.2969 106.1562 77.6406 105.8125 77.6406 105.4219 C77.6406 105.0469 77.2969 104.6875 76.8906 104.6875 ZM78.4688 98.5781 C78.7188 98.8906 78.875 99.2656 78.8906 99.6562 C78.8906 100.1875 78.625 100.5 78.0312 100.7656 L77.4062 101.0156 C76.6406 101.3125 76.3906 101.5469 76.3906 101.9375 C76.3906 102.1094 76.4531 102.3438 76.5781 102.8125 L76.7344 103.3438 L77.1094 103.3438 L77.0938 102.5312 C77.0938 102.0938 77.2031 101.9688 77.7812 101.7344 L78.2031 101.5625 C79.0312 101.2188 79.4531 100.6875 79.4531 99.8438 C79.4531 98.1562 77.6562 97.1875 76.5 97.0312 C76.1094 97.125 75.9062 97.2969 75.9062 97.6406 C75.9062 97.9375 76.0625 98.1562 76.7188 98.2656 L78.4688 98.5781 Z"
      /><path style="stroke:none;" d="M30.6094 98 L37.0625 98 L37.0625 96.8906 L34.2344 96.8906 C33.7031 96.8906 33.0781 96.9531 32.5469 96.9844 C34.9531 94.7031 36.5625 92.625 36.5625 90.5781 C36.5625 88.75 35.4219 87.5469 33.5781 87.5469 C32.2812 87.5469 31.4062 88.1406 30.5625 89.0469 L31.2969 89.7812 C31.8594 89.1094 32.5938 88.5938 33.4375 88.5938 C34.7031 88.5938 35.3125 89.4531 35.3125 90.625 C35.3125 92.3906 33.8438 94.4375 30.6094 97.25 L30.6094 98 ZM37.9731 98 L39.3168 98 L40.3481 96.2188 C40.6137 95.7656 40.8637 95.2969 41.1293 94.8594 L41.2075 94.8594 C41.4731 95.2969 41.7543 95.7656 42.0043 96.2188 L43.1293 98 L44.5356 98 L42.02 94.1562 L44.3325 90.3906 L43.0043 90.3906 L42.0668 92.0625 C41.8481 92.5 41.6137 92.9219 41.3793 93.3438 L41.3325 93.3438 C41.0668 92.9219 40.8012 92.5 40.5668 92.0625 L39.5512 90.3906 L38.1762 90.3906 L40.4887 94.0312 L37.9731 98 Z"
    /></g
    ><g style="fill:white; text-rendering:optimizeSpeed; font-size:14px; font-family:'SansSerif'; stroke:white;"
    ><rect x="47" width="21" height="10" y="35" style="stroke:none;"
      /><path d="M49.4844 42.9062 L50.625 42.9062 C50.375 40.7031 52.8906 39.875 52.8906 37.8281 C52.8906 36.2969 51.8594 35.3281 50.2812 35.3281 C49.1406 35.3281 48.25 35.875 47.6094 36.625 L48.3281 37.2969 C48.8125 36.7344 49.4375 36.3906 50.1406 36.3906 C51.125 36.3906 51.6406 37.0625 51.6406 37.9062 C51.6406 39.5781 49.1719 40.4688 49.4844 42.9062 ZM50.0938 46.1875 C50.6094 46.1875 51.0312 45.7969 51.0312 45.2188 C51.0312 44.625 50.6094 44.2188 50.0938 44.2188 C49.5938 44.2188 49.1719 44.625 49.1719 45.2188 C49.1719 45.7969 49.5938 46.1875 50.0938 46.1875 ZM56.8078 40.2656 C57.1828 39.0938 57.511 37.9844 57.8391 36.7812 L57.886 36.7812 C58.2297 37.9844 58.5422 39.0938 58.9328 40.2656 L59.4172 41.8281 L56.3078 41.8281 L56.8078 40.2656 ZM53.6828 46 L54.9953 46 L55.9953 42.8594 L59.7453 42.8594 L60.7141 46 L62.0891 46 L58.6047 35.7188 L57.1672 35.7188 L53.6828 46 ZM66.4152 46.1875 C67.3214 46.1875 68.1964 45.8281 68.8839 45.2188 L68.3214 44.3594 C67.8527 44.7969 67.2277 45.125 66.5246 45.125 C65.1339 45.125 64.1808 43.9531 64.1808 42.2031 C64.1808 40.4531 65.1808 39.2656 66.5714 39.2656 C67.1808 39.2656 67.6339 39.5469 68.0871 39.9375 L68.7433 39.0938 C68.1964 38.625 67.5089 38.2031 66.5089 38.2031 C64.5714 38.2031 62.8527 39.6719 62.8527 42.2031 C62.8527 44.7188 64.3996 46.1875 66.4152 46.1875 Z" style="fill:black; stroke:none;"
      /><path d="M29.6094 46 L36.0625 46 L36.0625 44.8906 L33.2344 44.8906 C32.7031 44.8906 32.0781 44.9531 31.5469 44.9844 C33.9531 42.7031 35.5625 40.625 35.5625 38.5781 C35.5625 36.75 34.4219 35.5469 32.5781 35.5469 C31.2812 35.5469 30.4062 36.1406 29.5625 37.0469 L30.2969 37.7812 C30.8594 37.1094 31.5938 36.5938 32.4375 36.5938 C33.7031 36.5938 34.3125 37.4531 34.3125 38.625 C34.3125 40.3906 32.8438 42.4375 29.6094 45.25 L29.6094 46 ZM36.9731 46 L38.3168 46 L39.3481 44.2188 C39.6137 43.7656 39.8637 43.2969 40.1293 42.8594 L40.2075 42.8594 C40.4731 43.2969 40.7543 43.7656 41.0043 44.2188 L42.1293 46 L43.5356 46 L41.02 42.1562 L43.3325 38.3906 L42.0043 38.3906 L41.0668 40.0625 C40.8481 40.5 40.6137 40.9219 40.3793 41.3438 L40.3325 41.3438 C40.0668 40.9219 39.8012 40.5 39.5668 40.0625 L38.5512 38.3906 L37.1762 38.3906 L39.4887 42.0312 L36.9731 46 Z" style="fill:black; stroke:none;"
    /></g
  ></g
></svg
>
