<?xml version="1.0"?>
<!DOCTYPE svg PUBLIC '-//W3C//DTD SVG 1.0//EN'
          'http://www.w3.org/TR/2001/REC-SVG-20010904/DTD/svg10.dtd'>
<svg xmlns:xlink="http://www.w3.org/1999/xlink" style="fill-opacity:1; color-rendering:auto; color-interpolation:auto; text-rendering:auto; stroke:black; stroke-linecap:square; stroke-miterlimit:10; shape-rendering:auto; stroke-opacity:1; fill:black; stroke-dasharray:none; font-weight:normal; stroke-width:1; font-family:'Dialog'; font-style:normal; stroke-linejoin:miter; font-size:12px; stroke-dashoffset:0; image-rendering:auto;" viewBox="0 0 186 82" xmlns="http://www.w3.org/2000/svg"
><!--Generated by the Batik Graphics2D SVG Generator--><defs id="genericDefs"
  /><g
  ><defs id="defs1"
    ><clipPath clipPathUnits="userSpaceOnUse" id="clipPath1"
      ><path d="M104 41 C104 47.0751 99.0751 52 93 52 C86.9249 52 82 47.0751 82 41 C82 34.9249 86.9249 30 93 30 C99.0751 30 104 34.9249 104 41 Z"
      /></clipPath
      ><clipPath clipPathUnits="userSpaceOnUse" id="clipPath2"
      ><path d="M52 41 C52 47.0751 47.0751 52 41 52 C34.9249 52 30 47.0751 30 41 C30 34.9249 34.9249 30 41 30 C47.0751 30 52 34.9249 52 41 Z"
      /></clipPath
    ></defs
    ><g style="fill:white; text-rendering:optimizeSpeed; stroke:white;"
    ><rect x="0" width="186" height="82" y="0" style="stroke:none;"
      /><polygon style="fill:none; stroke:black;" points=" 93 41 41 41"
      /><circle style="clip-path:url(#clipPath1); stroke:none;" r="11" cx="93" cy="41"
      /><rect x="82" y="30" width="22" style="clip-path:url(#clipPath1); fill:rgb(255,212,0); stroke:none;" height="22"
      /><rect x="82" y="30" width="22" style="clip-path:url(#clipPath1); fill:none; stroke:black;" height="22"
      /><circle style="fill:none; stroke:black;" r="11" cx="93" cy="41"
    /></g
    ><g style="font-family:'Serif'; text-rendering:optimizeSpeed; "
    ><path style="stroke:none;" d="M108.9844 41.7031 C108.9375 42.8906 108.1562 43.6562 107.3125 43.6562 C106.2656 43.6562 105.5 42.6875 105.5 40.7188 C105.5 39.2812 106.1562 38.1562 107.3438 38.1562 C108.1406 38.1562 108.7812 38.6875 109.0938 39.6406 L108.9844 41.7031 ZM110.9062 43.2812 C110.7344 43.375 110.5469 43.4219 110.3438 43.4219 C109.9531 43.4219 109.75 43.2188 109.75 42.4219 C109.75 41.4844 109.9688 39.5312 110.1875 37.8281 L110.0312 37.7188 L109.2344 37.9219 L109.1406 38.7969 C108.7812 38.0312 108.1562 37.6562 107.3906 37.6562 C106.0469 37.6562 104.5625 38.8438 104.5625 40.9531 C104.5625 43.0938 105.7188 44.1719 107.1406 44.1719 C108.0156 44.1719 108.6875 43.8125 109.0938 42.9844 C109.2031 43.8594 109.5156 44.1719 110.0156 44.1719 C110.4688 44.1719 110.7969 43.9062 111.0156 43.5625 L110.9062 43.2812 Z"
      /><circle style="fill:white; clip-path:url(#clipPath2); stroke:none;" r="11" cx="41" cy="41"
      /><rect x="30" y="30" width="22" style="clip-path:url(#clipPath2); fill:rgb(0,144,188); stroke:none;" height="22"
      /><rect x="30" y="30" width="22" style="fill:none; clip-path:url(#clipPath2);" height="22"
      /><circle r="11" style="fill:none;" cx="41" cy="41"
      /><path style="stroke:none;" d="M39 44 L43.125 44 L43.125 43.2031 L39.9375 43.2031 L39.9375 36.6562 L39 36.6562 L39 44 Z"
      /><rect x="71" y="44" width="5" style="fill:white; stroke:none;" height="9"
      /><path style="stroke:none;" d="M74.8594 52.3906 C74.8594 51.6719 74.8438 50.9531 74.8438 50.25 L74.8438 46.1406 L74.8906 44.2656 L74.7031 44.125 L72.1094 44.7969 L72.1094 45.2344 L73.9219 45.0312 L73.9219 50.25 C73.9219 50.9531 73.9062 51.6719 73.8906 52.3906 L72 52.6094 L72 53 L76.7344 53 L76.7344 52.6094 L74.8594 52.3906 Z"
      /><rect x="56" y="45" width="8" style="fill:white; stroke:none;" height="8"
      /><path style="stroke:none;" d="M60.9844 50.7031 C60.9375 51.8906 60.1562 52.6562 59.3125 52.6562 C58.2656 52.6562 57.5 51.6875 57.5 49.7188 C57.5 48.2812 58.1562 47.1562 59.3438 47.1562 C60.1406 47.1562 60.7812 47.6875 61.0938 48.6406 L60.9844 50.7031 ZM62.9062 52.2812 C62.7344 52.375 62.5469 52.4219 62.3438 52.4219 C61.9531 52.4219 61.75 52.2188 61.75 51.4219 C61.75 50.4844 61.9688 48.5312 62.1875 46.8281 L62.0312 46.7188 L61.2344 46.9219 L61.1406 47.7969 C60.7812 47.0312 60.1562 46.6562 59.3906 46.6562 C58.0469 46.6562 56.5625 47.8438 56.5625 49.9531 C56.5625 52.0938 57.7188 53.1719 59.1406 53.1719 C60.0156 53.1719 60.6875 52.8125 61.0938 51.9844 C61.2031 52.8594 61.5156 53.1719 62.0156 53.1719 C62.4688 53.1719 62.7969 52.9062 63.0156 52.5625 L62.9062 52.2812 Z"
    /></g
  ></g
></svg
>
