<?xml version="1.0"?>
<!DOCTYPE svg PUBLIC '-//W3C//DTD SVG 1.0//EN'
          'http://www.w3.org/TR/2001/REC-SVG-20010904/DTD/svg10.dtd'>
<svg xmlns:xlink="http://www.w3.org/1999/xlink" style="fill-opacity:1; color-rendering:auto; color-interpolation:auto; text-rendering:auto; stroke:black; stroke-linecap:square; stroke-miterlimit:10; shape-rendering:auto; stroke-opacity:1; fill:black; stroke-dasharray:none; font-weight:normal; stroke-width:1; font-family:'Dialog'; font-style:normal; stroke-linejoin:miter; font-size:12px; stroke-dashoffset:0; image-rendering:auto;" viewBox="0 0 498 290" xmlns="http://www.w3.org/2000/svg"
><!--Generated by the Batik Graphics2D SVG Generator--><defs id="genericDefs"
  /><g
  ><defs id="defs1"
    ><clipPath clipPathUnits="userSpaceOnUse" id="clipPath1"
      ><path d="M394 108 L416 108 L416 130 L394 130 L394 108 Z"
      /></clipPath
      ><clipPath clipPathUnits="userSpaceOnUse" id="clipPath2"
      ><path d="M342 108 L364 108 L364 130 L342 130 L342 108 Z"
      /></clipPath
      ><clipPath clipPathUnits="userSpaceOnUse" id="clipPath3"
      ><path d="M312 119 C312 125.0751 307.0751 130 301 130 C294.9249 130 290 125.0751 290 119 C290 112.9249 294.9249 108 301 108 C307.0751 108 312 112.9249 312 119 Z"
      /></clipPath
      ><clipPath clipPathUnits="userSpaceOnUse" id="clipPath4"
      ><path d="M260 171 C260 177.0751 255.0751 182 249 182 C242.9249 182 238 177.0751 238 171 C238 164.9249 242.9249 160 249 160 C255.0751 160 260 164.9249 260 171 Z"
      /></clipPath
      ><clipPath clipPathUnits="userSpaceOnUse" id="clipPath5"
      ><path d="M186 186 L208 186 L208 208 L186 208 L186 186 Z"
      /></clipPath
      ><clipPath clipPathUnits="userSpaceOnUse" id="clipPath6"
      ><path d="M156 197 C156 203.0751 151.0751 208 145 208 C138.9249 208 134 203.0751 134 197 C134 190.9249 138.9249 186 145 186 C151.0751 186 156 190.9249 156 197 Z"
      /></clipPath
      ><clipPath clipPathUnits="userSpaceOnUse" id="clipPath7"
      ><path d="M82 186 L104 186 L104 208 L82 208 L82 186 Z"
      /></clipPath
      ><clipPath clipPathUnits="userSpaceOnUse" id="clipPath8"
      ><path style="fill-rule:evenodd;" d="M93 238 L104 260 L82 260 Z"
      /></clipPath
      ><clipPath clipPathUnits="userSpaceOnUse" id="clipPath9"
      ><path d="M52 197 C52 203.0751 47.0751 208 41 208 C34.9249 208 30 203.0751 30 197 C30 190.9249 34.9249 186 41 186 C47.0751 186 52 190.9249 52 197 Z"
      /></clipPath
      ><clipPath clipPathUnits="userSpaceOnUse" id="clipPath10"
      ><path d="M186 134 L208 134 L208 156 L186 156 L186 134 Z"
      /></clipPath
      ><clipPath clipPathUnits="userSpaceOnUse" id="clipPath11"
      ><path d="M156 145 C156 151.0751 151.0751 156 145 156 C138.9249 156 134 151.0751 134 145 C134 138.9249 138.9249 134 145 134 C151.0751 134 156 138.9249 156 145 Z"
      /></clipPath
      ><clipPath clipPathUnits="userSpaceOnUse" id="clipPath12"
      ><path d="M104 145 C104 151.0751 99.0751 156 93 156 C86.9249 156 82 151.0751 82 145 C82 138.9249 86.9249 134 93 134 C99.0751 134 104 138.9249 104 145 Z"
      /></clipPath
      ><clipPath clipPathUnits="userSpaceOnUse" id="clipPath13"
      ><path d="M260 67 C260 73.0751 255.0751 78 249 78 C242.9249 78 238 73.0751 238 67 C238 60.9249 242.9249 56 249 56 C255.0751 56 260 60.9249 260 67 Z"
      /></clipPath
      ><clipPath clipPathUnits="userSpaceOnUse" id="clipPath14"
      ><path d="M186 82 L208 82 L208 104 L186 104 L186 82 Z"
      /></clipPath
      ><clipPath clipPathUnits="userSpaceOnUse" id="clipPath15"
      ><path d="M156 93 C156 99.0751 151.0751 104 145 104 C138.9249 104 134 99.0751 134 93 C134 86.9249 138.9249 82 145 82 C151.0751 82 156 86.9249 156 93 Z"
      /></clipPath
      ><clipPath clipPathUnits="userSpaceOnUse" id="clipPath16"
      ><path d="M104 93 C104 99.0751 99.0751 104 93 104 C86.9249 104 82 99.0751 82 93 C82 86.9249 86.9249 82 93 82 C99.0751 82 104 86.9249 104 93 Z"
      /></clipPath
      ><clipPath clipPathUnits="userSpaceOnUse" id="clipPath17"
      ><path d="M186 30 L208 30 L208 52 L186 52 L186 30 Z"
      /></clipPath
      ><clipPath clipPathUnits="userSpaceOnUse" id="clipPath18"
      ><path d="M156 41 C156 47.0751 151.0751 52 145 52 C138.9249 52 134 47.0751 134 41 C134 34.9249 138.9249 30 145 30 C151.0751 30 156 34.9249 156 41 Z"
      /></clipPath
    ></defs
    ><g style="fill:white; text-rendering:optimizeSpeed; stroke:white;"
    ><rect x="0" width="498" height="290" y="0" style="stroke:none;"
      /><polygon style="fill:none; stroke:black;" points=" 457 119 405 119"
      /><path d="M457 108 C451.5 113.5 462.5 124.5 457 130" style="fill:none; stroke:black;"
      /><polygon style="fill:none; stroke:black;" points=" 405 119 353 119"
      /><rect x="394" y="108" width="22" style="clip-path:url(#clipPath1); stroke:none;" height="22"
      /><rect x="394" y="108" width="22" style="clip-path:url(#clipPath1); fill:rgb(0,144,188); stroke:none;" height="22"
      /><rect x="394" y="108" width="22" style="clip-path:url(#clipPath1); fill:none; stroke:black;" height="22"
      /><rect x="394" y="108" width="22" style="fill:none; stroke:black;" height="22"
      /><polygon style="fill:none; stroke:black;" points=" 353 119 301 119"
      /><rect x="342" y="108" width="22" style="clip-path:url(#clipPath2); stroke:none;" height="22"
      /><rect x="342" y="108" width="22" style="clip-path:url(#clipPath2); fill:rgb(0,144,188); stroke:none;" height="22"
      /><rect x="342" y="108" width="22" style="clip-path:url(#clipPath2); fill:none; stroke:black;" height="22"
      /><rect x="342" y="108" width="22" style="fill:none; stroke:black;" height="22"
      /><polygon style="fill:none; stroke:black;" points=" 301 119 249 171"
      /><polygon style="fill:none; stroke:black;" points=" 301 119 249 67"
      /><circle style="clip-path:url(#clipPath3); stroke:none;" r="11" cx="301" cy="119"
      /><rect x="290" y="108" width="22" style="clip-path:url(#clipPath3); fill:rgb(0,166,81); stroke:none;" height="22"
      /><rect x="290" y="108" width="22" style="clip-path:url(#clipPath3); fill:none; stroke:black;" height="22"
      /><circle style="fill:none; stroke:black;" r="11" cx="301" cy="119"
      /><polygon style="fill:none; stroke:black;" points=" 249 171 197 197"
      /><polygon style="fill:none; stroke:black;" points=" 249 171 197 145"
      /><circle style="clip-path:url(#clipPath4); stroke:none;" r="11" cx="249" cy="171"
      /><rect x="238" y="160" width="22" style="clip-path:url(#clipPath4); fill:rgb(0,166,81); stroke:none;" height="22"
      /><rect x="238" y="160" width="22" style="clip-path:url(#clipPath4); fill:none; stroke:black;" height="22"
      /><circle style="fill:none; stroke:black;" r="11" cx="249" cy="171"
      /><polygon style="fill:none; stroke:black;" points=" 197 197 145 197"
      /><rect x="186" y="186" width="22" style="clip-path:url(#clipPath5); stroke:none;" height="22"
      /><rect x="186" y="186" width="22" style="clip-path:url(#clipPath5); fill:rgb(0,144,188); stroke:none;" height="22"
      /><rect x="186" y="186" width="22" style="clip-path:url(#clipPath5); fill:none; stroke:black;" height="22"
      /><rect x="186" y="186" width="22" style="fill:none; stroke:black;" height="22"
      /><polygon style="fill:none; stroke:black;" points=" 145 197 93 197"
      /><circle style="clip-path:url(#clipPath6); stroke:none;" r="11" cx="145" cy="197"
      /><rect x="134" y="186" width="22" style="clip-path:url(#clipPath6); fill:rgb(255,212,0); stroke:none;" height="22"
      /><rect x="134" y="186" width="22" style="clip-path:url(#clipPath6); fill:none; stroke:black;" height="22"
      /><circle style="fill:none; stroke:black;" r="11" cx="145" cy="197"
      /><polygon style="fill:none; stroke:black;" points=" 93 197 93 249"
      /><polygon style="fill:none; stroke:black;" points=" 93 197 41 197"
      /><rect x="82" y="186" width="22" style="clip-path:url(#clipPath7); stroke:none;" height="22"
      /><rect x="82" y="186" width="22" style="clip-path:url(#clipPath7); fill:rgb(0,144,188); stroke:none;" height="22"
      /><rect x="82" y="186" width="22" style="clip-path:url(#clipPath7); fill:none; stroke:black;" height="22"
      /><rect x="82" y="186" width="22" style="fill:none; stroke:black;" height="22"
      /><polygon style="clip-path:url(#clipPath8); stroke:none;" points=" 93 238 104 260 82 260"
      /><rect x="82" y="238" width="22" style="clip-path:url(#clipPath8); fill:rgb(237,28,36); stroke:none;" height="22"
      /><rect x="82" y="238" width="22" style="clip-path:url(#clipPath8); fill:none; stroke:black;" height="22"
      /><polygon style="fill:none; stroke:black;" points=" 93 238 104 260 82 260"
      /><circle style="clip-path:url(#clipPath9); stroke:none;" r="11" cx="41" cy="197"
      /><rect x="30" y="186" width="22" style="clip-path:url(#clipPath9); fill:rgb(255,212,0); stroke:none;" height="22"
      /><rect x="30" y="186" width="22" style="clip-path:url(#clipPath9); fill:none; stroke:black;" height="22"
      /><circle style="fill:none; stroke:black;" r="11" cx="41" cy="197"
      /><rect x="98" y="211" width="6" style="stroke:none;" height="10"
    /></g
    ><g style="font-family:'Serif'; text-rendering:optimizeSpeed; "
    ><path style="stroke:none;" d="M100.2344 212.6562 C100.5156 212.5938 100.7656 212.5625 101.0156 212.5625 C102.0625 212.5625 102.6719 213.1719 102.6719 214.2656 C102.6719 215.4375 101.9062 216.1094 100.7031 216.1094 L100.1875 216.1094 L100.1875 216.6406 L100.7969 216.6406 C102.2188 216.6406 102.9062 217.4219 102.9062 218.6406 C102.9062 219.8438 102.1719 220.6875 100.875 220.6875 C100.6094 220.6875 100.3125 220.6562 100.0156 220.5625 L99.7812 219.8125 C99.625 219.2812 99.5 219.0469 99.1406 219.0469 C98.8906 219.0469 98.7031 219.1719 98.5781 219.4219 C98.8438 220.6406 99.7812 221.1719 101.0312 221.1719 C102.7188 221.1719 103.875 220.125 103.875 218.7031 C103.875 217.5 103.2031 216.625 101.7969 216.375 C102.9531 216.0156 103.6094 215.2031 103.6094 214.2031 C103.6094 212.9219 102.6719 212.0781 101.1875 212.0781 C100.0469 212.0781 99.0625 212.5938 98.7969 213.6875 C98.9062 214 99.1094 214.1094 99.3594 214.1094 C99.7344 214.1094 99.8906 213.8906 100 213.4062 L100.2344 212.6562 Z"
      /><rect x="97" y="226" width="8" style="fill:white; stroke:none;" height="8"
      /><path style="stroke:none;" d="M101.9844 231.7031 C101.9375 232.8906 101.1562 233.6562 100.3125 233.6562 C99.2656 233.6562 98.5 232.6875 98.5 230.7188 C98.5 229.2812 99.1562 228.1562 100.3438 228.1562 C101.1406 228.1562 101.7812 228.6875 102.0938 229.6406 L101.9844 231.7031 ZM103.9062 233.2812 C103.7344 233.375 103.5469 233.4219 103.3438 233.4219 C102.9531 233.4219 102.75 233.2188 102.75 232.4219 C102.75 231.4844 102.9688 229.5312 103.1875 227.8281 L103.0312 227.7188 L102.2344 227.9219 L102.1406 228.7969 C101.7812 228.0312 101.1562 227.6562 100.3906 227.6562 C99.0469 227.6562 97.5625 228.8438 97.5625 230.9531 C97.5625 233.0938 98.7188 234.1719 100.1406 234.1719 C101.0156 234.1719 101.6875 233.8125 102.0938 232.9844 C102.2031 233.8594 102.5156 234.1719 103.0156 234.1719 C103.4688 234.1719 103.7969 233.9062 104.0156 233.5625 L103.9062 233.2812 Z"
      /><rect x="70" y="200" width="7" style="fill:white; stroke:none;" height="9"
      /><path style="stroke:none;" d="M71 205.5156 L73.9531 201.2656 L73.9531 205.5156 L71 205.5156 ZM76.2812 205.5156 L74.8594 205.5156 L74.8594 200.125 L74.2344 200.125 L70.3438 205.6406 L70.3438 206.1875 L73.9531 206.1875 L73.9531 209 L74.8594 209 L74.8594 206.1875 L76.2812 206.1875 L76.2812 205.5156 Z"
      /><rect x="57" y="198" width="6" style="fill:white; stroke:none;" height="13"
      /><path style="stroke:none;" d="M59.0938 204.2031 C59.0938 202.6562 59.75 201.8125 60.7969 201.8125 C61.7188 201.8125 62.2656 202.4531 62.2656 203.5156 C62.2656 204.7188 61.5 205.4375 60.1875 205.7031 L60.2969 206.3125 C62.2188 206.2344 62.9375 207.2188 62.9375 208.4375 C62.9375 209.625 62.2344 210.4219 60.9531 210.4219 C60.25 210.4219 59.6562 210.1562 59.0938 209.7188 L59.0938 204.2031 ZM58.2031 210.9062 L58.1094 213.375 L58.2656 213.4844 L59.1562 213.2656 L59.0156 210.0938 C59.5469 210.8438 60.3594 211.1719 61.1719 211.1719 C62.5625 211.1719 63.8594 210.2188 63.8594 208.4844 C63.8594 206.9531 62.875 206.1094 61.125 206 C62.5625 205.6094 63.1875 204.4531 63.1875 203.4844 C63.1875 202.0938 62.1562 201.3125 60.9062 201.3125 C59.2969 201.3125 58.2188 202.5469 58.2188 204.5156 L58.2031 210.9062 Z"
      /><rect x="123" y="200" width="6" style="fill:white; stroke:none;" height="10"
      /><path style="stroke:none;" d="M125.2344 201.6562 C125.5156 201.5938 125.7656 201.5625 126.0156 201.5625 C127.0625 201.5625 127.6719 202.1719 127.6719 203.2656 C127.6719 204.4375 126.9062 205.1094 125.7031 205.1094 L125.1875 205.1094 L125.1875 205.6406 L125.7969 205.6406 C127.2188 205.6406 127.9062 206.4219 127.9062 207.6406 C127.9062 208.8438 127.1719 209.6875 125.875 209.6875 C125.6094 209.6875 125.3125 209.6562 125.0156 209.5625 L124.7812 208.8125 C124.625 208.2812 124.5 208.0469 124.1406 208.0469 C123.8906 208.0469 123.7031 208.1719 123.5781 208.4219 C123.8438 209.6406 124.7812 210.1719 126.0312 210.1719 C127.7188 210.1719 128.875 209.125 128.875 207.7031 C128.875 206.5 128.2031 205.625 126.7969 205.375 C127.9531 205.0156 128.6094 204.2031 128.6094 203.2031 C128.6094 201.9219 127.6719 201.0781 126.1875 201.0781 C125.0469 201.0781 124.0625 201.5938 123.7969 202.6875 C123.9062 203 124.1094 203.1094 124.3594 203.1094 C124.7344 203.1094 124.8906 202.8906 125 202.4062 L125.2344 201.6562 Z"
      /><rect x="109" y="198" width="6" style="fill:white; stroke:none;" height="13"
      /><path style="stroke:none;" d="M111.0938 204.2031 C111.0938 202.6562 111.75 201.8125 112.7969 201.8125 C113.7188 201.8125 114.2656 202.4531 114.2656 203.5156 C114.2656 204.7188 113.5 205.4375 112.1875 205.7031 L112.2969 206.3125 C114.2188 206.2344 114.9375 207.2188 114.9375 208.4375 C114.9375 209.625 114.2344 210.4219 112.9531 210.4219 C112.25 210.4219 111.6562 210.1562 111.0938 209.7188 L111.0938 204.2031 ZM110.2031 210.9062 L110.1094 213.375 L110.2656 213.4844 L111.1562 213.2656 L111.0156 210.0938 C111.5469 210.8438 112.3594 211.1719 113.1719 211.1719 C114.5625 211.1719 115.8594 210.2188 115.8594 208.4844 C115.8594 206.9531 114.875 206.1094 113.125 206 C114.5625 205.6094 115.1875 204.4531 115.1875 203.4844 C115.1875 202.0938 114.1562 201.3125 112.9062 201.3125 C111.2969 201.3125 110.2188 202.5469 110.2188 204.5156 L110.2031 210.9062 Z"
      /><rect x="174" y="200" width="7" style="fill:white; stroke:none;" height="9"
      /><path style="stroke:none;" d="M175 205.5156 L177.9531 201.2656 L177.9531 205.5156 L175 205.5156 ZM180.2812 205.5156 L178.8594 205.5156 L178.8594 200.125 L178.2344 200.125 L174.3438 205.6406 L174.3438 206.1875 L177.9531 206.1875 L177.9531 209 L178.8594 209 L178.8594 206.1875 L180.2812 206.1875 L180.2812 205.5156 Z"
      /><rect x="161" y="198" width="6" style="fill:white; stroke:none;" height="13"
      /><path style="stroke:none;" d="M163.0938 204.2031 C163.0938 202.6562 163.75 201.8125 164.7969 201.8125 C165.7188 201.8125 166.2656 202.4531 166.2656 203.5156 C166.2656 204.7188 165.5 205.4375 164.1875 205.7031 L164.2969 206.3125 C166.2188 206.2344 166.9375 207.2188 166.9375 208.4375 C166.9375 209.625 166.2344 210.4219 164.9531 210.4219 C164.25 210.4219 163.6562 210.1562 163.0938 209.7188 L163.0938 204.2031 ZM162.2031 210.9062 L162.1094 213.375 L162.2656 213.4844 L163.1562 213.2656 L163.0156 210.0938 C163.5469 210.8438 164.3594 211.1719 165.1719 211.1719 C166.5625 211.1719 167.8594 210.2188 167.8594 208.4844 C167.8594 206.9531 166.875 206.1094 165.125 206 C166.5625 205.6094 167.1875 204.4531 167.1875 203.4844 C167.1875 202.0938 166.1562 201.3125 164.9062 201.3125 C163.2969 201.3125 162.2188 202.5469 162.2188 204.5156 L162.2031 210.9062 Z"
      /><polygon style="fill:none;" points=" 197 145 145 145"
      /><rect x="186" y="134" width="22" style="clip-path:url(#clipPath10); fill:white; stroke:none;" height="22"
      /><rect x="186" y="134" width="22" style="clip-path:url(#clipPath10); fill:rgb(0,144,188); stroke:none;" height="22"
      /><rect x="186" y="134" width="22" style="fill:none; clip-path:url(#clipPath10);" height="22"
      /><rect x="186" width="22" height="22" y="134" style="fill:none;"
      /><polygon style="fill:none;" points=" 145 145 93 145"
      /><circle style="fill:white; clip-path:url(#clipPath11); stroke:none;" r="11" cx="145" cy="145"
      /><rect x="134" y="134" width="22" style="clip-path:url(#clipPath11); fill:rgb(255,212,0); stroke:none;" height="22"
      /><rect x="134" y="134" width="22" style="fill:none; clip-path:url(#clipPath11);" height="22"
      /><circle r="11" style="fill:none;" cx="145" cy="145"
      /><circle style="fill:white; clip-path:url(#clipPath12); stroke:none;" r="11" cx="93" cy="145"
      /><rect x="82" y="134" width="22" style="clip-path:url(#clipPath12); fill:rgb(255,212,0); stroke:none;" height="22"
      /><rect x="82" y="134" width="22" style="fill:none; clip-path:url(#clipPath12);" height="22"
      /><circle r="11" style="fill:none;" cx="93" cy="145"
      /><rect x="123" y="148" width="6" style="fill:white; stroke:none;" height="10"
      /><path style="stroke:none;" d="M125.2344 149.6562 C125.5156 149.5938 125.7656 149.5625 126.0156 149.5625 C127.0625 149.5625 127.6719 150.1719 127.6719 151.2656 C127.6719 152.4375 126.9062 153.1094 125.7031 153.1094 L125.1875 153.1094 L125.1875 153.6406 L125.7969 153.6406 C127.2188 153.6406 127.9062 154.4219 127.9062 155.6406 C127.9062 156.8438 127.1719 157.6875 125.875 157.6875 C125.6094 157.6875 125.3125 157.6562 125.0156 157.5625 L124.7812 156.8125 C124.625 156.2812 124.5 156.0469 124.1406 156.0469 C123.8906 156.0469 123.7031 156.1719 123.5781 156.4219 C123.8438 157.6406 124.7812 158.1719 126.0312 158.1719 C127.7188 158.1719 128.875 157.125 128.875 155.7031 C128.875 154.5 128.2031 153.625 126.7969 153.375 C127.9531 153.0156 128.6094 152.2031 128.6094 151.2031 C128.6094 149.9219 127.6719 149.0781 126.1875 149.0781 C125.0469 149.0781 124.0625 149.5938 123.7969 150.6875 C123.9062 151 124.1094 151.1094 124.3594 151.1094 C124.7344 151.1094 124.8906 150.8906 125 150.4062 L125.2344 149.6562 Z"
      /><rect x="108" y="149" width="8" style="fill:white; stroke:none;" height="8"
      /><path style="stroke:none;" d="M112.9844 154.7031 C112.9375 155.8906 112.1562 156.6562 111.3125 156.6562 C110.2656 156.6562 109.5 155.6875 109.5 153.7188 C109.5 152.2812 110.1562 151.1562 111.3438 151.1562 C112.1406 151.1562 112.7812 151.6875 113.0938 152.6406 L112.9844 154.7031 ZM114.9062 156.2812 C114.7344 156.375 114.5469 156.4219 114.3438 156.4219 C113.9531 156.4219 113.75 156.2188 113.75 155.4219 C113.75 154.4844 113.9688 152.5312 114.1875 150.8281 L114.0312 150.7188 L113.2344 150.9219 L113.1406 151.7969 C112.7812 151.0312 112.1562 150.6562 111.3906 150.6562 C110.0469 150.6562 108.5625 151.8438 108.5625 153.9531 C108.5625 156.0938 109.7188 157.1719 111.1406 157.1719 C112.0156 157.1719 112.6875 156.8125 113.0938 155.9844 C113.2031 156.8594 113.5156 157.1719 114.0156 157.1719 C114.4688 157.1719 114.7969 156.9062 115.0156 156.5625 L114.9062 156.2812 Z"
      /><rect x="174" y="148" width="7" style="fill:white; stroke:none;" height="9"
      /><path style="stroke:none;" d="M175 153.5156 L177.9531 149.2656 L177.9531 153.5156 L175 153.5156 ZM180.2812 153.5156 L178.8594 153.5156 L178.8594 148.125 L178.2344 148.125 L174.3438 153.6406 L174.3438 154.1875 L177.9531 154.1875 L177.9531 157 L178.8594 157 L178.8594 154.1875 L180.2812 154.1875 L180.2812 153.5156 Z"
      /><rect x="161" y="146" width="6" style="fill:white; stroke:none;" height="13"
      /><path style="stroke:none;" d="M163.0938 152.2031 C163.0938 150.6562 163.75 149.8125 164.7969 149.8125 C165.7188 149.8125 166.2656 150.4531 166.2656 151.5156 C166.2656 152.7188 165.5 153.4375 164.1875 153.7031 L164.2969 154.3125 C166.2188 154.2344 166.9375 155.2188 166.9375 156.4375 C166.9375 157.625 166.2344 158.4219 164.9531 158.4219 C164.25 158.4219 163.6562 158.1562 163.0938 157.7188 L163.0938 152.2031 ZM162.2031 158.9062 L162.1094 161.375 L162.2656 161.4844 L163.1562 161.2656 L163.0156 158.0938 C163.5469 158.8438 164.3594 159.1719 165.1719 159.1719 C166.5625 159.1719 167.8594 158.2188 167.8594 156.4844 C167.8594 154.9531 166.875 154.1094 165.125 154 C166.5625 153.6094 167.1875 152.4531 167.1875 151.4844 C167.1875 150.0938 166.1562 149.3125 164.9062 149.3125 C163.2969 149.3125 162.2188 150.5469 162.2188 152.5156 L162.2031 158.9062 Z"
      /><rect x="231" y="182" width="6" style="fill:white; stroke:none;" height="9"
      /><path style="stroke:none;" d="M232.4219 190.0938 C233.0781 189.375 233.7031 188.7188 234.0312 188.3438 C235.9219 186.3125 236.5312 185.4688 236.5312 184.3594 C236.5312 183.0156 235.7812 182.0781 234.1562 182.0781 C232.9062 182.0781 231.7969 182.7031 231.5938 183.9688 C231.7188 184.2031 231.9062 184.3438 232.1562 184.3438 C232.4688 184.3438 232.6562 184.1094 232.7969 183.5938 L233.0938 182.6719 C233.3906 182.5938 233.6562 182.5625 233.8906 182.5625 C234.9219 182.5625 235.5469 183.3125 235.5469 184.4219 C235.5469 185.4375 234.9844 186.4219 233.7031 187.9062 C233.125 188.5781 232.3906 189.4375 231.6406 190.2812 L231.6406 191 L236.9219 191 L236.9219 190.0938 L232.4219 190.0938 Z"
      /><rect x="215" y="188" width="6" style="fill:white; stroke:none;" height="13"
      /><path style="stroke:none;" d="M217.0938 194.2031 C217.0938 192.6562 217.75 191.8125 218.7969 191.8125 C219.7188 191.8125 220.2656 192.4531 220.2656 193.5156 C220.2656 194.7188 219.5 195.4375 218.1875 195.7031 L218.2969 196.3125 C220.2188 196.2344 220.9375 197.2188 220.9375 198.4375 C220.9375 199.625 220.2344 200.4219 218.9531 200.4219 C218.25 200.4219 217.6562 200.1562 217.0938 199.7188 L217.0938 194.2031 ZM216.2031 200.9062 L216.1094 203.375 L216.2656 203.4844 L217.1562 203.2656 L217.0156 200.0938 C217.5469 200.8438 218.3594 201.1719 219.1719 201.1719 C220.5625 201.1719 221.8594 200.2188 221.8594 198.4844 C221.8594 196.9531 220.875 196.1094 219.125 196 C220.5625 195.6094 221.1875 194.4531 221.1875 193.4844 C221.1875 192.0938 220.1562 191.3125 218.9062 191.3125 C217.2969 191.3125 216.2188 192.5469 216.2188 194.5156 L216.2031 200.9062 Z"
      /><rect x="223" y="164" width="7" style="fill:white; stroke:none;" height="9"
      /><path style="stroke:none;" d="M224 169.5156 L226.9531 165.2656 L226.9531 169.5156 L224 169.5156 ZM229.2812 169.5156 L227.8594 169.5156 L227.8594 164.125 L227.2344 164.125 L223.3438 169.6406 L223.3438 170.1875 L226.9531 170.1875 L226.9531 173 L227.8594 173 L227.8594 170.1875 L229.2812 170.1875 L229.2812 169.5156 Z"
      /><rect x="208" y="154" width="6" style="fill:white; stroke:none;" height="13"
      /><path style="stroke:none;" d="M210.0938 160.2031 C210.0938 158.6562 210.75 157.8125 211.7969 157.8125 C212.7188 157.8125 213.2656 158.4531 213.2656 159.5156 C213.2656 160.7188 212.5 161.4375 211.1875 161.7031 L211.2969 162.3125 C213.2188 162.2344 213.9375 163.2188 213.9375 164.4375 C213.9375 165.625 213.2344 166.4219 211.9531 166.4219 C211.25 166.4219 210.6562 166.1562 210.0938 165.7188 L210.0938 160.2031 ZM209.2031 166.9062 L209.1094 169.375 L209.2656 169.4844 L210.1562 169.2656 L210.0156 166.0938 C210.5469 166.8438 211.3594 167.1719 212.1719 167.1719 C213.5625 167.1719 214.8594 166.2188 214.8594 164.4844 C214.8594 162.9531 213.875 162.1094 212.125 162 C213.5625 161.6094 214.1875 160.4531 214.1875 159.4844 C214.1875 158.0938 213.1562 157.3125 211.9062 157.3125 C210.2969 157.3125 209.2188 158.5469 209.2188 160.5156 L209.2031 166.9062 Z"
      /><polygon style="fill:none;" points=" 249 67 197 93"
      /><polygon style="fill:none;" points=" 249 67 197 41"
      /><circle style="fill:white; clip-path:url(#clipPath13); stroke:none;" r="11" cx="249" cy="67"
      /><rect x="238" y="56" width="22" style="clip-path:url(#clipPath13); fill:rgb(0,166,81); stroke:none;" height="22"
      /><rect x="238" y="56" width="22" style="fill:none; clip-path:url(#clipPath13);" height="22"
      /><circle r="11" style="fill:none;" cx="249" cy="67"
      /><polygon style="fill:none;" points=" 197 93 145 93"
      /><rect x="186" y="82" width="22" style="clip-path:url(#clipPath14); fill:white; stroke:none;" height="22"
      /><rect x="186" y="82" width="22" style="clip-path:url(#clipPath14); fill:rgb(0,144,188); stroke:none;" height="22"
      /><rect x="186" y="82" width="22" style="fill:none; clip-path:url(#clipPath14);" height="22"
      /><rect x="186" width="22" height="22" y="82" style="fill:none;"
      /><polygon style="fill:none;" points=" 145 93 93 93"
      /><circle style="fill:white; clip-path:url(#clipPath15); stroke:none;" r="11" cx="145" cy="93"
      /><rect x="134" y="82" width="22" style="clip-path:url(#clipPath15); fill:rgb(255,212,0); stroke:none;" height="22"
      /><rect x="134" y="82" width="22" style="fill:none; clip-path:url(#clipPath15);" height="22"
      /><circle r="11" style="fill:none;" cx="145" cy="93"
      /><circle style="fill:white; clip-path:url(#clipPath16); stroke:none;" r="11" cx="93" cy="93"
      /><rect x="82" y="82" width="22" style="clip-path:url(#clipPath16); fill:rgb(255,212,0); stroke:none;" height="22"
      /><rect x="82" y="82" width="22" style="fill:none; clip-path:url(#clipPath16);" height="22"
      /><circle r="11" style="fill:none;" cx="93" cy="93"
      /><rect x="123" y="96" width="6" style="fill:white; stroke:none;" height="10"
      /><path style="stroke:none;" d="M125.2344 97.6562 C125.5156 97.5938 125.7656 97.5625 126.0156 97.5625 C127.0625 97.5625 127.6719 98.1719 127.6719 99.2656 C127.6719 100.4375 126.9062 101.1094 125.7031 101.1094 L125.1875 101.1094 L125.1875 101.6406 L125.7969 101.6406 C127.2188 101.6406 127.9062 102.4219 127.9062 103.6406 C127.9062 104.8438 127.1719 105.6875 125.875 105.6875 C125.6094 105.6875 125.3125 105.6562 125.0156 105.5625 L124.7812 104.8125 C124.625 104.2812 124.5 104.0469 124.1406 104.0469 C123.8906 104.0469 123.7031 104.1719 123.5781 104.4219 C123.8438 105.6406 124.7812 106.1719 126.0312 106.1719 C127.7188 106.1719 128.875 105.125 128.875 103.7031 C128.875 102.5 128.2031 101.625 126.7969 101.375 C127.9531 101.0156 128.6094 100.2031 128.6094 99.2031 C128.6094 97.9219 127.6719 97.0781 126.1875 97.0781 C125.0469 97.0781 124.0625 97.5938 123.7969 98.6875 C123.9062 99 124.1094 99.1094 124.3594 99.1094 C124.7344 99.1094 124.8906 98.8906 125 98.4062 L125.2344 97.6562 Z"
      /><rect x="108" y="97" width="8" style="fill:white; stroke:none;" height="8"
      /><path style="stroke:none;" d="M112.9844 102.7031 C112.9375 103.8906 112.1562 104.6562 111.3125 104.6562 C110.2656 104.6562 109.5 103.6875 109.5 101.7188 C109.5 100.2812 110.1562 99.1562 111.3438 99.1562 C112.1406 99.1562 112.7812 99.6875 113.0938 100.6406 L112.9844 102.7031 ZM114.9062 104.2812 C114.7344 104.375 114.5469 104.4219 114.3438 104.4219 C113.9531 104.4219 113.75 104.2188 113.75 103.4219 C113.75 102.4844 113.9688 100.5312 114.1875 98.8281 L114.0312 98.7188 L113.2344 98.9219 L113.1406 99.7969 C112.7812 99.0312 112.1562 98.6562 111.3906 98.6562 C110.0469 98.6562 108.5625 99.8438 108.5625 101.9531 C108.5625 104.0938 109.7188 105.1719 111.1406 105.1719 C112.0156 105.1719 112.6875 104.8125 113.0938 103.9844 C113.2031 104.8594 113.5156 105.1719 114.0156 105.1719 C114.4688 105.1719 114.7969 104.9062 115.0156 104.5625 L114.9062 104.2812 Z"
      /><rect x="174" y="96" width="7" style="fill:white; stroke:none;" height="9"
      /><path style="stroke:none;" d="M175 101.5156 L177.9531 97.2656 L177.9531 101.5156 L175 101.5156 ZM180.2812 101.5156 L178.8594 101.5156 L178.8594 96.125 L178.2344 96.125 L174.3438 101.6406 L174.3438 102.1875 L177.9531 102.1875 L177.9531 105 L178.8594 105 L178.8594 102.1875 L180.2812 102.1875 L180.2812 101.5156 Z"
      /><rect x="161" y="94" width="6" style="fill:white; stroke:none;" height="13"
      /><path style="stroke:none;" d="M163.0938 100.2031 C163.0938 98.6562 163.75 97.8125 164.7969 97.8125 C165.7188 97.8125 166.2656 98.4531 166.2656 99.5156 C166.2656 100.7188 165.5 101.4375 164.1875 101.7031 L164.2969 102.3125 C166.2188 102.2344 166.9375 103.2188 166.9375 104.4375 C166.9375 105.625 166.2344 106.4219 164.9531 106.4219 C164.25 106.4219 163.6562 106.1562 163.0938 105.7188 L163.0938 100.2031 ZM162.2031 106.9062 L162.1094 109.375 L162.2656 109.4844 L163.1562 109.2656 L163.0156 106.0938 C163.5469 106.8438 164.3594 107.1719 165.1719 107.1719 C166.5625 107.1719 167.8594 106.2188 167.8594 104.4844 C167.8594 102.9531 166.875 102.1094 165.125 102 C166.5625 101.6094 167.1875 100.4531 167.1875 99.4844 C167.1875 98.0938 166.1562 97.3125 164.9062 97.3125 C163.2969 97.3125 162.2188 98.5469 162.2188 100.5156 L162.2031 106.9062 Z"
      /><polygon style="fill:none;" points=" 197 41 145 41"
      /><rect x="186" y="30" width="22" style="clip-path:url(#clipPath17); fill:white; stroke:none;" height="22"
      /><rect x="186" y="30" width="22" style="clip-path:url(#clipPath17); fill:rgb(165,67,153); stroke:none;" height="22"
      /><rect x="186" y="30" width="22" style="fill:none; clip-path:url(#clipPath17);" height="22"
      /><rect x="186" width="22" height="22" y="30" style="fill:none;"
      /><circle style="fill:white; clip-path:url(#clipPath18); stroke:none;" r="11" cx="145" cy="41"
      /><rect x="134" y="30" width="22" style="clip-path:url(#clipPath18); fill:rgb(255,212,0); stroke:none;" height="22"
      /><rect x="134" y="30" width="22" style="fill:none; clip-path:url(#clipPath18);" height="22"
      /><circle r="11" style="fill:none;" cx="145" cy="41"
      /><rect x="174" y="44" width="7" style="fill:white; stroke:none;" height="9"
      /><path style="stroke:none;" d="M175 49.5156 L177.9531 45.2656 L177.9531 49.5156 L175 49.5156 ZM180.2812 49.5156 L178.8594 49.5156 L178.8594 44.125 L178.2344 44.125 L174.3438 49.6406 L174.3438 50.1875 L177.9531 50.1875 L177.9531 53 L178.8594 53 L178.8594 50.1875 L180.2812 50.1875 L180.2812 49.5156 Z"
      /><rect x="161" y="42" width="6" style="fill:white; stroke:none;" height="13"
      /><path style="stroke:none;" d="M163.0938 48.2031 C163.0938 46.6562 163.75 45.8125 164.7969 45.8125 C165.7188 45.8125 166.2656 46.4531 166.2656 47.5156 C166.2656 48.7188 165.5 49.4375 164.1875 49.7031 L164.2969 50.3125 C166.2188 50.2344 166.9375 51.2188 166.9375 52.4375 C166.9375 53.625 166.2344 54.4219 164.9531 54.4219 C164.25 54.4219 163.6562 54.1562 163.0938 53.7188 L163.0938 48.2031 ZM162.2031 54.9062 L162.1094 57.375 L162.2656 57.4844 L163.1562 57.2656 L163.0156 54.0938 C163.5469 54.8438 164.3594 55.1719 165.1719 55.1719 C166.5625 55.1719 167.8594 54.2188 167.8594 52.4844 C167.8594 50.9531 166.875 50.1094 165.125 50 C166.5625 49.6094 167.1875 48.4531 167.1875 47.4844 C167.1875 46.0938 166.1562 45.3125 164.9062 45.3125 C163.2969 45.3125 162.2188 46.5469 162.2188 48.5156 L162.2031 54.9062 Z"
      /><rect x="231" y="78" width="6" style="fill:white; stroke:none;" height="9"
      /><path style="stroke:none;" d="M232.4219 86.0938 C233.0781 85.375 233.7031 84.7188 234.0312 84.3438 C235.9219 82.3125 236.5312 81.4688 236.5312 80.3594 C236.5312 79.0156 235.7812 78.0781 234.1562 78.0781 C232.9062 78.0781 231.7969 78.7031 231.5938 79.9688 C231.7188 80.2031 231.9062 80.3438 232.1562 80.3438 C232.4688 80.3438 232.6562 80.1094 232.7969 79.5938 L233.0938 78.6719 C233.3906 78.5938 233.6562 78.5625 233.8906 78.5625 C234.9219 78.5625 235.5469 79.3125 235.5469 80.4219 C235.5469 81.4375 234.9844 82.4219 233.7031 83.9062 C233.125 84.5781 232.3906 85.4375 231.6406 86.2812 L231.6406 87 L236.9219 87 L236.9219 86.0938 L232.4219 86.0938 Z"
      /><rect x="215" y="84" width="6" style="fill:white; stroke:none;" height="13"
      /><path style="stroke:none;" d="M217.0938 90.2031 C217.0938 88.6562 217.75 87.8125 218.7969 87.8125 C219.7188 87.8125 220.2656 88.4531 220.2656 89.5156 C220.2656 90.7188 219.5 91.4375 218.1875 91.7031 L218.2969 92.3125 C220.2188 92.2344 220.9375 93.2188 220.9375 94.4375 C220.9375 95.625 220.2344 96.4219 218.9531 96.4219 C218.25 96.4219 217.6562 96.1562 217.0938 95.7188 L217.0938 90.2031 ZM216.2031 96.9062 L216.1094 99.375 L216.2656 99.4844 L217.1562 99.2656 L217.0156 96.0938 C217.5469 96.8438 218.3594 97.1719 219.1719 97.1719 C220.5625 97.1719 221.8594 96.2188 221.8594 94.4844 C221.8594 92.9531 220.875 92.1094 219.125 92 C220.5625 91.6094 221.1875 90.4531 221.1875 89.4844 C221.1875 88.0938 220.1562 87.3125 218.9062 87.3125 C217.2969 87.3125 216.2188 88.5469 216.2188 90.5156 L216.2031 96.9062 Z"
      /><rect x="224" y="60" width="6" style="fill:white; stroke:none;" height="10"
      /><path style="stroke:none;" d="M227.3438 69.6875 C226.2031 69.6875 225.5312 68.5 225.5312 66.2969 C225.5312 66.2188 225.5312 66.125 225.5312 66.0469 C226.0938 65.5 226.7188 65.3125 227.3438 65.3125 C228.3125 65.3125 228.9531 65.9844 228.9531 67.4531 C228.9531 68.9375 228.3125 69.6875 227.3438 69.6875 ZM229.5312 61.0781 C226.3438 61.4531 224.5625 63.7656 224.5625 66.4531 C224.5625 68.7812 225.6094 70.1719 227.3125 70.1719 C228.8438 70.1719 229.9219 69.1094 229.9219 67.2812 C229.9219 65.6875 228.9688 64.6562 227.5625 64.6562 C226.8281 64.6562 226.1406 64.9844 225.5781 65.5781 C225.7969 63.4062 227.0781 61.9688 229.5938 61.3906 L229.5312 61.0781 Z"
      /><rect x="208" y="50" width="6" style="fill:white; stroke:none;" height="13"
      /><path style="stroke:none;" d="M210.0938 56.2031 C210.0938 54.6562 210.75 53.8125 211.7969 53.8125 C212.7188 53.8125 213.2656 54.4531 213.2656 55.5156 C213.2656 56.7188 212.5 57.4375 211.1875 57.7031 L211.2969 58.3125 C213.2188 58.2344 213.9375 59.2188 213.9375 60.4375 C213.9375 61.625 213.2344 62.4219 211.9531 62.4219 C211.25 62.4219 210.6562 62.1562 210.0938 61.7188 L210.0938 56.2031 ZM209.2031 62.9062 L209.1094 65.375 L209.2656 65.4844 L210.1562 65.2656 L210.0156 62.0938 C210.5469 62.8438 211.3594 63.1719 212.1719 63.1719 C213.5625 63.1719 214.8594 62.2188 214.8594 60.4844 C214.8594 58.9531 213.875 58.1094 212.125 58 C213.5625 57.6094 214.1875 56.4531 214.1875 55.4844 C214.1875 54.0938 213.1562 53.3125 211.9062 53.3125 C210.2969 53.3125 209.2188 54.5469 209.2188 56.5156 L209.2031 62.9062 Z"
      /><rect x="287" y="136" width="6" style="fill:white; stroke:none;" height="10"
      /><path style="stroke:none;" d="M289.2344 137.6562 C289.5156 137.5938 289.7656 137.5625 290.0156 137.5625 C291.0625 137.5625 291.6719 138.1719 291.6719 139.2656 C291.6719 140.4375 290.9062 141.1094 289.7031 141.1094 L289.1875 141.1094 L289.1875 141.6406 L289.7969 141.6406 C291.2188 141.6406 291.9062 142.4219 291.9062 143.6406 C291.9062 144.8438 291.1719 145.6875 289.875 145.6875 C289.6094 145.6875 289.3125 145.6562 289.0156 145.5625 L288.7812 144.8125 C288.625 144.2812 288.5 144.0469 288.1406 144.0469 C287.8906 144.0469 287.7031 144.1719 287.5781 144.4219 C287.8438 145.6406 288.7812 146.1719 290.0312 146.1719 C291.7188 146.1719 292.875 145.125 292.875 143.7031 C292.875 142.5 292.2031 141.625 290.7969 141.375 C291.9531 141.0156 292.6094 140.2031 292.6094 139.2031 C292.6094 137.9219 291.6719 137.0781 290.1875 137.0781 C289.0469 137.0781 288.0625 137.5938 287.7969 138.6875 C287.9062 139 288.1094 139.1094 288.3594 139.1094 C288.7344 139.1094 288.8906 138.8906 289 138.4062 L289.2344 137.6562 Z"
      /><rect x="267" y="156" width="8" style="fill:white; stroke:none;" height="8"
      /><path style="stroke:none;" d="M271.9844 161.7031 C271.9375 162.8906 271.1562 163.6562 270.3125 163.6562 C269.2656 163.6562 268.5 162.6875 268.5 160.7188 C268.5 159.2812 269.1562 158.1562 270.3438 158.1562 C271.1406 158.1562 271.7812 158.6875 272.0938 159.6406 L271.9844 161.7031 ZM273.9062 163.2812 C273.7344 163.375 273.5469 163.4219 273.3438 163.4219 C272.9531 163.4219 272.75 163.2188 272.75 162.4219 C272.75 161.4844 272.9688 159.5312 273.1875 157.8281 L273.0312 157.7188 L272.2344 157.9219 L272.1406 158.7969 C271.7812 158.0312 271.1562 157.6562 270.3906 157.6562 C269.0469 157.6562 267.5625 158.8438 267.5625 160.9531 C267.5625 163.0938 268.7188 164.1719 270.1406 164.1719 C271.0156 164.1719 271.6875 163.8125 272.0938 162.9844 C272.2031 163.8594 272.5156 164.1719 273.0156 164.1719 C273.4688 164.1719 273.7969 163.9062 274.0156 163.5625 L273.9062 163.2812 Z"
      /><rect x="275" y="103" width="6" style="fill:white; stroke:none;" height="10"
      /><path style="stroke:none;" d="M278.3438 112.6875 C277.2031 112.6875 276.5312 111.5 276.5312 109.2969 C276.5312 109.2188 276.5312 109.125 276.5312 109.0469 C277.0938 108.5 277.7188 108.3125 278.3438 108.3125 C279.3125 108.3125 279.9531 108.9844 279.9531 110.4531 C279.9531 111.9375 279.3125 112.6875 278.3438 112.6875 ZM280.5312 104.0781 C277.3438 104.4531 275.5625 106.7656 275.5625 109.4531 C275.5625 111.7812 276.6094 113.1719 278.3125 113.1719 C279.8438 113.1719 280.9219 112.1094 280.9219 110.2812 C280.9219 108.6875 279.9688 107.6562 278.5625 107.6562 C277.8281 107.6562 277.1406 107.9844 276.5781 108.5781 C276.7969 106.4062 278.0781 104.9688 280.5938 104.3906 L280.5312 104.0781 Z"
      /><rect x="256" y="85" width="8" style="fill:white; stroke:none;" height="8"
      /><path style="stroke:none;" d="M260.9844 90.7031 C260.9375 91.8906 260.1562 92.6562 259.3125 92.6562 C258.2656 92.6562 257.5 91.6875 257.5 89.7188 C257.5 88.2812 258.1562 87.1562 259.3438 87.1562 C260.1406 87.1562 260.7812 87.6875 261.0938 88.6406 L260.9844 90.7031 ZM262.9062 92.2812 C262.7344 92.375 262.5469 92.4219 262.3438 92.4219 C261.9531 92.4219 261.75 92.2188 261.75 91.4219 C261.75 90.4844 261.9688 88.5312 262.1875 86.8281 L262.0312 86.7188 L261.2344 86.9219 L261.1406 87.7969 C260.7812 87.0312 260.1562 86.6562 259.3906 86.6562 C258.0469 86.6562 256.5625 87.8438 256.5625 89.9531 C256.5625 92.0938 257.7188 93.1719 259.1406 93.1719 C260.0156 93.1719 260.6875 92.8125 261.0938 91.9844 C261.2031 92.8594 261.5156 93.1719 262.0156 93.1719 C262.4688 93.1719 262.7969 92.9062 263.0156 92.5625 L262.9062 92.2812 Z"
      /><rect x="330" y="122" width="7" style="fill:white; stroke:none;" height="9"
      /><path style="stroke:none;" d="M331 127.5156 L333.9531 123.2656 L333.9531 127.5156 L331 127.5156 ZM336.2812 127.5156 L334.8594 127.5156 L334.8594 122.125 L334.2344 122.125 L330.3438 127.6406 L330.3438 128.1875 L333.9531 128.1875 L333.9531 131 L334.8594 131 L334.8594 128.1875 L336.2812 128.1875 L336.2812 127.5156 Z"
      /><rect x="317" y="120" width="6" style="fill:white; stroke:none;" height="13"
      /><path style="stroke:none;" d="M319.0938 126.2031 C319.0938 124.6562 319.75 123.8125 320.7969 123.8125 C321.7188 123.8125 322.2656 124.4531 322.2656 125.5156 C322.2656 126.7188 321.5 127.4375 320.1875 127.7031 L320.2969 128.3125 C322.2188 128.2344 322.9375 129.2188 322.9375 130.4375 C322.9375 131.625 322.2344 132.4219 320.9531 132.4219 C320.25 132.4219 319.6562 132.1562 319.0938 131.7188 L319.0938 126.2031 ZM318.2031 132.9062 L318.1094 135.375 L318.2656 135.4844 L319.1562 135.2656 L319.0156 132.0938 C319.5469 132.8438 320.3594 133.1719 321.1719 133.1719 C322.5625 133.1719 323.8594 132.2188 323.8594 130.4844 C323.8594 128.9531 322.875 128.1094 321.125 128 C322.5625 127.6094 323.1875 126.4531 323.1875 125.4844 C323.1875 124.0938 322.1562 123.3125 320.9062 123.3125 C319.2969 123.3125 318.2188 124.5469 318.2188 126.5156 L318.2031 132.9062 Z"
      /><rect x="382" y="122" width="7" style="fill:white; stroke:none;" height="9"
      /><path style="stroke:none;" d="M383 127.5156 L385.9531 123.2656 L385.9531 127.5156 L383 127.5156 ZM388.2812 127.5156 L386.8594 127.5156 L386.8594 122.125 L386.2344 122.125 L382.3438 127.6406 L382.3438 128.1875 L385.9531 128.1875 L385.9531 131 L386.8594 131 L386.8594 128.1875 L388.2812 128.1875 L388.2812 127.5156 Z"
      /><rect x="369" y="120" width="6" style="fill:white; stroke:none;" height="13"
      /><path style="stroke:none;" d="M371.0938 126.2031 C371.0938 124.6562 371.75 123.8125 372.7969 123.8125 C373.7188 123.8125 374.2656 124.4531 374.2656 125.5156 C374.2656 126.7188 373.5 127.4375 372.1875 127.7031 L372.2969 128.3125 C374.2188 128.2344 374.9375 129.2188 374.9375 130.4375 C374.9375 131.625 374.2344 132.4219 372.9531 132.4219 C372.25 132.4219 371.6562 132.1562 371.0938 131.7188 L371.0938 126.2031 ZM370.2031 132.9062 L370.1094 135.375 L370.2656 135.4844 L371.1562 135.2656 L371.0156 132.0938 C371.5469 132.8438 372.3594 133.1719 373.1719 133.1719 C374.5625 133.1719 375.8594 132.2188 375.8594 130.4844 C375.8594 128.9531 374.875 128.1094 373.125 128 C374.5625 127.6094 375.1875 126.4531 375.1875 125.4844 C375.1875 124.0938 374.1562 123.3125 372.9062 123.3125 C371.2969 123.3125 370.2188 124.5469 370.2188 126.5156 L370.2031 132.9062 Z"
      /><rect x="421" y="122" width="5" style="fill:white; stroke:none;" height="10"
      /><path style="stroke:none;" d="M422.8906 130.6875 C422.4844 130.6875 422.1562 131.0469 422.1562 131.4219 C422.1562 131.8125 422.4844 132.1562 422.8906 132.1562 C423.2969 132.1562 423.6406 131.8125 423.6406 131.4219 C423.6406 131.0469 423.2969 130.6875 422.8906 130.6875 ZM424.4688 124.5781 C424.7188 124.8906 424.875 125.2656 424.8906 125.6562 C424.8906 126.1875 424.625 126.5 424.0312 126.7656 L423.4062 127.0156 C422.6406 127.3125 422.3906 127.5469 422.3906 127.9375 C422.3906 128.1094 422.4531 128.3438 422.5781 128.8125 L422.7344 129.3438 L423.1094 129.3438 L423.0938 128.5312 C423.0938 128.0938 423.2031 127.9688 423.7812 127.7344 L424.2031 127.5625 C425.0312 127.2188 425.4531 126.6875 425.4531 125.8438 C425.4531 124.1562 423.6562 123.1875 422.5 123.0312 C422.1094 123.125 421.9062 123.2969 421.9062 123.6406 C421.9062 123.9375 422.0625 124.1562 422.7188 124.2656 L424.4688 124.5781 Z"
    /></g
  ></g
></svg
>
