<?xml version="1.0"?>
<!DOCTYPE svg PUBLIC '-//W3C//DTD SVG 1.0//EN'
          'http://www.w3.org/TR/2001/REC-SVG-20010904/DTD/svg10.dtd'>
<svg xmlns:xlink="http://www.w3.org/1999/xlink" style="fill-opacity:1; color-rendering:auto; color-interpolation:auto; text-rendering:auto; stroke:black; stroke-linecap:square; stroke-miterlimit:10; shape-rendering:auto; stroke-opacity:1; fill:black; stroke-dasharray:none; font-weight:normal; stroke-width:1; font-family:'Dialog'; font-style:normal; stroke-linejoin:miter; font-size:12px; stroke-dashoffset:0; image-rendering:auto;" viewBox="0 0 409 172" xmlns="http://www.w3.org/2000/svg"
><!--Generated by the Batik Graphics2D SVG Generator--><defs id="genericDefs"
  /><g
  ><defs id="defs1"
    ><clipPath clipPathUnits="userSpaceOnUse" id="clipPath1"
      ><path d="M327 67 C327 73.0751 322.0751 78 316 78 C309.9249 78 305 73.0751 305 67 C305 60.9249 309.9249 56 316 56 C322.0751 56 327 60.9249 327 67 Z"
      /></clipPath
      ><clipPath clipPathUnits="userSpaceOnUse" id="clipPath2"
      ><path d="M275 67 C275 73.0751 270.0751 78 264 78 C257.9249 78 253 73.0751 253 67 C253 60.9249 257.9249 56 264 56 C270.0751 56 275 60.9249 275 67 Z"
      /></clipPath
      ><clipPath clipPathUnits="userSpaceOnUse" id="clipPath3"
      ><path d="M223 93 C223 99.0751 218.0751 104 212 104 C205.9249 104 201 99.0751 201 93 C201 86.9249 205.9249 82 212 82 C218.0751 82 223 86.9249 223 93 Z"
      /></clipPath
      ><clipPath clipPathUnits="userSpaceOnUse" id="clipPath4"
      ><path d="M168 93 C168 99.0751 163.0751 104 157 104 C150.9249 104 146 99.0751 146 93 C146 86.9249 150.9249 82 157 82 C163.0751 82 168 86.9249 168 93 Z"
      /></clipPath
      ><clipPath clipPathUnits="userSpaceOnUse" id="clipPath5"
      ><path d="M111 131 C111 137.0751 106.0751 142 100 142 C93.9249 142 89 137.0751 89 131 C89 124.9249 93.9249 120 100 120 C106.0751 120 111 124.9249 111 131 Z"
      /></clipPath
      ><clipPath clipPathUnits="userSpaceOnUse" id="clipPath6"
      ><path d="M54 131 C54 137.0751 49.0751 142 43 142 C36.9249 142 32 137.0751 32 131 C32 124.9249 36.9249 120 43 120 C49.0751 120 54 124.9249 54 131 Z"
      /></clipPath
      ><clipPath clipPathUnits="userSpaceOnUse" id="clipPath7"
      ><path d="M111 56 C111 62.0751 106.0751 67 100 67 C93.9249 67 89 62.0751 89 56 C89 49.9249 93.9249 45 100 45 C106.0751 45 111 49.9249 111 56 Z"
      /></clipPath
      ><clipPath clipPathUnits="userSpaceOnUse" id="clipPath8"
      ><path d="M223 41 C223 47.0751 218.0751 52 212 52 C205.9249 52 201 47.0751 201 41 C201 34.9249 205.9249 30 212 30 C218.0751 30 223 34.9249 223 41 Z"
      /></clipPath
    ></defs
    ><g style="fill:white; text-rendering:optimizeSpeed; stroke:white;"
    ><rect x="0" width="409" height="172" y="0" style="stroke:none;"
      /><polygon style="fill:none; stroke:black;" points=" 368 67 316 67"
      /><path d="M368 56 C362.5 61.5 373.5 72.5 368 78" style="fill:none; stroke:black;"
      /><polygon style="fill:none; stroke:black;" points=" 316 67 264 67"
      /><circle style="clip-path:url(#clipPath1); stroke:none;" r="11" cx="316" cy="67"
      /><rect x="305" y="56" width="22" style="clip-path:url(#clipPath1); fill:rgb(0,144,188); stroke:none;" height="22"
      /><rect x="305" y="56" width="22" style="clip-path:url(#clipPath1); fill:none; stroke:black;" height="22"
      /><circle style="fill:none; stroke:black;" r="11" cx="316" cy="67"
      /><polygon style="fill:none; stroke:black;" points=" 264 67 212 93"
      /><polygon style="fill:none; stroke:black;" points=" 264 67 212 41"
      /><circle style="clip-path:url(#clipPath2); stroke:none;" r="11" cx="264" cy="67"
      /><rect x="253" y="56" width="22" style="clip-path:url(#clipPath2); fill:rgb(0,144,188); stroke:none;" height="22"
      /><rect x="253" y="56" width="22" style="clip-path:url(#clipPath2); fill:none; stroke:black;" height="22"
      /><circle style="fill:none; stroke:black;" r="11" cx="264" cy="67"
      /><polygon style="fill:none; stroke:black;" points=" 212 93 157 93"
      /><circle style="clip-path:url(#clipPath3); stroke:none;" r="11" cx="212" cy="93"
      /><rect x="201" y="82" width="22" style="clip-path:url(#clipPath3); fill:rgb(0,144,188); stroke:none;" height="22"
      /><rect x="201" y="82" width="22" style="clip-path:url(#clipPath3); fill:none; stroke:black;" height="22"
      /><circle style="fill:none; stroke:black;" r="11" cx="212" cy="93"
      /><polygon style="fill:none; stroke:black;" points=" 157 93 100 131"
      /><polygon style="fill:none; stroke:black;" points=" 157 93 100 56"
      /><circle style="clip-path:url(#clipPath4); stroke:none;" r="11" cx="157" cy="93"
      /><rect x="146" y="82" width="22" style="clip-path:url(#clipPath4); fill:rgb(0,144,188); stroke:none;" height="22"
      /><rect x="146" y="82" width="22" style="clip-path:url(#clipPath4); fill:none; stroke:black;" height="22"
      /><circle style="fill:none; stroke:black;" r="11" cx="157" cy="93"
      /><rect x="144" y="64" width="25" style="stroke:none;" height="10"
    /></g
    ><g style="text-rendering:optimizeSpeed; font-size:14px; font-family:'SansSerif';"
    ><path style="stroke:none;" d="M148.1094 69.5781 C149.3438 69.5781 149.9688 70.4688 149.9688 71.8438 C149.9688 73.25 149.1875 74.1875 148.2188 74.1875 C146.9219 74.1875 146.1562 73.0312 146 70.8906 C146.625 69.9531 147.4531 69.5781 148.1094 69.5781 ZM148.2188 75.1875 C149.8125 75.1875 151.1562 73.8438 151.1562 71.8438 C151.1562 69.7031 150.0469 68.625 148.3125 68.625 C147.5 68.625 146.6094 69.1094 145.9688 69.875 C146.0312 66.6875 147.2188 65.6094 148.625 65.6094 C149.25 65.6094 149.8594 65.9062 150.2656 66.3906 L150.9688 65.5938 C150.4062 64.9844 149.6406 64.5469 148.5781 64.5469 C146.5938 64.5469 144.7812 66.0781 144.7812 70.0938 C144.7812 73.4844 146.2344 75.1875 148.2188 75.1875 ZM153.1762 75 L154.3481 75 L154.3481 69.3125 C154.3481 68.4375 154.2543 67.1875 154.1918 66.2969 L154.2543 66.2969 L155.0668 68.625 L157.0043 73.9688 L157.8793 73.9688 L159.8168 68.625 L160.6293 66.2969 L160.6918 66.2969 C160.6137 67.1875 160.52 68.4375 160.52 69.3125 L160.52 75 L161.7387 75 L161.7387 64.7188 L160.1762 64.7188 L158.2075 70.2188 C157.9731 70.9375 157.7543 71.6562 157.5043 72.375 L157.4418 72.375 C157.1918 71.6562 156.9575 70.9375 156.7075 70.2188 L154.7387 64.7188 L153.1762 64.7188 L153.1762 75 ZM167.4973 75.1875 C168.5285 75.1875 169.341 74.8281 170.0129 74.3906 L169.5442 73.5625 C168.9973 73.9375 168.3879 74.1562 167.6535 74.1562 C166.2004 74.1562 165.216 73.125 165.1223 71.5 L170.2473 71.5 C170.2785 71.3125 170.3098 71.0469 170.3098 70.7656 C170.3098 68.6094 169.216 67.2031 167.2785 67.2031 C165.5129 67.2031 163.8567 68.7344 163.8567 71.2031 C163.8567 73.7188 165.4817 75.1875 167.4973 75.1875 ZM165.1067 70.5781 C165.2629 69.0938 166.216 68.2188 167.2942 68.2188 C168.4817 68.2188 169.1848 69.0469 169.1848 70.5781 L165.1067 70.5781 Z"
      /><polygon style="fill:none;" points=" 100 131 43 131"
    /></g
    ><g style="fill:white; text-rendering:optimizeSpeed; stroke:white;"
    ><circle r="11" style="clip-path:url(#clipPath5); stroke:none;" cx="100" cy="131"
      /><rect x="89" y="120" width="22" style="clip-path:url(#clipPath5); fill:rgb(0,144,188); stroke:none;" height="22"
      /><rect x="89" y="120" width="22" style="clip-path:url(#clipPath5); fill:none; stroke:black;" height="22"
      /><circle r="11" style="fill:none; stroke:black;" cx="100" cy="131"
      /><rect x="87" width="25" height="10" y="102" style="stroke:none;"
    /></g
    ><g style="text-rendering:optimizeSpeed; font-size:14px; font-family:'SansSerif';"
    ><path style="stroke:none;" d="M91.1094 107.5781 C92.3438 107.5781 92.9688 108.4688 92.9688 109.8438 C92.9688 111.25 92.1875 112.1875 91.2188 112.1875 C89.9219 112.1875 89.1562 111.0312 89 108.8906 C89.625 107.9531 90.4531 107.5781 91.1094 107.5781 ZM91.2188 113.1875 C92.8125 113.1875 94.1562 111.8438 94.1562 109.8438 C94.1562 107.7031 93.0469 106.625 91.3125 106.625 C90.5 106.625 89.6094 107.1094 88.9688 107.875 C89.0312 104.6875 90.2188 103.6094 91.625 103.6094 C92.25 103.6094 92.8594 103.9062 93.2656 104.3906 L93.9688 103.5938 C93.4062 102.9844 92.6406 102.5469 91.5781 102.5469 C89.5938 102.5469 87.7812 104.0781 87.7812 108.0938 C87.7812 111.4844 89.2344 113.1875 91.2188 113.1875 ZM96.1762 113 L97.3481 113 L97.3481 107.3125 C97.3481 106.4375 97.2543 105.1875 97.1918 104.2969 L97.2543 104.2969 L98.0668 106.625 L100.0043 111.9688 L100.8793 111.9688 L102.8168 106.625 L103.6293 104.2969 L103.6918 104.2969 C103.6137 105.1875 103.52 106.4375 103.52 107.3125 L103.52 113 L104.7387 113 L104.7387 102.7188 L103.1762 102.7188 L101.2075 108.2188 C100.9731 108.9375 100.7543 109.6562 100.5043 110.375 L100.4418 110.375 C100.1918 109.6562 99.9575 108.9375 99.7075 108.2188 L97.7387 102.7188 L96.1762 102.7188 L96.1762 113 ZM110.4973 113.1875 C111.5285 113.1875 112.341 112.8281 113.0129 112.3906 L112.5442 111.5625 C111.9973 111.9375 111.3879 112.1562 110.6535 112.1562 C109.2004 112.1562 108.216 111.125 108.1223 109.5 L113.2473 109.5 C113.2785 109.3125 113.3098 109.0469 113.3098 108.7656 C113.3098 106.6094 112.216 105.2031 110.2785 105.2031 C108.5129 105.2031 106.8567 106.7344 106.8567 109.2031 C106.8567 111.7188 108.4817 113.1875 110.4973 113.1875 ZM108.1067 108.5781 C108.2629 107.0938 109.216 106.2188 110.2942 106.2188 C111.4817 106.2188 112.1848 107.0469 112.1848 108.5781 L108.1067 108.5781 Z"
    /></g
    ><g style="fill:white; text-rendering:optimizeSpeed; stroke:white;"
    ><circle r="11" style="clip-path:url(#clipPath6); stroke:none;" cx="43" cy="131"
      /><rect x="32" y="120" width="22" style="clip-path:url(#clipPath6); fill:rgb(0,144,188); stroke:none;" height="22"
      /><rect x="32" y="120" width="22" style="clip-path:url(#clipPath6); fill:none; stroke:black;" height="22"
      /><circle r="11" style="fill:none; stroke:black;" cx="43" cy="131"
      /><rect x="30" width="25" height="10" y="102" style="stroke:none;"
    /></g
    ><g style="text-rendering:optimizeSpeed; font-size:14px; font-family:'SansSerif';"
    ><path style="stroke:none;" d="M34.1094 107.5781 C35.3438 107.5781 35.9688 108.4688 35.9688 109.8438 C35.9688 111.25 35.1875 112.1875 34.2188 112.1875 C32.9219 112.1875 32.1562 111.0312 32 108.8906 C32.625 107.9531 33.4531 107.5781 34.1094 107.5781 ZM34.2188 113.1875 C35.8125 113.1875 37.1562 111.8438 37.1562 109.8438 C37.1562 107.7031 36.0469 106.625 34.3125 106.625 C33.5 106.625 32.6094 107.1094 31.9688 107.875 C32.0312 104.6875 33.2188 103.6094 34.625 103.6094 C35.25 103.6094 35.8594 103.9062 36.2656 104.3906 L36.9688 103.5938 C36.4062 102.9844 35.6406 102.5469 34.5781 102.5469 C32.5938 102.5469 30.7812 104.0781 30.7812 108.0938 C30.7812 111.4844 32.2344 113.1875 34.2188 113.1875 ZM39.1762 113 L40.3481 113 L40.3481 107.3125 C40.3481 106.4375 40.2543 105.1875 40.1918 104.2969 L40.2543 104.2969 L41.0668 106.625 L43.0043 111.9688 L43.8793 111.9688 L45.8168 106.625 L46.6293 104.2969 L46.6918 104.2969 C46.6137 105.1875 46.52 106.4375 46.52 107.3125 L46.52 113 L47.7387 113 L47.7387 102.7188 L46.1762 102.7188 L44.2075 108.2188 C43.9731 108.9375 43.7543 109.6562 43.5043 110.375 L43.4418 110.375 C43.1918 109.6562 42.9575 108.9375 42.7075 108.2188 L40.7387 102.7188 L39.1762 102.7188 L39.1762 113 ZM53.4973 113.1875 C54.5285 113.1875 55.341 112.8281 56.0129 112.3906 L55.5442 111.5625 C54.9973 111.9375 54.3879 112.1562 53.6535 112.1562 C52.2004 112.1562 51.216 111.125 51.1223 109.5 L56.2473 109.5 C56.2785 109.3125 56.3098 109.0469 56.3098 108.7656 C56.3098 106.6094 55.216 105.2031 53.2785 105.2031 C51.5129 105.2031 49.8567 106.7344 49.8567 109.2031 C49.8567 111.7188 51.4817 113.1875 53.4973 113.1875 ZM51.1067 108.5781 C51.2629 107.0938 52.216 106.2188 53.2942 106.2188 C54.4817 106.2188 55.1848 107.0469 55.1848 108.5781 L51.1067 108.5781 Z"
    /></g
    ><g style="fill:white; text-rendering:optimizeSpeed; font-family:'Serif'; stroke:white;"
    ><rect x="76" width="5" height="10" y="134" style="stroke:none;"
      /><path d="M77.8906 142.6875 C77.4844 142.6875 77.1562 143.0469 77.1562 143.4219 C77.1562 143.8125 77.4844 144.1562 77.8906 144.1562 C78.2969 144.1562 78.6406 143.8125 78.6406 143.4219 C78.6406 143.0469 78.2969 142.6875 77.8906 142.6875 ZM79.4688 136.5781 C79.7188 136.8906 79.875 137.2656 79.8906 137.6562 C79.8906 138.1875 79.625 138.5 79.0312 138.7656 L78.4062 139.0156 C77.6406 139.3125 77.3906 139.5469 77.3906 139.9375 C77.3906 140.1094 77.4531 140.3438 77.5781 140.8125 L77.7344 141.3438 L78.1094 141.3438 L78.0938 140.5312 C78.0938 140.0938 78.2031 139.9688 78.7812 139.7344 L79.2031 139.5625 C80.0312 139.2188 80.4531 138.6875 80.4531 137.8438 C80.4531 136.1562 78.6562 135.1875 77.5 135.0312 C77.1094 135.125 76.9062 135.2969 76.9062 135.6406 C76.9062 135.9375 77.0625 136.1562 77.7188 136.2656 L79.4688 136.5781 Z" style="fill:black; stroke:none;"
      /><rect x="62" width="5" height="10" y="134" style="stroke:none;"
      /><path d="M63.8906 142.6875 C63.4844 142.6875 63.1562 143.0469 63.1562 143.4219 C63.1562 143.8125 63.4844 144.1562 63.8906 144.1562 C64.2969 144.1562 64.6406 143.8125 64.6406 143.4219 C64.6406 143.0469 64.2969 142.6875 63.8906 142.6875 ZM65.4688 136.5781 C65.7188 136.8906 65.875 137.2656 65.8906 137.6562 C65.8906 138.1875 65.625 138.5 65.0312 138.7656 L64.4062 139.0156 C63.6406 139.3125 63.3906 139.5469 63.3906 139.9375 C63.3906 140.1094 63.4531 140.3438 63.5781 140.8125 L63.7344 141.3438 L64.1094 141.3438 L64.0938 140.5312 C64.0938 140.0938 64.2031 139.9688 64.7812 139.7344 L65.2031 139.5625 C66.0312 139.2188 66.4531 138.6875 66.4531 137.8438 C66.4531 136.1562 64.6562 135.1875 63.5 135.0312 C63.1094 135.125 62.9062 135.2969 62.9062 135.6406 C62.9062 135.9375 63.0625 136.1562 63.7188 136.2656 L65.4688 136.5781 Z" style="fill:black; stroke:none;"
      /><circle r="11" style="clip-path:url(#clipPath7); stroke:none;" cx="100" cy="56"
      /><rect x="89" y="45" width="22" style="clip-path:url(#clipPath7); fill:rgb(0,144,188); stroke:none;" height="22"
      /><rect x="89" y="45" width="22" style="clip-path:url(#clipPath7); fill:none; stroke:black;" height="22"
      /><circle r="11" style="fill:none; stroke:black;" cx="100" cy="56"
      /><rect x="139" width="5" height="10" y="107" style="stroke:none;"
      /><path d="M140.8906 115.6875 C140.4844 115.6875 140.1562 116.0469 140.1562 116.4219 C140.1562 116.8125 140.4844 117.1562 140.8906 117.1562 C141.2969 117.1562 141.6406 116.8125 141.6406 116.4219 C141.6406 116.0469 141.2969 115.6875 140.8906 115.6875 ZM142.4688 109.5781 C142.7188 109.8906 142.875 110.2656 142.8906 110.6562 C142.8906 111.1875 142.625 111.5 142.0312 111.7656 L141.4062 112.0156 C140.6406 112.3125 140.3906 112.5469 140.3906 112.9375 C140.3906 113.1094 140.4531 113.3438 140.5781 113.8125 L140.7344 114.3438 L141.1094 114.3438 L141.0938 113.5312 C141.0938 113.0938 141.2031 112.9688 141.7812 112.7344 L142.2031 112.5625 C143.0312 112.2188 143.4531 111.6875 143.4531 110.8438 C143.4531 109.1562 141.6562 108.1875 140.5 108.0312 C140.1094 108.125 139.9062 108.2969 139.9062 108.6406 C139.9062 108.9375 140.0625 109.1562 140.7188 109.2656 L142.4688 109.5781 Z" style="fill:black; stroke:none;"
      /><rect x="122" width="5" height="10" y="118" style="stroke:none;"
      /><path d="M123.8906 126.6875 C123.4844 126.6875 123.1562 127.0469 123.1562 127.4219 C123.1562 127.8125 123.4844 128.1562 123.8906 128.1562 C124.2969 128.1562 124.6406 127.8125 124.6406 127.4219 C124.6406 127.0469 124.2969 126.6875 123.8906 126.6875 ZM125.4688 120.5781 C125.7188 120.8906 125.875 121.2656 125.8906 121.6562 C125.8906 122.1875 125.625 122.5 125.0312 122.7656 L124.4062 123.0156 C123.6406 123.3125 123.3906 123.5469 123.3906 123.9375 C123.3906 124.1094 123.4531 124.3438 123.5781 124.8125 L123.7344 125.3438 L124.1094 125.3438 L124.0938 124.5312 C124.0938 124.0938 124.2031 123.9688 124.7812 123.7344 L125.2031 123.5625 C126.0312 123.2188 126.4531 122.6875 126.4531 121.8438 C126.4531 120.1562 124.6562 119.1875 123.5 119.0312 C123.1094 119.125 122.9062 119.2969 122.9062 119.6406 C122.9062 119.9375 123.0625 120.1562 123.7188 120.2656 L125.4688 120.5781 Z" style="fill:black; stroke:none;"
      /><rect x="130" width="5" height="10" y="81" style="stroke:none;"
      /><path d="M131.8906 89.6875 C131.4844 89.6875 131.1562 90.0469 131.1562 90.4219 C131.1562 90.8125 131.4844 91.1562 131.8906 91.1562 C132.2969 91.1562 132.6406 90.8125 132.6406 90.4219 C132.6406 90.0469 132.2969 89.6875 131.8906 89.6875 ZM133.4688 83.5781 C133.7188 83.8906 133.875 84.2656 133.8906 84.6562 C133.8906 85.1875 133.625 85.5 133.0312 85.7656 L132.4062 86.0156 C131.6406 86.3125 131.3906 86.5469 131.3906 86.9375 C131.3906 87.1094 131.4531 87.3438 131.5781 87.8125 L131.7344 88.3438 L132.1094 88.3438 L132.0938 87.5312 C132.0938 87.0938 132.2031 86.9688 132.7812 86.7344 L133.2031 86.5625 C134.0312 86.2188 134.4531 85.6875 134.4531 84.8438 C134.4531 83.1562 132.6562 82.1875 131.5 82.0312 C131.1094 82.125 130.9062 82.2969 130.9062 82.6406 C130.9062 82.9375 131.0625 83.1562 131.7188 83.2656 L133.4688 83.5781 Z" style="fill:black; stroke:none;"
      /><rect x="110" width="5" height="10" y="69" style="stroke:none;"
      /><path d="M111.8906 77.6875 C111.4844 77.6875 111.1562 78.0469 111.1562 78.4219 C111.1562 78.8125 111.4844 79.1562 111.8906 79.1562 C112.2969 79.1562 112.6406 78.8125 112.6406 78.4219 C112.6406 78.0469 112.2969 77.6875 111.8906 77.6875 ZM113.4688 71.5781 C113.7188 71.8906 113.875 72.2656 113.8906 72.6562 C113.8906 73.1875 113.625 73.5 113.0312 73.7656 L112.4062 74.0156 C111.6406 74.3125 111.3906 74.5469 111.3906 74.9375 C111.3906 75.1094 111.4531 75.3438 111.5781 75.8125 L111.7344 76.3438 L112.1094 76.3438 L112.0938 75.5312 C112.0938 75.0938 112.2031 74.9688 112.7812 74.7344 L113.2031 74.5625 C114.0312 74.2188 114.4531 73.6875 114.4531 72.8438 C114.4531 71.1562 112.6562 70.1875 111.5 70.0312 C111.1094 70.125 110.9062 70.2969 110.9062 70.6406 C110.9062 70.9375 111.0625 71.1562 111.7188 71.2656 L113.4688 71.5781 Z" style="fill:black; stroke:none;"
      /><rect x="190" width="5" height="10" y="96" style="stroke:none;"
      /><path d="M191.8906 104.6875 C191.4844 104.6875 191.1562 105.0469 191.1562 105.4219 C191.1562 105.8125 191.4844 106.1562 191.8906 106.1562 C192.2969 106.1562 192.6406 105.8125 192.6406 105.4219 C192.6406 105.0469 192.2969 104.6875 191.8906 104.6875 ZM193.4688 98.5781 C193.7188 98.8906 193.875 99.2656 193.8906 99.6562 C193.8906 100.1875 193.625 100.5 193.0312 100.7656 L192.4062 101.0156 C191.6406 101.3125 191.3906 101.5469 191.3906 101.9375 C191.3906 102.1094 191.4531 102.3438 191.5781 102.8125 L191.7344 103.3438 L192.1094 103.3438 L192.0938 102.5312 C192.0938 102.0938 192.2031 101.9688 192.7812 101.7344 L193.2031 101.5625 C194.0312 101.2188 194.4531 100.6875 194.4531 99.8438 C194.4531 98.1562 192.6562 97.1875 191.5 97.0312 C191.1094 97.125 190.9062 97.2969 190.9062 97.6406 C190.9062 97.9375 191.0625 98.1562 191.7188 98.2656 L193.4688 98.5781 Z" style="fill:black; stroke:none;"
      /><rect x="176" width="5" height="10" y="96" style="stroke:none;"
      /><path d="M177.8906 104.6875 C177.4844 104.6875 177.1562 105.0469 177.1562 105.4219 C177.1562 105.8125 177.4844 106.1562 177.8906 106.1562 C178.2969 106.1562 178.6406 105.8125 178.6406 105.4219 C178.6406 105.0469 178.2969 104.6875 177.8906 104.6875 ZM179.4688 98.5781 C179.7188 98.8906 179.875 99.2656 179.8906 99.6562 C179.8906 100.1875 179.625 100.5 179.0312 100.7656 L178.4062 101.0156 C177.6406 101.3125 177.3906 101.5469 177.3906 101.9375 C177.3906 102.1094 177.4531 102.3438 177.5781 102.8125 L177.7344 103.3438 L178.1094 103.3438 L178.0938 102.5312 C178.0938 102.0938 178.2031 101.9688 178.7812 101.7344 L179.2031 101.5625 C180.0312 101.2188 180.4531 100.6875 180.4531 99.8438 C180.4531 98.1562 178.6562 97.1875 177.5 97.0312 C177.1094 97.125 176.9062 97.2969 176.9062 97.6406 C176.9062 97.9375 177.0625 98.1562 177.7188 98.2656 L179.4688 98.5781 Z" style="fill:black; stroke:none;"
      /><circle r="11" style="clip-path:url(#clipPath8); stroke:none;" cx="212" cy="41"
      /><rect x="201" y="30" width="22" style="clip-path:url(#clipPath8); fill:rgb(0,144,188); stroke:none;" height="22"
      /><rect x="201" y="30" width="22" style="clip-path:url(#clipPath8); fill:none; stroke:black;" height="22"
      /><circle r="11" style="fill:none; stroke:black;" cx="212" cy="41"
      /><rect x="246" width="5" height="10" y="78" style="stroke:none;"
      /><path d="M247.8906 86.6875 C247.4844 86.6875 247.1562 87.0469 247.1562 87.4219 C247.1562 87.8125 247.4844 88.1562 247.8906 88.1562 C248.2969 88.1562 248.6406 87.8125 248.6406 87.4219 C248.6406 87.0469 248.2969 86.6875 247.8906 86.6875 ZM249.4688 80.5781 C249.7188 80.8906 249.875 81.2656 249.8906 81.6562 C249.8906 82.1875 249.625 82.5 249.0312 82.7656 L248.4062 83.0156 C247.6406 83.3125 247.3906 83.5469 247.3906 83.9375 C247.3906 84.1094 247.4531 84.3438 247.5781 84.8125 L247.7344 85.3438 L248.1094 85.3438 L248.0938 84.5312 C248.0938 84.0938 248.2031 83.9688 248.7812 83.7344 L249.2031 83.5625 C250.0312 83.2188 250.4531 82.6875 250.4531 81.8438 C250.4531 80.1562 248.6562 79.1875 247.5 79.0312 C247.1094 79.125 246.9062 79.2969 246.9062 79.6406 C246.9062 79.9375 247.0625 80.1562 247.7188 80.2656 L249.4688 80.5781 Z" style="fill:black; stroke:none;"
      /><rect x="231" width="5" height="10" y="86" style="stroke:none;"
      /><path d="M232.8906 94.6875 C232.4844 94.6875 232.1562 95.0469 232.1562 95.4219 C232.1562 95.8125 232.4844 96.1562 232.8906 96.1562 C233.2969 96.1562 233.6406 95.8125 233.6406 95.4219 C233.6406 95.0469 233.2969 94.6875 232.8906 94.6875 ZM234.4688 88.5781 C234.7188 88.8906 234.875 89.2656 234.8906 89.6562 C234.8906 90.1875 234.625 90.5 234.0312 90.7656 L233.4062 91.0156 C232.6406 91.3125 232.3906 91.5469 232.3906 91.9375 C232.3906 92.1094 232.4531 92.3438 232.5781 92.8125 L232.7344 93.3438 L233.1094 93.3438 L233.0938 92.5312 C233.0938 92.0938 233.2031 91.9688 233.7812 91.7344 L234.2031 91.5625 C235.0312 91.2188 235.4531 90.6875 235.4531 89.8438 C235.4531 88.1562 233.6562 87.1875 232.5 87.0312 C232.1094 87.125 231.9062 87.2969 231.9062 87.6406 C231.9062 87.9375 232.0625 88.1562 232.7188 88.2656 L234.4688 88.5781 Z" style="fill:black; stroke:none;"
      /><rect x="239" width="5" height="10" y="60" style="stroke:none;"
      /><path d="M240.8906 68.6875 C240.4844 68.6875 240.1562 69.0469 240.1562 69.4219 C240.1562 69.8125 240.4844 70.1562 240.8906 70.1562 C241.2969 70.1562 241.6406 69.8125 241.6406 69.4219 C241.6406 69.0469 241.2969 68.6875 240.8906 68.6875 ZM242.4688 62.5781 C242.7188 62.8906 242.875 63.2656 242.8906 63.6562 C242.8906 64.1875 242.625 64.5 242.0312 64.7656 L241.4062 65.0156 C240.6406 65.3125 240.3906 65.5469 240.3906 65.9375 C240.3906 66.1094 240.4531 66.3438 240.5781 66.8125 L240.7344 67.3438 L241.1094 67.3438 L241.0938 66.5312 C241.0938 66.0938 241.2031 65.9688 241.7812 65.7344 L242.2031 65.5625 C243.0312 65.2188 243.4531 64.6875 243.4531 63.8438 C243.4531 62.1562 241.6562 61.1875 240.5 61.0312 C240.1094 61.125 239.9062 61.2969 239.9062 61.6406 C239.9062 61.9375 240.0625 62.1562 240.7188 62.2656 L242.4688 62.5781 Z" style="fill:black; stroke:none;"
      /><rect x="224" width="5" height="10" y="52" style="stroke:none;"
      /><path d="M225.8906 60.6875 C225.4844 60.6875 225.1562 61.0469 225.1562 61.4219 C225.1562 61.8125 225.4844 62.1562 225.8906 62.1562 C226.2969 62.1562 226.6406 61.8125 226.6406 61.4219 C226.6406 61.0469 226.2969 60.6875 225.8906 60.6875 ZM227.4688 54.5781 C227.7188 54.8906 227.875 55.2656 227.8906 55.6562 C227.8906 56.1875 227.625 56.5 227.0312 56.7656 L226.4062 57.0156 C225.6406 57.3125 225.3906 57.5469 225.3906 57.9375 C225.3906 58.1094 225.4531 58.3438 225.5781 58.8125 L225.7344 59.3438 L226.1094 59.3438 L226.0938 58.5312 C226.0938 58.0938 226.2031 57.9688 226.7812 57.7344 L227.2031 57.5625 C228.0312 57.2188 228.4531 56.6875 228.4531 55.8438 C228.4531 54.1562 226.6562 53.1875 225.5 53.0312 C225.1094 53.125 224.9062 53.2969 224.9062 53.6406 C224.9062 53.9375 225.0625 54.1562 225.7188 54.2656 L227.4688 54.5781 Z" style="fill:black; stroke:none;"
      /><rect x="294" width="5" height="10" y="70" style="stroke:none;"
      /><path d="M295.8906 78.6875 C295.4844 78.6875 295.1562 79.0469 295.1562 79.4219 C295.1562 79.8125 295.4844 80.1562 295.8906 80.1562 C296.2969 80.1562 296.6406 79.8125 296.6406 79.4219 C296.6406 79.0469 296.2969 78.6875 295.8906 78.6875 ZM297.4688 72.5781 C297.7188 72.8906 297.875 73.2656 297.8906 73.6562 C297.8906 74.1875 297.625 74.5 297.0312 74.7656 L296.4062 75.0156 C295.6406 75.3125 295.3906 75.5469 295.3906 75.9375 C295.3906 76.1094 295.4531 76.3438 295.5781 76.8125 L295.7344 77.3438 L296.1094 77.3438 L296.0938 76.5312 C296.0938 76.0938 296.2031 75.9688 296.7812 75.7344 L297.2031 75.5625 C298.0312 75.2188 298.4531 74.6875 298.4531 73.8438 C298.4531 72.1562 296.6562 71.1875 295.5 71.0312 C295.1094 71.125 294.9062 71.2969 294.9062 71.6406 C294.9062 71.9375 295.0625 72.1562 295.7188 72.2656 L297.4688 72.5781 Z" style="fill:black; stroke:none;"
      /><rect x="280" width="5" height="10" y="70" style="stroke:none;"
      /><path d="M281.8906 78.6875 C281.4844 78.6875 281.1562 79.0469 281.1562 79.4219 C281.1562 79.8125 281.4844 80.1562 281.8906 80.1562 C282.2969 80.1562 282.6406 79.8125 282.6406 79.4219 C282.6406 79.0469 282.2969 78.6875 281.8906 78.6875 ZM283.4688 72.5781 C283.7188 72.8906 283.875 73.2656 283.8906 73.6562 C283.8906 74.1875 283.625 74.5 283.0312 74.7656 L282.4062 75.0156 C281.6406 75.3125 281.3906 75.5469 281.3906 75.9375 C281.3906 76.1094 281.4531 76.3438 281.5781 76.8125 L281.7344 77.3438 L282.1094 77.3438 L282.0938 76.5312 C282.0938 76.0938 282.2031 75.9688 282.7812 75.7344 L283.2031 75.5625 C284.0312 75.2188 284.4531 74.6875 284.4531 73.8438 C284.4531 72.1562 282.6562 71.1875 281.5 71.0312 C281.1094 71.125 280.9062 71.2969 280.9062 71.6406 C280.9062 71.9375 281.0625 72.1562 281.7188 72.2656 L283.4688 72.5781 Z" style="fill:black; stroke:none;"
      /><rect x="332" width="5" height="10" y="70" style="stroke:none;"
      /><path d="M333.8906 78.6875 C333.4844 78.6875 333.1562 79.0469 333.1562 79.4219 C333.1562 79.8125 333.4844 80.1562 333.8906 80.1562 C334.2969 80.1562 334.6406 79.8125 334.6406 79.4219 C334.6406 79.0469 334.2969 78.6875 333.8906 78.6875 ZM335.4688 72.5781 C335.7188 72.8906 335.875 73.2656 335.8906 73.6562 C335.8906 74.1875 335.625 74.5 335.0312 74.7656 L334.4062 75.0156 C333.6406 75.3125 333.3906 75.5469 333.3906 75.9375 C333.3906 76.1094 333.4531 76.3438 333.5781 76.8125 L333.7344 77.3438 L334.1094 77.3438 L334.0938 76.5312 C334.0938 76.0938 334.2031 75.9688 334.7812 75.7344 L335.2031 75.5625 C336.0312 75.2188 336.4531 74.6875 336.4531 73.8438 C336.4531 72.1562 334.6562 71.1875 333.5 71.0312 C333.1094 71.125 332.9062 71.2969 332.9062 71.6406 C332.9062 71.9375 333.0625 72.1562 333.7188 72.2656 L335.4688 72.5781 Z" style="fill:black; stroke:none;"
    /></g
  ></g
></svg
>
