<?xml version="1.0"?>
<!DOCTYPE svg PUBLIC '-//W3C//DTD SVG 1.0//EN'
          'http://www.w3.org/TR/2001/REC-SVG-20010904/DTD/svg10.dtd'>
<svg xmlns:xlink="http://www.w3.org/1999/xlink" style="fill-opacity:1; color-rendering:auto; color-interpolation:auto; text-rendering:auto; stroke:black; stroke-linecap:square; stroke-miterlimit:10; shape-rendering:auto; stroke-opacity:1; fill:black; stroke-dasharray:none; font-weight:normal; stroke-width:1; font-family:'Dialog'; font-style:normal; stroke-linejoin:miter; font-size:12px; stroke-dashoffset:0; image-rendering:auto;" viewBox="0 0 386 194" xmlns="http://www.w3.org/2000/svg"
><!--Generated by the Batik Graphics2D SVG Generator--><defs id="genericDefs"
  /><g
  ><defs id="defs1"
    ><clipPath clipPathUnits="userSpaceOnUse" id="clipPath1"
      ><path style="fill-rule:evenodd;" d="M293 104 L304 115 L293 126 L282 115 Z"
      /></clipPath
      ><clipPath clipPathUnits="userSpaceOnUse" id="clipPath2"
      ><path style="fill-rule:evenodd;" d="M241 142 L243 149 L251 149 L244 154 L247 161 L241 157 L234 161 L237 154 L230 149 L238 149 L241 142 Z"
      /></clipPath
      ><clipPath clipPathUnits="userSpaceOnUse" id="clipPath3"
      ><path style="fill-rule:evenodd;" d="M252 78 L246 85 L235 85 L230 78 L235 70 L246 70 L252 78 Z"
      /></clipPath
      ><clipPath clipPathUnits="userSpaceOnUse" id="clipPath4"
      ><path style="fill-rule:evenodd;" d="M180 78 L174 85 L163 85 L158 78 L163 70 L174 70 L180 78 Z"
      /></clipPath
      ><clipPath clipPathUnits="userSpaceOnUse" id="clipPath5"
      ><path d="M120 116 C120 122.0751 115.0751 127 109 127 C102.9249 127 98 122.0751 98 116 C98 109.9249 102.9249 105 109 105 C115.0751 105 120 109.9249 120 116 Z"
      /></clipPath
      ><clipPath clipPathUnits="userSpaceOnUse" id="clipPath6"
      ><path d="M60 116 C60 122.0751 55.0751 127 49 127 C42.9249 127 38 122.0751 38 116 C38 109.9249 42.9249 105 49 105 C55.0751 105 60 109.9249 60 116 Z"
      /></clipPath
      ><clipPath clipPathUnits="userSpaceOnUse" id="clipPath7"
      ><path style="fill-rule:evenodd;" d="M120 41 L114 48 L103 48 L98 41 L103 33 L114 33 L120 41 Z"
      /></clipPath
      ><clipPath clipPathUnits="userSpaceOnUse" id="clipPath8"
      ><path style="fill-rule:evenodd;" d="M57 30 L68 41 L57 52 L46 41 Z"
      /></clipPath
    ></defs
    ><g style="fill:white; text-rendering:optimizeSpeed; stroke:white;"
    ><rect x="0" width="386" height="194" y="0" style="stroke:none;"
      /><polygon style="fill:none; stroke:black;" points=" 345 115 293 115"
      /><path d="M345 104 C339.5 109.5 350.5 120.5 345 126" style="fill:none; stroke:black;"
      /><polygon style="fill:none; stroke:black;" points=" 293 115 241 153"
      /><polygon style="fill:none; stroke:black;" points=" 293 115 241 78"
      /><polygon style="clip-path:url(#clipPath1); stroke:none;" points=" 293 104 304 115 293 126 282 115"
      /><rect x="282" y="104" width="22" style="clip-path:url(#clipPath1); fill:rgb(0,166,81); stroke:none;" height="22"
      /><rect x="282" y="104" width="22" style="clip-path:url(#clipPath1); fill:none; stroke:black;" height="22"
      /><polygon style="fill:none; stroke:black;" points=" 293 104 304 115 293 126 282 115"
    /></g
    ><g style="text-rendering:optimizeSpeed; font-size:14px; font-family:'SansSerif';"
    ><path style="stroke:none;" d="M285.6094 143 L292.0625 143 L292.0625 141.8906 L289.2344 141.8906 C288.7031 141.8906 288.0781 141.9531 287.5469 141.9844 C289.9531 139.7031 291.5625 137.625 291.5625 135.5781 C291.5625 133.75 290.4219 132.5469 288.5781 132.5469 C287.2812 132.5469 286.4062 133.1406 285.5625 134.0469 L286.2969 134.7812 C286.8594 134.1094 287.5938 133.5938 288.4375 133.5938 C289.7031 133.5938 290.3125 134.4531 290.3125 135.625 C290.3125 137.3906 288.8438 139.4375 285.6094 142.25 L285.6094 143 ZM297.8168 143.1875 C299.9106 143.1875 301.5043 142.0625 301.5043 138.7656 L301.5043 132.7188 L300.2543 132.7188 L300.2543 138.7969 C300.2543 141.2812 299.1762 142.0469 297.8168 142.0469 C296.4731 142.0469 295.4262 141.2812 295.4262 138.7969 L295.4262 132.7188 L294.1293 132.7188 L294.1293 138.7656 C294.1293 142.0625 295.7231 143.1875 297.8168 143.1875 Z"
    /></g
    ><g style="fill:white; text-rendering:optimizeSpeed; stroke:white;"
    ><polygon style="stroke:none; clip-path:url(#clipPath2);" points=" 241 142 243 149 251 149 244 154 247 161 241 157 234 161 237 154 230 149 238 149 241 142"
      /><rect x="230" y="142" width="22" style="clip-path:url(#clipPath2); fill:rgb(0,166,81); stroke:none;" height="22"
      /><rect x="230" y="142" width="22" style="clip-path:url(#clipPath2); fill:none; stroke:black;" height="22"
      /><polygon style="fill:none; stroke:black;" points=" 241 142 243 149 251 149 244 154 247 161 241 157 234 161 237 154 230 149 238 149 241 142"
      /><rect x="232" width="16" height="10" y="124" style="stroke:none;"
    /></g
    ><g style="text-rendering:optimizeSpeed; font-size:14px; font-family:'SansSerif';"
    ><path style="stroke:none;" d="M233.6094 131.1562 L235.9531 127.6562 C236.2344 127.1406 236.5156 126.6406 236.7812 126.1406 L236.8281 126.1406 C236.7969 126.6719 236.7656 127.5 236.7656 128 L236.7656 131.1562 L233.6094 131.1562 ZM236.7656 135 L237.9688 135 L237.9688 132.1719 L239.3281 132.1719 L239.3281 131.1562 L237.9688 131.1562 L237.9688 124.7188 L236.5469 124.7188 L232.2812 131.3281 L232.2812 132.1719 L236.7656 132.1719 L236.7656 135 ZM241.1762 135 L242.395 135 L242.395 129.6094 C242.395 128.5312 242.3012 127.4375 242.2543 126.4062 L242.3012 126.4062 L243.4106 128.5156 L247.145 135 L248.4731 135 L248.4731 124.7188 L247.2387 124.7188 L247.2387 130.0781 C247.2387 131.1406 247.3481 132.2812 247.4106 133.3125 L247.3481 133.3125 L246.2543 131.2031 L242.52 124.7188 L241.1762 124.7188 L241.1762 135 Z"
      /><polygon style="fill:none;" points=" 241 78 169 78"
    /></g
    ><g style="fill:white; text-rendering:optimizeSpeed; stroke:white;"
    ><polygon style="stroke:none; clip-path:url(#clipPath3);" points=" 252 78 246 85 235 85 230 78 235 70 246 70 252 78"
      /><rect x="230" y="67" width="22" style="clip-path:url(#clipPath3); fill:rgb(0,166,81); stroke:none;" height="22"
      /><rect x="230" y="67" width="22" style="clip-path:url(#clipPath3); fill:none; stroke:black;" height="22"
      /><polygon style="fill:none; stroke:black;" points=" 252 78 246 85 235 85 230 78 235 70 246 70 252 78"
      /><rect x="217" width="46" height="10" y="49" style="stroke:none;"
    /></g
    ><g style="text-rendering:optimizeSpeed; font-size:14px; font-family:'SansSerif';"
    ><path style="stroke:none;" d="M218.6094 56.1562 L220.9531 52.6562 C221.2344 52.1406 221.5156 51.6406 221.7812 51.1406 L221.8281 51.1406 C221.7969 51.6719 221.7656 52.5 221.7656 53 L221.7656 56.1562 L218.6094 56.1562 ZM221.7656 60 L222.9688 60 L222.9688 57.1719 L224.3281 57.1719 L224.3281 56.1562 L222.9688 56.1562 L222.9688 49.7188 L221.5469 49.7188 L217.2812 56.3281 L217.2812 57.1719 L221.7656 57.1719 L221.7656 60 ZM226.1762 60 L227.4731 60 L227.4731 55.9219 L229.1606 55.9219 C231.4262 55.9219 232.9418 54.9219 232.9418 52.75 C232.9418 50.5156 231.4106 49.7188 229.1137 49.7188 L226.1762 49.7188 L226.1762 60 ZM227.4731 54.875 L227.4731 50.7812 L228.9418 50.7812 C230.7543 50.7812 231.6606 51.2656 231.6606 52.75 C231.6606 54.2188 230.8012 54.875 229.0043 54.875 L227.4731 54.875 ZM235.0242 60 L236.3211 60 L236.3211 55.9219 L238.0086 55.9219 C240.2742 55.9219 241.7898 54.9219 241.7898 52.75 C241.7898 50.5156 240.2586 49.7188 237.9617 49.7188 L235.0242 49.7188 L235.0242 60 ZM236.3211 54.875 L236.3211 50.7812 L237.7898 50.7812 C239.6023 50.7812 240.5086 51.2656 240.5086 52.75 C240.5086 54.2188 239.6492 54.875 237.8523 54.875 L236.3211 54.875 ZM243.8721 60 L249.9346 60 L249.9346 58.8906 L245.169 58.8906 L245.169 55.1562 L249.0596 55.1562 L249.0596 54.0469 L245.169 54.0469 L245.169 50.8281 L249.794 50.8281 L249.794 49.7188 L243.8721 49.7188 L243.8721 60 ZM254.3854 60.1875 C254.8385 60.1875 255.3385 60.0469 255.776 59.9062 L255.526 58.9531 C255.276 59.0469 254.9322 59.1406 254.6666 59.1406 C253.776 59.1406 253.4791 58.6094 253.4791 57.6719 L253.4791 53.4375 L255.5416 53.4375 L255.5416 52.3906 L253.4791 52.3906 L253.4791 50.25 L252.4166 50.25 L252.2604 52.3906 L251.0729 52.4688 L251.0729 53.4375 L252.2135 53.4375 L252.2135 57.6406 C252.2135 59.1562 252.7604 60.1875 254.3854 60.1875 ZM257.2571 60 L258.5383 60 L258.5383 54.4844 C259.304 53.7188 259.8352 53.3281 260.6165 53.3281 C261.6321 53.3281 262.0696 53.9219 262.0696 55.3594 L262.0696 60 L263.3352 60 L263.3352 55.1875 C263.3352 53.2344 262.6165 52.2031 261.0227 52.2031 C259.9758 52.2031 259.1946 52.7812 258.4602 53.4844 L258.429 53.4844 L258.3196 52.3906 L257.2571 52.3906 L257.2571 60 Z"
      /><polygon style="fill:none;" points=" 169 78 109 116"
      /><polygon style="fill:none;" points=" 169 78 109 41"
    /></g
    ><g style="fill:white; text-rendering:optimizeSpeed; stroke:white;"
    ><polygon style="stroke:none; clip-path:url(#clipPath4);" points=" 180 78 174 85 163 85 158 78 163 70 174 70 180 78"
      /><rect x="158" y="67" width="22" style="clip-path:url(#clipPath4); fill:rgb(0,166,81); stroke:none;" height="22"
      /><rect x="158" y="67" width="22" style="clip-path:url(#clipPath4); fill:none; stroke:black;" height="22"
      /><polygon style="fill:none; stroke:black;" points=" 180 78 174 85 163 85 158 78 163 70 174 70 180 78"
      /><rect x="150" width="36" height="10" y="49" style="stroke:none;"
    /></g
    ><g style="text-rendering:optimizeSpeed; font-size:14px; font-family:'SansSerif';"
    ><path style="stroke:none;" d="M154.1094 54.5781 C155.3438 54.5781 155.9688 55.4688 155.9688 56.8438 C155.9688 58.25 155.1875 59.1875 154.2188 59.1875 C152.9219 59.1875 152.1562 58.0312 152 55.8906 C152.625 54.9531 153.4531 54.5781 154.1094 54.5781 ZM154.2188 60.1875 C155.8125 60.1875 157.1562 58.8438 157.1562 56.8438 C157.1562 54.7031 156.0469 53.625 154.3125 53.625 C153.5 53.625 152.6094 54.1094 151.9688 54.875 C152.0312 51.6875 153.2188 50.6094 154.625 50.6094 C155.25 50.6094 155.8594 50.9062 156.2656 51.3906 L156.9688 50.5938 C156.4062 49.9844 155.6406 49.5469 154.5781 49.5469 C152.5938 49.5469 150.7812 51.0781 150.7812 55.0938 C150.7812 58.4844 152.2344 60.1875 154.2188 60.1875 ZM159.1762 60 L160.4731 60 L160.4731 55.9219 L162.1606 55.9219 C164.4262 55.9219 165.9418 54.9219 165.9418 52.75 C165.9418 50.5156 164.4106 49.7188 162.1137 49.7188 L159.1762 49.7188 L159.1762 60 ZM160.4731 54.875 L160.4731 50.7812 L161.9418 50.7812 C163.7543 50.7812 164.6606 51.2656 164.6606 52.75 C164.6606 54.2188 163.8012 54.875 162.0043 54.875 L160.4731 54.875 ZM168.0242 60 L174.0867 60 L174.0867 58.8906 L169.3211 58.8906 L169.3211 55.1562 L173.2117 55.1562 L173.2117 54.0469 L169.3211 54.0469 L169.3211 50.8281 L173.9461 50.8281 L173.9461 49.7188 L168.0242 49.7188 L168.0242 60 ZM178.5374 60.1875 C178.9905 60.1875 179.4905 60.0469 179.928 59.9062 L179.678 58.9531 C179.428 59.0469 179.0843 59.1406 178.8186 59.1406 C177.928 59.1406 177.6311 58.6094 177.6311 57.6719 L177.6311 53.4375 L179.6936 53.4375 L179.6936 52.3906 L177.6311 52.3906 L177.6311 50.25 L176.5686 50.25 L176.4124 52.3906 L175.2249 52.4688 L175.2249 53.4375 L176.3655 53.4375 L176.3655 57.6406 C176.3655 59.1562 176.9124 60.1875 178.5374 60.1875 ZM181.4091 60 L182.6904 60 L182.6904 54.4844 C183.456 53.7188 183.9873 53.3281 184.7685 53.3281 C185.7841 53.3281 186.2216 53.9219 186.2216 55.3594 L186.2216 60 L187.4873 60 L187.4873 55.1875 C187.4873 53.2344 186.7685 52.2031 185.1748 52.2031 C184.1279 52.2031 183.3466 52.7812 182.6123 53.4844 L182.581 53.4844 L182.4716 52.3906 L181.4091 52.3906 L181.4091 60 Z"
      /><polygon style="fill:none;" points=" 109 116 49 116"
    /></g
    ><g style="fill:white; text-rendering:optimizeSpeed; stroke:white;"
    ><circle r="11" style="clip-path:url(#clipPath5); stroke:none;" cx="109" cy="116"
      /><rect x="98" y="105" width="22" style="clip-path:url(#clipPath5); fill:rgb(0,144,188); stroke:none;" height="22"
      /><rect x="98" y="105" width="22" style="clip-path:url(#clipPath5); fill:none; stroke:black;" height="22"
      /><circle r="11" style="fill:none; stroke:black;" cx="109" cy="116"
      /><circle r="11" style="clip-path:url(#clipPath6); stroke:none;" cx="49" cy="116"
      /><rect x="38" y="105" width="22" style="clip-path:url(#clipPath6); fill:rgb(255,212,0); stroke:none;" height="22"
      /><rect x="38" y="105" width="22" style="clip-path:url(#clipPath6); fill:none; stroke:black;" height="22"
      /><circle r="11" style="fill:none; stroke:black;" cx="49" cy="116"
      /><rect x="30" width="36" height="10" y="87" style="stroke:none;"
    /></g
    ><g style="text-rendering:optimizeSpeed; font-size:14px; font-family:'SansSerif';"
    ><path style="stroke:none;" d="M34.1094 92.5781 C35.3438 92.5781 35.9688 93.4688 35.9688 94.8438 C35.9688 96.25 35.1875 97.1875 34.2188 97.1875 C32.9219 97.1875 32.1562 96.0312 32 93.8906 C32.625 92.9531 33.4531 92.5781 34.1094 92.5781 ZM34.2188 98.1875 C35.8125 98.1875 37.1562 96.8438 37.1562 94.8438 C37.1562 92.7031 36.0469 91.625 34.3125 91.625 C33.5 91.625 32.6094 92.1094 31.9688 92.875 C32.0312 89.6875 33.2188 88.6094 34.625 88.6094 C35.25 88.6094 35.8594 88.9062 36.2656 89.3906 L36.9688 88.5938 C36.4062 87.9844 35.6406 87.5469 34.5781 87.5469 C32.5938 87.5469 30.7812 89.0781 30.7812 93.0938 C30.7812 96.4844 32.2344 98.1875 34.2188 98.1875 ZM39.1762 98 L40.4731 98 L40.4731 93.9219 L42.1606 93.9219 C44.4262 93.9219 45.9418 92.9219 45.9418 90.75 C45.9418 88.5156 44.4106 87.7188 42.1137 87.7188 L39.1762 87.7188 L39.1762 98 ZM40.4731 92.875 L40.4731 88.7812 L41.9418 88.7812 C43.7543 88.7812 44.6606 89.2656 44.6606 90.75 C44.6606 92.2188 43.8012 92.875 42.0043 92.875 L40.4731 92.875 ZM48.0242 98 L54.0867 98 L54.0867 96.8906 L49.3211 96.8906 L49.3211 93.1562 L53.2117 93.1562 L53.2117 92.0469 L49.3211 92.0469 L49.3211 88.8281 L53.9461 88.8281 L53.9461 87.7188 L48.0242 87.7188 L48.0242 98 ZM58.5374 98.1875 C58.9905 98.1875 59.4905 98.0469 59.928 97.9062 L59.678 96.9531 C59.428 97.0469 59.0843 97.1406 58.8186 97.1406 C57.928 97.1406 57.6311 96.6094 57.6311 95.6719 L57.6311 91.4375 L59.6936 91.4375 L59.6936 90.3906 L57.6311 90.3906 L57.6311 88.25 L56.5686 88.25 L56.4124 90.3906 L55.2249 90.4688 L55.2249 91.4375 L56.3655 91.4375 L56.3655 95.6406 C56.3655 97.1562 56.9124 98.1875 58.5374 98.1875 ZM61.4091 98 L62.6904 98 L62.6904 92.4844 C63.456 91.7188 63.9873 91.3281 64.7685 91.3281 C65.7841 91.3281 66.2216 91.9219 66.2216 93.3594 L66.2216 98 L67.4873 98 L67.4873 93.1875 C67.4873 91.2344 66.7685 90.2031 65.1748 90.2031 C64.1279 90.2031 63.3466 90.7812 62.6123 91.4844 L62.581 91.4844 L62.4716 90.3906 L61.4091 90.3906 L61.4091 98 Z"
    /></g
    ><g style="fill:white; text-rendering:optimizeSpeed; font-family:'Serif'; stroke:white;"
    ><rect x="87" width="6" height="10" y="119" style="stroke:none;"
      /><path d="M89.2344 120.6562 C89.5156 120.5938 89.7656 120.5625 90.0156 120.5625 C91.0625 120.5625 91.6719 121.1719 91.6719 122.2656 C91.6719 123.4375 90.9062 124.1094 89.7031 124.1094 L89.1875 124.1094 L89.1875 124.6406 L89.7969 124.6406 C91.2188 124.6406 91.9062 125.4219 91.9062 126.6406 C91.9062 127.8438 91.1719 128.6875 89.875 128.6875 C89.6094 128.6875 89.3125 128.6562 89.0156 128.5625 L88.7812 127.8125 C88.625 127.2812 88.5 127.0469 88.1406 127.0469 C87.8906 127.0469 87.7031 127.1719 87.5781 127.4219 C87.8438 128.6406 88.7812 129.1719 90.0312 129.1719 C91.7188 129.1719 92.875 128.125 92.875 126.7031 C92.875 125.5 92.2031 124.625 90.7969 124.375 C91.9531 124.0156 92.6094 123.2031 92.6094 122.2031 C92.6094 120.9219 91.6719 120.0781 90.1875 120.0781 C89.0469 120.0781 88.0625 120.5938 87.7969 121.6875 C87.9062 122 88.1094 122.1094 88.3594 122.1094 C88.7344 122.1094 88.8906 121.8906 89 121.4062 L89.2344 120.6562 Z" style="fill:black; stroke:none;"
      /><rect x="72" width="8" height="8" y="120" style="stroke:none;"
      /><path d="M76.9844 125.7031 C76.9375 126.8906 76.1562 127.6562 75.3125 127.6562 C74.2656 127.6562 73.5 126.6875 73.5 124.7188 C73.5 123.2812 74.1562 122.1562 75.3438 122.1562 C76.1406 122.1562 76.7812 122.6875 77.0938 123.6406 L76.9844 125.7031 ZM78.9062 127.2812 C78.7344 127.375 78.5469 127.4219 78.3438 127.4219 C77.9531 127.4219 77.75 127.2188 77.75 126.4219 C77.75 125.4844 77.9688 123.5312 78.1875 121.8281 L78.0312 121.7188 L77.2344 121.9219 L77.1406 122.7969 C76.7812 122.0312 76.1562 121.6562 75.3906 121.6562 C74.0469 121.6562 72.5625 122.8438 72.5625 124.9531 C72.5625 127.0938 73.7188 128.1719 75.1406 128.1719 C76.0156 128.1719 76.6875 127.8125 77.0938 126.9844 C77.2031 127.8594 77.5156 128.1719 78.0156 128.1719 C78.4688 128.1719 78.7969 127.9062 79.0156 127.5625 L78.9062 127.2812 Z" style="fill:black; stroke:none;"
      /><polygon style="fill:none; stroke:black;" points=" 109 41 57 41"
      /><polygon style="clip-path:url(#clipPath7); stroke:none;" points=" 120 41 114 48 103 48 98 41 103 33 114 33 120 41"
      /><rect x="98" y="30" width="22" style="clip-path:url(#clipPath7); fill:rgb(0,166,81); stroke:none;" height="22"
      /><rect x="98" y="30" width="22" style="clip-path:url(#clipPath7); fill:none; stroke:black;" height="22"
      /><polygon style="fill:none; stroke:black;" points=" 120 41 114 48 103 48 98 41 103 33 114 33 120 41"
      /><polygon style="clip-path:url(#clipPath8); stroke:none;" points=" 57 30 68 41 57 52 46 41"
      /><rect x="46" y="30" width="22" style="clip-path:url(#clipPath8); fill:rgb(255,212,0); stroke:none;" height="11"
      /><rect x="46" y="30" width="22" style="clip-path:url(#clipPath8); fill:none; stroke:black;" height="11"
      /><polygon style="fill:none; stroke:black;" points=" 57 30 68 41 57 52 46 41"
      /><rect x="87" width="6" height="9" y="44" style="stroke:none;"
      /><path d="M87.6406 44.25 L87.6406 45.1406 L92.2031 45.1406 L88.7812 52.875 L88.8906 53 L89.75 53 L92.875 44.7969 L92.875 44.25 L87.6406 44.25 Z" style="fill:black; stroke:none;"
      /><rect x="73" width="6" height="13" y="42" style="stroke:none;"
      /><path d="M75.0938 48.2031 C75.0938 46.6562 75.75 45.8125 76.7969 45.8125 C77.7188 45.8125 78.2656 46.4531 78.2656 47.5156 C78.2656 48.7188 77.5 49.4375 76.1875 49.7031 L76.2969 50.3125 C78.2188 50.2344 78.9375 51.2188 78.9375 52.4375 C78.9375 53.625 78.2344 54.4219 76.9531 54.4219 C76.25 54.4219 75.6562 54.1562 75.0938 53.7188 L75.0938 48.2031 ZM74.2031 54.9062 L74.1094 57.375 L74.2656 57.4844 L75.1562 57.2656 L75.0156 54.0938 C75.5469 54.8438 76.3594 55.1719 77.1719 55.1719 C78.5625 55.1719 79.8594 54.2188 79.8594 52.4844 C79.8594 50.9531 78.875 50.1094 77.125 50 C78.5625 49.6094 79.1875 48.4531 79.1875 47.4844 C79.1875 46.0938 78.1562 45.3125 76.9062 45.3125 C75.2969 45.3125 74.2188 46.5469 74.2188 48.5156 L74.2031 54.9062 Z" style="fill:black; stroke:none;"
      /><rect x="146" width="6" height="10" y="95" style="stroke:none;"
      /><path d="M148.2344 96.6562 C148.5156 96.5938 148.7656 96.5625 149.0156 96.5625 C150.0625 96.5625 150.6719 97.1719 150.6719 98.2656 C150.6719 99.4375 149.9062 100.1094 148.7031 100.1094 L148.1875 100.1094 L148.1875 100.6406 L148.7969 100.6406 C150.2188 100.6406 150.9062 101.4219 150.9062 102.6406 C150.9062 103.8438 150.1719 104.6875 148.875 104.6875 C148.6094 104.6875 148.3125 104.6562 148.0156 104.5625 L147.7812 103.8125 C147.625 103.2812 147.5 103.0469 147.1406 103.0469 C146.8906 103.0469 146.7031 103.1719 146.5781 103.4219 C146.8438 104.6406 147.7812 105.1719 149.0312 105.1719 C150.7188 105.1719 151.875 104.125 151.875 102.7031 C151.875 101.5 151.2031 100.625 149.7969 100.375 C150.9531 100.0156 151.6094 99.2031 151.6094 98.2031 C151.6094 96.9219 150.6719 96.0781 149.1875 96.0781 C148.0469 96.0781 147.0625 96.5938 146.7969 97.6875 C146.9062 98 147.1094 98.1094 147.3594 98.1094 C147.7344 98.1094 147.8906 97.8906 148 97.4062 L148.2344 96.6562 Z" style="fill:black; stroke:none;"
      /><rect x="127" width="8" height="8" y="107" style="stroke:none;"
      /><path d="M131.9844 112.7031 C131.9375 113.8906 131.1562 114.6562 130.3125 114.6562 C129.2656 114.6562 128.5 113.6875 128.5 111.7188 C128.5 110.2812 129.1562 109.1562 130.3438 109.1562 C131.1406 109.1562 131.7812 109.6875 132.0938 110.6406 L131.9844 112.7031 ZM133.9062 114.2812 C133.7344 114.375 133.5469 114.4219 133.3438 114.4219 C132.9531 114.4219 132.75 114.2188 132.75 113.4219 C132.75 112.4844 132.9688 110.5312 133.1875 108.8281 L133.0312 108.7188 L132.2344 108.9219 L132.1406 109.7969 C131.7812 109.0312 131.1562 108.6562 130.3906 108.6562 C129.0469 108.6562 127.5625 109.8438 127.5625 111.9531 C127.5625 114.0938 128.7188 115.1719 130.1406 115.1719 C131.0156 115.1719 131.6875 114.8125 132.0938 113.9844 C132.2031 114.8594 132.5156 115.1719 133.0156 115.1719 C133.4688 115.1719 133.7969 114.9062 134.0156 114.5625 L133.9062 114.2812 Z" style="fill:black; stroke:none;"
      /><rect x="135" width="6" height="9" y="64" style="stroke:none;"
      /><path d="M135.6406 64.25 L135.6406 65.1406 L140.2031 65.1406 L136.7812 72.875 L136.8906 73 L137.75 73 L140.875 64.7969 L140.875 64.25 L135.6406 64.25 Z" style="fill:black; stroke:none;"
      /><rect x="118" width="8" height="8" y="54" style="stroke:none;"
      /><path d="M122.9844 59.7031 C122.9375 60.8906 122.1562 61.6562 121.3125 61.6562 C120.2656 61.6562 119.5 60.6875 119.5 58.7188 C119.5 57.2812 120.1562 56.1562 121.3438 56.1562 C122.1406 56.1562 122.7812 56.6875 123.0938 57.6406 L122.9844 59.7031 ZM124.9062 61.2812 C124.7344 61.375 124.5469 61.4219 124.3438 61.4219 C123.9531 61.4219 123.75 61.2188 123.75 60.4219 C123.75 59.4844 123.9688 57.5312 124.1875 55.8281 L124.0312 55.7188 L123.2344 55.9219 L123.1406 56.7969 C122.7812 56.0312 122.1562 55.6562 121.3906 55.6562 C120.0469 55.6562 118.5625 56.8438 118.5625 58.9531 C118.5625 61.0938 119.7188 62.1719 121.1406 62.1719 C122.0156 62.1719 122.6875 61.8125 123.0938 60.9844 C123.2031 61.8594 123.5156 62.1719 124.0156 62.1719 C124.4688 62.1719 124.7969 61.9062 125.0156 61.5625 L124.9062 61.2812 Z" style="fill:black; stroke:none;"
      /><rect x="207" width="6" height="10" y="81" style="stroke:none;"
      /><path d="M209.2344 82.6562 C209.5156 82.5938 209.7656 82.5625 210.0156 82.5625 C211.0625 82.5625 211.6719 83.1719 211.6719 84.2656 C211.6719 85.4375 210.9062 86.1094 209.7031 86.1094 L209.1875 86.1094 L209.1875 86.6406 L209.7969 86.6406 C211.2188 86.6406 211.9062 87.4219 211.9062 88.6406 C211.9062 89.8438 211.1719 90.6875 209.875 90.6875 C209.6094 90.6875 209.3125 90.6562 209.0156 90.5625 L208.7812 89.8125 C208.625 89.2812 208.5 89.0469 208.1406 89.0469 C207.8906 89.0469 207.7031 89.1719 207.5781 89.4219 C207.8438 90.6406 208.7812 91.1719 210.0312 91.1719 C211.7188 91.1719 212.875 90.125 212.875 88.7031 C212.875 87.5 212.2031 86.625 210.7969 86.375 C211.9531 86.0156 212.6094 85.2031 212.6094 84.2031 C212.6094 82.9219 211.6719 82.0781 210.1875 82.0781 C209.0469 82.0781 208.0625 82.5938 207.7969 83.6875 C207.9062 84 208.1094 84.1094 208.3594 84.1094 C208.7344 84.1094 208.8906 83.8906 209 83.4062 L209.2344 82.6562 Z" style="fill:black; stroke:none;"
      /><rect x="192" width="8" height="8" y="82" style="stroke:none;"
      /><path d="M196.9844 87.7031 C196.9375 88.8906 196.1562 89.6562 195.3125 89.6562 C194.2656 89.6562 193.5 88.6875 193.5 86.7188 C193.5 85.2812 194.1562 84.1562 195.3438 84.1562 C196.1406 84.1562 196.7812 84.6875 197.0938 85.6406 L196.9844 87.7031 ZM198.9062 89.2812 C198.7344 89.375 198.5469 89.4219 198.3438 89.4219 C197.9531 89.4219 197.75 89.2188 197.75 88.4219 C197.75 87.4844 197.9688 85.5312 198.1875 83.8281 L198.0312 83.7188 L197.2344 83.9219 L197.1406 84.7969 C196.7812 84.0312 196.1562 83.6562 195.3906 83.6562 C194.0469 83.6562 192.5625 84.8438 192.5625 86.9531 C192.5625 89.0938 193.7188 90.1719 195.1406 90.1719 C196.0156 90.1719 196.6875 89.8125 197.0938 88.9844 C197.2031 89.8594 197.5156 90.1719 198.0156 90.1719 C198.4688 90.1719 198.7969 89.9062 199.0156 89.5625 L198.9062 89.2812 Z" style="fill:black; stroke:none;"
      /><rect x="277" width="5" height="10" y="129" style="stroke:none;"
      /><path d="M278.8906 137.6875 C278.4844 137.6875 278.1562 138.0469 278.1562 138.4219 C278.1562 138.8125 278.4844 139.1562 278.8906 139.1562 C279.2969 139.1562 279.6406 138.8125 279.6406 138.4219 C279.6406 138.0469 279.2969 137.6875 278.8906 137.6875 ZM280.4688 131.5781 C280.7188 131.8906 280.875 132.2656 280.8906 132.6562 C280.8906 133.1875 280.625 133.5 280.0312 133.7656 L279.4062 134.0156 C278.6406 134.3125 278.3906 134.5469 278.3906 134.9375 C278.3906 135.1094 278.4531 135.3438 278.5781 135.8125 L278.7344 136.3438 L279.1094 136.3438 L279.0938 135.5312 C279.0938 135.0938 279.2031 134.9688 279.7812 134.7344 L280.2031 134.5625 C281.0312 134.2188 281.4531 133.6875 281.4531 132.8438 C281.4531 131.1562 279.6562 130.1875 278.5 130.0312 C278.1094 130.125 277.9062 130.2969 277.9062 130.6406 C277.9062 130.9375 278.0625 131.1562 278.7188 131.2656 L280.4688 131.5781 Z" style="fill:black; stroke:none;"
      /><rect x="260" width="6" height="13" y="140" style="stroke:none;"
      /><path d="M262.0938 146.2031 C262.0938 144.6562 262.75 143.8125 263.7969 143.8125 C264.7188 143.8125 265.2656 144.4531 265.2656 145.5156 C265.2656 146.7188 264.5 147.4375 263.1875 147.7031 L263.2969 148.3125 C265.2188 148.2344 265.9375 149.2188 265.9375 150.4375 C265.9375 151.625 265.2344 152.4219 263.9531 152.4219 C263.25 152.4219 262.6562 152.1562 262.0938 151.7188 L262.0938 146.2031 ZM261.2031 152.9062 L261.1094 155.375 L261.2656 155.4844 L262.1562 155.2656 L262.0156 152.0938 C262.5469 152.8438 263.3594 153.1719 264.1719 153.1719 C265.5625 153.1719 266.8594 152.2188 266.8594 150.4844 C266.8594 148.9531 265.875 148.1094 264.125 148 C265.5625 147.6094 266.1875 146.4531 266.1875 145.4844 C266.1875 144.0938 265.1562 143.3125 263.9062 143.3125 C262.2969 143.3125 261.2188 144.5469 261.2188 146.5156 L261.2031 152.9062 Z" style="fill:black; stroke:none;"
      /><rect x="267" width="6" height="10" y="104" style="stroke:none;"
      /><path d="M268.9219 106.1406 L272.6562 106.1406 L272.6562 105.25 L268.4531 105.25 L268.1719 109.3125 L268.5156 109.3906 C268.9219 109.25 269.3906 109.1875 269.8125 109.1875 C271.0781 109.1875 271.9219 109.9531 271.9219 111.3906 C271.9219 112.7812 271.1719 113.6875 269.8281 113.6875 C269.5156 113.6875 269.2344 113.6406 268.9375 113.5625 L268.6875 112.7812 C268.5312 112.2188 268.3906 112.0469 268.0625 112.0469 C267.7969 112.0469 267.5938 112.1719 267.4844 112.4375 C267.7656 113.5938 268.625 114.1719 269.8906 114.1719 C271.7031 114.1719 272.875 112.9844 272.875 111.2812 C272.875 109.5312 271.75 108.5469 270.0938 108.5469 C269.6094 108.5469 269.1719 108.625 268.7344 108.7656 L268.9219 106.1406 Z" style="fill:black; stroke:none;"
      /><rect x="254" width="8" height="8" y="96" style="stroke:none;"
      /><path d="M258.9844 101.7031 C258.9375 102.8906 258.1562 103.6562 257.3125 103.6562 C256.2656 103.6562 255.5 102.6875 255.5 100.7188 C255.5 99.2812 256.1562 98.1562 257.3438 98.1562 C258.1406 98.1562 258.7812 98.6875 259.0938 99.6406 L258.9844 101.7031 ZM260.9062 103.2812 C260.7344 103.375 260.5469 103.4219 260.3438 103.4219 C259.9531 103.4219 259.75 103.2188 259.75 102.4219 C259.75 101.4844 259.9688 99.5312 260.1875 97.8281 L260.0312 97.7188 L259.2344 97.9219 L259.1406 98.7969 C258.7812 98.0312 258.1562 97.6562 257.3906 97.6562 C256.0469 97.6562 254.5625 98.8438 254.5625 100.9531 C254.5625 103.0938 255.7188 104.1719 257.1406 104.1719 C258.0156 104.1719 258.6875 103.8125 259.0938 102.9844 C259.2031 103.8594 259.5156 104.1719 260.0156 104.1719 C260.4688 104.1719 260.7969 103.9062 261.0156 103.5625 L260.9062 103.2812 Z" style="fill:black; stroke:none;"
      /><rect x="309" width="5" height="10" y="118" style="stroke:none;"
      /><path d="M310.8906 126.6875 C310.4844 126.6875 310.1562 127.0469 310.1562 127.4219 C310.1562 127.8125 310.4844 128.1562 310.8906 128.1562 C311.2969 128.1562 311.6406 127.8125 311.6406 127.4219 C311.6406 127.0469 311.2969 126.6875 310.8906 126.6875 ZM312.4688 120.5781 C312.7188 120.8906 312.875 121.2656 312.8906 121.6562 C312.8906 122.1875 312.625 122.5 312.0312 122.7656 L311.4062 123.0156 C310.6406 123.3125 310.3906 123.5469 310.3906 123.9375 C310.3906 124.1094 310.4531 124.3438 310.5781 124.8125 L310.7344 125.3438 L311.1094 125.3438 L311.0938 124.5312 C311.0938 124.0938 311.2031 123.9688 311.7812 123.7344 L312.2031 123.5625 C313.0312 123.2188 313.4531 122.6875 313.4531 121.8438 C313.4531 120.1562 311.6562 119.1875 310.5 119.0312 C310.1094 119.125 309.9062 119.2969 309.9062 119.6406 C309.9062 119.9375 310.0625 120.1562 310.7188 120.2656 L312.4688 120.5781 Z" style="fill:black; stroke:none;"
    /></g
  ></g
></svg
>
