<?xml version="1.0"?>
<!DOCTYPE svg PUBLIC '-//W3C//DTD SVG 1.0//EN'
          'http://www.w3.org/TR/2001/REC-SVG-20010904/DTD/svg10.dtd'>
<svg xmlns:xlink="http://www.w3.org/1999/xlink" style="fill-opacity:1; color-rendering:auto; color-interpolation:auto; text-rendering:auto; stroke:black; stroke-linecap:square; stroke-miterlimit:10; shape-rendering:auto; stroke-opacity:1; fill:black; stroke-dasharray:none; font-weight:normal; stroke-width:1; font-family:'Dialog'; font-style:normal; stroke-linejoin:miter; font-size:12px; stroke-dashoffset:0; image-rendering:auto;" viewBox="0 0 306 157" xmlns="http://www.w3.org/2000/svg"
><!--Generated by the Batik Graphics2D SVG Generator--><defs id="genericDefs"
  /><g
  ><defs id="defs1"
    ><clipPath clipPathUnits="userSpaceOnUse" id="clipPath1"
      ><path style="fill-rule:evenodd;" d="M224 67 L218 74 L207 74 L202 67 L207 59 L218 59 L224 67 Z"
      /></clipPath
      ><clipPath clipPathUnits="userSpaceOnUse" id="clipPath2"
      ><path style="fill-rule:evenodd;" d="M172 67 L166 74 L155 74 L150 67 L155 59 L166 59 L172 67 Z"
      /></clipPath
      ><clipPath clipPathUnits="userSpaceOnUse" id="clipPath3"
      ><path style="fill-rule:evenodd;" d="M112 93 L106 100 L95 100 L90 93 L95 85 L106 85 L112 93 Z"
      /></clipPath
      ><clipPath clipPathUnits="userSpaceOnUse" id="clipPath4"
      ><path d="M30 82 L52 82 L52 104 L30 104 L30 82 Z"
      /></clipPath
      ><clipPath clipPathUnits="userSpaceOnUse" id="clipPath5"
      ><path d="M112 41 C112 47.0751 107.0751 52 101 52 C94.9249 52 90 47.0751 90 41 C90 34.9249 94.9249 30 101 30 C107.0751 30 112 34.9249 112 41 Z"
      /></clipPath
      ><clipPath clipPathUnits="userSpaceOnUse" id="clipPath6"
      ><path d="M60 41 C60 47.0751 55.0751 52 49 52 C42.9249 52 38 47.0751 38 41 C38 34.9249 42.9249 30 49 30 C55.0751 30 60 34.9249 60 41 Z"
      /></clipPath
    ></defs
    ><g style="fill:white; text-rendering:optimizeSpeed; stroke:white;"
    ><rect x="0" width="306" height="157" y="0" style="stroke:none;"
      /><polygon style="fill:none; stroke:black;" points=" 265 67 213 67"
      /><path d="M265 56 C259.5 61.5 270.5 72.5 265 78" style="fill:none; stroke:black;"
      /><polygon style="fill:none; stroke:black;" points=" 213 67 161 67"
      /><polygon style="clip-path:url(#clipPath1); stroke:none;" points=" 224 67 218 74 207 74 202 67 207 59 218 59 224 67"
      /><rect x="202" y="56" width="22" style="clip-path:url(#clipPath1); fill:rgb(255,212,0); stroke:none;" height="22"
      /><rect x="202" y="56" width="22" style="clip-path:url(#clipPath1); fill:none; stroke:black;" height="22"
      /><polygon style="fill:none; stroke:black;" points=" 224 67 218 74 207 74 202 67 207 59 218 59 224 67"
      /><polygon style="fill:none; stroke:black;" points=" 161 67 101 93"
      /><polygon style="fill:none; stroke:black;" points=" 161 67 101 41"
      /><polygon style="clip-path:url(#clipPath2); stroke:none;" points=" 172 67 166 74 155 74 150 67 155 59 166 59 172 67"
      /><rect x="150" y="56" width="22" style="clip-path:url(#clipPath2); fill:rgb(0,166,81); stroke:none;" height="22"
      /><rect x="150" y="56" width="22" style="clip-path:url(#clipPath2); fill:none; stroke:black;" height="22"
      /><polygon style="fill:none; stroke:black;" points=" 172 67 166 74 155 74 150 67 155 59 166 59 172 67"
      /><polygon style="fill:none; stroke:black;" points=" 101 93 41 93"
      /><polygon style="clip-path:url(#clipPath3); stroke:none;" points=" 112 93 106 100 95 100 90 93 95 85 106 85 112 93"
      /><rect x="90" y="82" width="22" style="clip-path:url(#clipPath3); fill:rgb(0,166,81); stroke:none;" height="22"
      /><rect x="90" y="82" width="22" style="clip-path:url(#clipPath3); fill:none; stroke:black;" height="22"
      /><polygon style="fill:none; stroke:black;" points=" 112 93 106 100 95 100 90 93 95 85 106 85 112 93"
      /><rect x="82" y="110" width="37" style="stroke:none;" height="10"
    /></g
    ><g style="text-rendering:optimizeSpeed; font-size:14px; font-family:'SansSerif';"
    ><path style="stroke:none;" d="M85.7031 121.1875 C87.5156 121.1875 88.9844 120.0938 88.9844 118.25 C88.9844 116.8594 88.0156 115.9375 86.8125 115.6562 L86.8125 115.5938 C87.8906 115.1875 88.6406 114.3594 88.6406 113.125 C88.6406 111.5 87.375 110.5469 85.6562 110.5469 C84.4688 110.5469 83.5469 111.0625 82.7812 111.7812 L83.4688 112.5938 C84.0469 112 84.7656 111.5938 85.5938 111.5938 C86.6562 111.5938 87.3281 112.2344 87.3281 113.2188 C87.3281 114.3281 86.6094 115.1719 84.4844 115.1719 L84.4844 116.1562 C86.8594 116.1562 87.6875 116.9844 87.6875 118.2031 C87.6875 119.3906 86.8125 120.125 85.5938 120.125 C84.4375 120.125 83.6562 119.5781 83.0469 118.9375 L82.4062 119.7812 C83.0781 120.5156 84.0938 121.1875 85.7031 121.1875 ZM91.1762 121 L92.4731 121 L92.4731 116.9219 L94.1606 116.9219 C96.4262 116.9219 97.9418 115.9219 97.9418 113.75 C97.9418 111.5156 96.4106 110.7188 94.1137 110.7188 L91.1762 110.7188 L91.1762 121 ZM92.4731 115.875 L92.4731 111.7812 L93.9418 111.7812 C95.7543 111.7812 96.6606 112.2656 96.6606 113.75 C96.6606 115.2188 95.8012 115.875 94.0043 115.875 L92.4731 115.875 ZM100.0242 121 L106.0867 121 L106.0867 119.8906 L101.3211 119.8906 L101.3211 116.1562 L105.2117 116.1562 L105.2117 115.0469 L101.3211 115.0469 L101.3211 111.8281 L105.9461 111.8281 L105.9461 110.7188 L100.0242 110.7188 L100.0242 121 ZM110.5374 121.1875 C110.9905 121.1875 111.4905 121.0469 111.928 120.9062 L111.678 119.9531 C111.428 120.0469 111.0843 120.1406 110.8186 120.1406 C109.928 120.1406 109.6311 119.6094 109.6311 118.6719 L109.6311 114.4375 L111.6936 114.4375 L111.6936 113.3906 L109.6311 113.3906 L109.6311 111.25 L108.5686 111.25 L108.4124 113.3906 L107.2249 113.4688 L107.2249 114.4375 L108.3655 114.4375 L108.3655 118.6406 C108.3655 120.1562 108.9124 121.1875 110.5374 121.1875 ZM113.4091 121 L114.6904 121 L114.6904 115.4844 C115.456 114.7188 115.9873 114.3281 116.7685 114.3281 C117.7841 114.3281 118.2216 114.9219 118.2216 116.3594 L118.2216 121 L119.4873 121 L119.4873 116.1875 C119.4873 114.2344 118.7685 113.2031 117.1748 113.2031 C116.1279 113.2031 115.3466 113.7812 114.6123 114.4844 L114.581 114.4844 L114.4716 113.3906 L113.4091 113.3906 L113.4091 121 Z"
    /></g
    ><g style="fill:white; text-rendering:optimizeSpeed; stroke:white;"
    ><rect x="30" y="82" width="22" style="clip-path:url(#clipPath4); stroke:none;" height="22"
      /><rect x="30" y="82" width="22" style="clip-path:url(#clipPath4); fill:rgb(0,144,188); stroke:none;" height="22"
      /><rect x="30" y="82" width="22" style="clip-path:url(#clipPath4); fill:none; stroke:black;" height="22"
      /><rect x="30" y="82" width="22" style="fill:none; stroke:black;" height="22"
      /><rect x="71" width="5" height="10" y="96" style="stroke:none;"
      /><path d="M72.8906 104.6875 C72.4844 104.6875 72.1562 105.0469 72.1562 105.4219 C72.1562 105.8125 72.4844 106.1562 72.8906 106.1562 C73.2969 106.1562 73.6406 105.8125 73.6406 105.4219 C73.6406 105.0469 73.2969 104.6875 72.8906 104.6875 ZM74.4688 98.5781 C74.7188 98.8906 74.875 99.2656 74.8906 99.6562 C74.8906 100.1875 74.625 100.5 74.0312 100.7656 L73.4062 101.0156 C72.6406 101.3125 72.3906 101.5469 72.3906 101.9375 C72.3906 102.1094 72.4531 102.3438 72.5781 102.8125 L72.7344 103.3438 L73.1094 103.3438 L73.0938 102.5312 C73.0938 102.0938 73.2031 101.9688 73.7812 101.7344 L74.2031 101.5625 C75.0312 101.2188 75.4531 100.6875 75.4531 99.8438 C75.4531 98.1562 73.6562 97.1875 72.5 97.0312 C72.1094 97.125 71.9062 97.2969 71.9062 97.6406 C71.9062 97.9375 72.0625 98.1562 72.7188 98.2656 L74.4688 98.5781 Z" style="fill:black; stroke:none;"
      /><rect x="57" width="5" height="10" y="96" style="stroke:none;"
      /><path d="M58.8906 104.6875 C58.4844 104.6875 58.1562 105.0469 58.1562 105.4219 C58.1562 105.8125 58.4844 106.1562 58.8906 106.1562 C59.2969 106.1562 59.6406 105.8125 59.6406 105.4219 C59.6406 105.0469 59.2969 104.6875 58.8906 104.6875 ZM60.4688 98.5781 C60.7188 98.8906 60.875 99.2656 60.8906 99.6562 C60.8906 100.1875 60.625 100.5 60.0312 100.7656 L59.4062 101.0156 C58.6406 101.3125 58.3906 101.5469 58.3906 101.9375 C58.3906 102.1094 58.4531 102.3438 58.5781 102.8125 L58.7344 103.3438 L59.1094 103.3438 L59.0938 102.5312 C59.0938 102.0938 59.2031 101.9688 59.7812 101.7344 L60.2031 101.5625 C61.0312 101.2188 61.4531 100.6875 61.4531 99.8438 C61.4531 98.1562 59.6562 97.1875 58.5 97.0312 C58.1094 97.125 57.9062 97.2969 57.9062 97.6406 C57.9062 97.9375 58.0625 98.1562 58.7188 98.2656 L60.4688 98.5781 Z" style="fill:black; stroke:none;"
      /><polygon style="fill:none; stroke:black;" points=" 101 41 49 41"
      /><circle r="11" style="clip-path:url(#clipPath5); stroke:none;" cx="101" cy="41"
      /><rect x="90" y="30" width="22" style="clip-path:url(#clipPath5); fill:rgb(0,144,188); stroke:none;" height="22"
      /><rect x="90" y="30" width="22" style="clip-path:url(#clipPath5); fill:none; stroke:black;" height="22"
      /><circle r="11" style="fill:none; stroke:black;" cx="101" cy="41"
      /><circle r="11" style="clip-path:url(#clipPath6); stroke:none;" cx="49" cy="41"
      /><rect x="38" y="30" width="22" style="clip-path:url(#clipPath6); fill:rgb(255,212,0); stroke:none;" height="22"
      /><rect x="38" y="30" width="22" style="clip-path:url(#clipPath6); fill:none; stroke:black;" height="22"
      /><circle r="11" style="fill:none; stroke:black;" cx="49" cy="41"
      /><rect x="79" width="5" height="10" y="44" style="stroke:none;"
      /><path d="M80.8906 52.6875 C80.4844 52.6875 80.1562 53.0469 80.1562 53.4219 C80.1562 53.8125 80.4844 54.1562 80.8906 54.1562 C81.2969 54.1562 81.6406 53.8125 81.6406 53.4219 C81.6406 53.0469 81.2969 52.6875 80.8906 52.6875 ZM82.4688 46.5781 C82.7188 46.8906 82.875 47.2656 82.8906 47.6562 C82.8906 48.1875 82.625 48.5 82.0312 48.7656 L81.4062 49.0156 C80.6406 49.3125 80.3906 49.5469 80.3906 49.9375 C80.3906 50.1094 80.4531 50.3438 80.5781 50.8125 L80.7344 51.3438 L81.1094 51.3438 L81.0938 50.5312 C81.0938 50.0938 81.2031 49.9688 81.7812 49.7344 L82.2031 49.5625 C83.0312 49.2188 83.4531 48.6875 83.4531 47.8438 C83.4531 46.1562 81.6562 45.1875 80.5 45.0312 C80.1094 45.125 79.9062 45.2969 79.9062 45.6406 C79.9062 45.9375 80.0625 46.1562 80.7188 46.2656 L82.4688 46.5781 Z" style="fill:black; stroke:none;"
      /><rect x="65" width="5" height="10" y="44" style="stroke:none;"
      /><path d="M66.8906 52.6875 C66.4844 52.6875 66.1562 53.0469 66.1562 53.4219 C66.1562 53.8125 66.4844 54.1562 66.8906 54.1562 C67.2969 54.1562 67.6406 53.8125 67.6406 53.4219 C67.6406 53.0469 67.2969 52.6875 66.8906 52.6875 ZM68.4688 46.5781 C68.7188 46.8906 68.875 47.2656 68.8906 47.6562 C68.8906 48.1875 68.625 48.5 68.0312 48.7656 L67.4062 49.0156 C66.6406 49.3125 66.3906 49.5469 66.3906 49.9375 C66.3906 50.1094 66.4531 50.3438 66.5781 50.8125 L66.7344 51.3438 L67.1094 51.3438 L67.0938 50.5312 C67.0938 50.0938 67.2031 49.9688 67.7812 49.7344 L68.2031 49.5625 C69.0312 49.2188 69.4531 48.6875 69.4531 47.8438 C69.4531 46.1562 67.6562 45.1875 66.5 45.0312 C66.1094 45.125 65.9062 45.2969 65.9062 45.6406 C65.9062 45.9375 66.0625 46.1562 66.7188 46.2656 L68.4688 46.5781 Z" style="fill:black; stroke:none;"
      /><rect x="143" width="5" height="10" y="77" style="stroke:none;"
      /><path d="M144.8906 85.6875 C144.4844 85.6875 144.1562 86.0469 144.1562 86.4219 C144.1562 86.8125 144.4844 87.1562 144.8906 87.1562 C145.2969 87.1562 145.6406 86.8125 145.6406 86.4219 C145.6406 86.0469 145.2969 85.6875 144.8906 85.6875 ZM146.4688 79.5781 C146.7188 79.8906 146.875 80.2656 146.8906 80.6562 C146.8906 81.1875 146.625 81.5 146.0312 81.7656 L145.4062 82.0156 C144.6406 82.3125 144.3906 82.5469 144.3906 82.9375 C144.3906 83.1094 144.4531 83.3438 144.5781 83.8125 L144.7344 84.3438 L145.1094 84.3438 L145.0938 83.5312 C145.0938 83.0938 145.2031 82.9688 145.7812 82.7344 L146.2031 82.5625 C147.0312 82.2188 147.4531 81.6875 147.4531 80.8438 C147.4531 79.1562 145.6562 78.1875 144.5 78.0312 C144.1094 78.125 143.9062 78.2969 143.9062 78.6406 C143.9062 78.9375 144.0625 79.1562 144.7188 79.2656 L146.4688 79.5781 Z" style="fill:black; stroke:none;"
      /><rect x="128" width="5" height="10" y="83" style="stroke:none;"
      /><path d="M129.8906 91.6875 C129.4844 91.6875 129.1562 92.0469 129.1562 92.4219 C129.1562 92.8125 129.4844 93.1562 129.8906 93.1562 C130.2969 93.1562 130.6406 92.8125 130.6406 92.4219 C130.6406 92.0469 130.2969 91.6875 129.8906 91.6875 ZM131.4688 85.5781 C131.7188 85.8906 131.875 86.2656 131.8906 86.6562 C131.8906 87.1875 131.625 87.5 131.0312 87.7656 L130.4062 88.0156 C129.6406 88.3125 129.3906 88.5469 129.3906 88.9375 C129.3906 89.1094 129.4531 89.3438 129.5781 89.8125 L129.7344 90.3438 L130.1094 90.3438 L130.0938 89.5312 C130.0938 89.0938 130.2031 88.9688 130.7812 88.7344 L131.2031 88.5625 C132.0312 88.2188 132.4531 87.6875 132.4531 86.8438 C132.4531 85.1562 130.6562 84.1875 129.5 84.0312 C129.1094 84.125 128.9062 84.2969 128.9062 84.6406 C128.9062 84.9375 129.0625 85.1562 129.7188 85.2656 L131.4688 85.5781 Z" style="fill:black; stroke:none;"
      /><rect x="136" width="5" height="10" y="61" style="stroke:none;"
      /><path d="M137.8906 69.6875 C137.4844 69.6875 137.1562 70.0469 137.1562 70.4219 C137.1562 70.8125 137.4844 71.1562 137.8906 71.1562 C138.2969 71.1562 138.6406 70.8125 138.6406 70.4219 C138.6406 70.0469 138.2969 69.6875 137.8906 69.6875 ZM139.4688 63.5781 C139.7188 63.8906 139.875 64.2656 139.8906 64.6562 C139.8906 65.1875 139.625 65.5 139.0312 65.7656 L138.4062 66.0156 C137.6406 66.3125 137.3906 66.5469 137.3906 66.9375 C137.3906 67.1094 137.4531 67.3438 137.5781 67.8125 L137.7344 68.3438 L138.1094 68.3438 L138.0938 67.5312 C138.0938 67.0938 138.2031 66.9688 138.7812 66.7344 L139.2031 66.5625 C140.0312 66.2188 140.4531 65.6875 140.4531 64.8438 C140.4531 63.1562 138.6562 62.1875 137.5 62.0312 C137.1094 62.125 136.9062 62.2969 136.9062 62.6406 C136.9062 62.9375 137.0625 63.1562 137.7188 63.2656 L139.4688 63.5781 Z" style="fill:black; stroke:none;"
      /><rect x="113" width="5" height="10" y="51" style="stroke:none;"
      /><path d="M114.8906 59.6875 C114.4844 59.6875 114.1562 60.0469 114.1562 60.4219 C114.1562 60.8125 114.4844 61.1562 114.8906 61.1562 C115.2969 61.1562 115.6406 60.8125 115.6406 60.4219 C115.6406 60.0469 115.2969 59.6875 114.8906 59.6875 ZM116.4688 53.5781 C116.7188 53.8906 116.875 54.2656 116.8906 54.6562 C116.8906 55.1875 116.625 55.5 116.0312 55.7656 L115.4062 56.0156 C114.6406 56.3125 114.3906 56.5469 114.3906 56.9375 C114.3906 57.1094 114.4531 57.3438 114.5781 57.8125 L114.7344 58.3438 L115.1094 58.3438 L115.0938 57.5312 C115.0938 57.0938 115.2031 56.9688 115.7812 56.7344 L116.2031 56.5625 C117.0312 56.2188 117.4531 55.6875 117.4531 54.8438 C117.4531 53.1562 115.6562 52.1875 114.5 52.0312 C114.1094 52.125 113.9062 52.2969 113.9062 52.6406 C113.9062 52.9375 114.0625 53.1562 114.7188 53.2656 L116.4688 53.5781 Z" style="fill:black; stroke:none;"
      /><rect x="191" width="5" height="10" y="70" style="stroke:none;"
      /><path d="M192.8906 78.6875 C192.4844 78.6875 192.1562 79.0469 192.1562 79.4219 C192.1562 79.8125 192.4844 80.1562 192.8906 80.1562 C193.2969 80.1562 193.6406 79.8125 193.6406 79.4219 C193.6406 79.0469 193.2969 78.6875 192.8906 78.6875 ZM194.4688 72.5781 C194.7188 72.8906 194.875 73.2656 194.8906 73.6562 C194.8906 74.1875 194.625 74.5 194.0312 74.7656 L193.4062 75.0156 C192.6406 75.3125 192.3906 75.5469 192.3906 75.9375 C192.3906 76.1094 192.4531 76.3438 192.5781 76.8125 L192.7344 77.3438 L193.1094 77.3438 L193.0938 76.5312 C193.0938 76.0938 193.2031 75.9688 193.7812 75.7344 L194.2031 75.5625 C195.0312 75.2188 195.4531 74.6875 195.4531 73.8438 C195.4531 72.1562 193.6562 71.1875 192.5 71.0312 C192.1094 71.125 191.9062 71.2969 191.9062 71.6406 C191.9062 71.9375 192.0625 72.1562 192.7188 72.2656 L194.4688 72.5781 Z" style="fill:black; stroke:none;"
      /><rect x="177" width="5" height="10" y="70" style="stroke:none;"
      /><path d="M178.8906 78.6875 C178.4844 78.6875 178.1562 79.0469 178.1562 79.4219 C178.1562 79.8125 178.4844 80.1562 178.8906 80.1562 C179.2969 80.1562 179.6406 79.8125 179.6406 79.4219 C179.6406 79.0469 179.2969 78.6875 178.8906 78.6875 ZM180.4688 72.5781 C180.7188 72.8906 180.875 73.2656 180.8906 73.6562 C180.8906 74.1875 180.625 74.5 180.0312 74.7656 L179.4062 75.0156 C178.6406 75.3125 178.3906 75.5469 178.3906 75.9375 C178.3906 76.1094 178.4531 76.3438 178.5781 76.8125 L178.7344 77.3438 L179.1094 77.3438 L179.0938 76.5312 C179.0938 76.0938 179.2031 75.9688 179.7812 75.7344 L180.2031 75.5625 C181.0312 75.2188 181.4531 74.6875 181.4531 73.8438 C181.4531 72.1562 179.6562 71.1875 178.5 71.0312 C178.1094 71.125 177.9062 71.2969 177.9062 71.6406 C177.9062 71.9375 178.0625 72.1562 178.7188 72.2656 L180.4688 72.5781 Z" style="fill:black; stroke:none;"
      /><rect x="229" width="5" height="10" y="70" style="stroke:none;"
      /><path d="M230.8906 78.6875 C230.4844 78.6875 230.1562 79.0469 230.1562 79.4219 C230.1562 79.8125 230.4844 80.1562 230.8906 80.1562 C231.2969 80.1562 231.6406 79.8125 231.6406 79.4219 C231.6406 79.0469 231.2969 78.6875 230.8906 78.6875 ZM232.4688 72.5781 C232.7188 72.8906 232.875 73.2656 232.8906 73.6562 C232.8906 74.1875 232.625 74.5 232.0312 74.7656 L231.4062 75.0156 C230.6406 75.3125 230.3906 75.5469 230.3906 75.9375 C230.3906 76.1094 230.4531 76.3438 230.5781 76.8125 L230.7344 77.3438 L231.1094 77.3438 L231.0938 76.5312 C231.0938 76.0938 231.2031 75.9688 231.7812 75.7344 L232.2031 75.5625 C233.0312 75.2188 233.4531 74.6875 233.4531 73.8438 C233.4531 72.1562 231.6562 71.1875 230.5 71.0312 C230.1094 71.125 229.9062 71.2969 229.9062 71.6406 C229.9062 71.9375 230.0625 72.1562 230.7188 72.2656 L232.4688 72.5781 Z" style="fill:black; stroke:none;"
    /></g
  ></g
></svg
>
