<?xml version="1.0"?>
<!DOCTYPE svg PUBLIC '-//W3C//DTD SVG 1.0//EN'
          'http://www.w3.org/TR/2001/REC-SVG-20010904/DTD/svg10.dtd'>
<svg xmlns:xlink="http://www.w3.org/1999/xlink" style="fill-opacity:1; color-rendering:auto; color-interpolation:auto; text-rendering:auto; stroke:black; stroke-linecap:square; stroke-miterlimit:10; shape-rendering:auto; stroke-opacity:1; fill:black; stroke-dasharray:none; font-weight:normal; stroke-width:1; font-family:'Dialog'; font-style:normal; stroke-linejoin:miter; font-size:12px; stroke-dashoffset:0; image-rendering:auto;" viewBox="0 0 455 160" xmlns="http://www.w3.org/2000/svg"
><!--Generated by the Batik Graphics2D SVG Generator--><defs id="genericDefs"
  /><g
  ><defs id="defs1"
    ><clipPath clipPathUnits="userSpaceOnUse" id="clipPath1"
      ><path d="M351 82 L373 82 L373 104 L351 104 L351 82 Z"
      /></clipPath
      ><clipPath clipPathUnits="userSpaceOnUse" id="clipPath2"
      ><path d="M299 82 L321 82 L321 104 L299 104 L299 82 Z"
      /></clipPath
      ><clipPath clipPathUnits="userSpaceOnUse" id="clipPath3"
      ><path d="M269 93 C269 99.0751 264.0751 104 258 104 C251.9249 104 247 99.0751 247 93 C247 86.9249 251.9249 82 258 82 C264.0751 82 269 86.9249 269 93 Z"
      /></clipPath
      ><clipPath clipPathUnits="userSpaceOnUse" id="clipPath4"
      ><path d="M217 119 C217 125.0751 212.0751 130 206 130 C199.9249 130 195 125.0751 195 119 C195 112.9249 199.9249 108 206 108 C212.0751 108 217 112.9249 217 119 Z"
      /></clipPath
      ><clipPath clipPathUnits="userSpaceOnUse" id="clipPath5"
      ><path d="M143 108 L165 108 L165 130 L143 130 L143 108 Z"
      /></clipPath
      ><clipPath clipPathUnits="userSpaceOnUse" id="clipPath6"
      ><path d="M217 67 C217 73.0751 212.0751 78 206 78 C199.9249 78 195 73.0751 195 67 C195 60.9249 199.9249 56 206 56 C212.0751 56 217 60.9249 217 67 Z"
      /></clipPath
      ><clipPath clipPathUnits="userSpaceOnUse" id="clipPath7"
      ><path d="M143 56 L165 56 L165 78 L143 78 L143 56 Z"
      /></clipPath
      ><clipPath clipPathUnits="userSpaceOnUse" id="clipPath8"
      ><path style="fill-rule:evenodd;" d="M362 52 L351 30 L373 30 Z"
      /></clipPath
      ><clipPath clipPathUnits="userSpaceOnUse" id="clipPath9"
      ><path d="M47 69 L69 69 L69 91 L47 91 L47 69 Z"
      /></clipPath
    ></defs
    ><g style="fill:white; text-rendering:optimizeSpeed; stroke:white;"
    ><rect x="0" width="455" height="160" y="0" style="stroke:none;"
      /><polygon style="fill:none; stroke:black;" points=" 414 93 362 93"
      /><path d="M414 82 C408.5 87.5 419.5 98.5 414 104" style="fill:none; stroke:black;"
      /><polygon style="fill:none; stroke:black;" points=" 362 93 310 93"
      /><polygon style="fill:none; stroke:black;" points=" 362 93 362 41"
      /><rect x="351" y="82" width="22" style="clip-path:url(#clipPath1); stroke:none;" height="22"
      /><rect x="351" y="82" width="22" style="clip-path:url(#clipPath1); fill:rgb(0,144,188); stroke:none;" height="22"
      /><rect x="351" y="82" width="22" style="clip-path:url(#clipPath1); fill:none; stroke:black;" height="22"
      /><rect x="351" y="82" width="22" style="fill:none; stroke:black;" height="22"
      /><polygon style="fill:none; stroke:black;" points=" 310 93 258 93"
      /><rect x="299" y="82" width="22" style="clip-path:url(#clipPath2); stroke:none;" height="22"
      /><rect x="299" y="82" width="22" style="clip-path:url(#clipPath2); fill:rgb(0,144,188); stroke:none;" height="22"
      /><rect x="299" y="82" width="22" style="clip-path:url(#clipPath2); fill:none; stroke:black;" height="22"
      /><rect x="299" y="82" width="22" style="fill:none; stroke:black;" height="22"
      /><polygon style="fill:none; stroke:black;" points=" 258 93 206 119"
      /><polygon style="fill:none; stroke:black;" points=" 258 93 206 67"
      /><circle style="clip-path:url(#clipPath3); stroke:none;" r="11" cx="258" cy="93"
      /><rect x="247" y="82" width="22" style="clip-path:url(#clipPath3); fill:rgb(0,166,81); stroke:none;" height="22"
      /><rect x="247" y="82" width="22" style="clip-path:url(#clipPath3); fill:none; stroke:black;" height="22"
      /><circle style="fill:none; stroke:black;" r="11" cx="258" cy="93"
      /><polygon style="fill:none; stroke:black;" points=" 206 119 154 119"
      /><circle style="clip-path:url(#clipPath4); stroke:none;" r="11" cx="206" cy="119"
      /><rect x="195" y="108" width="22" style="clip-path:url(#clipPath4); fill:rgb(0,166,81); stroke:none;" height="22"
      /><rect x="195" y="108" width="22" style="clip-path:url(#clipPath4); fill:none; stroke:black;" height="22"
      /><circle style="fill:none; stroke:black;" r="11" cx="206" cy="119"
      /><rect x="143" y="108" width="22" style="clip-path:url(#clipPath5); stroke:none;" height="22"
      /><rect x="143" y="108" width="22" style="clip-path:url(#clipPath5); fill:rgb(0,144,188); stroke:none;" height="22"
      /><rect x="143" y="108" width="22" style="clip-path:url(#clipPath5); fill:none; stroke:black;" height="22"
      /><rect x="143" y="108" width="22" style="fill:none; stroke:black;" height="22"
      /><rect x="184" y="122" width="6" style="stroke:none;" height="9"
    /></g
    ><g style="font-family:'Serif'; text-rendering:optimizeSpeed; "
    ><path style="stroke:none;" d="M185.4219 130.0938 C186.0781 129.375 186.7031 128.7188 187.0312 128.3438 C188.9219 126.3125 189.5312 125.4688 189.5312 124.3594 C189.5312 123.0156 188.7812 122.0781 187.1562 122.0781 C185.9062 122.0781 184.7969 122.7031 184.5938 123.9688 C184.7188 124.2031 184.9062 124.3438 185.1562 124.3438 C185.4688 124.3438 185.6562 124.1094 185.7969 123.5938 L186.0938 122.6719 C186.3906 122.5938 186.6562 122.5625 186.8906 122.5625 C187.9219 122.5625 188.5469 123.3125 188.5469 124.4219 C188.5469 125.4375 187.9844 126.4219 186.7031 127.9062 C186.125 128.5781 185.3906 129.4375 184.6406 130.2812 L184.6406 131 L189.9219 131 L189.9219 130.0938 L185.4219 130.0938 Z"
      /><rect x="170" y="120" width="6" style="fill:white; stroke:none;" height="13"
      /><path style="stroke:none;" d="M172.0938 126.2031 C172.0938 124.6562 172.75 123.8125 173.7969 123.8125 C174.7188 123.8125 175.2656 124.4531 175.2656 125.5156 C175.2656 126.7188 174.5 127.4375 173.1875 127.7031 L173.2969 128.3125 C175.2188 128.2344 175.9375 129.2188 175.9375 130.4375 C175.9375 131.625 175.2344 132.4219 173.9531 132.4219 C173.25 132.4219 172.6562 132.1562 172.0938 131.7188 L172.0938 126.2031 ZM171.2031 132.9062 L171.1094 135.375 L171.2656 135.4844 L172.1562 135.2656 L172.0156 132.0938 C172.5469 132.8438 173.3594 133.1719 174.1719 133.1719 C175.5625 133.1719 176.8594 132.2188 176.8594 130.4844 C176.8594 128.9531 175.875 128.1094 174.125 128 C175.5625 127.6094 176.1875 126.4531 176.1875 125.4844 C176.1875 124.0938 175.1562 123.3125 173.9062 123.3125 C172.2969 123.3125 171.2188 124.5469 171.2188 126.5156 L171.2031 132.9062 Z"
      /><polygon style="fill:none;" points=" 206 67 154 67"
      /><circle style="fill:white; clip-path:url(#clipPath6); stroke:none;" r="11" cx="206" cy="67"
      /><rect x="195" y="56" width="22" style="clip-path:url(#clipPath6); fill:rgb(0,166,81); stroke:none;" height="22"
      /><rect x="195" y="56" width="22" style="fill:none; clip-path:url(#clipPath6);" height="22"
      /><circle r="11" style="fill:none;" cx="206" cy="67"
      /><rect x="143" y="56" width="22" style="clip-path:url(#clipPath7); fill:white; stroke:none;" height="22"
      /><rect x="143" y="56" width="22" style="clip-path:url(#clipPath7); fill:rgb(0,144,188); stroke:none;" height="22"
      /><rect x="143" y="56" width="22" style="fill:none; clip-path:url(#clipPath7);" height="22"
      /><rect x="143" width="22" height="22" y="56" style="fill:none;"
      /><rect x="184" y="70" width="6" style="fill:white; stroke:none;" height="9"
      /><path style="stroke:none;" d="M185.4219 78.0938 C186.0781 77.375 186.7031 76.7188 187.0312 76.3438 C188.9219 74.3125 189.5312 73.4688 189.5312 72.3594 C189.5312 71.0156 188.7812 70.0781 187.1562 70.0781 C185.9062 70.0781 184.7969 70.7031 184.5938 71.9688 C184.7188 72.2031 184.9062 72.3438 185.1562 72.3438 C185.4688 72.3438 185.6562 72.1094 185.7969 71.5938 L186.0938 70.6719 C186.3906 70.5938 186.6562 70.5625 186.8906 70.5625 C187.9219 70.5625 188.5469 71.3125 188.5469 72.4219 C188.5469 73.4375 187.9844 74.4219 186.7031 75.9062 C186.125 76.5781 185.3906 77.4375 184.6406 78.2812 L184.6406 79 L189.9219 79 L189.9219 78.0938 L185.4219 78.0938 Z"
      /><rect x="170" y="68" width="6" style="fill:white; stroke:none;" height="13"
      /><path style="stroke:none;" d="M172.0938 74.2031 C172.0938 72.6562 172.75 71.8125 173.7969 71.8125 C174.7188 71.8125 175.2656 72.4531 175.2656 73.5156 C175.2656 74.7188 174.5 75.4375 173.1875 75.7031 L173.2969 76.3125 C175.2188 76.2344 175.9375 77.2188 175.9375 78.4375 C175.9375 79.625 175.2344 80.4219 173.9531 80.4219 C173.25 80.4219 172.6562 80.1562 172.0938 79.7188 L172.0938 74.2031 ZM171.2031 80.9062 L171.1094 83.375 L171.2656 83.4844 L172.1562 83.2656 L172.0156 80.0938 C172.5469 80.8438 173.3594 81.1719 174.1719 81.1719 C175.5625 81.1719 176.8594 80.2188 176.8594 78.4844 C176.8594 76.9531 175.875 76.1094 174.125 76 C175.5625 75.6094 176.1875 74.4531 176.1875 73.4844 C176.1875 72.0938 175.1562 71.3125 173.9062 71.3125 C172.2969 71.3125 171.2188 72.5469 171.2188 74.5156 L171.2031 80.9062 Z"
      /><rect x="240" y="104" width="6" style="fill:white; stroke:none;" height="10"
      /><path style="stroke:none;" d="M242.2344 105.6562 C242.5156 105.5938 242.7656 105.5625 243.0156 105.5625 C244.0625 105.5625 244.6719 106.1719 244.6719 107.2656 C244.6719 108.4375 243.9062 109.1094 242.7031 109.1094 L242.1875 109.1094 L242.1875 109.6406 L242.7969 109.6406 C244.2188 109.6406 244.9062 110.4219 244.9062 111.6406 C244.9062 112.8438 244.1719 113.6875 242.875 113.6875 C242.6094 113.6875 242.3125 113.6562 242.0156 113.5625 L241.7812 112.8125 C241.625 112.2812 241.5 112.0469 241.1406 112.0469 C240.8906 112.0469 240.7031 112.1719 240.5781 112.4219 C240.8438 113.6406 241.7812 114.1719 243.0312 114.1719 C244.7188 114.1719 245.875 113.125 245.875 111.7031 C245.875 110.5 245.2031 109.625 243.7969 109.375 C244.9531 109.0156 245.6094 108.2031 245.6094 107.2031 C245.6094 105.9219 244.6719 105.0781 243.1875 105.0781 C242.0469 105.0781 241.0625 105.5938 240.7969 106.6875 C240.9062 107 241.1094 107.1094 241.3594 107.1094 C241.7344 107.1094 241.8906 106.8906 242 106.4062 L242.2344 105.6562 Z"
      /><rect x="223" y="113" width="8" style="fill:white; stroke:none;" height="8"
      /><path style="stroke:none;" d="M227.9844 118.7031 C227.9375 119.8906 227.1562 120.6562 226.3125 120.6562 C225.2656 120.6562 224.5 119.6875 224.5 117.7188 C224.5 116.2812 225.1562 115.1562 226.3438 115.1562 C227.1406 115.1562 227.7812 115.6875 228.0938 116.6406 L227.9844 118.7031 ZM229.9062 120.2812 C229.7344 120.375 229.5469 120.4219 229.3438 120.4219 C228.9531 120.4219 228.75 120.2188 228.75 119.4219 C228.75 118.4844 228.9688 116.5312 229.1875 114.8281 L229.0312 114.7188 L228.2344 114.9219 L228.1406 115.7969 C227.7812 115.0312 227.1562 114.6562 226.3906 114.6562 C225.0469 114.6562 223.5625 115.8438 223.5625 117.9531 C223.5625 120.0938 224.7188 121.1719 226.1406 121.1719 C227.0156 121.1719 227.6875 120.8125 228.0938 119.9844 C228.2031 120.8594 228.5156 121.1719 229.0156 121.1719 C229.4688 121.1719 229.7969 120.9062 230.0156 120.5625 L229.9062 120.2812 Z"
      /><rect x="233" y="86" width="6" style="fill:white; stroke:none;" height="10"
      /><path style="stroke:none;" d="M236.3438 95.6875 C235.2031 95.6875 234.5312 94.5 234.5312 92.2969 C234.5312 92.2188 234.5312 92.125 234.5312 92.0469 C235.0938 91.5 235.7188 91.3125 236.3438 91.3125 C237.3125 91.3125 237.9531 91.9844 237.9531 93.4531 C237.9531 94.9375 237.3125 95.6875 236.3438 95.6875 ZM238.5312 87.0781 C235.3438 87.4531 233.5625 89.7656 233.5625 92.4531 C233.5625 94.7812 234.6094 96.1719 236.3125 96.1719 C237.8438 96.1719 238.9219 95.1094 238.9219 93.2812 C238.9219 91.6875 237.9688 90.6562 236.5625 90.6562 C235.8281 90.6562 235.1406 90.9844 234.5781 91.5781 C234.7969 89.4062 236.0781 87.9688 238.5938 87.3906 L238.5312 87.0781 Z"
      /><rect x="216" y="79" width="8" style="fill:white; stroke:none;" height="8"
      /><path style="stroke:none;" d="M220.9844 84.7031 C220.9375 85.8906 220.1562 86.6562 219.3125 86.6562 C218.2656 86.6562 217.5 85.6875 217.5 83.7188 C217.5 82.2812 218.1562 81.1562 219.3438 81.1562 C220.1406 81.1562 220.7812 81.6875 221.0938 82.6406 L220.9844 84.7031 ZM222.9062 86.2812 C222.7344 86.375 222.5469 86.4219 222.3438 86.4219 C221.9531 86.4219 221.75 86.2188 221.75 85.4219 C221.75 84.4844 221.9688 82.5312 222.1875 80.8281 L222.0312 80.7188 L221.2344 80.9219 L221.1406 81.7969 C220.7812 81.0312 220.1562 80.6562 219.3906 80.6562 C218.0469 80.6562 216.5625 81.8438 216.5625 83.9531 C216.5625 86.0938 217.7188 87.1719 219.1406 87.1719 C220.0156 87.1719 220.6875 86.8125 221.0938 85.9844 C221.2031 86.8594 221.5156 87.1719 222.0156 87.1719 C222.4688 87.1719 222.7969 86.9062 223.0156 86.5625 L222.9062 86.2812 Z"
      /><rect x="287" y="96" width="7" style="fill:white; stroke:none;" height="9"
      /><path style="stroke:none;" d="M288 101.5156 L290.9531 97.2656 L290.9531 101.5156 L288 101.5156 ZM293.2812 101.5156 L291.8594 101.5156 L291.8594 96.125 L291.2344 96.125 L287.3438 101.6406 L287.3438 102.1875 L290.9531 102.1875 L290.9531 105 L291.8594 105 L291.8594 102.1875 L293.2812 102.1875 L293.2812 101.5156 Z"
      /><rect x="274" y="94" width="6" style="fill:white; stroke:none;" height="13"
      /><path style="stroke:none;" d="M276.0938 100.2031 C276.0938 98.6562 276.75 97.8125 277.7969 97.8125 C278.7188 97.8125 279.2656 98.4531 279.2656 99.5156 C279.2656 100.7188 278.5 101.4375 277.1875 101.7031 L277.2969 102.3125 C279.2188 102.2344 279.9375 103.2188 279.9375 104.4375 C279.9375 105.625 279.2344 106.4219 277.9531 106.4219 C277.25 106.4219 276.6562 106.1562 276.0938 105.7188 L276.0938 100.2031 ZM275.2031 106.9062 L275.1094 109.375 L275.2656 109.4844 L276.1562 109.2656 L276.0156 106.0938 C276.5469 106.8438 277.3594 107.1719 278.1719 107.1719 C279.5625 107.1719 280.8594 106.2188 280.8594 104.4844 C280.8594 102.9531 279.875 102.1094 278.125 102 C279.5625 101.6094 280.1875 100.4531 280.1875 99.4844 C280.1875 98.0938 279.1562 97.3125 277.9062 97.3125 C276.2969 97.3125 275.2188 98.5469 275.2188 100.5156 L275.2031 106.9062 Z"
      /><polygon style="fill:white; clip-path:url(#clipPath8); stroke:none;" points=" 362 52 351 30 373 30"
      /><rect x="351" y="30" width="22" style="clip-path:url(#clipPath8); fill:rgb(237,28,36); stroke:none;" height="22"
      /><rect x="351" y="30" width="22" style="fill:none; clip-path:url(#clipPath8);" height="22"
      /><polygon style="fill:none;" points=" 362 52 351 30 373 30"
      /><rect x="339" y="96" width="7" style="fill:white; stroke:none;" height="9"
      /><path style="stroke:none;" d="M340 101.5156 L342.9531 97.2656 L342.9531 101.5156 L340 101.5156 ZM345.2812 101.5156 L343.8594 101.5156 L343.8594 96.125 L343.2344 96.125 L339.3438 101.6406 L339.3438 102.1875 L342.9531 102.1875 L342.9531 105 L343.8594 105 L343.8594 102.1875 L345.2812 102.1875 L345.2812 101.5156 Z"
      /><rect x="326" y="94" width="6" style="fill:white; stroke:none;" height="13"
      /><path style="stroke:none;" d="M328.0938 100.2031 C328.0938 98.6562 328.75 97.8125 329.7969 97.8125 C330.7188 97.8125 331.2656 98.4531 331.2656 99.5156 C331.2656 100.7188 330.5 101.4375 329.1875 101.7031 L329.2969 102.3125 C331.2188 102.2344 331.9375 103.2188 331.9375 104.4375 C331.9375 105.625 331.2344 106.4219 329.9531 106.4219 C329.25 106.4219 328.6562 106.1562 328.0938 105.7188 L328.0938 100.2031 ZM327.2031 106.9062 L327.1094 109.375 L327.2656 109.4844 L328.1562 109.2656 L328.0156 106.0938 C328.5469 106.8438 329.3594 107.1719 330.1719 107.1719 C331.5625 107.1719 332.8594 106.2188 332.8594 104.4844 C332.8594 102.9531 331.875 102.1094 330.125 102 C331.5625 101.6094 332.1875 100.4531 332.1875 99.4844 C332.1875 98.0938 331.1562 97.3125 329.9062 97.3125 C328.2969 97.3125 327.2188 98.5469 327.2188 100.5156 L327.2031 106.9062 Z"
      /><rect x="351" y="69" width="6" style="fill:white; stroke:none;" height="10"
      /><path style="stroke:none;" d="M354.3438 78.6875 C353.2031 78.6875 352.5312 77.5 352.5312 75.2969 C352.5312 75.2188 352.5312 75.125 352.5312 75.0469 C353.0938 74.5 353.7188 74.3125 354.3438 74.3125 C355.3125 74.3125 355.9531 74.9844 355.9531 76.4531 C355.9531 77.9375 355.3125 78.6875 354.3438 78.6875 ZM356.5312 70.0781 C353.3438 70.4531 351.5625 72.7656 351.5625 75.4531 C351.5625 77.7812 352.6094 79.1719 354.3125 79.1719 C355.8438 79.1719 356.9219 78.1094 356.9219 76.2812 C356.9219 74.6875 355.9688 73.6562 354.5625 73.6562 C353.8281 73.6562 353.1406 73.9844 352.5781 74.5781 C352.7969 72.4062 354.0781 70.9688 356.5938 70.3906 L356.5312 70.0781 Z"
      /><rect x="350" y="56" width="8" style="fill:white; stroke:none;" height="8"
      /><path style="stroke:none;" d="M354.9844 61.7031 C354.9375 62.8906 354.1562 63.6562 353.3125 63.6562 C352.2656 63.6562 351.5 62.6875 351.5 60.7188 C351.5 59.2812 352.1562 58.1562 353.3438 58.1562 C354.1406 58.1562 354.7812 58.6875 355.0938 59.6406 L354.9844 61.7031 ZM356.9062 63.2812 C356.7344 63.375 356.5469 63.4219 356.3438 63.4219 C355.9531 63.4219 355.75 63.2188 355.75 62.4219 C355.75 61.4844 355.9688 59.5312 356.1875 57.8281 L356.0312 57.7188 L355.2344 57.9219 L355.1406 58.7969 C354.7812 58.0312 354.1562 57.6562 353.3906 57.6562 C352.0469 57.6562 350.5625 58.8438 350.5625 60.9531 C350.5625 63.0938 351.7188 64.1719 353.1406 64.1719 C354.0156 64.1719 354.6875 63.8125 355.0938 62.9844 C355.2031 63.8594 355.5156 64.1719 356.0156 64.1719 C356.4688 64.1719 356.7969 63.9062 357.0156 63.5625 L356.9062 63.2812 Z"
      /><rect x="378" y="96" width="5" style="fill:white; stroke:none;" height="10"
      /><path style="stroke:none;" d="M379.8906 104.6875 C379.4844 104.6875 379.1562 105.0469 379.1562 105.4219 C379.1562 105.8125 379.4844 106.1562 379.8906 106.1562 C380.2969 106.1562 380.6406 105.8125 380.6406 105.4219 C380.6406 105.0469 380.2969 104.6875 379.8906 104.6875 ZM381.4688 98.5781 C381.7188 98.8906 381.875 99.2656 381.8906 99.6562 C381.8906 100.1875 381.625 100.5 381.0312 100.7656 L380.4062 101.0156 C379.6406 101.3125 379.3906 101.5469 379.3906 101.9375 C379.3906 102.1094 379.4531 102.3438 379.5781 102.8125 L379.7344 103.3438 L380.1094 103.3438 L380.0938 102.5312 C380.0938 102.0938 380.2031 101.9688 380.7812 101.7344 L381.2031 101.5625 C382.0312 101.2188 382.4531 100.6875 382.4531 99.8438 C382.4531 98.1562 380.6562 97.1875 379.5 97.0312 C379.1094 97.125 378.9062 97.2969 378.9062 97.6406 C378.9062 97.9375 379.0625 98.1562 379.7188 98.2656 L381.4688 98.5781 Z"
      /><polygon style="fill:none;" points=" 143 130 132 130 132 30 143 30 132 30 132 130"
      /><polygon style="fill:none;" points=" 110 80 58 80"
      /><rect x="47" y="69" width="22" style="clip-path:url(#clipPath9); fill:white; stroke:none;" height="22"
      /><rect x="47" y="69" width="22" style="clip-path:url(#clipPath9); fill:white; stroke:none;" height="22"
      /><rect x="47" y="69" width="22" style="fill:none; clip-path:url(#clipPath9);" height="22"
      /><rect x="47" width="22" height="22" y="69" style="fill:none;"
      /><rect x="88" y="83" width="5" style="fill:white; stroke:none;" height="10"
      /><path style="stroke:none;" d="M89.8906 91.6875 C89.4844 91.6875 89.1562 92.0469 89.1562 92.4219 C89.1562 92.8125 89.4844 93.1562 89.8906 93.1562 C90.2969 93.1562 90.6406 92.8125 90.6406 92.4219 C90.6406 92.0469 90.2969 91.6875 89.8906 91.6875 ZM91.4688 85.5781 C91.7188 85.8906 91.875 86.2656 91.8906 86.6562 C91.8906 87.1875 91.625 87.5 91.0312 87.7656 L90.4062 88.0156 C89.6406 88.3125 89.3906 88.5469 89.3906 88.9375 C89.3906 89.1094 89.4531 89.3438 89.5781 89.8125 L89.7344 90.3438 L90.1094 90.3438 L90.0938 89.5312 C90.0938 89.0938 90.2031 88.9688 90.7812 88.7344 L91.2031 88.5625 C92.0312 88.2188 92.4531 87.6875 92.4531 86.8438 C92.4531 85.1562 90.6562 84.1875 89.5 84.0312 C89.1094 84.125 88.9062 84.2969 88.9062 84.6406 C88.9062 84.9375 89.0625 85.1562 89.7188 85.2656 L91.4688 85.5781 Z"
      /><rect x="74" y="83" width="5" style="fill:white; stroke:none;" height="10"
      /><path style="stroke:none;" d="M75.8906 91.6875 C75.4844 91.6875 75.1562 92.0469 75.1562 92.4219 C75.1562 92.8125 75.4844 93.1562 75.8906 93.1562 C76.2969 93.1562 76.6406 92.8125 76.6406 92.4219 C76.6406 92.0469 76.2969 91.6875 75.8906 91.6875 ZM77.4688 85.5781 C77.7188 85.8906 77.875 86.2656 77.8906 86.6562 C77.8906 87.1875 77.625 87.5 77.0312 87.7656 L76.4062 88.0156 C75.6406 88.3125 75.3906 88.5469 75.3906 88.9375 C75.3906 89.1094 75.4531 89.3438 75.5781 89.8125 L75.7344 90.3438 L76.1094 90.3438 L76.0938 89.5312 C76.0938 89.0938 76.2031 88.9688 76.7812 88.7344 L77.2031 88.5625 C78.0312 88.2188 78.4531 87.6875 78.4531 86.8438 C78.4531 85.1562 76.6562 84.1875 75.5 84.0312 C75.1094 84.125 74.9062 84.2969 74.9062 84.6406 C74.9062 84.9375 75.0625 85.1562 75.7188 85.2656 L77.4688 85.5781 Z"
      /><path style="stroke:none;" d="M30.6094 80.1562 L32.9531 76.6562 C33.2344 76.1406 33.5156 75.6406 33.7812 75.1406 L33.8281 75.1406 C33.7969 75.6719 33.7656 76.5 33.7656 77 L33.7656 80.1562 L30.6094 80.1562 ZM33.7656 84 L34.9688 84 L34.9688 81.1719 L36.3281 81.1719 L36.3281 80.1562 L34.9688 80.1562 L34.9688 73.7188 L33.5469 73.7188 L29.2812 80.3281 L29.2812 81.1719 L33.7656 81.1719 L33.7656 84 ZM36.9731 84 L38.3168 84 L39.3481 82.2188 C39.6137 81.7656 39.8637 81.2969 40.1293 80.8594 L40.2075 80.8594 C40.4731 81.2969 40.7543 81.7656 41.0043 82.2188 L42.1293 84 L43.5356 84 L41.02 80.1562 L43.3325 76.3906 L42.0043 76.3906 L41.0668 78.0625 C40.8481 78.5 40.6137 78.9219 40.3793 79.3438 L40.3325 79.3438 C40.0668 78.9219 39.8012 78.5 39.5668 78.0625 L38.5512 76.3906 L37.1762 76.3906 L39.4887 80.0312 L36.9731 84 Z"
    /></g
  ></g
></svg
>
