<?xml version="1.0"?>
<!DOCTYPE svg PUBLIC '-//W3C//DTD SVG 1.0//EN'
          'http://www.w3.org/TR/2001/REC-SVG-20010904/DTD/svg10.dtd'>
<svg xmlns:xlink="http://www.w3.org/1999/xlink" style="fill-opacity:1; color-rendering:auto; color-interpolation:auto; text-rendering:auto; stroke:black; stroke-linecap:square; stroke-miterlimit:10; shape-rendering:auto; stroke-opacity:1; fill:black; stroke-dasharray:none; font-weight:normal; stroke-width:1; font-family:'Dialog'; font-style:normal; stroke-linejoin:miter; font-size:12px; stroke-dashoffset:0; image-rendering:auto;" viewBox="0 0 191 120" xmlns="http://www.w3.org/2000/svg"
><!--Generated by the Batik Graphics2D SVG Generator--><defs id="genericDefs"
  /><g
  ><defs id="defs1"
    ><clipPath clipPathUnits="userSpaceOnUse" id="clipPath1"
      ><path style="fill-rule:evenodd;" d="M98 53 L108 60 L104 72 L91 72 L87 60 L98 53 Z"
      /></clipPath
      ><clipPath clipPathUnits="userSpaceOnUse" id="clipPath2"
      ><path d="M54 64 C54 70.0751 49.0751 75 43 75 C36.9249 75 32 70.0751 32 64 C32 57.9249 36.9249 53 43 53 C49.0751 53 54 57.9249 54 64 Z"
      /></clipPath
    ></defs
    ><g style="fill:white; text-rendering:optimizeSpeed; stroke:white;"
    ><rect x="0" width="191" height="120" y="0" style="stroke:none;"
      /><polygon style="fill:none; stroke:black;" points=" 98 64 43 64"
      /><polygon style="clip-path:url(#clipPath1); stroke:none;" points=" 98 53 108 60 104 72 91 72 87 60 98 53"
      /><rect x="87" y="53" width="22" style="clip-path:url(#clipPath1); fill:rgb(0,166,81); stroke:none;" height="22"
      /><rect x="87" y="53" width="22" style="clip-path:url(#clipPath1); fill:none; stroke:black;" height="22"
      /><polygon style="fill:none; stroke:black;" points=" 98 53 108 60 104 72 91 72 87 60 98 53"
    /></g
    ><g style="text-rendering:optimizeSpeed; font-size:10px; font-family:'SansSerif';"
    ><path style="stroke:none;" d="M97.0625 68 L97.9844 68 L97.9844 63.3125 L99.125 63.3125 L99.125 62.5625 L97.9844 62.5625 L97.9844 61.7031 C97.9844 61.0156 98.2344 60.6406 98.75 60.6406 C98.9375 60.6406 99.1562 60.6875 99.3594 60.7812 L99.5625 60.0938 C99.3125 59.9844 98.9844 59.9062 98.6562 59.9062 C97.5625 59.9062 97.0625 60.5938 97.0625 61.7031 L97.0625 62.5625 L96.3281 62.625 L96.3281 63.3125 L97.0625 63.3125 L97.0625 68 Z"
      /><path style="stroke:none;" d="M112.8906 66.6875 C112.4844 66.6875 112.1562 67.0469 112.1562 67.4219 C112.1562 67.8125 112.4844 68.1562 112.8906 68.1562 C113.2969 68.1562 113.6406 67.8125 113.6406 67.4219 C113.6406 67.0469 113.2969 66.6875 112.8906 66.6875 ZM114.4688 60.5781 C114.7188 60.8906 114.875 61.2656 114.8906 61.6562 C114.8906 62.1875 114.625 62.5 114.0312 62.7656 L113.4062 63.0156 C112.6406 63.3125 112.3906 63.5469 112.3906 63.9375 C112.3906 64.1094 112.4531 64.3438 112.5781 64.8125 L112.7344 65.3438 L113.1094 65.3438 L113.0938 64.5312 C113.0938 64.0938 113.2031 63.9688 113.7812 63.7344 L114.2031 63.5625 C115.0312 63.2188 115.4531 62.6875 115.4531 61.8438 C115.4531 60.1562 113.6562 59.1875 112.5 59.0312 C112.1094 59.125 111.9062 59.2969 111.9062 59.6406 C111.9062 59.9375 112.0625 60.1562 112.7188 60.2656 L114.4688 60.5781 Z"
    /></g
    ><g style="fill:white; text-rendering:optimizeSpeed; stroke:white;"
    ><circle r="11" style="clip-path:url(#clipPath2); stroke:none;" cx="43" cy="64"
      /><rect x="32" y="53" width="22" style="clip-path:url(#clipPath2); fill:rgb(0,144,188); stroke:none;" height="22"
      /><rect x="32" y="53" width="22" style="clip-path:url(#clipPath2); fill:none; stroke:black;" height="22"
      /><circle r="11" style="fill:none; stroke:black;" cx="43" cy="64"
      /><rect x="29" width="26" height="10" y="35" style="stroke:none;"
    /></g
    ><g style="text-rendering:optimizeSpeed; font-size:14px; font-family:'SansSerif';"
    ><path style="stroke:none;" d="M30.6094 42.1562 L32.9531 38.6562 C33.2344 38.1406 33.5156 37.6406 33.7812 37.1406 L33.8281 37.1406 C33.7969 37.6719 33.7656 38.5 33.7656 39 L33.7656 42.1562 L30.6094 42.1562 ZM33.7656 46 L34.9688 46 L34.9688 43.1719 L36.3281 43.1719 L36.3281 42.1562 L34.9688 42.1562 L34.9688 35.7188 L33.5469 35.7188 L29.2812 42.3281 L29.2812 43.1719 L33.7656 43.1719 L33.7656 46 ZM38.1762 46 L39.3481 46 L39.3481 40.3125 C39.3481 39.4375 39.2543 38.1875 39.1918 37.2969 L39.2543 37.2969 L40.0668 39.625 L42.0043 44.9688 L42.8793 44.9688 L44.8168 39.625 L45.6293 37.2969 L45.6918 37.2969 C45.6137 38.1875 45.52 39.4375 45.52 40.3125 L45.52 46 L46.7387 46 L46.7387 35.7188 L45.1762 35.7188 L43.2075 41.2188 C42.9731 41.9375 42.7543 42.6562 42.5043 43.375 L42.4418 43.375 C42.1918 42.6562 41.9575 41.9375 41.7075 41.2188 L39.7387 35.7188 L38.1762 35.7188 L38.1762 46 ZM52.4973 46.1875 C53.5285 46.1875 54.341 45.8281 55.0129 45.3906 L54.5442 44.5625 C53.9973 44.9375 53.3879 45.1562 52.6535 45.1562 C51.2004 45.1562 50.216 44.125 50.1223 42.5 L55.2473 42.5 C55.2785 42.3125 55.3098 42.0469 55.3098 41.7656 C55.3098 39.6094 54.216 38.2031 52.2785 38.2031 C50.5129 38.2031 48.8567 39.7344 48.8567 42.2031 C48.8567 44.7188 50.4817 46.1875 52.4973 46.1875 ZM50.1067 41.5781 C50.2629 40.0938 51.216 39.2188 52.2942 39.2188 C53.4817 39.2188 54.1848 40.0469 54.1848 41.5781 L50.1067 41.5781 Z"
    /></g
    ><g style="fill:white; text-rendering:optimizeSpeed; font-family:'Serif'; stroke:white;"
    ><rect x="76" width="6" height="9" y="67" style="stroke:none;"
      /><path d="M77.4219 75.0938 C78.0781 74.375 78.7031 73.7188 79.0312 73.3438 C80.9219 71.3125 81.5312 70.4688 81.5312 69.3594 C81.5312 68.0156 80.7812 67.0781 79.1562 67.0781 C77.9062 67.0781 76.7969 67.7031 76.5938 68.9688 C76.7188 69.2031 76.9062 69.3438 77.1562 69.3438 C77.4688 69.3438 77.6562 69.1094 77.7969 68.5938 L78.0938 67.6719 C78.3906 67.5938 78.6562 67.5625 78.8906 67.5625 C79.9219 67.5625 80.5469 68.3125 80.5469 69.4219 C80.5469 70.4375 79.9844 71.4219 78.7031 72.9062 C78.125 73.5781 77.3906 74.4375 76.6406 75.2812 L76.6406 76 L81.9219 76 L81.9219 75.0938 L77.4219 75.0938 Z" style="fill:black; stroke:none;"
      /><rect x="61" width="8" height="8" y="68" style="stroke:none;"
      /><path d="M65.9844 73.7031 C65.9375 74.8906 65.1562 75.6562 64.3125 75.6562 C63.2656 75.6562 62.5 74.6875 62.5 72.7188 C62.5 71.2812 63.1562 70.1562 64.3438 70.1562 C65.1406 70.1562 65.7812 70.6875 66.0938 71.6406 L65.9844 73.7031 ZM67.9062 75.2812 C67.7344 75.375 67.5469 75.4219 67.3438 75.4219 C66.9531 75.4219 66.75 75.2188 66.75 74.4219 C66.75 73.4844 66.9688 71.5312 67.1875 69.8281 L67.0312 69.7188 L66.2344 69.9219 L66.1406 70.7969 C65.7812 70.0312 65.1562 69.6562 64.3906 69.6562 C63.0469 69.6562 61.5625 70.8438 61.5625 72.9531 C61.5625 75.0938 62.7188 76.1719 64.1406 76.1719 C65.0156 76.1719 65.6875 75.8125 66.0938 74.9844 C66.2031 75.8594 66.5156 76.1719 67.0156 76.1719 C67.4688 76.1719 67.7969 75.9062 68.0156 75.5625 L67.9062 75.2812 Z" style="fill:black; stroke:none;"
    /></g
  ></g
></svg
>
