<?xml version="1.0"?>
<!DOCTYPE svg PUBLIC '-//W3C//DTD SVG 1.0//EN'
          'http://www.w3.org/TR/2001/REC-SVG-20010904/DTD/svg10.dtd'>
<svg xmlns:xlink="http://www.w3.org/1999/xlink" style="fill-opacity:1; color-rendering:auto; color-interpolation:auto; text-rendering:auto; stroke:black; stroke-linecap:square; stroke-miterlimit:10; shape-rendering:auto; stroke-opacity:1; fill:black; stroke-dasharray:none; font-weight:normal; stroke-width:1; font-family:'Dialog'; font-style:normal; stroke-linejoin:miter; font-size:12px; stroke-dashoffset:0; image-rendering:auto;" viewBox="0 0 149 203" xmlns="http://www.w3.org/2000/svg"
><!--Generated by the Batik Graphics2D SVG Generator--><defs id="genericDefs"
  /><g
  ><defs id="defs1"
    ><clipPath clipPathUnits="userSpaceOnUse" id="clipPath1"
      ><path d="M41 151 L63 151 L63 173 L41 173 L41 151 Z"
      /></clipPath
      ><clipPath clipPathUnits="userSpaceOnUse" id="clipPath2"
      ><path style="fill-rule:evenodd;" d="M52 53 L62 60 L58 72 L45 72 L41 60 L52 53 Z"
      /></clipPath
    ></defs
    ><g style="fill:white; text-rendering:optimizeSpeed; stroke:white;"
    ><rect x="0" width="149" height="203" y="0" style="stroke:none;"
      /><rect x="41" y="151" width="22" style="clip-path:url(#clipPath1); stroke:none;" height="22"
      /><rect x="41" y="151" width="22" style="clip-path:url(#clipPath1); fill:rgb(255,212,0); stroke:none;" height="22"
      /><rect x="41" y="151" width="22" style="clip-path:url(#clipPath1); fill:none; stroke:black;" height="22"
      /><rect x="41" y="151" width="22" style="fill:none; stroke:black;" height="22"
      /><rect x="33" y="133" width="15" style="stroke:none;" height="10"
    /></g
    ><g style="text-rendering:optimizeSpeed; font-size:14px; font-family:'SansSerif';"
    ><path style="stroke:none;" d="M34.6094 140.1562 L36.9531 136.6562 C37.2344 136.1406 37.5156 135.6406 37.7812 135.1406 L37.8281 135.1406 C37.7969 135.6719 37.7656 136.5 37.7656 137 L37.7656 140.1562 L34.6094 140.1562 ZM37.7656 144 L38.9688 144 L38.9688 141.1719 L40.3281 141.1719 L40.3281 140.1562 L38.9688 140.1562 L38.9688 133.7188 L37.5469 133.7188 L33.2812 140.3281 L33.2812 141.1719 L37.7656 141.1719 L37.7656 144 ZM45.02 144.1875 C47.1606 144.1875 48.5043 142.8906 48.5043 141.2656 C48.5043 139.75 47.5825 139.0469 46.395 138.5312 L44.9262 137.8906 C44.1293 137.5625 43.2387 137.1875 43.2387 136.1875 C43.2387 135.2656 43.9887 134.6719 45.145 134.6719 C46.0981 134.6719 46.8637 135.0469 47.4887 135.6406 L48.1762 134.8125 C47.4418 134.0625 46.3637 133.5469 45.145 133.5469 C43.2856 133.5469 41.9106 134.6875 41.9106 136.2656 C41.9106 137.7656 43.0512 138.5 44.0043 138.9062 L45.4887 139.5469 C46.4575 139.9844 47.1918 140.3125 47.1918 141.375 C47.1918 142.375 46.3793 143.0469 45.0356 143.0469 C43.9731 143.0469 42.9418 142.5469 42.2075 141.7812 L41.4262 142.6562 C42.3168 143.5938 43.5668 144.1875 45.02 144.1875 Z"
      /><rect x="56" y="133" width="14" style="fill:white; stroke:none;" height="10"
      /><path style="stroke:none;" d="M60.1094 138.5781 C61.3438 138.5781 61.9688 139.4688 61.9688 140.8438 C61.9688 142.25 61.1875 143.1875 60.2188 143.1875 C58.9219 143.1875 58.1562 142.0312 58 139.8906 C58.625 138.9531 59.4531 138.5781 60.1094 138.5781 ZM60.2188 144.1875 C61.8125 144.1875 63.1562 142.8438 63.1562 140.8438 C63.1562 138.7031 62.0469 137.625 60.3125 137.625 C59.5 137.625 58.6094 138.1094 57.9688 138.875 C58.0312 135.6875 59.2188 134.6094 60.625 134.6094 C61.25 134.6094 61.8594 134.9062 62.2656 135.3906 L62.9688 134.5938 C62.4062 133.9844 61.6406 133.5469 60.5781 133.5469 C58.5938 133.5469 56.7812 135.0781 56.7812 139.0938 C56.7812 142.4844 58.2344 144.1875 60.2188 144.1875 ZM68.02 144.1875 C70.1606 144.1875 71.5043 142.8906 71.5043 141.2656 C71.5043 139.75 70.5825 139.0469 69.395 138.5312 L67.9262 137.8906 C67.1293 137.5625 66.2387 137.1875 66.2387 136.1875 C66.2387 135.2656 66.9887 134.6719 68.145 134.6719 C69.0981 134.6719 69.8637 135.0469 70.4887 135.6406 L71.1762 134.8125 C70.4418 134.0625 69.3637 133.5469 68.145 133.5469 C66.2856 133.5469 64.9106 134.6875 64.9106 136.2656 C64.9106 137.7656 66.0512 138.5 67.0043 138.9062 L68.4887 139.5469 C69.4575 139.9844 70.1918 140.3125 70.1918 141.375 C70.1918 142.375 69.3793 143.0469 68.0356 143.0469 C66.9731 143.0469 65.9418 142.5469 65.2075 141.7812 L64.4262 142.6562 C65.3168 143.5938 66.5668 144.1875 68.02 144.1875 Z"
    /></g
    ><g style="fill:white; text-rendering:optimizeSpeed; font-family:'Serif'; stroke:white;"
    ><rect x="80" width="5" height="10" y="149" style="stroke:none;"
      /><path d="M81.8906 157.6875 C81.4844 157.6875 81.1562 158.0469 81.1562 158.4219 C81.1562 158.8125 81.4844 159.1562 81.8906 159.1562 C82.2969 159.1562 82.6406 158.8125 82.6406 158.4219 C82.6406 158.0469 82.2969 157.6875 81.8906 157.6875 ZM83.4688 151.5781 C83.7188 151.8906 83.875 152.2656 83.8906 152.6562 C83.8906 153.1875 83.625 153.5 83.0312 153.7656 L82.4062 154.0156 C81.6406 154.3125 81.3906 154.5469 81.3906 154.9375 C81.3906 155.1094 81.4531 155.3438 81.5781 155.8125 L81.7344 156.3438 L82.1094 156.3438 L82.0938 155.5312 C82.0938 155.0938 82.2031 154.9688 82.7812 154.7344 L83.2031 154.5625 C84.0312 154.2188 84.4531 153.6875 84.4531 152.8438 C84.4531 151.1562 82.6562 150.1875 81.5 150.0312 C81.1094 150.125 80.9062 150.2969 80.9062 150.6406 C80.9062 150.9375 81.0625 151.1562 81.7188 151.2656 L83.4688 151.5781 Z" style="fill:black; stroke:none;"
      /><rect x="80" width="5" height="10" y="165" style="stroke:none;"
      /><path d="M81.8906 173.6875 C81.4844 173.6875 81.1562 174.0469 81.1562 174.4219 C81.1562 174.8125 81.4844 175.1562 81.8906 175.1562 C82.2969 175.1562 82.6406 174.8125 82.6406 174.4219 C82.6406 174.0469 82.2969 173.6875 81.8906 173.6875 ZM83.4688 167.5781 C83.7188 167.8906 83.875 168.2656 83.8906 168.6562 C83.8906 169.1875 83.625 169.5 83.0312 169.7656 L82.4062 170.0156 C81.6406 170.3125 81.3906 170.5469 81.3906 170.9375 C81.3906 171.1094 81.4531 171.3438 81.5781 171.8125 L81.7344 172.3438 L82.1094 172.3438 L82.0938 171.5312 C82.0938 171.0938 82.2031 170.9688 82.7812 170.7344 L83.2031 170.5625 C84.0312 170.2188 84.4531 169.6875 84.4531 168.8438 C84.4531 167.1562 82.6562 166.1875 81.5 166.0312 C81.1094 166.125 80.9062 166.2969 80.9062 166.6406 C80.9062 166.9375 81.0625 167.1562 81.7188 167.2656 L83.4688 167.5781 Z" style="fill:black; stroke:none;"
      /><polygon style="clip-path:url(#clipPath2); stroke:none;" points=" 52 53 62 60 58 72 45 72 41 60 52 53"
      /><rect x="41" y="53" width="22" style="clip-path:url(#clipPath2); stroke:none;" height="22"
      /><rect x="41" y="53" width="22" style="clip-path:url(#clipPath2); fill:none; stroke:black;" height="22"
      /><polygon style="fill:none; stroke:black;" points=" 52 53 62 60 58 72 45 72 41 60 52 53"
    /></g
    ><g style="text-rendering:optimizeSpeed; font-size:14px; font-family:'SansSerif';"
    ><path style="stroke:none;" d="M50.2344 69 L55.8594 69 L55.8594 67.9375 L53.7969 67.9375 L53.7969 58.7188 L52.8281 58.7188 C52.2656 59.0625 51.6094 59.2969 50.6875 59.4688 L50.6875 60.2812 L52.5156 60.2812 L52.5156 67.9375 L50.2344 67.9375 L50.2344 69 Z"
      /><rect x="44" y="81" width="14" style="fill:white; stroke:none;" height="10"
      /><path style="stroke:none;" d="M44.6094 92 L51.0625 92 L51.0625 90.8906 L48.2344 90.8906 C47.7031 90.8906 47.0781 90.9531 46.5469 90.9844 C48.9531 88.7031 50.5625 86.625 50.5625 84.5781 C50.5625 82.75 49.4219 81.5469 47.5781 81.5469 C46.2812 81.5469 45.4062 82.1406 44.5625 83.0469 L45.2969 83.7812 C45.8594 83.1094 46.5938 82.5938 47.4375 82.5938 C48.7031 82.5938 49.3125 83.4531 49.3125 84.625 C49.3125 86.3906 47.8438 88.4375 44.6094 91.25 L44.6094 92 ZM56.02 92.1875 C58.1606 92.1875 59.5043 90.8906 59.5043 89.2656 C59.5043 87.75 58.5825 87.0469 57.395 86.5312 L55.9262 85.8906 C55.1293 85.5625 54.2387 85.1875 54.2387 84.1875 C54.2387 83.2656 54.9887 82.6719 56.145 82.6719 C57.0981 82.6719 57.8637 83.0469 58.4887 83.6406 L59.1762 82.8125 C58.4418 82.0625 57.3637 81.5469 56.145 81.5469 C54.2856 81.5469 52.9106 82.6875 52.9106 84.2656 C52.9106 85.7656 54.0512 86.5 55.0043 86.9062 L56.4887 87.5469 C57.4575 87.9844 58.1918 88.3125 58.1918 89.375 C58.1918 90.375 57.3793 91.0469 56.0356 91.0469 C54.9731 91.0469 53.9418 90.5469 53.2075 89.7812 L52.4262 90.6562 C53.3168 91.5938 54.5668 92.1875 56.02 92.1875 Z"
      /><rect x="34" y="34" width="34" style="fill:white; stroke:none;" height="12"
      /><path style="stroke:none;" d="M37.6562 47.1875 C39.3906 47.1875 41.0156 45.9062 41.0156 43.6562 C41.0156 41.4062 39.625 40.3906 37.9219 40.3906 C37.2969 40.3906 36.8594 40.5469 36.3906 40.7969 L36.6406 37.8281 L40.5312 37.8281 L40.5312 36.7188 L35.5312 36.7188 L35.2031 41.5469 L35.8906 41.9531 C36.4844 41.5625 36.9062 41.3594 37.5938 41.3594 C38.8906 41.3594 39.7188 42.2188 39.7188 43.7031 C39.7188 45.1875 38.75 46.125 37.5469 46.125 C36.3594 46.125 35.6094 45.5781 35.0156 44.9844 L34.3906 45.8281 C35.0781 46.5156 36.0625 47.1875 37.6562 47.1875 ZM42.8168 49.6562 C44.0825 49.125 44.8637 48.0781 44.8637 46.7344 C44.8637 45.7969 44.4575 45.2188 43.7856 45.2188 C43.27 45.2188 42.8168 45.5781 42.8168 46.125 C42.8168 46.7031 43.27 47.0156 43.7543 47.0156 C43.8168 47.0156 43.8637 47.0156 43.9106 47 C43.9106 47.8281 43.395 48.5156 42.5043 48.9062 L42.8168 49.6562 ZM47.2713 43.1562 L49.6151 39.6562 C49.8963 39.1406 50.1776 38.6406 50.4432 38.1406 L50.4901 38.1406 C50.4588 38.6719 50.4276 39.5 50.4276 40 L50.4276 43.1562 L47.2713 43.1562 ZM50.4276 47 L51.6307 47 L51.6307 44.1719 L52.9901 44.1719 L52.9901 43.1562 L51.6307 43.1562 L51.6307 36.7188 L50.2088 36.7188 L45.9432 43.3281 L45.9432 44.1719 L50.4276 44.1719 L50.4276 47 ZM57.7913 47.1875 C58.8226 47.1875 59.6351 46.8281 60.3069 46.3906 L59.8382 45.5625 C59.2913 45.9375 58.6819 46.1562 57.9476 46.1562 C56.4944 46.1562 55.5101 45.125 55.4163 43.5 L60.5413 43.5 C60.5726 43.3125 60.6038 43.0469 60.6038 42.7656 C60.6038 40.6094 59.5101 39.2031 57.5726 39.2031 C55.8069 39.2031 54.1507 40.7344 54.1507 43.2031 C54.1507 45.7188 55.7757 47.1875 57.7913 47.1875 ZM55.4007 42.5781 C55.5569 41.0938 56.5101 40.2188 57.5882 40.2188 C58.7757 40.2188 59.4788 41.0469 59.4788 42.5781 L55.4007 42.5781 ZM62.4691 47 L63.7504 47 L63.7504 41.4844 C64.516 40.7188 65.0473 40.3281 65.8285 40.3281 C66.8441 40.3281 67.2816 40.9219 67.2816 42.3594 L67.2816 47 L68.5473 47 L68.5473 42.1875 C68.5473 40.2344 67.8285 39.2031 66.2348 39.2031 C65.1879 39.2031 64.4066 39.7812 63.6723 40.4844 L63.641 40.4844 L63.5316 39.3906 L62.4691 39.3906 L62.4691 47 Z"
    /></g
    ><g style="fill:white; text-rendering:optimizeSpeed; font-family:'Serif'; stroke:white;"
    ><rect x="75" width="5" height="10" y="51" style="stroke:none;"
      /><path d="M76.8906 59.6875 C76.4844 59.6875 76.1562 60.0469 76.1562 60.4219 C76.1562 60.8125 76.4844 61.1562 76.8906 61.1562 C77.2969 61.1562 77.6406 60.8125 77.6406 60.4219 C77.6406 60.0469 77.2969 59.6875 76.8906 59.6875 ZM78.4688 53.5781 C78.7188 53.8906 78.875 54.2656 78.8906 54.6562 C78.8906 55.1875 78.625 55.5 78.0312 55.7656 L77.4062 56.0156 C76.6406 56.3125 76.3906 56.5469 76.3906 56.9375 C76.3906 57.1094 76.4531 57.3438 76.5781 57.8125 L76.7344 58.3438 L77.1094 58.3438 L77.0938 57.5312 C77.0938 57.0938 77.2031 56.9688 77.7812 56.7344 L78.2031 56.5625 C79.0312 56.2188 79.4531 55.6875 79.4531 54.8438 C79.4531 53.1562 77.6562 52.1875 76.5 52.0312 C76.1094 52.125 75.9062 52.2969 75.9062 52.6406 C75.9062 52.9375 76.0625 53.1562 76.7188 53.2656 L78.4688 53.5781 Z" style="fill:black; stroke:none;"
      /><rect x="75" width="5" height="10" y="67" style="stroke:none;"
      /><path d="M76.8906 75.6875 C76.4844 75.6875 76.1562 76.0469 76.1562 76.4219 C76.1562 76.8125 76.4844 77.1562 76.8906 77.1562 C77.2969 77.1562 77.6406 76.8125 77.6406 76.4219 C77.6406 76.0469 77.2969 75.6875 76.8906 75.6875 ZM78.4688 69.5781 C78.7188 69.8906 78.875 70.2656 78.8906 70.6562 C78.8906 71.1875 78.625 71.5 78.0312 71.7656 L77.4062 72.0156 C76.6406 72.3125 76.3906 72.5469 76.3906 72.9375 C76.3906 73.1094 76.4531 73.3438 76.5781 73.8125 L76.7344 74.3438 L77.1094 74.3438 L77.0938 73.5312 C77.0938 73.0938 77.2031 72.9688 77.7812 72.7344 L78.2031 72.5625 C79.0312 72.2188 79.4531 71.6875 79.4531 70.8438 C79.4531 69.1562 77.6562 68.1875 76.5 68.0312 C76.1094 68.125 75.9062 68.2969 75.9062 68.6406 C75.9062 68.9375 76.0625 69.1562 76.7188 69.2656 L78.4688 69.5781 Z" style="fill:black; stroke:none;"
    /></g
    ><g ID="legend-1:0" style="text-rendering:optimizeSpeed; font-size:10px; font-family:'SansSerif';"
    ><path style="stroke:none;" d="M30.875 188 L34.9062 188 L34.9062 187.2344 L33.4375 187.2344 L33.4375 180.6562 L32.7344 180.6562 C32.3281 180.9062 31.8594 181.0625 31.2031 181.1875 L31.2031 181.7656 L32.5156 181.7656 L32.5156 187.2344 L30.875 187.2344 L30.875 188 ZM35.925 183.4531 L40.7219 183.4531 L40.7219 182.7656 L35.925 182.7656 L35.925 183.4531 ZM35.925 185.8438 L40.7219 185.8438 L40.7219 185.1719 L35.925 185.1719 L35.925 185.8438 ZM42.1 188 L46.225 188 L46.225 187.2031 L43.0375 187.2031 L43.0375 180.6562 L42.1 180.6562 L42.1 188 ZM46.9831 185.5469 L49.5456 185.5469 L49.5456 184.8438 L46.9831 184.8438 L46.9831 185.5469 ZM52.625 188.125 C52.9531 188.125 53.3125 188.0312 53.625 187.9375 L53.4531 187.25 C53.2656 187.3125 53.0156 187.3906 52.8281 187.3906 C52.2031 187.3906 51.9843 187.0156 51.9843 186.3438 L51.9843 183.3125 L53.4531 183.3125 L53.4531 182.5625 L51.9843 182.5625 L51.9843 181.0469 L51.2343 181.0469 L51.125 182.5625 L50.2656 182.625 L50.2656 183.3125 L51.0781 183.3125 L51.0781 186.3125 C51.0781 187.4062 51.4687 188.125 52.625 188.125 ZM54.6918 188 L55.5981 188 L55.5981 184.0625 C56.145 183.5156 56.5356 183.2344 57.0825 183.2344 C57.8168 183.2344 58.1137 183.6562 58.1137 184.6875 L58.1137 188 L59.0356 188 L59.0356 184.5625 C59.0356 183.1719 58.5043 182.4375 57.3637 182.4375 C56.6293 182.4375 56.0668 182.8438 55.5668 183.3438 L55.5981 182.2188 L55.5981 180.0469 L54.6918 180.0469 L54.6918 188 ZM60.7618 188 L61.6681 188 L61.6681 184.5156 C62.0275 183.5781 62.59 183.2656 63.0431 183.2656 C63.2618 183.2656 63.3868 183.2812 63.5743 183.3438 L63.7462 182.5469 C63.5743 182.4531 63.4025 182.4375 63.1525 182.4375 C62.5431 182.4375 61.9962 182.875 61.6212 183.5625 L61.59 183.5625 L61.5118 182.5625 L60.7618 182.5625 L60.7618 188 ZM64.7199 188 L65.6574 188 L65.6574 184.5469 L69.0637 184.5469 L69.0637 188 L69.9856 188 L69.9856 180.6562 L69.0637 180.6562 L69.0637 183.7344 L65.6574 183.7344 L65.6574 180.6562 L64.7199 180.6562 L64.7199 188 ZM74.1093 188.125 C74.8437 188.125 75.4374 187.875 75.9062 187.5625 L75.5781 186.9688 C75.1874 187.2344 74.7499 187.4062 74.2187 187.4062 C73.1874 187.4062 72.4843 186.6562 72.4218 185.5 L76.0781 185.5 C76.0937 185.375 76.1249 185.1875 76.1249 184.9844 C76.1249 183.4375 75.3437 182.4375 73.9531 182.4375 C72.7031 182.4375 71.5156 183.5312 71.5156 185.2969 C71.5156 187.0781 72.6718 188.125 74.1093 188.125 ZM72.4062 184.8438 C72.5156 183.7812 73.2031 183.1562 73.9687 183.1562 C74.8124 183.1562 75.3124 183.75 75.3124 184.8438 L72.4062 184.8438 ZM76.6962 188 L77.6493 188 L78.3837 186.7344 C78.5712 186.4062 78.7431 186.0625 78.9462 185.7656 L78.9931 185.7656 C79.1962 186.0625 79.3837 186.4062 79.5712 186.7344 L80.3681 188 L81.3681 188 L79.5868 185.2656 L81.2274 182.5625 L80.2743 182.5625 L79.6024 183.7656 C79.4462 184.0625 79.2899 184.375 79.1181 184.6719 L79.0868 184.6719 C78.8993 184.375 78.7118 184.0625 78.5399 183.7656 L77.8056 182.5625 L76.8368 182.5625 L78.4774 185.1719 L76.6962 188 ZM83.7856 183.9062 C84.0512 183.0625 84.2856 182.2812 84.5199 181.4219 L84.5668 181.4219 C84.8012 182.2656 85.0356 183.0625 85.3012 183.9062 L85.6449 185.0156 L83.4262 185.0156 L83.7856 183.9062 ZM81.5512 188 L82.4887 188 L83.2074 185.7656 L85.8793 185.7656 L86.5824 188 L87.5668 188 L85.0668 180.6562 L84.0356 180.6562 L81.5512 188 ZM88.0274 188 L92.6368 188 L92.6368 187.2031 L90.6055 187.2031 C90.2462 187.2031 89.793 187.25 89.4024 187.2812 C91.1368 185.6562 92.2774 184.1562 92.2774 182.7031 C92.2774 181.3906 91.4649 180.5312 90.1524 180.5312 C89.2149 180.5312 88.5899 180.9531 87.9962 181.6094 L88.5274 182.125 C88.918 181.6562 89.4337 181.2812 90.043 181.2812 C90.9493 181.2812 91.3868 181.8906 91.3868 182.7344 C91.3868 183.9844 90.3243 185.4531 88.0274 187.4531 L88.0274 188 ZM96.1868 188.125 C97.7024 188.125 98.6712 187.2031 98.6712 186.0469 C98.6712 184.9531 98.0149 184.4531 97.1555 184.0938 L96.1087 183.6406 C95.5462 183.4062 94.9055 183.125 94.9055 182.4219 C94.9055 181.7656 95.4368 181.3438 96.2649 181.3438 C96.9524 181.3438 97.4837 181.6094 97.9368 182.0312 L98.4368 181.4375 C97.9055 180.9062 97.1399 180.5312 96.2649 180.5312 C94.9368 180.5312 93.9524 181.3438 93.9524 182.4844 C93.9524 183.5469 94.7649 184.0625 95.4524 184.3594 L96.5149 184.8125 C97.2024 185.125 97.7337 185.375 97.7337 186.125 C97.7337 186.8438 97.1555 187.3125 96.1868 187.3125 C95.4368 187.3125 94.6868 186.9531 94.1712 186.4062 L93.6087 187.0469 C94.2493 187.7031 95.1399 188.125 96.1868 188.125 ZM100.2662 185.25 L101.9224 182.75 C102.1412 182.3906 102.3443 182.0312 102.5162 181.6719 L102.563 181.6719 C102.5474 182.0469 102.5162 182.6406 102.5162 183 L102.5162 185.25 L100.2662 185.25 ZM102.5162 188 L103.3755 188 L103.3755 185.9844 L104.3443 185.9844 L104.3443 185.25 L103.3755 185.25 L103.3755 180.6562 L102.3599 180.6562 L99.313 185.375 L99.313 185.9844 L102.5162 185.9844 L102.5162 188 ZM107.0505 189.9688 L107.613 189.7031 C106.7536 188.2812 106.3474 186.5938 106.3474 184.8906 C106.3474 183.1875 106.7536 181.5156 107.613 180.0781 L107.0505 179.8125 C106.1286 181.3125 105.5818 182.9375 105.5818 184.8906 C105.5818 186.8594 106.1286 188.4688 107.0505 189.9688 ZM108.2118 188 L109.1805 188 L110.243 186.0156 C110.4305 185.6562 110.618 185.2812 110.8368 184.8438 L110.868 184.8438 C111.1024 185.2812 111.3055 185.6562 111.493 186.0156 L112.5868 188 L113.6024 188 L111.4618 184.2656 L113.4618 180.6562 L112.493 180.6562 L111.5086 182.5469 C111.3368 182.875 111.1961 183.1875 110.993 183.6094 L110.9461 183.6094 C110.7118 183.1875 110.5555 182.875 110.368 182.5469 L109.368 180.6562 L108.3524 180.6562 L110.3524 184.2031 L108.2118 188 ZM114.7543 189.9688 C115.6918 188.4688 116.2386 186.8594 116.2386 184.8906 C116.2386 182.9375 115.6918 181.3125 114.7543 179.8125 L114.2074 180.0781 C115.0668 181.5156 115.473 183.1875 115.473 184.8906 C115.473 186.5938 115.0668 188.2812 114.2074 189.7031 L114.7543 189.9688 ZM120.2592 188.125 C120.9936 188.125 121.5874 187.875 122.0561 187.5625 L121.728 186.9688 C121.3374 187.2344 120.8999 187.4062 120.3686 187.4062 C119.3374 187.4062 118.6342 186.6562 118.5717 185.5 L122.228 185.5 C122.2436 185.375 122.2749 185.1875 122.2749 184.9844 C122.2749 183.4375 121.4936 182.4375 120.103 182.4375 C118.853 182.4375 117.6655 183.5312 117.6655 185.2969 C117.6655 187.0781 118.8217 188.125 120.2592 188.125 ZM118.5561 184.8438 C118.6655 183.7812 119.353 183.1562 120.1186 183.1562 C120.9624 183.1562 121.4624 183.75 121.4624 184.8438 L118.5561 184.8438 ZM123.6117 188 L124.518 188 L124.518 184.0625 C125.0649 183.5156 125.4555 183.2344 126.0024 183.2344 C126.7367 183.2344 127.0336 183.6562 127.0336 184.6875 L127.0336 188 L127.9555 188 L127.9555 184.5625 C127.9555 183.1719 127.4242 182.4375 126.2836 182.4375 C125.5492 182.4375 124.9867 182.8438 124.4711 183.3438 L124.4399 183.3438 L124.3617 182.5625 L123.6117 182.5625 L123.6117 188 Z"
    /></g
  ></g
></svg
>
