<?xml version="1.0"?>
<!DOCTYPE svg PUBLIC '-//W3C//DTD SVG 1.0//EN'
          'http://www.w3.org/TR/2001/REC-SVG-20010904/DTD/svg10.dtd'>
<svg xmlns:xlink="http://www.w3.org/1999/xlink" style="fill-opacity:1; color-rendering:auto; color-interpolation:auto; text-rendering:auto; stroke:black; stroke-linecap:square; stroke-miterlimit:10; shape-rendering:auto; stroke-opacity:1; fill:black; stroke-dasharray:none; font-weight:normal; stroke-width:1; font-family:'Dialog'; font-style:normal; stroke-linejoin:miter; font-size:12px; stroke-dashoffset:0; image-rendering:auto;" viewBox="0 0 233 105" xmlns="http://www.w3.org/2000/svg"
><!--Generated by the Batik Graphics2D SVG Generator--><defs id="genericDefs"
  /><g
  ><defs id="defs1"
    ><clipPath clipPathUnits="userSpaceOnUse" id="clipPath1"
      ><path d="M151 41 C151 47.0751 146.0751 52 140 52 C133.9249 52 129 47.0751 129 41 C129 34.9249 133.9249 30 140 30 C146.0751 30 151 34.9249 151 41 Z"
      /></clipPath
      ><clipPath clipPathUnits="userSpaceOnUse" id="clipPath2"
      ><path style="fill-rule:evenodd;" d="M64 30 L75 41 L64 52 L53 41 Z"
      /></clipPath
    ></defs
    ><g style="fill:white; text-rendering:optimizeSpeed; stroke:white;"
    ><rect x="0" width="233" height="105" y="0" style="stroke:none;"
      /><polygon style="fill:none; stroke:black;" points=" 192 41 140 41"
      /><path d="M192 30 C186.5 35.5 197.5 46.5 192 52" style="fill:none; stroke:black;"
      /><polygon style="fill:none; stroke:black;" points=" 140 41 64 41"
      /><circle style="clip-path:url(#clipPath1); stroke:none;" r="11" cx="140" cy="41"
      /><rect x="129" y="30" width="22" style="clip-path:url(#clipPath1); fill:rgb(255,212,0); stroke:none;" height="22"
      /><rect x="129" y="30" width="22" style="clip-path:url(#clipPath1); fill:none; stroke:black;" height="22"
      /><circle style="fill:none; stroke:black;" r="11" cx="140" cy="41"
      /><polygon style="clip-path:url(#clipPath2); stroke:none;" points=" 64 30 75 41 64 52 53 41"
      /><rect x="53" y="30" width="22" style="clip-path:url(#clipPath2); fill:rgb(0,144,188); stroke:none;" height="11"
      /><rect x="53" y="30" width="22" style="clip-path:url(#clipPath2); fill:none; stroke:black;" height="11"
      /><polygon style="fill:none; stroke:black;" points=" 64 30 75 41 64 52 53 41"
      /><rect x="65" y="58" width="32" style="stroke:none;" height="10"
    /></g
    ><g style="text-rendering:optimizeSpeed; font-size:14px; font-family:'SansSerif';"
    ><path style="stroke:none;" d="M65.6094 69 L72.0625 69 L72.0625 67.8906 L69.2344 67.8906 C68.7031 67.8906 68.0781 67.9531 67.5469 67.9844 C69.9531 65.7031 71.5625 63.625 71.5625 61.5781 C71.5625 59.75 70.4219 58.5469 68.5781 58.5469 C67.2812 58.5469 66.4062 59.1406 65.5625 60.0469 L66.2969 60.7812 C66.8594 60.1094 67.5938 59.5938 68.4375 59.5938 C69.7031 59.5938 70.3125 60.4531 70.3125 61.625 C70.3125 63.3906 68.8438 65.4375 65.6094 68.25 L65.6094 69 ZM74.1762 69 L75.395 69 L75.395 63.6094 C75.395 62.5312 75.3012 61.4375 75.2543 60.4062 L75.3012 60.4062 L76.4106 62.5156 L80.145 69 L81.4731 69 L81.4731 58.7188 L80.2387 58.7188 L80.2387 64.0781 C80.2387 65.1406 80.3481 66.2812 80.4106 67.3125 L80.3481 67.3125 L79.2543 65.2031 L75.52 58.7188 L74.1762 58.7188 L74.1762 69 ZM86.0498 63.2656 C86.4248 62.0938 86.7529 60.9844 87.0811 59.7812 L87.1279 59.7812 C87.4717 60.9844 87.7842 62.0938 88.1748 63.2656 L88.6592 64.8281 L85.5498 64.8281 L86.0498 63.2656 ZM82.9248 69 L84.2373 69 L85.2373 65.8594 L88.9873 65.8594 L89.9561 69 L91.3311 69 L87.8467 58.7188 L86.4092 58.7188 L82.9248 69 ZM95.6572 69.1875 C96.5634 69.1875 97.4384 68.8281 98.1259 68.2188 L97.5634 67.3594 C97.0947 67.7969 96.4697 68.125 95.7665 68.125 C94.3759 68.125 93.4228 66.9531 93.4228 65.2031 C93.4228 63.4531 94.4228 62.2656 95.8134 62.2656 C96.4228 62.2656 96.8759 62.5469 97.329 62.9375 L97.9853 62.0938 C97.4384 61.625 96.7509 61.2031 95.7509 61.2031 C93.8134 61.2031 92.0947 62.6719 92.0947 65.2031 C92.0947 67.7188 93.6415 69.1875 95.6572 69.1875 Z"
      /><rect x="30" y="58" width="32" style="fill:white; stroke:none;" height="10"
      /><path style="stroke:none;" d="M33.7031 69.1875 C35.5156 69.1875 36.9844 68.0938 36.9844 66.25 C36.9844 64.8594 36.0156 63.9375 34.8125 63.6562 L34.8125 63.5938 C35.8906 63.1875 36.6406 62.3594 36.6406 61.125 C36.6406 59.5 35.375 58.5469 33.6562 58.5469 C32.4688 58.5469 31.5469 59.0625 30.7812 59.7812 L31.4688 60.5938 C32.0469 60 32.7656 59.5938 33.5938 59.5938 C34.6562 59.5938 35.3281 60.2344 35.3281 61.2188 C35.3281 62.3281 34.6094 63.1719 32.4844 63.1719 L32.4844 64.1562 C34.8594 64.1562 35.6875 64.9844 35.6875 66.2031 C35.6875 67.3906 34.8125 68.125 33.5938 68.125 C32.4375 68.125 31.6562 67.5781 31.0469 66.9375 L30.4062 67.7812 C31.0781 68.5156 32.0938 69.1875 33.7031 69.1875 ZM39.1762 69 L40.395 69 L40.395 63.6094 C40.395 62.5312 40.3012 61.4375 40.2543 60.4062 L40.3012 60.4062 L41.4106 62.5156 L45.145 69 L46.4731 69 L46.4731 58.7188 L45.2387 58.7188 L45.2387 64.0781 C45.2387 65.1406 45.3481 66.2812 45.4106 67.3125 L45.3481 67.3125 L44.2543 65.2031 L40.52 58.7188 L39.1762 58.7188 L39.1762 69 ZM51.0498 63.2656 C51.4248 62.0938 51.7529 60.9844 52.0811 59.7812 L52.1279 59.7812 C52.4717 60.9844 52.7842 62.0938 53.1748 63.2656 L53.6592 64.8281 L50.5498 64.8281 L51.0498 63.2656 ZM47.9248 69 L49.2373 69 L50.2373 65.8594 L53.9873 65.8594 L54.9561 69 L56.3311 69 L52.8467 58.7188 L51.4092 58.7188 L47.9248 69 ZM60.6572 69.1875 C61.5634 69.1875 62.4384 68.8281 63.1259 68.2188 L62.5634 67.3594 C62.0947 67.7969 61.4697 68.125 60.7665 68.125 C59.3759 68.125 58.4228 66.9531 58.4228 65.2031 C58.4228 63.4531 59.4228 62.2656 60.8134 62.2656 C61.4228 62.2656 61.8759 62.5469 62.329 62.9375 L62.9853 62.0938 C62.4384 61.625 61.7509 61.2031 60.7509 61.2031 C58.8134 61.2031 57.0947 62.6719 57.0947 65.2031 C57.0947 67.7188 58.6415 69.1875 60.6572 69.1875 Z"
    /></g
    ><g style="fill:white; text-rendering:optimizeSpeed; font-family:'Serif'; stroke:white;"
    ><rect x="118" width="5" height="10" y="44" style="stroke:none;"
      /><path d="M119.8906 52.6875 C119.4844 52.6875 119.1562 53.0469 119.1562 53.4219 C119.1562 53.8125 119.4844 54.1562 119.8906 54.1562 C120.2969 54.1562 120.6406 53.8125 120.6406 53.4219 C120.6406 53.0469 120.2969 52.6875 119.8906 52.6875 ZM121.4688 46.5781 C121.7188 46.8906 121.875 47.2656 121.8906 47.6562 C121.8906 48.1875 121.625 48.5 121.0312 48.7656 L120.4062 49.0156 C119.6406 49.3125 119.3906 49.5469 119.3906 49.9375 C119.3906 50.1094 119.4531 50.3438 119.5781 50.8125 L119.7344 51.3438 L120.1094 51.3438 L120.0938 50.5312 C120.0938 50.0938 120.2031 49.9688 120.7812 49.7344 L121.2031 49.5625 C122.0312 49.2188 122.4531 48.6875 122.4531 47.8438 C122.4531 46.1562 120.6562 45.1875 119.5 45.0312 C119.1094 45.125 118.9062 45.2969 118.9062 45.6406 C118.9062 45.9375 119.0625 46.1562 119.7188 46.2656 L121.4688 46.5781 Z" style="fill:black; stroke:none;"
      /><rect x="104" width="5" height="10" y="44" style="stroke:none;"
      /><path d="M105.8906 52.6875 C105.4844 52.6875 105.1562 53.0469 105.1562 53.4219 C105.1562 53.8125 105.4844 54.1562 105.8906 54.1562 C106.2969 54.1562 106.6406 53.8125 106.6406 53.4219 C106.6406 53.0469 106.2969 52.6875 105.8906 52.6875 ZM107.4688 46.5781 C107.7188 46.8906 107.875 47.2656 107.8906 47.6562 C107.8906 48.1875 107.625 48.5 107.0312 48.7656 L106.4062 49.0156 C105.6406 49.3125 105.3906 49.5469 105.3906 49.9375 C105.3906 50.1094 105.4531 50.3438 105.5781 50.8125 L105.7344 51.3438 L106.1094 51.3438 L106.0938 50.5312 C106.0938 50.0938 106.2031 49.9688 106.7812 49.7344 L107.2031 49.5625 C108.0312 49.2188 108.4531 48.6875 108.4531 47.8438 C108.4531 46.1562 106.6562 45.1875 105.5 45.0312 C105.1094 45.125 104.9062 45.2969 104.9062 45.6406 C104.9062 45.9375 105.0625 46.1562 105.7188 46.2656 L107.4688 46.5781 Z" style="fill:black; stroke:none;"
      /><rect x="156" width="5" height="10" y="44" style="stroke:none;"
      /><path d="M157.8906 52.6875 C157.4844 52.6875 157.1562 53.0469 157.1562 53.4219 C157.1562 53.8125 157.4844 54.1562 157.8906 54.1562 C158.2969 54.1562 158.6406 53.8125 158.6406 53.4219 C158.6406 53.0469 158.2969 52.6875 157.8906 52.6875 ZM159.4688 46.5781 C159.7188 46.8906 159.875 47.2656 159.8906 47.6562 C159.8906 48.1875 159.625 48.5 159.0312 48.7656 L158.4062 49.0156 C157.6406 49.3125 157.3906 49.5469 157.3906 49.9375 C157.3906 50.1094 157.4531 50.3438 157.5781 50.8125 L157.7344 51.3438 L158.1094 51.3438 L158.0938 50.5312 C158.0938 50.0938 158.2031 49.9688 158.7812 49.7344 L159.2031 49.5625 C160.0312 49.2188 160.4531 48.6875 160.4531 47.8438 C160.4531 46.1562 158.6562 45.1875 157.5 45.0312 C157.1094 45.125 156.9062 45.2969 156.9062 45.6406 C156.9062 45.9375 157.0625 46.1562 157.7188 46.2656 L159.4688 46.5781 Z" style="fill:black; stroke:none;"
    /></g
  ></g
></svg
>
