<?xml version="1.0"?>
<!DOCTYPE svg PUBLIC '-//W3C//DTD SVG 1.0//EN'
          'http://www.w3.org/TR/2001/REC-SVG-20010904/DTD/svg10.dtd'>
<svg xmlns:xlink="http://www.w3.org/1999/xlink" style="fill-opacity:1; color-rendering:auto; color-interpolation:auto; text-rendering:auto; stroke:black; stroke-linecap:square; stroke-miterlimit:10; shape-rendering:auto; stroke-opacity:1; fill:black; stroke-dasharray:none; font-weight:normal; stroke-width:1; font-family:'Dialog'; font-style:normal; stroke-linejoin:miter; font-size:12px; stroke-dashoffset:0; image-rendering:auto;" viewBox="0 0 446 245" xmlns="http://www.w3.org/2000/svg"
><!--Generated by the Batik Graphics2D SVG Generator--><defs id="genericDefs"
  /><g
  ><defs id="defs1"
    ><clipPath clipPathUnits="userSpaceOnUse" id="clipPath1"
      ><path d="M342 82 L364 82 L364 104 L342 104 L342 82 Z"
      /></clipPath
      ><clipPath clipPathUnits="userSpaceOnUse" id="clipPath2"
      ><path d="M290 82 L312 82 L312 104 L290 104 L290 82 Z"
      /></clipPath
      ><clipPath clipPathUnits="userSpaceOnUse" id="clipPath3"
      ><path d="M260 93 C260 99.0751 255.0751 104 249 104 C242.9249 104 238 99.0751 238 93 C238 86.9249 242.9249 82 249 82 C255.0751 82 260 86.9249 260 93 Z"
      /></clipPath
      ><clipPath clipPathUnits="userSpaceOnUse" id="clipPath4"
      ><path d="M208 139 C208 145.0751 203.0751 150 197 150 C190.9249 150 186 145.0751 186 139 C186 132.9249 190.9249 128 197 128 C203.0751 128 208 132.9249 208 139 Z"
      /></clipPath
      ><clipPath clipPathUnits="userSpaceOnUse" id="clipPath5"
      ><path d="M134 167 L156 167 L156 189 L134 189 L134 167 Z"
      /></clipPath
      ><clipPath clipPathUnits="userSpaceOnUse" id="clipPath6"
      ><path d="M104 178 C104 184.0751 99.0751 189 93 189 C86.9249 189 82 184.0751 82 178 C82 171.9249 86.9249 167 93 167 C99.0751 167 104 171.9249 104 178 Z"
      /></clipPath
      ><clipPath clipPathUnits="userSpaceOnUse" id="clipPath7"
      ><path d="M30 193 L52 193 L52 215 L30 215 L30 193 Z"
      /></clipPath
      ><clipPath clipPathUnits="userSpaceOnUse" id="clipPath8"
      ><path style="fill-rule:evenodd;" d="M41 141 L52 152 L41 163 L30 152 Z"
      /></clipPath
      ><clipPath clipPathUnits="userSpaceOnUse" id="clipPath9"
      ><path d="M134 89 L156 89 L156 111 L134 111 L134 89 Z"
      /></clipPath
      ><clipPath clipPathUnits="userSpaceOnUse" id="clipPath10"
      ><path d="M104 100 C104 106.0751 99.0751 111 93 111 C86.9249 111 82 106.0751 82 100 C82 93.9249 86.9249 89 93 89 C99.0751 89 104 93.9249 104 100 Z"
      /></clipPath
      ><clipPath clipPathUnits="userSpaceOnUse" id="clipPath11"
      ><path style="fill-rule:evenodd;" d="M41 89 L52 100 L41 111 L30 100 Z"
      /></clipPath
      ><clipPath clipPathUnits="userSpaceOnUse" id="clipPath12"
      ><path d="M208 48 C208 54.0751 203.0751 59 197 59 C190.9249 59 186 54.0751 186 48 C186 41.9249 190.9249 37 197 37 C203.0751 37 208 41.9249 208 48 Z"
      /></clipPath
      ><clipPath clipPathUnits="userSpaceOnUse" id="clipPath13"
      ><path d="M134 37 L156 37 L156 59 L134 59 L134 37 Z"
      /></clipPath
      ><clipPath clipPathUnits="userSpaceOnUse" id="clipPath14"
      ><path d="M104 48 C104 54.0751 99.0751 59 93 59 C86.9249 59 82 54.0751 82 48 C82 41.9249 86.9249 37 93 37 C99.0751 37 104 41.9249 104 48 Z"
      /></clipPath
      ><clipPath clipPathUnits="userSpaceOnUse" id="clipPath15"
      ><path style="fill-rule:evenodd;" d="M41 37 L52 48 L41 59 L30 48 Z"
      /></clipPath
      ><clipPath clipPathUnits="userSpaceOnUse" id="clipPath16"
      ><path style="fill-rule:evenodd;" d="M353 52 L342 30 L364 30 Z"
      /></clipPath
    ></defs
    ><g style="fill:white; text-rendering:optimizeSpeed; stroke:white;"
    ><rect x="0" width="446" height="245" y="0" style="stroke:none;"
      /><polygon style="fill:none; stroke:black;" points=" 405 93 353 93"
      /><path d="M405 82 C399.5 87.5 410.5 98.5 405 104" style="fill:none; stroke:black;"
      /><polygon style="fill:none; stroke:black;" points=" 353 93 301 93"
      /><polygon style="fill:none; stroke:black;" points=" 353 93 353 41"
      /><rect x="342" y="82" width="22" style="clip-path:url(#clipPath1); stroke:none;" height="22"
      /><rect x="342" y="82" width="22" style="clip-path:url(#clipPath1); fill:rgb(0,144,188); stroke:none;" height="22"
      /><rect x="342" y="82" width="22" style="clip-path:url(#clipPath1); fill:none; stroke:black;" height="22"
      /><rect x="342" y="82" width="22" style="fill:none; stroke:black;" height="22"
      /><polygon style="fill:none; stroke:black;" points=" 301 93 249 93"
      /><rect x="290" y="82" width="22" style="clip-path:url(#clipPath2); stroke:none;" height="22"
      /><rect x="290" y="82" width="22" style="clip-path:url(#clipPath2); fill:rgb(0,144,188); stroke:none;" height="22"
      /><rect x="290" y="82" width="22" style="clip-path:url(#clipPath2); fill:none; stroke:black;" height="22"
      /><rect x="290" y="82" width="22" style="fill:none; stroke:black;" height="22"
      /><polygon style="fill:none; stroke:black;" points=" 249 93 197 139"
      /><polygon style="fill:none; stroke:black;" points=" 249 93 197 48"
      /><circle style="clip-path:url(#clipPath3); stroke:none;" r="11" cx="249" cy="93"
      /><rect x="238" y="82" width="22" style="clip-path:url(#clipPath3); fill:rgb(0,166,81); stroke:none;" height="22"
      /><rect x="238" y="82" width="22" style="clip-path:url(#clipPath3); fill:none; stroke:black;" height="22"
      /><circle style="fill:none; stroke:black;" r="11" cx="249" cy="93"
      /><polygon style="fill:none; stroke:black;" points=" 197 139 145 178"
      /><polygon style="fill:none; stroke:black;" points=" 197 139 145 100"
      /><circle style="clip-path:url(#clipPath4); stroke:none;" r="11" cx="197" cy="139"
      /><rect x="186" y="128" width="22" style="clip-path:url(#clipPath4); fill:rgb(0,166,81); stroke:none;" height="22"
      /><rect x="186" y="128" width="22" style="clip-path:url(#clipPath4); fill:none; stroke:black;" height="22"
      /><circle style="fill:none; stroke:black;" r="11" cx="197" cy="139"
      /><polygon style="fill:none; stroke:black;" points=" 145 178 93 178"
      /><rect x="134" y="167" width="22" style="clip-path:url(#clipPath5); stroke:none;" height="22"
      /><rect x="134" y="167" width="22" style="clip-path:url(#clipPath5); fill:rgb(0,144,188); stroke:none;" height="22"
      /><rect x="134" y="167" width="22" style="clip-path:url(#clipPath5); fill:none; stroke:black;" height="22"
      /><rect x="134" y="167" width="22" style="fill:none; stroke:black;" height="22"
      /><polygon style="fill:none; stroke:black;" points=" 93 178 41 204"
      /><polygon style="fill:none; stroke:black;" points=" 93 178 41 152"
      /><circle style="clip-path:url(#clipPath6); stroke:none;" r="11" cx="93" cy="178"
      /><rect x="82" y="167" width="22" style="clip-path:url(#clipPath6); fill:rgb(255,212,0); stroke:none;" height="22"
      /><rect x="82" y="167" width="22" style="clip-path:url(#clipPath6); fill:none; stroke:black;" height="22"
      /><circle style="fill:none; stroke:black;" r="11" cx="93" cy="178"
      /><rect x="30" y="193" width="22" style="clip-path:url(#clipPath7); stroke:none;" height="22"
      /><rect x="30" y="193" width="22" style="clip-path:url(#clipPath7); fill:rgb(0,144,188); stroke:none;" height="22"
      /><rect x="30" y="193" width="22" style="clip-path:url(#clipPath7); fill:none; stroke:black;" height="22"
      /><rect x="30" y="193" width="22" style="fill:none; stroke:black;" height="22"
      /><polygon style="clip-path:url(#clipPath8); stroke:none;" points=" 41 141 52 152 41 163 30 152"
      /><rect x="30" y="141" width="22" style="clip-path:url(#clipPath8); fill:rgb(165,67,153); stroke:none;" height="22"
      /><rect x="30" y="141" width="22" style="clip-path:url(#clipPath8); fill:none; stroke:black;" height="22"
      /><polygon style="fill:none; stroke:black;" points=" 41 141 52 152 41 163 30 152"
      /><rect x="75" y="189" width="5" style="stroke:none;" height="10"
    /></g
    ><g style="font-family:'Serif'; text-rendering:optimizeSpeed; "
    ><path style="stroke:none;" d="M76.8906 197.6875 C76.4844 197.6875 76.1562 198.0469 76.1562 198.4219 C76.1562 198.8125 76.4844 199.1562 76.8906 199.1562 C77.2969 199.1562 77.6406 198.8125 77.6406 198.4219 C77.6406 198.0469 77.2969 197.6875 76.8906 197.6875 ZM78.4688 191.5781 C78.7188 191.8906 78.875 192.2656 78.8906 192.6562 C78.8906 193.1875 78.625 193.5 78.0312 193.7656 L77.4062 194.0156 C76.6406 194.3125 76.3906 194.5469 76.3906 194.9375 C76.3906 195.1094 76.4531 195.3438 76.5781 195.8125 L76.7344 196.3438 L77.1094 196.3438 L77.0938 195.5312 C77.0938 195.0938 77.2031 194.9688 77.7812 194.7344 L78.2031 194.5625 C79.0312 194.2188 79.4531 193.6875 79.4531 192.8438 C79.4531 191.1562 77.6562 190.1875 76.5 190.0312 C76.1094 190.125 75.9062 190.2969 75.9062 190.6406 C75.9062 190.9375 76.0625 191.1562 76.7188 191.2656 L78.4688 191.5781 Z"
      /><rect x="60" y="197" width="5" style="fill:white; stroke:none;" height="10"
      /><path style="stroke:none;" d="M61.8906 205.6875 C61.4844 205.6875 61.1562 206.0469 61.1562 206.4219 C61.1562 206.8125 61.4844 207.1562 61.8906 207.1562 C62.2969 207.1562 62.6406 206.8125 62.6406 206.4219 C62.6406 206.0469 62.2969 205.6875 61.8906 205.6875 ZM63.4688 199.5781 C63.7188 199.8906 63.875 200.2656 63.8906 200.6562 C63.8906 201.1875 63.625 201.5 63.0312 201.7656 L62.4062 202.0156 C61.6406 202.3125 61.3906 202.5469 61.3906 202.9375 C61.3906 203.1094 61.4531 203.3438 61.5781 203.8125 L61.7344 204.3438 L62.1094 204.3438 L62.0938 203.5312 C62.0938 203.0938 62.2031 202.9688 62.7812 202.7344 L63.2031 202.5625 C64.0312 202.2188 64.4531 201.6875 64.4531 200.8438 C64.4531 199.1562 62.6562 198.1875 61.5 198.0312 C61.1094 198.125 60.9062 198.2969 60.9062 198.6406 C60.9062 198.9375 61.0625 199.1562 61.7188 199.2656 L63.4688 199.5781 Z"
      /><rect x="68" y="171" width="5" style="fill:white; stroke:none;" height="10"
      /><path style="stroke:none;" d="M69.8906 179.6875 C69.4844 179.6875 69.1562 180.0469 69.1562 180.4219 C69.1562 180.8125 69.4844 181.1562 69.8906 181.1562 C70.2969 181.1562 70.6406 180.8125 70.6406 180.4219 C70.6406 180.0469 70.2969 179.6875 69.8906 179.6875 ZM71.4688 173.5781 C71.7188 173.8906 71.875 174.2656 71.8906 174.6562 C71.8906 175.1875 71.625 175.5 71.0312 175.7656 L70.4062 176.0156 C69.6406 176.3125 69.3906 176.5469 69.3906 176.9375 C69.3906 177.1094 69.4531 177.3438 69.5781 177.8125 L69.7344 178.3438 L70.1094 178.3438 L70.0938 177.5312 C70.0938 177.0938 70.2031 176.9688 70.7812 176.7344 L71.2031 176.5625 C72.0312 176.2188 72.4531 175.6875 72.4531 174.8438 C72.4531 173.1562 70.6562 172.1875 69.5 172.0312 C69.1094 172.125 68.9062 172.2969 68.9062 172.6406 C68.9062 172.9375 69.0625 173.1562 69.7188 173.2656 L71.4688 173.5781 Z"
      /><rect x="53" y="163" width="5" style="fill:white; stroke:none;" height="10"
      /><path style="stroke:none;" d="M54.8906 171.6875 C54.4844 171.6875 54.1562 172.0469 54.1562 172.4219 C54.1562 172.8125 54.4844 173.1562 54.8906 173.1562 C55.2969 173.1562 55.6406 172.8125 55.6406 172.4219 C55.6406 172.0469 55.2969 171.6875 54.8906 171.6875 ZM56.4688 165.5781 C56.7188 165.8906 56.875 166.2656 56.8906 166.6562 C56.8906 167.1875 56.625 167.5 56.0312 167.7656 L55.4062 168.0156 C54.6406 168.3125 54.3906 168.5469 54.3906 168.9375 C54.3906 169.1094 54.4531 169.3438 54.5781 169.8125 L54.7344 170.3438 L55.1094 170.3438 L55.0938 169.5312 C55.0938 169.0938 55.2031 168.9688 55.7812 168.7344 L56.2031 168.5625 C57.0312 168.2188 57.4531 167.6875 57.4531 166.8438 C57.4531 165.1562 55.6562 164.1875 54.5 164.0312 C54.1094 164.125 53.9062 164.2969 53.9062 164.6406 C53.9062 164.9375 54.0625 165.1562 54.7188 165.2656 L56.4688 165.5781 Z"
      /><rect x="123" y="181" width="5" style="fill:white; stroke:none;" height="10"
      /><path style="stroke:none;" d="M124.8906 189.6875 C124.4844 189.6875 124.1562 190.0469 124.1562 190.4219 C124.1562 190.8125 124.4844 191.1562 124.8906 191.1562 C125.2969 191.1562 125.6406 190.8125 125.6406 190.4219 C125.6406 190.0469 125.2969 189.6875 124.8906 189.6875 ZM126.4688 183.5781 C126.7188 183.8906 126.875 184.2656 126.8906 184.6562 C126.8906 185.1875 126.625 185.5 126.0312 185.7656 L125.4062 186.0156 C124.6406 186.3125 124.3906 186.5469 124.3906 186.9375 C124.3906 187.1094 124.4531 187.3438 124.5781 187.8125 L124.7344 188.3438 L125.1094 188.3438 L125.0938 187.5312 C125.0938 187.0938 125.2031 186.9688 125.7812 186.7344 L126.2031 186.5625 C127.0312 186.2188 127.4531 185.6875 127.4531 184.8438 C127.4531 183.1562 125.6562 182.1875 124.5 182.0312 C124.1094 182.125 123.9062 182.2969 123.9062 182.6406 C123.9062 182.9375 124.0625 183.1562 124.7188 183.2656 L126.4688 183.5781 Z"
      /><rect x="109" y="181" width="5" style="fill:white; stroke:none;" height="10"
      /><path style="stroke:none;" d="M110.8906 189.6875 C110.4844 189.6875 110.1562 190.0469 110.1562 190.4219 C110.1562 190.8125 110.4844 191.1562 110.8906 191.1562 C111.2969 191.1562 111.6406 190.8125 111.6406 190.4219 C111.6406 190.0469 111.2969 189.6875 110.8906 189.6875 ZM112.4688 183.5781 C112.7188 183.8906 112.875 184.2656 112.8906 184.6562 C112.8906 185.1875 112.625 185.5 112.0312 185.7656 L111.4062 186.0156 C110.6406 186.3125 110.3906 186.5469 110.3906 186.9375 C110.3906 187.1094 110.4531 187.3438 110.5781 187.8125 L110.7344 188.3438 L111.1094 188.3438 L111.0938 187.5312 C111.0938 187.0938 111.2031 186.9688 111.7812 186.7344 L112.2031 186.5625 C113.0312 186.2188 113.4531 185.6875 113.4531 184.8438 C113.4531 183.1562 111.6562 182.1875 110.5 182.0312 C110.1094 182.125 109.9062 182.2969 109.9062 182.6406 C109.9062 182.9375 110.0625 183.1562 110.7188 183.2656 L112.4688 183.5781 Z"
      /><polygon style="fill:none;" points=" 145 100 93 100"
      /><rect x="134" y="89" width="22" style="clip-path:url(#clipPath9); fill:white; stroke:none;" height="22"
      /><rect x="134" y="89" width="22" style="clip-path:url(#clipPath9); fill:rgb(0,144,188); stroke:none;" height="22"
      /><rect x="134" y="89" width="22" style="fill:none; clip-path:url(#clipPath9);" height="22"
      /><rect x="134" width="22" height="22" y="89" style="fill:none;"
      /><polygon style="fill:none;" points=" 93 100 41 100"
      /><circle style="fill:white; clip-path:url(#clipPath10); stroke:none;" r="11" cx="93" cy="100"
      /><rect x="82" y="89" width="22" style="clip-path:url(#clipPath10); fill:rgb(255,212,0); stroke:none;" height="22"
      /><rect x="82" y="89" width="22" style="fill:none; clip-path:url(#clipPath10);" height="22"
      /><circle r="11" style="fill:none;" cx="93" cy="100"
      /><polygon style="fill:white; clip-path:url(#clipPath11); stroke:none;" points=" 41 89 52 100 41 111 30 100"
      /><rect x="30" y="89" width="22" style="clip-path:url(#clipPath11); fill:rgb(165,67,153); stroke:none;" height="22"
      /><rect x="30" y="89" width="22" style="fill:none; clip-path:url(#clipPath11);" height="22"
      /><polygon style="fill:none;" points=" 41 89 52 100 41 111 30 100"
      /><rect x="71" y="103" width="5" style="fill:white; stroke:none;" height="10"
      /><path style="stroke:none;" d="M72.8906 111.6875 C72.4844 111.6875 72.1562 112.0469 72.1562 112.4219 C72.1562 112.8125 72.4844 113.1562 72.8906 113.1562 C73.2969 113.1562 73.6406 112.8125 73.6406 112.4219 C73.6406 112.0469 73.2969 111.6875 72.8906 111.6875 ZM74.4688 105.5781 C74.7188 105.8906 74.875 106.2656 74.8906 106.6562 C74.8906 107.1875 74.625 107.5 74.0312 107.7656 L73.4062 108.0156 C72.6406 108.3125 72.3906 108.5469 72.3906 108.9375 C72.3906 109.1094 72.4531 109.3438 72.5781 109.8125 L72.7344 110.3438 L73.1094 110.3438 L73.0938 109.5312 C73.0938 109.0938 73.2031 108.9688 73.7812 108.7344 L74.2031 108.5625 C75.0312 108.2188 75.4531 107.6875 75.4531 106.8438 C75.4531 105.1562 73.6562 104.1875 72.5 104.0312 C72.1094 104.125 71.9062 104.2969 71.9062 104.6406 C71.9062 104.9375 72.0625 105.1562 72.7188 105.2656 L74.4688 105.5781 Z"
      /><rect x="57" y="103" width="5" style="fill:white; stroke:none;" height="10"
      /><path style="stroke:none;" d="M58.8906 111.6875 C58.4844 111.6875 58.1562 112.0469 58.1562 112.4219 C58.1562 112.8125 58.4844 113.1562 58.8906 113.1562 C59.2969 113.1562 59.6406 112.8125 59.6406 112.4219 C59.6406 112.0469 59.2969 111.6875 58.8906 111.6875 ZM60.4688 105.5781 C60.7188 105.8906 60.875 106.2656 60.8906 106.6562 C60.8906 107.1875 60.625 107.5 60.0312 107.7656 L59.4062 108.0156 C58.6406 108.3125 58.3906 108.5469 58.3906 108.9375 C58.3906 109.1094 58.4531 109.3438 58.5781 109.8125 L58.7344 110.3438 L59.1094 110.3438 L59.0938 109.5312 C59.0938 109.0938 59.2031 108.9688 59.7812 108.7344 L60.2031 108.5625 C61.0312 108.2188 61.4531 107.6875 61.4531 106.8438 C61.4531 105.1562 59.6562 104.1875 58.5 104.0312 C58.1094 104.125 57.9062 104.2969 57.9062 104.6406 C57.9062 104.9375 58.0625 105.1562 58.7188 105.2656 L60.4688 105.5781 Z"
      /><rect x="123" y="103" width="5" style="fill:white; stroke:none;" height="10"
      /><path style="stroke:none;" d="M124.8906 111.6875 C124.4844 111.6875 124.1562 112.0469 124.1562 112.4219 C124.1562 112.8125 124.4844 113.1562 124.8906 113.1562 C125.2969 113.1562 125.6406 112.8125 125.6406 112.4219 C125.6406 112.0469 125.2969 111.6875 124.8906 111.6875 ZM126.4688 105.5781 C126.7188 105.8906 126.875 106.2656 126.8906 106.6562 C126.8906 107.1875 126.625 107.5 126.0312 107.7656 L125.4062 108.0156 C124.6406 108.3125 124.3906 108.5469 124.3906 108.9375 C124.3906 109.1094 124.4531 109.3438 124.5781 109.8125 L124.7344 110.3438 L125.1094 110.3438 L125.0938 109.5312 C125.0938 109.0938 125.2031 108.9688 125.7812 108.7344 L126.2031 108.5625 C127.0312 108.2188 127.4531 107.6875 127.4531 106.8438 C127.4531 105.1562 125.6562 104.1875 124.5 104.0312 C124.1094 104.125 123.9062 104.2969 123.9062 104.6406 C123.9062 104.9375 124.0625 105.1562 124.7188 105.2656 L126.4688 105.5781 Z"
      /><rect x="109" y="103" width="5" style="fill:white; stroke:none;" height="10"
      /><path style="stroke:none;" d="M110.8906 111.6875 C110.4844 111.6875 110.1562 112.0469 110.1562 112.4219 C110.1562 112.8125 110.4844 113.1562 110.8906 113.1562 C111.2969 113.1562 111.6406 112.8125 111.6406 112.4219 C111.6406 112.0469 111.2969 111.6875 110.8906 111.6875 ZM112.4688 105.5781 C112.7188 105.8906 112.875 106.2656 112.8906 106.6562 C112.8906 107.1875 112.625 107.5 112.0312 107.7656 L111.4062 108.0156 C110.6406 108.3125 110.3906 108.5469 110.3906 108.9375 C110.3906 109.1094 110.4531 109.3438 110.5781 109.8125 L110.7344 110.3438 L111.1094 110.3438 L111.0938 109.5312 C111.0938 109.0938 111.2031 108.9688 111.7812 108.7344 L112.2031 108.5625 C113.0312 108.2188 113.4531 107.6875 113.4531 106.8438 C113.4531 105.1562 111.6562 104.1875 110.5 104.0312 C110.1094 104.125 109.9062 104.2969 109.9062 104.6406 C109.9062 104.9375 110.0625 105.1562 110.7188 105.2656 L112.4688 105.5781 Z"
      /><rect x="181" y="153" width="5" style="fill:white; stroke:none;" height="10"
      /><path style="stroke:none;" d="M182.8906 161.6875 C182.4844 161.6875 182.1562 162.0469 182.1562 162.4219 C182.1562 162.8125 182.4844 163.1562 182.8906 163.1562 C183.2969 163.1562 183.6406 162.8125 183.6406 162.4219 C183.6406 162.0469 183.2969 161.6875 182.8906 161.6875 ZM184.4688 155.5781 C184.7188 155.8906 184.875 156.2656 184.8906 156.6562 C184.8906 157.1875 184.625 157.5 184.0312 157.7656 L183.4062 158.0156 C182.6406 158.3125 182.3906 158.5469 182.3906 158.9375 C182.3906 159.1094 182.4531 159.3438 182.5781 159.8125 L182.7344 160.3438 L183.1094 160.3438 L183.0938 159.5312 C183.0938 159.0938 183.2031 158.9688 183.7812 158.7344 L184.2031 158.5625 C185.0312 158.2188 185.4531 157.6875 185.4531 156.8438 C185.4531 155.1562 183.6562 154.1875 182.5 154.0312 C182.1094 154.125 181.9062 154.2969 181.9062 154.6406 C181.9062 154.9375 182.0625 155.1562 182.7188 155.2656 L184.4688 155.5781 Z"
      /><rect x="164" y="166" width="5" style="fill:white; stroke:none;" height="10"
      /><path style="stroke:none;" d="M165.8906 174.6875 C165.4844 174.6875 165.1562 175.0469 165.1562 175.4219 C165.1562 175.8125 165.4844 176.1562 165.8906 176.1562 C166.2969 176.1562 166.6406 175.8125 166.6406 175.4219 C166.6406 175.0469 166.2969 174.6875 165.8906 174.6875 ZM167.4688 168.5781 C167.7188 168.8906 167.875 169.2656 167.8906 169.6562 C167.8906 170.1875 167.625 170.5 167.0312 170.7656 L166.4062 171.0156 C165.6406 171.3125 165.3906 171.5469 165.3906 171.9375 C165.3906 172.1094 165.4531 172.3438 165.5781 172.8125 L165.7344 173.3438 L166.1094 173.3438 L166.0938 172.5312 C166.0938 172.0938 166.2031 171.9688 166.7812 171.7344 L167.2031 171.5625 C168.0312 171.2188 168.4531 170.6875 168.4531 169.8438 C168.4531 168.1562 166.6562 167.1875 165.5 167.0312 C165.1094 167.125 164.9062 167.2969 164.9062 167.6406 C164.9062 167.9375 165.0625 168.1562 165.7188 168.2656 L167.4688 168.5781 Z"
      /><rect x="172" y="127" width="5" style="fill:white; stroke:none;" height="10"
      /><path style="stroke:none;" d="M173.8906 135.6875 C173.4844 135.6875 173.1562 136.0469 173.1562 136.4219 C173.1562 136.8125 173.4844 137.1562 173.8906 137.1562 C174.2969 137.1562 174.6406 136.8125 174.6406 136.4219 C174.6406 136.0469 174.2969 135.6875 173.8906 135.6875 ZM175.4688 129.5781 C175.7188 129.8906 175.875 130.2656 175.8906 130.6562 C175.8906 131.1875 175.625 131.5 175.0312 131.7656 L174.4062 132.0156 C173.6406 132.3125 173.3906 132.5469 173.3906 132.9375 C173.3906 133.1094 173.4531 133.3438 173.5781 133.8125 L173.7344 134.3438 L174.1094 134.3438 L174.0938 133.5312 C174.0938 133.0938 174.2031 132.9688 174.7812 132.7344 L175.2031 132.5625 C176.0312 132.2188 176.4531 131.6875 176.4531 130.8438 C176.4531 129.1562 174.6562 128.1875 173.5 128.0312 C173.1094 128.125 172.9062 128.2969 172.9062 128.6406 C172.9062 128.9375 173.0625 129.1562 173.7188 129.2656 L175.4688 129.5781 Z"
      /><rect x="155" y="114" width="5" style="fill:white; stroke:none;" height="10"
      /><path style="stroke:none;" d="M156.8906 122.6875 C156.4844 122.6875 156.1562 123.0469 156.1562 123.4219 C156.1562 123.8125 156.4844 124.1562 156.8906 124.1562 C157.2969 124.1562 157.6406 123.8125 157.6406 123.4219 C157.6406 123.0469 157.2969 122.6875 156.8906 122.6875 ZM158.4688 116.5781 C158.7188 116.8906 158.875 117.2656 158.8906 117.6562 C158.8906 118.1875 158.625 118.5 158.0312 118.7656 L157.4062 119.0156 C156.6406 119.3125 156.3906 119.5469 156.3906 119.9375 C156.3906 120.1094 156.4531 120.3438 156.5781 120.8125 L156.7344 121.3438 L157.1094 121.3438 L157.0938 120.5312 C157.0938 120.0938 157.2031 119.9688 157.7812 119.7344 L158.2031 119.5625 C159.0312 119.2188 159.4531 118.6875 159.4531 117.8438 C159.4531 116.1562 157.6562 115.1875 156.5 115.0312 C156.1094 115.125 155.9062 115.2969 155.9062 115.6406 C155.9062 115.9375 156.0625 116.1562 156.7188 116.2656 L158.4688 116.5781 Z"
      /><polygon style="fill:none;" points=" 197 48 145 48"
      /><circle style="fill:white; clip-path:url(#clipPath12); stroke:none;" r="11" cx="197" cy="48"
      /><rect x="186" y="37" width="22" style="clip-path:url(#clipPath12); fill:rgb(0,166,81); stroke:none;" height="22"
      /><rect x="186" y="37" width="22" style="fill:none; clip-path:url(#clipPath12);" height="22"
      /><circle r="11" style="fill:none;" cx="197" cy="48"
      /><polygon style="fill:none;" points=" 145 48 93 48"
      /><rect x="134" y="37" width="22" style="clip-path:url(#clipPath13); fill:white; stroke:none;" height="22"
      /><rect x="134" y="37" width="22" style="clip-path:url(#clipPath13); fill:rgb(0,144,188); stroke:none;" height="22"
      /><rect x="134" y="37" width="22" style="fill:none; clip-path:url(#clipPath13);" height="22"
      /><rect x="134" width="22" height="22" y="37" style="fill:none;"
      /><polygon style="fill:none;" points=" 93 48 41 48"
      /><circle style="fill:white; clip-path:url(#clipPath14); stroke:none;" r="11" cx="93" cy="48"
      /><rect x="82" y="37" width="22" style="clip-path:url(#clipPath14); fill:rgb(255,212,0); stroke:none;" height="22"
      /><rect x="82" y="37" width="22" style="fill:none; clip-path:url(#clipPath14);" height="22"
      /><circle r="11" style="fill:none;" cx="93" cy="48"
      /><polygon style="fill:white; clip-path:url(#clipPath15); stroke:none;" points=" 41 37 52 48 41 59 30 48"
      /><rect x="30" y="37" width="22" style="clip-path:url(#clipPath15); fill:rgb(165,67,153); stroke:none;" height="22"
      /><rect x="30" y="37" width="22" style="fill:none; clip-path:url(#clipPath15);" height="22"
      /><polygon style="fill:none;" points=" 41 37 52 48 41 59 30 48"
      /><rect x="71" y="51" width="5" style="fill:white; stroke:none;" height="10"
      /><path style="stroke:none;" d="M72.8906 59.6875 C72.4844 59.6875 72.1562 60.0469 72.1562 60.4219 C72.1562 60.8125 72.4844 61.1562 72.8906 61.1562 C73.2969 61.1562 73.6406 60.8125 73.6406 60.4219 C73.6406 60.0469 73.2969 59.6875 72.8906 59.6875 ZM74.4688 53.5781 C74.7188 53.8906 74.875 54.2656 74.8906 54.6562 C74.8906 55.1875 74.625 55.5 74.0312 55.7656 L73.4062 56.0156 C72.6406 56.3125 72.3906 56.5469 72.3906 56.9375 C72.3906 57.1094 72.4531 57.3438 72.5781 57.8125 L72.7344 58.3438 L73.1094 58.3438 L73.0938 57.5312 C73.0938 57.0938 73.2031 56.9688 73.7812 56.7344 L74.2031 56.5625 C75.0312 56.2188 75.4531 55.6875 75.4531 54.8438 C75.4531 53.1562 73.6562 52.1875 72.5 52.0312 C72.1094 52.125 71.9062 52.2969 71.9062 52.6406 C71.9062 52.9375 72.0625 53.1562 72.7188 53.2656 L74.4688 53.5781 Z"
      /><rect x="57" y="51" width="5" style="fill:white; stroke:none;" height="10"
      /><path style="stroke:none;" d="M58.8906 59.6875 C58.4844 59.6875 58.1562 60.0469 58.1562 60.4219 C58.1562 60.8125 58.4844 61.1562 58.8906 61.1562 C59.2969 61.1562 59.6406 60.8125 59.6406 60.4219 C59.6406 60.0469 59.2969 59.6875 58.8906 59.6875 ZM60.4688 53.5781 C60.7188 53.8906 60.875 54.2656 60.8906 54.6562 C60.8906 55.1875 60.625 55.5 60.0312 55.7656 L59.4062 56.0156 C58.6406 56.3125 58.3906 56.5469 58.3906 56.9375 C58.3906 57.1094 58.4531 57.3438 58.5781 57.8125 L58.7344 58.3438 L59.1094 58.3438 L59.0938 57.5312 C59.0938 57.0938 59.2031 56.9688 59.7812 56.7344 L60.2031 56.5625 C61.0312 56.2188 61.4531 55.6875 61.4531 54.8438 C61.4531 53.1562 59.6562 52.1875 58.5 52.0312 C58.1094 52.125 57.9062 52.2969 57.9062 52.6406 C57.9062 52.9375 58.0625 53.1562 58.7188 53.2656 L60.4688 53.5781 Z"
      /><rect x="123" y="51" width="5" style="fill:white; stroke:none;" height="10"
      /><path style="stroke:none;" d="M124.8906 59.6875 C124.4844 59.6875 124.1562 60.0469 124.1562 60.4219 C124.1562 60.8125 124.4844 61.1562 124.8906 61.1562 C125.2969 61.1562 125.6406 60.8125 125.6406 60.4219 C125.6406 60.0469 125.2969 59.6875 124.8906 59.6875 ZM126.4688 53.5781 C126.7188 53.8906 126.875 54.2656 126.8906 54.6562 C126.8906 55.1875 126.625 55.5 126.0312 55.7656 L125.4062 56.0156 C124.6406 56.3125 124.3906 56.5469 124.3906 56.9375 C124.3906 57.1094 124.4531 57.3438 124.5781 57.8125 L124.7344 58.3438 L125.1094 58.3438 L125.0938 57.5312 C125.0938 57.0938 125.2031 56.9688 125.7812 56.7344 L126.2031 56.5625 C127.0312 56.2188 127.4531 55.6875 127.4531 54.8438 C127.4531 53.1562 125.6562 52.1875 124.5 52.0312 C124.1094 52.125 123.9062 52.2969 123.9062 52.6406 C123.9062 52.9375 124.0625 53.1562 124.7188 53.2656 L126.4688 53.5781 Z"
      /><rect x="109" y="51" width="5" style="fill:white; stroke:none;" height="10"
      /><path style="stroke:none;" d="M110.8906 59.6875 C110.4844 59.6875 110.1562 60.0469 110.1562 60.4219 C110.1562 60.8125 110.4844 61.1562 110.8906 61.1562 C111.2969 61.1562 111.6406 60.8125 111.6406 60.4219 C111.6406 60.0469 111.2969 59.6875 110.8906 59.6875 ZM112.4688 53.5781 C112.7188 53.8906 112.875 54.2656 112.8906 54.6562 C112.8906 55.1875 112.625 55.5 112.0312 55.7656 L111.4062 56.0156 C110.6406 56.3125 110.3906 56.5469 110.3906 56.9375 C110.3906 57.1094 110.4531 57.3438 110.5781 57.8125 L110.7344 58.3438 L111.1094 58.3438 L111.0938 57.5312 C111.0938 57.0938 111.2031 56.9688 111.7812 56.7344 L112.2031 56.5625 C113.0312 56.2188 113.4531 55.6875 113.4531 54.8438 C113.4531 53.1562 111.6562 52.1875 110.5 52.0312 C110.1094 52.125 109.9062 52.2969 109.9062 52.6406 C109.9062 52.9375 110.0625 53.1562 110.7188 53.2656 L112.4688 53.5781 Z"
      /><rect x="175" y="51" width="5" style="fill:white; stroke:none;" height="10"
      /><path style="stroke:none;" d="M176.8906 59.6875 C176.4844 59.6875 176.1562 60.0469 176.1562 60.4219 C176.1562 60.8125 176.4844 61.1562 176.8906 61.1562 C177.2969 61.1562 177.6406 60.8125 177.6406 60.4219 C177.6406 60.0469 177.2969 59.6875 176.8906 59.6875 ZM178.4688 53.5781 C178.7188 53.8906 178.875 54.2656 178.8906 54.6562 C178.8906 55.1875 178.625 55.5 178.0312 55.7656 L177.4062 56.0156 C176.6406 56.3125 176.3906 56.5469 176.3906 56.9375 C176.3906 57.1094 176.4531 57.3438 176.5781 57.8125 L176.7344 58.3438 L177.1094 58.3438 L177.0938 57.5312 C177.0938 57.0938 177.2031 56.9688 177.7812 56.7344 L178.2031 56.5625 C179.0312 56.2188 179.4531 55.6875 179.4531 54.8438 C179.4531 53.1562 177.6562 52.1875 176.5 52.0312 C176.1094 52.125 175.9062 52.2969 175.9062 52.6406 C175.9062 52.9375 176.0625 53.1562 176.7188 53.2656 L178.4688 53.5781 Z"
      /><rect x="161" y="51" width="5" style="fill:white; stroke:none;" height="10"
      /><path style="stroke:none;" d="M162.8906 59.6875 C162.4844 59.6875 162.1562 60.0469 162.1562 60.4219 C162.1562 60.8125 162.4844 61.1562 162.8906 61.1562 C163.2969 61.1562 163.6406 60.8125 163.6406 60.4219 C163.6406 60.0469 163.2969 59.6875 162.8906 59.6875 ZM164.4688 53.5781 C164.7188 53.8906 164.875 54.2656 164.8906 54.6562 C164.8906 55.1875 164.625 55.5 164.0312 55.7656 L163.4062 56.0156 C162.6406 56.3125 162.3906 56.5469 162.3906 56.9375 C162.3906 57.1094 162.4531 57.3438 162.5781 57.8125 L162.7344 58.3438 L163.1094 58.3438 L163.0938 57.5312 C163.0938 57.0938 163.2031 56.9688 163.7812 56.7344 L164.2031 56.5625 C165.0312 56.2188 165.4531 55.6875 165.4531 54.8438 C165.4531 53.1562 163.6562 52.1875 162.5 52.0312 C162.1094 52.125 161.9062 52.2969 161.9062 52.6406 C161.9062 52.9375 162.0625 53.1562 162.7188 53.2656 L164.4688 53.5781 Z"
      /><rect x="234" y="109" width="5" style="fill:white; stroke:none;" height="10"
      /><path style="stroke:none;" d="M235.8906 117.6875 C235.4844 117.6875 235.1562 118.0469 235.1562 118.4219 C235.1562 118.8125 235.4844 119.1562 235.8906 119.1562 C236.2969 119.1562 236.6406 118.8125 236.6406 118.4219 C236.6406 118.0469 236.2969 117.6875 235.8906 117.6875 ZM237.4688 111.5781 C237.7188 111.8906 237.875 112.2656 237.8906 112.6562 C237.8906 113.1875 237.625 113.5 237.0312 113.7656 L236.4062 114.0156 C235.6406 114.3125 235.3906 114.5469 235.3906 114.9375 C235.3906 115.1094 235.4531 115.3438 235.5781 115.8125 L235.7344 116.3438 L236.1094 116.3438 L236.0938 115.5312 C236.0938 115.0938 236.2031 114.9688 236.7812 114.7344 L237.2031 114.5625 C238.0312 114.2188 238.4531 113.6875 238.4531 112.8438 C238.4531 111.1562 236.6562 110.1875 235.5 110.0312 C235.1094 110.125 234.9062 110.2969 234.9062 110.6406 C234.9062 110.9375 235.0625 111.1562 235.7188 111.2656 L237.4688 111.5781 Z"
      /><rect x="216" y="124" width="5" style="fill:white; stroke:none;" height="10"
      /><path style="stroke:none;" d="M217.8906 132.6875 C217.4844 132.6875 217.1562 133.0469 217.1562 133.4219 C217.1562 133.8125 217.4844 134.1562 217.8906 134.1562 C218.2969 134.1562 218.6406 133.8125 218.6406 133.4219 C218.6406 133.0469 218.2969 132.6875 217.8906 132.6875 ZM219.4688 126.5781 C219.7188 126.8906 219.875 127.2656 219.8906 127.6562 C219.8906 128.1875 219.625 128.5 219.0312 128.7656 L218.4062 129.0156 C217.6406 129.3125 217.3906 129.5469 217.3906 129.9375 C217.3906 130.1094 217.4531 130.3438 217.5781 130.8125 L217.7344 131.3438 L218.1094 131.3438 L218.0938 130.5312 C218.0938 130.0938 218.2031 129.9688 218.7812 129.7344 L219.2031 129.5625 C220.0312 129.2188 220.4531 128.6875 220.4531 127.8438 C220.4531 126.1562 218.6562 125.1875 217.5 125.0312 C217.1094 125.125 216.9062 125.2969 216.9062 125.6406 C216.9062 125.9375 217.0625 126.1562 217.7188 126.2656 L219.4688 126.5781 Z"
      /><rect x="224" y="79" width="5" style="fill:white; stroke:none;" height="10"
      /><path style="stroke:none;" d="M225.8906 87.6875 C225.4844 87.6875 225.1562 88.0469 225.1562 88.4219 C225.1562 88.8125 225.4844 89.1562 225.8906 89.1562 C226.2969 89.1562 226.6406 88.8125 226.6406 88.4219 C226.6406 88.0469 226.2969 87.6875 225.8906 87.6875 ZM227.4688 81.5781 C227.7188 81.8906 227.875 82.2656 227.8906 82.6562 C227.8906 83.1875 227.625 83.5 227.0312 83.7656 L226.4062 84.0156 C225.6406 84.3125 225.3906 84.5469 225.3906 84.9375 C225.3906 85.1094 225.4531 85.3438 225.5781 85.8125 L225.7344 86.3438 L226.1094 86.3438 L226.0938 85.5312 C226.0938 85.0938 226.2031 84.9688 226.7812 84.7344 L227.2031 84.5625 C228.0312 84.2188 228.4531 83.6875 228.4531 82.8438 C228.4531 81.1562 226.6562 80.1875 225.5 80.0312 C225.1094 80.125 224.9062 80.2969 224.9062 80.6406 C224.9062 80.9375 225.0625 81.1562 225.7188 81.2656 L227.4688 81.5781 Z"
      /><rect x="206" y="63" width="5" style="fill:white; stroke:none;" height="10"
      /><path style="stroke:none;" d="M207.8906 71.6875 C207.4844 71.6875 207.1562 72.0469 207.1562 72.4219 C207.1562 72.8125 207.4844 73.1562 207.8906 73.1562 C208.2969 73.1562 208.6406 72.8125 208.6406 72.4219 C208.6406 72.0469 208.2969 71.6875 207.8906 71.6875 ZM209.4688 65.5781 C209.7188 65.8906 209.875 66.2656 209.8906 66.6562 C209.8906 67.1875 209.625 67.5 209.0312 67.7656 L208.4062 68.0156 C207.6406 68.3125 207.3906 68.5469 207.3906 68.9375 C207.3906 69.1094 207.4531 69.3438 207.5781 69.8125 L207.7344 70.3438 L208.1094 70.3438 L208.0938 69.5312 C208.0938 69.0938 208.2031 68.9688 208.7812 68.7344 L209.2031 68.5625 C210.0312 68.2188 210.4531 67.6875 210.4531 66.8438 C210.4531 65.1562 208.6562 64.1875 207.5 64.0312 C207.1094 64.125 206.9062 64.2969 206.9062 64.6406 C206.9062 64.9375 207.0625 65.1562 207.7188 65.2656 L209.4688 65.5781 Z"
      /><rect x="279" y="96" width="5" style="fill:white; stroke:none;" height="10"
      /><path style="stroke:none;" d="M280.8906 104.6875 C280.4844 104.6875 280.1562 105.0469 280.1562 105.4219 C280.1562 105.8125 280.4844 106.1562 280.8906 106.1562 C281.2969 106.1562 281.6406 105.8125 281.6406 105.4219 C281.6406 105.0469 281.2969 104.6875 280.8906 104.6875 ZM282.4688 98.5781 C282.7188 98.8906 282.875 99.2656 282.8906 99.6562 C282.8906 100.1875 282.625 100.5 282.0312 100.7656 L281.4062 101.0156 C280.6406 101.3125 280.3906 101.5469 280.3906 101.9375 C280.3906 102.1094 280.4531 102.3438 280.5781 102.8125 L280.7344 103.3438 L281.1094 103.3438 L281.0938 102.5312 C281.0938 102.0938 281.2031 101.9688 281.7812 101.7344 L282.2031 101.5625 C283.0312 101.2188 283.4531 100.6875 283.4531 99.8438 C283.4531 98.1562 281.6562 97.1875 280.5 97.0312 C280.1094 97.125 279.9062 97.2969 279.9062 97.6406 C279.9062 97.9375 280.0625 98.1562 280.7188 98.2656 L282.4688 98.5781 Z"
      /><rect x="265" y="96" width="5" style="fill:white; stroke:none;" height="10"
      /><path style="stroke:none;" d="M266.8906 104.6875 C266.4844 104.6875 266.1562 105.0469 266.1562 105.4219 C266.1562 105.8125 266.4844 106.1562 266.8906 106.1562 C267.2969 106.1562 267.6406 105.8125 267.6406 105.4219 C267.6406 105.0469 267.2969 104.6875 266.8906 104.6875 ZM268.4688 98.5781 C268.7188 98.8906 268.875 99.2656 268.8906 99.6562 C268.8906 100.1875 268.625 100.5 268.0312 100.7656 L267.4062 101.0156 C266.6406 101.3125 266.3906 101.5469 266.3906 101.9375 C266.3906 102.1094 266.4531 102.3438 266.5781 102.8125 L266.7344 103.3438 L267.1094 103.3438 L267.0938 102.5312 C267.0938 102.0938 267.2031 101.9688 267.7812 101.7344 L268.2031 101.5625 C269.0312 101.2188 269.4531 100.6875 269.4531 99.8438 C269.4531 98.1562 267.6562 97.1875 266.5 97.0312 C266.1094 97.125 265.9062 97.2969 265.9062 97.6406 C265.9062 97.9375 266.0625 98.1562 266.7188 98.2656 L268.4688 98.5781 Z"
      /><polygon style="fill:white; clip-path:url(#clipPath16); stroke:none;" points=" 353 52 342 30 364 30"
      /><rect x="342" y="30" width="22" style="clip-path:url(#clipPath16); fill:rgb(237,28,36); stroke:none;" height="22"
      /><rect x="342" y="30" width="22" style="fill:none; clip-path:url(#clipPath16);" height="22"
      /><polygon style="fill:none;" points=" 353 52 342 30 364 30"
      /><rect x="331" y="96" width="5" style="fill:white; stroke:none;" height="10"
      /><path style="stroke:none;" d="M332.8906 104.6875 C332.4844 104.6875 332.1562 105.0469 332.1562 105.4219 C332.1562 105.8125 332.4844 106.1562 332.8906 106.1562 C333.2969 106.1562 333.6406 105.8125 333.6406 105.4219 C333.6406 105.0469 333.2969 104.6875 332.8906 104.6875 ZM334.4688 98.5781 C334.7188 98.8906 334.875 99.2656 334.8906 99.6562 C334.8906 100.1875 334.625 100.5 334.0312 100.7656 L333.4062 101.0156 C332.6406 101.3125 332.3906 101.5469 332.3906 101.9375 C332.3906 102.1094 332.4531 102.3438 332.5781 102.8125 L332.7344 103.3438 L333.1094 103.3438 L333.0938 102.5312 C333.0938 102.0938 333.2031 101.9688 333.7812 101.7344 L334.2031 101.5625 C335.0312 101.2188 335.4531 100.6875 335.4531 99.8438 C335.4531 98.1562 333.6562 97.1875 332.5 97.0312 C332.1094 97.125 331.9062 97.2969 331.9062 97.6406 C331.9062 97.9375 332.0625 98.1562 332.7188 98.2656 L334.4688 98.5781 Z"
      /><rect x="317" y="96" width="5" style="fill:white; stroke:none;" height="10"
      /><path style="stroke:none;" d="M318.8906 104.6875 C318.4844 104.6875 318.1562 105.0469 318.1562 105.4219 C318.1562 105.8125 318.4844 106.1562 318.8906 106.1562 C319.2969 106.1562 319.6406 105.8125 319.6406 105.4219 C319.6406 105.0469 319.2969 104.6875 318.8906 104.6875 ZM320.4688 98.5781 C320.7188 98.8906 320.875 99.2656 320.8906 99.6562 C320.8906 100.1875 320.625 100.5 320.0312 100.7656 L319.4062 101.0156 C318.6406 101.3125 318.3906 101.5469 318.3906 101.9375 C318.3906 102.1094 318.4531 102.3438 318.5781 102.8125 L318.7344 103.3438 L319.1094 103.3438 L319.0938 102.5312 C319.0938 102.0938 319.2031 101.9688 319.7812 101.7344 L320.2031 101.5625 C321.0312 101.2188 321.4531 100.6875 321.4531 99.8438 C321.4531 98.1562 319.6562 97.1875 318.5 97.0312 C318.1094 97.125 317.9062 97.2969 317.9062 97.6406 C317.9062 97.9375 318.0625 98.1562 318.7188 98.2656 L320.4688 98.5781 Z"
      /><rect x="342" y="69" width="5" style="fill:white; stroke:none;" height="10"
      /><path style="stroke:none;" d="M343.8906 77.6875 C343.4844 77.6875 343.1562 78.0469 343.1562 78.4219 C343.1562 78.8125 343.4844 79.1562 343.8906 79.1562 C344.2969 79.1562 344.6406 78.8125 344.6406 78.4219 C344.6406 78.0469 344.2969 77.6875 343.8906 77.6875 ZM345.4688 71.5781 C345.7188 71.8906 345.875 72.2656 345.8906 72.6562 C345.8906 73.1875 345.625 73.5 345.0312 73.7656 L344.4062 74.0156 C343.6406 74.3125 343.3906 74.5469 343.3906 74.9375 C343.3906 75.1094 343.4531 75.3438 343.5781 75.8125 L343.7344 76.3438 L344.1094 76.3438 L344.0938 75.5312 C344.0938 75.0938 344.2031 74.9688 344.7812 74.7344 L345.2031 74.5625 C346.0312 74.2188 346.4531 73.6875 346.4531 72.8438 C346.4531 71.1562 344.6562 70.1875 343.5 70.0312 C343.1094 70.125 342.9062 70.2969 342.9062 70.6406 C342.9062 70.9375 343.0625 71.1562 343.7188 71.2656 L345.4688 71.5781 Z"
      /><rect x="342" y="55" width="5" style="fill:white; stroke:none;" height="10"
      /><path style="stroke:none;" d="M343.8906 63.6875 C343.4844 63.6875 343.1562 64.0469 343.1562 64.4219 C343.1562 64.8125 343.4844 65.1562 343.8906 65.1562 C344.2969 65.1562 344.6406 64.8125 344.6406 64.4219 C344.6406 64.0469 344.2969 63.6875 343.8906 63.6875 ZM345.4688 57.5781 C345.7188 57.8906 345.875 58.2656 345.8906 58.6562 C345.8906 59.1875 345.625 59.5 345.0312 59.7656 L344.4062 60.0156 C343.6406 60.3125 343.3906 60.5469 343.3906 60.9375 C343.3906 61.1094 343.4531 61.3438 343.5781 61.8125 L343.7344 62.3438 L344.1094 62.3438 L344.0938 61.5312 C344.0938 61.0938 344.2031 60.9688 344.7812 60.7344 L345.2031 60.5625 C346.0312 60.2188 346.4531 59.6875 346.4531 58.8438 C346.4531 57.1562 344.6562 56.1875 343.5 56.0312 C343.1094 56.125 342.9062 56.2969 342.9062 56.6406 C342.9062 56.9375 343.0625 57.1562 343.7188 57.2656 L345.4688 57.5781 Z"
      /><rect x="369" y="96" width="5" style="fill:white; stroke:none;" height="10"
      /><path style="stroke:none;" d="M370.8906 104.6875 C370.4844 104.6875 370.1562 105.0469 370.1562 105.4219 C370.1562 105.8125 370.4844 106.1562 370.8906 106.1562 C371.2969 106.1562 371.6406 105.8125 371.6406 105.4219 C371.6406 105.0469 371.2969 104.6875 370.8906 104.6875 ZM372.4688 98.5781 C372.7188 98.8906 372.875 99.2656 372.8906 99.6562 C372.8906 100.1875 372.625 100.5 372.0312 100.7656 L371.4062 101.0156 C370.6406 101.3125 370.3906 101.5469 370.3906 101.9375 C370.3906 102.1094 370.4531 102.3438 370.5781 102.8125 L370.7344 103.3438 L371.1094 103.3438 L371.0938 102.5312 C371.0938 102.0938 371.2031 101.9688 371.7812 101.7344 L372.2031 101.5625 C373.0312 101.2188 373.4531 100.6875 373.4531 99.8438 C373.4531 98.1562 371.6562 97.1875 370.5 97.0312 C370.1094 97.125 369.9062 97.2969 369.9062 97.6406 C369.9062 97.9375 370.0625 98.1562 370.7188 98.2656 L372.4688 98.5781 Z"
    /></g
  ></g
></svg
>
