<?xml version="1.0"?>
<!DOCTYPE svg PUBLIC '-//W3C//DTD SVG 1.0//EN'
          'http://www.w3.org/TR/2001/REC-SVG-20010904/DTD/svg10.dtd'>
<svg xmlns:xlink="http://www.w3.org/1999/xlink" style="fill-opacity:1; color-rendering:auto; color-interpolation:auto; text-rendering:auto; stroke:black; stroke-linecap:square; stroke-miterlimit:10; shape-rendering:auto; stroke-opacity:1; fill:black; stroke-dasharray:none; font-weight:normal; stroke-width:1; font-family:'Dialog'; font-style:normal; stroke-linejoin:miter; font-size:12px; stroke-dashoffset:0; image-rendering:auto;" viewBox="0 0 314 238" xmlns="http://www.w3.org/2000/svg"
><!--Generated by the Batik Graphics2D SVG Generator--><defs id="genericDefs"
  /><g
  ><defs id="defs1"
    ><clipPath clipPathUnits="userSpaceOnUse" id="clipPath1"
      ><path d="M186 134 L208 134 L208 156 L186 156 L186 134 Z"
      /></clipPath
      ><clipPath clipPathUnits="userSpaceOnUse" id="clipPath2"
      ><path d="M134 186 L156 186 L156 208 L134 208 L134 186 Z"
      /></clipPath
      ><clipPath clipPathUnits="userSpaceOnUse" id="clipPath3"
      ><path d="M104 197 C104 203.0751 99.0751 208 93 208 C86.9249 208 82 203.0751 82 197 C82 190.9249 86.9249 186 93 186 C99.0751 186 104 190.9249 104 197 Z"
      /></clipPath
      ><clipPath clipPathUnits="userSpaceOnUse" id="clipPath4"
      ><path style="fill-rule:evenodd;" d="M93 156 L82 134 L104 134 Z"
      /></clipPath
      ><clipPath clipPathUnits="userSpaceOnUse" id="clipPath5"
      ><path d="M52 197 C52 203.0751 47.0751 208 41 208 C34.9249 208 30 203.0751 30 197 C30 190.9249 34.9249 186 41 186 C47.0751 186 52 190.9249 52 197 Z"
      /></clipPath
      ><clipPath clipPathUnits="userSpaceOnUse" id="clipPath6"
      ><path d="M156 93 C156 99.0751 151.0751 104 145 104 C138.9249 104 134 99.0751 134 93 C134 86.9249 138.9249 82 145 82 C151.0751 82 156 86.9249 156 93 Z"
      /></clipPath
      ><clipPath clipPathUnits="userSpaceOnUse" id="clipPath7"
      ><path style="fill-rule:evenodd;" d="M145 52 L134 30 L156 30 Z"
      /></clipPath
      ><clipPath clipPathUnits="userSpaceOnUse" id="clipPath8"
      ><path d="M104 93 C104 99.0751 99.0751 104 93 104 C86.9249 104 82 99.0751 82 93 C82 86.9249 86.9249 82 93 82 C99.0751 82 104 86.9249 104 93 Z"
      /></clipPath
    ></defs
    ><g style="fill:white; text-rendering:optimizeSpeed; stroke:white;"
    ><rect x="0" width="314" height="238" y="0" style="stroke:none;"
      /><polygon style="fill:none; stroke:black;" points=" 197 145 145 197"
      /><polygon style="fill:none; stroke:black;" points=" 197 145 145 93"
      /><rect x="186" y="134" width="22" style="clip-path:url(#clipPath1); stroke:none;" height="22"
      /><rect x="186" y="134" width="22" style="clip-path:url(#clipPath1); fill:rgb(255,212,0); stroke:none;" height="22"
      /><rect x="186" y="134" width="22" style="clip-path:url(#clipPath1); fill:none; stroke:black;" height="22"
      /><rect x="186" y="134" width="22" style="fill:none; stroke:black;" height="22"
    /></g
    ><g style="font-style:italic; text-rendering:optimizeSpeed; font-size:10px; font-family:'SansSerif';"
    ><path style="stroke:none;" d="M197 147.125 C198.3281 147.125 199.7344 146.0938 200.125 144.2969 C200.5 142.4844 199.5469 141.4375 198.2188 141.4375 C196.8906 141.4375 195.4688 142.4844 195.0938 144.2969 C194.7031 146.0938 195.6719 147.125 197 147.125 ZM197.1719 146.375 C196.2344 146.375 195.7656 145.5469 196.0312 144.2969 C196.2969 143.0469 197.1094 142.1875 198.0469 142.1875 C198.9844 142.1875 199.4531 143.0469 199.1875 144.2969 C198.9219 145.5469 198.1094 146.375 197.1719 146.375 Z"
      /><polygon style="fill:none;" points=" 145 197 93 197"
    /></g
    ><g style="fill:white; text-rendering:optimizeSpeed; stroke:white;"
    ><rect x="134" y="186" width="22" style="clip-path:url(#clipPath2); stroke:none;" height="22"
      /><rect x="134" y="186" width="22" style="clip-path:url(#clipPath2); fill:rgb(0,144,188); stroke:none;" height="22"
      /><rect x="134" y="186" width="22" style="clip-path:url(#clipPath2); fill:none; stroke:black;" height="22"
      /><rect x="134" y="186" width="22" style="fill:none; stroke:black;" height="22"
      /><polygon style="fill:none; stroke:black;" points=" 93 197 93 145"
      /><polygon style="fill:none; stroke:black;" points=" 93 197 41 197"
      /><circle r="11" style="clip-path:url(#clipPath3); stroke:none;" cx="93" cy="197"
      /><rect x="82" y="186" width="22" style="clip-path:url(#clipPath3); fill:rgb(255,212,0); stroke:none;" height="22"
      /><rect x="82" y="186" width="22" style="clip-path:url(#clipPath3); fill:none; stroke:black;" height="22"
      /><circle r="11" style="fill:none; stroke:black;" cx="93" cy="197"
      /><polygon style="clip-path:url(#clipPath4); stroke:none;" points=" 93 156 82 134 104 134"
      /><rect x="82" y="134" width="22" style="clip-path:url(#clipPath4); fill:rgb(237,28,36); stroke:none;" height="22"
      /><rect x="82" y="134" width="22" style="clip-path:url(#clipPath4); fill:none; stroke:black;" height="22"
      /><polygon style="fill:none; stroke:black;" points=" 93 156 82 134 104 134"
      /><circle r="11" style="clip-path:url(#clipPath5); stroke:none;" cx="41" cy="197"
      /><rect x="30" y="186" width="22" style="clip-path:url(#clipPath5); fill:rgb(255,212,0); stroke:none;" height="22"
      /><rect x="30" y="186" width="22" style="clip-path:url(#clipPath5); fill:none; stroke:black;" height="22"
      /><circle r="11" style="fill:none; stroke:black;" cx="41" cy="197"
      /><rect x="82" width="5" height="10" y="173" style="stroke:none;"
      /><path d="M83.8906 181.6875 C83.4844 181.6875 83.1562 182.0469 83.1562 182.4219 C83.1562 182.8125 83.4844 183.1562 83.8906 183.1562 C84.2969 183.1562 84.6406 182.8125 84.6406 182.4219 C84.6406 182.0469 84.2969 181.6875 83.8906 181.6875 ZM85.4688 175.5781 C85.7188 175.8906 85.875 176.2656 85.8906 176.6562 C85.8906 177.1875 85.625 177.5 85.0312 177.7656 L84.4062 178.0156 C83.6406 178.3125 83.3906 178.5469 83.3906 178.9375 C83.3906 179.1094 83.4531 179.3438 83.5781 179.8125 L83.7344 180.3438 L84.1094 180.3438 L84.0938 179.5312 C84.0938 179.0938 84.2031 178.9688 84.7812 178.7344 L85.2031 178.5625 C86.0312 178.2188 86.4531 177.6875 86.4531 176.8438 C86.4531 175.1562 84.6562 174.1875 83.5 174.0312 C83.1094 174.125 82.9062 174.2969 82.9062 174.6406 C82.9062 174.9375 83.0625 175.1562 83.7188 175.2656 L85.4688 175.5781 Z" style="fill:black; stroke:none;"
      /><rect x="82" width="5" height="10" y="159" style="stroke:none;"
      /><path d="M83.8906 167.6875 C83.4844 167.6875 83.1562 168.0469 83.1562 168.4219 C83.1562 168.8125 83.4844 169.1562 83.8906 169.1562 C84.2969 169.1562 84.6406 168.8125 84.6406 168.4219 C84.6406 168.0469 84.2969 167.6875 83.8906 167.6875 ZM85.4688 161.5781 C85.7188 161.8906 85.875 162.2656 85.8906 162.6562 C85.8906 163.1875 85.625 163.5 85.0312 163.7656 L84.4062 164.0156 C83.6406 164.3125 83.3906 164.5469 83.3906 164.9375 C83.3906 165.1094 83.4531 165.3438 83.5781 165.8125 L83.7344 166.3438 L84.1094 166.3438 L84.0938 165.5312 C84.0938 165.0938 84.2031 164.9688 84.7812 164.7344 L85.2031 164.5625 C86.0312 164.2188 86.4531 163.6875 86.4531 162.8438 C86.4531 161.1562 84.6562 160.1875 83.5 160.0312 C83.1094 160.125 82.9062 160.2969 82.9062 160.6406 C82.9062 160.9375 83.0625 161.1562 83.7188 161.2656 L85.4688 161.5781 Z" style="fill:black; stroke:none;"
      /><rect x="71" width="5" height="10" y="200" style="stroke:none;"
      /><path d="M72.8906 208.6875 C72.4844 208.6875 72.1562 209.0469 72.1562 209.4219 C72.1562 209.8125 72.4844 210.1562 72.8906 210.1562 C73.2969 210.1562 73.6406 209.8125 73.6406 209.4219 C73.6406 209.0469 73.2969 208.6875 72.8906 208.6875 ZM74.4688 202.5781 C74.7188 202.8906 74.875 203.2656 74.8906 203.6562 C74.8906 204.1875 74.625 204.5 74.0312 204.7656 L73.4062 205.0156 C72.6406 205.3125 72.3906 205.5469 72.3906 205.9375 C72.3906 206.1094 72.4531 206.3438 72.5781 206.8125 L72.7344 207.3438 L73.1094 207.3438 L73.0938 206.5312 C73.0938 206.0938 73.2031 205.9688 73.7812 205.7344 L74.2031 205.5625 C75.0312 205.2188 75.4531 204.6875 75.4531 203.8438 C75.4531 202.1562 73.6562 201.1875 72.5 201.0312 C72.1094 201.125 71.9062 201.2969 71.9062 201.6406 C71.9062 201.9375 72.0625 202.1562 72.7188 202.2656 L74.4688 202.5781 Z" style="fill:black; stroke:none;"
      /><rect x="57" width="5" height="10" y="200" style="stroke:none;"
      /><path d="M58.8906 208.6875 C58.4844 208.6875 58.1562 209.0469 58.1562 209.4219 C58.1562 209.8125 58.4844 210.1562 58.8906 210.1562 C59.2969 210.1562 59.6406 209.8125 59.6406 209.4219 C59.6406 209.0469 59.2969 208.6875 58.8906 208.6875 ZM60.4688 202.5781 C60.7188 202.8906 60.875 203.2656 60.8906 203.6562 C60.8906 204.1875 60.625 204.5 60.0312 204.7656 L59.4062 205.0156 C58.6406 205.3125 58.3906 205.5469 58.3906 205.9375 C58.3906 206.1094 58.4531 206.3438 58.5781 206.8125 L58.7344 207.3438 L59.1094 207.3438 L59.0938 206.5312 C59.0938 206.0938 59.2031 205.9688 59.7812 205.7344 L60.2031 205.5625 C61.0312 205.2188 61.4531 204.6875 61.4531 203.8438 C61.4531 202.1562 59.6562 201.1875 58.5 201.0312 C58.1094 201.125 57.9062 201.2969 57.9062 201.6406 C57.9062 201.9375 58.0625 202.1562 58.7188 202.2656 L60.4688 202.5781 Z" style="fill:black; stroke:none;"
      /><rect x="123" width="5" height="10" y="200" style="stroke:none;"
      /><path d="M124.8906 208.6875 C124.4844 208.6875 124.1562 209.0469 124.1562 209.4219 C124.1562 209.8125 124.4844 210.1562 124.8906 210.1562 C125.2969 210.1562 125.6406 209.8125 125.6406 209.4219 C125.6406 209.0469 125.2969 208.6875 124.8906 208.6875 ZM126.4688 202.5781 C126.7188 202.8906 126.875 203.2656 126.8906 203.6562 C126.8906 204.1875 126.625 204.5 126.0312 204.7656 L125.4062 205.0156 C124.6406 205.3125 124.3906 205.5469 124.3906 205.9375 C124.3906 206.1094 124.4531 206.3438 124.5781 206.8125 L124.7344 207.3438 L125.1094 207.3438 L125.0938 206.5312 C125.0938 206.0938 125.2031 205.9688 125.7812 205.7344 L126.2031 205.5625 C127.0312 205.2188 127.4531 204.6875 127.4531 203.8438 C127.4531 202.1562 125.6562 201.1875 124.5 201.0312 C124.1094 201.125 123.9062 201.2969 123.9062 201.6406 C123.9062 201.9375 124.0625 202.1562 124.7188 202.2656 L126.4688 202.5781 Z" style="fill:black; stroke:none;"
      /><rect x="109" width="5" height="10" y="200" style="stroke:none;"
      /><path d="M110.8906 208.6875 C110.4844 208.6875 110.1562 209.0469 110.1562 209.4219 C110.1562 209.8125 110.4844 210.1562 110.8906 210.1562 C111.2969 210.1562 111.6406 209.8125 111.6406 209.4219 C111.6406 209.0469 111.2969 208.6875 110.8906 208.6875 ZM112.4688 202.5781 C112.7188 202.8906 112.875 203.2656 112.8906 203.6562 C112.8906 204.1875 112.625 204.5 112.0312 204.7656 L111.4062 205.0156 C110.6406 205.3125 110.3906 205.5469 110.3906 205.9375 C110.3906 206.1094 110.4531 206.3438 110.5781 206.8125 L110.7344 207.3438 L111.1094 207.3438 L111.0938 206.5312 C111.0938 206.0938 111.2031 205.9688 111.7812 205.7344 L112.2031 205.5625 C113.0312 205.2188 113.4531 204.6875 113.4531 203.8438 C113.4531 202.1562 111.6562 201.1875 110.5 201.0312 C110.1094 201.125 109.9062 201.2969 109.9062 201.6406 C109.9062 201.9375 110.0625 202.1562 110.7188 202.2656 L112.4688 202.5781 Z" style="fill:black; stroke:none;"
      /><polygon style="fill:none; stroke:black;" points=" 145 93 145 41"
      /><polygon style="fill:none; stroke:black;" points=" 145 93 93 93"
      /><circle r="11" style="clip-path:url(#clipPath6); stroke:none;" cx="145" cy="93"
      /><rect x="134" y="82" width="22" style="clip-path:url(#clipPath6); fill:rgb(255,212,0); stroke:none;" height="22"
      /><rect x="134" y="82" width="22" style="clip-path:url(#clipPath6); fill:none; stroke:black;" height="22"
      /><circle r="11" style="fill:none; stroke:black;" cx="145" cy="93"
      /><polygon style="clip-path:url(#clipPath7); stroke:none;" points=" 145 52 134 30 156 30"
      /><rect x="134" y="30" width="22" style="clip-path:url(#clipPath7); fill:rgb(237,28,36); stroke:none;" height="22"
      /><rect x="134" y="30" width="22" style="clip-path:url(#clipPath7); fill:none; stroke:black;" height="22"
      /><polygon style="fill:none; stroke:black;" points=" 145 52 134 30 156 30"
      /><circle r="11" style="clip-path:url(#clipPath8); stroke:none;" cx="93" cy="93"
      /><rect x="82" y="82" width="22" style="clip-path:url(#clipPath8); fill:rgb(255,212,0); stroke:none;" height="22"
      /><rect x="82" y="82" width="22" style="clip-path:url(#clipPath8); fill:none; stroke:black;" height="22"
      /><circle r="11" style="fill:none; stroke:black;" cx="93" cy="93"
      /><rect x="134" width="5" height="10" y="69" style="stroke:none;"
      /><path d="M135.8906 77.6875 C135.4844 77.6875 135.1562 78.0469 135.1562 78.4219 C135.1562 78.8125 135.4844 79.1562 135.8906 79.1562 C136.2969 79.1562 136.6406 78.8125 136.6406 78.4219 C136.6406 78.0469 136.2969 77.6875 135.8906 77.6875 ZM137.4688 71.5781 C137.7188 71.8906 137.875 72.2656 137.8906 72.6562 C137.8906 73.1875 137.625 73.5 137.0312 73.7656 L136.4062 74.0156 C135.6406 74.3125 135.3906 74.5469 135.3906 74.9375 C135.3906 75.1094 135.4531 75.3438 135.5781 75.8125 L135.7344 76.3438 L136.1094 76.3438 L136.0938 75.5312 C136.0938 75.0938 136.2031 74.9688 136.7812 74.7344 L137.2031 74.5625 C138.0312 74.2188 138.4531 73.6875 138.4531 72.8438 C138.4531 71.1562 136.6562 70.1875 135.5 70.0312 C135.1094 70.125 134.9062 70.2969 134.9062 70.6406 C134.9062 70.9375 135.0625 71.1562 135.7188 71.2656 L137.4688 71.5781 Z" style="fill:black; stroke:none;"
      /><rect x="134" width="5" height="10" y="55" style="stroke:none;"
      /><path d="M135.8906 63.6875 C135.4844 63.6875 135.1562 64.0469 135.1562 64.4219 C135.1562 64.8125 135.4844 65.1562 135.8906 65.1562 C136.2969 65.1562 136.6406 64.8125 136.6406 64.4219 C136.6406 64.0469 136.2969 63.6875 135.8906 63.6875 ZM137.4688 57.5781 C137.7188 57.8906 137.875 58.2656 137.8906 58.6562 C137.8906 59.1875 137.625 59.5 137.0312 59.7656 L136.4062 60.0156 C135.6406 60.3125 135.3906 60.5469 135.3906 60.9375 C135.3906 61.1094 135.4531 61.3438 135.5781 61.8125 L135.7344 62.3438 L136.1094 62.3438 L136.0938 61.5312 C136.0938 61.0938 136.2031 60.9688 136.7812 60.7344 L137.2031 60.5625 C138.0312 60.2188 138.4531 59.6875 138.4531 58.8438 C138.4531 57.1562 136.6562 56.1875 135.5 56.0312 C135.1094 56.125 134.9062 56.2969 134.9062 56.6406 C134.9062 56.9375 135.0625 57.1562 135.7188 57.2656 L137.4688 57.5781 Z" style="fill:black; stroke:none;"
      /><rect x="123" width="5" height="10" y="96" style="stroke:none;"
      /><path d="M124.8906 104.6875 C124.4844 104.6875 124.1562 105.0469 124.1562 105.4219 C124.1562 105.8125 124.4844 106.1562 124.8906 106.1562 C125.2969 106.1562 125.6406 105.8125 125.6406 105.4219 C125.6406 105.0469 125.2969 104.6875 124.8906 104.6875 ZM126.4688 98.5781 C126.7188 98.8906 126.875 99.2656 126.8906 99.6562 C126.8906 100.1875 126.625 100.5 126.0312 100.7656 L125.4062 101.0156 C124.6406 101.3125 124.3906 101.5469 124.3906 101.9375 C124.3906 102.1094 124.4531 102.3438 124.5781 102.8125 L124.7344 103.3438 L125.1094 103.3438 L125.0938 102.5312 C125.0938 102.0938 125.2031 101.9688 125.7812 101.7344 L126.2031 101.5625 C127.0312 101.2188 127.4531 100.6875 127.4531 99.8438 C127.4531 98.1562 125.6562 97.1875 124.5 97.0312 C124.1094 97.125 123.9062 97.2969 123.9062 97.6406 C123.9062 97.9375 124.0625 98.1562 124.7188 98.2656 L126.4688 98.5781 Z" style="fill:black; stroke:none;"
      /><rect x="109" width="5" height="10" y="96" style="stroke:none;"
      /><path d="M110.8906 104.6875 C110.4844 104.6875 110.1562 105.0469 110.1562 105.4219 C110.1562 105.8125 110.4844 106.1562 110.8906 106.1562 C111.2969 106.1562 111.6406 105.8125 111.6406 105.4219 C111.6406 105.0469 111.2969 104.6875 110.8906 104.6875 ZM112.4688 98.5781 C112.7188 98.8906 112.875 99.2656 112.8906 99.6562 C112.8906 100.1875 112.625 100.5 112.0312 100.7656 L111.4062 101.0156 C110.6406 101.3125 110.3906 101.5469 110.3906 101.9375 C110.3906 102.1094 110.4531 102.3438 110.5781 102.8125 L110.7344 103.3438 L111.1094 103.3438 L111.0938 102.5312 C111.0938 102.0938 111.2031 101.9688 111.7812 101.7344 L112.2031 101.5625 C113.0312 101.2188 113.4531 100.6875 113.4531 99.8438 C113.4531 98.1562 111.6562 97.1875 110.5 97.0312 C110.1094 97.125 109.9062 97.2969 109.9062 97.6406 C109.9062 97.9375 110.0625 98.1562 110.7188 98.2656 L112.4688 98.5781 Z" style="fill:black; stroke:none;"
      /><rect x="183" width="5" height="10" y="162" style="stroke:none;"
      /><path d="M184.8906 170.6875 C184.4844 170.6875 184.1562 171.0469 184.1562 171.4219 C184.1562 171.8125 184.4844 172.1562 184.8906 172.1562 C185.2969 172.1562 185.6406 171.8125 185.6406 171.4219 C185.6406 171.0469 185.2969 170.6875 184.8906 170.6875 ZM186.4688 164.5781 C186.7188 164.8906 186.875 165.2656 186.8906 165.6562 C186.8906 166.1875 186.625 166.5 186.0312 166.7656 L185.4062 167.0156 C184.6406 167.3125 184.3906 167.5469 184.3906 167.9375 C184.3906 168.1094 184.4531 168.3438 184.5781 168.8125 L184.7344 169.3438 L185.1094 169.3438 L185.0938 168.5312 C185.0938 168.0938 185.2031 167.9688 185.7812 167.7344 L186.2031 167.5625 C187.0312 167.2188 187.4531 166.6875 187.4531 165.8438 C187.4531 164.1562 185.6562 163.1875 184.5 163.0312 C184.1094 163.125 183.9062 163.2969 183.9062 163.6406 C183.9062 163.9375 184.0625 164.1562 184.7188 164.2656 L186.4688 164.5781 Z" style="fill:black; stroke:none;"
      /><rect x="164" width="5" height="10" y="181" style="stroke:none;"
      /><path d="M165.8906 189.6875 C165.4844 189.6875 165.1562 190.0469 165.1562 190.4219 C165.1562 190.8125 165.4844 191.1562 165.8906 191.1562 C166.2969 191.1562 166.6406 190.8125 166.6406 190.4219 C166.6406 190.0469 166.2969 189.6875 165.8906 189.6875 ZM167.4688 183.5781 C167.7188 183.8906 167.875 184.2656 167.8906 184.6562 C167.8906 185.1875 167.625 185.5 167.0312 185.7656 L166.4062 186.0156 C165.6406 186.3125 165.3906 186.5469 165.3906 186.9375 C165.3906 187.1094 165.4531 187.3438 165.5781 187.8125 L165.7344 188.3438 L166.1094 188.3438 L166.0938 187.5312 C166.0938 187.0938 166.2031 186.9688 166.7812 186.7344 L167.2031 186.5625 C168.0312 186.2188 168.4531 185.6875 168.4531 184.8438 C168.4531 183.1562 166.6562 182.1875 165.5 182.0312 C165.1094 182.125 164.9062 182.2969 164.9062 182.6406 C164.9062 182.9375 165.0625 183.1562 165.7188 183.2656 L167.4688 183.5781 Z" style="fill:black; stroke:none;"
      /><rect x="172" width="5" height="10" y="129" style="stroke:none;"
      /><path d="M173.8906 137.6875 C173.4844 137.6875 173.1562 138.0469 173.1562 138.4219 C173.1562 138.8125 173.4844 139.1562 173.8906 139.1562 C174.2969 139.1562 174.6406 138.8125 174.6406 138.4219 C174.6406 138.0469 174.2969 137.6875 173.8906 137.6875 ZM175.4688 131.5781 C175.7188 131.8906 175.875 132.2656 175.8906 132.6562 C175.8906 133.1875 175.625 133.5 175.0312 133.7656 L174.4062 134.0156 C173.6406 134.3125 173.3906 134.5469 173.3906 134.9375 C173.3906 135.1094 173.4531 135.3438 173.5781 135.8125 L173.7344 136.3438 L174.1094 136.3438 L174.0938 135.5312 C174.0938 135.0938 174.2031 134.9688 174.7812 134.7344 L175.2031 134.5625 C176.0312 134.2188 176.4531 133.6875 176.4531 132.8438 C176.4531 131.1562 174.6562 130.1875 173.5 130.0312 C173.1094 130.125 172.9062 130.2969 172.9062 130.6406 C172.9062 130.9375 173.0625 131.1562 173.7188 131.2656 L175.4688 131.5781 Z" style="fill:black; stroke:none;"
      /><rect x="153" width="5" height="10" y="110" style="stroke:none;"
      /><path d="M154.8906 118.6875 C154.4844 118.6875 154.1562 119.0469 154.1562 119.4219 C154.1562 119.8125 154.4844 120.1562 154.8906 120.1562 C155.2969 120.1562 155.6406 119.8125 155.6406 119.4219 C155.6406 119.0469 155.2969 118.6875 154.8906 118.6875 ZM156.4688 112.5781 C156.7188 112.8906 156.875 113.2656 156.8906 113.6562 C156.8906 114.1875 156.625 114.5 156.0312 114.7656 L155.4062 115.0156 C154.6406 115.3125 154.3906 115.5469 154.3906 115.9375 C154.3906 116.1094 154.4531 116.3438 154.5781 116.8125 L154.7344 117.3438 L155.1094 117.3438 L155.0938 116.5312 C155.0938 116.0938 155.2031 115.9688 155.7812 115.7344 L156.2031 115.5625 C157.0312 115.2188 157.4531 114.6875 157.4531 113.8438 C157.4531 112.1562 155.6562 111.1875 154.5 111.0312 C154.1094 111.125 153.9062 111.2969 153.9062 111.6406 C153.9062 111.9375 154.0625 112.1562 154.7188 112.2656 L156.4688 112.5781 Z" style="fill:black; stroke:none;"
    /></g
  ></g
></svg
>
