<?xml version="1.0"?>
<!DOCTYPE svg PUBLIC '-//W3C//DTD SVG 1.0//EN'
          'http://www.w3.org/TR/2001/REC-SVG-20010904/DTD/svg10.dtd'>
<svg xmlns:xlink="http://www.w3.org/1999/xlink" style="fill-opacity:1; color-rendering:auto; color-interpolation:auto; text-rendering:auto; stroke:black; stroke-linecap:square; stroke-miterlimit:10; shape-rendering:auto; stroke-opacity:1; fill:black; stroke-dasharray:none; font-weight:normal; stroke-width:1; font-family:'Dialog'; font-style:normal; stroke-linejoin:miter; font-size:12px; stroke-dashoffset:0; image-rendering:auto;" viewBox="0 0 262 134" xmlns="http://www.w3.org/2000/svg"
><!--Generated by the Batik Graphics2D SVG Generator--><defs id="genericDefs"
  /><g
  ><defs id="defs1"
    ><clipPath clipPathUnits="userSpaceOnUse" id="clipPath1"
      ><path d="M134 56 L156 56 L156 78 L134 78 L134 56 Z"
      /></clipPath
      ><clipPath clipPathUnits="userSpaceOnUse" id="clipPath2"
      ><path d="M104 93 C104 99.0751 99.0751 104 93 104 C86.9249 104 82 99.0751 82 93 C82 86.9249 86.9249 82 93 82 C99.0751 82 104 86.9249 104 93 Z"
      /></clipPath
      ><clipPath clipPathUnits="userSpaceOnUse" id="clipPath3"
      ><path style="fill-rule:evenodd;" d="M41 82 L52 93 L41 104 L30 93 Z"
      /></clipPath
      ><clipPath clipPathUnits="userSpaceOnUse" id="clipPath4"
      ><path d="M82 30 L104 30 L104 52 L82 52 L82 30 Z"
      /></clipPath
      ><clipPath clipPathUnits="userSpaceOnUse" id="clipPath5"
      ><path d="M30 30 L52 30 L52 52 L30 52 L30 30 Z"
      /></clipPath
    ></defs
    ><g style="fill:white; text-rendering:optimizeSpeed; stroke:white;"
    ><rect x="0" width="262" height="134" y="0" style="stroke:none;"
      /><polygon style="fill:none; stroke:black;" points=" 145 67 93 93"
      /><polygon style="fill:none; stroke:black;" points=" 145 67 93 41"
      /><rect x="134" y="56" width="22" style="clip-path:url(#clipPath1); stroke:none;" height="22"
      /><rect x="134" y="56" width="22" style="clip-path:url(#clipPath1); fill:rgb(255,212,0); stroke:none;" height="22"
      /><rect x="134" y="56" width="22" style="clip-path:url(#clipPath1); fill:none; stroke:black;" height="22"
      /><rect x="134" y="56" width="22" style="fill:none; stroke:black;" height="22"
    /></g
    ><g style="font-style:italic; text-rendering:optimizeSpeed; font-size:10px; font-family:'SansSerif';"
    ><path style="stroke:none;" d="M145 69.125 C146.3281 69.125 147.7344 68.0938 148.125 66.2969 C148.5 64.4844 147.5469 63.4375 146.2188 63.4375 C144.8906 63.4375 143.4688 64.4844 143.0938 66.2969 C142.7031 68.0938 143.6719 69.125 145 69.125 ZM145.1719 68.375 C144.2344 68.375 143.7656 67.5469 144.0312 66.2969 C144.2969 65.0469 145.1094 64.1875 146.0469 64.1875 C146.9844 64.1875 147.4531 65.0469 147.1875 66.2969 C146.9219 67.5469 146.1094 68.375 145.1719 68.375 Z"
      /><polygon style="fill:none;" points=" 93 93 41 93"
    /></g
    ><g style="fill:white; text-rendering:optimizeSpeed; stroke:white;"
    ><circle r="11" style="clip-path:url(#clipPath2); stroke:none;" cx="93" cy="93"
      /><rect x="82" y="82" width="22" style="clip-path:url(#clipPath2); fill:rgb(255,212,0); stroke:none;" height="22"
      /><rect x="82" y="82" width="22" style="clip-path:url(#clipPath2); fill:none; stroke:black;" height="22"
      /><circle r="11" style="fill:none; stroke:black;" cx="93" cy="93"
      /><polygon style="clip-path:url(#clipPath3); stroke:none;" points=" 41 82 52 93 41 104 30 93"
      /><rect x="30" y="82" width="22" style="clip-path:url(#clipPath3); fill:rgb(0,144,188); stroke:none;" height="11"
      /><rect x="30" y="82" width="22" style="clip-path:url(#clipPath3); fill:none; stroke:black;" height="11"
      /><polygon style="fill:none; stroke:black;" points=" 41 82 52 93 41 104 30 93"
      /><rect x="71" width="6" height="10" y="96" style="stroke:none;"
      /><path d="M73.2344 97.6562 C73.5156 97.5938 73.7656 97.5625 74.0156 97.5625 C75.0625 97.5625 75.6719 98.1719 75.6719 99.2656 C75.6719 100.4375 74.9062 101.1094 73.7031 101.1094 L73.1875 101.1094 L73.1875 101.6406 L73.7969 101.6406 C75.2188 101.6406 75.9062 102.4219 75.9062 103.6406 C75.9062 104.8438 75.1719 105.6875 73.875 105.6875 C73.6094 105.6875 73.3125 105.6562 73.0156 105.5625 L72.7812 104.8125 C72.625 104.2812 72.5 104.0469 72.1406 104.0469 C71.8906 104.0469 71.7031 104.1719 71.5781 104.4219 C71.8438 105.6406 72.7812 106.1719 74.0312 106.1719 C75.7188 106.1719 76.875 105.125 76.875 103.7031 C76.875 102.5 76.2031 101.625 74.7969 101.375 C75.9531 101.0156 76.6094 100.2031 76.6094 99.2031 C76.6094 97.9219 75.6719 97.0781 74.1875 97.0781 C73.0469 97.0781 72.0625 97.5938 71.7969 98.6875 C71.9062 99 72.1094 99.1094 72.3594 99.1094 C72.7344 99.1094 72.8906 98.8906 73 98.4062 L73.2344 97.6562 Z" style="fill:black; stroke:none;"
      /><rect x="57" width="6" height="13" y="94" style="stroke:none;"
      /><path d="M59.0938 100.2031 C59.0938 98.6562 59.75 97.8125 60.7969 97.8125 C61.7188 97.8125 62.2656 98.4531 62.2656 99.5156 C62.2656 100.7188 61.5 101.4375 60.1875 101.7031 L60.2969 102.3125 C62.2188 102.2344 62.9375 103.2188 62.9375 104.4375 C62.9375 105.625 62.2344 106.4219 60.9531 106.4219 C60.25 106.4219 59.6562 106.1562 59.0938 105.7188 L59.0938 100.2031 ZM58.2031 106.9062 L58.1094 109.375 L58.2656 109.4844 L59.1562 109.2656 L59.0156 106.0938 C59.5469 106.8438 60.3594 107.1719 61.1719 107.1719 C62.5625 107.1719 63.8594 106.2188 63.8594 104.4844 C63.8594 102.9531 62.875 102.1094 61.125 102 C62.5625 101.6094 63.1875 100.4531 63.1875 99.4844 C63.1875 98.0938 62.1562 97.3125 60.9062 97.3125 C59.2969 97.3125 58.2188 98.5469 58.2188 100.5156 L58.2031 106.9062 Z" style="fill:black; stroke:none;"
      /><polygon style="fill:none; stroke:black;" points=" 93 41 41 41"
      /><rect x="82" y="30" width="22" style="clip-path:url(#clipPath4); stroke:none;" height="22"
      /><rect x="82" y="30" width="22" style="clip-path:url(#clipPath4); fill:rgb(0,144,188); stroke:none;" height="22"
      /><rect x="82" y="30" width="22" style="clip-path:url(#clipPath4); fill:none; stroke:black;" height="22"
      /><rect x="82" y="30" width="22" style="fill:none; stroke:black;" height="22"
      /><rect x="30" y="30" width="22" style="clip-path:url(#clipPath5); stroke:none;" height="22"
      /><rect x="30" y="30" width="22" style="clip-path:url(#clipPath5); fill:rgb(0,144,188); stroke:none;" height="22"
      /><rect x="30" y="30" width="22" style="clip-path:url(#clipPath5); fill:none; stroke:black;" height="22"
      /><rect x="30" y="30" width="22" style="fill:none; stroke:black;" height="22"
      /><rect x="71" width="6" height="10" y="44" style="stroke:none;"
      /><path d="M73.2344 45.6562 C73.5156 45.5938 73.7656 45.5625 74.0156 45.5625 C75.0625 45.5625 75.6719 46.1719 75.6719 47.2656 C75.6719 48.4375 74.9062 49.1094 73.7031 49.1094 L73.1875 49.1094 L73.1875 49.6406 L73.7969 49.6406 C75.2188 49.6406 75.9062 50.4219 75.9062 51.6406 C75.9062 52.8438 75.1719 53.6875 73.875 53.6875 C73.6094 53.6875 73.3125 53.6562 73.0156 53.5625 L72.7812 52.8125 C72.625 52.2812 72.5 52.0469 72.1406 52.0469 C71.8906 52.0469 71.7031 52.1719 71.5781 52.4219 C71.8438 53.6406 72.7812 54.1719 74.0312 54.1719 C75.7188 54.1719 76.875 53.125 76.875 51.7031 C76.875 50.5 76.2031 49.625 74.7969 49.375 C75.9531 49.0156 76.6094 48.2031 76.6094 47.2031 C76.6094 45.9219 75.6719 45.0781 74.1875 45.0781 C73.0469 45.0781 72.0625 45.5938 71.7969 46.6875 C71.9062 47 72.1094 47.1094 72.3594 47.1094 C72.7344 47.1094 72.8906 46.8906 73 46.4062 L73.2344 45.6562 Z" style="fill:black; stroke:none;"
      /><rect x="57" width="6" height="13" y="42" style="stroke:none;"
      /><path d="M59.0938 48.2031 C59.0938 46.6562 59.75 45.8125 60.7969 45.8125 C61.7188 45.8125 62.2656 46.4531 62.2656 47.5156 C62.2656 48.7188 61.5 49.4375 60.1875 49.7031 L60.2969 50.3125 C62.2188 50.2344 62.9375 51.2188 62.9375 52.4375 C62.9375 53.625 62.2344 54.4219 60.9531 54.4219 C60.25 54.4219 59.6562 54.1562 59.0938 53.7188 L59.0938 48.2031 ZM58.2031 54.9062 L58.1094 57.375 L58.2656 57.4844 L59.1562 57.2656 L59.0156 54.0938 C59.5469 54.8438 60.3594 55.1719 61.1719 55.1719 C62.5625 55.1719 63.8594 54.2188 63.8594 52.4844 C63.8594 50.9531 62.875 50.1094 61.125 50 C62.5625 49.6094 63.1875 48.4531 63.1875 47.4844 C63.1875 46.0938 62.1562 45.3125 60.9062 45.3125 C59.2969 45.3125 58.2188 46.5469 58.2188 48.5156 L58.2031 54.9062 Z" style="fill:black; stroke:none;"
      /><rect x="127" width="6" height="10" y="78" style="stroke:none;"
      /><path d="M129.2344 79.6562 C129.5156 79.5938 129.7656 79.5625 130.0156 79.5625 C131.0625 79.5625 131.6719 80.1719 131.6719 81.2656 C131.6719 82.4375 130.9062 83.1094 129.7031 83.1094 L129.1875 83.1094 L129.1875 83.6406 L129.7969 83.6406 C131.2188 83.6406 131.9062 84.4219 131.9062 85.6406 C131.9062 86.8438 131.1719 87.6875 129.875 87.6875 C129.6094 87.6875 129.3125 87.6562 129.0156 87.5625 L128.7812 86.8125 C128.625 86.2812 128.5 86.0469 128.1406 86.0469 C127.8906 86.0469 127.7031 86.1719 127.5781 86.4219 C127.8438 87.6406 128.7812 88.1719 130.0312 88.1719 C131.7188 88.1719 132.875 87.125 132.875 85.7031 C132.875 84.5 132.2031 83.625 130.7969 83.375 C131.9531 83.0156 132.6094 82.2031 132.6094 81.2031 C132.6094 79.9219 131.6719 79.0781 130.1875 79.0781 C129.0469 79.0781 128.0625 79.5938 127.7969 80.6875 C127.9062 81 128.1094 81.1094 128.3594 81.1094 C128.7344 81.1094 128.8906 80.8906 129 80.4062 L129.2344 79.6562 Z" style="fill:black; stroke:none;"
      /><rect x="111" width="6" height="13" y="84" style="stroke:none;"
      /><path d="M113.0938 90.2031 C113.0938 88.6562 113.75 87.8125 114.7969 87.8125 C115.7188 87.8125 116.2656 88.4531 116.2656 89.5156 C116.2656 90.7188 115.5 91.4375 114.1875 91.7031 L114.2969 92.3125 C116.2188 92.2344 116.9375 93.2188 116.9375 94.4375 C116.9375 95.625 116.2344 96.4219 114.9531 96.4219 C114.25 96.4219 113.6562 96.1562 113.0938 95.7188 L113.0938 90.2031 ZM112.2031 96.9062 L112.1094 99.375 L112.2656 99.4844 L113.1562 99.2656 L113.0156 96.0938 C113.5469 96.8438 114.3594 97.1719 115.1719 97.1719 C116.5625 97.1719 117.8594 96.2188 117.8594 94.4844 C117.8594 92.9531 116.875 92.1094 115.125 92 C116.5625 91.6094 117.1875 90.4531 117.1875 89.4844 C117.1875 88.0938 116.1562 87.3125 114.9062 87.3125 C113.2969 87.3125 112.2188 88.5469 112.2188 90.5156 L112.2031 96.9062 Z" style="fill:black; stroke:none;"
      /><rect x="120" width="6" height="10" y="60" style="stroke:none;"
      /><path d="M123.3438 69.6875 C122.2031 69.6875 121.5312 68.5 121.5312 66.2969 C121.5312 66.2188 121.5312 66.125 121.5312 66.0469 C122.0938 65.5 122.7188 65.3125 123.3438 65.3125 C124.3125 65.3125 124.9531 65.9844 124.9531 67.4531 C124.9531 68.9375 124.3125 69.6875 123.3438 69.6875 ZM125.5312 61.0781 C122.3438 61.4531 120.5625 63.7656 120.5625 66.4531 C120.5625 68.7812 121.6094 70.1719 123.3125 70.1719 C124.8438 70.1719 125.9219 69.1094 125.9219 67.2812 C125.9219 65.6875 124.9688 64.6562 123.5625 64.6562 C122.8281 64.6562 122.1406 64.9844 121.5781 65.5781 C121.7969 63.4062 123.0781 61.9688 125.5938 61.3906 L125.5312 61.0781 Z" style="fill:black; stroke:none;"
      /><rect x="104" width="6" height="13" y="50" style="stroke:none;"
      /><path d="M106.0938 56.2031 C106.0938 54.6562 106.75 53.8125 107.7969 53.8125 C108.7188 53.8125 109.2656 54.4531 109.2656 55.5156 C109.2656 56.7188 108.5 57.4375 107.1875 57.7031 L107.2969 58.3125 C109.2188 58.2344 109.9375 59.2188 109.9375 60.4375 C109.9375 61.625 109.2344 62.4219 107.9531 62.4219 C107.25 62.4219 106.6562 62.1562 106.0938 61.7188 L106.0938 56.2031 ZM105.2031 62.9062 L105.1094 65.375 L105.2656 65.4844 L106.1562 65.2656 L106.0156 62.0938 C106.5469 62.8438 107.3594 63.1719 108.1719 63.1719 C109.5625 63.1719 110.8594 62.2188 110.8594 60.4844 C110.8594 58.9531 109.875 58.1094 108.125 58 C109.5625 57.6094 110.1875 56.4531 110.1875 55.4844 C110.1875 54.0938 109.1562 53.3125 107.9062 53.3125 C106.2969 53.3125 105.2188 54.5469 105.2188 56.5156 L105.2031 62.9062 Z" style="fill:black; stroke:none;"
    /></g
  ></g
></svg
>
