<?xml version="1.0"?>
<!DOCTYPE svg PUBLIC '-//W3C//DTD SVG 1.0//EN'
          'http://www.w3.org/TR/2001/REC-SVG-20010904/DTD/svg10.dtd'>
<svg xmlns:xlink="http://www.w3.org/1999/xlink" style="fill-opacity:1; color-rendering:auto; color-interpolation:auto; text-rendering:auto; stroke:black; stroke-linecap:square; stroke-miterlimit:10; shape-rendering:auto; stroke-opacity:1; fill:black; stroke-dasharray:none; font-weight:normal; stroke-width:1; font-family:'Dialog'; font-style:normal; stroke-linejoin:miter; font-size:12px; stroke-dashoffset:0; image-rendering:auto;" viewBox="0 0 186 134" xmlns="http://www.w3.org/2000/svg"
><!--Generated by the Batik Graphics2D SVG Generator--><defs id="genericDefs"
  /><g
  ><defs id="defs1"
    ><clipPath clipPathUnits="userSpaceOnUse" id="clipPath1"
      ><path d="M104 41 C104 47.0751 99.0751 52 93 52 C86.9249 52 82 47.0751 82 41 C82 34.9249 86.9249 30 93 30 C99.0751 30 104 34.9249 104 41 Z"
      /></clipPath
      ><clipPath clipPathUnits="userSpaceOnUse" id="clipPath2"
      ><path d="M52 41 C52 47.0751 47.0751 52 41 52 C34.9249 52 30 47.0751 30 41 C30 34.9249 34.9249 30 41 30 C47.0751 30 52 34.9249 52 41 Z"
      /></clipPath
      ><clipPath clipPathUnits="userSpaceOnUse" id="clipPath3"
      ><path style="fill-rule:evenodd;" d="M41 82 L52 104 L30 104 Z"
      /></clipPath
    ></defs
    ><g style="fill:white; text-rendering:optimizeSpeed; stroke:white;"
    ><rect x="0" width="186" height="134" y="0" style="stroke:none;"
      /><polygon style="fill:none; stroke:black;" points=" 145 41 93 41"
      /><path d="M145 30 C139.5 35.5 150.5 46.5 145 52" style="fill:none; stroke:black;"
      /><polygon style="fill:none; stroke:black;" points=" 93 41 41 41"
      /><circle style="clip-path:url(#clipPath1); stroke:none;" r="11" cx="93" cy="41"
      /><rect x="82" y="30" width="22" style="clip-path:url(#clipPath1); fill:rgb(0,144,188); stroke:none;" height="22"
      /><rect x="82" y="30" width="22" style="clip-path:url(#clipPath1); fill:none; stroke:black;" height="22"
      /><circle style="fill:none; stroke:black;" r="11" cx="93" cy="41"
      /><polygon style="fill:none; stroke:black;" points=" 41 41 41 93"
      /><circle style="clip-path:url(#clipPath2); stroke:none;" r="11" cx="41" cy="41"
      /><rect x="30" y="30" width="22" style="clip-path:url(#clipPath2); fill:rgb(255,212,0); stroke:none;" height="22"
      /><rect x="30" y="30" width="22" style="clip-path:url(#clipPath2); fill:none; stroke:black;" height="22"
      /><circle style="fill:none; stroke:black;" r="11" cx="41" cy="41"
      /><polygon style="clip-path:url(#clipPath3); stroke:none;" points=" 41 82 52 104 30 104"
      /><rect x="30" y="82" width="22" style="clip-path:url(#clipPath3); fill:rgb(237,28,36); stroke:none;" height="22"
      /><rect x="30" y="82" width="22" style="clip-path:url(#clipPath3); fill:none; stroke:black;" height="22"
      /><polygon style="fill:none; stroke:black;" points=" 41 82 52 104 30 104"
      /><rect x="46" y="55" width="6" style="stroke:none;" height="9"
    /></g
    ><g style="font-family:'Serif'; text-rendering:optimizeSpeed; "
    ><path style="stroke:none;" d="M47.4219 63.0938 C48.0781 62.375 48.7031 61.7188 49.0312 61.3438 C50.9219 59.3125 51.5312 58.4688 51.5312 57.3594 C51.5312 56.0156 50.7812 55.0781 49.1562 55.0781 C47.9062 55.0781 46.7969 55.7031 46.5938 56.9688 C46.7188 57.2031 46.9062 57.3438 47.1562 57.3438 C47.4688 57.3438 47.6562 57.1094 47.7969 56.5938 L48.0938 55.6719 C48.3906 55.5938 48.6562 55.5625 48.8906 55.5625 C49.9219 55.5625 50.5469 56.3125 50.5469 57.4219 C50.5469 58.4375 49.9844 59.4219 48.7031 60.9062 C48.125 61.5781 47.3906 62.4375 46.6406 63.2812 L46.6406 64 L51.9219 64 L51.9219 63.0938 L47.4219 63.0938 Z"
      /><rect x="45" y="70" width="8" style="fill:white; stroke:none;" height="8"
      /><path style="stroke:none;" d="M49.9844 75.7031 C49.9375 76.8906 49.1562 77.6562 48.3125 77.6562 C47.2656 77.6562 46.5 76.6875 46.5 74.7188 C46.5 73.2812 47.1562 72.1562 48.3438 72.1562 C49.1406 72.1562 49.7812 72.6875 50.0938 73.6406 L49.9844 75.7031 ZM51.9062 77.2812 C51.7344 77.375 51.5469 77.4219 51.3438 77.4219 C50.9531 77.4219 50.75 77.2188 50.75 76.4219 C50.75 75.4844 50.9688 73.5312 51.1875 71.8281 L51.0312 71.7188 L50.2344 71.9219 L50.1406 72.7969 C49.7812 72.0312 49.1562 71.6562 48.3906 71.6562 C47.0469 71.6562 45.5625 72.8438 45.5625 74.9531 C45.5625 77.0938 46.7188 78.1719 48.1406 78.1719 C49.0156 78.1719 49.6875 77.8125 50.0938 76.9844 C50.2031 77.8594 50.5156 78.1719 51.0156 78.1719 C51.4688 78.1719 51.7969 77.9062 52.0156 77.5625 L51.9062 77.2812 Z"
      /><rect x="71" y="44" width="6" style="fill:white; stroke:none;" height="10"
      /><path style="stroke:none;" d="M74.3438 53.6875 C73.2031 53.6875 72.5312 52.5 72.5312 50.2969 C72.5312 50.2188 72.5312 50.125 72.5312 50.0469 C73.0938 49.5 73.7188 49.3125 74.3438 49.3125 C75.3125 49.3125 75.9531 49.9844 75.9531 51.4531 C75.9531 52.9375 75.3125 53.6875 74.3438 53.6875 ZM76.5312 45.0781 C73.3438 45.4531 71.5625 47.7656 71.5625 50.4531 C71.5625 52.7812 72.6094 54.1719 74.3125 54.1719 C75.8438 54.1719 76.9219 53.1094 76.9219 51.2812 C76.9219 49.6875 75.9688 48.6562 74.5625 48.6562 C73.8281 48.6562 73.1406 48.9844 72.5781 49.5781 C72.7969 47.4062 74.0781 45.9688 76.5938 45.3906 L76.5312 45.0781 Z"
      /><rect x="57" y="42" width="6" style="fill:white; stroke:none;" height="13"
      /><path style="stroke:none;" d="M59.0938 48.2031 C59.0938 46.6562 59.75 45.8125 60.7969 45.8125 C61.7188 45.8125 62.2656 46.4531 62.2656 47.5156 C62.2656 48.7188 61.5 49.4375 60.1875 49.7031 L60.2969 50.3125 C62.2188 50.2344 62.9375 51.2188 62.9375 52.4375 C62.9375 53.625 62.2344 54.4219 60.9531 54.4219 C60.25 54.4219 59.6562 54.1562 59.0938 53.7188 L59.0938 48.2031 ZM58.2031 54.9062 L58.1094 57.375 L58.2656 57.4844 L59.1562 57.2656 L59.0156 54.0938 C59.5469 54.8438 60.3594 55.1719 61.1719 55.1719 C62.5625 55.1719 63.8594 54.2188 63.8594 52.4844 C63.8594 50.9531 62.875 50.1094 61.125 50 C62.5625 49.6094 63.1875 48.4531 63.1875 47.4844 C63.1875 46.0938 62.1562 45.3125 60.9062 45.3125 C59.2969 45.3125 58.2188 46.5469 58.2188 48.5156 L58.2031 54.9062 Z"
      /><rect x="109" y="42" width="6" style="fill:white; stroke:none;" height="13"
      /><path style="stroke:none;" d="M111.0938 48.2031 C111.0938 46.6562 111.75 45.8125 112.7969 45.8125 C113.7188 45.8125 114.2656 46.4531 114.2656 47.5156 C114.2656 48.7188 113.5 49.4375 112.1875 49.7031 L112.2969 50.3125 C114.2188 50.2344 114.9375 51.2188 114.9375 52.4375 C114.9375 53.625 114.2344 54.4219 112.9531 54.4219 C112.25 54.4219 111.6562 54.1562 111.0938 53.7188 L111.0938 48.2031 ZM110.2031 54.9062 L110.1094 57.375 L110.2656 57.4844 L111.1562 57.2656 L111.0156 54.0938 C111.5469 54.8438 112.3594 55.1719 113.1719 55.1719 C114.5625 55.1719 115.8594 54.2188 115.8594 52.4844 C115.8594 50.9531 114.875 50.1094 113.125 50 C114.5625 49.6094 115.1875 48.4531 115.1875 47.4844 C115.1875 46.0938 114.1562 45.3125 112.9062 45.3125 C111.2969 45.3125 110.2188 46.5469 110.2188 48.5156 L110.2031 54.9062 Z"
    /></g
  ></g
></svg
>
