<?xml version="1.0"?>
<!DOCTYPE svg PUBLIC '-//W3C//DTD SVG 1.0//EN'
          'http://www.w3.org/TR/2001/REC-SVG-20010904/DTD/svg10.dtd'>
<svg xmlns:xlink="http://www.w3.org/1999/xlink" style="fill-opacity:1; color-rendering:auto; color-interpolation:auto; text-rendering:auto; stroke:black; stroke-linecap:square; stroke-miterlimit:10; shape-rendering:auto; stroke-opacity:1; fill:black; stroke-dasharray:none; font-weight:normal; stroke-width:1; font-family:'Dialog'; font-style:normal; stroke-linejoin:miter; font-size:12px; stroke-dashoffset:0; image-rendering:auto;" viewBox="0 0 173 342" xmlns="http://www.w3.org/2000/svg"
><!--Generated by the Batik Graphics2D SVG Generator--><defs id="genericDefs"
  /><g
  ><defs id="defs1"
    ><clipPath clipPathUnits="userSpaceOnUse" id="clipPath1"
      ><path style="fill-rule:evenodd;" d="M58 290 L69 301 L58 312 L47 301 Z"
      /></clipPath
      ><clipPath clipPathUnits="userSpaceOnUse" id="clipPath2"
      ><path style="fill-rule:evenodd;" d="M58 238 L69 249 L58 260 L47 249 Z"
      /></clipPath
      ><clipPath clipPathUnits="userSpaceOnUse" id="clipPath3"
      ><path style="fill-rule:evenodd;" d="M58 186 L69 208 L47 208 Z"
      /></clipPath
      ><clipPath clipPathUnits="userSpaceOnUse" id="clipPath4"
      ><path d="M47 134 L69 134 L69 156 L47 156 L47 134 Z"
      /></clipPath
      ><clipPath clipPathUnits="userSpaceOnUse" id="clipPath5"
      ><path d="M69 93 C69 99.0751 64.0751 104 58 104 C51.9249 104 47 99.0751 47 93 C47 86.9249 51.9249 82 58 82 C64.0751 82 69 86.9249 69 93 Z"
      /></clipPath
      ><clipPath clipPathUnits="userSpaceOnUse" id="clipPath6"
      ><path d="M69 41 C69 47.0751 64.0751 52 58 52 C51.9249 52 47 47.0751 47 41 C47 34.9249 51.9249 30 58 30 C64.0751 30 69 34.9249 69 41 Z"
      /></clipPath
    ></defs
    ><g style="fill:white; text-rendering:optimizeSpeed; stroke:white;"
    ><rect x="0" width="173" height="342" y="0" style="stroke:none;"
      /><polygon style="clip-path:url(#clipPath1); stroke:none;" points=" 58 290 69 301 58 312 47 301"
      /><rect x="47" y="290" width="22" style="clip-path:url(#clipPath1); fill:rgb(165,67,153); stroke:none;" height="22"
      /><rect x="47" y="290" width="22" style="clip-path:url(#clipPath1); fill:none; stroke:black;" height="22"
      /><polygon style="fill:none; stroke:black;" points=" 58 290 69 301 58 312 47 301"
      /><rect x="74" y="288" width="5" style="stroke:none;" height="10"
    /></g
    ><g style="font-family:'Serif'; text-rendering:optimizeSpeed; "
    ><path style="stroke:none;" d="M75.8906 296.6875 C75.4844 296.6875 75.1562 297.0469 75.1562 297.4219 C75.1562 297.8125 75.4844 298.1562 75.8906 298.1562 C76.2969 298.1562 76.6406 297.8125 76.6406 297.4219 C76.6406 297.0469 76.2969 296.6875 75.8906 296.6875 ZM77.4688 290.5781 C77.7188 290.8906 77.875 291.2656 77.8906 291.6562 C77.8906 292.1875 77.625 292.5 77.0312 292.7656 L76.4062 293.0156 C75.6406 293.3125 75.3906 293.5469 75.3906 293.9375 C75.3906 294.1094 75.4531 294.3438 75.5781 294.8125 L75.7344 295.3438 L76.1094 295.3438 L76.0938 294.5312 C76.0938 294.0938 76.2031 293.9688 76.7812 293.7344 L77.2031 293.5625 C78.0312 293.2188 78.4531 292.6875 78.4531 291.8438 C78.4531 290.1562 76.6562 289.1875 75.5 289.0312 C75.1094 289.125 74.9062 289.2969 74.9062 289.6406 C74.9062 289.9375 75.0625 290.1562 75.7188 290.2656 L77.4688 290.5781 Z"
      /><rect x="74" y="304" width="5" style="fill:white; stroke:none;" height="10"
      /><path style="stroke:none;" d="M75.8906 312.6875 C75.4844 312.6875 75.1562 313.0469 75.1562 313.4219 C75.1562 313.8125 75.4844 314.1562 75.8906 314.1562 C76.2969 314.1562 76.6406 313.8125 76.6406 313.4219 C76.6406 313.0469 76.2969 312.6875 75.8906 312.6875 ZM77.4688 306.5781 C77.7188 306.8906 77.875 307.2656 77.8906 307.6562 C77.8906 308.1875 77.625 308.5 77.0312 308.7656 L76.4062 309.0156 C75.6406 309.3125 75.3906 309.5469 75.3906 309.9375 C75.3906 310.1094 75.4531 310.3438 75.5781 310.8125 L75.7344 311.3438 L76.1094 311.3438 L76.0938 310.5312 C76.0938 310.0938 76.2031 309.9688 76.7812 309.7344 L77.2031 309.5625 C78.0312 309.2188 78.4531 308.6875 78.4531 307.8438 C78.4531 306.1562 76.6562 305.1875 75.5 305.0312 C75.1094 305.125 74.9062 305.2969 74.9062 305.6406 C74.9062 305.9375 75.0625 306.1562 75.7188 306.2656 L77.4688 306.5781 Z"
      /><polygon style="fill:white; clip-path:url(#clipPath2); stroke:none;" points=" 58 238 69 249 58 260 47 249"
      /><rect x="47" y="238" width="22" style="clip-path:url(#clipPath2); fill:rgb(143,204,233); stroke:none;" height="22"
      /><rect x="47" y="238" width="22" style="fill:none; clip-path:url(#clipPath2);" height="22"
      /><polygon style="fill:none;" points=" 58 238 69 249 58 260 47 249"
      /><rect x="74" y="236" width="5" style="fill:white; stroke:none;" height="10"
      /><path style="stroke:none;" d="M75.8906 244.6875 C75.4844 244.6875 75.1562 245.0469 75.1562 245.4219 C75.1562 245.8125 75.4844 246.1562 75.8906 246.1562 C76.2969 246.1562 76.6406 245.8125 76.6406 245.4219 C76.6406 245.0469 76.2969 244.6875 75.8906 244.6875 ZM77.4688 238.5781 C77.7188 238.8906 77.875 239.2656 77.8906 239.6562 C77.8906 240.1875 77.625 240.5 77.0312 240.7656 L76.4062 241.0156 C75.6406 241.3125 75.3906 241.5469 75.3906 241.9375 C75.3906 242.1094 75.4531 242.3438 75.5781 242.8125 L75.7344 243.3438 L76.1094 243.3438 L76.0938 242.5312 C76.0938 242.0938 76.2031 241.9688 76.7812 241.7344 L77.2031 241.5625 C78.0312 241.2188 78.4531 240.6875 78.4531 239.8438 C78.4531 238.1562 76.6562 237.1875 75.5 237.0312 C75.1094 237.125 74.9062 237.2969 74.9062 237.6406 C74.9062 237.9375 75.0625 238.1562 75.7188 238.2656 L77.4688 238.5781 Z"
      /><rect x="74" y="252" width="5" style="fill:white; stroke:none;" height="10"
      /><path style="stroke:none;" d="M75.8906 260.6875 C75.4844 260.6875 75.1562 261.0469 75.1562 261.4219 C75.1562 261.8125 75.4844 262.1562 75.8906 262.1562 C76.2969 262.1562 76.6406 261.8125 76.6406 261.4219 C76.6406 261.0469 76.2969 260.6875 75.8906 260.6875 ZM77.4688 254.5781 C77.7188 254.8906 77.875 255.2656 77.8906 255.6562 C77.8906 256.1875 77.625 256.5 77.0312 256.7656 L76.4062 257.0156 C75.6406 257.3125 75.3906 257.5469 75.3906 257.9375 C75.3906 258.1094 75.4531 258.3438 75.5781 258.8125 L75.7344 259.3438 L76.1094 259.3438 L76.0938 258.5312 C76.0938 258.0938 76.2031 257.9688 76.7812 257.7344 L77.2031 257.5625 C78.0312 257.2188 78.4531 256.6875 78.4531 255.8438 C78.4531 254.1562 76.6562 253.1875 75.5 253.0312 C75.1094 253.125 74.9062 253.2969 74.9062 253.6406 C74.9062 253.9375 75.0625 254.1562 75.7188 254.2656 L77.4688 254.5781 Z"
      /><polygon style="fill:white; clip-path:url(#clipPath3); stroke:none;" points=" 58 186 69 208 47 208"
      /><rect x="47" y="186" width="22" style="clip-path:url(#clipPath3); fill:rgb(237,28,36); stroke:none;" height="22"
      /><rect x="47" y="186" width="22" style="fill:none; clip-path:url(#clipPath3);" height="22"
      /><polygon style="fill:none;" points=" 58 186 69 208 47 208"
      /><rect x="74" y="184" width="5" style="fill:white; stroke:none;" height="10"
      /><path style="stroke:none;" d="M75.8906 192.6875 C75.4844 192.6875 75.1562 193.0469 75.1562 193.4219 C75.1562 193.8125 75.4844 194.1562 75.8906 194.1562 C76.2969 194.1562 76.6406 193.8125 76.6406 193.4219 C76.6406 193.0469 76.2969 192.6875 75.8906 192.6875 ZM77.4688 186.5781 C77.7188 186.8906 77.875 187.2656 77.8906 187.6562 C77.8906 188.1875 77.625 188.5 77.0312 188.7656 L76.4062 189.0156 C75.6406 189.3125 75.3906 189.5469 75.3906 189.9375 C75.3906 190.1094 75.4531 190.3438 75.5781 190.8125 L75.7344 191.3438 L76.1094 191.3438 L76.0938 190.5312 C76.0938 190.0938 76.2031 189.9688 76.7812 189.7344 L77.2031 189.5625 C78.0312 189.2188 78.4531 188.6875 78.4531 187.8438 C78.4531 186.1562 76.6562 185.1875 75.5 185.0312 C75.1094 185.125 74.9062 185.2969 74.9062 185.6406 C74.9062 185.9375 75.0625 186.1562 75.7188 186.2656 L77.4688 186.5781 Z"
      /><rect x="74" y="200" width="5" style="fill:white; stroke:none;" height="10"
      /><path style="stroke:none;" d="M75.8906 208.6875 C75.4844 208.6875 75.1562 209.0469 75.1562 209.4219 C75.1562 209.8125 75.4844 210.1562 75.8906 210.1562 C76.2969 210.1562 76.6406 209.8125 76.6406 209.4219 C76.6406 209.0469 76.2969 208.6875 75.8906 208.6875 ZM77.4688 202.5781 C77.7188 202.8906 77.875 203.2656 77.8906 203.6562 C77.8906 204.1875 77.625 204.5 77.0312 204.7656 L76.4062 205.0156 C75.6406 205.3125 75.3906 205.5469 75.3906 205.9375 C75.3906 206.1094 75.4531 206.3438 75.5781 206.8125 L75.7344 207.3438 L76.1094 207.3438 L76.0938 206.5312 C76.0938 206.0938 76.2031 205.9688 76.7812 205.7344 L77.2031 205.5625 C78.0312 205.2188 78.4531 204.6875 78.4531 203.8438 C78.4531 202.1562 76.6562 201.1875 75.5 201.0312 C75.1094 201.125 74.9062 201.2969 74.9062 201.6406 C74.9062 201.9375 75.0625 202.1562 75.7188 202.2656 L77.4688 202.5781 Z"
      /><rect x="47" y="134" width="22" style="clip-path:url(#clipPath4); fill:white; stroke:none;" height="22"
      /><rect x="47" y="134" width="22" style="clip-path:url(#clipPath4); fill:rgb(0,144,188); stroke:none;" height="22"
      /><rect x="47" y="134" width="22" style="fill:none; clip-path:url(#clipPath4);" height="22"
      /><rect x="47" width="22" height="22" y="134" style="fill:none;"
      /><rect x="74" y="132" width="5" style="fill:white; stroke:none;" height="10"
      /><path style="stroke:none;" d="M75.8906 140.6875 C75.4844 140.6875 75.1562 141.0469 75.1562 141.4219 C75.1562 141.8125 75.4844 142.1562 75.8906 142.1562 C76.2969 142.1562 76.6406 141.8125 76.6406 141.4219 C76.6406 141.0469 76.2969 140.6875 75.8906 140.6875 ZM77.4688 134.5781 C77.7188 134.8906 77.875 135.2656 77.8906 135.6562 C77.8906 136.1875 77.625 136.5 77.0312 136.7656 L76.4062 137.0156 C75.6406 137.3125 75.3906 137.5469 75.3906 137.9375 C75.3906 138.1094 75.4531 138.3438 75.5781 138.8125 L75.7344 139.3438 L76.1094 139.3438 L76.0938 138.5312 C76.0938 138.0938 76.2031 137.9688 76.7812 137.7344 L77.2031 137.5625 C78.0312 137.2188 78.4531 136.6875 78.4531 135.8438 C78.4531 134.1562 76.6562 133.1875 75.5 133.0312 C75.1094 133.125 74.9062 133.2969 74.9062 133.6406 C74.9062 133.9375 75.0625 134.1562 75.7188 134.2656 L77.4688 134.5781 Z"
      /><rect x="74" y="148" width="5" style="fill:white; stroke:none;" height="10"
      /><path style="stroke:none;" d="M75.8906 156.6875 C75.4844 156.6875 75.1562 157.0469 75.1562 157.4219 C75.1562 157.8125 75.4844 158.1562 75.8906 158.1562 C76.2969 158.1562 76.6406 157.8125 76.6406 157.4219 C76.6406 157.0469 76.2969 156.6875 75.8906 156.6875 ZM77.4688 150.5781 C77.7188 150.8906 77.875 151.2656 77.8906 151.6562 C77.8906 152.1875 77.625 152.5 77.0312 152.7656 L76.4062 153.0156 C75.6406 153.3125 75.3906 153.5469 75.3906 153.9375 C75.3906 154.1094 75.4531 154.3438 75.5781 154.8125 L75.7344 155.3438 L76.1094 155.3438 L76.0938 154.5312 C76.0938 154.0938 76.2031 153.9688 76.7812 153.7344 L77.2031 153.5625 C78.0312 153.2188 78.4531 152.6875 78.4531 151.8438 C78.4531 150.1562 76.6562 149.1875 75.5 149.0312 C75.1094 149.125 74.9062 149.2969 74.9062 149.6406 C74.9062 149.9375 75.0625 150.1562 75.7188 150.2656 L77.4688 150.5781 Z"
      /><path style="stroke:none;" d="M33.1094 144.5781 C34.3438 144.5781 34.9688 145.4688 34.9688 146.8438 C34.9688 148.25 34.1875 149.1875 33.2188 149.1875 C31.9219 149.1875 31.1562 148.0312 31 145.8906 C31.625 144.9531 32.4531 144.5781 33.1094 144.5781 ZM33.2188 150.1875 C34.8125 150.1875 36.1562 148.8438 36.1562 146.8438 C36.1562 144.7031 35.0469 143.625 33.3125 143.625 C32.5 143.625 31.6094 144.1094 30.9688 144.875 C31.0312 141.6875 32.2188 140.6094 33.625 140.6094 C34.25 140.6094 34.8594 140.9062 35.2656 141.3906 L35.9688 140.5938 C35.4062 139.9844 34.6406 139.5469 33.5781 139.5469 C31.5938 139.5469 29.7812 141.0781 29.7812 145.0938 C29.7812 148.4844 31.2344 150.1875 33.2188 150.1875 ZM36.9731 150 L38.3168 150 L39.3481 148.2188 C39.6137 147.7656 39.8637 147.2969 40.1293 146.8594 L40.2075 146.8594 C40.4731 147.2969 40.7543 147.7656 41.0043 148.2188 L42.1293 150 L43.5356 150 L41.02 146.1562 L43.3325 142.3906 L42.0043 142.3906 L41.0668 144.0625 C40.8481 144.5 40.6137 144.9219 40.3793 145.3438 L40.3325 145.3438 C40.0668 144.9219 39.8012 144.5 39.5668 144.0625 L38.5512 142.3906 L37.1762 142.3906 L39.4887 146.0312 L36.9731 150 Z"
    /></g
    ><g style="fill:white; text-rendering:optimizeSpeed; font-size:14px; font-family:'SansSerif'; stroke:white;"
    ><circle r="11" style="clip-path:url(#clipPath5); stroke:none;" cx="58" cy="93"
      /><rect x="47" y="82" width="22" style="clip-path:url(#clipPath5); fill:rgb(0,166,81); stroke:none;" height="22"
      /><rect x="47" y="82" width="22" style="clip-path:url(#clipPath5); fill:none; stroke:black;" height="22"
      /><circle r="11" style="fill:none; stroke:black;" cx="58" cy="93"
      /><rect x="74" width="5" height="10" y="80" style="stroke:none;"
    /></g
    ><g style="font-family:'Serif'; text-rendering:optimizeSpeed; "
    ><path style="stroke:none;" d="M75.8906 88.6875 C75.4844 88.6875 75.1562 89.0469 75.1562 89.4219 C75.1562 89.8125 75.4844 90.1562 75.8906 90.1562 C76.2969 90.1562 76.6406 89.8125 76.6406 89.4219 C76.6406 89.0469 76.2969 88.6875 75.8906 88.6875 ZM77.4688 82.5781 C77.7188 82.8906 77.875 83.2656 77.8906 83.6562 C77.8906 84.1875 77.625 84.5 77.0312 84.7656 L76.4062 85.0156 C75.6406 85.3125 75.3906 85.5469 75.3906 85.9375 C75.3906 86.1094 75.4531 86.3438 75.5781 86.8125 L75.7344 87.3438 L76.1094 87.3438 L76.0938 86.5312 C76.0938 86.0938 76.2031 85.9688 76.7812 85.7344 L77.2031 85.5625 C78.0312 85.2188 78.4531 84.6875 78.4531 83.8438 C78.4531 82.1562 76.6562 81.1875 75.5 81.0312 C75.1094 81.125 74.9062 81.2969 74.9062 81.6406 C74.9062 81.9375 75.0625 82.1562 75.7188 82.2656 L77.4688 82.5781 Z"
      /><rect x="74" y="96" width="5" style="fill:white; stroke:none;" height="10"
      /><path style="stroke:none;" d="M75.8906 104.6875 C75.4844 104.6875 75.1562 105.0469 75.1562 105.4219 C75.1562 105.8125 75.4844 106.1562 75.8906 106.1562 C76.2969 106.1562 76.6406 105.8125 76.6406 105.4219 C76.6406 105.0469 76.2969 104.6875 75.8906 104.6875 ZM77.4688 98.5781 C77.7188 98.8906 77.875 99.2656 77.8906 99.6562 C77.8906 100.1875 77.625 100.5 77.0312 100.7656 L76.4062 101.0156 C75.6406 101.3125 75.3906 101.5469 75.3906 101.9375 C75.3906 102.1094 75.4531 102.3438 75.5781 102.8125 L75.7344 103.3438 L76.1094 103.3438 L76.0938 102.5312 C76.0938 102.0938 76.2031 101.9688 76.7812 101.7344 L77.2031 101.5625 C78.0312 101.2188 78.4531 100.6875 78.4531 99.8438 C78.4531 98.1562 76.6562 97.1875 75.5 97.0312 C75.1094 97.125 74.9062 97.2969 74.9062 97.6406 C74.9062 97.9375 75.0625 98.1562 75.7188 98.2656 L77.4688 98.5781 Z"
      /><path style="stroke:none;" d="M32.7031 98.1875 C34.5156 98.1875 35.9844 97.0938 35.9844 95.25 C35.9844 93.8594 35.0156 92.9375 33.8125 92.6562 L33.8125 92.5938 C34.8906 92.1875 35.6406 91.3594 35.6406 90.125 C35.6406 88.5 34.375 87.5469 32.6562 87.5469 C31.4688 87.5469 30.5469 88.0625 29.7812 88.7812 L30.4688 89.5938 C31.0469 89 31.7656 88.5938 32.5938 88.5938 C33.6562 88.5938 34.3281 89.2344 34.3281 90.2188 C34.3281 91.3281 33.6094 92.1719 31.4844 92.1719 L31.4844 93.1562 C33.8594 93.1562 34.6875 93.9844 34.6875 95.2031 C34.6875 96.3906 33.8125 97.125 32.5938 97.125 C31.4375 97.125 30.6562 96.5781 30.0469 95.9375 L29.4062 96.7812 C30.0781 97.5156 31.0938 98.1875 32.7031 98.1875 ZM36.9731 98 L38.3168 98 L39.3481 96.2188 C39.6137 95.7656 39.8637 95.2969 40.1293 94.8594 L40.2075 94.8594 C40.4731 95.2969 40.7543 95.7656 41.0043 96.2188 L42.1293 98 L43.5356 98 L41.02 94.1562 L43.3325 90.3906 L42.0043 90.3906 L41.0668 92.0625 C40.8481 92.5 40.6137 92.9219 40.3793 93.3438 L40.3325 93.3438 C40.0668 92.9219 39.8012 92.5 39.5668 92.0625 L38.5512 90.3906 L37.1762 90.3906 L39.4887 94.0312 L36.9731 98 Z"
    /></g
    ><g style="fill:white; text-rendering:optimizeSpeed; font-size:14px; font-family:'SansSerif'; stroke:white;"
    ><circle r="11" style="clip-path:url(#clipPath6); stroke:none;" cx="58" cy="41"
      /><rect x="47" y="30" width="22" style="clip-path:url(#clipPath6); fill:rgb(255,212,0); stroke:none;" height="22"
      /><rect x="47" y="30" width="22" style="clip-path:url(#clipPath6); fill:none; stroke:black;" height="22"
      /><circle r="11" style="fill:none; stroke:black;" cx="58" cy="41"
      /><rect x="74" width="5" height="10" y="28" style="stroke:none;"
    /></g
    ><g style="font-family:'Serif'; text-rendering:optimizeSpeed; "
    ><path style="stroke:none;" d="M75.8906 36.6875 C75.4844 36.6875 75.1562 37.0469 75.1562 37.4219 C75.1562 37.8125 75.4844 38.1562 75.8906 38.1562 C76.2969 38.1562 76.6406 37.8125 76.6406 37.4219 C76.6406 37.0469 76.2969 36.6875 75.8906 36.6875 ZM77.4688 30.5781 C77.7188 30.8906 77.875 31.2656 77.8906 31.6562 C77.8906 32.1875 77.625 32.5 77.0312 32.7656 L76.4062 33.0156 C75.6406 33.3125 75.3906 33.5469 75.3906 33.9375 C75.3906 34.1094 75.4531 34.3438 75.5781 34.8125 L75.7344 35.3438 L76.1094 35.3438 L76.0938 34.5312 C76.0938 34.0938 76.2031 33.9688 76.7812 33.7344 L77.2031 33.5625 C78.0312 33.2188 78.4531 32.6875 78.4531 31.8438 C78.4531 30.1562 76.6562 29.1875 75.5 29.0312 C75.1094 29.125 74.9062 29.2969 74.9062 29.6406 C74.9062 29.9375 75.0625 30.1562 75.7188 30.2656 L77.4688 30.5781 Z"
      /><rect x="74" y="44" width="5" style="fill:white; stroke:none;" height="10"
      /><path style="stroke:none;" d="M75.8906 52.6875 C75.4844 52.6875 75.1562 53.0469 75.1562 53.4219 C75.1562 53.8125 75.4844 54.1562 75.8906 54.1562 C76.2969 54.1562 76.6406 53.8125 76.6406 53.4219 C76.6406 53.0469 76.2969 52.6875 75.8906 52.6875 ZM77.4688 46.5781 C77.7188 46.8906 77.875 47.2656 77.8906 47.6562 C77.8906 48.1875 77.625 48.5 77.0312 48.7656 L76.4062 49.0156 C75.6406 49.3125 75.3906 49.5469 75.3906 49.9375 C75.3906 50.1094 75.4531 50.3438 75.5781 50.8125 L75.7344 51.3438 L76.1094 51.3438 L76.0938 50.5312 C76.0938 50.0938 76.2031 49.9688 76.7812 49.7344 L77.2031 49.5625 C78.0312 49.2188 78.4531 48.6875 78.4531 47.8438 C78.4531 46.1562 76.6562 45.1875 75.5 45.0312 C75.1094 45.125 74.9062 45.2969 74.9062 45.6406 C74.9062 45.9375 75.0625 46.1562 75.7188 46.2656 L77.4688 46.5781 Z"
      /><path style="stroke:none;" d="M32.6562 46.1875 C34.3906 46.1875 36.0156 44.9062 36.0156 42.6562 C36.0156 40.4062 34.625 39.3906 32.9219 39.3906 C32.2969 39.3906 31.8594 39.5469 31.3906 39.7969 L31.6406 36.8281 L35.5312 36.8281 L35.5312 35.7188 L30.5312 35.7188 L30.2031 40.5469 L30.8906 40.9531 C31.4844 40.5625 31.9062 40.3594 32.5938 40.3594 C33.8906 40.3594 34.7188 41.2188 34.7188 42.7031 C34.7188 44.1875 33.75 45.125 32.5469 45.125 C31.3594 45.125 30.6094 44.5781 30.0156 43.9844 L29.3906 44.8281 C30.0781 45.5156 31.0625 46.1875 32.6562 46.1875 ZM36.9731 46 L38.3168 46 L39.3481 44.2188 C39.6137 43.7656 39.8637 43.2969 40.1293 42.8594 L40.2075 42.8594 C40.4731 43.2969 40.7543 43.7656 41.0043 44.2188 L42.1293 46 L43.5356 46 L41.02 42.1562 L43.3325 38.3906 L42.0043 38.3906 L41.0668 40.0625 C40.8481 40.5 40.6137 40.9219 40.3793 41.3438 L40.3325 41.3438 C40.0668 40.9219 39.8012 40.5 39.5668 40.0625 L38.5512 38.3906 L37.1762 38.3906 L39.4887 42.0312 L36.9731 46 Z"
    /></g
    ><g ID="legend-1:0" style="text-rendering:optimizeSpeed; font-size:10px; font-family:'SansSerif';"
    ><path style="stroke:none;" d="M30.9219 327 L31.8281 327 L31.8281 323.0625 C32.375 322.5156 32.7656 322.2344 33.3125 322.2344 C34.0469 322.2344 34.3438 322.6562 34.3438 323.6875 L34.3438 327 L35.2656 327 L35.2656 323.5625 C35.2656 322.1719 34.7344 321.4375 33.5938 321.4375 C32.8594 321.4375 32.2969 321.8438 31.7812 322.3438 L31.75 322.3438 L31.6719 321.5625 L30.9219 321.5625 L30.9219 327 ZM39.1413 327.125 C40.4694 327.125 41.6569 326.0938 41.6569 324.2969 C41.6569 322.4844 40.4694 321.4375 39.1413 321.4375 C37.8131 321.4375 36.6256 322.4844 36.6256 324.2969 C36.6256 326.0938 37.8131 327.125 39.1413 327.125 ZM39.1413 326.375 C38.2038 326.375 37.5631 325.5469 37.5631 324.2969 C37.5631 323.0469 38.2038 322.1875 39.1413 322.1875 C40.0788 322.1875 40.7194 323.0469 40.7194 324.2969 C40.7194 325.5469 40.0788 326.375 39.1413 326.375 ZM47.16 329.5 C48.8475 329.5 49.91 328.625 49.91 327.625 C49.91 326.7344 49.2694 326.3281 48.0038 326.3281 L46.9569 326.3281 C46.2225 326.3281 46.0038 326.0938 46.0038 325.7344 C46.0038 325.4375 46.1444 325.2656 46.3475 325.0938 C46.5975 325.2031 46.8944 325.2812 47.16 325.2812 C48.2538 325.2812 49.1444 324.5469 49.1444 323.3906 C49.1444 322.9219 48.9569 322.5156 48.7069 322.2656 L49.8163 322.2656 L49.8163 321.5625 L47.9256 321.5625 C47.7225 321.5 47.4569 321.4375 47.16 321.4375 C46.0663 321.4375 45.1131 322.1875 45.1131 323.375 C45.1131 324.0156 45.4725 324.5469 45.8319 324.8281 L45.8319 324.875 C45.5506 325.0625 45.2225 325.4375 45.2225 325.875 C45.2225 326.3125 45.4256 326.5938 45.7225 326.7656 L45.7225 326.8125 C45.2069 327.1406 44.9256 327.5781 44.9256 328.0469 C44.9256 328.9844 45.8319 329.5 47.16 329.5 ZM47.16 324.6562 C46.535 324.6562 46.0038 324.1562 46.0038 323.375 C46.0038 322.5625 46.5194 322.0938 47.16 322.0938 C47.8006 322.0938 48.3163 322.5781 48.3163 323.375 C48.3163 324.1562 47.785 324.6562 47.16 324.6562 ZM47.285 328.875 C46.3163 328.875 45.7225 328.5 45.7225 327.9219 C45.7225 327.5938 45.8788 327.2812 46.2694 327 C46.5038 327.0625 46.7694 327.0938 46.9725 327.0938 L47.91 327.0938 C48.6288 327.0938 49.0194 327.2656 49.0194 327.7656 C49.0194 328.3281 48.3319 328.875 47.285 328.875 ZM51.915 327.125 C52.165 327.125 52.3212 327.0938 52.4462 327.0469 L52.3212 326.3438 C52.2275 326.375 52.1806 326.375 52.1337 326.375 C51.9931 326.375 51.8681 326.2656 51.8681 325.9844 L51.8681 319.0469 L50.9619 319.0469 L50.9619 325.9219 C50.9619 326.6875 51.2431 327.125 51.915 327.125 ZM53.9056 329.3438 C54.9837 329.3438 55.5462 328.5156 55.9212 327.4531 L57.9681 321.5625 L57.0775 321.5625 L56.1087 324.5938 C55.9525 325.0625 55.7962 325.625 55.6556 326.1094 L55.5931 326.1094 C55.4369 325.625 55.2337 325.0625 55.0775 324.5938 L53.9681 321.5625 L53.015 321.5625 L55.2025 327.0156 L55.0775 327.4219 C54.8587 328.0938 54.4681 328.5938 53.8431 328.5938 C53.7025 328.5938 53.5462 328.5469 53.4369 328.5 L53.265 329.2344 C53.4369 329.2969 53.64 329.3438 53.9056 329.3438 ZM61.1625 327.125 C61.8031 327.125 62.4281 326.875 62.9125 326.4375 L62.5219 325.8281 C62.1781 326.1406 61.7406 326.375 61.2406 326.375 C60.2406 326.375 59.5531 325.5469 59.5531 324.2969 C59.5531 323.0469 60.2875 322.1875 61.2719 322.1875 C61.6937 322.1875 62.0375 322.3906 62.35 322.6719 L62.8187 322.0625 C62.4281 321.7344 61.9437 321.4375 61.225 321.4375 C59.8344 321.4375 58.6156 322.4844 58.6156 324.2969 C58.6156 326.0938 59.725 327.125 61.1625 327.125 ZM66.2212 327.125 C67.5493 327.125 68.7368 326.0938 68.7368 324.2969 C68.7368 322.4844 67.5493 321.4375 66.2212 321.4375 C64.8931 321.4375 63.7056 322.4844 63.7056 324.2969 C63.7056 326.0938 64.8931 327.125 66.2212 327.125 ZM66.2212 326.375 C65.2837 326.375 64.6431 325.5469 64.6431 324.2969 C64.6431 323.0469 65.2837 322.1875 66.2212 322.1875 C67.1587 322.1875 67.7993 323.0469 67.7993 324.2969 C67.7993 325.5469 67.1587 326.375 66.2212 326.375 ZM71.5937 327.125 C72.875 327.125 73.5625 326.4062 73.5625 325.5156 C73.5625 324.4844 72.7031 324.1719 71.9062 323.875 C71.2968 323.6406 70.7343 323.4531 70.7343 322.9375 C70.7343 322.5156 71.0625 322.1562 71.75 322.1562 C72.2343 322.1562 72.6093 322.3438 72.9843 322.625 L73.4218 322.0469 C73 321.7031 72.4062 321.4375 71.7343 321.4375 C70.5625 321.4375 69.8593 322.1094 69.8593 322.9688 C69.8593 323.8906 70.6875 324.2656 71.4531 324.5469 C72.0468 324.7656 72.6875 325.0156 72.6875 325.5625 C72.6875 326.0469 72.3437 326.4219 71.625 326.4219 C70.9687 326.4219 70.4843 326.1562 70.0156 325.7812 L69.5625 326.375 C70.0781 326.8125 70.8125 327.125 71.5937 327.125 ZM74.8518 327 L75.7581 327 L75.7581 321.5625 L74.8518 321.5625 L74.8518 327 ZM75.305 320.4531 C75.6643 320.4531 75.9143 320.2031 75.9143 319.8438 C75.9143 319.4844 75.6643 319.25 75.305 319.25 C74.9456 319.25 74.6956 319.4844 74.6956 319.8438 C74.6956 320.2031 74.9456 320.4531 75.305 320.4531 ZM79.4456 327.125 C80.1018 327.125 80.6643 326.7812 81.1018 326.3594 L81.1331 326.3594 L81.2112 327 L81.9456 327 L81.9456 319.0469 L81.055 319.0469 L81.055 321.125 L81.0862 322.0625 C80.6175 321.6719 80.1956 321.4375 79.555 321.4375 C78.3206 321.4375 77.2112 322.5312 77.2112 324.2969 C77.2112 326.0938 78.0862 327.125 79.4456 327.125 ZM79.6487 326.375 C78.6956 326.375 78.1487 325.5938 78.1487 324.2812 C78.1487 323.0469 78.8362 322.2031 79.7268 322.2031 C80.1643 322.2031 80.5862 322.3594 81.055 322.7656 L81.055 325.625 C80.5862 326.125 80.1487 326.375 79.6487 326.375 ZM83.8018 327 L84.7081 327 L84.7081 321.5625 L83.8018 321.5625 L83.8018 327 ZM84.255 320.4531 C84.6143 320.4531 84.8643 320.2031 84.8643 319.8438 C84.8643 319.4844 84.6143 319.25 84.255 319.25 C83.8956 319.25 83.6456 319.4844 83.6456 319.8438 C83.6456 320.2031 83.8956 320.4531 84.255 320.4531 ZM88.6925 327.125 C89.3331 327.125 89.9581 326.875 90.4425 326.4375 L90.0518 325.8281 C89.7081 326.1406 89.2706 326.375 88.7706 326.375 C87.7706 326.375 87.0831 325.5469 87.0831 324.2969 C87.0831 323.0469 87.8175 322.1875 88.8018 322.1875 C89.2237 322.1875 89.5675 322.3906 89.88 322.6719 L90.3487 322.0625 C89.9581 321.7344 89.4737 321.4375 88.755 321.4375 C87.3643 321.4375 86.1456 322.4844 86.1456 324.2969 C86.1456 326.0938 87.255 327.125 88.6925 327.125 ZM94.835 327.125 C95.085 327.125 95.2412 327.0938 95.3662 327.0469 L95.2412 326.3438 C95.1475 326.375 95.1006 326.375 95.0537 326.375 C94.9131 326.375 94.7881 326.2656 94.7881 325.9844 L94.7881 319.0469 L93.8818 319.0469 L93.8818 325.9219 C93.8818 326.6875 94.1631 327.125 94.835 327.125 ZM96.7318 327 L97.6381 327 L97.6381 321.5625 L96.7318 321.5625 L96.7318 327 ZM97.185 320.4531 C97.5443 320.4531 97.7943 320.2031 97.7943 319.8438 C97.7943 319.4844 97.5443 319.25 97.185 319.25 C96.8256 319.25 96.5756 319.4844 96.5756 319.8438 C96.5756 320.2031 96.8256 320.4531 97.185 320.4531 ZM99.4818 327 L100.3881 327 L100.3881 323.0625 C100.935 322.5156 101.3256 322.2344 101.8725 322.2344 C102.6068 322.2344 102.9037 322.6562 102.9037 323.6875 L102.9037 327 L103.8256 327 L103.8256 323.5625 C103.8256 322.1719 103.2943 321.4375 102.1537 321.4375 C101.4193 321.4375 100.8568 321.8438 100.3412 322.3438 L100.31 322.3438 L100.2318 321.5625 L99.4818 321.5625 L99.4818 327 ZM105.5918 327 L106.4825 327 L106.4825 325.5625 L107.5137 324.375 L109.1075 327 L110.0918 327 L108.045 323.7656 L109.8575 321.5625 L108.8262 321.5625 L106.5137 324.4375 L106.4825 324.4375 L106.4825 319.0469 L105.5918 319.0469 L105.5918 327 ZM112.3618 327.125 C113.0337 327.125 113.6431 326.7812 114.1587 326.3438 L114.1899 326.3438 L114.2681 327 L115.0181 327 L115.0181 323.6562 C115.0181 322.3125 114.4556 321.4375 113.1431 321.4375 C112.2681 321.4375 111.5024 321.8125 111.0024 322.1406 L111.3618 322.7656 C111.7837 322.4844 112.3618 322.1875 112.9868 322.1875 C113.8774 322.1875 114.1118 322.8594 114.1118 323.5625 C111.7993 323.8125 110.7681 324.4062 110.7681 325.5938 C110.7681 326.5625 111.4556 327.125 112.3618 327.125 ZM112.6274 326.4062 C112.0806 326.4062 111.6587 326.1562 111.6587 325.5312 C111.6587 324.8281 112.2837 324.375 114.1118 324.1562 L114.1118 325.6875 C113.5806 326.1562 113.1431 326.4062 112.6274 326.4062 ZM118.5799 329.5 C120.2674 329.5 121.3299 328.625 121.3299 327.625 C121.3299 326.7344 120.6893 326.3281 119.4237 326.3281 L118.3768 326.3281 C117.6424 326.3281 117.4237 326.0938 117.4237 325.7344 C117.4237 325.4375 117.5643 325.2656 117.7674 325.0938 C118.0174 325.2031 118.3143 325.2812 118.5799 325.2812 C119.6737 325.2812 120.5643 324.5469 120.5643 323.3906 C120.5643 322.9219 120.3768 322.5156 120.1268 322.2656 L121.2362 322.2656 L121.2362 321.5625 L119.3456 321.5625 C119.1424 321.5 118.8768 321.4375 118.5799 321.4375 C117.4862 321.4375 116.5331 322.1875 116.5331 323.375 C116.5331 324.0156 116.8924 324.5469 117.2518 324.8281 L117.2518 324.875 C116.9706 325.0625 116.6424 325.4375 116.6424 325.875 C116.6424 326.3125 116.8456 326.5938 117.1424 326.7656 L117.1424 326.8125 C116.6268 327.1406 116.3456 327.5781 116.3456 328.0469 C116.3456 328.9844 117.2518 329.5 118.5799 329.5 ZM118.5799 324.6562 C117.9549 324.6562 117.4237 324.1562 117.4237 323.375 C117.4237 322.5625 117.9393 322.0938 118.5799 322.0938 C119.2206 322.0938 119.7362 322.5781 119.7362 323.375 C119.7362 324.1562 119.2049 324.6562 118.5799 324.6562 ZM118.7049 328.875 C117.7362 328.875 117.1424 328.5 117.1424 327.9219 C117.1424 327.5938 117.2987 327.2812 117.6893 327 C117.9237 327.0625 118.1893 327.0938 118.3924 327.0938 L119.3299 327.0938 C120.0487 327.0938 120.4393 327.2656 120.4393 327.7656 C120.4393 328.3281 119.7518 328.875 118.7049 328.875 ZM124.5693 327.125 C125.3037 327.125 125.8974 326.875 126.3662 326.5625 L126.0381 325.9688 C125.6474 326.2344 125.2099 326.4062 124.6787 326.4062 C123.6474 326.4062 122.9443 325.6562 122.8818 324.5 L126.5381 324.5 C126.5537 324.375 126.5849 324.1875 126.5849 323.9844 C126.5849 322.4375 125.8037 321.4375 124.4131 321.4375 C123.1631 321.4375 121.9756 322.5312 121.9756 324.2969 C121.9756 326.0781 123.1318 327.125 124.5693 327.125 ZM122.8662 323.8438 C122.9756 322.7812 123.6631 322.1562 124.4287 322.1562 C125.2724 322.1562 125.7724 322.75 125.7724 323.8438 L122.8662 323.8438 ZM129.3437 327.125 C130.6249 327.125 131.3124 326.4062 131.3124 325.5156 C131.3124 324.4844 130.453 324.1719 129.6562 323.875 C129.0468 323.6406 128.4843 323.4531 128.4843 322.9375 C128.4843 322.5156 128.8124 322.1562 129.4999 322.1562 C129.9843 322.1562 130.3593 322.3438 130.7343 322.625 L131.1718 322.0469 C130.7499 321.7031 130.1562 321.4375 129.4843 321.4375 C128.3124 321.4375 127.6093 322.1094 127.6093 322.9688 C127.6093 323.8906 128.4374 324.2656 129.203 324.5469 C129.7968 324.7656 130.4374 325.0156 130.4374 325.5625 C130.4374 326.0469 130.0937 326.4219 129.3749 326.4219 C128.7187 326.4219 128.2343 326.1562 127.7655 325.7812 L127.3124 326.375 C127.828 326.8125 128.5624 327.125 129.3437 327.125 Z"
    /></g
  ></g
></svg
>
