<?xml version="1.0"?>
<!DOCTYPE svg PUBLIC '-//W3C//DTD SVG 1.0//EN'
          'http://www.w3.org/TR/2001/REC-SVG-20010904/DTD/svg10.dtd'>
<svg xmlns:xlink="http://www.w3.org/1999/xlink" style="fill-opacity:1; color-rendering:auto; color-interpolation:auto; text-rendering:auto; stroke:black; stroke-linecap:square; stroke-miterlimit:10; shape-rendering:auto; stroke-opacity:1; fill:black; stroke-dasharray:none; font-weight:normal; stroke-width:1; font-family:'Dialog'; font-style:normal; stroke-linejoin:miter; font-size:12px; stroke-dashoffset:0; image-rendering:auto;" viewBox="0 0 173 394" xmlns="http://www.w3.org/2000/svg"
><!--Generated by the Batik Graphics2D SVG Generator--><defs id="genericDefs"
  /><g
  ><defs id="defs1"
    ><clipPath clipPathUnits="userSpaceOnUse" id="clipPath1"
      ><path style="fill-rule:evenodd;" d="M58 342 L69 353 L58 364 L47 353 Z"
      /></clipPath
      ><clipPath clipPathUnits="userSpaceOnUse" id="clipPath2"
      ><path style="fill-rule:evenodd;" d="M58 290 L69 301 L58 312 L47 301 Z"
      /></clipPath
      ><clipPath clipPathUnits="userSpaceOnUse" id="clipPath3"
      ><path style="fill-rule:evenodd;" d="M58 238 L69 260 L47 260 Z"
      /></clipPath
      ><clipPath clipPathUnits="userSpaceOnUse" id="clipPath4"
      ><path d="M47 186 L69 186 L69 208 L47 208 L47 186 Z"
      /></clipPath
      ><clipPath clipPathUnits="userSpaceOnUse" id="clipPath5"
      ><path d="M69 145 C69 151.0751 64.0751 156 58 156 C51.9249 156 47 151.0751 47 145 C47 138.9249 51.9249 134 58 134 C64.0751 134 69 138.9249 69 145 Z"
      /></clipPath
      ><clipPath clipPathUnits="userSpaceOnUse" id="clipPath6"
      ><path d="M47 82 L69 82 L69 104 L47 104 L47 82 Z"
      /></clipPath
      ><clipPath clipPathUnits="userSpaceOnUse" id="clipPath7"
      ><path d="M69 41 C69 47.0751 64.0751 52 58 52 C51.9249 52 47 47.0751 47 41 C47 34.9249 51.9249 30 58 30 C64.0751 30 69 34.9249 69 41 Z"
      /></clipPath
    ></defs
    ><g style="fill:white; text-rendering:optimizeSpeed; stroke:white;"
    ><rect x="0" width="173" height="394" y="0" style="stroke:none;"
      /><polygon style="clip-path:url(#clipPath1); stroke:none;" points=" 58 342 69 353 58 364 47 353"
      /><rect x="47" y="342" width="22" style="clip-path:url(#clipPath1); fill:rgb(165,67,153); stroke:none;" height="22"
      /><rect x="47" y="342" width="22" style="clip-path:url(#clipPath1); fill:none; stroke:black;" height="22"
      /><polygon style="fill:none; stroke:black;" points=" 58 342 69 353 58 364 47 353"
      /><rect x="74" y="340" width="5" style="stroke:none;" height="10"
    /></g
    ><g style="font-family:'Serif'; text-rendering:optimizeSpeed; "
    ><path style="stroke:none;" d="M75.8906 348.6875 C75.4844 348.6875 75.1562 349.0469 75.1562 349.4219 C75.1562 349.8125 75.4844 350.1562 75.8906 350.1562 C76.2969 350.1562 76.6406 349.8125 76.6406 349.4219 C76.6406 349.0469 76.2969 348.6875 75.8906 348.6875 ZM77.4688 342.5781 C77.7188 342.8906 77.875 343.2656 77.8906 343.6562 C77.8906 344.1875 77.625 344.5 77.0312 344.7656 L76.4062 345.0156 C75.6406 345.3125 75.3906 345.5469 75.3906 345.9375 C75.3906 346.1094 75.4531 346.3438 75.5781 346.8125 L75.7344 347.3438 L76.1094 347.3438 L76.0938 346.5312 C76.0938 346.0938 76.2031 345.9688 76.7812 345.7344 L77.2031 345.5625 C78.0312 345.2188 78.4531 344.6875 78.4531 343.8438 C78.4531 342.1562 76.6562 341.1875 75.5 341.0312 C75.1094 341.125 74.9062 341.2969 74.9062 341.6406 C74.9062 341.9375 75.0625 342.1562 75.7188 342.2656 L77.4688 342.5781 Z"
      /><rect x="74" y="356" width="5" style="fill:white; stroke:none;" height="10"
      /><path style="stroke:none;" d="M75.8906 364.6875 C75.4844 364.6875 75.1562 365.0469 75.1562 365.4219 C75.1562 365.8125 75.4844 366.1562 75.8906 366.1562 C76.2969 366.1562 76.6406 365.8125 76.6406 365.4219 C76.6406 365.0469 76.2969 364.6875 75.8906 364.6875 ZM77.4688 358.5781 C77.7188 358.8906 77.875 359.2656 77.8906 359.6562 C77.8906 360.1875 77.625 360.5 77.0312 360.7656 L76.4062 361.0156 C75.6406 361.3125 75.3906 361.5469 75.3906 361.9375 C75.3906 362.1094 75.4531 362.3438 75.5781 362.8125 L75.7344 363.3438 L76.1094 363.3438 L76.0938 362.5312 C76.0938 362.0938 76.2031 361.9688 76.7812 361.7344 L77.2031 361.5625 C78.0312 361.2188 78.4531 360.6875 78.4531 359.8438 C78.4531 358.1562 76.6562 357.1875 75.5 357.0312 C75.1094 357.125 74.9062 357.2969 74.9062 357.6406 C74.9062 357.9375 75.0625 358.1562 75.7188 358.2656 L77.4688 358.5781 Z"
      /><path style="stroke:none;" d="M32.7031 358.1875 C34.5156 358.1875 35.9844 357.0938 35.9844 355.25 C35.9844 353.8594 35.0156 352.9375 33.8125 352.6562 L33.8125 352.5938 C34.8906 352.1875 35.6406 351.3594 35.6406 350.125 C35.6406 348.5 34.375 347.5469 32.6562 347.5469 C31.4688 347.5469 30.5469 348.0625 29.7812 348.7812 L30.4688 349.5938 C31.0469 349 31.7656 348.5938 32.5938 348.5938 C33.6562 348.5938 34.3281 349.2344 34.3281 350.2188 C34.3281 351.3281 33.6094 352.1719 31.4844 352.1719 L31.4844 353.1562 C33.8594 353.1562 34.6875 353.9844 34.6875 355.2031 C34.6875 356.3906 33.8125 357.125 32.5938 357.125 C31.4375 357.125 30.6562 356.5781 30.0469 355.9375 L29.4062 356.7812 C30.0781 357.5156 31.0938 358.1875 32.7031 358.1875 ZM36.9731 358 L38.3168 358 L39.3481 356.2188 C39.6137 355.7656 39.8637 355.2969 40.1293 354.8594 L40.2075 354.8594 C40.4731 355.2969 40.7543 355.7656 41.0043 356.2188 L42.1293 358 L43.5356 358 L41.02 354.1562 L43.3325 350.3906 L42.0043 350.3906 L41.0668 352.0625 C40.8481 352.5 40.6137 352.9219 40.3793 353.3438 L40.3325 353.3438 C40.0668 352.9219 39.8012 352.5 39.5668 352.0625 L38.5512 350.3906 L37.1762 350.3906 L39.4887 354.0312 L36.9731 358 Z"
    /></g
    ><g style="fill:white; text-rendering:optimizeSpeed; font-size:14px; font-family:'SansSerif'; stroke:white;"
    ><polygon style="stroke:none; clip-path:url(#clipPath2);" points=" 58 290 69 301 58 312 47 301"
      /><rect x="47" y="290" width="22" style="clip-path:url(#clipPath2); fill:rgb(143,204,233); stroke:none;" height="22"
      /><rect x="47" y="290" width="22" style="clip-path:url(#clipPath2); fill:none; stroke:black;" height="22"
      /><polygon style="fill:none; stroke:black;" points=" 58 290 69 301 58 312 47 301"
      /><rect x="74" width="5" height="10" y="288" style="stroke:none;"
    /></g
    ><g style="font-family:'Serif'; text-rendering:optimizeSpeed; "
    ><path style="stroke:none;" d="M75.8906 296.6875 C75.4844 296.6875 75.1562 297.0469 75.1562 297.4219 C75.1562 297.8125 75.4844 298.1562 75.8906 298.1562 C76.2969 298.1562 76.6406 297.8125 76.6406 297.4219 C76.6406 297.0469 76.2969 296.6875 75.8906 296.6875 ZM77.4688 290.5781 C77.7188 290.8906 77.875 291.2656 77.8906 291.6562 C77.8906 292.1875 77.625 292.5 77.0312 292.7656 L76.4062 293.0156 C75.6406 293.3125 75.3906 293.5469 75.3906 293.9375 C75.3906 294.1094 75.4531 294.3438 75.5781 294.8125 L75.7344 295.3438 L76.1094 295.3438 L76.0938 294.5312 C76.0938 294.0938 76.2031 293.9688 76.7812 293.7344 L77.2031 293.5625 C78.0312 293.2188 78.4531 292.6875 78.4531 291.8438 C78.4531 290.1562 76.6562 289.1875 75.5 289.0312 C75.1094 289.125 74.9062 289.2969 74.9062 289.6406 C74.9062 289.9375 75.0625 290.1562 75.7188 290.2656 L77.4688 290.5781 Z"
      /><rect x="74" y="304" width="5" style="fill:white; stroke:none;" height="10"
      /><path style="stroke:none;" d="M75.8906 312.6875 C75.4844 312.6875 75.1562 313.0469 75.1562 313.4219 C75.1562 313.8125 75.4844 314.1562 75.8906 314.1562 C76.2969 314.1562 76.6406 313.8125 76.6406 313.4219 C76.6406 313.0469 76.2969 312.6875 75.8906 312.6875 ZM77.4688 306.5781 C77.7188 306.8906 77.875 307.2656 77.8906 307.6562 C77.8906 308.1875 77.625 308.5 77.0312 308.7656 L76.4062 309.0156 C75.6406 309.3125 75.3906 309.5469 75.3906 309.9375 C75.3906 310.1094 75.4531 310.3438 75.5781 310.8125 L75.7344 311.3438 L76.1094 311.3438 L76.0938 310.5312 C76.0938 310.0938 76.2031 309.9688 76.7812 309.7344 L77.2031 309.5625 C78.0312 309.2188 78.4531 308.6875 78.4531 307.8438 C78.4531 306.1562 76.6562 305.1875 75.5 305.0312 C75.1094 305.125 74.9062 305.2969 74.9062 305.6406 C74.9062 305.9375 75.0625 306.1562 75.7188 306.2656 L77.4688 306.5781 Z"
    /></g
    ><g style="fill:white; text-rendering:optimizeSpeed; font-size:14px; font-family:'SansSerif'; stroke:white;"
    ><polygon style="stroke:none; clip-path:url(#clipPath3);" points=" 58 238 69 260 47 260"
      /><rect x="47" y="238" width="22" style="clip-path:url(#clipPath3); fill:rgb(237,28,36); stroke:none;" height="22"
      /><rect x="47" y="238" width="22" style="clip-path:url(#clipPath3); fill:none; stroke:black;" height="22"
      /><polygon style="fill:none; stroke:black;" points=" 58 238 69 260 47 260"
      /><rect x="74" width="5" height="10" y="236" style="stroke:none;"
    /></g
    ><g style="font-family:'Serif'; text-rendering:optimizeSpeed; "
    ><path style="stroke:none;" d="M75.8906 244.6875 C75.4844 244.6875 75.1562 245.0469 75.1562 245.4219 C75.1562 245.8125 75.4844 246.1562 75.8906 246.1562 C76.2969 246.1562 76.6406 245.8125 76.6406 245.4219 C76.6406 245.0469 76.2969 244.6875 75.8906 244.6875 ZM77.4688 238.5781 C77.7188 238.8906 77.875 239.2656 77.8906 239.6562 C77.8906 240.1875 77.625 240.5 77.0312 240.7656 L76.4062 241.0156 C75.6406 241.3125 75.3906 241.5469 75.3906 241.9375 C75.3906 242.1094 75.4531 242.3438 75.5781 242.8125 L75.7344 243.3438 L76.1094 243.3438 L76.0938 242.5312 C76.0938 242.0938 76.2031 241.9688 76.7812 241.7344 L77.2031 241.5625 C78.0312 241.2188 78.4531 240.6875 78.4531 239.8438 C78.4531 238.1562 76.6562 237.1875 75.5 237.0312 C75.1094 237.125 74.9062 237.2969 74.9062 237.6406 C74.9062 237.9375 75.0625 238.1562 75.7188 238.2656 L77.4688 238.5781 Z"
      /><rect x="74" y="252" width="5" style="fill:white; stroke:none;" height="10"
      /><path style="stroke:none;" d="M75.8906 260.6875 C75.4844 260.6875 75.1562 261.0469 75.1562 261.4219 C75.1562 261.8125 75.4844 262.1562 75.8906 262.1562 C76.2969 262.1562 76.6406 261.8125 76.6406 261.4219 C76.6406 261.0469 76.2969 260.6875 75.8906 260.6875 ZM77.4688 254.5781 C77.7188 254.8906 77.875 255.2656 77.8906 255.6562 C77.8906 256.1875 77.625 256.5 77.0312 256.7656 L76.4062 257.0156 C75.6406 257.3125 75.3906 257.5469 75.3906 257.9375 C75.3906 258.1094 75.4531 258.3438 75.5781 258.8125 L75.7344 259.3438 L76.1094 259.3438 L76.0938 258.5312 C76.0938 258.0938 76.2031 257.9688 76.7812 257.7344 L77.2031 257.5625 C78.0312 257.2188 78.4531 256.6875 78.4531 255.8438 C78.4531 254.1562 76.6562 253.1875 75.5 253.0312 C75.1094 253.125 74.9062 253.2969 74.9062 253.6406 C74.9062 253.9375 75.0625 254.1562 75.7188 254.2656 L77.4688 254.5781 Z"
    /></g
    ><g style="fill:white; text-rendering:optimizeSpeed; font-size:14px; font-family:'SansSerif'; stroke:white;"
    ><rect x="47" y="186" width="22" style="clip-path:url(#clipPath4); stroke:none;" height="22"
      /><rect x="47" y="186" width="22" style="clip-path:url(#clipPath4); fill:rgb(0,144,188); stroke:none;" height="22"
      /><rect x="47" y="186" width="22" style="clip-path:url(#clipPath4); fill:none; stroke:black;" height="22"
      /><rect x="47" y="186" width="22" style="fill:none; stroke:black;" height="22"
      /><rect x="74" width="5" height="10" y="184" style="stroke:none;"
    /></g
    ><g style="font-family:'Serif'; text-rendering:optimizeSpeed; "
    ><path style="stroke:none;" d="M75.8906 192.6875 C75.4844 192.6875 75.1562 193.0469 75.1562 193.4219 C75.1562 193.8125 75.4844 194.1562 75.8906 194.1562 C76.2969 194.1562 76.6406 193.8125 76.6406 193.4219 C76.6406 193.0469 76.2969 192.6875 75.8906 192.6875 ZM77.4688 186.5781 C77.7188 186.8906 77.875 187.2656 77.8906 187.6562 C77.8906 188.1875 77.625 188.5 77.0312 188.7656 L76.4062 189.0156 C75.6406 189.3125 75.3906 189.5469 75.3906 189.9375 C75.3906 190.1094 75.4531 190.3438 75.5781 190.8125 L75.7344 191.3438 L76.1094 191.3438 L76.0938 190.5312 C76.0938 190.0938 76.2031 189.9688 76.7812 189.7344 L77.2031 189.5625 C78.0312 189.2188 78.4531 188.6875 78.4531 187.8438 C78.4531 186.1562 76.6562 185.1875 75.5 185.0312 C75.1094 185.125 74.9062 185.2969 74.9062 185.6406 C74.9062 185.9375 75.0625 186.1562 75.7188 186.2656 L77.4688 186.5781 Z"
      /><rect x="74" y="200" width="5" style="fill:white; stroke:none;" height="10"
      /><path style="stroke:none;" d="M75.8906 208.6875 C75.4844 208.6875 75.1562 209.0469 75.1562 209.4219 C75.1562 209.8125 75.4844 210.1562 75.8906 210.1562 C76.2969 210.1562 76.6406 209.8125 76.6406 209.4219 C76.6406 209.0469 76.2969 208.6875 75.8906 208.6875 ZM77.4688 202.5781 C77.7188 202.8906 77.875 203.2656 77.8906 203.6562 C77.8906 204.1875 77.625 204.5 77.0312 204.7656 L76.4062 205.0156 C75.6406 205.3125 75.3906 205.5469 75.3906 205.9375 C75.3906 206.1094 75.4531 206.3438 75.5781 206.8125 L75.7344 207.3438 L76.1094 207.3438 L76.0938 206.5312 C76.0938 206.0938 76.2031 205.9688 76.7812 205.7344 L77.2031 205.5625 C78.0312 205.2188 78.4531 204.6875 78.4531 203.8438 C78.4531 202.1562 76.6562 201.1875 75.5 201.0312 C75.1094 201.125 74.9062 201.2969 74.9062 201.6406 C74.9062 201.9375 75.0625 202.1562 75.7188 202.2656 L77.4688 202.5781 Z"
      /><path style="stroke:none;" d="M33.1094 196.5781 C34.3438 196.5781 34.9688 197.4688 34.9688 198.8438 C34.9688 200.25 34.1875 201.1875 33.2188 201.1875 C31.9219 201.1875 31.1562 200.0312 31 197.8906 C31.625 196.9531 32.4531 196.5781 33.1094 196.5781 ZM33.2188 202.1875 C34.8125 202.1875 36.1562 200.8438 36.1562 198.8438 C36.1562 196.7031 35.0469 195.625 33.3125 195.625 C32.5 195.625 31.6094 196.1094 30.9688 196.875 C31.0312 193.6875 32.2188 192.6094 33.625 192.6094 C34.25 192.6094 34.8594 192.9062 35.2656 193.3906 L35.9688 192.5938 C35.4062 191.9844 34.6406 191.5469 33.5781 191.5469 C31.5938 191.5469 29.7812 193.0781 29.7812 197.0938 C29.7812 200.4844 31.2344 202.1875 33.2188 202.1875 ZM36.9731 202 L38.3168 202 L39.3481 200.2188 C39.6137 199.7656 39.8637 199.2969 40.1293 198.8594 L40.2075 198.8594 C40.4731 199.2969 40.7543 199.7656 41.0043 200.2188 L42.1293 202 L43.5356 202 L41.02 198.1562 L43.3325 194.3906 L42.0043 194.3906 L41.0668 196.0625 C40.8481 196.5 40.6137 196.9219 40.3793 197.3438 L40.3325 197.3438 C40.0668 196.9219 39.8012 196.5 39.5668 196.0625 L38.5512 194.3906 L37.1762 194.3906 L39.4887 198.0312 L36.9731 202 Z"
    /></g
    ><g style="fill:white; text-rendering:optimizeSpeed; font-size:14px; font-family:'SansSerif'; stroke:white;"
    ><circle r="11" style="clip-path:url(#clipPath5); stroke:none;" cx="58" cy="145"
      /><rect x="47" y="134" width="22" style="clip-path:url(#clipPath5); fill:rgb(0,166,81); stroke:none;" height="22"
      /><rect x="47" y="134" width="22" style="clip-path:url(#clipPath5); fill:none; stroke:black;" height="22"
      /><circle r="11" style="fill:none; stroke:black;" cx="58" cy="145"
      /><rect x="74" width="5" height="10" y="132" style="stroke:none;"
    /></g
    ><g style="font-family:'Serif'; text-rendering:optimizeSpeed; "
    ><path style="stroke:none;" d="M75.8906 140.6875 C75.4844 140.6875 75.1562 141.0469 75.1562 141.4219 C75.1562 141.8125 75.4844 142.1562 75.8906 142.1562 C76.2969 142.1562 76.6406 141.8125 76.6406 141.4219 C76.6406 141.0469 76.2969 140.6875 75.8906 140.6875 ZM77.4688 134.5781 C77.7188 134.8906 77.875 135.2656 77.8906 135.6562 C77.8906 136.1875 77.625 136.5 77.0312 136.7656 L76.4062 137.0156 C75.6406 137.3125 75.3906 137.5469 75.3906 137.9375 C75.3906 138.1094 75.4531 138.3438 75.5781 138.8125 L75.7344 139.3438 L76.1094 139.3438 L76.0938 138.5312 C76.0938 138.0938 76.2031 137.9688 76.7812 137.7344 L77.2031 137.5625 C78.0312 137.2188 78.4531 136.6875 78.4531 135.8438 C78.4531 134.1562 76.6562 133.1875 75.5 133.0312 C75.1094 133.125 74.9062 133.2969 74.9062 133.6406 C74.9062 133.9375 75.0625 134.1562 75.7188 134.2656 L77.4688 134.5781 Z"
      /><rect x="74" y="148" width="5" style="fill:white; stroke:none;" height="10"
      /><path style="stroke:none;" d="M75.8906 156.6875 C75.4844 156.6875 75.1562 157.0469 75.1562 157.4219 C75.1562 157.8125 75.4844 158.1562 75.8906 158.1562 C76.2969 158.1562 76.6406 157.8125 76.6406 157.4219 C76.6406 157.0469 76.2969 156.6875 75.8906 156.6875 ZM77.4688 150.5781 C77.7188 150.8906 77.875 151.2656 77.8906 151.6562 C77.8906 152.1875 77.625 152.5 77.0312 152.7656 L76.4062 153.0156 C75.6406 153.3125 75.3906 153.5469 75.3906 153.9375 C75.3906 154.1094 75.4531 154.3438 75.5781 154.8125 L75.7344 155.3438 L76.1094 155.3438 L76.0938 154.5312 C76.0938 154.0938 76.2031 153.9688 76.7812 153.7344 L77.2031 153.5625 C78.0312 153.2188 78.4531 152.6875 78.4531 151.8438 C78.4531 150.1562 76.6562 149.1875 75.5 149.0312 C75.1094 149.125 74.9062 149.2969 74.9062 149.6406 C74.9062 149.9375 75.0625 150.1562 75.7188 150.2656 L77.4688 150.5781 Z"
      /><path style="stroke:none;" d="M32.7031 150.1875 C34.5156 150.1875 35.9844 149.0938 35.9844 147.25 C35.9844 145.8594 35.0156 144.9375 33.8125 144.6562 L33.8125 144.5938 C34.8906 144.1875 35.6406 143.3594 35.6406 142.125 C35.6406 140.5 34.375 139.5469 32.6562 139.5469 C31.4688 139.5469 30.5469 140.0625 29.7812 140.7812 L30.4688 141.5938 C31.0469 141 31.7656 140.5938 32.5938 140.5938 C33.6562 140.5938 34.3281 141.2344 34.3281 142.2188 C34.3281 143.3281 33.6094 144.1719 31.4844 144.1719 L31.4844 145.1562 C33.8594 145.1562 34.6875 145.9844 34.6875 147.2031 C34.6875 148.3906 33.8125 149.125 32.5938 149.125 C31.4375 149.125 30.6562 148.5781 30.0469 147.9375 L29.4062 148.7812 C30.0781 149.5156 31.0938 150.1875 32.7031 150.1875 ZM36.9731 150 L38.3168 150 L39.3481 148.2188 C39.6137 147.7656 39.8637 147.2969 40.1293 146.8594 L40.2075 146.8594 C40.4731 147.2969 40.7543 147.7656 41.0043 148.2188 L42.1293 150 L43.5356 150 L41.02 146.1562 L43.3325 142.3906 L42.0043 142.3906 L41.0668 144.0625 C40.8481 144.5 40.6137 144.9219 40.3793 145.3438 L40.3325 145.3438 C40.0668 144.9219 39.8012 144.5 39.5668 144.0625 L38.5512 142.3906 L37.1762 142.3906 L39.4887 146.0312 L36.9731 150 Z"
    /></g
    ><g style="fill:white; text-rendering:optimizeSpeed; font-size:14px; font-family:'SansSerif'; stroke:white;"
    ><rect x="47" y="82" width="22" style="clip-path:url(#clipPath6); stroke:none;" height="22"
      /><rect x="47" y="82" width="22" style="clip-path:url(#clipPath6); fill:rgb(255,212,0); stroke:none;" height="22"
      /><rect x="47" y="82" width="22" style="clip-path:url(#clipPath6); fill:none; stroke:black;" height="22"
      /><rect x="47" y="82" width="22" style="fill:none; stroke:black;" height="22"
      /><rect x="74" width="5" height="10" y="80" style="stroke:none;"
    /></g
    ><g style="font-family:'Serif'; text-rendering:optimizeSpeed; "
    ><path style="stroke:none;" d="M75.8906 88.6875 C75.4844 88.6875 75.1562 89.0469 75.1562 89.4219 C75.1562 89.8125 75.4844 90.1562 75.8906 90.1562 C76.2969 90.1562 76.6406 89.8125 76.6406 89.4219 C76.6406 89.0469 76.2969 88.6875 75.8906 88.6875 ZM77.4688 82.5781 C77.7188 82.8906 77.875 83.2656 77.8906 83.6562 C77.8906 84.1875 77.625 84.5 77.0312 84.7656 L76.4062 85.0156 C75.6406 85.3125 75.3906 85.5469 75.3906 85.9375 C75.3906 86.1094 75.4531 86.3438 75.5781 86.8125 L75.7344 87.3438 L76.1094 87.3438 L76.0938 86.5312 C76.0938 86.0938 76.2031 85.9688 76.7812 85.7344 L77.2031 85.5625 C78.0312 85.2188 78.4531 84.6875 78.4531 83.8438 C78.4531 82.1562 76.6562 81.1875 75.5 81.0312 C75.1094 81.125 74.9062 81.2969 74.9062 81.6406 C74.9062 81.9375 75.0625 82.1562 75.7188 82.2656 L77.4688 82.5781 Z"
      /><rect x="74" y="96" width="5" style="fill:white; stroke:none;" height="10"
      /><path style="stroke:none;" d="M75.8906 104.6875 C75.4844 104.6875 75.1562 105.0469 75.1562 105.4219 C75.1562 105.8125 75.4844 106.1562 75.8906 106.1562 C76.2969 106.1562 76.6406 105.8125 76.6406 105.4219 C76.6406 105.0469 76.2969 104.6875 75.8906 104.6875 ZM77.4688 98.5781 C77.7188 98.8906 77.875 99.2656 77.8906 99.6562 C77.8906 100.1875 77.625 100.5 77.0312 100.7656 L76.4062 101.0156 C75.6406 101.3125 75.3906 101.5469 75.3906 101.9375 C75.3906 102.1094 75.4531 102.3438 75.5781 102.8125 L75.7344 103.3438 L76.1094 103.3438 L76.0938 102.5312 C76.0938 102.0938 76.2031 101.9688 76.7812 101.7344 L77.2031 101.5625 C78.0312 101.2188 78.4531 100.6875 78.4531 99.8438 C78.4531 98.1562 76.6562 97.1875 75.5 97.0312 C75.1094 97.125 74.9062 97.2969 74.9062 97.6406 C74.9062 97.9375 75.0625 98.1562 75.7188 98.2656 L77.4688 98.5781 Z"
    /></g
    ><g style="fill:white; text-rendering:optimizeSpeed; font-size:14px; font-family:'SansSerif'; stroke:white;"
    ><circle r="11" style="clip-path:url(#clipPath7); stroke:none;" cx="58" cy="41"
      /><rect x="47" y="30" width="22" style="clip-path:url(#clipPath7); fill:rgb(255,212,0); stroke:none;" height="22"
      /><rect x="47" y="30" width="22" style="clip-path:url(#clipPath7); fill:none; stroke:black;" height="22"
      /><circle r="11" style="fill:none; stroke:black;" cx="58" cy="41"
      /><rect x="74" width="5" height="10" y="28" style="stroke:none;"
    /></g
    ><g style="font-family:'Serif'; text-rendering:optimizeSpeed; "
    ><path style="stroke:none;" d="M75.8906 36.6875 C75.4844 36.6875 75.1562 37.0469 75.1562 37.4219 C75.1562 37.8125 75.4844 38.1562 75.8906 38.1562 C76.2969 38.1562 76.6406 37.8125 76.6406 37.4219 C76.6406 37.0469 76.2969 36.6875 75.8906 36.6875 ZM77.4688 30.5781 C77.7188 30.8906 77.875 31.2656 77.8906 31.6562 C77.8906 32.1875 77.625 32.5 77.0312 32.7656 L76.4062 33.0156 C75.6406 33.3125 75.3906 33.5469 75.3906 33.9375 C75.3906 34.1094 75.4531 34.3438 75.5781 34.8125 L75.7344 35.3438 L76.1094 35.3438 L76.0938 34.5312 C76.0938 34.0938 76.2031 33.9688 76.7812 33.7344 L77.2031 33.5625 C78.0312 33.2188 78.4531 32.6875 78.4531 31.8438 C78.4531 30.1562 76.6562 29.1875 75.5 29.0312 C75.1094 29.125 74.9062 29.2969 74.9062 29.6406 C74.9062 29.9375 75.0625 30.1562 75.7188 30.2656 L77.4688 30.5781 Z"
      /><rect x="74" y="44" width="5" style="fill:white; stroke:none;" height="10"
      /><path style="stroke:none;" d="M75.8906 52.6875 C75.4844 52.6875 75.1562 53.0469 75.1562 53.4219 C75.1562 53.8125 75.4844 54.1562 75.8906 54.1562 C76.2969 54.1562 76.6406 53.8125 76.6406 53.4219 C76.6406 53.0469 76.2969 52.6875 75.8906 52.6875 ZM77.4688 46.5781 C77.7188 46.8906 77.875 47.2656 77.8906 47.6562 C77.8906 48.1875 77.625 48.5 77.0312 48.7656 L76.4062 49.0156 C75.6406 49.3125 75.3906 49.5469 75.3906 49.9375 C75.3906 50.1094 75.4531 50.3438 75.5781 50.8125 L75.7344 51.3438 L76.1094 51.3438 L76.0938 50.5312 C76.0938 50.0938 76.2031 49.9688 76.7812 49.7344 L77.2031 49.5625 C78.0312 49.2188 78.4531 48.6875 78.4531 47.8438 C78.4531 46.1562 76.6562 45.1875 75.5 45.0312 C75.1094 45.125 74.9062 45.2969 74.9062 45.6406 C74.9062 45.9375 75.0625 46.1562 75.7188 46.2656 L77.4688 46.5781 Z"
      /><path style="stroke:none;" d="M32.7031 46.1875 C34.5156 46.1875 35.9844 45.0938 35.9844 43.25 C35.9844 41.8594 35.0156 40.9375 33.8125 40.6562 L33.8125 40.5938 C34.8906 40.1875 35.6406 39.3594 35.6406 38.125 C35.6406 36.5 34.375 35.5469 32.6562 35.5469 C31.4688 35.5469 30.5469 36.0625 29.7812 36.7812 L30.4688 37.5938 C31.0469 37 31.7656 36.5938 32.5938 36.5938 C33.6562 36.5938 34.3281 37.2344 34.3281 38.2188 C34.3281 39.3281 33.6094 40.1719 31.4844 40.1719 L31.4844 41.1562 C33.8594 41.1562 34.6875 41.9844 34.6875 43.2031 C34.6875 44.3906 33.8125 45.125 32.5938 45.125 C31.4375 45.125 30.6562 44.5781 30.0469 43.9375 L29.4062 44.7812 C30.0781 45.5156 31.0938 46.1875 32.7031 46.1875 ZM36.9731 46 L38.3168 46 L39.3481 44.2188 C39.6137 43.7656 39.8637 43.2969 40.1293 42.8594 L40.2075 42.8594 C40.4731 43.2969 40.7543 43.7656 41.0043 44.2188 L42.1293 46 L43.5356 46 L41.02 42.1562 L43.3325 38.3906 L42.0043 38.3906 L41.0668 40.0625 C40.8481 40.5 40.6137 40.9219 40.3793 41.3438 L40.3325 41.3438 C40.0668 40.9219 39.8012 40.5 39.5668 40.0625 L38.5512 38.3906 L37.1762 38.3906 L39.4887 42.0312 L36.9731 46 Z"
    /></g
    ><g ID="legend-1:0" style="text-rendering:optimizeSpeed; font-size:10px; font-family:'SansSerif';"
    ><path style="stroke:none;" d="M30.9219 379 L31.8281 379 L31.8281 375.0625 C32.375 374.5156 32.7656 374.2344 33.3125 374.2344 C34.0469 374.2344 34.3438 374.6562 34.3438 375.6875 L34.3438 379 L35.2656 379 L35.2656 375.5625 C35.2656 374.1719 34.7344 373.4375 33.5938 373.4375 C32.8594 373.4375 32.2969 373.8438 31.7812 374.3438 L31.75 374.3438 L31.6719 373.5625 L30.9219 373.5625 L30.9219 379 ZM39.1413 379.125 C40.4694 379.125 41.6569 378.0938 41.6569 376.2969 C41.6569 374.4844 40.4694 373.4375 39.1413 373.4375 C37.8131 373.4375 36.6256 374.4844 36.6256 376.2969 C36.6256 378.0938 37.8131 379.125 39.1413 379.125 ZM39.1413 378.375 C38.2038 378.375 37.5631 377.5469 37.5631 376.2969 C37.5631 375.0469 38.2038 374.1875 39.1413 374.1875 C40.0788 374.1875 40.7194 375.0469 40.7194 376.2969 C40.7194 377.5469 40.0788 378.375 39.1413 378.375 ZM47.16 381.5 C48.8475 381.5 49.91 380.625 49.91 379.625 C49.91 378.7344 49.2694 378.3281 48.0038 378.3281 L46.9569 378.3281 C46.2225 378.3281 46.0038 378.0938 46.0038 377.7344 C46.0038 377.4375 46.1444 377.2656 46.3475 377.0938 C46.5975 377.2031 46.8944 377.2812 47.16 377.2812 C48.2538 377.2812 49.1444 376.5469 49.1444 375.3906 C49.1444 374.9219 48.9569 374.5156 48.7069 374.2656 L49.8163 374.2656 L49.8163 373.5625 L47.9256 373.5625 C47.7225 373.5 47.4569 373.4375 47.16 373.4375 C46.0663 373.4375 45.1131 374.1875 45.1131 375.375 C45.1131 376.0156 45.4725 376.5469 45.8319 376.8281 L45.8319 376.875 C45.5506 377.0625 45.2225 377.4375 45.2225 377.875 C45.2225 378.3125 45.4256 378.5938 45.7225 378.7656 L45.7225 378.8125 C45.2069 379.1406 44.9256 379.5781 44.9256 380.0469 C44.9256 380.9844 45.8319 381.5 47.16 381.5 ZM47.16 376.6562 C46.535 376.6562 46.0038 376.1562 46.0038 375.375 C46.0038 374.5625 46.5194 374.0938 47.16 374.0938 C47.8006 374.0938 48.3163 374.5781 48.3163 375.375 C48.3163 376.1562 47.785 376.6562 47.16 376.6562 ZM47.285 380.875 C46.3163 380.875 45.7225 380.5 45.7225 379.9219 C45.7225 379.5938 45.8788 379.2812 46.2694 379 C46.5038 379.0625 46.7694 379.0938 46.9725 379.0938 L47.91 379.0938 C48.6288 379.0938 49.0194 379.2656 49.0194 379.7656 C49.0194 380.3281 48.3319 380.875 47.285 380.875 ZM51.915 379.125 C52.165 379.125 52.3212 379.0938 52.4462 379.0469 L52.3212 378.3438 C52.2275 378.375 52.1806 378.375 52.1337 378.375 C51.9931 378.375 51.8681 378.2656 51.8681 377.9844 L51.8681 371.0469 L50.9619 371.0469 L50.9619 377.9219 C50.9619 378.6875 51.2431 379.125 51.915 379.125 ZM53.9056 381.3438 C54.9837 381.3438 55.5462 380.5156 55.9212 379.4531 L57.9681 373.5625 L57.0775 373.5625 L56.1087 376.5938 C55.9525 377.0625 55.7962 377.625 55.6556 378.1094 L55.5931 378.1094 C55.4369 377.625 55.2337 377.0625 55.0775 376.5938 L53.9681 373.5625 L53.015 373.5625 L55.2025 379.0156 L55.0775 379.4219 C54.8587 380.0938 54.4681 380.5938 53.8431 380.5938 C53.7025 380.5938 53.5462 380.5469 53.4369 380.5 L53.265 381.2344 C53.4369 381.2969 53.64 381.3438 53.9056 381.3438 ZM61.1625 379.125 C61.8031 379.125 62.4281 378.875 62.9125 378.4375 L62.5219 377.8281 C62.1781 378.1406 61.7406 378.375 61.2406 378.375 C60.2406 378.375 59.5531 377.5469 59.5531 376.2969 C59.5531 375.0469 60.2875 374.1875 61.2719 374.1875 C61.6937 374.1875 62.0375 374.3906 62.35 374.6719 L62.8187 374.0625 C62.4281 373.7344 61.9437 373.4375 61.225 373.4375 C59.8344 373.4375 58.6156 374.4844 58.6156 376.2969 C58.6156 378.0938 59.725 379.125 61.1625 379.125 ZM66.2212 379.125 C67.5493 379.125 68.7368 378.0938 68.7368 376.2969 C68.7368 374.4844 67.5493 373.4375 66.2212 373.4375 C64.8931 373.4375 63.7056 374.4844 63.7056 376.2969 C63.7056 378.0938 64.8931 379.125 66.2212 379.125 ZM66.2212 378.375 C65.2837 378.375 64.6431 377.5469 64.6431 376.2969 C64.6431 375.0469 65.2837 374.1875 66.2212 374.1875 C67.1587 374.1875 67.7993 375.0469 67.7993 376.2969 C67.7993 377.5469 67.1587 378.375 66.2212 378.375 ZM71.5937 379.125 C72.875 379.125 73.5625 378.4062 73.5625 377.5156 C73.5625 376.4844 72.7031 376.1719 71.9062 375.875 C71.2968 375.6406 70.7343 375.4531 70.7343 374.9375 C70.7343 374.5156 71.0625 374.1562 71.75 374.1562 C72.2343 374.1562 72.6093 374.3438 72.9843 374.625 L73.4218 374.0469 C73 373.7031 72.4062 373.4375 71.7343 373.4375 C70.5625 373.4375 69.8593 374.1094 69.8593 374.9688 C69.8593 375.8906 70.6875 376.2656 71.4531 376.5469 C72.0468 376.7656 72.6875 377.0156 72.6875 377.5625 C72.6875 378.0469 72.3437 378.4219 71.625 378.4219 C70.9687 378.4219 70.4843 378.1562 70.0156 377.7812 L69.5625 378.375 C70.0781 378.8125 70.8125 379.125 71.5937 379.125 ZM74.8518 379 L75.7581 379 L75.7581 373.5625 L74.8518 373.5625 L74.8518 379 ZM75.305 372.4531 C75.6643 372.4531 75.9143 372.2031 75.9143 371.8438 C75.9143 371.4844 75.6643 371.25 75.305 371.25 C74.9456 371.25 74.6956 371.4844 74.6956 371.8438 C74.6956 372.2031 74.9456 372.4531 75.305 372.4531 ZM79.4456 379.125 C80.1018 379.125 80.6643 378.7812 81.1018 378.3594 L81.1331 378.3594 L81.2112 379 L81.9456 379 L81.9456 371.0469 L81.055 371.0469 L81.055 373.125 L81.0862 374.0625 C80.6175 373.6719 80.1956 373.4375 79.555 373.4375 C78.3206 373.4375 77.2112 374.5312 77.2112 376.2969 C77.2112 378.0938 78.0862 379.125 79.4456 379.125 ZM79.6487 378.375 C78.6956 378.375 78.1487 377.5938 78.1487 376.2812 C78.1487 375.0469 78.8362 374.2031 79.7268 374.2031 C80.1643 374.2031 80.5862 374.3594 81.055 374.7656 L81.055 377.625 C80.5862 378.125 80.1487 378.375 79.6487 378.375 ZM83.8018 379 L84.7081 379 L84.7081 373.5625 L83.8018 373.5625 L83.8018 379 ZM84.255 372.4531 C84.6143 372.4531 84.8643 372.2031 84.8643 371.8438 C84.8643 371.4844 84.6143 371.25 84.255 371.25 C83.8956 371.25 83.6456 371.4844 83.6456 371.8438 C83.6456 372.2031 83.8956 372.4531 84.255 372.4531 ZM88.6925 379.125 C89.3331 379.125 89.9581 378.875 90.4425 378.4375 L90.0518 377.8281 C89.7081 378.1406 89.2706 378.375 88.7706 378.375 C87.7706 378.375 87.0831 377.5469 87.0831 376.2969 C87.0831 375.0469 87.8175 374.1875 88.8018 374.1875 C89.2237 374.1875 89.5675 374.3906 89.88 374.6719 L90.3487 374.0625 C89.9581 373.7344 89.4737 373.4375 88.755 373.4375 C87.3643 373.4375 86.1456 374.4844 86.1456 376.2969 C86.1456 378.0938 87.255 379.125 88.6925 379.125 ZM94.835 379.125 C95.085 379.125 95.2412 379.0938 95.3662 379.0469 L95.2412 378.3438 C95.1475 378.375 95.1006 378.375 95.0537 378.375 C94.9131 378.375 94.7881 378.2656 94.7881 377.9844 L94.7881 371.0469 L93.8818 371.0469 L93.8818 377.9219 C93.8818 378.6875 94.1631 379.125 94.835 379.125 ZM96.7318 379 L97.6381 379 L97.6381 373.5625 L96.7318 373.5625 L96.7318 379 ZM97.185 372.4531 C97.5443 372.4531 97.7943 372.2031 97.7943 371.8438 C97.7943 371.4844 97.5443 371.25 97.185 371.25 C96.8256 371.25 96.5756 371.4844 96.5756 371.8438 C96.5756 372.2031 96.8256 372.4531 97.185 372.4531 ZM99.4818 379 L100.3881 379 L100.3881 375.0625 C100.935 374.5156 101.3256 374.2344 101.8725 374.2344 C102.6068 374.2344 102.9037 374.6562 102.9037 375.6875 L102.9037 379 L103.8256 379 L103.8256 375.5625 C103.8256 374.1719 103.2943 373.4375 102.1537 373.4375 C101.4193 373.4375 100.8568 373.8438 100.3412 374.3438 L100.31 374.3438 L100.2318 373.5625 L99.4818 373.5625 L99.4818 379 ZM105.5918 379 L106.4825 379 L106.4825 377.5625 L107.5137 376.375 L109.1075 379 L110.0918 379 L108.045 375.7656 L109.8575 373.5625 L108.8262 373.5625 L106.5137 376.4375 L106.4825 376.4375 L106.4825 371.0469 L105.5918 371.0469 L105.5918 379 ZM112.3618 379.125 C113.0337 379.125 113.6431 378.7812 114.1587 378.3438 L114.1899 378.3438 L114.2681 379 L115.0181 379 L115.0181 375.6562 C115.0181 374.3125 114.4556 373.4375 113.1431 373.4375 C112.2681 373.4375 111.5024 373.8125 111.0024 374.1406 L111.3618 374.7656 C111.7837 374.4844 112.3618 374.1875 112.9868 374.1875 C113.8774 374.1875 114.1118 374.8594 114.1118 375.5625 C111.7993 375.8125 110.7681 376.4062 110.7681 377.5938 C110.7681 378.5625 111.4556 379.125 112.3618 379.125 ZM112.6274 378.4062 C112.0806 378.4062 111.6587 378.1562 111.6587 377.5312 C111.6587 376.8281 112.2837 376.375 114.1118 376.1562 L114.1118 377.6875 C113.5806 378.1562 113.1431 378.4062 112.6274 378.4062 ZM118.5799 381.5 C120.2674 381.5 121.3299 380.625 121.3299 379.625 C121.3299 378.7344 120.6893 378.3281 119.4237 378.3281 L118.3768 378.3281 C117.6424 378.3281 117.4237 378.0938 117.4237 377.7344 C117.4237 377.4375 117.5643 377.2656 117.7674 377.0938 C118.0174 377.2031 118.3143 377.2812 118.5799 377.2812 C119.6737 377.2812 120.5643 376.5469 120.5643 375.3906 C120.5643 374.9219 120.3768 374.5156 120.1268 374.2656 L121.2362 374.2656 L121.2362 373.5625 L119.3456 373.5625 C119.1424 373.5 118.8768 373.4375 118.5799 373.4375 C117.4862 373.4375 116.5331 374.1875 116.5331 375.375 C116.5331 376.0156 116.8924 376.5469 117.2518 376.8281 L117.2518 376.875 C116.9706 377.0625 116.6424 377.4375 116.6424 377.875 C116.6424 378.3125 116.8456 378.5938 117.1424 378.7656 L117.1424 378.8125 C116.6268 379.1406 116.3456 379.5781 116.3456 380.0469 C116.3456 380.9844 117.2518 381.5 118.5799 381.5 ZM118.5799 376.6562 C117.9549 376.6562 117.4237 376.1562 117.4237 375.375 C117.4237 374.5625 117.9393 374.0938 118.5799 374.0938 C119.2206 374.0938 119.7362 374.5781 119.7362 375.375 C119.7362 376.1562 119.2049 376.6562 118.5799 376.6562 ZM118.7049 380.875 C117.7362 380.875 117.1424 380.5 117.1424 379.9219 C117.1424 379.5938 117.2987 379.2812 117.6893 379 C117.9237 379.0625 118.1893 379.0938 118.3924 379.0938 L119.3299 379.0938 C120.0487 379.0938 120.4393 379.2656 120.4393 379.7656 C120.4393 380.3281 119.7518 380.875 118.7049 380.875 ZM124.5693 379.125 C125.3037 379.125 125.8974 378.875 126.3662 378.5625 L126.0381 377.9688 C125.6474 378.2344 125.2099 378.4062 124.6787 378.4062 C123.6474 378.4062 122.9443 377.6562 122.8818 376.5 L126.5381 376.5 C126.5537 376.375 126.5849 376.1875 126.5849 375.9844 C126.5849 374.4375 125.8037 373.4375 124.4131 373.4375 C123.1631 373.4375 121.9756 374.5312 121.9756 376.2969 C121.9756 378.0781 123.1318 379.125 124.5693 379.125 ZM122.8662 375.8438 C122.9756 374.7812 123.6631 374.1562 124.4287 374.1562 C125.2724 374.1562 125.7724 374.75 125.7724 375.8438 L122.8662 375.8438 ZM129.3437 379.125 C130.6249 379.125 131.3124 378.4062 131.3124 377.5156 C131.3124 376.4844 130.453 376.1719 129.6562 375.875 C129.0468 375.6406 128.4843 375.4531 128.4843 374.9375 C128.4843 374.5156 128.8124 374.1562 129.4999 374.1562 C129.9843 374.1562 130.3593 374.3438 130.7343 374.625 L131.1718 374.0469 C130.7499 373.7031 130.1562 373.4375 129.4843 373.4375 C128.3124 373.4375 127.6093 374.1094 127.6093 374.9688 C127.6093 375.8906 128.4374 376.2656 129.203 376.5469 C129.7968 376.7656 130.4374 377.0156 130.4374 377.5625 C130.4374 378.0469 130.0937 378.4219 129.3749 378.4219 C128.7187 378.4219 128.2343 378.1562 127.7655 377.7812 L127.3124 378.375 C127.828 378.8125 128.5624 379.125 129.3437 379.125 Z"
    /></g
  ></g
></svg
>
