<?xml version="1.0"?>
<!DOCTYPE svg PUBLIC '-//W3C//DTD SVG 1.0//EN'
          'http://www.w3.org/TR/2001/REC-SVG-20010904/DTD/svg10.dtd'>
<svg xmlns:xlink="http://www.w3.org/1999/xlink" style="fill-opacity:1; color-rendering:auto; color-interpolation:auto; text-rendering:auto; stroke:black; stroke-linecap:square; stroke-miterlimit:10; shape-rendering:auto; stroke-opacity:1; fill:black; stroke-dasharray:none; font-weight:normal; stroke-width:1; font-family:'Dialog'; font-style:normal; stroke-linejoin:miter; font-size:12px; stroke-dashoffset:0; image-rendering:auto;" viewBox="0 0 290 82" xmlns="http://www.w3.org/2000/svg"
><!--Generated by the Batik Graphics2D SVG Generator--><defs id="genericDefs"
  /><g
  ><defs id="defs1"
    ><clipPath clipPathUnits="userSpaceOnUse" id="clipPath1"
      ><path d="M208 41 C208 47.0751 203.0751 52 197 52 C190.9249 52 186 47.0751 186 41 C186 34.9249 190.9249 30 197 30 C203.0751 30 208 34.9249 208 41 Z"
      /></clipPath
      ><clipPath clipPathUnits="userSpaceOnUse" id="clipPath2"
      ><path d="M134 30 L156 30 L156 52 L134 52 L134 30 Z"
      /></clipPath
      ><clipPath clipPathUnits="userSpaceOnUse" id="clipPath3"
      ><path d="M104 41 C104 47.0751 99.0751 52 93 52 C86.9249 52 82 47.0751 82 41 C82 34.9249 86.9249 30 93 30 C99.0751 30 104 34.9249 104 41 Z"
      /></clipPath
      ><clipPath clipPathUnits="userSpaceOnUse" id="clipPath4"
      ><path d="M52 41 C52 47.0751 47.0751 52 41 52 C34.9249 52 30 47.0751 30 41 C30 34.9249 34.9249 30 41 30 C47.0751 30 52 34.9249 52 41 Z"
      /></clipPath
    ></defs
    ><g style="fill:white; text-rendering:optimizeSpeed; stroke:white;"
    ><rect x="0" width="290" height="82" y="0" style="stroke:none;"
      /><polygon style="fill:none; stroke:black;" points=" 249 41 197 41"
      /><path d="M249 30 C243.5 35.5 254.5 46.5 249 52" style="fill:none; stroke:black;"
      /><polygon style="fill:none; stroke:black;" points=" 197 41 145 41"
      /><circle style="clip-path:url(#clipPath1); stroke:none;" r="11" cx="197" cy="41"
      /><rect x="186" y="30" width="22" style="clip-path:url(#clipPath1); fill:rgb(255,212,0); stroke:none;" height="22"
      /><rect x="186" y="30" width="22" style="clip-path:url(#clipPath1); fill:none; stroke:black;" height="22"
      /><circle style="fill:none; stroke:black;" r="11" cx="197" cy="41"
      /><polygon style="fill:none; stroke:black;" points=" 145 41 93 41"
      /><rect x="134" y="30" width="22" style="clip-path:url(#clipPath2); stroke:none;" height="22"
      /><rect x="134" y="30" width="22" style="clip-path:url(#clipPath2); fill:rgb(0,144,188); stroke:none;" height="22"
      /><rect x="134" y="30" width="22" style="clip-path:url(#clipPath2); fill:none; stroke:black;" height="22"
      /><rect x="134" y="30" width="22" style="fill:none; stroke:black;" height="22"
      /><polygon style="fill:none; stroke:black;" points=" 93 41 41 41"
      /><circle style="clip-path:url(#clipPath3); stroke:none;" r="11" cx="93" cy="41"
      /><rect x="82" y="30" width="22" style="clip-path:url(#clipPath3); fill:rgb(255,212,0); stroke:none;" height="22"
      /><rect x="82" y="30" width="22" style="clip-path:url(#clipPath3); fill:none; stroke:black;" height="22"
      /><circle style="fill:none; stroke:black;" r="11" cx="93" cy="41"
      /><circle style="clip-path:url(#clipPath4); stroke:none;" r="11" cx="41" cy="41"
      /><rect x="30" y="30" width="22" style="clip-path:url(#clipPath4); fill:rgb(255,212,0); stroke:none;" height="22"
      /><rect x="30" y="30" width="22" style="clip-path:url(#clipPath4); fill:none; stroke:black;" height="22"
      /><circle style="fill:none; stroke:black;" r="11" cx="41" cy="41"
      /><rect x="71" y="44" width="6" style="stroke:none;" height="10"
    /></g
    ><g style="font-family:'Serif'; text-rendering:optimizeSpeed; "
    ><path style="stroke:none;" d="M73.2344 45.6562 C73.5156 45.5938 73.7656 45.5625 74.0156 45.5625 C75.0625 45.5625 75.6719 46.1719 75.6719 47.2656 C75.6719 48.4375 74.9062 49.1094 73.7031 49.1094 L73.1875 49.1094 L73.1875 49.6406 L73.7969 49.6406 C75.2188 49.6406 75.9062 50.4219 75.9062 51.6406 C75.9062 52.8438 75.1719 53.6875 73.875 53.6875 C73.6094 53.6875 73.3125 53.6562 73.0156 53.5625 L72.7812 52.8125 C72.625 52.2812 72.5 52.0469 72.1406 52.0469 C71.8906 52.0469 71.7031 52.1719 71.5781 52.4219 C71.8438 53.6406 72.7812 54.1719 74.0312 54.1719 C75.7188 54.1719 76.875 53.125 76.875 51.7031 C76.875 50.5 76.2031 49.625 74.7969 49.375 C75.9531 49.0156 76.6094 48.2031 76.6094 47.2031 C76.6094 45.9219 75.6719 45.0781 74.1875 45.0781 C73.0469 45.0781 72.0625 45.5938 71.7969 46.6875 C71.9062 47 72.1094 47.1094 72.3594 47.1094 C72.7344 47.1094 72.8906 46.8906 73 46.4062 L73.2344 45.6562 Z"
      /><rect x="57" y="42" width="6" style="fill:white; stroke:none;" height="13"
      /><path style="stroke:none;" d="M59.0938 48.2031 C59.0938 46.6562 59.75 45.8125 60.7969 45.8125 C61.7188 45.8125 62.2656 46.4531 62.2656 47.5156 C62.2656 48.7188 61.5 49.4375 60.1875 49.7031 L60.2969 50.3125 C62.2188 50.2344 62.9375 51.2188 62.9375 52.4375 C62.9375 53.625 62.2344 54.4219 60.9531 54.4219 C60.25 54.4219 59.6562 54.1562 59.0938 53.7188 L59.0938 48.2031 ZM58.2031 54.9062 L58.1094 57.375 L58.2656 57.4844 L59.1562 57.2656 L59.0156 54.0938 C59.5469 54.8438 60.3594 55.1719 61.1719 55.1719 C62.5625 55.1719 63.8594 54.2188 63.8594 52.4844 C63.8594 50.9531 62.875 50.1094 61.125 50 C62.5625 49.6094 63.1875 48.4531 63.1875 47.4844 C63.1875 46.0938 62.1562 45.3125 60.9062 45.3125 C59.2969 45.3125 58.2188 46.5469 58.2188 48.5156 L58.2031 54.9062 Z"
      /><rect x="122" y="44" width="7" style="fill:white; stroke:none;" height="9"
      /><path style="stroke:none;" d="M123 49.5156 L125.9531 45.2656 L125.9531 49.5156 L123 49.5156 ZM128.2812 49.5156 L126.8594 49.5156 L126.8594 44.125 L126.2344 44.125 L122.3438 49.6406 L122.3438 50.1875 L125.9531 50.1875 L125.9531 53 L126.8594 53 L126.8594 50.1875 L128.2812 50.1875 L128.2812 49.5156 Z"
      /><rect x="109" y="42" width="6" style="fill:white; stroke:none;" height="13"
      /><path style="stroke:none;" d="M111.0938 48.2031 C111.0938 46.6562 111.75 45.8125 112.7969 45.8125 C113.7188 45.8125 114.2656 46.4531 114.2656 47.5156 C114.2656 48.7188 113.5 49.4375 112.1875 49.7031 L112.2969 50.3125 C114.2188 50.2344 114.9375 51.2188 114.9375 52.4375 C114.9375 53.625 114.2344 54.4219 112.9531 54.4219 C112.25 54.4219 111.6562 54.1562 111.0938 53.7188 L111.0938 48.2031 ZM110.2031 54.9062 L110.1094 57.375 L110.2656 57.4844 L111.1562 57.2656 L111.0156 54.0938 C111.5469 54.8438 112.3594 55.1719 113.1719 55.1719 C114.5625 55.1719 115.8594 54.2188 115.8594 52.4844 C115.8594 50.9531 114.875 50.1094 113.125 50 C114.5625 49.6094 115.1875 48.4531 115.1875 47.4844 C115.1875 46.0938 114.1562 45.3125 112.9062 45.3125 C111.2969 45.3125 110.2188 46.5469 110.2188 48.5156 L110.2031 54.9062 Z"
      /><rect x="175" y="44" width="6" style="fill:white; stroke:none;" height="10"
      /><path style="stroke:none;" d="M177.2344 45.6562 C177.5156 45.5938 177.7656 45.5625 178.0156 45.5625 C179.0625 45.5625 179.6719 46.1719 179.6719 47.2656 C179.6719 48.4375 178.9062 49.1094 177.7031 49.1094 L177.1875 49.1094 L177.1875 49.6406 L177.7969 49.6406 C179.2188 49.6406 179.9062 50.4219 179.9062 51.6406 C179.9062 52.8438 179.1719 53.6875 177.875 53.6875 C177.6094 53.6875 177.3125 53.6562 177.0156 53.5625 L176.7812 52.8125 C176.625 52.2812 176.5 52.0469 176.1406 52.0469 C175.8906 52.0469 175.7031 52.1719 175.5781 52.4219 C175.8438 53.6406 176.7812 54.1719 178.0312 54.1719 C179.7188 54.1719 180.875 53.125 180.875 51.7031 C180.875 50.5 180.2031 49.625 178.7969 49.375 C179.9531 49.0156 180.6094 48.2031 180.6094 47.2031 C180.6094 45.9219 179.6719 45.0781 178.1875 45.0781 C177.0469 45.0781 176.0625 45.5938 175.7969 46.6875 C175.9062 47 176.1094 47.1094 176.3594 47.1094 C176.7344 47.1094 176.8906 46.8906 177 46.4062 L177.2344 45.6562 Z"
      /><rect x="161" y="42" width="6" style="fill:white; stroke:none;" height="13"
      /><path style="stroke:none;" d="M163.0938 48.2031 C163.0938 46.6562 163.75 45.8125 164.7969 45.8125 C165.7188 45.8125 166.2656 46.4531 166.2656 47.5156 C166.2656 48.7188 165.5 49.4375 164.1875 49.7031 L164.2969 50.3125 C166.2188 50.2344 166.9375 51.2188 166.9375 52.4375 C166.9375 53.625 166.2344 54.4219 164.9531 54.4219 C164.25 54.4219 163.6562 54.1562 163.0938 53.7188 L163.0938 48.2031 ZM162.2031 54.9062 L162.1094 57.375 L162.2656 57.4844 L163.1562 57.2656 L163.0156 54.0938 C163.5469 54.8438 164.3594 55.1719 165.1719 55.1719 C166.5625 55.1719 167.8594 54.2188 167.8594 52.4844 C167.8594 50.9531 166.875 50.1094 165.125 50 C166.5625 49.6094 167.1875 48.4531 167.1875 47.4844 C167.1875 46.0938 166.1562 45.3125 164.9062 45.3125 C163.2969 45.3125 162.2188 46.5469 162.2188 48.5156 L162.2031 54.9062 Z"
      /><rect x="213" y="44" width="5" style="fill:white; stroke:none;" height="10"
      /><path style="stroke:none;" d="M214.8906 52.6875 C214.4844 52.6875 214.1562 53.0469 214.1562 53.4219 C214.1562 53.8125 214.4844 54.1562 214.8906 54.1562 C215.2969 54.1562 215.6406 53.8125 215.6406 53.4219 C215.6406 53.0469 215.2969 52.6875 214.8906 52.6875 ZM216.4688 46.5781 C216.7188 46.8906 216.875 47.2656 216.8906 47.6562 C216.8906 48.1875 216.625 48.5 216.0312 48.7656 L215.4062 49.0156 C214.6406 49.3125 214.3906 49.5469 214.3906 49.9375 C214.3906 50.1094 214.4531 50.3438 214.5781 50.8125 L214.7344 51.3438 L215.1094 51.3438 L215.0938 50.5312 C215.0938 50.0938 215.2031 49.9688 215.7812 49.7344 L216.2031 49.5625 C217.0312 49.2188 217.4531 48.6875 217.4531 47.8438 C217.4531 46.1562 215.6562 45.1875 214.5 45.0312 C214.1094 45.125 213.9062 45.2969 213.9062 45.6406 C213.9062 45.9375 214.0625 46.1562 214.7188 46.2656 L216.4688 46.5781 Z"
    /></g
  ></g
></svg
>
