<?xml version="1.0"?>
<!DOCTYPE svg PUBLIC '-//W3C//DTD SVG 1.0//EN'
          'http://www.w3.org/TR/2001/REC-SVG-20010904/DTD/svg10.dtd'>
<svg xmlns:xlink="http://www.w3.org/1999/xlink" style="fill-opacity:1; color-rendering:auto; color-interpolation:auto; text-rendering:auto; stroke:black; stroke-linecap:square; stroke-miterlimit:10; shape-rendering:auto; stroke-opacity:1; fill:black; stroke-dasharray:none; font-weight:normal; stroke-width:1; font-family:'Dialog'; font-style:normal; stroke-linejoin:miter; font-size:12px; stroke-dashoffset:0; image-rendering:auto;" viewBox="0 0 302 160" xmlns="http://www.w3.org/2000/svg"
><!--Generated by the Batik Graphics2D SVG Generator--><defs id="genericDefs"
  /><g
  ><defs id="defs1"
    ><clipPath clipPathUnits="userSpaceOnUse" id="clipPath1"
      ><path style="fill-rule:evenodd;" d="M209 82 L220 93 L209 104 L198 93 Z"
      /></clipPath
      ><clipPath clipPathUnits="userSpaceOnUse" id="clipPath2"
      ><path style="fill-rule:evenodd;" d="M157 108 L167 115 L163 127 L150 127 L146 115 L157 108 Z"
      /></clipPath
      ><clipPath clipPathUnits="userSpaceOnUse" id="clipPath3"
      ><path style="fill-rule:evenodd;" d="M168 67 L162 74 L151 74 L146 67 L151 59 L162 59 L168 67 Z"
      /></clipPath
      ><clipPath clipPathUnits="userSpaceOnUse" id="clipPath4"
      ><path style="fill-rule:evenodd;" d="M116 93 L110 100 L99 100 L94 93 L99 85 L110 85 L116 93 Z"
      /></clipPath
      ><clipPath clipPathUnits="userSpaceOnUse" id="clipPath5"
      ><path d="M36 108 L58 108 L58 130 L36 130 L36 108 Z"
      /></clipPath
      ><clipPath clipPathUnits="userSpaceOnUse" id="clipPath6"
      ><path style="fill-rule:evenodd;" d="M58 67 L52 74 L41 74 L36 67 L41 59 L52 59 L58 67 Z"
      /></clipPath
      ><clipPath clipPathUnits="userSpaceOnUse" id="clipPath7"
      ><path d="M116 41 C116 47.0751 111.0751 52 105 52 C98.9249 52 94 47.0751 94 41 C94 34.9249 98.9249 30 105 30 C111.0751 30 116 34.9249 116 41 Z"
      /></clipPath
    ></defs
    ><g style="fill:white; text-rendering:optimizeSpeed; stroke:white;"
    ><rect x="0" width="302" height="160" y="0" style="stroke:none;"
      /><polygon style="fill:none; stroke:black;" points=" 261 93 209 93"
      /><path d="M261 82 C255.5 87.5 266.5 98.5 261 104" style="fill:none; stroke:black;"
      /><polygon style="fill:none; stroke:black;" points=" 209 93 157 119"
      /><polygon style="fill:none; stroke:black;" points=" 209 93 157 67"
      /><polygon style="clip-path:url(#clipPath1); stroke:none;" points=" 209 82 220 93 209 104 198 93"
      /><rect x="198" y="82" width="22" style="clip-path:url(#clipPath1); fill:rgb(0,166,81); stroke:none;" height="22"
      /><rect x="198" y="82" width="22" style="clip-path:url(#clipPath1); fill:none; stroke:black;" height="22"
      /><polygon style="fill:none; stroke:black;" points=" 209 82 220 93 209 104 198 93"
    /></g
    ><g style="text-rendering:optimizeSpeed; font-size:14px; font-family:'SansSerif';"
    ><path style="stroke:none;" d="M201.6094 121 L208.0625 121 L208.0625 119.8906 L205.2344 119.8906 C204.7031 119.8906 204.0781 119.9531 203.5469 119.9844 C205.9531 117.7031 207.5625 115.625 207.5625 113.5781 C207.5625 111.75 206.4219 110.5469 204.5781 110.5469 C203.2812 110.5469 202.4062 111.1406 201.5625 112.0469 L202.2969 112.7812 C202.8594 112.1094 203.5938 111.5938 204.4375 111.5938 C205.7031 111.5938 206.3125 112.4531 206.3125 113.625 C206.3125 115.3906 204.8438 117.4375 201.6094 120.25 L201.6094 121 ZM213.8168 121.1875 C215.9106 121.1875 217.5043 120.0625 217.5043 116.7656 L217.5043 110.7188 L216.2543 110.7188 L216.2543 116.7969 C216.2543 119.2812 215.1762 120.0469 213.8168 120.0469 C212.4731 120.0469 211.4262 119.2812 211.4262 116.7969 L211.4262 110.7188 L210.1293 110.7188 L210.1293 116.7656 C210.1293 120.0625 211.7231 121.1875 213.8168 121.1875 Z"
    /></g
    ><g style="fill:white; text-rendering:optimizeSpeed; stroke:white;"
    ><polygon style="stroke:none; clip-path:url(#clipPath2);" points=" 157 108 167 115 163 127 150 127 146 115 157 108"
      /><rect x="146" y="108" width="22" style="clip-path:url(#clipPath2); stroke:none;" height="22"
      /><rect x="146" y="108" width="22" style="clip-path:url(#clipPath2); fill:none; stroke:black;" height="22"
      /><polygon style="fill:none; stroke:black;" points=" 157 108 167 115 163 127 150 127 146 115 157 108"
    /></g
    ><g style="text-rendering:optimizeSpeed; font-size:14px; font-family:'SansSerif';"
    ><path style="stroke:none;" d="M155.2344 124 L160.8594 124 L160.8594 122.9375 L158.7969 122.9375 L158.7969 113.7188 L157.8281 113.7188 C157.2656 114.0625 156.6094 114.2969 155.6875 114.4688 L155.6875 115.2812 L157.5156 115.2812 L157.5156 122.9375 L155.2344 122.9375 L155.2344 124 Z"
      /><polygon style="fill:none;" points=" 157 67 105 93"
      /><polygon style="fill:none;" points=" 157 67 105 41"
    /></g
    ><g style="fill:white; text-rendering:optimizeSpeed; stroke:white;"
    ><polygon style="stroke:none; clip-path:url(#clipPath3);" points=" 168 67 162 74 151 74 146 67 151 59 162 59 168 67"
      /><rect x="146" y="56" width="22" style="clip-path:url(#clipPath3); fill:rgb(0,166,81); stroke:none;" height="22"
      /><rect x="146" y="56" width="22" style="clip-path:url(#clipPath3); fill:none; stroke:black;" height="22"
      /><polygon style="fill:none; stroke:black;" points=" 168 67 162 74 151 74 146 67 151 59 162 59 168 67"
      /><polygon style="fill:none; stroke:black;" points=" 105 93 47 119"
      /><polygon style="fill:none; stroke:black;" points=" 105 93 47 67"
      /><polygon style="clip-path:url(#clipPath4); stroke:none;" points=" 116 93 110 100 99 100 94 93 99 85 110 85 116 93"
      /><rect x="94" y="82" width="22" style="clip-path:url(#clipPath4); fill:rgb(0,166,81); stroke:none;" height="22"
      /><rect x="94" y="82" width="22" style="clip-path:url(#clipPath4); fill:none; stroke:black;" height="22"
      /><polygon style="fill:none; stroke:black;" points=" 116 93 110 100 99 100 94 93 99 85 110 85 116 93"
      /><rect x="36" y="108" width="22" style="clip-path:url(#clipPath5); stroke:none;" height="22"
      /><rect x="36" y="108" width="22" style="clip-path:url(#clipPath5); fill:rgb(0,144,188); stroke:none;" height="22"
      /><rect x="36" y="108" width="22" style="clip-path:url(#clipPath5); fill:none; stroke:black;" height="22"
      /><rect x="36" y="108" width="22" style="fill:none; stroke:black;" height="22"
      /><polygon style="clip-path:url(#clipPath6); stroke:none;" points=" 58 67 52 74 41 74 36 67 41 59 52 59 58 67"
      /><rect x="36" y="56" width="22" style="clip-path:url(#clipPath6); fill:rgb(0,166,81); stroke:none;" height="22"
      /><rect x="36" y="56" width="22" style="clip-path:url(#clipPath6); fill:none; stroke:black;" height="22"
      /><polygon style="fill:none; stroke:black;" points=" 58 67 52 74 41 74 36 67 41 59 52 59 58 67"
    /></g
    ><g style="text-rendering:optimizeSpeed; font-size:11px; font-family:'SansSerif';"
    ><path style="stroke:none;" d="M36.1719 49 L37.2188 49 C37.3438 45.8438 37.7031 43.9688 39.5938 41.5469 L39.5938 40.9219 L34.5312 40.9219 L34.5312 41.7969 L38.4375 41.7969 C36.875 44 36.3125 45.9375 36.1719 49 ZM41.1987 49 L42.2299 49 L42.2299 45.1875 L45.9956 45.1875 L45.9956 49 L46.9956 49 L46.9956 40.9219 L45.9956 40.9219 L45.9956 44.3125 L42.2299 44.3125 L42.2299 40.9219 L41.1987 40.9219 L41.1987 49 ZM51.5348 49.1406 C52.3473 49.1406 52.9879 48.875 53.5191 48.5312 L53.1441 47.8594 C52.7066 48.1562 52.2379 48.3438 51.6598 48.3438 C50.5191 48.3438 49.7379 47.5312 49.6754 46.25 L53.7066 46.25 C53.7223 46.1094 53.7379 45.8906 53.7379 45.6719 C53.7379 43.9688 52.8941 42.875 51.3629 42.875 C49.9879 42.875 48.6754 44.0781 48.6754 46.0156 C48.6754 47.9844 49.9566 49.1406 51.5348 49.1406 ZM49.6598 45.5312 C49.7848 44.3594 50.5348 43.6719 51.3785 43.6719 C52.316 43.6719 52.8629 44.3281 52.8629 45.5312 L49.6598 45.5312 ZM55.2225 51.5156 L56.2225 51.5156 L56.2225 49.5 L56.1912 48.4531 C56.7381 48.8906 57.3162 49.1406 57.8475 49.1406 C59.2225 49.1406 60.4412 47.9688 60.4412 45.9219 C60.4412 44.0781 59.6131 42.875 58.0662 42.875 C57.3787 42.875 56.7068 43.2656 56.16 43.7031 L56.1287 43.7031 L56.0506 43.0312 L55.2225 43.0312 L55.2225 51.5156 ZM57.6756 48.3125 C57.285 48.3125 56.7537 48.1406 56.2225 47.6875 L56.2225 44.5469 C56.8006 44 57.3162 43.7188 57.8318 43.7188 C58.9568 43.7188 59.3943 44.6094 59.3943 45.9375 C59.3943 47.4219 58.6756 48.3125 57.6756 48.3125 Z"
    /></g
    ><g style="fill:white; text-rendering:optimizeSpeed; font-family:'Serif'; stroke:white;"
    ><rect x="86" width="6" height="10" y="103" style="stroke:none;"
      /><path d="M88.2344 104.6562 C88.5156 104.5938 88.7656 104.5625 89.0156 104.5625 C90.0625 104.5625 90.6719 105.1719 90.6719 106.2656 C90.6719 107.4375 89.9062 108.1094 88.7031 108.1094 L88.1875 108.1094 L88.1875 108.6406 L88.7969 108.6406 C90.2188 108.6406 90.9062 109.4219 90.9062 110.6406 C90.9062 111.8438 90.1719 112.6875 88.875 112.6875 C88.6094 112.6875 88.3125 112.6562 88.0156 112.5625 L87.7812 111.8125 C87.625 111.2812 87.5 111.0469 87.1406 111.0469 C86.8906 111.0469 86.7031 111.1719 86.5781 111.4219 C86.8438 112.6406 87.7812 113.1719 89.0312 113.1719 C90.7188 113.1719 91.875 112.125 91.875 110.7031 C91.875 109.5 91.2031 108.625 89.7969 108.375 C90.9531 108.0156 91.6094 107.2031 91.6094 106.2031 C91.6094 104.9219 90.6719 104.0781 89.1875 104.0781 C88.0469 104.0781 87.0625 104.5938 86.7969 105.6875 C86.9062 106 87.1094 106.1094 87.3594 106.1094 C87.7344 106.1094 87.8906 105.8906 88 105.4062 L88.2344 104.6562 Z" style="fill:black; stroke:none;"
      /><rect x="66" width="5" height="10" y="113" style="stroke:none;"
      /><path d="M67.8906 121.6875 C67.4844 121.6875 67.1562 122.0469 67.1562 122.4219 C67.1562 122.8125 67.4844 123.1562 67.8906 123.1562 C68.2969 123.1562 68.6406 122.8125 68.6406 122.4219 C68.6406 122.0469 68.2969 121.6875 67.8906 121.6875 ZM69.4688 115.5781 C69.7188 115.8906 69.875 116.2656 69.8906 116.6562 C69.8906 117.1875 69.625 117.5 69.0312 117.7656 L68.4062 118.0156 C67.6406 118.3125 67.3906 118.5469 67.3906 118.9375 C67.3906 119.1094 67.4531 119.3438 67.5781 119.8125 L67.7344 120.3438 L68.1094 120.3438 L68.0938 119.5312 C68.0938 119.0938 68.2031 118.9688 68.7812 118.7344 L69.2031 118.5625 C70.0312 118.2188 70.4531 117.6875 70.4531 116.8438 C70.4531 115.1562 68.6562 114.1875 67.5 114.0312 C67.1094 114.125 66.9062 114.2969 66.9062 114.6406 C66.9062 114.9375 67.0625 115.1562 67.7188 115.2656 L69.4688 115.5781 Z" style="fill:black; stroke:none;"
      /><rect x="80" width="6" height="9" y="87" style="stroke:none;"
      /><path d="M80.6406 87.25 L80.6406 88.1406 L85.2031 88.1406 L81.7812 95.875 L81.8906 96 L82.75 96 L85.875 87.7969 L85.875 87.25 L80.6406 87.25 Z" style="fill:black; stroke:none;"
      /><rect x="65" width="5" height="10" y="80" style="stroke:none;"
      /><path d="M66.8906 88.6875 C66.4844 88.6875 66.1562 89.0469 66.1562 89.4219 C66.1562 89.8125 66.4844 90.1562 66.8906 90.1562 C67.2969 90.1562 67.6406 89.8125 67.6406 89.4219 C67.6406 89.0469 67.2969 88.6875 66.8906 88.6875 ZM68.4688 82.5781 C68.7188 82.8906 68.875 83.2656 68.8906 83.6562 C68.8906 84.1875 68.625 84.5 68.0312 84.7656 L67.4062 85.0156 C66.6406 85.3125 66.3906 85.5469 66.3906 85.9375 C66.3906 86.1094 66.4531 86.3438 66.5781 86.8125 L66.7344 87.3438 L67.1094 87.3438 L67.0938 86.5312 C67.0938 86.0938 67.2031 85.9688 67.7812 85.7344 L68.2031 85.5625 C69.0312 85.2188 69.4531 84.6875 69.4531 83.8438 C69.4531 82.1562 67.6562 81.1875 66.5 81.0312 C66.1094 81.125 65.9062 81.2969 65.9062 81.6406 C65.9062 81.9375 66.0625 82.1562 66.7188 82.2656 L68.4688 82.5781 Z" style="fill:black; stroke:none;"
      /><circle r="11" style="clip-path:url(#clipPath7); stroke:none;" cx="105" cy="41"
      /><rect x="94" y="30" width="22" style="clip-path:url(#clipPath7); fill:rgb(0,144,188); stroke:none;" height="22"
      /><rect x="94" y="30" width="22" style="clip-path:url(#clipPath7); fill:none; stroke:black;" height="22"
      /><circle r="11" style="fill:none; stroke:black;" cx="105" cy="41"
      /><rect x="139" width="6" height="10" y="78" style="stroke:none;"
      /><path d="M141.2344 79.6562 C141.5156 79.5938 141.7656 79.5625 142.0156 79.5625 C143.0625 79.5625 143.6719 80.1719 143.6719 81.2656 C143.6719 82.4375 142.9062 83.1094 141.7031 83.1094 L141.1875 83.1094 L141.1875 83.6406 L141.7969 83.6406 C143.2188 83.6406 143.9062 84.4219 143.9062 85.6406 C143.9062 86.8438 143.1719 87.6875 141.875 87.6875 C141.6094 87.6875 141.3125 87.6562 141.0156 87.5625 L140.7812 86.8125 C140.625 86.2812 140.5 86.0469 140.1406 86.0469 C139.8906 86.0469 139.7031 86.1719 139.5781 86.4219 C139.8438 87.6406 140.7812 88.1719 142.0312 88.1719 C143.7188 88.1719 144.875 87.125 144.875 85.7031 C144.875 84.5 144.2031 83.625 142.7969 83.375 C143.9531 83.0156 144.6094 82.2031 144.6094 81.2031 C144.6094 79.9219 143.6719 79.0781 142.1875 79.0781 C141.0469 79.0781 140.0625 79.5938 139.7969 80.6875 C139.9062 81 140.1094 81.1094 140.3594 81.1094 C140.7344 81.1094 140.8906 80.8906 141 80.4062 L141.2344 79.6562 Z" style="fill:black; stroke:none;"
      /><rect x="124" width="5" height="10" y="86" style="stroke:none;"
      /><path d="M125.8906 94.6875 C125.4844 94.6875 125.1562 95.0469 125.1562 95.4219 C125.1562 95.8125 125.4844 96.1562 125.8906 96.1562 C126.2969 96.1562 126.6406 95.8125 126.6406 95.4219 C126.6406 95.0469 126.2969 94.6875 125.8906 94.6875 ZM127.4688 88.5781 C127.7188 88.8906 127.875 89.2656 127.8906 89.6562 C127.8906 90.1875 127.625 90.5 127.0312 90.7656 L126.4062 91.0156 C125.6406 91.3125 125.3906 91.5469 125.3906 91.9375 C125.3906 92.1094 125.4531 92.3438 125.5781 92.8125 L125.7344 93.3438 L126.1094 93.3438 L126.0938 92.5312 C126.0938 92.0938 126.2031 91.9688 126.7812 91.7344 L127.2031 91.5625 C128.0312 91.2188 128.4531 90.6875 128.4531 89.8438 C128.4531 88.1562 126.6562 87.1875 125.5 87.0312 C125.1094 87.125 124.9062 87.2969 124.9062 87.6406 C124.9062 87.9375 125.0625 88.1562 125.7188 88.2656 L127.4688 88.5781 Z" style="fill:black; stroke:none;"
      /><rect x="132" width="6" height="9" y="60" style="stroke:none;"
      /><path d="M132.6406 60.25 L132.6406 61.1406 L137.2031 61.1406 L133.7812 68.875 L133.8906 69 L134.75 69 L137.875 60.7969 L137.875 60.25 L132.6406 60.25 Z" style="fill:black; stroke:none;"
      /><rect x="117" width="5" height="10" y="52" style="stroke:none;"
      /><path d="M118.8906 60.6875 C118.4844 60.6875 118.1562 61.0469 118.1562 61.4219 C118.1562 61.8125 118.4844 62.1562 118.8906 62.1562 C119.2969 62.1562 119.6406 61.8125 119.6406 61.4219 C119.6406 61.0469 119.2969 60.6875 118.8906 60.6875 ZM120.4688 54.5781 C120.7188 54.8906 120.875 55.2656 120.8906 55.6562 C120.8906 56.1875 120.625 56.5 120.0312 56.7656 L119.4062 57.0156 C118.6406 57.3125 118.3906 57.5469 118.3906 57.9375 C118.3906 58.1094 118.4531 58.3438 118.5781 58.8125 L118.7344 59.3438 L119.1094 59.3438 L119.0938 58.5312 C119.0938 58.0938 119.2031 57.9688 119.7812 57.7344 L120.2031 57.5625 C121.0312 57.2188 121.4531 56.6875 121.4531 55.8438 C121.4531 54.1562 119.6562 53.1875 118.5 53.0312 C118.1094 53.125 117.9062 53.2969 117.9062 53.6406 C117.9062 53.9375 118.0625 54.1562 118.7188 54.2656 L120.4688 54.5781 Z" style="fill:black; stroke:none;"
      /><rect x="190" width="7" height="9" y="104" style="stroke:none;"
      /><path d="M191 109.5156 L193.9531 105.2656 L193.9531 109.5156 L191 109.5156 ZM196.2812 109.5156 L194.8594 109.5156 L194.8594 104.125 L194.2344 104.125 L190.3438 109.6406 L190.3438 110.1875 L193.9531 110.1875 L193.9531 113 L194.8594 113 L194.8594 110.1875 L196.2812 110.1875 L196.2812 109.5156 Z" style="fill:black; stroke:none;"
      /><rect x="176" width="5" height="10" y="112" style="stroke:none;"
      /><path d="M177.8906 120.6875 C177.4844 120.6875 177.1562 121.0469 177.1562 121.4219 C177.1562 121.8125 177.4844 122.1562 177.8906 122.1562 C178.2969 122.1562 178.6406 121.8125 178.6406 121.4219 C178.6406 121.0469 178.2969 120.6875 177.8906 120.6875 ZM179.4688 114.5781 C179.7188 114.8906 179.875 115.2656 179.8906 115.6562 C179.8906 116.1875 179.625 116.5 179.0312 116.7656 L178.4062 117.0156 C177.6406 117.3125 177.3906 117.5469 177.3906 117.9375 C177.3906 118.1094 177.4531 118.3438 177.5781 118.8125 L177.7344 119.3438 L178.1094 119.3438 L178.0938 118.5312 C178.0938 118.0938 178.2031 117.9688 178.7812 117.7344 L179.2031 117.5625 C180.0312 117.2188 180.4531 116.6875 180.4531 115.8438 C180.4531 114.1562 178.6562 113.1875 177.5 113.0312 C177.1094 113.125 176.9062 113.2969 176.9062 113.6406 C176.9062 113.9375 177.0625 114.1562 177.7188 114.2656 L179.4688 114.5781 Z" style="fill:black; stroke:none;"
      /><rect x="184" width="6" height="10" y="86" style="stroke:none;"
      /><path d="M185.9219 88.1406 L189.6562 88.1406 L189.6562 87.25 L185.4531 87.25 L185.1719 91.3125 L185.5156 91.3906 C185.9219 91.25 186.3906 91.1875 186.8125 91.1875 C188.0781 91.1875 188.9219 91.9531 188.9219 93.3906 C188.9219 94.7812 188.1719 95.6875 186.8281 95.6875 C186.5156 95.6875 186.2344 95.6406 185.9375 95.5625 L185.6875 94.7812 C185.5312 94.2188 185.3906 94.0469 185.0625 94.0469 C184.7969 94.0469 184.5938 94.1719 184.4844 94.4375 C184.7656 95.5938 185.625 96.1719 186.8906 96.1719 C188.7031 96.1719 189.875 94.9844 189.875 93.2812 C189.875 91.5312 188.75 90.5469 187.0938 90.5469 C186.6094 90.5469 186.1719 90.625 185.7344 90.7656 L185.9219 88.1406 Z" style="fill:black; stroke:none;"
      /><rect x="169" width="5" height="10" y="78" style="stroke:none;"
      /><path d="M170.8906 86.6875 C170.4844 86.6875 170.1562 87.0469 170.1562 87.4219 C170.1562 87.8125 170.4844 88.1562 170.8906 88.1562 C171.2969 88.1562 171.6406 87.8125 171.6406 87.4219 C171.6406 87.0469 171.2969 86.6875 170.8906 86.6875 ZM172.4688 80.5781 C172.7188 80.8906 172.875 81.2656 172.8906 81.6562 C172.8906 82.1875 172.625 82.5 172.0312 82.7656 L171.4062 83.0156 C170.6406 83.3125 170.3906 83.5469 170.3906 83.9375 C170.3906 84.1094 170.4531 84.3438 170.5781 84.8125 L170.7344 85.3438 L171.1094 85.3438 L171.0938 84.5312 C171.0938 84.0938 171.2031 83.9688 171.7812 83.7344 L172.2031 83.5625 C173.0312 83.2188 173.4531 82.6875 173.4531 81.8438 C173.4531 80.1562 171.6562 79.1875 170.5 79.0312 C170.1094 79.125 169.9062 79.2969 169.9062 79.6406 C169.9062 79.9375 170.0625 80.1562 170.7188 80.2656 L172.4688 80.5781 Z" style="fill:black; stroke:none;"
      /><rect x="225" width="5" height="10" y="96" style="stroke:none;"
      /><path d="M226.8906 104.6875 C226.4844 104.6875 226.1562 105.0469 226.1562 105.4219 C226.1562 105.8125 226.4844 106.1562 226.8906 106.1562 C227.2969 106.1562 227.6406 105.8125 227.6406 105.4219 C227.6406 105.0469 227.2969 104.6875 226.8906 104.6875 ZM228.4688 98.5781 C228.7188 98.8906 228.875 99.2656 228.8906 99.6562 C228.8906 100.1875 228.625 100.5 228.0312 100.7656 L227.4062 101.0156 C226.6406 101.3125 226.3906 101.5469 226.3906 101.9375 C226.3906 102.1094 226.4531 102.3438 226.5781 102.8125 L226.7344 103.3438 L227.1094 103.3438 L227.0938 102.5312 C227.0938 102.0938 227.2031 101.9688 227.7812 101.7344 L228.2031 101.5625 C229.0312 101.2188 229.4531 100.6875 229.4531 99.8438 C229.4531 98.1562 227.6562 97.1875 226.5 97.0312 C226.1094 97.125 225.9062 97.2969 225.9062 97.6406 C225.9062 97.9375 226.0625 98.1562 226.7188 98.2656 L228.4688 98.5781 Z" style="fill:black; stroke:none;"
    /></g
    ><g ID="legend-1:0" style="text-rendering:optimizeSpeed; font-size:10px; font-family:'SansSerif';"
    ><path style="stroke:none;" d="M30.875 145 L34.9062 145 L34.9062 144.2344 L33.4375 144.2344 L33.4375 137.6562 L32.7344 137.6562 C32.3281 137.9062 31.8594 138.0625 31.2031 138.1875 L31.2031 138.7656 L32.5156 138.7656 L32.5156 144.2344 L30.875 144.2344 L30.875 145 ZM35.925 140.4531 L40.7219 140.4531 L40.7219 139.7656 L35.925 139.7656 L35.925 140.4531 ZM35.925 142.8438 L40.7219 142.8438 L40.7219 142.1719 L35.925 142.1719 L35.925 142.8438 ZM42.1 145 L43.975 145 C46.1937 145 47.3969 143.625 47.3969 141.3125 C47.3969 138.9844 46.1937 137.6562 43.9437 137.6562 L42.1 137.6562 L42.1 145 ZM43.0375 144.2344 L43.0375 138.4219 L43.8656 138.4219 C45.5844 138.4219 46.4437 139.4531 46.4437 141.3125 C46.4437 143.1562 45.5844 144.2344 43.8656 144.2344 L43.0375 144.2344 ZM48.4231 142.5469 L50.9856 142.5469 L50.9856 141.8438 L48.4231 141.8438 L48.4231 142.5469 ZM54.19 147.5 C55.8775 147.5 56.94 146.625 56.94 145.625 C56.94 144.7344 56.2993 144.3281 55.0337 144.3281 L53.9868 144.3281 C53.2525 144.3281 53.0337 144.0938 53.0337 143.7344 C53.0337 143.4375 53.1743 143.2656 53.3775 143.0938 C53.6275 143.2031 53.9243 143.2812 54.19 143.2812 C55.2837 143.2812 56.1743 142.5469 56.1743 141.3906 C56.1743 140.9219 55.9868 140.5156 55.7368 140.2656 L56.8462 140.2656 L56.8462 139.5625 L54.9556 139.5625 C54.7525 139.5 54.4868 139.4375 54.19 139.4375 C53.0962 139.4375 52.1431 140.1875 52.1431 141.375 C52.1431 142.0156 52.5025 142.5469 52.8618 142.8281 L52.8618 142.875 C52.5806 143.0625 52.2525 143.4375 52.2525 143.875 C52.2525 144.3125 52.4556 144.5938 52.7525 144.7656 L52.7525 144.8125 C52.2368 145.1406 51.9556 145.5781 51.9556 146.0469 C51.9556 146.9844 52.8618 147.5 54.19 147.5 ZM54.19 142.6562 C53.565 142.6562 53.0337 142.1562 53.0337 141.375 C53.0337 140.5625 53.5493 140.0938 54.19 140.0938 C54.8306 140.0938 55.3462 140.5781 55.3462 141.375 C55.3462 142.1562 54.815 142.6562 54.19 142.6562 ZM54.315 146.875 C53.3462 146.875 52.7525 146.5 52.7525 145.9219 C52.7525 145.5938 52.9087 145.2812 53.2993 145 C53.5337 145.0625 53.7993 145.0938 54.0025 145.0938 L54.94 145.0938 C55.6587 145.0938 56.0493 145.2656 56.0493 145.7656 C56.0493 146.3281 55.3618 146.875 54.315 146.875 ZM57.9918 145 L58.8981 145 L58.8981 141.5156 C59.2575 140.5781 59.82 140.2656 60.2731 140.2656 C60.4918 140.2656 60.6168 140.2812 60.8043 140.3438 L60.9762 139.5469 C60.8043 139.4531 60.6325 139.4375 60.3825 139.4375 C59.7731 139.4375 59.2262 139.875 58.8512 140.5625 L58.82 140.5625 L58.7418 139.5625 L57.9918 139.5625 L57.9918 145 ZM63.9812 145.125 C65.3093 145.125 66.4968 144.0938 66.4968 142.2969 C66.4968 140.4844 65.3093 139.4375 63.9812 139.4375 C62.6531 139.4375 61.4656 140.4844 61.4656 142.2969 C61.4656 144.0938 62.6531 145.125 63.9812 145.125 ZM63.9812 144.375 C63.0437 144.375 62.4031 143.5469 62.4031 142.2969 C62.4031 141.0469 63.0437 140.1875 63.9812 140.1875 C64.9187 140.1875 65.5593 141.0469 65.5593 142.2969 C65.5593 143.5469 64.9187 144.375 63.9812 144.375 ZM67.4631 142.5469 L70.0256 142.5469 L70.0256 141.8438 L67.4631 141.8438 L67.4631 142.5469 ZM72.2612 142.7969 L73.0737 142.7969 C72.8862 141.2188 74.6831 140.625 74.6831 139.1562 C74.6831 138.0625 73.9487 137.375 72.8237 137.375 C72.0112 137.375 71.3706 137.7656 70.9174 138.2969 L71.4331 138.7812 C71.7768 138.375 72.2143 138.1406 72.7143 138.1406 C73.4331 138.1406 73.7924 138.625 73.7924 139.2188 C73.7924 140.4062 72.0268 141.0469 72.2612 142.7969 ZM72.6831 145.125 C73.0581 145.125 73.3549 144.8438 73.3549 144.4375 C73.3549 144.0156 73.0581 143.7344 72.6831 143.7344 C72.3237 143.7344 72.0268 144.0156 72.0268 144.4375 C72.0268 144.8438 72.3237 145.125 72.6831 145.125 ZM75.6731 142.5469 L78.2356 142.5469 L78.2356 141.8438 L75.6731 141.8438 L75.6731 142.5469 ZM79.6899 145 L81.5649 145 C83.7837 145 84.9868 143.625 84.9868 141.3125 C84.9868 138.9844 83.7837 137.6562 81.5337 137.6562 L79.6899 137.6562 L79.6899 145 ZM80.6274 144.2344 L80.6274 138.4219 L81.4556 138.4219 C83.1743 138.4219 84.0337 139.4531 84.0337 141.3125 C84.0337 143.1562 83.1743 144.2344 81.4556 144.2344 L80.6274 144.2344 ZM86.0131 142.5469 L88.5756 142.5469 L88.5756 141.8438 L86.0131 141.8438 L86.0131 142.5469 ZM91.6549 145.125 C91.9831 145.125 92.3424 145.0312 92.6549 144.9375 L92.4831 144.25 C92.2956 144.3125 92.0456 144.3906 91.8581 144.3906 C91.2331 144.3906 91.0143 144.0156 91.0143 143.3438 L91.0143 140.3125 L92.4831 140.3125 L92.4831 139.5625 L91.0143 139.5625 L91.0143 138.0469 L90.2643 138.0469 L90.1549 139.5625 L89.2956 139.625 L89.2956 140.3125 L90.1081 140.3125 L90.1081 143.3125 C90.1081 144.4062 90.4987 145.125 91.6549 145.125 ZM94.9718 145.125 C95.6437 145.125 96.2531 144.7812 96.7687 144.3438 L96.7999 144.3438 L96.8781 145 L97.6281 145 L97.6281 141.6562 C97.6281 140.3125 97.0656 139.4375 95.7531 139.4375 C94.8781 139.4375 94.1124 139.8125 93.6124 140.1406 L93.9718 140.7656 C94.3937 140.4844 94.9718 140.1875 95.5968 140.1875 C96.4874 140.1875 96.7218 140.8594 96.7218 141.5625 C94.4093 141.8125 93.3781 142.4062 93.3781 143.5938 C93.3781 144.5625 94.0656 145.125 94.9718 145.125 ZM95.2374 144.4062 C94.6906 144.4062 94.2687 144.1562 94.2687 143.5312 C94.2687 142.8281 94.8937 142.375 96.7218 142.1562 L96.7218 143.6875 C96.1906 144.1562 95.7531 144.4062 95.2374 144.4062 ZM100.3149 145.125 C100.5649 145.125 100.7212 145.0938 100.8462 145.0469 L100.7212 144.3438 C100.6274 144.375 100.5806 144.375 100.5337 144.375 C100.3931 144.375 100.2681 144.2656 100.2681 143.9844 L100.2681 137.0469 L99.3618 137.0469 L99.3618 143.9219 C99.3618 144.6875 99.6431 145.125 100.3149 145.125 ZM104.993 145.125 C106.8368 145.125 108.1337 143.6562 108.1337 141.3125 C108.1337 138.9531 106.8368 137.5312 104.993 137.5312 C103.1649 137.5312 101.868 138.9531 101.868 141.3125 C101.868 143.6562 103.1649 145.125 104.993 145.125 ZM104.993 144.3125 C103.6805 144.3125 102.8212 143.1406 102.8212 141.3125 C102.8212 139.4688 103.6805 138.3438 104.993 138.3438 C106.3055 138.3438 107.1805 139.4688 107.1805 141.3125 C107.1805 143.1406 106.3055 144.3125 104.993 144.3125 ZM111.7724 145.125 C112.413 145.125 113.038 144.875 113.5224 144.4375 L113.1318 143.8281 C112.788 144.1406 112.3505 144.375 111.8505 144.375 C110.8505 144.375 110.163 143.5469 110.163 142.2969 C110.163 141.0469 110.8974 140.1875 111.8818 140.1875 C112.3037 140.1875 112.6474 140.3906 112.9599 140.6719 L113.4287 140.0625 C113.038 139.7344 112.5537 139.4375 111.8349 139.4375 C110.4443 139.4375 109.2255 140.4844 109.2255 142.2969 C109.2255 144.0938 110.3349 145.125 111.7724 145.125 ZM116.4249 145.125 C116.753 145.125 117.1124 145.0312 117.4249 144.9375 L117.253 144.25 C117.0655 144.3125 116.8155 144.3906 116.628 144.3906 C116.003 144.3906 115.7843 144.0156 115.7843 143.3438 L115.7843 140.3125 L117.253 140.3125 L117.253 139.5625 L115.7843 139.5625 L115.7843 138.0469 L115.0343 138.0469 L114.9249 139.5625 L114.0655 139.625 L114.0655 140.3125 L114.878 140.3125 L114.878 143.3125 C114.878 144.4062 115.2687 145.125 116.4249 145.125 ZM118.4918 147.2969 L119.398 147.2969 L119.398 145.4531 L119.3824 144.5 C119.8668 144.9062 120.3824 145.125 120.8824 145.125 C122.1324 145.125 123.2418 144.0625 123.2418 142.2031 C123.2418 140.5312 122.4762 139.4375 121.0855 139.4375 C120.4449 139.4375 119.8355 139.7969 119.3512 140.1875 L119.3199 140.1875 L119.2418 139.5625 L118.4918 139.5625 L118.4918 147.2969 ZM120.7262 144.375 C120.3668 144.375 119.8824 144.2188 119.398 143.7969 L119.398 140.9531 C119.9293 140.4531 120.398 140.2031 120.8668 140.2031 C121.8824 140.2031 122.2887 141.0156 122.2887 142.2031 C122.2887 143.5625 121.6324 144.375 120.7262 144.375 Z"
    /></g
  ></g
></svg
>
