<?xml version="1.0"?>
<!DOCTYPE svg PUBLIC '-//W3C//DTD SVG 1.0//EN'
          'http://www.w3.org/TR/2001/REC-SVG-20010904/DTD/svg10.dtd'>
<svg xmlns:xlink="http://www.w3.org/1999/xlink" style="fill-opacity:1; color-rendering:auto; color-interpolation:auto; text-rendering:auto; stroke:black; stroke-linecap:square; stroke-miterlimit:10; shape-rendering:auto; stroke-opacity:1; fill:black; stroke-dasharray:none; font-weight:normal; stroke-width:1; font-family:'Dialog'; font-style:normal; stroke-linejoin:miter; font-size:12px; stroke-dashoffset:0; image-rendering:auto;" viewBox="0 0 394 209" xmlns="http://www.w3.org/2000/svg"
><!--Generated by the Batik Graphics2D SVG Generator--><defs id="genericDefs"
  /><g
  ><defs id="defs1"
    ><clipPath clipPathUnits="userSpaceOnUse" id="clipPath1"
      ><path d="M290 92 L312 92 L312 114 L290 114 L290 92 Z"
      /></clipPath
      ><clipPath clipPathUnits="userSpaceOnUse" id="clipPath2"
      ><path d="M238 92 L260 92 L260 114 L238 114 L238 92 Z"
      /></clipPath
      ><clipPath clipPathUnits="userSpaceOnUse" id="clipPath3"
      ><path d="M208 103 C208 109.0751 203.0751 114 197 114 C190.9249 114 186 109.0751 186 103 C186 96.9249 190.9249 92 197 92 C203.0751 92 208 96.9249 208 103 Z"
      /></clipPath
      ><clipPath clipPathUnits="userSpaceOnUse" id="clipPath4"
      ><path d="M156 142 C156 148.0751 151.0751 153 145 153 C138.9249 153 134 148.0751 134 142 C134 135.9249 138.9249 131 145 131 C151.0751 131 156 135.9249 156 142 Z"
      /></clipPath
      ><clipPath clipPathUnits="userSpaceOnUse" id="clipPath5"
      ><path d="M82 131 L104 131 L104 153 L82 153 L82 131 Z"
      /></clipPath
      ><clipPath clipPathUnits="userSpaceOnUse" id="clipPath6"
      ><path style="fill-rule:evenodd;" d="M41 157 L52 179 L30 179 Z"
      /></clipPath
      ><clipPath clipPathUnits="userSpaceOnUse" id="clipPath7"
      ><path d="M52 116 C52 122.0751 47.0751 127 41 127 C34.9249 127 30 122.0751 30 116 C30 109.9249 34.9249 105 41 105 C47.0751 105 52 109.9249 52 116 Z"
      /></clipPath
      ><clipPath clipPathUnits="userSpaceOnUse" id="clipPath8"
      ><path d="M156 64 C156 70.0751 151.0751 75 145 75 C138.9249 75 134 70.0751 134 64 C134 57.9249 138.9249 53 145 53 C151.0751 53 156 57.9249 156 64 Z"
      /></clipPath
      ><clipPath clipPathUnits="userSpaceOnUse" id="clipPath9"
      ><path d="M82 53 L104 53 L104 75 L82 75 L82 53 Z"
      /></clipPath
      ><clipPath clipPathUnits="userSpaceOnUse" id="clipPath10"
      ><path d="M52 64 C52 70.0751 47.0751 75 41 75 C34.9249 75 30 70.0751 30 64 C30 57.9249 34.9249 53 41 53 C47.0751 53 52 57.9249 52 64 Z"
      /></clipPath
    ></defs
    ><g style="fill:white; text-rendering:optimizeSpeed; stroke:white;"
    ><rect x="0" width="394" height="209" y="0" style="stroke:none;"
      /><polygon style="fill:none; stroke:black;" points=" 353 103 301 103"
      /><path d="M353 92 C347.5 97.5 358.5 108.5 353 114" style="fill:none; stroke:black;"
      /><polygon style="fill:none; stroke:black;" points=" 301 103 249 103"
      /><rect x="290" y="92" width="22" style="clip-path:url(#clipPath1); stroke:none;" height="22"
      /><rect x="290" y="92" width="22" style="clip-path:url(#clipPath1); fill:rgb(0,144,188); stroke:none;" height="22"
      /><rect x="290" y="92" width="22" style="clip-path:url(#clipPath1); fill:none; stroke:black;" height="22"
      /><rect x="290" y="92" width="22" style="fill:none; stroke:black;" height="22"
      /><polygon style="fill:none; stroke:black;" points=" 249 103 197 103"
      /><rect x="238" y="92" width="22" style="clip-path:url(#clipPath2); stroke:none;" height="22"
      /><rect x="238" y="92" width="22" style="clip-path:url(#clipPath2); fill:rgb(0,166,81); stroke:none;" height="22"
      /><rect x="238" y="92" width="22" style="clip-path:url(#clipPath2); fill:none; stroke:black;" height="22"
      /><rect x="238" y="92" width="22" style="fill:none; stroke:black;" height="22"
      /><polygon style="fill:none; stroke:black;" points=" 197 103 145 142"
      /><polygon style="fill:none; stroke:black;" points=" 197 103 145 64"
      /><circle style="clip-path:url(#clipPath3); stroke:none;" r="11" cx="197" cy="103"
      /><rect x="186" y="92" width="22" style="clip-path:url(#clipPath3); fill:rgb(0,166,81); stroke:none;" height="22"
      /><rect x="186" y="92" width="22" style="clip-path:url(#clipPath3); fill:none; stroke:black;" height="22"
      /><circle style="fill:none; stroke:black;" r="11" cx="197" cy="103"
      /><polygon style="fill:none; stroke:black;" points=" 145 142 93 142"
      /><circle style="clip-path:url(#clipPath4); stroke:none;" r="11" cx="145" cy="142"
      /><rect x="134" y="131" width="22" style="clip-path:url(#clipPath4); fill:rgb(0,166,81); stroke:none;" height="22"
      /><rect x="134" y="131" width="22" style="clip-path:url(#clipPath4); fill:none; stroke:black;" height="22"
      /><circle style="fill:none; stroke:black;" r="11" cx="145" cy="142"
      /><polygon style="fill:none; stroke:black;" points=" 93 142 41 168"
      /><polygon style="fill:none; stroke:black;" points=" 93 142 41 116"
      /><rect x="82" y="131" width="22" style="clip-path:url(#clipPath5); stroke:none;" height="22"
      /><rect x="82" y="131" width="22" style="clip-path:url(#clipPath5); fill:rgb(0,144,188); stroke:none;" height="22"
      /><rect x="82" y="131" width="22" style="clip-path:url(#clipPath5); fill:none; stroke:black;" height="22"
      /><rect x="82" y="131" width="22" style="fill:none; stroke:black;" height="22"
      /><rect x="85" y="113" width="14" style="stroke:none;" height="10"
    /></g
    ><g style="text-rendering:optimizeSpeed; font-size:14px; font-family:'SansSerif';"
    ><path style="stroke:none;" d="M89.1094 118.5781 C90.3438 118.5781 90.9688 119.4688 90.9688 120.8438 C90.9688 122.25 90.1875 123.1875 89.2188 123.1875 C87.9219 123.1875 87.1562 122.0312 87 119.8906 C87.625 118.9531 88.4531 118.5781 89.1094 118.5781 ZM89.2188 124.1875 C90.8125 124.1875 92.1562 122.8438 92.1562 120.8438 C92.1562 118.7031 91.0469 117.625 89.3125 117.625 C88.5 117.625 87.6094 118.1094 86.9688 118.875 C87.0312 115.6875 88.2188 114.6094 89.625 114.6094 C90.25 114.6094 90.8594 114.9062 91.2656 115.3906 L91.9688 114.5938 C91.4062 113.9844 90.6406 113.5469 89.5781 113.5469 C87.5938 113.5469 85.7812 115.0781 85.7812 119.0938 C85.7812 122.4844 87.2344 124.1875 89.2188 124.1875 ZM97.02 124.1875 C99.1606 124.1875 100.5043 122.8906 100.5043 121.2656 C100.5043 119.75 99.5825 119.0469 98.395 118.5312 L96.9262 117.8906 C96.1293 117.5625 95.2387 117.1875 95.2387 116.1875 C95.2387 115.2656 95.9887 114.6719 97.145 114.6719 C98.0981 114.6719 98.8637 115.0469 99.4887 115.6406 L100.1762 114.8125 C99.4418 114.0625 98.3637 113.5469 97.145 113.5469 C95.2856 113.5469 93.9106 114.6875 93.9106 116.2656 C93.9106 117.7656 95.0512 118.5 96.0043 118.9062 L97.4887 119.5469 C98.4575 119.9844 99.1918 120.3125 99.1918 121.375 C99.1918 122.375 98.3793 123.0469 97.0356 123.0469 C95.9731 123.0469 94.9418 122.5469 94.2075 121.7812 L93.4262 122.6562 C94.3168 123.5938 95.5668 124.1875 97.02 124.1875 Z"
    /></g
    ><g style="fill:white; text-rendering:optimizeSpeed; stroke:white;"
    ><polygon style="stroke:none; clip-path:url(#clipPath6);" points=" 41 157 52 179 30 179"
      /><rect x="30" y="157" width="22" style="clip-path:url(#clipPath6); fill:rgb(143,204,233); stroke:none;" height="22"
      /><rect x="30" y="157" width="22" style="clip-path:url(#clipPath6); fill:none; stroke:black;" height="22"
      /><polygon style="fill:none; stroke:black;" points=" 41 157 52 179 30 179"
    /></g
    ><g style="text-rendering:optimizeSpeed; font-size:10px; font-family:'SansSerif';"
    ><path style="stroke:none;" d="M39 171 L43.125 171 L43.125 170.2031 L39.9375 170.2031 L39.9375 163.6562 L39 163.6562 L39 171 Z"
    /></g
    ><g style="fill:white; text-rendering:optimizeSpeed; stroke:white;"
    ><circle r="11" style="clip-path:url(#clipPath7); stroke:none;" cx="41" cy="116"
      /><rect x="30" y="105" width="22" style="clip-path:url(#clipPath7); fill:rgb(255,212,0); stroke:none;" height="22"
      /><rect x="30" y="105" width="22" style="clip-path:url(#clipPath7); fill:none; stroke:black;" height="22"
      /><circle r="11" style="fill:none; stroke:black;" cx="41" cy="116"
      /><rect x="75" width="6" height="10" y="153" style="stroke:none;"
      /><path d="M77.2344 154.6562 C77.5156 154.5938 77.7656 154.5625 78.0156 154.5625 C79.0625 154.5625 79.6719 155.1719 79.6719 156.2656 C79.6719 157.4375 78.9062 158.1094 77.7031 158.1094 L77.1875 158.1094 L77.1875 158.6406 L77.7969 158.6406 C79.2188 158.6406 79.9062 159.4219 79.9062 160.6406 C79.9062 161.8438 79.1719 162.6875 77.875 162.6875 C77.6094 162.6875 77.3125 162.6562 77.0156 162.5625 L76.7812 161.8125 C76.625 161.2812 76.5 161.0469 76.1406 161.0469 C75.8906 161.0469 75.7031 161.1719 75.5781 161.4219 C75.8438 162.6406 76.7812 163.1719 78.0312 163.1719 C79.7188 163.1719 80.875 162.125 80.875 160.7031 C80.875 159.5 80.2031 158.625 78.7969 158.375 C79.9531 158.0156 80.6094 157.2031 80.6094 156.2031 C80.6094 154.9219 79.6719 154.0781 78.1875 154.0781 C77.0469 154.0781 76.0625 154.5938 75.7969 155.6875 C75.9062 156 76.1094 156.1094 76.3594 156.1094 C76.7344 156.1094 76.8906 155.8906 77 155.4062 L77.2344 154.6562 Z" style="fill:black; stroke:none;"
      /><rect x="58" width="8" height="8" y="162" style="stroke:none;"
      /><path d="M62.9844 167.7031 C62.9375 168.8906 62.1562 169.6562 61.3125 169.6562 C60.2656 169.6562 59.5 168.6875 59.5 166.7188 C59.5 165.2812 60.1562 164.1562 61.3438 164.1562 C62.1406 164.1562 62.7812 164.6875 63.0938 165.6406 L62.9844 167.7031 ZM64.9062 169.2812 C64.7344 169.375 64.5469 169.4219 64.3438 169.4219 C63.9531 169.4219 63.75 169.2188 63.75 168.4219 C63.75 167.4844 63.9688 165.5312 64.1875 163.8281 L64.0312 163.7188 L63.2344 163.9219 L63.1406 164.7969 C62.7812 164.0312 62.1562 163.6562 61.3906 163.6562 C60.0469 163.6562 58.5625 164.8438 58.5625 166.9531 C58.5625 169.0938 59.7188 170.1719 61.1406 170.1719 C62.0156 170.1719 62.6875 169.8125 63.0938 168.9844 C63.2031 169.8594 63.5156 170.1719 64.0156 170.1719 C64.4688 170.1719 64.7969 169.9062 65.0156 169.5625 L64.9062 169.2812 Z" style="fill:black; stroke:none;"
      /><rect x="67" width="7" height="9" y="135" style="stroke:none;"
      /><path d="M68 140.5156 L70.9531 136.2656 L70.9531 140.5156 L68 140.5156 ZM73.2812 140.5156 L71.8594 140.5156 L71.8594 135.125 L71.2344 135.125 L67.3438 140.6406 L67.3438 141.1875 L70.9531 141.1875 L70.9531 144 L71.8594 144 L71.8594 141.1875 L73.2812 141.1875 L73.2812 140.5156 Z" style="fill:black; stroke:none;"
      /><rect x="52" width="6" height="13" y="125" style="stroke:none;"
      /><path d="M54.0938 131.2031 C54.0938 129.6562 54.75 128.8125 55.7969 128.8125 C56.7188 128.8125 57.2656 129.4531 57.2656 130.5156 C57.2656 131.7188 56.5 132.4375 55.1875 132.7031 L55.2969 133.3125 C57.2188 133.2344 57.9375 134.2188 57.9375 135.4375 C57.9375 136.625 57.2344 137.4219 55.9531 137.4219 C55.25 137.4219 54.6562 137.1562 54.0938 136.7188 L54.0938 131.2031 ZM53.2031 137.9062 L53.1094 140.375 L53.2656 140.4844 L54.1562 140.2656 L54.0156 137.0938 C54.5469 137.8438 55.3594 138.1719 56.1719 138.1719 C57.5625 138.1719 58.8594 137.2188 58.8594 135.4844 C58.8594 133.9531 57.875 133.1094 56.125 133 C57.5625 132.6094 58.1875 131.4531 58.1875 130.4844 C58.1875 129.0938 57.1562 128.3125 55.9062 128.3125 C54.2969 128.3125 53.2188 129.5469 53.2188 131.5156 L53.2031 137.9062 Z" style="fill:black; stroke:none;"
      /><rect x="123" width="6" height="9" y="145" style="stroke:none;"
      /><path d="M124.4219 153.0938 C125.0781 152.375 125.7031 151.7188 126.0312 151.3438 C127.9219 149.3125 128.5312 148.4688 128.5312 147.3594 C128.5312 146.0156 127.7812 145.0781 126.1562 145.0781 C124.9062 145.0781 123.7969 145.7031 123.5938 146.9688 C123.7188 147.2031 123.9062 147.3438 124.1562 147.3438 C124.4688 147.3438 124.6562 147.1094 124.7969 146.5938 L125.0938 145.6719 C125.3906 145.5938 125.6562 145.5625 125.8906 145.5625 C126.9219 145.5625 127.5469 146.3125 127.5469 147.4219 C127.5469 148.4375 126.9844 149.4219 125.7031 150.9062 C125.125 151.5781 124.3906 152.4375 123.6406 153.2812 L123.6406 154 L128.9219 154 L128.9219 153.0938 L124.4219 153.0938 Z" style="fill:black; stroke:none;"
      /><rect x="109" width="6" height="13" y="143" style="stroke:none;"
      /><path d="M111.0938 149.2031 C111.0938 147.6562 111.75 146.8125 112.7969 146.8125 C113.7188 146.8125 114.2656 147.4531 114.2656 148.5156 C114.2656 149.7188 113.5 150.4375 112.1875 150.7031 L112.2969 151.3125 C114.2188 151.2344 114.9375 152.2188 114.9375 153.4375 C114.9375 154.625 114.2344 155.4219 112.9531 155.4219 C112.25 155.4219 111.6562 155.1562 111.0938 154.7188 L111.0938 149.2031 ZM110.2031 155.9062 L110.1094 158.375 L110.2656 158.4844 L111.1562 158.2656 L111.0156 155.0938 C111.5469 155.8438 112.3594 156.1719 113.1719 156.1719 C114.5625 156.1719 115.8594 155.2188 115.8594 153.4844 C115.8594 151.9531 114.875 151.1094 113.125 151 C114.5625 150.6094 115.1875 149.4531 115.1875 148.4844 C115.1875 147.0938 114.1562 146.3125 112.9062 146.3125 C111.2969 146.3125 110.2188 147.5469 110.2188 149.5156 L110.2031 155.9062 Z" style="fill:black; stroke:none;"
      /><polygon style="fill:none; stroke:black;" points=" 145 64 93 64"
      /><circle r="11" style="clip-path:url(#clipPath8); stroke:none;" cx="145" cy="64"
      /><rect x="134" y="53" width="22" style="clip-path:url(#clipPath8); fill:rgb(0,166,81); stroke:none;" height="22"
      /><rect x="134" y="53" width="22" style="clip-path:url(#clipPath8); fill:none; stroke:black;" height="22"
      /><circle r="11" style="fill:none; stroke:black;" cx="145" cy="64"
      /><polygon style="fill:none; stroke:black;" points=" 93 64 41 64"
      /><rect x="82" y="53" width="22" style="clip-path:url(#clipPath9); stroke:none;" height="22"
      /><rect x="82" y="53" width="22" style="clip-path:url(#clipPath9); fill:rgb(0,144,188); stroke:none;" height="22"
      /><rect x="82" y="53" width="22" style="clip-path:url(#clipPath9); fill:none; stroke:black;" height="22"
      /><rect x="82" y="53" width="22" style="fill:none; stroke:black;" height="22"
      /><rect x="85" width="14" height="10" y="35" style="stroke:none;"
    /></g
    ><g style="text-rendering:optimizeSpeed; font-size:14px; font-family:'SansSerif';"
    ><path style="stroke:none;" d="M89.1094 40.5781 C90.3438 40.5781 90.9688 41.4688 90.9688 42.8438 C90.9688 44.25 90.1875 45.1875 89.2188 45.1875 C87.9219 45.1875 87.1562 44.0312 87 41.8906 C87.625 40.9531 88.4531 40.5781 89.1094 40.5781 ZM89.2188 46.1875 C90.8125 46.1875 92.1562 44.8438 92.1562 42.8438 C92.1562 40.7031 91.0469 39.625 89.3125 39.625 C88.5 39.625 87.6094 40.1094 86.9688 40.875 C87.0312 37.6875 88.2188 36.6094 89.625 36.6094 C90.25 36.6094 90.8594 36.9062 91.2656 37.3906 L91.9688 36.5938 C91.4062 35.9844 90.6406 35.5469 89.5781 35.5469 C87.5938 35.5469 85.7812 37.0781 85.7812 41.0938 C85.7812 44.4844 87.2344 46.1875 89.2188 46.1875 ZM97.02 46.1875 C99.1606 46.1875 100.5043 44.8906 100.5043 43.2656 C100.5043 41.75 99.5825 41.0469 98.395 40.5312 L96.9262 39.8906 C96.1293 39.5625 95.2387 39.1875 95.2387 38.1875 C95.2387 37.2656 95.9887 36.6719 97.145 36.6719 C98.0981 36.6719 98.8637 37.0469 99.4887 37.6406 L100.1762 36.8125 C99.4418 36.0625 98.3637 35.5469 97.145 35.5469 C95.2856 35.5469 93.9106 36.6875 93.9106 38.2656 C93.9106 39.7656 95.0512 40.5 96.0043 40.9062 L97.4887 41.5469 C98.4575 41.9844 99.1918 42.3125 99.1918 43.375 C99.1918 44.375 98.3793 45.0469 97.0356 45.0469 C95.9731 45.0469 94.9418 44.5469 94.2075 43.7812 L93.4262 44.6562 C94.3168 45.5938 95.5668 46.1875 97.02 46.1875 Z"
    /></g
    ><g style="fill:white; text-rendering:optimizeSpeed; stroke:white;"
    ><circle r="11" style="clip-path:url(#clipPath10); stroke:none;" cx="41" cy="64"
      /><rect x="30" y="53" width="22" style="clip-path:url(#clipPath10); fill:rgb(255,212,0); stroke:none;" height="22"
      /><rect x="30" y="53" width="22" style="clip-path:url(#clipPath10); fill:none; stroke:black;" height="22"
      /><circle r="11" style="fill:none; stroke:black;" cx="41" cy="64"
      /><rect x="70" width="7" height="9" y="67" style="stroke:none;"
      /><path d="M71 72.5156 L73.9531 68.2656 L73.9531 72.5156 L71 72.5156 ZM76.2812 72.5156 L74.8594 72.5156 L74.8594 67.125 L74.2344 67.125 L70.3438 72.6406 L70.3438 73.1875 L73.9531 73.1875 L73.9531 76 L74.8594 76 L74.8594 73.1875 L76.2812 73.1875 L76.2812 72.5156 Z" style="fill:black; stroke:none;"
      /><rect x="57" width="6" height="13" y="65" style="stroke:none;"
      /><path d="M59.0938 71.2031 C59.0938 69.6562 59.75 68.8125 60.7969 68.8125 C61.7188 68.8125 62.2656 69.4531 62.2656 70.5156 C62.2656 71.7188 61.5 72.4375 60.1875 72.7031 L60.2969 73.3125 C62.2188 73.2344 62.9375 74.2188 62.9375 75.4375 C62.9375 76.625 62.2344 77.4219 60.9531 77.4219 C60.25 77.4219 59.6562 77.1562 59.0938 76.7188 L59.0938 71.2031 ZM58.2031 77.9062 L58.1094 80.375 L58.2656 80.4844 L59.1562 80.2656 L59.0156 77.0938 C59.5469 77.8438 60.3594 78.1719 61.1719 78.1719 C62.5625 78.1719 63.8594 77.2188 63.8594 75.4844 C63.8594 73.9531 62.875 73.1094 61.125 73 C62.5625 72.6094 63.1875 71.4531 63.1875 70.4844 C63.1875 69.0938 62.1562 68.3125 60.9062 68.3125 C59.2969 68.3125 58.2188 69.5469 58.2188 71.5156 L58.2031 77.9062 Z" style="fill:black; stroke:none;"
      /><rect x="123" width="6" height="9" y="67" style="stroke:none;"
      /><path d="M124.4219 75.0938 C125.0781 74.375 125.7031 73.7188 126.0312 73.3438 C127.9219 71.3125 128.5312 70.4688 128.5312 69.3594 C128.5312 68.0156 127.7812 67.0781 126.1562 67.0781 C124.9062 67.0781 123.7969 67.7031 123.5938 68.9688 C123.7188 69.2031 123.9062 69.3438 124.1562 69.3438 C124.4688 69.3438 124.6562 69.1094 124.7969 68.5938 L125.0938 67.6719 C125.3906 67.5938 125.6562 67.5625 125.8906 67.5625 C126.9219 67.5625 127.5469 68.3125 127.5469 69.4219 C127.5469 70.4375 126.9844 71.4219 125.7031 72.9062 C125.125 73.5781 124.3906 74.4375 123.6406 75.2812 L123.6406 76 L128.9219 76 L128.9219 75.0938 L124.4219 75.0938 Z" style="fill:black; stroke:none;"
      /><rect x="109" width="6" height="13" y="65" style="stroke:none;"
      /><path d="M111.0938 71.2031 C111.0938 69.6562 111.75 68.8125 112.7969 68.8125 C113.7188 68.8125 114.2656 69.4531 114.2656 70.5156 C114.2656 71.7188 113.5 72.4375 112.1875 72.7031 L112.2969 73.3125 C114.2188 73.2344 114.9375 74.2188 114.9375 75.4375 C114.9375 76.625 114.2344 77.4219 112.9531 77.4219 C112.25 77.4219 111.6562 77.1562 111.0938 76.7188 L111.0938 71.2031 ZM110.2031 77.9062 L110.1094 80.375 L110.2656 80.4844 L111.1562 80.2656 L111.0156 77.0938 C111.5469 77.8438 112.3594 78.1719 113.1719 78.1719 C114.5625 78.1719 115.8594 77.2188 115.8594 75.4844 C115.8594 73.9531 114.875 73.1094 113.125 73 C114.5625 72.6094 115.1875 71.4531 115.1875 70.4844 C115.1875 69.0938 114.1562 68.3125 112.9062 68.3125 C111.2969 68.3125 110.2188 69.5469 110.2188 71.5156 L110.2031 77.9062 Z" style="fill:black; stroke:none;"
      /><rect x="181" width="6" height="10" y="117" style="stroke:none;"
      /><path d="M183.2344 118.6562 C183.5156 118.5938 183.7656 118.5625 184.0156 118.5625 C185.0625 118.5625 185.6719 119.1719 185.6719 120.2656 C185.6719 121.4375 184.9062 122.1094 183.7031 122.1094 L183.1875 122.1094 L183.1875 122.6406 L183.7969 122.6406 C185.2188 122.6406 185.9062 123.4219 185.9062 124.6406 C185.9062 125.8438 185.1719 126.6875 183.875 126.6875 C183.6094 126.6875 183.3125 126.6562 183.0156 126.5625 L182.7812 125.8125 C182.625 125.2812 182.5 125.0469 182.1406 125.0469 C181.8906 125.0469 181.7031 125.1719 181.5781 125.4219 C181.8438 126.6406 182.7812 127.1719 184.0312 127.1719 C185.7188 127.1719 186.875 126.125 186.875 124.7031 C186.875 123.5 186.2031 122.625 184.7969 122.375 C185.9531 122.0156 186.6094 121.2031 186.6094 120.2031 C186.6094 118.9219 185.6719 118.0781 184.1875 118.0781 C183.0469 118.0781 182.0625 118.5938 181.7969 119.6875 C181.9062 120 182.1094 120.1094 182.3594 120.1094 C182.7344 120.1094 182.8906 119.8906 183 119.4062 L183.2344 118.6562 Z" style="fill:black; stroke:none;"
      /><rect x="163" width="8" height="8" y="131" style="stroke:none;"
      /><path d="M167.9844 136.7031 C167.9375 137.8906 167.1562 138.6562 166.3125 138.6562 C165.2656 138.6562 164.5 137.6875 164.5 135.7188 C164.5 134.2812 165.1562 133.1562 166.3438 133.1562 C167.1406 133.1562 167.7812 133.6875 168.0938 134.6406 L167.9844 136.7031 ZM169.9062 138.2812 C169.7344 138.375 169.5469 138.4219 169.3438 138.4219 C168.9531 138.4219 168.75 138.2188 168.75 137.4219 C168.75 136.4844 168.9688 134.5312 169.1875 132.8281 L169.0312 132.7188 L168.2344 132.9219 L168.1406 133.7969 C167.7812 133.0312 167.1562 132.6562 166.3906 132.6562 C165.0469 132.6562 163.5625 133.8438 163.5625 135.9531 C163.5625 138.0938 164.7188 139.1719 166.1406 139.1719 C167.0156 139.1719 167.6875 138.8125 168.0938 137.9844 C168.2031 138.8594 168.5156 139.1719 169.0156 139.1719 C169.4688 139.1719 169.7969 138.9062 170.0156 138.5625 L169.9062 138.2812 Z" style="fill:black; stroke:none;"
      /><rect x="171" width="6" height="10" y="91" style="stroke:none;"
      /><path d="M174.3438 100.6875 C173.2031 100.6875 172.5312 99.5 172.5312 97.2969 C172.5312 97.2188 172.5312 97.125 172.5312 97.0469 C173.0938 96.5 173.7188 96.3125 174.3438 96.3125 C175.3125 96.3125 175.9531 96.9844 175.9531 98.4531 C175.9531 99.9375 175.3125 100.6875 174.3438 100.6875 ZM176.5312 92.0781 C173.3438 92.4531 171.5625 94.7656 171.5625 97.4531 C171.5625 99.7812 172.6094 101.1719 174.3125 101.1719 C175.8438 101.1719 176.9219 100.1094 176.9219 98.2812 C176.9219 96.6875 175.9688 95.6562 174.5625 95.6562 C173.8281 95.6562 173.1406 95.9844 172.5781 96.5781 C172.7969 94.4062 174.0781 92.9688 176.5938 92.3906 L176.5312 92.0781 Z" style="fill:black; stroke:none;"
      /><rect x="153" width="8" height="8" y="79" style="stroke:none;"
      /><path d="M157.9844 84.7031 C157.9375 85.8906 157.1562 86.6562 156.3125 86.6562 C155.2656 86.6562 154.5 85.6875 154.5 83.7188 C154.5 82.2812 155.1562 81.1562 156.3438 81.1562 C157.1406 81.1562 157.7812 81.6875 158.0938 82.6406 L157.9844 84.7031 ZM159.9062 86.2812 C159.7344 86.375 159.5469 86.4219 159.3438 86.4219 C158.9531 86.4219 158.75 86.2188 158.75 85.4219 C158.75 84.4844 158.9688 82.5312 159.1875 80.8281 L159.0312 80.7188 L158.2344 80.9219 L158.1406 81.7969 C157.7812 81.0312 157.1562 80.6562 156.3906 80.6562 C155.0469 80.6562 153.5625 81.8438 153.5625 83.9531 C153.5625 86.0938 154.7188 87.1719 156.1406 87.1719 C157.0156 87.1719 157.6875 86.8125 158.0938 85.9844 C158.2031 86.8594 158.5156 87.1719 159.0156 87.1719 C159.4688 87.1719 159.7969 86.9062 160.0156 86.5625 L159.9062 86.2812 Z" style="fill:black; stroke:none;"
      /><rect x="226" width="7" height="9" y="106" style="stroke:none;"
      /><path d="M227 111.5156 L229.9531 107.2656 L229.9531 111.5156 L227 111.5156 ZM232.2812 111.5156 L230.8594 111.5156 L230.8594 106.125 L230.2344 106.125 L226.3438 111.6406 L226.3438 112.1875 L229.9531 112.1875 L229.9531 115 L230.8594 115 L230.8594 112.1875 L232.2812 112.1875 L232.2812 111.5156 Z" style="fill:black; stroke:none;"
      /><rect x="213" width="6" height="13" y="104" style="stroke:none;"
      /><path d="M215.0938 110.2031 C215.0938 108.6562 215.75 107.8125 216.7969 107.8125 C217.7188 107.8125 218.2656 108.4531 218.2656 109.5156 C218.2656 110.7188 217.5 111.4375 216.1875 111.7031 L216.2969 112.3125 C218.2188 112.2344 218.9375 113.2188 218.9375 114.4375 C218.9375 115.625 218.2344 116.4219 216.9531 116.4219 C216.25 116.4219 215.6562 116.1562 215.0938 115.7188 L215.0938 110.2031 ZM214.2031 116.9062 L214.1094 119.375 L214.2656 119.4844 L215.1562 119.2656 L215.0156 116.0938 C215.5469 116.8438 216.3594 117.1719 217.1719 117.1719 C218.5625 117.1719 219.8594 116.2188 219.8594 114.4844 C219.8594 112.9531 218.875 112.1094 217.125 112 C218.5625 111.6094 219.1875 110.4531 219.1875 109.4844 C219.1875 108.0938 218.1562 107.3125 216.9062 107.3125 C215.2969 107.3125 214.2188 108.5469 214.2188 110.5156 L214.2031 116.9062 Z" style="fill:black; stroke:none;"
      /><rect x="278" width="7" height="9" y="106" style="stroke:none;"
      /><path d="M279 111.5156 L281.9531 107.2656 L281.9531 111.5156 L279 111.5156 ZM284.2812 111.5156 L282.8594 111.5156 L282.8594 106.125 L282.2344 106.125 L278.3438 111.6406 L278.3438 112.1875 L281.9531 112.1875 L281.9531 115 L282.8594 115 L282.8594 112.1875 L284.2812 112.1875 L284.2812 111.5156 Z" style="fill:black; stroke:none;"
      /><rect x="265" width="6" height="13" y="104" style="stroke:none;"
      /><path d="M267.0938 110.2031 C267.0938 108.6562 267.75 107.8125 268.7969 107.8125 C269.7188 107.8125 270.2656 108.4531 270.2656 109.5156 C270.2656 110.7188 269.5 111.4375 268.1875 111.7031 L268.2969 112.3125 C270.2188 112.2344 270.9375 113.2188 270.9375 114.4375 C270.9375 115.625 270.2344 116.4219 268.9531 116.4219 C268.25 116.4219 267.6562 116.1562 267.0938 115.7188 L267.0938 110.2031 ZM266.2031 116.9062 L266.1094 119.375 L266.2656 119.4844 L267.1562 119.2656 L267.0156 116.0938 C267.5469 116.8438 268.3594 117.1719 269.1719 117.1719 C270.5625 117.1719 271.8594 116.2188 271.8594 114.4844 C271.8594 112.9531 270.875 112.1094 269.125 112 C270.5625 111.6094 271.1875 110.4531 271.1875 109.4844 C271.1875 108.0938 270.1562 107.3125 268.9062 107.3125 C267.2969 107.3125 266.2188 108.5469 266.2188 110.5156 L266.2031 116.9062 Z" style="fill:black; stroke:none;"
      /><rect x="317" width="6" height="13" y="104" style="stroke:none;"
      /><path d="M319.0938 110.2031 C319.0938 108.6562 319.75 107.8125 320.7969 107.8125 C321.7188 107.8125 322.2656 108.4531 322.2656 109.5156 C322.2656 110.7188 321.5 111.4375 320.1875 111.7031 L320.2969 112.3125 C322.2188 112.2344 322.9375 113.2188 322.9375 114.4375 C322.9375 115.625 322.2344 116.4219 320.9531 116.4219 C320.25 116.4219 319.6562 116.1562 319.0938 115.7188 L319.0938 110.2031 ZM318.2031 116.9062 L318.1094 119.375 L318.2656 119.4844 L319.1562 119.2656 L319.0156 116.0938 C319.5469 116.8438 320.3594 117.1719 321.1719 117.1719 C322.5625 117.1719 323.8594 116.2188 323.8594 114.4844 C323.8594 112.9531 322.875 112.1094 321.125 112 C322.5625 111.6094 323.1875 110.4531 323.1875 109.4844 C323.1875 108.0938 322.1562 107.3125 320.9062 107.3125 C319.2969 107.3125 318.2188 108.5469 318.2188 110.5156 L318.2031 116.9062 Z" style="fill:black; stroke:none;"
    /></g
  ></g
></svg
>
