<?xml version="1.0"?>
<!DOCTYPE svg PUBLIC '-//W3C//DTD SVG 1.0//EN'
          'http://www.w3.org/TR/2001/REC-SVG-20010904/DTD/svg10.dtd'>
<svg xmlns:xlink="http://www.w3.org/1999/xlink" style="fill-opacity:1; color-rendering:auto; color-interpolation:auto; text-rendering:auto; stroke:black; stroke-linecap:square; stroke-miterlimit:10; shape-rendering:auto; stroke-opacity:1; fill:black; stroke-dasharray:none; font-weight:normal; stroke-width:1; font-family:'Dialog'; font-style:normal; stroke-linejoin:miter; font-size:12px; stroke-dashoffset:0; image-rendering:auto;" viewBox="0 0 191 105" xmlns="http://www.w3.org/2000/svg"
><!--Generated by the Batik Graphics2D SVG Generator--><defs id="genericDefs"
  /><g
  ><defs id="defs1"
    ><clipPath clipPathUnits="userSpaceOnUse" id="clipPath1"
      ><path d="M106 41 C106 47.0751 101.0751 52 95 52 C88.9249 52 84 47.0751 84 41 C84 34.9249 88.9249 30 95 30 C101.0751 30 106 34.9249 106 41 Z"
      /></clipPath
      ><clipPath clipPathUnits="userSpaceOnUse" id="clipPath2"
      ><path d="M30 35.5 L52 35.5 L52 46.5 L30 46.5 L30 35.5 Z"
      /></clipPath
    ></defs
    ><g style="fill:white; text-rendering:optimizeSpeed; stroke:white;"
    ><rect x="0" width="191" height="105" y="0" style="stroke:none;"
      /><polygon style="fill:none; stroke:black;" points=" 150 41 95 41"
      /><path d="M150 30 C144.5 35.5 155.5 46.5 150 52" style="fill:none; stroke:black;"
      /><polygon style="fill:none; stroke:black;" points=" 95 41 41 41"
      /><circle style="clip-path:url(#clipPath1); stroke:none;" r="11" cx="95" cy="41"
      /><rect x="84" y="30" width="22" style="clip-path:url(#clipPath1); fill:rgb(0,166,81); stroke:none;" height="22"
      /><rect x="84" y="30" width="22" style="clip-path:url(#clipPath1); fill:none; stroke:black;" height="22"
      /><circle style="fill:none; stroke:black;" r="11" cx="95" cy="41"
      /><rect x="82" y="58" width="25" style="stroke:none;" height="10"
    /></g
    ><g style="text-rendering:optimizeSpeed; font-size:14px; font-family:'SansSerif';"
    ><path style="stroke:none;" d="M82.6094 69 L89.0625 69 L89.0625 67.8906 L86.2344 67.8906 C85.7031 67.8906 85.0781 67.9531 84.5469 67.9844 C86.9531 65.7031 88.5625 63.625 88.5625 61.5781 C88.5625 59.75 87.4219 58.5469 85.5781 58.5469 C84.2812 58.5469 83.4062 59.1406 82.5625 60.0469 L83.2969 60.7812 C83.8594 60.1094 84.5938 59.5938 85.4375 59.5938 C86.7031 59.5938 87.3125 60.4531 87.3125 61.625 C87.3125 63.3906 85.8438 65.4375 82.6094 68.25 L82.6094 69 ZM91.1762 69 L92.3481 69 L92.3481 63.3125 C92.3481 62.4375 92.2543 61.1875 92.1918 60.2969 L92.2543 60.2969 L93.0668 62.625 L95.0043 67.9688 L95.8793 67.9688 L97.8168 62.625 L98.6293 60.2969 L98.6918 60.2969 C98.6137 61.1875 98.52 62.4375 98.52 63.3125 L98.52 69 L99.7387 69 L99.7387 58.7188 L98.1762 58.7188 L96.2075 64.2188 C95.9731 64.9375 95.7543 65.6562 95.5043 66.375 L95.4418 66.375 C95.1918 65.6562 94.9575 64.9375 94.7075 64.2188 L92.7387 58.7188 L91.1762 58.7188 L91.1762 69 ZM105.4973 69.1875 C106.5285 69.1875 107.341 68.8281 108.0129 68.3906 L107.5442 67.5625 C106.9973 67.9375 106.3879 68.1562 105.6535 68.1562 C104.2004 68.1562 103.216 67.125 103.1223 65.5 L108.2473 65.5 C108.2785 65.3125 108.3098 65.0469 108.3098 64.7656 C108.3098 62.6094 107.216 61.2031 105.2785 61.2031 C103.5129 61.2031 101.8567 62.7344 101.8567 65.2031 C101.8567 67.7188 103.4817 69.1875 105.4973 69.1875 ZM103.1067 64.5781 C103.2629 63.0938 104.216 62.2188 105.2942 62.2188 C106.4817 62.2188 107.1848 63.0469 107.1848 64.5781 L103.1067 64.5781 Z"
    /></g
    ><g style="fill:white; text-rendering:optimizeSpeed; stroke:white;"
    ><rect x="30" y="35.5" width="22" style="clip-path:url(#clipPath2); stroke:none;" height="11"
      /><rect x="30" y="30" width="22" style="clip-path:url(#clipPath2); fill:rgb(244,121,32); stroke:none;" height="22"
      /><rect x="30" y="30" width="22" style="clip-path:url(#clipPath2); fill:none; stroke:black;" height="22"
      /><rect x="30" y="35.5" width="22" style="fill:none; stroke:black;" height="11"
      /><rect x="71" width="6" height="10" y="44" style="stroke:none;"
      /><path d="M73.2344 45.6562 C73.5156 45.5938 73.7656 45.5625 74.0156 45.5625 C75.0625 45.5625 75.6719 46.1719 75.6719 47.2656 C75.6719 48.4375 74.9062 49.1094 73.7031 49.1094 L73.1875 49.1094 L73.1875 49.6406 L73.7969 49.6406 C75.2188 49.6406 75.9062 50.4219 75.9062 51.6406 C75.9062 52.8438 75.1719 53.6875 73.875 53.6875 C73.6094 53.6875 73.3125 53.6562 73.0156 53.5625 L72.7812 52.8125 C72.625 52.2812 72.5 52.0469 72.1406 52.0469 C71.8906 52.0469 71.7031 52.1719 71.5781 52.4219 C71.8438 53.6406 72.7812 54.1719 74.0312 54.1719 C75.7188 54.1719 76.875 53.125 76.875 51.7031 C76.875 50.5 76.2031 49.625 74.7969 49.375 C75.9531 49.0156 76.6094 48.2031 76.6094 47.2031 C76.6094 45.9219 75.6719 45.0781 74.1875 45.0781 C73.0469 45.0781 72.0625 45.5938 71.7969 46.6875 C71.9062 47 72.1094 47.1094 72.3594 47.1094 C72.7344 47.1094 72.8906 46.8906 73 46.4062 L73.2344 45.6562 Z" style="fill:black; stroke:none;"
      /><rect x="56" width="8" height="8" y="45" style="stroke:none;"
      /><path d="M60.9844 50.7031 C60.9375 51.8906 60.1562 52.6562 59.3125 52.6562 C58.2656 52.6562 57.5 51.6875 57.5 49.7188 C57.5 48.2812 58.1562 47.1562 59.3438 47.1562 C60.1406 47.1562 60.7812 47.6875 61.0938 48.6406 L60.9844 50.7031 ZM62.9062 52.2812 C62.7344 52.375 62.5469 52.4219 62.3438 52.4219 C61.9531 52.4219 61.75 52.2188 61.75 51.4219 C61.75 50.4844 61.9688 48.5312 62.1875 46.8281 L62.0312 46.7188 L61.2344 46.9219 L61.1406 47.7969 C60.7812 47.0312 60.1562 46.6562 59.3906 46.6562 C58.0469 46.6562 56.5625 47.8438 56.5625 49.9531 C56.5625 52.0938 57.7188 53.1719 59.1406 53.1719 C60.0156 53.1719 60.6875 52.8125 61.0938 51.9844 C61.2031 52.8594 61.5156 53.1719 62.0156 53.1719 C62.4688 53.1719 62.7969 52.9062 63.0156 52.5625 L62.9062 52.2812 Z" style="fill:black; stroke:none;"
      /><rect x="114" width="5" height="10" y="44" style="stroke:none;"
      /><path d="M115.8906 52.6875 C115.4844 52.6875 115.1562 53.0469 115.1562 53.4219 C115.1562 53.8125 115.4844 54.1562 115.8906 54.1562 C116.2969 54.1562 116.6406 53.8125 116.6406 53.4219 C116.6406 53.0469 116.2969 52.6875 115.8906 52.6875 ZM117.4688 46.5781 C117.7188 46.8906 117.875 47.2656 117.8906 47.6562 C117.8906 48.1875 117.625 48.5 117.0312 48.7656 L116.4062 49.0156 C115.6406 49.3125 115.3906 49.5469 115.3906 49.9375 C115.3906 50.1094 115.4531 50.3438 115.5781 50.8125 L115.7344 51.3438 L116.1094 51.3438 L116.0938 50.5312 C116.0938 50.0938 116.2031 49.9688 116.7812 49.7344 L117.2031 49.5625 C118.0312 49.2188 118.4531 48.6875 118.4531 47.8438 C118.4531 46.1562 116.6562 45.1875 115.5 45.0312 C115.1094 45.125 114.9062 45.2969 114.9062 45.6406 C114.9062 45.9375 115.0625 46.1562 115.7188 46.2656 L117.4688 46.5781 Z" style="fill:black; stroke:none;"
    /></g
  ></g
></svg
>
