<?xml version="1.0"?>
<!DOCTYPE svg PUBLIC '-//W3C//DTD SVG 1.0//EN'
          'http://www.w3.org/TR/2001/REC-SVG-20010904/DTD/svg10.dtd'>
<svg xmlns:xlink="http://www.w3.org/1999/xlink" style="fill-opacity:1; color-rendering:auto; color-interpolation:auto; text-rendering:auto; stroke:black; stroke-linecap:square; stroke-miterlimit:10; shape-rendering:auto; stroke-opacity:1; fill:black; stroke-dasharray:none; font-weight:normal; stroke-width:1; font-family:'Dialog'; font-style:normal; stroke-linejoin:miter; font-size:12px; stroke-dashoffset:0; image-rendering:auto;" viewBox="0 0 394 157" xmlns="http://www.w3.org/2000/svg"
><!--Generated by the Batik Graphics2D SVG Generator--><defs id="genericDefs"
  /><g
  ><defs id="defs1"
    ><clipPath clipPathUnits="userSpaceOnUse" id="clipPath1"
      ><path d="M290 79 L312 79 L312 101 L290 101 L290 79 Z"
      /></clipPath
      ><clipPath clipPathUnits="userSpaceOnUse" id="clipPath2"
      ><path d="M238 79 L260 79 L260 101 L238 101 L238 79 Z"
      /></clipPath
      ><clipPath clipPathUnits="userSpaceOnUse" id="clipPath3"
      ><path d="M208 90 C208 96.0751 203.0751 101 197 101 C190.9249 101 186 96.0751 186 90 C186 83.9249 190.9249 79 197 79 C203.0751 79 208 83.9249 208 90 Z"
      /></clipPath
      ><clipPath clipPathUnits="userSpaceOnUse" id="clipPath4"
      ><path d="M156 116 C156 122.0751 151.0751 127 145 127 C138.9249 127 134 122.0751 134 116 C134 109.9249 138.9249 105 145 105 C151.0751 105 156 109.9249 156 116 Z"
      /></clipPath
      ><clipPath clipPathUnits="userSpaceOnUse" id="clipPath5"
      ><path d="M82 105 L104 105 L104 127 L82 127 L82 105 Z"
      /></clipPath
      ><clipPath clipPathUnits="userSpaceOnUse" id="clipPath6"
      ><path d="M30 105 L52 105 L52 127 L30 127 L30 105 Z"
      /></clipPath
      ><clipPath clipPathUnits="userSpaceOnUse" id="clipPath7"
      ><path d="M156 64 C156 70.0751 151.0751 75 145 75 C138.9249 75 134 70.0751 134 64 C134 57.9249 138.9249 53 145 53 C151.0751 53 156 57.9249 156 64 Z"
      /></clipPath
      ><clipPath clipPathUnits="userSpaceOnUse" id="clipPath8"
      ><path d="M82 53 L104 53 L104 75 L82 75 L82 53 Z"
      /></clipPath
      ><clipPath clipPathUnits="userSpaceOnUse" id="clipPath9"
      ><path d="M30 53 L52 53 L52 75 L30 75 L30 53 Z"
      /></clipPath
    ></defs
    ><g style="fill:white; text-rendering:optimizeSpeed; stroke:white;"
    ><rect x="0" width="394" height="157" y="0" style="stroke:none;"
      /><polygon style="fill:none; stroke:black;" points=" 353 90 301 90"
      /><path d="M353 79 C347.5 84.5 358.5 95.5 353 101" style="fill:none; stroke:black;"
      /><polygon style="fill:none; stroke:black;" points=" 301 90 249 90"
      /><rect x="290" y="79" width="22" style="clip-path:url(#clipPath1); stroke:none;" height="22"
      /><rect x="290" y="79" width="22" style="clip-path:url(#clipPath1); fill:rgb(0,144,188); stroke:none;" height="22"
      /><rect x="290" y="79" width="22" style="clip-path:url(#clipPath1); fill:none; stroke:black;" height="22"
      /><rect x="290" y="79" width="22" style="fill:none; stroke:black;" height="22"
      /><polygon style="fill:none; stroke:black;" points=" 249 90 197 90"
      /><rect x="238" y="79" width="22" style="clip-path:url(#clipPath2); stroke:none;" height="22"
      /><rect x="238" y="79" width="22" style="clip-path:url(#clipPath2); fill:rgb(0,144,188); stroke:none;" height="22"
      /><rect x="238" y="79" width="22" style="clip-path:url(#clipPath2); fill:none; stroke:black;" height="22"
      /><rect x="238" y="79" width="22" style="fill:none; stroke:black;" height="22"
      /><polygon style="fill:none; stroke:black;" points=" 197 90 145 116"
      /><polygon style="fill:none; stroke:black;" points=" 197 90 145 64"
      /><circle style="clip-path:url(#clipPath3); stroke:none;" r="11" cx="197" cy="90"
      /><rect x="186" y="79" width="22" style="clip-path:url(#clipPath3); fill:rgb(0,166,81); stroke:none;" height="22"
      /><rect x="186" y="79" width="22" style="clip-path:url(#clipPath3); fill:none; stroke:black;" height="22"
      /><circle style="fill:none; stroke:black;" r="11" cx="197" cy="90"
      /><polygon style="fill:none; stroke:black;" points=" 145 116 93 116"
      /><circle style="clip-path:url(#clipPath4); stroke:none;" r="11" cx="145" cy="116"
      /><rect x="134" y="105" width="22" style="clip-path:url(#clipPath4); fill:rgb(0,166,81); stroke:none;" height="22"
      /><rect x="134" y="105" width="22" style="clip-path:url(#clipPath4); fill:none; stroke:black;" height="22"
      /><circle style="fill:none; stroke:black;" r="11" cx="145" cy="116"
      /><polygon style="fill:none; stroke:black;" points=" 93 116 41 116"
      /><rect x="82" y="105" width="22" style="clip-path:url(#clipPath5); stroke:none;" height="22"
      /><rect x="82" y="105" width="22" style="clip-path:url(#clipPath5); fill:rgb(0,144,188); stroke:none;" height="22"
      /><rect x="82" y="105" width="22" style="clip-path:url(#clipPath5); fill:none; stroke:black;" height="22"
      /><rect x="82" y="105" width="22" style="fill:none; stroke:black;" height="22"
      /><rect x="30" y="105" width="22" style="clip-path:url(#clipPath6); stroke:none;" height="22"
      /><rect x="30" y="105" width="22" style="clip-path:url(#clipPath6); fill:rgb(255,212,0); stroke:none;" height="22"
      /><rect x="30" y="105" width="22" style="clip-path:url(#clipPath6); fill:none; stroke:black;" height="22"
      /><rect x="30" y="105" width="22" style="fill:none; stroke:black;" height="22"
      /><rect x="70" y="119" width="7" style="stroke:none;" height="9"
    /></g
    ><g style="font-family:'Serif'; text-rendering:optimizeSpeed; "
    ><path style="stroke:none;" d="M71 124.5156 L73.9531 120.2656 L73.9531 124.5156 L71 124.5156 ZM76.2812 124.5156 L74.8594 124.5156 L74.8594 119.125 L74.2344 119.125 L70.3438 124.6406 L70.3438 125.1875 L73.9531 125.1875 L73.9531 128 L74.8594 128 L74.8594 125.1875 L76.2812 125.1875 L76.2812 124.5156 Z"
      /><rect x="57" y="117" width="6" style="fill:white; stroke:none;" height="13"
      /><path style="stroke:none;" d="M59.0938 123.2031 C59.0938 121.6562 59.75 120.8125 60.7969 120.8125 C61.7188 120.8125 62.2656 121.4531 62.2656 122.5156 C62.2656 123.7188 61.5 124.4375 60.1875 124.7031 L60.2969 125.3125 C62.2188 125.2344 62.9375 126.2188 62.9375 127.4375 C62.9375 128.625 62.2344 129.4219 60.9531 129.4219 C60.25 129.4219 59.6562 129.1562 59.0938 128.7188 L59.0938 123.2031 ZM58.2031 129.9062 L58.1094 132.375 L58.2656 132.4844 L59.1562 132.2656 L59.0156 129.0938 C59.5469 129.8438 60.3594 130.1719 61.1719 130.1719 C62.5625 130.1719 63.8594 129.2188 63.8594 127.4844 C63.8594 125.9531 62.875 125.1094 61.125 125 C62.5625 124.6094 63.1875 123.4531 63.1875 122.4844 C63.1875 121.0938 62.1562 120.3125 60.9062 120.3125 C59.2969 120.3125 58.2188 121.5469 58.2188 123.5156 L58.2031 129.9062 Z"
      /><rect x="123" y="119" width="6" style="fill:white; stroke:none;" height="9"
      /><path style="stroke:none;" d="M124.4219 127.0938 C125.0781 126.375 125.7031 125.7188 126.0312 125.3438 C127.9219 123.3125 128.5312 122.4688 128.5312 121.3594 C128.5312 120.0156 127.7812 119.0781 126.1562 119.0781 C124.9062 119.0781 123.7969 119.7031 123.5938 120.9688 C123.7188 121.2031 123.9062 121.3438 124.1562 121.3438 C124.4688 121.3438 124.6562 121.1094 124.7969 120.5938 L125.0938 119.6719 C125.3906 119.5938 125.6562 119.5625 125.8906 119.5625 C126.9219 119.5625 127.5469 120.3125 127.5469 121.4219 C127.5469 122.4375 126.9844 123.4219 125.7031 124.9062 C125.125 125.5781 124.3906 126.4375 123.6406 127.2812 L123.6406 128 L128.9219 128 L128.9219 127.0938 L124.4219 127.0938 Z"
      /><rect x="109" y="117" width="6" style="fill:white; stroke:none;" height="13"
      /><path style="stroke:none;" d="M111.0938 123.2031 C111.0938 121.6562 111.75 120.8125 112.7969 120.8125 C113.7188 120.8125 114.2656 121.4531 114.2656 122.5156 C114.2656 123.7188 113.5 124.4375 112.1875 124.7031 L112.2969 125.3125 C114.2188 125.2344 114.9375 126.2188 114.9375 127.4375 C114.9375 128.625 114.2344 129.4219 112.9531 129.4219 C112.25 129.4219 111.6562 129.1562 111.0938 128.7188 L111.0938 123.2031 ZM110.2031 129.9062 L110.1094 132.375 L110.2656 132.4844 L111.1562 132.2656 L111.0156 129.0938 C111.5469 129.8438 112.3594 130.1719 113.1719 130.1719 C114.5625 130.1719 115.8594 129.2188 115.8594 127.4844 C115.8594 125.9531 114.875 125.1094 113.125 125 C114.5625 124.6094 115.1875 123.4531 115.1875 122.4844 C115.1875 121.0938 114.1562 120.3125 112.9062 120.3125 C111.2969 120.3125 110.2188 121.5469 110.2188 123.5156 L110.2031 129.9062 Z"
      /><polygon style="fill:none;" points=" 145 64 93 64"
      /><circle style="fill:white; clip-path:url(#clipPath7); stroke:none;" r="11" cx="145" cy="64"
      /><rect x="134" y="53" width="22" style="clip-path:url(#clipPath7); fill:rgb(0,166,81); stroke:none;" height="22"
      /><rect x="134" y="53" width="22" style="fill:none; clip-path:url(#clipPath7);" height="22"
      /><circle r="11" style="fill:none;" cx="145" cy="64"
      /><polygon style="fill:none;" points=" 93 64 41 64"
      /><rect x="82" y="53" width="22" style="clip-path:url(#clipPath8); fill:white; stroke:none;" height="22"
      /><rect x="82" y="53" width="22" style="clip-path:url(#clipPath8); fill:rgb(0,144,188); stroke:none;" height="22"
      /><rect x="82" y="53" width="22" style="fill:none; clip-path:url(#clipPath8);" height="22"
      /><rect x="82" width="22" height="22" y="53" style="fill:none;"
      /><rect x="30" y="53" width="22" style="clip-path:url(#clipPath9); fill:white; stroke:none;" height="22"
      /><rect x="30" y="53" width="22" style="clip-path:url(#clipPath9); fill:rgb(255,212,0); stroke:none;" height="22"
      /><rect x="30" y="53" width="22" style="fill:none; clip-path:url(#clipPath9);" height="22"
      /><rect x="30" width="22" height="22" y="53" style="fill:none;"
    /></g
    ><g style="fill:white; text-rendering:optimizeSpeed; font-size:14px; font-family:'SansSerif'; stroke:white;"
    ><rect x="33" width="15" height="10" y="35" style="stroke:none;"
      /><path d="M34.6094 42.1562 L36.9531 38.6562 C37.2344 38.1406 37.5156 37.6406 37.7812 37.1406 L37.8281 37.1406 C37.7969 37.6719 37.7656 38.5 37.7656 39 L37.7656 42.1562 L34.6094 42.1562 ZM37.7656 46 L38.9688 46 L38.9688 43.1719 L40.3281 43.1719 L40.3281 42.1562 L38.9688 42.1562 L38.9688 35.7188 L37.5469 35.7188 L33.2812 42.3281 L33.2812 43.1719 L37.7656 43.1719 L37.7656 46 ZM45.02 46.1875 C47.1606 46.1875 48.5043 44.8906 48.5043 43.2656 C48.5043 41.75 47.5825 41.0469 46.395 40.5312 L44.9262 39.8906 C44.1293 39.5625 43.2387 39.1875 43.2387 38.1875 C43.2387 37.2656 43.9887 36.6719 45.145 36.6719 C46.0981 36.6719 46.8637 37.0469 47.4887 37.6406 L48.1762 36.8125 C47.4418 36.0625 46.3637 35.5469 45.145 35.5469 C43.2856 35.5469 41.9106 36.6875 41.9106 38.2656 C41.9106 39.7656 43.0512 40.5 44.0043 40.9062 L45.4887 41.5469 C46.4575 41.9844 47.1918 42.3125 47.1918 43.375 C47.1918 44.375 46.3793 45.0469 45.0356 45.0469 C43.9731 45.0469 42.9418 44.5469 42.2075 43.7812 L41.4262 44.6562 C42.3168 45.5938 43.5668 46.1875 45.02 46.1875 Z" style="fill:black; stroke:none;"
      /><rect x="70" width="7" height="9" y="67" style="stroke:none;"
    /></g
    ><g style="font-family:'Serif'; text-rendering:optimizeSpeed; "
    ><path style="stroke:none;" d="M71 72.5156 L73.9531 68.2656 L73.9531 72.5156 L71 72.5156 ZM76.2812 72.5156 L74.8594 72.5156 L74.8594 67.125 L74.2344 67.125 L70.3438 72.6406 L70.3438 73.1875 L73.9531 73.1875 L73.9531 76 L74.8594 76 L74.8594 73.1875 L76.2812 73.1875 L76.2812 72.5156 Z"
      /><rect x="57" y="65" width="6" style="fill:white; stroke:none;" height="13"
      /><path style="stroke:none;" d="M59.0938 71.2031 C59.0938 69.6562 59.75 68.8125 60.7969 68.8125 C61.7188 68.8125 62.2656 69.4531 62.2656 70.5156 C62.2656 71.7188 61.5 72.4375 60.1875 72.7031 L60.2969 73.3125 C62.2188 73.2344 62.9375 74.2188 62.9375 75.4375 C62.9375 76.625 62.2344 77.4219 60.9531 77.4219 C60.25 77.4219 59.6562 77.1562 59.0938 76.7188 L59.0938 71.2031 ZM58.2031 77.9062 L58.1094 80.375 L58.2656 80.4844 L59.1562 80.2656 L59.0156 77.0938 C59.5469 77.8438 60.3594 78.1719 61.1719 78.1719 C62.5625 78.1719 63.8594 77.2188 63.8594 75.4844 C63.8594 73.9531 62.875 73.1094 61.125 73 C62.5625 72.6094 63.1875 71.4531 63.1875 70.4844 C63.1875 69.0938 62.1562 68.3125 60.9062 68.3125 C59.2969 68.3125 58.2188 69.5469 58.2188 71.5156 L58.2031 77.9062 Z"
      /><rect x="123" y="67" width="6" style="fill:white; stroke:none;" height="9"
      /><path style="stroke:none;" d="M124.4219 75.0938 C125.0781 74.375 125.7031 73.7188 126.0312 73.3438 C127.9219 71.3125 128.5312 70.4688 128.5312 69.3594 C128.5312 68.0156 127.7812 67.0781 126.1562 67.0781 C124.9062 67.0781 123.7969 67.7031 123.5938 68.9688 C123.7188 69.2031 123.9062 69.3438 124.1562 69.3438 C124.4688 69.3438 124.6562 69.1094 124.7969 68.5938 L125.0938 67.6719 C125.3906 67.5938 125.6562 67.5625 125.8906 67.5625 C126.9219 67.5625 127.5469 68.3125 127.5469 69.4219 C127.5469 70.4375 126.9844 71.4219 125.7031 72.9062 C125.125 73.5781 124.3906 74.4375 123.6406 75.2812 L123.6406 76 L128.9219 76 L128.9219 75.0938 L124.4219 75.0938 Z"
      /><rect x="109" y="65" width="6" style="fill:white; stroke:none;" height="13"
      /><path style="stroke:none;" d="M111.0938 71.2031 C111.0938 69.6562 111.75 68.8125 112.7969 68.8125 C113.7188 68.8125 114.2656 69.4531 114.2656 70.5156 C114.2656 71.7188 113.5 72.4375 112.1875 72.7031 L112.2969 73.3125 C114.2188 73.2344 114.9375 74.2188 114.9375 75.4375 C114.9375 76.625 114.2344 77.4219 112.9531 77.4219 C112.25 77.4219 111.6562 77.1562 111.0938 76.7188 L111.0938 71.2031 ZM110.2031 77.9062 L110.1094 80.375 L110.2656 80.4844 L111.1562 80.2656 L111.0156 77.0938 C111.5469 77.8438 112.3594 78.1719 113.1719 78.1719 C114.5625 78.1719 115.8594 77.2188 115.8594 75.4844 C115.8594 73.9531 114.875 73.1094 113.125 73 C114.5625 72.6094 115.1875 71.4531 115.1875 70.4844 C115.1875 69.0938 114.1562 68.3125 112.9062 68.3125 C111.2969 68.3125 110.2188 69.5469 110.2188 71.5156 L110.2031 77.9062 Z"
      /><rect x="179" y="101" width="6" style="fill:white; stroke:none;" height="10"
      /><path style="stroke:none;" d="M181.2344 102.6562 C181.5156 102.5938 181.7656 102.5625 182.0156 102.5625 C183.0625 102.5625 183.6719 103.1719 183.6719 104.2656 C183.6719 105.4375 182.9062 106.1094 181.7031 106.1094 L181.1875 106.1094 L181.1875 106.6406 L181.7969 106.6406 C183.2188 106.6406 183.9062 107.4219 183.9062 108.6406 C183.9062 109.8438 183.1719 110.6875 181.875 110.6875 C181.6094 110.6875 181.3125 110.6562 181.0156 110.5625 L180.7812 109.8125 C180.625 109.2812 180.5 109.0469 180.1406 109.0469 C179.8906 109.0469 179.7031 109.1719 179.5781 109.4219 C179.8438 110.6406 180.7812 111.1719 182.0312 111.1719 C183.7188 111.1719 184.875 110.125 184.875 108.7031 C184.875 107.5 184.2031 106.625 182.7969 106.375 C183.9531 106.0156 184.6094 105.2031 184.6094 104.2031 C184.6094 102.9219 183.6719 102.0781 182.1875 102.0781 C181.0469 102.0781 180.0625 102.5938 179.7969 103.6875 C179.9062 104 180.1094 104.1094 180.3594 104.1094 C180.7344 104.1094 180.8906 103.8906 181 103.4062 L181.2344 102.6562 Z"
      /><rect x="162" y="110" width="8" style="fill:white; stroke:none;" height="8"
      /><path style="stroke:none;" d="M166.9844 115.7031 C166.9375 116.8906 166.1562 117.6562 165.3125 117.6562 C164.2656 117.6562 163.5 116.6875 163.5 114.7188 C163.5 113.2812 164.1562 112.1562 165.3438 112.1562 C166.1406 112.1562 166.7812 112.6875 167.0938 113.6406 L166.9844 115.7031 ZM168.9062 117.2812 C168.7344 117.375 168.5469 117.4219 168.3438 117.4219 C167.9531 117.4219 167.75 117.2188 167.75 116.4219 C167.75 115.4844 167.9688 113.5312 168.1875 111.8281 L168.0312 111.7188 L167.2344 111.9219 L167.1406 112.7969 C166.7812 112.0312 166.1562 111.6562 165.3906 111.6562 C164.0469 111.6562 162.5625 112.8438 162.5625 114.9531 C162.5625 117.0938 163.7188 118.1719 165.1406 118.1719 C166.0156 118.1719 166.6875 117.8125 167.0938 116.9844 C167.2031 117.8594 167.5156 118.1719 168.0156 118.1719 C168.4688 118.1719 168.7969 117.9062 169.0156 117.5625 L168.9062 117.2812 Z"
      /><rect x="172" y="83" width="6" style="fill:white; stroke:none;" height="10"
      /><path style="stroke:none;" d="M175.3438 92.6875 C174.2031 92.6875 173.5312 91.5 173.5312 89.2969 C173.5312 89.2188 173.5312 89.125 173.5312 89.0469 C174.0938 88.5 174.7188 88.3125 175.3438 88.3125 C176.3125 88.3125 176.9531 88.9844 176.9531 90.4531 C176.9531 91.9375 176.3125 92.6875 175.3438 92.6875 ZM177.5312 84.0781 C174.3438 84.4531 172.5625 86.7656 172.5625 89.4531 C172.5625 91.7812 173.6094 93.1719 175.3125 93.1719 C176.8438 93.1719 177.9219 92.1094 177.9219 90.2812 C177.9219 88.6875 176.9688 87.6562 175.5625 87.6562 C174.8281 87.6562 174.1406 87.9844 173.5781 88.5781 C173.7969 86.4062 175.0781 84.9688 177.5938 84.3906 L177.5312 84.0781 Z"
      /><rect x="155" y="76" width="8" style="fill:white; stroke:none;" height="8"
      /><path style="stroke:none;" d="M159.9844 81.7031 C159.9375 82.8906 159.1562 83.6562 158.3125 83.6562 C157.2656 83.6562 156.5 82.6875 156.5 80.7188 C156.5 79.2812 157.1562 78.1562 158.3438 78.1562 C159.1406 78.1562 159.7812 78.6875 160.0938 79.6406 L159.9844 81.7031 ZM161.9062 83.2812 C161.7344 83.375 161.5469 83.4219 161.3438 83.4219 C160.9531 83.4219 160.75 83.2188 160.75 82.4219 C160.75 81.4844 160.9688 79.5312 161.1875 77.8281 L161.0312 77.7188 L160.2344 77.9219 L160.1406 78.7969 C159.7812 78.0312 159.1562 77.6562 158.3906 77.6562 C157.0469 77.6562 155.5625 78.8438 155.5625 80.9531 C155.5625 83.0938 156.7188 84.1719 158.1406 84.1719 C159.0156 84.1719 159.6875 83.8125 160.0938 82.9844 C160.2031 83.8594 160.5156 84.1719 161.0156 84.1719 C161.4688 84.1719 161.7969 83.9062 162.0156 83.5625 L161.9062 83.2812 Z"
      /><rect x="226" y="93" width="7" style="fill:white; stroke:none;" height="9"
      /><path style="stroke:none;" d="M227 98.5156 L229.9531 94.2656 L229.9531 98.5156 L227 98.5156 ZM232.2812 98.5156 L230.8594 98.5156 L230.8594 93.125 L230.2344 93.125 L226.3438 98.6406 L226.3438 99.1875 L229.9531 99.1875 L229.9531 102 L230.8594 102 L230.8594 99.1875 L232.2812 99.1875 L232.2812 98.5156 Z"
      /><rect x="213" y="91" width="6" style="fill:white; stroke:none;" height="13"
      /><path style="stroke:none;" d="M215.0938 97.2031 C215.0938 95.6562 215.75 94.8125 216.7969 94.8125 C217.7188 94.8125 218.2656 95.4531 218.2656 96.5156 C218.2656 97.7188 217.5 98.4375 216.1875 98.7031 L216.2969 99.3125 C218.2188 99.2344 218.9375 100.2188 218.9375 101.4375 C218.9375 102.625 218.2344 103.4219 216.9531 103.4219 C216.25 103.4219 215.6562 103.1562 215.0938 102.7188 L215.0938 97.2031 ZM214.2031 103.9062 L214.1094 106.375 L214.2656 106.4844 L215.1562 106.2656 L215.0156 103.0938 C215.5469 103.8438 216.3594 104.1719 217.1719 104.1719 C218.5625 104.1719 219.8594 103.2188 219.8594 101.4844 C219.8594 99.9531 218.875 99.1094 217.125 99 C218.5625 98.6094 219.1875 97.4531 219.1875 96.4844 C219.1875 95.0938 218.1562 94.3125 216.9062 94.3125 C215.2969 94.3125 214.2188 95.5469 214.2188 97.5156 L214.2031 103.9062 Z"
      /><rect x="278" y="93" width="7" style="fill:white; stroke:none;" height="9"
      /><path style="stroke:none;" d="M279 98.5156 L281.9531 94.2656 L281.9531 98.5156 L279 98.5156 ZM284.2812 98.5156 L282.8594 98.5156 L282.8594 93.125 L282.2344 93.125 L278.3438 98.6406 L278.3438 99.1875 L281.9531 99.1875 L281.9531 102 L282.8594 102 L282.8594 99.1875 L284.2812 99.1875 L284.2812 98.5156 Z"
      /><rect x="265" y="91" width="6" style="fill:white; stroke:none;" height="13"
      /><path style="stroke:none;" d="M267.0938 97.2031 C267.0938 95.6562 267.75 94.8125 268.7969 94.8125 C269.7188 94.8125 270.2656 95.4531 270.2656 96.5156 C270.2656 97.7188 269.5 98.4375 268.1875 98.7031 L268.2969 99.3125 C270.2188 99.2344 270.9375 100.2188 270.9375 101.4375 C270.9375 102.625 270.2344 103.4219 268.9531 103.4219 C268.25 103.4219 267.6562 103.1562 267.0938 102.7188 L267.0938 97.2031 ZM266.2031 103.9062 L266.1094 106.375 L266.2656 106.4844 L267.1562 106.2656 L267.0156 103.0938 C267.5469 103.8438 268.3594 104.1719 269.1719 104.1719 C270.5625 104.1719 271.8594 103.2188 271.8594 101.4844 C271.8594 99.9531 270.875 99.1094 269.125 99 C270.5625 98.6094 271.1875 97.4531 271.1875 96.4844 C271.1875 95.0938 270.1562 94.3125 268.9062 94.3125 C267.2969 94.3125 266.2188 95.5469 266.2188 97.5156 L266.2031 103.9062 Z"
      /><rect x="317" y="93" width="5" style="fill:white; stroke:none;" height="10"
      /><path style="stroke:none;" d="M318.8906 101.6875 C318.4844 101.6875 318.1562 102.0469 318.1562 102.4219 C318.1562 102.8125 318.4844 103.1562 318.8906 103.1562 C319.2969 103.1562 319.6406 102.8125 319.6406 102.4219 C319.6406 102.0469 319.2969 101.6875 318.8906 101.6875 ZM320.4688 95.5781 C320.7188 95.8906 320.875 96.2656 320.8906 96.6562 C320.8906 97.1875 320.625 97.5 320.0312 97.7656 L319.4062 98.0156 C318.6406 98.3125 318.3906 98.5469 318.3906 98.9375 C318.3906 99.1094 318.4531 99.3438 318.5781 99.8125 L318.7344 100.3438 L319.1094 100.3438 L319.0938 99.5312 C319.0938 99.0938 319.2031 98.9688 319.7812 98.7344 L320.2031 98.5625 C321.0312 98.2188 321.4531 97.6875 321.4531 96.8438 C321.4531 95.1562 319.6562 94.1875 318.5 94.0312 C318.1094 94.125 317.9062 94.2969 317.9062 94.6406 C317.9062 94.9375 318.0625 95.1562 318.7188 95.2656 L320.4688 95.5781 Z"
    /></g
  ></g
></svg
>
