<?xml version="1.0"?>
<!DOCTYPE svg PUBLIC '-//W3C//DTD SVG 1.0//EN'
          'http://www.w3.org/TR/2001/REC-SVG-20010904/DTD/svg10.dtd'>
<svg xmlns:xlink="http://www.w3.org/1999/xlink" style="fill-opacity:1; color-rendering:auto; color-interpolation:auto; text-rendering:auto; stroke:black; stroke-linecap:square; stroke-miterlimit:10; shape-rendering:auto; stroke-opacity:1; fill:black; stroke-dasharray:none; font-weight:normal; stroke-width:1; font-family:'Dialog'; font-style:normal; stroke-linejoin:miter; font-size:12px; stroke-dashoffset:0; image-rendering:auto;" viewBox="0 0 507 238" xmlns="http://www.w3.org/2000/svg"
><!--Generated by the Batik Graphics2D SVG Generator--><defs id="genericDefs"
  /><g
  ><defs id="defs1"
    ><clipPath clipPathUnits="userSpaceOnUse" id="clipPath1"
      ><path d="M403 108 L425 108 L425 130 L403 130 L403 108 Z"
      /></clipPath
      ><clipPath clipPathUnits="userSpaceOnUse" id="clipPath2"
      ><path d="M351 108 L373 108 L373 130 L351 130 L351 108 Z"
      /></clipPath
      ><clipPath clipPathUnits="userSpaceOnUse" id="clipPath3"
      ><path d="M321 119 C321 125.0751 316.0751 130 310 130 C303.9249 130 299 125.0751 299 119 C299 112.9249 303.9249 108 310 108 C316.0751 108 321 112.9249 321 119 Z"
      /></clipPath
      ><clipPath clipPathUnits="userSpaceOnUse" id="clipPath4"
      ><path d="M269 171 C269 177.0751 264.0751 182 258 182 C251.9249 182 247 177.0751 247 171 C247 164.9249 251.9249 160 258 160 C264.0751 160 269 164.9249 269 171 Z"
      /></clipPath
      ><clipPath clipPathUnits="userSpaceOnUse" id="clipPath5"
      ><path d="M195 186 L217 186 L217 208 L195 208 L195 186 Z"
      /></clipPath
      ><clipPath clipPathUnits="userSpaceOnUse" id="clipPath6"
      ><path d="M165 197 C165 203.0751 160.0751 208 154 208 C147.9249 208 143 203.0751 143 197 C143 190.9249 147.9249 186 154 186 C160.0751 186 165 190.9249 165 197 Z"
      /></clipPath
      ><clipPath clipPathUnits="userSpaceOnUse" id="clipPath7"
      ><path d="M195 134 L217 134 L217 156 L195 156 L195 134 Z"
      /></clipPath
      ><clipPath clipPathUnits="userSpaceOnUse" id="clipPath8"
      ><path d="M165 145 C165 151.0751 160.0751 156 154 156 C147.9249 156 143 151.0751 143 145 C143 138.9249 147.9249 134 154 134 C160.0751 134 165 138.9249 165 145 Z"
      /></clipPath
      ><clipPath clipPathUnits="userSpaceOnUse" id="clipPath9"
      ><path d="M269 67 C269 73.0751 264.0751 78 258 78 C251.9249 78 247 73.0751 247 67 C247 60.9249 251.9249 56 258 56 C264.0751 56 269 60.9249 269 67 Z"
      /></clipPath
      ><clipPath clipPathUnits="userSpaceOnUse" id="clipPath10"
      ><path d="M195 82 L217 82 L217 104 L195 104 L195 82 Z"
      /></clipPath
      ><clipPath clipPathUnits="userSpaceOnUse" id="clipPath11"
      ><path d="M165 93 C165 99.0751 160.0751 104 154 104 C147.9249 104 143 99.0751 143 93 C143 86.9249 147.9249 82 154 82 C160.0751 82 165 86.9249 165 93 Z"
      /></clipPath
      ><clipPath clipPathUnits="userSpaceOnUse" id="clipPath12"
      ><path d="M195 30 L217 30 L217 52 L195 52 L195 30 Z"
      /></clipPath
      ><clipPath clipPathUnits="userSpaceOnUse" id="clipPath13"
      ><path d="M165 41 C165 47.0751 160.0751 52 154 52 C147.9249 52 143 47.0751 143 41 C143 34.9249 147.9249 30 154 30 C160.0751 30 165 34.9249 165 41 Z"
      /></clipPath
      ><clipPath clipPathUnits="userSpaceOnUse" id="clipPath14"
      ><path style="fill-rule:evenodd;" d="M58 134 L69 145 L58 156 L47 145 Z"
      /></clipPath
      ><clipPath clipPathUnits="userSpaceOnUse" id="clipPath15"
      ><path d="M69 93 C69 99.0751 64.0751 104 58 104 C51.9249 104 47 99.0751 47 93 C47 86.9249 51.9249 82 58 82 C64.0751 82 69 86.9249 69 93 Z"
      /></clipPath
    ></defs
    ><g style="fill:white; text-rendering:optimizeSpeed; stroke:white;"
    ><rect x="0" width="507" height="238" y="0" style="stroke:none;"
      /><polygon style="fill:none; stroke:black;" points=" 466 119 414 119"
      /><path d="M466 108 C460.5 113.5 471.5 124.5 466 130" style="fill:none; stroke:black;"
      /><polygon style="fill:none; stroke:black;" points=" 414 119 362 119"
      /><rect x="403" y="108" width="22" style="clip-path:url(#clipPath1); stroke:none;" height="22"
      /><rect x="403" y="108" width="22" style="clip-path:url(#clipPath1); fill:rgb(0,144,188); stroke:none;" height="22"
      /><rect x="403" y="108" width="22" style="clip-path:url(#clipPath1); fill:none; stroke:black;" height="22"
      /><rect x="403" y="108" width="22" style="fill:none; stroke:black;" height="22"
      /><polygon style="fill:none; stroke:black;" points=" 362 119 310 119"
      /><rect x="351" y="108" width="22" style="clip-path:url(#clipPath2); stroke:none;" height="22"
      /><rect x="351" y="108" width="22" style="clip-path:url(#clipPath2); fill:rgb(0,144,188); stroke:none;" height="22"
      /><rect x="351" y="108" width="22" style="clip-path:url(#clipPath2); fill:none; stroke:black;" height="22"
      /><rect x="351" y="108" width="22" style="fill:none; stroke:black;" height="22"
      /><polygon style="fill:none; stroke:black;" points=" 310 119 258 171"
      /><polygon style="fill:none; stroke:black;" points=" 310 119 258 67"
      /><circle style="clip-path:url(#clipPath3); stroke:none;" r="11" cx="310" cy="119"
      /><rect x="299" y="108" width="22" style="clip-path:url(#clipPath3); fill:rgb(0,166,81); stroke:none;" height="22"
      /><rect x="299" y="108" width="22" style="clip-path:url(#clipPath3); fill:none; stroke:black;" height="22"
      /><circle style="fill:none; stroke:black;" r="11" cx="310" cy="119"
      /><polygon style="fill:none; stroke:black;" points=" 258 171 206 197"
      /><polygon style="fill:none; stroke:black;" points=" 258 171 206 145"
      /><circle style="clip-path:url(#clipPath4); stroke:none;" r="11" cx="258" cy="171"
      /><rect x="247" y="160" width="22" style="clip-path:url(#clipPath4); fill:rgb(0,166,81); stroke:none;" height="22"
      /><rect x="247" y="160" width="22" style="clip-path:url(#clipPath4); fill:none; stroke:black;" height="22"
      /><circle style="fill:none; stroke:black;" r="11" cx="258" cy="171"
      /><polygon style="fill:none; stroke:black;" points=" 206 197 154 197"
      /><rect x="195" y="186" width="22" style="clip-path:url(#clipPath5); stroke:none;" height="22"
      /><rect x="195" y="186" width="22" style="clip-path:url(#clipPath5); fill:rgb(0,144,188); stroke:none;" height="22"
      /><rect x="195" y="186" width="22" style="clip-path:url(#clipPath5); fill:none; stroke:black;" height="22"
      /><rect x="195" y="186" width="22" style="fill:none; stroke:black;" height="22"
      /><circle style="clip-path:url(#clipPath6); stroke:none;" r="11" cx="154" cy="197"
      /><rect x="143" y="186" width="22" style="clip-path:url(#clipPath6); fill:rgb(255,212,0); stroke:none;" height="22"
      /><rect x="143" y="186" width="22" style="clip-path:url(#clipPath6); fill:none; stroke:black;" height="22"
      /><circle style="fill:none; stroke:black;" r="11" cx="154" cy="197"
      /><rect x="184" y="200" width="5" style="stroke:none;" height="10"
    /></g
    ><g style="font-family:'Serif'; text-rendering:optimizeSpeed; "
    ><path style="stroke:none;" d="M185.8906 208.6875 C185.4844 208.6875 185.1562 209.0469 185.1562 209.4219 C185.1562 209.8125 185.4844 210.1562 185.8906 210.1562 C186.2969 210.1562 186.6406 209.8125 186.6406 209.4219 C186.6406 209.0469 186.2969 208.6875 185.8906 208.6875 ZM187.4688 202.5781 C187.7188 202.8906 187.875 203.2656 187.8906 203.6562 C187.8906 204.1875 187.625 204.5 187.0312 204.7656 L186.4062 205.0156 C185.6406 205.3125 185.3906 205.5469 185.3906 205.9375 C185.3906 206.1094 185.4531 206.3438 185.5781 206.8125 L185.7344 207.3438 L186.1094 207.3438 L186.0938 206.5312 C186.0938 206.0938 186.2031 205.9688 186.7812 205.7344 L187.2031 205.5625 C188.0312 205.2188 188.4531 204.6875 188.4531 203.8438 C188.4531 202.1562 186.6562 201.1875 185.5 201.0312 C185.1094 201.125 184.9062 201.2969 184.9062 201.6406 C184.9062 201.9375 185.0625 202.1562 185.7188 202.2656 L187.4688 202.5781 Z"
      /><rect x="170" y="200" width="5" style="fill:white; stroke:none;" height="10"
      /><path style="stroke:none;" d="M171.8906 208.6875 C171.4844 208.6875 171.1562 209.0469 171.1562 209.4219 C171.1562 209.8125 171.4844 210.1562 171.8906 210.1562 C172.2969 210.1562 172.6406 209.8125 172.6406 209.4219 C172.6406 209.0469 172.2969 208.6875 171.8906 208.6875 ZM173.4688 202.5781 C173.7188 202.8906 173.875 203.2656 173.8906 203.6562 C173.8906 204.1875 173.625 204.5 173.0312 204.7656 L172.4062 205.0156 C171.6406 205.3125 171.3906 205.5469 171.3906 205.9375 C171.3906 206.1094 171.4531 206.3438 171.5781 206.8125 L171.7344 207.3438 L172.1094 207.3438 L172.0938 206.5312 C172.0938 206.0938 172.2031 205.9688 172.7812 205.7344 L173.2031 205.5625 C174.0312 205.2188 174.4531 204.6875 174.4531 203.8438 C174.4531 202.1562 172.6562 201.1875 171.5 201.0312 C171.1094 201.125 170.9062 201.2969 170.9062 201.6406 C170.9062 201.9375 171.0625 202.1562 171.7188 202.2656 L173.4688 202.5781 Z"
      /><polygon style="fill:none;" points=" 206 145 154 145"
      /><rect x="195" y="134" width="22" style="clip-path:url(#clipPath7); fill:white; stroke:none;" height="22"
      /><rect x="195" y="134" width="22" style="clip-path:url(#clipPath7); fill:rgb(0,144,188); stroke:none;" height="22"
      /><rect x="195" y="134" width="22" style="fill:none; clip-path:url(#clipPath7);" height="22"
      /><rect x="195" width="22" height="22" y="134" style="fill:none;"
      /><circle style="fill:white; clip-path:url(#clipPath8); stroke:none;" r="11" cx="154" cy="145"
      /><rect x="143" y="134" width="22" style="clip-path:url(#clipPath8); fill:rgb(255,212,0); stroke:none;" height="22"
      /><rect x="143" y="134" width="22" style="fill:none; clip-path:url(#clipPath8);" height="22"
      /><circle r="11" style="fill:none;" cx="154" cy="145"
      /><rect x="184" y="148" width="5" style="fill:white; stroke:none;" height="10"
      /><path style="stroke:none;" d="M185.8906 156.6875 C185.4844 156.6875 185.1562 157.0469 185.1562 157.4219 C185.1562 157.8125 185.4844 158.1562 185.8906 158.1562 C186.2969 158.1562 186.6406 157.8125 186.6406 157.4219 C186.6406 157.0469 186.2969 156.6875 185.8906 156.6875 ZM187.4688 150.5781 C187.7188 150.8906 187.875 151.2656 187.8906 151.6562 C187.8906 152.1875 187.625 152.5 187.0312 152.7656 L186.4062 153.0156 C185.6406 153.3125 185.3906 153.5469 185.3906 153.9375 C185.3906 154.1094 185.4531 154.3438 185.5781 154.8125 L185.7344 155.3438 L186.1094 155.3438 L186.0938 154.5312 C186.0938 154.0938 186.2031 153.9688 186.7812 153.7344 L187.2031 153.5625 C188.0312 153.2188 188.4531 152.6875 188.4531 151.8438 C188.4531 150.1562 186.6562 149.1875 185.5 149.0312 C185.1094 149.125 184.9062 149.2969 184.9062 149.6406 C184.9062 149.9375 185.0625 150.1562 185.7188 150.2656 L187.4688 150.5781 Z"
      /><rect x="170" y="148" width="5" style="fill:white; stroke:none;" height="10"
      /><path style="stroke:none;" d="M171.8906 156.6875 C171.4844 156.6875 171.1562 157.0469 171.1562 157.4219 C171.1562 157.8125 171.4844 158.1562 171.8906 158.1562 C172.2969 158.1562 172.6406 157.8125 172.6406 157.4219 C172.6406 157.0469 172.2969 156.6875 171.8906 156.6875 ZM173.4688 150.5781 C173.7188 150.8906 173.875 151.2656 173.8906 151.6562 C173.8906 152.1875 173.625 152.5 173.0312 152.7656 L172.4062 153.0156 C171.6406 153.3125 171.3906 153.5469 171.3906 153.9375 C171.3906 154.1094 171.4531 154.3438 171.5781 154.8125 L171.7344 155.3438 L172.1094 155.3438 L172.0938 154.5312 C172.0938 154.0938 172.2031 153.9688 172.7812 153.7344 L173.2031 153.5625 C174.0312 153.2188 174.4531 152.6875 174.4531 151.8438 C174.4531 150.1562 172.6562 149.1875 171.5 149.0312 C171.1094 149.125 170.9062 149.2969 170.9062 149.6406 C170.9062 149.9375 171.0625 150.1562 171.7188 150.2656 L173.4688 150.5781 Z"
      /><rect x="240" y="182" width="5" style="fill:white; stroke:none;" height="10"
      /><path style="stroke:none;" d="M241.8906 190.6875 C241.4844 190.6875 241.1562 191.0469 241.1562 191.4219 C241.1562 191.8125 241.4844 192.1562 241.8906 192.1562 C242.2969 192.1562 242.6406 191.8125 242.6406 191.4219 C242.6406 191.0469 242.2969 190.6875 241.8906 190.6875 ZM243.4688 184.5781 C243.7188 184.8906 243.875 185.2656 243.8906 185.6562 C243.8906 186.1875 243.625 186.5 243.0312 186.7656 L242.4062 187.0156 C241.6406 187.3125 241.3906 187.5469 241.3906 187.9375 C241.3906 188.1094 241.4531 188.3438 241.5781 188.8125 L241.7344 189.3438 L242.1094 189.3438 L242.0938 188.5312 C242.0938 188.0938 242.2031 187.9688 242.7812 187.7344 L243.2031 187.5625 C244.0312 187.2188 244.4531 186.6875 244.4531 185.8438 C244.4531 184.1562 242.6562 183.1875 241.5 183.0312 C241.1094 183.125 240.9062 183.2969 240.9062 183.6406 C240.9062 183.9375 241.0625 184.1562 241.7188 184.2656 L243.4688 184.5781 Z"
      /><rect x="225" y="190" width="5" style="fill:white; stroke:none;" height="10"
      /><path style="stroke:none;" d="M226.8906 198.6875 C226.4844 198.6875 226.1562 199.0469 226.1562 199.4219 C226.1562 199.8125 226.4844 200.1562 226.8906 200.1562 C227.2969 200.1562 227.6406 199.8125 227.6406 199.4219 C227.6406 199.0469 227.2969 198.6875 226.8906 198.6875 ZM228.4688 192.5781 C228.7188 192.8906 228.875 193.2656 228.8906 193.6562 C228.8906 194.1875 228.625 194.5 228.0312 194.7656 L227.4062 195.0156 C226.6406 195.3125 226.3906 195.5469 226.3906 195.9375 C226.3906 196.1094 226.4531 196.3438 226.5781 196.8125 L226.7344 197.3438 L227.1094 197.3438 L227.0938 196.5312 C227.0938 196.0938 227.2031 195.9688 227.7812 195.7344 L228.2031 195.5625 C229.0312 195.2188 229.4531 194.6875 229.4531 193.8438 C229.4531 192.1562 227.6562 191.1875 226.5 191.0312 C226.1094 191.125 225.9062 191.2969 225.9062 191.6406 C225.9062 191.9375 226.0625 192.1562 226.7188 192.2656 L228.4688 192.5781 Z"
      /><rect x="233" y="164" width="5" style="fill:white; stroke:none;" height="10"
      /><path style="stroke:none;" d="M234.8906 172.6875 C234.4844 172.6875 234.1562 173.0469 234.1562 173.4219 C234.1562 173.8125 234.4844 174.1562 234.8906 174.1562 C235.2969 174.1562 235.6406 173.8125 235.6406 173.4219 C235.6406 173.0469 235.2969 172.6875 234.8906 172.6875 ZM236.4688 166.5781 C236.7188 166.8906 236.875 167.2656 236.8906 167.6562 C236.8906 168.1875 236.625 168.5 236.0312 168.7656 L235.4062 169.0156 C234.6406 169.3125 234.3906 169.5469 234.3906 169.9375 C234.3906 170.1094 234.4531 170.3438 234.5781 170.8125 L234.7344 171.3438 L235.1094 171.3438 L235.0938 170.5312 C235.0938 170.0938 235.2031 169.9688 235.7812 169.7344 L236.2031 169.5625 C237.0312 169.2188 237.4531 168.6875 237.4531 167.8438 C237.4531 166.1562 235.6562 165.1875 234.5 165.0312 C234.1094 165.125 233.9062 165.2969 233.9062 165.6406 C233.9062 165.9375 234.0625 166.1562 234.7188 166.2656 L236.4688 166.5781 Z"
      /><rect x="218" y="156" width="5" style="fill:white; stroke:none;" height="10"
      /><path style="stroke:none;" d="M219.8906 164.6875 C219.4844 164.6875 219.1562 165.0469 219.1562 165.4219 C219.1562 165.8125 219.4844 166.1562 219.8906 166.1562 C220.2969 166.1562 220.6406 165.8125 220.6406 165.4219 C220.6406 165.0469 220.2969 164.6875 219.8906 164.6875 ZM221.4688 158.5781 C221.7188 158.8906 221.875 159.2656 221.8906 159.6562 C221.8906 160.1875 221.625 160.5 221.0312 160.7656 L220.4062 161.0156 C219.6406 161.3125 219.3906 161.5469 219.3906 161.9375 C219.3906 162.1094 219.4531 162.3438 219.5781 162.8125 L219.7344 163.3438 L220.1094 163.3438 L220.0938 162.5312 C220.0938 162.0938 220.2031 161.9688 220.7812 161.7344 L221.2031 161.5625 C222.0312 161.2188 222.4531 160.6875 222.4531 159.8438 C222.4531 158.1562 220.6562 157.1875 219.5 157.0312 C219.1094 157.125 218.9062 157.2969 218.9062 157.6406 C218.9062 157.9375 219.0625 158.1562 219.7188 158.2656 L221.4688 158.5781 Z"
      /><polygon style="fill:none;" points=" 258 67 206 93"
      /><polygon style="fill:none;" points=" 258 67 206 41"
      /><circle style="fill:white; clip-path:url(#clipPath9); stroke:none;" r="11" cx="258" cy="67"
      /><rect x="247" y="56" width="22" style="clip-path:url(#clipPath9); fill:rgb(0,166,81); stroke:none;" height="22"
      /><rect x="247" y="56" width="22" style="fill:none; clip-path:url(#clipPath9);" height="22"
      /><circle r="11" style="fill:none;" cx="258" cy="67"
      /><polygon style="fill:none;" points=" 206 93 154 93"
      /><rect x="195" y="82" width="22" style="clip-path:url(#clipPath10); fill:white; stroke:none;" height="22"
      /><rect x="195" y="82" width="22" style="clip-path:url(#clipPath10); fill:rgb(0,144,188); stroke:none;" height="22"
      /><rect x="195" y="82" width="22" style="fill:none; clip-path:url(#clipPath10);" height="22"
      /><rect x="195" width="22" height="22" y="82" style="fill:none;"
      /><circle style="fill:white; clip-path:url(#clipPath11); stroke:none;" r="11" cx="154" cy="93"
      /><rect x="143" y="82" width="22" style="clip-path:url(#clipPath11); fill:rgb(255,212,0); stroke:none;" height="22"
      /><rect x="143" y="82" width="22" style="fill:none; clip-path:url(#clipPath11);" height="22"
      /><circle r="11" style="fill:none;" cx="154" cy="93"
      /><rect x="184" y="96" width="5" style="fill:white; stroke:none;" height="10"
      /><path style="stroke:none;" d="M185.8906 104.6875 C185.4844 104.6875 185.1562 105.0469 185.1562 105.4219 C185.1562 105.8125 185.4844 106.1562 185.8906 106.1562 C186.2969 106.1562 186.6406 105.8125 186.6406 105.4219 C186.6406 105.0469 186.2969 104.6875 185.8906 104.6875 ZM187.4688 98.5781 C187.7188 98.8906 187.875 99.2656 187.8906 99.6562 C187.8906 100.1875 187.625 100.5 187.0312 100.7656 L186.4062 101.0156 C185.6406 101.3125 185.3906 101.5469 185.3906 101.9375 C185.3906 102.1094 185.4531 102.3438 185.5781 102.8125 L185.7344 103.3438 L186.1094 103.3438 L186.0938 102.5312 C186.0938 102.0938 186.2031 101.9688 186.7812 101.7344 L187.2031 101.5625 C188.0312 101.2188 188.4531 100.6875 188.4531 99.8438 C188.4531 98.1562 186.6562 97.1875 185.5 97.0312 C185.1094 97.125 184.9062 97.2969 184.9062 97.6406 C184.9062 97.9375 185.0625 98.1562 185.7188 98.2656 L187.4688 98.5781 Z"
      /><rect x="170" y="96" width="5" style="fill:white; stroke:none;" height="10"
      /><path style="stroke:none;" d="M171.8906 104.6875 C171.4844 104.6875 171.1562 105.0469 171.1562 105.4219 C171.1562 105.8125 171.4844 106.1562 171.8906 106.1562 C172.2969 106.1562 172.6406 105.8125 172.6406 105.4219 C172.6406 105.0469 172.2969 104.6875 171.8906 104.6875 ZM173.4688 98.5781 C173.7188 98.8906 173.875 99.2656 173.8906 99.6562 C173.8906 100.1875 173.625 100.5 173.0312 100.7656 L172.4062 101.0156 C171.6406 101.3125 171.3906 101.5469 171.3906 101.9375 C171.3906 102.1094 171.4531 102.3438 171.5781 102.8125 L171.7344 103.3438 L172.1094 103.3438 L172.0938 102.5312 C172.0938 102.0938 172.2031 101.9688 172.7812 101.7344 L173.2031 101.5625 C174.0312 101.2188 174.4531 100.6875 174.4531 99.8438 C174.4531 98.1562 172.6562 97.1875 171.5 97.0312 C171.1094 97.125 170.9062 97.2969 170.9062 97.6406 C170.9062 97.9375 171.0625 98.1562 171.7188 98.2656 L173.4688 98.5781 Z"
      /><polygon style="fill:none;" points=" 206 41 154 41"
      /><rect x="195" y="30" width="22" style="clip-path:url(#clipPath12); fill:white; stroke:none;" height="22"
      /><rect x="195" y="30" width="22" style="clip-path:url(#clipPath12); fill:rgb(0,144,188); stroke:none;" height="22"
      /><rect x="195" y="30" width="22" style="fill:none; clip-path:url(#clipPath12);" height="22"
      /><rect x="195" width="22" height="22" y="30" style="fill:none;"
      /><circle style="fill:white; clip-path:url(#clipPath13); stroke:none;" r="11" cx="154" cy="41"
      /><rect x="143" y="30" width="22" style="clip-path:url(#clipPath13); fill:rgb(255,212,0); stroke:none;" height="22"
      /><rect x="143" y="30" width="22" style="fill:none; clip-path:url(#clipPath13);" height="22"
      /><circle r="11" style="fill:none;" cx="154" cy="41"
      /><rect x="184" y="44" width="5" style="fill:white; stroke:none;" height="10"
      /><path style="stroke:none;" d="M185.8906 52.6875 C185.4844 52.6875 185.1562 53.0469 185.1562 53.4219 C185.1562 53.8125 185.4844 54.1562 185.8906 54.1562 C186.2969 54.1562 186.6406 53.8125 186.6406 53.4219 C186.6406 53.0469 186.2969 52.6875 185.8906 52.6875 ZM187.4688 46.5781 C187.7188 46.8906 187.875 47.2656 187.8906 47.6562 C187.8906 48.1875 187.625 48.5 187.0312 48.7656 L186.4062 49.0156 C185.6406 49.3125 185.3906 49.5469 185.3906 49.9375 C185.3906 50.1094 185.4531 50.3438 185.5781 50.8125 L185.7344 51.3438 L186.1094 51.3438 L186.0938 50.5312 C186.0938 50.0938 186.2031 49.9688 186.7812 49.7344 L187.2031 49.5625 C188.0312 49.2188 188.4531 48.6875 188.4531 47.8438 C188.4531 46.1562 186.6562 45.1875 185.5 45.0312 C185.1094 45.125 184.9062 45.2969 184.9062 45.6406 C184.9062 45.9375 185.0625 46.1562 185.7188 46.2656 L187.4688 46.5781 Z"
      /><rect x="170" y="44" width="5" style="fill:white; stroke:none;" height="10"
      /><path style="stroke:none;" d="M171.8906 52.6875 C171.4844 52.6875 171.1562 53.0469 171.1562 53.4219 C171.1562 53.8125 171.4844 54.1562 171.8906 54.1562 C172.2969 54.1562 172.6406 53.8125 172.6406 53.4219 C172.6406 53.0469 172.2969 52.6875 171.8906 52.6875 ZM173.4688 46.5781 C173.7188 46.8906 173.875 47.2656 173.8906 47.6562 C173.8906 48.1875 173.625 48.5 173.0312 48.7656 L172.4062 49.0156 C171.6406 49.3125 171.3906 49.5469 171.3906 49.9375 C171.3906 50.1094 171.4531 50.3438 171.5781 50.8125 L171.7344 51.3438 L172.1094 51.3438 L172.0938 50.5312 C172.0938 50.0938 172.2031 49.9688 172.7812 49.7344 L173.2031 49.5625 C174.0312 49.2188 174.4531 48.6875 174.4531 47.8438 C174.4531 46.1562 172.6562 45.1875 171.5 45.0312 C171.1094 45.125 170.9062 45.2969 170.9062 45.6406 C170.9062 45.9375 171.0625 46.1562 171.7188 46.2656 L173.4688 46.5781 Z"
      /><rect x="240" y="78" width="5" style="fill:white; stroke:none;" height="10"
      /><path style="stroke:none;" d="M241.8906 86.6875 C241.4844 86.6875 241.1562 87.0469 241.1562 87.4219 C241.1562 87.8125 241.4844 88.1562 241.8906 88.1562 C242.2969 88.1562 242.6406 87.8125 242.6406 87.4219 C242.6406 87.0469 242.2969 86.6875 241.8906 86.6875 ZM243.4688 80.5781 C243.7188 80.8906 243.875 81.2656 243.8906 81.6562 C243.8906 82.1875 243.625 82.5 243.0312 82.7656 L242.4062 83.0156 C241.6406 83.3125 241.3906 83.5469 241.3906 83.9375 C241.3906 84.1094 241.4531 84.3438 241.5781 84.8125 L241.7344 85.3438 L242.1094 85.3438 L242.0938 84.5312 C242.0938 84.0938 242.2031 83.9688 242.7812 83.7344 L243.2031 83.5625 C244.0312 83.2188 244.4531 82.6875 244.4531 81.8438 C244.4531 80.1562 242.6562 79.1875 241.5 79.0312 C241.1094 79.125 240.9062 79.2969 240.9062 79.6406 C240.9062 79.9375 241.0625 80.1562 241.7188 80.2656 L243.4688 80.5781 Z"
      /><rect x="225" y="86" width="5" style="fill:white; stroke:none;" height="10"
      /><path style="stroke:none;" d="M226.8906 94.6875 C226.4844 94.6875 226.1562 95.0469 226.1562 95.4219 C226.1562 95.8125 226.4844 96.1562 226.8906 96.1562 C227.2969 96.1562 227.6406 95.8125 227.6406 95.4219 C227.6406 95.0469 227.2969 94.6875 226.8906 94.6875 ZM228.4688 88.5781 C228.7188 88.8906 228.875 89.2656 228.8906 89.6562 C228.8906 90.1875 228.625 90.5 228.0312 90.7656 L227.4062 91.0156 C226.6406 91.3125 226.3906 91.5469 226.3906 91.9375 C226.3906 92.1094 226.4531 92.3438 226.5781 92.8125 L226.7344 93.3438 L227.1094 93.3438 L227.0938 92.5312 C227.0938 92.0938 227.2031 91.9688 227.7812 91.7344 L228.2031 91.5625 C229.0312 91.2188 229.4531 90.6875 229.4531 89.8438 C229.4531 88.1562 227.6562 87.1875 226.5 87.0312 C226.1094 87.125 225.9062 87.2969 225.9062 87.6406 C225.9062 87.9375 226.0625 88.1562 226.7188 88.2656 L228.4688 88.5781 Z"
      /><rect x="233" y="60" width="5" style="fill:white; stroke:none;" height="10"
      /><path style="stroke:none;" d="M234.8906 68.6875 C234.4844 68.6875 234.1562 69.0469 234.1562 69.4219 C234.1562 69.8125 234.4844 70.1562 234.8906 70.1562 C235.2969 70.1562 235.6406 69.8125 235.6406 69.4219 C235.6406 69.0469 235.2969 68.6875 234.8906 68.6875 ZM236.4688 62.5781 C236.7188 62.8906 236.875 63.2656 236.8906 63.6562 C236.8906 64.1875 236.625 64.5 236.0312 64.7656 L235.4062 65.0156 C234.6406 65.3125 234.3906 65.5469 234.3906 65.9375 C234.3906 66.1094 234.4531 66.3438 234.5781 66.8125 L234.7344 67.3438 L235.1094 67.3438 L235.0938 66.5312 C235.0938 66.0938 235.2031 65.9688 235.7812 65.7344 L236.2031 65.5625 C237.0312 65.2188 237.4531 64.6875 237.4531 63.8438 C237.4531 62.1562 235.6562 61.1875 234.5 61.0312 C234.1094 61.125 233.9062 61.2969 233.9062 61.6406 C233.9062 61.9375 234.0625 62.1562 234.7188 62.2656 L236.4688 62.5781 Z"
      /><rect x="218" y="52" width="5" style="fill:white; stroke:none;" height="10"
      /><path style="stroke:none;" d="M219.8906 60.6875 C219.4844 60.6875 219.1562 61.0469 219.1562 61.4219 C219.1562 61.8125 219.4844 62.1562 219.8906 62.1562 C220.2969 62.1562 220.6406 61.8125 220.6406 61.4219 C220.6406 61.0469 220.2969 60.6875 219.8906 60.6875 ZM221.4688 54.5781 C221.7188 54.8906 221.875 55.2656 221.8906 55.6562 C221.8906 56.1875 221.625 56.5 221.0312 56.7656 L220.4062 57.0156 C219.6406 57.3125 219.3906 57.5469 219.3906 57.9375 C219.3906 58.1094 219.4531 58.3438 219.5781 58.8125 L219.7344 59.3438 L220.1094 59.3438 L220.0938 58.5312 C220.0938 58.0938 220.2031 57.9688 220.7812 57.7344 L221.2031 57.5625 C222.0312 57.2188 222.4531 56.6875 222.4531 55.8438 C222.4531 54.1562 220.6562 53.1875 219.5 53.0312 C219.1094 53.125 218.9062 53.2969 218.9062 53.6406 C218.9062 53.9375 219.0625 54.1562 219.7188 54.2656 L221.4688 54.5781 Z"
      /><rect x="296" y="136" width="6" style="fill:white; stroke:none;" height="10"
      /><path style="stroke:none;" d="M298.2344 137.6562 C298.5156 137.5938 298.7656 137.5625 299.0156 137.5625 C300.0625 137.5625 300.6719 138.1719 300.6719 139.2656 C300.6719 140.4375 299.9062 141.1094 298.7031 141.1094 L298.1875 141.1094 L298.1875 141.6406 L298.7969 141.6406 C300.2188 141.6406 300.9062 142.4219 300.9062 143.6406 C300.9062 144.8438 300.1719 145.6875 298.875 145.6875 C298.6094 145.6875 298.3125 145.6562 298.0156 145.5625 L297.7812 144.8125 C297.625 144.2812 297.5 144.0469 297.1406 144.0469 C296.8906 144.0469 296.7031 144.1719 296.5781 144.4219 C296.8438 145.6406 297.7812 146.1719 299.0312 146.1719 C300.7188 146.1719 301.875 145.125 301.875 143.7031 C301.875 142.5 301.2031 141.625 299.7969 141.375 C300.9531 141.0156 301.6094 140.2031 301.6094 139.2031 C301.6094 137.9219 300.6719 137.0781 299.1875 137.0781 C298.0469 137.0781 297.0625 137.5938 296.7969 138.6875 C296.9062 139 297.1094 139.1094 297.3594 139.1094 C297.7344 139.1094 297.8906 138.8906 298 138.4062 L298.2344 137.6562 Z"
      /><rect x="276" y="156" width="8" style="fill:white; stroke:none;" height="8"
      /><path style="stroke:none;" d="M280.9844 161.7031 C280.9375 162.8906 280.1562 163.6562 279.3125 163.6562 C278.2656 163.6562 277.5 162.6875 277.5 160.7188 C277.5 159.2812 278.1562 158.1562 279.3438 158.1562 C280.1406 158.1562 280.7812 158.6875 281.0938 159.6406 L280.9844 161.7031 ZM282.9062 163.2812 C282.7344 163.375 282.5469 163.4219 282.3438 163.4219 C281.9531 163.4219 281.75 163.2188 281.75 162.4219 C281.75 161.4844 281.9688 159.5312 282.1875 157.8281 L282.0312 157.7188 L281.2344 157.9219 L281.1406 158.7969 C280.7812 158.0312 280.1562 157.6562 279.3906 157.6562 C278.0469 157.6562 276.5625 158.8438 276.5625 160.9531 C276.5625 163.0938 277.7188 164.1719 279.1406 164.1719 C280.0156 164.1719 280.6875 163.8125 281.0938 162.9844 C281.2031 163.8594 281.5156 164.1719 282.0156 164.1719 C282.4688 164.1719 282.7969 163.9062 283.0156 163.5625 L282.9062 163.2812 Z"
      /><rect x="284" y="103" width="6" style="fill:white; stroke:none;" height="10"
      /><path style="stroke:none;" d="M287.3438 112.6875 C286.2031 112.6875 285.5312 111.5 285.5312 109.2969 C285.5312 109.2188 285.5312 109.125 285.5312 109.0469 C286.0938 108.5 286.7188 108.3125 287.3438 108.3125 C288.3125 108.3125 288.9531 108.9844 288.9531 110.4531 C288.9531 111.9375 288.3125 112.6875 287.3438 112.6875 ZM289.5312 104.0781 C286.3438 104.4531 284.5625 106.7656 284.5625 109.4531 C284.5625 111.7812 285.6094 113.1719 287.3125 113.1719 C288.8438 113.1719 289.9219 112.1094 289.9219 110.2812 C289.9219 108.6875 288.9688 107.6562 287.5625 107.6562 C286.8281 107.6562 286.1406 107.9844 285.5781 108.5781 C285.7969 106.4062 287.0781 104.9688 289.5938 104.3906 L289.5312 104.0781 Z"
      /><rect x="265" y="85" width="8" style="fill:white; stroke:none;" height="8"
      /><path style="stroke:none;" d="M269.9844 90.7031 C269.9375 91.8906 269.1562 92.6562 268.3125 92.6562 C267.2656 92.6562 266.5 91.6875 266.5 89.7188 C266.5 88.2812 267.1562 87.1562 268.3438 87.1562 C269.1406 87.1562 269.7812 87.6875 270.0938 88.6406 L269.9844 90.7031 ZM271.9062 92.2812 C271.7344 92.375 271.5469 92.4219 271.3438 92.4219 C270.9531 92.4219 270.75 92.2188 270.75 91.4219 C270.75 90.4844 270.9688 88.5312 271.1875 86.8281 L271.0312 86.7188 L270.2344 86.9219 L270.1406 87.7969 C269.7812 87.0312 269.1562 86.6562 268.3906 86.6562 C267.0469 86.6562 265.5625 87.8438 265.5625 89.9531 C265.5625 92.0938 266.7188 93.1719 268.1406 93.1719 C269.0156 93.1719 269.6875 92.8125 270.0938 91.9844 C270.2031 92.8594 270.5156 93.1719 271.0156 93.1719 C271.4688 93.1719 271.7969 92.9062 272.0156 92.5625 L271.9062 92.2812 Z"
      /><rect x="339" y="122" width="7" style="fill:white; stroke:none;" height="9"
      /><path style="stroke:none;" d="M340 127.5156 L342.9531 123.2656 L342.9531 127.5156 L340 127.5156 ZM345.2812 127.5156 L343.8594 127.5156 L343.8594 122.125 L343.2344 122.125 L339.3438 127.6406 L339.3438 128.1875 L342.9531 128.1875 L342.9531 131 L343.8594 131 L343.8594 128.1875 L345.2812 128.1875 L345.2812 127.5156 Z"
      /><rect x="326" y="120" width="6" style="fill:white; stroke:none;" height="13"
      /><path style="stroke:none;" d="M328.0938 126.2031 C328.0938 124.6562 328.75 123.8125 329.7969 123.8125 C330.7188 123.8125 331.2656 124.4531 331.2656 125.5156 C331.2656 126.7188 330.5 127.4375 329.1875 127.7031 L329.2969 128.3125 C331.2188 128.2344 331.9375 129.2188 331.9375 130.4375 C331.9375 131.625 331.2344 132.4219 329.9531 132.4219 C329.25 132.4219 328.6562 132.1562 328.0938 131.7188 L328.0938 126.2031 ZM327.2031 132.9062 L327.1094 135.375 L327.2656 135.4844 L328.1562 135.2656 L328.0156 132.0938 C328.5469 132.8438 329.3594 133.1719 330.1719 133.1719 C331.5625 133.1719 332.8594 132.2188 332.8594 130.4844 C332.8594 128.9531 331.875 128.1094 330.125 128 C331.5625 127.6094 332.1875 126.4531 332.1875 125.4844 C332.1875 124.0938 331.1562 123.3125 329.9062 123.3125 C328.2969 123.3125 327.2188 124.5469 327.2188 126.5156 L327.2031 132.9062 Z"
      /><rect x="391" y="122" width="7" style="fill:white; stroke:none;" height="9"
      /><path style="stroke:none;" d="M392 127.5156 L394.9531 123.2656 L394.9531 127.5156 L392 127.5156 ZM397.2812 127.5156 L395.8594 127.5156 L395.8594 122.125 L395.2344 122.125 L391.3438 127.6406 L391.3438 128.1875 L394.9531 128.1875 L394.9531 131 L395.8594 131 L395.8594 128.1875 L397.2812 128.1875 L397.2812 127.5156 Z"
      /><rect x="378" y="120" width="6" style="fill:white; stroke:none;" height="13"
      /><path style="stroke:none;" d="M380.0938 126.2031 C380.0938 124.6562 380.75 123.8125 381.7969 123.8125 C382.7188 123.8125 383.2656 124.4531 383.2656 125.5156 C383.2656 126.7188 382.5 127.4375 381.1875 127.7031 L381.2969 128.3125 C383.2188 128.2344 383.9375 129.2188 383.9375 130.4375 C383.9375 131.625 383.2344 132.4219 381.9531 132.4219 C381.25 132.4219 380.6562 132.1562 380.0938 131.7188 L380.0938 126.2031 ZM379.2031 132.9062 L379.1094 135.375 L379.2656 135.4844 L380.1562 135.2656 L380.0156 132.0938 C380.5469 132.8438 381.3594 133.1719 382.1719 133.1719 C383.5625 133.1719 384.8594 132.2188 384.8594 130.4844 C384.8594 128.9531 383.875 128.1094 382.125 128 C383.5625 127.6094 384.1875 126.4531 384.1875 125.4844 C384.1875 124.0938 383.1562 123.3125 381.9062 123.3125 C380.2969 123.3125 379.2188 124.5469 379.2188 126.5156 L379.2031 132.9062 Z"
      /><rect x="430" y="120" width="6" style="fill:white; stroke:none;" height="13"
      /><path style="stroke:none;" d="M432.0938 126.2031 C432.0938 124.6562 432.75 123.8125 433.7969 123.8125 C434.7188 123.8125 435.2656 124.4531 435.2656 125.5156 C435.2656 126.7188 434.5 127.4375 433.1875 127.7031 L433.2969 128.3125 C435.2188 128.2344 435.9375 129.2188 435.9375 130.4375 C435.9375 131.625 435.2344 132.4219 433.9531 132.4219 C433.25 132.4219 432.6562 132.1562 432.0938 131.7188 L432.0938 126.2031 ZM431.2031 132.9062 L431.1094 135.375 L431.2656 135.4844 L432.1562 135.2656 L432.0156 132.0938 C432.5469 132.8438 433.3594 133.1719 434.1719 133.1719 C435.5625 133.1719 436.8594 132.2188 436.8594 130.4844 C436.8594 128.9531 435.875 128.1094 434.125 128 C435.5625 127.6094 436.1875 126.4531 436.1875 125.4844 C436.1875 124.0938 435.1562 123.3125 433.9062 123.3125 C432.2969 123.3125 431.2188 124.5469 431.2188 126.5156 L431.2031 132.9062 Z"
      /><polygon style="fill:none;" points=" 143 208 132 208 132 30 143 30 132 30 132 208"
      /><polygon style="fill:none;" points=" 110 145 58 145"
      /><polygon style="fill:white; clip-path:url(#clipPath14); stroke:none;" points=" 58 134 69 145 58 156 47 145"
      /><rect x="47" y="134" width="22" style="clip-path:url(#clipPath14); fill:rgb(165,67,153); stroke:none;" height="22"
      /><rect x="47" y="134" width="22" style="fill:none; clip-path:url(#clipPath14);" height="22"
      /><polygon style="fill:none;" points=" 58 134 69 145 58 156 47 145"
      /><rect x="88" y="148" width="5" style="fill:white; stroke:none;" height="10"
      /><path style="stroke:none;" d="M89.8906 156.6875 C89.4844 156.6875 89.1562 157.0469 89.1562 157.4219 C89.1562 157.8125 89.4844 158.1562 89.8906 158.1562 C90.2969 158.1562 90.6406 157.8125 90.6406 157.4219 C90.6406 157.0469 90.2969 156.6875 89.8906 156.6875 ZM91.4688 150.5781 C91.7188 150.8906 91.875 151.2656 91.8906 151.6562 C91.8906 152.1875 91.625 152.5 91.0312 152.7656 L90.4062 153.0156 C89.6406 153.3125 89.3906 153.5469 89.3906 153.9375 C89.3906 154.1094 89.4531 154.3438 89.5781 154.8125 L89.7344 155.3438 L90.1094 155.3438 L90.0938 154.5312 C90.0938 154.0938 90.2031 153.9688 90.7812 153.7344 L91.2031 153.5625 C92.0312 153.2188 92.4531 152.6875 92.4531 151.8438 C92.4531 150.1562 90.6562 149.1875 89.5 149.0312 C89.1094 149.125 88.9062 149.2969 88.9062 149.6406 C88.9062 149.9375 89.0625 150.1562 89.7188 150.2656 L91.4688 150.5781 Z"
      /><rect x="74" y="148" width="5" style="fill:white; stroke:none;" height="10"
      /><path style="stroke:none;" d="M75.8906 156.6875 C75.4844 156.6875 75.1562 157.0469 75.1562 157.4219 C75.1562 157.8125 75.4844 158.1562 75.8906 158.1562 C76.2969 158.1562 76.6406 157.8125 76.6406 157.4219 C76.6406 157.0469 76.2969 156.6875 75.8906 156.6875 ZM77.4688 150.5781 C77.7188 150.8906 77.875 151.2656 77.8906 151.6562 C77.8906 152.1875 77.625 152.5 77.0312 152.7656 L76.4062 153.0156 C75.6406 153.3125 75.3906 153.5469 75.3906 153.9375 C75.3906 154.1094 75.4531 154.3438 75.5781 154.8125 L75.7344 155.3438 L76.1094 155.3438 L76.0938 154.5312 C76.0938 154.0938 76.2031 153.9688 76.7812 153.7344 L77.2031 153.5625 C78.0312 153.2188 78.4531 152.6875 78.4531 151.8438 C78.4531 150.1562 76.6562 149.1875 75.5 149.0312 C75.1094 149.125 74.9062 149.2969 74.9062 149.6406 C74.9062 149.9375 75.0625 150.1562 75.7188 150.2656 L77.4688 150.5781 Z"
      /><path style="stroke:none;" d="M29.6094 150 L36.0625 150 L36.0625 148.8906 L33.2344 148.8906 C32.7031 148.8906 32.0781 148.9531 31.5469 148.9844 C33.9531 146.7031 35.5625 144.625 35.5625 142.5781 C35.5625 140.75 34.4219 139.5469 32.5781 139.5469 C31.2812 139.5469 30.4062 140.1406 29.5625 141.0469 L30.2969 141.7812 C30.8594 141.1094 31.5938 140.5938 32.4375 140.5938 C33.7031 140.5938 34.3125 141.4531 34.3125 142.625 C34.3125 144.3906 32.8438 146.4375 29.6094 149.25 L29.6094 150 ZM36.9731 150 L38.3168 150 L39.3481 148.2188 C39.6137 147.7656 39.8637 147.2969 40.1293 146.8594 L40.2075 146.8594 C40.4731 147.2969 40.7543 147.7656 41.0043 148.2188 L42.1293 150 L43.5356 150 L41.02 146.1562 L43.3325 142.3906 L42.0043 142.3906 L41.0668 144.0625 C40.8481 144.5 40.6137 144.9219 40.3793 145.3438 L40.3325 145.3438 C40.0668 144.9219 39.8012 144.5 39.5668 144.0625 L38.5512 142.3906 L37.1762 142.3906 L39.4887 146.0312 L36.9731 150 Z"
      /><polygon style="fill:none;" points=" 110 93 58 93"
    /></g
    ><g style="fill:white; text-rendering:optimizeSpeed; font-size:14px; font-family:'SansSerif'; stroke:white;"
    ><circle r="11" style="clip-path:url(#clipPath15); stroke:none;" cx="58" cy="93"
      /><rect x="47" y="82" width="22" style="clip-path:url(#clipPath15); fill:rgb(255,212,0); stroke:none;" height="22"
      /><rect x="47" y="82" width="22" style="clip-path:url(#clipPath15); fill:none; stroke:black;" height="22"
      /><circle r="11" style="fill:none; stroke:black;" cx="58" cy="93"
      /><rect x="88" width="5" height="10" y="96" style="stroke:none;"
    /></g
    ><g style="font-family:'Serif'; text-rendering:optimizeSpeed; "
    ><path style="stroke:none;" d="M89.8906 104.6875 C89.4844 104.6875 89.1562 105.0469 89.1562 105.4219 C89.1562 105.8125 89.4844 106.1562 89.8906 106.1562 C90.2969 106.1562 90.6406 105.8125 90.6406 105.4219 C90.6406 105.0469 90.2969 104.6875 89.8906 104.6875 ZM91.4688 98.5781 C91.7188 98.8906 91.875 99.2656 91.8906 99.6562 C91.8906 100.1875 91.625 100.5 91.0312 100.7656 L90.4062 101.0156 C89.6406 101.3125 89.3906 101.5469 89.3906 101.9375 C89.3906 102.1094 89.4531 102.3438 89.5781 102.8125 L89.7344 103.3438 L90.1094 103.3438 L90.0938 102.5312 C90.0938 102.0938 90.2031 101.9688 90.7812 101.7344 L91.2031 101.5625 C92.0312 101.2188 92.4531 100.6875 92.4531 99.8438 C92.4531 98.1562 90.6562 97.1875 89.5 97.0312 C89.1094 97.125 88.9062 97.2969 88.9062 97.6406 C88.9062 97.9375 89.0625 98.1562 89.7188 98.2656 L91.4688 98.5781 Z"
      /><rect x="74" y="96" width="5" style="fill:white; stroke:none;" height="10"
      /><path style="stroke:none;" d="M75.8906 104.6875 C75.4844 104.6875 75.1562 105.0469 75.1562 105.4219 C75.1562 105.8125 75.4844 106.1562 75.8906 106.1562 C76.2969 106.1562 76.6406 105.8125 76.6406 105.4219 C76.6406 105.0469 76.2969 104.6875 75.8906 104.6875 ZM77.4688 98.5781 C77.7188 98.8906 77.875 99.2656 77.8906 99.6562 C77.8906 100.1875 77.625 100.5 77.0312 100.7656 L76.4062 101.0156 C75.6406 101.3125 75.3906 101.5469 75.3906 101.9375 C75.3906 102.1094 75.4531 102.3438 75.5781 102.8125 L75.7344 103.3438 L76.1094 103.3438 L76.0938 102.5312 C76.0938 102.0938 76.2031 101.9688 76.7812 101.7344 L77.2031 101.5625 C78.0312 101.2188 78.4531 100.6875 78.4531 99.8438 C78.4531 98.1562 76.6562 97.1875 75.5 97.0312 C75.1094 97.125 74.9062 97.2969 74.9062 97.6406 C74.9062 97.9375 75.0625 98.1562 75.7188 98.2656 L77.4688 98.5781 Z"
    /></g
  ></g
></svg
>
