<?xml version="1.0"?>
<!DOCTYPE svg PUBLIC '-//W3C//DTD SVG 1.0//EN'
          'http://www.w3.org/TR/2001/REC-SVG-20010904/DTD/svg10.dtd'>
<svg xmlns:xlink="http://www.w3.org/1999/xlink" style="fill-opacity:1; color-rendering:auto; color-interpolation:auto; text-rendering:auto; stroke:black; stroke-linecap:square; stroke-miterlimit:10; shape-rendering:auto; stroke-opacity:1; fill:black; stroke-dasharray:none; font-weight:normal; stroke-width:1; font-family:'Dialog'; font-style:normal; stroke-linejoin:miter; font-size:12px; stroke-dashoffset:0; image-rendering:auto;" viewBox="0 0 134 143" xmlns="http://www.w3.org/2000/svg"
><!--Generated by the Batik Graphics2D SVG Generator--><defs id="genericDefs"
  /><g
  ><defs id="defs1"
    ><clipPath clipPathUnits="userSpaceOnUse" id="clipPath1"
      ><path style="fill-rule:evenodd;" d="M41 53 L51 60 L47 72 L34 72 L30 60 L41 53 Z"
      /></clipPath
    ></defs
    ><g style="fill:white; text-rendering:optimizeSpeed; stroke:white;"
    ><rect x="0" width="134" height="143" y="0" style="stroke:none;"
      /><polygon style="fill:none; stroke:black;" points=" 93 64 41 64"
      /><path d="M93 53 C87.5 58.5 98.5 69.5 93 75" style="fill:none; stroke:black;"
      /><polygon style="clip-path:url(#clipPath1); stroke:none;" points=" 41 53 51 60 47 72 34 72 30 60 41 53"
      /><rect x="30" y="53" width="22" style="clip-path:url(#clipPath1); stroke:none;" height="22"
      /><rect x="30" y="53" width="22" style="clip-path:url(#clipPath1); fill:none; stroke:black;" height="22"
      /><polygon style="fill:none; stroke:black;" points=" 41 53 51 60 47 72 34 72 30 60 41 53"
    /></g
    ><g style="text-rendering:optimizeSpeed; font-size:14px; font-family:'SansSerif';"
    ><path style="stroke:none;" d="M39.2344 69 L44.8594 69 L44.8594 67.9375 L42.7969 67.9375 L42.7969 58.7188 L41.8281 58.7188 C41.2656 59.0625 40.6094 59.2969 39.6875 59.4688 L39.6875 60.2812 L41.5156 60.2812 L41.5156 67.9375 L39.2344 67.9375 L39.2344 69 Z"
      /><rect x="33" y="81" width="14" style="fill:white; stroke:none;" height="11"
      /><path style="stroke:none;" d="M33.6094 92 L40.0625 92 L40.0625 90.8906 L37.2344 90.8906 C36.7031 90.8906 36.0781 90.9531 35.5469 90.9844 C37.9531 88.7031 39.5625 86.625 39.5625 84.5781 C39.5625 82.75 38.4219 81.5469 36.5781 81.5469 C35.2812 81.5469 34.4062 82.1406 33.5625 83.0469 L34.2969 83.7812 C34.8594 83.1094 35.5938 82.5938 36.4375 82.5938 C37.7031 82.5938 38.3125 83.4531 38.3125 84.625 C38.3125 86.3906 36.8438 88.4375 33.6094 91.25 L33.6094 92 ZM44.645 92.1875 C45.5512 92.1875 46.3637 91.6875 46.9575 91.1094 L47.0043 91.1094 L47.1137 92 L48.145 92 L48.145 80.8594 L46.895 80.8594 L46.895 83.7812 L46.9418 85.0938 C46.27 84.5312 45.6918 84.2031 44.8012 84.2031 C43.0668 84.2031 41.5043 85.7344 41.5043 88.2031 C41.5043 90.7344 42.7387 92.1875 44.645 92.1875 ZM44.9262 91.125 C43.5825 91.125 42.8325 90.0312 42.8325 88.1875 C42.8325 86.4531 43.8012 85.2812 45.02 85.2812 C45.6606 85.2812 46.2231 85.5 46.895 86.0781 L46.895 90.0625 C46.2387 90.7656 45.6293 91.125 44.9262 91.125 Z"
      /><rect x="33" y="35" width="14" style="fill:white; stroke:none;" height="11"
      /><path style="stroke:none;" d="M34.6094 42.1562 L36.9531 38.6562 C37.2344 38.1406 37.5156 37.6406 37.7812 37.1406 L37.8281 37.1406 C37.7969 37.6719 37.7656 38.5 37.7656 39 L37.7656 42.1562 L34.6094 42.1562 ZM37.7656 46 L38.9688 46 L38.9688 43.1719 L40.3281 43.1719 L40.3281 42.1562 L38.9688 42.1562 L38.9688 35.7188 L37.5469 35.7188 L33.2812 42.3281 L33.2812 43.1719 L37.7656 43.1719 L37.7656 46 ZM44.645 46.1875 C45.5512 46.1875 46.3637 45.6875 46.9575 45.1094 L47.0043 45.1094 L47.1137 46 L48.145 46 L48.145 34.8594 L46.895 34.8594 L46.895 37.7812 L46.9418 39.0938 C46.27 38.5312 45.6918 38.2031 44.8012 38.2031 C43.0668 38.2031 41.5043 39.7344 41.5043 42.2031 C41.5043 44.7344 42.7387 46.1875 44.645 46.1875 ZM44.9262 45.125 C43.5825 45.125 42.8325 44.0312 42.8325 42.1875 C42.8325 40.4531 43.8012 39.2812 45.02 39.2812 C45.6606 39.2812 46.2231 39.5 46.895 40.0781 L46.895 44.0625 C46.2387 44.7656 45.6293 45.125 44.9262 45.125 Z"
    /></g
    ><g style="fill:white; text-rendering:optimizeSpeed; font-family:'Serif'; stroke:white;"
    ><rect x="57" width="6" height="13" y="65" style="stroke:none;"
      /><path d="M59.0938 71.2031 C59.0938 69.6562 59.75 68.8125 60.7969 68.8125 C61.7188 68.8125 62.2656 69.4531 62.2656 70.5156 C62.2656 71.7188 61.5 72.4375 60.1875 72.7031 L60.2969 73.3125 C62.2188 73.2344 62.9375 74.2188 62.9375 75.4375 C62.9375 76.625 62.2344 77.4219 60.9531 77.4219 C60.25 77.4219 59.6562 77.1562 59.0938 76.7188 L59.0938 71.2031 ZM58.2031 77.9062 L58.1094 80.375 L58.2656 80.4844 L59.1562 80.2656 L59.0156 77.0938 C59.5469 77.8438 60.3594 78.1719 61.1719 78.1719 C62.5625 78.1719 63.8594 77.2188 63.8594 75.4844 C63.8594 73.9531 62.875 73.1094 61.125 73 C62.5625 72.6094 63.1875 71.4531 63.1875 70.4844 C63.1875 69.0938 62.1562 68.3125 60.9062 68.3125 C59.2969 68.3125 58.2188 69.5469 58.2188 71.5156 L58.2031 77.9062 Z" style="fill:black; stroke:none;"
    /></g
    ><g ID="legend-1:0" style="text-rendering:optimizeSpeed; font-size:10px; font-family:'SansSerif';"
    ><path style="stroke:none;" d="M30.875 113 L34.9062 113 L34.9062 112.2344 L33.4375 112.2344 L33.4375 105.6562 L32.7344 105.6562 C32.3281 105.9062 31.8594 106.0625 31.2031 106.1875 L31.2031 106.7656 L32.5156 106.7656 L32.5156 112.2344 L30.875 112.2344 L30.875 113 ZM35.925 108.4531 L40.7219 108.4531 L40.7219 107.7656 L35.925 107.7656 L35.925 108.4531 ZM35.925 110.8438 L40.7219 110.8438 L40.7219 110.1719 L35.925 110.1719 L35.925 110.8438 ZM41.9906 114.9844 L42.9125 114.9844 C42.8969 114.0781 42.8812 113.2188 42.85 112.2969 C43.4125 112.9219 44.1156 113.125 44.7875 113.125 C45.8969 113.125 46.9125 112.3125 46.9125 110.8438 C46.9125 109.7031 46.2562 108.8906 45.1625 108.7344 L45.1625 108.6875 C45.8656 108.2656 46.2562 107.6406 46.2562 106.8281 C46.2562 105.5312 45.2719 104.9062 44.225 104.9062 C42.6937 104.9062 41.9906 106.0156 41.9906 107.5156 L41.9906 114.9844 ZM44.5844 112.375 C44.0062 112.375 43.3812 112.1875 42.85 111.5156 C42.85 110.2031 42.8656 108.9375 42.8812 107.6406 C42.8969 106.3438 43.3969 105.6406 44.225 105.6406 C44.8344 105.6406 45.3656 106.0625 45.3656 106.9062 C45.3656 107.625 44.9281 108.4062 43.7875 108.625 L43.9125 109.3281 C44.1 109.2812 44.2875 109.2656 44.475 109.2656 C45.5062 109.2656 46.0062 109.9219 46.0062 110.7969 C46.0062 111.7812 45.3656 112.375 44.5844 112.375 ZM47.8631 110.5469 L50.4256 110.5469 L50.4256 109.8438 L47.8631 109.8438 L47.8631 110.5469 ZM51.3175 113 L55.9268 113 L55.9268 112.2031 L53.8956 112.2031 C53.5362 112.2031 53.0831 112.25 52.6925 112.2812 C54.4268 110.6562 55.5675 109.1562 55.5675 107.7031 C55.5675 106.3906 54.755 105.5312 53.4425 105.5312 C52.505 105.5312 51.88 105.9531 51.2862 106.6094 L51.8175 107.125 C52.2081 106.6562 52.7237 106.2812 53.3331 106.2812 C54.2393 106.2812 54.6768 106.8906 54.6768 107.7344 C54.6768 108.9844 53.6143 110.4531 51.3175 112.4531 L51.3175 113 ZM57.18 114.9062 C58.0862 114.5156 58.6331 113.7656 58.6331 112.8125 C58.6331 112.1406 58.3518 111.7344 57.8675 111.7344 C57.4925 111.7344 57.18 111.9844 57.18 112.375 C57.18 112.7969 57.4925 113.0156 57.8518 113.0156 C57.8831 113.0156 57.9143 113.0156 57.9612 113 C57.9612 113.5938 57.5862 114.0781 56.9612 114.3594 L57.18 114.9062 ZM60.3662 110.25 L62.0225 107.75 C62.2412 107.3906 62.4443 107.0312 62.6162 106.6719 L62.6631 106.6719 C62.6475 107.0469 62.6162 107.6406 62.6162 108 L62.6162 110.25 L60.3662 110.25 ZM62.6162 113 L63.4756 113 L63.4756 110.9844 L64.4443 110.9844 L64.4443 110.25 L63.4756 110.25 L63.4756 105.6562 L62.46 105.6562 L59.4131 110.375 L59.4131 110.9844 L62.6162 110.9844 L62.6162 113 ZM65.2131 110.5469 L67.7756 110.5469 L67.7756 109.8438 L65.2131 109.8438 L65.2131 110.5469 ZM70.9956 113.125 C71.6518 113.125 72.2143 112.7812 72.6518 112.3594 L72.6831 112.3594 L72.7612 113 L73.4956 113 L73.4956 105.0469 L72.6049 105.0469 L72.6049 107.125 L72.6362 108.0625 C72.1674 107.6719 71.7456 107.4375 71.1049 107.4375 C69.8706 107.4375 68.7612 108.5312 68.7612 110.2969 C68.7612 112.0938 69.6362 113.125 70.9956 113.125 ZM71.1987 112.375 C70.2456 112.375 69.6987 111.5938 69.6987 110.2812 C69.6987 109.0469 70.3862 108.2031 71.2768 108.2031 C71.7143 108.2031 72.1362 108.3594 72.6049 108.7656 L72.6049 111.625 C72.1362 112.125 71.6987 112.375 71.1987 112.375 ZM75.3518 113 L76.2581 113 L76.2581 107.5625 L75.3518 107.5625 L75.3518 113 ZM75.8049 106.4531 C76.1643 106.4531 76.4143 106.2031 76.4143 105.8438 C76.4143 105.4844 76.1643 105.25 75.8049 105.25 C75.4456 105.25 75.1956 105.4844 75.1956 105.8438 C75.1956 106.2031 75.4456 106.4531 75.8049 106.4531 ZM79.9456 113.125 C80.6018 113.125 81.1643 112.7812 81.6018 112.3594 L81.6331 112.3594 L81.7112 113 L82.4456 113 L82.4456 105.0469 L81.5549 105.0469 L81.5549 107.125 L81.5862 108.0625 C81.1174 107.6719 80.6956 107.4375 80.0549 107.4375 C78.8206 107.4375 77.7112 108.5312 77.7112 110.2969 C77.7112 112.0938 78.5862 113.125 79.9456 113.125 ZM80.1487 112.375 C79.1956 112.375 78.6487 111.5938 78.6487 110.2812 C78.6487 109.0469 79.3362 108.2031 80.2268 108.2031 C80.6643 108.2031 81.0862 108.3594 81.5549 108.7656 L81.5549 111.625 C81.0862 112.125 80.6487 112.375 80.1487 112.375 ZM86.4893 113.125 C87.2237 113.125 87.8174 112.875 88.2862 112.5625 L87.9581 111.9688 C87.5674 112.2344 87.1299 112.4062 86.5987 112.4062 C85.5674 112.4062 84.8643 111.6562 84.8018 110.5 L88.4581 110.5 C88.4737 110.375 88.5049 110.1875 88.5049 109.9844 C88.5049 108.4375 87.7237 107.4375 86.3331 107.4375 C85.0831 107.4375 83.8956 108.5312 83.8956 110.2969 C83.8956 112.0781 85.0518 113.125 86.4893 113.125 ZM84.7862 109.8438 C84.8956 108.7812 85.5831 108.1562 86.3487 108.1562 C87.1924 108.1562 87.6924 108.75 87.6924 109.8438 L84.7862 109.8438 ZM91.9512 113.125 C93.2793 113.125 94.4668 112.0938 94.4668 110.2969 C94.4668 108.4844 93.2793 107.4375 91.9512 107.4375 C90.6231 107.4375 89.4356 108.4844 89.4356 110.2969 C89.4356 112.0938 90.6231 113.125 91.9512 113.125 ZM91.9512 112.375 C91.0137 112.375 90.3731 111.5469 90.3731 110.2969 C90.3731 109.0469 91.0137 108.1875 91.9512 108.1875 C92.8887 108.1875 93.5293 109.0469 93.5293 110.2969 C93.5293 111.5469 92.8887 112.375 91.9512 112.375 ZM95.1362 113 L96.0893 113 L96.8237 111.7344 C97.0112 111.4062 97.1831 111.0625 97.3862 110.7656 L97.4331 110.7656 C97.6362 111.0625 97.8237 111.4062 98.0112 111.7344 L98.8081 113 L99.8081 113 L98.0268 110.2656 L99.6674 107.5625 L98.7143 107.5625 L98.0424 108.7656 C97.8862 109.0625 97.7299 109.375 97.5581 109.6719 L97.5268 109.6719 C97.3393 109.375 97.1518 109.0625 96.9799 108.7656 L96.2456 107.5625 L95.2768 107.5625 L96.9174 110.1719 L95.1362 113 ZM100.9756 115.3438 C102.0537 115.3438 102.6162 114.5156 102.9912 113.4531 L105.0381 107.5625 L104.1474 107.5625 L103.1787 110.5938 C103.0224 111.0625 102.8662 111.625 102.7256 112.1094 L102.6631 112.1094 C102.5068 111.625 102.3037 111.0625 102.1474 110.5938 L101.0381 107.5625 L100.0849 107.5625 L102.2724 113.0156 L102.1474 113.4219 C101.9287 114.0938 101.5381 114.5938 100.9131 114.5938 C100.7724 114.5938 100.6162 114.5469 100.5068 114.5 L100.3349 115.2344 C100.5068 115.2969 100.7099 115.3438 100.9756 115.3438 ZM105.623 110.5469 L108.1855 110.5469 L108.1855 109.8438 L105.623 109.8438 L105.623 110.5469 ZM109.6399 113 L113.7649 113 L113.7649 112.2031 L110.5774 112.2031 L110.5774 105.6562 L109.6399 105.6562 L109.6399 113 ZM114.523 110.5469 L117.0855 110.5469 L117.0855 109.8438 L114.523 109.8438 L114.523 110.5469 ZM120.6493 113.125 C121.3837 113.125 121.9774 112.875 122.4462 112.5625 L122.118 111.9688 C121.7274 112.2344 121.2899 112.4062 120.7587 112.4062 C119.7274 112.4062 119.0243 111.6562 118.9618 110.5 L122.618 110.5 C122.6337 110.375 122.6649 110.1875 122.6649 109.9844 C122.6649 108.4375 121.8837 107.4375 120.493 107.4375 C119.243 107.4375 118.0555 108.5312 118.0555 110.2969 C118.0555 112.0781 119.2118 113.125 120.6493 113.125 ZM118.9462 109.8438 C119.0555 108.7812 119.743 108.1562 120.5087 108.1562 C121.3524 108.1562 121.8524 108.75 121.8524 109.8438 L118.9462 109.8438 ZM124.0018 113 L124.908 113 L124.908 109.5156 C125.2674 108.5781 125.8299 108.2656 126.283 108.2656 C126.5018 108.2656 126.6268 108.2812 126.8143 108.3438 L126.9862 107.5469 C126.8143 107.4531 126.6424 107.4375 126.3924 107.4375 C125.783 107.4375 125.2362 107.875 124.8612 108.5625 L124.8299 108.5625 L124.7518 107.5625 L124.0018 107.5625 L124.0018 113 ZM127.9755 115.3438 C129.0536 115.3438 129.6161 114.5156 129.9911 113.4531 L132.038 107.5625 L131.1474 107.5625 L130.1786 110.5938 C130.0224 111.0625 129.8661 111.625 129.7255 112.1094 L129.663 112.1094 C129.5068 111.625 129.3036 111.0625 129.1474 110.5938 L128.038 107.5625 L127.0849 107.5625 L129.2724 113.0156 L129.1474 113.4219 C128.9286 114.0938 128.538 114.5938 127.913 114.5938 C127.7724 114.5938 127.6161 114.5469 127.5068 114.5 L127.3349 115.2344 C127.5068 115.2969 127.7099 115.3438 127.9755 115.3438 ZM133.1699 113 L134.1074 113 L134.1074 109.5469 L137.5136 109.5469 L137.5136 113 L138.4355 113 L138.4355 105.6562 L137.5136 105.6562 L137.5136 108.7344 L134.1074 108.7344 L134.1074 105.6562 L133.1699 105.6562 L133.1699 113 ZM142.5593 113.125 C143.2936 113.125 143.8874 112.875 144.3561 112.5625 L144.028 111.9688 C143.6374 112.2344 143.1999 112.4062 142.6686 112.4062 C141.6374 112.4062 140.9343 111.6562 140.8718 110.5 L144.528 110.5 C144.5436 110.375 144.5749 110.1875 144.5749 109.9844 C144.5749 108.4375 143.7936 107.4375 142.403 107.4375 C141.153 107.4375 139.9655 108.5312 139.9655 110.2969 C139.9655 112.0781 141.1218 113.125 142.5593 113.125 ZM140.8561 109.8438 C140.9655 108.7812 141.653 108.1562 142.4186 108.1562 C143.2624 108.1562 143.7624 108.75 143.7624 109.8438 L140.8561 109.8438 ZM145.1461 113 L146.0993 113 L146.8336 111.7344 C147.0211 111.4062 147.193 111.0625 147.3961 110.7656 L147.443 110.7656 C147.6461 111.0625 147.8336 111.4062 148.0211 111.7344 L148.818 113 L149.818 113 L148.0368 110.2656 L149.6774 107.5625 L148.7243 107.5625 L148.0524 108.7656 C147.8961 109.0625 147.7399 109.375 147.568 109.6719 L147.5368 109.6719 C147.3493 109.375 147.1618 109.0625 146.9899 108.7656 L146.2555 107.5625 L145.2868 107.5625 L146.9274 110.1719 L145.1461 113 ZM150.8918 115.2969 L151.798 115.2969 L151.798 113.4531 L151.7824 112.5 C152.2668 112.9062 152.7824 113.125 153.2824 113.125 C154.5324 113.125 155.6418 112.0625 155.6418 110.2031 C155.6418 108.5312 154.8761 107.4375 153.4855 107.4375 C152.8449 107.4375 152.2355 107.7969 151.7511 108.1875 L151.7199 108.1875 L151.6418 107.5625 L150.8918 107.5625 L150.8918 115.2969 ZM153.1261 112.375 C152.7668 112.375 152.2824 112.2188 151.798 111.7969 L151.798 108.9531 C152.3293 108.4531 152.798 108.2031 153.2668 108.2031 C154.2824 108.2031 154.6886 109.0156 154.6886 110.2031 C154.6886 111.5625 154.0324 112.375 153.1261 112.375 Z"
    /></g
  ></g
></svg
>
