<?xml version="1.0"?>
<!DOCTYPE svg PUBLIC '-//W3C//DTD SVG 1.0//EN'
          'http://www.w3.org/TR/2001/REC-SVG-20010904/DTD/svg10.dtd'>
<svg xmlns:xlink="http://www.w3.org/1999/xlink" style="fill-opacity:1; color-rendering:auto; color-interpolation:auto; text-rendering:auto; stroke:black; stroke-linecap:square; stroke-miterlimit:10; shape-rendering:auto; stroke-opacity:1; fill:black; stroke-dasharray:none; font-weight:normal; stroke-width:1; font-family:'Dialog'; font-style:normal; stroke-linejoin:miter; font-size:12px; stroke-dashoffset:0; image-rendering:auto;" viewBox="0 0 394 238" xmlns="http://www.w3.org/2000/svg"
><!--Generated by the Batik Graphics2D SVG Generator--><defs id="genericDefs"
  /><g
  ><defs id="defs1"
    ><clipPath clipPathUnits="userSpaceOnUse" id="clipPath1"
      ><path d="M290 108 L312 108 L312 130 L290 130 L290 108 Z"
      /></clipPath
      ><clipPath clipPathUnits="userSpaceOnUse" id="clipPath2"
      ><path d="M238 108 L260 108 L260 130 L238 130 L238 108 Z"
      /></clipPath
      ><clipPath clipPathUnits="userSpaceOnUse" id="clipPath3"
      ><path d="M208 119 C208 125.0751 203.0751 130 197 130 C190.9249 130 186 125.0751 186 119 C186 112.9249 190.9249 108 197 108 C203.0751 108 208 112.9249 208 119 Z"
      /></clipPath
      ><clipPath clipPathUnits="userSpaceOnUse" id="clipPath4"
      ><path d="M156 171 C156 177.0751 151.0751 182 145 182 C138.9249 182 134 177.0751 134 171 C134 164.9249 138.9249 160 145 160 C151.0751 160 156 164.9249 156 171 Z"
      /></clipPath
      ><clipPath clipPathUnits="userSpaceOnUse" id="clipPath5"
      ><path d="M82 186 L104 186 L104 208 L82 208 L82 186 Z"
      /></clipPath
      ><clipPath clipPathUnits="userSpaceOnUse" id="clipPath6"
      ><path d="M52 197 C52 203.0751 47.0751 208 41 208 C34.9249 208 30 203.0751 30 197 C30 190.9249 34.9249 186 41 186 C47.0751 186 52 190.9249 52 197 Z"
      /></clipPath
      ><clipPath clipPathUnits="userSpaceOnUse" id="clipPath7"
      ><path d="M82 134 L104 134 L104 156 L82 156 L82 134 Z"
      /></clipPath
      ><clipPath clipPathUnits="userSpaceOnUse" id="clipPath8"
      ><path d="M134 108 L156 108 L156 130 L134 130 L134 108 Z"
      /></clipPath
      ><clipPath clipPathUnits="userSpaceOnUse" id="clipPath9"
      ><path d="M156 67 C156 73.0751 151.0751 78 145 78 C138.9249 78 134 73.0751 134 67 C134 60.9249 138.9249 56 145 56 C151.0751 56 156 60.9249 156 67 Z"
      /></clipPath
      ><clipPath clipPathUnits="userSpaceOnUse" id="clipPath10"
      ><path d="M104 93 C104 99.0751 99.0751 104 93 104 C86.9249 104 82 99.0751 82 93 C82 86.9249 86.9249 82 93 82 C99.0751 82 104 86.9249 104 93 Z"
      /></clipPath
      ><clipPath clipPathUnits="userSpaceOnUse" id="clipPath11"
      ><path d="M104 41 C104 47.0751 99.0751 52 93 52 C86.9249 52 82 47.0751 82 41 C82 34.9249 86.9249 30 93 30 C99.0751 30 104 34.9249 104 41 Z"
      /></clipPath
    ></defs
    ><g style="fill:white; text-rendering:optimizeSpeed; stroke:white;"
    ><rect x="0" width="394" height="238" y="0" style="stroke:none;"
      /><polygon style="fill:none; stroke:black;" points=" 353 119 301 119"
      /><path d="M353 108 C347.5 113.5 358.5 124.5 353 130" style="fill:none; stroke:black;"
      /><polygon style="fill:none; stroke:black;" points=" 301 119 249 119"
      /><rect x="290" y="108" width="22" style="clip-path:url(#clipPath1); stroke:none;" height="22"
      /><rect x="290" y="108" width="22" style="clip-path:url(#clipPath1); fill:rgb(0,144,188); stroke:none;" height="22"
      /><rect x="290" y="108" width="22" style="clip-path:url(#clipPath1); fill:none; stroke:black;" height="22"
      /><rect x="290" y="108" width="22" style="fill:none; stroke:black;" height="22"
      /><polygon style="fill:none; stroke:black;" points=" 249 119 197 119"
      /><rect x="238" y="108" width="22" style="clip-path:url(#clipPath2); stroke:none;" height="22"
      /><rect x="238" y="108" width="22" style="clip-path:url(#clipPath2); fill:rgb(0,144,188); stroke:none;" height="22"
      /><rect x="238" y="108" width="22" style="clip-path:url(#clipPath2); fill:none; stroke:black;" height="22"
      /><rect x="238" y="108" width="22" style="fill:none; stroke:black;" height="22"
      /><polygon style="fill:none; stroke:black;" points=" 197 119 145 171"
      /><polygon style="fill:none; stroke:black;" points=" 197 119 145 119"
      /><polygon style="fill:none; stroke:black;" points=" 197 119 145 67"
      /><circle style="clip-path:url(#clipPath3); stroke:none;" r="11" cx="197" cy="119"
      /><rect x="186" y="108" width="22" style="clip-path:url(#clipPath3); fill:rgb(0,166,81); stroke:none;" height="22"
      /><rect x="186" y="108" width="22" style="clip-path:url(#clipPath3); fill:none; stroke:black;" height="22"
      /><circle style="fill:none; stroke:black;" r="11" cx="197" cy="119"
      /><polygon style="fill:none; stroke:black;" points=" 145 171 93 197"
      /><polygon style="fill:none; stroke:black;" points=" 145 171 93 145"
      /><circle style="clip-path:url(#clipPath4); stroke:none;" r="11" cx="145" cy="171"
      /><rect x="134" y="160" width="22" style="clip-path:url(#clipPath4); fill:rgb(0,166,81); stroke:none;" height="22"
      /><rect x="134" y="160" width="22" style="clip-path:url(#clipPath4); fill:none; stroke:black;" height="22"
      /><circle style="fill:none; stroke:black;" r="11" cx="145" cy="171"
      /><polygon style="fill:none; stroke:black;" points=" 93 197 41 197"
      /><rect x="82" y="186" width="22" style="clip-path:url(#clipPath5); stroke:none;" height="22"
      /><rect x="82" y="186" width="22" style="clip-path:url(#clipPath5); fill:rgb(0,144,188); stroke:none;" height="22"
      /><rect x="82" y="186" width="22" style="clip-path:url(#clipPath5); fill:none; stroke:black;" height="22"
      /><rect x="82" y="186" width="22" style="fill:none; stroke:black;" height="22"
      /><circle style="clip-path:url(#clipPath6); stroke:none;" r="11" cx="41" cy="197"
      /><rect x="30" y="186" width="22" style="clip-path:url(#clipPath6); fill:rgb(255,212,0); stroke:none;" height="22"
      /><rect x="30" y="186" width="22" style="clip-path:url(#clipPath6); fill:none; stroke:black;" height="22"
      /><circle style="fill:none; stroke:black;" r="11" cx="41" cy="197"
      /><rect x="70" y="200" width="7" style="stroke:none;" height="9"
    /></g
    ><g style="font-family:'Serif'; text-rendering:optimizeSpeed; "
    ><path style="stroke:none;" d="M71 205.5156 L73.9531 201.2656 L73.9531 205.5156 L71 205.5156 ZM76.2812 205.5156 L74.8594 205.5156 L74.8594 200.125 L74.2344 200.125 L70.3438 205.6406 L70.3438 206.1875 L73.9531 206.1875 L73.9531 209 L74.8594 209 L74.8594 206.1875 L76.2812 206.1875 L76.2812 205.5156 Z"
      /><rect x="57" y="198" width="6" style="fill:white; stroke:none;" height="13"
      /><path style="stroke:none;" d="M59.0938 204.2031 C59.0938 202.6562 59.75 201.8125 60.7969 201.8125 C61.7188 201.8125 62.2656 202.4531 62.2656 203.5156 C62.2656 204.7188 61.5 205.4375 60.1875 205.7031 L60.2969 206.3125 C62.2188 206.2344 62.9375 207.2188 62.9375 208.4375 C62.9375 209.625 62.2344 210.4219 60.9531 210.4219 C60.25 210.4219 59.6562 210.1562 59.0938 209.7188 L59.0938 204.2031 ZM58.2031 210.9062 L58.1094 213.375 L58.2656 213.4844 L59.1562 213.2656 L59.0156 210.0938 C59.5469 210.8438 60.3594 211.1719 61.1719 211.1719 C62.5625 211.1719 63.8594 210.2188 63.8594 208.4844 C63.8594 206.9531 62.875 206.1094 61.125 206 C62.5625 205.6094 63.1875 204.4531 63.1875 203.4844 C63.1875 202.0938 62.1562 201.3125 60.9062 201.3125 C59.2969 201.3125 58.2188 202.5469 58.2188 204.5156 L58.2031 210.9062 Z"
      /><rect x="82" y="134" width="22" style="clip-path:url(#clipPath7); fill:white; stroke:none;" height="22"
      /><rect x="82" y="134" width="22" style="clip-path:url(#clipPath7); fill:rgb(0,144,188); stroke:none;" height="22"
      /><rect x="82" y="134" width="22" style="fill:none; clip-path:url(#clipPath7);" height="22"
      /><rect x="82" width="22" height="22" y="134" style="fill:none;"
      /><rect x="127" y="182" width="6" style="fill:white; stroke:none;" height="9"
      /><path style="stroke:none;" d="M128.4219 190.0938 C129.0781 189.375 129.7031 188.7188 130.0312 188.3438 C131.9219 186.3125 132.5312 185.4688 132.5312 184.3594 C132.5312 183.0156 131.7812 182.0781 130.1562 182.0781 C128.9062 182.0781 127.7969 182.7031 127.5938 183.9688 C127.7188 184.2031 127.9062 184.3438 128.1562 184.3438 C128.4688 184.3438 128.6562 184.1094 128.7969 183.5938 L129.0938 182.6719 C129.3906 182.5938 129.6562 182.5625 129.8906 182.5625 C130.9219 182.5625 131.5469 183.3125 131.5469 184.4219 C131.5469 185.4375 130.9844 186.4219 129.7031 187.9062 C129.125 188.5781 128.3906 189.4375 127.6406 190.2812 L127.6406 191 L132.9219 191 L132.9219 190.0938 L128.4219 190.0938 Z"
      /><rect x="111" y="188" width="6" style="fill:white; stroke:none;" height="13"
      /><path style="stroke:none;" d="M113.0938 194.2031 C113.0938 192.6562 113.75 191.8125 114.7969 191.8125 C115.7188 191.8125 116.2656 192.4531 116.2656 193.5156 C116.2656 194.7188 115.5 195.4375 114.1875 195.7031 L114.2969 196.3125 C116.2188 196.2344 116.9375 197.2188 116.9375 198.4375 C116.9375 199.625 116.2344 200.4219 114.9531 200.4219 C114.25 200.4219 113.6562 200.1562 113.0938 199.7188 L113.0938 194.2031 ZM112.2031 200.9062 L112.1094 203.375 L112.2656 203.4844 L113.1562 203.2656 L113.0156 200.0938 C113.5469 200.8438 114.3594 201.1719 115.1719 201.1719 C116.5625 201.1719 117.8594 200.2188 117.8594 198.4844 C117.8594 196.9531 116.875 196.1094 115.125 196 C116.5625 195.6094 117.1875 194.4531 117.1875 193.4844 C117.1875 192.0938 116.1562 191.3125 114.9062 191.3125 C113.2969 191.3125 112.2188 192.5469 112.2188 194.5156 L112.2031 200.9062 Z"
      /><rect x="119" y="164" width="7" style="fill:white; stroke:none;" height="9"
      /><path style="stroke:none;" d="M120 169.5156 L122.9531 165.2656 L122.9531 169.5156 L120 169.5156 ZM125.2812 169.5156 L123.8594 169.5156 L123.8594 164.125 L123.2344 164.125 L119.3438 169.6406 L119.3438 170.1875 L122.9531 170.1875 L122.9531 173 L123.8594 173 L123.8594 170.1875 L125.2812 170.1875 L125.2812 169.5156 Z"
      /><rect x="104" y="154" width="6" style="fill:white; stroke:none;" height="13"
      /><path style="stroke:none;" d="M106.0938 160.2031 C106.0938 158.6562 106.75 157.8125 107.7969 157.8125 C108.7188 157.8125 109.2656 158.4531 109.2656 159.5156 C109.2656 160.7188 108.5 161.4375 107.1875 161.7031 L107.2969 162.3125 C109.2188 162.2344 109.9375 163.2188 109.9375 164.4375 C109.9375 165.625 109.2344 166.4219 107.9531 166.4219 C107.25 166.4219 106.6562 166.1562 106.0938 165.7188 L106.0938 160.2031 ZM105.2031 166.9062 L105.1094 169.375 L105.2656 169.4844 L106.1562 169.2656 L106.0156 166.0938 C106.5469 166.8438 107.3594 167.1719 108.1719 167.1719 C109.5625 167.1719 110.8594 166.2188 110.8594 164.4844 C110.8594 162.9531 109.875 162.1094 108.125 162 C109.5625 161.6094 110.1875 160.4531 110.1875 159.4844 C110.1875 158.0938 109.1562 157.3125 107.9062 157.3125 C106.2969 157.3125 105.2188 158.5469 105.2188 160.5156 L105.2031 166.9062 Z"
      /><rect x="134" y="108" width="22" style="clip-path:url(#clipPath8); fill:white; stroke:none;" height="22"
      /><rect x="134" y="108" width="22" style="clip-path:url(#clipPath8); fill:rgb(0,144,188); stroke:none;" height="22"
      /><rect x="134" y="108" width="22" style="fill:none; clip-path:url(#clipPath8);" height="22"
      /><rect x="134" width="22" height="22" y="108" style="fill:none;"
      /><polygon style="fill:none;" points=" 145 67 93 93"
      /><polygon style="fill:none;" points=" 145 67 93 41"
      /><circle style="fill:white; clip-path:url(#clipPath9); stroke:none;" r="11" cx="145" cy="67"
      /><rect x="134" y="56" width="22" style="clip-path:url(#clipPath9); fill:rgb(0,166,81); stroke:none;" height="22"
      /><rect x="134" y="56" width="22" style="fill:none; clip-path:url(#clipPath9);" height="22"
      /><circle r="11" style="fill:none;" cx="145" cy="67"
      /><circle style="fill:white; clip-path:url(#clipPath10); stroke:none;" r="11" cx="93" cy="93"
      /><rect x="82" y="82" width="22" style="clip-path:url(#clipPath10); fill:rgb(0,166,81); stroke:none;" height="22"
      /><rect x="82" y="82" width="22" style="fill:none; clip-path:url(#clipPath10);" height="22"
      /><circle r="11" style="fill:none;" cx="93" cy="93"
      /><circle style="fill:white; clip-path:url(#clipPath11); stroke:none;" r="11" cx="93" cy="41"
      /><rect x="82" y="30" width="22" style="clip-path:url(#clipPath11); fill:rgb(0,166,81); stroke:none;" height="22"
      /><rect x="82" y="30" width="22" style="fill:none; clip-path:url(#clipPath11);" height="22"
      /><circle r="11" style="fill:none;" cx="93" cy="41"
      /><rect x="127" y="78" width="6" style="fill:white; stroke:none;" height="10"
      /><path style="stroke:none;" d="M129.2344 79.6562 C129.5156 79.5938 129.7656 79.5625 130.0156 79.5625 C131.0625 79.5625 131.6719 80.1719 131.6719 81.2656 C131.6719 82.4375 130.9062 83.1094 129.7031 83.1094 L129.1875 83.1094 L129.1875 83.6406 L129.7969 83.6406 C131.2188 83.6406 131.9062 84.4219 131.9062 85.6406 C131.9062 86.8438 131.1719 87.6875 129.875 87.6875 C129.6094 87.6875 129.3125 87.6562 129.0156 87.5625 L128.7812 86.8125 C128.625 86.2812 128.5 86.0469 128.1406 86.0469 C127.8906 86.0469 127.7031 86.1719 127.5781 86.4219 C127.8438 87.6406 128.7812 88.1719 130.0312 88.1719 C131.7188 88.1719 132.875 87.125 132.875 85.7031 C132.875 84.5 132.2031 83.625 130.7969 83.375 C131.9531 83.0156 132.6094 82.2031 132.6094 81.2031 C132.6094 79.9219 131.6719 79.0781 130.1875 79.0781 C129.0469 79.0781 128.0625 79.5938 127.7969 80.6875 C127.9062 81 128.1094 81.1094 128.3594 81.1094 C128.7344 81.1094 128.8906 80.8906 129 80.4062 L129.2344 79.6562 Z"
      /><rect x="110" y="87" width="8" style="fill:white; stroke:none;" height="8"
      /><path style="stroke:none;" d="M114.9844 92.7031 C114.9375 93.8906 114.1562 94.6562 113.3125 94.6562 C112.2656 94.6562 111.5 93.6875 111.5 91.7188 C111.5 90.2812 112.1562 89.1562 113.3438 89.1562 C114.1406 89.1562 114.7812 89.6875 115.0938 90.6406 L114.9844 92.7031 ZM116.9062 94.2812 C116.7344 94.375 116.5469 94.4219 116.3438 94.4219 C115.9531 94.4219 115.75 94.2188 115.75 93.4219 C115.75 92.4844 115.9688 90.5312 116.1875 88.8281 L116.0312 88.7188 L115.2344 88.9219 L115.1406 89.7969 C114.7812 89.0312 114.1562 88.6562 113.3906 88.6562 C112.0469 88.6562 110.5625 89.8438 110.5625 91.9531 C110.5625 94.0938 111.7188 95.1719 113.1406 95.1719 C114.0156 95.1719 114.6875 94.8125 115.0938 93.9844 C115.2031 94.8594 115.5156 95.1719 116.0156 95.1719 C116.4688 95.1719 116.7969 94.9062 117.0156 94.5625 L116.9062 94.2812 Z"
      /><rect x="120" y="60" width="6" style="fill:white; stroke:none;" height="10"
      /><path style="stroke:none;" d="M123.3438 69.6875 C122.2031 69.6875 121.5312 68.5 121.5312 66.2969 C121.5312 66.2188 121.5312 66.125 121.5312 66.0469 C122.0938 65.5 122.7188 65.3125 123.3438 65.3125 C124.3125 65.3125 124.9531 65.9844 124.9531 67.4531 C124.9531 68.9375 124.3125 69.6875 123.3438 69.6875 ZM125.5312 61.0781 C122.3438 61.4531 120.5625 63.7656 120.5625 66.4531 C120.5625 68.7812 121.6094 70.1719 123.3125 70.1719 C124.8438 70.1719 125.9219 69.1094 125.9219 67.2812 C125.9219 65.6875 124.9688 64.6562 123.5625 64.6562 C122.8281 64.6562 122.1406 64.9844 121.5781 65.5781 C121.7969 63.4062 123.0781 61.9688 125.5938 61.3906 L125.5312 61.0781 Z"
      /><rect x="103" y="53" width="8" style="fill:white; stroke:none;" height="8"
      /><path style="stroke:none;" d="M107.9844 58.7031 C107.9375 59.8906 107.1562 60.6562 106.3125 60.6562 C105.2656 60.6562 104.5 59.6875 104.5 57.7188 C104.5 56.2812 105.1562 55.1562 106.3438 55.1562 C107.1406 55.1562 107.7812 55.6875 108.0938 56.6406 L107.9844 58.7031 ZM109.9062 60.2812 C109.7344 60.375 109.5469 60.4219 109.3438 60.4219 C108.9531 60.4219 108.75 60.2188 108.75 59.4219 C108.75 58.4844 108.9688 56.5312 109.1875 54.8281 L109.0312 54.7188 L108.2344 54.9219 L108.1406 55.7969 C107.7812 55.0312 107.1562 54.6562 106.3906 54.6562 C105.0469 54.6562 103.5625 55.8438 103.5625 57.9531 C103.5625 60.0938 104.7188 61.1719 106.1406 61.1719 C107.0156 61.1719 107.6875 60.8125 108.0938 59.9844 C108.2031 60.8594 108.5156 61.1719 109.0156 61.1719 C109.4688 61.1719 109.7969 60.9062 110.0156 60.5625 L109.9062 60.2812 Z"
      /><rect x="183" y="136" width="6" style="fill:white; stroke:none;" height="10"
      /><path style="stroke:none;" d="M185.2344 137.6562 C185.5156 137.5938 185.7656 137.5625 186.0156 137.5625 C187.0625 137.5625 187.6719 138.1719 187.6719 139.2656 C187.6719 140.4375 186.9062 141.1094 185.7031 141.1094 L185.1875 141.1094 L185.1875 141.6406 L185.7969 141.6406 C187.2188 141.6406 187.9062 142.4219 187.9062 143.6406 C187.9062 144.8438 187.1719 145.6875 185.875 145.6875 C185.6094 145.6875 185.3125 145.6562 185.0156 145.5625 L184.7812 144.8125 C184.625 144.2812 184.5 144.0469 184.1406 144.0469 C183.8906 144.0469 183.7031 144.1719 183.5781 144.4219 C183.8438 145.6406 184.7812 146.1719 186.0312 146.1719 C187.7188 146.1719 188.875 145.125 188.875 143.7031 C188.875 142.5 188.2031 141.625 186.7969 141.375 C187.9531 141.0156 188.6094 140.2031 188.6094 139.2031 C188.6094 137.9219 187.6719 137.0781 186.1875 137.0781 C185.0469 137.0781 184.0625 137.5938 183.7969 138.6875 C183.9062 139 184.1094 139.1094 184.3594 139.1094 C184.7344 139.1094 184.8906 138.8906 185 138.4062 L185.2344 137.6562 Z"
      /><rect x="163" y="156" width="8" style="fill:white; stroke:none;" height="8"
      /><path style="stroke:none;" d="M167.9844 161.7031 C167.9375 162.8906 167.1562 163.6562 166.3125 163.6562 C165.2656 163.6562 164.5 162.6875 164.5 160.7188 C164.5 159.2812 165.1562 158.1562 166.3438 158.1562 C167.1406 158.1562 167.7812 158.6875 168.0938 159.6406 L167.9844 161.7031 ZM169.9062 163.2812 C169.7344 163.375 169.5469 163.4219 169.3438 163.4219 C168.9531 163.4219 168.75 163.2188 168.75 162.4219 C168.75 161.4844 168.9688 159.5312 169.1875 157.8281 L169.0312 157.7188 L168.2344 157.9219 L168.1406 158.7969 C167.7812 158.0312 167.1562 157.6562 166.3906 157.6562 C165.0469 157.6562 163.5625 158.8438 163.5625 160.9531 C163.5625 163.0938 164.7188 164.1719 166.1406 164.1719 C167.0156 164.1719 167.6875 163.8125 168.0938 162.9844 C168.2031 163.8594 168.5156 164.1719 169.0156 164.1719 C169.4688 164.1719 169.7969 163.9062 170.0156 163.5625 L169.9062 163.2812 Z"
      /><rect x="174" y="122" width="7" style="fill:white; stroke:none;" height="9"
      /><path style="stroke:none;" d="M175 127.5156 L177.9531 123.2656 L177.9531 127.5156 L175 127.5156 ZM180.2812 127.5156 L178.8594 127.5156 L178.8594 122.125 L178.2344 122.125 L174.3438 127.6406 L174.3438 128.1875 L177.9531 128.1875 L177.9531 131 L178.8594 131 L178.8594 128.1875 L180.2812 128.1875 L180.2812 127.5156 Z"
      /><rect x="161" y="120" width="6" style="fill:white; stroke:none;" height="13"
      /><path style="stroke:none;" d="M163.0938 126.2031 C163.0938 124.6562 163.75 123.8125 164.7969 123.8125 C165.7188 123.8125 166.2656 124.4531 166.2656 125.5156 C166.2656 126.7188 165.5 127.4375 164.1875 127.7031 L164.2969 128.3125 C166.2188 128.2344 166.9375 129.2188 166.9375 130.4375 C166.9375 131.625 166.2344 132.4219 164.9531 132.4219 C164.25 132.4219 163.6562 132.1562 163.0938 131.7188 L163.0938 126.2031 ZM162.2031 132.9062 L162.1094 135.375 L162.2656 135.4844 L163.1562 135.2656 L163.0156 132.0938 C163.5469 132.8438 164.3594 133.1719 165.1719 133.1719 C166.5625 133.1719 167.8594 132.2188 167.8594 130.4844 C167.8594 128.9531 166.875 128.1094 165.125 128 C166.5625 127.6094 167.1875 126.4531 167.1875 125.4844 C167.1875 124.0938 166.1562 123.3125 164.9062 123.3125 C163.2969 123.3125 162.2188 124.5469 162.2188 126.5156 L162.2031 132.9062 Z"
      /><rect x="171" y="103" width="6" style="fill:white; stroke:none;" height="10"
      /><path style="stroke:none;" d="M174.3438 112.6875 C173.2031 112.6875 172.5312 111.5 172.5312 109.2969 C172.5312 109.2188 172.5312 109.125 172.5312 109.0469 C173.0938 108.5 173.7188 108.3125 174.3438 108.3125 C175.3125 108.3125 175.9531 108.9844 175.9531 110.4531 C175.9531 111.9375 175.3125 112.6875 174.3438 112.6875 ZM176.5312 104.0781 C173.3438 104.4531 171.5625 106.7656 171.5625 109.4531 C171.5625 111.7812 172.6094 113.1719 174.3125 113.1719 C175.8438 113.1719 176.9219 112.1094 176.9219 110.2812 C176.9219 108.6875 175.9688 107.6562 174.5625 107.6562 C173.8281 107.6562 173.1406 107.9844 172.5781 108.5781 C172.7969 106.4062 174.0781 104.9688 176.5938 104.3906 L176.5312 104.0781 Z"
      /><rect x="152" y="85" width="8" style="fill:white; stroke:none;" height="8"
      /><path style="stroke:none;" d="M156.9844 90.7031 C156.9375 91.8906 156.1562 92.6562 155.3125 92.6562 C154.2656 92.6562 153.5 91.6875 153.5 89.7188 C153.5 88.2812 154.1562 87.1562 155.3438 87.1562 C156.1406 87.1562 156.7812 87.6875 157.0938 88.6406 L156.9844 90.7031 ZM158.9062 92.2812 C158.7344 92.375 158.5469 92.4219 158.3438 92.4219 C157.9531 92.4219 157.75 92.2188 157.75 91.4219 C157.75 90.4844 157.9688 88.5312 158.1875 86.8281 L158.0312 86.7188 L157.2344 86.9219 L157.1406 87.7969 C156.7812 87.0312 156.1562 86.6562 155.3906 86.6562 C154.0469 86.6562 152.5625 87.8438 152.5625 89.9531 C152.5625 92.0938 153.7188 93.1719 155.1406 93.1719 C156.0156 93.1719 156.6875 92.8125 157.0938 91.9844 C157.2031 92.8594 157.5156 93.1719 158.0156 93.1719 C158.4688 93.1719 158.7969 92.9062 159.0156 92.5625 L158.9062 92.2812 Z"
      /><rect x="226" y="122" width="7" style="fill:white; stroke:none;" height="9"
      /><path style="stroke:none;" d="M227 127.5156 L229.9531 123.2656 L229.9531 127.5156 L227 127.5156 ZM232.2812 127.5156 L230.8594 127.5156 L230.8594 122.125 L230.2344 122.125 L226.3438 127.6406 L226.3438 128.1875 L229.9531 128.1875 L229.9531 131 L230.8594 131 L230.8594 128.1875 L232.2812 128.1875 L232.2812 127.5156 Z"
      /><rect x="213" y="120" width="6" style="fill:white; stroke:none;" height="13"
      /><path style="stroke:none;" d="M215.0938 126.2031 C215.0938 124.6562 215.75 123.8125 216.7969 123.8125 C217.7188 123.8125 218.2656 124.4531 218.2656 125.5156 C218.2656 126.7188 217.5 127.4375 216.1875 127.7031 L216.2969 128.3125 C218.2188 128.2344 218.9375 129.2188 218.9375 130.4375 C218.9375 131.625 218.2344 132.4219 216.9531 132.4219 C216.25 132.4219 215.6562 132.1562 215.0938 131.7188 L215.0938 126.2031 ZM214.2031 132.9062 L214.1094 135.375 L214.2656 135.4844 L215.1562 135.2656 L215.0156 132.0938 C215.5469 132.8438 216.3594 133.1719 217.1719 133.1719 C218.5625 133.1719 219.8594 132.2188 219.8594 130.4844 C219.8594 128.9531 218.875 128.1094 217.125 128 C218.5625 127.6094 219.1875 126.4531 219.1875 125.4844 C219.1875 124.0938 218.1562 123.3125 216.9062 123.3125 C215.2969 123.3125 214.2188 124.5469 214.2188 126.5156 L214.2031 132.9062 Z"
      /><rect x="278" y="122" width="7" style="fill:white; stroke:none;" height="9"
      /><path style="stroke:none;" d="M279 127.5156 L281.9531 123.2656 L281.9531 127.5156 L279 127.5156 ZM284.2812 127.5156 L282.8594 127.5156 L282.8594 122.125 L282.2344 122.125 L278.3438 127.6406 L278.3438 128.1875 L281.9531 128.1875 L281.9531 131 L282.8594 131 L282.8594 128.1875 L284.2812 128.1875 L284.2812 127.5156 Z"
      /><rect x="265" y="120" width="6" style="fill:white; stroke:none;" height="13"
      /><path style="stroke:none;" d="M267.0938 126.2031 C267.0938 124.6562 267.75 123.8125 268.7969 123.8125 C269.7188 123.8125 270.2656 124.4531 270.2656 125.5156 C270.2656 126.7188 269.5 127.4375 268.1875 127.7031 L268.2969 128.3125 C270.2188 128.2344 270.9375 129.2188 270.9375 130.4375 C270.9375 131.625 270.2344 132.4219 268.9531 132.4219 C268.25 132.4219 267.6562 132.1562 267.0938 131.7188 L267.0938 126.2031 ZM266.2031 132.9062 L266.1094 135.375 L266.2656 135.4844 L267.1562 135.2656 L267.0156 132.0938 C267.5469 132.8438 268.3594 133.1719 269.1719 133.1719 C270.5625 133.1719 271.8594 132.2188 271.8594 130.4844 C271.8594 128.9531 270.875 128.1094 269.125 128 C270.5625 127.6094 271.1875 126.4531 271.1875 125.4844 C271.1875 124.0938 270.1562 123.3125 268.9062 123.3125 C267.2969 123.3125 266.2188 124.5469 266.2188 126.5156 L266.2031 132.9062 Z"
      /><rect x="317" y="122" width="5" style="fill:white; stroke:none;" height="10"
      /><path style="stroke:none;" d="M318.8906 130.6875 C318.4844 130.6875 318.1562 131.0469 318.1562 131.4219 C318.1562 131.8125 318.4844 132.1562 318.8906 132.1562 C319.2969 132.1562 319.6406 131.8125 319.6406 131.4219 C319.6406 131.0469 319.2969 130.6875 318.8906 130.6875 ZM320.4688 124.5781 C320.7188 124.8906 320.875 125.2656 320.8906 125.6562 C320.8906 126.1875 320.625 126.5 320.0312 126.7656 L319.4062 127.0156 C318.6406 127.3125 318.3906 127.5469 318.3906 127.9375 C318.3906 128.1094 318.4531 128.3438 318.5781 128.8125 L318.7344 129.3438 L319.1094 129.3438 L319.0938 128.5312 C319.0938 128.0938 319.2031 127.9688 319.7812 127.7344 L320.2031 127.5625 C321.0312 127.2188 321.4531 126.6875 321.4531 125.8438 C321.4531 124.1562 319.6562 123.1875 318.5 123.0312 C318.1094 123.125 317.9062 123.2969 317.9062 123.6406 C317.9062 123.9375 318.0625 124.1562 318.7188 124.2656 L320.4688 124.5781 Z"
    /></g
  ></g
></svg
>
