<?xml version="1.0"?>
<!DOCTYPE svg PUBLIC '-//W3C//DTD SVG 1.0//EN'
          'http://www.w3.org/TR/2001/REC-SVG-20010904/DTD/svg10.dtd'>
<svg xmlns:xlink="http://www.w3.org/1999/xlink" style="fill-opacity:1; color-rendering:auto; color-interpolation:auto; text-rendering:auto; stroke:black; stroke-linecap:square; stroke-miterlimit:10; shape-rendering:auto; stroke-opacity:1; fill:black; stroke-dasharray:none; font-weight:normal; stroke-width:1; font-family:'Dialog'; font-style:normal; stroke-linejoin:miter; font-size:12px; stroke-dashoffset:0; image-rendering:auto;" viewBox="0 0 498 180" xmlns="http://www.w3.org/2000/svg"
><!--Generated by the Batik Graphics2D SVG Generator--><defs id="genericDefs"
  /><g
  ><defs id="defs1"
    ><clipPath clipPathUnits="userSpaceOnUse" id="clipPath1"
      ><path style="fill-rule:evenodd;" d="M399 68 L405 68 L405 112 L399 112 L405 112 L405 68 Z"
      /></clipPath
      ><clipPath clipPathUnits="userSpaceOnUse" id="clipPath2"
      ><path d="M364 90 C364 96.0751 359.0751 101 353 101 C346.9249 101 342 96.0751 342 90 C342 83.9249 346.9249 79 353 79 C359.0751 79 364 83.9249 364 90 Z"
      /></clipPath
      ><clipPath clipPathUnits="userSpaceOnUse" id="clipPath3"
      ><path d="M312 90 C312 96.0751 307.0751 101 301 101 C294.9249 101 290 96.0751 290 90 C290 83.9249 294.9249 79 301 79 C307.0751 79 312 83.9249 312 90 Z"
      /></clipPath
      ><clipPath clipPathUnits="userSpaceOnUse" id="clipPath4"
      ><path style="fill-rule:evenodd;" d="M197 79 L199 86 L207 86 L200 91 L203 98 L197 94 L190 98 L193 91 L186 86 L194 86 L197 79 Z"
      /></clipPath
      ><clipPath clipPathUnits="userSpaceOnUse" id="clipPath5"
      ><path d="M156 90 C156 96.0751 151.0751 101 145 101 C138.9249 101 134 96.0751 134 90 C134 83.9249 138.9249 79 145 79 C151.0751 79 156 83.9249 156 90 Z"
      /></clipPath
      ><clipPath clipPathUnits="userSpaceOnUse" id="clipPath6"
      ><path d="M82 79 L104 79 L104 101 L82 101 L82 79 Z"
      /></clipPath
      ><clipPath clipPathUnits="userSpaceOnUse" id="clipPath7"
      ><path style="fill-rule:evenodd;" d="M46 138 L41 138 L40 94 L46 94 L40 94 L41 138 Z"
      /></clipPath
      ><clipPath clipPathUnits="userSpaceOnUse" id="clipPath8"
      ><path d="M52 41 C52 47.0751 47.0751 52 41 52 C34.9249 52 30 47.0751 30 41 C30 34.9249 34.9249 30 41 30 C47.0751 30 52 34.9249 52 41 Z"
      /></clipPath
    ></defs
    ><g style="fill:white; text-rendering:optimizeSpeed; stroke:white;"
    ><rect x="0" width="498" height="180" y="0" style="stroke:none;"
      /><polygon style="fill:none; stroke:black;" points=" 457 90 405 90"
      /><path d="M457 79 C451.5 84.5 462.5 95.5 457 101" style="fill:none; stroke:black;"
      /><polygon style="fill:none; stroke:black;" points=" 405 90 353 90"
      /><polygon style="clip-path:url(#clipPath1); stroke:none;" points=" 399 68 405 68 405 112 399 112 405 112 405 68"
      /><rect x="394" y="56" width="22" style="clip-path:url(#clipPath1); fill:black; stroke:none;" height="68"
      /><rect x="394" y="56" width="22" style="clip-path:url(#clipPath1); fill:none; stroke:black;" height="68"
      /><polygon style="fill:none; stroke:black;" points=" 399 68 405 68 405 112 399 112 405 112 405 68"
      /><polygon style="fill:none; stroke:black;" points=" 353 90 301 90"
      /><circle style="clip-path:url(#clipPath2); stroke:none;" r="11" cx="353" cy="90"
      /><rect x="342" y="79" width="22" style="clip-path:url(#clipPath2); fill:rgb(255,212,0); stroke:none;" height="22"
      /><rect x="342" y="79" width="22" style="clip-path:url(#clipPath2); fill:none; stroke:black;" height="22"
      /><circle style="fill:none; stroke:black;" r="11" cx="353" cy="90"
      /><polygon style="fill:none; stroke:black;" points=" 301 90 249 90"
      /><circle style="clip-path:url(#clipPath3); stroke:none;" r="11" cx="301" cy="90"
      /><rect x="290" y="79" width="22" style="clip-path:url(#clipPath3); fill:rgb(255,212,0); stroke:none;" height="22"
      /><rect x="290" y="79" width="22" style="clip-path:url(#clipPath3); fill:none; stroke:black;" height="22"
      /><circle style="fill:none; stroke:black;" r="11" cx="301" cy="90"
    /></g
    ><g style="text-rendering:optimizeSpeed; font-size:10px; font-family:'SansSerif';"
    ><path style="stroke:none;" d="M300.0625 94 L300.9844 94 L300.9844 89.3125 L302.125 89.3125 L302.125 88.5625 L300.9844 88.5625 L300.9844 87.7031 C300.9844 87.0156 301.2344 86.6406 301.75 86.6406 C301.9375 86.6406 302.1562 86.6875 302.3594 86.7812 L302.5625 86.0938 C302.3125 85.9844 301.9844 85.9062 301.6562 85.9062 C300.5625 85.9062 300.0625 86.5938 300.0625 87.7031 L300.0625 88.5625 L299.3281 88.625 L299.3281 89.3125 L300.0625 89.3125 L300.0625 94 Z"
      /><polygon style="fill:none;" points=" 249 90 197 90"
      /><rect x="245" y="84" width="6" style="fill:white; stroke:none;" height="10"
      /><path style="stroke:none;" d="M246.4062 95 L247.7031 95 L247.7031 90.9219 L249.3906 90.9219 C251.6562 90.9219 253.1719 89.9219 253.1719 87.75 C253.1719 85.5156 251.6406 84.7188 249.3438 84.7188 L246.4062 84.7188 L246.4062 95 ZM247.7031 89.875 L247.7031 85.7812 L249.1719 85.7812 C250.9844 85.7812 251.8906 86.2656 251.8906 87.75 C251.8906 89.2188 251.0312 89.875 249.2344 89.875 L247.7031 89.875 Z"
      /><polygon style="fill:none;" points=" 197 90 145 90"
    /></g
    ><g style="fill:white; text-rendering:optimizeSpeed; stroke:white;"
    ><polygon style="stroke:none; clip-path:url(#clipPath4);" points=" 197 79 199 86 207 86 200 91 203 98 197 94 190 98 193 91 186 86 194 86 197 79"
      /><rect x="186" y="79" width="22" style="clip-path:url(#clipPath4); fill:rgb(246,158,161); stroke:none;" height="22"
      /><rect x="186" y="79" width="22" style="clip-path:url(#clipPath4); fill:none; stroke:black;" height="22"
      /><polygon style="fill:none; stroke:black;" points=" 197 79 199 86 207 86 200 91 203 98 197 94 190 98 193 91 186 86 194 86 197 79"
    /></g
    ><g style="font-style:italic; text-rendering:optimizeSpeed; font-size:10px; font-family:'SansSerif';"
    ><path style="stroke:none;" d="M197 92.125 C198.3281 92.125 199.7344 91.0938 200.125 89.2969 C200.5 87.4844 199.5469 86.4375 198.2188 86.4375 C196.8906 86.4375 195.4688 87.4844 195.0938 89.2969 C194.7031 91.0938 195.6719 92.125 197 92.125 ZM197.1719 91.375 C196.2344 91.375 195.7656 90.5469 196.0312 89.2969 C196.2969 88.0469 197.1094 87.1875 198.0469 87.1875 C198.9844 87.1875 199.4531 88.0469 199.1875 89.2969 C198.9219 90.5469 198.1094 91.375 197.1719 91.375 Z"
      /><polygon style="fill:none;" points=" 145 90 93 90"
    /></g
    ><g style="fill:white; text-rendering:optimizeSpeed; stroke:white;"
    ><circle r="11" style="clip-path:url(#clipPath5); stroke:none;" cx="145" cy="90"
      /><rect x="134" y="79" width="22" style="clip-path:url(#clipPath5); fill:rgb(255,212,0); stroke:none;" height="22"
      /><rect x="134" y="79" width="22" style="clip-path:url(#clipPath5); fill:none; stroke:black;" height="22"
      /><circle r="11" style="fill:none; stroke:black;" cx="145" cy="90"
      /><polygon style="fill:none; stroke:black;" points=" 93 90 41 116"
      /><polygon style="fill:none; stroke:black;" points=" 93 90 41 41"
      /><rect x="82" y="79" width="22" style="clip-path:url(#clipPath6); stroke:none;" height="22"
      /><rect x="82" y="79" width="22" style="clip-path:url(#clipPath6); fill:rgb(255,212,0); stroke:none;" height="22"
      /><rect x="82" y="79" width="22" style="clip-path:url(#clipPath6); fill:none; stroke:black;" height="22"
      /><rect x="82" y="79" width="22" style="fill:none; stroke:black;" height="22"
      /><polygon style="clip-path:url(#clipPath7); stroke:none;" points=" 46 138 41 138 40 94 46 94 40 94 41 138"
      /><rect x="30" y="82" width="22" style="clip-path:url(#clipPath7); fill:black; stroke:none;" height="68"
      /><rect x="30" y="82" width="22" style="clip-path:url(#clipPath7); fill:none; stroke:black;" height="68"
      /><polygon style="fill:none; stroke:black;" points=" 46 138 41 138 40 94 46 94 40 94 41 138"
      /><path d="M43.5469 147.9531 C43.5156 147.2969 43.5 146.3906 43.5 145.7656 L43.5 144.5156 C43.5 142.8281 42.9531 142.1562 41.8594 142.1562 C41.0625 142.1562 40.1562 142.625 39.4531 143.4062 L39.3594 142.2969 L39.2031 142.1719 L37.4688 142.8125 L37.4688 143.2031 L38.5312 143.2812 C38.5625 143.8438 38.5781 144.3438 38.5781 145.1094 L38.5781 145.7656 C38.5781 146.375 38.5781 147.2969 38.5469 147.9688 L37.5469 148.1094 L37.5469 148.5 L40.4688 148.5 L40.4688 148.1094 L39.5156 147.9531 C39.5156 147.2969 39.5 146.375 39.5 145.7656 L39.5 143.875 C40.2656 143.1562 40.875 142.9062 41.4688 142.9062 C42.2344 142.9062 42.5938 143.3125 42.5938 144.5625 L42.5938 145.7656 C42.5938 146.3906 42.5781 147.3125 42.5625 147.9688 L41.5469 148.1094 L41.5469 148.5 L44.4844 148.5 L44.4844 148.1094 L43.5469 147.9531 Z" style="fill:black; stroke:none;"
      /><circle r="11" style="clip-path:url(#clipPath8); stroke:none;" cx="41" cy="41"
      /><rect x="30" y="30" width="22" style="clip-path:url(#clipPath8); fill:rgb(255,212,0); stroke:none;" height="22"
      /><rect x="30" y="30" width="22" style="clip-path:url(#clipPath8); fill:none; stroke:black;" height="22"
      /><circle r="11" style="fill:none; stroke:black;" cx="41" cy="41"
    /></g
    ><g style="text-rendering:optimizeSpeed; font-size:10px; font-family:'SansSerif';"
    ><path style="stroke:none;" d="M40.0625 45 L40.9844 45 L40.9844 40.3125 L42.125 40.3125 L42.125 39.5625 L40.9844 39.5625 L40.9844 38.7031 C40.9844 38.0156 41.2344 37.6406 41.75 37.6406 C41.9375 37.6406 42.1562 37.6875 42.3594 37.7812 L42.5625 37.0938 C42.3125 36.9844 41.9844 36.9062 41.6562 36.9062 C40.5625 36.9062 40.0625 37.5938 40.0625 38.7031 L40.0625 39.5625 L39.3281 39.625 L39.3281 40.3125 L40.0625 40.3125 L40.0625 45 Z"
    /></g
    ><g style="fill:white; text-rendering:optimizeSpeed; font-family:'Serif'; stroke:white;"
    ><rect x="74" width="7" height="9" y="101" style="stroke:none;"
      /><path d="M75 106.5156 L77.9531 102.2656 L77.9531 106.5156 L75 106.5156 ZM80.2812 106.5156 L78.8594 106.5156 L78.8594 101.125 L78.2344 101.125 L74.3438 106.6406 L74.3438 107.1875 L77.9531 107.1875 L77.9531 110 L78.8594 110 L78.8594 107.1875 L80.2812 107.1875 L80.2812 106.5156 Z" style="fill:black; stroke:none;"
      /><rect x="67" width="6" height="10" y="74" style="stroke:none;"
      /><path d="M70.3438 83.6875 C69.2031 83.6875 68.5312 82.5 68.5312 80.2969 C68.5312 80.2188 68.5312 80.125 68.5312 80.0469 C69.0938 79.5 69.7188 79.3125 70.3438 79.3125 C71.3125 79.3125 71.9531 79.9844 71.9531 81.4531 C71.9531 82.9375 71.3125 83.6875 70.3438 83.6875 ZM72.5312 75.0781 C69.3438 75.4531 67.5625 77.7656 67.5625 80.4531 C67.5625 82.7812 68.6094 84.1719 70.3125 84.1719 C71.8438 84.1719 72.9219 83.1094 72.9219 81.2812 C72.9219 79.6875 71.9688 78.6562 70.5625 78.6562 C69.8281 78.6562 69.1406 78.9844 68.5781 79.5781 C68.7969 77.4062 70.0781 75.9688 72.5938 75.3906 L72.5312 75.0781 Z" style="fill:black; stroke:none;"
      /><rect x="49" width="6" height="13" y="56" style="stroke:none;"
      /><path d="M51.0938 62.2031 C51.0938 60.6562 51.75 59.8125 52.7969 59.8125 C53.7188 59.8125 54.2656 60.4531 54.2656 61.5156 C54.2656 62.7188 53.5 63.4375 52.1875 63.7031 L52.2969 64.3125 C54.2188 64.2344 54.9375 65.2188 54.9375 66.4375 C54.9375 67.625 54.2344 68.4219 52.9531 68.4219 C52.25 68.4219 51.6562 68.1562 51.0938 67.7188 L51.0938 62.2031 ZM50.2031 68.9062 L50.1094 71.375 L50.2656 71.4844 L51.1562 71.2656 L51.0156 68.0938 C51.5469 68.8438 52.3594 69.1719 53.1719 69.1719 C54.5625 69.1719 55.8594 68.2188 55.8594 66.4844 C55.8594 64.9531 54.875 64.1094 53.125 64 C54.5625 63.6094 55.1875 62.4531 55.1875 61.4844 C55.1875 60.0938 54.1562 59.3125 52.9062 59.3125 C51.2969 59.3125 50.2188 60.5469 50.2188 62.5156 L50.2031 68.9062 Z" style="fill:black; stroke:none;"
      /><rect x="123" width="6" height="10" y="93" style="stroke:none;"
      /><path d="M125.2344 94.6562 C125.5156 94.5938 125.7656 94.5625 126.0156 94.5625 C127.0625 94.5625 127.6719 95.1719 127.6719 96.2656 C127.6719 97.4375 126.9062 98.1094 125.7031 98.1094 L125.1875 98.1094 L125.1875 98.6406 L125.7969 98.6406 C127.2188 98.6406 127.9062 99.4219 127.9062 100.6406 C127.9062 101.8438 127.1719 102.6875 125.875 102.6875 C125.6094 102.6875 125.3125 102.6562 125.0156 102.5625 L124.7812 101.8125 C124.625 101.2812 124.5 101.0469 124.1406 101.0469 C123.8906 101.0469 123.7031 101.1719 123.5781 101.4219 C123.8438 102.6406 124.7812 103.1719 126.0312 103.1719 C127.7188 103.1719 128.875 102.125 128.875 100.7031 C128.875 99.5 128.2031 98.625 126.7969 98.375 C127.9531 98.0156 128.6094 97.2031 128.6094 96.2031 C128.6094 94.9219 127.6719 94.0781 126.1875 94.0781 C125.0469 94.0781 124.0625 94.5938 123.7969 95.6875 C123.9062 96 124.1094 96.1094 124.3594 96.1094 C124.7344 96.1094 124.8906 95.8906 125 95.4062 L125.2344 94.6562 Z" style="fill:black; stroke:none;"
      /><rect x="109" width="6" height="13" y="91" style="stroke:none;"
      /><path d="M111.0938 97.2031 C111.0938 95.6562 111.75 94.8125 112.7969 94.8125 C113.7188 94.8125 114.2656 95.4531 114.2656 96.5156 C114.2656 97.7188 113.5 98.4375 112.1875 98.7031 L112.2969 99.3125 C114.2188 99.2344 114.9375 100.2188 114.9375 101.4375 C114.9375 102.625 114.2344 103.4219 112.9531 103.4219 C112.25 103.4219 111.6562 103.1562 111.0938 102.7188 L111.0938 97.2031 ZM110.2031 103.9062 L110.1094 106.375 L110.2656 106.4844 L111.1562 106.2656 L111.0156 103.0938 C111.5469 103.8438 112.3594 104.1719 113.1719 104.1719 C114.5625 104.1719 115.8594 103.2188 115.8594 101.4844 C115.8594 99.9531 114.875 99.1094 113.125 99 C114.5625 98.6094 115.1875 97.4531 115.1875 96.4844 C115.1875 95.0938 114.1562 94.3125 112.9062 94.3125 C111.2969 94.3125 110.2188 95.5469 110.2188 97.5156 L110.2031 103.9062 Z" style="fill:black; stroke:none;"
      /><rect x="175" width="6" height="9" y="93" style="stroke:none;"
      /><path d="M176.4219 101.0938 C177.0781 100.375 177.7031 99.7188 178.0312 99.3438 C179.9219 97.3125 180.5312 96.4688 180.5312 95.3594 C180.5312 94.0156 179.7812 93.0781 178.1562 93.0781 C176.9062 93.0781 175.7969 93.7031 175.5938 94.9688 C175.7188 95.2031 175.9062 95.3438 176.1562 95.3438 C176.4688 95.3438 176.6562 95.1094 176.7969 94.5938 L177.0938 93.6719 C177.3906 93.5938 177.6562 93.5625 177.8906 93.5625 C178.9219 93.5625 179.5469 94.3125 179.5469 95.4219 C179.5469 96.4375 178.9844 97.4219 177.7031 98.9062 C177.125 99.5781 176.3906 100.4375 175.6406 101.2812 L175.6406 102 L180.9219 102 L180.9219 101.0938 L176.4219 101.0938 Z" style="fill:black; stroke:none;"
      /><rect x="160" width="8" height="8" y="94" style="stroke:none;"
      /><path d="M164.9844 99.7031 C164.9375 100.8906 164.1562 101.6562 163.3125 101.6562 C162.2656 101.6562 161.5 100.6875 161.5 98.7188 C161.5 97.2812 162.1562 96.1562 163.3438 96.1562 C164.1406 96.1562 164.7812 96.6875 165.0938 97.6406 L164.9844 99.7031 ZM166.9062 101.2812 C166.7344 101.375 166.5469 101.4219 166.3438 101.4219 C165.9531 101.4219 165.75 101.2188 165.75 100.4219 C165.75 99.4844 165.9688 97.5312 166.1875 95.8281 L166.0312 95.7188 L165.2344 95.9219 L165.1406 96.7969 C164.7812 96.0312 164.1562 95.6562 163.3906 95.6562 C162.0469 95.6562 160.5625 96.8438 160.5625 98.9531 C160.5625 101.0938 161.7188 102.1719 163.1406 102.1719 C164.0156 102.1719 164.6875 101.8125 165.0938 100.9844 C165.2031 101.8594 165.5156 102.1719 166.0156 102.1719 C166.4688 102.1719 166.7969 101.9062 167.0156 101.5625 L166.9062 101.2812 Z" style="fill:black; stroke:none;"
      /><rect x="227" width="6" height="10" y="93" style="stroke:none;"
      /><path d="M228.9219 95.1406 L232.6562 95.1406 L232.6562 94.25 L228.4531 94.25 L228.1719 98.3125 L228.5156 98.3906 C228.9219 98.25 229.3906 98.1875 229.8125 98.1875 C231.0781 98.1875 231.9219 98.9531 231.9219 100.3906 C231.9219 101.7812 231.1719 102.6875 229.8281 102.6875 C229.5156 102.6875 229.2344 102.6406 228.9375 102.5625 L228.6875 101.7812 C228.5312 101.2188 228.3906 101.0469 228.0625 101.0469 C227.7969 101.0469 227.5938 101.1719 227.4844 101.4375 C227.7656 102.5938 228.625 103.1719 229.8906 103.1719 C231.7031 103.1719 232.875 101.9844 232.875 100.2812 C232.875 98.5312 231.75 97.5469 230.0938 97.5469 C229.6094 97.5469 229.1719 97.625 228.7344 97.7656 L228.9219 95.1406 Z" style="fill:black; stroke:none;"
      /><rect x="213" width="5" height="10" y="77" style="stroke:none;"
      /><path d="M214.8906 85.6875 C214.4844 85.6875 214.1562 86.0469 214.1562 86.4219 C214.1562 86.8125 214.4844 87.1562 214.8906 87.1562 C215.2969 87.1562 215.6406 86.8125 215.6406 86.4219 C215.6406 86.0469 215.2969 85.6875 214.8906 85.6875 ZM216.4688 79.5781 C216.7188 79.8906 216.875 80.2656 216.8906 80.6562 C216.8906 81.1875 216.625 81.5 216.0312 81.7656 L215.4062 82.0156 C214.6406 82.3125 214.3906 82.5469 214.3906 82.9375 C214.3906 83.1094 214.4531 83.3438 214.5781 83.8125 L214.7344 84.3438 L215.1094 84.3438 L215.0938 83.5312 C215.0938 83.0938 215.2031 82.9688 215.7812 82.7344 L216.2031 82.5625 C217.0312 82.2188 217.4531 81.6875 217.4531 80.8438 C217.4531 79.1562 215.6562 78.1875 214.5 78.0312 C214.1094 78.125 213.9062 78.2969 213.9062 78.6406 C213.9062 78.9375 214.0625 79.1562 214.7188 79.2656 L216.4688 79.5781 Z" style="fill:black; stroke:none;"
      /><rect x="213" width="5" height="10" y="93" style="stroke:none;"
      /><path d="M214.8906 101.6875 C214.4844 101.6875 214.1562 102.0469 214.1562 102.4219 C214.1562 102.8125 214.4844 103.1562 214.8906 103.1562 C215.2969 103.1562 215.6406 102.8125 215.6406 102.4219 C215.6406 102.0469 215.2969 101.6875 214.8906 101.6875 ZM216.4688 95.5781 C216.7188 95.8906 216.875 96.2656 216.8906 96.6562 C216.8906 97.1875 216.625 97.5 216.0312 97.7656 L215.4062 98.0156 C214.6406 98.3125 214.3906 98.5469 214.3906 98.9375 C214.3906 99.1094 214.4531 99.3438 214.5781 99.8125 L214.7344 100.3438 L215.1094 100.3438 L215.0938 99.5312 C215.0938 99.0938 215.2031 98.9688 215.7812 98.7344 L216.2031 98.5625 C217.0312 98.2188 217.4531 97.6875 217.4531 96.8438 C217.4531 95.1562 215.6562 94.1875 214.5 94.0312 C214.1094 94.125 213.9062 94.2969 213.9062 94.6406 C213.9062 94.9375 214.0625 95.1562 214.7188 95.2656 L216.4688 95.5781 Z" style="fill:black; stroke:none;"
      /><rect x="279" width="6" height="10" y="93" style="stroke:none;"
      /><path d="M280.9219 95.1406 L284.6562 95.1406 L284.6562 94.25 L280.4531 94.25 L280.1719 98.3125 L280.5156 98.3906 C280.9219 98.25 281.3906 98.1875 281.8125 98.1875 C283.0781 98.1875 283.9219 98.9531 283.9219 100.3906 C283.9219 101.7812 283.1719 102.6875 281.8281 102.6875 C281.5156 102.6875 281.2344 102.6406 280.9375 102.5625 L280.6875 101.7812 C280.5312 101.2188 280.3906 101.0469 280.0625 101.0469 C279.7969 101.0469 279.5938 101.1719 279.4844 101.4375 C279.7656 102.5938 280.625 103.1719 281.8906 103.1719 C283.7031 103.1719 284.875 101.9844 284.875 100.2812 C284.875 98.5312 283.75 97.5469 282.0938 97.5469 C281.6094 97.5469 281.1719 97.625 280.7344 97.7656 L280.9219 95.1406 Z" style="fill:black; stroke:none;"
      /><rect x="331" width="6" height="10" y="93" style="stroke:none;"
      /><path d="M333.2344 94.6562 C333.5156 94.5938 333.7656 94.5625 334.0156 94.5625 C335.0625 94.5625 335.6719 95.1719 335.6719 96.2656 C335.6719 97.4375 334.9062 98.1094 333.7031 98.1094 L333.1875 98.1094 L333.1875 98.6406 L333.7969 98.6406 C335.2188 98.6406 335.9062 99.4219 335.9062 100.6406 C335.9062 101.8438 335.1719 102.6875 333.875 102.6875 C333.6094 102.6875 333.3125 102.6562 333.0156 102.5625 L332.7812 101.8125 C332.625 101.2812 332.5 101.0469 332.1406 101.0469 C331.8906 101.0469 331.7031 101.1719 331.5781 101.4219 C331.8438 102.6406 332.7812 103.1719 334.0312 103.1719 C335.7188 103.1719 336.875 102.125 336.875 100.7031 C336.875 99.5 336.2031 98.625 334.7969 98.375 C335.9531 98.0156 336.6094 97.2031 336.6094 96.2031 C336.6094 94.9219 335.6719 94.0781 334.1875 94.0781 C333.0469 94.0781 332.0625 94.5938 331.7969 95.6875 C331.9062 96 332.1094 96.1094 332.3594 96.1094 C332.7344 96.1094 332.8906 95.8906 333 95.4062 L333.2344 94.6562 Z" style="fill:black; stroke:none;"
      /><rect x="317" width="6" height="13" y="91" style="stroke:none;"
      /><path d="M319.0938 97.2031 C319.0938 95.6562 319.75 94.8125 320.7969 94.8125 C321.7188 94.8125 322.2656 95.4531 322.2656 96.5156 C322.2656 97.7188 321.5 98.4375 320.1875 98.7031 L320.2969 99.3125 C322.2188 99.2344 322.9375 100.2188 322.9375 101.4375 C322.9375 102.625 322.2344 103.4219 320.9531 103.4219 C320.25 103.4219 319.6562 103.1562 319.0938 102.7188 L319.0938 97.2031 ZM318.2031 103.9062 L318.1094 106.375 L318.2656 106.4844 L319.1562 106.2656 L319.0156 103.0938 C319.5469 103.8438 320.3594 104.1719 321.1719 104.1719 C322.5625 104.1719 323.8594 103.2188 323.8594 101.4844 C323.8594 99.9531 322.875 99.1094 321.125 99 C322.5625 98.6094 323.1875 97.4531 323.1875 96.4844 C323.1875 95.0938 322.1562 94.3125 320.9062 94.3125 C319.2969 94.3125 318.2188 95.5469 318.2188 97.5156 L318.2031 103.9062 Z" style="fill:black; stroke:none;"
      /><rect x="369" width="6" height="13" y="91" style="stroke:none;"
      /><path d="M371.0938 97.2031 C371.0938 95.6562 371.75 94.8125 372.7969 94.8125 C373.7188 94.8125 374.2656 95.4531 374.2656 96.5156 C374.2656 97.7188 373.5 98.4375 372.1875 98.7031 L372.2969 99.3125 C374.2188 99.2344 374.9375 100.2188 374.9375 101.4375 C374.9375 102.625 374.2344 103.4219 372.9531 103.4219 C372.25 103.4219 371.6562 103.1562 371.0938 102.7188 L371.0938 97.2031 ZM370.2031 103.9062 L370.1094 106.375 L370.2656 106.4844 L371.1562 106.2656 L371.0156 103.0938 C371.5469 103.8438 372.3594 104.1719 373.1719 104.1719 C374.5625 104.1719 375.8594 103.2188 375.8594 101.4844 C375.8594 99.9531 374.875 99.1094 373.125 99 C374.5625 98.6094 375.1875 97.4531 375.1875 96.4844 C375.1875 95.0938 374.1562 94.3125 372.9062 94.3125 C371.2969 94.3125 370.2188 95.5469 370.2188 97.5156 L370.2031 103.9062 Z" style="fill:black; stroke:none;"
    /></g
  ></g
></svg
>
