<?xml version="1.0"?>
<!DOCTYPE svg PUBLIC '-//W3C//DTD SVG 1.0//EN'
          'http://www.w3.org/TR/2001/REC-SVG-20010904/DTD/svg10.dtd'>
<svg xmlns:xlink="http://www.w3.org/1999/xlink" style="fill-opacity:1; color-rendering:auto; color-interpolation:auto; text-rendering:auto; stroke:black; stroke-linecap:square; stroke-miterlimit:10; shape-rendering:auto; stroke-opacity:1; fill:black; stroke-dasharray:none; font-weight:normal; stroke-width:1; font-family:'Dialog'; font-style:normal; stroke-linejoin:miter; font-size:12px; stroke-dashoffset:0; image-rendering:auto;" viewBox="0 0 498 446" xmlns="http://www.w3.org/2000/svg"
><!--Generated by the Batik Graphics2D SVG Generator--><defs id="genericDefs"
  /><g
  ><defs id="defs1"
    ><clipPath clipPathUnits="userSpaceOnUse" id="clipPath1"
      ><path d="M394 186 L416 186 L416 208 L394 208 L394 186 Z"
      /></clipPath
      ><clipPath clipPathUnits="userSpaceOnUse" id="clipPath2"
      ><path d="M342 186 L364 186 L364 208 L342 208 L342 186 Z"
      /></clipPath
      ><clipPath clipPathUnits="userSpaceOnUse" id="clipPath3"
      ><path d="M312 197 C312 203.0751 307.0751 208 301 208 C294.9249 208 290 203.0751 290 197 C290 190.9249 294.9249 186 301 186 C307.0751 186 312 190.9249 312 197 Z"
      /></clipPath
      ><clipPath clipPathUnits="userSpaceOnUse" id="clipPath4"
      ><path d="M260 301 C260 307.0751 255.0751 312 249 312 C242.9249 312 238 307.0751 238 301 C238 294.9249 242.9249 290 249 290 C255.0751 290 260 294.9249 260 301 Z"
      /></clipPath
      ><clipPath clipPathUnits="userSpaceOnUse" id="clipPath5"
      ><path d="M186 342 L208 342 L208 364 L186 364 L186 342 Z"
      /></clipPath
      ><clipPath clipPathUnits="userSpaceOnUse" id="clipPath6"
      ><path style="fill-rule:evenodd;" d="M197 394 L208 416 L186 416 Z"
      /></clipPath
      ><clipPath clipPathUnits="userSpaceOnUse" id="clipPath7"
      ><path d="M156 353 C156 359.0751 151.0751 364 145 364 C138.9249 364 134 359.0751 134 353 C134 346.9249 138.9249 342 145 342 C151.0751 342 156 346.9249 156 353 Z"
      /></clipPath
      ><clipPath clipPathUnits="userSpaceOnUse" id="clipPath8"
      ><path style="fill-rule:evenodd;" d="M93 342 L104 353 L93 364 L82 353 Z"
      /></clipPath
      ><clipPath clipPathUnits="userSpaceOnUse" id="clipPath9"
      ><path style="fill-rule:evenodd;" d="M41 342 L52 353 L41 364 L30 353 Z"
      /></clipPath
      ><clipPath clipPathUnits="userSpaceOnUse" id="clipPath10"
      ><path d="M186 238 L208 238 L208 260 L186 260 L186 238 Z"
      /></clipPath
      ><clipPath clipPathUnits="userSpaceOnUse" id="clipPath11"
      ><path style="fill-rule:evenodd;" d="M197 290 L208 312 L186 312 Z"
      /></clipPath
      ><clipPath clipPathUnits="userSpaceOnUse" id="clipPath12"
      ><path d="M260 93 C260 99.0751 255.0751 104 249 104 C242.9249 104 238 99.0751 238 93 C238 86.9249 242.9249 82 249 82 C255.0751 82 260 86.9249 260 93 Z"
      /></clipPath
      ><clipPath clipPathUnits="userSpaceOnUse" id="clipPath13"
      ><path d="M186 134 L208 134 L208 156 L186 156 L186 134 Z"
      /></clipPath
      ><clipPath clipPathUnits="userSpaceOnUse" id="clipPath14"
      ><path style="fill-rule:evenodd;" d="M197 186 L208 208 L186 208 Z"
      /></clipPath
      ><clipPath clipPathUnits="userSpaceOnUse" id="clipPath15"
      ><path d="M186 30 L208 30 L208 52 L186 52 L186 30 Z"
      /></clipPath
      ><clipPath clipPathUnits="userSpaceOnUse" id="clipPath16"
      ><path style="fill-rule:evenodd;" d="M197 82 L208 104 L186 104 Z"
      /></clipPath
    ></defs
    ><g style="fill:white; text-rendering:optimizeSpeed; stroke:white;"
    ><rect x="0" width="498" height="446" y="0" style="stroke:none;"
      /><polygon style="fill:none; stroke:black;" points=" 457 197 405 197"
      /><path d="M457 186 C451.5 191.5 462.5 202.5 457 208" style="fill:none; stroke:black;"
      /><polygon style="fill:none; stroke:black;" points=" 405 197 353 197"
      /><rect x="394" y="186" width="22" style="clip-path:url(#clipPath1); stroke:none;" height="22"
      /><rect x="394" y="186" width="22" style="clip-path:url(#clipPath1); fill:rgb(0,144,188); stroke:none;" height="22"
      /><rect x="394" y="186" width="22" style="clip-path:url(#clipPath1); fill:none; stroke:black;" height="22"
      /><rect x="394" y="186" width="22" style="fill:none; stroke:black;" height="22"
      /><polygon style="fill:none; stroke:black;" points=" 353 197 301 197"
      /><rect x="342" y="186" width="22" style="clip-path:url(#clipPath2); stroke:none;" height="22"
      /><rect x="342" y="186" width="22" style="clip-path:url(#clipPath2); fill:rgb(0,144,188); stroke:none;" height="22"
      /><rect x="342" y="186" width="22" style="clip-path:url(#clipPath2); fill:none; stroke:black;" height="22"
      /><rect x="342" y="186" width="22" style="fill:none; stroke:black;" height="22"
      /><polygon style="fill:none; stroke:black;" points=" 301 197 249 301"
      /><polygon style="fill:none; stroke:black;" points=" 301 197 249 93"
      /><circle style="clip-path:url(#clipPath3); stroke:none;" r="11" cx="301" cy="197"
      /><rect x="290" y="186" width="22" style="clip-path:url(#clipPath3); fill:rgb(0,166,81); stroke:none;" height="22"
      /><rect x="290" y="186" width="22" style="clip-path:url(#clipPath3); fill:none; stroke:black;" height="22"
      /><circle style="fill:none; stroke:black;" r="11" cx="301" cy="197"
      /><polygon style="fill:none; stroke:black;" points=" 249 301 197 353"
      /><polygon style="fill:none; stroke:black;" points=" 249 301 197 249"
      /><circle style="clip-path:url(#clipPath4); stroke:none;" r="11" cx="249" cy="301"
      /><rect x="238" y="290" width="22" style="clip-path:url(#clipPath4); fill:rgb(0,166,81); stroke:none;" height="22"
      /><rect x="238" y="290" width="22" style="clip-path:url(#clipPath4); fill:none; stroke:black;" height="22"
      /><circle style="fill:none; stroke:black;" r="11" cx="249" cy="301"
      /><polygon style="fill:none; stroke:black;" points=" 197 353 197 405"
      /><polygon style="fill:none; stroke:black;" points=" 197 353 145 353"
      /><rect x="186" y="342" width="22" style="clip-path:url(#clipPath5); stroke:none;" height="22"
      /><rect x="186" y="342" width="22" style="clip-path:url(#clipPath5); fill:rgb(0,144,188); stroke:none;" height="22"
      /><rect x="186" y="342" width="22" style="clip-path:url(#clipPath5); fill:none; stroke:black;" height="22"
      /><rect x="186" y="342" width="22" style="fill:none; stroke:black;" height="22"
      /><polygon style="clip-path:url(#clipPath6); stroke:none;" points=" 197 394 208 416 186 416"
      /><rect x="186" y="394" width="22" style="clip-path:url(#clipPath6); fill:rgb(237,28,36); stroke:none;" height="22"
      /><rect x="186" y="394" width="22" style="clip-path:url(#clipPath6); fill:none; stroke:black;" height="22"
      /><polygon style="fill:none; stroke:black;" points=" 197 394 208 416 186 416"
      /><polygon style="fill:none; stroke:black;" points=" 145 353 93 353"
      /><circle style="clip-path:url(#clipPath7); stroke:none;" r="11" cx="145" cy="353"
      /><rect x="134" y="342" width="22" style="clip-path:url(#clipPath7); fill:rgb(255,212,0); stroke:none;" height="22"
      /><rect x="134" y="342" width="22" style="clip-path:url(#clipPath7); fill:none; stroke:black;" height="22"
      /><circle style="fill:none; stroke:black;" r="11" cx="145" cy="353"
      /><polygon style="fill:none; stroke:black;" points=" 93 353 41 353"
      /><polygon style="clip-path:url(#clipPath8); stroke:none;" points=" 93 342 104 353 93 364 82 353"
      /><rect x="82" y="342" width="22" style="clip-path:url(#clipPath8); fill:rgb(165,67,153); stroke:none;" height="22"
      /><rect x="82" y="342" width="22" style="clip-path:url(#clipPath8); fill:none; stroke:black;" height="22"
      /><polygon style="fill:none; stroke:black;" points=" 93 342 104 353 93 364 82 353"
      /><polygon style="clip-path:url(#clipPath9); stroke:none;" points=" 41 342 52 353 41 364 30 353"
      /><rect x="30" y="342" width="22" style="clip-path:url(#clipPath9); fill:rgb(165,67,153); stroke:none;" height="22"
      /><rect x="30" y="342" width="22" style="clip-path:url(#clipPath9); fill:none; stroke:black;" height="22"
      /><polygon style="fill:none; stroke:black;" points=" 41 342 52 353 41 364 30 353"
      /><rect x="71" y="356" width="6" style="stroke:none;" height="10"
    /></g
    ><g style="font-family:'Serif'; text-rendering:optimizeSpeed; "
    ><path style="stroke:none;" d="M74.2656 365.7031 C73.2031 365.7031 72.5 364.9688 72.5 363.9062 C72.5 362.9688 72.9375 362.4219 73.9062 361.8438 C75.4688 362.5625 75.9531 363.1719 75.9531 364.0156 C75.9531 365 75.2969 365.7031 74.2656 365.7031 ZM72.75 359.0469 C72.75 358.1094 73.4531 357.5625 74.2344 357.5625 C75.1562 357.5625 75.6562 358.2656 75.6562 359.0938 C75.6562 359.9688 75.3281 360.5469 74.4688 361.1562 C73.0938 360.5156 72.75 359.7969 72.75 359.0469 ZM74.8594 361.3438 C76.0938 360.6562 76.4531 359.8125 76.4531 359.0938 C76.4531 357.9219 75.6094 357.0781 74.2656 357.0781 C72.9375 357.0781 71.8906 357.9062 71.8906 359.2031 C71.8906 360.2031 72.375 361.0469 73.5156 361.6562 C72.2656 362.2812 71.5938 363 71.5938 364.0156 C71.5938 365.3906 72.6562 366.1719 74.2344 366.1719 C75.75 366.1719 76.875 365.25 76.875 363.8906 C76.875 362.7344 76.2656 362 74.8594 361.3438 Z"
      /><rect x="56" y="357" width="8" style="fill:white; stroke:none;" height="8"
      /><path style="stroke:none;" d="M60.9844 362.7031 C60.9375 363.8906 60.1562 364.6562 59.3125 364.6562 C58.2656 364.6562 57.5 363.6875 57.5 361.7188 C57.5 360.2812 58.1562 359.1562 59.3438 359.1562 C60.1406 359.1562 60.7812 359.6875 61.0938 360.6406 L60.9844 362.7031 ZM62.9062 364.2812 C62.7344 364.375 62.5469 364.4219 62.3438 364.4219 C61.9531 364.4219 61.75 364.2188 61.75 363.4219 C61.75 362.4844 61.9688 360.5312 62.1875 358.8281 L62.0312 358.7188 L61.2344 358.9219 L61.1406 359.7969 C60.7812 359.0312 60.1562 358.6562 59.3906 358.6562 C58.0469 358.6562 56.5625 359.8438 56.5625 361.9531 C56.5625 364.0938 57.7188 365.1719 59.1406 365.1719 C60.0156 365.1719 60.6875 364.8125 61.0938 363.9844 C61.2031 364.8594 61.5156 365.1719 62.0156 365.1719 C62.4688 365.1719 62.7969 364.9062 63.0156 364.5625 L62.9062 364.2812 Z"
      /><rect x="118" y="354" width="16" style="fill:white; stroke:none;" height="13"
      /><path style="stroke:none;" d="M120.2344 358.6562 C120.5156 358.5938 120.7656 358.5625 121.0156 358.5625 C122.0625 358.5625 122.6719 359.1719 122.6719 360.2656 C122.6719 361.4375 121.9062 362.1094 120.7031 362.1094 L120.1875 362.1094 L120.1875 362.6406 L120.7969 362.6406 C122.2188 362.6406 122.9062 363.4219 122.9062 364.6406 C122.9062 365.8438 122.1719 366.6875 120.875 366.6875 C120.6094 366.6875 120.3125 366.6562 120.0156 366.5625 L119.7812 365.8125 C119.625 365.2812 119.5 365.0469 119.1406 365.0469 C118.8906 365.0469 118.7031 365.1719 118.5781 365.4219 C118.8438 366.6406 119.7812 367.1719 121.0312 367.1719 C122.7188 367.1719 123.875 366.125 123.875 364.7031 C123.875 363.5 123.2031 362.625 121.7969 362.375 C122.9531 362.0156 123.6094 361.2031 123.6094 360.2031 C123.6094 358.9219 122.6719 358.0781 121.1875 358.0781 C120.0469 358.0781 119.0625 358.5938 118.7969 359.6875 C118.9062 360 119.1094 360.1094 119.3594 360.1094 C119.7344 360.1094 119.8906 359.8906 120 359.4062 L120.2344 358.6562 ZM124.4993 369.0938 L125.1087 369.0938 L128.6087 357.7344 L127.9837 357.7344 L124.4993 369.0938 ZM131.9878 366.6875 C130.8472 366.6875 130.1753 365.5 130.1753 363.2969 C130.1753 363.2188 130.1753 363.125 130.1753 363.0469 C130.7378 362.5 131.3628 362.3125 131.9878 362.3125 C132.9566 362.3125 133.5972 362.9844 133.5972 364.4531 C133.5972 365.9375 132.9566 366.6875 131.9878 366.6875 ZM134.1753 358.0781 C130.9878 358.4531 129.2066 360.7656 129.2066 363.4531 C129.2066 365.7812 130.2534 367.1719 131.9566 367.1719 C133.4878 367.1719 134.5659 366.1094 134.5659 364.2812 C134.5659 362.6875 133.6128 361.6562 132.2066 361.6562 C131.4722 361.6562 130.7847 361.9844 130.2222 362.5781 C130.4409 360.4062 131.7222 358.9688 134.2378 358.3906 L134.1753 358.0781 Z"
      /><rect x="108" y="357" width="8" style="fill:white; stroke:none;" height="8"
      /><path style="stroke:none;" d="M112.9844 362.7031 C112.9375 363.8906 112.1562 364.6562 111.3125 364.6562 C110.2656 364.6562 109.5 363.6875 109.5 361.7188 C109.5 360.2812 110.1562 359.1562 111.3438 359.1562 C112.1406 359.1562 112.7812 359.6875 113.0938 360.6406 L112.9844 362.7031 ZM114.9062 364.2812 C114.7344 364.375 114.5469 364.4219 114.3438 364.4219 C113.9531 364.4219 113.75 364.2188 113.75 363.4219 C113.75 362.4844 113.9688 360.5312 114.1875 358.8281 L114.0312 358.7188 L113.2344 358.9219 L113.1406 359.7969 C112.7812 359.0312 112.1562 358.6562 111.3906 358.6562 C110.0469 358.6562 108.5625 359.8438 108.5625 361.9531 C108.5625 364.0938 109.7188 365.1719 111.1406 365.1719 C112.0156 365.1719 112.6875 364.8125 113.0938 363.9844 C113.2031 364.8594 113.5156 365.1719 114.0156 365.1719 C114.4688 365.1719 114.7969 364.9062 115.0156 364.5625 L114.9062 364.2812 Z"
      /><rect x="202" y="367" width="6" style="fill:white; stroke:none;" height="10"
      /><path style="stroke:none;" d="M204.2344 368.6562 C204.5156 368.5938 204.7656 368.5625 205.0156 368.5625 C206.0625 368.5625 206.6719 369.1719 206.6719 370.2656 C206.6719 371.4375 205.9062 372.1094 204.7031 372.1094 L204.1875 372.1094 L204.1875 372.6406 L204.7969 372.6406 C206.2188 372.6406 206.9062 373.4219 206.9062 374.6406 C206.9062 375.8438 206.1719 376.6875 204.875 376.6875 C204.6094 376.6875 204.3125 376.6562 204.0156 376.5625 L203.7812 375.8125 C203.625 375.2812 203.5 375.0469 203.1406 375.0469 C202.8906 375.0469 202.7031 375.1719 202.5781 375.4219 C202.8438 376.6406 203.7812 377.1719 205.0312 377.1719 C206.7188 377.1719 207.875 376.125 207.875 374.7031 C207.875 373.5 207.2031 372.625 205.7969 372.375 C206.9531 372.0156 207.6094 371.2031 207.6094 370.2031 C207.6094 368.9219 206.6719 368.0781 205.1875 368.0781 C204.0469 368.0781 203.0625 368.5938 202.7969 369.6875 C202.9062 370 203.1094 370.1094 203.3594 370.1094 C203.7344 370.1094 203.8906 369.8906 204 369.4062 L204.2344 368.6562 Z"
      /><rect x="201" y="382" width="8" style="fill:white; stroke:none;" height="8"
      /><path style="stroke:none;" d="M205.9844 387.7031 C205.9375 388.8906 205.1562 389.6562 204.3125 389.6562 C203.2656 389.6562 202.5 388.6875 202.5 386.7188 C202.5 385.2812 203.1562 384.1562 204.3438 384.1562 C205.1406 384.1562 205.7812 384.6875 206.0938 385.6406 L205.9844 387.7031 ZM207.9062 389.2812 C207.7344 389.375 207.5469 389.4219 207.3438 389.4219 C206.9531 389.4219 206.75 389.2188 206.75 388.4219 C206.75 387.4844 206.9688 385.5312 207.1875 383.8281 L207.0312 383.7188 L206.2344 383.9219 L206.1406 384.7969 C205.7812 384.0312 205.1562 383.6562 204.3906 383.6562 C203.0469 383.6562 201.5625 384.8438 201.5625 386.9531 C201.5625 389.0938 202.7188 390.1719 204.1406 390.1719 C205.0156 390.1719 205.6875 389.8125 206.0938 388.9844 C206.2031 389.8594 206.5156 390.1719 207.0156 390.1719 C207.4688 390.1719 207.7969 389.9062 208.0156 389.5625 L207.9062 389.2812 Z"
      /><rect x="174" y="356" width="7" style="fill:white; stroke:none;" height="9"
      /><path style="stroke:none;" d="M175 361.5156 L177.9531 357.2656 L177.9531 361.5156 L175 361.5156 ZM180.2812 361.5156 L178.8594 361.5156 L178.8594 356.125 L178.2344 356.125 L174.3438 361.6406 L174.3438 362.1875 L177.9531 362.1875 L177.9531 365 L178.8594 365 L178.8594 362.1875 L180.2812 362.1875 L180.2812 361.5156 Z"
      /><rect x="161" y="354" width="6" style="fill:white; stroke:none;" height="13"
      /><path style="stroke:none;" d="M163.0938 360.2031 C163.0938 358.6562 163.75 357.8125 164.7969 357.8125 C165.7188 357.8125 166.2656 358.4531 166.2656 359.5156 C166.2656 360.7188 165.5 361.4375 164.1875 361.7031 L164.2969 362.3125 C166.2188 362.2344 166.9375 363.2188 166.9375 364.4375 C166.9375 365.625 166.2344 366.4219 164.9531 366.4219 C164.25 366.4219 163.6562 366.1562 163.0938 365.7188 L163.0938 360.2031 ZM162.2031 366.9062 L162.1094 369.375 L162.2656 369.4844 L163.1562 369.2656 L163.0156 366.0938 C163.5469 366.8438 164.3594 367.1719 165.1719 367.1719 C166.5625 367.1719 167.8594 366.2188 167.8594 364.4844 C167.8594 362.9531 166.875 362.1094 165.125 362 C166.5625 361.6094 167.1875 360.4531 167.1875 359.4844 C167.1875 358.0938 166.1562 357.3125 164.9062 357.3125 C163.2969 357.3125 162.2188 358.5469 162.2188 360.5156 L162.2031 366.9062 Z"
      /><polygon style="fill:none;" points=" 197 249 197 301"
      /><rect x="186" y="238" width="22" style="clip-path:url(#clipPath10); fill:white; stroke:none;" height="22"
      /><rect x="186" y="238" width="22" style="clip-path:url(#clipPath10); fill:rgb(0,144,188); stroke:none;" height="22"
      /><rect x="186" y="238" width="22" style="fill:none; clip-path:url(#clipPath10);" height="22"
      /><rect x="186" width="22" height="22" y="238" style="fill:none;"
      /><polygon style="fill:white; clip-path:url(#clipPath11); stroke:none;" points=" 197 290 208 312 186 312"
      /><rect x="186" y="290" width="22" style="clip-path:url(#clipPath11); fill:rgb(237,28,36); stroke:none;" height="22"
      /><rect x="186" y="290" width="22" style="fill:none; clip-path:url(#clipPath11);" height="22"
      /><polygon style="fill:none;" points=" 197 290 208 312 186 312"
      /><rect x="202" y="263" width="6" style="fill:white; stroke:none;" height="10"
      /><path style="stroke:none;" d="M204.2344 264.6562 C204.5156 264.5938 204.7656 264.5625 205.0156 264.5625 C206.0625 264.5625 206.6719 265.1719 206.6719 266.2656 C206.6719 267.4375 205.9062 268.1094 204.7031 268.1094 L204.1875 268.1094 L204.1875 268.6406 L204.7969 268.6406 C206.2188 268.6406 206.9062 269.4219 206.9062 270.6406 C206.9062 271.8438 206.1719 272.6875 204.875 272.6875 C204.6094 272.6875 204.3125 272.6562 204.0156 272.5625 L203.7812 271.8125 C203.625 271.2812 203.5 271.0469 203.1406 271.0469 C202.8906 271.0469 202.7031 271.1719 202.5781 271.4219 C202.8438 272.6406 203.7812 273.1719 205.0312 273.1719 C206.7188 273.1719 207.875 272.125 207.875 270.7031 C207.875 269.5 207.2031 268.625 205.7969 268.375 C206.9531 268.0156 207.6094 267.2031 207.6094 266.2031 C207.6094 264.9219 206.6719 264.0781 205.1875 264.0781 C204.0469 264.0781 203.0625 264.5938 202.7969 265.6875 C202.9062 266 203.1094 266.1094 203.3594 266.1094 C203.7344 266.1094 203.8906 265.8906 204 265.4062 L204.2344 264.6562 Z"
      /><rect x="201" y="278" width="8" style="fill:white; stroke:none;" height="8"
      /><path style="stroke:none;" d="M205.9844 283.7031 C205.9375 284.8906 205.1562 285.6562 204.3125 285.6562 C203.2656 285.6562 202.5 284.6875 202.5 282.7188 C202.5 281.2812 203.1562 280.1562 204.3438 280.1562 C205.1406 280.1562 205.7812 280.6875 206.0938 281.6406 L205.9844 283.7031 ZM207.9062 285.2812 C207.7344 285.375 207.5469 285.4219 207.3438 285.4219 C206.9531 285.4219 206.75 285.2188 206.75 284.4219 C206.75 283.4844 206.9688 281.5312 207.1875 279.8281 L207.0312 279.7188 L206.2344 279.9219 L206.1406 280.7969 C205.7812 280.0312 205.1562 279.6562 204.3906 279.6562 C203.0469 279.6562 201.5625 280.8438 201.5625 282.9531 C201.5625 285.0938 202.7188 286.1719 204.1406 286.1719 C205.0156 286.1719 205.6875 285.8125 206.0938 284.9844 C206.2031 285.8594 206.5156 286.1719 207.0156 286.1719 C207.4688 286.1719 207.7969 285.9062 208.0156 285.5625 L207.9062 285.2812 Z"
      /><rect x="235" y="318" width="6" style="fill:white; stroke:none;" height="9"
      /><path style="stroke:none;" d="M236.4219 326.0938 C237.0781 325.375 237.7031 324.7188 238.0312 324.3438 C239.9219 322.3125 240.5312 321.4688 240.5312 320.3594 C240.5312 319.0156 239.7812 318.0781 238.1562 318.0781 C236.9062 318.0781 235.7969 318.7031 235.5938 319.9688 C235.7188 320.2031 235.9062 320.3438 236.1562 320.3438 C236.4688 320.3438 236.6562 320.1094 236.7969 319.5938 L237.0938 318.6719 C237.3906 318.5938 237.6562 318.5625 237.8906 318.5625 C238.9219 318.5625 239.5469 319.3125 239.5469 320.4219 C239.5469 321.4375 238.9844 322.4219 237.7031 323.9062 C237.125 324.5781 236.3906 325.4375 235.6406 326.2812 L235.6406 327 L240.9219 327 L240.9219 326.0938 L236.4219 326.0938 Z"
      /><rect x="216" y="335" width="6" style="fill:white; stroke:none;" height="13"
      /><path style="stroke:none;" d="M218.0938 341.2031 C218.0938 339.6562 218.75 338.8125 219.7969 338.8125 C220.7188 338.8125 221.2656 339.4531 221.2656 340.5156 C221.2656 341.7188 220.5 342.4375 219.1875 342.7031 L219.2969 343.3125 C221.2188 343.2344 221.9375 344.2188 221.9375 345.4375 C221.9375 346.625 221.2344 347.4219 219.9531 347.4219 C219.25 347.4219 218.6562 347.1562 218.0938 346.7188 L218.0938 341.2031 ZM217.2031 347.9062 L217.1094 350.375 L217.2656 350.4844 L218.1562 350.2656 L218.0156 347.0938 C218.5469 347.8438 219.3594 348.1719 220.1719 348.1719 C221.5625 348.1719 222.8594 347.2188 222.8594 345.4844 C222.8594 343.9531 221.875 343.1094 220.125 343 C221.5625 342.6094 222.1875 341.4531 222.1875 340.4844 C222.1875 339.0938 221.1562 338.3125 219.9062 338.3125 C218.2969 338.3125 217.2188 339.5469 217.2188 341.5156 L217.2031 347.9062 Z"
      /><rect x="223" y="285" width="7" style="fill:white; stroke:none;" height="9"
      /><path style="stroke:none;" d="M224 290.5156 L226.9531 286.2656 L226.9531 290.5156 L224 290.5156 ZM229.2812 290.5156 L227.8594 290.5156 L227.8594 285.125 L227.2344 285.125 L223.3438 290.6406 L223.3438 291.1875 L226.9531 291.1875 L226.9531 294 L227.8594 294 L227.8594 291.1875 L229.2812 291.1875 L229.2812 290.5156 Z"
      /><rect x="205" y="264" width="6" style="fill:white; stroke:none;" height="13"
      /><path style="stroke:none;" d="M207.0938 270.2031 C207.0938 268.6562 207.75 267.8125 208.7969 267.8125 C209.7188 267.8125 210.2656 268.4531 210.2656 269.5156 C210.2656 270.7188 209.5 271.4375 208.1875 271.7031 L208.2969 272.3125 C210.2188 272.2344 210.9375 273.2188 210.9375 274.4375 C210.9375 275.625 210.2344 276.4219 208.9531 276.4219 C208.25 276.4219 207.6562 276.1562 207.0938 275.7188 L207.0938 270.2031 ZM206.2031 276.9062 L206.1094 279.375 L206.2656 279.4844 L207.1562 279.2656 L207.0156 276.0938 C207.5469 276.8438 208.3594 277.1719 209.1719 277.1719 C210.5625 277.1719 211.8594 276.2188 211.8594 274.4844 C211.8594 272.9531 210.875 272.1094 209.125 272 C210.5625 271.6094 211.1875 270.4531 211.1875 269.4844 C211.1875 268.0938 210.1562 267.3125 208.9062 267.3125 C207.2969 267.3125 206.2188 268.5469 206.2188 270.5156 L206.2031 276.9062 Z"
      /><polygon style="fill:none;" points=" 249 93 197 145"
      /><polygon style="fill:none;" points=" 249 93 197 41"
      /><circle style="fill:white; clip-path:url(#clipPath12); stroke:none;" r="11" cx="249" cy="93"
      /><rect x="238" y="82" width="22" style="clip-path:url(#clipPath12); fill:rgb(0,166,81); stroke:none;" height="22"
      /><rect x="238" y="82" width="22" style="fill:none; clip-path:url(#clipPath12);" height="22"
      /><circle r="11" style="fill:none;" cx="249" cy="93"
      /><polygon style="fill:none;" points=" 197 145 197 197"
      /><rect x="186" y="134" width="22" style="clip-path:url(#clipPath13); fill:white; stroke:none;" height="22"
      /><rect x="186" y="134" width="22" style="clip-path:url(#clipPath13); fill:rgb(0,144,188); stroke:none;" height="22"
      /><rect x="186" y="134" width="22" style="fill:none; clip-path:url(#clipPath13);" height="22"
      /><rect x="186" width="22" height="22" y="134" style="fill:none;"
      /><polygon style="fill:white; clip-path:url(#clipPath14); stroke:none;" points=" 197 186 208 208 186 208"
      /><rect x="186" y="186" width="22" style="clip-path:url(#clipPath14); fill:rgb(237,28,36); stroke:none;" height="22"
      /><rect x="186" y="186" width="22" style="fill:none; clip-path:url(#clipPath14);" height="22"
      /><polygon style="fill:none;" points=" 197 186 208 208 186 208"
      /><rect x="202" y="159" width="6" style="fill:white; stroke:none;" height="10"
      /><path style="stroke:none;" d="M204.2344 160.6562 C204.5156 160.5938 204.7656 160.5625 205.0156 160.5625 C206.0625 160.5625 206.6719 161.1719 206.6719 162.2656 C206.6719 163.4375 205.9062 164.1094 204.7031 164.1094 L204.1875 164.1094 L204.1875 164.6406 L204.7969 164.6406 C206.2188 164.6406 206.9062 165.4219 206.9062 166.6406 C206.9062 167.8438 206.1719 168.6875 204.875 168.6875 C204.6094 168.6875 204.3125 168.6562 204.0156 168.5625 L203.7812 167.8125 C203.625 167.2812 203.5 167.0469 203.1406 167.0469 C202.8906 167.0469 202.7031 167.1719 202.5781 167.4219 C202.8438 168.6406 203.7812 169.1719 205.0312 169.1719 C206.7188 169.1719 207.875 168.125 207.875 166.7031 C207.875 165.5 207.2031 164.625 205.7969 164.375 C206.9531 164.0156 207.6094 163.2031 207.6094 162.2031 C207.6094 160.9219 206.6719 160.0781 205.1875 160.0781 C204.0469 160.0781 203.0625 160.5938 202.7969 161.6875 C202.9062 162 203.1094 162.1094 203.3594 162.1094 C203.7344 162.1094 203.8906 161.8906 204 161.4062 L204.2344 160.6562 Z"
      /><rect x="201" y="174" width="8" style="fill:white; stroke:none;" height="8"
      /><path style="stroke:none;" d="M205.9844 179.7031 C205.9375 180.8906 205.1562 181.6562 204.3125 181.6562 C203.2656 181.6562 202.5 180.6875 202.5 178.7188 C202.5 177.2812 203.1562 176.1562 204.3438 176.1562 C205.1406 176.1562 205.7812 176.6875 206.0938 177.6406 L205.9844 179.7031 ZM207.9062 181.2812 C207.7344 181.375 207.5469 181.4219 207.3438 181.4219 C206.9531 181.4219 206.75 181.2188 206.75 180.4219 C206.75 179.4844 206.9688 177.5312 207.1875 175.8281 L207.0312 175.7188 L206.2344 175.9219 L206.1406 176.7969 C205.7812 176.0312 205.1562 175.6562 204.3906 175.6562 C203.0469 175.6562 201.5625 176.8438 201.5625 178.9531 C201.5625 181.0938 202.7188 182.1719 204.1406 182.1719 C205.0156 182.1719 205.6875 181.8125 206.0938 180.9844 C206.2031 181.8594 206.5156 182.1719 207.0156 182.1719 C207.4688 182.1719 207.7969 181.9062 208.0156 181.5625 L207.9062 181.2812 Z"
      /><polygon style="fill:none;" points=" 197 41 197 93"
      /><rect x="186" y="30" width="22" style="clip-path:url(#clipPath15); fill:white; stroke:none;" height="22"
      /><rect x="186" y="30" width="22" style="clip-path:url(#clipPath15); fill:rgb(0,144,188); stroke:none;" height="22"
      /><rect x="186" y="30" width="22" style="fill:none; clip-path:url(#clipPath15);" height="22"
      /><rect x="186" width="22" height="22" y="30" style="fill:none;"
      /><polygon style="fill:white; clip-path:url(#clipPath16); stroke:none;" points=" 197 82 208 104 186 104"
      /><rect x="186" y="82" width="22" style="clip-path:url(#clipPath16); fill:rgb(237,28,36); stroke:none;" height="22"
      /><rect x="186" y="82" width="22" style="fill:none; clip-path:url(#clipPath16);" height="22"
      /><polygon style="fill:none;" points=" 197 82 208 104 186 104"
      /><rect x="202" y="55" width="6" style="fill:white; stroke:none;" height="10"
      /><path style="stroke:none;" d="M204.2344 56.6562 C204.5156 56.5938 204.7656 56.5625 205.0156 56.5625 C206.0625 56.5625 206.6719 57.1719 206.6719 58.2656 C206.6719 59.4375 205.9062 60.1094 204.7031 60.1094 L204.1875 60.1094 L204.1875 60.6406 L204.7969 60.6406 C206.2188 60.6406 206.9062 61.4219 206.9062 62.6406 C206.9062 63.8438 206.1719 64.6875 204.875 64.6875 C204.6094 64.6875 204.3125 64.6562 204.0156 64.5625 L203.7812 63.8125 C203.625 63.2812 203.5 63.0469 203.1406 63.0469 C202.8906 63.0469 202.7031 63.1719 202.5781 63.4219 C202.8438 64.6406 203.7812 65.1719 205.0312 65.1719 C206.7188 65.1719 207.875 64.125 207.875 62.7031 C207.875 61.5 207.2031 60.625 205.7969 60.375 C206.9531 60.0156 207.6094 59.2031 207.6094 58.2031 C207.6094 56.9219 206.6719 56.0781 205.1875 56.0781 C204.0469 56.0781 203.0625 56.5938 202.7969 57.6875 C202.9062 58 203.1094 58.1094 203.3594 58.1094 C203.7344 58.1094 203.8906 57.8906 204 57.4062 L204.2344 56.6562 Z"
      /><rect x="201" y="70" width="8" style="fill:white; stroke:none;" height="8"
      /><path style="stroke:none;" d="M205.9844 75.7031 C205.9375 76.8906 205.1562 77.6562 204.3125 77.6562 C203.2656 77.6562 202.5 76.6875 202.5 74.7188 C202.5 73.2812 203.1562 72.1562 204.3438 72.1562 C205.1406 72.1562 205.7812 72.6875 206.0938 73.6406 L205.9844 75.7031 ZM207.9062 77.2812 C207.7344 77.375 207.5469 77.4219 207.3438 77.4219 C206.9531 77.4219 206.75 77.2188 206.75 76.4219 C206.75 75.4844 206.9688 73.5312 207.1875 71.8281 L207.0312 71.7188 L206.2344 71.9219 L206.1406 72.7969 C205.7812 72.0312 205.1562 71.6562 204.3906 71.6562 C203.0469 71.6562 201.5625 72.8438 201.5625 74.9531 C201.5625 77.0938 202.7188 78.1719 204.1406 78.1719 C205.0156 78.1719 205.6875 77.8125 206.0938 76.9844 C206.2031 77.8594 206.5156 78.1719 207.0156 78.1719 C207.4688 78.1719 207.7969 77.9062 208.0156 77.5625 L207.9062 77.2812 Z"
      /><rect x="235" y="110" width="6" style="fill:white; stroke:none;" height="9"
      /><path style="stroke:none;" d="M236.4219 118.0938 C237.0781 117.375 237.7031 116.7188 238.0312 116.3438 C239.9219 114.3125 240.5312 113.4688 240.5312 112.3594 C240.5312 111.0156 239.7812 110.0781 238.1562 110.0781 C236.9062 110.0781 235.7969 110.7031 235.5938 111.9688 C235.7188 112.2031 235.9062 112.3438 236.1562 112.3438 C236.4688 112.3438 236.6562 112.1094 236.7969 111.5938 L237.0938 110.6719 C237.3906 110.5938 237.6562 110.5625 237.8906 110.5625 C238.9219 110.5625 239.5469 111.3125 239.5469 112.4219 C239.5469 113.4375 238.9844 114.4219 237.7031 115.9062 C237.125 116.5781 236.3906 117.4375 235.6406 118.2812 L235.6406 119 L240.9219 119 L240.9219 118.0938 L236.4219 118.0938 Z"
      /><rect x="216" y="127" width="6" style="fill:white; stroke:none;" height="13"
      /><path style="stroke:none;" d="M218.0938 133.2031 C218.0938 131.6562 218.75 130.8125 219.7969 130.8125 C220.7188 130.8125 221.2656 131.4531 221.2656 132.5156 C221.2656 133.7188 220.5 134.4375 219.1875 134.7031 L219.2969 135.3125 C221.2188 135.2344 221.9375 136.2188 221.9375 137.4375 C221.9375 138.625 221.2344 139.4219 219.9531 139.4219 C219.25 139.4219 218.6562 139.1562 218.0938 138.7188 L218.0938 133.2031 ZM217.2031 139.9062 L217.1094 142.375 L217.2656 142.4844 L218.1562 142.2656 L218.0156 139.0938 C218.5469 139.8438 219.3594 140.1719 220.1719 140.1719 C221.5625 140.1719 222.8594 139.2188 222.8594 137.4844 C222.8594 135.9531 221.875 135.1094 220.125 135 C221.5625 134.6094 222.1875 133.4531 222.1875 132.4844 C222.1875 131.0938 221.1562 130.3125 219.9062 130.3125 C218.2969 130.3125 217.2188 131.5469 217.2188 133.5156 L217.2031 139.9062 Z"
      /><rect x="223" y="77" width="6" style="fill:white; stroke:none;" height="10"
      /><path style="stroke:none;" d="M226.3438 86.6875 C225.2031 86.6875 224.5312 85.5 224.5312 83.2969 C224.5312 83.2188 224.5312 83.125 224.5312 83.0469 C225.0938 82.5 225.7188 82.3125 226.3438 82.3125 C227.3125 82.3125 227.9531 82.9844 227.9531 84.4531 C227.9531 85.9375 227.3125 86.6875 226.3438 86.6875 ZM228.5312 78.0781 C225.3438 78.4531 223.5625 80.7656 223.5625 83.4531 C223.5625 85.7812 224.6094 87.1719 226.3125 87.1719 C227.8438 87.1719 228.9219 86.1094 228.9219 84.2812 C228.9219 82.6875 227.9688 81.6562 226.5625 81.6562 C225.8281 81.6562 225.1406 81.9844 224.5781 82.5781 C224.7969 80.4062 226.0781 78.9688 228.5938 78.3906 L228.5312 78.0781 Z"
      /><rect x="205" y="56" width="6" style="fill:white; stroke:none;" height="13"
      /><path style="stroke:none;" d="M207.0938 62.2031 C207.0938 60.6562 207.75 59.8125 208.7969 59.8125 C209.7188 59.8125 210.2656 60.4531 210.2656 61.5156 C210.2656 62.7188 209.5 63.4375 208.1875 63.7031 L208.2969 64.3125 C210.2188 64.2344 210.9375 65.2188 210.9375 66.4375 C210.9375 67.625 210.2344 68.4219 208.9531 68.4219 C208.25 68.4219 207.6562 68.1562 207.0938 67.7188 L207.0938 62.2031 ZM206.2031 68.9062 L206.1094 71.375 L206.2656 71.4844 L207.1562 71.2656 L207.0156 68.0938 C207.5469 68.8438 208.3594 69.1719 209.1719 69.1719 C210.5625 69.1719 211.8594 68.2188 211.8594 66.4844 C211.8594 64.9531 210.875 64.1094 209.125 64 C210.5625 63.6094 211.1875 62.4531 211.1875 61.4844 C211.1875 60.0938 210.1562 59.3125 208.9062 59.3125 C207.2969 59.3125 206.2188 60.5469 206.2188 62.5156 L206.2031 68.9062 Z"
      /><rect x="296" y="213" width="6" style="fill:white; stroke:none;" height="10"
      /><path style="stroke:none;" d="M298.2344 214.6562 C298.5156 214.5938 298.7656 214.5625 299.0156 214.5625 C300.0625 214.5625 300.6719 215.1719 300.6719 216.2656 C300.6719 217.4375 299.9062 218.1094 298.7031 218.1094 L298.1875 218.1094 L298.1875 218.6406 L298.7969 218.6406 C300.2188 218.6406 300.9062 219.4219 300.9062 220.6406 C300.9062 221.8438 300.1719 222.6875 298.875 222.6875 C298.6094 222.6875 298.3125 222.6562 298.0156 222.5625 L297.7812 221.8125 C297.625 221.2812 297.5 221.0469 297.1406 221.0469 C296.8906 221.0469 296.7031 221.1719 296.5781 221.4219 C296.8438 222.6406 297.7812 223.1719 299.0312 223.1719 C300.7188 223.1719 301.875 222.125 301.875 220.7031 C301.875 219.5 301.2031 218.625 299.7969 218.375 C300.9531 218.0156 301.6094 217.2031 301.6094 216.2031 C301.6094 214.9219 300.6719 214.0781 299.1875 214.0781 C298.0469 214.0781 297.0625 214.5938 296.7969 215.6875 C296.9062 216 297.1094 216.1094 297.3594 216.1094 C297.7344 216.1094 297.8906 215.8906 298 215.4062 L298.2344 214.6562 Z"
      /><rect x="261" y="282" width="8" style="fill:white; stroke:none;" height="8"
      /><path style="stroke:none;" d="M265.9844 287.7031 C265.9375 288.8906 265.1562 289.6562 264.3125 289.6562 C263.2656 289.6562 262.5 288.6875 262.5 286.7188 C262.5 285.2812 263.1562 284.1562 264.3438 284.1562 C265.1406 284.1562 265.7812 284.6875 266.0938 285.6406 L265.9844 287.7031 ZM267.9062 289.2812 C267.7344 289.375 267.5469 289.4219 267.3438 289.4219 C266.9531 289.4219 266.75 289.2188 266.75 288.4219 C266.75 287.4844 266.9688 285.5312 267.1875 283.8281 L267.0312 283.7188 L266.2344 283.9219 L266.1406 284.7969 C265.7812 284.0312 265.1562 283.6562 264.3906 283.6562 C263.0469 283.6562 261.5625 284.8438 261.5625 286.9531 C261.5625 289.0938 262.7188 290.1719 264.1406 290.1719 C265.0156 290.1719 265.6875 289.8125 266.0938 288.9844 C266.2031 289.8594 266.5156 290.1719 267.0156 290.1719 C267.4688 290.1719 267.7969 289.9062 268.0156 289.5625 L267.9062 289.2812 Z"
      /><rect x="281" y="177" width="6" style="fill:white; stroke:none;" height="10"
      /><path style="stroke:none;" d="M284.3438 186.6875 C283.2031 186.6875 282.5312 185.5 282.5312 183.2969 C282.5312 183.2188 282.5312 183.125 282.5312 183.0469 C283.0938 182.5 283.7188 182.3125 284.3438 182.3125 C285.3125 182.3125 285.9531 182.9844 285.9531 184.4531 C285.9531 185.9375 285.3125 186.6875 284.3438 186.6875 ZM286.5312 178.0781 C283.3438 178.4531 281.5625 180.7656 281.5625 183.4531 C281.5625 185.7812 282.6094 187.1719 284.3125 187.1719 C285.8438 187.1719 286.9219 186.1094 286.9219 184.2812 C286.9219 182.6875 285.9688 181.6562 284.5625 181.6562 C283.8281 181.6562 283.1406 181.9844 282.5781 182.5781 C282.7969 180.4062 284.0781 178.9688 286.5938 178.3906 L286.5312 178.0781 Z"
      /><rect x="246" y="110" width="8" style="fill:white; stroke:none;" height="8"
      /><path style="stroke:none;" d="M250.9844 115.7031 C250.9375 116.8906 250.1562 117.6562 249.3125 117.6562 C248.2656 117.6562 247.5 116.6875 247.5 114.7188 C247.5 113.2812 248.1562 112.1562 249.3438 112.1562 C250.1406 112.1562 250.7812 112.6875 251.0938 113.6406 L250.9844 115.7031 ZM252.9062 117.2812 C252.7344 117.375 252.5469 117.4219 252.3438 117.4219 C251.9531 117.4219 251.75 117.2188 251.75 116.4219 C251.75 115.4844 251.9688 113.5312 252.1875 111.8281 L252.0312 111.7188 L251.2344 111.9219 L251.1406 112.7969 C250.7812 112.0312 250.1562 111.6562 249.3906 111.6562 C248.0469 111.6562 246.5625 112.8438 246.5625 114.9531 C246.5625 117.0938 247.7188 118.1719 249.1406 118.1719 C250.0156 118.1719 250.6875 117.8125 251.0938 116.9844 C251.2031 117.8594 251.5156 118.1719 252.0156 118.1719 C252.4688 118.1719 252.7969 117.9062 253.0156 117.5625 L252.9062 117.2812 Z"
      /><rect x="330" y="200" width="7" style="fill:white; stroke:none;" height="9"
      /><path style="stroke:none;" d="M331 205.5156 L333.9531 201.2656 L333.9531 205.5156 L331 205.5156 ZM336.2812 205.5156 L334.8594 205.5156 L334.8594 200.125 L334.2344 200.125 L330.3438 205.6406 L330.3438 206.1875 L333.9531 206.1875 L333.9531 209 L334.8594 209 L334.8594 206.1875 L336.2812 206.1875 L336.2812 205.5156 Z"
      /><rect x="317" y="198" width="6" style="fill:white; stroke:none;" height="13"
      /><path style="stroke:none;" d="M319.0938 204.2031 C319.0938 202.6562 319.75 201.8125 320.7969 201.8125 C321.7188 201.8125 322.2656 202.4531 322.2656 203.5156 C322.2656 204.7188 321.5 205.4375 320.1875 205.7031 L320.2969 206.3125 C322.2188 206.2344 322.9375 207.2188 322.9375 208.4375 C322.9375 209.625 322.2344 210.4219 320.9531 210.4219 C320.25 210.4219 319.6562 210.1562 319.0938 209.7188 L319.0938 204.2031 ZM318.2031 210.9062 L318.1094 213.375 L318.2656 213.4844 L319.1562 213.2656 L319.0156 210.0938 C319.5469 210.8438 320.3594 211.1719 321.1719 211.1719 C322.5625 211.1719 323.8594 210.2188 323.8594 208.4844 C323.8594 206.9531 322.875 206.1094 321.125 206 C322.5625 205.6094 323.1875 204.4531 323.1875 203.4844 C323.1875 202.0938 322.1562 201.3125 320.9062 201.3125 C319.2969 201.3125 318.2188 202.5469 318.2188 204.5156 L318.2031 210.9062 Z"
      /><rect x="382" y="200" width="7" style="fill:white; stroke:none;" height="9"
      /><path style="stroke:none;" d="M383 205.5156 L385.9531 201.2656 L385.9531 205.5156 L383 205.5156 ZM388.2812 205.5156 L386.8594 205.5156 L386.8594 200.125 L386.2344 200.125 L382.3438 205.6406 L382.3438 206.1875 L385.9531 206.1875 L385.9531 209 L386.8594 209 L386.8594 206.1875 L388.2812 206.1875 L388.2812 205.5156 Z"
      /><rect x="369" y="198" width="6" style="fill:white; stroke:none;" height="13"
      /><path style="stroke:none;" d="M371.0938 204.2031 C371.0938 202.6562 371.75 201.8125 372.7969 201.8125 C373.7188 201.8125 374.2656 202.4531 374.2656 203.5156 C374.2656 204.7188 373.5 205.4375 372.1875 205.7031 L372.2969 206.3125 C374.2188 206.2344 374.9375 207.2188 374.9375 208.4375 C374.9375 209.625 374.2344 210.4219 372.9531 210.4219 C372.25 210.4219 371.6562 210.1562 371.0938 209.7188 L371.0938 204.2031 ZM370.2031 210.9062 L370.1094 213.375 L370.2656 213.4844 L371.1562 213.2656 L371.0156 210.0938 C371.5469 210.8438 372.3594 211.1719 373.1719 211.1719 C374.5625 211.1719 375.8594 210.2188 375.8594 208.4844 C375.8594 206.9531 374.875 206.1094 373.125 206 C374.5625 205.6094 375.1875 204.4531 375.1875 203.4844 C375.1875 202.0938 374.1562 201.3125 372.9062 201.3125 C371.2969 201.3125 370.2188 202.5469 370.2188 204.5156 L370.2031 210.9062 Z"
      /><rect x="421" y="200" width="5" style="fill:white; stroke:none;" height="10"
      /><path style="stroke:none;" d="M422.8906 208.6875 C422.4844 208.6875 422.1562 209.0469 422.1562 209.4219 C422.1562 209.8125 422.4844 210.1562 422.8906 210.1562 C423.2969 210.1562 423.6406 209.8125 423.6406 209.4219 C423.6406 209.0469 423.2969 208.6875 422.8906 208.6875 ZM424.4688 202.5781 C424.7188 202.8906 424.875 203.2656 424.8906 203.6562 C424.8906 204.1875 424.625 204.5 424.0312 204.7656 L423.4062 205.0156 C422.6406 205.3125 422.3906 205.5469 422.3906 205.9375 C422.3906 206.1094 422.4531 206.3438 422.5781 206.8125 L422.7344 207.3438 L423.1094 207.3438 L423.0938 206.5312 C423.0938 206.0938 423.2031 205.9688 423.7812 205.7344 L424.2031 205.5625 C425.0312 205.2188 425.4531 204.6875 425.4531 203.8438 C425.4531 202.1562 423.6562 201.1875 422.5 201.0312 C422.1094 201.125 421.9062 201.2969 421.9062 201.6406 C421.9062 201.9375 422.0625 202.1562 422.7188 202.2656 L424.4688 202.5781 Z"
    /></g
  ></g
></svg
>
