<?xml version="1.0"?>
<!DOCTYPE svg PUBLIC '-//W3C//DTD SVG 1.0//EN'
          'http://www.w3.org/TR/2001/REC-SVG-20010904/DTD/svg10.dtd'>
<svg xmlns:xlink="http://www.w3.org/1999/xlink" style="fill-opacity:1; color-rendering:auto; color-interpolation:auto; text-rendering:auto; stroke:black; stroke-linecap:square; stroke-miterlimit:10; shape-rendering:auto; stroke-opacity:1; fill:black; stroke-dasharray:none; font-weight:normal; stroke-width:1; font-family:'Dialog'; font-style:normal; stroke-linejoin:miter; font-size:12px; stroke-dashoffset:0; image-rendering:auto;" viewBox="0 0 446 290" xmlns="http://www.w3.org/2000/svg"
><!--Generated by the Batik Graphics2D SVG Generator--><defs id="genericDefs"
  /><g
  ><defs id="defs1"
    ><clipPath clipPathUnits="userSpaceOnUse" id="clipPath1"
      ><path d="M342 121 L364 121 L364 143 L342 143 L342 121 Z"
      /></clipPath
      ><clipPath clipPathUnits="userSpaceOnUse" id="clipPath2"
      ><path d="M290 121 L312 121 L312 143 L290 143 L290 121 Z"
      /></clipPath
      ><clipPath clipPathUnits="userSpaceOnUse" id="clipPath3"
      ><path d="M260 132 C260 138.0751 255.0751 143 249 143 C242.9249 143 238 138.0751 238 132 C238 125.9249 242.9249 121 249 121 C255.0751 121 260 125.9249 260 132 Z"
      /></clipPath
      ><clipPath clipPathUnits="userSpaceOnUse" id="clipPath4"
      ><path d="M208 197 C208 203.0751 203.0751 208 197 208 C190.9249 208 186 203.0751 186 197 C186 190.9249 190.9249 186 197 186 C203.0751 186 208 190.9249 208 197 Z"
      /></clipPath
      ><clipPath clipPathUnits="userSpaceOnUse" id="clipPath5"
      ><path d="M134 238 L156 238 L156 260 L134 260 L134 238 Z"
      /></clipPath
      ><clipPath clipPathUnits="userSpaceOnUse" id="clipPath6"
      ><path d="M104 249 C104 255.0751 99.0751 260 93 260 C86.9249 260 82 255.0751 82 249 C82 242.9249 86.9249 238 93 238 C99.0751 238 104 242.9249 104 249 Z"
      /></clipPath
      ><clipPath clipPathUnits="userSpaceOnUse" id="clipPath7"
      ><path style="fill-rule:evenodd;" d="M41 238 L52 249 L41 260 L30 249 Z"
      /></clipPath
      ><clipPath clipPathUnits="userSpaceOnUse" id="clipPath8"
      ><path style="fill-rule:evenodd;" d="M145 208 L134 186 L156 186 Z"
      /></clipPath
      ><clipPath clipPathUnits="userSpaceOnUse" id="clipPath9"
      ><path d="M134 134 L156 134 L156 156 L134 156 L134 134 Z"
      /></clipPath
      ><clipPath clipPathUnits="userSpaceOnUse" id="clipPath10"
      ><path d="M104 145 C104 151.0751 99.0751 156 93 156 C86.9249 156 82 151.0751 82 145 C82 138.9249 86.9249 134 93 134 C99.0751 134 104 138.9249 104 145 Z"
      /></clipPath
      ><clipPath clipPathUnits="userSpaceOnUse" id="clipPath11"
      ><path d="M52 145 C52 151.0751 47.0751 156 41 156 C34.9249 156 30 151.0751 30 145 C30 138.9249 34.9249 134 41 134 C47.0751 134 52 138.9249 52 145 Z"
      /></clipPath
      ><clipPath clipPathUnits="userSpaceOnUse" id="clipPath12"
      ><path d="M208 67 C208 73.0751 203.0751 78 197 78 C190.9249 78 186 73.0751 186 67 C186 60.9249 190.9249 56 197 56 C203.0751 56 208 60.9249 208 67 Z"
      /></clipPath
      ><clipPath clipPathUnits="userSpaceOnUse" id="clipPath13"
      ><path d="M156 93 C156 99.0751 151.0751 104 145 104 C138.9249 104 134 99.0751 134 93 C134 86.9249 138.9249 82 145 82 C151.0751 82 156 86.9249 156 93 Z"
      /></clipPath
      ><clipPath clipPathUnits="userSpaceOnUse" id="clipPath14"
      ><path d="M156 41 C156 47.0751 151.0751 52 145 52 C138.9249 52 134 47.0751 134 41 C134 34.9249 138.9249 30 145 30 C151.0751 30 156 34.9249 156 41 Z"
      /></clipPath
    ></defs
    ><g style="fill:white; text-rendering:optimizeSpeed; stroke:white;"
    ><rect x="0" width="446" height="290" y="0" style="stroke:none;"
      /><polygon style="fill:none; stroke:black;" points=" 405 132 353 132"
      /><path d="M405 121 C399.5 126.5 410.5 137.5 405 143" style="fill:none; stroke:black;"
      /><polygon style="fill:none; stroke:black;" points=" 353 132 301 132"
      /><rect x="342" y="121" width="22" style="clip-path:url(#clipPath1); stroke:none;" height="22"
      /><rect x="342" y="121" width="22" style="clip-path:url(#clipPath1); fill:rgb(0,144,188); stroke:none;" height="22"
      /><rect x="342" y="121" width="22" style="clip-path:url(#clipPath1); fill:none; stroke:black;" height="22"
      /><rect x="342" y="121" width="22" style="fill:none; stroke:black;" height="22"
      /><polygon style="fill:none; stroke:black;" points=" 301 132 249 132"
      /><rect x="290" y="121" width="22" style="clip-path:url(#clipPath2); stroke:none;" height="22"
      /><rect x="290" y="121" width="22" style="clip-path:url(#clipPath2); fill:rgb(0,144,188); stroke:none;" height="22"
      /><rect x="290" y="121" width="22" style="clip-path:url(#clipPath2); fill:none; stroke:black;" height="22"
      /><rect x="290" y="121" width="22" style="fill:none; stroke:black;" height="22"
      /><polygon style="fill:none; stroke:black;" points=" 249 132 197 197"
      /><polygon style="fill:none; stroke:black;" points=" 249 132 197 67"
      /><circle style="clip-path:url(#clipPath3); stroke:none;" r="11" cx="249" cy="132"
      /><rect x="238" y="121" width="22" style="clip-path:url(#clipPath3); fill:rgb(0,166,81); stroke:none;" height="22"
      /><rect x="238" y="121" width="22" style="clip-path:url(#clipPath3); fill:none; stroke:black;" height="22"
      /><circle style="fill:none; stroke:black;" r="11" cx="249" cy="132"
      /><polygon style="fill:none; stroke:black;" points=" 197 197 145 249"
      /><polygon style="fill:none; stroke:black;" points=" 197 197 145 145"
      /><circle style="clip-path:url(#clipPath4); stroke:none;" r="11" cx="197" cy="197"
      /><rect x="186" y="186" width="22" style="clip-path:url(#clipPath4); fill:rgb(0,166,81); stroke:none;" height="22"
      /><rect x="186" y="186" width="22" style="clip-path:url(#clipPath4); fill:none; stroke:black;" height="22"
      /><circle style="fill:none; stroke:black;" r="11" cx="197" cy="197"
      /><polygon style="fill:none; stroke:black;" points=" 145 249 93 249"
      /><polygon style="fill:none; stroke:black;" points=" 145 249 145 197"
      /><rect x="134" y="238" width="22" style="clip-path:url(#clipPath5); stroke:none;" height="22"
      /><rect x="134" y="238" width="22" style="clip-path:url(#clipPath5); fill:rgb(0,144,188); stroke:none;" height="22"
      /><rect x="134" y="238" width="22" style="clip-path:url(#clipPath5); fill:none; stroke:black;" height="22"
      /><rect x="134" y="238" width="22" style="fill:none; stroke:black;" height="22"
      /><polygon style="fill:none; stroke:black;" points=" 93 249 41 249"
      /><circle style="clip-path:url(#clipPath6); stroke:none;" r="11" cx="93" cy="249"
      /><rect x="82" y="238" width="22" style="clip-path:url(#clipPath6); fill:rgb(255,212,0); stroke:none;" height="22"
      /><rect x="82" y="238" width="22" style="clip-path:url(#clipPath6); fill:none; stroke:black;" height="22"
      /><circle style="fill:none; stroke:black;" r="11" cx="93" cy="249"
      /><polygon style="clip-path:url(#clipPath7); stroke:none;" points=" 41 238 52 249 41 260 30 249"
      /><rect x="30" y="238" width="22" style="clip-path:url(#clipPath7); fill:rgb(165,67,153); stroke:none;" height="22"
      /><rect x="30" y="238" width="22" style="clip-path:url(#clipPath7); fill:none; stroke:black;" height="22"
      /><polygon style="fill:none; stroke:black;" points=" 41 238 52 249 41 260 30 249"
      /><rect x="71" y="252" width="5" style="stroke:none;" height="10"
    /></g
    ><g style="font-family:'Serif'; text-rendering:optimizeSpeed; "
    ><path style="stroke:none;" d="M72.8906 260.6875 C72.4844 260.6875 72.1562 261.0469 72.1562 261.4219 C72.1562 261.8125 72.4844 262.1562 72.8906 262.1562 C73.2969 262.1562 73.6406 261.8125 73.6406 261.4219 C73.6406 261.0469 73.2969 260.6875 72.8906 260.6875 ZM74.4688 254.5781 C74.7188 254.8906 74.875 255.2656 74.8906 255.6562 C74.8906 256.1875 74.625 256.5 74.0312 256.7656 L73.4062 257.0156 C72.6406 257.3125 72.3906 257.5469 72.3906 257.9375 C72.3906 258.1094 72.4531 258.3438 72.5781 258.8125 L72.7344 259.3438 L73.1094 259.3438 L73.0938 258.5312 C73.0938 258.0938 73.2031 257.9688 73.7812 257.7344 L74.2031 257.5625 C75.0312 257.2188 75.4531 256.6875 75.4531 255.8438 C75.4531 254.1562 73.6562 253.1875 72.5 253.0312 C72.1094 253.125 71.9062 253.2969 71.9062 253.6406 C71.9062 253.9375 72.0625 254.1562 72.7188 254.2656 L74.4688 254.5781 Z"
      /><rect x="57" y="252" width="5" style="fill:white; stroke:none;" height="10"
      /><path style="stroke:none;" d="M58.8906 260.6875 C58.4844 260.6875 58.1562 261.0469 58.1562 261.4219 C58.1562 261.8125 58.4844 262.1562 58.8906 262.1562 C59.2969 262.1562 59.6406 261.8125 59.6406 261.4219 C59.6406 261.0469 59.2969 260.6875 58.8906 260.6875 ZM60.4688 254.5781 C60.7188 254.8906 60.875 255.2656 60.8906 255.6562 C60.8906 256.1875 60.625 256.5 60.0312 256.7656 L59.4062 257.0156 C58.6406 257.3125 58.3906 257.5469 58.3906 257.9375 C58.3906 258.1094 58.4531 258.3438 58.5781 258.8125 L58.7344 259.3438 L59.1094 259.3438 L59.0938 258.5312 C59.0938 258.0938 59.2031 257.9688 59.7812 257.7344 L60.2031 257.5625 C61.0312 257.2188 61.4531 256.6875 61.4531 255.8438 C61.4531 254.1562 59.6562 253.1875 58.5 253.0312 C58.1094 253.125 57.9062 253.2969 57.9062 253.6406 C57.9062 253.9375 58.0625 254.1562 58.7188 254.2656 L60.4688 254.5781 Z"
      /><polygon style="fill:white; clip-path:url(#clipPath8); stroke:none;" points=" 145 208 134 186 156 186"
      /><rect x="134" y="186" width="22" style="clip-path:url(#clipPath8); fill:rgb(237,28,36); stroke:none;" height="22"
      /><rect x="134" y="186" width="22" style="fill:none; clip-path:url(#clipPath8);" height="22"
      /><polygon style="fill:none;" points=" 145 208 134 186 156 186"
      /><rect x="123" y="252" width="5" style="fill:white; stroke:none;" height="10"
      /><path style="stroke:none;" d="M124.8906 260.6875 C124.4844 260.6875 124.1562 261.0469 124.1562 261.4219 C124.1562 261.8125 124.4844 262.1562 124.8906 262.1562 C125.2969 262.1562 125.6406 261.8125 125.6406 261.4219 C125.6406 261.0469 125.2969 260.6875 124.8906 260.6875 ZM126.4688 254.5781 C126.7188 254.8906 126.875 255.2656 126.8906 255.6562 C126.8906 256.1875 126.625 256.5 126.0312 256.7656 L125.4062 257.0156 C124.6406 257.3125 124.3906 257.5469 124.3906 257.9375 C124.3906 258.1094 124.4531 258.3438 124.5781 258.8125 L124.7344 259.3438 L125.1094 259.3438 L125.0938 258.5312 C125.0938 258.0938 125.2031 257.9688 125.7812 257.7344 L126.2031 257.5625 C127.0312 257.2188 127.4531 256.6875 127.4531 255.8438 C127.4531 254.1562 125.6562 253.1875 124.5 253.0312 C124.1094 253.125 123.9062 253.2969 123.9062 253.6406 C123.9062 253.9375 124.0625 254.1562 124.7188 254.2656 L126.4688 254.5781 Z"
      /><rect x="109" y="252" width="5" style="fill:white; stroke:none;" height="10"
      /><path style="stroke:none;" d="M110.8906 260.6875 C110.4844 260.6875 110.1562 261.0469 110.1562 261.4219 C110.1562 261.8125 110.4844 262.1562 110.8906 262.1562 C111.2969 262.1562 111.6406 261.8125 111.6406 261.4219 C111.6406 261.0469 111.2969 260.6875 110.8906 260.6875 ZM112.4688 254.5781 C112.7188 254.8906 112.875 255.2656 112.8906 255.6562 C112.8906 256.1875 112.625 256.5 112.0312 256.7656 L111.4062 257.0156 C110.6406 257.3125 110.3906 257.5469 110.3906 257.9375 C110.3906 258.1094 110.4531 258.3438 110.5781 258.8125 L110.7344 259.3438 L111.1094 259.3438 L111.0938 258.5312 C111.0938 258.0938 111.2031 257.9688 111.7812 257.7344 L112.2031 257.5625 C113.0312 257.2188 113.4531 256.6875 113.4531 255.8438 C113.4531 254.1562 111.6562 253.1875 110.5 253.0312 C110.1094 253.125 109.9062 253.2969 109.9062 253.6406 C109.9062 253.9375 110.0625 254.1562 110.7188 254.2656 L112.4688 254.5781 Z"
      /><rect x="134" y="225" width="5" style="fill:white; stroke:none;" height="10"
      /><path style="stroke:none;" d="M135.8906 233.6875 C135.4844 233.6875 135.1562 234.0469 135.1562 234.4219 C135.1562 234.8125 135.4844 235.1562 135.8906 235.1562 C136.2969 235.1562 136.6406 234.8125 136.6406 234.4219 C136.6406 234.0469 136.2969 233.6875 135.8906 233.6875 ZM137.4688 227.5781 C137.7188 227.8906 137.875 228.2656 137.8906 228.6562 C137.8906 229.1875 137.625 229.5 137.0312 229.7656 L136.4062 230.0156 C135.6406 230.3125 135.3906 230.5469 135.3906 230.9375 C135.3906 231.1094 135.4531 231.3438 135.5781 231.8125 L135.7344 232.3438 L136.1094 232.3438 L136.0938 231.5312 C136.0938 231.0938 136.2031 230.9688 136.7812 230.7344 L137.2031 230.5625 C138.0312 230.2188 138.4531 229.6875 138.4531 228.8438 C138.4531 227.1562 136.6562 226.1875 135.5 226.0312 C135.1094 226.125 134.9062 226.2969 134.9062 226.6406 C134.9062 226.9375 135.0625 227.1562 135.7188 227.2656 L137.4688 227.5781 Z"
      /><rect x="134" y="211" width="5" style="fill:white; stroke:none;" height="10"
      /><path style="stroke:none;" d="M135.8906 219.6875 C135.4844 219.6875 135.1562 220.0469 135.1562 220.4219 C135.1562 220.8125 135.4844 221.1562 135.8906 221.1562 C136.2969 221.1562 136.6406 220.8125 136.6406 220.4219 C136.6406 220.0469 136.2969 219.6875 135.8906 219.6875 ZM137.4688 213.5781 C137.7188 213.8906 137.875 214.2656 137.8906 214.6562 C137.8906 215.1875 137.625 215.5 137.0312 215.7656 L136.4062 216.0156 C135.6406 216.3125 135.3906 216.5469 135.3906 216.9375 C135.3906 217.1094 135.4531 217.3438 135.5781 217.8125 L135.7344 218.3438 L136.1094 218.3438 L136.0938 217.5312 C136.0938 217.0938 136.2031 216.9688 136.7812 216.7344 L137.2031 216.5625 C138.0312 216.2188 138.4531 215.6875 138.4531 214.8438 C138.4531 213.1562 136.6562 212.1875 135.5 212.0312 C135.1094 212.125 134.9062 212.2969 134.9062 212.6406 C134.9062 212.9375 135.0625 213.1562 135.7188 213.2656 L137.4688 213.5781 Z"
      /><polygon style="fill:none;" points=" 145 145 93 145"
      /><rect x="134" y="134" width="22" style="clip-path:url(#clipPath9); fill:white; stroke:none;" height="22"
      /><rect x="134" y="134" width="22" style="clip-path:url(#clipPath9); fill:rgb(0,144,188); stroke:none;" height="22"
      /><rect x="134" y="134" width="22" style="fill:none; clip-path:url(#clipPath9);" height="22"
      /><rect x="134" width="22" height="22" y="134" style="fill:none;"
      /><polygon style="fill:none;" points=" 93 145 41 145"
      /><circle style="fill:white; clip-path:url(#clipPath10); stroke:none;" r="11" cx="93" cy="145"
      /><rect x="82" y="134" width="22" style="clip-path:url(#clipPath10); fill:rgb(255,212,0); stroke:none;" height="22"
      /><rect x="82" y="134" width="22" style="fill:none; clip-path:url(#clipPath10);" height="22"
      /><circle r="11" style="fill:none;" cx="93" cy="145"
      /><circle style="fill:white; clip-path:url(#clipPath11); stroke:none;" r="11" cx="41" cy="145"
      /><rect x="30" y="134" width="22" style="clip-path:url(#clipPath11); fill:rgb(255,212,0); stroke:none;" height="22"
      /><rect x="30" y="134" width="22" style="fill:none; clip-path:url(#clipPath11);" height="22"
      /><circle r="11" style="fill:none;" cx="41" cy="145"
      /><rect x="71" y="148" width="5" style="fill:white; stroke:none;" height="10"
      /><path style="stroke:none;" d="M72.8906 156.6875 C72.4844 156.6875 72.1562 157.0469 72.1562 157.4219 C72.1562 157.8125 72.4844 158.1562 72.8906 158.1562 C73.2969 158.1562 73.6406 157.8125 73.6406 157.4219 C73.6406 157.0469 73.2969 156.6875 72.8906 156.6875 ZM74.4688 150.5781 C74.7188 150.8906 74.875 151.2656 74.8906 151.6562 C74.8906 152.1875 74.625 152.5 74.0312 152.7656 L73.4062 153.0156 C72.6406 153.3125 72.3906 153.5469 72.3906 153.9375 C72.3906 154.1094 72.4531 154.3438 72.5781 154.8125 L72.7344 155.3438 L73.1094 155.3438 L73.0938 154.5312 C73.0938 154.0938 73.2031 153.9688 73.7812 153.7344 L74.2031 153.5625 C75.0312 153.2188 75.4531 152.6875 75.4531 151.8438 C75.4531 150.1562 73.6562 149.1875 72.5 149.0312 C72.1094 149.125 71.9062 149.2969 71.9062 149.6406 C71.9062 149.9375 72.0625 150.1562 72.7188 150.2656 L74.4688 150.5781 Z"
      /><rect x="57" y="148" width="5" style="fill:white; stroke:none;" height="10"
      /><path style="stroke:none;" d="M58.8906 156.6875 C58.4844 156.6875 58.1562 157.0469 58.1562 157.4219 C58.1562 157.8125 58.4844 158.1562 58.8906 158.1562 C59.2969 158.1562 59.6406 157.8125 59.6406 157.4219 C59.6406 157.0469 59.2969 156.6875 58.8906 156.6875 ZM60.4688 150.5781 C60.7188 150.8906 60.875 151.2656 60.8906 151.6562 C60.8906 152.1875 60.625 152.5 60.0312 152.7656 L59.4062 153.0156 C58.6406 153.3125 58.3906 153.5469 58.3906 153.9375 C58.3906 154.1094 58.4531 154.3438 58.5781 154.8125 L58.7344 155.3438 L59.1094 155.3438 L59.0938 154.5312 C59.0938 154.0938 59.2031 153.9688 59.7812 153.7344 L60.2031 153.5625 C61.0312 153.2188 61.4531 152.6875 61.4531 151.8438 C61.4531 150.1562 59.6562 149.1875 58.5 149.0312 C58.1094 149.125 57.9062 149.2969 57.9062 149.6406 C57.9062 149.9375 58.0625 150.1562 58.7188 150.2656 L60.4688 150.5781 Z"
      /><rect x="123" y="148" width="5" style="fill:white; stroke:none;" height="10"
      /><path style="stroke:none;" d="M124.8906 156.6875 C124.4844 156.6875 124.1562 157.0469 124.1562 157.4219 C124.1562 157.8125 124.4844 158.1562 124.8906 158.1562 C125.2969 158.1562 125.6406 157.8125 125.6406 157.4219 C125.6406 157.0469 125.2969 156.6875 124.8906 156.6875 ZM126.4688 150.5781 C126.7188 150.8906 126.875 151.2656 126.8906 151.6562 C126.8906 152.1875 126.625 152.5 126.0312 152.7656 L125.4062 153.0156 C124.6406 153.3125 124.3906 153.5469 124.3906 153.9375 C124.3906 154.1094 124.4531 154.3438 124.5781 154.8125 L124.7344 155.3438 L125.1094 155.3438 L125.0938 154.5312 C125.0938 154.0938 125.2031 153.9688 125.7812 153.7344 L126.2031 153.5625 C127.0312 153.2188 127.4531 152.6875 127.4531 151.8438 C127.4531 150.1562 125.6562 149.1875 124.5 149.0312 C124.1094 149.125 123.9062 149.2969 123.9062 149.6406 C123.9062 149.9375 124.0625 150.1562 124.7188 150.2656 L126.4688 150.5781 Z"
      /><rect x="109" y="148" width="5" style="fill:white; stroke:none;" height="10"
      /><path style="stroke:none;" d="M110.8906 156.6875 C110.4844 156.6875 110.1562 157.0469 110.1562 157.4219 C110.1562 157.8125 110.4844 158.1562 110.8906 158.1562 C111.2969 158.1562 111.6406 157.8125 111.6406 157.4219 C111.6406 157.0469 111.2969 156.6875 110.8906 156.6875 ZM112.4688 150.5781 C112.7188 150.8906 112.875 151.2656 112.8906 151.6562 C112.8906 152.1875 112.625 152.5 112.0312 152.7656 L111.4062 153.0156 C110.6406 153.3125 110.3906 153.5469 110.3906 153.9375 C110.3906 154.1094 110.4531 154.3438 110.5781 154.8125 L110.7344 155.3438 L111.1094 155.3438 L111.0938 154.5312 C111.0938 154.0938 111.2031 153.9688 111.7812 153.7344 L112.2031 153.5625 C113.0312 153.2188 113.4531 152.6875 113.4531 151.8438 C113.4531 150.1562 111.6562 149.1875 110.5 149.0312 C110.1094 149.125 109.9062 149.2969 109.9062 149.6406 C109.9062 149.9375 110.0625 150.1562 110.7188 150.2656 L112.4688 150.5781 Z"
      /><rect x="183" y="214" width="5" style="fill:white; stroke:none;" height="10"
      /><path style="stroke:none;" d="M184.8906 222.6875 C184.4844 222.6875 184.1562 223.0469 184.1562 223.4219 C184.1562 223.8125 184.4844 224.1562 184.8906 224.1562 C185.2969 224.1562 185.6406 223.8125 185.6406 223.4219 C185.6406 223.0469 185.2969 222.6875 184.8906 222.6875 ZM186.4688 216.5781 C186.7188 216.8906 186.875 217.2656 186.8906 217.6562 C186.8906 218.1875 186.625 218.5 186.0312 218.7656 L185.4062 219.0156 C184.6406 219.3125 184.3906 219.5469 184.3906 219.9375 C184.3906 220.1094 184.4531 220.3438 184.5781 220.8125 L184.7344 221.3438 L185.1094 221.3438 L185.0938 220.5312 C185.0938 220.0938 185.2031 219.9688 185.7812 219.7344 L186.2031 219.5625 C187.0312 219.2188 187.4531 218.6875 187.4531 217.8438 C187.4531 216.1562 185.6562 215.1875 184.5 215.0312 C184.1094 215.125 183.9062 215.2969 183.9062 215.6406 C183.9062 215.9375 184.0625 216.1562 184.7188 216.2656 L186.4688 216.5781 Z"
      /><rect x="164" y="233" width="5" style="fill:white; stroke:none;" height="10"
      /><path style="stroke:none;" d="M165.8906 241.6875 C165.4844 241.6875 165.1562 242.0469 165.1562 242.4219 C165.1562 242.8125 165.4844 243.1562 165.8906 243.1562 C166.2969 243.1562 166.6406 242.8125 166.6406 242.4219 C166.6406 242.0469 166.2969 241.6875 165.8906 241.6875 ZM167.4688 235.5781 C167.7188 235.8906 167.875 236.2656 167.8906 236.6562 C167.8906 237.1875 167.625 237.5 167.0312 237.7656 L166.4062 238.0156 C165.6406 238.3125 165.3906 238.5469 165.3906 238.9375 C165.3906 239.1094 165.4531 239.3438 165.5781 239.8125 L165.7344 240.3438 L166.1094 240.3438 L166.0938 239.5312 C166.0938 239.0938 166.2031 238.9688 166.7812 238.7344 L167.2031 238.5625 C168.0312 238.2188 168.4531 237.6875 168.4531 236.8438 C168.4531 235.1562 166.6562 234.1875 165.5 234.0312 C165.1094 234.125 164.9062 234.2969 164.9062 234.6406 C164.9062 234.9375 165.0625 235.1562 165.7188 235.2656 L167.4688 235.5781 Z"
      /><rect x="172" y="181" width="5" style="fill:white; stroke:none;" height="10"
      /><path style="stroke:none;" d="M173.8906 189.6875 C173.4844 189.6875 173.1562 190.0469 173.1562 190.4219 C173.1562 190.8125 173.4844 191.1562 173.8906 191.1562 C174.2969 191.1562 174.6406 190.8125 174.6406 190.4219 C174.6406 190.0469 174.2969 189.6875 173.8906 189.6875 ZM175.4688 183.5781 C175.7188 183.8906 175.875 184.2656 175.8906 184.6562 C175.8906 185.1875 175.625 185.5 175.0312 185.7656 L174.4062 186.0156 C173.6406 186.3125 173.3906 186.5469 173.3906 186.9375 C173.3906 187.1094 173.4531 187.3438 173.5781 187.8125 L173.7344 188.3438 L174.1094 188.3438 L174.0938 187.5312 C174.0938 187.0938 174.2031 186.9688 174.7812 186.7344 L175.2031 186.5625 C176.0312 186.2188 176.4531 185.6875 176.4531 184.8438 C176.4531 183.1562 174.6562 182.1875 173.5 182.0312 C173.1094 182.125 172.9062 182.2969 172.9062 182.6406 C172.9062 182.9375 173.0625 183.1562 173.7188 183.2656 L175.4688 183.5781 Z"
      /><rect x="153" y="162" width="5" style="fill:white; stroke:none;" height="10"
      /><path style="stroke:none;" d="M154.8906 170.6875 C154.4844 170.6875 154.1562 171.0469 154.1562 171.4219 C154.1562 171.8125 154.4844 172.1562 154.8906 172.1562 C155.2969 172.1562 155.6406 171.8125 155.6406 171.4219 C155.6406 171.0469 155.2969 170.6875 154.8906 170.6875 ZM156.4688 164.5781 C156.7188 164.8906 156.875 165.2656 156.8906 165.6562 C156.8906 166.1875 156.625 166.5 156.0312 166.7656 L155.4062 167.0156 C154.6406 167.3125 154.3906 167.5469 154.3906 167.9375 C154.3906 168.1094 154.4531 168.3438 154.5781 168.8125 L154.7344 169.3438 L155.1094 169.3438 L155.0938 168.5312 C155.0938 168.0938 155.2031 167.9688 155.7812 167.7344 L156.2031 167.5625 C157.0312 167.2188 157.4531 166.6875 157.4531 165.8438 C157.4531 164.1562 155.6562 163.1875 154.5 163.0312 C154.1094 163.125 153.9062 163.2969 153.9062 163.6406 C153.9062 163.9375 154.0625 164.1562 154.7188 164.2656 L156.4688 164.5781 Z"
      /><polygon style="fill:none;" points=" 197 67 145 93"
      /><polygon style="fill:none;" points=" 197 67 145 41"
      /><circle style="fill:white; clip-path:url(#clipPath12); stroke:none;" r="11" cx="197" cy="67"
      /><rect x="186" y="56" width="22" style="clip-path:url(#clipPath12); fill:rgb(0,166,81); stroke:none;" height="22"
      /><rect x="186" y="56" width="22" style="fill:none; clip-path:url(#clipPath12);" height="22"
      /><circle r="11" style="fill:none;" cx="197" cy="67"
      /><circle style="fill:white; clip-path:url(#clipPath13); stroke:none;" r="11" cx="145" cy="93"
      /><rect x="134" y="82" width="22" style="clip-path:url(#clipPath13); fill:rgb(0,166,81); stroke:none;" height="22"
      /><rect x="134" y="82" width="22" style="fill:none; clip-path:url(#clipPath13);" height="22"
      /><circle r="11" style="fill:none;" cx="145" cy="93"
      /><circle style="fill:white; clip-path:url(#clipPath14); stroke:none;" r="11" cx="145" cy="41"
      /><rect x="134" y="30" width="22" style="clip-path:url(#clipPath14); fill:rgb(0,166,81); stroke:none;" height="22"
      /><rect x="134" y="30" width="22" style="fill:none; clip-path:url(#clipPath14);" height="22"
      /><circle r="11" style="fill:none;" cx="145" cy="41"
      /><rect x="179" y="78" width="5" style="fill:white; stroke:none;" height="10"
      /><path style="stroke:none;" d="M180.8906 86.6875 C180.4844 86.6875 180.1562 87.0469 180.1562 87.4219 C180.1562 87.8125 180.4844 88.1562 180.8906 88.1562 C181.2969 88.1562 181.6406 87.8125 181.6406 87.4219 C181.6406 87.0469 181.2969 86.6875 180.8906 86.6875 ZM182.4688 80.5781 C182.7188 80.8906 182.875 81.2656 182.8906 81.6562 C182.8906 82.1875 182.625 82.5 182.0312 82.7656 L181.4062 83.0156 C180.6406 83.3125 180.3906 83.5469 180.3906 83.9375 C180.3906 84.1094 180.4531 84.3438 180.5781 84.8125 L180.7344 85.3438 L181.1094 85.3438 L181.0938 84.5312 C181.0938 84.0938 181.2031 83.9688 181.7812 83.7344 L182.2031 83.5625 C183.0312 83.2188 183.4531 82.6875 183.4531 81.8438 C183.4531 80.1562 181.6562 79.1875 180.5 79.0312 C180.1094 79.125 179.9062 79.2969 179.9062 79.6406 C179.9062 79.9375 180.0625 80.1562 180.7188 80.2656 L182.4688 80.5781 Z"
      /><rect x="164" y="86" width="5" style="fill:white; stroke:none;" height="10"
      /><path style="stroke:none;" d="M165.8906 94.6875 C165.4844 94.6875 165.1562 95.0469 165.1562 95.4219 C165.1562 95.8125 165.4844 96.1562 165.8906 96.1562 C166.2969 96.1562 166.6406 95.8125 166.6406 95.4219 C166.6406 95.0469 166.2969 94.6875 165.8906 94.6875 ZM167.4688 88.5781 C167.7188 88.8906 167.875 89.2656 167.8906 89.6562 C167.8906 90.1875 167.625 90.5 167.0312 90.7656 L166.4062 91.0156 C165.6406 91.3125 165.3906 91.5469 165.3906 91.9375 C165.3906 92.1094 165.4531 92.3438 165.5781 92.8125 L165.7344 93.3438 L166.1094 93.3438 L166.0938 92.5312 C166.0938 92.0938 166.2031 91.9688 166.7812 91.7344 L167.2031 91.5625 C168.0312 91.2188 168.4531 90.6875 168.4531 89.8438 C168.4531 88.1562 166.6562 87.1875 165.5 87.0312 C165.1094 87.125 164.9062 87.2969 164.9062 87.6406 C164.9062 87.9375 165.0625 88.1562 165.7188 88.2656 L167.4688 88.5781 Z"
      /><rect x="172" y="60" width="5" style="fill:white; stroke:none;" height="10"
      /><path style="stroke:none;" d="M173.8906 68.6875 C173.4844 68.6875 173.1562 69.0469 173.1562 69.4219 C173.1562 69.8125 173.4844 70.1562 173.8906 70.1562 C174.2969 70.1562 174.6406 69.8125 174.6406 69.4219 C174.6406 69.0469 174.2969 68.6875 173.8906 68.6875 ZM175.4688 62.5781 C175.7188 62.8906 175.875 63.2656 175.8906 63.6562 C175.8906 64.1875 175.625 64.5 175.0312 64.7656 L174.4062 65.0156 C173.6406 65.3125 173.3906 65.5469 173.3906 65.9375 C173.3906 66.1094 173.4531 66.3438 173.5781 66.8125 L173.7344 67.3438 L174.1094 67.3438 L174.0938 66.5312 C174.0938 66.0938 174.2031 65.9688 174.7812 65.7344 L175.2031 65.5625 C176.0312 65.2188 176.4531 64.6875 176.4531 63.8438 C176.4531 62.1562 174.6562 61.1875 173.5 61.0312 C173.1094 61.125 172.9062 61.2969 172.9062 61.6406 C172.9062 61.9375 173.0625 62.1562 173.7188 62.2656 L175.4688 62.5781 Z"
      /><rect x="157" y="52" width="5" style="fill:white; stroke:none;" height="10"
      /><path style="stroke:none;" d="M158.8906 60.6875 C158.4844 60.6875 158.1562 61.0469 158.1562 61.4219 C158.1562 61.8125 158.4844 62.1562 158.8906 62.1562 C159.2969 62.1562 159.6406 61.8125 159.6406 61.4219 C159.6406 61.0469 159.2969 60.6875 158.8906 60.6875 ZM160.4688 54.5781 C160.7188 54.8906 160.875 55.2656 160.8906 55.6562 C160.8906 56.1875 160.625 56.5 160.0312 56.7656 L159.4062 57.0156 C158.6406 57.3125 158.3906 57.5469 158.3906 57.9375 C158.3906 58.1094 158.4531 58.3438 158.5781 58.8125 L158.7344 59.3438 L159.1094 59.3438 L159.0938 58.5312 C159.0938 58.0938 159.2031 57.9688 159.7812 57.7344 L160.2031 57.5625 C161.0312 57.2188 161.4531 56.6875 161.4531 55.8438 C161.4531 54.1562 159.6562 53.1875 158.5 53.0312 C158.1094 53.125 157.9062 53.2969 157.9062 53.6406 C157.9062 53.9375 158.0625 54.1562 158.7188 54.2656 L160.4688 54.5781 Z"
      /><rect x="238" y="149" width="5" style="fill:white; stroke:none;" height="10"
      /><path style="stroke:none;" d="M239.8906 157.6875 C239.4844 157.6875 239.1562 158.0469 239.1562 158.4219 C239.1562 158.8125 239.4844 159.1562 239.8906 159.1562 C240.2969 159.1562 240.6406 158.8125 240.6406 158.4219 C240.6406 158.0469 240.2969 157.6875 239.8906 157.6875 ZM241.4688 151.5781 C241.7188 151.8906 241.875 152.2656 241.8906 152.6562 C241.8906 153.1875 241.625 153.5 241.0312 153.7656 L240.4062 154.0156 C239.6406 154.3125 239.3906 154.5469 239.3906 154.9375 C239.3906 155.1094 239.4531 155.3438 239.5781 155.8125 L239.7344 156.3438 L240.1094 156.3438 L240.0938 155.5312 C240.0938 155.0938 240.2031 154.9688 240.7812 154.7344 L241.2031 154.5625 C242.0312 154.2188 242.4531 153.6875 242.4531 152.8438 C242.4531 151.1562 240.6562 150.1875 239.5 150.0312 C239.1094 150.125 238.9062 150.2969 238.9062 150.6406 C238.9062 150.9375 239.0625 151.1562 239.7188 151.2656 L241.4688 151.5781 Z"
      /><rect x="214" y="179" width="5" style="fill:white; stroke:none;" height="10"
      /><path style="stroke:none;" d="M215.8906 187.6875 C215.4844 187.6875 215.1562 188.0469 215.1562 188.4219 C215.1562 188.8125 215.4844 189.1562 215.8906 189.1562 C216.2969 189.1562 216.6406 188.8125 216.6406 188.4219 C216.6406 188.0469 216.2969 187.6875 215.8906 187.6875 ZM217.4688 181.5781 C217.7188 181.8906 217.875 182.2656 217.8906 182.6562 C217.8906 183.1875 217.625 183.5 217.0312 183.7656 L216.4062 184.0156 C215.6406 184.3125 215.3906 184.5469 215.3906 184.9375 C215.3906 185.1094 215.4531 185.3438 215.5781 185.8125 L215.7344 186.3438 L216.1094 186.3438 L216.0938 185.5312 C216.0938 185.0938 216.2031 184.9688 216.7812 184.7344 L217.2031 184.5625 C218.0312 184.2188 218.4531 183.6875 218.4531 182.8438 C218.4531 181.1562 216.6562 180.1875 215.5 180.0312 C215.1094 180.125 214.9062 180.2969 214.9062 180.6406 C214.9062 180.9375 215.0625 181.1562 215.7188 181.2656 L217.4688 181.5781 Z"
      /><rect x="226" y="114" width="5" style="fill:white; stroke:none;" height="10"
      /><path style="stroke:none;" d="M227.8906 122.6875 C227.4844 122.6875 227.1562 123.0469 227.1562 123.4219 C227.1562 123.8125 227.4844 124.1562 227.8906 124.1562 C228.2969 124.1562 228.6406 123.8125 228.6406 123.4219 C228.6406 123.0469 228.2969 122.6875 227.8906 122.6875 ZM229.4688 116.5781 C229.7188 116.8906 229.875 117.2656 229.8906 117.6562 C229.8906 118.1875 229.625 118.5 229.0312 118.7656 L228.4062 119.0156 C227.6406 119.3125 227.3906 119.5469 227.3906 119.9375 C227.3906 120.1094 227.4531 120.3438 227.5781 120.8125 L227.7344 121.3438 L228.1094 121.3438 L228.0938 120.5312 C228.0938 120.0938 228.2031 119.9688 228.7812 119.7344 L229.2031 119.5625 C230.0312 119.2188 230.4531 118.6875 230.4531 117.8438 C230.4531 116.1562 228.6562 115.1875 227.5 115.0312 C227.1094 115.125 226.9062 115.2969 226.9062 115.6406 C226.9062 115.9375 227.0625 116.1562 227.7188 116.2656 L229.4688 116.5781 Z"
      /><rect x="202" y="84" width="5" style="fill:white; stroke:none;" height="10"
      /><path style="stroke:none;" d="M203.8906 92.6875 C203.4844 92.6875 203.1562 93.0469 203.1562 93.4219 C203.1562 93.8125 203.4844 94.1562 203.8906 94.1562 C204.2969 94.1562 204.6406 93.8125 204.6406 93.4219 C204.6406 93.0469 204.2969 92.6875 203.8906 92.6875 ZM205.4688 86.5781 C205.7188 86.8906 205.875 87.2656 205.8906 87.6562 C205.8906 88.1875 205.625 88.5 205.0312 88.7656 L204.4062 89.0156 C203.6406 89.3125 203.3906 89.5469 203.3906 89.9375 C203.3906 90.1094 203.4531 90.3438 203.5781 90.8125 L203.7344 91.3438 L204.1094 91.3438 L204.0938 90.5312 C204.0938 90.0938 204.2031 89.9688 204.7812 89.7344 L205.2031 89.5625 C206.0312 89.2188 206.4531 88.6875 206.4531 87.8438 C206.4531 86.1562 204.6562 85.1875 203.5 85.0312 C203.1094 85.125 202.9062 85.2969 202.9062 85.6406 C202.9062 85.9375 203.0625 86.1562 203.7188 86.2656 L205.4688 86.5781 Z"
      /><rect x="279" y="135" width="5" style="fill:white; stroke:none;" height="10"
      /><path style="stroke:none;" d="M280.8906 143.6875 C280.4844 143.6875 280.1562 144.0469 280.1562 144.4219 C280.1562 144.8125 280.4844 145.1562 280.8906 145.1562 C281.2969 145.1562 281.6406 144.8125 281.6406 144.4219 C281.6406 144.0469 281.2969 143.6875 280.8906 143.6875 ZM282.4688 137.5781 C282.7188 137.8906 282.875 138.2656 282.8906 138.6562 C282.8906 139.1875 282.625 139.5 282.0312 139.7656 L281.4062 140.0156 C280.6406 140.3125 280.3906 140.5469 280.3906 140.9375 C280.3906 141.1094 280.4531 141.3438 280.5781 141.8125 L280.7344 142.3438 L281.1094 142.3438 L281.0938 141.5312 C281.0938 141.0938 281.2031 140.9688 281.7812 140.7344 L282.2031 140.5625 C283.0312 140.2188 283.4531 139.6875 283.4531 138.8438 C283.4531 137.1562 281.6562 136.1875 280.5 136.0312 C280.1094 136.125 279.9062 136.2969 279.9062 136.6406 C279.9062 136.9375 280.0625 137.1562 280.7188 137.2656 L282.4688 137.5781 Z"
      /><rect x="265" y="135" width="5" style="fill:white; stroke:none;" height="10"
      /><path style="stroke:none;" d="M266.8906 143.6875 C266.4844 143.6875 266.1562 144.0469 266.1562 144.4219 C266.1562 144.8125 266.4844 145.1562 266.8906 145.1562 C267.2969 145.1562 267.6406 144.8125 267.6406 144.4219 C267.6406 144.0469 267.2969 143.6875 266.8906 143.6875 ZM268.4688 137.5781 C268.7188 137.8906 268.875 138.2656 268.8906 138.6562 C268.8906 139.1875 268.625 139.5 268.0312 139.7656 L267.4062 140.0156 C266.6406 140.3125 266.3906 140.5469 266.3906 140.9375 C266.3906 141.1094 266.4531 141.3438 266.5781 141.8125 L266.7344 142.3438 L267.1094 142.3438 L267.0938 141.5312 C267.0938 141.0938 267.2031 140.9688 267.7812 140.7344 L268.2031 140.5625 C269.0312 140.2188 269.4531 139.6875 269.4531 138.8438 C269.4531 137.1562 267.6562 136.1875 266.5 136.0312 C266.1094 136.125 265.9062 136.2969 265.9062 136.6406 C265.9062 136.9375 266.0625 137.1562 266.7188 137.2656 L268.4688 137.5781 Z"
      /><rect x="331" y="135" width="5" style="fill:white; stroke:none;" height="10"
      /><path style="stroke:none;" d="M332.8906 143.6875 C332.4844 143.6875 332.1562 144.0469 332.1562 144.4219 C332.1562 144.8125 332.4844 145.1562 332.8906 145.1562 C333.2969 145.1562 333.6406 144.8125 333.6406 144.4219 C333.6406 144.0469 333.2969 143.6875 332.8906 143.6875 ZM334.4688 137.5781 C334.7188 137.8906 334.875 138.2656 334.8906 138.6562 C334.8906 139.1875 334.625 139.5 334.0312 139.7656 L333.4062 140.0156 C332.6406 140.3125 332.3906 140.5469 332.3906 140.9375 C332.3906 141.1094 332.4531 141.3438 332.5781 141.8125 L332.7344 142.3438 L333.1094 142.3438 L333.0938 141.5312 C333.0938 141.0938 333.2031 140.9688 333.7812 140.7344 L334.2031 140.5625 C335.0312 140.2188 335.4531 139.6875 335.4531 138.8438 C335.4531 137.1562 333.6562 136.1875 332.5 136.0312 C332.1094 136.125 331.9062 136.2969 331.9062 136.6406 C331.9062 136.9375 332.0625 137.1562 332.7188 137.2656 L334.4688 137.5781 Z"
      /><rect x="317" y="135" width="5" style="fill:white; stroke:none;" height="10"
      /><path style="stroke:none;" d="M318.8906 143.6875 C318.4844 143.6875 318.1562 144.0469 318.1562 144.4219 C318.1562 144.8125 318.4844 145.1562 318.8906 145.1562 C319.2969 145.1562 319.6406 144.8125 319.6406 144.4219 C319.6406 144.0469 319.2969 143.6875 318.8906 143.6875 ZM320.4688 137.5781 C320.7188 137.8906 320.875 138.2656 320.8906 138.6562 C320.8906 139.1875 320.625 139.5 320.0312 139.7656 L319.4062 140.0156 C318.6406 140.3125 318.3906 140.5469 318.3906 140.9375 C318.3906 141.1094 318.4531 141.3438 318.5781 141.8125 L318.7344 142.3438 L319.1094 142.3438 L319.0938 141.5312 C319.0938 141.0938 319.2031 140.9688 319.7812 140.7344 L320.2031 140.5625 C321.0312 140.2188 321.4531 139.6875 321.4531 138.8438 C321.4531 137.1562 319.6562 136.1875 318.5 136.0312 C318.1094 136.125 317.9062 136.2969 317.9062 136.6406 C317.9062 136.9375 318.0625 137.1562 318.7188 137.2656 L320.4688 137.5781 Z"
      /><rect x="369" y="135" width="5" style="fill:white; stroke:none;" height="10"
      /><path style="stroke:none;" d="M370.8906 143.6875 C370.4844 143.6875 370.1562 144.0469 370.1562 144.4219 C370.1562 144.8125 370.4844 145.1562 370.8906 145.1562 C371.2969 145.1562 371.6406 144.8125 371.6406 144.4219 C371.6406 144.0469 371.2969 143.6875 370.8906 143.6875 ZM372.4688 137.5781 C372.7188 137.8906 372.875 138.2656 372.8906 138.6562 C372.8906 139.1875 372.625 139.5 372.0312 139.7656 L371.4062 140.0156 C370.6406 140.3125 370.3906 140.5469 370.3906 140.9375 C370.3906 141.1094 370.4531 141.3438 370.5781 141.8125 L370.7344 142.3438 L371.1094 142.3438 L371.0938 141.5312 C371.0938 141.0938 371.2031 140.9688 371.7812 140.7344 L372.2031 140.5625 C373.0312 140.2188 373.4531 139.6875 373.4531 138.8438 C373.4531 137.1562 371.6562 136.1875 370.5 136.0312 C370.1094 136.125 369.9062 136.2969 369.9062 136.6406 C369.9062 136.9375 370.0625 137.1562 370.7188 137.2656 L372.4688 137.5781 Z"
    /></g
  ></g
></svg
>
