<?xml version="1.0"?>
<!DOCTYPE svg PUBLIC '-//W3C//DTD SVG 1.0//EN'
          'http://www.w3.org/TR/2001/REC-SVG-20010904/DTD/svg10.dtd'>
<svg xmlns:xlink="http://www.w3.org/1999/xlink" style="fill-opacity:1; color-rendering:auto; color-interpolation:auto; text-rendering:auto; stroke:black; stroke-linecap:square; stroke-miterlimit:10; shape-rendering:auto; stroke-opacity:1; fill:black; stroke-dasharray:none; font-weight:normal; stroke-width:1; font-family:'Dialog'; font-style:normal; stroke-linejoin:miter; font-size:12px; stroke-dashoffset:0; image-rendering:auto;" viewBox="0 0 559 186" xmlns="http://www.w3.org/2000/svg"
><!--Generated by the Batik Graphics2D SVG Generator--><defs id="genericDefs"
  /><g
  ><defs id="defs1"
    ><clipPath clipPathUnits="userSpaceOnUse" id="clipPath1"
      ><path d="M455 69 L477 69 L477 91 L455 91 L455 69 Z"
      /></clipPath
      ><clipPath clipPathUnits="userSpaceOnUse" id="clipPath2"
      ><path d="M403 69 L425 69 L425 91 L403 91 L403 69 Z"
      /></clipPath
      ><clipPath clipPathUnits="userSpaceOnUse" id="clipPath3"
      ><path d="M373 80 C373 86.0751 368.0751 91 362 91 C355.9249 91 351 86.0751 351 80 C351 73.9249 355.9249 69 362 69 C368.0751 69 373 73.9249 373 80 Z"
      /></clipPath
      ><clipPath clipPathUnits="userSpaceOnUse" id="clipPath4"
      ><path d="M321 119 C321 125.0751 316.0751 130 310 130 C303.9249 130 299 125.0751 299 119 C299 112.9249 303.9249 108 310 108 C316.0751 108 321 112.9249 321 119 Z"
      /></clipPath
      ><clipPath clipPathUnits="userSpaceOnUse" id="clipPath5"
      ><path d="M247 134 L269 134 L269 156 L247 156 L247 134 Z"
      /></clipPath
      ><clipPath clipPathUnits="userSpaceOnUse" id="clipPath6"
      ><path d="M217 145 C217 151.0751 212.0751 156 206 156 C199.9249 156 195 151.0751 195 145 C195 138.9249 199.9249 134 206 134 C212.0751 134 217 138.9249 217 145 Z"
      /></clipPath
      ><clipPath clipPathUnits="userSpaceOnUse" id="clipPath7"
      ><path d="M247 82 L269 82 L269 104 L247 104 L247 82 Z"
      /></clipPath
      ><clipPath clipPathUnits="userSpaceOnUse" id="clipPath8"
      ><path d="M217 93 C217 99.0751 212.0751 104 206 104 C199.9249 104 195 99.0751 195 93 C195 86.9249 199.9249 82 206 82 C212.0751 82 217 86.9249 217 93 Z"
      /></clipPath
      ><clipPath clipPathUnits="userSpaceOnUse" id="clipPath9"
      ><path d="M321 41 C321 47.0751 316.0751 52 310 52 C303.9249 52 299 47.0751 299 41 C299 34.9249 303.9249 30 310 30 C316.0751 30 321 34.9249 321 41 Z"
      /></clipPath
      ><clipPath clipPathUnits="userSpaceOnUse" id="clipPath10"
      ><path d="M247 30 L269 30 L269 52 L247 52 L247 30 Z"
      /></clipPath
      ><clipPath clipPathUnits="userSpaceOnUse" id="clipPath11"
      ><path d="M217 41 C217 47.0751 212.0751 52 206 52 C199.9249 52 195 47.0751 195 41 C195 34.9249 199.9249 30 206 30 C212.0751 30 217 34.9249 217 41 Z"
      /></clipPath
      ><clipPath clipPathUnits="userSpaceOnUse" id="clipPath12"
      ><path d="M99 108 L121 108 L121 130 L99 130 L99 108 Z"
      /></clipPath
      ><clipPath clipPathUnits="userSpaceOnUse" id="clipPath13"
      ><path d="M69 119 C69 125.0751 64.0751 130 58 130 C51.9249 130 47 125.0751 47 119 C47 112.9249 51.9249 108 58 108 C64.0751 108 69 112.9249 69 119 Z"
      /></clipPath
      ><clipPath clipPathUnits="userSpaceOnUse" id="clipPath14"
      ><path style="fill-rule:evenodd;" d="M110 56 L121 67 L110 78 L99 67 Z"
      /></clipPath
    ></defs
    ><g style="fill:white; text-rendering:optimizeSpeed; stroke:white;"
    ><rect x="0" width="559" height="186" y="0" style="stroke:none;"
      /><polygon style="fill:none; stroke:black;" points=" 518 80 466 80"
      /><path d="M518 69 C512.5 74.5 523.5 85.5 518 91" style="fill:none; stroke:black;"
      /><polygon style="fill:none; stroke:black;" points=" 466 80 414 80"
      /><rect x="455" y="69" width="22" style="clip-path:url(#clipPath1); stroke:none;" height="22"
      /><rect x="455" y="69" width="22" style="clip-path:url(#clipPath1); fill:rgb(0,144,188); stroke:none;" height="22"
      /><rect x="455" y="69" width="22" style="clip-path:url(#clipPath1); fill:none; stroke:black;" height="22"
      /><rect x="455" y="69" width="22" style="fill:none; stroke:black;" height="22"
      /><polygon style="fill:none; stroke:black;" points=" 414 80 362 80"
      /><rect x="403" y="69" width="22" style="clip-path:url(#clipPath2); stroke:none;" height="22"
      /><rect x="403" y="69" width="22" style="clip-path:url(#clipPath2); fill:rgb(0,144,188); stroke:none;" height="22"
      /><rect x="403" y="69" width="22" style="clip-path:url(#clipPath2); fill:none; stroke:black;" height="22"
      /><rect x="403" y="69" width="22" style="fill:none; stroke:black;" height="22"
      /><polygon style="fill:none; stroke:black;" points=" 362 80 310 119"
      /><polygon style="fill:none; stroke:black;" points=" 362 80 310 41"
      /><circle style="clip-path:url(#clipPath3); stroke:none;" r="11" cx="362" cy="80"
      /><rect x="351" y="69" width="22" style="clip-path:url(#clipPath3); fill:rgb(0,166,81); stroke:none;" height="22"
      /><rect x="351" y="69" width="22" style="clip-path:url(#clipPath3); fill:none; stroke:black;" height="22"
      /><circle style="fill:none; stroke:black;" r="11" cx="362" cy="80"
      /><polygon style="fill:none; stroke:black;" points=" 310 119 258 145"
      /><polygon style="fill:none; stroke:black;" points=" 310 119 258 93"
      /><circle style="clip-path:url(#clipPath4); stroke:none;" r="11" cx="310" cy="119"
      /><rect x="299" y="108" width="22" style="clip-path:url(#clipPath4); fill:rgb(0,166,81); stroke:none;" height="22"
      /><rect x="299" y="108" width="22" style="clip-path:url(#clipPath4); fill:none; stroke:black;" height="22"
      /><circle style="fill:none; stroke:black;" r="11" cx="310" cy="119"
      /><polygon style="fill:none; stroke:black;" points=" 258 145 206 145"
      /><rect x="247" y="134" width="22" style="clip-path:url(#clipPath5); stroke:none;" height="22"
      /><rect x="247" y="134" width="22" style="clip-path:url(#clipPath5); fill:rgb(0,144,188); stroke:none;" height="22"
      /><rect x="247" y="134" width="22" style="clip-path:url(#clipPath5); fill:none; stroke:black;" height="22"
      /><rect x="247" y="134" width="22" style="fill:none; stroke:black;" height="22"
      /><circle style="clip-path:url(#clipPath6); stroke:none;" r="11" cx="206" cy="145"
      /><rect x="195" y="134" width="22" style="clip-path:url(#clipPath6); fill:rgb(255,212,0); stroke:none;" height="22"
      /><rect x="195" y="134" width="22" style="clip-path:url(#clipPath6); fill:none; stroke:black;" height="22"
      /><circle style="fill:none; stroke:black;" r="11" cx="206" cy="145"
      /><rect x="235" y="148" width="7" style="stroke:none;" height="9"
    /></g
    ><g style="font-family:'Serif'; text-rendering:optimizeSpeed; "
    ><path style="stroke:none;" d="M236 153.5156 L238.9531 149.2656 L238.9531 153.5156 L236 153.5156 ZM241.2812 153.5156 L239.8594 153.5156 L239.8594 148.125 L239.2344 148.125 L235.3438 153.6406 L235.3438 154.1875 L238.9531 154.1875 L238.9531 157 L239.8594 157 L239.8594 154.1875 L241.2812 154.1875 L241.2812 153.5156 Z"
      /><rect x="222" y="146" width="6" style="fill:white; stroke:none;" height="13"
      /><path style="stroke:none;" d="M224.0938 152.2031 C224.0938 150.6562 224.75 149.8125 225.7969 149.8125 C226.7188 149.8125 227.2656 150.4531 227.2656 151.5156 C227.2656 152.7188 226.5 153.4375 225.1875 153.7031 L225.2969 154.3125 C227.2188 154.2344 227.9375 155.2188 227.9375 156.4375 C227.9375 157.625 227.2344 158.4219 225.9531 158.4219 C225.25 158.4219 224.6562 158.1562 224.0938 157.7188 L224.0938 152.2031 ZM223.2031 158.9062 L223.1094 161.375 L223.2656 161.4844 L224.1562 161.2656 L224.0156 158.0938 C224.5469 158.8438 225.3594 159.1719 226.1719 159.1719 C227.5625 159.1719 228.8594 158.2188 228.8594 156.4844 C228.8594 154.9531 227.875 154.1094 226.125 154 C227.5625 153.6094 228.1875 152.4531 228.1875 151.4844 C228.1875 150.0938 227.1562 149.3125 225.9062 149.3125 C224.2969 149.3125 223.2188 150.5469 223.2188 152.5156 L223.2031 158.9062 Z"
      /><polygon style="fill:none;" points=" 258 93 206 93"
      /><rect x="247" y="82" width="22" style="clip-path:url(#clipPath7); fill:white; stroke:none;" height="22"
      /><rect x="247" y="82" width="22" style="clip-path:url(#clipPath7); fill:rgb(0,144,188); stroke:none;" height="22"
      /><rect x="247" y="82" width="22" style="fill:none; clip-path:url(#clipPath7);" height="22"
      /><rect x="247" width="22" height="22" y="82" style="fill:none;"
      /><circle style="fill:white; clip-path:url(#clipPath8); stroke:none;" r="11" cx="206" cy="93"
      /><rect x="195" y="82" width="22" style="clip-path:url(#clipPath8); fill:rgb(255,212,0); stroke:none;" height="22"
      /><rect x="195" y="82" width="22" style="fill:none; clip-path:url(#clipPath8);" height="22"
      /><circle r="11" style="fill:none;" cx="206" cy="93"
      /><rect x="235" y="96" width="7" style="fill:white; stroke:none;" height="9"
      /><path style="stroke:none;" d="M236 101.5156 L238.9531 97.2656 L238.9531 101.5156 L236 101.5156 ZM241.2812 101.5156 L239.8594 101.5156 L239.8594 96.125 L239.2344 96.125 L235.3438 101.6406 L235.3438 102.1875 L238.9531 102.1875 L238.9531 105 L239.8594 105 L239.8594 102.1875 L241.2812 102.1875 L241.2812 101.5156 Z"
      /><rect x="222" y="94" width="6" style="fill:white; stroke:none;" height="13"
      /><path style="stroke:none;" d="M224.0938 100.2031 C224.0938 98.6562 224.75 97.8125 225.7969 97.8125 C226.7188 97.8125 227.2656 98.4531 227.2656 99.5156 C227.2656 100.7188 226.5 101.4375 225.1875 101.7031 L225.2969 102.3125 C227.2188 102.2344 227.9375 103.2188 227.9375 104.4375 C227.9375 105.625 227.2344 106.4219 225.9531 106.4219 C225.25 106.4219 224.6562 106.1562 224.0938 105.7188 L224.0938 100.2031 ZM223.2031 106.9062 L223.1094 109.375 L223.2656 109.4844 L224.1562 109.2656 L224.0156 106.0938 C224.5469 106.8438 225.3594 107.1719 226.1719 107.1719 C227.5625 107.1719 228.8594 106.2188 228.8594 104.4844 C228.8594 102.9531 227.875 102.1094 226.125 102 C227.5625 101.6094 228.1875 100.4531 228.1875 99.4844 C228.1875 98.0938 227.1562 97.3125 225.9062 97.3125 C224.2969 97.3125 223.2188 98.5469 223.2188 100.5156 L223.2031 106.9062 Z"
      /><rect x="292" y="130" width="6" style="fill:white; stroke:none;" height="9"
      /><path style="stroke:none;" d="M293.4219 138.0938 C294.0781 137.375 294.7031 136.7188 295.0312 136.3438 C296.9219 134.3125 297.5312 133.4688 297.5312 132.3594 C297.5312 131.0156 296.7812 130.0781 295.1562 130.0781 C293.9062 130.0781 292.7969 130.7031 292.5938 131.9688 C292.7188 132.2031 292.9062 132.3438 293.1562 132.3438 C293.4688 132.3438 293.6562 132.1094 293.7969 131.5938 L294.0938 130.6719 C294.3906 130.5938 294.6562 130.5625 294.8906 130.5625 C295.9219 130.5625 296.5469 131.3125 296.5469 132.4219 C296.5469 133.4375 295.9844 134.4219 294.7031 135.9062 C294.125 136.5781 293.3906 137.4375 292.6406 138.2812 L292.6406 139 L297.9219 139 L297.9219 138.0938 L293.4219 138.0938 Z"
      /><rect x="276" y="136" width="6" style="fill:white; stroke:none;" height="13"
      /><path style="stroke:none;" d="M278.0938 142.2031 C278.0938 140.6562 278.75 139.8125 279.7969 139.8125 C280.7188 139.8125 281.2656 140.4531 281.2656 141.5156 C281.2656 142.7188 280.5 143.4375 279.1875 143.7031 L279.2969 144.3125 C281.2188 144.2344 281.9375 145.2188 281.9375 146.4375 C281.9375 147.625 281.2344 148.4219 279.9531 148.4219 C279.25 148.4219 278.6562 148.1562 278.0938 147.7188 L278.0938 142.2031 ZM277.2031 148.9062 L277.1094 151.375 L277.2656 151.4844 L278.1562 151.2656 L278.0156 148.0938 C278.5469 148.8438 279.3594 149.1719 280.1719 149.1719 C281.5625 149.1719 282.8594 148.2188 282.8594 146.4844 C282.8594 144.9531 281.875 144.1094 280.125 144 C281.5625 143.6094 282.1875 142.4531 282.1875 141.4844 C282.1875 140.0938 281.1562 139.3125 279.9062 139.3125 C278.2969 139.3125 277.2188 140.5469 277.2188 142.5156 L277.2031 148.9062 Z"
      /><rect x="284" y="112" width="7" style="fill:white; stroke:none;" height="9"
      /><path style="stroke:none;" d="M285 117.5156 L287.9531 113.2656 L287.9531 117.5156 L285 117.5156 ZM290.2812 117.5156 L288.8594 117.5156 L288.8594 112.125 L288.2344 112.125 L284.3438 117.6406 L284.3438 118.1875 L287.9531 118.1875 L287.9531 121 L288.8594 121 L288.8594 118.1875 L290.2812 118.1875 L290.2812 117.5156 Z"
      /><rect x="269" y="102" width="6" style="fill:white; stroke:none;" height="13"
      /><path style="stroke:none;" d="M271.0938 108.2031 C271.0938 106.6562 271.75 105.8125 272.7969 105.8125 C273.7188 105.8125 274.2656 106.4531 274.2656 107.5156 C274.2656 108.7188 273.5 109.4375 272.1875 109.7031 L272.2969 110.3125 C274.2188 110.2344 274.9375 111.2188 274.9375 112.4375 C274.9375 113.625 274.2344 114.4219 272.9531 114.4219 C272.25 114.4219 271.6562 114.1562 271.0938 113.7188 L271.0938 108.2031 ZM270.2031 114.9062 L270.1094 117.375 L270.2656 117.4844 L271.1562 117.2656 L271.0156 114.0938 C271.5469 114.8438 272.3594 115.1719 273.1719 115.1719 C274.5625 115.1719 275.8594 114.2188 275.8594 112.4844 C275.8594 110.9531 274.875 110.1094 273.125 110 C274.5625 109.6094 275.1875 108.4531 275.1875 107.4844 C275.1875 106.0938 274.1562 105.3125 272.9062 105.3125 C271.2969 105.3125 270.2188 106.5469 270.2188 108.5156 L270.2031 114.9062 Z"
      /><polygon style="fill:none;" points=" 310 41 258 41"
      /><circle style="fill:white; clip-path:url(#clipPath9); stroke:none;" r="11" cx="310" cy="41"
      /><rect x="299" y="30" width="22" style="clip-path:url(#clipPath9); fill:rgb(0,166,81); stroke:none;" height="22"
      /><rect x="299" y="30" width="22" style="fill:none; clip-path:url(#clipPath9);" height="22"
      /><circle r="11" style="fill:none;" cx="310" cy="41"
      /><polygon style="fill:none;" points=" 258 41 206 41"
      /><rect x="247" y="30" width="22" style="clip-path:url(#clipPath10); fill:white; stroke:none;" height="22"
      /><rect x="247" y="30" width="22" style="clip-path:url(#clipPath10); fill:rgb(0,144,188); stroke:none;" height="22"
      /><rect x="247" y="30" width="22" style="fill:none; clip-path:url(#clipPath10);" height="22"
      /><rect x="247" width="22" height="22" y="30" style="fill:none;"
      /><circle style="fill:white; clip-path:url(#clipPath11); stroke:none;" r="11" cx="206" cy="41"
      /><rect x="195" y="30" width="22" style="clip-path:url(#clipPath11); fill:rgb(255,212,0); stroke:none;" height="22"
      /><rect x="195" y="30" width="22" style="fill:none; clip-path:url(#clipPath11);" height="22"
      /><circle r="11" style="fill:none;" cx="206" cy="41"
      /><rect x="235" y="44" width="7" style="fill:white; stroke:none;" height="9"
      /><path style="stroke:none;" d="M236 49.5156 L238.9531 45.2656 L238.9531 49.5156 L236 49.5156 ZM241.2812 49.5156 L239.8594 49.5156 L239.8594 44.125 L239.2344 44.125 L235.3438 49.6406 L235.3438 50.1875 L238.9531 50.1875 L238.9531 53 L239.8594 53 L239.8594 50.1875 L241.2812 50.1875 L241.2812 49.5156 Z"
      /><rect x="222" y="42" width="6" style="fill:white; stroke:none;" height="13"
      /><path style="stroke:none;" d="M224.0938 48.2031 C224.0938 46.6562 224.75 45.8125 225.7969 45.8125 C226.7188 45.8125 227.2656 46.4531 227.2656 47.5156 C227.2656 48.7188 226.5 49.4375 225.1875 49.7031 L225.2969 50.3125 C227.2188 50.2344 227.9375 51.2188 227.9375 52.4375 C227.9375 53.625 227.2344 54.4219 225.9531 54.4219 C225.25 54.4219 224.6562 54.1562 224.0938 53.7188 L224.0938 48.2031 ZM223.2031 54.9062 L223.1094 57.375 L223.2656 57.4844 L224.1562 57.2656 L224.0156 54.0938 C224.5469 54.8438 225.3594 55.1719 226.1719 55.1719 C227.5625 55.1719 228.8594 54.2188 228.8594 52.4844 C228.8594 50.9531 227.875 50.1094 226.125 50 C227.5625 49.6094 228.1875 48.4531 228.1875 47.4844 C228.1875 46.0938 227.1562 45.3125 225.9062 45.3125 C224.2969 45.3125 223.2188 46.5469 223.2188 48.5156 L223.2031 54.9062 Z"
      /><rect x="288" y="44" width="6" style="fill:white; stroke:none;" height="9"
      /><path style="stroke:none;" d="M289.4219 52.0938 C290.0781 51.375 290.7031 50.7188 291.0312 50.3438 C292.9219 48.3125 293.5312 47.4688 293.5312 46.3594 C293.5312 45.0156 292.7812 44.0781 291.1562 44.0781 C289.9062 44.0781 288.7969 44.7031 288.5938 45.9688 C288.7188 46.2031 288.9062 46.3438 289.1562 46.3438 C289.4688 46.3438 289.6562 46.1094 289.7969 45.5938 L290.0938 44.6719 C290.3906 44.5938 290.6562 44.5625 290.8906 44.5625 C291.9219 44.5625 292.5469 45.3125 292.5469 46.4219 C292.5469 47.4375 291.9844 48.4219 290.7031 49.9062 C290.125 50.5781 289.3906 51.4375 288.6406 52.2812 L288.6406 53 L293.9219 53 L293.9219 52.0938 L289.4219 52.0938 Z"
      /><rect x="274" y="42" width="6" style="fill:white; stroke:none;" height="13"
      /><path style="stroke:none;" d="M276.0938 48.2031 C276.0938 46.6562 276.75 45.8125 277.7969 45.8125 C278.7188 45.8125 279.2656 46.4531 279.2656 47.5156 C279.2656 48.7188 278.5 49.4375 277.1875 49.7031 L277.2969 50.3125 C279.2188 50.2344 279.9375 51.2188 279.9375 52.4375 C279.9375 53.625 279.2344 54.4219 277.9531 54.4219 C277.25 54.4219 276.6562 54.1562 276.0938 53.7188 L276.0938 48.2031 ZM275.2031 54.9062 L275.1094 57.375 L275.2656 57.4844 L276.1562 57.2656 L276.0156 54.0938 C276.5469 54.8438 277.3594 55.1719 278.1719 55.1719 C279.5625 55.1719 280.8594 54.2188 280.8594 52.4844 C280.8594 50.9531 279.875 50.1094 278.125 50 C279.5625 49.6094 280.1875 48.4531 280.1875 47.4844 C280.1875 46.0938 279.1562 45.3125 277.9062 45.3125 C276.2969 45.3125 275.2188 46.5469 275.2188 48.5156 L275.2031 54.9062 Z"
      /><rect x="346" y="94" width="6" style="fill:white; stroke:none;" height="10"
      /><path style="stroke:none;" d="M348.2344 95.6562 C348.5156 95.5938 348.7656 95.5625 349.0156 95.5625 C350.0625 95.5625 350.6719 96.1719 350.6719 97.2656 C350.6719 98.4375 349.9062 99.1094 348.7031 99.1094 L348.1875 99.1094 L348.1875 99.6406 L348.7969 99.6406 C350.2188 99.6406 350.9062 100.4219 350.9062 101.6406 C350.9062 102.8438 350.1719 103.6875 348.875 103.6875 C348.6094 103.6875 348.3125 103.6562 348.0156 103.5625 L347.7812 102.8125 C347.625 102.2812 347.5 102.0469 347.1406 102.0469 C346.8906 102.0469 346.7031 102.1719 346.5781 102.4219 C346.8438 103.6406 347.7812 104.1719 349.0312 104.1719 C350.7188 104.1719 351.875 103.125 351.875 101.7031 C351.875 100.5 351.2031 99.625 349.7969 99.375 C350.9531 99.0156 351.6094 98.2031 351.6094 97.2031 C351.6094 95.9219 350.6719 95.0781 349.1875 95.0781 C348.0469 95.0781 347.0625 95.5938 346.7969 96.6875 C346.9062 97 347.1094 97.1094 347.3594 97.1094 C347.7344 97.1094 347.8906 96.8906 348 96.4062 L348.2344 95.6562 Z"
      /><rect x="328" y="108" width="8" style="fill:white; stroke:none;" height="8"
      /><path style="stroke:none;" d="M332.9844 113.7031 C332.9375 114.8906 332.1562 115.6562 331.3125 115.6562 C330.2656 115.6562 329.5 114.6875 329.5 112.7188 C329.5 111.2812 330.1562 110.1562 331.3438 110.1562 C332.1406 110.1562 332.7812 110.6875 333.0938 111.6406 L332.9844 113.7031 ZM334.9062 115.2812 C334.7344 115.375 334.5469 115.4219 334.3438 115.4219 C333.9531 115.4219 333.75 115.2188 333.75 114.4219 C333.75 113.4844 333.9688 111.5312 334.1875 109.8281 L334.0312 109.7188 L333.2344 109.9219 L333.1406 110.7969 C332.7812 110.0312 332.1562 109.6562 331.3906 109.6562 C330.0469 109.6562 328.5625 110.8438 328.5625 112.9531 C328.5625 115.0938 329.7188 116.1719 331.1406 116.1719 C332.0156 116.1719 332.6875 115.8125 333.0938 114.9844 C333.2031 115.8594 333.5156 116.1719 334.0156 116.1719 C334.4688 116.1719 334.7969 115.9062 335.0156 115.5625 L334.9062 115.2812 Z"
      /><rect x="336" y="68" width="6" style="fill:white; stroke:none;" height="10"
      /><path style="stroke:none;" d="M339.3438 77.6875 C338.2031 77.6875 337.5312 76.5 337.5312 74.2969 C337.5312 74.2188 337.5312 74.125 337.5312 74.0469 C338.0938 73.5 338.7188 73.3125 339.3438 73.3125 C340.3125 73.3125 340.9531 73.9844 340.9531 75.4531 C340.9531 76.9375 340.3125 77.6875 339.3438 77.6875 ZM341.5312 69.0781 C338.3438 69.4531 336.5625 71.7656 336.5625 74.4531 C336.5625 76.7812 337.6094 78.1719 339.3125 78.1719 C340.8438 78.1719 341.9219 77.1094 341.9219 75.2812 C341.9219 73.6875 340.9688 72.6562 339.5625 72.6562 C338.8281 72.6562 338.1406 72.9844 337.5781 73.5781 C337.7969 71.4062 339.0781 69.9688 341.5938 69.3906 L341.5312 69.0781 Z"
      /><rect x="318" y="56" width="8" style="fill:white; stroke:none;" height="8"
      /><path style="stroke:none;" d="M322.9844 61.7031 C322.9375 62.8906 322.1562 63.6562 321.3125 63.6562 C320.2656 63.6562 319.5 62.6875 319.5 60.7188 C319.5 59.2812 320.1562 58.1562 321.3438 58.1562 C322.1406 58.1562 322.7812 58.6875 323.0938 59.6406 L322.9844 61.7031 ZM324.9062 63.2812 C324.7344 63.375 324.5469 63.4219 324.3438 63.4219 C323.9531 63.4219 323.75 63.2188 323.75 62.4219 C323.75 61.4844 323.9688 59.5312 324.1875 57.8281 L324.0312 57.7188 L323.2344 57.9219 L323.1406 58.7969 C322.7812 58.0312 322.1562 57.6562 321.3906 57.6562 C320.0469 57.6562 318.5625 58.8438 318.5625 60.9531 C318.5625 63.0938 319.7188 64.1719 321.1406 64.1719 C322.0156 64.1719 322.6875 63.8125 323.0938 62.9844 C323.2031 63.8594 323.5156 64.1719 324.0156 64.1719 C324.4688 64.1719 324.7969 63.9062 325.0156 63.5625 L324.9062 63.2812 Z"
      /><rect x="391" y="83" width="7" style="fill:white; stroke:none;" height="9"
      /><path style="stroke:none;" d="M392 88.5156 L394.9531 84.2656 L394.9531 88.5156 L392 88.5156 ZM397.2812 88.5156 L395.8594 88.5156 L395.8594 83.125 L395.2344 83.125 L391.3438 88.6406 L391.3438 89.1875 L394.9531 89.1875 L394.9531 92 L395.8594 92 L395.8594 89.1875 L397.2812 89.1875 L397.2812 88.5156 Z"
      /><rect x="378" y="81" width="6" style="fill:white; stroke:none;" height="13"
      /><path style="stroke:none;" d="M380.0938 87.2031 C380.0938 85.6562 380.75 84.8125 381.7969 84.8125 C382.7188 84.8125 383.2656 85.4531 383.2656 86.5156 C383.2656 87.7188 382.5 88.4375 381.1875 88.7031 L381.2969 89.3125 C383.2188 89.2344 383.9375 90.2188 383.9375 91.4375 C383.9375 92.625 383.2344 93.4219 381.9531 93.4219 C381.25 93.4219 380.6562 93.1562 380.0938 92.7188 L380.0938 87.2031 ZM379.2031 93.9062 L379.1094 96.375 L379.2656 96.4844 L380.1562 96.2656 L380.0156 93.0938 C380.5469 93.8438 381.3594 94.1719 382.1719 94.1719 C383.5625 94.1719 384.8594 93.2188 384.8594 91.4844 C384.8594 89.9531 383.875 89.1094 382.125 89 C383.5625 88.6094 384.1875 87.4531 384.1875 86.4844 C384.1875 85.0938 383.1562 84.3125 381.9062 84.3125 C380.2969 84.3125 379.2188 85.5469 379.2188 87.5156 L379.2031 93.9062 Z"
      /><rect x="443" y="83" width="7" style="fill:white; stroke:none;" height="9"
      /><path style="stroke:none;" d="M444 88.5156 L446.9531 84.2656 L446.9531 88.5156 L444 88.5156 ZM449.2812 88.5156 L447.8594 88.5156 L447.8594 83.125 L447.2344 83.125 L443.3438 88.6406 L443.3438 89.1875 L446.9531 89.1875 L446.9531 92 L447.8594 92 L447.8594 89.1875 L449.2812 89.1875 L449.2812 88.5156 Z"
      /><rect x="430" y="81" width="6" style="fill:white; stroke:none;" height="13"
      /><path style="stroke:none;" d="M432.0938 87.2031 C432.0938 85.6562 432.75 84.8125 433.7969 84.8125 C434.7188 84.8125 435.2656 85.4531 435.2656 86.5156 C435.2656 87.7188 434.5 88.4375 433.1875 88.7031 L433.2969 89.3125 C435.2188 89.2344 435.9375 90.2188 435.9375 91.4375 C435.9375 92.625 435.2344 93.4219 433.9531 93.4219 C433.25 93.4219 432.6562 93.1562 432.0938 92.7188 L432.0938 87.2031 ZM431.2031 93.9062 L431.1094 96.375 L431.2656 96.4844 L432.1562 96.2656 L432.0156 93.0938 C432.5469 93.8438 433.3594 94.1719 434.1719 94.1719 C435.5625 94.1719 436.8594 93.2188 436.8594 91.4844 C436.8594 89.9531 435.875 89.1094 434.125 89 C435.5625 88.6094 436.1875 87.4531 436.1875 86.4844 C436.1875 85.0938 435.1562 84.3125 433.9062 84.3125 C432.2969 84.3125 431.2188 85.5469 431.2188 87.5156 L431.2031 93.9062 Z"
      /><rect x="482" y="81" width="6" style="fill:white; stroke:none;" height="13"
      /><path style="stroke:none;" d="M484.0938 87.2031 C484.0938 85.6562 484.75 84.8125 485.7969 84.8125 C486.7188 84.8125 487.2656 85.4531 487.2656 86.5156 C487.2656 87.7188 486.5 88.4375 485.1875 88.7031 L485.2969 89.3125 C487.2188 89.2344 487.9375 90.2188 487.9375 91.4375 C487.9375 92.625 487.2344 93.4219 485.9531 93.4219 C485.25 93.4219 484.6562 93.1562 484.0938 92.7188 L484.0938 87.2031 ZM483.2031 93.9062 L483.1094 96.375 L483.2656 96.4844 L484.1562 96.2656 L484.0156 93.0938 C484.5469 93.8438 485.3594 94.1719 486.1719 94.1719 C487.5625 94.1719 488.8594 93.2188 488.8594 91.4844 C488.8594 89.9531 487.875 89.1094 486.125 89 C487.5625 88.6094 488.1875 87.4531 488.1875 86.4844 C488.1875 85.0938 487.1562 84.3125 485.9062 84.3125 C484.2969 84.3125 483.2188 85.5469 483.2188 87.5156 L483.2031 93.9062 Z"
      /><polygon style="fill:none;" points=" 195 156 184 156 184 30 195 30 184 30 184 156"
      /><polygon style="fill:none;" points=" 162 119 110 119"
      /><polygon style="fill:none;" points=" 110 119 58 119"
      /><rect x="99" y="108" width="22" style="clip-path:url(#clipPath12); fill:white; stroke:none;" height="22"
      /><rect x="99" y="108" width="22" style="clip-path:url(#clipPath12); fill:rgb(0,144,188); stroke:none;" height="22"
      /><rect x="99" y="108" width="22" style="fill:none; clip-path:url(#clipPath12);" height="22"
      /><rect x="99" width="22" height="22" y="108" style="fill:none;"
      /><circle style="fill:white; clip-path:url(#clipPath13); stroke:none;" r="11" cx="58" cy="119"
      /><rect x="47" y="108" width="22" style="clip-path:url(#clipPath13); fill:rgb(255,212,0); stroke:none;" height="22"
      /><rect x="47" y="108" width="22" style="fill:none; clip-path:url(#clipPath13);" height="22"
      /><circle r="11" style="fill:none;" cx="58" cy="119"
      /><rect x="87" y="122" width="7" style="fill:white; stroke:none;" height="9"
      /><path style="stroke:none;" d="M88 127.5156 L90.9531 123.2656 L90.9531 127.5156 L88 127.5156 ZM93.2812 127.5156 L91.8594 127.5156 L91.8594 122.125 L91.2344 122.125 L87.3438 127.6406 L87.3438 128.1875 L90.9531 128.1875 L90.9531 131 L91.8594 131 L91.8594 128.1875 L93.2812 128.1875 L93.2812 127.5156 Z"
      /><rect x="74" y="120" width="6" style="fill:white; stroke:none;" height="13"
      /><path style="stroke:none;" d="M76.0938 126.2031 C76.0938 124.6562 76.75 123.8125 77.7969 123.8125 C78.7188 123.8125 79.2656 124.4531 79.2656 125.5156 C79.2656 126.7188 78.5 127.4375 77.1875 127.7031 L77.2969 128.3125 C79.2188 128.2344 79.9375 129.2188 79.9375 130.4375 C79.9375 131.625 79.2344 132.4219 77.9531 132.4219 C77.25 132.4219 76.6562 132.1562 76.0938 131.7188 L76.0938 126.2031 ZM75.2031 132.9062 L75.1094 135.375 L75.2656 135.4844 L76.1562 135.2656 L76.0156 132.0938 C76.5469 132.8438 77.3594 133.1719 78.1719 133.1719 C79.5625 133.1719 80.8594 132.2188 80.8594 130.4844 C80.8594 128.9531 79.875 128.1094 78.125 128 C79.5625 127.6094 80.1875 126.4531 80.1875 125.4844 C80.1875 124.0938 79.1562 123.3125 77.9062 123.3125 C76.2969 123.3125 75.2188 124.5469 75.2188 126.5156 L75.2031 132.9062 Z"
      /><rect x="140" y="122" width="6" style="fill:white; stroke:none;" height="10"
      /><path style="stroke:none;" d="M142.2344 123.6562 C142.5156 123.5938 142.7656 123.5625 143.0156 123.5625 C144.0625 123.5625 144.6719 124.1719 144.6719 125.2656 C144.6719 126.4375 143.9062 127.1094 142.7031 127.1094 L142.1875 127.1094 L142.1875 127.6406 L142.7969 127.6406 C144.2188 127.6406 144.9062 128.4219 144.9062 129.6406 C144.9062 130.8438 144.1719 131.6875 142.875 131.6875 C142.6094 131.6875 142.3125 131.6562 142.0156 131.5625 L141.7812 130.8125 C141.625 130.2812 141.5 130.0469 141.1406 130.0469 C140.8906 130.0469 140.7031 130.1719 140.5781 130.4219 C140.8438 131.6406 141.7812 132.1719 143.0312 132.1719 C144.7188 132.1719 145.875 131.125 145.875 129.7031 C145.875 128.5 145.2031 127.625 143.7969 127.375 C144.9531 127.0156 145.6094 126.2031 145.6094 125.2031 C145.6094 123.9219 144.6719 123.0781 143.1875 123.0781 C142.0469 123.0781 141.0625 123.5938 140.7969 124.6875 C140.9062 125 141.1094 125.1094 141.3594 125.1094 C141.7344 125.1094 141.8906 124.8906 142 124.4062 L142.2344 123.6562 Z"
      /><rect x="126" y="120" width="6" style="fill:white; stroke:none;" height="13"
      /><path style="stroke:none;" d="M128.0938 126.2031 C128.0938 124.6562 128.75 123.8125 129.7969 123.8125 C130.7188 123.8125 131.2656 124.4531 131.2656 125.5156 C131.2656 126.7188 130.5 127.4375 129.1875 127.7031 L129.2969 128.3125 C131.2188 128.2344 131.9375 129.2188 131.9375 130.4375 C131.9375 131.625 131.2344 132.4219 129.9531 132.4219 C129.25 132.4219 128.6562 132.1562 128.0938 131.7188 L128.0938 126.2031 ZM127.2031 132.9062 L127.1094 135.375 L127.2656 135.4844 L128.1562 135.2656 L128.0156 132.0938 C128.5469 132.8438 129.3594 133.1719 130.1719 133.1719 C131.5625 133.1719 132.8594 132.2188 132.8594 130.4844 C132.8594 128.9531 131.875 128.1094 130.125 128 C131.5625 127.6094 132.1875 126.4531 132.1875 125.4844 C132.1875 124.0938 131.1562 123.3125 129.9062 123.3125 C128.2969 123.3125 127.2188 124.5469 127.2188 126.5156 L127.2031 132.9062 Z"
      /><path style="stroke:none;" d="M29.6094 124 L36.0625 124 L36.0625 122.8906 L33.2344 122.8906 C32.7031 122.8906 32.0781 122.9531 31.5469 122.9844 C33.9531 120.7031 35.5625 118.625 35.5625 116.5781 C35.5625 114.75 34.4219 113.5469 32.5781 113.5469 C31.2812 113.5469 30.4062 114.1406 29.5625 115.0469 L30.2969 115.7812 C30.8594 115.1094 31.5938 114.5938 32.4375 114.5938 C33.7031 114.5938 34.3125 115.4531 34.3125 116.625 C34.3125 118.3906 32.8438 120.4375 29.6094 123.25 L29.6094 124 ZM36.9731 124 L38.3168 124 L39.3481 122.2188 C39.6137 121.7656 39.8637 121.2969 40.1293 120.8594 L40.2075 120.8594 C40.4731 121.2969 40.7543 121.7656 41.0043 122.2188 L42.1293 124 L43.5356 124 L41.02 120.1562 L43.3325 116.3906 L42.0043 116.3906 L41.0668 118.0625 C40.8481 118.5 40.6137 118.9219 40.3793 119.3438 L40.3325 119.3438 C40.0668 118.9219 39.8012 118.5 39.5668 118.0625 L38.5512 116.3906 L37.1762 116.3906 L39.4887 120.0312 L36.9731 124 Z"
      /><polygon style="fill:none;" points=" 162 67 110 67"
    /></g
    ><g style="fill:white; text-rendering:optimizeSpeed; font-size:14px; font-family:'SansSerif'; stroke:white;"
    ><polygon style="stroke:none; clip-path:url(#clipPath14);" points=" 110 56 121 67 110 78 99 67"
      /><rect x="99" y="56" width="22" style="clip-path:url(#clipPath14); fill:rgb(165,67,153); stroke:none;" height="22"
      /><rect x="99" y="56" width="22" style="clip-path:url(#clipPath14); fill:none; stroke:black;" height="22"
      /><polygon style="fill:none; stroke:black;" points=" 110 56 121 67 110 78 99 67"
      /><rect x="140" width="5" height="10" y="70" style="stroke:none;"
    /></g
    ><g style="font-family:'Serif'; text-rendering:optimizeSpeed; "
    ><path style="stroke:none;" d="M141.8906 78.6875 C141.4844 78.6875 141.1562 79.0469 141.1562 79.4219 C141.1562 79.8125 141.4844 80.1562 141.8906 80.1562 C142.2969 80.1562 142.6406 79.8125 142.6406 79.4219 C142.6406 79.0469 142.2969 78.6875 141.8906 78.6875 ZM143.4688 72.5781 C143.7188 72.8906 143.875 73.2656 143.8906 73.6562 C143.8906 74.1875 143.625 74.5 143.0312 74.7656 L142.4062 75.0156 C141.6406 75.3125 141.3906 75.5469 141.3906 75.9375 C141.3906 76.1094 141.4531 76.3438 141.5781 76.8125 L141.7344 77.3438 L142.1094 77.3438 L142.0938 76.5312 C142.0938 76.0938 142.2031 75.9688 142.7812 75.7344 L143.2031 75.5625 C144.0312 75.2188 144.4531 74.6875 144.4531 73.8438 C144.4531 72.1562 142.6562 71.1875 141.5 71.0312 C141.1094 71.125 140.9062 71.2969 140.9062 71.6406 C140.9062 71.9375 141.0625 72.1562 141.7188 72.2656 L143.4688 72.5781 Z"
      /><rect x="126" y="70" width="5" style="fill:white; stroke:none;" height="10"
      /><path style="stroke:none;" d="M127.8906 78.6875 C127.4844 78.6875 127.1562 79.0469 127.1562 79.4219 C127.1562 79.8125 127.4844 80.1562 127.8906 80.1562 C128.2969 80.1562 128.6406 79.8125 128.6406 79.4219 C128.6406 79.0469 128.2969 78.6875 127.8906 78.6875 ZM129.4688 72.5781 C129.7188 72.8906 129.875 73.2656 129.8906 73.6562 C129.8906 74.1875 129.625 74.5 129.0312 74.7656 L128.4062 75.0156 C127.6406 75.3125 127.3906 75.5469 127.3906 75.9375 C127.3906 76.1094 127.4531 76.3438 127.5781 76.8125 L127.7344 77.3438 L128.1094 77.3438 L128.0938 76.5312 C128.0938 76.0938 128.2031 75.9688 128.7812 75.7344 L129.2031 75.5625 C130.0312 75.2188 130.4531 74.6875 130.4531 73.8438 C130.4531 72.1562 128.6562 71.1875 127.5 71.0312 C127.1094 71.125 126.9062 71.2969 126.9062 71.6406 C126.9062 71.9375 127.0625 72.1562 127.7188 72.2656 L129.4688 72.5781 Z"
      /><path style="stroke:none;" d="M81.6094 72 L88.0625 72 L88.0625 70.8906 L85.2344 70.8906 C84.7031 70.8906 84.0781 70.9531 83.5469 70.9844 C85.9531 68.7031 87.5625 66.625 87.5625 64.5781 C87.5625 62.75 86.4219 61.5469 84.5781 61.5469 C83.2812 61.5469 82.4062 62.1406 81.5625 63.0469 L82.2969 63.7812 C82.8594 63.1094 83.5938 62.5938 84.4375 62.5938 C85.7031 62.5938 86.3125 63.4531 86.3125 64.625 C86.3125 66.3906 84.8438 68.4375 81.6094 71.25 L81.6094 72 ZM88.9731 72 L90.3168 72 L91.3481 70.2188 C91.6137 69.7656 91.8637 69.2969 92.1293 68.8594 L92.2075 68.8594 C92.4731 69.2969 92.7543 69.7656 93.0043 70.2188 L94.1293 72 L95.5356 72 L93.02 68.1562 L95.3325 64.3906 L94.0043 64.3906 L93.0668 66.0625 C92.8481 66.5 92.6137 66.9219 92.3793 67.3438 L92.3325 67.3438 C92.0668 66.9219 91.8012 66.5 91.5668 66.0625 L90.5512 64.3906 L89.1762 64.3906 L91.4887 68.0312 L88.9731 72 Z"
    /></g
  ></g
></svg
>
