<?xml version="1.0"?>
<!DOCTYPE svg PUBLIC '-//W3C//DTD SVG 1.0//EN'
          'http://www.w3.org/TR/2001/REC-SVG-20010904/DTD/svg10.dtd'>
<svg xmlns:xlink="http://www.w3.org/1999/xlink" style="fill-opacity:1; color-rendering:auto; color-interpolation:auto; text-rendering:auto; stroke:black; stroke-linecap:square; stroke-miterlimit:10; shape-rendering:auto; stroke-opacity:1; fill:black; stroke-dasharray:none; font-weight:normal; stroke-width:1; font-family:'Dialog'; font-style:normal; stroke-linejoin:miter; font-size:12px; stroke-dashoffset:0; image-rendering:auto;" viewBox="0 0 342 105" xmlns="http://www.w3.org/2000/svg"
><!--Generated by the Batik Graphics2D SVG Generator--><defs id="genericDefs"
  /><g
  ><defs id="defs1"
    ><clipPath clipPathUnits="userSpaceOnUse" id="clipPath1"
      ><path style="fill-rule:evenodd;" d="M249 30 L260 41 L249 52 L238 41 Z"
      /></clipPath
      ><clipPath clipPathUnits="userSpaceOnUse" id="clipPath2"
      ><path d="M186 30 L208 30 L208 52 L186 52 L186 30 Z"
      /></clipPath
      ><clipPath clipPathUnits="userSpaceOnUse" id="clipPath3"
      ><path style="fill-rule:evenodd;" d="M145 30 L156 41 L145 52 L134 41 Z"
      /></clipPath
      ><clipPath clipPathUnits="userSpaceOnUse" id="clipPath4"
      ><path d="M82 30 L104 30 L104 52 L82 52 L82 30 Z"
      /></clipPath
      ><clipPath clipPathUnits="userSpaceOnUse" id="clipPath5"
      ><path style="fill-rule:evenodd;" d="M41 30 L52 41 L41 52 L30 41 Z"
      /></clipPath
    ></defs
    ><g style="fill:white; text-rendering:optimizeSpeed; stroke:white;"
    ><rect x="0" width="342" height="105" y="0" style="stroke:none;"
      /><polygon style="fill:none; stroke:black;" points=" 301 41 249 41"
      /><path d="M301 30 C295.5 35.5 306.5 46.5 301 52" style="fill:none; stroke:black;"
      /><polygon style="fill:none; stroke:black;" points=" 249 41 197 41"
      /><polygon style="clip-path:url(#clipPath1); stroke:none;" points=" 249 30 260 41 249 52 238 41"
      /><rect x="238" y="41" width="22" style="clip-path:url(#clipPath1); fill:rgb(161,122,77); stroke:none;" height="11"
      /><rect x="238" y="41" width="22" style="clip-path:url(#clipPath1); fill:none; stroke:black;" height="11"
      /><polygon style="fill:none; stroke:black;" points=" 249 30 260 41 249 52 238 41"
      /><rect x="241" y="58" width="14" style="stroke:none;" height="10"
    /></g
    ><g style="text-rendering:optimizeSpeed; font-size:14px; font-family:'SansSerif';"
    ><path style="stroke:none;" d="M241.6094 69 L248.0625 69 L248.0625 67.8906 L245.2344 67.8906 C244.7031 67.8906 244.0781 67.9531 243.5469 67.9844 C245.9531 65.7031 247.5625 63.625 247.5625 61.5781 C247.5625 59.75 246.4219 58.5469 244.5781 58.5469 C243.2812 58.5469 242.4062 59.1406 241.5625 60.0469 L242.2969 60.7812 C242.8594 60.1094 243.5938 59.5938 244.4375 59.5938 C245.7031 59.5938 246.3125 60.4531 246.3125 61.625 C246.3125 63.3906 244.8438 65.4375 241.6094 68.25 L241.6094 69 ZM253.02 69.1875 C255.1606 69.1875 256.5043 67.8906 256.5043 66.2656 C256.5043 64.75 255.5825 64.0469 254.395 63.5312 L252.9262 62.8906 C252.1293 62.5625 251.2387 62.1875 251.2387 61.1875 C251.2387 60.2656 251.9887 59.6719 253.145 59.6719 C254.0981 59.6719 254.8637 60.0469 255.4887 60.6406 L256.1762 59.8125 C255.4418 59.0625 254.3637 58.5469 253.145 58.5469 C251.2856 58.5469 249.9106 59.6875 249.9106 61.2656 C249.9106 62.7656 251.0512 63.5 252.0043 63.9062 L253.4887 64.5469 C254.4575 64.9844 255.1918 65.3125 255.1918 66.375 C255.1918 67.375 254.3793 68.0469 253.0356 68.0469 C251.9731 68.0469 250.9418 67.5469 250.2075 66.7812 L249.4262 67.6562 C250.3168 68.5938 251.5668 69.1875 253.02 69.1875 Z"
      /><polygon style="fill:none;" points=" 197 41 145 41"
    /></g
    ><g style="fill:white; text-rendering:optimizeSpeed; stroke:white;"
    ><rect x="186" y="30" width="22" style="clip-path:url(#clipPath2); stroke:none;" height="22"
      /><polygon style="fill:rgb(0,144,188); clip-path:url(#clipPath2); stroke:none;" points=" 186 30 208 30 208 52"
      /><polygon style="fill:none; clip-path:url(#clipPath2); stroke:black;" points=" 186 30 208 30 208 52"
      /><rect x="186" y="30" width="22" style="fill:none; stroke:black;" height="22"
      /><rect x="189" width="14" height="10" y="58" style="stroke:none;"
    /></g
    ><g style="text-rendering:optimizeSpeed; font-size:14px; font-family:'SansSerif';"
    ><path style="stroke:none;" d="M189.6094 69 L196.0625 69 L196.0625 67.8906 L193.2344 67.8906 C192.7031 67.8906 192.0781 67.9531 191.5469 67.9844 C193.9531 65.7031 195.5625 63.625 195.5625 61.5781 C195.5625 59.75 194.4219 58.5469 192.5781 58.5469 C191.2812 58.5469 190.4062 59.1406 189.5625 60.0469 L190.2969 60.7812 C190.8594 60.1094 191.5938 59.5938 192.4375 59.5938 C193.7031 59.5938 194.3125 60.4531 194.3125 61.625 C194.3125 63.3906 192.8438 65.4375 189.6094 68.25 L189.6094 69 ZM201.02 69.1875 C203.1606 69.1875 204.5043 67.8906 204.5043 66.2656 C204.5043 64.75 203.5825 64.0469 202.395 63.5312 L200.9262 62.8906 C200.1293 62.5625 199.2387 62.1875 199.2387 61.1875 C199.2387 60.2656 199.9887 59.6719 201.145 59.6719 C202.0981 59.6719 202.8637 60.0469 203.4887 60.6406 L204.1762 59.8125 C203.4418 59.0625 202.3637 58.5469 201.145 58.5469 C199.2856 58.5469 197.9106 59.6875 197.9106 61.2656 C197.9106 62.7656 199.0512 63.5 200.0043 63.9062 L201.4887 64.5469 C202.4575 64.9844 203.1918 65.3125 203.1918 66.375 C203.1918 67.375 202.3793 68.0469 201.0356 68.0469 C199.9731 68.0469 198.9418 67.5469 198.2075 66.7812 L197.4262 67.6562 C198.3168 68.5938 199.5668 69.1875 201.02 69.1875 Z"
      /><polygon style="fill:none;" points=" 145 41 93 41"
    /></g
    ><g style="fill:white; text-rendering:optimizeSpeed; stroke:white;"
    ><polygon style="stroke:none; clip-path:url(#clipPath3);" points=" 145 30 156 41 145 52 134 41"
      /><rect x="134" y="30" width="22" style="clip-path:url(#clipPath3); fill:rgb(0,144,188); stroke:none;" height="11"
      /><rect x="134" y="30" width="22" style="clip-path:url(#clipPath3); fill:none; stroke:black;" height="11"
      /><polygon style="fill:none; stroke:black;" points=" 145 30 156 41 145 52 134 41"
      /><polygon style="fill:none; stroke:black;" points=" 93 41 41 41"
      /><rect x="82" y="30" width="22" style="clip-path:url(#clipPath4); stroke:none;" height="22"
      /><polygon style="fill:rgb(0,144,188); clip-path:url(#clipPath4); stroke:none;" points=" 82 30 104 30 104 52"
      /><polygon style="fill:none; clip-path:url(#clipPath4); stroke:black;" points=" 82 30 104 30 104 52"
      /><rect x="82" y="30" width="22" style="fill:none; stroke:black;" height="22"
      /><rect x="85" width="14" height="10" y="58" style="stroke:none;"
    /></g
    ><g style="text-rendering:optimizeSpeed; font-size:14px; font-family:'SansSerif';"
    ><path style="stroke:none;" d="M85.6094 69 L92.0625 69 L92.0625 67.8906 L89.2344 67.8906 C88.7031 67.8906 88.0781 67.9531 87.5469 67.9844 C89.9531 65.7031 91.5625 63.625 91.5625 61.5781 C91.5625 59.75 90.4219 58.5469 88.5781 58.5469 C87.2812 58.5469 86.4062 59.1406 85.5625 60.0469 L86.2969 60.7812 C86.8594 60.1094 87.5938 59.5938 88.4375 59.5938 C89.7031 59.5938 90.3125 60.4531 90.3125 61.625 C90.3125 63.3906 88.8438 65.4375 85.6094 68.25 L85.6094 69 ZM97.02 69.1875 C99.1606 69.1875 100.5043 67.8906 100.5043 66.2656 C100.5043 64.75 99.5825 64.0469 98.395 63.5312 L96.9262 62.8906 C96.1293 62.5625 95.2387 62.1875 95.2387 61.1875 C95.2387 60.2656 95.9887 59.6719 97.145 59.6719 C98.0981 59.6719 98.8637 60.0469 99.4887 60.6406 L100.1762 59.8125 C99.4418 59.0625 98.3637 58.5469 97.145 58.5469 C95.2856 58.5469 93.9106 59.6875 93.9106 61.2656 C93.9106 62.7656 95.0512 63.5 96.0043 63.9062 L97.4887 64.5469 C98.4575 64.9844 99.1918 65.3125 99.1918 66.375 C99.1918 67.375 98.3793 68.0469 97.0356 68.0469 C95.9731 68.0469 94.9418 67.5469 94.2075 66.7812 L93.4262 67.6562 C94.3168 68.5938 95.5668 69.1875 97.02 69.1875 Z"
    /></g
    ><g style="fill:white; text-rendering:optimizeSpeed; stroke:white;"
    ><polygon style="stroke:none; clip-path:url(#clipPath5);" points=" 41 30 52 41 41 52 30 41"
      /><rect x="30" y="30" width="22" style="clip-path:url(#clipPath5); fill:rgb(0,144,188); stroke:none;" height="11"
      /><rect x="30" y="30" width="22" style="clip-path:url(#clipPath5); fill:none; stroke:black;" height="11"
      /><polygon style="fill:none; stroke:black;" points=" 41 30 52 41 41 52 30 41"
      /><rect x="70" width="7" height="9" y="44" style="stroke:none;"
      /><path d="M71 49.5156 L73.9531 45.2656 L73.9531 49.5156 L71 49.5156 ZM76.2812 49.5156 L74.8594 49.5156 L74.8594 44.125 L74.2344 44.125 L70.3438 49.6406 L70.3438 50.1875 L73.9531 50.1875 L73.9531 53 L74.8594 53 L74.8594 50.1875 L76.2812 50.1875 L76.2812 49.5156 Z" style="fill:black; stroke:none;"
      /><rect x="57" width="6" height="13" y="42" style="stroke:none;"
      /><path d="M59.0938 48.2031 C59.0938 46.6562 59.75 45.8125 60.7969 45.8125 C61.7188 45.8125 62.2656 46.4531 62.2656 47.5156 C62.2656 48.7188 61.5 49.4375 60.1875 49.7031 L60.2969 50.3125 C62.2188 50.2344 62.9375 51.2188 62.9375 52.4375 C62.9375 53.625 62.2344 54.4219 60.9531 54.4219 C60.25 54.4219 59.6562 54.1562 59.0938 53.7188 L59.0938 48.2031 ZM58.2031 54.9062 L58.1094 57.375 L58.2656 57.4844 L59.1562 57.2656 L59.0156 54.0938 C59.5469 54.8438 60.3594 55.1719 61.1719 55.1719 C62.5625 55.1719 63.8594 54.2188 63.8594 52.4844 C63.8594 50.9531 62.875 50.1094 61.125 50 C62.5625 49.6094 63.1875 48.4531 63.1875 47.4844 C63.1875 46.0938 62.1562 45.3125 60.9062 45.3125 C59.2969 45.3125 58.2188 46.5469 58.2188 48.5156 L58.2031 54.9062 Z" style="fill:black; stroke:none;"
      /><rect x="122" width="7" height="9" y="44" style="stroke:none;"
      /><path d="M123 49.5156 L125.9531 45.2656 L125.9531 49.5156 L123 49.5156 ZM128.2812 49.5156 L126.8594 49.5156 L126.8594 44.125 L126.2344 44.125 L122.3438 49.6406 L122.3438 50.1875 L125.9531 50.1875 L125.9531 53 L126.8594 53 L126.8594 50.1875 L128.2812 50.1875 L128.2812 49.5156 Z" style="fill:black; stroke:none;"
      /><rect x="108" width="8" height="8" y="45" style="stroke:none;"
      /><path d="M112.9844 50.7031 C112.9375 51.8906 112.1562 52.6562 111.3125 52.6562 C110.2656 52.6562 109.5 51.6875 109.5 49.7188 C109.5 48.2812 110.1562 47.1562 111.3438 47.1562 C112.1406 47.1562 112.7812 47.6875 113.0938 48.6406 L112.9844 50.7031 ZM114.9062 52.2812 C114.7344 52.375 114.5469 52.4219 114.3438 52.4219 C113.9531 52.4219 113.75 52.2188 113.75 51.4219 C113.75 50.4844 113.9688 48.5312 114.1875 46.8281 L114.0312 46.7188 L113.2344 46.9219 L113.1406 47.7969 C112.7812 47.0312 112.1562 46.6562 111.3906 46.6562 C110.0469 46.6562 108.5625 47.8438 108.5625 49.9531 C108.5625 52.0938 109.7188 53.1719 111.1406 53.1719 C112.0156 53.1719 112.6875 52.8125 113.0938 51.9844 C113.2031 52.8594 113.5156 53.1719 114.0156 53.1719 C114.4688 53.1719 114.7969 52.9062 115.0156 52.5625 L114.9062 52.2812 Z" style="fill:black; stroke:none;"
      /><rect x="174" width="7" height="9" y="44" style="stroke:none;"
      /><path d="M175 49.5156 L177.9531 45.2656 L177.9531 49.5156 L175 49.5156 ZM180.2812 49.5156 L178.8594 49.5156 L178.8594 44.125 L178.2344 44.125 L174.3438 49.6406 L174.3438 50.1875 L177.9531 50.1875 L177.9531 53 L178.8594 53 L178.8594 50.1875 L180.2812 50.1875 L180.2812 49.5156 Z" style="fill:black; stroke:none;"
      /><rect x="161" width="6" height="13" y="42" style="stroke:none;"
      /><path d="M163.0938 48.2031 C163.0938 46.6562 163.75 45.8125 164.7969 45.8125 C165.7188 45.8125 166.2656 46.4531 166.2656 47.5156 C166.2656 48.7188 165.5 49.4375 164.1875 49.7031 L164.2969 50.3125 C166.2188 50.2344 166.9375 51.2188 166.9375 52.4375 C166.9375 53.625 166.2344 54.4219 164.9531 54.4219 C164.25 54.4219 163.6562 54.1562 163.0938 53.7188 L163.0938 48.2031 ZM162.2031 54.9062 L162.1094 57.375 L162.2656 57.4844 L163.1562 57.2656 L163.0156 54.0938 C163.5469 54.8438 164.3594 55.1719 165.1719 55.1719 C166.5625 55.1719 167.8594 54.2188 167.8594 52.4844 C167.8594 50.9531 166.875 50.1094 165.125 50 C166.5625 49.6094 167.1875 48.4531 167.1875 47.4844 C167.1875 46.0938 166.1562 45.3125 164.9062 45.3125 C163.2969 45.3125 162.2188 46.5469 162.2188 48.5156 L162.2031 54.9062 Z" style="fill:black; stroke:none;"
      /><rect x="226" width="7" height="9" y="44" style="stroke:none;"
      /><path d="M227 49.5156 L229.9531 45.2656 L229.9531 49.5156 L227 49.5156 ZM232.2812 49.5156 L230.8594 49.5156 L230.8594 44.125 L230.2344 44.125 L226.3438 49.6406 L226.3438 50.1875 L229.9531 50.1875 L229.9531 53 L230.8594 53 L230.8594 50.1875 L232.2812 50.1875 L232.2812 49.5156 Z" style="fill:black; stroke:none;"
      /><rect x="212" width="8" height="8" y="45" style="stroke:none;"
      /><path d="M216.9844 50.7031 C216.9375 51.8906 216.1562 52.6562 215.3125 52.6562 C214.2656 52.6562 213.5 51.6875 213.5 49.7188 C213.5 48.2812 214.1562 47.1562 215.3438 47.1562 C216.1406 47.1562 216.7812 47.6875 217.0938 48.6406 L216.9844 50.7031 ZM218.9062 52.2812 C218.7344 52.375 218.5469 52.4219 218.3438 52.4219 C217.9531 52.4219 217.75 52.2188 217.75 51.4219 C217.75 50.4844 217.9688 48.5312 218.1875 46.8281 L218.0312 46.7188 L217.2344 46.9219 L217.1406 47.7969 C216.7812 47.0312 216.1562 46.6562 215.3906 46.6562 C214.0469 46.6562 212.5625 47.8438 212.5625 49.9531 C212.5625 52.0938 213.7188 53.1719 215.1406 53.1719 C216.0156 53.1719 216.6875 52.8125 217.0938 51.9844 C217.2031 52.8594 217.5156 53.1719 218.0156 53.1719 C218.4688 53.1719 218.7969 52.9062 219.0156 52.5625 L218.9062 52.2812 Z" style="fill:black; stroke:none;"
      /><rect x="264" width="8" height="8" y="45" style="stroke:none;"
      /><path d="M268.9844 50.7031 C268.9375 51.8906 268.1562 52.6562 267.3125 52.6562 C266.2656 52.6562 265.5 51.6875 265.5 49.7188 C265.5 48.2812 266.1562 47.1562 267.3438 47.1562 C268.1406 47.1562 268.7812 47.6875 269.0938 48.6406 L268.9844 50.7031 ZM270.9062 52.2812 C270.7344 52.375 270.5469 52.4219 270.3438 52.4219 C269.9531 52.4219 269.75 52.2188 269.75 51.4219 C269.75 50.4844 269.9688 48.5312 270.1875 46.8281 L270.0312 46.7188 L269.2344 46.9219 L269.1406 47.7969 C268.7812 47.0312 268.1562 46.6562 267.3906 46.6562 C266.0469 46.6562 264.5625 47.8438 264.5625 49.9531 C264.5625 52.0938 265.7188 53.1719 267.1406 53.1719 C268.0156 53.1719 268.6875 52.8125 269.0938 51.9844 C269.2031 52.8594 269.5156 53.1719 270.0156 53.1719 C270.4688 53.1719 270.7969 52.9062 271.0156 52.5625 L270.9062 52.2812 Z" style="fill:black; stroke:none;"
    /></g
  ></g
></svg
>
