<?xml version="1.0"?>
<!DOCTYPE svg PUBLIC '-//W3C//DTD SVG 1.0//EN'
          'http://www.w3.org/TR/2001/REC-SVG-20010904/DTD/svg10.dtd'>
<svg xmlns:xlink="http://www.w3.org/1999/xlink" style="fill-opacity:1; color-rendering:auto; color-interpolation:auto; text-rendering:auto; stroke:black; stroke-linecap:square; stroke-miterlimit:10; shape-rendering:auto; stroke-opacity:1; fill:black; stroke-dasharray:none; font-weight:normal; stroke-width:1; font-family:'Dialog'; font-style:normal; stroke-linejoin:miter; font-size:12px; stroke-dashoffset:0; image-rendering:auto;" viewBox="0 0 143 394" xmlns="http://www.w3.org/2000/svg"
><!--Generated by the Batik Graphics2D SVG Generator--><defs id="genericDefs"
  /><g
  ><defs id="defs1"
    ><clipPath clipPathUnits="userSpaceOnUse" id="clipPath1"
      ><path style="fill-rule:evenodd;" d="M58 342 L69 353 L58 364 L47 353 Z"
      /></clipPath
      ><clipPath clipPathUnits="userSpaceOnUse" id="clipPath2"
      ><path d="M47 290 L69 290 L69 312 L47 312 L47 290 Z"
      /></clipPath
      ><clipPath clipPathUnits="userSpaceOnUse" id="clipPath3"
      ><path style="fill-rule:evenodd;" d="M58 238 L69 260 L47 260 Z"
      /></clipPath
      ><clipPath clipPathUnits="userSpaceOnUse" id="clipPath4"
      ><path d="M47 186 L69 186 L69 208 L47 208 L47 186 Z"
      /></clipPath
      ><clipPath clipPathUnits="userSpaceOnUse" id="clipPath5"
      ><path d="M69 145 C69 151.0751 64.0751 156 58 156 C51.9249 156 47 151.0751 47 145 C47 138.9249 51.9249 134 58 134 C64.0751 134 69 138.9249 69 145 Z"
      /></clipPath
      ><clipPath clipPathUnits="userSpaceOnUse" id="clipPath6"
      ><path d="M69 93 C69 99.0751 64.0751 104 58 104 C51.9249 104 47 99.0751 47 93 C47 86.9249 51.9249 82 58 82 C64.0751 82 69 86.9249 69 93 Z"
      /></clipPath
    ></defs
    ><g style="fill:white; text-rendering:optimizeSpeed; stroke:white;"
    ><rect x="0" width="143" height="394" y="0" style="stroke:none;"
      /><polygon style="clip-path:url(#clipPath1); stroke:none;" points=" 58 342 69 353 58 364 47 353"
      /><rect x="47" y="342" width="22" style="clip-path:url(#clipPath1); fill:rgb(165,67,153); stroke:none;" height="22"
      /><rect x="47" y="342" width="22" style="clip-path:url(#clipPath1); fill:none; stroke:black;" height="22"
      /><polygon style="fill:none; stroke:black;" points=" 58 342 69 353 58 364 47 353"
      /><rect x="74" y="340" width="5" style="stroke:none;" height="10"
    /></g
    ><g style="font-family:'Serif'; text-rendering:optimizeSpeed; "
    ><path style="stroke:none;" d="M75.8906 348.6875 C75.4844 348.6875 75.1562 349.0469 75.1562 349.4219 C75.1562 349.8125 75.4844 350.1562 75.8906 350.1562 C76.2969 350.1562 76.6406 349.8125 76.6406 349.4219 C76.6406 349.0469 76.2969 348.6875 75.8906 348.6875 ZM77.4688 342.5781 C77.7188 342.8906 77.875 343.2656 77.8906 343.6562 C77.8906 344.1875 77.625 344.5 77.0312 344.7656 L76.4062 345.0156 C75.6406 345.3125 75.3906 345.5469 75.3906 345.9375 C75.3906 346.1094 75.4531 346.3438 75.5781 346.8125 L75.7344 347.3438 L76.1094 347.3438 L76.0938 346.5312 C76.0938 346.0938 76.2031 345.9688 76.7812 345.7344 L77.2031 345.5625 C78.0312 345.2188 78.4531 344.6875 78.4531 343.8438 C78.4531 342.1562 76.6562 341.1875 75.5 341.0312 C75.1094 341.125 74.9062 341.2969 74.9062 341.6406 C74.9062 341.9375 75.0625 342.1562 75.7188 342.2656 L77.4688 342.5781 Z"
      /><rect x="74" y="356" width="5" style="fill:white; stroke:none;" height="10"
      /><path style="stroke:none;" d="M75.8906 364.6875 C75.4844 364.6875 75.1562 365.0469 75.1562 365.4219 C75.1562 365.8125 75.4844 366.1562 75.8906 366.1562 C76.2969 366.1562 76.6406 365.8125 76.6406 365.4219 C76.6406 365.0469 76.2969 364.6875 75.8906 364.6875 ZM77.4688 358.5781 C77.7188 358.8906 77.875 359.2656 77.8906 359.6562 C77.8906 360.1875 77.625 360.5 77.0312 360.7656 L76.4062 361.0156 C75.6406 361.3125 75.3906 361.5469 75.3906 361.9375 C75.3906 362.1094 75.4531 362.3438 75.5781 362.8125 L75.7344 363.3438 L76.1094 363.3438 L76.0938 362.5312 C76.0938 362.0938 76.2031 361.9688 76.7812 361.7344 L77.2031 361.5625 C78.0312 361.2188 78.4531 360.6875 78.4531 359.8438 C78.4531 358.1562 76.6562 357.1875 75.5 357.0312 C75.1094 357.125 74.9062 357.2969 74.9062 357.6406 C74.9062 357.9375 75.0625 358.1562 75.7188 358.2656 L77.4688 358.5781 Z"
      /><path style="stroke:none;" d="M32.7031 358.1875 C34.5156 358.1875 35.9844 357.0938 35.9844 355.25 C35.9844 353.8594 35.0156 352.9375 33.8125 352.6562 L33.8125 352.5938 C34.8906 352.1875 35.6406 351.3594 35.6406 350.125 C35.6406 348.5 34.375 347.5469 32.6562 347.5469 C31.4688 347.5469 30.5469 348.0625 29.7812 348.7812 L30.4688 349.5938 C31.0469 349 31.7656 348.5938 32.5938 348.5938 C33.6562 348.5938 34.3281 349.2344 34.3281 350.2188 C34.3281 351.3281 33.6094 352.1719 31.4844 352.1719 L31.4844 353.1562 C33.8594 353.1562 34.6875 353.9844 34.6875 355.2031 C34.6875 356.3906 33.8125 357.125 32.5938 357.125 C31.4375 357.125 30.6562 356.5781 30.0469 355.9375 L29.4062 356.7812 C30.0781 357.5156 31.0938 358.1875 32.7031 358.1875 ZM36.9731 358 L38.3168 358 L39.3481 356.2188 C39.6137 355.7656 39.8637 355.2969 40.1293 354.8594 L40.2075 354.8594 C40.4731 355.2969 40.7543 355.7656 41.0043 356.2188 L42.1293 358 L43.5356 358 L41.02 354.1562 L43.3325 350.3906 L42.0043 350.3906 L41.0668 352.0625 C40.8481 352.5 40.6137 352.9219 40.3793 353.3438 L40.3325 353.3438 C40.0668 352.9219 39.8012 352.5 39.5668 352.0625 L38.5512 350.3906 L37.1762 350.3906 L39.4887 354.0312 L36.9731 358 Z"
    /></g
    ><g style="fill:white; text-rendering:optimizeSpeed; font-size:14px; font-family:'SansSerif'; stroke:white;"
    ><rect x="47" y="290" width="22" style="clip-path:url(#clipPath2); stroke:none;" height="22"
      /><rect x="47" y="290" width="22" style="clip-path:url(#clipPath2); fill:rgb(0,144,188); stroke:none;" height="22"
      /><rect x="47" y="290" width="22" style="clip-path:url(#clipPath2); fill:none; stroke:black;" height="22"
      /><rect x="47" y="290" width="22" style="fill:none; stroke:black;" height="22"
    /></g
    ><g style="font-style:italic; text-rendering:optimizeSpeed; font-size:10px; font-family:'SansSerif';"
    ><path style="stroke:none;" d="M58 303.125 C59.3281 303.125 60.7344 302.0938 61.125 300.2969 C61.5 298.4844 60.5469 297.4375 59.2188 297.4375 C57.8906 297.4375 56.4688 298.4844 56.0938 300.2969 C55.7031 302.0938 56.6719 303.125 58 303.125 ZM58.1719 302.375 C57.2344 302.375 56.7656 301.5469 57.0312 300.2969 C57.2969 299.0469 58.1094 298.1875 59.0469 298.1875 C59.9844 298.1875 60.4531 299.0469 60.1875 300.2969 C59.9219 301.5469 59.1094 302.375 58.1719 302.375 Z"
    /></g
    ><g style="fill:white; text-rendering:optimizeSpeed; font-family:'Serif'; stroke:white;"
    ><rect x="74" width="5" height="10" y="288" style="stroke:none;"
      /><path d="M75.8906 296.6875 C75.4844 296.6875 75.1562 297.0469 75.1562 297.4219 C75.1562 297.8125 75.4844 298.1562 75.8906 298.1562 C76.2969 298.1562 76.6406 297.8125 76.6406 297.4219 C76.6406 297.0469 76.2969 296.6875 75.8906 296.6875 ZM77.4688 290.5781 C77.7188 290.8906 77.875 291.2656 77.8906 291.6562 C77.8906 292.1875 77.625 292.5 77.0312 292.7656 L76.4062 293.0156 C75.6406 293.3125 75.3906 293.5469 75.3906 293.9375 C75.3906 294.1094 75.4531 294.3438 75.5781 294.8125 L75.7344 295.3438 L76.1094 295.3438 L76.0938 294.5312 C76.0938 294.0938 76.2031 293.9688 76.7812 293.7344 L77.2031 293.5625 C78.0312 293.2188 78.4531 292.6875 78.4531 291.8438 C78.4531 290.1562 76.6562 289.1875 75.5 289.0312 C75.1094 289.125 74.9062 289.2969 74.9062 289.6406 C74.9062 289.9375 75.0625 290.1562 75.7188 290.2656 L77.4688 290.5781 Z" style="fill:black; stroke:none;"
      /><rect x="74" width="5" height="10" y="304" style="stroke:none;"
      /><path d="M75.8906 312.6875 C75.4844 312.6875 75.1562 313.0469 75.1562 313.4219 C75.1562 313.8125 75.4844 314.1562 75.8906 314.1562 C76.2969 314.1562 76.6406 313.8125 76.6406 313.4219 C76.6406 313.0469 76.2969 312.6875 75.8906 312.6875 ZM77.4688 306.5781 C77.7188 306.8906 77.875 307.2656 77.8906 307.6562 C77.8906 308.1875 77.625 308.5 77.0312 308.7656 L76.4062 309.0156 C75.6406 309.3125 75.3906 309.5469 75.3906 309.9375 C75.3906 310.1094 75.4531 310.3438 75.5781 310.8125 L75.7344 311.3438 L76.1094 311.3438 L76.0938 310.5312 C76.0938 310.0938 76.2031 309.9688 76.7812 309.7344 L77.2031 309.5625 C78.0312 309.2188 78.4531 308.6875 78.4531 307.8438 C78.4531 306.1562 76.6562 305.1875 75.5 305.0312 C75.1094 305.125 74.9062 305.2969 74.9062 305.6406 C74.9062 305.9375 75.0625 306.1562 75.7188 306.2656 L77.4688 306.5781 Z" style="fill:black; stroke:none;"
      /><polygon style="stroke:none; clip-path:url(#clipPath3);" points=" 58 238 69 260 47 260"
    /></g
    ><g style="fill:rgb(237,28,36); text-rendering:optimizeSpeed; font-size:14px; font-family:'SansSerif'; stroke:rgb(237,28,36);"
    ><rect x="47" y="238" width="22" style="clip-path:url(#clipPath3); stroke:none;" height="22"
      /><rect x="47" y="238" width="22" style="clip-path:url(#clipPath3); fill:none; stroke:black;" height="22"
      /><polygon style="fill:none; stroke:black;" points=" 58 238 69 260 47 260"
    /></g
    ><g style="fill:white; text-rendering:optimizeSpeed; font-family:'Serif'; stroke:white;"
    ><rect x="74" width="5" height="10" y="236" style="stroke:none;"
      /><path d="M75.8906 244.6875 C75.4844 244.6875 75.1562 245.0469 75.1562 245.4219 C75.1562 245.8125 75.4844 246.1562 75.8906 246.1562 C76.2969 246.1562 76.6406 245.8125 76.6406 245.4219 C76.6406 245.0469 76.2969 244.6875 75.8906 244.6875 ZM77.4688 238.5781 C77.7188 238.8906 77.875 239.2656 77.8906 239.6562 C77.8906 240.1875 77.625 240.5 77.0312 240.7656 L76.4062 241.0156 C75.6406 241.3125 75.3906 241.5469 75.3906 241.9375 C75.3906 242.1094 75.4531 242.3438 75.5781 242.8125 L75.7344 243.3438 L76.1094 243.3438 L76.0938 242.5312 C76.0938 242.0938 76.2031 241.9688 76.7812 241.7344 L77.2031 241.5625 C78.0312 241.2188 78.4531 240.6875 78.4531 239.8438 C78.4531 238.1562 76.6562 237.1875 75.5 237.0312 C75.1094 237.125 74.9062 237.2969 74.9062 237.6406 C74.9062 237.9375 75.0625 238.1562 75.7188 238.2656 L77.4688 238.5781 Z" style="fill:black; stroke:none;"
      /><rect x="74" width="5" height="10" y="252" style="stroke:none;"
      /><path d="M75.8906 260.6875 C75.4844 260.6875 75.1562 261.0469 75.1562 261.4219 C75.1562 261.8125 75.4844 262.1562 75.8906 262.1562 C76.2969 262.1562 76.6406 261.8125 76.6406 261.4219 C76.6406 261.0469 76.2969 260.6875 75.8906 260.6875 ZM77.4688 254.5781 C77.7188 254.8906 77.875 255.2656 77.8906 255.6562 C77.8906 256.1875 77.625 256.5 77.0312 256.7656 L76.4062 257.0156 C75.6406 257.3125 75.3906 257.5469 75.3906 257.9375 C75.3906 258.1094 75.4531 258.3438 75.5781 258.8125 L75.7344 259.3438 L76.1094 259.3438 L76.0938 258.5312 C76.0938 258.0938 76.2031 257.9688 76.7812 257.7344 L77.2031 257.5625 C78.0312 257.2188 78.4531 256.6875 78.4531 255.8438 C78.4531 254.1562 76.6562 253.1875 75.5 253.0312 C75.1094 253.125 74.9062 253.2969 74.9062 253.6406 C74.9062 253.9375 75.0625 254.1562 75.7188 254.2656 L77.4688 254.5781 Z" style="fill:black; stroke:none;"
      /><rect x="47" y="186" width="22" style="clip-path:url(#clipPath4); stroke:none;" height="22"
    /></g
    ><g style="fill:rgb(0,144,188); text-rendering:optimizeSpeed; font-size:14px; font-family:'SansSerif'; stroke:rgb(0,144,188);"
    ><rect x="47" y="186" width="22" style="clip-path:url(#clipPath4); stroke:none;" height="22"
      /><rect x="47" y="186" width="22" style="clip-path:url(#clipPath4); fill:none; stroke:black;" height="22"
      /><rect x="47" y="186" width="22" style="fill:none; stroke:black;" height="22"
    /></g
    ><g style="fill:white; text-rendering:optimizeSpeed; font-family:'Serif'; stroke:white;"
    ><rect x="74" width="5" height="10" y="184" style="stroke:none;"
      /><path d="M75.8906 192.6875 C75.4844 192.6875 75.1562 193.0469 75.1562 193.4219 C75.1562 193.8125 75.4844 194.1562 75.8906 194.1562 C76.2969 194.1562 76.6406 193.8125 76.6406 193.4219 C76.6406 193.0469 76.2969 192.6875 75.8906 192.6875 ZM77.4688 186.5781 C77.7188 186.8906 77.875 187.2656 77.8906 187.6562 C77.8906 188.1875 77.625 188.5 77.0312 188.7656 L76.4062 189.0156 C75.6406 189.3125 75.3906 189.5469 75.3906 189.9375 C75.3906 190.1094 75.4531 190.3438 75.5781 190.8125 L75.7344 191.3438 L76.1094 191.3438 L76.0938 190.5312 C76.0938 190.0938 76.2031 189.9688 76.7812 189.7344 L77.2031 189.5625 C78.0312 189.2188 78.4531 188.6875 78.4531 187.8438 C78.4531 186.1562 76.6562 185.1875 75.5 185.0312 C75.1094 185.125 74.9062 185.2969 74.9062 185.6406 C74.9062 185.9375 75.0625 186.1562 75.7188 186.2656 L77.4688 186.5781 Z" style="fill:black; stroke:none;"
      /><rect x="74" width="5" height="10" y="200" style="stroke:none;"
      /><path d="M75.8906 208.6875 C75.4844 208.6875 75.1562 209.0469 75.1562 209.4219 C75.1562 209.8125 75.4844 210.1562 75.8906 210.1562 C76.2969 210.1562 76.6406 209.8125 76.6406 209.4219 C76.6406 209.0469 76.2969 208.6875 75.8906 208.6875 ZM77.4688 202.5781 C77.7188 202.8906 77.875 203.2656 77.8906 203.6562 C77.8906 204.1875 77.625 204.5 77.0312 204.7656 L76.4062 205.0156 C75.6406 205.3125 75.3906 205.5469 75.3906 205.9375 C75.3906 206.1094 75.4531 206.3438 75.5781 206.8125 L75.7344 207.3438 L76.1094 207.3438 L76.0938 206.5312 C76.0938 206.0938 76.2031 205.9688 76.7812 205.7344 L77.2031 205.5625 C78.0312 205.2188 78.4531 204.6875 78.4531 203.8438 C78.4531 202.1562 76.6562 201.1875 75.5 201.0312 C75.1094 201.125 74.9062 201.2969 74.9062 201.6406 C74.9062 201.9375 75.0625 202.1562 75.7188 202.2656 L77.4688 202.5781 Z" style="fill:black; stroke:none;"
    /></g
    ><g style="text-rendering:optimizeSpeed; font-size:14px; font-family:'SansSerif';"
    ><path style="stroke:none;" d="M30.6094 197.1562 L32.9531 193.6562 C33.2344 193.1406 33.5156 192.6406 33.7812 192.1406 L33.8281 192.1406 C33.7969 192.6719 33.7656 193.5 33.7656 194 L33.7656 197.1562 L30.6094 197.1562 ZM33.7656 201 L34.9688 201 L34.9688 198.1719 L36.3281 198.1719 L36.3281 197.1562 L34.9688 197.1562 L34.9688 190.7188 L33.5469 190.7188 L29.2812 197.3281 L29.2812 198.1719 L33.7656 198.1719 L33.7656 201 ZM36.9731 201 L38.3168 201 L39.3481 199.2188 C39.6137 198.7656 39.8637 198.2969 40.1293 197.8594 L40.2075 197.8594 C40.4731 198.2969 40.7543 198.7656 41.0043 199.2188 L42.1293 201 L43.5356 201 L41.02 197.1562 L43.3325 193.3906 L42.0043 193.3906 L41.0668 195.0625 C40.8481 195.5 40.6137 195.9219 40.3793 196.3438 L40.3325 196.3438 C40.0668 195.9219 39.8012 195.5 39.5668 195.0625 L38.5512 193.3906 L37.1762 193.3906 L39.4887 197.0312 L36.9731 201 Z"
      /><circle style="fill:white; clip-path:url(#clipPath5); stroke:none;" r="11" cx="58" cy="145"
      /><rect x="47" y="134" width="22" style="clip-path:url(#clipPath5); fill:rgb(0,166,81); stroke:none;" height="22"
      /><rect x="47" y="134" width="22" style="fill:none; clip-path:url(#clipPath5);" height="22"
      /><circle r="11" style="fill:none;" cx="58" cy="145"
    /></g
    ><g style="fill:white; text-rendering:optimizeSpeed; font-family:'Serif'; stroke:white;"
    ><rect x="74" width="5" height="10" y="132" style="stroke:none;"
      /><path d="M75.8906 140.6875 C75.4844 140.6875 75.1562 141.0469 75.1562 141.4219 C75.1562 141.8125 75.4844 142.1562 75.8906 142.1562 C76.2969 142.1562 76.6406 141.8125 76.6406 141.4219 C76.6406 141.0469 76.2969 140.6875 75.8906 140.6875 ZM77.4688 134.5781 C77.7188 134.8906 77.875 135.2656 77.8906 135.6562 C77.8906 136.1875 77.625 136.5 77.0312 136.7656 L76.4062 137.0156 C75.6406 137.3125 75.3906 137.5469 75.3906 137.9375 C75.3906 138.1094 75.4531 138.3438 75.5781 138.8125 L75.7344 139.3438 L76.1094 139.3438 L76.0938 138.5312 C76.0938 138.0938 76.2031 137.9688 76.7812 137.7344 L77.2031 137.5625 C78.0312 137.2188 78.4531 136.6875 78.4531 135.8438 C78.4531 134.1562 76.6562 133.1875 75.5 133.0312 C75.1094 133.125 74.9062 133.2969 74.9062 133.6406 C74.9062 133.9375 75.0625 134.1562 75.7188 134.2656 L77.4688 134.5781 Z" style="fill:black; stroke:none;"
      /><rect x="74" width="5" height="10" y="148" style="stroke:none;"
      /><path d="M75.8906 156.6875 C75.4844 156.6875 75.1562 157.0469 75.1562 157.4219 C75.1562 157.8125 75.4844 158.1562 75.8906 158.1562 C76.2969 158.1562 76.6406 157.8125 76.6406 157.4219 C76.6406 157.0469 76.2969 156.6875 75.8906 156.6875 ZM77.4688 150.5781 C77.7188 150.8906 77.875 151.2656 77.8906 151.6562 C77.8906 152.1875 77.625 152.5 77.0312 152.7656 L76.4062 153.0156 C75.6406 153.3125 75.3906 153.5469 75.3906 153.9375 C75.3906 154.1094 75.4531 154.3438 75.5781 154.8125 L75.7344 155.3438 L76.1094 155.3438 L76.0938 154.5312 C76.0938 154.0938 76.2031 153.9688 76.7812 153.7344 L77.2031 153.5625 C78.0312 153.2188 78.4531 152.6875 78.4531 151.8438 C78.4531 150.1562 76.6562 149.1875 75.5 149.0312 C75.1094 149.125 74.9062 149.2969 74.9062 149.6406 C74.9062 149.9375 75.0625 150.1562 75.7188 150.2656 L77.4688 150.5781 Z" style="fill:black; stroke:none;"
    /></g
    ><g style="text-rendering:optimizeSpeed; font-size:14px; font-family:'SansSerif';"
    ><path style="stroke:none;" d="M32.7031 150.1875 C34.5156 150.1875 35.9844 149.0938 35.9844 147.25 C35.9844 145.8594 35.0156 144.9375 33.8125 144.6562 L33.8125 144.5938 C34.8906 144.1875 35.6406 143.3594 35.6406 142.125 C35.6406 140.5 34.375 139.5469 32.6562 139.5469 C31.4688 139.5469 30.5469 140.0625 29.7812 140.7812 L30.4688 141.5938 C31.0469 141 31.7656 140.5938 32.5938 140.5938 C33.6562 140.5938 34.3281 141.2344 34.3281 142.2188 C34.3281 143.3281 33.6094 144.1719 31.4844 144.1719 L31.4844 145.1562 C33.8594 145.1562 34.6875 145.9844 34.6875 147.2031 C34.6875 148.3906 33.8125 149.125 32.5938 149.125 C31.4375 149.125 30.6562 148.5781 30.0469 147.9375 L29.4062 148.7812 C30.0781 149.5156 31.0938 150.1875 32.7031 150.1875 ZM36.9731 150 L38.3168 150 L39.3481 148.2188 C39.6137 147.7656 39.8637 147.2969 40.1293 146.8594 L40.2075 146.8594 C40.4731 147.2969 40.7543 147.7656 41.0043 148.2188 L42.1293 150 L43.5356 150 L41.02 146.1562 L43.3325 142.3906 L42.0043 142.3906 L41.0668 144.0625 C40.8481 144.5 40.6137 144.9219 40.3793 145.3438 L40.3325 145.3438 C40.0668 144.9219 39.8012 144.5 39.5668 144.0625 L38.5512 142.3906 L37.1762 142.3906 L39.4887 146.0312 L36.9731 150 Z"
      /><circle style="fill:white; clip-path:url(#clipPath6); stroke:none;" r="11" cx="58" cy="93"
      /><rect x="47" y="82" width="22" style="clip-path:url(#clipPath6); fill:rgb(255,212,0); stroke:none;" height="22"
      /><rect x="47" y="82" width="22" style="fill:none; clip-path:url(#clipPath6);" height="22"
      /><circle r="11" style="fill:none;" cx="58" cy="93"
    /></g
    ><g style="fill:white; text-rendering:optimizeSpeed; font-family:'Serif'; stroke:white;"
    ><rect x="74" width="5" height="10" y="80" style="stroke:none;"
      /><path d="M75.8906 88.6875 C75.4844 88.6875 75.1562 89.0469 75.1562 89.4219 C75.1562 89.8125 75.4844 90.1562 75.8906 90.1562 C76.2969 90.1562 76.6406 89.8125 76.6406 89.4219 C76.6406 89.0469 76.2969 88.6875 75.8906 88.6875 ZM77.4688 82.5781 C77.7188 82.8906 77.875 83.2656 77.8906 83.6562 C77.8906 84.1875 77.625 84.5 77.0312 84.7656 L76.4062 85.0156 C75.6406 85.3125 75.3906 85.5469 75.3906 85.9375 C75.3906 86.1094 75.4531 86.3438 75.5781 86.8125 L75.7344 87.3438 L76.1094 87.3438 L76.0938 86.5312 C76.0938 86.0938 76.2031 85.9688 76.7812 85.7344 L77.2031 85.5625 C78.0312 85.2188 78.4531 84.6875 78.4531 83.8438 C78.4531 82.1562 76.6562 81.1875 75.5 81.0312 C75.1094 81.125 74.9062 81.2969 74.9062 81.6406 C74.9062 81.9375 75.0625 82.1562 75.7188 82.2656 L77.4688 82.5781 Z" style="fill:black; stroke:none;"
      /><rect x="74" width="5" height="10" y="96" style="stroke:none;"
      /><path d="M75.8906 104.6875 C75.4844 104.6875 75.1562 105.0469 75.1562 105.4219 C75.1562 105.8125 75.4844 106.1562 75.8906 106.1562 C76.2969 106.1562 76.6406 105.8125 76.6406 105.4219 C76.6406 105.0469 76.2969 104.6875 75.8906 104.6875 ZM77.4688 98.5781 C77.7188 98.8906 77.875 99.2656 77.8906 99.6562 C77.8906 100.1875 77.625 100.5 77.0312 100.7656 L76.4062 101.0156 C75.6406 101.3125 75.3906 101.5469 75.3906 101.9375 C75.3906 102.1094 75.4531 102.3438 75.5781 102.8125 L75.7344 103.3438 L76.1094 103.3438 L76.0938 102.5312 C76.0938 102.0938 76.2031 101.9688 76.7812 101.7344 L77.2031 101.5625 C78.0312 101.2188 78.4531 100.6875 78.4531 99.8438 C78.4531 98.1562 76.6562 97.1875 75.5 97.0312 C75.1094 97.125 74.9062 97.2969 74.9062 97.6406 C74.9062 97.9375 75.0625 98.1562 75.7188 98.2656 L77.4688 98.5781 Z" style="fill:black; stroke:none;"
    /></g
    ><g style="text-rendering:optimizeSpeed; font-size:14px; font-family:'SansSerif';"
    ><path style="stroke:none;" d="M32.7031 98.1875 C34.5156 98.1875 35.9844 97.0938 35.9844 95.25 C35.9844 93.8594 35.0156 92.9375 33.8125 92.6562 L33.8125 92.5938 C34.8906 92.1875 35.6406 91.3594 35.6406 90.125 C35.6406 88.5 34.375 87.5469 32.6562 87.5469 C31.4688 87.5469 30.5469 88.0625 29.7812 88.7812 L30.4688 89.5938 C31.0469 89 31.7656 88.5938 32.5938 88.5938 C33.6562 88.5938 34.3281 89.2344 34.3281 90.2188 C34.3281 91.3281 33.6094 92.1719 31.4844 92.1719 L31.4844 93.1562 C33.8594 93.1562 34.6875 93.9844 34.6875 95.2031 C34.6875 96.3906 33.8125 97.125 32.5938 97.125 C31.4375 97.125 30.6562 96.5781 30.0469 95.9375 L29.4062 96.7812 C30.0781 97.5156 31.0938 98.1875 32.7031 98.1875 ZM36.9731 98 L38.3168 98 L39.3481 96.2188 C39.6137 95.7656 39.8637 95.2969 40.1293 94.8594 L40.2075 94.8594 C40.4731 95.2969 40.7543 95.7656 41.0043 96.2188 L42.1293 98 L43.5356 98 L41.02 94.1562 L43.3325 90.3906 L42.0043 90.3906 L41.0668 92.0625 C40.8481 92.5 40.6137 92.9219 40.3793 93.3438 L40.3325 93.3438 C40.0668 92.9219 39.8012 92.5 39.5668 92.0625 L38.5512 90.3906 L37.1762 90.3906 L39.4887 94.0312 L36.9731 98 Z"
      /><rect x="51" y="35" width="13" style="fill:white; stroke:none;" height="10"
      /><path style="stroke:none;" d="M53.4844 42.9062 L54.625 42.9062 C54.375 40.7031 56.8906 39.875 56.8906 37.8281 C56.8906 36.2969 55.8594 35.3281 54.2812 35.3281 C53.1406 35.3281 52.25 35.875 51.6094 36.625 L52.3281 37.2969 C52.8125 36.7344 53.4375 36.3906 54.1406 36.3906 C55.125 36.3906 55.6406 37.0625 55.6406 37.9062 C55.6406 39.5781 53.1719 40.4688 53.4844 42.9062 ZM54.0938 46.1875 C54.6094 46.1875 55.0312 45.7969 55.0312 45.2188 C55.0312 44.625 54.6094 44.2188 54.0938 44.2188 C53.5938 44.2188 53.1719 44.625 53.1719 45.2188 C53.1719 45.7969 53.5938 46.1875 54.0938 46.1875 ZM61.886 46.1875 C64.0266 46.1875 65.3703 44.8906 65.3703 43.2656 C65.3703 41.75 64.4485 41.0469 63.261 40.5312 L61.7922 39.8906 C60.9953 39.5625 60.1047 39.1875 60.1047 38.1875 C60.1047 37.2656 60.8547 36.6719 62.011 36.6719 C62.9641 36.6719 63.7297 37.0469 64.3547 37.6406 L65.0422 36.8125 C64.3078 36.0625 63.2297 35.5469 62.011 35.5469 C60.1516 35.5469 58.7766 36.6875 58.7766 38.2656 C58.7766 39.7656 59.9172 40.5 60.8703 40.9062 L62.3547 41.5469 C63.3235 41.9844 64.0578 42.3125 64.0578 43.375 C64.0578 44.375 63.2453 45.0469 61.9016 45.0469 C60.8391 45.0469 59.8078 44.5469 59.0735 43.7812 L58.2922 44.6562 C59.1828 45.5938 60.4328 46.1875 61.886 46.1875 Z"
    /></g
  ></g
></svg
>
