<?xml version="1.0"?>
<!DOCTYPE svg PUBLIC '-//W3C//DTD SVG 1.0//EN'
          'http://www.w3.org/TR/2001/REC-SVG-20010904/DTD/svg10.dtd'>
<svg xmlns:xlink="http://www.w3.org/1999/xlink" style="fill-opacity:1; color-rendering:auto; color-interpolation:auto; text-rendering:auto; stroke:black; stroke-linecap:square; stroke-miterlimit:10; shape-rendering:auto; stroke-opacity:1; fill:black; stroke-dasharray:none; font-weight:normal; stroke-width:1; font-family:'Dialog'; font-style:normal; stroke-linejoin:miter; font-size:12px; stroke-dashoffset:0; image-rendering:auto;" viewBox="0 0 342 82" xmlns="http://www.w3.org/2000/svg"
><!--Generated by the Batik Graphics2D SVG Generator--><defs id="genericDefs"
  /><g
  ><defs id="defs1"
    ><clipPath clipPathUnits="userSpaceOnUse" id="clipPath1"
      ><path d="M260 41 C260 47.0751 255.0751 52 249 52 C242.9249 52 238 47.0751 238 41 C238 34.9249 242.9249 30 249 30 C255.0751 30 260 34.9249 260 41 Z"
      /></clipPath
      ><clipPath clipPathUnits="userSpaceOnUse" id="clipPath2"
      ><path d="M186 30 L208 30 L208 52 L186 52 L186 30 Z"
      /></clipPath
      ><clipPath clipPathUnits="userSpaceOnUse" id="clipPath3"
      ><path d="M156 41 C156 47.0751 151.0751 52 145 52 C138.9249 52 134 47.0751 134 41 C134 34.9249 138.9249 30 145 30 C151.0751 30 156 34.9249 156 41 Z"
      /></clipPath
      ><clipPath clipPathUnits="userSpaceOnUse" id="clipPath4"
      ><path style="fill-rule:evenodd;" d="M93 30 L104 41 L93 52 L82 41 Z"
      /></clipPath
      ><clipPath clipPathUnits="userSpaceOnUse" id="clipPath5"
      ><path style="fill-rule:evenodd;" d="M41 30 L52 41 L41 52 L30 41 Z"
      /></clipPath
    ></defs
    ><g style="fill:white; text-rendering:optimizeSpeed; stroke:white;"
    ><rect x="0" width="342" height="82" y="0" style="stroke:none;"
      /><polygon style="fill:none; stroke:black;" points=" 301 41 249 41"
      /><path d="M301 30 C295.5 35.5 306.5 46.5 301 52" style="fill:none; stroke:black;"
      /><polygon style="fill:none; stroke:black;" points=" 249 41 197 41"
      /><circle style="clip-path:url(#clipPath1); stroke:none;" r="11" cx="249" cy="41"
      /><rect x="238" y="30" width="22" style="clip-path:url(#clipPath1); fill:rgb(255,212,0); stroke:none;" height="22"
      /><rect x="238" y="30" width="22" style="clip-path:url(#clipPath1); fill:none; stroke:black;" height="22"
      /><circle style="fill:none; stroke:black;" r="11" cx="249" cy="41"
      /><polygon style="fill:none; stroke:black;" points=" 197 41 145 41"
      /><rect x="186" y="30" width="22" style="clip-path:url(#clipPath2); stroke:none;" height="22"
      /><rect x="186" y="30" width="22" style="clip-path:url(#clipPath2); fill:rgb(255,212,0); stroke:none;" height="22"
      /><rect x="186" y="30" width="22" style="clip-path:url(#clipPath2); fill:none; stroke:black;" height="22"
      /><rect x="186" y="30" width="22" style="fill:none; stroke:black;" height="22"
      /><polygon style="fill:none; stroke:black;" points=" 145 41 93 41"
      /><circle style="clip-path:url(#clipPath3); stroke:none;" r="11" cx="145" cy="41"
      /><rect x="134" y="30" width="22" style="clip-path:url(#clipPath3); fill:rgb(255,212,0); stroke:none;" height="22"
      /><rect x="134" y="30" width="22" style="clip-path:url(#clipPath3); fill:none; stroke:black;" height="22"
      /><circle style="fill:none; stroke:black;" r="11" cx="145" cy="41"
      /><polygon style="fill:none; stroke:black;" points=" 93 41 41 41"
      /><polygon style="clip-path:url(#clipPath4); stroke:none;" points=" 93 30 104 41 93 52 82 41"
      /><rect x="82" y="30" width="22" style="clip-path:url(#clipPath4); fill:rgb(165,67,153); stroke:none;" height="22"
      /><rect x="82" y="30" width="22" style="clip-path:url(#clipPath4); fill:none; stroke:black;" height="22"
      /><polygon style="fill:none; stroke:black;" points=" 93 30 104 41 93 52 82 41"
      /><polygon style="clip-path:url(#clipPath5); stroke:none;" points=" 41 30 52 41 41 52 30 41"
      /><rect x="30" y="30" width="22" style="clip-path:url(#clipPath5); fill:rgb(165,67,153); stroke:none;" height="22"
      /><rect x="30" y="30" width="22" style="clip-path:url(#clipPath5); fill:none; stroke:black;" height="22"
      /><polygon style="fill:none; stroke:black;" points=" 41 30 52 41 41 52 30 41"
      /><rect x="71" y="44" width="5" style="stroke:none;" height="10"
    /></g
    ><g style="font-family:'Serif'; text-rendering:optimizeSpeed; "
    ><path style="stroke:none;" d="M72.8906 52.6875 C72.4844 52.6875 72.1562 53.0469 72.1562 53.4219 C72.1562 53.8125 72.4844 54.1562 72.8906 54.1562 C73.2969 54.1562 73.6406 53.8125 73.6406 53.4219 C73.6406 53.0469 73.2969 52.6875 72.8906 52.6875 ZM74.4688 46.5781 C74.7188 46.8906 74.875 47.2656 74.8906 47.6562 C74.8906 48.1875 74.625 48.5 74.0312 48.7656 L73.4062 49.0156 C72.6406 49.3125 72.3906 49.5469 72.3906 49.9375 C72.3906 50.1094 72.4531 50.3438 72.5781 50.8125 L72.7344 51.3438 L73.1094 51.3438 L73.0938 50.5312 C73.0938 50.0938 73.2031 49.9688 73.7812 49.7344 L74.2031 49.5625 C75.0312 49.2188 75.4531 48.6875 75.4531 47.8438 C75.4531 46.1562 73.6562 45.1875 72.5 45.0312 C72.1094 45.125 71.9062 45.2969 71.9062 45.6406 C71.9062 45.9375 72.0625 46.1562 72.7188 46.2656 L74.4688 46.5781 Z"
      /><rect x="57" y="44" width="5" style="fill:white; stroke:none;" height="10"
      /><path style="stroke:none;" d="M58.8906 52.6875 C58.4844 52.6875 58.1562 53.0469 58.1562 53.4219 C58.1562 53.8125 58.4844 54.1562 58.8906 54.1562 C59.2969 54.1562 59.6406 53.8125 59.6406 53.4219 C59.6406 53.0469 59.2969 52.6875 58.8906 52.6875 ZM60.4688 46.5781 C60.7188 46.8906 60.875 47.2656 60.8906 47.6562 C60.8906 48.1875 60.625 48.5 60.0312 48.7656 L59.4062 49.0156 C58.6406 49.3125 58.3906 49.5469 58.3906 49.9375 C58.3906 50.1094 58.4531 50.3438 58.5781 50.8125 L58.7344 51.3438 L59.1094 51.3438 L59.0938 50.5312 C59.0938 50.0938 59.2031 49.9688 59.7812 49.7344 L60.2031 49.5625 C61.0312 49.2188 61.4531 48.6875 61.4531 47.8438 C61.4531 46.1562 59.6562 45.1875 58.5 45.0312 C58.1094 45.125 57.9062 45.2969 57.9062 45.6406 C57.9062 45.9375 58.0625 46.1562 58.7188 46.2656 L60.4688 46.5781 Z"
      /><rect x="123" y="44" width="5" style="fill:white; stroke:none;" height="10"
      /><path style="stroke:none;" d="M124.8906 52.6875 C124.4844 52.6875 124.1562 53.0469 124.1562 53.4219 C124.1562 53.8125 124.4844 54.1562 124.8906 54.1562 C125.2969 54.1562 125.6406 53.8125 125.6406 53.4219 C125.6406 53.0469 125.2969 52.6875 124.8906 52.6875 ZM126.4688 46.5781 C126.7188 46.8906 126.875 47.2656 126.8906 47.6562 C126.8906 48.1875 126.625 48.5 126.0312 48.7656 L125.4062 49.0156 C124.6406 49.3125 124.3906 49.5469 124.3906 49.9375 C124.3906 50.1094 124.4531 50.3438 124.5781 50.8125 L124.7344 51.3438 L125.1094 51.3438 L125.0938 50.5312 C125.0938 50.0938 125.2031 49.9688 125.7812 49.7344 L126.2031 49.5625 C127.0312 49.2188 127.4531 48.6875 127.4531 47.8438 C127.4531 46.1562 125.6562 45.1875 124.5 45.0312 C124.1094 45.125 123.9062 45.2969 123.9062 45.6406 C123.9062 45.9375 124.0625 46.1562 124.7188 46.2656 L126.4688 46.5781 Z"
      /><rect x="109" y="44" width="5" style="fill:white; stroke:none;" height="10"
      /><path style="stroke:none;" d="M110.8906 52.6875 C110.4844 52.6875 110.1562 53.0469 110.1562 53.4219 C110.1562 53.8125 110.4844 54.1562 110.8906 54.1562 C111.2969 54.1562 111.6406 53.8125 111.6406 53.4219 C111.6406 53.0469 111.2969 52.6875 110.8906 52.6875 ZM112.4688 46.5781 C112.7188 46.8906 112.875 47.2656 112.8906 47.6562 C112.8906 48.1875 112.625 48.5 112.0312 48.7656 L111.4062 49.0156 C110.6406 49.3125 110.3906 49.5469 110.3906 49.9375 C110.3906 50.1094 110.4531 50.3438 110.5781 50.8125 L110.7344 51.3438 L111.1094 51.3438 L111.0938 50.5312 C111.0938 50.0938 111.2031 49.9688 111.7812 49.7344 L112.2031 49.5625 C113.0312 49.2188 113.4531 48.6875 113.4531 47.8438 C113.4531 46.1562 111.6562 45.1875 110.5 45.0312 C110.1094 45.125 109.9062 45.2969 109.9062 45.6406 C109.9062 45.9375 110.0625 46.1562 110.7188 46.2656 L112.4688 46.5781 Z"
      /><rect x="175" y="44" width="5" style="fill:white; stroke:none;" height="10"
      /><path style="stroke:none;" d="M176.8906 52.6875 C176.4844 52.6875 176.1562 53.0469 176.1562 53.4219 C176.1562 53.8125 176.4844 54.1562 176.8906 54.1562 C177.2969 54.1562 177.6406 53.8125 177.6406 53.4219 C177.6406 53.0469 177.2969 52.6875 176.8906 52.6875 ZM178.4688 46.5781 C178.7188 46.8906 178.875 47.2656 178.8906 47.6562 C178.8906 48.1875 178.625 48.5 178.0312 48.7656 L177.4062 49.0156 C176.6406 49.3125 176.3906 49.5469 176.3906 49.9375 C176.3906 50.1094 176.4531 50.3438 176.5781 50.8125 L176.7344 51.3438 L177.1094 51.3438 L177.0938 50.5312 C177.0938 50.0938 177.2031 49.9688 177.7812 49.7344 L178.2031 49.5625 C179.0312 49.2188 179.4531 48.6875 179.4531 47.8438 C179.4531 46.1562 177.6562 45.1875 176.5 45.0312 C176.1094 45.125 175.9062 45.2969 175.9062 45.6406 C175.9062 45.9375 176.0625 46.1562 176.7188 46.2656 L178.4688 46.5781 Z"
      /><rect x="161" y="44" width="5" style="fill:white; stroke:none;" height="10"
      /><path style="stroke:none;" d="M162.8906 52.6875 C162.4844 52.6875 162.1562 53.0469 162.1562 53.4219 C162.1562 53.8125 162.4844 54.1562 162.8906 54.1562 C163.2969 54.1562 163.6406 53.8125 163.6406 53.4219 C163.6406 53.0469 163.2969 52.6875 162.8906 52.6875 ZM164.4688 46.5781 C164.7188 46.8906 164.875 47.2656 164.8906 47.6562 C164.8906 48.1875 164.625 48.5 164.0312 48.7656 L163.4062 49.0156 C162.6406 49.3125 162.3906 49.5469 162.3906 49.9375 C162.3906 50.1094 162.4531 50.3438 162.5781 50.8125 L162.7344 51.3438 L163.1094 51.3438 L163.0938 50.5312 C163.0938 50.0938 163.2031 49.9688 163.7812 49.7344 L164.2031 49.5625 C165.0312 49.2188 165.4531 48.6875 165.4531 47.8438 C165.4531 46.1562 163.6562 45.1875 162.5 45.0312 C162.1094 45.125 161.9062 45.2969 161.9062 45.6406 C161.9062 45.9375 162.0625 46.1562 162.7188 46.2656 L164.4688 46.5781 Z"
      /><rect x="227" y="44" width="5" style="fill:white; stroke:none;" height="10"
      /><path style="stroke:none;" d="M228.8906 52.6875 C228.4844 52.6875 228.1562 53.0469 228.1562 53.4219 C228.1562 53.8125 228.4844 54.1562 228.8906 54.1562 C229.2969 54.1562 229.6406 53.8125 229.6406 53.4219 C229.6406 53.0469 229.2969 52.6875 228.8906 52.6875 ZM230.4688 46.5781 C230.7188 46.8906 230.875 47.2656 230.8906 47.6562 C230.8906 48.1875 230.625 48.5 230.0312 48.7656 L229.4062 49.0156 C228.6406 49.3125 228.3906 49.5469 228.3906 49.9375 C228.3906 50.1094 228.4531 50.3438 228.5781 50.8125 L228.7344 51.3438 L229.1094 51.3438 L229.0938 50.5312 C229.0938 50.0938 229.2031 49.9688 229.7812 49.7344 L230.2031 49.5625 C231.0312 49.2188 231.4531 48.6875 231.4531 47.8438 C231.4531 46.1562 229.6562 45.1875 228.5 45.0312 C228.1094 45.125 227.9062 45.2969 227.9062 45.6406 C227.9062 45.9375 228.0625 46.1562 228.7188 46.2656 L230.4688 46.5781 Z"
      /><rect x="213" y="44" width="5" style="fill:white; stroke:none;" height="10"
      /><path style="stroke:none;" d="M214.8906 52.6875 C214.4844 52.6875 214.1562 53.0469 214.1562 53.4219 C214.1562 53.8125 214.4844 54.1562 214.8906 54.1562 C215.2969 54.1562 215.6406 53.8125 215.6406 53.4219 C215.6406 53.0469 215.2969 52.6875 214.8906 52.6875 ZM216.4688 46.5781 C216.7188 46.8906 216.875 47.2656 216.8906 47.6562 C216.8906 48.1875 216.625 48.5 216.0312 48.7656 L215.4062 49.0156 C214.6406 49.3125 214.3906 49.5469 214.3906 49.9375 C214.3906 50.1094 214.4531 50.3438 214.5781 50.8125 L214.7344 51.3438 L215.1094 51.3438 L215.0938 50.5312 C215.0938 50.0938 215.2031 49.9688 215.7812 49.7344 L216.2031 49.5625 C217.0312 49.2188 217.4531 48.6875 217.4531 47.8438 C217.4531 46.1562 215.6562 45.1875 214.5 45.0312 C214.1094 45.125 213.9062 45.2969 213.9062 45.6406 C213.9062 45.9375 214.0625 46.1562 214.7188 46.2656 L216.4688 46.5781 Z"
      /><rect x="265" y="44" width="5" style="fill:white; stroke:none;" height="10"
      /><path style="stroke:none;" d="M266.8906 52.6875 C266.4844 52.6875 266.1562 53.0469 266.1562 53.4219 C266.1562 53.8125 266.4844 54.1562 266.8906 54.1562 C267.2969 54.1562 267.6406 53.8125 267.6406 53.4219 C267.6406 53.0469 267.2969 52.6875 266.8906 52.6875 ZM268.4688 46.5781 C268.7188 46.8906 268.875 47.2656 268.8906 47.6562 C268.8906 48.1875 268.625 48.5 268.0312 48.7656 L267.4062 49.0156 C266.6406 49.3125 266.3906 49.5469 266.3906 49.9375 C266.3906 50.1094 266.4531 50.3438 266.5781 50.8125 L266.7344 51.3438 L267.1094 51.3438 L267.0938 50.5312 C267.0938 50.0938 267.2031 49.9688 267.7812 49.7344 L268.2031 49.5625 C269.0312 49.2188 269.4531 48.6875 269.4531 47.8438 C269.4531 46.1562 267.6562 45.1875 266.5 45.0312 C266.1094 45.125 265.9062 45.2969 265.9062 45.6406 C265.9062 45.9375 266.0625 46.1562 266.7188 46.2656 L268.4688 46.5781 Z"
    /></g
  ></g
></svg
>
