<?xml version="1.0"?>
<!DOCTYPE svg PUBLIC '-//W3C//DTD SVG 1.0//EN'
          'http://www.w3.org/TR/2001/REC-SVG-20010904/DTD/svg10.dtd'>
<svg xmlns:xlink="http://www.w3.org/1999/xlink" style="fill-opacity:1; color-rendering:auto; color-interpolation:auto; text-rendering:auto; stroke:black; stroke-linecap:square; stroke-miterlimit:10; shape-rendering:auto; stroke-opacity:1; fill:black; stroke-dasharray:none; font-weight:normal; stroke-width:1; font-family:'Dialog'; font-style:normal; stroke-linejoin:miter; font-size:12px; stroke-dashoffset:0; image-rendering:auto;" viewBox="0 0 262 186" xmlns="http://www.w3.org/2000/svg"
><!--Generated by the Batik Graphics2D SVG Generator--><defs id="genericDefs"
  /><g
  ><defs id="defs1"
    ><clipPath clipPathUnits="userSpaceOnUse" id="clipPath1"
      ><path d="M134 108 L156 108 L156 130 L134 130 L134 108 Z"
      /></clipPath
      ><clipPath clipPathUnits="userSpaceOnUse" id="clipPath2"
      ><path d="M104 145 C104 151.0751 99.0751 156 93 156 C86.9249 156 82 151.0751 82 145 C82 138.9249 86.9249 134 93 134 C99.0751 134 104 138.9249 104 145 Z"
      /></clipPath
      ><clipPath clipPathUnits="userSpaceOnUse" id="clipPath3"
      ><path d="M82 82 L104 82 L104 104 L82 104 L82 82 Z"
      /></clipPath
      ><clipPath clipPathUnits="userSpaceOnUse" id="clipPath4"
      ><path d="M52 93 C52 99.0751 47.0751 104 41 104 C34.9249 104 30 99.0751 30 93 C30 86.9249 34.9249 82 41 82 C47.0751 82 52 86.9249 52 93 Z"
      /></clipPath
      ><clipPath clipPathUnits="userSpaceOnUse" id="clipPath5"
      ><path style="fill-rule:evenodd;" d="M93 52 L82 30 L104 30 Z"
      /></clipPath
    ></defs
    ><g style="fill:white; text-rendering:optimizeSpeed; stroke:white;"
    ><rect x="0" width="262" height="186" y="0" style="stroke:none;"
      /><polygon style="fill:none; stroke:black;" points=" 145 119 93 145"
      /><polygon style="fill:none; stroke:black;" points=" 145 119 93 93"
      /><rect x="134" y="108" width="22" style="clip-path:url(#clipPath1); stroke:none;" height="22"
      /><rect x="134" y="108" width="22" style="clip-path:url(#clipPath1); fill:rgb(255,212,0); stroke:none;" height="22"
      /><rect x="134" y="108" width="22" style="clip-path:url(#clipPath1); fill:none; stroke:black;" height="22"
      /><rect x="134" y="108" width="22" style="fill:none; stroke:black;" height="22"
    /></g
    ><g style="font-style:italic; text-rendering:optimizeSpeed; font-size:10px; font-family:'SansSerif';"
    ><path style="stroke:none;" d="M145 121.125 C146.3281 121.125 147.7344 120.0938 148.125 118.2969 C148.5 116.4844 147.5469 115.4375 146.2188 115.4375 C144.8906 115.4375 143.4688 116.4844 143.0938 118.2969 C142.7031 120.0938 143.6719 121.125 145 121.125 ZM145.1719 120.375 C144.2344 120.375 143.7656 119.5469 144.0312 118.2969 C144.2969 117.0469 145.1094 116.1875 146.0469 116.1875 C146.9844 116.1875 147.4531 117.0469 147.1875 118.2969 C146.9219 119.5469 146.1094 120.375 145.1719 120.375 Z"
    /></g
    ><g style="fill:white; text-rendering:optimizeSpeed; stroke:white;"
    ><circle r="11" style="clip-path:url(#clipPath2); stroke:none;" cx="93" cy="145"
      /><rect x="82" y="134" width="22" style="clip-path:url(#clipPath2); fill:rgb(255,212,0); stroke:none;" height="22"
      /><rect x="82" y="134" width="22" style="clip-path:url(#clipPath2); fill:none; stroke:black;" height="22"
      /><circle r="11" style="fill:none; stroke:black;" cx="93" cy="145"
      /><polygon style="fill:none; stroke:black;" points=" 93 93 41 93"
      /><polygon style="fill:none; stroke:black;" points=" 93 93 93 41"
      /><rect x="82" y="82" width="22" style="clip-path:url(#clipPath3); stroke:none;" height="22"
      /><rect x="82" y="82" width="22" style="clip-path:url(#clipPath3); fill:rgb(0,144,188); stroke:none;" height="22"
      /><rect x="82" y="82" width="22" style="clip-path:url(#clipPath3); fill:none; stroke:black;" height="22"
      /><rect x="82" y="82" width="22" style="fill:none; stroke:black;" height="22"
      /><circle r="11" style="clip-path:url(#clipPath4); stroke:none;" cx="41" cy="93"
      /><rect x="30" y="82" width="22" style="clip-path:url(#clipPath4); fill:rgb(255,212,0); stroke:none;" height="22"
      /><rect x="30" y="82" width="22" style="clip-path:url(#clipPath4); fill:none; stroke:black;" height="22"
      /><circle r="11" style="fill:none; stroke:black;" cx="41" cy="93"
      /><polygon style="clip-path:url(#clipPath5); stroke:none;" points=" 93 52 82 30 104 30"
      /><rect x="82" y="30" width="22" style="clip-path:url(#clipPath5); fill:rgb(237,28,36); stroke:none;" height="22"
      /><rect x="82" y="30" width="22" style="clip-path:url(#clipPath5); fill:none; stroke:black;" height="22"
      /><polygon style="fill:none; stroke:black;" points=" 93 52 82 30 104 30"
      /><rect x="71" width="6" height="10" y="96" style="stroke:none;"
      /><path d="M73.2344 97.6562 C73.5156 97.5938 73.7656 97.5625 74.0156 97.5625 C75.0625 97.5625 75.6719 98.1719 75.6719 99.2656 C75.6719 100.4375 74.9062 101.1094 73.7031 101.1094 L73.1875 101.1094 L73.1875 101.6406 L73.7969 101.6406 C75.2188 101.6406 75.9062 102.4219 75.9062 103.6406 C75.9062 104.8438 75.1719 105.6875 73.875 105.6875 C73.6094 105.6875 73.3125 105.6562 73.0156 105.5625 L72.7812 104.8125 C72.625 104.2812 72.5 104.0469 72.1406 104.0469 C71.8906 104.0469 71.7031 104.1719 71.5781 104.4219 C71.8438 105.6406 72.7812 106.1719 74.0312 106.1719 C75.7188 106.1719 76.875 105.125 76.875 103.7031 C76.875 102.5 76.2031 101.625 74.7969 101.375 C75.9531 101.0156 76.6094 100.2031 76.6094 99.2031 C76.6094 97.9219 75.6719 97.0781 74.1875 97.0781 C73.0469 97.0781 72.0625 97.5938 71.7969 98.6875 C71.9062 99 72.1094 99.1094 72.3594 99.1094 C72.7344 99.1094 72.8906 98.8906 73 98.4062 L73.2344 97.6562 Z" style="fill:black; stroke:none;"
      /><rect x="57" width="6" height="13" y="94" style="stroke:none;"
      /><path d="M59.0938 100.2031 C59.0938 98.6562 59.75 97.8125 60.7969 97.8125 C61.7188 97.8125 62.2656 98.4531 62.2656 99.5156 C62.2656 100.7188 61.5 101.4375 60.1875 101.7031 L60.2969 102.3125 C62.2188 102.2344 62.9375 103.2188 62.9375 104.4375 C62.9375 105.625 62.2344 106.4219 60.9531 106.4219 C60.25 106.4219 59.6562 106.1562 59.0938 105.7188 L59.0938 100.2031 ZM58.2031 106.9062 L58.1094 109.375 L58.2656 109.4844 L59.1562 109.2656 L59.0156 106.0938 C59.5469 106.8438 60.3594 107.1719 61.1719 107.1719 C62.5625 107.1719 63.8594 106.2188 63.8594 104.4844 C63.8594 102.9531 62.875 102.1094 61.125 102 C62.5625 101.6094 63.1875 100.4531 63.1875 99.4844 C63.1875 98.0938 62.1562 97.3125 60.9062 97.3125 C59.2969 97.3125 58.2188 98.5469 58.2188 100.5156 L58.2031 106.9062 Z" style="fill:black; stroke:none;"
      /><rect x="81" width="7" height="9" y="69" style="stroke:none;"
      /><path d="M82 74.5156 L84.9531 70.2656 L84.9531 74.5156 L82 74.5156 ZM87.2812 74.5156 L85.8594 74.5156 L85.8594 69.125 L85.2344 69.125 L81.3438 74.6406 L81.3438 75.1875 L84.9531 75.1875 L84.9531 78 L85.8594 78 L85.8594 75.1875 L87.2812 75.1875 L87.2812 74.5156 Z" style="fill:black; stroke:none;"
      /><rect x="81" width="8" height="8" y="56" style="stroke:none;"
      /><path d="M85.9844 61.7031 C85.9375 62.8906 85.1562 63.6562 84.3125 63.6562 C83.2656 63.6562 82.5 62.6875 82.5 60.7188 C82.5 59.2812 83.1562 58.1562 84.3438 58.1562 C85.1406 58.1562 85.7812 58.6875 86.0938 59.6406 L85.9844 61.7031 ZM87.9062 63.2812 C87.7344 63.375 87.5469 63.4219 87.3438 63.4219 C86.9531 63.4219 86.75 63.2188 86.75 62.4219 C86.75 61.4844 86.9688 59.5312 87.1875 57.8281 L87.0312 57.7188 L86.2344 57.9219 L86.1406 58.7969 C85.7812 58.0312 85.1562 57.6562 84.3906 57.6562 C83.0469 57.6562 81.5625 58.8438 81.5625 60.9531 C81.5625 63.0938 82.7188 64.1719 84.1406 64.1719 C85.0156 64.1719 85.6875 63.8125 86.0938 62.9844 C86.2031 63.8594 86.5156 64.1719 87.0156 64.1719 C87.4688 64.1719 87.7969 63.9062 88.0156 63.5625 L87.9062 63.2812 Z" style="fill:black; stroke:none;"
      /><rect x="127" width="6" height="10" y="130" style="stroke:none;"
      /><path d="M129.2344 131.6562 C129.5156 131.5938 129.7656 131.5625 130.0156 131.5625 C131.0625 131.5625 131.6719 132.1719 131.6719 133.2656 C131.6719 134.4375 130.9062 135.1094 129.7031 135.1094 L129.1875 135.1094 L129.1875 135.6406 L129.7969 135.6406 C131.2188 135.6406 131.9062 136.4219 131.9062 137.6406 C131.9062 138.8438 131.1719 139.6875 129.875 139.6875 C129.6094 139.6875 129.3125 139.6562 129.0156 139.5625 L128.7812 138.8125 C128.625 138.2812 128.5 138.0469 128.1406 138.0469 C127.8906 138.0469 127.7031 138.1719 127.5781 138.4219 C127.8438 139.6406 128.7812 140.1719 130.0312 140.1719 C131.7188 140.1719 132.875 139.125 132.875 137.7031 C132.875 136.5 132.2031 135.625 130.7969 135.375 C131.9531 135.0156 132.6094 134.2031 132.6094 133.2031 C132.6094 131.9219 131.6719 131.0781 130.1875 131.0781 C129.0469 131.0781 128.0625 131.5938 127.7969 132.6875 C127.9062 133 128.1094 133.1094 128.3594 133.1094 C128.7344 133.1094 128.8906 132.8906 129 132.4062 L129.2344 131.6562 Z" style="fill:black; stroke:none;"
      /><rect x="111" width="6" height="13" y="136" style="stroke:none;"
      /><path d="M113.0938 142.2031 C113.0938 140.6562 113.75 139.8125 114.7969 139.8125 C115.7188 139.8125 116.2656 140.4531 116.2656 141.5156 C116.2656 142.7188 115.5 143.4375 114.1875 143.7031 L114.2969 144.3125 C116.2188 144.2344 116.9375 145.2188 116.9375 146.4375 C116.9375 147.625 116.2344 148.4219 114.9531 148.4219 C114.25 148.4219 113.6562 148.1562 113.0938 147.7188 L113.0938 142.2031 ZM112.2031 148.9062 L112.1094 151.375 L112.2656 151.4844 L113.1562 151.2656 L113.0156 148.0938 C113.5469 148.8438 114.3594 149.1719 115.1719 149.1719 C116.5625 149.1719 117.8594 148.2188 117.8594 146.4844 C117.8594 144.9531 116.875 144.1094 115.125 144 C116.5625 143.6094 117.1875 142.4531 117.1875 141.4844 C117.1875 140.0938 116.1562 139.3125 114.9062 139.3125 C113.2969 139.3125 112.2188 140.5469 112.2188 142.5156 L112.2031 148.9062 Z" style="fill:black; stroke:none;"
      /><rect x="120" width="6" height="10" y="112" style="stroke:none;"
      /><path d="M123.3438 121.6875 C122.2031 121.6875 121.5312 120.5 121.5312 118.2969 C121.5312 118.2188 121.5312 118.125 121.5312 118.0469 C122.0938 117.5 122.7188 117.3125 123.3438 117.3125 C124.3125 117.3125 124.9531 117.9844 124.9531 119.4531 C124.9531 120.9375 124.3125 121.6875 123.3438 121.6875 ZM125.5312 113.0781 C122.3438 113.4531 120.5625 115.7656 120.5625 118.4531 C120.5625 120.7812 121.6094 122.1719 123.3125 122.1719 C124.8438 122.1719 125.9219 121.1094 125.9219 119.2812 C125.9219 117.6875 124.9688 116.6562 123.5625 116.6562 C122.8281 116.6562 122.1406 116.9844 121.5781 117.5781 C121.7969 115.4062 123.0781 113.9688 125.5938 113.3906 L125.5312 113.0781 Z" style="fill:black; stroke:none;"
      /><rect x="104" width="6" height="13" y="102" style="stroke:none;"
      /><path d="M106.0938 108.2031 C106.0938 106.6562 106.75 105.8125 107.7969 105.8125 C108.7188 105.8125 109.2656 106.4531 109.2656 107.5156 C109.2656 108.7188 108.5 109.4375 107.1875 109.7031 L107.2969 110.3125 C109.2188 110.2344 109.9375 111.2188 109.9375 112.4375 C109.9375 113.625 109.2344 114.4219 107.9531 114.4219 C107.25 114.4219 106.6562 114.1562 106.0938 113.7188 L106.0938 108.2031 ZM105.2031 114.9062 L105.1094 117.375 L105.2656 117.4844 L106.1562 117.2656 L106.0156 114.0938 C106.5469 114.8438 107.3594 115.1719 108.1719 115.1719 C109.5625 115.1719 110.8594 114.2188 110.8594 112.4844 C110.8594 110.9531 109.875 110.1094 108.125 110 C109.5625 109.6094 110.1875 108.4531 110.1875 107.4844 C110.1875 106.0938 109.1562 105.3125 107.9062 105.3125 C106.2969 105.3125 105.2188 106.5469 105.2188 108.5156 L105.2031 114.9062 Z" style="fill:black; stroke:none;"
    /></g
  ></g
></svg
>
