<?xml version="1.0"?>
<!DOCTYPE svg PUBLIC '-//W3C//DTD SVG 1.0//EN'
          'http://www.w3.org/TR/2001/REC-SVG-20010904/DTD/svg10.dtd'>
<svg xmlns:xlink="http://www.w3.org/1999/xlink" style="fill-opacity:1; color-rendering:auto; color-interpolation:auto; text-rendering:auto; stroke:black; stroke-linecap:square; stroke-miterlimit:10; shape-rendering:auto; stroke-opacity:1; fill:black; stroke-dasharray:none; font-weight:normal; stroke-width:1; font-family:'Dialog'; font-style:normal; stroke-linejoin:miter; font-size:12px; stroke-dashoffset:0; image-rendering:auto;" viewBox="0 0 314 157" xmlns="http://www.w3.org/2000/svg"
><!--Generated by the Batik Graphics2D SVG Generator--><defs id="genericDefs"
  /><g
  ><defs id="defs1"
    ><clipPath clipPathUnits="userSpaceOnUse" id="clipPath1"
      ><path d="M186 79 L208 79 L208 101 L186 101 L186 79 Z"
      /></clipPath
      ><clipPath clipPathUnits="userSpaceOnUse" id="clipPath2"
      ><path d="M156 116 C156 122.0751 151.0751 127 145 127 C138.9249 127 134 122.0751 134 116 C134 109.9249 138.9249 105 145 105 C151.0751 105 156 109.9249 156 116 Z"
      /></clipPath
      ><clipPath clipPathUnits="userSpaceOnUse" id="clipPath3"
      ><path d="M82 105 L104 105 L104 127 L82 127 L82 105 Z"
      /></clipPath
      ><clipPath clipPathUnits="userSpaceOnUse" id="clipPath4"
      ><path style="fill-rule:evenodd;" d="M93 75 L82 53 L104 53 Z"
      /></clipPath
      ><clipPath clipPathUnits="userSpaceOnUse" id="clipPath5"
      ><path d="M52 116 C52 122.0751 47.0751 127 41 127 C34.9249 127 30 122.0751 30 116 C30 109.9249 34.9249 105 41 105 C47.0751 105 52 109.9249 52 116 Z"
      /></clipPath
      ><clipPath clipPathUnits="userSpaceOnUse" id="clipPath6"
      ><path d="M134 53 L156 53 L156 75 L134 75 L134 53 Z"
      /></clipPath
    ></defs
    ><g style="fill:white; text-rendering:optimizeSpeed; stroke:white;"
    ><rect x="0" width="314" height="157" y="0" style="stroke:none;"
      /><polygon style="fill:none; stroke:black;" points=" 197 90 145 116"
      /><polygon style="fill:none; stroke:black;" points=" 197 90 145 64"
      /><rect x="186" y="79" width="22" style="clip-path:url(#clipPath1); stroke:none;" height="22"
      /><rect x="186" y="79" width="22" style="clip-path:url(#clipPath1); fill:rgb(255,212,0); stroke:none;" height="22"
      /><rect x="186" y="79" width="22" style="clip-path:url(#clipPath1); fill:none; stroke:black;" height="22"
      /><rect x="186" y="79" width="22" style="fill:none; stroke:black;" height="22"
    /></g
    ><g style="font-style:italic; text-rendering:optimizeSpeed; font-size:10px; font-family:'SansSerif';"
    ><path style="stroke:none;" d="M197 92.125 C198.3281 92.125 199.7344 91.0938 200.125 89.2969 C200.5 87.4844 199.5469 86.4375 198.2188 86.4375 C196.8906 86.4375 195.4688 87.4844 195.0938 89.2969 C194.7031 91.0938 195.6719 92.125 197 92.125 ZM197.1719 91.375 C196.2344 91.375 195.7656 90.5469 196.0312 89.2969 C196.2969 88.0469 197.1094 87.1875 198.0469 87.1875 C198.9844 87.1875 199.4531 88.0469 199.1875 89.2969 C198.9219 90.5469 198.1094 91.375 197.1719 91.375 Z"
      /><polygon style="fill:none;" points=" 145 116 93 116"
    /></g
    ><g style="fill:white; text-rendering:optimizeSpeed; stroke:white;"
    ><circle r="11" style="clip-path:url(#clipPath2); stroke:none;" cx="145" cy="116"
      /><rect x="134" y="105" width="22" style="clip-path:url(#clipPath2); fill:rgb(255,212,0); stroke:none;" height="22"
      /><rect x="134" y="105" width="22" style="clip-path:url(#clipPath2); fill:none; stroke:black;" height="22"
      /><circle r="11" style="fill:none; stroke:black;" cx="145" cy="116"
      /><polygon style="fill:none; stroke:black;" points=" 93 116 93 64"
      /><polygon style="fill:none; stroke:black;" points=" 93 116 41 116"
      /><rect x="82" y="105" width="22" style="clip-path:url(#clipPath3); stroke:none;" height="22"
      /><rect x="82" y="105" width="22" style="clip-path:url(#clipPath3); fill:rgb(0,144,188); stroke:none;" height="22"
      /><rect x="82" y="105" width="22" style="clip-path:url(#clipPath3); fill:none; stroke:black;" height="22"
      /><rect x="82" y="105" width="22" style="fill:none; stroke:black;" height="22"
      /><polygon style="clip-path:url(#clipPath4); stroke:none;" points=" 93 75 82 53 104 53"
      /><rect x="82" y="53" width="22" style="clip-path:url(#clipPath4); fill:rgb(237,28,36); stroke:none;" height="22"
      /><rect x="82" y="53" width="22" style="clip-path:url(#clipPath4); fill:none; stroke:black;" height="22"
      /><polygon style="fill:none; stroke:black;" points=" 93 75 82 53 104 53"
      /><circle r="11" style="clip-path:url(#clipPath5); stroke:none;" cx="41" cy="116"
      /><rect x="30" y="105" width="22" style="clip-path:url(#clipPath5); fill:rgb(255,212,0); stroke:none;" height="22"
      /><rect x="30" y="105" width="22" style="clip-path:url(#clipPath5); fill:none; stroke:black;" height="22"
      /><circle r="11" style="fill:none; stroke:black;" cx="41" cy="116"
      /><rect x="82" width="5" height="10" y="92" style="stroke:none;"
      /><path d="M83.8906 100.6875 C83.4844 100.6875 83.1562 101.0469 83.1562 101.4219 C83.1562 101.8125 83.4844 102.1562 83.8906 102.1562 C84.2969 102.1562 84.6406 101.8125 84.6406 101.4219 C84.6406 101.0469 84.2969 100.6875 83.8906 100.6875 ZM85.4688 94.5781 C85.7188 94.8906 85.875 95.2656 85.8906 95.6562 C85.8906 96.1875 85.625 96.5 85.0312 96.7656 L84.4062 97.0156 C83.6406 97.3125 83.3906 97.5469 83.3906 97.9375 C83.3906 98.1094 83.4531 98.3438 83.5781 98.8125 L83.7344 99.3438 L84.1094 99.3438 L84.0938 98.5312 C84.0938 98.0938 84.2031 97.9688 84.7812 97.7344 L85.2031 97.5625 C86.0312 97.2188 86.4531 96.6875 86.4531 95.8438 C86.4531 94.1562 84.6562 93.1875 83.5 93.0312 C83.1094 93.125 82.9062 93.2969 82.9062 93.6406 C82.9062 93.9375 83.0625 94.1562 83.7188 94.2656 L85.4688 94.5781 Z" style="fill:black; stroke:none;"
      /><rect x="81" width="8" height="8" y="79" style="stroke:none;"
      /><path d="M85.9844 84.7031 C85.9375 85.8906 85.1562 86.6562 84.3125 86.6562 C83.2656 86.6562 82.5 85.6875 82.5 83.7188 C82.5 82.2812 83.1562 81.1562 84.3438 81.1562 C85.1406 81.1562 85.7812 81.6875 86.0938 82.6406 L85.9844 84.7031 ZM87.9062 86.2812 C87.7344 86.375 87.5469 86.4219 87.3438 86.4219 C86.9531 86.4219 86.75 86.2188 86.75 85.4219 C86.75 84.4844 86.9688 82.5312 87.1875 80.8281 L87.0312 80.7188 L86.2344 80.9219 L86.1406 81.7969 C85.7812 81.0312 85.1562 80.6562 84.3906 80.6562 C83.0469 80.6562 81.5625 81.8438 81.5625 83.9531 C81.5625 86.0938 82.7188 87.1719 84.1406 87.1719 C85.0156 87.1719 85.6875 86.8125 86.0938 85.9844 C86.2031 86.8594 86.5156 87.1719 87.0156 87.1719 C87.4688 87.1719 87.7969 86.9062 88.0156 86.5625 L87.9062 86.2812 Z" style="fill:black; stroke:none;"
      /><rect x="71" width="5" height="10" y="119" style="stroke:none;"
      /><path d="M72.8906 127.6875 C72.4844 127.6875 72.1562 128.0469 72.1562 128.4219 C72.1562 128.8125 72.4844 129.1562 72.8906 129.1562 C73.2969 129.1562 73.6406 128.8125 73.6406 128.4219 C73.6406 128.0469 73.2969 127.6875 72.8906 127.6875 ZM74.4688 121.5781 C74.7188 121.8906 74.875 122.2656 74.8906 122.6562 C74.8906 123.1875 74.625 123.5 74.0312 123.7656 L73.4062 124.0156 C72.6406 124.3125 72.3906 124.5469 72.3906 124.9375 C72.3906 125.1094 72.4531 125.3438 72.5781 125.8125 L72.7344 126.3438 L73.1094 126.3438 L73.0938 125.5312 C73.0938 125.0938 73.2031 124.9688 73.7812 124.7344 L74.2031 124.5625 C75.0312 124.2188 75.4531 123.6875 75.4531 122.8438 C75.4531 121.1562 73.6562 120.1875 72.5 120.0312 C72.1094 120.125 71.9062 120.2969 71.9062 120.6406 C71.9062 120.9375 72.0625 121.1562 72.7188 121.2656 L74.4688 121.5781 Z" style="fill:black; stroke:none;"
      /><rect x="57" width="6" height="13" y="117" style="stroke:none;"
      /><path d="M59.0938 123.2031 C59.0938 121.6562 59.75 120.8125 60.7969 120.8125 C61.7188 120.8125 62.2656 121.4531 62.2656 122.5156 C62.2656 123.7188 61.5 124.4375 60.1875 124.7031 L60.2969 125.3125 C62.2188 125.2344 62.9375 126.2188 62.9375 127.4375 C62.9375 128.625 62.2344 129.4219 60.9531 129.4219 C60.25 129.4219 59.6562 129.1562 59.0938 128.7188 L59.0938 123.2031 ZM58.2031 129.9062 L58.1094 132.375 L58.2656 132.4844 L59.1562 132.2656 L59.0156 129.0938 C59.5469 129.8438 60.3594 130.1719 61.1719 130.1719 C62.5625 130.1719 63.8594 129.2188 63.8594 127.4844 C63.8594 125.9531 62.875 125.1094 61.125 125 C62.5625 124.6094 63.1875 123.4531 63.1875 122.4844 C63.1875 121.0938 62.1562 120.3125 60.9062 120.3125 C59.2969 120.3125 58.2188 121.5469 58.2188 123.5156 L58.2031 129.9062 Z" style="fill:black; stroke:none;"
      /><rect x="123" width="5" height="10" y="119" style="stroke:none;"
      /><path d="M124.8906 127.6875 C124.4844 127.6875 124.1562 128.0469 124.1562 128.4219 C124.1562 128.8125 124.4844 129.1562 124.8906 129.1562 C125.2969 129.1562 125.6406 128.8125 125.6406 128.4219 C125.6406 128.0469 125.2969 127.6875 124.8906 127.6875 ZM126.4688 121.5781 C126.7188 121.8906 126.875 122.2656 126.8906 122.6562 C126.8906 123.1875 126.625 123.5 126.0312 123.7656 L125.4062 124.0156 C124.6406 124.3125 124.3906 124.5469 124.3906 124.9375 C124.3906 125.1094 124.4531 125.3438 124.5781 125.8125 L124.7344 126.3438 L125.1094 126.3438 L125.0938 125.5312 C125.0938 125.0938 125.2031 124.9688 125.7812 124.7344 L126.2031 124.5625 C127.0312 124.2188 127.4531 123.6875 127.4531 122.8438 C127.4531 121.1562 125.6562 120.1875 124.5 120.0312 C124.1094 120.125 123.9062 120.2969 123.9062 120.6406 C123.9062 120.9375 124.0625 121.1562 124.7188 121.2656 L126.4688 121.5781 Z" style="fill:black; stroke:none;"
      /><rect x="109" width="6" height="13" y="117" style="stroke:none;"
      /><path d="M111.0938 123.2031 C111.0938 121.6562 111.75 120.8125 112.7969 120.8125 C113.7188 120.8125 114.2656 121.4531 114.2656 122.5156 C114.2656 123.7188 113.5 124.4375 112.1875 124.7031 L112.2969 125.3125 C114.2188 125.2344 114.9375 126.2188 114.9375 127.4375 C114.9375 128.625 114.2344 129.4219 112.9531 129.4219 C112.25 129.4219 111.6562 129.1562 111.0938 128.7188 L111.0938 123.2031 ZM110.2031 129.9062 L110.1094 132.375 L110.2656 132.4844 L111.1562 132.2656 L111.0156 129.0938 C111.5469 129.8438 112.3594 130.1719 113.1719 130.1719 C114.5625 130.1719 115.8594 129.2188 115.8594 127.4844 C115.8594 125.9531 114.875 125.1094 113.125 125 C114.5625 124.6094 115.1875 123.4531 115.1875 122.4844 C115.1875 121.0938 114.1562 120.3125 112.9062 120.3125 C111.2969 120.3125 110.2188 121.5469 110.2188 123.5156 L110.2031 129.9062 Z" style="fill:black; stroke:none;"
      /><rect x="134" y="53" width="22" style="clip-path:url(#clipPath6); stroke:none;" height="22"
      /><rect x="134" y="53" width="22" style="clip-path:url(#clipPath6); fill:rgb(0,144,188); stroke:none;" height="22"
      /><rect x="134" y="53" width="22" style="clip-path:url(#clipPath6); fill:none; stroke:black;" height="22"
      /><rect x="134" y="53" width="22" style="fill:none; stroke:black;" height="22"
      /><rect x="138" width="13" height="10" y="35" style="stroke:none;"
    /></g
    ><g style="text-rendering:optimizeSpeed; font-size:14px; font-family:'SansSerif';"
    ><path style="stroke:none;" d="M140.4844 42.9062 L141.625 42.9062 C141.375 40.7031 143.8906 39.875 143.8906 37.8281 C143.8906 36.2969 142.8594 35.3281 141.2812 35.3281 C140.1406 35.3281 139.25 35.875 138.6094 36.625 L139.3281 37.2969 C139.8125 36.7344 140.4375 36.3906 141.1406 36.3906 C142.125 36.3906 142.6406 37.0625 142.6406 37.9062 C142.6406 39.5781 140.1719 40.4688 140.4844 42.9062 ZM141.0938 46.1875 C141.6094 46.1875 142.0312 45.7969 142.0312 45.2188 C142.0312 44.625 141.6094 44.2188 141.0938 44.2188 C140.5938 44.2188 140.1719 44.625 140.1719 45.2188 C140.1719 45.7969 140.5938 46.1875 141.0938 46.1875 ZM148.886 46.1875 C151.0266 46.1875 152.3703 44.8906 152.3703 43.2656 C152.3703 41.75 151.4485 41.0469 150.261 40.5312 L148.7922 39.8906 C147.9953 39.5625 147.1047 39.1875 147.1047 38.1875 C147.1047 37.2656 147.8547 36.6719 149.011 36.6719 C149.9641 36.6719 150.7297 37.0469 151.3547 37.6406 L152.0422 36.8125 C151.3078 36.0625 150.2297 35.5469 149.011 35.5469 C147.1516 35.5469 145.7766 36.6875 145.7766 38.2656 C145.7766 39.7656 146.9172 40.5 147.8703 40.9062 L149.3547 41.5469 C150.3235 41.9844 151.0578 42.3125 151.0578 43.375 C151.0578 44.375 150.2453 45.0469 148.9016 45.0469 C147.8391 45.0469 146.8078 44.5469 146.0735 43.7812 L145.2922 44.6562 C146.1828 45.5938 147.4328 46.1875 148.886 46.1875 Z"
    /></g
    ><g style="fill:white; text-rendering:optimizeSpeed; font-family:'Serif'; stroke:white;"
    ><rect x="179" width="5" height="10" y="101" style="stroke:none;"
      /><path d="M180.8906 109.6875 C180.4844 109.6875 180.1562 110.0469 180.1562 110.4219 C180.1562 110.8125 180.4844 111.1562 180.8906 111.1562 C181.2969 111.1562 181.6406 110.8125 181.6406 110.4219 C181.6406 110.0469 181.2969 109.6875 180.8906 109.6875 ZM182.4688 103.5781 C182.7188 103.8906 182.875 104.2656 182.8906 104.6562 C182.8906 105.1875 182.625 105.5 182.0312 105.7656 L181.4062 106.0156 C180.6406 106.3125 180.3906 106.5469 180.3906 106.9375 C180.3906 107.1094 180.4531 107.3438 180.5781 107.8125 L180.7344 108.3438 L181.1094 108.3438 L181.0938 107.5312 C181.0938 107.0938 181.2031 106.9688 181.7812 106.7344 L182.2031 106.5625 C183.0312 106.2188 183.4531 105.6875 183.4531 104.8438 C183.4531 103.1562 181.6562 102.1875 180.5 102.0312 C180.1094 102.125 179.9062 102.2969 179.9062 102.6406 C179.9062 102.9375 180.0625 103.1562 180.7188 103.2656 L182.4688 103.5781 Z" style="fill:black; stroke:none;"
      /><rect x="163" width="6" height="13" y="107" style="stroke:none;"
      /><path d="M165.0938 113.2031 C165.0938 111.6562 165.75 110.8125 166.7969 110.8125 C167.7188 110.8125 168.2656 111.4531 168.2656 112.5156 C168.2656 113.7188 167.5 114.4375 166.1875 114.7031 L166.2969 115.3125 C168.2188 115.2344 168.9375 116.2188 168.9375 117.4375 C168.9375 118.625 168.2344 119.4219 166.9531 119.4219 C166.25 119.4219 165.6562 119.1562 165.0938 118.7188 L165.0938 113.2031 ZM164.2031 119.9062 L164.1094 122.375 L164.2656 122.4844 L165.1562 122.2656 L165.0156 119.0938 C165.5469 119.8438 166.3594 120.1719 167.1719 120.1719 C168.5625 120.1719 169.8594 119.2188 169.8594 117.4844 C169.8594 115.9531 168.875 115.1094 167.125 115 C168.5625 114.6094 169.1875 113.4531 169.1875 112.4844 C169.1875 111.0938 168.1562 110.3125 166.9062 110.3125 C165.2969 110.3125 164.2188 111.5469 164.2188 113.5156 L164.2031 119.9062 Z" style="fill:black; stroke:none;"
      /><rect x="172" width="5" height="10" y="83" style="stroke:none;"
      /><path d="M173.8906 91.6875 C173.4844 91.6875 173.1562 92.0469 173.1562 92.4219 C173.1562 92.8125 173.4844 93.1562 173.8906 93.1562 C174.2969 93.1562 174.6406 92.8125 174.6406 92.4219 C174.6406 92.0469 174.2969 91.6875 173.8906 91.6875 ZM175.4688 85.5781 C175.7188 85.8906 175.875 86.2656 175.8906 86.6562 C175.8906 87.1875 175.625 87.5 175.0312 87.7656 L174.4062 88.0156 C173.6406 88.3125 173.3906 88.5469 173.3906 88.9375 C173.3906 89.1094 173.4531 89.3438 173.5781 89.8125 L173.7344 90.3438 L174.1094 90.3438 L174.0938 89.5312 C174.0938 89.0938 174.2031 88.9688 174.7812 88.7344 L175.2031 88.5625 C176.0312 88.2188 176.4531 87.6875 176.4531 86.8438 C176.4531 85.1562 174.6562 84.1875 173.5 84.0312 C173.1094 84.125 172.9062 84.2969 172.9062 84.6406 C172.9062 84.9375 173.0625 85.1562 173.7188 85.2656 L175.4688 85.5781 Z" style="fill:black; stroke:none;"
      /><rect x="156" width="6" height="13" y="73" style="stroke:none;"
      /><path d="M158.0938 79.2031 C158.0938 77.6562 158.75 76.8125 159.7969 76.8125 C160.7188 76.8125 161.2656 77.4531 161.2656 78.5156 C161.2656 79.7188 160.5 80.4375 159.1875 80.7031 L159.2969 81.3125 C161.2188 81.2344 161.9375 82.2188 161.9375 83.4375 C161.9375 84.625 161.2344 85.4219 159.9531 85.4219 C159.25 85.4219 158.6562 85.1562 158.0938 84.7188 L158.0938 79.2031 ZM157.2031 85.9062 L157.1094 88.375 L157.2656 88.4844 L158.1562 88.2656 L158.0156 85.0938 C158.5469 85.8438 159.3594 86.1719 160.1719 86.1719 C161.5625 86.1719 162.8594 85.2188 162.8594 83.4844 C162.8594 81.9531 161.875 81.1094 160.125 81 C161.5625 80.6094 162.1875 79.4531 162.1875 78.4844 C162.1875 77.0938 161.1562 76.3125 159.9062 76.3125 C158.2969 76.3125 157.2188 77.5469 157.2188 79.5156 L157.2031 85.9062 Z" style="fill:black; stroke:none;"
    /></g
  ></g
></svg
>
