<?xml version="1.0"?>
<!DOCTYPE svg PUBLIC '-//W3C//DTD SVG 1.0//EN'
          'http://www.w3.org/TR/2001/REC-SVG-20010904/DTD/svg10.dtd'>
<svg xmlns:xlink="http://www.w3.org/1999/xlink" style="fill-opacity:1; color-rendering:auto; color-interpolation:auto; text-rendering:auto; stroke:black; stroke-linecap:square; stroke-miterlimit:10; shape-rendering:auto; stroke-opacity:1; fill:black; stroke-dasharray:none; font-weight:normal; stroke-width:1; font-family:'Dialog'; font-style:normal; stroke-linejoin:miter; font-size:12px; stroke-dashoffset:0; image-rendering:auto;" viewBox="0 0 134 120" xmlns="http://www.w3.org/2000/svg"
><!--Generated by the Batik Graphics2D SVG Generator--><defs id="genericDefs"
  /><g
  ><defs id="defs1"
    ><clipPath clipPathUnits="userSpaceOnUse" id="clipPath1"
      ><path style="fill-rule:evenodd;" d="M41 53 L51 60 L47 72 L34 72 L30 60 L41 53 Z"
      /></clipPath
    ></defs
    ><g style="fill:white; text-rendering:optimizeSpeed; stroke:white;"
    ><rect x="0" width="134" height="120" y="0" style="stroke:none;"
      /><polygon style="fill:none; stroke:black;" points=" 93 64 41 64"
      /><path d="M93 53 C87.5 58.5 98.5 69.5 93 75" style="fill:none; stroke:black;"
      /><polygon style="clip-path:url(#clipPath1); stroke:none;" points=" 41 53 51 60 47 72 34 72 30 60 41 53"
      /><rect x="30" y="53" width="22" style="clip-path:url(#clipPath1); fill:rgb(0,166,81); stroke:none;" height="22"
      /><rect x="30" y="53" width="22" style="clip-path:url(#clipPath1); fill:none; stroke:black;" height="22"
      /><polygon style="fill:none; stroke:black;" points=" 41 53 51 60 47 72 34 72 30 60 41 53"
    /></g
    ><g style="text-rendering:optimizeSpeed; font-size:10px; font-family:'SansSerif';"
    ><path style="stroke:none;" d="M40.0625 68 L40.9844 68 L40.9844 63.3125 L42.125 63.3125 L42.125 62.5625 L40.9844 62.5625 L40.9844 61.7031 C40.9844 61.0156 41.2344 60.6406 41.75 60.6406 C41.9375 60.6406 42.1562 60.6875 42.3594 60.7812 L42.5625 60.0938 C42.3125 59.9844 41.9844 59.9062 41.6562 59.9062 C40.5625 59.9062 40.0625 60.5938 40.0625 61.7031 L40.0625 62.5625 L39.3281 62.625 L39.3281 63.3125 L40.0625 63.3125 L40.0625 68 Z"
      /><rect x="31" y="35" width="19" style="fill:white; stroke:none;" height="11"
      /><path style="stroke:none;" d="M35.1094 40.5781 C36.3438 40.5781 36.9688 41.4688 36.9688 42.8438 C36.9688 44.25 36.1875 45.1875 35.2188 45.1875 C33.9219 45.1875 33.1562 44.0312 33 41.8906 C33.625 40.9531 34.4531 40.5781 35.1094 40.5781 ZM35.2188 46.1875 C36.8125 46.1875 38.1562 44.8438 38.1562 42.8438 C38.1562 40.7031 37.0469 39.625 35.3125 39.625 C34.5 39.625 33.6094 40.1094 32.9688 40.875 C33.0312 37.6875 34.2188 36.6094 35.625 36.6094 C36.25 36.6094 36.8594 36.9062 37.2656 37.3906 L37.9688 36.5938 C37.4062 35.9844 36.6406 35.5469 35.5781 35.5469 C33.5938 35.5469 31.7812 37.0781 31.7812 41.0938 C31.7812 44.4844 33.2344 46.1875 35.2188 46.1875 ZM44.0512 46.1875 C45.3793 46.1875 46.3793 45.6562 47.1918 44.7188 L46.4887 43.9062 C45.8325 44.6094 45.0825 45.0469 44.0981 45.0469 C42.145 45.0469 40.9106 43.4219 40.9106 40.8281 C40.9106 38.2656 42.2075 36.6719 44.145 36.6719 C45.0356 36.6719 45.7075 37.0781 46.2387 37.6562 L46.9418 36.8125 C46.3637 36.1562 45.3793 35.5469 44.1293 35.5469 C41.5356 35.5469 39.5825 37.5625 39.5825 40.875 C39.5825 44.2031 41.5043 46.1875 44.0512 46.1875 ZM50.3269 46.1875 C50.6863 46.1875 50.8894 46.1406 51.0769 46.0625 L50.8894 45.0938 C50.7488 45.125 50.7019 45.125 50.6238 45.125 C50.4363 45.125 50.2644 44.9688 50.2644 44.5781 L50.2644 34.8594 L48.9832 34.8594 L48.9832 44.4844 C48.9832 45.5625 49.3894 46.1875 50.3269 46.1875 Z"
    /></g
    ><g style="fill:white; text-rendering:optimizeSpeed; font-family:'Serif'; stroke:white;"
    ><rect x="57" width="6" height="13" y="65" style="stroke:none;"
      /><path d="M59.0938 71.2031 C59.0938 69.6562 59.75 68.8125 60.7969 68.8125 C61.7188 68.8125 62.2656 69.4531 62.2656 70.5156 C62.2656 71.7188 61.5 72.4375 60.1875 72.7031 L60.2969 73.3125 C62.2188 73.2344 62.9375 74.2188 62.9375 75.4375 C62.9375 76.625 62.2344 77.4219 60.9531 77.4219 C60.25 77.4219 59.6562 77.1562 59.0938 76.7188 L59.0938 71.2031 ZM58.2031 77.9062 L58.1094 80.375 L58.2656 80.4844 L59.1562 80.2656 L59.0156 77.0938 C59.5469 77.8438 60.3594 78.1719 61.1719 78.1719 C62.5625 78.1719 63.8594 77.2188 63.8594 75.4844 C63.8594 73.9531 62.875 73.1094 61.125 73 C62.5625 72.6094 63.1875 71.4531 63.1875 70.4844 C63.1875 69.0938 62.1562 68.3125 60.9062 68.3125 C59.2969 68.3125 58.2188 69.5469 58.2188 71.5156 L58.2031 77.9062 Z" style="fill:black; stroke:none;"
    /></g
  ></g
></svg
>
