<?xml version="1.0"?>
<!DOCTYPE svg PUBLIC '-//W3C//DTD SVG 1.0//EN'
          'http://www.w3.org/TR/2001/REC-SVG-20010904/DTD/svg10.dtd'>
<svg xmlns:xlink="http://www.w3.org/1999/xlink" style="fill-opacity:1; color-rendering:auto; color-interpolation:auto; text-rendering:auto; stroke:black; stroke-linecap:square; stroke-miterlimit:10; shape-rendering:auto; stroke-opacity:1; fill:black; stroke-dasharray:none; font-weight:normal; stroke-width:1; font-family:'Dialog'; font-style:normal; stroke-linejoin:miter; font-size:12px; stroke-dashoffset:0; image-rendering:auto;" viewBox="0 0 157 105" xmlns="http://www.w3.org/2000/svg"
><!--Generated by the Batik Graphics2D SVG Generator--><defs id="genericDefs"
  /><g
  ><defs id="defs1"
    ><clipPath clipPathUnits="userSpaceOnUse" id="clipPath1"
      ><path d="M63 64 C63 70.0751 58.0751 75 52 75 C45.9249 75 41 70.0751 41 64 C41 57.9249 45.9249 53 52 53 C58.0751 53 63 57.9249 63 64 Z"
      /></clipPath
    ></defs
    ><g style="fill:white; text-rendering:optimizeSpeed; stroke:white;"
    ><rect x="0" width="157" height="105" y="0" style="stroke:none;"
      /><polygon style="fill:none; stroke:black;" points=" 116 64 52 64"
      /><path d="M116 53 C110.5 58.5 121.5 69.5 116 75" style="fill:none; stroke:black;"
      /><circle style="clip-path:url(#clipPath1); stroke:none;" r="11" cx="52" cy="64"
      /><rect x="41" y="53" width="22" style="clip-path:url(#clipPath1); fill:rgb(255,212,0); stroke:none;" height="22"
      /><rect x="41" y="53" width="22" style="clip-path:url(#clipPath1); fill:none; stroke:black;" height="22"
      /><circle style="fill:none; stroke:black;" r="11" cx="52" cy="64"
      /><rect x="33" y="35" width="15" style="stroke:none;" height="10"
    /></g
    ><g style="text-rendering:optimizeSpeed; font-size:14px; font-family:'SansSerif';"
    ><path style="stroke:none;" d="M34.6094 42.1562 L36.9531 38.6562 C37.2344 38.1406 37.5156 37.6406 37.7812 37.1406 L37.8281 37.1406 C37.7969 37.6719 37.7656 38.5 37.7656 39 L37.7656 42.1562 L34.6094 42.1562 ZM37.7656 46 L38.9688 46 L38.9688 43.1719 L40.3281 43.1719 L40.3281 42.1562 L38.9688 42.1562 L38.9688 35.7188 L37.5469 35.7188 L33.2812 42.3281 L33.2812 43.1719 L37.7656 43.1719 L37.7656 46 ZM45.02 46.1875 C47.1606 46.1875 48.5043 44.8906 48.5043 43.2656 C48.5043 41.75 47.5825 41.0469 46.395 40.5312 L44.9262 39.8906 C44.1293 39.5625 43.2387 39.1875 43.2387 38.1875 C43.2387 37.2656 43.9887 36.6719 45.145 36.6719 C46.0981 36.6719 46.8637 37.0469 47.4887 37.6406 L48.1762 36.8125 C47.4418 36.0625 46.3637 35.5469 45.145 35.5469 C43.2856 35.5469 41.9106 36.6875 41.9106 38.2656 C41.9106 39.7656 43.0512 40.5 44.0043 40.9062 L45.4887 41.5469 C46.4575 41.9844 47.1918 42.3125 47.1918 43.375 C47.1918 44.375 46.3793 45.0469 45.0356 45.0469 C43.9731 45.0469 42.9418 44.5469 42.2075 43.7812 L41.4262 44.6562 C42.3168 45.5938 43.5668 46.1875 45.02 46.1875 Z"
      /><rect x="56" y="35" width="14" style="fill:white; stroke:none;" height="10"
      /><path style="stroke:none;" d="M60.1094 40.5781 C61.3438 40.5781 61.9688 41.4688 61.9688 42.8438 C61.9688 44.25 61.1875 45.1875 60.2188 45.1875 C58.9219 45.1875 58.1562 44.0312 58 41.8906 C58.625 40.9531 59.4531 40.5781 60.1094 40.5781 ZM60.2188 46.1875 C61.8125 46.1875 63.1562 44.8438 63.1562 42.8438 C63.1562 40.7031 62.0469 39.625 60.3125 39.625 C59.5 39.625 58.6094 40.1094 57.9688 40.875 C58.0312 37.6875 59.2188 36.6094 60.625 36.6094 C61.25 36.6094 61.8594 36.9062 62.2656 37.3906 L62.9688 36.5938 C62.4062 35.9844 61.6406 35.5469 60.5781 35.5469 C58.5938 35.5469 56.7812 37.0781 56.7812 41.0938 C56.7812 44.4844 58.2344 46.1875 60.2188 46.1875 ZM68.02 46.1875 C70.1606 46.1875 71.5043 44.8906 71.5043 43.2656 C71.5043 41.75 70.5825 41.0469 69.395 40.5312 L67.9262 39.8906 C67.1293 39.5625 66.2387 39.1875 66.2387 38.1875 C66.2387 37.2656 66.9887 36.6719 68.145 36.6719 C69.0981 36.6719 69.8637 37.0469 70.4887 37.6406 L71.1762 36.8125 C70.4418 36.0625 69.3637 35.5469 68.145 35.5469 C66.2856 35.5469 64.9106 36.6875 64.9106 38.2656 C64.9106 39.7656 66.0512 40.5 67.0043 40.9062 L68.4887 41.5469 C69.4575 41.9844 70.1918 42.3125 70.1918 43.375 C70.1918 44.375 69.3793 45.0469 68.0356 45.0469 C66.9731 45.0469 65.9418 44.5469 65.2075 43.7812 L64.4262 44.6562 C65.3168 45.5938 66.5668 46.1875 68.02 46.1875 Z"
    /></g
    ><g style="fill:white; text-rendering:optimizeSpeed; font-family:'Serif'; stroke:white;"
    ><rect x="80" width="5" height="10" y="67" style="stroke:none;"
      /><path d="M81.8906 75.6875 C81.4844 75.6875 81.1562 76.0469 81.1562 76.4219 C81.1562 76.8125 81.4844 77.1562 81.8906 77.1562 C82.2969 77.1562 82.6406 76.8125 82.6406 76.4219 C82.6406 76.0469 82.2969 75.6875 81.8906 75.6875 ZM83.4688 69.5781 C83.7188 69.8906 83.875 70.2656 83.8906 70.6562 C83.8906 71.1875 83.625 71.5 83.0312 71.7656 L82.4062 72.0156 C81.6406 72.3125 81.3906 72.5469 81.3906 72.9375 C81.3906 73.1094 81.4531 73.3438 81.5781 73.8125 L81.7344 74.3438 L82.1094 74.3438 L82.0938 73.5312 C82.0938 73.0938 82.2031 72.9688 82.7812 72.7344 L83.2031 72.5625 C84.0312 72.2188 84.4531 71.6875 84.4531 70.8438 C84.4531 69.1562 82.6562 68.1875 81.5 68.0312 C81.1094 68.125 80.9062 68.2969 80.9062 68.6406 C80.9062 68.9375 81.0625 69.1562 81.7188 69.2656 L83.4688 69.5781 Z" style="fill:black; stroke:none;"
    /></g
  ></g
></svg
>
