<?xml version="1.0"?>
<!DOCTYPE svg PUBLIC '-//W3C//DTD SVG 1.0//EN'
          'http://www.w3.org/TR/2001/REC-SVG-20010904/DTD/svg10.dtd'>
<svg xmlns:xlink="http://www.w3.org/1999/xlink" style="fill-opacity:1; color-rendering:auto; color-interpolation:auto; text-rendering:auto; stroke:black; stroke-linecap:square; stroke-miterlimit:10; shape-rendering:auto; stroke-opacity:1; fill:black; stroke-dasharray:none; font-weight:normal; stroke-width:1; font-family:'Dialog'; font-style:normal; stroke-linejoin:miter; font-size:12px; stroke-dashoffset:0; image-rendering:auto;" viewBox="0 0 147 186" xmlns="http://www.w3.org/2000/svg"
><!--Generated by the Batik Graphics2D SVG Generator--><defs id="genericDefs"
  /><g
  ><defs id="defs1"
    ><clipPath clipPathUnits="userSpaceOnUse" id="clipPath1"
      ><path d="M73 145 C73 151.0751 68.0751 156 62 156 C55.9249 156 51 151.0751 51 145 C51 138.9249 55.9249 134 62 134 C68.0751 134 73 138.9249 73 145 Z"
      /></clipPath
      ><clipPath clipPathUnits="userSpaceOnUse" id="clipPath2"
      ><path style="fill-rule:evenodd;" d="M62 82 L73 93 L62 104 L51 93 Z"
      /></clipPath
    ></defs
    ><g style="fill:white; text-rendering:optimizeSpeed; stroke:white;"
    ><rect x="0" width="147" height="186" y="0" style="stroke:none;"
      /><circle style="clip-path:url(#clipPath1); stroke:none;" r="11" cx="62" cy="145"
      /><rect x="51" y="134" width="22" style="clip-path:url(#clipPath1); stroke:none;" height="22"
      /><rect x="51" y="134" width="22" style="clip-path:url(#clipPath1); fill:none; stroke:black;" height="22"
      /><circle style="fill:none; stroke:black;" r="11" cx="62" cy="145"
      /><rect x="78" y="132" width="5" style="stroke:none;" height="10"
    /></g
    ><g style="font-family:'Serif'; text-rendering:optimizeSpeed; "
    ><path style="stroke:none;" d="M79.8906 140.6875 C79.4844 140.6875 79.1562 141.0469 79.1562 141.4219 C79.1562 141.8125 79.4844 142.1562 79.8906 142.1562 C80.2969 142.1562 80.6406 141.8125 80.6406 141.4219 C80.6406 141.0469 80.2969 140.6875 79.8906 140.6875 ZM81.4688 134.5781 C81.7188 134.8906 81.875 135.2656 81.8906 135.6562 C81.8906 136.1875 81.625 136.5 81.0312 136.7656 L80.4062 137.0156 C79.6406 137.3125 79.3906 137.5469 79.3906 137.9375 C79.3906 138.1094 79.4531 138.3438 79.5781 138.8125 L79.7344 139.3438 L80.1094 139.3438 L80.0938 138.5312 C80.0938 138.0938 80.2031 137.9688 80.7812 137.7344 L81.2031 137.5625 C82.0312 137.2188 82.4531 136.6875 82.4531 135.8438 C82.4531 134.1562 80.6562 133.1875 79.5 133.0312 C79.1094 133.125 78.9062 133.2969 78.9062 133.6406 C78.9062 133.9375 79.0625 134.1562 79.7188 134.2656 L81.4688 134.5781 Z"
      /><rect x="78" y="148" width="5" style="fill:white; stroke:none;" height="10"
      /><path style="stroke:none;" d="M79.8906 156.6875 C79.4844 156.6875 79.1562 157.0469 79.1562 157.4219 C79.1562 157.8125 79.4844 158.1562 79.8906 158.1562 C80.2969 158.1562 80.6406 157.8125 80.6406 157.4219 C80.6406 157.0469 80.2969 156.6875 79.8906 156.6875 ZM81.4688 150.5781 C81.7188 150.8906 81.875 151.2656 81.8906 151.6562 C81.8906 152.1875 81.625 152.5 81.0312 152.7656 L80.4062 153.0156 C79.6406 153.3125 79.3906 153.5469 79.3906 153.9375 C79.3906 154.1094 79.4531 154.3438 79.5781 154.8125 L79.7344 155.3438 L80.1094 155.3438 L80.0938 154.5312 C80.0938 154.0938 80.2031 153.9688 80.7812 153.7344 L81.2031 153.5625 C82.0312 153.2188 82.4531 152.6875 82.4531 151.8438 C82.4531 150.1562 80.6562 149.1875 79.5 149.0312 C79.1094 149.125 78.9062 149.2969 78.9062 149.6406 C78.9062 149.9375 79.0625 150.1562 79.7188 150.2656 L81.4688 150.5781 Z"
      /><path style="stroke:none;" d="M33.6094 150 L40.0625 150 L40.0625 148.8906 L37.2344 148.8906 C36.7031 148.8906 36.0781 148.9531 35.5469 148.9844 C37.9531 146.7031 39.5625 144.625 39.5625 142.5781 C39.5625 140.75 38.4219 139.5469 36.5781 139.5469 C35.2812 139.5469 34.4062 140.1406 33.5625 141.0469 L34.2969 141.7812 C34.8594 141.1094 35.5938 140.5938 36.4375 140.5938 C37.7031 140.5938 38.3125 141.4531 38.3125 142.625 C38.3125 144.3906 36.8438 146.4375 33.6094 149.25 L33.6094 150 ZM40.9731 150 L42.3168 150 L43.3481 148.2188 C43.6137 147.7656 43.8637 147.2969 44.1293 146.8594 L44.2075 146.8594 C44.4731 147.2969 44.7543 147.7656 45.0043 148.2188 L46.1293 150 L47.5356 150 L45.02 146.1562 L47.3325 142.3906 L46.0043 142.3906 L45.0668 144.0625 C44.8481 144.5 44.6137 144.9219 44.3793 145.3438 L44.3325 145.3438 C44.0668 144.9219 43.8012 144.5 43.5668 144.0625 L42.5512 142.3906 L41.1762 142.3906 L43.4887 146.0312 L40.9731 150 Z"
    /></g
    ><g style="fill:white; text-rendering:optimizeSpeed; font-size:14px; font-family:'SansSerif'; stroke:white;"
    ><polygon style="stroke:none; clip-path:url(#clipPath2);" points=" 62 82 73 93 62 104 51 93"
      /><rect x="51" y="82" width="22" style="clip-path:url(#clipPath2); stroke:none;" height="11"
      /><rect x="51" y="82" width="22" style="clip-path:url(#clipPath2); fill:none; stroke:black;" height="11"
      /><polygon style="fill:none; stroke:black;" points=" 62 82 73 93 62 104 51 93"
      /><rect x="78" width="5" height="10" y="80" style="stroke:none;"
    /></g
    ><g style="font-family:'Serif'; text-rendering:optimizeSpeed; "
    ><path style="stroke:none;" d="M79.8906 88.6875 C79.4844 88.6875 79.1562 89.0469 79.1562 89.4219 C79.1562 89.8125 79.4844 90.1562 79.8906 90.1562 C80.2969 90.1562 80.6406 89.8125 80.6406 89.4219 C80.6406 89.0469 80.2969 88.6875 79.8906 88.6875 ZM81.4688 82.5781 C81.7188 82.8906 81.875 83.2656 81.8906 83.6562 C81.8906 84.1875 81.625 84.5 81.0312 84.7656 L80.4062 85.0156 C79.6406 85.3125 79.3906 85.5469 79.3906 85.9375 C79.3906 86.1094 79.4531 86.3438 79.5781 86.8125 L79.7344 87.3438 L80.1094 87.3438 L80.0938 86.5312 C80.0938 86.0938 80.2031 85.9688 80.7812 85.7344 L81.2031 85.5625 C82.0312 85.2188 82.4531 84.6875 82.4531 83.8438 C82.4531 82.1562 80.6562 81.1875 79.5 81.0312 C79.1094 81.125 78.9062 81.2969 78.9062 81.6406 C78.9062 81.9375 79.0625 82.1562 79.7188 82.2656 L81.4688 82.5781 Z"
      /><rect x="78" y="96" width="5" style="fill:white; stroke:none;" height="10"
      /><path style="stroke:none;" d="M79.8906 104.6875 C79.4844 104.6875 79.1562 105.0469 79.1562 105.4219 C79.1562 105.8125 79.4844 106.1562 79.8906 106.1562 C80.2969 106.1562 80.6406 105.8125 80.6406 105.4219 C80.6406 105.0469 80.2969 104.6875 79.8906 104.6875 ZM81.4688 98.5781 C81.7188 98.8906 81.875 99.2656 81.8906 99.6562 C81.8906 100.1875 81.625 100.5 81.0312 100.7656 L80.4062 101.0156 C79.6406 101.3125 79.3906 101.5469 79.3906 101.9375 C79.3906 102.1094 79.4531 102.3438 79.5781 102.8125 L79.7344 103.3438 L80.1094 103.3438 L80.0938 102.5312 C80.0938 102.0938 80.2031 101.9688 80.7812 101.7344 L81.2031 101.5625 C82.0312 101.2188 82.4531 100.6875 82.4531 99.8438 C82.4531 98.1562 80.6562 97.1875 79.5 97.0312 C79.1094 97.125 78.9062 97.2969 78.9062 97.6406 C78.9062 97.9375 79.0625 98.1562 79.7188 98.2656 L81.4688 98.5781 Z"
      /><path style="stroke:none;" d="M33.6094 98 L40.0625 98 L40.0625 96.8906 L37.2344 96.8906 C36.7031 96.8906 36.0781 96.9531 35.5469 96.9844 C37.9531 94.7031 39.5625 92.625 39.5625 90.5781 C39.5625 88.75 38.4219 87.5469 36.5781 87.5469 C35.2812 87.5469 34.4062 88.1406 33.5625 89.0469 L34.2969 89.7812 C34.8594 89.1094 35.5938 88.5938 36.4375 88.5938 C37.7031 88.5938 38.3125 89.4531 38.3125 90.625 C38.3125 92.3906 36.8438 94.4375 33.6094 97.25 L33.6094 98 ZM40.9731 98 L42.3168 98 L43.3481 96.2188 C43.6137 95.7656 43.8637 95.2969 44.1293 94.8594 L44.2075 94.8594 C44.4731 95.2969 44.7543 95.7656 45.0043 96.2188 L46.1293 98 L47.5356 98 L45.02 94.1562 L47.3325 90.3906 L46.0043 90.3906 L45.0668 92.0625 C44.8481 92.5 44.6137 92.9219 44.3793 93.3438 L44.3325 93.3438 C44.0668 92.9219 43.8012 92.5 43.5668 92.0625 L42.5512 90.3906 L41.1762 90.3906 L43.4887 94.0312 L40.9731 98 Z"
    /></g
    ><g style="fill:white; text-rendering:optimizeSpeed; font-size:14px; font-family:'SansSerif'; stroke:white;"
    ><rect x="47" width="24" height="10" y="35" style="stroke:none;"
      /><path d="M49.4844 42.9062 L50.625 42.9062 C50.375 40.7031 52.8906 39.875 52.8906 37.8281 C52.8906 36.2969 51.8594 35.3281 50.2812 35.3281 C49.1406 35.3281 48.25 35.875 47.6094 36.625 L48.3281 37.2969 C48.8125 36.7344 49.4375 36.3906 50.1406 36.3906 C51.125 36.3906 51.6406 37.0625 51.6406 37.9062 C51.6406 39.5781 49.1719 40.4688 49.4844 42.9062 ZM50.0938 46.1875 C50.6094 46.1875 51.0312 45.7969 51.0312 45.2188 C51.0312 44.625 50.6094 44.2188 50.0938 44.2188 C49.5938 44.2188 49.1719 44.625 49.1719 45.2188 C49.1719 45.7969 49.5938 46.1875 50.0938 46.1875 ZM55.0422 46 L56.2141 46 L56.2141 40.3125 C56.2141 39.4375 56.1203 38.1875 56.0578 37.2969 L56.1203 37.2969 L56.9328 39.625 L58.8703 44.9688 L59.7453 44.9688 L61.6828 39.625 L62.4953 37.2969 L62.5578 37.2969 C62.4797 38.1875 62.386 39.4375 62.386 40.3125 L62.386 46 L63.6047 46 L63.6047 35.7188 L62.0422 35.7188 L60.0735 41.2188 C59.8391 41.9375 59.6203 42.6562 59.3703 43.375 L59.3078 43.375 C59.0578 42.6562 58.8235 41.9375 58.5735 41.2188 L56.6047 35.7188 L55.0422 35.7188 L55.0422 46 ZM69.3633 46.1875 C70.3945 46.1875 71.207 45.8281 71.8789 45.3906 L71.4102 44.5625 C70.8633 44.9375 70.2539 45.1562 69.5195 45.1562 C68.0664 45.1562 67.082 44.125 66.9883 42.5 L72.1133 42.5 C72.1445 42.3125 72.1758 42.0469 72.1758 41.7656 C72.1758 39.6094 71.082 38.2031 69.1445 38.2031 C67.3789 38.2031 65.7227 39.7344 65.7227 42.2031 C65.7227 44.7188 67.3477 46.1875 69.3633 46.1875 ZM66.9727 41.5781 C67.1289 40.0938 68.082 39.2188 69.1602 39.2188 C70.3477 39.2188 71.0508 40.0469 71.0508 41.5781 L66.9727 41.5781 Z" style="fill:black; stroke:none;"
      /><path d="M32.7031 46.1875 C34.5156 46.1875 35.9844 45.0938 35.9844 43.25 C35.9844 41.8594 35.0156 40.9375 33.8125 40.6562 L33.8125 40.5938 C34.8906 40.1875 35.6406 39.3594 35.6406 38.125 C35.6406 36.5 34.375 35.5469 32.6562 35.5469 C31.4688 35.5469 30.5469 36.0625 29.7812 36.7812 L30.4688 37.5938 C31.0469 37 31.7656 36.5938 32.5938 36.5938 C33.6562 36.5938 34.3281 37.2344 34.3281 38.2188 C34.3281 39.3281 33.6094 40.1719 31.4844 40.1719 L31.4844 41.1562 C33.8594 41.1562 34.6875 41.9844 34.6875 43.2031 C34.6875 44.3906 33.8125 45.125 32.5938 45.125 C31.4375 45.125 30.6562 44.5781 30.0469 43.9375 L29.4062 44.7812 C30.0781 45.5156 31.0938 46.1875 32.7031 46.1875 ZM36.9731 46 L38.3168 46 L39.3481 44.2188 C39.6137 43.7656 39.8637 43.2969 40.1293 42.8594 L40.2075 42.8594 C40.4731 43.2969 40.7543 43.7656 41.0043 44.2188 L42.1293 46 L43.5356 46 L41.02 42.1562 L43.3325 38.3906 L42.0043 38.3906 L41.0668 40.0625 C40.8481 40.5 40.6137 40.9219 40.3793 41.3438 L40.3325 41.3438 C40.0668 40.9219 39.8012 40.5 39.5668 40.0625 L38.5512 38.3906 L37.1762 38.3906 L39.4887 42.0312 L36.9731 46 Z" style="fill:black; stroke:none;"
    /></g
  ></g
></svg
>
