<?xml version="1.0"?>
<!DOCTYPE svg PUBLIC '-//W3C//DTD SVG 1.0//EN'
          'http://www.w3.org/TR/2001/REC-SVG-20010904/DTD/svg10.dtd'>
<svg xmlns:xlink="http://www.w3.org/1999/xlink" style="fill-opacity:1; color-rendering:auto; color-interpolation:auto; text-rendering:auto; stroke:black; stroke-linecap:square; stroke-miterlimit:10; shape-rendering:auto; stroke-opacity:1; fill:black; stroke-dasharray:none; font-weight:normal; stroke-width:1; font-family:'Dialog'; font-style:normal; stroke-linejoin:miter; font-size:12px; stroke-dashoffset:0; image-rendering:auto;" viewBox="0 0 394 186" xmlns="http://www.w3.org/2000/svg"
><!--Generated by the Batik Graphics2D SVG Generator--><defs id="genericDefs"
  /><g
  ><defs id="defs1"
    ><clipPath clipPathUnits="userSpaceOnUse" id="clipPath1"
      ><path d="M290 95 L312 95 L312 117 L290 117 L290 95 Z"
      /></clipPath
      ><clipPath clipPathUnits="userSpaceOnUse" id="clipPath2"
      ><path d="M238 95 L260 95 L260 117 L238 117 L238 95 Z"
      /></clipPath
      ><clipPath clipPathUnits="userSpaceOnUse" id="clipPath3"
      ><path d="M208 106 C208 112.0751 203.0751 117 197 117 C190.9249 117 186 112.0751 186 106 C186 99.9249 190.9249 95 197 95 C203.0751 95 208 99.9249 208 106 Z"
      /></clipPath
      ><clipPath clipPathUnits="userSpaceOnUse" id="clipPath4"
      ><path d="M156 145 C156 151.0751 151.0751 156 145 156 C138.9249 156 134 151.0751 134 145 C134 138.9249 138.9249 134 145 134 C151.0751 134 156 138.9249 156 145 Z"
      /></clipPath
      ><clipPath clipPathUnits="userSpaceOnUse" id="clipPath5"
      ><path d="M82 134 L104 134 L104 156 L82 156 L82 134 Z"
      /></clipPath
      ><clipPath clipPathUnits="userSpaceOnUse" id="clipPath6"
      ><path d="M52 145 C52 151.0751 47.0751 156 41 156 C34.9249 156 30 151.0751 30 145 C30 138.9249 34.9249 134 41 134 C47.0751 134 52 138.9249 52 145 Z"
      /></clipPath
      ><clipPath clipPathUnits="userSpaceOnUse" id="clipPath7"
      ><path d="M156 67 C156 73.0751 151.0751 78 145 78 C138.9249 78 134 73.0751 134 67 C134 60.9249 138.9249 56 145 56 C151.0751 56 156 60.9249 156 67 Z"
      /></clipPath
      ><clipPath clipPathUnits="userSpaceOnUse" id="clipPath8"
      ><path d="M104 93 C104 99.0751 99.0751 104 93 104 C86.9249 104 82 99.0751 82 93 C82 86.9249 86.9249 82 93 82 C99.0751 82 104 86.9249 104 93 Z"
      /></clipPath
      ><clipPath clipPathUnits="userSpaceOnUse" id="clipPath9"
      ><path d="M104 41 C104 47.0751 99.0751 52 93 52 C86.9249 52 82 47.0751 82 41 C82 34.9249 86.9249 30 93 30 C99.0751 30 104 34.9249 104 41 Z"
      /></clipPath
      ><clipPath clipPathUnits="userSpaceOnUse" id="clipPath10"
      ><path style="fill-rule:evenodd;" d="M301 65 L290 43 L312 43 Z"
      /></clipPath
    ></defs
    ><g style="fill:white; text-rendering:optimizeSpeed; stroke:white;"
    ><rect x="0" width="394" height="186" y="0" style="stroke:none;"
      /><polygon style="fill:none; stroke:black;" points=" 353 106 301 106"
      /><path d="M353 95 C347.5 100.5 358.5 111.5 353 117" style="fill:none; stroke:black;"
      /><polygon style="fill:none; stroke:black;" points=" 301 106 249 106"
      /><polygon style="fill:none; stroke:black;" points=" 301 106 301 54"
      /><rect x="290" y="95" width="22" style="clip-path:url(#clipPath1); stroke:none;" height="22"
      /><rect x="290" y="95" width="22" style="clip-path:url(#clipPath1); fill:rgb(0,144,188); stroke:none;" height="22"
      /><rect x="290" y="95" width="22" style="clip-path:url(#clipPath1); fill:none; stroke:black;" height="22"
      /><rect x="290" y="95" width="22" style="fill:none; stroke:black;" height="22"
      /><polygon style="fill:none; stroke:black;" points=" 249 106 197 106"
      /><rect x="238" y="95" width="22" style="clip-path:url(#clipPath2); stroke:none;" height="22"
      /><rect x="238" y="95" width="22" style="clip-path:url(#clipPath2); fill:rgb(0,144,188); stroke:none;" height="22"
      /><rect x="238" y="95" width="22" style="clip-path:url(#clipPath2); fill:none; stroke:black;" height="22"
      /><rect x="238" y="95" width="22" style="fill:none; stroke:black;" height="22"
      /><polygon style="fill:none; stroke:black;" points=" 197 106 145 145"
      /><polygon style="fill:none; stroke:black;" points=" 197 106 145 67"
      /><circle style="clip-path:url(#clipPath3); stroke:none;" r="11" cx="197" cy="106"
      /><rect x="186" y="95" width="22" style="clip-path:url(#clipPath3); fill:rgb(0,166,81); stroke:none;" height="22"
      /><rect x="186" y="95" width="22" style="clip-path:url(#clipPath3); fill:none; stroke:black;" height="22"
      /><circle style="fill:none; stroke:black;" r="11" cx="197" cy="106"
      /><polygon style="fill:none; stroke:black;" points=" 145 145 93 145"
      /><circle style="clip-path:url(#clipPath4); stroke:none;" r="11" cx="145" cy="145"
      /><rect x="134" y="134" width="22" style="clip-path:url(#clipPath4); fill:rgb(0,166,81); stroke:none;" height="22"
      /><rect x="134" y="134" width="22" style="clip-path:url(#clipPath4); fill:none; stroke:black;" height="22"
      /><circle style="fill:none; stroke:black;" r="11" cx="145" cy="145"
      /><polygon style="fill:none; stroke:black;" points=" 93 145 41 145"
      /><rect x="82" y="134" width="22" style="clip-path:url(#clipPath5); stroke:none;" height="22"
      /><rect x="82" y="134" width="22" style="clip-path:url(#clipPath5); fill:rgb(0,144,188); stroke:none;" height="22"
      /><rect x="82" y="134" width="22" style="clip-path:url(#clipPath5); fill:none; stroke:black;" height="22"
      /><rect x="82" y="134" width="22" style="fill:none; stroke:black;" height="22"
      /><circle style="clip-path:url(#clipPath6); stroke:none;" r="11" cx="41" cy="145"
      /><rect x="30" y="134" width="22" style="clip-path:url(#clipPath6); fill:rgb(255,212,0); stroke:none;" height="22"
      /><rect x="30" y="134" width="22" style="clip-path:url(#clipPath6); fill:none; stroke:black;" height="22"
      /><circle style="fill:none; stroke:black;" r="11" cx="41" cy="145"
      /><rect x="70" y="148" width="7" style="stroke:none;" height="9"
    /></g
    ><g style="font-family:'Serif'; text-rendering:optimizeSpeed; "
    ><path style="stroke:none;" d="M71 153.5156 L73.9531 149.2656 L73.9531 153.5156 L71 153.5156 ZM76.2812 153.5156 L74.8594 153.5156 L74.8594 148.125 L74.2344 148.125 L70.3438 153.6406 L70.3438 154.1875 L73.9531 154.1875 L73.9531 157 L74.8594 157 L74.8594 154.1875 L76.2812 154.1875 L76.2812 153.5156 Z"
      /><rect x="57" y="146" width="6" style="fill:white; stroke:none;" height="13"
      /><path style="stroke:none;" d="M59.0938 152.2031 C59.0938 150.6562 59.75 149.8125 60.7969 149.8125 C61.7188 149.8125 62.2656 150.4531 62.2656 151.5156 C62.2656 152.7188 61.5 153.4375 60.1875 153.7031 L60.2969 154.3125 C62.2188 154.2344 62.9375 155.2188 62.9375 156.4375 C62.9375 157.625 62.2344 158.4219 60.9531 158.4219 C60.25 158.4219 59.6562 158.1562 59.0938 157.7188 L59.0938 152.2031 ZM58.2031 158.9062 L58.1094 161.375 L58.2656 161.4844 L59.1562 161.2656 L59.0156 158.0938 C59.5469 158.8438 60.3594 159.1719 61.1719 159.1719 C62.5625 159.1719 63.8594 158.2188 63.8594 156.4844 C63.8594 154.9531 62.875 154.1094 61.125 154 C62.5625 153.6094 63.1875 152.4531 63.1875 151.4844 C63.1875 150.0938 62.1562 149.3125 60.9062 149.3125 C59.2969 149.3125 58.2188 150.5469 58.2188 152.5156 L58.2031 158.9062 Z"
      /><rect x="123" y="148" width="6" style="fill:white; stroke:none;" height="9"
      /><path style="stroke:none;" d="M124.4219 156.0938 C125.0781 155.375 125.7031 154.7188 126.0312 154.3438 C127.9219 152.3125 128.5312 151.4688 128.5312 150.3594 C128.5312 149.0156 127.7812 148.0781 126.1562 148.0781 C124.9062 148.0781 123.7969 148.7031 123.5938 149.9688 C123.7188 150.2031 123.9062 150.3438 124.1562 150.3438 C124.4688 150.3438 124.6562 150.1094 124.7969 149.5938 L125.0938 148.6719 C125.3906 148.5938 125.6562 148.5625 125.8906 148.5625 C126.9219 148.5625 127.5469 149.3125 127.5469 150.4219 C127.5469 151.4375 126.9844 152.4219 125.7031 153.9062 C125.125 154.5781 124.3906 155.4375 123.6406 156.2812 L123.6406 157 L128.9219 157 L128.9219 156.0938 L124.4219 156.0938 Z"
      /><rect x="109" y="146" width="6" style="fill:white; stroke:none;" height="13"
      /><path style="stroke:none;" d="M111.0938 152.2031 C111.0938 150.6562 111.75 149.8125 112.7969 149.8125 C113.7188 149.8125 114.2656 150.4531 114.2656 151.5156 C114.2656 152.7188 113.5 153.4375 112.1875 153.7031 L112.2969 154.3125 C114.2188 154.2344 114.9375 155.2188 114.9375 156.4375 C114.9375 157.625 114.2344 158.4219 112.9531 158.4219 C112.25 158.4219 111.6562 158.1562 111.0938 157.7188 L111.0938 152.2031 ZM110.2031 158.9062 L110.1094 161.375 L110.2656 161.4844 L111.1562 161.2656 L111.0156 158.0938 C111.5469 158.8438 112.3594 159.1719 113.1719 159.1719 C114.5625 159.1719 115.8594 158.2188 115.8594 156.4844 C115.8594 154.9531 114.875 154.1094 113.125 154 C114.5625 153.6094 115.1875 152.4531 115.1875 151.4844 C115.1875 150.0938 114.1562 149.3125 112.9062 149.3125 C111.2969 149.3125 110.2188 150.5469 110.2188 152.5156 L110.2031 158.9062 Z"
      /><polygon style="fill:none;" points=" 145 67 93 93"
      /><polygon style="fill:none;" points=" 145 67 93 41"
      /><circle style="fill:white; clip-path:url(#clipPath7); stroke:none;" r="11" cx="145" cy="67"
      /><rect x="134" y="56" width="22" style="clip-path:url(#clipPath7); fill:rgb(0,166,81); stroke:none;" height="22"
      /><rect x="134" y="56" width="22" style="fill:none; clip-path:url(#clipPath7);" height="22"
      /><circle r="11" style="fill:none;" cx="145" cy="67"
      /><circle style="fill:white; clip-path:url(#clipPath8); stroke:none;" r="11" cx="93" cy="93"
      /><rect x="82" y="82" width="22" style="clip-path:url(#clipPath8); fill:rgb(0,166,81); stroke:none;" height="22"
      /><rect x="82" y="82" width="22" style="fill:none; clip-path:url(#clipPath8);" height="22"
      /><circle r="11" style="fill:none;" cx="93" cy="93"
      /><circle style="fill:white; clip-path:url(#clipPath9); stroke:none;" r="11" cx="93" cy="41"
      /><rect x="82" y="30" width="22" style="clip-path:url(#clipPath9); fill:rgb(0,166,81); stroke:none;" height="22"
      /><rect x="82" y="30" width="22" style="fill:none; clip-path:url(#clipPath9);" height="22"
      /><circle r="11" style="fill:none;" cx="93" cy="41"
      /><rect x="127" y="78" width="6" style="fill:white; stroke:none;" height="10"
      /><path style="stroke:none;" d="M129.2344 79.6562 C129.5156 79.5938 129.7656 79.5625 130.0156 79.5625 C131.0625 79.5625 131.6719 80.1719 131.6719 81.2656 C131.6719 82.4375 130.9062 83.1094 129.7031 83.1094 L129.1875 83.1094 L129.1875 83.6406 L129.7969 83.6406 C131.2188 83.6406 131.9062 84.4219 131.9062 85.6406 C131.9062 86.8438 131.1719 87.6875 129.875 87.6875 C129.6094 87.6875 129.3125 87.6562 129.0156 87.5625 L128.7812 86.8125 C128.625 86.2812 128.5 86.0469 128.1406 86.0469 C127.8906 86.0469 127.7031 86.1719 127.5781 86.4219 C127.8438 87.6406 128.7812 88.1719 130.0312 88.1719 C131.7188 88.1719 132.875 87.125 132.875 85.7031 C132.875 84.5 132.2031 83.625 130.7969 83.375 C131.9531 83.0156 132.6094 82.2031 132.6094 81.2031 C132.6094 79.9219 131.6719 79.0781 130.1875 79.0781 C129.0469 79.0781 128.0625 79.5938 127.7969 80.6875 C127.9062 81 128.1094 81.1094 128.3594 81.1094 C128.7344 81.1094 128.8906 80.8906 129 80.4062 L129.2344 79.6562 Z"
      /><rect x="110" y="87" width="8" style="fill:white; stroke:none;" height="8"
      /><path style="stroke:none;" d="M114.9844 92.7031 C114.9375 93.8906 114.1562 94.6562 113.3125 94.6562 C112.2656 94.6562 111.5 93.6875 111.5 91.7188 C111.5 90.2812 112.1562 89.1562 113.3438 89.1562 C114.1406 89.1562 114.7812 89.6875 115.0938 90.6406 L114.9844 92.7031 ZM116.9062 94.2812 C116.7344 94.375 116.5469 94.4219 116.3438 94.4219 C115.9531 94.4219 115.75 94.2188 115.75 93.4219 C115.75 92.4844 115.9688 90.5312 116.1875 88.8281 L116.0312 88.7188 L115.2344 88.9219 L115.1406 89.7969 C114.7812 89.0312 114.1562 88.6562 113.3906 88.6562 C112.0469 88.6562 110.5625 89.8438 110.5625 91.9531 C110.5625 94.0938 111.7188 95.1719 113.1406 95.1719 C114.0156 95.1719 114.6875 94.8125 115.0938 93.9844 C115.2031 94.8594 115.5156 95.1719 116.0156 95.1719 C116.4688 95.1719 116.7969 94.9062 117.0156 94.5625 L116.9062 94.2812 Z"
      /><rect x="120" y="60" width="6" style="fill:white; stroke:none;" height="10"
      /><path style="stroke:none;" d="M123.3438 69.6875 C122.2031 69.6875 121.5312 68.5 121.5312 66.2969 C121.5312 66.2188 121.5312 66.125 121.5312 66.0469 C122.0938 65.5 122.7188 65.3125 123.3438 65.3125 C124.3125 65.3125 124.9531 65.9844 124.9531 67.4531 C124.9531 68.9375 124.3125 69.6875 123.3438 69.6875 ZM125.5312 61.0781 C122.3438 61.4531 120.5625 63.7656 120.5625 66.4531 C120.5625 68.7812 121.6094 70.1719 123.3125 70.1719 C124.8438 70.1719 125.9219 69.1094 125.9219 67.2812 C125.9219 65.6875 124.9688 64.6562 123.5625 64.6562 C122.8281 64.6562 122.1406 64.9844 121.5781 65.5781 C121.7969 63.4062 123.0781 61.9688 125.5938 61.3906 L125.5312 61.0781 Z"
      /><rect x="103" y="53" width="8" style="fill:white; stroke:none;" height="8"
      /><path style="stroke:none;" d="M107.9844 58.7031 C107.9375 59.8906 107.1562 60.6562 106.3125 60.6562 C105.2656 60.6562 104.5 59.6875 104.5 57.7188 C104.5 56.2812 105.1562 55.1562 106.3438 55.1562 C107.1406 55.1562 107.7812 55.6875 108.0938 56.6406 L107.9844 58.7031 ZM109.9062 60.2812 C109.7344 60.375 109.5469 60.4219 109.3438 60.4219 C108.9531 60.4219 108.75 60.2188 108.75 59.4219 C108.75 58.4844 108.9688 56.5312 109.1875 54.8281 L109.0312 54.7188 L108.2344 54.9219 L108.1406 55.7969 C107.7812 55.0312 107.1562 54.6562 106.3906 54.6562 C105.0469 54.6562 103.5625 55.8438 103.5625 57.9531 C103.5625 60.0938 104.7188 61.1719 106.1406 61.1719 C107.0156 61.1719 107.6875 60.8125 108.0938 59.9844 C108.2031 60.8594 108.5156 61.1719 109.0156 61.1719 C109.4688 61.1719 109.7969 60.9062 110.0156 60.5625 L109.9062 60.2812 Z"
      /><rect x="181" y="120" width="6" style="fill:white; stroke:none;" height="10"
      /><path style="stroke:none;" d="M183.2344 121.6562 C183.5156 121.5938 183.7656 121.5625 184.0156 121.5625 C185.0625 121.5625 185.6719 122.1719 185.6719 123.2656 C185.6719 124.4375 184.9062 125.1094 183.7031 125.1094 L183.1875 125.1094 L183.1875 125.6406 L183.7969 125.6406 C185.2188 125.6406 185.9062 126.4219 185.9062 127.6406 C185.9062 128.8438 185.1719 129.6875 183.875 129.6875 C183.6094 129.6875 183.3125 129.6562 183.0156 129.5625 L182.7812 128.8125 C182.625 128.2812 182.5 128.0469 182.1406 128.0469 C181.8906 128.0469 181.7031 128.1719 181.5781 128.4219 C181.8438 129.6406 182.7812 130.1719 184.0312 130.1719 C185.7188 130.1719 186.875 129.125 186.875 127.7031 C186.875 126.5 186.2031 125.625 184.7969 125.375 C185.9531 125.0156 186.6094 124.2031 186.6094 123.2031 C186.6094 121.9219 185.6719 121.0781 184.1875 121.0781 C183.0469 121.0781 182.0625 121.5938 181.7969 122.6875 C181.9062 123 182.1094 123.1094 182.3594 123.1094 C182.7344 123.1094 182.8906 122.8906 183 122.4062 L183.2344 121.6562 Z"
      /><rect x="163" y="134" width="8" style="fill:white; stroke:none;" height="8"
      /><path style="stroke:none;" d="M167.9844 139.7031 C167.9375 140.8906 167.1562 141.6562 166.3125 141.6562 C165.2656 141.6562 164.5 140.6875 164.5 138.7188 C164.5 137.2812 165.1562 136.1562 166.3438 136.1562 C167.1406 136.1562 167.7812 136.6875 168.0938 137.6406 L167.9844 139.7031 ZM169.9062 141.2812 C169.7344 141.375 169.5469 141.4219 169.3438 141.4219 C168.9531 141.4219 168.75 141.2188 168.75 140.4219 C168.75 139.4844 168.9688 137.5312 169.1875 135.8281 L169.0312 135.7188 L168.2344 135.9219 L168.1406 136.7969 C167.7812 136.0312 167.1562 135.6562 166.3906 135.6562 C165.0469 135.6562 163.5625 136.8438 163.5625 138.9531 C163.5625 141.0938 164.7188 142.1719 166.1406 142.1719 C167.0156 142.1719 167.6875 141.8125 168.0938 140.9844 C168.2031 141.8594 168.5156 142.1719 169.0156 142.1719 C169.4688 142.1719 169.7969 141.9062 170.0156 141.5625 L169.9062 141.2812 Z"
      /><rect x="171" y="94" width="6" style="fill:white; stroke:none;" height="10"
      /><path style="stroke:none;" d="M174.3438 103.6875 C173.2031 103.6875 172.5312 102.5 172.5312 100.2969 C172.5312 100.2188 172.5312 100.125 172.5312 100.0469 C173.0938 99.5 173.7188 99.3125 174.3438 99.3125 C175.3125 99.3125 175.9531 99.9844 175.9531 101.4531 C175.9531 102.9375 175.3125 103.6875 174.3438 103.6875 ZM176.5312 95.0781 C173.3438 95.4531 171.5625 97.7656 171.5625 100.4531 C171.5625 102.7812 172.6094 104.1719 174.3125 104.1719 C175.8438 104.1719 176.9219 103.1094 176.9219 101.2812 C176.9219 99.6875 175.9688 98.6562 174.5625 98.6562 C173.8281 98.6562 173.1406 98.9844 172.5781 99.5781 C172.7969 97.4062 174.0781 95.9688 176.5938 95.3906 L176.5312 95.0781 Z"
      /><rect x="153" y="82" width="8" style="fill:white; stroke:none;" height="8"
      /><path style="stroke:none;" d="M157.9844 87.7031 C157.9375 88.8906 157.1562 89.6562 156.3125 89.6562 C155.2656 89.6562 154.5 88.6875 154.5 86.7188 C154.5 85.2812 155.1562 84.1562 156.3438 84.1562 C157.1406 84.1562 157.7812 84.6875 158.0938 85.6406 L157.9844 87.7031 ZM159.9062 89.2812 C159.7344 89.375 159.5469 89.4219 159.3438 89.4219 C158.9531 89.4219 158.75 89.2188 158.75 88.4219 C158.75 87.4844 158.9688 85.5312 159.1875 83.8281 L159.0312 83.7188 L158.2344 83.9219 L158.1406 84.7969 C157.7812 84.0312 157.1562 83.6562 156.3906 83.6562 C155.0469 83.6562 153.5625 84.8438 153.5625 86.9531 C153.5625 89.0938 154.7188 90.1719 156.1406 90.1719 C157.0156 90.1719 157.6875 89.8125 158.0938 88.9844 C158.2031 89.8594 158.5156 90.1719 159.0156 90.1719 C159.4688 90.1719 159.7969 89.9062 160.0156 89.5625 L159.9062 89.2812 Z"
      /><rect x="226" y="109" width="7" style="fill:white; stroke:none;" height="9"
      /><path style="stroke:none;" d="M227 114.5156 L229.9531 110.2656 L229.9531 114.5156 L227 114.5156 ZM232.2812 114.5156 L230.8594 114.5156 L230.8594 109.125 L230.2344 109.125 L226.3438 114.6406 L226.3438 115.1875 L229.9531 115.1875 L229.9531 118 L230.8594 118 L230.8594 115.1875 L232.2812 115.1875 L232.2812 114.5156 Z"
      /><rect x="213" y="107" width="6" style="fill:white; stroke:none;" height="13"
      /><path style="stroke:none;" d="M215.0938 113.2031 C215.0938 111.6562 215.75 110.8125 216.7969 110.8125 C217.7188 110.8125 218.2656 111.4531 218.2656 112.5156 C218.2656 113.7188 217.5 114.4375 216.1875 114.7031 L216.2969 115.3125 C218.2188 115.2344 218.9375 116.2188 218.9375 117.4375 C218.9375 118.625 218.2344 119.4219 216.9531 119.4219 C216.25 119.4219 215.6562 119.1562 215.0938 118.7188 L215.0938 113.2031 ZM214.2031 119.9062 L214.1094 122.375 L214.2656 122.4844 L215.1562 122.2656 L215.0156 119.0938 C215.5469 119.8438 216.3594 120.1719 217.1719 120.1719 C218.5625 120.1719 219.8594 119.2188 219.8594 117.4844 C219.8594 115.9531 218.875 115.1094 217.125 115 C218.5625 114.6094 219.1875 113.4531 219.1875 112.4844 C219.1875 111.0938 218.1562 110.3125 216.9062 110.3125 C215.2969 110.3125 214.2188 111.5469 214.2188 113.5156 L214.2031 119.9062 Z"
      /><polygon style="fill:white; clip-path:url(#clipPath10); stroke:none;" points=" 301 65 290 43 312 43"
      /><rect x="290" y="43" width="22" style="clip-path:url(#clipPath10); fill:rgb(237,28,36); stroke:none;" height="22"
      /><rect x="290" y="43" width="22" style="fill:none; clip-path:url(#clipPath10);" height="22"
      /><polygon style="fill:none;" points=" 301 65 290 43 312 43"
      /><path style="stroke:none;" d="M299 57 L300.875 57 C303.0938 57 304.2969 55.625 304.2969 53.3125 C304.2969 50.9844 303.0938 49.6562 300.8438 49.6562 L299 49.6562 L299 57 ZM299.9375 56.2344 L299.9375 50.4219 L300.7656 50.4219 C302.4844 50.4219 303.3438 51.4531 303.3438 53.3125 C303.3438 55.1562 302.4844 56.2344 300.7656 56.2344 L299.9375 56.2344 Z"
      /><rect x="278" y="109" width="7" style="fill:white; stroke:none;" height="9"
      /><path style="stroke:none;" d="M279 114.5156 L281.9531 110.2656 L281.9531 114.5156 L279 114.5156 ZM284.2812 114.5156 L282.8594 114.5156 L282.8594 109.125 L282.2344 109.125 L278.3438 114.6406 L278.3438 115.1875 L281.9531 115.1875 L281.9531 118 L282.8594 118 L282.8594 115.1875 L284.2812 115.1875 L284.2812 114.5156 Z"
      /><rect x="265" y="107" width="6" style="fill:white; stroke:none;" height="13"
      /><path style="stroke:none;" d="M267.0938 113.2031 C267.0938 111.6562 267.75 110.8125 268.7969 110.8125 C269.7188 110.8125 270.2656 111.4531 270.2656 112.5156 C270.2656 113.7188 269.5 114.4375 268.1875 114.7031 L268.2969 115.3125 C270.2188 115.2344 270.9375 116.2188 270.9375 117.4375 C270.9375 118.625 270.2344 119.4219 268.9531 119.4219 C268.25 119.4219 267.6562 119.1562 267.0938 118.7188 L267.0938 113.2031 ZM266.2031 119.9062 L266.1094 122.375 L266.2656 122.4844 L267.1562 122.2656 L267.0156 119.0938 C267.5469 119.8438 268.3594 120.1719 269.1719 120.1719 C270.5625 120.1719 271.8594 119.2188 271.8594 117.4844 C271.8594 115.9531 270.875 115.1094 269.125 115 C270.5625 114.6094 271.1875 113.4531 271.1875 112.4844 C271.1875 111.0938 270.1562 110.3125 268.9062 110.3125 C267.2969 110.3125 266.2188 111.5469 266.2188 113.5156 L266.2031 119.9062 Z"
      /><rect x="290" y="82" width="6" style="fill:white; stroke:none;" height="10"
      /><path style="stroke:none;" d="M293.3438 91.6875 C292.2031 91.6875 291.5312 90.5 291.5312 88.2969 C291.5312 88.2188 291.5312 88.125 291.5312 88.0469 C292.0938 87.5 292.7188 87.3125 293.3438 87.3125 C294.3125 87.3125 294.9531 87.9844 294.9531 89.4531 C294.9531 90.9375 294.3125 91.6875 293.3438 91.6875 ZM295.5312 83.0781 C292.3438 83.4531 290.5625 85.7656 290.5625 88.4531 C290.5625 90.7812 291.6094 92.1719 293.3125 92.1719 C294.8438 92.1719 295.9219 91.1094 295.9219 89.2812 C295.9219 87.6875 294.9688 86.6562 293.5625 86.6562 C292.8281 86.6562 292.1406 86.9844 291.5781 87.5781 C291.7969 85.4062 293.0781 83.9688 295.5938 83.3906 L295.5312 83.0781 Z"
      /><rect x="289" y="69" width="8" style="fill:white; stroke:none;" height="8"
      /><path style="stroke:none;" d="M293.9844 74.7031 C293.9375 75.8906 293.1562 76.6562 292.3125 76.6562 C291.2656 76.6562 290.5 75.6875 290.5 73.7188 C290.5 72.2812 291.1562 71.1562 292.3438 71.1562 C293.1406 71.1562 293.7812 71.6875 294.0938 72.6406 L293.9844 74.7031 ZM295.9062 76.2812 C295.7344 76.375 295.5469 76.4219 295.3438 76.4219 C294.9531 76.4219 294.75 76.2188 294.75 75.4219 C294.75 74.4844 294.9688 72.5312 295.1875 70.8281 L295.0312 70.7188 L294.2344 70.9219 L294.1406 71.7969 C293.7812 71.0312 293.1562 70.6562 292.3906 70.6562 C291.0469 70.6562 289.5625 71.8438 289.5625 73.9531 C289.5625 76.0938 290.7188 77.1719 292.1406 77.1719 C293.0156 77.1719 293.6875 76.8125 294.0938 75.9844 C294.2031 76.8594 294.5156 77.1719 295.0156 77.1719 C295.4688 77.1719 295.7969 76.9062 296.0156 76.5625 L295.9062 76.2812 Z"
      /><rect x="317" y="107" width="6" style="fill:white; stroke:none;" height="13"
      /><path style="stroke:none;" d="M319.0938 113.2031 C319.0938 111.6562 319.75 110.8125 320.7969 110.8125 C321.7188 110.8125 322.2656 111.4531 322.2656 112.5156 C322.2656 113.7188 321.5 114.4375 320.1875 114.7031 L320.2969 115.3125 C322.2188 115.2344 322.9375 116.2188 322.9375 117.4375 C322.9375 118.625 322.2344 119.4219 320.9531 119.4219 C320.25 119.4219 319.6562 119.1562 319.0938 118.7188 L319.0938 113.2031 ZM318.2031 119.9062 L318.1094 122.375 L318.2656 122.4844 L319.1562 122.2656 L319.0156 119.0938 C319.5469 119.8438 320.3594 120.1719 321.1719 120.1719 C322.5625 120.1719 323.8594 119.2188 323.8594 117.4844 C323.8594 115.9531 322.875 115.1094 321.125 115 C322.5625 114.6094 323.1875 113.4531 323.1875 112.4844 C323.1875 111.0938 322.1562 110.3125 320.9062 110.3125 C319.2969 110.3125 318.2188 111.5469 318.2188 113.5156 L318.2031 119.9062 Z"
    /></g
  ></g
></svg
>
