<?xml version="1.0"?>
<!DOCTYPE svg PUBLIC '-//W3C//DTD SVG 1.0//EN'
          'http://www.w3.org/TR/2001/REC-SVG-20010904/DTD/svg10.dtd'>
<svg xmlns:xlink="http://www.w3.org/1999/xlink" style="fill-opacity:1; color-rendering:auto; color-interpolation:auto; text-rendering:auto; stroke:black; stroke-linecap:square; stroke-miterlimit:10; shape-rendering:auto; stroke-opacity:1; fill:black; stroke-dasharray:none; font-weight:normal; stroke-width:1; font-family:'Dialog'; font-style:normal; stroke-linejoin:miter; font-size:12px; stroke-dashoffset:0; image-rendering:auto;" viewBox="0 0 147 365" xmlns="http://www.w3.org/2000/svg"
><!--Generated by the Batik Graphics2D SVG Generator--><defs id="genericDefs"
  /><g
  ><defs id="defs1"
    ><clipPath clipPathUnits="userSpaceOnUse" id="clipPath1"
      ><path d="M51 290 L73 290 L73 312 L51 312 L51 290 Z"
      /></clipPath
      ><clipPath clipPathUnits="userSpaceOnUse" id="clipPath2"
      ><path d="M73 249 C73 255.0751 68.0751 260 62 260 C55.9249 260 51 255.0751 51 249 C51 242.9249 55.9249 238 62 238 C68.0751 238 73 242.9249 73 249 Z"
      /></clipPath
      ><clipPath clipPathUnits="userSpaceOnUse" id="clipPath3"
      ><path style="fill-rule:evenodd;" d="M62 186 L73 197 L62 208 L51 197 Z"
      /></clipPath
      ><clipPath clipPathUnits="userSpaceOnUse" id="clipPath4"
      ><path style="fill-rule:evenodd;" d="M62 134 L73 145 L62 156 L51 145 Z"
      /></clipPath
    ></defs
    ><g style="fill:white; text-rendering:optimizeSpeed; stroke:white;"
    ><rect x="0" width="147" height="365" y="0" style="stroke:none;"
      /><rect x="51" y="290" width="22" style="clip-path:url(#clipPath1); stroke:none;" height="22"
      /><polygon style="fill:rgb(0,144,188); clip-path:url(#clipPath1); stroke:none;" points=" 51 290 73 290 73 312"
      /><polygon style="fill:none; clip-path:url(#clipPath1); stroke:black;" points=" 51 290 73 290 73 312"
      /><rect x="51" y="290" width="22" style="fill:none; stroke:black;" height="22"
      /><rect x="54" y="318" width="14" style="stroke:none;" height="10"
    /></g
    ><g style="text-rendering:optimizeSpeed; font-size:14px; font-family:'SansSerif';"
    ><path style="stroke:none;" d="M54.6094 329 L61.0625 329 L61.0625 327.8906 L58.2344 327.8906 C57.7031 327.8906 57.0781 327.9531 56.5469 327.9844 C58.9531 325.7031 60.5625 323.625 60.5625 321.5781 C60.5625 319.75 59.4219 318.5469 57.5781 318.5469 C56.2812 318.5469 55.4062 319.1406 54.5625 320.0469 L55.2969 320.7812 C55.8594 320.1094 56.5938 319.5938 57.4375 319.5938 C58.7031 319.5938 59.3125 320.4531 59.3125 321.625 C59.3125 323.3906 57.8438 325.4375 54.6094 328.25 L54.6094 329 ZM66.02 329.1875 C68.1606 329.1875 69.5043 327.8906 69.5043 326.2656 C69.5043 324.75 68.5825 324.0469 67.395 323.5312 L65.9262 322.8906 C65.1293 322.5625 64.2387 322.1875 64.2387 321.1875 C64.2387 320.2656 64.9887 319.6719 66.145 319.6719 C67.0981 319.6719 67.8637 320.0469 68.4887 320.6406 L69.1762 319.8125 C68.4418 319.0625 67.3637 318.5469 66.145 318.5469 C64.2856 318.5469 62.9106 319.6875 62.9106 321.2656 C62.9106 322.7656 64.0512 323.5 65.0043 323.9062 L66.4887 324.5469 C67.4575 324.9844 68.1918 325.3125 68.1918 326.375 C68.1918 327.375 67.3793 328.0469 66.0356 328.0469 C64.9731 328.0469 63.9418 327.5469 63.2075 326.7812 L62.4262 327.6562 C63.3168 328.5938 64.5668 329.1875 66.02 329.1875 Z"
    /></g
    ><g style="fill:white; text-rendering:optimizeSpeed; font-family:'Serif'; stroke:white;"
    ><rect x="78" width="5" height="10" y="288" style="stroke:none;"
      /><path d="M79.8906 296.6875 C79.4844 296.6875 79.1562 297.0469 79.1562 297.4219 C79.1562 297.8125 79.4844 298.1562 79.8906 298.1562 C80.2969 298.1562 80.6406 297.8125 80.6406 297.4219 C80.6406 297.0469 80.2969 296.6875 79.8906 296.6875 ZM81.4688 290.5781 C81.7188 290.8906 81.875 291.2656 81.8906 291.6562 C81.8906 292.1875 81.625 292.5 81.0312 292.7656 L80.4062 293.0156 C79.6406 293.3125 79.3906 293.5469 79.3906 293.9375 C79.3906 294.1094 79.4531 294.3438 79.5781 294.8125 L79.7344 295.3438 L80.1094 295.3438 L80.0938 294.5312 C80.0938 294.0938 80.2031 293.9688 80.7812 293.7344 L81.2031 293.5625 C82.0312 293.2188 82.4531 292.6875 82.4531 291.8438 C82.4531 290.1562 80.6562 289.1875 79.5 289.0312 C79.1094 289.125 78.9062 289.2969 78.9062 289.6406 C78.9062 289.9375 79.0625 290.1562 79.7188 290.2656 L81.4688 290.5781 Z" style="fill:black; stroke:none;"
      /><rect x="78" width="5" height="10" y="304" style="stroke:none;"
      /><path d="M79.8906 312.6875 C79.4844 312.6875 79.1562 313.0469 79.1562 313.4219 C79.1562 313.8125 79.4844 314.1562 79.8906 314.1562 C80.2969 314.1562 80.6406 313.8125 80.6406 313.4219 C80.6406 313.0469 80.2969 312.6875 79.8906 312.6875 ZM81.4688 306.5781 C81.7188 306.8906 81.875 307.2656 81.8906 307.6562 C81.8906 308.1875 81.625 308.5 81.0312 308.7656 L80.4062 309.0156 C79.6406 309.3125 79.3906 309.5469 79.3906 309.9375 C79.3906 310.1094 79.4531 310.3438 79.5781 310.8125 L79.7344 311.3438 L80.1094 311.3438 L80.0938 310.5312 C80.0938 310.0938 80.2031 309.9688 80.7812 309.7344 L81.2031 309.5625 C82.0312 309.2188 82.4531 308.6875 82.4531 307.8438 C82.4531 306.1562 80.6562 305.1875 79.5 305.0312 C79.1094 305.125 78.9062 305.2969 78.9062 305.6406 C78.9062 305.9375 79.0625 306.1562 79.7188 306.2656 L81.4688 306.5781 Z" style="fill:black; stroke:none;"
      /><circle r="11" style="clip-path:url(#clipPath2); stroke:none;" cx="62" cy="249"
      /><rect x="51" y="238" width="22" style="clip-path:url(#clipPath2); fill:rgb(0,144,188); stroke:none;" height="22"
      /><rect x="51" y="238" width="22" style="clip-path:url(#clipPath2); fill:none; stroke:black;" height="22"
      /><circle r="11" style="fill:none; stroke:black;" cx="62" cy="249"
      /><rect x="78" width="5" height="10" y="236" style="stroke:none;"
      /><path d="M79.8906 244.6875 C79.4844 244.6875 79.1562 245.0469 79.1562 245.4219 C79.1562 245.8125 79.4844 246.1562 79.8906 246.1562 C80.2969 246.1562 80.6406 245.8125 80.6406 245.4219 C80.6406 245.0469 80.2969 244.6875 79.8906 244.6875 ZM81.4688 238.5781 C81.7188 238.8906 81.875 239.2656 81.8906 239.6562 C81.8906 240.1875 81.625 240.5 81.0312 240.7656 L80.4062 241.0156 C79.6406 241.3125 79.3906 241.5469 79.3906 241.9375 C79.3906 242.1094 79.4531 242.3438 79.5781 242.8125 L79.7344 243.3438 L80.1094 243.3438 L80.0938 242.5312 C80.0938 242.0938 80.2031 241.9688 80.7812 241.7344 L81.2031 241.5625 C82.0312 241.2188 82.4531 240.6875 82.4531 239.8438 C82.4531 238.1562 80.6562 237.1875 79.5 237.0312 C79.1094 237.125 78.9062 237.2969 78.9062 237.6406 C78.9062 237.9375 79.0625 238.1562 79.7188 238.2656 L81.4688 238.5781 Z" style="fill:black; stroke:none;"
      /><rect x="78" width="5" height="10" y="252" style="stroke:none;"
      /><path d="M79.8906 260.6875 C79.4844 260.6875 79.1562 261.0469 79.1562 261.4219 C79.1562 261.8125 79.4844 262.1562 79.8906 262.1562 C80.2969 262.1562 80.6406 261.8125 80.6406 261.4219 C80.6406 261.0469 80.2969 260.6875 79.8906 260.6875 ZM81.4688 254.5781 C81.7188 254.8906 81.875 255.2656 81.8906 255.6562 C81.8906 256.1875 81.625 256.5 81.0312 256.7656 L80.4062 257.0156 C79.6406 257.3125 79.3906 257.5469 79.3906 257.9375 C79.3906 258.1094 79.4531 258.3438 79.5781 258.8125 L79.7344 259.3438 L80.1094 259.3438 L80.0938 258.5312 C80.0938 258.0938 80.2031 257.9688 80.7812 257.7344 L81.2031 257.5625 C82.0312 257.2188 82.4531 256.6875 82.4531 255.8438 C82.4531 254.1562 80.6562 253.1875 79.5 253.0312 C79.1094 253.125 78.9062 253.2969 78.9062 253.6406 C78.9062 253.9375 79.0625 254.1562 79.7188 254.2656 L81.4688 254.5781 Z" style="fill:black; stroke:none;"
    /></g
    ><g style="text-rendering:optimizeSpeed; font-size:14px; font-family:'SansSerif';"
    ><path style="stroke:none;" d="M33.6094 254 L40.0625 254 L40.0625 252.8906 L37.2344 252.8906 C36.7031 252.8906 36.0781 252.9531 35.5469 252.9844 C37.9531 250.7031 39.5625 248.625 39.5625 246.5781 C39.5625 244.75 38.4219 243.5469 36.5781 243.5469 C35.2812 243.5469 34.4062 244.1406 33.5625 245.0469 L34.2969 245.7812 C34.8594 245.1094 35.5938 244.5938 36.4375 244.5938 C37.7031 244.5938 38.3125 245.4531 38.3125 246.625 C38.3125 248.3906 36.8438 250.4375 33.6094 253.25 L33.6094 254 ZM40.9731 254 L42.3168 254 L43.3481 252.2188 C43.6137 251.7656 43.8637 251.2969 44.1293 250.8594 L44.2075 250.8594 C44.4731 251.2969 44.7543 251.7656 45.0043 252.2188 L46.1293 254 L47.5356 254 L45.02 250.1562 L47.3325 246.3906 L46.0043 246.3906 L45.0668 248.0625 C44.8481 248.5 44.6137 248.9219 44.3793 249.3438 L44.3325 249.3438 C44.0668 248.9219 43.8012 248.5 43.5668 248.0625 L42.5512 246.3906 L41.1762 246.3906 L43.4887 250.0312 L40.9731 254 Z"
      /><polygon style="fill:white; clip-path:url(#clipPath3); stroke:none;" points=" 62 186 73 197 62 208 51 197"
      /><rect x="51" y="186" width="22" style="clip-path:url(#clipPath3); fill:rgb(0,144,188); stroke:none;" height="11"
      /><rect x="51" y="186" width="22" style="fill:none; clip-path:url(#clipPath3);" height="11"
      /><polygon style="fill:none;" points=" 62 186 73 197 62 208 51 197"
    /></g
    ><g style="fill:white; text-rendering:optimizeSpeed; font-family:'Serif'; stroke:white;"
    ><rect x="78" width="5" height="10" y="184" style="stroke:none;"
      /><path d="M79.8906 192.6875 C79.4844 192.6875 79.1562 193.0469 79.1562 193.4219 C79.1562 193.8125 79.4844 194.1562 79.8906 194.1562 C80.2969 194.1562 80.6406 193.8125 80.6406 193.4219 C80.6406 193.0469 80.2969 192.6875 79.8906 192.6875 ZM81.4688 186.5781 C81.7188 186.8906 81.875 187.2656 81.8906 187.6562 C81.8906 188.1875 81.625 188.5 81.0312 188.7656 L80.4062 189.0156 C79.6406 189.3125 79.3906 189.5469 79.3906 189.9375 C79.3906 190.1094 79.4531 190.3438 79.5781 190.8125 L79.7344 191.3438 L80.1094 191.3438 L80.0938 190.5312 C80.0938 190.0938 80.2031 189.9688 80.7812 189.7344 L81.2031 189.5625 C82.0312 189.2188 82.4531 188.6875 82.4531 187.8438 C82.4531 186.1562 80.6562 185.1875 79.5 185.0312 C79.1094 185.125 78.9062 185.2969 78.9062 185.6406 C78.9062 185.9375 79.0625 186.1562 79.7188 186.2656 L81.4688 186.5781 Z" style="fill:black; stroke:none;"
      /><rect x="78" width="5" height="10" y="200" style="stroke:none;"
      /><path d="M79.8906 208.6875 C79.4844 208.6875 79.1562 209.0469 79.1562 209.4219 C79.1562 209.8125 79.4844 210.1562 79.8906 210.1562 C80.2969 210.1562 80.6406 209.8125 80.6406 209.4219 C80.6406 209.0469 80.2969 208.6875 79.8906 208.6875 ZM81.4688 202.5781 C81.7188 202.8906 81.875 203.2656 81.8906 203.6562 C81.8906 204.1875 81.625 204.5 81.0312 204.7656 L80.4062 205.0156 C79.6406 205.3125 79.3906 205.5469 79.3906 205.9375 C79.3906 206.1094 79.4531 206.3438 79.5781 206.8125 L79.7344 207.3438 L80.1094 207.3438 L80.0938 206.5312 C80.0938 206.0938 80.2031 205.9688 80.7812 205.7344 L81.2031 205.5625 C82.0312 205.2188 82.4531 204.6875 82.4531 203.8438 C82.4531 202.1562 80.6562 201.1875 79.5 201.0312 C79.1094 201.125 78.9062 201.2969 78.9062 201.6406 C78.9062 201.9375 79.0625 202.1562 79.7188 202.2656 L81.4688 202.5781 Z" style="fill:black; stroke:none;"
      /><polygon style="stroke:none; clip-path:url(#clipPath4);" points=" 62 134 73 145 62 156 51 145"
    /></g
    ><g style="fill:rgb(161,122,77); text-rendering:optimizeSpeed; font-size:14px; font-family:'SansSerif'; stroke:rgb(161,122,77);"
    ><rect x="51" y="145" width="22" style="clip-path:url(#clipPath4); stroke:none;" height="11"
      /><rect x="51" y="145" width="22" style="clip-path:url(#clipPath4); fill:none; stroke:black;" height="11"
      /><polygon style="fill:none; stroke:black;" points=" 62 134 73 145 62 156 51 145"
    /></g
    ><g style="fill:white; text-rendering:optimizeSpeed; font-family:'Serif'; stroke:white;"
    ><rect x="78" width="5" height="10" y="132" style="stroke:none;"
      /><path d="M79.8906 140.6875 C79.4844 140.6875 79.1562 141.0469 79.1562 141.4219 C79.1562 141.8125 79.4844 142.1562 79.8906 142.1562 C80.2969 142.1562 80.6406 141.8125 80.6406 141.4219 C80.6406 141.0469 80.2969 140.6875 79.8906 140.6875 ZM81.4688 134.5781 C81.7188 134.8906 81.875 135.2656 81.8906 135.6562 C81.8906 136.1875 81.625 136.5 81.0312 136.7656 L80.4062 137.0156 C79.6406 137.3125 79.3906 137.5469 79.3906 137.9375 C79.3906 138.1094 79.4531 138.3438 79.5781 138.8125 L79.7344 139.3438 L80.1094 139.3438 L80.0938 138.5312 C80.0938 138.0938 80.2031 137.9688 80.7812 137.7344 L81.2031 137.5625 C82.0312 137.2188 82.4531 136.6875 82.4531 135.8438 C82.4531 134.1562 80.6562 133.1875 79.5 133.0312 C79.1094 133.125 78.9062 133.2969 78.9062 133.6406 C78.9062 133.9375 79.0625 134.1562 79.7188 134.2656 L81.4688 134.5781 Z" style="fill:black; stroke:none;"
      /><rect x="78" width="5" height="10" y="148" style="stroke:none;"
      /><path d="M79.8906 156.6875 C79.4844 156.6875 79.1562 157.0469 79.1562 157.4219 C79.1562 157.8125 79.4844 158.1562 79.8906 158.1562 C80.2969 158.1562 80.6406 157.8125 80.6406 157.4219 C80.6406 157.0469 80.2969 156.6875 79.8906 156.6875 ZM81.4688 150.5781 C81.7188 150.8906 81.875 151.2656 81.8906 151.6562 C81.8906 152.1875 81.625 152.5 81.0312 152.7656 L80.4062 153.0156 C79.6406 153.3125 79.3906 153.5469 79.3906 153.9375 C79.3906 154.1094 79.4531 154.3438 79.5781 154.8125 L79.7344 155.3438 L80.1094 155.3438 L80.0938 154.5312 C80.0938 154.0938 80.2031 153.9688 80.7812 153.7344 L81.2031 153.5625 C82.0312 153.2188 82.4531 152.6875 82.4531 151.8438 C82.4531 150.1562 80.6562 149.1875 79.5 149.0312 C79.1094 149.125 78.9062 149.2969 78.9062 149.6406 C78.9062 149.9375 79.0625 150.1562 79.7188 150.2656 L81.4688 150.5781 Z" style="fill:black; stroke:none;"
      /><rect x="47" width="24" height="10" y="87" style="stroke:none;"
    /></g
    ><g style="text-rendering:optimizeSpeed; font-size:14px; font-family:'SansSerif';"
    ><path style="stroke:none;" d="M49.4844 94.9062 L50.625 94.9062 C50.375 92.7031 52.8906 91.875 52.8906 89.8281 C52.8906 88.2969 51.8594 87.3281 50.2812 87.3281 C49.1406 87.3281 48.25 87.875 47.6094 88.625 L48.3281 89.2969 C48.8125 88.7344 49.4375 88.3906 50.1406 88.3906 C51.125 88.3906 51.6406 89.0625 51.6406 89.9062 C51.6406 91.5781 49.1719 92.4688 49.4844 94.9062 ZM50.0938 98.1875 C50.6094 98.1875 51.0312 97.7969 51.0312 97.2188 C51.0312 96.625 50.6094 96.2188 50.0938 96.2188 C49.5938 96.2188 49.1719 96.625 49.1719 97.2188 C49.1719 97.7969 49.5938 98.1875 50.0938 98.1875 ZM55.0422 98 L56.2141 98 L56.2141 92.3125 C56.2141 91.4375 56.1203 90.1875 56.0578 89.2969 L56.1203 89.2969 L56.9328 91.625 L58.8703 96.9688 L59.7453 96.9688 L61.6828 91.625 L62.4953 89.2969 L62.5578 89.2969 C62.4797 90.1875 62.386 91.4375 62.386 92.3125 L62.386 98 L63.6047 98 L63.6047 87.7188 L62.0422 87.7188 L60.0735 93.2188 C59.8391 93.9375 59.6203 94.6562 59.3703 95.375 L59.3078 95.375 C59.0578 94.6562 58.8235 93.9375 58.5735 93.2188 L56.6047 87.7188 L55.0422 87.7188 L55.0422 98 ZM69.3633 98.1875 C70.3945 98.1875 71.207 97.8281 71.8789 97.3906 L71.4102 96.5625 C70.8633 96.9375 70.2539 97.1562 69.5195 97.1562 C68.0664 97.1562 67.082 96.125 66.9883 94.5 L72.1133 94.5 C72.1445 94.3125 72.1758 94.0469 72.1758 93.7656 C72.1758 91.6094 71.082 90.2031 69.1445 90.2031 C67.3789 90.2031 65.7227 91.7344 65.7227 94.2031 C65.7227 96.7188 67.3477 98.1875 69.3633 98.1875 ZM66.9727 93.5781 C67.1289 92.0938 68.082 91.2188 69.1602 91.2188 C70.3477 91.2188 71.0508 92.0469 71.0508 93.5781 L66.9727 93.5781 Z"
      /><path style="stroke:none;" d="M30.6094 93.1562 L32.9531 89.6562 C33.2344 89.1406 33.5156 88.6406 33.7812 88.1406 L33.8281 88.1406 C33.7969 88.6719 33.7656 89.5 33.7656 90 L33.7656 93.1562 L30.6094 93.1562 ZM33.7656 97 L34.9688 97 L34.9688 94.1719 L36.3281 94.1719 L36.3281 93.1562 L34.9688 93.1562 L34.9688 86.7188 L33.5469 86.7188 L29.2812 93.3281 L29.2812 94.1719 L33.7656 94.1719 L33.7656 97 ZM36.9731 97 L38.3168 97 L39.3481 95.2188 C39.6137 94.7656 39.8637 94.2969 40.1293 93.8594 L40.2075 93.8594 C40.4731 94.2969 40.7543 94.7656 41.0043 95.2188 L42.1293 97 L43.5356 97 L41.02 93.1562 L43.3325 89.3906 L42.0043 89.3906 L41.0668 91.0625 C40.8481 91.5 40.6137 91.9219 40.3793 92.3438 L40.3325 92.3438 C40.0668 91.9219 39.8012 91.5 39.5668 91.0625 L38.5512 89.3906 L37.1762 89.3906 L39.4887 93.0312 L36.9731 97 Z"
      /><rect x="55" y="35" width="13" style="fill:white; stroke:none;" height="10"
      /><path style="stroke:none;" d="M57.4844 42.9062 L58.625 42.9062 C58.375 40.7031 60.8906 39.875 60.8906 37.8281 C60.8906 36.2969 59.8594 35.3281 58.2812 35.3281 C57.1406 35.3281 56.25 35.875 55.6094 36.625 L56.3281 37.2969 C56.8125 36.7344 57.4375 36.3906 58.1406 36.3906 C59.125 36.3906 59.6406 37.0625 59.6406 37.9062 C59.6406 39.5781 57.1719 40.4688 57.4844 42.9062 ZM58.0938 46.1875 C58.6094 46.1875 59.0312 45.7969 59.0312 45.2188 C59.0312 44.625 58.6094 44.2188 58.0938 44.2188 C57.5938 44.2188 57.1719 44.625 57.1719 45.2188 C57.1719 45.7969 57.5938 46.1875 58.0938 46.1875 ZM65.886 46.1875 C68.0266 46.1875 69.3703 44.8906 69.3703 43.2656 C69.3703 41.75 68.4485 41.0469 67.261 40.5312 L65.7922 39.8906 C64.9953 39.5625 64.1047 39.1875 64.1047 38.1875 C64.1047 37.2656 64.8547 36.6719 66.011 36.6719 C66.9641 36.6719 67.7297 37.0469 68.3547 37.6406 L69.0422 36.8125 C68.3078 36.0625 67.2297 35.5469 66.011 35.5469 C64.1516 35.5469 62.7766 36.6875 62.7766 38.2656 C62.7766 39.7656 63.9172 40.5 64.8703 40.9062 L66.3547 41.5469 C67.3235 41.9844 68.0578 42.3125 68.0578 43.375 C68.0578 44.375 67.2453 45.0469 65.9016 45.0469 C64.8391 45.0469 63.8078 44.5469 63.0735 43.7812 L62.2922 44.6562 C63.1828 45.5938 64.4328 46.1875 65.886 46.1875 Z"
      /><path style="stroke:none;" d="M36.6562 46.1875 C38.3906 46.1875 40.0156 44.9062 40.0156 42.6562 C40.0156 40.4062 38.625 39.3906 36.9219 39.3906 C36.2969 39.3906 35.8594 39.5469 35.3906 39.7969 L35.6406 36.8281 L39.5312 36.8281 L39.5312 35.7188 L34.5312 35.7188 L34.2031 40.5469 L34.8906 40.9531 C35.4844 40.5625 35.9062 40.3594 36.5938 40.3594 C37.8906 40.3594 38.7188 41.2188 38.7188 42.7031 C38.7188 44.1875 37.75 45.125 36.5469 45.125 C35.3594 45.125 34.6094 44.5781 34.0156 43.9844 L33.3906 44.8281 C34.0781 45.5156 35.0625 46.1875 36.6562 46.1875 ZM40.9731 46 L42.3168 46 L43.3481 44.2188 C43.6137 43.7656 43.8637 43.2969 44.1293 42.8594 L44.2075 42.8594 C44.4731 43.2969 44.7543 43.7656 45.0043 44.2188 L46.1293 46 L47.5356 46 L45.02 42.1562 L47.3325 38.3906 L46.0043 38.3906 L45.0668 40.0625 C44.8481 40.5 44.6137 40.9219 44.3793 41.3438 L44.3325 41.3438 C44.0668 40.9219 43.8012 40.5 43.5668 40.0625 L42.5512 38.3906 L41.1762 38.3906 L43.4887 42.0312 L40.9731 46 Z"
    /></g
  ></g
></svg
>
