<?xml version="1.0"?>
<!DOCTYPE svg PUBLIC '-//W3C//DTD SVG 1.0//EN'
          'http://www.w3.org/TR/2001/REC-SVG-20010904/DTD/svg10.dtd'>
<svg xmlns:xlink="http://www.w3.org/1999/xlink" style="fill-opacity:1; color-rendering:auto; color-interpolation:auto; text-rendering:auto; stroke:black; stroke-linecap:square; stroke-miterlimit:10; shape-rendering:auto; stroke-opacity:1; fill:black; stroke-dasharray:none; font-weight:normal; stroke-width:1; font-family:'Dialog'; font-style:normal; stroke-linejoin:miter; font-size:12px; stroke-dashoffset:0; image-rendering:auto;" viewBox="0 0 143 284" xmlns="http://www.w3.org/2000/svg"
><!--Generated by the Batik Graphics2D SVG Generator--><defs id="genericDefs"
  /><g
  ><defs id="defs1"
    ><clipPath clipPathUnits="userSpaceOnUse" id="clipPath1"
      ><path d="M69 243 C69 249.0751 64.0751 254 58 254 C51.9249 254 47 249.0751 47 243 C47 236.9249 51.9249 232 58 232 C64.0751 232 69 236.9249 69 243 Z"
      /></clipPath
      ><clipPath clipPathUnits="userSpaceOnUse" id="clipPath2"
      ><path d="M69 168 C69 174.0751 64.0751 179 58 179 C51.9249 179 47 174.0751 47 168 C47 161.9249 51.9249 157 58 157 C64.0751 157 69 161.9249 69 168 Z"
      /></clipPath
      ><clipPath clipPathUnits="userSpaceOnUse" id="clipPath3"
      ><path d="M69 93 C69 99.0751 64.0751 104 58 104 C51.9249 104 47 99.0751 47 93 C47 86.9249 51.9249 82 58 82 C64.0751 82 69 86.9249 69 93 Z"
      /></clipPath
      ><clipPath clipPathUnits="userSpaceOnUse" id="clipPath4"
      ><path style="fill-rule:evenodd;" d="M58 30 L69 41 L58 52 L47 41 Z"
      /></clipPath
    ></defs
    ><g style="fill:white; text-rendering:optimizeSpeed; stroke:white;"
    ><rect x="0" width="143" height="284" y="0" style="stroke:none;"
      /><circle style="clip-path:url(#clipPath1); stroke:none;" r="11" cx="58" cy="243"
      /><rect x="47" y="232" width="22" style="clip-path:url(#clipPath1); stroke:none;" height="22"
      /><rect x="47" y="232" width="22" style="clip-path:url(#clipPath1); fill:none; stroke:black;" height="22"
      /><circle style="fill:none; stroke:black;" r="11" cx="58" cy="243"
    /></g
    ><g style="font-style:italic; text-rendering:optimizeSpeed; font-size:10px; font-family:'SansSerif';"
    ><path style="stroke:none;" d="M58 245.125 C59.3281 245.125 60.7344 244.0938 61.125 242.2969 C61.5 240.4844 60.5469 239.4375 59.2188 239.4375 C57.8906 239.4375 56.4688 240.4844 56.0938 242.2969 C55.7031 244.0938 56.6719 245.125 58 245.125 ZM58.1719 244.375 C57.2344 244.375 56.7656 243.5469 57.0312 242.2969 C57.2969 241.0469 58.1094 240.1875 59.0469 240.1875 C59.9844 240.1875 60.4531 241.0469 60.1875 242.2969 C59.9219 243.5469 59.1094 244.375 58.1719 244.375 Z"
      /><path style="stroke:none;" d="M52.5156 219.3594 C53.5781 219.3594 54.1094 220.1094 54.1094 221.2969 C54.1094 222.5 53.4531 223.2969 52.6094 223.2969 C51.5156 223.2969 50.8438 222.3125 50.7188 220.4844 C51.25 219.6875 51.9688 219.3594 52.5156 219.3594 ZM52.6094 224.1562 C53.9844 224.1562 55.125 223 55.125 221.2969 C55.125 219.4688 54.1875 218.5469 52.7031 218.5469 C52 218.5469 51.2344 218.9531 50.6875 219.6094 C50.7344 216.875 51.7656 215.9531 52.9531 215.9531 C53.5 215.9531 54.0312 216.2031 54.375 216.625 L54.9688 215.9375 C54.5 215.4219 53.8438 215.0312 52.9219 215.0312 C51.2188 215.0312 49.6719 216.3594 49.6719 219.7969 C49.6719 222.7031 50.9219 224.1562 52.6094 224.1562 ZM56.7694 224 L57.8632 224 L57.8632 219.2656 C58.4569 218.5938 59.0038 218.2812 59.5038 218.2812 C60.3319 218.2812 60.7069 218.7969 60.7069 220.0156 L60.7069 224 L61.8007 224 L61.8007 219.2656 C62.41 218.5938 62.9413 218.2812 63.4413 218.2812 C64.2694 218.2812 64.66 218.7969 64.66 220.0156 L64.66 224 L65.7538 224 L65.7538 219.875 C65.7538 218.2031 65.1132 217.3125 63.7694 217.3125 C62.9725 217.3125 62.3007 217.8281 61.6288 218.5625 C61.3632 217.7969 60.8163 217.3125 59.8163 217.3125 C59.0507 217.3125 58.3632 217.8125 57.8007 218.4375 L57.7538 218.4375 L57.66 217.4844 L56.7694 217.4844 L56.7694 224 Z"
    /></g
    ><g style="fill:white; text-rendering:optimizeSpeed; font-family:'Serif'; stroke:white;"
    ><rect x="74" width="5" height="10" y="230" style="stroke:none;"
      /><path d="M75.8906 238.6875 C75.4844 238.6875 75.1562 239.0469 75.1562 239.4219 C75.1562 239.8125 75.4844 240.1562 75.8906 240.1562 C76.2969 240.1562 76.6406 239.8125 76.6406 239.4219 C76.6406 239.0469 76.2969 238.6875 75.8906 238.6875 ZM77.4688 232.5781 C77.7188 232.8906 77.875 233.2656 77.8906 233.6562 C77.8906 234.1875 77.625 234.5 77.0312 234.7656 L76.4062 235.0156 C75.6406 235.3125 75.3906 235.5469 75.3906 235.9375 C75.3906 236.1094 75.4531 236.3438 75.5781 236.8125 L75.7344 237.3438 L76.1094 237.3438 L76.0938 236.5312 C76.0938 236.0938 76.2031 235.9688 76.7812 235.7344 L77.2031 235.5625 C78.0312 235.2188 78.4531 234.6875 78.4531 233.8438 C78.4531 232.1562 76.6562 231.1875 75.5 231.0312 C75.1094 231.125 74.9062 231.2969 74.9062 231.6406 C74.9062 231.9375 75.0625 232.1562 75.7188 232.2656 L77.4688 232.5781 Z" style="fill:black; stroke:none;"
      /><rect x="74" width="5" height="10" y="246" style="stroke:none;"
      /><path d="M75.8906 254.6875 C75.4844 254.6875 75.1562 255.0469 75.1562 255.4219 C75.1562 255.8125 75.4844 256.1562 75.8906 256.1562 C76.2969 256.1562 76.6406 255.8125 76.6406 255.4219 C76.6406 255.0469 76.2969 254.6875 75.8906 254.6875 ZM77.4688 248.5781 C77.7188 248.8906 77.875 249.2656 77.8906 249.6562 C77.8906 250.1875 77.625 250.5 77.0312 250.7656 L76.4062 251.0156 C75.6406 251.3125 75.3906 251.5469 75.3906 251.9375 C75.3906 252.1094 75.4531 252.3438 75.5781 252.8125 L75.7344 253.3438 L76.1094 253.3438 L76.0938 252.5312 C76.0938 252.0938 76.2031 251.9688 76.7812 251.7344 L77.2031 251.5625 C78.0312 251.2188 78.4531 250.6875 78.4531 249.8438 C78.4531 248.1562 76.6562 247.1875 75.5 247.0312 C75.1094 247.125 74.9062 247.2969 74.9062 247.6406 C74.9062 247.9375 75.0625 248.1562 75.7188 248.2656 L77.4688 248.5781 Z" style="fill:black; stroke:none;"
      /><circle r="11" style="clip-path:url(#clipPath2); stroke:none;" cx="58" cy="168"
      /><rect x="47" y="157" width="22" style="clip-path:url(#clipPath2); stroke:none;" height="22"
      /><rect x="47" y="157" width="22" style="clip-path:url(#clipPath2); fill:none; stroke:black;" height="22"
      /><circle r="11" style="fill:none; stroke:black;" cx="58" cy="168"
      /><path d="M52.5156 144.3594 C53.5781 144.3594 54.1094 145.1094 54.1094 146.2969 C54.1094 147.5 53.4531 148.2969 52.6094 148.2969 C51.5156 148.2969 50.8438 147.3125 50.7188 145.4844 C51.25 144.6875 51.9688 144.3594 52.5156 144.3594 ZM52.6094 149.1562 C53.9844 149.1562 55.125 148 55.125 146.2969 C55.125 144.4688 54.1875 143.5469 52.7031 143.5469 C52 143.5469 51.2344 143.9531 50.6875 144.6094 C50.7344 141.875 51.7656 140.9531 52.9531 140.9531 C53.5 140.9531 54.0312 141.2031 54.375 141.625 L54.9688 140.9375 C54.5 140.4219 53.8438 140.0312 52.9219 140.0312 C51.2188 140.0312 49.6719 141.3594 49.6719 144.7969 C49.6719 147.7031 50.9219 149.1562 52.6094 149.1562 ZM56.7694 149 L57.8632 149 L57.8632 144.2656 C58.4569 143.5938 59.0038 143.2812 59.5038 143.2812 C60.3319 143.2812 60.7069 143.7969 60.7069 145.0156 L60.7069 149 L61.8007 149 L61.8007 144.2656 C62.41 143.5938 62.9413 143.2812 63.4413 143.2812 C64.2694 143.2812 64.66 143.7969 64.66 145.0156 L64.66 149 L65.7538 149 L65.7538 144.875 C65.7538 143.2031 65.1132 142.3125 63.7694 142.3125 C62.9725 142.3125 62.3007 142.8281 61.6288 143.5625 C61.3632 142.7969 60.8163 142.3125 59.8163 142.3125 C59.0507 142.3125 58.3632 142.8125 57.8007 143.4375 L57.7538 143.4375 L57.66 142.4844 L56.7694 142.4844 L56.7694 149 Z" style="fill:black; stroke:none;"
      /><rect x="74" width="5" height="10" y="155" style="stroke:none;"
      /><path d="M75.8906 163.6875 C75.4844 163.6875 75.1562 164.0469 75.1562 164.4219 C75.1562 164.8125 75.4844 165.1562 75.8906 165.1562 C76.2969 165.1562 76.6406 164.8125 76.6406 164.4219 C76.6406 164.0469 76.2969 163.6875 75.8906 163.6875 ZM77.4688 157.5781 C77.7188 157.8906 77.875 158.2656 77.8906 158.6562 C77.8906 159.1875 77.625 159.5 77.0312 159.7656 L76.4062 160.0156 C75.6406 160.3125 75.3906 160.5469 75.3906 160.9375 C75.3906 161.1094 75.4531 161.3438 75.5781 161.8125 L75.7344 162.3438 L76.1094 162.3438 L76.0938 161.5312 C76.0938 161.0938 76.2031 160.9688 76.7812 160.7344 L77.2031 160.5625 C78.0312 160.2188 78.4531 159.6875 78.4531 158.8438 C78.4531 157.1562 76.6562 156.1875 75.5 156.0312 C75.1094 156.125 74.9062 156.2969 74.9062 156.6406 C74.9062 156.9375 75.0625 157.1562 75.7188 157.2656 L77.4688 157.5781 Z" style="fill:black; stroke:none;"
      /><rect x="74" width="5" height="10" y="171" style="stroke:none;"
      /><path d="M75.8906 179.6875 C75.4844 179.6875 75.1562 180.0469 75.1562 180.4219 C75.1562 180.8125 75.4844 181.1562 75.8906 181.1562 C76.2969 181.1562 76.6406 180.8125 76.6406 180.4219 C76.6406 180.0469 76.2969 179.6875 75.8906 179.6875 ZM77.4688 173.5781 C77.7188 173.8906 77.875 174.2656 77.8906 174.6562 C77.8906 175.1875 77.625 175.5 77.0312 175.7656 L76.4062 176.0156 C75.6406 176.3125 75.3906 176.5469 75.3906 176.9375 C75.3906 177.1094 75.4531 177.3438 75.5781 177.8125 L75.7344 178.3438 L76.1094 178.3438 L76.0938 177.5312 C76.0938 177.0938 76.2031 176.9688 76.7812 176.7344 L77.2031 176.5625 C78.0312 176.2188 78.4531 175.6875 78.4531 174.8438 C78.4531 173.1562 76.6562 172.1875 75.5 172.0312 C75.1094 172.125 74.9062 172.2969 74.9062 172.6406 C74.9062 172.9375 75.0625 173.1562 75.7188 173.2656 L77.4688 173.5781 Z" style="fill:black; stroke:none;"
    /></g
    ><g style="text-rendering:optimizeSpeed; font-size:14px; font-family:'SansSerif';"
    ><path style="stroke:none;" d="M32.6562 161.1875 C34.3906 161.1875 36.0156 159.9062 36.0156 157.6562 C36.0156 155.4062 34.625 154.3906 32.9219 154.3906 C32.2969 154.3906 31.8594 154.5469 31.3906 154.7969 L31.6406 151.8281 L35.5312 151.8281 L35.5312 150.7188 L30.5312 150.7188 L30.2031 155.5469 L30.8906 155.9531 C31.4844 155.5625 31.9062 155.3594 32.5938 155.3594 C33.8906 155.3594 34.7188 156.2188 34.7188 157.7031 C34.7188 159.1875 33.75 160.125 32.5469 160.125 C31.3594 160.125 30.6094 159.5781 30.0156 158.9844 L29.3906 159.8281 C30.0781 160.5156 31.0625 161.1875 32.6562 161.1875 ZM36.9731 161 L38.3168 161 L39.3481 159.2188 C39.6137 158.7656 39.8637 158.2969 40.1293 157.8594 L40.2075 157.8594 C40.4731 158.2969 40.7543 158.7656 41.0043 159.2188 L42.1293 161 L43.5356 161 L41.02 157.1562 L43.3325 153.3906 L42.0043 153.3906 L41.0668 155.0625 C40.8481 155.5 40.6137 155.9219 40.3793 156.3438 L40.3325 156.3438 C40.0668 155.9219 39.8012 155.5 39.5668 155.0625 L38.5512 153.3906 L37.1762 153.3906 L39.4887 157.0312 L36.9731 161 Z"
      /><circle style="fill:white; clip-path:url(#clipPath3); stroke:none;" r="11" cx="58" cy="93"
      /><rect x="47" y="82" width="22" style="clip-path:url(#clipPath3); fill:white; stroke:none;" height="22"
      /><rect x="47" y="82" width="22" style="fill:none; clip-path:url(#clipPath3);" height="22"
      /><circle r="11" style="fill:none;" cx="58" cy="93"
    /></g
    ><g style="fill:white; text-rendering:optimizeSpeed; font-family:'Serif'; stroke:white;"
    ><rect x="74" width="5" height="10" y="80" style="stroke:none;"
      /><path d="M75.8906 88.6875 C75.4844 88.6875 75.1562 89.0469 75.1562 89.4219 C75.1562 89.8125 75.4844 90.1562 75.8906 90.1562 C76.2969 90.1562 76.6406 89.8125 76.6406 89.4219 C76.6406 89.0469 76.2969 88.6875 75.8906 88.6875 ZM77.4688 82.5781 C77.7188 82.8906 77.875 83.2656 77.8906 83.6562 C77.8906 84.1875 77.625 84.5 77.0312 84.7656 L76.4062 85.0156 C75.6406 85.3125 75.3906 85.5469 75.3906 85.9375 C75.3906 86.1094 75.4531 86.3438 75.5781 86.8125 L75.7344 87.3438 L76.1094 87.3438 L76.0938 86.5312 C76.0938 86.0938 76.2031 85.9688 76.7812 85.7344 L77.2031 85.5625 C78.0312 85.2188 78.4531 84.6875 78.4531 83.8438 C78.4531 82.1562 76.6562 81.1875 75.5 81.0312 C75.1094 81.125 74.9062 81.2969 74.9062 81.6406 C74.9062 81.9375 75.0625 82.1562 75.7188 82.2656 L77.4688 82.5781 Z" style="fill:black; stroke:none;"
      /><rect x="74" width="5" height="10" y="96" style="stroke:none;"
      /><path d="M75.8906 104.6875 C75.4844 104.6875 75.1562 105.0469 75.1562 105.4219 C75.1562 105.8125 75.4844 106.1562 75.8906 106.1562 C76.2969 106.1562 76.6406 105.8125 76.6406 105.4219 C76.6406 105.0469 76.2969 104.6875 75.8906 104.6875 ZM77.4688 98.5781 C77.7188 98.8906 77.875 99.2656 77.8906 99.6562 C77.8906 100.1875 77.625 100.5 77.0312 100.7656 L76.4062 101.0156 C75.6406 101.3125 75.3906 101.5469 75.3906 101.9375 C75.3906 102.1094 75.4531 102.3438 75.5781 102.8125 L75.7344 103.3438 L76.1094 103.3438 L76.0938 102.5312 C76.0938 102.0938 76.2031 101.9688 76.7812 101.7344 L77.2031 101.5625 C78.0312 101.2188 78.4531 100.6875 78.4531 99.8438 C78.4531 98.1562 76.6562 97.1875 75.5 97.0312 C75.1094 97.125 74.9062 97.2969 74.9062 97.6406 C74.9062 97.9375 75.0625 98.1562 75.7188 98.2656 L77.4688 98.5781 Z" style="fill:black; stroke:none;"
      /><polygon style="stroke:none; clip-path:url(#clipPath4);" points=" 58 30 69 41 58 52 47 41"
      /><rect x="47" y="30" width="22" style="clip-path:url(#clipPath4); stroke:none;" height="11"
    /></g
    ><g style="text-rendering:optimizeSpeed; font-size:14px; font-family:'SansSerif';"
    ><rect x="47" y="30" width="22" style="fill:none; clip-path:url(#clipPath4);" height="11"
      /><polygon style="fill:none;" points=" 58 30 69 41 58 52 47 41"
    /></g
    ><g style="fill:white; text-rendering:optimizeSpeed; font-family:'Serif'; stroke:white;"
    ><rect x="74" width="5" height="10" y="28" style="stroke:none;"
      /><path d="M75.8906 36.6875 C75.4844 36.6875 75.1562 37.0469 75.1562 37.4219 C75.1562 37.8125 75.4844 38.1562 75.8906 38.1562 C76.2969 38.1562 76.6406 37.8125 76.6406 37.4219 C76.6406 37.0469 76.2969 36.6875 75.8906 36.6875 ZM77.4688 30.5781 C77.7188 30.8906 77.875 31.2656 77.8906 31.6562 C77.8906 32.1875 77.625 32.5 77.0312 32.7656 L76.4062 33.0156 C75.6406 33.3125 75.3906 33.5469 75.3906 33.9375 C75.3906 34.1094 75.4531 34.3438 75.5781 34.8125 L75.7344 35.3438 L76.1094 35.3438 L76.0938 34.5312 C76.0938 34.0938 76.2031 33.9688 76.7812 33.7344 L77.2031 33.5625 C78.0312 33.2188 78.4531 32.6875 78.4531 31.8438 C78.4531 30.1562 76.6562 29.1875 75.5 29.0312 C75.1094 29.125 74.9062 29.2969 74.9062 29.6406 C74.9062 29.9375 75.0625 30.1562 75.7188 30.2656 L77.4688 30.5781 Z" style="fill:black; stroke:none;"
      /><rect x="74" width="5" height="10" y="44" style="stroke:none;"
      /><path d="M75.8906 52.6875 C75.4844 52.6875 75.1562 53.0469 75.1562 53.4219 C75.1562 53.8125 75.4844 54.1562 75.8906 54.1562 C76.2969 54.1562 76.6406 53.8125 76.6406 53.4219 C76.6406 53.0469 76.2969 52.6875 75.8906 52.6875 ZM77.4688 46.5781 C77.7188 46.8906 77.875 47.2656 77.8906 47.6562 C77.8906 48.1875 77.625 48.5 77.0312 48.7656 L76.4062 49.0156 C75.6406 49.3125 75.3906 49.5469 75.3906 49.9375 C75.3906 50.1094 75.4531 50.3438 75.5781 50.8125 L75.7344 51.3438 L76.1094 51.3438 L76.0938 50.5312 C76.0938 50.0938 76.2031 49.9688 76.7812 49.7344 L77.2031 49.5625 C78.0312 49.2188 78.4531 48.6875 78.4531 47.8438 C78.4531 46.1562 76.6562 45.1875 75.5 45.0312 C75.1094 45.125 74.9062 45.2969 74.9062 45.6406 C74.9062 45.9375 75.0625 46.1562 75.7188 46.2656 L77.4688 46.5781 Z" style="fill:black; stroke:none;"
    /></g
  ></g
></svg
>
