<?xml version="1.0"?>
<!DOCTYPE svg PUBLIC '-//W3C//DTD SVG 1.0//EN'
          'http://www.w3.org/TR/2001/REC-SVG-20010904/DTD/svg10.dtd'>
<svg xmlns:xlink="http://www.w3.org/1999/xlink" style="fill-opacity:1; color-rendering:auto; color-interpolation:auto; text-rendering:auto; stroke:black; stroke-linecap:square; stroke-miterlimit:10; shape-rendering:auto; stroke-opacity:1; fill:black; stroke-dasharray:none; font-weight:normal; stroke-width:1; font-family:'Dialog'; font-style:normal; stroke-linejoin:miter; font-size:12px; stroke-dashoffset:0; image-rendering:auto;" viewBox="0 0 758 134" xmlns="http://www.w3.org/2000/svg"
><!--Generated by the Batik Graphics2D SVG Generator--><defs id="genericDefs"
  /><g
  ><defs id="defs1"
    ><clipPath clipPathUnits="userSpaceOnUse" id="clipPath1"
      ><path d="M676 41 C676 47.0751 671.0751 52 665 52 C658.9249 52 654 47.0751 654 41 C654 34.9249 658.9249 30 665 30 C671.0751 30 676 34.9249 676 41 Z"
      /></clipPath
      ><clipPath clipPathUnits="userSpaceOnUse" id="clipPath2"
      ><path d="M624 41 C624 47.0751 619.0751 52 613 52 C606.9249 52 602 47.0751 602 41 C602 34.9249 606.9249 30 613 30 C619.0751 30 624 34.9249 624 41 Z"
      /></clipPath
      ><clipPath clipPathUnits="userSpaceOnUse" id="clipPath3"
      ><path d="M550 30 L572 30 L572 52 L550 52 L550 30 Z"
      /></clipPath
      ><clipPath clipPathUnits="userSpaceOnUse" id="clipPath4"
      ><path d="M520 41 C520 47.0751 515.0751 52 509 52 C502.9249 52 498 47.0751 498 41 C498 34.9249 502.9249 30 509 30 C515.0751 30 520 34.9249 520 41 Z"
      /></clipPath
      ><clipPath clipPathUnits="userSpaceOnUse" id="clipPath5"
      ><path d="M446 30 L468 30 L468 52 L446 52 L446 30 Z"
      /></clipPath
      ><clipPath clipPathUnits="userSpaceOnUse" id="clipPath6"
      ><path d="M416 41 C416 47.0751 411.0751 52 405 52 C398.9249 52 394 47.0751 394 41 C394 34.9249 398.9249 30 405 30 C411.0751 30 416 34.9249 416 41 Z"
      /></clipPath
      ><clipPath clipPathUnits="userSpaceOnUse" id="clipPath7"
      ><path d="M342 30 L364 30 L364 52 L342 52 L342 30 Z"
      /></clipPath
      ><clipPath clipPathUnits="userSpaceOnUse" id="clipPath8"
      ><path style="fill-rule:evenodd;" d="M353 82 L364 104 L342 104 Z"
      /></clipPath
      ><clipPath clipPathUnits="userSpaceOnUse" id="clipPath9"
      ><path d="M312 41 C312 47.0751 307.0751 52 301 52 C294.9249 52 290 47.0751 290 41 C290 34.9249 294.9249 30 301 30 C307.0751 30 312 34.9249 312 41 Z"
      /></clipPath
      ><clipPath clipPathUnits="userSpaceOnUse" id="clipPath10"
      ><path d="M238 30 L260 30 L260 52 L238 52 L238 30 Z"
      /></clipPath
      ><clipPath clipPathUnits="userSpaceOnUse" id="clipPath11"
      ><path style="fill-rule:evenodd;" d="M249 82 L260 104 L238 104 Z"
      /></clipPath
      ><clipPath clipPathUnits="userSpaceOnUse" id="clipPath12"
      ><path d="M208 41 C208 47.0751 203.0751 52 197 52 C190.9249 52 186 47.0751 186 41 C186 34.9249 190.9249 30 197 30 C203.0751 30 208 34.9249 208 41 Z"
      /></clipPath
      ><clipPath clipPathUnits="userSpaceOnUse" id="clipPath13"
      ><path d="M134 30 L156 30 L156 52 L134 52 L134 30 Z"
      /></clipPath
      ><clipPath clipPathUnits="userSpaceOnUse" id="clipPath14"
      ><path d="M104 41 C104 47.0751 99.0751 52 93 52 C86.9249 52 82 47.0751 82 41 C82 34.9249 86.9249 30 93 30 C99.0751 30 104 34.9249 104 41 Z"
      /></clipPath
      ><clipPath clipPathUnits="userSpaceOnUse" id="clipPath15"
      ><path style="fill-rule:evenodd;" d="M41 30 L52 41 L41 52 L30 41 Z"
      /></clipPath
    ></defs
    ><g style="fill:white; text-rendering:optimizeSpeed; stroke:white;"
    ><rect x="0" width="758" height="134" y="0" style="stroke:none;"
      /><polygon style="fill:none; stroke:black;" points=" 717 41 665 41"
      /><path d="M717 30 C711.5 35.5 722.5 46.5 717 52" style="fill:none; stroke:black;"
      /><polygon style="fill:none; stroke:black;" points=" 665 41 613 41"
      /><circle style="clip-path:url(#clipPath1); stroke:none;" r="11" cx="665" cy="41"
      /><rect x="654" y="30" width="22" style="clip-path:url(#clipPath1); fill:rgb(0,144,188); stroke:none;" height="22"
      /><rect x="654" y="30" width="22" style="clip-path:url(#clipPath1); fill:none; stroke:black;" height="22"
      /><circle style="fill:none; stroke:black;" r="11" cx="665" cy="41"
      /><polygon style="fill:none; stroke:black;" points=" 613 41 561 41"
      /><circle style="clip-path:url(#clipPath2); stroke:none;" r="11" cx="613" cy="41"
      /><rect x="602" y="30" width="22" style="clip-path:url(#clipPath2); fill:rgb(255,212,0); stroke:none;" height="22"
      /><rect x="602" y="30" width="22" style="clip-path:url(#clipPath2); fill:none; stroke:black;" height="22"
      /><circle style="fill:none; stroke:black;" r="11" cx="613" cy="41"
      /><polygon style="fill:none; stroke:black;" points=" 561 41 509 41"
      /><rect x="550" y="30" width="22" style="clip-path:url(#clipPath3); stroke:none;" height="22"
      /><rect x="550" y="30" width="22" style="clip-path:url(#clipPath3); fill:rgb(0,144,188); stroke:none;" height="22"
      /><rect x="550" y="30" width="22" style="clip-path:url(#clipPath3); fill:none; stroke:black;" height="22"
      /><rect x="550" y="30" width="22" style="fill:none; stroke:black;" height="22"
      /><polygon style="fill:none; stroke:black;" points=" 509 41 457 41"
      /><circle style="clip-path:url(#clipPath4); stroke:none;" r="11" cx="509" cy="41"
      /><rect x="498" y="30" width="22" style="clip-path:url(#clipPath4); fill:rgb(255,212,0); stroke:none;" height="22"
      /><rect x="498" y="30" width="22" style="clip-path:url(#clipPath4); fill:none; stroke:black;" height="22"
      /><circle style="fill:none; stroke:black;" r="11" cx="509" cy="41"
      /><polygon style="fill:none; stroke:black;" points=" 457 41 405 41"
      /><rect x="446" y="30" width="22" style="clip-path:url(#clipPath5); stroke:none;" height="22"
      /><rect x="446" y="30" width="22" style="clip-path:url(#clipPath5); fill:rgb(0,144,188); stroke:none;" height="22"
      /><rect x="446" y="30" width="22" style="clip-path:url(#clipPath5); fill:none; stroke:black;" height="22"
      /><rect x="446" y="30" width="22" style="fill:none; stroke:black;" height="22"
      /><polygon style="fill:none; stroke:black;" points=" 405 41 353 41"
      /><circle style="clip-path:url(#clipPath6); stroke:none;" r="11" cx="405" cy="41"
      /><rect x="394" y="30" width="22" style="clip-path:url(#clipPath6); fill:rgb(255,212,0); stroke:none;" height="22"
      /><rect x="394" y="30" width="22" style="clip-path:url(#clipPath6); fill:none; stroke:black;" height="22"
      /><circle style="fill:none; stroke:black;" r="11" cx="405" cy="41"
      /><polygon style="fill:none; stroke:black;" points=" 353 41 353 93"
      /><polygon style="fill:none; stroke:black;" points=" 353 41 301 41"
      /><rect x="342" y="30" width="22" style="clip-path:url(#clipPath7); stroke:none;" height="22"
      /><rect x="342" y="30" width="22" style="clip-path:url(#clipPath7); fill:rgb(0,144,188); stroke:none;" height="22"
      /><rect x="342" y="30" width="22" style="clip-path:url(#clipPath7); fill:none; stroke:black;" height="22"
      /><rect x="342" y="30" width="22" style="fill:none; stroke:black;" height="22"
      /><polygon style="clip-path:url(#clipPath8); stroke:none;" points=" 353 82 364 104 342 104"
      /><rect x="342" y="82" width="22" style="clip-path:url(#clipPath8); fill:rgb(237,28,36); stroke:none;" height="22"
      /><rect x="342" y="82" width="22" style="clip-path:url(#clipPath8); fill:none; stroke:black;" height="22"
      /><polygon style="fill:none; stroke:black;" points=" 353 82 364 104 342 104"
      /><polygon style="fill:none; stroke:black;" points=" 301 41 249 41"
      /><circle style="clip-path:url(#clipPath9); stroke:none;" r="11" cx="301" cy="41"
      /><rect x="290" y="30" width="22" style="clip-path:url(#clipPath9); fill:rgb(255,212,0); stroke:none;" height="22"
      /><rect x="290" y="30" width="22" style="clip-path:url(#clipPath9); fill:none; stroke:black;" height="22"
      /><circle style="fill:none; stroke:black;" r="11" cx="301" cy="41"
      /><polygon style="fill:none; stroke:black;" points=" 249 41 249 93"
      /><polygon style="fill:none; stroke:black;" points=" 249 41 197 41"
      /><rect x="238" y="30" width="22" style="clip-path:url(#clipPath10); stroke:none;" height="22"
      /><rect x="238" y="30" width="22" style="clip-path:url(#clipPath10); fill:rgb(0,144,188); stroke:none;" height="22"
      /><rect x="238" y="30" width="22" style="clip-path:url(#clipPath10); fill:none; stroke:black;" height="22"
      /><rect x="238" y="30" width="22" style="fill:none; stroke:black;" height="22"
      /><polygon style="clip-path:url(#clipPath11); stroke:none;" points=" 249 82 260 104 238 104"
      /><rect x="238" y="82" width="22" style="clip-path:url(#clipPath11); fill:rgb(237,28,36); stroke:none;" height="22"
      /><rect x="238" y="82" width="22" style="clip-path:url(#clipPath11); fill:none; stroke:black;" height="22"
      /><polygon style="fill:none; stroke:black;" points=" 249 82 260 104 238 104"
      /><polygon style="fill:none; stroke:black;" points=" 197 41 145 41"
      /><circle style="clip-path:url(#clipPath12); stroke:none;" r="11" cx="197" cy="41"
      /><rect x="186" y="30" width="22" style="clip-path:url(#clipPath12); fill:rgb(255,212,0); stroke:none;" height="22"
      /><rect x="186" y="30" width="22" style="clip-path:url(#clipPath12); fill:none; stroke:black;" height="22"
      /><circle style="fill:none; stroke:black;" r="11" cx="197" cy="41"
      /><polygon style="fill:none; stroke:black;" points=" 145 41 93 41"
      /><rect x="134" y="30" width="22" style="clip-path:url(#clipPath13); stroke:none;" height="22"
      /><rect x="134" y="30" width="22" style="clip-path:url(#clipPath13); fill:rgb(0,144,188); stroke:none;" height="22"
      /><rect x="134" y="30" width="22" style="clip-path:url(#clipPath13); fill:none; stroke:black;" height="22"
      /><rect x="134" y="30" width="22" style="fill:none; stroke:black;" height="22"
      /><polygon style="fill:none; stroke:black;" points=" 93 41 41 41"
      /><circle style="clip-path:url(#clipPath14); stroke:none;" r="11" cx="93" cy="41"
      /><rect x="82" y="30" width="22" style="clip-path:url(#clipPath14); fill:rgb(255,212,0); stroke:none;" height="22"
      /><rect x="82" y="30" width="22" style="clip-path:url(#clipPath14); fill:none; stroke:black;" height="22"
      /><circle style="fill:none; stroke:black;" r="11" cx="93" cy="41"
      /><polygon style="clip-path:url(#clipPath15); stroke:none;" points=" 41 30 52 41 41 52 30 41"
      /><rect x="30" y="30" width="22" style="clip-path:url(#clipPath15); fill:rgb(165,67,153); stroke:none;" height="22"
      /><rect x="30" y="30" width="22" style="clip-path:url(#clipPath15); fill:none; stroke:black;" height="22"
      /><polygon style="fill:none; stroke:black;" points=" 41 30 52 41 41 52 30 41"
      /><rect x="71" y="44" width="6" style="stroke:none;" height="10"
    /></g
    ><g style="font-family:'Serif'; text-rendering:optimizeSpeed; "
    ><path style="stroke:none;" d="M73.2344 45.6562 C73.5156 45.5938 73.7656 45.5625 74.0156 45.5625 C75.0625 45.5625 75.6719 46.1719 75.6719 47.2656 C75.6719 48.4375 74.9062 49.1094 73.7031 49.1094 L73.1875 49.1094 L73.1875 49.6406 L73.7969 49.6406 C75.2188 49.6406 75.9062 50.4219 75.9062 51.6406 C75.9062 52.8438 75.1719 53.6875 73.875 53.6875 C73.6094 53.6875 73.3125 53.6562 73.0156 53.5625 L72.7812 52.8125 C72.625 52.2812 72.5 52.0469 72.1406 52.0469 C71.8906 52.0469 71.7031 52.1719 71.5781 52.4219 C71.8438 53.6406 72.7812 54.1719 74.0312 54.1719 C75.7188 54.1719 76.875 53.125 76.875 51.7031 C76.875 50.5 76.2031 49.625 74.7969 49.375 C75.9531 49.0156 76.6094 48.2031 76.6094 47.2031 C76.6094 45.9219 75.6719 45.0781 74.1875 45.0781 C73.0469 45.0781 72.0625 45.5938 71.7969 46.6875 C71.9062 47 72.1094 47.1094 72.3594 47.1094 C72.7344 47.1094 72.8906 46.8906 73 46.4062 L73.2344 45.6562 Z"
      /><rect x="56" y="45" width="8" style="fill:white; stroke:none;" height="8"
      /><path style="stroke:none;" d="M60.9844 50.7031 C60.9375 51.8906 60.1562 52.6562 59.3125 52.6562 C58.2656 52.6562 57.5 51.6875 57.5 49.7188 C57.5 48.2812 58.1562 47.1562 59.3438 47.1562 C60.1406 47.1562 60.7812 47.6875 61.0938 48.6406 L60.9844 50.7031 ZM62.9062 52.2812 C62.7344 52.375 62.5469 52.4219 62.3438 52.4219 C61.9531 52.4219 61.75 52.2188 61.75 51.4219 C61.75 50.4844 61.9688 48.5312 62.1875 46.8281 L62.0312 46.7188 L61.2344 46.9219 L61.1406 47.7969 C60.7812 47.0312 60.1562 46.6562 59.3906 46.6562 C58.0469 46.6562 56.5625 47.8438 56.5625 49.9531 C56.5625 52.0938 57.7188 53.1719 59.1406 53.1719 C60.0156 53.1719 60.6875 52.8125 61.0938 51.9844 C61.2031 52.8594 61.5156 53.1719 62.0156 53.1719 C62.4688 53.1719 62.7969 52.9062 63.0156 52.5625 L62.9062 52.2812 Z"
      /><rect x="122" y="44" width="7" style="fill:white; stroke:none;" height="9"
      /><path style="stroke:none;" d="M123 49.5156 L125.9531 45.2656 L125.9531 49.5156 L123 49.5156 ZM128.2812 49.5156 L126.8594 49.5156 L126.8594 44.125 L126.2344 44.125 L122.3438 49.6406 L122.3438 50.1875 L125.9531 50.1875 L125.9531 53 L126.8594 53 L126.8594 50.1875 L128.2812 50.1875 L128.2812 49.5156 Z"
      /><rect x="109" y="42" width="6" style="fill:white; stroke:none;" height="13"
      /><path style="stroke:none;" d="M111.0938 48.2031 C111.0938 46.6562 111.75 45.8125 112.7969 45.8125 C113.7188 45.8125 114.2656 46.4531 114.2656 47.5156 C114.2656 48.7188 113.5 49.4375 112.1875 49.7031 L112.2969 50.3125 C114.2188 50.2344 114.9375 51.2188 114.9375 52.4375 C114.9375 53.625 114.2344 54.4219 112.9531 54.4219 C112.25 54.4219 111.6562 54.1562 111.0938 53.7188 L111.0938 48.2031 ZM110.2031 54.9062 L110.1094 57.375 L110.2656 57.4844 L111.1562 57.2656 L111.0156 54.0938 C111.5469 54.8438 112.3594 55.1719 113.1719 55.1719 C114.5625 55.1719 115.8594 54.2188 115.8594 52.4844 C115.8594 50.9531 114.875 50.1094 113.125 50 C114.5625 49.6094 115.1875 48.4531 115.1875 47.4844 C115.1875 46.0938 114.1562 45.3125 112.9062 45.3125 C111.2969 45.3125 110.2188 46.5469 110.2188 48.5156 L110.2031 54.9062 Z"
      /><rect x="175" y="44" width="6" style="fill:white; stroke:none;" height="10"
      /><path style="stroke:none;" d="M177.2344 45.6562 C177.5156 45.5938 177.7656 45.5625 178.0156 45.5625 C179.0625 45.5625 179.6719 46.1719 179.6719 47.2656 C179.6719 48.4375 178.9062 49.1094 177.7031 49.1094 L177.1875 49.1094 L177.1875 49.6406 L177.7969 49.6406 C179.2188 49.6406 179.9062 50.4219 179.9062 51.6406 C179.9062 52.8438 179.1719 53.6875 177.875 53.6875 C177.6094 53.6875 177.3125 53.6562 177.0156 53.5625 L176.7812 52.8125 C176.625 52.2812 176.5 52.0469 176.1406 52.0469 C175.8906 52.0469 175.7031 52.1719 175.5781 52.4219 C175.8438 53.6406 176.7812 54.1719 178.0312 54.1719 C179.7188 54.1719 180.875 53.125 180.875 51.7031 C180.875 50.5 180.2031 49.625 178.7969 49.375 C179.9531 49.0156 180.6094 48.2031 180.6094 47.2031 C180.6094 45.9219 179.6719 45.0781 178.1875 45.0781 C177.0469 45.0781 176.0625 45.5938 175.7969 46.6875 C175.9062 47 176.1094 47.1094 176.3594 47.1094 C176.7344 47.1094 176.8906 46.8906 177 46.4062 L177.2344 45.6562 Z"
      /><rect x="161" y="42" width="6" style="fill:white; stroke:none;" height="13"
      /><path style="stroke:none;" d="M163.0938 48.2031 C163.0938 46.6562 163.75 45.8125 164.7969 45.8125 C165.7188 45.8125 166.2656 46.4531 166.2656 47.5156 C166.2656 48.7188 165.5 49.4375 164.1875 49.7031 L164.2969 50.3125 C166.2188 50.2344 166.9375 51.2188 166.9375 52.4375 C166.9375 53.625 166.2344 54.4219 164.9531 54.4219 C164.25 54.4219 163.6562 54.1562 163.0938 53.7188 L163.0938 48.2031 ZM162.2031 54.9062 L162.1094 57.375 L162.2656 57.4844 L163.1562 57.2656 L163.0156 54.0938 C163.5469 54.8438 164.3594 55.1719 165.1719 55.1719 C166.5625 55.1719 167.8594 54.2188 167.8594 52.4844 C167.8594 50.9531 166.875 50.1094 165.125 50 C166.5625 49.6094 167.1875 48.4531 167.1875 47.4844 C167.1875 46.0938 166.1562 45.3125 164.9062 45.3125 C163.2969 45.3125 162.2188 46.5469 162.2188 48.5156 L162.2031 54.9062 Z"
      /><rect x="254" y="55" width="6" style="fill:white; stroke:none;" height="10"
      /><path style="stroke:none;" d="M256.2344 56.6562 C256.5156 56.5938 256.7656 56.5625 257.0156 56.5625 C258.0625 56.5625 258.6719 57.1719 258.6719 58.2656 C258.6719 59.4375 257.9062 60.1094 256.7031 60.1094 L256.1875 60.1094 L256.1875 60.6406 L256.7969 60.6406 C258.2188 60.6406 258.9062 61.4219 258.9062 62.6406 C258.9062 63.8438 258.1719 64.6875 256.875 64.6875 C256.6094 64.6875 256.3125 64.6562 256.0156 64.5625 L255.7812 63.8125 C255.625 63.2812 255.5 63.0469 255.1406 63.0469 C254.8906 63.0469 254.7031 63.1719 254.5781 63.4219 C254.8438 64.6406 255.7812 65.1719 257.0312 65.1719 C258.7188 65.1719 259.875 64.125 259.875 62.7031 C259.875 61.5 259.2031 60.625 257.7969 60.375 C258.9531 60.0156 259.6094 59.2031 259.6094 58.2031 C259.6094 56.9219 258.6719 56.0781 257.1875 56.0781 C256.0469 56.0781 255.0625 56.5938 254.7969 57.6875 C254.9062 58 255.1094 58.1094 255.3594 58.1094 C255.7344 58.1094 255.8906 57.8906 256 57.4062 L256.2344 56.6562 Z"
      /><rect x="253" y="70" width="8" style="fill:white; stroke:none;" height="8"
      /><path style="stroke:none;" d="M257.9844 75.7031 C257.9375 76.8906 257.1562 77.6562 256.3125 77.6562 C255.2656 77.6562 254.5 76.6875 254.5 74.7188 C254.5 73.2812 255.1562 72.1562 256.3438 72.1562 C257.1406 72.1562 257.7812 72.6875 258.0938 73.6406 L257.9844 75.7031 ZM259.9062 77.2812 C259.7344 77.375 259.5469 77.4219 259.3438 77.4219 C258.9531 77.4219 258.75 77.2188 258.75 76.4219 C258.75 75.4844 258.9688 73.5312 259.1875 71.8281 L259.0312 71.7188 L258.2344 71.9219 L258.1406 72.7969 C257.7812 72.0312 257.1562 71.6562 256.3906 71.6562 C255.0469 71.6562 253.5625 72.8438 253.5625 74.9531 C253.5625 77.0938 254.7188 78.1719 256.1406 78.1719 C257.0156 78.1719 257.6875 77.8125 258.0938 76.9844 C258.2031 77.8594 258.5156 78.1719 259.0156 78.1719 C259.4688 78.1719 259.7969 77.9062 260.0156 77.5625 L259.9062 77.2812 Z"
      /><rect x="226" y="44" width="7" style="fill:white; stroke:none;" height="9"
      /><path style="stroke:none;" d="M227 49.5156 L229.9531 45.2656 L229.9531 49.5156 L227 49.5156 ZM232.2812 49.5156 L230.8594 49.5156 L230.8594 44.125 L230.2344 44.125 L226.3438 49.6406 L226.3438 50.1875 L229.9531 50.1875 L229.9531 53 L230.8594 53 L230.8594 50.1875 L232.2812 50.1875 L232.2812 49.5156 Z"
      /><rect x="213" y="42" width="6" style="fill:white; stroke:none;" height="13"
      /><path style="stroke:none;" d="M215.0938 48.2031 C215.0938 46.6562 215.75 45.8125 216.7969 45.8125 C217.7188 45.8125 218.2656 46.4531 218.2656 47.5156 C218.2656 48.7188 217.5 49.4375 216.1875 49.7031 L216.2969 50.3125 C218.2188 50.2344 218.9375 51.2188 218.9375 52.4375 C218.9375 53.625 218.2344 54.4219 216.9531 54.4219 C216.25 54.4219 215.6562 54.1562 215.0938 53.7188 L215.0938 48.2031 ZM214.2031 54.9062 L214.1094 57.375 L214.2656 57.4844 L215.1562 57.2656 L215.0156 54.0938 C215.5469 54.8438 216.3594 55.1719 217.1719 55.1719 C218.5625 55.1719 219.8594 54.2188 219.8594 52.4844 C219.8594 50.9531 218.875 50.1094 217.125 50 C218.5625 49.6094 219.1875 48.4531 219.1875 47.4844 C219.1875 46.0938 218.1562 45.3125 216.9062 45.3125 C215.2969 45.3125 214.2188 46.5469 214.2188 48.5156 L214.2031 54.9062 Z"
      /><rect x="279" y="44" width="6" style="fill:white; stroke:none;" height="10"
      /><path style="stroke:none;" d="M281.2344 45.6562 C281.5156 45.5938 281.7656 45.5625 282.0156 45.5625 C283.0625 45.5625 283.6719 46.1719 283.6719 47.2656 C283.6719 48.4375 282.9062 49.1094 281.7031 49.1094 L281.1875 49.1094 L281.1875 49.6406 L281.7969 49.6406 C283.2188 49.6406 283.9062 50.4219 283.9062 51.6406 C283.9062 52.8438 283.1719 53.6875 281.875 53.6875 C281.6094 53.6875 281.3125 53.6562 281.0156 53.5625 L280.7812 52.8125 C280.625 52.2812 280.5 52.0469 280.1406 52.0469 C279.8906 52.0469 279.7031 52.1719 279.5781 52.4219 C279.8438 53.6406 280.7812 54.1719 282.0312 54.1719 C283.7188 54.1719 284.875 53.125 284.875 51.7031 C284.875 50.5 284.2031 49.625 282.7969 49.375 C283.9531 49.0156 284.6094 48.2031 284.6094 47.2031 C284.6094 45.9219 283.6719 45.0781 282.1875 45.0781 C281.0469 45.0781 280.0625 45.5938 279.7969 46.6875 C279.9062 47 280.1094 47.1094 280.3594 47.1094 C280.7344 47.1094 280.8906 46.8906 281 46.4062 L281.2344 45.6562 Z"
      /><rect x="265" y="42" width="6" style="fill:white; stroke:none;" height="13"
      /><path style="stroke:none;" d="M267.0938 48.2031 C267.0938 46.6562 267.75 45.8125 268.7969 45.8125 C269.7188 45.8125 270.2656 46.4531 270.2656 47.5156 C270.2656 48.7188 269.5 49.4375 268.1875 49.7031 L268.2969 50.3125 C270.2188 50.2344 270.9375 51.2188 270.9375 52.4375 C270.9375 53.625 270.2344 54.4219 268.9531 54.4219 C268.25 54.4219 267.6562 54.1562 267.0938 53.7188 L267.0938 48.2031 ZM266.2031 54.9062 L266.1094 57.375 L266.2656 57.4844 L267.1562 57.2656 L267.0156 54.0938 C267.5469 54.8438 268.3594 55.1719 269.1719 55.1719 C270.5625 55.1719 271.8594 54.2188 271.8594 52.4844 C271.8594 50.9531 270.875 50.1094 269.125 50 C270.5625 49.6094 271.1875 48.4531 271.1875 47.4844 C271.1875 46.0938 270.1562 45.3125 268.9062 45.3125 C267.2969 45.3125 266.2188 46.5469 266.2188 48.5156 L266.2031 54.9062 Z"
      /><rect x="358" y="55" width="6" style="fill:white; stroke:none;" height="10"
      /><path style="stroke:none;" d="M360.2344 56.6562 C360.5156 56.5938 360.7656 56.5625 361.0156 56.5625 C362.0625 56.5625 362.6719 57.1719 362.6719 58.2656 C362.6719 59.4375 361.9062 60.1094 360.7031 60.1094 L360.1875 60.1094 L360.1875 60.6406 L360.7969 60.6406 C362.2188 60.6406 362.9062 61.4219 362.9062 62.6406 C362.9062 63.8438 362.1719 64.6875 360.875 64.6875 C360.6094 64.6875 360.3125 64.6562 360.0156 64.5625 L359.7812 63.8125 C359.625 63.2812 359.5 63.0469 359.1406 63.0469 C358.8906 63.0469 358.7031 63.1719 358.5781 63.4219 C358.8438 64.6406 359.7812 65.1719 361.0312 65.1719 C362.7188 65.1719 363.875 64.125 363.875 62.7031 C363.875 61.5 363.2031 60.625 361.7969 60.375 C362.9531 60.0156 363.6094 59.2031 363.6094 58.2031 C363.6094 56.9219 362.6719 56.0781 361.1875 56.0781 C360.0469 56.0781 359.0625 56.5938 358.7969 57.6875 C358.9062 58 359.1094 58.1094 359.3594 58.1094 C359.7344 58.1094 359.8906 57.8906 360 57.4062 L360.2344 56.6562 Z"
      /><rect x="357" y="70" width="8" style="fill:white; stroke:none;" height="8"
      /><path style="stroke:none;" d="M361.9844 75.7031 C361.9375 76.8906 361.1562 77.6562 360.3125 77.6562 C359.2656 77.6562 358.5 76.6875 358.5 74.7188 C358.5 73.2812 359.1562 72.1562 360.3438 72.1562 C361.1406 72.1562 361.7812 72.6875 362.0938 73.6406 L361.9844 75.7031 ZM363.9062 77.2812 C363.7344 77.375 363.5469 77.4219 363.3438 77.4219 C362.9531 77.4219 362.75 77.2188 362.75 76.4219 C362.75 75.4844 362.9688 73.5312 363.1875 71.8281 L363.0312 71.7188 L362.2344 71.9219 L362.1406 72.7969 C361.7812 72.0312 361.1562 71.6562 360.3906 71.6562 C359.0469 71.6562 357.5625 72.8438 357.5625 74.9531 C357.5625 77.0938 358.7188 78.1719 360.1406 78.1719 C361.0156 78.1719 361.6875 77.8125 362.0938 76.9844 C362.2031 77.8594 362.5156 78.1719 363.0156 78.1719 C363.4688 78.1719 363.7969 77.9062 364.0156 77.5625 L363.9062 77.2812 Z"
      /><rect x="330" y="44" width="7" style="fill:white; stroke:none;" height="9"
      /><path style="stroke:none;" d="M331 49.5156 L333.9531 45.2656 L333.9531 49.5156 L331 49.5156 ZM336.2812 49.5156 L334.8594 49.5156 L334.8594 44.125 L334.2344 44.125 L330.3438 49.6406 L330.3438 50.1875 L333.9531 50.1875 L333.9531 53 L334.8594 53 L334.8594 50.1875 L336.2812 50.1875 L336.2812 49.5156 Z"
      /><rect x="317" y="42" width="6" style="fill:white; stroke:none;" height="13"
      /><path style="stroke:none;" d="M319.0938 48.2031 C319.0938 46.6562 319.75 45.8125 320.7969 45.8125 C321.7188 45.8125 322.2656 46.4531 322.2656 47.5156 C322.2656 48.7188 321.5 49.4375 320.1875 49.7031 L320.2969 50.3125 C322.2188 50.2344 322.9375 51.2188 322.9375 52.4375 C322.9375 53.625 322.2344 54.4219 320.9531 54.4219 C320.25 54.4219 319.6562 54.1562 319.0938 53.7188 L319.0938 48.2031 ZM318.2031 54.9062 L318.1094 57.375 L318.2656 57.4844 L319.1562 57.2656 L319.0156 54.0938 C319.5469 54.8438 320.3594 55.1719 321.1719 55.1719 C322.5625 55.1719 323.8594 54.2188 323.8594 52.4844 C323.8594 50.9531 322.875 50.1094 321.125 50 C322.5625 49.6094 323.1875 48.4531 323.1875 47.4844 C323.1875 46.0938 322.1562 45.3125 320.9062 45.3125 C319.2969 45.3125 318.2188 46.5469 318.2188 48.5156 L318.2031 54.9062 Z"
      /><rect x="383" y="44" width="6" style="fill:white; stroke:none;" height="10"
      /><path style="stroke:none;" d="M385.2344 45.6562 C385.5156 45.5938 385.7656 45.5625 386.0156 45.5625 C387.0625 45.5625 387.6719 46.1719 387.6719 47.2656 C387.6719 48.4375 386.9062 49.1094 385.7031 49.1094 L385.1875 49.1094 L385.1875 49.6406 L385.7969 49.6406 C387.2188 49.6406 387.9062 50.4219 387.9062 51.6406 C387.9062 52.8438 387.1719 53.6875 385.875 53.6875 C385.6094 53.6875 385.3125 53.6562 385.0156 53.5625 L384.7812 52.8125 C384.625 52.2812 384.5 52.0469 384.1406 52.0469 C383.8906 52.0469 383.7031 52.1719 383.5781 52.4219 C383.8438 53.6406 384.7812 54.1719 386.0312 54.1719 C387.7188 54.1719 388.875 53.125 388.875 51.7031 C388.875 50.5 388.2031 49.625 386.7969 49.375 C387.9531 49.0156 388.6094 48.2031 388.6094 47.2031 C388.6094 45.9219 387.6719 45.0781 386.1875 45.0781 C385.0469 45.0781 384.0625 45.5938 383.7969 46.6875 C383.9062 47 384.1094 47.1094 384.3594 47.1094 C384.7344 47.1094 384.8906 46.8906 385 46.4062 L385.2344 45.6562 Z"
      /><rect x="369" y="42" width="6" style="fill:white; stroke:none;" height="13"
      /><path style="stroke:none;" d="M371.0938 48.2031 C371.0938 46.6562 371.75 45.8125 372.7969 45.8125 C373.7188 45.8125 374.2656 46.4531 374.2656 47.5156 C374.2656 48.7188 373.5 49.4375 372.1875 49.7031 L372.2969 50.3125 C374.2188 50.2344 374.9375 51.2188 374.9375 52.4375 C374.9375 53.625 374.2344 54.4219 372.9531 54.4219 C372.25 54.4219 371.6562 54.1562 371.0938 53.7188 L371.0938 48.2031 ZM370.2031 54.9062 L370.1094 57.375 L370.2656 57.4844 L371.1562 57.2656 L371.0156 54.0938 C371.5469 54.8438 372.3594 55.1719 373.1719 55.1719 C374.5625 55.1719 375.8594 54.2188 375.8594 52.4844 C375.8594 50.9531 374.875 50.1094 373.125 50 C374.5625 49.6094 375.1875 48.4531 375.1875 47.4844 C375.1875 46.0938 374.1562 45.3125 372.9062 45.3125 C371.2969 45.3125 370.2188 46.5469 370.2188 48.5156 L370.2031 54.9062 Z"
      /><rect x="434" y="44" width="7" style="fill:white; stroke:none;" height="9"
      /><path style="stroke:none;" d="M435 49.5156 L437.9531 45.2656 L437.9531 49.5156 L435 49.5156 ZM440.2812 49.5156 L438.8594 49.5156 L438.8594 44.125 L438.2344 44.125 L434.3438 49.6406 L434.3438 50.1875 L437.9531 50.1875 L437.9531 53 L438.8594 53 L438.8594 50.1875 L440.2812 50.1875 L440.2812 49.5156 Z"
      /><rect x="421" y="42" width="6" style="fill:white; stroke:none;" height="13"
      /><path style="stroke:none;" d="M423.0938 48.2031 C423.0938 46.6562 423.75 45.8125 424.7969 45.8125 C425.7188 45.8125 426.2656 46.4531 426.2656 47.5156 C426.2656 48.7188 425.5 49.4375 424.1875 49.7031 L424.2969 50.3125 C426.2188 50.2344 426.9375 51.2188 426.9375 52.4375 C426.9375 53.625 426.2344 54.4219 424.9531 54.4219 C424.25 54.4219 423.6562 54.1562 423.0938 53.7188 L423.0938 48.2031 ZM422.2031 54.9062 L422.1094 57.375 L422.2656 57.4844 L423.1562 57.2656 L423.0156 54.0938 C423.5469 54.8438 424.3594 55.1719 425.1719 55.1719 C426.5625 55.1719 427.8594 54.2188 427.8594 52.4844 C427.8594 50.9531 426.875 50.1094 425.125 50 C426.5625 49.6094 427.1875 48.4531 427.1875 47.4844 C427.1875 46.0938 426.1562 45.3125 424.9062 45.3125 C423.2969 45.3125 422.2188 46.5469 422.2188 48.5156 L422.2031 54.9062 Z"
      /><rect x="487" y="44" width="6" style="fill:white; stroke:none;" height="10"
      /><path style="stroke:none;" d="M489.2344 45.6562 C489.5156 45.5938 489.7656 45.5625 490.0156 45.5625 C491.0625 45.5625 491.6719 46.1719 491.6719 47.2656 C491.6719 48.4375 490.9062 49.1094 489.7031 49.1094 L489.1875 49.1094 L489.1875 49.6406 L489.7969 49.6406 C491.2188 49.6406 491.9062 50.4219 491.9062 51.6406 C491.9062 52.8438 491.1719 53.6875 489.875 53.6875 C489.6094 53.6875 489.3125 53.6562 489.0156 53.5625 L488.7812 52.8125 C488.625 52.2812 488.5 52.0469 488.1406 52.0469 C487.8906 52.0469 487.7031 52.1719 487.5781 52.4219 C487.8438 53.6406 488.7812 54.1719 490.0312 54.1719 C491.7188 54.1719 492.875 53.125 492.875 51.7031 C492.875 50.5 492.2031 49.625 490.7969 49.375 C491.9531 49.0156 492.6094 48.2031 492.6094 47.2031 C492.6094 45.9219 491.6719 45.0781 490.1875 45.0781 C489.0469 45.0781 488.0625 45.5938 487.7969 46.6875 C487.9062 47 488.1094 47.1094 488.3594 47.1094 C488.7344 47.1094 488.8906 46.8906 489 46.4062 L489.2344 45.6562 Z"
      /><rect x="473" y="42" width="6" style="fill:white; stroke:none;" height="13"
      /><path style="stroke:none;" d="M475.0938 48.2031 C475.0938 46.6562 475.75 45.8125 476.7969 45.8125 C477.7188 45.8125 478.2656 46.4531 478.2656 47.5156 C478.2656 48.7188 477.5 49.4375 476.1875 49.7031 L476.2969 50.3125 C478.2188 50.2344 478.9375 51.2188 478.9375 52.4375 C478.9375 53.625 478.2344 54.4219 476.9531 54.4219 C476.25 54.4219 475.6562 54.1562 475.0938 53.7188 L475.0938 48.2031 ZM474.2031 54.9062 L474.1094 57.375 L474.2656 57.4844 L475.1562 57.2656 L475.0156 54.0938 C475.5469 54.8438 476.3594 55.1719 477.1719 55.1719 C478.5625 55.1719 479.8594 54.2188 479.8594 52.4844 C479.8594 50.9531 478.875 50.1094 477.125 50 C478.5625 49.6094 479.1875 48.4531 479.1875 47.4844 C479.1875 46.0938 478.1562 45.3125 476.9062 45.3125 C475.2969 45.3125 474.2188 46.5469 474.2188 48.5156 L474.2031 54.9062 Z"
      /><rect x="538" y="44" width="7" style="fill:white; stroke:none;" height="9"
      /><path style="stroke:none;" d="M539 49.5156 L541.9531 45.2656 L541.9531 49.5156 L539 49.5156 ZM544.2812 49.5156 L542.8594 49.5156 L542.8594 44.125 L542.2344 44.125 L538.3438 49.6406 L538.3438 50.1875 L541.9531 50.1875 L541.9531 53 L542.8594 53 L542.8594 50.1875 L544.2812 50.1875 L544.2812 49.5156 Z"
      /><rect x="525" y="42" width="6" style="fill:white; stroke:none;" height="13"
      /><path style="stroke:none;" d="M527.0938 48.2031 C527.0938 46.6562 527.75 45.8125 528.7969 45.8125 C529.7188 45.8125 530.2656 46.4531 530.2656 47.5156 C530.2656 48.7188 529.5 49.4375 528.1875 49.7031 L528.2969 50.3125 C530.2188 50.2344 530.9375 51.2188 530.9375 52.4375 C530.9375 53.625 530.2344 54.4219 528.9531 54.4219 C528.25 54.4219 527.6562 54.1562 527.0938 53.7188 L527.0938 48.2031 ZM526.2031 54.9062 L526.1094 57.375 L526.2656 57.4844 L527.1562 57.2656 L527.0156 54.0938 C527.5469 54.8438 528.3594 55.1719 529.1719 55.1719 C530.5625 55.1719 531.8594 54.2188 531.8594 52.4844 C531.8594 50.9531 530.875 50.1094 529.125 50 C530.5625 49.6094 531.1875 48.4531 531.1875 47.4844 C531.1875 46.0938 530.1562 45.3125 528.9062 45.3125 C527.2969 45.3125 526.2188 46.5469 526.2188 48.5156 L526.2031 54.9062 Z"
      /><rect x="591" y="44" width="6" style="fill:white; stroke:none;" height="10"
      /><path style="stroke:none;" d="M593.2344 45.6562 C593.5156 45.5938 593.7656 45.5625 594.0156 45.5625 C595.0625 45.5625 595.6719 46.1719 595.6719 47.2656 C595.6719 48.4375 594.9062 49.1094 593.7031 49.1094 L593.1875 49.1094 L593.1875 49.6406 L593.7969 49.6406 C595.2188 49.6406 595.9062 50.4219 595.9062 51.6406 C595.9062 52.8438 595.1719 53.6875 593.875 53.6875 C593.6094 53.6875 593.3125 53.6562 593.0156 53.5625 L592.7812 52.8125 C592.625 52.2812 592.5 52.0469 592.1406 52.0469 C591.8906 52.0469 591.7031 52.1719 591.5781 52.4219 C591.8438 53.6406 592.7812 54.1719 594.0312 54.1719 C595.7188 54.1719 596.875 53.125 596.875 51.7031 C596.875 50.5 596.2031 49.625 594.7969 49.375 C595.9531 49.0156 596.6094 48.2031 596.6094 47.2031 C596.6094 45.9219 595.6719 45.0781 594.1875 45.0781 C593.0469 45.0781 592.0625 45.5938 591.7969 46.6875 C591.9062 47 592.1094 47.1094 592.3594 47.1094 C592.7344 47.1094 592.8906 46.8906 593 46.4062 L593.2344 45.6562 Z"
      /><rect x="577" y="42" width="6" style="fill:white; stroke:none;" height="13"
      /><path style="stroke:none;" d="M579.0938 48.2031 C579.0938 46.6562 579.75 45.8125 580.7969 45.8125 C581.7188 45.8125 582.2656 46.4531 582.2656 47.5156 C582.2656 48.7188 581.5 49.4375 580.1875 49.7031 L580.2969 50.3125 C582.2188 50.2344 582.9375 51.2188 582.9375 52.4375 C582.9375 53.625 582.2344 54.4219 580.9531 54.4219 C580.25 54.4219 579.6562 54.1562 579.0938 53.7188 L579.0938 48.2031 ZM578.2031 54.9062 L578.1094 57.375 L578.2656 57.4844 L579.1562 57.2656 L579.0156 54.0938 C579.5469 54.8438 580.3594 55.1719 581.1719 55.1719 C582.5625 55.1719 583.8594 54.2188 583.8594 52.4844 C583.8594 50.9531 582.875 50.1094 581.125 50 C582.5625 49.6094 583.1875 48.4531 583.1875 47.4844 C583.1875 46.0938 582.1562 45.3125 580.9062 45.3125 C579.2969 45.3125 578.2188 46.5469 578.2188 48.5156 L578.2031 54.9062 Z"
      /><rect x="642" y="44" width="7" style="fill:white; stroke:none;" height="9"
      /><path style="stroke:none;" d="M643 49.5156 L645.9531 45.2656 L645.9531 49.5156 L643 49.5156 ZM648.2812 49.5156 L646.8594 49.5156 L646.8594 44.125 L646.2344 44.125 L642.3438 49.6406 L642.3438 50.1875 L645.9531 50.1875 L645.9531 53 L646.8594 53 L646.8594 50.1875 L648.2812 50.1875 L648.2812 49.5156 Z"
      /><rect x="629" y="42" width="6" style="fill:white; stroke:none;" height="13"
      /><path style="stroke:none;" d="M631.0938 48.2031 C631.0938 46.6562 631.75 45.8125 632.7969 45.8125 C633.7188 45.8125 634.2656 46.4531 634.2656 47.5156 C634.2656 48.7188 633.5 49.4375 632.1875 49.7031 L632.2969 50.3125 C634.2188 50.2344 634.9375 51.2188 634.9375 52.4375 C634.9375 53.625 634.2344 54.4219 632.9531 54.4219 C632.25 54.4219 631.6562 54.1562 631.0938 53.7188 L631.0938 48.2031 ZM630.2031 54.9062 L630.1094 57.375 L630.2656 57.4844 L631.1562 57.2656 L631.0156 54.0938 C631.5469 54.8438 632.3594 55.1719 633.1719 55.1719 C634.5625 55.1719 635.8594 54.2188 635.8594 52.4844 C635.8594 50.9531 634.875 50.1094 633.125 50 C634.5625 49.6094 635.1875 48.4531 635.1875 47.4844 C635.1875 46.0938 634.1562 45.3125 632.9062 45.3125 C631.2969 45.3125 630.2188 46.5469 630.2188 48.5156 L630.2031 54.9062 Z"
      /><rect x="681" y="42" width="6" style="fill:white; stroke:none;" height="13"
      /><path style="stroke:none;" d="M683.0938 48.2031 C683.0938 46.6562 683.75 45.8125 684.7969 45.8125 C685.7188 45.8125 686.2656 46.4531 686.2656 47.5156 C686.2656 48.7188 685.5 49.4375 684.1875 49.7031 L684.2969 50.3125 C686.2188 50.2344 686.9375 51.2188 686.9375 52.4375 C686.9375 53.625 686.2344 54.4219 684.9531 54.4219 C684.25 54.4219 683.6562 54.1562 683.0938 53.7188 L683.0938 48.2031 ZM682.2031 54.9062 L682.1094 57.375 L682.2656 57.4844 L683.1562 57.2656 L683.0156 54.0938 C683.5469 54.8438 684.3594 55.1719 685.1719 55.1719 C686.5625 55.1719 687.8594 54.2188 687.8594 52.4844 C687.8594 50.9531 686.875 50.1094 685.125 50 C686.5625 49.6094 687.1875 48.4531 687.1875 47.4844 C687.1875 46.0938 686.1562 45.3125 684.9062 45.3125 C683.2969 45.3125 682.2188 46.5469 682.2188 48.5156 L682.2031 54.9062 Z"
    /></g
  ></g
></svg
>
