<?xml version="1.0"?>
<!DOCTYPE svg PUBLIC '-//W3C//DTD SVG 1.0//EN'
          'http://www.w3.org/TR/2001/REC-SVG-20010904/DTD/svg10.dtd'>
<svg xmlns:xlink="http://www.w3.org/1999/xlink" style="fill-opacity:1; color-rendering:auto; color-interpolation:auto; text-rendering:auto; stroke:black; stroke-linecap:square; stroke-miterlimit:10; shape-rendering:auto; stroke-opacity:1; fill:black; stroke-dasharray:none; font-weight:normal; stroke-width:1; font-family:'Dialog'; font-style:normal; stroke-linejoin:miter; font-size:12px; stroke-dashoffset:0; image-rendering:auto;" viewBox="0 0 134 82" xmlns="http://www.w3.org/2000/svg"
><!--Generated by the Batik Graphics2D SVG Generator--><defs id="genericDefs"
  /><g
  ><defs id="defs1"
    ><clipPath clipPathUnits="userSpaceOnUse" id="clipPath1"
      ><path style="fill-rule:evenodd;" d="M41 30 L51 37 L47 49 L34 49 L30 37 L41 30 Z"
      /></clipPath
    ></defs
    ><g style="fill:white; text-rendering:optimizeSpeed; stroke:white;"
    ><rect x="0" width="134" height="82" y="0" style="stroke:none;"
      /><polygon style="fill:none; stroke:black;" points=" 93 41 41 41"
      /><path d="M93 30 C87.5 35.5 98.5 46.5 93 52" style="fill:none; stroke:black;"
      /><polygon style="clip-path:url(#clipPath1); stroke:none;" points=" 41 30 51 37 47 49 34 49 30 37 41 30"
      /><rect x="30" y="30" width="22" style="clip-path:url(#clipPath1); stroke:none;" height="22"
      /><rect x="30" y="30" width="22" style="clip-path:url(#clipPath1); fill:none; stroke:black;" height="22"
      /><polygon style="fill:none; stroke:black;" points=" 41 30 51 37 47 49 34 49 30 37 41 30"
    /></g
    ><g style="text-rendering:optimizeSpeed; font-size:14px; font-family:'SansSerif';"
    ><path style="stroke:none;" d="M39.2344 46 L44.8594 46 L44.8594 44.9375 L42.7969 44.9375 L42.7969 35.7188 L41.8281 35.7188 C41.2656 36.0625 40.6094 36.2969 39.6875 36.4688 L39.6875 37.2812 L41.5156 37.2812 L41.5156 44.9375 L39.2344 44.9375 L39.2344 46 Z"
    /></g
    ><g style="fill:white; text-rendering:optimizeSpeed; font-family:'Serif'; stroke:white;"
    ><rect x="57" width="6" height="13" y="42" style="stroke:none;"
      /><path d="M59.0938 48.2031 C59.0938 46.6562 59.75 45.8125 60.7969 45.8125 C61.7188 45.8125 62.2656 46.4531 62.2656 47.5156 C62.2656 48.7188 61.5 49.4375 60.1875 49.7031 L60.2969 50.3125 C62.2188 50.2344 62.9375 51.2188 62.9375 52.4375 C62.9375 53.625 62.2344 54.4219 60.9531 54.4219 C60.25 54.4219 59.6562 54.1562 59.0938 53.7188 L59.0938 48.2031 ZM58.2031 54.9062 L58.1094 57.375 L58.2656 57.4844 L59.1562 57.2656 L59.0156 54.0938 C59.5469 54.8438 60.3594 55.1719 61.1719 55.1719 C62.5625 55.1719 63.8594 54.2188 63.8594 52.4844 C63.8594 50.9531 62.875 50.1094 61.125 50 C62.5625 49.6094 63.1875 48.4531 63.1875 47.4844 C63.1875 46.0938 62.1562 45.3125 60.9062 45.3125 C59.2969 45.3125 58.2188 46.5469 58.2188 48.5156 L58.2031 54.9062 Z" style="fill:black; stroke:none;"
    /></g
    ><g ID="legend-1:0" style="text-rendering:optimizeSpeed; font-size:10px; font-family:'SansSerif';"
    ><path style="stroke:none;" d="M30.875 67 L34.9062 67 L34.9062 66.2344 L33.4375 66.2344 L33.4375 59.6562 L32.7344 59.6562 C32.3281 59.9062 31.8594 60.0625 31.2031 60.1875 L31.2031 60.7656 L32.5156 60.7656 L32.5156 66.2344 L30.875 66.2344 L30.875 67 ZM35.925 62.4531 L40.7219 62.4531 L40.7219 61.7656 L35.925 61.7656 L35.925 62.4531 ZM35.925 64.8438 L40.7219 64.8438 L40.7219 64.1719 L35.925 64.1719 L35.925 64.8438 ZM42.1 67 L43.975 67 C46.1937 67 47.3969 65.625 47.3969 63.3125 C47.3969 60.9844 46.1937 59.6562 43.9437 59.6562 L42.1 59.6562 L42.1 67 ZM43.0375 66.2344 L43.0375 60.4219 L43.8656 60.4219 C45.5844 60.4219 46.4437 61.4531 46.4437 63.3125 C46.4437 65.1562 45.5844 66.2344 43.8656 66.2344 L43.0375 66.2344 ZM48.4231 64.5469 L50.9856 64.5469 L50.9856 63.8438 L48.4231 63.8438 L48.4231 64.5469 ZM54.19 69.5 C55.8775 69.5 56.94 68.625 56.94 67.625 C56.94 66.7344 56.2993 66.3281 55.0337 66.3281 L53.9868 66.3281 C53.2525 66.3281 53.0337 66.0938 53.0337 65.7344 C53.0337 65.4375 53.1743 65.2656 53.3775 65.0938 C53.6275 65.2031 53.9243 65.2812 54.19 65.2812 C55.2837 65.2812 56.1743 64.5469 56.1743 63.3906 C56.1743 62.9219 55.9868 62.5156 55.7368 62.2656 L56.8462 62.2656 L56.8462 61.5625 L54.9556 61.5625 C54.7525 61.5 54.4868 61.4375 54.19 61.4375 C53.0962 61.4375 52.1431 62.1875 52.1431 63.375 C52.1431 64.0156 52.5025 64.5469 52.8618 64.8281 L52.8618 64.875 C52.5806 65.0625 52.2525 65.4375 52.2525 65.875 C52.2525 66.3125 52.4556 66.5938 52.7525 66.7656 L52.7525 66.8125 C52.2368 67.1406 51.9556 67.5781 51.9556 68.0469 C51.9556 68.9844 52.8618 69.5 54.19 69.5 ZM54.19 64.6562 C53.565 64.6562 53.0337 64.1562 53.0337 63.375 C53.0337 62.5625 53.5493 62.0938 54.19 62.0938 C54.8306 62.0938 55.3462 62.5781 55.3462 63.375 C55.3462 64.1562 54.815 64.6562 54.19 64.6562 ZM54.315 68.875 C53.3462 68.875 52.7525 68.5 52.7525 67.9219 C52.7525 67.5938 52.9087 67.2812 53.2993 67 C53.5337 67.0625 53.7993 67.0938 54.0025 67.0938 L54.94 67.0938 C55.6587 67.0938 56.0493 67.2656 56.0493 67.7656 C56.0493 68.3281 55.3618 68.875 54.315 68.875 ZM57.9918 67 L58.8981 67 L58.8981 63.5156 C59.2575 62.5781 59.82 62.2656 60.2731 62.2656 C60.4918 62.2656 60.6168 62.2812 60.8043 62.3438 L60.9762 61.5469 C60.8043 61.4531 60.6325 61.4375 60.3825 61.4375 C59.7731 61.4375 59.2262 61.875 58.8512 62.5625 L58.82 62.5625 L58.7418 61.5625 L57.9918 61.5625 L57.9918 67 ZM63.9812 67.125 C65.3093 67.125 66.4968 66.0938 66.4968 64.2969 C66.4968 62.4844 65.3093 61.4375 63.9812 61.4375 C62.6531 61.4375 61.4656 62.4844 61.4656 64.2969 C61.4656 66.0938 62.6531 67.125 63.9812 67.125 ZM63.9812 66.375 C63.0437 66.375 62.4031 65.5469 62.4031 64.2969 C62.4031 63.0469 63.0437 62.1875 63.9812 62.1875 C64.9187 62.1875 65.5593 63.0469 65.5593 64.2969 C65.5593 65.5469 64.9187 66.375 63.9812 66.375 ZM67.4631 64.5469 L70.0256 64.5469 L70.0256 63.8438 L67.4631 63.8438 L67.4631 64.5469 ZM71.3706 68.9844 L72.2924 68.9844 C72.2768 68.0781 72.2612 67.2188 72.2299 66.2969 C72.7924 66.9219 73.4956 67.125 74.1674 67.125 C75.2768 67.125 76.2924 66.3125 76.2924 64.8438 C76.2924 63.7031 75.6362 62.8906 74.5424 62.7344 L74.5424 62.6875 C75.2456 62.2656 75.6362 61.6406 75.6362 60.8281 C75.6362 59.5312 74.6518 58.9062 73.6049 58.9062 C72.0737 58.9062 71.3706 60.0156 71.3706 61.5156 L71.3706 68.9844 ZM73.9643 66.375 C73.3862 66.375 72.7612 66.1875 72.2299 65.5156 C72.2299 64.2031 72.2456 62.9375 72.2612 61.6406 C72.2768 60.3438 72.7768 59.6406 73.6049 59.6406 C74.2143 59.6406 74.7456 60.0625 74.7456 60.9062 C74.7456 61.625 74.3081 62.4062 73.1674 62.625 L73.2924 63.3281 C73.4799 63.2812 73.6674 63.2656 73.8549 63.2656 C74.8862 63.2656 75.3862 63.9219 75.3862 64.7969 C75.3862 65.7812 74.7456 66.375 73.9643 66.375 ZM77.2431 64.5469 L79.8056 64.5469 L79.8056 63.8438 L77.2431 63.8438 L77.2431 64.5469 ZM81.2599 67 L83.1349 67 C85.3537 67 86.5568 65.625 86.5568 63.3125 C86.5568 60.9844 85.3537 59.6562 83.1037 59.6562 L81.2599 59.6562 L81.2599 67 ZM82.1974 66.2344 L82.1974 60.4219 L83.0256 60.4219 C84.7443 60.4219 85.6037 61.4531 85.6037 63.3125 C85.6037 65.1562 84.7443 66.2344 83.0256 66.2344 L82.1974 66.2344 ZM87.5831 64.5469 L90.1456 64.5469 L90.1456 63.8438 L87.5831 63.8438 L87.5831 64.5469 ZM93.2249 67.125 C93.5531 67.125 93.9124 67.0312 94.2249 66.9375 L94.0531 66.25 C93.8656 66.3125 93.6156 66.3906 93.4281 66.3906 C92.8031 66.3906 92.5843 66.0156 92.5843 65.3438 L92.5843 62.3125 L94.0531 62.3125 L94.0531 61.5625 L92.5843 61.5625 L92.5843 60.0469 L91.8343 60.0469 L91.7249 61.5625 L90.8656 61.625 L90.8656 62.3125 L91.6781 62.3125 L91.6781 65.3125 C91.6781 66.4062 92.0687 67.125 93.2249 67.125 ZM96.5418 67.125 C97.2137 67.125 97.8231 66.7812 98.3387 66.3438 L98.3699 66.3438 L98.4481 67 L99.1981 67 L99.1981 63.6562 C99.1981 62.3125 98.6356 61.4375 97.3231 61.4375 C96.4481 61.4375 95.6824 61.8125 95.1824 62.1406 L95.5418 62.7656 C95.9637 62.4844 96.5418 62.1875 97.1668 62.1875 C98.0574 62.1875 98.2918 62.8594 98.2918 63.5625 C95.9793 63.8125 94.9481 64.4062 94.9481 65.5938 C94.9481 66.5625 95.6356 67.125 96.5418 67.125 ZM96.8074 66.4062 C96.2606 66.4062 95.8387 66.1562 95.8387 65.5312 C95.8387 64.8281 96.4637 64.375 98.2918 64.1562 L98.2918 65.6875 C97.7606 66.1562 97.3231 66.4062 96.8074 66.4062 ZM101.8849 67.125 C102.1349 67.125 102.2912 67.0938 102.4162 67.0469 L102.2912 66.3438 C102.1974 66.375 102.1506 66.375 102.1037 66.375 C101.9631 66.375 101.8381 66.2656 101.8381 65.9844 L101.8381 59.0469 L100.9318 59.0469 L100.9318 65.9219 C100.9318 66.6875 101.2131 67.125 101.8849 67.125 ZM106.563 67.125 C108.4068 67.125 109.7037 65.6562 109.7037 63.3125 C109.7037 60.9531 108.4068 59.5312 106.563 59.5312 C104.7349 59.5312 103.438 60.9531 103.438 63.3125 C103.438 65.6562 104.7349 67.125 106.563 67.125 ZM106.563 66.3125 C105.2505 66.3125 104.3912 65.1406 104.3912 63.3125 C104.3912 61.4688 105.2505 60.3438 106.563 60.3438 C107.8755 60.3438 108.7505 61.4688 108.7505 63.3125 C108.7505 65.1406 107.8755 66.3125 106.563 66.3125 ZM113.3424 67.125 C113.983 67.125 114.608 66.875 115.0924 66.4375 L114.7018 65.8281 C114.358 66.1406 113.9205 66.375 113.4205 66.375 C112.4205 66.375 111.733 65.5469 111.733 64.2969 C111.733 63.0469 112.4674 62.1875 113.4518 62.1875 C113.8737 62.1875 114.2174 62.3906 114.5299 62.6719 L114.9987 62.0625 C114.608 61.7344 114.1237 61.4375 113.4049 61.4375 C112.0143 61.4375 110.7955 62.4844 110.7955 64.2969 C110.7955 66.0938 111.9049 67.125 113.3424 67.125 ZM117.9949 67.125 C118.323 67.125 118.6824 67.0312 118.9949 66.9375 L118.823 66.25 C118.6355 66.3125 118.3855 66.3906 118.198 66.3906 C117.573 66.3906 117.3543 66.0156 117.3543 65.3438 L117.3543 62.3125 L118.823 62.3125 L118.823 61.5625 L117.3543 61.5625 L117.3543 60.0469 L116.6043 60.0469 L116.4949 61.5625 L115.6355 61.625 L115.6355 62.3125 L116.448 62.3125 L116.448 65.3125 C116.448 66.4062 116.8387 67.125 117.9949 67.125 ZM120.0618 69.2969 L120.968 69.2969 L120.968 67.4531 L120.9524 66.5 C121.4368 66.9062 121.9524 67.125 122.4524 67.125 C123.7024 67.125 124.8118 66.0625 124.8118 64.2031 C124.8118 62.5312 124.0462 61.4375 122.6555 61.4375 C122.0149 61.4375 121.4055 61.7969 120.9212 62.1875 L120.8899 62.1875 L120.8118 61.5625 L120.0618 61.5625 L120.0618 69.2969 ZM122.2962 66.375 C121.9368 66.375 121.4524 66.2188 120.968 65.7969 L120.968 62.9531 C121.4993 62.4531 121.968 62.2031 122.4368 62.2031 C123.4524 62.2031 123.8587 63.0156 123.8587 64.2031 C123.8587 65.5625 123.2024 66.375 122.2962 66.375 Z"
    /></g
  ></g
></svg
>
