<?xml version="1.0"?>
<!DOCTYPE svg PUBLIC '-//W3C//DTD SVG 1.0//EN'
          'http://www.w3.org/TR/2001/REC-SVG-20010904/DTD/svg10.dtd'>
<svg xmlns:xlink="http://www.w3.org/1999/xlink" style="fill-opacity:1; color-rendering:auto; color-interpolation:auto; text-rendering:auto; stroke:black; stroke-linecap:square; stroke-miterlimit:10; shape-rendering:auto; stroke-opacity:1; fill:black; stroke-dasharray:none; font-weight:normal; stroke-width:1; font-family:'Dialog'; font-style:normal; stroke-linejoin:miter; font-size:12px; stroke-dashoffset:0; image-rendering:auto;" viewBox="0 0 240 128" xmlns="http://www.w3.org/2000/svg"
><!--Generated by the Batik Graphics2D SVG Generator--><defs id="genericDefs"
  /><g
  ><defs id="defs1"
    ><clipPath clipPathUnits="userSpaceOnUse" id="clipPath1"
      ><path style="fill-rule:evenodd;" d="M133 53 L135 60 L143 60 L136 65 L139 72 L133 68 L126 72 L129 65 L122 60 L130 60 L133 53 Z"
      /></clipPath
      ><clipPath clipPathUnits="userSpaceOnUse" id="clipPath2"
      ><path style="fill-rule:evenodd;" d="M54 53 L56 60 L64 60 L57 65 L60 72 L54 68 L47 72 L50 65 L43 60 L51 60 L54 53 Z"
      /></clipPath
    ></defs
    ><g style="fill:white; text-rendering:optimizeSpeed; stroke:white;"
    ><rect x="0" width="240" height="128" y="0" style="stroke:none;"
      /><polygon style="fill:none; stroke:black;" points=" 199 64 133 64"
      /><path d="M199 53 C193.5 58.5 204.5 69.5 199 75" style="fill:none; stroke:black;"
      /><polygon style="fill:none; stroke:black;" points=" 133 64 54 64"
      /><polygon style="clip-path:url(#clipPath1); stroke:none;" points=" 133 53 135 60 143 60 136 65 139 72 133 68 126 72 129 65 122 60 130 60 133 53"
      /><rect x="122" y="53" width="22" style="clip-path:url(#clipPath1); fill:rgb(246,158,161); stroke:none;" height="22"
      /><rect x="122" y="53" width="22" style="clip-path:url(#clipPath1); fill:none; stroke:black;" height="22"
      /><polygon style="fill:none; stroke:black;" points=" 133 53 135 60 143 60 136 65 139 72 133 68 126 72 129 65 122 60 130 60 133 53"
    /></g
    ><g style="text-rendering:optimizeSpeed; font-size:10px; font-family:'SansSerif';"
    ><path style="stroke:none;" d="M131 67 L135.125 67 L135.125 66.2031 L131.9375 66.2031 L131.9375 59.6562 L131 59.6562 L131 67 Z"
      /><rect x="134" y="81" width="22" style="fill:white; stroke:none;" height="10"
      /><path style="stroke:none;" d="M134.6094 92 L141.0625 92 L141.0625 90.8906 L138.2344 90.8906 C137.7031 90.8906 137.0781 90.9531 136.5469 90.9844 C138.9531 88.7031 140.5625 86.625 140.5625 84.5781 C140.5625 82.75 139.4219 81.5469 137.5781 81.5469 C136.2812 81.5469 135.4062 82.1406 134.5625 83.0469 L135.2969 83.7812 C135.8594 83.1094 136.5938 82.5938 137.4375 82.5938 C138.7031 82.5938 139.3125 83.4531 139.3125 84.625 C139.3125 86.3906 137.8438 88.4375 134.6094 91.25 L134.6094 92 ZM144.9418 86.2656 C145.3168 85.0938 145.645 83.9844 145.9731 82.7812 L146.02 82.7812 C146.3637 83.9844 146.6762 85.0938 147.0668 86.2656 L147.5512 87.8281 L144.4418 87.8281 L144.9418 86.2656 ZM141.8168 92 L143.1293 92 L144.1293 88.8594 L147.8793 88.8594 L148.8481 92 L150.2231 92 L146.7387 81.7188 L145.3012 81.7188 L141.8168 92 ZM154.5492 92.1875 C155.4554 92.1875 156.3304 91.8281 157.0179 91.2188 L156.4554 90.3594 C155.9867 90.7969 155.3617 91.125 154.6586 91.125 C153.2679 91.125 152.3148 89.9531 152.3148 88.2031 C152.3148 86.4531 153.3148 85.2656 154.7054 85.2656 C155.3148 85.2656 155.7679 85.5469 156.2211 85.9375 L156.8773 85.0938 C156.3304 84.625 155.6429 84.2031 154.6429 84.2031 C152.7054 84.2031 150.9867 85.6719 150.9867 88.2031 C150.9867 90.7188 152.5336 92.1875 154.5492 92.1875 Z"
      /><rect x="109" y="81" width="22" style="fill:white; stroke:none;" height="10"
      /><path style="stroke:none;" d="M112.7031 92.1875 C114.5156 92.1875 115.9844 91.0938 115.9844 89.25 C115.9844 87.8594 115.0156 86.9375 113.8125 86.6562 L113.8125 86.5938 C114.8906 86.1875 115.6406 85.3594 115.6406 84.125 C115.6406 82.5 114.375 81.5469 112.6562 81.5469 C111.4688 81.5469 110.5469 82.0625 109.7812 82.7812 L110.4688 83.5938 C111.0469 83 111.7656 82.5938 112.5938 82.5938 C113.6562 82.5938 114.3281 83.2344 114.3281 84.2188 C114.3281 85.3281 113.6094 86.1719 111.4844 86.1719 L111.4844 87.1562 C113.8594 87.1562 114.6875 87.9844 114.6875 89.2031 C114.6875 90.3906 113.8125 91.125 112.5938 91.125 C111.4375 91.125 110.6562 90.5781 110.0469 89.9375 L109.4062 90.7812 C110.0781 91.5156 111.0938 92.1875 112.7031 92.1875 ZM119.9418 86.2656 C120.3168 85.0938 120.645 83.9844 120.9731 82.7812 L121.02 82.7812 C121.3637 83.9844 121.6762 85.0938 122.0668 86.2656 L122.5512 87.8281 L119.4418 87.8281 L119.9418 86.2656 ZM116.8168 92 L118.1293 92 L119.1293 88.8594 L122.8793 88.8594 L123.8481 92 L125.2231 92 L121.7387 81.7188 L120.3012 81.7188 L116.8168 92 ZM129.5492 92.1875 C130.4554 92.1875 131.3304 91.8281 132.0179 91.2188 L131.4554 90.3594 C130.9867 90.7969 130.3617 91.125 129.6586 91.125 C128.2679 91.125 127.3148 89.9531 127.3148 88.2031 C127.3148 86.4531 128.3148 85.2656 129.7054 85.2656 C130.3148 85.2656 130.7679 85.5469 131.2211 85.9375 L131.8773 85.0938 C131.3304 84.625 130.6429 84.2031 129.6429 84.2031 C127.7054 84.2031 125.9867 85.6719 125.9867 88.2031 C125.9867 90.7188 127.5336 92.1875 129.5492 92.1875 Z"
    /></g
    ><g style="fill:white; text-rendering:optimizeSpeed; stroke:white;"
    ><polygon style="stroke:none; clip-path:url(#clipPath2);" points=" 54 53 56 60 64 60 57 65 60 72 54 68 47 72 50 65 43 60 51 60 54 53"
      /><rect x="43" y="53" width="22" style="clip-path:url(#clipPath2); fill:rgb(255,212,0); stroke:none;" height="22"
      /><rect x="43" y="53" width="22" style="clip-path:url(#clipPath2); fill:none; stroke:black;" height="22"
      /><polygon style="fill:none; stroke:black;" points=" 54 53 56 60 64 60 57 65 60 72 54 68 47 72 50 65 43 60 51 60 54 53"
    /></g
    ><g style="text-rendering:optimizeSpeed; font-size:10px; font-family:'SansSerif';"
    ><path style="stroke:none;" d="M50.0625 68 L50.9844 68 L50.9844 63.3125 L52.125 63.3125 L52.125 62.5625 L50.9844 62.5625 L50.9844 61.7031 C50.9844 61.0156 51.2344 60.6406 51.75 60.6406 C51.9375 60.6406 52.1562 60.6875 52.3594 60.7812 L52.5625 60.0938 C52.3125 59.9844 51.9844 59.9062 51.6562 59.9062 C50.5625 59.9062 50.0625 60.5938 50.0625 61.7031 L50.0625 62.5625 L49.3281 62.625 L49.3281 63.3125 L50.0625 63.3125 L50.0625 68 ZM53.25 68 L55.125 68 C57.3438 68 58.5469 66.625 58.5469 64.3125 C58.5469 61.9844 57.3438 60.6562 55.0938 60.6562 L53.25 60.6562 L53.25 68 ZM54.1875 67.2344 L54.1875 61.4219 L55.0156 61.4219 C56.7344 61.4219 57.5938 62.4531 57.5938 64.3125 C57.5938 66.1562 56.7344 67.2344 55.0156 67.2344 L54.1875 67.2344 Z"
      /><rect x="55" y="81" width="22" style="fill:white; stroke:none;" height="10"
      /><path style="stroke:none;" d="M55.6094 92 L62.0625 92 L62.0625 90.8906 L59.2344 90.8906 C58.7031 90.8906 58.0781 90.9531 57.5469 90.9844 C59.9531 88.7031 61.5625 86.625 61.5625 84.5781 C61.5625 82.75 60.4219 81.5469 58.5781 81.5469 C57.2812 81.5469 56.4062 82.1406 55.5625 83.0469 L56.2969 83.7812 C56.8594 83.1094 57.5938 82.5938 58.4375 82.5938 C59.7031 82.5938 60.3125 83.4531 60.3125 84.625 C60.3125 86.3906 58.8438 88.4375 55.6094 91.25 L55.6094 92 ZM65.9418 86.2656 C66.3168 85.0938 66.645 83.9844 66.9731 82.7812 L67.02 82.7812 C67.3637 83.9844 67.6762 85.0938 68.0668 86.2656 L68.5512 87.8281 L65.4418 87.8281 L65.9418 86.2656 ZM62.8168 92 L64.1293 92 L65.1293 88.8594 L68.8793 88.8594 L69.8481 92 L71.2231 92 L67.7387 81.7188 L66.3012 81.7188 L62.8168 92 ZM75.5492 92.1875 C76.4554 92.1875 77.3304 91.8281 78.0179 91.2188 L77.4554 90.3594 C76.9867 90.7969 76.3617 91.125 75.6586 91.125 C74.2679 91.125 73.3148 89.9531 73.3148 88.2031 C73.3148 86.4531 74.3148 85.2656 75.7054 85.2656 C76.3148 85.2656 76.7679 85.5469 77.2211 85.9375 L77.8773 85.0938 C77.3304 84.625 76.6429 84.2031 75.6429 84.2031 C73.7054 84.2031 71.9867 85.6719 71.9867 88.2031 C71.9867 90.7188 73.5336 92.1875 75.5492 92.1875 Z"
      /><rect x="30" y="81" width="22" style="fill:white; stroke:none;" height="10"
      /><path style="stroke:none;" d="M33.7031 92.1875 C35.5156 92.1875 36.9844 91.0938 36.9844 89.25 C36.9844 87.8594 36.0156 86.9375 34.8125 86.6562 L34.8125 86.5938 C35.8906 86.1875 36.6406 85.3594 36.6406 84.125 C36.6406 82.5 35.375 81.5469 33.6562 81.5469 C32.4688 81.5469 31.5469 82.0625 30.7812 82.7812 L31.4688 83.5938 C32.0469 83 32.7656 82.5938 33.5938 82.5938 C34.6562 82.5938 35.3281 83.2344 35.3281 84.2188 C35.3281 85.3281 34.6094 86.1719 32.4844 86.1719 L32.4844 87.1562 C34.8594 87.1562 35.6875 87.9844 35.6875 89.2031 C35.6875 90.3906 34.8125 91.125 33.5938 91.125 C32.4375 91.125 31.6562 90.5781 31.0469 89.9375 L30.4062 90.7812 C31.0781 91.5156 32.0938 92.1875 33.7031 92.1875 ZM40.9418 86.2656 C41.3168 85.0938 41.645 83.9844 41.9731 82.7812 L42.02 82.7812 C42.3637 83.9844 42.6762 85.0938 43.0668 86.2656 L43.5512 87.8281 L40.4418 87.8281 L40.9418 86.2656 ZM37.8168 92 L39.1293 92 L40.1293 88.8594 L43.8793 88.8594 L44.8481 92 L46.2231 92 L42.7387 81.7188 L41.3012 81.7188 L37.8168 92 ZM50.5492 92.1875 C51.4554 92.1875 52.3304 91.8281 53.0179 91.2188 L52.4554 90.3594 C51.9867 90.7969 51.3617 91.125 50.6586 91.125 C49.2679 91.125 48.3148 89.9531 48.3148 88.2031 C48.3148 86.4531 49.3148 85.2656 50.7054 85.2656 C51.3148 85.2656 51.7679 85.5469 52.2211 85.9375 L52.8773 85.0938 C52.3304 84.625 51.6429 84.2031 50.6429 84.2031 C48.7054 84.2031 46.9867 85.6719 46.9867 88.2031 C46.9867 90.7188 48.5336 92.1875 50.5492 92.1875 Z"
      /><rect x="42" y="35" width="22" style="fill:white; stroke:none;" height="10"
      /><path style="stroke:none;" d="M45.6562 46.1875 C47.3906 46.1875 49.0156 44.9062 49.0156 42.6562 C49.0156 40.4062 47.625 39.3906 45.9219 39.3906 C45.2969 39.3906 44.8594 39.5469 44.3906 39.7969 L44.6406 36.8281 L48.5312 36.8281 L48.5312 35.7188 L43.5312 35.7188 L43.2031 40.5469 L43.8906 40.9531 C44.4844 40.5625 44.9062 40.3594 45.5938 40.3594 C46.8906 40.3594 47.7188 41.2188 47.7188 42.7031 C47.7188 44.1875 46.75 45.125 45.5469 45.125 C44.3594 45.125 43.6094 44.5781 43.0156 43.9844 L42.3906 44.8281 C43.0781 45.5156 44.0625 46.1875 45.6562 46.1875 ZM52.9418 40.2656 C53.3168 39.0938 53.645 37.9844 53.9731 36.7812 L54.02 36.7812 C54.3637 37.9844 54.6762 39.0938 55.0668 40.2656 L55.5512 41.8281 L52.4418 41.8281 L52.9418 40.2656 ZM49.8168 46 L51.1293 46 L52.1293 42.8594 L55.8793 42.8594 L56.8481 46 L58.2231 46 L54.7387 35.7188 L53.3012 35.7188 L49.8168 46 ZM62.5492 46.1875 C63.4554 46.1875 64.3304 45.8281 65.0179 45.2188 L64.4554 44.3594 C63.9867 44.7969 63.3617 45.125 62.6586 45.125 C61.2679 45.125 60.3148 43.9531 60.3148 42.2031 C60.3148 40.4531 61.3148 39.2656 62.7054 39.2656 C63.3148 39.2656 63.7679 39.5469 64.2211 39.9375 L64.8773 39.0938 C64.3304 38.625 63.6429 38.2031 62.6429 38.2031 C60.7054 38.2031 58.9867 39.6719 58.9867 42.2031 C58.9867 44.7188 60.5336 46.1875 62.5492 46.1875 Z"
    /></g
    ><g style="fill:white; text-rendering:optimizeSpeed; font-family:'Serif'; stroke:white;"
    ><rect x="97" width="7" height="9" y="67" style="stroke:none;"
      /><path d="M98 72.5156 L100.9531 68.2656 L100.9531 72.5156 L98 72.5156 ZM103.2812 72.5156 L101.8594 72.5156 L101.8594 67.125 L101.2344 67.125 L97.3438 72.6406 L97.3438 73.1875 L100.9531 73.1875 L100.9531 76 L101.8594 76 L101.8594 73.1875 L103.2812 73.1875 L103.2812 72.5156 Z" style="fill:black; stroke:none;"
      /><rect x="84" width="6" height="13" y="65" style="stroke:none;"
      /><path d="M86.0938 71.2031 C86.0938 69.6562 86.75 68.8125 87.7969 68.8125 C88.7188 68.8125 89.2656 69.4531 89.2656 70.5156 C89.2656 71.7188 88.5 72.4375 87.1875 72.7031 L87.2969 73.3125 C89.2188 73.2344 89.9375 74.2188 89.9375 75.4375 C89.9375 76.625 89.2344 77.4219 87.9531 77.4219 C87.25 77.4219 86.6562 77.1562 86.0938 76.7188 L86.0938 71.2031 ZM85.2031 77.9062 L85.1094 80.375 L85.2656 80.4844 L86.1562 80.2656 L86.0156 77.0938 C86.5469 77.8438 87.3594 78.1719 88.1719 78.1719 C89.5625 78.1719 90.8594 77.2188 90.8594 75.4844 C90.8594 73.9531 89.875 73.1094 88.125 73 C89.5625 72.6094 90.1875 71.4531 90.1875 70.4844 C90.1875 69.0938 89.1562 68.3125 87.9062 68.3125 C86.2969 68.3125 85.2188 69.5469 85.2188 71.5156 L85.2031 77.9062 Z" style="fill:black; stroke:none;"
      /><rect x="162" width="8" height="8" y="68" style="stroke:none;"
      /><path d="M166.9844 73.7031 C166.9375 74.8906 166.1562 75.6562 165.3125 75.6562 C164.2656 75.6562 163.5 74.6875 163.5 72.7188 C163.5 71.2812 164.1562 70.1562 165.3438 70.1562 C166.1406 70.1562 166.7812 70.6875 167.0938 71.6406 L166.9844 73.7031 ZM168.9062 75.2812 C168.7344 75.375 168.5469 75.4219 168.3438 75.4219 C167.9531 75.4219 167.75 75.2188 167.75 74.4219 C167.75 73.4844 167.9688 71.5312 168.1875 69.8281 L168.0312 69.7188 L167.2344 69.9219 L167.1406 70.7969 C166.7812 70.0312 166.1562 69.6562 165.3906 69.6562 C164.0469 69.6562 162.5625 70.8438 162.5625 72.9531 C162.5625 75.0938 163.7188 76.1719 165.1406 76.1719 C166.0156 76.1719 166.6875 75.8125 167.0938 74.9844 C167.2031 75.8594 167.5156 76.1719 168.0156 76.1719 C168.4688 76.1719 168.7969 75.9062 169.0156 75.5625 L168.9062 75.2812 Z" style="fill:black; stroke:none;"
    /></g
  ></g
></svg
>
