<?xml version="1.0"?>
<!DOCTYPE svg PUBLIC '-//W3C//DTD SVG 1.0//EN'
          'http://www.w3.org/TR/2001/REC-SVG-20010904/DTD/svg10.dtd'>
<svg xmlns:xlink="http://www.w3.org/1999/xlink" style="fill-opacity:1; color-rendering:auto; color-interpolation:auto; text-rendering:auto; stroke:black; stroke-linecap:square; stroke-miterlimit:10; shape-rendering:auto; stroke-opacity:1; fill:black; stroke-dasharray:none; font-weight:normal; stroke-width:1; font-family:'Dialog'; font-style:normal; stroke-linejoin:miter; font-size:12px; stroke-dashoffset:0; image-rendering:auto;" viewBox="0 0 550 186" xmlns="http://www.w3.org/2000/svg"
><!--Generated by the Batik Graphics2D SVG Generator--><defs id="genericDefs"
  /><g
  ><defs id="defs1"
    ><clipPath clipPathUnits="userSpaceOnUse" id="clipPath1"
      ><path d="M446 95 L468 95 L468 117 L446 117 L446 95 Z"
      /></clipPath
      ><clipPath clipPathUnits="userSpaceOnUse" id="clipPath2"
      ><path d="M394 95 L416 95 L416 117 L394 117 L394 95 Z"
      /></clipPath
      ><clipPath clipPathUnits="userSpaceOnUse" id="clipPath3"
      ><path d="M364 106 C364 112.0751 359.0751 117 353 117 C346.9249 117 342 112.0751 342 106 C342 99.9249 346.9249 95 353 95 C359.0751 95 364 99.9249 364 106 Z"
      /></clipPath
      ><clipPath clipPathUnits="userSpaceOnUse" id="clipPath4"
      ><path d="M312 145 C312 151.0751 307.0751 156 301 156 C294.9249 156 290 151.0751 290 145 C290 138.9249 294.9249 134 301 134 C307.0751 134 312 138.9249 312 145 Z"
      /></clipPath
      ><clipPath clipPathUnits="userSpaceOnUse" id="clipPath5"
      ><path d="M260 145 C260 151.0751 255.0751 156 249 156 C242.9249 156 238 151.0751 238 145 C238 138.9249 242.9249 134 249 134 C255.0751 134 260 138.9249 260 145 Z"
      /></clipPath
      ><clipPath clipPathUnits="userSpaceOnUse" id="clipPath6"
      ><path d="M208 145 C208 151.0751 203.0751 156 197 156 C190.9249 156 186 151.0751 186 145 C186 138.9249 190.9249 134 197 134 C203.0751 134 208 138.9249 208 145 Z"
      /></clipPath
      ><clipPath clipPathUnits="userSpaceOnUse" id="clipPath7"
      ><path d="M156 145 C156 151.0751 151.0751 156 145 156 C138.9249 156 134 151.0751 134 145 C134 138.9249 138.9249 134 145 134 C151.0751 134 156 138.9249 156 145 Z"
      /></clipPath
      ><clipPath clipPathUnits="userSpaceOnUse" id="clipPath8"
      ><path d="M104 145 C104 151.0751 99.0751 156 93 156 C86.9249 156 82 151.0751 82 145 C82 138.9249 86.9249 134 93 134 C99.0751 134 104 138.9249 104 145 Z"
      /></clipPath
      ><clipPath clipPathUnits="userSpaceOnUse" id="clipPath9"
      ><path d="M52 145 C52 151.0751 47.0751 156 41 156 C34.9249 156 30 151.0751 30 145 C30 138.9249 34.9249 134 41 134 C47.0751 134 52 138.9249 52 145 Z"
      /></clipPath
      ><clipPath clipPathUnits="userSpaceOnUse" id="clipPath10"
      ><path d="M312 67 C312 73.0751 307.0751 78 301 78 C294.9249 78 290 73.0751 290 67 C290 60.9249 294.9249 56 301 56 C307.0751 56 312 60.9249 312 67 Z"
      /></clipPath
      ><clipPath clipPathUnits="userSpaceOnUse" id="clipPath11"
      ><path d="M260 93 C260 99.0751 255.0751 104 249 104 C242.9249 104 238 99.0751 238 93 C238 86.9249 242.9249 82 249 82 C255.0751 82 260 86.9249 260 93 Z"
      /></clipPath
      ><clipPath clipPathUnits="userSpaceOnUse" id="clipPath12"
      ><path d="M208 93 C208 99.0751 203.0751 104 197 104 C190.9249 104 186 99.0751 186 93 C186 86.9249 190.9249 82 197 82 C203.0751 82 208 86.9249 208 93 Z"
      /></clipPath
      ><clipPath clipPathUnits="userSpaceOnUse" id="clipPath13"
      ><path d="M260 41 C260 47.0751 255.0751 52 249 52 C242.9249 52 238 47.0751 238 41 C238 34.9249 242.9249 30 249 30 C255.0751 30 260 34.9249 260 41 Z"
      /></clipPath
      ><clipPath clipPathUnits="userSpaceOnUse" id="clipPath14"
      ><path d="M208 41 C208 47.0751 203.0751 52 197 52 C190.9249 52 186 47.0751 186 41 C186 34.9249 190.9249 30 197 30 C203.0751 30 208 34.9249 208 41 Z"
      /></clipPath
    ></defs
    ><g style="fill:white; text-rendering:optimizeSpeed; stroke:white;"
    ><rect x="0" width="550" height="186" y="0" style="stroke:none;"
      /><polygon style="fill:none; stroke:black;" points=" 509 106 457 106"
      /><path d="M509 95 C503.5 100.5 514.5 111.5 509 117" style="fill:none; stroke:black;"
      /><polygon style="fill:none; stroke:black;" points=" 457 106 405 106"
      /><rect x="446" y="95" width="22" style="clip-path:url(#clipPath1); stroke:none;" height="22"
      /><rect x="446" y="95" width="22" style="clip-path:url(#clipPath1); fill:rgb(0,144,188); stroke:none;" height="22"
      /><rect x="446" y="95" width="22" style="clip-path:url(#clipPath1); fill:none; stroke:black;" height="22"
      /><rect x="446" y="95" width="22" style="fill:none; stroke:black;" height="22"
      /><polygon style="fill:none; stroke:black;" points=" 405 106 353 106"
      /><rect x="394" y="95" width="22" style="clip-path:url(#clipPath2); stroke:none;" height="22"
      /><rect x="394" y="95" width="22" style="clip-path:url(#clipPath2); fill:rgb(0,144,188); stroke:none;" height="22"
      /><rect x="394" y="95" width="22" style="clip-path:url(#clipPath2); fill:none; stroke:black;" height="22"
      /><rect x="394" y="95" width="22" style="fill:none; stroke:black;" height="22"
      /><polygon style="fill:none; stroke:black;" points=" 353 106 301 145"
      /><polygon style="fill:none; stroke:black;" points=" 353 106 301 67"
      /><circle style="clip-path:url(#clipPath3); stroke:none;" r="11" cx="353" cy="106"
      /><rect x="342" y="95" width="22" style="clip-path:url(#clipPath3); fill:rgb(0,166,81); stroke:none;" height="22"
      /><rect x="342" y="95" width="22" style="clip-path:url(#clipPath3); fill:none; stroke:black;" height="22"
      /><circle style="fill:none; stroke:black;" r="11" cx="353" cy="106"
      /><polygon style="fill:none; stroke:black;" points=" 301 145 249 145"
      /><circle style="clip-path:url(#clipPath4); stroke:none;" r="11" cx="301" cy="145"
      /><rect x="290" y="134" width="22" style="clip-path:url(#clipPath4); fill:rgb(0,166,81); stroke:none;" height="22"
      /><rect x="290" y="134" width="22" style="clip-path:url(#clipPath4); fill:none; stroke:black;" height="22"
      /><circle style="fill:none; stroke:black;" r="11" cx="301" cy="145"
      /><polygon style="fill:none; stroke:black;" points=" 249 145 197 145"
      /><circle style="clip-path:url(#clipPath5); stroke:none;" r="11" cx="249" cy="145"
      /><rect x="238" y="134" width="22" style="clip-path:url(#clipPath5); fill:rgb(0,166,81); stroke:none;" height="22"
      /><rect x="238" y="134" width="22" style="clip-path:url(#clipPath5); fill:none; stroke:black;" height="22"
      /><circle style="fill:none; stroke:black;" r="11" cx="249" cy="145"
      /><polygon style="fill:none; stroke:black;" points=" 197 145 145 145"
      /><circle style="clip-path:url(#clipPath6); stroke:none;" r="11" cx="197" cy="145"
      /><rect x="186" y="134" width="22" style="clip-path:url(#clipPath6); fill:rgb(0,166,81); stroke:none;" height="22"
      /><rect x="186" y="134" width="22" style="clip-path:url(#clipPath6); fill:none; stroke:black;" height="22"
      /><circle style="fill:none; stroke:black;" r="11" cx="197" cy="145"
      /><polygon style="fill:none; stroke:black;" points=" 145 145 93 145"
      /><circle style="clip-path:url(#clipPath7); stroke:none;" r="11" cx="145" cy="145"
      /><rect x="134" y="134" width="22" style="clip-path:url(#clipPath7); fill:rgb(0,144,188); stroke:none;" height="22"
      /><rect x="134" y="134" width="22" style="clip-path:url(#clipPath7); fill:none; stroke:black;" height="22"
      /><circle style="fill:none; stroke:black;" r="11" cx="145" cy="145"
      /><polygon style="fill:none; stroke:black;" points=" 93 145 41 145"
      /><circle style="clip-path:url(#clipPath8); stroke:none;" r="11" cx="93" cy="145"
      /><rect x="82" y="134" width="22" style="clip-path:url(#clipPath8); fill:rgb(0,144,188); stroke:none;" height="22"
      /><rect x="82" y="134" width="22" style="clip-path:url(#clipPath8); fill:none; stroke:black;" height="22"
      /><circle style="fill:none; stroke:black;" r="11" cx="93" cy="145"
      /><circle style="clip-path:url(#clipPath9); stroke:none;" r="11" cx="41" cy="145"
      /><rect x="30" y="134" width="22" style="clip-path:url(#clipPath9); fill:rgb(0,144,188); stroke:none;" height="22"
      /><rect x="30" y="134" width="22" style="clip-path:url(#clipPath9); fill:none; stroke:black;" height="22"
      /><circle style="fill:none; stroke:black;" r="11" cx="41" cy="145"
      /><rect x="71" y="148" width="6" style="stroke:none;" height="9"
    /></g
    ><g style="font-family:'Serif'; text-rendering:optimizeSpeed; "
    ><path style="stroke:none;" d="M72.4219 156.0938 C73.0781 155.375 73.7031 154.7188 74.0312 154.3438 C75.9219 152.3125 76.5312 151.4688 76.5312 150.3594 C76.5312 149.0156 75.7812 148.0781 74.1562 148.0781 C72.9062 148.0781 71.7969 148.7031 71.5938 149.9688 C71.7188 150.2031 71.9062 150.3438 72.1562 150.3438 C72.4688 150.3438 72.6562 150.1094 72.7969 149.5938 L73.0938 148.6719 C73.3906 148.5938 73.6562 148.5625 73.8906 148.5625 C74.9219 148.5625 75.5469 149.3125 75.5469 150.4219 C75.5469 151.4375 74.9844 152.4219 73.7031 153.9062 C73.125 154.5781 72.3906 155.4375 71.6406 156.2812 L71.6406 157 L76.9219 157 L76.9219 156.0938 L72.4219 156.0938 Z"
      /><rect x="56" y="149" width="8" style="fill:white; stroke:none;" height="8"
      /><path style="stroke:none;" d="M60.9844 154.7031 C60.9375 155.8906 60.1562 156.6562 59.3125 156.6562 C58.2656 156.6562 57.5 155.6875 57.5 153.7188 C57.5 152.2812 58.1562 151.1562 59.3438 151.1562 C60.1406 151.1562 60.7812 151.6875 61.0938 152.6406 L60.9844 154.7031 ZM62.9062 156.2812 C62.7344 156.375 62.5469 156.4219 62.3438 156.4219 C61.9531 156.4219 61.75 156.2188 61.75 155.4219 C61.75 154.4844 61.9688 152.5312 62.1875 150.8281 L62.0312 150.7188 L61.2344 150.9219 L61.1406 151.7969 C60.7812 151.0312 60.1562 150.6562 59.3906 150.6562 C58.0469 150.6562 56.5625 151.8438 56.5625 153.9531 C56.5625 156.0938 57.7188 157.1719 59.1406 157.1719 C60.0156 157.1719 60.6875 156.8125 61.0938 155.9844 C61.2031 156.8594 61.5156 157.1719 62.0156 157.1719 C62.4688 157.1719 62.7969 156.9062 63.0156 156.5625 L62.9062 156.2812 Z"
      /><rect x="123" y="148" width="6" style="fill:white; stroke:none;" height="10"
      /><path style="stroke:none;" d="M125.2344 149.6562 C125.5156 149.5938 125.7656 149.5625 126.0156 149.5625 C127.0625 149.5625 127.6719 150.1719 127.6719 151.2656 C127.6719 152.4375 126.9062 153.1094 125.7031 153.1094 L125.1875 153.1094 L125.1875 153.6406 L125.7969 153.6406 C127.2188 153.6406 127.9062 154.4219 127.9062 155.6406 C127.9062 156.8438 127.1719 157.6875 125.875 157.6875 C125.6094 157.6875 125.3125 157.6562 125.0156 157.5625 L124.7812 156.8125 C124.625 156.2812 124.5 156.0469 124.1406 156.0469 C123.8906 156.0469 123.7031 156.1719 123.5781 156.4219 C123.8438 157.6406 124.7812 158.1719 126.0312 158.1719 C127.7188 158.1719 128.875 157.125 128.875 155.7031 C128.875 154.5 128.2031 153.625 126.7969 153.375 C127.9531 153.0156 128.6094 152.2031 128.6094 151.2031 C128.6094 149.9219 127.6719 149.0781 126.1875 149.0781 C125.0469 149.0781 124.0625 149.5938 123.7969 150.6875 C123.9062 151 124.1094 151.1094 124.3594 151.1094 C124.7344 151.1094 124.8906 150.8906 125 150.4062 L125.2344 149.6562 Z"
      /><rect x="108" y="149" width="8" style="fill:white; stroke:none;" height="8"
      /><path style="stroke:none;" d="M112.9844 154.7031 C112.9375 155.8906 112.1562 156.6562 111.3125 156.6562 C110.2656 156.6562 109.5 155.6875 109.5 153.7188 C109.5 152.2812 110.1562 151.1562 111.3438 151.1562 C112.1406 151.1562 112.7812 151.6875 113.0938 152.6406 L112.9844 154.7031 ZM114.9062 156.2812 C114.7344 156.375 114.5469 156.4219 114.3438 156.4219 C113.9531 156.4219 113.75 156.2188 113.75 155.4219 C113.75 154.4844 113.9688 152.5312 114.1875 150.8281 L114.0312 150.7188 L113.2344 150.9219 L113.1406 151.7969 C112.7812 151.0312 112.1562 150.6562 111.3906 150.6562 C110.0469 150.6562 108.5625 151.8438 108.5625 153.9531 C108.5625 156.0938 109.7188 157.1719 111.1406 157.1719 C112.0156 157.1719 112.6875 156.8125 113.0938 155.9844 C113.2031 156.8594 113.5156 157.1719 114.0156 157.1719 C114.4688 157.1719 114.7969 156.9062 115.0156 156.5625 L114.9062 156.2812 Z"
      /><rect x="175" y="148" width="6" style="fill:white; stroke:none;" height="10"
      /><path style="stroke:none;" d="M177.2344 149.6562 C177.5156 149.5938 177.7656 149.5625 178.0156 149.5625 C179.0625 149.5625 179.6719 150.1719 179.6719 151.2656 C179.6719 152.4375 178.9062 153.1094 177.7031 153.1094 L177.1875 153.1094 L177.1875 153.6406 L177.7969 153.6406 C179.2188 153.6406 179.9062 154.4219 179.9062 155.6406 C179.9062 156.8438 179.1719 157.6875 177.875 157.6875 C177.6094 157.6875 177.3125 157.6562 177.0156 157.5625 L176.7812 156.8125 C176.625 156.2812 176.5 156.0469 176.1406 156.0469 C175.8906 156.0469 175.7031 156.1719 175.5781 156.4219 C175.8438 157.6406 176.7812 158.1719 178.0312 158.1719 C179.7188 158.1719 180.875 157.125 180.875 155.7031 C180.875 154.5 180.2031 153.625 178.7969 153.375 C179.9531 153.0156 180.6094 152.2031 180.6094 151.2031 C180.6094 149.9219 179.6719 149.0781 178.1875 149.0781 C177.0469 149.0781 176.0625 149.5938 175.7969 150.6875 C175.9062 151 176.1094 151.1094 176.3594 151.1094 C176.7344 151.1094 176.8906 150.8906 177 150.4062 L177.2344 149.6562 Z"
      /><rect x="160" y="149" width="8" style="fill:white; stroke:none;" height="8"
      /><path style="stroke:none;" d="M164.9844 154.7031 C164.9375 155.8906 164.1562 156.6562 163.3125 156.6562 C162.2656 156.6562 161.5 155.6875 161.5 153.7188 C161.5 152.2812 162.1562 151.1562 163.3438 151.1562 C164.1406 151.1562 164.7812 151.6875 165.0938 152.6406 L164.9844 154.7031 ZM166.9062 156.2812 C166.7344 156.375 166.5469 156.4219 166.3438 156.4219 C165.9531 156.4219 165.75 156.2188 165.75 155.4219 C165.75 154.4844 165.9688 152.5312 166.1875 150.8281 L166.0312 150.7188 L165.2344 150.9219 L165.1406 151.7969 C164.7812 151.0312 164.1562 150.6562 163.3906 150.6562 C162.0469 150.6562 160.5625 151.8438 160.5625 153.9531 C160.5625 156.0938 161.7188 157.1719 163.1406 157.1719 C164.0156 157.1719 164.6875 156.8125 165.0938 155.9844 C165.2031 156.8594 165.5156 157.1719 166.0156 157.1719 C166.4688 157.1719 166.7969 156.9062 167.0156 156.5625 L166.9062 156.2812 Z"
      /><rect x="227" y="148" width="6" style="fill:white; stroke:none;" height="9"
      /><path style="stroke:none;" d="M228.4219 156.0938 C229.0781 155.375 229.7031 154.7188 230.0312 154.3438 C231.9219 152.3125 232.5312 151.4688 232.5312 150.3594 C232.5312 149.0156 231.7812 148.0781 230.1562 148.0781 C228.9062 148.0781 227.7969 148.7031 227.5938 149.9688 C227.7188 150.2031 227.9062 150.3438 228.1562 150.3438 C228.4688 150.3438 228.6562 150.1094 228.7969 149.5938 L229.0938 148.6719 C229.3906 148.5938 229.6562 148.5625 229.8906 148.5625 C230.9219 148.5625 231.5469 149.3125 231.5469 150.4219 C231.5469 151.4375 230.9844 152.4219 229.7031 153.9062 C229.125 154.5781 228.3906 155.4375 227.6406 156.2812 L227.6406 157 L232.9219 157 L232.9219 156.0938 L228.4219 156.0938 Z"
      /><rect x="212" y="149" width="8" style="fill:white; stroke:none;" height="8"
      /><path style="stroke:none;" d="M216.9844 154.7031 C216.9375 155.8906 216.1562 156.6562 215.3125 156.6562 C214.2656 156.6562 213.5 155.6875 213.5 153.7188 C213.5 152.2812 214.1562 151.1562 215.3438 151.1562 C216.1406 151.1562 216.7812 151.6875 217.0938 152.6406 L216.9844 154.7031 ZM218.9062 156.2812 C218.7344 156.375 218.5469 156.4219 218.3438 156.4219 C217.9531 156.4219 217.75 156.2188 217.75 155.4219 C217.75 154.4844 217.9688 152.5312 218.1875 150.8281 L218.0312 150.7188 L217.2344 150.9219 L217.1406 151.7969 C216.7812 151.0312 216.1562 150.6562 215.3906 150.6562 C214.0469 150.6562 212.5625 151.8438 212.5625 153.9531 C212.5625 156.0938 213.7188 157.1719 215.1406 157.1719 C216.0156 157.1719 216.6875 156.8125 217.0938 155.9844 C217.2031 156.8594 217.5156 157.1719 218.0156 157.1719 C218.4688 157.1719 218.7969 156.9062 219.0156 156.5625 L218.9062 156.2812 Z"
      /><rect x="279" y="148" width="6" style="fill:white; stroke:none;" height="9"
      /><path style="stroke:none;" d="M280.4219 156.0938 C281.0781 155.375 281.7031 154.7188 282.0312 154.3438 C283.9219 152.3125 284.5312 151.4688 284.5312 150.3594 C284.5312 149.0156 283.7812 148.0781 282.1562 148.0781 C280.9062 148.0781 279.7969 148.7031 279.5938 149.9688 C279.7188 150.2031 279.9062 150.3438 280.1562 150.3438 C280.4688 150.3438 280.6562 150.1094 280.7969 149.5938 L281.0938 148.6719 C281.3906 148.5938 281.6562 148.5625 281.8906 148.5625 C282.9219 148.5625 283.5469 149.3125 283.5469 150.4219 C283.5469 151.4375 282.9844 152.4219 281.7031 153.9062 C281.125 154.5781 280.3906 155.4375 279.6406 156.2812 L279.6406 157 L284.9219 157 L284.9219 156.0938 L280.4219 156.0938 Z"
      /><rect x="264" y="149" width="8" style="fill:white; stroke:none;" height="8"
      /><path style="stroke:none;" d="M268.9844 154.7031 C268.9375 155.8906 268.1562 156.6562 267.3125 156.6562 C266.2656 156.6562 265.5 155.6875 265.5 153.7188 C265.5 152.2812 266.1562 151.1562 267.3438 151.1562 C268.1406 151.1562 268.7812 151.6875 269.0938 152.6406 L268.9844 154.7031 ZM270.9062 156.2812 C270.7344 156.375 270.5469 156.4219 270.3438 156.4219 C269.9531 156.4219 269.75 156.2188 269.75 155.4219 C269.75 154.4844 269.9688 152.5312 270.1875 150.8281 L270.0312 150.7188 L269.2344 150.9219 L269.1406 151.7969 C268.7812 151.0312 268.1562 150.6562 267.3906 150.6562 C266.0469 150.6562 264.5625 151.8438 264.5625 153.9531 C264.5625 156.0938 265.7188 157.1719 267.1406 157.1719 C268.0156 157.1719 268.6875 156.8125 269.0938 155.9844 C269.2031 156.8594 269.5156 157.1719 270.0156 157.1719 C270.4688 157.1719 270.7969 156.9062 271.0156 156.5625 L270.9062 156.2812 Z"
      /><polygon style="fill:none;" points=" 301 67 249 93"
      /><polygon style="fill:none;" points=" 301 67 249 41"
      /><circle style="fill:white; clip-path:url(#clipPath10); stroke:none;" r="11" cx="301" cy="67"
      /><rect x="290" y="56" width="22" style="clip-path:url(#clipPath10); fill:rgb(0,166,81); stroke:none;" height="22"
      /><rect x="290" y="56" width="22" style="fill:none; clip-path:url(#clipPath10);" height="22"
      /><circle r="11" style="fill:none;" cx="301" cy="67"
      /><polygon style="fill:none;" points=" 249 93 197 93"
      /><circle style="fill:white; clip-path:url(#clipPath11); stroke:none;" r="11" cx="249" cy="93"
      /><rect x="238" y="82" width="22" style="clip-path:url(#clipPath11); fill:rgb(0,166,81); stroke:none;" height="22"
      /><rect x="238" y="82" width="22" style="fill:none; clip-path:url(#clipPath11);" height="22"
      /><circle r="11" style="fill:none;" cx="249" cy="93"
      /><circle style="fill:white; clip-path:url(#clipPath12); stroke:none;" r="11" cx="197" cy="93"
      /><rect x="186" y="82" width="22" style="clip-path:url(#clipPath12); fill:rgb(0,166,81); stroke:none;" height="22"
      /><rect x="186" y="82" width="22" style="fill:none; clip-path:url(#clipPath12);" height="22"
      /><circle r="11" style="fill:none;" cx="197" cy="93"
      /><rect x="227" y="96" width="6" style="fill:white; stroke:none;" height="9"
      /><path style="stroke:none;" d="M228.4219 104.0938 C229.0781 103.375 229.7031 102.7188 230.0312 102.3438 C231.9219 100.3125 232.5312 99.4688 232.5312 98.3594 C232.5312 97.0156 231.7812 96.0781 230.1562 96.0781 C228.9062 96.0781 227.7969 96.7031 227.5938 97.9688 C227.7188 98.2031 227.9062 98.3438 228.1562 98.3438 C228.4688 98.3438 228.6562 98.1094 228.7969 97.5938 L229.0938 96.6719 C229.3906 96.5938 229.6562 96.5625 229.8906 96.5625 C230.9219 96.5625 231.5469 97.3125 231.5469 98.4219 C231.5469 99.4375 230.9844 100.4219 229.7031 101.9062 C229.125 102.5781 228.3906 103.4375 227.6406 104.2812 L227.6406 105 L232.9219 105 L232.9219 104.0938 L228.4219 104.0938 Z"
      /><rect x="212" y="97" width="8" style="fill:white; stroke:none;" height="8"
      /><path style="stroke:none;" d="M216.9844 102.7031 C216.9375 103.8906 216.1562 104.6562 215.3125 104.6562 C214.2656 104.6562 213.5 103.6875 213.5 101.7188 C213.5 100.2812 214.1562 99.1562 215.3438 99.1562 C216.1406 99.1562 216.7812 99.6875 217.0938 100.6406 L216.9844 102.7031 ZM218.9062 104.2812 C218.7344 104.375 218.5469 104.4219 218.3438 104.4219 C217.9531 104.4219 217.75 104.2188 217.75 103.4219 C217.75 102.4844 217.9688 100.5312 218.1875 98.8281 L218.0312 98.7188 L217.2344 98.9219 L217.1406 99.7969 C216.7812 99.0312 216.1562 98.6562 215.3906 98.6562 C214.0469 98.6562 212.5625 99.8438 212.5625 101.9531 C212.5625 104.0938 213.7188 105.1719 215.1406 105.1719 C216.0156 105.1719 216.6875 104.8125 217.0938 103.9844 C217.2031 104.8594 217.5156 105.1719 218.0156 105.1719 C218.4688 105.1719 218.7969 104.9062 219.0156 104.5625 L218.9062 104.2812 Z"
      /><polygon style="fill:none;" points=" 249 41 197 41"
      /><circle style="fill:white; clip-path:url(#clipPath13); stroke:none;" r="11" cx="249" cy="41"
      /><rect x="238" y="30" width="22" style="clip-path:url(#clipPath13); fill:rgb(0,166,81); stroke:none;" height="22"
      /><rect x="238" y="30" width="22" style="fill:none; clip-path:url(#clipPath13);" height="22"
      /><circle r="11" style="fill:none;" cx="249" cy="41"
      /><circle style="fill:white; clip-path:url(#clipPath14); stroke:none;" r="11" cx="197" cy="41"
      /><rect x="186" y="30" width="22" style="clip-path:url(#clipPath14); fill:rgb(0,166,81); stroke:none;" height="22"
      /><rect x="186" y="30" width="22" style="fill:none; clip-path:url(#clipPath14);" height="22"
      /><circle r="11" style="fill:none;" cx="197" cy="41"
      /><rect x="227" y="44" width="6" style="fill:white; stroke:none;" height="9"
      /><path style="stroke:none;" d="M228.4219 52.0938 C229.0781 51.375 229.7031 50.7188 230.0312 50.3438 C231.9219 48.3125 232.5312 47.4688 232.5312 46.3594 C232.5312 45.0156 231.7812 44.0781 230.1562 44.0781 C228.9062 44.0781 227.7969 44.7031 227.5938 45.9688 C227.7188 46.2031 227.9062 46.3438 228.1562 46.3438 C228.4688 46.3438 228.6562 46.1094 228.7969 45.5938 L229.0938 44.6719 C229.3906 44.5938 229.6562 44.5625 229.8906 44.5625 C230.9219 44.5625 231.5469 45.3125 231.5469 46.4219 C231.5469 47.4375 230.9844 48.4219 229.7031 49.9062 C229.125 50.5781 228.3906 51.4375 227.6406 52.2812 L227.6406 53 L232.9219 53 L232.9219 52.0938 L228.4219 52.0938 Z"
      /><rect x="212" y="45" width="8" style="fill:white; stroke:none;" height="8"
      /><path style="stroke:none;" d="M216.9844 50.7031 C216.9375 51.8906 216.1562 52.6562 215.3125 52.6562 C214.2656 52.6562 213.5 51.6875 213.5 49.7188 C213.5 48.2812 214.1562 47.1562 215.3438 47.1562 C216.1406 47.1562 216.7812 47.6875 217.0938 48.6406 L216.9844 50.7031 ZM218.9062 52.2812 C218.7344 52.375 218.5469 52.4219 218.3438 52.4219 C217.9531 52.4219 217.75 52.2188 217.75 51.4219 C217.75 50.4844 217.9688 48.5312 218.1875 46.8281 L218.0312 46.7188 L217.2344 46.9219 L217.1406 47.7969 C216.7812 47.0312 216.1562 46.6562 215.3906 46.6562 C214.0469 46.6562 212.5625 47.8438 212.5625 49.9531 C212.5625 52.0938 213.7188 53.1719 215.1406 53.1719 C216.0156 53.1719 216.6875 52.8125 217.0938 51.9844 C217.2031 52.8594 217.5156 53.1719 218.0156 53.1719 C218.4688 53.1719 218.7969 52.9062 219.0156 52.5625 L218.9062 52.2812 Z"
      /><rect x="283" y="78" width="6" style="fill:white; stroke:none;" height="10"
      /><path style="stroke:none;" d="M285.2344 79.6562 C285.5156 79.5938 285.7656 79.5625 286.0156 79.5625 C287.0625 79.5625 287.6719 80.1719 287.6719 81.2656 C287.6719 82.4375 286.9062 83.1094 285.7031 83.1094 L285.1875 83.1094 L285.1875 83.6406 L285.7969 83.6406 C287.2188 83.6406 287.9062 84.4219 287.9062 85.6406 C287.9062 86.8438 287.1719 87.6875 285.875 87.6875 C285.6094 87.6875 285.3125 87.6562 285.0156 87.5625 L284.7812 86.8125 C284.625 86.2812 284.5 86.0469 284.1406 86.0469 C283.8906 86.0469 283.7031 86.1719 283.5781 86.4219 C283.8438 87.6406 284.7812 88.1719 286.0312 88.1719 C287.7188 88.1719 288.875 87.125 288.875 85.7031 C288.875 84.5 288.2031 83.625 286.7969 83.375 C287.9531 83.0156 288.6094 82.2031 288.6094 81.2031 C288.6094 79.9219 287.6719 79.0781 286.1875 79.0781 C285.0469 79.0781 284.0625 79.5938 283.7969 80.6875 C283.9062 81 284.1094 81.1094 284.3594 81.1094 C284.7344 81.1094 284.8906 80.8906 285 80.4062 L285.2344 79.6562 Z"
      /><rect x="266" y="87" width="8" style="fill:white; stroke:none;" height="8"
      /><path style="stroke:none;" d="M270.9844 92.7031 C270.9375 93.8906 270.1562 94.6562 269.3125 94.6562 C268.2656 94.6562 267.5 93.6875 267.5 91.7188 C267.5 90.2812 268.1562 89.1562 269.3438 89.1562 C270.1406 89.1562 270.7812 89.6875 271.0938 90.6406 L270.9844 92.7031 ZM272.9062 94.2812 C272.7344 94.375 272.5469 94.4219 272.3438 94.4219 C271.9531 94.4219 271.75 94.2188 271.75 93.4219 C271.75 92.4844 271.9688 90.5312 272.1875 88.8281 L272.0312 88.7188 L271.2344 88.9219 L271.1406 89.7969 C270.7812 89.0312 270.1562 88.6562 269.3906 88.6562 C268.0469 88.6562 266.5625 89.8438 266.5625 91.9531 C266.5625 94.0938 267.7188 95.1719 269.1406 95.1719 C270.0156 95.1719 270.6875 94.8125 271.0938 93.9844 C271.2031 94.8594 271.5156 95.1719 272.0156 95.1719 C272.4688 95.1719 272.7969 94.9062 273.0156 94.5625 L272.9062 94.2812 Z"
      /><rect x="276" y="60" width="6" style="fill:white; stroke:none;" height="10"
      /><path style="stroke:none;" d="M279.3438 69.6875 C278.2031 69.6875 277.5312 68.5 277.5312 66.2969 C277.5312 66.2188 277.5312 66.125 277.5312 66.0469 C278.0938 65.5 278.7188 65.3125 279.3438 65.3125 C280.3125 65.3125 280.9531 65.9844 280.9531 67.4531 C280.9531 68.9375 280.3125 69.6875 279.3438 69.6875 ZM281.5312 61.0781 C278.3438 61.4531 276.5625 63.7656 276.5625 66.4531 C276.5625 68.7812 277.6094 70.1719 279.3125 70.1719 C280.8438 70.1719 281.9219 69.1094 281.9219 67.2812 C281.9219 65.6875 280.9688 64.6562 279.5625 64.6562 C278.8281 64.6562 278.1406 64.9844 277.5781 65.5781 C277.7969 63.4062 279.0781 61.9688 281.5938 61.3906 L281.5312 61.0781 Z"
      /><rect x="259" y="53" width="8" style="fill:white; stroke:none;" height="8"
      /><path style="stroke:none;" d="M263.9844 58.7031 C263.9375 59.8906 263.1562 60.6562 262.3125 60.6562 C261.2656 60.6562 260.5 59.6875 260.5 57.7188 C260.5 56.2812 261.1562 55.1562 262.3438 55.1562 C263.1406 55.1562 263.7812 55.6875 264.0938 56.6406 L263.9844 58.7031 ZM265.9062 60.2812 C265.7344 60.375 265.5469 60.4219 265.3438 60.4219 C264.9531 60.4219 264.75 60.2188 264.75 59.4219 C264.75 58.4844 264.9688 56.5312 265.1875 54.8281 L265.0312 54.7188 L264.2344 54.9219 L264.1406 55.7969 C263.7812 55.0312 263.1562 54.6562 262.3906 54.6562 C261.0469 54.6562 259.5625 55.8438 259.5625 57.9531 C259.5625 60.0938 260.7188 61.1719 262.1406 61.1719 C263.0156 61.1719 263.6875 60.8125 264.0938 59.9844 C264.2031 60.8594 264.5156 61.1719 265.0156 61.1719 C265.4688 61.1719 265.7969 60.9062 266.0156 60.5625 L265.9062 60.2812 Z"
      /><rect x="337" y="120" width="6" style="fill:white; stroke:none;" height="10"
      /><path style="stroke:none;" d="M339.2344 121.6562 C339.5156 121.5938 339.7656 121.5625 340.0156 121.5625 C341.0625 121.5625 341.6719 122.1719 341.6719 123.2656 C341.6719 124.4375 340.9062 125.1094 339.7031 125.1094 L339.1875 125.1094 L339.1875 125.6406 L339.7969 125.6406 C341.2188 125.6406 341.9062 126.4219 341.9062 127.6406 C341.9062 128.8438 341.1719 129.6875 339.875 129.6875 C339.6094 129.6875 339.3125 129.6562 339.0156 129.5625 L338.7812 128.8125 C338.625 128.2812 338.5 128.0469 338.1406 128.0469 C337.8906 128.0469 337.7031 128.1719 337.5781 128.4219 C337.8438 129.6406 338.7812 130.1719 340.0312 130.1719 C341.7188 130.1719 342.875 129.125 342.875 127.7031 C342.875 126.5 342.2031 125.625 340.7969 125.375 C341.9531 125.0156 342.6094 124.2031 342.6094 123.2031 C342.6094 121.9219 341.6719 121.0781 340.1875 121.0781 C339.0469 121.0781 338.0625 121.5938 337.7969 122.6875 C337.9062 123 338.1094 123.1094 338.3594 123.1094 C338.7344 123.1094 338.8906 122.8906 339 122.4062 L339.2344 121.6562 Z"
      /><rect x="319" y="134" width="8" style="fill:white; stroke:none;" height="8"
      /><path style="stroke:none;" d="M323.9844 139.7031 C323.9375 140.8906 323.1562 141.6562 322.3125 141.6562 C321.2656 141.6562 320.5 140.6875 320.5 138.7188 C320.5 137.2812 321.1562 136.1562 322.3438 136.1562 C323.1406 136.1562 323.7812 136.6875 324.0938 137.6406 L323.9844 139.7031 ZM325.9062 141.2812 C325.7344 141.375 325.5469 141.4219 325.3438 141.4219 C324.9531 141.4219 324.75 141.2188 324.75 140.4219 C324.75 139.4844 324.9688 137.5312 325.1875 135.8281 L325.0312 135.7188 L324.2344 135.9219 L324.1406 136.7969 C323.7812 136.0312 323.1562 135.6562 322.3906 135.6562 C321.0469 135.6562 319.5625 136.8438 319.5625 138.9531 C319.5625 141.0938 320.7188 142.1719 322.1406 142.1719 C323.0156 142.1719 323.6875 141.8125 324.0938 140.9844 C324.2031 141.8594 324.5156 142.1719 325.0156 142.1719 C325.4688 142.1719 325.7969 141.9062 326.0156 141.5625 L325.9062 141.2812 Z"
      /><rect x="327" y="94" width="6" style="fill:white; stroke:none;" height="10"
      /><path style="stroke:none;" d="M330.3438 103.6875 C329.2031 103.6875 328.5312 102.5 328.5312 100.2969 C328.5312 100.2188 328.5312 100.125 328.5312 100.0469 C329.0938 99.5 329.7188 99.3125 330.3438 99.3125 C331.3125 99.3125 331.9531 99.9844 331.9531 101.4531 C331.9531 102.9375 331.3125 103.6875 330.3438 103.6875 ZM332.5312 95.0781 C329.3438 95.4531 327.5625 97.7656 327.5625 100.4531 C327.5625 102.7812 328.6094 104.1719 330.3125 104.1719 C331.8438 104.1719 332.9219 103.1094 332.9219 101.2812 C332.9219 99.6875 331.9688 98.6562 330.5625 98.6562 C329.8281 98.6562 329.1406 98.9844 328.5781 99.5781 C328.7969 97.4062 330.0781 95.9688 332.5938 95.3906 L332.5312 95.0781 Z"
      /><rect x="309" y="82" width="8" style="fill:white; stroke:none;" height="8"
      /><path style="stroke:none;" d="M313.9844 87.7031 C313.9375 88.8906 313.1562 89.6562 312.3125 89.6562 C311.2656 89.6562 310.5 88.6875 310.5 86.7188 C310.5 85.2812 311.1562 84.1562 312.3438 84.1562 C313.1406 84.1562 313.7812 84.6875 314.0938 85.6406 L313.9844 87.7031 ZM315.9062 89.2812 C315.7344 89.375 315.5469 89.4219 315.3438 89.4219 C314.9531 89.4219 314.75 89.2188 314.75 88.4219 C314.75 87.4844 314.9688 85.5312 315.1875 83.8281 L315.0312 83.7188 L314.2344 83.9219 L314.1406 84.7969 C313.7812 84.0312 313.1562 83.6562 312.3906 83.6562 C311.0469 83.6562 309.5625 84.8438 309.5625 86.9531 C309.5625 89.0938 310.7188 90.1719 312.1406 90.1719 C313.0156 90.1719 313.6875 89.8125 314.0938 88.9844 C314.2031 89.8594 314.5156 90.1719 315.0156 90.1719 C315.4688 90.1719 315.7969 89.9062 316.0156 89.5625 L315.9062 89.2812 Z"
      /><rect x="382" y="109" width="7" style="fill:white; stroke:none;" height="9"
      /><path style="stroke:none;" d="M383 114.5156 L385.9531 110.2656 L385.9531 114.5156 L383 114.5156 ZM388.2812 114.5156 L386.8594 114.5156 L386.8594 109.125 L386.2344 109.125 L382.3438 114.6406 L382.3438 115.1875 L385.9531 115.1875 L385.9531 118 L386.8594 118 L386.8594 115.1875 L388.2812 115.1875 L388.2812 114.5156 Z"
      /><rect x="369" y="107" width="6" style="fill:white; stroke:none;" height="13"
      /><path style="stroke:none;" d="M371.0938 113.2031 C371.0938 111.6562 371.75 110.8125 372.7969 110.8125 C373.7188 110.8125 374.2656 111.4531 374.2656 112.5156 C374.2656 113.7188 373.5 114.4375 372.1875 114.7031 L372.2969 115.3125 C374.2188 115.2344 374.9375 116.2188 374.9375 117.4375 C374.9375 118.625 374.2344 119.4219 372.9531 119.4219 C372.25 119.4219 371.6562 119.1562 371.0938 118.7188 L371.0938 113.2031 ZM370.2031 119.9062 L370.1094 122.375 L370.2656 122.4844 L371.1562 122.2656 L371.0156 119.0938 C371.5469 119.8438 372.3594 120.1719 373.1719 120.1719 C374.5625 120.1719 375.8594 119.2188 375.8594 117.4844 C375.8594 115.9531 374.875 115.1094 373.125 115 C374.5625 114.6094 375.1875 113.4531 375.1875 112.4844 C375.1875 111.0938 374.1562 110.3125 372.9062 110.3125 C371.2969 110.3125 370.2188 111.5469 370.2188 113.5156 L370.2031 119.9062 Z"
      /><rect x="434" y="109" width="7" style="fill:white; stroke:none;" height="9"
      /><path style="stroke:none;" d="M435 114.5156 L437.9531 110.2656 L437.9531 114.5156 L435 114.5156 ZM440.2812 114.5156 L438.8594 114.5156 L438.8594 109.125 L438.2344 109.125 L434.3438 114.6406 L434.3438 115.1875 L437.9531 115.1875 L437.9531 118 L438.8594 118 L438.8594 115.1875 L440.2812 115.1875 L440.2812 114.5156 Z"
      /><rect x="421" y="107" width="6" style="fill:white; stroke:none;" height="13"
      /><path style="stroke:none;" d="M423.0938 113.2031 C423.0938 111.6562 423.75 110.8125 424.7969 110.8125 C425.7188 110.8125 426.2656 111.4531 426.2656 112.5156 C426.2656 113.7188 425.5 114.4375 424.1875 114.7031 L424.2969 115.3125 C426.2188 115.2344 426.9375 116.2188 426.9375 117.4375 C426.9375 118.625 426.2344 119.4219 424.9531 119.4219 C424.25 119.4219 423.6562 119.1562 423.0938 118.7188 L423.0938 113.2031 ZM422.2031 119.9062 L422.1094 122.375 L422.2656 122.4844 L423.1562 122.2656 L423.0156 119.0938 C423.5469 119.8438 424.3594 120.1719 425.1719 120.1719 C426.5625 120.1719 427.8594 119.2188 427.8594 117.4844 C427.8594 115.9531 426.875 115.1094 425.125 115 C426.5625 114.6094 427.1875 113.4531 427.1875 112.4844 C427.1875 111.0938 426.1562 110.3125 424.9062 110.3125 C423.2969 110.3125 422.2188 111.5469 422.2188 113.5156 L422.2031 119.9062 Z"
      /><rect x="472" y="110" width="8" style="fill:white; stroke:none;" height="8"
      /><path style="stroke:none;" d="M476.9844 115.7031 C476.9375 116.8906 476.1562 117.6562 475.3125 117.6562 C474.2656 117.6562 473.5 116.6875 473.5 114.7188 C473.5 113.2812 474.1562 112.1562 475.3438 112.1562 C476.1406 112.1562 476.7812 112.6875 477.0938 113.6406 L476.9844 115.7031 ZM478.9062 117.2812 C478.7344 117.375 478.5469 117.4219 478.3438 117.4219 C477.9531 117.4219 477.75 117.2188 477.75 116.4219 C477.75 115.4844 477.9688 113.5312 478.1875 111.8281 L478.0312 111.7188 L477.2344 111.9219 L477.1406 112.7969 C476.7812 112.0312 476.1562 111.6562 475.3906 111.6562 C474.0469 111.6562 472.5625 112.8438 472.5625 114.9531 C472.5625 117.0938 473.7188 118.1719 475.1406 118.1719 C476.0156 118.1719 476.6875 117.8125 477.0938 116.9844 C477.2031 117.8594 477.5156 118.1719 478.0156 118.1719 C478.4688 118.1719 478.7969 117.9062 479.0156 117.5625 L478.9062 117.2812 Z"
    /></g
  ></g
></svg
>
