<?xml version="1.0"?>
<!DOCTYPE svg PUBLIC '-//W3C//DTD SVG 1.0//EN'
          'http://www.w3.org/TR/2001/REC-SVG-20010904/DTD/svg10.dtd'>
<svg xmlns:xlink="http://www.w3.org/1999/xlink" style="fill-opacity:1; color-rendering:auto; color-interpolation:auto; text-rendering:auto; stroke:black; stroke-linecap:square; stroke-miterlimit:10; shape-rendering:auto; stroke-opacity:1; fill:black; stroke-dasharray:none; font-weight:normal; stroke-width:1; font-family:'Dialog'; font-style:normal; stroke-linejoin:miter; font-size:12px; stroke-dashoffset:0; image-rendering:auto;" viewBox="0 0 143 590" xmlns="http://www.w3.org/2000/svg"
><!--Generated by the Batik Graphics2D SVG Generator--><defs id="genericDefs"
  /><g
  ><defs id="defs1"
    ><clipPath clipPathUnits="userSpaceOnUse" id="clipPath1"
      ><path style="fill-rule:evenodd;" d="M69 526 L63 533 L52 533 L47 526 L52 518 L63 518 L69 526 Z"
      /></clipPath
      ><clipPath clipPathUnits="userSpaceOnUse" id="clipPath2"
      ><path style="fill-rule:evenodd;" d="M58 440 L69 462 L47 462 Z"
      /></clipPath
      ><clipPath clipPathUnits="userSpaceOnUse" id="clipPath3"
      ><path style="fill-rule:evenodd;" d="M58 388 L69 410 L47 410 Z"
      /></clipPath
      ><clipPath clipPathUnits="userSpaceOnUse" id="clipPath4"
      ><path d="M69 347 C69 353.0751 64.0751 358 58 358 C51.9249 358 47 353.0751 47 347 C47 340.9249 51.9249 336 58 336 C64.0751 336 69 340.9249 69 347 Z"
      /></clipPath
      ><clipPath clipPathUnits="userSpaceOnUse" id="clipPath5"
      ><path d="M47 284 L69 284 L69 306 L47 306 L47 284 Z"
      /></clipPath
      ><clipPath clipPathUnits="userSpaceOnUse" id="clipPath6"
      ><path d="M69 243 C69 249.0751 64.0751 254 58 254 C51.9249 254 47 249.0751 47 243 C47 236.9249 51.9249 232 58 232 C64.0751 232 69 236.9249 69 243 Z"
      /></clipPath
      ><clipPath clipPathUnits="userSpaceOnUse" id="clipPath7"
      ><path style="fill-rule:evenodd;" d="M58 180 L69 191 L58 202 L47 191 Z"
      /></clipPath
      ><clipPath clipPathUnits="userSpaceOnUse" id="clipPath8"
      ><path style="fill-rule:evenodd;" d="M58 105 L69 116 L58 127 L47 116 Z"
      /></clipPath
    ></defs
    ><g style="fill:white; text-rendering:optimizeSpeed; stroke:white;"
    ><rect x="0" width="143" height="590" y="0" style="stroke:none;"
      /><polygon style="clip-path:url(#clipPath1); stroke:none;" points=" 69 526 63 533 52 533 47 526 52 518 63 518 69 526"
      /><rect x="47" y="515" width="22" style="clip-path:url(#clipPath1); fill:rgb(255,212,0); stroke:none;" height="22"
      /><rect x="47" y="515" width="22" style="clip-path:url(#clipPath1); fill:none; stroke:black;" height="22"
      /><polygon style="fill:none; stroke:black;" points=" 69 526 63 533 52 533 47 526 52 518 63 518 69 526"
    /></g
    ><g style="text-rendering:optimizeSpeed; font-size:14px; font-family:'SansSerif';"
    ><path style="stroke:none;" d="M50.6094 554 L57.0625 554 L57.0625 552.8906 L54.2344 552.8906 C53.7031 552.8906 53.0781 552.9531 52.5469 552.9844 C54.9531 550.7031 56.5625 548.625 56.5625 546.5781 C56.5625 544.75 55.4219 543.5469 53.5781 543.5469 C52.2812 543.5469 51.4062 544.1406 50.5625 545.0469 L51.2969 545.7812 C51.8594 545.1094 52.5938 544.5938 53.4375 544.5938 C54.7031 544.5938 55.3125 545.4531 55.3125 546.625 C55.3125 548.3906 53.8438 550.4375 50.6094 553.25 L50.6094 554 ZM62.8168 554.1875 C64.9106 554.1875 66.5043 553.0625 66.5043 549.7656 L66.5043 543.7188 L65.2543 543.7188 L65.2543 549.7969 C65.2543 552.2812 64.1762 553.0469 62.8168 553.0469 C61.4731 553.0469 60.4262 552.2812 60.4262 549.7969 L60.4262 543.7188 L59.1293 543.7188 L59.1293 549.7656 C59.1293 553.0625 60.7231 554.1875 62.8168 554.1875 Z"
    /></g
    ><g style="fill:white; text-rendering:optimizeSpeed; font-family:'Serif'; stroke:white;"
    ><rect x="74" width="5" height="10" y="513" style="stroke:none;"
      /><path d="M75.8906 521.6875 C75.4844 521.6875 75.1562 522.0469 75.1562 522.4219 C75.1562 522.8125 75.4844 523.1562 75.8906 523.1562 C76.2969 523.1562 76.6406 522.8125 76.6406 522.4219 C76.6406 522.0469 76.2969 521.6875 75.8906 521.6875 ZM77.4688 515.5781 C77.7188 515.8906 77.875 516.2656 77.8906 516.6562 C77.8906 517.1875 77.625 517.5 77.0312 517.7656 L76.4062 518.0156 C75.6406 518.3125 75.3906 518.5469 75.3906 518.9375 C75.3906 519.1094 75.4531 519.3438 75.5781 519.8125 L75.7344 520.3438 L76.1094 520.3438 L76.0938 519.5312 C76.0938 519.0938 76.2031 518.9688 76.7812 518.7344 L77.2031 518.5625 C78.0312 518.2188 78.4531 517.6875 78.4531 516.8438 C78.4531 515.1562 76.6562 514.1875 75.5 514.0312 C75.1094 514.125 74.9062 514.2969 74.9062 514.6406 C74.9062 514.9375 75.0625 515.1562 75.7188 515.2656 L77.4688 515.5781 Z" style="fill:black; stroke:none;"
      /><rect x="74" width="5" height="10" y="529" style="stroke:none;"
      /><path d="M75.8906 537.6875 C75.4844 537.6875 75.1562 538.0469 75.1562 538.4219 C75.1562 538.8125 75.4844 539.1562 75.8906 539.1562 C76.2969 539.1562 76.6406 538.8125 76.6406 538.4219 C76.6406 538.0469 76.2969 537.6875 75.8906 537.6875 ZM77.4688 531.5781 C77.7188 531.8906 77.875 532.2656 77.8906 532.6562 C77.8906 533.1875 77.625 533.5 77.0312 533.7656 L76.4062 534.0156 C75.6406 534.3125 75.3906 534.5469 75.3906 534.9375 C75.3906 535.1094 75.4531 535.3438 75.5781 535.8125 L75.7344 536.3438 L76.1094 536.3438 L76.0938 535.5312 C76.0938 535.0938 76.2031 534.9688 76.7812 534.7344 L77.2031 534.5625 C78.0312 534.2188 78.4531 533.6875 78.4531 532.8438 C78.4531 531.1562 76.6562 530.1875 75.5 530.0312 C75.1094 530.125 74.9062 530.2969 74.9062 530.6406 C74.9062 530.9375 75.0625 531.1562 75.7188 531.2656 L77.4688 531.5781 Z" style="fill:black; stroke:none;"
    /></g
    ><g style="text-rendering:optimizeSpeed; font-size:14px; font-family:'SansSerif';"
    ><path style="stroke:none;" d="M29.6094 542 L36.0625 542 L36.0625 540.8906 L33.2344 540.8906 C32.7031 540.8906 32.0781 540.9531 31.5469 540.9844 C33.9531 538.7031 35.5625 536.625 35.5625 534.5781 C35.5625 532.75 34.4219 531.5469 32.5781 531.5469 C31.2812 531.5469 30.4062 532.1406 29.5625 533.0469 L30.2969 533.7812 C30.8594 533.1094 31.5938 532.5938 32.4375 532.5938 C33.7031 532.5938 34.3125 533.4531 34.3125 534.625 C34.3125 536.3906 32.8438 538.4375 29.6094 541.25 L29.6094 542 ZM36.9731 542 L38.3168 542 L39.3481 540.2188 C39.6137 539.7656 39.8637 539.2969 40.1293 538.8594 L40.2075 538.8594 C40.4731 539.2969 40.7543 539.7656 41.0043 540.2188 L42.1293 542 L43.5356 542 L41.02 538.1562 L43.3325 534.3906 L42.0043 534.3906 L41.0668 536.0625 C40.8481 536.5 40.6137 536.9219 40.3793 537.3438 L40.3325 537.3438 C40.0668 536.9219 39.8012 536.5 39.5668 536.0625 L38.5512 534.3906 L37.1762 534.3906 L39.4887 538.0312 L36.9731 542 Z"
      /><polygon style="fill:white; clip-path:url(#clipPath2); stroke:none;" points=" 58 440 69 462 47 462"
      /><rect x="47" y="440" width="22" style="clip-path:url(#clipPath2); fill:rgb(0,144,188); stroke:none;" height="22"
      /><rect x="47" y="440" width="22" style="fill:none; clip-path:url(#clipPath2);" height="22"
      /><polygon style="fill:none;" points=" 58 440 69 462 47 462"
      /><rect x="49" y="468" width="16" style="fill:white; stroke:none;" height="10"
      /><path style="stroke:none;" d="M52.7031 479.1875 C54.5156 479.1875 55.9844 478.0938 55.9844 476.25 C55.9844 474.8594 55.0156 473.9375 53.8125 473.6562 L53.8125 473.5938 C54.8906 473.1875 55.6406 472.3594 55.6406 471.125 C55.6406 469.5 54.375 468.5469 52.6562 468.5469 C51.4688 468.5469 50.5469 469.0625 49.7812 469.7812 L50.4688 470.5938 C51.0469 470 51.7656 469.5938 52.5938 469.5938 C53.6562 469.5938 54.3281 470.2344 54.3281 471.2188 C54.3281 472.3281 53.6094 473.1719 51.4844 473.1719 L51.4844 474.1562 C53.8594 474.1562 54.6875 474.9844 54.6875 476.2031 C54.6875 477.3906 53.8125 478.125 52.5938 478.125 C51.4375 478.125 50.6562 477.5781 50.0469 476.9375 L49.4062 477.7812 C50.0781 478.5156 51.0938 479.1875 52.7031 479.1875 ZM58.1762 479 L59.395 479 L59.395 473.6094 C59.395 472.5312 59.3012 471.4375 59.2543 470.4062 L59.3012 470.4062 L60.4106 472.5156 L64.145 479 L65.4731 479 L65.4731 468.7188 L64.2387 468.7188 L64.2387 474.0781 C64.2387 475.1406 64.3481 476.2812 64.4106 477.3125 L64.3481 477.3125 L63.2543 475.2031 L59.52 468.7188 L58.1762 468.7188 L58.1762 479 Z"
    /></g
    ><g style="fill:white; text-rendering:optimizeSpeed; font-family:'Serif'; stroke:white;"
    ><rect x="74" width="5" height="10" y="438" style="stroke:none;"
      /><path d="M75.8906 446.6875 C75.4844 446.6875 75.1562 447.0469 75.1562 447.4219 C75.1562 447.8125 75.4844 448.1562 75.8906 448.1562 C76.2969 448.1562 76.6406 447.8125 76.6406 447.4219 C76.6406 447.0469 76.2969 446.6875 75.8906 446.6875 ZM77.4688 440.5781 C77.7188 440.8906 77.875 441.2656 77.8906 441.6562 C77.8906 442.1875 77.625 442.5 77.0312 442.7656 L76.4062 443.0156 C75.6406 443.3125 75.3906 443.5469 75.3906 443.9375 C75.3906 444.1094 75.4531 444.3438 75.5781 444.8125 L75.7344 445.3438 L76.1094 445.3438 L76.0938 444.5312 C76.0938 444.0938 76.2031 443.9688 76.7812 443.7344 L77.2031 443.5625 C78.0312 443.2188 78.4531 442.6875 78.4531 441.8438 C78.4531 440.1562 76.6562 439.1875 75.5 439.0312 C75.1094 439.125 74.9062 439.2969 74.9062 439.6406 C74.9062 439.9375 75.0625 440.1562 75.7188 440.2656 L77.4688 440.5781 Z" style="fill:black; stroke:none;"
      /><rect x="74" width="5" height="10" y="454" style="stroke:none;"
      /><path d="M75.8906 462.6875 C75.4844 462.6875 75.1562 463.0469 75.1562 463.4219 C75.1562 463.8125 75.4844 464.1562 75.8906 464.1562 C76.2969 464.1562 76.6406 463.8125 76.6406 463.4219 C76.6406 463.0469 76.2969 462.6875 75.8906 462.6875 ZM77.4688 456.5781 C77.7188 456.8906 77.875 457.2656 77.8906 457.6562 C77.8906 458.1875 77.625 458.5 77.0312 458.7656 L76.4062 459.0156 C75.6406 459.3125 75.3906 459.5469 75.3906 459.9375 C75.3906 460.1094 75.4531 460.3438 75.5781 460.8125 L75.7344 461.3438 L76.1094 461.3438 L76.0938 460.5312 C76.0938 460.0938 76.2031 459.9688 76.7812 459.7344 L77.2031 459.5625 C78.0312 459.2188 78.4531 458.6875 78.4531 457.8438 C78.4531 456.1562 76.6562 455.1875 75.5 455.0312 C75.1094 455.125 74.9062 455.2969 74.9062 455.6406 C74.9062 455.9375 75.0625 456.1562 75.7188 456.2656 L77.4688 456.5781 Z" style="fill:black; stroke:none;"
      /><polygon style="stroke:none; clip-path:url(#clipPath3);" points=" 58 388 69 410 47 410"
    /></g
    ><g style="fill:rgb(0,166,81); text-rendering:optimizeSpeed; font-size:14px; font-family:'SansSerif'; stroke:rgb(0,166,81);"
    ><rect x="47" y="388" width="22" style="clip-path:url(#clipPath3); stroke:none;" height="22"
      /><rect x="47" y="388" width="22" style="clip-path:url(#clipPath3); fill:none; stroke:black;" height="22"
      /><polygon style="fill:none; stroke:black;" points=" 58 388 69 410 47 410"
    /></g
    ><g style="fill:white; text-rendering:optimizeSpeed; font-family:'Serif'; stroke:white;"
    ><rect x="74" width="5" height="10" y="386" style="stroke:none;"
      /><path d="M75.8906 394.6875 C75.4844 394.6875 75.1562 395.0469 75.1562 395.4219 C75.1562 395.8125 75.4844 396.1562 75.8906 396.1562 C76.2969 396.1562 76.6406 395.8125 76.6406 395.4219 C76.6406 395.0469 76.2969 394.6875 75.8906 394.6875 ZM77.4688 388.5781 C77.7188 388.8906 77.875 389.2656 77.8906 389.6562 C77.8906 390.1875 77.625 390.5 77.0312 390.7656 L76.4062 391.0156 C75.6406 391.3125 75.3906 391.5469 75.3906 391.9375 C75.3906 392.1094 75.4531 392.3438 75.5781 392.8125 L75.7344 393.3438 L76.1094 393.3438 L76.0938 392.5312 C76.0938 392.0938 76.2031 391.9688 76.7812 391.7344 L77.2031 391.5625 C78.0312 391.2188 78.4531 390.6875 78.4531 389.8438 C78.4531 388.1562 76.6562 387.1875 75.5 387.0312 C75.1094 387.125 74.9062 387.2969 74.9062 387.6406 C74.9062 387.9375 75.0625 388.1562 75.7188 388.2656 L77.4688 388.5781 Z" style="fill:black; stroke:none;"
      /><rect x="74" width="5" height="10" y="402" style="stroke:none;"
      /><path d="M75.8906 410.6875 C75.4844 410.6875 75.1562 411.0469 75.1562 411.4219 C75.1562 411.8125 75.4844 412.1562 75.8906 412.1562 C76.2969 412.1562 76.6406 411.8125 76.6406 411.4219 C76.6406 411.0469 76.2969 410.6875 75.8906 410.6875 ZM77.4688 404.5781 C77.7188 404.8906 77.875 405.2656 77.8906 405.6562 C77.8906 406.1875 77.625 406.5 77.0312 406.7656 L76.4062 407.0156 C75.6406 407.3125 75.3906 407.5469 75.3906 407.9375 C75.3906 408.1094 75.4531 408.3438 75.5781 408.8125 L75.7344 409.3438 L76.1094 409.3438 L76.0938 408.5312 C76.0938 408.0938 76.2031 407.9688 76.7812 407.7344 L77.2031 407.5625 C78.0312 407.2188 78.4531 406.6875 78.4531 405.8438 C78.4531 404.1562 76.6562 403.1875 75.5 403.0312 C75.1094 403.125 74.9062 403.2969 74.9062 403.6406 C74.9062 403.9375 75.0625 404.1562 75.7188 404.2656 L77.4688 404.5781 Z" style="fill:black; stroke:none;"
      /><circle r="11" style="clip-path:url(#clipPath4); stroke:none;" cx="58" cy="347"
    /></g
    ><g style="fill:rgb(0,144,188); text-rendering:optimizeSpeed; font-size:14px; font-family:'SansSerif'; stroke:rgb(0,144,188);"
    ><rect x="47" y="336" width="22" style="clip-path:url(#clipPath4); stroke:none;" height="22"
      /><rect x="47" y="336" width="22" style="clip-path:url(#clipPath4); fill:none; stroke:black;" height="22"
      /><circle r="11" style="fill:none; stroke:black;" cx="58" cy="347"
    /></g
    ><g style="fill:white; text-rendering:optimizeSpeed; font-family:'Serif'; stroke:white;"
    ><rect x="74" width="5" height="10" y="334" style="stroke:none;"
      /><path d="M75.8906 342.6875 C75.4844 342.6875 75.1562 343.0469 75.1562 343.4219 C75.1562 343.8125 75.4844 344.1562 75.8906 344.1562 C76.2969 344.1562 76.6406 343.8125 76.6406 343.4219 C76.6406 343.0469 76.2969 342.6875 75.8906 342.6875 ZM77.4688 336.5781 C77.7188 336.8906 77.875 337.2656 77.8906 337.6562 C77.8906 338.1875 77.625 338.5 77.0312 338.7656 L76.4062 339.0156 C75.6406 339.3125 75.3906 339.5469 75.3906 339.9375 C75.3906 340.1094 75.4531 340.3438 75.5781 340.8125 L75.7344 341.3438 L76.1094 341.3438 L76.0938 340.5312 C76.0938 340.0938 76.2031 339.9688 76.7812 339.7344 L77.2031 339.5625 C78.0312 339.2188 78.4531 338.6875 78.4531 337.8438 C78.4531 336.1562 76.6562 335.1875 75.5 335.0312 C75.1094 335.125 74.9062 335.2969 74.9062 335.6406 C74.9062 335.9375 75.0625 336.1562 75.7188 336.2656 L77.4688 336.5781 Z" style="fill:black; stroke:none;"
      /><rect x="74" width="5" height="10" y="350" style="stroke:none;"
      /><path d="M75.8906 358.6875 C75.4844 358.6875 75.1562 359.0469 75.1562 359.4219 C75.1562 359.8125 75.4844 360.1562 75.8906 360.1562 C76.2969 360.1562 76.6406 359.8125 76.6406 359.4219 C76.6406 359.0469 76.2969 358.6875 75.8906 358.6875 ZM77.4688 352.5781 C77.7188 352.8906 77.875 353.2656 77.8906 353.6562 C77.8906 354.1875 77.625 354.5 77.0312 354.7656 L76.4062 355.0156 C75.6406 355.3125 75.3906 355.5469 75.3906 355.9375 C75.3906 356.1094 75.4531 356.3438 75.5781 356.8125 L75.7344 357.3438 L76.1094 357.3438 L76.0938 356.5312 C76.0938 356.0938 76.2031 355.9688 76.7812 355.7344 L77.2031 355.5625 C78.0312 355.2188 78.4531 354.6875 78.4531 353.8438 C78.4531 352.1562 76.6562 351.1875 75.5 351.0312 C75.1094 351.125 74.9062 351.2969 74.9062 351.6406 C74.9062 351.9375 75.0625 352.1562 75.7188 352.2656 L77.4688 352.5781 Z" style="fill:black; stroke:none;"
      /><rect x="47" y="284" width="22" style="clip-path:url(#clipPath5); stroke:none;" height="22"
    /></g
    ><g style="fill:rgb(0,144,188); text-rendering:optimizeSpeed; font-size:14px; font-family:'SansSerif'; stroke:rgb(0,144,188);"
    ><polygon style="stroke:none; clip-path:url(#clipPath5);" points=" 47 284 69 284 69 306"
      /><polygon style="fill:none; clip-path:url(#clipPath5); stroke:black;" points=" 47 284 69 284 69 306"
      /><rect x="47" y="284" width="22" style="fill:none; stroke:black;" height="22"
    /></g
    ><g style="fill:white; text-rendering:optimizeSpeed; font-family:'Serif'; stroke:white;"
    ><rect x="74" width="5" height="10" y="282" style="stroke:none;"
      /><path d="M75.8906 290.6875 C75.4844 290.6875 75.1562 291.0469 75.1562 291.4219 C75.1562 291.8125 75.4844 292.1562 75.8906 292.1562 C76.2969 292.1562 76.6406 291.8125 76.6406 291.4219 C76.6406 291.0469 76.2969 290.6875 75.8906 290.6875 ZM77.4688 284.5781 C77.7188 284.8906 77.875 285.2656 77.8906 285.6562 C77.8906 286.1875 77.625 286.5 77.0312 286.7656 L76.4062 287.0156 C75.6406 287.3125 75.3906 287.5469 75.3906 287.9375 C75.3906 288.1094 75.4531 288.3438 75.5781 288.8125 L75.7344 289.3438 L76.1094 289.3438 L76.0938 288.5312 C76.0938 288.0938 76.2031 287.9688 76.7812 287.7344 L77.2031 287.5625 C78.0312 287.2188 78.4531 286.6875 78.4531 285.8438 C78.4531 284.1562 76.6562 283.1875 75.5 283.0312 C75.1094 283.125 74.9062 283.2969 74.9062 283.6406 C74.9062 283.9375 75.0625 284.1562 75.7188 284.2656 L77.4688 284.5781 Z" style="fill:black; stroke:none;"
      /><rect x="74" width="5" height="10" y="298" style="stroke:none;"
      /><path d="M75.8906 306.6875 C75.4844 306.6875 75.1562 307.0469 75.1562 307.4219 C75.1562 307.8125 75.4844 308.1562 75.8906 308.1562 C76.2969 308.1562 76.6406 307.8125 76.6406 307.4219 C76.6406 307.0469 76.2969 306.6875 75.8906 306.6875 ZM77.4688 300.5781 C77.7188 300.8906 77.875 301.2656 77.8906 301.6562 C77.8906 302.1875 77.625 302.5 77.0312 302.7656 L76.4062 303.0156 C75.6406 303.3125 75.3906 303.5469 75.3906 303.9375 C75.3906 304.1094 75.4531 304.3438 75.5781 304.8125 L75.7344 305.3438 L76.1094 305.3438 L76.0938 304.5312 C76.0938 304.0938 76.2031 303.9688 76.7812 303.7344 L77.2031 303.5625 C78.0312 303.2188 78.4531 302.6875 78.4531 301.8438 C78.4531 300.1562 76.6562 299.1875 75.5 299.0312 C75.1094 299.125 74.9062 299.2969 74.9062 299.6406 C74.9062 299.9375 75.0625 300.1562 75.7188 300.2656 L77.4688 300.5781 Z" style="fill:black; stroke:none;"
    /></g
    ><g style="text-rendering:optimizeSpeed; font-size:14px; font-family:'SansSerif';"
    ><path style="stroke:none;" d="M29.6094 300 L36.0625 300 L36.0625 298.8906 L33.2344 298.8906 C32.7031 298.8906 32.0781 298.9531 31.5469 298.9844 C33.9531 296.7031 35.5625 294.625 35.5625 292.5781 C35.5625 290.75 34.4219 289.5469 32.5781 289.5469 C31.2812 289.5469 30.4062 290.1406 29.5625 291.0469 L30.2969 291.7812 C30.8594 291.1094 31.5938 290.5938 32.4375 290.5938 C33.7031 290.5938 34.3125 291.4531 34.3125 292.625 C34.3125 294.3906 32.8438 296.4375 29.6094 299.25 L29.6094 300 ZM36.9731 300 L38.3168 300 L39.3481 298.2188 C39.6137 297.7656 39.8637 297.2969 40.1293 296.8594 L40.2075 296.8594 C40.4731 297.2969 40.7543 297.7656 41.0043 298.2188 L42.1293 300 L43.5356 300 L41.02 296.1562 L43.3325 292.3906 L42.0043 292.3906 L41.0668 294.0625 C40.8481 294.5 40.6137 294.9219 40.3793 295.3438 L40.3325 295.3438 C40.0668 294.9219 39.8012 294.5 39.5668 294.0625 L38.5512 292.3906 L37.1762 292.3906 L39.4887 296.0312 L36.9731 300 Z"
      /><circle style="fill:white; clip-path:url(#clipPath6); stroke:none;" r="11" cx="58" cy="243"
      /><rect x="47" y="232" width="22" style="clip-path:url(#clipPath6); fill:rgb(255,212,0); stroke:none;" height="22"
      /><rect x="47" y="232" width="22" style="fill:none; clip-path:url(#clipPath6);" height="22"
      /><circle r="11" style="fill:none;" cx="58" cy="243"
    /></g
    ><g style="fill:white; text-rendering:optimizeSpeed; font-family:'Serif'; stroke:white;"
    ><rect x="74" width="5" height="10" y="230" style="stroke:none;"
      /><path d="M75.8906 238.6875 C75.4844 238.6875 75.1562 239.0469 75.1562 239.4219 C75.1562 239.8125 75.4844 240.1562 75.8906 240.1562 C76.2969 240.1562 76.6406 239.8125 76.6406 239.4219 C76.6406 239.0469 76.2969 238.6875 75.8906 238.6875 ZM77.4688 232.5781 C77.7188 232.8906 77.875 233.2656 77.8906 233.6562 C77.8906 234.1875 77.625 234.5 77.0312 234.7656 L76.4062 235.0156 C75.6406 235.3125 75.3906 235.5469 75.3906 235.9375 C75.3906 236.1094 75.4531 236.3438 75.5781 236.8125 L75.7344 237.3438 L76.1094 237.3438 L76.0938 236.5312 C76.0938 236.0938 76.2031 235.9688 76.7812 235.7344 L77.2031 235.5625 C78.0312 235.2188 78.4531 234.6875 78.4531 233.8438 C78.4531 232.1562 76.6562 231.1875 75.5 231.0312 C75.1094 231.125 74.9062 231.2969 74.9062 231.6406 C74.9062 231.9375 75.0625 232.1562 75.7188 232.2656 L77.4688 232.5781 Z" style="fill:black; stroke:none;"
      /><rect x="74" width="5" height="10" y="246" style="stroke:none;"
      /><path d="M75.8906 254.6875 C75.4844 254.6875 75.1562 255.0469 75.1562 255.4219 C75.1562 255.8125 75.4844 256.1562 75.8906 256.1562 C76.2969 256.1562 76.6406 255.8125 76.6406 255.4219 C76.6406 255.0469 76.2969 254.6875 75.8906 254.6875 ZM77.4688 248.5781 C77.7188 248.8906 77.875 249.2656 77.8906 249.6562 C77.8906 250.1875 77.625 250.5 77.0312 250.7656 L76.4062 251.0156 C75.6406 251.3125 75.3906 251.5469 75.3906 251.9375 C75.3906 252.1094 75.4531 252.3438 75.5781 252.8125 L75.7344 253.3438 L76.1094 253.3438 L76.0938 252.5312 C76.0938 252.0938 76.2031 251.9688 76.7812 251.7344 L77.2031 251.5625 C78.0312 251.2188 78.4531 250.6875 78.4531 249.8438 C78.4531 248.1562 76.6562 247.1875 75.5 247.0312 C75.1094 247.125 74.9062 247.2969 74.9062 247.6406 C74.9062 247.9375 75.0625 248.1562 75.7188 248.2656 L77.4688 248.5781 Z" style="fill:black; stroke:none;"
      /><polygon style="stroke:none; clip-path:url(#clipPath7);" points=" 58 180 69 191 58 202 47 191"
    /></g
    ><g style="fill:rgb(0,144,188); text-rendering:optimizeSpeed; font-size:14px; font-family:'SansSerif'; stroke:rgb(0,144,188);"
    ><rect x="47" y="180" width="22" style="clip-path:url(#clipPath7); stroke:none;" height="11"
      /><rect x="47" y="180" width="22" style="clip-path:url(#clipPath7); fill:none; stroke:black;" height="11"
      /><polygon style="fill:none; stroke:black;" points=" 58 180 69 191 58 202 47 191"
      /><rect x="50" y="162" width="15" style="fill:white; stroke:none;" height="10"
      /><path d="M54.1094 167.5781 C55.3438 167.5781 55.9688 168.4688 55.9688 169.8438 C55.9688 171.25 55.1875 172.1875 54.2188 172.1875 C52.9219 172.1875 52.1562 171.0312 52 168.8906 C52.625 167.9531 53.4531 167.5781 54.1094 167.5781 ZM54.2188 173.1875 C55.8125 173.1875 57.1562 171.8438 57.1562 169.8438 C57.1562 167.7031 56.0469 166.625 54.3125 166.625 C53.5 166.625 52.6094 167.1094 51.9688 167.875 C52.0312 164.6875 53.2188 163.6094 54.625 163.6094 C55.25 163.6094 55.8594 163.9062 56.2656 164.3906 L56.9688 163.5938 C56.4062 162.9844 55.6406 162.5469 54.5781 162.5469 C52.5938 162.5469 50.7812 164.0781 50.7812 168.0938 C50.7812 171.4844 52.2344 173.1875 54.2188 173.1875 ZM59.1762 173 L60.395 173 L60.395 167.6094 C60.395 166.5312 60.3012 165.4375 60.2543 164.4062 L60.3012 164.4062 L61.4106 166.5156 L65.145 173 L66.4731 173 L66.4731 162.7188 L65.2387 162.7188 L65.2387 168.0781 C65.2387 169.1406 65.3481 170.2812 65.4106 171.3125 L65.3481 171.3125 L64.2543 169.2031 L60.52 162.7188 L59.1762 162.7188 L59.1762 173 Z" style="fill:black; stroke:none;"
    /></g
    ><g style="fill:white; text-rendering:optimizeSpeed; font-family:'Serif'; stroke:white;"
    ><rect x="74" width="5" height="10" y="178" style="stroke:none;"
      /><path d="M75.8906 186.6875 C75.4844 186.6875 75.1562 187.0469 75.1562 187.4219 C75.1562 187.8125 75.4844 188.1562 75.8906 188.1562 C76.2969 188.1562 76.6406 187.8125 76.6406 187.4219 C76.6406 187.0469 76.2969 186.6875 75.8906 186.6875 ZM77.4688 180.5781 C77.7188 180.8906 77.875 181.2656 77.8906 181.6562 C77.8906 182.1875 77.625 182.5 77.0312 182.7656 L76.4062 183.0156 C75.6406 183.3125 75.3906 183.5469 75.3906 183.9375 C75.3906 184.1094 75.4531 184.3438 75.5781 184.8125 L75.7344 185.3438 L76.1094 185.3438 L76.0938 184.5312 C76.0938 184.0938 76.2031 183.9688 76.7812 183.7344 L77.2031 183.5625 C78.0312 183.2188 78.4531 182.6875 78.4531 181.8438 C78.4531 180.1562 76.6562 179.1875 75.5 179.0312 C75.1094 179.125 74.9062 179.2969 74.9062 179.6406 C74.9062 179.9375 75.0625 180.1562 75.7188 180.2656 L77.4688 180.5781 Z" style="fill:black; stroke:none;"
      /><rect x="74" width="5" height="10" y="194" style="stroke:none;"
      /><path d="M75.8906 202.6875 C75.4844 202.6875 75.1562 203.0469 75.1562 203.4219 C75.1562 203.8125 75.4844 204.1562 75.8906 204.1562 C76.2969 204.1562 76.6406 203.8125 76.6406 203.4219 C76.6406 203.0469 76.2969 202.6875 75.8906 202.6875 ZM77.4688 196.5781 C77.7188 196.8906 77.875 197.2656 77.8906 197.6562 C77.8906 198.1875 77.625 198.5 77.0312 198.7656 L76.4062 199.0156 C75.6406 199.3125 75.3906 199.5469 75.3906 199.9375 C75.3906 200.1094 75.4531 200.3438 75.5781 200.8125 L75.7344 201.3438 L76.1094 201.3438 L76.0938 200.5312 C76.0938 200.0938 76.2031 199.9688 76.7812 199.7344 L77.2031 199.5625 C78.0312 199.2188 78.4531 198.6875 78.4531 197.8438 C78.4531 196.1562 76.6562 195.1875 75.5 195.0312 C75.1094 195.125 74.9062 195.2969 74.9062 195.6406 C74.9062 195.9375 75.0625 196.1562 75.7188 196.2656 L77.4688 196.5781 Z" style="fill:black; stroke:none;"
      /><polygon style="stroke:none; clip-path:url(#clipPath8);" points=" 58 105 69 116 58 127 47 116"
    /></g
    ><g style="fill:rgb(255,212,0); text-rendering:optimizeSpeed; font-size:14px; font-family:'SansSerif'; stroke:rgb(255,212,0);"
    ><rect x="47" y="105" width="22" style="clip-path:url(#clipPath8); stroke:none;" height="11"
      /><rect x="47" y="105" width="22" style="clip-path:url(#clipPath8); fill:none; stroke:black;" height="11"
      /><polygon style="fill:none; stroke:black;" points=" 58 105 69 116 58 127 47 116"
      /><rect x="50" y="87" width="15" style="fill:white; stroke:none;" height="10"
      /><path d="M54.1094 92.5781 C55.3438 92.5781 55.9688 93.4688 55.9688 94.8438 C55.9688 96.25 55.1875 97.1875 54.2188 97.1875 C52.9219 97.1875 52.1562 96.0312 52 93.8906 C52.625 92.9531 53.4531 92.5781 54.1094 92.5781 ZM54.2188 98.1875 C55.8125 98.1875 57.1562 96.8438 57.1562 94.8438 C57.1562 92.7031 56.0469 91.625 54.3125 91.625 C53.5 91.625 52.6094 92.1094 51.9688 92.875 C52.0312 89.6875 53.2188 88.6094 54.625 88.6094 C55.25 88.6094 55.8594 88.9062 56.2656 89.3906 L56.9688 88.5938 C56.4062 87.9844 55.6406 87.5469 54.5781 87.5469 C52.5938 87.5469 50.7812 89.0781 50.7812 93.0938 C50.7812 96.4844 52.2344 98.1875 54.2188 98.1875 ZM59.1762 98 L60.395 98 L60.395 92.6094 C60.395 91.5312 60.3012 90.4375 60.2543 89.4062 L60.3012 89.4062 L61.4106 91.5156 L65.145 98 L66.4731 98 L66.4731 87.7188 L65.2387 87.7188 L65.2387 93.0781 C65.2387 94.1406 65.3481 95.2812 65.4106 96.3125 L65.3481 96.3125 L64.2543 94.2031 L60.52 87.7188 L59.1762 87.7188 L59.1762 98 Z" style="fill:black; stroke:none;"
    /></g
    ><g style="fill:white; text-rendering:optimizeSpeed; font-family:'Serif'; stroke:white;"
    ><rect x="74" width="5" height="10" y="103" style="stroke:none;"
      /><path d="M75.8906 111.6875 C75.4844 111.6875 75.1562 112.0469 75.1562 112.4219 C75.1562 112.8125 75.4844 113.1562 75.8906 113.1562 C76.2969 113.1562 76.6406 112.8125 76.6406 112.4219 C76.6406 112.0469 76.2969 111.6875 75.8906 111.6875 ZM77.4688 105.5781 C77.7188 105.8906 77.875 106.2656 77.8906 106.6562 C77.8906 107.1875 77.625 107.5 77.0312 107.7656 L76.4062 108.0156 C75.6406 108.3125 75.3906 108.5469 75.3906 108.9375 C75.3906 109.1094 75.4531 109.3438 75.5781 109.8125 L75.7344 110.3438 L76.1094 110.3438 L76.0938 109.5312 C76.0938 109.0938 76.2031 108.9688 76.7812 108.7344 L77.2031 108.5625 C78.0312 108.2188 78.4531 107.6875 78.4531 106.8438 C78.4531 105.1562 76.6562 104.1875 75.5 104.0312 C75.1094 104.125 74.9062 104.2969 74.9062 104.6406 C74.9062 104.9375 75.0625 105.1562 75.7188 105.2656 L77.4688 105.5781 Z" style="fill:black; stroke:none;"
      /><rect x="74" width="5" height="10" y="119" style="stroke:none;"
      /><path d="M75.8906 127.6875 C75.4844 127.6875 75.1562 128.0469 75.1562 128.4219 C75.1562 128.8125 75.4844 129.1562 75.8906 129.1562 C76.2969 129.1562 76.6406 128.8125 76.6406 128.4219 C76.6406 128.0469 76.2969 127.6875 75.8906 127.6875 ZM77.4688 121.5781 C77.7188 121.8906 77.875 122.2656 77.8906 122.6562 C77.8906 123.1875 77.625 123.5 77.0312 123.7656 L76.4062 124.0156 C75.6406 124.3125 75.3906 124.5469 75.3906 124.9375 C75.3906 125.1094 75.4531 125.3438 75.5781 125.8125 L75.7344 126.3438 L76.1094 126.3438 L76.0938 125.5312 C76.0938 125.0938 76.2031 124.9688 76.7812 124.7344 L77.2031 124.5625 C78.0312 124.2188 78.4531 123.6875 78.4531 122.8438 C78.4531 121.1562 76.6562 120.1875 75.5 120.0312 C75.1094 120.125 74.9062 120.2969 74.9062 120.6406 C74.9062 120.9375 75.0625 121.1562 75.7188 121.2656 L77.4688 121.5781 Z" style="fill:black; stroke:none;"
      /><rect x="50" width="14" height="10" y="35" style="stroke:none;"
    /></g
    ><g style="text-rendering:optimizeSpeed; font-size:14px; font-family:'SansSerif';"
    ><path style="stroke:none;" d="M52.4844 42.9062 L53.625 42.9062 C53.375 40.7031 55.8906 39.875 55.8906 37.8281 C55.8906 36.2969 54.8594 35.3281 53.2812 35.3281 C52.1406 35.3281 51.25 35.875 50.6094 36.625 L51.3281 37.2969 C51.8125 36.7344 52.4375 36.3906 53.1406 36.3906 C54.125 36.3906 54.6406 37.0625 54.6406 37.9062 C54.6406 39.5781 52.1719 40.4688 52.4844 42.9062 ZM53.0938 46.1875 C53.6094 46.1875 54.0312 45.7969 54.0312 45.2188 C54.0312 44.625 53.6094 44.2188 53.0938 44.2188 C52.5938 44.2188 52.1719 44.625 52.1719 45.2188 C52.1719 45.7969 52.5938 46.1875 53.0938 46.1875 ZM58.0422 46 L59.3391 46 L59.3391 41.9219 L61.0266 41.9219 C63.2922 41.9219 64.8078 40.9219 64.8078 38.75 C64.8078 36.5156 63.2766 35.7188 60.9797 35.7188 L58.0422 35.7188 L58.0422 46 ZM59.3391 40.875 L59.3391 36.7812 L60.8078 36.7812 C62.6203 36.7812 63.5266 37.2656 63.5266 38.75 C63.5266 40.2188 62.6672 40.875 60.8703 40.875 L59.3391 40.875 Z"
    /></g
  ></g
></svg
>
