<?xml version="1.0"?>
<!DOCTYPE svg PUBLIC '-//W3C//DTD SVG 1.0//EN'
          'http://www.w3.org/TR/2001/REC-SVG-20010904/DTD/svg10.dtd'>
<svg xmlns:xlink="http://www.w3.org/1999/xlink" style="fill-opacity:1; color-rendering:auto; color-interpolation:auto; text-rendering:auto; stroke:black; stroke-linecap:square; stroke-miterlimit:10; shape-rendering:auto; stroke-opacity:1; fill:black; stroke-dasharray:none; font-weight:normal; stroke-width:1; font-family:'Dialog'; font-style:normal; stroke-linejoin:miter; font-size:12px; stroke-dashoffset:0; image-rendering:auto;" viewBox="0 0 134 82" xmlns="http://www.w3.org/2000/svg"
><!--Generated by the Batik Graphics2D SVG Generator--><defs id="genericDefs"
  /><g
  ><defs id="defs1"
    ><clipPath clipPathUnits="userSpaceOnUse" id="clipPath1"
      ><path style="fill-rule:evenodd;" d="M41 30 L52 41 L41 52 L30 41 Z"
      /></clipPath
    ></defs
    ><g style="fill:white; text-rendering:optimizeSpeed; stroke:white;"
    ><rect x="0" width="134" height="82" y="0" style="stroke:none;"
      /><polygon style="fill:none; stroke:black;" points=" 93 41 41 41"
      /><path d="M93 30 C87.5 35.5 98.5 46.5 93 52" style="fill:none; stroke:black;"
      /><polygon style="clip-path:url(#clipPath1); stroke:none;" points=" 41 30 52 41 41 52 30 41"
      /><rect x="30" y="30" width="22" style="clip-path:url(#clipPath1); fill:rgb(0,166,81); stroke:none;" height="11"
      /><rect x="30" y="30" width="22" style="clip-path:url(#clipPath1); fill:none; stroke:black;" height="11"
      /><polygon style="fill:none; stroke:black;" points=" 41 30 52 41 41 52 30 41"
    /></g
    ><g style="text-rendering:optimizeSpeed; font-size:10px; font-family:'SansSerif';"
    ><path style="stroke:none;" d="M40.0625 45 L40.9844 45 L40.9844 40.3125 L42.125 40.3125 L42.125 39.5625 L40.9844 39.5625 L40.9844 38.7031 C40.9844 38.0156 41.2344 37.6406 41.75 37.6406 C41.9375 37.6406 42.1562 37.6875 42.3594 37.7812 L42.5625 37.0938 C42.3125 36.9844 41.9844 36.9062 41.6562 36.9062 C40.5625 36.9062 40.0625 37.5938 40.0625 38.7031 L40.0625 39.5625 L39.3281 39.625 L39.3281 40.3125 L40.0625 40.3125 L40.0625 45 Z"
    /></g
    ><g style="fill:white; text-rendering:optimizeSpeed; font-family:'Serif'; stroke:white;"
    ><rect x="57" width="6" height="13" y="42" style="stroke:none;"
      /><path d="M59.0938 48.2031 C59.0938 46.6562 59.75 45.8125 60.7969 45.8125 C61.7188 45.8125 62.2656 46.4531 62.2656 47.5156 C62.2656 48.7188 61.5 49.4375 60.1875 49.7031 L60.2969 50.3125 C62.2188 50.2344 62.9375 51.2188 62.9375 52.4375 C62.9375 53.625 62.2344 54.4219 60.9531 54.4219 C60.25 54.4219 59.6562 54.1562 59.0938 53.7188 L59.0938 48.2031 ZM58.2031 54.9062 L58.1094 57.375 L58.2656 57.4844 L59.1562 57.2656 L59.0156 54.0938 C59.5469 54.8438 60.3594 55.1719 61.1719 55.1719 C62.5625 55.1719 63.8594 54.2188 63.8594 52.4844 C63.8594 50.9531 62.875 50.1094 61.125 50 C62.5625 49.6094 63.1875 48.4531 63.1875 47.4844 C63.1875 46.0938 62.1562 45.3125 60.9062 45.3125 C59.2969 45.3125 58.2188 46.5469 58.2188 48.5156 L58.2031 54.9062 Z" style="fill:black; stroke:none;"
    /></g
  ></g
></svg
>
