<?xml version="1.0"?>
<!DOCTYPE svg PUBLIC '-//W3C//DTD SVG 1.0//EN'
          'http://www.w3.org/TR/2001/REC-SVG-20010904/DTD/svg10.dtd'>
<svg xmlns:xlink="http://www.w3.org/1999/xlink" style="fill-opacity:1; color-rendering:auto; color-interpolation:auto; text-rendering:auto; stroke:black; stroke-linecap:square; stroke-miterlimit:10; shape-rendering:auto; stroke-opacity:1; fill:black; stroke-dasharray:none; font-weight:normal; stroke-width:1; font-family:'Dialog'; font-style:normal; stroke-linejoin:miter; font-size:12px; stroke-dashoffset:0; image-rendering:auto;" viewBox="0 0 394 199" xmlns="http://www.w3.org/2000/svg"
><!--Generated by the Batik Graphics2D SVG Generator--><defs id="genericDefs"
  /><g
  ><defs id="defs1"
    ><clipPath clipPathUnits="userSpaceOnUse" id="clipPath1"
      ><path d="M290 82 L312 82 L312 104 L290 104 L290 82 Z"
      /></clipPath
      ><clipPath clipPathUnits="userSpaceOnUse" id="clipPath2"
      ><path d="M238 82 L260 82 L260 104 L238 104 L238 82 Z"
      /></clipPath
      ><clipPath clipPathUnits="userSpaceOnUse" id="clipPath3"
      ><path d="M208 93 C208 99.0751 203.0751 104 197 104 C190.9249 104 186 99.0751 186 93 C186 86.9249 190.9249 82 197 82 C203.0751 82 208 86.9249 208 93 Z"
      /></clipPath
      ><clipPath clipPathUnits="userSpaceOnUse" id="clipPath4"
      ><path d="M156 132 C156 138.0751 151.0751 143 145 143 C138.9249 143 134 138.0751 134 132 C134 125.9249 138.9249 121 145 121 C151.0751 121 156 125.9249 156 132 Z"
      /></clipPath
      ><clipPath clipPathUnits="userSpaceOnUse" id="clipPath5"
      ><path d="M82 147 L104 147 L104 169 L82 169 L82 147 Z"
      /></clipPath
      ><clipPath clipPathUnits="userSpaceOnUse" id="clipPath6"
      ><path d="M52 158 C52 164.0751 47.0751 169 41 169 C34.9249 169 30 164.0751 30 158 C30 151.9249 34.9249 147 41 147 C47.0751 147 52 151.9249 52 158 Z"
      /></clipPath
      ><clipPath clipPathUnits="userSpaceOnUse" id="clipPath7"
      ><path d="M82 95 L104 95 L104 117 L82 117 L82 95 Z"
      /></clipPath
      ><clipPath clipPathUnits="userSpaceOnUse" id="clipPath8"
      ><path d="M52 106 C52 112.0751 47.0751 117 41 117 C34.9249 117 30 112.0751 30 106 C30 99.9249 34.9249 95 41 95 C47.0751 95 52 99.9249 52 106 Z"
      /></clipPath
      ><clipPath clipPathUnits="userSpaceOnUse" id="clipPath9"
      ><path d="M156 54 C156 60.0751 151.0751 65 145 65 C138.9249 65 134 60.0751 134 54 C134 47.9249 138.9249 43 145 43 C151.0751 43 156 47.9249 156 54 Z"
      /></clipPath
      ><clipPath clipPathUnits="userSpaceOnUse" id="clipPath10"
      ><path d="M30 43 L52 43 L52 65 L30 65 L30 43 Z"
      /></clipPath
      ><clipPath clipPathUnits="userSpaceOnUse" id="clipPath11"
      ><path style="fill-rule:evenodd;" d="M301 52 L290 30 L312 30 Z"
      /></clipPath
    ></defs
    ><g style="fill:white; text-rendering:optimizeSpeed; stroke:white;"
    ><rect x="0" width="394" height="199" y="0" style="stroke:none;"
      /><polygon style="fill:none; stroke:black;" points=" 353 93 301 93"
      /><path d="M353 82 C347.5 87.5 358.5 98.5 353 104" style="fill:none; stroke:black;"
      /><polygon style="fill:none; stroke:black;" points=" 301 93 249 93"
      /><polygon style="fill:none; stroke:black;" points=" 301 93 301 41"
      /><rect x="290" y="82" width="22" style="clip-path:url(#clipPath1); stroke:none;" height="22"
      /><rect x="290" y="82" width="22" style="clip-path:url(#clipPath1); fill:rgb(0,144,188); stroke:none;" height="22"
      /><rect x="290" y="82" width="22" style="clip-path:url(#clipPath1); fill:none; stroke:black;" height="22"
      /><rect x="290" y="82" width="22" style="fill:none; stroke:black;" height="22"
      /><polygon style="fill:none; stroke:black;" points=" 249 93 197 93"
      /><rect x="238" y="82" width="22" style="clip-path:url(#clipPath2); stroke:none;" height="22"
      /><rect x="238" y="82" width="22" style="clip-path:url(#clipPath2); fill:rgb(0,144,188); stroke:none;" height="22"
      /><rect x="238" y="82" width="22" style="clip-path:url(#clipPath2); fill:none; stroke:black;" height="22"
      /><rect x="238" y="82" width="22" style="fill:none; stroke:black;" height="22"
      /><polygon style="fill:none; stroke:black;" points=" 197 93 145 132"
      /><polygon style="fill:none; stroke:black;" points=" 197 93 145 54"
      /><circle style="clip-path:url(#clipPath3); stroke:none;" r="11" cx="197" cy="93"
      /><rect x="186" y="82" width="22" style="clip-path:url(#clipPath3); fill:rgb(0,166,81); stroke:none;" height="22"
      /><rect x="186" y="82" width="22" style="clip-path:url(#clipPath3); fill:none; stroke:black;" height="22"
      /><circle style="fill:none; stroke:black;" r="11" cx="197" cy="93"
      /><polygon style="fill:none; stroke:black;" points=" 145 132 93 158"
      /><polygon style="fill:none; stroke:black;" points=" 145 132 93 106"
      /><circle style="clip-path:url(#clipPath4); stroke:none;" r="11" cx="145" cy="132"
      /><rect x="134" y="121" width="22" style="clip-path:url(#clipPath4); fill:rgb(0,166,81); stroke:none;" height="22"
      /><rect x="134" y="121" width="22" style="clip-path:url(#clipPath4); fill:none; stroke:black;" height="22"
      /><circle style="fill:none; stroke:black;" r="11" cx="145" cy="132"
      /><polygon style="fill:none; stroke:black;" points=" 93 158 41 158"
      /><rect x="82" y="147" width="22" style="clip-path:url(#clipPath5); stroke:none;" height="22"
      /><rect x="82" y="147" width="22" style="clip-path:url(#clipPath5); fill:rgb(0,144,188); stroke:none;" height="22"
      /><rect x="82" y="147" width="22" style="clip-path:url(#clipPath5); fill:none; stroke:black;" height="22"
      /><rect x="82" y="147" width="22" style="fill:none; stroke:black;" height="22"
      /><circle style="clip-path:url(#clipPath6); stroke:none;" r="11" cx="41" cy="158"
      /><rect x="30" y="147" width="22" style="clip-path:url(#clipPath6); fill:rgb(255,212,0); stroke:none;" height="22"
      /><rect x="30" y="147" width="22" style="clip-path:url(#clipPath6); fill:none; stroke:black;" height="22"
      /><circle style="fill:none; stroke:black;" r="11" cx="41" cy="158"
      /><rect x="71" y="161" width="5" style="stroke:none;" height="10"
    /></g
    ><g style="font-family:'Serif'; text-rendering:optimizeSpeed; "
    ><path style="stroke:none;" d="M72.8906 169.6875 C72.4844 169.6875 72.1562 170.0469 72.1562 170.4219 C72.1562 170.8125 72.4844 171.1562 72.8906 171.1562 C73.2969 171.1562 73.6406 170.8125 73.6406 170.4219 C73.6406 170.0469 73.2969 169.6875 72.8906 169.6875 ZM74.4688 163.5781 C74.7188 163.8906 74.875 164.2656 74.8906 164.6562 C74.8906 165.1875 74.625 165.5 74.0312 165.7656 L73.4062 166.0156 C72.6406 166.3125 72.3906 166.5469 72.3906 166.9375 C72.3906 167.1094 72.4531 167.3438 72.5781 167.8125 L72.7344 168.3438 L73.1094 168.3438 L73.0938 167.5312 C73.0938 167.0938 73.2031 166.9688 73.7812 166.7344 L74.2031 166.5625 C75.0312 166.2188 75.4531 165.6875 75.4531 164.8438 C75.4531 163.1562 73.6562 162.1875 72.5 162.0312 C72.1094 162.125 71.9062 162.2969 71.9062 162.6406 C71.9062 162.9375 72.0625 163.1562 72.7188 163.2656 L74.4688 163.5781 Z"
      /><rect x="57" y="161" width="5" style="fill:white; stroke:none;" height="10"
      /><path style="stroke:none;" d="M58.8906 169.6875 C58.4844 169.6875 58.1562 170.0469 58.1562 170.4219 C58.1562 170.8125 58.4844 171.1562 58.8906 171.1562 C59.2969 171.1562 59.6406 170.8125 59.6406 170.4219 C59.6406 170.0469 59.2969 169.6875 58.8906 169.6875 ZM60.4688 163.5781 C60.7188 163.8906 60.875 164.2656 60.8906 164.6562 C60.8906 165.1875 60.625 165.5 60.0312 165.7656 L59.4062 166.0156 C58.6406 166.3125 58.3906 166.5469 58.3906 166.9375 C58.3906 167.1094 58.4531 167.3438 58.5781 167.8125 L58.7344 168.3438 L59.1094 168.3438 L59.0938 167.5312 C59.0938 167.0938 59.2031 166.9688 59.7812 166.7344 L60.2031 166.5625 C61.0312 166.2188 61.4531 165.6875 61.4531 164.8438 C61.4531 163.1562 59.6562 162.1875 58.5 162.0312 C58.1094 162.125 57.9062 162.2969 57.9062 162.6406 C57.9062 162.9375 58.0625 163.1562 58.7188 163.2656 L60.4688 163.5781 Z"
      /><polygon style="fill:none;" points=" 93 106 41 106"
      /><rect x="82" y="95" width="22" style="clip-path:url(#clipPath7); fill:white; stroke:none;" height="22"
      /><rect x="82" y="95" width="22" style="clip-path:url(#clipPath7); fill:rgb(0,144,188); stroke:none;" height="22"
      /><rect x="82" y="95" width="22" style="fill:none; clip-path:url(#clipPath7);" height="22"
      /><rect x="82" width="22" height="22" y="95" style="fill:none;"
      /><circle style="fill:white; clip-path:url(#clipPath8); stroke:none;" r="11" cx="41" cy="106"
      /><rect x="30" y="95" width="22" style="clip-path:url(#clipPath8); fill:rgb(255,212,0); stroke:none;" height="22"
      /><rect x="30" y="95" width="22" style="fill:none; clip-path:url(#clipPath8);" height="22"
      /><circle r="11" style="fill:none;" cx="41" cy="106"
      /><rect x="71" y="109" width="5" style="fill:white; stroke:none;" height="10"
      /><path style="stroke:none;" d="M72.8906 117.6875 C72.4844 117.6875 72.1562 118.0469 72.1562 118.4219 C72.1562 118.8125 72.4844 119.1562 72.8906 119.1562 C73.2969 119.1562 73.6406 118.8125 73.6406 118.4219 C73.6406 118.0469 73.2969 117.6875 72.8906 117.6875 ZM74.4688 111.5781 C74.7188 111.8906 74.875 112.2656 74.8906 112.6562 C74.8906 113.1875 74.625 113.5 74.0312 113.7656 L73.4062 114.0156 C72.6406 114.3125 72.3906 114.5469 72.3906 114.9375 C72.3906 115.1094 72.4531 115.3438 72.5781 115.8125 L72.7344 116.3438 L73.1094 116.3438 L73.0938 115.5312 C73.0938 115.0938 73.2031 114.9688 73.7812 114.7344 L74.2031 114.5625 C75.0312 114.2188 75.4531 113.6875 75.4531 112.8438 C75.4531 111.1562 73.6562 110.1875 72.5 110.0312 C72.1094 110.125 71.9062 110.2969 71.9062 110.6406 C71.9062 110.9375 72.0625 111.1562 72.7188 111.2656 L74.4688 111.5781 Z"
      /><rect x="57" y="109" width="5" style="fill:white; stroke:none;" height="10"
      /><path style="stroke:none;" d="M58.8906 117.6875 C58.4844 117.6875 58.1562 118.0469 58.1562 118.4219 C58.1562 118.8125 58.4844 119.1562 58.8906 119.1562 C59.2969 119.1562 59.6406 118.8125 59.6406 118.4219 C59.6406 118.0469 59.2969 117.6875 58.8906 117.6875 ZM60.4688 111.5781 C60.7188 111.8906 60.875 112.2656 60.8906 112.6562 C60.8906 113.1875 60.625 113.5 60.0312 113.7656 L59.4062 114.0156 C58.6406 114.3125 58.3906 114.5469 58.3906 114.9375 C58.3906 115.1094 58.4531 115.3438 58.5781 115.8125 L58.7344 116.3438 L59.1094 116.3438 L59.0938 115.5312 C59.0938 115.0938 59.2031 114.9688 59.7812 114.7344 L60.2031 114.5625 C61.0312 114.2188 61.4531 113.6875 61.4531 112.8438 C61.4531 111.1562 59.6562 110.1875 58.5 110.0312 C58.1094 110.125 57.9062 110.2969 57.9062 110.6406 C57.9062 110.9375 58.0625 111.1562 58.7188 111.2656 L60.4688 111.5781 Z"
      /><rect x="127" y="143" width="5" style="fill:white; stroke:none;" height="10"
      /><path style="stroke:none;" d="M128.8906 151.6875 C128.4844 151.6875 128.1562 152.0469 128.1562 152.4219 C128.1562 152.8125 128.4844 153.1562 128.8906 153.1562 C129.2969 153.1562 129.6406 152.8125 129.6406 152.4219 C129.6406 152.0469 129.2969 151.6875 128.8906 151.6875 ZM130.4688 145.5781 C130.7188 145.8906 130.875 146.2656 130.8906 146.6562 C130.8906 147.1875 130.625 147.5 130.0312 147.7656 L129.4062 148.0156 C128.6406 148.3125 128.3906 148.5469 128.3906 148.9375 C128.3906 149.1094 128.4531 149.3438 128.5781 149.8125 L128.7344 150.3438 L129.1094 150.3438 L129.0938 149.5312 C129.0938 149.0938 129.2031 148.9688 129.7812 148.7344 L130.2031 148.5625 C131.0312 148.2188 131.4531 147.6875 131.4531 146.8438 C131.4531 145.1562 129.6562 144.1875 128.5 144.0312 C128.1094 144.125 127.9062 144.2969 127.9062 144.6406 C127.9062 144.9375 128.0625 145.1562 128.7188 145.2656 L130.4688 145.5781 Z"
      /><rect x="112" y="151" width="5" style="fill:white; stroke:none;" height="10"
      /><path style="stroke:none;" d="M113.8906 159.6875 C113.4844 159.6875 113.1562 160.0469 113.1562 160.4219 C113.1562 160.8125 113.4844 161.1562 113.8906 161.1562 C114.2969 161.1562 114.6406 160.8125 114.6406 160.4219 C114.6406 160.0469 114.2969 159.6875 113.8906 159.6875 ZM115.4688 153.5781 C115.7188 153.8906 115.875 154.2656 115.8906 154.6562 C115.8906 155.1875 115.625 155.5 115.0312 155.7656 L114.4062 156.0156 C113.6406 156.3125 113.3906 156.5469 113.3906 156.9375 C113.3906 157.1094 113.4531 157.3438 113.5781 157.8125 L113.7344 158.3438 L114.1094 158.3438 L114.0938 157.5312 C114.0938 157.0938 114.2031 156.9688 114.7812 156.7344 L115.2031 156.5625 C116.0312 156.2188 116.4531 155.6875 116.4531 154.8438 C116.4531 153.1562 114.6562 152.1875 113.5 152.0312 C113.1094 152.125 112.9062 152.2969 112.9062 152.6406 C112.9062 152.9375 113.0625 153.1562 113.7188 153.2656 L115.4688 153.5781 Z"
      /><rect x="120" y="125" width="5" style="fill:white; stroke:none;" height="10"
      /><path style="stroke:none;" d="M121.8906 133.6875 C121.4844 133.6875 121.1562 134.0469 121.1562 134.4219 C121.1562 134.8125 121.4844 135.1562 121.8906 135.1562 C122.2969 135.1562 122.6406 134.8125 122.6406 134.4219 C122.6406 134.0469 122.2969 133.6875 121.8906 133.6875 ZM123.4688 127.5781 C123.7188 127.8906 123.875 128.2656 123.8906 128.6562 C123.8906 129.1875 123.625 129.5 123.0312 129.7656 L122.4062 130.0156 C121.6406 130.3125 121.3906 130.5469 121.3906 130.9375 C121.3906 131.1094 121.4531 131.3438 121.5781 131.8125 L121.7344 132.3438 L122.1094 132.3438 L122.0938 131.5312 C122.0938 131.0938 122.2031 130.9688 122.7812 130.7344 L123.2031 130.5625 C124.0312 130.2188 124.4531 129.6875 124.4531 128.8438 C124.4531 127.1562 122.6562 126.1875 121.5 126.0312 C121.1094 126.125 120.9062 126.2969 120.9062 126.6406 C120.9062 126.9375 121.0625 127.1562 121.7188 127.2656 L123.4688 127.5781 Z"
      /><rect x="105" y="117" width="5" style="fill:white; stroke:none;" height="10"
      /><path style="stroke:none;" d="M106.8906 125.6875 C106.4844 125.6875 106.1562 126.0469 106.1562 126.4219 C106.1562 126.8125 106.4844 127.1562 106.8906 127.1562 C107.2969 127.1562 107.6406 126.8125 107.6406 126.4219 C107.6406 126.0469 107.2969 125.6875 106.8906 125.6875 ZM108.4688 119.5781 C108.7188 119.8906 108.875 120.2656 108.8906 120.6562 C108.8906 121.1875 108.625 121.5 108.0312 121.7656 L107.4062 122.0156 C106.6406 122.3125 106.3906 122.5469 106.3906 122.9375 C106.3906 123.1094 106.4531 123.3438 106.5781 123.8125 L106.7344 124.3438 L107.1094 124.3438 L107.0938 123.5312 C107.0938 123.0938 107.2031 122.9688 107.7812 122.7344 L108.2031 122.5625 C109.0312 122.2188 109.4531 121.6875 109.4531 120.8438 C109.4531 119.1562 107.6562 118.1875 106.5 118.0312 C106.1094 118.125 105.9062 118.2969 105.9062 118.6406 C105.9062 118.9375 106.0625 119.1562 106.7188 119.2656 L108.4688 119.5781 Z"
      /><polygon style="fill:none;" points=" 145 54 93 54"
      /><circle style="fill:white; clip-path:url(#clipPath9); stroke:none;" r="11" cx="145" cy="54"
      /><rect x="134" y="43" width="22" style="clip-path:url(#clipPath9); fill:rgb(0,166,81); stroke:none;" height="22"
      /><rect x="134" y="43" width="22" style="fill:none; clip-path:url(#clipPath9);" height="22"
      /><circle r="11" style="fill:none;" cx="145" cy="54"
      /><polygon style="fill:none;" points=" 93 54 41 54"
    /></g
    ><g style="fill:white; text-rendering:optimizeSpeed; font-size:14px; font-family:'SansSerif'; stroke:white;"
    ><rect x="89" width="6" height="10" y="48" style="stroke:none;"
      /><path d="M90.4062 59 L91.7031 59 L91.7031 54.9219 L93.3906 54.9219 C95.6562 54.9219 97.1719 53.9219 97.1719 51.75 C97.1719 49.5156 95.6406 48.7188 93.3438 48.7188 L90.4062 48.7188 L90.4062 59 ZM91.7031 53.875 L91.7031 49.7812 L93.1719 49.7812 C94.9844 49.7812 95.8906 50.2656 95.8906 51.75 C95.8906 53.2188 95.0312 53.875 93.2344 53.875 L91.7031 53.875 Z" style="fill:black; stroke:none;"
      /><rect x="30" y="43" width="22" style="clip-path:url(#clipPath10); stroke:none;" height="22"
    /></g
    ><g style="fill:rgb(0,144,188); text-rendering:optimizeSpeed; stroke:rgb(0,144,188);"
    ><rect x="30" y="43" width="22" style="clip-path:url(#clipPath10); stroke:none;" height="22"
      /><rect x="30" y="43" width="22" style="clip-path:url(#clipPath10); fill:none; stroke:black;" height="22"
      /><rect x="30" y="43" width="22" style="fill:none; stroke:black;" height="22"
      /><rect x="71" y="57" width="5" style="fill:white; stroke:none;" height="9"
      /><path d="M74.8594 65.3906 C74.8594 64.6719 74.8438 63.9531 74.8438 63.25 L74.8438 59.1406 L74.8906 57.2656 L74.7031 57.125 L72.1094 57.7969 L72.1094 58.2344 L73.9219 58.0312 L73.9219 63.25 C73.9219 63.9531 73.9062 64.6719 73.8906 65.3906 L72 65.6094 L72 66 L76.7344 66 L76.7344 65.6094 L74.8594 65.3906 Z" style="fill:black; stroke:none;"
      /><rect x="57" y="57" width="5" style="fill:white; stroke:none;" height="10"
      /><path d="M58.8906 65.6875 C58.4844 65.6875 58.1562 66.0469 58.1562 66.4219 C58.1562 66.8125 58.4844 67.1562 58.8906 67.1562 C59.2969 67.1562 59.6406 66.8125 59.6406 66.4219 C59.6406 66.0469 59.2969 65.6875 58.8906 65.6875 ZM60.4688 59.5781 C60.7188 59.8906 60.875 60.2656 60.8906 60.6562 C60.8906 61.1875 60.625 61.5 60.0312 61.7656 L59.4062 62.0156 C58.6406 62.3125 58.3906 62.5469 58.3906 62.9375 C58.3906 63.1094 58.4531 63.3438 58.5781 63.8125 L58.7344 64.3438 L59.1094 64.3438 L59.0938 63.5312 C59.0938 63.0938 59.2031 62.9688 59.7812 62.7344 L60.2031 62.5625 C61.0312 62.2188 61.4531 61.6875 61.4531 60.8438 C61.4531 59.1562 59.6562 58.1875 58.5 58.0312 C58.1094 58.125 57.9062 58.2969 57.9062 58.6406 C57.9062 58.9375 58.0625 59.1562 58.7188 59.2656 L60.4688 59.5781 Z" style="fill:black; stroke:none;"
      /><rect x="123" y="57" width="5" style="fill:white; stroke:none;" height="10"
      /><path d="M124.8906 65.6875 C124.4844 65.6875 124.1562 66.0469 124.1562 66.4219 C124.1562 66.8125 124.4844 67.1562 124.8906 67.1562 C125.2969 67.1562 125.6406 66.8125 125.6406 66.4219 C125.6406 66.0469 125.2969 65.6875 124.8906 65.6875 ZM126.4688 59.5781 C126.7188 59.8906 126.875 60.2656 126.8906 60.6562 C126.8906 61.1875 126.625 61.5 126.0312 61.7656 L125.4062 62.0156 C124.6406 62.3125 124.3906 62.5469 124.3906 62.9375 C124.3906 63.1094 124.4531 63.3438 124.5781 63.8125 L124.7344 64.3438 L125.1094 64.3438 L125.0938 63.5312 C125.0938 63.0938 125.2031 62.9688 125.7812 62.7344 L126.2031 62.5625 C127.0312 62.2188 127.4531 61.6875 127.4531 60.8438 C127.4531 59.1562 125.6562 58.1875 124.5 58.0312 C124.1094 58.125 123.9062 58.2969 123.9062 58.6406 C123.9062 58.9375 124.0625 59.1562 124.7188 59.2656 L126.4688 59.5781 Z" style="fill:black; stroke:none;"
      /><rect x="181" y="107" width="5" style="fill:white; stroke:none;" height="10"
      /><path d="M182.8906 115.6875 C182.4844 115.6875 182.1562 116.0469 182.1562 116.4219 C182.1562 116.8125 182.4844 117.1562 182.8906 117.1562 C183.2969 117.1562 183.6406 116.8125 183.6406 116.4219 C183.6406 116.0469 183.2969 115.6875 182.8906 115.6875 ZM184.4688 109.5781 C184.7188 109.8906 184.875 110.2656 184.8906 110.6562 C184.8906 111.1875 184.625 111.5 184.0312 111.7656 L183.4062 112.0156 C182.6406 112.3125 182.3906 112.5469 182.3906 112.9375 C182.3906 113.1094 182.4531 113.3438 182.5781 113.8125 L182.7344 114.3438 L183.1094 114.3438 L183.0938 113.5312 C183.0938 113.0938 183.2031 112.9688 183.7812 112.7344 L184.2031 112.5625 C185.0312 112.2188 185.4531 111.6875 185.4531 110.8438 C185.4531 109.1562 183.6562 108.1875 182.5 108.0312 C182.1094 108.125 181.9062 108.2969 181.9062 108.6406 C181.9062 108.9375 182.0625 109.1562 182.7188 109.2656 L184.4688 109.5781 Z" style="fill:black; stroke:none;"
      /><rect x="164" y="120" width="5" style="fill:white; stroke:none;" height="10"
      /><path d="M165.8906 128.6875 C165.4844 128.6875 165.1562 129.0469 165.1562 129.4219 C165.1562 129.8125 165.4844 130.1562 165.8906 130.1562 C166.2969 130.1562 166.6406 129.8125 166.6406 129.4219 C166.6406 129.0469 166.2969 128.6875 165.8906 128.6875 ZM167.4688 122.5781 C167.7188 122.8906 167.875 123.2656 167.8906 123.6562 C167.8906 124.1875 167.625 124.5 167.0312 124.7656 L166.4062 125.0156 C165.6406 125.3125 165.3906 125.5469 165.3906 125.9375 C165.3906 126.1094 165.4531 126.3438 165.5781 126.8125 L165.7344 127.3438 L166.1094 127.3438 L166.0938 126.5312 C166.0938 126.0938 166.2031 125.9688 166.7812 125.7344 L167.2031 125.5625 C168.0312 125.2188 168.4531 124.6875 168.4531 123.8438 C168.4531 122.1562 166.6562 121.1875 165.5 121.0312 C165.1094 121.125 164.9062 121.2969 164.9062 121.6406 C164.9062 121.9375 165.0625 122.1562 165.7188 122.2656 L167.4688 122.5781 Z" style="fill:black; stroke:none;"
      /><rect x="172" y="81" width="5" style="fill:white; stroke:none;" height="10"
      /><path d="M173.8906 89.6875 C173.4844 89.6875 173.1562 90.0469 173.1562 90.4219 C173.1562 90.8125 173.4844 91.1562 173.8906 91.1562 C174.2969 91.1562 174.6406 90.8125 174.6406 90.4219 C174.6406 90.0469 174.2969 89.6875 173.8906 89.6875 ZM175.4688 83.5781 C175.7188 83.8906 175.875 84.2656 175.8906 84.6562 C175.8906 85.1875 175.625 85.5 175.0312 85.7656 L174.4062 86.0156 C173.6406 86.3125 173.3906 86.5469 173.3906 86.9375 C173.3906 87.1094 173.4531 87.3438 173.5781 87.8125 L173.7344 88.3438 L174.1094 88.3438 L174.0938 87.5312 C174.0938 87.0938 174.2031 86.9688 174.7812 86.7344 L175.2031 86.5625 C176.0312 86.2188 176.4531 85.6875 176.4531 84.8438 C176.4531 83.1562 174.6562 82.1875 173.5 82.0312 C173.1094 82.125 172.9062 82.2969 172.9062 82.6406 C172.9062 82.9375 173.0625 83.1562 173.7188 83.2656 L175.4688 83.5781 Z" style="fill:black; stroke:none;"
      /><rect x="155" y="68" width="5" style="fill:white; stroke:none;" height="10"
      /><path d="M156.8906 76.6875 C156.4844 76.6875 156.1562 77.0469 156.1562 77.4219 C156.1562 77.8125 156.4844 78.1562 156.8906 78.1562 C157.2969 78.1562 157.6406 77.8125 157.6406 77.4219 C157.6406 77.0469 157.2969 76.6875 156.8906 76.6875 ZM158.4688 70.5781 C158.7188 70.8906 158.875 71.2656 158.8906 71.6562 C158.8906 72.1875 158.625 72.5 158.0312 72.7656 L157.4062 73.0156 C156.6406 73.3125 156.3906 73.5469 156.3906 73.9375 C156.3906 74.1094 156.4531 74.3438 156.5781 74.8125 L156.7344 75.3438 L157.1094 75.3438 L157.0938 74.5312 C157.0938 74.0938 157.2031 73.9688 157.7812 73.7344 L158.2031 73.5625 C159.0312 73.2188 159.4531 72.6875 159.4531 71.8438 C159.4531 70.1562 157.6562 69.1875 156.5 69.0312 C156.1094 69.125 155.9062 69.2969 155.9062 69.6406 C155.9062 69.9375 156.0625 70.1562 156.7188 70.2656 L158.4688 70.5781 Z" style="fill:black; stroke:none;"
      /><rect x="227" y="96" width="5" style="fill:white; stroke:none;" height="10"
      /><path d="M228.8906 104.6875 C228.4844 104.6875 228.1562 105.0469 228.1562 105.4219 C228.1562 105.8125 228.4844 106.1562 228.8906 106.1562 C229.2969 106.1562 229.6406 105.8125 229.6406 105.4219 C229.6406 105.0469 229.2969 104.6875 228.8906 104.6875 ZM230.4688 98.5781 C230.7188 98.8906 230.875 99.2656 230.8906 99.6562 C230.8906 100.1875 230.625 100.5 230.0312 100.7656 L229.4062 101.0156 C228.6406 101.3125 228.3906 101.5469 228.3906 101.9375 C228.3906 102.1094 228.4531 102.3438 228.5781 102.8125 L228.7344 103.3438 L229.1094 103.3438 L229.0938 102.5312 C229.0938 102.0938 229.2031 101.9688 229.7812 101.7344 L230.2031 101.5625 C231.0312 101.2188 231.4531 100.6875 231.4531 99.8438 C231.4531 98.1562 229.6562 97.1875 228.5 97.0312 C228.1094 97.125 227.9062 97.2969 227.9062 97.6406 C227.9062 97.9375 228.0625 98.1562 228.7188 98.2656 L230.4688 98.5781 Z" style="fill:black; stroke:none;"
      /><rect x="213" y="96" width="5" style="fill:white; stroke:none;" height="10"
      /><path d="M214.8906 104.6875 C214.4844 104.6875 214.1562 105.0469 214.1562 105.4219 C214.1562 105.8125 214.4844 106.1562 214.8906 106.1562 C215.2969 106.1562 215.6406 105.8125 215.6406 105.4219 C215.6406 105.0469 215.2969 104.6875 214.8906 104.6875 ZM216.4688 98.5781 C216.7188 98.8906 216.875 99.2656 216.8906 99.6562 C216.8906 100.1875 216.625 100.5 216.0312 100.7656 L215.4062 101.0156 C214.6406 101.3125 214.3906 101.5469 214.3906 101.9375 C214.3906 102.1094 214.4531 102.3438 214.5781 102.8125 L214.7344 103.3438 L215.1094 103.3438 L215.0938 102.5312 C215.0938 102.0938 215.2031 101.9688 215.7812 101.7344 L216.2031 101.5625 C217.0312 101.2188 217.4531 100.6875 217.4531 99.8438 C217.4531 98.1562 215.6562 97.1875 214.5 97.0312 C214.1094 97.125 213.9062 97.2969 213.9062 97.6406 C213.9062 97.9375 214.0625 98.1562 214.7188 98.2656 L216.4688 98.5781 Z" style="fill:black; stroke:none;"
      /><polygon style="fill:white; clip-path:url(#clipPath11); stroke:none;" points=" 301 52 290 30 312 30"
      /><rect x="290" y="30" width="22" style="clip-path:url(#clipPath11); fill:rgb(237,28,36); stroke:none;" height="22"
      /><rect x="290" y="30" width="22" style="clip-path:url(#clipPath11); fill:none; stroke:black;" height="22"
      /><polygon style="fill:none; stroke:black;" points=" 301 52 290 30 312 30"
      /><rect x="279" y="96" width="5" style="fill:white; stroke:none;" height="10"
      /><path d="M280.8906 104.6875 C280.4844 104.6875 280.1562 105.0469 280.1562 105.4219 C280.1562 105.8125 280.4844 106.1562 280.8906 106.1562 C281.2969 106.1562 281.6406 105.8125 281.6406 105.4219 C281.6406 105.0469 281.2969 104.6875 280.8906 104.6875 ZM282.4688 98.5781 C282.7188 98.8906 282.875 99.2656 282.8906 99.6562 C282.8906 100.1875 282.625 100.5 282.0312 100.7656 L281.4062 101.0156 C280.6406 101.3125 280.3906 101.5469 280.3906 101.9375 C280.3906 102.1094 280.4531 102.3438 280.5781 102.8125 L280.7344 103.3438 L281.1094 103.3438 L281.0938 102.5312 C281.0938 102.0938 281.2031 101.9688 281.7812 101.7344 L282.2031 101.5625 C283.0312 101.2188 283.4531 100.6875 283.4531 99.8438 C283.4531 98.1562 281.6562 97.1875 280.5 97.0312 C280.1094 97.125 279.9062 97.2969 279.9062 97.6406 C279.9062 97.9375 280.0625 98.1562 280.7188 98.2656 L282.4688 98.5781 Z" style="fill:black; stroke:none;"
      /><rect x="265" y="96" width="5" style="fill:white; stroke:none;" height="10"
      /><path d="M266.8906 104.6875 C266.4844 104.6875 266.1562 105.0469 266.1562 105.4219 C266.1562 105.8125 266.4844 106.1562 266.8906 106.1562 C267.2969 106.1562 267.6406 105.8125 267.6406 105.4219 C267.6406 105.0469 267.2969 104.6875 266.8906 104.6875 ZM268.4688 98.5781 C268.7188 98.8906 268.875 99.2656 268.8906 99.6562 C268.8906 100.1875 268.625 100.5 268.0312 100.7656 L267.4062 101.0156 C266.6406 101.3125 266.3906 101.5469 266.3906 101.9375 C266.3906 102.1094 266.4531 102.3438 266.5781 102.8125 L266.7344 103.3438 L267.1094 103.3438 L267.0938 102.5312 C267.0938 102.0938 267.2031 101.9688 267.7812 101.7344 L268.2031 101.5625 C269.0312 101.2188 269.4531 100.6875 269.4531 99.8438 C269.4531 98.1562 267.6562 97.1875 266.5 97.0312 C266.1094 97.125 265.9062 97.2969 265.9062 97.6406 C265.9062 97.9375 266.0625 98.1562 266.7188 98.2656 L268.4688 98.5781 Z" style="fill:black; stroke:none;"
      /><rect x="290" y="69" width="5" style="fill:white; stroke:none;" height="10"
      /><path d="M291.8906 77.6875 C291.4844 77.6875 291.1562 78.0469 291.1562 78.4219 C291.1562 78.8125 291.4844 79.1562 291.8906 79.1562 C292.2969 79.1562 292.6406 78.8125 292.6406 78.4219 C292.6406 78.0469 292.2969 77.6875 291.8906 77.6875 ZM293.4688 71.5781 C293.7188 71.8906 293.875 72.2656 293.8906 72.6562 C293.8906 73.1875 293.625 73.5 293.0312 73.7656 L292.4062 74.0156 C291.6406 74.3125 291.3906 74.5469 291.3906 74.9375 C291.3906 75.1094 291.4531 75.3438 291.5781 75.8125 L291.7344 76.3438 L292.1094 76.3438 L292.0938 75.5312 C292.0938 75.0938 292.2031 74.9688 292.7812 74.7344 L293.2031 74.5625 C294.0312 74.2188 294.4531 73.6875 294.4531 72.8438 C294.4531 71.1562 292.6562 70.1875 291.5 70.0312 C291.1094 70.125 290.9062 70.2969 290.9062 70.6406 C290.9062 70.9375 291.0625 71.1562 291.7188 71.2656 L293.4688 71.5781 Z" style="fill:black; stroke:none;"
      /><rect x="290" y="55" width="5" style="fill:white; stroke:none;" height="10"
      /><path d="M291.8906 63.6875 C291.4844 63.6875 291.1562 64.0469 291.1562 64.4219 C291.1562 64.8125 291.4844 65.1562 291.8906 65.1562 C292.2969 65.1562 292.6406 64.8125 292.6406 64.4219 C292.6406 64.0469 292.2969 63.6875 291.8906 63.6875 ZM293.4688 57.5781 C293.7188 57.8906 293.875 58.2656 293.8906 58.6562 C293.8906 59.1875 293.625 59.5 293.0312 59.7656 L292.4062 60.0156 C291.6406 60.3125 291.3906 60.5469 291.3906 60.9375 C291.3906 61.1094 291.4531 61.3438 291.5781 61.8125 L291.7344 62.3438 L292.1094 62.3438 L292.0938 61.5312 C292.0938 61.0938 292.2031 60.9688 292.7812 60.7344 L293.2031 60.5625 C294.0312 60.2188 294.4531 59.6875 294.4531 58.8438 C294.4531 57.1562 292.6562 56.1875 291.5 56.0312 C291.1094 56.125 290.9062 56.2969 290.9062 56.6406 C290.9062 56.9375 291.0625 57.1562 291.7188 57.2656 L293.4688 57.5781 Z" style="fill:black; stroke:none;"
      /><rect x="317" y="96" width="5" style="fill:white; stroke:none;" height="10"
      /><path d="M318.8906 104.6875 C318.4844 104.6875 318.1562 105.0469 318.1562 105.4219 C318.1562 105.8125 318.4844 106.1562 318.8906 106.1562 C319.2969 106.1562 319.6406 105.8125 319.6406 105.4219 C319.6406 105.0469 319.2969 104.6875 318.8906 104.6875 ZM320.4688 98.5781 C320.7188 98.8906 320.875 99.2656 320.8906 99.6562 C320.8906 100.1875 320.625 100.5 320.0312 100.7656 L319.4062 101.0156 C318.6406 101.3125 318.3906 101.5469 318.3906 101.9375 C318.3906 102.1094 318.4531 102.3438 318.5781 102.8125 L318.7344 103.3438 L319.1094 103.3438 L319.0938 102.5312 C319.0938 102.0938 319.2031 101.9688 319.7812 101.7344 L320.2031 101.5625 C321.0312 101.2188 321.4531 100.6875 321.4531 99.8438 C321.4531 98.1562 319.6562 97.1875 318.5 97.0312 C318.1094 97.125 317.9062 97.2969 317.9062 97.6406 C317.9062 97.9375 318.0625 98.1562 318.7188 98.2656 L320.4688 98.5781 Z" style="fill:black; stroke:none;"
    /></g
  ></g
></svg
>
