<?xml version="1.0"?>
<!DOCTYPE svg PUBLIC '-//W3C//DTD SVG 1.0//EN'
          'http://www.w3.org/TR/2001/REC-SVG-20010904/DTD/svg10.dtd'>
<svg xmlns:xlink="http://www.w3.org/1999/xlink" style="fill-opacity:1; color-rendering:auto; color-interpolation:auto; text-rendering:auto; stroke:black; stroke-linecap:square; stroke-miterlimit:10; shape-rendering:auto; stroke-opacity:1; fill:black; stroke-dasharray:none; font-weight:normal; stroke-width:1; font-family:'Dialog'; font-style:normal; stroke-linejoin:miter; font-size:12px; stroke-dashoffset:0; image-rendering:auto;" viewBox="0 0 143 261" xmlns="http://www.w3.org/2000/svg"
><!--Generated by the Batik Graphics2D SVG Generator--><defs id="genericDefs"
  /><g
  ><defs id="defs1"
    ><clipPath clipPathUnits="userSpaceOnUse" id="clipPath1"
      ><path d="M47 209 L69 209 L69 231 L47 231 L47 209 Z"
      /></clipPath
      ><clipPath clipPathUnits="userSpaceOnUse" id="clipPath2"
      ><path d="M47 134 L69 134 L69 156 L47 156 L47 134 Z"
      /></clipPath
      ><clipPath clipPathUnits="userSpaceOnUse" id="clipPath3"
      ><path style="fill-rule:evenodd;" d="M58 82 L69 93 L58 104 L47 93 Z"
      /></clipPath
    ></defs
    ><g style="fill:white; text-rendering:optimizeSpeed; stroke:white;"
    ><rect x="0" width="143" height="261" y="0" style="stroke:none;"
      /><rect x="47" y="209" width="22" style="clip-path:url(#clipPath1); stroke:none;" height="22"
      /><polygon style="clip-path:url(#clipPath1); stroke:none;" points=" 47 209 69 209 69 231"
      /><polygon style="fill:none; clip-path:url(#clipPath1); stroke:black;" points=" 47 209 69 209 69 231"
      /><rect x="47" y="209" width="22" style="fill:none; stroke:black;" height="22"
      /><rect x="74" y="207" width="5" style="stroke:none;" height="10"
    /></g
    ><g style="font-family:'Serif'; text-rendering:optimizeSpeed; "
    ><path style="stroke:none;" d="M75.8906 215.6875 C75.4844 215.6875 75.1562 216.0469 75.1562 216.4219 C75.1562 216.8125 75.4844 217.1562 75.8906 217.1562 C76.2969 217.1562 76.6406 216.8125 76.6406 216.4219 C76.6406 216.0469 76.2969 215.6875 75.8906 215.6875 ZM77.4688 209.5781 C77.7188 209.8906 77.875 210.2656 77.8906 210.6562 C77.8906 211.1875 77.625 211.5 77.0312 211.7656 L76.4062 212.0156 C75.6406 212.3125 75.3906 212.5469 75.3906 212.9375 C75.3906 213.1094 75.4531 213.3438 75.5781 213.8125 L75.7344 214.3438 L76.1094 214.3438 L76.0938 213.5312 C76.0938 213.0938 76.2031 212.9688 76.7812 212.7344 L77.2031 212.5625 C78.0312 212.2188 78.4531 211.6875 78.4531 210.8438 C78.4531 209.1562 76.6562 208.1875 75.5 208.0312 C75.1094 208.125 74.9062 208.2969 74.9062 208.6406 C74.9062 208.9375 75.0625 209.1562 75.7188 209.2656 L77.4688 209.5781 Z"
      /><rect x="74" y="223" width="5" style="fill:white; stroke:none;" height="10"
      /><path style="stroke:none;" d="M75.8906 231.6875 C75.4844 231.6875 75.1562 232.0469 75.1562 232.4219 C75.1562 232.8125 75.4844 233.1562 75.8906 233.1562 C76.2969 233.1562 76.6406 232.8125 76.6406 232.4219 C76.6406 232.0469 76.2969 231.6875 75.8906 231.6875 ZM77.4688 225.5781 C77.7188 225.8906 77.875 226.2656 77.8906 226.6562 C77.8906 227.1875 77.625 227.5 77.0312 227.7656 L76.4062 228.0156 C75.6406 228.3125 75.3906 228.5469 75.3906 228.9375 C75.3906 229.1094 75.4531 229.3438 75.5781 229.8125 L75.7344 230.3438 L76.1094 230.3438 L76.0938 229.5312 C76.0938 229.0938 76.2031 228.9688 76.7812 228.7344 L77.2031 228.5625 C78.0312 228.2188 78.4531 227.6875 78.4531 226.8438 C78.4531 225.1562 76.6562 224.1875 75.5 224.0312 C75.1094 224.125 74.9062 224.2969 74.9062 224.6406 C74.9062 224.9375 75.0625 225.1562 75.7188 225.2656 L77.4688 225.5781 Z"
      /><rect x="47" y="134" width="22" style="clip-path:url(#clipPath2); fill:white; stroke:none;" height="22"
      /><polygon style="fill:white; clip-path:url(#clipPath2); stroke:none;" points=" 47 134 69 134 69 156"
      /><polygon style="fill:none; clip-path:url(#clipPath2);" points=" 47 134 69 134 69 156"
      /><rect x="47" width="22" height="22" y="134" style="fill:none;"
    /></g
    ><g style="fill:white; text-rendering:optimizeSpeed; font-size:14px; font-family:'SansSerif'; stroke:white;"
    ><rect x="50" width="14" height="10" y="162" style="stroke:none;"
      /><path d="M50.6094 173 L57.0625 173 L57.0625 171.8906 L54.2344 171.8906 C53.7031 171.8906 53.0781 171.9531 52.5469 171.9844 C54.9531 169.7031 56.5625 167.625 56.5625 165.5781 C56.5625 163.75 55.4219 162.5469 53.5781 162.5469 C52.2812 162.5469 51.4062 163.1406 50.5625 164.0469 L51.2969 164.7812 C51.8594 164.1094 52.5938 163.5938 53.4375 163.5938 C54.7031 163.5938 55.3125 164.4531 55.3125 165.625 C55.3125 167.3906 53.8438 169.4375 50.6094 172.25 L50.6094 173 ZM62.02 173.1875 C64.1606 173.1875 65.5043 171.8906 65.5043 170.2656 C65.5043 168.75 64.5825 168.0469 63.395 167.5312 L61.9262 166.8906 C61.1293 166.5625 60.2387 166.1875 60.2387 165.1875 C60.2387 164.2656 60.9887 163.6719 62.145 163.6719 C63.0981 163.6719 63.8637 164.0469 64.4887 164.6406 L65.1762 163.8125 C64.4418 163.0625 63.3637 162.5469 62.145 162.5469 C60.2856 162.5469 58.9106 163.6875 58.9106 165.2656 C58.9106 166.7656 60.0512 167.5 61.0043 167.9062 L62.4887 168.5469 C63.4575 168.9844 64.1918 169.3125 64.1918 170.375 C64.1918 171.375 63.3793 172.0469 62.0356 172.0469 C60.9731 172.0469 59.9418 171.5469 59.2075 170.7812 L58.4262 171.6562 C59.3168 172.5938 60.5668 173.1875 62.02 173.1875 Z" style="fill:black; stroke:none;"
      /><rect x="74" width="5" height="10" y="132" style="stroke:none;"
    /></g
    ><g style="font-family:'Serif'; text-rendering:optimizeSpeed; "
    ><path style="stroke:none;" d="M75.8906 140.6875 C75.4844 140.6875 75.1562 141.0469 75.1562 141.4219 C75.1562 141.8125 75.4844 142.1562 75.8906 142.1562 C76.2969 142.1562 76.6406 141.8125 76.6406 141.4219 C76.6406 141.0469 76.2969 140.6875 75.8906 140.6875 ZM77.4688 134.5781 C77.7188 134.8906 77.875 135.2656 77.8906 135.6562 C77.8906 136.1875 77.625 136.5 77.0312 136.7656 L76.4062 137.0156 C75.6406 137.3125 75.3906 137.5469 75.3906 137.9375 C75.3906 138.1094 75.4531 138.3438 75.5781 138.8125 L75.7344 139.3438 L76.1094 139.3438 L76.0938 138.5312 C76.0938 138.0938 76.2031 137.9688 76.7812 137.7344 L77.2031 137.5625 C78.0312 137.2188 78.4531 136.6875 78.4531 135.8438 C78.4531 134.1562 76.6562 133.1875 75.5 133.0312 C75.1094 133.125 74.9062 133.2969 74.9062 133.6406 C74.9062 133.9375 75.0625 134.1562 75.7188 134.2656 L77.4688 134.5781 Z"
      /><rect x="74" y="148" width="5" style="fill:white; stroke:none;" height="10"
      /><path style="stroke:none;" d="M75.8906 156.6875 C75.4844 156.6875 75.1562 157.0469 75.1562 157.4219 C75.1562 157.8125 75.4844 158.1562 75.8906 158.1562 C76.2969 158.1562 76.6406 157.8125 76.6406 157.4219 C76.6406 157.0469 76.2969 156.6875 75.8906 156.6875 ZM77.4688 150.5781 C77.7188 150.8906 77.875 151.2656 77.8906 151.6562 C77.8906 152.1875 77.625 152.5 77.0312 152.7656 L76.4062 153.0156 C75.6406 153.3125 75.3906 153.5469 75.3906 153.9375 C75.3906 154.1094 75.4531 154.3438 75.5781 154.8125 L75.7344 155.3438 L76.1094 155.3438 L76.0938 154.5312 C76.0938 154.0938 76.2031 153.9688 76.7812 153.7344 L77.2031 153.5625 C78.0312 153.2188 78.4531 152.6875 78.4531 151.8438 C78.4531 150.1562 76.6562 149.1875 75.5 149.0312 C75.1094 149.125 74.9062 149.2969 74.9062 149.6406 C74.9062 149.9375 75.0625 150.1562 75.7188 150.2656 L77.4688 150.5781 Z"
      /><path style="stroke:none;" d="M29.6094 161 L36.0625 161 L36.0625 159.8906 L33.2344 159.8906 C32.7031 159.8906 32.0781 159.9531 31.5469 159.9844 C33.9531 157.7031 35.5625 155.625 35.5625 153.5781 C35.5625 151.75 34.4219 150.5469 32.5781 150.5469 C31.2812 150.5469 30.4062 151.1406 29.5625 152.0469 L30.2969 152.7812 C30.8594 152.1094 31.5938 151.5938 32.4375 151.5938 C33.7031 151.5938 34.3125 152.4531 34.3125 153.625 C34.3125 155.3906 32.8438 157.4375 29.6094 160.25 L29.6094 161 ZM36.9731 161 L38.3168 161 L39.3481 159.2188 C39.6137 158.7656 39.8637 158.2969 40.1293 157.8594 L40.2075 157.8594 C40.4731 158.2969 40.7543 158.7656 41.0043 159.2188 L42.1293 161 L43.5356 161 L41.02 157.1562 L43.3325 153.3906 L42.0043 153.3906 L41.0668 155.0625 C40.8481 155.5 40.6137 155.9219 40.3793 156.3438 L40.3325 156.3438 C40.0668 155.9219 39.8012 155.5 39.5668 155.0625 L38.5512 153.3906 L37.1762 153.3906 L39.4887 157.0312 L36.9731 161 Z"
    /></g
    ><g style="fill:white; text-rendering:optimizeSpeed; font-size:14px; font-family:'SansSerif'; stroke:white;"
    ><polygon style="stroke:none; clip-path:url(#clipPath3);" points=" 58 82 69 93 58 104 47 93"
      /><rect x="47" y="82" width="22" style="clip-path:url(#clipPath3); stroke:none;" height="11"
      /><rect x="47" y="82" width="22" style="clip-path:url(#clipPath3); fill:none; stroke:black;" height="11"
      /><polygon style="fill:none; stroke:black;" points=" 58 82 69 93 58 104 47 93"
      /><rect x="74" width="5" height="10" y="80" style="stroke:none;"
    /></g
    ><g style="font-family:'Serif'; text-rendering:optimizeSpeed; "
    ><path style="stroke:none;" d="M75.8906 88.6875 C75.4844 88.6875 75.1562 89.0469 75.1562 89.4219 C75.1562 89.8125 75.4844 90.1562 75.8906 90.1562 C76.2969 90.1562 76.6406 89.8125 76.6406 89.4219 C76.6406 89.0469 76.2969 88.6875 75.8906 88.6875 ZM77.4688 82.5781 C77.7188 82.8906 77.875 83.2656 77.8906 83.6562 C77.8906 84.1875 77.625 84.5 77.0312 84.7656 L76.4062 85.0156 C75.6406 85.3125 75.3906 85.5469 75.3906 85.9375 C75.3906 86.1094 75.4531 86.3438 75.5781 86.8125 L75.7344 87.3438 L76.1094 87.3438 L76.0938 86.5312 C76.0938 86.0938 76.2031 85.9688 76.7812 85.7344 L77.2031 85.5625 C78.0312 85.2188 78.4531 84.6875 78.4531 83.8438 C78.4531 82.1562 76.6562 81.1875 75.5 81.0312 C75.1094 81.125 74.9062 81.2969 74.9062 81.6406 C74.9062 81.9375 75.0625 82.1562 75.7188 82.2656 L77.4688 82.5781 Z"
      /><rect x="74" y="96" width="5" style="fill:white; stroke:none;" height="10"
      /><path style="stroke:none;" d="M75.8906 104.6875 C75.4844 104.6875 75.1562 105.0469 75.1562 105.4219 C75.1562 105.8125 75.4844 106.1562 75.8906 106.1562 C76.2969 106.1562 76.6406 105.8125 76.6406 105.4219 C76.6406 105.0469 76.2969 104.6875 75.8906 104.6875 ZM77.4688 98.5781 C77.7188 98.8906 77.875 99.2656 77.8906 99.6562 C77.8906 100.1875 77.625 100.5 77.0312 100.7656 L76.4062 101.0156 C75.6406 101.3125 75.3906 101.5469 75.3906 101.9375 C75.3906 102.1094 75.4531 102.3438 75.5781 102.8125 L75.7344 103.3438 L76.1094 103.3438 L76.0938 102.5312 C76.0938 102.0938 76.2031 101.9688 76.7812 101.7344 L77.2031 101.5625 C78.0312 101.2188 78.4531 100.6875 78.4531 99.8438 C78.4531 98.1562 76.6562 97.1875 75.5 97.0312 C75.1094 97.125 74.9062 97.2969 74.9062 97.6406 C74.9062 97.9375 75.0625 98.1562 75.7188 98.2656 L77.4688 98.5781 Z"
      /><path style="stroke:none;" d="M29.6094 98 L36.0625 98 L36.0625 96.8906 L33.2344 96.8906 C32.7031 96.8906 32.0781 96.9531 31.5469 96.9844 C33.9531 94.7031 35.5625 92.625 35.5625 90.5781 C35.5625 88.75 34.4219 87.5469 32.5781 87.5469 C31.2812 87.5469 30.4062 88.1406 29.5625 89.0469 L30.2969 89.7812 C30.8594 89.1094 31.5938 88.5938 32.4375 88.5938 C33.7031 88.5938 34.3125 89.4531 34.3125 90.625 C34.3125 92.3906 32.8438 94.4375 29.6094 97.25 L29.6094 98 ZM36.9731 98 L38.3168 98 L39.3481 96.2188 C39.6137 95.7656 39.8637 95.2969 40.1293 94.8594 L40.2075 94.8594 C40.4731 95.2969 40.7543 95.7656 41.0043 96.2188 L42.1293 98 L43.5356 98 L41.02 94.1562 L43.3325 90.3906 L42.0043 90.3906 L41.0668 92.0625 C40.8481 92.5 40.6137 92.9219 40.3793 93.3438 L40.3325 93.3438 C40.0668 92.9219 39.8012 92.5 39.5668 92.0625 L38.5512 90.3906 L37.1762 90.3906 L39.4887 94.0312 L36.9731 98 Z"
    /></g
    ><g style="fill:white; text-rendering:optimizeSpeed; font-size:14px; font-family:'SansSerif'; stroke:white;"
    ><rect x="51" width="13" height="10" y="35" style="stroke:none;"
      /><path d="M53.4844 42.9062 L54.625 42.9062 C54.375 40.7031 56.8906 39.875 56.8906 37.8281 C56.8906 36.2969 55.8594 35.3281 54.2812 35.3281 C53.1406 35.3281 52.25 35.875 51.6094 36.625 L52.3281 37.2969 C52.8125 36.7344 53.4375 36.3906 54.1406 36.3906 C55.125 36.3906 55.6406 37.0625 55.6406 37.9062 C55.6406 39.5781 53.1719 40.4688 53.4844 42.9062 ZM54.0938 46.1875 C54.6094 46.1875 55.0312 45.7969 55.0312 45.2188 C55.0312 44.625 54.6094 44.2188 54.0938 44.2188 C53.5938 44.2188 53.1719 44.625 53.1719 45.2188 C53.1719 45.7969 53.5938 46.1875 54.0938 46.1875 ZM61.886 46.1875 C64.0266 46.1875 65.3703 44.8906 65.3703 43.2656 C65.3703 41.75 64.4485 41.0469 63.261 40.5312 L61.7922 39.8906 C60.9953 39.5625 60.1047 39.1875 60.1047 38.1875 C60.1047 37.2656 60.8547 36.6719 62.011 36.6719 C62.9641 36.6719 63.7297 37.0469 64.3547 37.6406 L65.0422 36.8125 C64.3078 36.0625 63.2297 35.5469 62.011 35.5469 C60.1516 35.5469 58.7766 36.6875 58.7766 38.2656 C58.7766 39.7656 59.9172 40.5 60.8703 40.9062 L62.3547 41.5469 C63.3235 41.9844 64.0578 42.3125 64.0578 43.375 C64.0578 44.375 63.2453 45.0469 61.9016 45.0469 C60.8391 45.0469 59.8078 44.5469 59.0735 43.7812 L58.2922 44.6562 C59.1828 45.5938 60.4328 46.1875 61.886 46.1875 Z" style="fill:black; stroke:none;"
      /><path d="M29.6094 46 L36.0625 46 L36.0625 44.8906 L33.2344 44.8906 C32.7031 44.8906 32.0781 44.9531 31.5469 44.9844 C33.9531 42.7031 35.5625 40.625 35.5625 38.5781 C35.5625 36.75 34.4219 35.5469 32.5781 35.5469 C31.2812 35.5469 30.4062 36.1406 29.5625 37.0469 L30.2969 37.7812 C30.8594 37.1094 31.5938 36.5938 32.4375 36.5938 C33.7031 36.5938 34.3125 37.4531 34.3125 38.625 C34.3125 40.3906 32.8438 42.4375 29.6094 45.25 L29.6094 46 ZM36.9731 46 L38.3168 46 L39.3481 44.2188 C39.6137 43.7656 39.8637 43.2969 40.1293 42.8594 L40.2075 42.8594 C40.4731 43.2969 40.7543 43.7656 41.0043 44.2188 L42.1293 46 L43.5356 46 L41.02 42.1562 L43.3325 38.3906 L42.0043 38.3906 L41.0668 40.0625 C40.8481 40.5 40.6137 40.9219 40.3793 41.3438 L40.3325 41.3438 C40.0668 40.9219 39.8012 40.5 39.5668 40.0625 L38.5512 38.3906 L37.1762 38.3906 L39.4887 42.0312 L36.9731 46 Z" style="fill:black; stroke:none;"
    /></g
  ></g
></svg
>
