<?xml version="1.0"?>
<!DOCTYPE svg PUBLIC '-//W3C//DTD SVG 1.0//EN'
          'http://www.w3.org/TR/2001/REC-SVG-20010904/DTD/svg10.dtd'>
<svg xmlns:xlink="http://www.w3.org/1999/xlink" style="fill-opacity:1; color-rendering:auto; color-interpolation:auto; text-rendering:auto; stroke:black; stroke-linecap:square; stroke-miterlimit:10; shape-rendering:auto; stroke-opacity:1; fill:black; stroke-dasharray:none; font-weight:normal; stroke-width:1; font-family:'Dialog'; font-style:normal; stroke-linejoin:miter; font-size:12px; stroke-dashoffset:0; image-rendering:auto;" viewBox="0 0 498 82" xmlns="http://www.w3.org/2000/svg"
><!--Generated by the Batik Graphics2D SVG Generator--><defs id="genericDefs"
  /><g
  ><defs id="defs1"
    ><clipPath clipPathUnits="userSpaceOnUse" id="clipPath1"
      ><path d="M416 41 C416 47.0751 411.0751 52 405 52 C398.9249 52 394 47.0751 394 41 C394 34.9249 398.9249 30 405 30 C411.0751 30 416 34.9249 416 41 Z"
      /></clipPath
      ><clipPath clipPathUnits="userSpaceOnUse" id="clipPath2"
      ><path d="M364 41 C364 47.0751 359.0751 52 353 52 C346.9249 52 342 47.0751 342 41 C342 34.9249 346.9249 30 353 30 C359.0751 30 364 34.9249 364 41 Z"
      /></clipPath
      ><clipPath clipPathUnits="userSpaceOnUse" id="clipPath3"
      ><path d="M312 41 C312 47.0751 307.0751 52 301 52 C294.9249 52 290 47.0751 290 41 C290 34.9249 294.9249 30 301 30 C307.0751 30 312 34.9249 312 41 Z"
      /></clipPath
      ><clipPath clipPathUnits="userSpaceOnUse" id="clipPath4"
      ><path d="M260 41 C260 47.0751 255.0751 52 249 52 C242.9249 52 238 47.0751 238 41 C238 34.9249 242.9249 30 249 30 C255.0751 30 260 34.9249 260 41 Z"
      /></clipPath
      ><clipPath clipPathUnits="userSpaceOnUse" id="clipPath5"
      ><path d="M208 41 C208 47.0751 203.0751 52 197 52 C190.9249 52 186 47.0751 186 41 C186 34.9249 190.9249 30 197 30 C203.0751 30 208 34.9249 208 41 Z"
      /></clipPath
      ><clipPath clipPathUnits="userSpaceOnUse" id="clipPath6"
      ><path d="M156 41 C156 47.0751 151.0751 52 145 52 C138.9249 52 134 47.0751 134 41 C134 34.9249 138.9249 30 145 30 C151.0751 30 156 34.9249 156 41 Z"
      /></clipPath
      ><clipPath clipPathUnits="userSpaceOnUse" id="clipPath7"
      ><path d="M104 41 C104 47.0751 99.0751 52 93 52 C86.9249 52 82 47.0751 82 41 C82 34.9249 86.9249 30 93 30 C99.0751 30 104 34.9249 104 41 Z"
      /></clipPath
      ><clipPath clipPathUnits="userSpaceOnUse" id="clipPath8"
      ><path d="M52 41 C52 47.0751 47.0751 52 41 52 C34.9249 52 30 47.0751 30 41 C30 34.9249 34.9249 30 41 30 C47.0751 30 52 34.9249 52 41 Z"
      /></clipPath
    ></defs
    ><g style="fill:white; text-rendering:optimizeSpeed; stroke:white;"
    ><rect x="0" width="498" height="82" y="0" style="stroke:none;"
      /><polygon style="fill:none; stroke:black;" points=" 457 41 405 41"
      /><path d="M457 30 C451.5 35.5 462.5 46.5 457 52" style="fill:none; stroke:black;"
      /><polygon style="fill:none; stroke:black;" points=" 405 41 353 41"
      /><circle style="clip-path:url(#clipPath1); stroke:none;" r="11" cx="405" cy="41"
      /><rect x="394" y="30" width="22" style="clip-path:url(#clipPath1); fill:rgb(0,166,81); stroke:none;" height="22"
      /><rect x="394" y="30" width="22" style="clip-path:url(#clipPath1); fill:none; stroke:black;" height="22"
      /><circle style="fill:none; stroke:black;" r="11" cx="405" cy="41"
      /><polygon style="fill:none; stroke:black;" points=" 353 41 301 41"
      /><circle style="clip-path:url(#clipPath2); stroke:none;" r="11" cx="353" cy="41"
      /><rect x="342" y="30" width="22" style="clip-path:url(#clipPath2); fill:rgb(0,166,81); stroke:none;" height="22"
      /><rect x="342" y="30" width="22" style="clip-path:url(#clipPath2); fill:none; stroke:black;" height="22"
      /><circle style="fill:none; stroke:black;" r="11" cx="353" cy="41"
      /><polygon style="fill:none; stroke:black;" points=" 301 41 249 41"
      /><circle style="clip-path:url(#clipPath3); stroke:none;" r="11" cx="301" cy="41"
      /><rect x="290" y="30" width="22" style="clip-path:url(#clipPath3); fill:rgb(0,166,81); stroke:none;" height="22"
      /><rect x="290" y="30" width="22" style="clip-path:url(#clipPath3); fill:none; stroke:black;" height="22"
      /><circle style="fill:none; stroke:black;" r="11" cx="301" cy="41"
      /><polygon style="fill:none; stroke:black;" points=" 249 41 197 41"
      /><circle style="clip-path:url(#clipPath4); stroke:none;" r="11" cx="249" cy="41"
      /><rect x="238" y="30" width="22" style="clip-path:url(#clipPath4); fill:rgb(0,166,81); stroke:none;" height="22"
      /><rect x="238" y="30" width="22" style="clip-path:url(#clipPath4); fill:none; stroke:black;" height="22"
      /><circle style="fill:none; stroke:black;" r="11" cx="249" cy="41"
      /><polygon style="fill:none; stroke:black;" points=" 197 41 145 41"
      /><circle style="clip-path:url(#clipPath5); stroke:none;" r="11" cx="197" cy="41"
      /><rect x="186" y="30" width="22" style="clip-path:url(#clipPath5); fill:rgb(0,166,81); stroke:none;" height="22"
      /><rect x="186" y="30" width="22" style="clip-path:url(#clipPath5); fill:none; stroke:black;" height="22"
      /><circle style="fill:none; stroke:black;" r="11" cx="197" cy="41"
      /><polygon style="fill:none; stroke:black;" points=" 145 41 93 41"
      /><circle style="clip-path:url(#clipPath6); stroke:none;" r="11" cx="145" cy="41"
      /><rect x="134" y="30" width="22" style="clip-path:url(#clipPath6); fill:rgb(0,166,81); stroke:none;" height="22"
      /><rect x="134" y="30" width="22" style="clip-path:url(#clipPath6); fill:none; stroke:black;" height="22"
      /><circle style="fill:none; stroke:black;" r="11" cx="145" cy="41"
      /><polygon style="fill:none; stroke:black;" points=" 93 41 41 41"
      /><circle style="clip-path:url(#clipPath7); stroke:none;" r="11" cx="93" cy="41"
      /><rect x="82" y="30" width="22" style="clip-path:url(#clipPath7); fill:rgb(0,166,81); stroke:none;" height="22"
      /><rect x="82" y="30" width="22" style="clip-path:url(#clipPath7); fill:none; stroke:black;" height="22"
      /><circle style="fill:none; stroke:black;" r="11" cx="93" cy="41"
      /><circle style="clip-path:url(#clipPath8); stroke:none;" r="11" cx="41" cy="41"
      /><rect x="30" y="30" width="22" style="clip-path:url(#clipPath8); fill:rgb(0,166,81); stroke:none;" height="22"
      /><rect x="30" y="30" width="22" style="clip-path:url(#clipPath8); fill:none; stroke:black;" height="22"
      /><circle style="fill:none; stroke:black;" r="11" cx="41" cy="41"
      /><rect x="71" y="44" width="6" style="stroke:none;" height="10"
    /></g
    ><g style="font-family:'Serif'; text-rendering:optimizeSpeed; "
    ><path style="stroke:none;" d="M73.2344 45.6562 C73.5156 45.5938 73.7656 45.5625 74.0156 45.5625 C75.0625 45.5625 75.6719 46.1719 75.6719 47.2656 C75.6719 48.4375 74.9062 49.1094 73.7031 49.1094 L73.1875 49.1094 L73.1875 49.6406 L73.7969 49.6406 C75.2188 49.6406 75.9062 50.4219 75.9062 51.6406 C75.9062 52.8438 75.1719 53.6875 73.875 53.6875 C73.6094 53.6875 73.3125 53.6562 73.0156 53.5625 L72.7812 52.8125 C72.625 52.2812 72.5 52.0469 72.1406 52.0469 C71.8906 52.0469 71.7031 52.1719 71.5781 52.4219 C71.8438 53.6406 72.7812 54.1719 74.0312 54.1719 C75.7188 54.1719 76.875 53.125 76.875 51.7031 C76.875 50.5 76.2031 49.625 74.7969 49.375 C75.9531 49.0156 76.6094 48.2031 76.6094 47.2031 C76.6094 45.9219 75.6719 45.0781 74.1875 45.0781 C73.0469 45.0781 72.0625 45.5938 71.7969 46.6875 C71.9062 47 72.1094 47.1094 72.3594 47.1094 C72.7344 47.1094 72.8906 46.8906 73 46.4062 L73.2344 45.6562 Z"
      /><rect x="56" y="45" width="8" style="fill:white; stroke:none;" height="8"
      /><path style="stroke:none;" d="M60.9844 50.7031 C60.9375 51.8906 60.1562 52.6562 59.3125 52.6562 C58.2656 52.6562 57.5 51.6875 57.5 49.7188 C57.5 48.2812 58.1562 47.1562 59.3438 47.1562 C60.1406 47.1562 60.7812 47.6875 61.0938 48.6406 L60.9844 50.7031 ZM62.9062 52.2812 C62.7344 52.375 62.5469 52.4219 62.3438 52.4219 C61.9531 52.4219 61.75 52.2188 61.75 51.4219 C61.75 50.4844 61.9688 48.5312 62.1875 46.8281 L62.0312 46.7188 L61.2344 46.9219 L61.1406 47.7969 C60.7812 47.0312 60.1562 46.6562 59.3906 46.6562 C58.0469 46.6562 56.5625 47.8438 56.5625 49.9531 C56.5625 52.0938 57.7188 53.1719 59.1406 53.1719 C60.0156 53.1719 60.6875 52.8125 61.0938 51.9844 C61.2031 52.8594 61.5156 53.1719 62.0156 53.1719 C62.4688 53.1719 62.7969 52.9062 63.0156 52.5625 L62.9062 52.2812 Z"
      /><rect x="123" y="44" width="6" style="fill:white; stroke:none;" height="10"
      /><path style="stroke:none;" d="M125.2344 45.6562 C125.5156 45.5938 125.7656 45.5625 126.0156 45.5625 C127.0625 45.5625 127.6719 46.1719 127.6719 47.2656 C127.6719 48.4375 126.9062 49.1094 125.7031 49.1094 L125.1875 49.1094 L125.1875 49.6406 L125.7969 49.6406 C127.2188 49.6406 127.9062 50.4219 127.9062 51.6406 C127.9062 52.8438 127.1719 53.6875 125.875 53.6875 C125.6094 53.6875 125.3125 53.6562 125.0156 53.5625 L124.7812 52.8125 C124.625 52.2812 124.5 52.0469 124.1406 52.0469 C123.8906 52.0469 123.7031 52.1719 123.5781 52.4219 C123.8438 53.6406 124.7812 54.1719 126.0312 54.1719 C127.7188 54.1719 128.875 53.125 128.875 51.7031 C128.875 50.5 128.2031 49.625 126.7969 49.375 C127.9531 49.0156 128.6094 48.2031 128.6094 47.2031 C128.6094 45.9219 127.6719 45.0781 126.1875 45.0781 C125.0469 45.0781 124.0625 45.5938 123.7969 46.6875 C123.9062 47 124.1094 47.1094 124.3594 47.1094 C124.7344 47.1094 124.8906 46.8906 125 46.4062 L125.2344 45.6562 Z"
      /><rect x="108" y="45" width="8" style="fill:white; stroke:none;" height="8"
      /><path style="stroke:none;" d="M112.9844 50.7031 C112.9375 51.8906 112.1562 52.6562 111.3125 52.6562 C110.2656 52.6562 109.5 51.6875 109.5 49.7188 C109.5 48.2812 110.1562 47.1562 111.3438 47.1562 C112.1406 47.1562 112.7812 47.6875 113.0938 48.6406 L112.9844 50.7031 ZM114.9062 52.2812 C114.7344 52.375 114.5469 52.4219 114.3438 52.4219 C113.9531 52.4219 113.75 52.2188 113.75 51.4219 C113.75 50.4844 113.9688 48.5312 114.1875 46.8281 L114.0312 46.7188 L113.2344 46.9219 L113.1406 47.7969 C112.7812 47.0312 112.1562 46.6562 111.3906 46.6562 C110.0469 46.6562 108.5625 47.8438 108.5625 49.9531 C108.5625 52.0938 109.7188 53.1719 111.1406 53.1719 C112.0156 53.1719 112.6875 52.8125 113.0938 51.9844 C113.2031 52.8594 113.5156 53.1719 114.0156 53.1719 C114.4688 53.1719 114.7969 52.9062 115.0156 52.5625 L114.9062 52.2812 Z"
      /><rect x="175" y="44" width="6" style="fill:white; stroke:none;" height="10"
      /><path style="stroke:none;" d="M177.2344 45.6562 C177.5156 45.5938 177.7656 45.5625 178.0156 45.5625 C179.0625 45.5625 179.6719 46.1719 179.6719 47.2656 C179.6719 48.4375 178.9062 49.1094 177.7031 49.1094 L177.1875 49.1094 L177.1875 49.6406 L177.7969 49.6406 C179.2188 49.6406 179.9062 50.4219 179.9062 51.6406 C179.9062 52.8438 179.1719 53.6875 177.875 53.6875 C177.6094 53.6875 177.3125 53.6562 177.0156 53.5625 L176.7812 52.8125 C176.625 52.2812 176.5 52.0469 176.1406 52.0469 C175.8906 52.0469 175.7031 52.1719 175.5781 52.4219 C175.8438 53.6406 176.7812 54.1719 178.0312 54.1719 C179.7188 54.1719 180.875 53.125 180.875 51.7031 C180.875 50.5 180.2031 49.625 178.7969 49.375 C179.9531 49.0156 180.6094 48.2031 180.6094 47.2031 C180.6094 45.9219 179.6719 45.0781 178.1875 45.0781 C177.0469 45.0781 176.0625 45.5938 175.7969 46.6875 C175.9062 47 176.1094 47.1094 176.3594 47.1094 C176.7344 47.1094 176.8906 46.8906 177 46.4062 L177.2344 45.6562 Z"
      /><rect x="160" y="45" width="8" style="fill:white; stroke:none;" height="8"
      /><path style="stroke:none;" d="M164.9844 50.7031 C164.9375 51.8906 164.1562 52.6562 163.3125 52.6562 C162.2656 52.6562 161.5 51.6875 161.5 49.7188 C161.5 48.2812 162.1562 47.1562 163.3438 47.1562 C164.1406 47.1562 164.7812 47.6875 165.0938 48.6406 L164.9844 50.7031 ZM166.9062 52.2812 C166.7344 52.375 166.5469 52.4219 166.3438 52.4219 C165.9531 52.4219 165.75 52.2188 165.75 51.4219 C165.75 50.4844 165.9688 48.5312 166.1875 46.8281 L166.0312 46.7188 L165.2344 46.9219 L165.1406 47.7969 C164.7812 47.0312 164.1562 46.6562 163.3906 46.6562 C162.0469 46.6562 160.5625 47.8438 160.5625 49.9531 C160.5625 52.0938 161.7188 53.1719 163.1406 53.1719 C164.0156 53.1719 164.6875 52.8125 165.0938 51.9844 C165.2031 52.8594 165.5156 53.1719 166.0156 53.1719 C166.4688 53.1719 166.7969 52.9062 167.0156 52.5625 L166.9062 52.2812 Z"
      /><rect x="227" y="44" width="6" style="fill:white; stroke:none;" height="10"
      /><path style="stroke:none;" d="M229.2344 45.6562 C229.5156 45.5938 229.7656 45.5625 230.0156 45.5625 C231.0625 45.5625 231.6719 46.1719 231.6719 47.2656 C231.6719 48.4375 230.9062 49.1094 229.7031 49.1094 L229.1875 49.1094 L229.1875 49.6406 L229.7969 49.6406 C231.2188 49.6406 231.9062 50.4219 231.9062 51.6406 C231.9062 52.8438 231.1719 53.6875 229.875 53.6875 C229.6094 53.6875 229.3125 53.6562 229.0156 53.5625 L228.7812 52.8125 C228.625 52.2812 228.5 52.0469 228.1406 52.0469 C227.8906 52.0469 227.7031 52.1719 227.5781 52.4219 C227.8438 53.6406 228.7812 54.1719 230.0312 54.1719 C231.7188 54.1719 232.875 53.125 232.875 51.7031 C232.875 50.5 232.2031 49.625 230.7969 49.375 C231.9531 49.0156 232.6094 48.2031 232.6094 47.2031 C232.6094 45.9219 231.6719 45.0781 230.1875 45.0781 C229.0469 45.0781 228.0625 45.5938 227.7969 46.6875 C227.9062 47 228.1094 47.1094 228.3594 47.1094 C228.7344 47.1094 228.8906 46.8906 229 46.4062 L229.2344 45.6562 Z"
      /><rect x="212" y="45" width="8" style="fill:white; stroke:none;" height="8"
      /><path style="stroke:none;" d="M216.9844 50.7031 C216.9375 51.8906 216.1562 52.6562 215.3125 52.6562 C214.2656 52.6562 213.5 51.6875 213.5 49.7188 C213.5 48.2812 214.1562 47.1562 215.3438 47.1562 C216.1406 47.1562 216.7812 47.6875 217.0938 48.6406 L216.9844 50.7031 ZM218.9062 52.2812 C218.7344 52.375 218.5469 52.4219 218.3438 52.4219 C217.9531 52.4219 217.75 52.2188 217.75 51.4219 C217.75 50.4844 217.9688 48.5312 218.1875 46.8281 L218.0312 46.7188 L217.2344 46.9219 L217.1406 47.7969 C216.7812 47.0312 216.1562 46.6562 215.3906 46.6562 C214.0469 46.6562 212.5625 47.8438 212.5625 49.9531 C212.5625 52.0938 213.7188 53.1719 215.1406 53.1719 C216.0156 53.1719 216.6875 52.8125 217.0938 51.9844 C217.2031 52.8594 217.5156 53.1719 218.0156 53.1719 C218.4688 53.1719 218.7969 52.9062 219.0156 52.5625 L218.9062 52.2812 Z"
      /><rect x="279" y="44" width="6" style="fill:white; stroke:none;" height="10"
      /><path style="stroke:none;" d="M281.2344 45.6562 C281.5156 45.5938 281.7656 45.5625 282.0156 45.5625 C283.0625 45.5625 283.6719 46.1719 283.6719 47.2656 C283.6719 48.4375 282.9062 49.1094 281.7031 49.1094 L281.1875 49.1094 L281.1875 49.6406 L281.7969 49.6406 C283.2188 49.6406 283.9062 50.4219 283.9062 51.6406 C283.9062 52.8438 283.1719 53.6875 281.875 53.6875 C281.6094 53.6875 281.3125 53.6562 281.0156 53.5625 L280.7812 52.8125 C280.625 52.2812 280.5 52.0469 280.1406 52.0469 C279.8906 52.0469 279.7031 52.1719 279.5781 52.4219 C279.8438 53.6406 280.7812 54.1719 282.0312 54.1719 C283.7188 54.1719 284.875 53.125 284.875 51.7031 C284.875 50.5 284.2031 49.625 282.7969 49.375 C283.9531 49.0156 284.6094 48.2031 284.6094 47.2031 C284.6094 45.9219 283.6719 45.0781 282.1875 45.0781 C281.0469 45.0781 280.0625 45.5938 279.7969 46.6875 C279.9062 47 280.1094 47.1094 280.3594 47.1094 C280.7344 47.1094 280.8906 46.8906 281 46.4062 L281.2344 45.6562 Z"
      /><rect x="264" y="45" width="8" style="fill:white; stroke:none;" height="8"
      /><path style="stroke:none;" d="M268.9844 50.7031 C268.9375 51.8906 268.1562 52.6562 267.3125 52.6562 C266.2656 52.6562 265.5 51.6875 265.5 49.7188 C265.5 48.2812 266.1562 47.1562 267.3438 47.1562 C268.1406 47.1562 268.7812 47.6875 269.0938 48.6406 L268.9844 50.7031 ZM270.9062 52.2812 C270.7344 52.375 270.5469 52.4219 270.3438 52.4219 C269.9531 52.4219 269.75 52.2188 269.75 51.4219 C269.75 50.4844 269.9688 48.5312 270.1875 46.8281 L270.0312 46.7188 L269.2344 46.9219 L269.1406 47.7969 C268.7812 47.0312 268.1562 46.6562 267.3906 46.6562 C266.0469 46.6562 264.5625 47.8438 264.5625 49.9531 C264.5625 52.0938 265.7188 53.1719 267.1406 53.1719 C268.0156 53.1719 268.6875 52.8125 269.0938 51.9844 C269.2031 52.8594 269.5156 53.1719 270.0156 53.1719 C270.4688 53.1719 270.7969 52.9062 271.0156 52.5625 L270.9062 52.2812 Z"
      /><rect x="331" y="44" width="6" style="fill:white; stroke:none;" height="10"
      /><path style="stroke:none;" d="M333.2344 45.6562 C333.5156 45.5938 333.7656 45.5625 334.0156 45.5625 C335.0625 45.5625 335.6719 46.1719 335.6719 47.2656 C335.6719 48.4375 334.9062 49.1094 333.7031 49.1094 L333.1875 49.1094 L333.1875 49.6406 L333.7969 49.6406 C335.2188 49.6406 335.9062 50.4219 335.9062 51.6406 C335.9062 52.8438 335.1719 53.6875 333.875 53.6875 C333.6094 53.6875 333.3125 53.6562 333.0156 53.5625 L332.7812 52.8125 C332.625 52.2812 332.5 52.0469 332.1406 52.0469 C331.8906 52.0469 331.7031 52.1719 331.5781 52.4219 C331.8438 53.6406 332.7812 54.1719 334.0312 54.1719 C335.7188 54.1719 336.875 53.125 336.875 51.7031 C336.875 50.5 336.2031 49.625 334.7969 49.375 C335.9531 49.0156 336.6094 48.2031 336.6094 47.2031 C336.6094 45.9219 335.6719 45.0781 334.1875 45.0781 C333.0469 45.0781 332.0625 45.5938 331.7969 46.6875 C331.9062 47 332.1094 47.1094 332.3594 47.1094 C332.7344 47.1094 332.8906 46.8906 333 46.4062 L333.2344 45.6562 Z"
      /><rect x="316" y="45" width="8" style="fill:white; stroke:none;" height="8"
      /><path style="stroke:none;" d="M320.9844 50.7031 C320.9375 51.8906 320.1562 52.6562 319.3125 52.6562 C318.2656 52.6562 317.5 51.6875 317.5 49.7188 C317.5 48.2812 318.1562 47.1562 319.3438 47.1562 C320.1406 47.1562 320.7812 47.6875 321.0938 48.6406 L320.9844 50.7031 ZM322.9062 52.2812 C322.7344 52.375 322.5469 52.4219 322.3438 52.4219 C321.9531 52.4219 321.75 52.2188 321.75 51.4219 C321.75 50.4844 321.9688 48.5312 322.1875 46.8281 L322.0312 46.7188 L321.2344 46.9219 L321.1406 47.7969 C320.7812 47.0312 320.1562 46.6562 319.3906 46.6562 C318.0469 46.6562 316.5625 47.8438 316.5625 49.9531 C316.5625 52.0938 317.7188 53.1719 319.1406 53.1719 C320.0156 53.1719 320.6875 52.8125 321.0938 51.9844 C321.2031 52.8594 321.5156 53.1719 322.0156 53.1719 C322.4688 53.1719 322.7969 52.9062 323.0156 52.5625 L322.9062 52.2812 Z"
      /><rect x="383" y="44" width="6" style="fill:white; stroke:none;" height="10"
      /><path style="stroke:none;" d="M385.2344 45.6562 C385.5156 45.5938 385.7656 45.5625 386.0156 45.5625 C387.0625 45.5625 387.6719 46.1719 387.6719 47.2656 C387.6719 48.4375 386.9062 49.1094 385.7031 49.1094 L385.1875 49.1094 L385.1875 49.6406 L385.7969 49.6406 C387.2188 49.6406 387.9062 50.4219 387.9062 51.6406 C387.9062 52.8438 387.1719 53.6875 385.875 53.6875 C385.6094 53.6875 385.3125 53.6562 385.0156 53.5625 L384.7812 52.8125 C384.625 52.2812 384.5 52.0469 384.1406 52.0469 C383.8906 52.0469 383.7031 52.1719 383.5781 52.4219 C383.8438 53.6406 384.7812 54.1719 386.0312 54.1719 C387.7188 54.1719 388.875 53.125 388.875 51.7031 C388.875 50.5 388.2031 49.625 386.7969 49.375 C387.9531 49.0156 388.6094 48.2031 388.6094 47.2031 C388.6094 45.9219 387.6719 45.0781 386.1875 45.0781 C385.0469 45.0781 384.0625 45.5938 383.7969 46.6875 C383.9062 47 384.1094 47.1094 384.3594 47.1094 C384.7344 47.1094 384.8906 46.8906 385 46.4062 L385.2344 45.6562 Z"
      /><rect x="368" y="45" width="8" style="fill:white; stroke:none;" height="8"
      /><path style="stroke:none;" d="M372.9844 50.7031 C372.9375 51.8906 372.1562 52.6562 371.3125 52.6562 C370.2656 52.6562 369.5 51.6875 369.5 49.7188 C369.5 48.2812 370.1562 47.1562 371.3438 47.1562 C372.1406 47.1562 372.7812 47.6875 373.0938 48.6406 L372.9844 50.7031 ZM374.9062 52.2812 C374.7344 52.375 374.5469 52.4219 374.3438 52.4219 C373.9531 52.4219 373.75 52.2188 373.75 51.4219 C373.75 50.4844 373.9688 48.5312 374.1875 46.8281 L374.0312 46.7188 L373.2344 46.9219 L373.1406 47.7969 C372.7812 47.0312 372.1562 46.6562 371.3906 46.6562 C370.0469 46.6562 368.5625 47.8438 368.5625 49.9531 C368.5625 52.0938 369.7188 53.1719 371.1406 53.1719 C372.0156 53.1719 372.6875 52.8125 373.0938 51.9844 C373.2031 52.8594 373.5156 53.1719 374.0156 53.1719 C374.4688 53.1719 374.7969 52.9062 375.0156 52.5625 L374.9062 52.2812 Z"
      /><rect x="420" y="45" width="8" style="fill:white; stroke:none;" height="8"
      /><path style="stroke:none;" d="M424.9844 50.7031 C424.9375 51.8906 424.1562 52.6562 423.3125 52.6562 C422.2656 52.6562 421.5 51.6875 421.5 49.7188 C421.5 48.2812 422.1562 47.1562 423.3438 47.1562 C424.1406 47.1562 424.7812 47.6875 425.0938 48.6406 L424.9844 50.7031 ZM426.9062 52.2812 C426.7344 52.375 426.5469 52.4219 426.3438 52.4219 C425.9531 52.4219 425.75 52.2188 425.75 51.4219 C425.75 50.4844 425.9688 48.5312 426.1875 46.8281 L426.0312 46.7188 L425.2344 46.9219 L425.1406 47.7969 C424.7812 47.0312 424.1562 46.6562 423.3906 46.6562 C422.0469 46.6562 420.5625 47.8438 420.5625 49.9531 C420.5625 52.0938 421.7188 53.1719 423.1406 53.1719 C424.0156 53.1719 424.6875 52.8125 425.0938 51.9844 C425.2031 52.8594 425.5156 53.1719 426.0156 53.1719 C426.4688 53.1719 426.7969 52.9062 427.0156 52.5625 L426.9062 52.2812 Z"
    /></g
  ></g
></svg
>
