<?xml version="1.0"?>
<!DOCTYPE svg PUBLIC '-//W3C//DTD SVG 1.0//EN'
          'http://www.w3.org/TR/2001/REC-SVG-20010904/DTD/svg10.dtd'>
<svg xmlns:xlink="http://www.w3.org/1999/xlink" style="fill-opacity:1; color-rendering:auto; color-interpolation:auto; text-rendering:auto; stroke:black; stroke-linecap:square; stroke-miterlimit:10; shape-rendering:auto; stroke-opacity:1; fill:black; stroke-dasharray:none; font-weight:normal; stroke-width:1; font-family:'Dialog'; font-style:normal; stroke-linejoin:miter; font-size:12px; stroke-dashoffset:0; image-rendering:auto;" viewBox="0 0 394 248" xmlns="http://www.w3.org/2000/svg"
><!--Generated by the Batik Graphics2D SVG Generator--><defs id="genericDefs"
  /><g
  ><defs id="defs1"
    ><clipPath clipPathUnits="userSpaceOnUse" id="clipPath1"
      ><path style="fill-rule:evenodd;" d="M312 90 L306 97 L295 97 L290 90 L295 82 L306 82 L312 90 Z"
      /></clipPath
      ><clipPath clipPathUnits="userSpaceOnUse" id="clipPath2"
      ><path style="fill-rule:evenodd;" d="M260 116 L254 123 L243 123 L238 116 L243 108 L254 108 L260 116 Z"
      /></clipPath
      ><clipPath clipPathUnits="userSpaceOnUse" id="clipPath3"
      ><path style="fill-rule:evenodd;" d="M208 142 L202 149 L191 149 L186 142 L191 134 L202 134 L208 142 Z"
      /></clipPath
      ><clipPath clipPathUnits="userSpaceOnUse" id="clipPath4"
      ><path style="fill-rule:evenodd;" d="M145 170 L156 181 L145 192 L134 181 Z"
      /></clipPath
      ><clipPath clipPathUnits="userSpaceOnUse" id="clipPath5"
      ><path style="fill-rule:evenodd;" d="M104 207 L98 214 L87 214 L82 207 L87 199 L98 199 L104 207 Z"
      /></clipPath
      ><clipPath clipPathUnits="userSpaceOnUse" id="clipPath6"
      ><path style="fill-rule:evenodd;" d="M52 207 L46 214 L35 214 L30 207 L35 199 L46 199 L52 207 Z"
      /></clipPath
      ><clipPath clipPathUnits="userSpaceOnUse" id="clipPath7"
      ><path d="M82 144 L104 144 L104 166 L82 166 L82 144 Z"
      /></clipPath
      ><clipPath clipPathUnits="userSpaceOnUse" id="clipPath8"
      ><path style="fill-rule:evenodd;" d="M156 103 L150 110 L139 110 L134 103 L139 95 L150 95 L156 103 Z"
      /></clipPath
      ><clipPath clipPathUnits="userSpaceOnUse" id="clipPath9"
      ><path style="fill-rule:evenodd;" d="M93 92 L104 103 L93 114 L82 103 Z"
      /></clipPath
      ><clipPath clipPathUnits="userSpaceOnUse" id="clipPath10"
      ><path d="M208 90 C208 96.0751 203.0751 101 197 101 C190.9249 101 186 96.0751 186 90 C186 83.9249 190.9249 79 197 79 C203.0751 79 208 83.9249 208 90 Z"
      /></clipPath
      ><clipPath clipPathUnits="userSpaceOnUse" id="clipPath11"
      ><path style="fill-rule:evenodd;" d="M249 53 L251 60 L259 60 L252 65 L255 72 L249 68 L242 72 L245 65 L238 60 L246 60 L249 53 Z"
      /></clipPath
    ></defs
    ><g style="fill:white; text-rendering:optimizeSpeed; stroke:white;"
    ><rect x="0" width="394" height="248" y="0" style="stroke:none;"
      /><polygon style="fill:none; stroke:black;" points=" 353 90 301 90"
      /><path d="M353 79 C347.5 84.5 358.5 95.5 353 101" style="fill:none; stroke:black;"
      /><polygon style="fill:none; stroke:black;" points=" 301 90 249 116"
      /><polygon style="fill:none; stroke:black;" points=" 301 90 249 64"
      /><polygon style="clip-path:url(#clipPath1); stroke:none;" points=" 312 90 306 97 295 97 290 90 295 82 306 82 312 90"
      /><rect x="290" y="79" width="22" style="clip-path:url(#clipPath1); fill:rgb(255,212,0); stroke:none;" height="22"
      /><rect x="290" y="79" width="22" style="clip-path:url(#clipPath1); fill:none; stroke:black;" height="22"
      /><polygon style="fill:none; stroke:black;" points=" 312 90 306 97 295 97 290 90 295 82 306 82 312 90"
    /></g
    ><g style="text-rendering:optimizeSpeed; font-size:14px; font-family:'SansSerif';"
    ><path style="stroke:none;" d="M293.6094 118 L300.0625 118 L300.0625 116.8906 L297.2344 116.8906 C296.7031 116.8906 296.0781 116.9531 295.5469 116.9844 C297.9531 114.7031 299.5625 112.625 299.5625 110.5781 C299.5625 108.75 298.4219 107.5469 296.5781 107.5469 C295.2812 107.5469 294.4062 108.1406 293.5625 109.0469 L294.2969 109.7812 C294.8594 109.1094 295.5938 108.5938 296.4375 108.5938 C297.7031 108.5938 298.3125 109.4531 298.3125 110.625 C298.3125 112.3906 296.8438 114.4375 293.6094 117.25 L293.6094 118 ZM305.8168 118.1875 C307.9106 118.1875 309.5043 117.0625 309.5043 113.7656 L309.5043 107.7188 L308.2543 107.7188 L308.2543 113.7969 C308.2543 116.2812 307.1762 117.0469 305.8168 117.0469 C304.4731 117.0469 303.4262 116.2812 303.4262 113.7969 L303.4262 107.7188 L302.1293 107.7188 L302.1293 113.7656 C302.1293 117.0625 303.7231 118.1875 305.8168 118.1875 Z"
      /><polygon style="fill:none;" points=" 249 116 197 142"
      /><polygon style="fill:none;" points=" 249 116 197 90"
    /></g
    ><g style="fill:white; text-rendering:optimizeSpeed; stroke:white;"
    ><polygon style="stroke:none; clip-path:url(#clipPath2);" points=" 260 116 254 123 243 123 238 116 243 108 254 108 260 116"
      /><rect x="238" y="105" width="22" style="clip-path:url(#clipPath2); fill:rgb(0,166,81); stroke:none;" height="22"
      /><rect x="238" y="105" width="22" style="clip-path:url(#clipPath2); fill:none; stroke:black;" height="22"
      /><polygon style="fill:none; stroke:black;" points=" 260 116 254 123 243 123 238 116 243 108 254 108 260 116"
      /><polygon style="fill:none; stroke:black;" points=" 197 142 145 181"
      /><polygon style="fill:none; stroke:black;" points=" 197 142 145 103"
      /><polygon style="clip-path:url(#clipPath3); stroke:none;" points=" 208 142 202 149 191 149 186 142 191 134 202 134 208 142"
      /><rect x="186" y="131" width="22" style="clip-path:url(#clipPath3); fill:rgb(0,166,81); stroke:none;" height="22"
      /><rect x="186" y="131" width="22" style="clip-path:url(#clipPath3); fill:none; stroke:black;" height="22"
      /><polygon style="fill:none; stroke:black;" points=" 208 142 202 149 191 149 186 142 191 134 202 134 208 142"
      /><polygon style="fill:none; stroke:black;" points=" 145 181 93 207"
      /><polygon style="fill:none; stroke:black;" points=" 145 181 93 155"
      /><polygon style="clip-path:url(#clipPath4); stroke:none;" points=" 145 170 156 181 145 192 134 181"
      /><rect x="134" y="170" width="22" style="clip-path:url(#clipPath4); fill:rgb(255,212,0); stroke:none;" height="11"
      /><rect x="134" y="170" width="22" style="clip-path:url(#clipPath4); fill:none; stroke:black;" height="11"
      /><polygon style="fill:none; stroke:black;" points=" 145 170 156 181 145 192 134 181"
      /><polygon style="fill:none; stroke:black;" points=" 93 207 41 207"
      /><polygon style="clip-path:url(#clipPath5); stroke:none;" points=" 104 207 98 214 87 214 82 207 87 199 98 199 104 207"
      /><rect x="82" y="196" width="22" style="clip-path:url(#clipPath5); fill:rgb(246,158,161); stroke:none;" height="22"
      /><rect x="82" y="196" width="22" style="clip-path:url(#clipPath5); fill:none; stroke:black;" height="22"
      /><polygon style="fill:none; stroke:black;" points=" 104 207 98 214 87 214 82 207 87 199 98 199 104 207"
      /><polygon style="clip-path:url(#clipPath6); stroke:none;" points=" 52 207 46 214 35 214 30 207 35 199 46 199 52 207"
      /><rect x="30" y="196" width="22" style="clip-path:url(#clipPath6); fill:rgb(0,166,81); stroke:none;" height="22"
      /><rect x="30" y="196" width="22" style="clip-path:url(#clipPath6); fill:none; stroke:black;" height="22"
      /><polygon style="fill:none; stroke:black;" points=" 52 207 46 214 35 214 30 207 35 199 46 199 52 207"
      /><rect x="71" width="5" height="10" y="210" style="stroke:none;"
      /><path d="M72.8906 218.6875 C72.4844 218.6875 72.1562 219.0469 72.1562 219.4219 C72.1562 219.8125 72.4844 220.1562 72.8906 220.1562 C73.2969 220.1562 73.6406 219.8125 73.6406 219.4219 C73.6406 219.0469 73.2969 218.6875 72.8906 218.6875 ZM74.4688 212.5781 C74.7188 212.8906 74.875 213.2656 74.8906 213.6562 C74.8906 214.1875 74.625 214.5 74.0312 214.7656 L73.4062 215.0156 C72.6406 215.3125 72.3906 215.5469 72.3906 215.9375 C72.3906 216.1094 72.4531 216.3438 72.5781 216.8125 L72.7344 217.3438 L73.1094 217.3438 L73.0938 216.5312 C73.0938 216.0938 73.2031 215.9688 73.7812 215.7344 L74.2031 215.5625 C75.0312 215.2188 75.4531 214.6875 75.4531 213.8438 C75.4531 212.1562 73.6562 211.1875 72.5 211.0312 C72.1094 211.125 71.9062 211.2969 71.9062 211.6406 C71.9062 211.9375 72.0625 212.1562 72.7188 212.2656 L74.4688 212.5781 Z" style="fill:black; stroke:none;"
      /><rect x="57" width="5" height="10" y="210" style="stroke:none;"
      /><path d="M58.8906 218.6875 C58.4844 218.6875 58.1562 219.0469 58.1562 219.4219 C58.1562 219.8125 58.4844 220.1562 58.8906 220.1562 C59.2969 220.1562 59.6406 219.8125 59.6406 219.4219 C59.6406 219.0469 59.2969 218.6875 58.8906 218.6875 ZM60.4688 212.5781 C60.7188 212.8906 60.875 213.2656 60.8906 213.6562 C60.8906 214.1875 60.625 214.5 60.0312 214.7656 L59.4062 215.0156 C58.6406 215.3125 58.3906 215.5469 58.3906 215.9375 C58.3906 216.1094 58.4531 216.3438 58.5781 216.8125 L58.7344 217.3438 L59.1094 217.3438 L59.0938 216.5312 C59.0938 216.0938 59.2031 215.9688 59.7812 215.7344 L60.2031 215.5625 C61.0312 215.2188 61.4531 214.6875 61.4531 213.8438 C61.4531 212.1562 59.6562 211.1875 58.5 211.0312 C58.1094 211.125 57.9062 211.2969 57.9062 211.6406 C57.9062 211.9375 58.0625 212.1562 58.7188 212.2656 L60.4688 212.5781 Z" style="fill:black; stroke:none;"
      /><rect x="82" y="144" width="22" style="clip-path:url(#clipPath7); stroke:none;" height="22"
      /><polygon style="fill:rgb(255,212,0); clip-path:url(#clipPath7); stroke:none;" points=" 82 144 104 144 104 166"
      /><polygon style="fill:none; clip-path:url(#clipPath7); stroke:black;" points=" 82 144 104 144 104 166"
      /><rect x="82" y="144" width="22" style="fill:none; stroke:black;" height="22"
      /><rect x="127" width="5" height="10" y="192" style="stroke:none;"
      /><path d="M128.8906 200.6875 C128.4844 200.6875 128.1562 201.0469 128.1562 201.4219 C128.1562 201.8125 128.4844 202.1562 128.8906 202.1562 C129.2969 202.1562 129.6406 201.8125 129.6406 201.4219 C129.6406 201.0469 129.2969 200.6875 128.8906 200.6875 ZM130.4688 194.5781 C130.7188 194.8906 130.875 195.2656 130.8906 195.6562 C130.8906 196.1875 130.625 196.5 130.0312 196.7656 L129.4062 197.0156 C128.6406 197.3125 128.3906 197.5469 128.3906 197.9375 C128.3906 198.1094 128.4531 198.3438 128.5781 198.8125 L128.7344 199.3438 L129.1094 199.3438 L129.0938 198.5312 C129.0938 198.0938 129.2031 197.9688 129.7812 197.7344 L130.2031 197.5625 C131.0312 197.2188 131.4531 196.6875 131.4531 195.8438 C131.4531 194.1562 129.6562 193.1875 128.5 193.0312 C128.1094 193.125 127.9062 193.2969 127.9062 193.6406 C127.9062 193.9375 128.0625 194.1562 128.7188 194.2656 L130.4688 194.5781 Z" style="fill:black; stroke:none;"
      /><rect x="112" width="5" height="10" y="200" style="stroke:none;"
      /><path d="M113.8906 208.6875 C113.4844 208.6875 113.1562 209.0469 113.1562 209.4219 C113.1562 209.8125 113.4844 210.1562 113.8906 210.1562 C114.2969 210.1562 114.6406 209.8125 114.6406 209.4219 C114.6406 209.0469 114.2969 208.6875 113.8906 208.6875 ZM115.4688 202.5781 C115.7188 202.8906 115.875 203.2656 115.8906 203.6562 C115.8906 204.1875 115.625 204.5 115.0312 204.7656 L114.4062 205.0156 C113.6406 205.3125 113.3906 205.5469 113.3906 205.9375 C113.3906 206.1094 113.4531 206.3438 113.5781 206.8125 L113.7344 207.3438 L114.1094 207.3438 L114.0938 206.5312 C114.0938 206.0938 114.2031 205.9688 114.7812 205.7344 L115.2031 205.5625 C116.0312 205.2188 116.4531 204.6875 116.4531 203.8438 C116.4531 202.1562 114.6562 201.1875 113.5 201.0312 C113.1094 201.125 112.9062 201.2969 112.9062 201.6406 C112.9062 201.9375 113.0625 202.1562 113.7188 202.2656 L115.4688 202.5781 Z" style="fill:black; stroke:none;"
      /><rect x="120" width="5" height="10" y="174" style="stroke:none;"
      /><path d="M121.8906 182.6875 C121.4844 182.6875 121.1562 183.0469 121.1562 183.4219 C121.1562 183.8125 121.4844 184.1562 121.8906 184.1562 C122.2969 184.1562 122.6406 183.8125 122.6406 183.4219 C122.6406 183.0469 122.2969 182.6875 121.8906 182.6875 ZM123.4688 176.5781 C123.7188 176.8906 123.875 177.2656 123.8906 177.6562 C123.8906 178.1875 123.625 178.5 123.0312 178.7656 L122.4062 179.0156 C121.6406 179.3125 121.3906 179.5469 121.3906 179.9375 C121.3906 180.1094 121.4531 180.3438 121.5781 180.8125 L121.7344 181.3438 L122.1094 181.3438 L122.0938 180.5312 C122.0938 180.0938 122.2031 179.9688 122.7812 179.7344 L123.2031 179.5625 C124.0312 179.2188 124.4531 178.6875 124.4531 177.8438 C124.4531 176.1562 122.6562 175.1875 121.5 175.0312 C121.1094 175.125 120.9062 175.2969 120.9062 175.6406 C120.9062 175.9375 121.0625 176.1562 121.7188 176.2656 L123.4688 176.5781 Z" style="fill:black; stroke:none;"
      /><rect x="105" width="5" height="10" y="166" style="stroke:none;"
      /><path d="M106.8906 174.6875 C106.4844 174.6875 106.1562 175.0469 106.1562 175.4219 C106.1562 175.8125 106.4844 176.1562 106.8906 176.1562 C107.2969 176.1562 107.6406 175.8125 107.6406 175.4219 C107.6406 175.0469 107.2969 174.6875 106.8906 174.6875 ZM108.4688 168.5781 C108.7188 168.8906 108.875 169.2656 108.8906 169.6562 C108.8906 170.1875 108.625 170.5 108.0312 170.7656 L107.4062 171.0156 C106.6406 171.3125 106.3906 171.5469 106.3906 171.9375 C106.3906 172.1094 106.4531 172.3438 106.5781 172.8125 L106.7344 173.3438 L107.1094 173.3438 L107.0938 172.5312 C107.0938 172.0938 107.2031 171.9688 107.7812 171.7344 L108.2031 171.5625 C109.0312 171.2188 109.4531 170.6875 109.4531 169.8438 C109.4531 168.1562 107.6562 167.1875 106.5 167.0312 C106.1094 167.125 105.9062 167.2969 105.9062 167.6406 C105.9062 167.9375 106.0625 168.1562 106.7188 168.2656 L108.4688 168.5781 Z" style="fill:black; stroke:none;"
      /><polygon style="fill:none; stroke:black;" points=" 145 103 93 103"
      /><polygon style="clip-path:url(#clipPath8); stroke:none;" points=" 156 103 150 110 139 110 134 103 139 95 150 95 156 103"
      /><rect x="134" y="92" width="22" style="clip-path:url(#clipPath8); fill:rgb(0,166,81); stroke:none;" height="22"
      /><rect x="134" y="92" width="22" style="clip-path:url(#clipPath8); fill:none; stroke:black;" height="22"
      /><polygon style="fill:none; stroke:black;" points=" 156 103 150 110 139 110 134 103 139 95 150 95 156 103"
      /><polygon style="clip-path:url(#clipPath9); stroke:none;" points=" 93 92 104 103 93 114 82 103"
      /><rect x="82" y="92" width="22" style="clip-path:url(#clipPath9); fill:rgb(255,212,0); stroke:none;" height="11"
      /><rect x="82" y="92" width="22" style="clip-path:url(#clipPath9); fill:none; stroke:black;" height="11"
      /><polygon style="fill:none; stroke:black;" points=" 93 92 104 103 93 114 82 103"
      /><rect x="123" width="5" height="10" y="106" style="stroke:none;"
      /><path d="M124.8906 114.6875 C124.4844 114.6875 124.1562 115.0469 124.1562 115.4219 C124.1562 115.8125 124.4844 116.1562 124.8906 116.1562 C125.2969 116.1562 125.6406 115.8125 125.6406 115.4219 C125.6406 115.0469 125.2969 114.6875 124.8906 114.6875 ZM126.4688 108.5781 C126.7188 108.8906 126.875 109.2656 126.8906 109.6562 C126.8906 110.1875 126.625 110.5 126.0312 110.7656 L125.4062 111.0156 C124.6406 111.3125 124.3906 111.5469 124.3906 111.9375 C124.3906 112.1094 124.4531 112.3438 124.5781 112.8125 L124.7344 113.3438 L125.1094 113.3438 L125.0938 112.5312 C125.0938 112.0938 125.2031 111.9688 125.7812 111.7344 L126.2031 111.5625 C127.0312 111.2188 127.4531 110.6875 127.4531 109.8438 C127.4531 108.1562 125.6562 107.1875 124.5 107.0312 C124.1094 107.125 123.9062 107.2969 123.9062 107.6406 C123.9062 107.9375 124.0625 108.1562 124.7188 108.2656 L126.4688 108.5781 Z" style="fill:black; stroke:none;"
      /><rect x="109" width="5" height="10" y="106" style="stroke:none;"
      /><path d="M110.8906 114.6875 C110.4844 114.6875 110.1562 115.0469 110.1562 115.4219 C110.1562 115.8125 110.4844 116.1562 110.8906 116.1562 C111.2969 116.1562 111.6406 115.8125 111.6406 115.4219 C111.6406 115.0469 111.2969 114.6875 110.8906 114.6875 ZM112.4688 108.5781 C112.7188 108.8906 112.875 109.2656 112.8906 109.6562 C112.8906 110.1875 112.625 110.5 112.0312 110.7656 L111.4062 111.0156 C110.6406 111.3125 110.3906 111.5469 110.3906 111.9375 C110.3906 112.1094 110.4531 112.3438 110.5781 112.8125 L110.7344 113.3438 L111.1094 113.3438 L111.0938 112.5312 C111.0938 112.0938 111.2031 111.9688 111.7812 111.7344 L112.2031 111.5625 C113.0312 111.2188 113.4531 110.6875 113.4531 109.8438 C113.4531 108.1562 111.6562 107.1875 110.5 107.0312 C110.1094 107.125 109.9062 107.2969 109.9062 107.6406 C109.9062 107.9375 110.0625 108.1562 110.7188 108.2656 L112.4688 108.5781 Z" style="fill:black; stroke:none;"
      /><rect x="181" width="5" height="10" y="156" style="stroke:none;"
      /><path d="M182.8906 164.6875 C182.4844 164.6875 182.1562 165.0469 182.1562 165.4219 C182.1562 165.8125 182.4844 166.1562 182.8906 166.1562 C183.2969 166.1562 183.6406 165.8125 183.6406 165.4219 C183.6406 165.0469 183.2969 164.6875 182.8906 164.6875 ZM184.4688 158.5781 C184.7188 158.8906 184.875 159.2656 184.8906 159.6562 C184.8906 160.1875 184.625 160.5 184.0312 160.7656 L183.4062 161.0156 C182.6406 161.3125 182.3906 161.5469 182.3906 161.9375 C182.3906 162.1094 182.4531 162.3438 182.5781 162.8125 L182.7344 163.3438 L183.1094 163.3438 L183.0938 162.5312 C183.0938 162.0938 183.2031 161.9688 183.7812 161.7344 L184.2031 161.5625 C185.0312 161.2188 185.4531 160.6875 185.4531 159.8438 C185.4531 158.1562 183.6562 157.1875 182.5 157.0312 C182.1094 157.125 181.9062 157.2969 181.9062 157.6406 C181.9062 157.9375 182.0625 158.1562 182.7188 158.2656 L184.4688 158.5781 Z" style="fill:black; stroke:none;"
      /><rect x="164" width="5" height="10" y="169" style="stroke:none;"
      /><path d="M165.8906 177.6875 C165.4844 177.6875 165.1562 178.0469 165.1562 178.4219 C165.1562 178.8125 165.4844 179.1562 165.8906 179.1562 C166.2969 179.1562 166.6406 178.8125 166.6406 178.4219 C166.6406 178.0469 166.2969 177.6875 165.8906 177.6875 ZM167.4688 171.5781 C167.7188 171.8906 167.875 172.2656 167.8906 172.6562 C167.8906 173.1875 167.625 173.5 167.0312 173.7656 L166.4062 174.0156 C165.6406 174.3125 165.3906 174.5469 165.3906 174.9375 C165.3906 175.1094 165.4531 175.3438 165.5781 175.8125 L165.7344 176.3438 L166.1094 176.3438 L166.0938 175.5312 C166.0938 175.0938 166.2031 174.9688 166.7812 174.7344 L167.2031 174.5625 C168.0312 174.2188 168.4531 173.6875 168.4531 172.8438 C168.4531 171.1562 166.6562 170.1875 165.5 170.0312 C165.1094 170.125 164.9062 170.2969 164.9062 170.6406 C164.9062 170.9375 165.0625 171.1562 165.7188 171.2656 L167.4688 171.5781 Z" style="fill:black; stroke:none;"
      /><rect x="172" width="5" height="10" y="130" style="stroke:none;"
      /><path d="M173.8906 138.6875 C173.4844 138.6875 173.1562 139.0469 173.1562 139.4219 C173.1562 139.8125 173.4844 140.1562 173.8906 140.1562 C174.2969 140.1562 174.6406 139.8125 174.6406 139.4219 C174.6406 139.0469 174.2969 138.6875 173.8906 138.6875 ZM175.4688 132.5781 C175.7188 132.8906 175.875 133.2656 175.8906 133.6562 C175.8906 134.1875 175.625 134.5 175.0312 134.7656 L174.4062 135.0156 C173.6406 135.3125 173.3906 135.5469 173.3906 135.9375 C173.3906 136.1094 173.4531 136.3438 173.5781 136.8125 L173.7344 137.3438 L174.1094 137.3438 L174.0938 136.5312 C174.0938 136.0938 174.2031 135.9688 174.7812 135.7344 L175.2031 135.5625 C176.0312 135.2188 176.4531 134.6875 176.4531 133.8438 C176.4531 132.1562 174.6562 131.1875 173.5 131.0312 C173.1094 131.125 172.9062 131.2969 172.9062 131.6406 C172.9062 131.9375 173.0625 132.1562 173.7188 132.2656 L175.4688 132.5781 Z" style="fill:black; stroke:none;"
      /><rect x="155" width="5" height="10" y="117" style="stroke:none;"
      /><path d="M156.8906 125.6875 C156.4844 125.6875 156.1562 126.0469 156.1562 126.4219 C156.1562 126.8125 156.4844 127.1562 156.8906 127.1562 C157.2969 127.1562 157.6406 126.8125 157.6406 126.4219 C157.6406 126.0469 157.2969 125.6875 156.8906 125.6875 ZM158.4688 119.5781 C158.7188 119.8906 158.875 120.2656 158.8906 120.6562 C158.8906 121.1875 158.625 121.5 158.0312 121.7656 L157.4062 122.0156 C156.6406 122.3125 156.3906 122.5469 156.3906 122.9375 C156.3906 123.1094 156.4531 123.3438 156.5781 123.8125 L156.7344 124.3438 L157.1094 124.3438 L157.0938 123.5312 C157.0938 123.0938 157.2031 122.9688 157.7812 122.7344 L158.2031 122.5625 C159.0312 122.2188 159.4531 121.6875 159.4531 120.8438 C159.4531 119.1562 157.6562 118.1875 156.5 118.0312 C156.1094 118.125 155.9062 118.2969 155.9062 118.6406 C155.9062 118.9375 156.0625 119.1562 156.7188 119.2656 L158.4688 119.5781 Z" style="fill:black; stroke:none;"
      /><circle r="11" style="clip-path:url(#clipPath10); stroke:none;" cx="197" cy="90"
      /><rect x="186" y="79" width="22" style="clip-path:url(#clipPath10); fill:rgb(0,144,188); stroke:none;" height="22"
      /><rect x="186" y="79" width="22" style="clip-path:url(#clipPath10); fill:none; stroke:black;" height="22"
      /><circle r="11" style="fill:none; stroke:black;" cx="197" cy="90"
      /><rect x="231" width="5" height="10" y="127" style="stroke:none;"
      /><path d="M232.8906 135.6875 C232.4844 135.6875 232.1562 136.0469 232.1562 136.4219 C232.1562 136.8125 232.4844 137.1562 232.8906 137.1562 C233.2969 137.1562 233.6406 136.8125 233.6406 136.4219 C233.6406 136.0469 233.2969 135.6875 232.8906 135.6875 ZM234.4688 129.5781 C234.7188 129.8906 234.875 130.2656 234.8906 130.6562 C234.8906 131.1875 234.625 131.5 234.0312 131.7656 L233.4062 132.0156 C232.6406 132.3125 232.3906 132.5469 232.3906 132.9375 C232.3906 133.1094 232.4531 133.3438 232.5781 133.8125 L232.7344 134.3438 L233.1094 134.3438 L233.0938 133.5312 C233.0938 133.0938 233.2031 132.9688 233.7812 132.7344 L234.2031 132.5625 C235.0312 132.2188 235.4531 131.6875 235.4531 130.8438 C235.4531 129.1562 233.6562 128.1875 232.5 128.0312 C232.1094 128.125 231.9062 128.2969 231.9062 128.6406 C231.9062 128.9375 232.0625 129.1562 232.7188 129.2656 L234.4688 129.5781 Z" style="fill:black; stroke:none;"
      /><rect x="216" width="5" height="10" y="135" style="stroke:none;"
      /><path d="M217.8906 143.6875 C217.4844 143.6875 217.1562 144.0469 217.1562 144.4219 C217.1562 144.8125 217.4844 145.1562 217.8906 145.1562 C218.2969 145.1562 218.6406 144.8125 218.6406 144.4219 C218.6406 144.0469 218.2969 143.6875 217.8906 143.6875 ZM219.4688 137.5781 C219.7188 137.8906 219.875 138.2656 219.8906 138.6562 C219.8906 139.1875 219.625 139.5 219.0312 139.7656 L218.4062 140.0156 C217.6406 140.3125 217.3906 140.5469 217.3906 140.9375 C217.3906 141.1094 217.4531 141.3438 217.5781 141.8125 L217.7344 142.3438 L218.1094 142.3438 L218.0938 141.5312 C218.0938 141.0938 218.2031 140.9688 218.7812 140.7344 L219.2031 140.5625 C220.0312 140.2188 220.4531 139.6875 220.4531 138.8438 C220.4531 137.1562 218.6562 136.1875 217.5 136.0312 C217.1094 136.125 216.9062 136.2969 216.9062 136.6406 C216.9062 136.9375 217.0625 137.1562 217.7188 137.2656 L219.4688 137.5781 Z" style="fill:black; stroke:none;"
      /><rect x="224" width="5" height="10" y="109" style="stroke:none;"
      /><path d="M225.8906 117.6875 C225.4844 117.6875 225.1562 118.0469 225.1562 118.4219 C225.1562 118.8125 225.4844 119.1562 225.8906 119.1562 C226.2969 119.1562 226.6406 118.8125 226.6406 118.4219 C226.6406 118.0469 226.2969 117.6875 225.8906 117.6875 ZM227.4688 111.5781 C227.7188 111.8906 227.875 112.2656 227.8906 112.6562 C227.8906 113.1875 227.625 113.5 227.0312 113.7656 L226.4062 114.0156 C225.6406 114.3125 225.3906 114.5469 225.3906 114.9375 C225.3906 115.1094 225.4531 115.3438 225.5781 115.8125 L225.7344 116.3438 L226.1094 116.3438 L226.0938 115.5312 C226.0938 115.0938 226.2031 114.9688 226.7812 114.7344 L227.2031 114.5625 C228.0312 114.2188 228.4531 113.6875 228.4531 112.8438 C228.4531 111.1562 226.6562 110.1875 225.5 110.0312 C225.1094 110.125 224.9062 110.2969 224.9062 110.6406 C224.9062 110.9375 225.0625 111.1562 225.7188 111.2656 L227.4688 111.5781 Z" style="fill:black; stroke:none;"
      /><rect x="209" width="5" height="10" y="101" style="stroke:none;"
      /><path d="M210.8906 109.6875 C210.4844 109.6875 210.1562 110.0469 210.1562 110.4219 C210.1562 110.8125 210.4844 111.1562 210.8906 111.1562 C211.2969 111.1562 211.6406 110.8125 211.6406 110.4219 C211.6406 110.0469 211.2969 109.6875 210.8906 109.6875 ZM212.4688 103.5781 C212.7188 103.8906 212.875 104.2656 212.8906 104.6562 C212.8906 105.1875 212.625 105.5 212.0312 105.7656 L211.4062 106.0156 C210.6406 106.3125 210.3906 106.5469 210.3906 106.9375 C210.3906 107.1094 210.4531 107.3438 210.5781 107.8125 L210.7344 108.3438 L211.1094 108.3438 L211.0938 107.5312 C211.0938 107.0938 211.2031 106.9688 211.7812 106.7344 L212.2031 106.5625 C213.0312 106.2188 213.4531 105.6875 213.4531 104.8438 C213.4531 103.1562 211.6562 102.1875 210.5 102.0312 C210.1094 102.125 209.9062 102.2969 209.9062 102.6406 C209.9062 102.9375 210.0625 103.1562 210.7188 103.2656 L212.4688 103.5781 Z" style="fill:black; stroke:none;"
      /><polygon style="clip-path:url(#clipPath11); stroke:none;" points=" 249 53 251 60 259 60 252 65 255 72 249 68 242 72 245 65 238 60 246 60 249 53"
      /><rect x="238" y="53" width="22" style="clip-path:url(#clipPath11); fill:rgb(0,166,81); stroke:none;" height="22"
      /><rect x="238" y="53" width="22" style="clip-path:url(#clipPath11); fill:none; stroke:black;" height="22"
      /><polygon style="fill:none; stroke:black;" points=" 249 53 251 60 259 60 252 65 255 72 249 68 242 72 245 65 238 60 246 60 249 53"
      /><rect x="240" width="16" height="10" y="35" style="stroke:none;"
    /></g
    ><g style="text-rendering:optimizeSpeed; font-size:14px; font-family:'SansSerif';"
    ><path style="stroke:none;" d="M241.6094 42.1562 L243.9531 38.6562 C244.2344 38.1406 244.5156 37.6406 244.7812 37.1406 L244.8281 37.1406 C244.7969 37.6719 244.7656 38.5 244.7656 39 L244.7656 42.1562 L241.6094 42.1562 ZM244.7656 46 L245.9688 46 L245.9688 43.1719 L247.3281 43.1719 L247.3281 42.1562 L245.9688 42.1562 L245.9688 35.7188 L244.5469 35.7188 L240.2812 42.3281 L240.2812 43.1719 L244.7656 43.1719 L244.7656 46 ZM249.1762 46 L250.395 46 L250.395 40.6094 C250.395 39.5312 250.3012 38.4375 250.2543 37.4062 L250.3012 37.4062 L251.4106 39.5156 L255.145 46 L256.4731 46 L256.4731 35.7188 L255.2387 35.7188 L255.2387 41.0781 C255.2387 42.1406 255.3481 43.2812 255.4106 44.3125 L255.3481 44.3125 L254.2543 42.2031 L250.52 35.7188 L249.1762 35.7188 L249.1762 46 Z"
    /></g
    ><g style="fill:white; text-rendering:optimizeSpeed; font-family:'Serif'; stroke:white;"
    ><rect x="283" width="5" height="10" y="101" style="stroke:none;"
      /><path d="M284.8906 109.6875 C284.4844 109.6875 284.1562 110.0469 284.1562 110.4219 C284.1562 110.8125 284.4844 111.1562 284.8906 111.1562 C285.2969 111.1562 285.6406 110.8125 285.6406 110.4219 C285.6406 110.0469 285.2969 109.6875 284.8906 109.6875 ZM286.4688 103.5781 C286.7188 103.8906 286.875 104.2656 286.8906 104.6562 C286.8906 105.1875 286.625 105.5 286.0312 105.7656 L285.4062 106.0156 C284.6406 106.3125 284.3906 106.5469 284.3906 106.9375 C284.3906 107.1094 284.4531 107.3438 284.5781 107.8125 L284.7344 108.3438 L285.1094 108.3438 L285.0938 107.5312 C285.0938 107.0938 285.2031 106.9688 285.7812 106.7344 L286.2031 106.5625 C287.0312 106.2188 287.4531 105.6875 287.4531 104.8438 C287.4531 103.1562 285.6562 102.1875 284.5 102.0312 C284.1094 102.125 283.9062 102.2969 283.9062 102.6406 C283.9062 102.9375 284.0625 103.1562 284.7188 103.2656 L286.4688 103.5781 Z" style="fill:black; stroke:none;"
      /><rect x="268" width="5" height="10" y="109" style="stroke:none;"
      /><path d="M269.8906 117.6875 C269.4844 117.6875 269.1562 118.0469 269.1562 118.4219 C269.1562 118.8125 269.4844 119.1562 269.8906 119.1562 C270.2969 119.1562 270.6406 118.8125 270.6406 118.4219 C270.6406 118.0469 270.2969 117.6875 269.8906 117.6875 ZM271.4688 111.5781 C271.7188 111.8906 271.875 112.2656 271.8906 112.6562 C271.8906 113.1875 271.625 113.5 271.0312 113.7656 L270.4062 114.0156 C269.6406 114.3125 269.3906 114.5469 269.3906 114.9375 C269.3906 115.1094 269.4531 115.3438 269.5781 115.8125 L269.7344 116.3438 L270.1094 116.3438 L270.0938 115.5312 C270.0938 115.0938 270.2031 114.9688 270.7812 114.7344 L271.2031 114.5625 C272.0312 114.2188 272.4531 113.6875 272.4531 112.8438 C272.4531 111.1562 270.6562 110.1875 269.5 110.0312 C269.1094 110.125 268.9062 110.2969 268.9062 110.6406 C268.9062 110.9375 269.0625 111.1562 269.7188 111.2656 L271.4688 111.5781 Z" style="fill:black; stroke:none;"
      /><rect x="276" width="5" height="10" y="83" style="stroke:none;"
      /><path d="M277.8906 91.6875 C277.4844 91.6875 277.1562 92.0469 277.1562 92.4219 C277.1562 92.8125 277.4844 93.1562 277.8906 93.1562 C278.2969 93.1562 278.6406 92.8125 278.6406 92.4219 C278.6406 92.0469 278.2969 91.6875 277.8906 91.6875 ZM279.4688 85.5781 C279.7188 85.8906 279.875 86.2656 279.8906 86.6562 C279.8906 87.1875 279.625 87.5 279.0312 87.7656 L278.4062 88.0156 C277.6406 88.3125 277.3906 88.5469 277.3906 88.9375 C277.3906 89.1094 277.4531 89.3438 277.5781 89.8125 L277.7344 90.3438 L278.1094 90.3438 L278.0938 89.5312 C278.0938 89.0938 278.2031 88.9688 278.7812 88.7344 L279.2031 88.5625 C280.0312 88.2188 280.4531 87.6875 280.4531 86.8438 C280.4531 85.1562 278.6562 84.1875 277.5 84.0312 C277.1094 84.125 276.9062 84.2969 276.9062 84.6406 C276.9062 84.9375 277.0625 85.1562 277.7188 85.2656 L279.4688 85.5781 Z" style="fill:black; stroke:none;"
      /><rect x="261" width="5" height="10" y="75" style="stroke:none;"
      /><path d="M262.8906 83.6875 C262.4844 83.6875 262.1562 84.0469 262.1562 84.4219 C262.1562 84.8125 262.4844 85.1562 262.8906 85.1562 C263.2969 85.1562 263.6406 84.8125 263.6406 84.4219 C263.6406 84.0469 263.2969 83.6875 262.8906 83.6875 ZM264.4688 77.5781 C264.7188 77.8906 264.875 78.2656 264.8906 78.6562 C264.8906 79.1875 264.625 79.5 264.0312 79.7656 L263.4062 80.0156 C262.6406 80.3125 262.3906 80.5469 262.3906 80.9375 C262.3906 81.1094 262.4531 81.3438 262.5781 81.8125 L262.7344 82.3438 L263.1094 82.3438 L263.0938 81.5312 C263.0938 81.0938 263.2031 80.9688 263.7812 80.7344 L264.2031 80.5625 C265.0312 80.2188 265.4531 79.6875 265.4531 78.8438 C265.4531 77.1562 263.6562 76.1875 262.5 76.0312 C262.1094 76.125 261.9062 76.2969 261.9062 76.6406 C261.9062 76.9375 262.0625 77.1562 262.7188 77.2656 L264.4688 77.5781 Z" style="fill:black; stroke:none;"
      /><rect x="317" width="5" height="10" y="93" style="stroke:none;"
      /><path d="M318.8906 101.6875 C318.4844 101.6875 318.1562 102.0469 318.1562 102.4219 C318.1562 102.8125 318.4844 103.1562 318.8906 103.1562 C319.2969 103.1562 319.6406 102.8125 319.6406 102.4219 C319.6406 102.0469 319.2969 101.6875 318.8906 101.6875 ZM320.4688 95.5781 C320.7188 95.8906 320.875 96.2656 320.8906 96.6562 C320.8906 97.1875 320.625 97.5 320.0312 97.7656 L319.4062 98.0156 C318.6406 98.3125 318.3906 98.5469 318.3906 98.9375 C318.3906 99.1094 318.4531 99.3438 318.5781 99.8125 L318.7344 100.3438 L319.1094 100.3438 L319.0938 99.5312 C319.0938 99.0938 319.2031 98.9688 319.7812 98.7344 L320.2031 98.5625 C321.0312 98.2188 321.4531 97.6875 321.4531 96.8438 C321.4531 95.1562 319.6562 94.1875 318.5 94.0312 C318.1094 94.125 317.9062 94.2969 317.9062 94.6406 C317.9062 94.9375 318.0625 95.1562 318.7188 95.2656 L320.4688 95.5781 Z" style="fill:black; stroke:none;"
    /></g
  ></g
></svg
>
