<?xml version="1.0"?>
<!DOCTYPE svg PUBLIC '-//W3C//DTD SVG 1.0//EN'
          'http://www.w3.org/TR/2001/REC-SVG-20010904/DTD/svg10.dtd'>
<svg xmlns:xlink="http://www.w3.org/1999/xlink" style="fill-opacity:1; color-rendering:auto; color-interpolation:auto; text-rendering:auto; stroke:black; stroke-linecap:square; stroke-miterlimit:10; shape-rendering:auto; stroke-opacity:1; fill:black; stroke-dasharray:none; font-weight:normal; stroke-width:1; font-family:'Dialog'; font-style:normal; stroke-linejoin:miter; font-size:12px; stroke-dashoffset:0; image-rendering:auto;" viewBox="0 0 167 128" xmlns="http://www.w3.org/2000/svg"
><!--Generated by the Batik Graphics2D SVG Generator--><defs id="genericDefs"
  /><g
  ><defs id="defs1"
    ><clipPath clipPathUnits="userSpaceOnUse" id="clipPath1"
      ><path d="M68 64 C68 70.0751 63.0751 75 57 75 C50.9249 75 46 70.0751 46 64 C46 57.9249 50.9249 53 57 53 C63.0751 53 68 57.9249 68 64 Z"
      /></clipPath
    ></defs
    ><g style="fill:white; text-rendering:optimizeSpeed; stroke:white;"
    ><rect x="0" width="167" height="128" y="0" style="stroke:none;"
      /><polygon style="fill:none; stroke:black;" points=" 126 64 57 64"
      /><path d="M126 53 C120.5 58.5 131.5 69.5 126 75" style="fill:none; stroke:black;"
      /><circle style="clip-path:url(#clipPath1); stroke:none;" r="11" cx="57" cy="64"
      /><rect x="46" y="53" width="22" style="clip-path:url(#clipPath1); fill:rgb(0,144,188); stroke:none;" height="22"
      /><rect x="46" y="53" width="22" style="clip-path:url(#clipPath1); fill:none; stroke:black;" height="22"
      /><circle style="fill:none; stroke:black;" r="11" cx="57" cy="64"
    /></g
    ><g style="text-rendering:optimizeSpeed; font-size:10px; font-family:'SansSerif';"
    ><path style="stroke:none;" d="M56.0625 68 L56.9844 68 L56.9844 63.3125 L58.125 63.3125 L58.125 62.5625 L56.9844 62.5625 L56.9844 61.7031 C56.9844 61.0156 57.2344 60.6406 57.75 60.6406 C57.9375 60.6406 58.1562 60.6875 58.3594 60.7812 L58.5625 60.0938 C58.3125 59.9844 57.9844 59.9062 57.6562 59.9062 C56.5625 59.9062 56.0625 60.5938 56.0625 61.7031 L56.0625 62.5625 L55.3281 62.625 L55.3281 63.3125 L56.0625 63.3125 L56.0625 68 Z"
      /><rect x="58" y="81" width="25" style="fill:white; stroke:none;" height="10"
      /><path style="stroke:none;" d="M58.6094 92 L65.0625 92 L65.0625 90.8906 L62.2344 90.8906 C61.7031 90.8906 61.0781 90.9531 60.5469 90.9844 C62.9531 88.7031 64.5625 86.625 64.5625 84.5781 C64.5625 82.75 63.4219 81.5469 61.5781 81.5469 C60.2812 81.5469 59.4062 82.1406 58.5625 83.0469 L59.2969 83.7812 C59.8594 83.1094 60.5938 82.5938 61.4375 82.5938 C62.7031 82.5938 63.3125 83.4531 63.3125 84.625 C63.3125 86.3906 61.8438 88.4375 58.6094 91.25 L58.6094 92 ZM67.1762 92 L68.3481 92 L68.3481 86.3125 C68.3481 85.4375 68.2543 84.1875 68.1918 83.2969 L68.2543 83.2969 L69.0668 85.625 L71.0043 90.9688 L71.8793 90.9688 L73.8168 85.625 L74.6293 83.2969 L74.6918 83.2969 C74.6137 84.1875 74.52 85.4375 74.52 86.3125 L74.52 92 L75.7387 92 L75.7387 81.7188 L74.1762 81.7188 L72.2075 87.2188 C71.9731 87.9375 71.7543 88.6562 71.5043 89.375 L71.4418 89.375 C71.1918 88.6562 70.9575 87.9375 70.7075 87.2188 L68.7387 81.7188 L67.1762 81.7188 L67.1762 92 ZM81.4973 92.1875 C82.5285 92.1875 83.341 91.8281 84.0129 91.3906 L83.5442 90.5625 C82.9973 90.9375 82.3879 91.1562 81.6535 91.1562 C80.2004 91.1562 79.216 90.125 79.1223 88.5 L84.2473 88.5 C84.2785 88.3125 84.3098 88.0469 84.3098 87.7656 C84.3098 85.6094 83.216 84.2031 81.2785 84.2031 C79.5129 84.2031 77.8567 85.7344 77.8567 88.2031 C77.8567 90.7188 79.4817 92.1875 81.4973 92.1875 ZM79.1067 87.5781 C79.2629 86.0938 80.216 85.2188 81.2942 85.2188 C82.4817 85.2188 83.1848 86.0469 83.1848 87.5781 L79.1067 87.5781 Z"
      /><rect x="30" y="81" width="25" style="fill:white; stroke:none;" height="10"
      /><path style="stroke:none;" d="M33.7031 92.1875 C35.5156 92.1875 36.9844 91.0938 36.9844 89.25 C36.9844 87.8594 36.0156 86.9375 34.8125 86.6562 L34.8125 86.5938 C35.8906 86.1875 36.6406 85.3594 36.6406 84.125 C36.6406 82.5 35.375 81.5469 33.6562 81.5469 C32.4688 81.5469 31.5469 82.0625 30.7812 82.7812 L31.4688 83.5938 C32.0469 83 32.7656 82.5938 33.5938 82.5938 C34.6562 82.5938 35.3281 83.2344 35.3281 84.2188 C35.3281 85.3281 34.6094 86.1719 32.4844 86.1719 L32.4844 87.1562 C34.8594 87.1562 35.6875 87.9844 35.6875 89.2031 C35.6875 90.3906 34.8125 91.125 33.5938 91.125 C32.4375 91.125 31.6562 90.5781 31.0469 89.9375 L30.4062 90.7812 C31.0781 91.5156 32.0938 92.1875 33.7031 92.1875 ZM39.1762 92 L40.3481 92 L40.3481 86.3125 C40.3481 85.4375 40.2543 84.1875 40.1918 83.2969 L40.2543 83.2969 L41.0668 85.625 L43.0043 90.9688 L43.8793 90.9688 L45.8168 85.625 L46.6293 83.2969 L46.6918 83.2969 C46.6137 84.1875 46.52 85.4375 46.52 86.3125 L46.52 92 L47.7387 92 L47.7387 81.7188 L46.1762 81.7188 L44.2075 87.2188 C43.9731 87.9375 43.7543 88.6562 43.5043 89.375 L43.4418 89.375 C43.1918 88.6562 42.9575 87.9375 42.7075 87.2188 L40.7387 81.7188 L39.1762 81.7188 L39.1762 92 ZM53.4973 92.1875 C54.5285 92.1875 55.341 91.8281 56.0129 91.3906 L55.5442 90.5625 C54.9973 90.9375 54.3879 91.1562 53.6535 91.1562 C52.2004 91.1562 51.216 90.125 51.1223 88.5 L56.2473 88.5 C56.2785 88.3125 56.3098 88.0469 56.3098 87.7656 C56.3098 85.6094 55.216 84.2031 53.2785 84.2031 C51.5129 84.2031 49.8567 85.7344 49.8567 88.2031 C49.8567 90.7188 51.4817 92.1875 53.4973 92.1875 ZM51.1067 87.5781 C51.2629 86.0938 52.216 85.2188 53.2942 85.2188 C54.4817 85.2188 55.1848 86.0469 55.1848 87.5781 L51.1067 87.5781 Z"
      /><rect x="44" y="35" width="25" style="fill:white; stroke:none;" height="10"
      /><path style="stroke:none;" d="M47.6562 46.1875 C49.3906 46.1875 51.0156 44.9062 51.0156 42.6562 C51.0156 40.4062 49.625 39.3906 47.9219 39.3906 C47.2969 39.3906 46.8594 39.5469 46.3906 39.7969 L46.6406 36.8281 L50.5312 36.8281 L50.5312 35.7188 L45.5312 35.7188 L45.2031 40.5469 L45.8906 40.9531 C46.4844 40.5625 46.9062 40.3594 47.5938 40.3594 C48.8906 40.3594 49.7188 41.2188 49.7188 42.7031 C49.7188 44.1875 48.75 45.125 47.5469 45.125 C46.3594 45.125 45.6094 44.5781 45.0156 43.9844 L44.3906 44.8281 C45.0781 45.5156 46.0625 46.1875 47.6562 46.1875 ZM53.1762 46 L54.3481 46 L54.3481 40.3125 C54.3481 39.4375 54.2543 38.1875 54.1918 37.2969 L54.2543 37.2969 L55.0668 39.625 L57.0043 44.9688 L57.8793 44.9688 L59.8168 39.625 L60.6293 37.2969 L60.6918 37.2969 C60.6137 38.1875 60.52 39.4375 60.52 40.3125 L60.52 46 L61.7387 46 L61.7387 35.7188 L60.1762 35.7188 L58.2075 41.2188 C57.9731 41.9375 57.7543 42.6562 57.5043 43.375 L57.4418 43.375 C57.1918 42.6562 56.9575 41.9375 56.7075 41.2188 L54.7387 35.7188 L53.1762 35.7188 L53.1762 46 ZM67.4973 46.1875 C68.5285 46.1875 69.341 45.8281 70.0129 45.3906 L69.5442 44.5625 C68.9973 44.9375 68.3879 45.1562 67.6535 45.1562 C66.2004 45.1562 65.216 44.125 65.1223 42.5 L70.2473 42.5 C70.2785 42.3125 70.3098 42.0469 70.3098 41.7656 C70.3098 39.6094 69.216 38.2031 67.2785 38.2031 C65.5129 38.2031 63.8567 39.7344 63.8567 42.2031 C63.8567 44.7188 65.4817 46.1875 67.4973 46.1875 ZM65.1067 41.5781 C65.2629 40.0938 66.216 39.2188 67.2942 39.2188 C68.4817 39.2188 69.1848 40.0469 69.1848 41.5781 L65.1067 41.5781 Z"
    /></g
    ><g style="fill:white; text-rendering:optimizeSpeed; font-family:'Serif'; stroke:white;"
    ><rect x="90" width="5" height="10" y="67" style="stroke:none;"
      /><path d="M91.8906 75.6875 C91.4844 75.6875 91.1562 76.0469 91.1562 76.4219 C91.1562 76.8125 91.4844 77.1562 91.8906 77.1562 C92.2969 77.1562 92.6406 76.8125 92.6406 76.4219 C92.6406 76.0469 92.2969 75.6875 91.8906 75.6875 ZM93.4688 69.5781 C93.7188 69.8906 93.875 70.2656 93.8906 70.6562 C93.8906 71.1875 93.625 71.5 93.0312 71.7656 L92.4062 72.0156 C91.6406 72.3125 91.3906 72.5469 91.3906 72.9375 C91.3906 73.1094 91.4531 73.3438 91.5781 73.8125 L91.7344 74.3438 L92.1094 74.3438 L92.0938 73.5312 C92.0938 73.0938 92.2031 72.9688 92.7812 72.7344 L93.2031 72.5625 C94.0312 72.2188 94.4531 71.6875 94.4531 70.8438 C94.4531 69.1562 92.6562 68.1875 91.5 68.0312 C91.1094 68.125 90.9062 68.2969 90.9062 68.6406 C90.9062 68.9375 91.0625 69.1562 91.7188 69.2656 L93.4688 69.5781 Z" style="fill:black; stroke:none;"
    /></g
  ></g
></svg
>
