<?xml version="1.0"?>
<!DOCTYPE svg PUBLIC '-//W3C//DTD SVG 1.0//EN'
          'http://www.w3.org/TR/2001/REC-SVG-20010904/DTD/svg10.dtd'>
<svg xmlns:xlink="http://www.w3.org/1999/xlink" style="fill-opacity:1; color-rendering:auto; color-interpolation:auto; text-rendering:auto; stroke:black; stroke-linecap:square; stroke-miterlimit:10; shape-rendering:auto; stroke-opacity:1; fill:black; stroke-dasharray:none; font-weight:normal; stroke-width:1; font-family:'Dialog'; font-style:normal; stroke-linejoin:miter; font-size:12px; stroke-dashoffset:0; image-rendering:auto;" viewBox="0 0 446 186" xmlns="http://www.w3.org/2000/svg"
><!--Generated by the Batik Graphics2D SVG Generator--><defs id="genericDefs"
  /><g
  ><defs id="defs1"
    ><clipPath clipPathUnits="userSpaceOnUse" id="clipPath1"
      ><path style="fill-rule:evenodd;" d="M353 56 L364 67 L353 78 L342 67 Z"
      /></clipPath
      ><clipPath clipPathUnits="userSpaceOnUse" id="clipPath2"
      ><path style="fill-rule:evenodd;" d="M312 93 L306 100 L295 100 L290 93 L295 85 L306 85 L312 93 Z"
      /></clipPath
      ><clipPath clipPathUnits="userSpaceOnUse" id="clipPath3"
      ><path style="fill-rule:evenodd;" d="M260 93 L254 100 L243 100 L238 93 L243 85 L254 85 L260 93 Z"
      /></clipPath
      ><clipPath clipPathUnits="userSpaceOnUse" id="clipPath4"
      ><path d="M208 119 C208 125.0751 203.0751 130 197 130 C190.9249 130 186 125.0751 186 119 C186 112.9249 190.9249 108 197 108 C203.0751 108 208 112.9249 208 119 Z"
      /></clipPath
      ><clipPath clipPathUnits="userSpaceOnUse" id="clipPath5"
      ><path d="M156 145 C156 151.0751 151.0751 156 145 156 C138.9249 156 134 151.0751 134 145 C134 138.9249 138.9249 134 145 134 C151.0751 134 156 138.9249 156 145 Z"
      /></clipPath
      ><clipPath clipPathUnits="userSpaceOnUse" id="clipPath6"
      ><path d="M104 145 C104 151.0751 99.0751 156 93 156 C86.9249 156 82 151.0751 82 145 C82 138.9249 86.9249 134 93 134 C99.0751 134 104 138.9249 104 145 Z"
      /></clipPath
      ><clipPath clipPathUnits="userSpaceOnUse" id="clipPath7"
      ><path d="M30 134 L52 134 L52 156 L30 156 L30 134 Z"
      /></clipPath
      ><clipPath clipPathUnits="userSpaceOnUse" id="clipPath8"
      ><path d="M156 93 C156 99.0751 151.0751 104 145 104 C138.9249 104 134 99.0751 134 93 C134 86.9249 138.9249 82 145 82 C151.0751 82 156 86.9249 156 93 Z"
      /></clipPath
      ><clipPath clipPathUnits="userSpaceOnUse" id="clipPath9"
      ><path style="fill-rule:evenodd;" d="M208 67 L202 74 L191 74 L186 67 L191 59 L202 59 L208 67 Z"
      /></clipPath
      ><clipPath clipPathUnits="userSpaceOnUse" id="clipPath10"
      ><path style="fill-rule:evenodd;" d="M312 41 L306 48 L295 48 L290 41 L295 33 L306 33 L312 41 Z"
      /></clipPath
      ><clipPath clipPathUnits="userSpaceOnUse" id="clipPath11"
      ><path style="fill-rule:evenodd;" d="M260 41 L254 48 L243 48 L238 41 L243 33 L254 33 L260 41 Z"
      /></clipPath
    ></defs
    ><g style="fill:white; text-rendering:optimizeSpeed; stroke:white;"
    ><rect x="0" width="446" height="186" y="0" style="stroke:none;"
      /><polygon style="fill:none; stroke:black;" points=" 405 67 353 67"
      /><path d="M405 56 C399.5 61.5 410.5 72.5 405 78" style="fill:none; stroke:black;"
      /><polygon style="fill:none; stroke:black;" points=" 353 67 301 93"
      /><polygon style="fill:none; stroke:black;" points=" 353 67 301 41"
      /><polygon style="clip-path:url(#clipPath1); stroke:none;" points=" 353 56 364 67 353 78 342 67"
      /><rect x="342" y="56" width="22" style="clip-path:url(#clipPath1); fill:rgb(0,166,81); stroke:none;" height="22"
      /><rect x="342" y="56" width="22" style="clip-path:url(#clipPath1); fill:none; stroke:black;" height="22"
      /><polygon style="fill:none; stroke:black;" points=" 353 56 364 67 353 78 342 67"
    /></g
    ><g style="text-rendering:optimizeSpeed; font-size:14px; font-family:'SansSerif';"
    ><path style="stroke:none;" d="M345.6094 95 L352.0625 95 L352.0625 93.8906 L349.2344 93.8906 C348.7031 93.8906 348.0781 93.9531 347.5469 93.9844 C349.9531 91.7031 351.5625 89.625 351.5625 87.5781 C351.5625 85.75 350.4219 84.5469 348.5781 84.5469 C347.2812 84.5469 346.4062 85.1406 345.5625 86.0469 L346.2969 86.7812 C346.8594 86.1094 347.5938 85.5938 348.4375 85.5938 C349.7031 85.5938 350.3125 86.4531 350.3125 87.625 C350.3125 89.3906 348.8438 91.4375 345.6094 94.25 L345.6094 95 ZM357.8168 95.1875 C359.9106 95.1875 361.5043 94.0625 361.5043 90.7656 L361.5043 84.7188 L360.2543 84.7188 L360.2543 90.7969 C360.2543 93.2812 359.1762 94.0469 357.8168 94.0469 C356.4731 94.0469 355.4262 93.2812 355.4262 90.7969 L355.4262 84.7188 L354.1293 84.7188 L354.1293 90.7656 C354.1293 94.0625 355.7231 95.1875 357.8168 95.1875 Z"
      /><polygon style="fill:none;" points=" 301 93 249 93"
    /></g
    ><g style="fill:white; text-rendering:optimizeSpeed; stroke:white;"
    ><polygon style="stroke:none; clip-path:url(#clipPath2);" points=" 312 93 306 100 295 100 290 93 295 85 306 85 312 93"
      /><rect x="290" y="82" width="22" style="clip-path:url(#clipPath2); fill:rgb(0,166,81); stroke:none;" height="22"
      /><rect x="290" y="82" width="22" style="clip-path:url(#clipPath2); fill:none; stroke:black;" height="22"
      /><polygon style="fill:none; stroke:black;" points=" 312 93 306 100 295 100 290 93 295 85 306 85 312 93"
      /><polygon style="fill:none; stroke:black;" points=" 249 93 197 119"
      /><polygon style="fill:none; stroke:black;" points=" 249 93 197 67"
      /><polygon style="clip-path:url(#clipPath3); stroke:none;" points=" 260 93 254 100 243 100 238 93 243 85 254 85 260 93"
      /><rect x="238" y="82" width="22" style="clip-path:url(#clipPath3); fill:rgb(0,166,81); stroke:none;" height="22"
      /><rect x="238" y="82" width="22" style="clip-path:url(#clipPath3); fill:none; stroke:black;" height="22"
      /><polygon style="fill:none; stroke:black;" points=" 260 93 254 100 243 100 238 93 243 85 254 85 260 93"
      /><polygon style="fill:none; stroke:black;" points=" 197 119 145 145"
      /><polygon style="fill:none; stroke:black;" points=" 197 119 145 93"
      /><circle r="11" style="clip-path:url(#clipPath4); stroke:none;" cx="197" cy="119"
      /><rect x="186" y="108" width="22" style="clip-path:url(#clipPath4); fill:rgb(0,144,188); stroke:none;" height="22"
      /><rect x="186" y="108" width="22" style="clip-path:url(#clipPath4); fill:none; stroke:black;" height="22"
      /><circle r="11" style="fill:none; stroke:black;" cx="197" cy="119"
      /><polygon style="fill:none; stroke:black;" points=" 145 145 93 145"
      /><circle r="11" style="clip-path:url(#clipPath5); stroke:none;" cx="145" cy="145"
      /><rect x="134" y="134" width="22" style="clip-path:url(#clipPath5); fill:rgb(255,212,0); stroke:none;" height="22"
      /><rect x="134" y="134" width="22" style="clip-path:url(#clipPath5); fill:none; stroke:black;" height="22"
      /><circle r="11" style="fill:none; stroke:black;" cx="145" cy="145"
      /><polygon style="fill:none; stroke:black;" points=" 93 145 41 145"
      /><circle r="11" style="clip-path:url(#clipPath6); stroke:none;" cx="93" cy="145"
      /><rect x="82" y="134" width="22" style="clip-path:url(#clipPath6); fill:rgb(0,144,188); stroke:none;" height="22"
      /><rect x="82" y="134" width="22" style="clip-path:url(#clipPath6); fill:none; stroke:black;" height="22"
      /><circle r="11" style="fill:none; stroke:black;" cx="93" cy="145"
      /><rect x="30" y="134" width="22" style="clip-path:url(#clipPath7); stroke:none;" height="22"
      /><rect x="30" y="134" width="22" style="clip-path:url(#clipPath7); fill:rgb(0,144,188); stroke:none;" height="22"
      /><rect x="30" y="134" width="22" style="clip-path:url(#clipPath7); fill:none; stroke:black;" height="22"
      /><rect x="30" y="134" width="22" style="fill:none; stroke:black;" height="22"
      /><rect x="71" width="5" height="10" y="148" style="stroke:none;"
      /><path d="M72.8906 156.6875 C72.4844 156.6875 72.1562 157.0469 72.1562 157.4219 C72.1562 157.8125 72.4844 158.1562 72.8906 158.1562 C73.2969 158.1562 73.6406 157.8125 73.6406 157.4219 C73.6406 157.0469 73.2969 156.6875 72.8906 156.6875 ZM74.4688 150.5781 C74.7188 150.8906 74.875 151.2656 74.8906 151.6562 C74.8906 152.1875 74.625 152.5 74.0312 152.7656 L73.4062 153.0156 C72.6406 153.3125 72.3906 153.5469 72.3906 153.9375 C72.3906 154.1094 72.4531 154.3438 72.5781 154.8125 L72.7344 155.3438 L73.1094 155.3438 L73.0938 154.5312 C73.0938 154.0938 73.2031 153.9688 73.7812 153.7344 L74.2031 153.5625 C75.0312 153.2188 75.4531 152.6875 75.4531 151.8438 C75.4531 150.1562 73.6562 149.1875 72.5 149.0312 C72.1094 149.125 71.9062 149.2969 71.9062 149.6406 C71.9062 149.9375 72.0625 150.1562 72.7188 150.2656 L74.4688 150.5781 Z" style="fill:black; stroke:none;"
      /><rect x="57" width="5" height="10" y="148" style="stroke:none;"
      /><path d="M58.8906 156.6875 C58.4844 156.6875 58.1562 157.0469 58.1562 157.4219 C58.1562 157.8125 58.4844 158.1562 58.8906 158.1562 C59.2969 158.1562 59.6406 157.8125 59.6406 157.4219 C59.6406 157.0469 59.2969 156.6875 58.8906 156.6875 ZM60.4688 150.5781 C60.7188 150.8906 60.875 151.2656 60.8906 151.6562 C60.8906 152.1875 60.625 152.5 60.0312 152.7656 L59.4062 153.0156 C58.6406 153.3125 58.3906 153.5469 58.3906 153.9375 C58.3906 154.1094 58.4531 154.3438 58.5781 154.8125 L58.7344 155.3438 L59.1094 155.3438 L59.0938 154.5312 C59.0938 154.0938 59.2031 153.9688 59.7812 153.7344 L60.2031 153.5625 C61.0312 153.2188 61.4531 152.6875 61.4531 151.8438 C61.4531 150.1562 59.6562 149.1875 58.5 149.0312 C58.1094 149.125 57.9062 149.2969 57.9062 149.6406 C57.9062 149.9375 58.0625 150.1562 58.7188 150.2656 L60.4688 150.5781 Z" style="fill:black; stroke:none;"
      /><rect x="123" width="5" height="10" y="148" style="stroke:none;"
      /><path d="M124.8906 156.6875 C124.4844 156.6875 124.1562 157.0469 124.1562 157.4219 C124.1562 157.8125 124.4844 158.1562 124.8906 158.1562 C125.2969 158.1562 125.6406 157.8125 125.6406 157.4219 C125.6406 157.0469 125.2969 156.6875 124.8906 156.6875 ZM126.4688 150.5781 C126.7188 150.8906 126.875 151.2656 126.8906 151.6562 C126.8906 152.1875 126.625 152.5 126.0312 152.7656 L125.4062 153.0156 C124.6406 153.3125 124.3906 153.5469 124.3906 153.9375 C124.3906 154.1094 124.4531 154.3438 124.5781 154.8125 L124.7344 155.3438 L125.1094 155.3438 L125.0938 154.5312 C125.0938 154.0938 125.2031 153.9688 125.7812 153.7344 L126.2031 153.5625 C127.0312 153.2188 127.4531 152.6875 127.4531 151.8438 C127.4531 150.1562 125.6562 149.1875 124.5 149.0312 C124.1094 149.125 123.9062 149.2969 123.9062 149.6406 C123.9062 149.9375 124.0625 150.1562 124.7188 150.2656 L126.4688 150.5781 Z" style="fill:black; stroke:none;"
      /><rect x="109" width="5" height="10" y="148" style="stroke:none;"
      /><path d="M110.8906 156.6875 C110.4844 156.6875 110.1562 157.0469 110.1562 157.4219 C110.1562 157.8125 110.4844 158.1562 110.8906 158.1562 C111.2969 158.1562 111.6406 157.8125 111.6406 157.4219 C111.6406 157.0469 111.2969 156.6875 110.8906 156.6875 ZM112.4688 150.5781 C112.7188 150.8906 112.875 151.2656 112.8906 151.6562 C112.8906 152.1875 112.625 152.5 112.0312 152.7656 L111.4062 153.0156 C110.6406 153.3125 110.3906 153.5469 110.3906 153.9375 C110.3906 154.1094 110.4531 154.3438 110.5781 154.8125 L110.7344 155.3438 L111.1094 155.3438 L111.0938 154.5312 C111.0938 154.0938 111.2031 153.9688 111.7812 153.7344 L112.2031 153.5625 C113.0312 153.2188 113.4531 152.6875 113.4531 151.8438 C113.4531 150.1562 111.6562 149.1875 110.5 149.0312 C110.1094 149.125 109.9062 149.2969 109.9062 149.6406 C109.9062 149.9375 110.0625 150.1562 110.7188 150.2656 L112.4688 150.5781 Z" style="fill:black; stroke:none;"
      /><circle r="11" style="clip-path:url(#clipPath8); stroke:none;" cx="145" cy="93"
      /><rect x="134" y="82" width="22" style="clip-path:url(#clipPath8); fill:rgb(255,212,0); stroke:none;" height="22"
      /><rect x="134" y="82" width="22" style="clip-path:url(#clipPath8); fill:none; stroke:black;" height="22"
      /><circle r="11" style="fill:none; stroke:black;" cx="145" cy="93"
      /><rect x="179" width="5" height="10" y="130" style="stroke:none;"
      /><path d="M180.8906 138.6875 C180.4844 138.6875 180.1562 139.0469 180.1562 139.4219 C180.1562 139.8125 180.4844 140.1562 180.8906 140.1562 C181.2969 140.1562 181.6406 139.8125 181.6406 139.4219 C181.6406 139.0469 181.2969 138.6875 180.8906 138.6875 ZM182.4688 132.5781 C182.7188 132.8906 182.875 133.2656 182.8906 133.6562 C182.8906 134.1875 182.625 134.5 182.0312 134.7656 L181.4062 135.0156 C180.6406 135.3125 180.3906 135.5469 180.3906 135.9375 C180.3906 136.1094 180.4531 136.3438 180.5781 136.8125 L180.7344 137.3438 L181.1094 137.3438 L181.0938 136.5312 C181.0938 136.0938 181.2031 135.9688 181.7812 135.7344 L182.2031 135.5625 C183.0312 135.2188 183.4531 134.6875 183.4531 133.8438 C183.4531 132.1562 181.6562 131.1875 180.5 131.0312 C180.1094 131.125 179.9062 131.2969 179.9062 131.6406 C179.9062 131.9375 180.0625 132.1562 180.7188 132.2656 L182.4688 132.5781 Z" style="fill:black; stroke:none;"
      /><rect x="164" width="5" height="10" y="138" style="stroke:none;"
      /><path d="M165.8906 146.6875 C165.4844 146.6875 165.1562 147.0469 165.1562 147.4219 C165.1562 147.8125 165.4844 148.1562 165.8906 148.1562 C166.2969 148.1562 166.6406 147.8125 166.6406 147.4219 C166.6406 147.0469 166.2969 146.6875 165.8906 146.6875 ZM167.4688 140.5781 C167.7188 140.8906 167.875 141.2656 167.8906 141.6562 C167.8906 142.1875 167.625 142.5 167.0312 142.7656 L166.4062 143.0156 C165.6406 143.3125 165.3906 143.5469 165.3906 143.9375 C165.3906 144.1094 165.4531 144.3438 165.5781 144.8125 L165.7344 145.3438 L166.1094 145.3438 L166.0938 144.5312 C166.0938 144.0938 166.2031 143.9688 166.7812 143.7344 L167.2031 143.5625 C168.0312 143.2188 168.4531 142.6875 168.4531 141.8438 C168.4531 140.1562 166.6562 139.1875 165.5 139.0312 C165.1094 139.125 164.9062 139.2969 164.9062 139.6406 C164.9062 139.9375 165.0625 140.1562 165.7188 140.2656 L167.4688 140.5781 Z" style="fill:black; stroke:none;"
      /><rect x="172" width="5" height="10" y="112" style="stroke:none;"
      /><path d="M173.8906 120.6875 C173.4844 120.6875 173.1562 121.0469 173.1562 121.4219 C173.1562 121.8125 173.4844 122.1562 173.8906 122.1562 C174.2969 122.1562 174.6406 121.8125 174.6406 121.4219 C174.6406 121.0469 174.2969 120.6875 173.8906 120.6875 ZM175.4688 114.5781 C175.7188 114.8906 175.875 115.2656 175.8906 115.6562 C175.8906 116.1875 175.625 116.5 175.0312 116.7656 L174.4062 117.0156 C173.6406 117.3125 173.3906 117.5469 173.3906 117.9375 C173.3906 118.1094 173.4531 118.3438 173.5781 118.8125 L173.7344 119.3438 L174.1094 119.3438 L174.0938 118.5312 C174.0938 118.0938 174.2031 117.9688 174.7812 117.7344 L175.2031 117.5625 C176.0312 117.2188 176.4531 116.6875 176.4531 115.8438 C176.4531 114.1562 174.6562 113.1875 173.5 113.0312 C173.1094 113.125 172.9062 113.2969 172.9062 113.6406 C172.9062 113.9375 173.0625 114.1562 173.7188 114.2656 L175.4688 114.5781 Z" style="fill:black; stroke:none;"
      /><rect x="157" width="5" height="10" y="104" style="stroke:none;"
      /><path d="M158.8906 112.6875 C158.4844 112.6875 158.1562 113.0469 158.1562 113.4219 C158.1562 113.8125 158.4844 114.1562 158.8906 114.1562 C159.2969 114.1562 159.6406 113.8125 159.6406 113.4219 C159.6406 113.0469 159.2969 112.6875 158.8906 112.6875 ZM160.4688 106.5781 C160.7188 106.8906 160.875 107.2656 160.8906 107.6562 C160.8906 108.1875 160.625 108.5 160.0312 108.7656 L159.4062 109.0156 C158.6406 109.3125 158.3906 109.5469 158.3906 109.9375 C158.3906 110.1094 158.4531 110.3438 158.5781 110.8125 L158.7344 111.3438 L159.1094 111.3438 L159.0938 110.5312 C159.0938 110.0938 159.2031 109.9688 159.7812 109.7344 L160.2031 109.5625 C161.0312 109.2188 161.4531 108.6875 161.4531 107.8438 C161.4531 106.1562 159.6562 105.1875 158.5 105.0312 C158.1094 105.125 157.9062 105.2969 157.9062 105.6406 C157.9062 105.9375 158.0625 106.1562 158.7188 106.2656 L160.4688 106.5781 Z" style="fill:black; stroke:none;"
      /><polygon style="clip-path:url(#clipPath9); stroke:none;" points=" 208 67 202 74 191 74 186 67 191 59 202 59 208 67"
      /><rect x="186" y="56" width="22" style="clip-path:url(#clipPath9); fill:rgb(0,166,81); stroke:none;" height="22"
      /><rect x="186" y="56" width="22" style="clip-path:url(#clipPath9); fill:none; stroke:black;" height="22"
      /><polygon style="fill:none; stroke:black;" points=" 208 67 202 74 191 74 186 67 191 59 202 59 208 67"
      /><rect x="231" width="5" height="10" y="104" style="stroke:none;"
      /><path d="M232.8906 112.6875 C232.4844 112.6875 232.1562 113.0469 232.1562 113.4219 C232.1562 113.8125 232.4844 114.1562 232.8906 114.1562 C233.2969 114.1562 233.6406 113.8125 233.6406 113.4219 C233.6406 113.0469 233.2969 112.6875 232.8906 112.6875 ZM234.4688 106.5781 C234.7188 106.8906 234.875 107.2656 234.8906 107.6562 C234.8906 108.1875 234.625 108.5 234.0312 108.7656 L233.4062 109.0156 C232.6406 109.3125 232.3906 109.5469 232.3906 109.9375 C232.3906 110.1094 232.4531 110.3438 232.5781 110.8125 L232.7344 111.3438 L233.1094 111.3438 L233.0938 110.5312 C233.0938 110.0938 233.2031 109.9688 233.7812 109.7344 L234.2031 109.5625 C235.0312 109.2188 235.4531 108.6875 235.4531 107.8438 C235.4531 106.1562 233.6562 105.1875 232.5 105.0312 C232.1094 105.125 231.9062 105.2969 231.9062 105.6406 C231.9062 105.9375 232.0625 106.1562 232.7188 106.2656 L234.4688 106.5781 Z" style="fill:black; stroke:none;"
      /><rect x="216" width="5" height="10" y="112" style="stroke:none;"
      /><path d="M217.8906 120.6875 C217.4844 120.6875 217.1562 121.0469 217.1562 121.4219 C217.1562 121.8125 217.4844 122.1562 217.8906 122.1562 C218.2969 122.1562 218.6406 121.8125 218.6406 121.4219 C218.6406 121.0469 218.2969 120.6875 217.8906 120.6875 ZM219.4688 114.5781 C219.7188 114.8906 219.875 115.2656 219.8906 115.6562 C219.8906 116.1875 219.625 116.5 219.0312 116.7656 L218.4062 117.0156 C217.6406 117.3125 217.3906 117.5469 217.3906 117.9375 C217.3906 118.1094 217.4531 118.3438 217.5781 118.8125 L217.7344 119.3438 L218.1094 119.3438 L218.0938 118.5312 C218.0938 118.0938 218.2031 117.9688 218.7812 117.7344 L219.2031 117.5625 C220.0312 117.2188 220.4531 116.6875 220.4531 115.8438 C220.4531 114.1562 218.6562 113.1875 217.5 113.0312 C217.1094 113.125 216.9062 113.2969 216.9062 113.6406 C216.9062 113.9375 217.0625 114.1562 217.7188 114.2656 L219.4688 114.5781 Z" style="fill:black; stroke:none;"
      /><rect x="224" width="5" height="10" y="86" style="stroke:none;"
      /><path d="M225.8906 94.6875 C225.4844 94.6875 225.1562 95.0469 225.1562 95.4219 C225.1562 95.8125 225.4844 96.1562 225.8906 96.1562 C226.2969 96.1562 226.6406 95.8125 226.6406 95.4219 C226.6406 95.0469 226.2969 94.6875 225.8906 94.6875 ZM227.4688 88.5781 C227.7188 88.8906 227.875 89.2656 227.8906 89.6562 C227.8906 90.1875 227.625 90.5 227.0312 90.7656 L226.4062 91.0156 C225.6406 91.3125 225.3906 91.5469 225.3906 91.9375 C225.3906 92.1094 225.4531 92.3438 225.5781 92.8125 L225.7344 93.3438 L226.1094 93.3438 L226.0938 92.5312 C226.0938 92.0938 226.2031 91.9688 226.7812 91.7344 L227.2031 91.5625 C228.0312 91.2188 228.4531 90.6875 228.4531 89.8438 C228.4531 88.1562 226.6562 87.1875 225.5 87.0312 C225.1094 87.125 224.9062 87.2969 224.9062 87.6406 C224.9062 87.9375 225.0625 88.1562 225.7188 88.2656 L227.4688 88.5781 Z" style="fill:black; stroke:none;"
      /><rect x="209" width="5" height="10" y="78" style="stroke:none;"
      /><path d="M210.8906 86.6875 C210.4844 86.6875 210.1562 87.0469 210.1562 87.4219 C210.1562 87.8125 210.4844 88.1562 210.8906 88.1562 C211.2969 88.1562 211.6406 87.8125 211.6406 87.4219 C211.6406 87.0469 211.2969 86.6875 210.8906 86.6875 ZM212.4688 80.5781 C212.7188 80.8906 212.875 81.2656 212.8906 81.6562 C212.8906 82.1875 212.625 82.5 212.0312 82.7656 L211.4062 83.0156 C210.6406 83.3125 210.3906 83.5469 210.3906 83.9375 C210.3906 84.1094 210.4531 84.3438 210.5781 84.8125 L210.7344 85.3438 L211.1094 85.3438 L211.0938 84.5312 C211.0938 84.0938 211.2031 83.9688 211.7812 83.7344 L212.2031 83.5625 C213.0312 83.2188 213.4531 82.6875 213.4531 81.8438 C213.4531 80.1562 211.6562 79.1875 210.5 79.0312 C210.1094 79.125 209.9062 79.2969 209.9062 79.6406 C209.9062 79.9375 210.0625 80.1562 210.7188 80.2656 L212.4688 80.5781 Z" style="fill:black; stroke:none;"
      /><rect x="279" width="5" height="10" y="96" style="stroke:none;"
      /><path d="M280.8906 104.6875 C280.4844 104.6875 280.1562 105.0469 280.1562 105.4219 C280.1562 105.8125 280.4844 106.1562 280.8906 106.1562 C281.2969 106.1562 281.6406 105.8125 281.6406 105.4219 C281.6406 105.0469 281.2969 104.6875 280.8906 104.6875 ZM282.4688 98.5781 C282.7188 98.8906 282.875 99.2656 282.8906 99.6562 C282.8906 100.1875 282.625 100.5 282.0312 100.7656 L281.4062 101.0156 C280.6406 101.3125 280.3906 101.5469 280.3906 101.9375 C280.3906 102.1094 280.4531 102.3438 280.5781 102.8125 L280.7344 103.3438 L281.1094 103.3438 L281.0938 102.5312 C281.0938 102.0938 281.2031 101.9688 281.7812 101.7344 L282.2031 101.5625 C283.0312 101.2188 283.4531 100.6875 283.4531 99.8438 C283.4531 98.1562 281.6562 97.1875 280.5 97.0312 C280.1094 97.125 279.9062 97.2969 279.9062 97.6406 C279.9062 97.9375 280.0625 98.1562 280.7188 98.2656 L282.4688 98.5781 Z" style="fill:black; stroke:none;"
      /><rect x="265" width="5" height="10" y="96" style="stroke:none;"
      /><path d="M266.8906 104.6875 C266.4844 104.6875 266.1562 105.0469 266.1562 105.4219 C266.1562 105.8125 266.4844 106.1562 266.8906 106.1562 C267.2969 106.1562 267.6406 105.8125 267.6406 105.4219 C267.6406 105.0469 267.2969 104.6875 266.8906 104.6875 ZM268.4688 98.5781 C268.7188 98.8906 268.875 99.2656 268.8906 99.6562 C268.8906 100.1875 268.625 100.5 268.0312 100.7656 L267.4062 101.0156 C266.6406 101.3125 266.3906 101.5469 266.3906 101.9375 C266.3906 102.1094 266.4531 102.3438 266.5781 102.8125 L266.7344 103.3438 L267.1094 103.3438 L267.0938 102.5312 C267.0938 102.0938 267.2031 101.9688 267.7812 101.7344 L268.2031 101.5625 C269.0312 101.2188 269.4531 100.6875 269.4531 99.8438 C269.4531 98.1562 267.6562 97.1875 266.5 97.0312 C266.1094 97.125 265.9062 97.2969 265.9062 97.6406 C265.9062 97.9375 266.0625 98.1562 266.7188 98.2656 L268.4688 98.5781 Z" style="fill:black; stroke:none;"
      /><polygon style="fill:none; stroke:black;" points=" 301 41 249 41"
      /><polygon style="clip-path:url(#clipPath10); stroke:none;" points=" 312 41 306 48 295 48 290 41 295 33 306 33 312 41"
      /><rect x="290" y="30" width="22" style="clip-path:url(#clipPath10); fill:rgb(255,212,0); stroke:none;" height="22"
      /><rect x="290" y="30" width="22" style="clip-path:url(#clipPath10); fill:none; stroke:black;" height="22"
      /><polygon style="fill:none; stroke:black;" points=" 312 41 306 48 295 48 290 41 295 33 306 33 312 41"
      /><polygon style="clip-path:url(#clipPath11); stroke:none;" points=" 260 41 254 48 243 48 238 41 243 33 254 33 260 41"
      /><rect x="238" y="30" width="22" style="clip-path:url(#clipPath11); fill:rgb(255,212,0); stroke:none;" height="22"
      /><rect x="238" y="30" width="22" style="clip-path:url(#clipPath11); fill:none; stroke:black;" height="22"
      /><polygon style="fill:none; stroke:black;" points=" 260 41 254 48 243 48 238 41 243 33 254 33 260 41"
      /><rect x="279" width="5" height="10" y="44" style="stroke:none;"
      /><path d="M280.8906 52.6875 C280.4844 52.6875 280.1562 53.0469 280.1562 53.4219 C280.1562 53.8125 280.4844 54.1562 280.8906 54.1562 C281.2969 54.1562 281.6406 53.8125 281.6406 53.4219 C281.6406 53.0469 281.2969 52.6875 280.8906 52.6875 ZM282.4688 46.5781 C282.7188 46.8906 282.875 47.2656 282.8906 47.6562 C282.8906 48.1875 282.625 48.5 282.0312 48.7656 L281.4062 49.0156 C280.6406 49.3125 280.3906 49.5469 280.3906 49.9375 C280.3906 50.1094 280.4531 50.3438 280.5781 50.8125 L280.7344 51.3438 L281.1094 51.3438 L281.0938 50.5312 C281.0938 50.0938 281.2031 49.9688 281.7812 49.7344 L282.2031 49.5625 C283.0312 49.2188 283.4531 48.6875 283.4531 47.8438 C283.4531 46.1562 281.6562 45.1875 280.5 45.0312 C280.1094 45.125 279.9062 45.2969 279.9062 45.6406 C279.9062 45.9375 280.0625 46.1562 280.7188 46.2656 L282.4688 46.5781 Z" style="fill:black; stroke:none;"
      /><rect x="265" width="5" height="10" y="44" style="stroke:none;"
      /><path d="M266.8906 52.6875 C266.4844 52.6875 266.1562 53.0469 266.1562 53.4219 C266.1562 53.8125 266.4844 54.1562 266.8906 54.1562 C267.2969 54.1562 267.6406 53.8125 267.6406 53.4219 C267.6406 53.0469 267.2969 52.6875 266.8906 52.6875 ZM268.4688 46.5781 C268.7188 46.8906 268.875 47.2656 268.8906 47.6562 C268.8906 48.1875 268.625 48.5 268.0312 48.7656 L267.4062 49.0156 C266.6406 49.3125 266.3906 49.5469 266.3906 49.9375 C266.3906 50.1094 266.4531 50.3438 266.5781 50.8125 L266.7344 51.3438 L267.1094 51.3438 L267.0938 50.5312 C267.0938 50.0938 267.2031 49.9688 267.7812 49.7344 L268.2031 49.5625 C269.0312 49.2188 269.4531 48.6875 269.4531 47.8438 C269.4531 46.1562 267.6562 45.1875 266.5 45.0312 C266.1094 45.125 265.9062 45.2969 265.9062 45.6406 C265.9062 45.9375 266.0625 46.1562 266.7188 46.2656 L268.4688 46.5781 Z" style="fill:black; stroke:none;"
      /><rect x="335" width="5" height="10" y="78" style="stroke:none;"
      /><path d="M336.8906 86.6875 C336.4844 86.6875 336.1562 87.0469 336.1562 87.4219 C336.1562 87.8125 336.4844 88.1562 336.8906 88.1562 C337.2969 88.1562 337.6406 87.8125 337.6406 87.4219 C337.6406 87.0469 337.2969 86.6875 336.8906 86.6875 ZM338.4688 80.5781 C338.7188 80.8906 338.875 81.2656 338.8906 81.6562 C338.8906 82.1875 338.625 82.5 338.0312 82.7656 L337.4062 83.0156 C336.6406 83.3125 336.3906 83.5469 336.3906 83.9375 C336.3906 84.1094 336.4531 84.3438 336.5781 84.8125 L336.7344 85.3438 L337.1094 85.3438 L337.0938 84.5312 C337.0938 84.0938 337.2031 83.9688 337.7812 83.7344 L338.2031 83.5625 C339.0312 83.2188 339.4531 82.6875 339.4531 81.8438 C339.4531 80.1562 337.6562 79.1875 336.5 79.0312 C336.1094 79.125 335.9062 79.2969 335.9062 79.6406 C335.9062 79.9375 336.0625 80.1562 336.7188 80.2656 L338.4688 80.5781 Z" style="fill:black; stroke:none;"
      /><rect x="320" width="5" height="10" y="86" style="stroke:none;"
      /><path d="M321.8906 94.6875 C321.4844 94.6875 321.1562 95.0469 321.1562 95.4219 C321.1562 95.8125 321.4844 96.1562 321.8906 96.1562 C322.2969 96.1562 322.6406 95.8125 322.6406 95.4219 C322.6406 95.0469 322.2969 94.6875 321.8906 94.6875 ZM323.4688 88.5781 C323.7188 88.8906 323.875 89.2656 323.8906 89.6562 C323.8906 90.1875 323.625 90.5 323.0312 90.7656 L322.4062 91.0156 C321.6406 91.3125 321.3906 91.5469 321.3906 91.9375 C321.3906 92.1094 321.4531 92.3438 321.5781 92.8125 L321.7344 93.3438 L322.1094 93.3438 L322.0938 92.5312 C322.0938 92.0938 322.2031 91.9688 322.7812 91.7344 L323.2031 91.5625 C324.0312 91.2188 324.4531 90.6875 324.4531 89.8438 C324.4531 88.1562 322.6562 87.1875 321.5 87.0312 C321.1094 87.125 320.9062 87.2969 320.9062 87.6406 C320.9062 87.9375 321.0625 88.1562 321.7188 88.2656 L323.4688 88.5781 Z" style="fill:black; stroke:none;"
      /><rect x="328" width="5" height="10" y="60" style="stroke:none;"
      /><path d="M329.8906 68.6875 C329.4844 68.6875 329.1562 69.0469 329.1562 69.4219 C329.1562 69.8125 329.4844 70.1562 329.8906 70.1562 C330.2969 70.1562 330.6406 69.8125 330.6406 69.4219 C330.6406 69.0469 330.2969 68.6875 329.8906 68.6875 ZM331.4688 62.5781 C331.7188 62.8906 331.875 63.2656 331.8906 63.6562 C331.8906 64.1875 331.625 64.5 331.0312 64.7656 L330.4062 65.0156 C329.6406 65.3125 329.3906 65.5469 329.3906 65.9375 C329.3906 66.1094 329.4531 66.3438 329.5781 66.8125 L329.7344 67.3438 L330.1094 67.3438 L330.0938 66.5312 C330.0938 66.0938 330.2031 65.9688 330.7812 65.7344 L331.2031 65.5625 C332.0312 65.2188 332.4531 64.6875 332.4531 63.8438 C332.4531 62.1562 330.6562 61.1875 329.5 61.0312 C329.1094 61.125 328.9062 61.2969 328.9062 61.6406 C328.9062 61.9375 329.0625 62.1562 329.7188 62.2656 L331.4688 62.5781 Z" style="fill:black; stroke:none;"
      /><rect x="313" width="5" height="10" y="52" style="stroke:none;"
      /><path d="M314.8906 60.6875 C314.4844 60.6875 314.1562 61.0469 314.1562 61.4219 C314.1562 61.8125 314.4844 62.1562 314.8906 62.1562 C315.2969 62.1562 315.6406 61.8125 315.6406 61.4219 C315.6406 61.0469 315.2969 60.6875 314.8906 60.6875 ZM316.4688 54.5781 C316.7188 54.8906 316.875 55.2656 316.8906 55.6562 C316.8906 56.1875 316.625 56.5 316.0312 56.7656 L315.4062 57.0156 C314.6406 57.3125 314.3906 57.5469 314.3906 57.9375 C314.3906 58.1094 314.4531 58.3438 314.5781 58.8125 L314.7344 59.3438 L315.1094 59.3438 L315.0938 58.5312 C315.0938 58.0938 315.2031 57.9688 315.7812 57.7344 L316.2031 57.5625 C317.0312 57.2188 317.4531 56.6875 317.4531 55.8438 C317.4531 54.1562 315.6562 53.1875 314.5 53.0312 C314.1094 53.125 313.9062 53.2969 313.9062 53.6406 C313.9062 53.9375 314.0625 54.1562 314.7188 54.2656 L316.4688 54.5781 Z" style="fill:black; stroke:none;"
      /><rect x="369" width="5" height="10" y="70" style="stroke:none;"
      /><path d="M370.8906 78.6875 C370.4844 78.6875 370.1562 79.0469 370.1562 79.4219 C370.1562 79.8125 370.4844 80.1562 370.8906 80.1562 C371.2969 80.1562 371.6406 79.8125 371.6406 79.4219 C371.6406 79.0469 371.2969 78.6875 370.8906 78.6875 ZM372.4688 72.5781 C372.7188 72.8906 372.875 73.2656 372.8906 73.6562 C372.8906 74.1875 372.625 74.5 372.0312 74.7656 L371.4062 75.0156 C370.6406 75.3125 370.3906 75.5469 370.3906 75.9375 C370.3906 76.1094 370.4531 76.3438 370.5781 76.8125 L370.7344 77.3438 L371.1094 77.3438 L371.0938 76.5312 C371.0938 76.0938 371.2031 75.9688 371.7812 75.7344 L372.2031 75.5625 C373.0312 75.2188 373.4531 74.6875 373.4531 73.8438 C373.4531 72.1562 371.6562 71.1875 370.5 71.0312 C370.1094 71.125 369.9062 71.2969 369.9062 71.6406 C369.9062 71.9375 370.0625 72.1562 370.7188 72.2656 L372.4688 72.5781 Z" style="fill:black; stroke:none;"
    /></g
  ></g
></svg
>
