<?xml version="1.0"?>
<!DOCTYPE svg PUBLIC '-//W3C//DTD SVG 1.0//EN'
          'http://www.w3.org/TR/2001/REC-SVG-20010904/DTD/svg10.dtd'>
<svg xmlns:xlink="http://www.w3.org/1999/xlink" style="fill-opacity:1; color-rendering:auto; color-interpolation:auto; text-rendering:auto; stroke:black; stroke-linecap:square; stroke-miterlimit:10; shape-rendering:auto; stroke-opacity:1; fill:black; stroke-dasharray:none; font-weight:normal; stroke-width:1; font-family:'Dialog'; font-style:normal; stroke-linejoin:miter; font-size:12px; stroke-dashoffset:0; image-rendering:auto;" viewBox="0 0 550 238" xmlns="http://www.w3.org/2000/svg"
><!--Generated by the Batik Graphics2D SVG Generator--><defs id="genericDefs"
  /><g
  ><defs id="defs1"
    ><clipPath clipPathUnits="userSpaceOnUse" id="clipPath1"
      ><path d="M446 108 L468 108 L468 130 L446 130 L446 108 Z"
      /></clipPath
      ><clipPath clipPathUnits="userSpaceOnUse" id="clipPath2"
      ><path d="M394 108 L416 108 L416 130 L394 130 L394 108 Z"
      /></clipPath
      ><clipPath clipPathUnits="userSpaceOnUse" id="clipPath3"
      ><path d="M364 119 C364 125.0751 359.0751 130 353 130 C346.9249 130 342 125.0751 342 119 C342 112.9249 346.9249 108 353 108 C359.0751 108 364 112.9249 364 119 Z"
      /></clipPath
      ><clipPath clipPathUnits="userSpaceOnUse" id="clipPath4"
      ><path d="M312 171 C312 177.0751 307.0751 182 301 182 C294.9249 182 290 177.0751 290 171 C290 164.9249 294.9249 160 301 160 C307.0751 160 312 164.9249 312 171 Z"
      /></clipPath
      ><clipPath clipPathUnits="userSpaceOnUse" id="clipPath5"
      ><path d="M238 186 L260 186 L260 208 L238 208 L238 186 Z"
      /></clipPath
      ><clipPath clipPathUnits="userSpaceOnUse" id="clipPath6"
      ><path d="M208 197 C208 203.0751 203.0751 208 197 208 C190.9249 208 186 203.0751 186 197 C186 190.9249 190.9249 186 197 186 C203.0751 186 208 190.9249 208 197 Z"
      /></clipPath
      ><clipPath clipPathUnits="userSpaceOnUse" id="clipPath7"
      ><path d="M134 186 L156 186 L156 208 L134 208 L134 186 Z"
      /></clipPath
      ><clipPath clipPathUnits="userSpaceOnUse" id="clipPath8"
      ><path d="M104 197 C104 203.0751 99.0751 208 93 208 C86.9249 208 82 203.0751 82 197 C82 190.9249 86.9249 186 93 186 C99.0751 186 104 190.9249 104 197 Z"
      /></clipPath
      ><clipPath clipPathUnits="userSpaceOnUse" id="clipPath9"
      ><path style="fill-rule:evenodd;" d="M41 186 L52 197 L41 208 L30 197 Z"
      /></clipPath
      ><clipPath clipPathUnits="userSpaceOnUse" id="clipPath10"
      ><path d="M238 134 L260 134 L260 156 L238 156 L238 134 Z"
      /></clipPath
      ><clipPath clipPathUnits="userSpaceOnUse" id="clipPath11"
      ><path d="M208 145 C208 151.0751 203.0751 156 197 156 C190.9249 156 186 151.0751 186 145 C186 138.9249 190.9249 134 197 134 C203.0751 134 208 138.9249 208 145 Z"
      /></clipPath
      ><clipPath clipPathUnits="userSpaceOnUse" id="clipPath12"
      ><path d="M134 134 L156 134 L156 156 L134 156 L134 134 Z"
      /></clipPath
      ><clipPath clipPathUnits="userSpaceOnUse" id="clipPath13"
      ><path d="M104 145 C104 151.0751 99.0751 156 93 156 C86.9249 156 82 151.0751 82 145 C82 138.9249 86.9249 134 93 134 C99.0751 134 104 138.9249 104 145 Z"
      /></clipPath
      ><clipPath clipPathUnits="userSpaceOnUse" id="clipPath14"
      ><path style="fill-rule:evenodd;" d="M41 134 L52 145 L41 156 L30 145 Z"
      /></clipPath
      ><clipPath clipPathUnits="userSpaceOnUse" id="clipPath15"
      ><path d="M312 67 C312 73.0751 307.0751 78 301 78 C294.9249 78 290 73.0751 290 67 C290 60.9249 294.9249 56 301 56 C307.0751 56 312 60.9249 312 67 Z"
      /></clipPath
      ><clipPath clipPathUnits="userSpaceOnUse" id="clipPath16"
      ><path d="M238 82 L260 82 L260 104 L238 104 L238 82 Z"
      /></clipPath
      ><clipPath clipPathUnits="userSpaceOnUse" id="clipPath17"
      ><path d="M208 93 C208 99.0751 203.0751 104 197 104 C190.9249 104 186 99.0751 186 93 C186 86.9249 190.9249 82 197 82 C203.0751 82 208 86.9249 208 93 Z"
      /></clipPath
      ><clipPath clipPathUnits="userSpaceOnUse" id="clipPath18"
      ><path style="fill-rule:evenodd;" d="M145 82 L156 93 L145 104 L134 93 Z"
      /></clipPath
      ><clipPath clipPathUnits="userSpaceOnUse" id="clipPath19"
      ><path d="M238 30 L260 30 L260 52 L238 52 L238 30 Z"
      /></clipPath
      ><clipPath clipPathUnits="userSpaceOnUse" id="clipPath20"
      ><path d="M208 41 C208 47.0751 203.0751 52 197 52 C190.9249 52 186 47.0751 186 41 C186 34.9249 190.9249 30 197 30 C203.0751 30 208 34.9249 208 41 Z"
      /></clipPath
      ><clipPath clipPathUnits="userSpaceOnUse" id="clipPath21"
      ><path style="fill-rule:evenodd;" d="M457 78 L446 56 L468 56 Z"
      /></clipPath
    ></defs
    ><g style="fill:white; text-rendering:optimizeSpeed; stroke:white;"
    ><rect x="0" width="550" height="238" y="0" style="stroke:none;"
      /><polygon style="fill:none; stroke:black;" points=" 509 119 457 119"
      /><path d="M509 108 C503.5 113.5 514.5 124.5 509 130" style="fill:none; stroke:black;"
      /><polygon style="fill:none; stroke:black;" points=" 457 119 405 119"
      /><polygon style="fill:none; stroke:black;" points=" 457 119 457 67"
      /><rect x="446" y="108" width="22" style="clip-path:url(#clipPath1); stroke:none;" height="22"
      /><rect x="446" y="108" width="22" style="clip-path:url(#clipPath1); fill:rgb(0,144,188); stroke:none;" height="22"
      /><rect x="446" y="108" width="22" style="clip-path:url(#clipPath1); fill:none; stroke:black;" height="22"
      /><rect x="446" y="108" width="22" style="fill:none; stroke:black;" height="22"
      /><polygon style="fill:none; stroke:black;" points=" 405 119 353 119"
      /><rect x="394" y="108" width="22" style="clip-path:url(#clipPath2); stroke:none;" height="22"
      /><rect x="394" y="108" width="22" style="clip-path:url(#clipPath2); fill:rgb(0,144,188); stroke:none;" height="22"
      /><rect x="394" y="108" width="22" style="clip-path:url(#clipPath2); fill:none; stroke:black;" height="22"
      /><rect x="394" y="108" width="22" style="fill:none; stroke:black;" height="22"
      /><polygon style="fill:none; stroke:black;" points=" 353 119 301 171"
      /><polygon style="fill:none; stroke:black;" points=" 353 119 301 67"
      /><circle style="clip-path:url(#clipPath3); stroke:none;" r="11" cx="353" cy="119"
      /><rect x="342" y="108" width="22" style="clip-path:url(#clipPath3); fill:rgb(0,166,81); stroke:none;" height="22"
      /><rect x="342" y="108" width="22" style="clip-path:url(#clipPath3); fill:none; stroke:black;" height="22"
      /><circle style="fill:none; stroke:black;" r="11" cx="353" cy="119"
      /><polygon style="fill:none; stroke:black;" points=" 301 171 249 197"
      /><polygon style="fill:none; stroke:black;" points=" 301 171 249 145"
      /><circle style="clip-path:url(#clipPath4); stroke:none;" r="11" cx="301" cy="171"
      /><rect x="290" y="160" width="22" style="clip-path:url(#clipPath4); fill:rgb(0,166,81); stroke:none;" height="22"
      /><rect x="290" y="160" width="22" style="clip-path:url(#clipPath4); fill:none; stroke:black;" height="22"
      /><circle style="fill:none; stroke:black;" r="11" cx="301" cy="171"
      /><polygon style="fill:none; stroke:black;" points=" 249 197 197 197"
      /><rect x="238" y="186" width="22" style="clip-path:url(#clipPath5); stroke:none;" height="22"
      /><rect x="238" y="186" width="22" style="clip-path:url(#clipPath5); fill:rgb(0,144,188); stroke:none;" height="22"
      /><rect x="238" y="186" width="22" style="clip-path:url(#clipPath5); fill:none; stroke:black;" height="22"
      /><rect x="238" y="186" width="22" style="fill:none; stroke:black;" height="22"
      /><polygon style="fill:none; stroke:black;" points=" 197 197 145 197"
      /><circle style="clip-path:url(#clipPath6); stroke:none;" r="11" cx="197" cy="197"
      /><rect x="186" y="186" width="22" style="clip-path:url(#clipPath6); fill:rgb(255,212,0); stroke:none;" height="22"
      /><rect x="186" y="186" width="22" style="clip-path:url(#clipPath6); fill:none; stroke:black;" height="22"
      /><circle style="fill:none; stroke:black;" r="11" cx="197" cy="197"
      /><polygon style="fill:none; stroke:black;" points=" 145 197 93 197"
      /><rect x="134" y="186" width="22" style="clip-path:url(#clipPath7); stroke:none;" height="22"
      /><rect x="134" y="186" width="22" style="clip-path:url(#clipPath7); fill:rgb(0,144,188); stroke:none;" height="22"
      /><rect x="134" y="186" width="22" style="clip-path:url(#clipPath7); fill:none; stroke:black;" height="22"
      /><rect x="134" y="186" width="22" style="fill:none; stroke:black;" height="22"
      /><polygon style="fill:none; stroke:black;" points=" 93 197 41 197"
      /><circle style="clip-path:url(#clipPath8); stroke:none;" r="11" cx="93" cy="197"
      /><rect x="82" y="186" width="22" style="clip-path:url(#clipPath8); fill:rgb(255,212,0); stroke:none;" height="22"
      /><rect x="82" y="186" width="22" style="clip-path:url(#clipPath8); fill:none; stroke:black;" height="22"
      /><circle style="fill:none; stroke:black;" r="11" cx="93" cy="197"
      /><polygon style="clip-path:url(#clipPath9); stroke:none;" points=" 41 186 52 197 41 208 30 197"
      /><rect x="30" y="186" width="22" style="clip-path:url(#clipPath9); fill:rgb(165,67,153); stroke:none;" height="22"
      /><rect x="30" y="186" width="22" style="clip-path:url(#clipPath9); fill:none; stroke:black;" height="22"
      /><polygon style="fill:none; stroke:black;" points=" 41 186 52 197 41 208 30 197"
      /><rect x="71" y="200" width="5" style="stroke:none;" height="10"
    /></g
    ><g style="font-family:'Serif'; text-rendering:optimizeSpeed; "
    ><path style="stroke:none;" d="M72.8906 208.6875 C72.4844 208.6875 72.1562 209.0469 72.1562 209.4219 C72.1562 209.8125 72.4844 210.1562 72.8906 210.1562 C73.2969 210.1562 73.6406 209.8125 73.6406 209.4219 C73.6406 209.0469 73.2969 208.6875 72.8906 208.6875 ZM74.4688 202.5781 C74.7188 202.8906 74.875 203.2656 74.8906 203.6562 C74.8906 204.1875 74.625 204.5 74.0312 204.7656 L73.4062 205.0156 C72.6406 205.3125 72.3906 205.5469 72.3906 205.9375 C72.3906 206.1094 72.4531 206.3438 72.5781 206.8125 L72.7344 207.3438 L73.1094 207.3438 L73.0938 206.5312 C73.0938 206.0938 73.2031 205.9688 73.7812 205.7344 L74.2031 205.5625 C75.0312 205.2188 75.4531 204.6875 75.4531 203.8438 C75.4531 202.1562 73.6562 201.1875 72.5 201.0312 C72.1094 201.125 71.9062 201.2969 71.9062 201.6406 C71.9062 201.9375 72.0625 202.1562 72.7188 202.2656 L74.4688 202.5781 Z"
      /><rect x="57" y="200" width="5" style="fill:white; stroke:none;" height="10"
      /><path style="stroke:none;" d="M58.8906 208.6875 C58.4844 208.6875 58.1562 209.0469 58.1562 209.4219 C58.1562 209.8125 58.4844 210.1562 58.8906 210.1562 C59.2969 210.1562 59.6406 209.8125 59.6406 209.4219 C59.6406 209.0469 59.2969 208.6875 58.8906 208.6875 ZM60.4688 202.5781 C60.7188 202.8906 60.875 203.2656 60.8906 203.6562 C60.8906 204.1875 60.625 204.5 60.0312 204.7656 L59.4062 205.0156 C58.6406 205.3125 58.3906 205.5469 58.3906 205.9375 C58.3906 206.1094 58.4531 206.3438 58.5781 206.8125 L58.7344 207.3438 L59.1094 207.3438 L59.0938 206.5312 C59.0938 206.0938 59.2031 205.9688 59.7812 205.7344 L60.2031 205.5625 C61.0312 205.2188 61.4531 204.6875 61.4531 203.8438 C61.4531 202.1562 59.6562 201.1875 58.5 201.0312 C58.1094 201.125 57.9062 201.2969 57.9062 201.6406 C57.9062 201.9375 58.0625 202.1562 58.7188 202.2656 L60.4688 202.5781 Z"
      /><rect x="123" y="200" width="5" style="fill:white; stroke:none;" height="10"
      /><path style="stroke:none;" d="M124.8906 208.6875 C124.4844 208.6875 124.1562 209.0469 124.1562 209.4219 C124.1562 209.8125 124.4844 210.1562 124.8906 210.1562 C125.2969 210.1562 125.6406 209.8125 125.6406 209.4219 C125.6406 209.0469 125.2969 208.6875 124.8906 208.6875 ZM126.4688 202.5781 C126.7188 202.8906 126.875 203.2656 126.8906 203.6562 C126.8906 204.1875 126.625 204.5 126.0312 204.7656 L125.4062 205.0156 C124.6406 205.3125 124.3906 205.5469 124.3906 205.9375 C124.3906 206.1094 124.4531 206.3438 124.5781 206.8125 L124.7344 207.3438 L125.1094 207.3438 L125.0938 206.5312 C125.0938 206.0938 125.2031 205.9688 125.7812 205.7344 L126.2031 205.5625 C127.0312 205.2188 127.4531 204.6875 127.4531 203.8438 C127.4531 202.1562 125.6562 201.1875 124.5 201.0312 C124.1094 201.125 123.9062 201.2969 123.9062 201.6406 C123.9062 201.9375 124.0625 202.1562 124.7188 202.2656 L126.4688 202.5781 Z"
      /><rect x="109" y="200" width="5" style="fill:white; stroke:none;" height="10"
      /><path style="stroke:none;" d="M110.8906 208.6875 C110.4844 208.6875 110.1562 209.0469 110.1562 209.4219 C110.1562 209.8125 110.4844 210.1562 110.8906 210.1562 C111.2969 210.1562 111.6406 209.8125 111.6406 209.4219 C111.6406 209.0469 111.2969 208.6875 110.8906 208.6875 ZM112.4688 202.5781 C112.7188 202.8906 112.875 203.2656 112.8906 203.6562 C112.8906 204.1875 112.625 204.5 112.0312 204.7656 L111.4062 205.0156 C110.6406 205.3125 110.3906 205.5469 110.3906 205.9375 C110.3906 206.1094 110.4531 206.3438 110.5781 206.8125 L110.7344 207.3438 L111.1094 207.3438 L111.0938 206.5312 C111.0938 206.0938 111.2031 205.9688 111.7812 205.7344 L112.2031 205.5625 C113.0312 205.2188 113.4531 204.6875 113.4531 203.8438 C113.4531 202.1562 111.6562 201.1875 110.5 201.0312 C110.1094 201.125 109.9062 201.2969 109.9062 201.6406 C109.9062 201.9375 110.0625 202.1562 110.7188 202.2656 L112.4688 202.5781 Z"
      /><rect x="175" y="200" width="5" style="fill:white; stroke:none;" height="10"
      /><path style="stroke:none;" d="M176.8906 208.6875 C176.4844 208.6875 176.1562 209.0469 176.1562 209.4219 C176.1562 209.8125 176.4844 210.1562 176.8906 210.1562 C177.2969 210.1562 177.6406 209.8125 177.6406 209.4219 C177.6406 209.0469 177.2969 208.6875 176.8906 208.6875 ZM178.4688 202.5781 C178.7188 202.8906 178.875 203.2656 178.8906 203.6562 C178.8906 204.1875 178.625 204.5 178.0312 204.7656 L177.4062 205.0156 C176.6406 205.3125 176.3906 205.5469 176.3906 205.9375 C176.3906 206.1094 176.4531 206.3438 176.5781 206.8125 L176.7344 207.3438 L177.1094 207.3438 L177.0938 206.5312 C177.0938 206.0938 177.2031 205.9688 177.7812 205.7344 L178.2031 205.5625 C179.0312 205.2188 179.4531 204.6875 179.4531 203.8438 C179.4531 202.1562 177.6562 201.1875 176.5 201.0312 C176.1094 201.125 175.9062 201.2969 175.9062 201.6406 C175.9062 201.9375 176.0625 202.1562 176.7188 202.2656 L178.4688 202.5781 Z"
      /><rect x="161" y="200" width="5" style="fill:white; stroke:none;" height="10"
      /><path style="stroke:none;" d="M162.8906 208.6875 C162.4844 208.6875 162.1562 209.0469 162.1562 209.4219 C162.1562 209.8125 162.4844 210.1562 162.8906 210.1562 C163.2969 210.1562 163.6406 209.8125 163.6406 209.4219 C163.6406 209.0469 163.2969 208.6875 162.8906 208.6875 ZM164.4688 202.5781 C164.7188 202.8906 164.875 203.2656 164.8906 203.6562 C164.8906 204.1875 164.625 204.5 164.0312 204.7656 L163.4062 205.0156 C162.6406 205.3125 162.3906 205.5469 162.3906 205.9375 C162.3906 206.1094 162.4531 206.3438 162.5781 206.8125 L162.7344 207.3438 L163.1094 207.3438 L163.0938 206.5312 C163.0938 206.0938 163.2031 205.9688 163.7812 205.7344 L164.2031 205.5625 C165.0312 205.2188 165.4531 204.6875 165.4531 203.8438 C165.4531 202.1562 163.6562 201.1875 162.5 201.0312 C162.1094 201.125 161.9062 201.2969 161.9062 201.6406 C161.9062 201.9375 162.0625 202.1562 162.7188 202.2656 L164.4688 202.5781 Z"
      /><rect x="227" y="200" width="5" style="fill:white; stroke:none;" height="10"
      /><path style="stroke:none;" d="M228.8906 208.6875 C228.4844 208.6875 228.1562 209.0469 228.1562 209.4219 C228.1562 209.8125 228.4844 210.1562 228.8906 210.1562 C229.2969 210.1562 229.6406 209.8125 229.6406 209.4219 C229.6406 209.0469 229.2969 208.6875 228.8906 208.6875 ZM230.4688 202.5781 C230.7188 202.8906 230.875 203.2656 230.8906 203.6562 C230.8906 204.1875 230.625 204.5 230.0312 204.7656 L229.4062 205.0156 C228.6406 205.3125 228.3906 205.5469 228.3906 205.9375 C228.3906 206.1094 228.4531 206.3438 228.5781 206.8125 L228.7344 207.3438 L229.1094 207.3438 L229.0938 206.5312 C229.0938 206.0938 229.2031 205.9688 229.7812 205.7344 L230.2031 205.5625 C231.0312 205.2188 231.4531 204.6875 231.4531 203.8438 C231.4531 202.1562 229.6562 201.1875 228.5 201.0312 C228.1094 201.125 227.9062 201.2969 227.9062 201.6406 C227.9062 201.9375 228.0625 202.1562 228.7188 202.2656 L230.4688 202.5781 Z"
      /><rect x="213" y="200" width="5" style="fill:white; stroke:none;" height="10"
      /><path style="stroke:none;" d="M214.8906 208.6875 C214.4844 208.6875 214.1562 209.0469 214.1562 209.4219 C214.1562 209.8125 214.4844 210.1562 214.8906 210.1562 C215.2969 210.1562 215.6406 209.8125 215.6406 209.4219 C215.6406 209.0469 215.2969 208.6875 214.8906 208.6875 ZM216.4688 202.5781 C216.7188 202.8906 216.875 203.2656 216.8906 203.6562 C216.8906 204.1875 216.625 204.5 216.0312 204.7656 L215.4062 205.0156 C214.6406 205.3125 214.3906 205.5469 214.3906 205.9375 C214.3906 206.1094 214.4531 206.3438 214.5781 206.8125 L214.7344 207.3438 L215.1094 207.3438 L215.0938 206.5312 C215.0938 206.0938 215.2031 205.9688 215.7812 205.7344 L216.2031 205.5625 C217.0312 205.2188 217.4531 204.6875 217.4531 203.8438 C217.4531 202.1562 215.6562 201.1875 214.5 201.0312 C214.1094 201.125 213.9062 201.2969 213.9062 201.6406 C213.9062 201.9375 214.0625 202.1562 214.7188 202.2656 L216.4688 202.5781 Z"
      /><polygon style="fill:none;" points=" 249 145 197 145"
      /><rect x="238" y="134" width="22" style="clip-path:url(#clipPath10); fill:white; stroke:none;" height="22"
      /><rect x="238" y="134" width="22" style="clip-path:url(#clipPath10); fill:rgb(0,144,188); stroke:none;" height="22"
      /><rect x="238" y="134" width="22" style="fill:none; clip-path:url(#clipPath10);" height="22"
      /><rect x="238" width="22" height="22" y="134" style="fill:none;"
      /><polygon style="fill:none;" points=" 197 145 145 145"
      /><circle style="fill:white; clip-path:url(#clipPath11); stroke:none;" r="11" cx="197" cy="145"
      /><rect x="186" y="134" width="22" style="clip-path:url(#clipPath11); fill:rgb(255,212,0); stroke:none;" height="22"
      /><rect x="186" y="134" width="22" style="fill:none; clip-path:url(#clipPath11);" height="22"
      /><circle r="11" style="fill:none;" cx="197" cy="145"
      /><polygon style="fill:none;" points=" 145 145 93 145"
      /><rect x="134" y="134" width="22" style="clip-path:url(#clipPath12); fill:white; stroke:none;" height="22"
      /><rect x="134" y="134" width="22" style="clip-path:url(#clipPath12); fill:rgb(0,144,188); stroke:none;" height="22"
      /><rect x="134" y="134" width="22" style="fill:none; clip-path:url(#clipPath12);" height="22"
      /><rect x="134" width="22" height="22" y="134" style="fill:none;"
      /><polygon style="fill:none;" points=" 93 145 41 145"
      /><circle style="fill:white; clip-path:url(#clipPath13); stroke:none;" r="11" cx="93" cy="145"
      /><rect x="82" y="134" width="22" style="clip-path:url(#clipPath13); fill:rgb(255,212,0); stroke:none;" height="22"
      /><rect x="82" y="134" width="22" style="fill:none; clip-path:url(#clipPath13);" height="22"
      /><circle r="11" style="fill:none;" cx="93" cy="145"
      /><polygon style="fill:white; clip-path:url(#clipPath14); stroke:none;" points=" 41 134 52 145 41 156 30 145"
      /><rect x="30" y="134" width="22" style="clip-path:url(#clipPath14); fill:rgb(165,67,153); stroke:none;" height="22"
      /><rect x="30" y="134" width="22" style="fill:none; clip-path:url(#clipPath14);" height="22"
      /><polygon style="fill:none;" points=" 41 134 52 145 41 156 30 145"
      /><rect x="71" y="148" width="5" style="fill:white; stroke:none;" height="10"
      /><path style="stroke:none;" d="M72.8906 156.6875 C72.4844 156.6875 72.1562 157.0469 72.1562 157.4219 C72.1562 157.8125 72.4844 158.1562 72.8906 158.1562 C73.2969 158.1562 73.6406 157.8125 73.6406 157.4219 C73.6406 157.0469 73.2969 156.6875 72.8906 156.6875 ZM74.4688 150.5781 C74.7188 150.8906 74.875 151.2656 74.8906 151.6562 C74.8906 152.1875 74.625 152.5 74.0312 152.7656 L73.4062 153.0156 C72.6406 153.3125 72.3906 153.5469 72.3906 153.9375 C72.3906 154.1094 72.4531 154.3438 72.5781 154.8125 L72.7344 155.3438 L73.1094 155.3438 L73.0938 154.5312 C73.0938 154.0938 73.2031 153.9688 73.7812 153.7344 L74.2031 153.5625 C75.0312 153.2188 75.4531 152.6875 75.4531 151.8438 C75.4531 150.1562 73.6562 149.1875 72.5 149.0312 C72.1094 149.125 71.9062 149.2969 71.9062 149.6406 C71.9062 149.9375 72.0625 150.1562 72.7188 150.2656 L74.4688 150.5781 Z"
      /><rect x="57" y="148" width="5" style="fill:white; stroke:none;" height="10"
      /><path style="stroke:none;" d="M58.8906 156.6875 C58.4844 156.6875 58.1562 157.0469 58.1562 157.4219 C58.1562 157.8125 58.4844 158.1562 58.8906 158.1562 C59.2969 158.1562 59.6406 157.8125 59.6406 157.4219 C59.6406 157.0469 59.2969 156.6875 58.8906 156.6875 ZM60.4688 150.5781 C60.7188 150.8906 60.875 151.2656 60.8906 151.6562 C60.8906 152.1875 60.625 152.5 60.0312 152.7656 L59.4062 153.0156 C58.6406 153.3125 58.3906 153.5469 58.3906 153.9375 C58.3906 154.1094 58.4531 154.3438 58.5781 154.8125 L58.7344 155.3438 L59.1094 155.3438 L59.0938 154.5312 C59.0938 154.0938 59.2031 153.9688 59.7812 153.7344 L60.2031 153.5625 C61.0312 153.2188 61.4531 152.6875 61.4531 151.8438 C61.4531 150.1562 59.6562 149.1875 58.5 149.0312 C58.1094 149.125 57.9062 149.2969 57.9062 149.6406 C57.9062 149.9375 58.0625 150.1562 58.7188 150.2656 L60.4688 150.5781 Z"
      /><rect x="123" y="148" width="5" style="fill:white; stroke:none;" height="10"
      /><path style="stroke:none;" d="M124.8906 156.6875 C124.4844 156.6875 124.1562 157.0469 124.1562 157.4219 C124.1562 157.8125 124.4844 158.1562 124.8906 158.1562 C125.2969 158.1562 125.6406 157.8125 125.6406 157.4219 C125.6406 157.0469 125.2969 156.6875 124.8906 156.6875 ZM126.4688 150.5781 C126.7188 150.8906 126.875 151.2656 126.8906 151.6562 C126.8906 152.1875 126.625 152.5 126.0312 152.7656 L125.4062 153.0156 C124.6406 153.3125 124.3906 153.5469 124.3906 153.9375 C124.3906 154.1094 124.4531 154.3438 124.5781 154.8125 L124.7344 155.3438 L125.1094 155.3438 L125.0938 154.5312 C125.0938 154.0938 125.2031 153.9688 125.7812 153.7344 L126.2031 153.5625 C127.0312 153.2188 127.4531 152.6875 127.4531 151.8438 C127.4531 150.1562 125.6562 149.1875 124.5 149.0312 C124.1094 149.125 123.9062 149.2969 123.9062 149.6406 C123.9062 149.9375 124.0625 150.1562 124.7188 150.2656 L126.4688 150.5781 Z"
      /><rect x="109" y="148" width="5" style="fill:white; stroke:none;" height="10"
      /><path style="stroke:none;" d="M110.8906 156.6875 C110.4844 156.6875 110.1562 157.0469 110.1562 157.4219 C110.1562 157.8125 110.4844 158.1562 110.8906 158.1562 C111.2969 158.1562 111.6406 157.8125 111.6406 157.4219 C111.6406 157.0469 111.2969 156.6875 110.8906 156.6875 ZM112.4688 150.5781 C112.7188 150.8906 112.875 151.2656 112.8906 151.6562 C112.8906 152.1875 112.625 152.5 112.0312 152.7656 L111.4062 153.0156 C110.6406 153.3125 110.3906 153.5469 110.3906 153.9375 C110.3906 154.1094 110.4531 154.3438 110.5781 154.8125 L110.7344 155.3438 L111.1094 155.3438 L111.0938 154.5312 C111.0938 154.0938 111.2031 153.9688 111.7812 153.7344 L112.2031 153.5625 C113.0312 153.2188 113.4531 152.6875 113.4531 151.8438 C113.4531 150.1562 111.6562 149.1875 110.5 149.0312 C110.1094 149.125 109.9062 149.2969 109.9062 149.6406 C109.9062 149.9375 110.0625 150.1562 110.7188 150.2656 L112.4688 150.5781 Z"
      /><rect x="175" y="148" width="5" style="fill:white; stroke:none;" height="10"
      /><path style="stroke:none;" d="M176.8906 156.6875 C176.4844 156.6875 176.1562 157.0469 176.1562 157.4219 C176.1562 157.8125 176.4844 158.1562 176.8906 158.1562 C177.2969 158.1562 177.6406 157.8125 177.6406 157.4219 C177.6406 157.0469 177.2969 156.6875 176.8906 156.6875 ZM178.4688 150.5781 C178.7188 150.8906 178.875 151.2656 178.8906 151.6562 C178.8906 152.1875 178.625 152.5 178.0312 152.7656 L177.4062 153.0156 C176.6406 153.3125 176.3906 153.5469 176.3906 153.9375 C176.3906 154.1094 176.4531 154.3438 176.5781 154.8125 L176.7344 155.3438 L177.1094 155.3438 L177.0938 154.5312 C177.0938 154.0938 177.2031 153.9688 177.7812 153.7344 L178.2031 153.5625 C179.0312 153.2188 179.4531 152.6875 179.4531 151.8438 C179.4531 150.1562 177.6562 149.1875 176.5 149.0312 C176.1094 149.125 175.9062 149.2969 175.9062 149.6406 C175.9062 149.9375 176.0625 150.1562 176.7188 150.2656 L178.4688 150.5781 Z"
      /><rect x="161" y="148" width="5" style="fill:white; stroke:none;" height="10"
      /><path style="stroke:none;" d="M162.8906 156.6875 C162.4844 156.6875 162.1562 157.0469 162.1562 157.4219 C162.1562 157.8125 162.4844 158.1562 162.8906 158.1562 C163.2969 158.1562 163.6406 157.8125 163.6406 157.4219 C163.6406 157.0469 163.2969 156.6875 162.8906 156.6875 ZM164.4688 150.5781 C164.7188 150.8906 164.875 151.2656 164.8906 151.6562 C164.8906 152.1875 164.625 152.5 164.0312 152.7656 L163.4062 153.0156 C162.6406 153.3125 162.3906 153.5469 162.3906 153.9375 C162.3906 154.1094 162.4531 154.3438 162.5781 154.8125 L162.7344 155.3438 L163.1094 155.3438 L163.0938 154.5312 C163.0938 154.0938 163.2031 153.9688 163.7812 153.7344 L164.2031 153.5625 C165.0312 153.2188 165.4531 152.6875 165.4531 151.8438 C165.4531 150.1562 163.6562 149.1875 162.5 149.0312 C162.1094 149.125 161.9062 149.2969 161.9062 149.6406 C161.9062 149.9375 162.0625 150.1562 162.7188 150.2656 L164.4688 150.5781 Z"
      /><rect x="227" y="148" width="5" style="fill:white; stroke:none;" height="10"
      /><path style="stroke:none;" d="M228.8906 156.6875 C228.4844 156.6875 228.1562 157.0469 228.1562 157.4219 C228.1562 157.8125 228.4844 158.1562 228.8906 158.1562 C229.2969 158.1562 229.6406 157.8125 229.6406 157.4219 C229.6406 157.0469 229.2969 156.6875 228.8906 156.6875 ZM230.4688 150.5781 C230.7188 150.8906 230.875 151.2656 230.8906 151.6562 C230.8906 152.1875 230.625 152.5 230.0312 152.7656 L229.4062 153.0156 C228.6406 153.3125 228.3906 153.5469 228.3906 153.9375 C228.3906 154.1094 228.4531 154.3438 228.5781 154.8125 L228.7344 155.3438 L229.1094 155.3438 L229.0938 154.5312 C229.0938 154.0938 229.2031 153.9688 229.7812 153.7344 L230.2031 153.5625 C231.0312 153.2188 231.4531 152.6875 231.4531 151.8438 C231.4531 150.1562 229.6562 149.1875 228.5 149.0312 C228.1094 149.125 227.9062 149.2969 227.9062 149.6406 C227.9062 149.9375 228.0625 150.1562 228.7188 150.2656 L230.4688 150.5781 Z"
      /><rect x="213" y="148" width="5" style="fill:white; stroke:none;" height="10"
      /><path style="stroke:none;" d="M214.8906 156.6875 C214.4844 156.6875 214.1562 157.0469 214.1562 157.4219 C214.1562 157.8125 214.4844 158.1562 214.8906 158.1562 C215.2969 158.1562 215.6406 157.8125 215.6406 157.4219 C215.6406 157.0469 215.2969 156.6875 214.8906 156.6875 ZM216.4688 150.5781 C216.7188 150.8906 216.875 151.2656 216.8906 151.6562 C216.8906 152.1875 216.625 152.5 216.0312 152.7656 L215.4062 153.0156 C214.6406 153.3125 214.3906 153.5469 214.3906 153.9375 C214.3906 154.1094 214.4531 154.3438 214.5781 154.8125 L214.7344 155.3438 L215.1094 155.3438 L215.0938 154.5312 C215.0938 154.0938 215.2031 153.9688 215.7812 153.7344 L216.2031 153.5625 C217.0312 153.2188 217.4531 152.6875 217.4531 151.8438 C217.4531 150.1562 215.6562 149.1875 214.5 149.0312 C214.1094 149.125 213.9062 149.2969 213.9062 149.6406 C213.9062 149.9375 214.0625 150.1562 214.7188 150.2656 L216.4688 150.5781 Z"
      /><rect x="283" y="182" width="5" style="fill:white; stroke:none;" height="10"
      /><path style="stroke:none;" d="M284.8906 190.6875 C284.4844 190.6875 284.1562 191.0469 284.1562 191.4219 C284.1562 191.8125 284.4844 192.1562 284.8906 192.1562 C285.2969 192.1562 285.6406 191.8125 285.6406 191.4219 C285.6406 191.0469 285.2969 190.6875 284.8906 190.6875 ZM286.4688 184.5781 C286.7188 184.8906 286.875 185.2656 286.8906 185.6562 C286.8906 186.1875 286.625 186.5 286.0312 186.7656 L285.4062 187.0156 C284.6406 187.3125 284.3906 187.5469 284.3906 187.9375 C284.3906 188.1094 284.4531 188.3438 284.5781 188.8125 L284.7344 189.3438 L285.1094 189.3438 L285.0938 188.5312 C285.0938 188.0938 285.2031 187.9688 285.7812 187.7344 L286.2031 187.5625 C287.0312 187.2188 287.4531 186.6875 287.4531 185.8438 C287.4531 184.1562 285.6562 183.1875 284.5 183.0312 C284.1094 183.125 283.9062 183.2969 283.9062 183.6406 C283.9062 183.9375 284.0625 184.1562 284.7188 184.2656 L286.4688 184.5781 Z"
      /><rect x="268" y="190" width="5" style="fill:white; stroke:none;" height="10"
      /><path style="stroke:none;" d="M269.8906 198.6875 C269.4844 198.6875 269.1562 199.0469 269.1562 199.4219 C269.1562 199.8125 269.4844 200.1562 269.8906 200.1562 C270.2969 200.1562 270.6406 199.8125 270.6406 199.4219 C270.6406 199.0469 270.2969 198.6875 269.8906 198.6875 ZM271.4688 192.5781 C271.7188 192.8906 271.875 193.2656 271.8906 193.6562 C271.8906 194.1875 271.625 194.5 271.0312 194.7656 L270.4062 195.0156 C269.6406 195.3125 269.3906 195.5469 269.3906 195.9375 C269.3906 196.1094 269.4531 196.3438 269.5781 196.8125 L269.7344 197.3438 L270.1094 197.3438 L270.0938 196.5312 C270.0938 196.0938 270.2031 195.9688 270.7812 195.7344 L271.2031 195.5625 C272.0312 195.2188 272.4531 194.6875 272.4531 193.8438 C272.4531 192.1562 270.6562 191.1875 269.5 191.0312 C269.1094 191.125 268.9062 191.2969 268.9062 191.6406 C268.9062 191.9375 269.0625 192.1562 269.7188 192.2656 L271.4688 192.5781 Z"
      /><rect x="276" y="164" width="5" style="fill:white; stroke:none;" height="10"
      /><path style="stroke:none;" d="M277.8906 172.6875 C277.4844 172.6875 277.1562 173.0469 277.1562 173.4219 C277.1562 173.8125 277.4844 174.1562 277.8906 174.1562 C278.2969 174.1562 278.6406 173.8125 278.6406 173.4219 C278.6406 173.0469 278.2969 172.6875 277.8906 172.6875 ZM279.4688 166.5781 C279.7188 166.8906 279.875 167.2656 279.8906 167.6562 C279.8906 168.1875 279.625 168.5 279.0312 168.7656 L278.4062 169.0156 C277.6406 169.3125 277.3906 169.5469 277.3906 169.9375 C277.3906 170.1094 277.4531 170.3438 277.5781 170.8125 L277.7344 171.3438 L278.1094 171.3438 L278.0938 170.5312 C278.0938 170.0938 278.2031 169.9688 278.7812 169.7344 L279.2031 169.5625 C280.0312 169.2188 280.4531 168.6875 280.4531 167.8438 C280.4531 166.1562 278.6562 165.1875 277.5 165.0312 C277.1094 165.125 276.9062 165.2969 276.9062 165.6406 C276.9062 165.9375 277.0625 166.1562 277.7188 166.2656 L279.4688 166.5781 Z"
      /><rect x="261" y="156" width="5" style="fill:white; stroke:none;" height="10"
      /><path style="stroke:none;" d="M262.8906 164.6875 C262.4844 164.6875 262.1562 165.0469 262.1562 165.4219 C262.1562 165.8125 262.4844 166.1562 262.8906 166.1562 C263.2969 166.1562 263.6406 165.8125 263.6406 165.4219 C263.6406 165.0469 263.2969 164.6875 262.8906 164.6875 ZM264.4688 158.5781 C264.7188 158.8906 264.875 159.2656 264.8906 159.6562 C264.8906 160.1875 264.625 160.5 264.0312 160.7656 L263.4062 161.0156 C262.6406 161.3125 262.3906 161.5469 262.3906 161.9375 C262.3906 162.1094 262.4531 162.3438 262.5781 162.8125 L262.7344 163.3438 L263.1094 163.3438 L263.0938 162.5312 C263.0938 162.0938 263.2031 161.9688 263.7812 161.7344 L264.2031 161.5625 C265.0312 161.2188 265.4531 160.6875 265.4531 159.8438 C265.4531 158.1562 263.6562 157.1875 262.5 157.0312 C262.1094 157.125 261.9062 157.2969 261.9062 157.6406 C261.9062 157.9375 262.0625 158.1562 262.7188 158.2656 L264.4688 158.5781 Z"
      /><polygon style="fill:none;" points=" 301 67 249 93"
      /><polygon style="fill:none;" points=" 301 67 249 41"
      /><circle style="fill:white; clip-path:url(#clipPath15); stroke:none;" r="11" cx="301" cy="67"
      /><rect x="290" y="56" width="22" style="clip-path:url(#clipPath15); fill:rgb(0,166,81); stroke:none;" height="22"
      /><rect x="290" y="56" width="22" style="fill:none; clip-path:url(#clipPath15);" height="22"
      /><circle r="11" style="fill:none;" cx="301" cy="67"
      /><polygon style="fill:none;" points=" 249 93 197 93"
      /><rect x="238" y="82" width="22" style="clip-path:url(#clipPath16); fill:white; stroke:none;" height="22"
      /><rect x="238" y="82" width="22" style="clip-path:url(#clipPath16); fill:rgb(0,144,188); stroke:none;" height="22"
      /><rect x="238" y="82" width="22" style="fill:none; clip-path:url(#clipPath16);" height="22"
      /><rect x="238" width="22" height="22" y="82" style="fill:none;"
      /><polygon style="fill:none;" points=" 197 93 145 93"
      /><circle style="fill:white; clip-path:url(#clipPath17); stroke:none;" r="11" cx="197" cy="93"
      /><rect x="186" y="82" width="22" style="clip-path:url(#clipPath17); fill:rgb(255,212,0); stroke:none;" height="22"
      /><rect x="186" y="82" width="22" style="fill:none; clip-path:url(#clipPath17);" height="22"
      /><circle r="11" style="fill:none;" cx="197" cy="93"
      /><polygon style="fill:white; clip-path:url(#clipPath18); stroke:none;" points=" 145 82 156 93 145 104 134 93"
      /><rect x="134" y="82" width="22" style="clip-path:url(#clipPath18); fill:rgb(165,67,153); stroke:none;" height="22"
      /><rect x="134" y="82" width="22" style="fill:none; clip-path:url(#clipPath18);" height="22"
      /><polygon style="fill:none;" points=" 145 82 156 93 145 104 134 93"
      /><rect x="175" y="96" width="5" style="fill:white; stroke:none;" height="10"
      /><path style="stroke:none;" d="M176.8906 104.6875 C176.4844 104.6875 176.1562 105.0469 176.1562 105.4219 C176.1562 105.8125 176.4844 106.1562 176.8906 106.1562 C177.2969 106.1562 177.6406 105.8125 177.6406 105.4219 C177.6406 105.0469 177.2969 104.6875 176.8906 104.6875 ZM178.4688 98.5781 C178.7188 98.8906 178.875 99.2656 178.8906 99.6562 C178.8906 100.1875 178.625 100.5 178.0312 100.7656 L177.4062 101.0156 C176.6406 101.3125 176.3906 101.5469 176.3906 101.9375 C176.3906 102.1094 176.4531 102.3438 176.5781 102.8125 L176.7344 103.3438 L177.1094 103.3438 L177.0938 102.5312 C177.0938 102.0938 177.2031 101.9688 177.7812 101.7344 L178.2031 101.5625 C179.0312 101.2188 179.4531 100.6875 179.4531 99.8438 C179.4531 98.1562 177.6562 97.1875 176.5 97.0312 C176.1094 97.125 175.9062 97.2969 175.9062 97.6406 C175.9062 97.9375 176.0625 98.1562 176.7188 98.2656 L178.4688 98.5781 Z"
      /><rect x="161" y="96" width="5" style="fill:white; stroke:none;" height="10"
      /><path style="stroke:none;" d="M162.8906 104.6875 C162.4844 104.6875 162.1562 105.0469 162.1562 105.4219 C162.1562 105.8125 162.4844 106.1562 162.8906 106.1562 C163.2969 106.1562 163.6406 105.8125 163.6406 105.4219 C163.6406 105.0469 163.2969 104.6875 162.8906 104.6875 ZM164.4688 98.5781 C164.7188 98.8906 164.875 99.2656 164.8906 99.6562 C164.8906 100.1875 164.625 100.5 164.0312 100.7656 L163.4062 101.0156 C162.6406 101.3125 162.3906 101.5469 162.3906 101.9375 C162.3906 102.1094 162.4531 102.3438 162.5781 102.8125 L162.7344 103.3438 L163.1094 103.3438 L163.0938 102.5312 C163.0938 102.0938 163.2031 101.9688 163.7812 101.7344 L164.2031 101.5625 C165.0312 101.2188 165.4531 100.6875 165.4531 99.8438 C165.4531 98.1562 163.6562 97.1875 162.5 97.0312 C162.1094 97.125 161.9062 97.2969 161.9062 97.6406 C161.9062 97.9375 162.0625 98.1562 162.7188 98.2656 L164.4688 98.5781 Z"
      /><rect x="227" y="96" width="5" style="fill:white; stroke:none;" height="10"
      /><path style="stroke:none;" d="M228.8906 104.6875 C228.4844 104.6875 228.1562 105.0469 228.1562 105.4219 C228.1562 105.8125 228.4844 106.1562 228.8906 106.1562 C229.2969 106.1562 229.6406 105.8125 229.6406 105.4219 C229.6406 105.0469 229.2969 104.6875 228.8906 104.6875 ZM230.4688 98.5781 C230.7188 98.8906 230.875 99.2656 230.8906 99.6562 C230.8906 100.1875 230.625 100.5 230.0312 100.7656 L229.4062 101.0156 C228.6406 101.3125 228.3906 101.5469 228.3906 101.9375 C228.3906 102.1094 228.4531 102.3438 228.5781 102.8125 L228.7344 103.3438 L229.1094 103.3438 L229.0938 102.5312 C229.0938 102.0938 229.2031 101.9688 229.7812 101.7344 L230.2031 101.5625 C231.0312 101.2188 231.4531 100.6875 231.4531 99.8438 C231.4531 98.1562 229.6562 97.1875 228.5 97.0312 C228.1094 97.125 227.9062 97.2969 227.9062 97.6406 C227.9062 97.9375 228.0625 98.1562 228.7188 98.2656 L230.4688 98.5781 Z"
      /><rect x="213" y="96" width="5" style="fill:white; stroke:none;" height="10"
      /><path style="stroke:none;" d="M214.8906 104.6875 C214.4844 104.6875 214.1562 105.0469 214.1562 105.4219 C214.1562 105.8125 214.4844 106.1562 214.8906 106.1562 C215.2969 106.1562 215.6406 105.8125 215.6406 105.4219 C215.6406 105.0469 215.2969 104.6875 214.8906 104.6875 ZM216.4688 98.5781 C216.7188 98.8906 216.875 99.2656 216.8906 99.6562 C216.8906 100.1875 216.625 100.5 216.0312 100.7656 L215.4062 101.0156 C214.6406 101.3125 214.3906 101.5469 214.3906 101.9375 C214.3906 102.1094 214.4531 102.3438 214.5781 102.8125 L214.7344 103.3438 L215.1094 103.3438 L215.0938 102.5312 C215.0938 102.0938 215.2031 101.9688 215.7812 101.7344 L216.2031 101.5625 C217.0312 101.2188 217.4531 100.6875 217.4531 99.8438 C217.4531 98.1562 215.6562 97.1875 214.5 97.0312 C214.1094 97.125 213.9062 97.2969 213.9062 97.6406 C213.9062 97.9375 214.0625 98.1562 214.7188 98.2656 L216.4688 98.5781 Z"
      /><polygon style="fill:none;" points=" 249 41 197 41"
      /><rect x="238" y="30" width="22" style="clip-path:url(#clipPath19); fill:white; stroke:none;" height="22"
      /><rect x="238" y="30" width="22" style="clip-path:url(#clipPath19); fill:rgb(0,144,188); stroke:none;" height="22"
      /><rect x="238" y="30" width="22" style="fill:none; clip-path:url(#clipPath19);" height="22"
      /><rect x="238" width="22" height="22" y="30" style="fill:none;"
      /><circle style="fill:white; clip-path:url(#clipPath20); stroke:none;" r="11" cx="197" cy="41"
      /><rect x="186" y="30" width="22" style="clip-path:url(#clipPath20); fill:rgb(255,212,0); stroke:none;" height="22"
      /><rect x="186" y="30" width="22" style="fill:none; clip-path:url(#clipPath20);" height="22"
      /><circle r="11" style="fill:none;" cx="197" cy="41"
      /><rect x="227" y="44" width="5" style="fill:white; stroke:none;" height="10"
      /><path style="stroke:none;" d="M228.8906 52.6875 C228.4844 52.6875 228.1562 53.0469 228.1562 53.4219 C228.1562 53.8125 228.4844 54.1562 228.8906 54.1562 C229.2969 54.1562 229.6406 53.8125 229.6406 53.4219 C229.6406 53.0469 229.2969 52.6875 228.8906 52.6875 ZM230.4688 46.5781 C230.7188 46.8906 230.875 47.2656 230.8906 47.6562 C230.8906 48.1875 230.625 48.5 230.0312 48.7656 L229.4062 49.0156 C228.6406 49.3125 228.3906 49.5469 228.3906 49.9375 C228.3906 50.1094 228.4531 50.3438 228.5781 50.8125 L228.7344 51.3438 L229.1094 51.3438 L229.0938 50.5312 C229.0938 50.0938 229.2031 49.9688 229.7812 49.7344 L230.2031 49.5625 C231.0312 49.2188 231.4531 48.6875 231.4531 47.8438 C231.4531 46.1562 229.6562 45.1875 228.5 45.0312 C228.1094 45.125 227.9062 45.2969 227.9062 45.6406 C227.9062 45.9375 228.0625 46.1562 228.7188 46.2656 L230.4688 46.5781 Z"
      /><rect x="213" y="44" width="5" style="fill:white; stroke:none;" height="10"
      /><path style="stroke:none;" d="M214.8906 52.6875 C214.4844 52.6875 214.1562 53.0469 214.1562 53.4219 C214.1562 53.8125 214.4844 54.1562 214.8906 54.1562 C215.2969 54.1562 215.6406 53.8125 215.6406 53.4219 C215.6406 53.0469 215.2969 52.6875 214.8906 52.6875 ZM216.4688 46.5781 C216.7188 46.8906 216.875 47.2656 216.8906 47.6562 C216.8906 48.1875 216.625 48.5 216.0312 48.7656 L215.4062 49.0156 C214.6406 49.3125 214.3906 49.5469 214.3906 49.9375 C214.3906 50.1094 214.4531 50.3438 214.5781 50.8125 L214.7344 51.3438 L215.1094 51.3438 L215.0938 50.5312 C215.0938 50.0938 215.2031 49.9688 215.7812 49.7344 L216.2031 49.5625 C217.0312 49.2188 217.4531 48.6875 217.4531 47.8438 C217.4531 46.1562 215.6562 45.1875 214.5 45.0312 C214.1094 45.125 213.9062 45.2969 213.9062 45.6406 C213.9062 45.9375 214.0625 46.1562 214.7188 46.2656 L216.4688 46.5781 Z"
      /><rect x="283" y="78" width="5" style="fill:white; stroke:none;" height="10"
      /><path style="stroke:none;" d="M284.8906 86.6875 C284.4844 86.6875 284.1562 87.0469 284.1562 87.4219 C284.1562 87.8125 284.4844 88.1562 284.8906 88.1562 C285.2969 88.1562 285.6406 87.8125 285.6406 87.4219 C285.6406 87.0469 285.2969 86.6875 284.8906 86.6875 ZM286.4688 80.5781 C286.7188 80.8906 286.875 81.2656 286.8906 81.6562 C286.8906 82.1875 286.625 82.5 286.0312 82.7656 L285.4062 83.0156 C284.6406 83.3125 284.3906 83.5469 284.3906 83.9375 C284.3906 84.1094 284.4531 84.3438 284.5781 84.8125 L284.7344 85.3438 L285.1094 85.3438 L285.0938 84.5312 C285.0938 84.0938 285.2031 83.9688 285.7812 83.7344 L286.2031 83.5625 C287.0312 83.2188 287.4531 82.6875 287.4531 81.8438 C287.4531 80.1562 285.6562 79.1875 284.5 79.0312 C284.1094 79.125 283.9062 79.2969 283.9062 79.6406 C283.9062 79.9375 284.0625 80.1562 284.7188 80.2656 L286.4688 80.5781 Z"
      /><rect x="268" y="86" width="5" style="fill:white; stroke:none;" height="10"
      /><path style="stroke:none;" d="M269.8906 94.6875 C269.4844 94.6875 269.1562 95.0469 269.1562 95.4219 C269.1562 95.8125 269.4844 96.1562 269.8906 96.1562 C270.2969 96.1562 270.6406 95.8125 270.6406 95.4219 C270.6406 95.0469 270.2969 94.6875 269.8906 94.6875 ZM271.4688 88.5781 C271.7188 88.8906 271.875 89.2656 271.8906 89.6562 C271.8906 90.1875 271.625 90.5 271.0312 90.7656 L270.4062 91.0156 C269.6406 91.3125 269.3906 91.5469 269.3906 91.9375 C269.3906 92.1094 269.4531 92.3438 269.5781 92.8125 L269.7344 93.3438 L270.1094 93.3438 L270.0938 92.5312 C270.0938 92.0938 270.2031 91.9688 270.7812 91.7344 L271.2031 91.5625 C272.0312 91.2188 272.4531 90.6875 272.4531 89.8438 C272.4531 88.1562 270.6562 87.1875 269.5 87.0312 C269.1094 87.125 268.9062 87.2969 268.9062 87.6406 C268.9062 87.9375 269.0625 88.1562 269.7188 88.2656 L271.4688 88.5781 Z"
      /><rect x="276" y="60" width="5" style="fill:white; stroke:none;" height="10"
      /><path style="stroke:none;" d="M277.8906 68.6875 C277.4844 68.6875 277.1562 69.0469 277.1562 69.4219 C277.1562 69.8125 277.4844 70.1562 277.8906 70.1562 C278.2969 70.1562 278.6406 69.8125 278.6406 69.4219 C278.6406 69.0469 278.2969 68.6875 277.8906 68.6875 ZM279.4688 62.5781 C279.7188 62.8906 279.875 63.2656 279.8906 63.6562 C279.8906 64.1875 279.625 64.5 279.0312 64.7656 L278.4062 65.0156 C277.6406 65.3125 277.3906 65.5469 277.3906 65.9375 C277.3906 66.1094 277.4531 66.3438 277.5781 66.8125 L277.7344 67.3438 L278.1094 67.3438 L278.0938 66.5312 C278.0938 66.0938 278.2031 65.9688 278.7812 65.7344 L279.2031 65.5625 C280.0312 65.2188 280.4531 64.6875 280.4531 63.8438 C280.4531 62.1562 278.6562 61.1875 277.5 61.0312 C277.1094 61.125 276.9062 61.2969 276.9062 61.6406 C276.9062 61.9375 277.0625 62.1562 277.7188 62.2656 L279.4688 62.5781 Z"
      /><rect x="261" y="52" width="5" style="fill:white; stroke:none;" height="10"
      /><path style="stroke:none;" d="M262.8906 60.6875 C262.4844 60.6875 262.1562 61.0469 262.1562 61.4219 C262.1562 61.8125 262.4844 62.1562 262.8906 62.1562 C263.2969 62.1562 263.6406 61.8125 263.6406 61.4219 C263.6406 61.0469 263.2969 60.6875 262.8906 60.6875 ZM264.4688 54.5781 C264.7188 54.8906 264.875 55.2656 264.8906 55.6562 C264.8906 56.1875 264.625 56.5 264.0312 56.7656 L263.4062 57.0156 C262.6406 57.3125 262.3906 57.5469 262.3906 57.9375 C262.3906 58.1094 262.4531 58.3438 262.5781 58.8125 L262.7344 59.3438 L263.1094 59.3438 L263.0938 58.5312 C263.0938 58.0938 263.2031 57.9688 263.7812 57.7344 L264.2031 57.5625 C265.0312 57.2188 265.4531 56.6875 265.4531 55.8438 C265.4531 54.1562 263.6562 53.1875 262.5 53.0312 C262.1094 53.125 261.9062 53.2969 261.9062 53.6406 C261.9062 53.9375 262.0625 54.1562 262.7188 54.2656 L264.4688 54.5781 Z"
      /><rect x="339" y="136" width="5" style="fill:white; stroke:none;" height="10"
      /><path style="stroke:none;" d="M340.8906 144.6875 C340.4844 144.6875 340.1562 145.0469 340.1562 145.4219 C340.1562 145.8125 340.4844 146.1562 340.8906 146.1562 C341.2969 146.1562 341.6406 145.8125 341.6406 145.4219 C341.6406 145.0469 341.2969 144.6875 340.8906 144.6875 ZM342.4688 138.5781 C342.7188 138.8906 342.875 139.2656 342.8906 139.6562 C342.8906 140.1875 342.625 140.5 342.0312 140.7656 L341.4062 141.0156 C340.6406 141.3125 340.3906 141.5469 340.3906 141.9375 C340.3906 142.1094 340.4531 142.3438 340.5781 142.8125 L340.7344 143.3438 L341.1094 143.3438 L341.0938 142.5312 C341.0938 142.0938 341.2031 141.9688 341.7812 141.7344 L342.2031 141.5625 C343.0312 141.2188 343.4531 140.6875 343.4531 139.8438 C343.4531 138.1562 341.6562 137.1875 340.5 137.0312 C340.1094 137.125 339.9062 137.2969 339.9062 137.6406 C339.9062 137.9375 340.0625 138.1562 340.7188 138.2656 L342.4688 138.5781 Z"
      /><rect x="320" y="155" width="5" style="fill:white; stroke:none;" height="10"
      /><path style="stroke:none;" d="M321.8906 163.6875 C321.4844 163.6875 321.1562 164.0469 321.1562 164.4219 C321.1562 164.8125 321.4844 165.1562 321.8906 165.1562 C322.2969 165.1562 322.6406 164.8125 322.6406 164.4219 C322.6406 164.0469 322.2969 163.6875 321.8906 163.6875 ZM323.4688 157.5781 C323.7188 157.8906 323.875 158.2656 323.8906 158.6562 C323.8906 159.1875 323.625 159.5 323.0312 159.7656 L322.4062 160.0156 C321.6406 160.3125 321.3906 160.5469 321.3906 160.9375 C321.3906 161.1094 321.4531 161.3438 321.5781 161.8125 L321.7344 162.3438 L322.1094 162.3438 L322.0938 161.5312 C322.0938 161.0938 322.2031 160.9688 322.7812 160.7344 L323.2031 160.5625 C324.0312 160.2188 324.4531 159.6875 324.4531 158.8438 C324.4531 157.1562 322.6562 156.1875 321.5 156.0312 C321.1094 156.125 320.9062 156.2969 320.9062 156.6406 C320.9062 156.9375 321.0625 157.1562 321.7188 157.2656 L323.4688 157.5781 Z"
      /><rect x="328" y="103" width="5" style="fill:white; stroke:none;" height="10"
      /><path style="stroke:none;" d="M329.8906 111.6875 C329.4844 111.6875 329.1562 112.0469 329.1562 112.4219 C329.1562 112.8125 329.4844 113.1562 329.8906 113.1562 C330.2969 113.1562 330.6406 112.8125 330.6406 112.4219 C330.6406 112.0469 330.2969 111.6875 329.8906 111.6875 ZM331.4688 105.5781 C331.7188 105.8906 331.875 106.2656 331.8906 106.6562 C331.8906 107.1875 331.625 107.5 331.0312 107.7656 L330.4062 108.0156 C329.6406 108.3125 329.3906 108.5469 329.3906 108.9375 C329.3906 109.1094 329.4531 109.3438 329.5781 109.8125 L329.7344 110.3438 L330.1094 110.3438 L330.0938 109.5312 C330.0938 109.0938 330.2031 108.9688 330.7812 108.7344 L331.2031 108.5625 C332.0312 108.2188 332.4531 107.6875 332.4531 106.8438 C332.4531 105.1562 330.6562 104.1875 329.5 104.0312 C329.1094 104.125 328.9062 104.2969 328.9062 104.6406 C328.9062 104.9375 329.0625 105.1562 329.7188 105.2656 L331.4688 105.5781 Z"
      /><rect x="309" y="84" width="5" style="fill:white; stroke:none;" height="10"
      /><path style="stroke:none;" d="M310.8906 92.6875 C310.4844 92.6875 310.1562 93.0469 310.1562 93.4219 C310.1562 93.8125 310.4844 94.1562 310.8906 94.1562 C311.2969 94.1562 311.6406 93.8125 311.6406 93.4219 C311.6406 93.0469 311.2969 92.6875 310.8906 92.6875 ZM312.4688 86.5781 C312.7188 86.8906 312.875 87.2656 312.8906 87.6562 C312.8906 88.1875 312.625 88.5 312.0312 88.7656 L311.4062 89.0156 C310.6406 89.3125 310.3906 89.5469 310.3906 89.9375 C310.3906 90.1094 310.4531 90.3438 310.5781 90.8125 L310.7344 91.3438 L311.1094 91.3438 L311.0938 90.5312 C311.0938 90.0938 311.2031 89.9688 311.7812 89.7344 L312.2031 89.5625 C313.0312 89.2188 313.4531 88.6875 313.4531 87.8438 C313.4531 86.1562 311.6562 85.1875 310.5 85.0312 C310.1094 85.125 309.9062 85.2969 309.9062 85.6406 C309.9062 85.9375 310.0625 86.1562 310.7188 86.2656 L312.4688 86.5781 Z"
      /><rect x="383" y="122" width="5" style="fill:white; stroke:none;" height="10"
      /><path style="stroke:none;" d="M384.8906 130.6875 C384.4844 130.6875 384.1562 131.0469 384.1562 131.4219 C384.1562 131.8125 384.4844 132.1562 384.8906 132.1562 C385.2969 132.1562 385.6406 131.8125 385.6406 131.4219 C385.6406 131.0469 385.2969 130.6875 384.8906 130.6875 ZM386.4688 124.5781 C386.7188 124.8906 386.875 125.2656 386.8906 125.6562 C386.8906 126.1875 386.625 126.5 386.0312 126.7656 L385.4062 127.0156 C384.6406 127.3125 384.3906 127.5469 384.3906 127.9375 C384.3906 128.1094 384.4531 128.3438 384.5781 128.8125 L384.7344 129.3438 L385.1094 129.3438 L385.0938 128.5312 C385.0938 128.0938 385.2031 127.9688 385.7812 127.7344 L386.2031 127.5625 C387.0312 127.2188 387.4531 126.6875 387.4531 125.8438 C387.4531 124.1562 385.6562 123.1875 384.5 123.0312 C384.1094 123.125 383.9062 123.2969 383.9062 123.6406 C383.9062 123.9375 384.0625 124.1562 384.7188 124.2656 L386.4688 124.5781 Z"
      /><rect x="369" y="122" width="5" style="fill:white; stroke:none;" height="10"
      /><path style="stroke:none;" d="M370.8906 130.6875 C370.4844 130.6875 370.1562 131.0469 370.1562 131.4219 C370.1562 131.8125 370.4844 132.1562 370.8906 132.1562 C371.2969 132.1562 371.6406 131.8125 371.6406 131.4219 C371.6406 131.0469 371.2969 130.6875 370.8906 130.6875 ZM372.4688 124.5781 C372.7188 124.8906 372.875 125.2656 372.8906 125.6562 C372.8906 126.1875 372.625 126.5 372.0312 126.7656 L371.4062 127.0156 C370.6406 127.3125 370.3906 127.5469 370.3906 127.9375 C370.3906 128.1094 370.4531 128.3438 370.5781 128.8125 L370.7344 129.3438 L371.1094 129.3438 L371.0938 128.5312 C371.0938 128.0938 371.2031 127.9688 371.7812 127.7344 L372.2031 127.5625 C373.0312 127.2188 373.4531 126.6875 373.4531 125.8438 C373.4531 124.1562 371.6562 123.1875 370.5 123.0312 C370.1094 123.125 369.9062 123.2969 369.9062 123.6406 C369.9062 123.9375 370.0625 124.1562 370.7188 124.2656 L372.4688 124.5781 Z"
      /><polygon style="fill:white; clip-path:url(#clipPath21); stroke:none;" points=" 457 78 446 56 468 56"
      /><rect x="446" y="56" width="22" style="clip-path:url(#clipPath21); fill:rgb(237,28,36); stroke:none;" height="22"
      /><rect x="446" y="56" width="22" style="fill:none; clip-path:url(#clipPath21);" height="22"
      /><polygon style="fill:none;" points=" 457 78 446 56 468 56"
      /><rect x="435" y="122" width="5" style="fill:white; stroke:none;" height="10"
      /><path style="stroke:none;" d="M436.8906 130.6875 C436.4844 130.6875 436.1562 131.0469 436.1562 131.4219 C436.1562 131.8125 436.4844 132.1562 436.8906 132.1562 C437.2969 132.1562 437.6406 131.8125 437.6406 131.4219 C437.6406 131.0469 437.2969 130.6875 436.8906 130.6875 ZM438.4688 124.5781 C438.7188 124.8906 438.875 125.2656 438.8906 125.6562 C438.8906 126.1875 438.625 126.5 438.0312 126.7656 L437.4062 127.0156 C436.6406 127.3125 436.3906 127.5469 436.3906 127.9375 C436.3906 128.1094 436.4531 128.3438 436.5781 128.8125 L436.7344 129.3438 L437.1094 129.3438 L437.0938 128.5312 C437.0938 128.0938 437.2031 127.9688 437.7812 127.7344 L438.2031 127.5625 C439.0312 127.2188 439.4531 126.6875 439.4531 125.8438 C439.4531 124.1562 437.6562 123.1875 436.5 123.0312 C436.1094 123.125 435.9062 123.2969 435.9062 123.6406 C435.9062 123.9375 436.0625 124.1562 436.7188 124.2656 L438.4688 124.5781 Z"
      /><rect x="421" y="122" width="5" style="fill:white; stroke:none;" height="10"
      /><path style="stroke:none;" d="M422.8906 130.6875 C422.4844 130.6875 422.1562 131.0469 422.1562 131.4219 C422.1562 131.8125 422.4844 132.1562 422.8906 132.1562 C423.2969 132.1562 423.6406 131.8125 423.6406 131.4219 C423.6406 131.0469 423.2969 130.6875 422.8906 130.6875 ZM424.4688 124.5781 C424.7188 124.8906 424.875 125.2656 424.8906 125.6562 C424.8906 126.1875 424.625 126.5 424.0312 126.7656 L423.4062 127.0156 C422.6406 127.3125 422.3906 127.5469 422.3906 127.9375 C422.3906 128.1094 422.4531 128.3438 422.5781 128.8125 L422.7344 129.3438 L423.1094 129.3438 L423.0938 128.5312 C423.0938 128.0938 423.2031 127.9688 423.7812 127.7344 L424.2031 127.5625 C425.0312 127.2188 425.4531 126.6875 425.4531 125.8438 C425.4531 124.1562 423.6562 123.1875 422.5 123.0312 C422.1094 123.125 421.9062 123.2969 421.9062 123.6406 C421.9062 123.9375 422.0625 124.1562 422.7188 124.2656 L424.4688 124.5781 Z"
      /><rect x="446" y="95" width="5" style="fill:white; stroke:none;" height="10"
      /><path style="stroke:none;" d="M447.8906 103.6875 C447.4844 103.6875 447.1562 104.0469 447.1562 104.4219 C447.1562 104.8125 447.4844 105.1562 447.8906 105.1562 C448.2969 105.1562 448.6406 104.8125 448.6406 104.4219 C448.6406 104.0469 448.2969 103.6875 447.8906 103.6875 ZM449.4688 97.5781 C449.7188 97.8906 449.875 98.2656 449.8906 98.6562 C449.8906 99.1875 449.625 99.5 449.0312 99.7656 L448.4062 100.0156 C447.6406 100.3125 447.3906 100.5469 447.3906 100.9375 C447.3906 101.1094 447.4531 101.3438 447.5781 101.8125 L447.7344 102.3438 L448.1094 102.3438 L448.0938 101.5312 C448.0938 101.0938 448.2031 100.9688 448.7812 100.7344 L449.2031 100.5625 C450.0312 100.2188 450.4531 99.6875 450.4531 98.8438 C450.4531 97.1562 448.6562 96.1875 447.5 96.0312 C447.1094 96.125 446.9062 96.2969 446.9062 96.6406 C446.9062 96.9375 447.0625 97.1562 447.7188 97.2656 L449.4688 97.5781 Z"
      /><rect x="446" y="81" width="5" style="fill:white; stroke:none;" height="10"
      /><path style="stroke:none;" d="M447.8906 89.6875 C447.4844 89.6875 447.1562 90.0469 447.1562 90.4219 C447.1562 90.8125 447.4844 91.1562 447.8906 91.1562 C448.2969 91.1562 448.6406 90.8125 448.6406 90.4219 C448.6406 90.0469 448.2969 89.6875 447.8906 89.6875 ZM449.4688 83.5781 C449.7188 83.8906 449.875 84.2656 449.8906 84.6562 C449.8906 85.1875 449.625 85.5 449.0312 85.7656 L448.4062 86.0156 C447.6406 86.3125 447.3906 86.5469 447.3906 86.9375 C447.3906 87.1094 447.4531 87.3438 447.5781 87.8125 L447.7344 88.3438 L448.1094 88.3438 L448.0938 87.5312 C448.0938 87.0938 448.2031 86.9688 448.7812 86.7344 L449.2031 86.5625 C450.0312 86.2188 450.4531 85.6875 450.4531 84.8438 C450.4531 83.1562 448.6562 82.1875 447.5 82.0312 C447.1094 82.125 446.9062 82.2969 446.9062 82.6406 C446.9062 82.9375 447.0625 83.1562 447.7188 83.2656 L449.4688 83.5781 Z"
      /><rect x="473" y="122" width="5" style="fill:white; stroke:none;" height="10"
      /><path style="stroke:none;" d="M474.8906 130.6875 C474.4844 130.6875 474.1562 131.0469 474.1562 131.4219 C474.1562 131.8125 474.4844 132.1562 474.8906 132.1562 C475.2969 132.1562 475.6406 131.8125 475.6406 131.4219 C475.6406 131.0469 475.2969 130.6875 474.8906 130.6875 ZM476.4688 124.5781 C476.7188 124.8906 476.875 125.2656 476.8906 125.6562 C476.8906 126.1875 476.625 126.5 476.0312 126.7656 L475.4062 127.0156 C474.6406 127.3125 474.3906 127.5469 474.3906 127.9375 C474.3906 128.1094 474.4531 128.3438 474.5781 128.8125 L474.7344 129.3438 L475.1094 129.3438 L475.0938 128.5312 C475.0938 128.0938 475.2031 127.9688 475.7812 127.7344 L476.2031 127.5625 C477.0312 127.2188 477.4531 126.6875 477.4531 125.8438 C477.4531 124.1562 475.6562 123.1875 474.5 123.0312 C474.1094 123.125 473.9062 123.2969 473.9062 123.6406 C473.9062 123.9375 474.0625 124.1562 474.7188 124.2656 L476.4688 124.5781 Z"
    /></g
  ></g
></svg
>
