<?xml version="1.0"?>
<!DOCTYPE svg PUBLIC '-//W3C//DTD SVG 1.0//EN'
          'http://www.w3.org/TR/2001/REC-SVG-20010904/DTD/svg10.dtd'>
<svg xmlns:xlink="http://www.w3.org/1999/xlink" style="fill-opacity:1; color-rendering:auto; color-interpolation:auto; text-rendering:auto; stroke:black; stroke-linecap:square; stroke-miterlimit:10; shape-rendering:auto; stroke-opacity:1; fill:black; stroke-dasharray:none; font-weight:normal; stroke-width:1; font-family:'Dialog'; font-style:normal; stroke-linejoin:miter; font-size:12px; stroke-dashoffset:0; image-rendering:auto;" viewBox="0 0 210 164" xmlns="http://www.w3.org/2000/svg"
><!--Generated by the Batik Graphics2D SVG Generator--><defs id="genericDefs"
  /><g
  ><defs id="defs1"
    ><clipPath clipPathUnits="userSpaceOnUse" id="clipPath1"
      ><path style="fill-rule:evenodd;" d="M93 56 L95 63 L103 63 L96 68 L99 75 L93 71 L86 75 L89 68 L82 63 L90 63 L93 56 Z"
      /></clipPath
      ><clipPath clipPathUnits="userSpaceOnUse" id="clipPath2"
      ><path style="fill-rule:evenodd;" d="M41 82 L51 89 L47 101 L34 101 L30 89 L41 82 Z"
      /></clipPath
      ><clipPath clipPathUnits="userSpaceOnUse" id="clipPath3"
      ><path style="fill-rule:evenodd;" d="M41 30 L51 37 L47 49 L34 49 L30 37 L41 30 Z"
      /></clipPath
    ></defs
    ><g style="fill:white; text-rendering:optimizeSpeed; stroke:white;"
    ><rect x="0" width="210" height="164" y="0" style="stroke:none;"
      /><polygon style="fill:none; stroke:black;" points=" 93 67 41 93"
      /><polygon style="fill:none; stroke:black;" points=" 93 67 41 41"
      /><polygon style="clip-path:url(#clipPath1); stroke:none;" points=" 93 56 95 63 103 63 96 68 99 75 93 71 86 75 89 68 82 63 90 63 93 56"
      /><rect x="82" y="56" width="22" style="clip-path:url(#clipPath1); fill:rgb(0,166,81); stroke:none;" height="22"
      /><rect x="82" y="56" width="22" style="clip-path:url(#clipPath1); fill:none; stroke:black;" height="22"
      /><polygon style="fill:none; stroke:black;" points=" 93 56 95 63 103 63 96 68 99 75 93 71 86 75 89 68 82 63 90 63 93 56"
    /></g
    ><g style="text-rendering:optimizeSpeed; font-size:10px; font-family:'SansSerif';"
    ><path style="stroke:none;" d="M90.0312 70.125 C91.3594 70.125 92.5469 69.0938 92.5469 67.2969 C92.5469 65.4844 91.3594 64.4375 90.0312 64.4375 C88.7031 64.4375 87.5156 65.4844 87.5156 67.2969 C87.5156 69.0938 88.7031 70.125 90.0312 70.125 ZM90.0312 69.375 C89.0938 69.375 88.4531 68.5469 88.4531 67.2969 C88.4531 66.0469 89.0938 65.1875 90.0312 65.1875 C90.9688 65.1875 91.6094 66.0469 91.6094 67.2969 C91.6094 68.5469 90.9688 69.375 90.0312 69.375 ZM94.06 70 L95.935 70 C98.1537 70 99.3569 68.625 99.3569 66.3125 C99.3569 63.9844 98.1537 62.6562 95.9037 62.6562 L94.06 62.6562 L94.06 70 ZM94.9975 69.2344 L94.9975 63.4219 L95.8256 63.4219 C97.5444 63.4219 98.4037 64.4531 98.4037 66.3125 C98.4037 68.1562 97.5444 69.2344 95.8256 69.2344 L94.9975 69.2344 Z"
    /></g
    ><g style="fill:white; text-rendering:optimizeSpeed; stroke:white;"
    ><polygon style="stroke:none; clip-path:url(#clipPath2);" points=" 41 82 51 89 47 101 34 101 30 89 41 82"
      /><rect x="30" y="82" width="22" style="clip-path:url(#clipPath2); fill:rgb(0,166,81); stroke:none;" height="22"
      /><rect x="30" y="82" width="22" style="clip-path:url(#clipPath2); fill:none; stroke:black;" height="22"
      /><polygon style="fill:none; stroke:black;" points=" 41 82 51 89 47 101 34 101 30 89 41 82"
    /></g
    ><g style="text-rendering:optimizeSpeed; font-size:10px; font-family:'SansSerif';"
    ><path style="stroke:none;" d="M40.0625 97 L40.9844 97 L40.9844 92.3125 L42.125 92.3125 L42.125 91.5625 L40.9844 91.5625 L40.9844 90.7031 C40.9844 90.0156 41.2344 89.6406 41.75 89.6406 C41.9375 89.6406 42.1562 89.6875 42.3594 89.7812 L42.5625 89.0938 C42.3125 88.9844 41.9844 88.9062 41.6562 88.9062 C40.5625 88.9062 40.0625 89.5938 40.0625 90.7031 L40.0625 91.5625 L39.3281 91.625 L39.3281 92.3125 L40.0625 92.3125 L40.0625 97 Z"
    /></g
    ><g style="fill:white; text-rendering:optimizeSpeed; stroke:white;"
    ><polygon style="stroke:none; clip-path:url(#clipPath3);" points=" 41 30 51 37 47 49 34 49 30 37 41 30"
      /><rect x="30" y="30" width="22" style="clip-path:url(#clipPath3); fill:rgb(0,166,81); stroke:none;" height="22"
      /><rect x="30" y="30" width="22" style="clip-path:url(#clipPath3); fill:none; stroke:black;" height="22"
      /><polygon style="fill:none; stroke:black;" points=" 41 30 51 37 47 49 34 49 30 37 41 30"
    /></g
    ><g style="text-rendering:optimizeSpeed; font-size:10px; font-family:'SansSerif';"
    ><path style="stroke:none;" d="M40.0625 45 L40.9844 45 L40.9844 40.3125 L42.125 40.3125 L42.125 39.5625 L40.9844 39.5625 L40.9844 38.7031 C40.9844 38.0156 41.2344 37.6406 41.75 37.6406 C41.9375 37.6406 42.1562 37.6875 42.3594 37.7812 L42.5625 37.0938 C42.3125 36.9844 41.9844 36.9062 41.6562 36.9062 C40.5625 36.9062 40.0625 37.5938 40.0625 38.7031 L40.0625 39.5625 L39.3281 39.625 L39.3281 40.3125 L40.0625 40.3125 L40.0625 45 Z"
    /></g
    ><g style="fill:white; text-rendering:optimizeSpeed; font-family:'Serif'; stroke:white;"
    ><rect x="75" width="5" height="10" y="78" style="stroke:none;"
      /><path d="M76.8906 86.6875 C76.4844 86.6875 76.1562 87.0469 76.1562 87.4219 C76.1562 87.8125 76.4844 88.1562 76.8906 88.1562 C77.2969 88.1562 77.6406 87.8125 77.6406 87.4219 C77.6406 87.0469 77.2969 86.6875 76.8906 86.6875 ZM78.4688 80.5781 C78.7188 80.8906 78.875 81.2656 78.8906 81.6562 C78.8906 82.1875 78.625 82.5 78.0312 82.7656 L77.4062 83.0156 C76.6406 83.3125 76.3906 83.5469 76.3906 83.9375 C76.3906 84.1094 76.4531 84.3438 76.5781 84.8125 L76.7344 85.3438 L77.1094 85.3438 L77.0938 84.5312 C77.0938 84.0938 77.2031 83.9688 77.7812 83.7344 L78.2031 83.5625 C79.0312 83.2188 79.4531 82.6875 79.4531 81.8438 C79.4531 80.1562 77.6562 79.1875 76.5 79.0312 C76.1094 79.125 75.9062 79.2969 75.9062 79.6406 C75.9062 79.9375 76.0625 80.1562 76.7188 80.2656 L78.4688 80.5781 Z" style="fill:black; stroke:none;"
      /><rect x="60" width="5" height="10" y="86" style="stroke:none;"
      /><path d="M61.8906 94.6875 C61.4844 94.6875 61.1562 95.0469 61.1562 95.4219 C61.1562 95.8125 61.4844 96.1562 61.8906 96.1562 C62.2969 96.1562 62.6406 95.8125 62.6406 95.4219 C62.6406 95.0469 62.2969 94.6875 61.8906 94.6875 ZM63.4688 88.5781 C63.7188 88.8906 63.875 89.2656 63.8906 89.6562 C63.8906 90.1875 63.625 90.5 63.0312 90.7656 L62.4062 91.0156 C61.6406 91.3125 61.3906 91.5469 61.3906 91.9375 C61.3906 92.1094 61.4531 92.3438 61.5781 92.8125 L61.7344 93.3438 L62.1094 93.3438 L62.0938 92.5312 C62.0938 92.0938 62.2031 91.9688 62.7812 91.7344 L63.2031 91.5625 C64.0312 91.2188 64.4531 90.6875 64.4531 89.8438 C64.4531 88.1562 62.6562 87.1875 61.5 87.0312 C61.1094 87.125 60.9062 87.2969 60.9062 87.6406 C60.9062 87.9375 61.0625 88.1562 61.7188 88.2656 L63.4688 88.5781 Z" style="fill:black; stroke:none;"
      /><rect x="68" width="5" height="10" y="60" style="stroke:none;"
      /><path d="M69.8906 68.6875 C69.4844 68.6875 69.1562 69.0469 69.1562 69.4219 C69.1562 69.8125 69.4844 70.1562 69.8906 70.1562 C70.2969 70.1562 70.6406 69.8125 70.6406 69.4219 C70.6406 69.0469 70.2969 68.6875 69.8906 68.6875 ZM71.4688 62.5781 C71.7188 62.8906 71.875 63.2656 71.8906 63.6562 C71.8906 64.1875 71.625 64.5 71.0312 64.7656 L70.4062 65.0156 C69.6406 65.3125 69.3906 65.5469 69.3906 65.9375 C69.3906 66.1094 69.4531 66.3438 69.5781 66.8125 L69.7344 67.3438 L70.1094 67.3438 L70.0938 66.5312 C70.0938 66.0938 70.2031 65.9688 70.7812 65.7344 L71.2031 65.5625 C72.0312 65.2188 72.4531 64.6875 72.4531 63.8438 C72.4531 62.1562 70.6562 61.1875 69.5 61.0312 C69.1094 61.125 68.9062 61.2969 68.9062 61.6406 C68.9062 61.9375 69.0625 62.1562 69.7188 62.2656 L71.4688 62.5781 Z" style="fill:black; stroke:none;"
      /><rect x="53" width="5" height="10" y="52" style="stroke:none;"
      /><path d="M54.8906 60.6875 C54.4844 60.6875 54.1562 61.0469 54.1562 61.4219 C54.1562 61.8125 54.4844 62.1562 54.8906 62.1562 C55.2969 62.1562 55.6406 61.8125 55.6406 61.4219 C55.6406 61.0469 55.2969 60.6875 54.8906 60.6875 ZM56.4688 54.5781 C56.7188 54.8906 56.875 55.2656 56.8906 55.6562 C56.8906 56.1875 56.625 56.5 56.0312 56.7656 L55.4062 57.0156 C54.6406 57.3125 54.3906 57.5469 54.3906 57.9375 C54.3906 58.1094 54.4531 58.3438 54.5781 58.8125 L54.7344 59.3438 L55.1094 59.3438 L55.0938 58.5312 C55.0938 58.0938 55.2031 57.9688 55.7812 57.7344 L56.2031 57.5625 C57.0312 57.2188 57.4531 56.6875 57.4531 55.8438 C57.4531 54.1562 55.6562 53.1875 54.5 53.0312 C54.1094 53.125 53.9062 53.2969 53.9062 53.6406 C53.9062 53.9375 54.0625 54.1562 54.7188 54.2656 L56.4688 54.5781 Z" style="fill:black; stroke:none;"
    /></g
  ></g
></svg
>
