<?xml version="1.0"?>
<!DOCTYPE svg PUBLIC '-//W3C//DTD SVG 1.0//EN'
          'http://www.w3.org/TR/2001/REC-SVG-20010904/DTD/svg10.dtd'>
<svg xmlns:xlink="http://www.w3.org/1999/xlink" style="fill-opacity:1; color-rendering:auto; color-interpolation:auto; text-rendering:auto; stroke:black; stroke-linecap:square; stroke-miterlimit:10; shape-rendering:auto; stroke-opacity:1; fill:black; stroke-dasharray:none; font-weight:normal; stroke-width:1; font-family:'Dialog'; font-style:normal; stroke-linejoin:miter; font-size:12px; stroke-dashoffset:0; image-rendering:auto;" viewBox="0 0 238 238" xmlns="http://www.w3.org/2000/svg"
><!--Generated by the Batik Graphics2D SVG Generator--><defs id="genericDefs"
  /><g
  ><defs id="defs1"
    ><clipPath clipPathUnits="userSpaceOnUse" id="clipPath1"
      ><path d="M156 93 C156 99.0751 151.0751 104 145 104 C138.9249 104 134 99.0751 134 93 C134 86.9249 138.9249 82 145 82 C151.0751 82 156 86.9249 156 93 Z"
      /></clipPath
      ><clipPath clipPathUnits="userSpaceOnUse" id="clipPath2"
      ><path d="M104 145 C104 151.0751 99.0751 156 93 156 C86.9249 156 82 151.0751 82 145 C82 138.9249 86.9249 134 93 134 C99.0751 134 104 138.9249 104 145 Z"
      /></clipPath
      ><clipPath clipPathUnits="userSpaceOnUse" id="clipPath3"
      ><path style="fill-rule:evenodd;" d="M93 186 L104 208 L82 208 Z"
      /></clipPath
      ><clipPath clipPathUnits="userSpaceOnUse" id="clipPath4"
      ><path d="M52 145 C52 151.0751 47.0751 156 41 156 C34.9249 156 30 151.0751 30 145 C30 138.9249 34.9249 134 41 134 C47.0751 134 52 138.9249 52 145 Z"
      /></clipPath
      ><clipPath clipPathUnits="userSpaceOnUse" id="clipPath5"
      ><path d="M104 41 C104 47.0751 99.0751 52 93 52 C86.9249 52 82 47.0751 82 41 C82 34.9249 86.9249 30 93 30 C99.0751 30 104 34.9249 104 41 Z"
      /></clipPath
      ><clipPath clipPathUnits="userSpaceOnUse" id="clipPath6"
      ><path style="fill-rule:evenodd;" d="M93 82 L104 104 L82 104 Z"
      /></clipPath
    ></defs
    ><g style="fill:white; text-rendering:optimizeSpeed; stroke:white;"
    ><rect x="0" width="238" height="238" y="0" style="stroke:none;"
      /><polygon style="fill:none; stroke:black;" points=" 197 93 145 93"
      /><path d="M197 82 C191.5 87.5 202.5 98.5 197 104" style="fill:none; stroke:black;"
      /><polygon style="fill:none; stroke:black;" points=" 145 93 93 145"
      /><polygon style="fill:none; stroke:black;" points=" 145 93 93 41"
      /><circle style="clip-path:url(#clipPath1); stroke:none;" r="11" cx="145" cy="93"
      /><rect x="134" y="82" width="22" style="clip-path:url(#clipPath1); fill:rgb(255,212,0); stroke:none;" height="22"
      /><rect x="134" y="82" width="22" style="clip-path:url(#clipPath1); fill:none; stroke:black;" height="22"
      /><circle style="fill:none; stroke:black;" r="11" cx="145" cy="93"
      /><polygon style="fill:none; stroke:black;" points=" 93 145 93 197"
      /><polygon style="fill:none; stroke:black;" points=" 93 145 41 145"
      /><circle style="clip-path:url(#clipPath2); stroke:none;" r="11" cx="93" cy="145"
      /><rect x="82" y="134" width="22" style="clip-path:url(#clipPath2); fill:rgb(255,212,0); stroke:none;" height="22"
      /><rect x="82" y="134" width="22" style="clip-path:url(#clipPath2); fill:none; stroke:black;" height="22"
      /><circle style="fill:none; stroke:black;" r="11" cx="93" cy="145"
      /><polygon style="clip-path:url(#clipPath3); stroke:none;" points=" 93 186 104 208 82 208"
      /><rect x="82" y="186" width="22" style="clip-path:url(#clipPath3); fill:rgb(237,28,36); stroke:none;" height="22"
      /><rect x="82" y="186" width="22" style="clip-path:url(#clipPath3); fill:none; stroke:black;" height="22"
      /><polygon style="fill:none; stroke:black;" points=" 93 186 104 208 82 208"
      /><circle style="clip-path:url(#clipPath4); stroke:none;" r="11" cx="41" cy="145"
      /><rect x="30" y="134" width="22" style="clip-path:url(#clipPath4); fill:rgb(255,212,0); stroke:none;" height="22"
      /><rect x="30" y="134" width="22" style="clip-path:url(#clipPath4); fill:none; stroke:black;" height="22"
      /><circle style="fill:none; stroke:black;" r="11" cx="41" cy="145"
      /><rect x="98" y="159" width="6" style="stroke:none;" height="9"
    /></g
    ><g style="font-family:'Serif'; text-rendering:optimizeSpeed; "
    ><path style="stroke:none;" d="M99.4219 167.0938 C100.0781 166.375 100.7031 165.7188 101.0312 165.3438 C102.9219 163.3125 103.5312 162.4688 103.5312 161.3594 C103.5312 160.0156 102.7812 159.0781 101.1562 159.0781 C99.9062 159.0781 98.7969 159.7031 98.5938 160.9688 C98.7188 161.2031 98.9062 161.3438 99.1562 161.3438 C99.4688 161.3438 99.6562 161.1094 99.7969 160.5938 L100.0938 159.6719 C100.3906 159.5938 100.6562 159.5625 100.8906 159.5625 C101.9219 159.5625 102.5469 160.3125 102.5469 161.4219 C102.5469 162.4375 101.9844 163.4219 100.7031 164.9062 C100.125 165.5781 99.3906 166.4375 98.6406 167.2812 L98.6406 168 L103.9219 168 L103.9219 167.0938 L99.4219 167.0938 Z"
      /><rect x="97" y="174" width="8" style="fill:white; stroke:none;" height="8"
      /><path style="stroke:none;" d="M101.9844 179.7031 C101.9375 180.8906 101.1562 181.6562 100.3125 181.6562 C99.2656 181.6562 98.5 180.6875 98.5 178.7188 C98.5 177.2812 99.1562 176.1562 100.3438 176.1562 C101.1406 176.1562 101.7812 176.6875 102.0938 177.6406 L101.9844 179.7031 ZM103.9062 181.2812 C103.7344 181.375 103.5469 181.4219 103.3438 181.4219 C102.9531 181.4219 102.75 181.2188 102.75 180.4219 C102.75 179.4844 102.9688 177.5312 103.1875 175.8281 L103.0312 175.7188 L102.2344 175.9219 L102.1406 176.7969 C101.7812 176.0312 101.1562 175.6562 100.3906 175.6562 C99.0469 175.6562 97.5625 176.8438 97.5625 178.9531 C97.5625 181.0938 98.7188 182.1719 100.1406 182.1719 C101.0156 182.1719 101.6875 181.8125 102.0938 180.9844 C102.2031 181.8594 102.5156 182.1719 103.0156 182.1719 C103.4688 182.1719 103.7969 181.9062 104.0156 181.5625 L103.9062 181.2812 Z"
      /><rect x="71" y="148" width="6" style="fill:white; stroke:none;" height="10"
      /><path style="stroke:none;" d="M74.3438 157.6875 C73.2031 157.6875 72.5312 156.5 72.5312 154.2969 C72.5312 154.2188 72.5312 154.125 72.5312 154.0469 C73.0938 153.5 73.7188 153.3125 74.3438 153.3125 C75.3125 153.3125 75.9531 153.9844 75.9531 155.4531 C75.9531 156.9375 75.3125 157.6875 74.3438 157.6875 ZM76.5312 149.0781 C73.3438 149.4531 71.5625 151.7656 71.5625 154.4531 C71.5625 156.7812 72.6094 158.1719 74.3125 158.1719 C75.8438 158.1719 76.9219 157.1094 76.9219 155.2812 C76.9219 153.6875 75.9688 152.6562 74.5625 152.6562 C73.8281 152.6562 73.1406 152.9844 72.5781 153.5781 C72.7969 151.4062 74.0781 149.9688 76.5938 149.3906 L76.5312 149.0781 Z"
      /><rect x="57" y="146" width="6" style="fill:white; stroke:none;" height="13"
      /><path style="stroke:none;" d="M59.0938 152.2031 C59.0938 150.6562 59.75 149.8125 60.7969 149.8125 C61.7188 149.8125 62.2656 150.4531 62.2656 151.5156 C62.2656 152.7188 61.5 153.4375 60.1875 153.7031 L60.2969 154.3125 C62.2188 154.2344 62.9375 155.2188 62.9375 156.4375 C62.9375 157.625 62.2344 158.4219 60.9531 158.4219 C60.25 158.4219 59.6562 158.1562 59.0938 157.7188 L59.0938 152.2031 ZM58.2031 158.9062 L58.1094 161.375 L58.2656 161.4844 L59.1562 161.2656 L59.0156 158.0938 C59.5469 158.8438 60.3594 159.1719 61.1719 159.1719 C62.5625 159.1719 63.8594 158.2188 63.8594 156.4844 C63.8594 154.9531 62.875 154.1094 61.125 154 C62.5625 153.6094 63.1875 152.4531 63.1875 151.4844 C63.1875 150.0938 62.1562 149.3125 60.9062 149.3125 C59.2969 149.3125 58.2188 150.5469 58.2188 152.5156 L58.2031 158.9062 Z"
      /><polygon style="fill:none;" points=" 93 41 93 93"
      /><circle style="fill:white; clip-path:url(#clipPath5); stroke:none;" r="11" cx="93" cy="41"
      /><rect x="82" y="30" width="22" style="clip-path:url(#clipPath5); fill:rgb(255,212,0); stroke:none;" height="22"
      /><rect x="82" y="30" width="22" style="fill:none; clip-path:url(#clipPath5);" height="22"
      /><circle r="11" style="fill:none;" cx="93" cy="41"
      /><polygon style="fill:white; clip-path:url(#clipPath6); stroke:none;" points=" 93 82 104 104 82 104"
      /><rect x="82" y="82" width="22" style="clip-path:url(#clipPath6); fill:rgb(237,28,36); stroke:none;" height="22"
      /><rect x="82" y="82" width="22" style="fill:none; clip-path:url(#clipPath6);" height="22"
      /><polygon style="fill:none;" points=" 93 82 104 104 82 104"
      /><rect x="98" y="55" width="6" style="fill:white; stroke:none;" height="9"
      /><path style="stroke:none;" d="M99.4219 63.0938 C100.0781 62.375 100.7031 61.7188 101.0312 61.3438 C102.9219 59.3125 103.5312 58.4688 103.5312 57.3594 C103.5312 56.0156 102.7812 55.0781 101.1562 55.0781 C99.9062 55.0781 98.7969 55.7031 98.5938 56.9688 C98.7188 57.2031 98.9062 57.3438 99.1562 57.3438 C99.4688 57.3438 99.6562 57.1094 99.7969 56.5938 L100.0938 55.6719 C100.3906 55.5938 100.6562 55.5625 100.8906 55.5625 C101.9219 55.5625 102.5469 56.3125 102.5469 57.4219 C102.5469 58.4375 101.9844 59.4219 100.7031 60.9062 C100.125 61.5781 99.3906 62.4375 98.6406 63.2812 L98.6406 64 L103.9219 64 L103.9219 63.0938 L99.4219 63.0938 Z"
      /><rect x="97" y="70" width="8" style="fill:white; stroke:none;" height="8"
      /><path style="stroke:none;" d="M101.9844 75.7031 C101.9375 76.8906 101.1562 77.6562 100.3125 77.6562 C99.2656 77.6562 98.5 76.6875 98.5 74.7188 C98.5 73.2812 99.1562 72.1562 100.3438 72.1562 C101.1406 72.1562 101.7812 72.6875 102.0938 73.6406 L101.9844 75.7031 ZM103.9062 77.2812 C103.7344 77.375 103.5469 77.4219 103.3438 77.4219 C102.9531 77.4219 102.75 77.2188 102.75 76.4219 C102.75 75.4844 102.9688 73.5312 103.1875 71.8281 L103.0312 71.7188 L102.2344 71.9219 L102.1406 72.7969 C101.7812 72.0312 101.1562 71.6562 100.3906 71.6562 C99.0469 71.6562 97.5625 72.8438 97.5625 74.9531 C97.5625 77.0938 98.7188 78.1719 100.1406 78.1719 C101.0156 78.1719 101.6875 77.8125 102.0938 76.9844 C102.2031 77.8594 102.5156 78.1719 103.0156 78.1719 C103.4688 78.1719 103.7969 77.9062 104.0156 77.5625 L103.9062 77.2812 Z"
      /><rect x="131" y="110" width="6" style="fill:white; stroke:none;" height="10"
      /><path style="stroke:none;" d="M133.2344 111.6562 C133.5156 111.5938 133.7656 111.5625 134.0156 111.5625 C135.0625 111.5625 135.6719 112.1719 135.6719 113.2656 C135.6719 114.4375 134.9062 115.1094 133.7031 115.1094 L133.1875 115.1094 L133.1875 115.6406 L133.7969 115.6406 C135.2188 115.6406 135.9062 116.4219 135.9062 117.6406 C135.9062 118.8438 135.1719 119.6875 133.875 119.6875 C133.6094 119.6875 133.3125 119.6562 133.0156 119.5625 L132.7812 118.8125 C132.625 118.2812 132.5 118.0469 132.1406 118.0469 C131.8906 118.0469 131.7031 118.1719 131.5781 118.4219 C131.8438 119.6406 132.7812 120.1719 134.0312 120.1719 C135.7188 120.1719 136.875 119.125 136.875 117.7031 C136.875 116.5 136.2031 115.625 134.7969 115.375 C135.9531 115.0156 136.6094 114.2031 136.6094 113.2031 C136.6094 111.9219 135.6719 111.0781 134.1875 111.0781 C133.0469 111.0781 132.0625 111.5938 131.7969 112.6875 C131.9062 113 132.1094 113.1094 132.3594 113.1094 C132.7344 113.1094 132.8906 112.8906 133 112.4062 L133.2344 111.6562 Z"
      /><rect x="112" y="127" width="6" style="fill:white; stroke:none;" height="13"
      /><path style="stroke:none;" d="M114.0938 133.2031 C114.0938 131.6562 114.75 130.8125 115.7969 130.8125 C116.7188 130.8125 117.2656 131.4531 117.2656 132.5156 C117.2656 133.7188 116.5 134.4375 115.1875 134.7031 L115.2969 135.3125 C117.2188 135.2344 117.9375 136.2188 117.9375 137.4375 C117.9375 138.625 117.2344 139.4219 115.9531 139.4219 C115.25 139.4219 114.6562 139.1562 114.0938 138.7188 L114.0938 133.2031 ZM113.2031 139.9062 L113.1094 142.375 L113.2656 142.4844 L114.1562 142.2656 L114.0156 139.0938 C114.5469 139.8438 115.3594 140.1719 116.1719 140.1719 C117.5625 140.1719 118.8594 139.2188 118.8594 137.4844 C118.8594 135.9531 117.875 135.1094 116.125 135 C117.5625 134.6094 118.1875 133.4531 118.1875 132.4844 C118.1875 131.0938 117.1562 130.3125 115.9062 130.3125 C114.2969 130.3125 113.2188 131.5469 113.2188 133.5156 L113.2031 139.9062 Z"
      /><rect x="119" y="77" width="6" style="fill:white; stroke:none;" height="10"
      /><path style="stroke:none;" d="M122.3438 86.6875 C121.2031 86.6875 120.5312 85.5 120.5312 83.2969 C120.5312 83.2188 120.5312 83.125 120.5312 83.0469 C121.0938 82.5 121.7188 82.3125 122.3438 82.3125 C123.3125 82.3125 123.9531 82.9844 123.9531 84.4531 C123.9531 85.9375 123.3125 86.6875 122.3438 86.6875 ZM124.5312 78.0781 C121.3438 78.4531 119.5625 80.7656 119.5625 83.4531 C119.5625 85.7812 120.6094 87.1719 122.3125 87.1719 C123.8438 87.1719 124.9219 86.1094 124.9219 84.2812 C124.9219 82.6875 123.9688 81.6562 122.5625 81.6562 C121.8281 81.6562 121.1406 81.9844 120.5781 82.5781 C120.7969 80.4062 122.0781 78.9688 124.5938 78.3906 L124.5312 78.0781 Z"
      /><rect x="101" y="56" width="6" style="fill:white; stroke:none;" height="13"
      /><path style="stroke:none;" d="M103.0938 62.2031 C103.0938 60.6562 103.75 59.8125 104.7969 59.8125 C105.7188 59.8125 106.2656 60.4531 106.2656 61.5156 C106.2656 62.7188 105.5 63.4375 104.1875 63.7031 L104.2969 64.3125 C106.2188 64.2344 106.9375 65.2188 106.9375 66.4375 C106.9375 67.625 106.2344 68.4219 104.9531 68.4219 C104.25 68.4219 103.6562 68.1562 103.0938 67.7188 L103.0938 62.2031 ZM102.2031 68.9062 L102.1094 71.375 L102.2656 71.4844 L103.1562 71.2656 L103.0156 68.0938 C103.5469 68.8438 104.3594 69.1719 105.1719 69.1719 C106.5625 69.1719 107.8594 68.2188 107.8594 66.4844 C107.8594 64.9531 106.875 64.1094 105.125 64 C106.5625 63.6094 107.1875 62.4531 107.1875 61.4844 C107.1875 60.0938 106.1562 59.3125 104.9062 59.3125 C103.2969 59.3125 102.2188 60.5469 102.2188 62.5156 L102.2031 68.9062 Z"
      /><rect x="161" y="94" width="6" style="fill:white; stroke:none;" height="13"
      /><path style="stroke:none;" d="M163.0938 100.2031 C163.0938 98.6562 163.75 97.8125 164.7969 97.8125 C165.7188 97.8125 166.2656 98.4531 166.2656 99.5156 C166.2656 100.7188 165.5 101.4375 164.1875 101.7031 L164.2969 102.3125 C166.2188 102.2344 166.9375 103.2188 166.9375 104.4375 C166.9375 105.625 166.2344 106.4219 164.9531 106.4219 C164.25 106.4219 163.6562 106.1562 163.0938 105.7188 L163.0938 100.2031 ZM162.2031 106.9062 L162.1094 109.375 L162.2656 109.4844 L163.1562 109.2656 L163.0156 106.0938 C163.5469 106.8438 164.3594 107.1719 165.1719 107.1719 C166.5625 107.1719 167.8594 106.2188 167.8594 104.4844 C167.8594 102.9531 166.875 102.1094 165.125 102 C166.5625 101.6094 167.1875 100.4531 167.1875 99.4844 C167.1875 98.0938 166.1562 97.3125 164.9062 97.3125 C163.2969 97.3125 162.2188 98.5469 162.2188 100.5156 L162.2031 106.9062 Z"
    /></g
  ></g
></svg
>
