<?xml version="1.0"?>
<!DOCTYPE svg PUBLIC '-//W3C//DTD SVG 1.0//EN'
          'http://www.w3.org/TR/2001/REC-SVG-20010904/DTD/svg10.dtd'>
<svg xmlns:xlink="http://www.w3.org/1999/xlink" style="fill-opacity:1; color-rendering:auto; color-interpolation:auto; text-rendering:auto; stroke:black; stroke-linecap:square; stroke-miterlimit:10; shape-rendering:auto; stroke-opacity:1; fill:black; stroke-dasharray:none; font-weight:normal; stroke-width:1; font-family:'Dialog'; font-style:normal; stroke-linejoin:miter; font-size:12px; stroke-dashoffset:0; image-rendering:auto;" viewBox="0 0 342 105" xmlns="http://www.w3.org/2000/svg"
><!--Generated by the Batik Graphics2D SVG Generator--><defs id="genericDefs"
  /><g
  ><defs id="defs1"
    ><clipPath clipPathUnits="userSpaceOnUse" id="clipPath1"
      ><path d="M238 53 L260 53 L260 75 L238 75 L238 53 Z"
      /></clipPath
      ><clipPath clipPathUnits="userSpaceOnUse" id="clipPath2"
      ><path style="fill-rule:evenodd;" d="M197 53 L208 64 L197 75 L186 64 Z"
      /></clipPath
      ><clipPath clipPathUnits="userSpaceOnUse" id="clipPath3"
      ><path d="M134 53 L156 53 L156 75 L134 75 L134 53 Z"
      /></clipPath
      ><clipPath clipPathUnits="userSpaceOnUse" id="clipPath4"
      ><path style="fill-rule:evenodd;" d="M93 53 L104 64 L93 75 L82 64 Z"
      /></clipPath
      ><clipPath clipPathUnits="userSpaceOnUse" id="clipPath5"
      ><path d="M30 53 L52 53 L52 75 L30 75 L30 53 Z"
      /></clipPath
    ></defs
    ><g style="fill:white; text-rendering:optimizeSpeed; stroke:white;"
    ><rect x="0" width="342" height="105" y="0" style="stroke:none;"
      /><polygon style="fill:none; stroke:black;" points=" 301 64 249 64"
      /><path d="M301 53 C295.5 58.5 306.5 69.5 301 75" style="fill:none; stroke:black;"
      /><polygon style="fill:none; stroke:black;" points=" 249 64 197 64"
      /><rect x="238" y="53" width="22" style="clip-path:url(#clipPath1); stroke:none;" height="22"
      /><rect x="238" y="53" width="22" style="clip-path:url(#clipPath1); fill:rgb(255,212,0); stroke:none;" height="22"
      /><rect x="238" y="53" width="22" style="clip-path:url(#clipPath1); fill:none; stroke:black;" height="22"
      /><rect x="238" y="53" width="22" style="fill:none; stroke:black;" height="22"
      /><rect x="241" y="35" width="15" style="stroke:none;" height="10"
    /></g
    ><g style="text-rendering:optimizeSpeed; font-size:14px; font-family:'SansSerif';"
    ><path style="stroke:none;" d="M242.6094 42.1562 L244.9531 38.6562 C245.2344 38.1406 245.5156 37.6406 245.7812 37.1406 L245.8281 37.1406 C245.7969 37.6719 245.7656 38.5 245.7656 39 L245.7656 42.1562 L242.6094 42.1562 ZM245.7656 46 L246.9688 46 L246.9688 43.1719 L248.3281 43.1719 L248.3281 42.1562 L246.9688 42.1562 L246.9688 35.7188 L245.5469 35.7188 L241.2812 42.3281 L241.2812 43.1719 L245.7656 43.1719 L245.7656 46 ZM253.02 46.1875 C255.1606 46.1875 256.5043 44.8906 256.5043 43.2656 C256.5043 41.75 255.5825 41.0469 254.395 40.5312 L252.9262 39.8906 C252.1293 39.5625 251.2387 39.1875 251.2387 38.1875 C251.2387 37.2656 251.9887 36.6719 253.145 36.6719 C254.0981 36.6719 254.8637 37.0469 255.4887 37.6406 L256.1762 36.8125 C255.4418 36.0625 254.3637 35.5469 253.145 35.5469 C251.2856 35.5469 249.9106 36.6875 249.9106 38.2656 C249.9106 39.7656 251.0512 40.5 252.0043 40.9062 L253.4887 41.5469 C254.4575 41.9844 255.1918 42.3125 255.1918 43.375 C255.1918 44.375 254.3793 45.0469 253.0356 45.0469 C251.9731 45.0469 250.9418 44.5469 250.2075 43.7812 L249.4262 44.6562 C250.3168 45.5938 251.5668 46.1875 253.02 46.1875 Z"
      /><polygon style="fill:none;" points=" 197 64 145 64"
    /></g
    ><g style="fill:white; text-rendering:optimizeSpeed; stroke:white;"
    ><polygon style="stroke:none; clip-path:url(#clipPath2);" points=" 197 53 208 64 197 75 186 64"
      /><rect x="186" y="53" width="22" style="clip-path:url(#clipPath2); fill:rgb(0,144,188); stroke:none;" height="11"
      /><rect x="186" y="53" width="22" style="clip-path:url(#clipPath2); fill:none; stroke:black;" height="11"
      /><polygon style="fill:none; stroke:black;" points=" 197 53 208 64 197 75 186 64"
      /><polygon style="fill:none; stroke:black;" points=" 145 64 93 64"
      /><rect x="134" y="53" width="22" style="clip-path:url(#clipPath3); stroke:none;" height="22"
      /><rect x="134" y="53" width="22" style="clip-path:url(#clipPath3); fill:rgb(255,212,0); stroke:none;" height="22"
      /><rect x="134" y="53" width="22" style="clip-path:url(#clipPath3); fill:none; stroke:black;" height="22"
      /><rect x="134" y="53" width="22" style="fill:none; stroke:black;" height="22"
      /><rect x="137" width="15" height="10" y="35" style="stroke:none;"
    /></g
    ><g style="text-rendering:optimizeSpeed; font-size:14px; font-family:'SansSerif';"
    ><path style="stroke:none;" d="M138.6094 42.1562 L140.9531 38.6562 C141.2344 38.1406 141.5156 37.6406 141.7812 37.1406 L141.8281 37.1406 C141.7969 37.6719 141.7656 38.5 141.7656 39 L141.7656 42.1562 L138.6094 42.1562 ZM141.7656 46 L142.9688 46 L142.9688 43.1719 L144.3281 43.1719 L144.3281 42.1562 L142.9688 42.1562 L142.9688 35.7188 L141.5469 35.7188 L137.2812 42.3281 L137.2812 43.1719 L141.7656 43.1719 L141.7656 46 ZM149.02 46.1875 C151.1606 46.1875 152.5043 44.8906 152.5043 43.2656 C152.5043 41.75 151.5825 41.0469 150.395 40.5312 L148.9262 39.8906 C148.1293 39.5625 147.2387 39.1875 147.2387 38.1875 C147.2387 37.2656 147.9887 36.6719 149.145 36.6719 C150.0981 36.6719 150.8637 37.0469 151.4887 37.6406 L152.1762 36.8125 C151.4418 36.0625 150.3637 35.5469 149.145 35.5469 C147.2856 35.5469 145.9106 36.6875 145.9106 38.2656 C145.9106 39.7656 147.0512 40.5 148.0043 40.9062 L149.4887 41.5469 C150.4575 41.9844 151.1918 42.3125 151.1918 43.375 C151.1918 44.375 150.3793 45.0469 149.0356 45.0469 C147.9731 45.0469 146.9418 44.5469 146.2075 43.7812 L145.4262 44.6562 C146.3168 45.5938 147.5668 46.1875 149.02 46.1875 Z"
      /><polygon style="fill:none;" points=" 93 64 41 64"
    /></g
    ><g style="fill:white; text-rendering:optimizeSpeed; stroke:white;"
    ><polygon style="stroke:none; clip-path:url(#clipPath4);" points=" 93 53 104 64 93 75 82 64"
      /><rect x="82" y="53" width="22" style="clip-path:url(#clipPath4); fill:rgb(0,144,188); stroke:none;" height="11"
      /><rect x="82" y="53" width="22" style="clip-path:url(#clipPath4); fill:none; stroke:black;" height="11"
      /><polygon style="fill:none; stroke:black;" points=" 93 53 104 64 93 75 82 64"
      /><rect x="30" y="53" width="22" style="clip-path:url(#clipPath5); stroke:none;" height="22"
      /><rect x="30" y="53" width="22" style="clip-path:url(#clipPath5); fill:rgb(255,212,0); stroke:none;" height="22"
      /><rect x="30" y="53" width="22" style="clip-path:url(#clipPath5); fill:none; stroke:black;" height="22"
      /><rect x="30" y="53" width="22" style="fill:none; stroke:black;" height="22"
      /><rect x="33" width="15" height="10" y="35" style="stroke:none;"
    /></g
    ><g style="text-rendering:optimizeSpeed; font-size:14px; font-family:'SansSerif';"
    ><path style="stroke:none;" d="M34.6094 42.1562 L36.9531 38.6562 C37.2344 38.1406 37.5156 37.6406 37.7812 37.1406 L37.8281 37.1406 C37.7969 37.6719 37.7656 38.5 37.7656 39 L37.7656 42.1562 L34.6094 42.1562 ZM37.7656 46 L38.9688 46 L38.9688 43.1719 L40.3281 43.1719 L40.3281 42.1562 L38.9688 42.1562 L38.9688 35.7188 L37.5469 35.7188 L33.2812 42.3281 L33.2812 43.1719 L37.7656 43.1719 L37.7656 46 ZM45.02 46.1875 C47.1606 46.1875 48.5043 44.8906 48.5043 43.2656 C48.5043 41.75 47.5825 41.0469 46.395 40.5312 L44.9262 39.8906 C44.1293 39.5625 43.2387 39.1875 43.2387 38.1875 C43.2387 37.2656 43.9887 36.6719 45.145 36.6719 C46.0981 36.6719 46.8637 37.0469 47.4887 37.6406 L48.1762 36.8125 C47.4418 36.0625 46.3637 35.5469 45.145 35.5469 C43.2856 35.5469 41.9106 36.6875 41.9106 38.2656 C41.9106 39.7656 43.0512 40.5 44.0043 40.9062 L45.4887 41.5469 C46.4575 41.9844 47.1918 42.3125 47.1918 43.375 C47.1918 44.375 46.3793 45.0469 45.0356 45.0469 C43.9731 45.0469 42.9418 44.5469 42.2075 43.7812 L41.4262 44.6562 C42.3168 45.5938 43.5668 46.1875 45.02 46.1875 Z"
    /></g
    ><g style="fill:white; text-rendering:optimizeSpeed; font-family:'Serif'; stroke:white;"
    ><rect x="71" width="5" height="10" y="67" style="stroke:none;"
      /><path d="M72.8906 75.6875 C72.4844 75.6875 72.1562 76.0469 72.1562 76.4219 C72.1562 76.8125 72.4844 77.1562 72.8906 77.1562 C73.2969 77.1562 73.6406 76.8125 73.6406 76.4219 C73.6406 76.0469 73.2969 75.6875 72.8906 75.6875 ZM74.4688 69.5781 C74.7188 69.8906 74.875 70.2656 74.8906 70.6562 C74.8906 71.1875 74.625 71.5 74.0312 71.7656 L73.4062 72.0156 C72.6406 72.3125 72.3906 72.5469 72.3906 72.9375 C72.3906 73.1094 72.4531 73.3438 72.5781 73.8125 L72.7344 74.3438 L73.1094 74.3438 L73.0938 73.5312 C73.0938 73.0938 73.2031 72.9688 73.7812 72.7344 L74.2031 72.5625 C75.0312 72.2188 75.4531 71.6875 75.4531 70.8438 C75.4531 69.1562 73.6562 68.1875 72.5 68.0312 C72.1094 68.125 71.9062 68.2969 71.9062 68.6406 C71.9062 68.9375 72.0625 69.1562 72.7188 69.2656 L74.4688 69.5781 Z" style="fill:black; stroke:none;"
      /><rect x="57" width="5" height="10" y="67" style="stroke:none;"
      /><path d="M58.8906 75.6875 C58.4844 75.6875 58.1562 76.0469 58.1562 76.4219 C58.1562 76.8125 58.4844 77.1562 58.8906 77.1562 C59.2969 77.1562 59.6406 76.8125 59.6406 76.4219 C59.6406 76.0469 59.2969 75.6875 58.8906 75.6875 ZM60.4688 69.5781 C60.7188 69.8906 60.875 70.2656 60.8906 70.6562 C60.8906 71.1875 60.625 71.5 60.0312 71.7656 L59.4062 72.0156 C58.6406 72.3125 58.3906 72.5469 58.3906 72.9375 C58.3906 73.1094 58.4531 73.3438 58.5781 73.8125 L58.7344 74.3438 L59.1094 74.3438 L59.0938 73.5312 C59.0938 73.0938 59.2031 72.9688 59.7812 72.7344 L60.2031 72.5625 C61.0312 72.2188 61.4531 71.6875 61.4531 70.8438 C61.4531 69.1562 59.6562 68.1875 58.5 68.0312 C58.1094 68.125 57.9062 68.2969 57.9062 68.6406 C57.9062 68.9375 58.0625 69.1562 58.7188 69.2656 L60.4688 69.5781 Z" style="fill:black; stroke:none;"
      /><rect x="123" width="5" height="10" y="67" style="stroke:none;"
      /><path d="M124.8906 75.6875 C124.4844 75.6875 124.1562 76.0469 124.1562 76.4219 C124.1562 76.8125 124.4844 77.1562 124.8906 77.1562 C125.2969 77.1562 125.6406 76.8125 125.6406 76.4219 C125.6406 76.0469 125.2969 75.6875 124.8906 75.6875 ZM126.4688 69.5781 C126.7188 69.8906 126.875 70.2656 126.8906 70.6562 C126.8906 71.1875 126.625 71.5 126.0312 71.7656 L125.4062 72.0156 C124.6406 72.3125 124.3906 72.5469 124.3906 72.9375 C124.3906 73.1094 124.4531 73.3438 124.5781 73.8125 L124.7344 74.3438 L125.1094 74.3438 L125.0938 73.5312 C125.0938 73.0938 125.2031 72.9688 125.7812 72.7344 L126.2031 72.5625 C127.0312 72.2188 127.4531 71.6875 127.4531 70.8438 C127.4531 69.1562 125.6562 68.1875 124.5 68.0312 C124.1094 68.125 123.9062 68.2969 123.9062 68.6406 C123.9062 68.9375 124.0625 69.1562 124.7188 69.2656 L126.4688 69.5781 Z" style="fill:black; stroke:none;"
      /><rect x="109" width="5" height="10" y="67" style="stroke:none;"
      /><path d="M110.8906 75.6875 C110.4844 75.6875 110.1562 76.0469 110.1562 76.4219 C110.1562 76.8125 110.4844 77.1562 110.8906 77.1562 C111.2969 77.1562 111.6406 76.8125 111.6406 76.4219 C111.6406 76.0469 111.2969 75.6875 110.8906 75.6875 ZM112.4688 69.5781 C112.7188 69.8906 112.875 70.2656 112.8906 70.6562 C112.8906 71.1875 112.625 71.5 112.0312 71.7656 L111.4062 72.0156 C110.6406 72.3125 110.3906 72.5469 110.3906 72.9375 C110.3906 73.1094 110.4531 73.3438 110.5781 73.8125 L110.7344 74.3438 L111.1094 74.3438 L111.0938 73.5312 C111.0938 73.0938 111.2031 72.9688 111.7812 72.7344 L112.2031 72.5625 C113.0312 72.2188 113.4531 71.6875 113.4531 70.8438 C113.4531 69.1562 111.6562 68.1875 110.5 68.0312 C110.1094 68.125 109.9062 68.2969 109.9062 68.6406 C109.9062 68.9375 110.0625 69.1562 110.7188 69.2656 L112.4688 69.5781 Z" style="fill:black; stroke:none;"
      /><rect x="175" width="5" height="10" y="67" style="stroke:none;"
      /><path d="M176.8906 75.6875 C176.4844 75.6875 176.1562 76.0469 176.1562 76.4219 C176.1562 76.8125 176.4844 77.1562 176.8906 77.1562 C177.2969 77.1562 177.6406 76.8125 177.6406 76.4219 C177.6406 76.0469 177.2969 75.6875 176.8906 75.6875 ZM178.4688 69.5781 C178.7188 69.8906 178.875 70.2656 178.8906 70.6562 C178.8906 71.1875 178.625 71.5 178.0312 71.7656 L177.4062 72.0156 C176.6406 72.3125 176.3906 72.5469 176.3906 72.9375 C176.3906 73.1094 176.4531 73.3438 176.5781 73.8125 L176.7344 74.3438 L177.1094 74.3438 L177.0938 73.5312 C177.0938 73.0938 177.2031 72.9688 177.7812 72.7344 L178.2031 72.5625 C179.0312 72.2188 179.4531 71.6875 179.4531 70.8438 C179.4531 69.1562 177.6562 68.1875 176.5 68.0312 C176.1094 68.125 175.9062 68.2969 175.9062 68.6406 C175.9062 68.9375 176.0625 69.1562 176.7188 69.2656 L178.4688 69.5781 Z" style="fill:black; stroke:none;"
      /><rect x="161" width="5" height="10" y="67" style="stroke:none;"
      /><path d="M162.8906 75.6875 C162.4844 75.6875 162.1562 76.0469 162.1562 76.4219 C162.1562 76.8125 162.4844 77.1562 162.8906 77.1562 C163.2969 77.1562 163.6406 76.8125 163.6406 76.4219 C163.6406 76.0469 163.2969 75.6875 162.8906 75.6875 ZM164.4688 69.5781 C164.7188 69.8906 164.875 70.2656 164.8906 70.6562 C164.8906 71.1875 164.625 71.5 164.0312 71.7656 L163.4062 72.0156 C162.6406 72.3125 162.3906 72.5469 162.3906 72.9375 C162.3906 73.1094 162.4531 73.3438 162.5781 73.8125 L162.7344 74.3438 L163.1094 74.3438 L163.0938 73.5312 C163.0938 73.0938 163.2031 72.9688 163.7812 72.7344 L164.2031 72.5625 C165.0312 72.2188 165.4531 71.6875 165.4531 70.8438 C165.4531 69.1562 163.6562 68.1875 162.5 68.0312 C162.1094 68.125 161.9062 68.2969 161.9062 68.6406 C161.9062 68.9375 162.0625 69.1562 162.7188 69.2656 L164.4688 69.5781 Z" style="fill:black; stroke:none;"
      /><rect x="227" width="5" height="10" y="67" style="stroke:none;"
      /><path d="M228.8906 75.6875 C228.4844 75.6875 228.1562 76.0469 228.1562 76.4219 C228.1562 76.8125 228.4844 77.1562 228.8906 77.1562 C229.2969 77.1562 229.6406 76.8125 229.6406 76.4219 C229.6406 76.0469 229.2969 75.6875 228.8906 75.6875 ZM230.4688 69.5781 C230.7188 69.8906 230.875 70.2656 230.8906 70.6562 C230.8906 71.1875 230.625 71.5 230.0312 71.7656 L229.4062 72.0156 C228.6406 72.3125 228.3906 72.5469 228.3906 72.9375 C228.3906 73.1094 228.4531 73.3438 228.5781 73.8125 L228.7344 74.3438 L229.1094 74.3438 L229.0938 73.5312 C229.0938 73.0938 229.2031 72.9688 229.7812 72.7344 L230.2031 72.5625 C231.0312 72.2188 231.4531 71.6875 231.4531 70.8438 C231.4531 69.1562 229.6562 68.1875 228.5 68.0312 C228.1094 68.125 227.9062 68.2969 227.9062 68.6406 C227.9062 68.9375 228.0625 69.1562 228.7188 69.2656 L230.4688 69.5781 Z" style="fill:black; stroke:none;"
      /><rect x="213" width="5" height="10" y="67" style="stroke:none;"
      /><path d="M214.8906 75.6875 C214.4844 75.6875 214.1562 76.0469 214.1562 76.4219 C214.1562 76.8125 214.4844 77.1562 214.8906 77.1562 C215.2969 77.1562 215.6406 76.8125 215.6406 76.4219 C215.6406 76.0469 215.2969 75.6875 214.8906 75.6875 ZM216.4688 69.5781 C216.7188 69.8906 216.875 70.2656 216.8906 70.6562 C216.8906 71.1875 216.625 71.5 216.0312 71.7656 L215.4062 72.0156 C214.6406 72.3125 214.3906 72.5469 214.3906 72.9375 C214.3906 73.1094 214.4531 73.3438 214.5781 73.8125 L214.7344 74.3438 L215.1094 74.3438 L215.0938 73.5312 C215.0938 73.0938 215.2031 72.9688 215.7812 72.7344 L216.2031 72.5625 C217.0312 72.2188 217.4531 71.6875 217.4531 70.8438 C217.4531 69.1562 215.6562 68.1875 214.5 68.0312 C214.1094 68.125 213.9062 68.2969 213.9062 68.6406 C213.9062 68.9375 214.0625 69.1562 214.7188 69.2656 L216.4688 69.5781 Z" style="fill:black; stroke:none;"
      /><rect x="265" width="5" height="10" y="67" style="stroke:none;"
      /><path d="M266.8906 75.6875 C266.4844 75.6875 266.1562 76.0469 266.1562 76.4219 C266.1562 76.8125 266.4844 77.1562 266.8906 77.1562 C267.2969 77.1562 267.6406 76.8125 267.6406 76.4219 C267.6406 76.0469 267.2969 75.6875 266.8906 75.6875 ZM268.4688 69.5781 C268.7188 69.8906 268.875 70.2656 268.8906 70.6562 C268.8906 71.1875 268.625 71.5 268.0312 71.7656 L267.4062 72.0156 C266.6406 72.3125 266.3906 72.5469 266.3906 72.9375 C266.3906 73.1094 266.4531 73.3438 266.5781 73.8125 L266.7344 74.3438 L267.1094 74.3438 L267.0938 73.5312 C267.0938 73.0938 267.2031 72.9688 267.7812 72.7344 L268.2031 72.5625 C269.0312 72.2188 269.4531 71.6875 269.4531 70.8438 C269.4531 69.1562 267.6562 68.1875 266.5 68.0312 C266.1094 68.125 265.9062 68.2969 265.9062 68.6406 C265.9062 68.9375 266.0625 69.1562 266.7188 69.2656 L268.4688 69.5781 Z" style="fill:black; stroke:none;"
    /></g
  ></g
></svg
>
