<?xml version="1.0"?>
<!DOCTYPE svg PUBLIC '-//W3C//DTD SVG 1.0//EN'
          'http://www.w3.org/TR/2001/REC-SVG-20010904/DTD/svg10.dtd'>
<svg xmlns:xlink="http://www.w3.org/1999/xlink" style="fill-opacity:1; color-rendering:auto; color-interpolation:auto; text-rendering:auto; stroke:black; stroke-linecap:square; stroke-miterlimit:10; shape-rendering:auto; stroke-opacity:1; fill:black; stroke-dasharray:none; font-weight:normal; stroke-width:1; font-family:'Dialog'; font-style:normal; stroke-linejoin:miter; font-size:12px; stroke-dashoffset:0; image-rendering:auto;" viewBox="0 0 134 143" xmlns="http://www.w3.org/2000/svg"
><!--Generated by the Batik Graphics2D SVG Generator--><defs id="genericDefs"
  /><g
  ><defs id="defs1"
    ><clipPath clipPathUnits="userSpaceOnUse" id="clipPath1"
      ><path style="fill-rule:evenodd;" d="M41 53 L51 60 L47 72 L34 72 L30 60 L41 53 Z"
      /></clipPath
    ></defs
    ><g style="fill:white; text-rendering:optimizeSpeed; stroke:white;"
    ><rect x="0" width="134" height="143" y="0" style="stroke:none;"
      /><polygon style="fill:none; stroke:black;" points=" 93 64 41 64"
      /><path d="M93 53 C87.5 58.5 98.5 69.5 93 75" style="fill:none; stroke:black;"
      /><polygon style="clip-path:url(#clipPath1); stroke:none;" points=" 41 53 51 60 47 72 34 72 30 60 41 53"
      /><rect x="30" y="53" width="22" style="clip-path:url(#clipPath1); stroke:none;" height="22"
      /><rect x="30" y="53" width="22" style="clip-path:url(#clipPath1); fill:none; stroke:black;" height="22"
      /><polygon style="fill:none; stroke:black;" points=" 41 53 51 60 47 72 34 72 30 60 41 53"
    /></g
    ><g style="text-rendering:optimizeSpeed; font-size:14px; font-family:'SansSerif';"
    ><path style="stroke:none;" d="M39.2344 69 L44.8594 69 L44.8594 67.9375 L42.7969 67.9375 L42.7969 58.7188 L41.8281 58.7188 C41.2656 59.0625 40.6094 59.2969 39.6875 59.4688 L39.6875 60.2812 L41.5156 60.2812 L41.5156 67.9375 L39.2344 67.9375 L39.2344 69 Z"
      /><rect x="33" y="81" width="14" style="fill:white; stroke:none;" height="11"
      /><path style="stroke:none;" d="M36.7031 92.1875 C38.5156 92.1875 39.9844 91.0938 39.9844 89.25 C39.9844 87.8594 39.0156 86.9375 37.8125 86.6562 L37.8125 86.5938 C38.8906 86.1875 39.6406 85.3594 39.6406 84.125 C39.6406 82.5 38.375 81.5469 36.6562 81.5469 C35.4688 81.5469 34.5469 82.0625 33.7812 82.7812 L34.4688 83.5938 C35.0469 83 35.7656 82.5938 36.5938 82.5938 C37.6562 82.5938 38.3281 83.2344 38.3281 84.2188 C38.3281 85.3281 37.6094 86.1719 35.4844 86.1719 L35.4844 87.1562 C37.8594 87.1562 38.6875 87.9844 38.6875 89.2031 C38.6875 90.3906 37.8125 91.125 36.5938 91.125 C35.4375 91.125 34.6562 90.5781 34.0469 89.9375 L33.4062 90.7812 C34.0781 91.5156 35.0938 92.1875 36.7031 92.1875 ZM44.645 92.1875 C45.5512 92.1875 46.3637 91.6875 46.9575 91.1094 L47.0043 91.1094 L47.1137 92 L48.145 92 L48.145 80.8594 L46.895 80.8594 L46.895 83.7812 L46.9418 85.0938 C46.27 84.5312 45.6918 84.2031 44.8012 84.2031 C43.0668 84.2031 41.5043 85.7344 41.5043 88.2031 C41.5043 90.7344 42.7387 92.1875 44.645 92.1875 ZM44.9262 91.125 C43.5825 91.125 42.8325 90.0312 42.8325 88.1875 C42.8325 86.4531 43.8012 85.2812 45.02 85.2812 C45.6606 85.2812 46.2231 85.5 46.895 86.0781 L46.895 90.0625 C46.2387 90.7656 45.6293 91.125 44.9262 91.125 Z"
      /><rect x="33" y="35" width="14" style="fill:white; stroke:none;" height="11"
      /><path style="stroke:none;" d="M34.6094 42.1562 L36.9531 38.6562 C37.2344 38.1406 37.5156 37.6406 37.7812 37.1406 L37.8281 37.1406 C37.7969 37.6719 37.7656 38.5 37.7656 39 L37.7656 42.1562 L34.6094 42.1562 ZM37.7656 46 L38.9688 46 L38.9688 43.1719 L40.3281 43.1719 L40.3281 42.1562 L38.9688 42.1562 L38.9688 35.7188 L37.5469 35.7188 L33.2812 42.3281 L33.2812 43.1719 L37.7656 43.1719 L37.7656 46 ZM44.645 46.1875 C45.5512 46.1875 46.3637 45.6875 46.9575 45.1094 L47.0043 45.1094 L47.1137 46 L48.145 46 L48.145 34.8594 L46.895 34.8594 L46.895 37.7812 L46.9418 39.0938 C46.27 38.5312 45.6918 38.2031 44.8012 38.2031 C43.0668 38.2031 41.5043 39.7344 41.5043 42.2031 C41.5043 44.7344 42.7387 46.1875 44.645 46.1875 ZM44.9262 45.125 C43.5825 45.125 42.8325 44.0312 42.8325 42.1875 C42.8325 40.4531 43.8012 39.2812 45.02 39.2812 C45.6606 39.2812 46.2231 39.5 46.895 40.0781 L46.895 44.0625 C46.2387 44.7656 45.6293 45.125 44.9262 45.125 Z"
    /></g
    ><g style="fill:white; text-rendering:optimizeSpeed; font-family:'Serif'; stroke:white;"
    ><rect x="56" width="8" height="8" y="68" style="stroke:none;"
      /><path d="M60.9844 73.7031 C60.9375 74.8906 60.1562 75.6562 59.3125 75.6562 C58.2656 75.6562 57.5 74.6875 57.5 72.7188 C57.5 71.2812 58.1562 70.1562 59.3438 70.1562 C60.1406 70.1562 60.7812 70.6875 61.0938 71.6406 L60.9844 73.7031 ZM62.9062 75.2812 C62.7344 75.375 62.5469 75.4219 62.3438 75.4219 C61.9531 75.4219 61.75 75.2188 61.75 74.4219 C61.75 73.4844 61.9688 71.5312 62.1875 69.8281 L62.0312 69.7188 L61.2344 69.9219 L61.1406 70.7969 C60.7812 70.0312 60.1562 69.6562 59.3906 69.6562 C58.0469 69.6562 56.5625 70.8438 56.5625 72.9531 C56.5625 75.0938 57.7188 76.1719 59.1406 76.1719 C60.0156 76.1719 60.6875 75.8125 61.0938 74.9844 C61.2031 75.8594 61.5156 76.1719 62.0156 76.1719 C62.4688 76.1719 62.7969 75.9062 63.0156 75.5625 L62.9062 75.2812 Z" style="fill:black; stroke:none;"
    /></g
    ><g ID="legend-1:0" style="text-rendering:optimizeSpeed; font-size:10px; font-family:'SansSerif';"
    ><path style="stroke:none;" d="M30.875 113 L34.9062 113 L34.9062 112.2344 L33.4375 112.2344 L33.4375 105.6562 L32.7344 105.6562 C32.3281 105.9062 31.8594 106.0625 31.2031 106.1875 L31.2031 106.7656 L32.5156 106.7656 L32.5156 112.2344 L30.875 112.2344 L30.875 113 ZM35.925 108.4531 L40.7219 108.4531 L40.7219 107.7656 L35.925 107.7656 L35.925 108.4531 ZM35.925 110.8438 L40.7219 110.8438 L40.7219 110.1719 L35.925 110.1719 L35.925 110.8438 ZM43.7094 113.125 C44.4125 113.125 44.975 112.7656 45.3969 112.0312 L45.4281 112.0312 C45.4125 112.7969 45.85 113.125 46.5062 113.125 C46.8187 113.125 47.0375 113.0625 47.1937 112.9844 L47.0531 112.2969 C46.9437 112.3438 46.8031 112.375 46.6937 112.375 C46.3969 112.375 46.1469 112.1875 46.1469 111.8125 C46.1469 110.8125 46.5375 109 46.8344 107.5625 L45.9281 107.5625 L45.6937 108.8594 L45.6625 108.8594 C45.3656 107.8125 44.6625 107.4375 43.9906 107.4375 C42.7406 107.4375 41.6156 108.5156 41.6156 110.375 C41.6156 112.1562 42.475 113.125 43.7094 113.125 ZM43.8969 112.375 C43.0531 112.375 42.5531 111.6406 42.5531 110.375 C42.5531 108.9375 43.3031 108.2031 44.0844 108.2031 C44.6 108.2031 45.1625 108.4688 45.4594 109.6562 L45.3812 110.6875 C45.3031 111.5938 44.6156 112.375 43.8969 112.375 ZM47.8031 110.5469 L50.3656 110.5469 L50.3656 109.8438 L47.8031 109.8438 L47.8031 110.5469 ZM53.4606 113.125 C54.7575 113.125 55.8044 112.3438 55.8044 111.0469 C55.8044 110.0469 55.1169 109.375 54.2575 109.1875 L54.2575 109.1406 C55.0231 108.8438 55.5544 108.2656 55.5544 107.375 C55.5544 106.2031 54.6637 105.5312 53.4294 105.5312 C52.5856 105.5312 51.9294 105.9062 51.3825 106.4062 L51.8669 106.9844 C52.2731 106.5625 52.8044 106.2812 53.3825 106.2812 C54.1481 106.2812 54.6325 106.7344 54.6325 107.4375 C54.6325 108.2344 54.1169 108.8438 52.6012 108.8438 L52.6012 109.5469 C54.2887 109.5469 54.8825 110.125 54.8825 111 C54.8825 111.8438 54.2575 112.375 53.3825 112.375 C52.5544 112.375 52.0075 111.9844 51.57 111.5312 L51.1169 112.125 C51.5856 112.6562 52.3044 113.125 53.4606 113.125 ZM57.12 114.9062 C58.0262 114.5156 58.5731 113.7656 58.5731 112.8125 C58.5731 112.1406 58.2918 111.7344 57.8075 111.7344 C57.4325 111.7344 57.12 111.9844 57.12 112.375 C57.12 112.7969 57.4325 113.0156 57.7918 113.0156 C57.8231 113.0156 57.8543 113.0156 57.9012 113 C57.9012 113.5938 57.5262 114.0781 56.9012 114.3594 L57.12 114.9062 ZM60.3062 110.25 L61.9625 107.75 C62.1812 107.3906 62.3843 107.0312 62.5562 106.6719 L62.6031 106.6719 C62.5875 107.0469 62.5562 107.6406 62.5562 108 L62.5562 110.25 L60.3062 110.25 ZM62.5562 113 L63.4156 113 L63.4156 110.9844 L64.3843 110.9844 L64.3843 110.25 L63.4156 110.25 L63.4156 105.6562 L62.4 105.6562 L59.3531 110.375 L59.3531 110.9844 L62.5562 110.9844 L62.5562 113 ZM65.1531 110.5469 L67.7156 110.5469 L67.7156 109.8438 L65.1531 109.8438 L65.1531 110.5469 ZM70.9356 113.125 C71.5918 113.125 72.1543 112.7812 72.5918 112.3594 L72.6231 112.3594 L72.7012 113 L73.4356 113 L73.4356 105.0469 L72.545 105.0469 L72.545 107.125 L72.5762 108.0625 C72.1075 107.6719 71.6856 107.4375 71.045 107.4375 C69.8106 107.4375 68.7012 108.5312 68.7012 110.2969 C68.7012 112.0938 69.5762 113.125 70.9356 113.125 ZM71.1387 112.375 C70.1856 112.375 69.6387 111.5938 69.6387 110.2812 C69.6387 109.0469 70.3262 108.2031 71.2168 108.2031 C71.6543 108.2031 72.0762 108.3594 72.545 108.7656 L72.545 111.625 C72.0762 112.125 71.6387 112.375 71.1387 112.375 ZM75.2918 113 L76.1981 113 L76.1981 107.5625 L75.2918 107.5625 L75.2918 113 ZM75.7449 106.4531 C76.1043 106.4531 76.3543 106.2031 76.3543 105.8438 C76.3543 105.4844 76.1043 105.25 75.7449 105.25 C75.3856 105.25 75.1356 105.4844 75.1356 105.8438 C75.1356 106.2031 75.3856 106.4531 75.7449 106.4531 ZM79.8856 113.125 C80.5418 113.125 81.1043 112.7812 81.5418 112.3594 L81.5731 112.3594 L81.6512 113 L82.3856 113 L82.3856 105.0469 L81.4949 105.0469 L81.4949 107.125 L81.5262 108.0625 C81.0574 107.6719 80.6356 107.4375 79.9949 107.4375 C78.7606 107.4375 77.6512 108.5312 77.6512 110.2969 C77.6512 112.0938 78.5262 113.125 79.8856 113.125 ZM80.0887 112.375 C79.1356 112.375 78.5887 111.5938 78.5887 110.2812 C78.5887 109.0469 79.2762 108.2031 80.1668 108.2031 C80.6043 108.2031 81.0262 108.3594 81.4949 108.7656 L81.4949 111.625 C81.0262 112.125 80.5887 112.375 80.0887 112.375 ZM86.4293 113.125 C87.1637 113.125 87.7574 112.875 88.2262 112.5625 L87.8981 111.9688 C87.5074 112.2344 87.0699 112.4062 86.5387 112.4062 C85.5074 112.4062 84.8043 111.6562 84.7418 110.5 L88.3981 110.5 C88.4137 110.375 88.4449 110.1875 88.4449 109.9844 C88.4449 108.4375 87.6637 107.4375 86.2731 107.4375 C85.0231 107.4375 83.8356 108.5312 83.8356 110.2969 C83.8356 112.0781 84.9918 113.125 86.4293 113.125 ZM84.7262 109.8438 C84.8356 108.7812 85.5231 108.1562 86.2887 108.1562 C87.1324 108.1562 87.6324 108.75 87.6324 109.8438 L84.7262 109.8438 ZM91.8912 113.125 C93.2193 113.125 94.4068 112.0938 94.4068 110.2969 C94.4068 108.4844 93.2193 107.4375 91.8912 107.4375 C90.5631 107.4375 89.3756 108.4844 89.3756 110.2969 C89.3756 112.0938 90.5631 113.125 91.8912 113.125 ZM91.8912 112.375 C90.9537 112.375 90.3131 111.5469 90.3131 110.2969 C90.3131 109.0469 90.9537 108.1875 91.8912 108.1875 C92.8287 108.1875 93.4693 109.0469 93.4693 110.2969 C93.4693 111.5469 92.8287 112.375 91.8912 112.375 ZM95.0762 113 L96.0293 113 L96.7637 111.7344 C96.9512 111.4062 97.1231 111.0625 97.3262 110.7656 L97.3731 110.7656 C97.5762 111.0625 97.7637 111.4062 97.9512 111.7344 L98.7481 113 L99.7481 113 L97.9668 110.2656 L99.6074 107.5625 L98.6543 107.5625 L97.9824 108.7656 C97.8262 109.0625 97.6699 109.375 97.4981 109.6719 L97.4668 109.6719 C97.2793 109.375 97.0918 109.0625 96.9199 108.7656 L96.1856 107.5625 L95.2168 107.5625 L96.8574 110.1719 L95.0762 113 ZM100.9156 115.3438 C101.9937 115.3438 102.5562 114.5156 102.9312 113.4531 L104.9781 107.5625 L104.0874 107.5625 L103.1187 110.5938 C102.9624 111.0625 102.8062 111.625 102.6656 112.1094 L102.6031 112.1094 C102.4468 111.625 102.2437 111.0625 102.0874 110.5938 L100.9781 107.5625 L100.0249 107.5625 L102.2124 113.0156 L102.0874 113.4219 C101.8687 114.0938 101.4781 114.5938 100.8531 114.5938 C100.7124 114.5938 100.5562 114.5469 100.4468 114.5 L100.2749 115.2344 C100.4468 115.2969 100.6499 115.3438 100.9156 115.3438 ZM105.563 110.5469 L108.1255 110.5469 L108.1255 109.8438 L105.563 109.8438 L105.563 110.5469 ZM109.5799 113 L111.4549 113 C113.6737 113 114.8768 111.625 114.8768 109.3125 C114.8768 106.9844 113.6737 105.6562 111.4237 105.6562 L109.5799 105.6562 L109.5799 113 ZM110.5174 112.2344 L110.5174 106.4219 L111.3456 106.4219 C113.0643 106.4219 113.9237 107.4531 113.9237 109.3125 C113.9237 111.1562 113.0643 112.2344 111.3456 112.2344 L110.5174 112.2344 ZM115.903 110.5469 L118.4655 110.5469 L118.4655 109.8438 L115.903 109.8438 L115.903 110.5469 ZM121.6699 115.5 C123.3574 115.5 124.4199 114.625 124.4199 113.625 C124.4199 112.7344 123.7793 112.3281 122.5137 112.3281 L121.4668 112.3281 C120.7324 112.3281 120.5137 112.0938 120.5137 111.7344 C120.5137 111.4375 120.6543 111.2656 120.8574 111.0938 C121.1074 111.2031 121.4043 111.2812 121.6699 111.2812 C122.7637 111.2812 123.6543 110.5469 123.6543 109.3906 C123.6543 108.9219 123.4668 108.5156 123.2168 108.2656 L124.3262 108.2656 L124.3262 107.5625 L122.4355 107.5625 C122.2324 107.5 121.9668 107.4375 121.6699 107.4375 C120.5762 107.4375 119.623 108.1875 119.623 109.375 C119.623 110.0156 119.9824 110.5469 120.3418 110.8281 L120.3418 110.875 C120.0605 111.0625 119.7324 111.4375 119.7324 111.875 C119.7324 112.3125 119.9355 112.5938 120.2324 112.7656 L120.2324 112.8125 C119.7168 113.1406 119.4355 113.5781 119.4355 114.0469 C119.4355 114.9844 120.3418 115.5 121.6699 115.5 ZM121.6699 110.6562 C121.0449 110.6562 120.5137 110.1562 120.5137 109.375 C120.5137 108.5625 121.0293 108.0938 121.6699 108.0938 C122.3105 108.0938 122.8262 108.5781 122.8262 109.375 C122.8262 110.1562 122.2949 110.6562 121.6699 110.6562 ZM121.7949 114.875 C120.8262 114.875 120.2324 114.5 120.2324 113.9219 C120.2324 113.5938 120.3887 113.2812 120.7793 113 C121.0137 113.0625 121.2793 113.0938 121.4824 113.0938 L122.4199 113.0938 C123.1387 113.0938 123.5293 113.2656 123.5293 113.7656 C123.5293 114.3281 122.8418 114.875 121.7949 114.875 ZM125.4718 113 L126.378 113 L126.378 109.5156 C126.7374 108.5781 127.2999 108.2656 127.753 108.2656 C127.9718 108.2656 128.0968 108.2812 128.2843 108.3438 L128.4562 107.5469 C128.2843 107.4531 128.1124 107.4375 127.8624 107.4375 C127.253 107.4375 126.7062 107.875 126.3312 108.5625 L126.2999 108.5625 L126.2218 107.5625 L125.4718 107.5625 L125.4718 113 ZM131.4612 113.125 C132.7893 113.125 133.9768 112.0938 133.9768 110.2969 C133.9768 108.4844 132.7893 107.4375 131.4612 107.4375 C130.133 107.4375 128.9455 108.4844 128.9455 110.2969 C128.9455 112.0938 130.133 113.125 131.4612 113.125 ZM131.4612 112.375 C130.5237 112.375 129.883 111.5469 129.883 110.2969 C129.883 109.0469 130.5237 108.1875 131.4612 108.1875 C132.3987 108.1875 133.0393 109.0469 133.0393 110.2969 C133.0393 111.5469 132.3987 112.375 131.4612 112.375 ZM135.4899 113 L136.4274 113 L136.4274 110.0938 L137.6305 110.0938 C139.2399 110.0938 140.3336 109.375 140.3336 107.8125 C140.3336 106.2188 139.2243 105.6562 137.5836 105.6562 L135.4899 105.6562 L135.4899 113 ZM136.4274 109.3438 L136.4274 106.4219 L137.4743 106.4219 C138.7555 106.4219 139.4118 106.7656 139.4118 107.8125 C139.4118 108.875 138.8024 109.3438 137.5055 109.3438 L136.4274 109.3438 ZM143.9193 113.125 C144.6536 113.125 145.2474 112.875 145.7161 112.5625 L145.388 111.9688 C144.9974 112.2344 144.5599 112.4062 144.0286 112.4062 C142.9974 112.4062 142.2943 111.6562 142.2318 110.5 L145.888 110.5 C145.9036 110.375 145.9349 110.1875 145.9349 109.9844 C145.9349 108.4375 145.1536 107.4375 143.763 107.4375 C142.513 107.4375 141.3255 108.5312 141.3255 110.2969 C141.3255 112.0781 142.4818 113.125 143.9193 113.125 ZM142.2161 109.8438 C142.3255 108.7812 143.013 108.1562 143.7786 108.1562 C144.6224 108.1562 145.1224 108.75 145.1224 109.8438 L142.2161 109.8438 ZM147.2718 113 L148.178 113 L148.178 109.0625 C148.7249 108.5156 149.1155 108.2344 149.6624 108.2344 C150.3968 108.2344 150.6936 108.6562 150.6936 109.6875 L150.6936 113 L151.6155 113 L151.6155 109.5625 C151.6155 108.1719 151.0843 107.4375 149.9436 107.4375 C149.2093 107.4375 148.6468 107.8438 148.1311 108.3438 L148.0999 108.3438 L148.0218 107.5625 L147.2718 107.5625 L147.2718 113 ZM153.3818 115.2969 L154.288 115.2969 L154.288 113.4531 L154.2724 112.5 C154.7568 112.9062 155.2724 113.125 155.7724 113.125 C157.0224 113.125 158.1318 112.0625 158.1318 110.2031 C158.1318 108.5312 157.3661 107.4375 155.9755 107.4375 C155.3349 107.4375 154.7255 107.7969 154.2411 108.1875 L154.2099 108.1875 L154.1318 107.5625 L153.3818 107.5625 L153.3818 115.2969 ZM155.6161 112.375 C155.2568 112.375 154.7724 112.2188 154.288 111.7969 L154.288 108.9531 C154.8193 108.4531 155.288 108.2031 155.7568 108.2031 C156.7724 108.2031 157.1786 109.0156 157.1786 110.2031 C157.1786 111.5625 156.5224 112.375 155.6161 112.375 Z"
    /></g
  ></g
></svg
>
