<?xml version="1.0"?>
<!DOCTYPE svg PUBLIC '-//W3C//DTD SVG 1.0//EN'
          'http://www.w3.org/TR/2001/REC-SVG-20010904/DTD/svg10.dtd'>
<svg xmlns:xlink="http://www.w3.org/1999/xlink" style="fill-opacity:1; color-rendering:auto; color-interpolation:auto; text-rendering:auto; stroke:black; stroke-linecap:square; stroke-miterlimit:10; shape-rendering:auto; stroke-opacity:1; fill:black; stroke-dasharray:none; font-weight:normal; stroke-width:1; font-family:'Dialog'; font-style:normal; stroke-linejoin:miter; font-size:12px; stroke-dashoffset:0; image-rendering:auto;" viewBox="0 0 238 134" xmlns="http://www.w3.org/2000/svg"
><!--Generated by the Batik Graphics2D SVG Generator--><defs id="genericDefs"
  /><g
  ><defs id="defs1"
    ><clipPath clipPathUnits="userSpaceOnUse" id="clipPath1"
      ><path d="M156 93 C156 99.0751 151.0751 104 145 104 C138.9249 104 134 99.0751 134 93 C134 86.9249 138.9249 82 145 82 C151.0751 82 156 86.9249 156 93 Z"
      /></clipPath
      ><clipPath clipPathUnits="userSpaceOnUse" id="clipPath2"
      ><path style="fill-rule:evenodd;" d="M93 82 L104 104 L82 104 Z"
      /></clipPath
      ><clipPath clipPathUnits="userSpaceOnUse" id="clipPath3"
      ><path style="fill-rule:evenodd;" d="M41 82 L52 104 L30 104 Z"
      /></clipPath
      ><clipPath clipPathUnits="userSpaceOnUse" id="clipPath4"
      ><path style="fill-rule:evenodd;" d="M145 30 L147 37 L155 37 L148 42 L151 49 L145 45 L138 49 L141 42 L134 37 L142 37 L145 30 Z"
      /></clipPath
    ></defs
    ><g style="fill:white; text-rendering:optimizeSpeed; stroke:white;"
    ><rect x="0" width="238" height="134" y="0" style="stroke:none;"
      /><polygon style="fill:none; stroke:black;" points=" 197 93 145 93"
      /><path d="M197 82 C191.5 87.5 202.5 98.5 197 104" style="fill:none; stroke:black;"
      /><polygon style="fill:none; stroke:black;" points=" 145 93 93 93"
      /><polygon style="fill:none; stroke:black;" points=" 145 93 145 41"
      /><circle style="clip-path:url(#clipPath1); stroke:none;" r="11" cx="145" cy="93"
      /><rect x="134" y="82" width="22" style="clip-path:url(#clipPath1); fill:rgb(0,144,188); stroke:none;" height="22"
      /><rect x="134" y="82" width="22" style="clip-path:url(#clipPath1); fill:none; stroke:black;" height="22"
      /><circle style="fill:none; stroke:black;" r="11" cx="145" cy="93"
      /><polygon style="fill:none; stroke:black;" points=" 93 93 41 93"
      /><polygon style="clip-path:url(#clipPath2); stroke:none;" points=" 93 82 104 104 82 104"
      /><rect x="82" y="82" width="22" style="clip-path:url(#clipPath2); fill:rgb(0,166,81); stroke:none;" height="22"
      /><rect x="82" y="82" width="22" style="clip-path:url(#clipPath2); fill:none; stroke:black;" height="22"
      /><polygon style="fill:none; stroke:black;" points=" 93 82 104 104 82 104"
      /><polygon style="clip-path:url(#clipPath3); stroke:none;" points=" 41 82 52 104 30 104"
      /><rect x="30" y="82" width="22" style="clip-path:url(#clipPath3); fill:rgb(0,166,81); stroke:none;" height="22"
      /><rect x="30" y="82" width="22" style="clip-path:url(#clipPath3); fill:none; stroke:black;" height="22"
      /><polygon style="fill:none; stroke:black;" points=" 41 82 52 104 30 104"
      /><rect x="71" y="96" width="6" style="stroke:none;" height="10"
    /></g
    ><g style="font-family:'Serif'; text-rendering:optimizeSpeed; "
    ><path style="stroke:none;" d="M73.2344 97.6562 C73.5156 97.5938 73.7656 97.5625 74.0156 97.5625 C75.0625 97.5625 75.6719 98.1719 75.6719 99.2656 C75.6719 100.4375 74.9062 101.1094 73.7031 101.1094 L73.1875 101.1094 L73.1875 101.6406 L73.7969 101.6406 C75.2188 101.6406 75.9062 102.4219 75.9062 103.6406 C75.9062 104.8438 75.1719 105.6875 73.875 105.6875 C73.6094 105.6875 73.3125 105.6562 73.0156 105.5625 L72.7812 104.8125 C72.625 104.2812 72.5 104.0469 72.1406 104.0469 C71.8906 104.0469 71.7031 104.1719 71.5781 104.4219 C71.8438 105.6406 72.7812 106.1719 74.0312 106.1719 C75.7188 106.1719 76.875 105.125 76.875 103.7031 C76.875 102.5 76.2031 101.625 74.7969 101.375 C75.9531 101.0156 76.6094 100.2031 76.6094 99.2031 C76.6094 97.9219 75.6719 97.0781 74.1875 97.0781 C73.0469 97.0781 72.0625 97.5938 71.7969 98.6875 C71.9062 99 72.1094 99.1094 72.3594 99.1094 C72.7344 99.1094 72.8906 98.8906 73 98.4062 L73.2344 97.6562 Z"
      /><rect x="56" y="97" width="8" style="fill:white; stroke:none;" height="8"
      /><path style="stroke:none;" d="M60.9844 102.7031 C60.9375 103.8906 60.1562 104.6562 59.3125 104.6562 C58.2656 104.6562 57.5 103.6875 57.5 101.7188 C57.5 100.2812 58.1562 99.1562 59.3438 99.1562 C60.1406 99.1562 60.7812 99.6875 61.0938 100.6406 L60.9844 102.7031 ZM62.9062 104.2812 C62.7344 104.375 62.5469 104.4219 62.3438 104.4219 C61.9531 104.4219 61.75 104.2188 61.75 103.4219 C61.75 102.4844 61.9688 100.5312 62.1875 98.8281 L62.0312 98.7188 L61.2344 98.9219 L61.1406 99.7969 C60.7812 99.0312 60.1562 98.6562 59.3906 98.6562 C58.0469 98.6562 56.5625 99.8438 56.5625 101.9531 C56.5625 104.0938 57.7188 105.1719 59.1406 105.1719 C60.0156 105.1719 60.6875 104.8125 61.0938 103.9844 C61.2031 104.8594 61.5156 105.1719 62.0156 105.1719 C62.4688 105.1719 62.7969 104.9062 63.0156 104.5625 L62.9062 104.2812 Z"
      /><polygon style="fill:white; clip-path:url(#clipPath4); stroke:none;" points=" 145 30 147 37 155 37 148 42 151 49 145 45 138 49 141 42 134 37 142 37 145 30"
      /><rect x="134" y="30" width="22" style="clip-path:url(#clipPath4); fill:rgb(244,121,32); stroke:none;" height="22"
      /><rect x="134" y="30" width="22" style="fill:none; clip-path:url(#clipPath4);" height="22"
      /><polygon style="fill:none;" points=" 145 30 147 37 155 37 148 42 151 49 145 45 138 49 141 42 134 37 142 37 145 30"
      /><rect x="122" y="96" width="7" style="fill:white; stroke:none;" height="9"
      /><path style="stroke:none;" d="M123 101.5156 L125.9531 97.2656 L125.9531 101.5156 L123 101.5156 ZM128.2812 101.5156 L126.8594 101.5156 L126.8594 96.125 L126.2344 96.125 L122.3438 101.6406 L122.3438 102.1875 L125.9531 102.1875 L125.9531 105 L126.8594 105 L126.8594 102.1875 L128.2812 102.1875 L128.2812 101.5156 Z"
      /><rect x="108" y="97" width="8" style="fill:white; stroke:none;" height="8"
      /><path style="stroke:none;" d="M112.9844 102.7031 C112.9375 103.8906 112.1562 104.6562 111.3125 104.6562 C110.2656 104.6562 109.5 103.6875 109.5 101.7188 C109.5 100.2812 110.1562 99.1562 111.3438 99.1562 C112.1406 99.1562 112.7812 99.6875 113.0938 100.6406 L112.9844 102.7031 ZM114.9062 104.2812 C114.7344 104.375 114.5469 104.4219 114.3438 104.4219 C113.9531 104.4219 113.75 104.2188 113.75 103.4219 C113.75 102.4844 113.9688 100.5312 114.1875 98.8281 L114.0312 98.7188 L113.2344 98.9219 L113.1406 99.7969 C112.7812 99.0312 112.1562 98.6562 111.3906 98.6562 C110.0469 98.6562 108.5625 99.8438 108.5625 101.9531 C108.5625 104.0938 109.7188 105.1719 111.1406 105.1719 C112.0156 105.1719 112.6875 104.8125 113.0938 103.9844 C113.2031 104.8594 113.5156 105.1719 114.0156 105.1719 C114.4688 105.1719 114.7969 104.9062 115.0156 104.5625 L114.9062 104.2812 Z"
      /><rect x="134" y="69" width="6" style="fill:white; stroke:none;" height="10"
      /><path style="stroke:none;" d="M137.3438 78.6875 C136.2031 78.6875 135.5312 77.5 135.5312 75.2969 C135.5312 75.2188 135.5312 75.125 135.5312 75.0469 C136.0938 74.5 136.7188 74.3125 137.3438 74.3125 C138.3125 74.3125 138.9531 74.9844 138.9531 76.4531 C138.9531 77.9375 138.3125 78.6875 137.3438 78.6875 ZM139.5312 70.0781 C136.3438 70.4531 134.5625 72.7656 134.5625 75.4531 C134.5625 77.7812 135.6094 79.1719 137.3125 79.1719 C138.8438 79.1719 139.9219 78.1094 139.9219 76.2812 C139.9219 74.6875 138.9688 73.6562 137.5625 73.6562 C136.8281 73.6562 136.1406 73.9844 135.5781 74.5781 C135.7969 72.4062 137.0781 70.9688 139.5938 70.3906 L139.5312 70.0781 Z"
      /><rect x="134" y="53" width="6" style="fill:white; stroke:none;" height="13"
      /><path style="stroke:none;" d="M136.0938 59.2031 C136.0938 57.6562 136.75 56.8125 137.7969 56.8125 C138.7188 56.8125 139.2656 57.4531 139.2656 58.5156 C139.2656 59.7188 138.5 60.4375 137.1875 60.7031 L137.2969 61.3125 C139.2188 61.2344 139.9375 62.2188 139.9375 63.4375 C139.9375 64.625 139.2344 65.4219 137.9531 65.4219 C137.25 65.4219 136.6562 65.1562 136.0938 64.7188 L136.0938 59.2031 ZM135.2031 65.9062 L135.1094 68.375 L135.2656 68.4844 L136.1562 68.2656 L136.0156 65.0938 C136.5469 65.8438 137.3594 66.1719 138.1719 66.1719 C139.5625 66.1719 140.8594 65.2188 140.8594 63.4844 C140.8594 61.9531 139.875 61.1094 138.125 61 C139.5625 60.6094 140.1875 59.4531 140.1875 58.4844 C140.1875 57.0938 139.1562 56.3125 137.9062 56.3125 C136.2969 56.3125 135.2188 57.5469 135.2188 59.5156 L135.2031 65.9062 Z"
      /><rect x="161" y="94" width="6" style="fill:white; stroke:none;" height="13"
      /><path style="stroke:none;" d="M163.0938 100.2031 C163.0938 98.6562 163.75 97.8125 164.7969 97.8125 C165.7188 97.8125 166.2656 98.4531 166.2656 99.5156 C166.2656 100.7188 165.5 101.4375 164.1875 101.7031 L164.2969 102.3125 C166.2188 102.2344 166.9375 103.2188 166.9375 104.4375 C166.9375 105.625 166.2344 106.4219 164.9531 106.4219 C164.25 106.4219 163.6562 106.1562 163.0938 105.7188 L163.0938 100.2031 ZM162.2031 106.9062 L162.1094 109.375 L162.2656 109.4844 L163.1562 109.2656 L163.0156 106.0938 C163.5469 106.8438 164.3594 107.1719 165.1719 107.1719 C166.5625 107.1719 167.8594 106.2188 167.8594 104.4844 C167.8594 102.9531 166.875 102.1094 165.125 102 C166.5625 101.6094 167.1875 100.4531 167.1875 99.4844 C167.1875 98.0938 166.1562 97.3125 164.9062 97.3125 C163.2969 97.3125 162.2188 98.5469 162.2188 100.5156 L162.2031 106.9062 Z"
    /></g
  ></g
></svg
>
