<?xml version="1.0"?>
<!DOCTYPE svg PUBLIC '-//W3C//DTD SVG 1.0//EN'
          'http://www.w3.org/TR/2001/REC-SVG-20010904/DTD/svg10.dtd'>
<svg xmlns:xlink="http://www.w3.org/1999/xlink" style="fill-opacity:1; color-rendering:auto; color-interpolation:auto; text-rendering:auto; stroke:black; stroke-linecap:square; stroke-miterlimit:10; shape-rendering:auto; stroke-opacity:1; fill:black; stroke-dasharray:none; font-weight:normal; stroke-width:1; font-family:'Dialog'; font-style:normal; stroke-linejoin:miter; font-size:12px; stroke-dashoffset:0; image-rendering:auto;" viewBox="0 0 602 82" xmlns="http://www.w3.org/2000/svg"
><!--Generated by the Batik Graphics2D SVG Generator--><defs id="genericDefs"
  /><g
  ><defs id="defs1"
    ><clipPath clipPathUnits="userSpaceOnUse" id="clipPath1"
      ><path d="M520 41 C520 47.0751 515.0751 52 509 52 C502.9249 52 498 47.0751 498 41 C498 34.9249 502.9249 30 509 30 C515.0751 30 520 34.9249 520 41 Z"
      /></clipPath
      ><clipPath clipPathUnits="userSpaceOnUse" id="clipPath2"
      ><path d="M468 41 C468 47.0751 463.0751 52 457 52 C450.9249 52 446 47.0751 446 41 C446 34.9249 450.9249 30 457 30 C463.0751 30 468 34.9249 468 41 Z"
      /></clipPath
      ><clipPath clipPathUnits="userSpaceOnUse" id="clipPath3"
      ><path d="M416 41 C416 47.0751 411.0751 52 405 52 C398.9249 52 394 47.0751 394 41 C394 34.9249 398.9249 30 405 30 C411.0751 30 416 34.9249 416 41 Z"
      /></clipPath
      ><clipPath clipPathUnits="userSpaceOnUse" id="clipPath4"
      ><path d="M364 41 C364 47.0751 359.0751 52 353 52 C346.9249 52 342 47.0751 342 41 C342 34.9249 346.9249 30 353 30 C359.0751 30 364 34.9249 364 41 Z"
      /></clipPath
      ><clipPath clipPathUnits="userSpaceOnUse" id="clipPath5"
      ><path d="M312 41 C312 47.0751 307.0751 52 301 52 C294.9249 52 290 47.0751 290 41 C290 34.9249 294.9249 30 301 30 C307.0751 30 312 34.9249 312 41 Z"
      /></clipPath
      ><clipPath clipPathUnits="userSpaceOnUse" id="clipPath6"
      ><path d="M260 41 C260 47.0751 255.0751 52 249 52 C242.9249 52 238 47.0751 238 41 C238 34.9249 242.9249 30 249 30 C255.0751 30 260 34.9249 260 41 Z"
      /></clipPath
      ><clipPath clipPathUnits="userSpaceOnUse" id="clipPath7"
      ><path d="M208 41 C208 47.0751 203.0751 52 197 52 C190.9249 52 186 47.0751 186 41 C186 34.9249 190.9249 30 197 30 C203.0751 30 208 34.9249 208 41 Z"
      /></clipPath
      ><clipPath clipPathUnits="userSpaceOnUse" id="clipPath8"
      ><path d="M156 41 C156 47.0751 151.0751 52 145 52 C138.9249 52 134 47.0751 134 41 C134 34.9249 138.9249 30 145 30 C151.0751 30 156 34.9249 156 41 Z"
      /></clipPath
      ><clipPath clipPathUnits="userSpaceOnUse" id="clipPath9"
      ><path d="M104 41 C104 47.0751 99.0751 52 93 52 C86.9249 52 82 47.0751 82 41 C82 34.9249 86.9249 30 93 30 C99.0751 30 104 34.9249 104 41 Z"
      /></clipPath
      ><clipPath clipPathUnits="userSpaceOnUse" id="clipPath10"
      ><path d="M52 41 C52 47.0751 47.0751 52 41 52 C34.9249 52 30 47.0751 30 41 C30 34.9249 34.9249 30 41 30 C47.0751 30 52 34.9249 52 41 Z"
      /></clipPath
    ></defs
    ><g style="fill:white; text-rendering:optimizeSpeed; stroke:white;"
    ><rect x="0" width="602" height="82" y="0" style="stroke:none;"
      /><polygon style="fill:none; stroke:black;" points=" 561 41 509 41"
      /><path d="M561 30 C555.5 35.5 566.5 46.5 561 52" style="fill:none; stroke:black;"
      /><polygon style="fill:none; stroke:black;" points=" 509 41 457 41"
      /><circle style="clip-path:url(#clipPath1); stroke:none;" r="11" cx="509" cy="41"
      /><rect x="498" y="30" width="22" style="clip-path:url(#clipPath1); fill:rgb(0,144,188); stroke:none;" height="22"
      /><rect x="498" y="30" width="22" style="clip-path:url(#clipPath1); fill:none; stroke:black;" height="22"
      /><circle style="fill:none; stroke:black;" r="11" cx="509" cy="41"
      /><polygon style="fill:none; stroke:black;" points=" 457 41 405 41"
      /><circle style="clip-path:url(#clipPath2); stroke:none;" r="11" cx="457" cy="41"
      /><rect x="446" y="30" width="22" style="clip-path:url(#clipPath2); fill:rgb(0,144,188); stroke:none;" height="22"
      /><rect x="446" y="30" width="22" style="clip-path:url(#clipPath2); fill:none; stroke:black;" height="22"
      /><circle style="fill:none; stroke:black;" r="11" cx="457" cy="41"
      /><polygon style="fill:none; stroke:black;" points=" 405 41 353 41"
      /><circle style="clip-path:url(#clipPath3); stroke:none;" r="11" cx="405" cy="41"
      /><rect x="394" y="30" width="22" style="clip-path:url(#clipPath3); fill:rgb(0,144,188); stroke:none;" height="22"
      /><rect x="394" y="30" width="22" style="clip-path:url(#clipPath3); fill:none; stroke:black;" height="22"
      /><circle style="fill:none; stroke:black;" r="11" cx="405" cy="41"
      /><polygon style="fill:none; stroke:black;" points=" 353 41 301 41"
      /><circle style="clip-path:url(#clipPath4); stroke:none;" r="11" cx="353" cy="41"
      /><rect x="342" y="30" width="22" style="clip-path:url(#clipPath4); fill:rgb(0,144,188); stroke:none;" height="22"
      /><rect x="342" y="30" width="22" style="clip-path:url(#clipPath4); fill:none; stroke:black;" height="22"
      /><circle style="fill:none; stroke:black;" r="11" cx="353" cy="41"
      /><polygon style="fill:none; stroke:black;" points=" 301 41 249 41"
      /><circle style="clip-path:url(#clipPath5); stroke:none;" r="11" cx="301" cy="41"
      /><rect x="290" y="30" width="22" style="clip-path:url(#clipPath5); fill:rgb(0,144,188); stroke:none;" height="22"
      /><rect x="290" y="30" width="22" style="clip-path:url(#clipPath5); fill:none; stroke:black;" height="22"
      /><circle style="fill:none; stroke:black;" r="11" cx="301" cy="41"
      /><polygon style="fill:none; stroke:black;" points=" 249 41 197 41"
      /><circle style="clip-path:url(#clipPath6); stroke:none;" r="11" cx="249" cy="41"
      /><rect x="238" y="30" width="22" style="clip-path:url(#clipPath6); fill:rgb(0,144,188); stroke:none;" height="22"
      /><rect x="238" y="30" width="22" style="clip-path:url(#clipPath6); fill:none; stroke:black;" height="22"
      /><circle style="fill:none; stroke:black;" r="11" cx="249" cy="41"
      /><polygon style="fill:none; stroke:black;" points=" 197 41 145 41"
      /><circle style="clip-path:url(#clipPath7); stroke:none;" r="11" cx="197" cy="41"
      /><rect x="186" y="30" width="22" style="clip-path:url(#clipPath7); fill:rgb(0,144,188); stroke:none;" height="22"
      /><rect x="186" y="30" width="22" style="clip-path:url(#clipPath7); fill:none; stroke:black;" height="22"
      /><circle style="fill:none; stroke:black;" r="11" cx="197" cy="41"
      /><polygon style="fill:none; stroke:black;" points=" 145 41 93 41"
      /><circle style="clip-path:url(#clipPath8); stroke:none;" r="11" cx="145" cy="41"
      /><rect x="134" y="30" width="22" style="clip-path:url(#clipPath8); fill:rgb(0,144,188); stroke:none;" height="22"
      /><rect x="134" y="30" width="22" style="clip-path:url(#clipPath8); fill:none; stroke:black;" height="22"
      /><circle style="fill:none; stroke:black;" r="11" cx="145" cy="41"
      /><polygon style="fill:none; stroke:black;" points=" 93 41 41 41"
      /><circle style="clip-path:url(#clipPath9); stroke:none;" r="11" cx="93" cy="41"
      /><rect x="82" y="30" width="22" style="clip-path:url(#clipPath9); fill:rgb(0,144,188); stroke:none;" height="22"
      /><rect x="82" y="30" width="22" style="clip-path:url(#clipPath9); fill:none; stroke:black;" height="22"
      /><circle style="fill:none; stroke:black;" r="11" cx="93" cy="41"
      /><circle style="clip-path:url(#clipPath10); stroke:none;" r="11" cx="41" cy="41"
      /><rect x="30" y="30" width="22" style="clip-path:url(#clipPath10); fill:rgb(0,144,188); stroke:none;" height="22"
      /><rect x="30" y="30" width="22" style="clip-path:url(#clipPath10); fill:none; stroke:black;" height="22"
      /><circle style="fill:none; stroke:black;" r="11" cx="41" cy="41"
      /><rect x="70" y="44" width="7" style="stroke:none;" height="9"
    /></g
    ><g style="font-family:'Serif'; text-rendering:optimizeSpeed; "
    ><path style="stroke:none;" d="M71 49.5156 L73.9531 45.2656 L73.9531 49.5156 L71 49.5156 ZM76.2812 49.5156 L74.8594 49.5156 L74.8594 44.125 L74.2344 44.125 L70.3438 49.6406 L70.3438 50.1875 L73.9531 50.1875 L73.9531 53 L74.8594 53 L74.8594 50.1875 L76.2812 50.1875 L76.2812 49.5156 Z"
      /><rect x="56" y="45" width="8" style="fill:white; stroke:none;" height="8"
      /><path style="stroke:none;" d="M60.9844 50.7031 C60.9375 51.8906 60.1562 52.6562 59.3125 52.6562 C58.2656 52.6562 57.5 51.6875 57.5 49.7188 C57.5 48.2812 58.1562 47.1562 59.3438 47.1562 C60.1406 47.1562 60.7812 47.6875 61.0938 48.6406 L60.9844 50.7031 ZM62.9062 52.2812 C62.7344 52.375 62.5469 52.4219 62.3438 52.4219 C61.9531 52.4219 61.75 52.2188 61.75 51.4219 C61.75 50.4844 61.9688 48.5312 62.1875 46.8281 L62.0312 46.7188 L61.2344 46.9219 L61.1406 47.7969 C60.7812 47.0312 60.1562 46.6562 59.3906 46.6562 C58.0469 46.6562 56.5625 47.8438 56.5625 49.9531 C56.5625 52.0938 57.7188 53.1719 59.1406 53.1719 C60.0156 53.1719 60.6875 52.8125 61.0938 51.9844 C61.2031 52.8594 61.5156 53.1719 62.0156 53.1719 C62.4688 53.1719 62.7969 52.9062 63.0156 52.5625 L62.9062 52.2812 Z"
      /><rect x="122" y="44" width="7" style="fill:white; stroke:none;" height="9"
      /><path style="stroke:none;" d="M123 49.5156 L125.9531 45.2656 L125.9531 49.5156 L123 49.5156 ZM128.2812 49.5156 L126.8594 49.5156 L126.8594 44.125 L126.2344 44.125 L122.3438 49.6406 L122.3438 50.1875 L125.9531 50.1875 L125.9531 53 L126.8594 53 L126.8594 50.1875 L128.2812 50.1875 L128.2812 49.5156 Z"
      /><rect x="108" y="45" width="8" style="fill:white; stroke:none;" height="8"
      /><path style="stroke:none;" d="M112.9844 50.7031 C112.9375 51.8906 112.1562 52.6562 111.3125 52.6562 C110.2656 52.6562 109.5 51.6875 109.5 49.7188 C109.5 48.2812 110.1562 47.1562 111.3438 47.1562 C112.1406 47.1562 112.7812 47.6875 113.0938 48.6406 L112.9844 50.7031 ZM114.9062 52.2812 C114.7344 52.375 114.5469 52.4219 114.3438 52.4219 C113.9531 52.4219 113.75 52.2188 113.75 51.4219 C113.75 50.4844 113.9688 48.5312 114.1875 46.8281 L114.0312 46.7188 L113.2344 46.9219 L113.1406 47.7969 C112.7812 47.0312 112.1562 46.6562 111.3906 46.6562 C110.0469 46.6562 108.5625 47.8438 108.5625 49.9531 C108.5625 52.0938 109.7188 53.1719 111.1406 53.1719 C112.0156 53.1719 112.6875 52.8125 113.0938 51.9844 C113.2031 52.8594 113.5156 53.1719 114.0156 53.1719 C114.4688 53.1719 114.7969 52.9062 115.0156 52.5625 L114.9062 52.2812 Z"
      /><rect x="174" y="44" width="7" style="fill:white; stroke:none;" height="9"
      /><path style="stroke:none;" d="M175 49.5156 L177.9531 45.2656 L177.9531 49.5156 L175 49.5156 ZM180.2812 49.5156 L178.8594 49.5156 L178.8594 44.125 L178.2344 44.125 L174.3438 49.6406 L174.3438 50.1875 L177.9531 50.1875 L177.9531 53 L178.8594 53 L178.8594 50.1875 L180.2812 50.1875 L180.2812 49.5156 Z"
      /><rect x="160" y="45" width="8" style="fill:white; stroke:none;" height="8"
      /><path style="stroke:none;" d="M164.9844 50.7031 C164.9375 51.8906 164.1562 52.6562 163.3125 52.6562 C162.2656 52.6562 161.5 51.6875 161.5 49.7188 C161.5 48.2812 162.1562 47.1562 163.3438 47.1562 C164.1406 47.1562 164.7812 47.6875 165.0938 48.6406 L164.9844 50.7031 ZM166.9062 52.2812 C166.7344 52.375 166.5469 52.4219 166.3438 52.4219 C165.9531 52.4219 165.75 52.2188 165.75 51.4219 C165.75 50.4844 165.9688 48.5312 166.1875 46.8281 L166.0312 46.7188 L165.2344 46.9219 L165.1406 47.7969 C164.7812 47.0312 164.1562 46.6562 163.3906 46.6562 C162.0469 46.6562 160.5625 47.8438 160.5625 49.9531 C160.5625 52.0938 161.7188 53.1719 163.1406 53.1719 C164.0156 53.1719 164.6875 52.8125 165.0938 51.9844 C165.2031 52.8594 165.5156 53.1719 166.0156 53.1719 C166.4688 53.1719 166.7969 52.9062 167.0156 52.5625 L166.9062 52.2812 Z"
      /><rect x="226" y="44" width="7" style="fill:white; stroke:none;" height="9"
      /><path style="stroke:none;" d="M227 49.5156 L229.9531 45.2656 L229.9531 49.5156 L227 49.5156 ZM232.2812 49.5156 L230.8594 49.5156 L230.8594 44.125 L230.2344 44.125 L226.3438 49.6406 L226.3438 50.1875 L229.9531 50.1875 L229.9531 53 L230.8594 53 L230.8594 50.1875 L232.2812 50.1875 L232.2812 49.5156 Z"
      /><rect x="212" y="45" width="8" style="fill:white; stroke:none;" height="8"
      /><path style="stroke:none;" d="M216.9844 50.7031 C216.9375 51.8906 216.1562 52.6562 215.3125 52.6562 C214.2656 52.6562 213.5 51.6875 213.5 49.7188 C213.5 48.2812 214.1562 47.1562 215.3438 47.1562 C216.1406 47.1562 216.7812 47.6875 217.0938 48.6406 L216.9844 50.7031 ZM218.9062 52.2812 C218.7344 52.375 218.5469 52.4219 218.3438 52.4219 C217.9531 52.4219 217.75 52.2188 217.75 51.4219 C217.75 50.4844 217.9688 48.5312 218.1875 46.8281 L218.0312 46.7188 L217.2344 46.9219 L217.1406 47.7969 C216.7812 47.0312 216.1562 46.6562 215.3906 46.6562 C214.0469 46.6562 212.5625 47.8438 212.5625 49.9531 C212.5625 52.0938 213.7188 53.1719 215.1406 53.1719 C216.0156 53.1719 216.6875 52.8125 217.0938 51.9844 C217.2031 52.8594 217.5156 53.1719 218.0156 53.1719 C218.4688 53.1719 218.7969 52.9062 219.0156 52.5625 L218.9062 52.2812 Z"
      /><rect x="278" y="44" width="7" style="fill:white; stroke:none;" height="9"
      /><path style="stroke:none;" d="M279 49.5156 L281.9531 45.2656 L281.9531 49.5156 L279 49.5156 ZM284.2812 49.5156 L282.8594 49.5156 L282.8594 44.125 L282.2344 44.125 L278.3438 49.6406 L278.3438 50.1875 L281.9531 50.1875 L281.9531 53 L282.8594 53 L282.8594 50.1875 L284.2812 50.1875 L284.2812 49.5156 Z"
      /><rect x="264" y="45" width="8" style="fill:white; stroke:none;" height="8"
      /><path style="stroke:none;" d="M268.9844 50.7031 C268.9375 51.8906 268.1562 52.6562 267.3125 52.6562 C266.2656 52.6562 265.5 51.6875 265.5 49.7188 C265.5 48.2812 266.1562 47.1562 267.3438 47.1562 C268.1406 47.1562 268.7812 47.6875 269.0938 48.6406 L268.9844 50.7031 ZM270.9062 52.2812 C270.7344 52.375 270.5469 52.4219 270.3438 52.4219 C269.9531 52.4219 269.75 52.2188 269.75 51.4219 C269.75 50.4844 269.9688 48.5312 270.1875 46.8281 L270.0312 46.7188 L269.2344 46.9219 L269.1406 47.7969 C268.7812 47.0312 268.1562 46.6562 267.3906 46.6562 C266.0469 46.6562 264.5625 47.8438 264.5625 49.9531 C264.5625 52.0938 265.7188 53.1719 267.1406 53.1719 C268.0156 53.1719 268.6875 52.8125 269.0938 51.9844 C269.2031 52.8594 269.5156 53.1719 270.0156 53.1719 C270.4688 53.1719 270.7969 52.9062 271.0156 52.5625 L270.9062 52.2812 Z"
      /><rect x="330" y="44" width="7" style="fill:white; stroke:none;" height="9"
      /><path style="stroke:none;" d="M331 49.5156 L333.9531 45.2656 L333.9531 49.5156 L331 49.5156 ZM336.2812 49.5156 L334.8594 49.5156 L334.8594 44.125 L334.2344 44.125 L330.3438 49.6406 L330.3438 50.1875 L333.9531 50.1875 L333.9531 53 L334.8594 53 L334.8594 50.1875 L336.2812 50.1875 L336.2812 49.5156 Z"
      /><rect x="316" y="45" width="8" style="fill:white; stroke:none;" height="8"
      /><path style="stroke:none;" d="M320.9844 50.7031 C320.9375 51.8906 320.1562 52.6562 319.3125 52.6562 C318.2656 52.6562 317.5 51.6875 317.5 49.7188 C317.5 48.2812 318.1562 47.1562 319.3438 47.1562 C320.1406 47.1562 320.7812 47.6875 321.0938 48.6406 L320.9844 50.7031 ZM322.9062 52.2812 C322.7344 52.375 322.5469 52.4219 322.3438 52.4219 C321.9531 52.4219 321.75 52.2188 321.75 51.4219 C321.75 50.4844 321.9688 48.5312 322.1875 46.8281 L322.0312 46.7188 L321.2344 46.9219 L321.1406 47.7969 C320.7812 47.0312 320.1562 46.6562 319.3906 46.6562 C318.0469 46.6562 316.5625 47.8438 316.5625 49.9531 C316.5625 52.0938 317.7188 53.1719 319.1406 53.1719 C320.0156 53.1719 320.6875 52.8125 321.0938 51.9844 C321.2031 52.8594 321.5156 53.1719 322.0156 53.1719 C322.4688 53.1719 322.7969 52.9062 323.0156 52.5625 L322.9062 52.2812 Z"
      /><rect x="382" y="44" width="7" style="fill:white; stroke:none;" height="9"
      /><path style="stroke:none;" d="M383 49.5156 L385.9531 45.2656 L385.9531 49.5156 L383 49.5156 ZM388.2812 49.5156 L386.8594 49.5156 L386.8594 44.125 L386.2344 44.125 L382.3438 49.6406 L382.3438 50.1875 L385.9531 50.1875 L385.9531 53 L386.8594 53 L386.8594 50.1875 L388.2812 50.1875 L388.2812 49.5156 Z"
      /><rect x="368" y="45" width="8" style="fill:white; stroke:none;" height="8"
      /><path style="stroke:none;" d="M372.9844 50.7031 C372.9375 51.8906 372.1562 52.6562 371.3125 52.6562 C370.2656 52.6562 369.5 51.6875 369.5 49.7188 C369.5 48.2812 370.1562 47.1562 371.3438 47.1562 C372.1406 47.1562 372.7812 47.6875 373.0938 48.6406 L372.9844 50.7031 ZM374.9062 52.2812 C374.7344 52.375 374.5469 52.4219 374.3438 52.4219 C373.9531 52.4219 373.75 52.2188 373.75 51.4219 C373.75 50.4844 373.9688 48.5312 374.1875 46.8281 L374.0312 46.7188 L373.2344 46.9219 L373.1406 47.7969 C372.7812 47.0312 372.1562 46.6562 371.3906 46.6562 C370.0469 46.6562 368.5625 47.8438 368.5625 49.9531 C368.5625 52.0938 369.7188 53.1719 371.1406 53.1719 C372.0156 53.1719 372.6875 52.8125 373.0938 51.9844 C373.2031 52.8594 373.5156 53.1719 374.0156 53.1719 C374.4688 53.1719 374.7969 52.9062 375.0156 52.5625 L374.9062 52.2812 Z"
      /><rect x="434" y="44" width="7" style="fill:white; stroke:none;" height="9"
      /><path style="stroke:none;" d="M435 49.5156 L437.9531 45.2656 L437.9531 49.5156 L435 49.5156 ZM440.2812 49.5156 L438.8594 49.5156 L438.8594 44.125 L438.2344 44.125 L434.3438 49.6406 L434.3438 50.1875 L437.9531 50.1875 L437.9531 53 L438.8594 53 L438.8594 50.1875 L440.2812 50.1875 L440.2812 49.5156 Z"
      /><rect x="420" y="45" width="8" style="fill:white; stroke:none;" height="8"
      /><path style="stroke:none;" d="M424.9844 50.7031 C424.9375 51.8906 424.1562 52.6562 423.3125 52.6562 C422.2656 52.6562 421.5 51.6875 421.5 49.7188 C421.5 48.2812 422.1562 47.1562 423.3438 47.1562 C424.1406 47.1562 424.7812 47.6875 425.0938 48.6406 L424.9844 50.7031 ZM426.9062 52.2812 C426.7344 52.375 426.5469 52.4219 426.3438 52.4219 C425.9531 52.4219 425.75 52.2188 425.75 51.4219 C425.75 50.4844 425.9688 48.5312 426.1875 46.8281 L426.0312 46.7188 L425.2344 46.9219 L425.1406 47.7969 C424.7812 47.0312 424.1562 46.6562 423.3906 46.6562 C422.0469 46.6562 420.5625 47.8438 420.5625 49.9531 C420.5625 52.0938 421.7188 53.1719 423.1406 53.1719 C424.0156 53.1719 424.6875 52.8125 425.0938 51.9844 C425.2031 52.8594 425.5156 53.1719 426.0156 53.1719 C426.4688 53.1719 426.7969 52.9062 427.0156 52.5625 L426.9062 52.2812 Z"
      /><rect x="486" y="44" width="7" style="fill:white; stroke:none;" height="9"
      /><path style="stroke:none;" d="M487 49.5156 L489.9531 45.2656 L489.9531 49.5156 L487 49.5156 ZM492.2812 49.5156 L490.8594 49.5156 L490.8594 44.125 L490.2344 44.125 L486.3438 49.6406 L486.3438 50.1875 L489.9531 50.1875 L489.9531 53 L490.8594 53 L490.8594 50.1875 L492.2812 50.1875 L492.2812 49.5156 Z"
      /><rect x="472" y="45" width="8" style="fill:white; stroke:none;" height="8"
      /><path style="stroke:none;" d="M476.9844 50.7031 C476.9375 51.8906 476.1562 52.6562 475.3125 52.6562 C474.2656 52.6562 473.5 51.6875 473.5 49.7188 C473.5 48.2812 474.1562 47.1562 475.3438 47.1562 C476.1406 47.1562 476.7812 47.6875 477.0938 48.6406 L476.9844 50.7031 ZM478.9062 52.2812 C478.7344 52.375 478.5469 52.4219 478.3438 52.4219 C477.9531 52.4219 477.75 52.2188 477.75 51.4219 C477.75 50.4844 477.9688 48.5312 478.1875 46.8281 L478.0312 46.7188 L477.2344 46.9219 L477.1406 47.7969 C476.7812 47.0312 476.1562 46.6562 475.3906 46.6562 C474.0469 46.6562 472.5625 47.8438 472.5625 49.9531 C472.5625 52.0938 473.7188 53.1719 475.1406 53.1719 C476.0156 53.1719 476.6875 52.8125 477.0938 51.9844 C477.2031 52.8594 477.5156 53.1719 478.0156 53.1719 C478.4688 53.1719 478.7969 52.9062 479.0156 52.5625 L478.9062 52.2812 Z"
      /><rect x="525" y="44" width="5" style="fill:white; stroke:none;" height="10"
      /><path style="stroke:none;" d="M526.8906 52.6875 C526.4844 52.6875 526.1562 53.0469 526.1562 53.4219 C526.1562 53.8125 526.4844 54.1562 526.8906 54.1562 C527.2969 54.1562 527.6406 53.8125 527.6406 53.4219 C527.6406 53.0469 527.2969 52.6875 526.8906 52.6875 ZM528.4688 46.5781 C528.7188 46.8906 528.875 47.2656 528.8906 47.6562 C528.8906 48.1875 528.625 48.5 528.0312 48.7656 L527.4062 49.0156 C526.6406 49.3125 526.3906 49.5469 526.3906 49.9375 C526.3906 50.1094 526.4531 50.3438 526.5781 50.8125 L526.7344 51.3438 L527.1094 51.3438 L527.0938 50.5312 C527.0938 50.0938 527.2031 49.9688 527.7812 49.7344 L528.2031 49.5625 C529.0312 49.2188 529.4531 48.6875 529.4531 47.8438 C529.4531 46.1562 527.6562 45.1875 526.5 45.0312 C526.1094 45.125 525.9062 45.2969 525.9062 45.6406 C525.9062 45.9375 526.0625 46.1562 526.7188 46.2656 L528.4688 46.5781 Z"
    /></g
  ></g
></svg
>
