<?xml version="1.0"?>
<!DOCTYPE svg PUBLIC '-//W3C//DTD SVG 1.0//EN'
          'http://www.w3.org/TR/2001/REC-SVG-20010904/DTD/svg10.dtd'>
<svg xmlns:xlink="http://www.w3.org/1999/xlink" style="fill-opacity:1; color-rendering:auto; color-interpolation:auto; text-rendering:auto; stroke:black; stroke-linecap:square; stroke-miterlimit:10; shape-rendering:auto; stroke-opacity:1; fill:black; stroke-dasharray:none; font-weight:normal; stroke-width:1; font-family:'Dialog'; font-style:normal; stroke-linejoin:miter; font-size:12px; stroke-dashoffset:0; image-rendering:auto;" viewBox="0 0 150 238" xmlns="http://www.w3.org/2000/svg"
><!--Generated by the Batik Graphics2D SVG Generator--><defs id="genericDefs"
  /><g
  ><defs id="defs1"
    ><clipPath clipPathUnits="userSpaceOnUse" id="clipPath1"
      ><path style="fill-rule:evenodd;" d="M65 186 L76 197 L65 208 L54 197 Z"
      /></clipPath
      ><clipPath clipPathUnits="userSpaceOnUse" id="clipPath2"
      ><path d="M54 134 L76 134 L76 156 L54 156 L54 134 Z"
      /></clipPath
      ><clipPath clipPathUnits="userSpaceOnUse" id="clipPath3"
      ><path d="M76 93 C76 99.0751 71.0751 104 65 104 C58.9249 104 54 99.0751 54 93 C54 86.9249 58.9249 82 65 82 C71.0751 82 76 86.9249 76 93 Z"
      /></clipPath
      ><clipPath clipPathUnits="userSpaceOnUse" id="clipPath4"
      ><path style="fill-rule:evenodd;" d="M65 30 L76 52 L54 52 Z"
      /></clipPath
    ></defs
    ><g style="fill:white; text-rendering:optimizeSpeed; stroke:white;"
    ><rect x="0" width="150" height="238" y="0" style="stroke:none;"
      /><polygon style="clip-path:url(#clipPath1); stroke:none;" points=" 65 186 76 197 65 208 54 197"
      /><rect x="54" y="186" width="22" style="clip-path:url(#clipPath1); fill:rgb(165,67,153); stroke:none;" height="22"
      /><rect x="54" y="186" width="22" style="clip-path:url(#clipPath1); fill:none; stroke:black;" height="22"
      /><polygon style="fill:none; stroke:black;" points=" 65 186 76 197 65 208 54 197"
      /><rect x="81" y="184" width="5" style="stroke:none;" height="10"
    /></g
    ><g style="font-family:'Serif'; text-rendering:optimizeSpeed; "
    ><path style="stroke:none;" d="M82.8906 192.6875 C82.4844 192.6875 82.1562 193.0469 82.1562 193.4219 C82.1562 193.8125 82.4844 194.1562 82.8906 194.1562 C83.2969 194.1562 83.6406 193.8125 83.6406 193.4219 C83.6406 193.0469 83.2969 192.6875 82.8906 192.6875 ZM84.4688 186.5781 C84.7188 186.8906 84.875 187.2656 84.8906 187.6562 C84.8906 188.1875 84.625 188.5 84.0312 188.7656 L83.4062 189.0156 C82.6406 189.3125 82.3906 189.5469 82.3906 189.9375 C82.3906 190.1094 82.4531 190.3438 82.5781 190.8125 L82.7344 191.3438 L83.1094 191.3438 L83.0938 190.5312 C83.0938 190.0938 83.2031 189.9688 83.7812 189.7344 L84.2031 189.5625 C85.0312 189.2188 85.4531 188.6875 85.4531 187.8438 C85.4531 186.1562 83.6562 185.1875 82.5 185.0312 C82.1094 185.125 81.9062 185.2969 81.9062 185.6406 C81.9062 185.9375 82.0625 186.1562 82.7188 186.2656 L84.4688 186.5781 Z"
      /><rect x="81" y="200" width="5" style="fill:white; stroke:none;" height="10"
      /><path style="stroke:none;" d="M82.8906 208.6875 C82.4844 208.6875 82.1562 209.0469 82.1562 209.4219 C82.1562 209.8125 82.4844 210.1562 82.8906 210.1562 C83.2969 210.1562 83.6406 209.8125 83.6406 209.4219 C83.6406 209.0469 83.2969 208.6875 82.8906 208.6875 ZM84.4688 202.5781 C84.7188 202.8906 84.875 203.2656 84.8906 203.6562 C84.8906 204.1875 84.625 204.5 84.0312 204.7656 L83.4062 205.0156 C82.6406 205.3125 82.3906 205.5469 82.3906 205.9375 C82.3906 206.1094 82.4531 206.3438 82.5781 206.8125 L82.7344 207.3438 L83.1094 207.3438 L83.0938 206.5312 C83.0938 206.0938 83.2031 205.9688 83.7812 205.7344 L84.2031 205.5625 C85.0312 205.2188 85.4531 204.6875 85.4531 203.8438 C85.4531 202.1562 83.6562 201.1875 82.5 201.0312 C82.1094 201.125 81.9062 201.2969 81.9062 201.6406 C81.9062 201.9375 82.0625 202.1562 82.7188 202.2656 L84.4688 202.5781 Z"
      /><path style="stroke:none;" d="M39.7031 202.1875 C41.5156 202.1875 42.9844 201.0938 42.9844 199.25 C42.9844 197.8594 42.0156 196.9375 40.8125 196.6562 L40.8125 196.5938 C41.8906 196.1875 42.6406 195.3594 42.6406 194.125 C42.6406 192.5 41.375 191.5469 39.6562 191.5469 C38.4688 191.5469 37.5469 192.0625 36.7812 192.7812 L37.4688 193.5938 C38.0469 193 38.7656 192.5938 39.5938 192.5938 C40.6562 192.5938 41.3281 193.2344 41.3281 194.2188 C41.3281 195.3281 40.6094 196.1719 38.4844 196.1719 L38.4844 197.1562 C40.8594 197.1562 41.6875 197.9844 41.6875 199.2031 C41.6875 200.3906 40.8125 201.125 39.5938 201.125 C38.4375 201.125 37.6562 200.5781 37.0469 199.9375 L36.4062 200.7812 C37.0781 201.5156 38.0938 202.1875 39.7031 202.1875 ZM43.9731 202 L45.3168 202 L46.3481 200.2188 C46.6137 199.7656 46.8637 199.2969 47.1293 198.8594 L47.2075 198.8594 C47.4731 199.2969 47.7543 199.7656 48.0043 200.2188 L49.1293 202 L50.5356 202 L48.02 198.1562 L50.3325 194.3906 L49.0043 194.3906 L48.0668 196.0625 C47.8481 196.5 47.6137 196.9219 47.3793 197.3438 L47.3325 197.3438 C47.0668 196.9219 46.8012 196.5 46.5668 196.0625 L45.5512 194.3906 L44.1762 194.3906 L46.4887 198.0312 L43.9731 202 Z"
    /></g
    ><g style="fill:white; text-rendering:optimizeSpeed; font-size:14px; font-family:'SansSerif'; stroke:white;"
    ><rect x="54" y="134" width="22" style="clip-path:url(#clipPath2); stroke:none;" height="22"
      /><rect x="54" y="134" width="22" style="clip-path:url(#clipPath2); stroke:none;" height="22"
      /><rect x="54" y="134" width="22" style="clip-path:url(#clipPath2); fill:none; stroke:black;" height="22"
      /><rect x="54" y="134" width="22" style="fill:none; stroke:black;" height="22"
      /><rect x="81" width="5" height="10" y="132" style="stroke:none;"
    /></g
    ><g style="font-family:'Serif'; text-rendering:optimizeSpeed; "
    ><path style="stroke:none;" d="M82.8906 140.6875 C82.4844 140.6875 82.1562 141.0469 82.1562 141.4219 C82.1562 141.8125 82.4844 142.1562 82.8906 142.1562 C83.2969 142.1562 83.6406 141.8125 83.6406 141.4219 C83.6406 141.0469 83.2969 140.6875 82.8906 140.6875 ZM84.4688 134.5781 C84.7188 134.8906 84.875 135.2656 84.8906 135.6562 C84.8906 136.1875 84.625 136.5 84.0312 136.7656 L83.4062 137.0156 C82.6406 137.3125 82.3906 137.5469 82.3906 137.9375 C82.3906 138.1094 82.4531 138.3438 82.5781 138.8125 L82.7344 139.3438 L83.1094 139.3438 L83.0938 138.5312 C83.0938 138.0938 83.2031 137.9688 83.7812 137.7344 L84.2031 137.5625 C85.0312 137.2188 85.4531 136.6875 85.4531 135.8438 C85.4531 134.1562 83.6562 133.1875 82.5 133.0312 C82.1094 133.125 81.9062 133.2969 81.9062 133.6406 C81.9062 133.9375 82.0625 134.1562 82.7188 134.2656 L84.4688 134.5781 Z"
      /><rect x="81" y="148" width="5" style="fill:white; stroke:none;" height="10"
      /><path style="stroke:none;" d="M82.8906 156.6875 C82.4844 156.6875 82.1562 157.0469 82.1562 157.4219 C82.1562 157.8125 82.4844 158.1562 82.8906 158.1562 C83.2969 158.1562 83.6406 157.8125 83.6406 157.4219 C83.6406 157.0469 83.2969 156.6875 82.8906 156.6875 ZM84.4688 150.5781 C84.7188 150.8906 84.875 151.2656 84.8906 151.6562 C84.8906 152.1875 84.625 152.5 84.0312 152.7656 L83.4062 153.0156 C82.6406 153.3125 82.3906 153.5469 82.3906 153.9375 C82.3906 154.1094 82.4531 154.3438 82.5781 154.8125 L82.7344 155.3438 L83.1094 155.3438 L83.0938 154.5312 C83.0938 154.0938 83.2031 153.9688 83.7812 153.7344 L84.2031 153.5625 C85.0312 153.2188 85.4531 152.6875 85.4531 151.8438 C85.4531 150.1562 83.6562 149.1875 82.5 149.0312 C82.1094 149.125 81.9062 149.2969 81.9062 149.6406 C81.9062 149.9375 82.0625 150.1562 82.7188 150.2656 L84.4688 150.5781 Z"
      /><path style="stroke:none;" d="M30.2344 150 L35.8594 150 L35.8594 148.9375 L33.7969 148.9375 L33.7969 139.7188 L32.8281 139.7188 C32.2656 140.0625 31.6094 140.2969 30.6875 140.4688 L30.6875 141.2812 L32.5156 141.2812 L32.5156 148.9375 L30.2344 148.9375 L30.2344 150 ZM40.6606 150.1875 C42.6137 150.1875 43.8481 148.4062 43.8481 144.8281 C43.8481 141.2812 42.6137 139.5469 40.6606 139.5469 C38.7075 139.5469 37.4575 141.2656 37.4575 144.8281 C37.4575 148.4062 38.7075 150.1875 40.6606 150.1875 ZM40.6606 149.1562 C39.4887 149.1562 38.7075 147.8594 38.7075 144.8281 C38.7075 141.8438 39.4887 140.5625 40.6606 140.5625 C41.8168 140.5625 42.6137 141.8438 42.6137 144.8281 C42.6137 147.8594 41.8168 149.1562 40.6606 149.1562 ZM44.7431 150 L46.0868 150 L47.1181 148.2188 C47.3837 147.7656 47.6337 147.2969 47.8993 146.8594 L47.9774 146.8594 C48.2431 147.2969 48.5243 147.7656 48.7743 148.2188 L49.8993 150 L51.3056 150 L48.7899 146.1562 L51.1024 142.3906 L49.7743 142.3906 L48.8368 144.0625 C48.6181 144.5 48.3837 144.9219 48.1493 145.3438 L48.1024 145.3438 C47.8368 144.9219 47.5712 144.5 47.3368 144.0625 L46.3212 142.3906 L44.9462 142.3906 L47.2587 146.0312 L44.7431 150 Z"
    /></g
    ><g style="fill:white; text-rendering:optimizeSpeed; font-size:14px; font-family:'SansSerif'; stroke:white;"
    ><circle r="11" style="clip-path:url(#clipPath3); stroke:none;" cx="65" cy="93"
      /><rect x="54" y="82" width="22" style="clip-path:url(#clipPath3); stroke:none;" height="22"
      /><rect x="54" y="82" width="22" style="clip-path:url(#clipPath3); fill:none; stroke:black;" height="22"
      /><circle r="11" style="fill:none; stroke:black;" cx="65" cy="93"
      /><rect x="81" width="5" height="10" y="80" style="stroke:none;"
    /></g
    ><g style="font-family:'Serif'; text-rendering:optimizeSpeed; "
    ><path style="stroke:none;" d="M82.8906 88.6875 C82.4844 88.6875 82.1562 89.0469 82.1562 89.4219 C82.1562 89.8125 82.4844 90.1562 82.8906 90.1562 C83.2969 90.1562 83.6406 89.8125 83.6406 89.4219 C83.6406 89.0469 83.2969 88.6875 82.8906 88.6875 ZM84.4688 82.5781 C84.7188 82.8906 84.875 83.2656 84.8906 83.6562 C84.8906 84.1875 84.625 84.5 84.0312 84.7656 L83.4062 85.0156 C82.6406 85.3125 82.3906 85.5469 82.3906 85.9375 C82.3906 86.1094 82.4531 86.3438 82.5781 86.8125 L82.7344 87.3438 L83.1094 87.3438 L83.0938 86.5312 C83.0938 86.0938 83.2031 85.9688 83.7812 85.7344 L84.2031 85.5625 C85.0312 85.2188 85.4531 84.6875 85.4531 83.8438 C85.4531 82.1562 83.6562 81.1875 82.5 81.0312 C82.1094 81.125 81.9062 81.2969 81.9062 81.6406 C81.9062 81.9375 82.0625 82.1562 82.7188 82.2656 L84.4688 82.5781 Z"
      /><rect x="81" y="96" width="5" style="fill:white; stroke:none;" height="10"
      /><path style="stroke:none;" d="M82.8906 104.6875 C82.4844 104.6875 82.1562 105.0469 82.1562 105.4219 C82.1562 105.8125 82.4844 106.1562 82.8906 106.1562 C83.2969 106.1562 83.6406 105.8125 83.6406 105.4219 C83.6406 105.0469 83.2969 104.6875 82.8906 104.6875 ZM84.4688 98.5781 C84.7188 98.8906 84.875 99.2656 84.8906 99.6562 C84.8906 100.1875 84.625 100.5 84.0312 100.7656 L83.4062 101.0156 C82.6406 101.3125 82.3906 101.5469 82.3906 101.9375 C82.3906 102.1094 82.4531 102.3438 82.5781 102.8125 L82.7344 103.3438 L83.1094 103.3438 L83.0938 102.5312 C83.0938 102.0938 83.2031 101.9688 83.7812 101.7344 L84.2031 101.5625 C85.0312 101.2188 85.4531 100.6875 85.4531 99.8438 C85.4531 98.1562 83.6562 97.1875 82.5 97.0312 C82.1094 97.125 81.9062 97.2969 81.9062 97.6406 C81.9062 97.9375 82.0625 98.1562 82.7188 98.2656 L84.4688 98.5781 Z"
      /><path style="stroke:none;" d="M30.2344 97 L35.8594 97 L35.8594 95.9375 L33.7969 95.9375 L33.7969 86.7188 L32.8281 86.7188 C32.2656 87.0625 31.6094 87.2969 30.6875 87.4688 L30.6875 88.2812 L32.5156 88.2812 L32.5156 95.9375 L30.2344 95.9375 L30.2344 97 ZM38.0043 97 L43.6293 97 L43.6293 95.9375 L41.5668 95.9375 L41.5668 86.7188 L40.5981 86.7188 C40.0356 87.0625 39.3793 87.2969 38.4575 87.4688 L38.4575 88.2812 L40.2856 88.2812 L40.2856 95.9375 L38.0043 95.9375 L38.0043 97 ZM44.7431 97 L46.0868 97 L47.1181 95.2188 C47.3837 94.7656 47.6337 94.2969 47.8993 93.8594 L47.9774 93.8594 C48.2431 94.2969 48.5243 94.7656 48.7743 95.2188 L49.8993 97 L51.3056 97 L48.7899 93.1562 L51.1024 89.3906 L49.7743 89.3906 L48.8368 91.0625 C48.6181 91.5 48.3837 91.9219 48.1493 92.3438 L48.1024 92.3438 C47.8368 91.9219 47.5712 91.5 47.3368 91.0625 L46.3212 89.3906 L44.9462 89.3906 L47.2587 93.0312 L44.7431 97 Z"
    /></g
    ><g style="fill:white; text-rendering:optimizeSpeed; font-size:14px; font-family:'SansSerif'; stroke:white;"
    ><polygon style="stroke:none; clip-path:url(#clipPath4);" points=" 65 30 76 52 54 52"
      /><rect x="54" y="30" width="22" style="clip-path:url(#clipPath4); fill:rgb(237,28,36); stroke:none;" height="22"
      /><rect x="54" y="30" width="22" style="clip-path:url(#clipPath4); fill:none; stroke:black;" height="22"
      /><polygon style="fill:none; stroke:black;" points=" 65 30 76 52 54 52"
      /><rect x="81" width="5" height="10" y="28" style="stroke:none;"
    /></g
    ><g style="font-family:'Serif'; text-rendering:optimizeSpeed; "
    ><path style="stroke:none;" d="M82.8906 36.6875 C82.4844 36.6875 82.1562 37.0469 82.1562 37.4219 C82.1562 37.8125 82.4844 38.1562 82.8906 38.1562 C83.2969 38.1562 83.6406 37.8125 83.6406 37.4219 C83.6406 37.0469 83.2969 36.6875 82.8906 36.6875 ZM84.4688 30.5781 C84.7188 30.8906 84.875 31.2656 84.8906 31.6562 C84.8906 32.1875 84.625 32.5 84.0312 32.7656 L83.4062 33.0156 C82.6406 33.3125 82.3906 33.5469 82.3906 33.9375 C82.3906 34.1094 82.4531 34.3438 82.5781 34.8125 L82.7344 35.3438 L83.1094 35.3438 L83.0938 34.5312 C83.0938 34.0938 83.2031 33.9688 83.7812 33.7344 L84.2031 33.5625 C85.0312 33.2188 85.4531 32.6875 85.4531 31.8438 C85.4531 30.1562 83.6562 29.1875 82.5 29.0312 C82.1094 29.125 81.9062 29.2969 81.9062 29.6406 C81.9062 29.9375 82.0625 30.1562 82.7188 30.2656 L84.4688 30.5781 Z"
      /><rect x="81" y="44" width="5" style="fill:white; stroke:none;" height="10"
      /><path style="stroke:none;" d="M82.8906 52.6875 C82.4844 52.6875 82.1562 53.0469 82.1562 53.4219 C82.1562 53.8125 82.4844 54.1562 82.8906 54.1562 C83.2969 54.1562 83.6406 53.8125 83.6406 53.4219 C83.6406 53.0469 83.2969 52.6875 82.8906 52.6875 ZM84.4688 46.5781 C84.7188 46.8906 84.875 47.2656 84.8906 47.6562 C84.8906 48.1875 84.625 48.5 84.0312 48.7656 L83.4062 49.0156 C82.6406 49.3125 82.3906 49.5469 82.3906 49.9375 C82.3906 50.1094 82.4531 50.3438 82.5781 50.8125 L82.7344 51.3438 L83.1094 51.3438 L83.0938 50.5312 C83.0938 50.0938 83.2031 49.9688 83.7812 49.7344 L84.2031 49.5625 C85.0312 49.2188 85.4531 48.6875 85.4531 47.8438 C85.4531 46.1562 83.6562 45.1875 82.5 45.0312 C82.1094 45.125 81.9062 45.2969 81.9062 45.6406 C81.9062 45.9375 82.0625 46.1562 82.7188 46.2656 L84.4688 46.5781 Z"
    /></g
  ></g
></svg
>
