<?xml version="1.0"?>
<!DOCTYPE svg PUBLIC '-//W3C//DTD SVG 1.0//EN'
          'http://www.w3.org/TR/2001/REC-SVG-20010904/DTD/svg10.dtd'>
<svg xmlns:xlink="http://www.w3.org/1999/xlink" style="fill-opacity:1; color-rendering:auto; color-interpolation:auto; text-rendering:auto; stroke:black; stroke-linecap:square; stroke-miterlimit:10; shape-rendering:auto; stroke-opacity:1; fill:black; stroke-dasharray:none; font-weight:normal; stroke-width:1; font-family:'Dialog'; font-style:normal; stroke-linejoin:miter; font-size:12px; stroke-dashoffset:0; image-rendering:auto;" viewBox="0 0 238 105" xmlns="http://www.w3.org/2000/svg"
><!--Generated by the Batik Graphics2D SVG Generator--><defs id="genericDefs"
  /><g
  ><defs id="defs1"
    ><clipPath clipPathUnits="userSpaceOnUse" id="clipPath1"
      ><path d="M134 30 L156 30 L156 52 L134 52 L134 30 Z"
      /></clipPath
      ><clipPath clipPathUnits="userSpaceOnUse" id="clipPath2"
      ><path d="M82 30 L104 30 L104 52 L82 52 L82 30 Z"
      /></clipPath
      ><clipPath clipPathUnits="userSpaceOnUse" id="clipPath3"
      ><path d="M52 41 C52 47.0751 47.0751 52 41 52 C34.9249 52 30 47.0751 30 41 C30 34.9249 34.9249 30 41 30 C47.0751 30 52 34.9249 52 41 Z"
      /></clipPath
    ></defs
    ><g style="fill:white; text-rendering:optimizeSpeed; stroke:white;"
    ><rect x="0" width="238" height="105" y="0" style="stroke:none;"
      /><polygon style="fill:none; stroke:black;" points=" 197 41 145 41"
      /><path d="M197 30 C191.5 35.5 202.5 46.5 197 52" style="fill:none; stroke:black;"
      /><polygon style="fill:none; stroke:black;" points=" 145 41 93 41"
      /><rect x="134" y="30" width="22" style="clip-path:url(#clipPath1); stroke:none;" height="22"
      /><rect x="134" y="30" width="22" style="clip-path:url(#clipPath1); fill:rgb(0,144,188); stroke:none;" height="22"
      /><rect x="134" y="30" width="22" style="clip-path:url(#clipPath1); fill:none; stroke:black;" height="22"
      /><rect x="134" y="30" width="22" style="fill:none; stroke:black;" height="22"
      /><rect x="137" y="58" width="15" style="stroke:none;" height="10"
    /></g
    ><g style="text-rendering:optimizeSpeed; font-size:14px; font-family:'SansSerif';"
    ><path style="stroke:none;" d="M138.2344 69 L143.8594 69 L143.8594 67.9375 L141.7969 67.9375 L141.7969 58.7188 L140.8281 58.7188 C140.2656 59.0625 139.6094 59.2969 138.6875 59.4688 L138.6875 60.2812 L140.5156 60.2812 L140.5156 67.9375 L138.2344 67.9375 L138.2344 69 ZM146.1762 69 L147.395 69 L147.395 63.6094 C147.395 62.5312 147.3012 61.4375 147.2543 60.4062 L147.3012 60.4062 L148.4106 62.5156 L152.145 69 L153.4731 69 L153.4731 58.7188 L152.2387 58.7188 L152.2387 64.0781 C152.2387 65.1406 152.3481 66.2812 152.4106 67.3125 L152.3481 67.3125 L151.2543 65.2031 L147.52 58.7188 L146.1762 58.7188 L146.1762 69 Z"
      /><polygon style="fill:none;" points=" 93 41 41 41"
    /></g
    ><g style="fill:white; text-rendering:optimizeSpeed; stroke:white;"
    ><rect x="82" y="30" width="22" style="clip-path:url(#clipPath2); stroke:none;" height="22"
      /><rect x="82" y="30" width="22" style="clip-path:url(#clipPath2); fill:rgb(0,144,188); stroke:none;" height="22"
      /><rect x="82" y="30" width="22" style="clip-path:url(#clipPath2); fill:none; stroke:black;" height="22"
      /><rect x="82" y="30" width="22" style="fill:none; stroke:black;" height="22"
      /><circle r="11" style="clip-path:url(#clipPath3); stroke:none;" cx="41" cy="41"
      /><rect x="30" y="30" width="22" style="clip-path:url(#clipPath3); fill:rgb(0,166,81); stroke:none;" height="22"
      /><rect x="30" y="30" width="22" style="clip-path:url(#clipPath3); fill:none; stroke:black;" height="22"
      /><circle r="11" style="fill:none; stroke:black;" cx="41" cy="41"
      /><rect x="70" width="7" height="9" y="44" style="stroke:none;"
      /><path d="M71 49.5156 L73.9531 45.2656 L73.9531 49.5156 L71 49.5156 ZM76.2812 49.5156 L74.8594 49.5156 L74.8594 44.125 L74.2344 44.125 L70.3438 49.6406 L70.3438 50.1875 L73.9531 50.1875 L73.9531 53 L74.8594 53 L74.8594 50.1875 L76.2812 50.1875 L76.2812 49.5156 Z" style="fill:black; stroke:none;"
      /><rect x="57" width="6" height="13" y="42" style="stroke:none;"
      /><path d="M59.0938 48.2031 C59.0938 46.6562 59.75 45.8125 60.7969 45.8125 C61.7188 45.8125 62.2656 46.4531 62.2656 47.5156 C62.2656 48.7188 61.5 49.4375 60.1875 49.7031 L60.2969 50.3125 C62.2188 50.2344 62.9375 51.2188 62.9375 52.4375 C62.9375 53.625 62.2344 54.4219 60.9531 54.4219 C60.25 54.4219 59.6562 54.1562 59.0938 53.7188 L59.0938 48.2031 ZM58.2031 54.9062 L58.1094 57.375 L58.2656 57.4844 L59.1562 57.2656 L59.0156 54.0938 C59.5469 54.8438 60.3594 55.1719 61.1719 55.1719 C62.5625 55.1719 63.8594 54.2188 63.8594 52.4844 C63.8594 50.9531 62.875 50.1094 61.125 50 C62.5625 49.6094 63.1875 48.4531 63.1875 47.4844 C63.1875 46.0938 62.1562 45.3125 60.9062 45.3125 C59.2969 45.3125 58.2188 46.5469 58.2188 48.5156 L58.2031 54.9062 Z" style="fill:black; stroke:none;"
      /><rect x="123" width="6" height="10" y="44" style="stroke:none;"
      /><path d="M125.2344 45.6562 C125.5156 45.5938 125.7656 45.5625 126.0156 45.5625 C127.0625 45.5625 127.6719 46.1719 127.6719 47.2656 C127.6719 48.4375 126.9062 49.1094 125.7031 49.1094 L125.1875 49.1094 L125.1875 49.6406 L125.7969 49.6406 C127.2188 49.6406 127.9062 50.4219 127.9062 51.6406 C127.9062 52.8438 127.1719 53.6875 125.875 53.6875 C125.6094 53.6875 125.3125 53.6562 125.0156 53.5625 L124.7812 52.8125 C124.625 52.2812 124.5 52.0469 124.1406 52.0469 C123.8906 52.0469 123.7031 52.1719 123.5781 52.4219 C123.8438 53.6406 124.7812 54.1719 126.0312 54.1719 C127.7188 54.1719 128.875 53.125 128.875 51.7031 C128.875 50.5 128.2031 49.625 126.7969 49.375 C127.9531 49.0156 128.6094 48.2031 128.6094 47.2031 C128.6094 45.9219 127.6719 45.0781 126.1875 45.0781 C125.0469 45.0781 124.0625 45.5938 123.7969 46.6875 C123.9062 47 124.1094 47.1094 124.3594 47.1094 C124.7344 47.1094 124.8906 46.8906 125 46.4062 L125.2344 45.6562 Z" style="fill:black; stroke:none;"
      /><rect x="109" width="6" height="13" y="42" style="stroke:none;"
      /><path d="M111.0938 48.2031 C111.0938 46.6562 111.75 45.8125 112.7969 45.8125 C113.7188 45.8125 114.2656 46.4531 114.2656 47.5156 C114.2656 48.7188 113.5 49.4375 112.1875 49.7031 L112.2969 50.3125 C114.2188 50.2344 114.9375 51.2188 114.9375 52.4375 C114.9375 53.625 114.2344 54.4219 112.9531 54.4219 C112.25 54.4219 111.6562 54.1562 111.0938 53.7188 L111.0938 48.2031 ZM110.2031 54.9062 L110.1094 57.375 L110.2656 57.4844 L111.1562 57.2656 L111.0156 54.0938 C111.5469 54.8438 112.3594 55.1719 113.1719 55.1719 C114.5625 55.1719 115.8594 54.2188 115.8594 52.4844 C115.8594 50.9531 114.875 50.1094 113.125 50 C114.5625 49.6094 115.1875 48.4531 115.1875 47.4844 C115.1875 46.0938 114.1562 45.3125 112.9062 45.3125 C111.2969 45.3125 110.2188 46.5469 110.2188 48.5156 L110.2031 54.9062 Z" style="fill:black; stroke:none;"
      /><rect x="161" width="6" height="13" y="42" style="stroke:none;"
      /><path d="M163.0938 48.2031 C163.0938 46.6562 163.75 45.8125 164.7969 45.8125 C165.7188 45.8125 166.2656 46.4531 166.2656 47.5156 C166.2656 48.7188 165.5 49.4375 164.1875 49.7031 L164.2969 50.3125 C166.2188 50.2344 166.9375 51.2188 166.9375 52.4375 C166.9375 53.625 166.2344 54.4219 164.9531 54.4219 C164.25 54.4219 163.6562 54.1562 163.0938 53.7188 L163.0938 48.2031 ZM162.2031 54.9062 L162.1094 57.375 L162.2656 57.4844 L163.1562 57.2656 L163.0156 54.0938 C163.5469 54.8438 164.3594 55.1719 165.1719 55.1719 C166.5625 55.1719 167.8594 54.2188 167.8594 52.4844 C167.8594 50.9531 166.875 50.1094 165.125 50 C166.5625 49.6094 167.1875 48.4531 167.1875 47.4844 C167.1875 46.0938 166.1562 45.3125 164.9062 45.3125 C163.2969 45.3125 162.2188 46.5469 162.2188 48.5156 L162.2031 54.9062 Z" style="fill:black; stroke:none;"
    /></g
  ></g
></svg
>
