<?xml version="1.0"?>
<!DOCTYPE svg PUBLIC '-//W3C//DTD SVG 1.0//EN'
          'http://www.w3.org/TR/2001/REC-SVG-20010904/DTD/svg10.dtd'>
<svg xmlns:xlink="http://www.w3.org/1999/xlink" style="fill-opacity:1; color-rendering:auto; color-interpolation:auto; text-rendering:auto; stroke:black; stroke-linecap:square; stroke-miterlimit:10; shape-rendering:auto; stroke-opacity:1; fill:black; stroke-dasharray:none; font-weight:normal; stroke-width:1; font-family:'Dialog'; font-style:normal; stroke-linejoin:miter; font-size:12px; stroke-dashoffset:0; image-rendering:auto;" viewBox="0 0 290 186" xmlns="http://www.w3.org/2000/svg"
><!--Generated by the Batik Graphics2D SVG Generator--><defs id="genericDefs"
  /><g
  ><defs id="defs1"
    ><clipPath clipPathUnits="userSpaceOnUse" id="clipPath1"
      ><path d="M186 82 L208 82 L208 104 L186 104 L186 82 Z"
      /></clipPath
      ><clipPath clipPathUnits="userSpaceOnUse" id="clipPath2"
      ><path d="M134 82 L156 82 L156 104 L134 104 L134 82 Z"
      /></clipPath
      ><clipPath clipPathUnits="userSpaceOnUse" id="clipPath3"
      ><path d="M104 93 C104 99.0751 99.0751 104 93 104 C86.9249 104 82 99.0751 82 93 C82 86.9249 86.9249 82 93 82 C99.0751 82 104 86.9249 104 93 Z"
      /></clipPath
      ><clipPath clipPathUnits="userSpaceOnUse" id="clipPath4"
      ><path d="M52 145 C52 151.0751 47.0751 156 41 156 C34.9249 156 30 151.0751 30 145 C30 138.9249 34.9249 134 41 134 C47.0751 134 52 138.9249 52 145 Z"
      /></clipPath
      ><clipPath clipPathUnits="userSpaceOnUse" id="clipPath5"
      ><path d="M30 82 L52 82 L52 104 L30 104 L30 82 Z"
      /></clipPath
      ><clipPath clipPathUnits="userSpaceOnUse" id="clipPath6"
      ><path d="M52 41 C52 47.0751 47.0751 52 41 52 C34.9249 52 30 47.0751 30 41 C30 34.9249 34.9249 30 41 30 C47.0751 30 52 34.9249 52 41 Z"
      /></clipPath
      ><clipPath clipPathUnits="userSpaceOnUse" id="clipPath7"
      ><path style="fill-rule:evenodd;" d="M197 52 L186 30 L208 30 Z"
      /></clipPath
    ></defs
    ><g style="fill:white; text-rendering:optimizeSpeed; stroke:white;"
    ><rect x="0" width="290" height="186" y="0" style="stroke:none;"
      /><polygon style="fill:none; stroke:black;" points=" 249 93 197 93"
      /><path d="M249 82 C243.5 87.5 254.5 98.5 249 104" style="fill:none; stroke:black;"
      /><polygon style="fill:none; stroke:black;" points=" 197 93 145 93"
      /><polygon style="fill:none; stroke:black;" points=" 197 93 197 41"
      /><rect x="186" y="82" width="22" style="clip-path:url(#clipPath1); stroke:none;" height="22"
      /><rect x="186" y="82" width="22" style="clip-path:url(#clipPath1); fill:rgb(0,144,188); stroke:none;" height="22"
      /><rect x="186" y="82" width="22" style="clip-path:url(#clipPath1); fill:none; stroke:black;" height="22"
      /><rect x="186" y="82" width="22" style="fill:none; stroke:black;" height="22"
      /><polygon style="fill:none; stroke:black;" points=" 145 93 93 93"
      /><rect x="134" y="82" width="22" style="clip-path:url(#clipPath2); stroke:none;" height="22"
      /><rect x="134" y="82" width="22" style="clip-path:url(#clipPath2); fill:rgb(0,144,188); stroke:none;" height="22"
      /><rect x="134" y="82" width="22" style="clip-path:url(#clipPath2); fill:none; stroke:black;" height="22"
      /><rect x="134" y="82" width="22" style="fill:none; stroke:black;" height="22"
      /><polygon style="fill:none; stroke:black;" points=" 93 93 41 145"
      /><polygon style="fill:none; stroke:black;" points=" 93 93 41 93"
      /><polygon style="fill:none; stroke:black;" points=" 93 93 41 41"
      /><circle style="clip-path:url(#clipPath3); stroke:none;" r="11" cx="93" cy="93"
      /><rect x="82" y="82" width="22" style="clip-path:url(#clipPath3); fill:rgb(0,166,81); stroke:none;" height="22"
      /><rect x="82" y="82" width="22" style="clip-path:url(#clipPath3); fill:none; stroke:black;" height="22"
      /><circle style="fill:none; stroke:black;" r="11" cx="93" cy="93"
      /><circle style="clip-path:url(#clipPath4); stroke:none;" r="11" cx="41" cy="145"
      /><rect x="30" y="134" width="22" style="clip-path:url(#clipPath4); fill:rgb(0,166,81); stroke:none;" height="22"
      /><rect x="30" y="134" width="22" style="clip-path:url(#clipPath4); fill:none; stroke:black;" height="22"
      /><circle style="fill:none; stroke:black;" r="11" cx="41" cy="145"
      /><rect x="30" y="82" width="22" style="clip-path:url(#clipPath5); stroke:none;" height="22"
      /><rect x="30" y="82" width="22" style="clip-path:url(#clipPath5); fill:rgb(0,144,188); stroke:none;" height="22"
      /><rect x="30" y="82" width="22" style="clip-path:url(#clipPath5); fill:none; stroke:black;" height="22"
      /><rect x="30" y="82" width="22" style="fill:none; stroke:black;" height="22"
      /><circle style="clip-path:url(#clipPath6); stroke:none;" r="11" cx="41" cy="41"
      /><rect x="30" y="30" width="22" style="clip-path:url(#clipPath6); fill:rgb(0,166,81); stroke:none;" height="22"
      /><rect x="30" y="30" width="22" style="clip-path:url(#clipPath6); fill:none; stroke:black;" height="22"
      /><circle style="fill:none; stroke:black;" r="11" cx="41" cy="41"
      /><rect x="79" y="110" width="6" style="stroke:none;" height="10"
    /></g
    ><g style="font-family:'Serif'; text-rendering:optimizeSpeed; "
    ><path style="stroke:none;" d="M81.2344 111.6562 C81.5156 111.5938 81.7656 111.5625 82.0156 111.5625 C83.0625 111.5625 83.6719 112.1719 83.6719 113.2656 C83.6719 114.4375 82.9062 115.1094 81.7031 115.1094 L81.1875 115.1094 L81.1875 115.6406 L81.7969 115.6406 C83.2188 115.6406 83.9062 116.4219 83.9062 117.6406 C83.9062 118.8438 83.1719 119.6875 81.875 119.6875 C81.6094 119.6875 81.3125 119.6562 81.0156 119.5625 L80.7812 118.8125 C80.625 118.2812 80.5 118.0469 80.1406 118.0469 C79.8906 118.0469 79.7031 118.1719 79.5781 118.4219 C79.8438 119.6406 80.7812 120.1719 82.0312 120.1719 C83.7188 120.1719 84.875 119.125 84.875 117.7031 C84.875 116.5 84.2031 115.625 82.7969 115.375 C83.9531 115.0156 84.6094 114.2031 84.6094 113.2031 C84.6094 111.9219 83.6719 111.0781 82.1875 111.0781 C81.0469 111.0781 80.0625 111.5938 79.7969 112.6875 C79.9062 113 80.1094 113.1094 80.3594 113.1094 C80.7344 113.1094 80.8906 112.8906 81 112.4062 L81.2344 111.6562 Z"
      /><rect x="59" y="130" width="8" style="fill:white; stroke:none;" height="8"
      /><path style="stroke:none;" d="M63.9844 135.7031 C63.9375 136.8906 63.1562 137.6562 62.3125 137.6562 C61.2656 137.6562 60.5 136.6875 60.5 134.7188 C60.5 133.2812 61.1562 132.1562 62.3438 132.1562 C63.1406 132.1562 63.7812 132.6875 64.0938 133.6406 L63.9844 135.7031 ZM65.9062 137.2812 C65.7344 137.375 65.5469 137.4219 65.3438 137.4219 C64.9531 137.4219 64.75 137.2188 64.75 136.4219 C64.75 135.4844 64.9688 133.5312 65.1875 131.8281 L65.0312 131.7188 L64.2344 131.9219 L64.1406 132.7969 C63.7812 132.0312 63.1562 131.6562 62.3906 131.6562 C61.0469 131.6562 59.5625 132.8438 59.5625 134.9531 C59.5625 137.0938 60.7188 138.1719 62.1406 138.1719 C63.0156 138.1719 63.6875 137.8125 64.0938 136.9844 C64.2031 137.8594 64.5156 138.1719 65.0156 138.1719 C65.4688 138.1719 65.7969 137.9062 66.0156 137.5625 L65.9062 137.2812 Z"
      /><rect x="70" y="96" width="7" style="fill:white; stroke:none;" height="9"
      /><path style="stroke:none;" d="M71 101.5156 L73.9531 97.2656 L73.9531 101.5156 L71 101.5156 ZM76.2812 101.5156 L74.8594 101.5156 L74.8594 96.125 L74.2344 96.125 L70.3438 101.6406 L70.3438 102.1875 L73.9531 102.1875 L73.9531 105 L74.8594 105 L74.8594 102.1875 L76.2812 102.1875 L76.2812 101.5156 Z"
      /><rect x="57" y="94" width="6" style="fill:white; stroke:none;" height="13"
      /><path style="stroke:none;" d="M59.0938 100.2031 C59.0938 98.6562 59.75 97.8125 60.7969 97.8125 C61.7188 97.8125 62.2656 98.4531 62.2656 99.5156 C62.2656 100.7188 61.5 101.4375 60.1875 101.7031 L60.2969 102.3125 C62.2188 102.2344 62.9375 103.2188 62.9375 104.4375 C62.9375 105.625 62.2344 106.4219 60.9531 106.4219 C60.25 106.4219 59.6562 106.1562 59.0938 105.7188 L59.0938 100.2031 ZM58.2031 106.9062 L58.1094 109.375 L58.2656 109.4844 L59.1562 109.2656 L59.0156 106.0938 C59.5469 106.8438 60.3594 107.1719 61.1719 107.1719 C62.5625 107.1719 63.8594 106.2188 63.8594 104.4844 C63.8594 102.9531 62.875 102.1094 61.125 102 C62.5625 101.6094 63.1875 100.4531 63.1875 99.4844 C63.1875 98.0938 62.1562 97.3125 60.9062 97.3125 C59.2969 97.3125 58.2188 98.5469 58.2188 100.5156 L58.2031 106.9062 Z"
      /><rect x="67" y="77" width="6" style="fill:white; stroke:none;" height="10"
      /><path style="stroke:none;" d="M70.3438 86.6875 C69.2031 86.6875 68.5312 85.5 68.5312 83.2969 C68.5312 83.2188 68.5312 83.125 68.5312 83.0469 C69.0938 82.5 69.7188 82.3125 70.3438 82.3125 C71.3125 82.3125 71.9531 82.9844 71.9531 84.4531 C71.9531 85.9375 71.3125 86.6875 70.3438 86.6875 ZM72.5312 78.0781 C69.3438 78.4531 67.5625 80.7656 67.5625 83.4531 C67.5625 85.7812 68.6094 87.1719 70.3125 87.1719 C71.8438 87.1719 72.9219 86.1094 72.9219 84.2812 C72.9219 82.6875 71.9688 81.6562 70.5625 81.6562 C69.8281 81.6562 69.1406 81.9844 68.5781 82.5781 C68.7969 80.4062 70.0781 78.9688 72.5938 78.3906 L72.5312 78.0781 Z"
      /><rect x="48" y="59" width="8" style="fill:white; stroke:none;" height="8"
      /><path style="stroke:none;" d="M52.9844 64.7031 C52.9375 65.8906 52.1562 66.6562 51.3125 66.6562 C50.2656 66.6562 49.5 65.6875 49.5 63.7188 C49.5 62.2812 50.1562 61.1562 51.3438 61.1562 C52.1406 61.1562 52.7812 61.6875 53.0938 62.6406 L52.9844 64.7031 ZM54.9062 66.2812 C54.7344 66.375 54.5469 66.4219 54.3438 66.4219 C53.9531 66.4219 53.75 66.2188 53.75 65.4219 C53.75 64.4844 53.9688 62.5312 54.1875 60.8281 L54.0312 60.7188 L53.2344 60.9219 L53.1406 61.7969 C52.7812 61.0312 52.1562 60.6562 51.3906 60.6562 C50.0469 60.6562 48.5625 61.8438 48.5625 63.9531 C48.5625 66.0938 49.7188 67.1719 51.1406 67.1719 C52.0156 67.1719 52.6875 66.8125 53.0938 65.9844 C53.2031 66.8594 53.5156 67.1719 54.0156 67.1719 C54.4688 67.1719 54.7969 66.9062 55.0156 66.5625 L54.9062 66.2812 Z"
      /><rect x="122" y="96" width="7" style="fill:white; stroke:none;" height="9"
      /><path style="stroke:none;" d="M123 101.5156 L125.9531 97.2656 L125.9531 101.5156 L123 101.5156 ZM128.2812 101.5156 L126.8594 101.5156 L126.8594 96.125 L126.2344 96.125 L122.3438 101.6406 L122.3438 102.1875 L125.9531 102.1875 L125.9531 105 L126.8594 105 L126.8594 102.1875 L128.2812 102.1875 L128.2812 101.5156 Z"
      /><rect x="109" y="94" width="6" style="fill:white; stroke:none;" height="13"
      /><path style="stroke:none;" d="M111.0938 100.2031 C111.0938 98.6562 111.75 97.8125 112.7969 97.8125 C113.7188 97.8125 114.2656 98.4531 114.2656 99.5156 C114.2656 100.7188 113.5 101.4375 112.1875 101.7031 L112.2969 102.3125 C114.2188 102.2344 114.9375 103.2188 114.9375 104.4375 C114.9375 105.625 114.2344 106.4219 112.9531 106.4219 C112.25 106.4219 111.6562 106.1562 111.0938 105.7188 L111.0938 100.2031 ZM110.2031 106.9062 L110.1094 109.375 L110.2656 109.4844 L111.1562 109.2656 L111.0156 106.0938 C111.5469 106.8438 112.3594 107.1719 113.1719 107.1719 C114.5625 107.1719 115.8594 106.2188 115.8594 104.4844 C115.8594 102.9531 114.875 102.1094 113.125 102 C114.5625 101.6094 115.1875 100.4531 115.1875 99.4844 C115.1875 98.0938 114.1562 97.3125 112.9062 97.3125 C111.2969 97.3125 110.2188 98.5469 110.2188 100.5156 L110.2031 106.9062 Z"
      /><polygon style="fill:white; clip-path:url(#clipPath7); stroke:none;" points=" 197 52 186 30 208 30"
      /><rect x="186" y="30" width="22" style="clip-path:url(#clipPath7); fill:rgb(237,28,36); stroke:none;" height="22"
      /><rect x="186" y="30" width="22" style="fill:none; clip-path:url(#clipPath7);" height="22"
      /><polygon style="fill:none;" points=" 197 52 186 30 208 30"
      /><rect x="174" y="96" width="7" style="fill:white; stroke:none;" height="9"
      /><path style="stroke:none;" d="M175 101.5156 L177.9531 97.2656 L177.9531 101.5156 L175 101.5156 ZM180.2812 101.5156 L178.8594 101.5156 L178.8594 96.125 L178.2344 96.125 L174.3438 101.6406 L174.3438 102.1875 L177.9531 102.1875 L177.9531 105 L178.8594 105 L178.8594 102.1875 L180.2812 102.1875 L180.2812 101.5156 Z"
      /><rect x="161" y="94" width="6" style="fill:white; stroke:none;" height="13"
      /><path style="stroke:none;" d="M163.0938 100.2031 C163.0938 98.6562 163.75 97.8125 164.7969 97.8125 C165.7188 97.8125 166.2656 98.4531 166.2656 99.5156 C166.2656 100.7188 165.5 101.4375 164.1875 101.7031 L164.2969 102.3125 C166.2188 102.2344 166.9375 103.2188 166.9375 104.4375 C166.9375 105.625 166.2344 106.4219 164.9531 106.4219 C164.25 106.4219 163.6562 106.1562 163.0938 105.7188 L163.0938 100.2031 ZM162.2031 106.9062 L162.1094 109.375 L162.2656 109.4844 L163.1562 109.2656 L163.0156 106.0938 C163.5469 106.8438 164.3594 107.1719 165.1719 107.1719 C166.5625 107.1719 167.8594 106.2188 167.8594 104.4844 C167.8594 102.9531 166.875 102.1094 165.125 102 C166.5625 101.6094 167.1875 100.4531 167.1875 99.4844 C167.1875 98.0938 166.1562 97.3125 164.9062 97.3125 C163.2969 97.3125 162.2188 98.5469 162.2188 100.5156 L162.2031 106.9062 Z"
      /><rect x="186" y="69" width="6" style="fill:white; stroke:none;" height="10"
      /><path style="stroke:none;" d="M189.3438 78.6875 C188.2031 78.6875 187.5312 77.5 187.5312 75.2969 C187.5312 75.2188 187.5312 75.125 187.5312 75.0469 C188.0938 74.5 188.7188 74.3125 189.3438 74.3125 C190.3125 74.3125 190.9531 74.9844 190.9531 76.4531 C190.9531 77.9375 190.3125 78.6875 189.3438 78.6875 ZM191.5312 70.0781 C188.3438 70.4531 186.5625 72.7656 186.5625 75.4531 C186.5625 77.7812 187.6094 79.1719 189.3125 79.1719 C190.8438 79.1719 191.9219 78.1094 191.9219 76.2812 C191.9219 74.6875 190.9688 73.6562 189.5625 73.6562 C188.8281 73.6562 188.1406 73.9844 187.5781 74.5781 C187.7969 72.4062 189.0781 70.9688 191.5938 70.3906 L191.5312 70.0781 Z"
      /><rect x="185" y="56" width="8" style="fill:white; stroke:none;" height="8"
      /><path style="stroke:none;" d="M189.9844 61.7031 C189.9375 62.8906 189.1562 63.6562 188.3125 63.6562 C187.2656 63.6562 186.5 62.6875 186.5 60.7188 C186.5 59.2812 187.1562 58.1562 188.3438 58.1562 C189.1406 58.1562 189.7812 58.6875 190.0938 59.6406 L189.9844 61.7031 ZM191.9062 63.2812 C191.7344 63.375 191.5469 63.4219 191.3438 63.4219 C190.9531 63.4219 190.75 63.2188 190.75 62.4219 C190.75 61.4844 190.9688 59.5312 191.1875 57.8281 L191.0312 57.7188 L190.2344 57.9219 L190.1406 58.7969 C189.7812 58.0312 189.1562 57.6562 188.3906 57.6562 C187.0469 57.6562 185.5625 58.8438 185.5625 60.9531 C185.5625 63.0938 186.7188 64.1719 188.1406 64.1719 C189.0156 64.1719 189.6875 63.8125 190.0938 62.9844 C190.2031 63.8594 190.5156 64.1719 191.0156 64.1719 C191.4688 64.1719 191.7969 63.9062 192.0156 63.5625 L191.9062 63.2812 Z"
      /><rect x="213" y="94" width="6" style="fill:white; stroke:none;" height="13"
      /><path style="stroke:none;" d="M215.0938 100.2031 C215.0938 98.6562 215.75 97.8125 216.7969 97.8125 C217.7188 97.8125 218.2656 98.4531 218.2656 99.5156 C218.2656 100.7188 217.5 101.4375 216.1875 101.7031 L216.2969 102.3125 C218.2188 102.2344 218.9375 103.2188 218.9375 104.4375 C218.9375 105.625 218.2344 106.4219 216.9531 106.4219 C216.25 106.4219 215.6562 106.1562 215.0938 105.7188 L215.0938 100.2031 ZM214.2031 106.9062 L214.1094 109.375 L214.2656 109.4844 L215.1562 109.2656 L215.0156 106.0938 C215.5469 106.8438 216.3594 107.1719 217.1719 107.1719 C218.5625 107.1719 219.8594 106.2188 219.8594 104.4844 C219.8594 102.9531 218.875 102.1094 217.125 102 C218.5625 101.6094 219.1875 100.4531 219.1875 99.4844 C219.1875 98.0938 218.1562 97.3125 216.9062 97.3125 C215.2969 97.3125 214.2188 98.5469 214.2188 100.5156 L214.2031 106.9062 Z"
    /></g
  ></g
></svg
>
