<?xml version="1.0"?>
<!DOCTYPE svg PUBLIC '-//W3C//DTD SVG 1.0//EN'
          'http://www.w3.org/TR/2001/REC-SVG-20010904/DTD/svg10.dtd'>
<svg xmlns:xlink="http://www.w3.org/1999/xlink" style="fill-opacity:1; color-rendering:auto; color-interpolation:auto; text-rendering:auto; stroke:black; stroke-linecap:square; stroke-miterlimit:10; shape-rendering:auto; stroke-opacity:1; fill:black; stroke-dasharray:none; font-weight:normal; stroke-width:1; font-family:'Dialog'; font-style:normal; stroke-linejoin:miter; font-size:12px; stroke-dashoffset:0; image-rendering:auto;" viewBox="0 0 126 157" xmlns="http://www.w3.org/2000/svg"
><!--Generated by the Batik Graphics2D SVG Generator--><defs id="genericDefs"
  /><g
  ><defs id="defs1"
    ><clipPath clipPathUnits="userSpaceOnUse" id="clipPath1"
      ><path d="M30 105 L52 105 L52 127 L30 127 L30 105 Z"
      /></clipPath
      ><clipPath clipPathUnits="userSpaceOnUse" id="clipPath2"
      ><path d="M52 64 C52 70.0751 47.0751 75 41 75 C34.9249 75 30 70.0751 30 64 C30 57.9249 34.9249 53 41 53 C47.0751 53 52 57.9249 52 64 Z"
      /></clipPath
    ></defs
    ><g style="fill:white; text-rendering:optimizeSpeed; stroke:white;"
    ><rect x="0" width="126" height="157" y="0" style="stroke:none;"
      /><rect x="30" y="105" width="22" style="clip-path:url(#clipPath1); stroke:none;" height="22"
      /><rect x="30" y="105" width="22" style="clip-path:url(#clipPath1); stroke:none;" height="22"
      /><rect x="30" y="105" width="22" style="clip-path:url(#clipPath1); fill:none; stroke:black;" height="22"
      /><rect x="30" y="105" width="22" style="fill:none; stroke:black;" height="22"
      /><rect x="57" y="103" width="5" style="stroke:none;" height="10"
    /></g
    ><g style="font-family:'Serif'; text-rendering:optimizeSpeed; "
    ><path style="stroke:none;" d="M58.8906 111.6875 C58.4844 111.6875 58.1562 112.0469 58.1562 112.4219 C58.1562 112.8125 58.4844 113.1562 58.8906 113.1562 C59.2969 113.1562 59.6406 112.8125 59.6406 112.4219 C59.6406 112.0469 59.2969 111.6875 58.8906 111.6875 ZM60.4688 105.5781 C60.7188 105.8906 60.875 106.2656 60.8906 106.6562 C60.8906 107.1875 60.625 107.5 60.0312 107.7656 L59.4062 108.0156 C58.6406 108.3125 58.3906 108.5469 58.3906 108.9375 C58.3906 109.1094 58.4531 109.3438 58.5781 109.8125 L58.7344 110.3438 L59.1094 110.3438 L59.0938 109.5312 C59.0938 109.0938 59.2031 108.9688 59.7812 108.7344 L60.2031 108.5625 C61.0312 108.2188 61.4531 107.6875 61.4531 106.8438 C61.4531 105.1562 59.6562 104.1875 58.5 104.0312 C58.1094 104.125 57.9062 104.2969 57.9062 104.6406 C57.9062 104.9375 58.0625 105.1562 58.7188 105.2656 L60.4688 105.5781 Z"
      /><rect x="57" y="119" width="5" style="fill:white; stroke:none;" height="10"
      /><path style="stroke:none;" d="M58.8906 127.6875 C58.4844 127.6875 58.1562 128.0469 58.1562 128.4219 C58.1562 128.8125 58.4844 129.1562 58.8906 129.1562 C59.2969 129.1562 59.6406 128.8125 59.6406 128.4219 C59.6406 128.0469 59.2969 127.6875 58.8906 127.6875 ZM60.4688 121.5781 C60.7188 121.8906 60.875 122.2656 60.8906 122.6562 C60.8906 123.1875 60.625 123.5 60.0312 123.7656 L59.4062 124.0156 C58.6406 124.3125 58.3906 124.5469 58.3906 124.9375 C58.3906 125.1094 58.4531 125.3438 58.5781 125.8125 L58.7344 126.3438 L59.1094 126.3438 L59.0938 125.5312 C59.0938 125.0938 59.2031 124.9688 59.7812 124.7344 L60.2031 124.5625 C61.0312 124.2188 61.4531 123.6875 61.4531 122.8438 C61.4531 121.1562 59.6562 120.1875 58.5 120.0312 C58.1094 120.125 57.9062 120.2969 57.9062 120.6406 C57.9062 120.9375 58.0625 121.1562 58.7188 121.2656 L60.4688 121.5781 Z"
      /><circle style="fill:white; clip-path:url(#clipPath2); stroke:none;" r="11" cx="41" cy="64"
      /><rect x="30" y="53" width="22" style="clip-path:url(#clipPath2); fill:white; stroke:none;" height="22"
      /><rect x="30" y="53" width="22" style="fill:none; clip-path:url(#clipPath2);" height="22"
      /><circle r="11" style="fill:none;" cx="41" cy="64"
    /></g
    ><g style="fill:white; text-rendering:optimizeSpeed; font-size:14px; font-family:'SansSerif'; stroke:white;"
    ><rect x="33" width="14" height="10" y="35" style="stroke:none;"
      /><path d="M37.1094 40.5781 C38.3438 40.5781 38.9688 41.4688 38.9688 42.8438 C38.9688 44.25 38.1875 45.1875 37.2188 45.1875 C35.9219 45.1875 35.1562 44.0312 35 41.8906 C35.625 40.9531 36.4531 40.5781 37.1094 40.5781 ZM37.2188 46.1875 C38.8125 46.1875 40.1562 44.8438 40.1562 42.8438 C40.1562 40.7031 39.0469 39.625 37.3125 39.625 C36.5 39.625 35.6094 40.1094 34.9688 40.875 C35.0312 37.6875 36.2188 36.6094 37.625 36.6094 C38.25 36.6094 38.8594 36.9062 39.2656 37.3906 L39.9688 36.5938 C39.4062 35.9844 38.6406 35.5469 37.5781 35.5469 C35.5938 35.5469 33.7812 37.0781 33.7812 41.0938 C33.7812 44.4844 35.2344 46.1875 37.2188 46.1875 ZM45.02 46.1875 C47.1606 46.1875 48.5043 44.8906 48.5043 43.2656 C48.5043 41.75 47.5825 41.0469 46.395 40.5312 L44.9262 39.8906 C44.1293 39.5625 43.2387 39.1875 43.2387 38.1875 C43.2387 37.2656 43.9887 36.6719 45.145 36.6719 C46.0981 36.6719 46.8637 37.0469 47.4887 37.6406 L48.1762 36.8125 C47.4418 36.0625 46.3637 35.5469 45.145 35.5469 C43.2856 35.5469 41.9106 36.6875 41.9106 38.2656 C41.9106 39.7656 43.0512 40.5 44.0043 40.9062 L45.4887 41.5469 C46.4575 41.9844 47.1918 42.3125 47.1918 43.375 C47.1918 44.375 46.3793 45.0469 45.0356 45.0469 C43.9731 45.0469 42.9418 44.5469 42.2075 43.7812 L41.4262 44.6562 C42.3168 45.5938 43.5668 46.1875 45.02 46.1875 Z" style="fill:black; stroke:none;"
      /><rect x="57" width="5" height="10" y="51" style="stroke:none;"
    /></g
    ><g style="font-family:'Serif'; text-rendering:optimizeSpeed; "
    ><path style="stroke:none;" d="M58.8906 59.6875 C58.4844 59.6875 58.1562 60.0469 58.1562 60.4219 C58.1562 60.8125 58.4844 61.1562 58.8906 61.1562 C59.2969 61.1562 59.6406 60.8125 59.6406 60.4219 C59.6406 60.0469 59.2969 59.6875 58.8906 59.6875 ZM60.4688 53.5781 C60.7188 53.8906 60.875 54.2656 60.8906 54.6562 C60.8906 55.1875 60.625 55.5 60.0312 55.7656 L59.4062 56.0156 C58.6406 56.3125 58.3906 56.5469 58.3906 56.9375 C58.3906 57.1094 58.4531 57.3438 58.5781 57.8125 L58.7344 58.3438 L59.1094 58.3438 L59.0938 57.5312 C59.0938 57.0938 59.2031 56.9688 59.7812 56.7344 L60.2031 56.5625 C61.0312 56.2188 61.4531 55.6875 61.4531 54.8438 C61.4531 53.1562 59.6562 52.1875 58.5 52.0312 C58.1094 52.125 57.9062 52.2969 57.9062 52.6406 C57.9062 52.9375 58.0625 53.1562 58.7188 53.2656 L60.4688 53.5781 Z"
      /><rect x="57" y="67" width="5" style="fill:white; stroke:none;" height="10"
      /><path style="stroke:none;" d="M58.8906 75.6875 C58.4844 75.6875 58.1562 76.0469 58.1562 76.4219 C58.1562 76.8125 58.4844 77.1562 58.8906 77.1562 C59.2969 77.1562 59.6406 76.8125 59.6406 76.4219 C59.6406 76.0469 59.2969 75.6875 58.8906 75.6875 ZM60.4688 69.5781 C60.7188 69.8906 60.875 70.2656 60.8906 70.6562 C60.8906 71.1875 60.625 71.5 60.0312 71.7656 L59.4062 72.0156 C58.6406 72.3125 58.3906 72.5469 58.3906 72.9375 C58.3906 73.1094 58.4531 73.3438 58.5781 73.8125 L58.7344 74.3438 L59.1094 74.3438 L59.0938 73.5312 C59.0938 73.0938 59.2031 72.9688 59.7812 72.7344 L60.2031 72.5625 C61.0312 72.2188 61.4531 71.6875 61.4531 70.8438 C61.4531 69.1562 59.6562 68.1875 58.5 68.0312 C58.1094 68.125 57.9062 68.2969 57.9062 68.6406 C57.9062 68.9375 58.0625 69.1562 58.7188 69.2656 L60.4688 69.5781 Z"
    /></g
  ></g
></svg
>
