<?xml version="1.0"?>
<!DOCTYPE svg PUBLIC '-//W3C//DTD SVG 1.0//EN'
          'http://www.w3.org/TR/2001/REC-SVG-20010904/DTD/svg10.dtd'>
<svg xmlns:xlink="http://www.w3.org/1999/xlink" style="fill-opacity:1; color-rendering:auto; color-interpolation:auto; text-rendering:auto; stroke:black; stroke-linecap:square; stroke-miterlimit:10; shape-rendering:auto; stroke-opacity:1; fill:black; stroke-dasharray:none; font-weight:normal; stroke-width:1; font-family:'Dialog'; font-style:normal; stroke-linejoin:miter; font-size:12px; stroke-dashoffset:0; image-rendering:auto;" viewBox="0 0 134 128" xmlns="http://www.w3.org/2000/svg"
><!--Generated by the Batik Graphics2D SVG Generator--><defs id="genericDefs"
  /><g
  ><defs id="defs1"
    ><clipPath clipPathUnits="userSpaceOnUse" id="clipPath1"
      ><path d="M52 64 C52 70.0751 47.0751 75 41 75 C34.9249 75 30 70.0751 30 64 C30 57.9249 34.9249 53 41 53 C47.0751 53 52 57.9249 52 64 Z"
      /></clipPath
    ></defs
    ><g style="fill:white; text-rendering:optimizeSpeed; stroke:white;"
    ><rect x="0" width="134" height="128" y="0" style="stroke:none;"
      /><polygon style="fill:none; stroke:black;" points=" 93 64 41 64"
      /><path d="M93 53 C87.5 58.5 98.5 69.5 93 75" style="fill:none; stroke:black;"
      /><circle style="clip-path:url(#clipPath1); stroke:none;" r="11" cx="41" cy="64"
      /><rect x="30" y="53" width="22" style="clip-path:url(#clipPath1); stroke:none;" height="22"
      /><rect x="30" y="53" width="22" style="clip-path:url(#clipPath1); fill:none; stroke:black;" height="22"
      /><circle style="fill:none; stroke:black;" r="11" cx="41" cy="64"
      /><rect x="34" y="81" width="13" style="stroke:none;" height="10"
    /></g
    ><g style="text-rendering:optimizeSpeed; font-size:14px; font-family:'SansSerif';"
    ><path style="stroke:none;" d="M35.2344 92 L40.8594 92 L40.8594 90.9375 L38.7969 90.9375 L38.7969 81.7188 L37.8281 81.7188 C37.2656 82.0625 36.6094 82.2969 35.6875 82.4688 L35.6875 83.2812 L37.5156 83.2812 L37.5156 90.9375 L35.2344 90.9375 L35.2344 92 ZM44.8012 92.1875 C45.7387 92.1875 46.5981 91.6875 47.3325 91.0938 L47.3637 91.0938 L47.4887 92 L48.5356 92 L48.5356 87.3281 C48.5356 85.4531 47.7543 84.2031 45.895 84.2031 C44.6762 84.2031 43.5981 84.75 42.9106 85.2031 L43.4106 86.0781 C44.0043 85.6719 44.8012 85.2656 45.6918 85.2656 C46.9418 85.2656 47.2543 86.2031 47.2543 87.1875 C44.02 87.5469 42.5825 88.375 42.5825 90.0312 C42.5825 91.3906 43.5356 92.1875 44.8012 92.1875 ZM45.1762 91.1562 C44.4106 91.1562 43.8325 90.8125 43.8325 89.9375 C43.8325 88.9688 44.6918 88.3281 47.2543 88.0312 L47.2543 90.1562 C46.52 90.8125 45.9106 91.1562 45.1762 91.1562 Z"
      /><rect x="34" y="35" width="13" style="fill:white; stroke:none;" height="10"
      /><path style="stroke:none;" d="M38.1094 40.5781 C39.3438 40.5781 39.9688 41.4688 39.9688 42.8438 C39.9688 44.25 39.1875 45.1875 38.2188 45.1875 C36.9219 45.1875 36.1562 44.0312 36 41.8906 C36.625 40.9531 37.4531 40.5781 38.1094 40.5781 ZM38.2188 46.1875 C39.8125 46.1875 41.1562 44.8438 41.1562 42.8438 C41.1562 40.7031 40.0469 39.625 38.3125 39.625 C37.5 39.625 36.6094 40.1094 35.9688 40.875 C36.0312 37.6875 37.2188 36.6094 38.625 36.6094 C39.25 36.6094 39.8594 36.9062 40.2656 37.3906 L40.9688 36.5938 C40.4062 35.9844 39.6406 35.5469 38.5781 35.5469 C36.5938 35.5469 34.7812 37.0781 34.7812 41.0938 C34.7812 44.4844 36.2344 46.1875 38.2188 46.1875 ZM44.8012 46.1875 C45.7387 46.1875 46.5981 45.6875 47.3325 45.0938 L47.3637 45.0938 L47.4887 46 L48.5356 46 L48.5356 41.3281 C48.5356 39.4531 47.7543 38.2031 45.895 38.2031 C44.6762 38.2031 43.5981 38.75 42.9106 39.2031 L43.4106 40.0781 C44.0043 39.6719 44.8012 39.2656 45.6918 39.2656 C46.9418 39.2656 47.2543 40.2031 47.2543 41.1875 C44.02 41.5469 42.5825 42.375 42.5825 44.0312 C42.5825 45.3906 43.5356 46.1875 44.8012 46.1875 ZM45.1762 45.1562 C44.4106 45.1562 43.8325 44.8125 43.8325 43.9375 C43.8325 42.9688 44.6918 42.3281 47.2543 42.0312 L47.2543 44.1562 C46.52 44.8125 45.9106 45.1562 45.1762 45.1562 Z"
    /></g
    ><g style="fill:white; text-rendering:optimizeSpeed; font-family:'Serif'; stroke:white;"
    ><rect x="57" width="5" height="10" y="67" style="stroke:none;"
      /><path d="M58.8906 75.6875 C58.4844 75.6875 58.1562 76.0469 58.1562 76.4219 C58.1562 76.8125 58.4844 77.1562 58.8906 77.1562 C59.2969 77.1562 59.6406 76.8125 59.6406 76.4219 C59.6406 76.0469 59.2969 75.6875 58.8906 75.6875 ZM60.4688 69.5781 C60.7188 69.8906 60.875 70.2656 60.8906 70.6562 C60.8906 71.1875 60.625 71.5 60.0312 71.7656 L59.4062 72.0156 C58.6406 72.3125 58.3906 72.5469 58.3906 72.9375 C58.3906 73.1094 58.4531 73.3438 58.5781 73.8125 L58.7344 74.3438 L59.1094 74.3438 L59.0938 73.5312 C59.0938 73.0938 59.2031 72.9688 59.7812 72.7344 L60.2031 72.5625 C61.0312 72.2188 61.4531 71.6875 61.4531 70.8438 C61.4531 69.1562 59.6562 68.1875 58.5 68.0312 C58.1094 68.125 57.9062 68.2969 57.9062 68.6406 C57.9062 68.9375 58.0625 69.1562 58.7188 69.2656 L60.4688 69.5781 Z" style="fill:black; stroke:none;"
    /></g
  ></g
></svg
>
