<?xml version="1.0"?>
<!DOCTYPE svg PUBLIC '-//W3C//DTD SVG 1.0//EN'
          'http://www.w3.org/TR/2001/REC-SVG-20010904/DTD/svg10.dtd'>
<svg xmlns:xlink="http://www.w3.org/1999/xlink" style="fill-opacity:1; color-rendering:auto; color-interpolation:auto; text-rendering:auto; stroke:black; stroke-linecap:square; stroke-miterlimit:10; shape-rendering:auto; stroke-opacity:1; fill:black; stroke-dasharray:none; font-weight:normal; stroke-width:1; font-family:'Dialog'; font-style:normal; stroke-linejoin:miter; font-size:12px; stroke-dashoffset:0; image-rendering:auto;" viewBox="0 0 157 209" xmlns="http://www.w3.org/2000/svg"
><!--Generated by the Batik Graphics2D SVG Generator--><defs id="genericDefs"
  /><g
  ><defs id="defs1"
    ><clipPath clipPathUnits="userSpaceOnUse" id="clipPath1"
      ><path d="M54 162.5 L76 162.5 L76 173.5 L54 173.5 L54 162.5 Z"
      /></clipPath
      ><clipPath clipPathUnits="userSpaceOnUse" id="clipPath2"
      ><path d="M54 87.5 L76 87.5 L76 98.5 L54 98.5 L54 87.5 Z"
      /></clipPath
    ></defs
    ><g style="fill:white; text-rendering:optimizeSpeed; stroke:white;"
    ><rect x="0" width="157" height="209" y="0" style="stroke:none;"
      /><rect x="54" y="162.5" width="22" style="clip-path:url(#clipPath1); stroke:none;" height="11"
      /><rect x="54" y="157" width="22" style="clip-path:url(#clipPath1); fill:rgb(0,144,188); stroke:none;" height="22"
      /><rect x="54" y="157" width="22" style="clip-path:url(#clipPath1); fill:none; stroke:black;" height="22"
      /><rect x="54" y="162.5" width="22" style="fill:none; stroke:black;" height="11"
      /><rect x="81" y="155" width="5" style="stroke:none;" height="10"
    /></g
    ><g style="font-family:'Serif'; text-rendering:optimizeSpeed; "
    ><path style="stroke:none;" d="M82.8906 163.6875 C82.4844 163.6875 82.1562 164.0469 82.1562 164.4219 C82.1562 164.8125 82.4844 165.1562 82.8906 165.1562 C83.2969 165.1562 83.6406 164.8125 83.6406 164.4219 C83.6406 164.0469 83.2969 163.6875 82.8906 163.6875 ZM84.4688 157.5781 C84.7188 157.8906 84.875 158.2656 84.8906 158.6562 C84.8906 159.1875 84.625 159.5 84.0312 159.7656 L83.4062 160.0156 C82.6406 160.3125 82.3906 160.5469 82.3906 160.9375 C82.3906 161.1094 82.4531 161.3438 82.5781 161.8125 L82.7344 162.3438 L83.1094 162.3438 L83.0938 161.5312 C83.0938 161.0938 83.2031 160.9688 83.7812 160.7344 L84.2031 160.5625 C85.0312 160.2188 85.4531 159.6875 85.4531 158.8438 C85.4531 157.1562 83.6562 156.1875 82.5 156.0312 C82.1094 156.125 81.9062 156.2969 81.9062 156.6406 C81.9062 156.9375 82.0625 157.1562 82.7188 157.2656 L84.4688 157.5781 Z"
      /><rect x="81" y="171" width="5" style="fill:white; stroke:none;" height="10"
      /><path style="stroke:none;" d="M82.8906 179.6875 C82.4844 179.6875 82.1562 180.0469 82.1562 180.4219 C82.1562 180.8125 82.4844 181.1562 82.8906 181.1562 C83.2969 181.1562 83.6406 180.8125 83.6406 180.4219 C83.6406 180.0469 83.2969 179.6875 82.8906 179.6875 ZM84.4688 173.5781 C84.7188 173.8906 84.875 174.2656 84.8906 174.6562 C84.8906 175.1875 84.625 175.5 84.0312 175.7656 L83.4062 176.0156 C82.6406 176.3125 82.3906 176.5469 82.3906 176.9375 C82.3906 177.1094 82.4531 177.3438 82.5781 177.8125 L82.7344 178.3438 L83.1094 178.3438 L83.0938 177.5312 C83.0938 177.0938 83.2031 176.9688 83.7812 176.7344 L84.2031 176.5625 C85.0312 176.2188 85.4531 175.6875 85.4531 174.8438 C85.4531 173.1562 83.6562 172.1875 82.5 172.0312 C82.1094 172.125 81.9062 172.2969 81.9062 172.6406 C81.9062 172.9375 82.0625 173.1562 82.7188 173.2656 L84.4688 173.5781 Z"
      /><path style="stroke:none;" d="M36.6094 173 L43.0625 173 L43.0625 171.8906 L40.2344 171.8906 C39.7031 171.8906 39.0781 171.9531 38.5469 171.9844 C40.9531 169.7031 42.5625 167.625 42.5625 165.5781 C42.5625 163.75 41.4219 162.5469 39.5781 162.5469 C38.2812 162.5469 37.4062 163.1406 36.5625 164.0469 L37.2969 164.7812 C37.8594 164.1094 38.5938 163.5938 39.4375 163.5938 C40.7031 163.5938 41.3125 164.4531 41.3125 165.625 C41.3125 167.3906 39.8438 169.4375 36.6094 172.25 L36.6094 173 ZM43.9731 173 L45.3168 173 L46.3481 171.2188 C46.6137 170.7656 46.8637 170.2969 47.1293 169.8594 L47.2075 169.8594 C47.4731 170.2969 47.7543 170.7656 48.0043 171.2188 L49.1293 173 L50.5356 173 L48.02 169.1562 L50.3325 165.3906 L49.0043 165.3906 L48.0668 167.0625 C47.8481 167.5 47.6137 167.9219 47.3793 168.3438 L47.3325 168.3438 C47.0668 167.9219 46.8012 167.5 46.5668 167.0625 L45.5512 165.3906 L44.1762 165.3906 L46.4887 169.0312 L43.9731 173 Z"
    /></g
    ><g style="fill:white; text-rendering:optimizeSpeed; font-size:14px; font-family:'SansSerif'; stroke:white;"
    ><rect x="54" y="87.5" width="22" style="clip-path:url(#clipPath2); stroke:none;" height="11"
      /><rect x="54" y="82" width="22" style="clip-path:url(#clipPath2); fill:rgb(0,144,188); stroke:none;" height="22"
      /><rect x="54" y="82" width="22" style="clip-path:url(#clipPath2); fill:none; stroke:black;" height="22"
      /><rect x="54" y="87.5" width="22" style="fill:none; stroke:black;" height="11"
      /><path d="M63 96 L67.125 96 L67.125 95.2031 L63.9375 95.2031 L63.9375 88.6562 L63 88.6562 L63 96 Z" style="fill:black; stroke:none;"
      /><path d="M53.9062 120.1406 C55.3281 120.1406 56.4844 119.2812 56.4844 117.8438 C56.4844 116.75 55.7344 116.0156 54.7812 115.7969 L54.7812 115.75 C55.625 115.4375 56.2188 114.7812 56.2188 113.8125 C56.2188 112.5312 55.2188 111.7812 53.875 111.7812 C52.9375 111.7812 52.2188 112.1875 51.6094 112.75 L52.1562 113.3906 C52.6094 112.9219 53.1719 112.6094 53.8281 112.6094 C54.6562 112.6094 55.1875 113.1094 55.1875 113.8906 C55.1875 114.75 54.625 115.4219 52.9531 115.4219 L52.9531 116.1875 C54.8125 116.1875 55.4688 116.8438 55.4688 117.7969 C55.4688 118.7344 54.7812 119.3125 53.8281 119.3125 C52.9062 119.3125 52.2969 118.875 51.8281 118.3906 L51.3125 119.0469 C51.8438 119.6094 52.6406 120.1406 53.9062 120.1406 ZM61.2456 120.1406 C62.2924 120.1406 63.0893 119.7188 63.7299 118.9844 L63.1674 118.3438 C62.6518 118.9062 62.0737 119.25 61.2924 119.25 C59.7612 119.25 58.7924 117.9688 58.7924 115.9375 C58.7924 113.9219 59.7924 112.6719 61.3237 112.6719 C62.0268 112.6719 62.5581 113 62.9799 113.4375 L63.5268 112.7812 C63.0737 112.2656 62.2924 111.7812 61.3237 111.7812 C59.2768 111.7812 57.7456 113.3594 57.7456 115.9688 C57.7456 118.5938 59.2456 120.1406 61.2456 120.1406 ZM65.2166 120 L66.1541 120 L66.1541 115.5312 C66.1541 114.8438 66.076 113.8594 66.0291 113.1562 L66.076 113.1562 L66.701 115 L68.2323 119.1875 L68.9198 119.1875 L70.451 115 L71.0916 113.1562 L71.1229 113.1562 C71.076 113.8594 70.9979 114.8438 70.9979 115.5312 L70.9979 120 L71.951 120 L71.951 111.9219 L70.7166 111.9219 L69.1854 116.25 C68.9979 116.8125 68.826 117.375 68.6385 117.9375 L68.576 117.9375 C68.3729 117.375 68.1854 116.8125 68.0135 116.25 L66.451 111.9219 L65.2166 111.9219 L65.2166 120 ZM76.4767 120.1406 C77.2892 120.1406 77.9298 119.875 78.4611 119.5312 L78.0861 118.8594 C77.6486 119.1562 77.1798 119.3438 76.6017 119.3438 C75.4611 119.3438 74.6798 118.5312 74.6173 117.25 L78.6486 117.25 C78.6642 117.1094 78.6798 116.8906 78.6798 116.6719 C78.6798 114.9688 77.8361 113.875 76.3048 113.875 C74.9298 113.875 73.6173 115.0781 73.6173 117.0156 C73.6173 118.9844 74.8986 120.1406 76.4767 120.1406 ZM74.6017 116.5312 C74.7267 115.3594 75.4767 114.6719 76.3204 114.6719 C77.2579 114.6719 77.8048 115.3281 77.8048 116.5312 L74.6017 116.5312 Z" style="fill:black; stroke:none;"
      /><rect x="88" width="5" height="10" y="80" style="stroke:none;"
    /></g
    ><g style="font-family:'Serif'; text-rendering:optimizeSpeed; "
    ><path style="stroke:none;" d="M89.8906 88.6875 C89.4844 88.6875 89.1562 89.0469 89.1562 89.4219 C89.1562 89.8125 89.4844 90.1562 89.8906 90.1562 C90.2969 90.1562 90.6406 89.8125 90.6406 89.4219 C90.6406 89.0469 90.2969 88.6875 89.8906 88.6875 ZM91.4688 82.5781 C91.7188 82.8906 91.875 83.2656 91.8906 83.6562 C91.8906 84.1875 91.625 84.5 91.0312 84.7656 L90.4062 85.0156 C89.6406 85.3125 89.3906 85.5469 89.3906 85.9375 C89.3906 86.1094 89.4531 86.3438 89.5781 86.8125 L89.7344 87.3438 L90.1094 87.3438 L90.0938 86.5312 C90.0938 86.0938 90.2031 85.9688 90.7812 85.7344 L91.2031 85.5625 C92.0312 85.2188 92.4531 84.6875 92.4531 83.8438 C92.4531 82.1562 90.6562 81.1875 89.5 81.0312 C89.1094 81.125 88.9062 81.2969 88.9062 81.6406 C88.9062 81.9375 89.0625 82.1562 89.7188 82.2656 L91.4688 82.5781 Z"
      /><rect x="88" y="96" width="5" style="fill:white; stroke:none;" height="10"
      /><path style="stroke:none;" d="M89.8906 104.6875 C89.4844 104.6875 89.1562 105.0469 89.1562 105.4219 C89.1562 105.8125 89.4844 106.1562 89.8906 106.1562 C90.2969 106.1562 90.6406 105.8125 90.6406 105.4219 C90.6406 105.0469 90.2969 104.6875 89.8906 104.6875 ZM91.4688 98.5781 C91.7188 98.8906 91.875 99.2656 91.8906 99.6562 C91.8906 100.1875 91.625 100.5 91.0312 100.7656 L90.4062 101.0156 C89.6406 101.3125 89.3906 101.5469 89.3906 101.9375 C89.3906 102.1094 89.4531 102.3438 89.5781 102.8125 L89.7344 103.3438 L90.1094 103.3438 L90.0938 102.5312 C90.0938 102.0938 90.2031 101.9688 90.7812 101.7344 L91.2031 101.5625 C92.0312 101.2188 92.4531 100.6875 92.4531 99.8438 C92.4531 98.1562 90.6562 97.1875 89.5 97.0312 C89.1094 97.125 88.9062 97.2969 88.9062 97.6406 C88.9062 97.9375 89.0625 98.1562 89.7188 98.2656 L91.4688 98.5781 Z"
    /></g
    ><g style="fill:white; text-rendering:optimizeSpeed; font-size:14px; font-family:'SansSerif'; stroke:white;"
    ><rect x="53" width="21" height="10" y="35" style="stroke:none;"
      /><path d="M55.4844 42.9062 L56.625 42.9062 C56.375 40.7031 58.8906 39.875 58.8906 37.8281 C58.8906 36.2969 57.8594 35.3281 56.2812 35.3281 C55.1406 35.3281 54.25 35.875 53.6094 36.625 L54.3281 37.2969 C54.8125 36.7344 55.4375 36.3906 56.1406 36.3906 C57.125 36.3906 57.6406 37.0625 57.6406 37.9062 C57.6406 39.5781 55.1719 40.4688 55.4844 42.9062 ZM56.0938 46.1875 C56.6094 46.1875 57.0312 45.7969 57.0312 45.2188 C57.0312 44.625 56.6094 44.2188 56.0938 44.2188 C55.5938 44.2188 55.1719 44.625 55.1719 45.2188 C55.1719 45.7969 55.5938 46.1875 56.0938 46.1875 ZM62.8078 40.2656 C63.1828 39.0938 63.511 37.9844 63.8391 36.7812 L63.886 36.7812 C64.2297 37.9844 64.5422 39.0938 64.9328 40.2656 L65.4172 41.8281 L62.3078 41.8281 L62.8078 40.2656 ZM59.6828 46 L60.9953 46 L61.9953 42.8594 L65.7453 42.8594 L66.7141 46 L68.0891 46 L64.6047 35.7188 L63.1672 35.7188 L59.6828 46 ZM72.4152 46.1875 C73.3214 46.1875 74.1964 45.8281 74.8839 45.2188 L74.3214 44.3594 C73.8527 44.7969 73.2277 45.125 72.5246 45.125 C71.1339 45.125 70.1808 43.9531 70.1808 42.2031 C70.1808 40.4531 71.1808 39.2656 72.5714 39.2656 C73.1808 39.2656 73.6339 39.5469 74.0871 39.9375 L74.7433 39.0938 C74.1964 38.625 73.5089 38.2031 72.5089 38.2031 C70.5714 38.2031 68.8527 39.6719 68.8527 42.2031 C68.8527 44.7188 70.3996 46.1875 72.4152 46.1875 Z" style="fill:black; stroke:none;"
    /></g
  ></g
></svg
>
