<?xml version="1.0"?>
<!DOCTYPE svg PUBLIC '-//W3C//DTD SVG 1.0//EN'
          'http://www.w3.org/TR/2001/REC-SVG-20010904/DTD/svg10.dtd'>
<svg xmlns:xlink="http://www.w3.org/1999/xlink" style="fill-opacity:1; color-rendering:auto; color-interpolation:auto; text-rendering:auto; stroke:black; stroke-linecap:square; stroke-miterlimit:10; shape-rendering:auto; stroke-opacity:1; fill:black; stroke-dasharray:none; font-weight:normal; stroke-width:1; font-family:'Dialog'; font-style:normal; stroke-linejoin:miter; font-size:12px; stroke-dashoffset:0; image-rendering:auto;" viewBox="0 0 446 186" xmlns="http://www.w3.org/2000/svg"
><!--Generated by the Batik Graphics2D SVG Generator--><defs id="genericDefs"
  /><g
  ><defs id="defs1"
    ><clipPath clipPathUnits="userSpaceOnUse" id="clipPath1"
      ><path d="M342 69 L364 69 L364 91 L342 91 L342 69 Z"
      /></clipPath
      ><clipPath clipPathUnits="userSpaceOnUse" id="clipPath2"
      ><path d="M290 69 L312 69 L312 91 L290 91 L290 69 Z"
      /></clipPath
      ><clipPath clipPathUnits="userSpaceOnUse" id="clipPath3"
      ><path d="M260 80 C260 86.0751 255.0751 91 249 91 C242.9249 91 238 86.0751 238 80 C238 73.9249 242.9249 69 249 69 C255.0751 69 260 73.9249 260 80 Z"
      /></clipPath
      ><clipPath clipPathUnits="userSpaceOnUse" id="clipPath4"
      ><path d="M208 119 C208 125.0751 203.0751 130 197 130 C190.9249 130 186 125.0751 186 119 C186 112.9249 190.9249 108 197 108 C203.0751 108 208 112.9249 208 119 Z"
      /></clipPath
      ><clipPath clipPathUnits="userSpaceOnUse" id="clipPath5"
      ><path d="M134 134 L156 134 L156 156 L134 156 L134 134 Z"
      /></clipPath
      ><clipPath clipPathUnits="userSpaceOnUse" id="clipPath6"
      ><path d="M104 145 C104 151.0751 99.0751 156 93 156 C86.9249 156 82 151.0751 82 145 C82 138.9249 86.9249 134 93 134 C99.0751 134 104 138.9249 104 145 Z"
      /></clipPath
      ><clipPath clipPathUnits="userSpaceOnUse" id="clipPath7"
      ><path d="M52 145 C52 151.0751 47.0751 156 41 156 C34.9249 156 30 151.0751 30 145 C30 138.9249 34.9249 134 41 134 C47.0751 134 52 138.9249 52 145 Z"
      /></clipPath
      ><clipPath clipPathUnits="userSpaceOnUse" id="clipPath8"
      ><path d="M134 82 L156 82 L156 104 L134 104 L134 82 Z"
      /></clipPath
      ><clipPath clipPathUnits="userSpaceOnUse" id="clipPath9"
      ><path d="M104 93 C104 99.0751 99.0751 104 93 104 C86.9249 104 82 99.0751 82 93 C82 86.9249 86.9249 82 93 82 C99.0751 82 104 86.9249 104 93 Z"
      /></clipPath
      ><clipPath clipPathUnits="userSpaceOnUse" id="clipPath10"
      ><path d="M208 41 C208 47.0751 203.0751 52 197 52 C190.9249 52 186 47.0751 186 41 C186 34.9249 190.9249 30 197 30 C203.0751 30 208 34.9249 208 41 Z"
      /></clipPath
      ><clipPath clipPathUnits="userSpaceOnUse" id="clipPath11"
      ><path d="M134 30 L156 30 L156 52 L134 52 L134 30 Z"
      /></clipPath
      ><clipPath clipPathUnits="userSpaceOnUse" id="clipPath12"
      ><path d="M104 41 C104 47.0751 99.0751 52 93 52 C86.9249 52 82 47.0751 82 41 C82 34.9249 86.9249 30 93 30 C99.0751 30 104 34.9249 104 41 Z"
      /></clipPath
    ></defs
    ><g style="fill:white; text-rendering:optimizeSpeed; stroke:white;"
    ><rect x="0" width="446" height="186" y="0" style="stroke:none;"
      /><polygon style="fill:none; stroke:black;" points=" 405 80 353 80"
      /><path d="M405 69 C399.5 74.5 410.5 85.5 405 91" style="fill:none; stroke:black;"
      /><polygon style="fill:none; stroke:black;" points=" 353 80 301 80"
      /><rect x="342" y="69" width="22" style="clip-path:url(#clipPath1); stroke:none;" height="22"
      /><rect x="342" y="69" width="22" style="clip-path:url(#clipPath1); fill:rgb(0,144,188); stroke:none;" height="22"
      /><rect x="342" y="69" width="22" style="clip-path:url(#clipPath1); fill:none; stroke:black;" height="22"
      /><rect x="342" y="69" width="22" style="fill:none; stroke:black;" height="22"
      /><polygon style="fill:none; stroke:black;" points=" 301 80 249 80"
      /><rect x="290" y="69" width="22" style="clip-path:url(#clipPath2); stroke:none;" height="22"
      /><rect x="290" y="69" width="22" style="clip-path:url(#clipPath2); fill:rgb(0,144,188); stroke:none;" height="22"
      /><rect x="290" y="69" width="22" style="clip-path:url(#clipPath2); fill:none; stroke:black;" height="22"
      /><rect x="290" y="69" width="22" style="fill:none; stroke:black;" height="22"
      /><polygon style="fill:none; stroke:black;" points=" 249 80 197 119"
      /><polygon style="fill:none; stroke:black;" points=" 249 80 197 41"
      /><circle style="clip-path:url(#clipPath3); stroke:none;" r="11" cx="249" cy="80"
      /><rect x="238" y="69" width="22" style="clip-path:url(#clipPath3); fill:rgb(0,166,81); stroke:none;" height="22"
      /><rect x="238" y="69" width="22" style="clip-path:url(#clipPath3); fill:none; stroke:black;" height="22"
      /><circle style="fill:none; stroke:black;" r="11" cx="249" cy="80"
      /><polygon style="fill:none; stroke:black;" points=" 197 119 145 145"
      /><polygon style="fill:none; stroke:black;" points=" 197 119 145 93"
      /><circle style="clip-path:url(#clipPath4); stroke:none;" r="11" cx="197" cy="119"
      /><rect x="186" y="108" width="22" style="clip-path:url(#clipPath4); fill:rgb(0,166,81); stroke:none;" height="22"
      /><rect x="186" y="108" width="22" style="clip-path:url(#clipPath4); fill:none; stroke:black;" height="22"
      /><circle style="fill:none; stroke:black;" r="11" cx="197" cy="119"
      /><polygon style="fill:none; stroke:black;" points=" 145 145 93 145"
      /><rect x="134" y="134" width="22" style="clip-path:url(#clipPath5); stroke:none;" height="22"
      /><rect x="134" y="134" width="22" style="clip-path:url(#clipPath5); fill:rgb(0,144,188); stroke:none;" height="22"
      /><rect x="134" y="134" width="22" style="clip-path:url(#clipPath5); fill:none; stroke:black;" height="22"
      /><rect x="134" y="134" width="22" style="fill:none; stroke:black;" height="22"
      /><polygon style="fill:none; stroke:black;" points=" 93 145 41 145"
      /><circle style="clip-path:url(#clipPath6); stroke:none;" r="11" cx="93" cy="145"
      /><rect x="82" y="134" width="22" style="clip-path:url(#clipPath6); fill:rgb(255,212,0); stroke:none;" height="22"
      /><rect x="82" y="134" width="22" style="clip-path:url(#clipPath6); fill:none; stroke:black;" height="22"
      /><circle style="fill:none; stroke:black;" r="11" cx="93" cy="145"
      /><circle style="clip-path:url(#clipPath7); stroke:none;" r="11" cx="41" cy="145"
      /><rect x="30" y="134" width="22" style="clip-path:url(#clipPath7); fill:rgb(255,212,0); stroke:none;" height="22"
      /><rect x="30" y="134" width="22" style="clip-path:url(#clipPath7); fill:none; stroke:black;" height="22"
      /><circle style="fill:none; stroke:black;" r="11" cx="41" cy="145"
      /><rect x="71" y="148" width="6" style="stroke:none;" height="10"
    /></g
    ><g style="font-family:'Serif'; text-rendering:optimizeSpeed; "
    ><path style="stroke:none;" d="M73.2344 149.6562 C73.5156 149.5938 73.7656 149.5625 74.0156 149.5625 C75.0625 149.5625 75.6719 150.1719 75.6719 151.2656 C75.6719 152.4375 74.9062 153.1094 73.7031 153.1094 L73.1875 153.1094 L73.1875 153.6406 L73.7969 153.6406 C75.2188 153.6406 75.9062 154.4219 75.9062 155.6406 C75.9062 156.8438 75.1719 157.6875 73.875 157.6875 C73.6094 157.6875 73.3125 157.6562 73.0156 157.5625 L72.7812 156.8125 C72.625 156.2812 72.5 156.0469 72.1406 156.0469 C71.8906 156.0469 71.7031 156.1719 71.5781 156.4219 C71.8438 157.6406 72.7812 158.1719 74.0312 158.1719 C75.7188 158.1719 76.875 157.125 76.875 155.7031 C76.875 154.5 76.2031 153.625 74.7969 153.375 C75.9531 153.0156 76.6094 152.2031 76.6094 151.2031 C76.6094 149.9219 75.6719 149.0781 74.1875 149.0781 C73.0469 149.0781 72.0625 149.5938 71.7969 150.6875 C71.9062 151 72.1094 151.1094 72.3594 151.1094 C72.7344 151.1094 72.8906 150.8906 73 150.4062 L73.2344 149.6562 Z"
      /><rect x="56" y="149" width="8" style="fill:white; stroke:none;" height="8"
      /><path style="stroke:none;" d="M60.9844 154.7031 C60.9375 155.8906 60.1562 156.6562 59.3125 156.6562 C58.2656 156.6562 57.5 155.6875 57.5 153.7188 C57.5 152.2812 58.1562 151.1562 59.3438 151.1562 C60.1406 151.1562 60.7812 151.6875 61.0938 152.6406 L60.9844 154.7031 ZM62.9062 156.2812 C62.7344 156.375 62.5469 156.4219 62.3438 156.4219 C61.9531 156.4219 61.75 156.2188 61.75 155.4219 C61.75 154.4844 61.9688 152.5312 62.1875 150.8281 L62.0312 150.7188 L61.2344 150.9219 L61.1406 151.7969 C60.7812 151.0312 60.1562 150.6562 59.3906 150.6562 C58.0469 150.6562 56.5625 151.8438 56.5625 153.9531 C56.5625 156.0938 57.7188 157.1719 59.1406 157.1719 C60.0156 157.1719 60.6875 156.8125 61.0938 155.9844 C61.2031 156.8594 61.5156 157.1719 62.0156 157.1719 C62.4688 157.1719 62.7969 156.9062 63.0156 156.5625 L62.9062 156.2812 Z"
      /><rect x="122" y="148" width="7" style="fill:white; stroke:none;" height="9"
      /><path style="stroke:none;" d="M123 153.5156 L125.9531 149.2656 L125.9531 153.5156 L123 153.5156 ZM128.2812 153.5156 L126.8594 153.5156 L126.8594 148.125 L126.2344 148.125 L122.3438 153.6406 L122.3438 154.1875 L125.9531 154.1875 L125.9531 157 L126.8594 157 L126.8594 154.1875 L128.2812 154.1875 L128.2812 153.5156 Z"
      /><rect x="109" y="146" width="6" style="fill:white; stroke:none;" height="13"
      /><path style="stroke:none;" d="M111.0938 152.2031 C111.0938 150.6562 111.75 149.8125 112.7969 149.8125 C113.7188 149.8125 114.2656 150.4531 114.2656 151.5156 C114.2656 152.7188 113.5 153.4375 112.1875 153.7031 L112.2969 154.3125 C114.2188 154.2344 114.9375 155.2188 114.9375 156.4375 C114.9375 157.625 114.2344 158.4219 112.9531 158.4219 C112.25 158.4219 111.6562 158.1562 111.0938 157.7188 L111.0938 152.2031 ZM110.2031 158.9062 L110.1094 161.375 L110.2656 161.4844 L111.1562 161.2656 L111.0156 158.0938 C111.5469 158.8438 112.3594 159.1719 113.1719 159.1719 C114.5625 159.1719 115.8594 158.2188 115.8594 156.4844 C115.8594 154.9531 114.875 154.1094 113.125 154 C114.5625 153.6094 115.1875 152.4531 115.1875 151.4844 C115.1875 150.0938 114.1562 149.3125 112.9062 149.3125 C111.2969 149.3125 110.2188 150.5469 110.2188 152.5156 L110.2031 158.9062 Z"
      /><polygon style="fill:none;" points=" 145 93 93 93"
      /><rect x="134" y="82" width="22" style="clip-path:url(#clipPath8); fill:white; stroke:none;" height="22"
      /><rect x="134" y="82" width="22" style="clip-path:url(#clipPath8); fill:rgb(0,144,188); stroke:none;" height="22"
      /><rect x="134" y="82" width="22" style="fill:none; clip-path:url(#clipPath8);" height="22"
      /><rect x="134" width="22" height="22" y="82" style="fill:none;"
      /><circle style="fill:white; clip-path:url(#clipPath9); stroke:none;" r="11" cx="93" cy="93"
      /><rect x="82" y="82" width="22" style="clip-path:url(#clipPath9); fill:rgb(255,212,0); stroke:none;" height="22"
      /><rect x="82" y="82" width="22" style="fill:none; clip-path:url(#clipPath9);" height="22"
      /><circle r="11" style="fill:none;" cx="93" cy="93"
      /><rect x="122" y="96" width="7" style="fill:white; stroke:none;" height="9"
      /><path style="stroke:none;" d="M123 101.5156 L125.9531 97.2656 L125.9531 101.5156 L123 101.5156 ZM128.2812 101.5156 L126.8594 101.5156 L126.8594 96.125 L126.2344 96.125 L122.3438 101.6406 L122.3438 102.1875 L125.9531 102.1875 L125.9531 105 L126.8594 105 L126.8594 102.1875 L128.2812 102.1875 L128.2812 101.5156 Z"
      /><rect x="109" y="94" width="6" style="fill:white; stroke:none;" height="13"
      /><path style="stroke:none;" d="M111.0938 100.2031 C111.0938 98.6562 111.75 97.8125 112.7969 97.8125 C113.7188 97.8125 114.2656 98.4531 114.2656 99.5156 C114.2656 100.7188 113.5 101.4375 112.1875 101.7031 L112.2969 102.3125 C114.2188 102.2344 114.9375 103.2188 114.9375 104.4375 C114.9375 105.625 114.2344 106.4219 112.9531 106.4219 C112.25 106.4219 111.6562 106.1562 111.0938 105.7188 L111.0938 100.2031 ZM110.2031 106.9062 L110.1094 109.375 L110.2656 109.4844 L111.1562 109.2656 L111.0156 106.0938 C111.5469 106.8438 112.3594 107.1719 113.1719 107.1719 C114.5625 107.1719 115.8594 106.2188 115.8594 104.4844 C115.8594 102.9531 114.875 102.1094 113.125 102 C114.5625 101.6094 115.1875 100.4531 115.1875 99.4844 C115.1875 98.0938 114.1562 97.3125 112.9062 97.3125 C111.2969 97.3125 110.2188 98.5469 110.2188 100.5156 L110.2031 106.9062 Z"
      /><rect x="179" y="130" width="6" style="fill:white; stroke:none;" height="9"
      /><path style="stroke:none;" d="M180.4219 138.0938 C181.0781 137.375 181.7031 136.7188 182.0312 136.3438 C183.9219 134.3125 184.5312 133.4688 184.5312 132.3594 C184.5312 131.0156 183.7812 130.0781 182.1562 130.0781 C180.9062 130.0781 179.7969 130.7031 179.5938 131.9688 C179.7188 132.2031 179.9062 132.3438 180.1562 132.3438 C180.4688 132.3438 180.6562 132.1094 180.7969 131.5938 L181.0938 130.6719 C181.3906 130.5938 181.6562 130.5625 181.8906 130.5625 C182.9219 130.5625 183.5469 131.3125 183.5469 132.4219 C183.5469 133.4375 182.9844 134.4219 181.7031 135.9062 C181.125 136.5781 180.3906 137.4375 179.6406 138.2812 L179.6406 139 L184.9219 139 L184.9219 138.0938 L180.4219 138.0938 Z"
      /><rect x="163" y="136" width="6" style="fill:white; stroke:none;" height="13"
      /><path style="stroke:none;" d="M165.0938 142.2031 C165.0938 140.6562 165.75 139.8125 166.7969 139.8125 C167.7188 139.8125 168.2656 140.4531 168.2656 141.5156 C168.2656 142.7188 167.5 143.4375 166.1875 143.7031 L166.2969 144.3125 C168.2188 144.2344 168.9375 145.2188 168.9375 146.4375 C168.9375 147.625 168.2344 148.4219 166.9531 148.4219 C166.25 148.4219 165.6562 148.1562 165.0938 147.7188 L165.0938 142.2031 ZM164.2031 148.9062 L164.1094 151.375 L164.2656 151.4844 L165.1562 151.2656 L165.0156 148.0938 C165.5469 148.8438 166.3594 149.1719 167.1719 149.1719 C168.5625 149.1719 169.8594 148.2188 169.8594 146.4844 C169.8594 144.9531 168.875 144.1094 167.125 144 C168.5625 143.6094 169.1875 142.4531 169.1875 141.4844 C169.1875 140.0938 168.1562 139.3125 166.9062 139.3125 C165.2969 139.3125 164.2188 140.5469 164.2188 142.5156 L164.2031 148.9062 Z"
      /><rect x="171" y="112" width="7" style="fill:white; stroke:none;" height="9"
      /><path style="stroke:none;" d="M172 117.5156 L174.9531 113.2656 L174.9531 117.5156 L172 117.5156 ZM177.2812 117.5156 L175.8594 117.5156 L175.8594 112.125 L175.2344 112.125 L171.3438 117.6406 L171.3438 118.1875 L174.9531 118.1875 L174.9531 121 L175.8594 121 L175.8594 118.1875 L177.2812 118.1875 L177.2812 117.5156 Z"
      /><rect x="156" y="102" width="6" style="fill:white; stroke:none;" height="13"
      /><path style="stroke:none;" d="M158.0938 108.2031 C158.0938 106.6562 158.75 105.8125 159.7969 105.8125 C160.7188 105.8125 161.2656 106.4531 161.2656 107.5156 C161.2656 108.7188 160.5 109.4375 159.1875 109.7031 L159.2969 110.3125 C161.2188 110.2344 161.9375 111.2188 161.9375 112.4375 C161.9375 113.625 161.2344 114.4219 159.9531 114.4219 C159.25 114.4219 158.6562 114.1562 158.0938 113.7188 L158.0938 108.2031 ZM157.2031 114.9062 L157.1094 117.375 L157.2656 117.4844 L158.1562 117.2656 L158.0156 114.0938 C158.5469 114.8438 159.3594 115.1719 160.1719 115.1719 C161.5625 115.1719 162.8594 114.2188 162.8594 112.4844 C162.8594 110.9531 161.875 110.1094 160.125 110 C161.5625 109.6094 162.1875 108.4531 162.1875 107.4844 C162.1875 106.0938 161.1562 105.3125 159.9062 105.3125 C158.2969 105.3125 157.2188 106.5469 157.2188 108.5156 L157.2031 114.9062 Z"
      /><polygon style="fill:none;" points=" 197 41 145 41"
      /><circle style="fill:white; clip-path:url(#clipPath10); stroke:none;" r="11" cx="197" cy="41"
      /><rect x="186" y="30" width="22" style="clip-path:url(#clipPath10); fill:rgb(0,166,81); stroke:none;" height="22"
      /><rect x="186" y="30" width="22" style="fill:none; clip-path:url(#clipPath10);" height="22"
      /><circle r="11" style="fill:none;" cx="197" cy="41"
      /><polygon style="fill:none;" points=" 145 41 93 41"
      /><rect x="134" y="30" width="22" style="clip-path:url(#clipPath11); fill:white; stroke:none;" height="22"
      /><rect x="134" y="30" width="22" style="clip-path:url(#clipPath11); fill:rgb(0,144,188); stroke:none;" height="22"
      /><rect x="134" y="30" width="22" style="fill:none; clip-path:url(#clipPath11);" height="22"
      /><rect x="134" width="22" height="22" y="30" style="fill:none;"
      /><circle style="fill:white; clip-path:url(#clipPath12); stroke:none;" r="11" cx="93" cy="41"
      /><rect x="82" y="30" width="22" style="clip-path:url(#clipPath12); fill:rgb(255,212,0); stroke:none;" height="22"
      /><rect x="82" y="30" width="22" style="fill:none; clip-path:url(#clipPath12);" height="22"
      /><circle r="11" style="fill:none;" cx="93" cy="41"
      /><rect x="122" y="44" width="7" style="fill:white; stroke:none;" height="9"
      /><path style="stroke:none;" d="M123 49.5156 L125.9531 45.2656 L125.9531 49.5156 L123 49.5156 ZM128.2812 49.5156 L126.8594 49.5156 L126.8594 44.125 L126.2344 44.125 L122.3438 49.6406 L122.3438 50.1875 L125.9531 50.1875 L125.9531 53 L126.8594 53 L126.8594 50.1875 L128.2812 50.1875 L128.2812 49.5156 Z"
      /><rect x="109" y="42" width="6" style="fill:white; stroke:none;" height="13"
      /><path style="stroke:none;" d="M111.0938 48.2031 C111.0938 46.6562 111.75 45.8125 112.7969 45.8125 C113.7188 45.8125 114.2656 46.4531 114.2656 47.5156 C114.2656 48.7188 113.5 49.4375 112.1875 49.7031 L112.2969 50.3125 C114.2188 50.2344 114.9375 51.2188 114.9375 52.4375 C114.9375 53.625 114.2344 54.4219 112.9531 54.4219 C112.25 54.4219 111.6562 54.1562 111.0938 53.7188 L111.0938 48.2031 ZM110.2031 54.9062 L110.1094 57.375 L110.2656 57.4844 L111.1562 57.2656 L111.0156 54.0938 C111.5469 54.8438 112.3594 55.1719 113.1719 55.1719 C114.5625 55.1719 115.8594 54.2188 115.8594 52.4844 C115.8594 50.9531 114.875 50.1094 113.125 50 C114.5625 49.6094 115.1875 48.4531 115.1875 47.4844 C115.1875 46.0938 114.1562 45.3125 112.9062 45.3125 C111.2969 45.3125 110.2188 46.5469 110.2188 48.5156 L110.2031 54.9062 Z"
      /><rect x="175" y="44" width="6" style="fill:white; stroke:none;" height="9"
      /><path style="stroke:none;" d="M176.4219 52.0938 C177.0781 51.375 177.7031 50.7188 178.0312 50.3438 C179.9219 48.3125 180.5312 47.4688 180.5312 46.3594 C180.5312 45.0156 179.7812 44.0781 178.1562 44.0781 C176.9062 44.0781 175.7969 44.7031 175.5938 45.9688 C175.7188 46.2031 175.9062 46.3438 176.1562 46.3438 C176.4688 46.3438 176.6562 46.1094 176.7969 45.5938 L177.0938 44.6719 C177.3906 44.5938 177.6562 44.5625 177.8906 44.5625 C178.9219 44.5625 179.5469 45.3125 179.5469 46.4219 C179.5469 47.4375 178.9844 48.4219 177.7031 49.9062 C177.125 50.5781 176.3906 51.4375 175.6406 52.2812 L175.6406 53 L180.9219 53 L180.9219 52.0938 L176.4219 52.0938 Z"
      /><rect x="161" y="42" width="6" style="fill:white; stroke:none;" height="13"
      /><path style="stroke:none;" d="M163.0938 48.2031 C163.0938 46.6562 163.75 45.8125 164.7969 45.8125 C165.7188 45.8125 166.2656 46.4531 166.2656 47.5156 C166.2656 48.7188 165.5 49.4375 164.1875 49.7031 L164.2969 50.3125 C166.2188 50.2344 166.9375 51.2188 166.9375 52.4375 C166.9375 53.625 166.2344 54.4219 164.9531 54.4219 C164.25 54.4219 163.6562 54.1562 163.0938 53.7188 L163.0938 48.2031 ZM162.2031 54.9062 L162.1094 57.375 L162.2656 57.4844 L163.1562 57.2656 L163.0156 54.0938 C163.5469 54.8438 164.3594 55.1719 165.1719 55.1719 C166.5625 55.1719 167.8594 54.2188 167.8594 52.4844 C167.8594 50.9531 166.875 50.1094 165.125 50 C166.5625 49.6094 167.1875 48.4531 167.1875 47.4844 C167.1875 46.0938 166.1562 45.3125 164.9062 45.3125 C163.2969 45.3125 162.2188 46.5469 162.2188 48.5156 L162.2031 54.9062 Z"
      /><rect x="233" y="94" width="6" style="fill:white; stroke:none;" height="10"
      /><path style="stroke:none;" d="M235.2344 95.6562 C235.5156 95.5938 235.7656 95.5625 236.0156 95.5625 C237.0625 95.5625 237.6719 96.1719 237.6719 97.2656 C237.6719 98.4375 236.9062 99.1094 235.7031 99.1094 L235.1875 99.1094 L235.1875 99.6406 L235.7969 99.6406 C237.2188 99.6406 237.9062 100.4219 237.9062 101.6406 C237.9062 102.8438 237.1719 103.6875 235.875 103.6875 C235.6094 103.6875 235.3125 103.6562 235.0156 103.5625 L234.7812 102.8125 C234.625 102.2812 234.5 102.0469 234.1406 102.0469 C233.8906 102.0469 233.7031 102.1719 233.5781 102.4219 C233.8438 103.6406 234.7812 104.1719 236.0312 104.1719 C237.7188 104.1719 238.875 103.125 238.875 101.7031 C238.875 100.5 238.2031 99.625 236.7969 99.375 C237.9531 99.0156 238.6094 98.2031 238.6094 97.2031 C238.6094 95.9219 237.6719 95.0781 236.1875 95.0781 C235.0469 95.0781 234.0625 95.5938 233.7969 96.6875 C233.9062 97 234.1094 97.1094 234.3594 97.1094 C234.7344 97.1094 234.8906 96.8906 235 96.4062 L235.2344 95.6562 Z"
      /><rect x="215" y="108" width="8" style="fill:white; stroke:none;" height="8"
      /><path style="stroke:none;" d="M219.9844 113.7031 C219.9375 114.8906 219.1562 115.6562 218.3125 115.6562 C217.2656 115.6562 216.5 114.6875 216.5 112.7188 C216.5 111.2812 217.1562 110.1562 218.3438 110.1562 C219.1406 110.1562 219.7812 110.6875 220.0938 111.6406 L219.9844 113.7031 ZM221.9062 115.2812 C221.7344 115.375 221.5469 115.4219 221.3438 115.4219 C220.9531 115.4219 220.75 115.2188 220.75 114.4219 C220.75 113.4844 220.9688 111.5312 221.1875 109.8281 L221.0312 109.7188 L220.2344 109.9219 L220.1406 110.7969 C219.7812 110.0312 219.1562 109.6562 218.3906 109.6562 C217.0469 109.6562 215.5625 110.8438 215.5625 112.9531 C215.5625 115.0938 216.7188 116.1719 218.1406 116.1719 C219.0156 116.1719 219.6875 115.8125 220.0938 114.9844 C220.2031 115.8594 220.5156 116.1719 221.0156 116.1719 C221.4688 116.1719 221.7969 115.9062 222.0156 115.5625 L221.9062 115.2812 Z"
      /><rect x="223" y="68" width="6" style="fill:white; stroke:none;" height="10"
      /><path style="stroke:none;" d="M226.3438 77.6875 C225.2031 77.6875 224.5312 76.5 224.5312 74.2969 C224.5312 74.2188 224.5312 74.125 224.5312 74.0469 C225.0938 73.5 225.7188 73.3125 226.3438 73.3125 C227.3125 73.3125 227.9531 73.9844 227.9531 75.4531 C227.9531 76.9375 227.3125 77.6875 226.3438 77.6875 ZM228.5312 69.0781 C225.3438 69.4531 223.5625 71.7656 223.5625 74.4531 C223.5625 76.7812 224.6094 78.1719 226.3125 78.1719 C227.8438 78.1719 228.9219 77.1094 228.9219 75.2812 C228.9219 73.6875 227.9688 72.6562 226.5625 72.6562 C225.8281 72.6562 225.1406 72.9844 224.5781 73.5781 C224.7969 71.4062 226.0781 69.9688 228.5938 69.3906 L228.5312 69.0781 Z"
      /><rect x="205" y="56" width="8" style="fill:white; stroke:none;" height="8"
      /><path style="stroke:none;" d="M209.9844 61.7031 C209.9375 62.8906 209.1562 63.6562 208.3125 63.6562 C207.2656 63.6562 206.5 62.6875 206.5 60.7188 C206.5 59.2812 207.1562 58.1562 208.3438 58.1562 C209.1406 58.1562 209.7812 58.6875 210.0938 59.6406 L209.9844 61.7031 ZM211.9062 63.2812 C211.7344 63.375 211.5469 63.4219 211.3438 63.4219 C210.9531 63.4219 210.75 63.2188 210.75 62.4219 C210.75 61.4844 210.9688 59.5312 211.1875 57.8281 L211.0312 57.7188 L210.2344 57.9219 L210.1406 58.7969 C209.7812 58.0312 209.1562 57.6562 208.3906 57.6562 C207.0469 57.6562 205.5625 58.8438 205.5625 60.9531 C205.5625 63.0938 206.7188 64.1719 208.1406 64.1719 C209.0156 64.1719 209.6875 63.8125 210.0938 62.9844 C210.2031 63.8594 210.5156 64.1719 211.0156 64.1719 C211.4688 64.1719 211.7969 63.9062 212.0156 63.5625 L211.9062 63.2812 Z"
      /><rect x="278" y="83" width="7" style="fill:white; stroke:none;" height="9"
      /><path style="stroke:none;" d="M279 88.5156 L281.9531 84.2656 L281.9531 88.5156 L279 88.5156 ZM284.2812 88.5156 L282.8594 88.5156 L282.8594 83.125 L282.2344 83.125 L278.3438 88.6406 L278.3438 89.1875 L281.9531 89.1875 L281.9531 92 L282.8594 92 L282.8594 89.1875 L284.2812 89.1875 L284.2812 88.5156 Z"
      /><rect x="265" y="81" width="6" style="fill:white; stroke:none;" height="13"
      /><path style="stroke:none;" d="M267.0938 87.2031 C267.0938 85.6562 267.75 84.8125 268.7969 84.8125 C269.7188 84.8125 270.2656 85.4531 270.2656 86.5156 C270.2656 87.7188 269.5 88.4375 268.1875 88.7031 L268.2969 89.3125 C270.2188 89.2344 270.9375 90.2188 270.9375 91.4375 C270.9375 92.625 270.2344 93.4219 268.9531 93.4219 C268.25 93.4219 267.6562 93.1562 267.0938 92.7188 L267.0938 87.2031 ZM266.2031 93.9062 L266.1094 96.375 L266.2656 96.4844 L267.1562 96.2656 L267.0156 93.0938 C267.5469 93.8438 268.3594 94.1719 269.1719 94.1719 C270.5625 94.1719 271.8594 93.2188 271.8594 91.4844 C271.8594 89.9531 270.875 89.1094 269.125 89 C270.5625 88.6094 271.1875 87.4531 271.1875 86.4844 C271.1875 85.0938 270.1562 84.3125 268.9062 84.3125 C267.2969 84.3125 266.2188 85.5469 266.2188 87.5156 L266.2031 93.9062 Z"
      /><rect x="330" y="83" width="7" style="fill:white; stroke:none;" height="9"
      /><path style="stroke:none;" d="M331 88.5156 L333.9531 84.2656 L333.9531 88.5156 L331 88.5156 ZM336.2812 88.5156 L334.8594 88.5156 L334.8594 83.125 L334.2344 83.125 L330.3438 88.6406 L330.3438 89.1875 L333.9531 89.1875 L333.9531 92 L334.8594 92 L334.8594 89.1875 L336.2812 89.1875 L336.2812 88.5156 Z"
      /><rect x="317" y="81" width="6" style="fill:white; stroke:none;" height="13"
      /><path style="stroke:none;" d="M319.0938 87.2031 C319.0938 85.6562 319.75 84.8125 320.7969 84.8125 C321.7188 84.8125 322.2656 85.4531 322.2656 86.5156 C322.2656 87.7188 321.5 88.4375 320.1875 88.7031 L320.2969 89.3125 C322.2188 89.2344 322.9375 90.2188 322.9375 91.4375 C322.9375 92.625 322.2344 93.4219 320.9531 93.4219 C320.25 93.4219 319.6562 93.1562 319.0938 92.7188 L319.0938 87.2031 ZM318.2031 93.9062 L318.1094 96.375 L318.2656 96.4844 L319.1562 96.2656 L319.0156 93.0938 C319.5469 93.8438 320.3594 94.1719 321.1719 94.1719 C322.5625 94.1719 323.8594 93.2188 323.8594 91.4844 C323.8594 89.9531 322.875 89.1094 321.125 89 C322.5625 88.6094 323.1875 87.4531 323.1875 86.4844 C323.1875 85.0938 322.1562 84.3125 320.9062 84.3125 C319.2969 84.3125 318.2188 85.5469 318.2188 87.5156 L318.2031 93.9062 Z"
      /><rect x="369" y="81" width="6" style="fill:white; stroke:none;" height="13"
      /><path style="stroke:none;" d="M371.0938 87.2031 C371.0938 85.6562 371.75 84.8125 372.7969 84.8125 C373.7188 84.8125 374.2656 85.4531 374.2656 86.5156 C374.2656 87.7188 373.5 88.4375 372.1875 88.7031 L372.2969 89.3125 C374.2188 89.2344 374.9375 90.2188 374.9375 91.4375 C374.9375 92.625 374.2344 93.4219 372.9531 93.4219 C372.25 93.4219 371.6562 93.1562 371.0938 92.7188 L371.0938 87.2031 ZM370.2031 93.9062 L370.1094 96.375 L370.2656 96.4844 L371.1562 96.2656 L371.0156 93.0938 C371.5469 93.8438 372.3594 94.1719 373.1719 94.1719 C374.5625 94.1719 375.8594 93.2188 375.8594 91.4844 C375.8594 89.9531 374.875 89.1094 373.125 89 C374.5625 88.6094 375.1875 87.4531 375.1875 86.4844 C375.1875 85.0938 374.1562 84.3125 372.9062 84.3125 C371.2969 84.3125 370.2188 85.5469 370.2188 87.5156 L370.2031 93.9062 Z"
    /></g
  ></g
></svg
>
