<?xml version="1.0"?>
<!DOCTYPE svg PUBLIC '-//W3C//DTD SVG 1.0//EN'
          'http://www.w3.org/TR/2001/REC-SVG-20010904/DTD/svg10.dtd'>
<svg xmlns:xlink="http://www.w3.org/1999/xlink" style="fill-opacity:1; color-rendering:auto; color-interpolation:auto; text-rendering:auto; stroke:black; stroke-linecap:square; stroke-miterlimit:10; shape-rendering:auto; stroke-opacity:1; fill:black; stroke-dasharray:none; font-weight:normal; stroke-width:1; font-family:'Dialog'; font-style:normal; stroke-linejoin:miter; font-size:12px; stroke-dashoffset:0; image-rendering:auto;" viewBox="0 0 137 105" xmlns="http://www.w3.org/2000/svg"
><!--Generated by the Batik Graphics2D SVG Generator--><defs id="genericDefs"
  /><g
  ><defs id="defs1"
    ><clipPath clipPathUnits="userSpaceOnUse" id="clipPath1"
      ><path style="fill-rule:evenodd;" d="M42 53 L44 60 L52 60 L45 65 L48 72 L42 68 L35 72 L38 65 L31 60 L39 60 L42 53 Z"
      /></clipPath
    ></defs
    ><g style="fill:white; text-rendering:optimizeSpeed; stroke:white;"
    ><rect x="0" width="137" height="105" y="0" style="stroke:none;"
      /><polygon style="fill:none; stroke:black;" points=" 96 64 42 64"
      /><path d="M96 53 C90.5 58.5 101.5 69.5 96 75" style="fill:none; stroke:black;"
      /><polygon style="clip-path:url(#clipPath1); stroke:none;" points=" 42 53 44 60 52 60 45 65 48 72 42 68 35 72 38 65 31 60 39 60 42 53"
      /><rect x="31" y="53" width="22" style="clip-path:url(#clipPath1); fill:rgb(246,158,161); stroke:none;" height="22"
      /><rect x="31" y="53" width="22" style="clip-path:url(#clipPath1); fill:none; stroke:black;" height="22"
      /><polygon style="fill:none; stroke:black;" points=" 42 53 44 60 52 60 45 65 48 72 42 68 35 72 38 65 31 60 39 60 42 53"
      /><rect x="29" y="35" width="24" style="stroke:none;" height="10"
    /></g
    ><g style="text-rendering:optimizeSpeed; font-size:14px; font-family:'SansSerif';"
    ><path style="stroke:none;" d="M30.6094 42.1562 L32.9531 38.6562 C33.2344 38.1406 33.5156 37.6406 33.7812 37.1406 L33.8281 37.1406 C33.7969 37.6719 33.7656 38.5 33.7656 39 L33.7656 42.1562 L30.6094 42.1562 ZM33.7656 46 L34.9688 46 L34.9688 43.1719 L36.3281 43.1719 L36.3281 42.1562 L34.9688 42.1562 L34.9688 35.7188 L33.5469 35.7188 L29.2812 42.3281 L29.2812 43.1719 L33.7656 43.1719 L33.7656 46 ZM41.02 46.1875 C43.1606 46.1875 44.5043 44.8906 44.5043 43.2656 C44.5043 41.75 43.5825 41.0469 42.395 40.5312 L40.9262 39.8906 C40.1293 39.5625 39.2387 39.1875 39.2387 38.1875 C39.2387 37.2656 39.9887 36.6719 41.145 36.6719 C42.0981 36.6719 42.8637 37.0469 43.4887 37.6406 L44.1762 36.8125 C43.4418 36.0625 42.3637 35.5469 41.145 35.5469 C39.2856 35.5469 37.9106 36.6875 37.9106 38.2656 C37.9106 39.7656 39.0512 40.5 40.0043 40.9062 L41.4887 41.5469 C42.4575 41.9844 43.1918 42.3125 43.1918 43.375 C43.1918 44.375 42.3793 45.0469 41.0356 45.0469 C39.9731 45.0469 38.9418 44.5469 38.2075 43.7812 L37.4262 44.6562 C38.3168 45.5938 39.5668 46.1875 41.02 46.1875 ZM46.5342 46 L47.8311 46 L47.8311 41.1562 L52.6123 41.1562 L52.6123 46 L53.9092 46 L53.9092 35.7188 L52.6123 35.7188 L52.6123 40.0312 L47.8311 40.0312 L47.8311 35.7188 L46.5342 35.7188 L46.5342 46 Z"
    /></g
    ><g style="fill:white; text-rendering:optimizeSpeed; font-family:'Serif'; stroke:white;"
    ><rect x="60" width="5" height="10" y="67" style="stroke:none;"
      /><path d="M61.8906 75.6875 C61.4844 75.6875 61.1562 76.0469 61.1562 76.4219 C61.1562 76.8125 61.4844 77.1562 61.8906 77.1562 C62.2969 77.1562 62.6406 76.8125 62.6406 76.4219 C62.6406 76.0469 62.2969 75.6875 61.8906 75.6875 ZM63.4688 69.5781 C63.7188 69.8906 63.875 70.2656 63.8906 70.6562 C63.8906 71.1875 63.625 71.5 63.0312 71.7656 L62.4062 72.0156 C61.6406 72.3125 61.3906 72.5469 61.3906 72.9375 C61.3906 73.1094 61.4531 73.3438 61.5781 73.8125 L61.7344 74.3438 L62.1094 74.3438 L62.0938 73.5312 C62.0938 73.0938 62.2031 72.9688 62.7812 72.7344 L63.2031 72.5625 C64.0312 72.2188 64.4531 71.6875 64.4531 70.8438 C64.4531 69.1562 62.6562 68.1875 61.5 68.0312 C61.1094 68.125 60.9062 68.2969 60.9062 68.6406 C60.9062 68.9375 61.0625 69.1562 61.7188 69.2656 L63.4688 69.5781 Z" style="fill:black; stroke:none;"
    /></g
  ></g
></svg
>
