<?xml version="1.0"?>
<!DOCTYPE svg PUBLIC '-//W3C//DTD SVG 1.0//EN'
          'http://www.w3.org/TR/2001/REC-SVG-20010904/DTD/svg10.dtd'>
<svg xmlns:xlink="http://www.w3.org/1999/xlink" style="fill-opacity:1; color-rendering:auto; color-interpolation:auto; text-rendering:auto; stroke:black; stroke-linecap:square; stroke-miterlimit:10; shape-rendering:auto; stroke-opacity:1; fill:black; stroke-dasharray:none; font-weight:normal; stroke-width:1; font-family:'Dialog'; font-style:normal; stroke-linejoin:miter; font-size:12px; stroke-dashoffset:0; image-rendering:auto;" viewBox="0 0 126 255" xmlns="http://www.w3.org/2000/svg"
><!--Generated by the Batik Graphics2D SVG Generator--><defs id="genericDefs"
  /><g
  ><defs id="defs1"
    ><clipPath clipPathUnits="userSpaceOnUse" id="clipPath1"
      ><path style="fill-rule:evenodd;" d="M52 191 L46 198 L35 198 L30 191 L35 183 L46 183 L52 191 Z"
      /></clipPath
      ><clipPath clipPathUnits="userSpaceOnUse" id="clipPath2"
      ><path style="fill-rule:evenodd;" d="M41 105 L51 112 L47 124 L34 124 L30 112 L41 105 Z"
      /></clipPath
      ><clipPath clipPathUnits="userSpaceOnUse" id="clipPath3"
      ><path style="fill-rule:evenodd;" d="M41 53 L43 60 L51 60 L44 65 L47 72 L41 68 L34 72 L37 65 L30 60 L38 60 L41 53 Z"
      /></clipPath
    ></defs
    ><g style="fill:white; text-rendering:optimizeSpeed; stroke:white;"
    ><rect x="0" width="126" height="255" y="0" style="stroke:none;"
      /><polygon style="clip-path:url(#clipPath1); stroke:none;" points=" 52 191 46 198 35 198 30 191 35 183 46 183 52 191"
      /><rect x="30" y="180" width="22" style="clip-path:url(#clipPath1); fill:rgb(255,212,0); stroke:none;" height="22"
      /><rect x="30" y="180" width="22" style="clip-path:url(#clipPath1); fill:none; stroke:black;" height="22"
      /><polygon style="fill:none; stroke:black;" points=" 52 191 46 198 35 198 30 191 35 183 46 183 52 191"
    /></g
    ><g style="text-rendering:optimizeSpeed; font-size:14px; font-family:'SansSerif';"
    ><path style="stroke:none;" d="M33.6094 219 L40.0625 219 L40.0625 217.8906 L37.2344 217.8906 C36.7031 217.8906 36.0781 217.9531 35.5469 217.9844 C37.9531 215.7031 39.5625 213.625 39.5625 211.5781 C39.5625 209.75 38.4219 208.5469 36.5781 208.5469 C35.2812 208.5469 34.4062 209.1406 33.5625 210.0469 L34.2969 210.7812 C34.8594 210.1094 35.5938 209.5938 36.4375 209.5938 C37.7031 209.5938 38.3125 210.4531 38.3125 211.625 C38.3125 213.3906 36.8438 215.4375 33.6094 218.25 L33.6094 219 ZM45.8168 219.1875 C47.9106 219.1875 49.5043 218.0625 49.5043 214.7656 L49.5043 208.7188 L48.2543 208.7188 L48.2543 214.7969 C48.2543 217.2812 47.1762 218.0469 45.8168 218.0469 C44.4731 218.0469 43.4262 217.2812 43.4262 214.7969 L43.4262 208.7188 L42.1293 208.7188 L42.1293 214.7656 C42.1293 218.0625 43.7231 219.1875 45.8168 219.1875 Z"
    /></g
    ><g style="fill:white; text-rendering:optimizeSpeed; font-family:'Serif'; stroke:white;"
    ><rect x="57" width="5" height="10" y="178" style="stroke:none;"
      /><path d="M58.8906 186.6875 C58.4844 186.6875 58.1562 187.0469 58.1562 187.4219 C58.1562 187.8125 58.4844 188.1562 58.8906 188.1562 C59.2969 188.1562 59.6406 187.8125 59.6406 187.4219 C59.6406 187.0469 59.2969 186.6875 58.8906 186.6875 ZM60.4688 180.5781 C60.7188 180.8906 60.875 181.2656 60.8906 181.6562 C60.8906 182.1875 60.625 182.5 60.0312 182.7656 L59.4062 183.0156 C58.6406 183.3125 58.3906 183.5469 58.3906 183.9375 C58.3906 184.1094 58.4531 184.3438 58.5781 184.8125 L58.7344 185.3438 L59.1094 185.3438 L59.0938 184.5312 C59.0938 184.0938 59.2031 183.9688 59.7812 183.7344 L60.2031 183.5625 C61.0312 183.2188 61.4531 182.6875 61.4531 181.8438 C61.4531 180.1562 59.6562 179.1875 58.5 179.0312 C58.1094 179.125 57.9062 179.2969 57.9062 179.6406 C57.9062 179.9375 58.0625 180.1562 58.7188 180.2656 L60.4688 180.5781 Z" style="fill:black; stroke:none;"
      /><rect x="57" width="5" height="10" y="194" style="stroke:none;"
      /><path d="M58.8906 202.6875 C58.4844 202.6875 58.1562 203.0469 58.1562 203.4219 C58.1562 203.8125 58.4844 204.1562 58.8906 204.1562 C59.2969 204.1562 59.6406 203.8125 59.6406 203.4219 C59.6406 203.0469 59.2969 202.6875 58.8906 202.6875 ZM60.4688 196.5781 C60.7188 196.8906 60.875 197.2656 60.8906 197.6562 C60.8906 198.1875 60.625 198.5 60.0312 198.7656 L59.4062 199.0156 C58.6406 199.3125 58.3906 199.5469 58.3906 199.9375 C58.3906 200.1094 58.4531 200.3438 58.5781 200.8125 L58.7344 201.3438 L59.1094 201.3438 L59.0938 200.5312 C59.0938 200.0938 59.2031 199.9688 59.7812 199.7344 L60.2031 199.5625 C61.0312 199.2188 61.4531 198.6875 61.4531 197.8438 C61.4531 196.1562 59.6562 195.1875 58.5 195.0312 C58.1094 195.125 57.9062 195.2969 57.9062 195.6406 C57.9062 195.9375 58.0625 196.1562 58.7188 196.2656 L60.4688 196.5781 Z" style="fill:black; stroke:none;"
      /><polygon style="clip-path:url(#clipPath2); stroke:none;" points=" 41 105 51 112 47 124 34 124 30 112 41 105"
      /><rect x="30" y="105" width="22" style="clip-path:url(#clipPath2); stroke:none;" height="22"
      /><rect x="30" y="105" width="22" style="clip-path:url(#clipPath2); fill:none; stroke:black;" height="22"
      /><polygon style="fill:none; stroke:black;" points=" 41 105 51 112 47 124 34 124 30 112 41 105"
    /></g
    ><g style="text-rendering:optimizeSpeed; font-size:14px; font-family:'SansSerif';"
    ><path style="stroke:none;" d="M39.2344 121 L44.8594 121 L44.8594 119.9375 L42.7969 119.9375 L42.7969 110.7188 L41.8281 110.7188 C41.2656 111.0625 40.6094 111.2969 39.6875 111.4688 L39.6875 112.2812 L41.5156 112.2812 L41.5156 119.9375 L39.2344 119.9375 L39.2344 121 Z"
      /><path style="stroke:none;" d="M33.6094 144 L40.0625 144 L40.0625 142.8906 L37.2344 142.8906 C36.7031 142.8906 36.0781 142.9531 35.5469 142.9844 C37.9531 140.7031 39.5625 138.625 39.5625 136.5781 C39.5625 134.75 38.4219 133.5469 36.5781 133.5469 C35.2812 133.5469 34.4062 134.1406 33.5625 135.0469 L34.2969 135.7812 C34.8594 135.1094 35.5938 134.5938 36.4375 134.5938 C37.7031 134.5938 38.3125 135.4531 38.3125 136.625 C38.3125 138.3906 36.8438 140.4375 33.6094 143.25 L33.6094 144 ZM45.8168 144.1875 C47.9106 144.1875 49.5043 143.0625 49.5043 139.7656 L49.5043 133.7188 L48.2543 133.7188 L48.2543 139.7969 C48.2543 142.2812 47.1762 143.0469 45.8168 143.0469 C44.4731 143.0469 43.4262 142.2812 43.4262 139.7969 L43.4262 133.7188 L42.1293 133.7188 L42.1293 139.7656 C42.1293 143.0625 43.7231 144.1875 45.8168 144.1875 Z"
    /></g
    ><g style="fill:white; text-rendering:optimizeSpeed; font-family:'Serif'; stroke:white;"
    ><rect x="57" width="5" height="10" y="103" style="stroke:none;"
      /><path d="M58.8906 111.6875 C58.4844 111.6875 58.1562 112.0469 58.1562 112.4219 C58.1562 112.8125 58.4844 113.1562 58.8906 113.1562 C59.2969 113.1562 59.6406 112.8125 59.6406 112.4219 C59.6406 112.0469 59.2969 111.6875 58.8906 111.6875 ZM60.4688 105.5781 C60.7188 105.8906 60.875 106.2656 60.8906 106.6562 C60.8906 107.1875 60.625 107.5 60.0312 107.7656 L59.4062 108.0156 C58.6406 108.3125 58.3906 108.5469 58.3906 108.9375 C58.3906 109.1094 58.4531 109.3438 58.5781 109.8125 L58.7344 110.3438 L59.1094 110.3438 L59.0938 109.5312 C59.0938 109.0938 59.2031 108.9688 59.7812 108.7344 L60.2031 108.5625 C61.0312 108.2188 61.4531 107.6875 61.4531 106.8438 C61.4531 105.1562 59.6562 104.1875 58.5 104.0312 C58.1094 104.125 57.9062 104.2969 57.9062 104.6406 C57.9062 104.9375 58.0625 105.1562 58.7188 105.2656 L60.4688 105.5781 Z" style="fill:black; stroke:none;"
      /><rect x="57" width="5" height="10" y="119" style="stroke:none;"
      /><path d="M58.8906 127.6875 C58.4844 127.6875 58.1562 128.0469 58.1562 128.4219 C58.1562 128.8125 58.4844 129.1562 58.8906 129.1562 C59.2969 129.1562 59.6406 128.8125 59.6406 128.4219 C59.6406 128.0469 59.2969 127.6875 58.8906 127.6875 ZM60.4688 121.5781 C60.7188 121.8906 60.875 122.2656 60.8906 122.6562 C60.8906 123.1875 60.625 123.5 60.0312 123.7656 L59.4062 124.0156 C58.6406 124.3125 58.3906 124.5469 58.3906 124.9375 C58.3906 125.1094 58.4531 125.3438 58.5781 125.8125 L58.7344 126.3438 L59.1094 126.3438 L59.0938 125.5312 C59.0938 125.0938 59.2031 124.9688 59.7812 124.7344 L60.2031 124.5625 C61.0312 124.2188 61.4531 123.6875 61.4531 122.8438 C61.4531 121.1562 59.6562 120.1875 58.5 120.0312 C58.1094 120.125 57.9062 120.2969 57.9062 120.6406 C57.9062 120.9375 58.0625 121.1562 58.7188 121.2656 L60.4688 121.5781 Z" style="fill:black; stroke:none;"
      /><polygon style="clip-path:url(#clipPath3); stroke:none;" points=" 41 53 43 60 51 60 44 65 47 72 41 68 34 72 37 65 30 60 38 60 41 53"
      /><rect x="30" y="53" width="22" style="clip-path:url(#clipPath3); fill:rgb(0,166,81); stroke:none;" height="22"
      /><rect x="30" y="53" width="22" style="clip-path:url(#clipPath3); fill:none; stroke:black;" height="22"
      /><polygon style="fill:none; stroke:black;" points=" 41 53 43 60 51 60 44 65 47 72 41 68 34 72 37 65 30 60 38 60 41 53"
      /><rect x="32" width="16" height="10" y="35" style="stroke:none;"
    /></g
    ><g style="text-rendering:optimizeSpeed; font-size:14px; font-family:'SansSerif';"
    ><path style="stroke:none;" d="M33.6094 42.1562 L35.9531 38.6562 C36.2344 38.1406 36.5156 37.6406 36.7812 37.1406 L36.8281 37.1406 C36.7969 37.6719 36.7656 38.5 36.7656 39 L36.7656 42.1562 L33.6094 42.1562 ZM36.7656 46 L37.9688 46 L37.9688 43.1719 L39.3281 43.1719 L39.3281 42.1562 L37.9688 42.1562 L37.9688 35.7188 L36.5469 35.7188 L32.2812 42.3281 L32.2812 43.1719 L36.7656 43.1719 L36.7656 46 ZM41.1762 46 L42.395 46 L42.395 40.6094 C42.395 39.5312 42.3012 38.4375 42.2543 37.4062 L42.3012 37.4062 L43.4106 39.5156 L47.145 46 L48.4731 46 L48.4731 35.7188 L47.2387 35.7188 L47.2387 41.0781 C47.2387 42.1406 47.3481 43.2812 47.4106 44.3125 L47.3481 44.3125 L46.2543 42.2031 L42.52 35.7188 L41.1762 35.7188 L41.1762 46 Z"
    /></g
    ><g style="fill:white; text-rendering:optimizeSpeed; font-family:'Serif'; stroke:white;"
    ><rect x="57" width="5" height="10" y="51" style="stroke:none;"
      /><path d="M58.8906 59.6875 C58.4844 59.6875 58.1562 60.0469 58.1562 60.4219 C58.1562 60.8125 58.4844 61.1562 58.8906 61.1562 C59.2969 61.1562 59.6406 60.8125 59.6406 60.4219 C59.6406 60.0469 59.2969 59.6875 58.8906 59.6875 ZM60.4688 53.5781 C60.7188 53.8906 60.875 54.2656 60.8906 54.6562 C60.8906 55.1875 60.625 55.5 60.0312 55.7656 L59.4062 56.0156 C58.6406 56.3125 58.3906 56.5469 58.3906 56.9375 C58.3906 57.1094 58.4531 57.3438 58.5781 57.8125 L58.7344 58.3438 L59.1094 58.3438 L59.0938 57.5312 C59.0938 57.0938 59.2031 56.9688 59.7812 56.7344 L60.2031 56.5625 C61.0312 56.2188 61.4531 55.6875 61.4531 54.8438 C61.4531 53.1562 59.6562 52.1875 58.5 52.0312 C58.1094 52.125 57.9062 52.2969 57.9062 52.6406 C57.9062 52.9375 58.0625 53.1562 58.7188 53.2656 L60.4688 53.5781 Z" style="fill:black; stroke:none;"
      /><rect x="57" width="5" height="10" y="67" style="stroke:none;"
      /><path d="M58.8906 75.6875 C58.4844 75.6875 58.1562 76.0469 58.1562 76.4219 C58.1562 76.8125 58.4844 77.1562 58.8906 77.1562 C59.2969 77.1562 59.6406 76.8125 59.6406 76.4219 C59.6406 76.0469 59.2969 75.6875 58.8906 75.6875 ZM60.4688 69.5781 C60.7188 69.8906 60.875 70.2656 60.8906 70.6562 C60.8906 71.1875 60.625 71.5 60.0312 71.7656 L59.4062 72.0156 C58.6406 72.3125 58.3906 72.5469 58.3906 72.9375 C58.3906 73.1094 58.4531 73.3438 58.5781 73.8125 L58.7344 74.3438 L59.1094 74.3438 L59.0938 73.5312 C59.0938 73.0938 59.2031 72.9688 59.7812 72.7344 L60.2031 72.5625 C61.0312 72.2188 61.4531 71.6875 61.4531 70.8438 C61.4531 69.1562 59.6562 68.1875 58.5 68.0312 C58.1094 68.125 57.9062 68.2969 57.9062 68.6406 C57.9062 68.9375 58.0625 69.1562 58.7188 69.2656 L60.4688 69.5781 Z" style="fill:black; stroke:none;"
    /></g
    ><g ID="legend-1:0" style="text-rendering:optimizeSpeed; font-size:10px; font-family:'SansSerif';"
    ><path style="stroke:none;" d="M30.875 240 L34.9062 240 L34.9062 239.2344 L33.4375 239.2344 L33.4375 232.6562 L32.7344 232.6562 C32.3281 232.9062 31.8594 233.0625 31.2031 233.1875 L31.2031 233.7656 L32.5156 233.7656 L32.5156 239.2344 L30.875 239.2344 L30.875 240 ZM35.925 235.4531 L40.7219 235.4531 L40.7219 234.7656 L35.925 234.7656 L35.925 235.4531 ZM35.925 237.8438 L40.7219 237.8438 L40.7219 237.1719 L35.925 237.1719 L35.925 237.8438 ZM42.1 240 L43.975 240 C46.1937 240 47.3969 238.625 47.3969 236.3125 C47.3969 233.9844 46.1937 232.6562 43.9437 232.6562 L42.1 232.6562 L42.1 240 ZM43.0375 239.2344 L43.0375 233.4219 L43.8656 233.4219 C45.5844 233.4219 46.4437 234.4531 46.4437 236.3125 C46.4437 238.1562 45.5844 239.2344 43.8656 239.2344 L43.0375 239.2344 ZM48.4231 237.5469 L50.9856 237.5469 L50.9856 236.8438 L48.4231 236.8438 L48.4231 237.5469 ZM54.19 242.5 C55.8775 242.5 56.94 241.625 56.94 240.625 C56.94 239.7344 56.2993 239.3281 55.0337 239.3281 L53.9868 239.3281 C53.2525 239.3281 53.0337 239.0938 53.0337 238.7344 C53.0337 238.4375 53.1743 238.2656 53.3775 238.0938 C53.6275 238.2031 53.9243 238.2812 54.19 238.2812 C55.2837 238.2812 56.1743 237.5469 56.1743 236.3906 C56.1743 235.9219 55.9868 235.5156 55.7368 235.2656 L56.8462 235.2656 L56.8462 234.5625 L54.9556 234.5625 C54.7525 234.5 54.4868 234.4375 54.19 234.4375 C53.0962 234.4375 52.1431 235.1875 52.1431 236.375 C52.1431 237.0156 52.5025 237.5469 52.8618 237.8281 L52.8618 237.875 C52.5806 238.0625 52.2525 238.4375 52.2525 238.875 C52.2525 239.3125 52.4556 239.5938 52.7525 239.7656 L52.7525 239.8125 C52.2368 240.1406 51.9556 240.5781 51.9556 241.0469 C51.9556 241.9844 52.8618 242.5 54.19 242.5 ZM54.19 237.6562 C53.565 237.6562 53.0337 237.1562 53.0337 236.375 C53.0337 235.5625 53.5493 235.0938 54.19 235.0938 C54.8306 235.0938 55.3462 235.5781 55.3462 236.375 C55.3462 237.1562 54.815 237.6562 54.19 237.6562 ZM54.315 241.875 C53.3462 241.875 52.7525 241.5 52.7525 240.9219 C52.7525 240.5938 52.9087 240.2812 53.2993 240 C53.5337 240.0625 53.7993 240.0938 54.0025 240.0938 L54.94 240.0938 C55.6587 240.0938 56.0493 240.2656 56.0493 240.7656 C56.0493 241.3281 55.3618 241.875 54.315 241.875 ZM57.9918 240 L58.8981 240 L58.8981 236.5156 C59.2575 235.5781 59.82 235.2656 60.2731 235.2656 C60.4918 235.2656 60.6168 235.2812 60.8043 235.3438 L60.9762 234.5469 C60.8043 234.4531 60.6325 234.4375 60.3825 234.4375 C59.7731 234.4375 59.2262 234.875 58.8512 235.5625 L58.82 235.5625 L58.7418 234.5625 L57.9918 234.5625 L57.9918 240 ZM63.9812 240.125 C65.3093 240.125 66.4968 239.0938 66.4968 237.2969 C66.4968 235.4844 65.3093 234.4375 63.9812 234.4375 C62.6531 234.4375 61.4656 235.4844 61.4656 237.2969 C61.4656 239.0938 62.6531 240.125 63.9812 240.125 ZM63.9812 239.375 C63.0437 239.375 62.4031 238.5469 62.4031 237.2969 C62.4031 236.0469 63.0437 235.1875 63.9812 235.1875 C64.9187 235.1875 65.5593 236.0469 65.5593 237.2969 C65.5593 238.5469 64.9187 239.375 63.9812 239.375 ZM67.4631 237.5469 L70.0256 237.5469 L70.0256 236.8438 L67.4631 236.8438 L67.4631 237.5469 ZM71.4799 240 L73.3549 240 C75.5737 240 76.7768 238.625 76.7768 236.3125 C76.7768 233.9844 75.5737 232.6562 73.3237 232.6562 L71.4799 232.6562 L71.4799 240 ZM72.4174 239.2344 L72.4174 233.4219 L73.2456 233.4219 C74.9643 233.4219 75.8237 234.4531 75.8237 236.3125 C75.8237 238.1562 74.9643 239.2344 73.2456 239.2344 L72.4174 239.2344 ZM77.8031 237.5469 L80.3656 237.5469 L80.3656 236.8438 L77.8031 236.8438 L77.8031 237.5469 ZM83.4449 240.125 C83.7731 240.125 84.1324 240.0312 84.4449 239.9375 L84.2731 239.25 C84.0856 239.3125 83.8356 239.3906 83.6481 239.3906 C83.0231 239.3906 82.8043 239.0156 82.8043 238.3438 L82.8043 235.3125 L84.2731 235.3125 L84.2731 234.5625 L82.8043 234.5625 L82.8043 233.0469 L82.0543 233.0469 L81.9449 234.5625 L81.0856 234.625 L81.0856 235.3125 L81.8981 235.3125 L81.8981 238.3125 C81.8981 239.4062 82.2887 240.125 83.4449 240.125 ZM86.7618 240.125 C87.4337 240.125 88.0431 239.7812 88.5587 239.3438 L88.5899 239.3438 L88.6681 240 L89.4181 240 L89.4181 236.6562 C89.4181 235.3125 88.8556 234.4375 87.5431 234.4375 C86.6681 234.4375 85.9024 234.8125 85.4024 235.1406 L85.7618 235.7656 C86.1837 235.4844 86.7618 235.1875 87.3868 235.1875 C88.2774 235.1875 88.5118 235.8594 88.5118 236.5625 C86.1993 236.8125 85.1681 237.4062 85.1681 238.5938 C85.1681 239.5625 85.8556 240.125 86.7618 240.125 ZM87.0274 239.4062 C86.4806 239.4062 86.0587 239.1562 86.0587 238.5312 C86.0587 237.8281 86.6837 237.375 88.5118 237.1562 L88.5118 238.6875 C87.9806 239.1562 87.5431 239.4062 87.0274 239.4062 ZM92.1049 240.125 C92.3549 240.125 92.5112 240.0938 92.6362 240.0469 L92.5112 239.3438 C92.4174 239.375 92.3706 239.375 92.3237 239.375 C92.1831 239.375 92.0581 239.2656 92.0581 238.9844 L92.0581 232.0469 L91.1518 232.0469 L91.1518 238.9219 C91.1518 239.6875 91.4331 240.125 92.1049 240.125 ZM96.7831 240.125 C98.6268 240.125 99.9237 238.6562 99.9237 236.3125 C99.9237 233.9531 98.6268 232.5312 96.7831 232.5312 C94.9549 232.5312 93.6581 233.9531 93.6581 236.3125 C93.6581 238.6562 94.9549 240.125 96.7831 240.125 ZM96.7831 239.3125 C95.4706 239.3125 94.6112 238.1406 94.6112 236.3125 C94.6112 234.4688 95.4706 233.3438 96.7831 233.3438 C98.0956 233.3438 98.9706 234.4688 98.9706 236.3125 C98.9706 238.1406 98.0956 239.3125 96.7831 239.3125 ZM103.5624 240.125 C104.203 240.125 104.828 239.875 105.3124 239.4375 L104.9218 238.8281 C104.578 239.1406 104.1405 239.375 103.6405 239.375 C102.6405 239.375 101.953 238.5469 101.953 237.2969 C101.953 236.0469 102.6874 235.1875 103.6718 235.1875 C104.0937 235.1875 104.4374 235.3906 104.7499 235.6719 L105.2187 235.0625 C104.828 234.7344 104.3437 234.4375 103.6249 234.4375 C102.2343 234.4375 101.0155 235.4844 101.0155 237.2969 C101.0155 239.0938 102.1249 240.125 103.5624 240.125 ZM108.2149 240.125 C108.543 240.125 108.9024 240.0312 109.2149 239.9375 L109.043 239.25 C108.8555 239.3125 108.6055 239.3906 108.418 239.3906 C107.793 239.3906 107.5743 239.0156 107.5743 238.3438 L107.5743 235.3125 L109.043 235.3125 L109.043 234.5625 L107.5743 234.5625 L107.5743 233.0469 L106.8243 233.0469 L106.7149 234.5625 L105.8555 234.625 L105.8555 235.3125 L106.668 235.3125 L106.668 238.3125 C106.668 239.4062 107.0587 240.125 108.2149 240.125 Z"
    /></g
  ></g
></svg
>
