<?xml version="1.0"?>
<!DOCTYPE svg PUBLIC '-//W3C//DTD SVG 1.0//EN'
          'http://www.w3.org/TR/2001/REC-SVG-20010904/DTD/svg10.dtd'>
<svg xmlns:xlink="http://www.w3.org/1999/xlink" style="fill-opacity:1; color-rendering:auto; color-interpolation:auto; text-rendering:auto; stroke:black; stroke-linecap:square; stroke-miterlimit:10; shape-rendering:auto; stroke-opacity:1; fill:black; stroke-dasharray:none; font-weight:normal; stroke-width:1; font-family:'Dialog'; font-style:normal; stroke-linejoin:miter; font-size:12px; stroke-dashoffset:0; image-rendering:auto;" viewBox="0 0 169 120" xmlns="http://www.w3.org/2000/svg"
><!--Generated by the Batik Graphics2D SVG Generator--><defs id="genericDefs"
  /><g
  ><defs id="defs1"
    ><clipPath clipPathUnits="userSpaceOnUse" id="clipPath1"
      ><path style="fill-rule:evenodd;" d="M58 30 L68 37 L64 49 L51 49 L47 37 L58 30 Z"
      /></clipPath
    ></defs
    ><g style="fill:white; text-rendering:optimizeSpeed; stroke:white;"
    ><rect x="0" width="169" height="120" y="0" style="stroke:none;"
      /><polygon style="fill:none; stroke:black;" points=" 128 41 58 41"
      /><path d="M128 30 C122.5 35.5 133.5 46.5 128 52" style="fill:none; stroke:black;"
      /><polygon style="clip-path:url(#clipPath1); stroke:none;" points=" 58 30 68 37 64 49 51 49 47 37 58 30"
      /><rect x="47" y="30" width="22" style="clip-path:url(#clipPath1); stroke:none;" height="22"
      /><rect x="47" y="30" width="22" style="clip-path:url(#clipPath1); fill:none; stroke:black;" height="22"
      /><polygon style="fill:none; stroke:black;" points=" 58 30 68 37 64 49 51 49 47 37 58 30"
    /></g
    ><g style="text-rendering:optimizeSpeed; font-size:14px; font-family:'SansSerif';"
    ><path style="stroke:none;" d="M56.2344 46 L61.8594 46 L61.8594 44.9375 L59.7969 44.9375 L59.7969 35.7188 L58.8281 35.7188 C58.2656 36.0625 57.6094 36.2969 56.6875 36.4688 L56.6875 37.2812 L58.5156 37.2812 L58.5156 44.9375 L56.2344 44.9375 L56.2344 46 Z"
      /><rect x="53" y="58" width="32" style="fill:white; stroke:none;" height="10"
      /><path style="stroke:none;" d="M53.6094 69 L60.0625 69 L60.0625 67.8906 L57.2344 67.8906 C56.7031 67.8906 56.0781 67.9531 55.5469 67.9844 C57.9531 65.7031 59.5625 63.625 59.5625 61.5781 C59.5625 59.75 58.4219 58.5469 56.5781 58.5469 C55.2812 58.5469 54.4062 59.1406 53.5625 60.0469 L54.2969 60.7812 C54.8594 60.1094 55.5938 59.5938 56.4375 59.5938 C57.7031 59.5938 58.3125 60.4531 58.3125 61.625 C58.3125 63.3906 56.8438 65.4375 53.6094 68.25 L53.6094 69 ZM62.1762 69 L63.395 69 L63.395 63.6094 C63.395 62.5312 63.3012 61.4375 63.2543 60.4062 L63.3012 60.4062 L64.4106 62.5156 L68.145 69 L69.4731 69 L69.4731 58.7188 L68.2387 58.7188 L68.2387 64.0781 C68.2387 65.1406 68.3481 66.2812 68.4106 67.3125 L68.3481 67.3125 L67.2543 65.2031 L63.52 58.7188 L62.1762 58.7188 L62.1762 69 ZM74.0498 63.2656 C74.4248 62.0938 74.7529 60.9844 75.0811 59.7812 L75.1279 59.7812 C75.4717 60.9844 75.7842 62.0938 76.1748 63.2656 L76.6592 64.8281 L73.5498 64.8281 L74.0498 63.2656 ZM70.9248 69 L72.2373 69 L73.2373 65.8594 L76.9873 65.8594 L77.9561 69 L79.3311 69 L75.8467 58.7188 L74.4092 58.7188 L70.9248 69 ZM83.6572 69.1875 C84.5634 69.1875 85.4384 68.8281 86.1259 68.2188 L85.5634 67.3594 C85.0947 67.7969 84.4697 68.125 83.7665 68.125 C82.3759 68.125 81.4228 66.9531 81.4228 65.2031 C81.4228 63.4531 82.4228 62.2656 83.8134 62.2656 C84.4228 62.2656 84.8759 62.5469 85.329 62.9375 L85.9853 62.0938 C85.4384 61.625 84.7509 61.2031 83.7509 61.2031 C81.8134 61.2031 80.0947 62.6719 80.0947 65.2031 C80.0947 67.7188 81.6415 69.1875 83.6572 69.1875 Z"
      /><rect x="33" y="58" width="14" style="fill:white; stroke:none;" height="11"
      /><path style="stroke:none;" d="M36.7031 69.1875 C38.5156 69.1875 39.9844 68.0938 39.9844 66.25 C39.9844 64.8594 39.0156 63.9375 37.8125 63.6562 L37.8125 63.5938 C38.8906 63.1875 39.6406 62.3594 39.6406 61.125 C39.6406 59.5 38.375 58.5469 36.6562 58.5469 C35.4688 58.5469 34.5469 59.0625 33.7812 59.7812 L34.4688 60.5938 C35.0469 60 35.7656 59.5938 36.5938 59.5938 C37.6562 59.5938 38.3281 60.2344 38.3281 61.2188 C38.3281 62.3281 37.6094 63.1719 35.4844 63.1719 L35.4844 64.1562 C37.8594 64.1562 38.6875 64.9844 38.6875 66.2031 C38.6875 67.3906 37.8125 68.125 36.5938 68.125 C35.4375 68.125 34.6562 67.5781 34.0469 66.9375 L33.4062 67.7812 C34.0781 68.5156 35.0938 69.1875 36.7031 69.1875 ZM44.645 69.1875 C45.5512 69.1875 46.3637 68.6875 46.9575 68.1094 L47.0043 68.1094 L47.1137 69 L48.145 69 L48.145 57.8594 L46.895 57.8594 L46.895 60.7812 L46.9418 62.0938 C46.27 61.5312 45.6918 61.2031 44.8012 61.2031 C43.0668 61.2031 41.5043 62.7344 41.5043 65.2031 C41.5043 67.7344 42.7387 69.1875 44.645 69.1875 ZM44.9262 68.125 C43.5825 68.125 42.8325 67.0312 42.8325 65.1875 C42.8325 63.4531 43.8012 62.2812 45.02 62.2812 C45.6606 62.2812 46.2231 62.5 46.895 63.0781 L46.895 67.0625 C46.2387 67.7656 45.6293 68.125 44.9262 68.125 Z"
    /></g
    ><g style="fill:white; text-rendering:optimizeSpeed; font-family:'Serif'; stroke:white;"
    ><rect x="91" width="8" height="8" y="45" style="stroke:none;"
      /><path d="M95.9844 50.7031 C95.9375 51.8906 95.1562 52.6562 94.3125 52.6562 C93.2656 52.6562 92.5 51.6875 92.5 49.7188 C92.5 48.2812 93.1562 47.1562 94.3438 47.1562 C95.1406 47.1562 95.7812 47.6875 96.0938 48.6406 L95.9844 50.7031 ZM97.9062 52.2812 C97.7344 52.375 97.5469 52.4219 97.3438 52.4219 C96.9531 52.4219 96.75 52.2188 96.75 51.4219 C96.75 50.4844 96.9688 48.5312 97.1875 46.8281 L97.0312 46.7188 L96.2344 46.9219 L96.1406 47.7969 C95.7812 47.0312 95.1562 46.6562 94.3906 46.6562 C93.0469 46.6562 91.5625 47.8438 91.5625 49.9531 C91.5625 52.0938 92.7188 53.1719 94.1406 53.1719 C95.0156 53.1719 95.6875 52.8125 96.0938 51.9844 C96.2031 52.8594 96.5156 53.1719 97.0156 53.1719 C97.4688 53.1719 97.7969 52.9062 98.0156 52.5625 L97.9062 52.2812 Z" style="fill:black; stroke:none;"
    /></g
    ><g ID="legend-1:0" style="text-rendering:optimizeSpeed; font-size:10px; font-family:'SansSerif';"
    ><path style="stroke:none;" d="M30.875 90 L34.9062 90 L34.9062 89.2344 L33.4375 89.2344 L33.4375 82.6562 L32.7344 82.6562 C32.3281 82.9062 31.8594 83.0625 31.2031 83.1875 L31.2031 83.7656 L32.5156 83.7656 L32.5156 89.2344 L30.875 89.2344 L30.875 90 ZM35.925 85.4531 L40.7219 85.4531 L40.7219 84.7656 L35.925 84.7656 L35.925 85.4531 ZM35.925 87.8438 L40.7219 87.8438 L40.7219 87.1719 L35.925 87.1719 L35.925 87.8438 ZM43.7094 90.125 C44.4125 90.125 44.975 89.7656 45.3969 89.0312 L45.4281 89.0312 C45.4125 89.7969 45.85 90.125 46.5062 90.125 C46.8187 90.125 47.0375 90.0625 47.1937 89.9844 L47.0531 89.2969 C46.9437 89.3438 46.8031 89.375 46.6937 89.375 C46.3969 89.375 46.1469 89.1875 46.1469 88.8125 C46.1469 87.8125 46.5375 86 46.8344 84.5625 L45.9281 84.5625 L45.6937 85.8594 L45.6625 85.8594 C45.3656 84.8125 44.6625 84.4375 43.9906 84.4375 C42.7406 84.4375 41.6156 85.5156 41.6156 87.375 C41.6156 89.1562 42.475 90.125 43.7094 90.125 ZM43.8969 89.375 C43.0531 89.375 42.5531 88.6406 42.5531 87.375 C42.5531 85.9375 43.3031 85.2031 44.0844 85.2031 C44.6 85.2031 45.1625 85.4688 45.4594 86.6562 L45.3812 87.6875 C45.3031 88.5938 44.6156 89.375 43.8969 89.375 ZM47.8031 87.5469 L50.3656 87.5469 L50.3656 86.8438 L47.8031 86.8438 L47.8031 87.5469 ZM53.4606 90.125 C54.7575 90.125 55.8044 89.3438 55.8044 88.0469 C55.8044 87.0469 55.1169 86.375 54.2575 86.1875 L54.2575 86.1406 C55.0231 85.8438 55.5544 85.2656 55.5544 84.375 C55.5544 83.2031 54.6637 82.5312 53.4294 82.5312 C52.5856 82.5312 51.9294 82.9062 51.3825 83.4062 L51.8669 83.9844 C52.2731 83.5625 52.8044 83.2812 53.3825 83.2812 C54.1481 83.2812 54.6325 83.7344 54.6325 84.4375 C54.6325 85.2344 54.1169 85.8438 52.6012 85.8438 L52.6012 86.5469 C54.2887 86.5469 54.8825 87.125 54.8825 88 C54.8825 88.8438 54.2575 89.375 53.3825 89.375 C52.5544 89.375 52.0075 88.9844 51.57 88.5312 L51.1169 89.125 C51.5856 89.6562 52.3044 90.125 53.4606 90.125 ZM56.8231 87.5469 L59.3856 87.5469 L59.3856 86.8438 L56.8231 86.8438 L56.8231 87.5469 ZM62.6056 90.125 C63.2618 90.125 63.8243 89.7812 64.2618 89.3594 L64.2931 89.3594 L64.3712 90 L65.1056 90 L65.1056 82.0469 L64.215 82.0469 L64.215 84.125 L64.2462 85.0625 C63.7775 84.6719 63.3556 84.4375 62.715 84.4375 C61.4806 84.4375 60.3712 85.5312 60.3712 87.2969 C60.3712 89.0938 61.2462 90.125 62.6056 90.125 ZM62.8087 89.375 C61.8556 89.375 61.3087 88.5938 61.3087 87.2812 C61.3087 86.0469 61.9962 85.2031 62.8868 85.2031 C63.3243 85.2031 63.7462 85.3594 64.215 85.7656 L64.215 88.625 C63.7462 89.125 63.3087 89.375 62.8087 89.375 ZM69.1493 90.125 C69.8837 90.125 70.4775 89.875 70.9462 89.5625 L70.6181 88.9688 C70.2275 89.2344 69.79 89.4062 69.2587 89.4062 C68.2275 89.4062 67.5243 88.6562 67.4618 87.5 L71.1181 87.5 C71.1337 87.375 71.165 87.1875 71.165 86.9844 C71.165 85.4375 70.3837 84.4375 68.9931 84.4375 C67.7431 84.4375 66.5556 85.5312 66.5556 87.2969 C66.5556 89.0781 67.7118 90.125 69.1493 90.125 ZM67.4462 86.8438 C67.5556 85.7812 68.2431 85.1562 69.0087 85.1562 C69.8525 85.1562 70.3525 85.75 70.3525 86.8438 L67.4462 86.8438 ZM74.6112 90.125 C75.9393 90.125 77.1268 89.0938 77.1268 87.2969 C77.1268 85.4844 75.9393 84.4375 74.6112 84.4375 C73.2831 84.4375 72.0956 85.4844 72.0956 87.2969 C72.0956 89.0938 73.2831 90.125 74.6112 90.125 ZM74.6112 89.375 C73.6737 89.375 73.0331 88.5469 73.0331 87.2969 C73.0331 86.0469 73.6737 85.1875 74.6112 85.1875 C75.5487 85.1875 76.1893 86.0469 76.1893 87.2969 C76.1893 88.5469 75.5487 89.375 74.6112 89.375 ZM77.7962 90 L78.7493 90 L79.4837 88.7344 C79.6712 88.4062 79.8431 88.0625 80.0462 87.7656 L80.0931 87.7656 C80.2962 88.0625 80.4837 88.4062 80.6712 88.7344 L81.4681 90 L82.4681 90 L80.6868 87.2656 L82.3275 84.5625 L81.3743 84.5625 L80.7025 85.7656 C80.5462 86.0625 80.39 86.375 80.2181 86.6719 L80.1868 86.6719 C79.9993 86.375 79.8118 86.0625 79.64 85.7656 L78.9056 84.5625 L77.9368 84.5625 L79.5775 87.1719 L77.7962 90 ZM83.6356 92.3438 C84.7137 92.3438 85.2762 91.5156 85.6512 90.4531 L87.6981 84.5625 L86.8074 84.5625 L85.8387 87.5938 C85.6824 88.0625 85.5262 88.625 85.3856 89.1094 L85.3231 89.1094 C85.1668 88.625 84.9637 88.0625 84.8074 87.5938 L83.6981 84.5625 L82.7449 84.5625 L84.9324 90.0156 L84.8074 90.4219 C84.5887 91.0938 84.1981 91.5938 83.5731 91.5938 C83.4324 91.5938 83.2762 91.5469 83.1668 91.5 L82.9949 92.2344 C83.1668 92.2969 83.3699 92.3438 83.6356 92.3438 ZM88.2831 87.5469 L90.8456 87.5469 L90.8456 86.8438 L88.2831 86.8438 L88.2831 87.5469 ZM92.2999 90 L94.1749 90 C96.3937 90 97.5968 88.625 97.5968 86.3125 C97.5968 83.9844 96.3937 82.6562 94.1437 82.6562 L92.2999 82.6562 L92.2999 90 ZM93.2374 89.2344 L93.2374 83.4219 L94.0656 83.4219 C95.7843 83.4219 96.6437 84.4531 96.6437 86.3125 C96.6437 88.1562 95.7843 89.2344 94.0656 89.2344 L93.2374 89.2344 ZM98.6231 87.5469 L101.1856 87.5469 L101.1856 86.8438 L98.6231 86.8438 L98.6231 87.5469 ZM102.5618 90 L103.4681 90 L103.4681 86.5156 C103.8274 85.5781 104.3899 85.2656 104.8431 85.2656 C105.0618 85.2656 105.1868 85.2812 105.3743 85.3438 L105.5462 84.5469 C105.3743 84.4531 105.2024 84.4375 104.9524 84.4375 C104.3431 84.4375 103.7962 84.875 103.4212 85.5625 L103.3899 85.5625 L103.3118 84.5625 L102.5618 84.5625 L102.5618 90 ZM106.4418 90 L107.3481 90 L107.3481 84.5625 L106.4418 84.5625 L106.4418 90 ZM106.8949 83.4531 C107.2543 83.4531 107.5043 83.2031 107.5043 82.8438 C107.5043 82.4844 107.2543 82.25 106.8949 82.25 C106.5356 82.25 106.2856 82.4844 106.2856 82.8438 C106.2856 83.2031 106.5356 83.4531 106.8949 83.4531 ZM111.5824 90.125 C112.8324 90.125 113.9418 89.0625 113.9418 87.1875 C113.9418 85.5312 113.1762 84.4375 111.7699 84.4375 C111.1762 84.4375 110.5668 84.7656 110.0668 85.2031 L110.0981 84.2188 L110.0981 82.0469 L109.1918 82.0469 L109.1918 90 L109.9262 90 L110.0043 89.4375 L110.0356 89.4375 C110.5043 89.875 111.0824 90.125 111.5824 90.125 ZM111.4262 89.375 C111.0668 89.375 110.5824 89.2188 110.0981 88.7969 L110.0981 85.9531 C110.6137 85.4531 111.0981 85.2031 111.5668 85.2031 C112.5824 85.2031 112.9887 86.0156 112.9887 87.2031 C112.9887 88.5625 112.3324 89.375 111.4262 89.375 ZM115.4499 90 L116.3874 90 L116.3874 86.5469 L119.7937 86.5469 L119.7937 90 L120.7155 90 L120.7155 82.6562 L119.7937 82.6562 L119.7937 85.7344 L116.3874 85.7344 L116.3874 82.6562 L115.4499 82.6562 L115.4499 90 ZM124.8393 90.125 C125.5737 90.125 126.1674 89.875 126.6362 89.5625 L126.308 88.9688 C125.9174 89.2344 125.4799 89.4062 124.9487 89.4062 C123.9174 89.4062 123.2143 88.6562 123.1518 87.5 L126.808 87.5 C126.8237 87.375 126.8549 87.1875 126.8549 86.9844 C126.8549 85.4375 126.0737 84.4375 124.683 84.4375 C123.433 84.4375 122.2455 85.5312 122.2455 87.2969 C122.2455 89.0781 123.4018 90.125 124.8393 90.125 ZM123.1362 86.8438 C123.2455 85.7812 123.933 85.1562 124.6987 85.1562 C125.5424 85.1562 126.0424 85.75 126.0424 86.8438 L123.1362 86.8438 ZM127.4262 90 L128.3793 90 L129.1137 88.7344 C129.3012 88.4062 129.473 88.0625 129.6762 87.7656 L129.723 87.7656 C129.9262 88.0625 130.1137 88.4062 130.3012 88.7344 L131.098 90 L132.098 90 L130.3168 87.2656 L131.9574 84.5625 L131.0043 84.5625 L130.3324 85.7656 C130.1762 86.0625 130.0199 86.375 129.848 86.6719 L129.8168 86.6719 C129.6293 86.375 129.4418 86.0625 129.2699 85.7656 L128.5355 84.5625 L127.5668 84.5625 L129.2074 87.1719 L127.4262 90 ZM133.1718 92.2969 L134.078 92.2969 L134.078 90.4531 L134.0624 89.5 C134.5468 89.9062 135.0624 90.125 135.5624 90.125 C136.8124 90.125 137.9218 89.0625 137.9218 87.2031 C137.9218 85.5312 137.1562 84.4375 135.7655 84.4375 C135.1249 84.4375 134.5155 84.7969 134.0312 85.1875 L133.9999 85.1875 L133.9218 84.5625 L133.1718 84.5625 L133.1718 92.2969 ZM135.4062 89.375 C135.0468 89.375 134.5624 89.2188 134.078 88.7969 L134.078 85.9531 C134.6093 85.4531 135.078 85.2031 135.5468 85.2031 C136.5624 85.2031 136.9687 86.0156 136.9687 87.2031 C136.9687 88.5625 136.3124 89.375 135.4062 89.375 ZM138.8874 90 L143.4968 90 L143.4968 89.2031 L141.4655 89.2031 C141.1062 89.2031 140.653 89.25 140.2624 89.2812 C141.9968 87.6562 143.1374 86.1562 143.1374 84.7031 C143.1374 83.3906 142.3249 82.5312 141.0124 82.5312 C140.0749 82.5312 139.4499 82.9531 138.8562 83.6094 L139.3874 84.125 C139.778 83.6562 140.2937 83.2812 140.903 83.2812 C141.8093 83.2812 142.2468 83.8906 142.2468 84.7344 C142.2468 85.9844 141.1843 87.4531 138.8874 89.4531 L138.8874 90 ZM144.9999 90 L145.8749 90 L145.8749 86.1562 C145.8749 85.375 145.8124 84.5938 145.7655 83.8594 L145.8124 83.8594 L146.5936 85.375 L149.2655 90 L150.2186 90 L150.2186 82.6562 L149.3436 82.6562 L149.3436 86.4844 C149.3436 87.2344 149.4061 88.0625 149.453 88.7969 L149.4061 88.7969 L148.6249 87.2969 L145.953 82.6562 L144.9999 82.6562 L144.9999 90 ZM153.4855 85.9062 C153.7511 85.0625 153.9855 84.2812 154.2199 83.4219 L154.2668 83.4219 C154.5011 84.2656 154.7355 85.0625 155.0011 85.9062 L155.3449 87.0156 L153.1261 87.0156 L153.4855 85.9062 ZM151.2511 90 L152.1886 90 L152.9074 87.7656 L155.5793 87.7656 L156.2824 90 L157.2668 90 L154.7668 82.6562 L153.7355 82.6562 L151.2511 90 ZM160.3524 90.125 C160.993 90.125 161.618 89.875 162.1024 89.4375 L161.7117 88.8281 C161.368 89.1406 160.9305 89.375 160.4305 89.375 C159.4305 89.375 158.743 88.5469 158.743 87.2969 C158.743 86.0469 159.4774 85.1875 160.4617 85.1875 C160.8836 85.1875 161.2274 85.3906 161.5399 85.6719 L162.0086 85.0625 C161.618 84.7344 161.1336 84.4375 160.4149 84.4375 C159.0242 84.4375 157.8055 85.4844 157.8055 87.2969 C157.8055 89.0938 158.9149 90.125 160.3524 90.125 Z"
    /></g
  ></g
></svg
>
