<?xml version="1.0"?>
<!DOCTYPE svg PUBLIC '-//W3C//DTD SVG 1.0//EN'
          'http://www.w3.org/TR/2001/REC-SVG-20010904/DTD/svg10.dtd'>
<svg xmlns:xlink="http://www.w3.org/1999/xlink" style="fill-opacity:1; color-rendering:auto; color-interpolation:auto; text-rendering:auto; stroke:black; stroke-linecap:square; stroke-miterlimit:10; shape-rendering:auto; stroke-opacity:1; fill:black; stroke-dasharray:none; font-weight:normal; stroke-width:1; font-family:'Dialog'; font-style:normal; stroke-linejoin:miter; font-size:12px; stroke-dashoffset:0; image-rendering:auto;" viewBox="0 0 158 417" xmlns="http://www.w3.org/2000/svg"
><!--Generated by the Batik Graphics2D SVG Generator--><defs id="genericDefs"
  /><g
  ><defs id="defs1"
    ><clipPath clipPathUnits="userSpaceOnUse" id="clipPath1"
      ><path style="fill-rule:evenodd;" d="M73 342 L84 353 L73 364 L62 353 Z"
      /></clipPath
      ><clipPath clipPathUnits="userSpaceOnUse" id="clipPath2"
      ><path style="fill-rule:evenodd;" d="M84 301 L78 308 L67 308 L62 301 L67 293 L78 293 L84 301 Z"
      /></clipPath
      ><clipPath clipPathUnits="userSpaceOnUse" id="clipPath3"
      ><path style="fill-rule:evenodd;" d="M84 249 L78 256 L67 256 L62 249 L67 241 L78 241 L84 249 Z"
      /></clipPath
      ><clipPath clipPathUnits="userSpaceOnUse" id="clipPath4"
      ><path d="M62 186 L84 186 L84 208 L62 208 L62 186 Z"
      /></clipPath
      ><clipPath clipPathUnits="userSpaceOnUse" id="clipPath5"
      ><path d="M84 145 C84 151.0751 79.0751 156 73 156 C66.9249 156 62 151.0751 62 145 C62 138.9249 66.9249 134 73 134 C79.0751 134 84 138.9249 84 145 Z"
      /></clipPath
      ><clipPath clipPathUnits="userSpaceOnUse" id="clipPath6"
      ><path style="fill-rule:evenodd;" d="M73 82 L84 93 L73 104 L62 93 Z"
      /></clipPath
    ></defs
    ><g style="fill:white; text-rendering:optimizeSpeed; stroke:white;"
    ><rect x="0" width="158" height="417" y="0" style="stroke:none;"
      /><polygon style="clip-path:url(#clipPath1); stroke:none;" points=" 73 342 84 353 73 364 62 353"
      /><rect x="62" y="342" width="22" style="clip-path:url(#clipPath1); fill:rgb(0,166,81); stroke:none;" height="22"
      /><rect x="62" y="342" width="22" style="clip-path:url(#clipPath1); fill:none; stroke:black;" height="22"
      /><polygon style="fill:none; stroke:black;" points=" 73 342 84 353 73 364 62 353"
    /></g
    ><g style="text-rendering:optimizeSpeed; font-size:14px; font-family:'SansSerif';"
    ><path style="stroke:none;" d="M65.6094 381 L72.0625 381 L72.0625 379.8906 L69.2344 379.8906 C68.7031 379.8906 68.0781 379.9531 67.5469 379.9844 C69.9531 377.7031 71.5625 375.625 71.5625 373.5781 C71.5625 371.75 70.4219 370.5469 68.5781 370.5469 C67.2812 370.5469 66.4062 371.1406 65.5625 372.0469 L66.2969 372.7812 C66.8594 372.1094 67.5938 371.5938 68.4375 371.5938 C69.7031 371.5938 70.3125 372.4531 70.3125 373.625 C70.3125 375.3906 68.8438 377.4375 65.6094 380.25 L65.6094 381 ZM77.8168 381.1875 C79.9106 381.1875 81.5043 380.0625 81.5043 376.7656 L81.5043 370.7188 L80.2543 370.7188 L80.2543 376.7969 C80.2543 379.2812 79.1762 380.0469 77.8168 380.0469 C76.4731 380.0469 75.4262 379.2812 75.4262 376.7969 L75.4262 370.7188 L74.1293 370.7188 L74.1293 376.7656 C74.1293 380.0625 75.7231 381.1875 77.8168 381.1875 Z"
    /></g
    ><g style="fill:white; text-rendering:optimizeSpeed; font-family:'Serif'; stroke:white;"
    ><rect x="89" width="5" height="10" y="340" style="stroke:none;"
      /><path d="M90.8906 348.6875 C90.4844 348.6875 90.1562 349.0469 90.1562 349.4219 C90.1562 349.8125 90.4844 350.1562 90.8906 350.1562 C91.2969 350.1562 91.6406 349.8125 91.6406 349.4219 C91.6406 349.0469 91.2969 348.6875 90.8906 348.6875 ZM92.4688 342.5781 C92.7188 342.8906 92.875 343.2656 92.8906 343.6562 C92.8906 344.1875 92.625 344.5 92.0312 344.7656 L91.4062 345.0156 C90.6406 345.3125 90.3906 345.5469 90.3906 345.9375 C90.3906 346.1094 90.4531 346.3438 90.5781 346.8125 L90.7344 347.3438 L91.1094 347.3438 L91.0938 346.5312 C91.0938 346.0938 91.2031 345.9688 91.7812 345.7344 L92.2031 345.5625 C93.0312 345.2188 93.4531 344.6875 93.4531 343.8438 C93.4531 342.1562 91.6562 341.1875 90.5 341.0312 C90.1094 341.125 89.9062 341.2969 89.9062 341.6406 C89.9062 341.9375 90.0625 342.1562 90.7188 342.2656 L92.4688 342.5781 Z" style="fill:black; stroke:none;"
      /><rect x="89" width="5" height="10" y="356" style="stroke:none;"
      /><path d="M90.8906 364.6875 C90.4844 364.6875 90.1562 365.0469 90.1562 365.4219 C90.1562 365.8125 90.4844 366.1562 90.8906 366.1562 C91.2969 366.1562 91.6406 365.8125 91.6406 365.4219 C91.6406 365.0469 91.2969 364.6875 90.8906 364.6875 ZM92.4688 358.5781 C92.7188 358.8906 92.875 359.2656 92.8906 359.6562 C92.8906 360.1875 92.625 360.5 92.0312 360.7656 L91.4062 361.0156 C90.6406 361.3125 90.3906 361.5469 90.3906 361.9375 C90.3906 362.1094 90.4531 362.3438 90.5781 362.8125 L90.7344 363.3438 L91.1094 363.3438 L91.0938 362.5312 C91.0938 362.0938 91.2031 361.9688 91.7812 361.7344 L92.2031 361.5625 C93.0312 361.2188 93.4531 360.6875 93.4531 359.8438 C93.4531 358.1562 91.6562 357.1875 90.5 357.0312 C90.1094 357.125 89.9062 357.2969 89.9062 357.6406 C89.9062 357.9375 90.0625 358.1562 90.7188 358.2656 L92.4688 358.5781 Z" style="fill:black; stroke:none;"
      /><polygon style="clip-path:url(#clipPath2); stroke:none;" points=" 84 301 78 308 67 308 62 301 67 293 78 293 84 301"
      /><rect x="62" y="290" width="22" style="clip-path:url(#clipPath2); fill:rgb(246,158,161); stroke:none;" height="22"
      /><rect x="62" y="290" width="22" style="clip-path:url(#clipPath2); fill:none; stroke:black;" height="22"
      /><polygon style="fill:none; stroke:black;" points=" 84 301 78 308 67 308 62 301 67 293 78 293 84 301"
      /><rect x="89" width="5" height="10" y="288" style="stroke:none;"
      /><path d="M90.8906 296.6875 C90.4844 296.6875 90.1562 297.0469 90.1562 297.4219 C90.1562 297.8125 90.4844 298.1562 90.8906 298.1562 C91.2969 298.1562 91.6406 297.8125 91.6406 297.4219 C91.6406 297.0469 91.2969 296.6875 90.8906 296.6875 ZM92.4688 290.5781 C92.7188 290.8906 92.875 291.2656 92.8906 291.6562 C92.8906 292.1875 92.625 292.5 92.0312 292.7656 L91.4062 293.0156 C90.6406 293.3125 90.3906 293.5469 90.3906 293.9375 C90.3906 294.1094 90.4531 294.3438 90.5781 294.8125 L90.7344 295.3438 L91.1094 295.3438 L91.0938 294.5312 C91.0938 294.0938 91.2031 293.9688 91.7812 293.7344 L92.2031 293.5625 C93.0312 293.2188 93.4531 292.6875 93.4531 291.8438 C93.4531 290.1562 91.6562 289.1875 90.5 289.0312 C90.1094 289.125 89.9062 289.2969 89.9062 289.6406 C89.9062 289.9375 90.0625 290.1562 90.7188 290.2656 L92.4688 290.5781 Z" style="fill:black; stroke:none;"
      /><rect x="89" width="5" height="10" y="304" style="stroke:none;"
      /><path d="M90.8906 312.6875 C90.4844 312.6875 90.1562 313.0469 90.1562 313.4219 C90.1562 313.8125 90.4844 314.1562 90.8906 314.1562 C91.2969 314.1562 91.6406 313.8125 91.6406 313.4219 C91.6406 313.0469 91.2969 312.6875 90.8906 312.6875 ZM92.4688 306.5781 C92.7188 306.8906 92.875 307.2656 92.8906 307.6562 C92.8906 308.1875 92.625 308.5 92.0312 308.7656 L91.4062 309.0156 C90.6406 309.3125 90.3906 309.5469 90.3906 309.9375 C90.3906 310.1094 90.4531 310.3438 90.5781 310.8125 L90.7344 311.3438 L91.1094 311.3438 L91.0938 310.5312 C91.0938 310.0938 91.2031 309.9688 91.7812 309.7344 L92.2031 309.5625 C93.0312 309.2188 93.4531 308.6875 93.4531 307.8438 C93.4531 306.1562 91.6562 305.1875 90.5 305.0312 C90.1094 305.125 89.9062 305.2969 89.9062 305.6406 C89.9062 305.9375 90.0625 306.1562 90.7188 306.2656 L92.4688 306.5781 Z" style="fill:black; stroke:none;"
      /><polygon style="clip-path:url(#clipPath3); stroke:none;" points=" 84 249 78 256 67 256 62 249 67 241 78 241 84 249"
      /><rect x="62" y="238" width="22" style="clip-path:url(#clipPath3); fill:rgb(0,166,81); stroke:none;" height="22"
      /><rect x="62" y="238" width="22" style="clip-path:url(#clipPath3); fill:none; stroke:black;" height="22"
      /><polygon style="fill:none; stroke:black;" points=" 84 249 78 256 67 256 62 249 67 241 78 241 84 249"
      /><rect x="89" width="5" height="10" y="236" style="stroke:none;"
      /><path d="M90.8906 244.6875 C90.4844 244.6875 90.1562 245.0469 90.1562 245.4219 C90.1562 245.8125 90.4844 246.1562 90.8906 246.1562 C91.2969 246.1562 91.6406 245.8125 91.6406 245.4219 C91.6406 245.0469 91.2969 244.6875 90.8906 244.6875 ZM92.4688 238.5781 C92.7188 238.8906 92.875 239.2656 92.8906 239.6562 C92.8906 240.1875 92.625 240.5 92.0312 240.7656 L91.4062 241.0156 C90.6406 241.3125 90.3906 241.5469 90.3906 241.9375 C90.3906 242.1094 90.4531 242.3438 90.5781 242.8125 L90.7344 243.3438 L91.1094 243.3438 L91.0938 242.5312 C91.0938 242.0938 91.2031 241.9688 91.7812 241.7344 L92.2031 241.5625 C93.0312 241.2188 93.4531 240.6875 93.4531 239.8438 C93.4531 238.1562 91.6562 237.1875 90.5 237.0312 C90.1094 237.125 89.9062 237.2969 89.9062 237.6406 C89.9062 237.9375 90.0625 238.1562 90.7188 238.2656 L92.4688 238.5781 Z" style="fill:black; stroke:none;"
      /><rect x="89" width="5" height="10" y="252" style="stroke:none;"
      /><path d="M90.8906 260.6875 C90.4844 260.6875 90.1562 261.0469 90.1562 261.4219 C90.1562 261.8125 90.4844 262.1562 90.8906 262.1562 C91.2969 262.1562 91.6406 261.8125 91.6406 261.4219 C91.6406 261.0469 91.2969 260.6875 90.8906 260.6875 ZM92.4688 254.5781 C92.7188 254.8906 92.875 255.2656 92.8906 255.6562 C92.8906 256.1875 92.625 256.5 92.0312 256.7656 L91.4062 257.0156 C90.6406 257.3125 90.3906 257.5469 90.3906 257.9375 C90.3906 258.1094 90.4531 258.3438 90.5781 258.8125 L90.7344 259.3438 L91.1094 259.3438 L91.0938 258.5312 C91.0938 258.0938 91.2031 257.9688 91.7812 257.7344 L92.2031 257.5625 C93.0312 257.2188 93.4531 256.6875 93.4531 255.8438 C93.4531 254.1562 91.6562 253.1875 90.5 253.0312 C90.1094 253.125 89.9062 253.2969 89.9062 253.6406 C89.9062 253.9375 90.0625 254.1562 90.7188 254.2656 L92.4688 254.5781 Z" style="fill:black; stroke:none;"
    /></g
    ><g style="text-rendering:optimizeSpeed; font-size:14px; font-family:'SansSerif';"
    ><path style="stroke:none;" d="M47.7031 254.1875 C49.5156 254.1875 50.9844 253.0938 50.9844 251.25 C50.9844 249.8594 50.0156 248.9375 48.8125 248.6562 L48.8125 248.5938 C49.8906 248.1875 50.6406 247.3594 50.6406 246.125 C50.6406 244.5 49.375 243.5469 47.6562 243.5469 C46.4688 243.5469 45.5469 244.0625 44.7812 244.7812 L45.4688 245.5938 C46.0469 245 46.7656 244.5938 47.5938 244.5938 C48.6562 244.5938 49.3281 245.2344 49.3281 246.2188 C49.3281 247.3281 48.6094 248.1719 46.4844 248.1719 L46.4844 249.1562 C48.8594 249.1562 49.6875 249.9844 49.6875 251.2031 C49.6875 252.3906 48.8125 253.125 47.5938 253.125 C46.4375 253.125 45.6562 252.5781 45.0469 251.9375 L44.4062 252.7812 C45.0781 253.5156 46.0938 254.1875 47.7031 254.1875 ZM51.9731 254 L53.3168 254 L54.3481 252.2188 C54.6137 251.7656 54.8637 251.2969 55.1293 250.8594 L55.2075 250.8594 C55.4731 251.2969 55.7543 251.7656 56.0043 252.2188 L57.1293 254 L58.5356 254 L56.02 250.1562 L58.3325 246.3906 L57.0043 246.3906 L56.0668 248.0625 C55.8481 248.5 55.6137 248.9219 55.3793 249.3438 L55.3325 249.3438 C55.0668 248.9219 54.8012 248.5 54.5668 248.0625 L53.5512 246.3906 L52.1762 246.3906 L54.4887 250.0312 L51.9731 254 Z"
      /><rect x="62" y="186" width="22" style="clip-path:url(#clipPath4); fill:white; stroke:none;" height="22"
      /><polygon style="fill:rgb(0,144,188); clip-path:url(#clipPath4); stroke:none;" points=" 62 186 84 186 84 208"
      /><polygon style="fill:none; clip-path:url(#clipPath4);" points=" 62 186 84 186 84 208"
      /><rect x="62" width="22" height="22" y="186" style="fill:none;"
    /></g
    ><g style="fill:white; text-rendering:optimizeSpeed; font-family:'Serif'; stroke:white;"
    ><rect x="89" width="5" height="10" y="184" style="stroke:none;"
      /><path d="M90.8906 192.6875 C90.4844 192.6875 90.1562 193.0469 90.1562 193.4219 C90.1562 193.8125 90.4844 194.1562 90.8906 194.1562 C91.2969 194.1562 91.6406 193.8125 91.6406 193.4219 C91.6406 193.0469 91.2969 192.6875 90.8906 192.6875 ZM92.4688 186.5781 C92.7188 186.8906 92.875 187.2656 92.8906 187.6562 C92.8906 188.1875 92.625 188.5 92.0312 188.7656 L91.4062 189.0156 C90.6406 189.3125 90.3906 189.5469 90.3906 189.9375 C90.3906 190.1094 90.4531 190.3438 90.5781 190.8125 L90.7344 191.3438 L91.1094 191.3438 L91.0938 190.5312 C91.0938 190.0938 91.2031 189.9688 91.7812 189.7344 L92.2031 189.5625 C93.0312 189.2188 93.4531 188.6875 93.4531 187.8438 C93.4531 186.1562 91.6562 185.1875 90.5 185.0312 C90.1094 185.125 89.9062 185.2969 89.9062 185.6406 C89.9062 185.9375 90.0625 186.1562 90.7188 186.2656 L92.4688 186.5781 Z" style="fill:black; stroke:none;"
      /><rect x="89" width="5" height="10" y="200" style="stroke:none;"
      /><path d="M90.8906 208.6875 C90.4844 208.6875 90.1562 209.0469 90.1562 209.4219 C90.1562 209.8125 90.4844 210.1562 90.8906 210.1562 C91.2969 210.1562 91.6406 209.8125 91.6406 209.4219 C91.6406 209.0469 91.2969 208.6875 90.8906 208.6875 ZM92.4688 202.5781 C92.7188 202.8906 92.875 203.2656 92.8906 203.6562 C92.8906 204.1875 92.625 204.5 92.0312 204.7656 L91.4062 205.0156 C90.6406 205.3125 90.3906 205.5469 90.3906 205.9375 C90.3906 206.1094 90.4531 206.3438 90.5781 206.8125 L90.7344 207.3438 L91.1094 207.3438 L91.0938 206.5312 C91.0938 206.0938 91.2031 205.9688 91.7812 205.7344 L92.2031 205.5625 C93.0312 205.2188 93.4531 204.6875 93.4531 203.8438 C93.4531 202.1562 91.6562 201.1875 90.5 201.0312 C90.1094 201.125 89.9062 201.2969 89.9062 201.6406 C89.9062 201.9375 90.0625 202.1562 90.7188 202.2656 L92.4688 202.5781 Z" style="fill:black; stroke:none;"
      /><circle r="11" style="clip-path:url(#clipPath5); stroke:none;" cx="73" cy="145"
    /></g
    ><g style="fill:rgb(0,144,188); text-rendering:optimizeSpeed; font-size:14px; font-family:'SansSerif'; stroke:rgb(0,144,188);"
    ><rect x="62" y="134" width="22" style="clip-path:url(#clipPath5); stroke:none;" height="22"
      /><rect x="62" y="134" width="22" style="clip-path:url(#clipPath5); fill:none; stroke:black;" height="22"
      /><circle r="11" style="fill:none; stroke:black;" cx="73" cy="145"
    /></g
    ><g style="fill:white; text-rendering:optimizeSpeed; font-family:'Serif'; stroke:white;"
    ><rect x="89" width="5" height="10" y="132" style="stroke:none;"
      /><path d="M90.8906 140.6875 C90.4844 140.6875 90.1562 141.0469 90.1562 141.4219 C90.1562 141.8125 90.4844 142.1562 90.8906 142.1562 C91.2969 142.1562 91.6406 141.8125 91.6406 141.4219 C91.6406 141.0469 91.2969 140.6875 90.8906 140.6875 ZM92.4688 134.5781 C92.7188 134.8906 92.875 135.2656 92.8906 135.6562 C92.8906 136.1875 92.625 136.5 92.0312 136.7656 L91.4062 137.0156 C90.6406 137.3125 90.3906 137.5469 90.3906 137.9375 C90.3906 138.1094 90.4531 138.3438 90.5781 138.8125 L90.7344 139.3438 L91.1094 139.3438 L91.0938 138.5312 C91.0938 138.0938 91.2031 137.9688 91.7812 137.7344 L92.2031 137.5625 C93.0312 137.2188 93.4531 136.6875 93.4531 135.8438 C93.4531 134.1562 91.6562 133.1875 90.5 133.0312 C90.1094 133.125 89.9062 133.2969 89.9062 133.6406 C89.9062 133.9375 90.0625 134.1562 90.7188 134.2656 L92.4688 134.5781 Z" style="fill:black; stroke:none;"
      /><rect x="89" width="5" height="10" y="148" style="stroke:none;"
      /><path d="M90.8906 156.6875 C90.4844 156.6875 90.1562 157.0469 90.1562 157.4219 C90.1562 157.8125 90.4844 158.1562 90.8906 158.1562 C91.2969 158.1562 91.6406 157.8125 91.6406 157.4219 C91.6406 157.0469 91.2969 156.6875 90.8906 156.6875 ZM92.4688 150.5781 C92.7188 150.8906 92.875 151.2656 92.8906 151.6562 C92.8906 152.1875 92.625 152.5 92.0312 152.7656 L91.4062 153.0156 C90.6406 153.3125 90.3906 153.5469 90.3906 153.9375 C90.3906 154.1094 90.4531 154.3438 90.5781 154.8125 L90.7344 155.3438 L91.1094 155.3438 L91.0938 154.5312 C91.0938 154.0938 91.2031 153.9688 91.7812 153.7344 L92.2031 153.5625 C93.0312 153.2188 93.4531 152.6875 93.4531 151.8438 C93.4531 150.1562 91.6562 149.1875 90.5 149.0312 C90.1094 149.125 89.9062 149.2969 89.9062 149.6406 C89.9062 149.9375 90.0625 150.1562 90.7188 150.2656 L92.4688 150.5781 Z" style="fill:black; stroke:none;"
      /><polygon style="stroke:none; clip-path:url(#clipPath6);" points=" 73 82 84 93 73 104 62 93"
    /></g
    ><g style="fill:rgb(255,212,0); text-rendering:optimizeSpeed; font-size:14px; font-family:'SansSerif'; stroke:rgb(255,212,0);"
    ><rect x="62" y="82" width="22" style="clip-path:url(#clipPath6); stroke:none;" height="11"
      /><rect x="62" y="82" width="22" style="clip-path:url(#clipPath6); fill:none; stroke:black;" height="11"
      /><polygon style="fill:none; stroke:black;" points=" 73 82 84 93 73 104 62 93"
    /></g
    ><g style="fill:white; text-rendering:optimizeSpeed; font-family:'Serif'; stroke:white;"
    ><rect x="89" width="5" height="10" y="80" style="stroke:none;"
      /><path d="M90.8906 88.6875 C90.4844 88.6875 90.1562 89.0469 90.1562 89.4219 C90.1562 89.8125 90.4844 90.1562 90.8906 90.1562 C91.2969 90.1562 91.6406 89.8125 91.6406 89.4219 C91.6406 89.0469 91.2969 88.6875 90.8906 88.6875 ZM92.4688 82.5781 C92.7188 82.8906 92.875 83.2656 92.8906 83.6562 C92.8906 84.1875 92.625 84.5 92.0312 84.7656 L91.4062 85.0156 C90.6406 85.3125 90.3906 85.5469 90.3906 85.9375 C90.3906 86.1094 90.4531 86.3438 90.5781 86.8125 L90.7344 87.3438 L91.1094 87.3438 L91.0938 86.5312 C91.0938 86.0938 91.2031 85.9688 91.7812 85.7344 L92.2031 85.5625 C93.0312 85.2188 93.4531 84.6875 93.4531 83.8438 C93.4531 82.1562 91.6562 81.1875 90.5 81.0312 C90.1094 81.125 89.9062 81.2969 89.9062 81.6406 C89.9062 81.9375 90.0625 82.1562 90.7188 82.2656 L92.4688 82.5781 Z" style="fill:black; stroke:none;"
      /><rect x="89" width="5" height="10" y="96" style="stroke:none;"
      /><path d="M90.8906 104.6875 C90.4844 104.6875 90.1562 105.0469 90.1562 105.4219 C90.1562 105.8125 90.4844 106.1562 90.8906 106.1562 C91.2969 106.1562 91.6406 105.8125 91.6406 105.4219 C91.6406 105.0469 91.2969 104.6875 90.8906 104.6875 ZM92.4688 98.5781 C92.7188 98.8906 92.875 99.2656 92.8906 99.6562 C92.8906 100.1875 92.625 100.5 92.0312 100.7656 L91.4062 101.0156 C90.6406 101.3125 90.3906 101.5469 90.3906 101.9375 C90.3906 102.1094 90.4531 102.3438 90.5781 102.8125 L90.7344 103.3438 L91.1094 103.3438 L91.0938 102.5312 C91.0938 102.0938 91.2031 101.9688 91.7812 101.7344 L92.2031 101.5625 C93.0312 101.2188 93.4531 100.6875 93.4531 99.8438 C93.4531 98.1562 91.6562 97.1875 90.5 97.0312 C90.1094 97.125 89.9062 97.2969 89.9062 97.6406 C89.9062 97.9375 90.0625 98.1562 90.7188 98.2656 L92.4688 98.5781 Z" style="fill:black; stroke:none;"
    /></g
    ><g style="text-rendering:optimizeSpeed; font-size:14px; font-family:'SansSerif';"
    ><path style="stroke:none;" d="M44.6094 98 L51.0625 98 L51.0625 96.8906 L48.2344 96.8906 C47.7031 96.8906 47.0781 96.9531 46.5469 96.9844 C48.9531 94.7031 50.5625 92.625 50.5625 90.5781 C50.5625 88.75 49.4219 87.5469 47.5781 87.5469 C46.2812 87.5469 45.4062 88.1406 44.5625 89.0469 L45.2969 89.7812 C45.8594 89.1094 46.5938 88.5938 47.4375 88.5938 C48.7031 88.5938 49.3125 89.4531 49.3125 90.625 C49.3125 92.3906 47.8438 94.4375 44.6094 97.25 L44.6094 98 ZM51.9731 98 L53.3168 98 L54.3481 96.2188 C54.6137 95.7656 54.8637 95.2969 55.1293 94.8594 L55.2075 94.8594 C55.4731 95.2969 55.7543 95.7656 56.0043 96.2188 L57.1293 98 L58.5356 98 L56.02 94.1562 L58.3325 90.3906 L57.0043 90.3906 L56.0668 92.0625 C55.8481 92.5 55.6137 92.9219 55.3793 93.3438 L55.3325 93.3438 C55.0668 92.9219 54.8012 92.5 54.5668 92.0625 L53.5512 90.3906 L52.1762 90.3906 L54.4887 94.0312 L51.9731 98 Z"
      /><rect x="47" y="35" width="35" style="fill:white; stroke:none;" height="10"
      /><path style="stroke:none;" d="M49.4844 42.9062 L50.625 42.9062 C50.375 40.7031 52.8906 39.875 52.8906 37.8281 C52.8906 36.2969 51.8594 35.3281 50.2812 35.3281 C49.1406 35.3281 48.25 35.875 47.6094 36.625 L48.3281 37.2969 C48.8125 36.7344 49.4375 36.3906 50.1406 36.3906 C51.125 36.3906 51.6406 37.0625 51.6406 37.9062 C51.6406 39.5781 49.1719 40.4688 49.4844 42.9062 ZM50.0938 46.1875 C50.6094 46.1875 51.0312 45.7969 51.0312 45.2188 C51.0312 44.625 50.6094 44.2188 50.0938 44.2188 C49.5938 44.2188 49.1719 44.625 49.1719 45.2188 C49.1719 45.7969 49.5938 46.1875 50.0938 46.1875 ZM55.0422 46 L56.3391 46 L56.3391 41.9219 L58.0266 41.9219 C60.2922 41.9219 61.8078 40.9219 61.8078 38.75 C61.8078 36.5156 60.2766 35.7188 57.9797 35.7188 L55.0422 35.7188 L55.0422 46 ZM56.3391 40.875 L56.3391 36.7812 L57.8078 36.7812 C59.6203 36.7812 60.5266 37.2656 60.5266 38.75 C60.5266 40.2188 59.6672 40.875 57.8703 40.875 L56.3391 40.875 ZM63.8902 46 L69.9527 46 L69.9527 44.8906 L65.1871 44.8906 L65.1871 41.1562 L69.0777 41.1562 L69.0777 40.0469 L65.1871 40.0469 L65.1871 36.8281 L69.8121 36.8281 L69.8121 35.7188 L63.8902 35.7188 L63.8902 46 ZM74.4034 46.1875 C74.8565 46.1875 75.3565 46.0469 75.794 45.9062 L75.544 44.9531 C75.294 45.0469 74.9503 45.1406 74.6846 45.1406 C73.794 45.1406 73.4971 44.6094 73.4971 43.6719 L73.4971 39.4375 L75.5596 39.4375 L75.5596 38.3906 L73.4971 38.3906 L73.4971 36.25 L72.4346 36.25 L72.2784 38.3906 L71.0909 38.4688 L71.0909 39.4375 L72.2315 39.4375 L72.2315 43.6406 C72.2315 45.1562 72.7784 46.1875 74.4034 46.1875 ZM77.2751 46 L78.5564 46 L78.5564 40.4844 C79.322 39.7188 79.8533 39.3281 80.6345 39.3281 C81.6501 39.3281 82.0876 39.9219 82.0876 41.3594 L82.0876 46 L83.3533 46 L83.3533 41.1875 C83.3533 39.2344 82.6345 38.2031 81.0408 38.2031 C79.9939 38.2031 79.2126 38.7812 78.4783 39.4844 L78.447 39.4844 L78.3376 38.3906 L77.2751 38.3906 L77.2751 46 Z"
    /></g
  ></g
></svg
>
