<?xml version="1.0"?>
<!DOCTYPE svg PUBLIC '-//W3C//DTD SVG 1.0//EN'
          'http://www.w3.org/TR/2001/REC-SVG-20010904/DTD/svg10.dtd'>
<svg xmlns:xlink="http://www.w3.org/1999/xlink" style="fill-opacity:1; color-rendering:auto; color-interpolation:auto; text-rendering:auto; stroke:black; stroke-linecap:square; stroke-miterlimit:10; shape-rendering:auto; stroke-opacity:1; fill:black; stroke-dasharray:none; font-weight:normal; stroke-width:1; font-family:'Dialog'; font-style:normal; stroke-linejoin:miter; font-size:12px; stroke-dashoffset:0; image-rendering:auto;" viewBox="0 0 126 186" xmlns="http://www.w3.org/2000/svg"
><!--Generated by the Batik Graphics2D SVG Generator--><defs id="genericDefs"
  /><g
  ><defs id="defs1"
    ><clipPath clipPathUnits="userSpaceOnUse" id="clipPath1"
      ><path style="fill-rule:evenodd;" d="M41 134 L52 156 L30 156 Z"
      /></clipPath
      ><clipPath clipPathUnits="userSpaceOnUse" id="clipPath2"
      ><path d="M52 93 C52 99.0751 47.0751 104 41 104 C34.9249 104 30 99.0751 30 93 C30 86.9249 34.9249 82 41 82 C47.0751 82 52 86.9249 52 93 Z"
      /></clipPath
      ><clipPath clipPathUnits="userSpaceOnUse" id="clipPath3"
      ><path style="fill-rule:evenodd;" d="M41 30 L43 37 L51 37 L44 42 L47 49 L41 45 L34 49 L37 42 L30 37 L38 37 L41 30 Z"
      /></clipPath
    ></defs
    ><g style="fill:white; text-rendering:optimizeSpeed; stroke:white;"
    ><rect x="0" width="126" height="186" y="0" style="stroke:none;"
      /><polygon style="clip-path:url(#clipPath1); stroke:none;" points=" 41 134 52 156 30 156"
      /><rect x="30" y="134" width="22" style="clip-path:url(#clipPath1); fill:rgb(237,28,36); stroke:none;" height="22"
      /><rect x="30" y="134" width="22" style="clip-path:url(#clipPath1); fill:none; stroke:black;" height="22"
      /><polygon style="fill:none; stroke:black;" points=" 41 134 52 156 30 156"
      /><rect x="57" y="132" width="5" style="stroke:none;" height="10"
    /></g
    ><g style="font-family:'Serif'; text-rendering:optimizeSpeed; "
    ><path style="stroke:none;" d="M58.8906 140.6875 C58.4844 140.6875 58.1562 141.0469 58.1562 141.4219 C58.1562 141.8125 58.4844 142.1562 58.8906 142.1562 C59.2969 142.1562 59.6406 141.8125 59.6406 141.4219 C59.6406 141.0469 59.2969 140.6875 58.8906 140.6875 ZM60.4688 134.5781 C60.7188 134.8906 60.875 135.2656 60.8906 135.6562 C60.8906 136.1875 60.625 136.5 60.0312 136.7656 L59.4062 137.0156 C58.6406 137.3125 58.3906 137.5469 58.3906 137.9375 C58.3906 138.1094 58.4531 138.3438 58.5781 138.8125 L58.7344 139.3438 L59.1094 139.3438 L59.0938 138.5312 C59.0938 138.0938 59.2031 137.9688 59.7812 137.7344 L60.2031 137.5625 C61.0312 137.2188 61.4531 136.6875 61.4531 135.8438 C61.4531 134.1562 59.6562 133.1875 58.5 133.0312 C58.1094 133.125 57.9062 133.2969 57.9062 133.6406 C57.9062 133.9375 58.0625 134.1562 58.7188 134.2656 L60.4688 134.5781 Z"
      /><rect x="57" y="148" width="5" style="fill:white; stroke:none;" height="10"
      /><path style="stroke:none;" d="M58.8906 156.6875 C58.4844 156.6875 58.1562 157.0469 58.1562 157.4219 C58.1562 157.8125 58.4844 158.1562 58.8906 158.1562 C59.2969 158.1562 59.6406 157.8125 59.6406 157.4219 C59.6406 157.0469 59.2969 156.6875 58.8906 156.6875 ZM60.4688 150.5781 C60.7188 150.8906 60.875 151.2656 60.8906 151.6562 C60.8906 152.1875 60.625 152.5 60.0312 152.7656 L59.4062 153.0156 C58.6406 153.3125 58.3906 153.5469 58.3906 153.9375 C58.3906 154.1094 58.4531 154.3438 58.5781 154.8125 L58.7344 155.3438 L59.1094 155.3438 L59.0938 154.5312 C59.0938 154.0938 59.2031 153.9688 59.7812 153.7344 L60.2031 153.5625 C61.0312 153.2188 61.4531 152.6875 61.4531 151.8438 C61.4531 150.1562 59.6562 149.1875 58.5 149.0312 C58.1094 149.125 57.9062 149.2969 57.9062 149.6406 C57.9062 149.9375 58.0625 150.1562 58.7188 150.2656 L60.4688 150.5781 Z"
      /><circle style="fill:white; clip-path:url(#clipPath2); stroke:none;" r="11" cx="41" cy="93"
      /><rect x="30" y="82" width="22" style="clip-path:url(#clipPath2); fill:rgb(255,212,0); stroke:none;" height="22"
      /><rect x="30" y="82" width="22" style="fill:none; clip-path:url(#clipPath2);" height="22"
      /><circle r="11" style="fill:none;" cx="41" cy="93"
      /><rect x="57" y="80" width="5" style="fill:white; stroke:none;" height="10"
      /><path style="stroke:none;" d="M58.8906 88.6875 C58.4844 88.6875 58.1562 89.0469 58.1562 89.4219 C58.1562 89.8125 58.4844 90.1562 58.8906 90.1562 C59.2969 90.1562 59.6406 89.8125 59.6406 89.4219 C59.6406 89.0469 59.2969 88.6875 58.8906 88.6875 ZM60.4688 82.5781 C60.7188 82.8906 60.875 83.2656 60.8906 83.6562 C60.8906 84.1875 60.625 84.5 60.0312 84.7656 L59.4062 85.0156 C58.6406 85.3125 58.3906 85.5469 58.3906 85.9375 C58.3906 86.1094 58.4531 86.3438 58.5781 86.8125 L58.7344 87.3438 L59.1094 87.3438 L59.0938 86.5312 C59.0938 86.0938 59.2031 85.9688 59.7812 85.7344 L60.2031 85.5625 C61.0312 85.2188 61.4531 84.6875 61.4531 83.8438 C61.4531 82.1562 59.6562 81.1875 58.5 81.0312 C58.1094 81.125 57.9062 81.2969 57.9062 81.6406 C57.9062 81.9375 58.0625 82.1562 58.7188 82.2656 L60.4688 82.5781 Z"
      /><rect x="57" y="96" width="5" style="fill:white; stroke:none;" height="10"
      /><path style="stroke:none;" d="M58.8906 104.6875 C58.4844 104.6875 58.1562 105.0469 58.1562 105.4219 C58.1562 105.8125 58.4844 106.1562 58.8906 106.1562 C59.2969 106.1562 59.6406 105.8125 59.6406 105.4219 C59.6406 105.0469 59.2969 104.6875 58.8906 104.6875 ZM60.4688 98.5781 C60.7188 98.8906 60.875 99.2656 60.8906 99.6562 C60.8906 100.1875 60.625 100.5 60.0312 100.7656 L59.4062 101.0156 C58.6406 101.3125 58.3906 101.5469 58.3906 101.9375 C58.3906 102.1094 58.4531 102.3438 58.5781 102.8125 L58.7344 103.3438 L59.1094 103.3438 L59.0938 102.5312 C59.0938 102.0938 59.2031 101.9688 59.7812 101.7344 L60.2031 101.5625 C61.0312 101.2188 61.4531 100.6875 61.4531 99.8438 C61.4531 98.1562 59.6562 97.1875 58.5 97.0312 C58.1094 97.125 57.9062 97.2969 57.9062 97.6406 C57.9062 97.9375 58.0625 98.1562 58.7188 98.2656 L60.4688 98.5781 Z"
      /><polygon style="fill:white; clip-path:url(#clipPath3); stroke:none;" points=" 41 30 43 37 51 37 44 42 47 49 41 45 34 49 37 42 30 37 38 37 41 30"
      /><rect x="30" y="30" width="22" style="clip-path:url(#clipPath3); fill:rgb(0,166,81); stroke:none;" height="22"
      /><rect x="30" y="30" width="22" style="fill:none; clip-path:url(#clipPath3);" height="22"
      /><polygon style="fill:none;" points=" 41 30 43 37 51 37 44 42 47 49 41 45 34 49 37 42 30 37 38 37 41 30"
      /><rect x="57" y="28" width="5" style="fill:white; stroke:none;" height="10"
      /><path style="stroke:none;" d="M58.8906 36.6875 C58.4844 36.6875 58.1562 37.0469 58.1562 37.4219 C58.1562 37.8125 58.4844 38.1562 58.8906 38.1562 C59.2969 38.1562 59.6406 37.8125 59.6406 37.4219 C59.6406 37.0469 59.2969 36.6875 58.8906 36.6875 ZM60.4688 30.5781 C60.7188 30.8906 60.875 31.2656 60.8906 31.6562 C60.8906 32.1875 60.625 32.5 60.0312 32.7656 L59.4062 33.0156 C58.6406 33.3125 58.3906 33.5469 58.3906 33.9375 C58.3906 34.1094 58.4531 34.3438 58.5781 34.8125 L58.7344 35.3438 L59.1094 35.3438 L59.0938 34.5312 C59.0938 34.0938 59.2031 33.9688 59.7812 33.7344 L60.2031 33.5625 C61.0312 33.2188 61.4531 32.6875 61.4531 31.8438 C61.4531 30.1562 59.6562 29.1875 58.5 29.0312 C58.1094 29.125 57.9062 29.2969 57.9062 29.6406 C57.9062 29.9375 58.0625 30.1562 58.7188 30.2656 L60.4688 30.5781 Z"
      /><rect x="57" y="44" width="5" style="fill:white; stroke:none;" height="10"
      /><path style="stroke:none;" d="M58.8906 52.6875 C58.4844 52.6875 58.1562 53.0469 58.1562 53.4219 C58.1562 53.8125 58.4844 54.1562 58.8906 54.1562 C59.2969 54.1562 59.6406 53.8125 59.6406 53.4219 C59.6406 53.0469 59.2969 52.6875 58.8906 52.6875 ZM60.4688 46.5781 C60.7188 46.8906 60.875 47.2656 60.8906 47.6562 C60.8906 48.1875 60.625 48.5 60.0312 48.7656 L59.4062 49.0156 C58.6406 49.3125 58.3906 49.5469 58.3906 49.9375 C58.3906 50.1094 58.4531 50.3438 58.5781 50.8125 L58.7344 51.3438 L59.1094 51.3438 L59.0938 50.5312 C59.0938 50.0938 59.2031 49.9688 59.7812 49.7344 L60.2031 49.5625 C61.0312 49.2188 61.4531 48.6875 61.4531 47.8438 C61.4531 46.1562 59.6562 45.1875 58.5 45.0312 C58.1094 45.125 57.9062 45.2969 57.9062 45.6406 C57.9062 45.9375 58.0625 46.1562 58.7188 46.2656 L60.4688 46.5781 Z"
    /></g
  ></g
></svg
>
