<?xml version="1.0"?>
<!DOCTYPE svg PUBLIC '-//W3C//DTD SVG 1.0//EN'
          'http://www.w3.org/TR/2001/REC-SVG-20010904/DTD/svg10.dtd'>
<svg xmlns:xlink="http://www.w3.org/1999/xlink" style="fill-opacity:1; color-rendering:auto; color-interpolation:auto; text-rendering:auto; stroke:black; stroke-linecap:square; stroke-miterlimit:10; shape-rendering:auto; stroke-opacity:1; fill:black; stroke-dasharray:none; font-weight:normal; stroke-width:1; font-family:'Dialog'; font-style:normal; stroke-linejoin:miter; font-size:12px; stroke-dashoffset:0; image-rendering:auto;" viewBox="0 0 394 238" xmlns="http://www.w3.org/2000/svg"
><!--Generated by the Batik Graphics2D SVG Generator--><defs id="genericDefs"
  /><g
  ><defs id="defs1"
    ><clipPath clipPathUnits="userSpaceOnUse" id="clipPath1"
      ><path d="M290 69 L312 69 L312 91 L290 91 L290 69 Z"
      /></clipPath
      ><clipPath clipPathUnits="userSpaceOnUse" id="clipPath2"
      ><path d="M260 119 C260 125.0751 255.0751 130 249 130 C242.9249 130 238 125.0751 238 119 C238 112.9249 242.9249 108 249 108 C255.0751 108 260 112.9249 260 119 Z"
      /></clipPath
      ><clipPath clipPathUnits="userSpaceOnUse" id="clipPath3"
      ><path d="M186 108 L208 108 L208 130 L186 130 L186 108 Z"
      /></clipPath
      ><clipPath clipPathUnits="userSpaceOnUse" id="clipPath4"
      ><path d="M156 145 C156 151.0751 151.0751 156 145 156 C138.9249 156 134 151.0751 134 145 C134 138.9249 138.9249 134 145 134 C151.0751 134 156 138.9249 156 145 Z"
      /></clipPath
      ><clipPath clipPathUnits="userSpaceOnUse" id="clipPath5"
      ><path d="M82 134 L104 134 L104 156 L82 156 L82 134 Z"
      /></clipPath
      ><clipPath clipPathUnits="userSpaceOnUse" id="clipPath6"
      ><path d="M52 145 C52 151.0751 47.0751 156 41 156 C34.9249 156 30 151.0751 30 145 C30 138.9249 34.9249 134 41 134 C47.0751 134 52 138.9249 52 145 Z"
      /></clipPath
      ><clipPath clipPathUnits="userSpaceOnUse" id="clipPath7"
      ><path style="fill-rule:evenodd;" d="M41 186 L52 208 L30 208 Z"
      /></clipPath
      ><clipPath clipPathUnits="userSpaceOnUse" id="clipPath8"
      ><path d="M156 93 C156 99.0751 151.0751 104 145 104 C138.9249 104 134 99.0751 134 93 C134 86.9249 138.9249 82 145 82 C151.0751 82 156 86.9249 156 93 Z"
      /></clipPath
      ><clipPath clipPathUnits="userSpaceOnUse" id="clipPath9"
      ><path d="M82 82 L104 82 L104 104 L82 104 L82 82 Z"
      /></clipPath
      ><clipPath clipPathUnits="userSpaceOnUse" id="clipPath10"
      ><path d="M52 93 C52 99.0751 47.0751 104 41 104 C34.9249 104 30 99.0751 30 93 C30 86.9249 34.9249 82 41 82 C47.0751 82 52 86.9249 52 93 Z"
      /></clipPath
      ><clipPath clipPathUnits="userSpaceOnUse" id="clipPath11"
      ><path d="M238 30 L260 30 L260 52 L238 52 L238 30 Z"
      /></clipPath
      ><clipPath clipPathUnits="userSpaceOnUse" id="clipPath12"
      ><path d="M208 41 C208 47.0751 203.0751 52 197 52 C190.9249 52 186 47.0751 186 41 C186 34.9249 190.9249 30 197 30 C203.0751 30 208 34.9249 208 41 Z"
      /></clipPath
      ><clipPath clipPathUnits="userSpaceOnUse" id="clipPath13"
      ><path d="M134 30 L156 30 L156 52 L134 52 L134 30 Z"
      /></clipPath
      ><clipPath clipPathUnits="userSpaceOnUse" id="clipPath14"
      ><path d="M104 41 C104 47.0751 99.0751 52 93 52 C86.9249 52 82 47.0751 82 41 C82 34.9249 86.9249 30 93 30 C99.0751 30 104 34.9249 104 41 Z"
      /></clipPath
    ></defs
    ><g style="fill:white; text-rendering:optimizeSpeed; stroke:white;"
    ><rect x="0" width="394" height="238" y="0" style="stroke:none;"
      /><polygon style="fill:none; stroke:black;" points=" 353 80 301 80"
      /><path d="M353 69 C347.5 74.5 358.5 85.5 353 91" style="fill:none; stroke:black;"
      /><polygon style="fill:none; stroke:black;" points=" 301 80 249 119"
      /><polygon style="fill:none; stroke:black;" points=" 301 80 249 41"
      /><rect x="290" y="69" width="22" style="clip-path:url(#clipPath1); stroke:none;" height="22"
      /><rect x="290" y="69" width="22" style="clip-path:url(#clipPath1); fill:rgb(255,212,0); stroke:none;" height="22"
      /><rect x="290" y="69" width="22" style="clip-path:url(#clipPath1); fill:none; stroke:black;" height="22"
      /><rect x="290" y="69" width="22" style="fill:none; stroke:black;" height="22"
      /><polygon style="fill:none; stroke:black;" points=" 249 119 197 119"
      /><circle style="clip-path:url(#clipPath2); stroke:none;" r="11" cx="249" cy="119"
      /><rect x="238" y="108" width="22" style="clip-path:url(#clipPath2); fill:rgb(255,212,0); stroke:none;" height="22"
      /><rect x="238" y="108" width="22" style="clip-path:url(#clipPath2); fill:none; stroke:black;" height="22"
      /><circle style="fill:none; stroke:black;" r="11" cx="249" cy="119"
      /><polygon style="fill:none; stroke:black;" points=" 197 119 145 145"
      /><polygon style="fill:none; stroke:black;" points=" 197 119 145 93"
      /><rect x="186" y="108" width="22" style="clip-path:url(#clipPath3); stroke:none;" height="22"
      /><rect x="186" y="108" width="22" style="clip-path:url(#clipPath3); fill:rgb(0,144,188); stroke:none;" height="22"
      /><rect x="186" y="108" width="22" style="clip-path:url(#clipPath3); fill:none; stroke:black;" height="22"
      /><rect x="186" y="108" width="22" style="fill:none; stroke:black;" height="22"
      /><polygon style="fill:none; stroke:black;" points=" 145 145 93 145"
      /><circle style="clip-path:url(#clipPath4); stroke:none;" r="11" cx="145" cy="145"
      /><rect x="134" y="134" width="22" style="clip-path:url(#clipPath4); fill:rgb(255,212,0); stroke:none;" height="22"
      /><rect x="134" y="134" width="22" style="clip-path:url(#clipPath4); fill:none; stroke:black;" height="22"
      /><circle style="fill:none; stroke:black;" r="11" cx="145" cy="145"
      /><polygon style="fill:none; stroke:black;" points=" 93 145 41 145"
      /><rect x="82" y="134" width="22" style="clip-path:url(#clipPath5); stroke:none;" height="22"
      /><rect x="82" y="134" width="22" style="clip-path:url(#clipPath5); fill:rgb(0,144,188); stroke:none;" height="22"
      /><rect x="82" y="134" width="22" style="clip-path:url(#clipPath5); fill:none; stroke:black;" height="22"
      /><rect x="82" y="134" width="22" style="fill:none; stroke:black;" height="22"
      /><polygon style="fill:none; stroke:black;" points=" 41 145 41 197"
      /><circle style="clip-path:url(#clipPath6); stroke:none;" r="11" cx="41" cy="145"
      /><rect x="30" y="134" width="22" style="clip-path:url(#clipPath6); fill:rgb(255,212,0); stroke:none;" height="22"
      /><rect x="30" y="134" width="22" style="clip-path:url(#clipPath6); fill:none; stroke:black;" height="22"
      /><circle style="fill:none; stroke:black;" r="11" cx="41" cy="145"
      /><polygon style="clip-path:url(#clipPath7); stroke:none;" points=" 41 186 52 208 30 208"
      /><rect x="30" y="186" width="22" style="clip-path:url(#clipPath7); fill:rgb(237,28,36); stroke:none;" height="22"
      /><rect x="30" y="186" width="22" style="clip-path:url(#clipPath7); fill:none; stroke:black;" height="22"
      /><polygon style="fill:none; stroke:black;" points=" 41 186 52 208 30 208"
      /><rect x="46" y="159" width="6" style="stroke:none;" height="9"
    /></g
    ><g style="font-family:'Serif'; text-rendering:optimizeSpeed; "
    ><path style="stroke:none;" d="M47.4219 167.0938 C48.0781 166.375 48.7031 165.7188 49.0312 165.3438 C50.9219 163.3125 51.5312 162.4688 51.5312 161.3594 C51.5312 160.0156 50.7812 159.0781 49.1562 159.0781 C47.9062 159.0781 46.7969 159.7031 46.5938 160.9688 C46.7188 161.2031 46.9062 161.3438 47.1562 161.3438 C47.4688 161.3438 47.6562 161.1094 47.7969 160.5938 L48.0938 159.6719 C48.3906 159.5938 48.6562 159.5625 48.8906 159.5625 C49.9219 159.5625 50.5469 160.3125 50.5469 161.4219 C50.5469 162.4375 49.9844 163.4219 48.7031 164.9062 C48.125 165.5781 47.3906 166.4375 46.6406 167.2812 L46.6406 168 L51.9219 168 L51.9219 167.0938 L47.4219 167.0938 Z"
      /><rect x="45" y="174" width="8" style="fill:white; stroke:none;" height="8"
      /><path style="stroke:none;" d="M49.9844 179.7031 C49.9375 180.8906 49.1562 181.6562 48.3125 181.6562 C47.2656 181.6562 46.5 180.6875 46.5 178.7188 C46.5 177.2812 47.1562 176.1562 48.3438 176.1562 C49.1406 176.1562 49.7812 176.6875 50.0938 177.6406 L49.9844 179.7031 ZM51.9062 181.2812 C51.7344 181.375 51.5469 181.4219 51.3438 181.4219 C50.9531 181.4219 50.75 181.2188 50.75 180.4219 C50.75 179.4844 50.9688 177.5312 51.1875 175.8281 L51.0312 175.7188 L50.2344 175.9219 L50.1406 176.7969 C49.7812 176.0312 49.1562 175.6562 48.3906 175.6562 C47.0469 175.6562 45.5625 176.8438 45.5625 178.9531 C45.5625 181.0938 46.7188 182.1719 48.1406 182.1719 C49.0156 182.1719 49.6875 181.8125 50.0938 180.9844 C50.2031 181.8594 50.5156 182.1719 51.0156 182.1719 C51.4688 182.1719 51.7969 181.9062 52.0156 181.5625 L51.9062 181.2812 Z"
      /><rect x="70" y="148" width="7" style="fill:white; stroke:none;" height="9"
      /><path style="stroke:none;" d="M71 153.5156 L73.9531 149.2656 L73.9531 153.5156 L71 153.5156 ZM76.2812 153.5156 L74.8594 153.5156 L74.8594 148.125 L74.2344 148.125 L70.3438 153.6406 L70.3438 154.1875 L73.9531 154.1875 L73.9531 157 L74.8594 157 L74.8594 154.1875 L76.2812 154.1875 L76.2812 153.5156 Z"
      /><rect x="57" y="146" width="6" style="fill:white; stroke:none;" height="13"
      /><path style="stroke:none;" d="M59.0938 152.2031 C59.0938 150.6562 59.75 149.8125 60.7969 149.8125 C61.7188 149.8125 62.2656 150.4531 62.2656 151.5156 C62.2656 152.7188 61.5 153.4375 60.1875 153.7031 L60.2969 154.3125 C62.2188 154.2344 62.9375 155.2188 62.9375 156.4375 C62.9375 157.625 62.2344 158.4219 60.9531 158.4219 C60.25 158.4219 59.6562 158.1562 59.0938 157.7188 L59.0938 152.2031 ZM58.2031 158.9062 L58.1094 161.375 L58.2656 161.4844 L59.1562 161.2656 L59.0156 158.0938 C59.5469 158.8438 60.3594 159.1719 61.1719 159.1719 C62.5625 159.1719 63.8594 158.2188 63.8594 156.4844 C63.8594 154.9531 62.875 154.1094 61.125 154 C62.5625 153.6094 63.1875 152.4531 63.1875 151.4844 C63.1875 150.0938 62.1562 149.3125 60.9062 149.3125 C59.2969 149.3125 58.2188 150.5469 58.2188 152.5156 L58.2031 158.9062 Z"
      /><rect x="123" y="148" width="6" style="fill:white; stroke:none;" height="10"
      /><path style="stroke:none;" d="M125.2344 149.6562 C125.5156 149.5938 125.7656 149.5625 126.0156 149.5625 C127.0625 149.5625 127.6719 150.1719 127.6719 151.2656 C127.6719 152.4375 126.9062 153.1094 125.7031 153.1094 L125.1875 153.1094 L125.1875 153.6406 L125.7969 153.6406 C127.2188 153.6406 127.9062 154.4219 127.9062 155.6406 C127.9062 156.8438 127.1719 157.6875 125.875 157.6875 C125.6094 157.6875 125.3125 157.6562 125.0156 157.5625 L124.7812 156.8125 C124.625 156.2812 124.5 156.0469 124.1406 156.0469 C123.8906 156.0469 123.7031 156.1719 123.5781 156.4219 C123.8438 157.6406 124.7812 158.1719 126.0312 158.1719 C127.7188 158.1719 128.875 157.125 128.875 155.7031 C128.875 154.5 128.2031 153.625 126.7969 153.375 C127.9531 153.0156 128.6094 152.2031 128.6094 151.2031 C128.6094 149.9219 127.6719 149.0781 126.1875 149.0781 C125.0469 149.0781 124.0625 149.5938 123.7969 150.6875 C123.9062 151 124.1094 151.1094 124.3594 151.1094 C124.7344 151.1094 124.8906 150.8906 125 150.4062 L125.2344 149.6562 Z"
      /><rect x="109" y="146" width="6" style="fill:white; stroke:none;" height="13"
      /><path style="stroke:none;" d="M111.0938 152.2031 C111.0938 150.6562 111.75 149.8125 112.7969 149.8125 C113.7188 149.8125 114.2656 150.4531 114.2656 151.5156 C114.2656 152.7188 113.5 153.4375 112.1875 153.7031 L112.2969 154.3125 C114.2188 154.2344 114.9375 155.2188 114.9375 156.4375 C114.9375 157.625 114.2344 158.4219 112.9531 158.4219 C112.25 158.4219 111.6562 158.1562 111.0938 157.7188 L111.0938 152.2031 ZM110.2031 158.9062 L110.1094 161.375 L110.2656 161.4844 L111.1562 161.2656 L111.0156 158.0938 C111.5469 158.8438 112.3594 159.1719 113.1719 159.1719 C114.5625 159.1719 115.8594 158.2188 115.8594 156.4844 C115.8594 154.9531 114.875 154.1094 113.125 154 C114.5625 153.6094 115.1875 152.4531 115.1875 151.4844 C115.1875 150.0938 114.1562 149.3125 112.9062 149.3125 C111.2969 149.3125 110.2188 150.5469 110.2188 152.5156 L110.2031 158.9062 Z"
      /><polygon style="fill:none;" points=" 145 93 93 93"
      /><circle style="fill:white; clip-path:url(#clipPath8); stroke:none;" r="11" cx="145" cy="93"
      /><rect x="134" y="82" width="22" style="clip-path:url(#clipPath8); fill:rgb(143,204,233); stroke:none;" height="22"
      /><rect x="134" y="82" width="22" style="fill:none; clip-path:url(#clipPath8);" height="22"
      /><circle r="11" style="fill:none;" cx="145" cy="93"
      /><polygon style="fill:none;" points=" 93 93 41 93"
      /><rect x="82" y="82" width="22" style="clip-path:url(#clipPath9); fill:white; stroke:none;" height="22"
      /><rect x="82" y="82" width="22" style="clip-path:url(#clipPath9); fill:rgb(0,144,188); stroke:none;" height="22"
      /><rect x="82" y="82" width="22" style="fill:none; clip-path:url(#clipPath9);" height="22"
      /><rect x="82" width="22" height="22" y="82" style="fill:none;"
      /><circle style="fill:white; clip-path:url(#clipPath10); stroke:none;" r="11" cx="41" cy="93"
      /><rect x="30" y="82" width="22" style="clip-path:url(#clipPath10); fill:rgb(255,212,0); stroke:none;" height="22"
      /><rect x="30" y="82" width="22" style="fill:none; clip-path:url(#clipPath10);" height="22"
      /><circle r="11" style="fill:none;" cx="41" cy="93"
      /><rect x="70" y="96" width="7" style="fill:white; stroke:none;" height="9"
      /><path style="stroke:none;" d="M71 101.5156 L73.9531 97.2656 L73.9531 101.5156 L71 101.5156 ZM76.2812 101.5156 L74.8594 101.5156 L74.8594 96.125 L74.2344 96.125 L70.3438 101.6406 L70.3438 102.1875 L73.9531 102.1875 L73.9531 105 L74.8594 105 L74.8594 102.1875 L76.2812 102.1875 L76.2812 101.5156 Z"
      /><rect x="57" y="94" width="6" style="fill:white; stroke:none;" height="13"
      /><path style="stroke:none;" d="M59.0938 100.2031 C59.0938 98.6562 59.75 97.8125 60.7969 97.8125 C61.7188 97.8125 62.2656 98.4531 62.2656 99.5156 C62.2656 100.7188 61.5 101.4375 60.1875 101.7031 L60.2969 102.3125 C62.2188 102.2344 62.9375 103.2188 62.9375 104.4375 C62.9375 105.625 62.2344 106.4219 60.9531 106.4219 C60.25 106.4219 59.6562 106.1562 59.0938 105.7188 L59.0938 100.2031 ZM58.2031 106.9062 L58.1094 109.375 L58.2656 109.4844 L59.1562 109.2656 L59.0156 106.0938 C59.5469 106.8438 60.3594 107.1719 61.1719 107.1719 C62.5625 107.1719 63.8594 106.2188 63.8594 104.4844 C63.8594 102.9531 62.875 102.1094 61.125 102 C62.5625 101.6094 63.1875 100.4531 63.1875 99.4844 C63.1875 98.0938 62.1562 97.3125 60.9062 97.3125 C59.2969 97.3125 58.2188 98.5469 58.2188 100.5156 L58.2031 106.9062 Z"
      /><rect x="123" y="96" width="6" style="fill:white; stroke:none;" height="10"
      /><path style="stroke:none;" d="M125.2344 97.6562 C125.5156 97.5938 125.7656 97.5625 126.0156 97.5625 C127.0625 97.5625 127.6719 98.1719 127.6719 99.2656 C127.6719 100.4375 126.9062 101.1094 125.7031 101.1094 L125.1875 101.1094 L125.1875 101.6406 L125.7969 101.6406 C127.2188 101.6406 127.9062 102.4219 127.9062 103.6406 C127.9062 104.8438 127.1719 105.6875 125.875 105.6875 C125.6094 105.6875 125.3125 105.6562 125.0156 105.5625 L124.7812 104.8125 C124.625 104.2812 124.5 104.0469 124.1406 104.0469 C123.8906 104.0469 123.7031 104.1719 123.5781 104.4219 C123.8438 105.6406 124.7812 106.1719 126.0312 106.1719 C127.7188 106.1719 128.875 105.125 128.875 103.7031 C128.875 102.5 128.2031 101.625 126.7969 101.375 C127.9531 101.0156 128.6094 100.2031 128.6094 99.2031 C128.6094 97.9219 127.6719 97.0781 126.1875 97.0781 C125.0469 97.0781 124.0625 97.5938 123.7969 98.6875 C123.9062 99 124.1094 99.1094 124.3594 99.1094 C124.7344 99.1094 124.8906 98.8906 125 98.4062 L125.2344 97.6562 Z"
      /><rect x="109" y="94" width="6" style="fill:white; stroke:none;" height="13"
      /><path style="stroke:none;" d="M111.0938 100.2031 C111.0938 98.6562 111.75 97.8125 112.7969 97.8125 C113.7188 97.8125 114.2656 98.4531 114.2656 99.5156 C114.2656 100.7188 113.5 101.4375 112.1875 101.7031 L112.2969 102.3125 C114.2188 102.2344 114.9375 103.2188 114.9375 104.4375 C114.9375 105.625 114.2344 106.4219 112.9531 106.4219 C112.25 106.4219 111.6562 106.1562 111.0938 105.7188 L111.0938 100.2031 ZM110.2031 106.9062 L110.1094 109.375 L110.2656 109.4844 L111.1562 109.2656 L111.0156 106.0938 C111.5469 106.8438 112.3594 107.1719 113.1719 107.1719 C114.5625 107.1719 115.8594 106.2188 115.8594 104.4844 C115.8594 102.9531 114.875 102.1094 113.125 102 C114.5625 101.6094 115.1875 100.4531 115.1875 99.4844 C115.1875 98.0938 114.1562 97.3125 112.9062 97.3125 C111.2969 97.3125 110.2188 98.5469 110.2188 100.5156 L110.2031 106.9062 Z"
      /><rect x="179" y="130" width="6" style="fill:white; stroke:none;" height="10"
      /><path style="stroke:none;" d="M181.2344 131.6562 C181.5156 131.5938 181.7656 131.5625 182.0156 131.5625 C183.0625 131.5625 183.6719 132.1719 183.6719 133.2656 C183.6719 134.4375 182.9062 135.1094 181.7031 135.1094 L181.1875 135.1094 L181.1875 135.6406 L181.7969 135.6406 C183.2188 135.6406 183.9062 136.4219 183.9062 137.6406 C183.9062 138.8438 183.1719 139.6875 181.875 139.6875 C181.6094 139.6875 181.3125 139.6562 181.0156 139.5625 L180.7812 138.8125 C180.625 138.2812 180.5 138.0469 180.1406 138.0469 C179.8906 138.0469 179.7031 138.1719 179.5781 138.4219 C179.8438 139.6406 180.7812 140.1719 182.0312 140.1719 C183.7188 140.1719 184.875 139.125 184.875 137.7031 C184.875 136.5 184.2031 135.625 182.7969 135.375 C183.9531 135.0156 184.6094 134.2031 184.6094 133.2031 C184.6094 131.9219 183.6719 131.0781 182.1875 131.0781 C181.0469 131.0781 180.0625 131.5938 179.7969 132.6875 C179.9062 133 180.1094 133.1094 180.3594 133.1094 C180.7344 133.1094 180.8906 132.8906 181 132.4062 L181.2344 131.6562 Z"
      /><rect x="163" y="136" width="6" style="fill:white; stroke:none;" height="13"
      /><path style="stroke:none;" d="M165.0938 142.2031 C165.0938 140.6562 165.75 139.8125 166.7969 139.8125 C167.7188 139.8125 168.2656 140.4531 168.2656 141.5156 C168.2656 142.7188 167.5 143.4375 166.1875 143.7031 L166.2969 144.3125 C168.2188 144.2344 168.9375 145.2188 168.9375 146.4375 C168.9375 147.625 168.2344 148.4219 166.9531 148.4219 C166.25 148.4219 165.6562 148.1562 165.0938 147.7188 L165.0938 142.2031 ZM164.2031 148.9062 L164.1094 151.375 L164.2656 151.4844 L165.1562 151.2656 L165.0156 148.0938 C165.5469 148.8438 166.3594 149.1719 167.1719 149.1719 C168.5625 149.1719 169.8594 148.2188 169.8594 146.4844 C169.8594 144.9531 168.875 144.1094 167.125 144 C168.5625 143.6094 169.1875 142.4531 169.1875 141.4844 C169.1875 140.0938 168.1562 139.3125 166.9062 139.3125 C165.2969 139.3125 164.2188 140.5469 164.2188 142.5156 L164.2031 148.9062 Z"
      /><rect x="171" y="112" width="7" style="fill:white; stroke:none;" height="9"
      /><path style="stroke:none;" d="M172 117.5156 L174.9531 113.2656 L174.9531 117.5156 L172 117.5156 ZM177.2812 117.5156 L175.8594 117.5156 L175.8594 112.125 L175.2344 112.125 L171.3438 117.6406 L171.3438 118.1875 L174.9531 118.1875 L174.9531 121 L175.8594 121 L175.8594 118.1875 L177.2812 118.1875 L177.2812 117.5156 Z"
      /><rect x="156" y="102" width="6" style="fill:white; stroke:none;" height="13"
      /><path style="stroke:none;" d="M158.0938 108.2031 C158.0938 106.6562 158.75 105.8125 159.7969 105.8125 C160.7188 105.8125 161.2656 106.4531 161.2656 107.5156 C161.2656 108.7188 160.5 109.4375 159.1875 109.7031 L159.2969 110.3125 C161.2188 110.2344 161.9375 111.2188 161.9375 112.4375 C161.9375 113.625 161.2344 114.4219 159.9531 114.4219 C159.25 114.4219 158.6562 114.1562 158.0938 113.7188 L158.0938 108.2031 ZM157.2031 114.9062 L157.1094 117.375 L157.2656 117.4844 L158.1562 117.2656 L158.0156 114.0938 C158.5469 114.8438 159.3594 115.1719 160.1719 115.1719 C161.5625 115.1719 162.8594 114.2188 162.8594 112.4844 C162.8594 110.9531 161.875 110.1094 160.125 110 C161.5625 109.6094 162.1875 108.4531 162.1875 107.4844 C162.1875 106.0938 161.1562 105.3125 159.9062 105.3125 C158.2969 105.3125 157.2188 106.5469 157.2188 108.5156 L157.2031 114.9062 Z"
      /><rect x="227" y="122" width="6" style="fill:white; stroke:none;" height="10"
      /><path style="stroke:none;" d="M229.2344 123.6562 C229.5156 123.5938 229.7656 123.5625 230.0156 123.5625 C231.0625 123.5625 231.6719 124.1719 231.6719 125.2656 C231.6719 126.4375 230.9062 127.1094 229.7031 127.1094 L229.1875 127.1094 L229.1875 127.6406 L229.7969 127.6406 C231.2188 127.6406 231.9062 128.4219 231.9062 129.6406 C231.9062 130.8438 231.1719 131.6875 229.875 131.6875 C229.6094 131.6875 229.3125 131.6562 229.0156 131.5625 L228.7812 130.8125 C228.625 130.2812 228.5 130.0469 228.1406 130.0469 C227.8906 130.0469 227.7031 130.1719 227.5781 130.4219 C227.8438 131.6406 228.7812 132.1719 230.0312 132.1719 C231.7188 132.1719 232.875 131.125 232.875 129.7031 C232.875 128.5 232.2031 127.625 230.7969 127.375 C231.9531 127.0156 232.6094 126.2031 232.6094 125.2031 C232.6094 123.9219 231.6719 123.0781 230.1875 123.0781 C229.0469 123.0781 228.0625 123.5938 227.7969 124.6875 C227.9062 125 228.1094 125.1094 228.3594 125.1094 C228.7344 125.1094 228.8906 124.8906 229 124.4062 L229.2344 123.6562 Z"
      /><rect x="213" y="120" width="6" style="fill:white; stroke:none;" height="13"
      /><path style="stroke:none;" d="M215.0938 126.2031 C215.0938 124.6562 215.75 123.8125 216.7969 123.8125 C217.7188 123.8125 218.2656 124.4531 218.2656 125.5156 C218.2656 126.7188 217.5 127.4375 216.1875 127.7031 L216.2969 128.3125 C218.2188 128.2344 218.9375 129.2188 218.9375 130.4375 C218.9375 131.625 218.2344 132.4219 216.9531 132.4219 C216.25 132.4219 215.6562 132.1562 215.0938 131.7188 L215.0938 126.2031 ZM214.2031 132.9062 L214.1094 135.375 L214.2656 135.4844 L215.1562 135.2656 L215.0156 132.0938 C215.5469 132.8438 216.3594 133.1719 217.1719 133.1719 C218.5625 133.1719 219.8594 132.2188 219.8594 130.4844 C219.8594 128.9531 218.875 128.1094 217.125 128 C218.5625 127.6094 219.1875 126.4531 219.1875 125.4844 C219.1875 124.0938 218.1562 123.3125 216.9062 123.3125 C215.2969 123.3125 214.2188 124.5469 214.2188 126.5156 L214.2031 132.9062 Z"
      /><polygon style="fill:none;" points=" 249 41 197 41"
      /><rect x="238" y="30" width="22" style="clip-path:url(#clipPath11); fill:white; stroke:none;" height="22"
      /><rect x="238" y="30" width="22" style="clip-path:url(#clipPath11); fill:rgb(0,144,188); stroke:none;" height="22"
      /><rect x="238" y="30" width="22" style="fill:none; clip-path:url(#clipPath11);" height="22"
      /><rect x="238" width="22" height="22" y="30" style="fill:none;"
      /><polygon style="fill:none;" points=" 197 41 145 41"
      /><circle style="fill:white; clip-path:url(#clipPath12); stroke:none;" r="11" cx="197" cy="41"
      /><rect x="186" y="30" width="22" style="clip-path:url(#clipPath12); fill:rgb(255,212,0); stroke:none;" height="22"
      /><rect x="186" y="30" width="22" style="fill:none; clip-path:url(#clipPath12);" height="22"
      /><circle r="11" style="fill:none;" cx="197" cy="41"
      /><polygon style="fill:none;" points=" 145 41 93 41"
      /><rect x="134" y="30" width="22" style="clip-path:url(#clipPath13); fill:white; stroke:none;" height="22"
      /><rect x="134" y="30" width="22" style="clip-path:url(#clipPath13); fill:rgb(0,144,188); stroke:none;" height="22"
      /><rect x="134" y="30" width="22" style="fill:none; clip-path:url(#clipPath13);" height="22"
      /><rect x="134" width="22" height="22" y="30" style="fill:none;"
      /><circle style="fill:white; clip-path:url(#clipPath14); stroke:none;" r="11" cx="93" cy="41"
      /><rect x="82" y="30" width="22" style="clip-path:url(#clipPath14); fill:rgb(255,212,0); stroke:none;" height="22"
      /><rect x="82" y="30" width="22" style="fill:none; clip-path:url(#clipPath14);" height="22"
      /><circle r="11" style="fill:none;" cx="93" cy="41"
      /><rect x="122" y="44" width="7" style="fill:white; stroke:none;" height="9"
      /><path style="stroke:none;" d="M123 49.5156 L125.9531 45.2656 L125.9531 49.5156 L123 49.5156 ZM128.2812 49.5156 L126.8594 49.5156 L126.8594 44.125 L126.2344 44.125 L122.3438 49.6406 L122.3438 50.1875 L125.9531 50.1875 L125.9531 53 L126.8594 53 L126.8594 50.1875 L128.2812 50.1875 L128.2812 49.5156 Z"
      /><rect x="109" y="42" width="6" style="fill:white; stroke:none;" height="13"
      /><path style="stroke:none;" d="M111.0938 48.2031 C111.0938 46.6562 111.75 45.8125 112.7969 45.8125 C113.7188 45.8125 114.2656 46.4531 114.2656 47.5156 C114.2656 48.7188 113.5 49.4375 112.1875 49.7031 L112.2969 50.3125 C114.2188 50.2344 114.9375 51.2188 114.9375 52.4375 C114.9375 53.625 114.2344 54.4219 112.9531 54.4219 C112.25 54.4219 111.6562 54.1562 111.0938 53.7188 L111.0938 48.2031 ZM110.2031 54.9062 L110.1094 57.375 L110.2656 57.4844 L111.1562 57.2656 L111.0156 54.0938 C111.5469 54.8438 112.3594 55.1719 113.1719 55.1719 C114.5625 55.1719 115.8594 54.2188 115.8594 52.4844 C115.8594 50.9531 114.875 50.1094 113.125 50 C114.5625 49.6094 115.1875 48.4531 115.1875 47.4844 C115.1875 46.0938 114.1562 45.3125 112.9062 45.3125 C111.2969 45.3125 110.2188 46.5469 110.2188 48.5156 L110.2031 54.9062 Z"
      /><rect x="175" y="44" width="6" style="fill:white; stroke:none;" height="10"
      /><path style="stroke:none;" d="M177.2344 45.6562 C177.5156 45.5938 177.7656 45.5625 178.0156 45.5625 C179.0625 45.5625 179.6719 46.1719 179.6719 47.2656 C179.6719 48.4375 178.9062 49.1094 177.7031 49.1094 L177.1875 49.1094 L177.1875 49.6406 L177.7969 49.6406 C179.2188 49.6406 179.9062 50.4219 179.9062 51.6406 C179.9062 52.8438 179.1719 53.6875 177.875 53.6875 C177.6094 53.6875 177.3125 53.6562 177.0156 53.5625 L176.7812 52.8125 C176.625 52.2812 176.5 52.0469 176.1406 52.0469 C175.8906 52.0469 175.7031 52.1719 175.5781 52.4219 C175.8438 53.6406 176.7812 54.1719 178.0312 54.1719 C179.7188 54.1719 180.875 53.125 180.875 51.7031 C180.875 50.5 180.2031 49.625 178.7969 49.375 C179.9531 49.0156 180.6094 48.2031 180.6094 47.2031 C180.6094 45.9219 179.6719 45.0781 178.1875 45.0781 C177.0469 45.0781 176.0625 45.5938 175.7969 46.6875 C175.9062 47 176.1094 47.1094 176.3594 47.1094 C176.7344 47.1094 176.8906 46.8906 177 46.4062 L177.2344 45.6562 Z"
      /><rect x="161" y="42" width="6" style="fill:white; stroke:none;" height="13"
      /><path style="stroke:none;" d="M163.0938 48.2031 C163.0938 46.6562 163.75 45.8125 164.7969 45.8125 C165.7188 45.8125 166.2656 46.4531 166.2656 47.5156 C166.2656 48.7188 165.5 49.4375 164.1875 49.7031 L164.2969 50.3125 C166.2188 50.2344 166.9375 51.2188 166.9375 52.4375 C166.9375 53.625 166.2344 54.4219 164.9531 54.4219 C164.25 54.4219 163.6562 54.1562 163.0938 53.7188 L163.0938 48.2031 ZM162.2031 54.9062 L162.1094 57.375 L162.2656 57.4844 L163.1562 57.2656 L163.0156 54.0938 C163.5469 54.8438 164.3594 55.1719 165.1719 55.1719 C166.5625 55.1719 167.8594 54.2188 167.8594 52.4844 C167.8594 50.9531 166.875 50.1094 165.125 50 C166.5625 49.6094 167.1875 48.4531 167.1875 47.4844 C167.1875 46.0938 166.1562 45.3125 164.9062 45.3125 C163.2969 45.3125 162.2188 46.5469 162.2188 48.5156 L162.2031 54.9062 Z"
      /><rect x="226" y="44" width="7" style="fill:white; stroke:none;" height="9"
      /><path style="stroke:none;" d="M227 49.5156 L229.9531 45.2656 L229.9531 49.5156 L227 49.5156 ZM232.2812 49.5156 L230.8594 49.5156 L230.8594 44.125 L230.2344 44.125 L226.3438 49.6406 L226.3438 50.1875 L229.9531 50.1875 L229.9531 53 L230.8594 53 L230.8594 50.1875 L232.2812 50.1875 L232.2812 49.5156 Z"
      /><rect x="213" y="42" width="6" style="fill:white; stroke:none;" height="13"
      /><path style="stroke:none;" d="M215.0938 48.2031 C215.0938 46.6562 215.75 45.8125 216.7969 45.8125 C217.7188 45.8125 218.2656 46.4531 218.2656 47.5156 C218.2656 48.7188 217.5 49.4375 216.1875 49.7031 L216.2969 50.3125 C218.2188 50.2344 218.9375 51.2188 218.9375 52.4375 C218.9375 53.625 218.2344 54.4219 216.9531 54.4219 C216.25 54.4219 215.6562 54.1562 215.0938 53.7188 L215.0938 48.2031 ZM214.2031 54.9062 L214.1094 57.375 L214.2656 57.4844 L215.1562 57.2656 L215.0156 54.0938 C215.5469 54.8438 216.3594 55.1719 217.1719 55.1719 C218.5625 55.1719 219.8594 54.2188 219.8594 52.4844 C219.8594 50.9531 218.875 50.1094 217.125 50 C218.5625 49.6094 219.1875 48.4531 219.1875 47.4844 C219.1875 46.0938 218.1562 45.3125 216.9062 45.3125 C215.2969 45.3125 214.2188 46.5469 214.2188 48.5156 L214.2031 54.9062 Z"
      /><rect x="285" y="94" width="6" style="fill:white; stroke:none;" height="10"
      /><path style="stroke:none;" d="M287.2344 95.6562 C287.5156 95.5938 287.7656 95.5625 288.0156 95.5625 C289.0625 95.5625 289.6719 96.1719 289.6719 97.2656 C289.6719 98.4375 288.9062 99.1094 287.7031 99.1094 L287.1875 99.1094 L287.1875 99.6406 L287.7969 99.6406 C289.2188 99.6406 289.9062 100.4219 289.9062 101.6406 C289.9062 102.8438 289.1719 103.6875 287.875 103.6875 C287.6094 103.6875 287.3125 103.6562 287.0156 103.5625 L286.7812 102.8125 C286.625 102.2812 286.5 102.0469 286.1406 102.0469 C285.8906 102.0469 285.7031 102.1719 285.5781 102.4219 C285.8438 103.6406 286.7812 104.1719 288.0312 104.1719 C289.7188 104.1719 290.875 103.125 290.875 101.7031 C290.875 100.5 290.2031 99.625 288.7969 99.375 C289.9531 99.0156 290.6094 98.2031 290.6094 97.2031 C290.6094 95.9219 289.6719 95.0781 288.1875 95.0781 C287.0469 95.0781 286.0625 95.5938 285.7969 96.6875 C285.9062 97 286.1094 97.1094 286.3594 97.1094 C286.7344 97.1094 286.8906 96.8906 287 96.4062 L287.2344 95.6562 Z"
      /><rect x="268" y="105" width="6" style="fill:white; stroke:none;" height="13"
      /><path style="stroke:none;" d="M270.0938 111.2031 C270.0938 109.6562 270.75 108.8125 271.7969 108.8125 C272.7188 108.8125 273.2656 109.4531 273.2656 110.5156 C273.2656 111.7188 272.5 112.4375 271.1875 112.7031 L271.2969 113.3125 C273.2188 113.2344 273.9375 114.2188 273.9375 115.4375 C273.9375 116.625 273.2344 117.4219 271.9531 117.4219 C271.25 117.4219 270.6562 117.1562 270.0938 116.7188 L270.0938 111.2031 ZM269.2031 117.9062 L269.1094 120.375 L269.2656 120.4844 L270.1562 120.2656 L270.0156 117.0938 C270.5469 117.8438 271.3594 118.1719 272.1719 118.1719 C273.5625 118.1719 274.8594 117.2188 274.8594 115.4844 C274.8594 113.9531 273.875 113.1094 272.125 113 C273.5625 112.6094 274.1875 111.4531 274.1875 110.4844 C274.1875 109.0938 273.1562 108.3125 271.9062 108.3125 C270.2969 108.3125 269.2188 109.5469 269.2188 111.5156 L269.2031 117.9062 Z"
      /><rect x="275" y="68" width="6" style="fill:white; stroke:none;" height="10"
      /><path style="stroke:none;" d="M278.3438 77.6875 C277.2031 77.6875 276.5312 76.5 276.5312 74.2969 C276.5312 74.2188 276.5312 74.125 276.5312 74.0469 C277.0938 73.5 277.7188 73.3125 278.3438 73.3125 C279.3125 73.3125 279.9531 73.9844 279.9531 75.4531 C279.9531 76.9375 279.3125 77.6875 278.3438 77.6875 ZM280.5312 69.0781 C277.3438 69.4531 275.5625 71.7656 275.5625 74.4531 C275.5625 76.7812 276.6094 78.1719 278.3125 78.1719 C279.8438 78.1719 280.9219 77.1094 280.9219 75.2812 C280.9219 73.6875 279.9688 72.6562 278.5625 72.6562 C277.8281 72.6562 277.1406 72.9844 276.5781 73.5781 C276.7969 71.4062 278.0781 69.9688 280.5938 69.3906 L280.5312 69.0781 Z"
      /><rect x="258" y="53" width="6" style="fill:white; stroke:none;" height="13"
      /><path style="stroke:none;" d="M260.0938 59.2031 C260.0938 57.6562 260.75 56.8125 261.7969 56.8125 C262.7188 56.8125 263.2656 57.4531 263.2656 58.5156 C263.2656 59.7188 262.5 60.4375 261.1875 60.7031 L261.2969 61.3125 C263.2188 61.2344 263.9375 62.2188 263.9375 63.4375 C263.9375 64.625 263.2344 65.4219 261.9531 65.4219 C261.25 65.4219 260.6562 65.1562 260.0938 64.7188 L260.0938 59.2031 ZM259.2031 65.9062 L259.1094 68.375 L259.2656 68.4844 L260.1562 68.2656 L260.0156 65.0938 C260.5469 65.8438 261.3594 66.1719 262.1719 66.1719 C263.5625 66.1719 264.8594 65.2188 264.8594 63.4844 C264.8594 61.9531 263.875 61.1094 262.125 61 C263.5625 60.6094 264.1875 59.4531 264.1875 58.4844 C264.1875 57.0938 263.1562 56.3125 261.9062 56.3125 C260.2969 56.3125 259.2188 57.5469 259.2188 59.5156 L259.2031 65.9062 Z"
      /><rect x="316" y="84" width="8" style="fill:white; stroke:none;" height="8"
      /><path style="stroke:none;" d="M320.9844 89.7031 C320.9375 90.8906 320.1562 91.6562 319.3125 91.6562 C318.2656 91.6562 317.5 90.6875 317.5 88.7188 C317.5 87.2812 318.1562 86.1562 319.3438 86.1562 C320.1406 86.1562 320.7812 86.6875 321.0938 87.6406 L320.9844 89.7031 ZM322.9062 91.2812 C322.7344 91.375 322.5469 91.4219 322.3438 91.4219 C321.9531 91.4219 321.75 91.2188 321.75 90.4219 C321.75 89.4844 321.9688 87.5312 322.1875 85.8281 L322.0312 85.7188 L321.2344 85.9219 L321.1406 86.7969 C320.7812 86.0312 320.1562 85.6562 319.3906 85.6562 C318.0469 85.6562 316.5625 86.8438 316.5625 88.9531 C316.5625 91.0938 317.7188 92.1719 319.1406 92.1719 C320.0156 92.1719 320.6875 91.8125 321.0938 90.9844 C321.2031 91.8594 321.5156 92.1719 322.0156 92.1719 C322.4688 92.1719 322.7969 91.9062 323.0156 91.5625 L322.9062 91.2812 Z"
    /></g
  ></g
></svg
>
