<?xml version="1.0"?>
<!DOCTYPE svg PUBLIC '-//W3C//DTD SVG 1.0//EN'
          'http://www.w3.org/TR/2001/REC-SVG-20010904/DTD/svg10.dtd'>
<svg xmlns:xlink="http://www.w3.org/1999/xlink" style="fill-opacity:1; color-rendering:auto; color-interpolation:auto; text-rendering:auto; stroke:black; stroke-linecap:square; stroke-miterlimit:10; shape-rendering:auto; stroke-opacity:1; fill:black; stroke-dasharray:none; font-weight:normal; stroke-width:1; font-family:'Dialog'; font-style:normal; stroke-linejoin:miter; font-size:12px; stroke-dashoffset:0; image-rendering:auto;" viewBox="0 0 238 105" xmlns="http://www.w3.org/2000/svg"
><!--Generated by the Batik Graphics2D SVG Generator--><defs id="genericDefs"
  /><g
  ><defs id="defs1"
    ><clipPath clipPathUnits="userSpaceOnUse" id="clipPath1"
      ><path d="M156 64 C156 70.0751 151.0751 75 145 75 C138.9249 75 134 70.0751 134 64 C134 57.9249 138.9249 53 145 53 C151.0751 53 156 57.9249 156 64 Z"
      /></clipPath
      ><clipPath clipPathUnits="userSpaceOnUse" id="clipPath2"
      ><path d="M82 53 L104 53 L104 75 L82 75 L82 53 Z"
      /></clipPath
      ><clipPath clipPathUnits="userSpaceOnUse" id="clipPath3"
      ><path d="M52 64 C52 70.0751 47.0751 75 41 75 C34.9249 75 30 70.0751 30 64 C30 57.9249 34.9249 53 41 53 C47.0751 53 52 57.9249 52 64 Z"
      /></clipPath
    ></defs
    ><g style="fill:white; text-rendering:optimizeSpeed; stroke:white;"
    ><rect x="0" width="238" height="105" y="0" style="stroke:none;"
      /><polygon style="fill:none; stroke:black;" points=" 197 64 145 64"
      /><path d="M197 53 C191.5 58.5 202.5 69.5 197 75" style="fill:none; stroke:black;"
      /><polygon style="fill:none; stroke:black;" points=" 145 64 93 64"
      /><circle style="clip-path:url(#clipPath1); stroke:none;" r="11" cx="145" cy="64"
      /><rect x="134" y="53" width="22" style="clip-path:url(#clipPath1); fill:rgb(255,212,0); stroke:none;" height="22"
      /><rect x="134" y="53" width="22" style="clip-path:url(#clipPath1); fill:none; stroke:black;" height="22"
      /><circle style="fill:none; stroke:black;" r="11" cx="145" cy="64"
      /><polygon style="fill:none; stroke:black;" points=" 93 64 41 64"
      /><rect x="82" y="53" width="22" style="clip-path:url(#clipPath2); stroke:none;" height="22"
      /><rect x="82" y="53" width="22" style="clip-path:url(#clipPath2); fill:rgb(0,144,188); stroke:none;" height="22"
      /><rect x="82" y="53" width="22" style="clip-path:url(#clipPath2); fill:none; stroke:black;" height="22"
      /><rect x="82" y="53" width="22" style="fill:none; stroke:black;" height="22"
      /><rect x="85" y="35" width="14" style="stroke:none;" height="10"
    /></g
    ><g style="text-rendering:optimizeSpeed; font-size:14px; font-family:'SansSerif';"
    ><path style="stroke:none;" d="M89.1094 40.5781 C90.3438 40.5781 90.9688 41.4688 90.9688 42.8438 C90.9688 44.25 90.1875 45.1875 89.2188 45.1875 C87.9219 45.1875 87.1562 44.0312 87 41.8906 C87.625 40.9531 88.4531 40.5781 89.1094 40.5781 ZM89.2188 46.1875 C90.8125 46.1875 92.1562 44.8438 92.1562 42.8438 C92.1562 40.7031 91.0469 39.625 89.3125 39.625 C88.5 39.625 87.6094 40.1094 86.9688 40.875 C87.0312 37.6875 88.2188 36.6094 89.625 36.6094 C90.25 36.6094 90.8594 36.9062 91.2656 37.3906 L91.9688 36.5938 C91.4062 35.9844 90.6406 35.5469 89.5781 35.5469 C87.5938 35.5469 85.7812 37.0781 85.7812 41.0938 C85.7812 44.4844 87.2344 46.1875 89.2188 46.1875 ZM97.02 46.1875 C99.1606 46.1875 100.5043 44.8906 100.5043 43.2656 C100.5043 41.75 99.5825 41.0469 98.395 40.5312 L96.9262 39.8906 C96.1293 39.5625 95.2387 39.1875 95.2387 38.1875 C95.2387 37.2656 95.9887 36.6719 97.145 36.6719 C98.0981 36.6719 98.8637 37.0469 99.4887 37.6406 L100.1762 36.8125 C99.4418 36.0625 98.3637 35.5469 97.145 35.5469 C95.2856 35.5469 93.9106 36.6875 93.9106 38.2656 C93.9106 39.7656 95.0512 40.5 96.0043 40.9062 L97.4887 41.5469 C98.4575 41.9844 99.1918 42.3125 99.1918 43.375 C99.1918 44.375 98.3793 45.0469 97.0356 45.0469 C95.9731 45.0469 94.9418 44.5469 94.2075 43.7812 L93.4262 44.6562 C94.3168 45.5938 95.5668 46.1875 97.02 46.1875 Z"
    /></g
    ><g style="fill:white; text-rendering:optimizeSpeed; stroke:white;"
    ><circle r="11" style="clip-path:url(#clipPath3); stroke:none;" cx="41" cy="64"
      /><rect x="30" y="53" width="22" style="clip-path:url(#clipPath3); fill:rgb(255,212,0); stroke:none;" height="22"
      /><rect x="30" y="53" width="22" style="clip-path:url(#clipPath3); fill:none; stroke:black;" height="22"
      /><circle r="11" style="fill:none; stroke:black;" cx="41" cy="64"
      /><rect x="33" width="14" height="10" y="35" style="stroke:none;"
    /></g
    ><g style="text-rendering:optimizeSpeed; font-size:14px; font-family:'SansSerif';"
    ><path style="stroke:none;" d="M37.1094 40.5781 C38.3438 40.5781 38.9688 41.4688 38.9688 42.8438 C38.9688 44.25 38.1875 45.1875 37.2188 45.1875 C35.9219 45.1875 35.1562 44.0312 35 41.8906 C35.625 40.9531 36.4531 40.5781 37.1094 40.5781 ZM37.2188 46.1875 C38.8125 46.1875 40.1562 44.8438 40.1562 42.8438 C40.1562 40.7031 39.0469 39.625 37.3125 39.625 C36.5 39.625 35.6094 40.1094 34.9688 40.875 C35.0312 37.6875 36.2188 36.6094 37.625 36.6094 C38.25 36.6094 38.8594 36.9062 39.2656 37.3906 L39.9688 36.5938 C39.4062 35.9844 38.6406 35.5469 37.5781 35.5469 C35.5938 35.5469 33.7812 37.0781 33.7812 41.0938 C33.7812 44.4844 35.2344 46.1875 37.2188 46.1875 ZM45.02 46.1875 C47.1606 46.1875 48.5043 44.8906 48.5043 43.2656 C48.5043 41.75 47.5825 41.0469 46.395 40.5312 L44.9262 39.8906 C44.1293 39.5625 43.2387 39.1875 43.2387 38.1875 C43.2387 37.2656 43.9887 36.6719 45.145 36.6719 C46.0981 36.6719 46.8637 37.0469 47.4887 37.6406 L48.1762 36.8125 C47.4418 36.0625 46.3637 35.5469 45.145 35.5469 C43.2856 35.5469 41.9106 36.6875 41.9106 38.2656 C41.9106 39.7656 43.0512 40.5 44.0043 40.9062 L45.4887 41.5469 C46.4575 41.9844 47.1918 42.3125 47.1918 43.375 C47.1918 44.375 46.3793 45.0469 45.0356 45.0469 C43.9731 45.0469 42.9418 44.5469 42.2075 43.7812 L41.4262 44.6562 C42.3168 45.5938 43.5668 46.1875 45.02 46.1875 Z"
    /></g
    ><g style="fill:white; text-rendering:optimizeSpeed; font-family:'Serif'; stroke:white;"
    ><rect x="71" width="5" height="10" y="67" style="stroke:none;"
      /><path d="M72.8906 75.6875 C72.4844 75.6875 72.1562 76.0469 72.1562 76.4219 C72.1562 76.8125 72.4844 77.1562 72.8906 77.1562 C73.2969 77.1562 73.6406 76.8125 73.6406 76.4219 C73.6406 76.0469 73.2969 75.6875 72.8906 75.6875 ZM74.4688 69.5781 C74.7188 69.8906 74.875 70.2656 74.8906 70.6562 C74.8906 71.1875 74.625 71.5 74.0312 71.7656 L73.4062 72.0156 C72.6406 72.3125 72.3906 72.5469 72.3906 72.9375 C72.3906 73.1094 72.4531 73.3438 72.5781 73.8125 L72.7344 74.3438 L73.1094 74.3438 L73.0938 73.5312 C73.0938 73.0938 73.2031 72.9688 73.7812 72.7344 L74.2031 72.5625 C75.0312 72.2188 75.4531 71.6875 75.4531 70.8438 C75.4531 69.1562 73.6562 68.1875 72.5 68.0312 C72.1094 68.125 71.9062 68.2969 71.9062 68.6406 C71.9062 68.9375 72.0625 69.1562 72.7188 69.2656 L74.4688 69.5781 Z" style="fill:black; stroke:none;"
      /><rect x="57" width="5" height="10" y="67" style="stroke:none;"
      /><path d="M58.8906 75.6875 C58.4844 75.6875 58.1562 76.0469 58.1562 76.4219 C58.1562 76.8125 58.4844 77.1562 58.8906 77.1562 C59.2969 77.1562 59.6406 76.8125 59.6406 76.4219 C59.6406 76.0469 59.2969 75.6875 58.8906 75.6875 ZM60.4688 69.5781 C60.7188 69.8906 60.875 70.2656 60.8906 70.6562 C60.8906 71.1875 60.625 71.5 60.0312 71.7656 L59.4062 72.0156 C58.6406 72.3125 58.3906 72.5469 58.3906 72.9375 C58.3906 73.1094 58.4531 73.3438 58.5781 73.8125 L58.7344 74.3438 L59.1094 74.3438 L59.0938 73.5312 C59.0938 73.0938 59.2031 72.9688 59.7812 72.7344 L60.2031 72.5625 C61.0312 72.2188 61.4531 71.6875 61.4531 70.8438 C61.4531 69.1562 59.6562 68.1875 58.5 68.0312 C58.1094 68.125 57.9062 68.2969 57.9062 68.6406 C57.9062 68.9375 58.0625 69.1562 58.7188 69.2656 L60.4688 69.5781 Z" style="fill:black; stroke:none;"
      /><rect x="123" width="5" height="10" y="67" style="stroke:none;"
      /><path d="M124.8906 75.6875 C124.4844 75.6875 124.1562 76.0469 124.1562 76.4219 C124.1562 76.8125 124.4844 77.1562 124.8906 77.1562 C125.2969 77.1562 125.6406 76.8125 125.6406 76.4219 C125.6406 76.0469 125.2969 75.6875 124.8906 75.6875 ZM126.4688 69.5781 C126.7188 69.8906 126.875 70.2656 126.8906 70.6562 C126.8906 71.1875 126.625 71.5 126.0312 71.7656 L125.4062 72.0156 C124.6406 72.3125 124.3906 72.5469 124.3906 72.9375 C124.3906 73.1094 124.4531 73.3438 124.5781 73.8125 L124.7344 74.3438 L125.1094 74.3438 L125.0938 73.5312 C125.0938 73.0938 125.2031 72.9688 125.7812 72.7344 L126.2031 72.5625 C127.0312 72.2188 127.4531 71.6875 127.4531 70.8438 C127.4531 69.1562 125.6562 68.1875 124.5 68.0312 C124.1094 68.125 123.9062 68.2969 123.9062 68.6406 C123.9062 68.9375 124.0625 69.1562 124.7188 69.2656 L126.4688 69.5781 Z" style="fill:black; stroke:none;"
      /><rect x="109" width="5" height="10" y="67" style="stroke:none;"
      /><path d="M110.8906 75.6875 C110.4844 75.6875 110.1562 76.0469 110.1562 76.4219 C110.1562 76.8125 110.4844 77.1562 110.8906 77.1562 C111.2969 77.1562 111.6406 76.8125 111.6406 76.4219 C111.6406 76.0469 111.2969 75.6875 110.8906 75.6875 ZM112.4688 69.5781 C112.7188 69.8906 112.875 70.2656 112.8906 70.6562 C112.8906 71.1875 112.625 71.5 112.0312 71.7656 L111.4062 72.0156 C110.6406 72.3125 110.3906 72.5469 110.3906 72.9375 C110.3906 73.1094 110.4531 73.3438 110.5781 73.8125 L110.7344 74.3438 L111.1094 74.3438 L111.0938 73.5312 C111.0938 73.0938 111.2031 72.9688 111.7812 72.7344 L112.2031 72.5625 C113.0312 72.2188 113.4531 71.6875 113.4531 70.8438 C113.4531 69.1562 111.6562 68.1875 110.5 68.0312 C110.1094 68.125 109.9062 68.2969 109.9062 68.6406 C109.9062 68.9375 110.0625 69.1562 110.7188 69.2656 L112.4688 69.5781 Z" style="fill:black; stroke:none;"
      /><rect x="161" width="5" height="10" y="67" style="stroke:none;"
      /><path d="M162.8906 75.6875 C162.4844 75.6875 162.1562 76.0469 162.1562 76.4219 C162.1562 76.8125 162.4844 77.1562 162.8906 77.1562 C163.2969 77.1562 163.6406 76.8125 163.6406 76.4219 C163.6406 76.0469 163.2969 75.6875 162.8906 75.6875 ZM164.4688 69.5781 C164.7188 69.8906 164.875 70.2656 164.8906 70.6562 C164.8906 71.1875 164.625 71.5 164.0312 71.7656 L163.4062 72.0156 C162.6406 72.3125 162.3906 72.5469 162.3906 72.9375 C162.3906 73.1094 162.4531 73.3438 162.5781 73.8125 L162.7344 74.3438 L163.1094 74.3438 L163.0938 73.5312 C163.0938 73.0938 163.2031 72.9688 163.7812 72.7344 L164.2031 72.5625 C165.0312 72.2188 165.4531 71.6875 165.4531 70.8438 C165.4531 69.1562 163.6562 68.1875 162.5 68.0312 C162.1094 68.125 161.9062 68.2969 161.9062 68.6406 C161.9062 68.9375 162.0625 69.1562 162.7188 69.2656 L164.4688 69.5781 Z" style="fill:black; stroke:none;"
    /></g
  ></g
></svg
>
