<?xml version="1.0"?>
<!DOCTYPE svg PUBLIC '-//W3C//DTD SVG 1.0//EN'
          'http://www.w3.org/TR/2001/REC-SVG-20010904/DTD/svg10.dtd'>
<svg xmlns:xlink="http://www.w3.org/1999/xlink" style="fill-opacity:1; color-rendering:auto; color-interpolation:auto; text-rendering:auto; stroke:black; stroke-linecap:square; stroke-miterlimit:10; shape-rendering:auto; stroke-opacity:1; fill:black; stroke-dasharray:none; font-weight:normal; stroke-width:1; font-family:'Dialog'; font-style:normal; stroke-linejoin:miter; font-size:12px; stroke-dashoffset:0; image-rendering:auto;" viewBox="0 0 157 365" xmlns="http://www.w3.org/2000/svg"
><!--Generated by the Batik Graphics2D SVG Generator--><defs id="genericDefs"
  /><g
  ><defs id="defs1"
    ><clipPath clipPathUnits="userSpaceOnUse" id="clipPath1"
      ><path d="M54 313 L76 313 L76 335 L54 335 L54 313 Z"
      /></clipPath
      ><clipPath clipPathUnits="userSpaceOnUse" id="clipPath2"
      ><path d="M76 272 C76 278.0751 71.0751 283 65 283 C58.9249 283 54 278.0751 54 272 C54 265.9249 58.9249 261 65 261 C71.0751 261 76 265.9249 76 272 Z"
      /></clipPath
      ><clipPath clipPathUnits="userSpaceOnUse" id="clipPath3"
      ><path style="fill-rule:evenodd;" d="M65 209 L75 216 L71 228 L58 228 L54 216 L65 209 Z"
      /></clipPath
      ><clipPath clipPathUnits="userSpaceOnUse" id="clipPath4"
      ><path style="fill-rule:evenodd;" d="M65 134 L76 145 L65 156 L54 145 Z"
      /></clipPath
      ><clipPath clipPathUnits="userSpaceOnUse" id="clipPath5"
      ><path style="fill-rule:evenodd;" d="M65 82 L67 89 L75 89 L68 94 L71 101 L65 97 L58 101 L61 94 L54 89 L62 89 L65 82 Z"
      /></clipPath
    ></defs
    ><g style="fill:white; text-rendering:optimizeSpeed; stroke:white;"
    ><rect x="0" width="157" height="365" y="0" style="stroke:none;"
      /><rect x="54" y="313" width="22" style="clip-path:url(#clipPath1); stroke:none;" height="22"
      /><rect x="54" y="313" width="22" style="clip-path:url(#clipPath1); fill:rgb(255,212,0); stroke:none;" height="22"
      /><rect x="54" y="313" width="22" style="clip-path:url(#clipPath1); fill:none; stroke:black;" height="22"
      /><rect x="54" y="313" width="22" style="fill:none; stroke:black;" height="22"
      /><rect x="81" y="311" width="5" style="stroke:none;" height="10"
    /></g
    ><g style="font-family:'Serif'; text-rendering:optimizeSpeed; "
    ><path style="stroke:none;" d="M82.8906 319.6875 C82.4844 319.6875 82.1562 320.0469 82.1562 320.4219 C82.1562 320.8125 82.4844 321.1562 82.8906 321.1562 C83.2969 321.1562 83.6406 320.8125 83.6406 320.4219 C83.6406 320.0469 83.2969 319.6875 82.8906 319.6875 ZM84.4688 313.5781 C84.7188 313.8906 84.875 314.2656 84.8906 314.6562 C84.8906 315.1875 84.625 315.5 84.0312 315.7656 L83.4062 316.0156 C82.6406 316.3125 82.3906 316.5469 82.3906 316.9375 C82.3906 317.1094 82.4531 317.3438 82.5781 317.8125 L82.7344 318.3438 L83.1094 318.3438 L83.0938 317.5312 C83.0938 317.0938 83.2031 316.9688 83.7812 316.7344 L84.2031 316.5625 C85.0312 316.2188 85.4531 315.6875 85.4531 314.8438 C85.4531 313.1562 83.6562 312.1875 82.5 312.0312 C82.1094 312.125 81.9062 312.2969 81.9062 312.6406 C81.9062 312.9375 82.0625 313.1562 82.7188 313.2656 L84.4688 313.5781 Z"
      /><rect x="81" y="327" width="5" style="fill:white; stroke:none;" height="10"
      /><path style="stroke:none;" d="M82.8906 335.6875 C82.4844 335.6875 82.1562 336.0469 82.1562 336.4219 C82.1562 336.8125 82.4844 337.1562 82.8906 337.1562 C83.2969 337.1562 83.6406 336.8125 83.6406 336.4219 C83.6406 336.0469 83.2969 335.6875 82.8906 335.6875 ZM84.4688 329.5781 C84.7188 329.8906 84.875 330.2656 84.8906 330.6562 C84.8906 331.1875 84.625 331.5 84.0312 331.7656 L83.4062 332.0156 C82.6406 332.3125 82.3906 332.5469 82.3906 332.9375 C82.3906 333.1094 82.4531 333.3438 82.5781 333.8125 L82.7344 334.3438 L83.1094 334.3438 L83.0938 333.5312 C83.0938 333.0938 83.2031 332.9688 83.7812 332.7344 L84.2031 332.5625 C85.0312 332.2188 85.4531 331.6875 85.4531 330.8438 C85.4531 329.1562 83.6562 328.1875 82.5 328.0312 C82.1094 328.125 81.9062 328.2969 81.9062 328.6406 C81.9062 328.9375 82.0625 329.1562 82.7188 329.2656 L84.4688 329.5781 Z"
      /><circle style="fill:white; clip-path:url(#clipPath2); stroke:none;" r="11" cx="65" cy="272"
      /><rect x="54" y="261" width="22" style="clip-path:url(#clipPath2); fill:rgb(255,212,0); stroke:none;" height="22"
      /><rect x="54" y="261" width="22" style="fill:none; clip-path:url(#clipPath2);" height="22"
      /><circle r="11" style="fill:none;" cx="65" cy="272"
      /><rect x="81" y="259" width="5" style="fill:white; stroke:none;" height="10"
      /><path style="stroke:none;" d="M82.8906 267.6875 C82.4844 267.6875 82.1562 268.0469 82.1562 268.4219 C82.1562 268.8125 82.4844 269.1562 82.8906 269.1562 C83.2969 269.1562 83.6406 268.8125 83.6406 268.4219 C83.6406 268.0469 83.2969 267.6875 82.8906 267.6875 ZM84.4688 261.5781 C84.7188 261.8906 84.875 262.2656 84.8906 262.6562 C84.8906 263.1875 84.625 263.5 84.0312 263.7656 L83.4062 264.0156 C82.6406 264.3125 82.3906 264.5469 82.3906 264.9375 C82.3906 265.1094 82.4531 265.3438 82.5781 265.8125 L82.7344 266.3438 L83.1094 266.3438 L83.0938 265.5312 C83.0938 265.0938 83.2031 264.9688 83.7812 264.7344 L84.2031 264.5625 C85.0312 264.2188 85.4531 263.6875 85.4531 262.8438 C85.4531 261.1562 83.6562 260.1875 82.5 260.0312 C82.1094 260.125 81.9062 260.2969 81.9062 260.6406 C81.9062 260.9375 82.0625 261.1562 82.7188 261.2656 L84.4688 261.5781 Z"
      /><rect x="81" y="275" width="5" style="fill:white; stroke:none;" height="10"
      /><path style="stroke:none;" d="M82.8906 283.6875 C82.4844 283.6875 82.1562 284.0469 82.1562 284.4219 C82.1562 284.8125 82.4844 285.1562 82.8906 285.1562 C83.2969 285.1562 83.6406 284.8125 83.6406 284.4219 C83.6406 284.0469 83.2969 283.6875 82.8906 283.6875 ZM84.4688 277.5781 C84.7188 277.8906 84.875 278.2656 84.8906 278.6562 C84.8906 279.1875 84.625 279.5 84.0312 279.7656 L83.4062 280.0156 C82.6406 280.3125 82.3906 280.5469 82.3906 280.9375 C82.3906 281.1094 82.4531 281.3438 82.5781 281.8125 L82.7344 282.3438 L83.1094 282.3438 L83.0938 281.5312 C83.0938 281.0938 83.2031 280.9688 83.7812 280.7344 L84.2031 280.5625 C85.0312 280.2188 85.4531 279.6875 85.4531 278.8438 C85.4531 277.1562 83.6562 276.1875 82.5 276.0312 C82.1094 276.125 81.9062 276.2969 81.9062 276.6406 C81.9062 276.9375 82.0625 277.1562 82.7188 277.2656 L84.4688 277.5781 Z"
      /><path style="stroke:none;" d="M36.6094 277 L43.0625 277 L43.0625 275.8906 L40.2344 275.8906 C39.7031 275.8906 39.0781 275.9531 38.5469 275.9844 C40.9531 273.7031 42.5625 271.625 42.5625 269.5781 C42.5625 267.75 41.4219 266.5469 39.5781 266.5469 C38.2812 266.5469 37.4062 267.1406 36.5625 268.0469 L37.2969 268.7812 C37.8594 268.1094 38.5938 267.5938 39.4375 267.5938 C40.7031 267.5938 41.3125 268.4531 41.3125 269.625 C41.3125 271.3906 39.8438 273.4375 36.6094 276.25 L36.6094 277 ZM43.9731 277 L45.3168 277 L46.3481 275.2188 C46.6137 274.7656 46.8637 274.2969 47.1293 273.8594 L47.2075 273.8594 C47.4731 274.2969 47.7543 274.7656 48.0043 275.2188 L49.1293 277 L50.5356 277 L48.02 273.1562 L50.3325 269.3906 L49.0043 269.3906 L48.0668 271.0625 C47.8481 271.5 47.6137 271.9219 47.3793 272.3438 L47.3325 272.3438 C47.0668 271.9219 46.8012 271.5 46.5668 271.0625 L45.5512 269.3906 L44.1762 269.3906 L46.4887 273.0312 L43.9731 277 Z"
    /></g
    ><g style="fill:white; text-rendering:optimizeSpeed; font-size:14px; font-family:'SansSerif'; stroke:white;"
    ><polygon style="stroke:none; clip-path:url(#clipPath3);" points=" 65 209 75 216 71 228 58 228 54 216 65 209"
      /><rect x="54" y="209" width="22" style="clip-path:url(#clipPath3); stroke:none;" height="22"
      /><rect x="54" y="209" width="22" style="clip-path:url(#clipPath3); fill:none; stroke:black;" height="22"
      /><polygon style="fill:none; stroke:black;" points=" 65 209 75 216 71 228 58 228 54 216 65 209"
      /><path d="M63.2344 225 L68.8594 225 L68.8594 223.9375 L66.7969 223.9375 L66.7969 214.7188 L65.8281 214.7188 C65.2656 215.0625 64.6094 215.2969 63.6875 215.4688 L63.6875 216.2812 L65.5156 216.2812 L65.5156 223.9375 L63.2344 223.9375 L63.2344 225 Z" style="fill:black; stroke:none;"
      /><rect x="47" width="34" height="12" y="190" style="stroke:none;"
      /><path d="M50.6562 203.1875 C52.3906 203.1875 54.0156 201.9062 54.0156 199.6562 C54.0156 197.4062 52.625 196.3906 50.9219 196.3906 C50.2969 196.3906 49.8594 196.5469 49.3906 196.7969 L49.6406 193.8281 L53.5312 193.8281 L53.5312 192.7188 L48.5312 192.7188 L48.2031 197.5469 L48.8906 197.9531 C49.4844 197.5625 49.9062 197.3594 50.5938 197.3594 C51.8906 197.3594 52.7188 198.2188 52.7188 199.7031 C52.7188 201.1875 51.75 202.125 50.5469 202.125 C49.3594 202.125 48.6094 201.5781 48.0156 200.9844 L47.3906 201.8281 C48.0781 202.5156 49.0625 203.1875 50.6562 203.1875 ZM55.8168 205.6562 C57.0825 205.125 57.8637 204.0781 57.8637 202.7344 C57.8637 201.7969 57.4575 201.2188 56.7856 201.2188 C56.27 201.2188 55.8168 201.5781 55.8168 202.125 C55.8168 202.7031 56.27 203.0156 56.7543 203.0156 C56.8168 203.0156 56.8637 203.0156 56.9106 203 C56.9106 203.8281 56.395 204.5156 55.5043 204.9062 L55.8168 205.6562 ZM60.2713 199.1562 L62.6151 195.6562 C62.8963 195.1406 63.1776 194.6406 63.4432 194.1406 L63.4901 194.1406 C63.4588 194.6719 63.4276 195.5 63.4276 196 L63.4276 199.1562 L60.2713 199.1562 ZM63.4276 203 L64.6307 203 L64.6307 200.1719 L65.9901 200.1719 L65.9901 199.1562 L64.6307 199.1562 L64.6307 192.7188 L63.2088 192.7188 L58.9432 199.3281 L58.9432 200.1719 L63.4276 200.1719 L63.4276 203 ZM70.7913 203.1875 C71.8226 203.1875 72.6351 202.8281 73.3069 202.3906 L72.8382 201.5625 C72.2913 201.9375 71.6819 202.1562 70.9476 202.1562 C69.4944 202.1562 68.5101 201.125 68.4163 199.5 L73.5413 199.5 C73.5726 199.3125 73.6038 199.0469 73.6038 198.7656 C73.6038 196.6094 72.5101 195.2031 70.5726 195.2031 C68.8069 195.2031 67.1507 196.7344 67.1507 199.2031 C67.1507 201.7188 68.7757 203.1875 70.7913 203.1875 ZM68.4007 198.5781 C68.5569 197.0938 69.5101 196.2188 70.5882 196.2188 C71.7757 196.2188 72.4788 197.0469 72.4788 198.5781 L68.4007 198.5781 ZM75.4691 203 L76.7504 203 L76.7504 197.4844 C77.516 196.7188 78.0473 196.3281 78.8285 196.3281 C79.8441 196.3281 80.2816 196.9219 80.2816 198.3594 L80.2816 203 L81.5473 203 L81.5473 198.1875 C81.5473 196.2344 80.8285 195.2031 79.2348 195.2031 C78.1879 195.2031 77.4066 195.7812 76.6723 196.4844 L76.641 196.4844 L76.5316 195.3906 L75.4691 195.3906 L75.4691 203 Z" style="fill:black; stroke:none;"
      /><rect x="88" width="5" height="10" y="207" style="stroke:none;"
    /></g
    ><g style="font-family:'Serif'; text-rendering:optimizeSpeed; "
    ><path style="stroke:none;" d="M89.8906 215.6875 C89.4844 215.6875 89.1562 216.0469 89.1562 216.4219 C89.1562 216.8125 89.4844 217.1562 89.8906 217.1562 C90.2969 217.1562 90.6406 216.8125 90.6406 216.4219 C90.6406 216.0469 90.2969 215.6875 89.8906 215.6875 ZM91.4688 209.5781 C91.7188 209.8906 91.875 210.2656 91.8906 210.6562 C91.8906 211.1875 91.625 211.5 91.0312 211.7656 L90.4062 212.0156 C89.6406 212.3125 89.3906 212.5469 89.3906 212.9375 C89.3906 213.1094 89.4531 213.3438 89.5781 213.8125 L89.7344 214.3438 L90.1094 214.3438 L90.0938 213.5312 C90.0938 213.0938 90.2031 212.9688 90.7812 212.7344 L91.2031 212.5625 C92.0312 212.2188 92.4531 211.6875 92.4531 210.8438 C92.4531 209.1562 90.6562 208.1875 89.5 208.0312 C89.1094 208.125 88.9062 208.2969 88.9062 208.6406 C88.9062 208.9375 89.0625 209.1562 89.7188 209.2656 L91.4688 209.5781 Z"
      /><rect x="88" y="223" width="5" style="fill:white; stroke:none;" height="10"
      /><path style="stroke:none;" d="M89.8906 231.6875 C89.4844 231.6875 89.1562 232.0469 89.1562 232.4219 C89.1562 232.8125 89.4844 233.1562 89.8906 233.1562 C90.2969 233.1562 90.6406 232.8125 90.6406 232.4219 C90.6406 232.0469 90.2969 231.6875 89.8906 231.6875 ZM91.4688 225.5781 C91.7188 225.8906 91.875 226.2656 91.8906 226.6562 C91.8906 227.1875 91.625 227.5 91.0312 227.7656 L90.4062 228.0156 C89.6406 228.3125 89.3906 228.5469 89.3906 228.9375 C89.3906 229.1094 89.4531 229.3438 89.5781 229.8125 L89.7344 230.3438 L90.1094 230.3438 L90.0938 229.5312 C90.0938 229.0938 90.2031 228.9688 90.7812 228.7344 L91.2031 228.5625 C92.0312 228.2188 92.4531 227.6875 92.4531 226.8438 C92.4531 225.1562 90.6562 224.1875 89.5 224.0312 C89.1094 224.125 88.9062 224.2969 88.9062 224.6406 C88.9062 224.9375 89.0625 225.1562 89.7188 225.2656 L91.4688 225.5781 Z"
    /></g
    ><g style="fill:white; text-rendering:optimizeSpeed; font-size:14px; font-family:'SansSerif'; stroke:white;"
    ><polygon style="stroke:none; clip-path:url(#clipPath4);" points=" 65 134 76 145 65 156 54 145"
      /><rect x="54" y="145" width="22" style="clip-path:url(#clipPath4); fill:rgb(161,122,77); stroke:none;" height="11"
      /><rect x="54" y="145" width="22" style="clip-path:url(#clipPath4); fill:none; stroke:black;" height="11"
      /><polygon style="fill:none; stroke:black;" points=" 65 134 76 145 65 156 54 145"
      /><path d="M63 148 L64.875 148 C67.0938 148 68.2969 146.625 68.2969 144.3125 C68.2969 141.9844 67.0938 140.6562 64.8438 140.6562 L63 140.6562 L63 148 ZM63.9375 147.2344 L63.9375 141.4219 L64.7656 141.4219 C66.4844 141.4219 67.3438 142.4531 67.3438 144.3125 C67.3438 146.1562 66.4844 147.2344 64.7656 147.2344 L63.9375 147.2344 Z" style="fill:black; stroke:none;"
      /><rect x="81" width="5" height="10" y="132" style="stroke:none;"
    /></g
    ><g style="font-family:'Serif'; text-rendering:optimizeSpeed; "
    ><path style="stroke:none;" d="M82.8906 140.6875 C82.4844 140.6875 82.1562 141.0469 82.1562 141.4219 C82.1562 141.8125 82.4844 142.1562 82.8906 142.1562 C83.2969 142.1562 83.6406 141.8125 83.6406 141.4219 C83.6406 141.0469 83.2969 140.6875 82.8906 140.6875 ZM84.4688 134.5781 C84.7188 134.8906 84.875 135.2656 84.8906 135.6562 C84.8906 136.1875 84.625 136.5 84.0312 136.7656 L83.4062 137.0156 C82.6406 137.3125 82.3906 137.5469 82.3906 137.9375 C82.3906 138.1094 82.4531 138.3438 82.5781 138.8125 L82.7344 139.3438 L83.1094 139.3438 L83.0938 138.5312 C83.0938 138.0938 83.2031 137.9688 83.7812 137.7344 L84.2031 137.5625 C85.0312 137.2188 85.4531 136.6875 85.4531 135.8438 C85.4531 134.1562 83.6562 133.1875 82.5 133.0312 C82.1094 133.125 81.9062 133.2969 81.9062 133.6406 C81.9062 133.9375 82.0625 134.1562 82.7188 134.2656 L84.4688 134.5781 Z"
      /><rect x="81" y="148" width="5" style="fill:white; stroke:none;" height="10"
      /><path style="stroke:none;" d="M82.8906 156.6875 C82.4844 156.6875 82.1562 157.0469 82.1562 157.4219 C82.1562 157.8125 82.4844 158.1562 82.8906 158.1562 C83.2969 158.1562 83.6406 157.8125 83.6406 157.4219 C83.6406 157.0469 83.2969 156.6875 82.8906 156.6875 ZM84.4688 150.5781 C84.7188 150.8906 84.875 151.2656 84.8906 151.6562 C84.8906 152.1875 84.625 152.5 84.0312 152.7656 L83.4062 153.0156 C82.6406 153.3125 82.3906 153.5469 82.3906 153.9375 C82.3906 154.1094 82.4531 154.3438 82.5781 154.8125 L82.7344 155.3438 L83.1094 155.3438 L83.0938 154.5312 C83.0938 154.0938 83.2031 153.9688 83.7812 153.7344 L84.2031 153.5625 C85.0312 153.2188 85.4531 152.6875 85.4531 151.8438 C85.4531 150.1562 83.6562 149.1875 82.5 149.0312 C82.1094 149.125 81.9062 149.2969 81.9062 149.6406 C81.9062 149.9375 82.0625 150.1562 82.7188 150.2656 L84.4688 150.5781 Z"
    /></g
    ><g style="fill:white; text-rendering:optimizeSpeed; font-size:14px; font-family:'SansSerif'; stroke:white;"
    ><polygon style="stroke:none; clip-path:url(#clipPath5);" points=" 65 82 67 89 75 89 68 94 71 101 65 97 58 101 61 94 54 89 62 89 65 82"
      /><rect x="54" y="82" width="22" style="clip-path:url(#clipPath5); fill:rgb(244,121,32); stroke:none;" height="22"
      /><rect x="54" y="82" width="22" style="clip-path:url(#clipPath5); fill:none; stroke:black;" height="22"
      /><polygon style="fill:none; stroke:black;" points=" 65 82 67 89 75 89 68 94 71 101 65 97 58 101 61 94 54 89 62 89 65 82"
      /><rect x="81" width="5" height="10" y="80" style="stroke:none;"
    /></g
    ><g style="font-family:'Serif'; text-rendering:optimizeSpeed; "
    ><path style="stroke:none;" d="M82.8906 88.6875 C82.4844 88.6875 82.1562 89.0469 82.1562 89.4219 C82.1562 89.8125 82.4844 90.1562 82.8906 90.1562 C83.2969 90.1562 83.6406 89.8125 83.6406 89.4219 C83.6406 89.0469 83.2969 88.6875 82.8906 88.6875 ZM84.4688 82.5781 C84.7188 82.8906 84.875 83.2656 84.8906 83.6562 C84.8906 84.1875 84.625 84.5 84.0312 84.7656 L83.4062 85.0156 C82.6406 85.3125 82.3906 85.5469 82.3906 85.9375 C82.3906 86.1094 82.4531 86.3438 82.5781 86.8125 L82.7344 87.3438 L83.1094 87.3438 L83.0938 86.5312 C83.0938 86.0938 83.2031 85.9688 83.7812 85.7344 L84.2031 85.5625 C85.0312 85.2188 85.4531 84.6875 85.4531 83.8438 C85.4531 82.1562 83.6562 81.1875 82.5 81.0312 C82.1094 81.125 81.9062 81.2969 81.9062 81.6406 C81.9062 81.9375 82.0625 82.1562 82.7188 82.2656 L84.4688 82.5781 Z"
      /><rect x="81" y="96" width="5" style="fill:white; stroke:none;" height="10"
      /><path style="stroke:none;" d="M82.8906 104.6875 C82.4844 104.6875 82.1562 105.0469 82.1562 105.4219 C82.1562 105.8125 82.4844 106.1562 82.8906 106.1562 C83.2969 106.1562 83.6406 105.8125 83.6406 105.4219 C83.6406 105.0469 83.2969 104.6875 82.8906 104.6875 ZM84.4688 98.5781 C84.7188 98.8906 84.875 99.2656 84.8906 99.6562 C84.8906 100.1875 84.625 100.5 84.0312 100.7656 L83.4062 101.0156 C82.6406 101.3125 82.3906 101.5469 82.3906 101.9375 C82.3906 102.1094 82.4531 102.3438 82.5781 102.8125 L82.7344 103.3438 L83.1094 103.3438 L83.0938 102.5312 C83.0938 102.0938 83.2031 101.9688 83.7812 101.7344 L84.2031 101.5625 C85.0312 101.2188 85.4531 100.6875 85.4531 99.8438 C85.4531 98.1562 83.6562 97.1875 82.5 97.0312 C82.1094 97.125 81.9062 97.2969 81.9062 97.6406 C81.9062 97.9375 82.0625 98.1562 82.7188 98.2656 L84.4688 98.5781 Z"
    /></g
    ><g style="fill:white; text-rendering:optimizeSpeed; font-size:14px; font-family:'SansSerif'; stroke:white;"
    ><rect x="58" width="13" height="10" y="35" style="stroke:none;"
      /><path d="M60.4844 42.9062 L61.625 42.9062 C61.375 40.7031 63.8906 39.875 63.8906 37.8281 C63.8906 36.2969 62.8594 35.3281 61.2812 35.3281 C60.1406 35.3281 59.25 35.875 58.6094 36.625 L59.3281 37.2969 C59.8125 36.7344 60.4375 36.3906 61.1406 36.3906 C62.125 36.3906 62.6406 37.0625 62.6406 37.9062 C62.6406 39.5781 60.1719 40.4688 60.4844 42.9062 ZM61.0938 46.1875 C61.6094 46.1875 62.0312 45.7969 62.0312 45.2188 C62.0312 44.625 61.6094 44.2188 61.0938 44.2188 C60.5938 44.2188 60.1719 44.625 60.1719 45.2188 C60.1719 45.7969 60.5938 46.1875 61.0938 46.1875 ZM68.886 46.1875 C71.0266 46.1875 72.3703 44.8906 72.3703 43.2656 C72.3703 41.75 71.4485 41.0469 70.261 40.5312 L68.7922 39.8906 C67.9953 39.5625 67.1047 39.1875 67.1047 38.1875 C67.1047 37.2656 67.8547 36.6719 69.011 36.6719 C69.9641 36.6719 70.7297 37.0469 71.3547 37.6406 L72.0422 36.8125 C71.3078 36.0625 70.2297 35.5469 69.011 35.5469 C67.1516 35.5469 65.7766 36.6875 65.7766 38.2656 C65.7766 39.7656 66.9172 40.5 67.8703 40.9062 L69.3547 41.5469 C70.3235 41.9844 71.0578 42.3125 71.0578 43.375 C71.0578 44.375 70.2453 45.0469 68.9016 45.0469 C67.8391 45.0469 66.8078 44.5469 66.0735 43.7812 L65.2922 44.6562 C66.1828 45.5938 67.4328 46.1875 68.886 46.1875 Z" style="fill:black; stroke:none;"
    /></g
    ><g ID="legend-1:0" style="text-rendering:optimizeSpeed; font-size:10px; font-family:'SansSerif';"
    ><path style="stroke:none;" d="M30.875 350 L34.9062 350 L34.9062 349.2344 L33.4375 349.2344 L33.4375 342.6562 L32.7344 342.6562 C32.3281 342.9062 31.8594 343.0625 31.2031 343.1875 L31.2031 343.7656 L32.5156 343.7656 L32.5156 349.2344 L30.875 349.2344 L30.875 350 ZM35.925 345.4531 L40.7219 345.4531 L40.7219 344.7656 L35.925 344.7656 L35.925 345.4531 ZM35.925 347.8438 L40.7219 347.8438 L40.7219 347.1719 L35.925 347.1719 L35.925 347.8438 ZM42.1 350 L46.225 350 L46.225 349.2031 L43.0375 349.2031 L43.0375 342.6562 L42.1 342.6562 L42.1 350 ZM46.9831 347.5469 L49.5456 347.5469 L49.5456 346.8438 L46.9831 346.8438 L46.9831 347.5469 ZM52.625 350.125 C52.9531 350.125 53.3125 350.0312 53.625 349.9375 L53.4531 349.25 C53.2656 349.3125 53.0156 349.3906 52.8281 349.3906 C52.2031 349.3906 51.9843 349.0156 51.9843 348.3438 L51.9843 345.3125 L53.4531 345.3125 L53.4531 344.5625 L51.9843 344.5625 L51.9843 343.0469 L51.2343 343.0469 L51.125 344.5625 L50.2656 344.625 L50.2656 345.3125 L51.0781 345.3125 L51.0781 348.3125 C51.0781 349.4062 51.4687 350.125 52.625 350.125 ZM54.6918 350 L55.5981 350 L55.5981 346.0625 C56.145 345.5156 56.5356 345.2344 57.0825 345.2344 C57.8168 345.2344 58.1137 345.6562 58.1137 346.6875 L58.1137 350 L59.0356 350 L59.0356 346.5625 C59.0356 345.1719 58.5043 344.4375 57.3637 344.4375 C56.6293 344.4375 56.0668 344.8438 55.5668 345.3438 L55.5981 344.2188 L55.5981 342.0469 L54.6918 342.0469 L54.6918 350 ZM60.7618 350 L61.6681 350 L61.6681 346.5156 C62.0275 345.5781 62.59 345.2656 63.0431 345.2656 C63.2618 345.2656 63.3868 345.2812 63.5743 345.3438 L63.7462 344.5469 C63.5743 344.4531 63.4025 344.4375 63.1525 344.4375 C62.5431 344.4375 61.9962 344.875 61.6212 345.5625 L61.59 345.5625 L61.5118 344.5625 L60.7618 344.5625 L60.7618 350 ZM64.7199 350 L65.6574 350 L65.6574 346.5469 L69.0637 346.5469 L69.0637 350 L69.9856 350 L69.9856 342.6562 L69.0637 342.6562 L69.0637 345.7344 L65.6574 345.7344 L65.6574 342.6562 L64.7199 342.6562 L64.7199 350 ZM74.1093 350.125 C74.8437 350.125 75.4374 349.875 75.9062 349.5625 L75.5781 348.9688 C75.1874 349.2344 74.7499 349.4062 74.2187 349.4062 C73.1874 349.4062 72.4843 348.6562 72.4218 347.5 L76.0781 347.5 C76.0937 347.375 76.1249 347.1875 76.1249 346.9844 C76.1249 345.4375 75.3437 344.4375 73.9531 344.4375 C72.7031 344.4375 71.5156 345.5312 71.5156 347.2969 C71.5156 349.0781 72.6718 350.125 74.1093 350.125 ZM72.4062 346.8438 C72.5156 345.7812 73.2031 345.1562 73.9687 345.1562 C74.8124 345.1562 75.3124 345.75 75.3124 346.8438 L72.4062 346.8438 ZM76.6962 350 L77.6493 350 L78.3837 348.7344 C78.5712 348.4062 78.7431 348.0625 78.9462 347.7656 L78.9931 347.7656 C79.1962 348.0625 79.3837 348.4062 79.5712 348.7344 L80.3681 350 L81.3681 350 L79.5868 347.2656 L81.2274 344.5625 L80.2743 344.5625 L79.6024 345.7656 C79.4462 346.0625 79.2899 346.375 79.1181 346.6719 L79.0868 346.6719 C78.8993 346.375 78.7118 346.0625 78.5399 345.7656 L77.8056 344.5625 L76.8368 344.5625 L78.4774 347.1719 L76.6962 350 ZM83.7856 345.9062 C84.0512 345.0625 84.2856 344.2812 84.5199 343.4219 L84.5668 343.4219 C84.8012 344.2656 85.0356 345.0625 85.3012 345.9062 L85.6449 347.0156 L83.4262 347.0156 L83.7856 345.9062 ZM81.5512 350 L82.4887 350 L83.2074 347.7656 L85.8793 347.7656 L86.5824 350 L87.5668 350 L85.0668 342.6562 L84.0356 342.6562 L81.5512 350 ZM88.7462 347.25 L90.4024 344.75 C90.6212 344.3906 90.8243 344.0312 90.9962 343.6719 L91.043 343.6719 C91.0274 344.0469 90.9962 344.6406 90.9962 345 L90.9962 347.25 L88.7462 347.25 ZM90.9962 350 L91.8555 350 L91.8555 347.9844 L92.8243 347.9844 L92.8243 347.25 L91.8555 347.25 L91.8555 342.6562 L90.8399 342.6562 L87.793 347.375 L87.793 347.9844 L90.9962 347.9844 L90.9962 350 ZM95.5305 351.9688 L96.093 351.7031 C95.2337 350.2812 94.8274 348.5938 94.8274 346.8906 C94.8274 345.1875 95.2337 343.5156 96.093 342.0781 L95.5305 341.8125 C94.6087 343.3125 94.0618 344.9375 94.0618 346.8906 C94.0618 348.8594 94.6087 350.4688 95.5305 351.9688 ZM96.6918 350 L97.6605 350 L98.723 348.0156 C98.9105 347.6562 99.098 347.2812 99.3168 346.8438 L99.348 346.8438 C99.5824 347.2812 99.7855 347.6562 99.973 348.0156 L101.0668 350 L102.0824 350 L99.9418 346.2656 L101.9418 342.6562 L100.973 342.6562 L99.9886 344.5469 C99.8168 344.875 99.6761 345.1875 99.473 345.6094 L99.4261 345.6094 C99.1918 345.1875 99.0355 344.875 98.848 344.5469 L97.848 342.6562 L96.8324 342.6562 L98.8324 346.2031 L96.6918 350 ZM103.2343 351.9688 C104.1718 350.4688 104.7186 348.8594 104.7186 346.8906 C104.7186 344.9375 104.1718 343.3125 103.2343 341.8125 L102.6874 342.0781 C103.5468 343.5156 103.953 345.1875 103.953 346.8906 C103.953 348.5938 103.5468 350.2812 102.6874 351.7031 L103.2343 351.9688 ZM108.7393 350.125 C109.4736 350.125 110.0674 349.875 110.5361 349.5625 L110.208 348.9688 C109.8174 349.2344 109.3799 349.4062 108.8486 349.4062 C107.8174 349.4062 107.1143 348.6562 107.0518 347.5 L110.708 347.5 C110.7236 347.375 110.7549 347.1875 110.7549 346.9844 C110.7549 345.4375 109.9736 344.4375 108.583 344.4375 C107.333 344.4375 106.1455 345.5312 106.1455 347.2969 C106.1455 349.0781 107.3018 350.125 108.7393 350.125 ZM107.0361 346.8438 C107.1455 345.7812 107.833 345.1562 108.5986 345.1562 C109.4424 345.1562 109.9424 345.75 109.9424 346.8438 L107.0361 346.8438 ZM112.0918 350 L112.998 350 L112.998 346.0625 C113.5449 345.5156 113.9355 345.2344 114.4824 345.2344 C115.2168 345.2344 115.5136 345.6562 115.5136 346.6875 L115.5136 350 L116.4355 350 L116.4355 346.5625 C116.4355 345.1719 115.9043 344.4375 114.7636 344.4375 C114.0293 344.4375 113.4668 344.8438 112.9511 345.3438 L112.9199 345.3438 L112.8418 344.5625 L112.0918 344.5625 L112.0918 350 Z"
    /></g
  ></g
></svg
>
