<?xml version="1.0"?>
<!DOCTYPE svg PUBLIC '-//W3C//DTD SVG 1.0//EN'
          'http://www.w3.org/TR/2001/REC-SVG-20010904/DTD/svg10.dtd'>
<svg xmlns:xlink="http://www.w3.org/1999/xlink" style="fill-opacity:1; color-rendering:auto; color-interpolation:auto; text-rendering:auto; stroke:black; stroke-linecap:square; stroke-miterlimit:10; shape-rendering:auto; stroke-opacity:1; fill:black; stroke-dasharray:none; font-weight:normal; stroke-width:1; font-family:'Dialog'; font-style:normal; stroke-linejoin:miter; font-size:12px; stroke-dashoffset:0; image-rendering:auto;" viewBox="0 0 446 394" xmlns="http://www.w3.org/2000/svg"
><!--Generated by the Batik Graphics2D SVG Generator--><defs id="genericDefs"
  /><g
  ><defs id="defs1"
    ><clipPath clipPathUnits="userSpaceOnUse" id="clipPath1"
      ><path d="M342 212 L364 212 L364 234 L342 234 L342 212 Z"
      /></clipPath
      ><clipPath clipPathUnits="userSpaceOnUse" id="clipPath2"
      ><path d="M290 212 L312 212 L312 234 L290 234 L290 212 Z"
      /></clipPath
      ><clipPath clipPathUnits="userSpaceOnUse" id="clipPath3"
      ><path d="M260 223 C260 229.0751 255.0751 234 249 234 C242.9249 234 238 229.0751 238 223 C238 216.9249 242.9249 212 249 212 C255.0751 212 260 216.9249 260 223 Z"
      /></clipPath
      ><clipPath clipPathUnits="userSpaceOnUse" id="clipPath4"
      ><path d="M208 275 C208 281.0751 203.0751 286 197 286 C190.9249 286 186 281.0751 186 275 C186 268.9249 190.9249 264 197 264 C203.0751 264 208 268.9249 208 275 Z"
      /></clipPath
      ><clipPath clipPathUnits="userSpaceOnUse" id="clipPath5"
      ><path d="M134 290 L156 290 L156 312 L134 312 L134 290 Z"
      /></clipPath
      ><clipPath clipPathUnits="userSpaceOnUse" id="clipPath6"
      ><path style="fill-rule:evenodd;" d="M145 342 L156 364 L134 364 Z"
      /></clipPath
      ><clipPath clipPathUnits="userSpaceOnUse" id="clipPath7"
      ><path d="M104 301 C104 307.0751 99.0751 312 93 312 C86.9249 312 82 307.0751 82 301 C82 294.9249 86.9249 290 93 290 C99.0751 290 104 294.9249 104 301 Z"
      /></clipPath
      ><clipPath clipPathUnits="userSpaceOnUse" id="clipPath8"
      ><path style="fill-rule:evenodd;" d="M41 290 L52 301 L41 312 L30 301 Z"
      /></clipPath
      ><clipPath clipPathUnits="userSpaceOnUse" id="clipPath9"
      ><path d="M134 238 L156 238 L156 260 L134 260 L134 238 Z"
      /></clipPath
      ><clipPath clipPathUnits="userSpaceOnUse" id="clipPath10"
      ><path d="M82 238 L104 238 L104 260 L82 260 L82 238 Z"
      /></clipPath
      ><clipPath clipPathUnits="userSpaceOnUse" id="clipPath11"
      ><path d="M186 212 L208 212 L208 234 L186 234 L186 212 Z"
      /></clipPath
      ><clipPath clipPathUnits="userSpaceOnUse" id="clipPath12"
      ><path d="M208 93 C208 99.0751 203.0751 104 197 104 C190.9249 104 186 99.0751 186 93 C186 86.9249 190.9249 82 197 82 C203.0751 82 208 86.9249 208 93 Z"
      /></clipPath
      ><clipPath clipPathUnits="userSpaceOnUse" id="clipPath13"
      ><path d="M134 134 L156 134 L156 156 L134 156 L134 134 Z"
      /></clipPath
      ><clipPath clipPathUnits="userSpaceOnUse" id="clipPath14"
      ><path style="fill-rule:evenodd;" d="M145 186 L156 208 L134 208 Z"
      /></clipPath
      ><clipPath clipPathUnits="userSpaceOnUse" id="clipPath15"
      ><path d="M104 145 C104 151.0751 99.0751 156 93 156 C86.9249 156 82 151.0751 82 145 C82 138.9249 86.9249 134 93 134 C99.0751 134 104 138.9249 104 145 Z"
      /></clipPath
      ><clipPath clipPathUnits="userSpaceOnUse" id="clipPath16"
      ><path d="M134 30 L156 30 L156 52 L134 52 L134 30 Z"
      /></clipPath
      ><clipPath clipPathUnits="userSpaceOnUse" id="clipPath17"
      ><path style="fill-rule:evenodd;" d="M145 82 L156 104 L134 104 Z"
      /></clipPath
      ><clipPath clipPathUnits="userSpaceOnUse" id="clipPath18"
      ><path d="M104 41 C104 47.0751 99.0751 52 93 52 C86.9249 52 82 47.0751 82 41 C82 34.9249 86.9249 30 93 30 C99.0751 30 104 34.9249 104 41 Z"
      /></clipPath
      ><clipPath clipPathUnits="userSpaceOnUse" id="clipPath19"
      ><path style="fill-rule:evenodd;" d="M353 182 L342 160 L364 160 Z"
      /></clipPath
    ></defs
    ><g style="fill:white; text-rendering:optimizeSpeed; stroke:white;"
    ><rect x="0" width="446" height="394" y="0" style="stroke:none;"
      /><polygon style="fill:none; stroke:black;" points=" 405 223 353 223"
      /><path d="M405 212 C399.5 217.5 410.5 228.5 405 234" style="fill:none; stroke:black;"
      /><polygon style="fill:none; stroke:black;" points=" 353 223 301 223"
      /><polygon style="fill:none; stroke:black;" points=" 353 223 353 171"
      /><rect x="342" y="212" width="22" style="clip-path:url(#clipPath1); stroke:none;" height="22"
      /><rect x="342" y="212" width="22" style="clip-path:url(#clipPath1); fill:rgb(0,144,188); stroke:none;" height="22"
      /><rect x="342" y="212" width="22" style="clip-path:url(#clipPath1); fill:none; stroke:black;" height="22"
      /><rect x="342" y="212" width="22" style="fill:none; stroke:black;" height="22"
      /><polygon style="fill:none; stroke:black;" points=" 301 223 249 223"
      /><rect x="290" y="212" width="22" style="clip-path:url(#clipPath2); stroke:none;" height="22"
      /><rect x="290" y="212" width="22" style="clip-path:url(#clipPath2); fill:rgb(0,144,188); stroke:none;" height="22"
      /><rect x="290" y="212" width="22" style="clip-path:url(#clipPath2); fill:none; stroke:black;" height="22"
      /><rect x="290" y="212" width="22" style="fill:none; stroke:black;" height="22"
      /><polygon style="fill:none; stroke:black;" points=" 249 223 197 275"
      /><polygon style="fill:none; stroke:black;" points=" 249 223 197 223"
      /><polygon style="fill:none; stroke:black;" points=" 249 223 197 93"
      /><circle style="clip-path:url(#clipPath3); stroke:none;" r="11" cx="249" cy="223"
      /><rect x="238" y="212" width="22" style="clip-path:url(#clipPath3); fill:rgb(0,166,81); stroke:none;" height="22"
      /><rect x="238" y="212" width="22" style="clip-path:url(#clipPath3); fill:none; stroke:black;" height="22"
      /><circle style="fill:none; stroke:black;" r="11" cx="249" cy="223"
      /><polygon style="fill:none; stroke:black;" points=" 197 275 145 301"
      /><polygon style="fill:none; stroke:black;" points=" 197 275 145 249"
      /><circle style="clip-path:url(#clipPath4); stroke:none;" r="11" cx="197" cy="275"
      /><rect x="186" y="264" width="22" style="clip-path:url(#clipPath4); fill:rgb(0,166,81); stroke:none;" height="22"
      /><rect x="186" y="264" width="22" style="clip-path:url(#clipPath4); fill:none; stroke:black;" height="22"
      /><circle style="fill:none; stroke:black;" r="11" cx="197" cy="275"
      /><polygon style="fill:none; stroke:black;" points=" 145 301 145 353"
      /><polygon style="fill:none; stroke:black;" points=" 145 301 93 301"
      /><rect x="134" y="290" width="22" style="clip-path:url(#clipPath5); stroke:none;" height="22"
      /><rect x="134" y="290" width="22" style="clip-path:url(#clipPath5); fill:rgb(0,144,188); stroke:none;" height="22"
      /><rect x="134" y="290" width="22" style="clip-path:url(#clipPath5); fill:none; stroke:black;" height="22"
      /><rect x="134" y="290" width="22" style="fill:none; stroke:black;" height="22"
      /><polygon style="clip-path:url(#clipPath6); stroke:none;" points=" 145 342 156 364 134 364"
      /><rect x="134" y="342" width="22" style="clip-path:url(#clipPath6); fill:rgb(237,28,36); stroke:none;" height="22"
      /><rect x="134" y="342" width="22" style="clip-path:url(#clipPath6); fill:none; stroke:black;" height="22"
      /><polygon style="fill:none; stroke:black;" points=" 145 342 156 364 134 364"
      /><polygon style="fill:none; stroke:black;" points=" 93 301 41 301"
      /><circle style="clip-path:url(#clipPath7); stroke:none;" r="11" cx="93" cy="301"
      /><rect x="82" y="290" width="22" style="clip-path:url(#clipPath7); fill:rgb(255,212,0); stroke:none;" height="22"
      /><rect x="82" y="290" width="22" style="clip-path:url(#clipPath7); fill:none; stroke:black;" height="22"
      /><circle style="fill:none; stroke:black;" r="11" cx="93" cy="301"
      /><polygon style="clip-path:url(#clipPath8); stroke:none;" points=" 41 290 52 301 41 312 30 301"
      /><rect x="30" y="290" width="22" style="clip-path:url(#clipPath8); fill:rgb(143,204,233); stroke:none;" height="22"
      /><rect x="30" y="290" width="22" style="clip-path:url(#clipPath8); fill:none; stroke:black;" height="22"
      /><polygon style="fill:none; stroke:black;" points=" 41 290 52 301 41 312 30 301"
      /><rect x="66" y="302" width="16" style="stroke:none;" height="13"
    /></g
    ><g style="font-family:'Serif'; text-rendering:optimizeSpeed; "
    ><path style="stroke:none;" d="M68.2344 306.6562 C68.5156 306.5938 68.7656 306.5625 69.0156 306.5625 C70.0625 306.5625 70.6719 307.1719 70.6719 308.2656 C70.6719 309.4375 69.9062 310.1094 68.7031 310.1094 L68.1875 310.1094 L68.1875 310.6406 L68.7969 310.6406 C70.2188 310.6406 70.9062 311.4219 70.9062 312.6406 C70.9062 313.8438 70.1719 314.6875 68.875 314.6875 C68.6094 314.6875 68.3125 314.6562 68.0156 314.5625 L67.7812 313.8125 C67.625 313.2812 67.5 313.0469 67.1406 313.0469 C66.8906 313.0469 66.7031 313.1719 66.5781 313.4219 C66.8438 314.6406 67.7812 315.1719 69.0312 315.1719 C70.7188 315.1719 71.875 314.125 71.875 312.7031 C71.875 311.5 71.2031 310.625 69.7969 310.375 C70.9531 310.0156 71.6094 309.2031 71.6094 308.2031 C71.6094 306.9219 70.6719 306.0781 69.1875 306.0781 C68.0469 306.0781 67.0625 306.5938 66.7969 307.6875 C66.9062 308 67.1094 308.1094 67.3594 308.1094 C67.7344 308.1094 67.8906 307.8906 68 307.4062 L68.2344 306.6562 ZM72.4993 317.0938 L73.1087 317.0938 L76.6087 305.7344 L75.9837 305.7344 L72.4993 317.0938 ZM79.9878 314.6875 C78.8472 314.6875 78.1753 313.5 78.1753 311.2969 C78.1753 311.2188 78.1753 311.125 78.1753 311.0469 C78.7378 310.5 79.3628 310.3125 79.9878 310.3125 C80.9566 310.3125 81.5972 310.9844 81.5972 312.4531 C81.5972 313.9375 80.9566 314.6875 79.9878 314.6875 ZM82.1753 306.0781 C78.9878 306.4531 77.2066 308.7656 77.2066 311.4531 C77.2066 313.7812 78.2534 315.1719 79.9566 315.1719 C81.4878 315.1719 82.5659 314.1094 82.5659 312.2812 C82.5659 310.6875 81.6128 309.6562 80.2066 309.6562 C79.4722 309.6562 78.7847 309.9844 78.2222 310.5781 C78.4409 308.4062 79.7222 306.9688 82.2378 306.3906 L82.1753 306.0781 Z"
      /><rect x="56" y="305" width="8" style="fill:white; stroke:none;" height="8"
      /><path style="stroke:none;" d="M60.9844 310.7031 C60.9375 311.8906 60.1562 312.6562 59.3125 312.6562 C58.2656 312.6562 57.5 311.6875 57.5 309.7188 C57.5 308.2812 58.1562 307.1562 59.3438 307.1562 C60.1406 307.1562 60.7812 307.6875 61.0938 308.6406 L60.9844 310.7031 ZM62.9062 312.2812 C62.7344 312.375 62.5469 312.4219 62.3438 312.4219 C61.9531 312.4219 61.75 312.2188 61.75 311.4219 C61.75 310.4844 61.9688 308.5312 62.1875 306.8281 L62.0312 306.7188 L61.2344 306.9219 L61.1406 307.7969 C60.7812 307.0312 60.1562 306.6562 59.3906 306.6562 C58.0469 306.6562 56.5625 307.8438 56.5625 309.9531 C56.5625 312.0938 57.7188 313.1719 59.1406 313.1719 C60.0156 313.1719 60.6875 312.8125 61.0938 311.9844 C61.2031 312.8594 61.5156 313.1719 62.0156 313.1719 C62.4688 313.1719 62.7969 312.9062 63.0156 312.5625 L62.9062 312.2812 Z"
      /><rect x="150" y="315" width="6" style="fill:white; stroke:none;" height="10"
      /><path style="stroke:none;" d="M152.2344 316.6562 C152.5156 316.5938 152.7656 316.5625 153.0156 316.5625 C154.0625 316.5625 154.6719 317.1719 154.6719 318.2656 C154.6719 319.4375 153.9062 320.1094 152.7031 320.1094 L152.1875 320.1094 L152.1875 320.6406 L152.7969 320.6406 C154.2188 320.6406 154.9062 321.4219 154.9062 322.6406 C154.9062 323.8438 154.1719 324.6875 152.875 324.6875 C152.6094 324.6875 152.3125 324.6562 152.0156 324.5625 L151.7812 323.8125 C151.625 323.2812 151.5 323.0469 151.1406 323.0469 C150.8906 323.0469 150.7031 323.1719 150.5781 323.4219 C150.8438 324.6406 151.7812 325.1719 153.0312 325.1719 C154.7188 325.1719 155.875 324.125 155.875 322.7031 C155.875 321.5 155.2031 320.625 153.7969 320.375 C154.9531 320.0156 155.6094 319.2031 155.6094 318.2031 C155.6094 316.9219 154.6719 316.0781 153.1875 316.0781 C152.0469 316.0781 151.0625 316.5938 150.7969 317.6875 C150.9062 318 151.1094 318.1094 151.3594 318.1094 C151.7344 318.1094 151.8906 317.8906 152 317.4062 L152.2344 316.6562 Z"
      /><rect x="149" y="330" width="8" style="fill:white; stroke:none;" height="8"
      /><path style="stroke:none;" d="M153.9844 335.7031 C153.9375 336.8906 153.1562 337.6562 152.3125 337.6562 C151.2656 337.6562 150.5 336.6875 150.5 334.7188 C150.5 333.2812 151.1562 332.1562 152.3438 332.1562 C153.1406 332.1562 153.7812 332.6875 154.0938 333.6406 L153.9844 335.7031 ZM155.9062 337.2812 C155.7344 337.375 155.5469 337.4219 155.3438 337.4219 C154.9531 337.4219 154.75 337.2188 154.75 336.4219 C154.75 335.4844 154.9688 333.5312 155.1875 331.8281 L155.0312 331.7188 L154.2344 331.9219 L154.1406 332.7969 C153.7812 332.0312 153.1562 331.6562 152.3906 331.6562 C151.0469 331.6562 149.5625 332.8438 149.5625 334.9531 C149.5625 337.0938 150.7188 338.1719 152.1406 338.1719 C153.0156 338.1719 153.6875 337.8125 154.0938 336.9844 C154.2031 337.8594 154.5156 338.1719 155.0156 338.1719 C155.4688 338.1719 155.7969 337.9062 156.0156 337.5625 L155.9062 337.2812 Z"
      /><rect x="122" y="304" width="7" style="fill:white; stroke:none;" height="9"
      /><path style="stroke:none;" d="M123 309.5156 L125.9531 305.2656 L125.9531 309.5156 L123 309.5156 ZM128.2812 309.5156 L126.8594 309.5156 L126.8594 304.125 L126.2344 304.125 L122.3438 309.6406 L122.3438 310.1875 L125.9531 310.1875 L125.9531 313 L126.8594 313 L126.8594 310.1875 L128.2812 310.1875 L128.2812 309.5156 Z"
      /><rect x="109" y="302" width="6" style="fill:white; stroke:none;" height="13"
      /><path style="stroke:none;" d="M111.0938 308.2031 C111.0938 306.6562 111.75 305.8125 112.7969 305.8125 C113.7188 305.8125 114.2656 306.4531 114.2656 307.5156 C114.2656 308.7188 113.5 309.4375 112.1875 309.7031 L112.2969 310.3125 C114.2188 310.2344 114.9375 311.2188 114.9375 312.4375 C114.9375 313.625 114.2344 314.4219 112.9531 314.4219 C112.25 314.4219 111.6562 314.1562 111.0938 313.7188 L111.0938 308.2031 ZM110.2031 314.9062 L110.1094 317.375 L110.2656 317.4844 L111.1562 317.2656 L111.0156 314.0938 C111.5469 314.8438 112.3594 315.1719 113.1719 315.1719 C114.5625 315.1719 115.8594 314.2188 115.8594 312.4844 C115.8594 310.9531 114.875 310.1094 113.125 310 C114.5625 309.6094 115.1875 308.4531 115.1875 307.4844 C115.1875 306.0938 114.1562 305.3125 112.9062 305.3125 C111.2969 305.3125 110.2188 306.5469 110.2188 308.5156 L110.2031 314.9062 Z"
      /><polygon style="fill:none;" points=" 145 249 93 249"
      /><rect x="134" y="238" width="22" style="clip-path:url(#clipPath9); fill:white; stroke:none;" height="22"
      /><rect x="134" y="238" width="22" style="clip-path:url(#clipPath9); fill:rgb(0,144,188); stroke:none;" height="22"
      /><rect x="134" y="238" width="22" style="fill:none; clip-path:url(#clipPath9);" height="22"
      /><rect x="134" width="22" height="22" y="238" style="fill:none;"
      /><rect x="82" y="238" width="22" style="clip-path:url(#clipPath10); fill:white; stroke:none;" height="22"
      /><rect x="82" y="238" width="22" style="clip-path:url(#clipPath10); fill:rgb(255,212,0); stroke:none;" height="22"
      /><rect x="82" y="238" width="22" style="fill:none; clip-path:url(#clipPath10);" height="22"
      /><rect x="82" width="22" height="22" y="238" style="fill:none;"
      /><rect x="122" y="252" width="7" style="fill:white; stroke:none;" height="9"
      /><path style="stroke:none;" d="M123 257.5156 L125.9531 253.2656 L125.9531 257.5156 L123 257.5156 ZM128.2812 257.5156 L126.8594 257.5156 L126.8594 252.125 L126.2344 252.125 L122.3438 257.6406 L122.3438 258.1875 L125.9531 258.1875 L125.9531 261 L126.8594 261 L126.8594 258.1875 L128.2812 258.1875 L128.2812 257.5156 Z"
      /><rect x="109" y="250" width="6" style="fill:white; stroke:none;" height="13"
      /><path style="stroke:none;" d="M111.0938 256.2031 C111.0938 254.6562 111.75 253.8125 112.7969 253.8125 C113.7188 253.8125 114.2656 254.4531 114.2656 255.5156 C114.2656 256.7188 113.5 257.4375 112.1875 257.7031 L112.2969 258.3125 C114.2188 258.2344 114.9375 259.2188 114.9375 260.4375 C114.9375 261.625 114.2344 262.4219 112.9531 262.4219 C112.25 262.4219 111.6562 262.1562 111.0938 261.7188 L111.0938 256.2031 ZM110.2031 262.9062 L110.1094 265.375 L110.2656 265.4844 L111.1562 265.2656 L111.0156 262.0938 C111.5469 262.8438 112.3594 263.1719 113.1719 263.1719 C114.5625 263.1719 115.8594 262.2188 115.8594 260.4844 C115.8594 258.9531 114.875 258.1094 113.125 258 C114.5625 257.6094 115.1875 256.4531 115.1875 255.4844 C115.1875 254.0938 114.1562 253.3125 112.9062 253.3125 C111.2969 253.3125 110.2188 254.5469 110.2188 256.5156 L110.2031 262.9062 Z"
      /><rect x="179" y="286" width="6" style="fill:white; stroke:none;" height="9"
      /><path style="stroke:none;" d="M180.4219 294.0938 C181.0781 293.375 181.7031 292.7188 182.0312 292.3438 C183.9219 290.3125 184.5312 289.4688 184.5312 288.3594 C184.5312 287.0156 183.7812 286.0781 182.1562 286.0781 C180.9062 286.0781 179.7969 286.7031 179.5938 287.9688 C179.7188 288.2031 179.9062 288.3438 180.1562 288.3438 C180.4688 288.3438 180.6562 288.1094 180.7969 287.5938 L181.0938 286.6719 C181.3906 286.5938 181.6562 286.5625 181.8906 286.5625 C182.9219 286.5625 183.5469 287.3125 183.5469 288.4219 C183.5469 289.4375 182.9844 290.4219 181.7031 291.9062 C181.125 292.5781 180.3906 293.4375 179.6406 294.2812 L179.6406 295 L184.9219 295 L184.9219 294.0938 L180.4219 294.0938 Z"
      /><rect x="163" y="292" width="6" style="fill:white; stroke:none;" height="13"
      /><path style="stroke:none;" d="M165.0938 298.2031 C165.0938 296.6562 165.75 295.8125 166.7969 295.8125 C167.7188 295.8125 168.2656 296.4531 168.2656 297.5156 C168.2656 298.7188 167.5 299.4375 166.1875 299.7031 L166.2969 300.3125 C168.2188 300.2344 168.9375 301.2188 168.9375 302.4375 C168.9375 303.625 168.2344 304.4219 166.9531 304.4219 C166.25 304.4219 165.6562 304.1562 165.0938 303.7188 L165.0938 298.2031 ZM164.2031 304.9062 L164.1094 307.375 L164.2656 307.4844 L165.1562 307.2656 L165.0156 304.0938 C165.5469 304.8438 166.3594 305.1719 167.1719 305.1719 C168.5625 305.1719 169.8594 304.2188 169.8594 302.4844 C169.8594 300.9531 168.875 300.1094 167.125 300 C168.5625 299.6094 169.1875 298.4531 169.1875 297.4844 C169.1875 296.0938 168.1562 295.3125 166.9062 295.3125 C165.2969 295.3125 164.2188 296.5469 164.2188 298.5156 L164.2031 304.9062 Z"
      /><rect x="171" y="268" width="7" style="fill:white; stroke:none;" height="9"
      /><path style="stroke:none;" d="M172 273.5156 L174.9531 269.2656 L174.9531 273.5156 L172 273.5156 ZM177.2812 273.5156 L175.8594 273.5156 L175.8594 268.125 L175.2344 268.125 L171.3438 273.6406 L171.3438 274.1875 L174.9531 274.1875 L174.9531 277 L175.8594 277 L175.8594 274.1875 L177.2812 274.1875 L177.2812 273.5156 Z"
      /><rect x="156" y="258" width="6" style="fill:white; stroke:none;" height="13"
      /><path style="stroke:none;" d="M158.0938 264.2031 C158.0938 262.6562 158.75 261.8125 159.7969 261.8125 C160.7188 261.8125 161.2656 262.4531 161.2656 263.5156 C161.2656 264.7188 160.5 265.4375 159.1875 265.7031 L159.2969 266.3125 C161.2188 266.2344 161.9375 267.2188 161.9375 268.4375 C161.9375 269.625 161.2344 270.4219 159.9531 270.4219 C159.25 270.4219 158.6562 270.1562 158.0938 269.7188 L158.0938 264.2031 ZM157.2031 270.9062 L157.1094 273.375 L157.2656 273.4844 L158.1562 273.2656 L158.0156 270.0938 C158.5469 270.8438 159.3594 271.1719 160.1719 271.1719 C161.5625 271.1719 162.8594 270.2188 162.8594 268.4844 C162.8594 266.9531 161.875 266.1094 160.125 266 C161.5625 265.6094 162.1875 264.4531 162.1875 263.4844 C162.1875 262.0938 161.1562 261.3125 159.9062 261.3125 C158.2969 261.3125 157.2188 262.5469 157.2188 264.5156 L157.2031 270.9062 Z"
      /><rect x="186" y="212" width="22" style="clip-path:url(#clipPath11); fill:white; stroke:none;" height="22"
      /><rect x="186" y="212" width="22" style="clip-path:url(#clipPath11); fill:rgb(0,144,188); stroke:none;" height="22"
      /><rect x="186" y="212" width="22" style="fill:none; clip-path:url(#clipPath11);" height="22"
      /><rect x="186" width="22" height="22" y="212" style="fill:none;"
      /><polygon style="fill:none;" points=" 197 93 145 145"
      /><polygon style="fill:none;" points=" 197 93 145 41"
      /><circle style="fill:white; clip-path:url(#clipPath12); stroke:none;" r="11" cx="197" cy="93"
      /><rect x="186" y="82" width="22" style="clip-path:url(#clipPath12); fill:rgb(0,166,81); stroke:none;" height="22"
      /><rect x="186" y="82" width="22" style="fill:none; clip-path:url(#clipPath12);" height="22"
      /><circle r="11" style="fill:none;" cx="197" cy="93"
      /><polygon style="fill:none;" points=" 145 145 145 197"
      /><polygon style="fill:none;" points=" 145 145 93 145"
      /><rect x="134" y="134" width="22" style="clip-path:url(#clipPath13); fill:white; stroke:none;" height="22"
      /><rect x="134" y="134" width="22" style="clip-path:url(#clipPath13); fill:rgb(0,144,188); stroke:none;" height="22"
      /><rect x="134" y="134" width="22" style="fill:none; clip-path:url(#clipPath13);" height="22"
      /><rect x="134" width="22" height="22" y="134" style="fill:none;"
      /><polygon style="fill:white; clip-path:url(#clipPath14); stroke:none;" points=" 145 186 156 208 134 208"
      /><rect x="134" y="186" width="22" style="clip-path:url(#clipPath14); fill:rgb(237,28,36); stroke:none;" height="22"
      /><rect x="134" y="186" width="22" style="fill:none; clip-path:url(#clipPath14);" height="22"
      /><polygon style="fill:none;" points=" 145 186 156 208 134 208"
      /><circle style="fill:white; clip-path:url(#clipPath15); stroke:none;" r="11" cx="93" cy="145"
      /><rect x="82" y="134" width="22" style="clip-path:url(#clipPath15); fill:rgb(255,212,0); stroke:none;" height="22"
      /><rect x="82" y="134" width="22" style="fill:none; clip-path:url(#clipPath15);" height="22"
      /><circle r="11" style="fill:none;" cx="93" cy="145"
      /><rect x="150" y="159" width="6" style="fill:white; stroke:none;" height="10"
      /><path style="stroke:none;" d="M152.2344 160.6562 C152.5156 160.5938 152.7656 160.5625 153.0156 160.5625 C154.0625 160.5625 154.6719 161.1719 154.6719 162.2656 C154.6719 163.4375 153.9062 164.1094 152.7031 164.1094 L152.1875 164.1094 L152.1875 164.6406 L152.7969 164.6406 C154.2188 164.6406 154.9062 165.4219 154.9062 166.6406 C154.9062 167.8438 154.1719 168.6875 152.875 168.6875 C152.6094 168.6875 152.3125 168.6562 152.0156 168.5625 L151.7812 167.8125 C151.625 167.2812 151.5 167.0469 151.1406 167.0469 C150.8906 167.0469 150.7031 167.1719 150.5781 167.4219 C150.8438 168.6406 151.7812 169.1719 153.0312 169.1719 C154.7188 169.1719 155.875 168.125 155.875 166.7031 C155.875 165.5 155.2031 164.625 153.7969 164.375 C154.9531 164.0156 155.6094 163.2031 155.6094 162.2031 C155.6094 160.9219 154.6719 160.0781 153.1875 160.0781 C152.0469 160.0781 151.0625 160.5938 150.7969 161.6875 C150.9062 162 151.1094 162.1094 151.3594 162.1094 C151.7344 162.1094 151.8906 161.8906 152 161.4062 L152.2344 160.6562 Z"
      /><rect x="149" y="174" width="8" style="fill:white; stroke:none;" height="8"
      /><path style="stroke:none;" d="M153.9844 179.7031 C153.9375 180.8906 153.1562 181.6562 152.3125 181.6562 C151.2656 181.6562 150.5 180.6875 150.5 178.7188 C150.5 177.2812 151.1562 176.1562 152.3438 176.1562 C153.1406 176.1562 153.7812 176.6875 154.0938 177.6406 L153.9844 179.7031 ZM155.9062 181.2812 C155.7344 181.375 155.5469 181.4219 155.3438 181.4219 C154.9531 181.4219 154.75 181.2188 154.75 180.4219 C154.75 179.4844 154.9688 177.5312 155.1875 175.8281 L155.0312 175.7188 L154.2344 175.9219 L154.1406 176.7969 C153.7812 176.0312 153.1562 175.6562 152.3906 175.6562 C151.0469 175.6562 149.5625 176.8438 149.5625 178.9531 C149.5625 181.0938 150.7188 182.1719 152.1406 182.1719 C153.0156 182.1719 153.6875 181.8125 154.0938 180.9844 C154.2031 181.8594 154.5156 182.1719 155.0156 182.1719 C155.4688 182.1719 155.7969 181.9062 156.0156 181.5625 L155.9062 181.2812 Z"
      /><rect x="122" y="148" width="7" style="fill:white; stroke:none;" height="9"
      /><path style="stroke:none;" d="M123 153.5156 L125.9531 149.2656 L125.9531 153.5156 L123 153.5156 ZM128.2812 153.5156 L126.8594 153.5156 L126.8594 148.125 L126.2344 148.125 L122.3438 153.6406 L122.3438 154.1875 L125.9531 154.1875 L125.9531 157 L126.8594 157 L126.8594 154.1875 L128.2812 154.1875 L128.2812 153.5156 Z"
      /><rect x="109" y="146" width="6" style="fill:white; stroke:none;" height="13"
      /><path style="stroke:none;" d="M111.0938 152.2031 C111.0938 150.6562 111.75 149.8125 112.7969 149.8125 C113.7188 149.8125 114.2656 150.4531 114.2656 151.5156 C114.2656 152.7188 113.5 153.4375 112.1875 153.7031 L112.2969 154.3125 C114.2188 154.2344 114.9375 155.2188 114.9375 156.4375 C114.9375 157.625 114.2344 158.4219 112.9531 158.4219 C112.25 158.4219 111.6562 158.1562 111.0938 157.7188 L111.0938 152.2031 ZM110.2031 158.9062 L110.1094 161.375 L110.2656 161.4844 L111.1562 161.2656 L111.0156 158.0938 C111.5469 158.8438 112.3594 159.1719 113.1719 159.1719 C114.5625 159.1719 115.8594 158.2188 115.8594 156.4844 C115.8594 154.9531 114.875 154.1094 113.125 154 C114.5625 153.6094 115.1875 152.4531 115.1875 151.4844 C115.1875 150.0938 114.1562 149.3125 112.9062 149.3125 C111.2969 149.3125 110.2188 150.5469 110.2188 152.5156 L110.2031 158.9062 Z"
      /><polygon style="fill:none;" points=" 145 41 145 93"
      /><polygon style="fill:none;" points=" 145 41 93 41"
      /><rect x="134" y="30" width="22" style="clip-path:url(#clipPath16); fill:white; stroke:none;" height="22"
      /><rect x="134" y="30" width="22" style="clip-path:url(#clipPath16); fill:rgb(0,144,188); stroke:none;" height="22"
      /><rect x="134" y="30" width="22" style="fill:none; clip-path:url(#clipPath16);" height="22"
      /><rect x="134" width="22" height="22" y="30" style="fill:none;"
      /><polygon style="fill:white; clip-path:url(#clipPath17); stroke:none;" points=" 145 82 156 104 134 104"
      /><rect x="134" y="82" width="22" style="clip-path:url(#clipPath17); fill:rgb(237,28,36); stroke:none;" height="22"
      /><rect x="134" y="82" width="22" style="fill:none; clip-path:url(#clipPath17);" height="22"
      /><polygon style="fill:none;" points=" 145 82 156 104 134 104"
      /><circle style="fill:white; clip-path:url(#clipPath18); stroke:none;" r="11" cx="93" cy="41"
      /><rect x="82" y="30" width="22" style="clip-path:url(#clipPath18); fill:rgb(255,212,0); stroke:none;" height="22"
      /><rect x="82" y="30" width="22" style="fill:none; clip-path:url(#clipPath18);" height="22"
      /><circle r="11" style="fill:none;" cx="93" cy="41"
      /><rect x="150" y="55" width="6" style="fill:white; stroke:none;" height="10"
      /><path style="stroke:none;" d="M152.2344 56.6562 C152.5156 56.5938 152.7656 56.5625 153.0156 56.5625 C154.0625 56.5625 154.6719 57.1719 154.6719 58.2656 C154.6719 59.4375 153.9062 60.1094 152.7031 60.1094 L152.1875 60.1094 L152.1875 60.6406 L152.7969 60.6406 C154.2188 60.6406 154.9062 61.4219 154.9062 62.6406 C154.9062 63.8438 154.1719 64.6875 152.875 64.6875 C152.6094 64.6875 152.3125 64.6562 152.0156 64.5625 L151.7812 63.8125 C151.625 63.2812 151.5 63.0469 151.1406 63.0469 C150.8906 63.0469 150.7031 63.1719 150.5781 63.4219 C150.8438 64.6406 151.7812 65.1719 153.0312 65.1719 C154.7188 65.1719 155.875 64.125 155.875 62.7031 C155.875 61.5 155.2031 60.625 153.7969 60.375 C154.9531 60.0156 155.6094 59.2031 155.6094 58.2031 C155.6094 56.9219 154.6719 56.0781 153.1875 56.0781 C152.0469 56.0781 151.0625 56.5938 150.7969 57.6875 C150.9062 58 151.1094 58.1094 151.3594 58.1094 C151.7344 58.1094 151.8906 57.8906 152 57.4062 L152.2344 56.6562 Z"
      /><rect x="149" y="70" width="8" style="fill:white; stroke:none;" height="8"
      /><path style="stroke:none;" d="M153.9844 75.7031 C153.9375 76.8906 153.1562 77.6562 152.3125 77.6562 C151.2656 77.6562 150.5 76.6875 150.5 74.7188 C150.5 73.2812 151.1562 72.1562 152.3438 72.1562 C153.1406 72.1562 153.7812 72.6875 154.0938 73.6406 L153.9844 75.7031 ZM155.9062 77.2812 C155.7344 77.375 155.5469 77.4219 155.3438 77.4219 C154.9531 77.4219 154.75 77.2188 154.75 76.4219 C154.75 75.4844 154.9688 73.5312 155.1875 71.8281 L155.0312 71.7188 L154.2344 71.9219 L154.1406 72.7969 C153.7812 72.0312 153.1562 71.6562 152.3906 71.6562 C151.0469 71.6562 149.5625 72.8438 149.5625 74.9531 C149.5625 77.0938 150.7188 78.1719 152.1406 78.1719 C153.0156 78.1719 153.6875 77.8125 154.0938 76.9844 C154.2031 77.8594 154.5156 78.1719 155.0156 78.1719 C155.4688 78.1719 155.7969 77.9062 156.0156 77.5625 L155.9062 77.2812 Z"
      /><rect x="122" y="44" width="7" style="fill:white; stroke:none;" height="9"
      /><path style="stroke:none;" d="M123 49.5156 L125.9531 45.2656 L125.9531 49.5156 L123 49.5156 ZM128.2812 49.5156 L126.8594 49.5156 L126.8594 44.125 L126.2344 44.125 L122.3438 49.6406 L122.3438 50.1875 L125.9531 50.1875 L125.9531 53 L126.8594 53 L126.8594 50.1875 L128.2812 50.1875 L128.2812 49.5156 Z"
      /><rect x="109" y="42" width="6" style="fill:white; stroke:none;" height="13"
      /><path style="stroke:none;" d="M111.0938 48.2031 C111.0938 46.6562 111.75 45.8125 112.7969 45.8125 C113.7188 45.8125 114.2656 46.4531 114.2656 47.5156 C114.2656 48.7188 113.5 49.4375 112.1875 49.7031 L112.2969 50.3125 C114.2188 50.2344 114.9375 51.2188 114.9375 52.4375 C114.9375 53.625 114.2344 54.4219 112.9531 54.4219 C112.25 54.4219 111.6562 54.1562 111.0938 53.7188 L111.0938 48.2031 ZM110.2031 54.9062 L110.1094 57.375 L110.2656 57.4844 L111.1562 57.2656 L111.0156 54.0938 C111.5469 54.8438 112.3594 55.1719 113.1719 55.1719 C114.5625 55.1719 115.8594 54.2188 115.8594 52.4844 C115.8594 50.9531 114.875 50.1094 113.125 50 C114.5625 49.6094 115.1875 48.4531 115.1875 47.4844 C115.1875 46.0938 114.1562 45.3125 112.9062 45.3125 C111.2969 45.3125 110.2188 46.5469 110.2188 48.5156 L110.2031 54.9062 Z"
      /><rect x="183" y="110" width="6" style="fill:white; stroke:none;" height="9"
      /><path style="stroke:none;" d="M184.4219 118.0938 C185.0781 117.375 185.7031 116.7188 186.0312 116.3438 C187.9219 114.3125 188.5312 113.4688 188.5312 112.3594 C188.5312 111.0156 187.7812 110.0781 186.1562 110.0781 C184.9062 110.0781 183.7969 110.7031 183.5938 111.9688 C183.7188 112.2031 183.9062 112.3438 184.1562 112.3438 C184.4688 112.3438 184.6562 112.1094 184.7969 111.5938 L185.0938 110.6719 C185.3906 110.5938 185.6562 110.5625 185.8906 110.5625 C186.9219 110.5625 187.5469 111.3125 187.5469 112.4219 C187.5469 113.4375 186.9844 114.4219 185.7031 115.9062 C185.125 116.5781 184.3906 117.4375 183.6406 118.2812 L183.6406 119 L188.9219 119 L188.9219 118.0938 L184.4219 118.0938 Z"
      /><rect x="164" y="127" width="6" style="fill:white; stroke:none;" height="13"
      /><path style="stroke:none;" d="M166.0938 133.2031 C166.0938 131.6562 166.75 130.8125 167.7969 130.8125 C168.7188 130.8125 169.2656 131.4531 169.2656 132.5156 C169.2656 133.7188 168.5 134.4375 167.1875 134.7031 L167.2969 135.3125 C169.2188 135.2344 169.9375 136.2188 169.9375 137.4375 C169.9375 138.625 169.2344 139.4219 167.9531 139.4219 C167.25 139.4219 166.6562 139.1562 166.0938 138.7188 L166.0938 133.2031 ZM165.2031 139.9062 L165.1094 142.375 L165.2656 142.4844 L166.1562 142.2656 L166.0156 139.0938 C166.5469 139.8438 167.3594 140.1719 168.1719 140.1719 C169.5625 140.1719 170.8594 139.2188 170.8594 137.4844 C170.8594 135.9531 169.875 135.1094 168.125 135 C169.5625 134.6094 170.1875 133.4531 170.1875 132.4844 C170.1875 131.0938 169.1562 130.3125 167.9062 130.3125 C166.2969 130.3125 165.2188 131.5469 165.2188 133.5156 L165.2031 139.9062 Z"
      /><rect x="171" y="77" width="6" style="fill:white; stroke:none;" height="10"
      /><path style="stroke:none;" d="M174.3438 86.6875 C173.2031 86.6875 172.5312 85.5 172.5312 83.2969 C172.5312 83.2188 172.5312 83.125 172.5312 83.0469 C173.0938 82.5 173.7188 82.3125 174.3438 82.3125 C175.3125 82.3125 175.9531 82.9844 175.9531 84.4531 C175.9531 85.9375 175.3125 86.6875 174.3438 86.6875 ZM176.5312 78.0781 C173.3438 78.4531 171.5625 80.7656 171.5625 83.4531 C171.5625 85.7812 172.6094 87.1719 174.3125 87.1719 C175.8438 87.1719 176.9219 86.1094 176.9219 84.2812 C176.9219 82.6875 175.9688 81.6562 174.5625 81.6562 C173.8281 81.6562 173.1406 81.9844 172.5781 82.5781 C172.7969 80.4062 174.0781 78.9688 176.5938 78.3906 L176.5312 78.0781 Z"
      /><rect x="153" y="56" width="6" style="fill:white; stroke:none;" height="13"
      /><path style="stroke:none;" d="M155.0938 62.2031 C155.0938 60.6562 155.75 59.8125 156.7969 59.8125 C157.7188 59.8125 158.2656 60.4531 158.2656 61.5156 C158.2656 62.7188 157.5 63.4375 156.1875 63.7031 L156.2969 64.3125 C158.2188 64.2344 158.9375 65.2188 158.9375 66.4375 C158.9375 67.625 158.2344 68.4219 156.9531 68.4219 C156.25 68.4219 155.6562 68.1562 155.0938 67.7188 L155.0938 62.2031 ZM154.2031 68.9062 L154.1094 71.375 L154.2656 71.4844 L155.1562 71.2656 L155.0156 68.0938 C155.5469 68.8438 156.3594 69.1719 157.1719 69.1719 C158.5625 69.1719 159.8594 68.2188 159.8594 66.4844 C159.8594 64.9531 158.875 64.1094 157.125 64 C158.5625 63.6094 159.1875 62.4531 159.1875 61.4844 C159.1875 60.0938 158.1562 59.3125 156.9062 59.3125 C155.2969 59.3125 154.2188 60.5469 154.2188 62.5156 L154.2031 68.9062 Z"
      /><rect x="235" y="240" width="6" style="fill:white; stroke:none;" height="10"
      /><path style="stroke:none;" d="M237.2344 241.6562 C237.5156 241.5938 237.7656 241.5625 238.0156 241.5625 C239.0625 241.5625 239.6719 242.1719 239.6719 243.2656 C239.6719 244.4375 238.9062 245.1094 237.7031 245.1094 L237.1875 245.1094 L237.1875 245.6406 L237.7969 245.6406 C239.2188 245.6406 239.9062 246.4219 239.9062 247.6406 C239.9062 248.8438 239.1719 249.6875 237.875 249.6875 C237.6094 249.6875 237.3125 249.6562 237.0156 249.5625 L236.7812 248.8125 C236.625 248.2812 236.5 248.0469 236.1406 248.0469 C235.8906 248.0469 235.7031 248.1719 235.5781 248.4219 C235.8438 249.6406 236.7812 250.1719 238.0312 250.1719 C239.7188 250.1719 240.875 249.125 240.875 247.7031 C240.875 246.5 240.2031 245.625 238.7969 245.375 C239.9531 245.0156 240.6094 244.2031 240.6094 243.2031 C240.6094 241.9219 239.6719 241.0781 238.1875 241.0781 C237.0469 241.0781 236.0625 241.5938 235.7969 242.6875 C235.9062 243 236.1094 243.1094 236.3594 243.1094 C236.7344 243.1094 236.8906 242.8906 237 242.4062 L237.2344 241.6562 Z"
      /><rect x="215" y="260" width="8" style="fill:white; stroke:none;" height="8"
      /><path style="stroke:none;" d="M219.9844 265.7031 C219.9375 266.8906 219.1562 267.6562 218.3125 267.6562 C217.2656 267.6562 216.5 266.6875 216.5 264.7188 C216.5 263.2812 217.1562 262.1562 218.3438 262.1562 C219.1406 262.1562 219.7812 262.6875 220.0938 263.6406 L219.9844 265.7031 ZM221.9062 267.2812 C221.7344 267.375 221.5469 267.4219 221.3438 267.4219 C220.9531 267.4219 220.75 267.2188 220.75 266.4219 C220.75 265.4844 220.9688 263.5312 221.1875 261.8281 L221.0312 261.7188 L220.2344 261.9219 L220.1406 262.7969 C219.7812 262.0312 219.1562 261.6562 218.3906 261.6562 C217.0469 261.6562 215.5625 262.8438 215.5625 264.9531 C215.5625 267.0938 216.7188 268.1719 218.1406 268.1719 C219.0156 268.1719 219.6875 267.8125 220.0938 266.9844 C220.2031 267.8594 220.5156 268.1719 221.0156 268.1719 C221.4688 268.1719 221.7969 267.9062 222.0156 267.5625 L221.9062 267.2812 Z"
      /><rect x="226" y="226" width="7" style="fill:white; stroke:none;" height="9"
      /><path style="stroke:none;" d="M227 231.5156 L229.9531 227.2656 L229.9531 231.5156 L227 231.5156 ZM232.2812 231.5156 L230.8594 231.5156 L230.8594 226.125 L230.2344 226.125 L226.3438 231.6406 L226.3438 232.1875 L229.9531 232.1875 L229.9531 235 L230.8594 235 L230.8594 232.1875 L232.2812 232.1875 L232.2812 231.5156 Z"
      /><rect x="213" y="224" width="6" style="fill:white; stroke:none;" height="13"
      /><path style="stroke:none;" d="M215.0938 230.2031 C215.0938 228.6562 215.75 227.8125 216.7969 227.8125 C217.7188 227.8125 218.2656 228.4531 218.2656 229.5156 C218.2656 230.7188 217.5 231.4375 216.1875 231.7031 L216.2969 232.3125 C218.2188 232.2344 218.9375 233.2188 218.9375 234.4375 C218.9375 235.625 218.2344 236.4219 216.9531 236.4219 C216.25 236.4219 215.6562 236.1562 215.0938 235.7188 L215.0938 230.2031 ZM214.2031 236.9062 L214.1094 239.375 L214.2656 239.4844 L215.1562 239.2656 L215.0156 236.0938 C215.5469 236.8438 216.3594 237.1719 217.1719 237.1719 C218.5625 237.1719 219.8594 236.2188 219.8594 234.4844 C219.8594 232.9531 218.875 232.1094 217.125 232 C218.5625 231.6094 219.1875 230.4531 219.1875 229.4844 C219.1875 228.0938 218.1562 227.3125 216.9062 227.3125 C215.2969 227.3125 214.2188 228.5469 214.2188 230.5156 L214.2031 236.9062 Z"
      /><rect x="231" y="202" width="6" style="fill:white; stroke:none;" height="10"
      /><path style="stroke:none;" d="M234.3438 211.6875 C233.2031 211.6875 232.5312 210.5 232.5312 208.2969 C232.5312 208.2188 232.5312 208.125 232.5312 208.0469 C233.0938 207.5 233.7188 207.3125 234.3438 207.3125 C235.3125 207.3125 235.9531 207.9844 235.9531 209.4531 C235.9531 210.9375 235.3125 211.6875 234.3438 211.6875 ZM236.5312 203.0781 C233.3438 203.4531 231.5625 205.7656 231.5625 208.4531 C231.5625 210.7812 232.6094 212.1719 234.3125 212.1719 C235.8438 212.1719 236.9219 211.1094 236.9219 209.2812 C236.9219 207.6875 235.9688 206.6562 234.5625 206.6562 C233.8281 206.6562 233.1406 206.9844 232.5781 207.5781 C232.7969 205.4062 234.0781 203.9688 236.5938 203.3906 L236.5312 203.0781 Z"
      /><rect x="192" y="110" width="8" style="fill:white; stroke:none;" height="8"
      /><path style="stroke:none;" d="M196.9844 115.7031 C196.9375 116.8906 196.1562 117.6562 195.3125 117.6562 C194.2656 117.6562 193.5 116.6875 193.5 114.7188 C193.5 113.2812 194.1562 112.1562 195.3438 112.1562 C196.1406 112.1562 196.7812 112.6875 197.0938 113.6406 L196.9844 115.7031 ZM198.9062 117.2812 C198.7344 117.375 198.5469 117.4219 198.3438 117.4219 C197.9531 117.4219 197.75 117.2188 197.75 116.4219 C197.75 115.4844 197.9688 113.5312 198.1875 111.8281 L198.0312 111.7188 L197.2344 111.9219 L197.1406 112.7969 C196.7812 112.0312 196.1562 111.6562 195.3906 111.6562 C194.0469 111.6562 192.5625 112.8438 192.5625 114.9531 C192.5625 117.0938 193.7188 118.1719 195.1406 118.1719 C196.0156 118.1719 196.6875 117.8125 197.0938 116.9844 C197.2031 117.8594 197.5156 118.1719 198.0156 118.1719 C198.4688 118.1719 198.7969 117.9062 199.0156 117.5625 L198.9062 117.2812 Z"
      /><rect x="278" y="226" width="7" style="fill:white; stroke:none;" height="9"
      /><path style="stroke:none;" d="M279 231.5156 L281.9531 227.2656 L281.9531 231.5156 L279 231.5156 ZM284.2812 231.5156 L282.8594 231.5156 L282.8594 226.125 L282.2344 226.125 L278.3438 231.6406 L278.3438 232.1875 L281.9531 232.1875 L281.9531 235 L282.8594 235 L282.8594 232.1875 L284.2812 232.1875 L284.2812 231.5156 Z"
      /><rect x="265" y="224" width="6" style="fill:white; stroke:none;" height="13"
      /><path style="stroke:none;" d="M267.0938 230.2031 C267.0938 228.6562 267.75 227.8125 268.7969 227.8125 C269.7188 227.8125 270.2656 228.4531 270.2656 229.5156 C270.2656 230.7188 269.5 231.4375 268.1875 231.7031 L268.2969 232.3125 C270.2188 232.2344 270.9375 233.2188 270.9375 234.4375 C270.9375 235.625 270.2344 236.4219 268.9531 236.4219 C268.25 236.4219 267.6562 236.1562 267.0938 235.7188 L267.0938 230.2031 ZM266.2031 236.9062 L266.1094 239.375 L266.2656 239.4844 L267.1562 239.2656 L267.0156 236.0938 C267.5469 236.8438 268.3594 237.1719 269.1719 237.1719 C270.5625 237.1719 271.8594 236.2188 271.8594 234.4844 C271.8594 232.9531 270.875 232.1094 269.125 232 C270.5625 231.6094 271.1875 230.4531 271.1875 229.4844 C271.1875 228.0938 270.1562 227.3125 268.9062 227.3125 C267.2969 227.3125 266.2188 228.5469 266.2188 230.5156 L266.2031 236.9062 Z"
      /><polygon style="fill:white; clip-path:url(#clipPath19); stroke:none;" points=" 353 182 342 160 364 160"
      /><rect x="342" y="160" width="22" style="clip-path:url(#clipPath19); fill:rgb(237,28,36); stroke:none;" height="22"
      /><rect x="342" y="160" width="22" style="fill:none; clip-path:url(#clipPath19);" height="22"
      /><polygon style="fill:none;" points=" 353 182 342 160 364 160"
      /><rect x="330" y="226" width="7" style="fill:white; stroke:none;" height="9"
      /><path style="stroke:none;" d="M331 231.5156 L333.9531 227.2656 L333.9531 231.5156 L331 231.5156 ZM336.2812 231.5156 L334.8594 231.5156 L334.8594 226.125 L334.2344 226.125 L330.3438 231.6406 L330.3438 232.1875 L333.9531 232.1875 L333.9531 235 L334.8594 235 L334.8594 232.1875 L336.2812 232.1875 L336.2812 231.5156 Z"
      /><rect x="317" y="224" width="6" style="fill:white; stroke:none;" height="13"
      /><path style="stroke:none;" d="M319.0938 230.2031 C319.0938 228.6562 319.75 227.8125 320.7969 227.8125 C321.7188 227.8125 322.2656 228.4531 322.2656 229.5156 C322.2656 230.7188 321.5 231.4375 320.1875 231.7031 L320.2969 232.3125 C322.2188 232.2344 322.9375 233.2188 322.9375 234.4375 C322.9375 235.625 322.2344 236.4219 320.9531 236.4219 C320.25 236.4219 319.6562 236.1562 319.0938 235.7188 L319.0938 230.2031 ZM318.2031 236.9062 L318.1094 239.375 L318.2656 239.4844 L319.1562 239.2656 L319.0156 236.0938 C319.5469 236.8438 320.3594 237.1719 321.1719 237.1719 C322.5625 237.1719 323.8594 236.2188 323.8594 234.4844 C323.8594 232.9531 322.875 232.1094 321.125 232 C322.5625 231.6094 323.1875 230.4531 323.1875 229.4844 C323.1875 228.0938 322.1562 227.3125 320.9062 227.3125 C319.2969 227.3125 318.2188 228.5469 318.2188 230.5156 L318.2031 236.9062 Z"
      /><rect x="342" y="199" width="6" style="fill:white; stroke:none;" height="10"
      /><path style="stroke:none;" d="M345.3438 208.6875 C344.2031 208.6875 343.5312 207.5 343.5312 205.2969 C343.5312 205.2188 343.5312 205.125 343.5312 205.0469 C344.0938 204.5 344.7188 204.3125 345.3438 204.3125 C346.3125 204.3125 346.9531 204.9844 346.9531 206.4531 C346.9531 207.9375 346.3125 208.6875 345.3438 208.6875 ZM347.5312 200.0781 C344.3438 200.4531 342.5625 202.7656 342.5625 205.4531 C342.5625 207.7812 343.6094 209.1719 345.3125 209.1719 C346.8438 209.1719 347.9219 208.1094 347.9219 206.2812 C347.9219 204.6875 346.9688 203.6562 345.5625 203.6562 C344.8281 203.6562 344.1406 203.9844 343.5781 204.5781 C343.7969 202.4062 345.0781 200.9688 347.5938 200.3906 L347.5312 200.0781 Z"
      /><rect x="341" y="186" width="8" style="fill:white; stroke:none;" height="8"
      /><path style="stroke:none;" d="M345.9844 191.7031 C345.9375 192.8906 345.1562 193.6562 344.3125 193.6562 C343.2656 193.6562 342.5 192.6875 342.5 190.7188 C342.5 189.2812 343.1562 188.1562 344.3438 188.1562 C345.1406 188.1562 345.7812 188.6875 346.0938 189.6406 L345.9844 191.7031 ZM347.9062 193.2812 C347.7344 193.375 347.5469 193.4219 347.3438 193.4219 C346.9531 193.4219 346.75 193.2188 346.75 192.4219 C346.75 191.4844 346.9688 189.5312 347.1875 187.8281 L347.0312 187.7188 L346.2344 187.9219 L346.1406 188.7969 C345.7812 188.0312 345.1562 187.6562 344.3906 187.6562 C343.0469 187.6562 341.5625 188.8438 341.5625 190.9531 C341.5625 193.0938 342.7188 194.1719 344.1406 194.1719 C345.0156 194.1719 345.6875 193.8125 346.0938 192.9844 C346.2031 193.8594 346.5156 194.1719 347.0156 194.1719 C347.4688 194.1719 347.7969 193.9062 348.0156 193.5625 L347.9062 193.2812 Z"
      /><rect x="369" y="226" width="5" style="fill:white; stroke:none;" height="10"
      /><path style="stroke:none;" d="M370.8906 234.6875 C370.4844 234.6875 370.1562 235.0469 370.1562 235.4219 C370.1562 235.8125 370.4844 236.1562 370.8906 236.1562 C371.2969 236.1562 371.6406 235.8125 371.6406 235.4219 C371.6406 235.0469 371.2969 234.6875 370.8906 234.6875 ZM372.4688 228.5781 C372.7188 228.8906 372.875 229.2656 372.8906 229.6562 C372.8906 230.1875 372.625 230.5 372.0312 230.7656 L371.4062 231.0156 C370.6406 231.3125 370.3906 231.5469 370.3906 231.9375 C370.3906 232.1094 370.4531 232.3438 370.5781 232.8125 L370.7344 233.3438 L371.1094 233.3438 L371.0938 232.5312 C371.0938 232.0938 371.2031 231.9688 371.7812 231.7344 L372.2031 231.5625 C373.0312 231.2188 373.4531 230.6875 373.4531 229.8438 C373.4531 228.1562 371.6562 227.1875 370.5 227.0312 C370.1094 227.125 369.9062 227.2969 369.9062 227.6406 C369.9062 227.9375 370.0625 228.1562 370.7188 228.2656 L372.4688 228.5781 Z"
    /></g
  ></g
></svg
>
