<?xml version="1.0"?>
<!DOCTYPE svg PUBLIC '-//W3C//DTD SVG 1.0//EN'
          'http://www.w3.org/TR/2001/REC-SVG-20010904/DTD/svg10.dtd'>
<svg xmlns:xlink="http://www.w3.org/1999/xlink" style="fill-opacity:1; color-rendering:auto; color-interpolation:auto; text-rendering:auto; stroke:black; stroke-linecap:square; stroke-miterlimit:10; shape-rendering:auto; stroke-opacity:1; fill:black; stroke-dasharray:none; font-weight:normal; stroke-width:1; font-family:'Dialog'; font-style:normal; stroke-linejoin:miter; font-size:12px; stroke-dashoffset:0; image-rendering:auto;" viewBox="0 0 133 284" xmlns="http://www.w3.org/2000/svg"
><!--Generated by the Batik Graphics2D SVG Generator--><defs id="genericDefs"
  /><g
  ><defs id="defs1"
    ><clipPath clipPathUnits="userSpaceOnUse" id="clipPath1"
      ><path d="M59 220 C59 226.0751 54.0751 231 48 231 C41.9249 231 37 226.0751 37 220 C37 213.9249 41.9249 209 48 209 C54.0751 209 59 213.9249 59 220 Z"
      /></clipPath
      ><clipPath clipPathUnits="userSpaceOnUse" id="clipPath2"
      ><path d="M37 134 L59 134 L59 156 L37 156 L37 134 Z"
      /></clipPath
      ><clipPath clipPathUnits="userSpaceOnUse" id="clipPath3"
      ><path style="fill-rule:evenodd;" d="M48 82 L50 89 L58 89 L51 94 L54 101 L48 97 L41 101 L44 94 L37 89 L45 89 L48 82 Z"
      /></clipPath
    ></defs
    ><g style="fill:white; text-rendering:optimizeSpeed; stroke:white;"
    ><rect x="0" width="133" height="284" y="0" style="stroke:none;"
      /><circle style="clip-path:url(#clipPath1); stroke:none;" r="11" cx="48" cy="220"
      /><rect x="37" y="209" width="22" style="clip-path:url(#clipPath1); stroke:none;" height="22"
      /><rect x="37" y="209" width="22" style="clip-path:url(#clipPath1); fill:none; stroke:black;" height="22"
      /><circle style="fill:none; stroke:black;" r="11" cx="48" cy="220"
      /><rect x="31" y="237" width="32" style="stroke:none;" height="10"
    /></g
    ><g style="text-rendering:optimizeSpeed; font-size:14px; font-family:'SansSerif';"
    ><path style="stroke:none;" d="M34.7031 248.1875 C36.5156 248.1875 37.9844 247.0938 37.9844 245.25 C37.9844 243.8594 37.0156 242.9375 35.8125 242.6562 L35.8125 242.5938 C36.8906 242.1875 37.6406 241.3594 37.6406 240.125 C37.6406 238.5 36.375 237.5469 34.6562 237.5469 C33.4688 237.5469 32.5469 238.0625 31.7812 238.7812 L32.4688 239.5938 C33.0469 239 33.7656 238.5938 34.5938 238.5938 C35.6562 238.5938 36.3281 239.2344 36.3281 240.2188 C36.3281 241.3281 35.6094 242.1719 33.4844 242.1719 L33.4844 243.1562 C35.8594 243.1562 36.6875 243.9844 36.6875 245.2031 C36.6875 246.3906 35.8125 247.125 34.5938 247.125 C33.4375 247.125 32.6562 246.5781 32.0469 245.9375 L31.4062 246.7812 C32.0781 247.5156 33.0938 248.1875 34.7031 248.1875 ZM40.1762 248 L41.395 248 L41.395 242.6094 C41.395 241.5312 41.3012 240.4375 41.2543 239.4062 L41.3012 239.4062 L42.4106 241.5156 L46.145 248 L47.4731 248 L47.4731 237.7188 L46.2387 237.7188 L46.2387 243.0781 C46.2387 244.1406 46.3481 245.2812 46.4106 246.3125 L46.3481 246.3125 L45.2543 244.2031 L41.52 237.7188 L40.1762 237.7188 L40.1762 248 ZM52.0498 242.2656 C52.4248 241.0938 52.7529 239.9844 53.0811 238.7812 L53.1279 238.7812 C53.4717 239.9844 53.7842 241.0938 54.1748 242.2656 L54.6592 243.8281 L51.5498 243.8281 L52.0498 242.2656 ZM48.9248 248 L50.2373 248 L51.2373 244.8594 L54.9873 244.8594 L55.9561 248 L57.3311 248 L53.8467 237.7188 L52.4092 237.7188 L48.9248 248 ZM61.6572 248.1875 C62.5634 248.1875 63.4384 247.8281 64.1259 247.2188 L63.5634 246.3594 C63.0947 246.7969 62.4697 247.125 61.7665 247.125 C60.3759 247.125 59.4228 245.9531 59.4228 244.2031 C59.4228 242.4531 60.4228 241.2656 61.8134 241.2656 C62.4228 241.2656 62.8759 241.5469 63.329 241.9375 L63.9853 241.0938 C63.4384 240.625 62.7509 240.2031 61.7509 240.2031 C59.8134 240.2031 58.0947 241.6719 58.0947 244.2031 C58.0947 246.7188 59.6415 248.1875 61.6572 248.1875 Z"
      /><path style="stroke:none;" d="M42.5156 196.3594 C43.5781 196.3594 44.1094 197.1094 44.1094 198.2969 C44.1094 199.5 43.4531 200.2969 42.6094 200.2969 C41.5156 200.2969 40.8438 199.3125 40.7188 197.4844 C41.25 196.6875 41.9688 196.3594 42.5156 196.3594 ZM42.6094 201.1562 C43.9844 201.1562 45.125 200 45.125 198.2969 C45.125 196.4688 44.1875 195.5469 42.7031 195.5469 C42 195.5469 41.2344 195.9531 40.6875 196.6094 C40.7344 193.875 41.7656 192.9531 42.9531 192.9531 C43.5 192.9531 44.0312 193.2031 44.375 193.625 L44.9688 192.9375 C44.5 192.4219 43.8438 192.0312 42.9219 192.0312 C41.2188 192.0312 39.6719 193.3594 39.6719 196.7969 C39.6719 199.7031 40.9219 201.1562 42.6094 201.1562 ZM46.7694 201 L47.8632 201 L47.8632 196.2656 C48.4569 195.5938 49.0038 195.2812 49.5038 195.2812 C50.3319 195.2812 50.7069 195.7969 50.7069 197.0156 L50.7069 201 L51.8007 201 L51.8007 196.2656 C52.41 195.5938 52.9413 195.2812 53.4413 195.2812 C54.2694 195.2812 54.66 195.7969 54.66 197.0156 L54.66 201 L55.7538 201 L55.7538 196.875 C55.7538 195.2031 55.1132 194.3125 53.7694 194.3125 C52.9725 194.3125 52.3007 194.8281 51.6288 195.5625 C51.3632 194.7969 50.8163 194.3125 49.8163 194.3125 C49.0507 194.3125 48.3632 194.8125 47.8007 195.4375 L47.7538 195.4375 L47.66 194.4844 L46.7694 194.4844 L46.7694 201 Z"
    /></g
    ><g style="fill:white; text-rendering:optimizeSpeed; font-family:'Serif'; stroke:white;"
    ><rect x="70" width="5" height="10" y="207" style="stroke:none;"
      /><path d="M71.8906 215.6875 C71.4844 215.6875 71.1562 216.0469 71.1562 216.4219 C71.1562 216.8125 71.4844 217.1562 71.8906 217.1562 C72.2969 217.1562 72.6406 216.8125 72.6406 216.4219 C72.6406 216.0469 72.2969 215.6875 71.8906 215.6875 ZM73.4688 209.5781 C73.7188 209.8906 73.875 210.2656 73.8906 210.6562 C73.8906 211.1875 73.625 211.5 73.0312 211.7656 L72.4062 212.0156 C71.6406 212.3125 71.3906 212.5469 71.3906 212.9375 C71.3906 213.1094 71.4531 213.3438 71.5781 213.8125 L71.7344 214.3438 L72.1094 214.3438 L72.0938 213.5312 C72.0938 213.0938 72.2031 212.9688 72.7812 212.7344 L73.2031 212.5625 C74.0312 212.2188 74.4531 211.6875 74.4531 210.8438 C74.4531 209.1562 72.6562 208.1875 71.5 208.0312 C71.1094 208.125 70.9062 208.2969 70.9062 208.6406 C70.9062 208.9375 71.0625 209.1562 71.7188 209.2656 L73.4688 209.5781 Z" style="fill:black; stroke:none;"
      /><rect x="70" width="5" height="10" y="223" style="stroke:none;"
      /><path d="M71.8906 231.6875 C71.4844 231.6875 71.1562 232.0469 71.1562 232.4219 C71.1562 232.8125 71.4844 233.1562 71.8906 233.1562 C72.2969 233.1562 72.6406 232.8125 72.6406 232.4219 C72.6406 232.0469 72.2969 231.6875 71.8906 231.6875 ZM73.4688 225.5781 C73.7188 225.8906 73.875 226.2656 73.8906 226.6562 C73.8906 227.1875 73.625 227.5 73.0312 227.7656 L72.4062 228.0156 C71.6406 228.3125 71.3906 228.5469 71.3906 228.9375 C71.3906 229.1094 71.4531 229.3438 71.5781 229.8125 L71.7344 230.3438 L72.1094 230.3438 L72.0938 229.5312 C72.0938 229.0938 72.2031 228.9688 72.7812 228.7344 L73.2031 228.5625 C74.0312 228.2188 74.4531 227.6875 74.4531 226.8438 C74.4531 225.1562 72.6562 224.1875 71.5 224.0312 C71.1094 224.125 70.9062 224.2969 70.9062 224.6406 C70.9062 224.9375 71.0625 225.1562 71.7188 225.2656 L73.4688 225.5781 Z" style="fill:black; stroke:none;"
      /><rect x="37" y="134" width="22" style="clip-path:url(#clipPath2); stroke:none;" height="22"
      /><rect x="37" y="134" width="22" style="clip-path:url(#clipPath2); stroke:none;" height="22"
      /><rect x="37" y="134" width="22" style="clip-path:url(#clipPath2); fill:none; stroke:black;" height="22"
      /><rect x="37" y="134" width="22" style="fill:none; stroke:black;" height="22"
      /><rect x="64" width="5" height="10" y="132" style="stroke:none;"
      /><path d="M65.8906 140.6875 C65.4844 140.6875 65.1562 141.0469 65.1562 141.4219 C65.1562 141.8125 65.4844 142.1562 65.8906 142.1562 C66.2969 142.1562 66.6406 141.8125 66.6406 141.4219 C66.6406 141.0469 66.2969 140.6875 65.8906 140.6875 ZM67.4688 134.5781 C67.7188 134.8906 67.875 135.2656 67.8906 135.6562 C67.8906 136.1875 67.625 136.5 67.0312 136.7656 L66.4062 137.0156 C65.6406 137.3125 65.3906 137.5469 65.3906 137.9375 C65.3906 138.1094 65.4531 138.3438 65.5781 138.8125 L65.7344 139.3438 L66.1094 139.3438 L66.0938 138.5312 C66.0938 138.0938 66.2031 137.9688 66.7812 137.7344 L67.2031 137.5625 C68.0312 137.2188 68.4531 136.6875 68.4531 135.8438 C68.4531 134.1562 66.6562 133.1875 65.5 133.0312 C65.1094 133.125 64.9062 133.2969 64.9062 133.6406 C64.9062 133.9375 65.0625 134.1562 65.7188 134.2656 L67.4688 134.5781 Z" style="fill:black; stroke:none;"
      /><rect x="64" width="5" height="10" y="148" style="stroke:none;"
      /><path d="M65.8906 156.6875 C65.4844 156.6875 65.1562 157.0469 65.1562 157.4219 C65.1562 157.8125 65.4844 158.1562 65.8906 158.1562 C66.2969 158.1562 66.6406 157.8125 66.6406 157.4219 C66.6406 157.0469 66.2969 156.6875 65.8906 156.6875 ZM67.4688 150.5781 C67.7188 150.8906 67.875 151.2656 67.8906 151.6562 C67.8906 152.1875 67.625 152.5 67.0312 152.7656 L66.4062 153.0156 C65.6406 153.3125 65.3906 153.5469 65.3906 153.9375 C65.3906 154.1094 65.4531 154.3438 65.5781 154.8125 L65.7344 155.3438 L66.1094 155.3438 L66.0938 154.5312 C66.0938 154.0938 66.2031 153.9688 66.7812 153.7344 L67.2031 153.5625 C68.0312 153.2188 68.4531 152.6875 68.4531 151.8438 C68.4531 150.1562 66.6562 149.1875 65.5 149.0312 C65.1094 149.125 64.9062 149.2969 64.9062 149.6406 C64.9062 149.9375 65.0625 150.1562 65.7188 150.2656 L67.4688 150.5781 Z" style="fill:black; stroke:none;"
      /><polygon style="clip-path:url(#clipPath3); stroke:none;" points=" 48 82 50 89 58 89 51 94 54 101 48 97 41 101 44 94 37 89 45 89 48 82"
      /><rect x="37" y="82" width="22" style="clip-path:url(#clipPath3); stroke:none;" height="22"
      /><rect x="37" y="82" width="22" style="clip-path:url(#clipPath3); fill:none; stroke:black;" height="22"
      /><polygon style="fill:none; stroke:black;" points=" 48 82 50 89 58 89 51 94 54 101 48 97 41 101 44 94 37 89 45 89 48 82"
      /><rect x="64" width="5" height="10" y="80" style="stroke:none;"
      /><path d="M65.8906 88.6875 C65.4844 88.6875 65.1562 89.0469 65.1562 89.4219 C65.1562 89.8125 65.4844 90.1562 65.8906 90.1562 C66.2969 90.1562 66.6406 89.8125 66.6406 89.4219 C66.6406 89.0469 66.2969 88.6875 65.8906 88.6875 ZM67.4688 82.5781 C67.7188 82.8906 67.875 83.2656 67.8906 83.6562 C67.8906 84.1875 67.625 84.5 67.0312 84.7656 L66.4062 85.0156 C65.6406 85.3125 65.3906 85.5469 65.3906 85.9375 C65.3906 86.1094 65.4531 86.3438 65.5781 86.8125 L65.7344 87.3438 L66.1094 87.3438 L66.0938 86.5312 C66.0938 86.0938 66.2031 85.9688 66.7812 85.7344 L67.2031 85.5625 C68.0312 85.2188 68.4531 84.6875 68.4531 83.8438 C68.4531 82.1562 66.6562 81.1875 65.5 81.0312 C65.1094 81.125 64.9062 81.2969 64.9062 81.6406 C64.9062 81.9375 65.0625 82.1562 65.7188 82.2656 L67.4688 82.5781 Z" style="fill:black; stroke:none;"
      /><rect x="64" width="5" height="10" y="96" style="stroke:none;"
      /><path d="M65.8906 104.6875 C65.4844 104.6875 65.1562 105.0469 65.1562 105.4219 C65.1562 105.8125 65.4844 106.1562 65.8906 106.1562 C66.2969 106.1562 66.6406 105.8125 66.6406 105.4219 C66.6406 105.0469 66.2969 104.6875 65.8906 104.6875 ZM67.4688 98.5781 C67.7188 98.8906 67.875 99.2656 67.8906 99.6562 C67.8906 100.1875 67.625 100.5 67.0312 100.7656 L66.4062 101.0156 C65.6406 101.3125 65.3906 101.5469 65.3906 101.9375 C65.3906 102.1094 65.4531 102.3438 65.5781 102.8125 L65.7344 103.3438 L66.1094 103.3438 L66.0938 102.5312 C66.0938 102.0938 66.2031 101.9688 66.7812 101.7344 L67.2031 101.5625 C68.0312 101.2188 68.4531 100.6875 68.4531 99.8438 C68.4531 98.1562 66.6562 97.1875 65.5 97.0312 C65.1094 97.125 64.9062 97.2969 64.9062 97.6406 C64.9062 97.9375 65.0625 98.1562 65.7188 98.2656 L67.4688 98.5781 Z" style="fill:black; stroke:none;"
    /></g
    ><g style="text-rendering:optimizeSpeed; font-size:11px; font-family:'SansSerif';"
    ><path style="stroke:none;" d="M34.9531 42.5625 L35.8438 42.5625 C35.6562 40.8438 37.625 40.1875 37.625 38.5781 C37.625 37.375 36.8125 36.625 35.5781 36.625 C34.6875 36.625 33.9844 37.0469 33.4688 37.625 L34.0469 38.1562 C34.4375 37.7188 34.9062 37.4531 35.4688 37.4531 C36.25 37.4531 36.6562 37.9844 36.6562 38.6406 C36.6562 39.9531 34.7031 40.6562 34.9531 42.5625 ZM35.4375 45.1406 C35.8438 45.1406 36.1719 44.8281 36.1719 44.3906 C36.1719 43.9219 35.8438 43.6094 35.4375 43.6094 C35.0312 43.6094 34.7031 43.9219 34.7031 44.3906 C34.7031 44.8281 35.0312 45.1406 35.4375 45.1406 ZM40.9952 45 L42.0265 45 L42.0265 37.7969 L44.464 37.7969 L44.464 36.9219 L38.5577 36.9219 L38.5577 37.7969 L40.9952 37.7969 L40.9952 45 ZM48.2248 45.1406 C49.0373 45.1406 49.6779 44.875 50.2092 44.5312 L49.8342 43.8594 C49.3967 44.1562 48.9279 44.3438 48.3498 44.3438 C47.2092 44.3438 46.4279 43.5312 46.3654 42.25 L50.3967 42.25 C50.4123 42.1094 50.4279 41.8906 50.4279 41.6719 C50.4279 39.9688 49.5842 38.875 48.0529 38.875 C46.6779 38.875 45.3654 40.0781 45.3654 42.0156 C45.3654 43.9844 46.6467 45.1406 48.2248 45.1406 ZM46.3498 41.5312 C46.4748 40.3594 47.2248 39.6719 48.0685 39.6719 C49.006 39.6719 49.5529 40.3281 49.5529 41.5312 L46.3498 41.5312 ZM53.7875 45.1406 C54.1469 45.1406 54.5531 45.0312 54.8969 44.9219 L54.6937 44.1719 C54.4906 44.25 54.225 44.3281 54.0062 44.3281 C53.3187 44.3281 53.0844 43.9062 53.0844 43.1719 L53.0844 39.8438 L54.7094 39.8438 L54.7094 39.0312 L53.0844 39.0312 L53.0844 37.3438 L52.2562 37.3438 L52.1312 39.0312 L51.1937 39.0781 L51.1937 39.8438 L52.0844 39.8438 L52.0844 43.1562 C52.0844 44.3438 52.5062 45.1406 53.7875 45.1406 Z"
    /></g
  ></g
></svg
>
