<?xml version="1.0"?>
<!DOCTYPE svg PUBLIC '-//W3C//DTD SVG 1.0//EN'
          'http://www.w3.org/TR/2001/REC-SVG-20010904/DTD/svg10.dtd'>
<svg xmlns:xlink="http://www.w3.org/1999/xlink" style="fill-opacity:1; color-rendering:auto; color-interpolation:auto; text-rendering:auto; stroke:black; stroke-linecap:square; stroke-miterlimit:10; shape-rendering:auto; stroke-opacity:1; fill:black; stroke-dasharray:none; font-weight:normal; stroke-width:1; font-family:'Dialog'; font-style:normal; stroke-linejoin:miter; font-size:12px; stroke-dashoffset:0; image-rendering:auto;" viewBox="0 0 207 313" xmlns="http://www.w3.org/2000/svg"
><!--Generated by the Batik Graphics2D SVG Generator--><defs id="genericDefs"
  /><g
  ><defs id="defs1"
    ><clipPath clipPathUnits="userSpaceOnUse" id="clipPath1"
      ><path style="fill-rule:evenodd;" d="M92 261 L103 272 L92 283 L81 272 Z"
      /></clipPath
      ><clipPath clipPathUnits="userSpaceOnUse" id="clipPath2"
      ><path d="M81 209 L103 209 L103 231 L81 231 L81 209 Z"
      /></clipPath
      ><clipPath clipPathUnits="userSpaceOnUse" id="clipPath3"
      ><path d="M103 168 C103 174.0751 98.0751 179 92 179 C85.9249 179 81 174.0751 81 168 C81 161.9249 85.9249 157 92 157 C98.0751 157 103 161.9249 103 168 Z"
      /></clipPath
      ><clipPath clipPathUnits="userSpaceOnUse" id="clipPath4"
      ><path d="M103 116 C103 122.0751 98.0751 127 92 127 C85.9249 127 81 122.0751 81 116 C81 109.9249 85.9249 105 92 105 C98.0751 105 103 109.9249 103 116 Z"
      /></clipPath
      ><clipPath clipPathUnits="userSpaceOnUse" id="clipPath5"
      ><path d="M103 41 C103 47.0751 98.0751 52 92 52 C85.9249 52 81 47.0751 81 41 C81 34.9249 85.9249 30 92 30 C98.0751 30 103 34.9249 103 41 Z"
      /></clipPath
    ></defs
    ><g style="fill:white; text-rendering:optimizeSpeed; stroke:white;"
    ><rect x="0" width="207" height="313" y="0" style="stroke:none;"
      /><polygon style="clip-path:url(#clipPath1); stroke:none;" points=" 92 261 103 272 92 283 81 272"
      /><rect x="81" y="261" width="22" style="clip-path:url(#clipPath1); fill:rgb(165,67,153); stroke:none;" height="22"
      /><rect x="81" y="261" width="22" style="clip-path:url(#clipPath1); fill:none; stroke:black;" height="22"
      /><polygon style="fill:none; stroke:black;" points=" 92 261 103 272 92 283 81 272"
      /><rect x="108" y="259" width="5" style="stroke:none;" height="10"
    /></g
    ><g style="font-family:'Serif'; text-rendering:optimizeSpeed; "
    ><path style="stroke:none;" d="M109.8906 267.6875 C109.4844 267.6875 109.1562 268.0469 109.1562 268.4219 C109.1562 268.8125 109.4844 269.1562 109.8906 269.1562 C110.2969 269.1562 110.6406 268.8125 110.6406 268.4219 C110.6406 268.0469 110.2969 267.6875 109.8906 267.6875 ZM111.4688 261.5781 C111.7188 261.8906 111.875 262.2656 111.8906 262.6562 C111.8906 263.1875 111.625 263.5 111.0312 263.7656 L110.4062 264.0156 C109.6406 264.3125 109.3906 264.5469 109.3906 264.9375 C109.3906 265.1094 109.4531 265.3438 109.5781 265.8125 L109.7344 266.3438 L110.1094 266.3438 L110.0938 265.5312 C110.0938 265.0938 110.2031 264.9688 110.7812 264.7344 L111.2031 264.5625 C112.0312 264.2188 112.4531 263.6875 112.4531 262.8438 C112.4531 261.1562 110.6562 260.1875 109.5 260.0312 C109.1094 260.125 108.9062 260.2969 108.9062 260.6406 C108.9062 260.9375 109.0625 261.1562 109.7188 261.2656 L111.4688 261.5781 Z"
      /><rect x="108" y="275" width="5" style="fill:white; stroke:none;" height="10"
      /><path style="stroke:none;" d="M109.8906 283.6875 C109.4844 283.6875 109.1562 284.0469 109.1562 284.4219 C109.1562 284.8125 109.4844 285.1562 109.8906 285.1562 C110.2969 285.1562 110.6406 284.8125 110.6406 284.4219 C110.6406 284.0469 110.2969 283.6875 109.8906 283.6875 ZM111.4688 277.5781 C111.7188 277.8906 111.875 278.2656 111.8906 278.6562 C111.8906 279.1875 111.625 279.5 111.0312 279.7656 L110.4062 280.0156 C109.6406 280.3125 109.3906 280.5469 109.3906 280.9375 C109.3906 281.1094 109.4531 281.3438 109.5781 281.8125 L109.7344 282.3438 L110.1094 282.3438 L110.0938 281.5312 C110.0938 281.0938 110.2031 280.9688 110.7812 280.7344 L111.2031 280.5625 C112.0312 280.2188 112.4531 279.6875 112.4531 278.8438 C112.4531 277.1562 110.6562 276.1875 109.5 276.0312 C109.1094 276.125 108.9062 276.2969 108.9062 276.6406 C108.9062 276.9375 109.0625 277.1562 109.7188 277.2656 L111.4688 277.5781 Z"
      /><path style="stroke:none;" d="M66.6562 277.1875 C68.3906 277.1875 70.0156 275.9062 70.0156 273.6562 C70.0156 271.4062 68.625 270.3906 66.9219 270.3906 C66.2969 270.3906 65.8594 270.5469 65.3906 270.7969 L65.6406 267.8281 L69.5312 267.8281 L69.5312 266.7188 L64.5312 266.7188 L64.2031 271.5469 L64.8906 271.9531 C65.4844 271.5625 65.9062 271.3594 66.5938 271.3594 C67.8906 271.3594 68.7188 272.2188 68.7188 273.7031 C68.7188 275.1875 67.75 276.125 66.5469 276.125 C65.3594 276.125 64.6094 275.5781 64.0156 274.9844 L63.3906 275.8281 C64.0781 276.5156 65.0625 277.1875 66.6562 277.1875 ZM70.9731 277 L72.3168 277 L73.3481 275.2188 C73.6137 274.7656 73.8637 274.2969 74.1293 273.8594 L74.2075 273.8594 C74.4731 274.2969 74.7543 274.7656 75.0043 275.2188 L76.1293 277 L77.5356 277 L75.02 273.1562 L77.3325 269.3906 L76.0043 269.3906 L75.0668 271.0625 C74.8481 271.5 74.6137 271.9219 74.3793 272.3438 L74.3325 272.3438 C74.0668 271.9219 73.8012 271.5 73.5668 271.0625 L72.5512 269.3906 L71.1762 269.3906 L73.4887 273.0312 L70.9731 277 Z"
    /></g
    ><g style="fill:white; text-rendering:optimizeSpeed; font-size:14px; font-family:'SansSerif'; stroke:white;"
    ><rect x="81" y="209" width="22" style="clip-path:url(#clipPath2); stroke:none;" height="22"
      /><polygon style="fill:rgb(0,144,188); clip-path:url(#clipPath2); stroke:none;" points=" 81 209 103 209 103 231"
      /><polygon style="fill:none; clip-path:url(#clipPath2); stroke:black;" points=" 81 209 103 209 103 231"
      /><rect x="81" y="209" width="22" style="fill:none; stroke:black;" height="22"
      /><rect x="108" width="5" height="10" y="207" style="stroke:none;"
    /></g
    ><g style="font-family:'Serif'; text-rendering:optimizeSpeed; "
    ><path style="stroke:none;" d="M109.8906 215.6875 C109.4844 215.6875 109.1562 216.0469 109.1562 216.4219 C109.1562 216.8125 109.4844 217.1562 109.8906 217.1562 C110.2969 217.1562 110.6406 216.8125 110.6406 216.4219 C110.6406 216.0469 110.2969 215.6875 109.8906 215.6875 ZM111.4688 209.5781 C111.7188 209.8906 111.875 210.2656 111.8906 210.6562 C111.8906 211.1875 111.625 211.5 111.0312 211.7656 L110.4062 212.0156 C109.6406 212.3125 109.3906 212.5469 109.3906 212.9375 C109.3906 213.1094 109.4531 213.3438 109.5781 213.8125 L109.7344 214.3438 L110.1094 214.3438 L110.0938 213.5312 C110.0938 213.0938 110.2031 212.9688 110.7812 212.7344 L111.2031 212.5625 C112.0312 212.2188 112.4531 211.6875 112.4531 210.8438 C112.4531 209.1562 110.6562 208.1875 109.5 208.0312 C109.1094 208.125 108.9062 208.2969 108.9062 208.6406 C108.9062 208.9375 109.0625 209.1562 109.7188 209.2656 L111.4688 209.5781 Z"
      /><rect x="108" y="223" width="5" style="fill:white; stroke:none;" height="10"
      /><path style="stroke:none;" d="M109.8906 231.6875 C109.4844 231.6875 109.1562 232.0469 109.1562 232.4219 C109.1562 232.8125 109.4844 233.1562 109.8906 233.1562 C110.2969 233.1562 110.6406 232.8125 110.6406 232.4219 C110.6406 232.0469 110.2969 231.6875 109.8906 231.6875 ZM111.4688 225.5781 C111.7188 225.8906 111.875 226.2656 111.8906 226.6562 C111.8906 227.1875 111.625 227.5 111.0312 227.7656 L110.4062 228.0156 C109.6406 228.3125 109.3906 228.5469 109.3906 228.9375 C109.3906 229.1094 109.4531 229.3438 109.5781 229.8125 L109.7344 230.3438 L110.1094 230.3438 L110.0938 229.5312 C110.0938 229.0938 110.2031 228.9688 110.7812 228.7344 L111.2031 228.5625 C112.0312 228.2188 112.4531 227.6875 112.4531 226.8438 C112.4531 225.1562 110.6562 224.1875 109.5 224.0312 C109.1094 224.125 108.9062 224.2969 108.9062 224.6406 C108.9062 224.9375 109.0625 225.1562 109.7188 225.2656 L111.4688 225.5781 Z"
      /><path style="stroke:none;" d="M64.6094 220.1562 L66.9531 216.6562 C67.2344 216.1406 67.5156 215.6406 67.7812 215.1406 L67.8281 215.1406 C67.7969 215.6719 67.7656 216.5 67.7656 217 L67.7656 220.1562 L64.6094 220.1562 ZM67.7656 224 L68.9688 224 L68.9688 221.1719 L70.3281 221.1719 L70.3281 220.1562 L68.9688 220.1562 L68.9688 213.7188 L67.5469 213.7188 L63.2812 220.3281 L63.2812 221.1719 L67.7656 221.1719 L67.7656 224 ZM70.9731 224 L72.3168 224 L73.3481 222.2188 C73.6137 221.7656 73.8637 221.2969 74.1293 220.8594 L74.2075 220.8594 C74.4731 221.2969 74.7543 221.7656 75.0043 222.2188 L76.1293 224 L77.5356 224 L75.02 220.1562 L77.3325 216.3906 L76.0043 216.3906 L75.0668 218.0625 C74.8481 218.5 74.6137 218.9219 74.3793 219.3438 L74.3325 219.3438 C74.0668 218.9219 73.8012 218.5 73.5668 218.0625 L72.5512 216.3906 L71.1762 216.3906 L73.4887 220.0312 L70.9731 224 Z"
    /></g
    ><g style="fill:white; text-rendering:optimizeSpeed; font-size:14px; font-family:'SansSerif'; stroke:white;"
    ><circle r="11" style="clip-path:url(#clipPath3); stroke:none;" cx="92" cy="168"
      /><rect x="81" y="157" width="22" style="clip-path:url(#clipPath3); fill:rgb(0,144,188); stroke:none;" height="22"
      /><rect x="81" y="157" width="22" style="clip-path:url(#clipPath3); fill:none; stroke:black;" height="22"
      /><circle r="11" style="fill:none; stroke:black;" cx="92" cy="168"
      /><rect x="108" width="5" height="10" y="155" style="stroke:none;"
    /></g
    ><g style="font-family:'Serif'; text-rendering:optimizeSpeed; "
    ><path style="stroke:none;" d="M109.8906 163.6875 C109.4844 163.6875 109.1562 164.0469 109.1562 164.4219 C109.1562 164.8125 109.4844 165.1562 109.8906 165.1562 C110.2969 165.1562 110.6406 164.8125 110.6406 164.4219 C110.6406 164.0469 110.2969 163.6875 109.8906 163.6875 ZM111.4688 157.5781 C111.7188 157.8906 111.875 158.2656 111.8906 158.6562 C111.8906 159.1875 111.625 159.5 111.0312 159.7656 L110.4062 160.0156 C109.6406 160.3125 109.3906 160.5469 109.3906 160.9375 C109.3906 161.1094 109.4531 161.3438 109.5781 161.8125 L109.7344 162.3438 L110.1094 162.3438 L110.0938 161.5312 C110.0938 161.0938 110.2031 160.9688 110.7812 160.7344 L111.2031 160.5625 C112.0312 160.2188 112.4531 159.6875 112.4531 158.8438 C112.4531 157.1562 110.6562 156.1875 109.5 156.0312 C109.1094 156.125 108.9062 156.2969 108.9062 156.6406 C108.9062 156.9375 109.0625 157.1562 109.7188 157.2656 L111.4688 157.5781 Z"
      /><rect x="108" y="171" width="5" style="fill:white; stroke:none;" height="10"
      /><path style="stroke:none;" d="M109.8906 179.6875 C109.4844 179.6875 109.1562 180.0469 109.1562 180.4219 C109.1562 180.8125 109.4844 181.1562 109.8906 181.1562 C110.2969 181.1562 110.6406 180.8125 110.6406 180.4219 C110.6406 180.0469 110.2969 179.6875 109.8906 179.6875 ZM111.4688 173.5781 C111.7188 173.8906 111.875 174.2656 111.8906 174.6562 C111.8906 175.1875 111.625 175.5 111.0312 175.7656 L110.4062 176.0156 C109.6406 176.3125 109.3906 176.5469 109.3906 176.9375 C109.3906 177.1094 109.4531 177.3438 109.5781 177.8125 L109.7344 178.3438 L110.1094 178.3438 L110.0938 177.5312 C110.0938 177.0938 110.2031 176.9688 110.7812 176.7344 L111.2031 176.5625 C112.0312 176.2188 112.4531 175.6875 112.4531 174.8438 C112.4531 173.1562 110.6562 172.1875 109.5 172.0312 C109.1094 172.125 108.9062 172.2969 108.9062 172.6406 C108.9062 172.9375 109.0625 173.1562 109.7188 173.2656 L111.4688 173.5781 Z"
      /><path style="stroke:none;" d="M66.6562 173.1875 C68.3906 173.1875 70.0156 171.9062 70.0156 169.6562 C70.0156 167.4062 68.625 166.3906 66.9219 166.3906 C66.2969 166.3906 65.8594 166.5469 65.3906 166.7969 L65.6406 163.8281 L69.5312 163.8281 L69.5312 162.7188 L64.5312 162.7188 L64.2031 167.5469 L64.8906 167.9531 C65.4844 167.5625 65.9062 167.3594 66.5938 167.3594 C67.8906 167.3594 68.7188 168.2188 68.7188 169.7031 C68.7188 171.1875 67.75 172.125 66.5469 172.125 C65.3594 172.125 64.6094 171.5781 64.0156 170.9844 L63.3906 171.8281 C64.0781 172.5156 65.0625 173.1875 66.6562 173.1875 ZM70.9731 173 L72.3168 173 L73.3481 171.2188 C73.6137 170.7656 73.8637 170.2969 74.1293 169.8594 L74.2075 169.8594 C74.4731 170.2969 74.7543 170.7656 75.0043 171.2188 L76.1293 173 L77.5356 173 L75.02 169.1562 L77.3325 165.3906 L76.0043 165.3906 L75.0668 167.0625 C74.8481 167.5 74.6137 167.9219 74.3793 168.3438 L74.3325 168.3438 C74.0668 167.9219 73.8012 167.5 73.5668 167.0625 L72.5512 165.3906 L71.1762 165.3906 L73.4887 169.0312 L70.9731 173 Z"
    /></g
    ><g style="fill:white; text-rendering:optimizeSpeed; font-size:14px; font-family:'SansSerif'; stroke:white;"
    ><circle r="11" style="clip-path:url(#clipPath4); stroke:none;" cx="92" cy="116"
      /><rect x="81" y="105" width="22" style="clip-path:url(#clipPath4); fill:rgb(0,166,81); stroke:none;" height="22"
      /><rect x="81" y="105" width="22" style="clip-path:url(#clipPath4); fill:none; stroke:black;" height="22"
      /><circle r="11" style="fill:none; stroke:black;" cx="92" cy="116"
      /><rect x="55" width="73" height="14" y="85" style="stroke:none;"
      /><path d="M55.6094 100 L62.0625 100 L62.0625 98.8906 L59.2344 98.8906 C58.7031 98.8906 58.0781 98.9531 57.5469 98.9844 C59.9531 96.7031 61.5625 94.625 61.5625 92.5781 C61.5625 90.75 60.4219 89.5469 58.5781 89.5469 C57.2812 89.5469 56.4062 90.1406 55.5625 91.0469 L56.2969 91.7812 C56.8594 91.1094 57.5938 90.5938 58.4375 90.5938 C59.7031 90.5938 60.3125 91.4531 60.3125 92.625 C60.3125 94.3906 58.8438 96.4375 55.6094 99.25 L55.6094 100 ZM63.8168 102.6562 C65.0825 102.125 65.8637 101.0781 65.8637 99.7344 C65.8637 98.7969 65.4575 98.2188 64.7856 98.2188 C64.27 98.2188 63.8168 98.5781 63.8168 99.125 C63.8168 99.7031 64.27 100.0156 64.7543 100.0156 C64.8168 100.0156 64.8637 100.0156 64.9106 100 C64.9106 100.8281 64.395 101.5156 63.5043 101.9062 L63.8168 102.6562 ZM70.3182 100.1875 C72.0526 100.1875 73.6776 98.9062 73.6776 96.6562 C73.6776 94.4062 72.287 93.3906 70.5838 93.3906 C69.9588 93.3906 69.5213 93.5469 69.0526 93.7969 L69.3026 90.8281 L73.1932 90.8281 L73.1932 89.7188 L68.1932 89.7188 L67.8651 94.5469 L68.5526 94.9531 C69.1463 94.5625 69.5682 94.3594 70.2557 94.3594 C71.5526 94.3594 72.3807 95.2188 72.3807 96.7031 C72.3807 98.1875 71.412 99.125 70.2088 99.125 C69.0213 99.125 68.2713 98.5781 67.6776 97.9844 L67.0526 98.8281 C67.7401 99.5156 68.7245 100.1875 70.3182 100.1875 ZM77.6038 94.2656 C77.9788 93.0938 78.3069 91.9844 78.6351 90.7812 L78.6819 90.7812 C79.0257 91.9844 79.3382 93.0938 79.7288 94.2656 L80.2132 95.8281 L77.1038 95.8281 L77.6038 94.2656 ZM74.4788 100 L75.7913 100 L76.7913 96.8594 L80.5413 96.8594 L81.5101 100 L82.8851 100 L79.4007 89.7188 L77.9632 89.7188 L74.4788 100 ZM84.2112 100 L85.4924 100 L85.4924 94.4844 C86.258 93.7188 86.7893 93.3281 87.5705 93.3281 C88.5862 93.3281 89.0237 93.9219 89.0237 95.3594 L89.0237 100 L90.2893 100 L90.2893 95.1875 C90.2893 93.2344 89.5705 92.2031 87.9768 92.2031 C86.9299 92.2031 86.1487 92.7812 85.4143 93.4844 L85.383 93.4844 L85.2737 92.3906 L84.2112 92.3906 L84.2112 100 ZM92.7651 100 L94.0464 100 L94.0464 94.4844 C94.812 93.7188 95.3432 93.3281 96.1245 93.3281 C97.1401 93.3281 97.5776 93.9219 97.5776 95.3594 L97.5776 100 L98.8432 100 L98.8432 95.1875 C98.8432 93.2344 98.1245 92.2031 96.5307 92.2031 C95.4839 92.2031 94.7026 92.7812 93.9995 93.4688 L94.0464 91.9062 L94.0464 88.8594 L92.7651 88.8594 L92.7651 100 ZM101.3881 103.2812 C102.9037 103.2812 103.7006 102.125 104.2162 100.625 L107.0912 92.3906 L105.8412 92.3906 L104.4975 96.625 C104.2787 97.2969 104.06 98.0625 103.8412 98.75 L103.7787 98.75 C103.5443 98.0625 103.2787 97.2812 103.0443 96.625 L101.4975 92.3906 L100.1693 92.3906 L103.2162 100.0156 L103.0443 100.5938 C102.7475 101.5312 102.2006 102.2188 101.3256 102.2188 C101.1225 102.2188 100.9037 102.1562 100.7475 102.0938 L100.4975 103.125 C100.7318 103.2188 101.0287 103.2812 101.3881 103.2812 ZM111.1508 100.1875 C112.0571 100.1875 112.8696 99.6875 113.4633 99.1094 L113.5102 99.1094 L113.6196 100 L114.6508 100 L114.6508 88.8594 L113.4008 88.8594 L113.4008 91.7812 L113.4477 93.0938 C112.7758 92.5312 112.1977 92.2031 111.3071 92.2031 C109.5727 92.2031 108.0102 93.7344 108.0102 96.2031 C108.0102 98.7344 109.2446 100.1875 111.1508 100.1875 ZM111.4321 99.125 C110.0883 99.125 109.3383 98.0312 109.3383 96.1875 C109.3383 94.4531 110.3071 93.2812 111.5258 93.2812 C112.1664 93.2812 112.7289 93.5 113.4008 94.0781 L113.4008 98.0625 C112.7446 98.7656 112.1352 99.125 111.4321 99.125 ZM117.237 100 L118.5183 100 L118.5183 95.1094 C119.0183 93.8125 119.7995 93.3594 120.4402 93.3594 C120.737 93.3594 120.9245 93.3906 121.1745 93.4844 L121.4089 92.375 C121.1745 92.25 120.9402 92.2031 120.5964 92.2031 C119.7527 92.2031 118.987 92.8125 118.4402 93.7812 L118.4089 93.7812 L118.2995 92.3906 L117.237 92.3906 L117.237 100 ZM125.6221 100.1875 C127.4971 100.1875 129.1534 98.7188 129.1534 96.2031 C129.1534 93.6719 127.4971 92.2031 125.6221 92.2031 C123.7628 92.2031 122.1065 93.6719 122.1065 96.2031 C122.1065 98.7188 123.7628 100.1875 125.6221 100.1875 ZM125.6221 99.125 C124.3096 99.125 123.4346 97.9531 123.4346 96.2031 C123.4346 94.4531 124.3096 93.2656 125.6221 93.2656 C126.9503 93.2656 127.8409 94.4531 127.8409 96.2031 C127.8409 97.9531 126.9503 99.125 125.6221 99.125 Z" style="fill:black; stroke:none;"
      /><rect x="135" width="5" height="10" y="103" style="stroke:none;"
    /></g
    ><g style="font-family:'Serif'; text-rendering:optimizeSpeed; "
    ><path style="stroke:none;" d="M136.8906 111.6875 C136.4844 111.6875 136.1562 112.0469 136.1562 112.4219 C136.1562 112.8125 136.4844 113.1562 136.8906 113.1562 C137.2969 113.1562 137.6406 112.8125 137.6406 112.4219 C137.6406 112.0469 137.2969 111.6875 136.8906 111.6875 ZM138.4688 105.5781 C138.7188 105.8906 138.875 106.2656 138.8906 106.6562 C138.8906 107.1875 138.625 107.5 138.0312 107.7656 L137.4062 108.0156 C136.6406 108.3125 136.3906 108.5469 136.3906 108.9375 C136.3906 109.1094 136.4531 109.3438 136.5781 109.8125 L136.7344 110.3438 L137.1094 110.3438 L137.0938 109.5312 C137.0938 109.0938 137.2031 108.9688 137.7812 108.7344 L138.2031 108.5625 C139.0312 108.2188 139.4531 107.6875 139.4531 106.8438 C139.4531 105.1562 137.6562 104.1875 136.5 104.0312 C136.1094 104.125 135.9062 104.2969 135.9062 104.6406 C135.9062 104.9375 136.0625 105.1562 136.7188 105.2656 L138.4688 105.5781 Z"
      /><rect x="135" y="119" width="5" style="fill:white; stroke:none;" height="10"
      /><path style="stroke:none;" d="M136.8906 127.6875 C136.4844 127.6875 136.1562 128.0469 136.1562 128.4219 C136.1562 128.8125 136.4844 129.1562 136.8906 129.1562 C137.2969 129.1562 137.6406 128.8125 137.6406 128.4219 C137.6406 128.0469 137.2969 127.6875 136.8906 127.6875 ZM138.4688 121.5781 C138.7188 121.8906 138.875 122.2656 138.8906 122.6562 C138.8906 123.1875 138.625 123.5 138.0312 123.7656 L137.4062 124.0156 C136.6406 124.3125 136.3906 124.5469 136.3906 124.9375 C136.3906 125.1094 136.4531 125.3438 136.5781 125.8125 L136.7344 126.3438 L137.1094 126.3438 L137.0938 125.5312 C137.0938 125.0938 137.2031 124.9688 137.7812 124.7344 L138.2031 124.5625 C139.0312 124.2188 139.4531 123.6875 139.4531 122.8438 C139.4531 121.1562 137.6562 120.1875 136.5 120.0312 C136.1094 120.125 135.9062 120.2969 135.9062 120.6406 C135.9062 120.9375 136.0625 121.1562 136.7188 121.2656 L138.4688 121.5781 Z"
    /></g
    ><g style="fill:white; text-rendering:optimizeSpeed; font-size:14px; font-family:'SansSerif'; stroke:white;"
    ><circle r="11" style="clip-path:url(#clipPath5); stroke:none;" cx="92" cy="41"
      /><rect x="81" y="30" width="22" style="clip-path:url(#clipPath5); fill:rgb(255,212,0); stroke:none;" height="22"
      /><rect x="81" y="30" width="22" style="clip-path:url(#clipPath5); fill:none; stroke:black;" height="22"
      /><circle r="11" style="fill:none; stroke:black;" cx="92" cy="41"
      /><rect x="108" width="5" height="10" y="28" style="stroke:none;"
    /></g
    ><g style="font-family:'Serif'; text-rendering:optimizeSpeed; "
    ><path style="stroke:none;" d="M109.8906 36.6875 C109.4844 36.6875 109.1562 37.0469 109.1562 37.4219 C109.1562 37.8125 109.4844 38.1562 109.8906 38.1562 C110.2969 38.1562 110.6406 37.8125 110.6406 37.4219 C110.6406 37.0469 110.2969 36.6875 109.8906 36.6875 ZM111.4688 30.5781 C111.7188 30.8906 111.875 31.2656 111.8906 31.6562 C111.8906 32.1875 111.625 32.5 111.0312 32.7656 L110.4062 33.0156 C109.6406 33.3125 109.3906 33.5469 109.3906 33.9375 C109.3906 34.1094 109.4531 34.3438 109.5781 34.8125 L109.7344 35.3438 L110.1094 35.3438 L110.0938 34.5312 C110.0938 34.0938 110.2031 33.9688 110.7812 33.7344 L111.2031 33.5625 C112.0312 33.2188 112.4531 32.6875 112.4531 31.8438 C112.4531 30.1562 110.6562 29.1875 109.5 29.0312 C109.1094 29.125 108.9062 29.2969 108.9062 29.6406 C108.9062 29.9375 109.0625 30.1562 109.7188 30.2656 L111.4688 30.5781 Z"
      /><rect x="108" y="44" width="5" style="fill:white; stroke:none;" height="10"
      /><path style="stroke:none;" d="M109.8906 52.6875 C109.4844 52.6875 109.1562 53.0469 109.1562 53.4219 C109.1562 53.8125 109.4844 54.1562 109.8906 54.1562 C110.2969 54.1562 110.6406 53.8125 110.6406 53.4219 C110.6406 53.0469 110.2969 52.6875 109.8906 52.6875 ZM111.4688 46.5781 C111.7188 46.8906 111.875 47.2656 111.8906 47.6562 C111.8906 48.1875 111.625 48.5 111.0312 48.7656 L110.4062 49.0156 C109.6406 49.3125 109.3906 49.5469 109.3906 49.9375 C109.3906 50.1094 109.4531 50.3438 109.5781 50.8125 L109.7344 51.3438 L110.1094 51.3438 L110.0938 50.5312 C110.0938 50.0938 110.2031 49.9688 110.7812 49.7344 L111.2031 49.5625 C112.0312 49.2188 112.4531 48.6875 112.4531 47.8438 C112.4531 46.1562 110.6562 45.1875 109.5 45.0312 C109.1094 45.125 108.9062 45.2969 108.9062 45.6406 C108.9062 45.9375 109.0625 46.1562 109.7188 46.2656 L111.4688 46.5781 Z"
      /><path style="stroke:none;" d="M57.2344 46 L62.8594 46 L62.8594 44.9375 L60.7969 44.9375 L60.7969 35.7188 L59.8281 35.7188 C59.2656 36.0625 58.6094 36.2969 57.6875 36.4688 L57.6875 37.2812 L59.5156 37.2812 L59.5156 44.9375 L57.2344 44.9375 L57.2344 46 ZM67.6606 46.1875 C69.6137 46.1875 70.8481 44.4062 70.8481 40.8281 C70.8481 37.2812 69.6137 35.5469 67.6606 35.5469 C65.7075 35.5469 64.4575 37.2656 64.4575 40.8281 C64.4575 44.4062 65.7075 46.1875 67.6606 46.1875 ZM67.6606 45.1562 C66.4887 45.1562 65.7075 43.8594 65.7075 40.8281 C65.7075 37.8438 66.4887 36.5625 67.6606 36.5625 C68.8168 36.5625 69.6137 37.8438 69.6137 40.8281 C69.6137 43.8594 68.8168 45.1562 67.6606 45.1562 ZM71.7431 46 L73.0868 46 L74.1181 44.2188 C74.3837 43.7656 74.6337 43.2969 74.8993 42.8594 L74.9774 42.8594 C75.2431 43.2969 75.5243 43.7656 75.7743 44.2188 L76.8993 46 L78.3056 46 L75.7899 42.1562 L78.1024 38.3906 L76.7743 38.3906 L75.8368 40.0625 C75.6181 40.5 75.3837 40.9219 75.1493 41.3438 L75.1024 41.3438 C74.8368 40.9219 74.5712 40.5 74.3368 40.0625 L73.3212 38.3906 L71.9462 38.3906 L74.2587 42.0312 L71.7431 46 Z"
    /></g
    ><g ID="legend-1:0" style="text-rendering:optimizeSpeed; font-size:10px; font-family:'SansSerif';"
    ><path style="stroke:none;" d="M30.9219 298 L31.8281 298 L31.8281 294.0625 C32.375 293.5156 32.7656 293.2344 33.3125 293.2344 C34.0469 293.2344 34.3438 293.6562 34.3438 294.6875 L34.3438 298 L35.2656 298 L35.2656 294.5625 C35.2656 293.1719 34.7344 292.4375 33.5938 292.4375 C32.8594 292.4375 32.2969 292.8438 31.7812 293.3438 L31.75 293.3438 L31.6719 292.5625 L30.9219 292.5625 L30.9219 298 ZM39.1413 298.125 C40.4694 298.125 41.6569 297.0938 41.6569 295.2969 C41.6569 293.4844 40.4694 292.4375 39.1413 292.4375 C37.8131 292.4375 36.6256 293.4844 36.6256 295.2969 C36.6256 297.0938 37.8131 298.125 39.1413 298.125 ZM39.1413 297.375 C38.2038 297.375 37.5631 296.5469 37.5631 295.2969 C37.5631 294.0469 38.2038 293.1875 39.1413 293.1875 C40.0788 293.1875 40.7194 294.0469 40.7194 295.2969 C40.7194 296.5469 40.0788 297.375 39.1413 297.375 ZM47.16 300.5 C48.8475 300.5 49.91 299.625 49.91 298.625 C49.91 297.7344 49.2694 297.3281 48.0038 297.3281 L46.9569 297.3281 C46.2225 297.3281 46.0038 297.0938 46.0038 296.7344 C46.0038 296.4375 46.1444 296.2656 46.3475 296.0938 C46.5975 296.2031 46.8944 296.2812 47.16 296.2812 C48.2538 296.2812 49.1444 295.5469 49.1444 294.3906 C49.1444 293.9219 48.9569 293.5156 48.7069 293.2656 L49.8163 293.2656 L49.8163 292.5625 L47.9256 292.5625 C47.7225 292.5 47.4569 292.4375 47.16 292.4375 C46.0663 292.4375 45.1131 293.1875 45.1131 294.375 C45.1131 295.0156 45.4725 295.5469 45.8319 295.8281 L45.8319 295.875 C45.5506 296.0625 45.2225 296.4375 45.2225 296.875 C45.2225 297.3125 45.4256 297.5938 45.7225 297.7656 L45.7225 297.8125 C45.2069 298.1406 44.9256 298.5781 44.9256 299.0469 C44.9256 299.9844 45.8319 300.5 47.16 300.5 ZM47.16 295.6562 C46.535 295.6562 46.0038 295.1562 46.0038 294.375 C46.0038 293.5625 46.5194 293.0938 47.16 293.0938 C47.8006 293.0938 48.3163 293.5781 48.3163 294.375 C48.3163 295.1562 47.785 295.6562 47.16 295.6562 ZM47.285 299.875 C46.3163 299.875 45.7225 299.5 45.7225 298.9219 C45.7225 298.5938 45.8788 298.2812 46.2694 298 C46.5038 298.0625 46.7694 298.0938 46.9725 298.0938 L47.91 298.0938 C48.6288 298.0938 49.0194 298.2656 49.0194 298.7656 C49.0194 299.3281 48.3319 299.875 47.285 299.875 ZM51.915 298.125 C52.165 298.125 52.3212 298.0938 52.4462 298.0469 L52.3212 297.3438 C52.2275 297.375 52.1806 297.375 52.1337 297.375 C51.9931 297.375 51.8681 297.2656 51.8681 296.9844 L51.8681 290.0469 L50.9619 290.0469 L50.9619 296.9219 C50.9619 297.6875 51.2431 298.125 51.915 298.125 ZM53.9056 300.3438 C54.9837 300.3438 55.5462 299.5156 55.9212 298.4531 L57.9681 292.5625 L57.0775 292.5625 L56.1087 295.5938 C55.9525 296.0625 55.7962 296.625 55.6556 297.1094 L55.5931 297.1094 C55.4369 296.625 55.2337 296.0625 55.0775 295.5938 L53.9681 292.5625 L53.015 292.5625 L55.2025 298.0156 L55.0775 298.4219 C54.8587 299.0938 54.4681 299.5938 53.8431 299.5938 C53.7025 299.5938 53.5462 299.5469 53.4369 299.5 L53.265 300.2344 C53.4369 300.2969 53.64 300.3438 53.9056 300.3438 ZM61.1625 298.125 C61.8031 298.125 62.4281 297.875 62.9125 297.4375 L62.5219 296.8281 C62.1781 297.1406 61.7406 297.375 61.2406 297.375 C60.2406 297.375 59.5531 296.5469 59.5531 295.2969 C59.5531 294.0469 60.2875 293.1875 61.2719 293.1875 C61.6937 293.1875 62.0375 293.3906 62.35 293.6719 L62.8187 293.0625 C62.4281 292.7344 61.9437 292.4375 61.225 292.4375 C59.8344 292.4375 58.6156 293.4844 58.6156 295.2969 C58.6156 297.0938 59.725 298.125 61.1625 298.125 ZM66.2212 298.125 C67.5493 298.125 68.7368 297.0938 68.7368 295.2969 C68.7368 293.4844 67.5493 292.4375 66.2212 292.4375 C64.8931 292.4375 63.7056 293.4844 63.7056 295.2969 C63.7056 297.0938 64.8931 298.125 66.2212 298.125 ZM66.2212 297.375 C65.2837 297.375 64.6431 296.5469 64.6431 295.2969 C64.6431 294.0469 65.2837 293.1875 66.2212 293.1875 C67.1587 293.1875 67.7993 294.0469 67.7993 295.2969 C67.7993 296.5469 67.1587 297.375 66.2212 297.375 ZM71.5937 298.125 C72.875 298.125 73.5625 297.4062 73.5625 296.5156 C73.5625 295.4844 72.7031 295.1719 71.9062 294.875 C71.2968 294.6406 70.7343 294.4531 70.7343 293.9375 C70.7343 293.5156 71.0625 293.1562 71.75 293.1562 C72.2343 293.1562 72.6093 293.3438 72.9843 293.625 L73.4218 293.0469 C73 292.7031 72.4062 292.4375 71.7343 292.4375 C70.5625 292.4375 69.8593 293.1094 69.8593 293.9688 C69.8593 294.8906 70.6875 295.2656 71.4531 295.5469 C72.0468 295.7656 72.6875 296.0156 72.6875 296.5625 C72.6875 297.0469 72.3437 297.4219 71.625 297.4219 C70.9687 297.4219 70.4843 297.1562 70.0156 296.7812 L69.5625 297.375 C70.0781 297.8125 70.8125 298.125 71.5937 298.125 ZM74.8518 298 L75.7581 298 L75.7581 292.5625 L74.8518 292.5625 L74.8518 298 ZM75.305 291.4531 C75.6643 291.4531 75.9143 291.2031 75.9143 290.8438 C75.9143 290.4844 75.6643 290.25 75.305 290.25 C74.9456 290.25 74.6956 290.4844 74.6956 290.8438 C74.6956 291.2031 74.9456 291.4531 75.305 291.4531 ZM79.4456 298.125 C80.1018 298.125 80.6643 297.7812 81.1018 297.3594 L81.1331 297.3594 L81.2112 298 L81.9456 298 L81.9456 290.0469 L81.055 290.0469 L81.055 292.125 L81.0862 293.0625 C80.6175 292.6719 80.1956 292.4375 79.555 292.4375 C78.3206 292.4375 77.2112 293.5312 77.2112 295.2969 C77.2112 297.0938 78.0862 298.125 79.4456 298.125 ZM79.6487 297.375 C78.6956 297.375 78.1487 296.5938 78.1487 295.2812 C78.1487 294.0469 78.8362 293.2031 79.7268 293.2031 C80.1643 293.2031 80.5862 293.3594 81.055 293.7656 L81.055 296.625 C80.5862 297.125 80.1487 297.375 79.6487 297.375 ZM83.8018 298 L84.7081 298 L84.7081 292.5625 L83.8018 292.5625 L83.8018 298 ZM84.255 291.4531 C84.6143 291.4531 84.8643 291.2031 84.8643 290.8438 C84.8643 290.4844 84.6143 290.25 84.255 290.25 C83.8956 290.25 83.6456 290.4844 83.6456 290.8438 C83.6456 291.2031 83.8956 291.4531 84.255 291.4531 ZM88.6925 298.125 C89.3331 298.125 89.9581 297.875 90.4425 297.4375 L90.0518 296.8281 C89.7081 297.1406 89.2706 297.375 88.7706 297.375 C87.7706 297.375 87.0831 296.5469 87.0831 295.2969 C87.0831 294.0469 87.8175 293.1875 88.8018 293.1875 C89.2237 293.1875 89.5675 293.3906 89.88 293.6719 L90.3487 293.0625 C89.9581 292.7344 89.4737 292.4375 88.755 292.4375 C87.3643 292.4375 86.1456 293.4844 86.1456 295.2969 C86.1456 297.0938 87.255 298.125 88.6925 298.125 ZM94.835 298.125 C95.085 298.125 95.2412 298.0938 95.3662 298.0469 L95.2412 297.3438 C95.1475 297.375 95.1006 297.375 95.0537 297.375 C94.9131 297.375 94.7881 297.2656 94.7881 296.9844 L94.7881 290.0469 L93.8818 290.0469 L93.8818 296.9219 C93.8818 297.6875 94.1631 298.125 94.835 298.125 ZM96.7318 298 L97.6381 298 L97.6381 292.5625 L96.7318 292.5625 L96.7318 298 ZM97.185 291.4531 C97.5443 291.4531 97.7943 291.2031 97.7943 290.8438 C97.7943 290.4844 97.5443 290.25 97.185 290.25 C96.8256 290.25 96.5756 290.4844 96.5756 290.8438 C96.5756 291.2031 96.8256 291.4531 97.185 291.4531 ZM99.4818 298 L100.3881 298 L100.3881 294.0625 C100.935 293.5156 101.3256 293.2344 101.8725 293.2344 C102.6068 293.2344 102.9037 293.6562 102.9037 294.6875 L102.9037 298 L103.8256 298 L103.8256 294.5625 C103.8256 293.1719 103.2943 292.4375 102.1537 292.4375 C101.4193 292.4375 100.8568 292.8438 100.3412 293.3438 L100.31 293.3438 L100.2318 292.5625 L99.4818 292.5625 L99.4818 298 ZM105.5918 298 L106.4825 298 L106.4825 296.5625 L107.5137 295.375 L109.1075 298 L110.0918 298 L108.045 294.7656 L109.8575 292.5625 L108.8262 292.5625 L106.5137 295.4375 L106.4825 295.4375 L106.4825 290.0469 L105.5918 290.0469 L105.5918 298 ZM112.3618 298.125 C113.0337 298.125 113.6431 297.7812 114.1587 297.3438 L114.1899 297.3438 L114.2681 298 L115.0181 298 L115.0181 294.6562 C115.0181 293.3125 114.4556 292.4375 113.1431 292.4375 C112.2681 292.4375 111.5024 292.8125 111.0024 293.1406 L111.3618 293.7656 C111.7837 293.4844 112.3618 293.1875 112.9868 293.1875 C113.8774 293.1875 114.1118 293.8594 114.1118 294.5625 C111.7993 294.8125 110.7681 295.4062 110.7681 296.5938 C110.7681 297.5625 111.4556 298.125 112.3618 298.125 ZM112.6274 297.4062 C112.0806 297.4062 111.6587 297.1562 111.6587 296.5312 C111.6587 295.8281 112.2837 295.375 114.1118 295.1562 L114.1118 296.6875 C113.5806 297.1562 113.1431 297.4062 112.6274 297.4062 ZM118.5799 300.5 C120.2674 300.5 121.3299 299.625 121.3299 298.625 C121.3299 297.7344 120.6893 297.3281 119.4237 297.3281 L118.3768 297.3281 C117.6424 297.3281 117.4237 297.0938 117.4237 296.7344 C117.4237 296.4375 117.5643 296.2656 117.7674 296.0938 C118.0174 296.2031 118.3143 296.2812 118.5799 296.2812 C119.6737 296.2812 120.5643 295.5469 120.5643 294.3906 C120.5643 293.9219 120.3768 293.5156 120.1268 293.2656 L121.2362 293.2656 L121.2362 292.5625 L119.3456 292.5625 C119.1424 292.5 118.8768 292.4375 118.5799 292.4375 C117.4862 292.4375 116.5331 293.1875 116.5331 294.375 C116.5331 295.0156 116.8924 295.5469 117.2518 295.8281 L117.2518 295.875 C116.9706 296.0625 116.6424 296.4375 116.6424 296.875 C116.6424 297.3125 116.8456 297.5938 117.1424 297.7656 L117.1424 297.8125 C116.6268 298.1406 116.3456 298.5781 116.3456 299.0469 C116.3456 299.9844 117.2518 300.5 118.5799 300.5 ZM118.5799 295.6562 C117.9549 295.6562 117.4237 295.1562 117.4237 294.375 C117.4237 293.5625 117.9393 293.0938 118.5799 293.0938 C119.2206 293.0938 119.7362 293.5781 119.7362 294.375 C119.7362 295.1562 119.2049 295.6562 118.5799 295.6562 ZM118.7049 299.875 C117.7362 299.875 117.1424 299.5 117.1424 298.9219 C117.1424 298.5938 117.2987 298.2812 117.6893 298 C117.9237 298.0625 118.1893 298.0938 118.3924 298.0938 L119.3299 298.0938 C120.0487 298.0938 120.4393 298.2656 120.4393 298.7656 C120.4393 299.3281 119.7518 299.875 118.7049 299.875 ZM124.5693 298.125 C125.3037 298.125 125.8974 297.875 126.3662 297.5625 L126.0381 296.9688 C125.6474 297.2344 125.2099 297.4062 124.6787 297.4062 C123.6474 297.4062 122.9443 296.6562 122.8818 295.5 L126.5381 295.5 C126.5537 295.375 126.5849 295.1875 126.5849 294.9844 C126.5849 293.4375 125.8037 292.4375 124.4131 292.4375 C123.1631 292.4375 121.9756 293.5312 121.9756 295.2969 C121.9756 297.0781 123.1318 298.125 124.5693 298.125 ZM122.8662 294.8438 C122.9756 293.7812 123.6631 293.1562 124.4287 293.1562 C125.2724 293.1562 125.7724 293.75 125.7724 294.8438 L122.8662 294.8438 ZM129.3437 298.125 C130.6249 298.125 131.3124 297.4062 131.3124 296.5156 C131.3124 295.4844 130.453 295.1719 129.6562 294.875 C129.0468 294.6406 128.4843 294.4531 128.4843 293.9375 C128.4843 293.5156 128.8124 293.1562 129.4999 293.1562 C129.9843 293.1562 130.3593 293.3438 130.7343 293.625 L131.1718 293.0469 C130.7499 292.7031 130.1562 292.4375 129.4843 292.4375 C128.3124 292.4375 127.6093 293.1094 127.6093 293.9688 C127.6093 294.8906 128.4374 295.2656 129.203 295.5469 C129.7968 295.7656 130.4374 296.0156 130.4374 296.5625 C130.4374 297.0469 130.0937 297.4219 129.3749 297.4219 C128.7187 297.4219 128.2343 297.1562 127.7655 296.7812 L127.3124 297.375 C127.828 297.8125 128.5624 298.125 129.3437 298.125 Z"
    /></g
  ></g
></svg
>
