<?xml version="1.0"?>
<!DOCTYPE svg PUBLIC '-//W3C//DTD SVG 1.0//EN'
          'http://www.w3.org/TR/2001/REC-SVG-20010904/DTD/svg10.dtd'>
<svg xmlns:xlink="http://www.w3.org/1999/xlink" style="fill-opacity:1; color-rendering:auto; color-interpolation:auto; text-rendering:auto; stroke:black; stroke-linecap:square; stroke-miterlimit:10; shape-rendering:auto; stroke-opacity:1; fill:black; stroke-dasharray:none; font-weight:normal; stroke-width:1; font-family:'Dialog'; font-style:normal; stroke-linejoin:miter; font-size:12px; stroke-dashoffset:0; image-rendering:auto;" viewBox="0 0 134 134" xmlns="http://www.w3.org/2000/svg"
><!--Generated by the Batik Graphics2D SVG Generator--><defs id="genericDefs"
  /><g
  ><defs id="defs1"
    ><clipPath clipPathUnits="userSpaceOnUse" id="clipPath1"
      ><path d="M52 93 C52 99.0751 47.0751 104 41 104 C34.9249 104 30 99.0751 30 93 C30 86.9249 34.9249 82 41 82 C47.0751 82 52 86.9249 52 93 Z"
      /></clipPath
      ><clipPath clipPathUnits="userSpaceOnUse" id="clipPath2"
      ><path style="fill-rule:evenodd;" d="M41 52 L30 30 L52 30 Z"
      /></clipPath
    ></defs
    ><g style="fill:white; text-rendering:optimizeSpeed; stroke:white;"
    ><rect x="0" width="134" height="134" y="0" style="stroke:none;"
      /><polygon style="fill:none; stroke:black;" points=" 93 93 41 93"
      /><path d="M93 82 C87.5 87.5 98.5 98.5 93 104" style="fill:none; stroke:black;"
      /><polygon style="fill:none; stroke:black;" points=" 41 93 41 41"
      /><circle style="clip-path:url(#clipPath1); stroke:none;" r="11" cx="41" cy="93"
      /><rect x="30" y="82" width="22" style="clip-path:url(#clipPath1); fill:rgb(255,212,0); stroke:none;" height="22"
      /><rect x="30" y="82" width="22" style="clip-path:url(#clipPath1); fill:none; stroke:black;" height="22"
      /><circle style="fill:none; stroke:black;" r="11" cx="41" cy="93"
      /><polygon style="clip-path:url(#clipPath2); stroke:none;" points=" 41 52 30 30 52 30"
      /><rect x="30" y="30" width="22" style="clip-path:url(#clipPath2); fill:rgb(237,28,36); stroke:none;" height="22"
      /><rect x="30" y="30" width="22" style="clip-path:url(#clipPath2); fill:none; stroke:black;" height="22"
      /><polygon style="fill:none; stroke:black;" points=" 41 52 30 30 52 30"
      /><rect x="30" y="69" width="6" style="stroke:none;" height="10"
    /></g
    ><g style="font-family:'Serif'; text-rendering:optimizeSpeed; "
    ><path style="stroke:none;" d="M33.3438 78.6875 C32.2031 78.6875 31.5312 77.5 31.5312 75.2969 C31.5312 75.2188 31.5312 75.125 31.5312 75.0469 C32.0938 74.5 32.7188 74.3125 33.3438 74.3125 C34.3125 74.3125 34.9531 74.9844 34.9531 76.4531 C34.9531 77.9375 34.3125 78.6875 33.3438 78.6875 ZM35.5312 70.0781 C32.3438 70.4531 30.5625 72.7656 30.5625 75.4531 C30.5625 77.7812 31.6094 79.1719 33.3125 79.1719 C34.8438 79.1719 35.9219 78.1094 35.9219 76.2812 C35.9219 74.6875 34.9688 73.6562 33.5625 73.6562 C32.8281 73.6562 32.1406 73.9844 31.5781 74.5781 C31.7969 72.4062 33.0781 70.9688 35.5938 70.3906 L35.5312 70.0781 Z"
      /><rect x="29" y="56" width="8" style="fill:white; stroke:none;" height="8"
      /><path style="stroke:none;" d="M33.9844 61.7031 C33.9375 62.8906 33.1562 63.6562 32.3125 63.6562 C31.2656 63.6562 30.5 62.6875 30.5 60.7188 C30.5 59.2812 31.1562 58.1562 32.3438 58.1562 C33.1406 58.1562 33.7812 58.6875 34.0938 59.6406 L33.9844 61.7031 ZM35.9062 63.2812 C35.7344 63.375 35.5469 63.4219 35.3438 63.4219 C34.9531 63.4219 34.75 63.2188 34.75 62.4219 C34.75 61.4844 34.9688 59.5312 35.1875 57.8281 L35.0312 57.7188 L34.2344 57.9219 L34.1406 58.7969 C33.7812 58.0312 33.1562 57.6562 32.3906 57.6562 C31.0469 57.6562 29.5625 58.8438 29.5625 60.9531 C29.5625 63.0938 30.7188 64.1719 32.1406 64.1719 C33.0156 64.1719 33.6875 63.8125 34.0938 62.9844 C34.2031 63.8594 34.5156 64.1719 35.0156 64.1719 C35.4688 64.1719 35.7969 63.9062 36.0156 63.5625 L35.9062 63.2812 Z"
      /><rect x="57" y="96" width="5" style="fill:white; stroke:none;" height="10"
      /><path style="stroke:none;" d="M58.8906 104.6875 C58.4844 104.6875 58.1562 105.0469 58.1562 105.4219 C58.1562 105.8125 58.4844 106.1562 58.8906 106.1562 C59.2969 106.1562 59.6406 105.8125 59.6406 105.4219 C59.6406 105.0469 59.2969 104.6875 58.8906 104.6875 ZM60.4688 98.5781 C60.7188 98.8906 60.875 99.2656 60.8906 99.6562 C60.8906 100.1875 60.625 100.5 60.0312 100.7656 L59.4062 101.0156 C58.6406 101.3125 58.3906 101.5469 58.3906 101.9375 C58.3906 102.1094 58.4531 102.3438 58.5781 102.8125 L58.7344 103.3438 L59.1094 103.3438 L59.0938 102.5312 C59.0938 102.0938 59.2031 101.9688 59.7812 101.7344 L60.2031 101.5625 C61.0312 101.2188 61.4531 100.6875 61.4531 99.8438 C61.4531 98.1562 59.6562 97.1875 58.5 97.0312 C58.1094 97.125 57.9062 97.2969 57.9062 97.6406 C57.9062 97.9375 58.0625 98.1562 58.7188 98.2656 L60.4688 98.5781 Z"
    /></g
  ></g
></svg
>
