<?xml version="1.0"?>
<!DOCTYPE svg PUBLIC '-//W3C//DTD SVG 1.0//EN'
          'http://www.w3.org/TR/2001/REC-SVG-20010904/DTD/svg10.dtd'>
<svg xmlns:xlink="http://www.w3.org/1999/xlink" style="fill-opacity:1; color-rendering:auto; color-interpolation:auto; text-rendering:auto; stroke:black; stroke-linecap:square; stroke-miterlimit:10; shape-rendering:auto; stroke-opacity:1; fill:black; stroke-dasharray:none; font-weight:normal; stroke-width:1; font-family:'Dialog'; font-style:normal; stroke-linejoin:miter; font-size:12px; stroke-dashoffset:0; image-rendering:auto;" viewBox="0 0 498 183" xmlns="http://www.w3.org/2000/svg"
><!--Generated by the Batik Graphics2D SVG Generator--><defs id="genericDefs"
  /><g
  ><defs id="defs1"
    ><clipPath clipPathUnits="userSpaceOnUse" id="clipPath1"
      ><path d="M394 67 L416 67 L416 89 L394 89 L394 67 Z"
      /></clipPath
      ><clipPath clipPathUnits="userSpaceOnUse" id="clipPath2"
      ><path d="M342 67 L364 67 L364 89 L342 89 L342 67 Z"
      /></clipPath
      ><clipPath clipPathUnits="userSpaceOnUse" id="clipPath3"
      ><path style="fill-rule:evenodd;" d="M312 78 L306 85 L295 85 L290 78 L295 70 L306 70 L312 78 Z"
      /></clipPath
      ><clipPath clipPathUnits="userSpaceOnUse" id="clipPath4"
      ><path style="fill-rule:evenodd;" d="M260 116 L254 123 L243 123 L238 116 L243 108 L254 108 L260 116 Z"
      /></clipPath
      ><clipPath clipPathUnits="userSpaceOnUse" id="clipPath5"
      ><path style="fill-rule:evenodd;" d="M208 116 L202 123 L191 123 L186 116 L191 108 L202 108 L208 116 Z"
      /></clipPath
      ><clipPath clipPathUnits="userSpaceOnUse" id="clipPath6"
      ><path d="M134 105 L156 105 L156 127 L134 127 L134 105 Z"
      /></clipPath
      ><clipPath clipPathUnits="userSpaceOnUse" id="clipPath7"
      ><path d="M104 142 C104 148.0751 99.0751 153 93 153 C86.9249 153 82 148.0751 82 142 C82 135.9249 86.9249 131 93 131 C99.0751 131 104 135.9249 104 142 Z"
      /></clipPath
      ><clipPath clipPathUnits="userSpaceOnUse" id="clipPath8"
      ><path style="fill-rule:evenodd;" d="M41 131 L52 153 L30 153 Z"
      /></clipPath
      ><clipPath clipPathUnits="userSpaceOnUse" id="clipPath9"
      ><path d="M104 90 C104 96.0751 99.0751 101 93 101 C86.9249 101 82 96.0751 82 90 C82 83.9249 86.9249 79 93 79 C99.0751 79 104 83.9249 104 90 Z"
      /></clipPath
      ><clipPath clipPathUnits="userSpaceOnUse" id="clipPath10"
      ><path d="M30 79 L52 79 L52 101 L30 101 L30 79 Z"
      /></clipPath
      ><clipPath clipPathUnits="userSpaceOnUse" id="clipPath11"
      ><path style="fill-rule:evenodd;" d="M260 41 L254 48 L243 48 L238 41 L243 33 L254 33 L260 41 Z"
      /></clipPath
    ></defs
    ><g style="fill:white; text-rendering:optimizeSpeed; stroke:white;"
    ><rect x="0" width="498" height="183" y="0" style="stroke:none;"
      /><polygon style="fill:none; stroke:black;" points=" 457 78 405 78"
      /><path d="M457 67 C451.5 72.5 462.5 83.5 457 89" style="fill:none; stroke:black;"
      /><polygon style="fill:none; stroke:black;" points=" 405 78 353 78"
      /><rect x="394" y="67" width="22" style="clip-path:url(#clipPath1); stroke:none;" height="22"
      /><polygon style="fill:rgb(0,144,188); clip-path:url(#clipPath1); stroke:none;" points=" 394 67 416 67 416 89"
      /><polygon style="fill:none; clip-path:url(#clipPath1); stroke:black;" points=" 394 67 416 67 416 89"
      /><rect x="394" y="67" width="22" style="fill:none; stroke:black;" height="22"
      /><polygon style="fill:none; stroke:black;" points=" 353 78 301 78"
      /><rect x="342" y="67" width="22" style="clip-path:url(#clipPath2); stroke:none;" height="22"
      /><polygon style="fill:rgb(0,144,188); clip-path:url(#clipPath2); stroke:none;" points=" 342 67 364 67 364 89"
      /><polygon style="fill:none; clip-path:url(#clipPath2); stroke:black;" points=" 342 67 364 67 364 89"
      /><rect x="342" y="67" width="22" style="fill:none; stroke:black;" height="22"
      /><rect x="345" y="49" width="15" style="stroke:none;" height="10"
    /></g
    ><g style="text-rendering:optimizeSpeed; font-size:14px; font-family:'SansSerif';"
    ><path style="stroke:none;" d="M346.6094 56.1562 L348.9531 52.6562 C349.2344 52.1406 349.5156 51.6406 349.7812 51.1406 L349.8281 51.1406 C349.7969 51.6719 349.7656 52.5 349.7656 53 L349.7656 56.1562 L346.6094 56.1562 ZM349.7656 60 L350.9688 60 L350.9688 57.1719 L352.3281 57.1719 L352.3281 56.1562 L350.9688 56.1562 L350.9688 49.7188 L349.5469 49.7188 L345.2812 56.3281 L345.2812 57.1719 L349.7656 57.1719 L349.7656 60 ZM354.1762 60 L355.4731 60 L355.4731 55.9219 L357.1606 55.9219 C359.4262 55.9219 360.9418 54.9219 360.9418 52.75 C360.9418 50.5156 359.4106 49.7188 357.1137 49.7188 L354.1762 49.7188 L354.1762 60 ZM355.4731 54.875 L355.4731 50.7812 L356.9418 50.7812 C358.7543 50.7812 359.6606 51.2656 359.6606 52.75 C359.6606 54.2188 358.8012 54.875 357.0043 54.875 L355.4731 54.875 Z"
      /><polygon style="fill:none;" points=" 301 78 249 116"
      /><polygon style="fill:none;" points=" 301 78 249 41"
    /></g
    ><g style="fill:white; text-rendering:optimizeSpeed; stroke:white;"
    ><polygon style="stroke:none; clip-path:url(#clipPath3);" points=" 312 78 306 85 295 85 290 78 295 70 306 70 312 78"
      /><rect x="290" y="67" width="22" style="clip-path:url(#clipPath3); fill:rgb(255,212,0); stroke:none;" height="22"
      /><rect x="290" y="67" width="22" style="clip-path:url(#clipPath3); fill:none; stroke:black;" height="22"
      /><polygon style="fill:none; stroke:black;" points=" 312 78 306 85 295 85 290 78 295 70 306 70 312 78"
      /><polygon style="fill:none; stroke:black;" points=" 249 116 197 116"
      /><polygon style="clip-path:url(#clipPath4); stroke:none;" points=" 260 116 254 123 243 123 238 116 243 108 254 108 260 116"
      /><rect x="238" y="105" width="22" style="clip-path:url(#clipPath4); fill:rgb(0,166,81); stroke:none;" height="22"
      /><rect x="238" y="105" width="22" style="clip-path:url(#clipPath4); fill:none; stroke:black;" height="22"
      /><polygon style="fill:none; stroke:black;" points=" 260 116 254 123 243 123 238 116 243 108 254 108 260 116"
      /><rect x="241" width="15" height="10" y="133" style="stroke:none;"
    /></g
    ><g style="text-rendering:optimizeSpeed; font-size:14px; font-family:'SansSerif';"
    ><path style="stroke:none;" d="M241.6094 144 L248.0625 144 L248.0625 142.8906 L245.2344 142.8906 C244.7031 142.8906 244.0781 142.9531 243.5469 142.9844 C245.9531 140.7031 247.5625 138.625 247.5625 136.5781 C247.5625 134.75 246.4219 133.5469 244.5781 133.5469 C243.2812 133.5469 242.4062 134.1406 241.5625 135.0469 L242.2969 135.7812 C242.8594 135.1094 243.5938 134.5938 244.4375 134.5938 C245.7031 134.5938 246.3125 135.4531 246.3125 136.625 C246.3125 138.3906 244.8438 140.4375 241.6094 143.25 L241.6094 144 ZM250.1762 144 L251.4731 144 L251.4731 139.9219 L253.1606 139.9219 C255.4262 139.9219 256.9418 138.9219 256.9418 136.75 C256.9418 134.5156 255.4106 133.7188 253.1137 133.7188 L250.1762 133.7188 L250.1762 144 ZM251.4731 138.875 L251.4731 134.7812 L252.9418 134.7812 C254.7543 134.7812 255.6606 135.2656 255.6606 136.75 C255.6606 138.2188 254.8012 138.875 253.0043 138.875 L251.4731 138.875 Z"
      /><rect x="241" y="87" width="15" style="fill:white; stroke:none;" height="10"
      /><path style="stroke:none;" d="M242.6094 94.1562 L244.9531 90.6562 C245.2344 90.1406 245.5156 89.6406 245.7812 89.1406 L245.8281 89.1406 C245.7969 89.6719 245.7656 90.5 245.7656 91 L245.7656 94.1562 L242.6094 94.1562 ZM245.7656 98 L246.9688 98 L246.9688 95.1719 L248.3281 95.1719 L248.3281 94.1562 L246.9688 94.1562 L246.9688 87.7188 L245.5469 87.7188 L241.2812 94.3281 L241.2812 95.1719 L245.7656 95.1719 L245.7656 98 ZM250.1762 98 L251.4731 98 L251.4731 93.9219 L253.1606 93.9219 C255.4262 93.9219 256.9418 92.9219 256.9418 90.75 C256.9418 88.5156 255.4106 87.7188 253.1137 87.7188 L250.1762 87.7188 L250.1762 98 ZM251.4731 92.875 L251.4731 88.7812 L252.9418 88.7812 C254.7543 88.7812 255.6606 89.2656 255.6606 90.75 C255.6606 92.2188 254.8012 92.875 253.0043 92.875 L251.4731 92.875 Z"
      /><polygon style="fill:none;" points=" 197 116 145 116"
    /></g
    ><g style="fill:white; text-rendering:optimizeSpeed; stroke:white;"
    ><polygon style="stroke:none; clip-path:url(#clipPath5);" points=" 208 116 202 123 191 123 186 116 191 108 202 108 208 116"
      /><rect x="186" y="105" width="22" style="clip-path:url(#clipPath5); fill:rgb(0,166,81); stroke:none;" height="22"
      /><rect x="186" y="105" width="22" style="clip-path:url(#clipPath5); fill:none; stroke:black;" height="22"
      /><polygon style="fill:none; stroke:black;" points=" 208 116 202 123 191 123 186 116 191 108 202 108 208 116"
      /><rect x="189" width="15" height="10" y="87" style="stroke:none;"
    /></g
    ><g style="text-rendering:optimizeSpeed; font-size:14px; font-family:'SansSerif';"
    ><path style="stroke:none;" d="M193.1094 92.5781 C194.3438 92.5781 194.9688 93.4688 194.9688 94.8438 C194.9688 96.25 194.1875 97.1875 193.2188 97.1875 C191.9219 97.1875 191.1562 96.0312 191 93.8906 C191.625 92.9531 192.4531 92.5781 193.1094 92.5781 ZM193.2188 98.1875 C194.8125 98.1875 196.1562 96.8438 196.1562 94.8438 C196.1562 92.7031 195.0469 91.625 193.3125 91.625 C192.5 91.625 191.6094 92.1094 190.9688 92.875 C191.0312 89.6875 192.2188 88.6094 193.625 88.6094 C194.25 88.6094 194.8594 88.9062 195.2656 89.3906 L195.9688 88.5938 C195.4062 87.9844 194.6406 87.5469 193.5781 87.5469 C191.5938 87.5469 189.7812 89.0781 189.7812 93.0938 C189.7812 96.4844 191.2344 98.1875 193.2188 98.1875 ZM198.1762 98 L199.4731 98 L199.4731 93.9219 L201.1606 93.9219 C203.4262 93.9219 204.9418 92.9219 204.9418 90.75 C204.9418 88.5156 203.4106 87.7188 201.1137 87.7188 L198.1762 87.7188 L198.1762 98 ZM199.4731 92.875 L199.4731 88.7812 L200.9418 88.7812 C202.7543 88.7812 203.6606 89.2656 203.6606 90.75 C203.6606 92.2188 202.8012 92.875 201.0043 92.875 L199.4731 92.875 Z"
      /><polygon style="fill:none;" points=" 145 116 93 142"
      /><polygon style="fill:none;" points=" 145 116 93 90"
    /></g
    ><g style="fill:white; text-rendering:optimizeSpeed; stroke:white;"
    ><rect x="134" y="105" width="22" style="clip-path:url(#clipPath6); stroke:none;" height="22"
      /><polygon style="fill:rgb(255,212,0); clip-path:url(#clipPath6); stroke:none;" points=" 134 105 156 105 156 127"
      /><polygon style="fill:none; clip-path:url(#clipPath6); stroke:black;" points=" 134 105 156 105 156 127"
      /><rect x="134" y="105" width="22" style="fill:none; stroke:black;" height="22"
      /><polygon style="fill:none; stroke:black;" points=" 93 142 41 142"
      /><circle r="11" style="clip-path:url(#clipPath7); stroke:none;" cx="93" cy="142"
      /><rect x="82" y="131" width="22" style="clip-path:url(#clipPath7); fill:rgb(0,144,188); stroke:none;" height="22"
      /><rect x="82" y="131" width="22" style="clip-path:url(#clipPath7); fill:none; stroke:black;" height="22"
      /><circle r="11" style="fill:none; stroke:black;" cx="93" cy="142"
      /><polygon style="clip-path:url(#clipPath8); stroke:none;" points=" 41 131 52 153 30 153"
      /><rect x="30" y="131" width="22" style="clip-path:url(#clipPath8); fill:rgb(0,166,81); stroke:none;" height="22"
      /><rect x="30" y="131" width="22" style="clip-path:url(#clipPath8); fill:none; stroke:black;" height="22"
      /><polygon style="fill:none; stroke:black;" points=" 41 131 52 153 30 153"
      /><rect x="71" width="5" height="10" y="145" style="stroke:none;"
      /><path d="M72.8906 153.6875 C72.4844 153.6875 72.1562 154.0469 72.1562 154.4219 C72.1562 154.8125 72.4844 155.1562 72.8906 155.1562 C73.2969 155.1562 73.6406 154.8125 73.6406 154.4219 C73.6406 154.0469 73.2969 153.6875 72.8906 153.6875 ZM74.4688 147.5781 C74.7188 147.8906 74.875 148.2656 74.8906 148.6562 C74.8906 149.1875 74.625 149.5 74.0312 149.7656 L73.4062 150.0156 C72.6406 150.3125 72.3906 150.5469 72.3906 150.9375 C72.3906 151.1094 72.4531 151.3438 72.5781 151.8125 L72.7344 152.3438 L73.1094 152.3438 L73.0938 151.5312 C73.0938 151.0938 73.2031 150.9688 73.7812 150.7344 L74.2031 150.5625 C75.0312 150.2188 75.4531 149.6875 75.4531 148.8438 C75.4531 147.1562 73.6562 146.1875 72.5 146.0312 C72.1094 146.125 71.9062 146.2969 71.9062 146.6406 C71.9062 146.9375 72.0625 147.1562 72.7188 147.2656 L74.4688 147.5781 Z" style="fill:black; stroke:none;"
      /><rect x="57" width="5" height="10" y="145" style="stroke:none;"
      /><path d="M58.8906 153.6875 C58.4844 153.6875 58.1562 154.0469 58.1562 154.4219 C58.1562 154.8125 58.4844 155.1562 58.8906 155.1562 C59.2969 155.1562 59.6406 154.8125 59.6406 154.4219 C59.6406 154.0469 59.2969 153.6875 58.8906 153.6875 ZM60.4688 147.5781 C60.7188 147.8906 60.875 148.2656 60.8906 148.6562 C60.8906 149.1875 60.625 149.5 60.0312 149.7656 L59.4062 150.0156 C58.6406 150.3125 58.3906 150.5469 58.3906 150.9375 C58.3906 151.1094 58.4531 151.3438 58.5781 151.8125 L58.7344 152.3438 L59.1094 152.3438 L59.0938 151.5312 C59.0938 151.0938 59.2031 150.9688 59.7812 150.7344 L60.2031 150.5625 C61.0312 150.2188 61.4531 149.6875 61.4531 148.8438 C61.4531 147.1562 59.6562 146.1875 58.5 146.0312 C58.1094 146.125 57.9062 146.2969 57.9062 146.6406 C57.9062 146.9375 58.0625 147.1562 58.7188 147.2656 L60.4688 147.5781 Z" style="fill:black; stroke:none;"
      /><polygon style="fill:none; stroke:black;" points=" 93 90 41 90"
      /><circle r="11" style="clip-path:url(#clipPath9); stroke:none;" cx="93" cy="90"
      /><rect x="82" y="79" width="22" style="clip-path:url(#clipPath9); fill:rgb(0,144,188); stroke:none;" height="22"
      /><rect x="82" y="79" width="22" style="clip-path:url(#clipPath9); fill:none; stroke:black;" height="22"
      /><circle r="11" style="fill:none; stroke:black;" cx="93" cy="90"
      /><rect x="30" y="79" width="22" style="clip-path:url(#clipPath10); stroke:none;" height="22"
      /><polygon style="fill:rgb(0,144,188); clip-path:url(#clipPath10); stroke:none;" points=" 30 79 52 79 52 101"
      /><polygon style="fill:none; clip-path:url(#clipPath10); stroke:black;" points=" 30 79 52 79 52 101"
      /><rect x="30" y="79" width="22" style="fill:none; stroke:black;" height="22"
      /><rect x="71" width="5" height="10" y="93" style="stroke:none;"
      /><path d="M72.8906 101.6875 C72.4844 101.6875 72.1562 102.0469 72.1562 102.4219 C72.1562 102.8125 72.4844 103.1562 72.8906 103.1562 C73.2969 103.1562 73.6406 102.8125 73.6406 102.4219 C73.6406 102.0469 73.2969 101.6875 72.8906 101.6875 ZM74.4688 95.5781 C74.7188 95.8906 74.875 96.2656 74.8906 96.6562 C74.8906 97.1875 74.625 97.5 74.0312 97.7656 L73.4062 98.0156 C72.6406 98.3125 72.3906 98.5469 72.3906 98.9375 C72.3906 99.1094 72.4531 99.3438 72.5781 99.8125 L72.7344 100.3438 L73.1094 100.3438 L73.0938 99.5312 C73.0938 99.0938 73.2031 98.9688 73.7812 98.7344 L74.2031 98.5625 C75.0312 98.2188 75.4531 97.6875 75.4531 96.8438 C75.4531 95.1562 73.6562 94.1875 72.5 94.0312 C72.1094 94.125 71.9062 94.2969 71.9062 94.6406 C71.9062 94.9375 72.0625 95.1562 72.7188 95.2656 L74.4688 95.5781 Z" style="fill:black; stroke:none;"
      /><rect x="57" width="5" height="10" y="93" style="stroke:none;"
      /><path d="M58.8906 101.6875 C58.4844 101.6875 58.1562 102.0469 58.1562 102.4219 C58.1562 102.8125 58.4844 103.1562 58.8906 103.1562 C59.2969 103.1562 59.6406 102.8125 59.6406 102.4219 C59.6406 102.0469 59.2969 101.6875 58.8906 101.6875 ZM60.4688 95.5781 C60.7188 95.8906 60.875 96.2656 60.8906 96.6562 C60.8906 97.1875 60.625 97.5 60.0312 97.7656 L59.4062 98.0156 C58.6406 98.3125 58.3906 98.5469 58.3906 98.9375 C58.3906 99.1094 58.4531 99.3438 58.5781 99.8125 L58.7344 100.3438 L59.1094 100.3438 L59.0938 99.5312 C59.0938 99.0938 59.2031 98.9688 59.7812 98.7344 L60.2031 98.5625 C61.0312 98.2188 61.4531 97.6875 61.4531 96.8438 C61.4531 95.1562 59.6562 94.1875 58.5 94.0312 C58.1094 94.125 57.9062 94.2969 57.9062 94.6406 C57.9062 94.9375 58.0625 95.1562 58.7188 95.2656 L60.4688 95.5781 Z" style="fill:black; stroke:none;"
      /><rect x="127" width="5" height="10" y="127" style="stroke:none;"
      /><path d="M128.8906 135.6875 C128.4844 135.6875 128.1562 136.0469 128.1562 136.4219 C128.1562 136.8125 128.4844 137.1562 128.8906 137.1562 C129.2969 137.1562 129.6406 136.8125 129.6406 136.4219 C129.6406 136.0469 129.2969 135.6875 128.8906 135.6875 ZM130.4688 129.5781 C130.7188 129.8906 130.875 130.2656 130.8906 130.6562 C130.8906 131.1875 130.625 131.5 130.0312 131.7656 L129.4062 132.0156 C128.6406 132.3125 128.3906 132.5469 128.3906 132.9375 C128.3906 133.1094 128.4531 133.3438 128.5781 133.8125 L128.7344 134.3438 L129.1094 134.3438 L129.0938 133.5312 C129.0938 133.0938 129.2031 132.9688 129.7812 132.7344 L130.2031 132.5625 C131.0312 132.2188 131.4531 131.6875 131.4531 130.8438 C131.4531 129.1562 129.6562 128.1875 128.5 128.0312 C128.1094 128.125 127.9062 128.2969 127.9062 128.6406 C127.9062 128.9375 128.0625 129.1562 128.7188 129.2656 L130.4688 129.5781 Z" style="fill:black; stroke:none;"
      /><rect x="112" width="5" height="10" y="135" style="stroke:none;"
      /><path d="M113.8906 143.6875 C113.4844 143.6875 113.1562 144.0469 113.1562 144.4219 C113.1562 144.8125 113.4844 145.1562 113.8906 145.1562 C114.2969 145.1562 114.6406 144.8125 114.6406 144.4219 C114.6406 144.0469 114.2969 143.6875 113.8906 143.6875 ZM115.4688 137.5781 C115.7188 137.8906 115.875 138.2656 115.8906 138.6562 C115.8906 139.1875 115.625 139.5 115.0312 139.7656 L114.4062 140.0156 C113.6406 140.3125 113.3906 140.5469 113.3906 140.9375 C113.3906 141.1094 113.4531 141.3438 113.5781 141.8125 L113.7344 142.3438 L114.1094 142.3438 L114.0938 141.5312 C114.0938 141.0938 114.2031 140.9688 114.7812 140.7344 L115.2031 140.5625 C116.0312 140.2188 116.4531 139.6875 116.4531 138.8438 C116.4531 137.1562 114.6562 136.1875 113.5 136.0312 C113.1094 136.125 112.9062 136.2969 112.9062 136.6406 C112.9062 136.9375 113.0625 137.1562 113.7188 137.2656 L115.4688 137.5781 Z" style="fill:black; stroke:none;"
      /><rect x="120" width="5" height="10" y="109" style="stroke:none;"
      /><path d="M121.8906 117.6875 C121.4844 117.6875 121.1562 118.0469 121.1562 118.4219 C121.1562 118.8125 121.4844 119.1562 121.8906 119.1562 C122.2969 119.1562 122.6406 118.8125 122.6406 118.4219 C122.6406 118.0469 122.2969 117.6875 121.8906 117.6875 ZM123.4688 111.5781 C123.7188 111.8906 123.875 112.2656 123.8906 112.6562 C123.8906 113.1875 123.625 113.5 123.0312 113.7656 L122.4062 114.0156 C121.6406 114.3125 121.3906 114.5469 121.3906 114.9375 C121.3906 115.1094 121.4531 115.3438 121.5781 115.8125 L121.7344 116.3438 L122.1094 116.3438 L122.0938 115.5312 C122.0938 115.0938 122.2031 114.9688 122.7812 114.7344 L123.2031 114.5625 C124.0312 114.2188 124.4531 113.6875 124.4531 112.8438 C124.4531 111.1562 122.6562 110.1875 121.5 110.0312 C121.1094 110.125 120.9062 110.2969 120.9062 110.6406 C120.9062 110.9375 121.0625 111.1562 121.7188 111.2656 L123.4688 111.5781 Z" style="fill:black; stroke:none;"
      /><rect x="105" width="5" height="10" y="101" style="stroke:none;"
      /><path d="M106.8906 109.6875 C106.4844 109.6875 106.1562 110.0469 106.1562 110.4219 C106.1562 110.8125 106.4844 111.1562 106.8906 111.1562 C107.2969 111.1562 107.6406 110.8125 107.6406 110.4219 C107.6406 110.0469 107.2969 109.6875 106.8906 109.6875 ZM108.4688 103.5781 C108.7188 103.8906 108.875 104.2656 108.8906 104.6562 C108.8906 105.1875 108.625 105.5 108.0312 105.7656 L107.4062 106.0156 C106.6406 106.3125 106.3906 106.5469 106.3906 106.9375 C106.3906 107.1094 106.4531 107.3438 106.5781 107.8125 L106.7344 108.3438 L107.1094 108.3438 L107.0938 107.5312 C107.0938 107.0938 107.2031 106.9688 107.7812 106.7344 L108.2031 106.5625 C109.0312 106.2188 109.4531 105.6875 109.4531 104.8438 C109.4531 103.1562 107.6562 102.1875 106.5 102.0312 C106.1094 102.125 105.9062 102.2969 105.9062 102.6406 C105.9062 102.9375 106.0625 103.1562 106.7188 103.2656 L108.4688 103.5781 Z" style="fill:black; stroke:none;"
      /><rect x="175" width="5" height="10" y="119" style="stroke:none;"
      /><path d="M176.8906 127.6875 C176.4844 127.6875 176.1562 128.0469 176.1562 128.4219 C176.1562 128.8125 176.4844 129.1562 176.8906 129.1562 C177.2969 129.1562 177.6406 128.8125 177.6406 128.4219 C177.6406 128.0469 177.2969 127.6875 176.8906 127.6875 ZM178.4688 121.5781 C178.7188 121.8906 178.875 122.2656 178.8906 122.6562 C178.8906 123.1875 178.625 123.5 178.0312 123.7656 L177.4062 124.0156 C176.6406 124.3125 176.3906 124.5469 176.3906 124.9375 C176.3906 125.1094 176.4531 125.3438 176.5781 125.8125 L176.7344 126.3438 L177.1094 126.3438 L177.0938 125.5312 C177.0938 125.0938 177.2031 124.9688 177.7812 124.7344 L178.2031 124.5625 C179.0312 124.2188 179.4531 123.6875 179.4531 122.8438 C179.4531 121.1562 177.6562 120.1875 176.5 120.0312 C176.1094 120.125 175.9062 120.2969 175.9062 120.6406 C175.9062 120.9375 176.0625 121.1562 176.7188 121.2656 L178.4688 121.5781 Z" style="fill:black; stroke:none;"
      /><rect x="161" width="5" height="10" y="119" style="stroke:none;"
      /><path d="M162.8906 127.6875 C162.4844 127.6875 162.1562 128.0469 162.1562 128.4219 C162.1562 128.8125 162.4844 129.1562 162.8906 129.1562 C163.2969 129.1562 163.6406 128.8125 163.6406 128.4219 C163.6406 128.0469 163.2969 127.6875 162.8906 127.6875 ZM164.4688 121.5781 C164.7188 121.8906 164.875 122.2656 164.8906 122.6562 C164.8906 123.1875 164.625 123.5 164.0312 123.7656 L163.4062 124.0156 C162.6406 124.3125 162.3906 124.5469 162.3906 124.9375 C162.3906 125.1094 162.4531 125.3438 162.5781 125.8125 L162.7344 126.3438 L163.1094 126.3438 L163.0938 125.5312 C163.0938 125.0938 163.2031 124.9688 163.7812 124.7344 L164.2031 124.5625 C165.0312 124.2188 165.4531 123.6875 165.4531 122.8438 C165.4531 121.1562 163.6562 120.1875 162.5 120.0312 C162.1094 120.125 161.9062 120.2969 161.9062 120.6406 C161.9062 120.9375 162.0625 121.1562 162.7188 121.2656 L164.4688 121.5781 Z" style="fill:black; stroke:none;"
      /><rect x="227" width="5" height="10" y="119" style="stroke:none;"
      /><path d="M228.8906 127.6875 C228.4844 127.6875 228.1562 128.0469 228.1562 128.4219 C228.1562 128.8125 228.4844 129.1562 228.8906 129.1562 C229.2969 129.1562 229.6406 128.8125 229.6406 128.4219 C229.6406 128.0469 229.2969 127.6875 228.8906 127.6875 ZM230.4688 121.5781 C230.7188 121.8906 230.875 122.2656 230.8906 122.6562 C230.8906 123.1875 230.625 123.5 230.0312 123.7656 L229.4062 124.0156 C228.6406 124.3125 228.3906 124.5469 228.3906 124.9375 C228.3906 125.1094 228.4531 125.3438 228.5781 125.8125 L228.7344 126.3438 L229.1094 126.3438 L229.0938 125.5312 C229.0938 125.0938 229.2031 124.9688 229.7812 124.7344 L230.2031 124.5625 C231.0312 124.2188 231.4531 123.6875 231.4531 122.8438 C231.4531 121.1562 229.6562 120.1875 228.5 120.0312 C228.1094 120.125 227.9062 120.2969 227.9062 120.6406 C227.9062 120.9375 228.0625 121.1562 228.7188 121.2656 L230.4688 121.5781 Z" style="fill:black; stroke:none;"
      /><rect x="213" width="5" height="10" y="119" style="stroke:none;"
      /><path d="M214.8906 127.6875 C214.4844 127.6875 214.1562 128.0469 214.1562 128.4219 C214.1562 128.8125 214.4844 129.1562 214.8906 129.1562 C215.2969 129.1562 215.6406 128.8125 215.6406 128.4219 C215.6406 128.0469 215.2969 127.6875 214.8906 127.6875 ZM216.4688 121.5781 C216.7188 121.8906 216.875 122.2656 216.8906 122.6562 C216.8906 123.1875 216.625 123.5 216.0312 123.7656 L215.4062 124.0156 C214.6406 124.3125 214.3906 124.5469 214.3906 124.9375 C214.3906 125.1094 214.4531 125.3438 214.5781 125.8125 L214.7344 126.3438 L215.1094 126.3438 L215.0938 125.5312 C215.0938 125.0938 215.2031 124.9688 215.7812 124.7344 L216.2031 124.5625 C217.0312 124.2188 217.4531 123.6875 217.4531 122.8438 C217.4531 121.1562 215.6562 120.1875 214.5 120.0312 C214.1094 120.125 213.9062 120.2969 213.9062 120.6406 C213.9062 120.9375 214.0625 121.1562 214.7188 121.2656 L216.4688 121.5781 Z" style="fill:black; stroke:none;"
      /><polygon style="clip-path:url(#clipPath11); stroke:none;" points=" 260 41 254 48 243 48 238 41 243 33 254 33 260 41"
      /><rect x="238" y="30" width="22" style="clip-path:url(#clipPath11); fill:rgb(255,212,0); stroke:none;" height="22"
      /><rect x="238" y="30" width="22" style="clip-path:url(#clipPath11); fill:none; stroke:black;" height="22"
      /><polygon style="fill:none; stroke:black;" points=" 260 41 254 48 243 48 238 41 243 33 254 33 260 41"
      /><rect x="285" width="5" height="10" y="92" style="stroke:none;"
      /><path d="M286.8906 100.6875 C286.4844 100.6875 286.1562 101.0469 286.1562 101.4219 C286.1562 101.8125 286.4844 102.1562 286.8906 102.1562 C287.2969 102.1562 287.6406 101.8125 287.6406 101.4219 C287.6406 101.0469 287.2969 100.6875 286.8906 100.6875 ZM288.4688 94.5781 C288.7188 94.8906 288.875 95.2656 288.8906 95.6562 C288.8906 96.1875 288.625 96.5 288.0312 96.7656 L287.4062 97.0156 C286.6406 97.3125 286.3906 97.5469 286.3906 97.9375 C286.3906 98.1094 286.4531 98.3438 286.5781 98.8125 L286.7344 99.3438 L287.1094 99.3438 L287.0938 98.5312 C287.0938 98.0938 287.2031 97.9688 287.7812 97.7344 L288.2031 97.5625 C289.0312 97.2188 289.4531 96.6875 289.4531 95.8438 C289.4531 94.1562 287.6562 93.1875 286.5 93.0312 C286.1094 93.125 285.9062 93.2969 285.9062 93.6406 C285.9062 93.9375 286.0625 94.1562 286.7188 94.2656 L288.4688 94.5781 Z" style="fill:black; stroke:none;"
      /><rect x="268" width="5" height="10" y="104" style="stroke:none;"
      /><path d="M269.8906 112.6875 C269.4844 112.6875 269.1562 113.0469 269.1562 113.4219 C269.1562 113.8125 269.4844 114.1562 269.8906 114.1562 C270.2969 114.1562 270.6406 113.8125 270.6406 113.4219 C270.6406 113.0469 270.2969 112.6875 269.8906 112.6875 ZM271.4688 106.5781 C271.7188 106.8906 271.875 107.2656 271.8906 107.6562 C271.8906 108.1875 271.625 108.5 271.0312 108.7656 L270.4062 109.0156 C269.6406 109.3125 269.3906 109.5469 269.3906 109.9375 C269.3906 110.1094 269.4531 110.3438 269.5781 110.8125 L269.7344 111.3438 L270.1094 111.3438 L270.0938 110.5312 C270.0938 110.0938 270.2031 109.9688 270.7812 109.7344 L271.2031 109.5625 C272.0312 109.2188 272.4531 108.6875 272.4531 107.8438 C272.4531 106.1562 270.6562 105.1875 269.5 105.0312 C269.1094 105.125 268.9062 105.2969 268.9062 105.6406 C268.9062 105.9375 269.0625 106.1562 269.7188 106.2656 L271.4688 106.5781 Z" style="fill:black; stroke:none;"
      /><rect x="276" width="5" height="10" y="67" style="stroke:none;"
      /><path d="M277.8906 75.6875 C277.4844 75.6875 277.1562 76.0469 277.1562 76.4219 C277.1562 76.8125 277.4844 77.1562 277.8906 77.1562 C278.2969 77.1562 278.6406 76.8125 278.6406 76.4219 C278.6406 76.0469 278.2969 75.6875 277.8906 75.6875 ZM279.4688 69.5781 C279.7188 69.8906 279.875 70.2656 279.8906 70.6562 C279.8906 71.1875 279.625 71.5 279.0312 71.7656 L278.4062 72.0156 C277.6406 72.3125 277.3906 72.5469 277.3906 72.9375 C277.3906 73.1094 277.4531 73.3438 277.5781 73.8125 L277.7344 74.3438 L278.1094 74.3438 L278.0938 73.5312 C278.0938 73.0938 278.2031 72.9688 278.7812 72.7344 L279.2031 72.5625 C280.0312 72.2188 280.4531 71.6875 280.4531 70.8438 C280.4531 69.1562 278.6562 68.1875 277.5 68.0312 C277.1094 68.125 276.9062 68.2969 276.9062 68.6406 C276.9062 68.9375 277.0625 69.1562 277.7188 69.2656 L279.4688 69.5781 Z" style="fill:black; stroke:none;"
      /><rect x="259" width="5" height="10" y="54" style="stroke:none;"
      /><path d="M260.8906 62.6875 C260.4844 62.6875 260.1562 63.0469 260.1562 63.4219 C260.1562 63.8125 260.4844 64.1562 260.8906 64.1562 C261.2969 64.1562 261.6406 63.8125 261.6406 63.4219 C261.6406 63.0469 261.2969 62.6875 260.8906 62.6875 ZM262.4688 56.5781 C262.7188 56.8906 262.875 57.2656 262.8906 57.6562 C262.8906 58.1875 262.625 58.5 262.0312 58.7656 L261.4062 59.0156 C260.6406 59.3125 260.3906 59.5469 260.3906 59.9375 C260.3906 60.1094 260.4531 60.3438 260.5781 60.8125 L260.7344 61.3438 L261.1094 61.3438 L261.0938 60.5312 C261.0938 60.0938 261.2031 59.9688 261.7812 59.7344 L262.2031 59.5625 C263.0312 59.2188 263.4531 58.6875 263.4531 57.8438 C263.4531 56.1562 261.6562 55.1875 260.5 55.0312 C260.1094 55.125 259.9062 55.2969 259.9062 55.6406 C259.9062 55.9375 260.0625 56.1562 260.7188 56.2656 L262.4688 56.5781 Z" style="fill:black; stroke:none;"
      /><rect x="331" width="5" height="10" y="81" style="stroke:none;"
      /><path d="M332.8906 89.6875 C332.4844 89.6875 332.1562 90.0469 332.1562 90.4219 C332.1562 90.8125 332.4844 91.1562 332.8906 91.1562 C333.2969 91.1562 333.6406 90.8125 333.6406 90.4219 C333.6406 90.0469 333.2969 89.6875 332.8906 89.6875 ZM334.4688 83.5781 C334.7188 83.8906 334.875 84.2656 334.8906 84.6562 C334.8906 85.1875 334.625 85.5 334.0312 85.7656 L333.4062 86.0156 C332.6406 86.3125 332.3906 86.5469 332.3906 86.9375 C332.3906 87.1094 332.4531 87.3438 332.5781 87.8125 L332.7344 88.3438 L333.1094 88.3438 L333.0938 87.5312 C333.0938 87.0938 333.2031 86.9688 333.7812 86.7344 L334.2031 86.5625 C335.0312 86.2188 335.4531 85.6875 335.4531 84.8438 C335.4531 83.1562 333.6562 82.1875 332.5 82.0312 C332.1094 82.125 331.9062 82.2969 331.9062 82.6406 C331.9062 82.9375 332.0625 83.1562 332.7188 83.2656 L334.4688 83.5781 Z" style="fill:black; stroke:none;"
      /><rect x="317" width="5" height="10" y="81" style="stroke:none;"
      /><path d="M318.8906 89.6875 C318.4844 89.6875 318.1562 90.0469 318.1562 90.4219 C318.1562 90.8125 318.4844 91.1562 318.8906 91.1562 C319.2969 91.1562 319.6406 90.8125 319.6406 90.4219 C319.6406 90.0469 319.2969 89.6875 318.8906 89.6875 ZM320.4688 83.5781 C320.7188 83.8906 320.875 84.2656 320.8906 84.6562 C320.8906 85.1875 320.625 85.5 320.0312 85.7656 L319.4062 86.0156 C318.6406 86.3125 318.3906 86.5469 318.3906 86.9375 C318.3906 87.1094 318.4531 87.3438 318.5781 87.8125 L318.7344 88.3438 L319.1094 88.3438 L319.0938 87.5312 C319.0938 87.0938 319.2031 86.9688 319.7812 86.7344 L320.2031 86.5625 C321.0312 86.2188 321.4531 85.6875 321.4531 84.8438 C321.4531 83.1562 319.6562 82.1875 318.5 82.0312 C318.1094 82.125 317.9062 82.2969 317.9062 82.6406 C317.9062 82.9375 318.0625 83.1562 318.7188 83.2656 L320.4688 83.5781 Z" style="fill:black; stroke:none;"
      /><rect x="383" width="5" height="10" y="81" style="stroke:none;"
      /><path d="M384.8906 89.6875 C384.4844 89.6875 384.1562 90.0469 384.1562 90.4219 C384.1562 90.8125 384.4844 91.1562 384.8906 91.1562 C385.2969 91.1562 385.6406 90.8125 385.6406 90.4219 C385.6406 90.0469 385.2969 89.6875 384.8906 89.6875 ZM386.4688 83.5781 C386.7188 83.8906 386.875 84.2656 386.8906 84.6562 C386.8906 85.1875 386.625 85.5 386.0312 85.7656 L385.4062 86.0156 C384.6406 86.3125 384.3906 86.5469 384.3906 86.9375 C384.3906 87.1094 384.4531 87.3438 384.5781 87.8125 L384.7344 88.3438 L385.1094 88.3438 L385.0938 87.5312 C385.0938 87.0938 385.2031 86.9688 385.7812 86.7344 L386.2031 86.5625 C387.0312 86.2188 387.4531 85.6875 387.4531 84.8438 C387.4531 83.1562 385.6562 82.1875 384.5 82.0312 C384.1094 82.125 383.9062 82.2969 383.9062 82.6406 C383.9062 82.9375 384.0625 83.1562 384.7188 83.2656 L386.4688 83.5781 Z" style="fill:black; stroke:none;"
      /><rect x="369" width="5" height="10" y="81" style="stroke:none;"
      /><path d="M370.8906 89.6875 C370.4844 89.6875 370.1562 90.0469 370.1562 90.4219 C370.1562 90.8125 370.4844 91.1562 370.8906 91.1562 C371.2969 91.1562 371.6406 90.8125 371.6406 90.4219 C371.6406 90.0469 371.2969 89.6875 370.8906 89.6875 ZM372.4688 83.5781 C372.7188 83.8906 372.875 84.2656 372.8906 84.6562 C372.8906 85.1875 372.625 85.5 372.0312 85.7656 L371.4062 86.0156 C370.6406 86.3125 370.3906 86.5469 370.3906 86.9375 C370.3906 87.1094 370.4531 87.3438 370.5781 87.8125 L370.7344 88.3438 L371.1094 88.3438 L371.0938 87.5312 C371.0938 87.0938 371.2031 86.9688 371.7812 86.7344 L372.2031 86.5625 C373.0312 86.2188 373.4531 85.6875 373.4531 84.8438 C373.4531 83.1562 371.6562 82.1875 370.5 82.0312 C370.1094 82.125 369.9062 82.2969 369.9062 82.6406 C369.9062 82.9375 370.0625 83.1562 370.7188 83.2656 L372.4688 83.5781 Z" style="fill:black; stroke:none;"
      /><rect x="421" width="5" height="10" y="81" style="stroke:none;"
      /><path d="M422.8906 89.6875 C422.4844 89.6875 422.1562 90.0469 422.1562 90.4219 C422.1562 90.8125 422.4844 91.1562 422.8906 91.1562 C423.2969 91.1562 423.6406 90.8125 423.6406 90.4219 C423.6406 90.0469 423.2969 89.6875 422.8906 89.6875 ZM424.4688 83.5781 C424.7188 83.8906 424.875 84.2656 424.8906 84.6562 C424.8906 85.1875 424.625 85.5 424.0312 85.7656 L423.4062 86.0156 C422.6406 86.3125 422.3906 86.5469 422.3906 86.9375 C422.3906 87.1094 422.4531 87.3438 422.5781 87.8125 L422.7344 88.3438 L423.1094 88.3438 L423.0938 87.5312 C423.0938 87.0938 423.2031 86.9688 423.7812 86.7344 L424.2031 86.5625 C425.0312 86.2188 425.4531 85.6875 425.4531 84.8438 C425.4531 83.1562 423.6562 82.1875 422.5 82.0312 C422.1094 82.125 421.9062 82.2969 421.9062 82.6406 C421.9062 82.9375 422.0625 83.1562 422.7188 83.2656 L424.4688 83.5781 Z" style="fill:black; stroke:none;"
    /></g
  ></g
></svg
>
