<?xml version="1.0"?>
<!DOCTYPE svg PUBLIC '-//W3C//DTD SVG 1.0//EN'
          'http://www.w3.org/TR/2001/REC-SVG-20010904/DTD/svg10.dtd'>
<svg xmlns:xlink="http://www.w3.org/1999/xlink" style="fill-opacity:1; color-rendering:auto; color-interpolation:auto; text-rendering:auto; stroke:black; stroke-linecap:square; stroke-miterlimit:10; shape-rendering:auto; stroke-opacity:1; fill:black; stroke-dasharray:none; font-weight:normal; stroke-width:1; font-family:'Dialog'; font-style:normal; stroke-linejoin:miter; font-size:12px; stroke-dashoffset:0; image-rendering:auto;" viewBox="0 0 550 290" xmlns="http://www.w3.org/2000/svg"
><!--Generated by the Batik Graphics2D SVG Generator--><defs id="genericDefs"
  /><g
  ><defs id="defs1"
    ><clipPath clipPathUnits="userSpaceOnUse" id="clipPath1"
      ><path d="M446 108 L468 108 L468 130 L446 130 L446 108 Z"
      /></clipPath
      ><clipPath clipPathUnits="userSpaceOnUse" id="clipPath2"
      ><path d="M394 108 L416 108 L416 130 L394 130 L394 108 Z"
      /></clipPath
      ><clipPath clipPathUnits="userSpaceOnUse" id="clipPath3"
      ><path d="M364 119 C364 125.0751 359.0751 130 353 130 C346.9249 130 342 125.0751 342 119 C342 112.9249 346.9249 108 353 108 C359.0751 108 364 112.9249 364 119 Z"
      /></clipPath
      ><clipPath clipPathUnits="userSpaceOnUse" id="clipPath4"
      ><path d="M312 171 C312 177.0751 307.0751 182 301 182 C294.9249 182 290 177.0751 290 171 C290 164.9249 294.9249 160 301 160 C307.0751 160 312 164.9249 312 171 Z"
      /></clipPath
      ><clipPath clipPathUnits="userSpaceOnUse" id="clipPath5"
      ><path d="M238 186 L260 186 L260 208 L238 208 L238 186 Z"
      /></clipPath
      ><clipPath clipPathUnits="userSpaceOnUse" id="clipPath6"
      ><path d="M208 197 C208 203.0751 203.0751 208 197 208 C190.9249 208 186 203.0751 186 197 C186 190.9249 190.9249 186 197 186 C203.0751 186 208 190.9249 208 197 Z"
      /></clipPath
      ><clipPath clipPathUnits="userSpaceOnUse" id="clipPath7"
      ><path d="M134 186 L156 186 L156 208 L134 208 L134 186 Z"
      /></clipPath
      ><clipPath clipPathUnits="userSpaceOnUse" id="clipPath8"
      ><path style="fill-rule:evenodd;" d="M145 238 L156 260 L134 260 Z"
      /></clipPath
      ><clipPath clipPathUnits="userSpaceOnUse" id="clipPath9"
      ><path d="M104 197 C104 203.0751 99.0751 208 93 208 C86.9249 208 82 203.0751 82 197 C82 190.9249 86.9249 186 93 186 C99.0751 186 104 190.9249 104 197 Z"
      /></clipPath
      ><clipPath clipPathUnits="userSpaceOnUse" id="clipPath10"
      ><path style="fill-rule:evenodd;" d="M41 186 L52 197 L41 208 L30 197 Z"
      /></clipPath
      ><clipPath clipPathUnits="userSpaceOnUse" id="clipPath11"
      ><path d="M238 134 L260 134 L260 156 L238 156 L238 134 Z"
      /></clipPath
      ><clipPath clipPathUnits="userSpaceOnUse" id="clipPath12"
      ><path d="M208 145 C208 151.0751 203.0751 156 197 156 C190.9249 156 186 151.0751 186 145 C186 138.9249 190.9249 134 197 134 C203.0751 134 208 138.9249 208 145 Z"
      /></clipPath
      ><clipPath clipPathUnits="userSpaceOnUse" id="clipPath13"
      ><path d="M134 134 L156 134 L156 156 L134 156 L134 134 Z"
      /></clipPath
      ><clipPath clipPathUnits="userSpaceOnUse" id="clipPath14"
      ><path d="M104 145 C104 151.0751 99.0751 156 93 156 C86.9249 156 82 151.0751 82 145 C82 138.9249 86.9249 134 93 134 C99.0751 134 104 138.9249 104 145 Z"
      /></clipPath
      ><clipPath clipPathUnits="userSpaceOnUse" id="clipPath15"
      ><path d="M290 108 L312 108 L312 130 L290 130 L290 108 Z"
      /></clipPath
      ><clipPath clipPathUnits="userSpaceOnUse" id="clipPath16"
      ><path d="M312 67 C312 73.0751 307.0751 78 301 78 C294.9249 78 290 73.0751 290 67 C290 60.9249 294.9249 56 301 56 C307.0751 56 312 60.9249 312 67 Z"
      /></clipPath
      ><clipPath clipPathUnits="userSpaceOnUse" id="clipPath17"
      ><path d="M260 93 C260 99.0751 255.0751 104 249 104 C242.9249 104 238 99.0751 238 93 C238 86.9249 242.9249 82 249 82 C255.0751 82 260 86.9249 260 93 Z"
      /></clipPath
      ><clipPath clipPathUnits="userSpaceOnUse" id="clipPath18"
      ><path d="M260 41 C260 47.0751 255.0751 52 249 52 C242.9249 52 238 47.0751 238 41 C238 34.9249 242.9249 30 249 30 C255.0751 30 260 34.9249 260 41 Z"
      /></clipPath
      ><clipPath clipPathUnits="userSpaceOnUse" id="clipPath19"
      ><path style="fill-rule:evenodd;" d="M457 78 L446 56 L468 56 Z"
      /></clipPath
    ></defs
    ><g style="fill:white; text-rendering:optimizeSpeed; stroke:white;"
    ><rect x="0" width="550" height="290" y="0" style="stroke:none;"
      /><polygon style="fill:none; stroke:black;" points=" 509 119 457 119"
      /><path d="M509 108 C503.5 113.5 514.5 124.5 509 130" style="fill:none; stroke:black;"
      /><polygon style="fill:none; stroke:black;" points=" 457 119 405 119"
      /><polygon style="fill:none; stroke:black;" points=" 457 119 457 67"
      /><rect x="446" y="108" width="22" style="clip-path:url(#clipPath1); stroke:none;" height="22"
      /><rect x="446" y="108" width="22" style="clip-path:url(#clipPath1); fill:rgb(0,144,188); stroke:none;" height="22"
      /><rect x="446" y="108" width="22" style="clip-path:url(#clipPath1); fill:none; stroke:black;" height="22"
      /><rect x="446" y="108" width="22" style="fill:none; stroke:black;" height="22"
      /><polygon style="fill:none; stroke:black;" points=" 405 119 353 119"
      /><rect x="394" y="108" width="22" style="clip-path:url(#clipPath2); stroke:none;" height="22"
      /><rect x="394" y="108" width="22" style="clip-path:url(#clipPath2); fill:rgb(0,144,188); stroke:none;" height="22"
      /><rect x="394" y="108" width="22" style="clip-path:url(#clipPath2); fill:none; stroke:black;" height="22"
      /><rect x="394" y="108" width="22" style="fill:none; stroke:black;" height="22"
      /><polygon style="fill:none; stroke:black;" points=" 353 119 301 171"
      /><polygon style="fill:none; stroke:black;" points=" 353 119 301 119"
      /><polygon style="fill:none; stroke:black;" points=" 353 119 301 67"
      /><circle style="clip-path:url(#clipPath3); stroke:none;" r="11" cx="353" cy="119"
      /><rect x="342" y="108" width="22" style="clip-path:url(#clipPath3); fill:rgb(0,166,81); stroke:none;" height="22"
      /><rect x="342" y="108" width="22" style="clip-path:url(#clipPath3); fill:none; stroke:black;" height="22"
      /><circle style="fill:none; stroke:black;" r="11" cx="353" cy="119"
      /><polygon style="fill:none; stroke:black;" points=" 301 171 249 197"
      /><polygon style="fill:none; stroke:black;" points=" 301 171 249 145"
      /><circle style="clip-path:url(#clipPath4); stroke:none;" r="11" cx="301" cy="171"
      /><rect x="290" y="160" width="22" style="clip-path:url(#clipPath4); fill:rgb(0,166,81); stroke:none;" height="22"
      /><rect x="290" y="160" width="22" style="clip-path:url(#clipPath4); fill:none; stroke:black;" height="22"
      /><circle style="fill:none; stroke:black;" r="11" cx="301" cy="171"
      /><polygon style="fill:none; stroke:black;" points=" 249 197 197 197"
      /><rect x="238" y="186" width="22" style="clip-path:url(#clipPath5); stroke:none;" height="22"
      /><rect x="238" y="186" width="22" style="clip-path:url(#clipPath5); fill:rgb(0,144,188); stroke:none;" height="22"
      /><rect x="238" y="186" width="22" style="clip-path:url(#clipPath5); fill:none; stroke:black;" height="22"
      /><rect x="238" y="186" width="22" style="fill:none; stroke:black;" height="22"
      /><polygon style="fill:none; stroke:black;" points=" 197 197 145 197"
      /><circle style="clip-path:url(#clipPath6); stroke:none;" r="11" cx="197" cy="197"
      /><rect x="186" y="186" width="22" style="clip-path:url(#clipPath6); fill:rgb(255,212,0); stroke:none;" height="22"
      /><rect x="186" y="186" width="22" style="clip-path:url(#clipPath6); fill:none; stroke:black;" height="22"
      /><circle style="fill:none; stroke:black;" r="11" cx="197" cy="197"
      /><polygon style="fill:none; stroke:black;" points=" 145 197 145 249"
      /><polygon style="fill:none; stroke:black;" points=" 145 197 93 197"
      /><rect x="134" y="186" width="22" style="clip-path:url(#clipPath7); stroke:none;" height="22"
      /><rect x="134" y="186" width="22" style="clip-path:url(#clipPath7); fill:rgb(0,144,188); stroke:none;" height="22"
      /><rect x="134" y="186" width="22" style="clip-path:url(#clipPath7); fill:none; stroke:black;" height="22"
      /><rect x="134" y="186" width="22" style="fill:none; stroke:black;" height="22"
      /><polygon style="clip-path:url(#clipPath8); stroke:none;" points=" 145 238 156 260 134 260"
      /><rect x="134" y="238" width="22" style="clip-path:url(#clipPath8); fill:rgb(237,28,36); stroke:none;" height="22"
      /><rect x="134" y="238" width="22" style="clip-path:url(#clipPath8); fill:none; stroke:black;" height="22"
      /><polygon style="fill:none; stroke:black;" points=" 145 238 156 260 134 260"
      /><polygon style="fill:none; stroke:black;" points=" 93 197 41 197"
      /><circle style="clip-path:url(#clipPath9); stroke:none;" r="11" cx="93" cy="197"
      /><rect x="82" y="186" width="22" style="clip-path:url(#clipPath9); fill:rgb(255,212,0); stroke:none;" height="22"
      /><rect x="82" y="186" width="22" style="clip-path:url(#clipPath9); fill:none; stroke:black;" height="22"
      /><circle style="fill:none; stroke:black;" r="11" cx="93" cy="197"
      /><polygon style="clip-path:url(#clipPath10); stroke:none;" points=" 41 186 52 197 41 208 30 197"
      /><rect x="30" y="186" width="22" style="clip-path:url(#clipPath10); fill:rgb(143,204,233); stroke:none;" height="22"
      /><rect x="30" y="186" width="22" style="clip-path:url(#clipPath10); fill:none; stroke:black;" height="22"
      /><polygon style="fill:none; stroke:black;" points=" 41 186 52 197 41 208 30 197"
      /><rect x="66" y="198" width="16" style="stroke:none;" height="13"
    /></g
    ><g style="font-family:'Serif'; text-rendering:optimizeSpeed; "
    ><path style="stroke:none;" d="M68.2344 202.6562 C68.5156 202.5938 68.7656 202.5625 69.0156 202.5625 C70.0625 202.5625 70.6719 203.1719 70.6719 204.2656 C70.6719 205.4375 69.9062 206.1094 68.7031 206.1094 L68.1875 206.1094 L68.1875 206.6406 L68.7969 206.6406 C70.2188 206.6406 70.9062 207.4219 70.9062 208.6406 C70.9062 209.8438 70.1719 210.6875 68.875 210.6875 C68.6094 210.6875 68.3125 210.6562 68.0156 210.5625 L67.7812 209.8125 C67.625 209.2812 67.5 209.0469 67.1406 209.0469 C66.8906 209.0469 66.7031 209.1719 66.5781 209.4219 C66.8438 210.6406 67.7812 211.1719 69.0312 211.1719 C70.7188 211.1719 71.875 210.125 71.875 208.7031 C71.875 207.5 71.2031 206.625 69.7969 206.375 C70.9531 206.0156 71.6094 205.2031 71.6094 204.2031 C71.6094 202.9219 70.6719 202.0781 69.1875 202.0781 C68.0469 202.0781 67.0625 202.5938 66.7969 203.6875 C66.9062 204 67.1094 204.1094 67.3594 204.1094 C67.7344 204.1094 67.8906 203.8906 68 203.4062 L68.2344 202.6562 ZM72.4993 213.0938 L73.1087 213.0938 L76.6087 201.7344 L75.9837 201.7344 L72.4993 213.0938 ZM79.9878 210.6875 C78.8472 210.6875 78.1753 209.5 78.1753 207.2969 C78.1753 207.2188 78.1753 207.125 78.1753 207.0469 C78.7378 206.5 79.3628 206.3125 79.9878 206.3125 C80.9566 206.3125 81.5972 206.9844 81.5972 208.4531 C81.5972 209.9375 80.9566 210.6875 79.9878 210.6875 ZM82.1753 202.0781 C78.9878 202.4531 77.2066 204.7656 77.2066 207.4531 C77.2066 209.7812 78.2534 211.1719 79.9566 211.1719 C81.4878 211.1719 82.5659 210.1094 82.5659 208.2812 C82.5659 206.6875 81.6128 205.6562 80.2066 205.6562 C79.4722 205.6562 78.7847 205.9844 78.2222 206.5781 C78.4409 204.4062 79.7222 202.9688 82.2378 202.3906 L82.1753 202.0781 Z"
      /><rect x="56" y="201" width="8" style="fill:white; stroke:none;" height="8"
      /><path style="stroke:none;" d="M60.9844 206.7031 C60.9375 207.8906 60.1562 208.6562 59.3125 208.6562 C58.2656 208.6562 57.5 207.6875 57.5 205.7188 C57.5 204.2812 58.1562 203.1562 59.3438 203.1562 C60.1406 203.1562 60.7812 203.6875 61.0938 204.6406 L60.9844 206.7031 ZM62.9062 208.2812 C62.7344 208.375 62.5469 208.4219 62.3438 208.4219 C61.9531 208.4219 61.75 208.2188 61.75 207.4219 C61.75 206.4844 61.9688 204.5312 62.1875 202.8281 L62.0312 202.7188 L61.2344 202.9219 L61.1406 203.7969 C60.7812 203.0312 60.1562 202.6562 59.3906 202.6562 C58.0469 202.6562 56.5625 203.8438 56.5625 205.9531 C56.5625 208.0938 57.7188 209.1719 59.1406 209.1719 C60.0156 209.1719 60.6875 208.8125 61.0938 207.9844 C61.2031 208.8594 61.5156 209.1719 62.0156 209.1719 C62.4688 209.1719 62.7969 208.9062 63.0156 208.5625 L62.9062 208.2812 Z"
      /><rect x="150" y="211" width="6" style="fill:white; stroke:none;" height="10"
      /><path style="stroke:none;" d="M152.2344 212.6562 C152.5156 212.5938 152.7656 212.5625 153.0156 212.5625 C154.0625 212.5625 154.6719 213.1719 154.6719 214.2656 C154.6719 215.4375 153.9062 216.1094 152.7031 216.1094 L152.1875 216.1094 L152.1875 216.6406 L152.7969 216.6406 C154.2188 216.6406 154.9062 217.4219 154.9062 218.6406 C154.9062 219.8438 154.1719 220.6875 152.875 220.6875 C152.6094 220.6875 152.3125 220.6562 152.0156 220.5625 L151.7812 219.8125 C151.625 219.2812 151.5 219.0469 151.1406 219.0469 C150.8906 219.0469 150.7031 219.1719 150.5781 219.4219 C150.8438 220.6406 151.7812 221.1719 153.0312 221.1719 C154.7188 221.1719 155.875 220.125 155.875 218.7031 C155.875 217.5 155.2031 216.625 153.7969 216.375 C154.9531 216.0156 155.6094 215.2031 155.6094 214.2031 C155.6094 212.9219 154.6719 212.0781 153.1875 212.0781 C152.0469 212.0781 151.0625 212.5938 150.7969 213.6875 C150.9062 214 151.1094 214.1094 151.3594 214.1094 C151.7344 214.1094 151.8906 213.8906 152 213.4062 L152.2344 212.6562 Z"
      /><rect x="149" y="226" width="8" style="fill:white; stroke:none;" height="8"
      /><path style="stroke:none;" d="M153.9844 231.7031 C153.9375 232.8906 153.1562 233.6562 152.3125 233.6562 C151.2656 233.6562 150.5 232.6875 150.5 230.7188 C150.5 229.2812 151.1562 228.1562 152.3438 228.1562 C153.1406 228.1562 153.7812 228.6875 154.0938 229.6406 L153.9844 231.7031 ZM155.9062 233.2812 C155.7344 233.375 155.5469 233.4219 155.3438 233.4219 C154.9531 233.4219 154.75 233.2188 154.75 232.4219 C154.75 231.4844 154.9688 229.5312 155.1875 227.8281 L155.0312 227.7188 L154.2344 227.9219 L154.1406 228.7969 C153.7812 228.0312 153.1562 227.6562 152.3906 227.6562 C151.0469 227.6562 149.5625 228.8438 149.5625 230.9531 C149.5625 233.0938 150.7188 234.1719 152.1406 234.1719 C153.0156 234.1719 153.6875 233.8125 154.0938 232.9844 C154.2031 233.8594 154.5156 234.1719 155.0156 234.1719 C155.4688 234.1719 155.7969 233.9062 156.0156 233.5625 L155.9062 233.2812 Z"
      /><rect x="122" y="200" width="7" style="fill:white; stroke:none;" height="9"
      /><path style="stroke:none;" d="M123 205.5156 L125.9531 201.2656 L125.9531 205.5156 L123 205.5156 ZM128.2812 205.5156 L126.8594 205.5156 L126.8594 200.125 L126.2344 200.125 L122.3438 205.6406 L122.3438 206.1875 L125.9531 206.1875 L125.9531 209 L126.8594 209 L126.8594 206.1875 L128.2812 206.1875 L128.2812 205.5156 Z"
      /><rect x="109" y="198" width="6" style="fill:white; stroke:none;" height="13"
      /><path style="stroke:none;" d="M111.0938 204.2031 C111.0938 202.6562 111.75 201.8125 112.7969 201.8125 C113.7188 201.8125 114.2656 202.4531 114.2656 203.5156 C114.2656 204.7188 113.5 205.4375 112.1875 205.7031 L112.2969 206.3125 C114.2188 206.2344 114.9375 207.2188 114.9375 208.4375 C114.9375 209.625 114.2344 210.4219 112.9531 210.4219 C112.25 210.4219 111.6562 210.1562 111.0938 209.7188 L111.0938 204.2031 ZM110.2031 210.9062 L110.1094 213.375 L110.2656 213.4844 L111.1562 213.2656 L111.0156 210.0938 C111.5469 210.8438 112.3594 211.1719 113.1719 211.1719 C114.5625 211.1719 115.8594 210.2188 115.8594 208.4844 C115.8594 206.9531 114.875 206.1094 113.125 206 C114.5625 205.6094 115.1875 204.4531 115.1875 203.4844 C115.1875 202.0938 114.1562 201.3125 112.9062 201.3125 C111.2969 201.3125 110.2188 202.5469 110.2188 204.5156 L110.2031 210.9062 Z"
      /><rect x="175" y="200" width="6" style="fill:white; stroke:none;" height="10"
      /><path style="stroke:none;" d="M177.2344 201.6562 C177.5156 201.5938 177.7656 201.5625 178.0156 201.5625 C179.0625 201.5625 179.6719 202.1719 179.6719 203.2656 C179.6719 204.4375 178.9062 205.1094 177.7031 205.1094 L177.1875 205.1094 L177.1875 205.6406 L177.7969 205.6406 C179.2188 205.6406 179.9062 206.4219 179.9062 207.6406 C179.9062 208.8438 179.1719 209.6875 177.875 209.6875 C177.6094 209.6875 177.3125 209.6562 177.0156 209.5625 L176.7812 208.8125 C176.625 208.2812 176.5 208.0469 176.1406 208.0469 C175.8906 208.0469 175.7031 208.1719 175.5781 208.4219 C175.8438 209.6406 176.7812 210.1719 178.0312 210.1719 C179.7188 210.1719 180.875 209.125 180.875 207.7031 C180.875 206.5 180.2031 205.625 178.7969 205.375 C179.9531 205.0156 180.6094 204.2031 180.6094 203.2031 C180.6094 201.9219 179.6719 201.0781 178.1875 201.0781 C177.0469 201.0781 176.0625 201.5938 175.7969 202.6875 C175.9062 203 176.1094 203.1094 176.3594 203.1094 C176.7344 203.1094 176.8906 202.8906 177 202.4062 L177.2344 201.6562 Z"
      /><rect x="161" y="198" width="6" style="fill:white; stroke:none;" height="13"
      /><path style="stroke:none;" d="M163.0938 204.2031 C163.0938 202.6562 163.75 201.8125 164.7969 201.8125 C165.7188 201.8125 166.2656 202.4531 166.2656 203.5156 C166.2656 204.7188 165.5 205.4375 164.1875 205.7031 L164.2969 206.3125 C166.2188 206.2344 166.9375 207.2188 166.9375 208.4375 C166.9375 209.625 166.2344 210.4219 164.9531 210.4219 C164.25 210.4219 163.6562 210.1562 163.0938 209.7188 L163.0938 204.2031 ZM162.2031 210.9062 L162.1094 213.375 L162.2656 213.4844 L163.1562 213.2656 L163.0156 210.0938 C163.5469 210.8438 164.3594 211.1719 165.1719 211.1719 C166.5625 211.1719 167.8594 210.2188 167.8594 208.4844 C167.8594 206.9531 166.875 206.1094 165.125 206 C166.5625 205.6094 167.1875 204.4531 167.1875 203.4844 C167.1875 202.0938 166.1562 201.3125 164.9062 201.3125 C163.2969 201.3125 162.2188 202.5469 162.2188 204.5156 L162.2031 210.9062 Z"
      /><rect x="226" y="200" width="7" style="fill:white; stroke:none;" height="9"
      /><path style="stroke:none;" d="M227 205.5156 L229.9531 201.2656 L229.9531 205.5156 L227 205.5156 ZM232.2812 205.5156 L230.8594 205.5156 L230.8594 200.125 L230.2344 200.125 L226.3438 205.6406 L226.3438 206.1875 L229.9531 206.1875 L229.9531 209 L230.8594 209 L230.8594 206.1875 L232.2812 206.1875 L232.2812 205.5156 Z"
      /><rect x="213" y="198" width="6" style="fill:white; stroke:none;" height="13"
      /><path style="stroke:none;" d="M215.0938 204.2031 C215.0938 202.6562 215.75 201.8125 216.7969 201.8125 C217.7188 201.8125 218.2656 202.4531 218.2656 203.5156 C218.2656 204.7188 217.5 205.4375 216.1875 205.7031 L216.2969 206.3125 C218.2188 206.2344 218.9375 207.2188 218.9375 208.4375 C218.9375 209.625 218.2344 210.4219 216.9531 210.4219 C216.25 210.4219 215.6562 210.1562 215.0938 209.7188 L215.0938 204.2031 ZM214.2031 210.9062 L214.1094 213.375 L214.2656 213.4844 L215.1562 213.2656 L215.0156 210.0938 C215.5469 210.8438 216.3594 211.1719 217.1719 211.1719 C218.5625 211.1719 219.8594 210.2188 219.8594 208.4844 C219.8594 206.9531 218.875 206.1094 217.125 206 C218.5625 205.6094 219.1875 204.4531 219.1875 203.4844 C219.1875 202.0938 218.1562 201.3125 216.9062 201.3125 C215.2969 201.3125 214.2188 202.5469 214.2188 204.5156 L214.2031 210.9062 Z"
      /><polygon style="fill:none;" points=" 249 145 197 145"
      /><rect x="238" y="134" width="22" style="clip-path:url(#clipPath11); fill:white; stroke:none;" height="22"
      /><rect x="238" y="134" width="22" style="clip-path:url(#clipPath11); fill:rgb(0,144,188); stroke:none;" height="22"
      /><rect x="238" y="134" width="22" style="fill:none; clip-path:url(#clipPath11);" height="22"
      /><rect x="238" width="22" height="22" y="134" style="fill:none;"
      /><polygon style="fill:none;" points=" 197 145 145 145"
      /><circle style="fill:white; clip-path:url(#clipPath12); stroke:none;" r="11" cx="197" cy="145"
      /><rect x="186" y="134" width="22" style="clip-path:url(#clipPath12); fill:rgb(255,212,0); stroke:none;" height="22"
      /><rect x="186" y="134" width="22" style="fill:none; clip-path:url(#clipPath12);" height="22"
      /><circle r="11" style="fill:none;" cx="197" cy="145"
      /><polygon style="fill:none;" points=" 145 145 93 145"
      /><rect x="134" y="134" width="22" style="clip-path:url(#clipPath13); fill:white; stroke:none;" height="22"
      /><rect x="134" y="134" width="22" style="clip-path:url(#clipPath13); fill:rgb(0,144,188); stroke:none;" height="22"
      /><rect x="134" y="134" width="22" style="fill:none; clip-path:url(#clipPath13);" height="22"
      /><rect x="134" width="22" height="22" y="134" style="fill:none;"
      /><circle style="fill:white; clip-path:url(#clipPath14); stroke:none;" r="11" cx="93" cy="145"
      /><rect x="82" y="134" width="22" style="clip-path:url(#clipPath14); fill:rgb(255,212,0); stroke:none;" height="22"
      /><rect x="82" y="134" width="22" style="fill:none; clip-path:url(#clipPath14);" height="22"
      /><circle r="11" style="fill:none;" cx="93" cy="145"
      /><rect x="122" y="148" width="7" style="fill:white; stroke:none;" height="9"
      /><path style="stroke:none;" d="M123 153.5156 L125.9531 149.2656 L125.9531 153.5156 L123 153.5156 ZM128.2812 153.5156 L126.8594 153.5156 L126.8594 148.125 L126.2344 148.125 L122.3438 153.6406 L122.3438 154.1875 L125.9531 154.1875 L125.9531 157 L126.8594 157 L126.8594 154.1875 L128.2812 154.1875 L128.2812 153.5156 Z"
      /><rect x="109" y="146" width="6" style="fill:white; stroke:none;" height="13"
      /><path style="stroke:none;" d="M111.0938 152.2031 C111.0938 150.6562 111.75 149.8125 112.7969 149.8125 C113.7188 149.8125 114.2656 150.4531 114.2656 151.5156 C114.2656 152.7188 113.5 153.4375 112.1875 153.7031 L112.2969 154.3125 C114.2188 154.2344 114.9375 155.2188 114.9375 156.4375 C114.9375 157.625 114.2344 158.4219 112.9531 158.4219 C112.25 158.4219 111.6562 158.1562 111.0938 157.7188 L111.0938 152.2031 ZM110.2031 158.9062 L110.1094 161.375 L110.2656 161.4844 L111.1562 161.2656 L111.0156 158.0938 C111.5469 158.8438 112.3594 159.1719 113.1719 159.1719 C114.5625 159.1719 115.8594 158.2188 115.8594 156.4844 C115.8594 154.9531 114.875 154.1094 113.125 154 C114.5625 153.6094 115.1875 152.4531 115.1875 151.4844 C115.1875 150.0938 114.1562 149.3125 112.9062 149.3125 C111.2969 149.3125 110.2188 150.5469 110.2188 152.5156 L110.2031 158.9062 Z"
      /><rect x="175" y="148" width="6" style="fill:white; stroke:none;" height="10"
      /><path style="stroke:none;" d="M177.2344 149.6562 C177.5156 149.5938 177.7656 149.5625 178.0156 149.5625 C179.0625 149.5625 179.6719 150.1719 179.6719 151.2656 C179.6719 152.4375 178.9062 153.1094 177.7031 153.1094 L177.1875 153.1094 L177.1875 153.6406 L177.7969 153.6406 C179.2188 153.6406 179.9062 154.4219 179.9062 155.6406 C179.9062 156.8438 179.1719 157.6875 177.875 157.6875 C177.6094 157.6875 177.3125 157.6562 177.0156 157.5625 L176.7812 156.8125 C176.625 156.2812 176.5 156.0469 176.1406 156.0469 C175.8906 156.0469 175.7031 156.1719 175.5781 156.4219 C175.8438 157.6406 176.7812 158.1719 178.0312 158.1719 C179.7188 158.1719 180.875 157.125 180.875 155.7031 C180.875 154.5 180.2031 153.625 178.7969 153.375 C179.9531 153.0156 180.6094 152.2031 180.6094 151.2031 C180.6094 149.9219 179.6719 149.0781 178.1875 149.0781 C177.0469 149.0781 176.0625 149.5938 175.7969 150.6875 C175.9062 151 176.1094 151.1094 176.3594 151.1094 C176.7344 151.1094 176.8906 150.8906 177 150.4062 L177.2344 149.6562 Z"
      /><rect x="161" y="146" width="6" style="fill:white; stroke:none;" height="13"
      /><path style="stroke:none;" d="M163.0938 152.2031 C163.0938 150.6562 163.75 149.8125 164.7969 149.8125 C165.7188 149.8125 166.2656 150.4531 166.2656 151.5156 C166.2656 152.7188 165.5 153.4375 164.1875 153.7031 L164.2969 154.3125 C166.2188 154.2344 166.9375 155.2188 166.9375 156.4375 C166.9375 157.625 166.2344 158.4219 164.9531 158.4219 C164.25 158.4219 163.6562 158.1562 163.0938 157.7188 L163.0938 152.2031 ZM162.2031 158.9062 L162.1094 161.375 L162.2656 161.4844 L163.1562 161.2656 L163.0156 158.0938 C163.5469 158.8438 164.3594 159.1719 165.1719 159.1719 C166.5625 159.1719 167.8594 158.2188 167.8594 156.4844 C167.8594 154.9531 166.875 154.1094 165.125 154 C166.5625 153.6094 167.1875 152.4531 167.1875 151.4844 C167.1875 150.0938 166.1562 149.3125 164.9062 149.3125 C163.2969 149.3125 162.2188 150.5469 162.2188 152.5156 L162.2031 158.9062 Z"
      /><rect x="226" y="148" width="7" style="fill:white; stroke:none;" height="9"
      /><path style="stroke:none;" d="M227 153.5156 L229.9531 149.2656 L229.9531 153.5156 L227 153.5156 ZM232.2812 153.5156 L230.8594 153.5156 L230.8594 148.125 L230.2344 148.125 L226.3438 153.6406 L226.3438 154.1875 L229.9531 154.1875 L229.9531 157 L230.8594 157 L230.8594 154.1875 L232.2812 154.1875 L232.2812 153.5156 Z"
      /><rect x="213" y="146" width="6" style="fill:white; stroke:none;" height="13"
      /><path style="stroke:none;" d="M215.0938 152.2031 C215.0938 150.6562 215.75 149.8125 216.7969 149.8125 C217.7188 149.8125 218.2656 150.4531 218.2656 151.5156 C218.2656 152.7188 217.5 153.4375 216.1875 153.7031 L216.2969 154.3125 C218.2188 154.2344 218.9375 155.2188 218.9375 156.4375 C218.9375 157.625 218.2344 158.4219 216.9531 158.4219 C216.25 158.4219 215.6562 158.1562 215.0938 157.7188 L215.0938 152.2031 ZM214.2031 158.9062 L214.1094 161.375 L214.2656 161.4844 L215.1562 161.2656 L215.0156 158.0938 C215.5469 158.8438 216.3594 159.1719 217.1719 159.1719 C218.5625 159.1719 219.8594 158.2188 219.8594 156.4844 C219.8594 154.9531 218.875 154.1094 217.125 154 C218.5625 153.6094 219.1875 152.4531 219.1875 151.4844 C219.1875 150.0938 218.1562 149.3125 216.9062 149.3125 C215.2969 149.3125 214.2188 150.5469 214.2188 152.5156 L214.2031 158.9062 Z"
      /><rect x="283" y="182" width="6" style="fill:white; stroke:none;" height="9"
      /><path style="stroke:none;" d="M284.4219 190.0938 C285.0781 189.375 285.7031 188.7188 286.0312 188.3438 C287.9219 186.3125 288.5312 185.4688 288.5312 184.3594 C288.5312 183.0156 287.7812 182.0781 286.1562 182.0781 C284.9062 182.0781 283.7969 182.7031 283.5938 183.9688 C283.7188 184.2031 283.9062 184.3438 284.1562 184.3438 C284.4688 184.3438 284.6562 184.1094 284.7969 183.5938 L285.0938 182.6719 C285.3906 182.5938 285.6562 182.5625 285.8906 182.5625 C286.9219 182.5625 287.5469 183.3125 287.5469 184.4219 C287.5469 185.4375 286.9844 186.4219 285.7031 187.9062 C285.125 188.5781 284.3906 189.4375 283.6406 190.2812 L283.6406 191 L288.9219 191 L288.9219 190.0938 L284.4219 190.0938 Z"
      /><rect x="267" y="188" width="6" style="fill:white; stroke:none;" height="13"
      /><path style="stroke:none;" d="M269.0938 194.2031 C269.0938 192.6562 269.75 191.8125 270.7969 191.8125 C271.7188 191.8125 272.2656 192.4531 272.2656 193.5156 C272.2656 194.7188 271.5 195.4375 270.1875 195.7031 L270.2969 196.3125 C272.2188 196.2344 272.9375 197.2188 272.9375 198.4375 C272.9375 199.625 272.2344 200.4219 270.9531 200.4219 C270.25 200.4219 269.6562 200.1562 269.0938 199.7188 L269.0938 194.2031 ZM268.2031 200.9062 L268.1094 203.375 L268.2656 203.4844 L269.1562 203.2656 L269.0156 200.0938 C269.5469 200.8438 270.3594 201.1719 271.1719 201.1719 C272.5625 201.1719 273.8594 200.2188 273.8594 198.4844 C273.8594 196.9531 272.875 196.1094 271.125 196 C272.5625 195.6094 273.1875 194.4531 273.1875 193.4844 C273.1875 192.0938 272.1562 191.3125 270.9062 191.3125 C269.2969 191.3125 268.2188 192.5469 268.2188 194.5156 L268.2031 200.9062 Z"
      /><rect x="275" y="164" width="7" style="fill:white; stroke:none;" height="9"
      /><path style="stroke:none;" d="M276 169.5156 L278.9531 165.2656 L278.9531 169.5156 L276 169.5156 ZM281.2812 169.5156 L279.8594 169.5156 L279.8594 164.125 L279.2344 164.125 L275.3438 169.6406 L275.3438 170.1875 L278.9531 170.1875 L278.9531 173 L279.8594 173 L279.8594 170.1875 L281.2812 170.1875 L281.2812 169.5156 Z"
      /><rect x="260" y="154" width="6" style="fill:white; stroke:none;" height="13"
      /><path style="stroke:none;" d="M262.0938 160.2031 C262.0938 158.6562 262.75 157.8125 263.7969 157.8125 C264.7188 157.8125 265.2656 158.4531 265.2656 159.5156 C265.2656 160.7188 264.5 161.4375 263.1875 161.7031 L263.2969 162.3125 C265.2188 162.2344 265.9375 163.2188 265.9375 164.4375 C265.9375 165.625 265.2344 166.4219 263.9531 166.4219 C263.25 166.4219 262.6562 166.1562 262.0938 165.7188 L262.0938 160.2031 ZM261.2031 166.9062 L261.1094 169.375 L261.2656 169.4844 L262.1562 169.2656 L262.0156 166.0938 C262.5469 166.8438 263.3594 167.1719 264.1719 167.1719 C265.5625 167.1719 266.8594 166.2188 266.8594 164.4844 C266.8594 162.9531 265.875 162.1094 264.125 162 C265.5625 161.6094 266.1875 160.4531 266.1875 159.4844 C266.1875 158.0938 265.1562 157.3125 263.9062 157.3125 C262.2969 157.3125 261.2188 158.5469 261.2188 160.5156 L261.2031 166.9062 Z"
      /><rect x="290" y="108" width="22" style="clip-path:url(#clipPath15); fill:white; stroke:none;" height="22"
      /><rect x="290" y="108" width="22" style="clip-path:url(#clipPath15); fill:rgb(0,144,188); stroke:none;" height="22"
      /><rect x="290" y="108" width="22" style="fill:none; clip-path:url(#clipPath15);" height="22"
      /><rect x="290" width="22" height="22" y="108" style="fill:none;"
      /><polygon style="fill:none;" points=" 301 67 249 93"
      /><polygon style="fill:none;" points=" 301 67 249 41"
      /><circle style="fill:white; clip-path:url(#clipPath16); stroke:none;" r="11" cx="301" cy="67"
      /><rect x="290" y="56" width="22" style="clip-path:url(#clipPath16); fill:rgb(0,166,81); stroke:none;" height="22"
      /><rect x="290" y="56" width="22" style="fill:none; clip-path:url(#clipPath16);" height="22"
      /><circle r="11" style="fill:none;" cx="301" cy="67"
      /><circle style="fill:white; clip-path:url(#clipPath17); stroke:none;" r="11" cx="249" cy="93"
      /><rect x="238" y="82" width="22" style="clip-path:url(#clipPath17); fill:rgb(0,166,81); stroke:none;" height="22"
      /><rect x="238" y="82" width="22" style="fill:none; clip-path:url(#clipPath17);" height="22"
      /><circle r="11" style="fill:none;" cx="249" cy="93"
      /><circle style="fill:white; clip-path:url(#clipPath18); stroke:none;" r="11" cx="249" cy="41"
      /><rect x="238" y="30" width="22" style="clip-path:url(#clipPath18); fill:rgb(0,166,81); stroke:none;" height="22"
      /><rect x="238" y="30" width="22" style="fill:none; clip-path:url(#clipPath18);" height="22"
      /><circle r="11" style="fill:none;" cx="249" cy="41"
      /><rect x="283" y="78" width="6" style="fill:white; stroke:none;" height="10"
      /><path style="stroke:none;" d="M285.2344 79.6562 C285.5156 79.5938 285.7656 79.5625 286.0156 79.5625 C287.0625 79.5625 287.6719 80.1719 287.6719 81.2656 C287.6719 82.4375 286.9062 83.1094 285.7031 83.1094 L285.1875 83.1094 L285.1875 83.6406 L285.7969 83.6406 C287.2188 83.6406 287.9062 84.4219 287.9062 85.6406 C287.9062 86.8438 287.1719 87.6875 285.875 87.6875 C285.6094 87.6875 285.3125 87.6562 285.0156 87.5625 L284.7812 86.8125 C284.625 86.2812 284.5 86.0469 284.1406 86.0469 C283.8906 86.0469 283.7031 86.1719 283.5781 86.4219 C283.8438 87.6406 284.7812 88.1719 286.0312 88.1719 C287.7188 88.1719 288.875 87.125 288.875 85.7031 C288.875 84.5 288.2031 83.625 286.7969 83.375 C287.9531 83.0156 288.6094 82.2031 288.6094 81.2031 C288.6094 79.9219 287.6719 79.0781 286.1875 79.0781 C285.0469 79.0781 284.0625 79.5938 283.7969 80.6875 C283.9062 81 284.1094 81.1094 284.3594 81.1094 C284.7344 81.1094 284.8906 80.8906 285 80.4062 L285.2344 79.6562 Z"
      /><rect x="266" y="87" width="8" style="fill:white; stroke:none;" height="8"
      /><path style="stroke:none;" d="M270.9844 92.7031 C270.9375 93.8906 270.1562 94.6562 269.3125 94.6562 C268.2656 94.6562 267.5 93.6875 267.5 91.7188 C267.5 90.2812 268.1562 89.1562 269.3438 89.1562 C270.1406 89.1562 270.7812 89.6875 271.0938 90.6406 L270.9844 92.7031 ZM272.9062 94.2812 C272.7344 94.375 272.5469 94.4219 272.3438 94.4219 C271.9531 94.4219 271.75 94.2188 271.75 93.4219 C271.75 92.4844 271.9688 90.5312 272.1875 88.8281 L272.0312 88.7188 L271.2344 88.9219 L271.1406 89.7969 C270.7812 89.0312 270.1562 88.6562 269.3906 88.6562 C268.0469 88.6562 266.5625 89.8438 266.5625 91.9531 C266.5625 94.0938 267.7188 95.1719 269.1406 95.1719 C270.0156 95.1719 270.6875 94.8125 271.0938 93.9844 C271.2031 94.8594 271.5156 95.1719 272.0156 95.1719 C272.4688 95.1719 272.7969 94.9062 273.0156 94.5625 L272.9062 94.2812 Z"
      /><rect x="276" y="60" width="6" style="fill:white; stroke:none;" height="10"
      /><path style="stroke:none;" d="M279.3438 69.6875 C278.2031 69.6875 277.5312 68.5 277.5312 66.2969 C277.5312 66.2188 277.5312 66.125 277.5312 66.0469 C278.0938 65.5 278.7188 65.3125 279.3438 65.3125 C280.3125 65.3125 280.9531 65.9844 280.9531 67.4531 C280.9531 68.9375 280.3125 69.6875 279.3438 69.6875 ZM281.5312 61.0781 C278.3438 61.4531 276.5625 63.7656 276.5625 66.4531 C276.5625 68.7812 277.6094 70.1719 279.3125 70.1719 C280.8438 70.1719 281.9219 69.1094 281.9219 67.2812 C281.9219 65.6875 280.9688 64.6562 279.5625 64.6562 C278.8281 64.6562 278.1406 64.9844 277.5781 65.5781 C277.7969 63.4062 279.0781 61.9688 281.5938 61.3906 L281.5312 61.0781 Z"
      /><rect x="259" y="53" width="8" style="fill:white; stroke:none;" height="8"
      /><path style="stroke:none;" d="M263.9844 58.7031 C263.9375 59.8906 263.1562 60.6562 262.3125 60.6562 C261.2656 60.6562 260.5 59.6875 260.5 57.7188 C260.5 56.2812 261.1562 55.1562 262.3438 55.1562 C263.1406 55.1562 263.7812 55.6875 264.0938 56.6406 L263.9844 58.7031 ZM265.9062 60.2812 C265.7344 60.375 265.5469 60.4219 265.3438 60.4219 C264.9531 60.4219 264.75 60.2188 264.75 59.4219 C264.75 58.4844 264.9688 56.5312 265.1875 54.8281 L265.0312 54.7188 L264.2344 54.9219 L264.1406 55.7969 C263.7812 55.0312 263.1562 54.6562 262.3906 54.6562 C261.0469 54.6562 259.5625 55.8438 259.5625 57.9531 C259.5625 60.0938 260.7188 61.1719 262.1406 61.1719 C263.0156 61.1719 263.6875 60.8125 264.0938 59.9844 C264.2031 60.8594 264.5156 61.1719 265.0156 61.1719 C265.4688 61.1719 265.7969 60.9062 266.0156 60.5625 L265.9062 60.2812 Z"
      /><rect x="339" y="136" width="6" style="fill:white; stroke:none;" height="10"
      /><path style="stroke:none;" d="M341.2344 137.6562 C341.5156 137.5938 341.7656 137.5625 342.0156 137.5625 C343.0625 137.5625 343.6719 138.1719 343.6719 139.2656 C343.6719 140.4375 342.9062 141.1094 341.7031 141.1094 L341.1875 141.1094 L341.1875 141.6406 L341.7969 141.6406 C343.2188 141.6406 343.9062 142.4219 343.9062 143.6406 C343.9062 144.8438 343.1719 145.6875 341.875 145.6875 C341.6094 145.6875 341.3125 145.6562 341.0156 145.5625 L340.7812 144.8125 C340.625 144.2812 340.5 144.0469 340.1406 144.0469 C339.8906 144.0469 339.7031 144.1719 339.5781 144.4219 C339.8438 145.6406 340.7812 146.1719 342.0312 146.1719 C343.7188 146.1719 344.875 145.125 344.875 143.7031 C344.875 142.5 344.2031 141.625 342.7969 141.375 C343.9531 141.0156 344.6094 140.2031 344.6094 139.2031 C344.6094 137.9219 343.6719 137.0781 342.1875 137.0781 C341.0469 137.0781 340.0625 137.5938 339.7969 138.6875 C339.9062 139 340.1094 139.1094 340.3594 139.1094 C340.7344 139.1094 340.8906 138.8906 341 138.4062 L341.2344 137.6562 Z"
      /><rect x="319" y="156" width="8" style="fill:white; stroke:none;" height="8"
      /><path style="stroke:none;" d="M323.9844 161.7031 C323.9375 162.8906 323.1562 163.6562 322.3125 163.6562 C321.2656 163.6562 320.5 162.6875 320.5 160.7188 C320.5 159.2812 321.1562 158.1562 322.3438 158.1562 C323.1406 158.1562 323.7812 158.6875 324.0938 159.6406 L323.9844 161.7031 ZM325.9062 163.2812 C325.7344 163.375 325.5469 163.4219 325.3438 163.4219 C324.9531 163.4219 324.75 163.2188 324.75 162.4219 C324.75 161.4844 324.9688 159.5312 325.1875 157.8281 L325.0312 157.7188 L324.2344 157.9219 L324.1406 158.7969 C323.7812 158.0312 323.1562 157.6562 322.3906 157.6562 C321.0469 157.6562 319.5625 158.8438 319.5625 160.9531 C319.5625 163.0938 320.7188 164.1719 322.1406 164.1719 C323.0156 164.1719 323.6875 163.8125 324.0938 162.9844 C324.2031 163.8594 324.5156 164.1719 325.0156 164.1719 C325.4688 164.1719 325.7969 163.9062 326.0156 163.5625 L325.9062 163.2812 Z"
      /><rect x="330" y="122" width="7" style="fill:white; stroke:none;" height="9"
      /><path style="stroke:none;" d="M331 127.5156 L333.9531 123.2656 L333.9531 127.5156 L331 127.5156 ZM336.2812 127.5156 L334.8594 127.5156 L334.8594 122.125 L334.2344 122.125 L330.3438 127.6406 L330.3438 128.1875 L333.9531 128.1875 L333.9531 131 L334.8594 131 L334.8594 128.1875 L336.2812 128.1875 L336.2812 127.5156 Z"
      /><rect x="317" y="120" width="6" style="fill:white; stroke:none;" height="13"
      /><path style="stroke:none;" d="M319.0938 126.2031 C319.0938 124.6562 319.75 123.8125 320.7969 123.8125 C321.7188 123.8125 322.2656 124.4531 322.2656 125.5156 C322.2656 126.7188 321.5 127.4375 320.1875 127.7031 L320.2969 128.3125 C322.2188 128.2344 322.9375 129.2188 322.9375 130.4375 C322.9375 131.625 322.2344 132.4219 320.9531 132.4219 C320.25 132.4219 319.6562 132.1562 319.0938 131.7188 L319.0938 126.2031 ZM318.2031 132.9062 L318.1094 135.375 L318.2656 135.4844 L319.1562 135.2656 L319.0156 132.0938 C319.5469 132.8438 320.3594 133.1719 321.1719 133.1719 C322.5625 133.1719 323.8594 132.2188 323.8594 130.4844 C323.8594 128.9531 322.875 128.1094 321.125 128 C322.5625 127.6094 323.1875 126.4531 323.1875 125.4844 C323.1875 124.0938 322.1562 123.3125 320.9062 123.3125 C319.2969 123.3125 318.2188 124.5469 318.2188 126.5156 L318.2031 132.9062 Z"
      /><rect x="327" y="103" width="6" style="fill:white; stroke:none;" height="10"
      /><path style="stroke:none;" d="M330.3438 112.6875 C329.2031 112.6875 328.5312 111.5 328.5312 109.2969 C328.5312 109.2188 328.5312 109.125 328.5312 109.0469 C329.0938 108.5 329.7188 108.3125 330.3438 108.3125 C331.3125 108.3125 331.9531 108.9844 331.9531 110.4531 C331.9531 111.9375 331.3125 112.6875 330.3438 112.6875 ZM332.5312 104.0781 C329.3438 104.4531 327.5625 106.7656 327.5625 109.4531 C327.5625 111.7812 328.6094 113.1719 330.3125 113.1719 C331.8438 113.1719 332.9219 112.1094 332.9219 110.2812 C332.9219 108.6875 331.9688 107.6562 330.5625 107.6562 C329.8281 107.6562 329.1406 107.9844 328.5781 108.5781 C328.7969 106.4062 330.0781 104.9688 332.5938 104.3906 L332.5312 104.0781 Z"
      /><rect x="308" y="85" width="8" style="fill:white; stroke:none;" height="8"
      /><path style="stroke:none;" d="M312.9844 90.7031 C312.9375 91.8906 312.1562 92.6562 311.3125 92.6562 C310.2656 92.6562 309.5 91.6875 309.5 89.7188 C309.5 88.2812 310.1562 87.1562 311.3438 87.1562 C312.1406 87.1562 312.7812 87.6875 313.0938 88.6406 L312.9844 90.7031 ZM314.9062 92.2812 C314.7344 92.375 314.5469 92.4219 314.3438 92.4219 C313.9531 92.4219 313.75 92.2188 313.75 91.4219 C313.75 90.4844 313.9688 88.5312 314.1875 86.8281 L314.0312 86.7188 L313.2344 86.9219 L313.1406 87.7969 C312.7812 87.0312 312.1562 86.6562 311.3906 86.6562 C310.0469 86.6562 308.5625 87.8438 308.5625 89.9531 C308.5625 92.0938 309.7188 93.1719 311.1406 93.1719 C312.0156 93.1719 312.6875 92.8125 313.0938 91.9844 C313.2031 92.8594 313.5156 93.1719 314.0156 93.1719 C314.4688 93.1719 314.7969 92.9062 315.0156 92.5625 L314.9062 92.2812 Z"
      /><rect x="382" y="122" width="7" style="fill:white; stroke:none;" height="9"
      /><path style="stroke:none;" d="M383 127.5156 L385.9531 123.2656 L385.9531 127.5156 L383 127.5156 ZM388.2812 127.5156 L386.8594 127.5156 L386.8594 122.125 L386.2344 122.125 L382.3438 127.6406 L382.3438 128.1875 L385.9531 128.1875 L385.9531 131 L386.8594 131 L386.8594 128.1875 L388.2812 128.1875 L388.2812 127.5156 Z"
      /><rect x="369" y="120" width="6" style="fill:white; stroke:none;" height="13"
      /><path style="stroke:none;" d="M371.0938 126.2031 C371.0938 124.6562 371.75 123.8125 372.7969 123.8125 C373.7188 123.8125 374.2656 124.4531 374.2656 125.5156 C374.2656 126.7188 373.5 127.4375 372.1875 127.7031 L372.2969 128.3125 C374.2188 128.2344 374.9375 129.2188 374.9375 130.4375 C374.9375 131.625 374.2344 132.4219 372.9531 132.4219 C372.25 132.4219 371.6562 132.1562 371.0938 131.7188 L371.0938 126.2031 ZM370.2031 132.9062 L370.1094 135.375 L370.2656 135.4844 L371.1562 135.2656 L371.0156 132.0938 C371.5469 132.8438 372.3594 133.1719 373.1719 133.1719 C374.5625 133.1719 375.8594 132.2188 375.8594 130.4844 C375.8594 128.9531 374.875 128.1094 373.125 128 C374.5625 127.6094 375.1875 126.4531 375.1875 125.4844 C375.1875 124.0938 374.1562 123.3125 372.9062 123.3125 C371.2969 123.3125 370.2188 124.5469 370.2188 126.5156 L370.2031 132.9062 Z"
      /><polygon style="fill:white; clip-path:url(#clipPath19); stroke:none;" points=" 457 78 446 56 468 56"
      /><rect x="446" y="56" width="22" style="clip-path:url(#clipPath19); fill:rgb(237,28,36); stroke:none;" height="22"
      /><rect x="446" y="56" width="22" style="fill:none; clip-path:url(#clipPath19);" height="22"
      /><polygon style="fill:none;" points=" 457 78 446 56 468 56"
      /><rect x="434" y="122" width="7" style="fill:white; stroke:none;" height="9"
      /><path style="stroke:none;" d="M435 127.5156 L437.9531 123.2656 L437.9531 127.5156 L435 127.5156 ZM440.2812 127.5156 L438.8594 127.5156 L438.8594 122.125 L438.2344 122.125 L434.3438 127.6406 L434.3438 128.1875 L437.9531 128.1875 L437.9531 131 L438.8594 131 L438.8594 128.1875 L440.2812 128.1875 L440.2812 127.5156 Z"
      /><rect x="421" y="120" width="6" style="fill:white; stroke:none;" height="13"
      /><path style="stroke:none;" d="M423.0938 126.2031 C423.0938 124.6562 423.75 123.8125 424.7969 123.8125 C425.7188 123.8125 426.2656 124.4531 426.2656 125.5156 C426.2656 126.7188 425.5 127.4375 424.1875 127.7031 L424.2969 128.3125 C426.2188 128.2344 426.9375 129.2188 426.9375 130.4375 C426.9375 131.625 426.2344 132.4219 424.9531 132.4219 C424.25 132.4219 423.6562 132.1562 423.0938 131.7188 L423.0938 126.2031 ZM422.2031 132.9062 L422.1094 135.375 L422.2656 135.4844 L423.1562 135.2656 L423.0156 132.0938 C423.5469 132.8438 424.3594 133.1719 425.1719 133.1719 C426.5625 133.1719 427.8594 132.2188 427.8594 130.4844 C427.8594 128.9531 426.875 128.1094 425.125 128 C426.5625 127.6094 427.1875 126.4531 427.1875 125.4844 C427.1875 124.0938 426.1562 123.3125 424.9062 123.3125 C423.2969 123.3125 422.2188 124.5469 422.2188 126.5156 L422.2031 132.9062 Z"
      /><rect x="446" y="95" width="6" style="fill:white; stroke:none;" height="10"
      /><path style="stroke:none;" d="M449.3438 104.6875 C448.2031 104.6875 447.5312 103.5 447.5312 101.2969 C447.5312 101.2188 447.5312 101.125 447.5312 101.0469 C448.0938 100.5 448.7188 100.3125 449.3438 100.3125 C450.3125 100.3125 450.9531 100.9844 450.9531 102.4531 C450.9531 103.9375 450.3125 104.6875 449.3438 104.6875 ZM451.5312 96.0781 C448.3438 96.4531 446.5625 98.7656 446.5625 101.4531 C446.5625 103.7812 447.6094 105.1719 449.3125 105.1719 C450.8438 105.1719 451.9219 104.1094 451.9219 102.2812 C451.9219 100.6875 450.9688 99.6562 449.5625 99.6562 C448.8281 99.6562 448.1406 99.9844 447.5781 100.5781 C447.7969 98.4062 449.0781 96.9688 451.5938 96.3906 L451.5312 96.0781 Z"
      /><rect x="445" y="82" width="8" style="fill:white; stroke:none;" height="8"
      /><path style="stroke:none;" d="M449.9844 87.7031 C449.9375 88.8906 449.1562 89.6562 448.3125 89.6562 C447.2656 89.6562 446.5 88.6875 446.5 86.7188 C446.5 85.2812 447.1562 84.1562 448.3438 84.1562 C449.1406 84.1562 449.7812 84.6875 450.0938 85.6406 L449.9844 87.7031 ZM451.9062 89.2812 C451.7344 89.375 451.5469 89.4219 451.3438 89.4219 C450.9531 89.4219 450.75 89.2188 450.75 88.4219 C450.75 87.4844 450.9688 85.5312 451.1875 83.8281 L451.0312 83.7188 L450.2344 83.9219 L450.1406 84.7969 C449.7812 84.0312 449.1562 83.6562 448.3906 83.6562 C447.0469 83.6562 445.5625 84.8438 445.5625 86.9531 C445.5625 89.0938 446.7188 90.1719 448.1406 90.1719 C449.0156 90.1719 449.6875 89.8125 450.0938 88.9844 C450.2031 89.8594 450.5156 90.1719 451.0156 90.1719 C451.4688 90.1719 451.7969 89.9062 452.0156 89.5625 L451.9062 89.2812 Z"
      /><rect x="473" y="122" width="5" style="fill:white; stroke:none;" height="10"
      /><path style="stroke:none;" d="M474.8906 130.6875 C474.4844 130.6875 474.1562 131.0469 474.1562 131.4219 C474.1562 131.8125 474.4844 132.1562 474.8906 132.1562 C475.2969 132.1562 475.6406 131.8125 475.6406 131.4219 C475.6406 131.0469 475.2969 130.6875 474.8906 130.6875 ZM476.4688 124.5781 C476.7188 124.8906 476.875 125.2656 476.8906 125.6562 C476.8906 126.1875 476.625 126.5 476.0312 126.7656 L475.4062 127.0156 C474.6406 127.3125 474.3906 127.5469 474.3906 127.9375 C474.3906 128.1094 474.4531 128.3438 474.5781 128.8125 L474.7344 129.3438 L475.1094 129.3438 L475.0938 128.5312 C475.0938 128.0938 475.2031 127.9688 475.7812 127.7344 L476.2031 127.5625 C477.0312 127.2188 477.4531 126.6875 477.4531 125.8438 C477.4531 124.1562 475.6562 123.1875 474.5 123.0312 C474.1094 123.125 473.9062 123.2969 473.9062 123.6406 C473.9062 123.9375 474.0625 124.1562 474.7188 124.2656 L476.4688 124.5781 Z"
    /></g
  ></g
></svg
>
