<?xml version="1.0"?>
<!DOCTYPE svg PUBLIC '-//W3C//DTD SVG 1.0//EN'
          'http://www.w3.org/TR/2001/REC-SVG-20010904/DTD/svg10.dtd'>
<svg xmlns:xlink="http://www.w3.org/1999/xlink" style="fill-opacity:1; color-rendering:auto; color-interpolation:auto; text-rendering:auto; stroke:black; stroke-linecap:square; stroke-miterlimit:10; shape-rendering:auto; stroke-opacity:1; fill:black; stroke-dasharray:none; font-weight:normal; stroke-width:1; font-family:'Dialog'; font-style:normal; stroke-linejoin:miter; font-size:12px; stroke-dashoffset:0; image-rendering:auto;" viewBox="0 0 255 209" xmlns="http://www.w3.org/2000/svg"
><!--Generated by the Batik Graphics2D SVG Generator--><defs id="genericDefs"
  /><g
  ><defs id="defs1"
    ><clipPath clipPathUnits="userSpaceOnUse" id="clipPath1"
      ><path style="fill-rule:evenodd;" d="M162 106 L164 113 L172 113 L165 118 L168 125 L162 121 L155 125 L158 118 L151 113 L159 113 L162 106 Z"
      /></clipPath
      ><clipPath clipPathUnits="userSpaceOnUse" id="clipPath2"
      ><path style="fill-rule:evenodd;" d="M93 157 L104 168 L93 179 L82 168 Z"
      /></clipPath
      ><clipPath clipPathUnits="userSpaceOnUse" id="clipPath3"
      ><path style="fill-rule:evenodd;" d="M93 56 L95 63 L103 63 L96 68 L99 75 L93 71 L86 75 L89 68 L82 63 L90 63 L93 56 Z"
      /></clipPath
      ><clipPath clipPathUnits="userSpaceOnUse" id="clipPath4"
      ><path style="fill-rule:evenodd;" d="M41 82 L43 89 L51 89 L44 94 L47 101 L41 97 L34 101 L37 94 L30 89 L38 89 L41 82 Z"
      /></clipPath
      ><clipPath clipPathUnits="userSpaceOnUse" id="clipPath5"
      ><path style="fill-rule:evenodd;" d="M41 30 L43 37 L51 37 L44 42 L47 49 L41 45 L34 49 L37 42 L30 37 L38 37 L41 30 Z"
      /></clipPath
    ></defs
    ><g style="fill:white; text-rendering:optimizeSpeed; stroke:white;"
    ><rect x="0" width="255" height="209" y="0" style="stroke:none;"
      /><polygon style="fill:none; stroke:black;" points=" 214 117 162 117"
      /><path d="M214 106 C208.5 111.5 219.5 122.5 214 128" style="fill:none; stroke:black;"
      /><polygon style="fill:none; stroke:black;" points=" 162 117 93 168"
      /><polygon style="fill:none; stroke:black;" points=" 162 117 93 67"
      /><polygon style="clip-path:url(#clipPath1); stroke:none;" points=" 162 106 164 113 172 113 165 118 168 125 162 121 155 125 158 118 151 113 159 113 162 106"
      /><rect x="151" y="106" width="22" style="clip-path:url(#clipPath1); fill:rgb(244,121,32); stroke:none;" height="22"
      /><rect x="151" y="106" width="22" style="clip-path:url(#clipPath1); fill:none; stroke:black;" height="22"
      /><polygon style="fill:none; stroke:black;" points=" 162 106 164 113 172 113 165 118 168 125 162 121 155 125 158 118 151 113 159 113 162 106"
      /><polygon style="clip-path:url(#clipPath2); stroke:none;" points=" 93 157 104 168 93 179 82 168"
      /><rect x="82" y="157" width="22" style="clip-path:url(#clipPath2); fill:rgb(0,144,188); stroke:none;" height="11"
      /><rect x="82" y="157" width="22" style="clip-path:url(#clipPath2); fill:none; stroke:black;" height="11"
      /><polygon style="fill:none; stroke:black;" points=" 93 157 104 168 93 179 82 168"
      /><rect x="65" y="139" width="26" style="stroke:none;" height="10"
    /></g
    ><g style="text-rendering:optimizeSpeed; font-size:14px; font-family:'SansSerif';"
    ><path style="stroke:none;" d="M66.6094 146.1562 L68.9531 142.6562 C69.2344 142.1406 69.5156 141.6406 69.7812 141.1406 L69.8281 141.1406 C69.7969 141.6719 69.7656 142.5 69.7656 143 L69.7656 146.1562 L66.6094 146.1562 ZM69.7656 150 L70.9688 150 L70.9688 147.1719 L72.3281 147.1719 L72.3281 146.1562 L70.9688 146.1562 L70.9688 139.7188 L69.5469 139.7188 L65.2812 146.3281 L65.2812 147.1719 L69.7656 147.1719 L69.7656 150 ZM74.1762 150 L75.3481 150 L75.3481 144.3125 C75.3481 143.4375 75.2543 142.1875 75.1918 141.2969 L75.2543 141.2969 L76.0668 143.625 L78.0043 148.9688 L78.8793 148.9688 L80.8168 143.625 L81.6293 141.2969 L81.6918 141.2969 C81.6137 142.1875 81.52 143.4375 81.52 144.3125 L81.52 150 L82.7387 150 L82.7387 139.7188 L81.1762 139.7188 L79.2075 145.2188 C78.9731 145.9375 78.7543 146.6562 78.5043 147.375 L78.4418 147.375 C78.1918 146.6562 77.9575 145.9375 77.7075 145.2188 L75.7387 139.7188 L74.1762 139.7188 L74.1762 150 ZM88.4973 150.1875 C89.5285 150.1875 90.341 149.8281 91.0129 149.3906 L90.5442 148.5625 C89.9973 148.9375 89.3879 149.1562 88.6535 149.1562 C87.2004 149.1562 86.216 148.125 86.1223 146.5 L91.2473 146.5 C91.2785 146.3125 91.3098 146.0469 91.3098 145.7656 C91.3098 143.6094 90.216 142.2031 88.2785 142.2031 C86.5129 142.2031 84.8567 143.7344 84.8567 146.2031 C84.8567 148.7188 86.4817 150.1875 88.4973 150.1875 ZM86.1067 145.5781 C86.2629 144.0938 87.216 143.2188 88.2942 143.2188 C89.4817 143.2188 90.1848 144.0469 90.1848 145.5781 L86.1067 145.5781 Z"
      /><rect x="94" y="139" width="25" style="fill:white; stroke:none;" height="10"
      /><path style="stroke:none;" d="M98.1094 144.5781 C99.3438 144.5781 99.9688 145.4688 99.9688 146.8438 C99.9688 148.25 99.1875 149.1875 98.2188 149.1875 C96.9219 149.1875 96.1562 148.0312 96 145.8906 C96.625 144.9531 97.4531 144.5781 98.1094 144.5781 ZM98.2188 150.1875 C99.8125 150.1875 101.1562 148.8438 101.1562 146.8438 C101.1562 144.7031 100.0469 143.625 98.3125 143.625 C97.5 143.625 96.6094 144.1094 95.9688 144.875 C96.0312 141.6875 97.2188 140.6094 98.625 140.6094 C99.25 140.6094 99.8594 140.9062 100.2656 141.3906 L100.9688 140.5938 C100.4062 139.9844 99.6406 139.5469 98.5781 139.5469 C96.5938 139.5469 94.7812 141.0781 94.7812 145.0938 C94.7812 148.4844 96.2344 150.1875 98.2188 150.1875 ZM103.1762 150 L104.3481 150 L104.3481 144.3125 C104.3481 143.4375 104.2543 142.1875 104.1918 141.2969 L104.2543 141.2969 L105.0668 143.625 L107.0043 148.9688 L107.8793 148.9688 L109.8168 143.625 L110.6293 141.2969 L110.6918 141.2969 C110.6137 142.1875 110.52 143.4375 110.52 144.3125 L110.52 150 L111.7387 150 L111.7387 139.7188 L110.1762 139.7188 L108.2075 145.2188 C107.9731 145.9375 107.7543 146.6562 107.5043 147.375 L107.4418 147.375 C107.1918 146.6562 106.9575 145.9375 106.7075 145.2188 L104.7387 139.7188 L103.1762 139.7188 L103.1762 150 ZM117.4973 150.1875 C118.5285 150.1875 119.341 149.8281 120.0129 149.3906 L119.5442 148.5625 C118.9973 148.9375 118.3879 149.1562 117.6535 149.1562 C116.2004 149.1562 115.216 148.125 115.1223 146.5 L120.2473 146.5 C120.2785 146.3125 120.3098 146.0469 120.3098 145.7656 C120.3098 143.6094 119.216 142.2031 117.2785 142.2031 C115.5129 142.2031 113.8567 143.7344 113.8567 146.2031 C113.8567 148.7188 115.4817 150.1875 117.4973 150.1875 ZM115.1067 145.5781 C115.2629 144.0938 116.216 143.2188 117.2942 143.2188 C118.4817 143.2188 119.1848 144.0469 119.1848 145.5781 L115.1067 145.5781 Z"
      /><polygon style="fill:none;" points=" 93 67 41 93"
      /><polygon style="fill:none;" points=" 93 67 41 41"
    /></g
    ><g style="fill:white; text-rendering:optimizeSpeed; stroke:white;"
    ><polygon style="stroke:none; clip-path:url(#clipPath3);" points=" 93 56 95 63 103 63 96 68 99 75 93 71 86 75 89 68 82 63 90 63 93 56"
      /><rect x="82" y="56" width="22" style="clip-path:url(#clipPath3); fill:rgb(244,121,32); stroke:none;" height="22"
      /><rect x="82" y="56" width="22" style="clip-path:url(#clipPath3); fill:none; stroke:black;" height="22"
      /><polygon style="fill:none; stroke:black;" points=" 93 56 95 63 103 63 96 68 99 75 93 71 86 75 89 68 82 63 90 63 93 56"
      /><polygon style="clip-path:url(#clipPath4); stroke:none;" points=" 41 82 43 89 51 89 44 94 47 101 41 97 34 101 37 94 30 89 38 89 41 82"
      /><rect x="30" y="82" width="22" style="clip-path:url(#clipPath4); fill:rgb(244,121,32); stroke:none;" height="22"
      /><rect x="30" y="82" width="22" style="clip-path:url(#clipPath4); fill:none; stroke:black;" height="22"
      /><polygon style="fill:none; stroke:black;" points=" 41 82 43 89 51 89 44 94 47 101 41 97 34 101 37 94 30 89 38 89 41 82"
      /><polygon style="clip-path:url(#clipPath5); stroke:none;" points=" 41 30 43 37 51 37 44 42 47 49 41 45 34 49 37 42 30 37 38 37 41 30"
      /><rect x="30" y="30" width="22" style="clip-path:url(#clipPath5); fill:rgb(244,121,32); stroke:none;" height="22"
      /><rect x="30" y="30" width="22" style="clip-path:url(#clipPath5); fill:none; stroke:black;" height="22"
      /><polygon style="fill:none; stroke:black;" points=" 41 30 43 37 51 37 44 42 47 49 41 45 34 49 37 42 30 37 38 37 41 30"
      /><rect x="75" width="6" height="10" y="78" style="stroke:none;"
      /><path d="M77.2344 79.6562 C77.5156 79.5938 77.7656 79.5625 78.0156 79.5625 C79.0625 79.5625 79.6719 80.1719 79.6719 81.2656 C79.6719 82.4375 78.9062 83.1094 77.7031 83.1094 L77.1875 83.1094 L77.1875 83.6406 L77.7969 83.6406 C79.2188 83.6406 79.9062 84.4219 79.9062 85.6406 C79.9062 86.8438 79.1719 87.6875 77.875 87.6875 C77.6094 87.6875 77.3125 87.6562 77.0156 87.5625 L76.7812 86.8125 C76.625 86.2812 76.5 86.0469 76.1406 86.0469 C75.8906 86.0469 75.7031 86.1719 75.5781 86.4219 C75.8438 87.6406 76.7812 88.1719 78.0312 88.1719 C79.7188 88.1719 80.875 87.125 80.875 85.7031 C80.875 84.5 80.2031 83.625 78.7969 83.375 C79.9531 83.0156 80.6094 82.2031 80.6094 81.2031 C80.6094 79.9219 79.6719 79.0781 78.1875 79.0781 C77.0469 79.0781 76.0625 79.5938 75.7969 80.6875 C75.9062 81 76.1094 81.1094 76.3594 81.1094 C76.7344 81.1094 76.8906 80.8906 77 80.4062 L77.2344 79.6562 Z" style="fill:black; stroke:none;"
      /><rect x="59" width="6" height="13" y="84" style="stroke:none;"
      /><path d="M61.0938 90.2031 C61.0938 88.6562 61.75 87.8125 62.7969 87.8125 C63.7188 87.8125 64.2656 88.4531 64.2656 89.5156 C64.2656 90.7188 63.5 91.4375 62.1875 91.7031 L62.2969 92.3125 C64.2188 92.2344 64.9375 93.2188 64.9375 94.4375 C64.9375 95.625 64.2344 96.4219 62.9531 96.4219 C62.25 96.4219 61.6562 96.1562 61.0938 95.7188 L61.0938 90.2031 ZM60.2031 96.9062 L60.1094 99.375 L60.2656 99.4844 L61.1562 99.2656 L61.0156 96.0938 C61.5469 96.8438 62.3594 97.1719 63.1719 97.1719 C64.5625 97.1719 65.8594 96.2188 65.8594 94.4844 C65.8594 92.9531 64.875 92.1094 63.125 92 C64.5625 91.6094 65.1875 90.4531 65.1875 89.4844 C65.1875 88.0938 64.1562 87.3125 62.9062 87.3125 C61.2969 87.3125 60.2188 88.5469 60.2188 90.5156 L60.2031 96.9062 Z" style="fill:black; stroke:none;"
      /><rect x="67" width="7" height="9" y="60" style="stroke:none;"
      /><path d="M68 65.5156 L70.9531 61.2656 L70.9531 65.5156 L68 65.5156 ZM73.2812 65.5156 L71.8594 65.5156 L71.8594 60.125 L71.2344 60.125 L67.3438 65.6406 L67.3438 66.1875 L70.9531 66.1875 L70.9531 69 L71.8594 69 L71.8594 66.1875 L73.2812 66.1875 L73.2812 65.5156 Z" style="fill:black; stroke:none;"
      /><rect x="52" width="6" height="13" y="50" style="stroke:none;"
      /><path d="M54.0938 56.2031 C54.0938 54.6562 54.75 53.8125 55.7969 53.8125 C56.7188 53.8125 57.2656 54.4531 57.2656 55.5156 C57.2656 56.7188 56.5 57.4375 55.1875 57.7031 L55.2969 58.3125 C57.2188 58.2344 57.9375 59.2188 57.9375 60.4375 C57.9375 61.625 57.2344 62.4219 55.9531 62.4219 C55.25 62.4219 54.6562 62.1562 54.0938 61.7188 L54.0938 56.2031 ZM53.2031 62.9062 L53.1094 65.375 L53.2656 65.4844 L54.1562 65.2656 L54.0156 62.0938 C54.5469 62.8438 55.3594 63.1719 56.1719 63.1719 C57.5625 63.1719 58.8594 62.2188 58.8594 60.4844 C58.8594 58.9531 57.875 58.1094 56.125 58 C57.5625 57.6094 58.1875 56.4531 58.1875 55.4844 C58.1875 54.0938 57.1562 53.3125 55.9062 53.3125 C54.2969 53.3125 53.2188 54.5469 53.2188 56.5156 L53.2031 62.9062 Z" style="fill:black; stroke:none;"
      /><rect x="146" width="6" height="9" y="131" style="stroke:none;"
      /><path d="M147.4219 139.0938 C148.0781 138.375 148.7031 137.7188 149.0312 137.3438 C150.9219 135.3125 151.5312 134.4688 151.5312 133.3594 C151.5312 132.0156 150.7812 131.0781 149.1562 131.0781 C147.9062 131.0781 146.7969 131.7031 146.5938 132.9688 C146.7188 133.2031 146.9062 133.3438 147.1562 133.3438 C147.4688 133.3438 147.6562 133.1094 147.7969 132.5938 L148.0938 131.6719 C148.3906 131.5938 148.6562 131.5625 148.8906 131.5625 C149.9219 131.5625 150.5469 132.3125 150.5469 133.4219 C150.5469 134.4375 149.9844 135.4219 148.7031 136.9062 C148.125 137.5781 147.3906 138.4375 146.6406 139.2812 L146.6406 140 L151.9219 140 L151.9219 139.0938 L147.4219 139.0938 Z" style="fill:black; stroke:none;"
      /><rect x="129" width="6" height="13" y="142" style="stroke:none;"
      /><path d="M131.0938 148.2031 C131.0938 146.6562 131.75 145.8125 132.7969 145.8125 C133.7188 145.8125 134.2656 146.4531 134.2656 147.5156 C134.2656 148.7188 133.5 149.4375 132.1875 149.7031 L132.2969 150.3125 C134.2188 150.2344 134.9375 151.2188 134.9375 152.4375 C134.9375 153.625 134.2344 154.4219 132.9531 154.4219 C132.25 154.4219 131.6562 154.1562 131.0938 153.7188 L131.0938 148.2031 ZM130.2031 154.9062 L130.1094 157.375 L130.2656 157.4844 L131.1562 157.2656 L131.0156 154.0938 C131.5469 154.8438 132.3594 155.1719 133.1719 155.1719 C134.5625 155.1719 135.8594 154.2188 135.8594 152.4844 C135.8594 150.9531 134.875 150.1094 133.125 150 C134.5625 149.6094 135.1875 148.4531 135.1875 147.4844 C135.1875 146.0938 134.1562 145.3125 132.9062 145.3125 C131.2969 145.3125 130.2188 146.5469 130.2188 148.5156 L130.2031 154.9062 Z" style="fill:black; stroke:none;"
      /><rect x="136" width="7" height="9" y="106" style="stroke:none;"
      /><path d="M137 111.5156 L139.9531 107.2656 L139.9531 111.5156 L137 111.5156 ZM142.2812 111.5156 L140.8594 111.5156 L140.8594 106.125 L140.2344 106.125 L136.3438 111.6406 L136.3438 112.1875 L139.9531 112.1875 L139.9531 115 L140.8594 115 L140.8594 112.1875 L142.2812 112.1875 L142.2812 111.5156 Z" style="fill:black; stroke:none;"
      /><rect x="102" width="6" height="13" y="79" style="stroke:none;"
      /><path d="M104.0938 85.2031 C104.0938 83.6562 104.75 82.8125 105.7969 82.8125 C106.7188 82.8125 107.2656 83.4531 107.2656 84.5156 C107.2656 85.7188 106.5 86.4375 105.1875 86.7031 L105.2969 87.3125 C107.2188 87.2344 107.9375 88.2188 107.9375 89.4375 C107.9375 90.625 107.2344 91.4219 105.9531 91.4219 C105.25 91.4219 104.6562 91.1562 104.0938 90.7188 L104.0938 85.2031 ZM103.2031 91.9062 L103.1094 94.375 L103.2656 94.4844 L104.1562 94.2656 L104.0156 91.0938 C104.5469 91.8438 105.3594 92.1719 106.1719 92.1719 C107.5625 92.1719 108.8594 91.2188 108.8594 89.4844 C108.8594 87.9531 107.875 87.1094 106.125 87 C107.5625 86.6094 108.1875 85.4531 108.1875 84.4844 C108.1875 83.0938 107.1562 82.3125 105.9062 82.3125 C104.2969 82.3125 103.2188 83.5469 103.2188 85.5156 L103.2031 91.9062 Z" style="fill:black; stroke:none;"
      /><rect x="178" width="5" height="10" y="120" style="stroke:none;"
      /><path d="M179.8906 128.6875 C179.4844 128.6875 179.1562 129.0469 179.1562 129.4219 C179.1562 129.8125 179.4844 130.1562 179.8906 130.1562 C180.2969 130.1562 180.6406 129.8125 180.6406 129.4219 C180.6406 129.0469 180.2969 128.6875 179.8906 128.6875 ZM181.4688 122.5781 C181.7188 122.8906 181.875 123.2656 181.8906 123.6562 C181.8906 124.1875 181.625 124.5 181.0312 124.7656 L180.4062 125.0156 C179.6406 125.3125 179.3906 125.5469 179.3906 125.9375 C179.3906 126.1094 179.4531 126.3438 179.5781 126.8125 L179.7344 127.3438 L180.1094 127.3438 L180.0938 126.5312 C180.0938 126.0938 180.2031 125.9688 180.7812 125.7344 L181.2031 125.5625 C182.0312 125.2188 182.4531 124.6875 182.4531 123.8438 C182.4531 122.1562 180.6562 121.1875 179.5 121.0312 C179.1094 121.125 178.9062 121.2969 178.9062 121.6406 C178.9062 121.9375 179.0625 122.1562 179.7188 122.2656 L181.4688 122.5781 Z" style="fill:black; stroke:none;"
    /></g
  ></g
></svg
>
