<?xml version="1.0"?>
<!DOCTYPE svg PUBLIC '-//W3C//DTD SVG 1.0//EN'
          'http://www.w3.org/TR/2001/REC-SVG-20010904/DTD/svg10.dtd'>
<svg xmlns:xlink="http://www.w3.org/1999/xlink" style="fill-opacity:1; color-rendering:auto; color-interpolation:auto; text-rendering:auto; stroke:black; stroke-linecap:square; stroke-miterlimit:10; shape-rendering:auto; stroke-opacity:1; fill:black; stroke-dasharray:none; font-weight:normal; stroke-width:1; font-family:'Dialog'; font-style:normal; stroke-linejoin:miter; font-size:12px; stroke-dashoffset:0; image-rendering:auto;" viewBox="0 0 147 261" xmlns="http://www.w3.org/2000/svg"
><!--Generated by the Batik Graphics2D SVG Generator--><defs id="genericDefs"
  /><g
  ><defs id="defs1"
    ><clipPath clipPathUnits="userSpaceOnUse" id="clipPath1"
      ><path d="M51 214.5 L73 214.5 L73 225.5 L51 225.5 L51 214.5 Z"
      /></clipPath
      ><clipPath clipPathUnits="userSpaceOnUse" id="clipPath2"
      ><path d="M51 162.5 L73 162.5 L73 173.5 L51 173.5 L51 162.5 Z"
      /></clipPath
      ><clipPath clipPathUnits="userSpaceOnUse" id="clipPath3"
      ><path d="M73 116 C73 122.0751 68.0751 127 62 127 C55.9249 127 51 122.0751 51 116 C51 109.9249 55.9249 105 62 105 C68.0751 105 73 109.9249 73 116 Z"
      /></clipPath
    ></defs
    ><g style="fill:white; text-rendering:optimizeSpeed; stroke:white;"
    ><rect x="0" width="147" height="261" y="0" style="stroke:none;"
      /><rect x="51" y="214.5" width="22" style="clip-path:url(#clipPath1); stroke:none;" height="11"
      /><rect x="51" y="209" width="22" style="clip-path:url(#clipPath1); fill:rgb(165,67,153); stroke:none;" height="22"
      /><rect x="51" y="209" width="22" style="clip-path:url(#clipPath1); fill:none; stroke:black;" height="22"
      /><rect x="51" y="214.5" width="22" style="fill:none; stroke:black;" height="11"
      /><rect x="78" y="207" width="5" style="stroke:none;" height="10"
    /></g
    ><g style="font-family:'Serif'; text-rendering:optimizeSpeed; "
    ><path style="stroke:none;" d="M79.8906 215.6875 C79.4844 215.6875 79.1562 216.0469 79.1562 216.4219 C79.1562 216.8125 79.4844 217.1562 79.8906 217.1562 C80.2969 217.1562 80.6406 216.8125 80.6406 216.4219 C80.6406 216.0469 80.2969 215.6875 79.8906 215.6875 ZM81.4688 209.5781 C81.7188 209.8906 81.875 210.2656 81.8906 210.6562 C81.8906 211.1875 81.625 211.5 81.0312 211.7656 L80.4062 212.0156 C79.6406 212.3125 79.3906 212.5469 79.3906 212.9375 C79.3906 213.1094 79.4531 213.3438 79.5781 213.8125 L79.7344 214.3438 L80.1094 214.3438 L80.0938 213.5312 C80.0938 213.0938 80.2031 212.9688 80.7812 212.7344 L81.2031 212.5625 C82.0312 212.2188 82.4531 211.6875 82.4531 210.8438 C82.4531 209.1562 80.6562 208.1875 79.5 208.0312 C79.1094 208.125 78.9062 208.2969 78.9062 208.6406 C78.9062 208.9375 79.0625 209.1562 79.7188 209.2656 L81.4688 209.5781 Z"
      /><rect x="78" y="223" width="5" style="fill:white; stroke:none;" height="10"
      /><path style="stroke:none;" d="M79.8906 231.6875 C79.4844 231.6875 79.1562 232.0469 79.1562 232.4219 C79.1562 232.8125 79.4844 233.1562 79.8906 233.1562 C80.2969 233.1562 80.6406 232.8125 80.6406 232.4219 C80.6406 232.0469 80.2969 231.6875 79.8906 231.6875 ZM81.4688 225.5781 C81.7188 225.8906 81.875 226.2656 81.8906 226.6562 C81.8906 227.1875 81.625 227.5 81.0312 227.7656 L80.4062 228.0156 C79.6406 228.3125 79.3906 228.5469 79.3906 228.9375 C79.3906 229.1094 79.4531 229.3438 79.5781 229.8125 L79.7344 230.3438 L80.1094 230.3438 L80.0938 229.5312 C80.0938 229.0938 80.2031 228.9688 80.7812 228.7344 L81.2031 228.5625 C82.0312 228.2188 82.4531 227.6875 82.4531 226.8438 C82.4531 225.1562 80.6562 224.1875 79.5 224.0312 C79.1094 224.125 78.9062 224.2969 78.9062 224.6406 C78.9062 224.9375 79.0625 225.1562 79.7188 225.2656 L81.4688 225.5781 Z"
      /><rect x="51" y="162.5" width="22" style="clip-path:url(#clipPath2); fill:white; stroke:none;" height="11"
      /><rect x="51" y="157" width="22" style="clip-path:url(#clipPath2); fill:rgb(0,144,188); stroke:none;" height="22"
      /><rect x="51" y="157" width="22" style="fill:none; clip-path:url(#clipPath2);" height="22"
      /><rect x="51" width="22" height="11" y="162.5" style="fill:none;"
      /><rect x="78" y="155" width="5" style="fill:white; stroke:none;" height="10"
      /><path style="stroke:none;" d="M79.8906 163.6875 C79.4844 163.6875 79.1562 164.0469 79.1562 164.4219 C79.1562 164.8125 79.4844 165.1562 79.8906 165.1562 C80.2969 165.1562 80.6406 164.8125 80.6406 164.4219 C80.6406 164.0469 80.2969 163.6875 79.8906 163.6875 ZM81.4688 157.5781 C81.7188 157.8906 81.875 158.2656 81.8906 158.6562 C81.8906 159.1875 81.625 159.5 81.0312 159.7656 L80.4062 160.0156 C79.6406 160.3125 79.3906 160.5469 79.3906 160.9375 C79.3906 161.1094 79.4531 161.3438 79.5781 161.8125 L79.7344 162.3438 L80.1094 162.3438 L80.0938 161.5312 C80.0938 161.0938 80.2031 160.9688 80.7812 160.7344 L81.2031 160.5625 C82.0312 160.2188 82.4531 159.6875 82.4531 158.8438 C82.4531 157.1562 80.6562 156.1875 79.5 156.0312 C79.1094 156.125 78.9062 156.2969 78.9062 156.6406 C78.9062 156.9375 79.0625 157.1562 79.7188 157.2656 L81.4688 157.5781 Z"
      /><rect x="78" y="171" width="5" style="fill:white; stroke:none;" height="10"
      /><path style="stroke:none;" d="M79.8906 179.6875 C79.4844 179.6875 79.1562 180.0469 79.1562 180.4219 C79.1562 180.8125 79.4844 181.1562 79.8906 181.1562 C80.2969 181.1562 80.6406 180.8125 80.6406 180.4219 C80.6406 180.0469 80.2969 179.6875 79.8906 179.6875 ZM81.4688 173.5781 C81.7188 173.8906 81.875 174.2656 81.8906 174.6562 C81.8906 175.1875 81.625 175.5 81.0312 175.7656 L80.4062 176.0156 C79.6406 176.3125 79.3906 176.5469 79.3906 176.9375 C79.3906 177.1094 79.4531 177.3438 79.5781 177.8125 L79.7344 178.3438 L80.1094 178.3438 L80.0938 177.5312 C80.0938 177.0938 80.2031 176.9688 80.7812 176.7344 L81.2031 176.5625 C82.0312 176.2188 82.4531 175.6875 82.4531 174.8438 C82.4531 173.1562 80.6562 172.1875 79.5 172.0312 C79.1094 172.125 78.9062 172.2969 78.9062 172.6406 C78.9062 172.9375 79.0625 173.1562 79.7188 173.2656 L81.4688 173.5781 Z"
      /><circle style="fill:white; clip-path:url(#clipPath3); stroke:none;" r="11" cx="62" cy="116"
      /><rect x="51" y="105" width="22" style="clip-path:url(#clipPath3); fill:rgb(165,67,153); stroke:none;" height="22"
      /><rect x="51" y="105" width="22" style="fill:none; clip-path:url(#clipPath3);" height="22"
      /><circle r="11" style="fill:none;" cx="62" cy="116"
      /><path style="stroke:none;" d="M56.5156 92.3594 C57.5781 92.3594 58.1094 93.1094 58.1094 94.2969 C58.1094 95.5 57.4531 96.2969 56.6094 96.2969 C55.5156 96.2969 54.8438 95.3125 54.7188 93.4844 C55.25 92.6875 55.9688 92.3594 56.5156 92.3594 ZM56.6094 97.1562 C57.9844 97.1562 59.125 96 59.125 94.2969 C59.125 92.4688 58.1875 91.5469 56.7031 91.5469 C56 91.5469 55.2344 91.9531 54.6875 92.6094 C54.7344 89.875 55.7656 88.9531 56.9531 88.9531 C57.5 88.9531 58.0312 89.2031 58.375 89.625 L58.9688 88.9375 C58.5 88.4219 57.8438 88.0312 56.9219 88.0312 C55.2188 88.0312 53.6719 89.3594 53.6719 92.7969 C53.6719 95.7031 54.9219 97.1562 56.6094 97.1562 ZM60.7694 97 L61.8632 97 L61.8632 92.2656 C62.4569 91.5938 63.0038 91.2812 63.5038 91.2812 C64.3319 91.2812 64.7069 91.7969 64.7069 93.0156 L64.7069 97 L65.8007 97 L65.8007 92.2656 C66.41 91.5938 66.9413 91.2812 67.4413 91.2812 C68.2694 91.2812 68.66 91.7969 68.66 93.0156 L68.66 97 L69.7538 97 L69.7538 92.875 C69.7538 91.2031 69.1132 90.3125 67.7694 90.3125 C66.9725 90.3125 66.3007 90.8281 65.6288 91.5625 C65.3632 90.7969 64.8163 90.3125 63.8163 90.3125 C63.0507 90.3125 62.3632 90.8125 61.8007 91.4375 L61.7538 91.4375 L61.66 90.4844 L60.7694 90.4844 L60.7694 97 Z"
      /><rect x="78" y="103" width="5" style="fill:white; stroke:none;" height="10"
      /><path style="stroke:none;" d="M79.8906 111.6875 C79.4844 111.6875 79.1562 112.0469 79.1562 112.4219 C79.1562 112.8125 79.4844 113.1562 79.8906 113.1562 C80.2969 113.1562 80.6406 112.8125 80.6406 112.4219 C80.6406 112.0469 80.2969 111.6875 79.8906 111.6875 ZM81.4688 105.5781 C81.7188 105.8906 81.875 106.2656 81.8906 106.6562 C81.8906 107.1875 81.625 107.5 81.0312 107.7656 L80.4062 108.0156 C79.6406 108.3125 79.3906 108.5469 79.3906 108.9375 C79.3906 109.1094 79.4531 109.3438 79.5781 109.8125 L79.7344 110.3438 L80.1094 110.3438 L80.0938 109.5312 C80.0938 109.0938 80.2031 108.9688 80.7812 108.7344 L81.2031 108.5625 C82.0312 108.2188 82.4531 107.6875 82.4531 106.8438 C82.4531 105.1562 80.6562 104.1875 79.5 104.0312 C79.1094 104.125 78.9062 104.2969 78.9062 104.6406 C78.9062 104.9375 79.0625 105.1562 79.7188 105.2656 L81.4688 105.5781 Z"
      /><rect x="78" y="119" width="5" style="fill:white; stroke:none;" height="10"
      /><path style="stroke:none;" d="M79.8906 127.6875 C79.4844 127.6875 79.1562 128.0469 79.1562 128.4219 C79.1562 128.8125 79.4844 129.1562 79.8906 129.1562 C80.2969 129.1562 80.6406 128.8125 80.6406 128.4219 C80.6406 128.0469 80.2969 127.6875 79.8906 127.6875 ZM81.4688 121.5781 C81.7188 121.8906 81.875 122.2656 81.8906 122.6562 C81.8906 123.1875 81.625 123.5 81.0312 123.7656 L80.4062 124.0156 C79.6406 124.3125 79.3906 124.5469 79.3906 124.9375 C79.3906 125.1094 79.4531 125.3438 79.5781 125.8125 L79.7344 126.3438 L80.1094 126.3438 L80.0938 125.5312 C80.0938 125.0938 80.2031 124.9688 80.7812 124.7344 L81.2031 124.5625 C82.0312 124.2188 82.4531 123.6875 82.4531 122.8438 C82.4531 121.1562 80.6562 120.1875 79.5 120.0312 C79.1094 120.125 78.9062 120.2969 78.9062 120.6406 C78.9062 120.9375 79.0625 121.1562 79.7188 121.2656 L81.4688 121.5781 Z"
    /></g
    ><g style="fill:white; text-rendering:optimizeSpeed; font-size:14px; font-family:'SansSerif'; stroke:white;"
    ><rect x="47" width="24" height="10" y="35" style="stroke:none;"
      /><path d="M49.4844 42.9062 L50.625 42.9062 C50.375 40.7031 52.8906 39.875 52.8906 37.8281 C52.8906 36.2969 51.8594 35.3281 50.2812 35.3281 C49.1406 35.3281 48.25 35.875 47.6094 36.625 L48.3281 37.2969 C48.8125 36.7344 49.4375 36.3906 50.1406 36.3906 C51.125 36.3906 51.6406 37.0625 51.6406 37.9062 C51.6406 39.5781 49.1719 40.4688 49.4844 42.9062 ZM50.0938 46.1875 C50.6094 46.1875 51.0312 45.7969 51.0312 45.2188 C51.0312 44.625 50.6094 44.2188 50.0938 44.2188 C49.5938 44.2188 49.1719 44.625 49.1719 45.2188 C49.1719 45.7969 49.5938 46.1875 50.0938 46.1875 ZM55.0422 46 L56.2141 46 L56.2141 40.3125 C56.2141 39.4375 56.1203 38.1875 56.0578 37.2969 L56.1203 37.2969 L56.9328 39.625 L58.8703 44.9688 L59.7453 44.9688 L61.6828 39.625 L62.4953 37.2969 L62.5578 37.2969 C62.4797 38.1875 62.386 39.4375 62.386 40.3125 L62.386 46 L63.6047 46 L63.6047 35.7188 L62.0422 35.7188 L60.0735 41.2188 C59.8391 41.9375 59.6203 42.6562 59.3703 43.375 L59.3078 43.375 C59.0578 42.6562 58.8235 41.9375 58.5735 41.2188 L56.6047 35.7188 L55.0422 35.7188 L55.0422 46 ZM69.3633 46.1875 C70.3945 46.1875 71.207 45.8281 71.8789 45.3906 L71.4102 44.5625 C70.8633 44.9375 70.2539 45.1562 69.5195 45.1562 C68.0664 45.1562 67.082 44.125 66.9883 42.5 L72.1133 42.5 C72.1445 42.3125 72.1758 42.0469 72.1758 41.7656 C72.1758 39.6094 71.082 38.2031 69.1445 38.2031 C67.3789 38.2031 65.7227 39.7344 65.7227 42.2031 C65.7227 44.7188 67.3477 46.1875 69.3633 46.1875 ZM66.9727 41.5781 C67.1289 40.0938 68.082 39.2188 69.1602 39.2188 C70.3477 39.2188 71.0508 40.0469 71.0508 41.5781 L66.9727 41.5781 Z" style="fill:black; stroke:none;"
      /><path d="M32.7031 46.1875 C34.5156 46.1875 35.9844 45.0938 35.9844 43.25 C35.9844 41.8594 35.0156 40.9375 33.8125 40.6562 L33.8125 40.5938 C34.8906 40.1875 35.6406 39.3594 35.6406 38.125 C35.6406 36.5 34.375 35.5469 32.6562 35.5469 C31.4688 35.5469 30.5469 36.0625 29.7812 36.7812 L30.4688 37.5938 C31.0469 37 31.7656 36.5938 32.5938 36.5938 C33.6562 36.5938 34.3281 37.2344 34.3281 38.2188 C34.3281 39.3281 33.6094 40.1719 31.4844 40.1719 L31.4844 41.1562 C33.8594 41.1562 34.6875 41.9844 34.6875 43.2031 C34.6875 44.3906 33.8125 45.125 32.5938 45.125 C31.4375 45.125 30.6562 44.5781 30.0469 43.9375 L29.4062 44.7812 C30.0781 45.5156 31.0938 46.1875 32.7031 46.1875 ZM36.9731 46 L38.3168 46 L39.3481 44.2188 C39.6137 43.7656 39.8637 43.2969 40.1293 42.8594 L40.2075 42.8594 C40.4731 43.2969 40.7543 43.7656 41.0043 44.2188 L42.1293 46 L43.5356 46 L41.02 42.1562 L43.3325 38.3906 L42.0043 38.3906 L41.0668 40.0625 C40.8481 40.5 40.6137 40.9219 40.3793 41.3438 L40.3325 41.3438 C40.0668 40.9219 39.8012 40.5 39.5668 40.0625 L38.5512 38.3906 L37.1762 38.3906 L39.4887 42.0312 L36.9731 46 Z" style="fill:black; stroke:none;"
    /></g
  ></g
></svg
>
