<?xml version="1.0"?>
<!DOCTYPE svg PUBLIC '-//W3C//DTD SVG 1.0//EN'
          'http://www.w3.org/TR/2001/REC-SVG-20010904/DTD/svg10.dtd'>
<svg xmlns:xlink="http://www.w3.org/1999/xlink" style="fill-opacity:1; color-rendering:auto; color-interpolation:auto; text-rendering:auto; stroke:black; stroke-linecap:square; stroke-miterlimit:10; shape-rendering:auto; stroke-opacity:1; fill:black; stroke-dasharray:none; font-weight:normal; stroke-width:1; font-family:'Dialog'; font-style:normal; stroke-linejoin:miter; font-size:12px; stroke-dashoffset:0; image-rendering:auto;" viewBox="0 0 238 238" xmlns="http://www.w3.org/2000/svg"
><!--Generated by the Batik Graphics2D SVG Generator--><defs id="genericDefs"
  /><g
  ><defs id="defs1"
    ><clipPath clipPathUnits="userSpaceOnUse" id="clipPath1"
      ><path d="M134 134 L156 134 L156 156 L134 156 L134 134 Z"
      /></clipPath
      ><clipPath clipPathUnits="userSpaceOnUse" id="clipPath2"
      ><path d="M82 186 L104 186 L104 208 L82 208 L82 186 Z"
      /></clipPath
      ><clipPath clipPathUnits="userSpaceOnUse" id="clipPath3"
      ><path style="fill-rule:evenodd;" d="M93 156 L82 134 L104 134 Z"
      /></clipPath
      ><clipPath clipPathUnits="userSpaceOnUse" id="clipPath4"
      ><path d="M30 186 L52 186 L52 208 L30 208 L30 186 Z"
      /></clipPath
      ><clipPath clipPathUnits="userSpaceOnUse" id="clipPath5"
      ><path d="M82 82 L104 82 L104 104 L82 104 L82 82 Z"
      /></clipPath
      ><clipPath clipPathUnits="userSpaceOnUse" id="clipPath6"
      ><path style="fill-rule:evenodd;" d="M93 52 L82 30 L104 30 Z"
      /></clipPath
      ><clipPath clipPathUnits="userSpaceOnUse" id="clipPath7"
      ><path d="M30 82 L52 82 L52 104 L30 104 L30 82 Z"
      /></clipPath
    ></defs
    ><g style="fill:white; text-rendering:optimizeSpeed; stroke:white;"
    ><rect x="0" width="238" height="238" y="0" style="stroke:none;"
      /><polygon style="fill:none; stroke:black;" points=" 197 145 145 145"
      /><path d="M197 134 C191.5 139.5 202.5 150.5 197 156" style="fill:none; stroke:black;"
      /><polygon style="fill:none; stroke:black;" points=" 145 145 93 197"
      /><polygon style="fill:none; stroke:black;" points=" 145 145 93 93"
      /><rect x="134" y="134" width="22" style="clip-path:url(#clipPath1); stroke:none;" height="22"
      /><rect x="134" y="134" width="22" style="clip-path:url(#clipPath1); fill:rgb(255,212,0); stroke:none;" height="22"
      /><rect x="134" y="134" width="22" style="clip-path:url(#clipPath1); fill:none; stroke:black;" height="22"
      /><rect x="134" y="134" width="22" style="fill:none; stroke:black;" height="22"
      /><polygon style="fill:none; stroke:black;" points=" 93 197 93 145"
      /><polygon style="fill:none; stroke:black;" points=" 93 197 41 197"
      /><rect x="82" y="186" width="22" style="clip-path:url(#clipPath2); stroke:none;" height="22"
      /><rect x="82" y="186" width="22" style="clip-path:url(#clipPath2); fill:rgb(0,144,188); stroke:none;" height="22"
      /><rect x="82" y="186" width="22" style="clip-path:url(#clipPath2); fill:none; stroke:black;" height="22"
      /><rect x="82" y="186" width="22" style="fill:none; stroke:black;" height="22"
      /><polygon style="clip-path:url(#clipPath3); stroke:none;" points=" 93 156 82 134 104 134"
      /><rect x="82" y="134" width="22" style="clip-path:url(#clipPath3); fill:rgb(237,28,36); stroke:none;" height="22"
      /><rect x="82" y="134" width="22" style="clip-path:url(#clipPath3); fill:none; stroke:black;" height="22"
      /><polygon style="fill:none; stroke:black;" points=" 93 156 82 134 104 134"
      /><rect x="30" y="186" width="22" style="clip-path:url(#clipPath4); stroke:none;" height="22"
      /><rect x="30" y="186" width="22" style="clip-path:url(#clipPath4); fill:rgb(255,212,0); stroke:none;" height="22"
      /><rect x="30" y="186" width="22" style="clip-path:url(#clipPath4); fill:none; stroke:black;" height="22"
      /><rect x="30" y="186" width="22" style="fill:none; stroke:black;" height="22"
      /><rect x="82" y="173" width="5" style="stroke:none;" height="10"
    /></g
    ><g style="font-family:'Serif'; text-rendering:optimizeSpeed; "
    ><path style="stroke:none;" d="M83.8906 181.6875 C83.4844 181.6875 83.1562 182.0469 83.1562 182.4219 C83.1562 182.8125 83.4844 183.1562 83.8906 183.1562 C84.2969 183.1562 84.6406 182.8125 84.6406 182.4219 C84.6406 182.0469 84.2969 181.6875 83.8906 181.6875 ZM85.4688 175.5781 C85.7188 175.8906 85.875 176.2656 85.8906 176.6562 C85.8906 177.1875 85.625 177.5 85.0312 177.7656 L84.4062 178.0156 C83.6406 178.3125 83.3906 178.5469 83.3906 178.9375 C83.3906 179.1094 83.4531 179.3438 83.5781 179.8125 L83.7344 180.3438 L84.1094 180.3438 L84.0938 179.5312 C84.0938 179.0938 84.2031 178.9688 84.7812 178.7344 L85.2031 178.5625 C86.0312 178.2188 86.4531 177.6875 86.4531 176.8438 C86.4531 175.1562 84.6562 174.1875 83.5 174.0312 C83.1094 174.125 82.9062 174.2969 82.9062 174.6406 C82.9062 174.9375 83.0625 175.1562 83.7188 175.2656 L85.4688 175.5781 Z"
      /><rect x="82" y="159" width="5" style="fill:white; stroke:none;" height="10"
      /><path style="stroke:none;" d="M83.8906 167.6875 C83.4844 167.6875 83.1562 168.0469 83.1562 168.4219 C83.1562 168.8125 83.4844 169.1562 83.8906 169.1562 C84.2969 169.1562 84.6406 168.8125 84.6406 168.4219 C84.6406 168.0469 84.2969 167.6875 83.8906 167.6875 ZM85.4688 161.5781 C85.7188 161.8906 85.875 162.2656 85.8906 162.6562 C85.8906 163.1875 85.625 163.5 85.0312 163.7656 L84.4062 164.0156 C83.6406 164.3125 83.3906 164.5469 83.3906 164.9375 C83.3906 165.1094 83.4531 165.3438 83.5781 165.8125 L83.7344 166.3438 L84.1094 166.3438 L84.0938 165.5312 C84.0938 165.0938 84.2031 164.9688 84.7812 164.7344 L85.2031 164.5625 C86.0312 164.2188 86.4531 163.6875 86.4531 162.8438 C86.4531 161.1562 84.6562 160.1875 83.5 160.0312 C83.1094 160.125 82.9062 160.2969 82.9062 160.6406 C82.9062 160.9375 83.0625 161.1562 83.7188 161.2656 L85.4688 161.5781 Z"
      /><rect x="71" y="200" width="5" style="fill:white; stroke:none;" height="10"
      /><path style="stroke:none;" d="M72.8906 208.6875 C72.4844 208.6875 72.1562 209.0469 72.1562 209.4219 C72.1562 209.8125 72.4844 210.1562 72.8906 210.1562 C73.2969 210.1562 73.6406 209.8125 73.6406 209.4219 C73.6406 209.0469 73.2969 208.6875 72.8906 208.6875 ZM74.4688 202.5781 C74.7188 202.8906 74.875 203.2656 74.8906 203.6562 C74.8906 204.1875 74.625 204.5 74.0312 204.7656 L73.4062 205.0156 C72.6406 205.3125 72.3906 205.5469 72.3906 205.9375 C72.3906 206.1094 72.4531 206.3438 72.5781 206.8125 L72.7344 207.3438 L73.1094 207.3438 L73.0938 206.5312 C73.0938 206.0938 73.2031 205.9688 73.7812 205.7344 L74.2031 205.5625 C75.0312 205.2188 75.4531 204.6875 75.4531 203.8438 C75.4531 202.1562 73.6562 201.1875 72.5 201.0312 C72.1094 201.125 71.9062 201.2969 71.9062 201.6406 C71.9062 201.9375 72.0625 202.1562 72.7188 202.2656 L74.4688 202.5781 Z"
      /><rect x="57" y="200" width="5" style="fill:white; stroke:none;" height="10"
      /><path style="stroke:none;" d="M58.8906 208.6875 C58.4844 208.6875 58.1562 209.0469 58.1562 209.4219 C58.1562 209.8125 58.4844 210.1562 58.8906 210.1562 C59.2969 210.1562 59.6406 209.8125 59.6406 209.4219 C59.6406 209.0469 59.2969 208.6875 58.8906 208.6875 ZM60.4688 202.5781 C60.7188 202.8906 60.875 203.2656 60.8906 203.6562 C60.8906 204.1875 60.625 204.5 60.0312 204.7656 L59.4062 205.0156 C58.6406 205.3125 58.3906 205.5469 58.3906 205.9375 C58.3906 206.1094 58.4531 206.3438 58.5781 206.8125 L58.7344 207.3438 L59.1094 207.3438 L59.0938 206.5312 C59.0938 206.0938 59.2031 205.9688 59.7812 205.7344 L60.2031 205.5625 C61.0312 205.2188 61.4531 204.6875 61.4531 203.8438 C61.4531 202.1562 59.6562 201.1875 58.5 201.0312 C58.1094 201.125 57.9062 201.2969 57.9062 201.6406 C57.9062 201.9375 58.0625 202.1562 58.7188 202.2656 L60.4688 202.5781 Z"
      /><polygon style="fill:none;" points=" 93 93 93 41"
      /><polygon style="fill:none;" points=" 93 93 41 93"
      /><rect x="82" y="82" width="22" style="clip-path:url(#clipPath5); fill:white; stroke:none;" height="22"
      /><rect x="82" y="82" width="22" style="clip-path:url(#clipPath5); fill:rgb(0,144,188); stroke:none;" height="22"
      /><rect x="82" y="82" width="22" style="fill:none; clip-path:url(#clipPath5);" height="22"
      /><rect x="82" width="22" height="22" y="82" style="fill:none;"
      /><polygon style="fill:white; clip-path:url(#clipPath6); stroke:none;" points=" 93 52 82 30 104 30"
      /><rect x="82" y="30" width="22" style="clip-path:url(#clipPath6); fill:rgb(237,28,36); stroke:none;" height="22"
      /><rect x="82" y="30" width="22" style="fill:none; clip-path:url(#clipPath6);" height="22"
      /><polygon style="fill:none;" points=" 93 52 82 30 104 30"
      /><rect x="30" y="82" width="22" style="clip-path:url(#clipPath7); fill:white; stroke:none;" height="22"
      /><rect x="30" y="82" width="22" style="clip-path:url(#clipPath7); fill:rgb(255,212,0); stroke:none;" height="22"
      /><rect x="30" y="82" width="22" style="fill:none; clip-path:url(#clipPath7);" height="22"
      /><rect x="30" width="22" height="22" y="82" style="fill:none;"
      /><rect x="82" y="69" width="5" style="fill:white; stroke:none;" height="10"
      /><path style="stroke:none;" d="M83.8906 77.6875 C83.4844 77.6875 83.1562 78.0469 83.1562 78.4219 C83.1562 78.8125 83.4844 79.1562 83.8906 79.1562 C84.2969 79.1562 84.6406 78.8125 84.6406 78.4219 C84.6406 78.0469 84.2969 77.6875 83.8906 77.6875 ZM85.4688 71.5781 C85.7188 71.8906 85.875 72.2656 85.8906 72.6562 C85.8906 73.1875 85.625 73.5 85.0312 73.7656 L84.4062 74.0156 C83.6406 74.3125 83.3906 74.5469 83.3906 74.9375 C83.3906 75.1094 83.4531 75.3438 83.5781 75.8125 L83.7344 76.3438 L84.1094 76.3438 L84.0938 75.5312 C84.0938 75.0938 84.2031 74.9688 84.7812 74.7344 L85.2031 74.5625 C86.0312 74.2188 86.4531 73.6875 86.4531 72.8438 C86.4531 71.1562 84.6562 70.1875 83.5 70.0312 C83.1094 70.125 82.9062 70.2969 82.9062 70.6406 C82.9062 70.9375 83.0625 71.1562 83.7188 71.2656 L85.4688 71.5781 Z"
      /><rect x="82" y="55" width="5" style="fill:white; stroke:none;" height="10"
      /><path style="stroke:none;" d="M83.8906 63.6875 C83.4844 63.6875 83.1562 64.0469 83.1562 64.4219 C83.1562 64.8125 83.4844 65.1562 83.8906 65.1562 C84.2969 65.1562 84.6406 64.8125 84.6406 64.4219 C84.6406 64.0469 84.2969 63.6875 83.8906 63.6875 ZM85.4688 57.5781 C85.7188 57.8906 85.875 58.2656 85.8906 58.6562 C85.8906 59.1875 85.625 59.5 85.0312 59.7656 L84.4062 60.0156 C83.6406 60.3125 83.3906 60.5469 83.3906 60.9375 C83.3906 61.1094 83.4531 61.3438 83.5781 61.8125 L83.7344 62.3438 L84.1094 62.3438 L84.0938 61.5312 C84.0938 61.0938 84.2031 60.9688 84.7812 60.7344 L85.2031 60.5625 C86.0312 60.2188 86.4531 59.6875 86.4531 58.8438 C86.4531 57.1562 84.6562 56.1875 83.5 56.0312 C83.1094 56.125 82.9062 56.2969 82.9062 56.6406 C82.9062 56.9375 83.0625 57.1562 83.7188 57.2656 L85.4688 57.5781 Z"
      /><rect x="71" y="96" width="5" style="fill:white; stroke:none;" height="10"
      /><path style="stroke:none;" d="M72.8906 104.6875 C72.4844 104.6875 72.1562 105.0469 72.1562 105.4219 C72.1562 105.8125 72.4844 106.1562 72.8906 106.1562 C73.2969 106.1562 73.6406 105.8125 73.6406 105.4219 C73.6406 105.0469 73.2969 104.6875 72.8906 104.6875 ZM74.4688 98.5781 C74.7188 98.8906 74.875 99.2656 74.8906 99.6562 C74.8906 100.1875 74.625 100.5 74.0312 100.7656 L73.4062 101.0156 C72.6406 101.3125 72.3906 101.5469 72.3906 101.9375 C72.3906 102.1094 72.4531 102.3438 72.5781 102.8125 L72.7344 103.3438 L73.1094 103.3438 L73.0938 102.5312 C73.0938 102.0938 73.2031 101.9688 73.7812 101.7344 L74.2031 101.5625 C75.0312 101.2188 75.4531 100.6875 75.4531 99.8438 C75.4531 98.1562 73.6562 97.1875 72.5 97.0312 C72.1094 97.125 71.9062 97.2969 71.9062 97.6406 C71.9062 97.9375 72.0625 98.1562 72.7188 98.2656 L74.4688 98.5781 Z"
      /><rect x="57" y="96" width="5" style="fill:white; stroke:none;" height="10"
      /><path style="stroke:none;" d="M58.8906 104.6875 C58.4844 104.6875 58.1562 105.0469 58.1562 105.4219 C58.1562 105.8125 58.4844 106.1562 58.8906 106.1562 C59.2969 106.1562 59.6406 105.8125 59.6406 105.4219 C59.6406 105.0469 59.2969 104.6875 58.8906 104.6875 ZM60.4688 98.5781 C60.7188 98.8906 60.875 99.2656 60.8906 99.6562 C60.8906 100.1875 60.625 100.5 60.0312 100.7656 L59.4062 101.0156 C58.6406 101.3125 58.3906 101.5469 58.3906 101.9375 C58.3906 102.1094 58.4531 102.3438 58.5781 102.8125 L58.7344 103.3438 L59.1094 103.3438 L59.0938 102.5312 C59.0938 102.0938 59.2031 101.9688 59.7812 101.7344 L60.2031 101.5625 C61.0312 101.2188 61.4531 100.6875 61.4531 99.8438 C61.4531 98.1562 59.6562 97.1875 58.5 97.0312 C58.1094 97.125 57.9062 97.2969 57.9062 97.6406 C57.9062 97.9375 58.0625 98.1562 58.7188 98.2656 L60.4688 98.5781 Z"
      /><rect x="131" y="162" width="5" style="fill:white; stroke:none;" height="10"
      /><path style="stroke:none;" d="M132.8906 170.6875 C132.4844 170.6875 132.1562 171.0469 132.1562 171.4219 C132.1562 171.8125 132.4844 172.1562 132.8906 172.1562 C133.2969 172.1562 133.6406 171.8125 133.6406 171.4219 C133.6406 171.0469 133.2969 170.6875 132.8906 170.6875 ZM134.4688 164.5781 C134.7188 164.8906 134.875 165.2656 134.8906 165.6562 C134.8906 166.1875 134.625 166.5 134.0312 166.7656 L133.4062 167.0156 C132.6406 167.3125 132.3906 167.5469 132.3906 167.9375 C132.3906 168.1094 132.4531 168.3438 132.5781 168.8125 L132.7344 169.3438 L133.1094 169.3438 L133.0938 168.5312 C133.0938 168.0938 133.2031 167.9688 133.7812 167.7344 L134.2031 167.5625 C135.0312 167.2188 135.4531 166.6875 135.4531 165.8438 C135.4531 164.1562 133.6562 163.1875 132.5 163.0312 C132.1094 163.125 131.9062 163.2969 131.9062 163.6406 C131.9062 163.9375 132.0625 164.1562 132.7188 164.2656 L134.4688 164.5781 Z"
      /><rect x="112" y="181" width="5" style="fill:white; stroke:none;" height="10"
      /><path style="stroke:none;" d="M113.8906 189.6875 C113.4844 189.6875 113.1562 190.0469 113.1562 190.4219 C113.1562 190.8125 113.4844 191.1562 113.8906 191.1562 C114.2969 191.1562 114.6406 190.8125 114.6406 190.4219 C114.6406 190.0469 114.2969 189.6875 113.8906 189.6875 ZM115.4688 183.5781 C115.7188 183.8906 115.875 184.2656 115.8906 184.6562 C115.8906 185.1875 115.625 185.5 115.0312 185.7656 L114.4062 186.0156 C113.6406 186.3125 113.3906 186.5469 113.3906 186.9375 C113.3906 187.1094 113.4531 187.3438 113.5781 187.8125 L113.7344 188.3438 L114.1094 188.3438 L114.0938 187.5312 C114.0938 187.0938 114.2031 186.9688 114.7812 186.7344 L115.2031 186.5625 C116.0312 186.2188 116.4531 185.6875 116.4531 184.8438 C116.4531 183.1562 114.6562 182.1875 113.5 182.0312 C113.1094 182.125 112.9062 182.2969 112.9062 182.6406 C112.9062 182.9375 113.0625 183.1562 113.7188 183.2656 L115.4688 183.5781 Z"
      /><rect x="120" y="129" width="5" style="fill:white; stroke:none;" height="10"
      /><path style="stroke:none;" d="M121.8906 137.6875 C121.4844 137.6875 121.1562 138.0469 121.1562 138.4219 C121.1562 138.8125 121.4844 139.1562 121.8906 139.1562 C122.2969 139.1562 122.6406 138.8125 122.6406 138.4219 C122.6406 138.0469 122.2969 137.6875 121.8906 137.6875 ZM123.4688 131.5781 C123.7188 131.8906 123.875 132.2656 123.8906 132.6562 C123.8906 133.1875 123.625 133.5 123.0312 133.7656 L122.4062 134.0156 C121.6406 134.3125 121.3906 134.5469 121.3906 134.9375 C121.3906 135.1094 121.4531 135.3438 121.5781 135.8125 L121.7344 136.3438 L122.1094 136.3438 L122.0938 135.5312 C122.0938 135.0938 122.2031 134.9688 122.7812 134.7344 L123.2031 134.5625 C124.0312 134.2188 124.4531 133.6875 124.4531 132.8438 C124.4531 131.1562 122.6562 130.1875 121.5 130.0312 C121.1094 130.125 120.9062 130.2969 120.9062 130.6406 C120.9062 130.9375 121.0625 131.1562 121.7188 131.2656 L123.4688 131.5781 Z"
      /><rect x="101" y="110" width="5" style="fill:white; stroke:none;" height="10"
      /><path style="stroke:none;" d="M102.8906 118.6875 C102.4844 118.6875 102.1562 119.0469 102.1562 119.4219 C102.1562 119.8125 102.4844 120.1562 102.8906 120.1562 C103.2969 120.1562 103.6406 119.8125 103.6406 119.4219 C103.6406 119.0469 103.2969 118.6875 102.8906 118.6875 ZM104.4688 112.5781 C104.7188 112.8906 104.875 113.2656 104.8906 113.6562 C104.8906 114.1875 104.625 114.5 104.0312 114.7656 L103.4062 115.0156 C102.6406 115.3125 102.3906 115.5469 102.3906 115.9375 C102.3906 116.1094 102.4531 116.3438 102.5781 116.8125 L102.7344 117.3438 L103.1094 117.3438 L103.0938 116.5312 C103.0938 116.0938 103.2031 115.9688 103.7812 115.7344 L104.2031 115.5625 C105.0312 115.2188 105.4531 114.6875 105.4531 113.8438 C105.4531 112.1562 103.6562 111.1875 102.5 111.0312 C102.1094 111.125 101.9062 111.2969 101.9062 111.6406 C101.9062 111.9375 102.0625 112.1562 102.7188 112.2656 L104.4688 112.5781 Z"
      /><rect x="161" y="148" width="5" style="fill:white; stroke:none;" height="10"
      /><path style="stroke:none;" d="M162.8906 156.6875 C162.4844 156.6875 162.1562 157.0469 162.1562 157.4219 C162.1562 157.8125 162.4844 158.1562 162.8906 158.1562 C163.2969 158.1562 163.6406 157.8125 163.6406 157.4219 C163.6406 157.0469 163.2969 156.6875 162.8906 156.6875 ZM164.4688 150.5781 C164.7188 150.8906 164.875 151.2656 164.8906 151.6562 C164.8906 152.1875 164.625 152.5 164.0312 152.7656 L163.4062 153.0156 C162.6406 153.3125 162.3906 153.5469 162.3906 153.9375 C162.3906 154.1094 162.4531 154.3438 162.5781 154.8125 L162.7344 155.3438 L163.1094 155.3438 L163.0938 154.5312 C163.0938 154.0938 163.2031 153.9688 163.7812 153.7344 L164.2031 153.5625 C165.0312 153.2188 165.4531 152.6875 165.4531 151.8438 C165.4531 150.1562 163.6562 149.1875 162.5 149.0312 C162.1094 149.125 161.9062 149.2969 161.9062 149.6406 C161.9062 149.9375 162.0625 150.1562 162.7188 150.2656 L164.4688 150.5781 Z"
    /></g
  ></g
></svg
>
