<?xml version="1.0"?>
<!DOCTYPE svg PUBLIC '-//W3C//DTD SVG 1.0//EN'
          'http://www.w3.org/TR/2001/REC-SVG-20010904/DTD/svg10.dtd'>
<svg xmlns:xlink="http://www.w3.org/1999/xlink" style="fill-opacity:1; color-rendering:auto; color-interpolation:auto; text-rendering:auto; stroke:black; stroke-linecap:square; stroke-miterlimit:10; shape-rendering:auto; stroke-opacity:1; fill:black; stroke-dasharray:none; font-weight:normal; stroke-width:1; font-family:'Dialog'; font-style:normal; stroke-linejoin:miter; font-size:12px; stroke-dashoffset:0; image-rendering:auto;" viewBox="0 0 262 97" xmlns="http://www.w3.org/2000/svg"
><!--Generated by the Batik Graphics2D SVG Generator--><defs id="genericDefs"
  /><g
  ><defs id="defs1"
    ><clipPath clipPathUnits="userSpaceOnUse" id="clipPath1"
      ><path style="fill-rule:evenodd;" d="M145 30 L155 37 L151 49 L138 49 L134 37 L145 30 Z"
      /></clipPath
      ><clipPath clipPathUnits="userSpaceOnUse" id="clipPath2"
      ><path d="M104 41 C104 47.0751 99.0751 52 93 52 C86.9249 52 82 47.0751 82 41 C82 34.9249 86.9249 30 93 30 C99.0751 30 104 34.9249 104 41 Z"
      /></clipPath
      ><clipPath clipPathUnits="userSpaceOnUse" id="clipPath3"
      ><path d="M30 30 L52 30 L52 52 L30 52 L30 30 Z"
      /></clipPath
    ></defs
    ><g style="fill:white; text-rendering:optimizeSpeed; stroke:white;"
    ><rect x="0" width="262" height="97" y="0" style="stroke:none;"
      /><polygon style="fill:none; stroke:black;" points=" 145 41 93 41"
      /><polygon style="clip-path:url(#clipPath1); stroke:none;" points=" 145 30 155 37 151 49 138 49 134 37 145 30"
      /><rect x="134" y="30" width="22" style="clip-path:url(#clipPath1); stroke:none;" height="22"
      /><rect x="134" y="30" width="22" style="clip-path:url(#clipPath1); fill:none; stroke:black;" height="22"
      /><polygon style="fill:none; stroke:black;" points=" 145 30 155 37 151 49 138 49 134 37 145 30"
    /></g
    ><g style="font-style:italic; text-rendering:optimizeSpeed; font-size:10px; font-family:'SansSerif';"
    ><path style="stroke:none;" d="M145 43.125 C146.3281 43.125 147.7344 42.0938 148.125 40.2969 C148.5 38.4844 147.5469 37.4375 146.2188 37.4375 C144.8906 37.4375 143.4688 38.4844 143.0938 40.2969 C142.7031 42.0938 143.6719 43.125 145 43.125 ZM145.1719 42.375 C144.2344 42.375 143.7656 41.5469 144.0312 40.2969 C144.2969 39.0469 145.1094 38.1875 146.0469 38.1875 C146.9844 38.1875 147.4531 39.0469 147.1875 40.2969 C146.9219 41.5469 146.1094 42.375 145.1719 42.375 Z"
      /><polygon style="fill:none;" points=" 93 41 41 41"
    /></g
    ><g style="fill:white; text-rendering:optimizeSpeed; stroke:white;"
    ><circle r="11" style="clip-path:url(#clipPath2); stroke:none;" cx="93" cy="41"
      /><rect x="82" y="30" width="22" style="clip-path:url(#clipPath2); fill:rgb(255,212,0); stroke:none;" height="22"
      /><rect x="82" y="30" width="22" style="clip-path:url(#clipPath2); fill:none; stroke:black;" height="22"
      /><circle r="11" style="fill:none; stroke:black;" cx="93" cy="41"
      /><rect x="30" y="30" width="22" style="clip-path:url(#clipPath3); stroke:none;" height="22"
      /><polygon style="fill:rgb(255,212,0); clip-path:url(#clipPath3); stroke:none;" points=" 30 30 52 30 52 52"
      /><polygon style="fill:none; clip-path:url(#clipPath3); stroke:black;" points=" 30 30 52 30 52 52"
      /><rect x="30" y="30" width="22" style="fill:none; stroke:black;" height="22"
      /><rect x="71" width="6" height="10" y="44" style="stroke:none;"
      /><path d="M73.2344 45.6562 C73.5156 45.5938 73.7656 45.5625 74.0156 45.5625 C75.0625 45.5625 75.6719 46.1719 75.6719 47.2656 C75.6719 48.4375 74.9062 49.1094 73.7031 49.1094 L73.1875 49.1094 L73.1875 49.6406 L73.7969 49.6406 C75.2188 49.6406 75.9062 50.4219 75.9062 51.6406 C75.9062 52.8438 75.1719 53.6875 73.875 53.6875 C73.6094 53.6875 73.3125 53.6562 73.0156 53.5625 L72.7812 52.8125 C72.625 52.2812 72.5 52.0469 72.1406 52.0469 C71.8906 52.0469 71.7031 52.1719 71.5781 52.4219 C71.8438 53.6406 72.7812 54.1719 74.0312 54.1719 C75.7188 54.1719 76.875 53.125 76.875 51.7031 C76.875 50.5 76.2031 49.625 74.7969 49.375 C75.9531 49.0156 76.6094 48.2031 76.6094 47.2031 C76.6094 45.9219 75.6719 45.0781 74.1875 45.0781 C73.0469 45.0781 72.0625 45.5938 71.7969 46.6875 C71.9062 47 72.1094 47.1094 72.3594 47.1094 C72.7344 47.1094 72.8906 46.8906 73 46.4062 L73.2344 45.6562 Z" style="fill:black; stroke:none;"
      /><rect x="57" width="6" height="13" y="42" style="stroke:none;"
      /><path d="M59.0938 48.2031 C59.0938 46.6562 59.75 45.8125 60.7969 45.8125 C61.7188 45.8125 62.2656 46.4531 62.2656 47.5156 C62.2656 48.7188 61.5 49.4375 60.1875 49.7031 L60.2969 50.3125 C62.2188 50.2344 62.9375 51.2188 62.9375 52.4375 C62.9375 53.625 62.2344 54.4219 60.9531 54.4219 C60.25 54.4219 59.6562 54.1562 59.0938 53.7188 L59.0938 48.2031 ZM58.2031 54.9062 L58.1094 57.375 L58.2656 57.4844 L59.1562 57.2656 L59.0156 54.0938 C59.5469 54.8438 60.3594 55.1719 61.1719 55.1719 C62.5625 55.1719 63.8594 54.2188 63.8594 52.4844 C63.8594 50.9531 62.875 50.1094 61.125 50 C62.5625 49.6094 63.1875 48.4531 63.1875 47.4844 C63.1875 46.0938 62.1562 45.3125 60.9062 45.3125 C59.2969 45.3125 58.2188 46.5469 58.2188 48.5156 L58.2031 54.9062 Z" style="fill:black; stroke:none;"
      /><rect x="123" width="5" height="9" y="44" style="stroke:none;"
      /><path d="M126.8594 52.3906 C126.8594 51.6719 126.8438 50.9531 126.8438 50.25 L126.8438 46.1406 L126.8906 44.2656 L126.7031 44.125 L124.1094 44.7969 L124.1094 45.2344 L125.9219 45.0312 L125.9219 50.25 C125.9219 50.9531 125.9062 51.6719 125.8906 52.3906 L124 52.6094 L124 53 L128.7344 53 L128.7344 52.6094 L126.8594 52.3906 Z" style="fill:black; stroke:none;"
      /><rect x="108" width="8" height="8" y="45" style="stroke:none;"
      /><path d="M112.9844 50.7031 C112.9375 51.8906 112.1562 52.6562 111.3125 52.6562 C110.2656 52.6562 109.5 51.6875 109.5 49.7188 C109.5 48.2812 110.1562 47.1562 111.3438 47.1562 C112.1406 47.1562 112.7812 47.6875 113.0938 48.6406 L112.9844 50.7031 ZM114.9062 52.2812 C114.7344 52.375 114.5469 52.4219 114.3438 52.4219 C113.9531 52.4219 113.75 52.2188 113.75 51.4219 C113.75 50.4844 113.9688 48.5312 114.1875 46.8281 L114.0312 46.7188 L113.2344 46.9219 L113.1406 47.7969 C112.7812 47.0312 112.1562 46.6562 111.3906 46.6562 C110.0469 46.6562 108.5625 47.8438 108.5625 49.9531 C108.5625 52.0938 109.7188 53.1719 111.1406 53.1719 C112.0156 53.1719 112.6875 52.8125 113.0938 51.9844 C113.2031 52.8594 113.5156 53.1719 114.0156 53.1719 C114.4688 53.1719 114.7969 52.9062 115.0156 52.5625 L114.9062 52.2812 Z" style="fill:black; stroke:none;"
    /></g
    ><g ID="legend-1:0" style="text-rendering:optimizeSpeed; font-size:10px; font-family:'SansSerif';"
    ><path style="stroke:none;" d="M30.875 67 L34.9062 67 L34.9062 66.2344 L33.4375 66.2344 L33.4375 59.6562 L32.7344 59.6562 C32.3281 59.9062 31.8594 60.0625 31.2031 60.1875 L31.2031 60.7656 L32.5156 60.7656 L32.5156 66.2344 L30.875 66.2344 L30.875 67 ZM35.925 62.4531 L40.7219 62.4531 L40.7219 61.7656 L35.925 61.7656 L35.925 62.4531 ZM35.925 64.8438 L40.7219 64.8438 L40.7219 64.1719 L35.925 64.1719 L35.925 64.8438 ZM42.1 67 L43.975 67 C46.1937 67 47.3969 65.625 47.3969 63.3125 C47.3969 60.9844 46.1937 59.6562 43.9437 59.6562 L42.1 59.6562 L42.1 67 ZM43.0375 66.2344 L43.0375 60.4219 L43.8656 60.4219 C45.5844 60.4219 46.4437 61.4531 46.4437 63.3125 C46.4437 65.1562 45.5844 66.2344 43.8656 66.2344 L43.0375 66.2344 ZM48.4231 64.5469 L50.9856 64.5469 L50.9856 63.8438 L48.4231 63.8438 L48.4231 64.5469 ZM55.315 67.125 C56.315 67.125 57.1275 66.7656 57.5962 66.2812 L57.5962 63.2031 L55.19 63.2031 L55.19 63.9688 L56.7368 63.9688 L56.7368 65.8906 C56.4556 66.1562 55.94 66.3125 55.4243 66.3125 C53.8462 66.3125 52.9712 65.1562 52.9712 63.3125 C52.9712 61.4844 53.9243 60.3438 55.3931 60.3438 C56.1431 60.3438 56.6275 60.6562 56.9868 61.0469 L57.4868 60.4375 C57.065 59.9844 56.3931 59.5312 55.3775 59.5312 C53.44 59.5312 52.0181 60.9688 52.0181 63.3438 C52.0181 65.7188 53.3931 67.125 55.315 67.125 ZM59.2518 67 L60.1581 67 L60.1581 63.5156 C60.5175 62.5781 61.08 62.2656 61.5331 62.2656 C61.7518 62.2656 61.8768 62.2812 62.0643 62.3438 L62.2362 61.5469 C62.0643 61.4531 61.8925 61.4375 61.6425 61.4375 C61.0331 61.4375 60.4862 61.875 60.1112 62.5625 L60.08 62.5625 L60.0018 61.5625 L59.2518 61.5625 L59.2518 67 ZM65.2412 67.125 C66.5693 67.125 67.7568 66.0938 67.7568 64.2969 C67.7568 62.4844 66.5693 61.4375 65.2412 61.4375 C63.9131 61.4375 62.7256 62.4844 62.7256 64.2969 C62.7256 66.0938 63.9131 67.125 65.2412 67.125 ZM65.2412 66.375 C64.3037 66.375 63.6631 65.5469 63.6631 64.2969 C63.6631 63.0469 64.3037 62.1875 65.2412 62.1875 C66.1787 62.1875 66.8193 63.0469 66.8193 64.2969 C66.8193 65.5469 66.1787 66.375 65.2412 66.375 ZM68.7231 64.5469 L71.2856 64.5469 L71.2856 63.8438 L68.7231 63.8438 L68.7231 64.5469 ZM74.7712 67.125 C76.0993 67.125 77.2868 66.0938 77.2868 64.2969 C77.2868 62.4844 76.0993 61.4375 74.7712 61.4375 C73.4431 61.4375 72.2556 62.4844 72.2556 64.2969 C72.2556 66.0938 73.4431 67.125 74.7712 67.125 ZM74.7712 66.375 C73.8337 66.375 73.1931 65.5469 73.1931 64.2969 C73.1931 63.0469 73.8337 62.1875 74.7712 62.1875 C75.7087 62.1875 76.3493 63.0469 76.3493 64.2969 C76.3493 65.5469 75.7087 66.375 74.7712 66.375 ZM79.675 67.125 C79.925 67.125 80.0812 67.0938 80.2062 67.0469 L80.0812 66.3438 C79.9875 66.375 79.9406 66.375 79.8937 66.375 C79.7531 66.375 79.6281 66.2656 79.6281 65.9844 L79.6281 59.0469 L78.7218 59.0469 L78.7218 65.9219 C78.7218 66.6875 79.0031 67.125 79.675 67.125 Z"
    /></g
  ></g
></svg
>
