<?xml version="1.0"?>
<!DOCTYPE svg PUBLIC '-//W3C//DTD SVG 1.0//EN'
          'http://www.w3.org/TR/2001/REC-SVG-20010904/DTD/svg10.dtd'>
<svg xmlns:xlink="http://www.w3.org/1999/xlink" style="fill-opacity:1; color-rendering:auto; color-interpolation:auto; text-rendering:auto; stroke:black; stroke-linecap:square; stroke-miterlimit:10; shape-rendering:auto; stroke-opacity:1; fill:black; stroke-dasharray:none; font-weight:normal; stroke-width:1; font-family:'Dialog'; font-style:normal; stroke-linejoin:miter; font-size:12px; stroke-dashoffset:0; image-rendering:auto;" viewBox="0 0 394 212" xmlns="http://www.w3.org/2000/svg"
><!--Generated by the Batik Graphics2D SVG Generator--><defs id="genericDefs"
  /><g
  ><defs id="defs1"
    ><clipPath clipPathUnits="userSpaceOnUse" id="clipPath1"
      ><path d="M290 69 L312 69 L312 91 L290 91 L290 69 Z"
      /></clipPath
      ><clipPath clipPathUnits="userSpaceOnUse" id="clipPath2"
      ><path d="M260 80 C260 86.0751 255.0751 91 249 91 C242.9249 91 238 86.0751 238 80 C238 73.9249 242.9249 69 249 69 C255.0751 69 260 73.9249 260 80 Z"
      /></clipPath
      ><clipPath clipPathUnits="userSpaceOnUse" id="clipPath3"
      ><path d="M208 119 C208 125.0751 203.0751 130 197 130 C190.9249 130 186 125.0751 186 119 C186 112.9249 190.9249 108 197 108 C203.0751 108 208 112.9249 208 119 Z"
      /></clipPath
      ><clipPath clipPathUnits="userSpaceOnUse" id="clipPath4"
      ><path d="M156 145 C156 151.0751 151.0751 156 145 156 C138.9249 156 134 151.0751 134 145 C134 138.9249 138.9249 134 145 134 C151.0751 134 156 138.9249 156 145 Z"
      /></clipPath
      ><clipPath clipPathUnits="userSpaceOnUse" id="clipPath5"
      ><path d="M104 171 C104 177.0751 99.0751 182 93 182 C86.9249 182 82 177.0751 82 171 C82 164.9249 86.9249 160 93 160 C99.0751 160 104 164.9249 104 171 Z"
      /></clipPath
      ><clipPath clipPathUnits="userSpaceOnUse" id="clipPath6"
      ><path d="M52 171 C52 177.0751 47.0751 182 41 182 C34.9249 182 30 177.0751 30 171 C30 164.9249 34.9249 160 41 160 C47.0751 160 52 164.9249 52 171 Z"
      /></clipPath
      ><clipPath clipPathUnits="userSpaceOnUse" id="clipPath7"
      ><path d="M104 119 C104 125.0751 99.0751 130 93 130 C86.9249 130 82 125.0751 82 119 C82 112.9249 86.9249 108 93 108 C99.0751 108 104 112.9249 104 119 Z"
      /></clipPath
      ><clipPath clipPathUnits="userSpaceOnUse" id="clipPath8"
      ><path d="M156 93 C156 99.0751 151.0751 104 145 104 C138.9249 104 134 99.0751 134 93 C134 86.9249 138.9249 82 145 82 C151.0751 82 156 86.9249 156 93 Z"
      /></clipPath
      ><clipPath clipPathUnits="userSpaceOnUse" id="clipPath9"
      ><path d="M208 41 C208 47.0751 203.0751 52 197 52 C190.9249 52 186 47.0751 186 41 C186 34.9249 190.9249 30 197 30 C203.0751 30 208 34.9249 208 41 Z"
      /></clipPath
      ><clipPath clipPathUnits="userSpaceOnUse" id="clipPath10"
      ><path d="M156 41 C156 47.0751 151.0751 52 145 52 C138.9249 52 134 47.0751 134 41 C134 34.9249 138.9249 30 145 30 C151.0751 30 156 34.9249 156 41 Z"
      /></clipPath
      ><clipPath clipPathUnits="userSpaceOnUse" id="clipPath11"
      ><path d="M104 41 C104 47.0751 99.0751 52 93 52 C86.9249 52 82 47.0751 82 41 C82 34.9249 86.9249 30 93 30 C99.0751 30 104 34.9249 104 41 Z"
      /></clipPath
      ><clipPath clipPathUnits="userSpaceOnUse" id="clipPath12"
      ><path d="M52 41 C52 47.0751 47.0751 52 41 52 C34.9249 52 30 47.0751 30 41 C30 34.9249 34.9249 30 41 30 C47.0751 30 52 34.9249 52 41 Z"
      /></clipPath
    ></defs
    ><g style="fill:white; text-rendering:optimizeSpeed; stroke:white;"
    ><rect x="0" width="394" height="212" y="0" style="stroke:none;"
      /><polygon style="fill:none; stroke:black;" points=" 353 80 301 80"
      /><path d="M353 69 C347.5 74.5 358.5 85.5 353 91" style="fill:none; stroke:black;"
      /><polygon style="fill:none; stroke:black;" points=" 301 80 249 80"
      /><rect x="290" y="69" width="22" style="clip-path:url(#clipPath1); stroke:none;" height="22"
      /><rect x="290" y="69" width="22" style="clip-path:url(#clipPath1); fill:rgb(0,144,188); stroke:none;" height="22"
      /><rect x="290" y="69" width="22" style="clip-path:url(#clipPath1); fill:none; stroke:black;" height="22"
      /><rect x="290" y="69" width="22" style="fill:none; stroke:black;" height="22"
      /><polygon style="fill:none; stroke:black;" points=" 249 80 197 119"
      /><polygon style="fill:none; stroke:black;" points=" 249 80 197 41"
      /><circle style="clip-path:url(#clipPath2); stroke:none;" r="11" cx="249" cy="80"
      /><rect x="238" y="69" width="22" style="clip-path:url(#clipPath2); fill:rgb(0,166,81); stroke:none;" height="22"
      /><rect x="238" y="69" width="22" style="clip-path:url(#clipPath2); fill:none; stroke:black;" height="22"
      /><circle style="fill:none; stroke:black;" r="11" cx="249" cy="80"
      /><polygon style="fill:none; stroke:black;" points=" 197 119 145 145"
      /><polygon style="fill:none; stroke:black;" points=" 197 119 145 93"
      /><circle style="clip-path:url(#clipPath3); stroke:none;" r="11" cx="197" cy="119"
      /><rect x="186" y="108" width="22" style="clip-path:url(#clipPath3); fill:rgb(0,166,81); stroke:none;" height="22"
      /><rect x="186" y="108" width="22" style="clip-path:url(#clipPath3); fill:none; stroke:black;" height="22"
      /><circle style="fill:none; stroke:black;" r="11" cx="197" cy="119"
      /><polygon style="fill:none; stroke:black;" points=" 145 145 93 171"
      /><polygon style="fill:none; stroke:black;" points=" 145 145 93 119"
      /><circle style="clip-path:url(#clipPath4); stroke:none;" r="11" cx="145" cy="145"
      /><rect x="134" y="134" width="22" style="clip-path:url(#clipPath4); fill:rgb(0,166,81); stroke:none;" height="22"
      /><rect x="134" y="134" width="22" style="clip-path:url(#clipPath4); fill:none; stroke:black;" height="22"
      /><circle style="fill:none; stroke:black;" r="11" cx="145" cy="145"
      /><polygon style="fill:none; stroke:black;" points=" 93 171 41 171"
      /><circle style="clip-path:url(#clipPath5); stroke:none;" r="11" cx="93" cy="171"
      /><rect x="82" y="160" width="22" style="clip-path:url(#clipPath5); fill:rgb(0,166,81); stroke:none;" height="22"
      /><rect x="82" y="160" width="22" style="clip-path:url(#clipPath5); fill:none; stroke:black;" height="22"
      /><circle style="fill:none; stroke:black;" r="11" cx="93" cy="171"
      /><circle style="clip-path:url(#clipPath6); stroke:none;" r="11" cx="41" cy="171"
      /><rect x="30" y="160" width="22" style="clip-path:url(#clipPath6); fill:rgb(0,166,81); stroke:none;" height="22"
      /><rect x="30" y="160" width="22" style="clip-path:url(#clipPath6); fill:none; stroke:black;" height="22"
      /><circle style="fill:none; stroke:black;" r="11" cx="41" cy="171"
      /><rect x="71" y="174" width="5" style="stroke:none;" height="10"
    /></g
    ><g style="font-family:'Serif'; text-rendering:optimizeSpeed; "
    ><path style="stroke:none;" d="M72.8906 182.6875 C72.4844 182.6875 72.1562 183.0469 72.1562 183.4219 C72.1562 183.8125 72.4844 184.1562 72.8906 184.1562 C73.2969 184.1562 73.6406 183.8125 73.6406 183.4219 C73.6406 183.0469 73.2969 182.6875 72.8906 182.6875 ZM74.4688 176.5781 C74.7188 176.8906 74.875 177.2656 74.8906 177.6562 C74.8906 178.1875 74.625 178.5 74.0312 178.7656 L73.4062 179.0156 C72.6406 179.3125 72.3906 179.5469 72.3906 179.9375 C72.3906 180.1094 72.4531 180.3438 72.5781 180.8125 L72.7344 181.3438 L73.1094 181.3438 L73.0938 180.5312 C73.0938 180.0938 73.2031 179.9688 73.7812 179.7344 L74.2031 179.5625 C75.0312 179.2188 75.4531 178.6875 75.4531 177.8438 C75.4531 176.1562 73.6562 175.1875 72.5 175.0312 C72.1094 175.125 71.9062 175.2969 71.9062 175.6406 C71.9062 175.9375 72.0625 176.1562 72.7188 176.2656 L74.4688 176.5781 Z"
      /><rect x="57" y="174" width="5" style="fill:white; stroke:none;" height="10"
      /><path style="stroke:none;" d="M58.8906 182.6875 C58.4844 182.6875 58.1562 183.0469 58.1562 183.4219 C58.1562 183.8125 58.4844 184.1562 58.8906 184.1562 C59.2969 184.1562 59.6406 183.8125 59.6406 183.4219 C59.6406 183.0469 59.2969 182.6875 58.8906 182.6875 ZM60.4688 176.5781 C60.7188 176.8906 60.875 177.2656 60.8906 177.6562 C60.8906 178.1875 60.625 178.5 60.0312 178.7656 L59.4062 179.0156 C58.6406 179.3125 58.3906 179.5469 58.3906 179.9375 C58.3906 180.1094 58.4531 180.3438 58.5781 180.8125 L58.7344 181.3438 L59.1094 181.3438 L59.0938 180.5312 C59.0938 180.0938 59.2031 179.9688 59.7812 179.7344 L60.2031 179.5625 C61.0312 179.2188 61.4531 178.6875 61.4531 177.8438 C61.4531 176.1562 59.6562 175.1875 58.5 175.0312 C58.1094 175.125 57.9062 175.2969 57.9062 175.6406 C57.9062 175.9375 58.0625 176.1562 58.7188 176.2656 L60.4688 176.5781 Z"
      /><circle style="fill:white; clip-path:url(#clipPath7); stroke:none;" r="11" cx="93" cy="119"
      /><rect x="82" y="108" width="22" style="clip-path:url(#clipPath7); fill:rgb(0,166,81); stroke:none;" height="22"
      /><rect x="82" y="108" width="22" style="fill:none; clip-path:url(#clipPath7);" height="22"
      /><circle r="11" style="fill:none;" cx="93" cy="119"
      /><rect x="127" y="156" width="5" style="fill:white; stroke:none;" height="10"
      /><path style="stroke:none;" d="M128.8906 164.6875 C128.4844 164.6875 128.1562 165.0469 128.1562 165.4219 C128.1562 165.8125 128.4844 166.1562 128.8906 166.1562 C129.2969 166.1562 129.6406 165.8125 129.6406 165.4219 C129.6406 165.0469 129.2969 164.6875 128.8906 164.6875 ZM130.4688 158.5781 C130.7188 158.8906 130.875 159.2656 130.8906 159.6562 C130.8906 160.1875 130.625 160.5 130.0312 160.7656 L129.4062 161.0156 C128.6406 161.3125 128.3906 161.5469 128.3906 161.9375 C128.3906 162.1094 128.4531 162.3438 128.5781 162.8125 L128.7344 163.3438 L129.1094 163.3438 L129.0938 162.5312 C129.0938 162.0938 129.2031 161.9688 129.7812 161.7344 L130.2031 161.5625 C131.0312 161.2188 131.4531 160.6875 131.4531 159.8438 C131.4531 158.1562 129.6562 157.1875 128.5 157.0312 C128.1094 157.125 127.9062 157.2969 127.9062 157.6406 C127.9062 157.9375 128.0625 158.1562 128.7188 158.2656 L130.4688 158.5781 Z"
      /><rect x="112" y="164" width="5" style="fill:white; stroke:none;" height="10"
      /><path style="stroke:none;" d="M113.8906 172.6875 C113.4844 172.6875 113.1562 173.0469 113.1562 173.4219 C113.1562 173.8125 113.4844 174.1562 113.8906 174.1562 C114.2969 174.1562 114.6406 173.8125 114.6406 173.4219 C114.6406 173.0469 114.2969 172.6875 113.8906 172.6875 ZM115.4688 166.5781 C115.7188 166.8906 115.875 167.2656 115.8906 167.6562 C115.8906 168.1875 115.625 168.5 115.0312 168.7656 L114.4062 169.0156 C113.6406 169.3125 113.3906 169.5469 113.3906 169.9375 C113.3906 170.1094 113.4531 170.3438 113.5781 170.8125 L113.7344 171.3438 L114.1094 171.3438 L114.0938 170.5312 C114.0938 170.0938 114.2031 169.9688 114.7812 169.7344 L115.2031 169.5625 C116.0312 169.2188 116.4531 168.6875 116.4531 167.8438 C116.4531 166.1562 114.6562 165.1875 113.5 165.0312 C113.1094 165.125 112.9062 165.2969 112.9062 165.6406 C112.9062 165.9375 113.0625 166.1562 113.7188 166.2656 L115.4688 166.5781 Z"
      /><rect x="120" y="138" width="5" style="fill:white; stroke:none;" height="10"
      /><path style="stroke:none;" d="M121.8906 146.6875 C121.4844 146.6875 121.1562 147.0469 121.1562 147.4219 C121.1562 147.8125 121.4844 148.1562 121.8906 148.1562 C122.2969 148.1562 122.6406 147.8125 122.6406 147.4219 C122.6406 147.0469 122.2969 146.6875 121.8906 146.6875 ZM123.4688 140.5781 C123.7188 140.8906 123.875 141.2656 123.8906 141.6562 C123.8906 142.1875 123.625 142.5 123.0312 142.7656 L122.4062 143.0156 C121.6406 143.3125 121.3906 143.5469 121.3906 143.9375 C121.3906 144.1094 121.4531 144.3438 121.5781 144.8125 L121.7344 145.3438 L122.1094 145.3438 L122.0938 144.5312 C122.0938 144.0938 122.2031 143.9688 122.7812 143.7344 L123.2031 143.5625 C124.0312 143.2188 124.4531 142.6875 124.4531 141.8438 C124.4531 140.1562 122.6562 139.1875 121.5 139.0312 C121.1094 139.125 120.9062 139.2969 120.9062 139.6406 C120.9062 139.9375 121.0625 140.1562 121.7188 140.2656 L123.4688 140.5781 Z"
      /><rect x="105" y="130" width="5" style="fill:white; stroke:none;" height="10"
      /><path style="stroke:none;" d="M106.8906 138.6875 C106.4844 138.6875 106.1562 139.0469 106.1562 139.4219 C106.1562 139.8125 106.4844 140.1562 106.8906 140.1562 C107.2969 140.1562 107.6406 139.8125 107.6406 139.4219 C107.6406 139.0469 107.2969 138.6875 106.8906 138.6875 ZM108.4688 132.5781 C108.7188 132.8906 108.875 133.2656 108.8906 133.6562 C108.8906 134.1875 108.625 134.5 108.0312 134.7656 L107.4062 135.0156 C106.6406 135.3125 106.3906 135.5469 106.3906 135.9375 C106.3906 136.1094 106.4531 136.3438 106.5781 136.8125 L106.7344 137.3438 L107.1094 137.3438 L107.0938 136.5312 C107.0938 136.0938 107.2031 135.9688 107.7812 135.7344 L108.2031 135.5625 C109.0312 135.2188 109.4531 134.6875 109.4531 133.8438 C109.4531 132.1562 107.6562 131.1875 106.5 131.0312 C106.1094 131.125 105.9062 131.2969 105.9062 131.6406 C105.9062 131.9375 106.0625 132.1562 106.7188 132.2656 L108.4688 132.5781 Z"
      /><circle style="fill:white; clip-path:url(#clipPath8); stroke:none;" r="11" cx="145" cy="93"
      /><rect x="134" y="82" width="22" style="clip-path:url(#clipPath8); fill:rgb(0,166,81); stroke:none;" height="22"
      /><rect x="134" y="82" width="22" style="fill:none; clip-path:url(#clipPath8);" height="22"
      /><circle r="11" style="fill:none;" cx="145" cy="93"
      /><rect x="179" y="130" width="5" style="fill:white; stroke:none;" height="10"
      /><path style="stroke:none;" d="M180.8906 138.6875 C180.4844 138.6875 180.1562 139.0469 180.1562 139.4219 C180.1562 139.8125 180.4844 140.1562 180.8906 140.1562 C181.2969 140.1562 181.6406 139.8125 181.6406 139.4219 C181.6406 139.0469 181.2969 138.6875 180.8906 138.6875 ZM182.4688 132.5781 C182.7188 132.8906 182.875 133.2656 182.8906 133.6562 C182.8906 134.1875 182.625 134.5 182.0312 134.7656 L181.4062 135.0156 C180.6406 135.3125 180.3906 135.5469 180.3906 135.9375 C180.3906 136.1094 180.4531 136.3438 180.5781 136.8125 L180.7344 137.3438 L181.1094 137.3438 L181.0938 136.5312 C181.0938 136.0938 181.2031 135.9688 181.7812 135.7344 L182.2031 135.5625 C183.0312 135.2188 183.4531 134.6875 183.4531 133.8438 C183.4531 132.1562 181.6562 131.1875 180.5 131.0312 C180.1094 131.125 179.9062 131.2969 179.9062 131.6406 C179.9062 131.9375 180.0625 132.1562 180.7188 132.2656 L182.4688 132.5781 Z"
      /><rect x="164" y="138" width="5" style="fill:white; stroke:none;" height="10"
      /><path style="stroke:none;" d="M165.8906 146.6875 C165.4844 146.6875 165.1562 147.0469 165.1562 147.4219 C165.1562 147.8125 165.4844 148.1562 165.8906 148.1562 C166.2969 148.1562 166.6406 147.8125 166.6406 147.4219 C166.6406 147.0469 166.2969 146.6875 165.8906 146.6875 ZM167.4688 140.5781 C167.7188 140.8906 167.875 141.2656 167.8906 141.6562 C167.8906 142.1875 167.625 142.5 167.0312 142.7656 L166.4062 143.0156 C165.6406 143.3125 165.3906 143.5469 165.3906 143.9375 C165.3906 144.1094 165.4531 144.3438 165.5781 144.8125 L165.7344 145.3438 L166.1094 145.3438 L166.0938 144.5312 C166.0938 144.0938 166.2031 143.9688 166.7812 143.7344 L167.2031 143.5625 C168.0312 143.2188 168.4531 142.6875 168.4531 141.8438 C168.4531 140.1562 166.6562 139.1875 165.5 139.0312 C165.1094 139.125 164.9062 139.2969 164.9062 139.6406 C164.9062 139.9375 165.0625 140.1562 165.7188 140.2656 L167.4688 140.5781 Z"
      /><rect x="172" y="112" width="5" style="fill:white; stroke:none;" height="10"
      /><path style="stroke:none;" d="M173.8906 120.6875 C173.4844 120.6875 173.1562 121.0469 173.1562 121.4219 C173.1562 121.8125 173.4844 122.1562 173.8906 122.1562 C174.2969 122.1562 174.6406 121.8125 174.6406 121.4219 C174.6406 121.0469 174.2969 120.6875 173.8906 120.6875 ZM175.4688 114.5781 C175.7188 114.8906 175.875 115.2656 175.8906 115.6562 C175.8906 116.1875 175.625 116.5 175.0312 116.7656 L174.4062 117.0156 C173.6406 117.3125 173.3906 117.5469 173.3906 117.9375 C173.3906 118.1094 173.4531 118.3438 173.5781 118.8125 L173.7344 119.3438 L174.1094 119.3438 L174.0938 118.5312 C174.0938 118.0938 174.2031 117.9688 174.7812 117.7344 L175.2031 117.5625 C176.0312 117.2188 176.4531 116.6875 176.4531 115.8438 C176.4531 114.1562 174.6562 113.1875 173.5 113.0312 C173.1094 113.125 172.9062 113.2969 172.9062 113.6406 C172.9062 113.9375 173.0625 114.1562 173.7188 114.2656 L175.4688 114.5781 Z"
      /><rect x="157" y="104" width="5" style="fill:white; stroke:none;" height="10"
      /><path style="stroke:none;" d="M158.8906 112.6875 C158.4844 112.6875 158.1562 113.0469 158.1562 113.4219 C158.1562 113.8125 158.4844 114.1562 158.8906 114.1562 C159.2969 114.1562 159.6406 113.8125 159.6406 113.4219 C159.6406 113.0469 159.2969 112.6875 158.8906 112.6875 ZM160.4688 106.5781 C160.7188 106.8906 160.875 107.2656 160.8906 107.6562 C160.8906 108.1875 160.625 108.5 160.0312 108.7656 L159.4062 109.0156 C158.6406 109.3125 158.3906 109.5469 158.3906 109.9375 C158.3906 110.1094 158.4531 110.3438 158.5781 110.8125 L158.7344 111.3438 L159.1094 111.3438 L159.0938 110.5312 C159.0938 110.0938 159.2031 109.9688 159.7812 109.7344 L160.2031 109.5625 C161.0312 109.2188 161.4531 108.6875 161.4531 107.8438 C161.4531 106.1562 159.6562 105.1875 158.5 105.0312 C158.1094 105.125 157.9062 105.2969 157.9062 105.6406 C157.9062 105.9375 158.0625 106.1562 158.7188 106.2656 L160.4688 106.5781 Z"
      /><polygon style="fill:none;" points=" 197 41 145 41"
      /><circle style="fill:white; clip-path:url(#clipPath9); stroke:none;" r="11" cx="197" cy="41"
      /><rect x="186" y="30" width="22" style="clip-path:url(#clipPath9); fill:rgb(0,166,81); stroke:none;" height="22"
      /><rect x="186" y="30" width="22" style="fill:none; clip-path:url(#clipPath9);" height="22"
      /><circle r="11" style="fill:none;" cx="197" cy="41"
      /><polygon style="fill:none;" points=" 145 41 93 41"
      /><circle style="fill:white; clip-path:url(#clipPath10); stroke:none;" r="11" cx="145" cy="41"
      /><rect x="134" y="30" width="22" style="clip-path:url(#clipPath10); fill:rgb(0,166,81); stroke:none;" height="22"
      /><rect x="134" y="30" width="22" style="fill:none; clip-path:url(#clipPath10);" height="22"
      /><circle r="11" style="fill:none;" cx="145" cy="41"
      /><polygon style="fill:none;" points=" 93 41 41 41"
      /><circle style="fill:white; clip-path:url(#clipPath11); stroke:none;" r="11" cx="93" cy="41"
      /><rect x="82" y="30" width="22" style="clip-path:url(#clipPath11); fill:rgb(0,166,81); stroke:none;" height="22"
      /><rect x="82" y="30" width="22" style="fill:none; clip-path:url(#clipPath11);" height="22"
      /><circle r="11" style="fill:none;" cx="93" cy="41"
      /><circle style="fill:white; clip-path:url(#clipPath12); stroke:none;" r="11" cx="41" cy="41"
      /><rect x="30" y="30" width="22" style="clip-path:url(#clipPath12); fill:rgb(0,166,81); stroke:none;" height="22"
      /><rect x="30" y="30" width="22" style="fill:none; clip-path:url(#clipPath12);" height="22"
      /><circle r="11" style="fill:none;" cx="41" cy="41"
      /><rect x="71" y="44" width="5" style="fill:white; stroke:none;" height="10"
      /><path style="stroke:none;" d="M72.8906 52.6875 C72.4844 52.6875 72.1562 53.0469 72.1562 53.4219 C72.1562 53.8125 72.4844 54.1562 72.8906 54.1562 C73.2969 54.1562 73.6406 53.8125 73.6406 53.4219 C73.6406 53.0469 73.2969 52.6875 72.8906 52.6875 ZM74.4688 46.5781 C74.7188 46.8906 74.875 47.2656 74.8906 47.6562 C74.8906 48.1875 74.625 48.5 74.0312 48.7656 L73.4062 49.0156 C72.6406 49.3125 72.3906 49.5469 72.3906 49.9375 C72.3906 50.1094 72.4531 50.3438 72.5781 50.8125 L72.7344 51.3438 L73.1094 51.3438 L73.0938 50.5312 C73.0938 50.0938 73.2031 49.9688 73.7812 49.7344 L74.2031 49.5625 C75.0312 49.2188 75.4531 48.6875 75.4531 47.8438 C75.4531 46.1562 73.6562 45.1875 72.5 45.0312 C72.1094 45.125 71.9062 45.2969 71.9062 45.6406 C71.9062 45.9375 72.0625 46.1562 72.7188 46.2656 L74.4688 46.5781 Z"
      /><rect x="57" y="44" width="5" style="fill:white; stroke:none;" height="10"
      /><path style="stroke:none;" d="M58.8906 52.6875 C58.4844 52.6875 58.1562 53.0469 58.1562 53.4219 C58.1562 53.8125 58.4844 54.1562 58.8906 54.1562 C59.2969 54.1562 59.6406 53.8125 59.6406 53.4219 C59.6406 53.0469 59.2969 52.6875 58.8906 52.6875 ZM60.4688 46.5781 C60.7188 46.8906 60.875 47.2656 60.8906 47.6562 C60.8906 48.1875 60.625 48.5 60.0312 48.7656 L59.4062 49.0156 C58.6406 49.3125 58.3906 49.5469 58.3906 49.9375 C58.3906 50.1094 58.4531 50.3438 58.5781 50.8125 L58.7344 51.3438 L59.1094 51.3438 L59.0938 50.5312 C59.0938 50.0938 59.2031 49.9688 59.7812 49.7344 L60.2031 49.5625 C61.0312 49.2188 61.4531 48.6875 61.4531 47.8438 C61.4531 46.1562 59.6562 45.1875 58.5 45.0312 C58.1094 45.125 57.9062 45.2969 57.9062 45.6406 C57.9062 45.9375 58.0625 46.1562 58.7188 46.2656 L60.4688 46.5781 Z"
      /><rect x="123" y="44" width="5" style="fill:white; stroke:none;" height="10"
      /><path style="stroke:none;" d="M124.8906 52.6875 C124.4844 52.6875 124.1562 53.0469 124.1562 53.4219 C124.1562 53.8125 124.4844 54.1562 124.8906 54.1562 C125.2969 54.1562 125.6406 53.8125 125.6406 53.4219 C125.6406 53.0469 125.2969 52.6875 124.8906 52.6875 ZM126.4688 46.5781 C126.7188 46.8906 126.875 47.2656 126.8906 47.6562 C126.8906 48.1875 126.625 48.5 126.0312 48.7656 L125.4062 49.0156 C124.6406 49.3125 124.3906 49.5469 124.3906 49.9375 C124.3906 50.1094 124.4531 50.3438 124.5781 50.8125 L124.7344 51.3438 L125.1094 51.3438 L125.0938 50.5312 C125.0938 50.0938 125.2031 49.9688 125.7812 49.7344 L126.2031 49.5625 C127.0312 49.2188 127.4531 48.6875 127.4531 47.8438 C127.4531 46.1562 125.6562 45.1875 124.5 45.0312 C124.1094 45.125 123.9062 45.2969 123.9062 45.6406 C123.9062 45.9375 124.0625 46.1562 124.7188 46.2656 L126.4688 46.5781 Z"
      /><rect x="109" y="44" width="5" style="fill:white; stroke:none;" height="10"
      /><path style="stroke:none;" d="M110.8906 52.6875 C110.4844 52.6875 110.1562 53.0469 110.1562 53.4219 C110.1562 53.8125 110.4844 54.1562 110.8906 54.1562 C111.2969 54.1562 111.6406 53.8125 111.6406 53.4219 C111.6406 53.0469 111.2969 52.6875 110.8906 52.6875 ZM112.4688 46.5781 C112.7188 46.8906 112.875 47.2656 112.8906 47.6562 C112.8906 48.1875 112.625 48.5 112.0312 48.7656 L111.4062 49.0156 C110.6406 49.3125 110.3906 49.5469 110.3906 49.9375 C110.3906 50.1094 110.4531 50.3438 110.5781 50.8125 L110.7344 51.3438 L111.1094 51.3438 L111.0938 50.5312 C111.0938 50.0938 111.2031 49.9688 111.7812 49.7344 L112.2031 49.5625 C113.0312 49.2188 113.4531 48.6875 113.4531 47.8438 C113.4531 46.1562 111.6562 45.1875 110.5 45.0312 C110.1094 45.125 109.9062 45.2969 109.9062 45.6406 C109.9062 45.9375 110.0625 46.1562 110.7188 46.2656 L112.4688 46.5781 Z"
      /><rect x="175" y="44" width="5" style="fill:white; stroke:none;" height="10"
      /><path style="stroke:none;" d="M176.8906 52.6875 C176.4844 52.6875 176.1562 53.0469 176.1562 53.4219 C176.1562 53.8125 176.4844 54.1562 176.8906 54.1562 C177.2969 54.1562 177.6406 53.8125 177.6406 53.4219 C177.6406 53.0469 177.2969 52.6875 176.8906 52.6875 ZM178.4688 46.5781 C178.7188 46.8906 178.875 47.2656 178.8906 47.6562 C178.8906 48.1875 178.625 48.5 178.0312 48.7656 L177.4062 49.0156 C176.6406 49.3125 176.3906 49.5469 176.3906 49.9375 C176.3906 50.1094 176.4531 50.3438 176.5781 50.8125 L176.7344 51.3438 L177.1094 51.3438 L177.0938 50.5312 C177.0938 50.0938 177.2031 49.9688 177.7812 49.7344 L178.2031 49.5625 C179.0312 49.2188 179.4531 48.6875 179.4531 47.8438 C179.4531 46.1562 177.6562 45.1875 176.5 45.0312 C176.1094 45.125 175.9062 45.2969 175.9062 45.6406 C175.9062 45.9375 176.0625 46.1562 176.7188 46.2656 L178.4688 46.5781 Z"
      /><rect x="161" y="44" width="5" style="fill:white; stroke:none;" height="10"
      /><path style="stroke:none;" d="M162.8906 52.6875 C162.4844 52.6875 162.1562 53.0469 162.1562 53.4219 C162.1562 53.8125 162.4844 54.1562 162.8906 54.1562 C163.2969 54.1562 163.6406 53.8125 163.6406 53.4219 C163.6406 53.0469 163.2969 52.6875 162.8906 52.6875 ZM164.4688 46.5781 C164.7188 46.8906 164.875 47.2656 164.8906 47.6562 C164.8906 48.1875 164.625 48.5 164.0312 48.7656 L163.4062 49.0156 C162.6406 49.3125 162.3906 49.5469 162.3906 49.9375 C162.3906 50.1094 162.4531 50.3438 162.5781 50.8125 L162.7344 51.3438 L163.1094 51.3438 L163.0938 50.5312 C163.0938 50.0938 163.2031 49.9688 163.7812 49.7344 L164.2031 49.5625 C165.0312 49.2188 165.4531 48.6875 165.4531 47.8438 C165.4531 46.1562 163.6562 45.1875 162.5 45.0312 C162.1094 45.125 161.9062 45.2969 161.9062 45.6406 C161.9062 45.9375 162.0625 46.1562 162.7188 46.2656 L164.4688 46.5781 Z"
      /><rect x="233" y="94" width="5" style="fill:white; stroke:none;" height="10"
      /><path style="stroke:none;" d="M234.8906 102.6875 C234.4844 102.6875 234.1562 103.0469 234.1562 103.4219 C234.1562 103.8125 234.4844 104.1562 234.8906 104.1562 C235.2969 104.1562 235.6406 103.8125 235.6406 103.4219 C235.6406 103.0469 235.2969 102.6875 234.8906 102.6875 ZM236.4688 96.5781 C236.7188 96.8906 236.875 97.2656 236.8906 97.6562 C236.8906 98.1875 236.625 98.5 236.0312 98.7656 L235.4062 99.0156 C234.6406 99.3125 234.3906 99.5469 234.3906 99.9375 C234.3906 100.1094 234.4531 100.3438 234.5781 100.8125 L234.7344 101.3438 L235.1094 101.3438 L235.0938 100.5312 C235.0938 100.0938 235.2031 99.9688 235.7812 99.7344 L236.2031 99.5625 C237.0312 99.2188 237.4531 98.6875 237.4531 97.8438 C237.4531 96.1562 235.6562 95.1875 234.5 95.0312 C234.1094 95.125 233.9062 95.2969 233.9062 95.6406 C233.9062 95.9375 234.0625 96.1562 234.7188 96.2656 L236.4688 96.5781 Z"
      /><rect x="216" y="107" width="5" style="fill:white; stroke:none;" height="10"
      /><path style="stroke:none;" d="M217.8906 115.6875 C217.4844 115.6875 217.1562 116.0469 217.1562 116.4219 C217.1562 116.8125 217.4844 117.1562 217.8906 117.1562 C218.2969 117.1562 218.6406 116.8125 218.6406 116.4219 C218.6406 116.0469 218.2969 115.6875 217.8906 115.6875 ZM219.4688 109.5781 C219.7188 109.8906 219.875 110.2656 219.8906 110.6562 C219.8906 111.1875 219.625 111.5 219.0312 111.7656 L218.4062 112.0156 C217.6406 112.3125 217.3906 112.5469 217.3906 112.9375 C217.3906 113.1094 217.4531 113.3438 217.5781 113.8125 L217.7344 114.3438 L218.1094 114.3438 L218.0938 113.5312 C218.0938 113.0938 218.2031 112.9688 218.7812 112.7344 L219.2031 112.5625 C220.0312 112.2188 220.4531 111.6875 220.4531 110.8438 C220.4531 109.1562 218.6562 108.1875 217.5 108.0312 C217.1094 108.125 216.9062 108.2969 216.9062 108.6406 C216.9062 108.9375 217.0625 109.1562 217.7188 109.2656 L219.4688 109.5781 Z"
      /><rect x="224" y="68" width="5" style="fill:white; stroke:none;" height="10"
      /><path style="stroke:none;" d="M225.8906 76.6875 C225.4844 76.6875 225.1562 77.0469 225.1562 77.4219 C225.1562 77.8125 225.4844 78.1562 225.8906 78.1562 C226.2969 78.1562 226.6406 77.8125 226.6406 77.4219 C226.6406 77.0469 226.2969 76.6875 225.8906 76.6875 ZM227.4688 70.5781 C227.7188 70.8906 227.875 71.2656 227.8906 71.6562 C227.8906 72.1875 227.625 72.5 227.0312 72.7656 L226.4062 73.0156 C225.6406 73.3125 225.3906 73.5469 225.3906 73.9375 C225.3906 74.1094 225.4531 74.3438 225.5781 74.8125 L225.7344 75.3438 L226.1094 75.3438 L226.0938 74.5312 C226.0938 74.0938 226.2031 73.9688 226.7812 73.7344 L227.2031 73.5625 C228.0312 73.2188 228.4531 72.6875 228.4531 71.8438 C228.4531 70.1562 226.6562 69.1875 225.5 69.0312 C225.1094 69.125 224.9062 69.2969 224.9062 69.6406 C224.9062 69.9375 225.0625 70.1562 225.7188 70.2656 L227.4688 70.5781 Z"
      /><rect x="207" y="55" width="5" style="fill:white; stroke:none;" height="10"
      /><path style="stroke:none;" d="M208.8906 63.6875 C208.4844 63.6875 208.1562 64.0469 208.1562 64.4219 C208.1562 64.8125 208.4844 65.1562 208.8906 65.1562 C209.2969 65.1562 209.6406 64.8125 209.6406 64.4219 C209.6406 64.0469 209.2969 63.6875 208.8906 63.6875 ZM210.4688 57.5781 C210.7188 57.8906 210.875 58.2656 210.8906 58.6562 C210.8906 59.1875 210.625 59.5 210.0312 59.7656 L209.4062 60.0156 C208.6406 60.3125 208.3906 60.5469 208.3906 60.9375 C208.3906 61.1094 208.4531 61.3438 208.5781 61.8125 L208.7344 62.3438 L209.1094 62.3438 L209.0938 61.5312 C209.0938 61.0938 209.2031 60.9688 209.7812 60.7344 L210.2031 60.5625 C211.0312 60.2188 211.4531 59.6875 211.4531 58.8438 C211.4531 57.1562 209.6562 56.1875 208.5 56.0312 C208.1094 56.125 207.9062 56.2969 207.9062 56.6406 C207.9062 56.9375 208.0625 57.1562 208.7188 57.2656 L210.4688 57.5781 Z"
      /><rect x="279" y="83" width="5" style="fill:white; stroke:none;" height="10"
      /><path style="stroke:none;" d="M280.8906 91.6875 C280.4844 91.6875 280.1562 92.0469 280.1562 92.4219 C280.1562 92.8125 280.4844 93.1562 280.8906 93.1562 C281.2969 93.1562 281.6406 92.8125 281.6406 92.4219 C281.6406 92.0469 281.2969 91.6875 280.8906 91.6875 ZM282.4688 85.5781 C282.7188 85.8906 282.875 86.2656 282.8906 86.6562 C282.8906 87.1875 282.625 87.5 282.0312 87.7656 L281.4062 88.0156 C280.6406 88.3125 280.3906 88.5469 280.3906 88.9375 C280.3906 89.1094 280.4531 89.3438 280.5781 89.8125 L280.7344 90.3438 L281.1094 90.3438 L281.0938 89.5312 C281.0938 89.0938 281.2031 88.9688 281.7812 88.7344 L282.2031 88.5625 C283.0312 88.2188 283.4531 87.6875 283.4531 86.8438 C283.4531 85.1562 281.6562 84.1875 280.5 84.0312 C280.1094 84.125 279.9062 84.2969 279.9062 84.6406 C279.9062 84.9375 280.0625 85.1562 280.7188 85.2656 L282.4688 85.5781 Z"
      /><rect x="265" y="83" width="5" style="fill:white; stroke:none;" height="10"
      /><path style="stroke:none;" d="M266.8906 91.6875 C266.4844 91.6875 266.1562 92.0469 266.1562 92.4219 C266.1562 92.8125 266.4844 93.1562 266.8906 93.1562 C267.2969 93.1562 267.6406 92.8125 267.6406 92.4219 C267.6406 92.0469 267.2969 91.6875 266.8906 91.6875 ZM268.4688 85.5781 C268.7188 85.8906 268.875 86.2656 268.8906 86.6562 C268.8906 87.1875 268.625 87.5 268.0312 87.7656 L267.4062 88.0156 C266.6406 88.3125 266.3906 88.5469 266.3906 88.9375 C266.3906 89.1094 266.4531 89.3438 266.5781 89.8125 L266.7344 90.3438 L267.1094 90.3438 L267.0938 89.5312 C267.0938 89.0938 267.2031 88.9688 267.7812 88.7344 L268.2031 88.5625 C269.0312 88.2188 269.4531 87.6875 269.4531 86.8438 C269.4531 85.1562 267.6562 84.1875 266.5 84.0312 C266.1094 84.125 265.9062 84.2969 265.9062 84.6406 C265.9062 84.9375 266.0625 85.1562 266.7188 85.2656 L268.4688 85.5781 Z"
      /><rect x="317" y="83" width="5" style="fill:white; stroke:none;" height="10"
      /><path style="stroke:none;" d="M318.8906 91.6875 C318.4844 91.6875 318.1562 92.0469 318.1562 92.4219 C318.1562 92.8125 318.4844 93.1562 318.8906 93.1562 C319.2969 93.1562 319.6406 92.8125 319.6406 92.4219 C319.6406 92.0469 319.2969 91.6875 318.8906 91.6875 ZM320.4688 85.5781 C320.7188 85.8906 320.875 86.2656 320.8906 86.6562 C320.8906 87.1875 320.625 87.5 320.0312 87.7656 L319.4062 88.0156 C318.6406 88.3125 318.3906 88.5469 318.3906 88.9375 C318.3906 89.1094 318.4531 89.3438 318.5781 89.8125 L318.7344 90.3438 L319.1094 90.3438 L319.0938 89.5312 C319.0938 89.0938 319.2031 88.9688 319.7812 88.7344 L320.2031 88.5625 C321.0312 88.2188 321.4531 87.6875 321.4531 86.8438 C321.4531 85.1562 319.6562 84.1875 318.5 84.0312 C318.1094 84.125 317.9062 84.2969 317.9062 84.6406 C317.9062 84.9375 318.0625 85.1562 318.7188 85.2656 L320.4688 85.5781 Z"
    /></g
  ></g
></svg
>
