<?xml version="1.0"?>
<!DOCTYPE svg PUBLIC '-//W3C//DTD SVG 1.0//EN'
          'http://www.w3.org/TR/2001/REC-SVG-20010904/DTD/svg10.dtd'>
<svg xmlns:xlink="http://www.w3.org/1999/xlink" style="fill-opacity:1; color-rendering:auto; color-interpolation:auto; text-rendering:auto; stroke:black; stroke-linecap:square; stroke-miterlimit:10; shape-rendering:auto; stroke-opacity:1; fill:black; stroke-dasharray:none; font-weight:normal; stroke-width:1; font-family:'Dialog'; font-style:normal; stroke-linejoin:miter; font-size:12px; stroke-dashoffset:0; image-rendering:auto;" viewBox="0 0 574 134" xmlns="http://www.w3.org/2000/svg"
><!--Generated by the Batik Graphics2D SVG Generator--><defs id="genericDefs"
  /><g
  ><defs id="defs1"
    ><clipPath clipPathUnits="userSpaceOnUse" id="clipPath1"
      ><path d="M446 56 L468 56 L468 78 L446 78 L446 56 Z"
      /></clipPath
      ><clipPath clipPathUnits="userSpaceOnUse" id="clipPath2"
      ><path d="M416 67 C416 73.0751 411.0751 78 405 78 C398.9249 78 394 73.0751 394 67 C394 60.9249 398.9249 56 405 56 C411.0751 56 416 60.9249 416 67 Z"
      /></clipPath
      ><clipPath clipPathUnits="userSpaceOnUse" id="clipPath3"
      ><path d="M342 82 L364 82 L364 104 L342 104 L342 82 Z"
      /></clipPath
      ><clipPath clipPathUnits="userSpaceOnUse" id="clipPath4"
      ><path d="M312 93 C312 99.0751 307.0751 104 301 104 C294.9249 104 290 99.0751 290 93 C290 86.9249 294.9249 82 301 82 C307.0751 82 312 86.9249 312 93 Z"
      /></clipPath
      ><clipPath clipPathUnits="userSpaceOnUse" id="clipPath5"
      ><path d="M238 82 L260 82 L260 104 L238 104 L238 82 Z"
      /></clipPath
      ><clipPath clipPathUnits="userSpaceOnUse" id="clipPath6"
      ><path d="M208 93 C208 99.0751 203.0751 104 197 104 C190.9249 104 186 99.0751 186 93 C186 86.9249 190.9249 82 197 82 C203.0751 82 208 86.9249 208 93 Z"
      /></clipPath
      ><clipPath clipPathUnits="userSpaceOnUse" id="clipPath7"
      ><path d="M134 82 L156 82 L156 104 L134 104 L134 82 Z"
      /></clipPath
      ><clipPath clipPathUnits="userSpaceOnUse" id="clipPath8"
      ><path d="M104 93 C104 99.0751 99.0751 104 93 104 C86.9249 104 82 99.0751 82 93 C82 86.9249 86.9249 82 93 82 C99.0751 82 104 86.9249 104 93 Z"
      /></clipPath
      ><clipPath clipPathUnits="userSpaceOnUse" id="clipPath9"
      ><path style="fill-rule:evenodd;" d="M41 82 L52 93 L41 104 L30 93 Z"
      /></clipPath
      ><clipPath clipPathUnits="userSpaceOnUse" id="clipPath10"
      ><path d="M342 30 L364 30 L364 52 L342 52 L342 30 Z"
      /></clipPath
      ><clipPath clipPathUnits="userSpaceOnUse" id="clipPath11"
      ><path d="M312 41 C312 47.0751 307.0751 52 301 52 C294.9249 52 290 47.0751 290 41 C290 34.9249 294.9249 30 301 30 C307.0751 30 312 34.9249 312 41 Z"
      /></clipPath
    ></defs
    ><g style="fill:white; text-rendering:optimizeSpeed; stroke:white;"
    ><rect x="0" width="574" height="134" y="0" style="stroke:none;"
      /><polygon style="fill:none; stroke:black;" points=" 457 67 405 67"
      /><rect x="446" y="56" width="22" style="clip-path:url(#clipPath1); stroke:none;" height="22"
      /><rect x="446" y="56" width="22" style="clip-path:url(#clipPath1); fill:rgb(255,212,0); stroke:none;" height="22"
      /><rect x="446" y="56" width="22" style="clip-path:url(#clipPath1); fill:none; stroke:black;" height="22"
      /><rect x="446" y="56" width="22" style="fill:none; stroke:black;" height="22"
    /></g
    ><g style="font-style:italic; text-rendering:optimizeSpeed; font-size:10px; font-family:'SansSerif';"
    ><path style="stroke:none;" d="M457 69.125 C458.3281 69.125 459.7344 68.0938 460.125 66.2969 C460.5 64.4844 459.5469 63.4375 458.2188 63.4375 C456.8906 63.4375 455.4688 64.4844 455.0938 66.2969 C454.7031 68.0938 455.6719 69.125 457 69.125 ZM457.1719 68.375 C456.2344 68.375 455.7656 67.5469 456.0312 66.2969 C456.2969 65.0469 457.1094 64.1875 458.0469 64.1875 C458.9844 64.1875 459.4531 65.0469 459.1875 66.2969 C458.9219 67.5469 458.1094 68.375 457.1719 68.375 Z"
      /><polygon style="fill:none;" points=" 405 67 353 93"
      /><polygon style="fill:none;" points=" 405 67 353 41"
    /></g
    ><g style="fill:white; text-rendering:optimizeSpeed; stroke:white;"
    ><circle r="11" style="clip-path:url(#clipPath2); stroke:none;" cx="405" cy="67"
      /><rect x="394" y="56" width="22" style="clip-path:url(#clipPath2); fill:rgb(255,212,0); stroke:none;" height="22"
      /><rect x="394" y="56" width="22" style="clip-path:url(#clipPath2); fill:none; stroke:black;" height="22"
      /><circle r="11" style="fill:none; stroke:black;" cx="405" cy="67"
      /><polygon style="fill:none; stroke:black;" points=" 353 93 301 93"
      /><rect x="342" y="82" width="22" style="clip-path:url(#clipPath3); stroke:none;" height="22"
      /><rect x="342" y="82" width="22" style="clip-path:url(#clipPath3); fill:rgb(0,144,188); stroke:none;" height="22"
      /><rect x="342" y="82" width="22" style="clip-path:url(#clipPath3); fill:none; stroke:black;" height="22"
      /><rect x="342" y="82" width="22" style="fill:none; stroke:black;" height="22"
      /><polygon style="fill:none; stroke:black;" points=" 301 93 249 93"
      /><circle r="11" style="clip-path:url(#clipPath4); stroke:none;" cx="301" cy="93"
      /><rect x="290" y="82" width="22" style="clip-path:url(#clipPath4); fill:rgb(255,212,0); stroke:none;" height="22"
      /><rect x="290" y="82" width="22" style="clip-path:url(#clipPath4); fill:none; stroke:black;" height="22"
      /><circle r="11" style="fill:none; stroke:black;" cx="301" cy="93"
      /><polygon style="fill:none; stroke:black;" points=" 249 93 197 93"
      /><rect x="238" y="82" width="22" style="clip-path:url(#clipPath5); stroke:none;" height="22"
      /><rect x="238" y="82" width="22" style="clip-path:url(#clipPath5); fill:rgb(0,144,188); stroke:none;" height="22"
      /><rect x="238" y="82" width="22" style="clip-path:url(#clipPath5); fill:none; stroke:black;" height="22"
      /><rect x="238" y="82" width="22" style="fill:none; stroke:black;" height="22"
      /><polygon style="fill:none; stroke:black;" points=" 197 93 145 93"
      /><circle r="11" style="clip-path:url(#clipPath6); stroke:none;" cx="197" cy="93"
      /><rect x="186" y="82" width="22" style="clip-path:url(#clipPath6); fill:rgb(255,212,0); stroke:none;" height="22"
      /><rect x="186" y="82" width="22" style="clip-path:url(#clipPath6); fill:none; stroke:black;" height="22"
      /><circle r="11" style="fill:none; stroke:black;" cx="197" cy="93"
      /><polygon style="fill:none; stroke:black;" points=" 145 93 93 93"
      /><rect x="134" y="82" width="22" style="clip-path:url(#clipPath7); stroke:none;" height="22"
      /><rect x="134" y="82" width="22" style="clip-path:url(#clipPath7); fill:rgb(0,144,188); stroke:none;" height="22"
      /><rect x="134" y="82" width="22" style="clip-path:url(#clipPath7); fill:none; stroke:black;" height="22"
      /><rect x="134" y="82" width="22" style="fill:none; stroke:black;" height="22"
      /><polygon style="fill:none; stroke:black;" points=" 93 93 41 93"
      /><circle r="11" style="clip-path:url(#clipPath8); stroke:none;" cx="93" cy="93"
      /><rect x="82" y="82" width="22" style="clip-path:url(#clipPath8); fill:rgb(255,212,0); stroke:none;" height="22"
      /><rect x="82" y="82" width="22" style="clip-path:url(#clipPath8); fill:none; stroke:black;" height="22"
      /><circle r="11" style="fill:none; stroke:black;" cx="93" cy="93"
      /><polygon style="clip-path:url(#clipPath9); stroke:none;" points=" 41 82 52 93 41 104 30 93"
      /><rect x="30" y="82" width="22" style="clip-path:url(#clipPath9); fill:rgb(143,204,233); stroke:none;" height="22"
      /><rect x="30" y="82" width="22" style="clip-path:url(#clipPath9); fill:none; stroke:black;" height="22"
      /><polygon style="fill:none; stroke:black;" points=" 41 82 52 93 41 104 30 93"
      /><rect x="71" width="5" height="10" y="96" style="stroke:none;"
      /><path d="M72.8906 104.6875 C72.4844 104.6875 72.1562 105.0469 72.1562 105.4219 C72.1562 105.8125 72.4844 106.1562 72.8906 106.1562 C73.2969 106.1562 73.6406 105.8125 73.6406 105.4219 C73.6406 105.0469 73.2969 104.6875 72.8906 104.6875 ZM74.4688 98.5781 C74.7188 98.8906 74.875 99.2656 74.8906 99.6562 C74.8906 100.1875 74.625 100.5 74.0312 100.7656 L73.4062 101.0156 C72.6406 101.3125 72.3906 101.5469 72.3906 101.9375 C72.3906 102.1094 72.4531 102.3438 72.5781 102.8125 L72.7344 103.3438 L73.1094 103.3438 L73.0938 102.5312 C73.0938 102.0938 73.2031 101.9688 73.7812 101.7344 L74.2031 101.5625 C75.0312 101.2188 75.4531 100.6875 75.4531 99.8438 C75.4531 98.1562 73.6562 97.1875 72.5 97.0312 C72.1094 97.125 71.9062 97.2969 71.9062 97.6406 C71.9062 97.9375 72.0625 98.1562 72.7188 98.2656 L74.4688 98.5781 Z" style="fill:black; stroke:none;"
      /><rect x="57" width="5" height="10" y="96" style="stroke:none;"
      /><path d="M58.8906 104.6875 C58.4844 104.6875 58.1562 105.0469 58.1562 105.4219 C58.1562 105.8125 58.4844 106.1562 58.8906 106.1562 C59.2969 106.1562 59.6406 105.8125 59.6406 105.4219 C59.6406 105.0469 59.2969 104.6875 58.8906 104.6875 ZM60.4688 98.5781 C60.7188 98.8906 60.875 99.2656 60.8906 99.6562 C60.8906 100.1875 60.625 100.5 60.0312 100.7656 L59.4062 101.0156 C58.6406 101.3125 58.3906 101.5469 58.3906 101.9375 C58.3906 102.1094 58.4531 102.3438 58.5781 102.8125 L58.7344 103.3438 L59.1094 103.3438 L59.0938 102.5312 C59.0938 102.0938 59.2031 101.9688 59.7812 101.7344 L60.2031 101.5625 C61.0312 101.2188 61.4531 100.6875 61.4531 99.8438 C61.4531 98.1562 59.6562 97.1875 58.5 97.0312 C58.1094 97.125 57.9062 97.2969 57.9062 97.6406 C57.9062 97.9375 58.0625 98.1562 58.7188 98.2656 L60.4688 98.5781 Z" style="fill:black; stroke:none;"
      /><rect x="123" width="5" height="10" y="96" style="stroke:none;"
      /><path d="M124.8906 104.6875 C124.4844 104.6875 124.1562 105.0469 124.1562 105.4219 C124.1562 105.8125 124.4844 106.1562 124.8906 106.1562 C125.2969 106.1562 125.6406 105.8125 125.6406 105.4219 C125.6406 105.0469 125.2969 104.6875 124.8906 104.6875 ZM126.4688 98.5781 C126.7188 98.8906 126.875 99.2656 126.8906 99.6562 C126.8906 100.1875 126.625 100.5 126.0312 100.7656 L125.4062 101.0156 C124.6406 101.3125 124.3906 101.5469 124.3906 101.9375 C124.3906 102.1094 124.4531 102.3438 124.5781 102.8125 L124.7344 103.3438 L125.1094 103.3438 L125.0938 102.5312 C125.0938 102.0938 125.2031 101.9688 125.7812 101.7344 L126.2031 101.5625 C127.0312 101.2188 127.4531 100.6875 127.4531 99.8438 C127.4531 98.1562 125.6562 97.1875 124.5 97.0312 C124.1094 97.125 123.9062 97.2969 123.9062 97.6406 C123.9062 97.9375 124.0625 98.1562 124.7188 98.2656 L126.4688 98.5781 Z" style="fill:black; stroke:none;"
      /><rect x="109" width="5" height="10" y="96" style="stroke:none;"
      /><path d="M110.8906 104.6875 C110.4844 104.6875 110.1562 105.0469 110.1562 105.4219 C110.1562 105.8125 110.4844 106.1562 110.8906 106.1562 C111.2969 106.1562 111.6406 105.8125 111.6406 105.4219 C111.6406 105.0469 111.2969 104.6875 110.8906 104.6875 ZM112.4688 98.5781 C112.7188 98.8906 112.875 99.2656 112.8906 99.6562 C112.8906 100.1875 112.625 100.5 112.0312 100.7656 L111.4062 101.0156 C110.6406 101.3125 110.3906 101.5469 110.3906 101.9375 C110.3906 102.1094 110.4531 102.3438 110.5781 102.8125 L110.7344 103.3438 L111.1094 103.3438 L111.0938 102.5312 C111.0938 102.0938 111.2031 101.9688 111.7812 101.7344 L112.2031 101.5625 C113.0312 101.2188 113.4531 100.6875 113.4531 99.8438 C113.4531 98.1562 111.6562 97.1875 110.5 97.0312 C110.1094 97.125 109.9062 97.2969 109.9062 97.6406 C109.9062 97.9375 110.0625 98.1562 110.7188 98.2656 L112.4688 98.5781 Z" style="fill:black; stroke:none;"
      /><rect x="175" width="5" height="10" y="96" style="stroke:none;"
      /><path d="M176.8906 104.6875 C176.4844 104.6875 176.1562 105.0469 176.1562 105.4219 C176.1562 105.8125 176.4844 106.1562 176.8906 106.1562 C177.2969 106.1562 177.6406 105.8125 177.6406 105.4219 C177.6406 105.0469 177.2969 104.6875 176.8906 104.6875 ZM178.4688 98.5781 C178.7188 98.8906 178.875 99.2656 178.8906 99.6562 C178.8906 100.1875 178.625 100.5 178.0312 100.7656 L177.4062 101.0156 C176.6406 101.3125 176.3906 101.5469 176.3906 101.9375 C176.3906 102.1094 176.4531 102.3438 176.5781 102.8125 L176.7344 103.3438 L177.1094 103.3438 L177.0938 102.5312 C177.0938 102.0938 177.2031 101.9688 177.7812 101.7344 L178.2031 101.5625 C179.0312 101.2188 179.4531 100.6875 179.4531 99.8438 C179.4531 98.1562 177.6562 97.1875 176.5 97.0312 C176.1094 97.125 175.9062 97.2969 175.9062 97.6406 C175.9062 97.9375 176.0625 98.1562 176.7188 98.2656 L178.4688 98.5781 Z" style="fill:black; stroke:none;"
      /><rect x="161" width="5" height="10" y="96" style="stroke:none;"
      /><path d="M162.8906 104.6875 C162.4844 104.6875 162.1562 105.0469 162.1562 105.4219 C162.1562 105.8125 162.4844 106.1562 162.8906 106.1562 C163.2969 106.1562 163.6406 105.8125 163.6406 105.4219 C163.6406 105.0469 163.2969 104.6875 162.8906 104.6875 ZM164.4688 98.5781 C164.7188 98.8906 164.875 99.2656 164.8906 99.6562 C164.8906 100.1875 164.625 100.5 164.0312 100.7656 L163.4062 101.0156 C162.6406 101.3125 162.3906 101.5469 162.3906 101.9375 C162.3906 102.1094 162.4531 102.3438 162.5781 102.8125 L162.7344 103.3438 L163.1094 103.3438 L163.0938 102.5312 C163.0938 102.0938 163.2031 101.9688 163.7812 101.7344 L164.2031 101.5625 C165.0312 101.2188 165.4531 100.6875 165.4531 99.8438 C165.4531 98.1562 163.6562 97.1875 162.5 97.0312 C162.1094 97.125 161.9062 97.2969 161.9062 97.6406 C161.9062 97.9375 162.0625 98.1562 162.7188 98.2656 L164.4688 98.5781 Z" style="fill:black; stroke:none;"
      /><rect x="227" width="5" height="10" y="96" style="stroke:none;"
      /><path d="M228.8906 104.6875 C228.4844 104.6875 228.1562 105.0469 228.1562 105.4219 C228.1562 105.8125 228.4844 106.1562 228.8906 106.1562 C229.2969 106.1562 229.6406 105.8125 229.6406 105.4219 C229.6406 105.0469 229.2969 104.6875 228.8906 104.6875 ZM230.4688 98.5781 C230.7188 98.8906 230.875 99.2656 230.8906 99.6562 C230.8906 100.1875 230.625 100.5 230.0312 100.7656 L229.4062 101.0156 C228.6406 101.3125 228.3906 101.5469 228.3906 101.9375 C228.3906 102.1094 228.4531 102.3438 228.5781 102.8125 L228.7344 103.3438 L229.1094 103.3438 L229.0938 102.5312 C229.0938 102.0938 229.2031 101.9688 229.7812 101.7344 L230.2031 101.5625 C231.0312 101.2188 231.4531 100.6875 231.4531 99.8438 C231.4531 98.1562 229.6562 97.1875 228.5 97.0312 C228.1094 97.125 227.9062 97.2969 227.9062 97.6406 C227.9062 97.9375 228.0625 98.1562 228.7188 98.2656 L230.4688 98.5781 Z" style="fill:black; stroke:none;"
      /><rect x="213" width="5" height="10" y="96" style="stroke:none;"
      /><path d="M214.8906 104.6875 C214.4844 104.6875 214.1562 105.0469 214.1562 105.4219 C214.1562 105.8125 214.4844 106.1562 214.8906 106.1562 C215.2969 106.1562 215.6406 105.8125 215.6406 105.4219 C215.6406 105.0469 215.2969 104.6875 214.8906 104.6875 ZM216.4688 98.5781 C216.7188 98.8906 216.875 99.2656 216.8906 99.6562 C216.8906 100.1875 216.625 100.5 216.0312 100.7656 L215.4062 101.0156 C214.6406 101.3125 214.3906 101.5469 214.3906 101.9375 C214.3906 102.1094 214.4531 102.3438 214.5781 102.8125 L214.7344 103.3438 L215.1094 103.3438 L215.0938 102.5312 C215.0938 102.0938 215.2031 101.9688 215.7812 101.7344 L216.2031 101.5625 C217.0312 101.2188 217.4531 100.6875 217.4531 99.8438 C217.4531 98.1562 215.6562 97.1875 214.5 97.0312 C214.1094 97.125 213.9062 97.2969 213.9062 97.6406 C213.9062 97.9375 214.0625 98.1562 214.7188 98.2656 L216.4688 98.5781 Z" style="fill:black; stroke:none;"
      /><rect x="279" width="5" height="10" y="96" style="stroke:none;"
      /><path d="M280.8906 104.6875 C280.4844 104.6875 280.1562 105.0469 280.1562 105.4219 C280.1562 105.8125 280.4844 106.1562 280.8906 106.1562 C281.2969 106.1562 281.6406 105.8125 281.6406 105.4219 C281.6406 105.0469 281.2969 104.6875 280.8906 104.6875 ZM282.4688 98.5781 C282.7188 98.8906 282.875 99.2656 282.8906 99.6562 C282.8906 100.1875 282.625 100.5 282.0312 100.7656 L281.4062 101.0156 C280.6406 101.3125 280.3906 101.5469 280.3906 101.9375 C280.3906 102.1094 280.4531 102.3438 280.5781 102.8125 L280.7344 103.3438 L281.1094 103.3438 L281.0938 102.5312 C281.0938 102.0938 281.2031 101.9688 281.7812 101.7344 L282.2031 101.5625 C283.0312 101.2188 283.4531 100.6875 283.4531 99.8438 C283.4531 98.1562 281.6562 97.1875 280.5 97.0312 C280.1094 97.125 279.9062 97.2969 279.9062 97.6406 C279.9062 97.9375 280.0625 98.1562 280.7188 98.2656 L282.4688 98.5781 Z" style="fill:black; stroke:none;"
      /><rect x="265" width="5" height="10" y="96" style="stroke:none;"
      /><path d="M266.8906 104.6875 C266.4844 104.6875 266.1562 105.0469 266.1562 105.4219 C266.1562 105.8125 266.4844 106.1562 266.8906 106.1562 C267.2969 106.1562 267.6406 105.8125 267.6406 105.4219 C267.6406 105.0469 267.2969 104.6875 266.8906 104.6875 ZM268.4688 98.5781 C268.7188 98.8906 268.875 99.2656 268.8906 99.6562 C268.8906 100.1875 268.625 100.5 268.0312 100.7656 L267.4062 101.0156 C266.6406 101.3125 266.3906 101.5469 266.3906 101.9375 C266.3906 102.1094 266.4531 102.3438 266.5781 102.8125 L266.7344 103.3438 L267.1094 103.3438 L267.0938 102.5312 C267.0938 102.0938 267.2031 101.9688 267.7812 101.7344 L268.2031 101.5625 C269.0312 101.2188 269.4531 100.6875 269.4531 99.8438 C269.4531 98.1562 267.6562 97.1875 266.5 97.0312 C266.1094 97.125 265.9062 97.2969 265.9062 97.6406 C265.9062 97.9375 266.0625 98.1562 266.7188 98.2656 L268.4688 98.5781 Z" style="fill:black; stroke:none;"
      /><rect x="331" width="5" height="10" y="96" style="stroke:none;"
      /><path d="M332.8906 104.6875 C332.4844 104.6875 332.1562 105.0469 332.1562 105.4219 C332.1562 105.8125 332.4844 106.1562 332.8906 106.1562 C333.2969 106.1562 333.6406 105.8125 333.6406 105.4219 C333.6406 105.0469 333.2969 104.6875 332.8906 104.6875 ZM334.4688 98.5781 C334.7188 98.8906 334.875 99.2656 334.8906 99.6562 C334.8906 100.1875 334.625 100.5 334.0312 100.7656 L333.4062 101.0156 C332.6406 101.3125 332.3906 101.5469 332.3906 101.9375 C332.3906 102.1094 332.4531 102.3438 332.5781 102.8125 L332.7344 103.3438 L333.1094 103.3438 L333.0938 102.5312 C333.0938 102.0938 333.2031 101.9688 333.7812 101.7344 L334.2031 101.5625 C335.0312 101.2188 335.4531 100.6875 335.4531 99.8438 C335.4531 98.1562 333.6562 97.1875 332.5 97.0312 C332.1094 97.125 331.9062 97.2969 331.9062 97.6406 C331.9062 97.9375 332.0625 98.1562 332.7188 98.2656 L334.4688 98.5781 Z" style="fill:black; stroke:none;"
      /><rect x="317" width="5" height="10" y="96" style="stroke:none;"
      /><path d="M318.8906 104.6875 C318.4844 104.6875 318.1562 105.0469 318.1562 105.4219 C318.1562 105.8125 318.4844 106.1562 318.8906 106.1562 C319.2969 106.1562 319.6406 105.8125 319.6406 105.4219 C319.6406 105.0469 319.2969 104.6875 318.8906 104.6875 ZM320.4688 98.5781 C320.7188 98.8906 320.875 99.2656 320.8906 99.6562 C320.8906 100.1875 320.625 100.5 320.0312 100.7656 L319.4062 101.0156 C318.6406 101.3125 318.3906 101.5469 318.3906 101.9375 C318.3906 102.1094 318.4531 102.3438 318.5781 102.8125 L318.7344 103.3438 L319.1094 103.3438 L319.0938 102.5312 C319.0938 102.0938 319.2031 101.9688 319.7812 101.7344 L320.2031 101.5625 C321.0312 101.2188 321.4531 100.6875 321.4531 99.8438 C321.4531 98.1562 319.6562 97.1875 318.5 97.0312 C318.1094 97.125 317.9062 97.2969 317.9062 97.6406 C317.9062 97.9375 318.0625 98.1562 318.7188 98.2656 L320.4688 98.5781 Z" style="fill:black; stroke:none;"
      /><polygon style="fill:none; stroke:black;" points=" 353 41 301 41"
      /><rect x="342" y="30" width="22" style="clip-path:url(#clipPath10); stroke:none;" height="22"
      /><rect x="342" y="30" width="22" style="clip-path:url(#clipPath10); fill:rgb(0,144,188); stroke:none;" height="22"
      /><rect x="342" y="30" width="22" style="clip-path:url(#clipPath10); fill:none; stroke:black;" height="22"
      /><rect x="342" y="30" width="22" style="fill:none; stroke:black;" height="22"
      /><circle r="11" style="clip-path:url(#clipPath11); stroke:none;" cx="301" cy="41"
      /><rect x="290" y="30" width="22" style="clip-path:url(#clipPath11); fill:rgb(255,212,0); stroke:none;" height="22"
      /><rect x="290" y="30" width="22" style="clip-path:url(#clipPath11); fill:none; stroke:black;" height="22"
      /><circle r="11" style="fill:none; stroke:black;" cx="301" cy="41"
      /><rect x="331" width="5" height="10" y="44" style="stroke:none;"
      /><path d="M332.8906 52.6875 C332.4844 52.6875 332.1562 53.0469 332.1562 53.4219 C332.1562 53.8125 332.4844 54.1562 332.8906 54.1562 C333.2969 54.1562 333.6406 53.8125 333.6406 53.4219 C333.6406 53.0469 333.2969 52.6875 332.8906 52.6875 ZM334.4688 46.5781 C334.7188 46.8906 334.875 47.2656 334.8906 47.6562 C334.8906 48.1875 334.625 48.5 334.0312 48.7656 L333.4062 49.0156 C332.6406 49.3125 332.3906 49.5469 332.3906 49.9375 C332.3906 50.1094 332.4531 50.3438 332.5781 50.8125 L332.7344 51.3438 L333.1094 51.3438 L333.0938 50.5312 C333.0938 50.0938 333.2031 49.9688 333.7812 49.7344 L334.2031 49.5625 C335.0312 49.2188 335.4531 48.6875 335.4531 47.8438 C335.4531 46.1562 333.6562 45.1875 332.5 45.0312 C332.1094 45.125 331.9062 45.2969 331.9062 45.6406 C331.9062 45.9375 332.0625 46.1562 332.7188 46.2656 L334.4688 46.5781 Z" style="fill:black; stroke:none;"
      /><rect x="317" width="5" height="10" y="44" style="stroke:none;"
      /><path d="M318.8906 52.6875 C318.4844 52.6875 318.1562 53.0469 318.1562 53.4219 C318.1562 53.8125 318.4844 54.1562 318.8906 54.1562 C319.2969 54.1562 319.6406 53.8125 319.6406 53.4219 C319.6406 53.0469 319.2969 52.6875 318.8906 52.6875 ZM320.4688 46.5781 C320.7188 46.8906 320.875 47.2656 320.8906 47.6562 C320.8906 48.1875 320.625 48.5 320.0312 48.7656 L319.4062 49.0156 C318.6406 49.3125 318.3906 49.5469 318.3906 49.9375 C318.3906 50.1094 318.4531 50.3438 318.5781 50.8125 L318.7344 51.3438 L319.1094 51.3438 L319.0938 50.5312 C319.0938 50.0938 319.2031 49.9688 319.7812 49.7344 L320.2031 49.5625 C321.0312 49.2188 321.4531 48.6875 321.4531 47.8438 C321.4531 46.1562 319.6562 45.1875 318.5 45.0312 C318.1094 45.125 317.9062 45.2969 317.9062 45.6406 C317.9062 45.9375 318.0625 46.1562 318.7188 46.2656 L320.4688 46.5781 Z" style="fill:black; stroke:none;"
      /><rect x="387" width="5" height="10" y="78" style="stroke:none;"
      /><path d="M388.8906 86.6875 C388.4844 86.6875 388.1562 87.0469 388.1562 87.4219 C388.1562 87.8125 388.4844 88.1562 388.8906 88.1562 C389.2969 88.1562 389.6406 87.8125 389.6406 87.4219 C389.6406 87.0469 389.2969 86.6875 388.8906 86.6875 ZM390.4688 80.5781 C390.7188 80.8906 390.875 81.2656 390.8906 81.6562 C390.8906 82.1875 390.625 82.5 390.0312 82.7656 L389.4062 83.0156 C388.6406 83.3125 388.3906 83.5469 388.3906 83.9375 C388.3906 84.1094 388.4531 84.3438 388.5781 84.8125 L388.7344 85.3438 L389.1094 85.3438 L389.0938 84.5312 C389.0938 84.0938 389.2031 83.9688 389.7812 83.7344 L390.2031 83.5625 C391.0312 83.2188 391.4531 82.6875 391.4531 81.8438 C391.4531 80.1562 389.6562 79.1875 388.5 79.0312 C388.1094 79.125 387.9062 79.2969 387.9062 79.6406 C387.9062 79.9375 388.0625 80.1562 388.7188 80.2656 L390.4688 80.5781 Z" style="fill:black; stroke:none;"
      /><rect x="372" width="5" height="10" y="86" style="stroke:none;"
      /><path d="M373.8906 94.6875 C373.4844 94.6875 373.1562 95.0469 373.1562 95.4219 C373.1562 95.8125 373.4844 96.1562 373.8906 96.1562 C374.2969 96.1562 374.6406 95.8125 374.6406 95.4219 C374.6406 95.0469 374.2969 94.6875 373.8906 94.6875 ZM375.4688 88.5781 C375.7188 88.8906 375.875 89.2656 375.8906 89.6562 C375.8906 90.1875 375.625 90.5 375.0312 90.7656 L374.4062 91.0156 C373.6406 91.3125 373.3906 91.5469 373.3906 91.9375 C373.3906 92.1094 373.4531 92.3438 373.5781 92.8125 L373.7344 93.3438 L374.1094 93.3438 L374.0938 92.5312 C374.0938 92.0938 374.2031 91.9688 374.7812 91.7344 L375.2031 91.5625 C376.0312 91.2188 376.4531 90.6875 376.4531 89.8438 C376.4531 88.1562 374.6562 87.1875 373.5 87.0312 C373.1094 87.125 372.9062 87.2969 372.9062 87.6406 C372.9062 87.9375 373.0625 88.1562 373.7188 88.2656 L375.4688 88.5781 Z" style="fill:black; stroke:none;"
      /><rect x="380" width="5" height="10" y="60" style="stroke:none;"
      /><path d="M381.8906 68.6875 C381.4844 68.6875 381.1562 69.0469 381.1562 69.4219 C381.1562 69.8125 381.4844 70.1562 381.8906 70.1562 C382.2969 70.1562 382.6406 69.8125 382.6406 69.4219 C382.6406 69.0469 382.2969 68.6875 381.8906 68.6875 ZM383.4688 62.5781 C383.7188 62.8906 383.875 63.2656 383.8906 63.6562 C383.8906 64.1875 383.625 64.5 383.0312 64.7656 L382.4062 65.0156 C381.6406 65.3125 381.3906 65.5469 381.3906 65.9375 C381.3906 66.1094 381.4531 66.3438 381.5781 66.8125 L381.7344 67.3438 L382.1094 67.3438 L382.0938 66.5312 C382.0938 66.0938 382.2031 65.9688 382.7812 65.7344 L383.2031 65.5625 C384.0312 65.2188 384.4531 64.6875 384.4531 63.8438 C384.4531 62.1562 382.6562 61.1875 381.5 61.0312 C381.1094 61.125 380.9062 61.2969 380.9062 61.6406 C380.9062 61.9375 381.0625 62.1562 381.7188 62.2656 L383.4688 62.5781 Z" style="fill:black; stroke:none;"
      /><rect x="365" width="5" height="10" y="52" style="stroke:none;"
      /><path d="M366.8906 60.6875 C366.4844 60.6875 366.1562 61.0469 366.1562 61.4219 C366.1562 61.8125 366.4844 62.1562 366.8906 62.1562 C367.2969 62.1562 367.6406 61.8125 367.6406 61.4219 C367.6406 61.0469 367.2969 60.6875 366.8906 60.6875 ZM368.4688 54.5781 C368.7188 54.8906 368.875 55.2656 368.8906 55.6562 C368.8906 56.1875 368.625 56.5 368.0312 56.7656 L367.4062 57.0156 C366.6406 57.3125 366.3906 57.5469 366.3906 57.9375 C366.3906 58.1094 366.4531 58.3438 366.5781 58.8125 L366.7344 59.3438 L367.1094 59.3438 L367.0938 58.5312 C367.0938 58.0938 367.2031 57.9688 367.7812 57.7344 L368.2031 57.5625 C369.0312 57.2188 369.4531 56.6875 369.4531 55.8438 C369.4531 54.1562 367.6562 53.1875 366.5 53.0312 C366.1094 53.125 365.9062 53.2969 365.9062 53.6406 C365.9062 53.9375 366.0625 54.1562 366.7188 54.2656 L368.4688 54.5781 Z" style="fill:black; stroke:none;"
      /><rect x="435" width="5" height="10" y="70" style="stroke:none;"
      /><path d="M436.8906 78.6875 C436.4844 78.6875 436.1562 79.0469 436.1562 79.4219 C436.1562 79.8125 436.4844 80.1562 436.8906 80.1562 C437.2969 80.1562 437.6406 79.8125 437.6406 79.4219 C437.6406 79.0469 437.2969 78.6875 436.8906 78.6875 ZM438.4688 72.5781 C438.7188 72.8906 438.875 73.2656 438.8906 73.6562 C438.8906 74.1875 438.625 74.5 438.0312 74.7656 L437.4062 75.0156 C436.6406 75.3125 436.3906 75.5469 436.3906 75.9375 C436.3906 76.1094 436.4531 76.3438 436.5781 76.8125 L436.7344 77.3438 L437.1094 77.3438 L437.0938 76.5312 C437.0938 76.0938 437.2031 75.9688 437.7812 75.7344 L438.2031 75.5625 C439.0312 75.2188 439.4531 74.6875 439.4531 73.8438 C439.4531 72.1562 437.6562 71.1875 436.5 71.0312 C436.1094 71.125 435.9062 71.2969 435.9062 71.6406 C435.9062 71.9375 436.0625 72.1562 436.7188 72.2656 L438.4688 72.5781 Z" style="fill:black; stroke:none;"
      /><rect x="421" width="5" height="10" y="70" style="stroke:none;"
      /><path d="M422.8906 78.6875 C422.4844 78.6875 422.1562 79.0469 422.1562 79.4219 C422.1562 79.8125 422.4844 80.1562 422.8906 80.1562 C423.2969 80.1562 423.6406 79.8125 423.6406 79.4219 C423.6406 79.0469 423.2969 78.6875 422.8906 78.6875 ZM424.4688 72.5781 C424.7188 72.8906 424.875 73.2656 424.8906 73.6562 C424.8906 74.1875 424.625 74.5 424.0312 74.7656 L423.4062 75.0156 C422.6406 75.3125 422.3906 75.5469 422.3906 75.9375 C422.3906 76.1094 422.4531 76.3438 422.5781 76.8125 L422.7344 77.3438 L423.1094 77.3438 L423.0938 76.5312 C423.0938 76.0938 423.2031 75.9688 423.7812 75.7344 L424.2031 75.5625 C425.0312 75.2188 425.4531 74.6875 425.4531 73.8438 C425.4531 72.1562 423.6562 71.1875 422.5 71.0312 C422.1094 71.125 421.9062 71.2969 421.9062 71.6406 C421.9062 71.9375 422.0625 72.1562 422.7188 72.2656 L424.4688 72.5781 Z" style="fill:black; stroke:none;"
    /></g
  ></g
></svg
>
