<?xml version="1.0"?>
<!DOCTYPE svg PUBLIC '-//W3C//DTD SVG 1.0//EN'
          'http://www.w3.org/TR/2001/REC-SVG-20010904/DTD/svg10.dtd'>
<svg xmlns:xlink="http://www.w3.org/1999/xlink" style="fill-opacity:1; color-rendering:auto; color-interpolation:auto; text-rendering:auto; stroke:black; stroke-linecap:square; stroke-miterlimit:10; shape-rendering:auto; stroke-opacity:1; fill:black; stroke-dasharray:none; font-weight:normal; stroke-width:1; font-family:'Dialog'; font-style:normal; stroke-linejoin:miter; font-size:12px; stroke-dashoffset:0; image-rendering:auto;" viewBox="0 0 394 394" xmlns="http://www.w3.org/2000/svg"
><!--Generated by the Batik Graphics2D SVG Generator--><defs id="genericDefs"
  /><g
  ><defs id="defs1"
    ><clipPath clipPathUnits="userSpaceOnUse" id="clipPath1"
      ><path d="M290 173 L312 173 L312 195 L290 195 L290 173 Z"
      /></clipPath
      ><clipPath clipPathUnits="userSpaceOnUse" id="clipPath2"
      ><path d="M238 173 L260 173 L260 195 L238 195 L238 173 Z"
      /></clipPath
      ><clipPath clipPathUnits="userSpaceOnUse" id="clipPath3"
      ><path d="M208 184 C208 190.0751 203.0751 195 197 195 C190.9249 195 186 190.0751 186 184 C186 177.9249 190.9249 173 197 173 C203.0751 173 208 177.9249 208 184 Z"
      /></clipPath
      ><clipPath clipPathUnits="userSpaceOnUse" id="clipPath4"
      ><path d="M156 275 C156 281.0751 151.0751 286 145 286 C138.9249 286 134 281.0751 134 275 C134 268.9249 138.9249 264 145 264 C151.0751 264 156 268.9249 156 275 Z"
      /></clipPath
      ><clipPath clipPathUnits="userSpaceOnUse" id="clipPath5"
      ><path d="M82 290 L104 290 L104 312 L82 312 L82 290 Z"
      /></clipPath
      ><clipPath clipPathUnits="userSpaceOnUse" id="clipPath6"
      ><path style="fill-rule:evenodd;" d="M93 342 L104 364 L82 364 Z"
      /></clipPath
      ><clipPath clipPathUnits="userSpaceOnUse" id="clipPath7"
      ><path d="M52 301 C52 307.0751 47.0751 312 41 312 C34.9249 312 30 307.0751 30 301 C30 294.9249 34.9249 290 41 290 C47.0751 290 52 294.9249 52 301 Z"
      /></clipPath
      ><clipPath clipPathUnits="userSpaceOnUse" id="clipPath8"
      ><path d="M82 238 L104 238 L104 260 L82 260 L82 238 Z"
      /></clipPath
      ><clipPath clipPathUnits="userSpaceOnUse" id="clipPath9"
      ><path d="M156 93 C156 99.0751 151.0751 104 145 104 C138.9249 104 134 99.0751 134 93 C134 86.9249 138.9249 82 145 82 C151.0751 82 156 86.9249 156 93 Z"
      /></clipPath
      ><clipPath clipPathUnits="userSpaceOnUse" id="clipPath10"
      ><path d="M82 134 L104 134 L104 156 L82 156 L82 134 Z"
      /></clipPath
      ><clipPath clipPathUnits="userSpaceOnUse" id="clipPath11"
      ><path style="fill-rule:evenodd;" d="M93 186 L104 208 L82 208 Z"
      /></clipPath
      ><clipPath clipPathUnits="userSpaceOnUse" id="clipPath12"
      ><path d="M52 145 C52 151.0751 47.0751 156 41 156 C34.9249 156 30 151.0751 30 145 C30 138.9249 34.9249 134 41 134 C47.0751 134 52 138.9249 52 145 Z"
      /></clipPath
      ><clipPath clipPathUnits="userSpaceOnUse" id="clipPath13"
      ><path d="M82 30 L104 30 L104 52 L82 52 L82 30 Z"
      /></clipPath
      ><clipPath clipPathUnits="userSpaceOnUse" id="clipPath14"
      ><path style="fill-rule:evenodd;" d="M93 82 L104 104 L82 104 Z"
      /></clipPath
      ><clipPath clipPathUnits="userSpaceOnUse" id="clipPath15"
      ><path d="M52 41 C52 47.0751 47.0751 52 41 52 C34.9249 52 30 47.0751 30 41 C30 34.9249 34.9249 30 41 30 C47.0751 30 52 34.9249 52 41 Z"
      /></clipPath
      ><clipPath clipPathUnits="userSpaceOnUse" id="clipPath16"
      ><path style="fill-rule:evenodd;" d="M301 143 L290 121 L312 121 Z"
      /></clipPath
    ></defs
    ><g style="fill:white; text-rendering:optimizeSpeed; stroke:white;"
    ><rect x="0" width="394" height="394" y="0" style="stroke:none;"
      /><polygon style="fill:none; stroke:black;" points=" 353 184 301 184"
      /><path d="M353 173 C347.5 178.5 358.5 189.5 353 195" style="fill:none; stroke:black;"
      /><polygon style="fill:none; stroke:black;" points=" 301 184 249 184"
      /><polygon style="fill:none; stroke:black;" points=" 301 184 301 132"
      /><rect x="290" y="173" width="22" style="clip-path:url(#clipPath1); stroke:none;" height="22"
      /><rect x="290" y="173" width="22" style="clip-path:url(#clipPath1); fill:rgb(0,144,188); stroke:none;" height="22"
      /><rect x="290" y="173" width="22" style="clip-path:url(#clipPath1); fill:none; stroke:black;" height="22"
      /><rect x="290" y="173" width="22" style="fill:none; stroke:black;" height="22"
      /><polygon style="fill:none; stroke:black;" points=" 249 184 197 184"
      /><rect x="238" y="173" width="22" style="clip-path:url(#clipPath2); stroke:none;" height="22"
      /><rect x="238" y="173" width="22" style="clip-path:url(#clipPath2); fill:rgb(0,144,188); stroke:none;" height="22"
      /><rect x="238" y="173" width="22" style="clip-path:url(#clipPath2); fill:none; stroke:black;" height="22"
      /><rect x="238" y="173" width="22" style="fill:none; stroke:black;" height="22"
      /><polygon style="fill:none; stroke:black;" points=" 197 184 145 275"
      /><polygon style="fill:none; stroke:black;" points=" 197 184 145 93"
      /><circle style="clip-path:url(#clipPath3); stroke:none;" r="11" cx="197" cy="184"
      /><rect x="186" y="173" width="22" style="clip-path:url(#clipPath3); fill:rgb(0,166,81); stroke:none;" height="22"
      /><rect x="186" y="173" width="22" style="clip-path:url(#clipPath3); fill:none; stroke:black;" height="22"
      /><circle style="fill:none; stroke:black;" r="11" cx="197" cy="184"
      /><polygon style="fill:none; stroke:black;" points=" 145 275 93 301"
      /><polygon style="fill:none; stroke:black;" points=" 145 275 93 249"
      /><circle style="clip-path:url(#clipPath4); stroke:none;" r="11" cx="145" cy="275"
      /><rect x="134" y="264" width="22" style="clip-path:url(#clipPath4); fill:rgb(0,166,81); stroke:none;" height="22"
      /><rect x="134" y="264" width="22" style="clip-path:url(#clipPath4); fill:none; stroke:black;" height="22"
      /><circle style="fill:none; stroke:black;" r="11" cx="145" cy="275"
      /><polygon style="fill:none; stroke:black;" points=" 93 301 93 353"
      /><polygon style="fill:none; stroke:black;" points=" 93 301 41 301"
      /><rect x="82" y="290" width="22" style="clip-path:url(#clipPath5); stroke:none;" height="22"
      /><rect x="82" y="290" width="22" style="clip-path:url(#clipPath5); fill:rgb(0,166,81); stroke:none;" height="22"
      /><rect x="82" y="290" width="22" style="clip-path:url(#clipPath5); fill:none; stroke:black;" height="22"
      /><rect x="82" y="290" width="22" style="fill:none; stroke:black;" height="22"
      /><polygon style="clip-path:url(#clipPath6); stroke:none;" points=" 93 342 104 364 82 364"
      /><rect x="82" y="342" width="22" style="clip-path:url(#clipPath6); fill:rgb(237,28,36); stroke:none;" height="22"
      /><rect x="82" y="342" width="22" style="clip-path:url(#clipPath6); fill:none; stroke:black;" height="22"
      /><polygon style="fill:none; stroke:black;" points=" 93 342 104 364 82 364"
      /><circle style="clip-path:url(#clipPath7); stroke:none;" r="11" cx="41" cy="301"
      /><rect x="30" y="290" width="22" style="clip-path:url(#clipPath7); fill:rgb(255,212,0); stroke:none;" height="22"
      /><rect x="30" y="290" width="22" style="clip-path:url(#clipPath7); fill:none; stroke:black;" height="22"
      /><circle style="fill:none; stroke:black;" r="11" cx="41" cy="301"
      /><rect x="98" y="315" width="6" style="stroke:none;" height="10"
    /></g
    ><g style="font-family:'Serif'; text-rendering:optimizeSpeed; "
    ><path style="stroke:none;" d="M100.2344 316.6562 C100.5156 316.5938 100.7656 316.5625 101.0156 316.5625 C102.0625 316.5625 102.6719 317.1719 102.6719 318.2656 C102.6719 319.4375 101.9062 320.1094 100.7031 320.1094 L100.1875 320.1094 L100.1875 320.6406 L100.7969 320.6406 C102.2188 320.6406 102.9062 321.4219 102.9062 322.6406 C102.9062 323.8438 102.1719 324.6875 100.875 324.6875 C100.6094 324.6875 100.3125 324.6562 100.0156 324.5625 L99.7812 323.8125 C99.625 323.2812 99.5 323.0469 99.1406 323.0469 C98.8906 323.0469 98.7031 323.1719 98.5781 323.4219 C98.8438 324.6406 99.7812 325.1719 101.0312 325.1719 C102.7188 325.1719 103.875 324.125 103.875 322.7031 C103.875 321.5 103.2031 320.625 101.7969 320.375 C102.9531 320.0156 103.6094 319.2031 103.6094 318.2031 C103.6094 316.9219 102.6719 316.0781 101.1875 316.0781 C100.0469 316.0781 99.0625 316.5938 98.7969 317.6875 C98.9062 318 99.1094 318.1094 99.3594 318.1094 C99.7344 318.1094 99.8906 317.8906 100 317.4062 L100.2344 316.6562 Z"
      /><rect x="97" y="330" width="8" style="fill:white; stroke:none;" height="8"
      /><path style="stroke:none;" d="M101.9844 335.7031 C101.9375 336.8906 101.1562 337.6562 100.3125 337.6562 C99.2656 337.6562 98.5 336.6875 98.5 334.7188 C98.5 333.2812 99.1562 332.1562 100.3438 332.1562 C101.1406 332.1562 101.7812 332.6875 102.0938 333.6406 L101.9844 335.7031 ZM103.9062 337.2812 C103.7344 337.375 103.5469 337.4219 103.3438 337.4219 C102.9531 337.4219 102.75 337.2188 102.75 336.4219 C102.75 335.4844 102.9688 333.5312 103.1875 331.8281 L103.0312 331.7188 L102.2344 331.9219 L102.1406 332.7969 C101.7812 332.0312 101.1562 331.6562 100.3906 331.6562 C99.0469 331.6562 97.5625 332.8438 97.5625 334.9531 C97.5625 337.0938 98.7188 338.1719 100.1406 338.1719 C101.0156 338.1719 101.6875 337.8125 102.0938 336.9844 C102.2031 337.8594 102.5156 338.1719 103.0156 338.1719 C103.4688 338.1719 103.7969 337.9062 104.0156 337.5625 L103.9062 337.2812 Z"
      /><rect x="70" y="304" width="7" style="fill:white; stroke:none;" height="9"
      /><path style="stroke:none;" d="M71 309.5156 L73.9531 305.2656 L73.9531 309.5156 L71 309.5156 ZM76.2812 309.5156 L74.8594 309.5156 L74.8594 304.125 L74.2344 304.125 L70.3438 309.6406 L70.3438 310.1875 L73.9531 310.1875 L73.9531 313 L74.8594 313 L74.8594 310.1875 L76.2812 310.1875 L76.2812 309.5156 Z"
      /><rect x="57" y="302" width="6" style="fill:white; stroke:none;" height="13"
      /><path style="stroke:none;" d="M59.0938 308.2031 C59.0938 306.6562 59.75 305.8125 60.7969 305.8125 C61.7188 305.8125 62.2656 306.4531 62.2656 307.5156 C62.2656 308.7188 61.5 309.4375 60.1875 309.7031 L60.2969 310.3125 C62.2188 310.2344 62.9375 311.2188 62.9375 312.4375 C62.9375 313.625 62.2344 314.4219 60.9531 314.4219 C60.25 314.4219 59.6562 314.1562 59.0938 313.7188 L59.0938 308.2031 ZM58.2031 314.9062 L58.1094 317.375 L58.2656 317.4844 L59.1562 317.2656 L59.0156 314.0938 C59.5469 314.8438 60.3594 315.1719 61.1719 315.1719 C62.5625 315.1719 63.8594 314.2188 63.8594 312.4844 C63.8594 310.9531 62.875 310.1094 61.125 310 C62.5625 309.6094 63.1875 308.4531 63.1875 307.4844 C63.1875 306.0938 62.1562 305.3125 60.9062 305.3125 C59.2969 305.3125 58.2188 306.5469 58.2188 308.5156 L58.2031 314.9062 Z"
      /><rect x="82" y="238" width="22" style="clip-path:url(#clipPath8); fill:white; stroke:none;" height="22"
      /><rect x="82" y="238" width="22" style="clip-path:url(#clipPath8); fill:rgb(0,144,188); stroke:none;" height="22"
      /><rect x="82" y="238" width="22" style="fill:none; clip-path:url(#clipPath8);" height="22"
      /><rect x="82" width="22" height="22" y="238" style="fill:none;"
      /><rect x="127" y="286" width="6" style="fill:white; stroke:none;" height="9"
      /><path style="stroke:none;" d="M128.4219 294.0938 C129.0781 293.375 129.7031 292.7188 130.0312 292.3438 C131.9219 290.3125 132.5312 289.4688 132.5312 288.3594 C132.5312 287.0156 131.7812 286.0781 130.1562 286.0781 C128.9062 286.0781 127.7969 286.7031 127.5938 287.9688 C127.7188 288.2031 127.9062 288.3438 128.1562 288.3438 C128.4688 288.3438 128.6562 288.1094 128.7969 287.5938 L129.0938 286.6719 C129.3906 286.5938 129.6562 286.5625 129.8906 286.5625 C130.9219 286.5625 131.5469 287.3125 131.5469 288.4219 C131.5469 289.4375 130.9844 290.4219 129.7031 291.9062 C129.125 292.5781 128.3906 293.4375 127.6406 294.2812 L127.6406 295 L132.9219 295 L132.9219 294.0938 L128.4219 294.0938 Z"
      /><rect x="111" y="292" width="6" style="fill:white; stroke:none;" height="13"
      /><path style="stroke:none;" d="M113.0938 298.2031 C113.0938 296.6562 113.75 295.8125 114.7969 295.8125 C115.7188 295.8125 116.2656 296.4531 116.2656 297.5156 C116.2656 298.7188 115.5 299.4375 114.1875 299.7031 L114.2969 300.3125 C116.2188 300.2344 116.9375 301.2188 116.9375 302.4375 C116.9375 303.625 116.2344 304.4219 114.9531 304.4219 C114.25 304.4219 113.6562 304.1562 113.0938 303.7188 L113.0938 298.2031 ZM112.2031 304.9062 L112.1094 307.375 L112.2656 307.4844 L113.1562 307.2656 L113.0156 304.0938 C113.5469 304.8438 114.3594 305.1719 115.1719 305.1719 C116.5625 305.1719 117.8594 304.2188 117.8594 302.4844 C117.8594 300.9531 116.875 300.1094 115.125 300 C116.5625 299.6094 117.1875 298.4531 117.1875 297.4844 C117.1875 296.0938 116.1562 295.3125 114.9062 295.3125 C113.2969 295.3125 112.2188 296.5469 112.2188 298.5156 L112.2031 304.9062 Z"
      /><rect x="119" y="268" width="7" style="fill:white; stroke:none;" height="9"
      /><path style="stroke:none;" d="M120 273.5156 L122.9531 269.2656 L122.9531 273.5156 L120 273.5156 ZM125.2812 273.5156 L123.8594 273.5156 L123.8594 268.125 L123.2344 268.125 L119.3438 273.6406 L119.3438 274.1875 L122.9531 274.1875 L122.9531 277 L123.8594 277 L123.8594 274.1875 L125.2812 274.1875 L125.2812 273.5156 Z"
      /><rect x="104" y="258" width="6" style="fill:white; stroke:none;" height="13"
      /><path style="stroke:none;" d="M106.0938 264.2031 C106.0938 262.6562 106.75 261.8125 107.7969 261.8125 C108.7188 261.8125 109.2656 262.4531 109.2656 263.5156 C109.2656 264.7188 108.5 265.4375 107.1875 265.7031 L107.2969 266.3125 C109.2188 266.2344 109.9375 267.2188 109.9375 268.4375 C109.9375 269.625 109.2344 270.4219 107.9531 270.4219 C107.25 270.4219 106.6562 270.1562 106.0938 269.7188 L106.0938 264.2031 ZM105.2031 270.9062 L105.1094 273.375 L105.2656 273.4844 L106.1562 273.2656 L106.0156 270.0938 C106.5469 270.8438 107.3594 271.1719 108.1719 271.1719 C109.5625 271.1719 110.8594 270.2188 110.8594 268.4844 C110.8594 266.9531 109.875 266.1094 108.125 266 C109.5625 265.6094 110.1875 264.4531 110.1875 263.4844 C110.1875 262.0938 109.1562 261.3125 107.9062 261.3125 C106.2969 261.3125 105.2188 262.5469 105.2188 264.5156 L105.2031 270.9062 Z"
      /><polygon style="fill:none;" points=" 145 93 93 145"
      /><polygon style="fill:none;" points=" 145 93 93 41"
      /><circle style="fill:white; clip-path:url(#clipPath9); stroke:none;" r="11" cx="145" cy="93"
      /><rect x="134" y="82" width="22" style="clip-path:url(#clipPath9); fill:rgb(0,166,81); stroke:none;" height="22"
      /><rect x="134" y="82" width="22" style="fill:none; clip-path:url(#clipPath9);" height="22"
      /><circle r="11" style="fill:none;" cx="145" cy="93"
      /><polygon style="fill:none;" points=" 93 145 93 197"
      /><polygon style="fill:none;" points=" 93 145 41 145"
      /><rect x="82" y="134" width="22" style="clip-path:url(#clipPath10); fill:white; stroke:none;" height="22"
      /><rect x="82" y="134" width="22" style="clip-path:url(#clipPath10); fill:rgb(0,144,188); stroke:none;" height="22"
      /><rect x="82" y="134" width="22" style="fill:none; clip-path:url(#clipPath10);" height="22"
      /><rect x="82" width="22" height="22" y="134" style="fill:none;"
      /><polygon style="fill:white; clip-path:url(#clipPath11); stroke:none;" points=" 93 186 104 208 82 208"
      /><rect x="82" y="186" width="22" style="clip-path:url(#clipPath11); fill:rgb(237,28,36); stroke:none;" height="22"
      /><rect x="82" y="186" width="22" style="fill:none; clip-path:url(#clipPath11);" height="22"
      /><polygon style="fill:none;" points=" 93 186 104 208 82 208"
      /><circle style="fill:white; clip-path:url(#clipPath12); stroke:none;" r="11" cx="41" cy="145"
      /><rect x="30" y="134" width="22" style="clip-path:url(#clipPath12); fill:rgb(255,212,0); stroke:none;" height="22"
      /><rect x="30" y="134" width="22" style="fill:none; clip-path:url(#clipPath12);" height="22"
      /><circle r="11" style="fill:none;" cx="41" cy="145"
      /><rect x="98" y="159" width="6" style="fill:white; stroke:none;" height="10"
      /><path style="stroke:none;" d="M100.2344 160.6562 C100.5156 160.5938 100.7656 160.5625 101.0156 160.5625 C102.0625 160.5625 102.6719 161.1719 102.6719 162.2656 C102.6719 163.4375 101.9062 164.1094 100.7031 164.1094 L100.1875 164.1094 L100.1875 164.6406 L100.7969 164.6406 C102.2188 164.6406 102.9062 165.4219 102.9062 166.6406 C102.9062 167.8438 102.1719 168.6875 100.875 168.6875 C100.6094 168.6875 100.3125 168.6562 100.0156 168.5625 L99.7812 167.8125 C99.625 167.2812 99.5 167.0469 99.1406 167.0469 C98.8906 167.0469 98.7031 167.1719 98.5781 167.4219 C98.8438 168.6406 99.7812 169.1719 101.0312 169.1719 C102.7188 169.1719 103.875 168.125 103.875 166.7031 C103.875 165.5 103.2031 164.625 101.7969 164.375 C102.9531 164.0156 103.6094 163.2031 103.6094 162.2031 C103.6094 160.9219 102.6719 160.0781 101.1875 160.0781 C100.0469 160.0781 99.0625 160.5938 98.7969 161.6875 C98.9062 162 99.1094 162.1094 99.3594 162.1094 C99.7344 162.1094 99.8906 161.8906 100 161.4062 L100.2344 160.6562 Z"
      /><rect x="97" y="174" width="8" style="fill:white; stroke:none;" height="8"
      /><path style="stroke:none;" d="M101.9844 179.7031 C101.9375 180.8906 101.1562 181.6562 100.3125 181.6562 C99.2656 181.6562 98.5 180.6875 98.5 178.7188 C98.5 177.2812 99.1562 176.1562 100.3438 176.1562 C101.1406 176.1562 101.7812 176.6875 102.0938 177.6406 L101.9844 179.7031 ZM103.9062 181.2812 C103.7344 181.375 103.5469 181.4219 103.3438 181.4219 C102.9531 181.4219 102.75 181.2188 102.75 180.4219 C102.75 179.4844 102.9688 177.5312 103.1875 175.8281 L103.0312 175.7188 L102.2344 175.9219 L102.1406 176.7969 C101.7812 176.0312 101.1562 175.6562 100.3906 175.6562 C99.0469 175.6562 97.5625 176.8438 97.5625 178.9531 C97.5625 181.0938 98.7188 182.1719 100.1406 182.1719 C101.0156 182.1719 101.6875 181.8125 102.0938 180.9844 C102.2031 181.8594 102.5156 182.1719 103.0156 182.1719 C103.4688 182.1719 103.7969 181.9062 104.0156 181.5625 L103.9062 181.2812 Z"
      /><rect x="70" y="148" width="7" style="fill:white; stroke:none;" height="9"
      /><path style="stroke:none;" d="M71 153.5156 L73.9531 149.2656 L73.9531 153.5156 L71 153.5156 ZM76.2812 153.5156 L74.8594 153.5156 L74.8594 148.125 L74.2344 148.125 L70.3438 153.6406 L70.3438 154.1875 L73.9531 154.1875 L73.9531 157 L74.8594 157 L74.8594 154.1875 L76.2812 154.1875 L76.2812 153.5156 Z"
      /><rect x="57" y="146" width="6" style="fill:white; stroke:none;" height="13"
      /><path style="stroke:none;" d="M59.0938 152.2031 C59.0938 150.6562 59.75 149.8125 60.7969 149.8125 C61.7188 149.8125 62.2656 150.4531 62.2656 151.5156 C62.2656 152.7188 61.5 153.4375 60.1875 153.7031 L60.2969 154.3125 C62.2188 154.2344 62.9375 155.2188 62.9375 156.4375 C62.9375 157.625 62.2344 158.4219 60.9531 158.4219 C60.25 158.4219 59.6562 158.1562 59.0938 157.7188 L59.0938 152.2031 ZM58.2031 158.9062 L58.1094 161.375 L58.2656 161.4844 L59.1562 161.2656 L59.0156 158.0938 C59.5469 158.8438 60.3594 159.1719 61.1719 159.1719 C62.5625 159.1719 63.8594 158.2188 63.8594 156.4844 C63.8594 154.9531 62.875 154.1094 61.125 154 C62.5625 153.6094 63.1875 152.4531 63.1875 151.4844 C63.1875 150.0938 62.1562 149.3125 60.9062 149.3125 C59.2969 149.3125 58.2188 150.5469 58.2188 152.5156 L58.2031 158.9062 Z"
      /><polygon style="fill:none;" points=" 93 41 93 93"
      /><polygon style="fill:none;" points=" 93 41 41 41"
      /><rect x="82" y="30" width="22" style="clip-path:url(#clipPath13); fill:white; stroke:none;" height="22"
      /><rect x="82" y="30" width="22" style="clip-path:url(#clipPath13); fill:rgb(0,144,188); stroke:none;" height="22"
      /><rect x="82" y="30" width="22" style="fill:none; clip-path:url(#clipPath13);" height="22"
      /><rect x="82" width="22" height="22" y="30" style="fill:none;"
      /><polygon style="fill:white; clip-path:url(#clipPath14); stroke:none;" points=" 93 82 104 104 82 104"
      /><rect x="82" y="82" width="22" style="clip-path:url(#clipPath14); fill:rgb(237,28,36); stroke:none;" height="22"
      /><rect x="82" y="82" width="22" style="fill:none; clip-path:url(#clipPath14);" height="22"
      /><polygon style="fill:none;" points=" 93 82 104 104 82 104"
      /><circle style="fill:white; clip-path:url(#clipPath15); stroke:none;" r="11" cx="41" cy="41"
      /><rect x="30" y="30" width="22" style="clip-path:url(#clipPath15); fill:rgb(255,212,0); stroke:none;" height="22"
      /><rect x="30" y="30" width="22" style="fill:none; clip-path:url(#clipPath15);" height="22"
      /><circle r="11" style="fill:none;" cx="41" cy="41"
      /><rect x="98" y="55" width="6" style="fill:white; stroke:none;" height="10"
      /><path style="stroke:none;" d="M100.2344 56.6562 C100.5156 56.5938 100.7656 56.5625 101.0156 56.5625 C102.0625 56.5625 102.6719 57.1719 102.6719 58.2656 C102.6719 59.4375 101.9062 60.1094 100.7031 60.1094 L100.1875 60.1094 L100.1875 60.6406 L100.7969 60.6406 C102.2188 60.6406 102.9062 61.4219 102.9062 62.6406 C102.9062 63.8438 102.1719 64.6875 100.875 64.6875 C100.6094 64.6875 100.3125 64.6562 100.0156 64.5625 L99.7812 63.8125 C99.625 63.2812 99.5 63.0469 99.1406 63.0469 C98.8906 63.0469 98.7031 63.1719 98.5781 63.4219 C98.8438 64.6406 99.7812 65.1719 101.0312 65.1719 C102.7188 65.1719 103.875 64.125 103.875 62.7031 C103.875 61.5 103.2031 60.625 101.7969 60.375 C102.9531 60.0156 103.6094 59.2031 103.6094 58.2031 C103.6094 56.9219 102.6719 56.0781 101.1875 56.0781 C100.0469 56.0781 99.0625 56.5938 98.7969 57.6875 C98.9062 58 99.1094 58.1094 99.3594 58.1094 C99.7344 58.1094 99.8906 57.8906 100 57.4062 L100.2344 56.6562 Z"
      /><rect x="97" y="70" width="8" style="fill:white; stroke:none;" height="8"
      /><path style="stroke:none;" d="M101.9844 75.7031 C101.9375 76.8906 101.1562 77.6562 100.3125 77.6562 C99.2656 77.6562 98.5 76.6875 98.5 74.7188 C98.5 73.2812 99.1562 72.1562 100.3438 72.1562 C101.1406 72.1562 101.7812 72.6875 102.0938 73.6406 L101.9844 75.7031 ZM103.9062 77.2812 C103.7344 77.375 103.5469 77.4219 103.3438 77.4219 C102.9531 77.4219 102.75 77.2188 102.75 76.4219 C102.75 75.4844 102.9688 73.5312 103.1875 71.8281 L103.0312 71.7188 L102.2344 71.9219 L102.1406 72.7969 C101.7812 72.0312 101.1562 71.6562 100.3906 71.6562 C99.0469 71.6562 97.5625 72.8438 97.5625 74.9531 C97.5625 77.0938 98.7188 78.1719 100.1406 78.1719 C101.0156 78.1719 101.6875 77.8125 102.0938 76.9844 C102.2031 77.8594 102.5156 78.1719 103.0156 78.1719 C103.4688 78.1719 103.7969 77.9062 104.0156 77.5625 L103.9062 77.2812 Z"
      /><rect x="70" y="44" width="7" style="fill:white; stroke:none;" height="9"
      /><path style="stroke:none;" d="M71 49.5156 L73.9531 45.2656 L73.9531 49.5156 L71 49.5156 ZM76.2812 49.5156 L74.8594 49.5156 L74.8594 44.125 L74.2344 44.125 L70.3438 49.6406 L70.3438 50.1875 L73.9531 50.1875 L73.9531 53 L74.8594 53 L74.8594 50.1875 L76.2812 50.1875 L76.2812 49.5156 Z"
      /><rect x="57" y="42" width="6" style="fill:white; stroke:none;" height="13"
      /><path style="stroke:none;" d="M59.0938 48.2031 C59.0938 46.6562 59.75 45.8125 60.7969 45.8125 C61.7188 45.8125 62.2656 46.4531 62.2656 47.5156 C62.2656 48.7188 61.5 49.4375 60.1875 49.7031 L60.2969 50.3125 C62.2188 50.2344 62.9375 51.2188 62.9375 52.4375 C62.9375 53.625 62.2344 54.4219 60.9531 54.4219 C60.25 54.4219 59.6562 54.1562 59.0938 53.7188 L59.0938 48.2031 ZM58.2031 54.9062 L58.1094 57.375 L58.2656 57.4844 L59.1562 57.2656 L59.0156 54.0938 C59.5469 54.8438 60.3594 55.1719 61.1719 55.1719 C62.5625 55.1719 63.8594 54.2188 63.8594 52.4844 C63.8594 50.9531 62.875 50.1094 61.125 50 C62.5625 49.6094 63.1875 48.4531 63.1875 47.4844 C63.1875 46.0938 62.1562 45.3125 60.9062 45.3125 C59.2969 45.3125 58.2188 46.5469 58.2188 48.5156 L58.2031 54.9062 Z"
      /><rect x="131" y="110" width="6" style="fill:white; stroke:none;" height="9"
      /><path style="stroke:none;" d="M132.4219 118.0938 C133.0781 117.375 133.7031 116.7188 134.0312 116.3438 C135.9219 114.3125 136.5312 113.4688 136.5312 112.3594 C136.5312 111.0156 135.7812 110.0781 134.1562 110.0781 C132.9062 110.0781 131.7969 110.7031 131.5938 111.9688 C131.7188 112.2031 131.9062 112.3438 132.1562 112.3438 C132.4688 112.3438 132.6562 112.1094 132.7969 111.5938 L133.0938 110.6719 C133.3906 110.5938 133.6562 110.5625 133.8906 110.5625 C134.9219 110.5625 135.5469 111.3125 135.5469 112.4219 C135.5469 113.4375 134.9844 114.4219 133.7031 115.9062 C133.125 116.5781 132.3906 117.4375 131.6406 118.2812 L131.6406 119 L136.9219 119 L136.9219 118.0938 L132.4219 118.0938 Z"
      /><rect x="112" y="127" width="6" style="fill:white; stroke:none;" height="13"
      /><path style="stroke:none;" d="M114.0938 133.2031 C114.0938 131.6562 114.75 130.8125 115.7969 130.8125 C116.7188 130.8125 117.2656 131.4531 117.2656 132.5156 C117.2656 133.7188 116.5 134.4375 115.1875 134.7031 L115.2969 135.3125 C117.2188 135.2344 117.9375 136.2188 117.9375 137.4375 C117.9375 138.625 117.2344 139.4219 115.9531 139.4219 C115.25 139.4219 114.6562 139.1562 114.0938 138.7188 L114.0938 133.2031 ZM113.2031 139.9062 L113.1094 142.375 L113.2656 142.4844 L114.1562 142.2656 L114.0156 139.0938 C114.5469 139.8438 115.3594 140.1719 116.1719 140.1719 C117.5625 140.1719 118.8594 139.2188 118.8594 137.4844 C118.8594 135.9531 117.875 135.1094 116.125 135 C117.5625 134.6094 118.1875 133.4531 118.1875 132.4844 C118.1875 131.0938 117.1562 130.3125 115.9062 130.3125 C114.2969 130.3125 113.2188 131.5469 113.2188 133.5156 L113.2031 139.9062 Z"
      /><rect x="119" y="77" width="6" style="fill:white; stroke:none;" height="10"
      /><path style="stroke:none;" d="M122.3438 86.6875 C121.2031 86.6875 120.5312 85.5 120.5312 83.2969 C120.5312 83.2188 120.5312 83.125 120.5312 83.0469 C121.0938 82.5 121.7188 82.3125 122.3438 82.3125 C123.3125 82.3125 123.9531 82.9844 123.9531 84.4531 C123.9531 85.9375 123.3125 86.6875 122.3438 86.6875 ZM124.5312 78.0781 C121.3438 78.4531 119.5625 80.7656 119.5625 83.4531 C119.5625 85.7812 120.6094 87.1719 122.3125 87.1719 C123.8438 87.1719 124.9219 86.1094 124.9219 84.2812 C124.9219 82.6875 123.9688 81.6562 122.5625 81.6562 C121.8281 81.6562 121.1406 81.9844 120.5781 82.5781 C120.7969 80.4062 122.0781 78.9688 124.5938 78.3906 L124.5312 78.0781 Z"
      /><rect x="101" y="56" width="6" style="fill:white; stroke:none;" height="13"
      /><path style="stroke:none;" d="M103.0938 62.2031 C103.0938 60.6562 103.75 59.8125 104.7969 59.8125 C105.7188 59.8125 106.2656 60.4531 106.2656 61.5156 C106.2656 62.7188 105.5 63.4375 104.1875 63.7031 L104.2969 64.3125 C106.2188 64.2344 106.9375 65.2188 106.9375 66.4375 C106.9375 67.625 106.2344 68.4219 104.9531 68.4219 C104.25 68.4219 103.6562 68.1562 103.0938 67.7188 L103.0938 62.2031 ZM102.2031 68.9062 L102.1094 71.375 L102.2656 71.4844 L103.1562 71.2656 L103.0156 68.0938 C103.5469 68.8438 104.3594 69.1719 105.1719 69.1719 C106.5625 69.1719 107.8594 68.2188 107.8594 66.4844 C107.8594 64.9531 106.875 64.1094 105.125 64 C106.5625 63.6094 107.1875 62.4531 107.1875 61.4844 C107.1875 60.0938 106.1562 59.3125 104.9062 59.3125 C103.2969 59.3125 102.2188 60.5469 102.2188 62.5156 L102.2031 68.9062 Z"
      /><rect x="190" y="200" width="6" style="fill:white; stroke:none;" height="10"
      /><path style="stroke:none;" d="M192.2344 201.6562 C192.5156 201.5938 192.7656 201.5625 193.0156 201.5625 C194.0625 201.5625 194.6719 202.1719 194.6719 203.2656 C194.6719 204.4375 193.9062 205.1094 192.7031 205.1094 L192.1875 205.1094 L192.1875 205.6406 L192.7969 205.6406 C194.2188 205.6406 194.9062 206.4219 194.9062 207.6406 C194.9062 208.8438 194.1719 209.6875 192.875 209.6875 C192.6094 209.6875 192.3125 209.6562 192.0156 209.5625 L191.7812 208.8125 C191.625 208.2812 191.5 208.0469 191.1406 208.0469 C190.8906 208.0469 190.7031 208.1719 190.5781 208.4219 C190.8438 209.6406 191.7812 210.1719 193.0312 210.1719 C194.7188 210.1719 195.875 209.125 195.875 207.7031 C195.875 206.5 195.2031 205.625 193.7969 205.375 C194.9531 205.0156 195.6094 204.2031 195.6094 203.2031 C195.6094 201.9219 194.6719 201.0781 193.1875 201.0781 C192.0469 201.0781 191.0625 201.5938 190.7969 202.6875 C190.9062 203 191.1094 203.1094 191.3594 203.1094 C191.7344 203.1094 191.8906 202.8906 192 202.4062 L192.2344 201.6562 Z"
      /><rect x="158" y="257" width="8" style="fill:white; stroke:none;" height="8"
      /><path style="stroke:none;" d="M162.9844 262.7031 C162.9375 263.8906 162.1562 264.6562 161.3125 264.6562 C160.2656 264.6562 159.5 263.6875 159.5 261.7188 C159.5 260.2812 160.1562 259.1562 161.3438 259.1562 C162.1406 259.1562 162.7812 259.6875 163.0938 260.6406 L162.9844 262.7031 ZM164.9062 264.2812 C164.7344 264.375 164.5469 264.4219 164.3438 264.4219 C163.9531 264.4219 163.75 264.2188 163.75 263.4219 C163.75 262.4844 163.9688 260.5312 164.1875 258.8281 L164.0312 258.7188 L163.2344 258.9219 L163.1406 259.7969 C162.7812 259.0312 162.1562 258.6562 161.3906 258.6562 C160.0469 258.6562 158.5625 259.8438 158.5625 261.9531 C158.5625 264.0938 159.7188 265.1719 161.1406 265.1719 C162.0156 265.1719 162.6875 264.8125 163.0938 263.9844 C163.2031 264.8594 163.5156 265.1719 164.0156 265.1719 C164.4688 265.1719 164.7969 264.9062 165.0156 264.5625 L164.9062 264.2812 Z"
      /><rect x="176" y="165" width="6" style="fill:white; stroke:none;" height="10"
      /><path style="stroke:none;" d="M179.3438 174.6875 C178.2031 174.6875 177.5312 173.5 177.5312 171.2969 C177.5312 171.2188 177.5312 171.125 177.5312 171.0469 C178.0938 170.5 178.7188 170.3125 179.3438 170.3125 C180.3125 170.3125 180.9531 170.9844 180.9531 172.4531 C180.9531 173.9375 180.3125 174.6875 179.3438 174.6875 ZM181.5312 166.0781 C178.3438 166.4531 176.5625 168.7656 176.5625 171.4531 C176.5625 173.7812 177.6094 175.1719 179.3125 175.1719 C180.8438 175.1719 181.9219 174.1094 181.9219 172.2812 C181.9219 170.6875 180.9688 169.6562 179.5625 169.6562 C178.8281 169.6562 178.1406 169.9844 177.5781 170.5781 C177.7969 168.4062 179.0781 166.9688 181.5938 166.3906 L181.5312 166.0781 Z"
      /><rect x="144" y="110" width="8" style="fill:white; stroke:none;" height="8"
      /><path style="stroke:none;" d="M148.9844 115.7031 C148.9375 116.8906 148.1562 117.6562 147.3125 117.6562 C146.2656 117.6562 145.5 116.6875 145.5 114.7188 C145.5 113.2812 146.1562 112.1562 147.3438 112.1562 C148.1406 112.1562 148.7812 112.6875 149.0938 113.6406 L148.9844 115.7031 ZM150.9062 117.2812 C150.7344 117.375 150.5469 117.4219 150.3438 117.4219 C149.9531 117.4219 149.75 117.2188 149.75 116.4219 C149.75 115.4844 149.9688 113.5312 150.1875 111.8281 L150.0312 111.7188 L149.2344 111.9219 L149.1406 112.7969 C148.7812 112.0312 148.1562 111.6562 147.3906 111.6562 C146.0469 111.6562 144.5625 112.8438 144.5625 114.9531 C144.5625 117.0938 145.7188 118.1719 147.1406 118.1719 C148.0156 118.1719 148.6875 117.8125 149.0938 116.9844 C149.2031 117.8594 149.5156 118.1719 150.0156 118.1719 C150.4688 118.1719 150.7969 117.9062 151.0156 117.5625 L150.9062 117.2812 Z"
      /><rect x="226" y="187" width="7" style="fill:white; stroke:none;" height="9"
      /><path style="stroke:none;" d="M227 192.5156 L229.9531 188.2656 L229.9531 192.5156 L227 192.5156 ZM232.2812 192.5156 L230.8594 192.5156 L230.8594 187.125 L230.2344 187.125 L226.3438 192.6406 L226.3438 193.1875 L229.9531 193.1875 L229.9531 196 L230.8594 196 L230.8594 193.1875 L232.2812 193.1875 L232.2812 192.5156 Z"
      /><rect x="213" y="185" width="6" style="fill:white; stroke:none;" height="13"
      /><path style="stroke:none;" d="M215.0938 191.2031 C215.0938 189.6562 215.75 188.8125 216.7969 188.8125 C217.7188 188.8125 218.2656 189.4531 218.2656 190.5156 C218.2656 191.7188 217.5 192.4375 216.1875 192.7031 L216.2969 193.3125 C218.2188 193.2344 218.9375 194.2188 218.9375 195.4375 C218.9375 196.625 218.2344 197.4219 216.9531 197.4219 C216.25 197.4219 215.6562 197.1562 215.0938 196.7188 L215.0938 191.2031 ZM214.2031 197.9062 L214.1094 200.375 L214.2656 200.4844 L215.1562 200.2656 L215.0156 197.0938 C215.5469 197.8438 216.3594 198.1719 217.1719 198.1719 C218.5625 198.1719 219.8594 197.2188 219.8594 195.4844 C219.8594 193.9531 218.875 193.1094 217.125 193 C218.5625 192.6094 219.1875 191.4531 219.1875 190.4844 C219.1875 189.0938 218.1562 188.3125 216.9062 188.3125 C215.2969 188.3125 214.2188 189.5469 214.2188 191.5156 L214.2031 197.9062 Z"
      /><polygon style="fill:white; clip-path:url(#clipPath16); stroke:none;" points=" 301 143 290 121 312 121"
      /><rect x="290" y="121" width="22" style="clip-path:url(#clipPath16); fill:rgb(237,28,36); stroke:none;" height="22"
      /><rect x="290" y="121" width="22" style="fill:none; clip-path:url(#clipPath16);" height="22"
      /><polygon style="fill:none;" points=" 301 143 290 121 312 121"
      /><rect x="278" y="187" width="7" style="fill:white; stroke:none;" height="9"
      /><path style="stroke:none;" d="M279 192.5156 L281.9531 188.2656 L281.9531 192.5156 L279 192.5156 ZM284.2812 192.5156 L282.8594 192.5156 L282.8594 187.125 L282.2344 187.125 L278.3438 192.6406 L278.3438 193.1875 L281.9531 193.1875 L281.9531 196 L282.8594 196 L282.8594 193.1875 L284.2812 193.1875 L284.2812 192.5156 Z"
      /><rect x="265" y="185" width="6" style="fill:white; stroke:none;" height="13"
      /><path style="stroke:none;" d="M267.0938 191.2031 C267.0938 189.6562 267.75 188.8125 268.7969 188.8125 C269.7188 188.8125 270.2656 189.4531 270.2656 190.5156 C270.2656 191.7188 269.5 192.4375 268.1875 192.7031 L268.2969 193.3125 C270.2188 193.2344 270.9375 194.2188 270.9375 195.4375 C270.9375 196.625 270.2344 197.4219 268.9531 197.4219 C268.25 197.4219 267.6562 197.1562 267.0938 196.7188 L267.0938 191.2031 ZM266.2031 197.9062 L266.1094 200.375 L266.2656 200.4844 L267.1562 200.2656 L267.0156 197.0938 C267.5469 197.8438 268.3594 198.1719 269.1719 198.1719 C270.5625 198.1719 271.8594 197.2188 271.8594 195.4844 C271.8594 193.9531 270.875 193.1094 269.125 193 C270.5625 192.6094 271.1875 191.4531 271.1875 190.4844 C271.1875 189.0938 270.1562 188.3125 268.9062 188.3125 C267.2969 188.3125 266.2188 189.5469 266.2188 191.5156 L266.2031 197.9062 Z"
      /><rect x="290" y="160" width="6" style="fill:white; stroke:none;" height="10"
      /><path style="stroke:none;" d="M293.3438 169.6875 C292.2031 169.6875 291.5312 168.5 291.5312 166.2969 C291.5312 166.2188 291.5312 166.125 291.5312 166.0469 C292.0938 165.5 292.7188 165.3125 293.3438 165.3125 C294.3125 165.3125 294.9531 165.9844 294.9531 167.4531 C294.9531 168.9375 294.3125 169.6875 293.3438 169.6875 ZM295.5312 161.0781 C292.3438 161.4531 290.5625 163.7656 290.5625 166.4531 C290.5625 168.7812 291.6094 170.1719 293.3125 170.1719 C294.8438 170.1719 295.9219 169.1094 295.9219 167.2812 C295.9219 165.6875 294.9688 164.6562 293.5625 164.6562 C292.8281 164.6562 292.1406 164.9844 291.5781 165.5781 C291.7969 163.4062 293.0781 161.9688 295.5938 161.3906 L295.5312 161.0781 Z"
      /><rect x="289" y="147" width="8" style="fill:white; stroke:none;" height="8"
      /><path style="stroke:none;" d="M293.9844 152.7031 C293.9375 153.8906 293.1562 154.6562 292.3125 154.6562 C291.2656 154.6562 290.5 153.6875 290.5 151.7188 C290.5 150.2812 291.1562 149.1562 292.3438 149.1562 C293.1406 149.1562 293.7812 149.6875 294.0938 150.6406 L293.9844 152.7031 ZM295.9062 154.2812 C295.7344 154.375 295.5469 154.4219 295.3438 154.4219 C294.9531 154.4219 294.75 154.2188 294.75 153.4219 C294.75 152.4844 294.9688 150.5312 295.1875 148.8281 L295.0312 148.7188 L294.2344 148.9219 L294.1406 149.7969 C293.7812 149.0312 293.1562 148.6562 292.3906 148.6562 C291.0469 148.6562 289.5625 149.8438 289.5625 151.9531 C289.5625 154.0938 290.7188 155.1719 292.1406 155.1719 C293.0156 155.1719 293.6875 154.8125 294.0938 153.9844 C294.2031 154.8594 294.5156 155.1719 295.0156 155.1719 C295.4688 155.1719 295.7969 154.9062 296.0156 154.5625 L295.9062 154.2812 Z"
      /><rect x="317" y="187" width="5" style="fill:white; stroke:none;" height="10"
      /><path style="stroke:none;" d="M318.8906 195.6875 C318.4844 195.6875 318.1562 196.0469 318.1562 196.4219 C318.1562 196.8125 318.4844 197.1562 318.8906 197.1562 C319.2969 197.1562 319.6406 196.8125 319.6406 196.4219 C319.6406 196.0469 319.2969 195.6875 318.8906 195.6875 ZM320.4688 189.5781 C320.7188 189.8906 320.875 190.2656 320.8906 190.6562 C320.8906 191.1875 320.625 191.5 320.0312 191.7656 L319.4062 192.0156 C318.6406 192.3125 318.3906 192.5469 318.3906 192.9375 C318.3906 193.1094 318.4531 193.3438 318.5781 193.8125 L318.7344 194.3438 L319.1094 194.3438 L319.0938 193.5312 C319.0938 193.0938 319.2031 192.9688 319.7812 192.7344 L320.2031 192.5625 C321.0312 192.2188 321.4531 191.6875 321.4531 190.8438 C321.4531 189.1562 319.6562 188.1875 318.5 188.0312 C318.1094 188.125 317.9062 188.2969 317.9062 188.6406 C317.9062 188.9375 318.0625 189.1562 318.7188 189.2656 L320.4688 189.5781 Z"
    /></g
  ></g
></svg
>
