<?xml version="1.0"?>
<!DOCTYPE svg PUBLIC '-//W3C//DTD SVG 1.0//EN'
          'http://www.w3.org/TR/2001/REC-SVG-20010904/DTD/svg10.dtd'>
<svg xmlns:xlink="http://www.w3.org/1999/xlink" style="fill-opacity:1; color-rendering:auto; color-interpolation:auto; text-rendering:auto; stroke:black; stroke-linecap:square; stroke-miterlimit:10; shape-rendering:auto; stroke-opacity:1; fill:black; stroke-dasharray:none; font-weight:normal; stroke-width:1; font-family:'Dialog'; font-style:normal; stroke-linejoin:miter; font-size:12px; stroke-dashoffset:0; image-rendering:auto;" viewBox="0 0 342 160" xmlns="http://www.w3.org/2000/svg"
><!--Generated by the Batik Graphics2D SVG Generator--><defs id="genericDefs"
  /><g
  ><defs id="defs1"
    ><clipPath clipPathUnits="userSpaceOnUse" id="clipPath1"
      ><path style="fill-rule:evenodd;" d="M249 82 L259 89 L255 101 L242 101 L238 89 L249 82 Z"
      /></clipPath
      ><clipPath clipPathUnits="userSpaceOnUse" id="clipPath2"
      ><path style="fill-rule:evenodd;" d="M208 119 L202 126 L191 126 L186 119 L191 111 L202 111 L208 119 Z"
      /></clipPath
      ><clipPath clipPathUnits="userSpaceOnUse" id="clipPath3"
      ><path style="fill-rule:evenodd;" d="M208 67 L202 74 L191 74 L186 67 L191 59 L202 59 L208 67 Z"
      /></clipPath
      ><clipPath clipPathUnits="userSpaceOnUse" id="clipPath4"
      ><path style="fill-rule:evenodd;" d="M156 93 L150 100 L139 100 L134 93 L139 85 L150 85 L156 93 Z"
      /></clipPath
      ><clipPath clipPathUnits="userSpaceOnUse" id="clipPath5"
      ><path d="M82 108 L104 108 L104 130 L82 130 L82 108 Z"
      /></clipPath
      ><clipPath clipPathUnits="userSpaceOnUse" id="clipPath6"
      ><path style="fill-rule:evenodd;" d="M104 67 L98 74 L87 74 L82 67 L87 59 L98 59 L104 67 Z"
      /></clipPath
      ><clipPath clipPathUnits="userSpaceOnUse" id="clipPath7"
      ><path style="fill-rule:evenodd;" d="M52 67 L46 74 L35 74 L30 67 L35 59 L46 59 L52 67 Z"
      /></clipPath
      ><clipPath clipPathUnits="userSpaceOnUse" id="clipPath8"
      ><path d="M156 41 C156 47.0751 151.0751 52 145 52 C138.9249 52 134 47.0751 134 41 C134 34.9249 138.9249 30 145 30 C151.0751 30 156 34.9249 156 41 Z"
      /></clipPath
    ></defs
    ><g style="fill:white; text-rendering:optimizeSpeed; stroke:white;"
    ><rect x="0" width="342" height="160" y="0" style="stroke:none;"
      /><polygon style="fill:none; stroke:black;" points=" 301 93 249 93"
      /><path d="M301 82 C295.5 87.5 306.5 98.5 301 104" style="fill:none; stroke:black;"
      /><polygon style="fill:none; stroke:black;" points=" 249 93 197 119"
      /><polygon style="fill:none; stroke:black;" points=" 249 93 197 67"
      /><polygon style="clip-path:url(#clipPath1); stroke:none;" points=" 249 82 259 89 255 101 242 101 238 89 249 82"
      /><rect x="238" y="82" width="22" style="clip-path:url(#clipPath1); stroke:none;" height="22"
      /><rect x="238" y="82" width="22" style="clip-path:url(#clipPath1); fill:none; stroke:black;" height="22"
      /><polygon style="fill:none; stroke:black;" points=" 249 82 259 89 255 101 242 101 238 89 249 82"
    /></g
    ><g style="text-rendering:optimizeSpeed; font-size:14px; font-family:'SansSerif';"
    ><path style="stroke:none;" d="M247.2344 98 L252.8594 98 L252.8594 96.9375 L250.7969 96.9375 L250.7969 87.7188 L249.8281 87.7188 C249.2656 88.0625 248.6094 88.2969 247.6875 88.4688 L247.6875 89.2812 L249.5156 89.2812 L249.5156 96.9375 L247.2344 96.9375 L247.2344 98 Z"
    /></g
    ><g style="fill:white; text-rendering:optimizeSpeed; stroke:white;"
    ><polygon style="stroke:none; clip-path:url(#clipPath2);" points=" 208 119 202 126 191 126 186 119 191 111 202 111 208 119"
      /><rect x="186" y="108" width="22" style="clip-path:url(#clipPath2); fill:rgb(255,212,0); stroke:none;" height="22"
      /><rect x="186" y="108" width="22" style="clip-path:url(#clipPath2); fill:none; stroke:black;" height="22"
      /><polygon style="fill:none; stroke:black;" points=" 208 119 202 126 191 126 186 119 191 111 202 111 208 119"
      /><polygon style="fill:none; stroke:black;" points=" 197 67 145 93"
      /><polygon style="fill:none; stroke:black;" points=" 197 67 145 41"
      /><polygon style="clip-path:url(#clipPath3); stroke:none;" points=" 208 67 202 74 191 74 186 67 191 59 202 59 208 67"
      /><rect x="186" y="56" width="22" style="clip-path:url(#clipPath3); fill:rgb(0,166,81); stroke:none;" height="22"
      /><rect x="186" y="56" width="22" style="clip-path:url(#clipPath3); fill:none; stroke:black;" height="22"
      /><polygon style="fill:none; stroke:black;" points=" 208 67 202 74 191 74 186 67 191 59 202 59 208 67"
      /><polygon style="fill:none; stroke:black;" points=" 145 93 93 119"
      /><polygon style="fill:none; stroke:black;" points=" 145 93 93 67"
      /><polygon style="clip-path:url(#clipPath4); stroke:none;" points=" 156 93 150 100 139 100 134 93 139 85 150 85 156 93"
      /><rect x="134" y="82" width="22" style="clip-path:url(#clipPath4); fill:rgb(0,166,81); stroke:none;" height="22"
      /><rect x="134" y="82" width="22" style="clip-path:url(#clipPath4); fill:none; stroke:black;" height="22"
      /><polygon style="fill:none; stroke:black;" points=" 156 93 150 100 139 100 134 93 139 85 150 85 156 93"
      /><rect x="82" y="108" width="22" style="clip-path:url(#clipPath5); stroke:none;" height="22"
      /><rect x="82" y="108" width="22" style="clip-path:url(#clipPath5); fill:rgb(0,144,188); stroke:none;" height="22"
      /><rect x="82" y="108" width="22" style="clip-path:url(#clipPath5); fill:none; stroke:black;" height="22"
      /><rect x="82" y="108" width="22" style="fill:none; stroke:black;" height="22"
      /><polygon style="fill:none; stroke:black;" points=" 93 67 41 67"
      /><polygon style="clip-path:url(#clipPath6); stroke:none;" points=" 104 67 98 74 87 74 82 67 87 59 98 59 104 67"
      /><rect x="82" y="56" width="22" style="clip-path:url(#clipPath6); fill:rgb(0,166,81); stroke:none;" height="22"
      /><rect x="82" y="56" width="22" style="clip-path:url(#clipPath6); fill:none; stroke:black;" height="22"
      /><polygon style="fill:none; stroke:black;" points=" 104 67 98 74 87 74 82 67 87 59 98 59 104 67"
      /><polygon style="clip-path:url(#clipPath7); stroke:none;" points=" 52 67 46 74 35 74 30 67 35 59 46 59 52 67"
      /><rect x="30" y="56" width="22" style="clip-path:url(#clipPath7); fill:rgb(246,158,161); stroke:none;" height="22"
      /><rect x="30" y="56" width="22" style="clip-path:url(#clipPath7); fill:none; stroke:black;" height="22"
      /><polygon style="fill:none; stroke:black;" points=" 52 67 46 74 35 74 30 67 35 59 46 59 52 67"
      /><rect x="71" width="6" height="9" y="70" style="stroke:none;"
      /><path d="M71.6406 70.25 L71.6406 71.1406 L76.2031 71.1406 L72.7812 78.875 L72.8906 79 L73.75 79 L76.875 70.7969 L76.875 70.25 L71.6406 70.25 Z" style="fill:black; stroke:none;"
      /><rect x="56" width="8" height="8" y="71" style="stroke:none;"
      /><path d="M60.9844 76.7031 C60.9375 77.8906 60.1562 78.6562 59.3125 78.6562 C58.2656 78.6562 57.5 77.6875 57.5 75.7188 C57.5 74.2812 58.1562 73.1562 59.3438 73.1562 C60.1406 73.1562 60.7812 73.6875 61.0938 74.6406 L60.9844 76.7031 ZM62.9062 78.2812 C62.7344 78.375 62.5469 78.4219 62.3438 78.4219 C61.9531 78.4219 61.75 78.2188 61.75 77.4219 C61.75 76.4844 61.9688 74.5312 62.1875 72.8281 L62.0312 72.7188 L61.2344 72.9219 L61.1406 73.7969 C60.7812 73.0312 60.1562 72.6562 59.3906 72.6562 C58.0469 72.6562 56.5625 73.8438 56.5625 75.9531 C56.5625 78.0938 57.7188 79.1719 59.1406 79.1719 C60.0156 79.1719 60.6875 78.8125 61.0938 77.9844 C61.2031 78.8594 61.5156 79.1719 62.0156 79.1719 C62.4688 79.1719 62.7969 78.9062 63.0156 78.5625 L62.9062 78.2812 Z" style="fill:black; stroke:none;"
      /><rect x="127" width="6" height="10" y="104" style="stroke:none;"
      /><path d="M129.2344 105.6562 C129.5156 105.5938 129.7656 105.5625 130.0156 105.5625 C131.0625 105.5625 131.6719 106.1719 131.6719 107.2656 C131.6719 108.4375 130.9062 109.1094 129.7031 109.1094 L129.1875 109.1094 L129.1875 109.6406 L129.7969 109.6406 C131.2188 109.6406 131.9062 110.4219 131.9062 111.6406 C131.9062 112.8438 131.1719 113.6875 129.875 113.6875 C129.6094 113.6875 129.3125 113.6562 129.0156 113.5625 L128.7812 112.8125 C128.625 112.2812 128.5 112.0469 128.1406 112.0469 C127.8906 112.0469 127.7031 112.1719 127.5781 112.4219 C127.8438 113.6406 128.7812 114.1719 130.0312 114.1719 C131.7188 114.1719 132.875 113.125 132.875 111.7031 C132.875 110.5 132.2031 109.625 130.7969 109.375 C131.9531 109.0156 132.6094 108.2031 132.6094 107.2031 C132.6094 105.9219 131.6719 105.0781 130.1875 105.0781 C129.0469 105.0781 128.0625 105.5938 127.7969 106.6875 C127.9062 107 128.1094 107.1094 128.3594 107.1094 C128.7344 107.1094 128.8906 106.8906 129 106.4062 L129.2344 105.6562 Z" style="fill:black; stroke:none;"
      /><rect x="111" width="6" height="13" y="110" style="stroke:none;"
      /><path d="M113.0938 116.2031 C113.0938 114.6562 113.75 113.8125 114.7969 113.8125 C115.7188 113.8125 116.2656 114.4531 116.2656 115.5156 C116.2656 116.7188 115.5 117.4375 114.1875 117.7031 L114.2969 118.3125 C116.2188 118.2344 116.9375 119.2188 116.9375 120.4375 C116.9375 121.625 116.2344 122.4219 114.9531 122.4219 C114.25 122.4219 113.6562 122.1562 113.0938 121.7188 L113.0938 116.2031 ZM112.2031 122.9062 L112.1094 125.375 L112.2656 125.4844 L113.1562 125.2656 L113.0156 122.0938 C113.5469 122.8438 114.3594 123.1719 115.1719 123.1719 C116.5625 123.1719 117.8594 122.2188 117.8594 120.4844 C117.8594 118.9531 116.875 118.1094 115.125 118 C116.5625 117.6094 117.1875 116.4531 117.1875 115.4844 C117.1875 114.0938 116.1562 113.3125 114.9062 113.3125 C113.2969 113.3125 112.2188 114.5469 112.2188 116.5156 L112.2031 122.9062 Z" style="fill:black; stroke:none;"
      /><rect x="120" width="6" height="9" y="86" style="stroke:none;"
      /><path d="M120.6406 86.25 L120.6406 87.1406 L125.2031 87.1406 L121.7812 94.875 L121.8906 95 L122.75 95 L125.875 86.7969 L125.875 86.25 L120.6406 86.25 Z" style="fill:black; stroke:none;"
      /><rect x="103" width="8" height="8" y="79" style="stroke:none;"
      /><path d="M107.9844 84.7031 C107.9375 85.8906 107.1562 86.6562 106.3125 86.6562 C105.2656 86.6562 104.5 85.6875 104.5 83.7188 C104.5 82.2812 105.1562 81.1562 106.3438 81.1562 C107.1406 81.1562 107.7812 81.6875 108.0938 82.6406 L107.9844 84.7031 ZM109.9062 86.2812 C109.7344 86.375 109.5469 86.4219 109.3438 86.4219 C108.9531 86.4219 108.75 86.2188 108.75 85.4219 C108.75 84.4844 108.9688 82.5312 109.1875 80.8281 L109.0312 80.7188 L108.2344 80.9219 L108.1406 81.7969 C107.7812 81.0312 107.1562 80.6562 106.3906 80.6562 C105.0469 80.6562 103.5625 81.8438 103.5625 83.9531 C103.5625 86.0938 104.7188 87.1719 106.1406 87.1719 C107.0156 87.1719 107.6875 86.8125 108.0938 85.9844 C108.2031 86.8594 108.5156 87.1719 109.0156 87.1719 C109.4688 87.1719 109.7969 86.9062 110.0156 86.5625 L109.9062 86.2812 Z" style="fill:black; stroke:none;"
      /><circle r="11" style="clip-path:url(#clipPath8); stroke:none;" cx="145" cy="41"
      /><rect x="134" y="30" width="22" style="clip-path:url(#clipPath8); fill:rgb(0,144,188); stroke:none;" height="22"
      /><rect x="134" y="30" width="22" style="clip-path:url(#clipPath8); fill:none; stroke:black;" height="22"
      /><circle r="11" style="fill:none; stroke:black;" cx="145" cy="41"
      /><rect x="179" width="6" height="10" y="78" style="stroke:none;"
      /><path d="M181.2344 79.6562 C181.5156 79.5938 181.7656 79.5625 182.0156 79.5625 C183.0625 79.5625 183.6719 80.1719 183.6719 81.2656 C183.6719 82.4375 182.9062 83.1094 181.7031 83.1094 L181.1875 83.1094 L181.1875 83.6406 L181.7969 83.6406 C183.2188 83.6406 183.9062 84.4219 183.9062 85.6406 C183.9062 86.8438 183.1719 87.6875 181.875 87.6875 C181.6094 87.6875 181.3125 87.6562 181.0156 87.5625 L180.7812 86.8125 C180.625 86.2812 180.5 86.0469 180.1406 86.0469 C179.8906 86.0469 179.7031 86.1719 179.5781 86.4219 C179.8438 87.6406 180.7812 88.1719 182.0312 88.1719 C183.7188 88.1719 184.875 87.125 184.875 85.7031 C184.875 84.5 184.2031 83.625 182.7969 83.375 C183.9531 83.0156 184.6094 82.2031 184.6094 81.2031 C184.6094 79.9219 183.6719 79.0781 182.1875 79.0781 C181.0469 79.0781 180.0625 79.5938 179.7969 80.6875 C179.9062 81 180.1094 81.1094 180.3594 81.1094 C180.7344 81.1094 180.8906 80.8906 181 80.4062 L181.2344 79.6562 Z" style="fill:black; stroke:none;"
      /><rect x="162" width="8" height="8" y="87" style="stroke:none;"
      /><path d="M166.9844 92.7031 C166.9375 93.8906 166.1562 94.6562 165.3125 94.6562 C164.2656 94.6562 163.5 93.6875 163.5 91.7188 C163.5 90.2812 164.1562 89.1562 165.3438 89.1562 C166.1406 89.1562 166.7812 89.6875 167.0938 90.6406 L166.9844 92.7031 ZM168.9062 94.2812 C168.7344 94.375 168.5469 94.4219 168.3438 94.4219 C167.9531 94.4219 167.75 94.2188 167.75 93.4219 C167.75 92.4844 167.9688 90.5312 168.1875 88.8281 L168.0312 88.7188 L167.2344 88.9219 L167.1406 89.7969 C166.7812 89.0312 166.1562 88.6562 165.3906 88.6562 C164.0469 88.6562 162.5625 89.8438 162.5625 91.9531 C162.5625 94.0938 163.7188 95.1719 165.1406 95.1719 C166.0156 95.1719 166.6875 94.8125 167.0938 93.9844 C167.2031 94.8594 167.5156 95.1719 168.0156 95.1719 C168.4688 95.1719 168.7969 94.9062 169.0156 94.5625 L168.9062 94.2812 Z" style="fill:black; stroke:none;"
      /><rect x="171" width="7" height="9" y="60" style="stroke:none;"
      /><path d="M172 65.5156 L174.9531 61.2656 L174.9531 65.5156 L172 65.5156 ZM177.2812 65.5156 L175.8594 65.5156 L175.8594 60.125 L175.2344 60.125 L171.3438 65.6406 L171.3438 66.1875 L174.9531 66.1875 L174.9531 69 L175.8594 69 L175.8594 66.1875 L177.2812 66.1875 L177.2812 65.5156 Z" style="fill:black; stroke:none;"
      /><rect x="156" width="6" height="13" y="50" style="stroke:none;"
      /><path d="M158.0938 56.2031 C158.0938 54.6562 158.75 53.8125 159.7969 53.8125 C160.7188 53.8125 161.2656 54.4531 161.2656 55.5156 C161.2656 56.7188 160.5 57.4375 159.1875 57.7031 L159.2969 58.3125 C161.2188 58.2344 161.9375 59.2188 161.9375 60.4375 C161.9375 61.625 161.2344 62.4219 159.9531 62.4219 C159.25 62.4219 158.6562 62.1562 158.0938 61.7188 L158.0938 56.2031 ZM157.2031 62.9062 L157.1094 65.375 L157.2656 65.4844 L158.1562 65.2656 L158.0156 62.0938 C158.5469 62.8438 159.3594 63.1719 160.1719 63.1719 C161.5625 63.1719 162.8594 62.2188 162.8594 60.4844 C162.8594 58.9531 161.875 58.1094 160.125 58 C161.5625 57.6094 162.1875 56.4531 162.1875 55.4844 C162.1875 54.0938 161.1562 53.3125 159.9062 53.3125 C158.2969 53.3125 157.2188 54.5469 157.2188 56.5156 L157.2031 62.9062 Z" style="fill:black; stroke:none;"
      /><rect x="230" width="7" height="9" y="104" style="stroke:none;"
      /><path d="M231 109.5156 L233.9531 105.2656 L233.9531 109.5156 L231 109.5156 ZM236.2812 109.5156 L234.8594 109.5156 L234.8594 104.125 L234.2344 104.125 L230.3438 109.6406 L230.3438 110.1875 L233.9531 110.1875 L233.9531 113 L234.8594 113 L234.8594 110.1875 L236.2812 110.1875 L236.2812 109.5156 Z" style="fill:black; stroke:none;"
      /><rect x="214" width="8" height="8" y="113" style="stroke:none;"
      /><path d="M218.9844 118.7031 C218.9375 119.8906 218.1562 120.6562 217.3125 120.6562 C216.2656 120.6562 215.5 119.6875 215.5 117.7188 C215.5 116.2812 216.1562 115.1562 217.3438 115.1562 C218.1406 115.1562 218.7812 115.6875 219.0938 116.6406 L218.9844 118.7031 ZM220.9062 120.2812 C220.7344 120.375 220.5469 120.4219 220.3438 120.4219 C219.9531 120.4219 219.75 120.2188 219.75 119.4219 C219.75 118.4844 219.9688 116.5312 220.1875 114.8281 L220.0312 114.7188 L219.2344 114.9219 L219.1406 115.7969 C218.7812 115.0312 218.1562 114.6562 217.3906 114.6562 C216.0469 114.6562 214.5625 115.8438 214.5625 117.9531 C214.5625 120.0938 215.7188 121.1719 217.1406 121.1719 C218.0156 121.1719 218.6875 120.8125 219.0938 119.9844 C219.2031 120.8594 219.5156 121.1719 220.0156 121.1719 C220.4688 121.1719 220.7969 120.9062 221.0156 120.5625 L220.9062 120.2812 Z" style="fill:black; stroke:none;"
      /><rect x="224" width="6" height="10" y="86" style="stroke:none;"
      /><path d="M225.9219 88.1406 L229.6562 88.1406 L229.6562 87.25 L225.4531 87.25 L225.1719 91.3125 L225.5156 91.3906 C225.9219 91.25 226.3906 91.1875 226.8125 91.1875 C228.0781 91.1875 228.9219 91.9531 228.9219 93.3906 C228.9219 94.7812 228.1719 95.6875 226.8281 95.6875 C226.5156 95.6875 226.2344 95.6406 225.9375 95.5625 L225.6875 94.7812 C225.5312 94.2188 225.3906 94.0469 225.0625 94.0469 C224.7969 94.0469 224.5938 94.1719 224.4844 94.4375 C224.7656 95.5938 225.625 96.1719 226.8906 96.1719 C228.7031 96.1719 229.875 94.9844 229.875 93.2812 C229.875 91.5312 228.75 90.5469 227.0938 90.5469 C226.6094 90.5469 226.1719 90.625 225.7344 90.7656 L225.9219 88.1406 Z" style="fill:black; stroke:none;"
      /><rect x="207" width="8" height="8" y="79" style="stroke:none;"
      /><path d="M211.9844 84.7031 C211.9375 85.8906 211.1562 86.6562 210.3125 86.6562 C209.2656 86.6562 208.5 85.6875 208.5 83.7188 C208.5 82.2812 209.1562 81.1562 210.3438 81.1562 C211.1406 81.1562 211.7812 81.6875 212.0938 82.6406 L211.9844 84.7031 ZM213.9062 86.2812 C213.7344 86.375 213.5469 86.4219 213.3438 86.4219 C212.9531 86.4219 212.75 86.2188 212.75 85.4219 C212.75 84.4844 212.9688 82.5312 213.1875 80.8281 L213.0312 80.7188 L212.2344 80.9219 L212.1406 81.7969 C211.7812 81.0312 211.1562 80.6562 210.3906 80.6562 C209.0469 80.6562 207.5625 81.8438 207.5625 83.9531 C207.5625 86.0938 208.7188 87.1719 210.1406 87.1719 C211.0156 87.1719 211.6875 86.8125 212.0938 85.9844 C212.2031 86.8594 212.5156 87.1719 213.0156 87.1719 C213.4688 87.1719 213.7969 86.9062 214.0156 86.5625 L213.9062 86.2812 Z" style="fill:black; stroke:none;"
      /><rect x="264" width="8" height="8" y="97" style="stroke:none;"
      /><path d="M268.9844 102.7031 C268.9375 103.8906 268.1562 104.6562 267.3125 104.6562 C266.2656 104.6562 265.5 103.6875 265.5 101.7188 C265.5 100.2812 266.1562 99.1562 267.3438 99.1562 C268.1406 99.1562 268.7812 99.6875 269.0938 100.6406 L268.9844 102.7031 ZM270.9062 104.2812 C270.7344 104.375 270.5469 104.4219 270.3438 104.4219 C269.9531 104.4219 269.75 104.2188 269.75 103.4219 C269.75 102.4844 269.9688 100.5312 270.1875 98.8281 L270.0312 98.7188 L269.2344 98.9219 L269.1406 99.7969 C268.7812 99.0312 268.1562 98.6562 267.3906 98.6562 C266.0469 98.6562 264.5625 99.8438 264.5625 101.9531 C264.5625 104.0938 265.7188 105.1719 267.1406 105.1719 C268.0156 105.1719 268.6875 104.8125 269.0938 103.9844 C269.2031 104.8594 269.5156 105.1719 270.0156 105.1719 C270.4688 105.1719 270.7969 104.9062 271.0156 104.5625 L270.9062 104.2812 Z" style="fill:black; stroke:none;"
    /></g
    ><g ID="legend-1:0" style="text-rendering:optimizeSpeed; font-size:10px; font-family:'SansSerif';"
    ><path style="stroke:none;" d="M30.875 145 L34.9062 145 L34.9062 144.2344 L33.4375 144.2344 L33.4375 137.6562 L32.7344 137.6562 C32.3281 137.9062 31.8594 138.0625 31.2031 138.1875 L31.2031 138.7656 L32.5156 138.7656 L32.5156 144.2344 L30.875 144.2344 L30.875 145 ZM35.925 140.4531 L40.7219 140.4531 L40.7219 139.7656 L35.925 139.7656 L35.925 140.4531 ZM35.925 142.8438 L40.7219 142.8438 L40.7219 142.1719 L35.925 142.1719 L35.925 142.8438 ZM42.1 145 L43.975 145 C46.1937 145 47.3969 143.625 47.3969 141.3125 C47.3969 138.9844 46.1937 137.6562 43.9437 137.6562 L42.1 137.6562 L42.1 145 ZM43.0375 144.2344 L43.0375 138.4219 L43.8656 138.4219 C45.5844 138.4219 46.4437 139.4531 46.4437 141.3125 C46.4437 143.1562 45.5844 144.2344 43.8656 144.2344 L43.0375 144.2344 ZM48.4231 142.5469 L50.9856 142.5469 L50.9856 141.8438 L48.4231 141.8438 L48.4231 142.5469 ZM54.19 147.5 C55.8775 147.5 56.94 146.625 56.94 145.625 C56.94 144.7344 56.2993 144.3281 55.0337 144.3281 L53.9868 144.3281 C53.2525 144.3281 53.0337 144.0938 53.0337 143.7344 C53.0337 143.4375 53.1743 143.2656 53.3775 143.0938 C53.6275 143.2031 53.9243 143.2812 54.19 143.2812 C55.2837 143.2812 56.1743 142.5469 56.1743 141.3906 C56.1743 140.9219 55.9868 140.5156 55.7368 140.2656 L56.8462 140.2656 L56.8462 139.5625 L54.9556 139.5625 C54.7525 139.5 54.4868 139.4375 54.19 139.4375 C53.0962 139.4375 52.1431 140.1875 52.1431 141.375 C52.1431 142.0156 52.5025 142.5469 52.8618 142.8281 L52.8618 142.875 C52.5806 143.0625 52.2525 143.4375 52.2525 143.875 C52.2525 144.3125 52.4556 144.5938 52.7525 144.7656 L52.7525 144.8125 C52.2368 145.1406 51.9556 145.5781 51.9556 146.0469 C51.9556 146.9844 52.8618 147.5 54.19 147.5 ZM54.19 142.6562 C53.565 142.6562 53.0337 142.1562 53.0337 141.375 C53.0337 140.5625 53.5493 140.0938 54.19 140.0938 C54.8306 140.0938 55.3462 140.5781 55.3462 141.375 C55.3462 142.1562 54.815 142.6562 54.19 142.6562 ZM54.315 146.875 C53.3462 146.875 52.7525 146.5 52.7525 145.9219 C52.7525 145.5938 52.9087 145.2812 53.2993 145 C53.5337 145.0625 53.7993 145.0938 54.0025 145.0938 L54.94 145.0938 C55.6587 145.0938 56.0493 145.2656 56.0493 145.7656 C56.0493 146.3281 55.3618 146.875 54.315 146.875 ZM57.9918 145 L58.8981 145 L58.8981 141.5156 C59.2575 140.5781 59.82 140.2656 60.2731 140.2656 C60.4918 140.2656 60.6168 140.2812 60.8043 140.3438 L60.9762 139.5469 C60.8043 139.4531 60.6325 139.4375 60.3825 139.4375 C59.7731 139.4375 59.2262 139.875 58.8512 140.5625 L58.82 140.5625 L58.7418 139.5625 L57.9918 139.5625 L57.9918 145 ZM63.9812 145.125 C65.3093 145.125 66.4968 144.0938 66.4968 142.2969 C66.4968 140.4844 65.3093 139.4375 63.9812 139.4375 C62.6531 139.4375 61.4656 140.4844 61.4656 142.2969 C61.4656 144.0938 62.6531 145.125 63.9812 145.125 ZM63.9812 144.375 C63.0437 144.375 62.4031 143.5469 62.4031 142.2969 C62.4031 141.0469 63.0437 140.1875 63.9812 140.1875 C64.9187 140.1875 65.5593 141.0469 65.5593 142.2969 C65.5593 143.5469 64.9187 144.375 63.9812 144.375 ZM67.4631 142.5469 L70.0256 142.5469 L70.0256 141.8438 L67.4631 141.8438 L67.4631 142.5469 ZM73.0893 145.125 C73.7924 145.125 74.3549 144.7656 74.7768 144.0312 L74.8081 144.0312 C74.7924 144.7969 75.2299 145.125 75.8862 145.125 C76.1987 145.125 76.4174 145.0625 76.5737 144.9844 L76.4331 144.2969 C76.3237 144.3438 76.1831 144.375 76.0737 144.375 C75.7768 144.375 75.5268 144.1875 75.5268 143.8125 C75.5268 142.8125 75.9174 141 76.2143 139.5625 L75.3081 139.5625 L75.0737 140.8594 L75.0424 140.8594 C74.7456 139.8125 74.0424 139.4375 73.3706 139.4375 C72.1206 139.4375 70.9956 140.5156 70.9956 142.375 C70.9956 144.1562 71.8549 145.125 73.0893 145.125 ZM73.2768 144.375 C72.4331 144.375 71.9331 143.6406 71.9331 142.375 C71.9331 140.9375 72.6831 140.2031 73.4643 140.2031 C73.9799 140.2031 74.5424 140.4688 74.8393 141.6562 L74.7612 142.6875 C74.6831 143.5938 73.9956 144.375 73.2768 144.375 ZM77.1831 142.5469 L79.7456 142.5469 L79.7456 141.8438 L77.1831 141.8438 L77.1831 142.5469 ZM81.2 145 L83.075 145 C85.2937 145 86.4968 143.625 86.4968 141.3125 C86.4968 138.9844 85.2937 137.6562 83.0437 137.6562 L81.2 137.6562 L81.2 145 ZM82.1375 144.2344 L82.1375 138.4219 L82.9656 138.4219 C84.6843 138.4219 85.5437 139.4531 85.5437 141.3125 C85.5437 143.1562 84.6843 144.2344 82.9656 144.2344 L82.1375 144.2344 ZM87.5231 142.5469 L90.0856 142.5469 L90.0856 141.8438 L87.5231 141.8438 L87.5231 142.5469 ZM93.1649 145.125 C93.4931 145.125 93.8524 145.0312 94.1649 144.9375 L93.9931 144.25 C93.8056 144.3125 93.5556 144.3906 93.3681 144.3906 C92.7431 144.3906 92.5243 144.0156 92.5243 143.3438 L92.5243 140.3125 L93.9931 140.3125 L93.9931 139.5625 L92.5243 139.5625 L92.5243 138.0469 L91.7743 138.0469 L91.6649 139.5625 L90.8056 139.625 L90.8056 140.3125 L91.6181 140.3125 L91.6181 143.3125 C91.6181 144.4062 92.0087 145.125 93.1649 145.125 ZM96.4818 145.125 C97.1537 145.125 97.7631 144.7812 98.2787 144.3438 L98.3099 144.3438 L98.3881 145 L99.1381 145 L99.1381 141.6562 C99.1381 140.3125 98.5756 139.4375 97.2631 139.4375 C96.3881 139.4375 95.6224 139.8125 95.1224 140.1406 L95.4818 140.7656 C95.9037 140.4844 96.4818 140.1875 97.1068 140.1875 C97.9974 140.1875 98.2318 140.8594 98.2318 141.5625 C95.9193 141.8125 94.8881 142.4062 94.8881 143.5938 C94.8881 144.5625 95.5756 145.125 96.4818 145.125 ZM96.7474 144.4062 C96.2006 144.4062 95.7787 144.1562 95.7787 143.5312 C95.7787 142.8281 96.4037 142.375 98.2318 142.1562 L98.2318 143.6875 C97.7006 144.1562 97.2631 144.4062 96.7474 144.4062 ZM101.8249 145.125 C102.0749 145.125 102.2312 145.0938 102.3562 145.0469 L102.2312 144.3438 C102.1374 144.375 102.0906 144.375 102.0437 144.375 C101.9031 144.375 101.7781 144.2656 101.7781 143.9844 L101.7781 137.0469 L100.8718 137.0469 L100.8718 143.9219 C100.8718 144.6875 101.1531 145.125 101.8249 145.125 ZM106.5031 145.125 C108.3468 145.125 109.6437 143.6562 109.6437 141.3125 C109.6437 138.9531 108.3468 137.5312 106.5031 137.5312 C104.6749 137.5312 103.3781 138.9531 103.3781 141.3125 C103.3781 143.6562 104.6749 145.125 106.5031 145.125 ZM106.5031 144.3125 C105.1906 144.3125 104.3312 143.1406 104.3312 141.3125 C104.3312 139.4688 105.1906 138.3438 106.5031 138.3438 C107.8156 138.3438 108.6906 139.4688 108.6906 141.3125 C108.6906 143.1406 107.8156 144.3125 106.5031 144.3125 ZM113.2824 145.125 C113.923 145.125 114.548 144.875 115.0324 144.4375 L114.6418 143.8281 C114.298 144.1406 113.8605 144.375 113.3605 144.375 C112.3605 144.375 111.673 143.5469 111.673 142.2969 C111.673 141.0469 112.4074 140.1875 113.3918 140.1875 C113.8137 140.1875 114.1574 140.3906 114.4699 140.6719 L114.9387 140.0625 C114.548 139.7344 114.0637 139.4375 113.3449 139.4375 C111.9543 139.4375 110.7355 140.4844 110.7355 142.2969 C110.7355 144.0938 111.8449 145.125 113.2824 145.125 ZM117.9349 145.125 C118.263 145.125 118.6224 145.0312 118.9349 144.9375 L118.763 144.25 C118.5755 144.3125 118.3255 144.3906 118.138 144.3906 C117.513 144.3906 117.2943 144.0156 117.2943 143.3438 L117.2943 140.3125 L118.763 140.3125 L118.763 139.5625 L117.2943 139.5625 L117.2943 138.0469 L116.5443 138.0469 L116.4349 139.5625 L115.5755 139.625 L115.5755 140.3125 L116.388 140.3125 L116.388 143.3125 C116.388 144.4062 116.7787 145.125 117.9349 145.125 ZM120.0018 147.2969 L120.908 147.2969 L120.908 145.4531 L120.8924 144.5 C121.3768 144.9062 121.8924 145.125 122.3924 145.125 C123.6424 145.125 124.7518 144.0625 124.7518 142.2031 C124.7518 140.5312 123.9862 139.4375 122.5955 139.4375 C121.9549 139.4375 121.3455 139.7969 120.8612 140.1875 L120.8299 140.1875 L120.7518 139.5625 L120.0018 139.5625 L120.0018 147.2969 ZM122.2362 144.375 C121.8768 144.375 121.3924 144.2188 120.908 143.7969 L120.908 140.9531 C121.4393 140.4531 121.908 140.2031 122.3768 140.2031 C123.3924 140.2031 123.7987 141.0156 123.7987 142.2031 C123.7987 143.5625 123.1424 144.375 122.2362 144.375 Z"
    /></g
  ></g
></svg
>
