<?xml version="1.0"?>
<!DOCTYPE svg PUBLIC '-//W3C//DTD SVG 1.0//EN'
          'http://www.w3.org/TR/2001/REC-SVG-20010904/DTD/svg10.dtd'>
<svg xmlns:xlink="http://www.w3.org/1999/xlink" style="fill-opacity:1; color-rendering:auto; color-interpolation:auto; text-rendering:auto; stroke:black; stroke-linecap:square; stroke-miterlimit:10; shape-rendering:auto; stroke-opacity:1; fill:black; stroke-dasharray:none; font-weight:normal; stroke-width:1; font-family:'Dialog'; font-style:normal; stroke-linejoin:miter; font-size:12px; stroke-dashoffset:0; image-rendering:auto;" viewBox="0 0 319 128" xmlns="http://www.w3.org/2000/svg"
><!--Generated by the Batik Graphics2D SVG Generator--><defs id="genericDefs"
  /><g
  ><defs id="defs1"
    ><clipPath clipPathUnits="userSpaceOnUse" id="clipPath1"
      ><path d="M223 64 C223 70.0751 218.0751 75 212 75 C205.9249 75 201 70.0751 201 64 C201 57.9249 205.9249 53 212 53 C218.0751 53 223 57.9249 223 64 Z"
      /></clipPath
      ><clipPath clipPathUnits="userSpaceOnUse" id="clipPath2"
      ><path d="M144 64 C144 70.0751 139.0751 75 133 75 C126.9249 75 122 70.0751 122 64 C122 57.9249 126.9249 53 133 53 C139.0751 53 144 57.9249 144 64 Z"
      /></clipPath
      ><clipPath clipPathUnits="userSpaceOnUse" id="clipPath3"
      ><path d="M65 64 C65 70.0751 60.0751 75 54 75 C47.9249 75 43 70.0751 43 64 C43 57.9249 47.9249 53 54 53 C60.0751 53 65 57.9249 65 64 Z"
      /></clipPath
    ></defs
    ><g style="fill:white; text-rendering:optimizeSpeed; stroke:white;"
    ><rect x="0" width="319" height="128" y="0" style="stroke:none;"
      /><polygon style="fill:none; stroke:black;" points=" 278 64 212 64"
      /><path d="M278 53 C272.5 58.5 283.5 69.5 278 75" style="fill:none; stroke:black;"
      /><polygon style="fill:none; stroke:black;" points=" 212 64 133 64"
      /><circle style="clip-path:url(#clipPath1); stroke:none;" r="11" cx="212" cy="64"
      /><rect x="201" y="53" width="22" style="clip-path:url(#clipPath1); fill:rgb(255,212,0); stroke:none;" height="22"
      /><rect x="201" y="53" width="22" style="clip-path:url(#clipPath1); fill:none; stroke:black;" height="22"
      /><circle style="fill:none; stroke:black;" r="11" cx="212" cy="64"
      /><rect x="200" y="81" width="22" style="stroke:none;" height="10"
    /></g
    ><g style="text-rendering:optimizeSpeed; font-size:14px; font-family:'SansSerif';"
    ><path style="stroke:none;" d="M200.6094 92 L207.0625 92 L207.0625 90.8906 L204.2344 90.8906 C203.7031 90.8906 203.0781 90.9531 202.5469 90.9844 C204.9531 88.7031 206.5625 86.625 206.5625 84.5781 C206.5625 82.75 205.4219 81.5469 203.5781 81.5469 C202.2812 81.5469 201.4062 82.1406 200.5625 83.0469 L201.2969 83.7812 C201.8594 83.1094 202.5938 82.5938 203.4375 82.5938 C204.7031 82.5938 205.3125 83.4531 205.3125 84.625 C205.3125 86.3906 203.8438 88.4375 200.6094 91.25 L200.6094 92 ZM210.9418 86.2656 C211.3168 85.0938 211.645 83.9844 211.9731 82.7812 L212.02 82.7812 C212.3637 83.9844 212.6762 85.0938 213.0668 86.2656 L213.5512 87.8281 L210.4418 87.8281 L210.9418 86.2656 ZM207.8168 92 L209.1293 92 L210.1293 88.8594 L213.8793 88.8594 L214.8481 92 L216.2231 92 L212.7387 81.7188 L211.3012 81.7188 L207.8168 92 ZM220.5492 92.1875 C221.4554 92.1875 222.3304 91.8281 223.0179 91.2188 L222.4554 90.3594 C221.9867 90.7969 221.3617 91.125 220.6586 91.125 C219.2679 91.125 218.3148 89.9531 218.3148 88.2031 C218.3148 86.4531 219.3148 85.2656 220.7054 85.2656 C221.3148 85.2656 221.7679 85.5469 222.2211 85.9375 L222.8773 85.0938 C222.3304 84.625 221.6429 84.2031 220.6429 84.2031 C218.7054 84.2031 216.9867 85.6719 216.9867 88.2031 C216.9867 90.7188 218.5336 92.1875 220.5492 92.1875 Z"
      /><rect x="188" y="35" width="22" style="fill:white; stroke:none;" height="10"
      /><path style="stroke:none;" d="M189.6094 42.1562 L191.9531 38.6562 C192.2344 38.1406 192.5156 37.6406 192.7812 37.1406 L192.8281 37.1406 C192.7969 37.6719 192.7656 38.5 192.7656 39 L192.7656 42.1562 L189.6094 42.1562 ZM192.7656 46 L193.9688 46 L193.9688 43.1719 L195.3281 43.1719 L195.3281 42.1562 L193.9688 42.1562 L193.9688 35.7188 L192.5469 35.7188 L188.2812 42.3281 L188.2812 43.1719 L192.7656 43.1719 L192.7656 46 ZM198.9418 40.2656 C199.3168 39.0938 199.645 37.9844 199.9731 36.7812 L200.02 36.7812 C200.3637 37.9844 200.6762 39.0938 201.0668 40.2656 L201.5512 41.8281 L198.4418 41.8281 L198.9418 40.2656 ZM195.8168 46 L197.1293 46 L198.1293 42.8594 L201.8793 42.8594 L202.8481 46 L204.2231 46 L200.7387 35.7188 L199.3012 35.7188 L195.8168 46 ZM208.5492 46.1875 C209.4554 46.1875 210.3304 45.8281 211.0179 45.2188 L210.4554 44.3594 C209.9867 44.7969 209.3617 45.125 208.6586 45.125 C207.2679 45.125 206.3148 43.9531 206.3148 42.2031 C206.3148 40.4531 207.3148 39.2656 208.7054 39.2656 C209.3148 39.2656 209.7679 39.5469 210.2211 39.9375 L210.8773 39.0938 C210.3304 38.625 209.6429 38.2031 208.6429 38.2031 C206.7054 38.2031 204.9867 39.6719 204.9867 42.2031 C204.9867 44.7188 206.5336 46.1875 208.5492 46.1875 Z"
      /><rect x="213" y="35" width="22" style="fill:white; stroke:none;" height="10"
      /><path style="stroke:none;" d="M217.1094 40.5781 C218.3438 40.5781 218.9688 41.4688 218.9688 42.8438 C218.9688 44.25 218.1875 45.1875 217.2188 45.1875 C215.9219 45.1875 215.1562 44.0312 215 41.8906 C215.625 40.9531 216.4531 40.5781 217.1094 40.5781 ZM217.2188 46.1875 C218.8125 46.1875 220.1562 44.8438 220.1562 42.8438 C220.1562 40.7031 219.0469 39.625 217.3125 39.625 C216.5 39.625 215.6094 40.1094 214.9688 40.875 C215.0312 37.6875 216.2188 36.6094 217.625 36.6094 C218.25 36.6094 218.8594 36.9062 219.2656 37.3906 L219.9688 36.5938 C219.4062 35.9844 218.6406 35.5469 217.5781 35.5469 C215.5938 35.5469 213.7812 37.0781 213.7812 41.0938 C213.7812 44.4844 215.2344 46.1875 217.2188 46.1875 ZM223.9418 40.2656 C224.3168 39.0938 224.645 37.9844 224.9731 36.7812 L225.02 36.7812 C225.3637 37.9844 225.6762 39.0938 226.0668 40.2656 L226.5512 41.8281 L223.4418 41.8281 L223.9418 40.2656 ZM220.8168 46 L222.1293 46 L223.1293 42.8594 L226.8793 42.8594 L227.8481 46 L229.2231 46 L225.7387 35.7188 L224.3012 35.7188 L220.8168 46 ZM233.5492 46.1875 C234.4554 46.1875 235.3304 45.8281 236.0179 45.2188 L235.4554 44.3594 C234.9867 44.7969 234.3617 45.125 233.6586 45.125 C232.2679 45.125 231.3148 43.9531 231.3148 42.2031 C231.3148 40.4531 232.3148 39.2656 233.7054 39.2656 C234.3148 39.2656 234.7679 39.5469 235.2211 39.9375 L235.8773 39.0938 C235.3304 38.625 234.6429 38.2031 233.6429 38.2031 C231.7054 38.2031 229.9867 39.6719 229.9867 42.2031 C229.9867 44.7188 231.5336 46.1875 233.5492 46.1875 Z"
      /><polygon style="fill:none;" points=" 133 64 54 64"
    /></g
    ><g style="fill:white; text-rendering:optimizeSpeed; stroke:white;"
    ><circle r="11" style="clip-path:url(#clipPath2); stroke:none;" cx="133" cy="64"
      /><rect x="122" y="53" width="22" style="clip-path:url(#clipPath2); fill:rgb(0,144,188); stroke:none;" height="22"
      /><rect x="122" y="53" width="22" style="clip-path:url(#clipPath2); fill:none; stroke:black;" height="22"
      /><circle r="11" style="fill:none; stroke:black;" cx="133" cy="64"
      /><rect x="121" width="22" height="10" y="81" style="stroke:none;"
    /></g
    ><g style="text-rendering:optimizeSpeed; font-size:14px; font-family:'SansSerif';"
    ><path style="stroke:none;" d="M121.6094 92 L128.0625 92 L128.0625 90.8906 L125.2344 90.8906 C124.7031 90.8906 124.0781 90.9531 123.5469 90.9844 C125.9531 88.7031 127.5625 86.625 127.5625 84.5781 C127.5625 82.75 126.4219 81.5469 124.5781 81.5469 C123.2812 81.5469 122.4062 82.1406 121.5625 83.0469 L122.2969 83.7812 C122.8594 83.1094 123.5938 82.5938 124.4375 82.5938 C125.7031 82.5938 126.3125 83.4531 126.3125 84.625 C126.3125 86.3906 124.8438 88.4375 121.6094 91.25 L121.6094 92 ZM131.9418 86.2656 C132.3168 85.0938 132.645 83.9844 132.9731 82.7812 L133.02 82.7812 C133.3637 83.9844 133.6762 85.0938 134.0668 86.2656 L134.5512 87.8281 L131.4418 87.8281 L131.9418 86.2656 ZM128.8168 92 L130.1293 92 L131.1293 88.8594 L134.8793 88.8594 L135.8481 92 L137.2231 92 L133.7387 81.7188 L132.3012 81.7188 L128.8168 92 ZM141.5492 92.1875 C142.4554 92.1875 143.3304 91.8281 144.0179 91.2188 L143.4554 90.3594 C142.9867 90.7969 142.3617 91.125 141.6586 91.125 C140.2679 91.125 139.3148 89.9531 139.3148 88.2031 C139.3148 86.4531 140.3148 85.2656 141.7054 85.2656 C142.3148 85.2656 142.7679 85.5469 143.2211 85.9375 L143.8773 85.0938 C143.3304 84.625 142.6429 84.2031 141.6429 84.2031 C139.7054 84.2031 137.9867 85.6719 137.9867 88.2031 C137.9867 90.7188 139.5336 92.1875 141.5492 92.1875 Z"
      /><rect x="109" y="35" width="22" style="fill:white; stroke:none;" height="10"
      /><path style="stroke:none;" d="M110.6094 42.1562 L112.9531 38.6562 C113.2344 38.1406 113.5156 37.6406 113.7812 37.1406 L113.8281 37.1406 C113.7969 37.6719 113.7656 38.5 113.7656 39 L113.7656 42.1562 L110.6094 42.1562 ZM113.7656 46 L114.9688 46 L114.9688 43.1719 L116.3281 43.1719 L116.3281 42.1562 L114.9688 42.1562 L114.9688 35.7188 L113.5469 35.7188 L109.2812 42.3281 L109.2812 43.1719 L113.7656 43.1719 L113.7656 46 ZM119.9418 40.2656 C120.3168 39.0938 120.645 37.9844 120.9731 36.7812 L121.02 36.7812 C121.3637 37.9844 121.6762 39.0938 122.0668 40.2656 L122.5512 41.8281 L119.4418 41.8281 L119.9418 40.2656 ZM116.8168 46 L118.1293 46 L119.1293 42.8594 L122.8793 42.8594 L123.8481 46 L125.2231 46 L121.7387 35.7188 L120.3012 35.7188 L116.8168 46 ZM129.5492 46.1875 C130.4554 46.1875 131.3304 45.8281 132.0179 45.2188 L131.4554 44.3594 C130.9867 44.7969 130.3617 45.125 129.6586 45.125 C128.2679 45.125 127.3148 43.9531 127.3148 42.2031 C127.3148 40.4531 128.3148 39.2656 129.7054 39.2656 C130.3148 39.2656 130.7679 39.5469 131.2211 39.9375 L131.8773 39.0938 C131.3304 38.625 130.6429 38.2031 129.6429 38.2031 C127.7054 38.2031 125.9867 39.6719 125.9867 42.2031 C125.9867 44.7188 127.5336 46.1875 129.5492 46.1875 Z"
      /><rect x="134" y="35" width="22" style="fill:white; stroke:none;" height="10"
      /><path style="stroke:none;" d="M138.1094 40.5781 C139.3438 40.5781 139.9688 41.4688 139.9688 42.8438 C139.9688 44.25 139.1875 45.1875 138.2188 45.1875 C136.9219 45.1875 136.1562 44.0312 136 41.8906 C136.625 40.9531 137.4531 40.5781 138.1094 40.5781 ZM138.2188 46.1875 C139.8125 46.1875 141.1562 44.8438 141.1562 42.8438 C141.1562 40.7031 140.0469 39.625 138.3125 39.625 C137.5 39.625 136.6094 40.1094 135.9688 40.875 C136.0312 37.6875 137.2188 36.6094 138.625 36.6094 C139.25 36.6094 139.8594 36.9062 140.2656 37.3906 L140.9688 36.5938 C140.4062 35.9844 139.6406 35.5469 138.5781 35.5469 C136.5938 35.5469 134.7812 37.0781 134.7812 41.0938 C134.7812 44.4844 136.2344 46.1875 138.2188 46.1875 ZM144.9418 40.2656 C145.3168 39.0938 145.645 37.9844 145.9731 36.7812 L146.02 36.7812 C146.3637 37.9844 146.6762 39.0938 147.0668 40.2656 L147.5512 41.8281 L144.4418 41.8281 L144.9418 40.2656 ZM141.8168 46 L143.1293 46 L144.1293 42.8594 L147.8793 42.8594 L148.8481 46 L150.2231 46 L146.7387 35.7188 L145.3012 35.7188 L141.8168 46 ZM154.5492 46.1875 C155.4554 46.1875 156.3304 45.8281 157.0179 45.2188 L156.4554 44.3594 C155.9867 44.7969 155.3617 45.125 154.6586 45.125 C153.2679 45.125 152.3148 43.9531 152.3148 42.2031 C152.3148 40.4531 153.3148 39.2656 154.7054 39.2656 C155.3148 39.2656 155.7679 39.5469 156.2211 39.9375 L156.8773 39.0938 C156.3304 38.625 155.6429 38.2031 154.6429 38.2031 C152.7054 38.2031 150.9867 39.6719 150.9867 42.2031 C150.9867 44.7188 152.5336 46.1875 154.5492 46.1875 Z"
    /></g
    ><g style="fill:white; text-rendering:optimizeSpeed; stroke:white;"
    ><circle r="11" style="clip-path:url(#clipPath3); stroke:none;" cx="54" cy="64"
      /><rect x="43" y="53" width="22" style="clip-path:url(#clipPath3); fill:rgb(255,212,0); stroke:none;" height="22"
      /><rect x="43" y="53" width="22" style="clip-path:url(#clipPath3); fill:none; stroke:black;" height="22"
      /><circle r="11" style="fill:none; stroke:black;" cx="54" cy="64"
      /><rect x="55" width="22" height="10" y="81" style="stroke:none;"
    /></g
    ><g style="text-rendering:optimizeSpeed; font-size:14px; font-family:'SansSerif';"
    ><path style="stroke:none;" d="M55.6094 92 L62.0625 92 L62.0625 90.8906 L59.2344 90.8906 C58.7031 90.8906 58.0781 90.9531 57.5469 90.9844 C59.9531 88.7031 61.5625 86.625 61.5625 84.5781 C61.5625 82.75 60.4219 81.5469 58.5781 81.5469 C57.2812 81.5469 56.4062 82.1406 55.5625 83.0469 L56.2969 83.7812 C56.8594 83.1094 57.5938 82.5938 58.4375 82.5938 C59.7031 82.5938 60.3125 83.4531 60.3125 84.625 C60.3125 86.3906 58.8438 88.4375 55.6094 91.25 L55.6094 92 ZM65.9418 86.2656 C66.3168 85.0938 66.645 83.9844 66.9731 82.7812 L67.02 82.7812 C67.3637 83.9844 67.6762 85.0938 68.0668 86.2656 L68.5512 87.8281 L65.4418 87.8281 L65.9418 86.2656 ZM62.8168 92 L64.1293 92 L65.1293 88.8594 L68.8793 88.8594 L69.8481 92 L71.2231 92 L67.7387 81.7188 L66.3012 81.7188 L62.8168 92 ZM75.5492 92.1875 C76.4554 92.1875 77.3304 91.8281 78.0179 91.2188 L77.4554 90.3594 C76.9867 90.7969 76.3617 91.125 75.6586 91.125 C74.2679 91.125 73.3148 89.9531 73.3148 88.2031 C73.3148 86.4531 74.3148 85.2656 75.7054 85.2656 C76.3148 85.2656 76.7679 85.5469 77.2211 85.9375 L77.8773 85.0938 C77.3304 84.625 76.6429 84.2031 75.6429 84.2031 C73.7054 84.2031 71.9867 85.6719 71.9867 88.2031 C71.9867 90.7188 73.5336 92.1875 75.5492 92.1875 Z"
      /><rect x="30" y="81" width="22" style="fill:white; stroke:none;" height="10"
      /><path style="stroke:none;" d="M33.7031 92.1875 C35.5156 92.1875 36.9844 91.0938 36.9844 89.25 C36.9844 87.8594 36.0156 86.9375 34.8125 86.6562 L34.8125 86.5938 C35.8906 86.1875 36.6406 85.3594 36.6406 84.125 C36.6406 82.5 35.375 81.5469 33.6562 81.5469 C32.4688 81.5469 31.5469 82.0625 30.7812 82.7812 L31.4688 83.5938 C32.0469 83 32.7656 82.5938 33.5938 82.5938 C34.6562 82.5938 35.3281 83.2344 35.3281 84.2188 C35.3281 85.3281 34.6094 86.1719 32.4844 86.1719 L32.4844 87.1562 C34.8594 87.1562 35.6875 87.9844 35.6875 89.2031 C35.6875 90.3906 34.8125 91.125 33.5938 91.125 C32.4375 91.125 31.6562 90.5781 31.0469 89.9375 L30.4062 90.7812 C31.0781 91.5156 32.0938 92.1875 33.7031 92.1875 ZM40.9418 86.2656 C41.3168 85.0938 41.645 83.9844 41.9731 82.7812 L42.02 82.7812 C42.3637 83.9844 42.6762 85.0938 43.0668 86.2656 L43.5512 87.8281 L40.4418 87.8281 L40.9418 86.2656 ZM37.8168 92 L39.1293 92 L40.1293 88.8594 L43.8793 88.8594 L44.8481 92 L46.2231 92 L42.7387 81.7188 L41.3012 81.7188 L37.8168 92 ZM50.5492 92.1875 C51.4554 92.1875 52.3304 91.8281 53.0179 91.2188 L52.4554 90.3594 C51.9867 90.7969 51.3617 91.125 50.6586 91.125 C49.2679 91.125 48.3148 89.9531 48.3148 88.2031 C48.3148 86.4531 49.3148 85.2656 50.7054 85.2656 C51.3148 85.2656 51.7679 85.5469 52.2211 85.9375 L52.8773 85.0938 C52.3304 84.625 51.6429 84.2031 50.6429 84.2031 C48.7054 84.2031 46.9867 85.6719 46.9867 88.2031 C46.9867 90.7188 48.5336 92.1875 50.5492 92.1875 Z"
      /><rect x="30" y="35" width="22" style="fill:white; stroke:none;" height="10"
      /><path style="stroke:none;" d="M31.6094 42.1562 L33.9531 38.6562 C34.2344 38.1406 34.5156 37.6406 34.7812 37.1406 L34.8281 37.1406 C34.7969 37.6719 34.7656 38.5 34.7656 39 L34.7656 42.1562 L31.6094 42.1562 ZM34.7656 46 L35.9688 46 L35.9688 43.1719 L37.3281 43.1719 L37.3281 42.1562 L35.9688 42.1562 L35.9688 35.7188 L34.5469 35.7188 L30.2812 42.3281 L30.2812 43.1719 L34.7656 43.1719 L34.7656 46 ZM40.9418 40.2656 C41.3168 39.0938 41.645 37.9844 41.9731 36.7812 L42.02 36.7812 C42.3637 37.9844 42.6762 39.0938 43.0668 40.2656 L43.5512 41.8281 L40.4418 41.8281 L40.9418 40.2656 ZM37.8168 46 L39.1293 46 L40.1293 42.8594 L43.8793 42.8594 L44.8481 46 L46.2231 46 L42.7387 35.7188 L41.3012 35.7188 L37.8168 46 ZM50.5492 46.1875 C51.4554 46.1875 52.3304 45.8281 53.0179 45.2188 L52.4554 44.3594 C51.9867 44.7969 51.3617 45.125 50.6586 45.125 C49.2679 45.125 48.3148 43.9531 48.3148 42.2031 C48.3148 40.4531 49.3148 39.2656 50.7054 39.2656 C51.3148 39.2656 51.7679 39.5469 52.2211 39.9375 L52.8773 39.0938 C52.3304 38.625 51.6429 38.2031 50.6429 38.2031 C48.7054 38.2031 46.9867 39.6719 46.9867 42.2031 C46.9867 44.7188 48.5336 46.1875 50.5492 46.1875 Z"
      /><rect x="55" y="35" width="22" style="fill:white; stroke:none;" height="10"
      /><path style="stroke:none;" d="M59.1094 40.5781 C60.3438 40.5781 60.9688 41.4688 60.9688 42.8438 C60.9688 44.25 60.1875 45.1875 59.2188 45.1875 C57.9219 45.1875 57.1562 44.0312 57 41.8906 C57.625 40.9531 58.4531 40.5781 59.1094 40.5781 ZM59.2188 46.1875 C60.8125 46.1875 62.1562 44.8438 62.1562 42.8438 C62.1562 40.7031 61.0469 39.625 59.3125 39.625 C58.5 39.625 57.6094 40.1094 56.9688 40.875 C57.0312 37.6875 58.2188 36.6094 59.625 36.6094 C60.25 36.6094 60.8594 36.9062 61.2656 37.3906 L61.9688 36.5938 C61.4062 35.9844 60.6406 35.5469 59.5781 35.5469 C57.5938 35.5469 55.7812 37.0781 55.7812 41.0938 C55.7812 44.4844 57.2344 46.1875 59.2188 46.1875 ZM65.9418 40.2656 C66.3168 39.0938 66.645 37.9844 66.9731 36.7812 L67.02 36.7812 C67.3637 37.9844 67.6762 39.0938 68.0668 40.2656 L68.5512 41.8281 L65.4418 41.8281 L65.9418 40.2656 ZM62.8168 46 L64.1293 46 L65.1293 42.8594 L68.8793 42.8594 L69.8481 46 L71.2231 46 L67.7387 35.7188 L66.3012 35.7188 L62.8168 46 ZM75.5492 46.1875 C76.4554 46.1875 77.3304 45.8281 78.0179 45.2188 L77.4554 44.3594 C76.9867 44.7969 76.3617 45.125 75.6586 45.125 C74.2679 45.125 73.3148 43.9531 73.3148 42.2031 C73.3148 40.4531 74.3148 39.2656 75.7054 39.2656 C76.3148 39.2656 76.7679 39.5469 77.2211 39.9375 L77.8773 39.0938 C77.3304 38.625 76.6429 38.2031 75.6429 38.2031 C73.7054 38.2031 71.9867 39.6719 71.9867 42.2031 C71.9867 44.7188 73.5336 46.1875 75.5492 46.1875 Z"
    /></g
    ><g style="fill:white; text-rendering:optimizeSpeed; font-family:'Serif'; stroke:white;"
    ><rect x="98" width="6" height="10" y="67" style="stroke:none;"
      /><path d="M100.2344 68.6562 C100.5156 68.5938 100.7656 68.5625 101.0156 68.5625 C102.0625 68.5625 102.6719 69.1719 102.6719 70.2656 C102.6719 71.4375 101.9062 72.1094 100.7031 72.1094 L100.1875 72.1094 L100.1875 72.6406 L100.7969 72.6406 C102.2188 72.6406 102.9062 73.4219 102.9062 74.6406 C102.9062 75.8438 102.1719 76.6875 100.875 76.6875 C100.6094 76.6875 100.3125 76.6562 100.0156 76.5625 L99.7812 75.8125 C99.625 75.2812 99.5 75.0469 99.1406 75.0469 C98.8906 75.0469 98.7031 75.1719 98.5781 75.4219 C98.8438 76.6406 99.7812 77.1719 101.0312 77.1719 C102.7188 77.1719 103.875 76.125 103.875 74.7031 C103.875 73.5 103.2031 72.625 101.7969 72.375 C102.9531 72.0156 103.6094 71.2031 103.6094 70.2031 C103.6094 68.9219 102.6719 68.0781 101.1875 68.0781 C100.0469 68.0781 99.0625 68.5938 98.7969 69.6875 C98.9062 70 99.1094 70.1094 99.3594 70.1094 C99.7344 70.1094 99.8906 69.8906 100 69.4062 L100.2344 68.6562 Z" style="fill:black; stroke:none;"
      /><rect x="84" width="6" height="13" y="65" style="stroke:none;"
      /><path d="M86.0938 71.2031 C86.0938 69.6562 86.75 68.8125 87.7969 68.8125 C88.7188 68.8125 89.2656 69.4531 89.2656 70.5156 C89.2656 71.7188 88.5 72.4375 87.1875 72.7031 L87.2969 73.3125 C89.2188 73.2344 89.9375 74.2188 89.9375 75.4375 C89.9375 76.625 89.2344 77.4219 87.9531 77.4219 C87.25 77.4219 86.6562 77.1562 86.0938 76.7188 L86.0938 71.2031 ZM85.2031 77.9062 L85.1094 80.375 L85.2656 80.4844 L86.1562 80.2656 L86.0156 77.0938 C86.5469 77.8438 87.3594 78.1719 88.1719 78.1719 C89.5625 78.1719 90.8594 77.2188 90.8594 75.4844 C90.8594 73.9531 89.875 73.1094 88.125 73 C89.5625 72.6094 90.1875 71.4531 90.1875 70.4844 C90.1875 69.0938 89.1562 68.3125 87.9062 68.3125 C86.2969 68.3125 85.2188 69.5469 85.2188 71.5156 L85.2031 77.9062 Z" style="fill:black; stroke:none;"
      /><rect x="177" width="6" height="10" y="67" style="stroke:none;"
      /><path d="M179.2344 68.6562 C179.5156 68.5938 179.7656 68.5625 180.0156 68.5625 C181.0625 68.5625 181.6719 69.1719 181.6719 70.2656 C181.6719 71.4375 180.9062 72.1094 179.7031 72.1094 L179.1875 72.1094 L179.1875 72.6406 L179.7969 72.6406 C181.2188 72.6406 181.9062 73.4219 181.9062 74.6406 C181.9062 75.8438 181.1719 76.6875 179.875 76.6875 C179.6094 76.6875 179.3125 76.6562 179.0156 76.5625 L178.7812 75.8125 C178.625 75.2812 178.5 75.0469 178.1406 75.0469 C177.8906 75.0469 177.7031 75.1719 177.5781 75.4219 C177.8438 76.6406 178.7812 77.1719 180.0312 77.1719 C181.7188 77.1719 182.875 76.125 182.875 74.7031 C182.875 73.5 182.2031 72.625 180.7969 72.375 C181.9531 72.0156 182.6094 71.2031 182.6094 70.2031 C182.6094 68.9219 181.6719 68.0781 180.1875 68.0781 C179.0469 68.0781 178.0625 68.5938 177.7969 69.6875 C177.9062 70 178.1094 70.1094 178.3594 70.1094 C178.7344 70.1094 178.8906 69.8906 179 69.4062 L179.2344 68.6562 Z" style="fill:black; stroke:none;"
      /><rect x="163" width="6" height="13" y="65" style="stroke:none;"
      /><path d="M165.0938 71.2031 C165.0938 69.6562 165.75 68.8125 166.7969 68.8125 C167.7188 68.8125 168.2656 69.4531 168.2656 70.5156 C168.2656 71.7188 167.5 72.4375 166.1875 72.7031 L166.2969 73.3125 C168.2188 73.2344 168.9375 74.2188 168.9375 75.4375 C168.9375 76.625 168.2344 77.4219 166.9531 77.4219 C166.25 77.4219 165.6562 77.1562 165.0938 76.7188 L165.0938 71.2031 ZM164.2031 77.9062 L164.1094 80.375 L164.2656 80.4844 L165.1562 80.2656 L165.0156 77.0938 C165.5469 77.8438 166.3594 78.1719 167.1719 78.1719 C168.5625 78.1719 169.8594 77.2188 169.8594 75.4844 C169.8594 73.9531 168.875 73.1094 167.125 73 C168.5625 72.6094 169.1875 71.4531 169.1875 70.4844 C169.1875 69.0938 168.1562 68.3125 166.9062 68.3125 C165.2969 68.3125 164.2188 69.5469 164.2188 71.5156 L164.2031 77.9062 Z" style="fill:black; stroke:none;"
      /><rect x="242" width="6" height="13" y="65" style="stroke:none;"
      /><path d="M244.0938 71.2031 C244.0938 69.6562 244.75 68.8125 245.7969 68.8125 C246.7188 68.8125 247.2656 69.4531 247.2656 70.5156 C247.2656 71.7188 246.5 72.4375 245.1875 72.7031 L245.2969 73.3125 C247.2188 73.2344 247.9375 74.2188 247.9375 75.4375 C247.9375 76.625 247.2344 77.4219 245.9531 77.4219 C245.25 77.4219 244.6562 77.1562 244.0938 76.7188 L244.0938 71.2031 ZM243.2031 77.9062 L243.1094 80.375 L243.2656 80.4844 L244.1562 80.2656 L244.0156 77.0938 C244.5469 77.8438 245.3594 78.1719 246.1719 78.1719 C247.5625 78.1719 248.8594 77.2188 248.8594 75.4844 C248.8594 73.9531 247.875 73.1094 246.125 73 C247.5625 72.6094 248.1875 71.4531 248.1875 70.4844 C248.1875 69.0938 247.1562 68.3125 245.9062 68.3125 C244.2969 68.3125 243.2188 69.5469 243.2188 71.5156 L243.2031 77.9062 Z" style="fill:black; stroke:none;"
    /></g
  ></g
></svg
>
