<?xml version="1.0"?>
<!DOCTYPE svg PUBLIC '-//W3C//DTD SVG 1.0//EN'
          'http://www.w3.org/TR/2001/REC-SVG-20010904/DTD/svg10.dtd'>
<svg xmlns:xlink="http://www.w3.org/1999/xlink" style="fill-opacity:1; color-rendering:auto; color-interpolation:auto; text-rendering:auto; stroke:black; stroke-linecap:square; stroke-miterlimit:10; shape-rendering:auto; stroke-opacity:1; fill:black; stroke-dasharray:none; font-weight:normal; stroke-width:1; font-family:'Dialog'; font-style:normal; stroke-linejoin:miter; font-size:12px; stroke-dashoffset:0; image-rendering:auto;" viewBox="0 0 446 342" xmlns="http://www.w3.org/2000/svg"
><!--Generated by the Batik Graphics2D SVG Generator--><defs id="genericDefs"
  /><g
  ><defs id="defs1"
    ><clipPath clipPathUnits="userSpaceOnUse" id="clipPath1"
      ><path d="M342 147 L364 147 L364 169 L342 169 L342 147 Z"
      /></clipPath
      ><clipPath clipPathUnits="userSpaceOnUse" id="clipPath2"
      ><path d="M290 147 L312 147 L312 169 L290 169 L290 147 Z"
      /></clipPath
      ><clipPath clipPathUnits="userSpaceOnUse" id="clipPath3"
      ><path d="M260 158 C260 164.0751 255.0751 169 249 169 C242.9249 169 238 164.0751 238 158 C238 151.9249 242.9249 147 249 147 C255.0751 147 260 151.9249 260 158 Z"
      /></clipPath
      ><clipPath clipPathUnits="userSpaceOnUse" id="clipPath4"
      ><path d="M208 223 C208 229.0751 203.0751 234 197 234 C190.9249 234 186 229.0751 186 223 C186 216.9249 190.9249 212 197 212 C203.0751 212 208 216.9249 208 223 Z"
      /></clipPath
      ><clipPath clipPathUnits="userSpaceOnUse" id="clipPath5"
      ><path d="M134 238 L156 238 L156 260 L134 260 L134 238 Z"
      /></clipPath
      ><clipPath clipPathUnits="userSpaceOnUse" id="clipPath6"
      ><path style="fill-rule:evenodd;" d="M145 290 L156 312 L134 312 Z"
      /></clipPath
      ><clipPath clipPathUnits="userSpaceOnUse" id="clipPath7"
      ><path d="M104 249 C104 255.0751 99.0751 260 93 260 C86.9249 260 82 255.0751 82 249 C82 242.9249 86.9249 238 93 238 C99.0751 238 104 242.9249 104 249 Z"
      /></clipPath
      ><clipPath clipPathUnits="userSpaceOnUse" id="clipPath8"
      ><path style="fill-rule:evenodd;" d="M41 238 L52 249 L41 260 L30 249 Z"
      /></clipPath
      ><clipPath clipPathUnits="userSpaceOnUse" id="clipPath9"
      ><path d="M134 186 L156 186 L156 208 L134 208 L134 186 Z"
      /></clipPath
      ><clipPath clipPathUnits="userSpaceOnUse" id="clipPath10"
      ><path d="M208 93 C208 99.0751 203.0751 104 197 104 C190.9249 104 186 99.0751 186 93 C186 86.9249 190.9249 82 197 82 C203.0751 82 208 86.9249 208 93 Z"
      /></clipPath
      ><clipPath clipPathUnits="userSpaceOnUse" id="clipPath11"
      ><path d="M134 134 L156 134 L156 156 L134 156 L134 134 Z"
      /></clipPath
      ><clipPath clipPathUnits="userSpaceOnUse" id="clipPath12"
      ><path d="M104 145 C104 151.0751 99.0751 156 93 156 C86.9249 156 82 151.0751 82 145 C82 138.9249 86.9249 134 93 134 C99.0751 134 104 138.9249 104 145 Z"
      /></clipPath
      ><clipPath clipPathUnits="userSpaceOnUse" id="clipPath13"
      ><path style="fill-rule:evenodd;" d="M41 134 L52 145 L41 156 L30 145 Z"
      /></clipPath
      ><clipPath clipPathUnits="userSpaceOnUse" id="clipPath14"
      ><path d="M134 30 L156 30 L156 52 L134 52 L134 30 Z"
      /></clipPath
      ><clipPath clipPathUnits="userSpaceOnUse" id="clipPath15"
      ><path style="fill-rule:evenodd;" d="M145 82 L156 104 L134 104 Z"
      /></clipPath
      ><clipPath clipPathUnits="userSpaceOnUse" id="clipPath16"
      ><path d="M104 41 C104 47.0751 99.0751 52 93 52 C86.9249 52 82 47.0751 82 41 C82 34.9249 86.9249 30 93 30 C99.0751 30 104 34.9249 104 41 Z"
      /></clipPath
      ><clipPath clipPathUnits="userSpaceOnUse" id="clipPath17"
      ><path style="fill-rule:evenodd;" d="M41 30 L52 41 L41 52 L30 41 Z"
      /></clipPath
      ><clipPath clipPathUnits="userSpaceOnUse" id="clipPath18"
      ><path style="fill-rule:evenodd;" d="M353 117 L342 95 L364 95 Z"
      /></clipPath
    ></defs
    ><g style="fill:white; text-rendering:optimizeSpeed; stroke:white;"
    ><rect x="0" width="446" height="342" y="0" style="stroke:none;"
      /><polygon style="fill:none; stroke:black;" points=" 405 158 353 158"
      /><path d="M405 147 C399.5 152.5 410.5 163.5 405 169" style="fill:none; stroke:black;"
      /><polygon style="fill:none; stroke:black;" points=" 353 158 301 158"
      /><polygon style="fill:none; stroke:black;" points=" 353 158 353 106"
      /><rect x="342" y="147" width="22" style="clip-path:url(#clipPath1); stroke:none;" height="22"
      /><rect x="342" y="147" width="22" style="clip-path:url(#clipPath1); fill:rgb(0,144,188); stroke:none;" height="22"
      /><rect x="342" y="147" width="22" style="clip-path:url(#clipPath1); fill:none; stroke:black;" height="22"
      /><rect x="342" y="147" width="22" style="fill:none; stroke:black;" height="22"
      /><polygon style="fill:none; stroke:black;" points=" 301 158 249 158"
      /><rect x="290" y="147" width="22" style="clip-path:url(#clipPath2); stroke:none;" height="22"
      /><rect x="290" y="147" width="22" style="clip-path:url(#clipPath2); fill:rgb(0,144,188); stroke:none;" height="22"
      /><rect x="290" y="147" width="22" style="clip-path:url(#clipPath2); fill:none; stroke:black;" height="22"
      /><rect x="290" y="147" width="22" style="fill:none; stroke:black;" height="22"
      /><polygon style="fill:none; stroke:black;" points=" 249 158 197 223"
      /><polygon style="fill:none; stroke:black;" points=" 249 158 197 93"
      /><circle style="clip-path:url(#clipPath3); stroke:none;" r="11" cx="249" cy="158"
      /><rect x="238" y="147" width="22" style="clip-path:url(#clipPath3); fill:rgb(0,166,81); stroke:none;" height="22"
      /><rect x="238" y="147" width="22" style="clip-path:url(#clipPath3); fill:none; stroke:black;" height="22"
      /><circle style="fill:none; stroke:black;" r="11" cx="249" cy="158"
      /><polygon style="fill:none; stroke:black;" points=" 197 223 145 249"
      /><polygon style="fill:none; stroke:black;" points=" 197 223 145 197"
      /><circle style="clip-path:url(#clipPath4); stroke:none;" r="11" cx="197" cy="223"
      /><rect x="186" y="212" width="22" style="clip-path:url(#clipPath4); fill:rgb(0,166,81); stroke:none;" height="22"
      /><rect x="186" y="212" width="22" style="clip-path:url(#clipPath4); fill:none; stroke:black;" height="22"
      /><circle style="fill:none; stroke:black;" r="11" cx="197" cy="223"
      /><polygon style="fill:none; stroke:black;" points=" 145 249 145 301"
      /><polygon style="fill:none; stroke:black;" points=" 145 249 93 249"
      /><rect x="134" y="238" width="22" style="clip-path:url(#clipPath5); stroke:none;" height="22"
      /><rect x="134" y="238" width="22" style="clip-path:url(#clipPath5); fill:rgb(0,144,188); stroke:none;" height="22"
      /><rect x="134" y="238" width="22" style="clip-path:url(#clipPath5); fill:none; stroke:black;" height="22"
      /><rect x="134" y="238" width="22" style="fill:none; stroke:black;" height="22"
      /><polygon style="clip-path:url(#clipPath6); stroke:none;" points=" 145 290 156 312 134 312"
      /><rect x="134" y="290" width="22" style="clip-path:url(#clipPath6); fill:rgb(237,28,36); stroke:none;" height="22"
      /><rect x="134" y="290" width="22" style="clip-path:url(#clipPath6); fill:none; stroke:black;" height="22"
      /><polygon style="fill:none; stroke:black;" points=" 145 290 156 312 134 312"
      /><polygon style="fill:none; stroke:black;" points=" 93 249 41 249"
      /><circle style="clip-path:url(#clipPath7); stroke:none;" r="11" cx="93" cy="249"
      /><rect x="82" y="238" width="22" style="clip-path:url(#clipPath7); fill:rgb(255,212,0); stroke:none;" height="22"
      /><rect x="82" y="238" width="22" style="clip-path:url(#clipPath7); fill:none; stroke:black;" height="22"
      /><circle style="fill:none; stroke:black;" r="11" cx="93" cy="249"
      /><polygon style="clip-path:url(#clipPath8); stroke:none;" points=" 41 238 52 249 41 260 30 249"
      /><rect x="30" y="238" width="22" style="clip-path:url(#clipPath8); fill:rgb(143,204,233); stroke:none;" height="22"
      /><rect x="30" y="238" width="22" style="clip-path:url(#clipPath8); fill:none; stroke:black;" height="22"
      /><polygon style="fill:none; stroke:black;" points=" 41 238 52 249 41 260 30 249"
      /><rect x="66" y="250" width="16" style="stroke:none;" height="13"
    /></g
    ><g style="font-family:'Serif'; text-rendering:optimizeSpeed; "
    ><path style="stroke:none;" d="M68.2344 254.6562 C68.5156 254.5938 68.7656 254.5625 69.0156 254.5625 C70.0625 254.5625 70.6719 255.1719 70.6719 256.2656 C70.6719 257.4375 69.9062 258.1094 68.7031 258.1094 L68.1875 258.1094 L68.1875 258.6406 L68.7969 258.6406 C70.2188 258.6406 70.9062 259.4219 70.9062 260.6406 C70.9062 261.8438 70.1719 262.6875 68.875 262.6875 C68.6094 262.6875 68.3125 262.6562 68.0156 262.5625 L67.7812 261.8125 C67.625 261.2812 67.5 261.0469 67.1406 261.0469 C66.8906 261.0469 66.7031 261.1719 66.5781 261.4219 C66.8438 262.6406 67.7812 263.1719 69.0312 263.1719 C70.7188 263.1719 71.875 262.125 71.875 260.7031 C71.875 259.5 71.2031 258.625 69.7969 258.375 C70.9531 258.0156 71.6094 257.2031 71.6094 256.2031 C71.6094 254.9219 70.6719 254.0781 69.1875 254.0781 C68.0469 254.0781 67.0625 254.5938 66.7969 255.6875 C66.9062 256 67.1094 256.1094 67.3594 256.1094 C67.7344 256.1094 67.8906 255.8906 68 255.4062 L68.2344 254.6562 ZM72.4993 265.0938 L73.1087 265.0938 L76.6087 253.7344 L75.9837 253.7344 L72.4993 265.0938 ZM79.9878 262.6875 C78.8472 262.6875 78.1753 261.5 78.1753 259.2969 C78.1753 259.2188 78.1753 259.125 78.1753 259.0469 C78.7378 258.5 79.3628 258.3125 79.9878 258.3125 C80.9566 258.3125 81.5972 258.9844 81.5972 260.4531 C81.5972 261.9375 80.9566 262.6875 79.9878 262.6875 ZM82.1753 254.0781 C78.9878 254.4531 77.2066 256.7656 77.2066 259.4531 C77.2066 261.7812 78.2534 263.1719 79.9566 263.1719 C81.4878 263.1719 82.5659 262.1094 82.5659 260.2812 C82.5659 258.6875 81.6128 257.6562 80.2066 257.6562 C79.4722 257.6562 78.7847 257.9844 78.2222 258.5781 C78.4409 256.4062 79.7222 254.9688 82.2378 254.3906 L82.1753 254.0781 Z"
      /><rect x="56" y="253" width="8" style="fill:white; stroke:none;" height="8"
      /><path style="stroke:none;" d="M60.9844 258.7031 C60.9375 259.8906 60.1562 260.6562 59.3125 260.6562 C58.2656 260.6562 57.5 259.6875 57.5 257.7188 C57.5 256.2812 58.1562 255.1562 59.3438 255.1562 C60.1406 255.1562 60.7812 255.6875 61.0938 256.6406 L60.9844 258.7031 ZM62.9062 260.2812 C62.7344 260.375 62.5469 260.4219 62.3438 260.4219 C61.9531 260.4219 61.75 260.2188 61.75 259.4219 C61.75 258.4844 61.9688 256.5312 62.1875 254.8281 L62.0312 254.7188 L61.2344 254.9219 L61.1406 255.7969 C60.7812 255.0312 60.1562 254.6562 59.3906 254.6562 C58.0469 254.6562 56.5625 255.8438 56.5625 257.9531 C56.5625 260.0938 57.7188 261.1719 59.1406 261.1719 C60.0156 261.1719 60.6875 260.8125 61.0938 259.9844 C61.2031 260.8594 61.5156 261.1719 62.0156 261.1719 C62.4688 261.1719 62.7969 260.9062 63.0156 260.5625 L62.9062 260.2812 Z"
      /><rect x="150" y="263" width="6" style="fill:white; stroke:none;" height="10"
      /><path style="stroke:none;" d="M152.2344 264.6562 C152.5156 264.5938 152.7656 264.5625 153.0156 264.5625 C154.0625 264.5625 154.6719 265.1719 154.6719 266.2656 C154.6719 267.4375 153.9062 268.1094 152.7031 268.1094 L152.1875 268.1094 L152.1875 268.6406 L152.7969 268.6406 C154.2188 268.6406 154.9062 269.4219 154.9062 270.6406 C154.9062 271.8438 154.1719 272.6875 152.875 272.6875 C152.6094 272.6875 152.3125 272.6562 152.0156 272.5625 L151.7812 271.8125 C151.625 271.2812 151.5 271.0469 151.1406 271.0469 C150.8906 271.0469 150.7031 271.1719 150.5781 271.4219 C150.8438 272.6406 151.7812 273.1719 153.0312 273.1719 C154.7188 273.1719 155.875 272.125 155.875 270.7031 C155.875 269.5 155.2031 268.625 153.7969 268.375 C154.9531 268.0156 155.6094 267.2031 155.6094 266.2031 C155.6094 264.9219 154.6719 264.0781 153.1875 264.0781 C152.0469 264.0781 151.0625 264.5938 150.7969 265.6875 C150.9062 266 151.1094 266.1094 151.3594 266.1094 C151.7344 266.1094 151.8906 265.8906 152 265.4062 L152.2344 264.6562 Z"
      /><rect x="149" y="278" width="8" style="fill:white; stroke:none;" height="8"
      /><path style="stroke:none;" d="M153.9844 283.7031 C153.9375 284.8906 153.1562 285.6562 152.3125 285.6562 C151.2656 285.6562 150.5 284.6875 150.5 282.7188 C150.5 281.2812 151.1562 280.1562 152.3438 280.1562 C153.1406 280.1562 153.7812 280.6875 154.0938 281.6406 L153.9844 283.7031 ZM155.9062 285.2812 C155.7344 285.375 155.5469 285.4219 155.3438 285.4219 C154.9531 285.4219 154.75 285.2188 154.75 284.4219 C154.75 283.4844 154.9688 281.5312 155.1875 279.8281 L155.0312 279.7188 L154.2344 279.9219 L154.1406 280.7969 C153.7812 280.0312 153.1562 279.6562 152.3906 279.6562 C151.0469 279.6562 149.5625 280.8438 149.5625 282.9531 C149.5625 285.0938 150.7188 286.1719 152.1406 286.1719 C153.0156 286.1719 153.6875 285.8125 154.0938 284.9844 C154.2031 285.8594 154.5156 286.1719 155.0156 286.1719 C155.4688 286.1719 155.7969 285.9062 156.0156 285.5625 L155.9062 285.2812 Z"
      /><rect x="122" y="252" width="7" style="fill:white; stroke:none;" height="9"
      /><path style="stroke:none;" d="M123 257.5156 L125.9531 253.2656 L125.9531 257.5156 L123 257.5156 ZM128.2812 257.5156 L126.8594 257.5156 L126.8594 252.125 L126.2344 252.125 L122.3438 257.6406 L122.3438 258.1875 L125.9531 258.1875 L125.9531 261 L126.8594 261 L126.8594 258.1875 L128.2812 258.1875 L128.2812 257.5156 Z"
      /><rect x="109" y="250" width="6" style="fill:white; stroke:none;" height="13"
      /><path style="stroke:none;" d="M111.0938 256.2031 C111.0938 254.6562 111.75 253.8125 112.7969 253.8125 C113.7188 253.8125 114.2656 254.4531 114.2656 255.5156 C114.2656 256.7188 113.5 257.4375 112.1875 257.7031 L112.2969 258.3125 C114.2188 258.2344 114.9375 259.2188 114.9375 260.4375 C114.9375 261.625 114.2344 262.4219 112.9531 262.4219 C112.25 262.4219 111.6562 262.1562 111.0938 261.7188 L111.0938 256.2031 ZM110.2031 262.9062 L110.1094 265.375 L110.2656 265.4844 L111.1562 265.2656 L111.0156 262.0938 C111.5469 262.8438 112.3594 263.1719 113.1719 263.1719 C114.5625 263.1719 115.8594 262.2188 115.8594 260.4844 C115.8594 258.9531 114.875 258.1094 113.125 258 C114.5625 257.6094 115.1875 256.4531 115.1875 255.4844 C115.1875 254.0938 114.1562 253.3125 112.9062 253.3125 C111.2969 253.3125 110.2188 254.5469 110.2188 256.5156 L110.2031 262.9062 Z"
      /><rect x="134" y="186" width="22" style="clip-path:url(#clipPath9); fill:white; stroke:none;" height="22"
      /><rect x="134" y="186" width="22" style="clip-path:url(#clipPath9); fill:rgb(0,144,188); stroke:none;" height="22"
      /><rect x="134" y="186" width="22" style="fill:none; clip-path:url(#clipPath9);" height="22"
      /><rect x="134" width="22" height="22" y="186" style="fill:none;"
      /><rect x="179" y="234" width="6" style="fill:white; stroke:none;" height="9"
      /><path style="stroke:none;" d="M180.4219 242.0938 C181.0781 241.375 181.7031 240.7188 182.0312 240.3438 C183.9219 238.3125 184.5312 237.4688 184.5312 236.3594 C184.5312 235.0156 183.7812 234.0781 182.1562 234.0781 C180.9062 234.0781 179.7969 234.7031 179.5938 235.9688 C179.7188 236.2031 179.9062 236.3438 180.1562 236.3438 C180.4688 236.3438 180.6562 236.1094 180.7969 235.5938 L181.0938 234.6719 C181.3906 234.5938 181.6562 234.5625 181.8906 234.5625 C182.9219 234.5625 183.5469 235.3125 183.5469 236.4219 C183.5469 237.4375 182.9844 238.4219 181.7031 239.9062 C181.125 240.5781 180.3906 241.4375 179.6406 242.2812 L179.6406 243 L184.9219 243 L184.9219 242.0938 L180.4219 242.0938 Z"
      /><rect x="163" y="240" width="6" style="fill:white; stroke:none;" height="13"
      /><path style="stroke:none;" d="M165.0938 246.2031 C165.0938 244.6562 165.75 243.8125 166.7969 243.8125 C167.7188 243.8125 168.2656 244.4531 168.2656 245.5156 C168.2656 246.7188 167.5 247.4375 166.1875 247.7031 L166.2969 248.3125 C168.2188 248.2344 168.9375 249.2188 168.9375 250.4375 C168.9375 251.625 168.2344 252.4219 166.9531 252.4219 C166.25 252.4219 165.6562 252.1562 165.0938 251.7188 L165.0938 246.2031 ZM164.2031 252.9062 L164.1094 255.375 L164.2656 255.4844 L165.1562 255.2656 L165.0156 252.0938 C165.5469 252.8438 166.3594 253.1719 167.1719 253.1719 C168.5625 253.1719 169.8594 252.2188 169.8594 250.4844 C169.8594 248.9531 168.875 248.1094 167.125 248 C168.5625 247.6094 169.1875 246.4531 169.1875 245.4844 C169.1875 244.0938 168.1562 243.3125 166.9062 243.3125 C165.2969 243.3125 164.2188 244.5469 164.2188 246.5156 L164.2031 252.9062 Z"
      /><rect x="171" y="216" width="7" style="fill:white; stroke:none;" height="9"
      /><path style="stroke:none;" d="M172 221.5156 L174.9531 217.2656 L174.9531 221.5156 L172 221.5156 ZM177.2812 221.5156 L175.8594 221.5156 L175.8594 216.125 L175.2344 216.125 L171.3438 221.6406 L171.3438 222.1875 L174.9531 222.1875 L174.9531 225 L175.8594 225 L175.8594 222.1875 L177.2812 222.1875 L177.2812 221.5156 Z"
      /><rect x="156" y="206" width="6" style="fill:white; stroke:none;" height="13"
      /><path style="stroke:none;" d="M158.0938 212.2031 C158.0938 210.6562 158.75 209.8125 159.7969 209.8125 C160.7188 209.8125 161.2656 210.4531 161.2656 211.5156 C161.2656 212.7188 160.5 213.4375 159.1875 213.7031 L159.2969 214.3125 C161.2188 214.2344 161.9375 215.2188 161.9375 216.4375 C161.9375 217.625 161.2344 218.4219 159.9531 218.4219 C159.25 218.4219 158.6562 218.1562 158.0938 217.7188 L158.0938 212.2031 ZM157.2031 218.9062 L157.1094 221.375 L157.2656 221.4844 L158.1562 221.2656 L158.0156 218.0938 C158.5469 218.8438 159.3594 219.1719 160.1719 219.1719 C161.5625 219.1719 162.8594 218.2188 162.8594 216.4844 C162.8594 214.9531 161.875 214.1094 160.125 214 C161.5625 213.6094 162.1875 212.4531 162.1875 211.4844 C162.1875 210.0938 161.1562 209.3125 159.9062 209.3125 C158.2969 209.3125 157.2188 210.5469 157.2188 212.5156 L157.2031 218.9062 Z"
      /><polygon style="fill:none;" points=" 197 93 145 145"
      /><polygon style="fill:none;" points=" 197 93 145 41"
      /><circle style="fill:white; clip-path:url(#clipPath10); stroke:none;" r="11" cx="197" cy="93"
      /><rect x="186" y="82" width="22" style="clip-path:url(#clipPath10); fill:rgb(0,166,81); stroke:none;" height="22"
      /><rect x="186" y="82" width="22" style="fill:none; clip-path:url(#clipPath10);" height="22"
      /><circle r="11" style="fill:none;" cx="197" cy="93"
      /><polygon style="fill:none;" points=" 145 145 93 145"
      /><rect x="134" y="134" width="22" style="clip-path:url(#clipPath11); fill:white; stroke:none;" height="22"
      /><rect x="134" y="134" width="22" style="clip-path:url(#clipPath11); fill:rgb(0,144,188); stroke:none;" height="22"
      /><rect x="134" y="134" width="22" style="fill:none; clip-path:url(#clipPath11);" height="22"
      /><rect x="134" width="22" height="22" y="134" style="fill:none;"
      /><polygon style="fill:none;" points=" 93 145 41 145"
      /><circle style="fill:white; clip-path:url(#clipPath12); stroke:none;" r="11" cx="93" cy="145"
      /><rect x="82" y="134" width="22" style="clip-path:url(#clipPath12); fill:rgb(255,212,0); stroke:none;" height="22"
      /><rect x="82" y="134" width="22" style="fill:none; clip-path:url(#clipPath12);" height="22"
      /><circle r="11" style="fill:none;" cx="93" cy="145"
      /><polygon style="fill:white; clip-path:url(#clipPath13); stroke:none;" points=" 41 134 52 145 41 156 30 145"
      /><rect x="30" y="134" width="22" style="clip-path:url(#clipPath13); fill:rgb(165,67,153); stroke:none;" height="22"
      /><rect x="30" y="134" width="22" style="fill:none; clip-path:url(#clipPath13);" height="22"
      /><polygon style="fill:none;" points=" 41 134 52 145 41 156 30 145"
      /><rect x="66" y="146" width="16" style="fill:white; stroke:none;" height="13"
      /><path style="stroke:none;" d="M68.2344 150.6562 C68.5156 150.5938 68.7656 150.5625 69.0156 150.5625 C70.0625 150.5625 70.6719 151.1719 70.6719 152.2656 C70.6719 153.4375 69.9062 154.1094 68.7031 154.1094 L68.1875 154.1094 L68.1875 154.6406 L68.7969 154.6406 C70.2188 154.6406 70.9062 155.4219 70.9062 156.6406 C70.9062 157.8438 70.1719 158.6875 68.875 158.6875 C68.6094 158.6875 68.3125 158.6562 68.0156 158.5625 L67.7812 157.8125 C67.625 157.2812 67.5 157.0469 67.1406 157.0469 C66.8906 157.0469 66.7031 157.1719 66.5781 157.4219 C66.8438 158.6406 67.7812 159.1719 69.0312 159.1719 C70.7188 159.1719 71.875 158.125 71.875 156.7031 C71.875 155.5 71.2031 154.625 69.7969 154.375 C70.9531 154.0156 71.6094 153.2031 71.6094 152.2031 C71.6094 150.9219 70.6719 150.0781 69.1875 150.0781 C68.0469 150.0781 67.0625 150.5938 66.7969 151.6875 C66.9062 152 67.1094 152.1094 67.3594 152.1094 C67.7344 152.1094 67.8906 151.8906 68 151.4062 L68.2344 150.6562 ZM72.4993 161.0938 L73.1087 161.0938 L76.6087 149.7344 L75.9837 149.7344 L72.4993 161.0938 ZM79.9878 158.6875 C78.8472 158.6875 78.1753 157.5 78.1753 155.2969 C78.1753 155.2188 78.1753 155.125 78.1753 155.0469 C78.7378 154.5 79.3628 154.3125 79.9878 154.3125 C80.9566 154.3125 81.5972 154.9844 81.5972 156.4531 C81.5972 157.9375 80.9566 158.6875 79.9878 158.6875 ZM82.1753 150.0781 C78.9878 150.4531 77.2066 152.7656 77.2066 155.4531 C77.2066 157.7812 78.2534 159.1719 79.9566 159.1719 C81.4878 159.1719 82.5659 158.1094 82.5659 156.2812 C82.5659 154.6875 81.6128 153.6562 80.2066 153.6562 C79.4722 153.6562 78.7847 153.9844 78.2222 154.5781 C78.4409 152.4062 79.7222 150.9688 82.2378 150.3906 L82.1753 150.0781 Z"
      /><rect x="56" y="149" width="8" style="fill:white; stroke:none;" height="8"
      /><path style="stroke:none;" d="M60.9844 154.7031 C60.9375 155.8906 60.1562 156.6562 59.3125 156.6562 C58.2656 156.6562 57.5 155.6875 57.5 153.7188 C57.5 152.2812 58.1562 151.1562 59.3438 151.1562 C60.1406 151.1562 60.7812 151.6875 61.0938 152.6406 L60.9844 154.7031 ZM62.9062 156.2812 C62.7344 156.375 62.5469 156.4219 62.3438 156.4219 C61.9531 156.4219 61.75 156.2188 61.75 155.4219 C61.75 154.4844 61.9688 152.5312 62.1875 150.8281 L62.0312 150.7188 L61.2344 150.9219 L61.1406 151.7969 C60.7812 151.0312 60.1562 150.6562 59.3906 150.6562 C58.0469 150.6562 56.5625 151.8438 56.5625 153.9531 C56.5625 156.0938 57.7188 157.1719 59.1406 157.1719 C60.0156 157.1719 60.6875 156.8125 61.0938 155.9844 C61.2031 156.8594 61.5156 157.1719 62.0156 157.1719 C62.4688 157.1719 62.7969 156.9062 63.0156 156.5625 L62.9062 156.2812 Z"
      /><rect x="122" y="148" width="7" style="fill:white; stroke:none;" height="9"
      /><path style="stroke:none;" d="M123 153.5156 L125.9531 149.2656 L125.9531 153.5156 L123 153.5156 ZM128.2812 153.5156 L126.8594 153.5156 L126.8594 148.125 L126.2344 148.125 L122.3438 153.6406 L122.3438 154.1875 L125.9531 154.1875 L125.9531 157 L126.8594 157 L126.8594 154.1875 L128.2812 154.1875 L128.2812 153.5156 Z"
      /><rect x="109" y="146" width="6" style="fill:white; stroke:none;" height="13"
      /><path style="stroke:none;" d="M111.0938 152.2031 C111.0938 150.6562 111.75 149.8125 112.7969 149.8125 C113.7188 149.8125 114.2656 150.4531 114.2656 151.5156 C114.2656 152.7188 113.5 153.4375 112.1875 153.7031 L112.2969 154.3125 C114.2188 154.2344 114.9375 155.2188 114.9375 156.4375 C114.9375 157.625 114.2344 158.4219 112.9531 158.4219 C112.25 158.4219 111.6562 158.1562 111.0938 157.7188 L111.0938 152.2031 ZM110.2031 158.9062 L110.1094 161.375 L110.2656 161.4844 L111.1562 161.2656 L111.0156 158.0938 C111.5469 158.8438 112.3594 159.1719 113.1719 159.1719 C114.5625 159.1719 115.8594 158.2188 115.8594 156.4844 C115.8594 154.9531 114.875 154.1094 113.125 154 C114.5625 153.6094 115.1875 152.4531 115.1875 151.4844 C115.1875 150.0938 114.1562 149.3125 112.9062 149.3125 C111.2969 149.3125 110.2188 150.5469 110.2188 152.5156 L110.2031 158.9062 Z"
      /><polygon style="fill:none;" points=" 145 41 145 93"
      /><polygon style="fill:none;" points=" 145 41 93 41"
      /><rect x="134" y="30" width="22" style="clip-path:url(#clipPath14); fill:white; stroke:none;" height="22"
      /><rect x="134" y="30" width="22" style="clip-path:url(#clipPath14); fill:rgb(0,144,188); stroke:none;" height="22"
      /><rect x="134" y="30" width="22" style="fill:none; clip-path:url(#clipPath14);" height="22"
      /><rect x="134" width="22" height="22" y="30" style="fill:none;"
      /><polygon style="fill:white; clip-path:url(#clipPath15); stroke:none;" points=" 145 82 156 104 134 104"
      /><rect x="134" y="82" width="22" style="clip-path:url(#clipPath15); fill:rgb(237,28,36); stroke:none;" height="22"
      /><rect x="134" y="82" width="22" style="fill:none; clip-path:url(#clipPath15);" height="22"
      /><polygon style="fill:none;" points=" 145 82 156 104 134 104"
      /><polygon style="fill:none;" points=" 93 41 41 41"
      /><circle style="fill:white; clip-path:url(#clipPath16); stroke:none;" r="11" cx="93" cy="41"
      /><rect x="82" y="30" width="22" style="clip-path:url(#clipPath16); fill:rgb(255,212,0); stroke:none;" height="22"
      /><rect x="82" y="30" width="22" style="fill:none; clip-path:url(#clipPath16);" height="22"
      /><circle r="11" style="fill:none;" cx="93" cy="41"
      /><polygon style="fill:white; clip-path:url(#clipPath17); stroke:none;" points=" 41 30 52 41 41 52 30 41"
      /><rect x="30" y="30" width="22" style="clip-path:url(#clipPath17); fill:rgb(165,67,153); stroke:none;" height="22"
      /><rect x="30" y="30" width="22" style="fill:none; clip-path:url(#clipPath17);" height="22"
      /><polygon style="fill:none;" points=" 41 30 52 41 41 52 30 41"
      /><rect x="66" y="42" width="16" style="fill:white; stroke:none;" height="13"
      /><path style="stroke:none;" d="M68.2344 46.6562 C68.5156 46.5938 68.7656 46.5625 69.0156 46.5625 C70.0625 46.5625 70.6719 47.1719 70.6719 48.2656 C70.6719 49.4375 69.9062 50.1094 68.7031 50.1094 L68.1875 50.1094 L68.1875 50.6406 L68.7969 50.6406 C70.2188 50.6406 70.9062 51.4219 70.9062 52.6406 C70.9062 53.8438 70.1719 54.6875 68.875 54.6875 C68.6094 54.6875 68.3125 54.6562 68.0156 54.5625 L67.7812 53.8125 C67.625 53.2812 67.5 53.0469 67.1406 53.0469 C66.8906 53.0469 66.7031 53.1719 66.5781 53.4219 C66.8438 54.6406 67.7812 55.1719 69.0312 55.1719 C70.7188 55.1719 71.875 54.125 71.875 52.7031 C71.875 51.5 71.2031 50.625 69.7969 50.375 C70.9531 50.0156 71.6094 49.2031 71.6094 48.2031 C71.6094 46.9219 70.6719 46.0781 69.1875 46.0781 C68.0469 46.0781 67.0625 46.5938 66.7969 47.6875 C66.9062 48 67.1094 48.1094 67.3594 48.1094 C67.7344 48.1094 67.8906 47.8906 68 47.4062 L68.2344 46.6562 ZM72.4993 57.0938 L73.1087 57.0938 L76.6087 45.7344 L75.9837 45.7344 L72.4993 57.0938 ZM79.9878 54.6875 C78.8472 54.6875 78.1753 53.5 78.1753 51.2969 C78.1753 51.2188 78.1753 51.125 78.1753 51.0469 C78.7378 50.5 79.3628 50.3125 79.9878 50.3125 C80.9566 50.3125 81.5972 50.9844 81.5972 52.4531 C81.5972 53.9375 80.9566 54.6875 79.9878 54.6875 ZM82.1753 46.0781 C78.9878 46.4531 77.2066 48.7656 77.2066 51.4531 C77.2066 53.7812 78.2534 55.1719 79.9566 55.1719 C81.4878 55.1719 82.5659 54.1094 82.5659 52.2812 C82.5659 50.6875 81.6128 49.6562 80.2066 49.6562 C79.4722 49.6562 78.7847 49.9844 78.2222 50.5781 C78.4409 48.4062 79.7222 46.9688 82.2378 46.3906 L82.1753 46.0781 Z"
      /><rect x="56" y="45" width="8" style="fill:white; stroke:none;" height="8"
      /><path style="stroke:none;" d="M60.9844 50.7031 C60.9375 51.8906 60.1562 52.6562 59.3125 52.6562 C58.2656 52.6562 57.5 51.6875 57.5 49.7188 C57.5 48.2812 58.1562 47.1562 59.3438 47.1562 C60.1406 47.1562 60.7812 47.6875 61.0938 48.6406 L60.9844 50.7031 ZM62.9062 52.2812 C62.7344 52.375 62.5469 52.4219 62.3438 52.4219 C61.9531 52.4219 61.75 52.2188 61.75 51.4219 C61.75 50.4844 61.9688 48.5312 62.1875 46.8281 L62.0312 46.7188 L61.2344 46.9219 L61.1406 47.7969 C60.7812 47.0312 60.1562 46.6562 59.3906 46.6562 C58.0469 46.6562 56.5625 47.8438 56.5625 49.9531 C56.5625 52.0938 57.7188 53.1719 59.1406 53.1719 C60.0156 53.1719 60.6875 52.8125 61.0938 51.9844 C61.2031 52.8594 61.5156 53.1719 62.0156 53.1719 C62.4688 53.1719 62.7969 52.9062 63.0156 52.5625 L62.9062 52.2812 Z"
      /><rect x="150" y="55" width="6" style="fill:white; stroke:none;" height="10"
      /><path style="stroke:none;" d="M152.2344 56.6562 C152.5156 56.5938 152.7656 56.5625 153.0156 56.5625 C154.0625 56.5625 154.6719 57.1719 154.6719 58.2656 C154.6719 59.4375 153.9062 60.1094 152.7031 60.1094 L152.1875 60.1094 L152.1875 60.6406 L152.7969 60.6406 C154.2188 60.6406 154.9062 61.4219 154.9062 62.6406 C154.9062 63.8438 154.1719 64.6875 152.875 64.6875 C152.6094 64.6875 152.3125 64.6562 152.0156 64.5625 L151.7812 63.8125 C151.625 63.2812 151.5 63.0469 151.1406 63.0469 C150.8906 63.0469 150.7031 63.1719 150.5781 63.4219 C150.8438 64.6406 151.7812 65.1719 153.0312 65.1719 C154.7188 65.1719 155.875 64.125 155.875 62.7031 C155.875 61.5 155.2031 60.625 153.7969 60.375 C154.9531 60.0156 155.6094 59.2031 155.6094 58.2031 C155.6094 56.9219 154.6719 56.0781 153.1875 56.0781 C152.0469 56.0781 151.0625 56.5938 150.7969 57.6875 C150.9062 58 151.1094 58.1094 151.3594 58.1094 C151.7344 58.1094 151.8906 57.8906 152 57.4062 L152.2344 56.6562 Z"
      /><rect x="149" y="70" width="8" style="fill:white; stroke:none;" height="8"
      /><path style="stroke:none;" d="M153.9844 75.7031 C153.9375 76.8906 153.1562 77.6562 152.3125 77.6562 C151.2656 77.6562 150.5 76.6875 150.5 74.7188 C150.5 73.2812 151.1562 72.1562 152.3438 72.1562 C153.1406 72.1562 153.7812 72.6875 154.0938 73.6406 L153.9844 75.7031 ZM155.9062 77.2812 C155.7344 77.375 155.5469 77.4219 155.3438 77.4219 C154.9531 77.4219 154.75 77.2188 154.75 76.4219 C154.75 75.4844 154.9688 73.5312 155.1875 71.8281 L155.0312 71.7188 L154.2344 71.9219 L154.1406 72.7969 C153.7812 72.0312 153.1562 71.6562 152.3906 71.6562 C151.0469 71.6562 149.5625 72.8438 149.5625 74.9531 C149.5625 77.0938 150.7188 78.1719 152.1406 78.1719 C153.0156 78.1719 153.6875 77.8125 154.0938 76.9844 C154.2031 77.8594 154.5156 78.1719 155.0156 78.1719 C155.4688 78.1719 155.7969 77.9062 156.0156 77.5625 L155.9062 77.2812 Z"
      /><rect x="122" y="44" width="7" style="fill:white; stroke:none;" height="9"
      /><path style="stroke:none;" d="M123 49.5156 L125.9531 45.2656 L125.9531 49.5156 L123 49.5156 ZM128.2812 49.5156 L126.8594 49.5156 L126.8594 44.125 L126.2344 44.125 L122.3438 49.6406 L122.3438 50.1875 L125.9531 50.1875 L125.9531 53 L126.8594 53 L126.8594 50.1875 L128.2812 50.1875 L128.2812 49.5156 Z"
      /><rect x="109" y="42" width="6" style="fill:white; stroke:none;" height="13"
      /><path style="stroke:none;" d="M111.0938 48.2031 C111.0938 46.6562 111.75 45.8125 112.7969 45.8125 C113.7188 45.8125 114.2656 46.4531 114.2656 47.5156 C114.2656 48.7188 113.5 49.4375 112.1875 49.7031 L112.2969 50.3125 C114.2188 50.2344 114.9375 51.2188 114.9375 52.4375 C114.9375 53.625 114.2344 54.4219 112.9531 54.4219 C112.25 54.4219 111.6562 54.1562 111.0938 53.7188 L111.0938 48.2031 ZM110.2031 54.9062 L110.1094 57.375 L110.2656 57.4844 L111.1562 57.2656 L111.0156 54.0938 C111.5469 54.8438 112.3594 55.1719 113.1719 55.1719 C114.5625 55.1719 115.8594 54.2188 115.8594 52.4844 C115.8594 50.9531 114.875 50.1094 113.125 50 C114.5625 49.6094 115.1875 48.4531 115.1875 47.4844 C115.1875 46.0938 114.1562 45.3125 112.9062 45.3125 C111.2969 45.3125 110.2188 46.5469 110.2188 48.5156 L110.2031 54.9062 Z"
      /><rect x="183" y="110" width="6" style="fill:white; stroke:none;" height="9"
      /><path style="stroke:none;" d="M184.4219 118.0938 C185.0781 117.375 185.7031 116.7188 186.0312 116.3438 C187.9219 114.3125 188.5312 113.4688 188.5312 112.3594 C188.5312 111.0156 187.7812 110.0781 186.1562 110.0781 C184.9062 110.0781 183.7969 110.7031 183.5938 111.9688 C183.7188 112.2031 183.9062 112.3438 184.1562 112.3438 C184.4688 112.3438 184.6562 112.1094 184.7969 111.5938 L185.0938 110.6719 C185.3906 110.5938 185.6562 110.5625 185.8906 110.5625 C186.9219 110.5625 187.5469 111.3125 187.5469 112.4219 C187.5469 113.4375 186.9844 114.4219 185.7031 115.9062 C185.125 116.5781 184.3906 117.4375 183.6406 118.2812 L183.6406 119 L188.9219 119 L188.9219 118.0938 L184.4219 118.0938 Z"
      /><rect x="164" y="127" width="6" style="fill:white; stroke:none;" height="13"
      /><path style="stroke:none;" d="M166.0938 133.2031 C166.0938 131.6562 166.75 130.8125 167.7969 130.8125 C168.7188 130.8125 169.2656 131.4531 169.2656 132.5156 C169.2656 133.7188 168.5 134.4375 167.1875 134.7031 L167.2969 135.3125 C169.2188 135.2344 169.9375 136.2188 169.9375 137.4375 C169.9375 138.625 169.2344 139.4219 167.9531 139.4219 C167.25 139.4219 166.6562 139.1562 166.0938 138.7188 L166.0938 133.2031 ZM165.2031 139.9062 L165.1094 142.375 L165.2656 142.4844 L166.1562 142.2656 L166.0156 139.0938 C166.5469 139.8438 167.3594 140.1719 168.1719 140.1719 C169.5625 140.1719 170.8594 139.2188 170.8594 137.4844 C170.8594 135.9531 169.875 135.1094 168.125 135 C169.5625 134.6094 170.1875 133.4531 170.1875 132.4844 C170.1875 131.0938 169.1562 130.3125 167.9062 130.3125 C166.2969 130.3125 165.2188 131.5469 165.2188 133.5156 L165.2031 139.9062 Z"
      /><rect x="171" y="77" width="6" style="fill:white; stroke:none;" height="10"
      /><path style="stroke:none;" d="M174.3438 86.6875 C173.2031 86.6875 172.5312 85.5 172.5312 83.2969 C172.5312 83.2188 172.5312 83.125 172.5312 83.0469 C173.0938 82.5 173.7188 82.3125 174.3438 82.3125 C175.3125 82.3125 175.9531 82.9844 175.9531 84.4531 C175.9531 85.9375 175.3125 86.6875 174.3438 86.6875 ZM176.5312 78.0781 C173.3438 78.4531 171.5625 80.7656 171.5625 83.4531 C171.5625 85.7812 172.6094 87.1719 174.3125 87.1719 C175.8438 87.1719 176.9219 86.1094 176.9219 84.2812 C176.9219 82.6875 175.9688 81.6562 174.5625 81.6562 C173.8281 81.6562 173.1406 81.9844 172.5781 82.5781 C172.7969 80.4062 174.0781 78.9688 176.5938 78.3906 L176.5312 78.0781 Z"
      /><rect x="153" y="56" width="6" style="fill:white; stroke:none;" height="13"
      /><path style="stroke:none;" d="M155.0938 62.2031 C155.0938 60.6562 155.75 59.8125 156.7969 59.8125 C157.7188 59.8125 158.2656 60.4531 158.2656 61.5156 C158.2656 62.7188 157.5 63.4375 156.1875 63.7031 L156.2969 64.3125 C158.2188 64.2344 158.9375 65.2188 158.9375 66.4375 C158.9375 67.625 158.2344 68.4219 156.9531 68.4219 C156.25 68.4219 155.6562 68.1562 155.0938 67.7188 L155.0938 62.2031 ZM154.2031 68.9062 L154.1094 71.375 L154.2656 71.4844 L155.1562 71.2656 L155.0156 68.0938 C155.5469 68.8438 156.3594 69.1719 157.1719 69.1719 C158.5625 69.1719 159.8594 68.2188 159.8594 66.4844 C159.8594 64.9531 158.875 64.1094 157.125 64 C158.5625 63.6094 159.1875 62.4531 159.1875 61.4844 C159.1875 60.0938 158.1562 59.3125 156.9062 59.3125 C155.2969 59.3125 154.2188 60.5469 154.2188 62.5156 L154.2031 68.9062 Z"
      /><rect x="238" y="175" width="6" style="fill:white; stroke:none;" height="10"
      /><path style="stroke:none;" d="M240.2344 176.6562 C240.5156 176.5938 240.7656 176.5625 241.0156 176.5625 C242.0625 176.5625 242.6719 177.1719 242.6719 178.2656 C242.6719 179.4375 241.9062 180.1094 240.7031 180.1094 L240.1875 180.1094 L240.1875 180.6406 L240.7969 180.6406 C242.2188 180.6406 242.9062 181.4219 242.9062 182.6406 C242.9062 183.8438 242.1719 184.6875 240.875 184.6875 C240.6094 184.6875 240.3125 184.6562 240.0156 184.5625 L239.7812 183.8125 C239.625 183.2812 239.5 183.0469 239.1406 183.0469 C238.8906 183.0469 238.7031 183.1719 238.5781 183.4219 C238.8438 184.6406 239.7812 185.1719 241.0312 185.1719 C242.7188 185.1719 243.875 184.125 243.875 182.7031 C243.875 181.5 243.2031 180.625 241.7969 180.375 C242.9531 180.0156 243.6094 179.2031 243.6094 178.2031 C243.6094 176.9219 242.6719 176.0781 241.1875 176.0781 C240.0469 176.0781 239.0625 176.5938 238.7969 177.6875 C238.9062 178 239.1094 178.1094 239.3594 178.1094 C239.7344 178.1094 239.8906 177.8906 240 177.4062 L240.2344 176.6562 Z"
      /><rect x="213" y="206" width="8" style="fill:white; stroke:none;" height="8"
      /><path style="stroke:none;" d="M217.9844 211.7031 C217.9375 212.8906 217.1562 213.6562 216.3125 213.6562 C215.2656 213.6562 214.5 212.6875 214.5 210.7188 C214.5 209.2812 215.1562 208.1562 216.3438 208.1562 C217.1406 208.1562 217.7812 208.6875 218.0938 209.6406 L217.9844 211.7031 ZM219.9062 213.2812 C219.7344 213.375 219.5469 213.4219 219.3438 213.4219 C218.9531 213.4219 218.75 213.2188 218.75 212.4219 C218.75 211.4844 218.9688 209.5312 219.1875 207.8281 L219.0312 207.7188 L218.2344 207.9219 L218.1406 208.7969 C217.7812 208.0312 217.1562 207.6562 216.3906 207.6562 C215.0469 207.6562 213.5625 208.8438 213.5625 210.9531 C213.5625 213.0938 214.7188 214.1719 216.1406 214.1719 C217.0156 214.1719 217.6875 213.8125 218.0938 212.9844 C218.2031 213.8594 218.5156 214.1719 219.0156 214.1719 C219.4688 214.1719 219.7969 213.9062 220.0156 213.5625 L219.9062 213.2812 Z"
      /><rect x="225" y="140" width="6" style="fill:white; stroke:none;" height="10"
      /><path style="stroke:none;" d="M228.3438 149.6875 C227.2031 149.6875 226.5312 148.5 226.5312 146.2969 C226.5312 146.2188 226.5312 146.125 226.5312 146.0469 C227.0938 145.5 227.7188 145.3125 228.3438 145.3125 C229.3125 145.3125 229.9531 145.9844 229.9531 147.4531 C229.9531 148.9375 229.3125 149.6875 228.3438 149.6875 ZM230.5312 141.0781 C227.3438 141.4531 225.5625 143.7656 225.5625 146.4531 C225.5625 148.7812 226.6094 150.1719 228.3125 150.1719 C229.8438 150.1719 230.9219 149.1094 230.9219 147.2812 C230.9219 145.6875 229.9688 144.6562 228.5625 144.6562 C227.8281 144.6562 227.1406 144.9844 226.5781 145.5781 C226.7969 143.4062 228.0781 141.9688 230.5938 141.3906 L230.5312 141.0781 Z"
      /><rect x="200" y="111" width="8" style="fill:white; stroke:none;" height="8"
      /><path style="stroke:none;" d="M204.9844 116.7031 C204.9375 117.8906 204.1562 118.6562 203.3125 118.6562 C202.2656 118.6562 201.5 117.6875 201.5 115.7188 C201.5 114.2812 202.1562 113.1562 203.3438 113.1562 C204.1406 113.1562 204.7812 113.6875 205.0938 114.6406 L204.9844 116.7031 ZM206.9062 118.2812 C206.7344 118.375 206.5469 118.4219 206.3438 118.4219 C205.9531 118.4219 205.75 118.2188 205.75 117.4219 C205.75 116.4844 205.9688 114.5312 206.1875 112.8281 L206.0312 112.7188 L205.2344 112.9219 L205.1406 113.7969 C204.7812 113.0312 204.1562 112.6562 203.3906 112.6562 C202.0469 112.6562 200.5625 113.8438 200.5625 115.9531 C200.5625 118.0938 201.7188 119.1719 203.1406 119.1719 C204.0156 119.1719 204.6875 118.8125 205.0938 117.9844 C205.2031 118.8594 205.5156 119.1719 206.0156 119.1719 C206.4688 119.1719 206.7969 118.9062 207.0156 118.5625 L206.9062 118.2812 Z"
      /><rect x="278" y="161" width="7" style="fill:white; stroke:none;" height="9"
      /><path style="stroke:none;" d="M279 166.5156 L281.9531 162.2656 L281.9531 166.5156 L279 166.5156 ZM284.2812 166.5156 L282.8594 166.5156 L282.8594 161.125 L282.2344 161.125 L278.3438 166.6406 L278.3438 167.1875 L281.9531 167.1875 L281.9531 170 L282.8594 170 L282.8594 167.1875 L284.2812 167.1875 L284.2812 166.5156 Z"
      /><rect x="265" y="159" width="6" style="fill:white; stroke:none;" height="13"
      /><path style="stroke:none;" d="M267.0938 165.2031 C267.0938 163.6562 267.75 162.8125 268.7969 162.8125 C269.7188 162.8125 270.2656 163.4531 270.2656 164.5156 C270.2656 165.7188 269.5 166.4375 268.1875 166.7031 L268.2969 167.3125 C270.2188 167.2344 270.9375 168.2188 270.9375 169.4375 C270.9375 170.625 270.2344 171.4219 268.9531 171.4219 C268.25 171.4219 267.6562 171.1562 267.0938 170.7188 L267.0938 165.2031 ZM266.2031 171.9062 L266.1094 174.375 L266.2656 174.4844 L267.1562 174.2656 L267.0156 171.0938 C267.5469 171.8438 268.3594 172.1719 269.1719 172.1719 C270.5625 172.1719 271.8594 171.2188 271.8594 169.4844 C271.8594 167.9531 270.875 167.1094 269.125 167 C270.5625 166.6094 271.1875 165.4531 271.1875 164.4844 C271.1875 163.0938 270.1562 162.3125 268.9062 162.3125 C267.2969 162.3125 266.2188 163.5469 266.2188 165.5156 L266.2031 171.9062 Z"
      /><polygon style="fill:white; clip-path:url(#clipPath18); stroke:none;" points=" 353 117 342 95 364 95"
      /><rect x="342" y="95" width="22" style="clip-path:url(#clipPath18); fill:rgb(237,28,36); stroke:none;" height="22"
      /><rect x="342" y="95" width="22" style="fill:none; clip-path:url(#clipPath18);" height="22"
      /><polygon style="fill:none;" points=" 353 117 342 95 364 95"
      /><rect x="330" y="161" width="7" style="fill:white; stroke:none;" height="9"
      /><path style="stroke:none;" d="M331 166.5156 L333.9531 162.2656 L333.9531 166.5156 L331 166.5156 ZM336.2812 166.5156 L334.8594 166.5156 L334.8594 161.125 L334.2344 161.125 L330.3438 166.6406 L330.3438 167.1875 L333.9531 167.1875 L333.9531 170 L334.8594 170 L334.8594 167.1875 L336.2812 167.1875 L336.2812 166.5156 Z"
      /><rect x="317" y="159" width="6" style="fill:white; stroke:none;" height="13"
      /><path style="stroke:none;" d="M319.0938 165.2031 C319.0938 163.6562 319.75 162.8125 320.7969 162.8125 C321.7188 162.8125 322.2656 163.4531 322.2656 164.5156 C322.2656 165.7188 321.5 166.4375 320.1875 166.7031 L320.2969 167.3125 C322.2188 167.2344 322.9375 168.2188 322.9375 169.4375 C322.9375 170.625 322.2344 171.4219 320.9531 171.4219 C320.25 171.4219 319.6562 171.1562 319.0938 170.7188 L319.0938 165.2031 ZM318.2031 171.9062 L318.1094 174.375 L318.2656 174.4844 L319.1562 174.2656 L319.0156 171.0938 C319.5469 171.8438 320.3594 172.1719 321.1719 172.1719 C322.5625 172.1719 323.8594 171.2188 323.8594 169.4844 C323.8594 167.9531 322.875 167.1094 321.125 167 C322.5625 166.6094 323.1875 165.4531 323.1875 164.4844 C323.1875 163.0938 322.1562 162.3125 320.9062 162.3125 C319.2969 162.3125 318.2188 163.5469 318.2188 165.5156 L318.2031 171.9062 Z"
      /><rect x="342" y="134" width="6" style="fill:white; stroke:none;" height="10"
      /><path style="stroke:none;" d="M345.3438 143.6875 C344.2031 143.6875 343.5312 142.5 343.5312 140.2969 C343.5312 140.2188 343.5312 140.125 343.5312 140.0469 C344.0938 139.5 344.7188 139.3125 345.3438 139.3125 C346.3125 139.3125 346.9531 139.9844 346.9531 141.4531 C346.9531 142.9375 346.3125 143.6875 345.3438 143.6875 ZM347.5312 135.0781 C344.3438 135.4531 342.5625 137.7656 342.5625 140.4531 C342.5625 142.7812 343.6094 144.1719 345.3125 144.1719 C346.8438 144.1719 347.9219 143.1094 347.9219 141.2812 C347.9219 139.6875 346.9688 138.6562 345.5625 138.6562 C344.8281 138.6562 344.1406 138.9844 343.5781 139.5781 C343.7969 137.4062 345.0781 135.9688 347.5938 135.3906 L347.5312 135.0781 Z"
      /><rect x="341" y="121" width="8" style="fill:white; stroke:none;" height="8"
      /><path style="stroke:none;" d="M345.9844 126.7031 C345.9375 127.8906 345.1562 128.6562 344.3125 128.6562 C343.2656 128.6562 342.5 127.6875 342.5 125.7188 C342.5 124.2812 343.1562 123.1562 344.3438 123.1562 C345.1406 123.1562 345.7812 123.6875 346.0938 124.6406 L345.9844 126.7031 ZM347.9062 128.2812 C347.7344 128.375 347.5469 128.4219 347.3438 128.4219 C346.9531 128.4219 346.75 128.2188 346.75 127.4219 C346.75 126.4844 346.9688 124.5312 347.1875 122.8281 L347.0312 122.7188 L346.2344 122.9219 L346.1406 123.7969 C345.7812 123.0312 345.1562 122.6562 344.3906 122.6562 C343.0469 122.6562 341.5625 123.8438 341.5625 125.9531 C341.5625 128.0938 342.7188 129.1719 344.1406 129.1719 C345.0156 129.1719 345.6875 128.8125 346.0938 127.9844 C346.2031 128.8594 346.5156 129.1719 347.0156 129.1719 C347.4688 129.1719 347.7969 128.9062 348.0156 128.5625 L347.9062 128.2812 Z"
      /><rect x="369" y="161" width="5" style="fill:white; stroke:none;" height="10"
      /><path style="stroke:none;" d="M370.8906 169.6875 C370.4844 169.6875 370.1562 170.0469 370.1562 170.4219 C370.1562 170.8125 370.4844 171.1562 370.8906 171.1562 C371.2969 171.1562 371.6406 170.8125 371.6406 170.4219 C371.6406 170.0469 371.2969 169.6875 370.8906 169.6875 ZM372.4688 163.5781 C372.7188 163.8906 372.875 164.2656 372.8906 164.6562 C372.8906 165.1875 372.625 165.5 372.0312 165.7656 L371.4062 166.0156 C370.6406 166.3125 370.3906 166.5469 370.3906 166.9375 C370.3906 167.1094 370.4531 167.3438 370.5781 167.8125 L370.7344 168.3438 L371.1094 168.3438 L371.0938 167.5312 C371.0938 167.0938 371.2031 166.9688 371.7812 166.7344 L372.2031 166.5625 C373.0312 166.2188 373.4531 165.6875 373.4531 164.8438 C373.4531 163.1562 371.6562 162.1875 370.5 162.0312 C370.1094 162.125 369.9062 162.2969 369.9062 162.6406 C369.9062 162.9375 370.0625 163.1562 370.7188 163.2656 L372.4688 163.5781 Z"
    /></g
  ></g
></svg
>
