<?xml version="1.0"?>
<!DOCTYPE svg PUBLIC '-//W3C//DTD SVG 1.0//EN'
          'http://www.w3.org/TR/2001/REC-SVG-20010904/DTD/svg10.dtd'>
<svg xmlns:xlink="http://www.w3.org/1999/xlink" style="fill-opacity:1; color-rendering:auto; color-interpolation:auto; text-rendering:auto; stroke:black; stroke-linecap:square; stroke-miterlimit:10; shape-rendering:auto; stroke-opacity:1; fill:black; stroke-dasharray:none; font-weight:normal; stroke-width:1; font-family:'Dialog'; font-style:normal; stroke-linejoin:miter; font-size:12px; stroke-dashoffset:0; image-rendering:auto;" viewBox="0 0 418 238" xmlns="http://www.w3.org/2000/svg"
><!--Generated by the Batik Graphics2D SVG Generator--><defs id="genericDefs"
  /><g
  ><defs id="defs1"
    ><clipPath clipPathUnits="userSpaceOnUse" id="clipPath1"
      ><path d="M290 82 L312 82 L312 104 L290 104 L290 82 Z"
      /></clipPath
      ><clipPath clipPathUnits="userSpaceOnUse" id="clipPath2"
      ><path d="M238 82 L260 82 L260 104 L238 104 L238 82 Z"
      /></clipPath
      ><clipPath clipPathUnits="userSpaceOnUse" id="clipPath3"
      ><path d="M208 93 C208 99.0751 203.0751 104 197 104 C190.9249 104 186 99.0751 186 93 C186 86.9249 190.9249 82 197 82 C203.0751 82 208 86.9249 208 93 Z"
      /></clipPath
      ><clipPath clipPathUnits="userSpaceOnUse" id="clipPath4"
      ><path d="M156 171 C156 177.0751 151.0751 182 145 182 C138.9249 182 134 177.0751 134 171 C134 164.9249 138.9249 160 145 160 C151.0751 160 156 164.9249 156 171 Z"
      /></clipPath
      ><clipPath clipPathUnits="userSpaceOnUse" id="clipPath5"
      ><path d="M82 186 L104 186 L104 208 L82 208 L82 186 Z"
      /></clipPath
      ><clipPath clipPathUnits="userSpaceOnUse" id="clipPath6"
      ><path d="M52 197 C52 203.0751 47.0751 208 41 208 C34.9249 208 30 203.0751 30 197 C30 190.9249 34.9249 186 41 186 C47.0751 186 52 190.9249 52 197 Z"
      /></clipPath
      ><clipPath clipPathUnits="userSpaceOnUse" id="clipPath7"
      ><path d="M82 134 L104 134 L104 156 L82 156 L82 134 Z"
      /></clipPath
      ><clipPath clipPathUnits="userSpaceOnUse" id="clipPath8"
      ><path d="M156 93 C156 99.0751 151.0751 104 145 104 C138.9249 104 134 99.0751 134 93 C134 86.9249 138.9249 82 145 82 C151.0751 82 156 86.9249 156 93 Z"
      /></clipPath
      ><clipPath clipPathUnits="userSpaceOnUse" id="clipPath9"
      ><path d="M104 93 C104 99.0751 99.0751 104 93 104 C86.9249 104 82 99.0751 82 93 C82 86.9249 86.9249 82 93 82 C99.0751 82 104 86.9249 104 93 Z"
      /></clipPath
      ><clipPath clipPathUnits="userSpaceOnUse" id="clipPath10"
      ><path d="M134 30 L156 30 L156 52 L134 52 L134 30 Z"
      /></clipPath
    ></defs
    ><g style="fill:white; text-rendering:optimizeSpeed; stroke:white;"
    ><rect x="0" width="418" height="238" y="0" style="stroke:none;"
      /><polygon style="fill:none; stroke:black;" points=" 301 93 249 93"
      /><rect x="290" y="82" width="22" style="clip-path:url(#clipPath1); stroke:none;" height="22"
      /><rect x="290" y="82" width="22" style="clip-path:url(#clipPath1); fill:rgb(0,144,188); stroke:none;" height="22"
      /><rect x="290" y="82" width="22" style="clip-path:url(#clipPath1); fill:none; stroke:black;" height="22"
      /><rect x="290" y="82" width="22" style="fill:none; stroke:black;" height="22"
    /></g
    ><g style="font-style:italic; text-rendering:optimizeSpeed; font-size:10px; font-family:'SansSerif';"
    ><path style="stroke:none;" d="M301 95.125 C302.3281 95.125 303.7344 94.0938 304.125 92.2969 C304.5 90.4844 303.5469 89.4375 302.2188 89.4375 C300.8906 89.4375 299.4688 90.4844 299.0938 92.2969 C298.7031 94.0938 299.6719 95.125 301 95.125 ZM301.1719 94.375 C300.2344 94.375 299.7656 93.5469 300.0312 92.2969 C300.2969 91.0469 301.1094 90.1875 302.0469 90.1875 C302.9844 90.1875 303.4531 91.0469 303.1875 92.2969 C302.9219 93.5469 302.1094 94.375 301.1719 94.375 Z"
      /><polygon style="fill:none;" points=" 249 93 197 93"
    /></g
    ><g style="fill:white; text-rendering:optimizeSpeed; stroke:white;"
    ><rect x="238" y="82" width="22" style="clip-path:url(#clipPath2); stroke:none;" height="22"
      /><rect x="238" y="82" width="22" style="clip-path:url(#clipPath2); fill:rgb(0,144,188); stroke:none;" height="22"
      /><rect x="238" y="82" width="22" style="clip-path:url(#clipPath2); fill:none; stroke:black;" height="22"
      /><rect x="238" y="82" width="22" style="fill:none; stroke:black;" height="22"
      /><polygon style="fill:none; stroke:black;" points=" 197 93 145 171"
      /><polygon style="fill:none; stroke:black;" points=" 197 93 145 93"
      /><polygon style="fill:none; stroke:black;" points=" 197 93 145 41"
      /><circle r="11" style="clip-path:url(#clipPath3); stroke:none;" cx="197" cy="93"
      /><rect x="186" y="82" width="22" style="clip-path:url(#clipPath3); fill:rgb(0,166,81); stroke:none;" height="22"
      /><rect x="186" y="82" width="22" style="clip-path:url(#clipPath3); fill:none; stroke:black;" height="22"
      /><circle r="11" style="fill:none; stroke:black;" cx="197" cy="93"
      /><polygon style="fill:none; stroke:black;" points=" 145 171 93 197"
      /><polygon style="fill:none; stroke:black;" points=" 145 171 93 145"
      /><circle r="11" style="clip-path:url(#clipPath4); stroke:none;" cx="145" cy="171"
      /><rect x="134" y="160" width="22" style="clip-path:url(#clipPath4); fill:rgb(0,166,81); stroke:none;" height="22"
      /><rect x="134" y="160" width="22" style="clip-path:url(#clipPath4); fill:none; stroke:black;" height="22"
      /><circle r="11" style="fill:none; stroke:black;" cx="145" cy="171"
      /><polygon style="fill:none; stroke:black;" points=" 93 197 41 197"
      /><rect x="82" y="186" width="22" style="clip-path:url(#clipPath5); stroke:none;" height="22"
      /><rect x="82" y="186" width="22" style="clip-path:url(#clipPath5); fill:rgb(0,144,188); stroke:none;" height="22"
      /><rect x="82" y="186" width="22" style="clip-path:url(#clipPath5); fill:none; stroke:black;" height="22"
      /><rect x="82" y="186" width="22" style="fill:none; stroke:black;" height="22"
      /><circle r="11" style="clip-path:url(#clipPath6); stroke:none;" cx="41" cy="197"
      /><rect x="30" y="186" width="22" style="clip-path:url(#clipPath6); fill:rgb(255,212,0); stroke:none;" height="22"
      /><rect x="30" y="186" width="22" style="clip-path:url(#clipPath6); fill:none; stroke:black;" height="22"
      /><circle r="11" style="fill:none; stroke:black;" cx="41" cy="197"
      /><rect x="71" width="5" height="10" y="200" style="stroke:none;"
      /><path d="M72.8906 208.6875 C72.4844 208.6875 72.1562 209.0469 72.1562 209.4219 C72.1562 209.8125 72.4844 210.1562 72.8906 210.1562 C73.2969 210.1562 73.6406 209.8125 73.6406 209.4219 C73.6406 209.0469 73.2969 208.6875 72.8906 208.6875 ZM74.4688 202.5781 C74.7188 202.8906 74.875 203.2656 74.8906 203.6562 C74.8906 204.1875 74.625 204.5 74.0312 204.7656 L73.4062 205.0156 C72.6406 205.3125 72.3906 205.5469 72.3906 205.9375 C72.3906 206.1094 72.4531 206.3438 72.5781 206.8125 L72.7344 207.3438 L73.1094 207.3438 L73.0938 206.5312 C73.0938 206.0938 73.2031 205.9688 73.7812 205.7344 L74.2031 205.5625 C75.0312 205.2188 75.4531 204.6875 75.4531 203.8438 C75.4531 202.1562 73.6562 201.1875 72.5 201.0312 C72.1094 201.125 71.9062 201.2969 71.9062 201.6406 C71.9062 201.9375 72.0625 202.1562 72.7188 202.2656 L74.4688 202.5781 Z" style="fill:black; stroke:none;"
      /><rect x="57" width="5" height="10" y="200" style="stroke:none;"
      /><path d="M58.8906 208.6875 C58.4844 208.6875 58.1562 209.0469 58.1562 209.4219 C58.1562 209.8125 58.4844 210.1562 58.8906 210.1562 C59.2969 210.1562 59.6406 209.8125 59.6406 209.4219 C59.6406 209.0469 59.2969 208.6875 58.8906 208.6875 ZM60.4688 202.5781 C60.7188 202.8906 60.875 203.2656 60.8906 203.6562 C60.8906 204.1875 60.625 204.5 60.0312 204.7656 L59.4062 205.0156 C58.6406 205.3125 58.3906 205.5469 58.3906 205.9375 C58.3906 206.1094 58.4531 206.3438 58.5781 206.8125 L58.7344 207.3438 L59.1094 207.3438 L59.0938 206.5312 C59.0938 206.0938 59.2031 205.9688 59.7812 205.7344 L60.2031 205.5625 C61.0312 205.2188 61.4531 204.6875 61.4531 203.8438 C61.4531 202.1562 59.6562 201.1875 58.5 201.0312 C58.1094 201.125 57.9062 201.2969 57.9062 201.6406 C57.9062 201.9375 58.0625 202.1562 58.7188 202.2656 L60.4688 202.5781 Z" style="fill:black; stroke:none;"
      /><rect x="82" y="134" width="22" style="clip-path:url(#clipPath7); stroke:none;" height="22"
      /><rect x="82" y="134" width="22" style="clip-path:url(#clipPath7); fill:rgb(0,144,188); stroke:none;" height="22"
      /><rect x="82" y="134" width="22" style="clip-path:url(#clipPath7); fill:none; stroke:black;" height="22"
      /><rect x="82" y="134" width="22" style="fill:none; stroke:black;" height="22"
      /><rect x="127" width="5" height="10" y="182" style="stroke:none;"
      /><path d="M128.8906 190.6875 C128.4844 190.6875 128.1562 191.0469 128.1562 191.4219 C128.1562 191.8125 128.4844 192.1562 128.8906 192.1562 C129.2969 192.1562 129.6406 191.8125 129.6406 191.4219 C129.6406 191.0469 129.2969 190.6875 128.8906 190.6875 ZM130.4688 184.5781 C130.7188 184.8906 130.875 185.2656 130.8906 185.6562 C130.8906 186.1875 130.625 186.5 130.0312 186.7656 L129.4062 187.0156 C128.6406 187.3125 128.3906 187.5469 128.3906 187.9375 C128.3906 188.1094 128.4531 188.3438 128.5781 188.8125 L128.7344 189.3438 L129.1094 189.3438 L129.0938 188.5312 C129.0938 188.0938 129.2031 187.9688 129.7812 187.7344 L130.2031 187.5625 C131.0312 187.2188 131.4531 186.6875 131.4531 185.8438 C131.4531 184.1562 129.6562 183.1875 128.5 183.0312 C128.1094 183.125 127.9062 183.2969 127.9062 183.6406 C127.9062 183.9375 128.0625 184.1562 128.7188 184.2656 L130.4688 184.5781 Z" style="fill:black; stroke:none;"
      /><rect x="112" width="5" height="10" y="190" style="stroke:none;"
      /><path d="M113.8906 198.6875 C113.4844 198.6875 113.1562 199.0469 113.1562 199.4219 C113.1562 199.8125 113.4844 200.1562 113.8906 200.1562 C114.2969 200.1562 114.6406 199.8125 114.6406 199.4219 C114.6406 199.0469 114.2969 198.6875 113.8906 198.6875 ZM115.4688 192.5781 C115.7188 192.8906 115.875 193.2656 115.8906 193.6562 C115.8906 194.1875 115.625 194.5 115.0312 194.7656 L114.4062 195.0156 C113.6406 195.3125 113.3906 195.5469 113.3906 195.9375 C113.3906 196.1094 113.4531 196.3438 113.5781 196.8125 L113.7344 197.3438 L114.1094 197.3438 L114.0938 196.5312 C114.0938 196.0938 114.2031 195.9688 114.7812 195.7344 L115.2031 195.5625 C116.0312 195.2188 116.4531 194.6875 116.4531 193.8438 C116.4531 192.1562 114.6562 191.1875 113.5 191.0312 C113.1094 191.125 112.9062 191.2969 112.9062 191.6406 C112.9062 191.9375 113.0625 192.1562 113.7188 192.2656 L115.4688 192.5781 Z" style="fill:black; stroke:none;"
      /><rect x="120" width="5" height="10" y="164" style="stroke:none;"
      /><path d="M121.8906 172.6875 C121.4844 172.6875 121.1562 173.0469 121.1562 173.4219 C121.1562 173.8125 121.4844 174.1562 121.8906 174.1562 C122.2969 174.1562 122.6406 173.8125 122.6406 173.4219 C122.6406 173.0469 122.2969 172.6875 121.8906 172.6875 ZM123.4688 166.5781 C123.7188 166.8906 123.875 167.2656 123.8906 167.6562 C123.8906 168.1875 123.625 168.5 123.0312 168.7656 L122.4062 169.0156 C121.6406 169.3125 121.3906 169.5469 121.3906 169.9375 C121.3906 170.1094 121.4531 170.3438 121.5781 170.8125 L121.7344 171.3438 L122.1094 171.3438 L122.0938 170.5312 C122.0938 170.0938 122.2031 169.9688 122.7812 169.7344 L123.2031 169.5625 C124.0312 169.2188 124.4531 168.6875 124.4531 167.8438 C124.4531 166.1562 122.6562 165.1875 121.5 165.0312 C121.1094 165.125 120.9062 165.2969 120.9062 165.6406 C120.9062 165.9375 121.0625 166.1562 121.7188 166.2656 L123.4688 166.5781 Z" style="fill:black; stroke:none;"
      /><rect x="105" width="5" height="10" y="156" style="stroke:none;"
      /><path d="M106.8906 164.6875 C106.4844 164.6875 106.1562 165.0469 106.1562 165.4219 C106.1562 165.8125 106.4844 166.1562 106.8906 166.1562 C107.2969 166.1562 107.6406 165.8125 107.6406 165.4219 C107.6406 165.0469 107.2969 164.6875 106.8906 164.6875 ZM108.4688 158.5781 C108.7188 158.8906 108.875 159.2656 108.8906 159.6562 C108.8906 160.1875 108.625 160.5 108.0312 160.7656 L107.4062 161.0156 C106.6406 161.3125 106.3906 161.5469 106.3906 161.9375 C106.3906 162.1094 106.4531 162.3438 106.5781 162.8125 L106.7344 163.3438 L107.1094 163.3438 L107.0938 162.5312 C107.0938 162.0938 107.2031 161.9688 107.7812 161.7344 L108.2031 161.5625 C109.0312 161.2188 109.4531 160.6875 109.4531 159.8438 C109.4531 158.1562 107.6562 157.1875 106.5 157.0312 C106.1094 157.125 105.9062 157.2969 105.9062 157.6406 C105.9062 157.9375 106.0625 158.1562 106.7188 158.2656 L108.4688 158.5781 Z" style="fill:black; stroke:none;"
      /><polygon style="fill:none; stroke:black;" points=" 145 93 93 93"
      /><circle r="11" style="clip-path:url(#clipPath8); stroke:none;" cx="145" cy="93"
      /><rect x="134" y="82" width="22" style="clip-path:url(#clipPath8); fill:rgb(0,166,81); stroke:none;" height="22"
      /><rect x="134" y="82" width="22" style="clip-path:url(#clipPath8); fill:none; stroke:black;" height="22"
      /><circle r="11" style="fill:none; stroke:black;" cx="145" cy="93"
      /><circle r="11" style="clip-path:url(#clipPath9); stroke:none;" cx="93" cy="93"
      /><rect x="82" y="82" width="22" style="clip-path:url(#clipPath9); fill:rgb(0,166,81); stroke:none;" height="22"
      /><rect x="82" y="82" width="22" style="clip-path:url(#clipPath9); fill:none; stroke:black;" height="22"
      /><circle r="11" style="fill:none; stroke:black;" cx="93" cy="93"
      /><rect x="123" width="5" height="10" y="96" style="stroke:none;"
      /><path d="M124.8906 104.6875 C124.4844 104.6875 124.1562 105.0469 124.1562 105.4219 C124.1562 105.8125 124.4844 106.1562 124.8906 106.1562 C125.2969 106.1562 125.6406 105.8125 125.6406 105.4219 C125.6406 105.0469 125.2969 104.6875 124.8906 104.6875 ZM126.4688 98.5781 C126.7188 98.8906 126.875 99.2656 126.8906 99.6562 C126.8906 100.1875 126.625 100.5 126.0312 100.7656 L125.4062 101.0156 C124.6406 101.3125 124.3906 101.5469 124.3906 101.9375 C124.3906 102.1094 124.4531 102.3438 124.5781 102.8125 L124.7344 103.3438 L125.1094 103.3438 L125.0938 102.5312 C125.0938 102.0938 125.2031 101.9688 125.7812 101.7344 L126.2031 101.5625 C127.0312 101.2188 127.4531 100.6875 127.4531 99.8438 C127.4531 98.1562 125.6562 97.1875 124.5 97.0312 C124.1094 97.125 123.9062 97.2969 123.9062 97.6406 C123.9062 97.9375 124.0625 98.1562 124.7188 98.2656 L126.4688 98.5781 Z" style="fill:black; stroke:none;"
      /><rect x="109" width="5" height="10" y="96" style="stroke:none;"
      /><path d="M110.8906 104.6875 C110.4844 104.6875 110.1562 105.0469 110.1562 105.4219 C110.1562 105.8125 110.4844 106.1562 110.8906 106.1562 C111.2969 106.1562 111.6406 105.8125 111.6406 105.4219 C111.6406 105.0469 111.2969 104.6875 110.8906 104.6875 ZM112.4688 98.5781 C112.7188 98.8906 112.875 99.2656 112.8906 99.6562 C112.8906 100.1875 112.625 100.5 112.0312 100.7656 L111.4062 101.0156 C110.6406 101.3125 110.3906 101.5469 110.3906 101.9375 C110.3906 102.1094 110.4531 102.3438 110.5781 102.8125 L110.7344 103.3438 L111.1094 103.3438 L111.0938 102.5312 C111.0938 102.0938 111.2031 101.9688 111.7812 101.7344 L112.2031 101.5625 C113.0312 101.2188 113.4531 100.6875 113.4531 99.8438 C113.4531 98.1562 111.6562 97.1875 110.5 97.0312 C110.1094 97.125 109.9062 97.2969 109.9062 97.6406 C109.9062 97.9375 110.0625 98.1562 110.7188 98.2656 L112.4688 98.5781 Z" style="fill:black; stroke:none;"
      /><rect x="134" y="30" width="22" style="clip-path:url(#clipPath10); stroke:none;" height="22"
      /><rect x="134" y="30" width="22" style="clip-path:url(#clipPath10); fill:rgb(0,144,188); stroke:none;" height="22"
      /><rect x="134" y="30" width="22" style="clip-path:url(#clipPath10); fill:none; stroke:black;" height="22"
      /><rect x="134" y="30" width="22" style="fill:none; stroke:black;" height="22"
      /><rect x="189" width="5" height="10" y="110" style="stroke:none;"
      /><path d="M190.8906 118.6875 C190.4844 118.6875 190.1562 119.0469 190.1562 119.4219 C190.1562 119.8125 190.4844 120.1562 190.8906 120.1562 C191.2969 120.1562 191.6406 119.8125 191.6406 119.4219 C191.6406 119.0469 191.2969 118.6875 190.8906 118.6875 ZM192.4688 112.5781 C192.7188 112.8906 192.875 113.2656 192.8906 113.6562 C192.8906 114.1875 192.625 114.5 192.0312 114.7656 L191.4062 115.0156 C190.6406 115.3125 190.3906 115.5469 190.3906 115.9375 C190.3906 116.1094 190.4531 116.3438 190.5781 116.8125 L190.7344 117.3438 L191.1094 117.3438 L191.0938 116.5312 C191.0938 116.0938 191.2031 115.9688 191.7812 115.7344 L192.2031 115.5625 C193.0312 115.2188 193.4531 114.6875 193.4531 113.8438 C193.4531 112.1562 191.6562 111.1875 190.5 111.0312 C190.1094 111.125 189.9062 111.2969 189.9062 111.6406 C189.9062 111.9375 190.0625 112.1562 190.7188 112.2656 L192.4688 112.5781 Z" style="fill:black; stroke:none;"
      /><rect x="160" width="5" height="10" y="152" style="stroke:none;"
      /><path d="M161.8906 160.6875 C161.4844 160.6875 161.1562 161.0469 161.1562 161.4219 C161.1562 161.8125 161.4844 162.1562 161.8906 162.1562 C162.2969 162.1562 162.6406 161.8125 162.6406 161.4219 C162.6406 161.0469 162.2969 160.6875 161.8906 160.6875 ZM163.4688 154.5781 C163.7188 154.8906 163.875 155.2656 163.8906 155.6562 C163.8906 156.1875 163.625 156.5 163.0312 156.7656 L162.4062 157.0156 C161.6406 157.3125 161.3906 157.5469 161.3906 157.9375 C161.3906 158.1094 161.4531 158.3438 161.5781 158.8125 L161.7344 159.3438 L162.1094 159.3438 L162.0938 158.5312 C162.0938 158.0938 162.2031 157.9688 162.7812 157.7344 L163.2031 157.5625 C164.0312 157.2188 164.4531 156.6875 164.4531 155.8438 C164.4531 154.1562 162.6562 153.1875 161.5 153.0312 C161.1094 153.125 160.9062 153.2969 160.9062 153.6406 C160.9062 153.9375 161.0625 154.1562 161.7188 154.2656 L163.4688 154.5781 Z" style="fill:black; stroke:none;"
      /><rect x="175" width="5" height="10" y="96" style="stroke:none;"
      /><path d="M176.8906 104.6875 C176.4844 104.6875 176.1562 105.0469 176.1562 105.4219 C176.1562 105.8125 176.4844 106.1562 176.8906 106.1562 C177.2969 106.1562 177.6406 105.8125 177.6406 105.4219 C177.6406 105.0469 177.2969 104.6875 176.8906 104.6875 ZM178.4688 98.5781 C178.7188 98.8906 178.875 99.2656 178.8906 99.6562 C178.8906 100.1875 178.625 100.5 178.0312 100.7656 L177.4062 101.0156 C176.6406 101.3125 176.3906 101.5469 176.3906 101.9375 C176.3906 102.1094 176.4531 102.3438 176.5781 102.8125 L176.7344 103.3438 L177.1094 103.3438 L177.0938 102.5312 C177.0938 102.0938 177.2031 101.9688 177.7812 101.7344 L178.2031 101.5625 C179.0312 101.2188 179.4531 100.6875 179.4531 99.8438 C179.4531 98.1562 177.6562 97.1875 176.5 97.0312 C176.1094 97.125 175.9062 97.2969 175.9062 97.6406 C175.9062 97.9375 176.0625 98.1562 176.7188 98.2656 L178.4688 98.5781 Z" style="fill:black; stroke:none;"
      /><rect x="161" width="5" height="10" y="96" style="stroke:none;"
      /><path d="M162.8906 104.6875 C162.4844 104.6875 162.1562 105.0469 162.1562 105.4219 C162.1562 105.8125 162.4844 106.1562 162.8906 106.1562 C163.2969 106.1562 163.6406 105.8125 163.6406 105.4219 C163.6406 105.0469 163.2969 104.6875 162.8906 104.6875 ZM164.4688 98.5781 C164.7188 98.8906 164.875 99.2656 164.8906 99.6562 C164.8906 100.1875 164.625 100.5 164.0312 100.7656 L163.4062 101.0156 C162.6406 101.3125 162.3906 101.5469 162.3906 101.9375 C162.3906 102.1094 162.4531 102.3438 162.5781 102.8125 L162.7344 103.3438 L163.1094 103.3438 L163.0938 102.5312 C163.0938 102.0938 163.2031 101.9688 163.7812 101.7344 L164.2031 101.5625 C165.0312 101.2188 165.4531 100.6875 165.4531 99.8438 C165.4531 98.1562 163.6562 97.1875 162.5 97.0312 C162.1094 97.125 161.9062 97.2969 161.9062 97.6406 C161.9062 97.9375 162.0625 98.1562 162.7188 98.2656 L164.4688 98.5781 Z" style="fill:black; stroke:none;"
      /><rect x="172" width="5" height="10" y="77" style="stroke:none;"
      /><path d="M173.8906 85.6875 C173.4844 85.6875 173.1562 86.0469 173.1562 86.4219 C173.1562 86.8125 173.4844 87.1562 173.8906 87.1562 C174.2969 87.1562 174.6406 86.8125 174.6406 86.4219 C174.6406 86.0469 174.2969 85.6875 173.8906 85.6875 ZM175.4688 79.5781 C175.7188 79.8906 175.875 80.2656 175.8906 80.6562 C175.8906 81.1875 175.625 81.5 175.0312 81.7656 L174.4062 82.0156 C173.6406 82.3125 173.3906 82.5469 173.3906 82.9375 C173.3906 83.1094 173.4531 83.3438 173.5781 83.8125 L173.7344 84.3438 L174.1094 84.3438 L174.0938 83.5312 C174.0938 83.0938 174.2031 82.9688 174.7812 82.7344 L175.2031 82.5625 C176.0312 82.2188 176.4531 81.6875 176.4531 80.8438 C176.4531 79.1562 174.6562 78.1875 173.5 78.0312 C173.1094 78.125 172.9062 78.2969 172.9062 78.6406 C172.9062 78.9375 173.0625 79.1562 173.7188 79.2656 L175.4688 79.5781 Z" style="fill:black; stroke:none;"
      /><rect x="153" width="5" height="10" y="58" style="stroke:none;"
      /><path d="M154.8906 66.6875 C154.4844 66.6875 154.1562 67.0469 154.1562 67.4219 C154.1562 67.8125 154.4844 68.1562 154.8906 68.1562 C155.2969 68.1562 155.6406 67.8125 155.6406 67.4219 C155.6406 67.0469 155.2969 66.6875 154.8906 66.6875 ZM156.4688 60.5781 C156.7188 60.8906 156.875 61.2656 156.8906 61.6562 C156.8906 62.1875 156.625 62.5 156.0312 62.7656 L155.4062 63.0156 C154.6406 63.3125 154.3906 63.5469 154.3906 63.9375 C154.3906 64.1094 154.4531 64.3438 154.5781 64.8125 L154.7344 65.3438 L155.1094 65.3438 L155.0938 64.5312 C155.0938 64.0938 155.2031 63.9688 155.7812 63.7344 L156.2031 63.5625 C157.0312 63.2188 157.4531 62.6875 157.4531 61.8438 C157.4531 60.1562 155.6562 59.1875 154.5 59.0312 C154.1094 59.125 153.9062 59.2969 153.9062 59.6406 C153.9062 59.9375 154.0625 60.1562 154.7188 60.2656 L156.4688 60.5781 Z" style="fill:black; stroke:none;"
      /><rect x="227" width="5" height="10" y="96" style="stroke:none;"
      /><path d="M228.8906 104.6875 C228.4844 104.6875 228.1562 105.0469 228.1562 105.4219 C228.1562 105.8125 228.4844 106.1562 228.8906 106.1562 C229.2969 106.1562 229.6406 105.8125 229.6406 105.4219 C229.6406 105.0469 229.2969 104.6875 228.8906 104.6875 ZM230.4688 98.5781 C230.7188 98.8906 230.875 99.2656 230.8906 99.6562 C230.8906 100.1875 230.625 100.5 230.0312 100.7656 L229.4062 101.0156 C228.6406 101.3125 228.3906 101.5469 228.3906 101.9375 C228.3906 102.1094 228.4531 102.3438 228.5781 102.8125 L228.7344 103.3438 L229.1094 103.3438 L229.0938 102.5312 C229.0938 102.0938 229.2031 101.9688 229.7812 101.7344 L230.2031 101.5625 C231.0312 101.2188 231.4531 100.6875 231.4531 99.8438 C231.4531 98.1562 229.6562 97.1875 228.5 97.0312 C228.1094 97.125 227.9062 97.2969 227.9062 97.6406 C227.9062 97.9375 228.0625 98.1562 228.7188 98.2656 L230.4688 98.5781 Z" style="fill:black; stroke:none;"
      /><rect x="213" width="5" height="10" y="96" style="stroke:none;"
      /><path d="M214.8906 104.6875 C214.4844 104.6875 214.1562 105.0469 214.1562 105.4219 C214.1562 105.8125 214.4844 106.1562 214.8906 106.1562 C215.2969 106.1562 215.6406 105.8125 215.6406 105.4219 C215.6406 105.0469 215.2969 104.6875 214.8906 104.6875 ZM216.4688 98.5781 C216.7188 98.8906 216.875 99.2656 216.8906 99.6562 C216.8906 100.1875 216.625 100.5 216.0312 100.7656 L215.4062 101.0156 C214.6406 101.3125 214.3906 101.5469 214.3906 101.9375 C214.3906 102.1094 214.4531 102.3438 214.5781 102.8125 L214.7344 103.3438 L215.1094 103.3438 L215.0938 102.5312 C215.0938 102.0938 215.2031 101.9688 215.7812 101.7344 L216.2031 101.5625 C217.0312 101.2188 217.4531 100.6875 217.4531 99.8438 C217.4531 98.1562 215.6562 97.1875 214.5 97.0312 C214.1094 97.125 213.9062 97.2969 213.9062 97.6406 C213.9062 97.9375 214.0625 98.1562 214.7188 98.2656 L216.4688 98.5781 Z" style="fill:black; stroke:none;"
      /><rect x="279" width="5" height="10" y="96" style="stroke:none;"
      /><path d="M280.8906 104.6875 C280.4844 104.6875 280.1562 105.0469 280.1562 105.4219 C280.1562 105.8125 280.4844 106.1562 280.8906 106.1562 C281.2969 106.1562 281.6406 105.8125 281.6406 105.4219 C281.6406 105.0469 281.2969 104.6875 280.8906 104.6875 ZM282.4688 98.5781 C282.7188 98.8906 282.875 99.2656 282.8906 99.6562 C282.8906 100.1875 282.625 100.5 282.0312 100.7656 L281.4062 101.0156 C280.6406 101.3125 280.3906 101.5469 280.3906 101.9375 C280.3906 102.1094 280.4531 102.3438 280.5781 102.8125 L280.7344 103.3438 L281.1094 103.3438 L281.0938 102.5312 C281.0938 102.0938 281.2031 101.9688 281.7812 101.7344 L282.2031 101.5625 C283.0312 101.2188 283.4531 100.6875 283.4531 99.8438 C283.4531 98.1562 281.6562 97.1875 280.5 97.0312 C280.1094 97.125 279.9062 97.2969 279.9062 97.6406 C279.9062 97.9375 280.0625 98.1562 280.7188 98.2656 L282.4688 98.5781 Z" style="fill:black; stroke:none;"
      /><rect x="265" width="5" height="10" y="96" style="stroke:none;"
      /><path d="M266.8906 104.6875 C266.4844 104.6875 266.1562 105.0469 266.1562 105.4219 C266.1562 105.8125 266.4844 106.1562 266.8906 106.1562 C267.2969 106.1562 267.6406 105.8125 267.6406 105.4219 C267.6406 105.0469 267.2969 104.6875 266.8906 104.6875 ZM268.4688 98.5781 C268.7188 98.8906 268.875 99.2656 268.8906 99.6562 C268.8906 100.1875 268.625 100.5 268.0312 100.7656 L267.4062 101.0156 C266.6406 101.3125 266.3906 101.5469 266.3906 101.9375 C266.3906 102.1094 266.4531 102.3438 266.5781 102.8125 L266.7344 103.3438 L267.1094 103.3438 L267.0938 102.5312 C267.0938 102.0938 267.2031 101.9688 267.7812 101.7344 L268.2031 101.5625 C269.0312 101.2188 269.4531 100.6875 269.4531 99.8438 C269.4531 98.1562 267.6562 97.1875 266.5 97.0312 C266.1094 97.125 265.9062 97.2969 265.9062 97.6406 C265.9062 97.9375 266.0625 98.1562 266.7188 98.2656 L268.4688 98.5781 Z" style="fill:black; stroke:none;"
    /></g
  ></g
></svg
>
