<?xml version="1.0"?>
<!DOCTYPE svg PUBLIC '-//W3C//DTD SVG 1.0//EN'
          'http://www.w3.org/TR/2001/REC-SVG-20010904/DTD/svg10.dtd'>
<svg xmlns:xlink="http://www.w3.org/1999/xlink" style="fill-opacity:1; color-rendering:auto; color-interpolation:auto; text-rendering:auto; stroke:black; stroke-linecap:square; stroke-miterlimit:10; shape-rendering:auto; stroke-opacity:1; fill:black; stroke-dasharray:none; font-weight:normal; stroke-width:1; font-family:'Dialog'; font-style:normal; stroke-linejoin:miter; font-size:12px; stroke-dashoffset:0; image-rendering:auto;" viewBox="0 0 290 160" xmlns="http://www.w3.org/2000/svg"
><!--Generated by the Batik Graphics2D SVG Generator--><defs id="genericDefs"
  /><g
  ><defs id="defs1"
    ><clipPath clipPathUnits="userSpaceOnUse" id="clipPath1"
      ><path d="M208 93 C208 99.0751 203.0751 104 197 104 C190.9249 104 186 99.0751 186 93 C186 86.9249 190.9249 82 197 82 C203.0751 82 208 86.9249 208 93 Z"
      /></clipPath
      ><clipPath clipPathUnits="userSpaceOnUse" id="clipPath2"
      ><path d="M156 119 C156 125.0751 151.0751 130 145 130 C138.9249 130 134 125.0751 134 119 C134 112.9249 138.9249 108 145 108 C151.0751 108 156 112.9249 156 119 Z"
      /></clipPath
      ><clipPath clipPathUnits="userSpaceOnUse" id="clipPath3"
      ><path d="M156 67 C156 73.0751 151.0751 78 145 78 C138.9249 78 134 73.0751 134 67 C134 60.9249 138.9249 56 145 56 C151.0751 56 156 60.9249 156 67 Z"
      /></clipPath
      ><clipPath clipPathUnits="userSpaceOnUse" id="clipPath4"
      ><path d="M104 67 C104 73.0751 99.0751 78 93 78 C86.9249 78 82 73.0751 82 67 C82 60.9249 86.9249 56 93 56 C99.0751 56 104 60.9249 104 67 Z"
      /></clipPath
      ><clipPath clipPathUnits="userSpaceOnUse" id="clipPath5"
      ><path d="M30 82 L52 82 L52 104 L30 104 L30 82 Z"
      /></clipPath
      ><clipPath clipPathUnits="userSpaceOnUse" id="clipPath6"
      ><path d="M52 41 C52 47.0751 47.0751 52 41 52 C34.9249 52 30 47.0751 30 41 C30 34.9249 34.9249 30 41 30 C47.0751 30 52 34.9249 52 41 Z"
      /></clipPath
    ></defs
    ><g style="fill:white; text-rendering:optimizeSpeed; stroke:white;"
    ><rect x="0" width="290" height="160" y="0" style="stroke:none;"
      /><polygon style="fill:none; stroke:black;" points=" 249 93 197 93"
      /><path d="M249 82 C243.5 87.5 254.5 98.5 249 104" style="fill:none; stroke:black;"
      /><polygon style="fill:none; stroke:black;" points=" 197 93 145 119"
      /><polygon style="fill:none; stroke:black;" points=" 197 93 145 67"
      /><circle style="clip-path:url(#clipPath1); stroke:none;" r="11" cx="197" cy="93"
      /><rect x="186" y="82" width="22" style="clip-path:url(#clipPath1); fill:rgb(0,144,188); stroke:none;" height="22"
      /><rect x="186" y="82" width="22" style="clip-path:url(#clipPath1); fill:none; stroke:black;" height="22"
      /><circle style="fill:none; stroke:black;" r="11" cx="197" cy="93"
      /><circle style="clip-path:url(#clipPath2); stroke:none;" r="11" cx="145" cy="119"
      /><rect x="134" y="108" width="22" style="clip-path:url(#clipPath2); fill:rgb(0,144,188); stroke:none;" height="22"
      /><rect x="134" y="108" width="22" style="clip-path:url(#clipPath2); fill:none; stroke:black;" height="22"
      /><circle style="fill:none; stroke:black;" r="11" cx="145" cy="119"
      /><polygon style="fill:none; stroke:black;" points=" 145 67 93 67"
      /><circle style="clip-path:url(#clipPath3); stroke:none;" r="11" cx="145" cy="67"
      /><rect x="134" y="56" width="22" style="clip-path:url(#clipPath3); fill:rgb(0,144,188); stroke:none;" height="22"
      /><rect x="134" y="56" width="22" style="clip-path:url(#clipPath3); fill:none; stroke:black;" height="22"
      /><circle style="fill:none; stroke:black;" r="11" cx="145" cy="67"
      /><polygon style="fill:none; stroke:black;" points=" 93 67 41 93"
      /><polygon style="fill:none; stroke:black;" points=" 93 67 41 41"
      /><circle style="clip-path:url(#clipPath4); stroke:none;" r="11" cx="93" cy="67"
      /><rect x="82" y="56" width="22" style="clip-path:url(#clipPath4); fill:rgb(0,144,188); stroke:none;" height="22"
      /><rect x="82" y="56" width="22" style="clip-path:url(#clipPath4); fill:none; stroke:black;" height="22"
      /><circle style="fill:none; stroke:black;" r="11" cx="93" cy="67"
      /><rect x="30" y="82" width="22" style="clip-path:url(#clipPath5); stroke:none;" height="22"
      /><rect x="30" y="82" width="22" style="clip-path:url(#clipPath5); fill:rgb(0,144,188); stroke:none;" height="22"
      /><rect x="30" y="82" width="22" style="clip-path:url(#clipPath5); fill:none; stroke:black;" height="22"
      /><rect x="30" y="82" width="22" style="fill:none; stroke:black;" height="22"
      /><circle style="clip-path:url(#clipPath6); stroke:none;" r="11" cx="41" cy="41"
      /><rect x="30" y="30" width="22" style="clip-path:url(#clipPath6); fill:rgb(0,144,188); stroke:none;" height="22"
      /><rect x="30" y="30" width="22" style="clip-path:url(#clipPath6); fill:none; stroke:black;" height="22"
      /><circle style="fill:none; stroke:black;" r="11" cx="41" cy="41"
      /><rect x="75" y="78" width="6" style="stroke:none;" height="10"
    /></g
    ><g style="font-family:'Serif'; text-rendering:optimizeSpeed; "
    ><path style="stroke:none;" d="M77.2344 79.6562 C77.5156 79.5938 77.7656 79.5625 78.0156 79.5625 C79.0625 79.5625 79.6719 80.1719 79.6719 81.2656 C79.6719 82.4375 78.9062 83.1094 77.7031 83.1094 L77.1875 83.1094 L77.1875 83.6406 L77.7969 83.6406 C79.2188 83.6406 79.9062 84.4219 79.9062 85.6406 C79.9062 86.8438 79.1719 87.6875 77.875 87.6875 C77.6094 87.6875 77.3125 87.6562 77.0156 87.5625 L76.7812 86.8125 C76.625 86.2812 76.5 86.0469 76.1406 86.0469 C75.8906 86.0469 75.7031 86.1719 75.5781 86.4219 C75.8438 87.6406 76.7812 88.1719 78.0312 88.1719 C79.7188 88.1719 80.875 87.125 80.875 85.7031 C80.875 84.5 80.2031 83.625 78.7969 83.375 C79.9531 83.0156 80.6094 82.2031 80.6094 81.2031 C80.6094 79.9219 79.6719 79.0781 78.1875 79.0781 C77.0469 79.0781 76.0625 79.5938 75.7969 80.6875 C75.9062 81 76.1094 81.1094 76.3594 81.1094 C76.7344 81.1094 76.8906 80.8906 77 80.4062 L77.2344 79.6562 Z"
      /><rect x="59" y="84" width="6" style="fill:white; stroke:none;" height="13"
      /><path style="stroke:none;" d="M61.0938 90.2031 C61.0938 88.6562 61.75 87.8125 62.7969 87.8125 C63.7188 87.8125 64.2656 88.4531 64.2656 89.5156 C64.2656 90.7188 63.5 91.4375 62.1875 91.7031 L62.2969 92.3125 C64.2188 92.2344 64.9375 93.2188 64.9375 94.4375 C64.9375 95.625 64.2344 96.4219 62.9531 96.4219 C62.25 96.4219 61.6562 96.1562 61.0938 95.7188 L61.0938 90.2031 ZM60.2031 96.9062 L60.1094 99.375 L60.2656 99.4844 L61.1562 99.2656 L61.0156 96.0938 C61.5469 96.8438 62.3594 97.1719 63.1719 97.1719 C64.5625 97.1719 65.8594 96.2188 65.8594 94.4844 C65.8594 92.9531 64.875 92.1094 63.125 92 C64.5625 91.6094 65.1875 90.4531 65.1875 89.4844 C65.1875 88.0938 64.1562 87.3125 62.9062 87.3125 C61.2969 87.3125 60.2188 88.5469 60.2188 90.5156 L60.2031 96.9062 Z"
      /><rect x="68" y="60" width="6" style="fill:white; stroke:none;" height="10"
      /><path style="stroke:none;" d="M71.3438 69.6875 C70.2031 69.6875 69.5312 68.5 69.5312 66.2969 C69.5312 66.2188 69.5312 66.125 69.5312 66.0469 C70.0938 65.5 70.7188 65.3125 71.3438 65.3125 C72.3125 65.3125 72.9531 65.9844 72.9531 67.4531 C72.9531 68.9375 72.3125 69.6875 71.3438 69.6875 ZM73.5312 61.0781 C70.3438 61.4531 68.5625 63.7656 68.5625 66.4531 C68.5625 68.7812 69.6094 70.1719 71.3125 70.1719 C72.8438 70.1719 73.9219 69.1094 73.9219 67.2812 C73.9219 65.6875 72.9688 64.6562 71.5625 64.6562 C70.8281 64.6562 70.1406 64.9844 69.5781 65.5781 C69.7969 63.4062 71.0781 61.9688 73.5938 61.3906 L73.5312 61.0781 Z"
      /><rect x="52" y="50" width="6" style="fill:white; stroke:none;" height="13"
      /><path style="stroke:none;" d="M54.0938 56.2031 C54.0938 54.6562 54.75 53.8125 55.7969 53.8125 C56.7188 53.8125 57.2656 54.4531 57.2656 55.5156 C57.2656 56.7188 56.5 57.4375 55.1875 57.7031 L55.2969 58.3125 C57.2188 58.2344 57.9375 59.2188 57.9375 60.4375 C57.9375 61.625 57.2344 62.4219 55.9531 62.4219 C55.25 62.4219 54.6562 62.1562 54.0938 61.7188 L54.0938 56.2031 ZM53.2031 62.9062 L53.1094 65.375 L53.2656 65.4844 L54.1562 65.2656 L54.0156 62.0938 C54.5469 62.8438 55.3594 63.1719 56.1719 63.1719 C57.5625 63.1719 58.8594 62.2188 58.8594 60.4844 C58.8594 58.9531 57.875 58.1094 56.125 58 C57.5625 57.6094 58.1875 56.4531 58.1875 55.4844 C58.1875 54.0938 57.1562 53.3125 55.9062 53.3125 C54.2969 53.3125 53.2188 54.5469 53.2188 56.5156 L53.2031 62.9062 Z"
      /><rect x="123" y="70" width="6" style="fill:white; stroke:none;" height="10"
      /><path style="stroke:none;" d="M126.3438 79.6875 C125.2031 79.6875 124.5312 78.5 124.5312 76.2969 C124.5312 76.2188 124.5312 76.125 124.5312 76.0469 C125.0938 75.5 125.7188 75.3125 126.3438 75.3125 C127.3125 75.3125 127.9531 75.9844 127.9531 77.4531 C127.9531 78.9375 127.3125 79.6875 126.3438 79.6875 ZM128.5312 71.0781 C125.3438 71.4531 123.5625 73.7656 123.5625 76.4531 C123.5625 78.7812 124.6094 80.1719 126.3125 80.1719 C127.8438 80.1719 128.9219 79.1094 128.9219 77.2812 C128.9219 75.6875 127.9688 74.6562 126.5625 74.6562 C125.8281 74.6562 125.1406 74.9844 124.5781 75.5781 C124.7969 73.4062 126.0781 71.9688 128.5938 71.3906 L128.5312 71.0781 Z"
      /><rect x="109" y="68" width="6" style="fill:white; stroke:none;" height="13"
      /><path style="stroke:none;" d="M111.0938 74.2031 C111.0938 72.6562 111.75 71.8125 112.7969 71.8125 C113.7188 71.8125 114.2656 72.4531 114.2656 73.5156 C114.2656 74.7188 113.5 75.4375 112.1875 75.7031 L112.2969 76.3125 C114.2188 76.2344 114.9375 77.2188 114.9375 78.4375 C114.9375 79.625 114.2344 80.4219 112.9531 80.4219 C112.25 80.4219 111.6562 80.1562 111.0938 79.7188 L111.0938 74.2031 ZM110.2031 80.9062 L110.1094 83.375 L110.2656 83.4844 L111.1562 83.2656 L111.0156 80.0938 C111.5469 80.8438 112.3594 81.1719 113.1719 81.1719 C114.5625 81.1719 115.8594 80.2188 115.8594 78.4844 C115.8594 76.9531 114.875 76.1094 113.125 76 C114.5625 75.6094 115.1875 74.4531 115.1875 73.4844 C115.1875 72.0938 114.1562 71.3125 112.9062 71.3125 C111.2969 71.3125 110.2188 72.5469 110.2188 74.5156 L110.2031 80.9062 Z"
      /><rect x="179" y="104" width="6" style="fill:white; stroke:none;" height="10"
      /><path style="stroke:none;" d="M181.2344 105.6562 C181.5156 105.5938 181.7656 105.5625 182.0156 105.5625 C183.0625 105.5625 183.6719 106.1719 183.6719 107.2656 C183.6719 108.4375 182.9062 109.1094 181.7031 109.1094 L181.1875 109.1094 L181.1875 109.6406 L181.7969 109.6406 C183.2188 109.6406 183.9062 110.4219 183.9062 111.6406 C183.9062 112.8438 183.1719 113.6875 181.875 113.6875 C181.6094 113.6875 181.3125 113.6562 181.0156 113.5625 L180.7812 112.8125 C180.625 112.2812 180.5 112.0469 180.1406 112.0469 C179.8906 112.0469 179.7031 112.1719 179.5781 112.4219 C179.8438 113.6406 180.7812 114.1719 182.0312 114.1719 C183.7188 114.1719 184.875 113.125 184.875 111.7031 C184.875 110.5 184.2031 109.625 182.7969 109.375 C183.9531 109.0156 184.6094 108.2031 184.6094 107.2031 C184.6094 105.9219 183.6719 105.0781 182.1875 105.0781 C181.0469 105.0781 180.0625 105.5938 179.7969 106.6875 C179.9062 107 180.1094 107.1094 180.3594 107.1094 C180.7344 107.1094 180.8906 106.8906 181 106.4062 L181.2344 105.6562 Z"
      /><rect x="163" y="110" width="6" style="fill:white; stroke:none;" height="13"
      /><path style="stroke:none;" d="M165.0938 116.2031 C165.0938 114.6562 165.75 113.8125 166.7969 113.8125 C167.7188 113.8125 168.2656 114.4531 168.2656 115.5156 C168.2656 116.7188 167.5 117.4375 166.1875 117.7031 L166.2969 118.3125 C168.2188 118.2344 168.9375 119.2188 168.9375 120.4375 C168.9375 121.625 168.2344 122.4219 166.9531 122.4219 C166.25 122.4219 165.6562 122.1562 165.0938 121.7188 L165.0938 116.2031 ZM164.2031 122.9062 L164.1094 125.375 L164.2656 125.4844 L165.1562 125.2656 L165.0156 122.0938 C165.5469 122.8438 166.3594 123.1719 167.1719 123.1719 C168.5625 123.1719 169.8594 122.2188 169.8594 120.4844 C169.8594 118.9531 168.875 118.1094 167.125 118 C168.5625 117.6094 169.1875 116.4531 169.1875 115.4844 C169.1875 114.0938 168.1562 113.3125 166.9062 113.3125 C165.2969 113.3125 164.2188 114.5469 164.2188 116.5156 L164.2031 122.9062 Z"
      /><rect x="172" y="86" width="6" style="fill:white; stroke:none;" height="10"
      /><path style="stroke:none;" d="M175.3438 95.6875 C174.2031 95.6875 173.5312 94.5 173.5312 92.2969 C173.5312 92.2188 173.5312 92.125 173.5312 92.0469 C174.0938 91.5 174.7188 91.3125 175.3438 91.3125 C176.3125 91.3125 176.9531 91.9844 176.9531 93.4531 C176.9531 94.9375 176.3125 95.6875 175.3438 95.6875 ZM177.5312 87.0781 C174.3438 87.4531 172.5625 89.7656 172.5625 92.4531 C172.5625 94.7812 173.6094 96.1719 175.3125 96.1719 C176.8438 96.1719 177.9219 95.1094 177.9219 93.2812 C177.9219 91.6875 176.9688 90.6562 175.5625 90.6562 C174.8281 90.6562 174.1406 90.9844 173.5781 91.5781 C173.7969 89.4062 175.0781 87.9688 177.5938 87.3906 L177.5312 87.0781 Z"
      /><rect x="156" y="76" width="6" style="fill:white; stroke:none;" height="13"
      /><path style="stroke:none;" d="M158.0938 82.2031 C158.0938 80.6562 158.75 79.8125 159.7969 79.8125 C160.7188 79.8125 161.2656 80.4531 161.2656 81.5156 C161.2656 82.7188 160.5 83.4375 159.1875 83.7031 L159.2969 84.3125 C161.2188 84.2344 161.9375 85.2188 161.9375 86.4375 C161.9375 87.625 161.2344 88.4219 159.9531 88.4219 C159.25 88.4219 158.6562 88.1562 158.0938 87.7188 L158.0938 82.2031 ZM157.2031 88.9062 L157.1094 91.375 L157.2656 91.4844 L158.1562 91.2656 L158.0156 88.0938 C158.5469 88.8438 159.3594 89.1719 160.1719 89.1719 C161.5625 89.1719 162.8594 88.2188 162.8594 86.4844 C162.8594 84.9531 161.875 84.1094 160.125 84 C161.5625 83.6094 162.1875 82.4531 162.1875 81.4844 C162.1875 80.0938 161.1562 79.3125 159.9062 79.3125 C158.2969 79.3125 157.2188 80.5469 157.2188 82.5156 L157.2031 88.9062 Z"
      /><rect x="212" y="97" width="8" style="fill:white; stroke:none;" height="8"
      /><path style="stroke:none;" d="M216.9844 102.7031 C216.9375 103.8906 216.1562 104.6562 215.3125 104.6562 C214.2656 104.6562 213.5 103.6875 213.5 101.7188 C213.5 100.2812 214.1562 99.1562 215.3438 99.1562 C216.1406 99.1562 216.7812 99.6875 217.0938 100.6406 L216.9844 102.7031 ZM218.9062 104.2812 C218.7344 104.375 218.5469 104.4219 218.3438 104.4219 C217.9531 104.4219 217.75 104.2188 217.75 103.4219 C217.75 102.4844 217.9688 100.5312 218.1875 98.8281 L218.0312 98.7188 L217.2344 98.9219 L217.1406 99.7969 C216.7812 99.0312 216.1562 98.6562 215.3906 98.6562 C214.0469 98.6562 212.5625 99.8438 212.5625 101.9531 C212.5625 104.0938 213.7188 105.1719 215.1406 105.1719 C216.0156 105.1719 216.6875 104.8125 217.0938 103.9844 C217.2031 104.8594 217.5156 105.1719 218.0156 105.1719 C218.4688 105.1719 218.7969 104.9062 219.0156 104.5625 L218.9062 104.2812 Z"
    /></g
  ></g
></svg
>
