<?xml version="1.0"?>
<!DOCTYPE svg PUBLIC '-//W3C//DTD SVG 1.0//EN'
          'http://www.w3.org/TR/2001/REC-SVG-20010904/DTD/svg10.dtd'>
<svg xmlns:xlink="http://www.w3.org/1999/xlink" style="fill-opacity:1; color-rendering:auto; color-interpolation:auto; text-rendering:auto; stroke:black; stroke-linecap:square; stroke-miterlimit:10; shape-rendering:auto; stroke-opacity:1; fill:black; stroke-dasharray:none; font-weight:normal; stroke-width:1; font-family:'Dialog'; font-style:normal; stroke-linejoin:miter; font-size:12px; stroke-dashoffset:0; image-rendering:auto;" viewBox="0 0 342 160" xmlns="http://www.w3.org/2000/svg"
><!--Generated by the Batik Graphics2D SVG Generator--><defs id="genericDefs"
  /><g
  ><defs id="defs1"
    ><clipPath clipPathUnits="userSpaceOnUse" id="clipPath1"
      ><path style="fill-rule:evenodd;" d="M260 67 L254 74 L243 74 L238 67 L243 59 L254 59 L260 67 Z"
      /></clipPath
      ><clipPath clipPathUnits="userSpaceOnUse" id="clipPath2"
      ><path style="fill-rule:evenodd;" d="M208 93 L202 100 L191 100 L186 93 L191 85 L202 85 L208 93 Z"
      /></clipPath
      ><clipPath clipPathUnits="userSpaceOnUse" id="clipPath3"
      ><path style="fill-rule:evenodd;" d="M156 93 L150 100 L139 100 L134 93 L139 85 L150 85 L156 93 Z"
      /></clipPath
      ><clipPath clipPathUnits="userSpaceOnUse" id="clipPath4"
      ><path d="M104 119 C104 125.0751 99.0751 130 93 130 C86.9249 130 82 125.0751 82 119 C82 112.9249 86.9249 108 93 108 C99.0751 108 104 112.9249 104 119 Z"
      /></clipPath
      ><clipPath clipPathUnits="userSpaceOnUse" id="clipPath5"
      ><path d="M52 119 C52 125.0751 47.0751 130 41 130 C34.9249 130 30 125.0751 30 119 C30 112.9249 34.9249 108 41 108 C47.0751 108 52 112.9249 52 119 Z"
      /></clipPath
      ><clipPath clipPathUnits="userSpaceOnUse" id="clipPath6"
      ><path style="fill-rule:evenodd;" d="M104 67 L98 74 L87 74 L82 67 L87 59 L98 59 L104 67 Z"
      /></clipPath
      ><clipPath clipPathUnits="userSpaceOnUse" id="clipPath7"
      ><path style="fill-rule:evenodd;" d="M208 41 L202 48 L191 48 L186 41 L191 33 L202 33 L208 41 Z"
      /></clipPath
    ></defs
    ><g style="fill:white; text-rendering:optimizeSpeed; stroke:white;"
    ><rect x="0" width="342" height="160" y="0" style="stroke:none;"
      /><polygon style="fill:none; stroke:black;" points=" 301 67 249 67"
      /><path d="M301 56 C295.5 61.5 306.5 72.5 301 78" style="fill:none; stroke:black;"
      /><polygon style="fill:none; stroke:black;" points=" 249 67 197 93"
      /><polygon style="fill:none; stroke:black;" points=" 249 67 197 41"
      /><polygon style="clip-path:url(#clipPath1); stroke:none;" points=" 260 67 254 74 243 74 238 67 243 59 254 59 260 67"
      /><rect x="238" y="56" width="22" style="clip-path:url(#clipPath1); fill:rgb(255,212,0); stroke:none;" height="22"
      /><rect x="238" y="56" width="22" style="clip-path:url(#clipPath1); fill:none; stroke:black;" height="22"
      /><polygon style="fill:none; stroke:black;" points=" 260 67 254 74 243 74 238 67 243 59 254 59 260 67"
      /><polygon style="fill:none; stroke:black;" points=" 197 93 145 93"
      /><polygon style="clip-path:url(#clipPath2); stroke:none;" points=" 208 93 202 100 191 100 186 93 191 85 202 85 208 93"
      /><rect x="186" y="82" width="22" style="clip-path:url(#clipPath2); fill:rgb(0,166,81); stroke:none;" height="22"
      /><rect x="186" y="82" width="22" style="clip-path:url(#clipPath2); fill:none; stroke:black;" height="22"
      /><polygon style="fill:none; stroke:black;" points=" 208 93 202 100 191 100 186 93 191 85 202 85 208 93"
      /><polygon style="fill:none; stroke:black;" points=" 145 93 93 119"
      /><polygon style="fill:none; stroke:black;" points=" 145 93 93 67"
      /><polygon style="clip-path:url(#clipPath3); stroke:none;" points=" 156 93 150 100 139 100 134 93 139 85 150 85 156 93"
      /><rect x="134" y="82" width="22" style="clip-path:url(#clipPath3); fill:rgb(0,166,81); stroke:none;" height="22"
      /><rect x="134" y="82" width="22" style="clip-path:url(#clipPath3); fill:none; stroke:black;" height="22"
      /><polygon style="fill:none; stroke:black;" points=" 156 93 150 100 139 100 134 93 139 85 150 85 156 93"
      /><polygon style="fill:none; stroke:black;" points=" 93 119 41 119"
      /><circle style="clip-path:url(#clipPath4); stroke:none;" r="11" cx="93" cy="119"
      /><rect x="82" y="108" width="22" style="clip-path:url(#clipPath4); fill:rgb(255,212,0); stroke:none;" height="22"
      /><rect x="82" y="108" width="22" style="clip-path:url(#clipPath4); fill:none; stroke:black;" height="22"
      /><circle style="fill:none; stroke:black;" r="11" cx="93" cy="119"
      /><circle style="clip-path:url(#clipPath5); stroke:none;" r="11" cx="41" cy="119"
      /><rect x="30" y="108" width="22" style="clip-path:url(#clipPath5); fill:rgb(255,212,0); stroke:none;" height="22"
      /><rect x="30" y="108" width="22" style="clip-path:url(#clipPath5); fill:none; stroke:black;" height="22"
      /><circle style="fill:none; stroke:black;" r="11" cx="41" cy="119"
      /><rect x="71" y="122" width="5" style="stroke:none;" height="10"
    /></g
    ><g style="font-family:'Serif'; text-rendering:optimizeSpeed; "
    ><path style="stroke:none;" d="M72.8906 130.6875 C72.4844 130.6875 72.1562 131.0469 72.1562 131.4219 C72.1562 131.8125 72.4844 132.1562 72.8906 132.1562 C73.2969 132.1562 73.6406 131.8125 73.6406 131.4219 C73.6406 131.0469 73.2969 130.6875 72.8906 130.6875 ZM74.4688 124.5781 C74.7188 124.8906 74.875 125.2656 74.8906 125.6562 C74.8906 126.1875 74.625 126.5 74.0312 126.7656 L73.4062 127.0156 C72.6406 127.3125 72.3906 127.5469 72.3906 127.9375 C72.3906 128.1094 72.4531 128.3438 72.5781 128.8125 L72.7344 129.3438 L73.1094 129.3438 L73.0938 128.5312 C73.0938 128.0938 73.2031 127.9688 73.7812 127.7344 L74.2031 127.5625 C75.0312 127.2188 75.4531 126.6875 75.4531 125.8438 C75.4531 124.1562 73.6562 123.1875 72.5 123.0312 C72.1094 123.125 71.9062 123.2969 71.9062 123.6406 C71.9062 123.9375 72.0625 124.1562 72.7188 124.2656 L74.4688 124.5781 Z"
      /><rect x="57" y="122" width="5" style="fill:white; stroke:none;" height="10"
      /><path style="stroke:none;" d="M58.8906 130.6875 C58.4844 130.6875 58.1562 131.0469 58.1562 131.4219 C58.1562 131.8125 58.4844 132.1562 58.8906 132.1562 C59.2969 132.1562 59.6406 131.8125 59.6406 131.4219 C59.6406 131.0469 59.2969 130.6875 58.8906 130.6875 ZM60.4688 124.5781 C60.7188 124.8906 60.875 125.2656 60.8906 125.6562 C60.8906 126.1875 60.625 126.5 60.0312 126.7656 L59.4062 127.0156 C58.6406 127.3125 58.3906 127.5469 58.3906 127.9375 C58.3906 128.1094 58.4531 128.3438 58.5781 128.8125 L58.7344 129.3438 L59.1094 129.3438 L59.0938 128.5312 C59.0938 128.0938 59.2031 127.9688 59.7812 127.7344 L60.2031 127.5625 C61.0312 127.2188 61.4531 126.6875 61.4531 125.8438 C61.4531 124.1562 59.6562 123.1875 58.5 123.0312 C58.1094 123.125 57.9062 123.2969 57.9062 123.6406 C57.9062 123.9375 58.0625 124.1562 58.7188 124.2656 L60.4688 124.5781 Z"
      /><polygon style="fill:white; clip-path:url(#clipPath6); stroke:none;" points=" 104 67 98 74 87 74 82 67 87 59 98 59 104 67"
      /><rect x="82" y="56" width="22" style="clip-path:url(#clipPath6); fill:rgb(0,166,81); stroke:none;" height="22"
      /><rect x="82" y="56" width="22" style="fill:none; clip-path:url(#clipPath6);" height="22"
      /><polygon style="fill:none;" points=" 104 67 98 74 87 74 82 67 87 59 98 59 104 67"
      /><rect x="127" y="104" width="5" style="fill:white; stroke:none;" height="10"
      /><path style="stroke:none;" d="M128.8906 112.6875 C128.4844 112.6875 128.1562 113.0469 128.1562 113.4219 C128.1562 113.8125 128.4844 114.1562 128.8906 114.1562 C129.2969 114.1562 129.6406 113.8125 129.6406 113.4219 C129.6406 113.0469 129.2969 112.6875 128.8906 112.6875 ZM130.4688 106.5781 C130.7188 106.8906 130.875 107.2656 130.8906 107.6562 C130.8906 108.1875 130.625 108.5 130.0312 108.7656 L129.4062 109.0156 C128.6406 109.3125 128.3906 109.5469 128.3906 109.9375 C128.3906 110.1094 128.4531 110.3438 128.5781 110.8125 L128.7344 111.3438 L129.1094 111.3438 L129.0938 110.5312 C129.0938 110.0938 129.2031 109.9688 129.7812 109.7344 L130.2031 109.5625 C131.0312 109.2188 131.4531 108.6875 131.4531 107.8438 C131.4531 106.1562 129.6562 105.1875 128.5 105.0312 C128.1094 105.125 127.9062 105.2969 127.9062 105.6406 C127.9062 105.9375 128.0625 106.1562 128.7188 106.2656 L130.4688 106.5781 Z"
      /><rect x="112" y="112" width="5" style="fill:white; stroke:none;" height="10"
      /><path style="stroke:none;" d="M113.8906 120.6875 C113.4844 120.6875 113.1562 121.0469 113.1562 121.4219 C113.1562 121.8125 113.4844 122.1562 113.8906 122.1562 C114.2969 122.1562 114.6406 121.8125 114.6406 121.4219 C114.6406 121.0469 114.2969 120.6875 113.8906 120.6875 ZM115.4688 114.5781 C115.7188 114.8906 115.875 115.2656 115.8906 115.6562 C115.8906 116.1875 115.625 116.5 115.0312 116.7656 L114.4062 117.0156 C113.6406 117.3125 113.3906 117.5469 113.3906 117.9375 C113.3906 118.1094 113.4531 118.3438 113.5781 118.8125 L113.7344 119.3438 L114.1094 119.3438 L114.0938 118.5312 C114.0938 118.0938 114.2031 117.9688 114.7812 117.7344 L115.2031 117.5625 C116.0312 117.2188 116.4531 116.6875 116.4531 115.8438 C116.4531 114.1562 114.6562 113.1875 113.5 113.0312 C113.1094 113.125 112.9062 113.2969 112.9062 113.6406 C112.9062 113.9375 113.0625 114.1562 113.7188 114.2656 L115.4688 114.5781 Z"
      /><rect x="120" y="86" width="5" style="fill:white; stroke:none;" height="10"
      /><path style="stroke:none;" d="M121.8906 94.6875 C121.4844 94.6875 121.1562 95.0469 121.1562 95.4219 C121.1562 95.8125 121.4844 96.1562 121.8906 96.1562 C122.2969 96.1562 122.6406 95.8125 122.6406 95.4219 C122.6406 95.0469 122.2969 94.6875 121.8906 94.6875 ZM123.4688 88.5781 C123.7188 88.8906 123.875 89.2656 123.8906 89.6562 C123.8906 90.1875 123.625 90.5 123.0312 90.7656 L122.4062 91.0156 C121.6406 91.3125 121.3906 91.5469 121.3906 91.9375 C121.3906 92.1094 121.4531 92.3438 121.5781 92.8125 L121.7344 93.3438 L122.1094 93.3438 L122.0938 92.5312 C122.0938 92.0938 122.2031 91.9688 122.7812 91.7344 L123.2031 91.5625 C124.0312 91.2188 124.4531 90.6875 124.4531 89.8438 C124.4531 88.1562 122.6562 87.1875 121.5 87.0312 C121.1094 87.125 120.9062 87.2969 120.9062 87.6406 C120.9062 87.9375 121.0625 88.1562 121.7188 88.2656 L123.4688 88.5781 Z"
      /><rect x="105" y="78" width="5" style="fill:white; stroke:none;" height="10"
      /><path style="stroke:none;" d="M106.8906 86.6875 C106.4844 86.6875 106.1562 87.0469 106.1562 87.4219 C106.1562 87.8125 106.4844 88.1562 106.8906 88.1562 C107.2969 88.1562 107.6406 87.8125 107.6406 87.4219 C107.6406 87.0469 107.2969 86.6875 106.8906 86.6875 ZM108.4688 80.5781 C108.7188 80.8906 108.875 81.2656 108.8906 81.6562 C108.8906 82.1875 108.625 82.5 108.0312 82.7656 L107.4062 83.0156 C106.6406 83.3125 106.3906 83.5469 106.3906 83.9375 C106.3906 84.1094 106.4531 84.3438 106.5781 84.8125 L106.7344 85.3438 L107.1094 85.3438 L107.0938 84.5312 C107.0938 84.0938 107.2031 83.9688 107.7812 83.7344 L108.2031 83.5625 C109.0312 83.2188 109.4531 82.6875 109.4531 81.8438 C109.4531 80.1562 107.6562 79.1875 106.5 79.0312 C106.1094 79.125 105.9062 79.2969 105.9062 79.6406 C105.9062 79.9375 106.0625 80.1562 106.7188 80.2656 L108.4688 80.5781 Z"
      /><rect x="175" y="96" width="5" style="fill:white; stroke:none;" height="10"
      /><path style="stroke:none;" d="M176.8906 104.6875 C176.4844 104.6875 176.1562 105.0469 176.1562 105.4219 C176.1562 105.8125 176.4844 106.1562 176.8906 106.1562 C177.2969 106.1562 177.6406 105.8125 177.6406 105.4219 C177.6406 105.0469 177.2969 104.6875 176.8906 104.6875 ZM178.4688 98.5781 C178.7188 98.8906 178.875 99.2656 178.8906 99.6562 C178.8906 100.1875 178.625 100.5 178.0312 100.7656 L177.4062 101.0156 C176.6406 101.3125 176.3906 101.5469 176.3906 101.9375 C176.3906 102.1094 176.4531 102.3438 176.5781 102.8125 L176.7344 103.3438 L177.1094 103.3438 L177.0938 102.5312 C177.0938 102.0938 177.2031 101.9688 177.7812 101.7344 L178.2031 101.5625 C179.0312 101.2188 179.4531 100.6875 179.4531 99.8438 C179.4531 98.1562 177.6562 97.1875 176.5 97.0312 C176.1094 97.125 175.9062 97.2969 175.9062 97.6406 C175.9062 97.9375 176.0625 98.1562 176.7188 98.2656 L178.4688 98.5781 Z"
      /><rect x="161" y="96" width="5" style="fill:white; stroke:none;" height="10"
      /><path style="stroke:none;" d="M162.8906 104.6875 C162.4844 104.6875 162.1562 105.0469 162.1562 105.4219 C162.1562 105.8125 162.4844 106.1562 162.8906 106.1562 C163.2969 106.1562 163.6406 105.8125 163.6406 105.4219 C163.6406 105.0469 163.2969 104.6875 162.8906 104.6875 ZM164.4688 98.5781 C164.7188 98.8906 164.875 99.2656 164.8906 99.6562 C164.8906 100.1875 164.625 100.5 164.0312 100.7656 L163.4062 101.0156 C162.6406 101.3125 162.3906 101.5469 162.3906 101.9375 C162.3906 102.1094 162.4531 102.3438 162.5781 102.8125 L162.7344 103.3438 L163.1094 103.3438 L163.0938 102.5312 C163.0938 102.0938 163.2031 101.9688 163.7812 101.7344 L164.2031 101.5625 C165.0312 101.2188 165.4531 100.6875 165.4531 99.8438 C165.4531 98.1562 163.6562 97.1875 162.5 97.0312 C162.1094 97.125 161.9062 97.2969 161.9062 97.6406 C161.9062 97.9375 162.0625 98.1562 162.7188 98.2656 L164.4688 98.5781 Z"
      /><polygon style="fill:white; clip-path:url(#clipPath7); stroke:none;" points=" 208 41 202 48 191 48 186 41 191 33 202 33 208 41"
      /><rect x="186" y="30" width="22" style="clip-path:url(#clipPath7); fill:rgb(255,212,0); stroke:none;" height="22"
      /><rect x="186" y="30" width="22" style="fill:none; clip-path:url(#clipPath7);" height="22"
      /><polygon style="fill:none;" points=" 208 41 202 48 191 48 186 41 191 33 202 33 208 41"
      /><rect x="231" y="78" width="5" style="fill:white; stroke:none;" height="10"
      /><path style="stroke:none;" d="M232.8906 86.6875 C232.4844 86.6875 232.1562 87.0469 232.1562 87.4219 C232.1562 87.8125 232.4844 88.1562 232.8906 88.1562 C233.2969 88.1562 233.6406 87.8125 233.6406 87.4219 C233.6406 87.0469 233.2969 86.6875 232.8906 86.6875 ZM234.4688 80.5781 C234.7188 80.8906 234.875 81.2656 234.8906 81.6562 C234.8906 82.1875 234.625 82.5 234.0312 82.7656 L233.4062 83.0156 C232.6406 83.3125 232.3906 83.5469 232.3906 83.9375 C232.3906 84.1094 232.4531 84.3438 232.5781 84.8125 L232.7344 85.3438 L233.1094 85.3438 L233.0938 84.5312 C233.0938 84.0938 233.2031 83.9688 233.7812 83.7344 L234.2031 83.5625 C235.0312 83.2188 235.4531 82.6875 235.4531 81.8438 C235.4531 80.1562 233.6562 79.1875 232.5 79.0312 C232.1094 79.125 231.9062 79.2969 231.9062 79.6406 C231.9062 79.9375 232.0625 80.1562 232.7188 80.2656 L234.4688 80.5781 Z"
      /><rect x="216" y="86" width="5" style="fill:white; stroke:none;" height="10"
      /><path style="stroke:none;" d="M217.8906 94.6875 C217.4844 94.6875 217.1562 95.0469 217.1562 95.4219 C217.1562 95.8125 217.4844 96.1562 217.8906 96.1562 C218.2969 96.1562 218.6406 95.8125 218.6406 95.4219 C218.6406 95.0469 218.2969 94.6875 217.8906 94.6875 ZM219.4688 88.5781 C219.7188 88.8906 219.875 89.2656 219.8906 89.6562 C219.8906 90.1875 219.625 90.5 219.0312 90.7656 L218.4062 91.0156 C217.6406 91.3125 217.3906 91.5469 217.3906 91.9375 C217.3906 92.1094 217.4531 92.3438 217.5781 92.8125 L217.7344 93.3438 L218.1094 93.3438 L218.0938 92.5312 C218.0938 92.0938 218.2031 91.9688 218.7812 91.7344 L219.2031 91.5625 C220.0312 91.2188 220.4531 90.6875 220.4531 89.8438 C220.4531 88.1562 218.6562 87.1875 217.5 87.0312 C217.1094 87.125 216.9062 87.2969 216.9062 87.6406 C216.9062 87.9375 217.0625 88.1562 217.7188 88.2656 L219.4688 88.5781 Z"
      /><rect x="224" y="60" width="5" style="fill:white; stroke:none;" height="10"
      /><path style="stroke:none;" d="M225.8906 68.6875 C225.4844 68.6875 225.1562 69.0469 225.1562 69.4219 C225.1562 69.8125 225.4844 70.1562 225.8906 70.1562 C226.2969 70.1562 226.6406 69.8125 226.6406 69.4219 C226.6406 69.0469 226.2969 68.6875 225.8906 68.6875 ZM227.4688 62.5781 C227.7188 62.8906 227.875 63.2656 227.8906 63.6562 C227.8906 64.1875 227.625 64.5 227.0312 64.7656 L226.4062 65.0156 C225.6406 65.3125 225.3906 65.5469 225.3906 65.9375 C225.3906 66.1094 225.4531 66.3438 225.5781 66.8125 L225.7344 67.3438 L226.1094 67.3438 L226.0938 66.5312 C226.0938 66.0938 226.2031 65.9688 226.7812 65.7344 L227.2031 65.5625 C228.0312 65.2188 228.4531 64.6875 228.4531 63.8438 C228.4531 62.1562 226.6562 61.1875 225.5 61.0312 C225.1094 61.125 224.9062 61.2969 224.9062 61.6406 C224.9062 61.9375 225.0625 62.1562 225.7188 62.2656 L227.4688 62.5781 Z"
      /><rect x="209" y="52" width="5" style="fill:white; stroke:none;" height="10"
      /><path style="stroke:none;" d="M210.8906 60.6875 C210.4844 60.6875 210.1562 61.0469 210.1562 61.4219 C210.1562 61.8125 210.4844 62.1562 210.8906 62.1562 C211.2969 62.1562 211.6406 61.8125 211.6406 61.4219 C211.6406 61.0469 211.2969 60.6875 210.8906 60.6875 ZM212.4688 54.5781 C212.7188 54.8906 212.875 55.2656 212.8906 55.6562 C212.8906 56.1875 212.625 56.5 212.0312 56.7656 L211.4062 57.0156 C210.6406 57.3125 210.3906 57.5469 210.3906 57.9375 C210.3906 58.1094 210.4531 58.3438 210.5781 58.8125 L210.7344 59.3438 L211.1094 59.3438 L211.0938 58.5312 C211.0938 58.0938 211.2031 57.9688 211.7812 57.7344 L212.2031 57.5625 C213.0312 57.2188 213.4531 56.6875 213.4531 55.8438 C213.4531 54.1562 211.6562 53.1875 210.5 53.0312 C210.1094 53.125 209.9062 53.2969 209.9062 53.6406 C209.9062 53.9375 210.0625 54.1562 210.7188 54.2656 L212.4688 54.5781 Z"
      /><rect x="265" y="70" width="5" style="fill:white; stroke:none;" height="10"
      /><path style="stroke:none;" d="M266.8906 78.6875 C266.4844 78.6875 266.1562 79.0469 266.1562 79.4219 C266.1562 79.8125 266.4844 80.1562 266.8906 80.1562 C267.2969 80.1562 267.6406 79.8125 267.6406 79.4219 C267.6406 79.0469 267.2969 78.6875 266.8906 78.6875 ZM268.4688 72.5781 C268.7188 72.8906 268.875 73.2656 268.8906 73.6562 C268.8906 74.1875 268.625 74.5 268.0312 74.7656 L267.4062 75.0156 C266.6406 75.3125 266.3906 75.5469 266.3906 75.9375 C266.3906 76.1094 266.4531 76.3438 266.5781 76.8125 L266.7344 77.3438 L267.1094 77.3438 L267.0938 76.5312 C267.0938 76.0938 267.2031 75.9688 267.7812 75.7344 L268.2031 75.5625 C269.0312 75.2188 269.4531 74.6875 269.4531 73.8438 C269.4531 72.1562 267.6562 71.1875 266.5 71.0312 C266.1094 71.125 265.9062 71.2969 265.9062 71.6406 C265.9062 71.9375 266.0625 72.1562 266.7188 72.2656 L268.4688 72.5781 Z"
    /></g
  ></g
></svg
>
