<?xml version="1.0"?>
<!DOCTYPE svg PUBLIC '-//W3C//DTD SVG 1.0//EN'
          'http://www.w3.org/TR/2001/REC-SVG-20010904/DTD/svg10.dtd'>
<svg xmlns:xlink="http://www.w3.org/1999/xlink" style="fill-opacity:1; color-rendering:auto; color-interpolation:auto; text-rendering:auto; stroke:black; stroke-linecap:square; stroke-miterlimit:10; shape-rendering:auto; stroke-opacity:1; fill:black; stroke-dasharray:none; font-weight:normal; stroke-width:1; font-family:'Dialog'; font-style:normal; stroke-linejoin:miter; font-size:12px; stroke-dashoffset:0; image-rendering:auto;" viewBox="0 0 463 134" xmlns="http://www.w3.org/2000/svg"
><!--Generated by the Batik Graphics2D SVG Generator--><defs id="genericDefs"
  /><g
  ><defs id="defs1"
    ><clipPath clipPathUnits="userSpaceOnUse" id="clipPath1"
      ><path d="M381 45 Q359 67 381 89"
      /></clipPath
      ><clipPath clipPathUnits="userSpaceOnUse" id="clipPath2"
      ><path style="fill-rule:evenodd;" d="M309 56 L320 78 L298 78 Z"
      /></clipPath
      ><clipPath clipPathUnits="userSpaceOnUse" id="clipPath3"
      ><path d="M260 67 C260 73.0751 255.0751 78 249 78 C242.9249 78 238 73.0751 238 67 C238 60.9249 242.9249 56 249 56 C255.0751 56 260 60.9249 260 67 Z"
      /></clipPath
      ><clipPath clipPathUnits="userSpaceOnUse" id="clipPath4"
      ><path style="fill-rule:evenodd;" d="M145 56 L147 63 L155 63 L148 68 L151 75 L145 71 L138 75 L141 68 L134 63 L142 63 L145 56 Z"
      /></clipPath
      ><clipPath clipPathUnits="userSpaceOnUse" id="clipPath5"
      ><path d="M82 56 L104 56 L104 78 L82 78 L82 56 Z"
      /></clipPath
      ><clipPath clipPathUnits="userSpaceOnUse" id="clipPath6"
      ><path d="M30 71 Q52 93 30 115"
      /></clipPath
      ><clipPath clipPathUnits="userSpaceOnUse" id="clipPath7"
      ><path d="M30 30 L52 30 L52 52 L30 52 L30 30 Z"
      /></clipPath
    ></defs
    ><g style="fill:white; text-rendering:optimizeSpeed; stroke:white;"
    ><rect x="0" width="463" height="134" y="0" style="stroke:none;"
      /><polygon style="fill:none; stroke:black;" points=" 370 67 309 67"
      /><path d="M381 45 Q359 67 381 89" style="clip-path:url(#clipPath1); stroke:none;"
      /><path d="M381 45 Q359 67 381 89" style="fill:none; stroke:black;"
      /><polygon style="fill:none; stroke:black;" points=" 309 67 249 67"
      /><polygon style="clip-path:url(#clipPath2); stroke:none;" points=" 309 56 320 78 298 78"
      /><rect x="298" y="56" width="22" style="clip-path:url(#clipPath2); fill:rgb(237,28,36); stroke:none;" height="22"
      /><rect x="298" y="56" width="22" style="clip-path:url(#clipPath2); fill:none; stroke:black;" height="22"
      /><polygon style="fill:none; stroke:black;" points=" 309 56 320 78 298 78"
      /><rect x="290" y="84" width="37" style="stroke:none;" height="10"
    /></g
    ><g style="text-rendering:optimizeSpeed; font-size:14px; font-family:'SansSerif';"
    ><path style="stroke:none;" d="M290.6094 95 L297.0625 95 L297.0625 93.8906 L294.2344 93.8906 C293.7031 93.8906 293.0781 93.9531 292.5469 93.9844 C294.9531 91.7031 296.5625 89.625 296.5625 87.5781 C296.5625 85.75 295.4219 84.5469 293.5781 84.5469 C292.2812 84.5469 291.4062 85.1406 290.5625 86.0469 L291.2969 86.7812 C291.8594 86.1094 292.5938 85.5938 293.4375 85.5938 C294.7031 85.5938 295.3125 86.4531 295.3125 87.625 C295.3125 89.3906 293.8438 91.4375 290.6094 94.25 L290.6094 95 ZM299.1762 95 L300.395 95 L300.395 89.6094 C300.395 88.5312 300.3012 87.4375 300.2543 86.4062 L300.3012 86.4062 L301.4106 88.5156 L305.145 95 L306.4731 95 L306.4731 84.7188 L305.2387 84.7188 L305.2387 90.0781 C305.2387 91.1406 305.3481 92.2812 305.4106 93.3125 L305.3481 93.3125 L304.2543 91.2031 L300.52 84.7188 L299.1762 84.7188 L299.1762 95 ZM311.0498 89.2656 C311.4248 88.0938 311.7529 86.9844 312.0811 85.7812 L312.1279 85.7812 C312.4717 86.9844 312.7842 88.0938 313.1748 89.2656 L313.6592 90.8281 L310.5498 90.8281 L311.0498 89.2656 ZM307.9248 95 L309.2373 95 L310.2373 91.8594 L313.9873 91.8594 L314.9561 95 L316.3311 95 L312.8467 84.7188 L311.4092 84.7188 L307.9248 95 ZM317.6572 95 L318.9384 95 L318.9384 89.4844 C319.6415 88.7031 320.2822 88.3281 320.8603 88.3281 C321.829 88.3281 322.2665 88.9219 322.2665 90.3594 L322.2665 95 L323.5478 95 L323.5478 89.4844 C324.2509 88.7031 324.8759 88.3281 325.4697 88.3281 C326.4228 88.3281 326.8759 88.9219 326.8759 90.3594 L326.8759 95 L328.1572 95 L328.1572 90.1875 C328.1572 88.2344 327.4072 87.2031 325.8447 87.2031 C324.9228 87.2031 324.1103 87.7969 323.329 88.6562 C323.0322 87.7656 322.3915 87.2031 321.2353 87.2031 C320.329 87.2031 319.5322 87.7812 318.8603 88.5 L318.829 88.5 L318.7197 87.3906 L317.6572 87.3906 L317.6572 95 Z"
      /><polygon style="fill:none;" points=" 249 67 197 67"
    /></g
    ><g style="fill:white; text-rendering:optimizeSpeed; stroke:white;"
    ><circle r="11" style="clip-path:url(#clipPath3); stroke:none;" cx="249" cy="67"
      /><rect x="238" y="56" width="22" style="clip-path:url(#clipPath3); fill:rgb(255,212,0); stroke:none;" height="22"
      /><rect x="238" y="56" width="22" style="clip-path:url(#clipPath3); fill:none; stroke:black;" height="22"
      /><circle r="11" style="fill:none; stroke:black;" cx="249" cy="67"
      /><polygon style="fill:none; stroke:black;" points=" 197 67 145 67"
      /><rect x="193" width="6" height="10" y="61" style="stroke:none;"
    /></g
    ><g style="text-rendering:optimizeSpeed; font-size:14px; font-family:'SansSerif';"
    ><path style="stroke:none;" d="M194.4062 72 L195.7031 72 L195.7031 67.9219 L197.3906 67.9219 C199.6562 67.9219 201.1719 66.9219 201.1719 64.75 C201.1719 62.5156 199.6406 61.7188 197.3438 61.7188 L194.4062 61.7188 L194.4062 72 ZM195.7031 66.875 L195.7031 62.7812 L197.1719 62.7812 C198.9844 62.7812 199.8906 63.2656 199.8906 64.75 C199.8906 66.2188 199.0312 66.875 197.2344 66.875 L195.7031 66.875 Z"
      /><polygon style="fill:none;" points=" 145 67 93 67"
    /></g
    ><g style="fill:white; text-rendering:optimizeSpeed; stroke:white;"
    ><polygon style="stroke:none; clip-path:url(#clipPath4);" points=" 145 56 147 63 155 63 148 68 151 75 145 71 138 75 141 68 134 63 142 63 145 56"
      /><rect x="134" y="56" width="22" style="clip-path:url(#clipPath4); fill:rgb(246,158,161); stroke:none;" height="22"
      /><rect x="134" y="56" width="22" style="clip-path:url(#clipPath4); fill:none; stroke:black;" height="22"
      /><polygon style="fill:none; stroke:black;" points=" 145 56 147 63 155 63 148 68 151 75 145 71 138 75 141 68 134 63 142 63 145 56"
    /></g
    ><g style="font-style:italic; text-rendering:optimizeSpeed; font-size:10px; font-family:'SansSerif';"
    ><path style="stroke:none;" d="M145 69.125 C146.3281 69.125 147.7344 68.0938 148.125 66.2969 C148.5 64.4844 147.5469 63.4375 146.2188 63.4375 C144.8906 63.4375 143.4688 64.4844 143.0938 66.2969 C142.7031 68.0938 143.6719 69.125 145 69.125 ZM145.1719 68.375 C144.2344 68.375 143.7656 67.5469 144.0312 66.2969 C144.2969 65.0469 145.1094 64.1875 146.0469 64.1875 C146.9844 64.1875 147.4531 65.0469 147.1875 66.2969 C146.9219 67.5469 146.1094 68.375 145.1719 68.375 Z"
      /><polygon style="fill:none;" points=" 93 67 41 93"
      /><polygon style="fill:none;" points=" 93 67 41 41"
    /></g
    ><g style="fill:white; text-rendering:optimizeSpeed; stroke:white;"
    ><rect x="82" y="56" width="22" style="clip-path:url(#clipPath5); stroke:none;" height="22"
      /><rect x="82" y="56" width="22" style="clip-path:url(#clipPath5); fill:rgb(0,144,188); stroke:none;" height="22"
      /><rect x="82" y="56" width="22" style="clip-path:url(#clipPath5); fill:none; stroke:black;" height="22"
      /><rect x="82" y="56" width="22" style="fill:none; stroke:black;" height="22"
      /><path d="M30 71 Q52 93 30 115" style="clip-path:url(#clipPath6); stroke:none;"
      /><path d="M30 71 Q52 93 30 115" style="fill:none; stroke:black;"
      /><rect x="30" y="30" width="22" style="clip-path:url(#clipPath7); stroke:none;" height="22"
      /><rect x="30" y="30" width="22" style="clip-path:url(#clipPath7); fill:rgb(0,144,188); stroke:none;" height="22"
      /><rect x="30" y="30" width="22" style="clip-path:url(#clipPath7); fill:none; stroke:black;" height="22"
      /><rect x="30" y="30" width="22" style="fill:none; stroke:black;" height="22"
      /><rect x="75" width="6" height="10" y="78" style="stroke:none;"
      /><path d="M77.2344 79.6562 C77.5156 79.5938 77.7656 79.5625 78.0156 79.5625 C79.0625 79.5625 79.6719 80.1719 79.6719 81.2656 C79.6719 82.4375 78.9062 83.1094 77.7031 83.1094 L77.1875 83.1094 L77.1875 83.6406 L77.7969 83.6406 C79.2188 83.6406 79.9062 84.4219 79.9062 85.6406 C79.9062 86.8438 79.1719 87.6875 77.875 87.6875 C77.6094 87.6875 77.3125 87.6562 77.0156 87.5625 L76.7812 86.8125 C76.625 86.2812 76.5 86.0469 76.1406 86.0469 C75.8906 86.0469 75.7031 86.1719 75.5781 86.4219 C75.8438 87.6406 76.7812 88.1719 78.0312 88.1719 C79.7188 88.1719 80.875 87.125 80.875 85.7031 C80.875 84.5 80.2031 83.625 78.7969 83.375 C79.9531 83.0156 80.6094 82.2031 80.6094 81.2031 C80.6094 79.9219 79.6719 79.0781 78.1875 79.0781 C77.0469 79.0781 76.0625 79.5938 75.7969 80.6875 C75.9062 81 76.1094 81.1094 76.3594 81.1094 C76.7344 81.1094 76.8906 80.8906 77 80.4062 L77.2344 79.6562 Z" style="fill:black; stroke:none;"
      /><rect x="67" width="7" height="9" y="60" style="stroke:none;"
      /><path d="M68 65.5156 L70.9531 61.2656 L70.9531 65.5156 L68 65.5156 ZM73.2812 65.5156 L71.8594 65.5156 L71.8594 60.125 L71.2344 60.125 L67.3438 65.6406 L67.3438 66.1875 L70.9531 66.1875 L70.9531 69 L71.8594 69 L71.8594 66.1875 L73.2812 66.1875 L73.2812 65.5156 Z" style="fill:black; stroke:none;"
      /><rect x="52" width="6" height="13" y="50" style="stroke:none;"
      /><path d="M54.0938 56.2031 C54.0938 54.6562 54.75 53.8125 55.7969 53.8125 C56.7188 53.8125 57.2656 54.4531 57.2656 55.5156 C57.2656 56.7188 56.5 57.4375 55.1875 57.7031 L55.2969 58.3125 C57.2188 58.2344 57.9375 59.2188 57.9375 60.4375 C57.9375 61.625 57.2344 62.4219 55.9531 62.4219 C55.25 62.4219 54.6562 62.1562 54.0938 61.7188 L54.0938 56.2031 ZM53.2031 62.9062 L53.1094 65.375 L53.2656 65.4844 L54.1562 65.2656 L54.0156 62.0938 C54.5469 62.8438 55.3594 63.1719 56.1719 63.1719 C57.5625 63.1719 58.8594 62.2188 58.8594 60.4844 C58.8594 58.9531 57.875 58.1094 56.125 58 C57.5625 57.6094 58.1875 56.4531 58.1875 55.4844 C58.1875 54.0938 57.1562 53.3125 55.9062 53.3125 C54.2969 53.3125 53.2188 54.5469 53.2188 56.5156 L53.2031 62.9062 Z" style="fill:black; stroke:none;"
      /><rect x="123" width="6" height="9" y="70" style="stroke:none;"
      /><path d="M124.4219 78.0938 C125.0781 77.375 125.7031 76.7188 126.0312 76.3438 C127.9219 74.3125 128.5312 73.4688 128.5312 72.3594 C128.5312 71.0156 127.7812 70.0781 126.1562 70.0781 C124.9062 70.0781 123.7969 70.7031 123.5938 71.9688 C123.7188 72.2031 123.9062 72.3438 124.1562 72.3438 C124.4688 72.3438 124.6562 72.1094 124.7969 71.5938 L125.0938 70.6719 C125.3906 70.5938 125.6562 70.5625 125.8906 70.5625 C126.9219 70.5625 127.5469 71.3125 127.5469 72.4219 C127.5469 73.4375 126.9844 74.4219 125.7031 75.9062 C125.125 76.5781 124.3906 77.4375 123.6406 78.2812 L123.6406 79 L128.9219 79 L128.9219 78.0938 L124.4219 78.0938 Z" style="fill:black; stroke:none;"
      /><rect x="109" width="6" height="13" y="68" style="stroke:none;"
      /><path d="M111.0938 74.2031 C111.0938 72.6562 111.75 71.8125 112.7969 71.8125 C113.7188 71.8125 114.2656 72.4531 114.2656 73.5156 C114.2656 74.7188 113.5 75.4375 112.1875 75.7031 L112.2969 76.3125 C114.2188 76.2344 114.9375 77.2188 114.9375 78.4375 C114.9375 79.625 114.2344 80.4219 112.9531 80.4219 C112.25 80.4219 111.6562 80.1562 111.0938 79.7188 L111.0938 74.2031 ZM110.2031 80.9062 L110.1094 83.375 L110.2656 83.4844 L111.1562 83.2656 L111.0156 80.0938 C111.5469 80.8438 112.3594 81.1719 113.1719 81.1719 C114.5625 81.1719 115.8594 80.2188 115.8594 78.4844 C115.8594 76.9531 114.875 76.1094 113.125 76 C114.5625 75.6094 115.1875 74.4531 115.1875 73.4844 C115.1875 72.0938 114.1562 71.3125 112.9062 71.3125 C111.2969 71.3125 110.2188 72.5469 110.2188 74.5156 L110.2031 80.9062 Z" style="fill:black; stroke:none;"
      /><rect x="175" width="6" height="10" y="70" style="stroke:none;"
      /><path d="M176.9219 72.1406 L180.6562 72.1406 L180.6562 71.25 L176.4531 71.25 L176.1719 75.3125 L176.5156 75.3906 C176.9219 75.25 177.3906 75.1875 177.8125 75.1875 C179.0781 75.1875 179.9219 75.9531 179.9219 77.3906 C179.9219 78.7812 179.1719 79.6875 177.8281 79.6875 C177.5156 79.6875 177.2344 79.6406 176.9375 79.5625 L176.6875 78.7812 C176.5312 78.2188 176.3906 78.0469 176.0625 78.0469 C175.7969 78.0469 175.5938 78.1719 175.4844 78.4375 C175.7656 79.5938 176.625 80.1719 177.8906 80.1719 C179.7031 80.1719 180.875 78.9844 180.875 77.2812 C180.875 75.5312 179.75 74.5469 178.0938 74.5469 C177.6094 74.5469 177.1719 74.625 176.7344 74.7656 L176.9219 72.1406 Z" style="fill:black; stroke:none;"
      /><rect x="161" width="5" height="10" y="54" style="stroke:none;"
      /><path d="M162.8906 62.6875 C162.4844 62.6875 162.1562 63.0469 162.1562 63.4219 C162.1562 63.8125 162.4844 64.1562 162.8906 64.1562 C163.2969 64.1562 163.6406 63.8125 163.6406 63.4219 C163.6406 63.0469 163.2969 62.6875 162.8906 62.6875 ZM164.4688 56.5781 C164.7188 56.8906 164.875 57.2656 164.8906 57.6562 C164.8906 58.1875 164.625 58.5 164.0312 58.7656 L163.4062 59.0156 C162.6406 59.3125 162.3906 59.5469 162.3906 59.9375 C162.3906 60.1094 162.4531 60.3438 162.5781 60.8125 L162.7344 61.3438 L163.1094 61.3438 L163.0938 60.5312 C163.0938 60.0938 163.2031 59.9688 163.7812 59.7344 L164.2031 59.5625 C165.0312 59.2188 165.4531 58.6875 165.4531 57.8438 C165.4531 56.1562 163.6562 55.1875 162.5 55.0312 C162.1094 55.125 161.9062 55.2969 161.9062 55.6406 C161.9062 55.9375 162.0625 56.1562 162.7188 56.2656 L164.4688 56.5781 Z" style="fill:black; stroke:none;"
      /><rect x="161" width="5" height="10" y="70" style="stroke:none;"
      /><path d="M162.8906 78.6875 C162.4844 78.6875 162.1562 79.0469 162.1562 79.4219 C162.1562 79.8125 162.4844 80.1562 162.8906 80.1562 C163.2969 80.1562 163.6406 79.8125 163.6406 79.4219 C163.6406 79.0469 163.2969 78.6875 162.8906 78.6875 ZM164.4688 72.5781 C164.7188 72.8906 164.875 73.2656 164.8906 73.6562 C164.8906 74.1875 164.625 74.5 164.0312 74.7656 L163.4062 75.0156 C162.6406 75.3125 162.3906 75.5469 162.3906 75.9375 C162.3906 76.1094 162.4531 76.3438 162.5781 76.8125 L162.7344 77.3438 L163.1094 77.3438 L163.0938 76.5312 C163.0938 76.0938 163.2031 75.9688 163.7812 75.7344 L164.2031 75.5625 C165.0312 75.2188 165.4531 74.6875 165.4531 73.8438 C165.4531 72.1562 163.6562 71.1875 162.5 71.0312 C162.1094 71.125 161.9062 71.2969 161.9062 71.6406 C161.9062 71.9375 162.0625 72.1562 162.7188 72.2656 L164.4688 72.5781 Z" style="fill:black; stroke:none;"
      /><rect x="227" width="6" height="10" y="70" style="stroke:none;"
      /><path d="M230.3438 79.6875 C229.2031 79.6875 228.5312 78.5 228.5312 76.2969 C228.5312 76.2188 228.5312 76.125 228.5312 76.0469 C229.0938 75.5 229.7188 75.3125 230.3438 75.3125 C231.3125 75.3125 231.9531 75.9844 231.9531 77.4531 C231.9531 78.9375 231.3125 79.6875 230.3438 79.6875 ZM232.5312 71.0781 C229.3438 71.4531 227.5625 73.7656 227.5625 76.4531 C227.5625 78.7812 228.6094 80.1719 230.3125 80.1719 C231.8438 80.1719 232.9219 79.1094 232.9219 77.2812 C232.9219 75.6875 231.9688 74.6562 230.5625 74.6562 C229.8281 74.6562 229.1406 74.9844 228.5781 75.5781 C228.7969 73.4062 230.0781 71.9688 232.5938 71.3906 L232.5312 71.0781 Z" style="fill:black; stroke:none;"
      /><rect x="279" width="6" height="10" y="70" style="stroke:none;"
      /><path d="M281.2344 71.6562 C281.5156 71.5938 281.7656 71.5625 282.0156 71.5625 C283.0625 71.5625 283.6719 72.1719 283.6719 73.2656 C283.6719 74.4375 282.9062 75.1094 281.7031 75.1094 L281.1875 75.1094 L281.1875 75.6406 L281.7969 75.6406 C283.2188 75.6406 283.9062 76.4219 283.9062 77.6406 C283.9062 78.8438 283.1719 79.6875 281.875 79.6875 C281.6094 79.6875 281.3125 79.6562 281.0156 79.5625 L280.7812 78.8125 C280.625 78.2812 280.5 78.0469 280.1406 78.0469 C279.8906 78.0469 279.7031 78.1719 279.5781 78.4219 C279.8438 79.6406 280.7812 80.1719 282.0312 80.1719 C283.7188 80.1719 284.875 79.125 284.875 77.7031 C284.875 76.5 284.2031 75.625 282.7969 75.375 C283.9531 75.0156 284.6094 74.2031 284.6094 73.2031 C284.6094 71.9219 283.6719 71.0781 282.1875 71.0781 C281.0469 71.0781 280.0625 71.5938 279.7969 72.6875 C279.9062 73 280.1094 73.1094 280.3594 73.1094 C280.7344 73.1094 280.8906 72.8906 281 72.4062 L281.2344 71.6562 Z" style="fill:black; stroke:none;"
      /><rect x="264" width="8" height="8" y="71" style="stroke:none;"
      /><path d="M268.9844 76.7031 C268.9375 77.8906 268.1562 78.6562 267.3125 78.6562 C266.2656 78.6562 265.5 77.6875 265.5 75.7188 C265.5 74.2812 266.1562 73.1562 267.3438 73.1562 C268.1406 73.1562 268.7812 73.6875 269.0938 74.6406 L268.9844 76.7031 ZM270.9062 78.2812 C270.7344 78.375 270.5469 78.4219 270.3438 78.4219 C269.9531 78.4219 269.75 78.2188 269.75 77.4219 C269.75 76.4844 269.9688 74.5312 270.1875 72.8281 L270.0312 72.7188 L269.2344 72.9219 L269.1406 73.7969 C268.7812 73.0312 268.1562 72.6562 267.3906 72.6562 C266.0469 72.6562 264.5625 73.8438 264.5625 75.9531 C264.5625 78.0938 265.7188 79.1719 267.1406 79.1719 C268.0156 79.1719 268.6875 78.8125 269.0938 77.9844 C269.2031 78.8594 269.5156 79.1719 270.0156 79.1719 C270.4688 79.1719 270.7969 78.9062 271.0156 78.5625 L270.9062 78.2812 Z" style="fill:black; stroke:none;"
      /><rect x="333" width="8" height="8" y="71" style="stroke:none;"
      /><path d="M337.9844 76.7031 C337.9375 77.8906 337.1562 78.6562 336.3125 78.6562 C335.2656 78.6562 334.5 77.6875 334.5 75.7188 C334.5 74.2812 335.1562 73.1562 336.3438 73.1562 C337.1406 73.1562 337.7812 73.6875 338.0938 74.6406 L337.9844 76.7031 ZM339.9062 78.2812 C339.7344 78.375 339.5469 78.4219 339.3438 78.4219 C338.9531 78.4219 338.75 78.2188 338.75 77.4219 C338.75 76.4844 338.9688 74.5312 339.1875 72.8281 L339.0312 72.7188 L338.2344 72.9219 L338.1406 73.7969 C337.7812 73.0312 337.1562 72.6562 336.3906 72.6562 C335.0469 72.6562 333.5625 73.8438 333.5625 75.9531 C333.5625 78.0938 334.7188 79.1719 336.1406 79.1719 C337.0156 79.1719 337.6875 78.8125 338.0938 77.9844 C338.2031 78.8594 338.5156 79.1719 339.0156 79.1719 C339.4688 79.1719 339.7969 78.9062 340.0156 78.5625 L339.9062 78.2812 Z" style="fill:black; stroke:none;"
    /></g
  ></g
></svg
>
