<?xml version="1.0"?>
<!DOCTYPE svg PUBLIC '-//W3C//DTD SVG 1.0//EN'
          'http://www.w3.org/TR/2001/REC-SVG-20010904/DTD/svg10.dtd'>
<svg xmlns:xlink="http://www.w3.org/1999/xlink" style="fill-opacity:1; color-rendering:auto; color-interpolation:auto; text-rendering:auto; stroke:black; stroke-linecap:square; stroke-miterlimit:10; shape-rendering:auto; stroke-opacity:1; fill:black; stroke-dasharray:none; font-weight:normal; stroke-width:1; font-family:'Dialog'; font-style:normal; stroke-linejoin:miter; font-size:12px; stroke-dashoffset:0; image-rendering:auto;" viewBox="0 0 290 212" xmlns="http://www.w3.org/2000/svg"
><!--Generated by the Batik Graphics2D SVG Generator--><defs id="genericDefs"
  /><g
  ><defs id="defs1"
    ><clipPath clipPathUnits="userSpaceOnUse" id="clipPath1"
      ><path d="M186 82 L208 82 L208 104 L186 104 L186 82 Z"
      /></clipPath
      ><clipPath clipPathUnits="userSpaceOnUse" id="clipPath2"
      ><path d="M156 119 C156 125.0751 151.0751 130 145 130 C138.9249 130 134 125.0751 134 119 C134 112.9249 138.9249 108 145 108 C151.0751 108 156 112.9249 156 119 Z"
      /></clipPath
      ><clipPath clipPathUnits="userSpaceOnUse" id="clipPath3"
      ><path style="fill-rule:evenodd;" d="M145 160 L156 182 L134 182 Z"
      /></clipPath
      ><clipPath clipPathUnits="userSpaceOnUse" id="clipPath4"
      ><path d="M82 108 L104 108 L104 130 L82 130 L82 108 Z"
      /></clipPath
      ><clipPath clipPathUnits="userSpaceOnUse" id="clipPath5"
      ><path d="M134 56 L156 56 L156 78 L134 78 L134 56 Z"
      /></clipPath
      ><clipPath clipPathUnits="userSpaceOnUse" id="clipPath6"
      ><path d="M104 67 C104 73.0751 99.0751 78 93 78 C86.9249 78 82 73.0751 82 67 C82 60.9249 86.9249 56 93 56 C99.0751 56 104 60.9249 104 67 Z"
      /></clipPath
      ><clipPath clipPathUnits="userSpaceOnUse" id="clipPath7"
      ><path style="fill-rule:evenodd;" d="M41 82 L52 93 L41 104 L30 93 Z"
      /></clipPath
      ><clipPath clipPathUnits="userSpaceOnUse" id="clipPath8"
      ><path d="M30 30 L52 30 L52 52 L30 52 L30 30 Z"
      /></clipPath
    ></defs
    ><g style="fill:white; text-rendering:optimizeSpeed; stroke:white;"
    ><rect x="0" width="290" height="212" y="0" style="stroke:none;"
      /><polygon style="fill:none; stroke:black;" points=" 249 93 197 93"
      /><path d="M249 82 C243.5 87.5 254.5 98.5 249 104" style="fill:none; stroke:black;"
      /><polygon style="fill:none; stroke:black;" points=" 197 93 145 119"
      /><polygon style="fill:none; stroke:black;" points=" 197 93 145 67"
      /><rect x="186" y="82" width="22" style="clip-path:url(#clipPath1); stroke:none;" height="22"
      /><rect x="186" y="82" width="22" style="clip-path:url(#clipPath1); fill:rgb(255,212,0); stroke:none;" height="22"
      /><rect x="186" y="82" width="22" style="clip-path:url(#clipPath1); fill:none; stroke:black;" height="22"
      /><rect x="186" y="82" width="22" style="fill:none; stroke:black;" height="22"
      /><polygon style="fill:none; stroke:black;" points=" 145 119 145 171"
      /><polygon style="fill:none; stroke:black;" points=" 145 119 93 119"
      /><circle style="clip-path:url(#clipPath2); stroke:none;" r="11" cx="145" cy="119"
      /><rect x="134" y="108" width="22" style="clip-path:url(#clipPath2); fill:rgb(255,212,0); stroke:none;" height="22"
      /><rect x="134" y="108" width="22" style="clip-path:url(#clipPath2); fill:none; stroke:black;" height="22"
      /><circle style="fill:none; stroke:black;" r="11" cx="145" cy="119"
      /><polygon style="clip-path:url(#clipPath3); stroke:none;" points=" 145 160 156 182 134 182"
      /><rect x="134" y="160" width="22" style="clip-path:url(#clipPath3); fill:rgb(237,28,36); stroke:none;" height="22"
      /><rect x="134" y="160" width="22" style="clip-path:url(#clipPath3); fill:none; stroke:black;" height="22"
      /><polygon style="fill:none; stroke:black;" points=" 145 160 156 182 134 182"
      /><rect x="82" y="108" width="22" style="clip-path:url(#clipPath4); stroke:none;" height="22"
      /><rect x="82" y="108" width="22" style="clip-path:url(#clipPath4); fill:rgb(255,212,0); stroke:none;" height="22"
      /><rect x="82" y="108" width="22" style="clip-path:url(#clipPath4); fill:none; stroke:black;" height="22"
      /><rect x="82" y="108" width="22" style="fill:none; stroke:black;" height="22"
      /><rect x="150" y="133" width="6" style="stroke:none;" height="9"
    /></g
    ><g style="font-family:'Serif'; text-rendering:optimizeSpeed; "
    ><path style="stroke:none;" d="M151.4219 141.0938 C152.0781 140.375 152.7031 139.7188 153.0312 139.3438 C154.9219 137.3125 155.5312 136.4688 155.5312 135.3594 C155.5312 134.0156 154.7812 133.0781 153.1562 133.0781 C151.9062 133.0781 150.7969 133.7031 150.5938 134.9688 C150.7188 135.2031 150.9062 135.3438 151.1562 135.3438 C151.4688 135.3438 151.6562 135.1094 151.7969 134.5938 L152.0938 133.6719 C152.3906 133.5938 152.6562 133.5625 152.8906 133.5625 C153.9219 133.5625 154.5469 134.3125 154.5469 135.4219 C154.5469 136.4375 153.9844 137.4219 152.7031 138.9062 C152.125 139.5781 151.3906 140.4375 150.6406 141.2812 L150.6406 142 L155.9219 142 L155.9219 141.0938 L151.4219 141.0938 Z"
      /><rect x="149" y="148" width="8" style="fill:white; stroke:none;" height="8"
      /><path style="stroke:none;" d="M153.9844 153.7031 C153.9375 154.8906 153.1562 155.6562 152.3125 155.6562 C151.2656 155.6562 150.5 154.6875 150.5 152.7188 C150.5 151.2812 151.1562 150.1562 152.3438 150.1562 C153.1406 150.1562 153.7812 150.6875 154.0938 151.6406 L153.9844 153.7031 ZM155.9062 155.2812 C155.7344 155.375 155.5469 155.4219 155.3438 155.4219 C154.9531 155.4219 154.75 155.2188 154.75 154.4219 C154.75 153.4844 154.9688 151.5312 155.1875 149.8281 L155.0312 149.7188 L154.2344 149.9219 L154.1406 150.7969 C153.7812 150.0312 153.1562 149.6562 152.3906 149.6562 C151.0469 149.6562 149.5625 150.8438 149.5625 152.9531 C149.5625 155.0938 150.7188 156.1719 152.1406 156.1719 C153.0156 156.1719 153.6875 155.8125 154.0938 154.9844 C154.2031 155.8594 154.5156 156.1719 155.0156 156.1719 C155.4688 156.1719 155.7969 155.9062 156.0156 155.5625 L155.9062 155.2812 Z"
      /><rect x="123" y="122" width="6" style="fill:white; stroke:none;" height="10"
      /><path style="stroke:none;" d="M125.2344 123.6562 C125.5156 123.5938 125.7656 123.5625 126.0156 123.5625 C127.0625 123.5625 127.6719 124.1719 127.6719 125.2656 C127.6719 126.4375 126.9062 127.1094 125.7031 127.1094 L125.1875 127.1094 L125.1875 127.6406 L125.7969 127.6406 C127.2188 127.6406 127.9062 128.4219 127.9062 129.6406 C127.9062 130.8438 127.1719 131.6875 125.875 131.6875 C125.6094 131.6875 125.3125 131.6562 125.0156 131.5625 L124.7812 130.8125 C124.625 130.2812 124.5 130.0469 124.1406 130.0469 C123.8906 130.0469 123.7031 130.1719 123.5781 130.4219 C123.8438 131.6406 124.7812 132.1719 126.0312 132.1719 C127.7188 132.1719 128.875 131.125 128.875 129.7031 C128.875 128.5 128.2031 127.625 126.7969 127.375 C127.9531 127.0156 128.6094 126.2031 128.6094 125.2031 C128.6094 123.9219 127.6719 123.0781 126.1875 123.0781 C125.0469 123.0781 124.0625 123.5938 123.7969 124.6875 C123.9062 125 124.1094 125.1094 124.3594 125.1094 C124.7344 125.1094 124.8906 124.8906 125 124.4062 L125.2344 123.6562 Z"
      /><rect x="108" y="123" width="8" style="fill:white; stroke:none;" height="8"
      /><path style="stroke:none;" d="M112.9844 128.7031 C112.9375 129.8906 112.1562 130.6562 111.3125 130.6562 C110.2656 130.6562 109.5 129.6875 109.5 127.7188 C109.5 126.2812 110.1562 125.1562 111.3438 125.1562 C112.1406 125.1562 112.7812 125.6875 113.0938 126.6406 L112.9844 128.7031 ZM114.9062 130.2812 C114.7344 130.375 114.5469 130.4219 114.3438 130.4219 C113.9531 130.4219 113.75 130.2188 113.75 129.4219 C113.75 128.4844 113.9688 126.5312 114.1875 124.8281 L114.0312 124.7188 L113.2344 124.9219 L113.1406 125.7969 C112.7812 125.0312 112.1562 124.6562 111.3906 124.6562 C110.0469 124.6562 108.5625 125.8438 108.5625 127.9531 C108.5625 130.0938 109.7188 131.1719 111.1406 131.1719 C112.0156 131.1719 112.6875 130.8125 113.0938 129.9844 C113.2031 130.8594 113.5156 131.1719 114.0156 131.1719 C114.4688 131.1719 114.7969 130.9062 115.0156 130.5625 L114.9062 130.2812 Z"
      /><polygon style="fill:none;" points=" 145 67 93 67"
      /><rect x="134" y="56" width="22" style="clip-path:url(#clipPath5); fill:white; stroke:none;" height="22"
      /><rect x="134" y="56" width="22" style="clip-path:url(#clipPath5); fill:rgb(0,144,188); stroke:none;" height="22"
      /><rect x="134" y="56" width="22" style="fill:none; clip-path:url(#clipPath5);" height="22"
      /><rect x="134" width="22" height="22" y="56" style="fill:none;"
      /><polygon style="fill:none;" points=" 93 67 41 93"
      /><polygon style="fill:none;" points=" 93 67 41 41"
      /><circle style="fill:white; clip-path:url(#clipPath6); stroke:none;" r="11" cx="93" cy="67"
      /><rect x="82" y="56" width="22" style="clip-path:url(#clipPath6); fill:rgb(255,212,0); stroke:none;" height="22"
      /><rect x="82" y="56" width="22" style="fill:none; clip-path:url(#clipPath6);" height="22"
      /><circle r="11" style="fill:none;" cx="93" cy="67"
      /><polygon style="fill:white; clip-path:url(#clipPath7); stroke:none;" points=" 41 82 52 93 41 104 30 93"
      /><rect x="30" y="82" width="22" style="clip-path:url(#clipPath7); fill:rgb(165,67,153); stroke:none;" height="22"
      /><rect x="30" y="82" width="22" style="fill:none; clip-path:url(#clipPath7);" height="22"
      /><polygon style="fill:none;" points=" 41 82 52 93 41 104 30 93"
      /><rect x="30" y="30" width="22" style="clip-path:url(#clipPath8); fill:white; stroke:none;" height="22"
      /><rect x="30" y="30" width="22" style="clip-path:url(#clipPath8); fill:rgb(255,212,0); stroke:none;" height="22"
      /><rect x="30" y="30" width="22" style="fill:none; clip-path:url(#clipPath8);" height="22"
      /><rect x="30" width="22" height="22" y="30" style="fill:none;"
      /><rect x="75" y="78" width="6" style="fill:white; stroke:none;" height="10"
      /><path style="stroke:none;" d="M77.2344 79.6562 C77.5156 79.5938 77.7656 79.5625 78.0156 79.5625 C79.0625 79.5625 79.6719 80.1719 79.6719 81.2656 C79.6719 82.4375 78.9062 83.1094 77.7031 83.1094 L77.1875 83.1094 L77.1875 83.6406 L77.7969 83.6406 C79.2188 83.6406 79.9062 84.4219 79.9062 85.6406 C79.9062 86.8438 79.1719 87.6875 77.875 87.6875 C77.6094 87.6875 77.3125 87.6562 77.0156 87.5625 L76.7812 86.8125 C76.625 86.2812 76.5 86.0469 76.1406 86.0469 C75.8906 86.0469 75.7031 86.1719 75.5781 86.4219 C75.8438 87.6406 76.7812 88.1719 78.0312 88.1719 C79.7188 88.1719 80.875 87.125 80.875 85.7031 C80.875 84.5 80.2031 83.625 78.7969 83.375 C79.9531 83.0156 80.6094 82.2031 80.6094 81.2031 C80.6094 79.9219 79.6719 79.0781 78.1875 79.0781 C77.0469 79.0781 76.0625 79.5938 75.7969 80.6875 C75.9062 81 76.1094 81.1094 76.3594 81.1094 C76.7344 81.1094 76.8906 80.8906 77 80.4062 L77.2344 79.6562 Z"
      /><rect x="58" y="87" width="8" style="fill:white; stroke:none;" height="8"
      /><path style="stroke:none;" d="M62.9844 92.7031 C62.9375 93.8906 62.1562 94.6562 61.3125 94.6562 C60.2656 94.6562 59.5 93.6875 59.5 91.7188 C59.5 90.2812 60.1562 89.1562 61.3438 89.1562 C62.1406 89.1562 62.7812 89.6875 63.0938 90.6406 L62.9844 92.7031 ZM64.9062 94.2812 C64.7344 94.375 64.5469 94.4219 64.3438 94.4219 C63.9531 94.4219 63.75 94.2188 63.75 93.4219 C63.75 92.4844 63.9688 90.5312 64.1875 88.8281 L64.0312 88.7188 L63.2344 88.9219 L63.1406 89.7969 C62.7812 89.0312 62.1562 88.6562 61.3906 88.6562 C60.0469 88.6562 58.5625 89.8438 58.5625 91.9531 C58.5625 94.0938 59.7188 95.1719 61.1406 95.1719 C62.0156 95.1719 62.6875 94.8125 63.0938 93.9844 C63.2031 94.8594 63.5156 95.1719 64.0156 95.1719 C64.4688 95.1719 64.7969 94.9062 65.0156 94.5625 L64.9062 94.2812 Z"
      /><rect x="67" y="60" width="7" style="fill:white; stroke:none;" height="9"
      /><path style="stroke:none;" d="M68 65.5156 L70.9531 61.2656 L70.9531 65.5156 L68 65.5156 ZM73.2812 65.5156 L71.8594 65.5156 L71.8594 60.125 L71.2344 60.125 L67.3438 65.6406 L67.3438 66.1875 L70.9531 66.1875 L70.9531 69 L71.8594 69 L71.8594 66.1875 L73.2812 66.1875 L73.2812 65.5156 Z"
      /><rect x="52" y="50" width="6" style="fill:white; stroke:none;" height="13"
      /><path style="stroke:none;" d="M54.0938 56.2031 C54.0938 54.6562 54.75 53.8125 55.7969 53.8125 C56.7188 53.8125 57.2656 54.4531 57.2656 55.5156 C57.2656 56.7188 56.5 57.4375 55.1875 57.7031 L55.2969 58.3125 C57.2188 58.2344 57.9375 59.2188 57.9375 60.4375 C57.9375 61.625 57.2344 62.4219 55.9531 62.4219 C55.25 62.4219 54.6562 62.1562 54.0938 61.7188 L54.0938 56.2031 ZM53.2031 62.9062 L53.1094 65.375 L53.2656 65.4844 L54.1562 65.2656 L54.0156 62.0938 C54.5469 62.8438 55.3594 63.1719 56.1719 63.1719 C57.5625 63.1719 58.8594 62.2188 58.8594 60.4844 C58.8594 58.9531 57.875 58.1094 56.125 58 C57.5625 57.6094 58.1875 56.4531 58.1875 55.4844 C58.1875 54.0938 57.1562 53.3125 55.9062 53.3125 C54.2969 53.3125 53.2188 54.5469 53.2188 56.5156 L53.2031 62.9062 Z"
      /><rect x="122" y="70" width="7" style="fill:white; stroke:none;" height="9"
      /><path style="stroke:none;" d="M123 75.5156 L125.9531 71.2656 L125.9531 75.5156 L123 75.5156 ZM128.2812 75.5156 L126.8594 75.5156 L126.8594 70.125 L126.2344 70.125 L122.3438 75.6406 L122.3438 76.1875 L125.9531 76.1875 L125.9531 79 L126.8594 79 L126.8594 76.1875 L128.2812 76.1875 L128.2812 75.5156 Z"
      /><rect x="109" y="68" width="6" style="fill:white; stroke:none;" height="13"
      /><path style="stroke:none;" d="M111.0938 74.2031 C111.0938 72.6562 111.75 71.8125 112.7969 71.8125 C113.7188 71.8125 114.2656 72.4531 114.2656 73.5156 C114.2656 74.7188 113.5 75.4375 112.1875 75.7031 L112.2969 76.3125 C114.2188 76.2344 114.9375 77.2188 114.9375 78.4375 C114.9375 79.625 114.2344 80.4219 112.9531 80.4219 C112.25 80.4219 111.6562 80.1562 111.0938 79.7188 L111.0938 74.2031 ZM110.2031 80.9062 L110.1094 83.375 L110.2656 83.4844 L111.1562 83.2656 L111.0156 80.0938 C111.5469 80.8438 112.3594 81.1719 113.1719 81.1719 C114.5625 81.1719 115.8594 80.2188 115.8594 78.4844 C115.8594 76.9531 114.875 76.1094 113.125 76 C114.5625 75.6094 115.1875 74.4531 115.1875 73.4844 C115.1875 72.0938 114.1562 71.3125 112.9062 71.3125 C111.2969 71.3125 110.2188 72.5469 110.2188 74.5156 L110.2031 80.9062 Z"
      /><rect x="179" y="104" width="6" style="fill:white; stroke:none;" height="10"
      /><path style="stroke:none;" d="M181.2344 105.6562 C181.5156 105.5938 181.7656 105.5625 182.0156 105.5625 C183.0625 105.5625 183.6719 106.1719 183.6719 107.2656 C183.6719 108.4375 182.9062 109.1094 181.7031 109.1094 L181.1875 109.1094 L181.1875 109.6406 L181.7969 109.6406 C183.2188 109.6406 183.9062 110.4219 183.9062 111.6406 C183.9062 112.8438 183.1719 113.6875 181.875 113.6875 C181.6094 113.6875 181.3125 113.6562 181.0156 113.5625 L180.7812 112.8125 C180.625 112.2812 180.5 112.0469 180.1406 112.0469 C179.8906 112.0469 179.7031 112.1719 179.5781 112.4219 C179.8438 113.6406 180.7812 114.1719 182.0312 114.1719 C183.7188 114.1719 184.875 113.125 184.875 111.7031 C184.875 110.5 184.2031 109.625 182.7969 109.375 C183.9531 109.0156 184.6094 108.2031 184.6094 107.2031 C184.6094 105.9219 183.6719 105.0781 182.1875 105.0781 C181.0469 105.0781 180.0625 105.5938 179.7969 106.6875 C179.9062 107 180.1094 107.1094 180.3594 107.1094 C180.7344 107.1094 180.8906 106.8906 181 106.4062 L181.2344 105.6562 Z"
      /><rect x="163" y="110" width="6" style="fill:white; stroke:none;" height="13"
      /><path style="stroke:none;" d="M165.0938 116.2031 C165.0938 114.6562 165.75 113.8125 166.7969 113.8125 C167.7188 113.8125 168.2656 114.4531 168.2656 115.5156 C168.2656 116.7188 167.5 117.4375 166.1875 117.7031 L166.2969 118.3125 C168.2188 118.2344 168.9375 119.2188 168.9375 120.4375 C168.9375 121.625 168.2344 122.4219 166.9531 122.4219 C166.25 122.4219 165.6562 122.1562 165.0938 121.7188 L165.0938 116.2031 ZM164.2031 122.9062 L164.1094 125.375 L164.2656 125.4844 L165.1562 125.2656 L165.0156 122.0938 C165.5469 122.8438 166.3594 123.1719 167.1719 123.1719 C168.5625 123.1719 169.8594 122.2188 169.8594 120.4844 C169.8594 118.9531 168.875 118.1094 167.125 118 C168.5625 117.6094 169.1875 116.4531 169.1875 115.4844 C169.1875 114.0938 168.1562 113.3125 166.9062 113.3125 C165.2969 113.3125 164.2188 114.5469 164.2188 116.5156 L164.2031 122.9062 Z"
      /><rect x="172" y="86" width="6" style="fill:white; stroke:none;" height="10"
      /><path style="stroke:none;" d="M175.3438 95.6875 C174.2031 95.6875 173.5312 94.5 173.5312 92.2969 C173.5312 92.2188 173.5312 92.125 173.5312 92.0469 C174.0938 91.5 174.7188 91.3125 175.3438 91.3125 C176.3125 91.3125 176.9531 91.9844 176.9531 93.4531 C176.9531 94.9375 176.3125 95.6875 175.3438 95.6875 ZM177.5312 87.0781 C174.3438 87.4531 172.5625 89.7656 172.5625 92.4531 C172.5625 94.7812 173.6094 96.1719 175.3125 96.1719 C176.8438 96.1719 177.9219 95.1094 177.9219 93.2812 C177.9219 91.6875 176.9688 90.6562 175.5625 90.6562 C174.8281 90.6562 174.1406 90.9844 173.5781 91.5781 C173.7969 89.4062 175.0781 87.9688 177.5938 87.3906 L177.5312 87.0781 Z"
      /><rect x="156" y="76" width="6" style="fill:white; stroke:none;" height="13"
      /><path style="stroke:none;" d="M158.0938 82.2031 C158.0938 80.6562 158.75 79.8125 159.7969 79.8125 C160.7188 79.8125 161.2656 80.4531 161.2656 81.5156 C161.2656 82.7188 160.5 83.4375 159.1875 83.7031 L159.2969 84.3125 C161.2188 84.2344 161.9375 85.2188 161.9375 86.4375 C161.9375 87.625 161.2344 88.4219 159.9531 88.4219 C159.25 88.4219 158.6562 88.1562 158.0938 87.7188 L158.0938 82.2031 ZM157.2031 88.9062 L157.1094 91.375 L157.2656 91.4844 L158.1562 91.2656 L158.0156 88.0938 C158.5469 88.8438 159.3594 89.1719 160.1719 89.1719 C161.5625 89.1719 162.8594 88.2188 162.8594 86.4844 C162.8594 84.9531 161.875 84.1094 160.125 84 C161.5625 83.6094 162.1875 82.4531 162.1875 81.4844 C162.1875 80.0938 161.1562 79.3125 159.9062 79.3125 C158.2969 79.3125 157.2188 80.5469 157.2188 82.5156 L157.2031 88.9062 Z"
      /><rect x="212" y="97" width="8" style="fill:white; stroke:none;" height="8"
      /><path style="stroke:none;" d="M216.9844 102.7031 C216.9375 103.8906 216.1562 104.6562 215.3125 104.6562 C214.2656 104.6562 213.5 103.6875 213.5 101.7188 C213.5 100.2812 214.1562 99.1562 215.3438 99.1562 C216.1406 99.1562 216.7812 99.6875 217.0938 100.6406 L216.9844 102.7031 ZM218.9062 104.2812 C218.7344 104.375 218.5469 104.4219 218.3438 104.4219 C217.9531 104.4219 217.75 104.2188 217.75 103.4219 C217.75 102.4844 217.9688 100.5312 218.1875 98.8281 L218.0312 98.7188 L217.2344 98.9219 L217.1406 99.7969 C216.7812 99.0312 216.1562 98.6562 215.3906 98.6562 C214.0469 98.6562 212.5625 99.8438 212.5625 101.9531 C212.5625 104.0938 213.7188 105.1719 215.1406 105.1719 C216.0156 105.1719 216.6875 104.8125 217.0938 103.9844 C217.2031 104.8594 217.5156 105.1719 218.0156 105.1719 C218.4688 105.1719 218.7969 104.9062 219.0156 104.5625 L218.9062 104.2812 Z"
    /></g
  ></g
></svg
>
