<?xml version="1.0"?>
<!DOCTYPE svg PUBLIC '-//W3C//DTD SVG 1.0//EN'
          'http://www.w3.org/TR/2001/REC-SVG-20010904/DTD/svg10.dtd'>
<svg xmlns:xlink="http://www.w3.org/1999/xlink" style="fill-opacity:1; color-rendering:auto; color-interpolation:auto; text-rendering:auto; stroke:black; stroke-linecap:square; stroke-miterlimit:10; shape-rendering:auto; stroke-opacity:1; fill:black; stroke-dasharray:none; font-weight:normal; stroke-width:1; font-family:'Dialog'; font-style:normal; stroke-linejoin:miter; font-size:12px; stroke-dashoffset:0; image-rendering:auto;" viewBox="0 0 342 264" xmlns="http://www.w3.org/2000/svg"
><!--Generated by the Batik Graphics2D SVG Generator--><defs id="genericDefs"
  /><g
  ><defs id="defs1"
    ><clipPath clipPathUnits="userSpaceOnUse" id="clipPath1"
      ><path d="M238 82 L260 82 L260 104 L238 104 L238 82 Z"
      /></clipPath
      ><clipPath clipPathUnits="userSpaceOnUse" id="clipPath2"
      ><path d="M186 82 L208 82 L208 104 L186 104 L186 82 Z"
      /></clipPath
      ><clipPath clipPathUnits="userSpaceOnUse" id="clipPath3"
      ><path d="M156 93 C156 99.0751 151.0751 104 145 104 C138.9249 104 134 99.0751 134 93 C134 86.9249 138.9249 82 145 82 C151.0751 82 156 86.9249 156 93 Z"
      /></clipPath
      ><clipPath clipPathUnits="userSpaceOnUse" id="clipPath4"
      ><path d="M104 197 C104 203.0751 99.0751 208 93 208 C86.9249 208 82 203.0751 82 197 C82 190.9249 86.9249 186 93 186 C99.0751 186 104 190.9249 104 197 Z"
      /></clipPath
      ><clipPath clipPathUnits="userSpaceOnUse" id="clipPath5"
      ><path d="M30 212 L52 212 L52 234 L30 234 L30 212 Z"
      /></clipPath
      ><clipPath clipPathUnits="userSpaceOnUse" id="clipPath6"
      ><path d="M30 160 L52 160 L52 182 L30 182 L30 160 Z"
      /></clipPath
      ><clipPath clipPathUnits="userSpaceOnUse" id="clipPath7"
      ><path d="M104 93 C104 99.0751 99.0751 104 93 104 C86.9249 104 82 99.0751 82 93 C82 86.9249 86.9249 82 93 82 C99.0751 82 104 86.9249 104 93 Z"
      /></clipPath
      ><clipPath clipPathUnits="userSpaceOnUse" id="clipPath8"
      ><path d="M30 108 L52 108 L52 130 L30 130 L30 108 Z"
      /></clipPath
      ><clipPath clipPathUnits="userSpaceOnUse" id="clipPath9"
      ><path d="M52 67 C52 73.0751 47.0751 78 41 78 C34.9249 78 30 73.0751 30 67 C30 60.9249 34.9249 56 41 56 C47.0751 56 52 60.9249 52 67 Z"
      /></clipPath
      ><clipPath clipPathUnits="userSpaceOnUse" id="clipPath10"
      ><path d="M82 30 L104 30 L104 52 L82 52 L82 30 Z"
      /></clipPath
    ></defs
    ><g style="fill:white; text-rendering:optimizeSpeed; stroke:white;"
    ><rect x="0" width="342" height="264" y="0" style="stroke:none;"
      /><polygon style="fill:none; stroke:black;" points=" 301 93 249 93"
      /><path d="M301 82 C295.5 87.5 306.5 98.5 301 104" style="fill:none; stroke:black;"
      /><polygon style="fill:none; stroke:black;" points=" 249 93 197 93"
      /><rect x="238" y="82" width="22" style="clip-path:url(#clipPath1); stroke:none;" height="22"
      /><rect x="238" y="82" width="22" style="clip-path:url(#clipPath1); fill:rgb(0,144,188); stroke:none;" height="22"
      /><rect x="238" y="82" width="22" style="clip-path:url(#clipPath1); fill:none; stroke:black;" height="22"
      /><rect x="238" y="82" width="22" style="fill:none; stroke:black;" height="22"
      /><polygon style="fill:none; stroke:black;" points=" 197 93 145 93"
      /><rect x="186" y="82" width="22" style="clip-path:url(#clipPath2); stroke:none;" height="22"
      /><rect x="186" y="82" width="22" style="clip-path:url(#clipPath2); fill:rgb(0,144,188); stroke:none;" height="22"
      /><rect x="186" y="82" width="22" style="clip-path:url(#clipPath2); fill:none; stroke:black;" height="22"
      /><rect x="186" y="82" width="22" style="fill:none; stroke:black;" height="22"
      /><polygon style="fill:none; stroke:black;" points=" 145 93 93 197"
      /><polygon style="fill:none; stroke:black;" points=" 145 93 93 93"
      /><polygon style="fill:none; stroke:black;" points=" 145 93 93 41"
      /><circle style="clip-path:url(#clipPath3); stroke:none;" r="11" cx="145" cy="93"
      /><rect x="134" y="82" width="22" style="clip-path:url(#clipPath3); fill:rgb(0,166,81); stroke:none;" height="22"
      /><rect x="134" y="82" width="22" style="clip-path:url(#clipPath3); fill:none; stroke:black;" height="22"
      /><circle style="fill:none; stroke:black;" r="11" cx="145" cy="93"
      /><polygon style="fill:none; stroke:black;" points=" 93 197 41 223"
      /><polygon style="fill:none; stroke:black;" points=" 93 197 41 171"
      /><circle style="clip-path:url(#clipPath4); stroke:none;" r="11" cx="93" cy="197"
      /><rect x="82" y="186" width="22" style="clip-path:url(#clipPath4); fill:rgb(0,166,81); stroke:none;" height="22"
      /><rect x="82" y="186" width="22" style="clip-path:url(#clipPath4); fill:none; stroke:black;" height="22"
      /><circle style="fill:none; stroke:black;" r="11" cx="93" cy="197"
      /><rect x="30" y="212" width="22" style="clip-path:url(#clipPath5); stroke:none;" height="22"
      /><rect x="30" y="212" width="22" style="clip-path:url(#clipPath5); fill:rgb(0,144,188); stroke:none;" height="22"
      /><rect x="30" y="212" width="22" style="clip-path:url(#clipPath5); fill:none; stroke:black;" height="22"
      /><rect x="30" y="212" width="22" style="fill:none; stroke:black;" height="22"
      /><rect x="30" y="160" width="22" style="clip-path:url(#clipPath6); stroke:none;" height="22"
      /><rect x="30" y="160" width="22" style="clip-path:url(#clipPath6); fill:rgb(0,144,188); stroke:none;" height="22"
      /><rect x="30" y="160" width="22" style="clip-path:url(#clipPath6); fill:none; stroke:black;" height="22"
      /><rect x="30" y="160" width="22" style="fill:none; stroke:black;" height="22"
      /><rect x="75" y="208" width="5" style="stroke:none;" height="10"
    /></g
    ><g style="font-family:'Serif'; text-rendering:optimizeSpeed; "
    ><path style="stroke:none;" d="M76.8906 216.6875 C76.4844 216.6875 76.1562 217.0469 76.1562 217.4219 C76.1562 217.8125 76.4844 218.1562 76.8906 218.1562 C77.2969 218.1562 77.6406 217.8125 77.6406 217.4219 C77.6406 217.0469 77.2969 216.6875 76.8906 216.6875 ZM78.4688 210.5781 C78.7188 210.8906 78.875 211.2656 78.8906 211.6562 C78.8906 212.1875 78.625 212.5 78.0312 212.7656 L77.4062 213.0156 C76.6406 213.3125 76.3906 213.5469 76.3906 213.9375 C76.3906 214.1094 76.4531 214.3438 76.5781 214.8125 L76.7344 215.3438 L77.1094 215.3438 L77.0938 214.5312 C77.0938 214.0938 77.2031 213.9688 77.7812 213.7344 L78.2031 213.5625 C79.0312 213.2188 79.4531 212.6875 79.4531 211.8438 C79.4531 210.1562 77.6562 209.1875 76.5 209.0312 C76.1094 209.125 75.9062 209.2969 75.9062 209.6406 C75.9062 209.9375 76.0625 210.1562 76.7188 210.2656 L78.4688 210.5781 Z"
      /><rect x="60" y="216" width="5" style="fill:white; stroke:none;" height="10"
      /><path style="stroke:none;" d="M61.8906 224.6875 C61.4844 224.6875 61.1562 225.0469 61.1562 225.4219 C61.1562 225.8125 61.4844 226.1562 61.8906 226.1562 C62.2969 226.1562 62.6406 225.8125 62.6406 225.4219 C62.6406 225.0469 62.2969 224.6875 61.8906 224.6875 ZM63.4688 218.5781 C63.7188 218.8906 63.875 219.2656 63.8906 219.6562 C63.8906 220.1875 63.625 220.5 63.0312 220.7656 L62.4062 221.0156 C61.6406 221.3125 61.3906 221.5469 61.3906 221.9375 C61.3906 222.1094 61.4531 222.3438 61.5781 222.8125 L61.7344 223.3438 L62.1094 223.3438 L62.0938 222.5312 C62.0938 222.0938 62.2031 221.9688 62.7812 221.7344 L63.2031 221.5625 C64.0312 221.2188 64.4531 220.6875 64.4531 219.8438 C64.4531 218.1562 62.6562 217.1875 61.5 217.0312 C61.1094 217.125 60.9062 217.2969 60.9062 217.6406 C60.9062 217.9375 61.0625 218.1562 61.7188 218.2656 L63.4688 218.5781 Z"
      /><rect x="68" y="190" width="5" style="fill:white; stroke:none;" height="10"
      /><path style="stroke:none;" d="M69.8906 198.6875 C69.4844 198.6875 69.1562 199.0469 69.1562 199.4219 C69.1562 199.8125 69.4844 200.1562 69.8906 200.1562 C70.2969 200.1562 70.6406 199.8125 70.6406 199.4219 C70.6406 199.0469 70.2969 198.6875 69.8906 198.6875 ZM71.4688 192.5781 C71.7188 192.8906 71.875 193.2656 71.8906 193.6562 C71.8906 194.1875 71.625 194.5 71.0312 194.7656 L70.4062 195.0156 C69.6406 195.3125 69.3906 195.5469 69.3906 195.9375 C69.3906 196.1094 69.4531 196.3438 69.5781 196.8125 L69.7344 197.3438 L70.1094 197.3438 L70.0938 196.5312 C70.0938 196.0938 70.2031 195.9688 70.7812 195.7344 L71.2031 195.5625 C72.0312 195.2188 72.4531 194.6875 72.4531 193.8438 C72.4531 192.1562 70.6562 191.1875 69.5 191.0312 C69.1094 191.125 68.9062 191.2969 68.9062 191.6406 C68.9062 191.9375 69.0625 192.1562 69.7188 192.2656 L71.4688 192.5781 Z"
      /><rect x="53" y="182" width="5" style="fill:white; stroke:none;" height="10"
      /><path style="stroke:none;" d="M54.8906 190.6875 C54.4844 190.6875 54.1562 191.0469 54.1562 191.4219 C54.1562 191.8125 54.4844 192.1562 54.8906 192.1562 C55.2969 192.1562 55.6406 191.8125 55.6406 191.4219 C55.6406 191.0469 55.2969 190.6875 54.8906 190.6875 ZM56.4688 184.5781 C56.7188 184.8906 56.875 185.2656 56.8906 185.6562 C56.8906 186.1875 56.625 186.5 56.0312 186.7656 L55.4062 187.0156 C54.6406 187.3125 54.3906 187.5469 54.3906 187.9375 C54.3906 188.1094 54.4531 188.3438 54.5781 188.8125 L54.7344 189.3438 L55.1094 189.3438 L55.0938 188.5312 C55.0938 188.0938 55.2031 187.9688 55.7812 187.7344 L56.2031 187.5625 C57.0312 187.2188 57.4531 186.6875 57.4531 185.8438 C57.4531 184.1562 55.6562 183.1875 54.5 183.0312 C54.1094 183.125 53.9062 183.2969 53.9062 183.6406 C53.9062 183.9375 54.0625 184.1562 54.7188 184.2656 L56.4688 184.5781 Z"
      /><polygon style="fill:none;" points=" 93 93 41 119"
      /><polygon style="fill:none;" points=" 93 93 41 67"
      /><circle style="fill:white; clip-path:url(#clipPath7); stroke:none;" r="11" cx="93" cy="93"
      /><rect x="82" y="82" width="22" style="clip-path:url(#clipPath7); fill:rgb(0,166,81); stroke:none;" height="22"
      /><rect x="82" y="82" width="22" style="fill:none; clip-path:url(#clipPath7);" height="22"
      /><circle r="11" style="fill:none;" cx="93" cy="93"
      /><rect x="30" y="108" width="22" style="clip-path:url(#clipPath8); fill:white; stroke:none;" height="22"
      /><rect x="30" y="108" width="22" style="clip-path:url(#clipPath8); fill:rgb(0,144,188); stroke:none;" height="22"
      /><rect x="30" y="108" width="22" style="fill:none; clip-path:url(#clipPath8);" height="22"
      /><rect x="30" width="22" height="22" y="108" style="fill:none;"
      /><circle style="fill:white; clip-path:url(#clipPath9); stroke:none;" r="11" cx="41" cy="67"
      /><rect x="30" y="56" width="22" style="clip-path:url(#clipPath9); fill:rgb(0,166,81); stroke:none;" height="22"
      /><rect x="30" y="56" width="22" style="fill:none; clip-path:url(#clipPath9);" height="22"
      /><circle r="11" style="fill:none;" cx="41" cy="67"
      /><rect x="75" y="104" width="5" style="fill:white; stroke:none;" height="10"
      /><path style="stroke:none;" d="M76.8906 112.6875 C76.4844 112.6875 76.1562 113.0469 76.1562 113.4219 C76.1562 113.8125 76.4844 114.1562 76.8906 114.1562 C77.2969 114.1562 77.6406 113.8125 77.6406 113.4219 C77.6406 113.0469 77.2969 112.6875 76.8906 112.6875 ZM78.4688 106.5781 C78.7188 106.8906 78.875 107.2656 78.8906 107.6562 C78.8906 108.1875 78.625 108.5 78.0312 108.7656 L77.4062 109.0156 C76.6406 109.3125 76.3906 109.5469 76.3906 109.9375 C76.3906 110.1094 76.4531 110.3438 76.5781 110.8125 L76.7344 111.3438 L77.1094 111.3438 L77.0938 110.5312 C77.0938 110.0938 77.2031 109.9688 77.7812 109.7344 L78.2031 109.5625 C79.0312 109.2188 79.4531 108.6875 79.4531 107.8438 C79.4531 106.1562 77.6562 105.1875 76.5 105.0312 C76.1094 105.125 75.9062 105.2969 75.9062 105.6406 C75.9062 105.9375 76.0625 106.1562 76.7188 106.2656 L78.4688 106.5781 Z"
      /><rect x="60" y="112" width="5" style="fill:white; stroke:none;" height="10"
      /><path style="stroke:none;" d="M61.8906 120.6875 C61.4844 120.6875 61.1562 121.0469 61.1562 121.4219 C61.1562 121.8125 61.4844 122.1562 61.8906 122.1562 C62.2969 122.1562 62.6406 121.8125 62.6406 121.4219 C62.6406 121.0469 62.2969 120.6875 61.8906 120.6875 ZM63.4688 114.5781 C63.7188 114.8906 63.875 115.2656 63.8906 115.6562 C63.8906 116.1875 63.625 116.5 63.0312 116.7656 L62.4062 117.0156 C61.6406 117.3125 61.3906 117.5469 61.3906 117.9375 C61.3906 118.1094 61.4531 118.3438 61.5781 118.8125 L61.7344 119.3438 L62.1094 119.3438 L62.0938 118.5312 C62.0938 118.0938 62.2031 117.9688 62.7812 117.7344 L63.2031 117.5625 C64.0312 117.2188 64.4531 116.6875 64.4531 115.8438 C64.4531 114.1562 62.6562 113.1875 61.5 113.0312 C61.1094 113.125 60.9062 113.2969 60.9062 113.6406 C60.9062 113.9375 61.0625 114.1562 61.7188 114.2656 L63.4688 114.5781 Z"
      /><rect x="68" y="86" width="5" style="fill:white; stroke:none;" height="10"
      /><path style="stroke:none;" d="M69.8906 94.6875 C69.4844 94.6875 69.1562 95.0469 69.1562 95.4219 C69.1562 95.8125 69.4844 96.1562 69.8906 96.1562 C70.2969 96.1562 70.6406 95.8125 70.6406 95.4219 C70.6406 95.0469 70.2969 94.6875 69.8906 94.6875 ZM71.4688 88.5781 C71.7188 88.8906 71.875 89.2656 71.8906 89.6562 C71.8906 90.1875 71.625 90.5 71.0312 90.7656 L70.4062 91.0156 C69.6406 91.3125 69.3906 91.5469 69.3906 91.9375 C69.3906 92.1094 69.4531 92.3438 69.5781 92.8125 L69.7344 93.3438 L70.1094 93.3438 L70.0938 92.5312 C70.0938 92.0938 70.2031 91.9688 70.7812 91.7344 L71.2031 91.5625 C72.0312 91.2188 72.4531 90.6875 72.4531 89.8438 C72.4531 88.1562 70.6562 87.1875 69.5 87.0312 C69.1094 87.125 68.9062 87.2969 68.9062 87.6406 C68.9062 87.9375 69.0625 88.1562 69.7188 88.2656 L71.4688 88.5781 Z"
      /><rect x="53" y="78" width="5" style="fill:white; stroke:none;" height="10"
      /><path style="stroke:none;" d="M54.8906 86.6875 C54.4844 86.6875 54.1562 87.0469 54.1562 87.4219 C54.1562 87.8125 54.4844 88.1562 54.8906 88.1562 C55.2969 88.1562 55.6406 87.8125 55.6406 87.4219 C55.6406 87.0469 55.2969 86.6875 54.8906 86.6875 ZM56.4688 80.5781 C56.7188 80.8906 56.875 81.2656 56.8906 81.6562 C56.8906 82.1875 56.625 82.5 56.0312 82.7656 L55.4062 83.0156 C54.6406 83.3125 54.3906 83.5469 54.3906 83.9375 C54.3906 84.1094 54.4531 84.3438 54.5781 84.8125 L54.7344 85.3438 L55.1094 85.3438 L55.0938 84.5312 C55.0938 84.0938 55.2031 83.9688 55.7812 83.7344 L56.2031 83.5625 C57.0312 83.2188 57.4531 82.6875 57.4531 81.8438 C57.4531 80.1562 55.6562 79.1875 54.5 79.0312 C54.1094 79.125 53.9062 79.2969 53.9062 79.6406 C53.9062 79.9375 54.0625 80.1562 54.7188 80.2656 L56.4688 80.5781 Z"
      /><rect x="82" y="30" width="22" style="clip-path:url(#clipPath10); fill:white; stroke:none;" height="22"
      /><rect x="82" y="30" width="22" style="clip-path:url(#clipPath10); fill:rgb(0,144,188); stroke:none;" height="22"
      /><rect x="82" y="30" width="22" style="fill:none; clip-path:url(#clipPath10);" height="22"
      /><rect x="82" width="22" height="22" y="30" style="fill:none;"
      /><rect x="140" y="109" width="5" style="fill:white; stroke:none;" height="10"
      /><path style="stroke:none;" d="M141.8906 117.6875 C141.4844 117.6875 141.1562 118.0469 141.1562 118.4219 C141.1562 118.8125 141.4844 119.1562 141.8906 119.1562 C142.2969 119.1562 142.6406 118.8125 142.6406 118.4219 C142.6406 118.0469 142.2969 117.6875 141.8906 117.6875 ZM143.4688 111.5781 C143.7188 111.8906 143.875 112.2656 143.8906 112.6562 C143.8906 113.1875 143.625 113.5 143.0312 113.7656 L142.4062 114.0156 C141.6406 114.3125 141.3906 114.5469 141.3906 114.9375 C141.3906 115.1094 141.4531 115.3438 141.5781 115.8125 L141.7344 116.3438 L142.1094 116.3438 L142.0938 115.5312 C142.0938 115.0938 142.2031 114.9688 142.7812 114.7344 L143.2031 114.5625 C144.0312 114.2188 144.4531 113.6875 144.4531 112.8438 C144.4531 111.1562 142.6562 110.1875 141.5 110.0312 C141.1094 110.125 140.9062 110.2969 140.9062 110.6406 C140.9062 110.9375 141.0625 111.1562 141.7188 111.2656 L143.4688 111.5781 Z"
      /><rect x="106" y="177" width="5" style="fill:white; stroke:none;" height="10"
      /><path style="stroke:none;" d="M107.8906 185.6875 C107.4844 185.6875 107.1562 186.0469 107.1562 186.4219 C107.1562 186.8125 107.4844 187.1562 107.8906 187.1562 C108.2969 187.1562 108.6406 186.8125 108.6406 186.4219 C108.6406 186.0469 108.2969 185.6875 107.8906 185.6875 ZM109.4688 179.5781 C109.7188 179.8906 109.875 180.2656 109.8906 180.6562 C109.8906 181.1875 109.625 181.5 109.0312 181.7656 L108.4062 182.0156 C107.6406 182.3125 107.3906 182.5469 107.3906 182.9375 C107.3906 183.1094 107.4531 183.3438 107.5781 183.8125 L107.7344 184.3438 L108.1094 184.3438 L108.0938 183.5312 C108.0938 183.0938 108.2031 182.9688 108.7812 182.7344 L109.2031 182.5625 C110.0312 182.2188 110.4531 181.6875 110.4531 180.8438 C110.4531 179.1562 108.6562 178.1875 107.5 178.0312 C107.1094 178.125 106.9062 178.2969 106.9062 178.6406 C106.9062 178.9375 107.0625 179.1562 107.7188 179.2656 L109.4688 179.5781 Z"
      /><rect x="123" y="96" width="5" style="fill:white; stroke:none;" height="10"
      /><path style="stroke:none;" d="M124.8906 104.6875 C124.4844 104.6875 124.1562 105.0469 124.1562 105.4219 C124.1562 105.8125 124.4844 106.1562 124.8906 106.1562 C125.2969 106.1562 125.6406 105.8125 125.6406 105.4219 C125.6406 105.0469 125.2969 104.6875 124.8906 104.6875 ZM126.4688 98.5781 C126.7188 98.8906 126.875 99.2656 126.8906 99.6562 C126.8906 100.1875 126.625 100.5 126.0312 100.7656 L125.4062 101.0156 C124.6406 101.3125 124.3906 101.5469 124.3906 101.9375 C124.3906 102.1094 124.4531 102.3438 124.5781 102.8125 L124.7344 103.3438 L125.1094 103.3438 L125.0938 102.5312 C125.0938 102.0938 125.2031 101.9688 125.7812 101.7344 L126.2031 101.5625 C127.0312 101.2188 127.4531 100.6875 127.4531 99.8438 C127.4531 98.1562 125.6562 97.1875 124.5 97.0312 C124.1094 97.125 123.9062 97.2969 123.9062 97.6406 C123.9062 97.9375 124.0625 98.1562 124.7188 98.2656 L126.4688 98.5781 Z"
      /><rect x="109" y="96" width="5" style="fill:white; stroke:none;" height="10"
      /><path style="stroke:none;" d="M110.8906 104.6875 C110.4844 104.6875 110.1562 105.0469 110.1562 105.4219 C110.1562 105.8125 110.4844 106.1562 110.8906 106.1562 C111.2969 106.1562 111.6406 105.8125 111.6406 105.4219 C111.6406 105.0469 111.2969 104.6875 110.8906 104.6875 ZM112.4688 98.5781 C112.7188 98.8906 112.875 99.2656 112.8906 99.6562 C112.8906 100.1875 112.625 100.5 112.0312 100.7656 L111.4062 101.0156 C110.6406 101.3125 110.3906 101.5469 110.3906 101.9375 C110.3906 102.1094 110.4531 102.3438 110.5781 102.8125 L110.7344 103.3438 L111.1094 103.3438 L111.0938 102.5312 C111.0938 102.0938 111.2031 101.9688 111.7812 101.7344 L112.2031 101.5625 C113.0312 101.2188 113.4531 100.6875 113.4531 99.8438 C113.4531 98.1562 111.6562 97.1875 110.5 97.0312 C110.1094 97.125 109.9062 97.2969 109.9062 97.6406 C109.9062 97.9375 110.0625 98.1562 110.7188 98.2656 L112.4688 98.5781 Z"
      /><rect x="120" y="77" width="5" style="fill:white; stroke:none;" height="10"
      /><path style="stroke:none;" d="M121.8906 85.6875 C121.4844 85.6875 121.1562 86.0469 121.1562 86.4219 C121.1562 86.8125 121.4844 87.1562 121.8906 87.1562 C122.2969 87.1562 122.6406 86.8125 122.6406 86.4219 C122.6406 86.0469 122.2969 85.6875 121.8906 85.6875 ZM123.4688 79.5781 C123.7188 79.8906 123.875 80.2656 123.8906 80.6562 C123.8906 81.1875 123.625 81.5 123.0312 81.7656 L122.4062 82.0156 C121.6406 82.3125 121.3906 82.5469 121.3906 82.9375 C121.3906 83.1094 121.4531 83.3438 121.5781 83.8125 L121.7344 84.3438 L122.1094 84.3438 L122.0938 83.5312 C122.0938 83.0938 122.2031 82.9688 122.7812 82.7344 L123.2031 82.5625 C124.0312 82.2188 124.4531 81.6875 124.4531 80.8438 C124.4531 79.1562 122.6562 78.1875 121.5 78.0312 C121.1094 78.125 120.9062 78.2969 120.9062 78.6406 C120.9062 78.9375 121.0625 79.1562 121.7188 79.2656 L123.4688 79.5781 Z"
      /><rect x="101" y="58" width="5" style="fill:white; stroke:none;" height="10"
      /><path style="stroke:none;" d="M102.8906 66.6875 C102.4844 66.6875 102.1562 67.0469 102.1562 67.4219 C102.1562 67.8125 102.4844 68.1562 102.8906 68.1562 C103.2969 68.1562 103.6406 67.8125 103.6406 67.4219 C103.6406 67.0469 103.2969 66.6875 102.8906 66.6875 ZM104.4688 60.5781 C104.7188 60.8906 104.875 61.2656 104.8906 61.6562 C104.8906 62.1875 104.625 62.5 104.0312 62.7656 L103.4062 63.0156 C102.6406 63.3125 102.3906 63.5469 102.3906 63.9375 C102.3906 64.1094 102.4531 64.3438 102.5781 64.8125 L102.7344 65.3438 L103.1094 65.3438 L103.0938 64.5312 C103.0938 64.0938 103.2031 63.9688 103.7812 63.7344 L104.2031 63.5625 C105.0312 63.2188 105.4531 62.6875 105.4531 61.8438 C105.4531 60.1562 103.6562 59.1875 102.5 59.0312 C102.1094 59.125 101.9062 59.2969 101.9062 59.6406 C101.9062 59.9375 102.0625 60.1562 102.7188 60.2656 L104.4688 60.5781 Z"
      /><rect x="175" y="96" width="5" style="fill:white; stroke:none;" height="10"
      /><path style="stroke:none;" d="M176.8906 104.6875 C176.4844 104.6875 176.1562 105.0469 176.1562 105.4219 C176.1562 105.8125 176.4844 106.1562 176.8906 106.1562 C177.2969 106.1562 177.6406 105.8125 177.6406 105.4219 C177.6406 105.0469 177.2969 104.6875 176.8906 104.6875 ZM178.4688 98.5781 C178.7188 98.8906 178.875 99.2656 178.8906 99.6562 C178.8906 100.1875 178.625 100.5 178.0312 100.7656 L177.4062 101.0156 C176.6406 101.3125 176.3906 101.5469 176.3906 101.9375 C176.3906 102.1094 176.4531 102.3438 176.5781 102.8125 L176.7344 103.3438 L177.1094 103.3438 L177.0938 102.5312 C177.0938 102.0938 177.2031 101.9688 177.7812 101.7344 L178.2031 101.5625 C179.0312 101.2188 179.4531 100.6875 179.4531 99.8438 C179.4531 98.1562 177.6562 97.1875 176.5 97.0312 C176.1094 97.125 175.9062 97.2969 175.9062 97.6406 C175.9062 97.9375 176.0625 98.1562 176.7188 98.2656 L178.4688 98.5781 Z"
      /><rect x="161" y="96" width="5" style="fill:white; stroke:none;" height="10"
      /><path style="stroke:none;" d="M162.8906 104.6875 C162.4844 104.6875 162.1562 105.0469 162.1562 105.4219 C162.1562 105.8125 162.4844 106.1562 162.8906 106.1562 C163.2969 106.1562 163.6406 105.8125 163.6406 105.4219 C163.6406 105.0469 163.2969 104.6875 162.8906 104.6875 ZM164.4688 98.5781 C164.7188 98.8906 164.875 99.2656 164.8906 99.6562 C164.8906 100.1875 164.625 100.5 164.0312 100.7656 L163.4062 101.0156 C162.6406 101.3125 162.3906 101.5469 162.3906 101.9375 C162.3906 102.1094 162.4531 102.3438 162.5781 102.8125 L162.7344 103.3438 L163.1094 103.3438 L163.0938 102.5312 C163.0938 102.0938 163.2031 101.9688 163.7812 101.7344 L164.2031 101.5625 C165.0312 101.2188 165.4531 100.6875 165.4531 99.8438 C165.4531 98.1562 163.6562 97.1875 162.5 97.0312 C162.1094 97.125 161.9062 97.2969 161.9062 97.6406 C161.9062 97.9375 162.0625 98.1562 162.7188 98.2656 L164.4688 98.5781 Z"
      /><rect x="227" y="96" width="5" style="fill:white; stroke:none;" height="10"
      /><path style="stroke:none;" d="M228.8906 104.6875 C228.4844 104.6875 228.1562 105.0469 228.1562 105.4219 C228.1562 105.8125 228.4844 106.1562 228.8906 106.1562 C229.2969 106.1562 229.6406 105.8125 229.6406 105.4219 C229.6406 105.0469 229.2969 104.6875 228.8906 104.6875 ZM230.4688 98.5781 C230.7188 98.8906 230.875 99.2656 230.8906 99.6562 C230.8906 100.1875 230.625 100.5 230.0312 100.7656 L229.4062 101.0156 C228.6406 101.3125 228.3906 101.5469 228.3906 101.9375 C228.3906 102.1094 228.4531 102.3438 228.5781 102.8125 L228.7344 103.3438 L229.1094 103.3438 L229.0938 102.5312 C229.0938 102.0938 229.2031 101.9688 229.7812 101.7344 L230.2031 101.5625 C231.0312 101.2188 231.4531 100.6875 231.4531 99.8438 C231.4531 98.1562 229.6562 97.1875 228.5 97.0312 C228.1094 97.125 227.9062 97.2969 227.9062 97.6406 C227.9062 97.9375 228.0625 98.1562 228.7188 98.2656 L230.4688 98.5781 Z"
      /><rect x="213" y="96" width="5" style="fill:white; stroke:none;" height="10"
      /><path style="stroke:none;" d="M214.8906 104.6875 C214.4844 104.6875 214.1562 105.0469 214.1562 105.4219 C214.1562 105.8125 214.4844 106.1562 214.8906 106.1562 C215.2969 106.1562 215.6406 105.8125 215.6406 105.4219 C215.6406 105.0469 215.2969 104.6875 214.8906 104.6875 ZM216.4688 98.5781 C216.7188 98.8906 216.875 99.2656 216.8906 99.6562 C216.8906 100.1875 216.625 100.5 216.0312 100.7656 L215.4062 101.0156 C214.6406 101.3125 214.3906 101.5469 214.3906 101.9375 C214.3906 102.1094 214.4531 102.3438 214.5781 102.8125 L214.7344 103.3438 L215.1094 103.3438 L215.0938 102.5312 C215.0938 102.0938 215.2031 101.9688 215.7812 101.7344 L216.2031 101.5625 C217.0312 101.2188 217.4531 100.6875 217.4531 99.8438 C217.4531 98.1562 215.6562 97.1875 214.5 97.0312 C214.1094 97.125 213.9062 97.2969 213.9062 97.6406 C213.9062 97.9375 214.0625 98.1562 214.7188 98.2656 L216.4688 98.5781 Z"
      /><rect x="265" y="96" width="5" style="fill:white; stroke:none;" height="10"
      /><path style="stroke:none;" d="M266.8906 104.6875 C266.4844 104.6875 266.1562 105.0469 266.1562 105.4219 C266.1562 105.8125 266.4844 106.1562 266.8906 106.1562 C267.2969 106.1562 267.6406 105.8125 267.6406 105.4219 C267.6406 105.0469 267.2969 104.6875 266.8906 104.6875 ZM268.4688 98.5781 C268.7188 98.8906 268.875 99.2656 268.8906 99.6562 C268.8906 100.1875 268.625 100.5 268.0312 100.7656 L267.4062 101.0156 C266.6406 101.3125 266.3906 101.5469 266.3906 101.9375 C266.3906 102.1094 266.4531 102.3438 266.5781 102.8125 L266.7344 103.3438 L267.1094 103.3438 L267.0938 102.5312 C267.0938 102.0938 267.2031 101.9688 267.7812 101.7344 L268.2031 101.5625 C269.0312 101.2188 269.4531 100.6875 269.4531 99.8438 C269.4531 98.1562 267.6562 97.1875 266.5 97.0312 C266.1094 97.125 265.9062 97.2969 265.9062 97.6406 C265.9062 97.9375 266.0625 98.1562 266.7188 98.2656 L268.4688 98.5781 Z"
    /></g
  ></g
></svg
>
