<?xml version="1.0"?>
<!DOCTYPE svg PUBLIC '-//W3C//DTD SVG 1.0//EN'
          'http://www.w3.org/TR/2001/REC-SVG-20010904/DTD/svg10.dtd'>
<svg xmlns:xlink="http://www.w3.org/1999/xlink" style="fill-opacity:1; color-rendering:auto; color-interpolation:auto; text-rendering:auto; stroke:black; stroke-linecap:square; stroke-miterlimit:10; shape-rendering:auto; stroke-opacity:1; fill:black; stroke-dasharray:none; font-weight:normal; stroke-width:1; font-family:'Dialog'; font-style:normal; stroke-linejoin:miter; font-size:12px; stroke-dashoffset:0; image-rendering:auto;" viewBox="0 0 394 201" xmlns="http://www.w3.org/2000/svg"
><!--Generated by the Batik Graphics2D SVG Generator--><defs id="genericDefs"
  /><g
  ><defs id="defs1"
    ><clipPath clipPathUnits="userSpaceOnUse" id="clipPath1"
      ><path style="fill-rule:evenodd;" d="M301 69 L311 76 L307 88 L294 88 L290 76 L301 69 Z"
      /></clipPath
      ><clipPath clipPathUnits="userSpaceOnUse" id="clipPath2"
      ><path d="M238 69 L260 69 L260 91 L238 91 L238 69 Z"
      /></clipPath
      ><clipPath clipPathUnits="userSpaceOnUse" id="clipPath3"
      ><path d="M208 80 C208 86.0751 203.0751 91 197 91 C190.9249 91 186 86.0751 186 80 C186 73.9249 190.9249 69 197 69 C203.0751 69 208 73.9249 208 80 Z"
      /></clipPath
      ><clipPath clipPathUnits="userSpaceOnUse" id="clipPath4"
      ><path d="M156 119 C156 125.0751 151.0751 130 145 130 C138.9249 130 134 125.0751 134 119 C134 112.9249 138.9249 108 145 108 C151.0751 108 156 112.9249 156 119 Z"
      /></clipPath
      ><clipPath clipPathUnits="userSpaceOnUse" id="clipPath5"
      ><path d="M104 145 C104 151.0751 99.0751 156 93 156 C86.9249 156 82 151.0751 82 145 C82 138.9249 86.9249 134 93 134 C99.0751 134 104 138.9249 104 145 Z"
      /></clipPath
      ><clipPath clipPathUnits="userSpaceOnUse" id="clipPath6"
      ><path d="M52 145 C52 151.0751 47.0751 156 41 156 C34.9249 156 30 151.0751 30 145 C30 138.9249 34.9249 134 41 134 C47.0751 134 52 138.9249 52 145 Z"
      /></clipPath
      ><clipPath clipPathUnits="userSpaceOnUse" id="clipPath7"
      ><path d="M104 93 C104 99.0751 99.0751 104 93 104 C86.9249 104 82 99.0751 82 93 C82 86.9249 86.9249 82 93 82 C99.0751 82 104 86.9249 104 93 Z"
      /></clipPath
      ><clipPath clipPathUnits="userSpaceOnUse" id="clipPath8"
      ><path d="M52 93 C52 99.0751 47.0751 104 41 104 C34.9249 104 30 99.0751 30 93 C30 86.9249 34.9249 82 41 82 C47.0751 82 52 86.9249 52 93 Z"
      /></clipPath
      ><clipPath clipPathUnits="userSpaceOnUse" id="clipPath9"
      ><path d="M156 41 C156 47.0751 151.0751 52 145 52 C138.9249 52 134 47.0751 134 41 C134 34.9249 138.9249 30 145 30 C151.0751 30 156 34.9249 156 41 Z"
      /></clipPath
      ><clipPath clipPathUnits="userSpaceOnUse" id="clipPath10"
      ><path d="M104 41 C104 47.0751 99.0751 52 93 52 C86.9249 52 82 47.0751 82 41 C82 34.9249 86.9249 30 93 30 C99.0751 30 104 34.9249 104 41 Z"
      /></clipPath
      ><clipPath clipPathUnits="userSpaceOnUse" id="clipPath11"
      ><path d="M52 41 C52 47.0751 47.0751 52 41 52 C34.9249 52 30 47.0751 30 41 C30 34.9249 34.9249 30 41 30 C47.0751 30 52 34.9249 52 41 Z"
      /></clipPath
    ></defs
    ><g style="fill:white; text-rendering:optimizeSpeed; stroke:white;"
    ><rect x="0" width="394" height="201" y="0" style="stroke:none;"
      /><polygon style="fill:none; stroke:black;" points=" 353 80 301 80"
      /><path d="M353 69 C347.5 74.5 358.5 85.5 353 91" style="fill:none; stroke:black;"
      /><polygon style="fill:none; stroke:black;" points=" 301 80 249 80"
      /><polygon style="clip-path:url(#clipPath1); stroke:none;" points=" 301 69 311 76 307 88 294 88 290 76 301 69"
      /><rect x="290" y="69" width="22" style="clip-path:url(#clipPath1); stroke:none;" height="22"
      /><rect x="290" y="69" width="22" style="clip-path:url(#clipPath1); fill:none; stroke:black;" height="22"
      /><polygon style="fill:none; stroke:black;" points=" 301 69 311 76 307 88 294 88 290 76 301 69"
    /></g
    ><g style="text-rendering:optimizeSpeed; font-size:14px; font-family:'SansSerif';"
    ><path style="stroke:none;" d="M299.2344 85 L304.8594 85 L304.8594 83.9375 L302.7969 83.9375 L302.7969 74.7188 L301.8281 74.7188 C301.2656 75.0625 300.6094 75.2969 299.6875 75.4688 L299.6875 76.2812 L301.5156 76.2812 L301.5156 83.9375 L299.2344 83.9375 L299.2344 85 Z"
      /><rect x="293" y="97" width="14" style="fill:white; stroke:none;" height="11"
      /><path style="stroke:none;" d="M293.6094 108 L300.0625 108 L300.0625 106.8906 L297.2344 106.8906 C296.7031 106.8906 296.0781 106.9531 295.5469 106.9844 C297.9531 104.7031 299.5625 102.625 299.5625 100.5781 C299.5625 98.75 298.4219 97.5469 296.5781 97.5469 C295.2812 97.5469 294.4062 98.1406 293.5625 99.0469 L294.2969 99.7812 C294.8594 99.1094 295.5938 98.5938 296.4375 98.5938 C297.7031 98.5938 298.3125 99.4531 298.3125 100.625 C298.3125 102.3906 296.8438 104.4375 293.6094 107.25 L293.6094 108 ZM304.645 108.1875 C305.5512 108.1875 306.3637 107.6875 306.9575 107.1094 L307.0043 107.1094 L307.1137 108 L308.145 108 L308.145 96.8594 L306.895 96.8594 L306.895 99.7812 L306.9418 101.0938 C306.27 100.5312 305.6918 100.2031 304.8012 100.2031 C303.0668 100.2031 301.5043 101.7344 301.5043 104.2031 C301.5043 106.7344 302.7387 108.1875 304.645 108.1875 ZM304.9262 107.125 C303.5825 107.125 302.8325 106.0312 302.8325 104.1875 C302.8325 102.4531 303.8012 101.2812 305.02 101.2812 C305.6606 101.2812 306.2231 101.5 306.895 102.0781 L306.895 106.0625 C306.2387 106.7656 305.6293 107.125 304.9262 107.125 Z"
      /><polygon style="fill:none;" points=" 249 80 197 80"
    /></g
    ><g style="fill:white; text-rendering:optimizeSpeed; stroke:white;"
    ><rect x="238" y="69" width="22" style="clip-path:url(#clipPath2); stroke:none;" height="22"
      /><rect x="238" y="69" width="22" style="clip-path:url(#clipPath2); fill:rgb(0,144,188); stroke:none;" height="22"
      /><rect x="238" y="69" width="22" style="clip-path:url(#clipPath2); fill:none; stroke:black;" height="22"
      /><rect x="238" y="69" width="22" style="fill:none; stroke:black;" height="22"
      /><polygon style="fill:none; stroke:black;" points=" 197 80 145 119"
      /><polygon style="fill:none; stroke:black;" points=" 197 80 145 41"
      /><circle r="11" style="clip-path:url(#clipPath3); stroke:none;" cx="197" cy="80"
      /><rect x="186" y="69" width="22" style="clip-path:url(#clipPath3); fill:rgb(0,166,81); stroke:none;" height="22"
      /><rect x="186" y="69" width="22" style="clip-path:url(#clipPath3); fill:none; stroke:black;" height="22"
      /><circle r="11" style="fill:none; stroke:black;" cx="197" cy="80"
      /><polygon style="fill:none; stroke:black;" points=" 145 119 93 145"
      /><polygon style="fill:none; stroke:black;" points=" 145 119 93 93"
      /><circle r="11" style="clip-path:url(#clipPath4); stroke:none;" cx="145" cy="119"
      /><rect x="134" y="108" width="22" style="clip-path:url(#clipPath4); fill:rgb(0,166,81); stroke:none;" height="22"
      /><rect x="134" y="108" width="22" style="clip-path:url(#clipPath4); fill:none; stroke:black;" height="22"
      /><circle r="11" style="fill:none; stroke:black;" cx="145" cy="119"
      /><polygon style="fill:none; stroke:black;" points=" 93 145 41 145"
      /><circle r="11" style="clip-path:url(#clipPath5); stroke:none;" cx="93" cy="145"
      /><rect x="82" y="134" width="22" style="clip-path:url(#clipPath5); fill:rgb(0,166,81); stroke:none;" height="22"
      /><rect x="82" y="134" width="22" style="clip-path:url(#clipPath5); fill:none; stroke:black;" height="22"
      /><circle r="11" style="fill:none; stroke:black;" cx="93" cy="145"
      /><circle r="11" style="clip-path:url(#clipPath6); stroke:none;" cx="41" cy="145"
      /><rect x="30" y="134" width="22" style="clip-path:url(#clipPath6); fill:rgb(0,166,81); stroke:none;" height="22"
      /><rect x="30" y="134" width="22" style="clip-path:url(#clipPath6); fill:none; stroke:black;" height="22"
      /><circle r="11" style="fill:none; stroke:black;" cx="41" cy="145"
      /><rect x="71" width="5" height="10" y="148" style="stroke:none;"
      /><path d="M72.8906 156.6875 C72.4844 156.6875 72.1562 157.0469 72.1562 157.4219 C72.1562 157.8125 72.4844 158.1562 72.8906 158.1562 C73.2969 158.1562 73.6406 157.8125 73.6406 157.4219 C73.6406 157.0469 73.2969 156.6875 72.8906 156.6875 ZM74.4688 150.5781 C74.7188 150.8906 74.875 151.2656 74.8906 151.6562 C74.8906 152.1875 74.625 152.5 74.0312 152.7656 L73.4062 153.0156 C72.6406 153.3125 72.3906 153.5469 72.3906 153.9375 C72.3906 154.1094 72.4531 154.3438 72.5781 154.8125 L72.7344 155.3438 L73.1094 155.3438 L73.0938 154.5312 C73.0938 154.0938 73.2031 153.9688 73.7812 153.7344 L74.2031 153.5625 C75.0312 153.2188 75.4531 152.6875 75.4531 151.8438 C75.4531 150.1562 73.6562 149.1875 72.5 149.0312 C72.1094 149.125 71.9062 149.2969 71.9062 149.6406 C71.9062 149.9375 72.0625 150.1562 72.7188 150.2656 L74.4688 150.5781 Z" style="fill:black; stroke:none;"
      /><rect x="57" width="5" height="10" y="148" style="stroke:none;"
      /><path d="M58.8906 156.6875 C58.4844 156.6875 58.1562 157.0469 58.1562 157.4219 C58.1562 157.8125 58.4844 158.1562 58.8906 158.1562 C59.2969 158.1562 59.6406 157.8125 59.6406 157.4219 C59.6406 157.0469 59.2969 156.6875 58.8906 156.6875 ZM60.4688 150.5781 C60.7188 150.8906 60.875 151.2656 60.8906 151.6562 C60.8906 152.1875 60.625 152.5 60.0312 152.7656 L59.4062 153.0156 C58.6406 153.3125 58.3906 153.5469 58.3906 153.9375 C58.3906 154.1094 58.4531 154.3438 58.5781 154.8125 L58.7344 155.3438 L59.1094 155.3438 L59.0938 154.5312 C59.0938 154.0938 59.2031 153.9688 59.7812 153.7344 L60.2031 153.5625 C61.0312 153.2188 61.4531 152.6875 61.4531 151.8438 C61.4531 150.1562 59.6562 149.1875 58.5 149.0312 C58.1094 149.125 57.9062 149.2969 57.9062 149.6406 C57.9062 149.9375 58.0625 150.1562 58.7188 150.2656 L60.4688 150.5781 Z" style="fill:black; stroke:none;"
      /><polygon style="fill:none; stroke:black;" points=" 93 93 41 93"
      /><circle r="11" style="clip-path:url(#clipPath7); stroke:none;" cx="93" cy="93"
      /><rect x="82" y="82" width="22" style="clip-path:url(#clipPath7); fill:rgb(0,166,81); stroke:none;" height="22"
      /><rect x="82" y="82" width="22" style="clip-path:url(#clipPath7); fill:none; stroke:black;" height="22"
      /><circle r="11" style="fill:none; stroke:black;" cx="93" cy="93"
      /><circle r="11" style="clip-path:url(#clipPath8); stroke:none;" cx="41" cy="93"
      /><rect x="30" y="82" width="22" style="clip-path:url(#clipPath8); fill:rgb(0,166,81); stroke:none;" height="22"
      /><rect x="30" y="82" width="22" style="clip-path:url(#clipPath8); fill:none; stroke:black;" height="22"
      /><circle r="11" style="fill:none; stroke:black;" cx="41" cy="93"
      /><rect x="71" width="5" height="10" y="96" style="stroke:none;"
      /><path d="M72.8906 104.6875 C72.4844 104.6875 72.1562 105.0469 72.1562 105.4219 C72.1562 105.8125 72.4844 106.1562 72.8906 106.1562 C73.2969 106.1562 73.6406 105.8125 73.6406 105.4219 C73.6406 105.0469 73.2969 104.6875 72.8906 104.6875 ZM74.4688 98.5781 C74.7188 98.8906 74.875 99.2656 74.8906 99.6562 C74.8906 100.1875 74.625 100.5 74.0312 100.7656 L73.4062 101.0156 C72.6406 101.3125 72.3906 101.5469 72.3906 101.9375 C72.3906 102.1094 72.4531 102.3438 72.5781 102.8125 L72.7344 103.3438 L73.1094 103.3438 L73.0938 102.5312 C73.0938 102.0938 73.2031 101.9688 73.7812 101.7344 L74.2031 101.5625 C75.0312 101.2188 75.4531 100.6875 75.4531 99.8438 C75.4531 98.1562 73.6562 97.1875 72.5 97.0312 C72.1094 97.125 71.9062 97.2969 71.9062 97.6406 C71.9062 97.9375 72.0625 98.1562 72.7188 98.2656 L74.4688 98.5781 Z" style="fill:black; stroke:none;"
      /><rect x="57" width="5" height="10" y="96" style="stroke:none;"
      /><path d="M58.8906 104.6875 C58.4844 104.6875 58.1562 105.0469 58.1562 105.4219 C58.1562 105.8125 58.4844 106.1562 58.8906 106.1562 C59.2969 106.1562 59.6406 105.8125 59.6406 105.4219 C59.6406 105.0469 59.2969 104.6875 58.8906 104.6875 ZM60.4688 98.5781 C60.7188 98.8906 60.875 99.2656 60.8906 99.6562 C60.8906 100.1875 60.625 100.5 60.0312 100.7656 L59.4062 101.0156 C58.6406 101.3125 58.3906 101.5469 58.3906 101.9375 C58.3906 102.1094 58.4531 102.3438 58.5781 102.8125 L58.7344 103.3438 L59.1094 103.3438 L59.0938 102.5312 C59.0938 102.0938 59.2031 101.9688 59.7812 101.7344 L60.2031 101.5625 C61.0312 101.2188 61.4531 100.6875 61.4531 99.8438 C61.4531 98.1562 59.6562 97.1875 58.5 97.0312 C58.1094 97.125 57.9062 97.2969 57.9062 97.6406 C57.9062 97.9375 58.0625 98.1562 58.7188 98.2656 L60.4688 98.5781 Z" style="fill:black; stroke:none;"
      /><rect x="127" width="5" height="10" y="130" style="stroke:none;"
      /><path d="M128.8906 138.6875 C128.4844 138.6875 128.1562 139.0469 128.1562 139.4219 C128.1562 139.8125 128.4844 140.1562 128.8906 140.1562 C129.2969 140.1562 129.6406 139.8125 129.6406 139.4219 C129.6406 139.0469 129.2969 138.6875 128.8906 138.6875 ZM130.4688 132.5781 C130.7188 132.8906 130.875 133.2656 130.8906 133.6562 C130.8906 134.1875 130.625 134.5 130.0312 134.7656 L129.4062 135.0156 C128.6406 135.3125 128.3906 135.5469 128.3906 135.9375 C128.3906 136.1094 128.4531 136.3438 128.5781 136.8125 L128.7344 137.3438 L129.1094 137.3438 L129.0938 136.5312 C129.0938 136.0938 129.2031 135.9688 129.7812 135.7344 L130.2031 135.5625 C131.0312 135.2188 131.4531 134.6875 131.4531 133.8438 C131.4531 132.1562 129.6562 131.1875 128.5 131.0312 C128.1094 131.125 127.9062 131.2969 127.9062 131.6406 C127.9062 131.9375 128.0625 132.1562 128.7188 132.2656 L130.4688 132.5781 Z" style="fill:black; stroke:none;"
      /><rect x="112" width="5" height="10" y="138" style="stroke:none;"
      /><path d="M113.8906 146.6875 C113.4844 146.6875 113.1562 147.0469 113.1562 147.4219 C113.1562 147.8125 113.4844 148.1562 113.8906 148.1562 C114.2969 148.1562 114.6406 147.8125 114.6406 147.4219 C114.6406 147.0469 114.2969 146.6875 113.8906 146.6875 ZM115.4688 140.5781 C115.7188 140.8906 115.875 141.2656 115.8906 141.6562 C115.8906 142.1875 115.625 142.5 115.0312 142.7656 L114.4062 143.0156 C113.6406 143.3125 113.3906 143.5469 113.3906 143.9375 C113.3906 144.1094 113.4531 144.3438 113.5781 144.8125 L113.7344 145.3438 L114.1094 145.3438 L114.0938 144.5312 C114.0938 144.0938 114.2031 143.9688 114.7812 143.7344 L115.2031 143.5625 C116.0312 143.2188 116.4531 142.6875 116.4531 141.8438 C116.4531 140.1562 114.6562 139.1875 113.5 139.0312 C113.1094 139.125 112.9062 139.2969 112.9062 139.6406 C112.9062 139.9375 113.0625 140.1562 113.7188 140.2656 L115.4688 140.5781 Z" style="fill:black; stroke:none;"
      /><rect x="120" width="5" height="10" y="112" style="stroke:none;"
      /><path d="M121.8906 120.6875 C121.4844 120.6875 121.1562 121.0469 121.1562 121.4219 C121.1562 121.8125 121.4844 122.1562 121.8906 122.1562 C122.2969 122.1562 122.6406 121.8125 122.6406 121.4219 C122.6406 121.0469 122.2969 120.6875 121.8906 120.6875 ZM123.4688 114.5781 C123.7188 114.8906 123.875 115.2656 123.8906 115.6562 C123.8906 116.1875 123.625 116.5 123.0312 116.7656 L122.4062 117.0156 C121.6406 117.3125 121.3906 117.5469 121.3906 117.9375 C121.3906 118.1094 121.4531 118.3438 121.5781 118.8125 L121.7344 119.3438 L122.1094 119.3438 L122.0938 118.5312 C122.0938 118.0938 122.2031 117.9688 122.7812 117.7344 L123.2031 117.5625 C124.0312 117.2188 124.4531 116.6875 124.4531 115.8438 C124.4531 114.1562 122.6562 113.1875 121.5 113.0312 C121.1094 113.125 120.9062 113.2969 120.9062 113.6406 C120.9062 113.9375 121.0625 114.1562 121.7188 114.2656 L123.4688 114.5781 Z" style="fill:black; stroke:none;"
      /><rect x="105" width="5" height="10" y="104" style="stroke:none;"
      /><path d="M106.8906 112.6875 C106.4844 112.6875 106.1562 113.0469 106.1562 113.4219 C106.1562 113.8125 106.4844 114.1562 106.8906 114.1562 C107.2969 114.1562 107.6406 113.8125 107.6406 113.4219 C107.6406 113.0469 107.2969 112.6875 106.8906 112.6875 ZM108.4688 106.5781 C108.7188 106.8906 108.875 107.2656 108.8906 107.6562 C108.8906 108.1875 108.625 108.5 108.0312 108.7656 L107.4062 109.0156 C106.6406 109.3125 106.3906 109.5469 106.3906 109.9375 C106.3906 110.1094 106.4531 110.3438 106.5781 110.8125 L106.7344 111.3438 L107.1094 111.3438 L107.0938 110.5312 C107.0938 110.0938 107.2031 109.9688 107.7812 109.7344 L108.2031 109.5625 C109.0312 109.2188 109.4531 108.6875 109.4531 107.8438 C109.4531 106.1562 107.6562 105.1875 106.5 105.0312 C106.1094 105.125 105.9062 105.2969 105.9062 105.6406 C105.9062 105.9375 106.0625 106.1562 106.7188 106.2656 L108.4688 106.5781 Z" style="fill:black; stroke:none;"
      /><polygon style="fill:none; stroke:black;" points=" 145 41 93 41"
      /><circle r="11" style="clip-path:url(#clipPath9); stroke:none;" cx="145" cy="41"
      /><rect x="134" y="30" width="22" style="clip-path:url(#clipPath9); fill:rgb(0,166,81); stroke:none;" height="22"
      /><rect x="134" y="30" width="22" style="clip-path:url(#clipPath9); fill:none; stroke:black;" height="22"
      /><circle r="11" style="fill:none; stroke:black;" cx="145" cy="41"
      /><polygon style="fill:none; stroke:black;" points=" 93 41 41 41"
      /><circle r="11" style="clip-path:url(#clipPath10); stroke:none;" cx="93" cy="41"
      /><rect x="82" y="30" width="22" style="clip-path:url(#clipPath10); fill:rgb(0,166,81); stroke:none;" height="22"
      /><rect x="82" y="30" width="22" style="clip-path:url(#clipPath10); fill:none; stroke:black;" height="22"
      /><circle r="11" style="fill:none; stroke:black;" cx="93" cy="41"
      /><circle r="11" style="clip-path:url(#clipPath11); stroke:none;" cx="41" cy="41"
      /><rect x="30" y="30" width="22" style="clip-path:url(#clipPath11); fill:rgb(0,166,81); stroke:none;" height="22"
      /><rect x="30" y="30" width="22" style="clip-path:url(#clipPath11); fill:none; stroke:black;" height="22"
      /><circle r="11" style="fill:none; stroke:black;" cx="41" cy="41"
      /><rect x="71" width="5" height="10" y="44" style="stroke:none;"
      /><path d="M72.8906 52.6875 C72.4844 52.6875 72.1562 53.0469 72.1562 53.4219 C72.1562 53.8125 72.4844 54.1562 72.8906 54.1562 C73.2969 54.1562 73.6406 53.8125 73.6406 53.4219 C73.6406 53.0469 73.2969 52.6875 72.8906 52.6875 ZM74.4688 46.5781 C74.7188 46.8906 74.875 47.2656 74.8906 47.6562 C74.8906 48.1875 74.625 48.5 74.0312 48.7656 L73.4062 49.0156 C72.6406 49.3125 72.3906 49.5469 72.3906 49.9375 C72.3906 50.1094 72.4531 50.3438 72.5781 50.8125 L72.7344 51.3438 L73.1094 51.3438 L73.0938 50.5312 C73.0938 50.0938 73.2031 49.9688 73.7812 49.7344 L74.2031 49.5625 C75.0312 49.2188 75.4531 48.6875 75.4531 47.8438 C75.4531 46.1562 73.6562 45.1875 72.5 45.0312 C72.1094 45.125 71.9062 45.2969 71.9062 45.6406 C71.9062 45.9375 72.0625 46.1562 72.7188 46.2656 L74.4688 46.5781 Z" style="fill:black; stroke:none;"
      /><rect x="57" width="5" height="10" y="44" style="stroke:none;"
      /><path d="M58.8906 52.6875 C58.4844 52.6875 58.1562 53.0469 58.1562 53.4219 C58.1562 53.8125 58.4844 54.1562 58.8906 54.1562 C59.2969 54.1562 59.6406 53.8125 59.6406 53.4219 C59.6406 53.0469 59.2969 52.6875 58.8906 52.6875 ZM60.4688 46.5781 C60.7188 46.8906 60.875 47.2656 60.8906 47.6562 C60.8906 48.1875 60.625 48.5 60.0312 48.7656 L59.4062 49.0156 C58.6406 49.3125 58.3906 49.5469 58.3906 49.9375 C58.3906 50.1094 58.4531 50.3438 58.5781 50.8125 L58.7344 51.3438 L59.1094 51.3438 L59.0938 50.5312 C59.0938 50.0938 59.2031 49.9688 59.7812 49.7344 L60.2031 49.5625 C61.0312 49.2188 61.4531 48.6875 61.4531 47.8438 C61.4531 46.1562 59.6562 45.1875 58.5 45.0312 C58.1094 45.125 57.9062 45.2969 57.9062 45.6406 C57.9062 45.9375 58.0625 46.1562 58.7188 46.2656 L60.4688 46.5781 Z" style="fill:black; stroke:none;"
      /><rect x="123" width="5" height="10" y="44" style="stroke:none;"
      /><path d="M124.8906 52.6875 C124.4844 52.6875 124.1562 53.0469 124.1562 53.4219 C124.1562 53.8125 124.4844 54.1562 124.8906 54.1562 C125.2969 54.1562 125.6406 53.8125 125.6406 53.4219 C125.6406 53.0469 125.2969 52.6875 124.8906 52.6875 ZM126.4688 46.5781 C126.7188 46.8906 126.875 47.2656 126.8906 47.6562 C126.8906 48.1875 126.625 48.5 126.0312 48.7656 L125.4062 49.0156 C124.6406 49.3125 124.3906 49.5469 124.3906 49.9375 C124.3906 50.1094 124.4531 50.3438 124.5781 50.8125 L124.7344 51.3438 L125.1094 51.3438 L125.0938 50.5312 C125.0938 50.0938 125.2031 49.9688 125.7812 49.7344 L126.2031 49.5625 C127.0312 49.2188 127.4531 48.6875 127.4531 47.8438 C127.4531 46.1562 125.6562 45.1875 124.5 45.0312 C124.1094 45.125 123.9062 45.2969 123.9062 45.6406 C123.9062 45.9375 124.0625 46.1562 124.7188 46.2656 L126.4688 46.5781 Z" style="fill:black; stroke:none;"
      /><rect x="109" width="5" height="10" y="44" style="stroke:none;"
      /><path d="M110.8906 52.6875 C110.4844 52.6875 110.1562 53.0469 110.1562 53.4219 C110.1562 53.8125 110.4844 54.1562 110.8906 54.1562 C111.2969 54.1562 111.6406 53.8125 111.6406 53.4219 C111.6406 53.0469 111.2969 52.6875 110.8906 52.6875 ZM112.4688 46.5781 C112.7188 46.8906 112.875 47.2656 112.8906 47.6562 C112.8906 48.1875 112.625 48.5 112.0312 48.7656 L111.4062 49.0156 C110.6406 49.3125 110.3906 49.5469 110.3906 49.9375 C110.3906 50.1094 110.4531 50.3438 110.5781 50.8125 L110.7344 51.3438 L111.1094 51.3438 L111.0938 50.5312 C111.0938 50.0938 111.2031 49.9688 111.7812 49.7344 L112.2031 49.5625 C113.0312 49.2188 113.4531 48.6875 113.4531 47.8438 C113.4531 46.1562 111.6562 45.1875 110.5 45.0312 C110.1094 45.125 109.9062 45.2969 109.9062 45.6406 C109.9062 45.9375 110.0625 46.1562 110.7188 46.2656 L112.4688 46.5781 Z" style="fill:black; stroke:none;"
      /><rect x="181" width="5" height="10" y="94" style="stroke:none;"
      /><path d="M182.8906 102.6875 C182.4844 102.6875 182.1562 103.0469 182.1562 103.4219 C182.1562 103.8125 182.4844 104.1562 182.8906 104.1562 C183.2969 104.1562 183.6406 103.8125 183.6406 103.4219 C183.6406 103.0469 183.2969 102.6875 182.8906 102.6875 ZM184.4688 96.5781 C184.7188 96.8906 184.875 97.2656 184.8906 97.6562 C184.8906 98.1875 184.625 98.5 184.0312 98.7656 L183.4062 99.0156 C182.6406 99.3125 182.3906 99.5469 182.3906 99.9375 C182.3906 100.1094 182.4531 100.3438 182.5781 100.8125 L182.7344 101.3438 L183.1094 101.3438 L183.0938 100.5312 C183.0938 100.0938 183.2031 99.9688 183.7812 99.7344 L184.2031 99.5625 C185.0312 99.2188 185.4531 98.6875 185.4531 97.8438 C185.4531 96.1562 183.6562 95.1875 182.5 95.0312 C182.1094 95.125 181.9062 95.2969 181.9062 95.6406 C181.9062 95.9375 182.0625 96.1562 182.7188 96.2656 L184.4688 96.5781 Z" style="fill:black; stroke:none;"
      /><rect x="164" width="5" height="10" y="107" style="stroke:none;"
      /><path d="M165.8906 115.6875 C165.4844 115.6875 165.1562 116.0469 165.1562 116.4219 C165.1562 116.8125 165.4844 117.1562 165.8906 117.1562 C166.2969 117.1562 166.6406 116.8125 166.6406 116.4219 C166.6406 116.0469 166.2969 115.6875 165.8906 115.6875 ZM167.4688 109.5781 C167.7188 109.8906 167.875 110.2656 167.8906 110.6562 C167.8906 111.1875 167.625 111.5 167.0312 111.7656 L166.4062 112.0156 C165.6406 112.3125 165.3906 112.5469 165.3906 112.9375 C165.3906 113.1094 165.4531 113.3438 165.5781 113.8125 L165.7344 114.3438 L166.1094 114.3438 L166.0938 113.5312 C166.0938 113.0938 166.2031 112.9688 166.7812 112.7344 L167.2031 112.5625 C168.0312 112.2188 168.4531 111.6875 168.4531 110.8438 C168.4531 109.1562 166.6562 108.1875 165.5 108.0312 C165.1094 108.125 164.9062 108.2969 164.9062 108.6406 C164.9062 108.9375 165.0625 109.1562 165.7188 109.2656 L167.4688 109.5781 Z" style="fill:black; stroke:none;"
      /><rect x="172" width="5" height="10" y="68" style="stroke:none;"
      /><path d="M173.8906 76.6875 C173.4844 76.6875 173.1562 77.0469 173.1562 77.4219 C173.1562 77.8125 173.4844 78.1562 173.8906 78.1562 C174.2969 78.1562 174.6406 77.8125 174.6406 77.4219 C174.6406 77.0469 174.2969 76.6875 173.8906 76.6875 ZM175.4688 70.5781 C175.7188 70.8906 175.875 71.2656 175.8906 71.6562 C175.8906 72.1875 175.625 72.5 175.0312 72.7656 L174.4062 73.0156 C173.6406 73.3125 173.3906 73.5469 173.3906 73.9375 C173.3906 74.1094 173.4531 74.3438 173.5781 74.8125 L173.7344 75.3438 L174.1094 75.3438 L174.0938 74.5312 C174.0938 74.0938 174.2031 73.9688 174.7812 73.7344 L175.2031 73.5625 C176.0312 73.2188 176.4531 72.6875 176.4531 71.8438 C176.4531 70.1562 174.6562 69.1875 173.5 69.0312 C173.1094 69.125 172.9062 69.2969 172.9062 69.6406 C172.9062 69.9375 173.0625 70.1562 173.7188 70.2656 L175.4688 70.5781 Z" style="fill:black; stroke:none;"
      /><rect x="155" width="5" height="10" y="55" style="stroke:none;"
      /><path d="M156.8906 63.6875 C156.4844 63.6875 156.1562 64.0469 156.1562 64.4219 C156.1562 64.8125 156.4844 65.1562 156.8906 65.1562 C157.2969 65.1562 157.6406 64.8125 157.6406 64.4219 C157.6406 64.0469 157.2969 63.6875 156.8906 63.6875 ZM158.4688 57.5781 C158.7188 57.8906 158.875 58.2656 158.8906 58.6562 C158.8906 59.1875 158.625 59.5 158.0312 59.7656 L157.4062 60.0156 C156.6406 60.3125 156.3906 60.5469 156.3906 60.9375 C156.3906 61.1094 156.4531 61.3438 156.5781 61.8125 L156.7344 62.3438 L157.1094 62.3438 L157.0938 61.5312 C157.0938 61.0938 157.2031 60.9688 157.7812 60.7344 L158.2031 60.5625 C159.0312 60.2188 159.4531 59.6875 159.4531 58.8438 C159.4531 57.1562 157.6562 56.1875 156.5 56.0312 C156.1094 56.125 155.9062 56.2969 155.9062 56.6406 C155.9062 56.9375 156.0625 57.1562 156.7188 57.2656 L158.4688 57.5781 Z" style="fill:black; stroke:none;"
      /><rect x="227" width="5" height="10" y="83" style="stroke:none;"
      /><path d="M228.8906 91.6875 C228.4844 91.6875 228.1562 92.0469 228.1562 92.4219 C228.1562 92.8125 228.4844 93.1562 228.8906 93.1562 C229.2969 93.1562 229.6406 92.8125 229.6406 92.4219 C229.6406 92.0469 229.2969 91.6875 228.8906 91.6875 ZM230.4688 85.5781 C230.7188 85.8906 230.875 86.2656 230.8906 86.6562 C230.8906 87.1875 230.625 87.5 230.0312 87.7656 L229.4062 88.0156 C228.6406 88.3125 228.3906 88.5469 228.3906 88.9375 C228.3906 89.1094 228.4531 89.3438 228.5781 89.8125 L228.7344 90.3438 L229.1094 90.3438 L229.0938 89.5312 C229.0938 89.0938 229.2031 88.9688 229.7812 88.7344 L230.2031 88.5625 C231.0312 88.2188 231.4531 87.6875 231.4531 86.8438 C231.4531 85.1562 229.6562 84.1875 228.5 84.0312 C228.1094 84.125 227.9062 84.2969 227.9062 84.6406 C227.9062 84.9375 228.0625 85.1562 228.7188 85.2656 L230.4688 85.5781 Z" style="fill:black; stroke:none;"
      /><rect x="213" width="5" height="10" y="83" style="stroke:none;"
      /><path d="M214.8906 91.6875 C214.4844 91.6875 214.1562 92.0469 214.1562 92.4219 C214.1562 92.8125 214.4844 93.1562 214.8906 93.1562 C215.2969 93.1562 215.6406 92.8125 215.6406 92.4219 C215.6406 92.0469 215.2969 91.6875 214.8906 91.6875 ZM216.4688 85.5781 C216.7188 85.8906 216.875 86.2656 216.8906 86.6562 C216.8906 87.1875 216.625 87.5 216.0312 87.7656 L215.4062 88.0156 C214.6406 88.3125 214.3906 88.5469 214.3906 88.9375 C214.3906 89.1094 214.4531 89.3438 214.5781 89.8125 L214.7344 90.3438 L215.1094 90.3438 L215.0938 89.5312 C215.0938 89.0938 215.2031 88.9688 215.7812 88.7344 L216.2031 88.5625 C217.0312 88.2188 217.4531 87.6875 217.4531 86.8438 C217.4531 85.1562 215.6562 84.1875 214.5 84.0312 C214.1094 84.125 213.9062 84.2969 213.9062 84.6406 C213.9062 84.9375 214.0625 85.1562 214.7188 85.2656 L216.4688 85.5781 Z" style="fill:black; stroke:none;"
      /><rect x="279" width="5" height="10" y="83" style="stroke:none;"
      /><path d="M280.8906 91.6875 C280.4844 91.6875 280.1562 92.0469 280.1562 92.4219 C280.1562 92.8125 280.4844 93.1562 280.8906 93.1562 C281.2969 93.1562 281.6406 92.8125 281.6406 92.4219 C281.6406 92.0469 281.2969 91.6875 280.8906 91.6875 ZM282.4688 85.5781 C282.7188 85.8906 282.875 86.2656 282.8906 86.6562 C282.8906 87.1875 282.625 87.5 282.0312 87.7656 L281.4062 88.0156 C280.6406 88.3125 280.3906 88.5469 280.3906 88.9375 C280.3906 89.1094 280.4531 89.3438 280.5781 89.8125 L280.7344 90.3438 L281.1094 90.3438 L281.0938 89.5312 C281.0938 89.0938 281.2031 88.9688 281.7812 88.7344 L282.2031 88.5625 C283.0312 88.2188 283.4531 87.6875 283.4531 86.8438 C283.4531 85.1562 281.6562 84.1875 280.5 84.0312 C280.1094 84.125 279.9062 84.2969 279.9062 84.6406 C279.9062 84.9375 280.0625 85.1562 280.7188 85.2656 L282.4688 85.5781 Z" style="fill:black; stroke:none;"
      /><rect x="265" width="5" height="10" y="83" style="stroke:none;"
      /><path d="M266.8906 91.6875 C266.4844 91.6875 266.1562 92.0469 266.1562 92.4219 C266.1562 92.8125 266.4844 93.1562 266.8906 93.1562 C267.2969 93.1562 267.6406 92.8125 267.6406 92.4219 C267.6406 92.0469 267.2969 91.6875 266.8906 91.6875 ZM268.4688 85.5781 C268.7188 85.8906 268.875 86.2656 268.8906 86.6562 C268.8906 87.1875 268.625 87.5 268.0312 87.7656 L267.4062 88.0156 C266.6406 88.3125 266.3906 88.5469 266.3906 88.9375 C266.3906 89.1094 266.4531 89.3438 266.5781 89.8125 L266.7344 90.3438 L267.1094 90.3438 L267.0938 89.5312 C267.0938 89.0938 267.2031 88.9688 267.7812 88.7344 L268.2031 88.5625 C269.0312 88.2188 269.4531 87.6875 269.4531 86.8438 C269.4531 85.1562 267.6562 84.1875 266.5 84.0312 C266.1094 84.125 265.9062 84.2969 265.9062 84.6406 C265.9062 84.9375 266.0625 85.1562 266.7188 85.2656 L268.4688 85.5781 Z" style="fill:black; stroke:none;"
      /><rect x="317" width="5" height="10" y="83" style="stroke:none;"
      /><path d="M318.8906 91.6875 C318.4844 91.6875 318.1562 92.0469 318.1562 92.4219 C318.1562 92.8125 318.4844 93.1562 318.8906 93.1562 C319.2969 93.1562 319.6406 92.8125 319.6406 92.4219 C319.6406 92.0469 319.2969 91.6875 318.8906 91.6875 ZM320.4688 85.5781 C320.7188 85.8906 320.875 86.2656 320.8906 86.6562 C320.8906 87.1875 320.625 87.5 320.0312 87.7656 L319.4062 88.0156 C318.6406 88.3125 318.3906 88.5469 318.3906 88.9375 C318.3906 89.1094 318.4531 89.3438 318.5781 89.8125 L318.7344 90.3438 L319.1094 90.3438 L319.0938 89.5312 C319.0938 89.0938 319.2031 88.9688 319.7812 88.7344 L320.2031 88.5625 C321.0312 88.2188 321.4531 87.6875 321.4531 86.8438 C321.4531 85.1562 319.6562 84.1875 318.5 84.0312 C318.1094 84.125 317.9062 84.2969 317.9062 84.6406 C317.9062 84.9375 318.0625 85.1562 318.7188 85.2656 L320.4688 85.5781 Z" style="fill:black; stroke:none;"
    /></g
    ><g ID="legend-1:0" style="text-rendering:optimizeSpeed; font-size:10px; font-family:'SansSerif';"
    ><path style="stroke:none;" d="M30.875 171 L34.9062 171 L34.9062 170.2344 L33.4375 170.2344 L33.4375 163.6562 L32.7344 163.6562 C32.3281 163.9062 31.8594 164.0625 31.2031 164.1875 L31.2031 164.7656 L32.5156 164.7656 L32.5156 170.2344 L30.875 170.2344 L30.875 171 ZM35.925 166.4531 L40.7219 166.4531 L40.7219 165.7656 L35.925 165.7656 L35.925 166.4531 ZM35.925 168.8438 L40.7219 168.8438 L40.7219 168.1719 L35.925 168.1719 L35.925 168.8438 ZM41.5375 171 L46.1469 171 L46.1469 170.2031 L44.1156 170.2031 C43.7562 170.2031 43.3031 170.25 42.9125 170.2812 C44.6469 168.6562 45.7875 167.1562 45.7875 165.7031 C45.7875 164.3906 44.975 163.5312 43.6625 163.5312 C42.725 163.5312 42.1 163.9531 41.5062 164.6094 L42.0375 165.125 C42.4281 164.6562 42.9437 164.2812 43.5531 164.2812 C44.4594 164.2812 44.8969 164.8906 44.8969 165.7344 C44.8969 166.9844 43.8344 168.4531 41.5375 170.4531 L41.5375 171 ZM47.1031 168.5469 L49.6656 168.5469 L49.6656 167.8438 L47.1031 167.8438 L47.1031 168.5469 ZM52.8856 171.125 C53.5418 171.125 54.1043 170.7812 54.5418 170.3594 L54.5731 170.3594 L54.6512 171 L55.3856 171 L55.3856 163.0469 L54.495 163.0469 L54.495 165.125 L54.5262 166.0625 C54.0575 165.6719 53.6356 165.4375 52.995 165.4375 C51.7606 165.4375 50.6512 166.5312 50.6512 168.2969 C50.6512 170.0938 51.5262 171.125 52.8856 171.125 ZM53.0887 170.375 C52.1356 170.375 51.5887 169.5938 51.5887 168.2812 C51.5887 167.0469 52.2762 166.2031 53.1668 166.2031 C53.6043 166.2031 54.0262 166.3594 54.495 166.7656 L54.495 169.625 C54.0262 170.125 53.5887 170.375 53.0887 170.375 ZM59.4293 171.125 C60.1637 171.125 60.7575 170.875 61.2262 170.5625 L60.8981 169.9688 C60.5075 170.2344 60.07 170.4062 59.5387 170.4062 C58.5075 170.4062 57.8043 169.6562 57.7418 168.5 L61.3981 168.5 C61.4137 168.375 61.445 168.1875 61.445 167.9844 C61.445 166.4375 60.6637 165.4375 59.2731 165.4375 C58.0231 165.4375 56.8356 166.5312 56.8356 168.2969 C56.8356 170.0781 57.9918 171.125 59.4293 171.125 ZM57.7262 167.8438 C57.8356 166.7812 58.5231 166.1562 59.2887 166.1562 C60.1325 166.1562 60.6325 166.75 60.6325 167.8438 L57.7262 167.8438 ZM64.8912 171.125 C66.2193 171.125 67.4068 170.0938 67.4068 168.2969 C67.4068 166.4844 66.2193 165.4375 64.8912 165.4375 C63.5631 165.4375 62.3756 166.4844 62.3756 168.2969 C62.3756 170.0938 63.5631 171.125 64.8912 171.125 ZM64.8912 170.375 C63.9537 170.375 63.3131 169.5469 63.3131 168.2969 C63.3131 167.0469 63.9537 166.1875 64.8912 166.1875 C65.8287 166.1875 66.4693 167.0469 66.4693 168.2969 C66.4693 169.5469 65.8287 170.375 64.8912 170.375 ZM68.0762 171 L69.0293 171 L69.7637 169.7344 C69.9512 169.4062 70.1231 169.0625 70.3262 168.7656 L70.3731 168.7656 C70.5762 169.0625 70.7637 169.4062 70.9512 169.7344 L71.7481 171 L72.7481 171 L70.9668 168.2656 L72.6075 165.5625 L71.6543 165.5625 L70.9825 166.7656 C70.8262 167.0625 70.67 167.375 70.4981 167.6719 L70.4668 167.6719 C70.2793 167.375 70.0918 167.0625 69.92 166.7656 L69.1856 165.5625 L68.2168 165.5625 L69.8575 168.1719 L68.0762 171 ZM73.9156 173.3438 C74.9937 173.3438 75.5562 172.5156 75.9312 171.4531 L77.9781 165.5625 L77.0874 165.5625 L76.1187 168.5938 C75.9624 169.0625 75.8062 169.625 75.6656 170.1094 L75.6031 170.1094 C75.4468 169.625 75.2437 169.0625 75.0874 168.5938 L73.9781 165.5625 L73.0249 165.5625 L75.2124 171.0156 L75.0874 171.4219 C74.8687 172.0938 74.4781 172.5938 73.8531 172.5938 C73.7124 172.5938 73.5562 172.5469 73.4468 172.5 L73.2749 173.2344 C73.4468 173.2969 73.6499 173.3438 73.9156 173.3438 ZM78.5631 168.5469 L81.1256 168.5469 L81.1256 167.8438 L78.5631 167.8438 L78.5631 168.5469 ZM82.5799 171 L84.4549 171 C86.6737 171 87.8768 169.625 87.8768 167.3125 C87.8768 164.9844 86.6737 163.6562 84.4237 163.6562 L82.5799 163.6562 L82.5799 171 ZM83.5174 170.2344 L83.5174 164.4219 L84.3456 164.4219 C86.0643 164.4219 86.9237 165.4531 86.9237 167.3125 C86.9237 169.1562 86.0643 170.2344 84.3456 170.2344 L83.5174 170.2344 ZM88.9031 168.5469 L91.4656 168.5469 L91.4656 167.8438 L88.9031 167.8438 L88.9031 168.5469 ZM94.0918 171.125 C94.7637 171.125 95.3731 170.7812 95.8887 170.3438 L95.9199 170.3438 L95.9981 171 L96.7481 171 L96.7481 167.6562 C96.7481 166.3125 96.1856 165.4375 94.8731 165.4375 C93.9981 165.4375 93.2324 165.8125 92.7324 166.1406 L93.0918 166.7656 C93.5137 166.4844 94.0918 166.1875 94.7168 166.1875 C95.6074 166.1875 95.8418 166.8594 95.8418 167.5625 C93.5293 167.8125 92.4981 168.4062 92.4981 169.5938 C92.4981 170.5625 93.1856 171.125 94.0918 171.125 ZM94.3574 170.4062 C93.8106 170.4062 93.3887 170.1562 93.3887 169.5312 C93.3887 168.8281 94.0137 168.375 95.8418 168.1562 L95.8418 169.6875 C95.3106 170.1562 94.8731 170.4062 94.3574 170.4062 ZM98.4818 171 L99.3881 171 L99.3881 167.5156 C99.7474 166.5781 100.3099 166.2656 100.7631 166.2656 C100.9818 166.2656 101.1068 166.2812 101.2943 166.3438 L101.4662 165.5469 C101.2943 165.4531 101.1224 165.4375 100.8724 165.4375 C100.2631 165.4375 99.7162 165.875 99.3412 166.5625 L99.3099 166.5625 L99.2318 165.5625 L98.4818 165.5625 L98.4818 171 ZM103.6118 171.125 C104.2837 171.125 104.8931 170.7812 105.4087 170.3438 L105.4399 170.3438 L105.5181 171 L106.2681 171 L106.2681 167.6562 C106.2681 166.3125 105.7056 165.4375 104.3931 165.4375 C103.5181 165.4375 102.7524 165.8125 102.2524 166.1406 L102.6118 166.7656 C103.0337 166.4844 103.6118 166.1875 104.2368 166.1875 C105.1274 166.1875 105.3618 166.8594 105.3618 167.5625 C103.0493 167.8125 102.0181 168.4062 102.0181 169.5938 C102.0181 170.5625 102.7056 171.125 103.6118 171.125 ZM103.8774 170.4062 C103.3306 170.4062 102.9087 170.1562 102.9087 169.5312 C102.9087 168.8281 103.5337 168.375 105.3618 168.1562 L105.3618 169.6875 C104.8306 170.1562 104.3931 170.4062 103.8774 170.4062 ZM108.0799 171 L109.0174 171 L109.0174 167.5469 L112.4237 167.5469 L112.4237 171 L113.3456 171 L113.3456 163.6562 L112.4237 163.6562 L112.4237 166.7344 L109.0174 166.7344 L109.0174 163.6562 L108.0799 163.6562 L108.0799 171 ZM117.4693 171.125 C118.2037 171.125 118.7974 170.875 119.2662 170.5625 L118.938 169.9688 C118.5474 170.2344 118.1099 170.4062 117.5787 170.4062 C116.5474 170.4062 115.8443 169.6562 115.7818 168.5 L119.438 168.5 C119.4537 168.375 119.4849 168.1875 119.4849 167.9844 C119.4849 166.4375 118.7037 165.4375 117.313 165.4375 C116.063 165.4375 114.8755 166.5312 114.8755 168.2969 C114.8755 170.0781 116.0318 171.125 117.4693 171.125 ZM115.7662 167.8438 C115.8755 166.7812 116.563 166.1562 117.3287 166.1562 C118.1724 166.1562 118.6724 166.75 118.6724 167.8438 L115.7662 167.8438 ZM120.0562 171 L121.0093 171 L121.7437 169.7344 C121.9312 169.4062 122.103 169.0625 122.3062 168.7656 L122.353 168.7656 C122.5562 169.0625 122.7437 169.4062 122.9312 169.7344 L123.728 171 L124.728 171 L122.9468 168.2656 L124.5874 165.5625 L123.6343 165.5625 L122.9624 166.7656 C122.8062 167.0625 122.6499 167.375 122.478 167.6719 L122.4468 167.6719 C122.2593 167.375 122.0718 167.0625 121.8999 166.7656 L121.1655 165.5625 L120.1968 165.5625 L121.8374 168.1719 L120.0562 171 Z"
    /></g
  ></g
></svg
>
