<?xml version="1.0"?>
<!DOCTYPE svg PUBLIC '-//W3C//DTD SVG 1.0//EN'
          'http://www.w3.org/TR/2001/REC-SVG-20010904/DTD/svg10.dtd'>
<svg xmlns:xlink="http://www.w3.org/1999/xlink" style="fill-opacity:1; color-rendering:auto; color-interpolation:auto; text-rendering:auto; stroke:black; stroke-linecap:square; stroke-miterlimit:10; shape-rendering:auto; stroke-opacity:1; fill:black; stroke-dasharray:none; font-weight:normal; stroke-width:1; font-family:'Dialog'; font-style:normal; stroke-linejoin:miter; font-size:12px; stroke-dashoffset:0; image-rendering:auto;" viewBox="0 0 209 172" xmlns="http://www.w3.org/2000/svg"
><!--Generated by the Batik Graphics2D SVG Generator--><defs id="genericDefs"
  /><g
  ><defs id="defs1"
    ><clipPath clipPathUnits="userSpaceOnUse" id="clipPath1"
      ><path d="M105 79 L127 79 L127 101 L105 101 L105 79 Z"
      /></clipPath
      ><clipPath clipPathUnits="userSpaceOnUse" id="clipPath2"
      ><path d="M41 105 L63 105 L63 127 L41 127 L41 105 Z"
      /></clipPath
      ><clipPath clipPathUnits="userSpaceOnUse" id="clipPath3"
      ><path style="fill-rule:evenodd;" d="M52 53 L62 60 L58 72 L45 72 L41 60 L52 53 Z"
      /></clipPath
    ></defs
    ><g style="fill:white; text-rendering:optimizeSpeed; stroke:white;"
    ><rect x="0" width="209" height="172" y="0" style="stroke:none;"
      /><polygon style="fill:none; stroke:black;" points=" 168 90 116 90"
      /><path d="M168 79 C162.5 84.5 173.5 95.5 168 101" style="fill:none; stroke:black;"
      /><polygon style="fill:none; stroke:black;" points=" 116 90 52 116"
      /><polygon style="fill:none; stroke:black;" points=" 116 90 52 64"
      /><rect x="105" y="79" width="22" style="clip-path:url(#clipPath1); stroke:none;" height="22"
      /><rect x="105" y="79" width="22" style="clip-path:url(#clipPath1); fill:rgb(0,144,188); stroke:none;" height="22"
      /><rect x="105" y="79" width="22" style="clip-path:url(#clipPath1); fill:none; stroke:black;" height="22"
      /><rect x="105" y="79" width="22" style="fill:none; stroke:black;" height="22"
      /><rect x="108" y="107" width="15" style="stroke:none;" height="10"
    /></g
    ><g style="text-rendering:optimizeSpeed; font-size:14px; font-family:'SansSerif';"
    ><path style="stroke:none;" d="M109.2344 118 L114.8594 118 L114.8594 116.9375 L112.7969 116.9375 L112.7969 107.7188 L111.8281 107.7188 C111.2656 108.0625 110.6094 108.2969 109.6875 108.4688 L109.6875 109.2812 L111.5156 109.2812 L111.5156 116.9375 L109.2344 116.9375 L109.2344 118 ZM117.1762 118 L118.395 118 L118.395 112.6094 C118.395 111.5312 118.3012 110.4375 118.2543 109.4062 L118.3012 109.4062 L119.4106 111.5156 L123.145 118 L124.4731 118 L124.4731 107.7188 L123.2387 107.7188 L123.2387 113.0781 C123.2387 114.1406 123.3481 115.2812 123.4106 116.3125 L123.3481 116.3125 L122.2543 114.2031 L118.52 107.7188 L117.1762 107.7188 L117.1762 118 Z"
    /></g
    ><g style="fill:white; text-rendering:optimizeSpeed; stroke:white;"
    ><rect x="41" y="105" width="22" style="clip-path:url(#clipPath2); stroke:none;" height="22"
      /><rect x="41" y="105" width="22" style="clip-path:url(#clipPath2); fill:rgb(0,144,188); stroke:none;" height="22"
      /><rect x="41" y="105" width="22" style="clip-path:url(#clipPath2); fill:none; stroke:black;" height="22"
      /><rect x="41" y="105" width="22" style="fill:none; stroke:black;" height="22"
      /><polygon style="clip-path:url(#clipPath3); stroke:none;" points=" 52 53 62 60 58 72 45 72 41 60 52 53"
      /><rect x="41" y="53" width="22" style="clip-path:url(#clipPath3); stroke:none;" height="22"
      /><rect x="41" y="53" width="22" style="clip-path:url(#clipPath3); fill:none; stroke:black;" height="22"
      /><polygon style="fill:none; stroke:black;" points=" 52 53 62 60 58 72 45 72 41 60 52 53"
    /></g
    ><g style="font-style:italic; text-rendering:optimizeSpeed; font-size:10px; font-family:'SansSerif';"
    ><path style="stroke:none;" d="M52 66.125 C53.3281 66.125 54.7344 65.0938 55.125 63.2969 C55.5 61.4844 54.5469 60.4375 53.2188 60.4375 C51.8906 60.4375 50.4688 61.4844 50.0938 63.2969 C49.7031 65.0938 50.6719 66.125 52 66.125 ZM52.1719 65.375 C51.2344 65.375 50.7656 64.5469 51.0312 63.2969 C51.2969 62.0469 52.1094 61.1875 53.0469 61.1875 C53.9844 61.1875 54.4531 62.0469 54.1875 63.2969 C53.9219 64.5469 53.1094 65.375 52.1719 65.375 Z"
    /></g
    ><g style="fill:white; text-rendering:optimizeSpeed; font-size:14px; font-family:'SansSerif'; stroke:white;"
    ><rect x="33" width="14" height="11" y="35" style="stroke:none;"
      /><path d="M36.6562 46.1875 C38.3906 46.1875 40.0156 44.9062 40.0156 42.6562 C40.0156 40.4062 38.625 39.3906 36.9219 39.3906 C36.2969 39.3906 35.8594 39.5469 35.3906 39.7969 L35.6406 36.8281 L39.5312 36.8281 L39.5312 35.7188 L34.5312 35.7188 L34.2031 40.5469 L34.8906 40.9531 C35.4844 40.5625 35.9062 40.3594 36.5938 40.3594 C37.8906 40.3594 38.7188 41.2188 38.7188 42.7031 C38.7188 44.1875 37.75 45.125 36.5469 45.125 C35.3594 45.125 34.6094 44.5781 34.0156 43.9844 L33.3906 44.8281 C34.0781 45.5156 35.0625 46.1875 36.6562 46.1875 ZM44.645 46.1875 C45.5512 46.1875 46.3637 45.6875 46.9575 45.1094 L47.0043 45.1094 L47.1137 46 L48.145 46 L48.145 34.8594 L46.895 34.8594 L46.895 37.7812 L46.9418 39.0938 C46.27 38.5312 45.6918 38.2031 44.8012 38.2031 C43.0668 38.2031 41.5043 39.7344 41.5043 42.2031 C41.5043 44.7344 42.7387 46.1875 44.645 46.1875 ZM44.9262 45.125 C43.5825 45.125 42.8325 44.0312 42.8325 42.1875 C42.8325 40.4531 43.8012 39.2812 45.02 39.2812 C45.6606 39.2812 46.2231 39.5 46.895 40.0781 L46.895 44.0625 C46.2387 44.7656 45.6293 45.125 44.9262 45.125 Z" style="fill:black; stroke:none;"
      /><path d="M58.5156 40.3594 C59.5781 40.3594 60.1094 41.1094 60.1094 42.2969 C60.1094 43.5 59.4531 44.2969 58.6094 44.2969 C57.5156 44.2969 56.8438 43.3125 56.7188 41.4844 C57.25 40.6875 57.9688 40.3594 58.5156 40.3594 ZM58.6094 45.1562 C59.9844 45.1562 61.125 44 61.125 42.2969 C61.125 40.4688 60.1875 39.5469 58.7031 39.5469 C58 39.5469 57.2344 39.9531 56.6875 40.6094 C56.7344 37.875 57.7656 36.9531 58.9531 36.9531 C59.5 36.9531 60.0312 37.2031 60.375 37.625 L60.9688 36.9375 C60.5 36.4219 59.8438 36.0312 58.9219 36.0312 C57.2188 36.0312 55.6719 37.3594 55.6719 40.7969 C55.6719 43.7031 56.9219 45.1562 58.6094 45.1562 ZM62.7694 45 L63.8632 45 L63.8632 40.2656 C64.4569 39.5938 65.0038 39.2812 65.5038 39.2812 C66.3319 39.2812 66.7069 39.7969 66.7069 41.0156 L66.7069 45 L67.8007 45 L67.8007 40.2656 C68.41 39.5938 68.9413 39.2812 69.4413 39.2812 C70.2694 39.2812 70.66 39.7969 70.66 41.0156 L70.66 45 L71.7538 45 L71.7538 40.875 C71.7538 39.2031 71.1132 38.3125 69.7694 38.3125 C68.9725 38.3125 68.3007 38.8281 67.6288 39.5625 C67.3632 38.7969 66.8163 38.3125 65.8163 38.3125 C65.0507 38.3125 64.3632 38.8125 63.8007 39.4375 L63.7538 39.4375 L63.66 38.4844 L62.7694 38.4844 L62.7694 45 Z" style="fill:black; stroke:none;"
      /><rect x="97" width="7" height="9" y="100" style="stroke:none;"
    /></g
    ><g style="font-family:'Serif'; text-rendering:optimizeSpeed; "
    ><path style="stroke:none;" d="M98 105.5156 L100.9531 101.2656 L100.9531 105.5156 L98 105.5156 ZM103.2812 105.5156 L101.8594 105.5156 L101.8594 100.125 L101.2344 100.125 L97.3438 105.6406 L97.3438 106.1875 L100.9531 106.1875 L100.9531 109 L101.8594 109 L101.8594 106.1875 L103.2812 106.1875 L103.2812 105.5156 Z"
      /><rect x="70" y="109" width="6" style="fill:white; stroke:none;" height="13"
      /><path style="stroke:none;" d="M72.0938 115.2031 C72.0938 113.6562 72.75 112.8125 73.7969 112.8125 C74.7188 112.8125 75.2656 113.4531 75.2656 114.5156 C75.2656 115.7188 74.5 116.4375 73.1875 116.7031 L73.2969 117.3125 C75.2188 117.2344 75.9375 118.2188 75.9375 119.4375 C75.9375 120.625 75.2344 121.4219 73.9531 121.4219 C73.25 121.4219 72.6562 121.1562 72.0938 120.7188 L72.0938 115.2031 ZM71.2031 121.9062 L71.1094 124.375 L71.2656 124.4844 L72.1562 124.2656 L72.0156 121.0938 C72.5469 121.8438 73.3594 122.1719 74.1719 122.1719 C75.5625 122.1719 76.8594 121.2188 76.8594 119.4844 C76.8594 117.9531 75.875 117.1094 74.125 117 C75.5625 116.6094 76.1875 115.4531 76.1875 114.4844 C76.1875 113.0938 75.1562 112.3125 73.9062 112.3125 C72.2969 112.3125 71.2188 113.5469 71.2188 115.5156 L71.2031 121.9062 Z"
      /><rect x="91" y="84" width="6" style="fill:white; stroke:none;" height="10"
      /><path style="stroke:none;" d="M94.3438 93.6875 C93.2031 93.6875 92.5312 92.5 92.5312 90.2969 C92.5312 90.2188 92.5312 90.125 92.5312 90.0469 C93.0938 89.5 93.7188 89.3125 94.3438 89.3125 C95.3125 89.3125 95.9531 89.9844 95.9531 91.4531 C95.9531 92.9375 95.3125 93.6875 94.3438 93.6875 ZM96.5312 85.0781 C93.3438 85.4531 91.5625 87.7656 91.5625 90.4531 C91.5625 92.7812 92.6094 94.1719 94.3125 94.1719 C95.8438 94.1719 96.9219 93.1094 96.9219 91.2812 C96.9219 89.6875 95.9688 88.6562 94.5625 88.6562 C93.8281 88.6562 93.1406 88.9844 92.5781 89.5781 C92.7969 87.4062 94.0781 85.9688 96.5938 85.3906 L96.5312 85.0781 Z"
      /><rect x="82" y="63" width="5" style="fill:white; stroke:none;" height="10"
      /><path style="stroke:none;" d="M83.8906 71.6875 C83.4844 71.6875 83.1562 72.0469 83.1562 72.4219 C83.1562 72.8125 83.4844 73.1562 83.8906 73.1562 C84.2969 73.1562 84.6406 72.8125 84.6406 72.4219 C84.6406 72.0469 84.2969 71.6875 83.8906 71.6875 ZM85.4688 65.5781 C85.7188 65.8906 85.875 66.2656 85.8906 66.6562 C85.8906 67.1875 85.625 67.5 85.0312 67.7656 L84.4062 68.0156 C83.6406 68.3125 83.3906 68.5469 83.3906 68.9375 C83.3906 69.1094 83.4531 69.3438 83.5781 69.8125 L83.7344 70.3438 L84.1094 70.3438 L84.0938 69.5312 C84.0938 69.0938 84.2031 68.9688 84.7812 68.7344 L85.2031 68.5625 C86.0312 68.2188 86.4531 67.6875 86.4531 66.8438 C86.4531 65.1562 84.6562 64.1875 83.5 64.0312 C83.1094 64.125 82.9062 64.2969 82.9062 64.6406 C82.9062 64.9375 83.0625 65.1562 83.7188 65.2656 L85.4688 65.5781 Z"
      /><rect x="76" y="78" width="5" style="fill:white; stroke:none;" height="10"
      /><path style="stroke:none;" d="M77.8906 86.6875 C77.4844 86.6875 77.1562 87.0469 77.1562 87.4219 C77.1562 87.8125 77.4844 88.1562 77.8906 88.1562 C78.2969 88.1562 78.6406 87.8125 78.6406 87.4219 C78.6406 87.0469 78.2969 86.6875 77.8906 86.6875 ZM79.4688 80.5781 C79.7188 80.8906 79.875 81.2656 79.8906 81.6562 C79.8906 82.1875 79.625 82.5 79.0312 82.7656 L78.4062 83.0156 C77.6406 83.3125 77.3906 83.5469 77.3906 83.9375 C77.3906 84.1094 77.4531 84.3438 77.5781 84.8125 L77.7344 85.3438 L78.1094 85.3438 L78.0938 84.5312 C78.0938 84.0938 78.2031 83.9688 78.7812 83.7344 L79.2031 83.5625 C80.0312 83.2188 80.4531 82.6875 80.4531 81.8438 C80.4531 80.1562 78.6562 79.1875 77.5 79.0312 C77.1094 79.125 76.9062 79.2969 76.9062 79.6406 C76.9062 79.9375 77.0625 80.1562 77.7188 80.2656 L79.4688 80.5781 Z"
      /><rect x="132" y="91" width="6" style="fill:white; stroke:none;" height="13"
      /><path style="stroke:none;" d="M134.0938 97.2031 C134.0938 95.6562 134.75 94.8125 135.7969 94.8125 C136.7188 94.8125 137.2656 95.4531 137.2656 96.5156 C137.2656 97.7188 136.5 98.4375 135.1875 98.7031 L135.2969 99.3125 C137.2188 99.2344 137.9375 100.2188 137.9375 101.4375 C137.9375 102.625 137.2344 103.4219 135.9531 103.4219 C135.25 103.4219 134.6562 103.1562 134.0938 102.7188 L134.0938 97.2031 ZM133.2031 103.9062 L133.1094 106.375 L133.2656 106.4844 L134.1562 106.2656 L134.0156 103.0938 C134.5469 103.8438 135.3594 104.1719 136.1719 104.1719 C137.5625 104.1719 138.8594 103.2188 138.8594 101.4844 C138.8594 99.9531 137.875 99.1094 136.125 99 C137.5625 98.6094 138.1875 97.4531 138.1875 96.4844 C138.1875 95.0938 137.1562 94.3125 135.9062 94.3125 C134.2969 94.3125 133.2188 95.5469 133.2188 97.5156 L133.2031 103.9062 Z"
    /></g
    ><g ID="legend-1:0" style="text-rendering:optimizeSpeed; font-size:10px; font-family:'SansSerif';"
    ><path style="stroke:none;" d="M30.875 142 L34.9062 142 L34.9062 141.2344 L33.4375 141.2344 L33.4375 134.6562 L32.7344 134.6562 C32.3281 134.9062 31.8594 135.0625 31.2031 135.1875 L31.2031 135.7656 L32.5156 135.7656 L32.5156 141.2344 L30.875 141.2344 L30.875 142 ZM35.925 137.4531 L40.7219 137.4531 L40.7219 136.7656 L35.925 136.7656 L35.925 137.4531 ZM35.925 139.8438 L40.7219 139.8438 L40.7219 139.1719 L35.925 139.1719 L35.925 139.8438 ZM43.7094 142.125 C44.9437 142.125 46.1156 141.2188 46.1156 139.6094 C46.1156 138 45.1156 137.2812 43.8969 137.2812 C43.4594 137.2812 43.1469 137.3906 42.8031 137.5625 L42.9906 135.4531 L45.7562 135.4531 L45.7562 134.6562 L42.1937 134.6562 L41.9594 138.0938 L42.4437 138.4062 C42.8656 138.125 43.1781 137.9688 43.6625 137.9688 C44.5844 137.9688 45.1937 138.5938 45.1937 139.6406 C45.1937 140.7031 44.4906 141.375 43.6312 141.375 C42.7875 141.375 42.2562 140.9844 41.8344 140.5625 L41.3812 141.1562 C41.8656 141.6562 42.5687 142.125 43.7094 142.125 ZM47.4 143.9062 C48.3062 143.5156 48.8531 142.7656 48.8531 141.8125 C48.8531 141.1406 48.5718 140.7344 48.0875 140.7344 C47.7125 140.7344 47.4 140.9844 47.4 141.375 C47.4 141.7969 47.7125 142.0156 48.0718 142.0156 C48.1031 142.0156 48.1343 142.0156 48.1812 142 C48.1812 142.5938 47.8062 143.0781 47.1812 143.3594 L47.4 143.9062 ZM52.3675 138.125 C53.2425 138.125 53.6956 138.7656 53.6956 139.75 C53.6956 140.75 53.1331 141.4219 52.4456 141.4219 C51.5237 141.4219 50.9768 140.5938 50.8675 139.0625 C51.305 138.4062 51.8987 138.125 52.3675 138.125 ZM52.4456 142.125 C53.5862 142.125 54.5393 141.1719 54.5393 139.75 C54.5393 138.2188 53.7425 137.4531 52.5081 137.4531 C51.93 137.4531 51.2893 137.7969 50.8362 138.3438 C50.8831 136.0625 51.7268 135.2969 52.7268 135.2969 C53.18 135.2969 53.6175 135.5 53.9143 135.8438 L54.4143 135.2812 C54.0081 134.8438 53.4612 134.5312 52.6956 134.5312 C51.2737 134.5312 49.9925 135.625 49.9925 138.5 C49.9925 140.9219 51.0237 142.125 52.4456 142.125 ZM55.4331 139.5469 L57.9956 139.5469 L57.9956 138.8438 L55.4331 138.8438 L55.4331 139.5469 ZM61.2156 142.125 C61.8718 142.125 62.4343 141.7812 62.8718 141.3594 L62.9031 141.3594 L62.9812 142 L63.7156 142 L63.7156 134.0469 L62.825 134.0469 L62.825 136.125 L62.8562 137.0625 C62.3875 136.6719 61.9656 136.4375 61.325 136.4375 C60.0906 136.4375 58.9812 137.5312 58.9812 139.2969 C58.9812 141.0938 59.8562 142.125 61.2156 142.125 ZM61.4187 141.375 C60.4656 141.375 59.9187 140.5938 59.9187 139.2812 C59.9187 138.0469 60.6062 137.2031 61.4968 137.2031 C61.9343 137.2031 62.3562 137.3594 62.825 137.7656 L62.825 140.625 C62.3562 141.125 61.9187 141.375 61.4187 141.375 ZM65.5718 142 L66.4781 142 L66.4781 136.5625 L65.5718 136.5625 L65.5718 142 ZM66.0249 135.4531 C66.3843 135.4531 66.6343 135.2031 66.6343 134.8438 C66.6343 134.4844 66.3843 134.25 66.0249 134.25 C65.6656 134.25 65.4156 134.4844 65.4156 134.8438 C65.4156 135.2031 65.6656 135.4531 66.0249 135.4531 ZM70.1656 142.125 C70.8218 142.125 71.3843 141.7812 71.8218 141.3594 L71.8531 141.3594 L71.9312 142 L72.6656 142 L72.6656 134.0469 L71.7749 134.0469 L71.7749 136.125 L71.8062 137.0625 C71.3374 136.6719 70.9156 136.4375 70.2749 136.4375 C69.0406 136.4375 67.9312 137.5312 67.9312 139.2969 C67.9312 141.0938 68.8062 142.125 70.1656 142.125 ZM70.3687 141.375 C69.4156 141.375 68.8687 140.5938 68.8687 139.2812 C68.8687 138.0469 69.5562 137.2031 70.4468 137.2031 C70.8843 137.2031 71.3062 137.3594 71.7749 137.7656 L71.7749 140.625 C71.3062 141.125 70.8687 141.375 70.3687 141.375 ZM76.7093 142.125 C77.4437 142.125 78.0374 141.875 78.5062 141.5625 L78.1781 140.9688 C77.7874 141.2344 77.3499 141.4062 76.8187 141.4062 C75.7874 141.4062 75.0843 140.6562 75.0218 139.5 L78.6781 139.5 C78.6937 139.375 78.7249 139.1875 78.7249 138.9844 C78.7249 137.4375 77.9437 136.4375 76.5531 136.4375 C75.3031 136.4375 74.1156 137.5312 74.1156 139.2969 C74.1156 141.0781 75.2718 142.125 76.7093 142.125 ZM75.0062 138.8438 C75.1156 137.7812 75.8031 137.1562 76.5687 137.1562 C77.4124 137.1562 77.9124 137.75 77.9124 138.8438 L75.0062 138.8438 ZM82.1712 142.125 C83.4993 142.125 84.6868 141.0938 84.6868 139.2969 C84.6868 137.4844 83.4993 136.4375 82.1712 136.4375 C80.8431 136.4375 79.6556 137.4844 79.6556 139.2969 C79.6556 141.0938 80.8431 142.125 82.1712 142.125 ZM82.1712 141.375 C81.2337 141.375 80.5931 140.5469 80.5931 139.2969 C80.5931 138.0469 81.2337 137.1875 82.1712 137.1875 C83.1087 137.1875 83.7493 138.0469 83.7493 139.2969 C83.7493 140.5469 83.1087 141.375 82.1712 141.375 ZM85.3562 142 L86.3093 142 L87.0437 140.7344 C87.2312 140.4062 87.4031 140.0625 87.6062 139.7656 L87.6531 139.7656 C87.8562 140.0625 88.0437 140.4062 88.2312 140.7344 L89.0281 142 L90.0281 142 L88.2468 139.2656 L89.8874 136.5625 L88.9343 136.5625 L88.2624 137.7656 C88.1062 138.0625 87.9499 138.375 87.7781 138.6719 L87.7468 138.6719 C87.5593 138.375 87.3718 138.0625 87.1999 137.7656 L86.4656 136.5625 L85.4968 136.5625 L87.1374 139.1719 L85.3562 142 ZM91.1956 144.3438 C92.2737 144.3438 92.8362 143.5156 93.2112 142.4531 L95.2581 136.5625 L94.3674 136.5625 L93.3987 139.5938 C93.2424 140.0625 93.0862 140.625 92.9456 141.1094 L92.8831 141.1094 C92.7268 140.625 92.5237 140.0625 92.3674 139.5938 L91.2581 136.5625 L90.3049 136.5625 L92.4924 142.0156 L92.3674 142.4219 C92.1487 143.0938 91.7581 143.5938 91.1331 143.5938 C90.9924 143.5938 90.8362 143.5469 90.7268 143.5 L90.5549 144.2344 C90.7268 144.2969 90.9299 144.3438 91.1956 144.3438 ZM95.843 139.5469 L98.4055 139.5469 L98.4055 138.8438 L95.843 138.8438 L95.843 139.5469 ZM99.8599 142 L101.7349 142 C103.9537 142 105.1568 140.625 105.1568 138.3125 C105.1568 135.9844 103.9537 134.6562 101.7037 134.6562 L99.8599 134.6562 L99.8599 142 ZM100.7974 141.2344 L100.7974 135.4219 L101.6255 135.4219 C103.3443 135.4219 104.2037 136.4531 104.2037 138.3125 C104.2037 140.1562 103.3443 141.2344 101.6255 141.2344 L100.7974 141.2344 ZM106.183 139.5469 L108.7455 139.5469 L108.7455 138.8438 L106.183 138.8438 L106.183 139.5469 ZM111.3718 142.125 C112.0437 142.125 112.653 141.7812 113.1687 141.3438 L113.1999 141.3438 L113.278 142 L114.028 142 L114.028 138.6562 C114.028 137.3125 113.4655 136.4375 112.153 136.4375 C111.278 136.4375 110.5124 136.8125 110.0124 137.1406 L110.3718 137.7656 C110.7937 137.4844 111.3718 137.1875 111.9968 137.1875 C112.8874 137.1875 113.1218 137.8594 113.1218 138.5625 C110.8093 138.8125 109.778 139.4062 109.778 140.5938 C109.778 141.5625 110.4655 142.125 111.3718 142.125 ZM111.6374 141.4062 C111.0905 141.4062 110.6687 141.1562 110.6687 140.5312 C110.6687 139.8281 111.2937 139.375 113.1218 139.1562 L113.1218 140.6875 C112.5905 141.1562 112.153 141.4062 111.6374 141.4062 ZM115.7618 142 L116.668 142 L116.668 138.5156 C117.0274 137.5781 117.5899 137.2656 118.043 137.2656 C118.2618 137.2656 118.3868 137.2812 118.5743 137.3438 L118.7462 136.5469 C118.5743 136.4531 118.4024 136.4375 118.1524 136.4375 C117.543 136.4375 116.9962 136.875 116.6212 137.5625 L116.5899 137.5625 L116.5118 136.5625 L115.7618 136.5625 L115.7618 142 ZM120.8918 142.125 C121.5637 142.125 122.173 141.7812 122.6887 141.3438 L122.7199 141.3438 L122.798 142 L123.548 142 L123.548 138.6562 C123.548 137.3125 122.9855 136.4375 121.673 136.4375 C120.798 136.4375 120.0324 136.8125 119.5324 137.1406 L119.8918 137.7656 C120.3137 137.4844 120.8918 137.1875 121.5168 137.1875 C122.4074 137.1875 122.6418 137.8594 122.6418 138.5625 C120.3293 138.8125 119.298 139.4062 119.298 140.5938 C119.298 141.5625 119.9855 142.125 120.8918 142.125 ZM121.1574 141.4062 C120.6105 141.4062 120.1887 141.1562 120.1887 140.5312 C120.1887 139.8281 120.8137 139.375 122.6418 139.1562 L122.6418 140.6875 C122.1105 141.1562 121.673 141.4062 121.1574 141.4062 ZM125.3599 142 L126.2974 142 L126.2974 138.5469 L129.7037 138.5469 L129.7037 142 L130.6255 142 L130.6255 134.6562 L129.7037 134.6562 L129.7037 137.7344 L126.2974 137.7344 L126.2974 134.6562 L125.3599 134.6562 L125.3599 142 ZM134.7493 142.125 C135.4837 142.125 136.0774 141.875 136.5462 141.5625 L136.218 140.9688 C135.8274 141.2344 135.3899 141.4062 134.8587 141.4062 C133.8274 141.4062 133.1243 140.6562 133.0618 139.5 L136.718 139.5 C136.7337 139.375 136.7649 139.1875 136.7649 138.9844 C136.7649 137.4375 135.9837 136.4375 134.593 136.4375 C133.343 136.4375 132.1555 137.5312 132.1555 139.2969 C132.1555 141.0781 133.3118 142.125 134.7493 142.125 ZM133.0462 138.8438 C133.1555 137.7812 133.843 137.1562 134.6087 137.1562 C135.4524 137.1562 135.9524 137.75 135.9524 138.8438 L133.0462 138.8438 ZM137.3362 142 L138.2893 142 L139.0237 140.7344 C139.2112 140.4062 139.383 140.0625 139.5862 139.7656 L139.633 139.7656 C139.8362 140.0625 140.0237 140.4062 140.2112 140.7344 L141.008 142 L142.008 142 L140.2268 139.2656 L141.8674 136.5625 L140.9143 136.5625 L140.2424 137.7656 C140.0862 138.0625 139.9299 138.375 139.758 138.6719 L139.7268 138.6719 C139.5393 138.375 139.3518 138.0625 139.1799 137.7656 L138.4455 136.5625 L137.4768 136.5625 L139.1174 139.1719 L137.3362 142 ZM142.613 139.5469 L145.1755 139.5469 L145.1755 138.8438 L142.613 138.8438 L142.613 139.5469 ZM148.6611 142.125 C149.9893 142.125 151.1768 141.0938 151.1768 139.2969 C151.1768 137.4844 149.9893 136.4375 148.6611 136.4375 C147.333 136.4375 146.1455 137.4844 146.1455 139.2969 C146.1455 141.0938 147.333 142.125 148.6611 142.125 ZM148.6611 141.375 C147.7236 141.375 147.083 140.5469 147.083 139.2969 C147.083 138.0469 147.7236 137.1875 148.6611 137.1875 C149.5986 137.1875 150.2393 138.0469 150.2393 139.2969 C150.2393 140.5469 149.5986 141.375 148.6611 141.375 ZM153.5649 142.125 C153.8149 142.125 153.9711 142.0938 154.0961 142.0469 L153.9711 141.3438 C153.8774 141.375 153.8305 141.375 153.7836 141.375 C153.643 141.375 153.518 141.2656 153.518 140.9844 L153.518 134.0469 L152.6118 134.0469 L152.6118 140.9219 C152.6118 141.6875 152.893 142.125 153.5649 142.125 Z"
    /></g
  ></g
></svg
>
