<?xml version="1.0"?>
<!DOCTYPE svg PUBLIC '-//W3C//DTD SVG 1.0//EN'
          'http://www.w3.org/TR/2001/REC-SVG-20010904/DTD/svg10.dtd'>
<svg xmlns:xlink="http://www.w3.org/1999/xlink" style="fill-opacity:1; color-rendering:auto; color-interpolation:auto; text-rendering:auto; stroke:black; stroke-linecap:square; stroke-miterlimit:10; shape-rendering:auto; stroke-opacity:1; fill:black; stroke-dasharray:none; font-weight:normal; stroke-width:1; font-family:'Dialog'; font-style:normal; stroke-linejoin:miter; font-size:12px; stroke-dashoffset:0; image-rendering:auto;" viewBox="0 0 529 160" xmlns="http://www.w3.org/2000/svg"
><!--Generated by the Batik Graphics2D SVG Generator--><defs id="genericDefs"
  /><g
  ><defs id="defs1"
    ><clipPath clipPathUnits="userSpaceOnUse" id="clipPath1"
      ><path style="fill-rule:evenodd;" d="M405 116 L399 123 L388 123 L383 116 L388 108 L399 108 L405 116 Z"
      /></clipPath
      ><clipPath clipPathUnits="userSpaceOnUse" id="clipPath2"
      ><path style="fill-rule:evenodd;" d="M52 116 L46 123 L35 123 L30 116 L35 108 L46 108 L52 116 Z"
      /></clipPath
      ><clipPath clipPathUnits="userSpaceOnUse" id="clipPath3"
      ><path style="fill-rule:evenodd;" d="M312 67 L306 74 L295 74 L290 67 L295 59 L306 59 L312 67 Z"
      /></clipPath
      ><clipPath clipPathUnits="userSpaceOnUse" id="clipPath4"
      ><path d="M260 93 C260 99.0751 255.0751 104 249 104 C242.9249 104 238 99.0751 238 93 C238 86.9249 242.9249 82 249 82 C255.0751 82 260 86.9249 260 93 Z"
      /></clipPath
      ><clipPath clipPathUnits="userSpaceOnUse" id="clipPath5"
      ><path d="M208 119 C208 125.0751 203.0751 130 197 130 C190.9249 130 186 125.0751 186 119 C186 112.9249 190.9249 108 197 108 C203.0751 108 208 112.9249 208 119 Z"
      /></clipPath
      ><clipPath clipPathUnits="userSpaceOnUse" id="clipPath6"
      ><path d="M156 119 C156 125.0751 151.0751 130 145 130 C138.9249 130 134 125.0751 134 119 C134 112.9249 138.9249 108 145 108 C151.0751 108 156 112.9249 156 119 Z"
      /></clipPath
      ><clipPath clipPathUnits="userSpaceOnUse" id="clipPath7"
      ><path d="M82 108 L104 108 L104 130 L82 130 L82 108 Z"
      /></clipPath
      ><clipPath clipPathUnits="userSpaceOnUse" id="clipPath8"
      ><path d="M208 67 C208 73.0751 203.0751 78 197 78 C190.9249 78 186 73.0751 186 67 C186 60.9249 190.9249 56 197 56 C203.0751 56 208 60.9249 208 67 Z"
      /></clipPath
      ><clipPath clipPathUnits="userSpaceOnUse" id="clipPath9"
      ><path style="fill-rule:evenodd;" d="M260 41 L254 48 L243 48 L238 41 L243 33 L254 33 L260 41 Z"
      /></clipPath
    ></defs
    ><g style="fill:white; text-rendering:optimizeSpeed; stroke:white;"
    ><rect x="0" width="529" height="160" y="0" style="stroke:none;"
      /><polygon style="fill:none; stroke:black;" points=" 488 116 394 116"
      /><path d="M488 105 C482.5 110.5 493.5 121.5 488 127" style="fill:none; stroke:black;"
      /><polygon style="fill:none; stroke:black;" points=" 394 116 41 116"
      /><polygon style="clip-path:url(#clipPath1); stroke:none;" points=" 405 116 399 123 388 123 383 116 388 108 399 108 405 116"
      /><rect x="383" y="105" width="22" style="clip-path:url(#clipPath1); fill:rgb(255,212,0); stroke:none;" height="22"
      /><rect x="383" y="105" width="22" style="clip-path:url(#clipPath1); fill:none; stroke:black;" height="22"
      /><polygon style="fill:none; stroke:black;" points=" 405 116 399 123 388 123 383 116 388 108 399 108 405 116"
      /><polygon style="clip-path:url(#clipPath2); stroke:none;" points=" 52 116 46 123 35 123 30 116 35 108 46 108 52 116"
      /><rect x="30" y="105" width="22" style="clip-path:url(#clipPath2); fill:rgb(255,212,0); stroke:none;" height="22"
      /><rect x="30" y="105" width="22" style="clip-path:url(#clipPath2); fill:none; stroke:black;" height="22"
      /><polygon style="fill:none; stroke:black;" points=" 52 116 46 123 35 123 30 116 35 108 46 108 52 116"
      /><polygon style="fill:none; stroke:black;" points=" 394 93 301 119"
      /><polygon style="fill:none; stroke:black;" points=" 394 93 301 67"
    /></g
    ><g style="text-rendering:optimizeSpeed; font-size:11px; font-family:'SansSerif';"
    ><path style="stroke:none;" d="M355.875 98.1406 C357.2344 98.1406 358.5156 97.1406 358.5156 95.375 C358.5156 93.5938 357.4219 92.8125 356.0781 92.8125 C355.5938 92.8125 355.25 92.9219 354.875 93.125 L355.0781 90.7969 L358.125 90.7969 L358.125 89.9219 L354.2031 89.9219 L353.9531 93.7031 L354.4844 94.0469 C354.9531 93.7344 355.2812 93.5625 355.8281 93.5625 C356.8438 93.5625 357.5 94.25 357.5 95.4062 C357.5 96.5781 356.7344 97.3125 355.7812 97.3125 C354.8438 97.3125 354.2656 96.875 353.7969 96.4219 L353.3125 97.0781 C353.8438 97.6094 354.6094 98.1406 355.875 98.1406 ZM360.1987 98 L364.7456 98 L364.7456 97.125 L361.2299 97.125 L361.2299 89.9219 L360.1987 89.9219 L360.1987 98 ZM365.5779 95.3125 L368.406 95.3125 L368.406 94.5312 L365.5779 94.5312 L365.5779 95.3125 ZM371.9261 100.75 C373.7699 100.75 374.9418 99.7969 374.9418 98.6875 C374.9418 97.7031 374.2386 97.2656 372.848 97.2656 L371.6918 97.2656 C370.8793 97.2656 370.6449 97 370.6449 96.6094 C370.6449 96.2812 370.8011 96.0938 371.0355 95.9062 C371.2855 96.0312 371.6293 96.1094 371.9261 96.1094 C373.1293 96.1094 374.098 95.3125 374.098 94.0312 C374.098 93.5156 373.8949 93.0781 373.6136 92.7969 L374.8324 92.7969 L374.8324 92.0312 L372.7543 92.0312 C372.5511 91.9531 372.2543 91.875 371.9261 91.875 C370.7074 91.875 369.6761 92.7031 369.6761 94 C369.6761 94.7188 370.0668 95.2969 370.4574 95.6094 L370.4574 95.6562 C370.1449 95.875 369.7855 96.2656 369.7855 96.7656 C369.7855 97.2344 370.0199 97.5625 370.3324 97.75 L370.3324 97.7969 C369.7699 98.1562 369.4574 98.6406 369.4574 99.1406 C369.4574 100.1719 370.4574 100.75 371.9261 100.75 ZM371.9261 95.4219 C371.223 95.4219 370.6449 94.875 370.6449 94 C370.6449 93.125 371.223 92.6094 371.9261 92.6094 C372.6293 92.6094 373.1918 93.1406 373.1918 94 C373.1918 94.875 372.598 95.4219 371.9261 95.4219 ZM372.0668 100.0625 C370.9886 100.0625 370.3324 99.6562 370.3324 99.0156 C370.3324 98.6562 370.5043 98.3125 370.9418 98 C371.2074 98.0625 371.4886 98.0938 371.7074 98.0938 L372.7386 98.0938 C373.5355 98.0938 373.973 98.2812 373.973 98.8438 C373.973 99.4688 373.2074 100.0625 372.0668 100.0625 ZM376.1035 98 L377.1035 98 L377.1035 94.1562 C377.4941 93.1406 378.1191 92.7812 378.6035 92.7812 C378.8535 92.7812 378.9941 92.8125 379.1972 92.8906 L379.3847 92 C379.1972 91.9062 379.0097 91.875 378.7441 91.875 C378.0722 91.875 377.4628 92.3594 377.041 93.1094 L377.0097 93.1094 L376.9316 92.0312 L376.1035 92.0312 L376.1035 98 ZM382.6839 98.1406 C384.1527 98.1406 385.4652 97 385.4652 95.0156 C385.4652 93.0312 384.1527 91.875 382.6839 91.875 C381.2308 91.875 379.9183 93.0312 379.9183 95.0156 C379.9183 97 381.2308 98.1406 382.6839 98.1406 ZM382.6839 97.3125 C381.6527 97.3125 380.9652 96.3906 380.9652 95.0156 C380.9652 93.6406 381.6527 92.7031 382.6839 92.7031 C383.7152 92.7031 384.4339 93.6406 384.4339 95.0156 C384.4339 96.3906 383.7152 97.3125 382.6839 97.3125 ZM386.5218 95.3125 L389.3499 95.3125 L389.3499 94.5312 L386.5218 94.5312 L386.5218 95.3125 ZM390.9325 98 L393.0106 98 C395.4325 98 396.7762 96.5 396.7762 93.9375 C396.7762 91.375 395.4325 89.9219 392.9637 89.9219 L390.9325 89.9219 L390.9325 98 ZM391.9637 97.1562 L391.9637 90.7656 L392.87 90.7656 C394.7762 90.7656 395.7137 91.8906 395.7137 93.9375 C395.7137 95.9688 394.7762 97.1562 392.87 97.1562 L391.9637 97.1562 ZM397.8957 95.3125 L400.7238 95.3125 L400.7238 94.5312 L397.8957 94.5312 L397.8957 95.3125 ZM403.6033 98.1406 C404.3376 98.1406 405.0095 97.7656 405.572 97.2812 L405.6189 97.2812 L405.697 98 L406.5251 98 L406.5251 94.3281 C406.5251 92.8594 405.9158 91.875 404.4626 91.875 C403.4939 91.875 402.6501 92.2969 402.1033 92.6562 L402.4939 93.3438 C402.9783 93.0312 403.6033 92.7031 404.2908 92.7031 C405.2751 92.7031 405.5251 93.4531 405.5251 94.2188 C402.9783 94.5 401.8533 95.1562 401.8533 96.4531 C401.8533 97.5312 402.6033 98.1406 403.6033 98.1406 ZM403.8845 97.3438 C403.2908 97.3438 402.822 97.0625 402.822 96.3906 C402.822 95.6094 403.5095 95.125 405.5251 94.875 L405.5251 96.5469 C404.947 97.0625 404.4626 97.3438 403.8845 97.3438 ZM409.4791 98.1406 C409.7603 98.1406 409.9322 98.1094 410.0728 98.0625 L409.9322 97.2812 C409.8072 97.3125 409.776 97.3125 409.7135 97.3125 C409.5572 97.3125 409.4322 97.1875 409.4322 96.875 L409.4322 89.25 L408.4322 89.25 L408.4322 96.8125 C408.4322 97.6562 408.7291 98.1406 409.4791 98.1406 ZM413.4422 98.1406 C413.8016 98.1406 414.2078 98.0312 414.5516 97.9219 L414.3484 97.1719 C414.1453 97.25 413.8797 97.3281 413.6609 97.3281 C412.9734 97.3281 412.7391 96.9062 412.7391 96.1719 L412.7391 92.8438 L414.3641 92.8438 L414.3641 92.0312 L412.7391 92.0312 L412.7391 90.3438 L411.9109 90.3438 L411.7859 92.0312 L410.8484 92.0781 L410.8484 92.8438 L411.7391 92.8438 L411.7391 96.1562 C411.7391 97.3438 412.1609 98.1406 413.4422 98.1406 ZM415.7923 98 L416.8235 98 L416.8235 94.1875 L420.5892 94.1875 L420.5892 98 L421.5892 98 L421.5892 89.9219 L420.5892 89.9219 L420.5892 93.3125 L416.8235 93.3125 L416.8235 89.9219 L415.7923 89.9219 L415.7923 98 ZM426.1284 98.1406 C426.9409 98.1406 427.5815 97.875 428.1127 97.5312 L427.7377 96.8594 C427.3002 97.1562 426.8315 97.3438 426.2534 97.3438 C425.1127 97.3438 424.3315 96.5312 424.269 95.25 L428.3002 95.25 C428.3159 95.1094 428.3315 94.8906 428.3315 94.6719 C428.3315 92.9688 427.4877 91.875 425.9565 91.875 C424.5815 91.875 423.269 93.0781 423.269 95.0156 C423.269 96.9844 424.5502 98.1406 426.1284 98.1406 ZM424.2534 94.5312 C424.3784 93.3594 425.1284 92.6719 425.9721 92.6719 C426.9096 92.6719 427.4565 93.3281 427.4565 94.5312 L424.2534 94.5312 ZM429.816 100.5156 L430.816 100.5156 L430.816 98.5 L430.7848 97.4531 C431.3317 97.8906 431.9098 98.1406 432.441 98.1406 C433.816 98.1406 435.0348 96.9688 435.0348 94.9219 C435.0348 93.0781 434.2067 91.875 432.6598 91.875 C431.9723 91.875 431.3004 92.2656 430.7535 92.7031 L430.7223 92.7031 L430.6442 92.0312 L429.816 92.0312 L429.816 100.5156 ZM432.2692 97.3125 C431.8785 97.3125 431.3473 97.1406 430.816 96.6875 L430.816 93.5469 C431.3942 93 431.9098 92.7188 432.4254 92.7188 C433.5504 92.7188 433.9879 93.6094 433.9879 94.9375 C433.9879 96.4219 433.2692 97.3125 432.2692 97.3125 Z"
      /><rect x="297" y="113" width="6" style="fill:white; stroke:none;" height="10"
      /><path style="stroke:none;" d="M298.4062 124 L299.7031 124 L299.7031 119.9219 L301.3906 119.9219 C303.6562 119.9219 305.1719 118.9219 305.1719 116.75 C305.1719 114.5156 303.6406 113.7188 301.3438 113.7188 L298.4062 113.7188 L298.4062 124 ZM299.7031 118.875 L299.7031 114.7812 L301.1719 114.7812 C302.9844 114.7812 303.8906 115.2656 303.8906 116.75 C303.8906 118.2188 303.0312 118.875 301.2344 118.875 L299.7031 118.875 Z"
      /><polygon style="fill:none;" points=" 301 67 249 93"
      /><polygon style="fill:none;" points=" 301 67 249 41"
    /></g
    ><g style="fill:white; text-rendering:optimizeSpeed; stroke:white;"
    ><polygon style="stroke:none; clip-path:url(#clipPath3);" points=" 312 67 306 74 295 74 290 67 295 59 306 59 312 67"
      /><rect x="290" y="56" width="22" style="clip-path:url(#clipPath3); fill:rgb(246,158,161); stroke:none;" height="22"
      /><rect x="290" y="56" width="22" style="clip-path:url(#clipPath3); fill:none; stroke:black;" height="22"
      /><polygon style="fill:none; stroke:black;" points=" 312 67 306 74 295 74 290 67 295 59 306 59 312 67"
      /><rect x="293" width="15" height="10" y="38" style="stroke:none;"
    /></g
    ><g style="text-rendering:optimizeSpeed; font-size:14px; font-family:'SansSerif';"
    ><path style="stroke:none;" d="M294.6094 45.1562 L296.9531 41.6562 C297.2344 41.1406 297.5156 40.6406 297.7812 40.1406 L297.8281 40.1406 C297.7969 40.6719 297.7656 41.5 297.7656 42 L297.7656 45.1562 L294.6094 45.1562 ZM297.7656 49 L298.9688 49 L298.9688 46.1719 L300.3281 46.1719 L300.3281 45.1562 L298.9688 45.1562 L298.9688 38.7188 L297.5469 38.7188 L293.2812 45.3281 L293.2812 46.1719 L297.7656 46.1719 L297.7656 49 ZM302.1762 49 L303.4731 49 L303.4731 44.9219 L305.1606 44.9219 C307.4262 44.9219 308.9418 43.9219 308.9418 41.75 C308.9418 39.5156 307.4106 38.7188 305.1137 38.7188 L302.1762 38.7188 L302.1762 49 ZM303.4731 43.875 L303.4731 39.7812 L304.9418 39.7812 C306.7543 39.7812 307.6606 40.2656 307.6606 41.75 C307.6606 43.2188 306.8012 43.875 305.0043 43.875 L303.4731 43.875 Z"
      /><polygon style="fill:none;" points=" 249 93 197 119"
      /><polygon style="fill:none;" points=" 249 93 197 67"
    /></g
    ><g style="fill:white; text-rendering:optimizeSpeed; stroke:white;"
    ><circle r="11" style="clip-path:url(#clipPath4); stroke:none;" cx="249" cy="93"
      /><rect x="238" y="82" width="22" style="clip-path:url(#clipPath4); fill:rgb(0,144,188); stroke:none;" height="22"
      /><rect x="238" y="82" width="22" style="clip-path:url(#clipPath4); fill:none; stroke:black;" height="22"
      /><circle r="11" style="fill:none; stroke:black;" cx="249" cy="93"
      /><polygon style="fill:none; stroke:black;" points=" 197 119 145 119"
      /><circle r="11" style="clip-path:url(#clipPath5); stroke:none;" cx="197" cy="119"
      /><rect x="186" y="108" width="22" style="clip-path:url(#clipPath5); fill:rgb(0,144,188); stroke:none;" height="22"
      /><rect x="186" y="108" width="22" style="clip-path:url(#clipPath5); fill:none; stroke:black;" height="22"
      /><circle r="11" style="fill:none; stroke:black;" cx="197" cy="119"
      /><polygon style="fill:none; stroke:black;" points=" 145 119 93 119"
      /><circle r="11" style="clip-path:url(#clipPath6); stroke:none;" cx="145" cy="119"
      /><rect x="134" y="108" width="22" style="clip-path:url(#clipPath6); fill:rgb(0,144,188); stroke:none;" height="22"
      /><rect x="134" y="108" width="22" style="clip-path:url(#clipPath6); fill:none; stroke:black;" height="22"
      /><circle r="11" style="fill:none; stroke:black;" cx="145" cy="119"
      /><rect x="82" y="108" width="22" style="clip-path:url(#clipPath7); stroke:none;" height="22"
      /><rect x="82" y="108" width="22" style="clip-path:url(#clipPath7); fill:rgb(0,144,188); stroke:none;" height="22"
      /><rect x="82" y="108" width="22" style="clip-path:url(#clipPath7); fill:none; stroke:black;" height="22"
      /><rect x="82" y="108" width="22" style="fill:none; stroke:black;" height="22"
      /><rect x="123" width="6" height="9" y="122" style="stroke:none;"
      /><path d="M124.4219 130.0938 C125.0781 129.375 125.7031 128.7188 126.0312 128.3438 C127.9219 126.3125 128.5312 125.4688 128.5312 124.3594 C128.5312 123.0156 127.7812 122.0781 126.1562 122.0781 C124.9062 122.0781 123.7969 122.7031 123.5938 123.9688 C123.7188 124.2031 123.9062 124.3438 124.1562 124.3438 C124.4688 124.3438 124.6562 124.1094 124.7969 123.5938 L125.0938 122.6719 C125.3906 122.5938 125.6562 122.5625 125.8906 122.5625 C126.9219 122.5625 127.5469 123.3125 127.5469 124.4219 C127.5469 125.4375 126.9844 126.4219 125.7031 127.9062 C125.125 128.5781 124.3906 129.4375 123.6406 130.2812 L123.6406 131 L128.9219 131 L128.9219 130.0938 L124.4219 130.0938 Z" style="fill:black; stroke:none;"
      /><rect x="108" width="8" height="8" y="123" style="stroke:none;"
      /><path d="M112.9844 128.7031 C112.9375 129.8906 112.1562 130.6562 111.3125 130.6562 C110.2656 130.6562 109.5 129.6875 109.5 127.7188 C109.5 126.2812 110.1562 125.1562 111.3438 125.1562 C112.1406 125.1562 112.7812 125.6875 113.0938 126.6406 L112.9844 128.7031 ZM114.9062 130.2812 C114.7344 130.375 114.5469 130.4219 114.3438 130.4219 C113.9531 130.4219 113.75 130.2188 113.75 129.4219 C113.75 128.4844 113.9688 126.5312 114.1875 124.8281 L114.0312 124.7188 L113.2344 124.9219 L113.1406 125.7969 C112.7812 125.0312 112.1562 124.6562 111.3906 124.6562 C110.0469 124.6562 108.5625 125.8438 108.5625 127.9531 C108.5625 130.0938 109.7188 131.1719 111.1406 131.1719 C112.0156 131.1719 112.6875 130.8125 113.0938 129.9844 C113.2031 130.8594 113.5156 131.1719 114.0156 131.1719 C114.4688 131.1719 114.7969 130.9062 115.0156 130.5625 L114.9062 130.2812 Z" style="fill:black; stroke:none;"
      /><rect x="175" width="6" height="9" y="122" style="stroke:none;"
      /><path d="M176.4219 130.0938 C177.0781 129.375 177.7031 128.7188 178.0312 128.3438 C179.9219 126.3125 180.5312 125.4688 180.5312 124.3594 C180.5312 123.0156 179.7812 122.0781 178.1562 122.0781 C176.9062 122.0781 175.7969 122.7031 175.5938 123.9688 C175.7188 124.2031 175.9062 124.3438 176.1562 124.3438 C176.4688 124.3438 176.6562 124.1094 176.7969 123.5938 L177.0938 122.6719 C177.3906 122.5938 177.6562 122.5625 177.8906 122.5625 C178.9219 122.5625 179.5469 123.3125 179.5469 124.4219 C179.5469 125.4375 178.9844 126.4219 177.7031 127.9062 C177.125 128.5781 176.3906 129.4375 175.6406 130.2812 L175.6406 131 L180.9219 131 L180.9219 130.0938 L176.4219 130.0938 Z" style="fill:black; stroke:none;"
      /><rect x="160" width="8" height="8" y="123" style="stroke:none;"
      /><path d="M164.9844 128.7031 C164.9375 129.8906 164.1562 130.6562 163.3125 130.6562 C162.2656 130.6562 161.5 129.6875 161.5 127.7188 C161.5 126.2812 162.1562 125.1562 163.3438 125.1562 C164.1406 125.1562 164.7812 125.6875 165.0938 126.6406 L164.9844 128.7031 ZM166.9062 130.2812 C166.7344 130.375 166.5469 130.4219 166.3438 130.4219 C165.9531 130.4219 165.75 130.2188 165.75 129.4219 C165.75 128.4844 165.9688 126.5312 166.1875 124.8281 L166.0312 124.7188 L165.2344 124.9219 L165.1406 125.7969 C164.7812 125.0312 164.1562 124.6562 163.3906 124.6562 C162.0469 124.6562 160.5625 125.8438 160.5625 127.9531 C160.5625 130.0938 161.7188 131.1719 163.1406 131.1719 C164.0156 131.1719 164.6875 130.8125 165.0938 129.9844 C165.2031 130.8594 165.5156 131.1719 166.0156 131.1719 C166.4688 131.1719 166.7969 130.9062 167.0156 130.5625 L166.9062 130.2812 Z" style="fill:black; stroke:none;"
      /><circle r="11" style="clip-path:url(#clipPath8); stroke:none;" cx="197" cy="67"
      /><rect x="186" y="56" width="22" style="clip-path:url(#clipPath8); fill:rgb(255,212,0); stroke:none;" height="22"
      /><rect x="186" y="56" width="22" style="clip-path:url(#clipPath8); fill:none; stroke:black;" height="22"
      /><circle r="11" style="fill:none; stroke:black;" cx="197" cy="67"
      /><rect x="231" width="6" height="10" y="104" style="stroke:none;"
      /><path d="M233.2344 105.6562 C233.5156 105.5938 233.7656 105.5625 234.0156 105.5625 C235.0625 105.5625 235.6719 106.1719 235.6719 107.2656 C235.6719 108.4375 234.9062 109.1094 233.7031 109.1094 L233.1875 109.1094 L233.1875 109.6406 L233.7969 109.6406 C235.2188 109.6406 235.9062 110.4219 235.9062 111.6406 C235.9062 112.8438 235.1719 113.6875 233.875 113.6875 C233.6094 113.6875 233.3125 113.6562 233.0156 113.5625 L232.7812 112.8125 C232.625 112.2812 232.5 112.0469 232.1406 112.0469 C231.8906 112.0469 231.7031 112.1719 231.5781 112.4219 C231.8438 113.6406 232.7812 114.1719 234.0312 114.1719 C235.7188 114.1719 236.875 113.125 236.875 111.7031 C236.875 110.5 236.2031 109.625 234.7969 109.375 C235.9531 109.0156 236.6094 108.2031 236.6094 107.2031 C236.6094 105.9219 235.6719 105.0781 234.1875 105.0781 C233.0469 105.0781 232.0625 105.5938 231.7969 106.6875 C231.9062 107 232.1094 107.1094 232.3594 107.1094 C232.7344 107.1094 232.8906 106.8906 233 106.4062 L233.2344 105.6562 Z" style="fill:black; stroke:none;"
      /><rect x="214" width="8" height="8" y="113" style="stroke:none;"
      /><path d="M218.9844 118.7031 C218.9375 119.8906 218.1562 120.6562 217.3125 120.6562 C216.2656 120.6562 215.5 119.6875 215.5 117.7188 C215.5 116.2812 216.1562 115.1562 217.3438 115.1562 C218.1406 115.1562 218.7812 115.6875 219.0938 116.6406 L218.9844 118.7031 ZM220.9062 120.2812 C220.7344 120.375 220.5469 120.4219 220.3438 120.4219 C219.9531 120.4219 219.75 120.2188 219.75 119.4219 C219.75 118.4844 219.9688 116.5312 220.1875 114.8281 L220.0312 114.7188 L219.2344 114.9219 L219.1406 115.7969 C218.7812 115.0312 218.1562 114.6562 217.3906 114.6562 C216.0469 114.6562 214.5625 115.8438 214.5625 117.9531 C214.5625 120.0938 215.7188 121.1719 217.1406 121.1719 C218.0156 121.1719 218.6875 120.8125 219.0938 119.9844 C219.2031 120.8594 219.5156 121.1719 220.0156 121.1719 C220.4688 121.1719 220.7969 120.9062 221.0156 120.5625 L220.9062 120.2812 Z" style="fill:black; stroke:none;"
      /><rect x="224" width="6" height="10" y="86" style="stroke:none;"
      /><path d="M227.3438 95.6875 C226.2031 95.6875 225.5312 94.5 225.5312 92.2969 C225.5312 92.2188 225.5312 92.125 225.5312 92.0469 C226.0938 91.5 226.7188 91.3125 227.3438 91.3125 C228.3125 91.3125 228.9531 91.9844 228.9531 93.4531 C228.9531 94.9375 228.3125 95.6875 227.3438 95.6875 ZM229.5312 87.0781 C226.3438 87.4531 224.5625 89.7656 224.5625 92.4531 C224.5625 94.7812 225.6094 96.1719 227.3125 96.1719 C228.8438 96.1719 229.9219 95.1094 229.9219 93.2812 C229.9219 91.6875 228.9688 90.6562 227.5625 90.6562 C226.8281 90.6562 226.1406 90.9844 225.5781 91.5781 C225.7969 89.4062 227.0781 87.9688 229.5938 87.3906 L229.5312 87.0781 Z" style="fill:black; stroke:none;"
      /><rect x="207" width="8" height="8" y="79" style="stroke:none;"
      /><path d="M211.9844 84.7031 C211.9375 85.8906 211.1562 86.6562 210.3125 86.6562 C209.2656 86.6562 208.5 85.6875 208.5 83.7188 C208.5 82.2812 209.1562 81.1562 210.3438 81.1562 C211.1406 81.1562 211.7812 81.6875 212.0938 82.6406 L211.9844 84.7031 ZM213.9062 86.2812 C213.7344 86.375 213.5469 86.4219 213.3438 86.4219 C212.9531 86.4219 212.75 86.2188 212.75 85.4219 C212.75 84.4844 212.9688 82.5312 213.1875 80.8281 L213.0312 80.7188 L212.2344 80.9219 L212.1406 81.7969 C211.7812 81.0312 211.1562 80.6562 210.3906 80.6562 C209.0469 80.6562 207.5625 81.8438 207.5625 83.9531 C207.5625 86.0938 208.7188 87.1719 210.1406 87.1719 C211.0156 87.1719 211.6875 86.8125 212.0938 85.9844 C212.2031 86.8594 212.5156 87.1719 213.0156 87.1719 C213.4688 87.1719 213.7969 86.9062 214.0156 86.5625 L213.9062 86.2812 Z" style="fill:black; stroke:none;"
      /><polygon style="clip-path:url(#clipPath9); stroke:none;" points=" 260 41 254 48 243 48 238 41 243 33 254 33 260 41"
      /><rect x="238" y="30" width="22" style="clip-path:url(#clipPath9); fill:rgb(0,166,81); stroke:none;" height="22"
      /><rect x="238" y="30" width="22" style="clip-path:url(#clipPath9); fill:none; stroke:black;" height="22"
      /><polygon style="fill:none; stroke:black;" points=" 260 41 254 48 243 48 238 41 243 33 254 33 260 41"
      /><rect x="283" width="6" height="10" y="78" style="stroke:none;"
      /><path d="M285.2344 79.6562 C285.5156 79.5938 285.7656 79.5625 286.0156 79.5625 C287.0625 79.5625 287.6719 80.1719 287.6719 81.2656 C287.6719 82.4375 286.9062 83.1094 285.7031 83.1094 L285.1875 83.1094 L285.1875 83.6406 L285.7969 83.6406 C287.2188 83.6406 287.9062 84.4219 287.9062 85.6406 C287.9062 86.8438 287.1719 87.6875 285.875 87.6875 C285.6094 87.6875 285.3125 87.6562 285.0156 87.5625 L284.7812 86.8125 C284.625 86.2812 284.5 86.0469 284.1406 86.0469 C283.8906 86.0469 283.7031 86.1719 283.5781 86.4219 C283.8438 87.6406 284.7812 88.1719 286.0312 88.1719 C287.7188 88.1719 288.875 87.125 288.875 85.7031 C288.875 84.5 288.2031 83.625 286.7969 83.375 C287.9531 83.0156 288.6094 82.2031 288.6094 81.2031 C288.6094 79.9219 287.6719 79.0781 286.1875 79.0781 C285.0469 79.0781 284.0625 79.5938 283.7969 80.6875 C283.9062 81 284.1094 81.1094 284.3594 81.1094 C284.7344 81.1094 284.8906 80.8906 285 80.4062 L285.2344 79.6562 Z" style="fill:black; stroke:none;"
      /><rect x="266" width="8" height="8" y="87" style="stroke:none;"
      /><path d="M270.9844 92.7031 C270.9375 93.8906 270.1562 94.6562 269.3125 94.6562 C268.2656 94.6562 267.5 93.6875 267.5 91.7188 C267.5 90.2812 268.1562 89.1562 269.3438 89.1562 C270.1406 89.1562 270.7812 89.6875 271.0938 90.6406 L270.9844 92.7031 ZM272.9062 94.2812 C272.7344 94.375 272.5469 94.4219 272.3438 94.4219 C271.9531 94.4219 271.75 94.2188 271.75 93.4219 C271.75 92.4844 271.9688 90.5312 272.1875 88.8281 L272.0312 88.7188 L271.2344 88.9219 L271.1406 89.7969 C270.7812 89.0312 270.1562 88.6562 269.3906 88.6562 C268.0469 88.6562 266.5625 89.8438 266.5625 91.9531 C266.5625 94.0938 267.7188 95.1719 269.1406 95.1719 C270.0156 95.1719 270.6875 94.8125 271.0938 93.9844 C271.2031 94.8594 271.5156 95.1719 272.0156 95.1719 C272.4688 95.1719 272.7969 94.9062 273.0156 94.5625 L272.9062 94.2812 Z" style="fill:black; stroke:none;"
      /><rect x="276" width="6" height="9" y="60" style="stroke:none;"
      /><path d="M276.6406 60.25 L276.6406 61.1406 L281.2031 61.1406 L277.7812 68.875 L277.8906 69 L278.75 69 L281.875 60.7969 L281.875 60.25 L276.6406 60.25 Z" style="fill:black; stroke:none;"
      /><rect x="259" width="8" height="8" y="53" style="stroke:none;"
      /><path d="M263.9844 58.7031 C263.9375 59.8906 263.1562 60.6562 262.3125 60.6562 C261.2656 60.6562 260.5 59.6875 260.5 57.7188 C260.5 56.2812 261.1562 55.1562 262.3438 55.1562 C263.1406 55.1562 263.7812 55.6875 264.0938 56.6406 L263.9844 58.7031 ZM265.9062 60.2812 C265.7344 60.375 265.5469 60.4219 265.3438 60.4219 C264.9531 60.4219 264.75 60.2188 264.75 59.4219 C264.75 58.4844 264.9688 56.5312 265.1875 54.8281 L265.0312 54.7188 L264.2344 54.9219 L264.1406 55.7969 C263.7812 55.0312 263.1562 54.6562 262.3906 54.6562 C261.0469 54.6562 259.5625 55.8438 259.5625 57.9531 C259.5625 60.0938 260.7188 61.1719 262.1406 61.1719 C263.0156 61.1719 263.6875 60.8125 264.0938 59.9844 C264.2031 60.8594 264.5156 61.1719 265.0156 61.1719 C265.4688 61.1719 265.7969 60.9062 266.0156 60.5625 L265.9062 60.2812 Z" style="fill:black; stroke:none;"
      /><rect x="319" width="5" height="10" y="116" style="stroke:none;"
      /><path d="M320.8906 124.6875 C320.4844 124.6875 320.1562 125.0469 320.1562 125.4219 C320.1562 125.8125 320.4844 126.1562 320.8906 126.1562 C321.2969 126.1562 321.6406 125.8125 321.6406 125.4219 C321.6406 125.0469 321.2969 124.6875 320.8906 124.6875 ZM322.4688 118.5781 C322.7188 118.8906 322.875 119.2656 322.8906 119.6562 C322.8906 120.1875 322.625 120.5 322.0312 120.7656 L321.4062 121.0156 C320.6406 121.3125 320.3906 121.5469 320.3906 121.9375 C320.3906 122.1094 320.4531 122.3438 320.5781 122.8125 L320.7344 123.3438 L321.1094 123.3438 L321.0938 122.5312 C321.0938 122.0938 321.2031 121.9688 321.7812 121.7344 L322.2031 121.5625 C323.0312 121.2188 323.4531 120.6875 323.4531 119.8438 C323.4531 118.1562 321.6562 117.1875 320.5 117.0312 C320.1094 117.125 319.9062 117.2969 319.9062 117.6406 C319.9062 117.9375 320.0625 118.1562 320.7188 118.2656 L322.4688 118.5781 Z" style="fill:black; stroke:none;"
      /><rect x="314" width="6" height="13" y="73" style="stroke:none;"
      /><path d="M316.0938 79.2031 C316.0938 77.6562 316.75 76.8125 317.7969 76.8125 C318.7188 76.8125 319.2656 77.4531 319.2656 78.5156 C319.2656 79.7188 318.5 80.4375 317.1875 80.7031 L317.2969 81.3125 C319.2188 81.2344 319.9375 82.2188 319.9375 83.4375 C319.9375 84.625 319.2344 85.4219 317.9531 85.4219 C317.25 85.4219 316.6562 85.1562 316.0938 84.7188 L316.0938 79.2031 ZM315.2031 85.9062 L315.1094 88.375 L315.2656 88.4844 L316.1562 88.2656 L316.0156 85.0938 C316.5469 85.8438 317.3594 86.1719 318.1719 86.1719 C319.5625 86.1719 320.8594 85.2188 320.8594 83.4844 C320.8594 81.9531 319.875 81.1094 318.125 81 C319.5625 80.6094 320.1875 79.4531 320.1875 78.4844 C320.1875 77.0938 319.1562 76.3125 317.9062 76.3125 C316.2969 76.3125 315.2188 77.5469 315.2188 79.5156 L315.2031 85.9062 Z" style="fill:black; stroke:none;"
      /><rect x="70" width="7" height="9" y="119" style="stroke:none;"
      /><path d="M71 124.5156 L73.9531 120.2656 L73.9531 124.5156 L71 124.5156 ZM76.2812 124.5156 L74.8594 124.5156 L74.8594 119.125 L74.2344 119.125 L70.3438 124.6406 L70.3438 125.1875 L73.9531 125.1875 L73.9531 128 L74.8594 128 L74.8594 125.1875 L76.2812 125.1875 L76.2812 124.5156 Z" style="fill:black; stroke:none;"
      /><rect x="56" width="8" height="8" y="120" style="stroke:none;"
      /><path d="M60.9844 125.7031 C60.9375 126.8906 60.1562 127.6562 59.3125 127.6562 C58.2656 127.6562 57.5 126.6875 57.5 124.7188 C57.5 123.2812 58.1562 122.1562 59.3438 122.1562 C60.1406 122.1562 60.7812 122.6875 61.0938 123.6406 L60.9844 125.7031 ZM62.9062 127.2812 C62.7344 127.375 62.5469 127.4219 62.3438 127.4219 C61.9531 127.4219 61.75 127.2188 61.75 126.4219 C61.75 125.4844 61.9688 123.5312 62.1875 121.8281 L62.0312 121.7188 L61.2344 121.9219 L61.1406 122.7969 C60.7812 122.0312 60.1562 121.6562 59.3906 121.6562 C58.0469 121.6562 56.5625 122.8438 56.5625 124.9531 C56.5625 127.0938 57.7188 128.1719 59.1406 128.1719 C60.0156 128.1719 60.6875 127.8125 61.0938 126.9844 C61.2031 127.8594 61.5156 128.1719 62.0156 128.1719 C62.4688 128.1719 62.7969 127.9062 63.0156 127.5625 L62.9062 127.2812 Z" style="fill:black; stroke:none;"
      /><rect x="451" width="8" height="8" y="120" style="stroke:none;"
      /><path d="M455.9844 125.7031 C455.9375 126.8906 455.1562 127.6562 454.3125 127.6562 C453.2656 127.6562 452.5 126.6875 452.5 124.7188 C452.5 123.2812 453.1562 122.1562 454.3438 122.1562 C455.1406 122.1562 455.7812 122.6875 456.0938 123.6406 L455.9844 125.7031 ZM457.9062 127.2812 C457.7344 127.375 457.5469 127.4219 457.3438 127.4219 C456.9531 127.4219 456.75 127.2188 456.75 126.4219 C456.75 125.4844 456.9688 123.5312 457.1875 121.8281 L457.0312 121.7188 L456.2344 121.9219 L456.1406 122.7969 C455.7812 122.0312 455.1562 121.6562 454.3906 121.6562 C453.0469 121.6562 451.5625 122.8438 451.5625 124.9531 C451.5625 127.0938 452.7188 128.1719 454.1406 128.1719 C455.0156 128.1719 455.6875 127.8125 456.0938 126.9844 C456.2031 127.8594 456.5156 128.1719 457.0156 128.1719 C457.4688 128.1719 457.7969 127.9062 458.0156 127.5625 L457.9062 127.2812 Z" style="fill:black; stroke:none;"
    /></g
  ></g
></svg
>
