<?xml version="1.0"?>
<!DOCTYPE svg PUBLIC '-//W3C//DTD SVG 1.0//EN'
          'http://www.w3.org/TR/2001/REC-SVG-20010904/DTD/svg10.dtd'>
<svg xmlns:xlink="http://www.w3.org/1999/xlink" style="fill-opacity:1; color-rendering:auto; color-interpolation:auto; text-rendering:auto; stroke:black; stroke-linecap:square; stroke-miterlimit:10; shape-rendering:auto; stroke-opacity:1; fill:black; stroke-dasharray:none; font-weight:normal; stroke-width:1; font-family:'Dialog'; font-style:normal; stroke-linejoin:miter; font-size:12px; stroke-dashoffset:0; image-rendering:auto;" viewBox="0 0 134 105" xmlns="http://www.w3.org/2000/svg"
><!--Generated by the Batik Graphics2D SVG Generator--><defs id="genericDefs"
  /><g
  ><defs id="defs1"
    ><clipPath clipPathUnits="userSpaceOnUse" id="clipPath1"
      ><path style="fill-rule:evenodd;" d="M41 53 L52 64 L41 75 L30 64 Z"
      /></clipPath
    ></defs
    ><g style="fill:white; text-rendering:optimizeSpeed; stroke:white;"
    ><rect x="0" width="134" height="105" y="0" style="stroke:none;"
      /><polygon style="fill:none; stroke:black;" points=" 93 64 41 64"
      /><path d="M93 53 C87.5 58.5 98.5 69.5 93 75" style="fill:none; stroke:black;"
      /><polygon style="clip-path:url(#clipPath1); stroke:none;" points=" 41 53 52 64 41 75 30 64"
      /><rect x="30" y="53" width="22" style="clip-path:url(#clipPath1); fill:rgb(165,67,153); stroke:none;" height="22"
      /><rect x="30" y="53" width="22" style="clip-path:url(#clipPath1); fill:none; stroke:black;" height="22"
      /><polygon style="fill:none; stroke:black;" points=" 41 53 52 64 41 75 30 64"
      /><rect x="33" y="35" width="15" style="stroke:none;" height="10"
    /></g
    ><g style="text-rendering:optimizeSpeed; font-size:14px; font-family:'SansSerif';"
    ><path style="stroke:none;" d="M34.6094 42.1562 L36.9531 38.6562 C37.2344 38.1406 37.5156 37.6406 37.7812 37.1406 L37.8281 37.1406 C37.7969 37.6719 37.7656 38.5 37.7656 39 L37.7656 42.1562 L34.6094 42.1562 ZM37.7656 46 L38.9688 46 L38.9688 43.1719 L40.3281 43.1719 L40.3281 42.1562 L38.9688 42.1562 L38.9688 35.7188 L37.5469 35.7188 L33.2812 42.3281 L33.2812 43.1719 L37.7656 43.1719 L37.7656 46 ZM45.02 46.1875 C47.1606 46.1875 48.5043 44.8906 48.5043 43.2656 C48.5043 41.75 47.5825 41.0469 46.395 40.5312 L44.9262 39.8906 C44.1293 39.5625 43.2387 39.1875 43.2387 38.1875 C43.2387 37.2656 43.9887 36.6719 45.145 36.6719 C46.0981 36.6719 46.8637 37.0469 47.4887 37.6406 L48.1762 36.8125 C47.4418 36.0625 46.3637 35.5469 45.145 35.5469 C43.2856 35.5469 41.9106 36.6875 41.9106 38.2656 C41.9106 39.7656 43.0512 40.5 44.0043 40.9062 L45.4887 41.5469 C46.4575 41.9844 47.1918 42.3125 47.1918 43.375 C47.1918 44.375 46.3793 45.0469 45.0356 45.0469 C43.9731 45.0469 42.9418 44.5469 42.2075 43.7812 L41.4262 44.6562 C42.3168 45.5938 43.5668 46.1875 45.02 46.1875 Z"
    /></g
    ><g style="fill:white; text-rendering:optimizeSpeed; font-family:'Serif'; stroke:white;"
    ><rect x="56" width="8" height="8" y="68" style="stroke:none;"
      /><path d="M60.9844 73.7031 C60.9375 74.8906 60.1562 75.6562 59.3125 75.6562 C58.2656 75.6562 57.5 74.6875 57.5 72.7188 C57.5 71.2812 58.1562 70.1562 59.3438 70.1562 C60.1406 70.1562 60.7812 70.6875 61.0938 71.6406 L60.9844 73.7031 ZM62.9062 75.2812 C62.7344 75.375 62.5469 75.4219 62.3438 75.4219 C61.9531 75.4219 61.75 75.2188 61.75 74.4219 C61.75 73.4844 61.9688 71.5312 62.1875 69.8281 L62.0312 69.7188 L61.2344 69.9219 L61.1406 70.7969 C60.7812 70.0312 60.1562 69.6562 59.3906 69.6562 C58.0469 69.6562 56.5625 70.8438 56.5625 72.9531 C56.5625 75.0938 57.7188 76.1719 59.1406 76.1719 C60.0156 76.1719 60.6875 75.8125 61.0938 74.9844 C61.2031 75.8594 61.5156 76.1719 62.0156 76.1719 C62.4688 76.1719 62.7969 75.9062 63.0156 75.5625 L62.9062 75.2812 Z" style="fill:black; stroke:none;"
    /></g
  ></g
></svg
>
