<?xml version="1.0"?>
<!DOCTYPE svg PUBLIC '-//W3C//DTD SVG 1.0//EN'
          'http://www.w3.org/TR/2001/REC-SVG-20010904/DTD/svg10.dtd'>
<svg xmlns:xlink="http://www.w3.org/1999/xlink" style="fill-opacity:1; color-rendering:auto; color-interpolation:auto; text-rendering:auto; stroke:black; stroke-linecap:square; stroke-miterlimit:10; shape-rendering:auto; stroke-opacity:1; fill:black; stroke-dasharray:none; font-weight:normal; stroke-width:1; font-family:'Dialog'; font-style:normal; stroke-linejoin:miter; font-size:12px; stroke-dashoffset:0; image-rendering:auto;" viewBox="0 0 394 186" xmlns="http://www.w3.org/2000/svg"
><!--Generated by the Batik Graphics2D SVG Generator--><defs id="genericDefs"
  /><g
  ><defs id="defs1"
    ><clipPath clipPathUnits="userSpaceOnUse" id="clipPath1"
      ><path d="M290 95 L312 95 L312 117 L290 117 L290 95 Z"
      /></clipPath
      ><clipPath clipPathUnits="userSpaceOnUse" id="clipPath2"
      ><path d="M260 106 C260 112.0751 255.0751 117 249 117 C242.9249 117 238 112.0751 238 106 C238 99.9249 242.9249 95 249 95 C255.0751 95 260 99.9249 260 106 Z"
      /></clipPath
      ><clipPath clipPathUnits="userSpaceOnUse" id="clipPath3"
      ><path d="M208 145 C208 151.0751 203.0751 156 197 156 C190.9249 156 186 151.0751 186 145 C186 138.9249 190.9249 134 197 134 C203.0751 134 208 138.9249 208 145 Z"
      /></clipPath
      ><clipPath clipPathUnits="userSpaceOnUse" id="clipPath4"
      ><path d="M156 145 C156 151.0751 151.0751 156 145 156 C138.9249 156 134 151.0751 134 145 C134 138.9249 138.9249 134 145 134 C151.0751 134 156 138.9249 156 145 Z"
      /></clipPath
      ><clipPath clipPathUnits="userSpaceOnUse" id="clipPath5"
      ><path d="M104 145 C104 151.0751 99.0751 156 93 156 C86.9249 156 82 151.0751 82 145 C82 138.9249 86.9249 134 93 134 C99.0751 134 104 138.9249 104 145 Z"
      /></clipPath
      ><clipPath clipPathUnits="userSpaceOnUse" id="clipPath6"
      ><path d="M52 145 C52 151.0751 47.0751 156 41 156 C34.9249 156 30 151.0751 30 145 C30 138.9249 34.9249 134 41 134 C47.0751 134 52 138.9249 52 145 Z"
      /></clipPath
      ><clipPath clipPathUnits="userSpaceOnUse" id="clipPath7"
      ><path d="M208 67 C208 73.0751 203.0751 78 197 78 C190.9249 78 186 73.0751 186 67 C186 60.9249 190.9249 56 197 56 C203.0751 56 208 60.9249 208 67 Z"
      /></clipPath
      ><clipPath clipPathUnits="userSpaceOnUse" id="clipPath8"
      ><path d="M156 93 C156 99.0751 151.0751 104 145 104 C138.9249 104 134 99.0751 134 93 C134 86.9249 138.9249 82 145 82 C151.0751 82 156 86.9249 156 93 Z"
      /></clipPath
      ><clipPath clipPathUnits="userSpaceOnUse" id="clipPath9"
      ><path d="M104 93 C104 99.0751 99.0751 104 93 104 C86.9249 104 82 99.0751 82 93 C82 86.9249 86.9249 82 93 82 C99.0751 82 104 86.9249 104 93 Z"
      /></clipPath
      ><clipPath clipPathUnits="userSpaceOnUse" id="clipPath10"
      ><path d="M156 41 C156 47.0751 151.0751 52 145 52 C138.9249 52 134 47.0751 134 41 C134 34.9249 138.9249 30 145 30 C151.0751 30 156 34.9249 156 41 Z"
      /></clipPath
      ><clipPath clipPathUnits="userSpaceOnUse" id="clipPath11"
      ><path d="M104 41 C104 47.0751 99.0751 52 93 52 C86.9249 52 82 47.0751 82 41 C82 34.9249 86.9249 30 93 30 C99.0751 30 104 34.9249 104 41 Z"
      /></clipPath
    ></defs
    ><g style="fill:white; text-rendering:optimizeSpeed; stroke:white;"
    ><rect x="0" width="394" height="186" y="0" style="stroke:none;"
      /><polygon style="fill:none; stroke:black;" points=" 353 106 301 106"
      /><path d="M353 95 C347.5 100.5 358.5 111.5 353 117" style="fill:none; stroke:black;"
      /><polygon style="fill:none; stroke:black;" points=" 301 106 249 106"
      /><rect x="290" y="95" width="22" style="clip-path:url(#clipPath1); stroke:none;" height="22"
      /><rect x="290" y="95" width="22" style="clip-path:url(#clipPath1); fill:rgb(0,144,188); stroke:none;" height="22"
      /><rect x="290" y="95" width="22" style="clip-path:url(#clipPath1); fill:none; stroke:black;" height="22"
      /><rect x="290" y="95" width="22" style="fill:none; stroke:black;" height="22"
      /><polygon style="fill:none; stroke:black;" points=" 249 106 197 145"
      /><polygon style="fill:none; stroke:black;" points=" 249 106 197 67"
      /><circle style="clip-path:url(#clipPath2); stroke:none;" r="11" cx="249" cy="106"
      /><rect x="238" y="95" width="22" style="clip-path:url(#clipPath2); fill:rgb(0,166,81); stroke:none;" height="22"
      /><rect x="238" y="95" width="22" style="clip-path:url(#clipPath2); fill:none; stroke:black;" height="22"
      /><circle style="fill:none; stroke:black;" r="11" cx="249" cy="106"
      /><polygon style="fill:none; stroke:black;" points=" 197 145 145 145"
      /><circle style="clip-path:url(#clipPath3); stroke:none;" r="11" cx="197" cy="145"
      /><rect x="186" y="134" width="22" style="clip-path:url(#clipPath3); fill:rgb(0,166,81); stroke:none;" height="22"
      /><rect x="186" y="134" width="22" style="clip-path:url(#clipPath3); fill:none; stroke:black;" height="22"
      /><circle style="fill:none; stroke:black;" r="11" cx="197" cy="145"
      /><polygon style="fill:none; stroke:black;" points=" 145 145 93 145"
      /><circle style="clip-path:url(#clipPath4); stroke:none;" r="11" cx="145" cy="145"
      /><rect x="134" y="134" width="22" style="clip-path:url(#clipPath4); fill:rgb(0,166,81); stroke:none;" height="22"
      /><rect x="134" y="134" width="22" style="clip-path:url(#clipPath4); fill:none; stroke:black;" height="22"
      /><circle style="fill:none; stroke:black;" r="11" cx="145" cy="145"
      /><polygon style="fill:none; stroke:black;" points=" 93 145 41 145"
      /><circle style="clip-path:url(#clipPath5); stroke:none;" r="11" cx="93" cy="145"
      /><rect x="82" y="134" width="22" style="clip-path:url(#clipPath5); fill:rgb(0,166,81); stroke:none;" height="22"
      /><rect x="82" y="134" width="22" style="clip-path:url(#clipPath5); fill:none; stroke:black;" height="22"
      /><circle style="fill:none; stroke:black;" r="11" cx="93" cy="145"
      /><circle style="clip-path:url(#clipPath6); stroke:none;" r="11" cx="41" cy="145"
      /><rect x="30" y="134" width="22" style="clip-path:url(#clipPath6); fill:rgb(0,144,188); stroke:none;" height="22"
      /><rect x="30" y="134" width="22" style="clip-path:url(#clipPath6); fill:none; stroke:black;" height="22"
      /><circle style="fill:none; stroke:black;" r="11" cx="41" cy="145"
      /><rect x="71" y="148" width="6" style="stroke:none;" height="10"
    /></g
    ><g style="font-family:'Serif'; text-rendering:optimizeSpeed; "
    ><path style="stroke:none;" d="M73.2344 149.6562 C73.5156 149.5938 73.7656 149.5625 74.0156 149.5625 C75.0625 149.5625 75.6719 150.1719 75.6719 151.2656 C75.6719 152.4375 74.9062 153.1094 73.7031 153.1094 L73.1875 153.1094 L73.1875 153.6406 L73.7969 153.6406 C75.2188 153.6406 75.9062 154.4219 75.9062 155.6406 C75.9062 156.8438 75.1719 157.6875 73.875 157.6875 C73.6094 157.6875 73.3125 157.6562 73.0156 157.5625 L72.7812 156.8125 C72.625 156.2812 72.5 156.0469 72.1406 156.0469 C71.8906 156.0469 71.7031 156.1719 71.5781 156.4219 C71.8438 157.6406 72.7812 158.1719 74.0312 158.1719 C75.7188 158.1719 76.875 157.125 76.875 155.7031 C76.875 154.5 76.2031 153.625 74.7969 153.375 C75.9531 153.0156 76.6094 152.2031 76.6094 151.2031 C76.6094 149.9219 75.6719 149.0781 74.1875 149.0781 C73.0469 149.0781 72.0625 149.5938 71.7969 150.6875 C71.9062 151 72.1094 151.1094 72.3594 151.1094 C72.7344 151.1094 72.8906 150.8906 73 150.4062 L73.2344 149.6562 Z"
      /><rect x="57" y="148" width="5" style="fill:white; stroke:none;" height="10"
      /><path style="stroke:none;" d="M58.8906 156.6875 C58.4844 156.6875 58.1562 157.0469 58.1562 157.4219 C58.1562 157.8125 58.4844 158.1562 58.8906 158.1562 C59.2969 158.1562 59.6406 157.8125 59.6406 157.4219 C59.6406 157.0469 59.2969 156.6875 58.8906 156.6875 ZM60.4688 150.5781 C60.7188 150.8906 60.875 151.2656 60.8906 151.6562 C60.8906 152.1875 60.625 152.5 60.0312 152.7656 L59.4062 153.0156 C58.6406 153.3125 58.3906 153.5469 58.3906 153.9375 C58.3906 154.1094 58.4531 154.3438 58.5781 154.8125 L58.7344 155.3438 L59.1094 155.3438 L59.0938 154.5312 C59.0938 154.0938 59.2031 153.9688 59.7812 153.7344 L60.2031 153.5625 C61.0312 153.2188 61.4531 152.6875 61.4531 151.8438 C61.4531 150.1562 59.6562 149.1875 58.5 149.0312 C58.1094 149.125 57.9062 149.2969 57.9062 149.6406 C57.9062 149.9375 58.0625 150.1562 58.7188 150.2656 L60.4688 150.5781 Z"
      /><rect x="123" y="148" width="6" style="fill:white; stroke:none;" height="9"
      /><path style="stroke:none;" d="M124.4219 156.0938 C125.0781 155.375 125.7031 154.7188 126.0312 154.3438 C127.9219 152.3125 128.5312 151.4688 128.5312 150.3594 C128.5312 149.0156 127.7812 148.0781 126.1562 148.0781 C124.9062 148.0781 123.7969 148.7031 123.5938 149.9688 C123.7188 150.2031 123.9062 150.3438 124.1562 150.3438 C124.4688 150.3438 124.6562 150.1094 124.7969 149.5938 L125.0938 148.6719 C125.3906 148.5938 125.6562 148.5625 125.8906 148.5625 C126.9219 148.5625 127.5469 149.3125 127.5469 150.4219 C127.5469 151.4375 126.9844 152.4219 125.7031 153.9062 C125.125 154.5781 124.3906 155.4375 123.6406 156.2812 L123.6406 157 L128.9219 157 L128.9219 156.0938 L124.4219 156.0938 Z"
      /><rect x="108" y="149" width="8" style="fill:white; stroke:none;" height="8"
      /><path style="stroke:none;" d="M112.9844 154.7031 C112.9375 155.8906 112.1562 156.6562 111.3125 156.6562 C110.2656 156.6562 109.5 155.6875 109.5 153.7188 C109.5 152.2812 110.1562 151.1562 111.3438 151.1562 C112.1406 151.1562 112.7812 151.6875 113.0938 152.6406 L112.9844 154.7031 ZM114.9062 156.2812 C114.7344 156.375 114.5469 156.4219 114.3438 156.4219 C113.9531 156.4219 113.75 156.2188 113.75 155.4219 C113.75 154.4844 113.9688 152.5312 114.1875 150.8281 L114.0312 150.7188 L113.2344 150.9219 L113.1406 151.7969 C112.7812 151.0312 112.1562 150.6562 111.3906 150.6562 C110.0469 150.6562 108.5625 151.8438 108.5625 153.9531 C108.5625 156.0938 109.7188 157.1719 111.1406 157.1719 C112.0156 157.1719 112.6875 156.8125 113.0938 155.9844 C113.2031 156.8594 113.5156 157.1719 114.0156 157.1719 C114.4688 157.1719 114.7969 156.9062 115.0156 156.5625 L114.9062 156.2812 Z"
      /><rect x="175" y="148" width="6" style="fill:white; stroke:none;" height="9"
      /><path style="stroke:none;" d="M176.4219 156.0938 C177.0781 155.375 177.7031 154.7188 178.0312 154.3438 C179.9219 152.3125 180.5312 151.4688 180.5312 150.3594 C180.5312 149.0156 179.7812 148.0781 178.1562 148.0781 C176.9062 148.0781 175.7969 148.7031 175.5938 149.9688 C175.7188 150.2031 175.9062 150.3438 176.1562 150.3438 C176.4688 150.3438 176.6562 150.1094 176.7969 149.5938 L177.0938 148.6719 C177.3906 148.5938 177.6562 148.5625 177.8906 148.5625 C178.9219 148.5625 179.5469 149.3125 179.5469 150.4219 C179.5469 151.4375 178.9844 152.4219 177.7031 153.9062 C177.125 154.5781 176.3906 155.4375 175.6406 156.2812 L175.6406 157 L180.9219 157 L180.9219 156.0938 L176.4219 156.0938 Z"
      /><rect x="160" y="149" width="8" style="fill:white; stroke:none;" height="8"
      /><path style="stroke:none;" d="M164.9844 154.7031 C164.9375 155.8906 164.1562 156.6562 163.3125 156.6562 C162.2656 156.6562 161.5 155.6875 161.5 153.7188 C161.5 152.2812 162.1562 151.1562 163.3438 151.1562 C164.1406 151.1562 164.7812 151.6875 165.0938 152.6406 L164.9844 154.7031 ZM166.9062 156.2812 C166.7344 156.375 166.5469 156.4219 166.3438 156.4219 C165.9531 156.4219 165.75 156.2188 165.75 155.4219 C165.75 154.4844 165.9688 152.5312 166.1875 150.8281 L166.0312 150.7188 L165.2344 150.9219 L165.1406 151.7969 C164.7812 151.0312 164.1562 150.6562 163.3906 150.6562 C162.0469 150.6562 160.5625 151.8438 160.5625 153.9531 C160.5625 156.0938 161.7188 157.1719 163.1406 157.1719 C164.0156 157.1719 164.6875 156.8125 165.0938 155.9844 C165.2031 156.8594 165.5156 157.1719 166.0156 157.1719 C166.4688 157.1719 166.7969 156.9062 167.0156 156.5625 L166.9062 156.2812 Z"
      /><polygon style="fill:none;" points=" 197 67 145 93"
      /><polygon style="fill:none;" points=" 197 67 145 41"
      /><circle style="fill:white; clip-path:url(#clipPath7); stroke:none;" r="11" cx="197" cy="67"
      /><rect x="186" y="56" width="22" style="clip-path:url(#clipPath7); fill:rgb(0,166,81); stroke:none;" height="22"
      /><rect x="186" y="56" width="22" style="fill:none; clip-path:url(#clipPath7);" height="22"
      /><circle r="11" style="fill:none;" cx="197" cy="67"
      /><polygon style="fill:none;" points=" 145 93 93 93"
      /><circle style="fill:white; clip-path:url(#clipPath8); stroke:none;" r="11" cx="145" cy="93"
      /><rect x="134" y="82" width="22" style="clip-path:url(#clipPath8); fill:rgb(0,166,81); stroke:none;" height="22"
      /><rect x="134" y="82" width="22" style="fill:none; clip-path:url(#clipPath8);" height="22"
      /><circle r="11" style="fill:none;" cx="145" cy="93"
      /><circle style="fill:white; clip-path:url(#clipPath9); stroke:none;" r="11" cx="93" cy="93"
      /><rect x="82" y="82" width="22" style="clip-path:url(#clipPath9); fill:rgb(0,166,81); stroke:none;" height="22"
      /><rect x="82" y="82" width="22" style="fill:none; clip-path:url(#clipPath9);" height="22"
      /><circle r="11" style="fill:none;" cx="93" cy="93"
      /><rect x="123" y="96" width="6" style="fill:white; stroke:none;" height="9"
      /><path style="stroke:none;" d="M124.4219 104.0938 C125.0781 103.375 125.7031 102.7188 126.0312 102.3438 C127.9219 100.3125 128.5312 99.4688 128.5312 98.3594 C128.5312 97.0156 127.7812 96.0781 126.1562 96.0781 C124.9062 96.0781 123.7969 96.7031 123.5938 97.9688 C123.7188 98.2031 123.9062 98.3438 124.1562 98.3438 C124.4688 98.3438 124.6562 98.1094 124.7969 97.5938 L125.0938 96.6719 C125.3906 96.5938 125.6562 96.5625 125.8906 96.5625 C126.9219 96.5625 127.5469 97.3125 127.5469 98.4219 C127.5469 99.4375 126.9844 100.4219 125.7031 101.9062 C125.125 102.5781 124.3906 103.4375 123.6406 104.2812 L123.6406 105 L128.9219 105 L128.9219 104.0938 L124.4219 104.0938 Z"
      /><rect x="108" y="97" width="8" style="fill:white; stroke:none;" height="8"
      /><path style="stroke:none;" d="M112.9844 102.7031 C112.9375 103.8906 112.1562 104.6562 111.3125 104.6562 C110.2656 104.6562 109.5 103.6875 109.5 101.7188 C109.5 100.2812 110.1562 99.1562 111.3438 99.1562 C112.1406 99.1562 112.7812 99.6875 113.0938 100.6406 L112.9844 102.7031 ZM114.9062 104.2812 C114.7344 104.375 114.5469 104.4219 114.3438 104.4219 C113.9531 104.4219 113.75 104.2188 113.75 103.4219 C113.75 102.4844 113.9688 100.5312 114.1875 98.8281 L114.0312 98.7188 L113.2344 98.9219 L113.1406 99.7969 C112.7812 99.0312 112.1562 98.6562 111.3906 98.6562 C110.0469 98.6562 108.5625 99.8438 108.5625 101.9531 C108.5625 104.0938 109.7188 105.1719 111.1406 105.1719 C112.0156 105.1719 112.6875 104.8125 113.0938 103.9844 C113.2031 104.8594 113.5156 105.1719 114.0156 105.1719 C114.4688 105.1719 114.7969 104.9062 115.0156 104.5625 L114.9062 104.2812 Z"
      /><polygon style="fill:none;" points=" 145 41 93 41"
      /><circle style="fill:white; clip-path:url(#clipPath10); stroke:none;" r="11" cx="145" cy="41"
      /><rect x="134" y="30" width="22" style="clip-path:url(#clipPath10); fill:rgb(0,166,81); stroke:none;" height="22"
      /><rect x="134" y="30" width="22" style="fill:none; clip-path:url(#clipPath10);" height="22"
      /><circle r="11" style="fill:none;" cx="145" cy="41"
      /><circle style="fill:white; clip-path:url(#clipPath11); stroke:none;" r="11" cx="93" cy="41"
      /><rect x="82" y="30" width="22" style="clip-path:url(#clipPath11); fill:rgb(0,166,81); stroke:none;" height="22"
      /><rect x="82" y="30" width="22" style="fill:none; clip-path:url(#clipPath11);" height="22"
      /><circle r="11" style="fill:none;" cx="93" cy="41"
      /><rect x="123" y="44" width="6" style="fill:white; stroke:none;" height="9"
      /><path style="stroke:none;" d="M124.4219 52.0938 C125.0781 51.375 125.7031 50.7188 126.0312 50.3438 C127.9219 48.3125 128.5312 47.4688 128.5312 46.3594 C128.5312 45.0156 127.7812 44.0781 126.1562 44.0781 C124.9062 44.0781 123.7969 44.7031 123.5938 45.9688 C123.7188 46.2031 123.9062 46.3438 124.1562 46.3438 C124.4688 46.3438 124.6562 46.1094 124.7969 45.5938 L125.0938 44.6719 C125.3906 44.5938 125.6562 44.5625 125.8906 44.5625 C126.9219 44.5625 127.5469 45.3125 127.5469 46.4219 C127.5469 47.4375 126.9844 48.4219 125.7031 49.9062 C125.125 50.5781 124.3906 51.4375 123.6406 52.2812 L123.6406 53 L128.9219 53 L128.9219 52.0938 L124.4219 52.0938 Z"
      /><rect x="108" y="45" width="8" style="fill:white; stroke:none;" height="8"
      /><path style="stroke:none;" d="M112.9844 50.7031 C112.9375 51.8906 112.1562 52.6562 111.3125 52.6562 C110.2656 52.6562 109.5 51.6875 109.5 49.7188 C109.5 48.2812 110.1562 47.1562 111.3438 47.1562 C112.1406 47.1562 112.7812 47.6875 113.0938 48.6406 L112.9844 50.7031 ZM114.9062 52.2812 C114.7344 52.375 114.5469 52.4219 114.3438 52.4219 C113.9531 52.4219 113.75 52.2188 113.75 51.4219 C113.75 50.4844 113.9688 48.5312 114.1875 46.8281 L114.0312 46.7188 L113.2344 46.9219 L113.1406 47.7969 C112.7812 47.0312 112.1562 46.6562 111.3906 46.6562 C110.0469 46.6562 108.5625 47.8438 108.5625 49.9531 C108.5625 52.0938 109.7188 53.1719 111.1406 53.1719 C112.0156 53.1719 112.6875 52.8125 113.0938 51.9844 C113.2031 52.8594 113.5156 53.1719 114.0156 53.1719 C114.4688 53.1719 114.7969 52.9062 115.0156 52.5625 L114.9062 52.2812 Z"
      /><rect x="179" y="78" width="6" style="fill:white; stroke:none;" height="10"
      /><path style="stroke:none;" d="M181.2344 79.6562 C181.5156 79.5938 181.7656 79.5625 182.0156 79.5625 C183.0625 79.5625 183.6719 80.1719 183.6719 81.2656 C183.6719 82.4375 182.9062 83.1094 181.7031 83.1094 L181.1875 83.1094 L181.1875 83.6406 L181.7969 83.6406 C183.2188 83.6406 183.9062 84.4219 183.9062 85.6406 C183.9062 86.8438 183.1719 87.6875 181.875 87.6875 C181.6094 87.6875 181.3125 87.6562 181.0156 87.5625 L180.7812 86.8125 C180.625 86.2812 180.5 86.0469 180.1406 86.0469 C179.8906 86.0469 179.7031 86.1719 179.5781 86.4219 C179.8438 87.6406 180.7812 88.1719 182.0312 88.1719 C183.7188 88.1719 184.875 87.125 184.875 85.7031 C184.875 84.5 184.2031 83.625 182.7969 83.375 C183.9531 83.0156 184.6094 82.2031 184.6094 81.2031 C184.6094 79.9219 183.6719 79.0781 182.1875 79.0781 C181.0469 79.0781 180.0625 79.5938 179.7969 80.6875 C179.9062 81 180.1094 81.1094 180.3594 81.1094 C180.7344 81.1094 180.8906 80.8906 181 80.4062 L181.2344 79.6562 Z"
      /><rect x="162" y="87" width="8" style="fill:white; stroke:none;" height="8"
      /><path style="stroke:none;" d="M166.9844 92.7031 C166.9375 93.8906 166.1562 94.6562 165.3125 94.6562 C164.2656 94.6562 163.5 93.6875 163.5 91.7188 C163.5 90.2812 164.1562 89.1562 165.3438 89.1562 C166.1406 89.1562 166.7812 89.6875 167.0938 90.6406 L166.9844 92.7031 ZM168.9062 94.2812 C168.7344 94.375 168.5469 94.4219 168.3438 94.4219 C167.9531 94.4219 167.75 94.2188 167.75 93.4219 C167.75 92.4844 167.9688 90.5312 168.1875 88.8281 L168.0312 88.7188 L167.2344 88.9219 L167.1406 89.7969 C166.7812 89.0312 166.1562 88.6562 165.3906 88.6562 C164.0469 88.6562 162.5625 89.8438 162.5625 91.9531 C162.5625 94.0938 163.7188 95.1719 165.1406 95.1719 C166.0156 95.1719 166.6875 94.8125 167.0938 93.9844 C167.2031 94.8594 167.5156 95.1719 168.0156 95.1719 C168.4688 95.1719 168.7969 94.9062 169.0156 94.5625 L168.9062 94.2812 Z"
      /><rect x="172" y="60" width="6" style="fill:white; stroke:none;" height="10"
      /><path style="stroke:none;" d="M175.3438 69.6875 C174.2031 69.6875 173.5312 68.5 173.5312 66.2969 C173.5312 66.2188 173.5312 66.125 173.5312 66.0469 C174.0938 65.5 174.7188 65.3125 175.3438 65.3125 C176.3125 65.3125 176.9531 65.9844 176.9531 67.4531 C176.9531 68.9375 176.3125 69.6875 175.3438 69.6875 ZM177.5312 61.0781 C174.3438 61.4531 172.5625 63.7656 172.5625 66.4531 C172.5625 68.7812 173.6094 70.1719 175.3125 70.1719 C176.8438 70.1719 177.9219 69.1094 177.9219 67.2812 C177.9219 65.6875 176.9688 64.6562 175.5625 64.6562 C174.8281 64.6562 174.1406 64.9844 173.5781 65.5781 C173.7969 63.4062 175.0781 61.9688 177.5938 61.3906 L177.5312 61.0781 Z"
      /><rect x="155" y="53" width="8" style="fill:white; stroke:none;" height="8"
      /><path style="stroke:none;" d="M159.9844 58.7031 C159.9375 59.8906 159.1562 60.6562 158.3125 60.6562 C157.2656 60.6562 156.5 59.6875 156.5 57.7188 C156.5 56.2812 157.1562 55.1562 158.3438 55.1562 C159.1406 55.1562 159.7812 55.6875 160.0938 56.6406 L159.9844 58.7031 ZM161.9062 60.2812 C161.7344 60.375 161.5469 60.4219 161.3438 60.4219 C160.9531 60.4219 160.75 60.2188 160.75 59.4219 C160.75 58.4844 160.9688 56.5312 161.1875 54.8281 L161.0312 54.7188 L160.2344 54.9219 L160.1406 55.7969 C159.7812 55.0312 159.1562 54.6562 158.3906 54.6562 C157.0469 54.6562 155.5625 55.8438 155.5625 57.9531 C155.5625 60.0938 156.7188 61.1719 158.1406 61.1719 C159.0156 61.1719 159.6875 60.8125 160.0938 59.9844 C160.2031 60.8594 160.5156 61.1719 161.0156 61.1719 C161.4688 61.1719 161.7969 60.9062 162.0156 60.5625 L161.9062 60.2812 Z"
      /><rect x="233" y="120" width="6" style="fill:white; stroke:none;" height="10"
      /><path style="stroke:none;" d="M235.2344 121.6562 C235.5156 121.5938 235.7656 121.5625 236.0156 121.5625 C237.0625 121.5625 237.6719 122.1719 237.6719 123.2656 C237.6719 124.4375 236.9062 125.1094 235.7031 125.1094 L235.1875 125.1094 L235.1875 125.6406 L235.7969 125.6406 C237.2188 125.6406 237.9062 126.4219 237.9062 127.6406 C237.9062 128.8438 237.1719 129.6875 235.875 129.6875 C235.6094 129.6875 235.3125 129.6562 235.0156 129.5625 L234.7812 128.8125 C234.625 128.2812 234.5 128.0469 234.1406 128.0469 C233.8906 128.0469 233.7031 128.1719 233.5781 128.4219 C233.8438 129.6406 234.7812 130.1719 236.0312 130.1719 C237.7188 130.1719 238.875 129.125 238.875 127.7031 C238.875 126.5 238.2031 125.625 236.7969 125.375 C237.9531 125.0156 238.6094 124.2031 238.6094 123.2031 C238.6094 121.9219 237.6719 121.0781 236.1875 121.0781 C235.0469 121.0781 234.0625 121.5938 233.7969 122.6875 C233.9062 123 234.1094 123.1094 234.3594 123.1094 C234.7344 123.1094 234.8906 122.8906 235 122.4062 L235.2344 121.6562 Z"
      /><rect x="215" y="134" width="8" style="fill:white; stroke:none;" height="8"
      /><path style="stroke:none;" d="M219.9844 139.7031 C219.9375 140.8906 219.1562 141.6562 218.3125 141.6562 C217.2656 141.6562 216.5 140.6875 216.5 138.7188 C216.5 137.2812 217.1562 136.1562 218.3438 136.1562 C219.1406 136.1562 219.7812 136.6875 220.0938 137.6406 L219.9844 139.7031 ZM221.9062 141.2812 C221.7344 141.375 221.5469 141.4219 221.3438 141.4219 C220.9531 141.4219 220.75 141.2188 220.75 140.4219 C220.75 139.4844 220.9688 137.5312 221.1875 135.8281 L221.0312 135.7188 L220.2344 135.9219 L220.1406 136.7969 C219.7812 136.0312 219.1562 135.6562 218.3906 135.6562 C217.0469 135.6562 215.5625 136.8438 215.5625 138.9531 C215.5625 141.0938 216.7188 142.1719 218.1406 142.1719 C219.0156 142.1719 219.6875 141.8125 220.0938 140.9844 C220.2031 141.8594 220.5156 142.1719 221.0156 142.1719 C221.4688 142.1719 221.7969 141.9062 222.0156 141.5625 L221.9062 141.2812 Z"
      /><rect x="223" y="94" width="6" style="fill:white; stroke:none;" height="10"
      /><path style="stroke:none;" d="M226.3438 103.6875 C225.2031 103.6875 224.5312 102.5 224.5312 100.2969 C224.5312 100.2188 224.5312 100.125 224.5312 100.0469 C225.0938 99.5 225.7188 99.3125 226.3438 99.3125 C227.3125 99.3125 227.9531 99.9844 227.9531 101.4531 C227.9531 102.9375 227.3125 103.6875 226.3438 103.6875 ZM228.5312 95.0781 C225.3438 95.4531 223.5625 97.7656 223.5625 100.4531 C223.5625 102.7812 224.6094 104.1719 226.3125 104.1719 C227.8438 104.1719 228.9219 103.1094 228.9219 101.2812 C228.9219 99.6875 227.9688 98.6562 226.5625 98.6562 C225.8281 98.6562 225.1406 98.9844 224.5781 99.5781 C224.7969 97.4062 226.0781 95.9688 228.5938 95.3906 L228.5312 95.0781 Z"
      /><rect x="205" y="82" width="8" style="fill:white; stroke:none;" height="8"
      /><path style="stroke:none;" d="M209.9844 87.7031 C209.9375 88.8906 209.1562 89.6562 208.3125 89.6562 C207.2656 89.6562 206.5 88.6875 206.5 86.7188 C206.5 85.2812 207.1562 84.1562 208.3438 84.1562 C209.1406 84.1562 209.7812 84.6875 210.0938 85.6406 L209.9844 87.7031 ZM211.9062 89.2812 C211.7344 89.375 211.5469 89.4219 211.3438 89.4219 C210.9531 89.4219 210.75 89.2188 210.75 88.4219 C210.75 87.4844 210.9688 85.5312 211.1875 83.8281 L211.0312 83.7188 L210.2344 83.9219 L210.1406 84.7969 C209.7812 84.0312 209.1562 83.6562 208.3906 83.6562 C207.0469 83.6562 205.5625 84.8438 205.5625 86.9531 C205.5625 89.0938 206.7188 90.1719 208.1406 90.1719 C209.0156 90.1719 209.6875 89.8125 210.0938 88.9844 C210.2031 89.8594 210.5156 90.1719 211.0156 90.1719 C211.4688 90.1719 211.7969 89.9062 212.0156 89.5625 L211.9062 89.2812 Z"
      /><rect x="279" y="109" width="6" style="fill:white; stroke:none;" height="10"
      /><path style="stroke:none;" d="M281.2344 110.6562 C281.5156 110.5938 281.7656 110.5625 282.0156 110.5625 C283.0625 110.5625 283.6719 111.1719 283.6719 112.2656 C283.6719 113.4375 282.9062 114.1094 281.7031 114.1094 L281.1875 114.1094 L281.1875 114.6406 L281.7969 114.6406 C283.2188 114.6406 283.9062 115.4219 283.9062 116.6406 C283.9062 117.8438 283.1719 118.6875 281.875 118.6875 C281.6094 118.6875 281.3125 118.6562 281.0156 118.5625 L280.7812 117.8125 C280.625 117.2812 280.5 117.0469 280.1406 117.0469 C279.8906 117.0469 279.7031 117.1719 279.5781 117.4219 C279.8438 118.6406 280.7812 119.1719 282.0312 119.1719 C283.7188 119.1719 284.875 118.125 284.875 116.7031 C284.875 115.5 284.2031 114.625 282.7969 114.375 C283.9531 114.0156 284.6094 113.2031 284.6094 112.2031 C284.6094 110.9219 283.6719 110.0781 282.1875 110.0781 C281.0469 110.0781 280.0625 110.5938 279.7969 111.6875 C279.9062 112 280.1094 112.1094 280.3594 112.1094 C280.7344 112.1094 280.8906 111.8906 281 111.4062 L281.2344 110.6562 Z"
      /><rect x="265" y="107" width="6" style="fill:white; stroke:none;" height="13"
      /><path style="stroke:none;" d="M267.0938 113.2031 C267.0938 111.6562 267.75 110.8125 268.7969 110.8125 C269.7188 110.8125 270.2656 111.4531 270.2656 112.5156 C270.2656 113.7188 269.5 114.4375 268.1875 114.7031 L268.2969 115.3125 C270.2188 115.2344 270.9375 116.2188 270.9375 117.4375 C270.9375 118.625 270.2344 119.4219 268.9531 119.4219 C268.25 119.4219 267.6562 119.1562 267.0938 118.7188 L267.0938 113.2031 ZM266.2031 119.9062 L266.1094 122.375 L266.2656 122.4844 L267.1562 122.2656 L267.0156 119.0938 C267.5469 119.8438 268.3594 120.1719 269.1719 120.1719 C270.5625 120.1719 271.8594 119.2188 271.8594 117.4844 C271.8594 115.9531 270.875 115.1094 269.125 115 C270.5625 114.6094 271.1875 113.4531 271.1875 112.4844 C271.1875 111.0938 270.1562 110.3125 268.9062 110.3125 C267.2969 110.3125 266.2188 111.5469 266.2188 113.5156 L266.2031 119.9062 Z"
      /><rect x="317" y="109" width="5" style="fill:white; stroke:none;" height="10"
      /><path style="stroke:none;" d="M318.8906 117.6875 C318.4844 117.6875 318.1562 118.0469 318.1562 118.4219 C318.1562 118.8125 318.4844 119.1562 318.8906 119.1562 C319.2969 119.1562 319.6406 118.8125 319.6406 118.4219 C319.6406 118.0469 319.2969 117.6875 318.8906 117.6875 ZM320.4688 111.5781 C320.7188 111.8906 320.875 112.2656 320.8906 112.6562 C320.8906 113.1875 320.625 113.5 320.0312 113.7656 L319.4062 114.0156 C318.6406 114.3125 318.3906 114.5469 318.3906 114.9375 C318.3906 115.1094 318.4531 115.3438 318.5781 115.8125 L318.7344 116.3438 L319.1094 116.3438 L319.0938 115.5312 C319.0938 115.0938 319.2031 114.9688 319.7812 114.7344 L320.2031 114.5625 C321.0312 114.2188 321.4531 113.6875 321.4531 112.8438 C321.4531 111.1562 319.6562 110.1875 318.5 110.0312 C318.1094 110.125 317.9062 110.2969 317.9062 110.6406 C317.9062 110.9375 318.0625 111.1562 318.7188 111.2656 L320.4688 111.5781 Z"
    /></g
  ></g
></svg
>
