<?xml version="1.0"?>
<!DOCTYPE svg PUBLIC '-//W3C//DTD SVG 1.0//EN'
          'http://www.w3.org/TR/2001/REC-SVG-20010904/DTD/svg10.dtd'>
<svg xmlns:xlink="http://www.w3.org/1999/xlink" style="fill-opacity:1; color-rendering:auto; color-interpolation:auto; text-rendering:auto; stroke:black; stroke-linecap:square; stroke-miterlimit:10; shape-rendering:auto; stroke-opacity:1; fill:black; stroke-dasharray:none; font-weight:normal; stroke-width:1; font-family:'Dialog'; font-style:normal; stroke-linejoin:miter; font-size:12px; stroke-dashoffset:0; image-rendering:auto;" viewBox="0 0 394 212" xmlns="http://www.w3.org/2000/svg"
><!--Generated by the Batik Graphics2D SVG Generator--><defs id="genericDefs"
  /><g
  ><defs id="defs1"
    ><clipPath clipPathUnits="userSpaceOnUse" id="clipPath1"
      ><path d="M290 82 L312 82 L312 104 L290 104 L290 82 Z"
      /></clipPath
      ><clipPath clipPathUnits="userSpaceOnUse" id="clipPath2"
      ><path d="M238 82 L260 82 L260 104 L238 104 L238 82 Z"
      /></clipPath
      ><clipPath clipPathUnits="userSpaceOnUse" id="clipPath3"
      ><path d="M208 93 C208 99.0751 203.0751 104 197 104 C190.9249 104 186 99.0751 186 93 C186 86.9249 190.9249 82 197 82 C203.0751 82 208 86.9249 208 93 Z"
      /></clipPath
      ><clipPath clipPathUnits="userSpaceOnUse" id="clipPath4"
      ><path d="M156 119 C156 125.0751 151.0751 130 145 130 C138.9249 130 134 125.0751 134 119 C134 112.9249 138.9249 108 145 108 C151.0751 108 156 112.9249 156 119 Z"
      /></clipPath
      ><clipPath clipPathUnits="userSpaceOnUse" id="clipPath5"
      ><path d="M82 108 L104 108 L104 130 L82 130 L82 108 Z"
      /></clipPath
      ><clipPath clipPathUnits="userSpaceOnUse" id="clipPath6"
      ><path style="fill-rule:evenodd;" d="M93 160 L104 182 L82 182 Z"
      /></clipPath
      ><clipPath clipPathUnits="userSpaceOnUse" id="clipPath7"
      ><path d="M52 119 C52 125.0751 47.0751 130 41 130 C34.9249 130 30 125.0751 30 119 C30 112.9249 34.9249 108 41 108 C47.0751 108 52 112.9249 52 119 Z"
      /></clipPath
      ><clipPath clipPathUnits="userSpaceOnUse" id="clipPath8"
      ><path style="fill-rule:evenodd;" d="M41 160 L52 182 L30 182 Z"
      /></clipPath
      ><clipPath clipPathUnits="userSpaceOnUse" id="clipPath9"
      ><path d="M156 67 C156 73.0751 151.0751 78 145 78 C138.9249 78 134 73.0751 134 67 C134 60.9249 138.9249 56 145 56 C151.0751 56 156 60.9249 156 67 Z"
      /></clipPath
      ><clipPath clipPathUnits="userSpaceOnUse" id="clipPath10"
      ><path d="M104 67 C104 73.0751 99.0751 78 93 78 C86.9249 78 82 73.0751 82 67 C82 60.9249 86.9249 56 93 56 C99.0751 56 104 60.9249 104 67 Z"
      /></clipPath
      ><clipPath clipPathUnits="userSpaceOnUse" id="clipPath11"
      ><path style="fill-rule:evenodd;" d="M301 52 L290 30 L312 30 Z"
      /></clipPath
    ></defs
    ><g style="fill:white; text-rendering:optimizeSpeed; stroke:white;"
    ><rect x="0" width="394" height="212" y="0" style="stroke:none;"
      /><polygon style="fill:none; stroke:black;" points=" 353 93 301 93"
      /><path d="M353 82 C347.5 87.5 358.5 98.5 353 104" style="fill:none; stroke:black;"
      /><polygon style="fill:none; stroke:black;" points=" 301 93 249 93"
      /><polygon style="fill:none; stroke:black;" points=" 301 93 301 41"
      /><rect x="290" y="82" width="22" style="clip-path:url(#clipPath1); stroke:none;" height="22"
      /><rect x="290" y="82" width="22" style="clip-path:url(#clipPath1); fill:rgb(0,144,188); stroke:none;" height="22"
      /><rect x="290" y="82" width="22" style="clip-path:url(#clipPath1); fill:none; stroke:black;" height="22"
      /><rect x="290" y="82" width="22" style="fill:none; stroke:black;" height="22"
      /><polygon style="fill:none; stroke:black;" points=" 249 93 197 93"
      /><rect x="238" y="82" width="22" style="clip-path:url(#clipPath2); stroke:none;" height="22"
      /><rect x="238" y="82" width="22" style="clip-path:url(#clipPath2); fill:rgb(0,144,188); stroke:none;" height="22"
      /><rect x="238" y="82" width="22" style="clip-path:url(#clipPath2); fill:none; stroke:black;" height="22"
      /><rect x="238" y="82" width="22" style="fill:none; stroke:black;" height="22"
      /><polygon style="fill:none; stroke:black;" points=" 197 93 145 119"
      /><polygon style="fill:none; stroke:black;" points=" 197 93 145 67"
      /><circle style="clip-path:url(#clipPath3); stroke:none;" r="11" cx="197" cy="93"
      /><rect x="186" y="82" width="22" style="clip-path:url(#clipPath3); fill:rgb(0,166,81); stroke:none;" height="22"
      /><rect x="186" y="82" width="22" style="clip-path:url(#clipPath3); fill:none; stroke:black;" height="22"
      /><circle style="fill:none; stroke:black;" r="11" cx="197" cy="93"
      /><polygon style="fill:none; stroke:black;" points=" 145 119 93 119"
      /><circle style="clip-path:url(#clipPath4); stroke:none;" r="11" cx="145" cy="119"
      /><rect x="134" y="108" width="22" style="clip-path:url(#clipPath4); fill:rgb(0,166,81); stroke:none;" height="22"
      /><rect x="134" y="108" width="22" style="clip-path:url(#clipPath4); fill:none; stroke:black;" height="22"
      /><circle style="fill:none; stroke:black;" r="11" cx="145" cy="119"
      /><polygon style="fill:none; stroke:black;" points=" 93 119 93 171"
      /><polygon style="fill:none; stroke:black;" points=" 93 119 41 119"
      /><rect x="82" y="108" width="22" style="clip-path:url(#clipPath5); stroke:none;" height="22"
      /><rect x="82" y="108" width="22" style="clip-path:url(#clipPath5); fill:rgb(0,144,188); stroke:none;" height="22"
      /><rect x="82" y="108" width="22" style="clip-path:url(#clipPath5); fill:none; stroke:black;" height="22"
      /><rect x="82" y="108" width="22" style="fill:none; stroke:black;" height="22"
      /><polygon style="clip-path:url(#clipPath6); stroke:none;" points=" 93 160 104 182 82 182"
      /><rect x="82" y="160" width="22" style="clip-path:url(#clipPath6); fill:rgb(237,28,36); stroke:none;" height="22"
      /><rect x="82" y="160" width="22" style="clip-path:url(#clipPath6); fill:none; stroke:black;" height="22"
      /><polygon style="fill:none; stroke:black;" points=" 93 160 104 182 82 182"
      /><polygon style="fill:none; stroke:black;" points=" 41 119 41 171"
      /><circle style="clip-path:url(#clipPath7); stroke:none;" r="11" cx="41" cy="119"
      /><rect x="30" y="108" width="22" style="clip-path:url(#clipPath7); fill:rgb(255,212,0); stroke:none;" height="22"
      /><rect x="30" y="108" width="22" style="clip-path:url(#clipPath7); fill:none; stroke:black;" height="22"
      /><circle style="fill:none; stroke:black;" r="11" cx="41" cy="119"
      /><polygon style="clip-path:url(#clipPath8); stroke:none;" points=" 41 160 52 182 30 182"
      /><rect x="30" y="160" width="22" style="clip-path:url(#clipPath8); fill:rgb(237,28,36); stroke:none;" height="22"
      /><rect x="30" y="160" width="22" style="clip-path:url(#clipPath8); fill:none; stroke:black;" height="22"
      /><polygon style="fill:none; stroke:black;" points=" 41 160 52 182 30 182"
      /><rect x="46" y="133" width="6" style="stroke:none;" height="9"
    /></g
    ><g style="font-family:'Serif'; text-rendering:optimizeSpeed; "
    ><path style="stroke:none;" d="M47.4219 141.0938 C48.0781 140.375 48.7031 139.7188 49.0312 139.3438 C50.9219 137.3125 51.5312 136.4688 51.5312 135.3594 C51.5312 134.0156 50.7812 133.0781 49.1562 133.0781 C47.9062 133.0781 46.7969 133.7031 46.5938 134.9688 C46.7188 135.2031 46.9062 135.3438 47.1562 135.3438 C47.4688 135.3438 47.6562 135.1094 47.7969 134.5938 L48.0938 133.6719 C48.3906 133.5938 48.6562 133.5625 48.8906 133.5625 C49.9219 133.5625 50.5469 134.3125 50.5469 135.4219 C50.5469 136.4375 49.9844 137.4219 48.7031 138.9062 C48.125 139.5781 47.3906 140.4375 46.6406 141.2812 L46.6406 142 L51.9219 142 L51.9219 141.0938 L47.4219 141.0938 Z"
      /><rect x="45" y="148" width="8" style="fill:white; stroke:none;" height="8"
      /><path style="stroke:none;" d="M49.9844 153.7031 C49.9375 154.8906 49.1562 155.6562 48.3125 155.6562 C47.2656 155.6562 46.5 154.6875 46.5 152.7188 C46.5 151.2812 47.1562 150.1562 48.3438 150.1562 C49.1406 150.1562 49.7812 150.6875 50.0938 151.6406 L49.9844 153.7031 ZM51.9062 155.2812 C51.7344 155.375 51.5469 155.4219 51.3438 155.4219 C50.9531 155.4219 50.75 155.2188 50.75 154.4219 C50.75 153.4844 50.9688 151.5312 51.1875 149.8281 L51.0312 149.7188 L50.2344 149.9219 L50.1406 150.7969 C49.7812 150.0312 49.1562 149.6562 48.3906 149.6562 C47.0469 149.6562 45.5625 150.8438 45.5625 152.9531 C45.5625 155.0938 46.7188 156.1719 48.1406 156.1719 C49.0156 156.1719 49.6875 155.8125 50.0938 154.9844 C50.2031 155.8594 50.5156 156.1719 51.0156 156.1719 C51.4688 156.1719 51.7969 155.9062 52.0156 155.5625 L51.9062 155.2812 Z"
      /><rect x="98" y="133" width="6" style="fill:white; stroke:none;" height="10"
      /><path style="stroke:none;" d="M100.2344 134.6562 C100.5156 134.5938 100.7656 134.5625 101.0156 134.5625 C102.0625 134.5625 102.6719 135.1719 102.6719 136.2656 C102.6719 137.4375 101.9062 138.1094 100.7031 138.1094 L100.1875 138.1094 L100.1875 138.6406 L100.7969 138.6406 C102.2188 138.6406 102.9062 139.4219 102.9062 140.6406 C102.9062 141.8438 102.1719 142.6875 100.875 142.6875 C100.6094 142.6875 100.3125 142.6562 100.0156 142.5625 L99.7812 141.8125 C99.625 141.2812 99.5 141.0469 99.1406 141.0469 C98.8906 141.0469 98.7031 141.1719 98.5781 141.4219 C98.8438 142.6406 99.7812 143.1719 101.0312 143.1719 C102.7188 143.1719 103.875 142.125 103.875 140.7031 C103.875 139.5 103.2031 138.625 101.7969 138.375 C102.9531 138.0156 103.6094 137.2031 103.6094 136.2031 C103.6094 134.9219 102.6719 134.0781 101.1875 134.0781 C100.0469 134.0781 99.0625 134.5938 98.7969 135.6875 C98.9062 136 99.1094 136.1094 99.3594 136.1094 C99.7344 136.1094 99.8906 135.8906 100 135.4062 L100.2344 134.6562 Z"
      /><rect x="97" y="148" width="8" style="fill:white; stroke:none;" height="8"
      /><path style="stroke:none;" d="M101.9844 153.7031 C101.9375 154.8906 101.1562 155.6562 100.3125 155.6562 C99.2656 155.6562 98.5 154.6875 98.5 152.7188 C98.5 151.2812 99.1562 150.1562 100.3438 150.1562 C101.1406 150.1562 101.7812 150.6875 102.0938 151.6406 L101.9844 153.7031 ZM103.9062 155.2812 C103.7344 155.375 103.5469 155.4219 103.3438 155.4219 C102.9531 155.4219 102.75 155.2188 102.75 154.4219 C102.75 153.4844 102.9688 151.5312 103.1875 149.8281 L103.0312 149.7188 L102.2344 149.9219 L102.1406 150.7969 C101.7812 150.0312 101.1562 149.6562 100.3906 149.6562 C99.0469 149.6562 97.5625 150.8438 97.5625 152.9531 C97.5625 155.0938 98.7188 156.1719 100.1406 156.1719 C101.0156 156.1719 101.6875 155.8125 102.0938 154.9844 C102.2031 155.8594 102.5156 156.1719 103.0156 156.1719 C103.4688 156.1719 103.7969 155.9062 104.0156 155.5625 L103.9062 155.2812 Z"
      /><rect x="70" y="122" width="7" style="fill:white; stroke:none;" height="9"
      /><path style="stroke:none;" d="M71 127.5156 L73.9531 123.2656 L73.9531 127.5156 L71 127.5156 ZM76.2812 127.5156 L74.8594 127.5156 L74.8594 122.125 L74.2344 122.125 L70.3438 127.6406 L70.3438 128.1875 L73.9531 128.1875 L73.9531 131 L74.8594 131 L74.8594 128.1875 L76.2812 128.1875 L76.2812 127.5156 Z"
      /><rect x="57" y="120" width="6" style="fill:white; stroke:none;" height="13"
      /><path style="stroke:none;" d="M59.0938 126.2031 C59.0938 124.6562 59.75 123.8125 60.7969 123.8125 C61.7188 123.8125 62.2656 124.4531 62.2656 125.5156 C62.2656 126.7188 61.5 127.4375 60.1875 127.7031 L60.2969 128.3125 C62.2188 128.2344 62.9375 129.2188 62.9375 130.4375 C62.9375 131.625 62.2344 132.4219 60.9531 132.4219 C60.25 132.4219 59.6562 132.1562 59.0938 131.7188 L59.0938 126.2031 ZM58.2031 132.9062 L58.1094 135.375 L58.2656 135.4844 L59.1562 135.2656 L59.0156 132.0938 C59.5469 132.8438 60.3594 133.1719 61.1719 133.1719 C62.5625 133.1719 63.8594 132.2188 63.8594 130.4844 C63.8594 128.9531 62.875 128.1094 61.125 128 C62.5625 127.6094 63.1875 126.4531 63.1875 125.4844 C63.1875 124.0938 62.1562 123.3125 60.9062 123.3125 C59.2969 123.3125 58.2188 124.5469 58.2188 126.5156 L58.2031 132.9062 Z"
      /><rect x="123" y="122" width="6" style="fill:white; stroke:none;" height="9"
      /><path style="stroke:none;" d="M124.4219 130.0938 C125.0781 129.375 125.7031 128.7188 126.0312 128.3438 C127.9219 126.3125 128.5312 125.4688 128.5312 124.3594 C128.5312 123.0156 127.7812 122.0781 126.1562 122.0781 C124.9062 122.0781 123.7969 122.7031 123.5938 123.9688 C123.7188 124.2031 123.9062 124.3438 124.1562 124.3438 C124.4688 124.3438 124.6562 124.1094 124.7969 123.5938 L125.0938 122.6719 C125.3906 122.5938 125.6562 122.5625 125.8906 122.5625 C126.9219 122.5625 127.5469 123.3125 127.5469 124.4219 C127.5469 125.4375 126.9844 126.4219 125.7031 127.9062 C125.125 128.5781 124.3906 129.4375 123.6406 130.2812 L123.6406 131 L128.9219 131 L128.9219 130.0938 L124.4219 130.0938 Z"
      /><rect x="109" y="120" width="6" style="fill:white; stroke:none;" height="13"
      /><path style="stroke:none;" d="M111.0938 126.2031 C111.0938 124.6562 111.75 123.8125 112.7969 123.8125 C113.7188 123.8125 114.2656 124.4531 114.2656 125.5156 C114.2656 126.7188 113.5 127.4375 112.1875 127.7031 L112.2969 128.3125 C114.2188 128.2344 114.9375 129.2188 114.9375 130.4375 C114.9375 131.625 114.2344 132.4219 112.9531 132.4219 C112.25 132.4219 111.6562 132.1562 111.0938 131.7188 L111.0938 126.2031 ZM110.2031 132.9062 L110.1094 135.375 L110.2656 135.4844 L111.1562 135.2656 L111.0156 132.0938 C111.5469 132.8438 112.3594 133.1719 113.1719 133.1719 C114.5625 133.1719 115.8594 132.2188 115.8594 130.4844 C115.8594 128.9531 114.875 128.1094 113.125 128 C114.5625 127.6094 115.1875 126.4531 115.1875 125.4844 C115.1875 124.0938 114.1562 123.3125 112.9062 123.3125 C111.2969 123.3125 110.2188 124.5469 110.2188 126.5156 L110.2031 132.9062 Z"
      /><polygon style="fill:none;" points=" 145 67 93 67"
      /><circle style="fill:white; clip-path:url(#clipPath9); stroke:none;" r="11" cx="145" cy="67"
      /><rect x="134" y="56" width="22" style="clip-path:url(#clipPath9); fill:rgb(0,166,81); stroke:none;" height="22"
      /><rect x="134" y="56" width="22" style="fill:none; clip-path:url(#clipPath9);" height="22"
      /><circle r="11" style="fill:none;" cx="145" cy="67"
      /><circle style="fill:white; clip-path:url(#clipPath10); stroke:none;" r="11" cx="93" cy="67"
      /><rect x="82" y="56" width="22" style="clip-path:url(#clipPath10); fill:rgb(0,166,81); stroke:none;" height="22"
      /><rect x="82" y="56" width="22" style="fill:none; clip-path:url(#clipPath10);" height="22"
      /><circle r="11" style="fill:none;" cx="93" cy="67"
      /><rect x="123" y="70" width="5" style="fill:white; stroke:none;" height="10"
      /><path style="stroke:none;" d="M124.8906 78.6875 C124.4844 78.6875 124.1562 79.0469 124.1562 79.4219 C124.1562 79.8125 124.4844 80.1562 124.8906 80.1562 C125.2969 80.1562 125.6406 79.8125 125.6406 79.4219 C125.6406 79.0469 125.2969 78.6875 124.8906 78.6875 ZM126.4688 72.5781 C126.7188 72.8906 126.875 73.2656 126.8906 73.6562 C126.8906 74.1875 126.625 74.5 126.0312 74.7656 L125.4062 75.0156 C124.6406 75.3125 124.3906 75.5469 124.3906 75.9375 C124.3906 76.1094 124.4531 76.3438 124.5781 76.8125 L124.7344 77.3438 L125.1094 77.3438 L125.0938 76.5312 C125.0938 76.0938 125.2031 75.9688 125.7812 75.7344 L126.2031 75.5625 C127.0312 75.2188 127.4531 74.6875 127.4531 73.8438 C127.4531 72.1562 125.6562 71.1875 124.5 71.0312 C124.1094 71.125 123.9062 71.2969 123.9062 71.6406 C123.9062 71.9375 124.0625 72.1562 124.7188 72.2656 L126.4688 72.5781 Z"
      /><rect x="108" y="71" width="8" style="fill:white; stroke:none;" height="8"
      /><path style="stroke:none;" d="M112.9844 76.7031 C112.9375 77.8906 112.1562 78.6562 111.3125 78.6562 C110.2656 78.6562 109.5 77.6875 109.5 75.7188 C109.5 74.2812 110.1562 73.1562 111.3438 73.1562 C112.1406 73.1562 112.7812 73.6875 113.0938 74.6406 L112.9844 76.7031 ZM114.9062 78.2812 C114.7344 78.375 114.5469 78.4219 114.3438 78.4219 C113.9531 78.4219 113.75 78.2188 113.75 77.4219 C113.75 76.4844 113.9688 74.5312 114.1875 72.8281 L114.0312 72.7188 L113.2344 72.9219 L113.1406 73.7969 C112.7812 73.0312 112.1562 72.6562 111.3906 72.6562 C110.0469 72.6562 108.5625 73.8438 108.5625 75.9531 C108.5625 78.0938 109.7188 79.1719 111.1406 79.1719 C112.0156 79.1719 112.6875 78.8125 113.0938 77.9844 C113.2031 78.8594 113.5156 79.1719 114.0156 79.1719 C114.4688 79.1719 114.7969 78.9062 115.0156 78.5625 L114.9062 78.2812 Z"
      /><rect x="179" y="104" width="6" style="fill:white; stroke:none;" height="10"
      /><path style="stroke:none;" d="M181.2344 105.6562 C181.5156 105.5938 181.7656 105.5625 182.0156 105.5625 C183.0625 105.5625 183.6719 106.1719 183.6719 107.2656 C183.6719 108.4375 182.9062 109.1094 181.7031 109.1094 L181.1875 109.1094 L181.1875 109.6406 L181.7969 109.6406 C183.2188 109.6406 183.9062 110.4219 183.9062 111.6406 C183.9062 112.8438 183.1719 113.6875 181.875 113.6875 C181.6094 113.6875 181.3125 113.6562 181.0156 113.5625 L180.7812 112.8125 C180.625 112.2812 180.5 112.0469 180.1406 112.0469 C179.8906 112.0469 179.7031 112.1719 179.5781 112.4219 C179.8438 113.6406 180.7812 114.1719 182.0312 114.1719 C183.7188 114.1719 184.875 113.125 184.875 111.7031 C184.875 110.5 184.2031 109.625 182.7969 109.375 C183.9531 109.0156 184.6094 108.2031 184.6094 107.2031 C184.6094 105.9219 183.6719 105.0781 182.1875 105.0781 C181.0469 105.0781 180.0625 105.5938 179.7969 106.6875 C179.9062 107 180.1094 107.1094 180.3594 107.1094 C180.7344 107.1094 180.8906 106.8906 181 106.4062 L181.2344 105.6562 Z"
      /><rect x="162" y="113" width="8" style="fill:white; stroke:none;" height="8"
      /><path style="stroke:none;" d="M166.9844 118.7031 C166.9375 119.8906 166.1562 120.6562 165.3125 120.6562 C164.2656 120.6562 163.5 119.6875 163.5 117.7188 C163.5 116.2812 164.1562 115.1562 165.3438 115.1562 C166.1406 115.1562 166.7812 115.6875 167.0938 116.6406 L166.9844 118.7031 ZM168.9062 120.2812 C168.7344 120.375 168.5469 120.4219 168.3438 120.4219 C167.9531 120.4219 167.75 120.2188 167.75 119.4219 C167.75 118.4844 167.9688 116.5312 168.1875 114.8281 L168.0312 114.7188 L167.2344 114.9219 L167.1406 115.7969 C166.7812 115.0312 166.1562 114.6562 165.3906 114.6562 C164.0469 114.6562 162.5625 115.8438 162.5625 117.9531 C162.5625 120.0938 163.7188 121.1719 165.1406 121.1719 C166.0156 121.1719 166.6875 120.8125 167.0938 119.9844 C167.2031 120.8594 167.5156 121.1719 168.0156 121.1719 C168.4688 121.1719 168.7969 120.9062 169.0156 120.5625 L168.9062 120.2812 Z"
      /><rect x="172" y="86" width="6" style="fill:white; stroke:none;" height="10"
      /><path style="stroke:none;" d="M175.3438 95.6875 C174.2031 95.6875 173.5312 94.5 173.5312 92.2969 C173.5312 92.2188 173.5312 92.125 173.5312 92.0469 C174.0938 91.5 174.7188 91.3125 175.3438 91.3125 C176.3125 91.3125 176.9531 91.9844 176.9531 93.4531 C176.9531 94.9375 176.3125 95.6875 175.3438 95.6875 ZM177.5312 87.0781 C174.3438 87.4531 172.5625 89.7656 172.5625 92.4531 C172.5625 94.7812 173.6094 96.1719 175.3125 96.1719 C176.8438 96.1719 177.9219 95.1094 177.9219 93.2812 C177.9219 91.6875 176.9688 90.6562 175.5625 90.6562 C174.8281 90.6562 174.1406 90.9844 173.5781 91.5781 C173.7969 89.4062 175.0781 87.9688 177.5938 87.3906 L177.5312 87.0781 Z"
      /><rect x="155" y="79" width="8" style="fill:white; stroke:none;" height="8"
      /><path style="stroke:none;" d="M159.9844 84.7031 C159.9375 85.8906 159.1562 86.6562 158.3125 86.6562 C157.2656 86.6562 156.5 85.6875 156.5 83.7188 C156.5 82.2812 157.1562 81.1562 158.3438 81.1562 C159.1406 81.1562 159.7812 81.6875 160.0938 82.6406 L159.9844 84.7031 ZM161.9062 86.2812 C161.7344 86.375 161.5469 86.4219 161.3438 86.4219 C160.9531 86.4219 160.75 86.2188 160.75 85.4219 C160.75 84.4844 160.9688 82.5312 161.1875 80.8281 L161.0312 80.7188 L160.2344 80.9219 L160.1406 81.7969 C159.7812 81.0312 159.1562 80.6562 158.3906 80.6562 C157.0469 80.6562 155.5625 81.8438 155.5625 83.9531 C155.5625 86.0938 156.7188 87.1719 158.1406 87.1719 C159.0156 87.1719 159.6875 86.8125 160.0938 85.9844 C160.2031 86.8594 160.5156 87.1719 161.0156 87.1719 C161.4688 87.1719 161.7969 86.9062 162.0156 86.5625 L161.9062 86.2812 Z"
      /><rect x="226" y="96" width="7" style="fill:white; stroke:none;" height="9"
      /><path style="stroke:none;" d="M227 101.5156 L229.9531 97.2656 L229.9531 101.5156 L227 101.5156 ZM232.2812 101.5156 L230.8594 101.5156 L230.8594 96.125 L230.2344 96.125 L226.3438 101.6406 L226.3438 102.1875 L229.9531 102.1875 L229.9531 105 L230.8594 105 L230.8594 102.1875 L232.2812 102.1875 L232.2812 101.5156 Z"
      /><rect x="213" y="94" width="6" style="fill:white; stroke:none;" height="13"
      /><path style="stroke:none;" d="M215.0938 100.2031 C215.0938 98.6562 215.75 97.8125 216.7969 97.8125 C217.7188 97.8125 218.2656 98.4531 218.2656 99.5156 C218.2656 100.7188 217.5 101.4375 216.1875 101.7031 L216.2969 102.3125 C218.2188 102.2344 218.9375 103.2188 218.9375 104.4375 C218.9375 105.625 218.2344 106.4219 216.9531 106.4219 C216.25 106.4219 215.6562 106.1562 215.0938 105.7188 L215.0938 100.2031 ZM214.2031 106.9062 L214.1094 109.375 L214.2656 109.4844 L215.1562 109.2656 L215.0156 106.0938 C215.5469 106.8438 216.3594 107.1719 217.1719 107.1719 C218.5625 107.1719 219.8594 106.2188 219.8594 104.4844 C219.8594 102.9531 218.875 102.1094 217.125 102 C218.5625 101.6094 219.1875 100.4531 219.1875 99.4844 C219.1875 98.0938 218.1562 97.3125 216.9062 97.3125 C215.2969 97.3125 214.2188 98.5469 214.2188 100.5156 L214.2031 106.9062 Z"
      /><polygon style="fill:white; clip-path:url(#clipPath11); stroke:none;" points=" 301 52 290 30 312 30"
      /><rect x="290" y="30" width="22" style="clip-path:url(#clipPath11); fill:rgb(237,28,36); stroke:none;" height="22"
      /><rect x="290" y="30" width="22" style="fill:none; clip-path:url(#clipPath11);" height="22"
      /><polygon style="fill:none;" points=" 301 52 290 30 312 30"
      /><rect x="278" y="96" width="7" style="fill:white; stroke:none;" height="9"
      /><path style="stroke:none;" d="M279 101.5156 L281.9531 97.2656 L281.9531 101.5156 L279 101.5156 ZM284.2812 101.5156 L282.8594 101.5156 L282.8594 96.125 L282.2344 96.125 L278.3438 101.6406 L278.3438 102.1875 L281.9531 102.1875 L281.9531 105 L282.8594 105 L282.8594 102.1875 L284.2812 102.1875 L284.2812 101.5156 Z"
      /><rect x="265" y="94" width="6" style="fill:white; stroke:none;" height="13"
      /><path style="stroke:none;" d="M267.0938 100.2031 C267.0938 98.6562 267.75 97.8125 268.7969 97.8125 C269.7188 97.8125 270.2656 98.4531 270.2656 99.5156 C270.2656 100.7188 269.5 101.4375 268.1875 101.7031 L268.2969 102.3125 C270.2188 102.2344 270.9375 103.2188 270.9375 104.4375 C270.9375 105.625 270.2344 106.4219 268.9531 106.4219 C268.25 106.4219 267.6562 106.1562 267.0938 105.7188 L267.0938 100.2031 ZM266.2031 106.9062 L266.1094 109.375 L266.2656 109.4844 L267.1562 109.2656 L267.0156 106.0938 C267.5469 106.8438 268.3594 107.1719 269.1719 107.1719 C270.5625 107.1719 271.8594 106.2188 271.8594 104.4844 C271.8594 102.9531 270.875 102.1094 269.125 102 C270.5625 101.6094 271.1875 100.4531 271.1875 99.4844 C271.1875 98.0938 270.1562 97.3125 268.9062 97.3125 C267.2969 97.3125 266.2188 98.5469 266.2188 100.5156 L266.2031 106.9062 Z"
      /><rect x="290" y="69" width="6" style="fill:white; stroke:none;" height="10"
      /><path style="stroke:none;" d="M293.3438 78.6875 C292.2031 78.6875 291.5312 77.5 291.5312 75.2969 C291.5312 75.2188 291.5312 75.125 291.5312 75.0469 C292.0938 74.5 292.7188 74.3125 293.3438 74.3125 C294.3125 74.3125 294.9531 74.9844 294.9531 76.4531 C294.9531 77.9375 294.3125 78.6875 293.3438 78.6875 ZM295.5312 70.0781 C292.3438 70.4531 290.5625 72.7656 290.5625 75.4531 C290.5625 77.7812 291.6094 79.1719 293.3125 79.1719 C294.8438 79.1719 295.9219 78.1094 295.9219 76.2812 C295.9219 74.6875 294.9688 73.6562 293.5625 73.6562 C292.8281 73.6562 292.1406 73.9844 291.5781 74.5781 C291.7969 72.4062 293.0781 70.9688 295.5938 70.3906 L295.5312 70.0781 Z"
      /><rect x="289" y="56" width="8" style="fill:white; stroke:none;" height="8"
      /><path style="stroke:none;" d="M293.9844 61.7031 C293.9375 62.8906 293.1562 63.6562 292.3125 63.6562 C291.2656 63.6562 290.5 62.6875 290.5 60.7188 C290.5 59.2812 291.1562 58.1562 292.3438 58.1562 C293.1406 58.1562 293.7812 58.6875 294.0938 59.6406 L293.9844 61.7031 ZM295.9062 63.2812 C295.7344 63.375 295.5469 63.4219 295.3438 63.4219 C294.9531 63.4219 294.75 63.2188 294.75 62.4219 C294.75 61.4844 294.9688 59.5312 295.1875 57.8281 L295.0312 57.7188 L294.2344 57.9219 L294.1406 58.7969 C293.7812 58.0312 293.1562 57.6562 292.3906 57.6562 C291.0469 57.6562 289.5625 58.8438 289.5625 60.9531 C289.5625 63.0938 290.7188 64.1719 292.1406 64.1719 C293.0156 64.1719 293.6875 63.8125 294.0938 62.9844 C294.2031 63.8594 294.5156 64.1719 295.0156 64.1719 C295.4688 64.1719 295.7969 63.9062 296.0156 63.5625 L295.9062 63.2812 Z"
      /><rect x="317" y="96" width="5" style="fill:white; stroke:none;" height="10"
      /><path style="stroke:none;" d="M318.8906 104.6875 C318.4844 104.6875 318.1562 105.0469 318.1562 105.4219 C318.1562 105.8125 318.4844 106.1562 318.8906 106.1562 C319.2969 106.1562 319.6406 105.8125 319.6406 105.4219 C319.6406 105.0469 319.2969 104.6875 318.8906 104.6875 ZM320.4688 98.5781 C320.7188 98.8906 320.875 99.2656 320.8906 99.6562 C320.8906 100.1875 320.625 100.5 320.0312 100.7656 L319.4062 101.0156 C318.6406 101.3125 318.3906 101.5469 318.3906 101.9375 C318.3906 102.1094 318.4531 102.3438 318.5781 102.8125 L318.7344 103.3438 L319.1094 103.3438 L319.0938 102.5312 C319.0938 102.0938 319.2031 101.9688 319.7812 101.7344 L320.2031 101.5625 C321.0312 101.2188 321.4531 100.6875 321.4531 99.8438 C321.4531 98.1562 319.6562 97.1875 318.5 97.0312 C318.1094 97.125 317.9062 97.2969 317.9062 97.6406 C317.9062 97.9375 318.0625 98.1562 318.7188 98.2656 L320.4688 98.5781 Z"
    /></g
  ></g
></svg
>
