<?xml version="1.0"?>
<!DOCTYPE svg PUBLIC '-//W3C//DTD SVG 1.0//EN'
          'http://www.w3.org/TR/2001/REC-SVG-20010904/DTD/svg10.dtd'>
<svg xmlns:xlink="http://www.w3.org/1999/xlink" style="fill-opacity:1; color-rendering:auto; color-interpolation:auto; text-rendering:auto; stroke:black; stroke-linecap:square; stroke-miterlimit:10; shape-rendering:auto; stroke-opacity:1; fill:black; stroke-dasharray:none; font-weight:normal; stroke-width:1; font-family:'Dialog'; font-style:normal; stroke-linejoin:miter; font-size:12px; stroke-dashoffset:0; image-rendering:auto;" viewBox="0 0 394 157" xmlns="http://www.w3.org/2000/svg"
><!--Generated by the Batik Graphics2D SVG Generator--><defs id="genericDefs"
  /><g
  ><defs id="defs1"
    ><clipPath clipPathUnits="userSpaceOnUse" id="clipPath1"
      ><path style="fill-rule:evenodd;" d="M295 45 L301 45 L301 89 L295 89 L301 89 L301 45 Z"
      /></clipPath
      ><clipPath clipPathUnits="userSpaceOnUse" id="clipPath2"
      ><path d="M238 56 L260 56 L260 78 L238 78 L238 56 Z"
      /></clipPath
      ><clipPath clipPathUnits="userSpaceOnUse" id="clipPath3"
      ><path d="M208 67 C208 73.0751 203.0751 78 197 78 C190.9249 78 186 73.0751 186 67 C186 60.9249 190.9249 56 197 56 C203.0751 56 208 60.9249 208 67 Z"
      /></clipPath
      ><clipPath clipPathUnits="userSpaceOnUse" id="clipPath4"
      ><path d="M156 67 C156 73.0751 151.0751 78 145 78 C138.9249 78 134 73.0751 134 67 C134 60.9249 138.9249 56 145 56 C151.0751 56 156 60.9249 156 67 Z"
      /></clipPath
      ><clipPath clipPathUnits="userSpaceOnUse" id="clipPath5"
      ><path d="M104 93 C104 99.0751 99.0751 104 93 104 C86.9249 104 82 99.0751 82 93 C82 86.9249 86.9249 82 93 82 C99.0751 82 104 86.9249 104 93 Z"
      /></clipPath
      ><clipPath clipPathUnits="userSpaceOnUse" id="clipPath6"
      ><path style="fill-rule:evenodd;" d="M46 115 L41 115 L40 71 L46 71 L40 71 L41 115 Z"
      /></clipPath
      ><clipPath clipPathUnits="userSpaceOnUse" id="clipPath7"
      ><path d="M104 41 C104 47.0751 99.0751 52 93 52 C86.9249 52 82 47.0751 82 41 C82 34.9249 86.9249 30 93 30 C99.0751 30 104 34.9249 104 41 Z"
      /></clipPath
    ></defs
    ><g style="fill:white; text-rendering:optimizeSpeed; stroke:white;"
    ><rect x="0" width="394" height="157" y="0" style="stroke:none;"
      /><polygon style="fill:none; stroke:black;" points=" 353 67 301 67"
      /><path d="M353 56 C347.5 61.5 358.5 72.5 353 78" style="fill:none; stroke:black;"
      /><polygon style="fill:none; stroke:black;" points=" 301 67 249 67"
      /><polygon style="clip-path:url(#clipPath1); stroke:none;" points=" 295 45 301 45 301 89 295 89 301 89 301 45"
      /><rect x="290" y="33" width="22" style="clip-path:url(#clipPath1); fill:black; stroke:none;" height="68"
      /><rect x="290" y="33" width="22" style="clip-path:url(#clipPath1); fill:none; stroke:black;" height="68"
      /><polygon style="fill:none; stroke:black;" points=" 295 45 301 45 301 89 295 89 301 89 301 45"
      /><polygon style="fill:none; stroke:black;" points=" 249 67 197 67"
      /><rect x="238" y="56" width="22" style="clip-path:url(#clipPath2); stroke:none;" height="22"
      /><rect x="238" y="56" width="22" style="clip-path:url(#clipPath2); fill:rgb(0,144,188); stroke:none;" height="22"
      /><rect x="238" y="56" width="22" style="clip-path:url(#clipPath2); fill:none; stroke:black;" height="22"
      /><rect x="238" y="56" width="22" style="fill:none; stroke:black;" height="22"
      /><polygon style="fill:none; stroke:black;" points=" 197 67 145 67"
      /><circle style="clip-path:url(#clipPath3); stroke:none;" r="11" cx="197" cy="67"
      /><rect x="186" y="56" width="22" style="clip-path:url(#clipPath3); fill:rgb(0,166,81); stroke:none;" height="22"
      /><rect x="186" y="56" width="22" style="clip-path:url(#clipPath3); fill:none; stroke:black;" height="22"
      /><circle style="fill:none; stroke:black;" r="11" cx="197" cy="67"
      /><polygon style="fill:none; stroke:black;" points=" 145 67 93 93"
      /><polygon style="fill:none; stroke:black;" points=" 145 67 93 41"
      /><circle style="clip-path:url(#clipPath4); stroke:none;" r="11" cx="145" cy="67"
      /><rect x="134" y="56" width="22" style="clip-path:url(#clipPath4); fill:rgb(0,166,81); stroke:none;" height="22"
      /><rect x="134" y="56" width="22" style="clip-path:url(#clipPath4); fill:none; stroke:black;" height="22"
      /><circle style="fill:none; stroke:black;" r="11" cx="145" cy="67"
      /><polygon style="fill:none; stroke:black;" points=" 93 93 41 93"
      /><circle style="clip-path:url(#clipPath5); stroke:none;" r="11" cx="93" cy="93"
      /><rect x="82" y="82" width="22" style="clip-path:url(#clipPath5); fill:rgb(0,166,81); stroke:none;" height="22"
      /><rect x="82" y="82" width="22" style="clip-path:url(#clipPath5); fill:none; stroke:black;" height="22"
      /><circle style="fill:none; stroke:black;" r="11" cx="93" cy="93"
      /><polygon style="clip-path:url(#clipPath6); stroke:none;" points=" 46 115 41 115 40 71 46 71 40 71 41 115"
      /><rect x="30" y="59" width="22" style="clip-path:url(#clipPath6); fill:black; stroke:none;" height="68"
      /><rect x="30" y="59" width="22" style="clip-path:url(#clipPath6); fill:none; stroke:black;" height="68"
      /><polygon style="fill:none; stroke:black;" points=" 46 115 41 115 40 71 46 71 40 71 41 115"
      /><path d="M43.5469 124.9531 C43.5156 124.2969 43.5 123.3906 43.5 122.7656 L43.5 121.5156 C43.5 119.8281 42.9531 119.1562 41.8594 119.1562 C41.0625 119.1562 40.1562 119.625 39.4531 120.4062 L39.3594 119.2969 L39.2031 119.1719 L37.4688 119.8125 L37.4688 120.2031 L38.5312 120.2812 C38.5625 120.8438 38.5781 121.3438 38.5781 122.1094 L38.5781 122.7656 C38.5781 123.375 38.5781 124.2969 38.5469 124.9688 L37.5469 125.1094 L37.5469 125.5 L40.4688 125.5 L40.4688 125.1094 L39.5156 124.9531 C39.5156 124.2969 39.5 123.375 39.5 122.7656 L39.5 120.875 C40.2656 120.1562 40.875 119.9062 41.4688 119.9062 C42.2344 119.9062 42.5938 120.3125 42.5938 121.5625 L42.5938 122.7656 C42.5938 123.3906 42.5781 124.3125 42.5625 124.9688 L41.5469 125.1094 L41.5469 125.5 L44.4844 125.5 L44.4844 125.1094 L43.5469 124.9531 Z" style="fill:black; stroke:none;"
      /><rect x="71" y="96" width="6" style="stroke:none;" height="10"
    /></g
    ><g style="font-family:'Serif'; text-rendering:optimizeSpeed; "
    ><path style="stroke:none;" d="M74.3438 105.6875 C73.2031 105.6875 72.5312 104.5 72.5312 102.2969 C72.5312 102.2188 72.5312 102.125 72.5312 102.0469 C73.0938 101.5 73.7188 101.3125 74.3438 101.3125 C75.3125 101.3125 75.9531 101.9844 75.9531 103.4531 C75.9531 104.9375 75.3125 105.6875 74.3438 105.6875 ZM76.5312 97.0781 C73.3438 97.4531 71.5625 99.7656 71.5625 102.4531 C71.5625 104.7812 72.6094 106.1719 74.3125 106.1719 C75.8438 106.1719 76.9219 105.1094 76.9219 103.2812 C76.9219 101.6875 75.9688 100.6562 74.5625 100.6562 C73.8281 100.6562 73.1406 100.9844 72.5781 101.5781 C72.7969 99.4062 74.0781 97.9688 76.5938 97.3906 L76.5312 97.0781 Z"
      /><circle style="fill:white; clip-path:url(#clipPath7); stroke:none;" r="11" cx="93" cy="41"
      /><rect x="82" y="30" width="22" style="clip-path:url(#clipPath7); fill:rgb(0,144,188); stroke:none;" height="22"
      /><rect x="82" y="30" width="22" style="fill:none; clip-path:url(#clipPath7);" height="22"
      /><circle r="11" style="fill:none;" cx="93" cy="41"
      /><rect x="127" y="78" width="6" style="fill:white; stroke:none;" height="9"
      /><path style="stroke:none;" d="M128.4219 86.0938 C129.0781 85.375 129.7031 84.7188 130.0312 84.3438 C131.9219 82.3125 132.5312 81.4688 132.5312 80.3594 C132.5312 79.0156 131.7812 78.0781 130.1562 78.0781 C128.9062 78.0781 127.7969 78.7031 127.5938 79.9688 C127.7188 80.2031 127.9062 80.3438 128.1562 80.3438 C128.4688 80.3438 128.6562 80.1094 128.7969 79.5938 L129.0938 78.6719 C129.3906 78.5938 129.6562 78.5625 129.8906 78.5625 C130.9219 78.5625 131.5469 79.3125 131.5469 80.4219 C131.5469 81.4375 130.9844 82.4219 129.7031 83.9062 C129.125 84.5781 128.3906 85.4375 127.6406 86.2812 L127.6406 87 L132.9219 87 L132.9219 86.0938 L128.4219 86.0938 Z"
      /><rect x="110" y="87" width="8" style="fill:white; stroke:none;" height="8"
      /><path style="stroke:none;" d="M114.9844 92.7031 C114.9375 93.8906 114.1562 94.6562 113.3125 94.6562 C112.2656 94.6562 111.5 93.6875 111.5 91.7188 C111.5 90.2812 112.1562 89.1562 113.3438 89.1562 C114.1406 89.1562 114.7812 89.6875 115.0938 90.6406 L114.9844 92.7031 ZM116.9062 94.2812 C116.7344 94.375 116.5469 94.4219 116.3438 94.4219 C115.9531 94.4219 115.75 94.2188 115.75 93.4219 C115.75 92.4844 115.9688 90.5312 116.1875 88.8281 L116.0312 88.7188 L115.2344 88.9219 L115.1406 89.7969 C114.7812 89.0312 114.1562 88.6562 113.3906 88.6562 C112.0469 88.6562 110.5625 89.8438 110.5625 91.9531 C110.5625 94.0938 111.7188 95.1719 113.1406 95.1719 C114.0156 95.1719 114.6875 94.8125 115.0938 93.9844 C115.2031 94.8594 115.5156 95.1719 116.0156 95.1719 C116.4688 95.1719 116.7969 94.9062 117.0156 94.5625 L116.9062 94.2812 Z"
      /><rect x="119" y="60" width="7" style="fill:white; stroke:none;" height="9"
      /><path style="stroke:none;" d="M120 65.5156 L122.9531 61.2656 L122.9531 65.5156 L120 65.5156 ZM125.2812 65.5156 L123.8594 65.5156 L123.8594 60.125 L123.2344 60.125 L119.3438 65.6406 L119.3438 66.1875 L122.9531 66.1875 L122.9531 69 L123.8594 69 L123.8594 66.1875 L125.2812 66.1875 L125.2812 65.5156 Z"
      /><rect x="103" y="53" width="8" style="fill:white; stroke:none;" height="8"
      /><path style="stroke:none;" d="M107.9844 58.7031 C107.9375 59.8906 107.1562 60.6562 106.3125 60.6562 C105.2656 60.6562 104.5 59.6875 104.5 57.7188 C104.5 56.2812 105.1562 55.1562 106.3438 55.1562 C107.1406 55.1562 107.7812 55.6875 108.0938 56.6406 L107.9844 58.7031 ZM109.9062 60.2812 C109.7344 60.375 109.5469 60.4219 109.3438 60.4219 C108.9531 60.4219 108.75 60.2188 108.75 59.4219 C108.75 58.4844 108.9688 56.5312 109.1875 54.8281 L109.0312 54.7188 L108.2344 54.9219 L108.1406 55.7969 C107.7812 55.0312 107.1562 54.6562 106.3906 54.6562 C105.0469 54.6562 103.5625 55.8438 103.5625 57.9531 C103.5625 60.0938 104.7188 61.1719 106.1406 61.1719 C107.0156 61.1719 107.6875 60.8125 108.0938 59.9844 C108.2031 60.8594 108.5156 61.1719 109.0156 61.1719 C109.4688 61.1719 109.7969 60.9062 110.0156 60.5625 L109.9062 60.2812 Z"
      /><rect x="175" y="70" width="6" style="fill:white; stroke:none;" height="9"
      /><path style="stroke:none;" d="M176.4219 78.0938 C177.0781 77.375 177.7031 76.7188 178.0312 76.3438 C179.9219 74.3125 180.5312 73.4688 180.5312 72.3594 C180.5312 71.0156 179.7812 70.0781 178.1562 70.0781 C176.9062 70.0781 175.7969 70.7031 175.5938 71.9688 C175.7188 72.2031 175.9062 72.3438 176.1562 72.3438 C176.4688 72.3438 176.6562 72.1094 176.7969 71.5938 L177.0938 70.6719 C177.3906 70.5938 177.6562 70.5625 177.8906 70.5625 C178.9219 70.5625 179.5469 71.3125 179.5469 72.4219 C179.5469 73.4375 178.9844 74.4219 177.7031 75.9062 C177.125 76.5781 176.3906 77.4375 175.6406 78.2812 L175.6406 79 L180.9219 79 L180.9219 78.0938 L176.4219 78.0938 Z"
      /><rect x="160" y="71" width="8" style="fill:white; stroke:none;" height="8"
      /><path style="stroke:none;" d="M164.9844 76.7031 C164.9375 77.8906 164.1562 78.6562 163.3125 78.6562 C162.2656 78.6562 161.5 77.6875 161.5 75.7188 C161.5 74.2812 162.1562 73.1562 163.3438 73.1562 C164.1406 73.1562 164.7812 73.6875 165.0938 74.6406 L164.9844 76.7031 ZM166.9062 78.2812 C166.7344 78.375 166.5469 78.4219 166.3438 78.4219 C165.9531 78.4219 165.75 78.2188 165.75 77.4219 C165.75 76.4844 165.9688 74.5312 166.1875 72.8281 L166.0312 72.7188 L165.2344 72.9219 L165.1406 73.7969 C164.7812 73.0312 164.1562 72.6562 163.3906 72.6562 C162.0469 72.6562 160.5625 73.8438 160.5625 75.9531 C160.5625 78.0938 161.7188 79.1719 163.1406 79.1719 C164.0156 79.1719 164.6875 78.8125 165.0938 77.9844 C165.2031 78.8594 165.5156 79.1719 166.0156 79.1719 C166.4688 79.1719 166.7969 78.9062 167.0156 78.5625 L166.9062 78.2812 Z"
      /><rect x="227" y="70" width="6" style="fill:white; stroke:none;" height="10"
      /><path style="stroke:none;" d="M229.2344 71.6562 C229.5156 71.5938 229.7656 71.5625 230.0156 71.5625 C231.0625 71.5625 231.6719 72.1719 231.6719 73.2656 C231.6719 74.4375 230.9062 75.1094 229.7031 75.1094 L229.1875 75.1094 L229.1875 75.6406 L229.7969 75.6406 C231.2188 75.6406 231.9062 76.4219 231.9062 77.6406 C231.9062 78.8438 231.1719 79.6875 229.875 79.6875 C229.6094 79.6875 229.3125 79.6562 229.0156 79.5625 L228.7812 78.8125 C228.625 78.2812 228.5 78.0469 228.1406 78.0469 C227.8906 78.0469 227.7031 78.1719 227.5781 78.4219 C227.8438 79.6406 228.7812 80.1719 230.0312 80.1719 C231.7188 80.1719 232.875 79.125 232.875 77.7031 C232.875 76.5 232.2031 75.625 230.7969 75.375 C231.9531 75.0156 232.6094 74.2031 232.6094 73.2031 C232.6094 71.9219 231.6719 71.0781 230.1875 71.0781 C229.0469 71.0781 228.0625 71.5938 227.7969 72.6875 C227.9062 73 228.1094 73.1094 228.3594 73.1094 C228.7344 73.1094 228.8906 72.8906 229 72.4062 L229.2344 71.6562 Z"
      /><rect x="213" y="68" width="6" style="fill:white; stroke:none;" height="13"
      /><path style="stroke:none;" d="M215.0938 74.2031 C215.0938 72.6562 215.75 71.8125 216.7969 71.8125 C217.7188 71.8125 218.2656 72.4531 218.2656 73.5156 C218.2656 74.7188 217.5 75.4375 216.1875 75.7031 L216.2969 76.3125 C218.2188 76.2344 218.9375 77.2188 218.9375 78.4375 C218.9375 79.625 218.2344 80.4219 216.9531 80.4219 C216.25 80.4219 215.6562 80.1562 215.0938 79.7188 L215.0938 74.2031 ZM214.2031 80.9062 L214.1094 83.375 L214.2656 83.4844 L215.1562 83.2656 L215.0156 80.0938 C215.5469 80.8438 216.3594 81.1719 217.1719 81.1719 C218.5625 81.1719 219.8594 80.2188 219.8594 78.4844 C219.8594 76.9531 218.875 76.1094 217.125 76 C218.5625 75.6094 219.1875 74.4531 219.1875 73.4844 C219.1875 72.0938 218.1562 71.3125 216.9062 71.3125 C215.2969 71.3125 214.2188 72.5469 214.2188 74.5156 L214.2031 80.9062 Z"
      /><rect x="264" y="71" width="8" style="fill:white; stroke:none;" height="8"
      /><path style="stroke:none;" d="M268.9844 76.7031 C268.9375 77.8906 268.1562 78.6562 267.3125 78.6562 C266.2656 78.6562 265.5 77.6875 265.5 75.7188 C265.5 74.2812 266.1562 73.1562 267.3438 73.1562 C268.1406 73.1562 268.7812 73.6875 269.0938 74.6406 L268.9844 76.7031 ZM270.9062 78.2812 C270.7344 78.375 270.5469 78.4219 270.3438 78.4219 C269.9531 78.4219 269.75 78.2188 269.75 77.4219 C269.75 76.4844 269.9688 74.5312 270.1875 72.8281 L270.0312 72.7188 L269.2344 72.9219 L269.1406 73.7969 C268.7812 73.0312 268.1562 72.6562 267.3906 72.6562 C266.0469 72.6562 264.5625 73.8438 264.5625 75.9531 C264.5625 78.0938 265.7188 79.1719 267.1406 79.1719 C268.0156 79.1719 268.6875 78.8125 269.0938 77.9844 C269.2031 78.8594 269.5156 79.1719 270.0156 79.1719 C270.4688 79.1719 270.7969 78.9062 271.0156 78.5625 L270.9062 78.2812 Z"
    /></g
  ></g
></svg
>
