<?xml version="1.0"?>
<!DOCTYPE svg PUBLIC '-//W3C//DTD SVG 1.0//EN'
          'http://www.w3.org/TR/2001/REC-SVG-20010904/DTD/svg10.dtd'>
<svg xmlns:xlink="http://www.w3.org/1999/xlink" style="fill-opacity:1; color-rendering:auto; color-interpolation:auto; text-rendering:auto; stroke:black; stroke-linecap:square; stroke-miterlimit:10; shape-rendering:auto; stroke-opacity:1; fill:black; stroke-dasharray:none; font-weight:normal; stroke-width:1; font-family:'Dialog'; font-style:normal; stroke-linejoin:miter; font-size:12px; stroke-dashoffset:0; image-rendering:auto;" viewBox="0 0 394 160" xmlns="http://www.w3.org/2000/svg"
><!--Generated by the Batik Graphics2D SVG Generator--><defs id="genericDefs"
  /><g
  ><defs id="defs1"
    ><clipPath clipPathUnits="userSpaceOnUse" id="clipPath1"
      ><path d="M290 82 L312 82 L312 104 L290 104 L290 82 Z"
      /></clipPath
      ><clipPath clipPathUnits="userSpaceOnUse" id="clipPath2"
      ><path d="M238 82 L260 82 L260 104 L238 104 L238 82 Z"
      /></clipPath
      ><clipPath clipPathUnits="userSpaceOnUse" id="clipPath3"
      ><path d="M208 93 C208 99.0751 203.0751 104 197 104 C190.9249 104 186 99.0751 186 93 C186 86.9249 190.9249 82 197 82 C203.0751 82 208 86.9249 208 93 Z"
      /></clipPath
      ><clipPath clipPathUnits="userSpaceOnUse" id="clipPath4"
      ><path d="M156 119 C156 125.0751 151.0751 130 145 130 C138.9249 130 134 125.0751 134 119 C134 112.9249 138.9249 108 145 108 C151.0751 108 156 112.9249 156 119 Z"
      /></clipPath
      ><clipPath clipPathUnits="userSpaceOnUse" id="clipPath5"
      ><path d="M82 108 L104 108 L104 130 L82 130 L82 108 Z"
      /></clipPath
      ><clipPath clipPathUnits="userSpaceOnUse" id="clipPath6"
      ><path d="M52 119 C52 125.0751 47.0751 130 41 130 C34.9249 130 30 125.0751 30 119 C30 112.9249 34.9249 108 41 108 C47.0751 108 52 112.9249 52 119 Z"
      /></clipPath
      ><clipPath clipPathUnits="userSpaceOnUse" id="clipPath7"
      ><path d="M156 67 C156 73.0751 151.0751 78 145 78 C138.9249 78 134 73.0751 134 67 C134 60.9249 138.9249 56 145 56 C151.0751 56 156 60.9249 156 67 Z"
      /></clipPath
      ><clipPath clipPathUnits="userSpaceOnUse" id="clipPath8"
      ><path d="M82 56 L104 56 L104 78 L82 78 L82 56 Z"
      /></clipPath
      ><clipPath clipPathUnits="userSpaceOnUse" id="clipPath9"
      ><path style="fill-rule:evenodd;" d="M301 52 L290 30 L312 30 Z"
      /></clipPath
    ></defs
    ><g style="fill:white; text-rendering:optimizeSpeed; stroke:white;"
    ><rect x="0" width="394" height="160" y="0" style="stroke:none;"
      /><polygon style="fill:none; stroke:black;" points=" 353 93 301 93"
      /><path d="M353 82 C347.5 87.5 358.5 98.5 353 104" style="fill:none; stroke:black;"
      /><polygon style="fill:none; stroke:black;" points=" 301 93 249 93"
      /><polygon style="fill:none; stroke:black;" points=" 301 93 301 41"
      /><rect x="290" y="82" width="22" style="clip-path:url(#clipPath1); stroke:none;" height="22"
      /><rect x="290" y="82" width="22" style="clip-path:url(#clipPath1); fill:rgb(0,144,188); stroke:none;" height="22"
      /><rect x="290" y="82" width="22" style="clip-path:url(#clipPath1); fill:none; stroke:black;" height="22"
      /><rect x="290" y="82" width="22" style="fill:none; stroke:black;" height="22"
      /><polygon style="fill:none; stroke:black;" points=" 249 93 197 93"
      /><rect x="238" y="82" width="22" style="clip-path:url(#clipPath2); stroke:none;" height="22"
      /><rect x="238" y="82" width="22" style="clip-path:url(#clipPath2); fill:rgb(0,144,188); stroke:none;" height="22"
      /><rect x="238" y="82" width="22" style="clip-path:url(#clipPath2); fill:none; stroke:black;" height="22"
      /><rect x="238" y="82" width="22" style="fill:none; stroke:black;" height="22"
      /><polygon style="fill:none; stroke:black;" points=" 197 93 145 119"
      /><polygon style="fill:none; stroke:black;" points=" 197 93 145 67"
      /><circle style="clip-path:url(#clipPath3); stroke:none;" r="11" cx="197" cy="93"
      /><rect x="186" y="82" width="22" style="clip-path:url(#clipPath3); fill:rgb(0,166,81); stroke:none;" height="22"
      /><rect x="186" y="82" width="22" style="clip-path:url(#clipPath3); fill:none; stroke:black;" height="22"
      /><circle style="fill:none; stroke:black;" r="11" cx="197" cy="93"
      /><polygon style="fill:none; stroke:black;" points=" 145 119 93 119"
      /><circle style="clip-path:url(#clipPath4); stroke:none;" r="11" cx="145" cy="119"
      /><rect x="134" y="108" width="22" style="clip-path:url(#clipPath4); fill:rgb(0,166,81); stroke:none;" height="22"
      /><rect x="134" y="108" width="22" style="clip-path:url(#clipPath4); fill:none; stroke:black;" height="22"
      /><circle style="fill:none; stroke:black;" r="11" cx="145" cy="119"
      /><polygon style="fill:none; stroke:black;" points=" 93 119 41 119"
      /><rect x="82" y="108" width="22" style="clip-path:url(#clipPath5); stroke:none;" height="22"
      /><rect x="82" y="108" width="22" style="clip-path:url(#clipPath5); fill:rgb(0,144,188); stroke:none;" height="22"
      /><rect x="82" y="108" width="22" style="clip-path:url(#clipPath5); fill:none; stroke:black;" height="22"
      /><rect x="82" y="108" width="22" style="fill:none; stroke:black;" height="22"
      /><circle style="clip-path:url(#clipPath6); stroke:none;" r="11" cx="41" cy="119"
      /><rect x="30" y="108" width="22" style="clip-path:url(#clipPath6); fill:rgb(255,212,0); stroke:none;" height="22"
      /><rect x="30" y="108" width="22" style="clip-path:url(#clipPath6); fill:none; stroke:black;" height="22"
      /><circle style="fill:none; stroke:black;" r="11" cx="41" cy="119"
      /><rect x="70" y="122" width="7" style="stroke:none;" height="9"
    /></g
    ><g style="font-family:'Serif'; text-rendering:optimizeSpeed; "
    ><path style="stroke:none;" d="M71 127.5156 L73.9531 123.2656 L73.9531 127.5156 L71 127.5156 ZM76.2812 127.5156 L74.8594 127.5156 L74.8594 122.125 L74.2344 122.125 L70.3438 127.6406 L70.3438 128.1875 L73.9531 128.1875 L73.9531 131 L74.8594 131 L74.8594 128.1875 L76.2812 128.1875 L76.2812 127.5156 Z"
      /><rect x="57" y="120" width="6" style="fill:white; stroke:none;" height="13"
      /><path style="stroke:none;" d="M59.0938 126.2031 C59.0938 124.6562 59.75 123.8125 60.7969 123.8125 C61.7188 123.8125 62.2656 124.4531 62.2656 125.5156 C62.2656 126.7188 61.5 127.4375 60.1875 127.7031 L60.2969 128.3125 C62.2188 128.2344 62.9375 129.2188 62.9375 130.4375 C62.9375 131.625 62.2344 132.4219 60.9531 132.4219 C60.25 132.4219 59.6562 132.1562 59.0938 131.7188 L59.0938 126.2031 ZM58.2031 132.9062 L58.1094 135.375 L58.2656 135.4844 L59.1562 135.2656 L59.0156 132.0938 C59.5469 132.8438 60.3594 133.1719 61.1719 133.1719 C62.5625 133.1719 63.8594 132.2188 63.8594 130.4844 C63.8594 128.9531 62.875 128.1094 61.125 128 C62.5625 127.6094 63.1875 126.4531 63.1875 125.4844 C63.1875 124.0938 62.1562 123.3125 60.9062 123.3125 C59.2969 123.3125 58.2188 124.5469 58.2188 126.5156 L58.2031 132.9062 Z"
      /><rect x="123" y="122" width="6" style="fill:white; stroke:none;" height="9"
      /><path style="stroke:none;" d="M124.4219 130.0938 C125.0781 129.375 125.7031 128.7188 126.0312 128.3438 C127.9219 126.3125 128.5312 125.4688 128.5312 124.3594 C128.5312 123.0156 127.7812 122.0781 126.1562 122.0781 C124.9062 122.0781 123.7969 122.7031 123.5938 123.9688 C123.7188 124.2031 123.9062 124.3438 124.1562 124.3438 C124.4688 124.3438 124.6562 124.1094 124.7969 123.5938 L125.0938 122.6719 C125.3906 122.5938 125.6562 122.5625 125.8906 122.5625 C126.9219 122.5625 127.5469 123.3125 127.5469 124.4219 C127.5469 125.4375 126.9844 126.4219 125.7031 127.9062 C125.125 128.5781 124.3906 129.4375 123.6406 130.2812 L123.6406 131 L128.9219 131 L128.9219 130.0938 L124.4219 130.0938 Z"
      /><rect x="109" y="120" width="6" style="fill:white; stroke:none;" height="13"
      /><path style="stroke:none;" d="M111.0938 126.2031 C111.0938 124.6562 111.75 123.8125 112.7969 123.8125 C113.7188 123.8125 114.2656 124.4531 114.2656 125.5156 C114.2656 126.7188 113.5 127.4375 112.1875 127.7031 L112.2969 128.3125 C114.2188 128.2344 114.9375 129.2188 114.9375 130.4375 C114.9375 131.625 114.2344 132.4219 112.9531 132.4219 C112.25 132.4219 111.6562 132.1562 111.0938 131.7188 L111.0938 126.2031 ZM110.2031 132.9062 L110.1094 135.375 L110.2656 135.4844 L111.1562 135.2656 L111.0156 132.0938 C111.5469 132.8438 112.3594 133.1719 113.1719 133.1719 C114.5625 133.1719 115.8594 132.2188 115.8594 130.4844 C115.8594 128.9531 114.875 128.1094 113.125 128 C114.5625 127.6094 115.1875 126.4531 115.1875 125.4844 C115.1875 124.0938 114.1562 123.3125 112.9062 123.3125 C111.2969 123.3125 110.2188 124.5469 110.2188 126.5156 L110.2031 132.9062 Z"
      /><polygon style="fill:none;" points=" 145 67 93 67"
      /><circle style="fill:white; clip-path:url(#clipPath7); stroke:none;" r="11" cx="145" cy="67"
      /><rect x="134" y="56" width="22" style="clip-path:url(#clipPath7); fill:rgb(0,166,81); stroke:none;" height="22"
      /><rect x="134" y="56" width="22" style="fill:none; clip-path:url(#clipPath7);" height="22"
      /><circle r="11" style="fill:none;" cx="145" cy="67"
      /><rect x="82" y="56" width="22" style="clip-path:url(#clipPath8); fill:white; stroke:none;" height="22"
      /><rect x="82" y="56" width="22" style="clip-path:url(#clipPath8); fill:rgb(0,144,188); stroke:none;" height="22"
      /><rect x="82" y="56" width="22" style="fill:none; clip-path:url(#clipPath8);" height="22"
      /><rect x="82" width="22" height="22" y="56" style="fill:none;"
      /><rect x="123" y="70" width="6" style="fill:white; stroke:none;" height="9"
      /><path style="stroke:none;" d="M124.4219 78.0938 C125.0781 77.375 125.7031 76.7188 126.0312 76.3438 C127.9219 74.3125 128.5312 73.4688 128.5312 72.3594 C128.5312 71.0156 127.7812 70.0781 126.1562 70.0781 C124.9062 70.0781 123.7969 70.7031 123.5938 71.9688 C123.7188 72.2031 123.9062 72.3438 124.1562 72.3438 C124.4688 72.3438 124.6562 72.1094 124.7969 71.5938 L125.0938 70.6719 C125.3906 70.5938 125.6562 70.5625 125.8906 70.5625 C126.9219 70.5625 127.5469 71.3125 127.5469 72.4219 C127.5469 73.4375 126.9844 74.4219 125.7031 75.9062 C125.125 76.5781 124.3906 77.4375 123.6406 78.2812 L123.6406 79 L128.9219 79 L128.9219 78.0938 L124.4219 78.0938 Z"
      /><rect x="109" y="68" width="6" style="fill:white; stroke:none;" height="13"
      /><path style="stroke:none;" d="M111.0938 74.2031 C111.0938 72.6562 111.75 71.8125 112.7969 71.8125 C113.7188 71.8125 114.2656 72.4531 114.2656 73.5156 C114.2656 74.7188 113.5 75.4375 112.1875 75.7031 L112.2969 76.3125 C114.2188 76.2344 114.9375 77.2188 114.9375 78.4375 C114.9375 79.625 114.2344 80.4219 112.9531 80.4219 C112.25 80.4219 111.6562 80.1562 111.0938 79.7188 L111.0938 74.2031 ZM110.2031 80.9062 L110.1094 83.375 L110.2656 83.4844 L111.1562 83.2656 L111.0156 80.0938 C111.5469 80.8438 112.3594 81.1719 113.1719 81.1719 C114.5625 81.1719 115.8594 80.2188 115.8594 78.4844 C115.8594 76.9531 114.875 76.1094 113.125 76 C114.5625 75.6094 115.1875 74.4531 115.1875 73.4844 C115.1875 72.0938 114.1562 71.3125 112.9062 71.3125 C111.2969 71.3125 110.2188 72.5469 110.2188 74.5156 L110.2031 80.9062 Z"
      /><rect x="179" y="104" width="6" style="fill:white; stroke:none;" height="10"
      /><path style="stroke:none;" d="M181.2344 105.6562 C181.5156 105.5938 181.7656 105.5625 182.0156 105.5625 C183.0625 105.5625 183.6719 106.1719 183.6719 107.2656 C183.6719 108.4375 182.9062 109.1094 181.7031 109.1094 L181.1875 109.1094 L181.1875 109.6406 L181.7969 109.6406 C183.2188 109.6406 183.9062 110.4219 183.9062 111.6406 C183.9062 112.8438 183.1719 113.6875 181.875 113.6875 C181.6094 113.6875 181.3125 113.6562 181.0156 113.5625 L180.7812 112.8125 C180.625 112.2812 180.5 112.0469 180.1406 112.0469 C179.8906 112.0469 179.7031 112.1719 179.5781 112.4219 C179.8438 113.6406 180.7812 114.1719 182.0312 114.1719 C183.7188 114.1719 184.875 113.125 184.875 111.7031 C184.875 110.5 184.2031 109.625 182.7969 109.375 C183.9531 109.0156 184.6094 108.2031 184.6094 107.2031 C184.6094 105.9219 183.6719 105.0781 182.1875 105.0781 C181.0469 105.0781 180.0625 105.5938 179.7969 106.6875 C179.9062 107 180.1094 107.1094 180.3594 107.1094 C180.7344 107.1094 180.8906 106.8906 181 106.4062 L181.2344 105.6562 Z"
      /><rect x="162" y="113" width="8" style="fill:white; stroke:none;" height="8"
      /><path style="stroke:none;" d="M166.9844 118.7031 C166.9375 119.8906 166.1562 120.6562 165.3125 120.6562 C164.2656 120.6562 163.5 119.6875 163.5 117.7188 C163.5 116.2812 164.1562 115.1562 165.3438 115.1562 C166.1406 115.1562 166.7812 115.6875 167.0938 116.6406 L166.9844 118.7031 ZM168.9062 120.2812 C168.7344 120.375 168.5469 120.4219 168.3438 120.4219 C167.9531 120.4219 167.75 120.2188 167.75 119.4219 C167.75 118.4844 167.9688 116.5312 168.1875 114.8281 L168.0312 114.7188 L167.2344 114.9219 L167.1406 115.7969 C166.7812 115.0312 166.1562 114.6562 165.3906 114.6562 C164.0469 114.6562 162.5625 115.8438 162.5625 117.9531 C162.5625 120.0938 163.7188 121.1719 165.1406 121.1719 C166.0156 121.1719 166.6875 120.8125 167.0938 119.9844 C167.2031 120.8594 167.5156 121.1719 168.0156 121.1719 C168.4688 121.1719 168.7969 120.9062 169.0156 120.5625 L168.9062 120.2812 Z"
      /><rect x="172" y="86" width="6" style="fill:white; stroke:none;" height="10"
      /><path style="stroke:none;" d="M175.3438 95.6875 C174.2031 95.6875 173.5312 94.5 173.5312 92.2969 C173.5312 92.2188 173.5312 92.125 173.5312 92.0469 C174.0938 91.5 174.7188 91.3125 175.3438 91.3125 C176.3125 91.3125 176.9531 91.9844 176.9531 93.4531 C176.9531 94.9375 176.3125 95.6875 175.3438 95.6875 ZM177.5312 87.0781 C174.3438 87.4531 172.5625 89.7656 172.5625 92.4531 C172.5625 94.7812 173.6094 96.1719 175.3125 96.1719 C176.8438 96.1719 177.9219 95.1094 177.9219 93.2812 C177.9219 91.6875 176.9688 90.6562 175.5625 90.6562 C174.8281 90.6562 174.1406 90.9844 173.5781 91.5781 C173.7969 89.4062 175.0781 87.9688 177.5938 87.3906 L177.5312 87.0781 Z"
      /><rect x="155" y="79" width="8" style="fill:white; stroke:none;" height="8"
      /><path style="stroke:none;" d="M159.9844 84.7031 C159.9375 85.8906 159.1562 86.6562 158.3125 86.6562 C157.2656 86.6562 156.5 85.6875 156.5 83.7188 C156.5 82.2812 157.1562 81.1562 158.3438 81.1562 C159.1406 81.1562 159.7812 81.6875 160.0938 82.6406 L159.9844 84.7031 ZM161.9062 86.2812 C161.7344 86.375 161.5469 86.4219 161.3438 86.4219 C160.9531 86.4219 160.75 86.2188 160.75 85.4219 C160.75 84.4844 160.9688 82.5312 161.1875 80.8281 L161.0312 80.7188 L160.2344 80.9219 L160.1406 81.7969 C159.7812 81.0312 159.1562 80.6562 158.3906 80.6562 C157.0469 80.6562 155.5625 81.8438 155.5625 83.9531 C155.5625 86.0938 156.7188 87.1719 158.1406 87.1719 C159.0156 87.1719 159.6875 86.8125 160.0938 85.9844 C160.2031 86.8594 160.5156 87.1719 161.0156 87.1719 C161.4688 87.1719 161.7969 86.9062 162.0156 86.5625 L161.9062 86.2812 Z"
      /><rect x="226" y="96" width="7" style="fill:white; stroke:none;" height="9"
      /><path style="stroke:none;" d="M227 101.5156 L229.9531 97.2656 L229.9531 101.5156 L227 101.5156 ZM232.2812 101.5156 L230.8594 101.5156 L230.8594 96.125 L230.2344 96.125 L226.3438 101.6406 L226.3438 102.1875 L229.9531 102.1875 L229.9531 105 L230.8594 105 L230.8594 102.1875 L232.2812 102.1875 L232.2812 101.5156 Z"
      /><rect x="213" y="94" width="6" style="fill:white; stroke:none;" height="13"
      /><path style="stroke:none;" d="M215.0938 100.2031 C215.0938 98.6562 215.75 97.8125 216.7969 97.8125 C217.7188 97.8125 218.2656 98.4531 218.2656 99.5156 C218.2656 100.7188 217.5 101.4375 216.1875 101.7031 L216.2969 102.3125 C218.2188 102.2344 218.9375 103.2188 218.9375 104.4375 C218.9375 105.625 218.2344 106.4219 216.9531 106.4219 C216.25 106.4219 215.6562 106.1562 215.0938 105.7188 L215.0938 100.2031 ZM214.2031 106.9062 L214.1094 109.375 L214.2656 109.4844 L215.1562 109.2656 L215.0156 106.0938 C215.5469 106.8438 216.3594 107.1719 217.1719 107.1719 C218.5625 107.1719 219.8594 106.2188 219.8594 104.4844 C219.8594 102.9531 218.875 102.1094 217.125 102 C218.5625 101.6094 219.1875 100.4531 219.1875 99.4844 C219.1875 98.0938 218.1562 97.3125 216.9062 97.3125 C215.2969 97.3125 214.2188 98.5469 214.2188 100.5156 L214.2031 106.9062 Z"
      /><polygon style="fill:white; clip-path:url(#clipPath9); stroke:none;" points=" 301 52 290 30 312 30"
      /><rect x="290" y="30" width="22" style="clip-path:url(#clipPath9); fill:rgb(237,28,36); stroke:none;" height="22"
      /><rect x="290" y="30" width="22" style="fill:none; clip-path:url(#clipPath9);" height="22"
      /><polygon style="fill:none;" points=" 301 52 290 30 312 30"
      /><rect x="278" y="96" width="7" style="fill:white; stroke:none;" height="9"
      /><path style="stroke:none;" d="M279 101.5156 L281.9531 97.2656 L281.9531 101.5156 L279 101.5156 ZM284.2812 101.5156 L282.8594 101.5156 L282.8594 96.125 L282.2344 96.125 L278.3438 101.6406 L278.3438 102.1875 L281.9531 102.1875 L281.9531 105 L282.8594 105 L282.8594 102.1875 L284.2812 102.1875 L284.2812 101.5156 Z"
      /><rect x="265" y="94" width="6" style="fill:white; stroke:none;" height="13"
      /><path style="stroke:none;" d="M267.0938 100.2031 C267.0938 98.6562 267.75 97.8125 268.7969 97.8125 C269.7188 97.8125 270.2656 98.4531 270.2656 99.5156 C270.2656 100.7188 269.5 101.4375 268.1875 101.7031 L268.2969 102.3125 C270.2188 102.2344 270.9375 103.2188 270.9375 104.4375 C270.9375 105.625 270.2344 106.4219 268.9531 106.4219 C268.25 106.4219 267.6562 106.1562 267.0938 105.7188 L267.0938 100.2031 ZM266.2031 106.9062 L266.1094 109.375 L266.2656 109.4844 L267.1562 109.2656 L267.0156 106.0938 C267.5469 106.8438 268.3594 107.1719 269.1719 107.1719 C270.5625 107.1719 271.8594 106.2188 271.8594 104.4844 C271.8594 102.9531 270.875 102.1094 269.125 102 C270.5625 101.6094 271.1875 100.4531 271.1875 99.4844 C271.1875 98.0938 270.1562 97.3125 268.9062 97.3125 C267.2969 97.3125 266.2188 98.5469 266.2188 100.5156 L266.2031 106.9062 Z"
      /><rect x="290" y="69" width="6" style="fill:white; stroke:none;" height="10"
      /><path style="stroke:none;" d="M293.3438 78.6875 C292.2031 78.6875 291.5312 77.5 291.5312 75.2969 C291.5312 75.2188 291.5312 75.125 291.5312 75.0469 C292.0938 74.5 292.7188 74.3125 293.3438 74.3125 C294.3125 74.3125 294.9531 74.9844 294.9531 76.4531 C294.9531 77.9375 294.3125 78.6875 293.3438 78.6875 ZM295.5312 70.0781 C292.3438 70.4531 290.5625 72.7656 290.5625 75.4531 C290.5625 77.7812 291.6094 79.1719 293.3125 79.1719 C294.8438 79.1719 295.9219 78.1094 295.9219 76.2812 C295.9219 74.6875 294.9688 73.6562 293.5625 73.6562 C292.8281 73.6562 292.1406 73.9844 291.5781 74.5781 C291.7969 72.4062 293.0781 70.9688 295.5938 70.3906 L295.5312 70.0781 Z"
      /><rect x="289" y="56" width="8" style="fill:white; stroke:none;" height="8"
      /><path style="stroke:none;" d="M293.9844 61.7031 C293.9375 62.8906 293.1562 63.6562 292.3125 63.6562 C291.2656 63.6562 290.5 62.6875 290.5 60.7188 C290.5 59.2812 291.1562 58.1562 292.3438 58.1562 C293.1406 58.1562 293.7812 58.6875 294.0938 59.6406 L293.9844 61.7031 ZM295.9062 63.2812 C295.7344 63.375 295.5469 63.4219 295.3438 63.4219 C294.9531 63.4219 294.75 63.2188 294.75 62.4219 C294.75 61.4844 294.9688 59.5312 295.1875 57.8281 L295.0312 57.7188 L294.2344 57.9219 L294.1406 58.7969 C293.7812 58.0312 293.1562 57.6562 292.3906 57.6562 C291.0469 57.6562 289.5625 58.8438 289.5625 60.9531 C289.5625 63.0938 290.7188 64.1719 292.1406 64.1719 C293.0156 64.1719 293.6875 63.8125 294.0938 62.9844 C294.2031 63.8594 294.5156 64.1719 295.0156 64.1719 C295.4688 64.1719 295.7969 63.9062 296.0156 63.5625 L295.9062 63.2812 Z"
      /><rect x="317" y="96" width="5" style="fill:white; stroke:none;" height="10"
      /><path style="stroke:none;" d="M318.8906 104.6875 C318.4844 104.6875 318.1562 105.0469 318.1562 105.4219 C318.1562 105.8125 318.4844 106.1562 318.8906 106.1562 C319.2969 106.1562 319.6406 105.8125 319.6406 105.4219 C319.6406 105.0469 319.2969 104.6875 318.8906 104.6875 ZM320.4688 98.5781 C320.7188 98.8906 320.875 99.2656 320.8906 99.6562 C320.8906 100.1875 320.625 100.5 320.0312 100.7656 L319.4062 101.0156 C318.6406 101.3125 318.3906 101.5469 318.3906 101.9375 C318.3906 102.1094 318.4531 102.3438 318.5781 102.8125 L318.7344 103.3438 L319.1094 103.3438 L319.0938 102.5312 C319.0938 102.0938 319.2031 101.9688 319.7812 101.7344 L320.2031 101.5625 C321.0312 101.2188 321.4531 100.6875 321.4531 99.8438 C321.4531 98.1562 319.6562 97.1875 318.5 97.0312 C318.1094 97.125 317.9062 97.2969 317.9062 97.6406 C317.9062 97.9375 318.0625 98.1562 318.7188 98.2656 L320.4688 98.5781 Z"
    /></g
  ></g
></svg
>
