<?xml version="1.0"?>
<!DOCTYPE svg PUBLIC '-//W3C//DTD SVG 1.0//EN'
          'http://www.w3.org/TR/2001/REC-SVG-20010904/DTD/svg10.dtd'>
<svg xmlns:xlink="http://www.w3.org/1999/xlink" style="fill-opacity:1; color-rendering:auto; color-interpolation:auto; text-rendering:auto; stroke:black; stroke-linecap:square; stroke-miterlimit:10; shape-rendering:auto; stroke-opacity:1; fill:black; stroke-dasharray:none; font-weight:normal; stroke-width:1; font-family:'Dialog'; font-style:normal; stroke-linejoin:miter; font-size:12px; stroke-dashoffset:0; image-rendering:auto;" viewBox="0 0 282 82" xmlns="http://www.w3.org/2000/svg"
><!--Generated by the Batik Graphics2D SVG Generator--><defs id="genericDefs"
  /><g
  ><defs id="defs1"
    ><clipPath clipPathUnits="userSpaceOnUse" id="clipPath1"
      ><path d="M178 30 L200 30 L200 52 L178 52 L178 30 Z"
      /></clipPath
      ><clipPath clipPathUnits="userSpaceOnUse" id="clipPath2"
      ><path d="M148 41 C148 47.0751 143.0751 52 137 52 C130.9249 52 126 47.0751 126 41 C126 34.9249 130.9249 30 137 30 C143.0751 30 148 34.9249 148 41 Z"
      /></clipPath
      ><clipPath clipPathUnits="userSpaceOnUse" id="clipPath3"
      ><path style="fill-rule:evenodd;" d="M41 30 L52 41 L41 52 L30 41 Z"
      /></clipPath
    ></defs
    ><g style="fill:white; text-rendering:optimizeSpeed; stroke:white;"
    ><rect x="0" width="282" height="82" y="0" style="stroke:none;"
      /><polygon style="fill:none; stroke:black;" points=" 241 41 189 41"
      /><path d="M241 30 C235.5 35.5 246.5 46.5 241 52" style="fill:none; stroke:black;"
      /><polygon style="fill:none; stroke:black;" points=" 189 41 137 41"
      /><rect x="178" y="30" width="22" style="clip-path:url(#clipPath1); stroke:none;" height="22"
      /><rect x="178" y="30" width="22" style="clip-path:url(#clipPath1); fill:rgb(255,212,0); stroke:none;" height="22"
      /><rect x="178" y="30" width="22" style="clip-path:url(#clipPath1); fill:none; stroke:black;" height="22"
      /><rect x="178" y="30" width="22" style="fill:none; stroke:black;" height="22"
      /><circle style="clip-path:url(#clipPath2); stroke:none;" r="11" cx="137" cy="41"
      /><rect x="126" y="30" width="22" style="clip-path:url(#clipPath2); fill:rgb(255,212,0); stroke:none;" height="22"
      /><rect x="126" y="30" width="22" style="clip-path:url(#clipPath2); fill:none; stroke:black;" height="22"
      /><circle style="fill:none; stroke:black;" r="11" cx="137" cy="41"
      /><rect x="167" y="44" width="5" style="stroke:none;" height="10"
    /></g
    ><g style="font-family:'Serif'; text-rendering:optimizeSpeed; "
    ><path style="stroke:none;" d="M168.8906 52.6875 C168.4844 52.6875 168.1562 53.0469 168.1562 53.4219 C168.1562 53.8125 168.4844 54.1562 168.8906 54.1562 C169.2969 54.1562 169.6406 53.8125 169.6406 53.4219 C169.6406 53.0469 169.2969 52.6875 168.8906 52.6875 ZM170.4688 46.5781 C170.7188 46.8906 170.875 47.2656 170.8906 47.6562 C170.8906 48.1875 170.625 48.5 170.0312 48.7656 L169.4062 49.0156 C168.6406 49.3125 168.3906 49.5469 168.3906 49.9375 C168.3906 50.1094 168.4531 50.3438 168.5781 50.8125 L168.7344 51.3438 L169.1094 51.3438 L169.0938 50.5312 C169.0938 50.0938 169.2031 49.9688 169.7812 49.7344 L170.2031 49.5625 C171.0312 49.2188 171.4531 48.6875 171.4531 47.8438 C171.4531 46.1562 169.6562 45.1875 168.5 45.0312 C168.1094 45.125 167.9062 45.2969 167.9062 45.6406 C167.9062 45.9375 168.0625 46.1562 168.7188 46.2656 L170.4688 46.5781 Z"
      /><rect x="153" y="44" width="5" style="fill:white; stroke:none;" height="10"
      /><path style="stroke:none;" d="M154.8906 52.6875 C154.4844 52.6875 154.1562 53.0469 154.1562 53.4219 C154.1562 53.8125 154.4844 54.1562 154.8906 54.1562 C155.2969 54.1562 155.6406 53.8125 155.6406 53.4219 C155.6406 53.0469 155.2969 52.6875 154.8906 52.6875 ZM156.4688 46.5781 C156.7188 46.8906 156.875 47.2656 156.8906 47.6562 C156.8906 48.1875 156.625 48.5 156.0312 48.7656 L155.4062 49.0156 C154.6406 49.3125 154.3906 49.5469 154.3906 49.9375 C154.3906 50.1094 154.4531 50.3438 154.5781 50.8125 L154.7344 51.3438 L155.1094 51.3438 L155.0938 50.5312 C155.0938 50.0938 155.2031 49.9688 155.7812 49.7344 L156.2031 49.5625 C157.0312 49.2188 157.4531 48.6875 157.4531 47.8438 C157.4531 46.1562 155.6562 45.1875 154.5 45.0312 C154.1094 45.125 153.9062 45.2969 153.9062 45.6406 C153.9062 45.9375 154.0625 46.1562 154.7188 46.2656 L156.4688 46.5781 Z"
      /><rect x="204" y="45" width="8" style="fill:white; stroke:none;" height="8"
      /><path style="stroke:none;" d="M208.9844 50.7031 C208.9375 51.8906 208.1562 52.6562 207.3125 52.6562 C206.2656 52.6562 205.5 51.6875 205.5 49.7188 C205.5 48.2812 206.1562 47.1562 207.3438 47.1562 C208.1406 47.1562 208.7812 47.6875 209.0938 48.6406 L208.9844 50.7031 ZM210.9062 52.2812 C210.7344 52.375 210.5469 52.4219 210.3438 52.4219 C209.9531 52.4219 209.75 52.2188 209.75 51.4219 C209.75 50.4844 209.9688 48.5312 210.1875 46.8281 L210.0312 46.7188 L209.2344 46.9219 L209.1406 47.7969 C208.7812 47.0312 208.1562 46.6562 207.3906 46.6562 C206.0469 46.6562 204.5625 47.8438 204.5625 49.9531 C204.5625 52.0938 205.7188 53.1719 207.1406 53.1719 C208.0156 53.1719 208.6875 52.8125 209.0938 51.9844 C209.2031 52.8594 209.5156 53.1719 210.0156 53.1719 C210.4688 53.1719 210.7969 52.9062 211.0156 52.5625 L210.9062 52.2812 Z"
      /><polygon style="fill:none;" points=" 126 52 115 52 115 30 126 30 115 30 115 52"
      /><polygon style="fill:none;" points=" 93 41 41 41"
      /><polygon style="fill:white; clip-path:url(#clipPath3); stroke:none;" points=" 41 30 52 41 41 52 30 41"
      /><rect x="30" y="30" width="22" style="clip-path:url(#clipPath3); fill:rgb(165,67,153); stroke:none;" height="22"
      /><rect x="30" y="30" width="22" style="fill:none; clip-path:url(#clipPath3);" height="22"
      /><polygon style="fill:none;" points=" 41 30 52 41 41 52 30 41"
      /><rect x="71" y="44" width="5" style="fill:white; stroke:none;" height="10"
      /><path style="stroke:none;" d="M72.8906 52.6875 C72.4844 52.6875 72.1562 53.0469 72.1562 53.4219 C72.1562 53.8125 72.4844 54.1562 72.8906 54.1562 C73.2969 54.1562 73.6406 53.8125 73.6406 53.4219 C73.6406 53.0469 73.2969 52.6875 72.8906 52.6875 ZM74.4688 46.5781 C74.7188 46.8906 74.875 47.2656 74.8906 47.6562 C74.8906 48.1875 74.625 48.5 74.0312 48.7656 L73.4062 49.0156 C72.6406 49.3125 72.3906 49.5469 72.3906 49.9375 C72.3906 50.1094 72.4531 50.3438 72.5781 50.8125 L72.7344 51.3438 L73.1094 51.3438 L73.0938 50.5312 C73.0938 50.0938 73.2031 49.9688 73.7812 49.7344 L74.2031 49.5625 C75.0312 49.2188 75.4531 48.6875 75.4531 47.8438 C75.4531 46.1562 73.6562 45.1875 72.5 45.0312 C72.1094 45.125 71.9062 45.2969 71.9062 45.6406 C71.9062 45.9375 72.0625 46.1562 72.7188 46.2656 L74.4688 46.5781 Z"
      /><rect x="57" y="44" width="5" style="fill:white; stroke:none;" height="10"
      /><path style="stroke:none;" d="M58.8906 52.6875 C58.4844 52.6875 58.1562 53.0469 58.1562 53.4219 C58.1562 53.8125 58.4844 54.1562 58.8906 54.1562 C59.2969 54.1562 59.6406 53.8125 59.6406 53.4219 C59.6406 53.0469 59.2969 52.6875 58.8906 52.6875 ZM60.4688 46.5781 C60.7188 46.8906 60.875 47.2656 60.8906 47.6562 C60.8906 48.1875 60.625 48.5 60.0312 48.7656 L59.4062 49.0156 C58.6406 49.3125 58.3906 49.5469 58.3906 49.9375 C58.3906 50.1094 58.4531 50.3438 58.5781 50.8125 L58.7344 51.3438 L59.1094 51.3438 L59.0938 50.5312 C59.0938 50.0938 59.2031 49.9688 59.7812 49.7344 L60.2031 49.5625 C61.0312 49.2188 61.4531 48.6875 61.4531 47.8438 C61.4531 46.1562 59.6562 45.1875 58.5 45.0312 C58.1094 45.125 57.9062 45.2969 57.9062 45.6406 C57.9062 45.9375 58.0625 46.1562 58.7188 46.2656 L60.4688 46.5781 Z"
    /></g
  ></g
></svg
>
