<?xml version="1.0"?>
<!DOCTYPE svg PUBLIC '-//W3C//DTD SVG 1.0//EN'
          'http://www.w3.org/TR/2001/REC-SVG-20010904/DTD/svg10.dtd'>
<svg xmlns:xlink="http://www.w3.org/1999/xlink" style="fill-opacity:1; color-rendering:auto; color-interpolation:auto; text-rendering:auto; stroke:black; stroke-linecap:square; stroke-miterlimit:10; shape-rendering:auto; stroke-opacity:1; fill:black; stroke-dasharray:none; font-weight:normal; stroke-width:1; font-family:'Dialog'; font-style:normal; stroke-linejoin:miter; font-size:12px; stroke-dashoffset:0; image-rendering:auto;" viewBox="0 0 186 186" xmlns="http://www.w3.org/2000/svg"
><!--Generated by the Batik Graphics2D SVG Generator--><defs id="genericDefs"
  /><g
  ><defs id="defs1"
    ><clipPath clipPathUnits="userSpaceOnUse" id="clipPath1"
      ><path d="M104 93 C104 99.0751 99.0751 104 93 104 C86.9249 104 82 99.0751 82 93 C82 86.9249 86.9249 82 93 82 C99.0751 82 104 86.9249 104 93 Z"
      /></clipPath
      ><clipPath clipPathUnits="userSpaceOnUse" id="clipPath2"
      ><path style="fill-rule:evenodd;" d="M41 134 L52 156 L30 156 Z"
      /></clipPath
      ><clipPath clipPathUnits="userSpaceOnUse" id="clipPath3"
      ><path d="M52 93 C52 99.0751 47.0751 104 41 104 C34.9249 104 30 99.0751 30 93 C30 86.9249 34.9249 82 41 82 C47.0751 82 52 86.9249 52 93 Z"
      /></clipPath
      ><clipPath clipPathUnits="userSpaceOnUse" id="clipPath4"
      ><path d="M52 41 C52 47.0751 47.0751 52 41 52 C34.9249 52 30 47.0751 30 41 C30 34.9249 34.9249 30 41 30 C47.0751 30 52 34.9249 52 41 Z"
      /></clipPath
    ></defs
    ><g style="fill:white; text-rendering:optimizeSpeed; stroke:white;"
    ><rect x="0" width="186" height="186" y="0" style="stroke:none;"
      /><polygon style="fill:none; stroke:black;" points=" 145 93 93 93"
      /><path d="M145 82 C139.5 87.5 150.5 98.5 145 104" style="fill:none; stroke:black;"
      /><polygon style="fill:none; stroke:black;" points=" 93 93 41 145"
      /><polygon style="fill:none; stroke:black;" points=" 93 93 41 93"
      /><polygon style="fill:none; stroke:black;" points=" 93 93 41 41"
      /><circle style="clip-path:url(#clipPath1); stroke:none;" r="11" cx="93" cy="93"
      /><rect x="82" y="82" width="22" style="clip-path:url(#clipPath1); fill:rgb(0,144,188); stroke:none;" height="22"
      /><rect x="82" y="82" width="22" style="clip-path:url(#clipPath1); fill:none; stroke:black;" height="22"
      /><circle style="fill:none; stroke:black;" r="11" cx="93" cy="93"
      /><polygon style="clip-path:url(#clipPath2); stroke:none;" points=" 41 134 52 156 30 156"
      /><rect x="30" y="134" width="22" style="clip-path:url(#clipPath2); fill:rgb(0,166,81); stroke:none;" height="22"
      /><rect x="30" y="134" width="22" style="clip-path:url(#clipPath2); fill:none; stroke:black;" height="22"
      /><polygon style="fill:none; stroke:black;" points=" 41 134 52 156 30 156"
      /><circle style="clip-path:url(#clipPath3); stroke:none;" r="11" cx="41" cy="93"
      /><rect x="30" y="82" width="22" style="clip-path:url(#clipPath3); fill:rgb(0,144,188); stroke:none;" height="22"
      /><rect x="30" y="82" width="22" style="clip-path:url(#clipPath3); fill:none; stroke:black;" height="22"
      /><circle style="fill:none; stroke:black;" r="11" cx="41" cy="93"
      /><circle style="clip-path:url(#clipPath4); stroke:none;" r="11" cx="41" cy="41"
      /><rect x="30" y="30" width="22" style="clip-path:url(#clipPath4); fill:rgb(0,144,188); stroke:none;" height="22"
      /><rect x="30" y="30" width="22" style="clip-path:url(#clipPath4); fill:none; stroke:black;" height="22"
      /><circle style="fill:none; stroke:black;" r="11" cx="41" cy="41"
      /><rect x="79" y="110" width="5" style="stroke:none;" height="10"
    /></g
    ><g style="font-family:'Serif'; text-rendering:optimizeSpeed; "
    ><path style="stroke:none;" d="M80.8906 118.6875 C80.4844 118.6875 80.1562 119.0469 80.1562 119.4219 C80.1562 119.8125 80.4844 120.1562 80.8906 120.1562 C81.2969 120.1562 81.6406 119.8125 81.6406 119.4219 C81.6406 119.0469 81.2969 118.6875 80.8906 118.6875 ZM82.4688 112.5781 C82.7188 112.8906 82.875 113.2656 82.8906 113.6562 C82.8906 114.1875 82.625 114.5 82.0312 114.7656 L81.4062 115.0156 C80.6406 115.3125 80.3906 115.5469 80.3906 115.9375 C80.3906 116.1094 80.4531 116.3438 80.5781 116.8125 L80.7344 117.3438 L81.1094 117.3438 L81.0938 116.5312 C81.0938 116.0938 81.2031 115.9688 81.7812 115.7344 L82.2031 115.5625 C83.0312 115.2188 83.4531 114.6875 83.4531 113.8438 C83.4531 112.1562 81.6562 111.1875 80.5 111.0312 C80.1094 111.125 79.9062 111.2969 79.9062 111.6406 C79.9062 111.9375 80.0625 112.1562 80.7188 112.2656 L82.4688 112.5781 Z"
      /><rect x="60" y="129" width="5" style="fill:white; stroke:none;" height="10"
      /><path style="stroke:none;" d="M61.8906 137.6875 C61.4844 137.6875 61.1562 138.0469 61.1562 138.4219 C61.1562 138.8125 61.4844 139.1562 61.8906 139.1562 C62.2969 139.1562 62.6406 138.8125 62.6406 138.4219 C62.6406 138.0469 62.2969 137.6875 61.8906 137.6875 ZM63.4688 131.5781 C63.7188 131.8906 63.875 132.2656 63.8906 132.6562 C63.8906 133.1875 63.625 133.5 63.0312 133.7656 L62.4062 134.0156 C61.6406 134.3125 61.3906 134.5469 61.3906 134.9375 C61.3906 135.1094 61.4531 135.3438 61.5781 135.8125 L61.7344 136.3438 L62.1094 136.3438 L62.0938 135.5312 C62.0938 135.0938 62.2031 134.9688 62.7812 134.7344 L63.2031 134.5625 C64.0312 134.2188 64.4531 133.6875 64.4531 132.8438 C64.4531 131.1562 62.6562 130.1875 61.5 130.0312 C61.1094 130.125 60.9062 130.2969 60.9062 130.6406 C60.9062 130.9375 61.0625 131.1562 61.7188 131.2656 L63.4688 131.5781 Z"
      /><rect x="71" y="96" width="5" style="fill:white; stroke:none;" height="10"
      /><path style="stroke:none;" d="M72.8906 104.6875 C72.4844 104.6875 72.1562 105.0469 72.1562 105.4219 C72.1562 105.8125 72.4844 106.1562 72.8906 106.1562 C73.2969 106.1562 73.6406 105.8125 73.6406 105.4219 C73.6406 105.0469 73.2969 104.6875 72.8906 104.6875 ZM74.4688 98.5781 C74.7188 98.8906 74.875 99.2656 74.8906 99.6562 C74.8906 100.1875 74.625 100.5 74.0312 100.7656 L73.4062 101.0156 C72.6406 101.3125 72.3906 101.5469 72.3906 101.9375 C72.3906 102.1094 72.4531 102.3438 72.5781 102.8125 L72.7344 103.3438 L73.1094 103.3438 L73.0938 102.5312 C73.0938 102.0938 73.2031 101.9688 73.7812 101.7344 L74.2031 101.5625 C75.0312 101.2188 75.4531 100.6875 75.4531 99.8438 C75.4531 98.1562 73.6562 97.1875 72.5 97.0312 C72.1094 97.125 71.9062 97.2969 71.9062 97.6406 C71.9062 97.9375 72.0625 98.1562 72.7188 98.2656 L74.4688 98.5781 Z"
      /><rect x="57" y="96" width="5" style="fill:white; stroke:none;" height="10"
      /><path style="stroke:none;" d="M58.8906 104.6875 C58.4844 104.6875 58.1562 105.0469 58.1562 105.4219 C58.1562 105.8125 58.4844 106.1562 58.8906 106.1562 C59.2969 106.1562 59.6406 105.8125 59.6406 105.4219 C59.6406 105.0469 59.2969 104.6875 58.8906 104.6875 ZM60.4688 98.5781 C60.7188 98.8906 60.875 99.2656 60.8906 99.6562 C60.8906 100.1875 60.625 100.5 60.0312 100.7656 L59.4062 101.0156 C58.6406 101.3125 58.3906 101.5469 58.3906 101.9375 C58.3906 102.1094 58.4531 102.3438 58.5781 102.8125 L58.7344 103.3438 L59.1094 103.3438 L59.0938 102.5312 C59.0938 102.0938 59.2031 101.9688 59.7812 101.7344 L60.2031 101.5625 C61.0312 101.2188 61.4531 100.6875 61.4531 99.8438 C61.4531 98.1562 59.6562 97.1875 58.5 97.0312 C58.1094 97.125 57.9062 97.2969 57.9062 97.6406 C57.9062 97.9375 58.0625 98.1562 58.7188 98.2656 L60.4688 98.5781 Z"
      /><rect x="68" y="77" width="5" style="fill:white; stroke:none;" height="10"
      /><path style="stroke:none;" d="M69.8906 85.6875 C69.4844 85.6875 69.1562 86.0469 69.1562 86.4219 C69.1562 86.8125 69.4844 87.1562 69.8906 87.1562 C70.2969 87.1562 70.6406 86.8125 70.6406 86.4219 C70.6406 86.0469 70.2969 85.6875 69.8906 85.6875 ZM71.4688 79.5781 C71.7188 79.8906 71.875 80.2656 71.8906 80.6562 C71.8906 81.1875 71.625 81.5 71.0312 81.7656 L70.4062 82.0156 C69.6406 82.3125 69.3906 82.5469 69.3906 82.9375 C69.3906 83.1094 69.4531 83.3438 69.5781 83.8125 L69.7344 84.3438 L70.1094 84.3438 L70.0938 83.5312 C70.0938 83.0938 70.2031 82.9688 70.7812 82.7344 L71.2031 82.5625 C72.0312 82.2188 72.4531 81.6875 72.4531 80.8438 C72.4531 79.1562 70.6562 78.1875 69.5 78.0312 C69.1094 78.125 68.9062 78.2969 68.9062 78.6406 C68.9062 78.9375 69.0625 79.1562 69.7188 79.2656 L71.4688 79.5781 Z"
      /><rect x="49" y="58" width="5" style="fill:white; stroke:none;" height="10"
      /><path style="stroke:none;" d="M50.8906 66.6875 C50.4844 66.6875 50.1562 67.0469 50.1562 67.4219 C50.1562 67.8125 50.4844 68.1562 50.8906 68.1562 C51.2969 68.1562 51.6406 67.8125 51.6406 67.4219 C51.6406 67.0469 51.2969 66.6875 50.8906 66.6875 ZM52.4688 60.5781 C52.7188 60.8906 52.875 61.2656 52.8906 61.6562 C52.8906 62.1875 52.625 62.5 52.0312 62.7656 L51.4062 63.0156 C50.6406 63.3125 50.3906 63.5469 50.3906 63.9375 C50.3906 64.1094 50.4531 64.3438 50.5781 64.8125 L50.7344 65.3438 L51.1094 65.3438 L51.0938 64.5312 C51.0938 64.0938 51.2031 63.9688 51.7812 63.7344 L52.2031 63.5625 C53.0312 63.2188 53.4531 62.6875 53.4531 61.8438 C53.4531 60.1562 51.6562 59.1875 50.5 59.0312 C50.1094 59.125 49.9062 59.2969 49.9062 59.6406 C49.9062 59.9375 50.0625 60.1562 50.7188 60.2656 L52.4688 60.5781 Z"
      /><rect x="109" y="96" width="5" style="fill:white; stroke:none;" height="10"
      /><path style="stroke:none;" d="M110.8906 104.6875 C110.4844 104.6875 110.1562 105.0469 110.1562 105.4219 C110.1562 105.8125 110.4844 106.1562 110.8906 106.1562 C111.2969 106.1562 111.6406 105.8125 111.6406 105.4219 C111.6406 105.0469 111.2969 104.6875 110.8906 104.6875 ZM112.4688 98.5781 C112.7188 98.8906 112.875 99.2656 112.8906 99.6562 C112.8906 100.1875 112.625 100.5 112.0312 100.7656 L111.4062 101.0156 C110.6406 101.3125 110.3906 101.5469 110.3906 101.9375 C110.3906 102.1094 110.4531 102.3438 110.5781 102.8125 L110.7344 103.3438 L111.1094 103.3438 L111.0938 102.5312 C111.0938 102.0938 111.2031 101.9688 111.7812 101.7344 L112.2031 101.5625 C113.0312 101.2188 113.4531 100.6875 113.4531 99.8438 C113.4531 98.1562 111.6562 97.1875 110.5 97.0312 C110.1094 97.125 109.9062 97.2969 109.9062 97.6406 C109.9062 97.9375 110.0625 98.1562 110.7188 98.2656 L112.4688 98.5781 Z"
    /></g
  ></g
></svg
>
