<?xml version="1.0"?>
<!DOCTYPE svg PUBLIC '-//W3C//DTD SVG 1.0//EN'
          'http://www.w3.org/TR/2001/REC-SVG-20010904/DTD/svg10.dtd'>
<svg xmlns:xlink="http://www.w3.org/1999/xlink" style="fill-opacity:1; color-rendering:auto; color-interpolation:auto; text-rendering:auto; stroke:black; stroke-linecap:square; stroke-miterlimit:10; shape-rendering:auto; stroke-opacity:1; fill:black; stroke-dasharray:none; font-weight:normal; stroke-width:1; font-family:'Dialog'; font-style:normal; stroke-linejoin:miter; font-size:12px; stroke-dashoffset:0; image-rendering:auto;" viewBox="0 0 219 105" xmlns="http://www.w3.org/2000/svg"
><!--Generated by the Batik Graphics2D SVG Generator--><defs id="genericDefs"
  /><g
  ><defs id="defs1"
    ><clipPath clipPathUnits="userSpaceOnUse" id="clipPath1"
      ><path style="fill-rule:evenodd;" d="M109 30 L120 52 L98 52 Z"
      /></clipPath
      ><clipPath clipPathUnits="userSpaceOnUse" id="clipPath2"
      ><path d="M52 41 C52 47.0751 47.0751 52 41 52 C34.9249 52 30 47.0751 30 41 C30 34.9249 34.9249 30 41 30 C47.0751 30 52 34.9249 52 41 Z"
      /></clipPath
    ></defs
    ><g style="fill:white; text-rendering:optimizeSpeed; stroke:white;"
    ><rect x="0" width="219" height="105" y="0" style="stroke:none;"
      /><polygon style="fill:none; stroke:black;" points=" 178 41 109 41"
      /><path d="M178 30 C172.5 35.5 183.5 46.5 178 52" style="fill:none; stroke:black;"
      /><polygon style="fill:none; stroke:black;" points=" 109 41 41 41"
      /><polygon style="clip-path:url(#clipPath1); stroke:none;" points=" 109 30 120 52 98 52"
      /><rect x="98" y="30" width="22" style="clip-path:url(#clipPath1); fill:rgb(0,166,81); stroke:none;" height="22"
      /><rect x="98" y="30" width="22" style="clip-path:url(#clipPath1); fill:none; stroke:black;" height="22"
      /><polygon style="fill:none; stroke:black;" points=" 109 30 120 52 98 52"
      /><rect x="110" y="58" width="25" style="stroke:none;" height="10"
    /></g
    ><g style="text-rendering:optimizeSpeed; font-size:14px; font-family:'SansSerif';"
    ><path style="stroke:none;" d="M110.6094 69 L117.0625 69 L117.0625 67.8906 L114.2344 67.8906 C113.7031 67.8906 113.0781 67.9531 112.5469 67.9844 C114.9531 65.7031 116.5625 63.625 116.5625 61.5781 C116.5625 59.75 115.4219 58.5469 113.5781 58.5469 C112.2812 58.5469 111.4062 59.1406 110.5625 60.0469 L111.2969 60.7812 C111.8594 60.1094 112.5938 59.5938 113.4375 59.5938 C114.7031 59.5938 115.3125 60.4531 115.3125 61.625 C115.3125 63.3906 113.8438 65.4375 110.6094 68.25 L110.6094 69 ZM119.1762 69 L120.3481 69 L120.3481 63.3125 C120.3481 62.4375 120.2543 61.1875 120.1918 60.2969 L120.2543 60.2969 L121.0668 62.625 L123.0043 67.9688 L123.8793 67.9688 L125.8168 62.625 L126.6293 60.2969 L126.6918 60.2969 C126.6137 61.1875 126.52 62.4375 126.52 63.3125 L126.52 69 L127.7387 69 L127.7387 58.7188 L126.1762 58.7188 L124.2075 64.2188 C123.9731 64.9375 123.7543 65.6562 123.5043 66.375 L123.4418 66.375 C123.1918 65.6562 122.9575 64.9375 122.7075 64.2188 L120.7387 58.7188 L119.1762 58.7188 L119.1762 69 ZM133.4973 69.1875 C134.5285 69.1875 135.341 68.8281 136.0129 68.3906 L135.5442 67.5625 C134.9973 67.9375 134.3879 68.1562 133.6535 68.1562 C132.2004 68.1562 131.216 67.125 131.1223 65.5 L136.2473 65.5 C136.2785 65.3125 136.3098 65.0469 136.3098 64.7656 C136.3098 62.6094 135.216 61.2031 133.2785 61.2031 C131.5129 61.2031 129.8567 62.7344 129.8567 65.2031 C129.8567 67.7188 131.4817 69.1875 133.4973 69.1875 ZM131.1067 64.5781 C131.2629 63.0938 132.216 62.2188 133.2942 62.2188 C134.4817 62.2188 135.1848 63.0469 135.1848 64.5781 L131.1067 64.5781 Z"
      /><rect x="82" y="58" width="25" style="fill:white; stroke:none;" height="10"
      /><path style="stroke:none;" d="M85.7031 69.1875 C87.5156 69.1875 88.9844 68.0938 88.9844 66.25 C88.9844 64.8594 88.0156 63.9375 86.8125 63.6562 L86.8125 63.5938 C87.8906 63.1875 88.6406 62.3594 88.6406 61.125 C88.6406 59.5 87.375 58.5469 85.6562 58.5469 C84.4688 58.5469 83.5469 59.0625 82.7812 59.7812 L83.4688 60.5938 C84.0469 60 84.7656 59.5938 85.5938 59.5938 C86.6562 59.5938 87.3281 60.2344 87.3281 61.2188 C87.3281 62.3281 86.6094 63.1719 84.4844 63.1719 L84.4844 64.1562 C86.8594 64.1562 87.6875 64.9844 87.6875 66.2031 C87.6875 67.3906 86.8125 68.125 85.5938 68.125 C84.4375 68.125 83.6562 67.5781 83.0469 66.9375 L82.4062 67.7812 C83.0781 68.5156 84.0938 69.1875 85.7031 69.1875 ZM91.1762 69 L92.3481 69 L92.3481 63.3125 C92.3481 62.4375 92.2543 61.1875 92.1918 60.2969 L92.2543 60.2969 L93.0668 62.625 L95.0043 67.9688 L95.8793 67.9688 L97.8168 62.625 L98.6293 60.2969 L98.6918 60.2969 C98.6137 61.1875 98.52 62.4375 98.52 63.3125 L98.52 69 L99.7387 69 L99.7387 58.7188 L98.1762 58.7188 L96.2075 64.2188 C95.9731 64.9375 95.7543 65.6562 95.5043 66.375 L95.4418 66.375 C95.1918 65.6562 94.9575 64.9375 94.7075 64.2188 L92.7387 58.7188 L91.1762 58.7188 L91.1762 69 ZM105.4973 69.1875 C106.5285 69.1875 107.341 68.8281 108.0129 68.3906 L107.5442 67.5625 C106.9973 67.9375 106.3879 68.1562 105.6535 68.1562 C104.2004 68.1562 103.216 67.125 103.1223 65.5 L108.2473 65.5 C108.2785 65.3125 108.3098 65.0469 108.3098 64.7656 C108.3098 62.6094 107.216 61.2031 105.2785 61.2031 C103.5129 61.2031 101.8567 62.7344 101.8567 65.2031 C101.8567 67.7188 103.4817 69.1875 105.4973 69.1875 ZM103.1067 64.5781 C103.2629 63.0938 104.216 62.2188 105.2942 62.2188 C106.4817 62.2188 107.1848 63.0469 107.1848 64.5781 L103.1067 64.5781 Z"
    /></g
    ><g style="fill:white; text-rendering:optimizeSpeed; stroke:white;"
    ><circle r="11" style="clip-path:url(#clipPath2); stroke:none;" cx="41" cy="41"
      /><rect x="30" y="30" width="22" style="clip-path:url(#clipPath2); fill:rgb(0,144,188); stroke:none;" height="22"
      /><rect x="30" y="30" width="22" style="clip-path:url(#clipPath2); fill:none; stroke:black;" height="22"
      /><circle r="11" style="fill:none; stroke:black;" cx="41" cy="41"
      /><rect x="71" width="5" height="10" y="44" style="stroke:none;"
      /><path d="M72.8906 52.6875 C72.4844 52.6875 72.1562 53.0469 72.1562 53.4219 C72.1562 53.8125 72.4844 54.1562 72.8906 54.1562 C73.2969 54.1562 73.6406 53.8125 73.6406 53.4219 C73.6406 53.0469 73.2969 52.6875 72.8906 52.6875 ZM74.4688 46.5781 C74.7188 46.8906 74.875 47.2656 74.8906 47.6562 C74.8906 48.1875 74.625 48.5 74.0312 48.7656 L73.4062 49.0156 C72.6406 49.3125 72.3906 49.5469 72.3906 49.9375 C72.3906 50.1094 72.4531 50.3438 72.5781 50.8125 L72.7344 51.3438 L73.1094 51.3438 L73.0938 50.5312 C73.0938 50.0938 73.2031 49.9688 73.7812 49.7344 L74.2031 49.5625 C75.0312 49.2188 75.4531 48.6875 75.4531 47.8438 C75.4531 46.1562 73.6562 45.1875 72.5 45.0312 C72.1094 45.125 71.9062 45.2969 71.9062 45.6406 C71.9062 45.9375 72.0625 46.1562 72.7188 46.2656 L74.4688 46.5781 Z" style="fill:black; stroke:none;"
      /><rect x="57" width="5" height="10" y="44" style="stroke:none;"
      /><path d="M58.8906 52.6875 C58.4844 52.6875 58.1562 53.0469 58.1562 53.4219 C58.1562 53.8125 58.4844 54.1562 58.8906 54.1562 C59.2969 54.1562 59.6406 53.8125 59.6406 53.4219 C59.6406 53.0469 59.2969 52.6875 58.8906 52.6875 ZM60.4688 46.5781 C60.7188 46.8906 60.875 47.2656 60.8906 47.6562 C60.8906 48.1875 60.625 48.5 60.0312 48.7656 L59.4062 49.0156 C58.6406 49.3125 58.3906 49.5469 58.3906 49.9375 C58.3906 50.1094 58.4531 50.3438 58.5781 50.8125 L58.7344 51.3438 L59.1094 51.3438 L59.0938 50.5312 C59.0938 50.0938 59.2031 49.9688 59.7812 49.7344 L60.2031 49.5625 C61.0312 49.2188 61.4531 48.6875 61.4531 47.8438 C61.4531 46.1562 59.6562 45.1875 58.5 45.0312 C58.1094 45.125 57.9062 45.2969 57.9062 45.6406 C57.9062 45.9375 58.0625 46.1562 58.7188 46.2656 L60.4688 46.5781 Z" style="fill:black; stroke:none;"
      /><rect x="142" width="5" height="10" y="44" style="stroke:none;"
      /><path d="M143.8906 52.6875 C143.4844 52.6875 143.1562 53.0469 143.1562 53.4219 C143.1562 53.8125 143.4844 54.1562 143.8906 54.1562 C144.2969 54.1562 144.6406 53.8125 144.6406 53.4219 C144.6406 53.0469 144.2969 52.6875 143.8906 52.6875 ZM145.4688 46.5781 C145.7188 46.8906 145.875 47.2656 145.8906 47.6562 C145.8906 48.1875 145.625 48.5 145.0312 48.7656 L144.4062 49.0156 C143.6406 49.3125 143.3906 49.5469 143.3906 49.9375 C143.3906 50.1094 143.4531 50.3438 143.5781 50.8125 L143.7344 51.3438 L144.1094 51.3438 L144.0938 50.5312 C144.0938 50.0938 144.2031 49.9688 144.7812 49.7344 L145.2031 49.5625 C146.0312 49.2188 146.4531 48.6875 146.4531 47.8438 C146.4531 46.1562 144.6562 45.1875 143.5 45.0312 C143.1094 45.125 142.9062 45.2969 142.9062 45.6406 C142.9062 45.9375 143.0625 46.1562 143.7188 46.2656 L145.4688 46.5781 Z" style="fill:black; stroke:none;"
    /></g
  ></g
></svg
>
