<?xml version="1.0"?>
<!DOCTYPE svg PUBLIC '-//W3C//DTD SVG 1.0//EN'
          'http://www.w3.org/TR/2001/REC-SVG-20010904/DTD/svg10.dtd'>
<svg xmlns:xlink="http://www.w3.org/1999/xlink" style="fill-opacity:1; color-rendering:auto; color-interpolation:auto; text-rendering:auto; stroke:black; stroke-linecap:square; stroke-miterlimit:10; shape-rendering:auto; stroke-opacity:1; fill:black; stroke-dasharray:none; font-weight:normal; stroke-width:1; font-family:'Dialog'; font-style:normal; stroke-linejoin:miter; font-size:12px; stroke-dashoffset:0; image-rendering:auto;" viewBox="0 0 394 290" xmlns="http://www.w3.org/2000/svg"
><!--Generated by the Batik Graphics2D SVG Generator--><defs id="genericDefs"
  /><g
  ><defs id="defs1"
    ><clipPath clipPathUnits="userSpaceOnUse" id="clipPath1"
      ><path d="M290 121 L312 121 L312 143 L290 143 L290 121 Z"
      /></clipPath
      ><clipPath clipPathUnits="userSpaceOnUse" id="clipPath2"
      ><path d="M238 121 L260 121 L260 143 L238 143 L238 121 Z"
      /></clipPath
      ><clipPath clipPathUnits="userSpaceOnUse" id="clipPath3"
      ><path d="M208 132 C208 138.0751 203.0751 143 197 143 C190.9249 143 186 138.0751 186 132 C186 125.9249 190.9249 121 197 121 C203.0751 121 208 125.9249 208 132 Z"
      /></clipPath
      ><clipPath clipPathUnits="userSpaceOnUse" id="clipPath4"
      ><path d="M156 197 C156 203.0751 151.0751 208 145 208 C138.9249 208 134 203.0751 134 197 C134 190.9249 138.9249 186 145 186 C151.0751 186 156 190.9249 156 197 Z"
      /></clipPath
      ><clipPath clipPathUnits="userSpaceOnUse" id="clipPath5"
      ><path d="M82 238 L104 238 L104 260 L82 260 L82 238 Z"
      /></clipPath
      ><clipPath clipPathUnits="userSpaceOnUse" id="clipPath6"
      ><path d="M52 249 C52 255.0751 47.0751 260 41 260 C34.9249 260 30 255.0751 30 249 C30 242.9249 34.9249 238 41 238 C47.0751 238 52 242.9249 52 249 Z"
      /></clipPath
      ><clipPath clipPathUnits="userSpaceOnUse" id="clipPath7"
      ><path d="M82 134 L104 134 L104 156 L82 156 L82 134 Z"
      /></clipPath
      ><clipPath clipPathUnits="userSpaceOnUse" id="clipPath8"
      ><path style="fill-rule:evenodd;" d="M93 186 L104 208 L82 208 Z"
      /></clipPath
      ><clipPath clipPathUnits="userSpaceOnUse" id="clipPath9"
      ><path d="M52 145 C52 151.0751 47.0751 156 41 156 C34.9249 156 30 151.0751 30 145 C30 138.9249 34.9249 134 41 134 C47.0751 134 52 138.9249 52 145 Z"
      /></clipPath
      ><clipPath clipPathUnits="userSpaceOnUse" id="clipPath10"
      ><path d="M156 67 C156 73.0751 151.0751 78 145 78 C138.9249 78 134 73.0751 134 67 C134 60.9249 138.9249 56 145 56 C151.0751 56 156 60.9249 156 67 Z"
      /></clipPath
      ><clipPath clipPathUnits="userSpaceOnUse" id="clipPath11"
      ><path d="M82 82 L104 82 L104 104 L82 104 L82 82 Z"
      /></clipPath
      ><clipPath clipPathUnits="userSpaceOnUse" id="clipPath12"
      ><path d="M52 93 C52 99.0751 47.0751 104 41 104 C34.9249 104 30 99.0751 30 93 C30 86.9249 34.9249 82 41 82 C47.0751 82 52 86.9249 52 93 Z"
      /></clipPath
      ><clipPath clipPathUnits="userSpaceOnUse" id="clipPath13"
      ><path d="M82 30 L104 30 L104 52 L82 52 L82 30 Z"
      /></clipPath
      ><clipPath clipPathUnits="userSpaceOnUse" id="clipPath14"
      ><path d="M52 41 C52 47.0751 47.0751 52 41 52 C34.9249 52 30 47.0751 30 41 C30 34.9249 34.9249 30 41 30 C47.0751 30 52 34.9249 52 41 Z"
      /></clipPath
    ></defs
    ><g style="fill:white; text-rendering:optimizeSpeed; stroke:white;"
    ><rect x="0" width="394" height="290" y="0" style="stroke:none;"
      /><polygon style="fill:none; stroke:black;" points=" 353 132 301 132"
      /><path d="M353 121 C347.5 126.5 358.5 137.5 353 143" style="fill:none; stroke:black;"
      /><polygon style="fill:none; stroke:black;" points=" 301 132 249 132"
      /><rect x="290" y="121" width="22" style="clip-path:url(#clipPath1); stroke:none;" height="22"
      /><rect x="290" y="121" width="22" style="clip-path:url(#clipPath1); fill:rgb(0,144,188); stroke:none;" height="22"
      /><rect x="290" y="121" width="22" style="clip-path:url(#clipPath1); fill:none; stroke:black;" height="22"
      /><rect x="290" y="121" width="22" style="fill:none; stroke:black;" height="22"
      /><polygon style="fill:none; stroke:black;" points=" 249 132 197 132"
      /><rect x="238" y="121" width="22" style="clip-path:url(#clipPath2); stroke:none;" height="22"
      /><rect x="238" y="121" width="22" style="clip-path:url(#clipPath2); fill:rgb(0,144,188); stroke:none;" height="22"
      /><rect x="238" y="121" width="22" style="clip-path:url(#clipPath2); fill:none; stroke:black;" height="22"
      /><rect x="238" y="121" width="22" style="fill:none; stroke:black;" height="22"
      /><polygon style="fill:none; stroke:black;" points=" 197 132 145 197"
      /><polygon style="fill:none; stroke:black;" points=" 197 132 145 67"
      /><circle style="clip-path:url(#clipPath3); stroke:none;" r="11" cx="197" cy="132"
      /><rect x="186" y="121" width="22" style="clip-path:url(#clipPath3); fill:rgb(0,166,81); stroke:none;" height="22"
      /><rect x="186" y="121" width="22" style="clip-path:url(#clipPath3); fill:none; stroke:black;" height="22"
      /><circle style="fill:none; stroke:black;" r="11" cx="197" cy="132"
      /><polygon style="fill:none; stroke:black;" points=" 145 197 93 249"
      /><polygon style="fill:none; stroke:black;" points=" 145 197 93 145"
      /><circle style="clip-path:url(#clipPath4); stroke:none;" r="11" cx="145" cy="197"
      /><rect x="134" y="186" width="22" style="clip-path:url(#clipPath4); fill:rgb(0,166,81); stroke:none;" height="22"
      /><rect x="134" y="186" width="22" style="clip-path:url(#clipPath4); fill:none; stroke:black;" height="22"
      /><circle style="fill:none; stroke:black;" r="11" cx="145" cy="197"
      /><polygon style="fill:none; stroke:black;" points=" 93 249 41 249"
      /><rect x="82" y="238" width="22" style="clip-path:url(#clipPath5); stroke:none;" height="22"
      /><rect x="82" y="238" width="22" style="clip-path:url(#clipPath5); fill:rgb(0,144,188); stroke:none;" height="22"
      /><rect x="82" y="238" width="22" style="clip-path:url(#clipPath5); fill:none; stroke:black;" height="22"
      /><rect x="82" y="238" width="22" style="fill:none; stroke:black;" height="22"
      /><circle style="clip-path:url(#clipPath6); stroke:none;" r="11" cx="41" cy="249"
      /><rect x="30" y="238" width="22" style="clip-path:url(#clipPath6); fill:rgb(255,212,0); stroke:none;" height="22"
      /><rect x="30" y="238" width="22" style="clip-path:url(#clipPath6); fill:none; stroke:black;" height="22"
      /><circle style="fill:none; stroke:black;" r="11" cx="41" cy="249"
      /><rect x="70" y="252" width="7" style="stroke:none;" height="9"
    /></g
    ><g style="font-family:'Serif'; text-rendering:optimizeSpeed; "
    ><path style="stroke:none;" d="M71 257.5156 L73.9531 253.2656 L73.9531 257.5156 L71 257.5156 ZM76.2812 257.5156 L74.8594 257.5156 L74.8594 252.125 L74.2344 252.125 L70.3438 257.6406 L70.3438 258.1875 L73.9531 258.1875 L73.9531 261 L74.8594 261 L74.8594 258.1875 L76.2812 258.1875 L76.2812 257.5156 Z"
      /><rect x="57" y="250" width="6" style="fill:white; stroke:none;" height="13"
      /><path style="stroke:none;" d="M59.0938 256.2031 C59.0938 254.6562 59.75 253.8125 60.7969 253.8125 C61.7188 253.8125 62.2656 254.4531 62.2656 255.5156 C62.2656 256.7188 61.5 257.4375 60.1875 257.7031 L60.2969 258.3125 C62.2188 258.2344 62.9375 259.2188 62.9375 260.4375 C62.9375 261.625 62.2344 262.4219 60.9531 262.4219 C60.25 262.4219 59.6562 262.1562 59.0938 261.7188 L59.0938 256.2031 ZM58.2031 262.9062 L58.1094 265.375 L58.2656 265.4844 L59.1562 265.2656 L59.0156 262.0938 C59.5469 262.8438 60.3594 263.1719 61.1719 263.1719 C62.5625 263.1719 63.8594 262.2188 63.8594 260.4844 C63.8594 258.9531 62.875 258.1094 61.125 258 C62.5625 257.6094 63.1875 256.4531 63.1875 255.4844 C63.1875 254.0938 62.1562 253.3125 60.9062 253.3125 C59.2969 253.3125 58.2188 254.5469 58.2188 256.5156 L58.2031 262.9062 Z"
      /><polygon style="fill:none;" points=" 93 145 93 197"
      /><polygon style="fill:none;" points=" 93 145 41 145"
      /><rect x="82" y="134" width="22" style="clip-path:url(#clipPath7); fill:white; stroke:none;" height="22"
      /><rect x="82" y="134" width="22" style="clip-path:url(#clipPath7); fill:rgb(0,144,188); stroke:none;" height="22"
      /><rect x="82" y="134" width="22" style="fill:none; clip-path:url(#clipPath7);" height="22"
      /><rect x="82" width="22" height="22" y="134" style="fill:none;"
      /><polygon style="fill:white; clip-path:url(#clipPath8); stroke:none;" points=" 93 186 104 208 82 208"
      /><rect x="82" y="186" width="22" style="clip-path:url(#clipPath8); fill:rgb(237,28,36); stroke:none;" height="22"
      /><rect x="82" y="186" width="22" style="fill:none; clip-path:url(#clipPath8);" height="22"
      /><polygon style="fill:none;" points=" 93 186 104 208 82 208"
      /><path style="stroke:none;" d="M91 200 L92.875 200 C95.0938 200 96.2969 198.625 96.2969 196.3125 C96.2969 193.9844 95.0938 192.6562 92.8438 192.6562 L91 192.6562 L91 200 ZM91.9375 199.2344 L91.9375 193.4219 L92.7656 193.4219 C94.4844 193.4219 95.3438 194.4531 95.3438 196.3125 C95.3438 198.1562 94.4844 199.2344 92.7656 199.2344 L91.9375 199.2344 Z"
      /><circle style="fill:white; clip-path:url(#clipPath9); stroke:none;" r="11" cx="41" cy="145"
      /><rect x="30" y="134" width="22" style="clip-path:url(#clipPath9); fill:rgb(255,212,0); stroke:none;" height="22"
      /><rect x="30" y="134" width="22" style="fill:none; clip-path:url(#clipPath9);" height="22"
      /><circle r="11" style="fill:none;" cx="41" cy="145"
      /><rect x="98" y="159" width="6" style="fill:white; stroke:none;" height="10"
      /><path style="stroke:none;" d="M100.2344 160.6562 C100.5156 160.5938 100.7656 160.5625 101.0156 160.5625 C102.0625 160.5625 102.6719 161.1719 102.6719 162.2656 C102.6719 163.4375 101.9062 164.1094 100.7031 164.1094 L100.1875 164.1094 L100.1875 164.6406 L100.7969 164.6406 C102.2188 164.6406 102.9062 165.4219 102.9062 166.6406 C102.9062 167.8438 102.1719 168.6875 100.875 168.6875 C100.6094 168.6875 100.3125 168.6562 100.0156 168.5625 L99.7812 167.8125 C99.625 167.2812 99.5 167.0469 99.1406 167.0469 C98.8906 167.0469 98.7031 167.1719 98.5781 167.4219 C98.8438 168.6406 99.7812 169.1719 101.0312 169.1719 C102.7188 169.1719 103.875 168.125 103.875 166.7031 C103.875 165.5 103.2031 164.625 101.7969 164.375 C102.9531 164.0156 103.6094 163.2031 103.6094 162.2031 C103.6094 160.9219 102.6719 160.0781 101.1875 160.0781 C100.0469 160.0781 99.0625 160.5938 98.7969 161.6875 C98.9062 162 99.1094 162.1094 99.3594 162.1094 C99.7344 162.1094 99.8906 161.8906 100 161.4062 L100.2344 160.6562 Z"
      /><rect x="97" y="174" width="8" style="fill:white; stroke:none;" height="8"
      /><path style="stroke:none;" d="M101.9844 179.7031 C101.9375 180.8906 101.1562 181.6562 100.3125 181.6562 C99.2656 181.6562 98.5 180.6875 98.5 178.7188 C98.5 177.2812 99.1562 176.1562 100.3438 176.1562 C101.1406 176.1562 101.7812 176.6875 102.0938 177.6406 L101.9844 179.7031 ZM103.9062 181.2812 C103.7344 181.375 103.5469 181.4219 103.3438 181.4219 C102.9531 181.4219 102.75 181.2188 102.75 180.4219 C102.75 179.4844 102.9688 177.5312 103.1875 175.8281 L103.0312 175.7188 L102.2344 175.9219 L102.1406 176.7969 C101.7812 176.0312 101.1562 175.6562 100.3906 175.6562 C99.0469 175.6562 97.5625 176.8438 97.5625 178.9531 C97.5625 181.0938 98.7188 182.1719 100.1406 182.1719 C101.0156 182.1719 101.6875 181.8125 102.0938 180.9844 C102.2031 181.8594 102.5156 182.1719 103.0156 182.1719 C103.4688 182.1719 103.7969 181.9062 104.0156 181.5625 L103.9062 181.2812 Z"
      /><rect x="70" y="148" width="7" style="fill:white; stroke:none;" height="9"
      /><path style="stroke:none;" d="M71 153.5156 L73.9531 149.2656 L73.9531 153.5156 L71 153.5156 ZM76.2812 153.5156 L74.8594 153.5156 L74.8594 148.125 L74.2344 148.125 L70.3438 153.6406 L70.3438 154.1875 L73.9531 154.1875 L73.9531 157 L74.8594 157 L74.8594 154.1875 L76.2812 154.1875 L76.2812 153.5156 Z"
      /><rect x="57" y="146" width="6" style="fill:white; stroke:none;" height="13"
      /><path style="stroke:none;" d="M59.0938 152.2031 C59.0938 150.6562 59.75 149.8125 60.7969 149.8125 C61.7188 149.8125 62.2656 150.4531 62.2656 151.5156 C62.2656 152.7188 61.5 153.4375 60.1875 153.7031 L60.2969 154.3125 C62.2188 154.2344 62.9375 155.2188 62.9375 156.4375 C62.9375 157.625 62.2344 158.4219 60.9531 158.4219 C60.25 158.4219 59.6562 158.1562 59.0938 157.7188 L59.0938 152.2031 ZM58.2031 158.9062 L58.1094 161.375 L58.2656 161.4844 L59.1562 161.2656 L59.0156 158.0938 C59.5469 158.8438 60.3594 159.1719 61.1719 159.1719 C62.5625 159.1719 63.8594 158.2188 63.8594 156.4844 C63.8594 154.9531 62.875 154.1094 61.125 154 C62.5625 153.6094 63.1875 152.4531 63.1875 151.4844 C63.1875 150.0938 62.1562 149.3125 60.9062 149.3125 C59.2969 149.3125 58.2188 150.5469 58.2188 152.5156 L58.2031 158.9062 Z"
      /><rect x="131" y="214" width="6" style="fill:white; stroke:none;" height="9"
      /><path style="stroke:none;" d="M132.4219 222.0938 C133.0781 221.375 133.7031 220.7188 134.0312 220.3438 C135.9219 218.3125 136.5312 217.4688 136.5312 216.3594 C136.5312 215.0156 135.7812 214.0781 134.1562 214.0781 C132.9062 214.0781 131.7969 214.7031 131.5938 215.9688 C131.7188 216.2031 131.9062 216.3438 132.1562 216.3438 C132.4688 216.3438 132.6562 216.1094 132.7969 215.5938 L133.0938 214.6719 C133.3906 214.5938 133.6562 214.5625 133.8906 214.5625 C134.9219 214.5625 135.5469 215.3125 135.5469 216.4219 C135.5469 217.4375 134.9844 218.4219 133.7031 219.9062 C133.125 220.5781 132.3906 221.4375 131.6406 222.2812 L131.6406 223 L136.9219 223 L136.9219 222.0938 L132.4219 222.0938 Z"
      /><rect x="112" y="231" width="6" style="fill:white; stroke:none;" height="13"
      /><path style="stroke:none;" d="M114.0938 237.2031 C114.0938 235.6562 114.75 234.8125 115.7969 234.8125 C116.7188 234.8125 117.2656 235.4531 117.2656 236.5156 C117.2656 237.7188 116.5 238.4375 115.1875 238.7031 L115.2969 239.3125 C117.2188 239.2344 117.9375 240.2188 117.9375 241.4375 C117.9375 242.625 117.2344 243.4219 115.9531 243.4219 C115.25 243.4219 114.6562 243.1562 114.0938 242.7188 L114.0938 237.2031 ZM113.2031 243.9062 L113.1094 246.375 L113.2656 246.4844 L114.1562 246.2656 L114.0156 243.0938 C114.5469 243.8438 115.3594 244.1719 116.1719 244.1719 C117.5625 244.1719 118.8594 243.2188 118.8594 241.4844 C118.8594 239.9531 117.875 239.1094 116.125 239 C117.5625 238.6094 118.1875 237.4531 118.1875 236.4844 C118.1875 235.0938 117.1562 234.3125 115.9062 234.3125 C114.2969 234.3125 113.2188 235.5469 113.2188 237.5156 L113.2031 243.9062 Z"
      /><rect x="119" y="181" width="7" style="fill:white; stroke:none;" height="9"
      /><path style="stroke:none;" d="M120 186.5156 L122.9531 182.2656 L122.9531 186.5156 L120 186.5156 ZM125.2812 186.5156 L123.8594 186.5156 L123.8594 181.125 L123.2344 181.125 L119.3438 186.6406 L119.3438 187.1875 L122.9531 187.1875 L122.9531 190 L123.8594 190 L123.8594 187.1875 L125.2812 187.1875 L125.2812 186.5156 Z"
      /><rect x="101" y="160" width="6" style="fill:white; stroke:none;" height="13"
      /><path style="stroke:none;" d="M103.0938 166.2031 C103.0938 164.6562 103.75 163.8125 104.7969 163.8125 C105.7188 163.8125 106.2656 164.4531 106.2656 165.5156 C106.2656 166.7188 105.5 167.4375 104.1875 167.7031 L104.2969 168.3125 C106.2188 168.2344 106.9375 169.2188 106.9375 170.4375 C106.9375 171.625 106.2344 172.4219 104.9531 172.4219 C104.25 172.4219 103.6562 172.1562 103.0938 171.7188 L103.0938 166.2031 ZM102.2031 172.9062 L102.1094 175.375 L102.2656 175.4844 L103.1562 175.2656 L103.0156 172.0938 C103.5469 172.8438 104.3594 173.1719 105.1719 173.1719 C106.5625 173.1719 107.8594 172.2188 107.8594 170.4844 C107.8594 168.9531 106.875 168.1094 105.125 168 C106.5625 167.6094 107.1875 166.4531 107.1875 165.4844 C107.1875 164.0938 106.1562 163.3125 104.9062 163.3125 C103.2969 163.3125 102.2188 164.5469 102.2188 166.5156 L102.2031 172.9062 Z"
      /><polygon style="fill:none;" points=" 145 67 93 93"
      /><polygon style="fill:none;" points=" 145 67 93 41"
      /><circle style="fill:white; clip-path:url(#clipPath10); stroke:none;" r="11" cx="145" cy="67"
      /><rect x="134" y="56" width="22" style="clip-path:url(#clipPath10); fill:rgb(0,166,81); stroke:none;" height="22"
      /><rect x="134" y="56" width="22" style="fill:none; clip-path:url(#clipPath10);" height="22"
      /><circle r="11" style="fill:none;" cx="145" cy="67"
      /><polygon style="fill:none;" points=" 93 93 41 93"
      /><rect x="82" y="82" width="22" style="clip-path:url(#clipPath11); fill:white; stroke:none;" height="22"
      /><rect x="82" y="82" width="22" style="clip-path:url(#clipPath11); fill:rgb(0,144,188); stroke:none;" height="22"
      /><rect x="82" y="82" width="22" style="fill:none; clip-path:url(#clipPath11);" height="22"
      /><rect x="82" width="22" height="22" y="82" style="fill:none;"
      /><circle style="fill:white; clip-path:url(#clipPath12); stroke:none;" r="11" cx="41" cy="93"
      /><rect x="30" y="82" width="22" style="clip-path:url(#clipPath12); fill:rgb(255,212,0); stroke:none;" height="22"
      /><rect x="30" y="82" width="22" style="fill:none; clip-path:url(#clipPath12);" height="22"
      /><circle r="11" style="fill:none;" cx="41" cy="93"
      /><rect x="70" y="96" width="7" style="fill:white; stroke:none;" height="9"
      /><path style="stroke:none;" d="M71 101.5156 L73.9531 97.2656 L73.9531 101.5156 L71 101.5156 ZM76.2812 101.5156 L74.8594 101.5156 L74.8594 96.125 L74.2344 96.125 L70.3438 101.6406 L70.3438 102.1875 L73.9531 102.1875 L73.9531 105 L74.8594 105 L74.8594 102.1875 L76.2812 102.1875 L76.2812 101.5156 Z"
      /><rect x="57" y="94" width="6" style="fill:white; stroke:none;" height="13"
      /><path style="stroke:none;" d="M59.0938 100.2031 C59.0938 98.6562 59.75 97.8125 60.7969 97.8125 C61.7188 97.8125 62.2656 98.4531 62.2656 99.5156 C62.2656 100.7188 61.5 101.4375 60.1875 101.7031 L60.2969 102.3125 C62.2188 102.2344 62.9375 103.2188 62.9375 104.4375 C62.9375 105.625 62.2344 106.4219 60.9531 106.4219 C60.25 106.4219 59.6562 106.1562 59.0938 105.7188 L59.0938 100.2031 ZM58.2031 106.9062 L58.1094 109.375 L58.2656 109.4844 L59.1562 109.2656 L59.0156 106.0938 C59.5469 106.8438 60.3594 107.1719 61.1719 107.1719 C62.5625 107.1719 63.8594 106.2188 63.8594 104.4844 C63.8594 102.9531 62.875 102.1094 61.125 102 C62.5625 101.6094 63.1875 100.4531 63.1875 99.4844 C63.1875 98.0938 62.1562 97.3125 60.9062 97.3125 C59.2969 97.3125 58.2188 98.5469 58.2188 100.5156 L58.2031 106.9062 Z"
      /><polygon style="fill:none;" points=" 93 41 41 41"
      /><rect x="82" y="30" width="22" style="clip-path:url(#clipPath13); fill:white; stroke:none;" height="22"
      /><rect x="82" y="30" width="22" style="clip-path:url(#clipPath13); fill:rgb(165,67,153); stroke:none;" height="22"
      /><rect x="82" y="30" width="22" style="fill:none; clip-path:url(#clipPath13);" height="22"
      /><rect x="82" width="22" height="22" y="30" style="fill:none;"
      /><circle style="fill:white; clip-path:url(#clipPath14); stroke:none;" r="11" cx="41" cy="41"
      /><rect x="30" y="30" width="22" style="clip-path:url(#clipPath14); fill:rgb(255,212,0); stroke:none;" height="22"
      /><rect x="30" y="30" width="22" style="fill:none; clip-path:url(#clipPath14);" height="22"
      /><circle r="11" style="fill:none;" cx="41" cy="41"
      /><rect x="70" y="44" width="7" style="fill:white; stroke:none;" height="9"
      /><path style="stroke:none;" d="M71 49.5156 L73.9531 45.2656 L73.9531 49.5156 L71 49.5156 ZM76.2812 49.5156 L74.8594 49.5156 L74.8594 44.125 L74.2344 44.125 L70.3438 49.6406 L70.3438 50.1875 L73.9531 50.1875 L73.9531 53 L74.8594 53 L74.8594 50.1875 L76.2812 50.1875 L76.2812 49.5156 Z"
      /><rect x="57" y="42" width="6" style="fill:white; stroke:none;" height="13"
      /><path style="stroke:none;" d="M59.0938 48.2031 C59.0938 46.6562 59.75 45.8125 60.7969 45.8125 C61.7188 45.8125 62.2656 46.4531 62.2656 47.5156 C62.2656 48.7188 61.5 49.4375 60.1875 49.7031 L60.2969 50.3125 C62.2188 50.2344 62.9375 51.2188 62.9375 52.4375 C62.9375 53.625 62.2344 54.4219 60.9531 54.4219 C60.25 54.4219 59.6562 54.1562 59.0938 53.7188 L59.0938 48.2031 ZM58.2031 54.9062 L58.1094 57.375 L58.2656 57.4844 L59.1562 57.2656 L59.0156 54.0938 C59.5469 54.8438 60.3594 55.1719 61.1719 55.1719 C62.5625 55.1719 63.8594 54.2188 63.8594 52.4844 C63.8594 50.9531 62.875 50.1094 61.125 50 C62.5625 49.6094 63.1875 48.4531 63.1875 47.4844 C63.1875 46.0938 62.1562 45.3125 60.9062 45.3125 C59.2969 45.3125 58.2188 46.5469 58.2188 48.5156 L58.2031 54.9062 Z"
      /><rect x="127" y="78" width="6" style="fill:white; stroke:none;" height="9"
      /><path style="stroke:none;" d="M128.4219 86.0938 C129.0781 85.375 129.7031 84.7188 130.0312 84.3438 C131.9219 82.3125 132.5312 81.4688 132.5312 80.3594 C132.5312 79.0156 131.7812 78.0781 130.1562 78.0781 C128.9062 78.0781 127.7969 78.7031 127.5938 79.9688 C127.7188 80.2031 127.9062 80.3438 128.1562 80.3438 C128.4688 80.3438 128.6562 80.1094 128.7969 79.5938 L129.0938 78.6719 C129.3906 78.5938 129.6562 78.5625 129.8906 78.5625 C130.9219 78.5625 131.5469 79.3125 131.5469 80.4219 C131.5469 81.4375 130.9844 82.4219 129.7031 83.9062 C129.125 84.5781 128.3906 85.4375 127.6406 86.2812 L127.6406 87 L132.9219 87 L132.9219 86.0938 L128.4219 86.0938 Z"
      /><rect x="111" y="84" width="6" style="fill:white; stroke:none;" height="13"
      /><path style="stroke:none;" d="M113.0938 90.2031 C113.0938 88.6562 113.75 87.8125 114.7969 87.8125 C115.7188 87.8125 116.2656 88.4531 116.2656 89.5156 C116.2656 90.7188 115.5 91.4375 114.1875 91.7031 L114.2969 92.3125 C116.2188 92.2344 116.9375 93.2188 116.9375 94.4375 C116.9375 95.625 116.2344 96.4219 114.9531 96.4219 C114.25 96.4219 113.6562 96.1562 113.0938 95.7188 L113.0938 90.2031 ZM112.2031 96.9062 L112.1094 99.375 L112.2656 99.4844 L113.1562 99.2656 L113.0156 96.0938 C113.5469 96.8438 114.3594 97.1719 115.1719 97.1719 C116.5625 97.1719 117.8594 96.2188 117.8594 94.4844 C117.8594 92.9531 116.875 92.1094 115.125 92 C116.5625 91.6094 117.1875 90.4531 117.1875 89.4844 C117.1875 88.0938 116.1562 87.3125 114.9062 87.3125 C113.2969 87.3125 112.2188 88.5469 112.2188 90.5156 L112.2031 96.9062 Z"
      /><rect x="120" y="60" width="6" style="fill:white; stroke:none;" height="10"
      /><path style="stroke:none;" d="M123.3438 69.6875 C122.2031 69.6875 121.5312 68.5 121.5312 66.2969 C121.5312 66.2188 121.5312 66.125 121.5312 66.0469 C122.0938 65.5 122.7188 65.3125 123.3438 65.3125 C124.3125 65.3125 124.9531 65.9844 124.9531 67.4531 C124.9531 68.9375 124.3125 69.6875 123.3438 69.6875 ZM125.5312 61.0781 C122.3438 61.4531 120.5625 63.7656 120.5625 66.4531 C120.5625 68.7812 121.6094 70.1719 123.3125 70.1719 C124.8438 70.1719 125.9219 69.1094 125.9219 67.2812 C125.9219 65.6875 124.9688 64.6562 123.5625 64.6562 C122.8281 64.6562 122.1406 64.9844 121.5781 65.5781 C121.7969 63.4062 123.0781 61.9688 125.5938 61.3906 L125.5312 61.0781 Z"
      /><rect x="104" y="50" width="6" style="fill:white; stroke:none;" height="13"
      /><path style="stroke:none;" d="M106.0938 56.2031 C106.0938 54.6562 106.75 53.8125 107.7969 53.8125 C108.7188 53.8125 109.2656 54.4531 109.2656 55.5156 C109.2656 56.7188 108.5 57.4375 107.1875 57.7031 L107.2969 58.3125 C109.2188 58.2344 109.9375 59.2188 109.9375 60.4375 C109.9375 61.625 109.2344 62.4219 107.9531 62.4219 C107.25 62.4219 106.6562 62.1562 106.0938 61.7188 L106.0938 56.2031 ZM105.2031 62.9062 L105.1094 65.375 L105.2656 65.4844 L106.1562 65.2656 L106.0156 62.0938 C106.5469 62.8438 107.3594 63.1719 108.1719 63.1719 C109.5625 63.1719 110.8594 62.2188 110.8594 60.4844 C110.8594 58.9531 109.875 58.1094 108.125 58 C109.5625 57.6094 110.1875 56.4531 110.1875 55.4844 C110.1875 54.0938 109.1562 53.3125 107.9062 53.3125 C106.2969 53.3125 105.2188 54.5469 105.2188 56.5156 L105.2031 62.9062 Z"
      /><rect x="186" y="149" width="6" style="fill:white; stroke:none;" height="10"
      /><path style="stroke:none;" d="M188.2344 150.6562 C188.5156 150.5938 188.7656 150.5625 189.0156 150.5625 C190.0625 150.5625 190.6719 151.1719 190.6719 152.2656 C190.6719 153.4375 189.9062 154.1094 188.7031 154.1094 L188.1875 154.1094 L188.1875 154.6406 L188.7969 154.6406 C190.2188 154.6406 190.9062 155.4219 190.9062 156.6406 C190.9062 157.8438 190.1719 158.6875 188.875 158.6875 C188.6094 158.6875 188.3125 158.6562 188.0156 158.5625 L187.7812 157.8125 C187.625 157.2812 187.5 157.0469 187.1406 157.0469 C186.8906 157.0469 186.7031 157.1719 186.5781 157.4219 C186.8438 158.6406 187.7812 159.1719 189.0312 159.1719 C190.7188 159.1719 191.875 158.125 191.875 156.7031 C191.875 155.5 191.2031 154.625 189.7969 154.375 C190.9531 154.0156 191.6094 153.2031 191.6094 152.2031 C191.6094 150.9219 190.6719 150.0781 189.1875 150.0781 C188.0469 150.0781 187.0625 150.5938 186.7969 151.6875 C186.9062 152 187.1094 152.1094 187.3594 152.1094 C187.7344 152.1094 187.8906 151.8906 188 151.4062 L188.2344 150.6562 Z"
      /><rect x="161" y="180" width="8" style="fill:white; stroke:none;" height="8"
      /><path style="stroke:none;" d="M165.9844 185.7031 C165.9375 186.8906 165.1562 187.6562 164.3125 187.6562 C163.2656 187.6562 162.5 186.6875 162.5 184.7188 C162.5 183.2812 163.1562 182.1562 164.3438 182.1562 C165.1406 182.1562 165.7812 182.6875 166.0938 183.6406 L165.9844 185.7031 ZM167.9062 187.2812 C167.7344 187.375 167.5469 187.4219 167.3438 187.4219 C166.9531 187.4219 166.75 187.2188 166.75 186.4219 C166.75 185.4844 166.9688 183.5312 167.1875 181.8281 L167.0312 181.7188 L166.2344 181.9219 L166.1406 182.7969 C165.7812 182.0312 165.1562 181.6562 164.3906 181.6562 C163.0469 181.6562 161.5625 182.8438 161.5625 184.9531 C161.5625 187.0938 162.7188 188.1719 164.1406 188.1719 C165.0156 188.1719 165.6875 187.8125 166.0938 186.9844 C166.2031 187.8594 166.5156 188.1719 167.0156 188.1719 C167.4688 188.1719 167.7969 187.9062 168.0156 187.5625 L167.9062 187.2812 Z"
      /><rect x="173" y="114" width="6" style="fill:white; stroke:none;" height="10"
      /><path style="stroke:none;" d="M176.3438 123.6875 C175.2031 123.6875 174.5312 122.5 174.5312 120.2969 C174.5312 120.2188 174.5312 120.125 174.5312 120.0469 C175.0938 119.5 175.7188 119.3125 176.3438 119.3125 C177.3125 119.3125 177.9531 119.9844 177.9531 121.4531 C177.9531 122.9375 177.3125 123.6875 176.3438 123.6875 ZM178.5312 115.0781 C175.3438 115.4531 173.5625 117.7656 173.5625 120.4531 C173.5625 122.7812 174.6094 124.1719 176.3125 124.1719 C177.8438 124.1719 178.9219 123.1094 178.9219 121.2812 C178.9219 119.6875 177.9688 118.6562 176.5625 118.6562 C175.8281 118.6562 175.1406 118.9844 174.5781 119.5781 C174.7969 117.4062 176.0781 115.9688 178.5938 115.3906 L178.5312 115.0781 Z"
      /><rect x="148" y="85" width="8" style="fill:white; stroke:none;" height="8"
      /><path style="stroke:none;" d="M152.9844 90.7031 C152.9375 91.8906 152.1562 92.6562 151.3125 92.6562 C150.2656 92.6562 149.5 91.6875 149.5 89.7188 C149.5 88.2812 150.1562 87.1562 151.3438 87.1562 C152.1406 87.1562 152.7812 87.6875 153.0938 88.6406 L152.9844 90.7031 ZM154.9062 92.2812 C154.7344 92.375 154.5469 92.4219 154.3438 92.4219 C153.9531 92.4219 153.75 92.2188 153.75 91.4219 C153.75 90.4844 153.9688 88.5312 154.1875 86.8281 L154.0312 86.7188 L153.2344 86.9219 L153.1406 87.7969 C152.7812 87.0312 152.1562 86.6562 151.3906 86.6562 C150.0469 86.6562 148.5625 87.8438 148.5625 89.9531 C148.5625 92.0938 149.7188 93.1719 151.1406 93.1719 C152.0156 93.1719 152.6875 92.8125 153.0938 91.9844 C153.2031 92.8594 153.5156 93.1719 154.0156 93.1719 C154.4688 93.1719 154.7969 92.9062 155.0156 92.5625 L154.9062 92.2812 Z"
      /><rect x="226" y="135" width="7" style="fill:white; stroke:none;" height="9"
      /><path style="stroke:none;" d="M227 140.5156 L229.9531 136.2656 L229.9531 140.5156 L227 140.5156 ZM232.2812 140.5156 L230.8594 140.5156 L230.8594 135.125 L230.2344 135.125 L226.3438 140.6406 L226.3438 141.1875 L229.9531 141.1875 L229.9531 144 L230.8594 144 L230.8594 141.1875 L232.2812 141.1875 L232.2812 140.5156 Z"
      /><rect x="213" y="133" width="6" style="fill:white; stroke:none;" height="13"
      /><path style="stroke:none;" d="M215.0938 139.2031 C215.0938 137.6562 215.75 136.8125 216.7969 136.8125 C217.7188 136.8125 218.2656 137.4531 218.2656 138.5156 C218.2656 139.7188 217.5 140.4375 216.1875 140.7031 L216.2969 141.3125 C218.2188 141.2344 218.9375 142.2188 218.9375 143.4375 C218.9375 144.625 218.2344 145.4219 216.9531 145.4219 C216.25 145.4219 215.6562 145.1562 215.0938 144.7188 L215.0938 139.2031 ZM214.2031 145.9062 L214.1094 148.375 L214.2656 148.4844 L215.1562 148.2656 L215.0156 145.0938 C215.5469 145.8438 216.3594 146.1719 217.1719 146.1719 C218.5625 146.1719 219.8594 145.2188 219.8594 143.4844 C219.8594 141.9531 218.875 141.1094 217.125 141 C218.5625 140.6094 219.1875 139.4531 219.1875 138.4844 C219.1875 137.0938 218.1562 136.3125 216.9062 136.3125 C215.2969 136.3125 214.2188 137.5469 214.2188 139.5156 L214.2031 145.9062 Z"
      /><rect x="278" y="135" width="7" style="fill:white; stroke:none;" height="9"
      /><path style="stroke:none;" d="M279 140.5156 L281.9531 136.2656 L281.9531 140.5156 L279 140.5156 ZM284.2812 140.5156 L282.8594 140.5156 L282.8594 135.125 L282.2344 135.125 L278.3438 140.6406 L278.3438 141.1875 L281.9531 141.1875 L281.9531 144 L282.8594 144 L282.8594 141.1875 L284.2812 141.1875 L284.2812 140.5156 Z"
      /><rect x="265" y="133" width="6" style="fill:white; stroke:none;" height="13"
      /><path style="stroke:none;" d="M267.0938 139.2031 C267.0938 137.6562 267.75 136.8125 268.7969 136.8125 C269.7188 136.8125 270.2656 137.4531 270.2656 138.5156 C270.2656 139.7188 269.5 140.4375 268.1875 140.7031 L268.2969 141.3125 C270.2188 141.2344 270.9375 142.2188 270.9375 143.4375 C270.9375 144.625 270.2344 145.4219 268.9531 145.4219 C268.25 145.4219 267.6562 145.1562 267.0938 144.7188 L267.0938 139.2031 ZM266.2031 145.9062 L266.1094 148.375 L266.2656 148.4844 L267.1562 148.2656 L267.0156 145.0938 C267.5469 145.8438 268.3594 146.1719 269.1719 146.1719 C270.5625 146.1719 271.8594 145.2188 271.8594 143.4844 C271.8594 141.9531 270.875 141.1094 269.125 141 C270.5625 140.6094 271.1875 139.4531 271.1875 138.4844 C271.1875 137.0938 270.1562 136.3125 268.9062 136.3125 C267.2969 136.3125 266.2188 137.5469 266.2188 139.5156 L266.2031 145.9062 Z"
      /><rect x="317" y="133" width="6" style="fill:white; stroke:none;" height="13"
      /><path style="stroke:none;" d="M319.0938 139.2031 C319.0938 137.6562 319.75 136.8125 320.7969 136.8125 C321.7188 136.8125 322.2656 137.4531 322.2656 138.5156 C322.2656 139.7188 321.5 140.4375 320.1875 140.7031 L320.2969 141.3125 C322.2188 141.2344 322.9375 142.2188 322.9375 143.4375 C322.9375 144.625 322.2344 145.4219 320.9531 145.4219 C320.25 145.4219 319.6562 145.1562 319.0938 144.7188 L319.0938 139.2031 ZM318.2031 145.9062 L318.1094 148.375 L318.2656 148.4844 L319.1562 148.2656 L319.0156 145.0938 C319.5469 145.8438 320.3594 146.1719 321.1719 146.1719 C322.5625 146.1719 323.8594 145.2188 323.8594 143.4844 C323.8594 141.9531 322.875 141.1094 321.125 141 C322.5625 140.6094 323.1875 139.4531 323.1875 138.4844 C323.1875 137.0938 322.1562 136.3125 320.9062 136.3125 C319.2969 136.3125 318.2188 137.5469 318.2188 139.5156 L318.2031 145.9062 Z"
    /></g
  ></g
></svg
>
