<?xml version="1.0"?>
<!DOCTYPE svg PUBLIC '-//W3C//DTD SVG 1.0//EN'
          'http://www.w3.org/TR/2001/REC-SVG-20010904/DTD/svg10.dtd'>
<svg xmlns:xlink="http://www.w3.org/1999/xlink" style="fill-opacity:1; color-rendering:auto; color-interpolation:auto; text-rendering:auto; stroke:black; stroke-linecap:square; stroke-miterlimit:10; shape-rendering:auto; stroke-opacity:1; fill:black; stroke-dasharray:none; font-weight:normal; stroke-width:1; font-family:'Dialog'; font-style:normal; stroke-linejoin:miter; font-size:12px; stroke-dashoffset:0; image-rendering:auto;" viewBox="0 0 498 134" xmlns="http://www.w3.org/2000/svg"
><!--Generated by the Batik Graphics2D SVG Generator--><defs id="genericDefs"
  /><g
  ><defs id="defs1"
    ><clipPath clipPathUnits="userSpaceOnUse" id="clipPath1"
      ><path d="M416 41 C416 47.0751 411.0751 52 405 52 C398.9249 52 394 47.0751 394 41 C394 34.9249 398.9249 30 405 30 C411.0751 30 416 34.9249 416 41 Z"
      /></clipPath
      ><clipPath clipPathUnits="userSpaceOnUse" id="clipPath2"
      ><path d="M364 41 C364 47.0751 359.0751 52 353 52 C346.9249 52 342 47.0751 342 41 C342 34.9249 346.9249 30 353 30 C359.0751 30 364 34.9249 364 41 Z"
      /></clipPath
      ><clipPath clipPathUnits="userSpaceOnUse" id="clipPath3"
      ><path d="M290 30 L312 30 L312 52 L290 52 L290 30 Z"
      /></clipPath
      ><clipPath clipPathUnits="userSpaceOnUse" id="clipPath4"
      ><path style="fill-rule:evenodd;" d="M301 82 L312 104 L290 104 Z"
      /></clipPath
      ><clipPath clipPathUnits="userSpaceOnUse" id="clipPath5"
      ><path d="M260 41 C260 47.0751 255.0751 52 249 52 C242.9249 52 238 47.0751 238 41 C238 34.9249 242.9249 30 249 30 C255.0751 30 260 34.9249 260 41 Z"
      /></clipPath
      ><clipPath clipPathUnits="userSpaceOnUse" id="clipPath6"
      ><path d="M186 30 L208 30 L208 52 L186 52 L186 30 Z"
      /></clipPath
      ><clipPath clipPathUnits="userSpaceOnUse" id="clipPath7"
      ><path style="fill-rule:evenodd;" d="M197 82 L208 104 L186 104 Z"
      /></clipPath
      ><clipPath clipPathUnits="userSpaceOnUse" id="clipPath8"
      ><path d="M156 41 C156 47.0751 151.0751 52 145 52 C138.9249 52 134 47.0751 134 41 C134 34.9249 138.9249 30 145 30 C151.0751 30 156 34.9249 156 41 Z"
      /></clipPath
      ><clipPath clipPathUnits="userSpaceOnUse" id="clipPath9"
      ><path d="M82 30 L104 30 L104 52 L82 52 L82 30 Z"
      /></clipPath
      ><clipPath clipPathUnits="userSpaceOnUse" id="clipPath10"
      ><path d="M52 41 C52 47.0751 47.0751 52 41 52 C34.9249 52 30 47.0751 30 41 C30 34.9249 34.9249 30 41 30 C47.0751 30 52 34.9249 52 41 Z"
      /></clipPath
    ></defs
    ><g style="fill:white; text-rendering:optimizeSpeed; stroke:white;"
    ><rect x="0" width="498" height="134" y="0" style="stroke:none;"
      /><polygon style="fill:none; stroke:black;" points=" 457 41 405 41"
      /><path d="M457 30 C451.5 35.5 462.5 46.5 457 52" style="fill:none; stroke:black;"
      /><polygon style="fill:none; stroke:black;" points=" 405 41 353 41"
      /><circle style="clip-path:url(#clipPath1); stroke:none;" r="11" cx="405" cy="41"
      /><rect x="394" y="30" width="22" style="clip-path:url(#clipPath1); fill:rgb(0,144,188); stroke:none;" height="22"
      /><rect x="394" y="30" width="22" style="clip-path:url(#clipPath1); fill:none; stroke:black;" height="22"
      /><circle style="fill:none; stroke:black;" r="11" cx="405" cy="41"
      /><polygon style="fill:none; stroke:black;" points=" 353 41 301 41"
      /><circle style="clip-path:url(#clipPath2); stroke:none;" r="11" cx="353" cy="41"
      /><rect x="342" y="30" width="22" style="clip-path:url(#clipPath2); fill:rgb(255,212,0); stroke:none;" height="22"
      /><rect x="342" y="30" width="22" style="clip-path:url(#clipPath2); fill:none; stroke:black;" height="22"
      /><circle style="fill:none; stroke:black;" r="11" cx="353" cy="41"
      /><polygon style="fill:none; stroke:black;" points=" 301 41 301 93"
      /><polygon style="fill:none; stroke:black;" points=" 301 41 249 41"
      /><rect x="290" y="30" width="22" style="clip-path:url(#clipPath3); stroke:none;" height="22"
      /><rect x="290" y="30" width="22" style="clip-path:url(#clipPath3); fill:rgb(0,144,188); stroke:none;" height="22"
      /><rect x="290" y="30" width="22" style="clip-path:url(#clipPath3); fill:none; stroke:black;" height="22"
      /><rect x="290" y="30" width="22" style="fill:none; stroke:black;" height="22"
      /><polygon style="clip-path:url(#clipPath4); stroke:none;" points=" 301 82 312 104 290 104"
      /><rect x="290" y="82" width="22" style="clip-path:url(#clipPath4); fill:rgb(237,28,36); stroke:none;" height="22"
      /><rect x="290" y="82" width="22" style="clip-path:url(#clipPath4); fill:none; stroke:black;" height="22"
      /><polygon style="fill:none; stroke:black;" points=" 301 82 312 104 290 104"
      /><polygon style="fill:none; stroke:black;" points=" 249 41 197 41"
      /><circle style="clip-path:url(#clipPath5); stroke:none;" r="11" cx="249" cy="41"
      /><rect x="238" y="30" width="22" style="clip-path:url(#clipPath5); fill:rgb(255,212,0); stroke:none;" height="22"
      /><rect x="238" y="30" width="22" style="clip-path:url(#clipPath5); fill:none; stroke:black;" height="22"
      /><circle style="fill:none; stroke:black;" r="11" cx="249" cy="41"
      /><polygon style="fill:none; stroke:black;" points=" 197 41 197 93"
      /><polygon style="fill:none; stroke:black;" points=" 197 41 145 41"
      /><rect x="186" y="30" width="22" style="clip-path:url(#clipPath6); stroke:none;" height="22"
      /><rect x="186" y="30" width="22" style="clip-path:url(#clipPath6); fill:rgb(0,144,188); stroke:none;" height="22"
      /><rect x="186" y="30" width="22" style="clip-path:url(#clipPath6); fill:none; stroke:black;" height="22"
      /><rect x="186" y="30" width="22" style="fill:none; stroke:black;" height="22"
      /><polygon style="clip-path:url(#clipPath7); stroke:none;" points=" 197 82 208 104 186 104"
      /><rect x="186" y="82" width="22" style="clip-path:url(#clipPath7); fill:rgb(237,28,36); stroke:none;" height="22"
      /><rect x="186" y="82" width="22" style="clip-path:url(#clipPath7); fill:none; stroke:black;" height="22"
      /><polygon style="fill:none; stroke:black;" points=" 197 82 208 104 186 104"
      /><polygon style="fill:none; stroke:black;" points=" 145 41 93 41"
      /><circle style="clip-path:url(#clipPath8); stroke:none;" r="11" cx="145" cy="41"
      /><rect x="134" y="30" width="22" style="clip-path:url(#clipPath8); fill:rgb(255,212,0); stroke:none;" height="22"
      /><rect x="134" y="30" width="22" style="clip-path:url(#clipPath8); fill:none; stroke:black;" height="22"
      /><circle style="fill:none; stroke:black;" r="11" cx="145" cy="41"
      /><polygon style="fill:none; stroke:black;" points=" 93 41 41 41"
      /><rect x="82" y="30" width="22" style="clip-path:url(#clipPath9); stroke:none;" height="22"
      /><rect x="82" y="30" width="22" style="clip-path:url(#clipPath9); fill:rgb(0,144,188); stroke:none;" height="22"
      /><rect x="82" y="30" width="22" style="clip-path:url(#clipPath9); fill:none; stroke:black;" height="22"
      /><rect x="82" y="30" width="22" style="fill:none; stroke:black;" height="22"
      /><circle style="clip-path:url(#clipPath10); stroke:none;" r="11" cx="41" cy="41"
      /><rect x="30" y="30" width="22" style="clip-path:url(#clipPath10); fill:rgb(255,212,0); stroke:none;" height="22"
      /><rect x="30" y="30" width="22" style="clip-path:url(#clipPath10); fill:none; stroke:black;" height="22"
      /><circle style="fill:none; stroke:black;" r="11" cx="41" cy="41"
      /><rect x="70" y="44" width="7" style="stroke:none;" height="9"
    /></g
    ><g style="font-family:'Serif'; text-rendering:optimizeSpeed; "
    ><path style="stroke:none;" d="M71 49.5156 L73.9531 45.2656 L73.9531 49.5156 L71 49.5156 ZM76.2812 49.5156 L74.8594 49.5156 L74.8594 44.125 L74.2344 44.125 L70.3438 49.6406 L70.3438 50.1875 L73.9531 50.1875 L73.9531 53 L74.8594 53 L74.8594 50.1875 L76.2812 50.1875 L76.2812 49.5156 Z"
      /><rect x="57" y="42" width="6" style="fill:white; stroke:none;" height="13"
      /><path style="stroke:none;" d="M59.0938 48.2031 C59.0938 46.6562 59.75 45.8125 60.7969 45.8125 C61.7188 45.8125 62.2656 46.4531 62.2656 47.5156 C62.2656 48.7188 61.5 49.4375 60.1875 49.7031 L60.2969 50.3125 C62.2188 50.2344 62.9375 51.2188 62.9375 52.4375 C62.9375 53.625 62.2344 54.4219 60.9531 54.4219 C60.25 54.4219 59.6562 54.1562 59.0938 53.7188 L59.0938 48.2031 ZM58.2031 54.9062 L58.1094 57.375 L58.2656 57.4844 L59.1562 57.2656 L59.0156 54.0938 C59.5469 54.8438 60.3594 55.1719 61.1719 55.1719 C62.5625 55.1719 63.8594 54.2188 63.8594 52.4844 C63.8594 50.9531 62.875 50.1094 61.125 50 C62.5625 49.6094 63.1875 48.4531 63.1875 47.4844 C63.1875 46.0938 62.1562 45.3125 60.9062 45.3125 C59.2969 45.3125 58.2188 46.5469 58.2188 48.5156 L58.2031 54.9062 Z"
      /><rect x="123" y="44" width="6" style="fill:white; stroke:none;" height="10"
      /><path style="stroke:none;" d="M125.2344 45.6562 C125.5156 45.5938 125.7656 45.5625 126.0156 45.5625 C127.0625 45.5625 127.6719 46.1719 127.6719 47.2656 C127.6719 48.4375 126.9062 49.1094 125.7031 49.1094 L125.1875 49.1094 L125.1875 49.6406 L125.7969 49.6406 C127.2188 49.6406 127.9062 50.4219 127.9062 51.6406 C127.9062 52.8438 127.1719 53.6875 125.875 53.6875 C125.6094 53.6875 125.3125 53.6562 125.0156 53.5625 L124.7812 52.8125 C124.625 52.2812 124.5 52.0469 124.1406 52.0469 C123.8906 52.0469 123.7031 52.1719 123.5781 52.4219 C123.8438 53.6406 124.7812 54.1719 126.0312 54.1719 C127.7188 54.1719 128.875 53.125 128.875 51.7031 C128.875 50.5 128.2031 49.625 126.7969 49.375 C127.9531 49.0156 128.6094 48.2031 128.6094 47.2031 C128.6094 45.9219 127.6719 45.0781 126.1875 45.0781 C125.0469 45.0781 124.0625 45.5938 123.7969 46.6875 C123.9062 47 124.1094 47.1094 124.3594 47.1094 C124.7344 47.1094 124.8906 46.8906 125 46.4062 L125.2344 45.6562 Z"
      /><rect x="109" y="42" width="6" style="fill:white; stroke:none;" height="13"
      /><path style="stroke:none;" d="M111.0938 48.2031 C111.0938 46.6562 111.75 45.8125 112.7969 45.8125 C113.7188 45.8125 114.2656 46.4531 114.2656 47.5156 C114.2656 48.7188 113.5 49.4375 112.1875 49.7031 L112.2969 50.3125 C114.2188 50.2344 114.9375 51.2188 114.9375 52.4375 C114.9375 53.625 114.2344 54.4219 112.9531 54.4219 C112.25 54.4219 111.6562 54.1562 111.0938 53.7188 L111.0938 48.2031 ZM110.2031 54.9062 L110.1094 57.375 L110.2656 57.4844 L111.1562 57.2656 L111.0156 54.0938 C111.5469 54.8438 112.3594 55.1719 113.1719 55.1719 C114.5625 55.1719 115.8594 54.2188 115.8594 52.4844 C115.8594 50.9531 114.875 50.1094 113.125 50 C114.5625 49.6094 115.1875 48.4531 115.1875 47.4844 C115.1875 46.0938 114.1562 45.3125 112.9062 45.3125 C111.2969 45.3125 110.2188 46.5469 110.2188 48.5156 L110.2031 54.9062 Z"
      /><rect x="202" y="55" width="6" style="fill:white; stroke:none;" height="10"
      /><path style="stroke:none;" d="M204.2344 56.6562 C204.5156 56.5938 204.7656 56.5625 205.0156 56.5625 C206.0625 56.5625 206.6719 57.1719 206.6719 58.2656 C206.6719 59.4375 205.9062 60.1094 204.7031 60.1094 L204.1875 60.1094 L204.1875 60.6406 L204.7969 60.6406 C206.2188 60.6406 206.9062 61.4219 206.9062 62.6406 C206.9062 63.8438 206.1719 64.6875 204.875 64.6875 C204.6094 64.6875 204.3125 64.6562 204.0156 64.5625 L203.7812 63.8125 C203.625 63.2812 203.5 63.0469 203.1406 63.0469 C202.8906 63.0469 202.7031 63.1719 202.5781 63.4219 C202.8438 64.6406 203.7812 65.1719 205.0312 65.1719 C206.7188 65.1719 207.875 64.125 207.875 62.7031 C207.875 61.5 207.2031 60.625 205.7969 60.375 C206.9531 60.0156 207.6094 59.2031 207.6094 58.2031 C207.6094 56.9219 206.6719 56.0781 205.1875 56.0781 C204.0469 56.0781 203.0625 56.5938 202.7969 57.6875 C202.9062 58 203.1094 58.1094 203.3594 58.1094 C203.7344 58.1094 203.8906 57.8906 204 57.4062 L204.2344 56.6562 Z"
      /><rect x="201" y="70" width="8" style="fill:white; stroke:none;" height="8"
      /><path style="stroke:none;" d="M205.9844 75.7031 C205.9375 76.8906 205.1562 77.6562 204.3125 77.6562 C203.2656 77.6562 202.5 76.6875 202.5 74.7188 C202.5 73.2812 203.1562 72.1562 204.3438 72.1562 C205.1406 72.1562 205.7812 72.6875 206.0938 73.6406 L205.9844 75.7031 ZM207.9062 77.2812 C207.7344 77.375 207.5469 77.4219 207.3438 77.4219 C206.9531 77.4219 206.75 77.2188 206.75 76.4219 C206.75 75.4844 206.9688 73.5312 207.1875 71.8281 L207.0312 71.7188 L206.2344 71.9219 L206.1406 72.7969 C205.7812 72.0312 205.1562 71.6562 204.3906 71.6562 C203.0469 71.6562 201.5625 72.8438 201.5625 74.9531 C201.5625 77.0938 202.7188 78.1719 204.1406 78.1719 C205.0156 78.1719 205.6875 77.8125 206.0938 76.9844 C206.2031 77.8594 206.5156 78.1719 207.0156 78.1719 C207.4688 78.1719 207.7969 77.9062 208.0156 77.5625 L207.9062 77.2812 Z"
      /><rect x="174" y="44" width="7" style="fill:white; stroke:none;" height="9"
      /><path style="stroke:none;" d="M175 49.5156 L177.9531 45.2656 L177.9531 49.5156 L175 49.5156 ZM180.2812 49.5156 L178.8594 49.5156 L178.8594 44.125 L178.2344 44.125 L174.3438 49.6406 L174.3438 50.1875 L177.9531 50.1875 L177.9531 53 L178.8594 53 L178.8594 50.1875 L180.2812 50.1875 L180.2812 49.5156 Z"
      /><rect x="161" y="42" width="6" style="fill:white; stroke:none;" height="13"
      /><path style="stroke:none;" d="M163.0938 48.2031 C163.0938 46.6562 163.75 45.8125 164.7969 45.8125 C165.7188 45.8125 166.2656 46.4531 166.2656 47.5156 C166.2656 48.7188 165.5 49.4375 164.1875 49.7031 L164.2969 50.3125 C166.2188 50.2344 166.9375 51.2188 166.9375 52.4375 C166.9375 53.625 166.2344 54.4219 164.9531 54.4219 C164.25 54.4219 163.6562 54.1562 163.0938 53.7188 L163.0938 48.2031 ZM162.2031 54.9062 L162.1094 57.375 L162.2656 57.4844 L163.1562 57.2656 L163.0156 54.0938 C163.5469 54.8438 164.3594 55.1719 165.1719 55.1719 C166.5625 55.1719 167.8594 54.2188 167.8594 52.4844 C167.8594 50.9531 166.875 50.1094 165.125 50 C166.5625 49.6094 167.1875 48.4531 167.1875 47.4844 C167.1875 46.0938 166.1562 45.3125 164.9062 45.3125 C163.2969 45.3125 162.2188 46.5469 162.2188 48.5156 L162.2031 54.9062 Z"
      /><rect x="227" y="44" width="6" style="fill:white; stroke:none;" height="10"
      /><path style="stroke:none;" d="M229.2344 45.6562 C229.5156 45.5938 229.7656 45.5625 230.0156 45.5625 C231.0625 45.5625 231.6719 46.1719 231.6719 47.2656 C231.6719 48.4375 230.9062 49.1094 229.7031 49.1094 L229.1875 49.1094 L229.1875 49.6406 L229.7969 49.6406 C231.2188 49.6406 231.9062 50.4219 231.9062 51.6406 C231.9062 52.8438 231.1719 53.6875 229.875 53.6875 C229.6094 53.6875 229.3125 53.6562 229.0156 53.5625 L228.7812 52.8125 C228.625 52.2812 228.5 52.0469 228.1406 52.0469 C227.8906 52.0469 227.7031 52.1719 227.5781 52.4219 C227.8438 53.6406 228.7812 54.1719 230.0312 54.1719 C231.7188 54.1719 232.875 53.125 232.875 51.7031 C232.875 50.5 232.2031 49.625 230.7969 49.375 C231.9531 49.0156 232.6094 48.2031 232.6094 47.2031 C232.6094 45.9219 231.6719 45.0781 230.1875 45.0781 C229.0469 45.0781 228.0625 45.5938 227.7969 46.6875 C227.9062 47 228.1094 47.1094 228.3594 47.1094 C228.7344 47.1094 228.8906 46.8906 229 46.4062 L229.2344 45.6562 Z"
      /><rect x="213" y="42" width="6" style="fill:white; stroke:none;" height="13"
      /><path style="stroke:none;" d="M215.0938 48.2031 C215.0938 46.6562 215.75 45.8125 216.7969 45.8125 C217.7188 45.8125 218.2656 46.4531 218.2656 47.5156 C218.2656 48.7188 217.5 49.4375 216.1875 49.7031 L216.2969 50.3125 C218.2188 50.2344 218.9375 51.2188 218.9375 52.4375 C218.9375 53.625 218.2344 54.4219 216.9531 54.4219 C216.25 54.4219 215.6562 54.1562 215.0938 53.7188 L215.0938 48.2031 ZM214.2031 54.9062 L214.1094 57.375 L214.2656 57.4844 L215.1562 57.2656 L215.0156 54.0938 C215.5469 54.8438 216.3594 55.1719 217.1719 55.1719 C218.5625 55.1719 219.8594 54.2188 219.8594 52.4844 C219.8594 50.9531 218.875 50.1094 217.125 50 C218.5625 49.6094 219.1875 48.4531 219.1875 47.4844 C219.1875 46.0938 218.1562 45.3125 216.9062 45.3125 C215.2969 45.3125 214.2188 46.5469 214.2188 48.5156 L214.2031 54.9062 Z"
      /><rect x="306" y="55" width="6" style="fill:white; stroke:none;" height="10"
      /><path style="stroke:none;" d="M308.2344 56.6562 C308.5156 56.5938 308.7656 56.5625 309.0156 56.5625 C310.0625 56.5625 310.6719 57.1719 310.6719 58.2656 C310.6719 59.4375 309.9062 60.1094 308.7031 60.1094 L308.1875 60.1094 L308.1875 60.6406 L308.7969 60.6406 C310.2188 60.6406 310.9062 61.4219 310.9062 62.6406 C310.9062 63.8438 310.1719 64.6875 308.875 64.6875 C308.6094 64.6875 308.3125 64.6562 308.0156 64.5625 L307.7812 63.8125 C307.625 63.2812 307.5 63.0469 307.1406 63.0469 C306.8906 63.0469 306.7031 63.1719 306.5781 63.4219 C306.8438 64.6406 307.7812 65.1719 309.0312 65.1719 C310.7188 65.1719 311.875 64.125 311.875 62.7031 C311.875 61.5 311.2031 60.625 309.7969 60.375 C310.9531 60.0156 311.6094 59.2031 311.6094 58.2031 C311.6094 56.9219 310.6719 56.0781 309.1875 56.0781 C308.0469 56.0781 307.0625 56.5938 306.7969 57.6875 C306.9062 58 307.1094 58.1094 307.3594 58.1094 C307.7344 58.1094 307.8906 57.8906 308 57.4062 L308.2344 56.6562 Z"
      /><rect x="305" y="70" width="8" style="fill:white; stroke:none;" height="8"
      /><path style="stroke:none;" d="M309.9844 75.7031 C309.9375 76.8906 309.1562 77.6562 308.3125 77.6562 C307.2656 77.6562 306.5 76.6875 306.5 74.7188 C306.5 73.2812 307.1562 72.1562 308.3438 72.1562 C309.1406 72.1562 309.7812 72.6875 310.0938 73.6406 L309.9844 75.7031 ZM311.9062 77.2812 C311.7344 77.375 311.5469 77.4219 311.3438 77.4219 C310.9531 77.4219 310.75 77.2188 310.75 76.4219 C310.75 75.4844 310.9688 73.5312 311.1875 71.8281 L311.0312 71.7188 L310.2344 71.9219 L310.1406 72.7969 C309.7812 72.0312 309.1562 71.6562 308.3906 71.6562 C307.0469 71.6562 305.5625 72.8438 305.5625 74.9531 C305.5625 77.0938 306.7188 78.1719 308.1406 78.1719 C309.0156 78.1719 309.6875 77.8125 310.0938 76.9844 C310.2031 77.8594 310.5156 78.1719 311.0156 78.1719 C311.4688 78.1719 311.7969 77.9062 312.0156 77.5625 L311.9062 77.2812 Z"
      /><rect x="278" y="44" width="7" style="fill:white; stroke:none;" height="9"
      /><path style="stroke:none;" d="M279 49.5156 L281.9531 45.2656 L281.9531 49.5156 L279 49.5156 ZM284.2812 49.5156 L282.8594 49.5156 L282.8594 44.125 L282.2344 44.125 L278.3438 49.6406 L278.3438 50.1875 L281.9531 50.1875 L281.9531 53 L282.8594 53 L282.8594 50.1875 L284.2812 50.1875 L284.2812 49.5156 Z"
      /><rect x="265" y="42" width="6" style="fill:white; stroke:none;" height="13"
      /><path style="stroke:none;" d="M267.0938 48.2031 C267.0938 46.6562 267.75 45.8125 268.7969 45.8125 C269.7188 45.8125 270.2656 46.4531 270.2656 47.5156 C270.2656 48.7188 269.5 49.4375 268.1875 49.7031 L268.2969 50.3125 C270.2188 50.2344 270.9375 51.2188 270.9375 52.4375 C270.9375 53.625 270.2344 54.4219 268.9531 54.4219 C268.25 54.4219 267.6562 54.1562 267.0938 53.7188 L267.0938 48.2031 ZM266.2031 54.9062 L266.1094 57.375 L266.2656 57.4844 L267.1562 57.2656 L267.0156 54.0938 C267.5469 54.8438 268.3594 55.1719 269.1719 55.1719 C270.5625 55.1719 271.8594 54.2188 271.8594 52.4844 C271.8594 50.9531 270.875 50.1094 269.125 50 C270.5625 49.6094 271.1875 48.4531 271.1875 47.4844 C271.1875 46.0938 270.1562 45.3125 268.9062 45.3125 C267.2969 45.3125 266.2188 46.5469 266.2188 48.5156 L266.2031 54.9062 Z"
      /><rect x="331" y="44" width="6" style="fill:white; stroke:none;" height="10"
      /><path style="stroke:none;" d="M333.2344 45.6562 C333.5156 45.5938 333.7656 45.5625 334.0156 45.5625 C335.0625 45.5625 335.6719 46.1719 335.6719 47.2656 C335.6719 48.4375 334.9062 49.1094 333.7031 49.1094 L333.1875 49.1094 L333.1875 49.6406 L333.7969 49.6406 C335.2188 49.6406 335.9062 50.4219 335.9062 51.6406 C335.9062 52.8438 335.1719 53.6875 333.875 53.6875 C333.6094 53.6875 333.3125 53.6562 333.0156 53.5625 L332.7812 52.8125 C332.625 52.2812 332.5 52.0469 332.1406 52.0469 C331.8906 52.0469 331.7031 52.1719 331.5781 52.4219 C331.8438 53.6406 332.7812 54.1719 334.0312 54.1719 C335.7188 54.1719 336.875 53.125 336.875 51.7031 C336.875 50.5 336.2031 49.625 334.7969 49.375 C335.9531 49.0156 336.6094 48.2031 336.6094 47.2031 C336.6094 45.9219 335.6719 45.0781 334.1875 45.0781 C333.0469 45.0781 332.0625 45.5938 331.7969 46.6875 C331.9062 47 332.1094 47.1094 332.3594 47.1094 C332.7344 47.1094 332.8906 46.8906 333 46.4062 L333.2344 45.6562 Z"
      /><rect x="317" y="42" width="6" style="fill:white; stroke:none;" height="13"
      /><path style="stroke:none;" d="M319.0938 48.2031 C319.0938 46.6562 319.75 45.8125 320.7969 45.8125 C321.7188 45.8125 322.2656 46.4531 322.2656 47.5156 C322.2656 48.7188 321.5 49.4375 320.1875 49.7031 L320.2969 50.3125 C322.2188 50.2344 322.9375 51.2188 322.9375 52.4375 C322.9375 53.625 322.2344 54.4219 320.9531 54.4219 C320.25 54.4219 319.6562 54.1562 319.0938 53.7188 L319.0938 48.2031 ZM318.2031 54.9062 L318.1094 57.375 L318.2656 57.4844 L319.1562 57.2656 L319.0156 54.0938 C319.5469 54.8438 320.3594 55.1719 321.1719 55.1719 C322.5625 55.1719 323.8594 54.2188 323.8594 52.4844 C323.8594 50.9531 322.875 50.1094 321.125 50 C322.5625 49.6094 323.1875 48.4531 323.1875 47.4844 C323.1875 46.0938 322.1562 45.3125 320.9062 45.3125 C319.2969 45.3125 318.2188 46.5469 318.2188 48.5156 L318.2031 54.9062 Z"
      /><rect x="382" y="44" width="7" style="fill:white; stroke:none;" height="9"
      /><path style="stroke:none;" d="M383 49.5156 L385.9531 45.2656 L385.9531 49.5156 L383 49.5156 ZM388.2812 49.5156 L386.8594 49.5156 L386.8594 44.125 L386.2344 44.125 L382.3438 49.6406 L382.3438 50.1875 L385.9531 50.1875 L385.9531 53 L386.8594 53 L386.8594 50.1875 L388.2812 50.1875 L388.2812 49.5156 Z"
      /><rect x="369" y="42" width="6" style="fill:white; stroke:none;" height="13"
      /><path style="stroke:none;" d="M371.0938 48.2031 C371.0938 46.6562 371.75 45.8125 372.7969 45.8125 C373.7188 45.8125 374.2656 46.4531 374.2656 47.5156 C374.2656 48.7188 373.5 49.4375 372.1875 49.7031 L372.2969 50.3125 C374.2188 50.2344 374.9375 51.2188 374.9375 52.4375 C374.9375 53.625 374.2344 54.4219 372.9531 54.4219 C372.25 54.4219 371.6562 54.1562 371.0938 53.7188 L371.0938 48.2031 ZM370.2031 54.9062 L370.1094 57.375 L370.2656 57.4844 L371.1562 57.2656 L371.0156 54.0938 C371.5469 54.8438 372.3594 55.1719 373.1719 55.1719 C374.5625 55.1719 375.8594 54.2188 375.8594 52.4844 C375.8594 50.9531 374.875 50.1094 373.125 50 C374.5625 49.6094 375.1875 48.4531 375.1875 47.4844 C375.1875 46.0938 374.1562 45.3125 372.9062 45.3125 C371.2969 45.3125 370.2188 46.5469 370.2188 48.5156 L370.2031 54.9062 Z"
      /><rect x="421" y="44" width="5" style="fill:white; stroke:none;" height="10"
      /><path style="stroke:none;" d="M422.8906 52.6875 C422.4844 52.6875 422.1562 53.0469 422.1562 53.4219 C422.1562 53.8125 422.4844 54.1562 422.8906 54.1562 C423.2969 54.1562 423.6406 53.8125 423.6406 53.4219 C423.6406 53.0469 423.2969 52.6875 422.8906 52.6875 ZM424.4688 46.5781 C424.7188 46.8906 424.875 47.2656 424.8906 47.6562 C424.8906 48.1875 424.625 48.5 424.0312 48.7656 L423.4062 49.0156 C422.6406 49.3125 422.3906 49.5469 422.3906 49.9375 C422.3906 50.1094 422.4531 50.3438 422.5781 50.8125 L422.7344 51.3438 L423.1094 51.3438 L423.0938 50.5312 C423.0938 50.0938 423.2031 49.9688 423.7812 49.7344 L424.2031 49.5625 C425.0312 49.2188 425.4531 48.6875 425.4531 47.8438 C425.4531 46.1562 423.6562 45.1875 422.5 45.0312 C422.1094 45.125 421.9062 45.2969 421.9062 45.6406 C421.9062 45.9375 422.0625 46.1562 422.7188 46.2656 L424.4688 46.5781 Z"
    /></g
  ></g
></svg
>
