<?xml version="1.0"?>
<!DOCTYPE svg PUBLIC '-//W3C//DTD SVG 1.0//EN'
          'http://www.w3.org/TR/2001/REC-SVG-20010904/DTD/svg10.dtd'>
<svg xmlns:xlink="http://www.w3.org/1999/xlink" style="fill-opacity:1; color-rendering:auto; color-interpolation:auto; text-rendering:auto; stroke:black; stroke-linecap:square; stroke-miterlimit:10; shape-rendering:auto; stroke-opacity:1; fill:black; stroke-dasharray:none; font-weight:normal; stroke-width:1; font-family:'Dialog'; font-style:normal; stroke-linejoin:miter; font-size:12px; stroke-dashoffset:0; image-rendering:auto;" viewBox="0 0 262 209" xmlns="http://www.w3.org/2000/svg"
><!--Generated by the Batik Graphics2D SVG Generator--><defs id="genericDefs"
  /><g
  ><defs id="defs1"
    ><clipPath clipPathUnits="userSpaceOnUse" id="clipPath1"
      ><path d="M134 119 L156 119 L156 141 L134 141 L134 119 Z"
      /></clipPath
      ><clipPath clipPathUnits="userSpaceOnUse" id="clipPath2"
      ><path d="M104 168 C104 174.0751 99.0751 179 93 179 C86.9249 179 82 174.0751 82 168 C82 161.9249 86.9249 157 93 157 C99.0751 157 104 161.9249 104 168 Z"
      /></clipPath
      ><clipPath clipPathUnits="userSpaceOnUse" id="clipPath3"
      ><path d="M82 82 L104 82 L104 104 L82 104 L82 82 Z"
      /></clipPath
      ><clipPath clipPathUnits="userSpaceOnUse" id="clipPath4"
      ><path style="fill-rule:evenodd;" d="M93 52 L82 30 L104 30 Z"
      /></clipPath
      ><clipPath clipPathUnits="userSpaceOnUse" id="clipPath5"
      ><path d="M52 93 C52 99.0751 47.0751 104 41 104 C34.9249 104 30 99.0751 30 93 C30 86.9249 34.9249 82 41 82 C47.0751 82 52 86.9249 52 93 Z"
      /></clipPath
    ></defs
    ><g style="fill:white; text-rendering:optimizeSpeed; stroke:white;"
    ><rect x="0" width="262" height="209" y="0" style="stroke:none;"
      /><polygon style="fill:none; stroke:black;" points=" 145 130 93 168"
      /><polygon style="fill:none; stroke:black;" points=" 145 130 93 93"
      /><rect x="134" y="119" width="22" style="clip-path:url(#clipPath1); stroke:none;" height="22"
      /><rect x="134" y="119" width="22" style="clip-path:url(#clipPath1); fill:rgb(255,212,0); stroke:none;" height="22"
      /><rect x="134" y="119" width="22" style="clip-path:url(#clipPath1); fill:none; stroke:black;" height="22"
      /><rect x="134" y="119" width="22" style="fill:none; stroke:black;" height="22"
    /></g
    ><g style="font-style:italic; text-rendering:optimizeSpeed; font-size:10px; font-family:'SansSerif';"
    ><path style="stroke:none;" d="M145 132.125 C146.3281 132.125 147.7344 131.0938 148.125 129.2969 C148.5 127.4844 147.5469 126.4375 146.2188 126.4375 C144.8906 126.4375 143.4688 127.4844 143.0938 129.2969 C142.7031 131.0938 143.6719 132.125 145 132.125 ZM145.1719 131.375 C144.2344 131.375 143.7656 130.5469 144.0312 129.2969 C144.2969 128.0469 145.1094 127.1875 146.0469 127.1875 C146.9844 127.1875 147.4531 128.0469 147.1875 129.2969 C146.9219 130.5469 146.1094 131.375 145.1719 131.375 Z"
    /></g
    ><g style="fill:white; text-rendering:optimizeSpeed; stroke:white;"
    ><circle r="11" style="clip-path:url(#clipPath2); stroke:none;" cx="93" cy="168"
      /><rect x="82" y="157" width="22" style="clip-path:url(#clipPath2); fill:rgb(255,212,0); stroke:none;" height="22"
      /><rect x="82" y="157" width="22" style="clip-path:url(#clipPath2); fill:none; stroke:black;" height="22"
      /><circle r="11" style="fill:none; stroke:black;" cx="93" cy="168"
      /><rect x="86" width="13" height="10" y="139" style="stroke:none;"
    /></g
    ><g style="text-rendering:optimizeSpeed; font-size:14px; font-family:'SansSerif';"
    ><path style="stroke:none;" d="M88.4844 146.9062 L89.625 146.9062 C89.375 144.7031 91.8906 143.875 91.8906 141.8281 C91.8906 140.2969 90.8594 139.3281 89.2812 139.3281 C88.1406 139.3281 87.25 139.875 86.6094 140.625 L87.3281 141.2969 C87.8125 140.7344 88.4375 140.3906 89.1406 140.3906 C90.125 140.3906 90.6406 141.0625 90.6406 141.9062 C90.6406 143.5781 88.1719 144.4688 88.4844 146.9062 ZM89.0938 150.1875 C89.6094 150.1875 90.0312 149.7969 90.0312 149.2188 C90.0312 148.625 89.6094 148.2188 89.0938 148.2188 C88.5938 148.2188 88.1719 148.625 88.1719 149.2188 C88.1719 149.7969 88.5938 150.1875 89.0938 150.1875 ZM96.886 150.1875 C99.0266 150.1875 100.3703 148.8906 100.3703 147.2656 C100.3703 145.75 99.4485 145.0469 98.261 144.5312 L96.7922 143.8906 C95.9953 143.5625 95.1047 143.1875 95.1047 142.1875 C95.1047 141.2656 95.8547 140.6719 97.011 140.6719 C97.9641 140.6719 98.7297 141.0469 99.3547 141.6406 L100.0422 140.8125 C99.3078 140.0625 98.2297 139.5469 97.011 139.5469 C95.1516 139.5469 93.7766 140.6875 93.7766 142.2656 C93.7766 143.7656 94.9172 144.5 95.8703 144.9062 L97.3547 145.5469 C98.3235 145.9844 99.0578 146.3125 99.0578 147.375 C99.0578 148.375 98.2453 149.0469 96.9016 149.0469 C95.8391 149.0469 94.8078 148.5469 94.0735 147.7812 L93.2922 148.6562 C94.1828 149.5938 95.4328 150.1875 96.886 150.1875 Z"
      /><polygon style="fill:none;" points=" 93 93 93 41"
      /><polygon style="fill:none;" points=" 93 93 41 93"
    /></g
    ><g style="fill:white; text-rendering:optimizeSpeed; stroke:white;"
    ><rect x="82" y="82" width="22" style="clip-path:url(#clipPath3); stroke:none;" height="22"
      /><rect x="82" y="82" width="22" style="clip-path:url(#clipPath3); fill:rgb(0,144,188); stroke:none;" height="22"
      /><rect x="82" y="82" width="22" style="clip-path:url(#clipPath3); fill:none; stroke:black;" height="22"
      /><rect x="82" y="82" width="22" style="fill:none; stroke:black;" height="22"
      /><polygon style="clip-path:url(#clipPath4); stroke:none;" points=" 93 52 82 30 104 30"
      /><rect x="82" y="30" width="22" style="clip-path:url(#clipPath4); fill:rgb(237,28,36); stroke:none;" height="22"
      /><rect x="82" y="30" width="22" style="clip-path:url(#clipPath4); fill:none; stroke:black;" height="22"
      /><polygon style="fill:none; stroke:black;" points=" 93 52 82 30 104 30"
      /><circle r="11" style="clip-path:url(#clipPath5); stroke:none;" cx="41" cy="93"
      /><rect x="30" y="82" width="22" style="clip-path:url(#clipPath5); fill:rgb(255,212,0); stroke:none;" height="22"
      /><rect x="30" y="82" width="22" style="clip-path:url(#clipPath5); fill:none; stroke:black;" height="22"
      /><circle r="11" style="fill:none; stroke:black;" cx="41" cy="93"
      /><rect x="82" width="5" height="10" y="69" style="stroke:none;"
      /><path d="M83.8906 77.6875 C83.4844 77.6875 83.1562 78.0469 83.1562 78.4219 C83.1562 78.8125 83.4844 79.1562 83.8906 79.1562 C84.2969 79.1562 84.6406 78.8125 84.6406 78.4219 C84.6406 78.0469 84.2969 77.6875 83.8906 77.6875 ZM85.4688 71.5781 C85.7188 71.8906 85.875 72.2656 85.8906 72.6562 C85.8906 73.1875 85.625 73.5 85.0312 73.7656 L84.4062 74.0156 C83.6406 74.3125 83.3906 74.5469 83.3906 74.9375 C83.3906 75.1094 83.4531 75.3438 83.5781 75.8125 L83.7344 76.3438 L84.1094 76.3438 L84.0938 75.5312 C84.0938 75.0938 84.2031 74.9688 84.7812 74.7344 L85.2031 74.5625 C86.0312 74.2188 86.4531 73.6875 86.4531 72.8438 C86.4531 71.1562 84.6562 70.1875 83.5 70.0312 C83.1094 70.125 82.9062 70.2969 82.9062 70.6406 C82.9062 70.9375 83.0625 71.1562 83.7188 71.2656 L85.4688 71.5781 Z" style="fill:black; stroke:none;"
      /><rect x="81" width="8" height="8" y="56" style="stroke:none;"
      /><path d="M85.9844 61.7031 C85.9375 62.8906 85.1562 63.6562 84.3125 63.6562 C83.2656 63.6562 82.5 62.6875 82.5 60.7188 C82.5 59.2812 83.1562 58.1562 84.3438 58.1562 C85.1406 58.1562 85.7812 58.6875 86.0938 59.6406 L85.9844 61.7031 ZM87.9062 63.2812 C87.7344 63.375 87.5469 63.4219 87.3438 63.4219 C86.9531 63.4219 86.75 63.2188 86.75 62.4219 C86.75 61.4844 86.9688 59.5312 87.1875 57.8281 L87.0312 57.7188 L86.2344 57.9219 L86.1406 58.7969 C85.7812 58.0312 85.1562 57.6562 84.3906 57.6562 C83.0469 57.6562 81.5625 58.8438 81.5625 60.9531 C81.5625 63.0938 82.7188 64.1719 84.1406 64.1719 C85.0156 64.1719 85.6875 63.8125 86.0938 62.9844 C86.2031 63.8594 86.5156 64.1719 87.0156 64.1719 C87.4688 64.1719 87.7969 63.9062 88.0156 63.5625 L87.9062 63.2812 Z" style="fill:black; stroke:none;"
      /><rect x="71" width="5" height="10" y="96" style="stroke:none;"
      /><path d="M72.8906 104.6875 C72.4844 104.6875 72.1562 105.0469 72.1562 105.4219 C72.1562 105.8125 72.4844 106.1562 72.8906 106.1562 C73.2969 106.1562 73.6406 105.8125 73.6406 105.4219 C73.6406 105.0469 73.2969 104.6875 72.8906 104.6875 ZM74.4688 98.5781 C74.7188 98.8906 74.875 99.2656 74.8906 99.6562 C74.8906 100.1875 74.625 100.5 74.0312 100.7656 L73.4062 101.0156 C72.6406 101.3125 72.3906 101.5469 72.3906 101.9375 C72.3906 102.1094 72.4531 102.3438 72.5781 102.8125 L72.7344 103.3438 L73.1094 103.3438 L73.0938 102.5312 C73.0938 102.0938 73.2031 101.9688 73.7812 101.7344 L74.2031 101.5625 C75.0312 101.2188 75.4531 100.6875 75.4531 99.8438 C75.4531 98.1562 73.6562 97.1875 72.5 97.0312 C72.1094 97.125 71.9062 97.2969 71.9062 97.6406 C71.9062 97.9375 72.0625 98.1562 72.7188 98.2656 L74.4688 98.5781 Z" style="fill:black; stroke:none;"
      /><rect x="57" width="6" height="13" y="94" style="stroke:none;"
      /><path d="M59.0938 100.2031 C59.0938 98.6562 59.75 97.8125 60.7969 97.8125 C61.7188 97.8125 62.2656 98.4531 62.2656 99.5156 C62.2656 100.7188 61.5 101.4375 60.1875 101.7031 L60.2969 102.3125 C62.2188 102.2344 62.9375 103.2188 62.9375 104.4375 C62.9375 105.625 62.2344 106.4219 60.9531 106.4219 C60.25 106.4219 59.6562 106.1562 59.0938 105.7188 L59.0938 100.2031 ZM58.2031 106.9062 L58.1094 109.375 L58.2656 109.4844 L59.1562 109.2656 L59.0156 106.0938 C59.5469 106.8438 60.3594 107.1719 61.1719 107.1719 C62.5625 107.1719 63.8594 106.2188 63.8594 104.4844 C63.8594 102.9531 62.875 102.1094 61.125 102 C62.5625 101.6094 63.1875 100.4531 63.1875 99.4844 C63.1875 98.0938 62.1562 97.3125 60.9062 97.3125 C59.2969 97.3125 58.2188 98.5469 58.2188 100.5156 L58.2031 106.9062 Z" style="fill:black; stroke:none;"
      /><rect x="129" width="6" height="10" y="144" style="stroke:none;"
      /><path d="M131.2344 145.6562 C131.5156 145.5938 131.7656 145.5625 132.0156 145.5625 C133.0625 145.5625 133.6719 146.1719 133.6719 147.2656 C133.6719 148.4375 132.9062 149.1094 131.7031 149.1094 L131.1875 149.1094 L131.1875 149.6406 L131.7969 149.6406 C133.2188 149.6406 133.9062 150.4219 133.9062 151.6406 C133.9062 152.8438 133.1719 153.6875 131.875 153.6875 C131.6094 153.6875 131.3125 153.6562 131.0156 153.5625 L130.7812 152.8125 C130.625 152.2812 130.5 152.0469 130.1406 152.0469 C129.8906 152.0469 129.7031 152.1719 129.5781 152.4219 C129.8438 153.6406 130.7812 154.1719 132.0312 154.1719 C133.7188 154.1719 134.875 153.125 134.875 151.7031 C134.875 150.5 134.2031 149.625 132.7969 149.375 C133.9531 149.0156 134.6094 148.2031 134.6094 147.2031 C134.6094 145.9219 133.6719 145.0781 132.1875 145.0781 C131.0469 145.0781 130.0625 145.5938 129.7969 146.6875 C129.9062 147 130.1094 147.1094 130.3594 147.1094 C130.7344 147.1094 130.8906 146.8906 131 146.4062 L131.2344 145.6562 Z" style="fill:black; stroke:none;"
      /><rect x="112" width="6" height="13" y="155" style="stroke:none;"
      /><path d="M114.0938 161.2031 C114.0938 159.6562 114.75 158.8125 115.7969 158.8125 C116.7188 158.8125 117.2656 159.4531 117.2656 160.5156 C117.2656 161.7188 116.5 162.4375 115.1875 162.7031 L115.2969 163.3125 C117.2188 163.2344 117.9375 164.2188 117.9375 165.4375 C117.9375 166.625 117.2344 167.4219 115.9531 167.4219 C115.25 167.4219 114.6562 167.1562 114.0938 166.7188 L114.0938 161.2031 ZM113.2031 167.9062 L113.1094 170.375 L113.2656 170.4844 L114.1562 170.2656 L114.0156 167.0938 C114.5469 167.8438 115.3594 168.1719 116.1719 168.1719 C117.5625 168.1719 118.8594 167.2188 118.8594 165.4844 C118.8594 163.9531 117.875 163.1094 116.125 163 C117.5625 162.6094 118.1875 161.4531 118.1875 160.4844 C118.1875 159.0938 117.1562 158.3125 115.9062 158.3125 C114.2969 158.3125 113.2188 159.5469 113.2188 161.5156 L113.2031 167.9062 Z" style="fill:black; stroke:none;"
      /><rect x="119" width="6" height="10" y="119" style="stroke:none;"
      /><path d="M122.3438 128.6875 C121.2031 128.6875 120.5312 127.5 120.5312 125.2969 C120.5312 125.2188 120.5312 125.125 120.5312 125.0469 C121.0938 124.5 121.7188 124.3125 122.3438 124.3125 C123.3125 124.3125 123.9531 124.9844 123.9531 126.4531 C123.9531 127.9375 123.3125 128.6875 122.3438 128.6875 ZM124.5312 120.0781 C121.3438 120.4531 119.5625 122.7656 119.5625 125.4531 C119.5625 127.7812 120.6094 129.1719 122.3125 129.1719 C123.8438 129.1719 124.9219 128.1094 124.9219 126.2812 C124.9219 124.6875 123.9688 123.6562 122.5625 123.6562 C121.8281 123.6562 121.1406 123.9844 120.5781 124.5781 C120.7969 122.4062 122.0781 120.9688 124.5938 120.3906 L124.5312 120.0781 Z" style="fill:black; stroke:none;"
      /><rect x="102" width="6" height="13" y="105" style="stroke:none;"
      /><path d="M104.0938 111.2031 C104.0938 109.6562 104.75 108.8125 105.7969 108.8125 C106.7188 108.8125 107.2656 109.4531 107.2656 110.5156 C107.2656 111.7188 106.5 112.4375 105.1875 112.7031 L105.2969 113.3125 C107.2188 113.2344 107.9375 114.2188 107.9375 115.4375 C107.9375 116.625 107.2344 117.4219 105.9531 117.4219 C105.25 117.4219 104.6562 117.1562 104.0938 116.7188 L104.0938 111.2031 ZM103.2031 117.9062 L103.1094 120.375 L103.2656 120.4844 L104.1562 120.2656 L104.0156 117.0938 C104.5469 117.8438 105.3594 118.1719 106.1719 118.1719 C107.5625 118.1719 108.8594 117.2188 108.8594 115.4844 C108.8594 113.9531 107.875 113.1094 106.125 113 C107.5625 112.6094 108.1875 111.4531 108.1875 110.4844 C108.1875 109.0938 107.1562 108.3125 105.9062 108.3125 C104.2969 108.3125 103.2188 109.5469 103.2188 111.5156 L103.2031 117.9062 Z" style="fill:black; stroke:none;"
    /></g
  ></g
></svg
>
