<?xml version="1.0"?>
<!DOCTYPE svg PUBLIC '-//W3C//DTD SVG 1.0//EN'
          'http://www.w3.org/TR/2001/REC-SVG-20010904/DTD/svg10.dtd'>
<svg xmlns:xlink="http://www.w3.org/1999/xlink" style="fill-opacity:1; color-rendering:auto; color-interpolation:auto; text-rendering:auto; stroke:black; stroke-linecap:square; stroke-miterlimit:10; shape-rendering:auto; stroke-opacity:1; fill:black; stroke-dasharray:none; font-weight:normal; stroke-width:1; font-family:'Dialog'; font-style:normal; stroke-linejoin:miter; font-size:12px; stroke-dashoffset:0; image-rendering:auto;" viewBox="0 0 186 149" xmlns="http://www.w3.org/2000/svg"
><!--Generated by the Batik Graphics2D SVG Generator--><defs id="genericDefs"
  /><g
  ><defs id="defs1"
    ><clipPath clipPathUnits="userSpaceOnUse" id="clipPath1"
      ><path style="fill-rule:evenodd;" d="M93 56 L103 63 L99 75 L86 75 L82 63 L93 56 Z"
      /></clipPath
      ><clipPath clipPathUnits="userSpaceOnUse" id="clipPath2"
      ><path d="M52 93 C52 99.0751 47.0751 104 41 104 C34.9249 104 30 99.0751 30 93 C30 86.9249 34.9249 82 41 82 C47.0751 82 52 86.9249 52 93 Z"
      /></clipPath
      ><clipPath clipPathUnits="userSpaceOnUse" id="clipPath3"
      ><path d="M52 41 C52 47.0751 47.0751 52 41 52 C34.9249 52 30 47.0751 30 41 C30 34.9249 34.9249 30 41 30 C47.0751 30 52 34.9249 52 41 Z"
      /></clipPath
    ></defs
    ><g style="fill:white; text-rendering:optimizeSpeed; stroke:white;"
    ><rect x="0" width="186" height="149" y="0" style="stroke:none;"
      /><polygon style="fill:none; stroke:black;" points=" 93 67 41 93"
      /><polygon style="fill:none; stroke:black;" points=" 93 67 41 41"
      /><polygon style="clip-path:url(#clipPath1); stroke:none;" points=" 93 56 103 63 99 75 86 75 82 63 93 56"
      /><rect x="82" y="56" width="22" style="clip-path:url(#clipPath1); fill:rgb(255,172,0); stroke:none;" height="22"
      /><rect x="82" y="56" width="22" style="clip-path:url(#clipPath1); fill:none; stroke:black;" height="22"
      /><polygon style="fill:none; stroke:black;" points=" 93 56 103 63 99 75 86 75 82 63 93 56"
    /></g
    ><g style="text-rendering:optimizeSpeed; font-size:10px; font-family:'SansSerif';"
    ><path style="stroke:none;" d="M89.0625 71 L89.9844 71 L89.9844 66.3125 L91.125 66.3125 L91.125 65.5625 L89.9844 65.5625 L89.9844 64.7031 C89.9844 64.0156 90.2344 63.6406 90.75 63.6406 C90.9375 63.6406 91.1562 63.6875 91.3594 63.7812 L91.5625 63.0938 C91.3125 62.9844 90.9844 62.9062 90.6562 62.9062 C89.5625 62.9062 89.0625 63.5938 89.0625 64.7031 L89.0625 65.5625 L88.3281 65.625 L88.3281 66.3125 L89.0625 66.3125 L89.0625 71 ZM92.25 71 L96.375 71 L96.375 70.2031 L93.1875 70.2031 L93.1875 63.6562 L92.25 63.6562 L92.25 71 Z"
      /><path style="stroke:none;" d="M108.9844 67.7031 C108.9375 68.8906 108.1562 69.6562 107.3125 69.6562 C106.2656 69.6562 105.5 68.6875 105.5 66.7188 C105.5 65.2812 106.1562 64.1562 107.3438 64.1562 C108.1406 64.1562 108.7812 64.6875 109.0938 65.6406 L108.9844 67.7031 ZM110.9062 69.2812 C110.7344 69.375 110.5469 69.4219 110.3438 69.4219 C109.9531 69.4219 109.75 69.2188 109.75 68.4219 C109.75 67.4844 109.9688 65.5312 110.1875 63.8281 L110.0312 63.7188 L109.2344 63.9219 L109.1406 64.7969 C108.7812 64.0312 108.1562 63.6562 107.3906 63.6562 C106.0469 63.6562 104.5625 64.8438 104.5625 66.9531 C104.5625 69.0938 105.7188 70.1719 107.1406 70.1719 C108.0156 70.1719 108.6875 69.8125 109.0938 68.9844 C109.2031 69.8594 109.5156 70.1719 110.0156 70.1719 C110.4688 70.1719 110.7969 69.9062 111.0156 69.5625 L110.9062 69.2812 Z"
    /></g
    ><g style="fill:white; text-rendering:optimizeSpeed; stroke:white;"
    ><circle r="11" style="clip-path:url(#clipPath2); stroke:none;" cx="41" cy="93"
      /><rect x="30" y="82" width="22" style="clip-path:url(#clipPath2); fill:rgb(143,204,233); stroke:none;" height="22"
      /><rect x="30" y="82" width="22" style="clip-path:url(#clipPath2); fill:none; stroke:black;" height="22"
      /><circle r="11" style="fill:none; stroke:black;" cx="41" cy="93"
    /></g
    ><g style="text-rendering:optimizeSpeed; font-size:10px; font-family:'SansSerif';"
    ><path style="stroke:none;" d="M39 96 L43.125 96 L43.125 95.2031 L39.9375 95.2031 L39.9375 88.6562 L39 88.6562 L39 96 Z"
    /></g
    ><g style="fill:white; text-rendering:optimizeSpeed; stroke:white;"
    ><circle r="11" style="clip-path:url(#clipPath3); stroke:none;" cx="41" cy="41"
      /><rect x="30" y="30" width="22" style="clip-path:url(#clipPath3); fill:rgb(165,67,153); stroke:none;" height="22"
      /><rect x="30" y="30" width="22" style="clip-path:url(#clipPath3); fill:none; stroke:black;" height="22"
      /><circle r="11" style="fill:none; stroke:black;" cx="41" cy="41"
    /></g
    ><g style="text-rendering:optimizeSpeed; font-size:10px; font-family:'SansSerif';"
    ><path style="stroke:none;" d="M39 44 L43.125 44 L43.125 43.2031 L39.9375 43.2031 L39.9375 36.6562 L39 36.6562 L39 44 Z"
    /></g
    ><g style="fill:white; text-rendering:optimizeSpeed; font-family:'Serif'; stroke:white;"
    ><rect x="75" width="6" height="9" y="78" style="stroke:none;"
      /><path d="M76.4219 86.0938 C77.0781 85.375 77.7031 84.7188 78.0312 84.3438 C79.9219 82.3125 80.5312 81.4688 80.5312 80.3594 C80.5312 79.0156 79.7812 78.0781 78.1562 78.0781 C76.9062 78.0781 75.7969 78.7031 75.5938 79.9688 C75.7188 80.2031 75.9062 80.3438 76.1562 80.3438 C76.4688 80.3438 76.6562 80.1094 76.7969 79.5938 L77.0938 78.6719 C77.3906 78.5938 77.6562 78.5625 77.8906 78.5625 C78.9219 78.5625 79.5469 79.3125 79.5469 80.4219 C79.5469 81.4375 78.9844 82.4219 77.7031 83.9062 C77.125 84.5781 76.3906 85.4375 75.6406 86.2812 L75.6406 87 L80.9219 87 L80.9219 86.0938 L76.4219 86.0938 Z" style="fill:black; stroke:none;"
      /><rect x="59" width="6" height="13" y="84" style="stroke:none;"
      /><path d="M61.0938 90.2031 C61.0938 88.6562 61.75 87.8125 62.7969 87.8125 C63.7188 87.8125 64.2656 88.4531 64.2656 89.5156 C64.2656 90.7188 63.5 91.4375 62.1875 91.7031 L62.2969 92.3125 C64.2188 92.2344 64.9375 93.2188 64.9375 94.4375 C64.9375 95.625 64.2344 96.4219 62.9531 96.4219 C62.25 96.4219 61.6562 96.1562 61.0938 95.7188 L61.0938 90.2031 ZM60.2031 96.9062 L60.1094 99.375 L60.2656 99.4844 L61.1562 99.2656 L61.0156 96.0938 C61.5469 96.8438 62.3594 97.1719 63.1719 97.1719 C64.5625 97.1719 65.8594 96.2188 65.8594 94.4844 C65.8594 92.9531 64.875 92.1094 63.125 92 C64.5625 91.6094 65.1875 90.4531 65.1875 89.4844 C65.1875 88.0938 64.1562 87.3125 62.9062 87.3125 C61.2969 87.3125 60.2188 88.5469 60.2188 90.5156 L60.2031 96.9062 Z" style="fill:black; stroke:none;"
      /><rect x="68" width="6" height="10" y="60" style="stroke:none;"
      /><path d="M70.2344 61.6562 C70.5156 61.5938 70.7656 61.5625 71.0156 61.5625 C72.0625 61.5625 72.6719 62.1719 72.6719 63.2656 C72.6719 64.4375 71.9062 65.1094 70.7031 65.1094 L70.1875 65.1094 L70.1875 65.6406 L70.7969 65.6406 C72.2188 65.6406 72.9062 66.4219 72.9062 67.6406 C72.9062 68.8438 72.1719 69.6875 70.875 69.6875 C70.6094 69.6875 70.3125 69.6562 70.0156 69.5625 L69.7812 68.8125 C69.625 68.2812 69.5 68.0469 69.1406 68.0469 C68.8906 68.0469 68.7031 68.1719 68.5781 68.4219 C68.8438 69.6406 69.7812 70.1719 71.0312 70.1719 C72.7188 70.1719 73.875 69.125 73.875 67.7031 C73.875 66.5 73.2031 65.625 71.7969 65.375 C72.9531 65.0156 73.6094 64.2031 73.6094 63.2031 C73.6094 61.9219 72.6719 61.0781 71.1875 61.0781 C70.0469 61.0781 69.0625 61.5938 68.7969 62.6875 C68.9062 63 69.1094 63.1094 69.3594 63.1094 C69.7344 63.1094 69.8906 62.8906 70 62.4062 L70.2344 61.6562 Z" style="fill:black; stroke:none;"
      /><rect x="51" width="8" height="8" y="53" style="stroke:none;"
      /><path d="M55.9844 58.7031 C55.9375 59.8906 55.1562 60.6562 54.3125 60.6562 C53.2656 60.6562 52.5 59.6875 52.5 57.7188 C52.5 56.2812 53.1562 55.1562 54.3438 55.1562 C55.1406 55.1562 55.7812 55.6875 56.0938 56.6406 L55.9844 58.7031 ZM57.9062 60.2812 C57.7344 60.375 57.5469 60.4219 57.3438 60.4219 C56.9531 60.4219 56.75 60.2188 56.75 59.4219 C56.75 58.4844 56.9688 56.5312 57.1875 54.8281 L57.0312 54.7188 L56.2344 54.9219 L56.1406 55.7969 C55.7812 55.0312 55.1562 54.6562 54.3906 54.6562 C53.0469 54.6562 51.5625 55.8438 51.5625 57.9531 C51.5625 60.0938 52.7188 61.1719 54.1406 61.1719 C55.0156 61.1719 55.6875 60.8125 56.0938 59.9844 C56.2031 60.8594 56.5156 61.1719 57.0156 61.1719 C57.4688 61.1719 57.7969 60.9062 58.0156 60.5625 L57.9062 60.2812 Z" style="fill:black; stroke:none;"
    /></g
  ></g
></svg
>
