<?xml version="1.0"?>
<!DOCTYPE svg PUBLIC '-//W3C//DTD SVG 1.0//EN'
          'http://www.w3.org/TR/2001/REC-SVG-20010904/DTD/svg10.dtd'>
<svg xmlns:xlink="http://www.w3.org/1999/xlink" style="fill-opacity:1; color-rendering:auto; color-interpolation:auto; text-rendering:auto; stroke:black; stroke-linecap:square; stroke-miterlimit:10; shape-rendering:auto; stroke-opacity:1; fill:black; stroke-dasharray:none; font-weight:normal; stroke-width:1; font-family:'Dialog'; font-style:normal; stroke-linejoin:miter; font-size:12px; stroke-dashoffset:0; image-rendering:auto;" viewBox="0 0 213 128" xmlns="http://www.w3.org/2000/svg"
><!--Generated by the Batik Graphics2D SVG Generator--><defs id="genericDefs"
  /><g
  ><defs id="defs1"
    ><clipPath clipPathUnits="userSpaceOnUse" id="clipPath1"
      ><path d="M117 64 C117 70.0751 112.0751 75 106 75 C99.9249 75 95 70.0751 95 64 C95 57.9249 99.9249 53 106 53 C112.0751 53 117 57.9249 117 64 Z"
      /></clipPath
      ><clipPath clipPathUnits="userSpaceOnUse" id="clipPath2"
      ><path style="fill-rule:evenodd;" d="M41 53 L52 75 L30 75 Z"
      /></clipPath
    ></defs
    ><g style="fill:white; text-rendering:optimizeSpeed; stroke:white;"
    ><rect x="0" width="213" height="128" y="0" style="stroke:none;"
      /><polygon style="fill:none; stroke:black;" points=" 172 64 106 64"
      /><path d="M172 53 C166.5 58.5 177.5 69.5 172 75" style="fill:none; stroke:black;"
      /><polygon style="fill:none; stroke:black;" points=" 106 64 41 64"
      /><circle style="clip-path:url(#clipPath1); stroke:none;" r="11" cx="106" cy="64"
      /><rect x="95" y="53" width="22" style="clip-path:url(#clipPath1); fill:rgb(0,144,188); stroke:none;" height="22"
      /><rect x="95" y="53" width="22" style="clip-path:url(#clipPath1); fill:none; stroke:black;" height="22"
      /><circle style="fill:none; stroke:black;" r="11" cx="106" cy="64"
      /><rect x="107" y="81" width="22" style="stroke:none;" height="10"
    /></g
    ><g style="text-rendering:optimizeSpeed; font-size:14px; font-family:'SansSerif';"
    ><path style="stroke:none;" d="M107.6094 92 L114.0625 92 L114.0625 90.8906 L111.2344 90.8906 C110.7031 90.8906 110.0781 90.9531 109.5469 90.9844 C111.9531 88.7031 113.5625 86.625 113.5625 84.5781 C113.5625 82.75 112.4219 81.5469 110.5781 81.5469 C109.2812 81.5469 108.4062 82.1406 107.5625 83.0469 L108.2969 83.7812 C108.8594 83.1094 109.5938 82.5938 110.4375 82.5938 C111.7031 82.5938 112.3125 83.4531 112.3125 84.625 C112.3125 86.3906 110.8438 88.4375 107.6094 91.25 L107.6094 92 ZM117.9418 86.2656 C118.3168 85.0938 118.645 83.9844 118.9731 82.7812 L119.02 82.7812 C119.3637 83.9844 119.6762 85.0938 120.0668 86.2656 L120.5512 87.8281 L117.4418 87.8281 L117.9418 86.2656 ZM114.8168 92 L116.1293 92 L117.1293 88.8594 L120.8793 88.8594 L121.8481 92 L123.2231 92 L119.7387 81.7188 L118.3012 81.7188 L114.8168 92 ZM127.5492 92.1875 C128.4554 92.1875 129.3304 91.8281 130.0179 91.2188 L129.4554 90.3594 C128.9867 90.7969 128.3617 91.125 127.6586 91.125 C126.2679 91.125 125.3148 89.9531 125.3148 88.2031 C125.3148 86.4531 126.3148 85.2656 127.7054 85.2656 C128.3148 85.2656 128.7679 85.5469 129.2211 85.9375 L129.8773 85.0938 C129.3304 84.625 128.6429 84.2031 127.6429 84.2031 C125.7054 84.2031 123.9867 85.6719 123.9867 88.2031 C123.9867 90.7188 125.5336 92.1875 127.5492 92.1875 Z"
      /><rect x="82" y="81" width="22" style="fill:white; stroke:none;" height="10"
      /><path style="stroke:none;" d="M85.7031 92.1875 C87.5156 92.1875 88.9844 91.0938 88.9844 89.25 C88.9844 87.8594 88.0156 86.9375 86.8125 86.6562 L86.8125 86.5938 C87.8906 86.1875 88.6406 85.3594 88.6406 84.125 C88.6406 82.5 87.375 81.5469 85.6562 81.5469 C84.4688 81.5469 83.5469 82.0625 82.7812 82.7812 L83.4688 83.5938 C84.0469 83 84.7656 82.5938 85.5938 82.5938 C86.6562 82.5938 87.3281 83.2344 87.3281 84.2188 C87.3281 85.3281 86.6094 86.1719 84.4844 86.1719 L84.4844 87.1562 C86.8594 87.1562 87.6875 87.9844 87.6875 89.2031 C87.6875 90.3906 86.8125 91.125 85.5938 91.125 C84.4375 91.125 83.6562 90.5781 83.0469 89.9375 L82.4062 90.7812 C83.0781 91.5156 84.0938 92.1875 85.7031 92.1875 ZM92.9418 86.2656 C93.3168 85.0938 93.645 83.9844 93.9731 82.7812 L94.02 82.7812 C94.3637 83.9844 94.6762 85.0938 95.0668 86.2656 L95.5512 87.8281 L92.4418 87.8281 L92.9418 86.2656 ZM89.8168 92 L91.1293 92 L92.1293 88.8594 L95.8793 88.8594 L96.8481 92 L98.2231 92 L94.7387 81.7188 L93.3012 81.7188 L89.8168 92 ZM102.5492 92.1875 C103.4554 92.1875 104.3304 91.8281 105.0179 91.2188 L104.4554 90.3594 C103.9867 90.7969 103.3617 91.125 102.6586 91.125 C101.2679 91.125 100.3148 89.9531 100.3148 88.2031 C100.3148 86.4531 101.3148 85.2656 102.7054 85.2656 C103.3148 85.2656 103.7679 85.5469 104.2211 85.9375 L104.8773 85.0938 C104.3304 84.625 103.6429 84.2031 102.6429 84.2031 C100.7054 84.2031 98.9867 85.6719 98.9867 88.2031 C98.9867 90.7188 100.5336 92.1875 102.5492 92.1875 Z"
      /><rect x="94" y="35" width="22" style="fill:white; stroke:none;" height="10"
      /><path style="stroke:none;" d="M98.1094 40.5781 C99.3438 40.5781 99.9688 41.4688 99.9688 42.8438 C99.9688 44.25 99.1875 45.1875 98.2188 45.1875 C96.9219 45.1875 96.1562 44.0312 96 41.8906 C96.625 40.9531 97.4531 40.5781 98.1094 40.5781 ZM98.2188 46.1875 C99.8125 46.1875 101.1562 44.8438 101.1562 42.8438 C101.1562 40.7031 100.0469 39.625 98.3125 39.625 C97.5 39.625 96.6094 40.1094 95.9688 40.875 C96.0312 37.6875 97.2188 36.6094 98.625 36.6094 C99.25 36.6094 99.8594 36.9062 100.2656 37.3906 L100.9688 36.5938 C100.4062 35.9844 99.6406 35.5469 98.5781 35.5469 C96.5938 35.5469 94.7812 37.0781 94.7812 41.0938 C94.7812 44.4844 96.2344 46.1875 98.2188 46.1875 ZM104.9418 40.2656 C105.3168 39.0938 105.645 37.9844 105.9731 36.7812 L106.02 36.7812 C106.3637 37.9844 106.6762 39.0938 107.0668 40.2656 L107.5512 41.8281 L104.4418 41.8281 L104.9418 40.2656 ZM101.8168 46 L103.1293 46 L104.1293 42.8594 L107.8793 42.8594 L108.8481 46 L110.2231 46 L106.7387 35.7188 L105.3012 35.7188 L101.8168 46 ZM114.5492 46.1875 C115.4554 46.1875 116.3304 45.8281 117.0179 45.2188 L116.4554 44.3594 C115.9867 44.7969 115.3617 45.125 114.6586 45.125 C113.2679 45.125 112.3148 43.9531 112.3148 42.2031 C112.3148 40.4531 113.3148 39.2656 114.7054 39.2656 C115.3148 39.2656 115.7679 39.5469 116.2211 39.9375 L116.8773 39.0938 C116.3304 38.625 115.6429 38.2031 114.6429 38.2031 C112.7054 38.2031 110.9867 39.6719 110.9867 42.2031 C110.9867 44.7188 112.5336 46.1875 114.5492 46.1875 Z"
    /></g
    ><g style="fill:white; text-rendering:optimizeSpeed; stroke:white;"
    ><polygon style="stroke:none; clip-path:url(#clipPath2);" points=" 41 53 52 75 30 75"
      /><rect x="30" y="53" width="22" style="clip-path:url(#clipPath2); fill:rgb(0,166,81); stroke:none;" height="22"
      /><rect x="30" y="53" width="22" style="clip-path:url(#clipPath2); fill:none; stroke:black;" height="22"
      /><polygon style="fill:none; stroke:black;" points=" 41 53 52 75 30 75"
    /></g
    ><g style="text-rendering:optimizeSpeed; font-size:10px; font-family:'SansSerif';"
    ><path style="stroke:none;" d="M39 67 L40.875 67 C43.0938 67 44.2969 65.625 44.2969 63.3125 C44.2969 60.9844 43.0938 59.6562 40.8438 59.6562 L39 59.6562 L39 67 ZM39.9375 66.2344 L39.9375 60.4219 L40.7656 60.4219 C42.4844 60.4219 43.3438 61.4531 43.3438 63.3125 C43.3438 65.1562 42.4844 66.2344 40.7656 66.2344 L39.9375 66.2344 Z"
    /></g
    ><g style="fill:white; text-rendering:optimizeSpeed; font-family:'Serif'; stroke:white;"
    ><rect x="70" width="7" height="9" y="67" style="stroke:none;"
      /><path d="M71 72.5156 L73.9531 68.2656 L73.9531 72.5156 L71 72.5156 ZM76.2812 72.5156 L74.8594 72.5156 L74.8594 67.125 L74.2344 67.125 L70.3438 72.6406 L70.3438 73.1875 L73.9531 73.1875 L73.9531 76 L74.8594 76 L74.8594 73.1875 L76.2812 73.1875 L76.2812 72.5156 Z" style="fill:black; stroke:none;"
      /><rect x="57" width="6" height="13" y="65" style="stroke:none;"
      /><path d="M59.0938 71.2031 C59.0938 69.6562 59.75 68.8125 60.7969 68.8125 C61.7188 68.8125 62.2656 69.4531 62.2656 70.5156 C62.2656 71.7188 61.5 72.4375 60.1875 72.7031 L60.2969 73.3125 C62.2188 73.2344 62.9375 74.2188 62.9375 75.4375 C62.9375 76.625 62.2344 77.4219 60.9531 77.4219 C60.25 77.4219 59.6562 77.1562 59.0938 76.7188 L59.0938 71.2031 ZM58.2031 77.9062 L58.1094 80.375 L58.2656 80.4844 L59.1562 80.2656 L59.0156 77.0938 C59.5469 77.8438 60.3594 78.1719 61.1719 78.1719 C62.5625 78.1719 63.8594 77.2188 63.8594 75.4844 C63.8594 73.9531 62.875 73.1094 61.125 73 C62.5625 72.6094 63.1875 71.4531 63.1875 70.4844 C63.1875 69.0938 62.1562 68.3125 60.9062 68.3125 C59.2969 68.3125 58.2188 69.5469 58.2188 71.5156 L58.2031 77.9062 Z" style="fill:black; stroke:none;"
      /><rect x="135" width="8" height="8" y="68" style="stroke:none;"
      /><path d="M139.9844 73.7031 C139.9375 74.8906 139.1562 75.6562 138.3125 75.6562 C137.2656 75.6562 136.5 74.6875 136.5 72.7188 C136.5 71.2812 137.1562 70.1562 138.3438 70.1562 C139.1406 70.1562 139.7812 70.6875 140.0938 71.6406 L139.9844 73.7031 ZM141.9062 75.2812 C141.7344 75.375 141.5469 75.4219 141.3438 75.4219 C140.9531 75.4219 140.75 75.2188 140.75 74.4219 C140.75 73.4844 140.9688 71.5312 141.1875 69.8281 L141.0312 69.7188 L140.2344 69.9219 L140.1406 70.7969 C139.7812 70.0312 139.1562 69.6562 138.3906 69.6562 C137.0469 69.6562 135.5625 70.8438 135.5625 72.9531 C135.5625 75.0938 136.7188 76.1719 138.1406 76.1719 C139.0156 76.1719 139.6875 75.8125 140.0938 74.9844 C140.2031 75.8594 140.5156 76.1719 141.0156 76.1719 C141.4688 76.1719 141.7969 75.9062 142.0156 75.5625 L141.9062 75.2812 Z" style="fill:black; stroke:none;"
    /></g
  ></g
></svg
>
