<?xml version="1.0"?>
<!DOCTYPE svg PUBLIC '-//W3C//DTD SVG 1.0//EN'
          'http://www.w3.org/TR/2001/REC-SVG-20010904/DTD/svg10.dtd'>
<svg xmlns:xlink="http://www.w3.org/1999/xlink" style="fill-opacity:1; color-rendering:auto; color-interpolation:auto; text-rendering:auto; stroke:black; stroke-linecap:square; stroke-miterlimit:10; shape-rendering:auto; stroke-opacity:1; fill:black; stroke-dasharray:none; font-weight:normal; stroke-width:1; font-family:'Dialog'; font-style:normal; stroke-linejoin:miter; font-size:12px; stroke-dashoffset:0; image-rendering:auto;" viewBox="0 0 308 180" xmlns="http://www.w3.org/2000/svg"
><!--Generated by the Batik Graphics2D SVG Generator--><defs id="genericDefs"
  /><g
  ><defs id="defs1"
    ><clipPath clipPathUnits="userSpaceOnUse" id="clipPath1"
      ><path d="M226 78 C226 84.0751 221.0751 89 215 89 C208.9249 89 204 84.0751 204 78 C204 71.9249 208.9249 67 215 67 C221.0751 67 226 71.9249 226 78 Z"
      /></clipPath
      ><clipPath clipPathUnits="userSpaceOnUse" id="clipPath2"
      ><path d="M174 78 C174 84.0751 169.0751 89 163 89 C156.9249 89 152 84.0751 152 78 C152 71.9249 156.9249 67 163 67 C169.0751 67 174 71.9249 174 78 Z"
      /></clipPath
      ><clipPath clipPathUnits="userSpaceOnUse" id="clipPath3"
      ><path style="fill-rule:evenodd;" d="M104 116 L98 123 L87 123 L82 116 L87 108 L98 108 L104 116 Z"
      /></clipPath
      ><clipPath clipPathUnits="userSpaceOnUse" id="clipPath4"
      ><path d="M82 30 L104 30 L104 52 L82 52 L82 30 Z"
      /></clipPath
      ><clipPath clipPathUnits="userSpaceOnUse" id="clipPath5"
      ><path d="M52 41 C52 47.0751 47.0751 52 41 52 C34.9249 52 30 47.0751 30 41 C30 34.9249 34.9249 30 41 30 C47.0751 30 52 34.9249 52 41 Z"
      /></clipPath
    ></defs
    ><g style="fill:white; text-rendering:optimizeSpeed; stroke:white;"
    ><rect x="0" width="308" height="180" y="0" style="stroke:none;"
      /><polygon style="fill:none; stroke:black;" points=" 267 78 215 78"
      /><path d="M267 67 C261.5 72.5 272.5 83.5 267 89" style="fill:none; stroke:black;"
      /><polygon style="fill:none; stroke:black;" points=" 215 78 163 78"
      /><circle style="clip-path:url(#clipPath1); stroke:none;" r="11" cx="215" cy="78"
      /><rect x="204" y="67" width="22" style="clip-path:url(#clipPath1); fill:rgb(0,144,188); stroke:none;" height="22"
      /><rect x="204" y="67" width="22" style="clip-path:url(#clipPath1); fill:none; stroke:black;" height="22"
      /><circle style="fill:none; stroke:black;" r="11" cx="215" cy="78"
      /><polygon style="fill:none; stroke:black;" points=" 163 78 93 116"
      /><polygon style="fill:none; stroke:black;" points=" 163 78 93 41"
      /><circle style="clip-path:url(#clipPath2); stroke:none;" r="11" cx="163" cy="78"
      /><rect x="152" y="67" width="22" style="clip-path:url(#clipPath2); fill:rgb(255,212,0); stroke:none;" height="22"
      /><rect x="152" y="67" width="22" style="clip-path:url(#clipPath2); fill:none; stroke:black;" height="22"
      /><circle style="fill:none; stroke:black;" r="11" cx="163" cy="78"
      /><polygon style="clip-path:url(#clipPath3); stroke:none;" points=" 104 116 98 123 87 123 82 116 87 108 98 108 104 116"
      /><rect x="82" y="105" width="22" style="clip-path:url(#clipPath3); stroke:none;" height="22"
      /><rect x="82" y="105" width="22" style="clip-path:url(#clipPath3); fill:none; stroke:black;" height="22"
      /><polygon style="fill:none; stroke:black;" points=" 104 116 98 123 87 123 82 116 87 108 98 108 104 116"
    /></g
    ><g style="text-rendering:optimizeSpeed; font-size:14px; font-family:'SansSerif';"
    ><path style="stroke:none;" d="M91.2344 121 L96.8594 121 L96.8594 119.9375 L94.7969 119.9375 L94.7969 110.7188 L93.8281 110.7188 C93.2656 111.0625 92.6094 111.2969 91.6875 111.4688 L91.6875 112.2812 L93.5156 112.2812 L93.5156 119.9375 L91.2344 119.9375 L91.2344 121 Z"
      /><rect x="65" y="87" width="32" style="fill:white; stroke:none;" height="10"
      /><path style="stroke:none;" d="M68.6562 98.1875 C70.3906 98.1875 72.0156 96.9062 72.0156 94.6562 C72.0156 92.4062 70.625 91.3906 68.9219 91.3906 C68.2969 91.3906 67.8594 91.5469 67.3906 91.7969 L67.6406 88.8281 L71.5312 88.8281 L71.5312 87.7188 L66.5312 87.7188 L66.2031 92.5469 L66.8906 92.9531 C67.4844 92.5625 67.9062 92.3594 68.5938 92.3594 C69.8906 92.3594 70.7188 93.2188 70.7188 94.7031 C70.7188 96.1875 69.75 97.125 68.5469 97.125 C67.3594 97.125 66.6094 96.5781 66.0156 95.9844 L65.3906 96.8281 C66.0781 97.5156 67.0625 98.1875 68.6562 98.1875 ZM74.1762 98 L75.395 98 L75.395 92.6094 C75.395 91.5312 75.3012 90.4375 75.2543 89.4062 L75.3012 89.4062 L76.4106 91.5156 L80.145 98 L81.4731 98 L81.4731 87.7188 L80.2387 87.7188 L80.2387 93.0781 C80.2387 94.1406 80.3481 95.2812 80.4106 96.3125 L80.3481 96.3125 L79.2543 94.2031 L75.52 87.7188 L74.1762 87.7188 L74.1762 98 ZM86.0498 92.2656 C86.4248 91.0938 86.7529 89.9844 87.0811 88.7812 L87.1279 88.7812 C87.4717 89.9844 87.7842 91.0938 88.1748 92.2656 L88.6592 93.8281 L85.5498 93.8281 L86.0498 92.2656 ZM82.9248 98 L84.2373 98 L85.2373 94.8594 L88.9873 94.8594 L89.9561 98 L91.3311 98 L87.8467 87.7188 L86.4092 87.7188 L82.9248 98 ZM95.6572 98.1875 C96.5634 98.1875 97.4384 97.8281 98.1259 97.2188 L97.5634 96.3594 C97.0947 96.7969 96.4697 97.125 95.7665 97.125 C94.3759 97.125 93.4228 95.9531 93.4228 94.2031 C93.4228 92.4531 94.4228 91.2656 95.8134 91.2656 C96.4228 91.2656 96.8759 91.5469 97.329 91.9375 L97.9853 91.0938 C97.4384 90.625 96.7509 90.2031 95.7509 90.2031 C93.8134 90.2031 92.0947 91.6719 92.0947 94.2031 C92.0947 96.7188 93.6415 98.1875 95.6572 98.1875 Z"
      /><rect x="103" y="87" width="15" style="fill:white; stroke:none;" height="10"
      /><path style="stroke:none;" d="M105.7656 98 L107.1094 98 C107.25 93.9844 107.7031 91.5938 110.1094 88.5156 L110.1094 87.7188 L103.6875 87.7188 L103.6875 88.8281 L108.6562 88.8281 C106.6562 91.625 105.9375 94.1094 105.7656 98 ZM112.1762 98 L113.395 98 L113.395 92.6094 C113.395 91.5312 113.3012 90.4375 113.2543 89.4062 L113.3012 89.4062 L114.4106 91.5156 L118.145 98 L119.4731 98 L119.4731 87.7188 L118.2387 87.7188 L118.2387 93.0781 C118.2387 94.1406 118.3481 95.2812 118.4106 96.3125 L118.3481 96.3125 L117.2543 94.2031 L113.52 87.7188 L112.1762 87.7188 L112.1762 98 Z"
      /><rect x="98" y="133" width="13" style="fill:white; stroke:none;" height="10"
      /><path style="stroke:none;" d="M99.2344 144 L104.8594 144 L104.8594 142.9375 L102.7969 142.9375 L102.7969 133.7188 L101.8281 133.7188 C101.2656 134.0625 100.6094 134.2969 99.6875 134.4688 L99.6875 135.2812 L101.5156 135.2812 L101.5156 142.9375 L99.2344 142.9375 L99.2344 144 ZM108.8012 144.1875 C109.7387 144.1875 110.5981 143.6875 111.3325 143.0938 L111.3637 143.0938 L111.4887 144 L112.5356 144 L112.5356 139.3281 C112.5356 137.4531 111.7543 136.2031 109.895 136.2031 C108.6762 136.2031 107.5981 136.75 106.9106 137.2031 L107.4106 138.0781 C108.0043 137.6719 108.8012 137.2656 109.6918 137.2656 C110.9418 137.2656 111.2543 138.2031 111.2543 139.1875 C108.02 139.5469 106.5825 140.375 106.5825 142.0312 C106.5825 143.3906 107.5356 144.1875 108.8012 144.1875 ZM109.1762 143.1562 C108.4106 143.1562 107.8325 142.8125 107.8325 141.9375 C107.8325 140.9688 108.6918 140.3281 111.2543 140.0312 L111.2543 142.1562 C110.52 142.8125 109.9106 143.1562 109.1762 143.1562 Z"
      /><rect x="74" y="133" width="14" style="fill:white; stroke:none;" height="11"
      /><path style="stroke:none;" d="M77.7031 144.1875 C79.5156 144.1875 80.9844 143.0938 80.9844 141.25 C80.9844 139.8594 80.0156 138.9375 78.8125 138.6562 L78.8125 138.5938 C79.8906 138.1875 80.6406 137.3594 80.6406 136.125 C80.6406 134.5 79.375 133.5469 77.6562 133.5469 C76.4688 133.5469 75.5469 134.0625 74.7812 134.7812 L75.4688 135.5938 C76.0469 135 76.7656 134.5938 77.5938 134.5938 C78.6562 134.5938 79.3281 135.2344 79.3281 136.2188 C79.3281 137.3281 78.6094 138.1719 76.4844 138.1719 L76.4844 139.1562 C78.8594 139.1562 79.6875 139.9844 79.6875 141.2031 C79.6875 142.3906 78.8125 143.125 77.5938 143.125 C76.4375 143.125 75.6562 142.5781 75.0469 141.9375 L74.4062 142.7812 C75.0781 143.5156 76.0938 144.1875 77.7031 144.1875 ZM85.645 144.1875 C86.5512 144.1875 87.3637 143.6875 87.9575 143.1094 L88.0043 143.1094 L88.1137 144 L89.145 144 L89.145 132.8594 L87.895 132.8594 L87.895 135.7812 L87.9418 137.0938 C87.27 136.5312 86.6918 136.2031 85.8012 136.2031 C84.0668 136.2031 82.5043 137.7344 82.5043 140.2031 C82.5043 142.7344 83.7387 144.1875 85.645 144.1875 ZM85.9262 143.125 C84.5825 143.125 83.8325 142.0312 83.8325 140.1875 C83.8325 138.4531 84.8012 137.2812 86.02 137.2812 C86.6606 137.2812 87.2231 137.5 87.895 138.0781 L87.895 142.0625 C87.2387 142.7656 86.6293 143.125 85.9262 143.125 Z"
      /><polygon style="fill:none;" points=" 93 41 41 41"
    /></g
    ><g style="fill:white; text-rendering:optimizeSpeed; stroke:white;"
    ><rect x="82" y="30" width="22" style="clip-path:url(#clipPath4); stroke:none;" height="22"
      /><rect x="82" y="30" width="22" style="clip-path:url(#clipPath4); fill:rgb(255,212,0); stroke:none;" height="22"
      /><rect x="82" y="30" width="22" style="clip-path:url(#clipPath4); fill:none; stroke:black;" height="22"
      /><rect x="82" y="30" width="22" style="fill:none; stroke:black;" height="22"
      /><circle r="11" style="clip-path:url(#clipPath5); stroke:none;" cx="41" cy="41"
      /><rect x="30" y="30" width="22" style="clip-path:url(#clipPath5); fill:rgb(255,212,0); stroke:none;" height="22"
      /><rect x="30" y="30" width="22" style="clip-path:url(#clipPath5); fill:none; stroke:black;" height="22"
      /><circle r="11" style="fill:none; stroke:black;" cx="41" cy="41"
      /><rect x="71" width="6" height="10" y="44" style="stroke:none;"
      /><path d="M73.2344 45.6562 C73.5156 45.5938 73.7656 45.5625 74.0156 45.5625 C75.0625 45.5625 75.6719 46.1719 75.6719 47.2656 C75.6719 48.4375 74.9062 49.1094 73.7031 49.1094 L73.1875 49.1094 L73.1875 49.6406 L73.7969 49.6406 C75.2188 49.6406 75.9062 50.4219 75.9062 51.6406 C75.9062 52.8438 75.1719 53.6875 73.875 53.6875 C73.6094 53.6875 73.3125 53.6562 73.0156 53.5625 L72.7812 52.8125 C72.625 52.2812 72.5 52.0469 72.1406 52.0469 C71.8906 52.0469 71.7031 52.1719 71.5781 52.4219 C71.8438 53.6406 72.7812 54.1719 74.0312 54.1719 C75.7188 54.1719 76.875 53.125 76.875 51.7031 C76.875 50.5 76.2031 49.625 74.7969 49.375 C75.9531 49.0156 76.6094 48.2031 76.6094 47.2031 C76.6094 45.9219 75.6719 45.0781 74.1875 45.0781 C73.0469 45.0781 72.0625 45.5938 71.7969 46.6875 C71.9062 47 72.1094 47.1094 72.3594 47.1094 C72.7344 47.1094 72.8906 46.8906 73 46.4062 L73.2344 45.6562 Z" style="fill:black; stroke:none;"
      /><rect x="57" width="6" height="13" y="42" style="stroke:none;"
      /><path d="M59.0938 48.2031 C59.0938 46.6562 59.75 45.8125 60.7969 45.8125 C61.7188 45.8125 62.2656 46.4531 62.2656 47.5156 C62.2656 48.7188 61.5 49.4375 60.1875 49.7031 L60.2969 50.3125 C62.2188 50.2344 62.9375 51.2188 62.9375 52.4375 C62.9375 53.625 62.2344 54.4219 60.9531 54.4219 C60.25 54.4219 59.6562 54.1562 59.0938 53.7188 L59.0938 48.2031 ZM58.2031 54.9062 L58.1094 57.375 L58.2656 57.4844 L59.1562 57.2656 L59.0156 54.0938 C59.5469 54.8438 60.3594 55.1719 61.1719 55.1719 C62.5625 55.1719 63.8594 54.2188 63.8594 52.4844 C63.8594 50.9531 62.875 50.1094 61.125 50 C62.5625 49.6094 63.1875 48.4531 63.1875 47.4844 C63.1875 46.0938 62.1562 45.3125 60.9062 45.3125 C59.2969 45.3125 58.2188 46.5469 58.2188 48.5156 L58.2031 54.9062 Z" style="fill:black; stroke:none;"
      /><rect x="145" width="6" height="10" y="89" style="stroke:none;"
      /><path d="M147.2344 90.6562 C147.5156 90.5938 147.7656 90.5625 148.0156 90.5625 C149.0625 90.5625 149.6719 91.1719 149.6719 92.2656 C149.6719 93.4375 148.9062 94.1094 147.7031 94.1094 L147.1875 94.1094 L147.1875 94.6406 L147.7969 94.6406 C149.2188 94.6406 149.9062 95.4219 149.9062 96.6406 C149.9062 97.8438 149.1719 98.6875 147.875 98.6875 C147.6094 98.6875 147.3125 98.6562 147.0156 98.5625 L146.7812 97.8125 C146.625 97.2812 146.5 97.0469 146.1406 97.0469 C145.8906 97.0469 145.7031 97.1719 145.5781 97.4219 C145.8438 98.6406 146.7812 99.1719 148.0312 99.1719 C149.7188 99.1719 150.875 98.125 150.875 96.7031 C150.875 95.5 150.2031 94.625 148.7969 94.375 C149.9531 94.0156 150.6094 93.2031 150.6094 92.2031 C150.6094 90.9219 149.6719 90.0781 148.1875 90.0781 C147.0469 90.0781 146.0625 90.5938 145.7969 91.6875 C145.9062 92 146.1094 92.1094 146.3594 92.1094 C146.7344 92.1094 146.8906 91.8906 147 91.4062 L147.2344 90.6562 Z" style="fill:black; stroke:none;"
      /><rect x="129" width="6" height="13" y="96" style="stroke:none;"
      /><path d="M131.0938 102.2031 C131.0938 100.6562 131.75 99.8125 132.7969 99.8125 C133.7188 99.8125 134.2656 100.4531 134.2656 101.5156 C134.2656 102.7188 133.5 103.4375 132.1875 103.7031 L132.2969 104.3125 C134.2188 104.2344 134.9375 105.2188 134.9375 106.4375 C134.9375 107.625 134.2344 108.4219 132.9531 108.4219 C132.25 108.4219 131.6562 108.1562 131.0938 107.7188 L131.0938 102.2031 ZM130.2031 108.9062 L130.1094 111.375 L130.2656 111.4844 L131.1562 111.2656 L131.0156 108.0938 C131.5469 108.8438 132.3594 109.1719 133.1719 109.1719 C134.5625 109.1719 135.8594 108.2188 135.8594 106.4844 C135.8594 104.9531 134.875 104.1094 133.125 104 C134.5625 103.6094 135.1875 102.4531 135.1875 101.4844 C135.1875 100.0938 134.1562 99.3125 132.9062 99.3125 C131.2969 99.3125 130.2188 100.5469 130.2188 102.5156 L130.2031 108.9062 Z" style="fill:black; stroke:none;"
      /><rect x="137" width="7" height="9" y="71" style="stroke:none;"
      /><path d="M138 76.5156 L140.9531 72.2656 L140.9531 76.5156 L138 76.5156 ZM143.2812 76.5156 L141.8594 76.5156 L141.8594 71.125 L141.2344 71.125 L137.3438 76.6406 L137.3438 77.1875 L140.9531 77.1875 L140.9531 80 L141.8594 80 L141.8594 77.1875 L143.2812 77.1875 L143.2812 76.5156 Z" style="fill:black; stroke:none;"
      /><rect x="104" width="6" height="13" y="51" style="stroke:none;"
      /><path d="M106.0938 57.2031 C106.0938 55.6562 106.75 54.8125 107.7969 54.8125 C108.7188 54.8125 109.2656 55.4531 109.2656 56.5156 C109.2656 57.7188 108.5 58.4375 107.1875 58.7031 L107.2969 59.3125 C109.2188 59.2344 109.9375 60.2188 109.9375 61.4375 C109.9375 62.625 109.2344 63.4219 107.9531 63.4219 C107.25 63.4219 106.6562 63.1562 106.0938 62.7188 L106.0938 57.2031 ZM105.2031 63.9062 L105.1094 66.375 L105.2656 66.4844 L106.1562 66.2656 L106.0156 63.0938 C106.5469 63.8438 107.3594 64.1719 108.1719 64.1719 C109.5625 64.1719 110.8594 63.2188 110.8594 61.4844 C110.8594 59.9531 109.875 59.1094 108.125 59 C109.5625 58.6094 110.1875 57.4531 110.1875 56.4844 C110.1875 55.0938 109.1562 54.3125 107.9062 54.3125 C106.2969 54.3125 105.2188 55.5469 105.2188 57.5156 L105.2031 63.9062 Z" style="fill:black; stroke:none;"
      /><rect x="192" width="7" height="9" y="81" style="stroke:none;"
      /><path d="M193 86.5156 L195.9531 82.2656 L195.9531 86.5156 L193 86.5156 ZM198.2812 86.5156 L196.8594 86.5156 L196.8594 81.125 L196.2344 81.125 L192.3438 86.6406 L192.3438 87.1875 L195.9531 87.1875 L195.9531 90 L196.8594 90 L196.8594 87.1875 L198.2812 87.1875 L198.2812 86.5156 Z" style="fill:black; stroke:none;"
      /><rect x="179" width="6" height="13" y="79" style="stroke:none;"
      /><path d="M181.0938 85.2031 C181.0938 83.6562 181.75 82.8125 182.7969 82.8125 C183.7188 82.8125 184.2656 83.4531 184.2656 84.5156 C184.2656 85.7188 183.5 86.4375 182.1875 86.7031 L182.2969 87.3125 C184.2188 87.2344 184.9375 88.2188 184.9375 89.4375 C184.9375 90.625 184.2344 91.4219 182.9531 91.4219 C182.25 91.4219 181.6562 91.1562 181.0938 90.7188 L181.0938 85.2031 ZM180.2031 91.9062 L180.1094 94.375 L180.2656 94.4844 L181.1562 94.2656 L181.0156 91.0938 C181.5469 91.8438 182.3594 92.1719 183.1719 92.1719 C184.5625 92.1719 185.8594 91.2188 185.8594 89.4844 C185.8594 87.9531 184.875 87.1094 183.125 87 C184.5625 86.6094 185.1875 85.4531 185.1875 84.4844 C185.1875 83.0938 184.1562 82.3125 182.9062 82.3125 C181.2969 82.3125 180.2188 83.5469 180.2188 85.5156 L180.2031 91.9062 Z" style="fill:black; stroke:none;"
      /><rect x="231" width="6" height="13" y="79" style="stroke:none;"
      /><path d="M233.0938 85.2031 C233.0938 83.6562 233.75 82.8125 234.7969 82.8125 C235.7188 82.8125 236.2656 83.4531 236.2656 84.5156 C236.2656 85.7188 235.5 86.4375 234.1875 86.7031 L234.2969 87.3125 C236.2188 87.2344 236.9375 88.2188 236.9375 89.4375 C236.9375 90.625 236.2344 91.4219 234.9531 91.4219 C234.25 91.4219 233.6562 91.1562 233.0938 90.7188 L233.0938 85.2031 ZM232.2031 91.9062 L232.1094 94.375 L232.2656 94.4844 L233.1562 94.2656 L233.0156 91.0938 C233.5469 91.8438 234.3594 92.1719 235.1719 92.1719 C236.5625 92.1719 237.8594 91.2188 237.8594 89.4844 C237.8594 87.9531 236.875 87.1094 235.125 87 C236.5625 86.6094 237.1875 85.4531 237.1875 84.4844 C237.1875 83.0938 236.1562 82.3125 234.9062 82.3125 C233.2969 82.3125 232.2188 83.5469 232.2188 85.5156 L232.2031 91.9062 Z" style="fill:black; stroke:none;"
    /></g
    ><g ID="legend-1:0" style="text-rendering:optimizeSpeed; font-size:10px; font-family:'SansSerif';"
    ><path style="stroke:none;" d="M30.875 165 L34.9062 165 L34.9062 164.2344 L33.4375 164.2344 L33.4375 157.6562 L32.7344 157.6562 C32.3281 157.9062 31.8594 158.0625 31.2031 158.1875 L31.2031 158.7656 L32.5156 158.7656 L32.5156 164.2344 L30.875 164.2344 L30.875 165 ZM35.925 160.4531 L40.7219 160.4531 L40.7219 159.7656 L35.925 159.7656 L35.925 160.4531 ZM35.925 162.8438 L40.7219 162.8438 L40.7219 162.1719 L35.925 162.1719 L35.925 162.8438 ZM41.9906 166.9844 L42.9125 166.9844 C42.8969 166.0781 42.8812 165.2188 42.85 164.2969 C43.4125 164.9219 44.1156 165.125 44.7875 165.125 C45.8969 165.125 46.9125 164.3125 46.9125 162.8438 C46.9125 161.7031 46.2562 160.8906 45.1625 160.7344 L45.1625 160.6875 C45.8656 160.2656 46.2562 159.6406 46.2562 158.8281 C46.2562 157.5312 45.2719 156.9062 44.225 156.9062 C42.6937 156.9062 41.9906 158.0156 41.9906 159.5156 L41.9906 166.9844 ZM44.5844 164.375 C44.0062 164.375 43.3812 164.1875 42.85 163.5156 C42.85 162.2031 42.8656 160.9375 42.8812 159.6406 C42.8969 158.3438 43.3969 157.6406 44.225 157.6406 C44.8344 157.6406 45.3656 158.0625 45.3656 158.9062 C45.3656 159.625 44.9281 160.4062 43.7875 160.625 L43.9125 161.3281 C44.1 161.2812 44.2875 161.2656 44.475 161.2656 C45.5062 161.2656 46.0062 161.9219 46.0062 162.7969 C46.0062 163.7812 45.3656 164.375 44.5844 164.375 ZM47.8631 162.5469 L50.4256 162.5469 L50.4256 161.8438 L47.8631 161.8438 L47.8631 162.5469 ZM53.5206 165.125 C54.8175 165.125 55.8643 164.3438 55.8643 163.0469 C55.8643 162.0469 55.1768 161.375 54.3175 161.1875 L54.3175 161.1406 C55.0831 160.8438 55.6143 160.2656 55.6143 159.375 C55.6143 158.2031 54.7237 157.5312 53.4893 157.5312 C52.6456 157.5312 51.9893 157.9062 51.4425 158.4062 L51.9268 158.9844 C52.3331 158.5625 52.8643 158.2812 53.4425 158.2812 C54.2081 158.2812 54.6925 158.7344 54.6925 159.4375 C54.6925 160.2344 54.1768 160.8438 52.6612 160.8438 L52.6612 161.5469 C54.3487 161.5469 54.9425 162.125 54.9425 163 C54.9425 163.8438 54.3175 164.375 53.4425 164.375 C52.6143 164.375 52.0675 163.9844 51.63 163.5312 L51.1768 164.125 C51.6456 164.6562 52.3643 165.125 53.5206 165.125 ZM56.8831 162.5469 L59.4456 162.5469 L59.4456 161.8438 L56.8831 161.8438 L56.8831 162.5469 ZM62.6656 165.125 C63.3218 165.125 63.8843 164.7812 64.3218 164.3594 L64.3531 164.3594 L64.4312 165 L65.1656 165 L65.1656 157.0469 L64.275 157.0469 L64.275 159.125 L64.3062 160.0625 C63.8375 159.6719 63.4156 159.4375 62.775 159.4375 C61.5406 159.4375 60.4312 160.5312 60.4312 162.2969 C60.4312 164.0938 61.3062 165.125 62.6656 165.125 ZM62.8687 164.375 C61.9156 164.375 61.3687 163.5938 61.3687 162.2812 C61.3687 161.0469 62.0562 160.2031 62.9468 160.2031 C63.3843 160.2031 63.8062 160.3594 64.275 160.7656 L64.275 163.625 C63.8062 164.125 63.3687 164.375 62.8687 164.375 ZM69.2093 165.125 C69.9437 165.125 70.5375 164.875 71.0062 164.5625 L70.6781 163.9688 C70.2875 164.2344 69.85 164.4062 69.3187 164.4062 C68.2875 164.4062 67.5843 163.6562 67.5218 162.5 L71.1781 162.5 C71.1937 162.375 71.225 162.1875 71.225 161.9844 C71.225 160.4375 70.4437 159.4375 69.0531 159.4375 C67.8031 159.4375 66.6156 160.5312 66.6156 162.2969 C66.6156 164.0781 67.7718 165.125 69.2093 165.125 ZM67.5062 161.8438 C67.6156 160.7812 68.3031 160.1562 69.0687 160.1562 C69.9125 160.1562 70.4125 160.75 70.4125 161.8438 L67.5062 161.8438 ZM74.6712 165.125 C75.9993 165.125 77.1868 164.0938 77.1868 162.2969 C77.1868 160.4844 75.9993 159.4375 74.6712 159.4375 C73.3431 159.4375 72.1556 160.4844 72.1556 162.2969 C72.1556 164.0938 73.3431 165.125 74.6712 165.125 ZM74.6712 164.375 C73.7337 164.375 73.0931 163.5469 73.0931 162.2969 C73.0931 161.0469 73.7337 160.1875 74.6712 160.1875 C75.6087 160.1875 76.2493 161.0469 76.2493 162.2969 C76.2493 163.5469 75.6087 164.375 74.6712 164.375 ZM77.8562 165 L78.8093 165 L79.5437 163.7344 C79.7312 163.4062 79.9031 163.0625 80.1062 162.7656 L80.1531 162.7656 C80.3562 163.0625 80.5437 163.4062 80.7312 163.7344 L81.5281 165 L82.5281 165 L80.7468 162.2656 L82.3875 159.5625 L81.4343 159.5625 L80.7625 160.7656 C80.6062 161.0625 80.45 161.375 80.2781 161.6719 L80.2468 161.6719 C80.0593 161.375 79.8718 161.0625 79.7 160.7656 L78.9656 159.5625 L77.9968 159.5625 L79.6375 162.1719 L77.8562 165 ZM83.6956 167.3438 C84.7737 167.3438 85.3362 166.5156 85.7112 165.4531 L87.7581 159.5625 L86.8674 159.5625 L85.8987 162.5938 C85.7424 163.0625 85.5862 163.625 85.4456 164.1094 L85.3831 164.1094 C85.2268 163.625 85.0237 163.0625 84.8674 162.5938 L83.7581 159.5625 L82.8049 159.5625 L84.9924 165.0156 L84.8674 165.4219 C84.6487 166.0938 84.2581 166.5938 83.6331 166.5938 C83.4924 166.5938 83.3362 166.5469 83.2268 166.5 L83.0549 167.2344 C83.2268 167.2969 83.4299 167.3438 83.6956 167.3438 ZM88.3431 162.5469 L90.9056 162.5469 L90.9056 161.8438 L88.3431 161.8438 L88.3431 162.5469 ZM92.3599 165 L96.4849 165 L96.4849 164.2031 L93.2974 164.2031 L93.2974 157.6562 L92.3599 157.6562 L92.3599 165 ZM97.2431 162.5469 L99.8056 162.5469 L99.8056 161.8438 L97.2431 161.8438 L97.2431 162.5469 ZM102.4318 165.125 C103.1037 165.125 103.7131 164.7812 104.2287 164.3438 L104.2599 164.3438 L104.3381 165 L105.0881 165 L105.0881 161.6562 C105.0881 160.3125 104.5256 159.4375 103.2131 159.4375 C102.3381 159.4375 101.5724 159.8125 101.0724 160.1406 L101.4318 160.7656 C101.8537 160.4844 102.4318 160.1875 103.0568 160.1875 C103.9474 160.1875 104.1818 160.8594 104.1818 161.5625 C101.8693 161.8125 100.8381 162.4062 100.8381 163.5938 C100.8381 164.5625 101.5256 165.125 102.4318 165.125 ZM102.6974 164.4062 C102.1506 164.4062 101.7287 164.1562 101.7287 163.5312 C101.7287 162.8281 102.3537 162.375 104.1818 162.1562 L104.1818 163.6875 C103.6506 164.1562 103.2131 164.4062 102.6974 164.4062 ZM106.8218 165 L107.7281 165 L107.7281 161.5156 C108.0874 160.5781 108.6499 160.2656 109.1031 160.2656 C109.3218 160.2656 109.4468 160.2812 109.6343 160.3438 L109.8062 159.5469 C109.6343 159.4531 109.4624 159.4375 109.2124 159.4375 C108.6031 159.4375 108.0562 159.875 107.6812 160.5625 L107.6499 160.5625 L107.5718 159.5625 L106.8218 159.5625 L106.8218 165 ZM111.9518 165.125 C112.6237 165.125 113.233 164.7812 113.7487 164.3438 L113.7799 164.3438 L113.858 165 L114.608 165 L114.608 161.6562 C114.608 160.3125 114.0455 159.4375 112.733 159.4375 C111.858 159.4375 111.0924 159.8125 110.5924 160.1406 L110.9518 160.7656 C111.3737 160.4844 111.9518 160.1875 112.5768 160.1875 C113.4674 160.1875 113.7018 160.8594 113.7018 161.5625 C111.3893 161.8125 110.358 162.4062 110.358 163.5938 C110.358 164.5625 111.0455 165.125 111.9518 165.125 ZM112.2174 164.4062 C111.6705 164.4062 111.2487 164.1562 111.2487 163.5312 C111.2487 162.8281 111.8737 162.375 113.7018 162.1562 L113.7018 163.6875 C113.1705 164.1562 112.733 164.4062 112.2174 164.4062 ZM116.4199 165 L117.3574 165 L117.3574 161.5469 L120.7637 161.5469 L120.7637 165 L121.6855 165 L121.6855 157.6562 L120.7637 157.6562 L120.7637 160.7344 L117.3574 160.7344 L117.3574 157.6562 L116.4199 157.6562 L116.4199 165 ZM125.8093 165.125 C126.5437 165.125 127.1374 164.875 127.6062 164.5625 L127.278 163.9688 C126.8874 164.2344 126.4499 164.4062 125.9187 164.4062 C124.8874 164.4062 124.1843 163.6562 124.1218 162.5 L127.778 162.5 C127.7937 162.375 127.8249 162.1875 127.8249 161.9844 C127.8249 160.4375 127.0437 159.4375 125.653 159.4375 C124.403 159.4375 123.2155 160.5312 123.2155 162.2969 C123.2155 164.0781 124.3718 165.125 125.8093 165.125 ZM124.1062 161.8438 C124.2155 160.7812 124.903 160.1562 125.6687 160.1562 C126.5124 160.1562 127.0124 160.75 127.0124 161.8438 L124.1062 161.8438 ZM129.1618 167.2969 L130.068 167.2969 L130.068 165.4531 L130.0524 164.5 C130.5368 164.9062 131.0524 165.125 131.5524 165.125 C132.8024 165.125 133.9118 164.0625 133.9118 162.2031 C133.9118 160.5312 133.1462 159.4375 131.7555 159.4375 C131.1149 159.4375 130.5055 159.7969 130.0212 160.1875 L129.9899 160.1875 L129.9118 159.5625 L129.1618 159.5625 L129.1618 167.2969 ZM131.3962 164.375 C131.0368 164.375 130.5524 164.2188 130.068 163.7969 L130.068 160.9531 C130.5993 160.4531 131.068 160.2031 131.5368 160.2031 C132.5524 160.2031 132.9587 161.0156 132.9587 162.2031 C132.9587 163.5625 132.3024 164.375 131.3962 164.375 ZM134.8774 165 L139.4868 165 L139.4868 164.2031 L137.4555 164.2031 C137.0962 164.2031 136.643 164.25 136.2524 164.2812 C137.9868 162.6562 139.1274 161.1562 139.1274 159.7031 C139.1274 158.3906 138.3149 157.5312 137.0024 157.5312 C136.0649 157.5312 135.4399 157.9531 134.8462 158.6094 L135.3774 159.125 C135.768 158.6562 136.2837 158.2812 136.893 158.2812 C137.7993 158.2812 138.2368 158.8906 138.2368 159.7344 C138.2368 160.9844 137.1743 162.4531 134.8774 164.4531 L134.8774 165 ZM142.4899 165.125 C143.2399 165.125 143.7868 164.7344 144.2868 164.1562 L144.318 164.1562 L144.3961 165 L145.1461 165 L145.1461 159.5625 L144.2399 159.5625 L144.2399 163.4219 C143.7243 164.0625 143.3336 164.3438 142.7711 164.3438 C142.0524 164.3438 141.7555 163.9062 141.7555 162.9062 L141.7555 159.5625 L140.8336 159.5625 L140.8336 163.0156 C140.8336 164.3906 141.3493 165.125 142.4899 165.125 ZM147.9349 165.125 C148.1849 165.125 148.3411 165.0938 148.4661 165.0469 L148.3411 164.3438 C148.2474 164.375 148.2005 164.375 148.1536 164.375 C148.013 164.375 147.888 164.2656 147.888 163.9844 L147.888 157.0469 L146.9818 157.0469 L146.9818 163.9219 C146.9818 164.6875 147.263 165.125 147.9349 165.125 ZM151.9411 165.125 C153.2693 165.125 154.4568 164.0938 154.4568 162.2969 C154.4568 160.4844 153.2693 159.4375 151.9411 159.4375 C150.613 159.4375 149.4255 160.4844 149.4255 162.2969 C149.4255 164.0938 150.613 165.125 151.9411 165.125 ZM151.9411 164.375 C151.0036 164.375 150.363 163.5469 150.363 162.2969 C150.363 161.0469 151.0036 160.1875 151.9411 160.1875 C152.8786 160.1875 153.5193 161.0469 153.5193 162.2969 C153.5193 163.5469 152.8786 164.375 151.9411 164.375 ZM155.8918 167.2969 L156.798 167.2969 L156.798 165.4531 L156.7824 164.5 C157.2668 164.9062 157.7824 165.125 158.2824 165.125 C159.5324 165.125 160.6418 164.0625 160.6418 162.2031 C160.6418 160.5312 159.8761 159.4375 158.4855 159.4375 C157.8449 159.4375 157.2355 159.7969 156.7511 160.1875 L156.7199 160.1875 L156.6418 159.5625 L155.8918 159.5625 L155.8918 167.2969 ZM158.1261 164.375 C157.7668 164.375 157.2824 164.2188 156.798 163.7969 L156.798 160.9531 C157.3293 160.4531 157.798 160.2031 158.2668 160.2031 C159.2824 160.2031 159.6886 161.0156 159.6886 162.2031 C159.6886 163.5625 159.0324 164.375 158.1261 164.375 ZM163.7793 165.125 C165.0136 165.125 166.1855 164.2188 166.1855 162.6094 C166.1855 161 165.1855 160.2812 163.9668 160.2812 C163.5293 160.2812 163.2168 160.3906 162.873 160.5625 L163.0605 158.4531 L165.8261 158.4531 L165.8261 157.6562 L162.2636 157.6562 L162.0293 161.0938 L162.5136 161.4062 C162.9355 161.125 163.248 160.9688 163.7324 160.9688 C164.6543 160.9688 165.2636 161.5938 165.2636 162.6406 C165.2636 163.7031 164.5605 164.375 163.7011 164.375 C162.8574 164.375 162.3261 163.9844 161.9043 163.5625 L161.4511 164.1562 C161.9355 164.6562 162.6386 165.125 163.7793 165.125 ZM167.7199 165 L168.5949 165 L168.5949 161.1562 C168.5949 160.375 168.5324 159.5938 168.4855 158.8594 L168.5324 158.8594 L169.3136 160.375 L171.9855 165 L172.9386 165 L172.9386 157.6562 L172.0636 157.6562 L172.0636 161.4844 C172.0636 162.2344 172.1261 163.0625 172.173 163.7969 L172.1261 163.7969 L171.3449 162.2969 L168.673 157.6562 L167.7199 157.6562 L167.7199 165 ZM176.2055 160.9062 C176.4711 160.0625 176.7055 159.2812 176.9398 158.4219 L176.9867 158.4219 C177.2211 159.2656 177.4555 160.0625 177.7211 160.9062 L178.0648 162.0156 L175.8461 162.0156 L176.2055 160.9062 ZM173.9711 165 L174.9086 165 L175.6273 162.7656 L178.2992 162.7656 L179.0023 165 L179.9867 165 L177.4867 157.6562 L176.4555 157.6562 L173.9711 165 ZM183.0723 165.125 C183.713 165.125 184.338 164.875 184.8223 164.4375 L184.4317 163.8281 C184.088 164.1406 183.6505 164.375 183.1505 164.375 C182.1505 164.375 181.463 163.5469 181.463 162.2969 C181.463 161.0469 182.1973 160.1875 183.1817 160.1875 C183.6036 160.1875 183.9473 160.3906 184.2598 160.6719 L184.7286 160.0625 C184.338 159.7344 183.8536 159.4375 183.1348 159.4375 C181.7442 159.4375 180.5255 160.4844 180.5255 162.2969 C180.5255 164.0938 181.6348 165.125 183.0723 165.125 ZM187.0842 165 L188.0373 165 C188.1467 162.125 188.4592 160.4219 190.178 158.2188 L190.178 157.6562 L185.5842 157.6562 L185.5842 158.4531 L189.1467 158.4531 C187.7092 160.4531 187.1936 162.2188 187.0842 165 ZM191.6498 165 L192.5248 165 L192.5248 161.1562 C192.5248 160.375 192.4623 159.5938 192.4155 158.8594 L192.4623 158.8594 L193.2436 160.375 L195.9155 165 L196.8686 165 L196.8686 157.6562 L195.9936 157.6562 L195.9936 161.4844 C195.9936 162.2344 196.0561 163.0625 196.103 163.7969 L196.0561 163.7969 L195.2748 162.2969 L192.603 157.6562 L191.6498 157.6562 L191.6498 165 ZM198.3229 162.5469 L200.8854 162.5469 L200.8854 161.8438 L198.3229 161.8438 L198.3229 162.5469 ZM204.3711 165.125 C205.6992 165.125 206.8867 164.0938 206.8867 162.2969 C206.8867 160.4844 205.6992 159.4375 204.3711 159.4375 C203.0429 159.4375 201.8554 160.4844 201.8554 162.2969 C201.8554 164.0938 203.0429 165.125 204.3711 165.125 ZM204.3711 164.375 C203.4336 164.375 202.7929 163.5469 202.7929 162.2969 C202.7929 161.0469 203.4336 160.1875 204.3711 160.1875 C205.3086 160.1875 205.9492 161.0469 205.9492 162.2969 C205.9492 163.5469 205.3086 164.375 204.3711 164.375 ZM208.3217 165 L209.2279 165 L209.2279 161.0625 C209.7748 160.5156 210.1654 160.2344 210.7123 160.2344 C211.4467 160.2344 211.7436 160.6562 211.7436 161.6875 L211.7436 165 L212.6654 165 L212.6654 161.5625 C212.6654 160.1719 212.1342 159.4375 210.9936 159.4375 C210.2592 159.4375 209.6967 159.8438 209.1811 160.3438 L209.1498 160.3438 L209.0717 159.5625 L208.3217 159.5625 L208.3217 165 ZM214.4317 165 L215.3379 165 L215.3379 159.5625 L214.4317 159.5625 L214.4317 165 ZM214.8848 158.4531 C215.2442 158.4531 215.4942 158.2031 215.4942 157.8438 C215.4942 157.4844 215.2442 157.25 214.8848 157.25 C214.5254 157.25 214.2754 157.4844 214.2754 157.8438 C214.2754 158.2031 214.5254 158.4531 214.8848 158.4531 ZM219.3223 165.125 C219.9629 165.125 220.5879 164.875 221.0723 164.4375 L220.6817 163.8281 C220.3379 164.1406 219.9004 164.375 219.4004 164.375 C218.4004 164.375 217.7129 163.5469 217.7129 162.2969 C217.7129 161.0469 218.4473 160.1875 219.4317 160.1875 C219.8536 160.1875 220.1973 160.3906 220.5098 160.6719 L220.9786 160.0625 C220.5879 159.7344 220.1036 159.4375 219.3848 159.4375 C217.9942 159.4375 216.7754 160.4844 216.7754 162.2969 C216.7754 164.0938 217.8848 165.125 219.3223 165.125 Z"
    /></g
  ></g
></svg
>
