<?xml version="1.0"?>
<!DOCTYPE svg PUBLIC '-//W3C//DTD SVG 1.0//EN'
          'http://www.w3.org/TR/2001/REC-SVG-20010904/DTD/svg10.dtd'>
<svg xmlns:xlink="http://www.w3.org/1999/xlink" style="fill-opacity:1; color-rendering:auto; color-interpolation:auto; text-rendering:auto; stroke:black; stroke-linecap:square; stroke-miterlimit:10; shape-rendering:auto; stroke-opacity:1; fill:black; stroke-dasharray:none; font-weight:normal; stroke-width:1; font-family:'Dialog'; font-style:normal; stroke-linejoin:miter; font-size:12px; stroke-dashoffset:0; image-rendering:auto;" viewBox="0 0 394 180" xmlns="http://www.w3.org/2000/svg"
><!--Generated by the Batik Graphics2D SVG Generator--><defs id="genericDefs"
  /><g
  ><defs id="defs1"
    ><clipPath clipPathUnits="userSpaceOnUse" id="clipPath1"
      ><path style="fill-rule:evenodd;" d="M295 68 L301 68 L301 112 L295 112 L301 112 L301 68 Z"
      /></clipPath
      ><clipPath clipPathUnits="userSpaceOnUse" id="clipPath2"
      ><path d="M238 79 L260 79 L260 101 L238 101 L238 79 Z"
      /></clipPath
      ><clipPath clipPathUnits="userSpaceOnUse" id="clipPath3"
      ><path d="M208 90 C208 96.0751 203.0751 101 197 101 C190.9249 101 186 96.0751 186 90 C186 83.9249 190.9249 79 197 79 C203.0751 79 208 83.9249 208 90 Z"
      /></clipPath
      ><clipPath clipPathUnits="userSpaceOnUse" id="clipPath4"
      ><path d="M156 90 C156 96.0751 151.0751 101 145 101 C138.9249 101 134 96.0751 134 90 C134 83.9249 138.9249 79 145 79 C151.0751 79 156 83.9249 156 90 Z"
      /></clipPath
      ><clipPath clipPathUnits="userSpaceOnUse" id="clipPath5"
      ><path style="fill-rule:evenodd;" d="M98 138 L93 138 L93 94 L98 94 L93 94 L93 138 Z"
      /></clipPath
      ><clipPath clipPathUnits="userSpaceOnUse" id="clipPath6"
      ><path style="fill-rule:evenodd;" d="M93 30 L104 41 L93 52 L82 41 Z"
      /></clipPath
      ><clipPath clipPathUnits="userSpaceOnUse" id="clipPath7"
      ><path d="M30 30 L52 30 L52 52 L30 52 L30 30 Z"
      /></clipPath
    ></defs
    ><g style="fill:white; text-rendering:optimizeSpeed; stroke:white;"
    ><rect x="0" width="394" height="180" y="0" style="stroke:none;"
      /><polygon style="fill:none; stroke:black;" points=" 353 90 301 90"
      /><path d="M353 79 C347.5 84.5 358.5 95.5 353 101" style="fill:none; stroke:black;"
      /><polygon style="fill:none; stroke:black;" points=" 301 90 249 90"
      /><polygon style="clip-path:url(#clipPath1); stroke:none;" points=" 295 68 301 68 301 112 295 112 301 112 301 68"
      /><rect x="290" y="56" width="22" style="clip-path:url(#clipPath1); fill:black; stroke:none;" height="68"
      /><rect x="290" y="56" width="22" style="clip-path:url(#clipPath1); fill:none; stroke:black;" height="68"
      /><polygon style="fill:none; stroke:black;" points=" 295 68 301 68 301 112 295 112 301 112 301 68"
      /><polygon style="fill:none; stroke:black;" points=" 249 90 197 90"
      /><rect x="238" y="79" width="22" style="clip-path:url(#clipPath2); stroke:none;" height="22"
      /><rect x="238" y="79" width="22" style="clip-path:url(#clipPath2); fill:rgb(0,144,188); stroke:none;" height="22"
      /><rect x="238" y="79" width="22" style="clip-path:url(#clipPath2); fill:none; stroke:black;" height="22"
      /><rect x="238" y="79" width="22" style="fill:none; stroke:black;" height="22"
      /><polygon style="fill:none; stroke:black;" points=" 197 90 145 90"
      /><circle style="clip-path:url(#clipPath3); stroke:none;" r="11" cx="197" cy="90"
      /><rect x="186" y="79" width="22" style="clip-path:url(#clipPath3); fill:rgb(255,212,0); stroke:none;" height="22"
      /><rect x="186" y="79" width="22" style="clip-path:url(#clipPath3); fill:none; stroke:black;" height="22"
      /><circle style="fill:none; stroke:black;" r="11" cx="197" cy="90"
      /><polygon style="fill:none; stroke:black;" points=" 145 90 93 116"
      /><polygon style="fill:none; stroke:black;" points=" 145 90 93 41"
      /><circle style="clip-path:url(#clipPath4); stroke:none;" r="11" cx="145" cy="90"
      /><rect x="134" y="79" width="22" style="clip-path:url(#clipPath4); fill:rgb(255,212,0); stroke:none;" height="22"
      /><rect x="134" y="79" width="22" style="clip-path:url(#clipPath4); fill:none; stroke:black;" height="22"
      /><circle style="fill:none; stroke:black;" r="11" cx="145" cy="90"
      /><polygon style="clip-path:url(#clipPath5); stroke:none;" points=" 98 138 93 138 93 94 98 94 93 94 93 138"
      /><rect x="82" y="82" width="22" style="clip-path:url(#clipPath5); fill:black; stroke:none;" height="68"
      /><rect x="82" y="82" width="22" style="clip-path:url(#clipPath5); fill:none; stroke:black;" height="68"
      /><polygon style="fill:none; stroke:black;" points=" 98 138 93 138 93 94 98 94 93 94 93 138"
      /><path d="M95.5469 147.9531 C95.5156 147.2969 95.5 146.3906 95.5 145.7656 L95.5 144.5156 C95.5 142.8281 94.9531 142.1562 93.8594 142.1562 C93.0625 142.1562 92.1562 142.625 91.4531 143.4062 L91.3594 142.2969 L91.2031 142.1719 L89.4688 142.8125 L89.4688 143.2031 L90.5312 143.2812 C90.5625 143.8438 90.5781 144.3438 90.5781 145.1094 L90.5781 145.7656 C90.5781 146.375 90.5781 147.2969 90.5469 147.9688 L89.5469 148.1094 L89.5469 148.5 L92.4688 148.5 L92.4688 148.1094 L91.5156 147.9531 C91.5156 147.2969 91.5 146.375 91.5 145.7656 L91.5 143.875 C92.2656 143.1562 92.875 142.9062 93.4688 142.9062 C94.2344 142.9062 94.5938 143.3125 94.5938 144.5625 L94.5938 145.7656 C94.5938 146.3906 94.5781 147.3125 94.5625 147.9688 L93.5469 148.1094 L93.5469 148.5 L96.4844 148.5 L96.4844 148.1094 L95.5469 147.9531 Z" style="fill:black; stroke:none;"
      /><polygon style="fill:none; stroke:black;" points=" 93 41 41 41"
      /><polygon style="clip-path:url(#clipPath6); stroke:none;" points=" 93 30 104 41 93 52 82 41"
      /><rect x="82" y="30" width="22" style="clip-path:url(#clipPath6); fill:rgb(0,144,188); stroke:none;" height="11"
      /><rect x="82" y="30" width="22" style="clip-path:url(#clipPath6); fill:none; stroke:black;" height="11"
      /><polygon style="fill:none; stroke:black;" points=" 93 30 104 41 93 52 82 41"
      /><rect x="30" y="30" width="22" style="clip-path:url(#clipPath7); stroke:none;" height="22"
      /><rect x="30" y="30" width="22" style="clip-path:url(#clipPath7); fill:rgb(255,212,0); stroke:none;" height="22"
      /><rect x="30" y="30" width="22" style="clip-path:url(#clipPath7); fill:none; stroke:black;" height="22"
      /><rect x="30" y="30" width="22" style="fill:none; stroke:black;" height="22"
    /></g
    ><g style="text-rendering:optimizeSpeed; font-size:10px; font-family:'SansSerif';"
    ><path style="stroke:none;" d="M40.0625 45 L40.9844 45 L40.9844 40.3125 L42.125 40.3125 L42.125 39.5625 L40.9844 39.5625 L40.9844 38.7031 C40.9844 38.0156 41.2344 37.6406 41.75 37.6406 C41.9375 37.6406 42.1562 37.6875 42.3594 37.7812 L42.5625 37.0938 C42.3125 36.9844 41.9844 36.9062 41.6562 36.9062 C40.5625 36.9062 40.0625 37.5938 40.0625 38.7031 L40.0625 39.5625 L39.3281 39.625 L39.3281 40.3125 L40.0625 40.3125 L40.0625 45 Z"
    /></g
    ><g style="fill:white; text-rendering:optimizeSpeed; font-family:'Serif'; stroke:white;"
    ><rect x="70" width="7" height="9" y="44" style="stroke:none;"
      /><path d="M71 49.5156 L73.9531 45.2656 L73.9531 49.5156 L71 49.5156 ZM76.2812 49.5156 L74.8594 49.5156 L74.8594 44.125 L74.2344 44.125 L70.3438 49.6406 L70.3438 50.1875 L73.9531 50.1875 L73.9531 53 L74.8594 53 L74.8594 50.1875 L76.2812 50.1875 L76.2812 49.5156 Z" style="fill:black; stroke:none;"
      /><rect x="56" width="8" height="8" y="45" style="stroke:none;"
      /><path d="M60.9844 50.7031 C60.9375 51.8906 60.1562 52.6562 59.3125 52.6562 C58.2656 52.6562 57.5 51.6875 57.5 49.7188 C57.5 48.2812 58.1562 47.1562 59.3438 47.1562 C60.1406 47.1562 60.7812 47.6875 61.0938 48.6406 L60.9844 50.7031 ZM62.9062 52.2812 C62.7344 52.375 62.5469 52.4219 62.3438 52.4219 C61.9531 52.4219 61.75 52.2188 61.75 51.4219 C61.75 50.4844 61.9688 48.5312 62.1875 46.8281 L62.0312 46.7188 L61.2344 46.9219 L61.1406 47.7969 C60.7812 47.0312 60.1562 46.6562 59.3906 46.6562 C58.0469 46.6562 56.5625 47.8438 56.5625 49.9531 C56.5625 52.0938 57.7188 53.1719 59.1406 53.1719 C60.0156 53.1719 60.6875 52.8125 61.0938 51.9844 C61.2031 52.8594 61.5156 53.1719 62.0156 53.1719 C62.4688 53.1719 62.7969 52.9062 63.0156 52.5625 L62.9062 52.2812 Z" style="fill:black; stroke:none;"
      /><rect x="127" width="6" height="10" y="101" style="stroke:none;"
      /><path d="M129.2344 102.6562 C129.5156 102.5938 129.7656 102.5625 130.0156 102.5625 C131.0625 102.5625 131.6719 103.1719 131.6719 104.2656 C131.6719 105.4375 130.9062 106.1094 129.7031 106.1094 L129.1875 106.1094 L129.1875 106.6406 L129.7969 106.6406 C131.2188 106.6406 131.9062 107.4219 131.9062 108.6406 C131.9062 109.8438 131.1719 110.6875 129.875 110.6875 C129.6094 110.6875 129.3125 110.6562 129.0156 110.5625 L128.7812 109.8125 C128.625 109.2812 128.5 109.0469 128.1406 109.0469 C127.8906 109.0469 127.7031 109.1719 127.5781 109.4219 C127.8438 110.6406 128.7812 111.1719 130.0312 111.1719 C131.7188 111.1719 132.875 110.125 132.875 108.7031 C132.875 107.5 132.2031 106.625 130.7969 106.375 C131.9531 106.0156 132.6094 105.2031 132.6094 104.2031 C132.6094 102.9219 131.6719 102.0781 130.1875 102.0781 C129.0469 102.0781 128.0625 102.5938 127.7969 103.6875 C127.9062 104 128.1094 104.1094 128.3594 104.1094 C128.7344 104.1094 128.8906 103.8906 129 103.4062 L129.2344 102.6562 Z" style="fill:black; stroke:none;"
      /><rect x="119" width="7" height="9" y="75" style="stroke:none;"
      /><path d="M120 80.5156 L122.9531 76.2656 L122.9531 80.5156 L120 80.5156 ZM125.2812 80.5156 L123.8594 80.5156 L123.8594 75.125 L123.2344 75.125 L119.3438 80.6406 L119.3438 81.1875 L122.9531 81.1875 L122.9531 84 L123.8594 84 L123.8594 81.1875 L125.2812 81.1875 L125.2812 80.5156 Z" style="fill:black; stroke:none;"
      /><rect x="101" width="6" height="13" y="56" style="stroke:none;"
      /><path d="M103.0938 62.2031 C103.0938 60.6562 103.75 59.8125 104.7969 59.8125 C105.7188 59.8125 106.2656 60.4531 106.2656 61.5156 C106.2656 62.7188 105.5 63.4375 104.1875 63.7031 L104.2969 64.3125 C106.2188 64.2344 106.9375 65.2188 106.9375 66.4375 C106.9375 67.625 106.2344 68.4219 104.9531 68.4219 C104.25 68.4219 103.6562 68.1562 103.0938 67.7188 L103.0938 62.2031 ZM102.2031 68.9062 L102.1094 71.375 L102.2656 71.4844 L103.1562 71.2656 L103.0156 68.0938 C103.5469 68.8438 104.3594 69.1719 105.1719 69.1719 C106.5625 69.1719 107.8594 68.2188 107.8594 66.4844 C107.8594 64.9531 106.875 64.1094 105.125 64 C106.5625 63.6094 107.1875 62.4531 107.1875 61.4844 C107.1875 60.0938 106.1562 59.3125 104.9062 59.3125 C103.2969 59.3125 102.2188 60.5469 102.2188 62.5156 L102.2031 68.9062 Z" style="fill:black; stroke:none;"
      /><rect x="174" width="7" height="9" y="93" style="stroke:none;"
      /><path d="M175 98.5156 L177.9531 94.2656 L177.9531 98.5156 L175 98.5156 ZM180.2812 98.5156 L178.8594 98.5156 L178.8594 93.125 L178.2344 93.125 L174.3438 98.6406 L174.3438 99.1875 L177.9531 99.1875 L177.9531 102 L178.8594 102 L178.8594 99.1875 L180.2812 99.1875 L180.2812 98.5156 Z" style="fill:black; stroke:none;"
      /><rect x="160" width="8" height="8" y="94" style="stroke:none;"
      /><path d="M164.9844 99.7031 C164.9375 100.8906 164.1562 101.6562 163.3125 101.6562 C162.2656 101.6562 161.5 100.6875 161.5 98.7188 C161.5 97.2812 162.1562 96.1562 163.3438 96.1562 C164.1406 96.1562 164.7812 96.6875 165.0938 97.6406 L164.9844 99.7031 ZM166.9062 101.2812 C166.7344 101.375 166.5469 101.4219 166.3438 101.4219 C165.9531 101.4219 165.75 101.2188 165.75 100.4219 C165.75 99.4844 165.9688 97.5312 166.1875 95.8281 L166.0312 95.7188 L165.2344 95.9219 L165.1406 96.7969 C164.7812 96.0312 164.1562 95.6562 163.3906 95.6562 C162.0469 95.6562 160.5625 96.8438 160.5625 98.9531 C160.5625 101.0938 161.7188 102.1719 163.1406 102.1719 C164.0156 102.1719 164.6875 101.8125 165.0938 100.9844 C165.2031 101.8594 165.5156 102.1719 166.0156 102.1719 C166.4688 102.1719 166.7969 101.9062 167.0156 101.5625 L166.9062 101.2812 Z" style="fill:black; stroke:none;"
      /><rect x="227" width="6" height="10" y="93" style="stroke:none;"
      /><path d="M229.2344 94.6562 C229.5156 94.5938 229.7656 94.5625 230.0156 94.5625 C231.0625 94.5625 231.6719 95.1719 231.6719 96.2656 C231.6719 97.4375 230.9062 98.1094 229.7031 98.1094 L229.1875 98.1094 L229.1875 98.6406 L229.7969 98.6406 C231.2188 98.6406 231.9062 99.4219 231.9062 100.6406 C231.9062 101.8438 231.1719 102.6875 229.875 102.6875 C229.6094 102.6875 229.3125 102.6562 229.0156 102.5625 L228.7812 101.8125 C228.625 101.2812 228.5 101.0469 228.1406 101.0469 C227.8906 101.0469 227.7031 101.1719 227.5781 101.4219 C227.8438 102.6406 228.7812 103.1719 230.0312 103.1719 C231.7188 103.1719 232.875 102.125 232.875 100.7031 C232.875 99.5 232.2031 98.625 230.7969 98.375 C231.9531 98.0156 232.6094 97.2031 232.6094 96.2031 C232.6094 94.9219 231.6719 94.0781 230.1875 94.0781 C229.0469 94.0781 228.0625 94.5938 227.7969 95.6875 C227.9062 96 228.1094 96.1094 228.3594 96.1094 C228.7344 96.1094 228.8906 95.8906 229 95.4062 L229.2344 94.6562 Z" style="fill:black; stroke:none;"
      /><rect x="213" width="6" height="13" y="91" style="stroke:none;"
      /><path d="M215.0938 97.2031 C215.0938 95.6562 215.75 94.8125 216.7969 94.8125 C217.7188 94.8125 218.2656 95.4531 218.2656 96.5156 C218.2656 97.7188 217.5 98.4375 216.1875 98.7031 L216.2969 99.3125 C218.2188 99.2344 218.9375 100.2188 218.9375 101.4375 C218.9375 102.625 218.2344 103.4219 216.9531 103.4219 C216.25 103.4219 215.6562 103.1562 215.0938 102.7188 L215.0938 97.2031 ZM214.2031 103.9062 L214.1094 106.375 L214.2656 106.4844 L215.1562 106.2656 L215.0156 103.0938 C215.5469 103.8438 216.3594 104.1719 217.1719 104.1719 C218.5625 104.1719 219.8594 103.2188 219.8594 101.4844 C219.8594 99.9531 218.875 99.1094 217.125 99 C218.5625 98.6094 219.1875 97.4531 219.1875 96.4844 C219.1875 95.0938 218.1562 94.3125 216.9062 94.3125 C215.2969 94.3125 214.2188 95.5469 214.2188 97.5156 L214.2031 103.9062 Z" style="fill:black; stroke:none;"
      /><rect x="265" width="6" height="13" y="91" style="stroke:none;"
      /><path d="M267.0938 97.2031 C267.0938 95.6562 267.75 94.8125 268.7969 94.8125 C269.7188 94.8125 270.2656 95.4531 270.2656 96.5156 C270.2656 97.7188 269.5 98.4375 268.1875 98.7031 L268.2969 99.3125 C270.2188 99.2344 270.9375 100.2188 270.9375 101.4375 C270.9375 102.625 270.2344 103.4219 268.9531 103.4219 C268.25 103.4219 267.6562 103.1562 267.0938 102.7188 L267.0938 97.2031 ZM266.2031 103.9062 L266.1094 106.375 L266.2656 106.4844 L267.1562 106.2656 L267.0156 103.0938 C267.5469 103.8438 268.3594 104.1719 269.1719 104.1719 C270.5625 104.1719 271.8594 103.2188 271.8594 101.4844 C271.8594 99.9531 270.875 99.1094 269.125 99 C270.5625 98.6094 271.1875 97.4531 271.1875 96.4844 C271.1875 95.0938 270.1562 94.3125 268.9062 94.3125 C267.2969 94.3125 266.2188 95.5469 266.2188 97.5156 L266.2031 103.9062 Z" style="fill:black; stroke:none;"
    /></g
  ></g
></svg
>
