<?xml version="1.0"?>
<!DOCTYPE svg PUBLIC '-//W3C//DTD SVG 1.0//EN'
          'http://www.w3.org/TR/2001/REC-SVG-20010904/DTD/svg10.dtd'>
<svg xmlns:xlink="http://www.w3.org/1999/xlink" style="fill-opacity:1; color-rendering:auto; color-interpolation:auto; text-rendering:auto; stroke:black; stroke-linecap:square; stroke-miterlimit:10; shape-rendering:auto; stroke-opacity:1; fill:black; stroke-dasharray:none; font-weight:normal; stroke-width:1; font-family:'Dialog'; font-style:normal; stroke-linejoin:miter; font-size:12px; stroke-dashoffset:0; image-rendering:auto;" viewBox="0 0 394 186" xmlns="http://www.w3.org/2000/svg"
><!--Generated by the Batik Graphics2D SVG Generator--><defs id="genericDefs"
  /><g
  ><defs id="defs1"
    ><clipPath clipPathUnits="userSpaceOnUse" id="clipPath1"
      ><path d="M290 69 L312 69 L312 91 L290 91 L290 69 Z"
      /></clipPath
      ><clipPath clipPathUnits="userSpaceOnUse" id="clipPath2"
      ><path d="M238 69 L260 69 L260 91 L238 91 L238 69 Z"
      /></clipPath
      ><clipPath clipPathUnits="userSpaceOnUse" id="clipPath3"
      ><path d="M208 80 C208 86.0751 203.0751 91 197 91 C190.9249 91 186 86.0751 186 80 C186 73.9249 190.9249 69 197 69 C203.0751 69 208 73.9249 208 80 Z"
      /></clipPath
      ><clipPath clipPathUnits="userSpaceOnUse" id="clipPath4"
      ><path d="M156 119 C156 125.0751 151.0751 130 145 130 C138.9249 130 134 125.0751 134 119 C134 112.9249 138.9249 108 145 108 C151.0751 108 156 112.9249 156 119 Z"
      /></clipPath
      ><clipPath clipPathUnits="userSpaceOnUse" id="clipPath5"
      ><path d="M82 134 L104 134 L104 156 L82 156 L82 134 Z"
      /></clipPath
      ><clipPath clipPathUnits="userSpaceOnUse" id="clipPath6"
      ><path d="M82 82 L104 82 L104 104 L82 104 L82 82 Z"
      /></clipPath
      ><clipPath clipPathUnits="userSpaceOnUse" id="clipPath7"
      ><path d="M156 41 C156 47.0751 151.0751 52 145 52 C138.9249 52 134 47.0751 134 41 C134 34.9249 138.9249 30 145 30 C151.0751 30 156 34.9249 156 41 Z"
      /></clipPath
      ><clipPath clipPathUnits="userSpaceOnUse" id="clipPath8"
      ><path d="M82 30 L104 30 L104 52 L82 52 L82 30 Z"
      /></clipPath
      ><clipPath clipPathUnits="userSpaceOnUse" id="clipPath9"
      ><path d="M52 41 C52 47.0751 47.0751 52 41 52 C34.9249 52 30 47.0751 30 41 C30 34.9249 34.9249 30 41 30 C47.0751 30 52 34.9249 52 41 Z"
      /></clipPath
    ></defs
    ><g style="fill:white; text-rendering:optimizeSpeed; stroke:white;"
    ><rect x="0" width="394" height="186" y="0" style="stroke:none;"
      /><polygon style="fill:none; stroke:black;" points=" 353 80 301 80"
      /><path d="M353 69 C347.5 74.5 358.5 85.5 353 91" style="fill:none; stroke:black;"
      /><polygon style="fill:none; stroke:black;" points=" 301 80 249 80"
      /><rect x="290" y="69" width="22" style="clip-path:url(#clipPath1); stroke:none;" height="22"
      /><rect x="290" y="69" width="22" style="clip-path:url(#clipPath1); fill:rgb(0,144,188); stroke:none;" height="22"
      /><rect x="290" y="69" width="22" style="clip-path:url(#clipPath1); fill:none; stroke:black;" height="22"
      /><rect x="290" y="69" width="22" style="fill:none; stroke:black;" height="22"
      /><polygon style="fill:none; stroke:black;" points=" 249 80 197 80"
      /><rect x="238" y="69" width="22" style="clip-path:url(#clipPath2); stroke:none;" height="22"
      /><rect x="238" y="69" width="22" style="clip-path:url(#clipPath2); fill:rgb(0,144,188); stroke:none;" height="22"
      /><rect x="238" y="69" width="22" style="clip-path:url(#clipPath2); fill:none; stroke:black;" height="22"
      /><rect x="238" y="69" width="22" style="fill:none; stroke:black;" height="22"
      /><polygon style="fill:none; stroke:black;" points=" 197 80 145 119"
      /><polygon style="fill:none; stroke:black;" points=" 197 80 145 41"
      /><circle style="clip-path:url(#clipPath3); stroke:none;" r="11" cx="197" cy="80"
      /><rect x="186" y="69" width="22" style="clip-path:url(#clipPath3); fill:rgb(0,166,81); stroke:none;" height="22"
      /><rect x="186" y="69" width="22" style="clip-path:url(#clipPath3); fill:none; stroke:black;" height="22"
      /><circle style="fill:none; stroke:black;" r="11" cx="197" cy="80"
      /><polygon style="fill:none; stroke:black;" points=" 145 119 93 145"
      /><polygon style="fill:none; stroke:black;" points=" 145 119 93 93"
      /><circle style="clip-path:url(#clipPath4); stroke:none;" r="11" cx="145" cy="119"
      /><rect x="134" y="108" width="22" style="clip-path:url(#clipPath4); fill:rgb(0,166,81); stroke:none;" height="22"
      /><rect x="134" y="108" width="22" style="clip-path:url(#clipPath4); fill:none; stroke:black;" height="22"
      /><circle style="fill:none; stroke:black;" r="11" cx="145" cy="119"
      /><rect x="82" y="134" width="22" style="clip-path:url(#clipPath5); stroke:none;" height="22"
      /><rect x="82" y="134" width="22" style="clip-path:url(#clipPath5); fill:rgb(0,144,188); stroke:none;" height="22"
      /><rect x="82" y="134" width="22" style="clip-path:url(#clipPath5); fill:none; stroke:black;" height="22"
      /><rect x="82" y="134" width="22" style="fill:none; stroke:black;" height="22"
      /><rect x="82" y="82" width="22" style="clip-path:url(#clipPath6); stroke:none;" height="22"
      /><rect x="82" y="82" width="22" style="clip-path:url(#clipPath6); fill:rgb(0,144,188); stroke:none;" height="22"
      /><rect x="82" y="82" width="22" style="clip-path:url(#clipPath6); fill:none; stroke:black;" height="22"
      /><rect x="82" y="82" width="22" style="fill:none; stroke:black;" height="22"
      /><rect x="127" y="130" width="6" style="stroke:none;" height="9"
    /></g
    ><g style="font-family:'Serif'; text-rendering:optimizeSpeed; "
    ><path style="stroke:none;" d="M128.4219 138.0938 C129.0781 137.375 129.7031 136.7188 130.0312 136.3438 C131.9219 134.3125 132.5312 133.4688 132.5312 132.3594 C132.5312 131.0156 131.7812 130.0781 130.1562 130.0781 C128.9062 130.0781 127.7969 130.7031 127.5938 131.9688 C127.7188 132.2031 127.9062 132.3438 128.1562 132.3438 C128.4688 132.3438 128.6562 132.1094 128.7969 131.5938 L129.0938 130.6719 C129.3906 130.5938 129.6562 130.5625 129.8906 130.5625 C130.9219 130.5625 131.5469 131.3125 131.5469 132.4219 C131.5469 133.4375 130.9844 134.4219 129.7031 135.9062 C129.125 136.5781 128.3906 137.4375 127.6406 138.2812 L127.6406 139 L132.9219 139 L132.9219 138.0938 L128.4219 138.0938 Z"
      /><rect x="111" y="136" width="6" style="fill:white; stroke:none;" height="13"
      /><path style="stroke:none;" d="M113.0938 142.2031 C113.0938 140.6562 113.75 139.8125 114.7969 139.8125 C115.7188 139.8125 116.2656 140.4531 116.2656 141.5156 C116.2656 142.7188 115.5 143.4375 114.1875 143.7031 L114.2969 144.3125 C116.2188 144.2344 116.9375 145.2188 116.9375 146.4375 C116.9375 147.625 116.2344 148.4219 114.9531 148.4219 C114.25 148.4219 113.6562 148.1562 113.0938 147.7188 L113.0938 142.2031 ZM112.2031 148.9062 L112.1094 151.375 L112.2656 151.4844 L113.1562 151.2656 L113.0156 148.0938 C113.5469 148.8438 114.3594 149.1719 115.1719 149.1719 C116.5625 149.1719 117.8594 148.2188 117.8594 146.4844 C117.8594 144.9531 116.875 144.1094 115.125 144 C116.5625 143.6094 117.1875 142.4531 117.1875 141.4844 C117.1875 140.0938 116.1562 139.3125 114.9062 139.3125 C113.2969 139.3125 112.2188 140.5469 112.2188 142.5156 L112.2031 148.9062 Z"
      /><rect x="119" y="112" width="7" style="fill:white; stroke:none;" height="9"
      /><path style="stroke:none;" d="M120 117.5156 L122.9531 113.2656 L122.9531 117.5156 L120 117.5156 ZM125.2812 117.5156 L123.8594 117.5156 L123.8594 112.125 L123.2344 112.125 L119.3438 117.6406 L119.3438 118.1875 L122.9531 118.1875 L122.9531 121 L123.8594 121 L123.8594 118.1875 L125.2812 118.1875 L125.2812 117.5156 Z"
      /><rect x="104" y="102" width="6" style="fill:white; stroke:none;" height="13"
      /><path style="stroke:none;" d="M106.0938 108.2031 C106.0938 106.6562 106.75 105.8125 107.7969 105.8125 C108.7188 105.8125 109.2656 106.4531 109.2656 107.5156 C109.2656 108.7188 108.5 109.4375 107.1875 109.7031 L107.2969 110.3125 C109.2188 110.2344 109.9375 111.2188 109.9375 112.4375 C109.9375 113.625 109.2344 114.4219 107.9531 114.4219 C107.25 114.4219 106.6562 114.1562 106.0938 113.7188 L106.0938 108.2031 ZM105.2031 114.9062 L105.1094 117.375 L105.2656 117.4844 L106.1562 117.2656 L106.0156 114.0938 C106.5469 114.8438 107.3594 115.1719 108.1719 115.1719 C109.5625 115.1719 110.8594 114.2188 110.8594 112.4844 C110.8594 110.9531 109.875 110.1094 108.125 110 C109.5625 109.6094 110.1875 108.4531 110.1875 107.4844 C110.1875 106.0938 109.1562 105.3125 107.9062 105.3125 C106.2969 105.3125 105.2188 106.5469 105.2188 108.5156 L105.2031 114.9062 Z"
      /><polygon style="fill:none;" points=" 145 41 93 41"
      /><circle style="fill:white; clip-path:url(#clipPath7); stroke:none;" r="11" cx="145" cy="41"
      /><rect x="134" y="30" width="22" style="clip-path:url(#clipPath7); fill:rgb(0,166,81); stroke:none;" height="22"
      /><rect x="134" y="30" width="22" style="fill:none; clip-path:url(#clipPath7);" height="22"
      /><circle r="11" style="fill:none;" cx="145" cy="41"
      /><polygon style="fill:none;" points=" 93 41 41 41"
      /><rect x="82" y="30" width="22" style="clip-path:url(#clipPath8); fill:white; stroke:none;" height="22"
      /><rect x="82" y="30" width="22" style="clip-path:url(#clipPath8); fill:rgb(0,144,188); stroke:none;" height="22"
      /><rect x="82" y="30" width="22" style="fill:none; clip-path:url(#clipPath8);" height="22"
      /><rect x="82" width="22" height="22" y="30" style="fill:none;"
      /><circle style="fill:white; clip-path:url(#clipPath9); stroke:none;" r="11" cx="41" cy="41"
      /><rect x="30" y="30" width="22" style="clip-path:url(#clipPath9); fill:rgb(255,212,0); stroke:none;" height="22"
      /><rect x="30" y="30" width="22" style="fill:none; clip-path:url(#clipPath9);" height="22"
      /><circle r="11" style="fill:none;" cx="41" cy="41"
      /><rect x="70" y="44" width="7" style="fill:white; stroke:none;" height="9"
      /><path style="stroke:none;" d="M71 49.5156 L73.9531 45.2656 L73.9531 49.5156 L71 49.5156 ZM76.2812 49.5156 L74.8594 49.5156 L74.8594 44.125 L74.2344 44.125 L70.3438 49.6406 L70.3438 50.1875 L73.9531 50.1875 L73.9531 53 L74.8594 53 L74.8594 50.1875 L76.2812 50.1875 L76.2812 49.5156 Z"
      /><rect x="57" y="42" width="6" style="fill:white; stroke:none;" height="13"
      /><path style="stroke:none;" d="M59.0938 48.2031 C59.0938 46.6562 59.75 45.8125 60.7969 45.8125 C61.7188 45.8125 62.2656 46.4531 62.2656 47.5156 C62.2656 48.7188 61.5 49.4375 60.1875 49.7031 L60.2969 50.3125 C62.2188 50.2344 62.9375 51.2188 62.9375 52.4375 C62.9375 53.625 62.2344 54.4219 60.9531 54.4219 C60.25 54.4219 59.6562 54.1562 59.0938 53.7188 L59.0938 48.2031 ZM58.2031 54.9062 L58.1094 57.375 L58.2656 57.4844 L59.1562 57.2656 L59.0156 54.0938 C59.5469 54.8438 60.3594 55.1719 61.1719 55.1719 C62.5625 55.1719 63.8594 54.2188 63.8594 52.4844 C63.8594 50.9531 62.875 50.1094 61.125 50 C62.5625 49.6094 63.1875 48.4531 63.1875 47.4844 C63.1875 46.0938 62.1562 45.3125 60.9062 45.3125 C59.2969 45.3125 58.2188 46.5469 58.2188 48.5156 L58.2031 54.9062 Z"
      /><rect x="123" y="44" width="6" style="fill:white; stroke:none;" height="9"
      /><path style="stroke:none;" d="M124.4219 52.0938 C125.0781 51.375 125.7031 50.7188 126.0312 50.3438 C127.9219 48.3125 128.5312 47.4688 128.5312 46.3594 C128.5312 45.0156 127.7812 44.0781 126.1562 44.0781 C124.9062 44.0781 123.7969 44.7031 123.5938 45.9688 C123.7188 46.2031 123.9062 46.3438 124.1562 46.3438 C124.4688 46.3438 124.6562 46.1094 124.7969 45.5938 L125.0938 44.6719 C125.3906 44.5938 125.6562 44.5625 125.8906 44.5625 C126.9219 44.5625 127.5469 45.3125 127.5469 46.4219 C127.5469 47.4375 126.9844 48.4219 125.7031 49.9062 C125.125 50.5781 124.3906 51.4375 123.6406 52.2812 L123.6406 53 L128.9219 53 L128.9219 52.0938 L124.4219 52.0938 Z"
      /><rect x="109" y="42" width="6" style="fill:white; stroke:none;" height="13"
      /><path style="stroke:none;" d="M111.0938 48.2031 C111.0938 46.6562 111.75 45.8125 112.7969 45.8125 C113.7188 45.8125 114.2656 46.4531 114.2656 47.5156 C114.2656 48.7188 113.5 49.4375 112.1875 49.7031 L112.2969 50.3125 C114.2188 50.2344 114.9375 51.2188 114.9375 52.4375 C114.9375 53.625 114.2344 54.4219 112.9531 54.4219 C112.25 54.4219 111.6562 54.1562 111.0938 53.7188 L111.0938 48.2031 ZM110.2031 54.9062 L110.1094 57.375 L110.2656 57.4844 L111.1562 57.2656 L111.0156 54.0938 C111.5469 54.8438 112.3594 55.1719 113.1719 55.1719 C114.5625 55.1719 115.8594 54.2188 115.8594 52.4844 C115.8594 50.9531 114.875 50.1094 113.125 50 C114.5625 49.6094 115.1875 48.4531 115.1875 47.4844 C115.1875 46.0938 114.1562 45.3125 112.9062 45.3125 C111.2969 45.3125 110.2188 46.5469 110.2188 48.5156 L110.2031 54.9062 Z"
      /><rect x="181" y="94" width="6" style="fill:white; stroke:none;" height="10"
      /><path style="stroke:none;" d="M183.2344 95.6562 C183.5156 95.5938 183.7656 95.5625 184.0156 95.5625 C185.0625 95.5625 185.6719 96.1719 185.6719 97.2656 C185.6719 98.4375 184.9062 99.1094 183.7031 99.1094 L183.1875 99.1094 L183.1875 99.6406 L183.7969 99.6406 C185.2188 99.6406 185.9062 100.4219 185.9062 101.6406 C185.9062 102.8438 185.1719 103.6875 183.875 103.6875 C183.6094 103.6875 183.3125 103.6562 183.0156 103.5625 L182.7812 102.8125 C182.625 102.2812 182.5 102.0469 182.1406 102.0469 C181.8906 102.0469 181.7031 102.1719 181.5781 102.4219 C181.8438 103.6406 182.7812 104.1719 184.0312 104.1719 C185.7188 104.1719 186.875 103.125 186.875 101.7031 C186.875 100.5 186.2031 99.625 184.7969 99.375 C185.9531 99.0156 186.6094 98.2031 186.6094 97.2031 C186.6094 95.9219 185.6719 95.0781 184.1875 95.0781 C183.0469 95.0781 182.0625 95.5938 181.7969 96.6875 C181.9062 97 182.1094 97.1094 182.3594 97.1094 C182.7344 97.1094 182.8906 96.8906 183 96.4062 L183.2344 95.6562 Z"
      /><rect x="163" y="108" width="8" style="fill:white; stroke:none;" height="8"
      /><path style="stroke:none;" d="M167.9844 113.7031 C167.9375 114.8906 167.1562 115.6562 166.3125 115.6562 C165.2656 115.6562 164.5 114.6875 164.5 112.7188 C164.5 111.2812 165.1562 110.1562 166.3438 110.1562 C167.1406 110.1562 167.7812 110.6875 168.0938 111.6406 L167.9844 113.7031 ZM169.9062 115.2812 C169.7344 115.375 169.5469 115.4219 169.3438 115.4219 C168.9531 115.4219 168.75 115.2188 168.75 114.4219 C168.75 113.4844 168.9688 111.5312 169.1875 109.8281 L169.0312 109.7188 L168.2344 109.9219 L168.1406 110.7969 C167.7812 110.0312 167.1562 109.6562 166.3906 109.6562 C165.0469 109.6562 163.5625 110.8438 163.5625 112.9531 C163.5625 115.0938 164.7188 116.1719 166.1406 116.1719 C167.0156 116.1719 167.6875 115.8125 168.0938 114.9844 C168.2031 115.8594 168.5156 116.1719 169.0156 116.1719 C169.4688 116.1719 169.7969 115.9062 170.0156 115.5625 L169.9062 115.2812 Z"
      /><rect x="171" y="68" width="6" style="fill:white; stroke:none;" height="10"
      /><path style="stroke:none;" d="M174.3438 77.6875 C173.2031 77.6875 172.5312 76.5 172.5312 74.2969 C172.5312 74.2188 172.5312 74.125 172.5312 74.0469 C173.0938 73.5 173.7188 73.3125 174.3438 73.3125 C175.3125 73.3125 175.9531 73.9844 175.9531 75.4531 C175.9531 76.9375 175.3125 77.6875 174.3438 77.6875 ZM176.5312 69.0781 C173.3438 69.4531 171.5625 71.7656 171.5625 74.4531 C171.5625 76.7812 172.6094 78.1719 174.3125 78.1719 C175.8438 78.1719 176.9219 77.1094 176.9219 75.2812 C176.9219 73.6875 175.9688 72.6562 174.5625 72.6562 C173.8281 72.6562 173.1406 72.9844 172.5781 73.5781 C172.7969 71.4062 174.0781 69.9688 176.5938 69.3906 L176.5312 69.0781 Z"
      /><rect x="153" y="56" width="8" style="fill:white; stroke:none;" height="8"
      /><path style="stroke:none;" d="M157.9844 61.7031 C157.9375 62.8906 157.1562 63.6562 156.3125 63.6562 C155.2656 63.6562 154.5 62.6875 154.5 60.7188 C154.5 59.2812 155.1562 58.1562 156.3438 58.1562 C157.1406 58.1562 157.7812 58.6875 158.0938 59.6406 L157.9844 61.7031 ZM159.9062 63.2812 C159.7344 63.375 159.5469 63.4219 159.3438 63.4219 C158.9531 63.4219 158.75 63.2188 158.75 62.4219 C158.75 61.4844 158.9688 59.5312 159.1875 57.8281 L159.0312 57.7188 L158.2344 57.9219 L158.1406 58.7969 C157.7812 58.0312 157.1562 57.6562 156.3906 57.6562 C155.0469 57.6562 153.5625 58.8438 153.5625 60.9531 C153.5625 63.0938 154.7188 64.1719 156.1406 64.1719 C157.0156 64.1719 157.6875 63.8125 158.0938 62.9844 C158.2031 63.8594 158.5156 64.1719 159.0156 64.1719 C159.4688 64.1719 159.7969 63.9062 160.0156 63.5625 L159.9062 63.2812 Z"
      /><rect x="226" y="83" width="7" style="fill:white; stroke:none;" height="9"
      /><path style="stroke:none;" d="M227 88.5156 L229.9531 84.2656 L229.9531 88.5156 L227 88.5156 ZM232.2812 88.5156 L230.8594 88.5156 L230.8594 83.125 L230.2344 83.125 L226.3438 88.6406 L226.3438 89.1875 L229.9531 89.1875 L229.9531 92 L230.8594 92 L230.8594 89.1875 L232.2812 89.1875 L232.2812 88.5156 Z"
      /><rect x="213" y="81" width="6" style="fill:white; stroke:none;" height="13"
      /><path style="stroke:none;" d="M215.0938 87.2031 C215.0938 85.6562 215.75 84.8125 216.7969 84.8125 C217.7188 84.8125 218.2656 85.4531 218.2656 86.5156 C218.2656 87.7188 217.5 88.4375 216.1875 88.7031 L216.2969 89.3125 C218.2188 89.2344 218.9375 90.2188 218.9375 91.4375 C218.9375 92.625 218.2344 93.4219 216.9531 93.4219 C216.25 93.4219 215.6562 93.1562 215.0938 92.7188 L215.0938 87.2031 ZM214.2031 93.9062 L214.1094 96.375 L214.2656 96.4844 L215.1562 96.2656 L215.0156 93.0938 C215.5469 93.8438 216.3594 94.1719 217.1719 94.1719 C218.5625 94.1719 219.8594 93.2188 219.8594 91.4844 C219.8594 89.9531 218.875 89.1094 217.125 89 C218.5625 88.6094 219.1875 87.4531 219.1875 86.4844 C219.1875 85.0938 218.1562 84.3125 216.9062 84.3125 C215.2969 84.3125 214.2188 85.5469 214.2188 87.5156 L214.2031 93.9062 Z"
      /><rect x="278" y="83" width="7" style="fill:white; stroke:none;" height="9"
      /><path style="stroke:none;" d="M279 88.5156 L281.9531 84.2656 L281.9531 88.5156 L279 88.5156 ZM284.2812 88.5156 L282.8594 88.5156 L282.8594 83.125 L282.2344 83.125 L278.3438 88.6406 L278.3438 89.1875 L281.9531 89.1875 L281.9531 92 L282.8594 92 L282.8594 89.1875 L284.2812 89.1875 L284.2812 88.5156 Z"
      /><rect x="265" y="81" width="6" style="fill:white; stroke:none;" height="13"
      /><path style="stroke:none;" d="M267.0938 87.2031 C267.0938 85.6562 267.75 84.8125 268.7969 84.8125 C269.7188 84.8125 270.2656 85.4531 270.2656 86.5156 C270.2656 87.7188 269.5 88.4375 268.1875 88.7031 L268.2969 89.3125 C270.2188 89.2344 270.9375 90.2188 270.9375 91.4375 C270.9375 92.625 270.2344 93.4219 268.9531 93.4219 C268.25 93.4219 267.6562 93.1562 267.0938 92.7188 L267.0938 87.2031 ZM266.2031 93.9062 L266.1094 96.375 L266.2656 96.4844 L267.1562 96.2656 L267.0156 93.0938 C267.5469 93.8438 268.3594 94.1719 269.1719 94.1719 C270.5625 94.1719 271.8594 93.2188 271.8594 91.4844 C271.8594 89.9531 270.875 89.1094 269.125 89 C270.5625 88.6094 271.1875 87.4531 271.1875 86.4844 C271.1875 85.0938 270.1562 84.3125 268.9062 84.3125 C267.2969 84.3125 266.2188 85.5469 266.2188 87.5156 L266.2031 93.9062 Z"
      /><rect x="317" y="83" width="5" style="fill:white; stroke:none;" height="10"
      /><path style="stroke:none;" d="M318.8906 91.6875 C318.4844 91.6875 318.1562 92.0469 318.1562 92.4219 C318.1562 92.8125 318.4844 93.1562 318.8906 93.1562 C319.2969 93.1562 319.6406 92.8125 319.6406 92.4219 C319.6406 92.0469 319.2969 91.6875 318.8906 91.6875 ZM320.4688 85.5781 C320.7188 85.8906 320.875 86.2656 320.8906 86.6562 C320.8906 87.1875 320.625 87.5 320.0312 87.7656 L319.4062 88.0156 C318.6406 88.3125 318.3906 88.5469 318.3906 88.9375 C318.3906 89.1094 318.4531 89.3438 318.5781 89.8125 L318.7344 90.3438 L319.1094 90.3438 L319.0938 89.5312 C319.0938 89.0938 319.2031 88.9688 319.7812 88.7344 L320.2031 88.5625 C321.0312 88.2188 321.4531 87.6875 321.4531 86.8438 C321.4531 85.1562 319.6562 84.1875 318.5 84.0312 C318.1094 84.125 317.9062 84.2969 317.9062 84.6406 C317.9062 84.9375 318.0625 85.1562 318.7188 85.2656 L320.4688 85.5781 Z"
    /></g
  ></g
></svg
>
