<?xml version="1.0"?>
<!DOCTYPE svg PUBLIC '-//W3C//DTD SVG 1.0//EN'
          'http://www.w3.org/TR/2001/REC-SVG-20010904/DTD/svg10.dtd'>
<svg xmlns:xlink="http://www.w3.org/1999/xlink" style="fill-opacity:1; color-rendering:auto; color-interpolation:auto; text-rendering:auto; stroke:black; stroke-linecap:square; stroke-miterlimit:10; shape-rendering:auto; stroke-opacity:1; fill:black; stroke-dasharray:none; font-weight:normal; stroke-width:1; font-family:'Dialog'; font-style:normal; stroke-linejoin:miter; font-size:12px; stroke-dashoffset:0; image-rendering:auto;" viewBox="0 0 134 143" xmlns="http://www.w3.org/2000/svg"
><!--Generated by the Batik Graphics2D SVG Generator--><defs id="genericDefs"
  /><g
  ><defs id="defs1"
    ><clipPath clipPathUnits="userSpaceOnUse" id="clipPath1"
      ><path style="fill-rule:evenodd;" d="M41 53 L51 60 L47 72 L34 72 L30 60 L41 53 Z"
      /></clipPath
    ></defs
    ><g style="fill:white; text-rendering:optimizeSpeed; stroke:white;"
    ><rect x="0" width="134" height="143" y="0" style="stroke:none;"
      /><polygon style="fill:none; stroke:black;" points=" 93 64 41 64"
      /><path d="M93 53 C87.5 58.5 98.5 69.5 93 75" style="fill:none; stroke:black;"
      /><polygon style="clip-path:url(#clipPath1); stroke:none;" points=" 41 53 51 60 47 72 34 72 30 60 41 53"
      /><rect x="30" y="53" width="22" style="clip-path:url(#clipPath1); stroke:none;" height="22"
      /><rect x="30" y="53" width="22" style="clip-path:url(#clipPath1); fill:none; stroke:black;" height="22"
      /><polygon style="fill:none; stroke:black;" points=" 41 53 51 60 47 72 34 72 30 60 41 53"
    /></g
    ><g style="text-rendering:optimizeSpeed; font-size:14px; font-family:'SansSerif';"
    ><path style="stroke:none;" d="M39.2344 69 L44.8594 69 L44.8594 67.9375 L42.7969 67.9375 L42.7969 58.7188 L41.8281 58.7188 C41.2656 59.0625 40.6094 59.2969 39.6875 59.4688 L39.6875 60.2812 L41.5156 60.2812 L41.5156 67.9375 L39.2344 67.9375 L39.2344 69 Z"
      /><rect x="33" y="35" width="15" style="fill:white; stroke:none;" height="10"
      /><path style="stroke:none;" d="M37.1094 40.5781 C38.3438 40.5781 38.9688 41.4688 38.9688 42.8438 C38.9688 44.25 38.1875 45.1875 37.2188 45.1875 C35.9219 45.1875 35.1562 44.0312 35 41.8906 C35.625 40.9531 36.4531 40.5781 37.1094 40.5781 ZM37.2188 46.1875 C38.8125 46.1875 40.1562 44.8438 40.1562 42.8438 C40.1562 40.7031 39.0469 39.625 37.3125 39.625 C36.5 39.625 35.6094 40.1094 34.9688 40.875 C35.0312 37.6875 36.2188 36.6094 37.625 36.6094 C38.25 36.6094 38.8594 36.9062 39.2656 37.3906 L39.9688 36.5938 C39.4062 35.9844 38.6406 35.5469 37.5781 35.5469 C35.5938 35.5469 33.7812 37.0781 33.7812 41.0938 C33.7812 44.4844 35.2344 46.1875 37.2188 46.1875 ZM42.1762 46 L43.4731 46 L43.4731 41.9219 L45.1606 41.9219 C47.4262 41.9219 48.9418 40.9219 48.9418 38.75 C48.9418 36.5156 47.4106 35.7188 45.1137 35.7188 L42.1762 35.7188 L42.1762 46 ZM43.4731 40.875 L43.4731 36.7812 L44.9418 36.7812 C46.7543 36.7812 47.6606 37.2656 47.6606 38.75 C47.6606 40.2188 46.8012 40.875 45.0043 40.875 L43.4731 40.875 Z"
      /><rect x="33" y="81" width="14" style="fill:white; stroke:none;" height="11"
      /><path style="stroke:none;" d="M33.6094 92 L40.0625 92 L40.0625 90.8906 L37.2344 90.8906 C36.7031 90.8906 36.0781 90.9531 35.5469 90.9844 C37.9531 88.7031 39.5625 86.625 39.5625 84.5781 C39.5625 82.75 38.4219 81.5469 36.5781 81.5469 C35.2812 81.5469 34.4062 82.1406 33.5625 83.0469 L34.2969 83.7812 C34.8594 83.1094 35.5938 82.5938 36.4375 82.5938 C37.7031 82.5938 38.3125 83.4531 38.3125 84.625 C38.3125 86.3906 36.8438 88.4375 33.6094 91.25 L33.6094 92 ZM44.645 92.1875 C45.5512 92.1875 46.3637 91.6875 46.9575 91.1094 L47.0043 91.1094 L47.1137 92 L48.145 92 L48.145 80.8594 L46.895 80.8594 L46.895 83.7812 L46.9418 85.0938 C46.27 84.5312 45.6918 84.2031 44.8012 84.2031 C43.0668 84.2031 41.5043 85.7344 41.5043 88.2031 C41.5043 90.7344 42.7387 92.1875 44.645 92.1875 ZM44.9262 91.125 C43.5825 91.125 42.8325 90.0312 42.8325 88.1875 C42.8325 86.4531 43.8012 85.2812 45.02 85.2812 C45.6606 85.2812 46.2231 85.5 46.895 86.0781 L46.895 90.0625 C46.2387 90.7656 45.6293 91.125 44.9262 91.125 Z"
    /></g
    ><g style="fill:white; text-rendering:optimizeSpeed; font-family:'Serif'; stroke:white;"
    ><rect x="57" width="5" height="10" y="67" style="stroke:none;"
      /><path d="M58.8906 75.6875 C58.4844 75.6875 58.1562 76.0469 58.1562 76.4219 C58.1562 76.8125 58.4844 77.1562 58.8906 77.1562 C59.2969 77.1562 59.6406 76.8125 59.6406 76.4219 C59.6406 76.0469 59.2969 75.6875 58.8906 75.6875 ZM60.4688 69.5781 C60.7188 69.8906 60.875 70.2656 60.8906 70.6562 C60.8906 71.1875 60.625 71.5 60.0312 71.7656 L59.4062 72.0156 C58.6406 72.3125 58.3906 72.5469 58.3906 72.9375 C58.3906 73.1094 58.4531 73.3438 58.5781 73.8125 L58.7344 74.3438 L59.1094 74.3438 L59.0938 73.5312 C59.0938 73.0938 59.2031 72.9688 59.7812 72.7344 L60.2031 72.5625 C61.0312 72.2188 61.4531 71.6875 61.4531 70.8438 C61.4531 69.1562 59.6562 68.1875 58.5 68.0312 C58.1094 68.125 57.9062 68.2969 57.9062 68.6406 C57.9062 68.9375 58.0625 69.1562 58.7188 69.2656 L60.4688 69.5781 Z" style="fill:black; stroke:none;"
    /></g
    ><g ID="legend-1:0" style="text-rendering:optimizeSpeed; font-size:10px; font-family:'SansSerif';"
    ><path style="stroke:none;" d="M30.875 113 L34.9062 113 L34.9062 112.2344 L33.4375 112.2344 L33.4375 105.6562 L32.7344 105.6562 C32.3281 105.9062 31.8594 106.0625 31.2031 106.1875 L31.2031 106.7656 L32.5156 106.7656 L32.5156 112.2344 L30.875 112.2344 L30.875 113 ZM35.925 108.4531 L40.7219 108.4531 L40.7219 107.7656 L35.925 107.7656 L35.925 108.4531 ZM35.925 110.8438 L40.7219 110.8438 L40.7219 110.1719 L35.925 110.1719 L35.925 110.8438 ZM43.2719 113.125 C43.9437 113.125 44.5531 112.7812 45.0687 112.3438 L45.1 112.3438 L45.1781 113 L45.9281 113 L45.9281 109.6562 C45.9281 108.3125 45.3656 107.4375 44.0531 107.4375 C43.1781 107.4375 42.4125 107.8125 41.9125 108.1406 L42.2719 108.7656 C42.6937 108.4844 43.2719 108.1875 43.8969 108.1875 C44.7875 108.1875 45.0219 108.8594 45.0219 109.5625 C42.7094 109.8125 41.6781 110.4062 41.6781 111.5938 C41.6781 112.5625 42.3656 113.125 43.2719 113.125 ZM43.5375 112.4062 C42.9906 112.4062 42.5687 112.1562 42.5687 111.5312 C42.5687 110.8281 43.1937 110.375 45.0219 110.1562 L45.0219 111.6875 C44.4906 112.1562 44.0531 112.4062 43.5375 112.4062 ZM48.615 113.125 C48.865 113.125 49.0212 113.0938 49.1462 113.0469 L49.0212 112.3438 C48.9275 112.375 48.8806 112.375 48.8337 112.375 C48.6931 112.375 48.5681 112.2656 48.5681 111.9844 L48.5681 105.0469 L47.6618 105.0469 L47.6618 111.9219 C47.6618 112.6875 47.9431 113.125 48.615 113.125 ZM52.3556 113.125 C53.0118 113.125 53.5743 112.7812 54.0118 112.3594 L54.0431 112.3594 L54.1212 113 L54.8556 113 L54.8556 105.0469 L53.965 105.0469 L53.965 107.125 L53.9962 108.0625 C53.5275 107.6719 53.1056 107.4375 52.465 107.4375 C51.2306 107.4375 50.1212 108.5312 50.1212 110.2969 C50.1212 112.0938 50.9962 113.125 52.3556 113.125 ZM52.5587 112.375 C51.6056 112.375 51.0587 111.5938 51.0587 110.2812 C51.0587 109.0469 51.7462 108.2031 52.6368 108.2031 C53.0743 108.2031 53.4962 108.3594 53.965 108.7656 L53.965 111.625 C53.4962 112.125 53.0587 112.375 52.5587 112.375 ZM58.8993 113.125 C59.6337 113.125 60.2275 112.875 60.6962 112.5625 L60.3681 111.9688 C59.9775 112.2344 59.54 112.4062 59.0087 112.4062 C57.9775 112.4062 57.2743 111.6562 57.2118 110.5 L60.8681 110.5 C60.8837 110.375 60.915 110.1875 60.915 109.9844 C60.915 108.4375 60.1337 107.4375 58.7431 107.4375 C57.4931 107.4375 56.3056 108.5312 56.3056 110.2969 C56.3056 112.0781 57.4618 113.125 58.8993 113.125 ZM57.1962 109.8438 C57.3056 108.7812 57.9931 108.1562 58.7587 108.1562 C59.6025 108.1562 60.1025 108.75 60.1025 109.8438 L57.1962 109.8438 ZM62.2518 113 L63.1581 113 L63.1581 109.0625 C63.705 108.5156 64.0956 108.2344 64.6425 108.2344 C65.3768 108.2344 65.6737 108.6562 65.6737 109.6875 L65.6737 113 L66.5956 113 L66.5956 109.5625 C66.5956 108.1719 66.0643 107.4375 64.9237 107.4375 C64.1893 107.4375 63.6268 107.8438 63.1268 108.3438 L63.1581 107.2188 L63.1581 105.0469 L62.2518 105.0469 L62.2518 113 ZM68.4156 115.3438 C69.4937 115.3438 70.0562 114.5156 70.4312 113.4531 L72.4781 107.5625 L71.5874 107.5625 L70.6187 110.5938 C70.4624 111.0625 70.3062 111.625 70.1656 112.1094 L70.1031 112.1094 C69.9468 111.625 69.7437 111.0625 69.5874 110.5938 L68.4781 107.5625 L67.5249 107.5625 L69.7124 113.0156 L69.5874 113.4219 C69.3687 114.0938 68.9781 114.5938 68.3531 114.5938 C68.2124 114.5938 68.0562 114.5469 67.9468 114.5 L67.7749 115.2344 C67.9468 115.2969 68.1499 115.3438 68.4156 115.3438 ZM75.3756 113.125 C76.0318 113.125 76.5943 112.7812 77.0318 112.3594 L77.0631 112.3594 L77.1412 113 L77.8756 113 L77.8756 105.0469 L76.9849 105.0469 L76.9849 107.125 L77.0162 108.0625 C76.5474 107.6719 76.1256 107.4375 75.4849 107.4375 C74.2506 107.4375 73.1412 108.5312 73.1412 110.2969 C73.1412 112.0938 74.0162 113.125 75.3756 113.125 ZM75.5787 112.375 C74.6256 112.375 74.0787 111.5938 74.0787 110.2812 C74.0787 109.0469 74.7662 108.2031 75.6568 108.2031 C76.0943 108.2031 76.5162 108.3594 76.9849 108.7656 L76.9849 111.625 C76.5162 112.125 76.0787 112.375 75.5787 112.375 ZM81.9193 113.125 C82.6537 113.125 83.2474 112.875 83.7162 112.5625 L83.3881 111.9688 C82.9974 112.2344 82.5599 112.4062 82.0287 112.4062 C80.9974 112.4062 80.2943 111.6562 80.2318 110.5 L83.8881 110.5 C83.9037 110.375 83.9349 110.1875 83.9349 109.9844 C83.9349 108.4375 83.1537 107.4375 81.7631 107.4375 C80.5131 107.4375 79.3256 108.5312 79.3256 110.2969 C79.3256 112.0781 80.4818 113.125 81.9193 113.125 ZM80.2162 109.8438 C80.3256 108.7812 81.0131 108.1562 81.7787 108.1562 C82.6224 108.1562 83.1224 108.75 83.1224 109.8438 L80.2162 109.8438 ZM84.8031 110.5469 L87.3656 110.5469 L87.3656 109.8438 L84.8031 109.8438 L84.8031 110.5469 ZM88.2574 113 L92.8668 113 L92.8668 112.2031 L90.8356 112.2031 C90.4762 112.2031 90.0231 112.25 89.6324 112.2812 C91.3668 110.6562 92.5074 109.1562 92.5074 107.7031 C92.5074 106.3906 91.6949 105.5312 90.3824 105.5312 C89.4449 105.5312 88.8199 105.9531 88.2262 106.6094 L88.7574 107.125 C89.1481 106.6562 89.6637 106.2812 90.2731 106.2812 C91.1793 106.2812 91.6168 106.8906 91.6168 107.7344 C91.6168 108.9844 90.5543 110.4531 88.2574 112.4531 L88.2574 113 ZM93.823 110.5469 L96.3855 110.5469 L96.3855 109.8438 L93.823 109.8438 L93.823 110.5469 ZM99.6055 113.125 C100.2618 113.125 100.8243 112.7812 101.2618 112.3594 L101.293 112.3594 L101.3712 113 L102.1055 113 L102.1055 105.0469 L101.2149 105.0469 L101.2149 107.125 L101.2462 108.0625 C100.7774 107.6719 100.3555 107.4375 99.7149 107.4375 C98.4805 107.4375 97.3712 108.5312 97.3712 110.2969 C97.3712 112.0938 98.2462 113.125 99.6055 113.125 ZM99.8087 112.375 C98.8555 112.375 98.3087 111.5938 98.3087 110.2812 C98.3087 109.0469 98.9962 108.2031 99.8868 108.2031 C100.3243 108.2031 100.7462 108.3594 101.2149 108.7656 L101.2149 111.625 C100.7462 112.125 100.3087 112.375 99.8087 112.375 ZM106.1493 113.125 C106.8837 113.125 107.4774 112.875 107.9462 112.5625 L107.618 111.9688 C107.2274 112.2344 106.7899 112.4062 106.2587 112.4062 C105.2274 112.4062 104.5243 111.6562 104.4618 110.5 L108.118 110.5 C108.1337 110.375 108.1649 110.1875 108.1649 109.9844 C108.1649 108.4375 107.3837 107.4375 105.993 107.4375 C104.743 107.4375 103.5555 108.5312 103.5555 110.2969 C103.5555 112.0781 104.7118 113.125 106.1493 113.125 ZM104.4462 109.8438 C104.5555 108.7812 105.243 108.1562 106.0087 108.1562 C106.8524 108.1562 107.3524 108.75 107.3524 109.8438 L104.4462 109.8438 ZM111.6112 113.125 C112.9393 113.125 114.1268 112.0938 114.1268 110.2969 C114.1268 108.4844 112.9393 107.4375 111.6112 107.4375 C110.283 107.4375 109.0955 108.4844 109.0955 110.2969 C109.0955 112.0938 110.283 113.125 111.6112 113.125 ZM111.6112 112.375 C110.6737 112.375 110.033 111.5469 110.033 110.2969 C110.033 109.0469 110.6737 108.1875 111.6112 108.1875 C112.5487 108.1875 113.1893 109.0469 113.1893 110.2969 C113.1893 111.5469 112.5487 112.375 111.6112 112.375 ZM114.7962 113 L115.7493 113 L116.4837 111.7344 C116.6712 111.4062 116.843 111.0625 117.0462 110.7656 L117.093 110.7656 C117.2962 111.0625 117.4837 111.4062 117.6712 111.7344 L118.468 113 L119.468 113 L117.6868 110.2656 L119.3274 107.5625 L118.3743 107.5625 L117.7024 108.7656 C117.5462 109.0625 117.3899 109.375 117.218 109.6719 L117.1868 109.6719 C116.9993 109.375 116.8118 109.0625 116.6399 108.7656 L115.9055 107.5625 L114.9368 107.5625 L116.5774 110.1719 L114.7962 113 ZM120.6355 115.3438 C121.7137 115.3438 122.2762 114.5156 122.6512 113.4531 L124.698 107.5625 L123.8074 107.5625 L122.8387 110.5938 C122.6824 111.0625 122.5262 111.625 122.3855 112.1094 L122.323 112.1094 C122.1668 111.625 121.9637 111.0625 121.8074 110.5938 L120.698 107.5625 L119.7449 107.5625 L121.9324 113.0156 L121.8074 113.4219 C121.5887 114.0938 121.198 114.5938 120.573 114.5938 C120.4324 114.5938 120.2762 114.5469 120.1668 114.5 L119.9949 115.2344 C120.1668 115.2969 120.3699 115.3438 120.6355 115.3438 ZM125.283 110.5469 L127.8455 110.5469 L127.8455 109.8438 L125.283 109.8438 L125.283 110.5469 ZM129.2999 113 L131.1749 113 C133.3936 113 134.5968 111.625 134.5968 109.3125 C134.5968 106.9844 133.3936 105.6562 131.1436 105.6562 L129.2999 105.6562 L129.2999 113 ZM130.2374 112.2344 L130.2374 106.4219 L131.0655 106.4219 C132.7843 106.4219 133.6436 107.4531 133.6436 109.3125 C133.6436 111.1562 132.7843 112.2344 131.0655 112.2344 L130.2374 112.2344 ZM135.623 110.5469 L138.1855 110.5469 L138.1855 109.8438 L135.623 109.8438 L135.623 110.5469 ZM140.8118 113.125 C141.4836 113.125 142.093 112.7812 142.6086 112.3438 L142.6399 112.3438 L142.718 113 L143.468 113 L143.468 109.6562 C143.468 108.3125 142.9055 107.4375 141.593 107.4375 C140.718 107.4375 139.9524 107.8125 139.4524 108.1406 L139.8118 108.7656 C140.2336 108.4844 140.8118 108.1875 141.4368 108.1875 C142.3274 108.1875 142.5618 108.8594 142.5618 109.5625 C140.2493 109.8125 139.218 110.4062 139.218 111.5938 C139.218 112.5625 139.9055 113.125 140.8118 113.125 ZM141.0774 112.4062 C140.5305 112.4062 140.1086 112.1562 140.1086 111.5312 C140.1086 110.8281 140.7336 110.375 142.5618 110.1562 L142.5618 111.6875 C142.0305 112.1562 141.593 112.4062 141.0774 112.4062 ZM145.2018 113 L146.108 113 L146.108 109.5156 C146.4674 108.5781 147.0299 108.2656 147.483 108.2656 C147.7018 108.2656 147.8268 108.2812 148.0143 108.3438 L148.1861 107.5469 C148.0143 107.4531 147.8424 107.4375 147.5924 107.4375 C146.983 107.4375 146.4361 107.875 146.0611 108.5625 L146.0299 108.5625 L145.9518 107.5625 L145.2018 107.5625 L145.2018 113 ZM150.3318 113.125 C151.0036 113.125 151.613 112.7812 152.1286 112.3438 L152.1599 112.3438 L152.238 113 L152.988 113 L152.988 109.6562 C152.988 108.3125 152.4255 107.4375 151.113 107.4375 C150.238 107.4375 149.4724 107.8125 148.9724 108.1406 L149.3318 108.7656 C149.7536 108.4844 150.3318 108.1875 150.9568 108.1875 C151.8474 108.1875 152.0818 108.8594 152.0818 109.5625 C149.7693 109.8125 148.738 110.4062 148.738 111.5938 C148.738 112.5625 149.4255 113.125 150.3318 113.125 ZM150.5974 112.4062 C150.0505 112.4062 149.6286 112.1562 149.6286 111.5312 C149.6286 110.8281 150.2536 110.375 152.0818 110.1562 L152.0818 111.6875 C151.5505 112.1562 151.113 112.4062 150.5974 112.4062 ZM154.7999 113 L155.7374 113 L155.7374 109.5469 L159.1436 109.5469 L159.1436 113 L160.0655 113 L160.0655 105.6562 L159.1436 105.6562 L159.1436 108.7344 L155.7374 108.7344 L155.7374 105.6562 L154.7999 105.6562 L154.7999 113 ZM164.1893 113.125 C164.9236 113.125 165.5174 112.875 165.9861 112.5625 L165.658 111.9688 C165.2674 112.2344 164.8299 112.4062 164.2986 112.4062 C163.2674 112.4062 162.5643 111.6562 162.5018 110.5 L166.158 110.5 C166.1736 110.375 166.2049 110.1875 166.2049 109.9844 C166.2049 108.4375 165.4236 107.4375 164.033 107.4375 C162.783 107.4375 161.5955 108.5312 161.5955 110.2969 C161.5955 112.0781 162.7518 113.125 164.1893 113.125 ZM162.4861 109.8438 C162.5955 108.7812 163.283 108.1562 164.0486 108.1562 C164.8924 108.1562 165.3924 108.75 165.3924 109.8438 L162.4861 109.8438 ZM166.7761 113 L167.7292 113 L168.4636 111.7344 C168.6511 111.4062 168.823 111.0625 169.0261 110.7656 L169.073 110.7656 C169.2761 111.0625 169.4636 111.4062 169.6511 111.7344 L170.448 113 L171.448 113 L169.6667 110.2656 L171.3074 107.5625 L170.3542 107.5625 L169.6824 108.7656 C169.5261 109.0625 169.3699 109.375 169.198 109.6719 L169.1667 109.6719 C168.9792 109.375 168.7917 109.0625 168.6199 108.7656 L167.8855 107.5625 L166.9167 107.5625 L168.5574 110.1719 L166.7761 113 ZM174.5374 109.125 C175.4124 109.125 175.8655 109.7656 175.8655 110.75 C175.8655 111.75 175.303 112.4219 174.6155 112.4219 C173.6936 112.4219 173.1467 111.5938 173.0374 110.0625 C173.4749 109.4062 174.0686 109.125 174.5374 109.125 ZM174.6155 113.125 C175.7561 113.125 176.7092 112.1719 176.7092 110.75 C176.7092 109.2188 175.9124 108.4531 174.678 108.4531 C174.0999 108.4531 173.4592 108.7969 173.0061 109.3438 C173.053 107.0625 173.8967 106.2969 174.8967 106.2969 C175.3499 106.2969 175.7874 106.5 176.0842 106.8438 L176.5842 106.2812 C176.178 105.8438 175.6311 105.5312 174.8655 105.5312 C173.4436 105.5312 172.1624 106.625 172.1624 109.5 C172.1624 111.9219 173.1936 113.125 174.6155 113.125 ZM178.1499 113 L179.0874 113 L179.0874 110.0938 L180.2905 110.0938 C181.8999 110.0938 182.9936 109.375 182.9936 107.8125 C182.9936 106.2188 181.8842 105.6562 180.2436 105.6562 L178.1499 105.6562 L178.1499 113 ZM179.0874 109.3438 L179.0874 106.4219 L180.1342 106.4219 C181.4155 106.4219 182.0717 106.7656 182.0717 107.8125 C182.0717 108.875 181.4624 109.3438 180.1655 109.3438 L179.0874 109.3438 Z"
    /></g
  ></g
></svg
>
