<?xml version="1.0"?>
<!DOCTYPE svg PUBLIC '-//W3C//DTD SVG 1.0//EN'
          'http://www.w3.org/TR/2001/REC-SVG-20010904/DTD/svg10.dtd'>
<svg xmlns:xlink="http://www.w3.org/1999/xlink" style="fill-opacity:1; color-rendering:auto; color-interpolation:auto; text-rendering:auto; stroke:black; stroke-linecap:square; stroke-miterlimit:10; shape-rendering:auto; stroke-opacity:1; fill:black; stroke-dasharray:none; font-weight:normal; stroke-width:1; font-family:'Dialog'; font-style:normal; stroke-linejoin:miter; font-size:12px; stroke-dashoffset:0; image-rendering:auto;" viewBox="0 0 418 186" xmlns="http://www.w3.org/2000/svg"
><!--Generated by the Batik Graphics2D SVG Generator--><defs id="genericDefs"
  /><g
  ><defs id="defs1"
    ><clipPath clipPathUnits="userSpaceOnUse" id="clipPath1"
      ><path d="M290 69 L312 69 L312 91 L290 91 L290 69 Z"
      /></clipPath
      ><clipPath clipPathUnits="userSpaceOnUse" id="clipPath2"
      ><path d="M238 69 L260 69 L260 91 L238 91 L238 69 Z"
      /></clipPath
      ><clipPath clipPathUnits="userSpaceOnUse" id="clipPath3"
      ><path d="M208 80 C208 86.0751 203.0751 91 197 91 C190.9249 91 186 86.0751 186 80 C186 73.9249 190.9249 69 197 69 C203.0751 69 208 73.9249 208 80 Z"
      /></clipPath
      ><clipPath clipPathUnits="userSpaceOnUse" id="clipPath4"
      ><path d="M156 119 C156 125.0751 151.0751 130 145 130 C138.9249 130 134 125.0751 134 119 C134 112.9249 138.9249 108 145 108 C151.0751 108 156 112.9249 156 119 Z"
      /></clipPath
      ><clipPath clipPathUnits="userSpaceOnUse" id="clipPath5"
      ><path d="M104 145 C104 151.0751 99.0751 156 93 156 C86.9249 156 82 151.0751 82 145 C82 138.9249 86.9249 134 93 134 C99.0751 134 104 138.9249 104 145 Z"
      /></clipPath
      ><clipPath clipPathUnits="userSpaceOnUse" id="clipPath6"
      ><path d="M52 145 C52 151.0751 47.0751 156 41 156 C34.9249 156 30 151.0751 30 145 C30 138.9249 34.9249 134 41 134 C47.0751 134 52 138.9249 52 145 Z"
      /></clipPath
      ><clipPath clipPathUnits="userSpaceOnUse" id="clipPath7"
      ><path d="M104 93 C104 99.0751 99.0751 104 93 104 C86.9249 104 82 99.0751 82 93 C82 86.9249 86.9249 82 93 82 C99.0751 82 104 86.9249 104 93 Z"
      /></clipPath
      ><clipPath clipPathUnits="userSpaceOnUse" id="clipPath8"
      ><path d="M52 93 C52 99.0751 47.0751 104 41 104 C34.9249 104 30 99.0751 30 93 C30 86.9249 34.9249 82 41 82 C47.0751 82 52 86.9249 52 93 Z"
      /></clipPath
      ><clipPath clipPathUnits="userSpaceOnUse" id="clipPath9"
      ><path d="M156 41 C156 47.0751 151.0751 52 145 52 C138.9249 52 134 47.0751 134 41 C134 34.9249 138.9249 30 145 30 C151.0751 30 156 34.9249 156 41 Z"
      /></clipPath
      ><clipPath clipPathUnits="userSpaceOnUse" id="clipPath10"
      ><path d="M104 41 C104 47.0751 99.0751 52 93 52 C86.9249 52 82 47.0751 82 41 C82 34.9249 86.9249 30 93 30 C99.0751 30 104 34.9249 104 41 Z"
      /></clipPath
      ><clipPath clipPathUnits="userSpaceOnUse" id="clipPath11"
      ><path d="M52 41 C52 47.0751 47.0751 52 41 52 C34.9249 52 30 47.0751 30 41 C30 34.9249 34.9249 30 41 30 C47.0751 30 52 34.9249 52 41 Z"
      /></clipPath
    ></defs
    ><g style="fill:white; text-rendering:optimizeSpeed; stroke:white;"
    ><rect x="0" width="418" height="186" y="0" style="stroke:none;"
      /><polygon style="fill:none; stroke:black;" points=" 301 80 249 80"
      /><rect x="290" y="69" width="22" style="clip-path:url(#clipPath1); stroke:none;" height="22"
      /><rect x="290" y="69" width="22" style="clip-path:url(#clipPath1); fill:rgb(0,144,188); stroke:none;" height="22"
      /><rect x="290" y="69" width="22" style="clip-path:url(#clipPath1); fill:none; stroke:black;" height="22"
      /><rect x="290" y="69" width="22" style="fill:none; stroke:black;" height="22"
    /></g
    ><g style="font-style:italic; text-rendering:optimizeSpeed; font-size:10px; font-family:'SansSerif';"
    ><path style="stroke:none;" d="M301 82.125 C302.3281 82.125 303.7344 81.0938 304.125 79.2969 C304.5 77.4844 303.5469 76.4375 302.2188 76.4375 C300.8906 76.4375 299.4688 77.4844 299.0938 79.2969 C298.7031 81.0938 299.6719 82.125 301 82.125 ZM301.1719 81.375 C300.2344 81.375 299.7656 80.5469 300.0312 79.2969 C300.2969 78.0469 301.1094 77.1875 302.0469 77.1875 C302.9844 77.1875 303.4531 78.0469 303.1875 79.2969 C302.9219 80.5469 302.1094 81.375 301.1719 81.375 Z"
      /><polygon style="fill:none;" points=" 249 80 197 80"
    /></g
    ><g style="fill:white; text-rendering:optimizeSpeed; stroke:white;"
    ><rect x="238" y="69" width="22" style="clip-path:url(#clipPath2); stroke:none;" height="22"
      /><rect x="238" y="69" width="22" style="clip-path:url(#clipPath2); fill:rgb(0,144,188); stroke:none;" height="22"
      /><rect x="238" y="69" width="22" style="clip-path:url(#clipPath2); fill:none; stroke:black;" height="22"
      /><rect x="238" y="69" width="22" style="fill:none; stroke:black;" height="22"
      /><polygon style="fill:none; stroke:black;" points=" 197 80 145 119"
      /><polygon style="fill:none; stroke:black;" points=" 197 80 145 41"
      /><circle r="11" style="clip-path:url(#clipPath3); stroke:none;" cx="197" cy="80"
      /><rect x="186" y="69" width="22" style="clip-path:url(#clipPath3); fill:rgb(0,166,81); stroke:none;" height="22"
      /><rect x="186" y="69" width="22" style="clip-path:url(#clipPath3); fill:none; stroke:black;" height="22"
      /><circle r="11" style="fill:none; stroke:black;" cx="197" cy="80"
      /><polygon style="fill:none; stroke:black;" points=" 145 119 93 145"
      /><polygon style="fill:none; stroke:black;" points=" 145 119 93 93"
      /><circle r="11" style="clip-path:url(#clipPath4); stroke:none;" cx="145" cy="119"
      /><rect x="134" y="108" width="22" style="clip-path:url(#clipPath4); fill:rgb(0,166,81); stroke:none;" height="22"
      /><rect x="134" y="108" width="22" style="clip-path:url(#clipPath4); fill:none; stroke:black;" height="22"
      /><circle r="11" style="fill:none; stroke:black;" cx="145" cy="119"
      /><polygon style="fill:none; stroke:black;" points=" 93 145 41 145"
      /><circle r="11" style="clip-path:url(#clipPath5); stroke:none;" cx="93" cy="145"
      /><rect x="82" y="134" width="22" style="clip-path:url(#clipPath5); fill:rgb(0,166,81); stroke:none;" height="22"
      /><rect x="82" y="134" width="22" style="clip-path:url(#clipPath5); fill:none; stroke:black;" height="22"
      /><circle r="11" style="fill:none; stroke:black;" cx="93" cy="145"
      /><circle r="11" style="clip-path:url(#clipPath6); stroke:none;" cx="41" cy="145"
      /><rect x="30" y="134" width="22" style="clip-path:url(#clipPath6); fill:rgb(0,166,81); stroke:none;" height="22"
      /><rect x="30" y="134" width="22" style="clip-path:url(#clipPath6); fill:none; stroke:black;" height="22"
      /><circle r="11" style="fill:none; stroke:black;" cx="41" cy="145"
      /><rect x="71" width="5" height="10" y="148" style="stroke:none;"
      /><path d="M72.8906 156.6875 C72.4844 156.6875 72.1562 157.0469 72.1562 157.4219 C72.1562 157.8125 72.4844 158.1562 72.8906 158.1562 C73.2969 158.1562 73.6406 157.8125 73.6406 157.4219 C73.6406 157.0469 73.2969 156.6875 72.8906 156.6875 ZM74.4688 150.5781 C74.7188 150.8906 74.875 151.2656 74.8906 151.6562 C74.8906 152.1875 74.625 152.5 74.0312 152.7656 L73.4062 153.0156 C72.6406 153.3125 72.3906 153.5469 72.3906 153.9375 C72.3906 154.1094 72.4531 154.3438 72.5781 154.8125 L72.7344 155.3438 L73.1094 155.3438 L73.0938 154.5312 C73.0938 154.0938 73.2031 153.9688 73.7812 153.7344 L74.2031 153.5625 C75.0312 153.2188 75.4531 152.6875 75.4531 151.8438 C75.4531 150.1562 73.6562 149.1875 72.5 149.0312 C72.1094 149.125 71.9062 149.2969 71.9062 149.6406 C71.9062 149.9375 72.0625 150.1562 72.7188 150.2656 L74.4688 150.5781 Z" style="fill:black; stroke:none;"
      /><rect x="57" width="5" height="10" y="148" style="stroke:none;"
      /><path d="M58.8906 156.6875 C58.4844 156.6875 58.1562 157.0469 58.1562 157.4219 C58.1562 157.8125 58.4844 158.1562 58.8906 158.1562 C59.2969 158.1562 59.6406 157.8125 59.6406 157.4219 C59.6406 157.0469 59.2969 156.6875 58.8906 156.6875 ZM60.4688 150.5781 C60.7188 150.8906 60.875 151.2656 60.8906 151.6562 C60.8906 152.1875 60.625 152.5 60.0312 152.7656 L59.4062 153.0156 C58.6406 153.3125 58.3906 153.5469 58.3906 153.9375 C58.3906 154.1094 58.4531 154.3438 58.5781 154.8125 L58.7344 155.3438 L59.1094 155.3438 L59.0938 154.5312 C59.0938 154.0938 59.2031 153.9688 59.7812 153.7344 L60.2031 153.5625 C61.0312 153.2188 61.4531 152.6875 61.4531 151.8438 C61.4531 150.1562 59.6562 149.1875 58.5 149.0312 C58.1094 149.125 57.9062 149.2969 57.9062 149.6406 C57.9062 149.9375 58.0625 150.1562 58.7188 150.2656 L60.4688 150.5781 Z" style="fill:black; stroke:none;"
      /><polygon style="fill:none; stroke:black;" points=" 93 93 41 93"
      /><circle r="11" style="clip-path:url(#clipPath7); stroke:none;" cx="93" cy="93"
      /><rect x="82" y="82" width="22" style="clip-path:url(#clipPath7); fill:rgb(0,166,81); stroke:none;" height="22"
      /><rect x="82" y="82" width="22" style="clip-path:url(#clipPath7); fill:none; stroke:black;" height="22"
      /><circle r="11" style="fill:none; stroke:black;" cx="93" cy="93"
      /><circle r="11" style="clip-path:url(#clipPath8); stroke:none;" cx="41" cy="93"
      /><rect x="30" y="82" width="22" style="clip-path:url(#clipPath8); fill:rgb(0,166,81); stroke:none;" height="22"
      /><rect x="30" y="82" width="22" style="clip-path:url(#clipPath8); fill:none; stroke:black;" height="22"
      /><circle r="11" style="fill:none; stroke:black;" cx="41" cy="93"
      /><rect x="71" width="5" height="10" y="96" style="stroke:none;"
      /><path d="M72.8906 104.6875 C72.4844 104.6875 72.1562 105.0469 72.1562 105.4219 C72.1562 105.8125 72.4844 106.1562 72.8906 106.1562 C73.2969 106.1562 73.6406 105.8125 73.6406 105.4219 C73.6406 105.0469 73.2969 104.6875 72.8906 104.6875 ZM74.4688 98.5781 C74.7188 98.8906 74.875 99.2656 74.8906 99.6562 C74.8906 100.1875 74.625 100.5 74.0312 100.7656 L73.4062 101.0156 C72.6406 101.3125 72.3906 101.5469 72.3906 101.9375 C72.3906 102.1094 72.4531 102.3438 72.5781 102.8125 L72.7344 103.3438 L73.1094 103.3438 L73.0938 102.5312 C73.0938 102.0938 73.2031 101.9688 73.7812 101.7344 L74.2031 101.5625 C75.0312 101.2188 75.4531 100.6875 75.4531 99.8438 C75.4531 98.1562 73.6562 97.1875 72.5 97.0312 C72.1094 97.125 71.9062 97.2969 71.9062 97.6406 C71.9062 97.9375 72.0625 98.1562 72.7188 98.2656 L74.4688 98.5781 Z" style="fill:black; stroke:none;"
      /><rect x="57" width="5" height="10" y="96" style="stroke:none;"
      /><path d="M58.8906 104.6875 C58.4844 104.6875 58.1562 105.0469 58.1562 105.4219 C58.1562 105.8125 58.4844 106.1562 58.8906 106.1562 C59.2969 106.1562 59.6406 105.8125 59.6406 105.4219 C59.6406 105.0469 59.2969 104.6875 58.8906 104.6875 ZM60.4688 98.5781 C60.7188 98.8906 60.875 99.2656 60.8906 99.6562 C60.8906 100.1875 60.625 100.5 60.0312 100.7656 L59.4062 101.0156 C58.6406 101.3125 58.3906 101.5469 58.3906 101.9375 C58.3906 102.1094 58.4531 102.3438 58.5781 102.8125 L58.7344 103.3438 L59.1094 103.3438 L59.0938 102.5312 C59.0938 102.0938 59.2031 101.9688 59.7812 101.7344 L60.2031 101.5625 C61.0312 101.2188 61.4531 100.6875 61.4531 99.8438 C61.4531 98.1562 59.6562 97.1875 58.5 97.0312 C58.1094 97.125 57.9062 97.2969 57.9062 97.6406 C57.9062 97.9375 58.0625 98.1562 58.7188 98.2656 L60.4688 98.5781 Z" style="fill:black; stroke:none;"
      /><rect x="127" width="5" height="10" y="130" style="stroke:none;"
      /><path d="M128.8906 138.6875 C128.4844 138.6875 128.1562 139.0469 128.1562 139.4219 C128.1562 139.8125 128.4844 140.1562 128.8906 140.1562 C129.2969 140.1562 129.6406 139.8125 129.6406 139.4219 C129.6406 139.0469 129.2969 138.6875 128.8906 138.6875 ZM130.4688 132.5781 C130.7188 132.8906 130.875 133.2656 130.8906 133.6562 C130.8906 134.1875 130.625 134.5 130.0312 134.7656 L129.4062 135.0156 C128.6406 135.3125 128.3906 135.5469 128.3906 135.9375 C128.3906 136.1094 128.4531 136.3438 128.5781 136.8125 L128.7344 137.3438 L129.1094 137.3438 L129.0938 136.5312 C129.0938 136.0938 129.2031 135.9688 129.7812 135.7344 L130.2031 135.5625 C131.0312 135.2188 131.4531 134.6875 131.4531 133.8438 C131.4531 132.1562 129.6562 131.1875 128.5 131.0312 C128.1094 131.125 127.9062 131.2969 127.9062 131.6406 C127.9062 131.9375 128.0625 132.1562 128.7188 132.2656 L130.4688 132.5781 Z" style="fill:black; stroke:none;"
      /><rect x="112" width="5" height="10" y="138" style="stroke:none;"
      /><path d="M113.8906 146.6875 C113.4844 146.6875 113.1562 147.0469 113.1562 147.4219 C113.1562 147.8125 113.4844 148.1562 113.8906 148.1562 C114.2969 148.1562 114.6406 147.8125 114.6406 147.4219 C114.6406 147.0469 114.2969 146.6875 113.8906 146.6875 ZM115.4688 140.5781 C115.7188 140.8906 115.875 141.2656 115.8906 141.6562 C115.8906 142.1875 115.625 142.5 115.0312 142.7656 L114.4062 143.0156 C113.6406 143.3125 113.3906 143.5469 113.3906 143.9375 C113.3906 144.1094 113.4531 144.3438 113.5781 144.8125 L113.7344 145.3438 L114.1094 145.3438 L114.0938 144.5312 C114.0938 144.0938 114.2031 143.9688 114.7812 143.7344 L115.2031 143.5625 C116.0312 143.2188 116.4531 142.6875 116.4531 141.8438 C116.4531 140.1562 114.6562 139.1875 113.5 139.0312 C113.1094 139.125 112.9062 139.2969 112.9062 139.6406 C112.9062 139.9375 113.0625 140.1562 113.7188 140.2656 L115.4688 140.5781 Z" style="fill:black; stroke:none;"
      /><rect x="120" width="5" height="10" y="112" style="stroke:none;"
      /><path d="M121.8906 120.6875 C121.4844 120.6875 121.1562 121.0469 121.1562 121.4219 C121.1562 121.8125 121.4844 122.1562 121.8906 122.1562 C122.2969 122.1562 122.6406 121.8125 122.6406 121.4219 C122.6406 121.0469 122.2969 120.6875 121.8906 120.6875 ZM123.4688 114.5781 C123.7188 114.8906 123.875 115.2656 123.8906 115.6562 C123.8906 116.1875 123.625 116.5 123.0312 116.7656 L122.4062 117.0156 C121.6406 117.3125 121.3906 117.5469 121.3906 117.9375 C121.3906 118.1094 121.4531 118.3438 121.5781 118.8125 L121.7344 119.3438 L122.1094 119.3438 L122.0938 118.5312 C122.0938 118.0938 122.2031 117.9688 122.7812 117.7344 L123.2031 117.5625 C124.0312 117.2188 124.4531 116.6875 124.4531 115.8438 C124.4531 114.1562 122.6562 113.1875 121.5 113.0312 C121.1094 113.125 120.9062 113.2969 120.9062 113.6406 C120.9062 113.9375 121.0625 114.1562 121.7188 114.2656 L123.4688 114.5781 Z" style="fill:black; stroke:none;"
      /><rect x="105" width="5" height="10" y="104" style="stroke:none;"
      /><path d="M106.8906 112.6875 C106.4844 112.6875 106.1562 113.0469 106.1562 113.4219 C106.1562 113.8125 106.4844 114.1562 106.8906 114.1562 C107.2969 114.1562 107.6406 113.8125 107.6406 113.4219 C107.6406 113.0469 107.2969 112.6875 106.8906 112.6875 ZM108.4688 106.5781 C108.7188 106.8906 108.875 107.2656 108.8906 107.6562 C108.8906 108.1875 108.625 108.5 108.0312 108.7656 L107.4062 109.0156 C106.6406 109.3125 106.3906 109.5469 106.3906 109.9375 C106.3906 110.1094 106.4531 110.3438 106.5781 110.8125 L106.7344 111.3438 L107.1094 111.3438 L107.0938 110.5312 C107.0938 110.0938 107.2031 109.9688 107.7812 109.7344 L108.2031 109.5625 C109.0312 109.2188 109.4531 108.6875 109.4531 107.8438 C109.4531 106.1562 107.6562 105.1875 106.5 105.0312 C106.1094 105.125 105.9062 105.2969 105.9062 105.6406 C105.9062 105.9375 106.0625 106.1562 106.7188 106.2656 L108.4688 106.5781 Z" style="fill:black; stroke:none;"
      /><polygon style="fill:none; stroke:black;" points=" 145 41 93 41"
      /><circle r="11" style="clip-path:url(#clipPath9); stroke:none;" cx="145" cy="41"
      /><rect x="134" y="30" width="22" style="clip-path:url(#clipPath9); fill:rgb(0,166,81); stroke:none;" height="22"
      /><rect x="134" y="30" width="22" style="clip-path:url(#clipPath9); fill:none; stroke:black;" height="22"
      /><circle r="11" style="fill:none; stroke:black;" cx="145" cy="41"
      /><polygon style="fill:none; stroke:black;" points=" 93 41 41 41"
      /><circle r="11" style="clip-path:url(#clipPath10); stroke:none;" cx="93" cy="41"
      /><rect x="82" y="30" width="22" style="clip-path:url(#clipPath10); fill:rgb(0,166,81); stroke:none;" height="22"
      /><rect x="82" y="30" width="22" style="clip-path:url(#clipPath10); fill:none; stroke:black;" height="22"
      /><circle r="11" style="fill:none; stroke:black;" cx="93" cy="41"
      /><circle r="11" style="clip-path:url(#clipPath11); stroke:none;" cx="41" cy="41"
      /><rect x="30" y="30" width="22" style="clip-path:url(#clipPath11); fill:rgb(0,166,81); stroke:none;" height="22"
      /><rect x="30" y="30" width="22" style="clip-path:url(#clipPath11); fill:none; stroke:black;" height="22"
      /><circle r="11" style="fill:none; stroke:black;" cx="41" cy="41"
      /><rect x="71" width="5" height="10" y="44" style="stroke:none;"
      /><path d="M72.8906 52.6875 C72.4844 52.6875 72.1562 53.0469 72.1562 53.4219 C72.1562 53.8125 72.4844 54.1562 72.8906 54.1562 C73.2969 54.1562 73.6406 53.8125 73.6406 53.4219 C73.6406 53.0469 73.2969 52.6875 72.8906 52.6875 ZM74.4688 46.5781 C74.7188 46.8906 74.875 47.2656 74.8906 47.6562 C74.8906 48.1875 74.625 48.5 74.0312 48.7656 L73.4062 49.0156 C72.6406 49.3125 72.3906 49.5469 72.3906 49.9375 C72.3906 50.1094 72.4531 50.3438 72.5781 50.8125 L72.7344 51.3438 L73.1094 51.3438 L73.0938 50.5312 C73.0938 50.0938 73.2031 49.9688 73.7812 49.7344 L74.2031 49.5625 C75.0312 49.2188 75.4531 48.6875 75.4531 47.8438 C75.4531 46.1562 73.6562 45.1875 72.5 45.0312 C72.1094 45.125 71.9062 45.2969 71.9062 45.6406 C71.9062 45.9375 72.0625 46.1562 72.7188 46.2656 L74.4688 46.5781 Z" style="fill:black; stroke:none;"
      /><rect x="57" width="5" height="10" y="44" style="stroke:none;"
      /><path d="M58.8906 52.6875 C58.4844 52.6875 58.1562 53.0469 58.1562 53.4219 C58.1562 53.8125 58.4844 54.1562 58.8906 54.1562 C59.2969 54.1562 59.6406 53.8125 59.6406 53.4219 C59.6406 53.0469 59.2969 52.6875 58.8906 52.6875 ZM60.4688 46.5781 C60.7188 46.8906 60.875 47.2656 60.8906 47.6562 C60.8906 48.1875 60.625 48.5 60.0312 48.7656 L59.4062 49.0156 C58.6406 49.3125 58.3906 49.5469 58.3906 49.9375 C58.3906 50.1094 58.4531 50.3438 58.5781 50.8125 L58.7344 51.3438 L59.1094 51.3438 L59.0938 50.5312 C59.0938 50.0938 59.2031 49.9688 59.7812 49.7344 L60.2031 49.5625 C61.0312 49.2188 61.4531 48.6875 61.4531 47.8438 C61.4531 46.1562 59.6562 45.1875 58.5 45.0312 C58.1094 45.125 57.9062 45.2969 57.9062 45.6406 C57.9062 45.9375 58.0625 46.1562 58.7188 46.2656 L60.4688 46.5781 Z" style="fill:black; stroke:none;"
      /><rect x="123" width="5" height="10" y="44" style="stroke:none;"
      /><path d="M124.8906 52.6875 C124.4844 52.6875 124.1562 53.0469 124.1562 53.4219 C124.1562 53.8125 124.4844 54.1562 124.8906 54.1562 C125.2969 54.1562 125.6406 53.8125 125.6406 53.4219 C125.6406 53.0469 125.2969 52.6875 124.8906 52.6875 ZM126.4688 46.5781 C126.7188 46.8906 126.875 47.2656 126.8906 47.6562 C126.8906 48.1875 126.625 48.5 126.0312 48.7656 L125.4062 49.0156 C124.6406 49.3125 124.3906 49.5469 124.3906 49.9375 C124.3906 50.1094 124.4531 50.3438 124.5781 50.8125 L124.7344 51.3438 L125.1094 51.3438 L125.0938 50.5312 C125.0938 50.0938 125.2031 49.9688 125.7812 49.7344 L126.2031 49.5625 C127.0312 49.2188 127.4531 48.6875 127.4531 47.8438 C127.4531 46.1562 125.6562 45.1875 124.5 45.0312 C124.1094 45.125 123.9062 45.2969 123.9062 45.6406 C123.9062 45.9375 124.0625 46.1562 124.7188 46.2656 L126.4688 46.5781 Z" style="fill:black; stroke:none;"
      /><rect x="109" width="5" height="10" y="44" style="stroke:none;"
      /><path d="M110.8906 52.6875 C110.4844 52.6875 110.1562 53.0469 110.1562 53.4219 C110.1562 53.8125 110.4844 54.1562 110.8906 54.1562 C111.2969 54.1562 111.6406 53.8125 111.6406 53.4219 C111.6406 53.0469 111.2969 52.6875 110.8906 52.6875 ZM112.4688 46.5781 C112.7188 46.8906 112.875 47.2656 112.8906 47.6562 C112.8906 48.1875 112.625 48.5 112.0312 48.7656 L111.4062 49.0156 C110.6406 49.3125 110.3906 49.5469 110.3906 49.9375 C110.3906 50.1094 110.4531 50.3438 110.5781 50.8125 L110.7344 51.3438 L111.1094 51.3438 L111.0938 50.5312 C111.0938 50.0938 111.2031 49.9688 111.7812 49.7344 L112.2031 49.5625 C113.0312 49.2188 113.4531 48.6875 113.4531 47.8438 C113.4531 46.1562 111.6562 45.1875 110.5 45.0312 C110.1094 45.125 109.9062 45.2969 109.9062 45.6406 C109.9062 45.9375 110.0625 46.1562 110.7188 46.2656 L112.4688 46.5781 Z" style="fill:black; stroke:none;"
      /><rect x="181" width="5" height="10" y="94" style="stroke:none;"
      /><path d="M182.8906 102.6875 C182.4844 102.6875 182.1562 103.0469 182.1562 103.4219 C182.1562 103.8125 182.4844 104.1562 182.8906 104.1562 C183.2969 104.1562 183.6406 103.8125 183.6406 103.4219 C183.6406 103.0469 183.2969 102.6875 182.8906 102.6875 ZM184.4688 96.5781 C184.7188 96.8906 184.875 97.2656 184.8906 97.6562 C184.8906 98.1875 184.625 98.5 184.0312 98.7656 L183.4062 99.0156 C182.6406 99.3125 182.3906 99.5469 182.3906 99.9375 C182.3906 100.1094 182.4531 100.3438 182.5781 100.8125 L182.7344 101.3438 L183.1094 101.3438 L183.0938 100.5312 C183.0938 100.0938 183.2031 99.9688 183.7812 99.7344 L184.2031 99.5625 C185.0312 99.2188 185.4531 98.6875 185.4531 97.8438 C185.4531 96.1562 183.6562 95.1875 182.5 95.0312 C182.1094 95.125 181.9062 95.2969 181.9062 95.6406 C181.9062 95.9375 182.0625 96.1562 182.7188 96.2656 L184.4688 96.5781 Z" style="fill:black; stroke:none;"
      /><rect x="164" width="5" height="10" y="107" style="stroke:none;"
      /><path d="M165.8906 115.6875 C165.4844 115.6875 165.1562 116.0469 165.1562 116.4219 C165.1562 116.8125 165.4844 117.1562 165.8906 117.1562 C166.2969 117.1562 166.6406 116.8125 166.6406 116.4219 C166.6406 116.0469 166.2969 115.6875 165.8906 115.6875 ZM167.4688 109.5781 C167.7188 109.8906 167.875 110.2656 167.8906 110.6562 C167.8906 111.1875 167.625 111.5 167.0312 111.7656 L166.4062 112.0156 C165.6406 112.3125 165.3906 112.5469 165.3906 112.9375 C165.3906 113.1094 165.4531 113.3438 165.5781 113.8125 L165.7344 114.3438 L166.1094 114.3438 L166.0938 113.5312 C166.0938 113.0938 166.2031 112.9688 166.7812 112.7344 L167.2031 112.5625 C168.0312 112.2188 168.4531 111.6875 168.4531 110.8438 C168.4531 109.1562 166.6562 108.1875 165.5 108.0312 C165.1094 108.125 164.9062 108.2969 164.9062 108.6406 C164.9062 108.9375 165.0625 109.1562 165.7188 109.2656 L167.4688 109.5781 Z" style="fill:black; stroke:none;"
      /><rect x="172" width="5" height="10" y="68" style="stroke:none;"
      /><path d="M173.8906 76.6875 C173.4844 76.6875 173.1562 77.0469 173.1562 77.4219 C173.1562 77.8125 173.4844 78.1562 173.8906 78.1562 C174.2969 78.1562 174.6406 77.8125 174.6406 77.4219 C174.6406 77.0469 174.2969 76.6875 173.8906 76.6875 ZM175.4688 70.5781 C175.7188 70.8906 175.875 71.2656 175.8906 71.6562 C175.8906 72.1875 175.625 72.5 175.0312 72.7656 L174.4062 73.0156 C173.6406 73.3125 173.3906 73.5469 173.3906 73.9375 C173.3906 74.1094 173.4531 74.3438 173.5781 74.8125 L173.7344 75.3438 L174.1094 75.3438 L174.0938 74.5312 C174.0938 74.0938 174.2031 73.9688 174.7812 73.7344 L175.2031 73.5625 C176.0312 73.2188 176.4531 72.6875 176.4531 71.8438 C176.4531 70.1562 174.6562 69.1875 173.5 69.0312 C173.1094 69.125 172.9062 69.2969 172.9062 69.6406 C172.9062 69.9375 173.0625 70.1562 173.7188 70.2656 L175.4688 70.5781 Z" style="fill:black; stroke:none;"
      /><rect x="155" width="5" height="10" y="55" style="stroke:none;"
      /><path d="M156.8906 63.6875 C156.4844 63.6875 156.1562 64.0469 156.1562 64.4219 C156.1562 64.8125 156.4844 65.1562 156.8906 65.1562 C157.2969 65.1562 157.6406 64.8125 157.6406 64.4219 C157.6406 64.0469 157.2969 63.6875 156.8906 63.6875 ZM158.4688 57.5781 C158.7188 57.8906 158.875 58.2656 158.8906 58.6562 C158.8906 59.1875 158.625 59.5 158.0312 59.7656 L157.4062 60.0156 C156.6406 60.3125 156.3906 60.5469 156.3906 60.9375 C156.3906 61.1094 156.4531 61.3438 156.5781 61.8125 L156.7344 62.3438 L157.1094 62.3438 L157.0938 61.5312 C157.0938 61.0938 157.2031 60.9688 157.7812 60.7344 L158.2031 60.5625 C159.0312 60.2188 159.4531 59.6875 159.4531 58.8438 C159.4531 57.1562 157.6562 56.1875 156.5 56.0312 C156.1094 56.125 155.9062 56.2969 155.9062 56.6406 C155.9062 56.9375 156.0625 57.1562 156.7188 57.2656 L158.4688 57.5781 Z" style="fill:black; stroke:none;"
      /><rect x="227" width="5" height="10" y="83" style="stroke:none;"
      /><path d="M228.8906 91.6875 C228.4844 91.6875 228.1562 92.0469 228.1562 92.4219 C228.1562 92.8125 228.4844 93.1562 228.8906 93.1562 C229.2969 93.1562 229.6406 92.8125 229.6406 92.4219 C229.6406 92.0469 229.2969 91.6875 228.8906 91.6875 ZM230.4688 85.5781 C230.7188 85.8906 230.875 86.2656 230.8906 86.6562 C230.8906 87.1875 230.625 87.5 230.0312 87.7656 L229.4062 88.0156 C228.6406 88.3125 228.3906 88.5469 228.3906 88.9375 C228.3906 89.1094 228.4531 89.3438 228.5781 89.8125 L228.7344 90.3438 L229.1094 90.3438 L229.0938 89.5312 C229.0938 89.0938 229.2031 88.9688 229.7812 88.7344 L230.2031 88.5625 C231.0312 88.2188 231.4531 87.6875 231.4531 86.8438 C231.4531 85.1562 229.6562 84.1875 228.5 84.0312 C228.1094 84.125 227.9062 84.2969 227.9062 84.6406 C227.9062 84.9375 228.0625 85.1562 228.7188 85.2656 L230.4688 85.5781 Z" style="fill:black; stroke:none;"
      /><rect x="213" width="5" height="10" y="83" style="stroke:none;"
      /><path d="M214.8906 91.6875 C214.4844 91.6875 214.1562 92.0469 214.1562 92.4219 C214.1562 92.8125 214.4844 93.1562 214.8906 93.1562 C215.2969 93.1562 215.6406 92.8125 215.6406 92.4219 C215.6406 92.0469 215.2969 91.6875 214.8906 91.6875 ZM216.4688 85.5781 C216.7188 85.8906 216.875 86.2656 216.8906 86.6562 C216.8906 87.1875 216.625 87.5 216.0312 87.7656 L215.4062 88.0156 C214.6406 88.3125 214.3906 88.5469 214.3906 88.9375 C214.3906 89.1094 214.4531 89.3438 214.5781 89.8125 L214.7344 90.3438 L215.1094 90.3438 L215.0938 89.5312 C215.0938 89.0938 215.2031 88.9688 215.7812 88.7344 L216.2031 88.5625 C217.0312 88.2188 217.4531 87.6875 217.4531 86.8438 C217.4531 85.1562 215.6562 84.1875 214.5 84.0312 C214.1094 84.125 213.9062 84.2969 213.9062 84.6406 C213.9062 84.9375 214.0625 85.1562 214.7188 85.2656 L216.4688 85.5781 Z" style="fill:black; stroke:none;"
      /><rect x="279" width="5" height="10" y="83" style="stroke:none;"
      /><path d="M280.8906 91.6875 C280.4844 91.6875 280.1562 92.0469 280.1562 92.4219 C280.1562 92.8125 280.4844 93.1562 280.8906 93.1562 C281.2969 93.1562 281.6406 92.8125 281.6406 92.4219 C281.6406 92.0469 281.2969 91.6875 280.8906 91.6875 ZM282.4688 85.5781 C282.7188 85.8906 282.875 86.2656 282.8906 86.6562 C282.8906 87.1875 282.625 87.5 282.0312 87.7656 L281.4062 88.0156 C280.6406 88.3125 280.3906 88.5469 280.3906 88.9375 C280.3906 89.1094 280.4531 89.3438 280.5781 89.8125 L280.7344 90.3438 L281.1094 90.3438 L281.0938 89.5312 C281.0938 89.0938 281.2031 88.9688 281.7812 88.7344 L282.2031 88.5625 C283.0312 88.2188 283.4531 87.6875 283.4531 86.8438 C283.4531 85.1562 281.6562 84.1875 280.5 84.0312 C280.1094 84.125 279.9062 84.2969 279.9062 84.6406 C279.9062 84.9375 280.0625 85.1562 280.7188 85.2656 L282.4688 85.5781 Z" style="fill:black; stroke:none;"
      /><rect x="265" width="5" height="10" y="83" style="stroke:none;"
      /><path d="M266.8906 91.6875 C266.4844 91.6875 266.1562 92.0469 266.1562 92.4219 C266.1562 92.8125 266.4844 93.1562 266.8906 93.1562 C267.2969 93.1562 267.6406 92.8125 267.6406 92.4219 C267.6406 92.0469 267.2969 91.6875 266.8906 91.6875 ZM268.4688 85.5781 C268.7188 85.8906 268.875 86.2656 268.8906 86.6562 C268.8906 87.1875 268.625 87.5 268.0312 87.7656 L267.4062 88.0156 C266.6406 88.3125 266.3906 88.5469 266.3906 88.9375 C266.3906 89.1094 266.4531 89.3438 266.5781 89.8125 L266.7344 90.3438 L267.1094 90.3438 L267.0938 89.5312 C267.0938 89.0938 267.2031 88.9688 267.7812 88.7344 L268.2031 88.5625 C269.0312 88.2188 269.4531 87.6875 269.4531 86.8438 C269.4531 85.1562 267.6562 84.1875 266.5 84.0312 C266.1094 84.125 265.9062 84.2969 265.9062 84.6406 C265.9062 84.9375 266.0625 85.1562 266.7188 85.2656 L268.4688 85.5781 Z" style="fill:black; stroke:none;"
    /></g
  ></g
></svg
>
