<?xml version="1.0"?>
<!DOCTYPE svg PUBLIC '-//W3C//DTD SVG 1.0//EN'
          'http://www.w3.org/TR/2001/REC-SVG-20010904/DTD/svg10.dtd'>
<svg xmlns:xlink="http://www.w3.org/1999/xlink" style="fill-opacity:1; color-rendering:auto; color-interpolation:auto; text-rendering:auto; stroke:black; stroke-linecap:square; stroke-miterlimit:10; shape-rendering:auto; stroke-opacity:1; fill:black; stroke-dasharray:none; font-weight:normal; stroke-width:1; font-family:'Dialog'; font-style:normal; stroke-linejoin:miter; font-size:12px; stroke-dashoffset:0; image-rendering:auto;" viewBox="0 0 446 186" xmlns="http://www.w3.org/2000/svg"
><!--Generated by the Batik Graphics2D SVG Generator--><defs id="genericDefs"
  /><g
  ><defs id="defs1"
    ><clipPath clipPathUnits="userSpaceOnUse" id="clipPath1"
      ><path d="M342 95 L364 95 L364 117 L342 117 L342 95 Z"
      /></clipPath
      ><clipPath clipPathUnits="userSpaceOnUse" id="clipPath2"
      ><path d="M290 95 L312 95 L312 117 L290 117 L290 95 Z"
      /></clipPath
      ><clipPath clipPathUnits="userSpaceOnUse" id="clipPath3"
      ><path d="M260 106 C260 112.0751 255.0751 117 249 117 C242.9249 117 238 112.0751 238 106 C238 99.9249 242.9249 95 249 95 C255.0751 95 260 99.9249 260 106 Z"
      /></clipPath
      ><clipPath clipPathUnits="userSpaceOnUse" id="clipPath4"
      ><path d="M208 145 C208 151.0751 203.0751 156 197 156 C190.9249 156 186 151.0751 186 145 C186 138.9249 190.9249 134 197 134 C203.0751 134 208 138.9249 208 145 Z"
      /></clipPath
      ><clipPath clipPathUnits="userSpaceOnUse" id="clipPath5"
      ><path d="M134 134 L156 134 L156 156 L134 156 L134 134 Z"
      /></clipPath
      ><clipPath clipPathUnits="userSpaceOnUse" id="clipPath6"
      ><path d="M104 145 C104 151.0751 99.0751 156 93 156 C86.9249 156 82 151.0751 82 145 C82 138.9249 86.9249 134 93 134 C99.0751 134 104 138.9249 104 145 Z"
      /></clipPath
      ><clipPath clipPathUnits="userSpaceOnUse" id="clipPath7"
      ><path d="M208 67 C208 73.0751 203.0751 78 197 78 C190.9249 78 186 73.0751 186 67 C186 60.9249 190.9249 56 197 56 C203.0751 56 208 60.9249 208 67 Z"
      /></clipPath
      ><clipPath clipPathUnits="userSpaceOnUse" id="clipPath8"
      ><path d="M134 82 L156 82 L156 104 L134 104 L134 82 Z"
      /></clipPath
      ><clipPath clipPathUnits="userSpaceOnUse" id="clipPath9"
      ><path d="M104 93 C104 99.0751 99.0751 104 93 104 C86.9249 104 82 99.0751 82 93 C82 86.9249 86.9249 82 93 82 C99.0751 82 104 86.9249 104 93 Z"
      /></clipPath
      ><clipPath clipPathUnits="userSpaceOnUse" id="clipPath10"
      ><path d="M52 93 C52 99.0751 47.0751 104 41 104 C34.9249 104 30 99.0751 30 93 C30 86.9249 34.9249 82 41 82 C47.0751 82 52 86.9249 52 93 Z"
      /></clipPath
      ><clipPath clipPathUnits="userSpaceOnUse" id="clipPath11"
      ><path d="M134 30 L156 30 L156 52 L134 52 L134 30 Z"
      /></clipPath
      ><clipPath clipPathUnits="userSpaceOnUse" id="clipPath12"
      ><path d="M104 41 C104 47.0751 99.0751 52 93 52 C86.9249 52 82 47.0751 82 41 C82 34.9249 86.9249 30 93 30 C99.0751 30 104 34.9249 104 41 Z"
      /></clipPath
      ><clipPath clipPathUnits="userSpaceOnUse" id="clipPath13"
      ><path d="M52 41 C52 47.0751 47.0751 52 41 52 C34.9249 52 30 47.0751 30 41 C30 34.9249 34.9249 30 41 30 C47.0751 30 52 34.9249 52 41 Z"
      /></clipPath
      ><clipPath clipPathUnits="userSpaceOnUse" id="clipPath14"
      ><path style="fill-rule:evenodd;" d="M353 65 L342 43 L364 43 Z"
      /></clipPath
    ></defs
    ><g style="fill:white; text-rendering:optimizeSpeed; stroke:white;"
    ><rect x="0" width="446" height="186" y="0" style="stroke:none;"
      /><polygon style="fill:none; stroke:black;" points=" 405 106 353 106"
      /><path d="M405 95 C399.5 100.5 410.5 111.5 405 117" style="fill:none; stroke:black;"
      /><polygon style="fill:none; stroke:black;" points=" 353 106 301 106"
      /><polygon style="fill:none; stroke:black;" points=" 353 106 353 54"
      /><rect x="342" y="95" width="22" style="clip-path:url(#clipPath1); stroke:none;" height="22"
      /><rect x="342" y="95" width="22" style="clip-path:url(#clipPath1); fill:rgb(0,144,188); stroke:none;" height="22"
      /><rect x="342" y="95" width="22" style="clip-path:url(#clipPath1); fill:none; stroke:black;" height="22"
      /><rect x="342" y="95" width="22" style="fill:none; stroke:black;" height="22"
      /><polygon style="fill:none; stroke:black;" points=" 301 106 249 106"
      /><rect x="290" y="95" width="22" style="clip-path:url(#clipPath2); stroke:none;" height="22"
      /><rect x="290" y="95" width="22" style="clip-path:url(#clipPath2); fill:rgb(0,144,188); stroke:none;" height="22"
      /><rect x="290" y="95" width="22" style="clip-path:url(#clipPath2); fill:none; stroke:black;" height="22"
      /><rect x="290" y="95" width="22" style="fill:none; stroke:black;" height="22"
      /><polygon style="fill:none; stroke:black;" points=" 249 106 197 145"
      /><polygon style="fill:none; stroke:black;" points=" 249 106 197 67"
      /><circle style="clip-path:url(#clipPath3); stroke:none;" r="11" cx="249" cy="106"
      /><rect x="238" y="95" width="22" style="clip-path:url(#clipPath3); fill:rgb(0,166,81); stroke:none;" height="22"
      /><rect x="238" y="95" width="22" style="clip-path:url(#clipPath3); fill:none; stroke:black;" height="22"
      /><circle style="fill:none; stroke:black;" r="11" cx="249" cy="106"
      /><polygon style="fill:none; stroke:black;" points=" 197 145 145 145"
      /><circle style="clip-path:url(#clipPath4); stroke:none;" r="11" cx="197" cy="145"
      /><rect x="186" y="134" width="22" style="clip-path:url(#clipPath4); fill:rgb(0,166,81); stroke:none;" height="22"
      /><rect x="186" y="134" width="22" style="clip-path:url(#clipPath4); fill:none; stroke:black;" height="22"
      /><circle style="fill:none; stroke:black;" r="11" cx="197" cy="145"
      /><polygon style="fill:none; stroke:black;" points=" 145 145 93 145"
      /><rect x="134" y="134" width="22" style="clip-path:url(#clipPath5); stroke:none;" height="22"
      /><rect x="134" y="134" width="22" style="clip-path:url(#clipPath5); fill:rgb(0,144,188); stroke:none;" height="22"
      /><rect x="134" y="134" width="22" style="clip-path:url(#clipPath5); fill:none; stroke:black;" height="22"
      /><rect x="134" y="134" width="22" style="fill:none; stroke:black;" height="22"
      /><circle style="clip-path:url(#clipPath6); stroke:none;" r="11" cx="93" cy="145"
      /><rect x="82" y="134" width="22" style="clip-path:url(#clipPath6); fill:rgb(255,212,0); stroke:none;" height="22"
      /><rect x="82" y="134" width="22" style="clip-path:url(#clipPath6); fill:none; stroke:black;" height="22"
      /><circle style="fill:none; stroke:black;" r="11" cx="93" cy="145"
      /><rect x="122" y="148" width="7" style="stroke:none;" height="9"
    /></g
    ><g style="font-family:'Serif'; text-rendering:optimizeSpeed; "
    ><path style="stroke:none;" d="M123 153.5156 L125.9531 149.2656 L125.9531 153.5156 L123 153.5156 ZM128.2812 153.5156 L126.8594 153.5156 L126.8594 148.125 L126.2344 148.125 L122.3438 153.6406 L122.3438 154.1875 L125.9531 154.1875 L125.9531 157 L126.8594 157 L126.8594 154.1875 L128.2812 154.1875 L128.2812 153.5156 Z"
      /><rect x="109" y="146" width="6" style="fill:white; stroke:none;" height="13"
      /><path style="stroke:none;" d="M111.0938 152.2031 C111.0938 150.6562 111.75 149.8125 112.7969 149.8125 C113.7188 149.8125 114.2656 150.4531 114.2656 151.5156 C114.2656 152.7188 113.5 153.4375 112.1875 153.7031 L112.2969 154.3125 C114.2188 154.2344 114.9375 155.2188 114.9375 156.4375 C114.9375 157.625 114.2344 158.4219 112.9531 158.4219 C112.25 158.4219 111.6562 158.1562 111.0938 157.7188 L111.0938 152.2031 ZM110.2031 158.9062 L110.1094 161.375 L110.2656 161.4844 L111.1562 161.2656 L111.0156 158.0938 C111.5469 158.8438 112.3594 159.1719 113.1719 159.1719 C114.5625 159.1719 115.8594 158.2188 115.8594 156.4844 C115.8594 154.9531 114.875 154.1094 113.125 154 C114.5625 153.6094 115.1875 152.4531 115.1875 151.4844 C115.1875 150.0938 114.1562 149.3125 112.9062 149.3125 C111.2969 149.3125 110.2188 150.5469 110.2188 152.5156 L110.2031 158.9062 Z"
      /><rect x="175" y="148" width="6" style="fill:white; stroke:none;" height="9"
      /><path style="stroke:none;" d="M176.4219 156.0938 C177.0781 155.375 177.7031 154.7188 178.0312 154.3438 C179.9219 152.3125 180.5312 151.4688 180.5312 150.3594 C180.5312 149.0156 179.7812 148.0781 178.1562 148.0781 C176.9062 148.0781 175.7969 148.7031 175.5938 149.9688 C175.7188 150.2031 175.9062 150.3438 176.1562 150.3438 C176.4688 150.3438 176.6562 150.1094 176.7969 149.5938 L177.0938 148.6719 C177.3906 148.5938 177.6562 148.5625 177.8906 148.5625 C178.9219 148.5625 179.5469 149.3125 179.5469 150.4219 C179.5469 151.4375 178.9844 152.4219 177.7031 153.9062 C177.125 154.5781 176.3906 155.4375 175.6406 156.2812 L175.6406 157 L180.9219 157 L180.9219 156.0938 L176.4219 156.0938 Z"
      /><rect x="161" y="146" width="6" style="fill:white; stroke:none;" height="13"
      /><path style="stroke:none;" d="M163.0938 152.2031 C163.0938 150.6562 163.75 149.8125 164.7969 149.8125 C165.7188 149.8125 166.2656 150.4531 166.2656 151.5156 C166.2656 152.7188 165.5 153.4375 164.1875 153.7031 L164.2969 154.3125 C166.2188 154.2344 166.9375 155.2188 166.9375 156.4375 C166.9375 157.625 166.2344 158.4219 164.9531 158.4219 C164.25 158.4219 163.6562 158.1562 163.0938 157.7188 L163.0938 152.2031 ZM162.2031 158.9062 L162.1094 161.375 L162.2656 161.4844 L163.1562 161.2656 L163.0156 158.0938 C163.5469 158.8438 164.3594 159.1719 165.1719 159.1719 C166.5625 159.1719 167.8594 158.2188 167.8594 156.4844 C167.8594 154.9531 166.875 154.1094 165.125 154 C166.5625 153.6094 167.1875 152.4531 167.1875 151.4844 C167.1875 150.0938 166.1562 149.3125 164.9062 149.3125 C163.2969 149.3125 162.2188 150.5469 162.2188 152.5156 L162.2031 158.9062 Z"
      /><polygon style="fill:none;" points=" 197 67 145 93"
      /><polygon style="fill:none;" points=" 197 67 145 41"
      /><circle style="fill:white; clip-path:url(#clipPath7); stroke:none;" r="11" cx="197" cy="67"
      /><rect x="186" y="56" width="22" style="clip-path:url(#clipPath7); fill:rgb(0,166,81); stroke:none;" height="22"
      /><rect x="186" y="56" width="22" style="fill:none; clip-path:url(#clipPath7);" height="22"
      /><circle r="11" style="fill:none;" cx="197" cy="67"
      /><polygon style="fill:none;" points=" 145 93 93 93"
      /><rect x="134" y="82" width="22" style="clip-path:url(#clipPath8); fill:white; stroke:none;" height="22"
      /><rect x="134" y="82" width="22" style="clip-path:url(#clipPath8); fill:rgb(0,144,188); stroke:none;" height="22"
      /><rect x="134" y="82" width="22" style="fill:none; clip-path:url(#clipPath8);" height="22"
      /><rect x="134" width="22" height="22" y="82" style="fill:none;"
      /><polygon style="fill:none;" points=" 93 93 41 93"
      /><circle style="fill:white; clip-path:url(#clipPath9); stroke:none;" r="11" cx="93" cy="93"
      /><rect x="82" y="82" width="22" style="clip-path:url(#clipPath9); fill:rgb(255,212,0); stroke:none;" height="22"
      /><rect x="82" y="82" width="22" style="fill:none; clip-path:url(#clipPath9);" height="22"
      /><circle r="11" style="fill:none;" cx="93" cy="93"
      /><circle style="fill:white; clip-path:url(#clipPath10); stroke:none;" r="11" cx="41" cy="93"
      /><rect x="30" y="82" width="22" style="clip-path:url(#clipPath10); fill:rgb(255,212,0); stroke:none;" height="22"
      /><rect x="30" y="82" width="22" style="fill:none; clip-path:url(#clipPath10);" height="22"
      /><circle r="11" style="fill:none;" cx="41" cy="93"
      /><rect x="71" y="96" width="6" style="fill:white; stroke:none;" height="10"
      /><path style="stroke:none;" d="M73.2344 97.6562 C73.5156 97.5938 73.7656 97.5625 74.0156 97.5625 C75.0625 97.5625 75.6719 98.1719 75.6719 99.2656 C75.6719 100.4375 74.9062 101.1094 73.7031 101.1094 L73.1875 101.1094 L73.1875 101.6406 L73.7969 101.6406 C75.2188 101.6406 75.9062 102.4219 75.9062 103.6406 C75.9062 104.8438 75.1719 105.6875 73.875 105.6875 C73.6094 105.6875 73.3125 105.6562 73.0156 105.5625 L72.7812 104.8125 C72.625 104.2812 72.5 104.0469 72.1406 104.0469 C71.8906 104.0469 71.7031 104.1719 71.5781 104.4219 C71.8438 105.6406 72.7812 106.1719 74.0312 106.1719 C75.7188 106.1719 76.875 105.125 76.875 103.7031 C76.875 102.5 76.2031 101.625 74.7969 101.375 C75.9531 101.0156 76.6094 100.2031 76.6094 99.2031 C76.6094 97.9219 75.6719 97.0781 74.1875 97.0781 C73.0469 97.0781 72.0625 97.5938 71.7969 98.6875 C71.9062 99 72.1094 99.1094 72.3594 99.1094 C72.7344 99.1094 72.8906 98.8906 73 98.4062 L73.2344 97.6562 Z"
      /><rect x="56" y="97" width="8" style="fill:white; stroke:none;" height="8"
      /><path style="stroke:none;" d="M60.9844 102.7031 C60.9375 103.8906 60.1562 104.6562 59.3125 104.6562 C58.2656 104.6562 57.5 103.6875 57.5 101.7188 C57.5 100.2812 58.1562 99.1562 59.3438 99.1562 C60.1406 99.1562 60.7812 99.6875 61.0938 100.6406 L60.9844 102.7031 ZM62.9062 104.2812 C62.7344 104.375 62.5469 104.4219 62.3438 104.4219 C61.9531 104.4219 61.75 104.2188 61.75 103.4219 C61.75 102.4844 61.9688 100.5312 62.1875 98.8281 L62.0312 98.7188 L61.2344 98.9219 L61.1406 99.7969 C60.7812 99.0312 60.1562 98.6562 59.3906 98.6562 C58.0469 98.6562 56.5625 99.8438 56.5625 101.9531 C56.5625 104.0938 57.7188 105.1719 59.1406 105.1719 C60.0156 105.1719 60.6875 104.8125 61.0938 103.9844 C61.2031 104.8594 61.5156 105.1719 62.0156 105.1719 C62.4688 105.1719 62.7969 104.9062 63.0156 104.5625 L62.9062 104.2812 Z"
      /><rect x="122" y="96" width="7" style="fill:white; stroke:none;" height="9"
      /><path style="stroke:none;" d="M123 101.5156 L125.9531 97.2656 L125.9531 101.5156 L123 101.5156 ZM128.2812 101.5156 L126.8594 101.5156 L126.8594 96.125 L126.2344 96.125 L122.3438 101.6406 L122.3438 102.1875 L125.9531 102.1875 L125.9531 105 L126.8594 105 L126.8594 102.1875 L128.2812 102.1875 L128.2812 101.5156 Z"
      /><rect x="109" y="94" width="6" style="fill:white; stroke:none;" height="13"
      /><path style="stroke:none;" d="M111.0938 100.2031 C111.0938 98.6562 111.75 97.8125 112.7969 97.8125 C113.7188 97.8125 114.2656 98.4531 114.2656 99.5156 C114.2656 100.7188 113.5 101.4375 112.1875 101.7031 L112.2969 102.3125 C114.2188 102.2344 114.9375 103.2188 114.9375 104.4375 C114.9375 105.625 114.2344 106.4219 112.9531 106.4219 C112.25 106.4219 111.6562 106.1562 111.0938 105.7188 L111.0938 100.2031 ZM110.2031 106.9062 L110.1094 109.375 L110.2656 109.4844 L111.1562 109.2656 L111.0156 106.0938 C111.5469 106.8438 112.3594 107.1719 113.1719 107.1719 C114.5625 107.1719 115.8594 106.2188 115.8594 104.4844 C115.8594 102.9531 114.875 102.1094 113.125 102 C114.5625 101.6094 115.1875 100.4531 115.1875 99.4844 C115.1875 98.0938 114.1562 97.3125 112.9062 97.3125 C111.2969 97.3125 110.2188 98.5469 110.2188 100.5156 L110.2031 106.9062 Z"
      /><polygon style="fill:none;" points=" 145 41 93 41"
      /><rect x="134" y="30" width="22" style="clip-path:url(#clipPath11); fill:white; stroke:none;" height="22"
      /><rect x="134" y="30" width="22" style="clip-path:url(#clipPath11); fill:rgb(0,144,188); stroke:none;" height="22"
      /><rect x="134" y="30" width="22" style="fill:none; clip-path:url(#clipPath11);" height="22"
      /><rect x="134" width="22" height="22" y="30" style="fill:none;"
      /><polygon style="fill:none;" points=" 93 41 41 41"
      /><circle style="fill:white; clip-path:url(#clipPath12); stroke:none;" r="11" cx="93" cy="41"
      /><rect x="82" y="30" width="22" style="clip-path:url(#clipPath12); fill:rgb(255,212,0); stroke:none;" height="22"
      /><rect x="82" y="30" width="22" style="fill:none; clip-path:url(#clipPath12);" height="22"
      /><circle r="11" style="fill:none;" cx="93" cy="41"
      /><circle style="fill:white; clip-path:url(#clipPath13); stroke:none;" r="11" cx="41" cy="41"
      /><rect x="30" y="30" width="22" style="clip-path:url(#clipPath13); fill:rgb(255,212,0); stroke:none;" height="22"
      /><rect x="30" y="30" width="22" style="fill:none; clip-path:url(#clipPath13);" height="22"
      /><circle r="11" style="fill:none;" cx="41" cy="41"
      /><rect x="71" y="44" width="6" style="fill:white; stroke:none;" height="10"
      /><path style="stroke:none;" d="M73.2344 45.6562 C73.5156 45.5938 73.7656 45.5625 74.0156 45.5625 C75.0625 45.5625 75.6719 46.1719 75.6719 47.2656 C75.6719 48.4375 74.9062 49.1094 73.7031 49.1094 L73.1875 49.1094 L73.1875 49.6406 L73.7969 49.6406 C75.2188 49.6406 75.9062 50.4219 75.9062 51.6406 C75.9062 52.8438 75.1719 53.6875 73.875 53.6875 C73.6094 53.6875 73.3125 53.6562 73.0156 53.5625 L72.7812 52.8125 C72.625 52.2812 72.5 52.0469 72.1406 52.0469 C71.8906 52.0469 71.7031 52.1719 71.5781 52.4219 C71.8438 53.6406 72.7812 54.1719 74.0312 54.1719 C75.7188 54.1719 76.875 53.125 76.875 51.7031 C76.875 50.5 76.2031 49.625 74.7969 49.375 C75.9531 49.0156 76.6094 48.2031 76.6094 47.2031 C76.6094 45.9219 75.6719 45.0781 74.1875 45.0781 C73.0469 45.0781 72.0625 45.5938 71.7969 46.6875 C71.9062 47 72.1094 47.1094 72.3594 47.1094 C72.7344 47.1094 72.8906 46.8906 73 46.4062 L73.2344 45.6562 Z"
      /><rect x="56" y="45" width="8" style="fill:white; stroke:none;" height="8"
      /><path style="stroke:none;" d="M60.9844 50.7031 C60.9375 51.8906 60.1562 52.6562 59.3125 52.6562 C58.2656 52.6562 57.5 51.6875 57.5 49.7188 C57.5 48.2812 58.1562 47.1562 59.3438 47.1562 C60.1406 47.1562 60.7812 47.6875 61.0938 48.6406 L60.9844 50.7031 ZM62.9062 52.2812 C62.7344 52.375 62.5469 52.4219 62.3438 52.4219 C61.9531 52.4219 61.75 52.2188 61.75 51.4219 C61.75 50.4844 61.9688 48.5312 62.1875 46.8281 L62.0312 46.7188 L61.2344 46.9219 L61.1406 47.7969 C60.7812 47.0312 60.1562 46.6562 59.3906 46.6562 C58.0469 46.6562 56.5625 47.8438 56.5625 49.9531 C56.5625 52.0938 57.7188 53.1719 59.1406 53.1719 C60.0156 53.1719 60.6875 52.8125 61.0938 51.9844 C61.2031 52.8594 61.5156 53.1719 62.0156 53.1719 C62.4688 53.1719 62.7969 52.9062 63.0156 52.5625 L62.9062 52.2812 Z"
      /><rect x="122" y="44" width="7" style="fill:white; stroke:none;" height="9"
      /><path style="stroke:none;" d="M123 49.5156 L125.9531 45.2656 L125.9531 49.5156 L123 49.5156 ZM128.2812 49.5156 L126.8594 49.5156 L126.8594 44.125 L126.2344 44.125 L122.3438 49.6406 L122.3438 50.1875 L125.9531 50.1875 L125.9531 53 L126.8594 53 L126.8594 50.1875 L128.2812 50.1875 L128.2812 49.5156 Z"
      /><rect x="109" y="42" width="6" style="fill:white; stroke:none;" height="13"
      /><path style="stroke:none;" d="M111.0938 48.2031 C111.0938 46.6562 111.75 45.8125 112.7969 45.8125 C113.7188 45.8125 114.2656 46.4531 114.2656 47.5156 C114.2656 48.7188 113.5 49.4375 112.1875 49.7031 L112.2969 50.3125 C114.2188 50.2344 114.9375 51.2188 114.9375 52.4375 C114.9375 53.625 114.2344 54.4219 112.9531 54.4219 C112.25 54.4219 111.6562 54.1562 111.0938 53.7188 L111.0938 48.2031 ZM110.2031 54.9062 L110.1094 57.375 L110.2656 57.4844 L111.1562 57.2656 L111.0156 54.0938 C111.5469 54.8438 112.3594 55.1719 113.1719 55.1719 C114.5625 55.1719 115.8594 54.2188 115.8594 52.4844 C115.8594 50.9531 114.875 50.1094 113.125 50 C114.5625 49.6094 115.1875 48.4531 115.1875 47.4844 C115.1875 46.0938 114.1562 45.3125 112.9062 45.3125 C111.2969 45.3125 110.2188 46.5469 110.2188 48.5156 L110.2031 54.9062 Z"
      /><rect x="179" y="78" width="6" style="fill:white; stroke:none;" height="9"
      /><path style="stroke:none;" d="M180.4219 86.0938 C181.0781 85.375 181.7031 84.7188 182.0312 84.3438 C183.9219 82.3125 184.5312 81.4688 184.5312 80.3594 C184.5312 79.0156 183.7812 78.0781 182.1562 78.0781 C180.9062 78.0781 179.7969 78.7031 179.5938 79.9688 C179.7188 80.2031 179.9062 80.3438 180.1562 80.3438 C180.4688 80.3438 180.6562 80.1094 180.7969 79.5938 L181.0938 78.6719 C181.3906 78.5938 181.6562 78.5625 181.8906 78.5625 C182.9219 78.5625 183.5469 79.3125 183.5469 80.4219 C183.5469 81.4375 182.9844 82.4219 181.7031 83.9062 C181.125 84.5781 180.3906 85.4375 179.6406 86.2812 L179.6406 87 L184.9219 87 L184.9219 86.0938 L180.4219 86.0938 Z"
      /><rect x="163" y="84" width="6" style="fill:white; stroke:none;" height="13"
      /><path style="stroke:none;" d="M165.0938 90.2031 C165.0938 88.6562 165.75 87.8125 166.7969 87.8125 C167.7188 87.8125 168.2656 88.4531 168.2656 89.5156 C168.2656 90.7188 167.5 91.4375 166.1875 91.7031 L166.2969 92.3125 C168.2188 92.2344 168.9375 93.2188 168.9375 94.4375 C168.9375 95.625 168.2344 96.4219 166.9531 96.4219 C166.25 96.4219 165.6562 96.1562 165.0938 95.7188 L165.0938 90.2031 ZM164.2031 96.9062 L164.1094 99.375 L164.2656 99.4844 L165.1562 99.2656 L165.0156 96.0938 C165.5469 96.8438 166.3594 97.1719 167.1719 97.1719 C168.5625 97.1719 169.8594 96.2188 169.8594 94.4844 C169.8594 92.9531 168.875 92.1094 167.125 92 C168.5625 91.6094 169.1875 90.4531 169.1875 89.4844 C169.1875 88.0938 168.1562 87.3125 166.9062 87.3125 C165.2969 87.3125 164.2188 88.5469 164.2188 90.5156 L164.2031 96.9062 Z"
      /><rect x="172" y="60" width="6" style="fill:white; stroke:none;" height="10"
      /><path style="stroke:none;" d="M175.3438 69.6875 C174.2031 69.6875 173.5312 68.5 173.5312 66.2969 C173.5312 66.2188 173.5312 66.125 173.5312 66.0469 C174.0938 65.5 174.7188 65.3125 175.3438 65.3125 C176.3125 65.3125 176.9531 65.9844 176.9531 67.4531 C176.9531 68.9375 176.3125 69.6875 175.3438 69.6875 ZM177.5312 61.0781 C174.3438 61.4531 172.5625 63.7656 172.5625 66.4531 C172.5625 68.7812 173.6094 70.1719 175.3125 70.1719 C176.8438 70.1719 177.9219 69.1094 177.9219 67.2812 C177.9219 65.6875 176.9688 64.6562 175.5625 64.6562 C174.8281 64.6562 174.1406 64.9844 173.5781 65.5781 C173.7969 63.4062 175.0781 61.9688 177.5938 61.3906 L177.5312 61.0781 Z"
      /><rect x="156" y="50" width="6" style="fill:white; stroke:none;" height="13"
      /><path style="stroke:none;" d="M158.0938 56.2031 C158.0938 54.6562 158.75 53.8125 159.7969 53.8125 C160.7188 53.8125 161.2656 54.4531 161.2656 55.5156 C161.2656 56.7188 160.5 57.4375 159.1875 57.7031 L159.2969 58.3125 C161.2188 58.2344 161.9375 59.2188 161.9375 60.4375 C161.9375 61.625 161.2344 62.4219 159.9531 62.4219 C159.25 62.4219 158.6562 62.1562 158.0938 61.7188 L158.0938 56.2031 ZM157.2031 62.9062 L157.1094 65.375 L157.2656 65.4844 L158.1562 65.2656 L158.0156 62.0938 C158.5469 62.8438 159.3594 63.1719 160.1719 63.1719 C161.5625 63.1719 162.8594 62.2188 162.8594 60.4844 C162.8594 58.9531 161.875 58.1094 160.125 58 C161.5625 57.6094 162.1875 56.4531 162.1875 55.4844 C162.1875 54.0938 161.1562 53.3125 159.9062 53.3125 C158.2969 53.3125 157.2188 54.5469 157.2188 56.5156 L157.2031 62.9062 Z"
      /><rect x="233" y="120" width="6" style="fill:white; stroke:none;" height="10"
      /><path style="stroke:none;" d="M235.2344 121.6562 C235.5156 121.5938 235.7656 121.5625 236.0156 121.5625 C237.0625 121.5625 237.6719 122.1719 237.6719 123.2656 C237.6719 124.4375 236.9062 125.1094 235.7031 125.1094 L235.1875 125.1094 L235.1875 125.6406 L235.7969 125.6406 C237.2188 125.6406 237.9062 126.4219 237.9062 127.6406 C237.9062 128.8438 237.1719 129.6875 235.875 129.6875 C235.6094 129.6875 235.3125 129.6562 235.0156 129.5625 L234.7812 128.8125 C234.625 128.2812 234.5 128.0469 234.1406 128.0469 C233.8906 128.0469 233.7031 128.1719 233.5781 128.4219 C233.8438 129.6406 234.7812 130.1719 236.0312 130.1719 C237.7188 130.1719 238.875 129.125 238.875 127.7031 C238.875 126.5 238.2031 125.625 236.7969 125.375 C237.9531 125.0156 238.6094 124.2031 238.6094 123.2031 C238.6094 121.9219 237.6719 121.0781 236.1875 121.0781 C235.0469 121.0781 234.0625 121.5938 233.7969 122.6875 C233.9062 123 234.1094 123.1094 234.3594 123.1094 C234.7344 123.1094 234.8906 122.8906 235 122.4062 L235.2344 121.6562 Z"
      /><rect x="215" y="134" width="8" style="fill:white; stroke:none;" height="8"
      /><path style="stroke:none;" d="M219.9844 139.7031 C219.9375 140.8906 219.1562 141.6562 218.3125 141.6562 C217.2656 141.6562 216.5 140.6875 216.5 138.7188 C216.5 137.2812 217.1562 136.1562 218.3438 136.1562 C219.1406 136.1562 219.7812 136.6875 220.0938 137.6406 L219.9844 139.7031 ZM221.9062 141.2812 C221.7344 141.375 221.5469 141.4219 221.3438 141.4219 C220.9531 141.4219 220.75 141.2188 220.75 140.4219 C220.75 139.4844 220.9688 137.5312 221.1875 135.8281 L221.0312 135.7188 L220.2344 135.9219 L220.1406 136.7969 C219.7812 136.0312 219.1562 135.6562 218.3906 135.6562 C217.0469 135.6562 215.5625 136.8438 215.5625 138.9531 C215.5625 141.0938 216.7188 142.1719 218.1406 142.1719 C219.0156 142.1719 219.6875 141.8125 220.0938 140.9844 C220.2031 141.8594 220.5156 142.1719 221.0156 142.1719 C221.4688 142.1719 221.7969 141.9062 222.0156 141.5625 L221.9062 141.2812 Z"
      /><rect x="223" y="94" width="6" style="fill:white; stroke:none;" height="10"
      /><path style="stroke:none;" d="M226.3438 103.6875 C225.2031 103.6875 224.5312 102.5 224.5312 100.2969 C224.5312 100.2188 224.5312 100.125 224.5312 100.0469 C225.0938 99.5 225.7188 99.3125 226.3438 99.3125 C227.3125 99.3125 227.9531 99.9844 227.9531 101.4531 C227.9531 102.9375 227.3125 103.6875 226.3438 103.6875 ZM228.5312 95.0781 C225.3438 95.4531 223.5625 97.7656 223.5625 100.4531 C223.5625 102.7812 224.6094 104.1719 226.3125 104.1719 C227.8438 104.1719 228.9219 103.1094 228.9219 101.2812 C228.9219 99.6875 227.9688 98.6562 226.5625 98.6562 C225.8281 98.6562 225.1406 98.9844 224.5781 99.5781 C224.7969 97.4062 226.0781 95.9688 228.5938 95.3906 L228.5312 95.0781 Z"
      /><rect x="205" y="82" width="8" style="fill:white; stroke:none;" height="8"
      /><path style="stroke:none;" d="M209.9844 87.7031 C209.9375 88.8906 209.1562 89.6562 208.3125 89.6562 C207.2656 89.6562 206.5 88.6875 206.5 86.7188 C206.5 85.2812 207.1562 84.1562 208.3438 84.1562 C209.1406 84.1562 209.7812 84.6875 210.0938 85.6406 L209.9844 87.7031 ZM211.9062 89.2812 C211.7344 89.375 211.5469 89.4219 211.3438 89.4219 C210.9531 89.4219 210.75 89.2188 210.75 88.4219 C210.75 87.4844 210.9688 85.5312 211.1875 83.8281 L211.0312 83.7188 L210.2344 83.9219 L210.1406 84.7969 C209.7812 84.0312 209.1562 83.6562 208.3906 83.6562 C207.0469 83.6562 205.5625 84.8438 205.5625 86.9531 C205.5625 89.0938 206.7188 90.1719 208.1406 90.1719 C209.0156 90.1719 209.6875 89.8125 210.0938 88.9844 C210.2031 89.8594 210.5156 90.1719 211.0156 90.1719 C211.4688 90.1719 211.7969 89.9062 212.0156 89.5625 L211.9062 89.2812 Z"
      /><rect x="278" y="109" width="7" style="fill:white; stroke:none;" height="9"
      /><path style="stroke:none;" d="M279 114.5156 L281.9531 110.2656 L281.9531 114.5156 L279 114.5156 ZM284.2812 114.5156 L282.8594 114.5156 L282.8594 109.125 L282.2344 109.125 L278.3438 114.6406 L278.3438 115.1875 L281.9531 115.1875 L281.9531 118 L282.8594 118 L282.8594 115.1875 L284.2812 115.1875 L284.2812 114.5156 Z"
      /><rect x="265" y="107" width="6" style="fill:white; stroke:none;" height="13"
      /><path style="stroke:none;" d="M267.0938 113.2031 C267.0938 111.6562 267.75 110.8125 268.7969 110.8125 C269.7188 110.8125 270.2656 111.4531 270.2656 112.5156 C270.2656 113.7188 269.5 114.4375 268.1875 114.7031 L268.2969 115.3125 C270.2188 115.2344 270.9375 116.2188 270.9375 117.4375 C270.9375 118.625 270.2344 119.4219 268.9531 119.4219 C268.25 119.4219 267.6562 119.1562 267.0938 118.7188 L267.0938 113.2031 ZM266.2031 119.9062 L266.1094 122.375 L266.2656 122.4844 L267.1562 122.2656 L267.0156 119.0938 C267.5469 119.8438 268.3594 120.1719 269.1719 120.1719 C270.5625 120.1719 271.8594 119.2188 271.8594 117.4844 C271.8594 115.9531 270.875 115.1094 269.125 115 C270.5625 114.6094 271.1875 113.4531 271.1875 112.4844 C271.1875 111.0938 270.1562 110.3125 268.9062 110.3125 C267.2969 110.3125 266.2188 111.5469 266.2188 113.5156 L266.2031 119.9062 Z"
      /><polygon style="fill:white; clip-path:url(#clipPath14); stroke:none;" points=" 353 65 342 43 364 43"
      /><rect x="342" y="43" width="22" style="clip-path:url(#clipPath14); fill:rgb(237,28,36); stroke:none;" height="22"
      /><rect x="342" y="43" width="22" style="fill:none; clip-path:url(#clipPath14);" height="22"
      /><polygon style="fill:none;" points=" 353 65 342 43 364 43"
      /><rect x="330" y="109" width="7" style="fill:white; stroke:none;" height="9"
      /><path style="stroke:none;" d="M331 114.5156 L333.9531 110.2656 L333.9531 114.5156 L331 114.5156 ZM336.2812 114.5156 L334.8594 114.5156 L334.8594 109.125 L334.2344 109.125 L330.3438 114.6406 L330.3438 115.1875 L333.9531 115.1875 L333.9531 118 L334.8594 118 L334.8594 115.1875 L336.2812 115.1875 L336.2812 114.5156 Z"
      /><rect x="317" y="107" width="6" style="fill:white; stroke:none;" height="13"
      /><path style="stroke:none;" d="M319.0938 113.2031 C319.0938 111.6562 319.75 110.8125 320.7969 110.8125 C321.7188 110.8125 322.2656 111.4531 322.2656 112.5156 C322.2656 113.7188 321.5 114.4375 320.1875 114.7031 L320.2969 115.3125 C322.2188 115.2344 322.9375 116.2188 322.9375 117.4375 C322.9375 118.625 322.2344 119.4219 320.9531 119.4219 C320.25 119.4219 319.6562 119.1562 319.0938 118.7188 L319.0938 113.2031 ZM318.2031 119.9062 L318.1094 122.375 L318.2656 122.4844 L319.1562 122.2656 L319.0156 119.0938 C319.5469 119.8438 320.3594 120.1719 321.1719 120.1719 C322.5625 120.1719 323.8594 119.2188 323.8594 117.4844 C323.8594 115.9531 322.875 115.1094 321.125 115 C322.5625 114.6094 323.1875 113.4531 323.1875 112.4844 C323.1875 111.0938 322.1562 110.3125 320.9062 110.3125 C319.2969 110.3125 318.2188 111.5469 318.2188 113.5156 L318.2031 119.9062 Z"
      /><rect x="342" y="82" width="6" style="fill:white; stroke:none;" height="10"
      /><path style="stroke:none;" d="M345.3438 91.6875 C344.2031 91.6875 343.5312 90.5 343.5312 88.2969 C343.5312 88.2188 343.5312 88.125 343.5312 88.0469 C344.0938 87.5 344.7188 87.3125 345.3438 87.3125 C346.3125 87.3125 346.9531 87.9844 346.9531 89.4531 C346.9531 90.9375 346.3125 91.6875 345.3438 91.6875 ZM347.5312 83.0781 C344.3438 83.4531 342.5625 85.7656 342.5625 88.4531 C342.5625 90.7812 343.6094 92.1719 345.3125 92.1719 C346.8438 92.1719 347.9219 91.1094 347.9219 89.2812 C347.9219 87.6875 346.9688 86.6562 345.5625 86.6562 C344.8281 86.6562 344.1406 86.9844 343.5781 87.5781 C343.7969 85.4062 345.0781 83.9688 347.5938 83.3906 L347.5312 83.0781 Z"
      /><rect x="341" y="69" width="8" style="fill:white; stroke:none;" height="8"
      /><path style="stroke:none;" d="M345.9844 74.7031 C345.9375 75.8906 345.1562 76.6562 344.3125 76.6562 C343.2656 76.6562 342.5 75.6875 342.5 73.7188 C342.5 72.2812 343.1562 71.1562 344.3438 71.1562 C345.1406 71.1562 345.7812 71.6875 346.0938 72.6406 L345.9844 74.7031 ZM347.9062 76.2812 C347.7344 76.375 347.5469 76.4219 347.3438 76.4219 C346.9531 76.4219 346.75 76.2188 346.75 75.4219 C346.75 74.4844 346.9688 72.5312 347.1875 70.8281 L347.0312 70.7188 L346.2344 70.9219 L346.1406 71.7969 C345.7812 71.0312 345.1562 70.6562 344.3906 70.6562 C343.0469 70.6562 341.5625 71.8438 341.5625 73.9531 C341.5625 76.0938 342.7188 77.1719 344.1406 77.1719 C345.0156 77.1719 345.6875 76.8125 346.0938 75.9844 C346.2031 76.8594 346.5156 77.1719 347.0156 77.1719 C347.4688 77.1719 347.7969 76.9062 348.0156 76.5625 L347.9062 76.2812 Z"
      /><rect x="369" y="109" width="5" style="fill:white; stroke:none;" height="10"
      /><path style="stroke:none;" d="M370.8906 117.6875 C370.4844 117.6875 370.1562 118.0469 370.1562 118.4219 C370.1562 118.8125 370.4844 119.1562 370.8906 119.1562 C371.2969 119.1562 371.6406 118.8125 371.6406 118.4219 C371.6406 118.0469 371.2969 117.6875 370.8906 117.6875 ZM372.4688 111.5781 C372.7188 111.8906 372.875 112.2656 372.8906 112.6562 C372.8906 113.1875 372.625 113.5 372.0312 113.7656 L371.4062 114.0156 C370.6406 114.3125 370.3906 114.5469 370.3906 114.9375 C370.3906 115.1094 370.4531 115.3438 370.5781 115.8125 L370.7344 116.3438 L371.1094 116.3438 L371.0938 115.5312 C371.0938 115.0938 371.2031 114.9688 371.7812 114.7344 L372.2031 114.5625 C373.0312 114.2188 373.4531 113.6875 373.4531 112.8438 C373.4531 111.1562 371.6562 110.1875 370.5 110.0312 C370.1094 110.125 369.9062 110.2969 369.9062 110.6406 C369.9062 110.9375 370.0625 111.1562 370.7188 111.2656 L372.4688 111.5781 Z"
    /></g
  ></g
></svg
>
