<?xml version="1.0"?>
<!DOCTYPE svg PUBLIC '-//W3C//DTD SVG 1.0//EN'
          'http://www.w3.org/TR/2001/REC-SVG-20010904/DTD/svg10.dtd'>
<svg xmlns:xlink="http://www.w3.org/1999/xlink" style="fill-opacity:1; color-rendering:auto; color-interpolation:auto; text-rendering:auto; stroke:black; stroke-linecap:square; stroke-miterlimit:10; shape-rendering:auto; stroke-opacity:1; fill:black; stroke-dasharray:none; font-weight:normal; stroke-width:1; font-family:'Dialog'; font-style:normal; stroke-linejoin:miter; font-size:12px; stroke-dashoffset:0; image-rendering:auto;" viewBox="0 0 243 105" xmlns="http://www.w3.org/2000/svg"
><!--Generated by the Batik Graphics2D SVG Generator--><defs id="genericDefs"
  /><g
  ><defs id="defs1"
    ><clipPath clipPathUnits="userSpaceOnUse" id="clipPath1"
      ><path style="fill-rule:evenodd;" d="M161 41 L155 48 L144 48 L139 41 L144 33 L155 33 L161 41 Z"
      /></clipPath
      ><clipPath clipPathUnits="userSpaceOnUse" id="clipPath2"
      ><path style="fill-rule:evenodd;" d="M95 30 L106 52 L84 52 Z"
      /></clipPath
      ><clipPath clipPathUnits="userSpaceOnUse" id="clipPath3"
      ><path style="fill-rule:evenodd;" d="M41 30 L52 52 L30 52 Z"
      /></clipPath
    ></defs
    ><g style="fill:white; text-rendering:optimizeSpeed; stroke:white;"
    ><rect x="0" width="243" height="105" y="0" style="stroke:none;"
      /><polygon style="fill:none; stroke:black;" points=" 202 41 150 41"
      /><path d="M202 30 C196.5 35.5 207.5 46.5 202 52" style="fill:none; stroke:black;"
      /><polygon style="fill:none; stroke:black;" points=" 150 41 95 41"
      /><polygon style="clip-path:url(#clipPath1); stroke:none;" points=" 161 41 155 48 144 48 139 41 144 33 155 33 161 41"
      /><rect x="139" y="30" width="22" style="clip-path:url(#clipPath1); stroke:none;" height="22"
      /><rect x="139" y="30" width="22" style="clip-path:url(#clipPath1); fill:none; stroke:black;" height="22"
      /><polygon style="fill:none; stroke:black;" points=" 161 41 155 48 144 48 139 41 144 33 155 33 161 41"
      /><polygon style="fill:none; stroke:black;" points=" 95 41 41 41"
      /><polygon style="clip-path:url(#clipPath2); stroke:none;" points=" 95 30 106 52 84 52"
      /><rect x="84" y="30" width="22" style="clip-path:url(#clipPath2); fill:rgb(0,166,81); stroke:none;" height="22"
      /><rect x="84" y="30" width="22" style="clip-path:url(#clipPath2); fill:none; stroke:black;" height="22"
      /><polygon style="fill:none; stroke:black;" points=" 95 30 106 52 84 52"
      /><rect x="82" y="58" width="25" style="stroke:none;" height="10"
    /></g
    ><g style="text-rendering:optimizeSpeed; font-size:14px; font-family:'SansSerif';"
    ><path style="stroke:none;" d="M85.7031 69.1875 C87.5156 69.1875 88.9844 68.0938 88.9844 66.25 C88.9844 64.8594 88.0156 63.9375 86.8125 63.6562 L86.8125 63.5938 C87.8906 63.1875 88.6406 62.3594 88.6406 61.125 C88.6406 59.5 87.375 58.5469 85.6562 58.5469 C84.4688 58.5469 83.5469 59.0625 82.7812 59.7812 L83.4688 60.5938 C84.0469 60 84.7656 59.5938 85.5938 59.5938 C86.6562 59.5938 87.3281 60.2344 87.3281 61.2188 C87.3281 62.3281 86.6094 63.1719 84.4844 63.1719 L84.4844 64.1562 C86.8594 64.1562 87.6875 64.9844 87.6875 66.2031 C87.6875 67.3906 86.8125 68.125 85.5938 68.125 C84.4375 68.125 83.6562 67.5781 83.0469 66.9375 L82.4062 67.7812 C83.0781 68.5156 84.0938 69.1875 85.7031 69.1875 ZM91.1762 69 L92.3481 69 L92.3481 63.3125 C92.3481 62.4375 92.2543 61.1875 92.1918 60.2969 L92.2543 60.2969 L93.0668 62.625 L95.0043 67.9688 L95.8793 67.9688 L97.8168 62.625 L98.6293 60.2969 L98.6918 60.2969 C98.6137 61.1875 98.52 62.4375 98.52 63.3125 L98.52 69 L99.7387 69 L99.7387 58.7188 L98.1762 58.7188 L96.2075 64.2188 C95.9731 64.9375 95.7543 65.6562 95.5043 66.375 L95.4418 66.375 C95.1918 65.6562 94.9575 64.9375 94.7075 64.2188 L92.7387 58.7188 L91.1762 58.7188 L91.1762 69 ZM105.4973 69.1875 C106.5285 69.1875 107.341 68.8281 108.0129 68.3906 L107.5442 67.5625 C106.9973 67.9375 106.3879 68.1562 105.6535 68.1562 C104.2004 68.1562 103.216 67.125 103.1223 65.5 L108.2473 65.5 C108.2785 65.3125 108.3098 65.0469 108.3098 64.7656 C108.3098 62.6094 107.216 61.2031 105.2785 61.2031 C103.5129 61.2031 101.8567 62.7344 101.8567 65.2031 C101.8567 67.7188 103.4817 69.1875 105.4973 69.1875 ZM103.1067 64.5781 C103.2629 63.0938 104.216 62.2188 105.2942 62.2188 C106.4817 62.2188 107.1848 63.0469 107.1848 64.5781 L103.1067 64.5781 Z"
    /></g
    ><g style="fill:white; text-rendering:optimizeSpeed; stroke:white;"
    ><polygon style="stroke:none; clip-path:url(#clipPath3);" points=" 41 30 52 52 30 52"
      /><rect x="30" y="30" width="22" style="clip-path:url(#clipPath3); fill:rgb(143,204,233); stroke:none;" height="22"
      /><rect x="30" y="30" width="22" style="clip-path:url(#clipPath3); fill:none; stroke:black;" height="22"
      /><polygon style="fill:none; stroke:black;" points=" 41 30 52 52 30 52"
    /></g
    ><g style="text-rendering:optimizeSpeed; font-size:10px; font-family:'SansSerif';"
    ><path style="stroke:none;" d="M39 44 L43.125 44 L43.125 43.2031 L39.9375 43.2031 L39.9375 36.6562 L39 36.6562 L39 44 Z"
    /></g
    ><g style="fill:white; text-rendering:optimizeSpeed; font-family:'Serif'; stroke:white;"
    ><rect x="71" width="5" height="10" y="44" style="stroke:none;"
      /><path d="M72.8906 52.6875 C72.4844 52.6875 72.1562 53.0469 72.1562 53.4219 C72.1562 53.8125 72.4844 54.1562 72.8906 54.1562 C73.2969 54.1562 73.6406 53.8125 73.6406 53.4219 C73.6406 53.0469 73.2969 52.6875 72.8906 52.6875 ZM74.4688 46.5781 C74.7188 46.8906 74.875 47.2656 74.8906 47.6562 C74.8906 48.1875 74.625 48.5 74.0312 48.7656 L73.4062 49.0156 C72.6406 49.3125 72.3906 49.5469 72.3906 49.9375 C72.3906 50.1094 72.4531 50.3438 72.5781 50.8125 L72.7344 51.3438 L73.1094 51.3438 L73.0938 50.5312 C73.0938 50.0938 73.2031 49.9688 73.7812 49.7344 L74.2031 49.5625 C75.0312 49.2188 75.4531 48.6875 75.4531 47.8438 C75.4531 46.1562 73.6562 45.1875 72.5 45.0312 C72.1094 45.125 71.9062 45.2969 71.9062 45.6406 C71.9062 45.9375 72.0625 46.1562 72.7188 46.2656 L74.4688 46.5781 Z" style="fill:black; stroke:none;"
      /><rect x="57" width="5" height="10" y="44" style="stroke:none;"
      /><path d="M58.8906 52.6875 C58.4844 52.6875 58.1562 53.0469 58.1562 53.4219 C58.1562 53.8125 58.4844 54.1562 58.8906 54.1562 C59.2969 54.1562 59.6406 53.8125 59.6406 53.4219 C59.6406 53.0469 59.2969 52.6875 58.8906 52.6875 ZM60.4688 46.5781 C60.7188 46.8906 60.875 47.2656 60.8906 47.6562 C60.8906 48.1875 60.625 48.5 60.0312 48.7656 L59.4062 49.0156 C58.6406 49.3125 58.3906 49.5469 58.3906 49.9375 C58.3906 50.1094 58.4531 50.3438 58.5781 50.8125 L58.7344 51.3438 L59.1094 51.3438 L59.0938 50.5312 C59.0938 50.0938 59.2031 49.9688 59.7812 49.7344 L60.2031 49.5625 C61.0312 49.2188 61.4531 48.6875 61.4531 47.8438 C61.4531 46.1562 59.6562 45.1875 58.5 45.0312 C58.1094 45.125 57.9062 45.2969 57.9062 45.6406 C57.9062 45.9375 58.0625 46.1562 58.7188 46.2656 L60.4688 46.5781 Z" style="fill:black; stroke:none;"
      /><rect x="114" width="5" height="10" y="44" style="stroke:none;"
      /><path d="M115.8906 52.6875 C115.4844 52.6875 115.1562 53.0469 115.1562 53.4219 C115.1562 53.8125 115.4844 54.1562 115.8906 54.1562 C116.2969 54.1562 116.6406 53.8125 116.6406 53.4219 C116.6406 53.0469 116.2969 52.6875 115.8906 52.6875 ZM117.4688 46.5781 C117.7188 46.8906 117.875 47.2656 117.8906 47.6562 C117.8906 48.1875 117.625 48.5 117.0312 48.7656 L116.4062 49.0156 C115.6406 49.3125 115.3906 49.5469 115.3906 49.9375 C115.3906 50.1094 115.4531 50.3438 115.5781 50.8125 L115.7344 51.3438 L116.1094 51.3438 L116.0938 50.5312 C116.0938 50.0938 116.2031 49.9688 116.7812 49.7344 L117.2031 49.5625 C118.0312 49.2188 118.4531 48.6875 118.4531 47.8438 C118.4531 46.1562 116.6562 45.1875 115.5 45.0312 C115.1094 45.125 114.9062 45.2969 114.9062 45.6406 C114.9062 45.9375 115.0625 46.1562 115.7188 46.2656 L117.4688 46.5781 Z" style="fill:black; stroke:none;"
      /><rect x="166" width="5" height="10" y="44" style="stroke:none;"
      /><path d="M167.8906 52.6875 C167.4844 52.6875 167.1562 53.0469 167.1562 53.4219 C167.1562 53.8125 167.4844 54.1562 167.8906 54.1562 C168.2969 54.1562 168.6406 53.8125 168.6406 53.4219 C168.6406 53.0469 168.2969 52.6875 167.8906 52.6875 ZM169.4688 46.5781 C169.7188 46.8906 169.875 47.2656 169.8906 47.6562 C169.8906 48.1875 169.625 48.5 169.0312 48.7656 L168.4062 49.0156 C167.6406 49.3125 167.3906 49.5469 167.3906 49.9375 C167.3906 50.1094 167.4531 50.3438 167.5781 50.8125 L167.7344 51.3438 L168.1094 51.3438 L168.0938 50.5312 C168.0938 50.0938 168.2031 49.9688 168.7812 49.7344 L169.2031 49.5625 C170.0312 49.2188 170.4531 48.6875 170.4531 47.8438 C170.4531 46.1562 168.6562 45.1875 167.5 45.0312 C167.1094 45.125 166.9062 45.2969 166.9062 45.6406 C166.9062 45.9375 167.0625 46.1562 167.7188 46.2656 L169.4688 46.5781 Z" style="fill:black; stroke:none;"
    /></g
  ></g
></svg
>
