<?xml version="1.0"?>
<!DOCTYPE svg PUBLIC '-//W3C//DTD SVG 1.0//EN'
          'http://www.w3.org/TR/2001/REC-SVG-20010904/DTD/svg10.dtd'>
<svg xmlns:xlink="http://www.w3.org/1999/xlink" style="fill-opacity:1; color-rendering:auto; color-interpolation:auto; text-rendering:auto; stroke:black; stroke-linecap:square; stroke-miterlimit:10; shape-rendering:auto; stroke-opacity:1; fill:black; stroke-dasharray:none; font-weight:normal; stroke-width:1; font-family:'Dialog'; font-style:normal; stroke-linejoin:miter; font-size:12px; stroke-dashoffset:0; image-rendering:auto;" viewBox="0 0 150 261" xmlns="http://www.w3.org/2000/svg"
><!--Generated by the Batik Graphics2D SVG Generator--><defs id="genericDefs"
  /><g
  ><defs id="defs1"
    ><clipPath clipPathUnits="userSpaceOnUse" id="clipPath1"
      ><path style="fill-rule:evenodd;" d="M65 186 L76 197 L65 208 L54 197 Z"
      /></clipPath
      ><clipPath clipPathUnits="userSpaceOnUse" id="clipPath2"
      ><path d="M76 145 C76 151.0751 71.0751 156 65 156 C58.9249 156 54 151.0751 54 145 C54 138.9249 58.9249 134 65 134 C71.0751 134 76 138.9249 76 145 Z"
      /></clipPath
      ><clipPath clipPathUnits="userSpaceOnUse" id="clipPath3"
      ><path d="M54 82 L76 82 L76 104 L54 104 L54 82 Z"
      /></clipPath
      ><clipPath clipPathUnits="userSpaceOnUse" id="clipPath4"
      ><path d="M76 41 C76 47.0751 71.0751 52 65 52 C58.9249 52 54 47.0751 54 41 C54 34.9249 58.9249 30 65 30 C71.0751 30 76 34.9249 76 41 Z"
      /></clipPath
    ></defs
    ><g style="fill:white; text-rendering:optimizeSpeed; stroke:white;"
    ><rect x="0" width="150" height="261" y="0" style="stroke:none;"
      /><polygon style="clip-path:url(#clipPath1); stroke:none;" points=" 65 186 76 197 65 208 54 197"
      /><rect x="54" y="186" width="22" style="clip-path:url(#clipPath1); fill:rgb(165,67,153); stroke:none;" height="22"
      /><rect x="54" y="186" width="22" style="clip-path:url(#clipPath1); fill:none; stroke:black;" height="22"
      /><polygon style="fill:none; stroke:black;" points=" 65 186 76 197 65 208 54 197"
      /><rect x="47" y="214" width="35" style="stroke:none;" height="10"
    /></g
    ><g style="text-rendering:optimizeSpeed; font-size:14px; font-family:'SansSerif';"
    ><path style="stroke:none;" d="M48.2344 225 L53.8594 225 L53.8594 223.9375 L51.7969 223.9375 L51.7969 214.7188 L50.8281 214.7188 C50.2656 215.0625 49.6094 215.2969 48.6875 215.4688 L48.6875 216.2812 L50.5156 216.2812 L50.5156 223.9375 L48.2344 223.9375 L48.2344 225 ZM56.1762 225 L57.395 225 L57.395 219.6094 C57.395 218.5312 57.3012 217.4375 57.2543 216.4062 L57.3012 216.4062 L58.4106 218.5156 L62.145 225 L63.4731 225 L63.4731 214.7188 L62.2387 214.7188 L62.2387 220.0781 C62.2387 221.1406 62.3481 222.2812 62.4106 223.3125 L62.3481 223.3125 L61.2543 221.2031 L57.52 214.7188 L56.1762 214.7188 L56.1762 225 ZM66.2842 225 L67.4561 225 L67.4561 219.3125 C67.4561 218.4375 67.3623 217.1875 67.2998 216.2969 L67.3623 216.2969 L68.1748 218.625 L70.1123 223.9688 L70.9873 223.9688 L72.9248 218.625 L73.7373 216.2969 L73.7998 216.2969 C73.7217 217.1875 73.6279 218.4375 73.6279 219.3125 L73.6279 225 L74.8467 225 L74.8467 214.7188 L73.2842 214.7188 L71.3154 220.2188 C71.0811 220.9375 70.8623 221.6562 70.6123 222.375 L70.5498 222.375 C70.2998 221.6562 70.0654 220.9375 69.8154 220.2188 L67.8467 214.7188 L66.2842 214.7188 L66.2842 225 ZM80.6053 225.1875 C81.6365 225.1875 82.449 224.8281 83.1209 224.3906 L82.6521 223.5625 C82.1053 223.9375 81.4959 224.1562 80.7615 224.1562 C79.3084 224.1562 78.324 223.125 78.2303 221.5 L83.3553 221.5 C83.3865 221.3125 83.4178 221.0469 83.4178 220.7656 C83.4178 218.6094 82.324 217.2031 80.3865 217.2031 C78.6209 217.2031 76.9646 218.7344 76.9646 221.2031 C76.9646 223.7188 78.5896 225.1875 80.6053 225.1875 ZM78.2146 220.5781 C78.3709 219.0938 79.324 218.2188 80.4021 218.2188 C81.5896 218.2188 82.2928 219.0469 82.2928 220.5781 L78.2146 220.5781 Z"
    /></g
    ><g style="fill:white; text-rendering:optimizeSpeed; font-family:'Serif'; stroke:white;"
    ><rect x="88" width="5" height="10" y="184" style="stroke:none;"
      /><path d="M89.8906 192.6875 C89.4844 192.6875 89.1562 193.0469 89.1562 193.4219 C89.1562 193.8125 89.4844 194.1562 89.8906 194.1562 C90.2969 194.1562 90.6406 193.8125 90.6406 193.4219 C90.6406 193.0469 90.2969 192.6875 89.8906 192.6875 ZM91.4688 186.5781 C91.7188 186.8906 91.875 187.2656 91.8906 187.6562 C91.8906 188.1875 91.625 188.5 91.0312 188.7656 L90.4062 189.0156 C89.6406 189.3125 89.3906 189.5469 89.3906 189.9375 C89.3906 190.1094 89.4531 190.3438 89.5781 190.8125 L89.7344 191.3438 L90.1094 191.3438 L90.0938 190.5312 C90.0938 190.0938 90.2031 189.9688 90.7812 189.7344 L91.2031 189.5625 C92.0312 189.2188 92.4531 188.6875 92.4531 187.8438 C92.4531 186.1562 90.6562 185.1875 89.5 185.0312 C89.1094 185.125 88.9062 185.2969 88.9062 185.6406 C88.9062 185.9375 89.0625 186.1562 89.7188 186.2656 L91.4688 186.5781 Z" style="fill:black; stroke:none;"
      /><rect x="88" width="5" height="10" y="200" style="stroke:none;"
      /><path d="M89.8906 208.6875 C89.4844 208.6875 89.1562 209.0469 89.1562 209.4219 C89.1562 209.8125 89.4844 210.1562 89.8906 210.1562 C90.2969 210.1562 90.6406 209.8125 90.6406 209.4219 C90.6406 209.0469 90.2969 208.6875 89.8906 208.6875 ZM91.4688 202.5781 C91.7188 202.8906 91.875 203.2656 91.8906 203.6562 C91.8906 204.1875 91.625 204.5 91.0312 204.7656 L90.4062 205.0156 C89.6406 205.3125 89.3906 205.5469 89.3906 205.9375 C89.3906 206.1094 89.4531 206.3438 89.5781 206.8125 L89.7344 207.3438 L90.1094 207.3438 L90.0938 206.5312 C90.0938 206.0938 90.2031 205.9688 90.7812 205.7344 L91.2031 205.5625 C92.0312 205.2188 92.4531 204.6875 92.4531 203.8438 C92.4531 202.1562 90.6562 201.1875 89.5 201.0312 C89.1094 201.125 88.9062 201.2969 88.9062 201.6406 C88.9062 201.9375 89.0625 202.1562 89.7188 202.2656 L91.4688 202.5781 Z" style="fill:black; stroke:none;"
      /><circle r="11" style="clip-path:url(#clipPath2); stroke:none;" cx="65" cy="145"
      /><rect x="54" y="134" width="22" style="clip-path:url(#clipPath2); fill:rgb(0,144,188); stroke:none;" height="22"
      /><rect x="54" y="134" width="22" style="clip-path:url(#clipPath2); fill:none; stroke:black;" height="22"
      /><circle r="11" style="fill:none; stroke:black;" cx="65" cy="145"
      /><rect x="81" width="5" height="10" y="132" style="stroke:none;"
      /><path d="M82.8906 140.6875 C82.4844 140.6875 82.1562 141.0469 82.1562 141.4219 C82.1562 141.8125 82.4844 142.1562 82.8906 142.1562 C83.2969 142.1562 83.6406 141.8125 83.6406 141.4219 C83.6406 141.0469 83.2969 140.6875 82.8906 140.6875 ZM84.4688 134.5781 C84.7188 134.8906 84.875 135.2656 84.8906 135.6562 C84.8906 136.1875 84.625 136.5 84.0312 136.7656 L83.4062 137.0156 C82.6406 137.3125 82.3906 137.5469 82.3906 137.9375 C82.3906 138.1094 82.4531 138.3438 82.5781 138.8125 L82.7344 139.3438 L83.1094 139.3438 L83.0938 138.5312 C83.0938 138.0938 83.2031 137.9688 83.7812 137.7344 L84.2031 137.5625 C85.0312 137.2188 85.4531 136.6875 85.4531 135.8438 C85.4531 134.1562 83.6562 133.1875 82.5 133.0312 C82.1094 133.125 81.9062 133.2969 81.9062 133.6406 C81.9062 133.9375 82.0625 134.1562 82.7188 134.2656 L84.4688 134.5781 Z" style="fill:black; stroke:none;"
      /><rect x="81" width="5" height="10" y="148" style="stroke:none;"
      /><path d="M82.8906 156.6875 C82.4844 156.6875 82.1562 157.0469 82.1562 157.4219 C82.1562 157.8125 82.4844 158.1562 82.8906 158.1562 C83.2969 158.1562 83.6406 157.8125 83.6406 157.4219 C83.6406 157.0469 83.2969 156.6875 82.8906 156.6875 ZM84.4688 150.5781 C84.7188 150.8906 84.875 151.2656 84.8906 151.6562 C84.8906 152.1875 84.625 152.5 84.0312 152.7656 L83.4062 153.0156 C82.6406 153.3125 82.3906 153.5469 82.3906 153.9375 C82.3906 154.1094 82.4531 154.3438 82.5781 154.8125 L82.7344 155.3438 L83.1094 155.3438 L83.0938 154.5312 C83.0938 154.0938 83.2031 153.9688 83.7812 153.7344 L84.2031 153.5625 C85.0312 153.2188 85.4531 152.6875 85.4531 151.8438 C85.4531 150.1562 83.6562 149.1875 82.5 149.0312 C82.1094 149.125 81.9062 149.2969 81.9062 149.6406 C81.9062 149.9375 82.0625 150.1562 82.7188 150.2656 L84.4688 150.5781 Z" style="fill:black; stroke:none;"
      /><rect x="54" y="82" width="22" style="clip-path:url(#clipPath3); stroke:none;" height="22"
      /><rect x="54" y="82" width="22" style="clip-path:url(#clipPath3); fill:rgb(255,212,0); stroke:none;" height="22"
      /><rect x="54" y="82" width="22" style="clip-path:url(#clipPath3); fill:none; stroke:black;" height="22"
      /><rect x="54" y="82" width="22" style="fill:none; stroke:black;" height="22"
      /><rect x="81" width="5" height="10" y="80" style="stroke:none;"
      /><path d="M82.8906 88.6875 C82.4844 88.6875 82.1562 89.0469 82.1562 89.4219 C82.1562 89.8125 82.4844 90.1562 82.8906 90.1562 C83.2969 90.1562 83.6406 89.8125 83.6406 89.4219 C83.6406 89.0469 83.2969 88.6875 82.8906 88.6875 ZM84.4688 82.5781 C84.7188 82.8906 84.875 83.2656 84.8906 83.6562 C84.8906 84.1875 84.625 84.5 84.0312 84.7656 L83.4062 85.0156 C82.6406 85.3125 82.3906 85.5469 82.3906 85.9375 C82.3906 86.1094 82.4531 86.3438 82.5781 86.8125 L82.7344 87.3438 L83.1094 87.3438 L83.0938 86.5312 C83.0938 86.0938 83.2031 85.9688 83.7812 85.7344 L84.2031 85.5625 C85.0312 85.2188 85.4531 84.6875 85.4531 83.8438 C85.4531 82.1562 83.6562 81.1875 82.5 81.0312 C82.1094 81.125 81.9062 81.2969 81.9062 81.6406 C81.9062 81.9375 82.0625 82.1562 82.7188 82.2656 L84.4688 82.5781 Z" style="fill:black; stroke:none;"
      /><rect x="81" width="5" height="10" y="96" style="stroke:none;"
      /><path d="M82.8906 104.6875 C82.4844 104.6875 82.1562 105.0469 82.1562 105.4219 C82.1562 105.8125 82.4844 106.1562 82.8906 106.1562 C83.2969 106.1562 83.6406 105.8125 83.6406 105.4219 C83.6406 105.0469 83.2969 104.6875 82.8906 104.6875 ZM84.4688 98.5781 C84.7188 98.8906 84.875 99.2656 84.8906 99.6562 C84.8906 100.1875 84.625 100.5 84.0312 100.7656 L83.4062 101.0156 C82.6406 101.3125 82.3906 101.5469 82.3906 101.9375 C82.3906 102.1094 82.4531 102.3438 82.5781 102.8125 L82.7344 103.3438 L83.1094 103.3438 L83.0938 102.5312 C83.0938 102.0938 83.2031 101.9688 83.7812 101.7344 L84.2031 101.5625 C85.0312 101.2188 85.4531 100.6875 85.4531 99.8438 C85.4531 98.1562 83.6562 97.1875 82.5 97.0312 C82.1094 97.125 81.9062 97.2969 81.9062 97.6406 C81.9062 97.9375 82.0625 98.1562 82.7188 98.2656 L84.4688 98.5781 Z" style="fill:black; stroke:none;"
      /><circle r="11" style="clip-path:url(#clipPath4); stroke:none;" cx="65" cy="41"
      /><rect x="54" y="30" width="22" style="clip-path:url(#clipPath4); fill:rgb(255,212,0); stroke:none;" height="22"
      /><rect x="54" y="30" width="22" style="clip-path:url(#clipPath4); fill:none; stroke:black;" height="22"
      /><circle r="11" style="fill:none; stroke:black;" cx="65" cy="41"
      /><rect x="81" width="5" height="10" y="28" style="stroke:none;"
      /><path d="M82.8906 36.6875 C82.4844 36.6875 82.1562 37.0469 82.1562 37.4219 C82.1562 37.8125 82.4844 38.1562 82.8906 38.1562 C83.2969 38.1562 83.6406 37.8125 83.6406 37.4219 C83.6406 37.0469 83.2969 36.6875 82.8906 36.6875 ZM84.4688 30.5781 C84.7188 30.8906 84.875 31.2656 84.8906 31.6562 C84.8906 32.1875 84.625 32.5 84.0312 32.7656 L83.4062 33.0156 C82.6406 33.3125 82.3906 33.5469 82.3906 33.9375 C82.3906 34.1094 82.4531 34.3438 82.5781 34.8125 L82.7344 35.3438 L83.1094 35.3438 L83.0938 34.5312 C83.0938 34.0938 83.2031 33.9688 83.7812 33.7344 L84.2031 33.5625 C85.0312 33.2188 85.4531 32.6875 85.4531 31.8438 C85.4531 30.1562 83.6562 29.1875 82.5 29.0312 C82.1094 29.125 81.9062 29.2969 81.9062 29.6406 C81.9062 29.9375 82.0625 30.1562 82.7188 30.2656 L84.4688 30.5781 Z" style="fill:black; stroke:none;"
      /><rect x="81" width="5" height="10" y="44" style="stroke:none;"
      /><path d="M82.8906 52.6875 C82.4844 52.6875 82.1562 53.0469 82.1562 53.4219 C82.1562 53.8125 82.4844 54.1562 82.8906 54.1562 C83.2969 54.1562 83.6406 53.8125 83.6406 53.4219 C83.6406 53.0469 83.2969 52.6875 82.8906 52.6875 ZM84.4688 46.5781 C84.7188 46.8906 84.875 47.2656 84.8906 47.6562 C84.8906 48.1875 84.625 48.5 84.0312 48.7656 L83.4062 49.0156 C82.6406 49.3125 82.3906 49.5469 82.3906 49.9375 C82.3906 50.1094 82.4531 50.3438 82.5781 50.8125 L82.7344 51.3438 L83.1094 51.3438 L83.0938 50.5312 C83.0938 50.0938 83.2031 49.9688 83.7812 49.7344 L84.2031 49.5625 C85.0312 49.2188 85.4531 48.6875 85.4531 47.8438 C85.4531 46.1562 83.6562 45.1875 82.5 45.0312 C82.1094 45.125 81.9062 45.2969 81.9062 45.6406 C81.9062 45.9375 82.0625 46.1562 82.7188 46.2656 L84.4688 46.5781 Z" style="fill:black; stroke:none;"
    /></g
    ><g style="text-rendering:optimizeSpeed; font-size:14px; font-family:'SansSerif';"
    ><path style="stroke:none;" d="M36.6094 46 L43.0625 46 L43.0625 44.8906 L40.2344 44.8906 C39.7031 44.8906 39.0781 44.9531 38.5469 44.9844 C40.9531 42.7031 42.5625 40.625 42.5625 38.5781 C42.5625 36.75 41.4219 35.5469 39.5781 35.5469 C38.2812 35.5469 37.4062 36.1406 36.5625 37.0469 L37.2969 37.7812 C37.8594 37.1094 38.5938 36.5938 39.4375 36.5938 C40.7031 36.5938 41.3125 37.4531 41.3125 38.625 C41.3125 40.3906 39.8438 42.4375 36.6094 45.25 L36.6094 46 ZM43.9731 46 L45.3168 46 L46.3481 44.2188 C46.6137 43.7656 46.8637 43.2969 47.1293 42.8594 L47.2075 42.8594 C47.4731 43.2969 47.7543 43.7656 48.0043 44.2188 L49.1293 46 L50.5356 46 L48.02 42.1562 L50.3325 38.3906 L49.0043 38.3906 L48.0668 40.0625 C47.8481 40.5 47.6137 40.9219 47.3793 41.3438 L47.3325 41.3438 C47.0668 40.9219 46.8012 40.5 46.5668 40.0625 L45.5512 38.3906 L44.1762 38.3906 L46.4887 42.0312 L43.9731 46 Z"
    /></g
  ></g
></svg
>
