<?xml version="1.0"?>
<!DOCTYPE svg PUBLIC '-//W3C//DTD SVG 1.0//EN'
          'http://www.w3.org/TR/2001/REC-SVG-20010904/DTD/svg10.dtd'>
<svg xmlns:xlink="http://www.w3.org/1999/xlink" style="fill-opacity:1; color-rendering:auto; color-interpolation:auto; text-rendering:auto; stroke:black; stroke-linecap:square; stroke-miterlimit:10; shape-rendering:auto; stroke-opacity:1; fill:black; stroke-dasharray:none; font-weight:normal; stroke-width:1; font-family:'Dialog'; font-style:normal; stroke-linejoin:miter; font-size:12px; stroke-dashoffset:0; image-rendering:auto;" viewBox="0 0 394 134" xmlns="http://www.w3.org/2000/svg"
><!--Generated by the Batik Graphics2D SVG Generator--><defs id="genericDefs"
  /><g
  ><defs id="defs1"
    ><clipPath clipPathUnits="userSpaceOnUse" id="clipPath1"
      ><path d="M290 56 L312 56 L312 78 L290 78 L290 56 Z"
      /></clipPath
      ><clipPath clipPathUnits="userSpaceOnUse" id="clipPath2"
      ><path d="M260 67 C260 73.0751 255.0751 78 249 78 C242.9249 78 238 73.0751 238 67 C238 60.9249 242.9249 56 249 56 C255.0751 56 260 60.9249 260 67 Z"
      /></clipPath
      ><clipPath clipPathUnits="userSpaceOnUse" id="clipPath3"
      ><path d="M208 93 C208 99.0751 203.0751 104 197 104 C190.9249 104 186 99.0751 186 93 C186 86.9249 190.9249 82 197 82 C203.0751 82 208 86.9249 208 93 Z"
      /></clipPath
      ><clipPath clipPathUnits="userSpaceOnUse" id="clipPath4"
      ><path d="M156 93 C156 99.0751 151.0751 104 145 104 C138.9249 104 134 99.0751 134 93 C134 86.9249 138.9249 82 145 82 C151.0751 82 156 86.9249 156 93 Z"
      /></clipPath
      ><clipPath clipPathUnits="userSpaceOnUse" id="clipPath5"
      ><path d="M52 93 C52 99.0751 47.0751 104 41 104 C34.9249 104 30 99.0751 30 93 C30 86.9249 34.9249 82 41 82 C47.0751 82 52 86.9249 52 93 Z"
      /></clipPath
      ><clipPath clipPathUnits="userSpaceOnUse" id="clipPath6"
      ><path d="M208 41 C208 47.0751 203.0751 52 197 52 C190.9249 52 186 47.0751 186 41 C186 34.9249 190.9249 30 197 30 C203.0751 30 208 34.9249 208 41 Z"
      /></clipPath
      ><clipPath clipPathUnits="userSpaceOnUse" id="clipPath7"
      ><path d="M156 41 C156 47.0751 151.0751 52 145 52 C138.9249 52 134 47.0751 134 41 C134 34.9249 138.9249 30 145 30 C151.0751 30 156 34.9249 156 41 Z"
      /></clipPath
      ><clipPath clipPathUnits="userSpaceOnUse" id="clipPath8"
      ><path d="M52 41 C52 47.0751 47.0751 52 41 52 C34.9249 52 30 47.0751 30 41 C30 34.9249 34.9249 30 41 30 C47.0751 30 52 34.9249 52 41 Z"
      /></clipPath
    ></defs
    ><g style="fill:white; text-rendering:optimizeSpeed; stroke:white;"
    ><rect x="0" width="394" height="134" y="0" style="stroke:none;"
      /><polygon style="fill:none; stroke:black;" points=" 353 67 301 67"
      /><path d="M353 56 C347.5 61.5 358.5 72.5 353 78" style="fill:none; stroke:black;"
      /><polygon style="fill:none; stroke:black;" points=" 301 67 249 67"
      /><rect x="290" y="56" width="22" style="clip-path:url(#clipPath1); stroke:none;" height="22"
      /><rect x="290" y="56" width="22" style="clip-path:url(#clipPath1); fill:rgb(0,144,188); stroke:none;" height="22"
      /><rect x="290" y="56" width="22" style="clip-path:url(#clipPath1); fill:none; stroke:black;" height="22"
      /><rect x="290" y="56" width="22" style="fill:none; stroke:black;" height="22"
      /><polygon style="fill:none; stroke:black;" points=" 249 67 197 93"
      /><polygon style="fill:none; stroke:black;" points=" 249 67 197 41"
      /><circle style="clip-path:url(#clipPath2); stroke:none;" r="11" cx="249" cy="67"
      /><rect x="238" y="56" width="22" style="clip-path:url(#clipPath2); fill:rgb(0,166,81); stroke:none;" height="22"
      /><rect x="238" y="56" width="22" style="clip-path:url(#clipPath2); fill:none; stroke:black;" height="22"
      /><circle style="fill:none; stroke:black;" r="11" cx="249" cy="67"
      /><polygon style="fill:none; stroke:black;" points=" 197 93 145 93"
      /><circle style="clip-path:url(#clipPath3); stroke:none;" r="11" cx="197" cy="93"
      /><rect x="186" y="82" width="22" style="clip-path:url(#clipPath3); fill:rgb(0,166,81); stroke:none;" height="22"
      /><rect x="186" y="82" width="22" style="clip-path:url(#clipPath3); fill:none; stroke:black;" height="22"
      /><circle style="fill:none; stroke:black;" r="11" cx="197" cy="93"
      /><polygon style="fill:none; stroke:black;" points=" 145 93 93 93"
      /><circle style="clip-path:url(#clipPath4); stroke:none;" r="11" cx="145" cy="93"
      /><rect x="134" y="82" width="22" style="clip-path:url(#clipPath4); fill:rgb(0,166,81); stroke:none;" height="22"
      /><rect x="134" y="82" width="22" style="clip-path:url(#clipPath4); fill:none; stroke:black;" height="22"
      /><circle style="fill:none; stroke:black;" r="11" cx="145" cy="93"
      /><polygon style="fill:none; stroke:black;" points=" 93 93 41 93"
      /><rect x="89" y="87" width="6" style="stroke:none;" height="10"
    /></g
    ><g style="text-rendering:optimizeSpeed; font-size:14px; font-family:'SansSerif';"
    ><path style="stroke:none;" d="M90.4062 98 L91.7031 98 L91.7031 93.9219 L93.3906 93.9219 C95.6562 93.9219 97.1719 92.9219 97.1719 90.75 C97.1719 88.5156 95.6406 87.7188 93.3438 87.7188 L90.4062 87.7188 L90.4062 98 ZM91.7031 92.875 L91.7031 88.7812 L93.1719 88.7812 C94.9844 88.7812 95.8906 89.2656 95.8906 90.75 C95.8906 92.2188 95.0312 92.875 93.2344 92.875 L91.7031 92.875 Z"
    /></g
    ><g style="fill:white; text-rendering:optimizeSpeed; stroke:white;"
    ><circle r="11" style="clip-path:url(#clipPath5); stroke:none;" cx="41" cy="93"
      /><rect x="30" y="82" width="22" style="clip-path:url(#clipPath5); fill:rgb(0,166,81); stroke:none;" height="22"
      /><rect x="30" y="82" width="22" style="clip-path:url(#clipPath5); fill:none; stroke:black;" height="22"
      /><circle r="11" style="fill:none; stroke:black;" cx="41" cy="93"
      /><rect x="71" width="5" height="9" y="96" style="stroke:none;"
      /><path d="M74.8594 104.3906 C74.8594 103.6719 74.8438 102.9531 74.8438 102.25 L74.8438 98.1406 L74.8906 96.2656 L74.7031 96.125 L72.1094 96.7969 L72.1094 97.2344 L73.9219 97.0312 L73.9219 102.25 C73.9219 102.9531 73.9062 103.6719 73.8906 104.3906 L72 104.6094 L72 105 L76.7344 105 L76.7344 104.6094 L74.8594 104.3906 Z" style="fill:black; stroke:none;"
      /><rect x="56" width="8" height="8" y="97" style="stroke:none;"
      /><path d="M60.9844 102.7031 C60.9375 103.8906 60.1562 104.6562 59.3125 104.6562 C58.2656 104.6562 57.5 103.6875 57.5 101.7188 C57.5 100.2812 58.1562 99.1562 59.3438 99.1562 C60.1406 99.1562 60.7812 99.6875 61.0938 100.6406 L60.9844 102.7031 ZM62.9062 104.2812 C62.7344 104.375 62.5469 104.4219 62.3438 104.4219 C61.9531 104.4219 61.75 104.2188 61.75 103.4219 C61.75 102.4844 61.9688 100.5312 62.1875 98.8281 L62.0312 98.7188 L61.2344 98.9219 L61.1406 99.7969 C60.7812 99.0312 60.1562 98.6562 59.3906 98.6562 C58.0469 98.6562 56.5625 99.8438 56.5625 101.9531 C56.5625 104.0938 57.7188 105.1719 59.1406 105.1719 C60.0156 105.1719 60.6875 104.8125 61.0938 103.9844 C61.2031 104.8594 61.5156 105.1719 62.0156 105.1719 C62.4688 105.1719 62.7969 104.9062 63.0156 104.5625 L62.9062 104.2812 Z" style="fill:black; stroke:none;"
      /><rect x="123" width="6" height="10" y="96" style="stroke:none;"
      /><path d="M126.3438 105.6875 C125.2031 105.6875 124.5312 104.5 124.5312 102.2969 C124.5312 102.2188 124.5312 102.125 124.5312 102.0469 C125.0938 101.5 125.7188 101.3125 126.3438 101.3125 C127.3125 101.3125 127.9531 101.9844 127.9531 103.4531 C127.9531 104.9375 127.3125 105.6875 126.3438 105.6875 ZM128.5312 97.0781 C125.3438 97.4531 123.5625 99.7656 123.5625 102.4531 C123.5625 104.7812 124.6094 106.1719 126.3125 106.1719 C127.8438 106.1719 128.9219 105.1094 128.9219 103.2812 C128.9219 101.6875 127.9688 100.6562 126.5625 100.6562 C125.8281 100.6562 125.1406 100.9844 124.5781 101.5781 C124.7969 99.4062 126.0781 97.9688 128.5938 97.3906 L128.5312 97.0781 Z" style="fill:black; stroke:none;"
      /><rect x="175" width="6" height="9" y="96" style="stroke:none;"
      /><path d="M176.4219 104.0938 C177.0781 103.375 177.7031 102.7188 178.0312 102.3438 C179.9219 100.3125 180.5312 99.4688 180.5312 98.3594 C180.5312 97.0156 179.7812 96.0781 178.1562 96.0781 C176.9062 96.0781 175.7969 96.7031 175.5938 97.9688 C175.7188 98.2031 175.9062 98.3438 176.1562 98.3438 C176.4688 98.3438 176.6562 98.1094 176.7969 97.5938 L177.0938 96.6719 C177.3906 96.5938 177.6562 96.5625 177.8906 96.5625 C178.9219 96.5625 179.5469 97.3125 179.5469 98.4219 C179.5469 99.4375 178.9844 100.4219 177.7031 101.9062 C177.125 102.5781 176.3906 103.4375 175.6406 104.2812 L175.6406 105 L180.9219 105 L180.9219 104.0938 L176.4219 104.0938 Z" style="fill:black; stroke:none;"
      /><rect x="160" width="8" height="8" y="97" style="stroke:none;"
      /><path d="M164.9844 102.7031 C164.9375 103.8906 164.1562 104.6562 163.3125 104.6562 C162.2656 104.6562 161.5 103.6875 161.5 101.7188 C161.5 100.2812 162.1562 99.1562 163.3438 99.1562 C164.1406 99.1562 164.7812 99.6875 165.0938 100.6406 L164.9844 102.7031 ZM166.9062 104.2812 C166.7344 104.375 166.5469 104.4219 166.3438 104.4219 C165.9531 104.4219 165.75 104.2188 165.75 103.4219 C165.75 102.4844 165.9688 100.5312 166.1875 98.8281 L166.0312 98.7188 L165.2344 98.9219 L165.1406 99.7969 C164.7812 99.0312 164.1562 98.6562 163.3906 98.6562 C162.0469 98.6562 160.5625 99.8438 160.5625 101.9531 C160.5625 104.0938 161.7188 105.1719 163.1406 105.1719 C164.0156 105.1719 164.6875 104.8125 165.0938 103.9844 C165.2031 104.8594 165.5156 105.1719 166.0156 105.1719 C166.4688 105.1719 166.7969 104.9062 167.0156 104.5625 L166.9062 104.2812 Z" style="fill:black; stroke:none;"
      /><polygon style="fill:none; stroke:black;" points=" 197 41 145 41"
      /><circle r="11" style="clip-path:url(#clipPath6); stroke:none;" cx="197" cy="41"
      /><rect x="186" y="30" width="22" style="clip-path:url(#clipPath6); fill:rgb(0,166,81); stroke:none;" height="22"
      /><rect x="186" y="30" width="22" style="clip-path:url(#clipPath6); fill:none; stroke:black;" height="22"
      /><circle r="11" style="fill:none; stroke:black;" cx="197" cy="41"
      /><polygon style="fill:none; stroke:black;" points=" 145 41 93 41"
      /><circle r="11" style="clip-path:url(#clipPath7); stroke:none;" cx="145" cy="41"
      /><rect x="134" y="30" width="22" style="clip-path:url(#clipPath7); fill:rgb(0,166,81); stroke:none;" height="22"
      /><rect x="134" y="30" width="22" style="clip-path:url(#clipPath7); fill:none; stroke:black;" height="22"
      /><circle r="11" style="fill:none; stroke:black;" cx="145" cy="41"
      /><polygon style="fill:none; stroke:black;" points=" 93 41 41 41"
      /><rect x="89" width="6" height="10" y="35" style="stroke:none;"
    /></g
    ><g style="text-rendering:optimizeSpeed; font-size:14px; font-family:'SansSerif';"
    ><path style="stroke:none;" d="M90.4062 46 L91.7031 46 L91.7031 41.9219 L93.3906 41.9219 C95.6562 41.9219 97.1719 40.9219 97.1719 38.75 C97.1719 36.5156 95.6406 35.7188 93.3438 35.7188 L90.4062 35.7188 L90.4062 46 ZM91.7031 40.875 L91.7031 36.7812 L93.1719 36.7812 C94.9844 36.7812 95.8906 37.2656 95.8906 38.75 C95.8906 40.2188 95.0312 40.875 93.2344 40.875 L91.7031 40.875 Z"
    /></g
    ><g style="fill:white; text-rendering:optimizeSpeed; stroke:white;"
    ><circle r="11" style="clip-path:url(#clipPath8); stroke:none;" cx="41" cy="41"
      /><rect x="30" y="30" width="22" style="clip-path:url(#clipPath8); fill:rgb(0,166,81); stroke:none;" height="22"
      /><rect x="30" y="30" width="22" style="clip-path:url(#clipPath8); fill:none; stroke:black;" height="22"
      /><circle r="11" style="fill:none; stroke:black;" cx="41" cy="41"
      /><rect x="71" width="5" height="9" y="44" style="stroke:none;"
      /><path d="M74.8594 52.3906 C74.8594 51.6719 74.8438 50.9531 74.8438 50.25 L74.8438 46.1406 L74.8906 44.2656 L74.7031 44.125 L72.1094 44.7969 L72.1094 45.2344 L73.9219 45.0312 L73.9219 50.25 C73.9219 50.9531 73.9062 51.6719 73.8906 52.3906 L72 52.6094 L72 53 L76.7344 53 L76.7344 52.6094 L74.8594 52.3906 Z" style="fill:black; stroke:none;"
      /><rect x="56" width="8" height="8" y="45" style="stroke:none;"
      /><path d="M60.9844 50.7031 C60.9375 51.8906 60.1562 52.6562 59.3125 52.6562 C58.2656 52.6562 57.5 51.6875 57.5 49.7188 C57.5 48.2812 58.1562 47.1562 59.3438 47.1562 C60.1406 47.1562 60.7812 47.6875 61.0938 48.6406 L60.9844 50.7031 ZM62.9062 52.2812 C62.7344 52.375 62.5469 52.4219 62.3438 52.4219 C61.9531 52.4219 61.75 52.2188 61.75 51.4219 C61.75 50.4844 61.9688 48.5312 62.1875 46.8281 L62.0312 46.7188 L61.2344 46.9219 L61.1406 47.7969 C60.7812 47.0312 60.1562 46.6562 59.3906 46.6562 C58.0469 46.6562 56.5625 47.8438 56.5625 49.9531 C56.5625 52.0938 57.7188 53.1719 59.1406 53.1719 C60.0156 53.1719 60.6875 52.8125 61.0938 51.9844 C61.2031 52.8594 61.5156 53.1719 62.0156 53.1719 C62.4688 53.1719 62.7969 52.9062 63.0156 52.5625 L62.9062 52.2812 Z" style="fill:black; stroke:none;"
      /><rect x="123" width="6" height="10" y="44" style="stroke:none;"
      /><path d="M126.3438 53.6875 C125.2031 53.6875 124.5312 52.5 124.5312 50.2969 C124.5312 50.2188 124.5312 50.125 124.5312 50.0469 C125.0938 49.5 125.7188 49.3125 126.3438 49.3125 C127.3125 49.3125 127.9531 49.9844 127.9531 51.4531 C127.9531 52.9375 127.3125 53.6875 126.3438 53.6875 ZM128.5312 45.0781 C125.3438 45.4531 123.5625 47.7656 123.5625 50.4531 C123.5625 52.7812 124.6094 54.1719 126.3125 54.1719 C127.8438 54.1719 128.9219 53.1094 128.9219 51.2812 C128.9219 49.6875 127.9688 48.6562 126.5625 48.6562 C125.8281 48.6562 125.1406 48.9844 124.5781 49.5781 C124.7969 47.4062 126.0781 45.9688 128.5938 45.3906 L128.5312 45.0781 Z" style="fill:black; stroke:none;"
      /><rect x="175" width="6" height="10" y="44" style="stroke:none;"
      /><path d="M178.3438 53.6875 C177.2031 53.6875 176.5312 52.5 176.5312 50.2969 C176.5312 50.2188 176.5312 50.125 176.5312 50.0469 C177.0938 49.5 177.7188 49.3125 178.3438 49.3125 C179.3125 49.3125 179.9531 49.9844 179.9531 51.4531 C179.9531 52.9375 179.3125 53.6875 178.3438 53.6875 ZM180.5312 45.0781 C177.3438 45.4531 175.5625 47.7656 175.5625 50.4531 C175.5625 52.7812 176.6094 54.1719 178.3125 54.1719 C179.8438 54.1719 180.9219 53.1094 180.9219 51.2812 C180.9219 49.6875 179.9688 48.6562 178.5625 48.6562 C177.8281 48.6562 177.1406 48.9844 176.5781 49.5781 C176.7969 47.4062 178.0781 45.9688 180.5938 45.3906 L180.5312 45.0781 Z" style="fill:black; stroke:none;"
      /><rect x="160" width="8" height="8" y="45" style="stroke:none;"
      /><path d="M164.9844 50.7031 C164.9375 51.8906 164.1562 52.6562 163.3125 52.6562 C162.2656 52.6562 161.5 51.6875 161.5 49.7188 C161.5 48.2812 162.1562 47.1562 163.3438 47.1562 C164.1406 47.1562 164.7812 47.6875 165.0938 48.6406 L164.9844 50.7031 ZM166.9062 52.2812 C166.7344 52.375 166.5469 52.4219 166.3438 52.4219 C165.9531 52.4219 165.75 52.2188 165.75 51.4219 C165.75 50.4844 165.9688 48.5312 166.1875 46.8281 L166.0312 46.7188 L165.2344 46.9219 L165.1406 47.7969 C164.7812 47.0312 164.1562 46.6562 163.3906 46.6562 C162.0469 46.6562 160.5625 47.8438 160.5625 49.9531 C160.5625 52.0938 161.7188 53.1719 163.1406 53.1719 C164.0156 53.1719 164.6875 52.8125 165.0938 51.9844 C165.2031 52.8594 165.5156 53.1719 166.0156 53.1719 C166.4688 53.1719 166.7969 52.9062 167.0156 52.5625 L166.9062 52.2812 Z" style="fill:black; stroke:none;"
      /><rect x="231" width="6" height="10" y="78" style="stroke:none;"
      /><path d="M233.2344 79.6562 C233.5156 79.5938 233.7656 79.5625 234.0156 79.5625 C235.0625 79.5625 235.6719 80.1719 235.6719 81.2656 C235.6719 82.4375 234.9062 83.1094 233.7031 83.1094 L233.1875 83.1094 L233.1875 83.6406 L233.7969 83.6406 C235.2188 83.6406 235.9062 84.4219 235.9062 85.6406 C235.9062 86.8438 235.1719 87.6875 233.875 87.6875 C233.6094 87.6875 233.3125 87.6562 233.0156 87.5625 L232.7812 86.8125 C232.625 86.2812 232.5 86.0469 232.1406 86.0469 C231.8906 86.0469 231.7031 86.1719 231.5781 86.4219 C231.8438 87.6406 232.7812 88.1719 234.0312 88.1719 C235.7188 88.1719 236.875 87.125 236.875 85.7031 C236.875 84.5 236.2031 83.625 234.7969 83.375 C235.9531 83.0156 236.6094 82.2031 236.6094 81.2031 C236.6094 79.9219 235.6719 79.0781 234.1875 79.0781 C233.0469 79.0781 232.0625 79.5938 231.7969 80.6875 C231.9062 81 232.1094 81.1094 232.3594 81.1094 C232.7344 81.1094 232.8906 80.8906 233 80.4062 L233.2344 79.6562 Z" style="fill:black; stroke:none;"
      /><rect x="214" width="8" height="8" y="87" style="stroke:none;"
      /><path d="M218.9844 92.7031 C218.9375 93.8906 218.1562 94.6562 217.3125 94.6562 C216.2656 94.6562 215.5 93.6875 215.5 91.7188 C215.5 90.2812 216.1562 89.1562 217.3438 89.1562 C218.1406 89.1562 218.7812 89.6875 219.0938 90.6406 L218.9844 92.7031 ZM220.9062 94.2812 C220.7344 94.375 220.5469 94.4219 220.3438 94.4219 C219.9531 94.4219 219.75 94.2188 219.75 93.4219 C219.75 92.4844 219.9688 90.5312 220.1875 88.8281 L220.0312 88.7188 L219.2344 88.9219 L219.1406 89.7969 C218.7812 89.0312 218.1562 88.6562 217.3906 88.6562 C216.0469 88.6562 214.5625 89.8438 214.5625 91.9531 C214.5625 94.0938 215.7188 95.1719 217.1406 95.1719 C218.0156 95.1719 218.6875 94.8125 219.0938 93.9844 C219.2031 94.8594 219.5156 95.1719 220.0156 95.1719 C220.4688 95.1719 220.7969 94.9062 221.0156 94.5625 L220.9062 94.2812 Z" style="fill:black; stroke:none;"
      /><rect x="224" width="6" height="10" y="60" style="stroke:none;"
      /><path d="M227.3438 69.6875 C226.2031 69.6875 225.5312 68.5 225.5312 66.2969 C225.5312 66.2188 225.5312 66.125 225.5312 66.0469 C226.0938 65.5 226.7188 65.3125 227.3438 65.3125 C228.3125 65.3125 228.9531 65.9844 228.9531 67.4531 C228.9531 68.9375 228.3125 69.6875 227.3438 69.6875 ZM229.5312 61.0781 C226.3438 61.4531 224.5625 63.7656 224.5625 66.4531 C224.5625 68.7812 225.6094 70.1719 227.3125 70.1719 C228.8438 70.1719 229.9219 69.1094 229.9219 67.2812 C229.9219 65.6875 228.9688 64.6562 227.5625 64.6562 C226.8281 64.6562 226.1406 64.9844 225.5781 65.5781 C225.7969 63.4062 227.0781 61.9688 229.5938 61.3906 L229.5312 61.0781 Z" style="fill:black; stroke:none;"
      /><rect x="207" width="8" height="8" y="53" style="stroke:none;"
      /><path d="M211.9844 58.7031 C211.9375 59.8906 211.1562 60.6562 210.3125 60.6562 C209.2656 60.6562 208.5 59.6875 208.5 57.7188 C208.5 56.2812 209.1562 55.1562 210.3438 55.1562 C211.1406 55.1562 211.7812 55.6875 212.0938 56.6406 L211.9844 58.7031 ZM213.9062 60.2812 C213.7344 60.375 213.5469 60.4219 213.3438 60.4219 C212.9531 60.4219 212.75 60.2188 212.75 59.4219 C212.75 58.4844 212.9688 56.5312 213.1875 54.8281 L213.0312 54.7188 L212.2344 54.9219 L212.1406 55.7969 C211.7812 55.0312 211.1562 54.6562 210.3906 54.6562 C209.0469 54.6562 207.5625 55.8438 207.5625 57.9531 C207.5625 60.0938 208.7188 61.1719 210.1406 61.1719 C211.0156 61.1719 211.6875 60.8125 212.0938 59.9844 C212.2031 60.8594 212.5156 61.1719 213.0156 61.1719 C213.4688 61.1719 213.7969 60.9062 214.0156 60.5625 L213.9062 60.2812 Z" style="fill:black; stroke:none;"
      /><rect x="278" width="7" height="9" y="70" style="stroke:none;"
      /><path d="M279 75.5156 L281.9531 71.2656 L281.9531 75.5156 L279 75.5156 ZM284.2812 75.5156 L282.8594 75.5156 L282.8594 70.125 L282.2344 70.125 L278.3438 75.6406 L278.3438 76.1875 L281.9531 76.1875 L281.9531 79 L282.8594 79 L282.8594 76.1875 L284.2812 76.1875 L284.2812 75.5156 Z" style="fill:black; stroke:none;"
      /><rect x="265" width="6" height="13" y="68" style="stroke:none;"
      /><path d="M267.0938 74.2031 C267.0938 72.6562 267.75 71.8125 268.7969 71.8125 C269.7188 71.8125 270.2656 72.4531 270.2656 73.5156 C270.2656 74.7188 269.5 75.4375 268.1875 75.7031 L268.2969 76.3125 C270.2188 76.2344 270.9375 77.2188 270.9375 78.4375 C270.9375 79.625 270.2344 80.4219 268.9531 80.4219 C268.25 80.4219 267.6562 80.1562 267.0938 79.7188 L267.0938 74.2031 ZM266.2031 80.9062 L266.1094 83.375 L266.2656 83.4844 L267.1562 83.2656 L267.0156 80.0938 C267.5469 80.8438 268.3594 81.1719 269.1719 81.1719 C270.5625 81.1719 271.8594 80.2188 271.8594 78.4844 C271.8594 76.9531 270.875 76.1094 269.125 76 C270.5625 75.6094 271.1875 74.4531 271.1875 73.4844 C271.1875 72.0938 270.1562 71.3125 268.9062 71.3125 C267.2969 71.3125 266.2188 72.5469 266.2188 74.5156 L266.2031 80.9062 Z" style="fill:black; stroke:none;"
      /><rect x="317" width="5" height="10" y="70" style="stroke:none;"
      /><path d="M318.8906 78.6875 C318.4844 78.6875 318.1562 79.0469 318.1562 79.4219 C318.1562 79.8125 318.4844 80.1562 318.8906 80.1562 C319.2969 80.1562 319.6406 79.8125 319.6406 79.4219 C319.6406 79.0469 319.2969 78.6875 318.8906 78.6875 ZM320.4688 72.5781 C320.7188 72.8906 320.875 73.2656 320.8906 73.6562 C320.8906 74.1875 320.625 74.5 320.0312 74.7656 L319.4062 75.0156 C318.6406 75.3125 318.3906 75.5469 318.3906 75.9375 C318.3906 76.1094 318.4531 76.3438 318.5781 76.8125 L318.7344 77.3438 L319.1094 77.3438 L319.0938 76.5312 C319.0938 76.0938 319.2031 75.9688 319.7812 75.7344 L320.2031 75.5625 C321.0312 75.2188 321.4531 74.6875 321.4531 73.8438 C321.4531 72.1562 319.6562 71.1875 318.5 71.0312 C318.1094 71.125 317.9062 71.2969 317.9062 71.6406 C317.9062 71.9375 318.0625 72.1562 318.7188 72.2656 L320.4688 72.5781 Z" style="fill:black; stroke:none;"
    /></g
  ></g
></svg
>
