<?xml version="1.0"?>
<!DOCTYPE svg PUBLIC '-//W3C//DTD SVG 1.0//EN'
          'http://www.w3.org/TR/2001/REC-SVG-20010904/DTD/svg10.dtd'>
<svg xmlns:xlink="http://www.w3.org/1999/xlink" style="fill-opacity:1; color-rendering:auto; color-interpolation:auto; text-rendering:auto; stroke:black; stroke-linecap:square; stroke-miterlimit:10; shape-rendering:auto; stroke-opacity:1; fill:black; stroke-dasharray:none; font-weight:normal; stroke-width:1; font-family:'Dialog'; font-style:normal; stroke-linejoin:miter; font-size:12px; stroke-dashoffset:0; image-rendering:auto;" viewBox="0 0 418 134" xmlns="http://www.w3.org/2000/svg"
><!--Generated by the Batik Graphics2D SVG Generator--><defs id="genericDefs"
  /><g
  ><defs id="defs1"
    ><clipPath clipPathUnits="userSpaceOnUse" id="clipPath1"
      ><path d="M290 56 L312 56 L312 78 L290 78 L290 56 Z"
      /></clipPath
      ><clipPath clipPathUnits="userSpaceOnUse" id="clipPath2"
      ><path d="M238 56 L260 56 L260 78 L238 78 L238 56 Z"
      /></clipPath
      ><clipPath clipPathUnits="userSpaceOnUse" id="clipPath3"
      ><path d="M208 93 C208 99.0751 203.0751 104 197 104 C190.9249 104 186 99.0751 186 93 C186 86.9249 190.9249 82 197 82 C203.0751 82 208 86.9249 208 93 Z"
      /></clipPath
      ><clipPath clipPathUnits="userSpaceOnUse" id="clipPath4"
      ><path style="fill-rule:evenodd;" d="M145 82 L156 93 L145 104 L134 93 Z"
      /></clipPath
      ><clipPath clipPathUnits="userSpaceOnUse" id="clipPath5"
      ><path d="M186 30 L208 30 L208 52 L186 52 L186 30 Z"
      /></clipPath
      ><clipPath clipPathUnits="userSpaceOnUse" id="clipPath6"
      ><path d="M156 41 C156 47.0751 151.0751 52 145 52 C138.9249 52 134 47.0751 134 41 C134 34.9249 138.9249 30 145 30 C151.0751 30 156 34.9249 156 41 Z"
      /></clipPath
      ><clipPath clipPathUnits="userSpaceOnUse" id="clipPath7"
      ><path d="M104 41 C104 47.0751 99.0751 52 93 52 C86.9249 52 82 47.0751 82 41 C82 34.9249 86.9249 30 93 30 C99.0751 30 104 34.9249 104 41 Z"
      /></clipPath
      ><clipPath clipPathUnits="userSpaceOnUse" id="clipPath8"
      ><path d="M52 41 C52 47.0751 47.0751 52 41 52 C34.9249 52 30 47.0751 30 41 C30 34.9249 34.9249 30 41 30 C47.0751 30 52 34.9249 52 41 Z"
      /></clipPath
    ></defs
    ><g style="fill:white; text-rendering:optimizeSpeed; stroke:white;"
    ><rect x="0" width="418" height="134" y="0" style="stroke:none;"
      /><polygon style="fill:none; stroke:black;" points=" 301 67 249 67"
      /><rect x="290" y="56" width="22" style="clip-path:url(#clipPath1); stroke:none;" height="22"
      /><rect x="290" y="56" width="22" style="clip-path:url(#clipPath1); fill:rgb(255,212,0); stroke:none;" height="22"
      /><rect x="290" y="56" width="22" style="clip-path:url(#clipPath1); fill:none; stroke:black;" height="22"
      /><rect x="290" y="56" width="22" style="fill:none; stroke:black;" height="22"
    /></g
    ><g style="font-style:italic; text-rendering:optimizeSpeed; font-size:10px; font-family:'SansSerif';"
    ><path style="stroke:none;" d="M301 69.125 C302.3281 69.125 303.7344 68.0938 304.125 66.2969 C304.5 64.4844 303.5469 63.4375 302.2188 63.4375 C300.8906 63.4375 299.4688 64.4844 299.0938 66.2969 C298.7031 68.0938 299.6719 69.125 301 69.125 ZM301.1719 68.375 C300.2344 68.375 299.7656 67.5469 300.0312 66.2969 C300.2969 65.0469 301.1094 64.1875 302.0469 64.1875 C302.9844 64.1875 303.4531 65.0469 303.1875 66.2969 C302.9219 67.5469 302.1094 68.375 301.1719 68.375 Z"
      /><polygon style="fill:none;" points=" 249 67 197 93"
      /><polygon style="fill:none;" points=" 249 67 197 41"
    /></g
    ><g style="fill:white; text-rendering:optimizeSpeed; stroke:white;"
    ><rect x="238" y="56" width="22" style="clip-path:url(#clipPath2); stroke:none;" height="22"
      /><rect x="238" y="56" width="22" style="clip-path:url(#clipPath2); fill:rgb(255,212,0); stroke:none;" height="22"
      /><rect x="238" y="56" width="22" style="clip-path:url(#clipPath2); fill:none; stroke:black;" height="22"
      /><rect x="238" y="56" width="22" style="fill:none; stroke:black;" height="22"
      /><polygon style="fill:none; stroke:black;" points=" 197 93 145 93"
      /><circle r="11" style="clip-path:url(#clipPath3); stroke:none;" cx="197" cy="93"
      /><rect x="186" y="82" width="22" style="clip-path:url(#clipPath3); fill:rgb(255,212,0); stroke:none;" height="22"
      /><rect x="186" y="82" width="22" style="clip-path:url(#clipPath3); fill:none; stroke:black;" height="22"
      /><circle r="11" style="fill:none; stroke:black;" cx="197" cy="93"
      /><polygon style="clip-path:url(#clipPath4); stroke:none;" points=" 145 82 156 93 145 104 134 93"
      /><rect x="134" y="82" width="22" style="clip-path:url(#clipPath4); fill:rgb(165,67,153); stroke:none;" height="22"
      /><rect x="134" y="82" width="22" style="clip-path:url(#clipPath4); fill:none; stroke:black;" height="22"
      /><polygon style="fill:none; stroke:black;" points=" 145 82 156 93 145 104 134 93"
      /><rect x="175" width="6" height="10" y="96" style="stroke:none;"
      /><path d="M177.2344 97.6562 C177.5156 97.5938 177.7656 97.5625 178.0156 97.5625 C179.0625 97.5625 179.6719 98.1719 179.6719 99.2656 C179.6719 100.4375 178.9062 101.1094 177.7031 101.1094 L177.1875 101.1094 L177.1875 101.6406 L177.7969 101.6406 C179.2188 101.6406 179.9062 102.4219 179.9062 103.6406 C179.9062 104.8438 179.1719 105.6875 177.875 105.6875 C177.6094 105.6875 177.3125 105.6562 177.0156 105.5625 L176.7812 104.8125 C176.625 104.2812 176.5 104.0469 176.1406 104.0469 C175.8906 104.0469 175.7031 104.1719 175.5781 104.4219 C175.8438 105.6406 176.7812 106.1719 178.0312 106.1719 C179.7188 106.1719 180.875 105.125 180.875 103.7031 C180.875 102.5 180.2031 101.625 178.7969 101.375 C179.9531 101.0156 180.6094 100.2031 180.6094 99.2031 C180.6094 97.9219 179.6719 97.0781 178.1875 97.0781 C177.0469 97.0781 176.0625 97.5938 175.7969 98.6875 C175.9062 99 176.1094 99.1094 176.3594 99.1094 C176.7344 99.1094 176.8906 98.8906 177 98.4062 L177.2344 97.6562 Z" style="fill:black; stroke:none;"
      /><rect x="160" width="8" height="8" y="97" style="stroke:none;"
      /><path d="M164.9844 102.7031 C164.9375 103.8906 164.1562 104.6562 163.3125 104.6562 C162.2656 104.6562 161.5 103.6875 161.5 101.7188 C161.5 100.2812 162.1562 99.1562 163.3438 99.1562 C164.1406 99.1562 164.7812 99.6875 165.0938 100.6406 L164.9844 102.7031 ZM166.9062 104.2812 C166.7344 104.375 166.5469 104.4219 166.3438 104.4219 C165.9531 104.4219 165.75 104.2188 165.75 103.4219 C165.75 102.4844 165.9688 100.5312 166.1875 98.8281 L166.0312 98.7188 L165.2344 98.9219 L165.1406 99.7969 C164.7812 99.0312 164.1562 98.6562 163.3906 98.6562 C162.0469 98.6562 160.5625 99.8438 160.5625 101.9531 C160.5625 104.0938 161.7188 105.1719 163.1406 105.1719 C164.0156 105.1719 164.6875 104.8125 165.0938 103.9844 C165.2031 104.8594 165.5156 105.1719 166.0156 105.1719 C166.4688 105.1719 166.7969 104.9062 167.0156 104.5625 L166.9062 104.2812 Z" style="fill:black; stroke:none;"
      /><polygon style="fill:none; stroke:black;" points=" 197 41 145 41"
      /><rect x="186" y="30" width="22" style="clip-path:url(#clipPath5); stroke:none;" height="22"
      /><rect x="186" y="30" width="22" style="clip-path:url(#clipPath5); fill:rgb(0,144,188); stroke:none;" height="22"
      /><rect x="186" y="30" width="22" style="clip-path:url(#clipPath5); fill:none; stroke:black;" height="22"
      /><rect x="186" y="30" width="22" style="fill:none; stroke:black;" height="22"
      /><polygon style="fill:none; stroke:black;" points=" 145 41 93 41"
      /><circle r="11" style="clip-path:url(#clipPath6); stroke:none;" cx="145" cy="41"
      /><rect x="134" y="30" width="22" style="clip-path:url(#clipPath6); fill:rgb(255,212,0); stroke:none;" height="22"
      /><rect x="134" y="30" width="22" style="clip-path:url(#clipPath6); fill:none; stroke:black;" height="22"
      /><circle r="11" style="fill:none; stroke:black;" cx="145" cy="41"
      /><polygon style="fill:none; stroke:black;" points=" 93 41 41 41"
      /><circle r="11" style="clip-path:url(#clipPath7); stroke:none;" cx="93" cy="41"
      /><rect x="82" y="30" width="22" style="clip-path:url(#clipPath7); fill:rgb(255,212,0); stroke:none;" height="22"
      /><rect x="82" y="30" width="22" style="clip-path:url(#clipPath7); fill:none; stroke:black;" height="22"
      /><circle r="11" style="fill:none; stroke:black;" cx="93" cy="41"
      /><circle r="11" style="clip-path:url(#clipPath8); stroke:none;" cx="41" cy="41"
      /><rect x="30" y="30" width="22" style="clip-path:url(#clipPath8); fill:rgb(255,212,0); stroke:none;" height="22"
      /><rect x="30" y="30" width="22" style="clip-path:url(#clipPath8); fill:none; stroke:black;" height="22"
      /><circle r="11" style="fill:none; stroke:black;" cx="41" cy="41"
      /><rect x="70" width="7" height="9" y="44" style="stroke:none;"
      /><path d="M71 49.5156 L73.9531 45.2656 L73.9531 49.5156 L71 49.5156 ZM76.2812 49.5156 L74.8594 49.5156 L74.8594 44.125 L74.2344 44.125 L70.3438 49.6406 L70.3438 50.1875 L73.9531 50.1875 L73.9531 53 L74.8594 53 L74.8594 50.1875 L76.2812 50.1875 L76.2812 49.5156 Z" style="fill:black; stroke:none;"
      /><rect x="56" width="8" height="8" y="45" style="stroke:none;"
      /><path d="M60.9844 50.7031 C60.9375 51.8906 60.1562 52.6562 59.3125 52.6562 C58.2656 52.6562 57.5 51.6875 57.5 49.7188 C57.5 48.2812 58.1562 47.1562 59.3438 47.1562 C60.1406 47.1562 60.7812 47.6875 61.0938 48.6406 L60.9844 50.7031 ZM62.9062 52.2812 C62.7344 52.375 62.5469 52.4219 62.3438 52.4219 C61.9531 52.4219 61.75 52.2188 61.75 51.4219 C61.75 50.4844 61.9688 48.5312 62.1875 46.8281 L62.0312 46.7188 L61.2344 46.9219 L61.1406 47.7969 C60.7812 47.0312 60.1562 46.6562 59.3906 46.6562 C58.0469 46.6562 56.5625 47.8438 56.5625 49.9531 C56.5625 52.0938 57.7188 53.1719 59.1406 53.1719 C60.0156 53.1719 60.6875 52.8125 61.0938 51.9844 C61.2031 52.8594 61.5156 53.1719 62.0156 53.1719 C62.4688 53.1719 62.7969 52.9062 63.0156 52.5625 L62.9062 52.2812 Z" style="fill:black; stroke:none;"
      /><rect x="122" width="7" height="9" y="44" style="stroke:none;"
      /><path d="M123 49.5156 L125.9531 45.2656 L125.9531 49.5156 L123 49.5156 ZM128.2812 49.5156 L126.8594 49.5156 L126.8594 44.125 L126.2344 44.125 L122.3438 49.6406 L122.3438 50.1875 L125.9531 50.1875 L125.9531 53 L126.8594 53 L126.8594 50.1875 L128.2812 50.1875 L128.2812 49.5156 Z" style="fill:black; stroke:none;"
      /><rect x="109" width="6" height="13" y="42" style="stroke:none;"
      /><path d="M111.0938 48.2031 C111.0938 46.6562 111.75 45.8125 112.7969 45.8125 C113.7188 45.8125 114.2656 46.4531 114.2656 47.5156 C114.2656 48.7188 113.5 49.4375 112.1875 49.7031 L112.2969 50.3125 C114.2188 50.2344 114.9375 51.2188 114.9375 52.4375 C114.9375 53.625 114.2344 54.4219 112.9531 54.4219 C112.25 54.4219 111.6562 54.1562 111.0938 53.7188 L111.0938 48.2031 ZM110.2031 54.9062 L110.1094 57.375 L110.2656 57.4844 L111.1562 57.2656 L111.0156 54.0938 C111.5469 54.8438 112.3594 55.1719 113.1719 55.1719 C114.5625 55.1719 115.8594 54.2188 115.8594 52.4844 C115.8594 50.9531 114.875 50.1094 113.125 50 C114.5625 49.6094 115.1875 48.4531 115.1875 47.4844 C115.1875 46.0938 114.1562 45.3125 112.9062 45.3125 C111.2969 45.3125 110.2188 46.5469 110.2188 48.5156 L110.2031 54.9062 Z" style="fill:black; stroke:none;"
      /><rect x="174" width="7" height="9" y="44" style="stroke:none;"
      /><path d="M175 49.5156 L177.9531 45.2656 L177.9531 49.5156 L175 49.5156 ZM180.2812 49.5156 L178.8594 49.5156 L178.8594 44.125 L178.2344 44.125 L174.3438 49.6406 L174.3438 50.1875 L177.9531 50.1875 L177.9531 53 L178.8594 53 L178.8594 50.1875 L180.2812 50.1875 L180.2812 49.5156 Z" style="fill:black; stroke:none;"
      /><rect x="161" width="6" height="13" y="42" style="stroke:none;"
      /><path d="M163.0938 48.2031 C163.0938 46.6562 163.75 45.8125 164.7969 45.8125 C165.7188 45.8125 166.2656 46.4531 166.2656 47.5156 C166.2656 48.7188 165.5 49.4375 164.1875 49.7031 L164.2969 50.3125 C166.2188 50.2344 166.9375 51.2188 166.9375 52.4375 C166.9375 53.625 166.2344 54.4219 164.9531 54.4219 C164.25 54.4219 163.6562 54.1562 163.0938 53.7188 L163.0938 48.2031 ZM162.2031 54.9062 L162.1094 57.375 L162.2656 57.4844 L163.1562 57.2656 L163.0156 54.0938 C163.5469 54.8438 164.3594 55.1719 165.1719 55.1719 C166.5625 55.1719 167.8594 54.2188 167.8594 52.4844 C167.8594 50.9531 166.875 50.1094 165.125 50 C166.5625 49.6094 167.1875 48.4531 167.1875 47.4844 C167.1875 46.0938 166.1562 45.3125 164.9062 45.3125 C163.2969 45.3125 162.2188 46.5469 162.2188 48.5156 L162.2031 54.9062 Z" style="fill:black; stroke:none;"
      /><rect x="231" width="6" height="10" y="78" style="stroke:none;"
      /><path d="M233.2344 79.6562 C233.5156 79.5938 233.7656 79.5625 234.0156 79.5625 C235.0625 79.5625 235.6719 80.1719 235.6719 81.2656 C235.6719 82.4375 234.9062 83.1094 233.7031 83.1094 L233.1875 83.1094 L233.1875 83.6406 L233.7969 83.6406 C235.2188 83.6406 235.9062 84.4219 235.9062 85.6406 C235.9062 86.8438 235.1719 87.6875 233.875 87.6875 C233.6094 87.6875 233.3125 87.6562 233.0156 87.5625 L232.7812 86.8125 C232.625 86.2812 232.5 86.0469 232.1406 86.0469 C231.8906 86.0469 231.7031 86.1719 231.5781 86.4219 C231.8438 87.6406 232.7812 88.1719 234.0312 88.1719 C235.7188 88.1719 236.875 87.125 236.875 85.7031 C236.875 84.5 236.2031 83.625 234.7969 83.375 C235.9531 83.0156 236.6094 82.2031 236.6094 81.2031 C236.6094 79.9219 235.6719 79.0781 234.1875 79.0781 C233.0469 79.0781 232.0625 79.5938 231.7969 80.6875 C231.9062 81 232.1094 81.1094 232.3594 81.1094 C232.7344 81.1094 232.8906 80.8906 233 80.4062 L233.2344 79.6562 Z" style="fill:black; stroke:none;"
      /><rect x="215" width="6" height="13" y="84" style="stroke:none;"
      /><path d="M217.0938 90.2031 C217.0938 88.6562 217.75 87.8125 218.7969 87.8125 C219.7188 87.8125 220.2656 88.4531 220.2656 89.5156 C220.2656 90.7188 219.5 91.4375 218.1875 91.7031 L218.2969 92.3125 C220.2188 92.2344 220.9375 93.2188 220.9375 94.4375 C220.9375 95.625 220.2344 96.4219 218.9531 96.4219 C218.25 96.4219 217.6562 96.1562 217.0938 95.7188 L217.0938 90.2031 ZM216.2031 96.9062 L216.1094 99.375 L216.2656 99.4844 L217.1562 99.2656 L217.0156 96.0938 C217.5469 96.8438 218.3594 97.1719 219.1719 97.1719 C220.5625 97.1719 221.8594 96.2188 221.8594 94.4844 C221.8594 92.9531 220.875 92.1094 219.125 92 C220.5625 91.6094 221.1875 90.4531 221.1875 89.4844 C221.1875 88.0938 220.1562 87.3125 218.9062 87.3125 C217.2969 87.3125 216.2188 88.5469 216.2188 90.5156 L216.2031 96.9062 Z" style="fill:black; stroke:none;"
      /><rect x="224" width="6" height="10" y="60" style="stroke:none;"
      /><path d="M227.3438 69.6875 C226.2031 69.6875 225.5312 68.5 225.5312 66.2969 C225.5312 66.2188 225.5312 66.125 225.5312 66.0469 C226.0938 65.5 226.7188 65.3125 227.3438 65.3125 C228.3125 65.3125 228.9531 65.9844 228.9531 67.4531 C228.9531 68.9375 228.3125 69.6875 227.3438 69.6875 ZM229.5312 61.0781 C226.3438 61.4531 224.5625 63.7656 224.5625 66.4531 C224.5625 68.7812 225.6094 70.1719 227.3125 70.1719 C228.8438 70.1719 229.9219 69.1094 229.9219 67.2812 C229.9219 65.6875 228.9688 64.6562 227.5625 64.6562 C226.8281 64.6562 226.1406 64.9844 225.5781 65.5781 C225.7969 63.4062 227.0781 61.9688 229.5938 61.3906 L229.5312 61.0781 Z" style="fill:black; stroke:none;"
      /><rect x="208" width="6" height="13" y="50" style="stroke:none;"
      /><path d="M210.0938 56.2031 C210.0938 54.6562 210.75 53.8125 211.7969 53.8125 C212.7188 53.8125 213.2656 54.4531 213.2656 55.5156 C213.2656 56.7188 212.5 57.4375 211.1875 57.7031 L211.2969 58.3125 C213.2188 58.2344 213.9375 59.2188 213.9375 60.4375 C213.9375 61.625 213.2344 62.4219 211.9531 62.4219 C211.25 62.4219 210.6562 62.1562 210.0938 61.7188 L210.0938 56.2031 ZM209.2031 62.9062 L209.1094 65.375 L209.2656 65.4844 L210.1562 65.2656 L210.0156 62.0938 C210.5469 62.8438 211.3594 63.1719 212.1719 63.1719 C213.5625 63.1719 214.8594 62.2188 214.8594 60.4844 C214.8594 58.9531 213.875 58.1094 212.125 58 C213.5625 57.6094 214.1875 56.4531 214.1875 55.4844 C214.1875 54.0938 213.1562 53.3125 211.9062 53.3125 C210.2969 53.3125 209.2188 54.5469 209.2188 56.5156 L209.2031 62.9062 Z" style="fill:black; stroke:none;"
      /><rect x="279" width="6" height="10" y="70" style="stroke:none;"
      /><path d="M281.2344 71.6562 C281.5156 71.5938 281.7656 71.5625 282.0156 71.5625 C283.0625 71.5625 283.6719 72.1719 283.6719 73.2656 C283.6719 74.4375 282.9062 75.1094 281.7031 75.1094 L281.1875 75.1094 L281.1875 75.6406 L281.7969 75.6406 C283.2188 75.6406 283.9062 76.4219 283.9062 77.6406 C283.9062 78.8438 283.1719 79.6875 281.875 79.6875 C281.6094 79.6875 281.3125 79.6562 281.0156 79.5625 L280.7812 78.8125 C280.625 78.2812 280.5 78.0469 280.1406 78.0469 C279.8906 78.0469 279.7031 78.1719 279.5781 78.4219 C279.8438 79.6406 280.7812 80.1719 282.0312 80.1719 C283.7188 80.1719 284.875 79.125 284.875 77.7031 C284.875 76.5 284.2031 75.625 282.7969 75.375 C283.9531 75.0156 284.6094 74.2031 284.6094 73.2031 C284.6094 71.9219 283.6719 71.0781 282.1875 71.0781 C281.0469 71.0781 280.0625 71.5938 279.7969 72.6875 C279.9062 73 280.1094 73.1094 280.3594 73.1094 C280.7344 73.1094 280.8906 72.8906 281 72.4062 L281.2344 71.6562 Z" style="fill:black; stroke:none;"
      /><rect x="264" width="8" height="8" y="71" style="stroke:none;"
      /><path d="M268.9844 76.7031 C268.9375 77.8906 268.1562 78.6562 267.3125 78.6562 C266.2656 78.6562 265.5 77.6875 265.5 75.7188 C265.5 74.2812 266.1562 73.1562 267.3438 73.1562 C268.1406 73.1562 268.7812 73.6875 269.0938 74.6406 L268.9844 76.7031 ZM270.9062 78.2812 C270.7344 78.375 270.5469 78.4219 270.3438 78.4219 C269.9531 78.4219 269.75 78.2188 269.75 77.4219 C269.75 76.4844 269.9688 74.5312 270.1875 72.8281 L270.0312 72.7188 L269.2344 72.9219 L269.1406 73.7969 C268.7812 73.0312 268.1562 72.6562 267.3906 72.6562 C266.0469 72.6562 264.5625 73.8438 264.5625 75.9531 C264.5625 78.0938 265.7188 79.1719 267.1406 79.1719 C268.0156 79.1719 268.6875 78.8125 269.0938 77.9844 C269.2031 78.8594 269.5156 79.1719 270.0156 79.1719 C270.4688 79.1719 270.7969 78.9062 271.0156 78.5625 L270.9062 78.2812 Z" style="fill:black; stroke:none;"
    /></g
  ></g
></svg
>
