<?xml version="1.0"?>
<!DOCTYPE svg PUBLIC '-//W3C//DTD SVG 1.0//EN'
          'http://www.w3.org/TR/2001/REC-SVG-20010904/DTD/svg10.dtd'>
<svg xmlns:xlink="http://www.w3.org/1999/xlink" style="fill-opacity:1; color-rendering:auto; color-interpolation:auto; text-rendering:auto; stroke:black; stroke-linecap:square; stroke-miterlimit:10; shape-rendering:auto; stroke-opacity:1; fill:black; stroke-dasharray:none; font-weight:normal; stroke-width:1; font-family:'Dialog'; font-style:normal; stroke-linejoin:miter; font-size:12px; stroke-dashoffset:0; image-rendering:auto;" viewBox="0 0 394 238" xmlns="http://www.w3.org/2000/svg"
><!--Generated by the Batik Graphics2D SVG Generator--><defs id="genericDefs"
  /><g
  ><defs id="defs1"
    ><clipPath clipPathUnits="userSpaceOnUse" id="clipPath1"
      ><path d="M290 108 L312 108 L312 130 L290 130 L290 108 Z"
      /></clipPath
      ><clipPath clipPathUnits="userSpaceOnUse" id="clipPath2"
      ><path d="M260 145 C260 151.0751 255.0751 156 249 156 C242.9249 156 238 151.0751 238 145 C238 138.9249 242.9249 134 249 134 C255.0751 134 260 138.9249 260 145 Z"
      /></clipPath
      ><clipPath clipPathUnits="userSpaceOnUse" id="clipPath3"
      ><path d="M186 134 L208 134 L208 156 L186 156 L186 134 Z"
      /></clipPath
      ><clipPath clipPathUnits="userSpaceOnUse" id="clipPath4"
      ><path d="M156 145 C156 151.0751 151.0751 156 145 156 C138.9249 156 134 151.0751 134 145 C134 138.9249 138.9249 134 145 134 C151.0751 134 156 138.9249 156 145 Z"
      /></clipPath
      ><clipPath clipPathUnits="userSpaceOnUse" id="clipPath5"
      ><path d="M82 186 L104 186 L104 208 L82 208 L82 186 Z"
      /></clipPath
      ><clipPath clipPathUnits="userSpaceOnUse" id="clipPath6"
      ><path d="M52 197 C52 203.0751 47.0751 208 41 208 C34.9249 208 30 203.0751 30 197 C30 190.9249 34.9249 186 41 186 C47.0751 186 52 190.9249 52 197 Z"
      /></clipPath
      ><clipPath clipPathUnits="userSpaceOnUse" id="clipPath7"
      ><path style="fill-rule:evenodd;" d="M41 156 L30 134 L52 134 Z"
      /></clipPath
      ><clipPath clipPathUnits="userSpaceOnUse" id="clipPath8"
      ><path d="M82 82 L104 82 L104 104 L82 104 L82 82 Z"
      /></clipPath
      ><clipPath clipPathUnits="userSpaceOnUse" id="clipPath9"
      ><path d="M52 93 C52 99.0751 47.0751 104 41 104 C34.9249 104 30 99.0751 30 93 C30 86.9249 34.9249 82 41 82 C47.0751 82 52 86.9249 52 93 Z"
      /></clipPath
      ><clipPath clipPathUnits="userSpaceOnUse" id="clipPath10"
      ><path style="fill-rule:evenodd;" d="M41 52 L30 30 L52 30 Z"
      /></clipPath
      ><clipPath clipPathUnits="userSpaceOnUse" id="clipPath11"
      ><path d="M238 82 L260 82 L260 104 L238 104 L238 82 Z"
      /></clipPath
      ><clipPath clipPathUnits="userSpaceOnUse" id="clipPath12"
      ><path d="M208 93 C208 99.0751 203.0751 104 197 104 C190.9249 104 186 99.0751 186 93 C186 86.9249 190.9249 82 197 82 C203.0751 82 208 86.9249 208 93 Z"
      /></clipPath
      ><clipPath clipPathUnits="userSpaceOnUse" id="clipPath13"
      ><path style="fill-rule:evenodd;" d="M197 52 L186 30 L208 30 Z"
      /></clipPath
      ><clipPath clipPathUnits="userSpaceOnUse" id="clipPath14"
      ><path d="M134 82 L156 82 L156 104 L134 104 L134 82 Z"
      /></clipPath
    ></defs
    ><g style="fill:white; text-rendering:optimizeSpeed; stroke:white;"
    ><rect x="0" width="394" height="238" y="0" style="stroke:none;"
      /><polygon style="fill:none; stroke:black;" points=" 353 119 301 119"
      /><path d="M353 108 C347.5 113.5 358.5 124.5 353 130" style="fill:none; stroke:black;"
      /><polygon style="fill:none; stroke:black;" points=" 301 119 249 145"
      /><polygon style="fill:none; stroke:black;" points=" 301 119 249 93"
      /><rect x="290" y="108" width="22" style="clip-path:url(#clipPath1); stroke:none;" height="22"
      /><rect x="290" y="108" width="22" style="clip-path:url(#clipPath1); fill:rgb(255,212,0); stroke:none;" height="22"
      /><rect x="290" y="108" width="22" style="clip-path:url(#clipPath1); fill:none; stroke:black;" height="22"
      /><rect x="290" y="108" width="22" style="fill:none; stroke:black;" height="22"
      /><polygon style="fill:none; stroke:black;" points=" 249 145 197 145"
      /><circle style="clip-path:url(#clipPath2); stroke:none;" r="11" cx="249" cy="145"
      /><rect x="238" y="134" width="22" style="clip-path:url(#clipPath2); fill:rgb(255,212,0); stroke:none;" height="22"
      /><rect x="238" y="134" width="22" style="clip-path:url(#clipPath2); fill:none; stroke:black;" height="22"
      /><circle style="fill:none; stroke:black;" r="11" cx="249" cy="145"
      /><polygon style="fill:none; stroke:black;" points=" 197 145 145 145"
      /><rect x="186" y="134" width="22" style="clip-path:url(#clipPath3); stroke:none;" height="22"
      /><rect x="186" y="134" width="22" style="clip-path:url(#clipPath3); fill:rgb(0,144,188); stroke:none;" height="22"
      /><rect x="186" y="134" width="22" style="clip-path:url(#clipPath3); fill:none; stroke:black;" height="22"
      /><rect x="186" y="134" width="22" style="fill:none; stroke:black;" height="22"
      /><polygon style="fill:none; stroke:black;" points=" 145 145 93 197"
      /><polygon style="fill:none; stroke:black;" points=" 145 145 93 93"
      /><circle style="clip-path:url(#clipPath4); stroke:none;" r="11" cx="145" cy="145"
      /><rect x="134" y="134" width="22" style="clip-path:url(#clipPath4); fill:rgb(255,212,0); stroke:none;" height="22"
      /><rect x="134" y="134" width="22" style="clip-path:url(#clipPath4); fill:none; stroke:black;" height="22"
      /><circle style="fill:none; stroke:black;" r="11" cx="145" cy="145"
      /><polygon style="fill:none; stroke:black;" points=" 93 197 41 197"
      /><rect x="82" y="186" width="22" style="clip-path:url(#clipPath5); stroke:none;" height="22"
      /><rect x="82" y="186" width="22" style="clip-path:url(#clipPath5); fill:rgb(0,144,188); stroke:none;" height="22"
      /><rect x="82" y="186" width="22" style="clip-path:url(#clipPath5); fill:none; stroke:black;" height="22"
      /><rect x="82" y="186" width="22" style="fill:none; stroke:black;" height="22"
      /><polygon style="fill:none; stroke:black;" points=" 41 197 41 145"
      /><circle style="clip-path:url(#clipPath6); stroke:none;" r="11" cx="41" cy="197"
      /><rect x="30" y="186" width="22" style="clip-path:url(#clipPath6); fill:rgb(255,212,0); stroke:none;" height="22"
      /><rect x="30" y="186" width="22" style="clip-path:url(#clipPath6); fill:none; stroke:black;" height="22"
      /><circle style="fill:none; stroke:black;" r="11" cx="41" cy="197"
      /><polygon style="clip-path:url(#clipPath7); stroke:none;" points=" 41 156 30 134 52 134"
      /><rect x="30" y="134" width="22" style="clip-path:url(#clipPath7); fill:rgb(237,28,36); stroke:none;" height="22"
      /><rect x="30" y="134" width="22" style="clip-path:url(#clipPath7); fill:none; stroke:black;" height="22"
      /><polygon style="fill:none; stroke:black;" points=" 41 156 30 134 52 134"
      /><rect x="30" y="173" width="5" style="stroke:none;" height="10"
    /></g
    ><g style="font-family:'Serif'; text-rendering:optimizeSpeed; "
    ><path style="stroke:none;" d="M31.8906 181.6875 C31.4844 181.6875 31.1562 182.0469 31.1562 182.4219 C31.1562 182.8125 31.4844 183.1562 31.8906 183.1562 C32.2969 183.1562 32.6406 182.8125 32.6406 182.4219 C32.6406 182.0469 32.2969 181.6875 31.8906 181.6875 ZM33.4688 175.5781 C33.7188 175.8906 33.875 176.2656 33.8906 176.6562 C33.8906 177.1875 33.625 177.5 33.0312 177.7656 L32.4062 178.0156 C31.6406 178.3125 31.3906 178.5469 31.3906 178.9375 C31.3906 179.1094 31.4531 179.3438 31.5781 179.8125 L31.7344 180.3438 L32.1094 180.3438 L32.0938 179.5312 C32.0938 179.0938 32.2031 178.9688 32.7812 178.7344 L33.2031 178.5625 C34.0312 178.2188 34.4531 177.6875 34.4531 176.8438 C34.4531 175.1562 32.6562 174.1875 31.5 174.0312 C31.1094 174.125 30.9062 174.2969 30.9062 174.6406 C30.9062 174.9375 31.0625 175.1562 31.7188 175.2656 L33.4688 175.5781 Z"
      /><rect x="30" y="159" width="5" style="fill:white; stroke:none;" height="10"
      /><path style="stroke:none;" d="M31.8906 167.6875 C31.4844 167.6875 31.1562 168.0469 31.1562 168.4219 C31.1562 168.8125 31.4844 169.1562 31.8906 169.1562 C32.2969 169.1562 32.6406 168.8125 32.6406 168.4219 C32.6406 168.0469 32.2969 167.6875 31.8906 167.6875 ZM33.4688 161.5781 C33.7188 161.8906 33.875 162.2656 33.8906 162.6562 C33.8906 163.1875 33.625 163.5 33.0312 163.7656 L32.4062 164.0156 C31.6406 164.3125 31.3906 164.5469 31.3906 164.9375 C31.3906 165.1094 31.4531 165.3438 31.5781 165.8125 L31.7344 166.3438 L32.1094 166.3438 L32.0938 165.5312 C32.0938 165.0938 32.2031 164.9688 32.7812 164.7344 L33.2031 164.5625 C34.0312 164.2188 34.4531 163.6875 34.4531 162.8438 C34.4531 161.1562 32.6562 160.1875 31.5 160.0312 C31.1094 160.125 30.9062 160.2969 30.9062 160.6406 C30.9062 160.9375 31.0625 161.1562 31.7188 161.2656 L33.4688 161.5781 Z"
      /><rect x="71" y="200" width="5" style="fill:white; stroke:none;" height="10"
      /><path style="stroke:none;" d="M72.8906 208.6875 C72.4844 208.6875 72.1562 209.0469 72.1562 209.4219 C72.1562 209.8125 72.4844 210.1562 72.8906 210.1562 C73.2969 210.1562 73.6406 209.8125 73.6406 209.4219 C73.6406 209.0469 73.2969 208.6875 72.8906 208.6875 ZM74.4688 202.5781 C74.7188 202.8906 74.875 203.2656 74.8906 203.6562 C74.8906 204.1875 74.625 204.5 74.0312 204.7656 L73.4062 205.0156 C72.6406 205.3125 72.3906 205.5469 72.3906 205.9375 C72.3906 206.1094 72.4531 206.3438 72.5781 206.8125 L72.7344 207.3438 L73.1094 207.3438 L73.0938 206.5312 C73.0938 206.0938 73.2031 205.9688 73.7812 205.7344 L74.2031 205.5625 C75.0312 205.2188 75.4531 204.6875 75.4531 203.8438 C75.4531 202.1562 73.6562 201.1875 72.5 201.0312 C72.1094 201.125 71.9062 201.2969 71.9062 201.6406 C71.9062 201.9375 72.0625 202.1562 72.7188 202.2656 L74.4688 202.5781 Z"
      /><rect x="57" y="200" width="5" style="fill:white; stroke:none;" height="10"
      /><path style="stroke:none;" d="M58.8906 208.6875 C58.4844 208.6875 58.1562 209.0469 58.1562 209.4219 C58.1562 209.8125 58.4844 210.1562 58.8906 210.1562 C59.2969 210.1562 59.6406 209.8125 59.6406 209.4219 C59.6406 209.0469 59.2969 208.6875 58.8906 208.6875 ZM60.4688 202.5781 C60.7188 202.8906 60.875 203.2656 60.8906 203.6562 C60.8906 204.1875 60.625 204.5 60.0312 204.7656 L59.4062 205.0156 C58.6406 205.3125 58.3906 205.5469 58.3906 205.9375 C58.3906 206.1094 58.4531 206.3438 58.5781 206.8125 L58.7344 207.3438 L59.1094 207.3438 L59.0938 206.5312 C59.0938 206.0938 59.2031 205.9688 59.7812 205.7344 L60.2031 205.5625 C61.0312 205.2188 61.4531 204.6875 61.4531 203.8438 C61.4531 202.1562 59.6562 201.1875 58.5 201.0312 C58.1094 201.125 57.9062 201.2969 57.9062 201.6406 C57.9062 201.9375 58.0625 202.1562 58.7188 202.2656 L60.4688 202.5781 Z"
      /><polygon style="fill:none;" points=" 93 93 41 93"
      /><rect x="82" y="82" width="22" style="clip-path:url(#clipPath8); fill:white; stroke:none;" height="22"
      /><rect x="82" y="82" width="22" style="clip-path:url(#clipPath8); fill:rgb(0,144,188); stroke:none;" height="22"
      /><rect x="82" y="82" width="22" style="fill:none; clip-path:url(#clipPath8);" height="22"
      /><rect x="82" width="22" height="22" y="82" style="fill:none;"
      /><polygon style="fill:none;" points=" 41 93 41 41"
      /><circle style="fill:white; clip-path:url(#clipPath9); stroke:none;" r="11" cx="41" cy="93"
      /><rect x="30" y="82" width="22" style="clip-path:url(#clipPath9); fill:rgb(255,212,0); stroke:none;" height="22"
      /><rect x="30" y="82" width="22" style="fill:none; clip-path:url(#clipPath9);" height="22"
      /><circle r="11" style="fill:none;" cx="41" cy="93"
      /><polygon style="fill:white; clip-path:url(#clipPath10); stroke:none;" points=" 41 52 30 30 52 30"
      /><rect x="30" y="30" width="22" style="clip-path:url(#clipPath10); fill:rgb(237,28,36); stroke:none;" height="22"
      /><rect x="30" y="30" width="22" style="fill:none; clip-path:url(#clipPath10);" height="22"
      /><polygon style="fill:none;" points=" 41 52 30 30 52 30"
      /><rect x="30" y="69" width="5" style="fill:white; stroke:none;" height="10"
      /><path style="stroke:none;" d="M31.8906 77.6875 C31.4844 77.6875 31.1562 78.0469 31.1562 78.4219 C31.1562 78.8125 31.4844 79.1562 31.8906 79.1562 C32.2969 79.1562 32.6406 78.8125 32.6406 78.4219 C32.6406 78.0469 32.2969 77.6875 31.8906 77.6875 ZM33.4688 71.5781 C33.7188 71.8906 33.875 72.2656 33.8906 72.6562 C33.8906 73.1875 33.625 73.5 33.0312 73.7656 L32.4062 74.0156 C31.6406 74.3125 31.3906 74.5469 31.3906 74.9375 C31.3906 75.1094 31.4531 75.3438 31.5781 75.8125 L31.7344 76.3438 L32.1094 76.3438 L32.0938 75.5312 C32.0938 75.0938 32.2031 74.9688 32.7812 74.7344 L33.2031 74.5625 C34.0312 74.2188 34.4531 73.6875 34.4531 72.8438 C34.4531 71.1562 32.6562 70.1875 31.5 70.0312 C31.1094 70.125 30.9062 70.2969 30.9062 70.6406 C30.9062 70.9375 31.0625 71.1562 31.7188 71.2656 L33.4688 71.5781 Z"
      /><rect x="30" y="55" width="5" style="fill:white; stroke:none;" height="10"
      /><path style="stroke:none;" d="M31.8906 63.6875 C31.4844 63.6875 31.1562 64.0469 31.1562 64.4219 C31.1562 64.8125 31.4844 65.1562 31.8906 65.1562 C32.2969 65.1562 32.6406 64.8125 32.6406 64.4219 C32.6406 64.0469 32.2969 63.6875 31.8906 63.6875 ZM33.4688 57.5781 C33.7188 57.8906 33.875 58.2656 33.8906 58.6562 C33.8906 59.1875 33.625 59.5 33.0312 59.7656 L32.4062 60.0156 C31.6406 60.3125 31.3906 60.5469 31.3906 60.9375 C31.3906 61.1094 31.4531 61.3438 31.5781 61.8125 L31.7344 62.3438 L32.1094 62.3438 L32.0938 61.5312 C32.0938 61.0938 32.2031 60.9688 32.7812 60.7344 L33.2031 60.5625 C34.0312 60.2188 34.4531 59.6875 34.4531 58.8438 C34.4531 57.1562 32.6562 56.1875 31.5 56.0312 C31.1094 56.125 30.9062 56.2969 30.9062 56.6406 C30.9062 56.9375 31.0625 57.1562 31.7188 57.2656 L33.4688 57.5781 Z"
      /><rect x="71" y="96" width="5" style="fill:white; stroke:none;" height="10"
      /><path style="stroke:none;" d="M72.8906 104.6875 C72.4844 104.6875 72.1562 105.0469 72.1562 105.4219 C72.1562 105.8125 72.4844 106.1562 72.8906 106.1562 C73.2969 106.1562 73.6406 105.8125 73.6406 105.4219 C73.6406 105.0469 73.2969 104.6875 72.8906 104.6875 ZM74.4688 98.5781 C74.7188 98.8906 74.875 99.2656 74.8906 99.6562 C74.8906 100.1875 74.625 100.5 74.0312 100.7656 L73.4062 101.0156 C72.6406 101.3125 72.3906 101.5469 72.3906 101.9375 C72.3906 102.1094 72.4531 102.3438 72.5781 102.8125 L72.7344 103.3438 L73.1094 103.3438 L73.0938 102.5312 C73.0938 102.0938 73.2031 101.9688 73.7812 101.7344 L74.2031 101.5625 C75.0312 101.2188 75.4531 100.6875 75.4531 99.8438 C75.4531 98.1562 73.6562 97.1875 72.5 97.0312 C72.1094 97.125 71.9062 97.2969 71.9062 97.6406 C71.9062 97.9375 72.0625 98.1562 72.7188 98.2656 L74.4688 98.5781 Z"
      /><rect x="57" y="96" width="5" style="fill:white; stroke:none;" height="10"
      /><path style="stroke:none;" d="M58.8906 104.6875 C58.4844 104.6875 58.1562 105.0469 58.1562 105.4219 C58.1562 105.8125 58.4844 106.1562 58.8906 106.1562 C59.2969 106.1562 59.6406 105.8125 59.6406 105.4219 C59.6406 105.0469 59.2969 104.6875 58.8906 104.6875 ZM60.4688 98.5781 C60.7188 98.8906 60.875 99.2656 60.8906 99.6562 C60.8906 100.1875 60.625 100.5 60.0312 100.7656 L59.4062 101.0156 C58.6406 101.3125 58.3906 101.5469 58.3906 101.9375 C58.3906 102.1094 58.4531 102.3438 58.5781 102.8125 L58.7344 103.3438 L59.1094 103.3438 L59.0938 102.5312 C59.0938 102.0938 59.2031 101.9688 59.7812 101.7344 L60.2031 101.5625 C61.0312 101.2188 61.4531 100.6875 61.4531 99.8438 C61.4531 98.1562 59.6562 97.1875 58.5 97.0312 C58.1094 97.125 57.9062 97.2969 57.9062 97.6406 C57.9062 97.9375 58.0625 98.1562 58.7188 98.2656 L60.4688 98.5781 Z"
      /><rect x="131" y="162" width="5" style="fill:white; stroke:none;" height="10"
      /><path style="stroke:none;" d="M132.8906 170.6875 C132.4844 170.6875 132.1562 171.0469 132.1562 171.4219 C132.1562 171.8125 132.4844 172.1562 132.8906 172.1562 C133.2969 172.1562 133.6406 171.8125 133.6406 171.4219 C133.6406 171.0469 133.2969 170.6875 132.8906 170.6875 ZM134.4688 164.5781 C134.7188 164.8906 134.875 165.2656 134.8906 165.6562 C134.8906 166.1875 134.625 166.5 134.0312 166.7656 L133.4062 167.0156 C132.6406 167.3125 132.3906 167.5469 132.3906 167.9375 C132.3906 168.1094 132.4531 168.3438 132.5781 168.8125 L132.7344 169.3438 L133.1094 169.3438 L133.0938 168.5312 C133.0938 168.0938 133.2031 167.9688 133.7812 167.7344 L134.2031 167.5625 C135.0312 167.2188 135.4531 166.6875 135.4531 165.8438 C135.4531 164.1562 133.6562 163.1875 132.5 163.0312 C132.1094 163.125 131.9062 163.2969 131.9062 163.6406 C131.9062 163.9375 132.0625 164.1562 132.7188 164.2656 L134.4688 164.5781 Z"
      /><rect x="112" y="181" width="5" style="fill:white; stroke:none;" height="10"
      /><path style="stroke:none;" d="M113.8906 189.6875 C113.4844 189.6875 113.1562 190.0469 113.1562 190.4219 C113.1562 190.8125 113.4844 191.1562 113.8906 191.1562 C114.2969 191.1562 114.6406 190.8125 114.6406 190.4219 C114.6406 190.0469 114.2969 189.6875 113.8906 189.6875 ZM115.4688 183.5781 C115.7188 183.8906 115.875 184.2656 115.8906 184.6562 C115.8906 185.1875 115.625 185.5 115.0312 185.7656 L114.4062 186.0156 C113.6406 186.3125 113.3906 186.5469 113.3906 186.9375 C113.3906 187.1094 113.4531 187.3438 113.5781 187.8125 L113.7344 188.3438 L114.1094 188.3438 L114.0938 187.5312 C114.0938 187.0938 114.2031 186.9688 114.7812 186.7344 L115.2031 186.5625 C116.0312 186.2188 116.4531 185.6875 116.4531 184.8438 C116.4531 183.1562 114.6562 182.1875 113.5 182.0312 C113.1094 182.125 112.9062 182.2969 112.9062 182.6406 C112.9062 182.9375 113.0625 183.1562 113.7188 183.2656 L115.4688 183.5781 Z"
      /><rect x="120" y="129" width="5" style="fill:white; stroke:none;" height="10"
      /><path style="stroke:none;" d="M121.8906 137.6875 C121.4844 137.6875 121.1562 138.0469 121.1562 138.4219 C121.1562 138.8125 121.4844 139.1562 121.8906 139.1562 C122.2969 139.1562 122.6406 138.8125 122.6406 138.4219 C122.6406 138.0469 122.2969 137.6875 121.8906 137.6875 ZM123.4688 131.5781 C123.7188 131.8906 123.875 132.2656 123.8906 132.6562 C123.8906 133.1875 123.625 133.5 123.0312 133.7656 L122.4062 134.0156 C121.6406 134.3125 121.3906 134.5469 121.3906 134.9375 C121.3906 135.1094 121.4531 135.3438 121.5781 135.8125 L121.7344 136.3438 L122.1094 136.3438 L122.0938 135.5312 C122.0938 135.0938 122.2031 134.9688 122.7812 134.7344 L123.2031 134.5625 C124.0312 134.2188 124.4531 133.6875 124.4531 132.8438 C124.4531 131.1562 122.6562 130.1875 121.5 130.0312 C121.1094 130.125 120.9062 130.2969 120.9062 130.6406 C120.9062 130.9375 121.0625 131.1562 121.7188 131.2656 L123.4688 131.5781 Z"
      /><rect x="101" y="110" width="5" style="fill:white; stroke:none;" height="10"
      /><path style="stroke:none;" d="M102.8906 118.6875 C102.4844 118.6875 102.1562 119.0469 102.1562 119.4219 C102.1562 119.8125 102.4844 120.1562 102.8906 120.1562 C103.2969 120.1562 103.6406 119.8125 103.6406 119.4219 C103.6406 119.0469 103.2969 118.6875 102.8906 118.6875 ZM104.4688 112.5781 C104.7188 112.8906 104.875 113.2656 104.8906 113.6562 C104.8906 114.1875 104.625 114.5 104.0312 114.7656 L103.4062 115.0156 C102.6406 115.3125 102.3906 115.5469 102.3906 115.9375 C102.3906 116.1094 102.4531 116.3438 102.5781 116.8125 L102.7344 117.3438 L103.1094 117.3438 L103.0938 116.5312 C103.0938 116.0938 103.2031 115.9688 103.7812 115.7344 L104.2031 115.5625 C105.0312 115.2188 105.4531 114.6875 105.4531 113.8438 C105.4531 112.1562 103.6562 111.1875 102.5 111.0312 C102.1094 111.125 101.9062 111.2969 101.9062 111.6406 C101.9062 111.9375 102.0625 112.1562 102.7188 112.2656 L104.4688 112.5781 Z"
      /><rect x="175" y="148" width="5" style="fill:white; stroke:none;" height="10"
      /><path style="stroke:none;" d="M176.8906 156.6875 C176.4844 156.6875 176.1562 157.0469 176.1562 157.4219 C176.1562 157.8125 176.4844 158.1562 176.8906 158.1562 C177.2969 158.1562 177.6406 157.8125 177.6406 157.4219 C177.6406 157.0469 177.2969 156.6875 176.8906 156.6875 ZM178.4688 150.5781 C178.7188 150.8906 178.875 151.2656 178.8906 151.6562 C178.8906 152.1875 178.625 152.5 178.0312 152.7656 L177.4062 153.0156 C176.6406 153.3125 176.3906 153.5469 176.3906 153.9375 C176.3906 154.1094 176.4531 154.3438 176.5781 154.8125 L176.7344 155.3438 L177.1094 155.3438 L177.0938 154.5312 C177.0938 154.0938 177.2031 153.9688 177.7812 153.7344 L178.2031 153.5625 C179.0312 153.2188 179.4531 152.6875 179.4531 151.8438 C179.4531 150.1562 177.6562 149.1875 176.5 149.0312 C176.1094 149.125 175.9062 149.2969 175.9062 149.6406 C175.9062 149.9375 176.0625 150.1562 176.7188 150.2656 L178.4688 150.5781 Z"
      /><rect x="161" y="148" width="5" style="fill:white; stroke:none;" height="10"
      /><path style="stroke:none;" d="M162.8906 156.6875 C162.4844 156.6875 162.1562 157.0469 162.1562 157.4219 C162.1562 157.8125 162.4844 158.1562 162.8906 158.1562 C163.2969 158.1562 163.6406 157.8125 163.6406 157.4219 C163.6406 157.0469 163.2969 156.6875 162.8906 156.6875 ZM164.4688 150.5781 C164.7188 150.8906 164.875 151.2656 164.8906 151.6562 C164.8906 152.1875 164.625 152.5 164.0312 152.7656 L163.4062 153.0156 C162.6406 153.3125 162.3906 153.5469 162.3906 153.9375 C162.3906 154.1094 162.4531 154.3438 162.5781 154.8125 L162.7344 155.3438 L163.1094 155.3438 L163.0938 154.5312 C163.0938 154.0938 163.2031 153.9688 163.7812 153.7344 L164.2031 153.5625 C165.0312 153.2188 165.4531 152.6875 165.4531 151.8438 C165.4531 150.1562 163.6562 149.1875 162.5 149.0312 C162.1094 149.125 161.9062 149.2969 161.9062 149.6406 C161.9062 149.9375 162.0625 150.1562 162.7188 150.2656 L164.4688 150.5781 Z"
      /><rect x="227" y="148" width="5" style="fill:white; stroke:none;" height="10"
      /><path style="stroke:none;" d="M228.8906 156.6875 C228.4844 156.6875 228.1562 157.0469 228.1562 157.4219 C228.1562 157.8125 228.4844 158.1562 228.8906 158.1562 C229.2969 158.1562 229.6406 157.8125 229.6406 157.4219 C229.6406 157.0469 229.2969 156.6875 228.8906 156.6875 ZM230.4688 150.5781 C230.7188 150.8906 230.875 151.2656 230.8906 151.6562 C230.8906 152.1875 230.625 152.5 230.0312 152.7656 L229.4062 153.0156 C228.6406 153.3125 228.3906 153.5469 228.3906 153.9375 C228.3906 154.1094 228.4531 154.3438 228.5781 154.8125 L228.7344 155.3438 L229.1094 155.3438 L229.0938 154.5312 C229.0938 154.0938 229.2031 153.9688 229.7812 153.7344 L230.2031 153.5625 C231.0312 153.2188 231.4531 152.6875 231.4531 151.8438 C231.4531 150.1562 229.6562 149.1875 228.5 149.0312 C228.1094 149.125 227.9062 149.2969 227.9062 149.6406 C227.9062 149.9375 228.0625 150.1562 228.7188 150.2656 L230.4688 150.5781 Z"
      /><rect x="213" y="148" width="5" style="fill:white; stroke:none;" height="10"
      /><path style="stroke:none;" d="M214.8906 156.6875 C214.4844 156.6875 214.1562 157.0469 214.1562 157.4219 C214.1562 157.8125 214.4844 158.1562 214.8906 158.1562 C215.2969 158.1562 215.6406 157.8125 215.6406 157.4219 C215.6406 157.0469 215.2969 156.6875 214.8906 156.6875 ZM216.4688 150.5781 C216.7188 150.8906 216.875 151.2656 216.8906 151.6562 C216.8906 152.1875 216.625 152.5 216.0312 152.7656 L215.4062 153.0156 C214.6406 153.3125 214.3906 153.5469 214.3906 153.9375 C214.3906 154.1094 214.4531 154.3438 214.5781 154.8125 L214.7344 155.3438 L215.1094 155.3438 L215.0938 154.5312 C215.0938 154.0938 215.2031 153.9688 215.7812 153.7344 L216.2031 153.5625 C217.0312 153.2188 217.4531 152.6875 217.4531 151.8438 C217.4531 150.1562 215.6562 149.1875 214.5 149.0312 C214.1094 149.125 213.9062 149.2969 213.9062 149.6406 C213.9062 149.9375 214.0625 150.1562 214.7188 150.2656 L216.4688 150.5781 Z"
      /><polygon style="fill:none;" points=" 249 93 197 93"
      /><rect x="238" y="82" width="22" style="clip-path:url(#clipPath11); fill:white; stroke:none;" height="22"
      /><rect x="238" y="82" width="22" style="clip-path:url(#clipPath11); fill:rgb(0,144,188); stroke:none;" height="22"
      /><rect x="238" y="82" width="22" style="fill:none; clip-path:url(#clipPath11);" height="22"
      /><rect x="238" width="22" height="22" y="82" style="fill:none;"
      /><polygon style="fill:none;" points=" 197 93 197 41"
      /><polygon style="fill:none;" points=" 197 93 145 93"
      /><circle style="fill:white; clip-path:url(#clipPath12); stroke:none;" r="11" cx="197" cy="93"
      /><rect x="186" y="82" width="22" style="clip-path:url(#clipPath12); fill:rgb(255,212,0); stroke:none;" height="22"
      /><rect x="186" y="82" width="22" style="fill:none; clip-path:url(#clipPath12);" height="22"
      /><circle r="11" style="fill:none;" cx="197" cy="93"
      /><polygon style="fill:white; clip-path:url(#clipPath13); stroke:none;" points=" 197 52 186 30 208 30"
      /><rect x="186" y="30" width="22" style="clip-path:url(#clipPath13); fill:rgb(237,28,36); stroke:none;" height="22"
      /><rect x="186" y="30" width="22" style="fill:none; clip-path:url(#clipPath13);" height="22"
      /><polygon style="fill:none;" points=" 197 52 186 30 208 30"
      /><rect x="134" y="82" width="22" style="clip-path:url(#clipPath14); fill:white; stroke:none;" height="22"
      /><rect x="134" y="82" width="22" style="clip-path:url(#clipPath14); fill:rgb(255,212,0); stroke:none;" height="22"
      /><rect x="134" y="82" width="22" style="fill:none; clip-path:url(#clipPath14);" height="22"
      /><rect x="134" width="22" height="22" y="82" style="fill:none;"
      /><rect x="186" y="69" width="5" style="fill:white; stroke:none;" height="10"
      /><path style="stroke:none;" d="M187.8906 77.6875 C187.4844 77.6875 187.1562 78.0469 187.1562 78.4219 C187.1562 78.8125 187.4844 79.1562 187.8906 79.1562 C188.2969 79.1562 188.6406 78.8125 188.6406 78.4219 C188.6406 78.0469 188.2969 77.6875 187.8906 77.6875 ZM189.4688 71.5781 C189.7188 71.8906 189.875 72.2656 189.8906 72.6562 C189.8906 73.1875 189.625 73.5 189.0312 73.7656 L188.4062 74.0156 C187.6406 74.3125 187.3906 74.5469 187.3906 74.9375 C187.3906 75.1094 187.4531 75.3438 187.5781 75.8125 L187.7344 76.3438 L188.1094 76.3438 L188.0938 75.5312 C188.0938 75.0938 188.2031 74.9688 188.7812 74.7344 L189.2031 74.5625 C190.0312 74.2188 190.4531 73.6875 190.4531 72.8438 C190.4531 71.1562 188.6562 70.1875 187.5 70.0312 C187.1094 70.125 186.9062 70.2969 186.9062 70.6406 C186.9062 70.9375 187.0625 71.1562 187.7188 71.2656 L189.4688 71.5781 Z"
      /><rect x="186" y="55" width="5" style="fill:white; stroke:none;" height="10"
      /><path style="stroke:none;" d="M187.8906 63.6875 C187.4844 63.6875 187.1562 64.0469 187.1562 64.4219 C187.1562 64.8125 187.4844 65.1562 187.8906 65.1562 C188.2969 65.1562 188.6406 64.8125 188.6406 64.4219 C188.6406 64.0469 188.2969 63.6875 187.8906 63.6875 ZM189.4688 57.5781 C189.7188 57.8906 189.875 58.2656 189.8906 58.6562 C189.8906 59.1875 189.625 59.5 189.0312 59.7656 L188.4062 60.0156 C187.6406 60.3125 187.3906 60.5469 187.3906 60.9375 C187.3906 61.1094 187.4531 61.3438 187.5781 61.8125 L187.7344 62.3438 L188.1094 62.3438 L188.0938 61.5312 C188.0938 61.0938 188.2031 60.9688 188.7812 60.7344 L189.2031 60.5625 C190.0312 60.2188 190.4531 59.6875 190.4531 58.8438 C190.4531 57.1562 188.6562 56.1875 187.5 56.0312 C187.1094 56.125 186.9062 56.2969 186.9062 56.6406 C186.9062 56.9375 187.0625 57.1562 187.7188 57.2656 L189.4688 57.5781 Z"
      /><rect x="175" y="96" width="5" style="fill:white; stroke:none;" height="10"
      /><path style="stroke:none;" d="M176.8906 104.6875 C176.4844 104.6875 176.1562 105.0469 176.1562 105.4219 C176.1562 105.8125 176.4844 106.1562 176.8906 106.1562 C177.2969 106.1562 177.6406 105.8125 177.6406 105.4219 C177.6406 105.0469 177.2969 104.6875 176.8906 104.6875 ZM178.4688 98.5781 C178.7188 98.8906 178.875 99.2656 178.8906 99.6562 C178.8906 100.1875 178.625 100.5 178.0312 100.7656 L177.4062 101.0156 C176.6406 101.3125 176.3906 101.5469 176.3906 101.9375 C176.3906 102.1094 176.4531 102.3438 176.5781 102.8125 L176.7344 103.3438 L177.1094 103.3438 L177.0938 102.5312 C177.0938 102.0938 177.2031 101.9688 177.7812 101.7344 L178.2031 101.5625 C179.0312 101.2188 179.4531 100.6875 179.4531 99.8438 C179.4531 98.1562 177.6562 97.1875 176.5 97.0312 C176.1094 97.125 175.9062 97.2969 175.9062 97.6406 C175.9062 97.9375 176.0625 98.1562 176.7188 98.2656 L178.4688 98.5781 Z"
      /><rect x="161" y="96" width="5" style="fill:white; stroke:none;" height="10"
      /><path style="stroke:none;" d="M162.8906 104.6875 C162.4844 104.6875 162.1562 105.0469 162.1562 105.4219 C162.1562 105.8125 162.4844 106.1562 162.8906 106.1562 C163.2969 106.1562 163.6406 105.8125 163.6406 105.4219 C163.6406 105.0469 163.2969 104.6875 162.8906 104.6875 ZM164.4688 98.5781 C164.7188 98.8906 164.875 99.2656 164.8906 99.6562 C164.8906 100.1875 164.625 100.5 164.0312 100.7656 L163.4062 101.0156 C162.6406 101.3125 162.3906 101.5469 162.3906 101.9375 C162.3906 102.1094 162.4531 102.3438 162.5781 102.8125 L162.7344 103.3438 L163.1094 103.3438 L163.0938 102.5312 C163.0938 102.0938 163.2031 101.9688 163.7812 101.7344 L164.2031 101.5625 C165.0312 101.2188 165.4531 100.6875 165.4531 99.8438 C165.4531 98.1562 163.6562 97.1875 162.5 97.0312 C162.1094 97.125 161.9062 97.2969 161.9062 97.6406 C161.9062 97.9375 162.0625 98.1562 162.7188 98.2656 L164.4688 98.5781 Z"
      /><rect x="227" y="96" width="5" style="fill:white; stroke:none;" height="10"
      /><path style="stroke:none;" d="M228.8906 104.6875 C228.4844 104.6875 228.1562 105.0469 228.1562 105.4219 C228.1562 105.8125 228.4844 106.1562 228.8906 106.1562 C229.2969 106.1562 229.6406 105.8125 229.6406 105.4219 C229.6406 105.0469 229.2969 104.6875 228.8906 104.6875 ZM230.4688 98.5781 C230.7188 98.8906 230.875 99.2656 230.8906 99.6562 C230.8906 100.1875 230.625 100.5 230.0312 100.7656 L229.4062 101.0156 C228.6406 101.3125 228.3906 101.5469 228.3906 101.9375 C228.3906 102.1094 228.4531 102.3438 228.5781 102.8125 L228.7344 103.3438 L229.1094 103.3438 L229.0938 102.5312 C229.0938 102.0938 229.2031 101.9688 229.7812 101.7344 L230.2031 101.5625 C231.0312 101.2188 231.4531 100.6875 231.4531 99.8438 C231.4531 98.1562 229.6562 97.1875 228.5 97.0312 C228.1094 97.125 227.9062 97.2969 227.9062 97.6406 C227.9062 97.9375 228.0625 98.1562 228.7188 98.2656 L230.4688 98.5781 Z"
      /><rect x="213" y="96" width="5" style="fill:white; stroke:none;" height="10"
      /><path style="stroke:none;" d="M214.8906 104.6875 C214.4844 104.6875 214.1562 105.0469 214.1562 105.4219 C214.1562 105.8125 214.4844 106.1562 214.8906 106.1562 C215.2969 106.1562 215.6406 105.8125 215.6406 105.4219 C215.6406 105.0469 215.2969 104.6875 214.8906 104.6875 ZM216.4688 98.5781 C216.7188 98.8906 216.875 99.2656 216.8906 99.6562 C216.8906 100.1875 216.625 100.5 216.0312 100.7656 L215.4062 101.0156 C214.6406 101.3125 214.3906 101.5469 214.3906 101.9375 C214.3906 102.1094 214.4531 102.3438 214.5781 102.8125 L214.7344 103.3438 L215.1094 103.3438 L215.0938 102.5312 C215.0938 102.0938 215.2031 101.9688 215.7812 101.7344 L216.2031 101.5625 C217.0312 101.2188 217.4531 100.6875 217.4531 99.8438 C217.4531 98.1562 215.6562 97.1875 214.5 97.0312 C214.1094 97.125 213.9062 97.2969 213.9062 97.6406 C213.9062 97.9375 214.0625 98.1562 214.7188 98.2656 L216.4688 98.5781 Z"
      /><rect x="283" y="130" width="5" style="fill:white; stroke:none;" height="10"
      /><path style="stroke:none;" d="M284.8906 138.6875 C284.4844 138.6875 284.1562 139.0469 284.1562 139.4219 C284.1562 139.8125 284.4844 140.1562 284.8906 140.1562 C285.2969 140.1562 285.6406 139.8125 285.6406 139.4219 C285.6406 139.0469 285.2969 138.6875 284.8906 138.6875 ZM286.4688 132.5781 C286.7188 132.8906 286.875 133.2656 286.8906 133.6562 C286.8906 134.1875 286.625 134.5 286.0312 134.7656 L285.4062 135.0156 C284.6406 135.3125 284.3906 135.5469 284.3906 135.9375 C284.3906 136.1094 284.4531 136.3438 284.5781 136.8125 L284.7344 137.3438 L285.1094 137.3438 L285.0938 136.5312 C285.0938 136.0938 285.2031 135.9688 285.7812 135.7344 L286.2031 135.5625 C287.0312 135.2188 287.4531 134.6875 287.4531 133.8438 C287.4531 132.1562 285.6562 131.1875 284.5 131.0312 C284.1094 131.125 283.9062 131.2969 283.9062 131.6406 C283.9062 131.9375 284.0625 132.1562 284.7188 132.2656 L286.4688 132.5781 Z"
      /><rect x="268" y="138" width="5" style="fill:white; stroke:none;" height="10"
      /><path style="stroke:none;" d="M269.8906 146.6875 C269.4844 146.6875 269.1562 147.0469 269.1562 147.4219 C269.1562 147.8125 269.4844 148.1562 269.8906 148.1562 C270.2969 148.1562 270.6406 147.8125 270.6406 147.4219 C270.6406 147.0469 270.2969 146.6875 269.8906 146.6875 ZM271.4688 140.5781 C271.7188 140.8906 271.875 141.2656 271.8906 141.6562 C271.8906 142.1875 271.625 142.5 271.0312 142.7656 L270.4062 143.0156 C269.6406 143.3125 269.3906 143.5469 269.3906 143.9375 C269.3906 144.1094 269.4531 144.3438 269.5781 144.8125 L269.7344 145.3438 L270.1094 145.3438 L270.0938 144.5312 C270.0938 144.0938 270.2031 143.9688 270.7812 143.7344 L271.2031 143.5625 C272.0312 143.2188 272.4531 142.6875 272.4531 141.8438 C272.4531 140.1562 270.6562 139.1875 269.5 139.0312 C269.1094 139.125 268.9062 139.2969 268.9062 139.6406 C268.9062 139.9375 269.0625 140.1562 269.7188 140.2656 L271.4688 140.5781 Z"
      /><rect x="276" y="112" width="5" style="fill:white; stroke:none;" height="10"
      /><path style="stroke:none;" d="M277.8906 120.6875 C277.4844 120.6875 277.1562 121.0469 277.1562 121.4219 C277.1562 121.8125 277.4844 122.1562 277.8906 122.1562 C278.2969 122.1562 278.6406 121.8125 278.6406 121.4219 C278.6406 121.0469 278.2969 120.6875 277.8906 120.6875 ZM279.4688 114.5781 C279.7188 114.8906 279.875 115.2656 279.8906 115.6562 C279.8906 116.1875 279.625 116.5 279.0312 116.7656 L278.4062 117.0156 C277.6406 117.3125 277.3906 117.5469 277.3906 117.9375 C277.3906 118.1094 277.4531 118.3438 277.5781 118.8125 L277.7344 119.3438 L278.1094 119.3438 L278.0938 118.5312 C278.0938 118.0938 278.2031 117.9688 278.7812 117.7344 L279.2031 117.5625 C280.0312 117.2188 280.4531 116.6875 280.4531 115.8438 C280.4531 114.1562 278.6562 113.1875 277.5 113.0312 C277.1094 113.125 276.9062 113.2969 276.9062 113.6406 C276.9062 113.9375 277.0625 114.1562 277.7188 114.2656 L279.4688 114.5781 Z"
      /><rect x="261" y="104" width="5" style="fill:white; stroke:none;" height="10"
      /><path style="stroke:none;" d="M262.8906 112.6875 C262.4844 112.6875 262.1562 113.0469 262.1562 113.4219 C262.1562 113.8125 262.4844 114.1562 262.8906 114.1562 C263.2969 114.1562 263.6406 113.8125 263.6406 113.4219 C263.6406 113.0469 263.2969 112.6875 262.8906 112.6875 ZM264.4688 106.5781 C264.7188 106.8906 264.875 107.2656 264.8906 107.6562 C264.8906 108.1875 264.625 108.5 264.0312 108.7656 L263.4062 109.0156 C262.6406 109.3125 262.3906 109.5469 262.3906 109.9375 C262.3906 110.1094 262.4531 110.3438 262.5781 110.8125 L262.7344 111.3438 L263.1094 111.3438 L263.0938 110.5312 C263.0938 110.0938 263.2031 109.9688 263.7812 109.7344 L264.2031 109.5625 C265.0312 109.2188 265.4531 108.6875 265.4531 107.8438 C265.4531 106.1562 263.6562 105.1875 262.5 105.0312 C262.1094 105.125 261.9062 105.2969 261.9062 105.6406 C261.9062 105.9375 262.0625 106.1562 262.7188 106.2656 L264.4688 106.5781 Z"
      /><rect x="317" y="122" width="5" style="fill:white; stroke:none;" height="10"
      /><path style="stroke:none;" d="M318.8906 130.6875 C318.4844 130.6875 318.1562 131.0469 318.1562 131.4219 C318.1562 131.8125 318.4844 132.1562 318.8906 132.1562 C319.2969 132.1562 319.6406 131.8125 319.6406 131.4219 C319.6406 131.0469 319.2969 130.6875 318.8906 130.6875 ZM320.4688 124.5781 C320.7188 124.8906 320.875 125.2656 320.8906 125.6562 C320.8906 126.1875 320.625 126.5 320.0312 126.7656 L319.4062 127.0156 C318.6406 127.3125 318.3906 127.5469 318.3906 127.9375 C318.3906 128.1094 318.4531 128.3438 318.5781 128.8125 L318.7344 129.3438 L319.1094 129.3438 L319.0938 128.5312 C319.0938 128.0938 319.2031 127.9688 319.7812 127.7344 L320.2031 127.5625 C321.0312 127.2188 321.4531 126.6875 321.4531 125.8438 C321.4531 124.1562 319.6562 123.1875 318.5 123.0312 C318.1094 123.125 317.9062 123.2969 317.9062 123.6406 C317.9062 123.9375 318.0625 124.1562 318.7188 124.2656 L320.4688 124.5781 Z"
    /></g
  ></g
></svg
>
