<?xml version="1.0"?>
<!DOCTYPE svg PUBLIC '-//W3C//DTD SVG 1.0//EN'
          'http://www.w3.org/TR/2001/REC-SVG-20010904/DTD/svg10.dtd'>
<svg xmlns:xlink="http://www.w3.org/1999/xlink" style="fill-opacity:1; color-rendering:auto; color-interpolation:auto; text-rendering:auto; stroke:black; stroke-linecap:square; stroke-miterlimit:10; shape-rendering:auto; stroke-opacity:1; fill:black; stroke-dasharray:none; font-weight:normal; stroke-width:1; font-family:'Dialog'; font-style:normal; stroke-linejoin:miter; font-size:12px; stroke-dashoffset:0; image-rendering:auto;" viewBox="0 0 342 157" xmlns="http://www.w3.org/2000/svg"
><!--Generated by the Batik Graphics2D SVG Generator--><defs id="genericDefs"
  /><g
  ><defs id="defs1"
    ><clipPath clipPathUnits="userSpaceOnUse" id="clipPath1"
      ><path d="M238 79 L260 79 L260 101 L238 101 L238 79 Z"
      /></clipPath
      ><clipPath clipPathUnits="userSpaceOnUse" id="clipPath2"
      ><path d="M208 116 C208 122.0751 203.0751 127 197 127 C190.9249 127 186 122.0751 186 116 C186 109.9249 190.9249 105 197 105 C203.0751 105 208 109.9249 208 116 Z"
      /></clipPath
      ><clipPath clipPathUnits="userSpaceOnUse" id="clipPath3"
      ><path d="M186 53 L208 53 L208 75 L186 75 L186 53 Z"
      /></clipPath
      ><clipPath clipPathUnits="userSpaceOnUse" id="clipPath4"
      ><path d="M156 64 C156 70.0751 151.0751 75 145 75 C138.9249 75 134 70.0751 134 64 C134 57.9249 138.9249 53 145 53 C151.0751 53 156 57.9249 156 64 Z"
      /></clipPath
      ><clipPath clipPathUnits="userSpaceOnUse" id="clipPath5"
      ><path d="M82 53 L104 53 L104 75 L82 75 L82 53 Z"
      /></clipPath
      ><clipPath clipPathUnits="userSpaceOnUse" id="clipPath6"
      ><path d="M52 64 C52 70.0751 47.0751 75 41 75 C34.9249 75 30 70.0751 30 64 C30 57.9249 34.9249 53 41 53 C47.0751 53 52 57.9249 52 64 Z"
      /></clipPath
      ><clipPath clipPathUnits="userSpaceOnUse" id="clipPath7"
      ><path style="fill-rule:evenodd;" d="M41 105 L52 127 L30 127 Z"
      /></clipPath
    ></defs
    ><g style="fill:white; text-rendering:optimizeSpeed; stroke:white;"
    ><rect x="0" width="342" height="157" y="0" style="stroke:none;"
      /><polygon style="fill:none; stroke:black;" points=" 301 90 249 90"
      /><path d="M301 79 C295.5 84.5 306.5 95.5 301 101" style="fill:none; stroke:black;"
      /><polygon style="fill:none; stroke:black;" points=" 249 90 197 116"
      /><polygon style="fill:none; stroke:black;" points=" 249 90 197 64"
      /><rect x="238" y="79" width="22" style="clip-path:url(#clipPath1); stroke:none;" height="22"
      /><rect x="238" y="79" width="22" style="clip-path:url(#clipPath1); fill:rgb(255,212,0); stroke:none;" height="22"
      /><rect x="238" y="79" width="22" style="clip-path:url(#clipPath1); fill:none; stroke:black;" height="22"
      /><rect x="238" y="79" width="22" style="fill:none; stroke:black;" height="22"
      /><circle style="clip-path:url(#clipPath2); stroke:none;" r="11" cx="197" cy="116"
      /><rect x="186" y="105" width="22" style="clip-path:url(#clipPath2); fill:rgb(255,212,0); stroke:none;" height="22"
      /><rect x="186" y="105" width="22" style="clip-path:url(#clipPath2); fill:none; stroke:black;" height="22"
      /><circle style="fill:none; stroke:black;" r="11" cx="197" cy="116"
      /><polygon style="fill:none; stroke:black;" points=" 197 64 145 64"
      /><rect x="186" y="53" width="22" style="clip-path:url(#clipPath3); stroke:none;" height="22"
      /><rect x="186" y="53" width="22" style="clip-path:url(#clipPath3); fill:rgb(0,144,188); stroke:none;" height="22"
      /><rect x="186" y="53" width="22" style="clip-path:url(#clipPath3); fill:none; stroke:black;" height="22"
      /><rect x="186" y="53" width="22" style="fill:none; stroke:black;" height="22"
      /><rect x="189" y="35" width="14" style="stroke:none;" height="10"
    /></g
    ><g style="text-rendering:optimizeSpeed; font-size:14px; font-family:'SansSerif';"
    ><path style="stroke:none;" d="M193.1094 40.5781 C194.3438 40.5781 194.9688 41.4688 194.9688 42.8438 C194.9688 44.25 194.1875 45.1875 193.2188 45.1875 C191.9219 45.1875 191.1562 44.0312 191 41.8906 C191.625 40.9531 192.4531 40.5781 193.1094 40.5781 ZM193.2188 46.1875 C194.8125 46.1875 196.1562 44.8438 196.1562 42.8438 C196.1562 40.7031 195.0469 39.625 193.3125 39.625 C192.5 39.625 191.6094 40.1094 190.9688 40.875 C191.0312 37.6875 192.2188 36.6094 193.625 36.6094 C194.25 36.6094 194.8594 36.9062 195.2656 37.3906 L195.9688 36.5938 C195.4062 35.9844 194.6406 35.5469 193.5781 35.5469 C191.5938 35.5469 189.7812 37.0781 189.7812 41.0938 C189.7812 44.4844 191.2344 46.1875 193.2188 46.1875 ZM201.02 46.1875 C203.1606 46.1875 204.5043 44.8906 204.5043 43.2656 C204.5043 41.75 203.5825 41.0469 202.395 40.5312 L200.9262 39.8906 C200.1293 39.5625 199.2387 39.1875 199.2387 38.1875 C199.2387 37.2656 199.9887 36.6719 201.145 36.6719 C202.0981 36.6719 202.8637 37.0469 203.4887 37.6406 L204.1762 36.8125 C203.4418 36.0625 202.3637 35.5469 201.145 35.5469 C199.2856 35.5469 197.9106 36.6875 197.9106 38.2656 C197.9106 39.7656 199.0512 40.5 200.0043 40.9062 L201.4887 41.5469 C202.4575 41.9844 203.1918 42.3125 203.1918 43.375 C203.1918 44.375 202.3793 45.0469 201.0356 45.0469 C199.9731 45.0469 198.9418 44.5469 198.2075 43.7812 L197.4262 44.6562 C198.3168 45.5938 199.5668 46.1875 201.02 46.1875 Z"
      /><polygon style="fill:none;" points=" 145 64 93 64"
    /></g
    ><g style="fill:white; text-rendering:optimizeSpeed; stroke:white;"
    ><circle r="11" style="clip-path:url(#clipPath4); stroke:none;" cx="145" cy="64"
      /><rect x="134" y="53" width="22" style="clip-path:url(#clipPath4); fill:rgb(255,212,0); stroke:none;" height="22"
      /><rect x="134" y="53" width="22" style="clip-path:url(#clipPath4); fill:none; stroke:black;" height="22"
      /><circle r="11" style="fill:none; stroke:black;" cx="145" cy="64"
      /><polygon style="fill:none; stroke:black;" points=" 93 64 41 64"
      /><rect x="82" y="53" width="22" style="clip-path:url(#clipPath5); stroke:none;" height="22"
      /><rect x="82" y="53" width="22" style="clip-path:url(#clipPath5); stroke:none;" height="22"
      /><rect x="82" y="53" width="22" style="clip-path:url(#clipPath5); fill:none; stroke:black;" height="22"
      /><rect x="82" y="53" width="22" style="fill:none; stroke:black;" height="22"
      /><polygon style="fill:none; stroke:black;" points=" 41 64 41 116"
      /><circle r="11" style="clip-path:url(#clipPath6); stroke:none;" cx="41" cy="64"
      /><rect x="30" y="53" width="22" style="clip-path:url(#clipPath6); fill:rgb(255,212,0); stroke:none;" height="22"
      /><rect x="30" y="53" width="22" style="clip-path:url(#clipPath6); fill:none; stroke:black;" height="22"
      /><circle r="11" style="fill:none; stroke:black;" cx="41" cy="64"
      /><polygon style="clip-path:url(#clipPath7); stroke:none;" points=" 41 105 52 127 30 127"
      /><rect x="30" y="105" width="22" style="clip-path:url(#clipPath7); fill:rgb(237,28,36); stroke:none;" height="22"
      /><rect x="30" y="105" width="22" style="clip-path:url(#clipPath7); fill:none; stroke:black;" height="22"
      /><polygon style="fill:none; stroke:black;" points=" 41 105 52 127 30 127"
      /><rect x="46" width="6" height="9" y="78" style="stroke:none;"
      /><path d="M47.4219 86.0938 C48.0781 85.375 48.7031 84.7188 49.0312 84.3438 C50.9219 82.3125 51.5312 81.4688 51.5312 80.3594 C51.5312 79.0156 50.7812 78.0781 49.1562 78.0781 C47.9062 78.0781 46.7969 78.7031 46.5938 79.9688 C46.7188 80.2031 46.9062 80.3438 47.1562 80.3438 C47.4688 80.3438 47.6562 80.1094 47.7969 79.5938 L48.0938 78.6719 C48.3906 78.5938 48.6562 78.5625 48.8906 78.5625 C49.9219 78.5625 50.5469 79.3125 50.5469 80.4219 C50.5469 81.4375 49.9844 82.4219 48.7031 83.9062 C48.125 84.5781 47.3906 85.4375 46.6406 86.2812 L46.6406 87 L51.9219 87 L51.9219 86.0938 L47.4219 86.0938 Z" style="fill:black; stroke:none;"
      /><rect x="46" width="5" height="10" y="92" style="stroke:none;"
      /><path d="M47.8906 100.6875 C47.4844 100.6875 47.1562 101.0469 47.1562 101.4219 C47.1562 101.8125 47.4844 102.1562 47.8906 102.1562 C48.2969 102.1562 48.6406 101.8125 48.6406 101.4219 C48.6406 101.0469 48.2969 100.6875 47.8906 100.6875 ZM49.4688 94.5781 C49.7188 94.8906 49.875 95.2656 49.8906 95.6562 C49.8906 96.1875 49.625 96.5 49.0312 96.7656 L48.4062 97.0156 C47.6406 97.3125 47.3906 97.5469 47.3906 97.9375 C47.3906 98.1094 47.4531 98.3438 47.5781 98.8125 L47.7344 99.3438 L48.1094 99.3438 L48.0938 98.5312 C48.0938 98.0938 48.2031 97.9688 48.7812 97.7344 L49.2031 97.5625 C50.0312 97.2188 50.4531 96.6875 50.4531 95.8438 C50.4531 94.1562 48.6562 93.1875 47.5 93.0312 C47.1094 93.125 46.9062 93.2969 46.9062 93.6406 C46.9062 93.9375 47.0625 94.1562 47.7188 94.2656 L49.4688 94.5781 Z" style="fill:black; stroke:none;"
      /><rect x="71" width="5" height="10" y="67" style="stroke:none;"
      /><path d="M72.8906 75.6875 C72.4844 75.6875 72.1562 76.0469 72.1562 76.4219 C72.1562 76.8125 72.4844 77.1562 72.8906 77.1562 C73.2969 77.1562 73.6406 76.8125 73.6406 76.4219 C73.6406 76.0469 73.2969 75.6875 72.8906 75.6875 ZM74.4688 69.5781 C74.7188 69.8906 74.875 70.2656 74.8906 70.6562 C74.8906 71.1875 74.625 71.5 74.0312 71.7656 L73.4062 72.0156 C72.6406 72.3125 72.3906 72.5469 72.3906 72.9375 C72.3906 73.1094 72.4531 73.3438 72.5781 73.8125 L72.7344 74.3438 L73.1094 74.3438 L73.0938 73.5312 C73.0938 73.0938 73.2031 72.9688 73.7812 72.7344 L74.2031 72.5625 C75.0312 72.2188 75.4531 71.6875 75.4531 70.8438 C75.4531 69.1562 73.6562 68.1875 72.5 68.0312 C72.1094 68.125 71.9062 68.2969 71.9062 68.6406 C71.9062 68.9375 72.0625 69.1562 72.7188 69.2656 L74.4688 69.5781 Z" style="fill:black; stroke:none;"
      /><rect x="57" width="5" height="10" y="67" style="stroke:none;"
      /><path d="M58.8906 75.6875 C58.4844 75.6875 58.1562 76.0469 58.1562 76.4219 C58.1562 76.8125 58.4844 77.1562 58.8906 77.1562 C59.2969 77.1562 59.6406 76.8125 59.6406 76.4219 C59.6406 76.0469 59.2969 75.6875 58.8906 75.6875 ZM60.4688 69.5781 C60.7188 69.8906 60.875 70.2656 60.8906 70.6562 C60.8906 71.1875 60.625 71.5 60.0312 71.7656 L59.4062 72.0156 C58.6406 72.3125 58.3906 72.5469 58.3906 72.9375 C58.3906 73.1094 58.4531 73.3438 58.5781 73.8125 L58.7344 74.3438 L59.1094 74.3438 L59.0938 73.5312 C59.0938 73.0938 59.2031 72.9688 59.7812 72.7344 L60.2031 72.5625 C61.0312 72.2188 61.4531 71.6875 61.4531 70.8438 C61.4531 69.1562 59.6562 68.1875 58.5 68.0312 C58.1094 68.125 57.9062 68.2969 57.9062 68.6406 C57.9062 68.9375 58.0625 69.1562 58.7188 69.2656 L60.4688 69.5781 Z" style="fill:black; stroke:none;"
      /><rect x="123" width="5" height="10" y="67" style="stroke:none;"
      /><path d="M124.8906 75.6875 C124.4844 75.6875 124.1562 76.0469 124.1562 76.4219 C124.1562 76.8125 124.4844 77.1562 124.8906 77.1562 C125.2969 77.1562 125.6406 76.8125 125.6406 76.4219 C125.6406 76.0469 125.2969 75.6875 124.8906 75.6875 ZM126.4688 69.5781 C126.7188 69.8906 126.875 70.2656 126.8906 70.6562 C126.8906 71.1875 126.625 71.5 126.0312 71.7656 L125.4062 72.0156 C124.6406 72.3125 124.3906 72.5469 124.3906 72.9375 C124.3906 73.1094 124.4531 73.3438 124.5781 73.8125 L124.7344 74.3438 L125.1094 74.3438 L125.0938 73.5312 C125.0938 73.0938 125.2031 72.9688 125.7812 72.7344 L126.2031 72.5625 C127.0312 72.2188 127.4531 71.6875 127.4531 70.8438 C127.4531 69.1562 125.6562 68.1875 124.5 68.0312 C124.1094 68.125 123.9062 68.2969 123.9062 68.6406 C123.9062 68.9375 124.0625 69.1562 124.7188 69.2656 L126.4688 69.5781 Z" style="fill:black; stroke:none;"
      /><rect x="109" width="5" height="10" y="67" style="stroke:none;"
      /><path d="M110.8906 75.6875 C110.4844 75.6875 110.1562 76.0469 110.1562 76.4219 C110.1562 76.8125 110.4844 77.1562 110.8906 77.1562 C111.2969 77.1562 111.6406 76.8125 111.6406 76.4219 C111.6406 76.0469 111.2969 75.6875 110.8906 75.6875 ZM112.4688 69.5781 C112.7188 69.8906 112.875 70.2656 112.8906 70.6562 C112.8906 71.1875 112.625 71.5 112.0312 71.7656 L111.4062 72.0156 C110.6406 72.3125 110.3906 72.5469 110.3906 72.9375 C110.3906 73.1094 110.4531 73.3438 110.5781 73.8125 L110.7344 74.3438 L111.1094 74.3438 L111.0938 73.5312 C111.0938 73.0938 111.2031 72.9688 111.7812 72.7344 L112.2031 72.5625 C113.0312 72.2188 113.4531 71.6875 113.4531 70.8438 C113.4531 69.1562 111.6562 68.1875 110.5 68.0312 C110.1094 68.125 109.9062 68.2969 109.9062 68.6406 C109.9062 68.9375 110.0625 69.1562 110.7188 69.2656 L112.4688 69.5781 Z" style="fill:black; stroke:none;"
      /><rect x="174" width="7" height="9" y="67" style="stroke:none;"
      /><path d="M175 72.5156 L177.9531 68.2656 L177.9531 72.5156 L175 72.5156 ZM180.2812 72.5156 L178.8594 72.5156 L178.8594 67.125 L178.2344 67.125 L174.3438 72.6406 L174.3438 73.1875 L177.9531 73.1875 L177.9531 76 L178.8594 76 L178.8594 73.1875 L180.2812 73.1875 L180.2812 72.5156 Z" style="fill:black; stroke:none;"
      /><rect x="161" width="5" height="10" y="67" style="stroke:none;"
      /><path d="M162.8906 75.6875 C162.4844 75.6875 162.1562 76.0469 162.1562 76.4219 C162.1562 76.8125 162.4844 77.1562 162.8906 77.1562 C163.2969 77.1562 163.6406 76.8125 163.6406 76.4219 C163.6406 76.0469 163.2969 75.6875 162.8906 75.6875 ZM164.4688 69.5781 C164.7188 69.8906 164.875 70.2656 164.8906 70.6562 C164.8906 71.1875 164.625 71.5 164.0312 71.7656 L163.4062 72.0156 C162.6406 72.3125 162.3906 72.5469 162.3906 72.9375 C162.3906 73.1094 162.4531 73.3438 162.5781 73.8125 L162.7344 74.3438 L163.1094 74.3438 L163.0938 73.5312 C163.0938 73.0938 163.2031 72.9688 163.7812 72.7344 L164.2031 72.5625 C165.0312 72.2188 165.4531 71.6875 165.4531 70.8438 C165.4531 69.1562 163.6562 68.1875 162.5 68.0312 C162.1094 68.125 161.9062 68.2969 161.9062 68.6406 C161.9062 68.9375 162.0625 69.1562 162.7188 69.2656 L164.4688 69.5781 Z" style="fill:black; stroke:none;"
      /><rect x="231" width="6" height="10" y="101" style="stroke:none;"
      /><path d="M233.2344 102.6562 C233.5156 102.5938 233.7656 102.5625 234.0156 102.5625 C235.0625 102.5625 235.6719 103.1719 235.6719 104.2656 C235.6719 105.4375 234.9062 106.1094 233.7031 106.1094 L233.1875 106.1094 L233.1875 106.6406 L233.7969 106.6406 C235.2188 106.6406 235.9062 107.4219 235.9062 108.6406 C235.9062 109.8438 235.1719 110.6875 233.875 110.6875 C233.6094 110.6875 233.3125 110.6562 233.0156 110.5625 L232.7812 109.8125 C232.625 109.2812 232.5 109.0469 232.1406 109.0469 C231.8906 109.0469 231.7031 109.1719 231.5781 109.4219 C231.8438 110.6406 232.7812 111.1719 234.0312 111.1719 C235.7188 111.1719 236.875 110.125 236.875 108.7031 C236.875 107.5 236.2031 106.625 234.7969 106.375 C235.9531 106.0156 236.6094 105.2031 236.6094 104.2031 C236.6094 102.9219 235.6719 102.0781 234.1875 102.0781 C233.0469 102.0781 232.0625 102.5938 231.7969 103.6875 C231.9062 104 232.1094 104.1094 232.3594 104.1094 C232.7344 104.1094 232.8906 103.8906 233 103.4062 L233.2344 102.6562 Z" style="fill:black; stroke:none;"
      /><rect x="216" width="5" height="10" y="109" style="stroke:none;"
      /><path d="M217.8906 117.6875 C217.4844 117.6875 217.1562 118.0469 217.1562 118.4219 C217.1562 118.8125 217.4844 119.1562 217.8906 119.1562 C218.2969 119.1562 218.6406 118.8125 218.6406 118.4219 C218.6406 118.0469 218.2969 117.6875 217.8906 117.6875 ZM219.4688 111.5781 C219.7188 111.8906 219.875 112.2656 219.8906 112.6562 C219.8906 113.1875 219.625 113.5 219.0312 113.7656 L218.4062 114.0156 C217.6406 114.3125 217.3906 114.5469 217.3906 114.9375 C217.3906 115.1094 217.4531 115.3438 217.5781 115.8125 L217.7344 116.3438 L218.1094 116.3438 L218.0938 115.5312 C218.0938 115.0938 218.2031 114.9688 218.7812 114.7344 L219.2031 114.5625 C220.0312 114.2188 220.4531 113.6875 220.4531 112.8438 C220.4531 111.1562 218.6562 110.1875 217.5 110.0312 C217.1094 110.125 216.9062 110.2969 216.9062 110.6406 C216.9062 110.9375 217.0625 111.1562 217.7188 111.2656 L219.4688 111.5781 Z" style="fill:black; stroke:none;"
      /><rect x="224" width="6" height="10" y="83" style="stroke:none;"
      /><path d="M227.3438 92.6875 C226.2031 92.6875 225.5312 91.5 225.5312 89.2969 C225.5312 89.2188 225.5312 89.125 225.5312 89.0469 C226.0938 88.5 226.7188 88.3125 227.3438 88.3125 C228.3125 88.3125 228.9531 88.9844 228.9531 90.4531 C228.9531 91.9375 228.3125 92.6875 227.3438 92.6875 ZM229.5312 84.0781 C226.3438 84.4531 224.5625 86.7656 224.5625 89.4531 C224.5625 91.7812 225.6094 93.1719 227.3125 93.1719 C228.8438 93.1719 229.9219 92.1094 229.9219 90.2812 C229.9219 88.6875 228.9688 87.6562 227.5625 87.6562 C226.8281 87.6562 226.1406 87.9844 225.5781 88.5781 C225.7969 86.4062 227.0781 84.9688 229.5938 84.3906 L229.5312 84.0781 Z" style="fill:black; stroke:none;"
      /><rect x="209" width="5" height="10" y="75" style="stroke:none;"
      /><path d="M210.8906 83.6875 C210.4844 83.6875 210.1562 84.0469 210.1562 84.4219 C210.1562 84.8125 210.4844 85.1562 210.8906 85.1562 C211.2969 85.1562 211.6406 84.8125 211.6406 84.4219 C211.6406 84.0469 211.2969 83.6875 210.8906 83.6875 ZM212.4688 77.5781 C212.7188 77.8906 212.875 78.2656 212.8906 78.6562 C212.8906 79.1875 212.625 79.5 212.0312 79.7656 L211.4062 80.0156 C210.6406 80.3125 210.3906 80.5469 210.3906 80.9375 C210.3906 81.1094 210.4531 81.3438 210.5781 81.8125 L210.7344 82.3438 L211.1094 82.3438 L211.0938 81.5312 C211.0938 81.0938 211.2031 80.9688 211.7812 80.7344 L212.2031 80.5625 C213.0312 80.2188 213.4531 79.6875 213.4531 78.8438 C213.4531 77.1562 211.6562 76.1875 210.5 76.0312 C210.1094 76.125 209.9062 76.2969 209.9062 76.6406 C209.9062 76.9375 210.0625 77.1562 210.7188 77.2656 L212.4688 77.5781 Z" style="fill:black; stroke:none;"
      /><rect x="265" width="5" height="10" y="93" style="stroke:none;"
      /><path d="M266.8906 101.6875 C266.4844 101.6875 266.1562 102.0469 266.1562 102.4219 C266.1562 102.8125 266.4844 103.1562 266.8906 103.1562 C267.2969 103.1562 267.6406 102.8125 267.6406 102.4219 C267.6406 102.0469 267.2969 101.6875 266.8906 101.6875 ZM268.4688 95.5781 C268.7188 95.8906 268.875 96.2656 268.8906 96.6562 C268.8906 97.1875 268.625 97.5 268.0312 97.7656 L267.4062 98.0156 C266.6406 98.3125 266.3906 98.5469 266.3906 98.9375 C266.3906 99.1094 266.4531 99.3438 266.5781 99.8125 L266.7344 100.3438 L267.1094 100.3438 L267.0938 99.5312 C267.0938 99.0938 267.2031 98.9688 267.7812 98.7344 L268.2031 98.5625 C269.0312 98.2188 269.4531 97.6875 269.4531 96.8438 C269.4531 95.1562 267.6562 94.1875 266.5 94.0312 C266.1094 94.125 265.9062 94.2969 265.9062 94.6406 C265.9062 94.9375 266.0625 95.1562 266.7188 95.2656 L268.4688 95.5781 Z" style="fill:black; stroke:none;"
    /></g
  ></g
></svg
>
