<?xml version="1.0"?>
<!DOCTYPE svg PUBLIC '-//W3C//DTD SVG 1.0//EN'
          'http://www.w3.org/TR/2001/REC-SVG-20010904/DTD/svg10.dtd'>
<svg xmlns:xlink="http://www.w3.org/1999/xlink" style="fill-opacity:1; color-rendering:auto; color-interpolation:auto; text-rendering:auto; stroke:black; stroke-linecap:square; stroke-miterlimit:10; shape-rendering:auto; stroke-opacity:1; fill:black; stroke-dasharray:none; font-weight:normal; stroke-width:1; font-family:'Dialog'; font-style:normal; stroke-linejoin:miter; font-size:12px; stroke-dashoffset:0; image-rendering:auto;" viewBox="0 0 542 238" xmlns="http://www.w3.org/2000/svg"
><!--Generated by the Batik Graphics2D SVG Generator--><defs id="genericDefs"
  /><g
  ><defs id="defs1"
    ><clipPath clipPathUnits="userSpaceOnUse" id="clipPath1"
      ><path d="M438 82 L460 82 L460 104 L438 104 L438 82 Z"
      /></clipPath
      ><clipPath clipPathUnits="userSpaceOnUse" id="clipPath2"
      ><path d="M386 82 L408 82 L408 104 L386 104 L386 82 Z"
      /></clipPath
      ><clipPath clipPathUnits="userSpaceOnUse" id="clipPath3"
      ><path d="M356 93 C356 99.0751 351.0751 104 345 104 C338.9249 104 334 99.0751 334 93 C334 86.9249 338.9249 82 345 82 C351.0751 82 356 86.9249 356 93 Z"
      /></clipPath
      ><clipPath clipPathUnits="userSpaceOnUse" id="clipPath4"
      ><path d="M304 145 C304 151.0751 299.0751 156 293 156 C286.9249 156 282 151.0751 282 145 C282 138.9249 286.9249 134 293 134 C299.0751 134 304 138.9249 304 145 Z"
      /></clipPath
      ><clipPath clipPathUnits="userSpaceOnUse" id="clipPath5"
      ><path d="M230 134 L252 134 L252 156 L230 156 L230 134 Z"
      /></clipPath
      ><clipPath clipPathUnits="userSpaceOnUse" id="clipPath6"
      ><path style="fill-rule:evenodd;" d="M241 186 L252 208 L230 208 Z"
      /></clipPath
      ><clipPath clipPathUnits="userSpaceOnUse" id="clipPath7"
      ><path d="M178 134 L200 134 L200 156 L178 156 L178 134 Z"
      /></clipPath
      ><clipPath clipPathUnits="userSpaceOnUse" id="clipPath8"
      ><path d="M282 82 L304 82 L304 104 L282 104 L282 82 Z"
      /></clipPath
      ><clipPath clipPathUnits="userSpaceOnUse" id="clipPath9"
      ><path d="M304 41 C304 47.0751 299.0751 52 293 52 C286.9249 52 282 47.0751 282 41 C282 34.9249 286.9249 30 293 30 C299.0751 30 304 34.9249 304 41 Z"
      /></clipPath
      ><clipPath clipPathUnits="userSpaceOnUse" id="clipPath10"
      ><path d="M230 30 L252 30 L252 52 L230 52 L230 30 Z"
      /></clipPath
      ><clipPath clipPathUnits="userSpaceOnUse" id="clipPath11"
      ><path d="M82 108 L104 108 L104 130 L82 130 L82 108 Z"
      /></clipPath
      ><clipPath clipPathUnits="userSpaceOnUse" id="clipPath12"
      ><path style="fill-rule:evenodd;" d="M93 160 L104 182 L82 182 Z"
      /></clipPath
      ><clipPath clipPathUnits="userSpaceOnUse" id="clipPath13"
      ><path d="M30 108 L52 108 L52 130 L30 130 L30 108 Z"
      /></clipPath
    ></defs
    ><g style="fill:white; text-rendering:optimizeSpeed; stroke:white;"
    ><rect x="0" width="542" height="238" y="0" style="stroke:none;"
      /><polygon style="fill:none; stroke:black;" points=" 501 93 449 93"
      /><path d="M501 82 C495.5 87.5 506.5 98.5 501 104" style="fill:none; stroke:black;"
      /><polygon style="fill:none; stroke:black;" points=" 449 93 397 93"
      /><rect x="438" y="82" width="22" style="clip-path:url(#clipPath1); stroke:none;" height="22"
      /><rect x="438" y="82" width="22" style="clip-path:url(#clipPath1); fill:rgb(0,144,188); stroke:none;" height="22"
      /><rect x="438" y="82" width="22" style="clip-path:url(#clipPath1); fill:none; stroke:black;" height="22"
      /><rect x="438" y="82" width="22" style="fill:none; stroke:black;" height="22"
      /><polygon style="fill:none; stroke:black;" points=" 397 93 345 93"
      /><rect x="386" y="82" width="22" style="clip-path:url(#clipPath2); stroke:none;" height="22"
      /><rect x="386" y="82" width="22" style="clip-path:url(#clipPath2); fill:rgb(0,144,188); stroke:none;" height="22"
      /><rect x="386" y="82" width="22" style="clip-path:url(#clipPath2); fill:none; stroke:black;" height="22"
      /><rect x="386" y="82" width="22" style="fill:none; stroke:black;" height="22"
      /><polygon style="fill:none; stroke:black;" points=" 345 93 293 145"
      /><polygon style="fill:none; stroke:black;" points=" 345 93 293 93"
      /><polygon style="fill:none; stroke:black;" points=" 345 93 293 41"
      /><circle style="clip-path:url(#clipPath3); stroke:none;" r="11" cx="345" cy="93"
      /><rect x="334" y="82" width="22" style="clip-path:url(#clipPath3); fill:rgb(0,166,81); stroke:none;" height="22"
      /><rect x="334" y="82" width="22" style="clip-path:url(#clipPath3); fill:none; stroke:black;" height="22"
      /><circle style="fill:none; stroke:black;" r="11" cx="345" cy="93"
      /><polygon style="fill:none; stroke:black;" points=" 293 145 241 145"
      /><circle style="clip-path:url(#clipPath4); stroke:none;" r="11" cx="293" cy="145"
      /><rect x="282" y="134" width="22" style="clip-path:url(#clipPath4); fill:rgb(0,166,81); stroke:none;" height="22"
      /><rect x="282" y="134" width="22" style="clip-path:url(#clipPath4); fill:none; stroke:black;" height="22"
      /><circle style="fill:none; stroke:black;" r="11" cx="293" cy="145"
      /><polygon style="fill:none; stroke:black;" points=" 241 145 241 197"
      /><polygon style="fill:none; stroke:black;" points=" 241 145 189 145"
      /><rect x="230" y="134" width="22" style="clip-path:url(#clipPath5); stroke:none;" height="22"
      /><rect x="230" y="134" width="22" style="clip-path:url(#clipPath5); fill:rgb(0,144,188); stroke:none;" height="22"
      /><rect x="230" y="134" width="22" style="clip-path:url(#clipPath5); fill:none; stroke:black;" height="22"
      /><rect x="230" y="134" width="22" style="fill:none; stroke:black;" height="22"
      /><polygon style="clip-path:url(#clipPath6); stroke:none;" points=" 241 186 252 208 230 208"
      /><rect x="230" y="186" width="22" style="clip-path:url(#clipPath6); fill:rgb(237,28,36); stroke:none;" height="22"
      /><rect x="230" y="186" width="22" style="clip-path:url(#clipPath6); fill:none; stroke:black;" height="22"
      /><polygon style="fill:none; stroke:black;" points=" 241 186 252 208 230 208"
      /><rect x="178" y="134" width="22" style="clip-path:url(#clipPath7); stroke:none;" height="22"
      /><rect x="178" y="134" width="22" style="clip-path:url(#clipPath7); fill:rgb(255,212,0); stroke:none;" height="22"
      /><rect x="178" y="134" width="22" style="clip-path:url(#clipPath7); fill:none; stroke:black;" height="22"
      /><rect x="178" y="134" width="22" style="fill:none; stroke:black;" height="22"
      /><rect x="246" y="159" width="6" style="stroke:none;" height="10"
    /></g
    ><g style="font-family:'Serif'; text-rendering:optimizeSpeed; "
    ><path style="stroke:none;" d="M248.2344 160.6562 C248.5156 160.5938 248.7656 160.5625 249.0156 160.5625 C250.0625 160.5625 250.6719 161.1719 250.6719 162.2656 C250.6719 163.4375 249.9062 164.1094 248.7031 164.1094 L248.1875 164.1094 L248.1875 164.6406 L248.7969 164.6406 C250.2188 164.6406 250.9062 165.4219 250.9062 166.6406 C250.9062 167.8438 250.1719 168.6875 248.875 168.6875 C248.6094 168.6875 248.3125 168.6562 248.0156 168.5625 L247.7812 167.8125 C247.625 167.2812 247.5 167.0469 247.1406 167.0469 C246.8906 167.0469 246.7031 167.1719 246.5781 167.4219 C246.8438 168.6406 247.7812 169.1719 249.0312 169.1719 C250.7188 169.1719 251.875 168.125 251.875 166.7031 C251.875 165.5 251.2031 164.625 249.7969 164.375 C250.9531 164.0156 251.6094 163.2031 251.6094 162.2031 C251.6094 160.9219 250.6719 160.0781 249.1875 160.0781 C248.0469 160.0781 247.0625 160.5938 246.7969 161.6875 C246.9062 162 247.1094 162.1094 247.3594 162.1094 C247.7344 162.1094 247.8906 161.8906 248 161.4062 L248.2344 160.6562 Z"
      /><rect x="245" y="174" width="8" style="fill:white; stroke:none;" height="8"
      /><path style="stroke:none;" d="M249.9844 179.7031 C249.9375 180.8906 249.1562 181.6562 248.3125 181.6562 C247.2656 181.6562 246.5 180.6875 246.5 178.7188 C246.5 177.2812 247.1562 176.1562 248.3438 176.1562 C249.1406 176.1562 249.7812 176.6875 250.0938 177.6406 L249.9844 179.7031 ZM251.9062 181.2812 C251.7344 181.375 251.5469 181.4219 251.3438 181.4219 C250.9531 181.4219 250.75 181.2188 250.75 180.4219 C250.75 179.4844 250.9688 177.5312 251.1875 175.8281 L251.0312 175.7188 L250.2344 175.9219 L250.1406 176.7969 C249.7812 176.0312 249.1562 175.6562 248.3906 175.6562 C247.0469 175.6562 245.5625 176.8438 245.5625 178.9531 C245.5625 181.0938 246.7188 182.1719 248.1406 182.1719 C249.0156 182.1719 249.6875 181.8125 250.0938 180.9844 C250.2031 181.8594 250.5156 182.1719 251.0156 182.1719 C251.4688 182.1719 251.7969 181.9062 252.0156 181.5625 L251.9062 181.2812 Z"
      /><rect x="218" y="148" width="7" style="fill:white; stroke:none;" height="9"
      /><path style="stroke:none;" d="M219 153.5156 L221.9531 149.2656 L221.9531 153.5156 L219 153.5156 ZM224.2812 153.5156 L222.8594 153.5156 L222.8594 148.125 L222.2344 148.125 L218.3438 153.6406 L218.3438 154.1875 L221.9531 154.1875 L221.9531 157 L222.8594 157 L222.8594 154.1875 L224.2812 154.1875 L224.2812 153.5156 Z"
      /><rect x="205" y="146" width="6" style="fill:white; stroke:none;" height="13"
      /><path style="stroke:none;" d="M207.0938 152.2031 C207.0938 150.6562 207.75 149.8125 208.7969 149.8125 C209.7188 149.8125 210.2656 150.4531 210.2656 151.5156 C210.2656 152.7188 209.5 153.4375 208.1875 153.7031 L208.2969 154.3125 C210.2188 154.2344 210.9375 155.2188 210.9375 156.4375 C210.9375 157.625 210.2344 158.4219 208.9531 158.4219 C208.25 158.4219 207.6562 158.1562 207.0938 157.7188 L207.0938 152.2031 ZM206.2031 158.9062 L206.1094 161.375 L206.2656 161.4844 L207.1562 161.2656 L207.0156 158.0938 C207.5469 158.8438 208.3594 159.1719 209.1719 159.1719 C210.5625 159.1719 211.8594 158.2188 211.8594 156.4844 C211.8594 154.9531 210.875 154.1094 209.125 154 C210.5625 153.6094 211.1875 152.4531 211.1875 151.4844 C211.1875 150.0938 210.1562 149.3125 208.9062 149.3125 C207.2969 149.3125 206.2188 150.5469 206.2188 152.5156 L206.2031 158.9062 Z"
      /><rect x="271" y="148" width="6" style="fill:white; stroke:none;" height="9"
      /><path style="stroke:none;" d="M272.4219 156.0938 C273.0781 155.375 273.7031 154.7188 274.0312 154.3438 C275.9219 152.3125 276.5312 151.4688 276.5312 150.3594 C276.5312 149.0156 275.7812 148.0781 274.1562 148.0781 C272.9062 148.0781 271.7969 148.7031 271.5938 149.9688 C271.7188 150.2031 271.9062 150.3438 272.1562 150.3438 C272.4688 150.3438 272.6562 150.1094 272.7969 149.5938 L273.0938 148.6719 C273.3906 148.5938 273.6562 148.5625 273.8906 148.5625 C274.9219 148.5625 275.5469 149.3125 275.5469 150.4219 C275.5469 151.4375 274.9844 152.4219 273.7031 153.9062 C273.125 154.5781 272.3906 155.4375 271.6406 156.2812 L271.6406 157 L276.9219 157 L276.9219 156.0938 L272.4219 156.0938 Z"
      /><rect x="257" y="146" width="6" style="fill:white; stroke:none;" height="13"
      /><path style="stroke:none;" d="M259.0938 152.2031 C259.0938 150.6562 259.75 149.8125 260.7969 149.8125 C261.7188 149.8125 262.2656 150.4531 262.2656 151.5156 C262.2656 152.7188 261.5 153.4375 260.1875 153.7031 L260.2969 154.3125 C262.2188 154.2344 262.9375 155.2188 262.9375 156.4375 C262.9375 157.625 262.2344 158.4219 260.9531 158.4219 C260.25 158.4219 259.6562 158.1562 259.0938 157.7188 L259.0938 152.2031 ZM258.2031 158.9062 L258.1094 161.375 L258.2656 161.4844 L259.1562 161.2656 L259.0156 158.0938 C259.5469 158.8438 260.3594 159.1719 261.1719 159.1719 C262.5625 159.1719 263.8594 158.2188 263.8594 156.4844 C263.8594 154.9531 262.875 154.1094 261.125 154 C262.5625 153.6094 263.1875 152.4531 263.1875 151.4844 C263.1875 150.0938 262.1562 149.3125 260.9062 149.3125 C259.2969 149.3125 258.2188 150.5469 258.2188 152.5156 L258.2031 158.9062 Z"
      /><rect x="282" y="82" width="22" style="clip-path:url(#clipPath8); fill:white; stroke:none;" height="22"
      /><rect x="282" y="82" width="22" style="clip-path:url(#clipPath8); fill:rgb(0,144,188); stroke:none;" height="22"
      /><rect x="282" y="82" width="22" style="fill:none; clip-path:url(#clipPath8);" height="22"
      /><rect x="282" width="22" height="22" y="82" style="fill:none;"
      /><polygon style="fill:none;" points=" 293 41 241 41"
      /><circle style="fill:white; clip-path:url(#clipPath9); stroke:none;" r="11" cx="293" cy="41"
      /><rect x="282" y="30" width="22" style="clip-path:url(#clipPath9); fill:rgb(0,166,81); stroke:none;" height="22"
      /><rect x="282" y="30" width="22" style="fill:none; clip-path:url(#clipPath9);" height="22"
      /><circle r="11" style="fill:none;" cx="293" cy="41"
      /><rect x="230" y="30" width="22" style="clip-path:url(#clipPath10); fill:white; stroke:none;" height="22"
      /><rect x="230" y="30" width="22" style="clip-path:url(#clipPath10); fill:rgb(0,144,188); stroke:none;" height="22"
      /><rect x="230" y="30" width="22" style="fill:none; clip-path:url(#clipPath10);" height="22"
      /><rect x="230" width="22" height="22" y="30" style="fill:none;"
      /><rect x="271" y="44" width="6" style="fill:white; stroke:none;" height="9"
      /><path style="stroke:none;" d="M272.4219 52.0938 C273.0781 51.375 273.7031 50.7188 274.0312 50.3438 C275.9219 48.3125 276.5312 47.4688 276.5312 46.3594 C276.5312 45.0156 275.7812 44.0781 274.1562 44.0781 C272.9062 44.0781 271.7969 44.7031 271.5938 45.9688 C271.7188 46.2031 271.9062 46.3438 272.1562 46.3438 C272.4688 46.3438 272.6562 46.1094 272.7969 45.5938 L273.0938 44.6719 C273.3906 44.5938 273.6562 44.5625 273.8906 44.5625 C274.9219 44.5625 275.5469 45.3125 275.5469 46.4219 C275.5469 47.4375 274.9844 48.4219 273.7031 49.9062 C273.125 50.5781 272.3906 51.4375 271.6406 52.2812 L271.6406 53 L276.9219 53 L276.9219 52.0938 L272.4219 52.0938 Z"
      /><rect x="257" y="42" width="6" style="fill:white; stroke:none;" height="13"
      /><path style="stroke:none;" d="M259.0938 48.2031 C259.0938 46.6562 259.75 45.8125 260.7969 45.8125 C261.7188 45.8125 262.2656 46.4531 262.2656 47.5156 C262.2656 48.7188 261.5 49.4375 260.1875 49.7031 L260.2969 50.3125 C262.2188 50.2344 262.9375 51.2188 262.9375 52.4375 C262.9375 53.625 262.2344 54.4219 260.9531 54.4219 C260.25 54.4219 259.6562 54.1562 259.0938 53.7188 L259.0938 48.2031 ZM258.2031 54.9062 L258.1094 57.375 L258.2656 57.4844 L259.1562 57.2656 L259.0156 54.0938 C259.5469 54.8438 260.3594 55.1719 261.1719 55.1719 C262.5625 55.1719 263.8594 54.2188 263.8594 52.4844 C263.8594 50.9531 262.875 50.1094 261.125 50 C262.5625 49.6094 263.1875 48.4531 263.1875 47.4844 C263.1875 46.0938 262.1562 45.3125 260.9062 45.3125 C259.2969 45.3125 258.2188 46.5469 258.2188 48.5156 L258.2031 54.9062 Z"
      /><rect x="331" y="110" width="6" style="fill:white; stroke:none;" height="10"
      /><path style="stroke:none;" d="M333.2344 111.6562 C333.5156 111.5938 333.7656 111.5625 334.0156 111.5625 C335.0625 111.5625 335.6719 112.1719 335.6719 113.2656 C335.6719 114.4375 334.9062 115.1094 333.7031 115.1094 L333.1875 115.1094 L333.1875 115.6406 L333.7969 115.6406 C335.2188 115.6406 335.9062 116.4219 335.9062 117.6406 C335.9062 118.8438 335.1719 119.6875 333.875 119.6875 C333.6094 119.6875 333.3125 119.6562 333.0156 119.5625 L332.7812 118.8125 C332.625 118.2812 332.5 118.0469 332.1406 118.0469 C331.8906 118.0469 331.7031 118.1719 331.5781 118.4219 C331.8438 119.6406 332.7812 120.1719 334.0312 120.1719 C335.7188 120.1719 336.875 119.125 336.875 117.7031 C336.875 116.5 336.2031 115.625 334.7969 115.375 C335.9531 115.0156 336.6094 114.2031 336.6094 113.2031 C336.6094 111.9219 335.6719 111.0781 334.1875 111.0781 C333.0469 111.0781 332.0625 111.5938 331.7969 112.6875 C331.9062 113 332.1094 113.1094 332.3594 113.1094 C332.7344 113.1094 332.8906 112.8906 333 112.4062 L333.2344 111.6562 Z"
      /><rect x="311" y="130" width="8" style="fill:white; stroke:none;" height="8"
      /><path style="stroke:none;" d="M315.9844 135.7031 C315.9375 136.8906 315.1562 137.6562 314.3125 137.6562 C313.2656 137.6562 312.5 136.6875 312.5 134.7188 C312.5 133.2812 313.1562 132.1562 314.3438 132.1562 C315.1406 132.1562 315.7812 132.6875 316.0938 133.6406 L315.9844 135.7031 ZM317.9062 137.2812 C317.7344 137.375 317.5469 137.4219 317.3438 137.4219 C316.9531 137.4219 316.75 137.2188 316.75 136.4219 C316.75 135.4844 316.9688 133.5312 317.1875 131.8281 L317.0312 131.7188 L316.2344 131.9219 L316.1406 132.7969 C315.7812 132.0312 315.1562 131.6562 314.3906 131.6562 C313.0469 131.6562 311.5625 132.8438 311.5625 134.9531 C311.5625 137.0938 312.7188 138.1719 314.1406 138.1719 C315.0156 138.1719 315.6875 137.8125 316.0938 136.9844 C316.2031 137.8594 316.5156 138.1719 317.0156 138.1719 C317.4688 138.1719 317.7969 137.9062 318.0156 137.5625 L317.9062 137.2812 Z"
      /><rect x="322" y="96" width="7" style="fill:white; stroke:none;" height="9"
      /><path style="stroke:none;" d="M323 101.5156 L325.9531 97.2656 L325.9531 101.5156 L323 101.5156 ZM328.2812 101.5156 L326.8594 101.5156 L326.8594 96.125 L326.2344 96.125 L322.3438 101.6406 L322.3438 102.1875 L325.9531 102.1875 L325.9531 105 L326.8594 105 L326.8594 102.1875 L328.2812 102.1875 L328.2812 101.5156 Z"
      /><rect x="309" y="94" width="6" style="fill:white; stroke:none;" height="13"
      /><path style="stroke:none;" d="M311.0938 100.2031 C311.0938 98.6562 311.75 97.8125 312.7969 97.8125 C313.7188 97.8125 314.2656 98.4531 314.2656 99.5156 C314.2656 100.7188 313.5 101.4375 312.1875 101.7031 L312.2969 102.3125 C314.2188 102.2344 314.9375 103.2188 314.9375 104.4375 C314.9375 105.625 314.2344 106.4219 312.9531 106.4219 C312.25 106.4219 311.6562 106.1562 311.0938 105.7188 L311.0938 100.2031 ZM310.2031 106.9062 L310.1094 109.375 L310.2656 109.4844 L311.1562 109.2656 L311.0156 106.0938 C311.5469 106.8438 312.3594 107.1719 313.1719 107.1719 C314.5625 107.1719 315.8594 106.2188 315.8594 104.4844 C315.8594 102.9531 314.875 102.1094 313.125 102 C314.5625 101.6094 315.1875 100.4531 315.1875 99.4844 C315.1875 98.0938 314.1562 97.3125 312.9062 97.3125 C311.2969 97.3125 310.2188 98.5469 310.2188 100.5156 L310.2031 106.9062 Z"
      /><rect x="319" y="77" width="6" style="fill:white; stroke:none;" height="10"
      /><path style="stroke:none;" d="M322.3438 86.6875 C321.2031 86.6875 320.5312 85.5 320.5312 83.2969 C320.5312 83.2188 320.5312 83.125 320.5312 83.0469 C321.0938 82.5 321.7188 82.3125 322.3438 82.3125 C323.3125 82.3125 323.9531 82.9844 323.9531 84.4531 C323.9531 85.9375 323.3125 86.6875 322.3438 86.6875 ZM324.5312 78.0781 C321.3438 78.4531 319.5625 80.7656 319.5625 83.4531 C319.5625 85.7812 320.6094 87.1719 322.3125 87.1719 C323.8438 87.1719 324.9219 86.1094 324.9219 84.2812 C324.9219 82.6875 323.9688 81.6562 322.5625 81.6562 C321.8281 81.6562 321.1406 81.9844 320.5781 82.5781 C320.7969 80.4062 322.0781 78.9688 324.5938 78.3906 L324.5312 78.0781 Z"
      /><rect x="300" y="59" width="8" style="fill:white; stroke:none;" height="8"
      /><path style="stroke:none;" d="M304.9844 64.7031 C304.9375 65.8906 304.1562 66.6562 303.3125 66.6562 C302.2656 66.6562 301.5 65.6875 301.5 63.7188 C301.5 62.2812 302.1562 61.1562 303.3438 61.1562 C304.1406 61.1562 304.7812 61.6875 305.0938 62.6406 L304.9844 64.7031 ZM306.9062 66.2812 C306.7344 66.375 306.5469 66.4219 306.3438 66.4219 C305.9531 66.4219 305.75 66.2188 305.75 65.4219 C305.75 64.4844 305.9688 62.5312 306.1875 60.8281 L306.0312 60.7188 L305.2344 60.9219 L305.1406 61.7969 C304.7812 61.0312 304.1562 60.6562 303.3906 60.6562 C302.0469 60.6562 300.5625 61.8438 300.5625 63.9531 C300.5625 66.0938 301.7188 67.1719 303.1406 67.1719 C304.0156 67.1719 304.6875 66.8125 305.0938 65.9844 C305.2031 66.8594 305.5156 67.1719 306.0156 67.1719 C306.4688 67.1719 306.7969 66.9062 307.0156 66.5625 L306.9062 66.2812 Z"
      /><rect x="374" y="96" width="7" style="fill:white; stroke:none;" height="9"
      /><path style="stroke:none;" d="M375 101.5156 L377.9531 97.2656 L377.9531 101.5156 L375 101.5156 ZM380.2812 101.5156 L378.8594 101.5156 L378.8594 96.125 L378.2344 96.125 L374.3438 101.6406 L374.3438 102.1875 L377.9531 102.1875 L377.9531 105 L378.8594 105 L378.8594 102.1875 L380.2812 102.1875 L380.2812 101.5156 Z"
      /><rect x="361" y="94" width="6" style="fill:white; stroke:none;" height="13"
      /><path style="stroke:none;" d="M363.0938 100.2031 C363.0938 98.6562 363.75 97.8125 364.7969 97.8125 C365.7188 97.8125 366.2656 98.4531 366.2656 99.5156 C366.2656 100.7188 365.5 101.4375 364.1875 101.7031 L364.2969 102.3125 C366.2188 102.2344 366.9375 103.2188 366.9375 104.4375 C366.9375 105.625 366.2344 106.4219 364.9531 106.4219 C364.25 106.4219 363.6562 106.1562 363.0938 105.7188 L363.0938 100.2031 ZM362.2031 106.9062 L362.1094 109.375 L362.2656 109.4844 L363.1562 109.2656 L363.0156 106.0938 C363.5469 106.8438 364.3594 107.1719 365.1719 107.1719 C366.5625 107.1719 367.8594 106.2188 367.8594 104.4844 C367.8594 102.9531 366.875 102.1094 365.125 102 C366.5625 101.6094 367.1875 100.4531 367.1875 99.4844 C367.1875 98.0938 366.1562 97.3125 364.9062 97.3125 C363.2969 97.3125 362.2188 98.5469 362.2188 100.5156 L362.2031 106.9062 Z"
      /><rect x="426" y="96" width="7" style="fill:white; stroke:none;" height="9"
      /><path style="stroke:none;" d="M427 101.5156 L429.9531 97.2656 L429.9531 101.5156 L427 101.5156 ZM432.2812 101.5156 L430.8594 101.5156 L430.8594 96.125 L430.2344 96.125 L426.3438 101.6406 L426.3438 102.1875 L429.9531 102.1875 L429.9531 105 L430.8594 105 L430.8594 102.1875 L432.2812 102.1875 L432.2812 101.5156 Z"
      /><rect x="413" y="94" width="6" style="fill:white; stroke:none;" height="13"
      /><path style="stroke:none;" d="M415.0938 100.2031 C415.0938 98.6562 415.75 97.8125 416.7969 97.8125 C417.7188 97.8125 418.2656 98.4531 418.2656 99.5156 C418.2656 100.7188 417.5 101.4375 416.1875 101.7031 L416.2969 102.3125 C418.2188 102.2344 418.9375 103.2188 418.9375 104.4375 C418.9375 105.625 418.2344 106.4219 416.9531 106.4219 C416.25 106.4219 415.6562 106.1562 415.0938 105.7188 L415.0938 100.2031 ZM414.2031 106.9062 L414.1094 109.375 L414.2656 109.4844 L415.1562 109.2656 L415.0156 106.0938 C415.5469 106.8438 416.3594 107.1719 417.1719 107.1719 C418.5625 107.1719 419.8594 106.2188 419.8594 104.4844 C419.8594 102.9531 418.875 102.1094 417.125 102 C418.5625 101.6094 419.1875 100.4531 419.1875 99.4844 C419.1875 98.0938 418.1562 97.3125 416.9062 97.3125 C415.2969 97.3125 414.2188 98.5469 414.2188 100.5156 L414.2031 106.9062 Z"
      /><rect x="465" y="96" width="5" style="fill:white; stroke:none;" height="10"
      /><path style="stroke:none;" d="M466.8906 104.6875 C466.4844 104.6875 466.1562 105.0469 466.1562 105.4219 C466.1562 105.8125 466.4844 106.1562 466.8906 106.1562 C467.2969 106.1562 467.6406 105.8125 467.6406 105.4219 C467.6406 105.0469 467.2969 104.6875 466.8906 104.6875 ZM468.4688 98.5781 C468.7188 98.8906 468.875 99.2656 468.8906 99.6562 C468.8906 100.1875 468.625 100.5 468.0312 100.7656 L467.4062 101.0156 C466.6406 101.3125 466.3906 101.5469 466.3906 101.9375 C466.3906 102.1094 466.4531 102.3438 466.5781 102.8125 L466.7344 103.3438 L467.1094 103.3438 L467.0938 102.5312 C467.0938 102.0938 467.2031 101.9688 467.7812 101.7344 L468.2031 101.5625 C469.0312 101.2188 469.4531 100.6875 469.4531 99.8438 C469.4531 98.1562 467.6562 97.1875 466.5 97.0312 C466.1094 97.125 465.9062 97.2969 465.9062 97.6406 C465.9062 97.9375 466.0625 98.1562 466.7188 98.2656 L468.4688 98.5781 Z"
      /><polygon style="fill:none;" points=" 178 208 167 208 167 30 178 30 167 30 167 208"
      /><polygon style="fill:none;" points=" 145 119 93 119"
      /><polygon style="fill:none;" points=" 93 119 93 171"
      /><polygon style="fill:none;" points=" 93 119 41 119"
      /><rect x="82" y="108" width="22" style="clip-path:url(#clipPath11); fill:white; stroke:none;" height="22"
      /><rect x="82" y="108" width="22" style="clip-path:url(#clipPath11); fill:rgb(0,144,188); stroke:none;" height="22"
      /><rect x="82" y="108" width="22" style="fill:none; clip-path:url(#clipPath11);" height="22"
      /><rect x="82" width="22" height="22" y="108" style="fill:none;"
      /><polygon style="fill:white; clip-path:url(#clipPath12); stroke:none;" points=" 93 160 104 182 82 182"
      /><rect x="82" y="160" width="22" style="clip-path:url(#clipPath12); fill:rgb(237,28,36); stroke:none;" height="22"
      /><rect x="82" y="160" width="22" style="fill:none; clip-path:url(#clipPath12);" height="22"
      /><polygon style="fill:none;" points=" 93 160 104 182 82 182"
      /><rect x="30" y="108" width="22" style="clip-path:url(#clipPath13); fill:white; stroke:none;" height="22"
      /><rect x="30" y="108" width="22" style="clip-path:url(#clipPath13); fill:rgb(255,212,0); stroke:none;" height="22"
      /><rect x="30" y="108" width="22" style="fill:none; clip-path:url(#clipPath13);" height="22"
      /><rect x="30" width="22" height="22" y="108" style="fill:none;"
      /><rect x="98" y="133" width="6" style="fill:white; stroke:none;" height="10"
      /><path style="stroke:none;" d="M100.2344 134.6562 C100.5156 134.5938 100.7656 134.5625 101.0156 134.5625 C102.0625 134.5625 102.6719 135.1719 102.6719 136.2656 C102.6719 137.4375 101.9062 138.1094 100.7031 138.1094 L100.1875 138.1094 L100.1875 138.6406 L100.7969 138.6406 C102.2188 138.6406 102.9062 139.4219 102.9062 140.6406 C102.9062 141.8438 102.1719 142.6875 100.875 142.6875 C100.6094 142.6875 100.3125 142.6562 100.0156 142.5625 L99.7812 141.8125 C99.625 141.2812 99.5 141.0469 99.1406 141.0469 C98.8906 141.0469 98.7031 141.1719 98.5781 141.4219 C98.8438 142.6406 99.7812 143.1719 101.0312 143.1719 C102.7188 143.1719 103.875 142.125 103.875 140.7031 C103.875 139.5 103.2031 138.625 101.7969 138.375 C102.9531 138.0156 103.6094 137.2031 103.6094 136.2031 C103.6094 134.9219 102.6719 134.0781 101.1875 134.0781 C100.0469 134.0781 99.0625 134.5938 98.7969 135.6875 C98.9062 136 99.1094 136.1094 99.3594 136.1094 C99.7344 136.1094 99.8906 135.8906 100 135.4062 L100.2344 134.6562 Z"
      /><rect x="97" y="148" width="8" style="fill:white; stroke:none;" height="8"
      /><path style="stroke:none;" d="M101.9844 153.7031 C101.9375 154.8906 101.1562 155.6562 100.3125 155.6562 C99.2656 155.6562 98.5 154.6875 98.5 152.7188 C98.5 151.2812 99.1562 150.1562 100.3438 150.1562 C101.1406 150.1562 101.7812 150.6875 102.0938 151.6406 L101.9844 153.7031 ZM103.9062 155.2812 C103.7344 155.375 103.5469 155.4219 103.3438 155.4219 C102.9531 155.4219 102.75 155.2188 102.75 154.4219 C102.75 153.4844 102.9688 151.5312 103.1875 149.8281 L103.0312 149.7188 L102.2344 149.9219 L102.1406 150.7969 C101.7812 150.0312 101.1562 149.6562 100.3906 149.6562 C99.0469 149.6562 97.5625 150.8438 97.5625 152.9531 C97.5625 155.0938 98.7188 156.1719 100.1406 156.1719 C101.0156 156.1719 101.6875 155.8125 102.0938 154.9844 C102.2031 155.8594 102.5156 156.1719 103.0156 156.1719 C103.4688 156.1719 103.7969 155.9062 104.0156 155.5625 L103.9062 155.2812 Z"
      /><rect x="70" y="122" width="7" style="fill:white; stroke:none;" height="9"
      /><path style="stroke:none;" d="M71 127.5156 L73.9531 123.2656 L73.9531 127.5156 L71 127.5156 ZM76.2812 127.5156 L74.8594 127.5156 L74.8594 122.125 L74.2344 122.125 L70.3438 127.6406 L70.3438 128.1875 L73.9531 128.1875 L73.9531 131 L74.8594 131 L74.8594 128.1875 L76.2812 128.1875 L76.2812 127.5156 Z"
      /><rect x="57" y="120" width="6" style="fill:white; stroke:none;" height="13"
      /><path style="stroke:none;" d="M59.0938 126.2031 C59.0938 124.6562 59.75 123.8125 60.7969 123.8125 C61.7188 123.8125 62.2656 124.4531 62.2656 125.5156 C62.2656 126.7188 61.5 127.4375 60.1875 127.7031 L60.2969 128.3125 C62.2188 128.2344 62.9375 129.2188 62.9375 130.4375 C62.9375 131.625 62.2344 132.4219 60.9531 132.4219 C60.25 132.4219 59.6562 132.1562 59.0938 131.7188 L59.0938 126.2031 ZM58.2031 132.9062 L58.1094 135.375 L58.2656 135.4844 L59.1562 135.2656 L59.0156 132.0938 C59.5469 132.8438 60.3594 133.1719 61.1719 133.1719 C62.5625 133.1719 63.8594 132.2188 63.8594 130.4844 C63.8594 128.9531 62.875 128.1094 61.125 128 C62.5625 127.6094 63.1875 126.4531 63.1875 125.4844 C63.1875 124.0938 62.1562 123.3125 60.9062 123.3125 C59.2969 123.3125 58.2188 124.5469 58.2188 126.5156 L58.2031 132.9062 Z"
      /><rect x="118" y="120" width="16" style="fill:white; stroke:none;" height="13"
      /><path style="stroke:none;" d="M119 129.5156 L121.9531 125.2656 L121.9531 129.5156 L119 129.5156 ZM124.2812 129.5156 L122.8594 129.5156 L122.8594 124.125 L122.2344 124.125 L118.3438 129.6406 L118.3438 130.1875 L121.9531 130.1875 L121.9531 133 L122.8594 133 L122.8594 130.1875 L124.2812 130.1875 L124.2812 129.5156 ZM124.4993 135.0938 L125.1087 135.0938 L128.6087 123.7344 L127.9837 123.7344 L124.4993 135.0938 ZM131.9878 132.6875 C130.8472 132.6875 130.1753 131.5 130.1753 129.2969 C130.1753 129.2188 130.1753 129.125 130.1753 129.0469 C130.7378 128.5 131.3628 128.3125 131.9878 128.3125 C132.9566 128.3125 133.5972 128.9844 133.5972 130.4531 C133.5972 131.9375 132.9566 132.6875 131.9878 132.6875 ZM134.1753 124.0781 C130.9878 124.4531 129.2066 126.7656 129.2066 129.4531 C129.2066 131.7812 130.2534 133.1719 131.9566 133.1719 C133.4878 133.1719 134.5659 132.1094 134.5659 130.2812 C134.5659 128.6875 133.6128 127.6562 132.2066 127.6562 C131.4722 127.6562 130.7847 127.9844 130.2222 128.5781 C130.4409 126.4062 131.7222 124.9688 134.2378 124.3906 L134.1753 124.0781 Z"
      /><rect x="109" y="120" width="6" style="fill:white; stroke:none;" height="13"
      /><path style="stroke:none;" d="M111.0938 126.2031 C111.0938 124.6562 111.75 123.8125 112.7969 123.8125 C113.7188 123.8125 114.2656 124.4531 114.2656 125.5156 C114.2656 126.7188 113.5 127.4375 112.1875 127.7031 L112.2969 128.3125 C114.2188 128.2344 114.9375 129.2188 114.9375 130.4375 C114.9375 131.625 114.2344 132.4219 112.9531 132.4219 C112.25 132.4219 111.6562 132.1562 111.0938 131.7188 L111.0938 126.2031 ZM110.2031 132.9062 L110.1094 135.375 L110.2656 135.4844 L111.1562 135.2656 L111.0156 132.0938 C111.5469 132.8438 112.3594 133.1719 113.1719 133.1719 C114.5625 133.1719 115.8594 132.2188 115.8594 130.4844 C115.8594 128.9531 114.875 128.1094 113.125 128 C114.5625 127.6094 115.1875 126.4531 115.1875 125.4844 C115.1875 124.0938 114.1562 123.3125 112.9062 123.3125 C111.2969 123.3125 110.2188 124.5469 110.2188 126.5156 L110.2031 132.9062 Z"
    /></g
  ></g
></svg
>
