<?xml version="1.0"?>
<!DOCTYPE svg PUBLIC '-//W3C//DTD SVG 1.0//EN'
          'http://www.w3.org/TR/2001/REC-SVG-20010904/DTD/svg10.dtd'>
<svg xmlns:xlink="http://www.w3.org/1999/xlink" style="fill-opacity:1; color-rendering:auto; color-interpolation:auto; text-rendering:auto; stroke:black; stroke-linecap:square; stroke-miterlimit:10; shape-rendering:auto; stroke-opacity:1; fill:black; stroke-dasharray:none; font-weight:normal; stroke-width:1; font-family:'Dialog'; font-style:normal; stroke-linejoin:miter; font-size:12px; stroke-dashoffset:0; image-rendering:auto;" viewBox="0 0 342 134" xmlns="http://www.w3.org/2000/svg"
><!--Generated by the Batik Graphics2D SVG Generator--><defs id="genericDefs"
  /><g
  ><defs id="defs1"
    ><clipPath clipPathUnits="userSpaceOnUse" id="clipPath1"
      ><path d="M260 67 C260 73.0751 255.0751 78 249 78 C242.9249 78 238 73.0751 238 67 C238 60.9249 242.9249 56 249 56 C255.0751 56 260 60.9249 260 67 Z"
      /></clipPath
      ><clipPath clipPathUnits="userSpaceOnUse" id="clipPath2"
      ><path d="M208 67 C208 73.0751 203.0751 78 197 78 C190.9249 78 186 73.0751 186 67 C186 60.9249 190.9249 56 197 56 C203.0751 56 208 60.9249 208 67 Z"
      /></clipPath
      ><clipPath clipPathUnits="userSpaceOnUse" id="clipPath3"
      ><path style="fill-rule:evenodd;" d="M145 82 L156 93 L145 104 L134 93 Z"
      /></clipPath
      ><clipPath clipPathUnits="userSpaceOnUse" id="clipPath4"
      ><path style="fill-rule:evenodd;" d="M93 82 L104 93 L93 104 L82 93 Z"
      /></clipPath
      ><clipPath clipPathUnits="userSpaceOnUse" id="clipPath5"
      ><path d="M134 30 L156 30 L156 52 L134 52 L134 30 Z"
      /></clipPath
      ><clipPath clipPathUnits="userSpaceOnUse" id="clipPath6"
      ><path d="M104 41 C104 47.0751 99.0751 52 93 52 C86.9249 52 82 47.0751 82 41 C82 34.9249 86.9249 30 93 30 C99.0751 30 104 34.9249 104 41 Z"
      /></clipPath
      ><clipPath clipPathUnits="userSpaceOnUse" id="clipPath7"
      ><path d="M52 41 C52 47.0751 47.0751 52 41 52 C34.9249 52 30 47.0751 30 41 C30 34.9249 34.9249 30 41 30 C47.0751 30 52 34.9249 52 41 Z"
      /></clipPath
    ></defs
    ><g style="fill:white; text-rendering:optimizeSpeed; stroke:white;"
    ><rect x="0" width="342" height="134" y="0" style="stroke:none;"
      /><polygon style="fill:none; stroke:black;" points=" 301 67 249 67"
      /><path d="M301 56 C295.5 61.5 306.5 72.5 301 78" style="fill:none; stroke:black;"
      /><polygon style="fill:none; stroke:black;" points=" 249 67 197 67"
      /><circle style="clip-path:url(#clipPath1); stroke:none;" r="11" cx="249" cy="67"
      /><rect x="238" y="56" width="22" style="clip-path:url(#clipPath1); fill:rgb(0,144,188); stroke:none;" height="22"
      /><rect x="238" y="56" width="22" style="clip-path:url(#clipPath1); fill:none; stroke:black;" height="22"
      /><circle style="fill:none; stroke:black;" r="11" cx="249" cy="67"
      /><polygon style="fill:none; stroke:black;" points=" 197 67 145 93"
      /><polygon style="fill:none; stroke:black;" points=" 197 67 145 41"
      /><circle style="clip-path:url(#clipPath2); stroke:none;" r="11" cx="197" cy="67"
      /><rect x="186" y="56" width="22" style="clip-path:url(#clipPath2); fill:rgb(255,212,0); stroke:none;" height="22"
      /><rect x="186" y="56" width="22" style="clip-path:url(#clipPath2); fill:none; stroke:black;" height="22"
      /><circle style="fill:none; stroke:black;" r="11" cx="197" cy="67"
      /><polygon style="fill:none; stroke:black;" points=" 145 93 93 93"
      /><polygon style="clip-path:url(#clipPath3); stroke:none;" points=" 145 82 156 93 145 104 134 93"
      /><rect x="134" y="82" width="22" style="clip-path:url(#clipPath3); fill:rgb(165,67,153); stroke:none;" height="22"
      /><rect x="134" y="82" width="22" style="clip-path:url(#clipPath3); fill:none; stroke:black;" height="22"
      /><polygon style="fill:none; stroke:black;" points=" 145 82 156 93 145 104 134 93"
      /><polygon style="clip-path:url(#clipPath4); stroke:none;" points=" 93 82 104 93 93 104 82 93"
      /><rect x="82" y="82" width="22" style="clip-path:url(#clipPath4); fill:rgb(165,67,153); stroke:none;" height="22"
      /><rect x="82" y="82" width="22" style="clip-path:url(#clipPath4); fill:none; stroke:black;" height="22"
      /><polygon style="fill:none; stroke:black;" points=" 93 82 104 93 93 104 82 93"
      /><rect x="123" y="96" width="6" style="stroke:none;" height="10"
    /></g
    ><g style="font-family:'Serif'; text-rendering:optimizeSpeed; "
    ><path style="stroke:none;" d="M126.2656 105.7031 C125.2031 105.7031 124.5 104.9688 124.5 103.9062 C124.5 102.9688 124.9375 102.4219 125.9062 101.8438 C127.4688 102.5625 127.9531 103.1719 127.9531 104.0156 C127.9531 105 127.2969 105.7031 126.2656 105.7031 ZM124.75 99.0469 C124.75 98.1094 125.4531 97.5625 126.2344 97.5625 C127.1562 97.5625 127.6562 98.2656 127.6562 99.0938 C127.6562 99.9688 127.3281 100.5469 126.4688 101.1562 C125.0938 100.5156 124.75 99.7969 124.75 99.0469 ZM126.8594 101.3438 C128.0938 100.6562 128.4531 99.8125 128.4531 99.0938 C128.4531 97.9219 127.6094 97.0781 126.2656 97.0781 C124.9375 97.0781 123.8906 97.9062 123.8906 99.2031 C123.8906 100.2031 124.375 101.0469 125.5156 101.6562 C124.2656 102.2812 123.5938 103 123.5938 104.0156 C123.5938 105.3906 124.6562 106.1719 126.2344 106.1719 C127.75 106.1719 128.875 105.25 128.875 103.8906 C128.875 102.7344 128.2656 102 126.8594 101.3438 Z"
      /><rect x="108" y="97" width="8" style="fill:white; stroke:none;" height="8"
      /><path style="stroke:none;" d="M112.9844 102.7031 C112.9375 103.8906 112.1562 104.6562 111.3125 104.6562 C110.2656 104.6562 109.5 103.6875 109.5 101.7188 C109.5 100.2812 110.1562 99.1562 111.3438 99.1562 C112.1406 99.1562 112.7812 99.6875 113.0938 100.6406 L112.9844 102.7031 ZM114.9062 104.2812 C114.7344 104.375 114.5469 104.4219 114.3438 104.4219 C113.9531 104.4219 113.75 104.2188 113.75 103.4219 C113.75 102.4844 113.9688 100.5312 114.1875 98.8281 L114.0312 98.7188 L113.2344 98.9219 L113.1406 99.7969 C112.7812 99.0312 112.1562 98.6562 111.3906 98.6562 C110.0469 98.6562 108.5625 99.8438 108.5625 101.9531 C108.5625 104.0938 109.7188 105.1719 111.1406 105.1719 C112.0156 105.1719 112.6875 104.8125 113.0938 103.9844 C113.2031 104.8594 113.5156 105.1719 114.0156 105.1719 C114.4688 105.1719 114.7969 104.9062 115.0156 104.5625 L114.9062 104.2812 Z"
      /><polygon style="fill:none;" points=" 145 41 93 41"
      /><rect x="134" y="30" width="22" style="clip-path:url(#clipPath5); fill:white; stroke:none;" height="22"
      /><rect x="134" y="30" width="22" style="clip-path:url(#clipPath5); fill:rgb(255,212,0); stroke:none;" height="22"
      /><rect x="134" y="30" width="22" style="fill:none; clip-path:url(#clipPath5);" height="22"
      /><rect x="134" width="22" height="22" y="30" style="fill:none;"
      /><polygon style="fill:none;" points=" 93 41 41 41"
      /><circle style="fill:white; clip-path:url(#clipPath6); stroke:none;" r="11" cx="93" cy="41"
      /><rect x="82" y="30" width="22" style="clip-path:url(#clipPath6); fill:rgb(255,212,0); stroke:none;" height="22"
      /><rect x="82" y="30" width="22" style="fill:none; clip-path:url(#clipPath6);" height="22"
      /><circle r="11" style="fill:none;" cx="93" cy="41"
      /><circle style="fill:white; clip-path:url(#clipPath7); stroke:none;" r="11" cx="41" cy="41"
      /><rect x="30" y="30" width="22" style="clip-path:url(#clipPath7); fill:rgb(255,212,0); stroke:none;" height="22"
      /><rect x="30" y="30" width="22" style="fill:none; clip-path:url(#clipPath7);" height="22"
      /><circle r="11" style="fill:none;" cx="41" cy="41"
      /><rect x="71" y="44" width="6" style="fill:white; stroke:none;" height="10"
      /><path style="stroke:none;" d="M73.2344 45.6562 C73.5156 45.5938 73.7656 45.5625 74.0156 45.5625 C75.0625 45.5625 75.6719 46.1719 75.6719 47.2656 C75.6719 48.4375 74.9062 49.1094 73.7031 49.1094 L73.1875 49.1094 L73.1875 49.6406 L73.7969 49.6406 C75.2188 49.6406 75.9062 50.4219 75.9062 51.6406 C75.9062 52.8438 75.1719 53.6875 73.875 53.6875 C73.6094 53.6875 73.3125 53.6562 73.0156 53.5625 L72.7812 52.8125 C72.625 52.2812 72.5 52.0469 72.1406 52.0469 C71.8906 52.0469 71.7031 52.1719 71.5781 52.4219 C71.8438 53.6406 72.7812 54.1719 74.0312 54.1719 C75.7188 54.1719 76.875 53.125 76.875 51.7031 C76.875 50.5 76.2031 49.625 74.7969 49.375 C75.9531 49.0156 76.6094 48.2031 76.6094 47.2031 C76.6094 45.9219 75.6719 45.0781 74.1875 45.0781 C73.0469 45.0781 72.0625 45.5938 71.7969 46.6875 C71.9062 47 72.1094 47.1094 72.3594 47.1094 C72.7344 47.1094 72.8906 46.8906 73 46.4062 L73.2344 45.6562 Z"
      /><rect x="56" y="45" width="8" style="fill:white; stroke:none;" height="8"
      /><path style="stroke:none;" d="M60.9844 50.7031 C60.9375 51.8906 60.1562 52.6562 59.3125 52.6562 C58.2656 52.6562 57.5 51.6875 57.5 49.7188 C57.5 48.2812 58.1562 47.1562 59.3438 47.1562 C60.1406 47.1562 60.7812 47.6875 61.0938 48.6406 L60.9844 50.7031 ZM62.9062 52.2812 C62.7344 52.375 62.5469 52.4219 62.3438 52.4219 C61.9531 52.4219 61.75 52.2188 61.75 51.4219 C61.75 50.4844 61.9688 48.5312 62.1875 46.8281 L62.0312 46.7188 L61.2344 46.9219 L61.1406 47.7969 C60.7812 47.0312 60.1562 46.6562 59.3906 46.6562 C58.0469 46.6562 56.5625 47.8438 56.5625 49.9531 C56.5625 52.0938 57.7188 53.1719 59.1406 53.1719 C60.0156 53.1719 60.6875 52.8125 61.0938 51.9844 C61.2031 52.8594 61.5156 53.1719 62.0156 53.1719 C62.4688 53.1719 62.7969 52.9062 63.0156 52.5625 L62.9062 52.2812 Z"
      /><rect x="123" y="44" width="6" style="fill:white; stroke:none;" height="10"
      /><path style="stroke:none;" d="M125.2344 45.6562 C125.5156 45.5938 125.7656 45.5625 126.0156 45.5625 C127.0625 45.5625 127.6719 46.1719 127.6719 47.2656 C127.6719 48.4375 126.9062 49.1094 125.7031 49.1094 L125.1875 49.1094 L125.1875 49.6406 L125.7969 49.6406 C127.2188 49.6406 127.9062 50.4219 127.9062 51.6406 C127.9062 52.8438 127.1719 53.6875 125.875 53.6875 C125.6094 53.6875 125.3125 53.6562 125.0156 53.5625 L124.7812 52.8125 C124.625 52.2812 124.5 52.0469 124.1406 52.0469 C123.8906 52.0469 123.7031 52.1719 123.5781 52.4219 C123.8438 53.6406 124.7812 54.1719 126.0312 54.1719 C127.7188 54.1719 128.875 53.125 128.875 51.7031 C128.875 50.5 128.2031 49.625 126.7969 49.375 C127.9531 49.0156 128.6094 48.2031 128.6094 47.2031 C128.6094 45.9219 127.6719 45.0781 126.1875 45.0781 C125.0469 45.0781 124.0625 45.5938 123.7969 46.6875 C123.9062 47 124.1094 47.1094 124.3594 47.1094 C124.7344 47.1094 124.8906 46.8906 125 46.4062 L125.2344 45.6562 Z"
      /><rect x="109" y="42" width="6" style="fill:white; stroke:none;" height="13"
      /><path style="stroke:none;" d="M111.0938 48.2031 C111.0938 46.6562 111.75 45.8125 112.7969 45.8125 C113.7188 45.8125 114.2656 46.4531 114.2656 47.5156 C114.2656 48.7188 113.5 49.4375 112.1875 49.7031 L112.2969 50.3125 C114.2188 50.2344 114.9375 51.2188 114.9375 52.4375 C114.9375 53.625 114.2344 54.4219 112.9531 54.4219 C112.25 54.4219 111.6562 54.1562 111.0938 53.7188 L111.0938 48.2031 ZM110.2031 54.9062 L110.1094 57.375 L110.2656 57.4844 L111.1562 57.2656 L111.0156 54.0938 C111.5469 54.8438 112.3594 55.1719 113.1719 55.1719 C114.5625 55.1719 115.8594 54.2188 115.8594 52.4844 C115.8594 50.9531 114.875 50.1094 113.125 50 C114.5625 49.6094 115.1875 48.4531 115.1875 47.4844 C115.1875 46.0938 114.1562 45.3125 112.9062 45.3125 C111.2969 45.3125 110.2188 46.5469 110.2188 48.5156 L110.2031 54.9062 Z"
      /><rect x="179" y="78" width="6" style="fill:white; stroke:none;" height="10"
      /><path style="stroke:none;" d="M181.2344 79.6562 C181.5156 79.5938 181.7656 79.5625 182.0156 79.5625 C183.0625 79.5625 183.6719 80.1719 183.6719 81.2656 C183.6719 82.4375 182.9062 83.1094 181.7031 83.1094 L181.1875 83.1094 L181.1875 83.6406 L181.7969 83.6406 C183.2188 83.6406 183.9062 84.4219 183.9062 85.6406 C183.9062 86.8438 183.1719 87.6875 181.875 87.6875 C181.6094 87.6875 181.3125 87.6562 181.0156 87.5625 L180.7812 86.8125 C180.625 86.2812 180.5 86.0469 180.1406 86.0469 C179.8906 86.0469 179.7031 86.1719 179.5781 86.4219 C179.8438 87.6406 180.7812 88.1719 182.0312 88.1719 C183.7188 88.1719 184.875 87.125 184.875 85.7031 C184.875 84.5 184.2031 83.625 182.7969 83.375 C183.9531 83.0156 184.6094 82.2031 184.6094 81.2031 C184.6094 79.9219 183.6719 79.0781 182.1875 79.0781 C181.0469 79.0781 180.0625 79.5938 179.7969 80.6875 C179.9062 81 180.1094 81.1094 180.3594 81.1094 C180.7344 81.1094 180.8906 80.8906 181 80.4062 L181.2344 79.6562 Z"
      /><rect x="162" y="87" width="8" style="fill:white; stroke:none;" height="8"
      /><path style="stroke:none;" d="M166.9844 92.7031 C166.9375 93.8906 166.1562 94.6562 165.3125 94.6562 C164.2656 94.6562 163.5 93.6875 163.5 91.7188 C163.5 90.2812 164.1562 89.1562 165.3438 89.1562 C166.1406 89.1562 166.7812 89.6875 167.0938 90.6406 L166.9844 92.7031 ZM168.9062 94.2812 C168.7344 94.375 168.5469 94.4219 168.3438 94.4219 C167.9531 94.4219 167.75 94.2188 167.75 93.4219 C167.75 92.4844 167.9688 90.5312 168.1875 88.8281 L168.0312 88.7188 L167.2344 88.9219 L167.1406 89.7969 C166.7812 89.0312 166.1562 88.6562 165.3906 88.6562 C164.0469 88.6562 162.5625 89.8438 162.5625 91.9531 C162.5625 94.0938 163.7188 95.1719 165.1406 95.1719 C166.0156 95.1719 166.6875 94.8125 167.0938 93.9844 C167.2031 94.8594 167.5156 95.1719 168.0156 95.1719 C168.4688 95.1719 168.7969 94.9062 169.0156 94.5625 L168.9062 94.2812 Z"
      /><rect x="171" y="60" width="7" style="fill:white; stroke:none;" height="9"
      /><path style="stroke:none;" d="M172 65.5156 L174.9531 61.2656 L174.9531 65.5156 L172 65.5156 ZM177.2812 65.5156 L175.8594 65.5156 L175.8594 60.125 L175.2344 60.125 L171.3438 65.6406 L171.3438 66.1875 L174.9531 66.1875 L174.9531 69 L175.8594 69 L175.8594 66.1875 L177.2812 66.1875 L177.2812 65.5156 Z"
      /><rect x="156" y="50" width="6" style="fill:white; stroke:none;" height="13"
      /><path style="stroke:none;" d="M158.0938 56.2031 C158.0938 54.6562 158.75 53.8125 159.7969 53.8125 C160.7188 53.8125 161.2656 54.4531 161.2656 55.5156 C161.2656 56.7188 160.5 57.4375 159.1875 57.7031 L159.2969 58.3125 C161.2188 58.2344 161.9375 59.2188 161.9375 60.4375 C161.9375 61.625 161.2344 62.4219 159.9531 62.4219 C159.25 62.4219 158.6562 62.1562 158.0938 61.7188 L158.0938 56.2031 ZM157.2031 62.9062 L157.1094 65.375 L157.2656 65.4844 L158.1562 65.2656 L158.0156 62.0938 C158.5469 62.8438 159.3594 63.1719 160.1719 63.1719 C161.5625 63.1719 162.8594 62.2188 162.8594 60.4844 C162.8594 58.9531 161.875 58.1094 160.125 58 C161.5625 57.6094 162.1875 56.4531 162.1875 55.4844 C162.1875 54.0938 161.1562 53.3125 159.9062 53.3125 C158.2969 53.3125 157.2188 54.5469 157.2188 56.5156 L157.2031 62.9062 Z"
      /><rect x="226" y="70" width="7" style="fill:white; stroke:none;" height="9"
      /><path style="stroke:none;" d="M227 75.5156 L229.9531 71.2656 L229.9531 75.5156 L227 75.5156 ZM232.2812 75.5156 L230.8594 75.5156 L230.8594 70.125 L230.2344 70.125 L226.3438 75.6406 L226.3438 76.1875 L229.9531 76.1875 L229.9531 79 L230.8594 79 L230.8594 76.1875 L232.2812 76.1875 L232.2812 75.5156 Z"
      /><rect x="213" y="68" width="6" style="fill:white; stroke:none;" height="13"
      /><path style="stroke:none;" d="M215.0938 74.2031 C215.0938 72.6562 215.75 71.8125 216.7969 71.8125 C217.7188 71.8125 218.2656 72.4531 218.2656 73.5156 C218.2656 74.7188 217.5 75.4375 216.1875 75.7031 L216.2969 76.3125 C218.2188 76.2344 218.9375 77.2188 218.9375 78.4375 C218.9375 79.625 218.2344 80.4219 216.9531 80.4219 C216.25 80.4219 215.6562 80.1562 215.0938 79.7188 L215.0938 74.2031 ZM214.2031 80.9062 L214.1094 83.375 L214.2656 83.4844 L215.1562 83.2656 L215.0156 80.0938 C215.5469 80.8438 216.3594 81.1719 217.1719 81.1719 C218.5625 81.1719 219.8594 80.2188 219.8594 78.4844 C219.8594 76.9531 218.875 76.1094 217.125 76 C218.5625 75.6094 219.1875 74.4531 219.1875 73.4844 C219.1875 72.0938 218.1562 71.3125 216.9062 71.3125 C215.2969 71.3125 214.2188 72.5469 214.2188 74.5156 L214.2031 80.9062 Z"
      /><rect x="265" y="68" width="6" style="fill:white; stroke:none;" height="13"
      /><path style="stroke:none;" d="M267.0938 74.2031 C267.0938 72.6562 267.75 71.8125 268.7969 71.8125 C269.7188 71.8125 270.2656 72.4531 270.2656 73.5156 C270.2656 74.7188 269.5 75.4375 268.1875 75.7031 L268.2969 76.3125 C270.2188 76.2344 270.9375 77.2188 270.9375 78.4375 C270.9375 79.625 270.2344 80.4219 268.9531 80.4219 C268.25 80.4219 267.6562 80.1562 267.0938 79.7188 L267.0938 74.2031 ZM266.2031 80.9062 L266.1094 83.375 L266.2656 83.4844 L267.1562 83.2656 L267.0156 80.0938 C267.5469 80.8438 268.3594 81.1719 269.1719 81.1719 C270.5625 81.1719 271.8594 80.2188 271.8594 78.4844 C271.8594 76.9531 270.875 76.1094 269.125 76 C270.5625 75.6094 271.1875 74.4531 271.1875 73.4844 C271.1875 72.0938 270.1562 71.3125 268.9062 71.3125 C267.2969 71.3125 266.2188 72.5469 266.2188 74.5156 L266.2031 80.9062 Z"
    /></g
  ></g
></svg
>
