<?xml version="1.0"?>
<!DOCTYPE svg PUBLIC '-//W3C//DTD SVG 1.0//EN'
          'http://www.w3.org/TR/2001/REC-SVG-20010904/DTD/svg10.dtd'>
<svg xmlns:xlink="http://www.w3.org/1999/xlink" style="fill-opacity:1; color-rendering:auto; color-interpolation:auto; text-rendering:auto; stroke:black; stroke-linecap:square; stroke-miterlimit:10; shape-rendering:auto; stroke-opacity:1; fill:black; stroke-dasharray:none; font-weight:normal; stroke-width:1; font-family:'Dialog'; font-style:normal; stroke-linejoin:miter; font-size:12px; stroke-dashoffset:0; image-rendering:auto;" viewBox="0 0 134 105" xmlns="http://www.w3.org/2000/svg"
><!--Generated by the Batik Graphics2D SVG Generator--><defs id="genericDefs"
  /><g
  ><defs id="defs1"
    ><clipPath clipPathUnits="userSpaceOnUse" id="clipPath1"
      ><path d="M52 64 C52 70.0751 47.0751 75 41 75 C34.9249 75 30 70.0751 30 64 C30 57.9249 34.9249 53 41 53 C47.0751 53 52 57.9249 52 64 Z"
      /></clipPath
    ></defs
    ><g style="fill:white; text-rendering:optimizeSpeed; stroke:white;"
    ><rect x="0" width="134" height="105" y="0" style="stroke:none;"
      /><polygon style="fill:none; stroke:black;" points=" 93 64 41 64"
      /><path d="M93 53 C87.5 58.5 98.5 69.5 93 75" style="fill:none; stroke:black;"
      /><circle style="clip-path:url(#clipPath1); stroke:none;" r="11" cx="41" cy="64"
      /><rect x="30" y="53" width="22" style="clip-path:url(#clipPath1); fill:rgb(0,144,188); stroke:none;" height="22"
      /><rect x="30" y="53" width="22" style="clip-path:url(#clipPath1); fill:none; stroke:black;" height="22"
      /><circle style="fill:none; stroke:black;" r="11" cx="41" cy="64"
      /><rect x="33" y="35" width="15" style="stroke:none;" height="10"
    /></g
    ><g style="text-rendering:optimizeSpeed; font-size:14px; font-family:'SansSerif';"
    ><path style="stroke:none;" d="M37.1094 40.5781 C38.3438 40.5781 38.9688 41.4688 38.9688 42.8438 C38.9688 44.25 38.1875 45.1875 37.2188 45.1875 C35.9219 45.1875 35.1562 44.0312 35 41.8906 C35.625 40.9531 36.4531 40.5781 37.1094 40.5781 ZM37.2188 46.1875 C38.8125 46.1875 40.1562 44.8438 40.1562 42.8438 C40.1562 40.7031 39.0469 39.625 37.3125 39.625 C36.5 39.625 35.6094 40.1094 34.9688 40.875 C35.0312 37.6875 36.2188 36.6094 37.625 36.6094 C38.25 36.6094 38.8594 36.9062 39.2656 37.3906 L39.9688 36.5938 C39.4062 35.9844 38.6406 35.5469 37.5781 35.5469 C35.5938 35.5469 33.7812 37.0781 33.7812 41.0938 C33.7812 44.4844 35.2344 46.1875 37.2188 46.1875 ZM42.1762 46 L43.4731 46 L43.4731 41.9219 L45.1606 41.9219 C47.4262 41.9219 48.9418 40.9219 48.9418 38.75 C48.9418 36.5156 47.4106 35.7188 45.1137 35.7188 L42.1762 35.7188 L42.1762 46 ZM43.4731 40.875 L43.4731 36.7812 L44.9418 36.7812 C46.7543 36.7812 47.6606 37.2656 47.6606 38.75 C47.6606 40.2188 46.8012 40.875 45.0043 40.875 L43.4731 40.875 Z"
    /></g
    ><g style="fill:white; text-rendering:optimizeSpeed; font-family:'Serif'; stroke:white;"
    ><rect x="57" width="5" height="10" y="67" style="stroke:none;"
      /><path d="M58.8906 75.6875 C58.4844 75.6875 58.1562 76.0469 58.1562 76.4219 C58.1562 76.8125 58.4844 77.1562 58.8906 77.1562 C59.2969 77.1562 59.6406 76.8125 59.6406 76.4219 C59.6406 76.0469 59.2969 75.6875 58.8906 75.6875 ZM60.4688 69.5781 C60.7188 69.8906 60.875 70.2656 60.8906 70.6562 C60.8906 71.1875 60.625 71.5 60.0312 71.7656 L59.4062 72.0156 C58.6406 72.3125 58.3906 72.5469 58.3906 72.9375 C58.3906 73.1094 58.4531 73.3438 58.5781 73.8125 L58.7344 74.3438 L59.1094 74.3438 L59.0938 73.5312 C59.0938 73.0938 59.2031 72.9688 59.7812 72.7344 L60.2031 72.5625 C61.0312 72.2188 61.4531 71.6875 61.4531 70.8438 C61.4531 69.1562 59.6562 68.1875 58.5 68.0312 C58.1094 68.125 57.9062 68.2969 57.9062 68.6406 C57.9062 68.9375 58.0625 69.1562 58.7188 69.2656 L60.4688 69.5781 Z" style="fill:black; stroke:none;"
    /></g
  ></g
></svg
>
