<?xml version="1.0"?>
<!DOCTYPE svg PUBLIC '-//W3C//DTD SVG 1.0//EN'
          'http://www.w3.org/TR/2001/REC-SVG-20010904/DTD/svg10.dtd'>
<svg xmlns:xlink="http://www.w3.org/1999/xlink" style="fill-opacity:1; color-rendering:auto; color-interpolation:auto; text-rendering:auto; stroke:black; stroke-linecap:square; stroke-miterlimit:10; shape-rendering:auto; stroke-opacity:1; fill:black; stroke-dasharray:none; font-weight:normal; stroke-width:1; font-family:'Dialog'; font-style:normal; stroke-linejoin:miter; font-size:12px; stroke-dashoffset:0; image-rendering:auto;" viewBox="0 0 238 134" xmlns="http://www.w3.org/2000/svg"
><!--Generated by the Batik Graphics2D SVG Generator--><defs id="genericDefs"
  /><g
  ><defs id="defs1"
    ><clipPath clipPathUnits="userSpaceOnUse" id="clipPath1"
      ><path style="fill-rule:evenodd;" d="M156 67 L150 74 L139 74 L134 67 L139 59 L150 59 L156 67 Z"
      /></clipPath
      ><clipPath clipPathUnits="userSpaceOnUse" id="clipPath2"
      ><path style="fill-rule:evenodd;" d="M104 67 L98 74 L87 74 L82 67 L87 59 L98 59 L104 67 Z"
      /></clipPath
      ><clipPath clipPathUnits="userSpaceOnUse" id="clipPath3"
      ><path d="M52 93 C52 99.0751 47.0751 104 41 104 C34.9249 104 30 99.0751 30 93 C30 86.9249 34.9249 82 41 82 C47.0751 82 52 86.9249 52 93 Z"
      /></clipPath
      ><clipPath clipPathUnits="userSpaceOnUse" id="clipPath4"
      ><path d="M52 41 C52 47.0751 47.0751 52 41 52 C34.9249 52 30 47.0751 30 41 C30 34.9249 34.9249 30 41 30 C47.0751 30 52 34.9249 52 41 Z"
      /></clipPath
    ></defs
    ><g style="fill:white; text-rendering:optimizeSpeed; stroke:white;"
    ><rect x="0" width="238" height="134" y="0" style="stroke:none;"
      /><polygon style="fill:none; stroke:black;" points=" 197 67 145 67"
      /><path d="M197 56 C191.5 61.5 202.5 72.5 197 78" style="fill:none; stroke:black;"
      /><polygon style="fill:none; stroke:black;" points=" 145 67 93 67"
      /><polygon style="clip-path:url(#clipPath1); stroke:none;" points=" 156 67 150 74 139 74 134 67 139 59 150 59 156 67"
      /><rect x="134" y="56" width="22" style="clip-path:url(#clipPath1); fill:rgb(255,212,0); stroke:none;" height="22"
      /><rect x="134" y="56" width="22" style="clip-path:url(#clipPath1); fill:none; stroke:black;" height="22"
      /><polygon style="fill:none; stroke:black;" points=" 156 67 150 74 139 74 134 67 139 59 150 59 156 67"
      /><rect x="137" y="38" width="15" style="stroke:none;" height="10"
    /></g
    ><g style="text-rendering:optimizeSpeed; font-size:14px; font-family:'SansSerif';"
    ><path style="stroke:none;" d="M138.6094 45.1562 L140.9531 41.6562 C141.2344 41.1406 141.5156 40.6406 141.7812 40.1406 L141.8281 40.1406 C141.7969 40.6719 141.7656 41.5 141.7656 42 L141.7656 45.1562 L138.6094 45.1562 ZM141.7656 49 L142.9688 49 L142.9688 46.1719 L144.3281 46.1719 L144.3281 45.1562 L142.9688 45.1562 L142.9688 38.7188 L141.5469 38.7188 L137.2812 45.3281 L137.2812 46.1719 L141.7656 46.1719 L141.7656 49 ZM146.1762 49 L147.4731 49 L147.4731 44.9219 L149.1606 44.9219 C151.4262 44.9219 152.9418 43.9219 152.9418 41.75 C152.9418 39.5156 151.4106 38.7188 149.1137 38.7188 L146.1762 38.7188 L146.1762 49 ZM147.4731 43.875 L147.4731 39.7812 L148.9418 39.7812 C150.7543 39.7812 151.6606 40.2656 151.6606 41.75 C151.6606 43.2188 150.8012 43.875 149.0043 43.875 L147.4731 43.875 Z"
      /><polygon style="fill:none;" points=" 93 67 41 93"
      /><polygon style="fill:none;" points=" 93 67 41 41"
    /></g
    ><g style="fill:white; text-rendering:optimizeSpeed; stroke:white;"
    ><polygon style="stroke:none; clip-path:url(#clipPath2);" points=" 104 67 98 74 87 74 82 67 87 59 98 59 104 67"
      /><rect x="82" y="56" width="22" style="clip-path:url(#clipPath2); fill:rgb(0,166,81); stroke:none;" height="22"
      /><rect x="82" y="56" width="22" style="clip-path:url(#clipPath2); fill:none; stroke:black;" height="22"
      /><polygon style="fill:none; stroke:black;" points=" 104 67 98 74 87 74 82 67 87 59 98 59 104 67"
      /><circle r="11" style="clip-path:url(#clipPath3); stroke:none;" cx="41" cy="93"
      /><rect x="30" y="82" width="22" style="clip-path:url(#clipPath3); fill:rgb(255,212,0); stroke:none;" height="22"
      /><rect x="30" y="82" width="22" style="clip-path:url(#clipPath3); fill:none; stroke:black;" height="22"
      /><circle r="11" style="fill:none; stroke:black;" cx="41" cy="93"
      /><circle r="11" style="clip-path:url(#clipPath4); stroke:none;" cx="41" cy="41"
      /><rect x="30" y="30" width="22" style="clip-path:url(#clipPath4); fill:rgb(255,212,0); stroke:none;" height="22"
      /><rect x="30" y="30" width="22" style="clip-path:url(#clipPath4); fill:none; stroke:black;" height="22"
      /><circle r="11" style="fill:none; stroke:black;" cx="41" cy="41"
      /><rect x="74" width="7" height="9" y="78" style="stroke:none;"
      /><path d="M75 83.5156 L77.9531 79.2656 L77.9531 83.5156 L75 83.5156 ZM80.2812 83.5156 L78.8594 83.5156 L78.8594 78.125 L78.2344 78.125 L74.3438 83.6406 L74.3438 84.1875 L77.9531 84.1875 L77.9531 87 L78.8594 87 L78.8594 84.1875 L80.2812 84.1875 L80.2812 83.5156 Z" style="fill:black; stroke:none;"
      /><rect x="59" width="6" height="13" y="84" style="stroke:none;"
      /><path d="M61.0938 90.2031 C61.0938 88.6562 61.75 87.8125 62.7969 87.8125 C63.7188 87.8125 64.2656 88.4531 64.2656 89.5156 C64.2656 90.7188 63.5 91.4375 62.1875 91.7031 L62.2969 92.3125 C64.2188 92.2344 64.9375 93.2188 64.9375 94.4375 C64.9375 95.625 64.2344 96.4219 62.9531 96.4219 C62.25 96.4219 61.6562 96.1562 61.0938 95.7188 L61.0938 90.2031 ZM60.2031 96.9062 L60.1094 99.375 L60.2656 99.4844 L61.1562 99.2656 L61.0156 96.0938 C61.5469 96.8438 62.3594 97.1719 63.1719 97.1719 C64.5625 97.1719 65.8594 96.2188 65.8594 94.4844 C65.8594 92.9531 64.875 92.1094 63.125 92 C64.5625 91.6094 65.1875 90.4531 65.1875 89.4844 C65.1875 88.0938 64.1562 87.3125 62.9062 87.3125 C61.2969 87.3125 60.2188 88.5469 60.2188 90.5156 L60.2031 96.9062 Z" style="fill:black; stroke:none;"
      /><rect x="68" width="6" height="9" y="60" style="stroke:none;"
      /><path d="M68.6406 60.25 L68.6406 61.1406 L73.2031 61.1406 L69.7812 68.875 L69.8906 69 L70.75 69 L73.875 60.7969 L73.875 60.25 L68.6406 60.25 Z" style="fill:black; stroke:none;"
      /><rect x="52" width="6" height="13" y="50" style="stroke:none;"
      /><path d="M54.0938 56.2031 C54.0938 54.6562 54.75 53.8125 55.7969 53.8125 C56.7188 53.8125 57.2656 54.4531 57.2656 55.5156 C57.2656 56.7188 56.5 57.4375 55.1875 57.7031 L55.2969 58.3125 C57.2188 58.2344 57.9375 59.2188 57.9375 60.4375 C57.9375 61.625 57.2344 62.4219 55.9531 62.4219 C55.25 62.4219 54.6562 62.1562 54.0938 61.7188 L54.0938 56.2031 ZM53.2031 62.9062 L53.1094 65.375 L53.2656 65.4844 L54.1562 65.2656 L54.0156 62.0938 C54.5469 62.8438 55.3594 63.1719 56.1719 63.1719 C57.5625 63.1719 58.8594 62.2188 58.8594 60.4844 C58.8594 58.9531 57.875 58.1094 56.125 58 C57.5625 57.6094 58.1875 56.4531 58.1875 55.4844 C58.1875 54.0938 57.1562 53.3125 55.9062 53.3125 C54.2969 53.3125 53.2188 54.5469 53.2188 56.5156 L53.2031 62.9062 Z" style="fill:black; stroke:none;"
      /><rect x="123" width="6" height="10" y="70" style="stroke:none;"
      /><path d="M124.9219 72.1406 L128.6562 72.1406 L128.6562 71.25 L124.4531 71.25 L124.1719 75.3125 L124.5156 75.3906 C124.9219 75.25 125.3906 75.1875 125.8125 75.1875 C127.0781 75.1875 127.9219 75.9531 127.9219 77.3906 C127.9219 78.7812 127.1719 79.6875 125.8281 79.6875 C125.5156 79.6875 125.2344 79.6406 124.9375 79.5625 L124.6875 78.7812 C124.5312 78.2188 124.3906 78.0469 124.0625 78.0469 C123.7969 78.0469 123.5938 78.1719 123.4844 78.4375 C123.7656 79.5938 124.625 80.1719 125.8906 80.1719 C127.7031 80.1719 128.875 78.9844 128.875 77.2812 C128.875 75.5312 127.75 74.5469 126.0938 74.5469 C125.6094 74.5469 125.1719 74.625 124.7344 74.7656 L124.9219 72.1406 Z" style="fill:black; stroke:none;"
      /><rect x="108" width="8" height="8" y="71" style="stroke:none;"
      /><path d="M112.9844 76.7031 C112.9375 77.8906 112.1562 78.6562 111.3125 78.6562 C110.2656 78.6562 109.5 77.6875 109.5 75.7188 C109.5 74.2812 110.1562 73.1562 111.3438 73.1562 C112.1406 73.1562 112.7812 73.6875 113.0938 74.6406 L112.9844 76.7031 ZM114.9062 78.2812 C114.7344 78.375 114.5469 78.4219 114.3438 78.4219 C113.9531 78.4219 113.75 78.2188 113.75 77.4219 C113.75 76.4844 113.9688 74.5312 114.1875 72.8281 L114.0312 72.7188 L113.2344 72.9219 L113.1406 73.7969 C112.7812 73.0312 112.1562 72.6562 111.3906 72.6562 C110.0469 72.6562 108.5625 73.8438 108.5625 75.9531 C108.5625 78.0938 109.7188 79.1719 111.1406 79.1719 C112.0156 79.1719 112.6875 78.8125 113.0938 77.9844 C113.2031 78.8594 113.5156 79.1719 114.0156 79.1719 C114.4688 79.1719 114.7969 78.9062 115.0156 78.5625 L114.9062 78.2812 Z" style="fill:black; stroke:none;"
      /><rect x="160" width="8" height="8" y="71" style="stroke:none;"
      /><path d="M164.9844 76.7031 C164.9375 77.8906 164.1562 78.6562 163.3125 78.6562 C162.2656 78.6562 161.5 77.6875 161.5 75.7188 C161.5 74.2812 162.1562 73.1562 163.3438 73.1562 C164.1406 73.1562 164.7812 73.6875 165.0938 74.6406 L164.9844 76.7031 ZM166.9062 78.2812 C166.7344 78.375 166.5469 78.4219 166.3438 78.4219 C165.9531 78.4219 165.75 78.2188 165.75 77.4219 C165.75 76.4844 165.9688 74.5312 166.1875 72.8281 L166.0312 72.7188 L165.2344 72.9219 L165.1406 73.7969 C164.7812 73.0312 164.1562 72.6562 163.3906 72.6562 C162.0469 72.6562 160.5625 73.8438 160.5625 75.9531 C160.5625 78.0938 161.7188 79.1719 163.1406 79.1719 C164.0156 79.1719 164.6875 78.8125 165.0938 77.9844 C165.2031 78.8594 165.5156 79.1719 166.0156 79.1719 C166.4688 79.1719 166.7969 78.9062 167.0156 78.5625 L166.9062 78.2812 Z" style="fill:black; stroke:none;"
    /></g
  ></g
></svg
>
