<?xml version="1.0"?>
<!DOCTYPE svg PUBLIC '-//W3C//DTD SVG 1.0//EN'
          'http://www.w3.org/TR/2001/REC-SVG-20010904/DTD/svg10.dtd'>
<svg xmlns:xlink="http://www.w3.org/1999/xlink" style="fill-opacity:1; color-rendering:auto; color-interpolation:auto; text-rendering:auto; stroke:black; stroke-linecap:square; stroke-miterlimit:10; shape-rendering:auto; stroke-opacity:1; fill:black; stroke-dasharray:none; font-weight:normal; stroke-width:1; font-family:'Dialog'; font-style:normal; stroke-linejoin:miter; font-size:12px; stroke-dashoffset:0; image-rendering:auto;" viewBox="0 0 594 238" xmlns="http://www.w3.org/2000/svg"
><!--Generated by the Batik Graphics2D SVG Generator--><defs id="genericDefs"
  /><g
  ><defs id="defs1"
    ><clipPath clipPathUnits="userSpaceOnUse" id="clipPath1"
      ><path d="M490 134 L512 134 L512 156 L490 156 L490 134 Z"
      /></clipPath
      ><clipPath clipPathUnits="userSpaceOnUse" id="clipPath2"
      ><path d="M438 134 L460 134 L460 156 L438 156 L438 134 Z"
      /></clipPath
      ><clipPath clipPathUnits="userSpaceOnUse" id="clipPath3"
      ><path d="M408 145 C408 151.0751 403.0751 156 397 156 C390.9249 156 386 151.0751 386 145 C386 138.9249 390.9249 134 397 134 C403.0751 134 408 138.9249 408 145 Z"
      /></clipPath
      ><clipPath clipPathUnits="userSpaceOnUse" id="clipPath4"
      ><path d="M356 197 C356 203.0751 351.0751 208 345 208 C338.9249 208 334 203.0751 334 197 C334 190.9249 338.9249 186 345 186 C351.0751 186 356 190.9249 356 197 Z"
      /></clipPath
      ><clipPath clipPathUnits="userSpaceOnUse" id="clipPath5"
      ><path d="M282 186 L304 186 L304 208 L282 208 L282 186 Z"
      /></clipPath
      ><clipPath clipPathUnits="userSpaceOnUse" id="clipPath6"
      ><path d="M252 197 C252 203.0751 247.0751 208 241 208 C234.9249 208 230 203.0751 230 197 C230 190.9249 234.9249 186 241 186 C247.0751 186 252 190.9249 252 197 Z"
      /></clipPath
      ><clipPath clipPathUnits="userSpaceOnUse" id="clipPath7"
      ><path style="fill-rule:evenodd;" d="M189 186 L200 197 L189 208 L178 197 Z"
      /></clipPath
      ><clipPath clipPathUnits="userSpaceOnUse" id="clipPath8"
      ><path style="fill-rule:evenodd;" d="M293 156 L282 134 L304 134 Z"
      /></clipPath
      ><clipPath clipPathUnits="userSpaceOnUse" id="clipPath9"
      ><path d="M356 93 C356 99.0751 351.0751 104 345 104 C338.9249 104 334 99.0751 334 93 C334 86.9249 338.9249 82 345 82 C351.0751 82 356 86.9249 356 93 Z"
      /></clipPath
      ><clipPath clipPathUnits="userSpaceOnUse" id="clipPath10"
      ><path d="M282 82 L304 82 L304 104 L282 104 L282 82 Z"
      /></clipPath
      ><clipPath clipPathUnits="userSpaceOnUse" id="clipPath11"
      ><path style="fill-rule:evenodd;" d="M293 52 L282 30 L304 30 Z"
      /></clipPath
      ><clipPath clipPathUnits="userSpaceOnUse" id="clipPath12"
      ><path d="M230 82 L252 82 L252 104 L230 104 L230 82 Z"
      /></clipPath
      ><clipPath clipPathUnits="userSpaceOnUse" id="clipPath13"
      ><path style="fill-rule:evenodd;" d="M501 104 L490 82 L512 82 Z"
      /></clipPath
      ><clipPath clipPathUnits="userSpaceOnUse" id="clipPath14"
      ><path d="M82 108 L104 108 L104 130 L82 130 L82 108 Z"
      /></clipPath
      ><clipPath clipPathUnits="userSpaceOnUse" id="clipPath15"
      ><path style="fill-rule:evenodd;" d="M93 78 L82 56 L104 56 Z"
      /></clipPath
      ><clipPath clipPathUnits="userSpaceOnUse" id="clipPath16"
      ><path d="M52 119 C52 125.0751 47.0751 130 41 130 C34.9249 130 30 125.0751 30 119 C30 112.9249 34.9249 108 41 108 C47.0751 108 52 112.9249 52 119 Z"
      /></clipPath
    ></defs
    ><g style="fill:white; text-rendering:optimizeSpeed; stroke:white;"
    ><rect x="0" width="594" height="238" y="0" style="stroke:none;"
      /><polygon style="fill:none; stroke:black;" points=" 553 145 501 145"
      /><path d="M553 134 C547.5 139.5 558.5 150.5 553 156" style="fill:none; stroke:black;"
      /><polygon style="fill:none; stroke:black;" points=" 501 145 449 145"
      /><polygon style="fill:none; stroke:black;" points=" 501 145 501 93"
      /><rect x="490" y="134" width="22" style="clip-path:url(#clipPath1); stroke:none;" height="22"
      /><rect x="490" y="134" width="22" style="clip-path:url(#clipPath1); fill:rgb(0,144,188); stroke:none;" height="22"
      /><rect x="490" y="134" width="22" style="clip-path:url(#clipPath1); fill:none; stroke:black;" height="22"
      /><rect x="490" y="134" width="22" style="fill:none; stroke:black;" height="22"
      /><polygon style="fill:none; stroke:black;" points=" 449 145 397 145"
      /><rect x="438" y="134" width="22" style="clip-path:url(#clipPath2); stroke:none;" height="22"
      /><rect x="438" y="134" width="22" style="clip-path:url(#clipPath2); fill:rgb(0,144,188); stroke:none;" height="22"
      /><rect x="438" y="134" width="22" style="clip-path:url(#clipPath2); fill:none; stroke:black;" height="22"
      /><rect x="438" y="134" width="22" style="fill:none; stroke:black;" height="22"
      /><polygon style="fill:none; stroke:black;" points=" 397 145 345 197"
      /><polygon style="fill:none; stroke:black;" points=" 397 145 345 93"
      /><circle style="clip-path:url(#clipPath3); stroke:none;" r="11" cx="397" cy="145"
      /><rect x="386" y="134" width="22" style="clip-path:url(#clipPath3); fill:rgb(0,166,81); stroke:none;" height="22"
      /><rect x="386" y="134" width="22" style="clip-path:url(#clipPath3); fill:none; stroke:black;" height="22"
      /><circle style="fill:none; stroke:black;" r="11" cx="397" cy="145"
      /><polygon style="fill:none; stroke:black;" points=" 345 197 293 197"
      /><circle style="clip-path:url(#clipPath4); stroke:none;" r="11" cx="345" cy="197"
      /><rect x="334" y="186" width="22" style="clip-path:url(#clipPath4); fill:rgb(0,166,81); stroke:none;" height="22"
      /><rect x="334" y="186" width="22" style="clip-path:url(#clipPath4); fill:none; stroke:black;" height="22"
      /><circle style="fill:none; stroke:black;" r="11" cx="345" cy="197"
      /><polygon style="fill:none; stroke:black;" points=" 293 197 241 197"
      /><polygon style="fill:none; stroke:black;" points=" 293 197 293 145"
      /><rect x="282" y="186" width="22" style="clip-path:url(#clipPath5); stroke:none;" height="22"
      /><rect x="282" y="186" width="22" style="clip-path:url(#clipPath5); fill:rgb(0,144,188); stroke:none;" height="22"
      /><rect x="282" y="186" width="22" style="clip-path:url(#clipPath5); fill:none; stroke:black;" height="22"
      /><rect x="282" y="186" width="22" style="fill:none; stroke:black;" height="22"
      /><polygon style="fill:none; stroke:black;" points=" 241 197 189 197"
      /><circle style="clip-path:url(#clipPath6); stroke:none;" r="11" cx="241" cy="197"
      /><rect x="230" y="186" width="22" style="clip-path:url(#clipPath6); fill:rgb(255,212,0); stroke:none;" height="22"
      /><rect x="230" y="186" width="22" style="clip-path:url(#clipPath6); fill:none; stroke:black;" height="22"
      /><circle style="fill:none; stroke:black;" r="11" cx="241" cy="197"
      /><polygon style="clip-path:url(#clipPath7); stroke:none;" points=" 189 186 200 197 189 208 178 197"
      /><rect x="178" y="186" width="22" style="clip-path:url(#clipPath7); fill:rgb(143,204,233); stroke:none;" height="22"
      /><rect x="178" y="186" width="22" style="clip-path:url(#clipPath7); fill:none; stroke:black;" height="22"
      /><polygon style="fill:none; stroke:black;" points=" 189 186 200 197 189 208 178 197"
      /><rect x="219" y="200" width="5" style="stroke:none;" height="10"
    /></g
    ><g style="font-family:'Serif'; text-rendering:optimizeSpeed; "
    ><path style="stroke:none;" d="M220.8906 208.6875 C220.4844 208.6875 220.1562 209.0469 220.1562 209.4219 C220.1562 209.8125 220.4844 210.1562 220.8906 210.1562 C221.2969 210.1562 221.6406 209.8125 221.6406 209.4219 C221.6406 209.0469 221.2969 208.6875 220.8906 208.6875 ZM222.4688 202.5781 C222.7188 202.8906 222.875 203.2656 222.8906 203.6562 C222.8906 204.1875 222.625 204.5 222.0312 204.7656 L221.4062 205.0156 C220.6406 205.3125 220.3906 205.5469 220.3906 205.9375 C220.3906 206.1094 220.4531 206.3438 220.5781 206.8125 L220.7344 207.3438 L221.1094 207.3438 L221.0938 206.5312 C221.0938 206.0938 221.2031 205.9688 221.7812 205.7344 L222.2031 205.5625 C223.0312 205.2188 223.4531 204.6875 223.4531 203.8438 C223.4531 202.1562 221.6562 201.1875 220.5 201.0312 C220.1094 201.125 219.9062 201.2969 219.9062 201.6406 C219.9062 201.9375 220.0625 202.1562 220.7188 202.2656 L222.4688 202.5781 Z"
      /><rect x="205" y="200" width="5" style="fill:white; stroke:none;" height="10"
      /><path style="stroke:none;" d="M206.8906 208.6875 C206.4844 208.6875 206.1562 209.0469 206.1562 209.4219 C206.1562 209.8125 206.4844 210.1562 206.8906 210.1562 C207.2969 210.1562 207.6406 209.8125 207.6406 209.4219 C207.6406 209.0469 207.2969 208.6875 206.8906 208.6875 ZM208.4688 202.5781 C208.7188 202.8906 208.875 203.2656 208.8906 203.6562 C208.8906 204.1875 208.625 204.5 208.0312 204.7656 L207.4062 205.0156 C206.6406 205.3125 206.3906 205.5469 206.3906 205.9375 C206.3906 206.1094 206.4531 206.3438 206.5781 206.8125 L206.7344 207.3438 L207.1094 207.3438 L207.0938 206.5312 C207.0938 206.0938 207.2031 205.9688 207.7812 205.7344 L208.2031 205.5625 C209.0312 205.2188 209.4531 204.6875 209.4531 203.8438 C209.4531 202.1562 207.6562 201.1875 206.5 201.0312 C206.1094 201.125 205.9062 201.2969 205.9062 201.6406 C205.9062 201.9375 206.0625 202.1562 206.7188 202.2656 L208.4688 202.5781 Z"
      /><polygon style="fill:white; clip-path:url(#clipPath8); stroke:none;" points=" 293 156 282 134 304 134"
      /><rect x="282" y="134" width="22" style="clip-path:url(#clipPath8); fill:rgb(237,28,36); stroke:none;" height="22"
      /><rect x="282" y="134" width="22" style="fill:none; clip-path:url(#clipPath8);" height="22"
      /><polygon style="fill:none;" points=" 293 156 282 134 304 134"
      /><rect x="271" y="200" width="5" style="fill:white; stroke:none;" height="10"
      /><path style="stroke:none;" d="M272.8906 208.6875 C272.4844 208.6875 272.1562 209.0469 272.1562 209.4219 C272.1562 209.8125 272.4844 210.1562 272.8906 210.1562 C273.2969 210.1562 273.6406 209.8125 273.6406 209.4219 C273.6406 209.0469 273.2969 208.6875 272.8906 208.6875 ZM274.4688 202.5781 C274.7188 202.8906 274.875 203.2656 274.8906 203.6562 C274.8906 204.1875 274.625 204.5 274.0312 204.7656 L273.4062 205.0156 C272.6406 205.3125 272.3906 205.5469 272.3906 205.9375 C272.3906 206.1094 272.4531 206.3438 272.5781 206.8125 L272.7344 207.3438 L273.1094 207.3438 L273.0938 206.5312 C273.0938 206.0938 273.2031 205.9688 273.7812 205.7344 L274.2031 205.5625 C275.0312 205.2188 275.4531 204.6875 275.4531 203.8438 C275.4531 202.1562 273.6562 201.1875 272.5 201.0312 C272.1094 201.125 271.9062 201.2969 271.9062 201.6406 C271.9062 201.9375 272.0625 202.1562 272.7188 202.2656 L274.4688 202.5781 Z"
      /><rect x="257" y="200" width="5" style="fill:white; stroke:none;" height="10"
      /><path style="stroke:none;" d="M258.8906 208.6875 C258.4844 208.6875 258.1562 209.0469 258.1562 209.4219 C258.1562 209.8125 258.4844 210.1562 258.8906 210.1562 C259.2969 210.1562 259.6406 209.8125 259.6406 209.4219 C259.6406 209.0469 259.2969 208.6875 258.8906 208.6875 ZM260.4688 202.5781 C260.7188 202.8906 260.875 203.2656 260.8906 203.6562 C260.8906 204.1875 260.625 204.5 260.0312 204.7656 L259.4062 205.0156 C258.6406 205.3125 258.3906 205.5469 258.3906 205.9375 C258.3906 206.1094 258.4531 206.3438 258.5781 206.8125 L258.7344 207.3438 L259.1094 207.3438 L259.0938 206.5312 C259.0938 206.0938 259.2031 205.9688 259.7812 205.7344 L260.2031 205.5625 C261.0312 205.2188 261.4531 204.6875 261.4531 203.8438 C261.4531 202.1562 259.6562 201.1875 258.5 201.0312 C258.1094 201.125 257.9062 201.2969 257.9062 201.6406 C257.9062 201.9375 258.0625 202.1562 258.7188 202.2656 L260.4688 202.5781 Z"
      /><rect x="282" y="173" width="5" style="fill:white; stroke:none;" height="10"
      /><path style="stroke:none;" d="M283.8906 181.6875 C283.4844 181.6875 283.1562 182.0469 283.1562 182.4219 C283.1562 182.8125 283.4844 183.1562 283.8906 183.1562 C284.2969 183.1562 284.6406 182.8125 284.6406 182.4219 C284.6406 182.0469 284.2969 181.6875 283.8906 181.6875 ZM285.4688 175.5781 C285.7188 175.8906 285.875 176.2656 285.8906 176.6562 C285.8906 177.1875 285.625 177.5 285.0312 177.7656 L284.4062 178.0156 C283.6406 178.3125 283.3906 178.5469 283.3906 178.9375 C283.3906 179.1094 283.4531 179.3438 283.5781 179.8125 L283.7344 180.3438 L284.1094 180.3438 L284.0938 179.5312 C284.0938 179.0938 284.2031 178.9688 284.7812 178.7344 L285.2031 178.5625 C286.0312 178.2188 286.4531 177.6875 286.4531 176.8438 C286.4531 175.1562 284.6562 174.1875 283.5 174.0312 C283.1094 174.125 282.9062 174.2969 282.9062 174.6406 C282.9062 174.9375 283.0625 175.1562 283.7188 175.2656 L285.4688 175.5781 Z"
      /><rect x="282" y="159" width="5" style="fill:white; stroke:none;" height="10"
      /><path style="stroke:none;" d="M283.8906 167.6875 C283.4844 167.6875 283.1562 168.0469 283.1562 168.4219 C283.1562 168.8125 283.4844 169.1562 283.8906 169.1562 C284.2969 169.1562 284.6406 168.8125 284.6406 168.4219 C284.6406 168.0469 284.2969 167.6875 283.8906 167.6875 ZM285.4688 161.5781 C285.7188 161.8906 285.875 162.2656 285.8906 162.6562 C285.8906 163.1875 285.625 163.5 285.0312 163.7656 L284.4062 164.0156 C283.6406 164.3125 283.3906 164.5469 283.3906 164.9375 C283.3906 165.1094 283.4531 165.3438 283.5781 165.8125 L283.7344 166.3438 L284.1094 166.3438 L284.0938 165.5312 C284.0938 165.0938 284.2031 164.9688 284.7812 164.7344 L285.2031 164.5625 C286.0312 164.2188 286.4531 163.6875 286.4531 162.8438 C286.4531 161.1562 284.6562 160.1875 283.5 160.0312 C283.1094 160.125 282.9062 160.2969 282.9062 160.6406 C282.9062 160.9375 283.0625 161.1562 283.7188 161.2656 L285.4688 161.5781 Z"
      /><rect x="323" y="200" width="5" style="fill:white; stroke:none;" height="10"
      /><path style="stroke:none;" d="M324.8906 208.6875 C324.4844 208.6875 324.1562 209.0469 324.1562 209.4219 C324.1562 209.8125 324.4844 210.1562 324.8906 210.1562 C325.2969 210.1562 325.6406 209.8125 325.6406 209.4219 C325.6406 209.0469 325.2969 208.6875 324.8906 208.6875 ZM326.4688 202.5781 C326.7188 202.8906 326.875 203.2656 326.8906 203.6562 C326.8906 204.1875 326.625 204.5 326.0312 204.7656 L325.4062 205.0156 C324.6406 205.3125 324.3906 205.5469 324.3906 205.9375 C324.3906 206.1094 324.4531 206.3438 324.5781 206.8125 L324.7344 207.3438 L325.1094 207.3438 L325.0938 206.5312 C325.0938 206.0938 325.2031 205.9688 325.7812 205.7344 L326.2031 205.5625 C327.0312 205.2188 327.4531 204.6875 327.4531 203.8438 C327.4531 202.1562 325.6562 201.1875 324.5 201.0312 C324.1094 201.125 323.9062 201.2969 323.9062 201.6406 C323.9062 201.9375 324.0625 202.1562 324.7188 202.2656 L326.4688 202.5781 Z"
      /><rect x="309" y="200" width="5" style="fill:white; stroke:none;" height="10"
      /><path style="stroke:none;" d="M310.8906 208.6875 C310.4844 208.6875 310.1562 209.0469 310.1562 209.4219 C310.1562 209.8125 310.4844 210.1562 310.8906 210.1562 C311.2969 210.1562 311.6406 209.8125 311.6406 209.4219 C311.6406 209.0469 311.2969 208.6875 310.8906 208.6875 ZM312.4688 202.5781 C312.7188 202.8906 312.875 203.2656 312.8906 203.6562 C312.8906 204.1875 312.625 204.5 312.0312 204.7656 L311.4062 205.0156 C310.6406 205.3125 310.3906 205.5469 310.3906 205.9375 C310.3906 206.1094 310.4531 206.3438 310.5781 206.8125 L310.7344 207.3438 L311.1094 207.3438 L311.0938 206.5312 C311.0938 206.0938 311.2031 205.9688 311.7812 205.7344 L312.2031 205.5625 C313.0312 205.2188 313.4531 204.6875 313.4531 203.8438 C313.4531 202.1562 311.6562 201.1875 310.5 201.0312 C310.1094 201.125 309.9062 201.2969 309.9062 201.6406 C309.9062 201.9375 310.0625 202.1562 310.7188 202.2656 L312.4688 202.5781 Z"
      /><polygon style="fill:none;" points=" 345 93 293 93"
      /><circle style="fill:white; clip-path:url(#clipPath9); stroke:none;" r="11" cx="345" cy="93"
      /><rect x="334" y="82" width="22" style="clip-path:url(#clipPath9); fill:rgb(0,166,81); stroke:none;" height="22"
      /><rect x="334" y="82" width="22" style="fill:none; clip-path:url(#clipPath9);" height="22"
      /><circle r="11" style="fill:none;" cx="345" cy="93"
      /><polygon style="fill:none;" points=" 293 93 293 41"
      /><polygon style="fill:none;" points=" 293 93 241 93"
      /><rect x="282" y="82" width="22" style="clip-path:url(#clipPath10); fill:white; stroke:none;" height="22"
      /><rect x="282" y="82" width="22" style="clip-path:url(#clipPath10); fill:rgb(0,144,188); stroke:none;" height="22"
      /><rect x="282" y="82" width="22" style="fill:none; clip-path:url(#clipPath10);" height="22"
      /><rect x="282" width="22" height="22" y="82" style="fill:none;"
      /><polygon style="fill:white; clip-path:url(#clipPath11); stroke:none;" points=" 293 52 282 30 304 30"
      /><rect x="282" y="30" width="22" style="clip-path:url(#clipPath11); fill:rgb(237,28,36); stroke:none;" height="22"
      /><rect x="282" y="30" width="22" style="fill:none; clip-path:url(#clipPath11);" height="22"
      /><polygon style="fill:none;" points=" 293 52 282 30 304 30"
      /><rect x="230" y="82" width="22" style="clip-path:url(#clipPath12); fill:white; stroke:none;" height="22"
      /><rect x="230" y="82" width="22" style="clip-path:url(#clipPath12); fill:rgb(255,212,0); stroke:none;" height="22"
      /><rect x="230" y="82" width="22" style="fill:none; clip-path:url(#clipPath12);" height="22"
      /><rect x="230" width="22" height="22" y="82" style="fill:none;"
      /><rect x="282" y="69" width="5" style="fill:white; stroke:none;" height="10"
      /><path style="stroke:none;" d="M283.8906 77.6875 C283.4844 77.6875 283.1562 78.0469 283.1562 78.4219 C283.1562 78.8125 283.4844 79.1562 283.8906 79.1562 C284.2969 79.1562 284.6406 78.8125 284.6406 78.4219 C284.6406 78.0469 284.2969 77.6875 283.8906 77.6875 ZM285.4688 71.5781 C285.7188 71.8906 285.875 72.2656 285.8906 72.6562 C285.8906 73.1875 285.625 73.5 285.0312 73.7656 L284.4062 74.0156 C283.6406 74.3125 283.3906 74.5469 283.3906 74.9375 C283.3906 75.1094 283.4531 75.3438 283.5781 75.8125 L283.7344 76.3438 L284.1094 76.3438 L284.0938 75.5312 C284.0938 75.0938 284.2031 74.9688 284.7812 74.7344 L285.2031 74.5625 C286.0312 74.2188 286.4531 73.6875 286.4531 72.8438 C286.4531 71.1562 284.6562 70.1875 283.5 70.0312 C283.1094 70.125 282.9062 70.2969 282.9062 70.6406 C282.9062 70.9375 283.0625 71.1562 283.7188 71.2656 L285.4688 71.5781 Z"
      /><rect x="282" y="55" width="5" style="fill:white; stroke:none;" height="10"
      /><path style="stroke:none;" d="M283.8906 63.6875 C283.4844 63.6875 283.1562 64.0469 283.1562 64.4219 C283.1562 64.8125 283.4844 65.1562 283.8906 65.1562 C284.2969 65.1562 284.6406 64.8125 284.6406 64.4219 C284.6406 64.0469 284.2969 63.6875 283.8906 63.6875 ZM285.4688 57.5781 C285.7188 57.8906 285.875 58.2656 285.8906 58.6562 C285.8906 59.1875 285.625 59.5 285.0312 59.7656 L284.4062 60.0156 C283.6406 60.3125 283.3906 60.5469 283.3906 60.9375 C283.3906 61.1094 283.4531 61.3438 283.5781 61.8125 L283.7344 62.3438 L284.1094 62.3438 L284.0938 61.5312 C284.0938 61.0938 284.2031 60.9688 284.7812 60.7344 L285.2031 60.5625 C286.0312 60.2188 286.4531 59.6875 286.4531 58.8438 C286.4531 57.1562 284.6562 56.1875 283.5 56.0312 C283.1094 56.125 282.9062 56.2969 282.9062 56.6406 C282.9062 56.9375 283.0625 57.1562 283.7188 57.2656 L285.4688 57.5781 Z"
      /><rect x="271" y="96" width="5" style="fill:white; stroke:none;" height="10"
      /><path style="stroke:none;" d="M272.8906 104.6875 C272.4844 104.6875 272.1562 105.0469 272.1562 105.4219 C272.1562 105.8125 272.4844 106.1562 272.8906 106.1562 C273.2969 106.1562 273.6406 105.8125 273.6406 105.4219 C273.6406 105.0469 273.2969 104.6875 272.8906 104.6875 ZM274.4688 98.5781 C274.7188 98.8906 274.875 99.2656 274.8906 99.6562 C274.8906 100.1875 274.625 100.5 274.0312 100.7656 L273.4062 101.0156 C272.6406 101.3125 272.3906 101.5469 272.3906 101.9375 C272.3906 102.1094 272.4531 102.3438 272.5781 102.8125 L272.7344 103.3438 L273.1094 103.3438 L273.0938 102.5312 C273.0938 102.0938 273.2031 101.9688 273.7812 101.7344 L274.2031 101.5625 C275.0312 101.2188 275.4531 100.6875 275.4531 99.8438 C275.4531 98.1562 273.6562 97.1875 272.5 97.0312 C272.1094 97.125 271.9062 97.2969 271.9062 97.6406 C271.9062 97.9375 272.0625 98.1562 272.7188 98.2656 L274.4688 98.5781 Z"
      /><rect x="257" y="96" width="5" style="fill:white; stroke:none;" height="10"
      /><path style="stroke:none;" d="M258.8906 104.6875 C258.4844 104.6875 258.1562 105.0469 258.1562 105.4219 C258.1562 105.8125 258.4844 106.1562 258.8906 106.1562 C259.2969 106.1562 259.6406 105.8125 259.6406 105.4219 C259.6406 105.0469 259.2969 104.6875 258.8906 104.6875 ZM260.4688 98.5781 C260.7188 98.8906 260.875 99.2656 260.8906 99.6562 C260.8906 100.1875 260.625 100.5 260.0312 100.7656 L259.4062 101.0156 C258.6406 101.3125 258.3906 101.5469 258.3906 101.9375 C258.3906 102.1094 258.4531 102.3438 258.5781 102.8125 L258.7344 103.3438 L259.1094 103.3438 L259.0938 102.5312 C259.0938 102.0938 259.2031 101.9688 259.7812 101.7344 L260.2031 101.5625 C261.0312 101.2188 261.4531 100.6875 261.4531 99.8438 C261.4531 98.1562 259.6562 97.1875 258.5 97.0312 C258.1094 97.125 257.9062 97.2969 257.9062 97.6406 C257.9062 97.9375 258.0625 98.1562 258.7188 98.2656 L260.4688 98.5781 Z"
      /><rect x="323" y="96" width="5" style="fill:white; stroke:none;" height="10"
      /><path style="stroke:none;" d="M324.8906 104.6875 C324.4844 104.6875 324.1562 105.0469 324.1562 105.4219 C324.1562 105.8125 324.4844 106.1562 324.8906 106.1562 C325.2969 106.1562 325.6406 105.8125 325.6406 105.4219 C325.6406 105.0469 325.2969 104.6875 324.8906 104.6875 ZM326.4688 98.5781 C326.7188 98.8906 326.875 99.2656 326.8906 99.6562 C326.8906 100.1875 326.625 100.5 326.0312 100.7656 L325.4062 101.0156 C324.6406 101.3125 324.3906 101.5469 324.3906 101.9375 C324.3906 102.1094 324.4531 102.3438 324.5781 102.8125 L324.7344 103.3438 L325.1094 103.3438 L325.0938 102.5312 C325.0938 102.0938 325.2031 101.9688 325.7812 101.7344 L326.2031 101.5625 C327.0312 101.2188 327.4531 100.6875 327.4531 99.8438 C327.4531 98.1562 325.6562 97.1875 324.5 97.0312 C324.1094 97.125 323.9062 97.2969 323.9062 97.6406 C323.9062 97.9375 324.0625 98.1562 324.7188 98.2656 L326.4688 98.5781 Z"
      /><rect x="309" y="96" width="5" style="fill:white; stroke:none;" height="10"
      /><path style="stroke:none;" d="M310.8906 104.6875 C310.4844 104.6875 310.1562 105.0469 310.1562 105.4219 C310.1562 105.8125 310.4844 106.1562 310.8906 106.1562 C311.2969 106.1562 311.6406 105.8125 311.6406 105.4219 C311.6406 105.0469 311.2969 104.6875 310.8906 104.6875 ZM312.4688 98.5781 C312.7188 98.8906 312.875 99.2656 312.8906 99.6562 C312.8906 100.1875 312.625 100.5 312.0312 100.7656 L311.4062 101.0156 C310.6406 101.3125 310.3906 101.5469 310.3906 101.9375 C310.3906 102.1094 310.4531 102.3438 310.5781 102.8125 L310.7344 103.3438 L311.1094 103.3438 L311.0938 102.5312 C311.0938 102.0938 311.2031 101.9688 311.7812 101.7344 L312.2031 101.5625 C313.0312 101.2188 313.4531 100.6875 313.4531 99.8438 C313.4531 98.1562 311.6562 97.1875 310.5 97.0312 C310.1094 97.125 309.9062 97.2969 309.9062 97.6406 C309.9062 97.9375 310.0625 98.1562 310.7188 98.2656 L312.4688 98.5781 Z"
      /><rect x="383" y="162" width="5" style="fill:white; stroke:none;" height="10"
      /><path style="stroke:none;" d="M384.8906 170.6875 C384.4844 170.6875 384.1562 171.0469 384.1562 171.4219 C384.1562 171.8125 384.4844 172.1562 384.8906 172.1562 C385.2969 172.1562 385.6406 171.8125 385.6406 171.4219 C385.6406 171.0469 385.2969 170.6875 384.8906 170.6875 ZM386.4688 164.5781 C386.7188 164.8906 386.875 165.2656 386.8906 165.6562 C386.8906 166.1875 386.625 166.5 386.0312 166.7656 L385.4062 167.0156 C384.6406 167.3125 384.3906 167.5469 384.3906 167.9375 C384.3906 168.1094 384.4531 168.3438 384.5781 168.8125 L384.7344 169.3438 L385.1094 169.3438 L385.0938 168.5312 C385.0938 168.0938 385.2031 167.9688 385.7812 167.7344 L386.2031 167.5625 C387.0312 167.2188 387.4531 166.6875 387.4531 165.8438 C387.4531 164.1562 385.6562 163.1875 384.5 163.0312 C384.1094 163.125 383.9062 163.2969 383.9062 163.6406 C383.9062 163.9375 384.0625 164.1562 384.7188 164.2656 L386.4688 164.5781 Z"
      /><rect x="364" y="181" width="5" style="fill:white; stroke:none;" height="10"
      /><path style="stroke:none;" d="M365.8906 189.6875 C365.4844 189.6875 365.1562 190.0469 365.1562 190.4219 C365.1562 190.8125 365.4844 191.1562 365.8906 191.1562 C366.2969 191.1562 366.6406 190.8125 366.6406 190.4219 C366.6406 190.0469 366.2969 189.6875 365.8906 189.6875 ZM367.4688 183.5781 C367.7188 183.8906 367.875 184.2656 367.8906 184.6562 C367.8906 185.1875 367.625 185.5 367.0312 185.7656 L366.4062 186.0156 C365.6406 186.3125 365.3906 186.5469 365.3906 186.9375 C365.3906 187.1094 365.4531 187.3438 365.5781 187.8125 L365.7344 188.3438 L366.1094 188.3438 L366.0938 187.5312 C366.0938 187.0938 366.2031 186.9688 366.7812 186.7344 L367.2031 186.5625 C368.0312 186.2188 368.4531 185.6875 368.4531 184.8438 C368.4531 183.1562 366.6562 182.1875 365.5 182.0312 C365.1094 182.125 364.9062 182.2969 364.9062 182.6406 C364.9062 182.9375 365.0625 183.1562 365.7188 183.2656 L367.4688 183.5781 Z"
      /><rect x="372" y="129" width="5" style="fill:white; stroke:none;" height="10"
      /><path style="stroke:none;" d="M373.8906 137.6875 C373.4844 137.6875 373.1562 138.0469 373.1562 138.4219 C373.1562 138.8125 373.4844 139.1562 373.8906 139.1562 C374.2969 139.1562 374.6406 138.8125 374.6406 138.4219 C374.6406 138.0469 374.2969 137.6875 373.8906 137.6875 ZM375.4688 131.5781 C375.7188 131.8906 375.875 132.2656 375.8906 132.6562 C375.8906 133.1875 375.625 133.5 375.0312 133.7656 L374.4062 134.0156 C373.6406 134.3125 373.3906 134.5469 373.3906 134.9375 C373.3906 135.1094 373.4531 135.3438 373.5781 135.8125 L373.7344 136.3438 L374.1094 136.3438 L374.0938 135.5312 C374.0938 135.0938 374.2031 134.9688 374.7812 134.7344 L375.2031 134.5625 C376.0312 134.2188 376.4531 133.6875 376.4531 132.8438 C376.4531 131.1562 374.6562 130.1875 373.5 130.0312 C373.1094 130.125 372.9062 130.2969 372.9062 130.6406 C372.9062 130.9375 373.0625 131.1562 373.7188 131.2656 L375.4688 131.5781 Z"
      /><rect x="353" y="110" width="5" style="fill:white; stroke:none;" height="10"
      /><path style="stroke:none;" d="M354.8906 118.6875 C354.4844 118.6875 354.1562 119.0469 354.1562 119.4219 C354.1562 119.8125 354.4844 120.1562 354.8906 120.1562 C355.2969 120.1562 355.6406 119.8125 355.6406 119.4219 C355.6406 119.0469 355.2969 118.6875 354.8906 118.6875 ZM356.4688 112.5781 C356.7188 112.8906 356.875 113.2656 356.8906 113.6562 C356.8906 114.1875 356.625 114.5 356.0312 114.7656 L355.4062 115.0156 C354.6406 115.3125 354.3906 115.5469 354.3906 115.9375 C354.3906 116.1094 354.4531 116.3438 354.5781 116.8125 L354.7344 117.3438 L355.1094 117.3438 L355.0938 116.5312 C355.0938 116.0938 355.2031 115.9688 355.7812 115.7344 L356.2031 115.5625 C357.0312 115.2188 357.4531 114.6875 357.4531 113.8438 C357.4531 112.1562 355.6562 111.1875 354.5 111.0312 C354.1094 111.125 353.9062 111.2969 353.9062 111.6406 C353.9062 111.9375 354.0625 112.1562 354.7188 112.2656 L356.4688 112.5781 Z"
      /><rect x="427" y="148" width="5" style="fill:white; stroke:none;" height="10"
      /><path style="stroke:none;" d="M428.8906 156.6875 C428.4844 156.6875 428.1562 157.0469 428.1562 157.4219 C428.1562 157.8125 428.4844 158.1562 428.8906 158.1562 C429.2969 158.1562 429.6406 157.8125 429.6406 157.4219 C429.6406 157.0469 429.2969 156.6875 428.8906 156.6875 ZM430.4688 150.5781 C430.7188 150.8906 430.875 151.2656 430.8906 151.6562 C430.8906 152.1875 430.625 152.5 430.0312 152.7656 L429.4062 153.0156 C428.6406 153.3125 428.3906 153.5469 428.3906 153.9375 C428.3906 154.1094 428.4531 154.3438 428.5781 154.8125 L428.7344 155.3438 L429.1094 155.3438 L429.0938 154.5312 C429.0938 154.0938 429.2031 153.9688 429.7812 153.7344 L430.2031 153.5625 C431.0312 153.2188 431.4531 152.6875 431.4531 151.8438 C431.4531 150.1562 429.6562 149.1875 428.5 149.0312 C428.1094 149.125 427.9062 149.2969 427.9062 149.6406 C427.9062 149.9375 428.0625 150.1562 428.7188 150.2656 L430.4688 150.5781 Z"
      /><rect x="413" y="148" width="5" style="fill:white; stroke:none;" height="10"
      /><path style="stroke:none;" d="M414.8906 156.6875 C414.4844 156.6875 414.1562 157.0469 414.1562 157.4219 C414.1562 157.8125 414.4844 158.1562 414.8906 158.1562 C415.2969 158.1562 415.6406 157.8125 415.6406 157.4219 C415.6406 157.0469 415.2969 156.6875 414.8906 156.6875 ZM416.4688 150.5781 C416.7188 150.8906 416.875 151.2656 416.8906 151.6562 C416.8906 152.1875 416.625 152.5 416.0312 152.7656 L415.4062 153.0156 C414.6406 153.3125 414.3906 153.5469 414.3906 153.9375 C414.3906 154.1094 414.4531 154.3438 414.5781 154.8125 L414.7344 155.3438 L415.1094 155.3438 L415.0938 154.5312 C415.0938 154.0938 415.2031 153.9688 415.7812 153.7344 L416.2031 153.5625 C417.0312 153.2188 417.4531 152.6875 417.4531 151.8438 C417.4531 150.1562 415.6562 149.1875 414.5 149.0312 C414.1094 149.125 413.9062 149.2969 413.9062 149.6406 C413.9062 149.9375 414.0625 150.1562 414.7188 150.2656 L416.4688 150.5781 Z"
      /><polygon style="fill:white; clip-path:url(#clipPath13); stroke:none;" points=" 501 104 490 82 512 82"
      /><rect x="490" y="82" width="22" style="clip-path:url(#clipPath13); fill:rgb(237,28,36); stroke:none;" height="22"
      /><rect x="490" y="82" width="22" style="fill:none; clip-path:url(#clipPath13);" height="22"
      /><polygon style="fill:none;" points=" 501 104 490 82 512 82"
      /><rect x="479" y="148" width="5" style="fill:white; stroke:none;" height="10"
      /><path style="stroke:none;" d="M480.8906 156.6875 C480.4844 156.6875 480.1562 157.0469 480.1562 157.4219 C480.1562 157.8125 480.4844 158.1562 480.8906 158.1562 C481.2969 158.1562 481.6406 157.8125 481.6406 157.4219 C481.6406 157.0469 481.2969 156.6875 480.8906 156.6875 ZM482.4688 150.5781 C482.7188 150.8906 482.875 151.2656 482.8906 151.6562 C482.8906 152.1875 482.625 152.5 482.0312 152.7656 L481.4062 153.0156 C480.6406 153.3125 480.3906 153.5469 480.3906 153.9375 C480.3906 154.1094 480.4531 154.3438 480.5781 154.8125 L480.7344 155.3438 L481.1094 155.3438 L481.0938 154.5312 C481.0938 154.0938 481.2031 153.9688 481.7812 153.7344 L482.2031 153.5625 C483.0312 153.2188 483.4531 152.6875 483.4531 151.8438 C483.4531 150.1562 481.6562 149.1875 480.5 149.0312 C480.1094 149.125 479.9062 149.2969 479.9062 149.6406 C479.9062 149.9375 480.0625 150.1562 480.7188 150.2656 L482.4688 150.5781 Z"
      /><rect x="465" y="148" width="5" style="fill:white; stroke:none;" height="10"
      /><path style="stroke:none;" d="M466.8906 156.6875 C466.4844 156.6875 466.1562 157.0469 466.1562 157.4219 C466.1562 157.8125 466.4844 158.1562 466.8906 158.1562 C467.2969 158.1562 467.6406 157.8125 467.6406 157.4219 C467.6406 157.0469 467.2969 156.6875 466.8906 156.6875 ZM468.4688 150.5781 C468.7188 150.8906 468.875 151.2656 468.8906 151.6562 C468.8906 152.1875 468.625 152.5 468.0312 152.7656 L467.4062 153.0156 C466.6406 153.3125 466.3906 153.5469 466.3906 153.9375 C466.3906 154.1094 466.4531 154.3438 466.5781 154.8125 L466.7344 155.3438 L467.1094 155.3438 L467.0938 154.5312 C467.0938 154.0938 467.2031 153.9688 467.7812 153.7344 L468.2031 153.5625 C469.0312 153.2188 469.4531 152.6875 469.4531 151.8438 C469.4531 150.1562 467.6562 149.1875 466.5 149.0312 C466.1094 149.125 465.9062 149.2969 465.9062 149.6406 C465.9062 149.9375 466.0625 150.1562 466.7188 150.2656 L468.4688 150.5781 Z"
      /><rect x="490" y="121" width="5" style="fill:white; stroke:none;" height="10"
      /><path style="stroke:none;" d="M491.8906 129.6875 C491.4844 129.6875 491.1562 130.0469 491.1562 130.4219 C491.1562 130.8125 491.4844 131.1562 491.8906 131.1562 C492.2969 131.1562 492.6406 130.8125 492.6406 130.4219 C492.6406 130.0469 492.2969 129.6875 491.8906 129.6875 ZM493.4688 123.5781 C493.7188 123.8906 493.875 124.2656 493.8906 124.6562 C493.8906 125.1875 493.625 125.5 493.0312 125.7656 L492.4062 126.0156 C491.6406 126.3125 491.3906 126.5469 491.3906 126.9375 C491.3906 127.1094 491.4531 127.3438 491.5781 127.8125 L491.7344 128.3438 L492.1094 128.3438 L492.0938 127.5312 C492.0938 127.0938 492.2031 126.9688 492.7812 126.7344 L493.2031 126.5625 C494.0312 126.2188 494.4531 125.6875 494.4531 124.8438 C494.4531 123.1562 492.6562 122.1875 491.5 122.0312 C491.1094 122.125 490.9062 122.2969 490.9062 122.6406 C490.9062 122.9375 491.0625 123.1562 491.7188 123.2656 L493.4688 123.5781 Z"
      /><rect x="490" y="107" width="5" style="fill:white; stroke:none;" height="10"
      /><path style="stroke:none;" d="M491.8906 115.6875 C491.4844 115.6875 491.1562 116.0469 491.1562 116.4219 C491.1562 116.8125 491.4844 117.1562 491.8906 117.1562 C492.2969 117.1562 492.6406 116.8125 492.6406 116.4219 C492.6406 116.0469 492.2969 115.6875 491.8906 115.6875 ZM493.4688 109.5781 C493.7188 109.8906 493.875 110.2656 493.8906 110.6562 C493.8906 111.1875 493.625 111.5 493.0312 111.7656 L492.4062 112.0156 C491.6406 112.3125 491.3906 112.5469 491.3906 112.9375 C491.3906 113.1094 491.4531 113.3438 491.5781 113.8125 L491.7344 114.3438 L492.1094 114.3438 L492.0938 113.5312 C492.0938 113.0938 492.2031 112.9688 492.7812 112.7344 L493.2031 112.5625 C494.0312 112.2188 494.4531 111.6875 494.4531 110.8438 C494.4531 109.1562 492.6562 108.1875 491.5 108.0312 C491.1094 108.125 490.9062 108.2969 490.9062 108.6406 C490.9062 108.9375 491.0625 109.1562 491.7188 109.2656 L493.4688 109.5781 Z"
      /><rect x="517" y="148" width="5" style="fill:white; stroke:none;" height="10"
      /><path style="stroke:none;" d="M518.8906 156.6875 C518.4844 156.6875 518.1562 157.0469 518.1562 157.4219 C518.1562 157.8125 518.4844 158.1562 518.8906 158.1562 C519.2969 158.1562 519.6406 157.8125 519.6406 157.4219 C519.6406 157.0469 519.2969 156.6875 518.8906 156.6875 ZM520.4688 150.5781 C520.7188 150.8906 520.875 151.2656 520.8906 151.6562 C520.8906 152.1875 520.625 152.5 520.0312 152.7656 L519.4062 153.0156 C518.6406 153.3125 518.3906 153.5469 518.3906 153.9375 C518.3906 154.1094 518.4531 154.3438 518.5781 154.8125 L518.7344 155.3438 L519.1094 155.3438 L519.0938 154.5312 C519.0938 154.0938 519.2031 153.9688 519.7812 153.7344 L520.2031 153.5625 C521.0312 153.2188 521.4531 152.6875 521.4531 151.8438 C521.4531 150.1562 519.6562 149.1875 518.5 149.0312 C518.1094 149.125 517.9062 149.2969 517.9062 149.6406 C517.9062 149.9375 518.0625 150.1562 518.7188 150.2656 L520.4688 150.5781 Z"
      /><polygon style="fill:none;" points=" 178 208 167 208 167 30 178 30 167 30 167 208"
      /><polygon style="fill:none;" points=" 145 119 93 119"
      /><polygon style="fill:none;" points=" 93 119 93 67"
      /><polygon style="fill:none;" points=" 93 119 41 119"
      /><rect x="82" y="108" width="22" style="clip-path:url(#clipPath14); fill:white; stroke:none;" height="22"
      /><rect x="82" y="108" width="22" style="clip-path:url(#clipPath14); fill:rgb(0,144,188); stroke:none;" height="22"
      /><rect x="82" y="108" width="22" style="fill:none; clip-path:url(#clipPath14);" height="22"
      /><rect x="82" width="22" height="22" y="108" style="fill:none;"
      /><polygon style="fill:white; clip-path:url(#clipPath15); stroke:none;" points=" 93 78 82 56 104 56"
      /><rect x="82" y="56" width="22" style="clip-path:url(#clipPath15); fill:rgb(237,28,36); stroke:none;" height="22"
      /><rect x="82" y="56" width="22" style="fill:none; clip-path:url(#clipPath15);" height="22"
      /><polygon style="fill:none;" points=" 93 78 82 56 104 56"
      /><circle style="fill:white; clip-path:url(#clipPath16); stroke:none;" r="11" cx="41" cy="119"
      /><rect x="30" y="108" width="22" style="clip-path:url(#clipPath16); fill:rgb(255,212,0); stroke:none;" height="22"
      /><rect x="30" y="108" width="22" style="fill:none; clip-path:url(#clipPath16);" height="22"
      /><circle r="11" style="fill:none;" cx="41" cy="119"
      /><rect x="82" y="95" width="5" style="fill:white; stroke:none;" height="10"
      /><path style="stroke:none;" d="M83.8906 103.6875 C83.4844 103.6875 83.1562 104.0469 83.1562 104.4219 C83.1562 104.8125 83.4844 105.1562 83.8906 105.1562 C84.2969 105.1562 84.6406 104.8125 84.6406 104.4219 C84.6406 104.0469 84.2969 103.6875 83.8906 103.6875 ZM85.4688 97.5781 C85.7188 97.8906 85.875 98.2656 85.8906 98.6562 C85.8906 99.1875 85.625 99.5 85.0312 99.7656 L84.4062 100.0156 C83.6406 100.3125 83.3906 100.5469 83.3906 100.9375 C83.3906 101.1094 83.4531 101.3438 83.5781 101.8125 L83.7344 102.3438 L84.1094 102.3438 L84.0938 101.5312 C84.0938 101.0938 84.2031 100.9688 84.7812 100.7344 L85.2031 100.5625 C86.0312 100.2188 86.4531 99.6875 86.4531 98.8438 C86.4531 97.1562 84.6562 96.1875 83.5 96.0312 C83.1094 96.125 82.9062 96.2969 82.9062 96.6406 C82.9062 96.9375 83.0625 97.1562 83.7188 97.2656 L85.4688 97.5781 Z"
      /><rect x="82" y="81" width="5" style="fill:white; stroke:none;" height="10"
      /><path style="stroke:none;" d="M83.8906 89.6875 C83.4844 89.6875 83.1562 90.0469 83.1562 90.4219 C83.1562 90.8125 83.4844 91.1562 83.8906 91.1562 C84.2969 91.1562 84.6406 90.8125 84.6406 90.4219 C84.6406 90.0469 84.2969 89.6875 83.8906 89.6875 ZM85.4688 83.5781 C85.7188 83.8906 85.875 84.2656 85.8906 84.6562 C85.8906 85.1875 85.625 85.5 85.0312 85.7656 L84.4062 86.0156 C83.6406 86.3125 83.3906 86.5469 83.3906 86.9375 C83.3906 87.1094 83.4531 87.3438 83.5781 87.8125 L83.7344 88.3438 L84.1094 88.3438 L84.0938 87.5312 C84.0938 87.0938 84.2031 86.9688 84.7812 86.7344 L85.2031 86.5625 C86.0312 86.2188 86.4531 85.6875 86.4531 84.8438 C86.4531 83.1562 84.6562 82.1875 83.5 82.0312 C83.1094 82.125 82.9062 82.2969 82.9062 82.6406 C82.9062 82.9375 83.0625 83.1562 83.7188 83.2656 L85.4688 83.5781 Z"
      /><rect x="71" y="122" width="5" style="fill:white; stroke:none;" height="10"
      /><path style="stroke:none;" d="M72.8906 130.6875 C72.4844 130.6875 72.1562 131.0469 72.1562 131.4219 C72.1562 131.8125 72.4844 132.1562 72.8906 132.1562 C73.2969 132.1562 73.6406 131.8125 73.6406 131.4219 C73.6406 131.0469 73.2969 130.6875 72.8906 130.6875 ZM74.4688 124.5781 C74.7188 124.8906 74.875 125.2656 74.8906 125.6562 C74.8906 126.1875 74.625 126.5 74.0312 126.7656 L73.4062 127.0156 C72.6406 127.3125 72.3906 127.5469 72.3906 127.9375 C72.3906 128.1094 72.4531 128.3438 72.5781 128.8125 L72.7344 129.3438 L73.1094 129.3438 L73.0938 128.5312 C73.0938 128.0938 73.2031 127.9688 73.7812 127.7344 L74.2031 127.5625 C75.0312 127.2188 75.4531 126.6875 75.4531 125.8438 C75.4531 124.1562 73.6562 123.1875 72.5 123.0312 C72.1094 123.125 71.9062 123.2969 71.9062 123.6406 C71.9062 123.9375 72.0625 124.1562 72.7188 124.2656 L74.4688 124.5781 Z"
      /><rect x="57" y="122" width="5" style="fill:white; stroke:none;" height="10"
      /><path style="stroke:none;" d="M58.8906 130.6875 C58.4844 130.6875 58.1562 131.0469 58.1562 131.4219 C58.1562 131.8125 58.4844 132.1562 58.8906 132.1562 C59.2969 132.1562 59.6406 131.8125 59.6406 131.4219 C59.6406 131.0469 59.2969 130.6875 58.8906 130.6875 ZM60.4688 124.5781 C60.7188 124.8906 60.875 125.2656 60.8906 125.6562 C60.8906 126.1875 60.625 126.5 60.0312 126.7656 L59.4062 127.0156 C58.6406 127.3125 58.3906 127.5469 58.3906 127.9375 C58.3906 128.1094 58.4531 128.3438 58.5781 128.8125 L58.7344 129.3438 L59.1094 129.3438 L59.0938 128.5312 C59.0938 128.0938 59.2031 127.9688 59.7812 127.7344 L60.2031 127.5625 C61.0312 127.2188 61.4531 126.6875 61.4531 125.8438 C61.4531 124.1562 59.6562 123.1875 58.5 123.0312 C58.1094 123.125 57.9062 123.2969 57.9062 123.6406 C57.9062 123.9375 58.0625 124.1562 58.7188 124.2656 L60.4688 124.5781 Z"
      /><rect x="123" y="122" width="5" style="fill:white; stroke:none;" height="10"
      /><path style="stroke:none;" d="M124.8906 130.6875 C124.4844 130.6875 124.1562 131.0469 124.1562 131.4219 C124.1562 131.8125 124.4844 132.1562 124.8906 132.1562 C125.2969 132.1562 125.6406 131.8125 125.6406 131.4219 C125.6406 131.0469 125.2969 130.6875 124.8906 130.6875 ZM126.4688 124.5781 C126.7188 124.8906 126.875 125.2656 126.8906 125.6562 C126.8906 126.1875 126.625 126.5 126.0312 126.7656 L125.4062 127.0156 C124.6406 127.3125 124.3906 127.5469 124.3906 127.9375 C124.3906 128.1094 124.4531 128.3438 124.5781 128.8125 L124.7344 129.3438 L125.1094 129.3438 L125.0938 128.5312 C125.0938 128.0938 125.2031 127.9688 125.7812 127.7344 L126.2031 127.5625 C127.0312 127.2188 127.4531 126.6875 127.4531 125.8438 C127.4531 124.1562 125.6562 123.1875 124.5 123.0312 C124.1094 123.125 123.9062 123.2969 123.9062 123.6406 C123.9062 123.9375 124.0625 124.1562 124.7188 124.2656 L126.4688 124.5781 Z"
      /><rect x="109" y="122" width="5" style="fill:white; stroke:none;" height="10"
      /><path style="stroke:none;" d="M110.8906 130.6875 C110.4844 130.6875 110.1562 131.0469 110.1562 131.4219 C110.1562 131.8125 110.4844 132.1562 110.8906 132.1562 C111.2969 132.1562 111.6406 131.8125 111.6406 131.4219 C111.6406 131.0469 111.2969 130.6875 110.8906 130.6875 ZM112.4688 124.5781 C112.7188 124.8906 112.875 125.2656 112.8906 125.6562 C112.8906 126.1875 112.625 126.5 112.0312 126.7656 L111.4062 127.0156 C110.6406 127.3125 110.3906 127.5469 110.3906 127.9375 C110.3906 128.1094 110.4531 128.3438 110.5781 128.8125 L110.7344 129.3438 L111.1094 129.3438 L111.0938 128.5312 C111.0938 128.0938 111.2031 127.9688 111.7812 127.7344 L112.2031 127.5625 C113.0312 127.2188 113.4531 126.6875 113.4531 125.8438 C113.4531 124.1562 111.6562 123.1875 110.5 123.0312 C110.1094 123.125 109.9062 123.2969 109.9062 123.6406 C109.9062 123.9375 110.0625 124.1562 110.7188 124.2656 L112.4688 124.5781 Z"
    /></g
  ></g
></svg
>
