<?xml version="1.0"?>
<!DOCTYPE svg PUBLIC '-//W3C//DTD SVG 1.0//EN'
          'http://www.w3.org/TR/2001/REC-SVG-20010904/DTD/svg10.dtd'>
<svg xmlns:xlink="http://www.w3.org/1999/xlink" style="fill-opacity:1; color-rendering:auto; color-interpolation:auto; text-rendering:auto; stroke:black; stroke-linecap:square; stroke-miterlimit:10; shape-rendering:auto; stroke-opacity:1; fill:black; stroke-dasharray:none; font-weight:normal; stroke-width:1; font-family:'Dialog'; font-style:normal; stroke-linejoin:miter; font-size:12px; stroke-dashoffset:0; image-rendering:auto;" viewBox="0 0 446 446" xmlns="http://www.w3.org/2000/svg"
><!--Generated by the Batik Graphics2D SVG Generator--><defs id="genericDefs"
  /><g
  ><defs id="defs1"
    ><clipPath clipPathUnits="userSpaceOnUse" id="clipPath1"
      ><path d="M342 134 L364 134 L364 156 L342 156 L342 134 Z"
      /></clipPath
      ><clipPath clipPathUnits="userSpaceOnUse" id="clipPath2"
      ><path d="M290 134 L312 134 L312 156 L290 156 L290 134 Z"
      /></clipPath
      ><clipPath clipPathUnits="userSpaceOnUse" id="clipPath3"
      ><path d="M260 145 C260 151.0751 255.0751 156 249 156 C242.9249 156 238 151.0751 238 145 C238 138.9249 242.9249 134 249 134 C255.0751 134 260 138.9249 260 145 Z"
      /></clipPath
      ><clipPath clipPathUnits="userSpaceOnUse" id="clipPath4"
      ><path d="M208 353 C208 359.0751 203.0751 364 197 364 C190.9249 364 186 359.0751 186 353 C186 346.9249 190.9249 342 197 342 C203.0751 342 208 346.9249 208 353 Z"
      /></clipPath
      ><clipPath clipPathUnits="userSpaceOnUse" id="clipPath5"
      ><path d="M134 394 L156 394 L156 416 L134 416 L134 394 Z"
      /></clipPath
      ><clipPath clipPathUnits="userSpaceOnUse" id="clipPath6"
      ><path d="M104 405 C104 411.0751 99.0751 416 93 416 C86.9249 416 82 411.0751 82 405 C82 398.9249 86.9249 394 93 394 C99.0751 394 104 398.9249 104 405 Z"
      /></clipPath
      ><clipPath clipPathUnits="userSpaceOnUse" id="clipPath7"
      ><path style="fill-rule:evenodd;" d="M93 364 L82 342 L104 342 Z"
      /></clipPath
      ><clipPath clipPathUnits="userSpaceOnUse" id="clipPath8"
      ><path style="fill-rule:evenodd;" d="M145 364 L134 342 L156 342 Z"
      /></clipPath
      ><clipPath clipPathUnits="userSpaceOnUse" id="clipPath9"
      ><path d="M134 290 L156 290 L156 312 L134 312 L134 290 Z"
      /></clipPath
      ><clipPath clipPathUnits="userSpaceOnUse" id="clipPath10"
      ><path d="M104 301 C104 307.0751 99.0751 312 93 312 C86.9249 312 82 307.0751 82 301 C82 294.9249 86.9249 290 93 290 C99.0751 290 104 294.9249 104 301 Z"
      /></clipPath
      ><clipPath clipPathUnits="userSpaceOnUse" id="clipPath11"
      ><path style="fill-rule:evenodd;" d="M41 290 L52 301 L41 312 L30 301 Z"
      /></clipPath
      ><clipPath clipPathUnits="userSpaceOnUse" id="clipPath12"
      ><path style="fill-rule:evenodd;" d="M145 260 L134 238 L156 238 Z"
      /></clipPath
      ><clipPath clipPathUnits="userSpaceOnUse" id="clipPath13"
      ><path d="M208 145 C208 151.0751 203.0751 156 197 156 C190.9249 156 186 151.0751 186 145 C186 138.9249 190.9249 134 197 134 C203.0751 134 208 138.9249 208 145 Z"
      /></clipPath
      ><clipPath clipPathUnits="userSpaceOnUse" id="clipPath14"
      ><path d="M134 186 L156 186 L156 208 L134 208 L134 186 Z"
      /></clipPath
      ><clipPath clipPathUnits="userSpaceOnUse" id="clipPath15"
      ><path d="M104 197 C104 203.0751 99.0751 208 93 208 C86.9249 208 82 203.0751 82 197 C82 190.9249 86.9249 186 93 186 C99.0751 186 104 190.9249 104 197 Z"
      /></clipPath
      ><clipPath clipPathUnits="userSpaceOnUse" id="clipPath16"
      ><path style="fill-rule:evenodd;" d="M41 186 L52 197 L41 208 L30 197 Z"
      /></clipPath
      ><clipPath clipPathUnits="userSpaceOnUse" id="clipPath17"
      ><path style="fill-rule:evenodd;" d="M145 156 L134 134 L156 134 Z"
      /></clipPath
      ><clipPath clipPathUnits="userSpaceOnUse" id="clipPath18"
      ><path d="M134 82 L156 82 L156 104 L134 104 L134 82 Z"
      /></clipPath
      ><clipPath clipPathUnits="userSpaceOnUse" id="clipPath19"
      ><path d="M104 93 C104 99.0751 99.0751 104 93 104 C86.9249 104 82 99.0751 82 93 C82 86.9249 86.9249 82 93 82 C99.0751 82 104 86.9249 104 93 Z"
      /></clipPath
      ><clipPath clipPathUnits="userSpaceOnUse" id="clipPath20"
      ><path style="fill-rule:evenodd;" d="M41 82 L52 93 L41 104 L30 93 Z"
      /></clipPath
      ><clipPath clipPathUnits="userSpaceOnUse" id="clipPath21"
      ><path style="fill-rule:evenodd;" d="M145 52 L134 30 L156 30 Z"
      /></clipPath
      ><clipPath clipPathUnits="userSpaceOnUse" id="clipPath22"
      ><path d="M186 82 L208 82 L208 104 L186 104 L186 82 Z"
      /></clipPath
      ><clipPath clipPathUnits="userSpaceOnUse" id="clipPath23"
      ><path style="fill-rule:evenodd;" d="M353 104 L342 82 L364 82 Z"
      /></clipPath
    ></defs
    ><g style="fill:white; text-rendering:optimizeSpeed; stroke:white;"
    ><rect x="0" width="446" height="446" y="0" style="stroke:none;"
      /><polygon style="fill:none; stroke:black;" points=" 405 145 353 145"
      /><path d="M405 134 C399.5 139.5 410.5 150.5 405 156" style="fill:none; stroke:black;"
      /><polygon style="fill:none; stroke:black;" points=" 353 145 301 145"
      /><polygon style="fill:none; stroke:black;" points=" 353 145 353 93"
      /><rect x="342" y="134" width="22" style="clip-path:url(#clipPath1); stroke:none;" height="22"
      /><rect x="342" y="134" width="22" style="clip-path:url(#clipPath1); fill:rgb(0,144,188); stroke:none;" height="22"
      /><rect x="342" y="134" width="22" style="clip-path:url(#clipPath1); fill:none; stroke:black;" height="22"
      /><rect x="342" y="134" width="22" style="fill:none; stroke:black;" height="22"
      /><polygon style="fill:none; stroke:black;" points=" 301 145 249 145"
      /><rect x="290" y="134" width="22" style="clip-path:url(#clipPath2); stroke:none;" height="22"
      /><rect x="290" y="134" width="22" style="clip-path:url(#clipPath2); fill:rgb(0,144,188); stroke:none;" height="22"
      /><rect x="290" y="134" width="22" style="clip-path:url(#clipPath2); fill:none; stroke:black;" height="22"
      /><rect x="290" y="134" width="22" style="fill:none; stroke:black;" height="22"
      /><polygon style="fill:none; stroke:black;" points=" 249 145 197 353"
      /><polygon style="fill:none; stroke:black;" points=" 249 145 197 145"
      /><polygon style="fill:none; stroke:black;" points=" 249 145 197 93"
      /><circle style="clip-path:url(#clipPath3); stroke:none;" r="11" cx="249" cy="145"
      /><rect x="238" y="134" width="22" style="clip-path:url(#clipPath3); fill:rgb(0,166,81); stroke:none;" height="22"
      /><rect x="238" y="134" width="22" style="clip-path:url(#clipPath3); fill:none; stroke:black;" height="22"
      /><circle style="fill:none; stroke:black;" r="11" cx="249" cy="145"
      /><polygon style="fill:none; stroke:black;" points=" 197 353 145 405"
      /><polygon style="fill:none; stroke:black;" points=" 197 353 145 301"
      /><circle style="clip-path:url(#clipPath4); stroke:none;" r="11" cx="197" cy="353"
      /><rect x="186" y="342" width="22" style="clip-path:url(#clipPath4); fill:rgb(0,166,81); stroke:none;" height="22"
      /><rect x="186" y="342" width="22" style="clip-path:url(#clipPath4); fill:none; stroke:black;" height="22"
      /><circle style="fill:none; stroke:black;" r="11" cx="197" cy="353"
      /><polygon style="fill:none; stroke:black;" points=" 145 405 93 405"
      /><polygon style="fill:none; stroke:black;" points=" 145 405 145 353"
      /><rect x="134" y="394" width="22" style="clip-path:url(#clipPath5); stroke:none;" height="22"
      /><rect x="134" y="394" width="22" style="clip-path:url(#clipPath5); fill:rgb(0,144,188); stroke:none;" height="22"
      /><rect x="134" y="394" width="22" style="clip-path:url(#clipPath5); fill:none; stroke:black;" height="22"
      /><rect x="134" y="394" width="22" style="fill:none; stroke:black;" height="22"
      /><polygon style="fill:none; stroke:black;" points=" 93 405 93 353"
      /><circle style="clip-path:url(#clipPath6); stroke:none;" r="11" cx="93" cy="405"
      /><rect x="82" y="394" width="22" style="clip-path:url(#clipPath6); fill:rgb(255,212,0); stroke:none;" height="22"
      /><rect x="82" y="394" width="22" style="clip-path:url(#clipPath6); fill:none; stroke:black;" height="22"
      /><circle style="fill:none; stroke:black;" r="11" cx="93" cy="405"
      /><polygon style="clip-path:url(#clipPath7); stroke:none;" points=" 93 364 82 342 104 342"
      /><rect x="82" y="342" width="22" style="clip-path:url(#clipPath7); fill:rgb(237,28,36); stroke:none;" height="22"
      /><rect x="82" y="342" width="22" style="clip-path:url(#clipPath7); fill:none; stroke:black;" height="22"
      /><polygon style="fill:none; stroke:black;" points=" 93 364 82 342 104 342"
      /><rect x="82" y="381" width="5" style="stroke:none;" height="10"
    /></g
    ><g style="font-family:'Serif'; text-rendering:optimizeSpeed; "
    ><path style="stroke:none;" d="M83.8906 389.6875 C83.4844 389.6875 83.1562 390.0469 83.1562 390.4219 C83.1562 390.8125 83.4844 391.1562 83.8906 391.1562 C84.2969 391.1562 84.6406 390.8125 84.6406 390.4219 C84.6406 390.0469 84.2969 389.6875 83.8906 389.6875 ZM85.4688 383.5781 C85.7188 383.8906 85.875 384.2656 85.8906 384.6562 C85.8906 385.1875 85.625 385.5 85.0312 385.7656 L84.4062 386.0156 C83.6406 386.3125 83.3906 386.5469 83.3906 386.9375 C83.3906 387.1094 83.4531 387.3438 83.5781 387.8125 L83.7344 388.3438 L84.1094 388.3438 L84.0938 387.5312 C84.0938 387.0938 84.2031 386.9688 84.7812 386.7344 L85.2031 386.5625 C86.0312 386.2188 86.4531 385.6875 86.4531 384.8438 C86.4531 383.1562 84.6562 382.1875 83.5 382.0312 C83.1094 382.125 82.9062 382.2969 82.9062 382.6406 C82.9062 382.9375 83.0625 383.1562 83.7188 383.2656 L85.4688 383.5781 Z"
      /><rect x="82" y="367" width="5" style="fill:white; stroke:none;" height="10"
      /><path style="stroke:none;" d="M83.8906 375.6875 C83.4844 375.6875 83.1562 376.0469 83.1562 376.4219 C83.1562 376.8125 83.4844 377.1562 83.8906 377.1562 C84.2969 377.1562 84.6406 376.8125 84.6406 376.4219 C84.6406 376.0469 84.2969 375.6875 83.8906 375.6875 ZM85.4688 369.5781 C85.7188 369.8906 85.875 370.2656 85.8906 370.6562 C85.8906 371.1875 85.625 371.5 85.0312 371.7656 L84.4062 372.0156 C83.6406 372.3125 83.3906 372.5469 83.3906 372.9375 C83.3906 373.1094 83.4531 373.3438 83.5781 373.8125 L83.7344 374.3438 L84.1094 374.3438 L84.0938 373.5312 C84.0938 373.0938 84.2031 372.9688 84.7812 372.7344 L85.2031 372.5625 C86.0312 372.2188 86.4531 371.6875 86.4531 370.8438 C86.4531 369.1562 84.6562 368.1875 83.5 368.0312 C83.1094 368.125 82.9062 368.2969 82.9062 368.6406 C82.9062 368.9375 83.0625 369.1562 83.7188 369.2656 L85.4688 369.5781 Z"
      /><polygon style="fill:white; clip-path:url(#clipPath8); stroke:none;" points=" 145 364 134 342 156 342"
      /><rect x="134" y="342" width="22" style="clip-path:url(#clipPath8); fill:rgb(237,28,36); stroke:none;" height="22"
      /><rect x="134" y="342" width="22" style="fill:none; clip-path:url(#clipPath8);" height="22"
      /><polygon style="fill:none;" points=" 145 364 134 342 156 342"
      /><rect x="123" y="408" width="5" style="fill:white; stroke:none;" height="10"
      /><path style="stroke:none;" d="M124.8906 416.6875 C124.4844 416.6875 124.1562 417.0469 124.1562 417.4219 C124.1562 417.8125 124.4844 418.1562 124.8906 418.1562 C125.2969 418.1562 125.6406 417.8125 125.6406 417.4219 C125.6406 417.0469 125.2969 416.6875 124.8906 416.6875 ZM126.4688 410.5781 C126.7188 410.8906 126.875 411.2656 126.8906 411.6562 C126.8906 412.1875 126.625 412.5 126.0312 412.7656 L125.4062 413.0156 C124.6406 413.3125 124.3906 413.5469 124.3906 413.9375 C124.3906 414.1094 124.4531 414.3438 124.5781 414.8125 L124.7344 415.3438 L125.1094 415.3438 L125.0938 414.5312 C125.0938 414.0938 125.2031 413.9688 125.7812 413.7344 L126.2031 413.5625 C127.0312 413.2188 127.4531 412.6875 127.4531 411.8438 C127.4531 410.1562 125.6562 409.1875 124.5 409.0312 C124.1094 409.125 123.9062 409.2969 123.9062 409.6406 C123.9062 409.9375 124.0625 410.1562 124.7188 410.2656 L126.4688 410.5781 Z"
      /><rect x="109" y="408" width="5" style="fill:white; stroke:none;" height="10"
      /><path style="stroke:none;" d="M110.8906 416.6875 C110.4844 416.6875 110.1562 417.0469 110.1562 417.4219 C110.1562 417.8125 110.4844 418.1562 110.8906 418.1562 C111.2969 418.1562 111.6406 417.8125 111.6406 417.4219 C111.6406 417.0469 111.2969 416.6875 110.8906 416.6875 ZM112.4688 410.5781 C112.7188 410.8906 112.875 411.2656 112.8906 411.6562 C112.8906 412.1875 112.625 412.5 112.0312 412.7656 L111.4062 413.0156 C110.6406 413.3125 110.3906 413.5469 110.3906 413.9375 C110.3906 414.1094 110.4531 414.3438 110.5781 414.8125 L110.7344 415.3438 L111.1094 415.3438 L111.0938 414.5312 C111.0938 414.0938 111.2031 413.9688 111.7812 413.7344 L112.2031 413.5625 C113.0312 413.2188 113.4531 412.6875 113.4531 411.8438 C113.4531 410.1562 111.6562 409.1875 110.5 409.0312 C110.1094 409.125 109.9062 409.2969 109.9062 409.6406 C109.9062 409.9375 110.0625 410.1562 110.7188 410.2656 L112.4688 410.5781 Z"
      /><rect x="134" y="381" width="5" style="fill:white; stroke:none;" height="10"
      /><path style="stroke:none;" d="M135.8906 389.6875 C135.4844 389.6875 135.1562 390.0469 135.1562 390.4219 C135.1562 390.8125 135.4844 391.1562 135.8906 391.1562 C136.2969 391.1562 136.6406 390.8125 136.6406 390.4219 C136.6406 390.0469 136.2969 389.6875 135.8906 389.6875 ZM137.4688 383.5781 C137.7188 383.8906 137.875 384.2656 137.8906 384.6562 C137.8906 385.1875 137.625 385.5 137.0312 385.7656 L136.4062 386.0156 C135.6406 386.3125 135.3906 386.5469 135.3906 386.9375 C135.3906 387.1094 135.4531 387.3438 135.5781 387.8125 L135.7344 388.3438 L136.1094 388.3438 L136.0938 387.5312 C136.0938 387.0938 136.2031 386.9688 136.7812 386.7344 L137.2031 386.5625 C138.0312 386.2188 138.4531 385.6875 138.4531 384.8438 C138.4531 383.1562 136.6562 382.1875 135.5 382.0312 C135.1094 382.125 134.9062 382.2969 134.9062 382.6406 C134.9062 382.9375 135.0625 383.1562 135.7188 383.2656 L137.4688 383.5781 Z"
      /><rect x="134" y="367" width="5" style="fill:white; stroke:none;" height="10"
      /><path style="stroke:none;" d="M135.8906 375.6875 C135.4844 375.6875 135.1562 376.0469 135.1562 376.4219 C135.1562 376.8125 135.4844 377.1562 135.8906 377.1562 C136.2969 377.1562 136.6406 376.8125 136.6406 376.4219 C136.6406 376.0469 136.2969 375.6875 135.8906 375.6875 ZM137.4688 369.5781 C137.7188 369.8906 137.875 370.2656 137.8906 370.6562 C137.8906 371.1875 137.625 371.5 137.0312 371.7656 L136.4062 372.0156 C135.6406 372.3125 135.3906 372.5469 135.3906 372.9375 C135.3906 373.1094 135.4531 373.3438 135.5781 373.8125 L135.7344 374.3438 L136.1094 374.3438 L136.0938 373.5312 C136.0938 373.0938 136.2031 372.9688 136.7812 372.7344 L137.2031 372.5625 C138.0312 372.2188 138.4531 371.6875 138.4531 370.8438 C138.4531 369.1562 136.6562 368.1875 135.5 368.0312 C135.1094 368.125 134.9062 368.2969 134.9062 368.6406 C134.9062 368.9375 135.0625 369.1562 135.7188 369.2656 L137.4688 369.5781 Z"
      /><polygon style="fill:none;" points=" 145 301 93 301"
      /><polygon style="fill:none;" points=" 145 301 145 249"
      /><rect x="134" y="290" width="22" style="clip-path:url(#clipPath9); fill:white; stroke:none;" height="22"
      /><rect x="134" y="290" width="22" style="clip-path:url(#clipPath9); fill:rgb(0,144,188); stroke:none;" height="22"
      /><rect x="134" y="290" width="22" style="fill:none; clip-path:url(#clipPath9);" height="22"
      /><rect x="134" width="22" height="22" y="290" style="fill:none;"
      /><polygon style="fill:none;" points=" 93 301 41 301"
      /><circle style="fill:white; clip-path:url(#clipPath10); stroke:none;" r="11" cx="93" cy="301"
      /><rect x="82" y="290" width="22" style="clip-path:url(#clipPath10); fill:rgb(255,212,0); stroke:none;" height="22"
      /><rect x="82" y="290" width="22" style="fill:none; clip-path:url(#clipPath10);" height="22"
      /><circle r="11" style="fill:none;" cx="93" cy="301"
      /><polygon style="fill:white; clip-path:url(#clipPath11); stroke:none;" points=" 41 290 52 301 41 312 30 301"
      /><rect x="30" y="290" width="22" style="clip-path:url(#clipPath11); fill:rgb(165,67,153); stroke:none;" height="22"
      /><rect x="30" y="290" width="22" style="fill:none; clip-path:url(#clipPath11);" height="22"
      /><polygon style="fill:none;" points=" 41 290 52 301 41 312 30 301"
      /><rect x="71" y="304" width="5" style="fill:white; stroke:none;" height="10"
      /><path style="stroke:none;" d="M72.8906 312.6875 C72.4844 312.6875 72.1562 313.0469 72.1562 313.4219 C72.1562 313.8125 72.4844 314.1562 72.8906 314.1562 C73.2969 314.1562 73.6406 313.8125 73.6406 313.4219 C73.6406 313.0469 73.2969 312.6875 72.8906 312.6875 ZM74.4688 306.5781 C74.7188 306.8906 74.875 307.2656 74.8906 307.6562 C74.8906 308.1875 74.625 308.5 74.0312 308.7656 L73.4062 309.0156 C72.6406 309.3125 72.3906 309.5469 72.3906 309.9375 C72.3906 310.1094 72.4531 310.3438 72.5781 310.8125 L72.7344 311.3438 L73.1094 311.3438 L73.0938 310.5312 C73.0938 310.0938 73.2031 309.9688 73.7812 309.7344 L74.2031 309.5625 C75.0312 309.2188 75.4531 308.6875 75.4531 307.8438 C75.4531 306.1562 73.6562 305.1875 72.5 305.0312 C72.1094 305.125 71.9062 305.2969 71.9062 305.6406 C71.9062 305.9375 72.0625 306.1562 72.7188 306.2656 L74.4688 306.5781 Z"
      /><rect x="57" y="304" width="5" style="fill:white; stroke:none;" height="10"
      /><path style="stroke:none;" d="M58.8906 312.6875 C58.4844 312.6875 58.1562 313.0469 58.1562 313.4219 C58.1562 313.8125 58.4844 314.1562 58.8906 314.1562 C59.2969 314.1562 59.6406 313.8125 59.6406 313.4219 C59.6406 313.0469 59.2969 312.6875 58.8906 312.6875 ZM60.4688 306.5781 C60.7188 306.8906 60.875 307.2656 60.8906 307.6562 C60.8906 308.1875 60.625 308.5 60.0312 308.7656 L59.4062 309.0156 C58.6406 309.3125 58.3906 309.5469 58.3906 309.9375 C58.3906 310.1094 58.4531 310.3438 58.5781 310.8125 L58.7344 311.3438 L59.1094 311.3438 L59.0938 310.5312 C59.0938 310.0938 59.2031 309.9688 59.7812 309.7344 L60.2031 309.5625 C61.0312 309.2188 61.4531 308.6875 61.4531 307.8438 C61.4531 306.1562 59.6562 305.1875 58.5 305.0312 C58.1094 305.125 57.9062 305.2969 57.9062 305.6406 C57.9062 305.9375 58.0625 306.1562 58.7188 306.2656 L60.4688 306.5781 Z"
      /><polygon style="fill:white; clip-path:url(#clipPath12); stroke:none;" points=" 145 260 134 238 156 238"
      /><rect x="134" y="238" width="22" style="clip-path:url(#clipPath12); fill:rgb(237,28,36); stroke:none;" height="22"
      /><rect x="134" y="238" width="22" style="fill:none; clip-path:url(#clipPath12);" height="22"
      /><polygon style="fill:none;" points=" 145 260 134 238 156 238"
      /><rect x="123" y="304" width="5" style="fill:white; stroke:none;" height="10"
      /><path style="stroke:none;" d="M124.8906 312.6875 C124.4844 312.6875 124.1562 313.0469 124.1562 313.4219 C124.1562 313.8125 124.4844 314.1562 124.8906 314.1562 C125.2969 314.1562 125.6406 313.8125 125.6406 313.4219 C125.6406 313.0469 125.2969 312.6875 124.8906 312.6875 ZM126.4688 306.5781 C126.7188 306.8906 126.875 307.2656 126.8906 307.6562 C126.8906 308.1875 126.625 308.5 126.0312 308.7656 L125.4062 309.0156 C124.6406 309.3125 124.3906 309.5469 124.3906 309.9375 C124.3906 310.1094 124.4531 310.3438 124.5781 310.8125 L124.7344 311.3438 L125.1094 311.3438 L125.0938 310.5312 C125.0938 310.0938 125.2031 309.9688 125.7812 309.7344 L126.2031 309.5625 C127.0312 309.2188 127.4531 308.6875 127.4531 307.8438 C127.4531 306.1562 125.6562 305.1875 124.5 305.0312 C124.1094 305.125 123.9062 305.2969 123.9062 305.6406 C123.9062 305.9375 124.0625 306.1562 124.7188 306.2656 L126.4688 306.5781 Z"
      /><rect x="109" y="304" width="5" style="fill:white; stroke:none;" height="10"
      /><path style="stroke:none;" d="M110.8906 312.6875 C110.4844 312.6875 110.1562 313.0469 110.1562 313.4219 C110.1562 313.8125 110.4844 314.1562 110.8906 314.1562 C111.2969 314.1562 111.6406 313.8125 111.6406 313.4219 C111.6406 313.0469 111.2969 312.6875 110.8906 312.6875 ZM112.4688 306.5781 C112.7188 306.8906 112.875 307.2656 112.8906 307.6562 C112.8906 308.1875 112.625 308.5 112.0312 308.7656 L111.4062 309.0156 C110.6406 309.3125 110.3906 309.5469 110.3906 309.9375 C110.3906 310.1094 110.4531 310.3438 110.5781 310.8125 L110.7344 311.3438 L111.1094 311.3438 L111.0938 310.5312 C111.0938 310.0938 111.2031 309.9688 111.7812 309.7344 L112.2031 309.5625 C113.0312 309.2188 113.4531 308.6875 113.4531 307.8438 C113.4531 306.1562 111.6562 305.1875 110.5 305.0312 C110.1094 305.125 109.9062 305.2969 109.9062 305.6406 C109.9062 305.9375 110.0625 306.1562 110.7188 306.2656 L112.4688 306.5781 Z"
      /><rect x="134" y="277" width="5" style="fill:white; stroke:none;" height="10"
      /><path style="stroke:none;" d="M135.8906 285.6875 C135.4844 285.6875 135.1562 286.0469 135.1562 286.4219 C135.1562 286.8125 135.4844 287.1562 135.8906 287.1562 C136.2969 287.1562 136.6406 286.8125 136.6406 286.4219 C136.6406 286.0469 136.2969 285.6875 135.8906 285.6875 ZM137.4688 279.5781 C137.7188 279.8906 137.875 280.2656 137.8906 280.6562 C137.8906 281.1875 137.625 281.5 137.0312 281.7656 L136.4062 282.0156 C135.6406 282.3125 135.3906 282.5469 135.3906 282.9375 C135.3906 283.1094 135.4531 283.3438 135.5781 283.8125 L135.7344 284.3438 L136.1094 284.3438 L136.0938 283.5312 C136.0938 283.0938 136.2031 282.9688 136.7812 282.7344 L137.2031 282.5625 C138.0312 282.2188 138.4531 281.6875 138.4531 280.8438 C138.4531 279.1562 136.6562 278.1875 135.5 278.0312 C135.1094 278.125 134.9062 278.2969 134.9062 278.6406 C134.9062 278.9375 135.0625 279.1562 135.7188 279.2656 L137.4688 279.5781 Z"
      /><rect x="134" y="263" width="5" style="fill:white; stroke:none;" height="10"
      /><path style="stroke:none;" d="M135.8906 271.6875 C135.4844 271.6875 135.1562 272.0469 135.1562 272.4219 C135.1562 272.8125 135.4844 273.1562 135.8906 273.1562 C136.2969 273.1562 136.6406 272.8125 136.6406 272.4219 C136.6406 272.0469 136.2969 271.6875 135.8906 271.6875 ZM137.4688 265.5781 C137.7188 265.8906 137.875 266.2656 137.8906 266.6562 C137.8906 267.1875 137.625 267.5 137.0312 267.7656 L136.4062 268.0156 C135.6406 268.3125 135.3906 268.5469 135.3906 268.9375 C135.3906 269.1094 135.4531 269.3438 135.5781 269.8125 L135.7344 270.3438 L136.1094 270.3438 L136.0938 269.5312 C136.0938 269.0938 136.2031 268.9688 136.7812 268.7344 L137.2031 268.5625 C138.0312 268.2188 138.4531 267.6875 138.4531 266.8438 C138.4531 265.1562 136.6562 264.1875 135.5 264.0312 C135.1094 264.125 134.9062 264.2969 134.9062 264.6406 C134.9062 264.9375 135.0625 265.1562 135.7188 265.2656 L137.4688 265.5781 Z"
      /><rect x="183" y="370" width="5" style="fill:white; stroke:none;" height="10"
      /><path style="stroke:none;" d="M184.8906 378.6875 C184.4844 378.6875 184.1562 379.0469 184.1562 379.4219 C184.1562 379.8125 184.4844 380.1562 184.8906 380.1562 C185.2969 380.1562 185.6406 379.8125 185.6406 379.4219 C185.6406 379.0469 185.2969 378.6875 184.8906 378.6875 ZM186.4688 372.5781 C186.7188 372.8906 186.875 373.2656 186.8906 373.6562 C186.8906 374.1875 186.625 374.5 186.0312 374.7656 L185.4062 375.0156 C184.6406 375.3125 184.3906 375.5469 184.3906 375.9375 C184.3906 376.1094 184.4531 376.3438 184.5781 376.8125 L184.7344 377.3438 L185.1094 377.3438 L185.0938 376.5312 C185.0938 376.0938 185.2031 375.9688 185.7812 375.7344 L186.2031 375.5625 C187.0312 375.2188 187.4531 374.6875 187.4531 373.8438 C187.4531 372.1562 185.6562 371.1875 184.5 371.0312 C184.1094 371.125 183.9062 371.2969 183.9062 371.6406 C183.9062 371.9375 184.0625 372.1562 184.7188 372.2656 L186.4688 372.5781 Z"
      /><rect x="164" y="389" width="5" style="fill:white; stroke:none;" height="10"
      /><path style="stroke:none;" d="M165.8906 397.6875 C165.4844 397.6875 165.1562 398.0469 165.1562 398.4219 C165.1562 398.8125 165.4844 399.1562 165.8906 399.1562 C166.2969 399.1562 166.6406 398.8125 166.6406 398.4219 C166.6406 398.0469 166.2969 397.6875 165.8906 397.6875 ZM167.4688 391.5781 C167.7188 391.8906 167.875 392.2656 167.8906 392.6562 C167.8906 393.1875 167.625 393.5 167.0312 393.7656 L166.4062 394.0156 C165.6406 394.3125 165.3906 394.5469 165.3906 394.9375 C165.3906 395.1094 165.4531 395.3438 165.5781 395.8125 L165.7344 396.3438 L166.1094 396.3438 L166.0938 395.5312 C166.0938 395.0938 166.2031 394.9688 166.7812 394.7344 L167.2031 394.5625 C168.0312 394.2188 168.4531 393.6875 168.4531 392.8438 C168.4531 391.1562 166.6562 390.1875 165.5 390.0312 C165.1094 390.125 164.9062 390.2969 164.9062 390.6406 C164.9062 390.9375 165.0625 391.1562 165.7188 391.2656 L167.4688 391.5781 Z"
      /><rect x="172" y="337" width="5" style="fill:white; stroke:none;" height="10"
      /><path style="stroke:none;" d="M173.8906 345.6875 C173.4844 345.6875 173.1562 346.0469 173.1562 346.4219 C173.1562 346.8125 173.4844 347.1562 173.8906 347.1562 C174.2969 347.1562 174.6406 346.8125 174.6406 346.4219 C174.6406 346.0469 174.2969 345.6875 173.8906 345.6875 ZM175.4688 339.5781 C175.7188 339.8906 175.875 340.2656 175.8906 340.6562 C175.8906 341.1875 175.625 341.5 175.0312 341.7656 L174.4062 342.0156 C173.6406 342.3125 173.3906 342.5469 173.3906 342.9375 C173.3906 343.1094 173.4531 343.3438 173.5781 343.8125 L173.7344 344.3438 L174.1094 344.3438 L174.0938 343.5312 C174.0938 343.0938 174.2031 342.9688 174.7812 342.7344 L175.2031 342.5625 C176.0312 342.2188 176.4531 341.6875 176.4531 340.8438 C176.4531 339.1562 174.6562 338.1875 173.5 338.0312 C173.1094 338.125 172.9062 338.2969 172.9062 338.6406 C172.9062 338.9375 173.0625 339.1562 173.7188 339.2656 L175.4688 339.5781 Z"
      /><rect x="153" y="318" width="5" style="fill:white; stroke:none;" height="10"
      /><path style="stroke:none;" d="M154.8906 326.6875 C154.4844 326.6875 154.1562 327.0469 154.1562 327.4219 C154.1562 327.8125 154.4844 328.1562 154.8906 328.1562 C155.2969 328.1562 155.6406 327.8125 155.6406 327.4219 C155.6406 327.0469 155.2969 326.6875 154.8906 326.6875 ZM156.4688 320.5781 C156.7188 320.8906 156.875 321.2656 156.8906 321.6562 C156.8906 322.1875 156.625 322.5 156.0312 322.7656 L155.4062 323.0156 C154.6406 323.3125 154.3906 323.5469 154.3906 323.9375 C154.3906 324.1094 154.4531 324.3438 154.5781 324.8125 L154.7344 325.3438 L155.1094 325.3438 L155.0938 324.5312 C155.0938 324.0938 155.2031 323.9688 155.7812 323.7344 L156.2031 323.5625 C157.0312 323.2188 157.4531 322.6875 157.4531 321.8438 C157.4531 320.1562 155.6562 319.1875 154.5 319.0312 C154.1094 319.125 153.9062 319.2969 153.9062 319.6406 C153.9062 319.9375 154.0625 320.1562 154.7188 320.2656 L156.4688 320.5781 Z"
      /><polygon style="fill:none;" points=" 197 145 145 197"
      /><polygon style="fill:none;" points=" 197 145 145 93"
      /><circle style="fill:white; clip-path:url(#clipPath13); stroke:none;" r="11" cx="197" cy="145"
      /><rect x="186" y="134" width="22" style="clip-path:url(#clipPath13); fill:rgb(0,166,81); stroke:none;" height="22"
      /><rect x="186" y="134" width="22" style="fill:none; clip-path:url(#clipPath13);" height="22"
      /><circle r="11" style="fill:none;" cx="197" cy="145"
      /><polygon style="fill:none;" points=" 145 197 93 197"
      /><polygon style="fill:none;" points=" 145 197 145 145"
      /><rect x="134" y="186" width="22" style="clip-path:url(#clipPath14); fill:white; stroke:none;" height="22"
      /><rect x="134" y="186" width="22" style="clip-path:url(#clipPath14); fill:rgb(0,144,188); stroke:none;" height="22"
      /><rect x="134" y="186" width="22" style="fill:none; clip-path:url(#clipPath14);" height="22"
      /><rect x="134" width="22" height="22" y="186" style="fill:none;"
      /><polygon style="fill:none;" points=" 93 197 41 197"
      /><circle style="fill:white; clip-path:url(#clipPath15); stroke:none;" r="11" cx="93" cy="197"
      /><rect x="82" y="186" width="22" style="clip-path:url(#clipPath15); fill:rgb(255,212,0); stroke:none;" height="22"
      /><rect x="82" y="186" width="22" style="fill:none; clip-path:url(#clipPath15);" height="22"
      /><circle r="11" style="fill:none;" cx="93" cy="197"
      /><polygon style="fill:white; clip-path:url(#clipPath16); stroke:none;" points=" 41 186 52 197 41 208 30 197"
      /><rect x="30" y="186" width="22" style="clip-path:url(#clipPath16); fill:rgb(165,67,153); stroke:none;" height="22"
      /><rect x="30" y="186" width="22" style="fill:none; clip-path:url(#clipPath16);" height="22"
      /><polygon style="fill:none;" points=" 41 186 52 197 41 208 30 197"
      /><rect x="71" y="200" width="5" style="fill:white; stroke:none;" height="10"
      /><path style="stroke:none;" d="M72.8906 208.6875 C72.4844 208.6875 72.1562 209.0469 72.1562 209.4219 C72.1562 209.8125 72.4844 210.1562 72.8906 210.1562 C73.2969 210.1562 73.6406 209.8125 73.6406 209.4219 C73.6406 209.0469 73.2969 208.6875 72.8906 208.6875 ZM74.4688 202.5781 C74.7188 202.8906 74.875 203.2656 74.8906 203.6562 C74.8906 204.1875 74.625 204.5 74.0312 204.7656 L73.4062 205.0156 C72.6406 205.3125 72.3906 205.5469 72.3906 205.9375 C72.3906 206.1094 72.4531 206.3438 72.5781 206.8125 L72.7344 207.3438 L73.1094 207.3438 L73.0938 206.5312 C73.0938 206.0938 73.2031 205.9688 73.7812 205.7344 L74.2031 205.5625 C75.0312 205.2188 75.4531 204.6875 75.4531 203.8438 C75.4531 202.1562 73.6562 201.1875 72.5 201.0312 C72.1094 201.125 71.9062 201.2969 71.9062 201.6406 C71.9062 201.9375 72.0625 202.1562 72.7188 202.2656 L74.4688 202.5781 Z"
      /><rect x="57" y="200" width="5" style="fill:white; stroke:none;" height="10"
      /><path style="stroke:none;" d="M58.8906 208.6875 C58.4844 208.6875 58.1562 209.0469 58.1562 209.4219 C58.1562 209.8125 58.4844 210.1562 58.8906 210.1562 C59.2969 210.1562 59.6406 209.8125 59.6406 209.4219 C59.6406 209.0469 59.2969 208.6875 58.8906 208.6875 ZM60.4688 202.5781 C60.7188 202.8906 60.875 203.2656 60.8906 203.6562 C60.8906 204.1875 60.625 204.5 60.0312 204.7656 L59.4062 205.0156 C58.6406 205.3125 58.3906 205.5469 58.3906 205.9375 C58.3906 206.1094 58.4531 206.3438 58.5781 206.8125 L58.7344 207.3438 L59.1094 207.3438 L59.0938 206.5312 C59.0938 206.0938 59.2031 205.9688 59.7812 205.7344 L60.2031 205.5625 C61.0312 205.2188 61.4531 204.6875 61.4531 203.8438 C61.4531 202.1562 59.6562 201.1875 58.5 201.0312 C58.1094 201.125 57.9062 201.2969 57.9062 201.6406 C57.9062 201.9375 58.0625 202.1562 58.7188 202.2656 L60.4688 202.5781 Z"
      /><polygon style="fill:white; clip-path:url(#clipPath17); stroke:none;" points=" 145 156 134 134 156 134"
      /><rect x="134" y="134" width="22" style="clip-path:url(#clipPath17); fill:rgb(237,28,36); stroke:none;" height="22"
      /><rect x="134" y="134" width="22" style="fill:none; clip-path:url(#clipPath17);" height="22"
      /><polygon style="fill:none;" points=" 145 156 134 134 156 134"
      /><rect x="123" y="200" width="5" style="fill:white; stroke:none;" height="10"
      /><path style="stroke:none;" d="M124.8906 208.6875 C124.4844 208.6875 124.1562 209.0469 124.1562 209.4219 C124.1562 209.8125 124.4844 210.1562 124.8906 210.1562 C125.2969 210.1562 125.6406 209.8125 125.6406 209.4219 C125.6406 209.0469 125.2969 208.6875 124.8906 208.6875 ZM126.4688 202.5781 C126.7188 202.8906 126.875 203.2656 126.8906 203.6562 C126.8906 204.1875 126.625 204.5 126.0312 204.7656 L125.4062 205.0156 C124.6406 205.3125 124.3906 205.5469 124.3906 205.9375 C124.3906 206.1094 124.4531 206.3438 124.5781 206.8125 L124.7344 207.3438 L125.1094 207.3438 L125.0938 206.5312 C125.0938 206.0938 125.2031 205.9688 125.7812 205.7344 L126.2031 205.5625 C127.0312 205.2188 127.4531 204.6875 127.4531 203.8438 C127.4531 202.1562 125.6562 201.1875 124.5 201.0312 C124.1094 201.125 123.9062 201.2969 123.9062 201.6406 C123.9062 201.9375 124.0625 202.1562 124.7188 202.2656 L126.4688 202.5781 Z"
      /><rect x="109" y="200" width="5" style="fill:white; stroke:none;" height="10"
      /><path style="stroke:none;" d="M110.8906 208.6875 C110.4844 208.6875 110.1562 209.0469 110.1562 209.4219 C110.1562 209.8125 110.4844 210.1562 110.8906 210.1562 C111.2969 210.1562 111.6406 209.8125 111.6406 209.4219 C111.6406 209.0469 111.2969 208.6875 110.8906 208.6875 ZM112.4688 202.5781 C112.7188 202.8906 112.875 203.2656 112.8906 203.6562 C112.8906 204.1875 112.625 204.5 112.0312 204.7656 L111.4062 205.0156 C110.6406 205.3125 110.3906 205.5469 110.3906 205.9375 C110.3906 206.1094 110.4531 206.3438 110.5781 206.8125 L110.7344 207.3438 L111.1094 207.3438 L111.0938 206.5312 C111.0938 206.0938 111.2031 205.9688 111.7812 205.7344 L112.2031 205.5625 C113.0312 205.2188 113.4531 204.6875 113.4531 203.8438 C113.4531 202.1562 111.6562 201.1875 110.5 201.0312 C110.1094 201.125 109.9062 201.2969 109.9062 201.6406 C109.9062 201.9375 110.0625 202.1562 110.7188 202.2656 L112.4688 202.5781 Z"
      /><rect x="134" y="173" width="5" style="fill:white; stroke:none;" height="10"
      /><path style="stroke:none;" d="M135.8906 181.6875 C135.4844 181.6875 135.1562 182.0469 135.1562 182.4219 C135.1562 182.8125 135.4844 183.1562 135.8906 183.1562 C136.2969 183.1562 136.6406 182.8125 136.6406 182.4219 C136.6406 182.0469 136.2969 181.6875 135.8906 181.6875 ZM137.4688 175.5781 C137.7188 175.8906 137.875 176.2656 137.8906 176.6562 C137.8906 177.1875 137.625 177.5 137.0312 177.7656 L136.4062 178.0156 C135.6406 178.3125 135.3906 178.5469 135.3906 178.9375 C135.3906 179.1094 135.4531 179.3438 135.5781 179.8125 L135.7344 180.3438 L136.1094 180.3438 L136.0938 179.5312 C136.0938 179.0938 136.2031 178.9688 136.7812 178.7344 L137.2031 178.5625 C138.0312 178.2188 138.4531 177.6875 138.4531 176.8438 C138.4531 175.1562 136.6562 174.1875 135.5 174.0312 C135.1094 174.125 134.9062 174.2969 134.9062 174.6406 C134.9062 174.9375 135.0625 175.1562 135.7188 175.2656 L137.4688 175.5781 Z"
      /><rect x="134" y="159" width="5" style="fill:white; stroke:none;" height="10"
      /><path style="stroke:none;" d="M135.8906 167.6875 C135.4844 167.6875 135.1562 168.0469 135.1562 168.4219 C135.1562 168.8125 135.4844 169.1562 135.8906 169.1562 C136.2969 169.1562 136.6406 168.8125 136.6406 168.4219 C136.6406 168.0469 136.2969 167.6875 135.8906 167.6875 ZM137.4688 161.5781 C137.7188 161.8906 137.875 162.2656 137.8906 162.6562 C137.8906 163.1875 137.625 163.5 137.0312 163.7656 L136.4062 164.0156 C135.6406 164.3125 135.3906 164.5469 135.3906 164.9375 C135.3906 165.1094 135.4531 165.3438 135.5781 165.8125 L135.7344 166.3438 L136.1094 166.3438 L136.0938 165.5312 C136.0938 165.0938 136.2031 164.9688 136.7812 164.7344 L137.2031 164.5625 C138.0312 164.2188 138.4531 163.6875 138.4531 162.8438 C138.4531 161.1562 136.6562 160.1875 135.5 160.0312 C135.1094 160.125 134.9062 160.2969 134.9062 160.6406 C134.9062 160.9375 135.0625 161.1562 135.7188 161.2656 L137.4688 161.5781 Z"
      /><polygon style="fill:none;" points=" 145 93 93 93"
      /><polygon style="fill:none;" points=" 145 93 145 41"
      /><rect x="134" y="82" width="22" style="clip-path:url(#clipPath18); fill:white; stroke:none;" height="22"
      /><rect x="134" y="82" width="22" style="clip-path:url(#clipPath18); fill:rgb(0,144,188); stroke:none;" height="22"
      /><rect x="134" y="82" width="22" style="fill:none; clip-path:url(#clipPath18);" height="22"
      /><rect x="134" width="22" height="22" y="82" style="fill:none;"
      /><polygon style="fill:none;" points=" 93 93 41 93"
      /><circle style="fill:white; clip-path:url(#clipPath19); stroke:none;" r="11" cx="93" cy="93"
      /><rect x="82" y="82" width="22" style="clip-path:url(#clipPath19); fill:rgb(255,212,0); stroke:none;" height="22"
      /><rect x="82" y="82" width="22" style="fill:none; clip-path:url(#clipPath19);" height="22"
      /><circle r="11" style="fill:none;" cx="93" cy="93"
      /><polygon style="fill:white; clip-path:url(#clipPath20); stroke:none;" points=" 41 82 52 93 41 104 30 93"
      /><rect x="30" y="82" width="22" style="clip-path:url(#clipPath20); fill:rgb(165,67,153); stroke:none;" height="22"
      /><rect x="30" y="82" width="22" style="fill:none; clip-path:url(#clipPath20);" height="22"
      /><polygon style="fill:none;" points=" 41 82 52 93 41 104 30 93"
      /><rect x="71" y="96" width="5" style="fill:white; stroke:none;" height="10"
      /><path style="stroke:none;" d="M72.8906 104.6875 C72.4844 104.6875 72.1562 105.0469 72.1562 105.4219 C72.1562 105.8125 72.4844 106.1562 72.8906 106.1562 C73.2969 106.1562 73.6406 105.8125 73.6406 105.4219 C73.6406 105.0469 73.2969 104.6875 72.8906 104.6875 ZM74.4688 98.5781 C74.7188 98.8906 74.875 99.2656 74.8906 99.6562 C74.8906 100.1875 74.625 100.5 74.0312 100.7656 L73.4062 101.0156 C72.6406 101.3125 72.3906 101.5469 72.3906 101.9375 C72.3906 102.1094 72.4531 102.3438 72.5781 102.8125 L72.7344 103.3438 L73.1094 103.3438 L73.0938 102.5312 C73.0938 102.0938 73.2031 101.9688 73.7812 101.7344 L74.2031 101.5625 C75.0312 101.2188 75.4531 100.6875 75.4531 99.8438 C75.4531 98.1562 73.6562 97.1875 72.5 97.0312 C72.1094 97.125 71.9062 97.2969 71.9062 97.6406 C71.9062 97.9375 72.0625 98.1562 72.7188 98.2656 L74.4688 98.5781 Z"
      /><rect x="57" y="96" width="5" style="fill:white; stroke:none;" height="10"
      /><path style="stroke:none;" d="M58.8906 104.6875 C58.4844 104.6875 58.1562 105.0469 58.1562 105.4219 C58.1562 105.8125 58.4844 106.1562 58.8906 106.1562 C59.2969 106.1562 59.6406 105.8125 59.6406 105.4219 C59.6406 105.0469 59.2969 104.6875 58.8906 104.6875 ZM60.4688 98.5781 C60.7188 98.8906 60.875 99.2656 60.8906 99.6562 C60.8906 100.1875 60.625 100.5 60.0312 100.7656 L59.4062 101.0156 C58.6406 101.3125 58.3906 101.5469 58.3906 101.9375 C58.3906 102.1094 58.4531 102.3438 58.5781 102.8125 L58.7344 103.3438 L59.1094 103.3438 L59.0938 102.5312 C59.0938 102.0938 59.2031 101.9688 59.7812 101.7344 L60.2031 101.5625 C61.0312 101.2188 61.4531 100.6875 61.4531 99.8438 C61.4531 98.1562 59.6562 97.1875 58.5 97.0312 C58.1094 97.125 57.9062 97.2969 57.9062 97.6406 C57.9062 97.9375 58.0625 98.1562 58.7188 98.2656 L60.4688 98.5781 Z"
      /><polygon style="fill:white; clip-path:url(#clipPath21); stroke:none;" points=" 145 52 134 30 156 30"
      /><rect x="134" y="30" width="22" style="clip-path:url(#clipPath21); fill:rgb(237,28,36); stroke:none;" height="22"
      /><rect x="134" y="30" width="22" style="fill:none; clip-path:url(#clipPath21);" height="22"
      /><polygon style="fill:none;" points=" 145 52 134 30 156 30"
      /><rect x="123" y="96" width="5" style="fill:white; stroke:none;" height="10"
      /><path style="stroke:none;" d="M124.8906 104.6875 C124.4844 104.6875 124.1562 105.0469 124.1562 105.4219 C124.1562 105.8125 124.4844 106.1562 124.8906 106.1562 C125.2969 106.1562 125.6406 105.8125 125.6406 105.4219 C125.6406 105.0469 125.2969 104.6875 124.8906 104.6875 ZM126.4688 98.5781 C126.7188 98.8906 126.875 99.2656 126.8906 99.6562 C126.8906 100.1875 126.625 100.5 126.0312 100.7656 L125.4062 101.0156 C124.6406 101.3125 124.3906 101.5469 124.3906 101.9375 C124.3906 102.1094 124.4531 102.3438 124.5781 102.8125 L124.7344 103.3438 L125.1094 103.3438 L125.0938 102.5312 C125.0938 102.0938 125.2031 101.9688 125.7812 101.7344 L126.2031 101.5625 C127.0312 101.2188 127.4531 100.6875 127.4531 99.8438 C127.4531 98.1562 125.6562 97.1875 124.5 97.0312 C124.1094 97.125 123.9062 97.2969 123.9062 97.6406 C123.9062 97.9375 124.0625 98.1562 124.7188 98.2656 L126.4688 98.5781 Z"
      /><rect x="109" y="96" width="5" style="fill:white; stroke:none;" height="10"
      /><path style="stroke:none;" d="M110.8906 104.6875 C110.4844 104.6875 110.1562 105.0469 110.1562 105.4219 C110.1562 105.8125 110.4844 106.1562 110.8906 106.1562 C111.2969 106.1562 111.6406 105.8125 111.6406 105.4219 C111.6406 105.0469 111.2969 104.6875 110.8906 104.6875 ZM112.4688 98.5781 C112.7188 98.8906 112.875 99.2656 112.8906 99.6562 C112.8906 100.1875 112.625 100.5 112.0312 100.7656 L111.4062 101.0156 C110.6406 101.3125 110.3906 101.5469 110.3906 101.9375 C110.3906 102.1094 110.4531 102.3438 110.5781 102.8125 L110.7344 103.3438 L111.1094 103.3438 L111.0938 102.5312 C111.0938 102.0938 111.2031 101.9688 111.7812 101.7344 L112.2031 101.5625 C113.0312 101.2188 113.4531 100.6875 113.4531 99.8438 C113.4531 98.1562 111.6562 97.1875 110.5 97.0312 C110.1094 97.125 109.9062 97.2969 109.9062 97.6406 C109.9062 97.9375 110.0625 98.1562 110.7188 98.2656 L112.4688 98.5781 Z"
      /><rect x="134" y="69" width="5" style="fill:white; stroke:none;" height="10"
      /><path style="stroke:none;" d="M135.8906 77.6875 C135.4844 77.6875 135.1562 78.0469 135.1562 78.4219 C135.1562 78.8125 135.4844 79.1562 135.8906 79.1562 C136.2969 79.1562 136.6406 78.8125 136.6406 78.4219 C136.6406 78.0469 136.2969 77.6875 135.8906 77.6875 ZM137.4688 71.5781 C137.7188 71.8906 137.875 72.2656 137.8906 72.6562 C137.8906 73.1875 137.625 73.5 137.0312 73.7656 L136.4062 74.0156 C135.6406 74.3125 135.3906 74.5469 135.3906 74.9375 C135.3906 75.1094 135.4531 75.3438 135.5781 75.8125 L135.7344 76.3438 L136.1094 76.3438 L136.0938 75.5312 C136.0938 75.0938 136.2031 74.9688 136.7812 74.7344 L137.2031 74.5625 C138.0312 74.2188 138.4531 73.6875 138.4531 72.8438 C138.4531 71.1562 136.6562 70.1875 135.5 70.0312 C135.1094 70.125 134.9062 70.2969 134.9062 70.6406 C134.9062 70.9375 135.0625 71.1562 135.7188 71.2656 L137.4688 71.5781 Z"
      /><rect x="134" y="55" width="5" style="fill:white; stroke:none;" height="10"
      /><path style="stroke:none;" d="M135.8906 63.6875 C135.4844 63.6875 135.1562 64.0469 135.1562 64.4219 C135.1562 64.8125 135.4844 65.1562 135.8906 65.1562 C136.2969 65.1562 136.6406 64.8125 136.6406 64.4219 C136.6406 64.0469 136.2969 63.6875 135.8906 63.6875 ZM137.4688 57.5781 C137.7188 57.8906 137.875 58.2656 137.8906 58.6562 C137.8906 59.1875 137.625 59.5 137.0312 59.7656 L136.4062 60.0156 C135.6406 60.3125 135.3906 60.5469 135.3906 60.9375 C135.3906 61.1094 135.4531 61.3438 135.5781 61.8125 L135.7344 62.3438 L136.1094 62.3438 L136.0938 61.5312 C136.0938 61.0938 136.2031 60.9688 136.7812 60.7344 L137.2031 60.5625 C138.0312 60.2188 138.4531 59.6875 138.4531 58.8438 C138.4531 57.1562 136.6562 56.1875 135.5 56.0312 C135.1094 56.125 134.9062 56.2969 134.9062 56.6406 C134.9062 56.9375 135.0625 57.1562 135.7188 57.2656 L137.4688 57.5781 Z"
      /><rect x="183" y="162" width="5" style="fill:white; stroke:none;" height="10"
      /><path style="stroke:none;" d="M184.8906 170.6875 C184.4844 170.6875 184.1562 171.0469 184.1562 171.4219 C184.1562 171.8125 184.4844 172.1562 184.8906 172.1562 C185.2969 172.1562 185.6406 171.8125 185.6406 171.4219 C185.6406 171.0469 185.2969 170.6875 184.8906 170.6875 ZM186.4688 164.5781 C186.7188 164.8906 186.875 165.2656 186.8906 165.6562 C186.8906 166.1875 186.625 166.5 186.0312 166.7656 L185.4062 167.0156 C184.6406 167.3125 184.3906 167.5469 184.3906 167.9375 C184.3906 168.1094 184.4531 168.3438 184.5781 168.8125 L184.7344 169.3438 L185.1094 169.3438 L185.0938 168.5312 C185.0938 168.0938 185.2031 167.9688 185.7812 167.7344 L186.2031 167.5625 C187.0312 167.2188 187.4531 166.6875 187.4531 165.8438 C187.4531 164.1562 185.6562 163.1875 184.5 163.0312 C184.1094 163.125 183.9062 163.2969 183.9062 163.6406 C183.9062 163.9375 184.0625 164.1562 184.7188 164.2656 L186.4688 164.5781 Z"
      /><rect x="164" y="181" width="5" style="fill:white; stroke:none;" height="10"
      /><path style="stroke:none;" d="M165.8906 189.6875 C165.4844 189.6875 165.1562 190.0469 165.1562 190.4219 C165.1562 190.8125 165.4844 191.1562 165.8906 191.1562 C166.2969 191.1562 166.6406 190.8125 166.6406 190.4219 C166.6406 190.0469 166.2969 189.6875 165.8906 189.6875 ZM167.4688 183.5781 C167.7188 183.8906 167.875 184.2656 167.8906 184.6562 C167.8906 185.1875 167.625 185.5 167.0312 185.7656 L166.4062 186.0156 C165.6406 186.3125 165.3906 186.5469 165.3906 186.9375 C165.3906 187.1094 165.4531 187.3438 165.5781 187.8125 L165.7344 188.3438 L166.1094 188.3438 L166.0938 187.5312 C166.0938 187.0938 166.2031 186.9688 166.7812 186.7344 L167.2031 186.5625 C168.0312 186.2188 168.4531 185.6875 168.4531 184.8438 C168.4531 183.1562 166.6562 182.1875 165.5 182.0312 C165.1094 182.125 164.9062 182.2969 164.9062 182.6406 C164.9062 182.9375 165.0625 183.1562 165.7188 183.2656 L167.4688 183.5781 Z"
      /><rect x="172" y="129" width="5" style="fill:white; stroke:none;" height="10"
      /><path style="stroke:none;" d="M173.8906 137.6875 C173.4844 137.6875 173.1562 138.0469 173.1562 138.4219 C173.1562 138.8125 173.4844 139.1562 173.8906 139.1562 C174.2969 139.1562 174.6406 138.8125 174.6406 138.4219 C174.6406 138.0469 174.2969 137.6875 173.8906 137.6875 ZM175.4688 131.5781 C175.7188 131.8906 175.875 132.2656 175.8906 132.6562 C175.8906 133.1875 175.625 133.5 175.0312 133.7656 L174.4062 134.0156 C173.6406 134.3125 173.3906 134.5469 173.3906 134.9375 C173.3906 135.1094 173.4531 135.3438 173.5781 135.8125 L173.7344 136.3438 L174.1094 136.3438 L174.0938 135.5312 C174.0938 135.0938 174.2031 134.9688 174.7812 134.7344 L175.2031 134.5625 C176.0312 134.2188 176.4531 133.6875 176.4531 132.8438 C176.4531 131.1562 174.6562 130.1875 173.5 130.0312 C173.1094 130.125 172.9062 130.2969 172.9062 130.6406 C172.9062 130.9375 173.0625 131.1562 173.7188 131.2656 L175.4688 131.5781 Z"
      /><rect x="153" y="110" width="5" style="fill:white; stroke:none;" height="10"
      /><path style="stroke:none;" d="M154.8906 118.6875 C154.4844 118.6875 154.1562 119.0469 154.1562 119.4219 C154.1562 119.8125 154.4844 120.1562 154.8906 120.1562 C155.2969 120.1562 155.6406 119.8125 155.6406 119.4219 C155.6406 119.0469 155.2969 118.6875 154.8906 118.6875 ZM156.4688 112.5781 C156.7188 112.8906 156.875 113.2656 156.8906 113.6562 C156.8906 114.1875 156.625 114.5 156.0312 114.7656 L155.4062 115.0156 C154.6406 115.3125 154.3906 115.5469 154.3906 115.9375 C154.3906 116.1094 154.4531 116.3438 154.5781 116.8125 L154.7344 117.3438 L155.1094 117.3438 L155.0938 116.5312 C155.0938 116.0938 155.2031 115.9688 155.7812 115.7344 L156.2031 115.5625 C157.0312 115.2188 157.4531 114.6875 157.4531 113.8438 C157.4531 112.1562 155.6562 111.1875 154.5 111.0312 C154.1094 111.125 153.9062 111.2969 153.9062 111.6406 C153.9062 111.9375 154.0625 112.1562 154.7188 112.2656 L156.4688 112.5781 Z"
      /><rect x="186" y="82" width="22" style="clip-path:url(#clipPath22); fill:white; stroke:none;" height="22"
      /><rect x="186" y="82" width="22" style="clip-path:url(#clipPath22); fill:rgb(0,144,188); stroke:none;" height="22"
      /><rect x="186" y="82" width="22" style="fill:none; clip-path:url(#clipPath22);" height="22"
      /><rect x="186" width="22" height="22" y="82" style="fill:none;"
      /><rect x="249" y="160" width="5" style="fill:white; stroke:none;" height="10"
      /><path style="stroke:none;" d="M250.8906 168.6875 C250.4844 168.6875 250.1562 169.0469 250.1562 169.4219 C250.1562 169.8125 250.4844 170.1562 250.8906 170.1562 C251.2969 170.1562 251.6406 169.8125 251.6406 169.4219 C251.6406 169.0469 251.2969 168.6875 250.8906 168.6875 ZM252.4688 162.5781 C252.7188 162.8906 252.875 163.2656 252.8906 163.6562 C252.8906 164.1875 252.625 164.5 252.0312 164.7656 L251.4062 165.0156 C250.6406 165.3125 250.3906 165.5469 250.3906 165.9375 C250.3906 166.1094 250.4531 166.3438 250.5781 166.8125 L250.7344 167.3438 L251.1094 167.3438 L251.0938 166.5312 C251.0938 166.0938 251.2031 165.9688 251.7812 165.7344 L252.2031 165.5625 C253.0312 165.2188 253.4531 164.6875 253.4531 163.8438 C253.4531 162.1562 251.6562 161.1875 250.5 161.0312 C250.1094 161.125 249.9062 161.2969 249.9062 161.6406 C249.9062 161.9375 250.0625 162.1562 250.7188 162.2656 L252.4688 162.5781 Z"
      /><rect x="206" y="331" width="5" style="fill:white; stroke:none;" height="10"
      /><path style="stroke:none;" d="M207.8906 339.6875 C207.4844 339.6875 207.1562 340.0469 207.1562 340.4219 C207.1562 340.8125 207.4844 341.1562 207.8906 341.1562 C208.2969 341.1562 208.6406 340.8125 208.6406 340.4219 C208.6406 340.0469 208.2969 339.6875 207.8906 339.6875 ZM209.4688 333.5781 C209.7188 333.8906 209.875 334.2656 209.8906 334.6562 C209.8906 335.1875 209.625 335.5 209.0312 335.7656 L208.4062 336.0156 C207.6406 336.3125 207.3906 336.5469 207.3906 336.9375 C207.3906 337.1094 207.4531 337.3438 207.5781 337.8125 L207.7344 338.3438 L208.1094 338.3438 L208.0938 337.5312 C208.0938 337.0938 208.2031 336.9688 208.7812 336.7344 L209.2031 336.5625 C210.0312 336.2188 210.4531 335.6875 210.4531 334.8438 C210.4531 333.1562 208.6562 332.1875 207.5 332.0312 C207.1094 332.125 206.9062 332.2969 206.9062 332.6406 C206.9062 332.9375 207.0625 333.1562 207.7188 333.2656 L209.4688 333.5781 Z"
      /><rect x="227" y="148" width="5" style="fill:white; stroke:none;" height="10"
      /><path style="stroke:none;" d="M228.8906 156.6875 C228.4844 156.6875 228.1562 157.0469 228.1562 157.4219 C228.1562 157.8125 228.4844 158.1562 228.8906 158.1562 C229.2969 158.1562 229.6406 157.8125 229.6406 157.4219 C229.6406 157.0469 229.2969 156.6875 228.8906 156.6875 ZM230.4688 150.5781 C230.7188 150.8906 230.875 151.2656 230.8906 151.6562 C230.8906 152.1875 230.625 152.5 230.0312 152.7656 L229.4062 153.0156 C228.6406 153.3125 228.3906 153.5469 228.3906 153.9375 C228.3906 154.1094 228.4531 154.3438 228.5781 154.8125 L228.7344 155.3438 L229.1094 155.3438 L229.0938 154.5312 C229.0938 154.0938 229.2031 153.9688 229.7812 153.7344 L230.2031 153.5625 C231.0312 153.2188 231.4531 152.6875 231.4531 151.8438 C231.4531 150.1562 229.6562 149.1875 228.5 149.0312 C228.1094 149.125 227.9062 149.2969 227.9062 149.6406 C227.9062 149.9375 228.0625 150.1562 228.7188 150.2656 L230.4688 150.5781 Z"
      /><rect x="213" y="148" width="5" style="fill:white; stroke:none;" height="10"
      /><path style="stroke:none;" d="M214.8906 156.6875 C214.4844 156.6875 214.1562 157.0469 214.1562 157.4219 C214.1562 157.8125 214.4844 158.1562 214.8906 158.1562 C215.2969 158.1562 215.6406 157.8125 215.6406 157.4219 C215.6406 157.0469 215.2969 156.6875 214.8906 156.6875 ZM216.4688 150.5781 C216.7188 150.8906 216.875 151.2656 216.8906 151.6562 C216.8906 152.1875 216.625 152.5 216.0312 152.7656 L215.4062 153.0156 C214.6406 153.3125 214.3906 153.5469 214.3906 153.9375 C214.3906 154.1094 214.4531 154.3438 214.5781 154.8125 L214.7344 155.3438 L215.1094 155.3438 L215.0938 154.5312 C215.0938 154.0938 215.2031 153.9688 215.7812 153.7344 L216.2031 153.5625 C217.0312 153.2188 217.4531 152.6875 217.4531 151.8438 C217.4531 150.1562 215.6562 149.1875 214.5 149.0312 C214.1094 149.125 213.9062 149.2969 213.9062 149.6406 C213.9062 149.9375 214.0625 150.1562 214.7188 150.2656 L216.4688 150.5781 Z"
      /><rect x="224" y="129" width="5" style="fill:white; stroke:none;" height="10"
      /><path style="stroke:none;" d="M225.8906 137.6875 C225.4844 137.6875 225.1562 138.0469 225.1562 138.4219 C225.1562 138.8125 225.4844 139.1562 225.8906 139.1562 C226.2969 139.1562 226.6406 138.8125 226.6406 138.4219 C226.6406 138.0469 226.2969 137.6875 225.8906 137.6875 ZM227.4688 131.5781 C227.7188 131.8906 227.875 132.2656 227.8906 132.6562 C227.8906 133.1875 227.625 133.5 227.0312 133.7656 L226.4062 134.0156 C225.6406 134.3125 225.3906 134.5469 225.3906 134.9375 C225.3906 135.1094 225.4531 135.3438 225.5781 135.8125 L225.7344 136.3438 L226.1094 136.3438 L226.0938 135.5312 C226.0938 135.0938 226.2031 134.9688 226.7812 134.7344 L227.2031 134.5625 C228.0312 134.2188 228.4531 133.6875 228.4531 132.8438 C228.4531 131.1562 226.6562 130.1875 225.5 130.0312 C225.1094 130.125 224.9062 130.2969 224.9062 130.6406 C224.9062 130.9375 225.0625 131.1562 225.7188 131.2656 L227.4688 131.5781 Z"
      /><rect x="205" y="110" width="5" style="fill:white; stroke:none;" height="10"
      /><path style="stroke:none;" d="M206.8906 118.6875 C206.4844 118.6875 206.1562 119.0469 206.1562 119.4219 C206.1562 119.8125 206.4844 120.1562 206.8906 120.1562 C207.2969 120.1562 207.6406 119.8125 207.6406 119.4219 C207.6406 119.0469 207.2969 118.6875 206.8906 118.6875 ZM208.4688 112.5781 C208.7188 112.8906 208.875 113.2656 208.8906 113.6562 C208.8906 114.1875 208.625 114.5 208.0312 114.7656 L207.4062 115.0156 C206.6406 115.3125 206.3906 115.5469 206.3906 115.9375 C206.3906 116.1094 206.4531 116.3438 206.5781 116.8125 L206.7344 117.3438 L207.1094 117.3438 L207.0938 116.5312 C207.0938 116.0938 207.2031 115.9688 207.7812 115.7344 L208.2031 115.5625 C209.0312 115.2188 209.4531 114.6875 209.4531 113.8438 C209.4531 112.1562 207.6562 111.1875 206.5 111.0312 C206.1094 111.125 205.9062 111.2969 205.9062 111.6406 C205.9062 111.9375 206.0625 112.1562 206.7188 112.2656 L208.4688 112.5781 Z"
      /><rect x="279" y="148" width="5" style="fill:white; stroke:none;" height="10"
      /><path style="stroke:none;" d="M280.8906 156.6875 C280.4844 156.6875 280.1562 157.0469 280.1562 157.4219 C280.1562 157.8125 280.4844 158.1562 280.8906 158.1562 C281.2969 158.1562 281.6406 157.8125 281.6406 157.4219 C281.6406 157.0469 281.2969 156.6875 280.8906 156.6875 ZM282.4688 150.5781 C282.7188 150.8906 282.875 151.2656 282.8906 151.6562 C282.8906 152.1875 282.625 152.5 282.0312 152.7656 L281.4062 153.0156 C280.6406 153.3125 280.3906 153.5469 280.3906 153.9375 C280.3906 154.1094 280.4531 154.3438 280.5781 154.8125 L280.7344 155.3438 L281.1094 155.3438 L281.0938 154.5312 C281.0938 154.0938 281.2031 153.9688 281.7812 153.7344 L282.2031 153.5625 C283.0312 153.2188 283.4531 152.6875 283.4531 151.8438 C283.4531 150.1562 281.6562 149.1875 280.5 149.0312 C280.1094 149.125 279.9062 149.2969 279.9062 149.6406 C279.9062 149.9375 280.0625 150.1562 280.7188 150.2656 L282.4688 150.5781 Z"
      /><rect x="265" y="148" width="5" style="fill:white; stroke:none;" height="10"
      /><path style="stroke:none;" d="M266.8906 156.6875 C266.4844 156.6875 266.1562 157.0469 266.1562 157.4219 C266.1562 157.8125 266.4844 158.1562 266.8906 158.1562 C267.2969 158.1562 267.6406 157.8125 267.6406 157.4219 C267.6406 157.0469 267.2969 156.6875 266.8906 156.6875 ZM268.4688 150.5781 C268.7188 150.8906 268.875 151.2656 268.8906 151.6562 C268.8906 152.1875 268.625 152.5 268.0312 152.7656 L267.4062 153.0156 C266.6406 153.3125 266.3906 153.5469 266.3906 153.9375 C266.3906 154.1094 266.4531 154.3438 266.5781 154.8125 L266.7344 155.3438 L267.1094 155.3438 L267.0938 154.5312 C267.0938 154.0938 267.2031 153.9688 267.7812 153.7344 L268.2031 153.5625 C269.0312 153.2188 269.4531 152.6875 269.4531 151.8438 C269.4531 150.1562 267.6562 149.1875 266.5 149.0312 C266.1094 149.125 265.9062 149.2969 265.9062 149.6406 C265.9062 149.9375 266.0625 150.1562 266.7188 150.2656 L268.4688 150.5781 Z"
      /><polygon style="fill:white; clip-path:url(#clipPath23); stroke:none;" points=" 353 104 342 82 364 82"
      /><rect x="342" y="82" width="22" style="clip-path:url(#clipPath23); fill:rgb(237,28,36); stroke:none;" height="22"
      /><rect x="342" y="82" width="22" style="fill:none; clip-path:url(#clipPath23);" height="22"
      /><polygon style="fill:none;" points=" 353 104 342 82 364 82"
      /><rect x="331" y="148" width="5" style="fill:white; stroke:none;" height="10"
      /><path style="stroke:none;" d="M332.8906 156.6875 C332.4844 156.6875 332.1562 157.0469 332.1562 157.4219 C332.1562 157.8125 332.4844 158.1562 332.8906 158.1562 C333.2969 158.1562 333.6406 157.8125 333.6406 157.4219 C333.6406 157.0469 333.2969 156.6875 332.8906 156.6875 ZM334.4688 150.5781 C334.7188 150.8906 334.875 151.2656 334.8906 151.6562 C334.8906 152.1875 334.625 152.5 334.0312 152.7656 L333.4062 153.0156 C332.6406 153.3125 332.3906 153.5469 332.3906 153.9375 C332.3906 154.1094 332.4531 154.3438 332.5781 154.8125 L332.7344 155.3438 L333.1094 155.3438 L333.0938 154.5312 C333.0938 154.0938 333.2031 153.9688 333.7812 153.7344 L334.2031 153.5625 C335.0312 153.2188 335.4531 152.6875 335.4531 151.8438 C335.4531 150.1562 333.6562 149.1875 332.5 149.0312 C332.1094 149.125 331.9062 149.2969 331.9062 149.6406 C331.9062 149.9375 332.0625 150.1562 332.7188 150.2656 L334.4688 150.5781 Z"
      /><rect x="317" y="148" width="5" style="fill:white; stroke:none;" height="10"
      /><path style="stroke:none;" d="M318.8906 156.6875 C318.4844 156.6875 318.1562 157.0469 318.1562 157.4219 C318.1562 157.8125 318.4844 158.1562 318.8906 158.1562 C319.2969 158.1562 319.6406 157.8125 319.6406 157.4219 C319.6406 157.0469 319.2969 156.6875 318.8906 156.6875 ZM320.4688 150.5781 C320.7188 150.8906 320.875 151.2656 320.8906 151.6562 C320.8906 152.1875 320.625 152.5 320.0312 152.7656 L319.4062 153.0156 C318.6406 153.3125 318.3906 153.5469 318.3906 153.9375 C318.3906 154.1094 318.4531 154.3438 318.5781 154.8125 L318.7344 155.3438 L319.1094 155.3438 L319.0938 154.5312 C319.0938 154.0938 319.2031 153.9688 319.7812 153.7344 L320.2031 153.5625 C321.0312 153.2188 321.4531 152.6875 321.4531 151.8438 C321.4531 150.1562 319.6562 149.1875 318.5 149.0312 C318.1094 149.125 317.9062 149.2969 317.9062 149.6406 C317.9062 149.9375 318.0625 150.1562 318.7188 150.2656 L320.4688 150.5781 Z"
      /><rect x="342" y="121" width="5" style="fill:white; stroke:none;" height="10"
      /><path style="stroke:none;" d="M343.8906 129.6875 C343.4844 129.6875 343.1562 130.0469 343.1562 130.4219 C343.1562 130.8125 343.4844 131.1562 343.8906 131.1562 C344.2969 131.1562 344.6406 130.8125 344.6406 130.4219 C344.6406 130.0469 344.2969 129.6875 343.8906 129.6875 ZM345.4688 123.5781 C345.7188 123.8906 345.875 124.2656 345.8906 124.6562 C345.8906 125.1875 345.625 125.5 345.0312 125.7656 L344.4062 126.0156 C343.6406 126.3125 343.3906 126.5469 343.3906 126.9375 C343.3906 127.1094 343.4531 127.3438 343.5781 127.8125 L343.7344 128.3438 L344.1094 128.3438 L344.0938 127.5312 C344.0938 127.0938 344.2031 126.9688 344.7812 126.7344 L345.2031 126.5625 C346.0312 126.2188 346.4531 125.6875 346.4531 124.8438 C346.4531 123.1562 344.6562 122.1875 343.5 122.0312 C343.1094 122.125 342.9062 122.2969 342.9062 122.6406 C342.9062 122.9375 343.0625 123.1562 343.7188 123.2656 L345.4688 123.5781 Z"
      /><rect x="342" y="107" width="5" style="fill:white; stroke:none;" height="10"
      /><path style="stroke:none;" d="M343.8906 115.6875 C343.4844 115.6875 343.1562 116.0469 343.1562 116.4219 C343.1562 116.8125 343.4844 117.1562 343.8906 117.1562 C344.2969 117.1562 344.6406 116.8125 344.6406 116.4219 C344.6406 116.0469 344.2969 115.6875 343.8906 115.6875 ZM345.4688 109.5781 C345.7188 109.8906 345.875 110.2656 345.8906 110.6562 C345.8906 111.1875 345.625 111.5 345.0312 111.7656 L344.4062 112.0156 C343.6406 112.3125 343.3906 112.5469 343.3906 112.9375 C343.3906 113.1094 343.4531 113.3438 343.5781 113.8125 L343.7344 114.3438 L344.1094 114.3438 L344.0938 113.5312 C344.0938 113.0938 344.2031 112.9688 344.7812 112.7344 L345.2031 112.5625 C346.0312 112.2188 346.4531 111.6875 346.4531 110.8438 C346.4531 109.1562 344.6562 108.1875 343.5 108.0312 C343.1094 108.125 342.9062 108.2969 342.9062 108.6406 C342.9062 108.9375 343.0625 109.1562 343.7188 109.2656 L345.4688 109.5781 Z"
      /><rect x="369" y="148" width="5" style="fill:white; stroke:none;" height="10"
      /><path style="stroke:none;" d="M370.8906 156.6875 C370.4844 156.6875 370.1562 157.0469 370.1562 157.4219 C370.1562 157.8125 370.4844 158.1562 370.8906 158.1562 C371.2969 158.1562 371.6406 157.8125 371.6406 157.4219 C371.6406 157.0469 371.2969 156.6875 370.8906 156.6875 ZM372.4688 150.5781 C372.7188 150.8906 372.875 151.2656 372.8906 151.6562 C372.8906 152.1875 372.625 152.5 372.0312 152.7656 L371.4062 153.0156 C370.6406 153.3125 370.3906 153.5469 370.3906 153.9375 C370.3906 154.1094 370.4531 154.3438 370.5781 154.8125 L370.7344 155.3438 L371.1094 155.3438 L371.0938 154.5312 C371.0938 154.0938 371.2031 153.9688 371.7812 153.7344 L372.2031 153.5625 C373.0312 153.2188 373.4531 152.6875 373.4531 151.8438 C373.4531 150.1562 371.6562 149.1875 370.5 149.0312 C370.1094 149.125 369.9062 149.2969 369.9062 149.6406 C369.9062 149.9375 370.0625 150.1562 370.7188 150.2656 L372.4688 150.5781 Z"
    /></g
  ></g
></svg
>
