<?xml version="1.0"?>
<!DOCTYPE svg PUBLIC '-//W3C//DTD SVG 1.0//EN'
          'http://www.w3.org/TR/2001/REC-SVG-20010904/DTD/svg10.dtd'>
<svg xmlns:xlink="http://www.w3.org/1999/xlink" style="fill-opacity:1; color-rendering:auto; color-interpolation:auto; text-rendering:auto; stroke:black; stroke-linecap:square; stroke-miterlimit:10; shape-rendering:auto; stroke-opacity:1; fill:black; stroke-dasharray:none; font-weight:normal; stroke-width:1; font-family:'Dialog'; font-style:normal; stroke-linejoin:miter; font-size:12px; stroke-dashoffset:0; image-rendering:auto;" viewBox="0 0 458 134" xmlns="http://www.w3.org/2000/svg"
><!--Generated by the Batik Graphics2D SVG Generator--><defs id="genericDefs"
  /><g
  ><defs id="defs1"
    ><clipPath clipPathUnits="userSpaceOnUse" id="clipPath1"
      ><path d="M354 79 L376 79 L376 101 L354 101 L354 79 Z"
      /></clipPath
      ><clipPath clipPathUnits="userSpaceOnUse" id="clipPath2"
      ><path d="M302 79 L324 79 L324 101 L302 101 L302 79 Z"
      /></clipPath
      ><clipPath clipPathUnits="userSpaceOnUse" id="clipPath3"
      ><path style="fill-rule:evenodd;" d="M266 90 L260 97 L249 97 L244 90 L249 82 L260 82 L266 90 Z"
      /></clipPath
      ><clipPath clipPathUnits="userSpaceOnUse" id="clipPath4"
      ><path style="fill-rule:evenodd;" d="M52 90 L46 97 L35 97 L30 90 L35 82 L46 82 L52 90 Z"
      /></clipPath
      ><clipPath clipPathUnits="userSpaceOnUse" id="clipPath5"
      ><path d="M186 56 L208 56 L208 78 L186 78 L186 56 Z"
      /></clipPath
      ><clipPath clipPathUnits="userSpaceOnUse" id="clipPath6"
      ><path d="M156 93 C156 99.0751 151.0751 104 145 104 C138.9249 104 134 99.0751 134 93 C134 86.9249 138.9249 82 145 82 C151.0751 82 156 86.9249 156 93 Z"
      /></clipPath
      ><clipPath clipPathUnits="userSpaceOnUse" id="clipPath7"
      ><path d="M104 93 C104 99.0751 99.0751 104 93 104 C86.9249 104 82 99.0751 82 93 C82 86.9249 86.9249 82 93 82 C99.0751 82 104 86.9249 104 93 Z"
      /></clipPath
      ><clipPath clipPathUnits="userSpaceOnUse" id="clipPath8"
      ><path d="M156 41 C156 47.0751 151.0751 52 145 52 C138.9249 52 134 47.0751 134 41 C134 34.9249 138.9249 30 145 30 C151.0751 30 156 34.9249 156 41 Z"
      /></clipPath
      ><clipPath clipPathUnits="userSpaceOnUse" id="clipPath9"
      ><path style="fill-rule:evenodd;" d="M93 30 L104 52 L82 52 Z"
      /></clipPath
    ></defs
    ><g style="fill:white; text-rendering:optimizeSpeed; stroke:white;"
    ><rect x="0" width="458" height="134" y="0" style="stroke:none;"
      /><polygon style="fill:none; stroke:black;" points=" 417 90 365 90"
      /><path d="M417 79 C411.5 84.5 422.5 95.5 417 101" style="fill:none; stroke:black;"
      /><polygon style="fill:none; stroke:black;" points=" 365 90 313 90"
      /><rect x="354" y="79" width="22" style="clip-path:url(#clipPath1); stroke:none;" height="22"
      /><rect x="354" y="79" width="22" style="clip-path:url(#clipPath1); fill:rgb(0,144,188); stroke:none;" height="22"
      /><rect x="354" y="79" width="22" style="clip-path:url(#clipPath1); fill:none; stroke:black;" height="22"
      /><rect x="354" y="79" width="22" style="fill:none; stroke:black;" height="22"
      /><polygon style="fill:none; stroke:black;" points=" 313 90 255 90"
      /><rect x="302" y="79" width="22" style="clip-path:url(#clipPath2); stroke:none;" height="22"
      /><rect x="302" y="79" width="22" style="clip-path:url(#clipPath2); fill:rgb(0,144,188); stroke:none;" height="22"
      /><rect x="302" y="79" width="22" style="clip-path:url(#clipPath2); fill:none; stroke:black;" height="22"
      /><rect x="302" y="79" width="22" style="fill:none; stroke:black;" height="22"
      /><polygon style="fill:none; stroke:black;" points=" 255 90 41 90"
      /><polygon style="clip-path:url(#clipPath3); stroke:none;" points=" 266 90 260 97 249 97 244 90 249 82 260 82 266 90"
      /><rect x="244" y="79" width="22" style="clip-path:url(#clipPath3); fill:rgb(255,212,0); stroke:none;" height="22"
      /><rect x="244" y="79" width="22" style="clip-path:url(#clipPath3); fill:none; stroke:black;" height="22"
      /><polygon style="fill:none; stroke:black;" points=" 266 90 260 97 249 97 244 90 249 82 260 82 266 90"
      /><polygon style="clip-path:url(#clipPath4); stroke:none;" points=" 52 90 46 97 35 97 30 90 35 82 46 82 52 90"
      /><rect x="30" y="79" width="22" style="clip-path:url(#clipPath4); fill:rgb(255,212,0); stroke:none;" height="22"
      /><rect x="30" y="79" width="22" style="clip-path:url(#clipPath4); fill:none; stroke:black;" height="22"
      /><polygon style="fill:none; stroke:black;" points=" 52 90 46 97 35 97 30 90 35 82 46 82 52 90"
      /><polygon style="fill:none; stroke:black;" points=" 255 67 197 67"
    /></g
    ><g style="text-rendering:optimizeSpeed; font-size:11px; font-family:'SansSerif';"
    ><path style="stroke:none;" d="M243.875 72.1406 C245.2344 72.1406 246.5156 71.1406 246.5156 69.375 C246.5156 67.5938 245.4219 66.8125 244.0781 66.8125 C243.5938 66.8125 243.25 66.9219 242.875 67.125 L243.0781 64.7969 L246.125 64.7969 L246.125 63.9219 L242.2031 63.9219 L241.9531 67.7031 L242.4844 68.0469 C242.9531 67.7344 243.2812 67.5625 243.8281 67.5625 C244.8438 67.5625 245.5 68.25 245.5 69.4062 C245.5 70.5781 244.7344 71.3125 243.7812 71.3125 C242.8438 71.3125 242.2656 70.875 241.7969 70.4219 L241.3125 71.0781 C241.8438 71.6094 242.6094 72.1406 243.875 72.1406 ZM248.1987 72 L249.2299 72 L249.2299 68.1875 L252.9956 68.1875 L252.9956 72 L253.9956 72 L253.9956 63.9219 L252.9956 63.9219 L252.9956 67.3125 L249.2299 67.3125 L249.2299 63.9219 L248.1987 63.9219 L248.1987 72 ZM258.5348 72.1406 C259.3473 72.1406 259.9879 71.875 260.5191 71.5312 L260.1441 70.8594 C259.7066 71.1562 259.2379 71.3438 258.6598 71.3438 C257.5191 71.3438 256.7379 70.5312 256.6754 69.25 L260.7066 69.25 C260.7223 69.1094 260.7379 68.8906 260.7379 68.6719 C260.7379 66.9688 259.8941 65.875 258.3629 65.875 C256.9879 65.875 255.6754 67.0781 255.6754 69.0156 C255.6754 70.9844 256.9566 72.1406 258.5348 72.1406 ZM256.6598 68.5312 C256.7848 67.3594 257.5348 66.6719 258.3785 66.6719 C259.316 66.6719 259.8629 67.3281 259.8629 68.5312 L256.6598 68.5312 ZM262.2225 74.5156 L263.2225 74.5156 L263.2225 72.5 L263.1912 71.4531 C263.7381 71.8906 264.3162 72.1406 264.8475 72.1406 C266.2225 72.1406 267.4412 70.9688 267.4412 68.9219 C267.4412 67.0781 266.6131 65.875 265.0662 65.875 C264.3787 65.875 263.7068 66.2656 263.16 66.7031 L263.1287 66.7031 L263.0506 66.0312 L262.2225 66.0312 L262.2225 74.5156 ZM264.6756 71.3125 C264.285 71.3125 263.7537 71.1406 263.2225 70.6875 L263.2225 67.5469 C263.8006 67 264.3162 66.7188 264.8318 66.7188 C265.9568 66.7188 266.3943 67.6094 266.3943 68.9375 C266.3943 70.4219 265.6756 71.3125 264.6756 71.3125 Z"
      /><polygon style="fill:none;" points=" 197 67 145 93"
      /><polygon style="fill:none;" points=" 197 67 145 41"
    /></g
    ><g style="fill:white; text-rendering:optimizeSpeed; stroke:white;"
    ><rect x="186" y="56" width="22" style="clip-path:url(#clipPath5); stroke:none;" height="22"
      /><rect x="186" y="56" width="22" style="clip-path:url(#clipPath5); fill:rgb(255,212,0); stroke:none;" height="22"
      /><rect x="186" y="56" width="22" style="clip-path:url(#clipPath5); fill:none; stroke:black;" height="22"
      /><rect x="186" y="56" width="22" style="fill:none; stroke:black;" height="22"
      /><polygon style="fill:none; stroke:black;" points=" 145 93 93 93"
      /><circle r="11" style="clip-path:url(#clipPath6); stroke:none;" cx="145" cy="93"
      /><rect x="134" y="82" width="22" style="clip-path:url(#clipPath6); fill:rgb(0,144,188); stroke:none;" height="22"
      /><rect x="134" y="82" width="22" style="clip-path:url(#clipPath6); fill:none; stroke:black;" height="22"
      /><circle r="11" style="fill:none; stroke:black;" cx="145" cy="93"
      /><circle r="11" style="clip-path:url(#clipPath7); stroke:none;" cx="93" cy="93"
      /><rect x="82" y="82" width="22" style="clip-path:url(#clipPath7); fill:rgb(0,144,188); stroke:none;" height="22"
      /><rect x="82" y="82" width="22" style="clip-path:url(#clipPath7); fill:none; stroke:black;" height="22"
      /><circle r="11" style="fill:none; stroke:black;" cx="93" cy="93"
      /><rect x="123" width="6" height="10" y="96" style="stroke:none;"
      /><path d="M126.3438 105.6875 C125.2031 105.6875 124.5312 104.5 124.5312 102.2969 C124.5312 102.2188 124.5312 102.125 124.5312 102.0469 C125.0938 101.5 125.7188 101.3125 126.3438 101.3125 C127.3125 101.3125 127.9531 101.9844 127.9531 103.4531 C127.9531 104.9375 127.3125 105.6875 126.3438 105.6875 ZM128.5312 97.0781 C125.3438 97.4531 123.5625 99.7656 123.5625 102.4531 C123.5625 104.7812 124.6094 106.1719 126.3125 106.1719 C127.8438 106.1719 128.9219 105.1094 128.9219 103.2812 C128.9219 101.6875 127.9688 100.6562 126.5625 100.6562 C125.8281 100.6562 125.1406 100.9844 124.5781 101.5781 C124.7969 99.4062 126.0781 97.9688 128.5938 97.3906 L128.5312 97.0781 Z" style="fill:black; stroke:none;"
      /><rect x="108" width="8" height="8" y="97" style="stroke:none;"
      /><path d="M112.9844 102.7031 C112.9375 103.8906 112.1562 104.6562 111.3125 104.6562 C110.2656 104.6562 109.5 103.6875 109.5 101.7188 C109.5 100.2812 110.1562 99.1562 111.3438 99.1562 C112.1406 99.1562 112.7812 99.6875 113.0938 100.6406 L112.9844 102.7031 ZM114.9062 104.2812 C114.7344 104.375 114.5469 104.4219 114.3438 104.4219 C113.9531 104.4219 113.75 104.2188 113.75 103.4219 C113.75 102.4844 113.9688 100.5312 114.1875 98.8281 L114.0312 98.7188 L113.2344 98.9219 L113.1406 99.7969 C112.7812 99.0312 112.1562 98.6562 111.3906 98.6562 C110.0469 98.6562 108.5625 99.8438 108.5625 101.9531 C108.5625 104.0938 109.7188 105.1719 111.1406 105.1719 C112.0156 105.1719 112.6875 104.8125 113.0938 103.9844 C113.2031 104.8594 113.5156 105.1719 114.0156 105.1719 C114.4688 105.1719 114.7969 104.9062 115.0156 104.5625 L114.9062 104.2812 Z" style="fill:black; stroke:none;"
      /><polygon style="fill:none; stroke:black;" points=" 145 41 93 41"
      /><circle r="11" style="clip-path:url(#clipPath8); stroke:none;" cx="145" cy="41"
      /><rect x="134" y="30" width="22" style="clip-path:url(#clipPath8); fill:rgb(0,144,188); stroke:none;" height="22"
      /><rect x="134" y="30" width="22" style="clip-path:url(#clipPath8); fill:none; stroke:black;" height="22"
      /><circle r="11" style="fill:none; stroke:black;" cx="145" cy="41"
      /><polygon style="clip-path:url(#clipPath9); stroke:none;" points=" 93 30 104 52 82 52"
      /><rect x="82" y="30" width="22" style="clip-path:url(#clipPath9); fill:rgb(0,166,81); stroke:none;" height="22"
      /><rect x="82" y="30" width="22" style="clip-path:url(#clipPath9); fill:none; stroke:black;" height="22"
      /><polygon style="fill:none; stroke:black;" points=" 93 30 104 52 82 52"
      /><rect x="123" width="6" height="10" y="44" style="stroke:none;"
      /><path d="M126.3438 53.6875 C125.2031 53.6875 124.5312 52.5 124.5312 50.2969 C124.5312 50.2188 124.5312 50.125 124.5312 50.0469 C125.0938 49.5 125.7188 49.3125 126.3438 49.3125 C127.3125 49.3125 127.9531 49.9844 127.9531 51.4531 C127.9531 52.9375 127.3125 53.6875 126.3438 53.6875 ZM128.5312 45.0781 C125.3438 45.4531 123.5625 47.7656 123.5625 50.4531 C123.5625 52.7812 124.6094 54.1719 126.3125 54.1719 C127.8438 54.1719 128.9219 53.1094 128.9219 51.2812 C128.9219 49.6875 127.9688 48.6562 126.5625 48.6562 C125.8281 48.6562 125.1406 48.9844 124.5781 49.5781 C124.7969 47.4062 126.0781 45.9688 128.5938 45.3906 L128.5312 45.0781 Z" style="fill:black; stroke:none;"
      /><rect x="108" width="8" height="8" y="45" style="stroke:none;"
      /><path d="M112.9844 50.7031 C112.9375 51.8906 112.1562 52.6562 111.3125 52.6562 C110.2656 52.6562 109.5 51.6875 109.5 49.7188 C109.5 48.2812 110.1562 47.1562 111.3438 47.1562 C112.1406 47.1562 112.7812 47.6875 113.0938 48.6406 L112.9844 50.7031 ZM114.9062 52.2812 C114.7344 52.375 114.5469 52.4219 114.3438 52.4219 C113.9531 52.4219 113.75 52.2188 113.75 51.4219 C113.75 50.4844 113.9688 48.5312 114.1875 46.8281 L114.0312 46.7188 L113.2344 46.9219 L113.1406 47.7969 C112.7812 47.0312 112.1562 46.6562 111.3906 46.6562 C110.0469 46.6562 108.5625 47.8438 108.5625 49.9531 C108.5625 52.0938 109.7188 53.1719 111.1406 53.1719 C112.0156 53.1719 112.6875 52.8125 113.0938 51.9844 C113.2031 52.8594 113.5156 53.1719 114.0156 53.1719 C114.4688 53.1719 114.7969 52.9062 115.0156 52.5625 L114.9062 52.2812 Z" style="fill:black; stroke:none;"
      /><rect x="179" width="6" height="10" y="78" style="stroke:none;"
      /><path d="M181.2344 79.6562 C181.5156 79.5938 181.7656 79.5625 182.0156 79.5625 C183.0625 79.5625 183.6719 80.1719 183.6719 81.2656 C183.6719 82.4375 182.9062 83.1094 181.7031 83.1094 L181.1875 83.1094 L181.1875 83.6406 L181.7969 83.6406 C183.2188 83.6406 183.9062 84.4219 183.9062 85.6406 C183.9062 86.8438 183.1719 87.6875 181.875 87.6875 C181.6094 87.6875 181.3125 87.6562 181.0156 87.5625 L180.7812 86.8125 C180.625 86.2812 180.5 86.0469 180.1406 86.0469 C179.8906 86.0469 179.7031 86.1719 179.5781 86.4219 C179.8438 87.6406 180.7812 88.1719 182.0312 88.1719 C183.7188 88.1719 184.875 87.125 184.875 85.7031 C184.875 84.5 184.2031 83.625 182.7969 83.375 C183.9531 83.0156 184.6094 82.2031 184.6094 81.2031 C184.6094 79.9219 183.6719 79.0781 182.1875 79.0781 C181.0469 79.0781 180.0625 79.5938 179.7969 80.6875 C179.9062 81 180.1094 81.1094 180.3594 81.1094 C180.7344 81.1094 180.8906 80.8906 181 80.4062 L181.2344 79.6562 Z" style="fill:black; stroke:none;"
      /><rect x="163" width="6" height="13" y="84" style="stroke:none;"
      /><path d="M165.0938 90.2031 C165.0938 88.6562 165.75 87.8125 166.7969 87.8125 C167.7188 87.8125 168.2656 88.4531 168.2656 89.5156 C168.2656 90.7188 167.5 91.4375 166.1875 91.7031 L166.2969 92.3125 C168.2188 92.2344 168.9375 93.2188 168.9375 94.4375 C168.9375 95.625 168.2344 96.4219 166.9531 96.4219 C166.25 96.4219 165.6562 96.1562 165.0938 95.7188 L165.0938 90.2031 ZM164.2031 96.9062 L164.1094 99.375 L164.2656 99.4844 L165.1562 99.2656 L165.0156 96.0938 C165.5469 96.8438 166.3594 97.1719 167.1719 97.1719 C168.5625 97.1719 169.8594 96.2188 169.8594 94.4844 C169.8594 92.9531 168.875 92.1094 167.125 92 C168.5625 91.6094 169.1875 90.4531 169.1875 89.4844 C169.1875 88.0938 168.1562 87.3125 166.9062 87.3125 C165.2969 87.3125 164.2188 88.5469 164.2188 90.5156 L164.2031 96.9062 Z" style="fill:black; stroke:none;"
      /><rect x="171" width="7" height="9" y="60" style="stroke:none;"
      /><path d="M172 65.5156 L174.9531 61.2656 L174.9531 65.5156 L172 65.5156 ZM177.2812 65.5156 L175.8594 65.5156 L175.8594 60.125 L175.2344 60.125 L171.3438 65.6406 L171.3438 66.1875 L174.9531 66.1875 L174.9531 69 L175.8594 69 L175.8594 66.1875 L177.2812 66.1875 L177.2812 65.5156 Z" style="fill:black; stroke:none;"
      /><rect x="155" width="8" height="8" y="53" style="stroke:none;"
      /><path d="M159.9844 58.7031 C159.9375 59.8906 159.1562 60.6562 158.3125 60.6562 C157.2656 60.6562 156.5 59.6875 156.5 57.7188 C156.5 56.2812 157.1562 55.1562 158.3438 55.1562 C159.1406 55.1562 159.7812 55.6875 160.0938 56.6406 L159.9844 58.7031 ZM161.9062 60.2812 C161.7344 60.375 161.5469 60.4219 161.3438 60.4219 C160.9531 60.4219 160.75 60.2188 160.75 59.4219 C160.75 58.4844 160.9688 56.5312 161.1875 54.8281 L161.0312 54.7188 L160.2344 54.9219 L160.1406 55.7969 C159.7812 55.0312 159.1562 54.6562 158.3906 54.6562 C157.0469 54.6562 155.5625 55.8438 155.5625 57.9531 C155.5625 60.0938 156.7188 61.1719 158.1406 61.1719 C159.0156 61.1719 159.6875 60.8125 160.0938 59.9844 C160.2031 60.8594 160.5156 61.1719 161.0156 61.1719 C161.4688 61.1719 161.7969 60.9062 162.0156 60.5625 L161.9062 60.2812 Z" style="fill:black; stroke:none;"
      /><rect x="212" width="8" height="8" y="71" style="stroke:none;"
      /><path d="M216.9844 76.7031 C216.9375 77.8906 216.1562 78.6562 215.3125 78.6562 C214.2656 78.6562 213.5 77.6875 213.5 75.7188 C213.5 74.2812 214.1562 73.1562 215.3438 73.1562 C216.1406 73.1562 216.7812 73.6875 217.0938 74.6406 L216.9844 76.7031 ZM218.9062 78.2812 C218.7344 78.375 218.5469 78.4219 218.3438 78.4219 C217.9531 78.4219 217.75 78.2188 217.75 77.4219 C217.75 76.4844 217.9688 74.5312 218.1875 72.8281 L218.0312 72.7188 L217.2344 72.9219 L217.1406 73.7969 C216.7812 73.0312 216.1562 72.6562 215.3906 72.6562 C214.0469 72.6562 212.5625 73.8438 212.5625 75.9531 C212.5625 78.0938 213.7188 79.1719 215.1406 79.1719 C216.0156 79.1719 216.6875 78.8125 217.0938 77.9844 C217.2031 78.8594 217.5156 79.1719 218.0156 79.1719 C218.4688 79.1719 218.7969 78.9062 219.0156 78.5625 L218.9062 78.2812 Z" style="fill:black; stroke:none;"
      /><rect x="70" width="7" height="9" y="93" style="stroke:none;"
      /><path d="M71 98.5156 L73.9531 94.2656 L73.9531 98.5156 L71 98.5156 ZM76.2812 98.5156 L74.8594 98.5156 L74.8594 93.125 L74.2344 93.125 L70.3438 98.6406 L70.3438 99.1875 L73.9531 99.1875 L73.9531 102 L74.8594 102 L74.8594 99.1875 L76.2812 99.1875 L76.2812 98.5156 Z" style="fill:black; stroke:none;"
      /><rect x="56" width="8" height="8" y="94" style="stroke:none;"
      /><path d="M60.9844 99.7031 C60.9375 100.8906 60.1562 101.6562 59.3125 101.6562 C58.2656 101.6562 57.5 100.6875 57.5 98.7188 C57.5 97.2812 58.1562 96.1562 59.3438 96.1562 C60.1406 96.1562 60.7812 96.6875 61.0938 97.6406 L60.9844 99.7031 ZM62.9062 101.2812 C62.7344 101.375 62.5469 101.4219 62.3438 101.4219 C61.9531 101.4219 61.75 101.2188 61.75 100.4219 C61.75 99.4844 61.9688 97.5312 62.1875 95.8281 L62.0312 95.7188 L61.2344 95.9219 L61.1406 96.7969 C60.7812 96.0312 60.1562 95.6562 59.3906 95.6562 C58.0469 95.6562 56.5625 96.8438 56.5625 98.9531 C56.5625 101.0938 57.7188 102.1719 59.1406 102.1719 C60.0156 102.1719 60.6875 101.8125 61.0938 100.9844 C61.2031 101.8594 61.5156 102.1719 62.0156 102.1719 C62.4688 102.1719 62.7969 101.9062 63.0156 101.5625 L62.9062 101.2812 Z" style="fill:black; stroke:none;"
      /><rect x="291" width="6" height="10" y="93" style="stroke:none;"
      /><path d="M294.3438 102.6875 C293.2031 102.6875 292.5312 101.5 292.5312 99.2969 C292.5312 99.2188 292.5312 99.125 292.5312 99.0469 C293.0938 98.5 293.7188 98.3125 294.3438 98.3125 C295.3125 98.3125 295.9531 98.9844 295.9531 100.4531 C295.9531 101.9375 295.3125 102.6875 294.3438 102.6875 ZM296.5312 94.0781 C293.3438 94.4531 291.5625 96.7656 291.5625 99.4531 C291.5625 101.7812 292.6094 103.1719 294.3125 103.1719 C295.8438 103.1719 296.9219 102.1094 296.9219 100.2812 C296.9219 98.6875 295.9688 97.6562 294.5625 97.6562 C293.8281 97.6562 293.1406 97.9844 292.5781 98.5781 C292.7969 96.4062 294.0781 94.9688 296.5938 94.3906 L296.5312 94.0781 Z" style="fill:black; stroke:none;"
      /><rect x="276" width="8" height="8" y="94" style="stroke:none;"
      /><path d="M280.9844 99.7031 C280.9375 100.8906 280.1562 101.6562 279.3125 101.6562 C278.2656 101.6562 277.5 100.6875 277.5 98.7188 C277.5 97.2812 278.1562 96.1562 279.3438 96.1562 C280.1406 96.1562 280.7812 96.6875 281.0938 97.6406 L280.9844 99.7031 ZM282.9062 101.2812 C282.7344 101.375 282.5469 101.4219 282.3438 101.4219 C281.9531 101.4219 281.75 101.2188 281.75 100.4219 C281.75 99.4844 281.9688 97.5312 282.1875 95.8281 L282.0312 95.7188 L281.2344 95.9219 L281.1406 96.7969 C280.7812 96.0312 280.1562 95.6562 279.3906 95.6562 C278.0469 95.6562 276.5625 96.8438 276.5625 98.9531 C276.5625 101.0938 277.7188 102.1719 279.1406 102.1719 C280.0156 102.1719 280.6875 101.8125 281.0938 100.9844 C281.2031 101.8594 281.5156 102.1719 282.0156 102.1719 C282.4688 102.1719 282.7969 101.9062 283.0156 101.5625 L282.9062 101.2812 Z" style="fill:black; stroke:none;"
      /><rect x="343" width="6" height="10" y="93" style="stroke:none;"
      /><path d="M346.3438 102.6875 C345.2031 102.6875 344.5312 101.5 344.5312 99.2969 C344.5312 99.2188 344.5312 99.125 344.5312 99.0469 C345.0938 98.5 345.7188 98.3125 346.3438 98.3125 C347.3125 98.3125 347.9531 98.9844 347.9531 100.4531 C347.9531 101.9375 347.3125 102.6875 346.3438 102.6875 ZM348.5312 94.0781 C345.3438 94.4531 343.5625 96.7656 343.5625 99.4531 C343.5625 101.7812 344.6094 103.1719 346.3125 103.1719 C347.8438 103.1719 348.9219 102.1094 348.9219 100.2812 C348.9219 98.6875 347.9688 97.6562 346.5625 97.6562 C345.8281 97.6562 345.1406 97.9844 344.5781 98.5781 C344.7969 96.4062 346.0781 94.9688 348.5938 94.3906 L348.5312 94.0781 Z" style="fill:black; stroke:none;"
      /><rect x="329" width="6" height="13" y="91" style="stroke:none;"
      /><path d="M331.0938 97.2031 C331.0938 95.6562 331.75 94.8125 332.7969 94.8125 C333.7188 94.8125 334.2656 95.4531 334.2656 96.5156 C334.2656 97.7188 333.5 98.4375 332.1875 98.7031 L332.2969 99.3125 C334.2188 99.2344 334.9375 100.2188 334.9375 101.4375 C334.9375 102.625 334.2344 103.4219 332.9531 103.4219 C332.25 103.4219 331.6562 103.1562 331.0938 102.7188 L331.0938 97.2031 ZM330.2031 103.9062 L330.1094 106.375 L330.2656 106.4844 L331.1562 106.2656 L331.0156 103.0938 C331.5469 103.8438 332.3594 104.1719 333.1719 104.1719 C334.5625 104.1719 335.8594 103.2188 335.8594 101.4844 C335.8594 99.9531 334.875 99.1094 333.125 99 C334.5625 98.6094 335.1875 97.4531 335.1875 96.4844 C335.1875 95.0938 334.1562 94.3125 332.9062 94.3125 C331.2969 94.3125 330.2188 95.5469 330.2188 97.5156 L330.2031 103.9062 Z" style="fill:black; stroke:none;"
      /><rect x="380" width="8" height="8" y="94" style="stroke:none;"
      /><path d="M384.9844 99.7031 C384.9375 100.8906 384.1562 101.6562 383.3125 101.6562 C382.2656 101.6562 381.5 100.6875 381.5 98.7188 C381.5 97.2812 382.1562 96.1562 383.3438 96.1562 C384.1406 96.1562 384.7812 96.6875 385.0938 97.6406 L384.9844 99.7031 ZM386.9062 101.2812 C386.7344 101.375 386.5469 101.4219 386.3438 101.4219 C385.9531 101.4219 385.75 101.2188 385.75 100.4219 C385.75 99.4844 385.9688 97.5312 386.1875 95.8281 L386.0312 95.7188 L385.2344 95.9219 L385.1406 96.7969 C384.7812 96.0312 384.1562 95.6562 383.3906 95.6562 C382.0469 95.6562 380.5625 96.8438 380.5625 98.9531 C380.5625 101.0938 381.7188 102.1719 383.1406 102.1719 C384.0156 102.1719 384.6875 101.8125 385.0938 100.9844 C385.2031 101.8594 385.5156 102.1719 386.0156 102.1719 C386.4688 102.1719 386.7969 101.9062 387.0156 101.5625 L386.9062 101.2812 Z" style="fill:black; stroke:none;"
    /></g
  ></g
></svg
>
