<?xml version="1.0"?>
<!DOCTYPE svg PUBLIC '-//W3C//DTD SVG 1.0//EN'
          'http://www.w3.org/TR/2001/REC-SVG-20010904/DTD/svg10.dtd'>
<svg xmlns:xlink="http://www.w3.org/1999/xlink" style="fill-opacity:1; color-rendering:auto; color-interpolation:auto; text-rendering:auto; stroke:black; stroke-linecap:square; stroke-miterlimit:10; shape-rendering:auto; stroke-opacity:1; fill:black; stroke-dasharray:none; font-weight:normal; stroke-width:1; font-family:'Dialog'; font-style:normal; stroke-linejoin:miter; font-size:12px; stroke-dashoffset:0; image-rendering:auto;" viewBox="0 0 602 134" xmlns="http://www.w3.org/2000/svg"
><!--Generated by the Batik Graphics2D SVG Generator--><defs id="genericDefs"
  /><g
  ><defs id="defs1"
    ><clipPath clipPathUnits="userSpaceOnUse" id="clipPath1"
      ><path d="M520 45 Q498 67 520 89"
      /></clipPath
      ><clipPath clipPathUnits="userSpaceOnUse" id="clipPath2"
      ><path d="M468 67 C468 73.0751 463.0751 78 457 78 C450.9249 78 446 73.0751 446 67 C446 60.9249 450.9249 56 457 56 C463.0751 56 468 60.9249 468 67 Z"
      /></clipPath
      ><clipPath clipPathUnits="userSpaceOnUse" id="clipPath3"
      ><path d="M416 67 C416 73.0751 411.0751 78 405 78 C398.9249 78 394 73.0751 394 67 C394 60.9249 398.9249 56 405 56 C411.0751 56 416 60.9249 416 67 Z"
      /></clipPath
      ><clipPath clipPathUnits="userSpaceOnUse" id="clipPath4"
      ><path d="M364 67 C364 73.0751 359.0751 78 353 78 C346.9249 78 342 73.0751 342 67 C342 60.9249 346.9249 56 353 56 C359.0751 56 364 60.9249 364 67 Z"
      /></clipPath
      ><clipPath clipPathUnits="userSpaceOnUse" id="clipPath5"
      ><path d="M312 67 C312 73.0751 307.0751 78 301 78 C294.9249 78 290 73.0751 290 67 C290 60.9249 294.9249 56 301 56 C307.0751 56 312 60.9249 312 67 Z"
      /></clipPath
      ><clipPath clipPathUnits="userSpaceOnUse" id="clipPath6"
      ><path d="M260 67 C260 73.0751 255.0751 78 249 78 C242.9249 78 238 73.0751 238 67 C238 60.9249 242.9249 56 249 56 C255.0751 56 260 60.9249 260 67 Z"
      /></clipPath
      ><clipPath clipPathUnits="userSpaceOnUse" id="clipPath7"
      ><path d="M208 67 C208 73.0751 203.0751 78 197 78 C190.9249 78 186 73.0751 186 67 C186 60.9249 190.9249 56 197 56 C203.0751 56 208 60.9249 208 67 Z"
      /></clipPath
      ><clipPath clipPathUnits="userSpaceOnUse" id="clipPath8"
      ><path d="M156 67 C156 73.0751 151.0751 78 145 78 C138.9249 78 134 73.0751 134 67 C134 60.9249 138.9249 56 145 56 C151.0751 56 156 60.9249 156 67 Z"
      /></clipPath
      ><clipPath clipPathUnits="userSpaceOnUse" id="clipPath9"
      ><path d="M82 71 Q104 93 82 115"
      /></clipPath
      ><clipPath clipPathUnits="userSpaceOnUse" id="clipPath10"
      ><path d="M104 41 C104 47.0751 99.0751 52 93 52 C86.9249 52 82 47.0751 82 41 C82 34.9249 86.9249 30 93 30 C99.0751 30 104 34.9249 104 41 Z"
      /></clipPath
      ><clipPath clipPathUnits="userSpaceOnUse" id="clipPath11"
      ><path d="M52 41 C52 47.0751 47.0751 52 41 52 C34.9249 52 30 47.0751 30 41 C30 34.9249 34.9249 30 41 30 C47.0751 30 52 34.9249 52 41 Z"
      /></clipPath
    ></defs
    ><g style="fill:white; text-rendering:optimizeSpeed; stroke:white;"
    ><rect x="0" width="602" height="134" y="0" style="stroke:none;"
      /><polygon style="fill:none; stroke:black;" points=" 509 67 457 67"
      /><path d="M520 45 Q498 67 520 89" style="clip-path:url(#clipPath1); stroke:none;"
      /><path d="M520 45 Q498 67 520 89" style="fill:none; stroke:black;"
      /><polygon style="fill:none; stroke:black;" points=" 457 67 405 67"
      /><circle style="clip-path:url(#clipPath2); stroke:none;" r="11" cx="457" cy="67"
      /><rect x="446" y="56" width="22" style="clip-path:url(#clipPath2); fill:rgb(0,144,188); stroke:none;" height="22"
      /><rect x="446" y="56" width="22" style="clip-path:url(#clipPath2); fill:none; stroke:black;" height="22"
      /><circle style="fill:none; stroke:black;" r="11" cx="457" cy="67"
      /><polygon style="fill:none; stroke:black;" points=" 405 67 353 67"
      /><circle style="clip-path:url(#clipPath3); stroke:none;" r="11" cx="405" cy="67"
      /><rect x="394" y="56" width="22" style="clip-path:url(#clipPath3); fill:rgb(0,144,188); stroke:none;" height="22"
      /><rect x="394" y="56" width="22" style="clip-path:url(#clipPath3); fill:none; stroke:black;" height="22"
      /><circle style="fill:none; stroke:black;" r="11" cx="405" cy="67"
      /><polygon style="fill:none; stroke:black;" points=" 353 67 301 67"
      /><circle style="clip-path:url(#clipPath4); stroke:none;" r="11" cx="353" cy="67"
      /><rect x="342" y="56" width="22" style="clip-path:url(#clipPath4); fill:rgb(0,144,188); stroke:none;" height="22"
      /><rect x="342" y="56" width="22" style="clip-path:url(#clipPath4); fill:none; stroke:black;" height="22"
      /><circle style="fill:none; stroke:black;" r="11" cx="353" cy="67"
      /><polygon style="fill:none; stroke:black;" points=" 301 67 249 67"
      /><circle style="clip-path:url(#clipPath5); stroke:none;" r="11" cx="301" cy="67"
      /><rect x="290" y="56" width="22" style="clip-path:url(#clipPath5); fill:rgb(0,144,188); stroke:none;" height="22"
      /><rect x="290" y="56" width="22" style="clip-path:url(#clipPath5); fill:none; stroke:black;" height="22"
      /><circle style="fill:none; stroke:black;" r="11" cx="301" cy="67"
      /><polygon style="fill:none; stroke:black;" points=" 249 67 197 67"
      /><circle style="clip-path:url(#clipPath6); stroke:none;" r="11" cx="249" cy="67"
      /><rect x="238" y="56" width="22" style="clip-path:url(#clipPath6); fill:rgb(0,144,188); stroke:none;" height="22"
      /><rect x="238" y="56" width="22" style="clip-path:url(#clipPath6); fill:none; stroke:black;" height="22"
      /><circle style="fill:none; stroke:black;" r="11" cx="249" cy="67"
      /><polygon style="fill:none; stroke:black;" points=" 197 67 145 67"
      /><circle style="clip-path:url(#clipPath7); stroke:none;" r="11" cx="197" cy="67"
      /><rect x="186" y="56" width="22" style="clip-path:url(#clipPath7); fill:rgb(0,144,188); stroke:none;" height="22"
      /><rect x="186" y="56" width="22" style="clip-path:url(#clipPath7); fill:none; stroke:black;" height="22"
      /><circle style="fill:none; stroke:black;" r="11" cx="197" cy="67"
      /><polygon style="fill:none; stroke:black;" points=" 145 67 93 93"
      /><polygon style="fill:none; stroke:black;" points=" 145 67 93 41"
      /><circle style="clip-path:url(#clipPath8); stroke:none;" r="11" cx="145" cy="67"
      /><rect x="134" y="56" width="22" style="clip-path:url(#clipPath8); fill:rgb(0,144,188); stroke:none;" height="22"
      /><rect x="134" y="56" width="22" style="clip-path:url(#clipPath8); fill:none; stroke:black;" height="22"
      /><circle style="fill:none; stroke:black;" r="11" cx="145" cy="67"
      /><path d="M82 71 Q104 93 82 115" style="clip-path:url(#clipPath9); stroke:none;"
      /><path d="M82 71 Q104 93 82 115" style="fill:none; stroke:black;"
      /><polygon style="fill:none; stroke:black;" points=" 93 41 41 41"
      /><circle style="clip-path:url(#clipPath10); stroke:none;" r="11" cx="93" cy="41"
      /><rect x="82" y="30" width="22" style="clip-path:url(#clipPath10); fill:rgb(0,144,188); stroke:none;" height="22"
      /><rect x="82" y="30" width="22" style="clip-path:url(#clipPath10); fill:none; stroke:black;" height="22"
      /><circle style="fill:none; stroke:black;" r="11" cx="93" cy="41"
      /><circle style="clip-path:url(#clipPath11); stroke:none;" r="11" cx="41" cy="41"
      /><rect x="30" y="30" width="22" style="clip-path:url(#clipPath11); fill:rgb(255,212,0); stroke:none;" height="22"
      /><rect x="30" y="30" width="22" style="clip-path:url(#clipPath11); fill:none; stroke:black;" height="22"
      /><circle style="fill:none; stroke:black;" r="11" cx="41" cy="41"
      /><rect x="70" y="44" width="7" style="stroke:none;" height="9"
    /></g
    ><g style="font-family:'Serif'; text-rendering:optimizeSpeed; "
    ><path style="stroke:none;" d="M71 49.5156 L73.9531 45.2656 L73.9531 49.5156 L71 49.5156 ZM76.2812 49.5156 L74.8594 49.5156 L74.8594 44.125 L74.2344 44.125 L70.3438 49.6406 L70.3438 50.1875 L73.9531 50.1875 L73.9531 53 L74.8594 53 L74.8594 50.1875 L76.2812 50.1875 L76.2812 49.5156 Z"
      /><rect x="57" y="42" width="6" style="fill:white; stroke:none;" height="13"
      /><path style="stroke:none;" d="M59.0938 48.2031 C59.0938 46.6562 59.75 45.8125 60.7969 45.8125 C61.7188 45.8125 62.2656 46.4531 62.2656 47.5156 C62.2656 48.7188 61.5 49.4375 60.1875 49.7031 L60.2969 50.3125 C62.2188 50.2344 62.9375 51.2188 62.9375 52.4375 C62.9375 53.625 62.2344 54.4219 60.9531 54.4219 C60.25 54.4219 59.6562 54.1562 59.0938 53.7188 L59.0938 48.2031 ZM58.2031 54.9062 L58.1094 57.375 L58.2656 57.4844 L59.1562 57.2656 L59.0156 54.0938 C59.5469 54.8438 60.3594 55.1719 61.1719 55.1719 C62.5625 55.1719 63.8594 54.2188 63.8594 52.4844 C63.8594 50.9531 62.875 50.1094 61.125 50 C62.5625 49.6094 63.1875 48.4531 63.1875 47.4844 C63.1875 46.0938 62.1562 45.3125 60.9062 45.3125 C59.2969 45.3125 58.2188 46.5469 58.2188 48.5156 L58.2031 54.9062 Z"
      /><rect x="126" y="78" width="7" style="fill:white; stroke:none;" height="9"
      /><path style="stroke:none;" d="M127 83.5156 L129.9531 79.2656 L129.9531 83.5156 L127 83.5156 ZM132.2812 83.5156 L130.8594 83.5156 L130.8594 78.125 L130.2344 78.125 L126.3438 83.6406 L126.3438 84.1875 L129.9531 84.1875 L129.9531 87 L130.8594 87 L130.8594 84.1875 L132.2812 84.1875 L132.2812 83.5156 Z"
      /><rect x="120" y="60" width="6" style="fill:white; stroke:none;" height="10"
      /><path style="stroke:none;" d="M123.3438 69.6875 C122.2031 69.6875 121.5312 68.5 121.5312 66.2969 C121.5312 66.2188 121.5312 66.125 121.5312 66.0469 C122.0938 65.5 122.7188 65.3125 123.3438 65.3125 C124.3125 65.3125 124.9531 65.9844 124.9531 67.4531 C124.9531 68.9375 124.3125 69.6875 123.3438 69.6875 ZM125.5312 61.0781 C122.3438 61.4531 120.5625 63.7656 120.5625 66.4531 C120.5625 68.7812 121.6094 70.1719 123.3125 70.1719 C124.8438 70.1719 125.9219 69.1094 125.9219 67.2812 C125.9219 65.6875 124.9688 64.6562 123.5625 64.6562 C122.8281 64.6562 122.1406 64.9844 121.5781 65.5781 C121.7969 63.4062 123.0781 61.9688 125.5938 61.3906 L125.5312 61.0781 Z"
      /><rect x="104" y="50" width="6" style="fill:white; stroke:none;" height="13"
      /><path style="stroke:none;" d="M106.0938 56.2031 C106.0938 54.6562 106.75 53.8125 107.7969 53.8125 C108.7188 53.8125 109.2656 54.4531 109.2656 55.5156 C109.2656 56.7188 108.5 57.4375 107.1875 57.7031 L107.2969 58.3125 C109.2188 58.2344 109.9375 59.2188 109.9375 60.4375 C109.9375 61.625 109.2344 62.4219 107.9531 62.4219 C107.25 62.4219 106.6562 62.1562 106.0938 61.7188 L106.0938 56.2031 ZM105.2031 62.9062 L105.1094 65.375 L105.2656 65.4844 L106.1562 65.2656 L106.0156 62.0938 C106.5469 62.8438 107.3594 63.1719 108.1719 63.1719 C109.5625 63.1719 110.8594 62.2188 110.8594 60.4844 C110.8594 58.9531 109.875 58.1094 108.125 58 C109.5625 57.6094 110.1875 56.4531 110.1875 55.4844 C110.1875 54.0938 109.1562 53.3125 107.9062 53.3125 C106.2969 53.3125 105.2188 54.5469 105.2188 56.5156 L105.2031 62.9062 Z"
      /><rect x="174" y="70" width="7" style="fill:white; stroke:none;" height="9"
      /><path style="stroke:none;" d="M175 75.5156 L177.9531 71.2656 L177.9531 75.5156 L175 75.5156 ZM180.2812 75.5156 L178.8594 75.5156 L178.8594 70.125 L178.2344 70.125 L174.3438 75.6406 L174.3438 76.1875 L177.9531 76.1875 L177.9531 79 L178.8594 79 L178.8594 76.1875 L180.2812 76.1875 L180.2812 75.5156 Z"
      /><rect x="160" y="71" width="8" style="fill:white; stroke:none;" height="8"
      /><path style="stroke:none;" d="M164.9844 76.7031 C164.9375 77.8906 164.1562 78.6562 163.3125 78.6562 C162.2656 78.6562 161.5 77.6875 161.5 75.7188 C161.5 74.2812 162.1562 73.1562 163.3438 73.1562 C164.1406 73.1562 164.7812 73.6875 165.0938 74.6406 L164.9844 76.7031 ZM166.9062 78.2812 C166.7344 78.375 166.5469 78.4219 166.3438 78.4219 C165.9531 78.4219 165.75 78.2188 165.75 77.4219 C165.75 76.4844 165.9688 74.5312 166.1875 72.8281 L166.0312 72.7188 L165.2344 72.9219 L165.1406 73.7969 C164.7812 73.0312 164.1562 72.6562 163.3906 72.6562 C162.0469 72.6562 160.5625 73.8438 160.5625 75.9531 C160.5625 78.0938 161.7188 79.1719 163.1406 79.1719 C164.0156 79.1719 164.6875 78.8125 165.0938 77.9844 C165.2031 78.8594 165.5156 79.1719 166.0156 79.1719 C166.4688 79.1719 166.7969 78.9062 167.0156 78.5625 L166.9062 78.2812 Z"
      /><rect x="226" y="70" width="7" style="fill:white; stroke:none;" height="9"
      /><path style="stroke:none;" d="M227 75.5156 L229.9531 71.2656 L229.9531 75.5156 L227 75.5156 ZM232.2812 75.5156 L230.8594 75.5156 L230.8594 70.125 L230.2344 70.125 L226.3438 75.6406 L226.3438 76.1875 L229.9531 76.1875 L229.9531 79 L230.8594 79 L230.8594 76.1875 L232.2812 76.1875 L232.2812 75.5156 Z"
      /><rect x="212" y="71" width="8" style="fill:white; stroke:none;" height="8"
      /><path style="stroke:none;" d="M216.9844 76.7031 C216.9375 77.8906 216.1562 78.6562 215.3125 78.6562 C214.2656 78.6562 213.5 77.6875 213.5 75.7188 C213.5 74.2812 214.1562 73.1562 215.3438 73.1562 C216.1406 73.1562 216.7812 73.6875 217.0938 74.6406 L216.9844 76.7031 ZM218.9062 78.2812 C218.7344 78.375 218.5469 78.4219 218.3438 78.4219 C217.9531 78.4219 217.75 78.2188 217.75 77.4219 C217.75 76.4844 217.9688 74.5312 218.1875 72.8281 L218.0312 72.7188 L217.2344 72.9219 L217.1406 73.7969 C216.7812 73.0312 216.1562 72.6562 215.3906 72.6562 C214.0469 72.6562 212.5625 73.8438 212.5625 75.9531 C212.5625 78.0938 213.7188 79.1719 215.1406 79.1719 C216.0156 79.1719 216.6875 78.8125 217.0938 77.9844 C217.2031 78.8594 217.5156 79.1719 218.0156 79.1719 C218.4688 79.1719 218.7969 78.9062 219.0156 78.5625 L218.9062 78.2812 Z"
      /><rect x="278" y="70" width="7" style="fill:white; stroke:none;" height="9"
      /><path style="stroke:none;" d="M279 75.5156 L281.9531 71.2656 L281.9531 75.5156 L279 75.5156 ZM284.2812 75.5156 L282.8594 75.5156 L282.8594 70.125 L282.2344 70.125 L278.3438 75.6406 L278.3438 76.1875 L281.9531 76.1875 L281.9531 79 L282.8594 79 L282.8594 76.1875 L284.2812 76.1875 L284.2812 75.5156 Z"
      /><rect x="264" y="71" width="8" style="fill:white; stroke:none;" height="8"
      /><path style="stroke:none;" d="M268.9844 76.7031 C268.9375 77.8906 268.1562 78.6562 267.3125 78.6562 C266.2656 78.6562 265.5 77.6875 265.5 75.7188 C265.5 74.2812 266.1562 73.1562 267.3438 73.1562 C268.1406 73.1562 268.7812 73.6875 269.0938 74.6406 L268.9844 76.7031 ZM270.9062 78.2812 C270.7344 78.375 270.5469 78.4219 270.3438 78.4219 C269.9531 78.4219 269.75 78.2188 269.75 77.4219 C269.75 76.4844 269.9688 74.5312 270.1875 72.8281 L270.0312 72.7188 L269.2344 72.9219 L269.1406 73.7969 C268.7812 73.0312 268.1562 72.6562 267.3906 72.6562 C266.0469 72.6562 264.5625 73.8438 264.5625 75.9531 C264.5625 78.0938 265.7188 79.1719 267.1406 79.1719 C268.0156 79.1719 268.6875 78.8125 269.0938 77.9844 C269.2031 78.8594 269.5156 79.1719 270.0156 79.1719 C270.4688 79.1719 270.7969 78.9062 271.0156 78.5625 L270.9062 78.2812 Z"
      /><rect x="330" y="70" width="7" style="fill:white; stroke:none;" height="9"
      /><path style="stroke:none;" d="M331 75.5156 L333.9531 71.2656 L333.9531 75.5156 L331 75.5156 ZM336.2812 75.5156 L334.8594 75.5156 L334.8594 70.125 L334.2344 70.125 L330.3438 75.6406 L330.3438 76.1875 L333.9531 76.1875 L333.9531 79 L334.8594 79 L334.8594 76.1875 L336.2812 76.1875 L336.2812 75.5156 Z"
      /><rect x="316" y="71" width="8" style="fill:white; stroke:none;" height="8"
      /><path style="stroke:none;" d="M320.9844 76.7031 C320.9375 77.8906 320.1562 78.6562 319.3125 78.6562 C318.2656 78.6562 317.5 77.6875 317.5 75.7188 C317.5 74.2812 318.1562 73.1562 319.3438 73.1562 C320.1406 73.1562 320.7812 73.6875 321.0938 74.6406 L320.9844 76.7031 ZM322.9062 78.2812 C322.7344 78.375 322.5469 78.4219 322.3438 78.4219 C321.9531 78.4219 321.75 78.2188 321.75 77.4219 C321.75 76.4844 321.9688 74.5312 322.1875 72.8281 L322.0312 72.7188 L321.2344 72.9219 L321.1406 73.7969 C320.7812 73.0312 320.1562 72.6562 319.3906 72.6562 C318.0469 72.6562 316.5625 73.8438 316.5625 75.9531 C316.5625 78.0938 317.7188 79.1719 319.1406 79.1719 C320.0156 79.1719 320.6875 78.8125 321.0938 77.9844 C321.2031 78.8594 321.5156 79.1719 322.0156 79.1719 C322.4688 79.1719 322.7969 78.9062 323.0156 78.5625 L322.9062 78.2812 Z"
      /><rect x="382" y="70" width="7" style="fill:white; stroke:none;" height="9"
      /><path style="stroke:none;" d="M383 75.5156 L385.9531 71.2656 L385.9531 75.5156 L383 75.5156 ZM388.2812 75.5156 L386.8594 75.5156 L386.8594 70.125 L386.2344 70.125 L382.3438 75.6406 L382.3438 76.1875 L385.9531 76.1875 L385.9531 79 L386.8594 79 L386.8594 76.1875 L388.2812 76.1875 L388.2812 75.5156 Z"
      /><rect x="368" y="71" width="8" style="fill:white; stroke:none;" height="8"
      /><path style="stroke:none;" d="M372.9844 76.7031 C372.9375 77.8906 372.1562 78.6562 371.3125 78.6562 C370.2656 78.6562 369.5 77.6875 369.5 75.7188 C369.5 74.2812 370.1562 73.1562 371.3438 73.1562 C372.1406 73.1562 372.7812 73.6875 373.0938 74.6406 L372.9844 76.7031 ZM374.9062 78.2812 C374.7344 78.375 374.5469 78.4219 374.3438 78.4219 C373.9531 78.4219 373.75 78.2188 373.75 77.4219 C373.75 76.4844 373.9688 74.5312 374.1875 72.8281 L374.0312 72.7188 L373.2344 72.9219 L373.1406 73.7969 C372.7812 73.0312 372.1562 72.6562 371.3906 72.6562 C370.0469 72.6562 368.5625 73.8438 368.5625 75.9531 C368.5625 78.0938 369.7188 79.1719 371.1406 79.1719 C372.0156 79.1719 372.6875 78.8125 373.0938 77.9844 C373.2031 78.8594 373.5156 79.1719 374.0156 79.1719 C374.4688 79.1719 374.7969 78.9062 375.0156 78.5625 L374.9062 78.2812 Z"
      /><rect x="434" y="70" width="7" style="fill:white; stroke:none;" height="9"
      /><path style="stroke:none;" d="M435 75.5156 L437.9531 71.2656 L437.9531 75.5156 L435 75.5156 ZM440.2812 75.5156 L438.8594 75.5156 L438.8594 70.125 L438.2344 70.125 L434.3438 75.6406 L434.3438 76.1875 L437.9531 76.1875 L437.9531 79 L438.8594 79 L438.8594 76.1875 L440.2812 76.1875 L440.2812 75.5156 Z"
      /><rect x="420" y="71" width="8" style="fill:white; stroke:none;" height="8"
      /><path style="stroke:none;" d="M424.9844 76.7031 C424.9375 77.8906 424.1562 78.6562 423.3125 78.6562 C422.2656 78.6562 421.5 77.6875 421.5 75.7188 C421.5 74.2812 422.1562 73.1562 423.3438 73.1562 C424.1406 73.1562 424.7812 73.6875 425.0938 74.6406 L424.9844 76.7031 ZM426.9062 78.2812 C426.7344 78.375 426.5469 78.4219 426.3438 78.4219 C425.9531 78.4219 425.75 78.2188 425.75 77.4219 C425.75 76.4844 425.9688 74.5312 426.1875 72.8281 L426.0312 72.7188 L425.2344 72.9219 L425.1406 73.7969 C424.7812 73.0312 424.1562 72.6562 423.3906 72.6562 C422.0469 72.6562 420.5625 73.8438 420.5625 75.9531 C420.5625 78.0938 421.7188 79.1719 423.1406 79.1719 C424.0156 79.1719 424.6875 78.8125 425.0938 77.9844 C425.2031 78.8594 425.5156 79.1719 426.0156 79.1719 C426.4688 79.1719 426.7969 78.9062 427.0156 78.5625 L426.9062 78.2812 Z"
      /><rect x="472" y="71" width="8" style="fill:white; stroke:none;" height="8"
      /><path style="stroke:none;" d="M476.9844 76.7031 C476.9375 77.8906 476.1562 78.6562 475.3125 78.6562 C474.2656 78.6562 473.5 77.6875 473.5 75.7188 C473.5 74.2812 474.1562 73.1562 475.3438 73.1562 C476.1406 73.1562 476.7812 73.6875 477.0938 74.6406 L476.9844 76.7031 ZM478.9062 78.2812 C478.7344 78.375 478.5469 78.4219 478.3438 78.4219 C477.9531 78.4219 477.75 78.2188 477.75 77.4219 C477.75 76.4844 477.9688 74.5312 478.1875 72.8281 L478.0312 72.7188 L477.2344 72.9219 L477.1406 73.7969 C476.7812 73.0312 476.1562 72.6562 475.3906 72.6562 C474.0469 72.6562 472.5625 73.8438 472.5625 75.9531 C472.5625 78.0938 473.7188 79.1719 475.1406 79.1719 C476.0156 79.1719 476.6875 78.8125 477.0938 77.9844 C477.2031 78.8594 477.5156 79.1719 478.0156 79.1719 C478.4688 79.1719 478.7969 78.9062 479.0156 78.5625 L478.9062 78.2812 Z"
    /></g
  ></g
></svg
>
