<?xml version="1.0"?>
<!DOCTYPE svg PUBLIC '-//W3C//DTD SVG 1.0//EN'
          'http://www.w3.org/TR/2001/REC-SVG-20010904/DTD/svg10.dtd'>
<svg xmlns:xlink="http://www.w3.org/1999/xlink" style="fill-opacity:1; color-rendering:auto; color-interpolation:auto; text-rendering:auto; stroke:black; stroke-linecap:square; stroke-miterlimit:10; shape-rendering:auto; stroke-opacity:1; fill:black; stroke-dasharray:none; font-weight:normal; stroke-width:1; font-family:'Dialog'; font-style:normal; stroke-linejoin:miter; font-size:12px; stroke-dashoffset:0; image-rendering:auto;" viewBox="0 0 143 232" xmlns="http://www.w3.org/2000/svg"
><!--Generated by the Batik Graphics2D SVG Generator--><defs id="genericDefs"
  /><g
  ><defs id="defs1"
    ><clipPath clipPathUnits="userSpaceOnUse" id="clipPath1"
      ><path d="M47 157 L69 157 L69 179 L47 179 L47 157 Z"
      /></clipPath
      ><clipPath clipPathUnits="userSpaceOnUse" id="clipPath2"
      ><path d="M47 82 L69 82 L69 104 L47 104 L47 82 Z"
      /></clipPath
      ><clipPath clipPathUnits="userSpaceOnUse" id="clipPath3"
      ><path style="fill-rule:evenodd;" d="M58 30 L69 41 L58 52 L47 41 Z"
      /></clipPath
    ></defs
    ><g style="fill:white; text-rendering:optimizeSpeed; stroke:white;"
    ><rect x="0" width="143" height="232" y="0" style="stroke:none;"
      /><rect x="47" y="157" width="22" style="clip-path:url(#clipPath1); stroke:none;" height="22"
      /><polygon style="clip-path:url(#clipPath1); stroke:none;" points=" 47 157 69 157 69 179"
      /><polygon style="fill:none; clip-path:url(#clipPath1); stroke:black;" points=" 47 157 69 157 69 179"
      /><rect x="47" y="157" width="22" style="fill:none; stroke:black;" height="22"
    /></g
    ><g style="font-style:italic; text-rendering:optimizeSpeed; font-size:10px; font-family:'SansSerif';"
    ><path style="stroke:none;" d="M58 170.125 C59.3281 170.125 60.7344 169.0938 61.125 167.2969 C61.5 165.4844 60.5469 164.4375 59.2188 164.4375 C57.8906 164.4375 56.4688 165.4844 56.0938 167.2969 C55.7031 169.0938 56.6719 170.125 58 170.125 ZM58.1719 169.375 C57.2344 169.375 56.7656 168.5469 57.0312 167.2969 C57.2969 166.0469 58.1094 165.1875 59.0469 165.1875 C59.9844 165.1875 60.4531 166.0469 60.1875 167.2969 C59.9219 168.5469 59.1094 169.375 58.1719 169.375 Z"
    /></g
    ><g style="fill:white; text-rendering:optimizeSpeed; font-size:14px; font-family:'SansSerif'; stroke:white;"
    ><rect x="50" width="14" height="10" y="185" style="stroke:none;"
      /><path d="M50.6094 196 L57.0625 196 L57.0625 194.8906 L54.2344 194.8906 C53.7031 194.8906 53.0781 194.9531 52.5469 194.9844 C54.9531 192.7031 56.5625 190.625 56.5625 188.5781 C56.5625 186.75 55.4219 185.5469 53.5781 185.5469 C52.2812 185.5469 51.4062 186.1406 50.5625 187.0469 L51.2969 187.7812 C51.8594 187.1094 52.5938 186.5938 53.4375 186.5938 C54.7031 186.5938 55.3125 187.4531 55.3125 188.625 C55.3125 190.3906 53.8438 192.4375 50.6094 195.25 L50.6094 196 ZM62.02 196.1875 C64.1606 196.1875 65.5043 194.8906 65.5043 193.2656 C65.5043 191.75 64.5825 191.0469 63.395 190.5312 L61.9262 189.8906 C61.1293 189.5625 60.2387 189.1875 60.2387 188.1875 C60.2387 187.2656 60.9887 186.6719 62.145 186.6719 C63.0981 186.6719 63.8637 187.0469 64.4887 187.6406 L65.1762 186.8125 C64.4418 186.0625 63.3637 185.5469 62.145 185.5469 C60.2856 185.5469 58.9106 186.6875 58.9106 188.2656 C58.9106 189.7656 60.0512 190.5 61.0043 190.9062 L62.4887 191.5469 C63.4575 191.9844 64.1918 192.3125 64.1918 193.375 C64.1918 194.375 63.3793 195.0469 62.0356 195.0469 C60.9731 195.0469 59.9418 194.5469 59.2075 193.7812 L58.4262 194.6562 C59.3168 195.5938 60.5668 196.1875 62.02 196.1875 Z" style="fill:black; stroke:none;"
      /><rect x="74" width="5" height="10" y="155" style="stroke:none;"
    /></g
    ><g style="font-family:'Serif'; text-rendering:optimizeSpeed; "
    ><path style="stroke:none;" d="M75.8906 163.6875 C75.4844 163.6875 75.1562 164.0469 75.1562 164.4219 C75.1562 164.8125 75.4844 165.1562 75.8906 165.1562 C76.2969 165.1562 76.6406 164.8125 76.6406 164.4219 C76.6406 164.0469 76.2969 163.6875 75.8906 163.6875 ZM77.4688 157.5781 C77.7188 157.8906 77.875 158.2656 77.8906 158.6562 C77.8906 159.1875 77.625 159.5 77.0312 159.7656 L76.4062 160.0156 C75.6406 160.3125 75.3906 160.5469 75.3906 160.9375 C75.3906 161.1094 75.4531 161.3438 75.5781 161.8125 L75.7344 162.3438 L76.1094 162.3438 L76.0938 161.5312 C76.0938 161.0938 76.2031 160.9688 76.7812 160.7344 L77.2031 160.5625 C78.0312 160.2188 78.4531 159.6875 78.4531 158.8438 C78.4531 157.1562 76.6562 156.1875 75.5 156.0312 C75.1094 156.125 74.9062 156.2969 74.9062 156.6406 C74.9062 156.9375 75.0625 157.1562 75.7188 157.2656 L77.4688 157.5781 Z"
      /><rect x="74" y="171" width="5" style="fill:white; stroke:none;" height="10"
      /><path style="stroke:none;" d="M75.8906 179.6875 C75.4844 179.6875 75.1562 180.0469 75.1562 180.4219 C75.1562 180.8125 75.4844 181.1562 75.8906 181.1562 C76.2969 181.1562 76.6406 180.8125 76.6406 180.4219 C76.6406 180.0469 76.2969 179.6875 75.8906 179.6875 ZM77.4688 173.5781 C77.7188 173.8906 77.875 174.2656 77.8906 174.6562 C77.8906 175.1875 77.625 175.5 77.0312 175.7656 L76.4062 176.0156 C75.6406 176.3125 75.3906 176.5469 75.3906 176.9375 C75.3906 177.1094 75.4531 177.3438 75.5781 177.8125 L75.7344 178.3438 L76.1094 178.3438 L76.0938 177.5312 C76.0938 177.0938 76.2031 176.9688 76.7812 176.7344 L77.2031 176.5625 C78.0312 176.2188 78.4531 175.6875 78.4531 174.8438 C78.4531 173.1562 76.6562 172.1875 75.5 172.0312 C75.1094 172.125 74.9062 172.2969 74.9062 172.6406 C74.9062 172.9375 75.0625 173.1562 75.7188 173.2656 L77.4688 173.5781 Z"
      /><rect x="47" y="82" width="22" style="clip-path:url(#clipPath2); fill:white; stroke:none;" height="22"
      /><polygon style="fill:white; clip-path:url(#clipPath2); stroke:none;" points=" 47 82 69 82 69 104"
      /><polygon style="fill:none; clip-path:url(#clipPath2);" points=" 47 82 69 82 69 104"
      /><rect x="47" width="22" height="22" y="82" style="fill:none;"
    /></g
    ><g style="fill:white; text-rendering:optimizeSpeed; font-size:14px; font-family:'SansSerif'; stroke:white;"
    ><rect x="50" width="14" height="10" y="110" style="stroke:none;"
      /><path d="M50.6094 121 L57.0625 121 L57.0625 119.8906 L54.2344 119.8906 C53.7031 119.8906 53.0781 119.9531 52.5469 119.9844 C54.9531 117.7031 56.5625 115.625 56.5625 113.5781 C56.5625 111.75 55.4219 110.5469 53.5781 110.5469 C52.2812 110.5469 51.4062 111.1406 50.5625 112.0469 L51.2969 112.7812 C51.8594 112.1094 52.5938 111.5938 53.4375 111.5938 C54.7031 111.5938 55.3125 112.4531 55.3125 113.625 C55.3125 115.3906 53.8438 117.4375 50.6094 120.25 L50.6094 121 ZM62.02 121.1875 C64.1606 121.1875 65.5043 119.8906 65.5043 118.2656 C65.5043 116.75 64.5825 116.0469 63.395 115.5312 L61.9262 114.8906 C61.1293 114.5625 60.2387 114.1875 60.2387 113.1875 C60.2387 112.2656 60.9887 111.6719 62.145 111.6719 C63.0981 111.6719 63.8637 112.0469 64.4887 112.6406 L65.1762 111.8125 C64.4418 111.0625 63.3637 110.5469 62.145 110.5469 C60.2856 110.5469 58.9106 111.6875 58.9106 113.2656 C58.9106 114.7656 60.0512 115.5 61.0043 115.9062 L62.4887 116.5469 C63.4575 116.9844 64.1918 117.3125 64.1918 118.375 C64.1918 119.375 63.3793 120.0469 62.0356 120.0469 C60.9731 120.0469 59.9418 119.5469 59.2075 118.7812 L58.4262 119.6562 C59.3168 120.5938 60.5668 121.1875 62.02 121.1875 Z" style="fill:black; stroke:none;"
      /><rect x="74" width="5" height="10" y="80" style="stroke:none;"
    /></g
    ><g style="font-family:'Serif'; text-rendering:optimizeSpeed; "
    ><path style="stroke:none;" d="M75.8906 88.6875 C75.4844 88.6875 75.1562 89.0469 75.1562 89.4219 C75.1562 89.8125 75.4844 90.1562 75.8906 90.1562 C76.2969 90.1562 76.6406 89.8125 76.6406 89.4219 C76.6406 89.0469 76.2969 88.6875 75.8906 88.6875 ZM77.4688 82.5781 C77.7188 82.8906 77.875 83.2656 77.8906 83.6562 C77.8906 84.1875 77.625 84.5 77.0312 84.7656 L76.4062 85.0156 C75.6406 85.3125 75.3906 85.5469 75.3906 85.9375 C75.3906 86.1094 75.4531 86.3438 75.5781 86.8125 L75.7344 87.3438 L76.1094 87.3438 L76.0938 86.5312 C76.0938 86.0938 76.2031 85.9688 76.7812 85.7344 L77.2031 85.5625 C78.0312 85.2188 78.4531 84.6875 78.4531 83.8438 C78.4531 82.1562 76.6562 81.1875 75.5 81.0312 C75.1094 81.125 74.9062 81.2969 74.9062 81.6406 C74.9062 81.9375 75.0625 82.1562 75.7188 82.2656 L77.4688 82.5781 Z"
      /><rect x="74" y="96" width="5" style="fill:white; stroke:none;" height="10"
      /><path style="stroke:none;" d="M75.8906 104.6875 C75.4844 104.6875 75.1562 105.0469 75.1562 105.4219 C75.1562 105.8125 75.4844 106.1562 75.8906 106.1562 C76.2969 106.1562 76.6406 105.8125 76.6406 105.4219 C76.6406 105.0469 76.2969 104.6875 75.8906 104.6875 ZM77.4688 98.5781 C77.7188 98.8906 77.875 99.2656 77.8906 99.6562 C77.8906 100.1875 77.625 100.5 77.0312 100.7656 L76.4062 101.0156 C75.6406 101.3125 75.3906 101.5469 75.3906 101.9375 C75.3906 102.1094 75.4531 102.3438 75.5781 102.8125 L75.7344 103.3438 L76.1094 103.3438 L76.0938 102.5312 C76.0938 102.0938 76.2031 101.9688 76.7812 101.7344 L77.2031 101.5625 C78.0312 101.2188 78.4531 100.6875 78.4531 99.8438 C78.4531 98.1562 76.6562 97.1875 75.5 97.0312 C75.1094 97.125 74.9062 97.2969 74.9062 97.6406 C74.9062 97.9375 75.0625 98.1562 75.7188 98.2656 L77.4688 98.5781 Z"
      /><path style="stroke:none;" d="M29.6094 109 L36.0625 109 L36.0625 107.8906 L33.2344 107.8906 C32.7031 107.8906 32.0781 107.9531 31.5469 107.9844 C33.9531 105.7031 35.5625 103.625 35.5625 101.5781 C35.5625 99.75 34.4219 98.5469 32.5781 98.5469 C31.2812 98.5469 30.4062 99.1406 29.5625 100.0469 L30.2969 100.7812 C30.8594 100.1094 31.5938 99.5938 32.4375 99.5938 C33.7031 99.5938 34.3125 100.4531 34.3125 101.625 C34.3125 103.3906 32.8438 105.4375 29.6094 108.25 L29.6094 109 ZM36.9731 109 L38.3168 109 L39.3481 107.2188 C39.6137 106.7656 39.8637 106.2969 40.1293 105.8594 L40.2075 105.8594 C40.4731 106.2969 40.7543 106.7656 41.0043 107.2188 L42.1293 109 L43.5356 109 L41.02 105.1562 L43.3325 101.3906 L42.0043 101.3906 L41.0668 103.0625 C40.8481 103.5 40.6137 103.9219 40.3793 104.3438 L40.3325 104.3438 C40.0668 103.9219 39.8012 103.5 39.5668 103.0625 L38.5512 101.3906 L37.1762 101.3906 L39.4887 105.0312 L36.9731 109 Z"
    /></g
    ><g style="fill:white; text-rendering:optimizeSpeed; font-size:14px; font-family:'SansSerif'; stroke:white;"
    ><polygon style="stroke:none; clip-path:url(#clipPath3);" points=" 58 30 69 41 58 52 47 41"
      /><rect x="47" y="30" width="22" style="clip-path:url(#clipPath3); stroke:none;" height="11"
      /><rect x="47" y="30" width="22" style="clip-path:url(#clipPath3); fill:none; stroke:black;" height="11"
      /><polygon style="fill:none; stroke:black;" points=" 58 30 69 41 58 52 47 41"
      /><rect x="74" width="5" height="10" y="28" style="stroke:none;"
    /></g
    ><g style="font-family:'Serif'; text-rendering:optimizeSpeed; "
    ><path style="stroke:none;" d="M75.8906 36.6875 C75.4844 36.6875 75.1562 37.0469 75.1562 37.4219 C75.1562 37.8125 75.4844 38.1562 75.8906 38.1562 C76.2969 38.1562 76.6406 37.8125 76.6406 37.4219 C76.6406 37.0469 76.2969 36.6875 75.8906 36.6875 ZM77.4688 30.5781 C77.7188 30.8906 77.875 31.2656 77.8906 31.6562 C77.8906 32.1875 77.625 32.5 77.0312 32.7656 L76.4062 33.0156 C75.6406 33.3125 75.3906 33.5469 75.3906 33.9375 C75.3906 34.1094 75.4531 34.3438 75.5781 34.8125 L75.7344 35.3438 L76.1094 35.3438 L76.0938 34.5312 C76.0938 34.0938 76.2031 33.9688 76.7812 33.7344 L77.2031 33.5625 C78.0312 33.2188 78.4531 32.6875 78.4531 31.8438 C78.4531 30.1562 76.6562 29.1875 75.5 29.0312 C75.1094 29.125 74.9062 29.2969 74.9062 29.6406 C74.9062 29.9375 75.0625 30.1562 75.7188 30.2656 L77.4688 30.5781 Z"
      /><rect x="74" y="44" width="5" style="fill:white; stroke:none;" height="10"
      /><path style="stroke:none;" d="M75.8906 52.6875 C75.4844 52.6875 75.1562 53.0469 75.1562 53.4219 C75.1562 53.8125 75.4844 54.1562 75.8906 54.1562 C76.2969 54.1562 76.6406 53.8125 76.6406 53.4219 C76.6406 53.0469 76.2969 52.6875 75.8906 52.6875 ZM77.4688 46.5781 C77.7188 46.8906 77.875 47.2656 77.8906 47.6562 C77.8906 48.1875 77.625 48.5 77.0312 48.7656 L76.4062 49.0156 C75.6406 49.3125 75.3906 49.5469 75.3906 49.9375 C75.3906 50.1094 75.4531 50.3438 75.5781 50.8125 L75.7344 51.3438 L76.1094 51.3438 L76.0938 50.5312 C76.0938 50.0938 76.2031 49.9688 76.7812 49.7344 L77.2031 49.5625 C78.0312 49.2188 78.4531 48.6875 78.4531 47.8438 C78.4531 46.1562 76.6562 45.1875 75.5 45.0312 C75.1094 45.125 74.9062 45.2969 74.9062 45.6406 C74.9062 45.9375 75.0625 46.1562 75.7188 46.2656 L77.4688 46.5781 Z"
      /><path style="stroke:none;" d="M29.6094 46 L36.0625 46 L36.0625 44.8906 L33.2344 44.8906 C32.7031 44.8906 32.0781 44.9531 31.5469 44.9844 C33.9531 42.7031 35.5625 40.625 35.5625 38.5781 C35.5625 36.75 34.4219 35.5469 32.5781 35.5469 C31.2812 35.5469 30.4062 36.1406 29.5625 37.0469 L30.2969 37.7812 C30.8594 37.1094 31.5938 36.5938 32.4375 36.5938 C33.7031 36.5938 34.3125 37.4531 34.3125 38.625 C34.3125 40.3906 32.8438 42.4375 29.6094 45.25 L29.6094 46 ZM36.9731 46 L38.3168 46 L39.3481 44.2188 C39.6137 43.7656 39.8637 43.2969 40.1293 42.8594 L40.2075 42.8594 C40.4731 43.2969 40.7543 43.7656 41.0043 44.2188 L42.1293 46 L43.5356 46 L41.02 42.1562 L43.3325 38.3906 L42.0043 38.3906 L41.0668 40.0625 C40.8481 40.5 40.6137 40.9219 40.3793 41.3438 L40.3325 41.3438 C40.0668 40.9219 39.8012 40.5 39.5668 40.0625 L38.5512 38.3906 L37.1762 38.3906 L39.4887 42.0312 L36.9731 46 Z"
    /></g
  ></g
></svg
>
