<?xml version="1.0"?>
<!DOCTYPE svg PUBLIC '-//W3C//DTD SVG 1.0//EN'
          'http://www.w3.org/TR/2001/REC-SVG-20010904/DTD/svg10.dtd'>
<svg xmlns:xlink="http://www.w3.org/1999/xlink" style="fill-opacity:1; color-rendering:auto; color-interpolation:auto; text-rendering:auto; stroke:black; stroke-linecap:square; stroke-miterlimit:10; shape-rendering:auto; stroke-opacity:1; fill:black; stroke-dasharray:none; font-weight:normal; stroke-width:1; font-family:'Dialog'; font-style:normal; stroke-linejoin:miter; font-size:12px; stroke-dashoffset:0; image-rendering:auto;" viewBox="0 0 314 160" xmlns="http://www.w3.org/2000/svg"
><!--Generated by the Batik Graphics2D SVG Generator--><defs id="genericDefs"
  /><g
  ><defs id="defs1"
    ><clipPath clipPathUnits="userSpaceOnUse" id="clipPath1"
      ><path d="M186 82 L208 82 L208 104 L186 104 L186 82 Z"
      /></clipPath
      ><clipPath clipPathUnits="userSpaceOnUse" id="clipPath2"
      ><path d="M134 82 L156 82 L156 104 L134 104 L134 82 Z"
      /></clipPath
      ><clipPath clipPathUnits="userSpaceOnUse" id="clipPath3"
      ><path d="M104 93 C104 99.0751 99.0751 104 93 104 C86.9249 104 82 99.0751 82 93 C82 86.9249 86.9249 82 93 82 C99.0751 82 104 86.9249 104 93 Z"
      /></clipPath
      ><clipPath clipPathUnits="userSpaceOnUse" id="clipPath4"
      ><path d="M52 119 C52 125.0751 47.0751 130 41 130 C34.9249 130 30 125.0751 30 119 C30 112.9249 34.9249 108 41 108 C47.0751 108 52 112.9249 52 119 Z"
      /></clipPath
      ><clipPath clipPathUnits="userSpaceOnUse" id="clipPath5"
      ><path d="M52 67 C52 73.0751 47.0751 78 41 78 C34.9249 78 30 73.0751 30 67 C30 60.9249 34.9249 56 41 56 C47.0751 56 52 60.9249 52 67 Z"
      /></clipPath
      ><clipPath clipPathUnits="userSpaceOnUse" id="clipPath6"
      ><path style="fill-rule:evenodd;" d="M197 52 L186 30 L208 30 Z"
      /></clipPath
    ></defs
    ><g style="fill:white; text-rendering:optimizeSpeed; stroke:white;"
    ><rect x="0" width="314" height="160" y="0" style="stroke:none;"
      /><polygon style="fill:none; stroke:black;" points=" 197 93 145 93"
      /><polygon style="fill:none; stroke:black;" points=" 197 93 197 41"
      /><rect x="186" y="82" width="22" style="clip-path:url(#clipPath1); stroke:none;" height="22"
      /><rect x="186" y="82" width="22" style="clip-path:url(#clipPath1); fill:rgb(0,144,188); stroke:none;" height="22"
      /><rect x="186" y="82" width="22" style="clip-path:url(#clipPath1); fill:none; stroke:black;" height="22"
      /><rect x="186" y="82" width="22" style="fill:none; stroke:black;" height="22"
    /></g
    ><g style="font-style:italic; text-rendering:optimizeSpeed; font-size:10px; font-family:'SansSerif';"
    ><path style="stroke:none;" d="M197 95.125 C198.3281 95.125 199.7344 94.0938 200.125 92.2969 C200.5 90.4844 199.5469 89.4375 198.2188 89.4375 C196.8906 89.4375 195.4688 90.4844 195.0938 92.2969 C194.7031 94.0938 195.6719 95.125 197 95.125 ZM197.1719 94.375 C196.2344 94.375 195.7656 93.5469 196.0312 92.2969 C196.2969 91.0469 197.1094 90.1875 198.0469 90.1875 C198.9844 90.1875 199.4531 91.0469 199.1875 92.2969 C198.9219 93.5469 198.1094 94.375 197.1719 94.375 Z"
      /><polygon style="fill:none;" points=" 145 93 93 93"
    /></g
    ><g style="fill:white; text-rendering:optimizeSpeed; stroke:white;"
    ><rect x="134" y="82" width="22" style="clip-path:url(#clipPath2); stroke:none;" height="22"
      /><rect x="134" y="82" width="22" style="clip-path:url(#clipPath2); fill:rgb(0,144,188); stroke:none;" height="22"
      /><rect x="134" y="82" width="22" style="clip-path:url(#clipPath2); fill:none; stroke:black;" height="22"
      /><rect x="134" y="82" width="22" style="fill:none; stroke:black;" height="22"
      /><polygon style="fill:none; stroke:black;" points=" 93 93 41 119"
      /><polygon style="fill:none; stroke:black;" points=" 93 93 41 67"
      /><circle r="11" style="clip-path:url(#clipPath3); stroke:none;" cx="93" cy="93"
      /><rect x="82" y="82" width="22" style="clip-path:url(#clipPath3); fill:rgb(0,166,81); stroke:none;" height="22"
      /><rect x="82" y="82" width="22" style="clip-path:url(#clipPath3); fill:none; stroke:black;" height="22"
      /><circle r="11" style="fill:none; stroke:black;" cx="93" cy="93"
      /><circle r="11" style="clip-path:url(#clipPath4); stroke:none;" cx="41" cy="119"
      /><rect x="30" y="108" width="22" style="clip-path:url(#clipPath4); fill:rgb(0,166,81); stroke:none;" height="22"
      /><rect x="30" y="108" width="22" style="clip-path:url(#clipPath4); fill:none; stroke:black;" height="22"
      /><circle r="11" style="fill:none; stroke:black;" cx="41" cy="119"
      /><circle r="11" style="clip-path:url(#clipPath5); stroke:none;" cx="41" cy="67"
      /><rect x="30" y="56" width="22" style="clip-path:url(#clipPath5); fill:rgb(0,166,81); stroke:none;" height="22"
      /><rect x="30" y="56" width="22" style="clip-path:url(#clipPath5); fill:none; stroke:black;" height="22"
      /><circle r="11" style="fill:none; stroke:black;" cx="41" cy="67"
      /><rect x="75" width="6" height="10" y="104" style="stroke:none;"
      /><path d="M77.2344 105.6562 C77.5156 105.5938 77.7656 105.5625 78.0156 105.5625 C79.0625 105.5625 79.6719 106.1719 79.6719 107.2656 C79.6719 108.4375 78.9062 109.1094 77.7031 109.1094 L77.1875 109.1094 L77.1875 109.6406 L77.7969 109.6406 C79.2188 109.6406 79.9062 110.4219 79.9062 111.6406 C79.9062 112.8438 79.1719 113.6875 77.875 113.6875 C77.6094 113.6875 77.3125 113.6562 77.0156 113.5625 L76.7812 112.8125 C76.625 112.2812 76.5 112.0469 76.1406 112.0469 C75.8906 112.0469 75.7031 112.1719 75.5781 112.4219 C75.8438 113.6406 76.7812 114.1719 78.0312 114.1719 C79.7188 114.1719 80.875 113.125 80.875 111.7031 C80.875 110.5 80.2031 109.625 78.7969 109.375 C79.9531 109.0156 80.6094 108.2031 80.6094 107.2031 C80.6094 105.9219 79.6719 105.0781 78.1875 105.0781 C77.0469 105.0781 76.0625 105.5938 75.7969 106.6875 C75.9062 107 76.1094 107.1094 76.3594 107.1094 C76.7344 107.1094 76.8906 106.8906 77 106.4062 L77.2344 105.6562 Z" style="fill:black; stroke:none;"
      /><rect x="58" width="8" height="8" y="113" style="stroke:none;"
      /><path d="M62.9844 118.7031 C62.9375 119.8906 62.1562 120.6562 61.3125 120.6562 C60.2656 120.6562 59.5 119.6875 59.5 117.7188 C59.5 116.2812 60.1562 115.1562 61.3438 115.1562 C62.1406 115.1562 62.7812 115.6875 63.0938 116.6406 L62.9844 118.7031 ZM64.9062 120.2812 C64.7344 120.375 64.5469 120.4219 64.3438 120.4219 C63.9531 120.4219 63.75 120.2188 63.75 119.4219 C63.75 118.4844 63.9688 116.5312 64.1875 114.8281 L64.0312 114.7188 L63.2344 114.9219 L63.1406 115.7969 C62.7812 115.0312 62.1562 114.6562 61.3906 114.6562 C60.0469 114.6562 58.5625 115.8438 58.5625 117.9531 C58.5625 120.0938 59.7188 121.1719 61.1406 121.1719 C62.0156 121.1719 62.6875 120.8125 63.0938 119.9844 C63.2031 120.8594 63.5156 121.1719 64.0156 121.1719 C64.4688 121.1719 64.7969 120.9062 65.0156 120.5625 L64.9062 120.2812 Z" style="fill:black; stroke:none;"
      /><rect x="68" width="6" height="10" y="86" style="stroke:none;"
      /><path d="M71.3438 95.6875 C70.2031 95.6875 69.5312 94.5 69.5312 92.2969 C69.5312 92.2188 69.5312 92.125 69.5312 92.0469 C70.0938 91.5 70.7188 91.3125 71.3438 91.3125 C72.3125 91.3125 72.9531 91.9844 72.9531 93.4531 C72.9531 94.9375 72.3125 95.6875 71.3438 95.6875 ZM73.5312 87.0781 C70.3438 87.4531 68.5625 89.7656 68.5625 92.4531 C68.5625 94.7812 69.6094 96.1719 71.3125 96.1719 C72.8438 96.1719 73.9219 95.1094 73.9219 93.2812 C73.9219 91.6875 72.9688 90.6562 71.5625 90.6562 C70.8281 90.6562 70.1406 90.9844 69.5781 91.5781 C69.7969 89.4062 71.0781 87.9688 73.5938 87.3906 L73.5312 87.0781 Z" style="fill:black; stroke:none;"
      /><rect x="51" width="8" height="8" y="79" style="stroke:none;"
      /><path d="M55.9844 84.7031 C55.9375 85.8906 55.1562 86.6562 54.3125 86.6562 C53.2656 86.6562 52.5 85.6875 52.5 83.7188 C52.5 82.2812 53.1562 81.1562 54.3438 81.1562 C55.1406 81.1562 55.7812 81.6875 56.0938 82.6406 L55.9844 84.7031 ZM57.9062 86.2812 C57.7344 86.375 57.5469 86.4219 57.3438 86.4219 C56.9531 86.4219 56.75 86.2188 56.75 85.4219 C56.75 84.4844 56.9688 82.5312 57.1875 80.8281 L57.0312 80.7188 L56.2344 80.9219 L56.1406 81.7969 C55.7812 81.0312 55.1562 80.6562 54.3906 80.6562 C53.0469 80.6562 51.5625 81.8438 51.5625 83.9531 C51.5625 86.0938 52.7188 87.1719 54.1406 87.1719 C55.0156 87.1719 55.6875 86.8125 56.0938 85.9844 C56.2031 86.8594 56.5156 87.1719 57.0156 87.1719 C57.4688 87.1719 57.7969 86.9062 58.0156 86.5625 L57.9062 86.2812 Z" style="fill:black; stroke:none;"
      /><rect x="122" width="7" height="9" y="96" style="stroke:none;"
      /><path d="M123 101.5156 L125.9531 97.2656 L125.9531 101.5156 L123 101.5156 ZM128.2812 101.5156 L126.8594 101.5156 L126.8594 96.125 L126.2344 96.125 L122.3438 101.6406 L122.3438 102.1875 L125.9531 102.1875 L125.9531 105 L126.8594 105 L126.8594 102.1875 L128.2812 102.1875 L128.2812 101.5156 Z" style="fill:black; stroke:none;"
      /><rect x="109" width="6" height="13" y="94" style="stroke:none;"
      /><path d="M111.0938 100.2031 C111.0938 98.6562 111.75 97.8125 112.7969 97.8125 C113.7188 97.8125 114.2656 98.4531 114.2656 99.5156 C114.2656 100.7188 113.5 101.4375 112.1875 101.7031 L112.2969 102.3125 C114.2188 102.2344 114.9375 103.2188 114.9375 104.4375 C114.9375 105.625 114.2344 106.4219 112.9531 106.4219 C112.25 106.4219 111.6562 106.1562 111.0938 105.7188 L111.0938 100.2031 ZM110.2031 106.9062 L110.1094 109.375 L110.2656 109.4844 L111.1562 109.2656 L111.0156 106.0938 C111.5469 106.8438 112.3594 107.1719 113.1719 107.1719 C114.5625 107.1719 115.8594 106.2188 115.8594 104.4844 C115.8594 102.9531 114.875 102.1094 113.125 102 C114.5625 101.6094 115.1875 100.4531 115.1875 99.4844 C115.1875 98.0938 114.1562 97.3125 112.9062 97.3125 C111.2969 97.3125 110.2188 98.5469 110.2188 100.5156 L110.2031 106.9062 Z" style="fill:black; stroke:none;"
      /><polygon style="clip-path:url(#clipPath6); stroke:none;" points=" 197 52 186 30 208 30"
      /><rect x="186" y="30" width="22" style="clip-path:url(#clipPath6); fill:rgb(237,28,36); stroke:none;" height="22"
      /><rect x="186" y="30" width="22" style="clip-path:url(#clipPath6); fill:none; stroke:black;" height="22"
      /><polygon style="fill:none; stroke:black;" points=" 197 52 186 30 208 30"
      /><rect x="174" width="7" height="9" y="96" style="stroke:none;"
      /><path d="M175 101.5156 L177.9531 97.2656 L177.9531 101.5156 L175 101.5156 ZM180.2812 101.5156 L178.8594 101.5156 L178.8594 96.125 L178.2344 96.125 L174.3438 101.6406 L174.3438 102.1875 L177.9531 102.1875 L177.9531 105 L178.8594 105 L178.8594 102.1875 L180.2812 102.1875 L180.2812 101.5156 Z" style="fill:black; stroke:none;"
      /><rect x="161" width="6" height="13" y="94" style="stroke:none;"
      /><path d="M163.0938 100.2031 C163.0938 98.6562 163.75 97.8125 164.7969 97.8125 C165.7188 97.8125 166.2656 98.4531 166.2656 99.5156 C166.2656 100.7188 165.5 101.4375 164.1875 101.7031 L164.2969 102.3125 C166.2188 102.2344 166.9375 103.2188 166.9375 104.4375 C166.9375 105.625 166.2344 106.4219 164.9531 106.4219 C164.25 106.4219 163.6562 106.1562 163.0938 105.7188 L163.0938 100.2031 ZM162.2031 106.9062 L162.1094 109.375 L162.2656 109.4844 L163.1562 109.2656 L163.0156 106.0938 C163.5469 106.8438 164.3594 107.1719 165.1719 107.1719 C166.5625 107.1719 167.8594 106.2188 167.8594 104.4844 C167.8594 102.9531 166.875 102.1094 165.125 102 C166.5625 101.6094 167.1875 100.4531 167.1875 99.4844 C167.1875 98.0938 166.1562 97.3125 164.9062 97.3125 C163.2969 97.3125 162.2188 98.5469 162.2188 100.5156 L162.2031 106.9062 Z" style="fill:black; stroke:none;"
      /><rect x="186" width="6" height="10" y="69" style="stroke:none;"
      /><path d="M189.3438 78.6875 C188.2031 78.6875 187.5312 77.5 187.5312 75.2969 C187.5312 75.2188 187.5312 75.125 187.5312 75.0469 C188.0938 74.5 188.7188 74.3125 189.3438 74.3125 C190.3125 74.3125 190.9531 74.9844 190.9531 76.4531 C190.9531 77.9375 190.3125 78.6875 189.3438 78.6875 ZM191.5312 70.0781 C188.3438 70.4531 186.5625 72.7656 186.5625 75.4531 C186.5625 77.7812 187.6094 79.1719 189.3125 79.1719 C190.8438 79.1719 191.9219 78.1094 191.9219 76.2812 C191.9219 74.6875 190.9688 73.6562 189.5625 73.6562 C188.8281 73.6562 188.1406 73.9844 187.5781 74.5781 C187.7969 72.4062 189.0781 70.9688 191.5938 70.3906 L191.5312 70.0781 Z" style="fill:black; stroke:none;"
      /><rect x="185" width="8" height="8" y="56" style="stroke:none;"
      /><path d="M189.9844 61.7031 C189.9375 62.8906 189.1562 63.6562 188.3125 63.6562 C187.2656 63.6562 186.5 62.6875 186.5 60.7188 C186.5 59.2812 187.1562 58.1562 188.3438 58.1562 C189.1406 58.1562 189.7812 58.6875 190.0938 59.6406 L189.9844 61.7031 ZM191.9062 63.2812 C191.7344 63.375 191.5469 63.4219 191.3438 63.4219 C190.9531 63.4219 190.75 63.2188 190.75 62.4219 C190.75 61.4844 190.9688 59.5312 191.1875 57.8281 L191.0312 57.7188 L190.2344 57.9219 L190.1406 58.7969 C189.7812 58.0312 189.1562 57.6562 188.3906 57.6562 C187.0469 57.6562 185.5625 58.8438 185.5625 60.9531 C185.5625 63.0938 186.7188 64.1719 188.1406 64.1719 C189.0156 64.1719 189.6875 63.8125 190.0938 62.9844 C190.2031 63.8594 190.5156 64.1719 191.0156 64.1719 C191.4688 64.1719 191.7969 63.9062 192.0156 63.5625 L191.9062 63.2812 Z" style="fill:black; stroke:none;"
    /></g
  ></g
></svg
>
