<?xml version="1.0"?>
<!DOCTYPE svg PUBLIC '-//W3C//DTD SVG 1.0//EN'
          'http://www.w3.org/TR/2001/REC-SVG-20010904/DTD/svg10.dtd'>
<svg xmlns:xlink="http://www.w3.org/1999/xlink" style="fill-opacity:1; color-rendering:auto; color-interpolation:auto; text-rendering:auto; stroke:black; stroke-linecap:square; stroke-miterlimit:10; shape-rendering:auto; stroke-opacity:1; fill:black; stroke-dasharray:none; font-weight:normal; stroke-width:1; font-family:'Dialog'; font-style:normal; stroke-linejoin:miter; font-size:12px; stroke-dashoffset:0; image-rendering:auto;" viewBox="0 0 126 232" xmlns="http://www.w3.org/2000/svg"
><!--Generated by the Batik Graphics2D SVG Generator--><defs id="genericDefs"
  /><g
  ><defs id="defs1"
    ><clipPath clipPathUnits="userSpaceOnUse" id="clipPath1"
      ><path d="M52 191 C52 197.0751 47.0751 202 41 202 C34.9249 202 30 197.0751 30 191 C30 184.9249 34.9249 180 41 180 C47.0751 180 52 184.9249 52 191 Z"
      /></clipPath
      ><clipPath clipPathUnits="userSpaceOnUse" id="clipPath2"
      ><path d="M30 105 L52 105 L52 127 L30 127 L30 105 Z"
      /></clipPath
      ><clipPath clipPathUnits="userSpaceOnUse" id="clipPath3"
      ><path d="M52 41 C52 47.0751 47.0751 52 41 52 C34.9249 52 30 47.0751 30 41 C30 34.9249 34.9249 30 41 30 C47.0751 30 52 34.9249 52 41 Z"
      /></clipPath
    ></defs
    ><g style="fill:white; text-rendering:optimizeSpeed; stroke:white;"
    ><rect x="0" width="126" height="232" y="0" style="stroke:none;"
      /><circle style="clip-path:url(#clipPath1); stroke:none;" r="11" cx="41" cy="191"
      /><rect x="30" y="180" width="22" style="clip-path:url(#clipPath1); fill:rgb(0,144,188); stroke:none;" height="22"
      /><rect x="30" y="180" width="22" style="clip-path:url(#clipPath1); fill:none; stroke:black;" height="22"
      /><circle style="fill:none; stroke:black;" r="11" cx="41" cy="191"
      /><rect x="57" y="178" width="5" style="stroke:none;" height="10"
    /></g
    ><g style="font-family:'Serif'; text-rendering:optimizeSpeed; "
    ><path style="stroke:none;" d="M58.8906 186.6875 C58.4844 186.6875 58.1562 187.0469 58.1562 187.4219 C58.1562 187.8125 58.4844 188.1562 58.8906 188.1562 C59.2969 188.1562 59.6406 187.8125 59.6406 187.4219 C59.6406 187.0469 59.2969 186.6875 58.8906 186.6875 ZM60.4688 180.5781 C60.7188 180.8906 60.875 181.2656 60.8906 181.6562 C60.8906 182.1875 60.625 182.5 60.0312 182.7656 L59.4062 183.0156 C58.6406 183.3125 58.3906 183.5469 58.3906 183.9375 C58.3906 184.1094 58.4531 184.3438 58.5781 184.8125 L58.7344 185.3438 L59.1094 185.3438 L59.0938 184.5312 C59.0938 184.0938 59.2031 183.9688 59.7812 183.7344 L60.2031 183.5625 C61.0312 183.2188 61.4531 182.6875 61.4531 181.8438 C61.4531 180.1562 59.6562 179.1875 58.5 179.0312 C58.1094 179.125 57.9062 179.2969 57.9062 179.6406 C57.9062 179.9375 58.0625 180.1562 58.7188 180.2656 L60.4688 180.5781 Z"
      /><rect x="57" y="194" width="5" style="fill:white; stroke:none;" height="10"
      /><path style="stroke:none;" d="M58.8906 202.6875 C58.4844 202.6875 58.1562 203.0469 58.1562 203.4219 C58.1562 203.8125 58.4844 204.1562 58.8906 204.1562 C59.2969 204.1562 59.6406 203.8125 59.6406 203.4219 C59.6406 203.0469 59.2969 202.6875 58.8906 202.6875 ZM60.4688 196.5781 C60.7188 196.8906 60.875 197.2656 60.8906 197.6562 C60.8906 198.1875 60.625 198.5 60.0312 198.7656 L59.4062 199.0156 C58.6406 199.3125 58.3906 199.5469 58.3906 199.9375 C58.3906 200.1094 58.4531 200.3438 58.5781 200.8125 L58.7344 201.3438 L59.1094 201.3438 L59.0938 200.5312 C59.0938 200.0938 59.2031 199.9688 59.7812 199.7344 L60.2031 199.5625 C61.0312 199.2188 61.4531 198.6875 61.4531 197.8438 C61.4531 196.1562 59.6562 195.1875 58.5 195.0312 C58.1094 195.125 57.9062 195.2969 57.9062 195.6406 C57.9062 195.9375 58.0625 196.1562 58.7188 196.2656 L60.4688 196.5781 Z"
      /><rect x="30" y="105" width="22" style="clip-path:url(#clipPath2); fill:white; stroke:none;" height="22"
      /><rect x="30" y="105" width="22" style="clip-path:url(#clipPath2); fill:rgb(255,212,0); stroke:none;" height="22"
      /><rect x="30" y="105" width="22" style="fill:none; clip-path:url(#clipPath2);" height="22"
      /><rect x="30" width="22" height="22" y="105" style="fill:none;"
    /></g
    ><g style="fill:white; text-rendering:optimizeSpeed; font-size:14px; font-family:'SansSerif'; stroke:white;"
    ><rect x="33" width="15" height="10" y="133" style="stroke:none;"
      /><path d="M36.7031 144.1875 C38.5156 144.1875 39.9844 143.0938 39.9844 141.25 C39.9844 139.8594 39.0156 138.9375 37.8125 138.6562 L37.8125 138.5938 C38.8906 138.1875 39.6406 137.3594 39.6406 136.125 C39.6406 134.5 38.375 133.5469 36.6562 133.5469 C35.4688 133.5469 34.5469 134.0625 33.7812 134.7812 L34.4688 135.5938 C35.0469 135 35.7656 134.5938 36.5938 134.5938 C37.6562 134.5938 38.3281 135.2344 38.3281 136.2188 C38.3281 137.3281 37.6094 138.1719 35.4844 138.1719 L35.4844 139.1562 C37.8594 139.1562 38.6875 139.9844 38.6875 141.2031 C38.6875 142.3906 37.8125 143.125 36.5938 143.125 C35.4375 143.125 34.6562 142.5781 34.0469 141.9375 L33.4062 142.7812 C34.0781 143.5156 35.0938 144.1875 36.7031 144.1875 ZM45.02 144.1875 C47.1606 144.1875 48.5043 142.8906 48.5043 141.2656 C48.5043 139.75 47.5825 139.0469 46.395 138.5312 L44.9262 137.8906 C44.1293 137.5625 43.2387 137.1875 43.2387 136.1875 C43.2387 135.2656 43.9887 134.6719 45.145 134.6719 C46.0981 134.6719 46.8637 135.0469 47.4887 135.6406 L48.1762 134.8125 C47.4418 134.0625 46.3637 133.5469 45.145 133.5469 C43.2856 133.5469 41.9106 134.6875 41.9106 136.2656 C41.9106 137.7656 43.0512 138.5 44.0043 138.9062 L45.4887 139.5469 C46.4575 139.9844 47.1918 140.3125 47.1918 141.375 C47.1918 142.375 46.3793 143.0469 45.0356 143.0469 C43.9731 143.0469 42.9418 142.5469 42.2075 141.7812 L41.4262 142.6562 C42.3168 143.5938 43.5668 144.1875 45.02 144.1875 Z" style="fill:black; stroke:none;"
      /><rect x="57" width="5" height="10" y="103" style="stroke:none;"
    /></g
    ><g style="font-family:'Serif'; text-rendering:optimizeSpeed; "
    ><path style="stroke:none;" d="M58.8906 111.6875 C58.4844 111.6875 58.1562 112.0469 58.1562 112.4219 C58.1562 112.8125 58.4844 113.1562 58.8906 113.1562 C59.2969 113.1562 59.6406 112.8125 59.6406 112.4219 C59.6406 112.0469 59.2969 111.6875 58.8906 111.6875 ZM60.4688 105.5781 C60.7188 105.8906 60.875 106.2656 60.8906 106.6562 C60.8906 107.1875 60.625 107.5 60.0312 107.7656 L59.4062 108.0156 C58.6406 108.3125 58.3906 108.5469 58.3906 108.9375 C58.3906 109.1094 58.4531 109.3438 58.5781 109.8125 L58.7344 110.3438 L59.1094 110.3438 L59.0938 109.5312 C59.0938 109.0938 59.2031 108.9688 59.7812 108.7344 L60.2031 108.5625 C61.0312 108.2188 61.4531 107.6875 61.4531 106.8438 C61.4531 105.1562 59.6562 104.1875 58.5 104.0312 C58.1094 104.125 57.9062 104.2969 57.9062 104.6406 C57.9062 104.9375 58.0625 105.1562 58.7188 105.2656 L60.4688 105.5781 Z"
      /><rect x="57" y="119" width="5" style="fill:white; stroke:none;" height="10"
      /><path style="stroke:none;" d="M58.8906 127.6875 C58.4844 127.6875 58.1562 128.0469 58.1562 128.4219 C58.1562 128.8125 58.4844 129.1562 58.8906 129.1562 C59.2969 129.1562 59.6406 128.8125 59.6406 128.4219 C59.6406 128.0469 59.2969 127.6875 58.8906 127.6875 ZM60.4688 121.5781 C60.7188 121.8906 60.875 122.2656 60.8906 122.6562 C60.8906 123.1875 60.625 123.5 60.0312 123.7656 L59.4062 124.0156 C58.6406 124.3125 58.3906 124.5469 58.3906 124.9375 C58.3906 125.1094 58.4531 125.3438 58.5781 125.8125 L58.7344 126.3438 L59.1094 126.3438 L59.0938 125.5312 C59.0938 125.0938 59.2031 124.9688 59.7812 124.7344 L60.2031 124.5625 C61.0312 124.2188 61.4531 123.6875 61.4531 122.8438 C61.4531 121.1562 59.6562 120.1875 58.5 120.0312 C58.1094 120.125 57.9062 120.2969 57.9062 120.6406 C57.9062 120.9375 58.0625 121.1562 58.7188 121.2656 L60.4688 121.5781 Z"
      /><circle style="fill:white; clip-path:url(#clipPath3); stroke:none;" r="11" cx="41" cy="41"
      /><rect x="30" y="30" width="22" style="clip-path:url(#clipPath3); fill:rgb(255,212,0); stroke:none;" height="22"
      /><rect x="30" y="30" width="22" style="fill:none; clip-path:url(#clipPath3);" height="22"
      /><circle r="11" style="fill:none;" cx="41" cy="41"
    /></g
    ><g style="fill:white; text-rendering:optimizeSpeed; font-size:14px; font-family:'SansSerif'; stroke:white;"
    ><rect x="33" width="15" height="10" y="58" style="stroke:none;"
      /><path d="M36.7031 69.1875 C38.5156 69.1875 39.9844 68.0938 39.9844 66.25 C39.9844 64.8594 39.0156 63.9375 37.8125 63.6562 L37.8125 63.5938 C38.8906 63.1875 39.6406 62.3594 39.6406 61.125 C39.6406 59.5 38.375 58.5469 36.6562 58.5469 C35.4688 58.5469 34.5469 59.0625 33.7812 59.7812 L34.4688 60.5938 C35.0469 60 35.7656 59.5938 36.5938 59.5938 C37.6562 59.5938 38.3281 60.2344 38.3281 61.2188 C38.3281 62.3281 37.6094 63.1719 35.4844 63.1719 L35.4844 64.1562 C37.8594 64.1562 38.6875 64.9844 38.6875 66.2031 C38.6875 67.3906 37.8125 68.125 36.5938 68.125 C35.4375 68.125 34.6562 67.5781 34.0469 66.9375 L33.4062 67.7812 C34.0781 68.5156 35.0938 69.1875 36.7031 69.1875 ZM45.02 69.1875 C47.1606 69.1875 48.5043 67.8906 48.5043 66.2656 C48.5043 64.75 47.5825 64.0469 46.395 63.5312 L44.9262 62.8906 C44.1293 62.5625 43.2387 62.1875 43.2387 61.1875 C43.2387 60.2656 43.9887 59.6719 45.145 59.6719 C46.0981 59.6719 46.8637 60.0469 47.4887 60.6406 L48.1762 59.8125 C47.4418 59.0625 46.3637 58.5469 45.145 58.5469 C43.2856 58.5469 41.9106 59.6875 41.9106 61.2656 C41.9106 62.7656 43.0512 63.5 44.0043 63.9062 L45.4887 64.5469 C46.4575 64.9844 47.1918 65.3125 47.1918 66.375 C47.1918 67.375 46.3793 68.0469 45.0356 68.0469 C43.9731 68.0469 42.9418 67.5469 42.2075 66.7812 L41.4262 67.6562 C42.3168 68.5938 43.5668 69.1875 45.02 69.1875 Z" style="fill:black; stroke:none;"
      /><rect x="57" width="5" height="10" y="28" style="stroke:none;"
    /></g
    ><g style="font-family:'Serif'; text-rendering:optimizeSpeed; "
    ><path style="stroke:none;" d="M58.8906 36.6875 C58.4844 36.6875 58.1562 37.0469 58.1562 37.4219 C58.1562 37.8125 58.4844 38.1562 58.8906 38.1562 C59.2969 38.1562 59.6406 37.8125 59.6406 37.4219 C59.6406 37.0469 59.2969 36.6875 58.8906 36.6875 ZM60.4688 30.5781 C60.7188 30.8906 60.875 31.2656 60.8906 31.6562 C60.8906 32.1875 60.625 32.5 60.0312 32.7656 L59.4062 33.0156 C58.6406 33.3125 58.3906 33.5469 58.3906 33.9375 C58.3906 34.1094 58.4531 34.3438 58.5781 34.8125 L58.7344 35.3438 L59.1094 35.3438 L59.0938 34.5312 C59.0938 34.0938 59.2031 33.9688 59.7812 33.7344 L60.2031 33.5625 C61.0312 33.2188 61.4531 32.6875 61.4531 31.8438 C61.4531 30.1562 59.6562 29.1875 58.5 29.0312 C58.1094 29.125 57.9062 29.2969 57.9062 29.6406 C57.9062 29.9375 58.0625 30.1562 58.7188 30.2656 L60.4688 30.5781 Z"
      /><rect x="57" y="44" width="5" style="fill:white; stroke:none;" height="10"
      /><path style="stroke:none;" d="M58.8906 52.6875 C58.4844 52.6875 58.1562 53.0469 58.1562 53.4219 C58.1562 53.8125 58.4844 54.1562 58.8906 54.1562 C59.2969 54.1562 59.6406 53.8125 59.6406 53.4219 C59.6406 53.0469 59.2969 52.6875 58.8906 52.6875 ZM60.4688 46.5781 C60.7188 46.8906 60.875 47.2656 60.8906 47.6562 C60.8906 48.1875 60.625 48.5 60.0312 48.7656 L59.4062 49.0156 C58.6406 49.3125 58.3906 49.5469 58.3906 49.9375 C58.3906 50.1094 58.4531 50.3438 58.5781 50.8125 L58.7344 51.3438 L59.1094 51.3438 L59.0938 50.5312 C59.0938 50.0938 59.2031 49.9688 59.7812 49.7344 L60.2031 49.5625 C61.0312 49.2188 61.4531 48.6875 61.4531 47.8438 C61.4531 46.1562 59.6562 45.1875 58.5 45.0312 C58.1094 45.125 57.9062 45.2969 57.9062 45.6406 C57.9062 45.9375 58.0625 46.1562 58.7188 46.2656 L60.4688 46.5781 Z"
    /></g
  ></g
></svg
>
