<?xml version="1.0"?>
<!DOCTYPE svg PUBLIC '-//W3C//DTD SVG 1.0//EN'
          'http://www.w3.org/TR/2001/REC-SVG-20010904/DTD/svg10.dtd'>
<svg xmlns:xlink="http://www.w3.org/1999/xlink" style="fill-opacity:1; color-rendering:auto; color-interpolation:auto; text-rendering:auto; stroke:black; stroke-linecap:square; stroke-miterlimit:10; shape-rendering:auto; stroke-opacity:1; fill:black; stroke-dasharray:none; font-weight:normal; stroke-width:1; font-family:'Dialog'; font-style:normal; stroke-linejoin:miter; font-size:12px; stroke-dashoffset:0; image-rendering:auto;" viewBox="0 0 263 105" xmlns="http://www.w3.org/2000/svg"
><!--Generated by the Batik Graphics2D SVG Generator--><defs id="genericDefs"
  /><g
  ><defs id="defs1"
    ><clipPath clipPathUnits="userSpaceOnUse" id="clipPath1"
      ><path style="fill-rule:evenodd;" d="M119 53 L121 60 L129 60 L122 65 L125 72 L119 68 L112 72 L115 65 L108 60 L116 60 L119 53 Z"
      /></clipPath
      ><clipPath clipPathUnits="userSpaceOnUse" id="clipPath2"
      ><path style="fill-rule:evenodd;" d="M41 53 L43 60 L51 60 L44 65 L47 72 L41 68 L34 72 L37 65 L30 60 L38 60 L41 53 Z"
      /></clipPath
    ></defs
    ><g style="fill:white; text-rendering:optimizeSpeed; stroke:white;"
    ><rect x="0" width="263" height="105" y="0" style="stroke:none;"
      /><polygon style="fill:none; stroke:black;" points=" 119 64 41 64"
      /><polygon style="clip-path:url(#clipPath1); stroke:none;" points=" 119 53 121 60 129 60 122 65 125 72 119 68 112 72 115 65 108 60 116 60 119 53"
      /><rect x="108" y="53" width="22" style="clip-path:url(#clipPath1); fill:rgb(244,121,32); stroke:none;" height="22"
      /><rect x="108" y="53" width="22" style="clip-path:url(#clipPath1); fill:none; stroke:black;" height="22"
      /><polygon style="fill:none; stroke:black;" points=" 119 53 121 60 129 60 122 65 125 72 119 68 112 72 115 65 108 60 116 60 119 53"
    /></g
    ><g style="font-style:italic; text-rendering:optimizeSpeed; font-size:10px; font-family:'SansSerif';"
    ><path style="stroke:none;" d="M119 66.125 C120.3281 66.125 121.7344 65.0938 122.125 63.2969 C122.5 61.4844 121.5469 60.4375 120.2188 60.4375 C118.8906 60.4375 117.4688 61.4844 117.0938 63.2969 C116.7031 65.0938 117.6719 66.125 119 66.125 ZM119.1719 65.375 C118.2344 65.375 117.7656 64.5469 118.0312 63.2969 C118.2969 62.0469 119.1094 61.1875 120.0469 61.1875 C120.9844 61.1875 121.4531 62.0469 121.1875 63.2969 C120.9219 64.5469 120.1094 65.375 119.1719 65.375 Z"
    /></g
    ><g style="fill:white; text-rendering:optimizeSpeed; font-size:14px; font-family:'SansSerif'; stroke:white;"
    ><rect x="82" width="72" height="14" y="33" style="stroke:none;"
      /><path d="M83.2344 48 L88.8594 48 L88.8594 46.9375 L86.7969 46.9375 L86.7969 37.7188 L85.8281 37.7188 C85.2656 38.0625 84.6094 38.2969 83.6875 38.4688 L83.6875 39.2812 L85.5156 39.2812 L85.5156 46.9375 L83.2344 46.9375 L83.2344 48 ZM90.8168 50.6562 C92.0825 50.125 92.8637 49.0781 92.8637 47.7344 C92.8637 46.7969 92.4575 46.2188 91.7856 46.2188 C91.27 46.2188 90.8168 46.5781 90.8168 47.125 C90.8168 47.7031 91.27 48.0156 91.7543 48.0156 C91.8168 48.0156 91.8637 48.0156 91.9106 48 C91.9106 48.8281 91.395 49.5156 90.5043 49.9062 L90.8168 50.6562 ZM97.3182 48.1875 C99.0526 48.1875 100.6776 46.9062 100.6776 44.6562 C100.6776 42.4062 99.287 41.3906 97.5838 41.3906 C96.9588 41.3906 96.5213 41.5469 96.0526 41.7969 L96.3026 38.8281 L100.1932 38.8281 L100.1932 37.7188 L95.1932 37.7188 L94.8651 42.5469 L95.5526 42.9531 C96.1463 42.5625 96.5682 42.3594 97.2557 42.3594 C98.5526 42.3594 99.3807 43.2188 99.3807 44.7031 C99.3807 46.1875 98.412 47.125 97.2088 47.125 C96.0213 47.125 95.2713 46.5781 94.6776 45.9844 L94.0526 46.8281 C94.7401 47.5156 95.7245 48.1875 97.3182 48.1875 ZM104.6038 42.2656 C104.9788 41.0938 105.3069 39.9844 105.6351 38.7812 L105.6819 38.7812 C106.0257 39.9844 106.3382 41.0938 106.7288 42.2656 L107.2132 43.8281 L104.1038 43.8281 L104.6038 42.2656 ZM101.4788 48 L102.7913 48 L103.7913 44.8594 L107.5413 44.8594 L108.5101 48 L109.8851 48 L106.4007 37.7188 L104.9632 37.7188 L101.4788 48 ZM111.2112 48 L112.4924 48 L112.4924 42.4844 C113.258 41.7188 113.7893 41.3281 114.5705 41.3281 C115.5862 41.3281 116.0237 41.9219 116.0237 43.3594 L116.0237 48 L117.2893 48 L117.2893 43.1875 C117.2893 41.2344 116.5705 40.2031 114.9768 40.2031 C113.9299 40.2031 113.1487 40.7812 112.4143 41.4844 L112.383 41.4844 L112.2737 40.3906 L111.2112 40.3906 L111.2112 48 ZM119.7651 48 L121.0464 48 L121.0464 42.4844 C121.812 41.7188 122.3432 41.3281 123.1245 41.3281 C124.1401 41.3281 124.5776 41.9219 124.5776 43.3594 L124.5776 48 L125.8432 48 L125.8432 43.1875 C125.8432 41.2344 125.1245 40.2031 123.5307 40.2031 C122.4839 40.2031 121.7026 40.7812 120.9995 41.4688 L121.0464 39.9062 L121.0464 36.8594 L119.7651 36.8594 L119.7651 48 ZM128.3881 51.2812 C129.9037 51.2812 130.7006 50.125 131.2162 48.625 L134.0912 40.3906 L132.8412 40.3906 L131.4975 44.625 C131.2787 45.2969 131.06 46.0625 130.8412 46.75 L130.7787 46.75 C130.5443 46.0625 130.2787 45.2812 130.0443 44.625 L128.4975 40.3906 L127.1693 40.3906 L130.2162 48.0156 L130.0443 48.5938 C129.7475 49.5312 129.2006 50.2188 128.3256 50.2188 C128.1225 50.2188 127.9037 50.1562 127.7475 50.0938 L127.4975 51.125 C127.7318 51.2188 128.0287 51.2812 128.3881 51.2812 ZM138.1508 48.1875 C139.0571 48.1875 139.8696 47.6875 140.4633 47.1094 L140.5102 47.1094 L140.6196 48 L141.6508 48 L141.6508 36.8594 L140.4008 36.8594 L140.4008 39.7812 L140.4477 41.0938 C139.7758 40.5312 139.1977 40.2031 138.3071 40.2031 C136.5727 40.2031 135.0102 41.7344 135.0102 44.2031 C135.0102 46.7344 136.2446 48.1875 138.1508 48.1875 ZM138.4321 47.125 C137.0883 47.125 136.3383 46.0312 136.3383 44.1875 C136.3383 42.4531 137.3071 41.2812 138.5258 41.2812 C139.1664 41.2812 139.7289 41.5 140.4008 42.0781 L140.4008 46.0625 C139.7446 46.7656 139.1352 47.125 138.4321 47.125 ZM144.237 48 L145.5183 48 L145.5183 43.1094 C146.0183 41.8125 146.7995 41.3594 147.4402 41.3594 C147.737 41.3594 147.9245 41.3906 148.1745 41.4844 L148.4089 40.375 C148.1745 40.25 147.9402 40.2031 147.5964 40.2031 C146.7527 40.2031 145.987 40.8125 145.4402 41.7812 L145.4089 41.7812 L145.2995 40.3906 L144.237 40.3906 L144.237 48 ZM152.6221 48.1875 C154.4971 48.1875 156.1534 46.7188 156.1534 44.2031 C156.1534 41.6719 154.4971 40.2031 152.6221 40.2031 C150.7628 40.2031 149.1065 41.6719 149.1065 44.2031 C149.1065 46.7188 150.7628 48.1875 152.6221 48.1875 ZM152.6221 47.125 C151.3096 47.125 150.4346 45.9531 150.4346 44.2031 C150.4346 42.4531 151.3096 41.2656 152.6221 41.2656 C153.9503 41.2656 154.8409 42.4531 154.8409 44.2031 C154.8409 45.9531 153.9503 47.125 152.6221 47.125 Z" style="fill:black; stroke:none;"
      /><polygon style="stroke:none; clip-path:url(#clipPath2);" points=" 41 53 43 60 51 60 44 65 47 72 41 68 34 72 37 65 30 60 38 60 41 53"
    /></g
    ><g style="fill:rgb(244,121,32); text-rendering:optimizeSpeed; stroke:rgb(244,121,32);"
    ><rect x="30" y="53" width="22" style="clip-path:url(#clipPath2); stroke:none;" height="22"
      /><rect x="30" y="53" width="22" style="clip-path:url(#clipPath2); fill:none; stroke:black;" height="22"
      /><polygon style="fill:none; stroke:black;" points=" 41 53 43 60 51 60 44 65 47 72 41 68 34 72 37 65 30 60 38 60 41 53"
      /><rect x="70" y="67" width="7" style="fill:white; stroke:none;" height="9"
      /><path d="M71 72.5156 L73.9531 68.2656 L73.9531 72.5156 L71 72.5156 ZM76.2812 72.5156 L74.8594 72.5156 L74.8594 67.125 L74.2344 67.125 L70.3438 72.6406 L70.3438 73.1875 L73.9531 73.1875 L73.9531 76 L74.8594 76 L74.8594 73.1875 L76.2812 73.1875 L76.2812 72.5156 Z" style="fill:black; stroke:none;"
      /><rect x="57" y="65" width="6" style="fill:white; stroke:none;" height="13"
      /><path d="M59.0938 71.2031 C59.0938 69.6562 59.75 68.8125 60.7969 68.8125 C61.7188 68.8125 62.2656 69.4531 62.2656 70.5156 C62.2656 71.7188 61.5 72.4375 60.1875 72.7031 L60.2969 73.3125 C62.2188 73.2344 62.9375 74.2188 62.9375 75.4375 C62.9375 76.625 62.2344 77.4219 60.9531 77.4219 C60.25 77.4219 59.6562 77.1562 59.0938 76.7188 L59.0938 71.2031 ZM58.2031 77.9062 L58.1094 80.375 L58.2656 80.4844 L59.1562 80.2656 L59.0156 77.0938 C59.5469 77.8438 60.3594 78.1719 61.1719 78.1719 C62.5625 78.1719 63.8594 77.2188 63.8594 75.4844 C63.8594 73.9531 62.875 73.1094 61.125 73 C62.5625 72.6094 63.1875 71.4531 63.1875 70.4844 C63.1875 69.0938 62.1562 68.3125 60.9062 68.3125 C59.2969 68.3125 58.2188 69.5469 58.2188 71.5156 L58.2031 77.9062 Z" style="fill:black; stroke:none;"
    /></g
  ></g
></svg
>
