<?xml version="1.0"?>
<!DOCTYPE svg PUBLIC '-//W3C//DTD SVG 1.0//EN'
          'http://www.w3.org/TR/2001/REC-SVG-20010904/DTD/svg10.dtd'>
<svg xmlns:xlink="http://www.w3.org/1999/xlink" style="fill-opacity:1; color-rendering:auto; color-interpolation:auto; text-rendering:auto; stroke:black; stroke-linecap:square; stroke-miterlimit:10; shape-rendering:auto; stroke-opacity:1; fill:black; stroke-dasharray:none; font-weight:normal; stroke-width:1; font-family:'Dialog'; font-style:normal; stroke-linejoin:miter; font-size:12px; stroke-dashoffset:0; image-rendering:auto;" viewBox="0 0 314 186" xmlns="http://www.w3.org/2000/svg"
><!--Generated by the Batik Graphics2D SVG Generator--><defs id="genericDefs"
  /><g
  ><defs id="defs1"
    ><clipPath clipPathUnits="userSpaceOnUse" id="clipPath1"
      ><path d="M208 145 C208 151.0751 203.0751 156 197 156 C190.9249 156 186 151.0751 186 145 C186 138.9249 190.9249 134 197 134 C203.0751 134 208 138.9249 208 145 Z"
      /></clipPath
      ><clipPath clipPathUnits="userSpaceOnUse" id="clipPath2"
      ><path d="M156 145 C156 151.0751 151.0751 156 145 156 C138.9249 156 134 151.0751 134 145 C134 138.9249 138.9249 134 145 134 C151.0751 134 156 138.9249 156 145 Z"
      /></clipPath
      ><clipPath clipPathUnits="userSpaceOnUse" id="clipPath3"
      ><path d="M104 145 C104 151.0751 99.0751 156 93 156 C86.9249 156 82 151.0751 82 145 C82 138.9249 86.9249 134 93 134 C99.0751 134 104 138.9249 104 145 Z"
      /></clipPath
      ><clipPath clipPathUnits="userSpaceOnUse" id="clipPath4"
      ><path d="M52 145 C52 151.0751 47.0751 156 41 156 C34.9249 156 30 151.0751 30 145 C30 138.9249 34.9249 134 41 134 C47.0751 134 52 138.9249 52 145 Z"
      /></clipPath
      ><clipPath clipPathUnits="userSpaceOnUse" id="clipPath5"
      ><path style="fill-rule:evenodd;" d="M41 82 L43 89 L51 89 L44 94 L47 101 L41 97 L34 101 L37 94 L30 89 L38 89 L41 82 Z"
      /></clipPath
      ><clipPath clipPathUnits="userSpaceOnUse" id="clipPath6"
      ><path style="fill-rule:evenodd;" d="M41 30 L43 37 L51 37 L44 42 L47 49 L41 45 L34 49 L37 42 L30 37 L38 37 L41 30 Z"
      /></clipPath
      ><clipPath clipPathUnits="userSpaceOnUse" id="clipPath7"
      ><path style="fill-rule:evenodd;" d="M93 82 L95 89 L103 89 L96 94 L99 101 L93 97 L86 101 L89 94 L82 89 L90 89 L93 82 Z"
      /></clipPath
      ><clipPath clipPathUnits="userSpaceOnUse" id="clipPath8"
      ><path style="fill-rule:evenodd;" d="M93 30 L95 37 L103 37 L96 42 L99 49 L93 45 L86 49 L89 42 L82 37 L90 37 L93 30 Z"
      /></clipPath
    ></defs
    ><g style="fill:white; text-rendering:optimizeSpeed; stroke:white;"
    ><rect x="0" width="314" height="186" y="0" style="stroke:none;"
      /><polygon style="fill:none; stroke:black;" points=" 197 145 145 145"
      /><circle style="clip-path:url(#clipPath1); stroke:none;" r="11" cx="197" cy="145"
      /><rect x="186" y="134" width="22" style="clip-path:url(#clipPath1); fill:rgb(0,144,188); stroke:none;" height="22"
      /><rect x="186" y="134" width="22" style="clip-path:url(#clipPath1); fill:none; stroke:black;" height="22"
      /><circle style="fill:none; stroke:black;" r="11" cx="197" cy="145"
    /></g
    ><g style="font-style:italic; text-rendering:optimizeSpeed; font-size:10px; font-family:'SansSerif';"
    ><path style="stroke:none;" d="M197 147.125 C198.3281 147.125 199.7344 146.0938 200.125 144.2969 C200.5 142.4844 199.5469 141.4375 198.2188 141.4375 C196.8906 141.4375 195.4688 142.4844 195.0938 144.2969 C194.7031 146.0938 195.6719 147.125 197 147.125 ZM197.1719 146.375 C196.2344 146.375 195.7656 145.5469 196.0312 144.2969 C196.2969 143.0469 197.1094 142.1875 198.0469 142.1875 C198.9844 142.1875 199.4531 143.0469 199.1875 144.2969 C198.9219 145.5469 198.1094 146.375 197.1719 146.375 Z"
      /><polygon style="fill:none;" points=" 145 145 93 145"
    /></g
    ><g style="fill:white; text-rendering:optimizeSpeed; stroke:white;"
    ><circle r="11" style="clip-path:url(#clipPath2); stroke:none;" cx="145" cy="145"
      /><rect x="134" y="134" width="22" style="clip-path:url(#clipPath2); fill:rgb(0,144,188); stroke:none;" height="22"
      /><rect x="134" y="134" width="22" style="clip-path:url(#clipPath2); fill:none; stroke:black;" height="22"
      /><circle r="11" style="fill:none; stroke:black;" cx="145" cy="145"
      /><polygon style="fill:none; stroke:black;" points=" 93 145 41 145"
      /><polygon style="fill:none; stroke:black;" points=" 93 145 93 93"
      /><circle r="11" style="clip-path:url(#clipPath3); stroke:none;" cx="93" cy="145"
      /><rect x="82" y="134" width="22" style="clip-path:url(#clipPath3); fill:rgb(0,144,188); stroke:none;" height="22"
      /><rect x="82" y="134" width="22" style="clip-path:url(#clipPath3); fill:none; stroke:black;" height="22"
      /><circle r="11" style="fill:none; stroke:black;" cx="93" cy="145"
      /><polygon style="fill:none; stroke:black;" points=" 41 145 41 93"
      /><circle r="11" style="clip-path:url(#clipPath4); stroke:none;" cx="41" cy="145"
      /><rect x="30" y="134" width="22" style="clip-path:url(#clipPath4); fill:rgb(0,144,188); stroke:none;" height="22"
      /><rect x="30" y="134" width="22" style="clip-path:url(#clipPath4); fill:none; stroke:black;" height="22"
      /><circle r="11" style="fill:none; stroke:black;" cx="41" cy="145"
      /><polygon style="fill:none; stroke:black;" points=" 41 93 41 41"
      /><polygon style="clip-path:url(#clipPath5); stroke:none;" points=" 41 82 43 89 51 89 44 94 47 101 41 97 34 101 37 94 30 89 38 89 41 82"
      /><rect x="30" y="82" width="22" style="clip-path:url(#clipPath5); fill:rgb(244,121,32); stroke:none;" height="22"
      /><rect x="30" y="82" width="22" style="clip-path:url(#clipPath5); fill:none; stroke:black;" height="22"
      /><polygon style="fill:none; stroke:black;" points=" 41 82 43 89 51 89 44 94 47 101 41 97 34 101 37 94 30 89 38 89 41 82"
      /><polygon style="clip-path:url(#clipPath6); stroke:none;" points=" 41 30 43 37 51 37 44 42 47 49 41 45 34 49 37 42 30 37 38 37 41 30"
      /><rect x="30" y="30" width="22" style="clip-path:url(#clipPath6); fill:rgb(0,166,81); stroke:none;" height="22"
      /><rect x="30" y="30" width="22" style="clip-path:url(#clipPath6); fill:none; stroke:black;" height="22"
      /><polygon style="fill:none; stroke:black;" points=" 41 30 43 37 51 37 44 42 47 49 41 45 34 49 37 42 30 37 38 37 41 30"
    /></g
    ><g style="text-rendering:optimizeSpeed; font-size:10px; font-family:'SansSerif';"
    ><path style="stroke:none;" d="M40.0625 45 L40.9844 45 L40.9844 40.3125 L42.125 40.3125 L42.125 39.5625 L40.9844 39.5625 L40.9844 38.7031 C40.9844 38.0156 41.2344 37.6406 41.75 37.6406 C41.9375 37.6406 42.1562 37.6875 42.3594 37.7812 L42.5625 37.0938 C42.3125 36.9844 41.9844 36.9062 41.6562 36.9062 C40.5625 36.9062 40.0625 37.5938 40.0625 38.7031 L40.0625 39.5625 L39.3281 39.625 L39.3281 40.3125 L40.0625 40.3125 L40.0625 45 Z"
    /></g
    ><g style="fill:white; text-rendering:optimizeSpeed; font-family:'Serif'; stroke:white;"
    ><rect x="30" width="6" height="9" y="69" style="stroke:none;"
      /><path d="M31.4219 77.0938 C32.0781 76.375 32.7031 75.7188 33.0312 75.3438 C34.9219 73.3125 35.5312 72.4688 35.5312 71.3594 C35.5312 70.0156 34.7812 69.0781 33.1562 69.0781 C31.9062 69.0781 30.7969 69.7031 30.5938 70.9688 C30.7188 71.2031 30.9062 71.3438 31.1562 71.3438 C31.4688 71.3438 31.6562 71.1094 31.7969 70.5938 L32.0938 69.6719 C32.3906 69.5938 32.6562 69.5625 32.8906 69.5625 C33.9219 69.5625 34.5469 70.3125 34.5469 71.4219 C34.5469 72.4375 33.9844 73.4219 32.7031 74.9062 C32.125 75.5781 31.3906 76.4375 30.6406 77.2812 L30.6406 78 L35.9219 78 L35.9219 77.0938 L31.4219 77.0938 Z" style="fill:black; stroke:none;"
      /><rect x="29" width="8" height="8" y="56" style="stroke:none;"
      /><path d="M33.9844 61.7031 C33.9375 62.8906 33.1562 63.6562 32.3125 63.6562 C31.2656 63.6562 30.5 62.6875 30.5 60.7188 C30.5 59.2812 31.1562 58.1562 32.3438 58.1562 C33.1406 58.1562 33.7812 58.6875 34.0938 59.6406 L33.9844 61.7031 ZM35.9062 63.2812 C35.7344 63.375 35.5469 63.4219 35.3438 63.4219 C34.9531 63.4219 34.75 63.2188 34.75 62.4219 C34.75 61.4844 34.9688 59.5312 35.1875 57.8281 L35.0312 57.7188 L34.2344 57.9219 L34.1406 58.7969 C33.7812 58.0312 33.1562 57.6562 32.3906 57.6562 C31.0469 57.6562 29.5625 58.8438 29.5625 60.9531 C29.5625 63.0938 30.7188 64.1719 32.1406 64.1719 C33.0156 64.1719 33.6875 63.8125 34.0938 62.9844 C34.2031 63.8594 34.5156 64.1719 35.0156 64.1719 C35.4688 64.1719 35.7969 63.9062 36.0156 63.5625 L35.9062 63.2812 Z" style="fill:black; stroke:none;"
      /><rect x="30" width="6" height="10" y="121" style="stroke:none;"
      /><path d="M33.3438 130.6875 C32.2031 130.6875 31.5312 129.5 31.5312 127.2969 C31.5312 127.2188 31.5312 127.125 31.5312 127.0469 C32.0938 126.5 32.7188 126.3125 33.3438 126.3125 C34.3125 126.3125 34.9531 126.9844 34.9531 128.4531 C34.9531 129.9375 34.3125 130.6875 33.3438 130.6875 ZM35.5312 122.0781 C32.3438 122.4531 30.5625 124.7656 30.5625 127.4531 C30.5625 129.7812 31.6094 131.1719 33.3125 131.1719 C34.8438 131.1719 35.9219 130.1094 35.9219 128.2812 C35.9219 126.6875 34.9688 125.6562 33.5625 125.6562 C32.8281 125.6562 32.1406 125.9844 31.5781 126.5781 C31.7969 124.4062 33.0781 122.9688 35.5938 122.3906 L35.5312 122.0781 Z" style="fill:black; stroke:none;"
      /><rect x="29" width="8" height="8" y="108" style="stroke:none;"
      /><path d="M33.9844 113.7031 C33.9375 114.8906 33.1562 115.6562 32.3125 115.6562 C31.2656 115.6562 30.5 114.6875 30.5 112.7188 C30.5 111.2812 31.1562 110.1562 32.3438 110.1562 C33.1406 110.1562 33.7812 110.6875 34.0938 111.6406 L33.9844 113.7031 ZM35.9062 115.2812 C35.7344 115.375 35.5469 115.4219 35.3438 115.4219 C34.9531 115.4219 34.75 115.2188 34.75 114.4219 C34.75 113.4844 34.9688 111.5312 35.1875 109.8281 L35.0312 109.7188 L34.2344 109.9219 L34.1406 110.7969 C33.7812 110.0312 33.1562 109.6562 32.3906 109.6562 C31.0469 109.6562 29.5625 110.8438 29.5625 112.9531 C29.5625 115.0938 30.7188 116.1719 32.1406 116.1719 C33.0156 116.1719 33.6875 115.8125 34.0938 114.9844 C34.2031 115.8594 34.5156 116.1719 35.0156 116.1719 C35.4688 116.1719 35.7969 115.9062 36.0156 115.5625 L35.9062 115.2812 Z" style="fill:black; stroke:none;"
      /><polygon style="fill:none; stroke:black;" points=" 93 93 93 41"
      /><polygon style="clip-path:url(#clipPath7); stroke:none;" points=" 93 82 95 89 103 89 96 94 99 101 93 97 86 101 89 94 82 89 90 89 93 82"
      /><rect x="82" y="82" width="22" style="clip-path:url(#clipPath7); fill:rgb(244,121,32); stroke:none;" height="22"
      /><rect x="82" y="82" width="22" style="clip-path:url(#clipPath7); fill:none; stroke:black;" height="22"
      /><polygon style="fill:none; stroke:black;" points=" 93 82 95 89 103 89 96 94 99 101 93 97 86 101 89 94 82 89 90 89 93 82"
      /><polygon style="clip-path:url(#clipPath8); stroke:none;" points=" 93 30 95 37 103 37 96 42 99 49 93 45 86 49 89 42 82 37 90 37 93 30"
      /><rect x="82" y="30" width="22" style="clip-path:url(#clipPath8); fill:rgb(0,166,81); stroke:none;" height="22"
      /><rect x="82" y="30" width="22" style="clip-path:url(#clipPath8); fill:none; stroke:black;" height="22"
      /><polygon style="fill:none; stroke:black;" points=" 93 30 95 37 103 37 96 42 99 49 93 45 86 49 89 42 82 37 90 37 93 30"
    /></g
    ><g style="text-rendering:optimizeSpeed; font-size:10px; font-family:'SansSerif';"
    ><path style="stroke:none;" d="M92.0625 45 L92.9844 45 L92.9844 40.3125 L94.125 40.3125 L94.125 39.5625 L92.9844 39.5625 L92.9844 38.7031 C92.9844 38.0156 93.2344 37.6406 93.75 37.6406 C93.9375 37.6406 94.1562 37.6875 94.3594 37.7812 L94.5625 37.0938 C94.3125 36.9844 93.9844 36.9062 93.6562 36.9062 C92.5625 36.9062 92.0625 37.5938 92.0625 38.7031 L92.0625 39.5625 L91.3281 39.625 L91.3281 40.3125 L92.0625 40.3125 L92.0625 45 Z"
    /></g
    ><g style="fill:white; text-rendering:optimizeSpeed; font-family:'Serif'; stroke:white;"
    ><rect x="82" width="6" height="9" y="69" style="stroke:none;"
      /><path d="M83.4219 77.0938 C84.0781 76.375 84.7031 75.7188 85.0312 75.3438 C86.9219 73.3125 87.5312 72.4688 87.5312 71.3594 C87.5312 70.0156 86.7812 69.0781 85.1562 69.0781 C83.9062 69.0781 82.7969 69.7031 82.5938 70.9688 C82.7188 71.2031 82.9062 71.3438 83.1562 71.3438 C83.4688 71.3438 83.6562 71.1094 83.7969 70.5938 L84.0938 69.6719 C84.3906 69.5938 84.6562 69.5625 84.8906 69.5625 C85.9219 69.5625 86.5469 70.3125 86.5469 71.4219 C86.5469 72.4375 85.9844 73.4219 84.7031 74.9062 C84.125 75.5781 83.3906 76.4375 82.6406 77.2812 L82.6406 78 L87.9219 78 L87.9219 77.0938 L83.4219 77.0938 Z" style="fill:black; stroke:none;"
      /><rect x="81" width="8" height="8" y="56" style="stroke:none;"
      /><path d="M85.9844 61.7031 C85.9375 62.8906 85.1562 63.6562 84.3125 63.6562 C83.2656 63.6562 82.5 62.6875 82.5 60.7188 C82.5 59.2812 83.1562 58.1562 84.3438 58.1562 C85.1406 58.1562 85.7812 58.6875 86.0938 59.6406 L85.9844 61.7031 ZM87.9062 63.2812 C87.7344 63.375 87.5469 63.4219 87.3438 63.4219 C86.9531 63.4219 86.75 63.2188 86.75 62.4219 C86.75 61.4844 86.9688 59.5312 87.1875 57.8281 L87.0312 57.7188 L86.2344 57.9219 L86.1406 58.7969 C85.7812 58.0312 85.1562 57.6562 84.3906 57.6562 C83.0469 57.6562 81.5625 58.8438 81.5625 60.9531 C81.5625 63.0938 82.7188 64.1719 84.1406 64.1719 C85.0156 64.1719 85.6875 63.8125 86.0938 62.9844 C86.2031 63.8594 86.5156 64.1719 87.0156 64.1719 C87.4688 64.1719 87.7969 63.9062 88.0156 63.5625 L87.9062 63.2812 Z" style="fill:black; stroke:none;"
      /><rect x="70" width="7" height="9" y="148" style="stroke:none;"
      /><path d="M71 153.5156 L73.9531 149.2656 L73.9531 153.5156 L71 153.5156 ZM76.2812 153.5156 L74.8594 153.5156 L74.8594 148.125 L74.2344 148.125 L70.3438 153.6406 L70.3438 154.1875 L73.9531 154.1875 L73.9531 157 L74.8594 157 L74.8594 154.1875 L76.2812 154.1875 L76.2812 153.5156 Z" style="fill:black; stroke:none;"
      /><rect x="57" width="6" height="13" y="146" style="stroke:none;"
      /><path d="M59.0938 152.2031 C59.0938 150.6562 59.75 149.8125 60.7969 149.8125 C61.7188 149.8125 62.2656 150.4531 62.2656 151.5156 C62.2656 152.7188 61.5 153.4375 60.1875 153.7031 L60.2969 154.3125 C62.2188 154.2344 62.9375 155.2188 62.9375 156.4375 C62.9375 157.625 62.2344 158.4219 60.9531 158.4219 C60.25 158.4219 59.6562 158.1562 59.0938 157.7188 L59.0938 152.2031 ZM58.2031 158.9062 L58.1094 161.375 L58.2656 161.4844 L59.1562 161.2656 L59.0156 158.0938 C59.5469 158.8438 60.3594 159.1719 61.1719 159.1719 C62.5625 159.1719 63.8594 158.2188 63.8594 156.4844 C63.8594 154.9531 62.875 154.1094 61.125 154 C62.5625 153.6094 63.1875 152.4531 63.1875 151.4844 C63.1875 150.0938 62.1562 149.3125 60.9062 149.3125 C59.2969 149.3125 58.2188 150.5469 58.2188 152.5156 L58.2031 158.9062 Z" style="fill:black; stroke:none;"
      /><rect x="82" width="6" height="10" y="121" style="stroke:none;"
      /><path d="M85.3438 130.6875 C84.2031 130.6875 83.5312 129.5 83.5312 127.2969 C83.5312 127.2188 83.5312 127.125 83.5312 127.0469 C84.0938 126.5 84.7188 126.3125 85.3438 126.3125 C86.3125 126.3125 86.9531 126.9844 86.9531 128.4531 C86.9531 129.9375 86.3125 130.6875 85.3438 130.6875 ZM87.5312 122.0781 C84.3438 122.4531 82.5625 124.7656 82.5625 127.4531 C82.5625 129.7812 83.6094 131.1719 85.3125 131.1719 C86.8438 131.1719 87.9219 130.1094 87.9219 128.2812 C87.9219 126.6875 86.9688 125.6562 85.5625 125.6562 C84.8281 125.6562 84.1406 125.9844 83.5781 126.5781 C83.7969 124.4062 85.0781 122.9688 87.5938 122.3906 L87.5312 122.0781 Z" style="fill:black; stroke:none;"
      /><rect x="81" width="8" height="8" y="108" style="stroke:none;"
      /><path d="M85.9844 113.7031 C85.9375 114.8906 85.1562 115.6562 84.3125 115.6562 C83.2656 115.6562 82.5 114.6875 82.5 112.7188 C82.5 111.2812 83.1562 110.1562 84.3438 110.1562 C85.1406 110.1562 85.7812 110.6875 86.0938 111.6406 L85.9844 113.7031 ZM87.9062 115.2812 C87.7344 115.375 87.5469 115.4219 87.3438 115.4219 C86.9531 115.4219 86.75 115.2188 86.75 114.4219 C86.75 113.4844 86.9688 111.5312 87.1875 109.8281 L87.0312 109.7188 L86.2344 109.9219 L86.1406 110.7969 C85.7812 110.0312 85.1562 109.6562 84.3906 109.6562 C83.0469 109.6562 81.5625 110.8438 81.5625 112.9531 C81.5625 115.0938 82.7188 116.1719 84.1406 116.1719 C85.0156 116.1719 85.6875 115.8125 86.0938 114.9844 C86.2031 115.8594 86.5156 116.1719 87.0156 116.1719 C87.4688 116.1719 87.7969 115.9062 88.0156 115.5625 L87.9062 115.2812 Z" style="fill:black; stroke:none;"
      /><rect x="122" width="7" height="9" y="148" style="stroke:none;"
      /><path d="M123 153.5156 L125.9531 149.2656 L125.9531 153.5156 L123 153.5156 ZM128.2812 153.5156 L126.8594 153.5156 L126.8594 148.125 L126.2344 148.125 L122.3438 153.6406 L122.3438 154.1875 L125.9531 154.1875 L125.9531 157 L126.8594 157 L126.8594 154.1875 L128.2812 154.1875 L128.2812 153.5156 Z" style="fill:black; stroke:none;"
      /><rect x="109" width="6" height="13" y="146" style="stroke:none;"
      /><path d="M111.0938 152.2031 C111.0938 150.6562 111.75 149.8125 112.7969 149.8125 C113.7188 149.8125 114.2656 150.4531 114.2656 151.5156 C114.2656 152.7188 113.5 153.4375 112.1875 153.7031 L112.2969 154.3125 C114.2188 154.2344 114.9375 155.2188 114.9375 156.4375 C114.9375 157.625 114.2344 158.4219 112.9531 158.4219 C112.25 158.4219 111.6562 158.1562 111.0938 157.7188 L111.0938 152.2031 ZM110.2031 158.9062 L110.1094 161.375 L110.2656 161.4844 L111.1562 161.2656 L111.0156 158.0938 C111.5469 158.8438 112.3594 159.1719 113.1719 159.1719 C114.5625 159.1719 115.8594 158.2188 115.8594 156.4844 C115.8594 154.9531 114.875 154.1094 113.125 154 C114.5625 153.6094 115.1875 152.4531 115.1875 151.4844 C115.1875 150.0938 114.1562 149.3125 112.9062 149.3125 C111.2969 149.3125 110.2188 150.5469 110.2188 152.5156 L110.2031 158.9062 Z" style="fill:black; stroke:none;"
      /><rect x="174" width="7" height="9" y="148" style="stroke:none;"
      /><path d="M175 153.5156 L177.9531 149.2656 L177.9531 153.5156 L175 153.5156 ZM180.2812 153.5156 L178.8594 153.5156 L178.8594 148.125 L178.2344 148.125 L174.3438 153.6406 L174.3438 154.1875 L177.9531 154.1875 L177.9531 157 L178.8594 157 L178.8594 154.1875 L180.2812 154.1875 L180.2812 153.5156 Z" style="fill:black; stroke:none;"
      /><rect x="161" width="6" height="13" y="146" style="stroke:none;"
      /><path d="M163.0938 152.2031 C163.0938 150.6562 163.75 149.8125 164.7969 149.8125 C165.7188 149.8125 166.2656 150.4531 166.2656 151.5156 C166.2656 152.7188 165.5 153.4375 164.1875 153.7031 L164.2969 154.3125 C166.2188 154.2344 166.9375 155.2188 166.9375 156.4375 C166.9375 157.625 166.2344 158.4219 164.9531 158.4219 C164.25 158.4219 163.6562 158.1562 163.0938 157.7188 L163.0938 152.2031 ZM162.2031 158.9062 L162.1094 161.375 L162.2656 161.4844 L163.1562 161.2656 L163.0156 158.0938 C163.5469 158.8438 164.3594 159.1719 165.1719 159.1719 C166.5625 159.1719 167.8594 158.2188 167.8594 156.4844 C167.8594 154.9531 166.875 154.1094 165.125 154 C166.5625 153.6094 167.1875 152.4531 167.1875 151.4844 C167.1875 150.0938 166.1562 149.3125 164.9062 149.3125 C163.2969 149.3125 162.2188 150.5469 162.2188 152.5156 L162.2031 158.9062 Z" style="fill:black; stroke:none;"
    /></g
  ></g
></svg
>
