<?xml version="1.0"?>
<!DOCTYPE svg PUBLIC '-//W3C//DTD SVG 1.0//EN'
          'http://www.w3.org/TR/2001/REC-SVG-20010904/DTD/svg10.dtd'>
<svg xmlns:xlink="http://www.w3.org/1999/xlink" style="fill-opacity:1; color-rendering:auto; color-interpolation:auto; text-rendering:auto; stroke:black; stroke-linecap:square; stroke-miterlimit:10; shape-rendering:auto; stroke-opacity:1; fill:black; stroke-dasharray:none; font-weight:normal; stroke-width:1; font-family:'Dialog'; font-style:normal; stroke-linejoin:miter; font-size:12px; stroke-dashoffset:0; image-rendering:auto;" viewBox="0 0 134 120" xmlns="http://www.w3.org/2000/svg"
><!--Generated by the Batik Graphics2D SVG Generator--><defs id="genericDefs"
  /><g
  ><defs id="defs1"
    ><clipPath clipPathUnits="userSpaceOnUse" id="clipPath1"
      ><path style="fill-rule:evenodd;" d="M41 30 L51 37 L47 49 L34 49 L30 37 L41 30 Z"
      /></clipPath
    ></defs
    ><g style="fill:white; text-rendering:optimizeSpeed; stroke:white;"
    ><rect x="0" width="134" height="120" y="0" style="stroke:none;"
      /><polygon style="fill:none; stroke:black;" points=" 93 41 41 41"
      /><path d="M93 30 C87.5 35.5 98.5 46.5 93 52" style="fill:none; stroke:black;"
      /><polygon style="clip-path:url(#clipPath1); stroke:none;" points=" 41 30 51 37 47 49 34 49 30 37 41 30"
      /><rect x="30" y="30" width="22" style="clip-path:url(#clipPath1); stroke:none;" height="22"
      /><rect x="30" y="30" width="22" style="clip-path:url(#clipPath1); fill:none; stroke:black;" height="22"
      /><polygon style="fill:none; stroke:black;" points=" 41 30 51 37 47 49 34 49 30 37 41 30"
    /></g
    ><g style="text-rendering:optimizeSpeed; font-size:14px; font-family:'SansSerif';"
    ><path style="stroke:none;" d="M39.2344 46 L44.8594 46 L44.8594 44.9375 L42.7969 44.9375 L42.7969 35.7188 L41.8281 35.7188 C41.2656 36.0625 40.6094 36.2969 39.6875 36.4688 L39.6875 37.2812 L41.5156 37.2812 L41.5156 44.9375 L39.2344 44.9375 L39.2344 46 Z"
      /><rect x="33" y="58" width="14" style="fill:white; stroke:none;" height="11"
      /><path style="stroke:none;" d="M36.7031 69.1875 C38.5156 69.1875 39.9844 68.0938 39.9844 66.25 C39.9844 64.8594 39.0156 63.9375 37.8125 63.6562 L37.8125 63.5938 C38.8906 63.1875 39.6406 62.3594 39.6406 61.125 C39.6406 59.5 38.375 58.5469 36.6562 58.5469 C35.4688 58.5469 34.5469 59.0625 33.7812 59.7812 L34.4688 60.5938 C35.0469 60 35.7656 59.5938 36.5938 59.5938 C37.6562 59.5938 38.3281 60.2344 38.3281 61.2188 C38.3281 62.3281 37.6094 63.1719 35.4844 63.1719 L35.4844 64.1562 C37.8594 64.1562 38.6875 64.9844 38.6875 66.2031 C38.6875 67.3906 37.8125 68.125 36.5938 68.125 C35.4375 68.125 34.6562 67.5781 34.0469 66.9375 L33.4062 67.7812 C34.0781 68.5156 35.0938 69.1875 36.7031 69.1875 ZM44.645 69.1875 C45.5512 69.1875 46.3637 68.6875 46.9575 68.1094 L47.0043 68.1094 L47.1137 69 L48.145 69 L48.145 57.8594 L46.895 57.8594 L46.895 60.7812 L46.9418 62.0938 C46.27 61.5312 45.6918 61.2031 44.8012 61.2031 C43.0668 61.2031 41.5043 62.7344 41.5043 65.2031 C41.5043 67.7344 42.7387 69.1875 44.645 69.1875 ZM44.9262 68.125 C43.5825 68.125 42.8325 67.0312 42.8325 65.1875 C42.8325 63.4531 43.8012 62.2812 45.02 62.2812 C45.6606 62.2812 46.2231 62.5 46.895 63.0781 L46.895 67.0625 C46.2387 67.7656 45.6293 68.125 44.9262 68.125 Z"
    /></g
    ><g style="fill:white; text-rendering:optimizeSpeed; font-family:'Serif'; stroke:white;"
    ><rect x="57" width="5" height="10" y="44" style="stroke:none;"
      /><path d="M58.8906 52.6875 C58.4844 52.6875 58.1562 53.0469 58.1562 53.4219 C58.1562 53.8125 58.4844 54.1562 58.8906 54.1562 C59.2969 54.1562 59.6406 53.8125 59.6406 53.4219 C59.6406 53.0469 59.2969 52.6875 58.8906 52.6875 ZM60.4688 46.5781 C60.7188 46.8906 60.875 47.2656 60.8906 47.6562 C60.8906 48.1875 60.625 48.5 60.0312 48.7656 L59.4062 49.0156 C58.6406 49.3125 58.3906 49.5469 58.3906 49.9375 C58.3906 50.1094 58.4531 50.3438 58.5781 50.8125 L58.7344 51.3438 L59.1094 51.3438 L59.0938 50.5312 C59.0938 50.0938 59.2031 49.9688 59.7812 49.7344 L60.2031 49.5625 C61.0312 49.2188 61.4531 48.6875 61.4531 47.8438 C61.4531 46.1562 59.6562 45.1875 58.5 45.0312 C58.1094 45.125 57.9062 45.2969 57.9062 45.6406 C57.9062 45.9375 58.0625 46.1562 58.7188 46.2656 L60.4688 46.5781 Z" style="fill:black; stroke:none;"
    /></g
    ><g ID="legend-1:0" style="text-rendering:optimizeSpeed; font-size:10px; font-family:'SansSerif';"
    ><path style="stroke:none;" d="M30.875 90 L34.9062 90 L34.9062 89.2344 L33.4375 89.2344 L33.4375 82.6562 L32.7344 82.6562 C32.3281 82.9062 31.8594 83.0625 31.2031 83.1875 L31.2031 83.7656 L32.5156 83.7656 L32.5156 89.2344 L30.875 89.2344 L30.875 90 ZM35.925 85.4531 L40.7219 85.4531 L40.7219 84.7656 L35.925 84.7656 L35.925 85.4531 ZM35.925 87.8438 L40.7219 87.8438 L40.7219 87.1719 L35.925 87.1719 L35.925 87.8438 ZM42.8812 87.7969 L43.6937 87.7969 C43.5062 86.2188 45.3031 85.625 45.3031 84.1562 C45.3031 83.0625 44.5687 82.375 43.4437 82.375 C42.6312 82.375 41.9906 82.7656 41.5375 83.2969 L42.0531 83.7812 C42.3969 83.375 42.8344 83.1406 43.3344 83.1406 C44.0531 83.1406 44.4125 83.625 44.4125 84.2188 C44.4125 85.4062 42.6469 86.0469 42.8812 87.7969 ZM43.3031 90.125 C43.6781 90.125 43.975 89.8438 43.975 89.4375 C43.975 89.0156 43.6781 88.7344 43.3031 88.7344 C42.9437 88.7344 42.6469 89.0156 42.6469 89.4375 C42.6469 89.8438 42.9437 90.125 43.3031 90.125 ZM46.2931 87.5469 L48.8556 87.5469 L48.8556 86.8438 L46.2931 86.8438 L46.2931 87.5469 ZM51.9506 90.125 C53.2475 90.125 54.2943 89.3438 54.2943 88.0469 C54.2943 87.0469 53.6068 86.375 52.7475 86.1875 L52.7475 86.1406 C53.5131 85.8438 54.0443 85.2656 54.0443 84.375 C54.0443 83.2031 53.1537 82.5312 51.9193 82.5312 C51.0756 82.5312 50.4193 82.9062 49.8725 83.4062 L50.3568 83.9844 C50.7631 83.5625 51.2943 83.2812 51.8725 83.2812 C52.6381 83.2812 53.1225 83.7344 53.1225 84.4375 C53.1225 85.2344 52.6068 85.8438 51.0912 85.8438 L51.0912 86.5469 C52.7787 86.5469 53.3725 87.125 53.3725 88 C53.3725 88.8438 52.7475 89.375 51.8725 89.375 C51.0443 89.375 50.4975 88.9844 50.06 88.5312 L49.6068 89.125 C50.0756 89.6562 50.7943 90.125 51.9506 90.125 ZM55.3131 87.5469 L57.8756 87.5469 L57.8756 86.8438 L55.3131 86.8438 L55.3131 87.5469 ZM61.0956 90.125 C61.7518 90.125 62.3143 89.7812 62.7518 89.3594 L62.7831 89.3594 L62.8612 90 L63.5956 90 L63.5956 82.0469 L62.705 82.0469 L62.705 84.125 L62.7362 85.0625 C62.2675 84.6719 61.8456 84.4375 61.205 84.4375 C59.9706 84.4375 58.8612 85.5312 58.8612 87.2969 C58.8612 89.0938 59.7362 90.125 61.0956 90.125 ZM61.2987 89.375 C60.3456 89.375 59.7987 88.5938 59.7987 87.2812 C59.7987 86.0469 60.4862 85.2031 61.3768 85.2031 C61.8143 85.2031 62.2362 85.3594 62.705 85.7656 L62.705 88.625 C62.2362 89.125 61.7987 89.375 61.2987 89.375 ZM67.6393 90.125 C68.3737 90.125 68.9675 89.875 69.4362 89.5625 L69.1081 88.9688 C68.7175 89.2344 68.28 89.4062 67.7487 89.4062 C66.7175 89.4062 66.0143 88.6562 65.9518 87.5 L69.6081 87.5 C69.6237 87.375 69.655 87.1875 69.655 86.9844 C69.655 85.4375 68.8737 84.4375 67.4831 84.4375 C66.2331 84.4375 65.0456 85.5312 65.0456 87.2969 C65.0456 89.0781 66.2018 90.125 67.6393 90.125 ZM65.9362 86.8438 C66.0456 85.7812 66.7331 85.1562 67.4987 85.1562 C68.3425 85.1562 68.8425 85.75 68.8425 86.8438 L65.9362 86.8438 ZM73.1012 90.125 C74.4293 90.125 75.6168 89.0938 75.6168 87.2969 C75.6168 85.4844 74.4293 84.4375 73.1012 84.4375 C71.7731 84.4375 70.5856 85.4844 70.5856 87.2969 C70.5856 89.0938 71.7731 90.125 73.1012 90.125 ZM73.1012 89.375 C72.1637 89.375 71.5231 88.5469 71.5231 87.2969 C71.5231 86.0469 72.1637 85.1875 73.1012 85.1875 C74.0387 85.1875 74.6793 86.0469 74.6793 87.2969 C74.6793 88.5469 74.0387 89.375 73.1012 89.375 ZM76.2862 90 L77.2393 90 L77.9737 88.7344 C78.1612 88.4062 78.3331 88.0625 78.5362 87.7656 L78.5831 87.7656 C78.7862 88.0625 78.9737 88.4062 79.1612 88.7344 L79.9581 90 L80.9581 90 L79.1768 87.2656 L80.8174 84.5625 L79.8643 84.5625 L79.1924 85.7656 C79.0362 86.0625 78.8799 86.375 78.7081 86.6719 L78.6768 86.6719 C78.4893 86.375 78.3018 86.0625 78.1299 85.7656 L77.3956 84.5625 L76.4268 84.5625 L78.0674 87.1719 L76.2862 90 ZM82.1256 92.3438 C83.2037 92.3438 83.7662 91.5156 84.1412 90.4531 L86.1881 84.5625 L85.2974 84.5625 L84.3287 87.5938 C84.1724 88.0625 84.0162 88.625 83.8756 89.1094 L83.8131 89.1094 C83.6568 88.625 83.4537 88.0625 83.2974 87.5938 L82.1881 84.5625 L81.2349 84.5625 L83.4224 90.0156 L83.2974 90.4219 C83.0787 91.0938 82.6881 91.5938 82.0631 91.5938 C81.9224 91.5938 81.7662 91.5469 81.6568 91.5 L81.4849 92.2344 C81.6568 92.2969 81.8599 92.3438 82.1256 92.3438 ZM86.7731 87.5469 L89.3356 87.5469 L89.3356 86.8438 L86.7731 86.8438 L86.7731 87.5469 ZM90.7899 90 L92.6649 90 C94.8837 90 96.0868 88.625 96.0868 86.3125 C96.0868 83.9844 94.8837 82.6562 92.6337 82.6562 L90.7899 82.6562 L90.7899 90 ZM91.7274 89.2344 L91.7274 83.4219 L92.5556 83.4219 C94.2743 83.4219 95.1337 84.4531 95.1337 86.3125 C95.1337 88.1562 94.2743 89.2344 92.5556 89.2344 L91.7274 89.2344 ZM97.1131 87.5469 L99.6756 87.5469 L99.6756 86.8438 L97.1131 86.8438 L97.1131 87.5469 ZM103.2393 90.125 C103.9737 90.125 104.5674 89.875 105.0362 89.5625 L104.7081 88.9688 C104.3174 89.2344 103.8799 89.4062 103.3487 89.4062 C102.3174 89.4062 101.6143 88.6562 101.5518 87.5 L105.2081 87.5 C105.2237 87.375 105.2549 87.1875 105.2549 86.9844 C105.2549 85.4375 104.4737 84.4375 103.0831 84.4375 C101.8331 84.4375 100.6456 85.5312 100.6456 87.2969 C100.6456 89.0781 101.8018 90.125 103.2393 90.125 ZM101.5362 86.8438 C101.6456 85.7812 102.3331 85.1562 103.0987 85.1562 C103.9424 85.1562 104.4424 85.75 104.4424 86.8438 L101.5362 86.8438 ZM106.5918 90 L107.498 90 L107.498 86.5156 C107.8574 85.5781 108.4199 85.2656 108.873 85.2656 C109.0918 85.2656 109.2168 85.2812 109.4043 85.3438 L109.5762 84.5469 C109.4043 84.4531 109.2324 84.4375 108.9824 84.4375 C108.373 84.4375 107.8262 84.875 107.4512 85.5625 L107.4199 85.5625 L107.3418 84.5625 L106.5918 84.5625 L106.5918 90 ZM110.5655 92.3438 C111.6437 92.3438 112.2062 91.5156 112.5812 90.4531 L114.628 84.5625 L113.7374 84.5625 L112.7687 87.5938 C112.6124 88.0625 112.4562 88.625 112.3155 89.1094 L112.253 89.1094 C112.0968 88.625 111.8937 88.0625 111.7374 87.5938 L110.628 84.5625 L109.6749 84.5625 L111.8624 90.0156 L111.7374 90.4219 C111.5187 91.0938 111.128 91.5938 110.503 91.5938 C110.3624 91.5938 110.2062 91.5469 110.0968 91.5 L109.9249 92.2344 C110.0968 92.2969 110.2999 92.3438 110.5655 92.3438 ZM115.7599 90 L116.6974 90 L116.6974 87.0938 L117.9005 87.0938 C119.5099 87.0938 120.6037 86.375 120.6037 84.8125 C120.6037 83.2188 119.4943 82.6562 117.8537 82.6562 L115.7599 82.6562 L115.7599 90 ZM116.6974 86.3438 L116.6974 83.4219 L117.7443 83.4219 C119.0255 83.4219 119.6818 83.7656 119.6818 84.8125 C119.6818 85.875 119.0724 86.3438 117.7755 86.3438 L116.6974 86.3438 ZM124.1893 90.125 C124.9236 90.125 125.5174 89.875 125.9861 89.5625 L125.658 88.9688 C125.2674 89.2344 124.8299 89.4062 124.2986 89.4062 C123.2674 89.4062 122.5643 88.6562 122.5018 87.5 L126.158 87.5 C126.1736 87.375 126.2049 87.1875 126.2049 86.9844 C126.2049 85.4375 125.4236 84.4375 124.033 84.4375 C122.783 84.4375 121.5955 85.5312 121.5955 87.2969 C121.5955 89.0781 122.7518 90.125 124.1893 90.125 ZM122.4861 86.8438 C122.5955 85.7812 123.283 85.1562 124.0486 85.1562 C124.8924 85.1562 125.3924 85.75 125.3924 86.8438 L122.4861 86.8438 ZM127.5418 90 L128.448 90 L128.448 86.0625 C128.9949 85.5156 129.3855 85.2344 129.9324 85.2344 C130.6668 85.2344 130.9636 85.6562 130.9636 86.6875 L130.9636 90 L131.8855 90 L131.8855 86.5625 C131.8855 85.1719 131.3543 84.4375 130.2136 84.4375 C129.4793 84.4375 128.9168 84.8438 128.4011 85.3438 L128.3699 85.3438 L128.2918 84.5625 L127.5418 84.5625 L127.5418 90 ZM133.6518 92.2969 L134.558 92.2969 L134.558 90.4531 L134.5424 89.5 C135.0268 89.9062 135.5424 90.125 136.0424 90.125 C137.2924 90.125 138.4018 89.0625 138.4018 87.2031 C138.4018 85.5312 137.6361 84.4375 136.2455 84.4375 C135.6049 84.4375 134.9955 84.7969 134.5111 85.1875 L134.4799 85.1875 L134.4018 84.5625 L133.6518 84.5625 L133.6518 92.2969 ZM135.8861 89.375 C135.5268 89.375 135.0424 89.2188 134.558 88.7969 L134.558 85.9531 C135.0893 85.4531 135.558 85.2031 136.0268 85.2031 C137.0424 85.2031 137.4486 86.0156 137.4486 87.2031 C137.4486 88.5625 136.7924 89.375 135.8861 89.375 Z"
    /></g
  ></g
></svg
>
