<?xml version="1.0"?>
<!DOCTYPE svg PUBLIC '-//W3C//DTD SVG 1.0//EN'
          'http://www.w3.org/TR/2001/REC-SVG-20010904/DTD/svg10.dtd'>
<svg xmlns:xlink="http://www.w3.org/1999/xlink" style="fill-opacity:1; color-rendering:auto; color-interpolation:auto; text-rendering:auto; stroke:black; stroke-linecap:square; stroke-miterlimit:10; shape-rendering:auto; stroke-opacity:1; fill:black; stroke-dasharray:none; font-weight:normal; stroke-width:1; font-family:'Dialog'; font-style:normal; stroke-linejoin:miter; font-size:12px; stroke-dashoffset:0; image-rendering:auto;" viewBox="0 0 126 276" xmlns="http://www.w3.org/2000/svg"
><!--Generated by the Batik Graphics2D SVG Generator--><defs id="genericDefs"
  /><g
  ><defs id="defs1"
    ><clipPath clipPathUnits="userSpaceOnUse" id="clipPath1"
      ><path style="fill-rule:evenodd;" d="M41 209 L51 216 L47 228 L34 228 L30 216 L41 209 Z"
      /></clipPath
      ><clipPath clipPathUnits="userSpaceOnUse" id="clipPath2"
      ><path style="fill-rule:evenodd;" d="M41 134 L52 156 L30 156 Z"
      /></clipPath
      ><clipPath clipPathUnits="userSpaceOnUse" id="clipPath3"
      ><path d="M30 82 L52 82 L52 104 L30 104 L30 82 Z"
      /></clipPath
      ><clipPath clipPathUnits="userSpaceOnUse" id="clipPath4"
      ><path d="M52 41 C52 47.0751 47.0751 52 41 52 C34.9249 52 30 47.0751 30 41 C30 34.9249 34.9249 30 41 30 C47.0751 30 52 34.9249 52 41 Z"
      /></clipPath
    ></defs
    ><g style="fill:white; text-rendering:optimizeSpeed; stroke:white;"
    ><rect x="0" width="126" height="276" y="0" style="stroke:none;"
      /><polygon style="clip-path:url(#clipPath1); stroke:none;" points=" 41 209 51 216 47 228 34 228 30 216 41 209"
      /><rect x="30" y="209" width="22" style="clip-path:url(#clipPath1); stroke:none;" height="22"
      /><rect x="30" y="209" width="22" style="clip-path:url(#clipPath1); fill:none; stroke:black;" height="22"
      /><polygon style="fill:none; stroke:black;" points=" 41 209 51 216 47 228 34 228 30 216 41 209"
    /></g
    ><g style="text-rendering:optimizeSpeed; font-size:14px; font-family:'SansSerif';"
    ><path style="stroke:none;" d="M39.2344 225 L44.8594 225 L44.8594 223.9375 L42.7969 223.9375 L42.7969 214.7188 L41.8281 214.7188 C41.2656 215.0625 40.6094 215.2969 39.6875 215.4688 L39.6875 216.2812 L41.5156 216.2812 L41.5156 223.9375 L39.2344 223.9375 L39.2344 225 Z"
      /><rect x="33" y="191" width="14" style="fill:white; stroke:none;" height="11"
      /><path style="stroke:none;" d="M34.6094 198.1562 L36.9531 194.6562 C37.2344 194.1406 37.5156 193.6406 37.7812 193.1406 L37.8281 193.1406 C37.7969 193.6719 37.7656 194.5 37.7656 195 L37.7656 198.1562 L34.6094 198.1562 ZM37.7656 202 L38.9688 202 L38.9688 199.1719 L40.3281 199.1719 L40.3281 198.1562 L38.9688 198.1562 L38.9688 191.7188 L37.5469 191.7188 L33.2812 198.3281 L33.2812 199.1719 L37.7656 199.1719 L37.7656 202 ZM44.645 202.1875 C45.5512 202.1875 46.3637 201.6875 46.9575 201.1094 L47.0043 201.1094 L47.1137 202 L48.145 202 L48.145 190.8594 L46.895 190.8594 L46.895 193.7812 L46.9418 195.0938 C46.27 194.5312 45.6918 194.2031 44.8012 194.2031 C43.0668 194.2031 41.5043 195.7344 41.5043 198.2031 C41.5043 200.7344 42.7387 202.1875 44.645 202.1875 ZM44.9262 201.125 C43.5825 201.125 42.8325 200.0312 42.8325 198.1875 C42.8325 196.4531 43.8012 195.2812 45.02 195.2812 C45.6606 195.2812 46.2231 195.5 46.895 196.0781 L46.895 200.0625 C46.2387 200.7656 45.6293 201.125 44.9262 201.125 Z"
    /></g
    ><g style="fill:white; text-rendering:optimizeSpeed; font-family:'Serif'; stroke:white;"
    ><rect x="57" width="5" height="10" y="207" style="stroke:none;"
      /><path d="M58.8906 215.6875 C58.4844 215.6875 58.1562 216.0469 58.1562 216.4219 C58.1562 216.8125 58.4844 217.1562 58.8906 217.1562 C59.2969 217.1562 59.6406 216.8125 59.6406 216.4219 C59.6406 216.0469 59.2969 215.6875 58.8906 215.6875 ZM60.4688 209.5781 C60.7188 209.8906 60.875 210.2656 60.8906 210.6562 C60.8906 211.1875 60.625 211.5 60.0312 211.7656 L59.4062 212.0156 C58.6406 212.3125 58.3906 212.5469 58.3906 212.9375 C58.3906 213.1094 58.4531 213.3438 58.5781 213.8125 L58.7344 214.3438 L59.1094 214.3438 L59.0938 213.5312 C59.0938 213.0938 59.2031 212.9688 59.7812 212.7344 L60.2031 212.5625 C61.0312 212.2188 61.4531 211.6875 61.4531 210.8438 C61.4531 209.1562 59.6562 208.1875 58.5 208.0312 C58.1094 208.125 57.9062 208.2969 57.9062 208.6406 C57.9062 208.9375 58.0625 209.1562 58.7188 209.2656 L60.4688 209.5781 Z" style="fill:black; stroke:none;"
      /><rect x="57" width="5" height="10" y="223" style="stroke:none;"
      /><path d="M58.8906 231.6875 C58.4844 231.6875 58.1562 232.0469 58.1562 232.4219 C58.1562 232.8125 58.4844 233.1562 58.8906 233.1562 C59.2969 233.1562 59.6406 232.8125 59.6406 232.4219 C59.6406 232.0469 59.2969 231.6875 58.8906 231.6875 ZM60.4688 225.5781 C60.7188 225.8906 60.875 226.2656 60.8906 226.6562 C60.8906 227.1875 60.625 227.5 60.0312 227.7656 L59.4062 228.0156 C58.6406 228.3125 58.3906 228.5469 58.3906 228.9375 C58.3906 229.1094 58.4531 229.3438 58.5781 229.8125 L58.7344 230.3438 L59.1094 230.3438 L59.0938 229.5312 C59.0938 229.0938 59.2031 228.9688 59.7812 228.7344 L60.2031 228.5625 C61.0312 228.2188 61.4531 227.6875 61.4531 226.8438 C61.4531 225.1562 59.6562 224.1875 58.5 224.0312 C58.1094 224.125 57.9062 224.2969 57.9062 224.6406 C57.9062 224.9375 58.0625 225.1562 58.7188 225.2656 L60.4688 225.5781 Z" style="fill:black; stroke:none;"
      /><polygon style="clip-path:url(#clipPath2); stroke:none;" points=" 41 134 52 156 30 156"
      /><rect x="30" y="134" width="22" style="clip-path:url(#clipPath2); fill:rgb(0,166,81); stroke:none;" height="22"
      /><rect x="30" y="134" width="22" style="clip-path:url(#clipPath2); fill:none; stroke:black;" height="22"
      /><polygon style="fill:none; stroke:black;" points=" 41 134 52 156 30 156"
    /></g
    ><g style="text-rendering:optimizeSpeed; font-size:10px; font-family:'SansSerif';"
    ><path style="stroke:none;" d="M39 148 L40.875 148 C43.0938 148 44.2969 146.625 44.2969 144.3125 C44.2969 141.9844 43.0938 140.6562 40.8438 140.6562 L39 140.6562 L39 148 ZM39.9375 147.2344 L39.9375 141.4219 L40.7656 141.4219 C42.4844 141.4219 43.3438 142.4531 43.3438 144.3125 C43.3438 146.1562 42.4844 147.2344 40.7656 147.2344 L39.9375 147.2344 Z"
    /></g
    ><g style="fill:white; text-rendering:optimizeSpeed; font-family:'Serif'; stroke:white;"
    ><rect x="57" width="5" height="10" y="132" style="stroke:none;"
      /><path d="M58.8906 140.6875 C58.4844 140.6875 58.1562 141.0469 58.1562 141.4219 C58.1562 141.8125 58.4844 142.1562 58.8906 142.1562 C59.2969 142.1562 59.6406 141.8125 59.6406 141.4219 C59.6406 141.0469 59.2969 140.6875 58.8906 140.6875 ZM60.4688 134.5781 C60.7188 134.8906 60.875 135.2656 60.8906 135.6562 C60.8906 136.1875 60.625 136.5 60.0312 136.7656 L59.4062 137.0156 C58.6406 137.3125 58.3906 137.5469 58.3906 137.9375 C58.3906 138.1094 58.4531 138.3438 58.5781 138.8125 L58.7344 139.3438 L59.1094 139.3438 L59.0938 138.5312 C59.0938 138.0938 59.2031 137.9688 59.7812 137.7344 L60.2031 137.5625 C61.0312 137.2188 61.4531 136.6875 61.4531 135.8438 C61.4531 134.1562 59.6562 133.1875 58.5 133.0312 C58.1094 133.125 57.9062 133.2969 57.9062 133.6406 C57.9062 133.9375 58.0625 134.1562 58.7188 134.2656 L60.4688 134.5781 Z" style="fill:black; stroke:none;"
      /><rect x="57" width="5" height="10" y="148" style="stroke:none;"
      /><path d="M58.8906 156.6875 C58.4844 156.6875 58.1562 157.0469 58.1562 157.4219 C58.1562 157.8125 58.4844 158.1562 58.8906 158.1562 C59.2969 158.1562 59.6406 157.8125 59.6406 157.4219 C59.6406 157.0469 59.2969 156.6875 58.8906 156.6875 ZM60.4688 150.5781 C60.7188 150.8906 60.875 151.2656 60.8906 151.6562 C60.8906 152.1875 60.625 152.5 60.0312 152.7656 L59.4062 153.0156 C58.6406 153.3125 58.3906 153.5469 58.3906 153.9375 C58.3906 154.1094 58.4531 154.3438 58.5781 154.8125 L58.7344 155.3438 L59.1094 155.3438 L59.0938 154.5312 C59.0938 154.0938 59.2031 153.9688 59.7812 153.7344 L60.2031 153.5625 C61.0312 153.2188 61.4531 152.6875 61.4531 151.8438 C61.4531 150.1562 59.6562 149.1875 58.5 149.0312 C58.1094 149.125 57.9062 149.2969 57.9062 149.6406 C57.9062 149.9375 58.0625 150.1562 58.7188 150.2656 L60.4688 150.5781 Z" style="fill:black; stroke:none;"
      /><rect x="30" y="82" width="22" style="clip-path:url(#clipPath3); stroke:none;" height="22"
      /><rect x="30" y="82" width="22" style="clip-path:url(#clipPath3); fill:rgb(0,144,188); stroke:none;" height="22"
      /><rect x="30" y="82" width="22" style="clip-path:url(#clipPath3); fill:none; stroke:black;" height="22"
      /><rect x="30" y="82" width="22" style="fill:none; stroke:black;" height="22"
      /><rect x="57" width="5" height="10" y="80" style="stroke:none;"
      /><path d="M58.8906 88.6875 C58.4844 88.6875 58.1562 89.0469 58.1562 89.4219 C58.1562 89.8125 58.4844 90.1562 58.8906 90.1562 C59.2969 90.1562 59.6406 89.8125 59.6406 89.4219 C59.6406 89.0469 59.2969 88.6875 58.8906 88.6875 ZM60.4688 82.5781 C60.7188 82.8906 60.875 83.2656 60.8906 83.6562 C60.8906 84.1875 60.625 84.5 60.0312 84.7656 L59.4062 85.0156 C58.6406 85.3125 58.3906 85.5469 58.3906 85.9375 C58.3906 86.1094 58.4531 86.3438 58.5781 86.8125 L58.7344 87.3438 L59.1094 87.3438 L59.0938 86.5312 C59.0938 86.0938 59.2031 85.9688 59.7812 85.7344 L60.2031 85.5625 C61.0312 85.2188 61.4531 84.6875 61.4531 83.8438 C61.4531 82.1562 59.6562 81.1875 58.5 81.0312 C58.1094 81.125 57.9062 81.2969 57.9062 81.6406 C57.9062 81.9375 58.0625 82.1562 58.7188 82.2656 L60.4688 82.5781 Z" style="fill:black; stroke:none;"
      /><rect x="57" width="5" height="10" y="96" style="stroke:none;"
      /><path d="M58.8906 104.6875 C58.4844 104.6875 58.1562 105.0469 58.1562 105.4219 C58.1562 105.8125 58.4844 106.1562 58.8906 106.1562 C59.2969 106.1562 59.6406 105.8125 59.6406 105.4219 C59.6406 105.0469 59.2969 104.6875 58.8906 104.6875 ZM60.4688 98.5781 C60.7188 98.8906 60.875 99.2656 60.8906 99.6562 C60.8906 100.1875 60.625 100.5 60.0312 100.7656 L59.4062 101.0156 C58.6406 101.3125 58.3906 101.5469 58.3906 101.9375 C58.3906 102.1094 58.4531 102.3438 58.5781 102.8125 L58.7344 103.3438 L59.1094 103.3438 L59.0938 102.5312 C59.0938 102.0938 59.2031 101.9688 59.7812 101.7344 L60.2031 101.5625 C61.0312 101.2188 61.4531 100.6875 61.4531 99.8438 C61.4531 98.1562 59.6562 97.1875 58.5 97.0312 C58.1094 97.125 57.9062 97.2969 57.9062 97.6406 C57.9062 97.9375 58.0625 98.1562 58.7188 98.2656 L60.4688 98.5781 Z" style="fill:black; stroke:none;"
      /><circle r="11" style="clip-path:url(#clipPath4); stroke:none;" cx="41" cy="41"
      /><rect x="30" y="30" width="22" style="clip-path:url(#clipPath4); fill:rgb(0,166,81); stroke:none;" height="22"
      /><rect x="30" y="30" width="22" style="clip-path:url(#clipPath4); fill:none; stroke:black;" height="22"
      /><circle r="11" style="fill:none; stroke:black;" cx="41" cy="41"
      /><rect x="57" width="5" height="10" y="28" style="stroke:none;"
      /><path d="M58.8906 36.6875 C58.4844 36.6875 58.1562 37.0469 58.1562 37.4219 C58.1562 37.8125 58.4844 38.1562 58.8906 38.1562 C59.2969 38.1562 59.6406 37.8125 59.6406 37.4219 C59.6406 37.0469 59.2969 36.6875 58.8906 36.6875 ZM60.4688 30.5781 C60.7188 30.8906 60.875 31.2656 60.8906 31.6562 C60.8906 32.1875 60.625 32.5 60.0312 32.7656 L59.4062 33.0156 C58.6406 33.3125 58.3906 33.5469 58.3906 33.9375 C58.3906 34.1094 58.4531 34.3438 58.5781 34.8125 L58.7344 35.3438 L59.1094 35.3438 L59.0938 34.5312 C59.0938 34.0938 59.2031 33.9688 59.7812 33.7344 L60.2031 33.5625 C61.0312 33.2188 61.4531 32.6875 61.4531 31.8438 C61.4531 30.1562 59.6562 29.1875 58.5 29.0312 C58.1094 29.125 57.9062 29.2969 57.9062 29.6406 C57.9062 29.9375 58.0625 30.1562 58.7188 30.2656 L60.4688 30.5781 Z" style="fill:black; stroke:none;"
      /><rect x="57" width="5" height="10" y="44" style="stroke:none;"
      /><path d="M58.8906 52.6875 C58.4844 52.6875 58.1562 53.0469 58.1562 53.4219 C58.1562 53.8125 58.4844 54.1562 58.8906 54.1562 C59.2969 54.1562 59.6406 53.8125 59.6406 53.4219 C59.6406 53.0469 59.2969 52.6875 58.8906 52.6875 ZM60.4688 46.5781 C60.7188 46.8906 60.875 47.2656 60.8906 47.6562 C60.8906 48.1875 60.625 48.5 60.0312 48.7656 L59.4062 49.0156 C58.6406 49.3125 58.3906 49.5469 58.3906 49.9375 C58.3906 50.1094 58.4531 50.3438 58.5781 50.8125 L58.7344 51.3438 L59.1094 51.3438 L59.0938 50.5312 C59.0938 50.0938 59.2031 49.9688 59.7812 49.7344 L60.2031 49.5625 C61.0312 49.2188 61.4531 48.6875 61.4531 47.8438 C61.4531 46.1562 59.6562 45.1875 58.5 45.0312 C58.1094 45.125 57.9062 45.2969 57.9062 45.6406 C57.9062 45.9375 58.0625 46.1562 58.7188 46.2656 L60.4688 46.5781 Z" style="fill:black; stroke:none;"
    /></g
    ><g ID="legend-1:0" style="text-rendering:optimizeSpeed; font-size:10px; font-family:'SansSerif';"
    ><path style="stroke:none;" d="M30.875 246 L34.9062 246 L34.9062 245.2344 L33.4375 245.2344 L33.4375 238.6562 L32.7344 238.6562 C32.3281 238.9062 31.8594 239.0625 31.2031 239.1875 L31.2031 239.7656 L32.5156 239.7656 L32.5156 245.2344 L30.875 245.2344 L30.875 246 ZM35.925 241.4531 L40.7219 241.4531 L40.7219 240.7656 L35.925 240.7656 L35.925 241.4531 ZM35.925 243.8438 L40.7219 243.8438 L40.7219 243.1719 L35.925 243.1719 L35.925 243.8438 ZM42.2562 243.25 L43.9125 240.75 C44.1312 240.3906 44.3344 240.0312 44.5062 239.6719 L44.5531 239.6719 C44.5375 240.0469 44.5062 240.6406 44.5062 241 L44.5062 243.25 L42.2562 243.25 ZM44.5062 246 L45.3656 246 L45.3656 243.9844 L46.3344 243.9844 L46.3344 243.25 L45.3656 243.25 L45.3656 238.6562 L44.35 238.6562 L41.3031 243.375 L41.3031 243.9844 L44.5062 243.9844 L44.5062 246 ZM47.1031 243.5469 L49.6656 243.5469 L49.6656 242.8438 L47.1031 242.8438 L47.1031 243.5469 ZM52.8856 246.125 C53.5418 246.125 54.1043 245.7812 54.5418 245.3594 L54.5731 245.3594 L54.6512 246 L55.3856 246 L55.3856 238.0469 L54.495 238.0469 L54.495 240.125 L54.5262 241.0625 C54.0575 240.6719 53.6356 240.4375 52.995 240.4375 C51.7606 240.4375 50.6512 241.5312 50.6512 243.2969 C50.6512 245.0938 51.5262 246.125 52.8856 246.125 ZM53.0887 245.375 C52.1356 245.375 51.5887 244.5938 51.5887 243.2812 C51.5887 242.0469 52.2762 241.2031 53.1668 241.2031 C53.6043 241.2031 54.0262 241.3594 54.495 241.7656 L54.495 244.625 C54.0262 245.125 53.5887 245.375 53.0887 245.375 ZM59.4293 246.125 C60.1637 246.125 60.7575 245.875 61.2262 245.5625 L60.8981 244.9688 C60.5075 245.2344 60.07 245.4062 59.5387 245.4062 C58.5075 245.4062 57.8043 244.6562 57.7418 243.5 L61.3981 243.5 C61.4137 243.375 61.445 243.1875 61.445 242.9844 C61.445 241.4375 60.6637 240.4375 59.2731 240.4375 C58.0231 240.4375 56.8356 241.5312 56.8356 243.2969 C56.8356 245.0781 57.9918 246.125 59.4293 246.125 ZM57.7262 242.8438 C57.8356 241.7812 58.5231 241.1562 59.2887 241.1562 C60.1325 241.1562 60.6325 241.75 60.6325 242.8438 L57.7262 242.8438 ZM64.8912 246.125 C66.2193 246.125 67.4068 245.0938 67.4068 243.2969 C67.4068 241.4844 66.2193 240.4375 64.8912 240.4375 C63.5631 240.4375 62.3756 241.4844 62.3756 243.2969 C62.3756 245.0938 63.5631 246.125 64.8912 246.125 ZM64.8912 245.375 C63.9537 245.375 63.3131 244.5469 63.3131 243.2969 C63.3131 242.0469 63.9537 241.1875 64.8912 241.1875 C65.8287 241.1875 66.4693 242.0469 66.4693 243.2969 C66.4693 244.5469 65.8287 245.375 64.8912 245.375 ZM68.0762 246 L69.0293 246 L69.7637 244.7344 C69.9512 244.4062 70.1231 244.0625 70.3262 243.7656 L70.3731 243.7656 C70.5762 244.0625 70.7637 244.4062 70.9512 244.7344 L71.7481 246 L72.7481 246 L70.9668 243.2656 L72.6075 240.5625 L71.6543 240.5625 L70.9825 241.7656 C70.8262 242.0625 70.67 242.375 70.4981 242.6719 L70.4668 242.6719 C70.2793 242.375 70.0918 242.0625 69.92 241.7656 L69.1856 240.5625 L68.2168 240.5625 L69.8575 243.1719 L68.0762 246 ZM73.9156 248.3438 C74.9937 248.3438 75.5562 247.5156 75.9312 246.4531 L77.9781 240.5625 L77.0874 240.5625 L76.1187 243.5938 C75.9624 244.0625 75.8062 244.625 75.6656 245.1094 L75.6031 245.1094 C75.4468 244.625 75.2437 244.0625 75.0874 243.5938 L73.9781 240.5625 L73.0249 240.5625 L75.2124 246.0156 L75.0874 246.4219 C74.8687 247.0938 74.4781 247.5938 73.8531 247.5938 C73.7124 247.5938 73.5562 247.5469 73.4468 247.5 L73.2749 248.2344 C73.4468 248.2969 73.6499 248.3438 73.9156 248.3438 ZM78.5631 243.5469 L81.1256 243.5469 L81.1256 242.8438 L78.5631 242.8438 L78.5631 243.5469 ZM82.5799 246 L84.4549 246 C86.6737 246 87.8768 244.625 87.8768 242.3125 C87.8768 239.9844 86.6737 238.6562 84.4237 238.6562 L82.5799 238.6562 L82.5799 246 ZM83.5174 245.2344 L83.5174 239.4219 L84.3456 239.4219 C86.0643 239.4219 86.9237 240.4531 86.9237 242.3125 C86.9237 244.1562 86.0643 245.2344 84.3456 245.2344 L83.5174 245.2344 ZM88.9031 243.5469 L91.4656 243.5469 L91.4656 242.8438 L88.9031 242.8438 L88.9031 243.5469 ZM93.7949 246.125 C94.0449 246.125 94.2012 246.0938 94.3262 246.0469 L94.2012 245.3438 C94.1074 245.375 94.0606 245.375 94.0137 245.375 C93.8731 245.375 93.7481 245.2656 93.7481 244.9844 L93.7481 238.0469 L92.8418 238.0469 L92.8418 244.9219 C92.8418 245.6875 93.1231 246.125 93.7949 246.125 ZM95.7856 248.3438 C96.8637 248.3438 97.4262 247.5156 97.8012 246.4531 L99.8481 240.5625 L98.9574 240.5625 L97.9887 243.5938 C97.8324 244.0625 97.6762 244.625 97.5356 245.1094 L97.4731 245.1094 C97.3168 244.625 97.1137 244.0625 96.9574 243.5938 L95.8481 240.5625 L94.8949 240.5625 L97.0824 246.0156 L96.9574 246.4219 C96.7387 247.0938 96.3481 247.5938 95.7231 247.5938 C95.5824 247.5938 95.4262 247.5469 95.3168 247.5 L95.1449 248.2344 C95.3168 248.2969 95.5199 248.3438 95.7856 248.3438 ZM100.1362 246 L101.0893 246 L101.8237 244.7344 C102.0112 244.4062 102.183 244.0625 102.3862 243.7656 L102.433 243.7656 C102.6362 244.0625 102.8237 244.4062 103.0112 244.7344 L103.808 246 L104.808 246 L103.0268 243.2656 L104.6674 240.5625 L103.7143 240.5625 L103.0424 241.7656 C102.8862 242.0625 102.7299 242.375 102.558 242.6719 L102.5268 242.6719 C102.3393 242.375 102.1518 242.0625 101.9799 241.7656 L101.2455 240.5625 L100.2768 240.5625 L101.9174 243.1719 L100.1362 246 ZM105.9599 246 L106.8974 246 L106.8974 242.5469 L110.3037 242.5469 L110.3037 246 L111.2255 246 L111.2255 238.6562 L110.3037 238.6562 L110.3037 241.7344 L106.8974 241.7344 L106.8974 238.6562 L105.9599 238.6562 L105.9599 246 ZM115.3493 246.125 C116.0837 246.125 116.6774 245.875 117.1462 245.5625 L116.818 244.9688 C116.4274 245.2344 115.9899 245.4062 115.4587 245.4062 C114.4274 245.4062 113.7243 244.6562 113.6618 243.5 L117.318 243.5 C117.3337 243.375 117.3649 243.1875 117.3649 242.9844 C117.3649 241.4375 116.5837 240.4375 115.193 240.4375 C113.943 240.4375 112.7555 241.5312 112.7555 243.2969 C112.7555 245.0781 113.9118 246.125 115.3493 246.125 ZM113.6462 242.8438 C113.7555 241.7812 114.443 241.1562 115.2087 241.1562 C116.0524 241.1562 116.5524 241.75 116.5524 242.8438 L113.6462 242.8438 ZM117.9362 246 L118.8893 246 L119.6237 244.7344 C119.8112 244.4062 119.983 244.0625 120.1862 243.7656 L120.233 243.7656 C120.4362 244.0625 120.6237 244.4062 120.8112 244.7344 L121.608 246 L122.608 246 L120.8268 243.2656 L122.4674 240.5625 L121.5143 240.5625 L120.8424 241.7656 C120.6862 242.0625 120.5299 242.375 120.358 242.6719 L120.3268 242.6719 C120.1393 242.375 119.9518 242.0625 119.7799 241.7656 L119.0455 240.5625 L118.0768 240.5625 L119.7174 243.1719 L117.9362 246 Z"
    /></g
  ></g
></svg
>
