<?xml version="1.0"?>
<!DOCTYPE svg PUBLIC '-//W3C//DTD SVG 1.0//EN'
          'http://www.w3.org/TR/2001/REC-SVG-20010904/DTD/svg10.dtd'>
<svg xmlns:xlink="http://www.w3.org/1999/xlink" style="fill-opacity:1; color-rendering:auto; color-interpolation:auto; text-rendering:auto; stroke:black; stroke-linecap:square; stroke-miterlimit:10; shape-rendering:auto; stroke-opacity:1; fill:black; stroke-dasharray:none; font-weight:normal; stroke-width:1; font-family:'Dialog'; font-style:normal; stroke-linejoin:miter; font-size:12px; stroke-dashoffset:0; image-rendering:auto;" viewBox="0 0 143 134" xmlns="http://www.w3.org/2000/svg"
><!--Generated by the Batik Graphics2D SVG Generator--><defs id="genericDefs"
  /><g
  ><defs id="defs1"
    ><clipPath clipPathUnits="userSpaceOnUse" id="clipPath1"
      ><path d="M47 82 L69 82 L69 104 L47 104 L47 82 Z"
      /></clipPath
      ><clipPath clipPathUnits="userSpaceOnUse" id="clipPath2"
      ><path d="M69 41 C69 47.0751 64.0751 52 58 52 C51.9249 52 47 47.0751 47 41 C47 34.9249 51.9249 30 58 30 C64.0751 30 69 34.9249 69 41 Z"
      /></clipPath
    ></defs
    ><g style="fill:white; text-rendering:optimizeSpeed; stroke:white;"
    ><rect x="0" width="143" height="134" y="0" style="stroke:none;"
      /><rect x="47" y="82" width="22" style="clip-path:url(#clipPath1); stroke:none;" height="22"
      /><rect x="47" y="82" width="22" style="clip-path:url(#clipPath1); stroke:none;" height="22"
      /><rect x="47" y="82" width="22" style="clip-path:url(#clipPath1); fill:none; stroke:black;" height="22"
      /><rect x="47" y="82" width="22" style="fill:none; stroke:black;" height="22"
      /><rect x="74" y="80" width="5" style="stroke:none;" height="10"
    /></g
    ><g style="font-family:'Serif'; text-rendering:optimizeSpeed; "
    ><path style="stroke:none;" d="M75.8906 88.6875 C75.4844 88.6875 75.1562 89.0469 75.1562 89.4219 C75.1562 89.8125 75.4844 90.1562 75.8906 90.1562 C76.2969 90.1562 76.6406 89.8125 76.6406 89.4219 C76.6406 89.0469 76.2969 88.6875 75.8906 88.6875 ZM77.4688 82.5781 C77.7188 82.8906 77.875 83.2656 77.8906 83.6562 C77.8906 84.1875 77.625 84.5 77.0312 84.7656 L76.4062 85.0156 C75.6406 85.3125 75.3906 85.5469 75.3906 85.9375 C75.3906 86.1094 75.4531 86.3438 75.5781 86.8125 L75.7344 87.3438 L76.1094 87.3438 L76.0938 86.5312 C76.0938 86.0938 76.2031 85.9688 76.7812 85.7344 L77.2031 85.5625 C78.0312 85.2188 78.4531 84.6875 78.4531 83.8438 C78.4531 82.1562 76.6562 81.1875 75.5 81.0312 C75.1094 81.125 74.9062 81.2969 74.9062 81.6406 C74.9062 81.9375 75.0625 82.1562 75.7188 82.2656 L77.4688 82.5781 Z"
      /><rect x="74" y="96" width="5" style="fill:white; stroke:none;" height="10"
      /><path style="stroke:none;" d="M75.8906 104.6875 C75.4844 104.6875 75.1562 105.0469 75.1562 105.4219 C75.1562 105.8125 75.4844 106.1562 75.8906 106.1562 C76.2969 106.1562 76.6406 105.8125 76.6406 105.4219 C76.6406 105.0469 76.2969 104.6875 75.8906 104.6875 ZM77.4688 98.5781 C77.7188 98.8906 77.875 99.2656 77.8906 99.6562 C77.8906 100.1875 77.625 100.5 77.0312 100.7656 L76.4062 101.0156 C75.6406 101.3125 75.3906 101.5469 75.3906 101.9375 C75.3906 102.1094 75.4531 102.3438 75.5781 102.8125 L75.7344 103.3438 L76.1094 103.3438 L76.0938 102.5312 C76.0938 102.0938 76.2031 101.9688 76.7812 101.7344 L77.2031 101.5625 C78.0312 101.2188 78.4531 100.6875 78.4531 99.8438 C78.4531 98.1562 76.6562 97.1875 75.5 97.0312 C75.1094 97.125 74.9062 97.2969 74.9062 97.6406 C74.9062 97.9375 75.0625 98.1562 75.7188 98.2656 L77.4688 98.5781 Z"
      /><path style="stroke:none;" d="M30.8125 90.875 C30.8125 89.4688 31.5781 88.5469 32.5625 88.5469 C33.875 88.5469 34.6562 89.6719 34.7969 91.7812 C34.1406 92.75 33.3594 93.1562 32.6562 93.1562 C31.4375 93.1562 30.8125 92.2656 30.8125 90.875 ZM32.2812 98.1875 C34.2031 98.1875 36 96.5938 36 92.4219 C36 89.1719 34.5312 87.5469 32.5625 87.5469 C30.9531 87.5469 29.6094 88.8906 29.6094 90.875 C29.6094 93 30.7344 94.1094 32.4375 94.1094 C33.2969 94.1094 34.1875 93.625 34.8125 92.8438 C34.7188 96.0312 33.5625 97.125 32.2344 97.125 C31.5781 97.125 30.9531 96.8281 30.5312 96.3281 L29.8125 97.125 C30.3906 97.7344 31.1719 98.1875 32.2812 98.1875 ZM36.9731 98 L38.3168 98 L39.3481 96.2188 C39.6137 95.7656 39.8637 95.2969 40.1293 94.8594 L40.2075 94.8594 C40.4731 95.2969 40.7543 95.7656 41.0043 96.2188 L42.1293 98 L43.5356 98 L41.02 94.1562 L43.3325 90.3906 L42.0043 90.3906 L41.0668 92.0625 C40.8481 92.5 40.6137 92.9219 40.3793 93.3438 L40.3325 93.3438 C40.0668 92.9219 39.8012 92.5 39.5668 92.0625 L38.5512 90.3906 L37.1762 90.3906 L39.4887 94.0312 L36.9731 98 Z"
    /></g
    ><g style="fill:white; text-rendering:optimizeSpeed; font-size:14px; font-family:'SansSerif'; stroke:white;"
    ><circle r="11" style="clip-path:url(#clipPath2); stroke:none;" cx="58" cy="41"
      /><rect x="47" y="30" width="22" style="clip-path:url(#clipPath2); stroke:none;" height="22"
      /><rect x="47" y="30" width="22" style="clip-path:url(#clipPath2); fill:none; stroke:black;" height="22"
      /><circle r="11" style="fill:none; stroke:black;" cx="58" cy="41"
      /><rect x="74" width="5" height="10" y="28" style="stroke:none;"
    /></g
    ><g style="font-family:'Serif'; text-rendering:optimizeSpeed; "
    ><path style="stroke:none;" d="M75.8906 36.6875 C75.4844 36.6875 75.1562 37.0469 75.1562 37.4219 C75.1562 37.8125 75.4844 38.1562 75.8906 38.1562 C76.2969 38.1562 76.6406 37.8125 76.6406 37.4219 C76.6406 37.0469 76.2969 36.6875 75.8906 36.6875 ZM77.4688 30.5781 C77.7188 30.8906 77.875 31.2656 77.8906 31.6562 C77.8906 32.1875 77.625 32.5 77.0312 32.7656 L76.4062 33.0156 C75.6406 33.3125 75.3906 33.5469 75.3906 33.9375 C75.3906 34.1094 75.4531 34.3438 75.5781 34.8125 L75.7344 35.3438 L76.1094 35.3438 L76.0938 34.5312 C76.0938 34.0938 76.2031 33.9688 76.7812 33.7344 L77.2031 33.5625 C78.0312 33.2188 78.4531 32.6875 78.4531 31.8438 C78.4531 30.1562 76.6562 29.1875 75.5 29.0312 C75.1094 29.125 74.9062 29.2969 74.9062 29.6406 C74.9062 29.9375 75.0625 30.1562 75.7188 30.2656 L77.4688 30.5781 Z"
      /><rect x="74" y="44" width="5" style="fill:white; stroke:none;" height="10"
      /><path style="stroke:none;" d="M75.8906 52.6875 C75.4844 52.6875 75.1562 53.0469 75.1562 53.4219 C75.1562 53.8125 75.4844 54.1562 75.8906 54.1562 C76.2969 54.1562 76.6406 53.8125 76.6406 53.4219 C76.6406 53.0469 76.2969 52.6875 75.8906 52.6875 ZM77.4688 46.5781 C77.7188 46.8906 77.875 47.2656 77.8906 47.6562 C77.8906 48.1875 77.625 48.5 77.0312 48.7656 L76.4062 49.0156 C75.6406 49.3125 75.3906 49.5469 75.3906 49.9375 C75.3906 50.1094 75.4531 50.3438 75.5781 50.8125 L75.7344 51.3438 L76.1094 51.3438 L76.0938 50.5312 C76.0938 50.0938 76.2031 49.9688 76.7812 49.7344 L77.2031 49.5625 C78.0312 49.2188 78.4531 48.6875 78.4531 47.8438 C78.4531 46.1562 76.6562 45.1875 75.5 45.0312 C75.1094 45.125 74.9062 45.2969 74.9062 45.6406 C74.9062 45.9375 75.0625 46.1562 75.7188 46.2656 L77.4688 46.5781 Z"
      /><path style="stroke:none;" d="M30.6094 41.1562 L32.9531 37.6562 C33.2344 37.1406 33.5156 36.6406 33.7812 36.1406 L33.8281 36.1406 C33.7969 36.6719 33.7656 37.5 33.7656 38 L33.7656 41.1562 L30.6094 41.1562 ZM33.7656 45 L34.9688 45 L34.9688 42.1719 L36.3281 42.1719 L36.3281 41.1562 L34.9688 41.1562 L34.9688 34.7188 L33.5469 34.7188 L29.2812 41.3281 L29.2812 42.1719 L33.7656 42.1719 L33.7656 45 ZM36.9731 45 L38.3168 45 L39.3481 43.2188 C39.6137 42.7656 39.8637 42.2969 40.1293 41.8594 L40.2075 41.8594 C40.4731 42.2969 40.7543 42.7656 41.0043 43.2188 L42.1293 45 L43.5356 45 L41.02 41.1562 L43.3325 37.3906 L42.0043 37.3906 L41.0668 39.0625 C40.8481 39.5 40.6137 39.9219 40.3793 40.3438 L40.3325 40.3438 C40.0668 39.9219 39.8012 39.5 39.5668 39.0625 L38.5512 37.3906 L37.1762 37.3906 L39.4887 41.0312 L36.9731 45 Z"
    /></g
  ></g
></svg
>
