<?xml version="1.0"?>
<!DOCTYPE svg PUBLIC '-//W3C//DTD SVG 1.0//EN'
          'http://www.w3.org/TR/2001/REC-SVG-20010904/DTD/svg10.dtd'>
<svg xmlns:xlink="http://www.w3.org/1999/xlink" style="fill-opacity:1; color-rendering:auto; color-interpolation:auto; text-rendering:auto; stroke:black; stroke-linecap:square; stroke-miterlimit:10; shape-rendering:auto; stroke-opacity:1; fill:black; stroke-dasharray:none; font-weight:normal; stroke-width:1; font-family:'Dialog'; font-style:normal; stroke-linejoin:miter; font-size:12px; stroke-dashoffset:0; image-rendering:auto;" viewBox="0 0 342 186" xmlns="http://www.w3.org/2000/svg"
><!--Generated by the Batik Graphics2D SVG Generator--><defs id="genericDefs"
  /><g
  ><defs id="defs1"
    ><clipPath clipPathUnits="userSpaceOnUse" id="clipPath1"
      ><path d="M238 95 L260 95 L260 117 L238 117 L238 95 Z"
      /></clipPath
      ><clipPath clipPathUnits="userSpaceOnUse" id="clipPath2"
      ><path d="M186 95 L208 95 L208 117 L186 117 L186 95 Z"
      /></clipPath
      ><clipPath clipPathUnits="userSpaceOnUse" id="clipPath3"
      ><path d="M156 106 C156 112.0751 151.0751 117 145 117 C138.9249 117 134 112.0751 134 106 C134 99.9249 138.9249 95 145 95 C151.0751 95 156 99.9249 156 106 Z"
      /></clipPath
      ><clipPath clipPathUnits="userSpaceOnUse" id="clipPath4"
      ><path d="M104 145 C104 151.0751 99.0751 156 93 156 C86.9249 156 82 151.0751 82 145 C82 138.9249 86.9249 134 93 134 C99.0751 134 104 138.9249 104 145 Z"
      /></clipPath
      ><clipPath clipPathUnits="userSpaceOnUse" id="clipPath5"
      ><path d="M30 134 L52 134 L52 156 L30 156 L30 134 Z"
      /></clipPath
      ><clipPath clipPathUnits="userSpaceOnUse" id="clipPath6"
      ><path d="M104 67 C104 73.0751 99.0751 78 93 78 C86.9249 78 82 73.0751 82 67 C82 60.9249 86.9249 56 93 56 C99.0751 56 104 60.9249 104 67 Z"
      /></clipPath
      ><clipPath clipPathUnits="userSpaceOnUse" id="clipPath7"
      ><path d="M52 93 C52 99.0751 47.0751 104 41 104 C34.9249 104 30 99.0751 30 93 C30 86.9249 34.9249 82 41 82 C47.0751 82 52 86.9249 52 93 Z"
      /></clipPath
      ><clipPath clipPathUnits="userSpaceOnUse" id="clipPath8"
      ><path d="M52 41 C52 47.0751 47.0751 52 41 52 C34.9249 52 30 47.0751 30 41 C30 34.9249 34.9249 30 41 30 C47.0751 30 52 34.9249 52 41 Z"
      /></clipPath
    ></defs
    ><g style="fill:white; text-rendering:optimizeSpeed; stroke:white;"
    ><rect x="0" width="342" height="186" y="0" style="stroke:none;"
      /><polygon style="fill:none; stroke:black;" points=" 301 106 249 106"
      /><path d="M301 95 C295.5 100.5 306.5 111.5 301 117" style="fill:none; stroke:black;"
      /><polygon style="fill:none; stroke:black;" points=" 249 106 197 106"
      /><rect x="238" y="95" width="22" style="clip-path:url(#clipPath1); stroke:none;" height="22"
      /><rect x="238" y="95" width="22" style="clip-path:url(#clipPath1); fill:rgb(0,144,188); stroke:none;" height="22"
      /><rect x="238" y="95" width="22" style="clip-path:url(#clipPath1); fill:none; stroke:black;" height="22"
      /><rect x="238" y="95" width="22" style="fill:none; stroke:black;" height="22"
      /><polygon style="fill:none; stroke:black;" points=" 197 106 145 106"
      /><rect x="186" y="95" width="22" style="clip-path:url(#clipPath2); stroke:none;" height="22"
      /><rect x="186" y="95" width="22" style="clip-path:url(#clipPath2); fill:rgb(0,144,188); stroke:none;" height="22"
      /><rect x="186" y="95" width="22" style="clip-path:url(#clipPath2); fill:none; stroke:black;" height="22"
      /><rect x="186" y="95" width="22" style="fill:none; stroke:black;" height="22"
      /><polygon style="fill:none; stroke:black;" points=" 145 106 93 145"
      /><polygon style="fill:none; stroke:black;" points=" 145 106 93 67"
      /><circle style="clip-path:url(#clipPath3); stroke:none;" r="11" cx="145" cy="106"
      /><rect x="134" y="95" width="22" style="clip-path:url(#clipPath3); fill:rgb(0,166,81); stroke:none;" height="22"
      /><rect x="134" y="95" width="22" style="clip-path:url(#clipPath3); fill:none; stroke:black;" height="22"
      /><circle style="fill:none; stroke:black;" r="11" cx="145" cy="106"
      /><polygon style="fill:none; stroke:black;" points=" 93 145 41 145"
      /><circle style="clip-path:url(#clipPath4); stroke:none;" r="11" cx="93" cy="145"
      /><rect x="82" y="134" width="22" style="clip-path:url(#clipPath4); fill:rgb(0,166,81); stroke:none;" height="22"
      /><rect x="82" y="134" width="22" style="clip-path:url(#clipPath4); fill:none; stroke:black;" height="22"
      /><circle style="fill:none; stroke:black;" r="11" cx="93" cy="145"
      /><rect x="30" y="134" width="22" style="clip-path:url(#clipPath5); stroke:none;" height="22"
      /><rect x="30" y="134" width="22" style="clip-path:url(#clipPath5); fill:rgb(0,144,188); stroke:none;" height="22"
      /><rect x="30" y="134" width="22" style="clip-path:url(#clipPath5); fill:none; stroke:black;" height="22"
      /><rect x="30" y="134" width="22" style="fill:none; stroke:black;" height="22"
      /><rect x="66" y="146" width="16" style="stroke:none;" height="13"
    /></g
    ><g style="font-family:'Serif'; text-rendering:optimizeSpeed; "
    ><path style="stroke:none;" d="M68.2344 150.6562 C68.5156 150.5938 68.7656 150.5625 69.0156 150.5625 C70.0625 150.5625 70.6719 151.1719 70.6719 152.2656 C70.6719 153.4375 69.9062 154.1094 68.7031 154.1094 L68.1875 154.1094 L68.1875 154.6406 L68.7969 154.6406 C70.2188 154.6406 70.9062 155.4219 70.9062 156.6406 C70.9062 157.8438 70.1719 158.6875 68.875 158.6875 C68.6094 158.6875 68.3125 158.6562 68.0156 158.5625 L67.7812 157.8125 C67.625 157.2812 67.5 157.0469 67.1406 157.0469 C66.8906 157.0469 66.7031 157.1719 66.5781 157.4219 C66.8438 158.6406 67.7812 159.1719 69.0312 159.1719 C70.7188 159.1719 71.875 158.125 71.875 156.7031 C71.875 155.5 71.2031 154.625 69.7969 154.375 C70.9531 154.0156 71.6094 153.2031 71.6094 152.2031 C71.6094 150.9219 70.6719 150.0781 69.1875 150.0781 C68.0469 150.0781 67.0625 150.5938 66.7969 151.6875 C66.9062 152 67.1094 152.1094 67.3594 152.1094 C67.7344 152.1094 67.8906 151.8906 68 151.4062 L68.2344 150.6562 ZM72.4993 161.0938 L73.1087 161.0938 L76.6087 149.7344 L75.9837 149.7344 L72.4993 161.0938 ZM79.9878 158.6875 C78.8472 158.6875 78.1753 157.5 78.1753 155.2969 C78.1753 155.2188 78.1753 155.125 78.1753 155.0469 C78.7378 154.5 79.3628 154.3125 79.9878 154.3125 C80.9566 154.3125 81.5972 154.9844 81.5972 156.4531 C81.5972 157.9375 80.9566 158.6875 79.9878 158.6875 ZM82.1753 150.0781 C78.9878 150.4531 77.2066 152.7656 77.2066 155.4531 C77.2066 157.7812 78.2534 159.1719 79.9566 159.1719 C81.4878 159.1719 82.5659 158.1094 82.5659 156.2812 C82.5659 154.6875 81.6128 153.6562 80.2066 153.6562 C79.4722 153.6562 78.7847 153.9844 78.2222 154.5781 C78.4409 152.4062 79.7222 150.9688 82.2378 150.3906 L82.1753 150.0781 Z"
      /><rect x="57" y="146" width="6" style="fill:white; stroke:none;" height="13"
      /><path style="stroke:none;" d="M59.0938 152.2031 C59.0938 150.6562 59.75 149.8125 60.7969 149.8125 C61.7188 149.8125 62.2656 150.4531 62.2656 151.5156 C62.2656 152.7188 61.5 153.4375 60.1875 153.7031 L60.2969 154.3125 C62.2188 154.2344 62.9375 155.2188 62.9375 156.4375 C62.9375 157.625 62.2344 158.4219 60.9531 158.4219 C60.25 158.4219 59.6562 158.1562 59.0938 157.7188 L59.0938 152.2031 ZM58.2031 158.9062 L58.1094 161.375 L58.2656 161.4844 L59.1562 161.2656 L59.0156 158.0938 C59.5469 158.8438 60.3594 159.1719 61.1719 159.1719 C62.5625 159.1719 63.8594 158.2188 63.8594 156.4844 C63.8594 154.9531 62.875 154.1094 61.125 154 C62.5625 153.6094 63.1875 152.4531 63.1875 151.4844 C63.1875 150.0938 62.1562 149.3125 60.9062 149.3125 C59.2969 149.3125 58.2188 150.5469 58.2188 152.5156 L58.2031 158.9062 Z"
      /><polygon style="fill:none;" points=" 93 67 41 93"
      /><polygon style="fill:none;" points=" 93 67 41 41"
      /><circle style="fill:white; clip-path:url(#clipPath6); stroke:none;" r="11" cx="93" cy="67"
      /><rect x="82" y="56" width="22" style="clip-path:url(#clipPath6); fill:rgb(0,166,81); stroke:none;" height="22"
      /><rect x="82" y="56" width="22" style="fill:none; clip-path:url(#clipPath6);" height="22"
      /><circle r="11" style="fill:none;" cx="93" cy="67"
      /><circle style="fill:white; clip-path:url(#clipPath7); stroke:none;" r="11" cx="41" cy="93"
      /><rect x="30" y="82" width="22" style="clip-path:url(#clipPath7); fill:rgb(0,166,81); stroke:none;" height="22"
      /><rect x="30" y="82" width="22" style="fill:none; clip-path:url(#clipPath7);" height="22"
      /><circle r="11" style="fill:none;" cx="41" cy="93"
      /><circle style="fill:white; clip-path:url(#clipPath8); stroke:none;" r="11" cx="41" cy="41"
      /><rect x="30" y="30" width="22" style="clip-path:url(#clipPath8); fill:rgb(0,166,81); stroke:none;" height="22"
      /><rect x="30" y="30" width="22" style="fill:none; clip-path:url(#clipPath8);" height="22"
      /><circle r="11" style="fill:none;" cx="41" cy="41"
      /><rect x="75" y="78" width="6" style="fill:white; stroke:none;" height="10"
      /><path style="stroke:none;" d="M77.2344 79.6562 C77.5156 79.5938 77.7656 79.5625 78.0156 79.5625 C79.0625 79.5625 79.6719 80.1719 79.6719 81.2656 C79.6719 82.4375 78.9062 83.1094 77.7031 83.1094 L77.1875 83.1094 L77.1875 83.6406 L77.7969 83.6406 C79.2188 83.6406 79.9062 84.4219 79.9062 85.6406 C79.9062 86.8438 79.1719 87.6875 77.875 87.6875 C77.6094 87.6875 77.3125 87.6562 77.0156 87.5625 L76.7812 86.8125 C76.625 86.2812 76.5 86.0469 76.1406 86.0469 C75.8906 86.0469 75.7031 86.1719 75.5781 86.4219 C75.8438 87.6406 76.7812 88.1719 78.0312 88.1719 C79.7188 88.1719 80.875 87.125 80.875 85.7031 C80.875 84.5 80.2031 83.625 78.7969 83.375 C79.9531 83.0156 80.6094 82.2031 80.6094 81.2031 C80.6094 79.9219 79.6719 79.0781 78.1875 79.0781 C77.0469 79.0781 76.0625 79.5938 75.7969 80.6875 C75.9062 81 76.1094 81.1094 76.3594 81.1094 C76.7344 81.1094 76.8906 80.8906 77 80.4062 L77.2344 79.6562 Z"
      /><rect x="58" y="87" width="8" style="fill:white; stroke:none;" height="8"
      /><path style="stroke:none;" d="M62.9844 92.7031 C62.9375 93.8906 62.1562 94.6562 61.3125 94.6562 C60.2656 94.6562 59.5 93.6875 59.5 91.7188 C59.5 90.2812 60.1562 89.1562 61.3438 89.1562 C62.1406 89.1562 62.7812 89.6875 63.0938 90.6406 L62.9844 92.7031 ZM64.9062 94.2812 C64.7344 94.375 64.5469 94.4219 64.3438 94.4219 C63.9531 94.4219 63.75 94.2188 63.75 93.4219 C63.75 92.4844 63.9688 90.5312 64.1875 88.8281 L64.0312 88.7188 L63.2344 88.9219 L63.1406 89.7969 C62.7812 89.0312 62.1562 88.6562 61.3906 88.6562 C60.0469 88.6562 58.5625 89.8438 58.5625 91.9531 C58.5625 94.0938 59.7188 95.1719 61.1406 95.1719 C62.0156 95.1719 62.6875 94.8125 63.0938 93.9844 C63.2031 94.8594 63.5156 95.1719 64.0156 95.1719 C64.4688 95.1719 64.7969 94.9062 65.0156 94.5625 L64.9062 94.2812 Z"
      /><rect x="68" y="60" width="6" style="fill:white; stroke:none;" height="10"
      /><path style="stroke:none;" d="M71.3438 69.6875 C70.2031 69.6875 69.5312 68.5 69.5312 66.2969 C69.5312 66.2188 69.5312 66.125 69.5312 66.0469 C70.0938 65.5 70.7188 65.3125 71.3438 65.3125 C72.3125 65.3125 72.9531 65.9844 72.9531 67.4531 C72.9531 68.9375 72.3125 69.6875 71.3438 69.6875 ZM73.5312 61.0781 C70.3438 61.4531 68.5625 63.7656 68.5625 66.4531 C68.5625 68.7812 69.6094 70.1719 71.3125 70.1719 C72.8438 70.1719 73.9219 69.1094 73.9219 67.2812 C73.9219 65.6875 72.9688 64.6562 71.5625 64.6562 C70.8281 64.6562 70.1406 64.9844 69.5781 65.5781 C69.7969 63.4062 71.0781 61.9688 73.5938 61.3906 L73.5312 61.0781 Z"
      /><rect x="51" y="53" width="8" style="fill:white; stroke:none;" height="8"
      /><path style="stroke:none;" d="M55.9844 58.7031 C55.9375 59.8906 55.1562 60.6562 54.3125 60.6562 C53.2656 60.6562 52.5 59.6875 52.5 57.7188 C52.5 56.2812 53.1562 55.1562 54.3438 55.1562 C55.1406 55.1562 55.7812 55.6875 56.0938 56.6406 L55.9844 58.7031 ZM57.9062 60.2812 C57.7344 60.375 57.5469 60.4219 57.3438 60.4219 C56.9531 60.4219 56.75 60.2188 56.75 59.4219 C56.75 58.4844 56.9688 56.5312 57.1875 54.8281 L57.0312 54.7188 L56.2344 54.9219 L56.1406 55.7969 C55.7812 55.0312 55.1562 54.6562 54.3906 54.6562 C53.0469 54.6562 51.5625 55.8438 51.5625 57.9531 C51.5625 60.0938 52.7188 61.1719 54.1406 61.1719 C55.0156 61.1719 55.6875 60.8125 56.0938 59.9844 C56.2031 60.8594 56.5156 61.1719 57.0156 61.1719 C57.4688 61.1719 57.7969 60.9062 58.0156 60.5625 L57.9062 60.2812 Z"
      /><rect x="129" y="120" width="6" style="fill:white; stroke:none;" height="10"
      /><path style="stroke:none;" d="M131.2344 121.6562 C131.5156 121.5938 131.7656 121.5625 132.0156 121.5625 C133.0625 121.5625 133.6719 122.1719 133.6719 123.2656 C133.6719 124.4375 132.9062 125.1094 131.7031 125.1094 L131.1875 125.1094 L131.1875 125.6406 L131.7969 125.6406 C133.2188 125.6406 133.9062 126.4219 133.9062 127.6406 C133.9062 128.8438 133.1719 129.6875 131.875 129.6875 C131.6094 129.6875 131.3125 129.6562 131.0156 129.5625 L130.7812 128.8125 C130.625 128.2812 130.5 128.0469 130.1406 128.0469 C129.8906 128.0469 129.7031 128.1719 129.5781 128.4219 C129.8438 129.6406 130.7812 130.1719 132.0312 130.1719 C133.7188 130.1719 134.875 129.125 134.875 127.7031 C134.875 126.5 134.2031 125.625 132.7969 125.375 C133.9531 125.0156 134.6094 124.2031 134.6094 123.2031 C134.6094 121.9219 133.6719 121.0781 132.1875 121.0781 C131.0469 121.0781 130.0625 121.5938 129.7969 122.6875 C129.9062 123 130.1094 123.1094 130.3594 123.1094 C130.7344 123.1094 130.8906 122.8906 131 122.4062 L131.2344 121.6562 Z"
      /><rect x="111" y="134" width="8" style="fill:white; stroke:none;" height="8"
      /><path style="stroke:none;" d="M115.9844 139.7031 C115.9375 140.8906 115.1562 141.6562 114.3125 141.6562 C113.2656 141.6562 112.5 140.6875 112.5 138.7188 C112.5 137.2812 113.1562 136.1562 114.3438 136.1562 C115.1406 136.1562 115.7812 136.6875 116.0938 137.6406 L115.9844 139.7031 ZM117.9062 141.2812 C117.7344 141.375 117.5469 141.4219 117.3438 141.4219 C116.9531 141.4219 116.75 141.2188 116.75 140.4219 C116.75 139.4844 116.9688 137.5312 117.1875 135.8281 L117.0312 135.7188 L116.2344 135.9219 L116.1406 136.7969 C115.7812 136.0312 115.1562 135.6562 114.3906 135.6562 C113.0469 135.6562 111.5625 136.8438 111.5625 138.9531 C111.5625 141.0938 112.7188 142.1719 114.1406 142.1719 C115.0156 142.1719 115.6875 141.8125 116.0938 140.9844 C116.2031 141.8594 116.5156 142.1719 117.0156 142.1719 C117.4688 142.1719 117.7969 141.9062 118.0156 141.5625 L117.9062 141.2812 Z"
      /><rect x="119" y="94" width="6" style="fill:white; stroke:none;" height="10"
      /><path style="stroke:none;" d="M122.3438 103.6875 C121.2031 103.6875 120.5312 102.5 120.5312 100.2969 C120.5312 100.2188 120.5312 100.125 120.5312 100.0469 C121.0938 99.5 121.7188 99.3125 122.3438 99.3125 C123.3125 99.3125 123.9531 99.9844 123.9531 101.4531 C123.9531 102.9375 123.3125 103.6875 122.3438 103.6875 ZM124.5312 95.0781 C121.3438 95.4531 119.5625 97.7656 119.5625 100.4531 C119.5625 102.7812 120.6094 104.1719 122.3125 104.1719 C123.8438 104.1719 124.9219 103.1094 124.9219 101.2812 C124.9219 99.6875 123.9688 98.6562 122.5625 98.6562 C121.8281 98.6562 121.1406 98.9844 120.5781 99.5781 C120.7969 97.4062 122.0781 95.9688 124.5938 95.3906 L124.5312 95.0781 Z"
      /><rect x="101" y="82" width="8" style="fill:white; stroke:none;" height="8"
      /><path style="stroke:none;" d="M105.9844 87.7031 C105.9375 88.8906 105.1562 89.6562 104.3125 89.6562 C103.2656 89.6562 102.5 88.6875 102.5 86.7188 C102.5 85.2812 103.1562 84.1562 104.3438 84.1562 C105.1406 84.1562 105.7812 84.6875 106.0938 85.6406 L105.9844 87.7031 ZM107.9062 89.2812 C107.7344 89.375 107.5469 89.4219 107.3438 89.4219 C106.9531 89.4219 106.75 89.2188 106.75 88.4219 C106.75 87.4844 106.9688 85.5312 107.1875 83.8281 L107.0312 83.7188 L106.2344 83.9219 L106.1406 84.7969 C105.7812 84.0312 105.1562 83.6562 104.3906 83.6562 C103.0469 83.6562 101.5625 84.8438 101.5625 86.9531 C101.5625 89.0938 102.7188 90.1719 104.1406 90.1719 C105.0156 90.1719 105.6875 89.8125 106.0938 88.9844 C106.2031 89.8594 106.5156 90.1719 107.0156 90.1719 C107.4688 90.1719 107.7969 89.9062 108.0156 89.5625 L107.9062 89.2812 Z"
      /><rect x="174" y="109" width="7" style="fill:white; stroke:none;" height="9"
      /><path style="stroke:none;" d="M175 114.5156 L177.9531 110.2656 L177.9531 114.5156 L175 114.5156 ZM180.2812 114.5156 L178.8594 114.5156 L178.8594 109.125 L178.2344 109.125 L174.3438 114.6406 L174.3438 115.1875 L177.9531 115.1875 L177.9531 118 L178.8594 118 L178.8594 115.1875 L180.2812 115.1875 L180.2812 114.5156 Z"
      /><rect x="161" y="107" width="6" style="fill:white; stroke:none;" height="13"
      /><path style="stroke:none;" d="M163.0938 113.2031 C163.0938 111.6562 163.75 110.8125 164.7969 110.8125 C165.7188 110.8125 166.2656 111.4531 166.2656 112.5156 C166.2656 113.7188 165.5 114.4375 164.1875 114.7031 L164.2969 115.3125 C166.2188 115.2344 166.9375 116.2188 166.9375 117.4375 C166.9375 118.625 166.2344 119.4219 164.9531 119.4219 C164.25 119.4219 163.6562 119.1562 163.0938 118.7188 L163.0938 113.2031 ZM162.2031 119.9062 L162.1094 122.375 L162.2656 122.4844 L163.1562 122.2656 L163.0156 119.0938 C163.5469 119.8438 164.3594 120.1719 165.1719 120.1719 C166.5625 120.1719 167.8594 119.2188 167.8594 117.4844 C167.8594 115.9531 166.875 115.1094 165.125 115 C166.5625 114.6094 167.1875 113.4531 167.1875 112.4844 C167.1875 111.0938 166.1562 110.3125 164.9062 110.3125 C163.2969 110.3125 162.2188 111.5469 162.2188 113.5156 L162.2031 119.9062 Z"
      /><rect x="226" y="109" width="7" style="fill:white; stroke:none;" height="9"
      /><path style="stroke:none;" d="M227 114.5156 L229.9531 110.2656 L229.9531 114.5156 L227 114.5156 ZM232.2812 114.5156 L230.8594 114.5156 L230.8594 109.125 L230.2344 109.125 L226.3438 114.6406 L226.3438 115.1875 L229.9531 115.1875 L229.9531 118 L230.8594 118 L230.8594 115.1875 L232.2812 115.1875 L232.2812 114.5156 Z"
      /><rect x="213" y="107" width="6" style="fill:white; stroke:none;" height="13"
      /><path style="stroke:none;" d="M215.0938 113.2031 C215.0938 111.6562 215.75 110.8125 216.7969 110.8125 C217.7188 110.8125 218.2656 111.4531 218.2656 112.5156 C218.2656 113.7188 217.5 114.4375 216.1875 114.7031 L216.2969 115.3125 C218.2188 115.2344 218.9375 116.2188 218.9375 117.4375 C218.9375 118.625 218.2344 119.4219 216.9531 119.4219 C216.25 119.4219 215.6562 119.1562 215.0938 118.7188 L215.0938 113.2031 ZM214.2031 119.9062 L214.1094 122.375 L214.2656 122.4844 L215.1562 122.2656 L215.0156 119.0938 C215.5469 119.8438 216.3594 120.1719 217.1719 120.1719 C218.5625 120.1719 219.8594 119.2188 219.8594 117.4844 C219.8594 115.9531 218.875 115.1094 217.125 115 C218.5625 114.6094 219.1875 113.4531 219.1875 112.4844 C219.1875 111.0938 218.1562 110.3125 216.9062 110.3125 C215.2969 110.3125 214.2188 111.5469 214.2188 113.5156 L214.2031 119.9062 Z"
      /><rect x="265" y="107" width="6" style="fill:white; stroke:none;" height="13"
      /><path style="stroke:none;" d="M267.0938 113.2031 C267.0938 111.6562 267.75 110.8125 268.7969 110.8125 C269.7188 110.8125 270.2656 111.4531 270.2656 112.5156 C270.2656 113.7188 269.5 114.4375 268.1875 114.7031 L268.2969 115.3125 C270.2188 115.2344 270.9375 116.2188 270.9375 117.4375 C270.9375 118.625 270.2344 119.4219 268.9531 119.4219 C268.25 119.4219 267.6562 119.1562 267.0938 118.7188 L267.0938 113.2031 ZM266.2031 119.9062 L266.1094 122.375 L266.2656 122.4844 L267.1562 122.2656 L267.0156 119.0938 C267.5469 119.8438 268.3594 120.1719 269.1719 120.1719 C270.5625 120.1719 271.8594 119.2188 271.8594 117.4844 C271.8594 115.9531 270.875 115.1094 269.125 115 C270.5625 114.6094 271.1875 113.4531 271.1875 112.4844 C271.1875 111.0938 270.1562 110.3125 268.9062 110.3125 C267.2969 110.3125 266.2188 111.5469 266.2188 113.5156 L266.2031 119.9062 Z"
    /></g
  ></g
></svg
>
