<?xml version="1.0"?>
<!DOCTYPE svg PUBLIC '-//W3C//DTD SVG 1.0//EN'
          'http://www.w3.org/TR/2001/REC-SVG-20010904/DTD/svg10.dtd'>
<svg xmlns:xlink="http://www.w3.org/1999/xlink" style="fill-opacity:1; color-rendering:auto; color-interpolation:auto; text-rendering:auto; stroke:black; stroke-linecap:square; stroke-miterlimit:10; shape-rendering:auto; stroke-opacity:1; fill:black; stroke-dasharray:none; font-weight:normal; stroke-width:1; font-family:'Dialog'; font-style:normal; stroke-linejoin:miter; font-size:12px; stroke-dashoffset:0; image-rendering:auto;" viewBox="0 0 446 238" xmlns="http://www.w3.org/2000/svg"
><!--Generated by the Batik Graphics2D SVG Generator--><defs id="genericDefs"
  /><g
  ><defs id="defs1"
    ><clipPath clipPathUnits="userSpaceOnUse" id="clipPath1"
      ><path d="M342 88 L364 88 L364 110 L342 110 L342 88 Z"
      /></clipPath
      ><clipPath clipPathUnits="userSpaceOnUse" id="clipPath2"
      ><path d="M290 88 L312 88 L312 110 L290 110 L290 88 Z"
      /></clipPath
      ><clipPath clipPathUnits="userSpaceOnUse" id="clipPath3"
      ><path d="M260 99 C260 105.0751 255.0751 110 249 110 C242.9249 110 238 105.0751 238 99 C238 92.9249 242.9249 88 249 88 C255.0751 88 260 92.9249 260 99 Z"
      /></clipPath
      ><clipPath clipPathUnits="userSpaceOnUse" id="clipPath4"
      ><path d="M208 158 C208 164.0751 203.0751 169 197 169 C190.9249 169 186 164.0751 186 158 C186 151.9249 190.9249 147 197 147 C203.0751 147 208 151.9249 208 158 Z"
      /></clipPath
      ><clipPath clipPathUnits="userSpaceOnUse" id="clipPath5"
      ><path d="M134 186 L156 186 L156 208 L134 208 L134 186 Z"
      /></clipPath
      ><clipPath clipPathUnits="userSpaceOnUse" id="clipPath6"
      ><path d="M104 197 C104 203.0751 99.0751 208 93 208 C86.9249 208 82 203.0751 82 197 C82 190.9249 86.9249 186 93 186 C99.0751 186 104 190.9249 104 197 Z"
      /></clipPath
      ><clipPath clipPathUnits="userSpaceOnUse" id="clipPath7"
      ><path style="fill-rule:evenodd;" d="M41 186 L52 197 L41 208 L30 197 Z"
      /></clipPath
      ><clipPath clipPathUnits="userSpaceOnUse" id="clipPath8"
      ><path d="M134 108 L156 108 L156 130 L134 130 L134 108 Z"
      /></clipPath
      ><clipPath clipPathUnits="userSpaceOnUse" id="clipPath9"
      ><path d="M104 145 C104 151.0751 99.0751 156 93 156 C86.9249 156 82 151.0751 82 145 C82 138.9249 86.9249 134 93 134 C99.0751 134 104 138.9249 104 145 Z"
      /></clipPath
      ><clipPath clipPathUnits="userSpaceOnUse" id="clipPath10"
      ><path style="fill-rule:evenodd;" d="M41 134 L52 145 L41 156 L30 145 Z"
      /></clipPath
      ><clipPath clipPathUnits="userSpaceOnUse" id="clipPath11"
      ><path style="fill-rule:evenodd;" d="M93 82 L104 93 L93 104 L82 93 Z"
      /></clipPath
      ><clipPath clipPathUnits="userSpaceOnUse" id="clipPath12"
      ><path d="M208 41 C208 47.0751 203.0751 52 197 52 C190.9249 52 186 47.0751 186 41 C186 34.9249 190.9249 30 197 30 C203.0751 30 208 34.9249 208 41 Z"
      /></clipPath
      ><clipPath clipPathUnits="userSpaceOnUse" id="clipPath13"
      ><path d="M134 30 L156 30 L156 52 L134 52 L134 30 Z"
      /></clipPath
      ><clipPath clipPathUnits="userSpaceOnUse" id="clipPath14"
      ><path d="M104 41 C104 47.0751 99.0751 52 93 52 C86.9249 52 82 47.0751 82 41 C82 34.9249 86.9249 30 93 30 C99.0751 30 104 34.9249 104 41 Z"
      /></clipPath
      ><clipPath clipPathUnits="userSpaceOnUse" id="clipPath15"
      ><path style="fill-rule:evenodd;" d="M41 30 L52 41 L41 52 L30 41 Z"
      /></clipPath
    ></defs
    ><g style="fill:white; text-rendering:optimizeSpeed; stroke:white;"
    ><rect x="0" width="446" height="238" y="0" style="stroke:none;"
      /><polygon style="fill:none; stroke:black;" points=" 405 99 353 99"
      /><path d="M405 88 C399.5 93.5 410.5 104.5 405 110" style="fill:none; stroke:black;"
      /><polygon style="fill:none; stroke:black;" points=" 353 99 301 99"
      /><rect x="342" y="88" width="22" style="clip-path:url(#clipPath1); stroke:none;" height="22"
      /><rect x="342" y="88" width="22" style="clip-path:url(#clipPath1); fill:rgb(0,144,188); stroke:none;" height="22"
      /><rect x="342" y="88" width="22" style="clip-path:url(#clipPath1); fill:none; stroke:black;" height="22"
      /><rect x="342" y="88" width="22" style="fill:none; stroke:black;" height="22"
      /><polygon style="fill:none; stroke:black;" points=" 301 99 249 99"
      /><rect x="290" y="88" width="22" style="clip-path:url(#clipPath2); stroke:none;" height="22"
      /><rect x="290" y="88" width="22" style="clip-path:url(#clipPath2); fill:rgb(0,144,188); stroke:none;" height="22"
      /><rect x="290" y="88" width="22" style="clip-path:url(#clipPath2); fill:none; stroke:black;" height="22"
      /><rect x="290" y="88" width="22" style="fill:none; stroke:black;" height="22"
      /><polygon style="fill:none; stroke:black;" points=" 249 99 197 158"
      /><polygon style="fill:none; stroke:black;" points=" 249 99 197 41"
      /><circle style="clip-path:url(#clipPath3); stroke:none;" r="11" cx="249" cy="99"
      /><rect x="238" y="88" width="22" style="clip-path:url(#clipPath3); fill:rgb(0,166,81); stroke:none;" height="22"
      /><rect x="238" y="88" width="22" style="clip-path:url(#clipPath3); fill:none; stroke:black;" height="22"
      /><circle style="fill:none; stroke:black;" r="11" cx="249" cy="99"
      /><polygon style="fill:none; stroke:black;" points=" 197 158 145 197"
      /><polygon style="fill:none; stroke:black;" points=" 197 158 145 119"
      /><circle style="clip-path:url(#clipPath4); stroke:none;" r="11" cx="197" cy="158"
      /><rect x="186" y="147" width="22" style="clip-path:url(#clipPath4); fill:rgb(0,166,81); stroke:none;" height="22"
      /><rect x="186" y="147" width="22" style="clip-path:url(#clipPath4); fill:none; stroke:black;" height="22"
      /><circle style="fill:none; stroke:black;" r="11" cx="197" cy="158"
      /><polygon style="fill:none; stroke:black;" points=" 145 197 93 197"
      /><rect x="134" y="186" width="22" style="clip-path:url(#clipPath5); stroke:none;" height="22"
      /><rect x="134" y="186" width="22" style="clip-path:url(#clipPath5); fill:rgb(0,144,188); stroke:none;" height="22"
      /><rect x="134" y="186" width="22" style="clip-path:url(#clipPath5); fill:none; stroke:black;" height="22"
      /><rect x="134" y="186" width="22" style="fill:none; stroke:black;" height="22"
      /><polygon style="fill:none; stroke:black;" points=" 93 197 41 197"
      /><circle style="clip-path:url(#clipPath6); stroke:none;" r="11" cx="93" cy="197"
      /><rect x="82" y="186" width="22" style="clip-path:url(#clipPath6); fill:rgb(255,212,0); stroke:none;" height="22"
      /><rect x="82" y="186" width="22" style="clip-path:url(#clipPath6); fill:none; stroke:black;" height="22"
      /><circle style="fill:none; stroke:black;" r="11" cx="93" cy="197"
      /><polygon style="clip-path:url(#clipPath7); stroke:none;" points=" 41 186 52 197 41 208 30 197"
      /><rect x="30" y="186" width="22" style="clip-path:url(#clipPath7); fill:rgb(165,67,153); stroke:none;" height="22"
      /><rect x="30" y="186" width="22" style="clip-path:url(#clipPath7); fill:none; stroke:black;" height="22"
      /><polygon style="fill:none; stroke:black;" points=" 41 186 52 197 41 208 30 197"
      /><rect x="66" y="198" width="16" style="stroke:none;" height="13"
    /></g
    ><g style="font-family:'Serif'; text-rendering:optimizeSpeed; "
    ><path style="stroke:none;" d="M68.2344 202.6562 C68.5156 202.5938 68.7656 202.5625 69.0156 202.5625 C70.0625 202.5625 70.6719 203.1719 70.6719 204.2656 C70.6719 205.4375 69.9062 206.1094 68.7031 206.1094 L68.1875 206.1094 L68.1875 206.6406 L68.7969 206.6406 C70.2188 206.6406 70.9062 207.4219 70.9062 208.6406 C70.9062 209.8438 70.1719 210.6875 68.875 210.6875 C68.6094 210.6875 68.3125 210.6562 68.0156 210.5625 L67.7812 209.8125 C67.625 209.2812 67.5 209.0469 67.1406 209.0469 C66.8906 209.0469 66.7031 209.1719 66.5781 209.4219 C66.8438 210.6406 67.7812 211.1719 69.0312 211.1719 C70.7188 211.1719 71.875 210.125 71.875 208.7031 C71.875 207.5 71.2031 206.625 69.7969 206.375 C70.9531 206.0156 71.6094 205.2031 71.6094 204.2031 C71.6094 202.9219 70.6719 202.0781 69.1875 202.0781 C68.0469 202.0781 67.0625 202.5938 66.7969 203.6875 C66.9062 204 67.1094 204.1094 67.3594 204.1094 C67.7344 204.1094 67.8906 203.8906 68 203.4062 L68.2344 202.6562 ZM72.4993 213.0938 L73.1087 213.0938 L76.6087 201.7344 L75.9837 201.7344 L72.4993 213.0938 ZM79.9878 210.6875 C78.8472 210.6875 78.1753 209.5 78.1753 207.2969 C78.1753 207.2188 78.1753 207.125 78.1753 207.0469 C78.7378 206.5 79.3628 206.3125 79.9878 206.3125 C80.9566 206.3125 81.5972 206.9844 81.5972 208.4531 C81.5972 209.9375 80.9566 210.6875 79.9878 210.6875 ZM82.1753 202.0781 C78.9878 202.4531 77.2066 204.7656 77.2066 207.4531 C77.2066 209.7812 78.2534 211.1719 79.9566 211.1719 C81.4878 211.1719 82.5659 210.1094 82.5659 208.2812 C82.5659 206.6875 81.6128 205.6562 80.2066 205.6562 C79.4722 205.6562 78.7847 205.9844 78.2222 206.5781 C78.4409 204.4062 79.7222 202.9688 82.2378 202.3906 L82.1753 202.0781 Z"
      /><rect x="56" y="201" width="8" style="fill:white; stroke:none;" height="8"
      /><path style="stroke:none;" d="M60.9844 206.7031 C60.9375 207.8906 60.1562 208.6562 59.3125 208.6562 C58.2656 208.6562 57.5 207.6875 57.5 205.7188 C57.5 204.2812 58.1562 203.1562 59.3438 203.1562 C60.1406 203.1562 60.7812 203.6875 61.0938 204.6406 L60.9844 206.7031 ZM62.9062 208.2812 C62.7344 208.375 62.5469 208.4219 62.3438 208.4219 C61.9531 208.4219 61.75 208.2188 61.75 207.4219 C61.75 206.4844 61.9688 204.5312 62.1875 202.8281 L62.0312 202.7188 L61.2344 202.9219 L61.1406 203.7969 C60.7812 203.0312 60.1562 202.6562 59.3906 202.6562 C58.0469 202.6562 56.5625 203.8438 56.5625 205.9531 C56.5625 208.0938 57.7188 209.1719 59.1406 209.1719 C60.0156 209.1719 60.6875 208.8125 61.0938 207.9844 C61.2031 208.8594 61.5156 209.1719 62.0156 209.1719 C62.4688 209.1719 62.7969 208.9062 63.0156 208.5625 L62.9062 208.2812 Z"
      /><rect x="122" y="200" width="7" style="fill:white; stroke:none;" height="9"
      /><path style="stroke:none;" d="M123 205.5156 L125.9531 201.2656 L125.9531 205.5156 L123 205.5156 ZM128.2812 205.5156 L126.8594 205.5156 L126.8594 200.125 L126.2344 200.125 L122.3438 205.6406 L122.3438 206.1875 L125.9531 206.1875 L125.9531 209 L126.8594 209 L126.8594 206.1875 L128.2812 206.1875 L128.2812 205.5156 Z"
      /><rect x="109" y="198" width="6" style="fill:white; stroke:none;" height="13"
      /><path style="stroke:none;" d="M111.0938 204.2031 C111.0938 202.6562 111.75 201.8125 112.7969 201.8125 C113.7188 201.8125 114.2656 202.4531 114.2656 203.5156 C114.2656 204.7188 113.5 205.4375 112.1875 205.7031 L112.2969 206.3125 C114.2188 206.2344 114.9375 207.2188 114.9375 208.4375 C114.9375 209.625 114.2344 210.4219 112.9531 210.4219 C112.25 210.4219 111.6562 210.1562 111.0938 209.7188 L111.0938 204.2031 ZM110.2031 210.9062 L110.1094 213.375 L110.2656 213.4844 L111.1562 213.2656 L111.0156 210.0938 C111.5469 210.8438 112.3594 211.1719 113.1719 211.1719 C114.5625 211.1719 115.8594 210.2188 115.8594 208.4844 C115.8594 206.9531 114.875 206.1094 113.125 206 C114.5625 205.6094 115.1875 204.4531 115.1875 203.4844 C115.1875 202.0938 114.1562 201.3125 112.9062 201.3125 C111.2969 201.3125 110.2188 202.5469 110.2188 204.5156 L110.2031 210.9062 Z"
      /><polygon style="fill:none;" points=" 145 119 93 145"
      /><polygon style="fill:none;" points=" 145 119 93 93"
      /><rect x="134" y="108" width="22" style="clip-path:url(#clipPath8); fill:white; stroke:none;" height="22"
      /><rect x="134" y="108" width="22" style="clip-path:url(#clipPath8); fill:rgb(0,144,188); stroke:none;" height="22"
      /><rect x="134" y="108" width="22" style="fill:none; clip-path:url(#clipPath8);" height="22"
      /><rect x="134" width="22" height="22" y="108" style="fill:none;"
      /><polygon style="fill:none;" points=" 93 145 41 145"
      /><circle style="fill:white; clip-path:url(#clipPath9); stroke:none;" r="11" cx="93" cy="145"
      /><rect x="82" y="134" width="22" style="clip-path:url(#clipPath9); fill:rgb(255,212,0); stroke:none;" height="22"
      /><rect x="82" y="134" width="22" style="fill:none; clip-path:url(#clipPath9);" height="22"
      /><circle r="11" style="fill:none;" cx="93" cy="145"
      /><polygon style="fill:white; clip-path:url(#clipPath10); stroke:none;" points=" 41 134 52 145 41 156 30 145"
      /><rect x="30" y="134" width="22" style="clip-path:url(#clipPath10); fill:rgb(165,67,153); stroke:none;" height="22"
      /><rect x="30" y="134" width="22" style="fill:none; clip-path:url(#clipPath10);" height="22"
      /><polygon style="fill:none;" points=" 41 134 52 145 41 156 30 145"
      /><rect x="66" y="146" width="16" style="fill:white; stroke:none;" height="13"
      /><path style="stroke:none;" d="M68.2344 150.6562 C68.5156 150.5938 68.7656 150.5625 69.0156 150.5625 C70.0625 150.5625 70.6719 151.1719 70.6719 152.2656 C70.6719 153.4375 69.9062 154.1094 68.7031 154.1094 L68.1875 154.1094 L68.1875 154.6406 L68.7969 154.6406 C70.2188 154.6406 70.9062 155.4219 70.9062 156.6406 C70.9062 157.8438 70.1719 158.6875 68.875 158.6875 C68.6094 158.6875 68.3125 158.6562 68.0156 158.5625 L67.7812 157.8125 C67.625 157.2812 67.5 157.0469 67.1406 157.0469 C66.8906 157.0469 66.7031 157.1719 66.5781 157.4219 C66.8438 158.6406 67.7812 159.1719 69.0312 159.1719 C70.7188 159.1719 71.875 158.125 71.875 156.7031 C71.875 155.5 71.2031 154.625 69.7969 154.375 C70.9531 154.0156 71.6094 153.2031 71.6094 152.2031 C71.6094 150.9219 70.6719 150.0781 69.1875 150.0781 C68.0469 150.0781 67.0625 150.5938 66.7969 151.6875 C66.9062 152 67.1094 152.1094 67.3594 152.1094 C67.7344 152.1094 67.8906 151.8906 68 151.4062 L68.2344 150.6562 ZM72.4993 161.0938 L73.1087 161.0938 L76.6087 149.7344 L75.9837 149.7344 L72.4993 161.0938 ZM79.9878 158.6875 C78.8472 158.6875 78.1753 157.5 78.1753 155.2969 C78.1753 155.2188 78.1753 155.125 78.1753 155.0469 C78.7378 154.5 79.3628 154.3125 79.9878 154.3125 C80.9566 154.3125 81.5972 154.9844 81.5972 156.4531 C81.5972 157.9375 80.9566 158.6875 79.9878 158.6875 ZM82.1753 150.0781 C78.9878 150.4531 77.2066 152.7656 77.2066 155.4531 C77.2066 157.7812 78.2534 159.1719 79.9566 159.1719 C81.4878 159.1719 82.5659 158.1094 82.5659 156.2812 C82.5659 154.6875 81.6128 153.6562 80.2066 153.6562 C79.4722 153.6562 78.7847 153.9844 78.2222 154.5781 C78.4409 152.4062 79.7222 150.9688 82.2378 150.3906 L82.1753 150.0781 Z"
      /><rect x="56" y="149" width="8" style="fill:white; stroke:none;" height="8"
      /><path style="stroke:none;" d="M60.9844 154.7031 C60.9375 155.8906 60.1562 156.6562 59.3125 156.6562 C58.2656 156.6562 57.5 155.6875 57.5 153.7188 C57.5 152.2812 58.1562 151.1562 59.3438 151.1562 C60.1406 151.1562 60.7812 151.6875 61.0938 152.6406 L60.9844 154.7031 ZM62.9062 156.2812 C62.7344 156.375 62.5469 156.4219 62.3438 156.4219 C61.9531 156.4219 61.75 156.2188 61.75 155.4219 C61.75 154.4844 61.9688 152.5312 62.1875 150.8281 L62.0312 150.7188 L61.2344 150.9219 L61.1406 151.7969 C60.7812 151.0312 60.1562 150.6562 59.3906 150.6562 C58.0469 150.6562 56.5625 151.8438 56.5625 153.9531 C56.5625 156.0938 57.7188 157.1719 59.1406 157.1719 C60.0156 157.1719 60.6875 156.8125 61.0938 155.9844 C61.2031 156.8594 61.5156 157.1719 62.0156 157.1719 C62.4688 157.1719 62.7969 156.9062 63.0156 156.5625 L62.9062 156.2812 Z"
      /><polygon style="fill:white; clip-path:url(#clipPath11); stroke:none;" points=" 93 82 104 93 93 104 82 93"
      /><rect x="82" y="82" width="22" style="clip-path:url(#clipPath11); fill:rgb(165,67,153); stroke:none;" height="22"
      /><rect x="82" y="82" width="22" style="fill:none; clip-path:url(#clipPath11);" height="22"
      /><polygon style="fill:none;" points=" 93 82 104 93 93 104 82 93"
      /><rect x="127" y="130" width="6" style="fill:white; stroke:none;" height="10"
      /><path style="stroke:none;" d="M129.2344 131.6562 C129.5156 131.5938 129.7656 131.5625 130.0156 131.5625 C131.0625 131.5625 131.6719 132.1719 131.6719 133.2656 C131.6719 134.4375 130.9062 135.1094 129.7031 135.1094 L129.1875 135.1094 L129.1875 135.6406 L129.7969 135.6406 C131.2188 135.6406 131.9062 136.4219 131.9062 137.6406 C131.9062 138.8438 131.1719 139.6875 129.875 139.6875 C129.6094 139.6875 129.3125 139.6562 129.0156 139.5625 L128.7812 138.8125 C128.625 138.2812 128.5 138.0469 128.1406 138.0469 C127.8906 138.0469 127.7031 138.1719 127.5781 138.4219 C127.8438 139.6406 128.7812 140.1719 130.0312 140.1719 C131.7188 140.1719 132.875 139.125 132.875 137.7031 C132.875 136.5 132.2031 135.625 130.7969 135.375 C131.9531 135.0156 132.6094 134.2031 132.6094 133.2031 C132.6094 131.9219 131.6719 131.0781 130.1875 131.0781 C129.0469 131.0781 128.0625 131.5938 127.7969 132.6875 C127.9062 133 128.1094 133.1094 128.3594 133.1094 C128.7344 133.1094 128.8906 132.8906 129 132.4062 L129.2344 131.6562 Z"
      /><rect x="111" y="136" width="6" style="fill:white; stroke:none;" height="13"
      /><path style="stroke:none;" d="M113.0938 142.2031 C113.0938 140.6562 113.75 139.8125 114.7969 139.8125 C115.7188 139.8125 116.2656 140.4531 116.2656 141.5156 C116.2656 142.7188 115.5 143.4375 114.1875 143.7031 L114.2969 144.3125 C116.2188 144.2344 116.9375 145.2188 116.9375 146.4375 C116.9375 147.625 116.2344 148.4219 114.9531 148.4219 C114.25 148.4219 113.6562 148.1562 113.0938 147.7188 L113.0938 142.2031 ZM112.2031 148.9062 L112.1094 151.375 L112.2656 151.4844 L113.1562 151.2656 L113.0156 148.0938 C113.5469 148.8438 114.3594 149.1719 115.1719 149.1719 C116.5625 149.1719 117.8594 148.2188 117.8594 146.4844 C117.8594 144.9531 116.875 144.1094 115.125 144 C116.5625 143.6094 117.1875 142.4531 117.1875 141.4844 C117.1875 140.0938 116.1562 139.3125 114.9062 139.3125 C113.2969 139.3125 112.2188 140.5469 112.2188 142.5156 L112.2031 148.9062 Z"
      /><rect x="120" y="112" width="6" style="fill:white; stroke:none;" height="10"
      /><path style="stroke:none;" d="M123.3438 121.6875 C122.2031 121.6875 121.5312 120.5 121.5312 118.2969 C121.5312 118.2188 121.5312 118.125 121.5312 118.0469 C122.0938 117.5 122.7188 117.3125 123.3438 117.3125 C124.3125 117.3125 124.9531 117.9844 124.9531 119.4531 C124.9531 120.9375 124.3125 121.6875 123.3438 121.6875 ZM125.5312 113.0781 C122.3438 113.4531 120.5625 115.7656 120.5625 118.4531 C120.5625 120.7812 121.6094 122.1719 123.3125 122.1719 C124.8438 122.1719 125.9219 121.1094 125.9219 119.2812 C125.9219 117.6875 124.9688 116.6562 123.5625 116.6562 C122.8281 116.6562 122.1406 116.9844 121.5781 117.5781 C121.7969 115.4062 123.0781 113.9688 125.5938 113.3906 L125.5312 113.0781 Z"
      /><rect x="103" y="105" width="8" style="fill:white; stroke:none;" height="8"
      /><path style="stroke:none;" d="M107.9844 110.7031 C107.9375 111.8906 107.1562 112.6562 106.3125 112.6562 C105.2656 112.6562 104.5 111.6875 104.5 109.7188 C104.5 108.2812 105.1562 107.1562 106.3438 107.1562 C107.1406 107.1562 107.7812 107.6875 108.0938 108.6406 L107.9844 110.7031 ZM109.9062 112.2812 C109.7344 112.375 109.5469 112.4219 109.3438 112.4219 C108.9531 112.4219 108.75 112.2188 108.75 111.4219 C108.75 110.4844 108.9688 108.5312 109.1875 106.8281 L109.0312 106.7188 L108.2344 106.9219 L108.1406 107.7969 C107.7812 107.0312 107.1562 106.6562 106.3906 106.6562 C105.0469 106.6562 103.5625 107.8438 103.5625 109.9531 C103.5625 112.0938 104.7188 113.1719 106.1406 113.1719 C107.0156 113.1719 107.6875 112.8125 108.0938 111.9844 C108.2031 112.8594 108.5156 113.1719 109.0156 113.1719 C109.4688 113.1719 109.7969 112.9062 110.0156 112.5625 L109.9062 112.2812 Z"
      /><rect x="181" y="172" width="6" style="fill:white; stroke:none;" height="9"
      /><path style="stroke:none;" d="M182.4219 180.0938 C183.0781 179.375 183.7031 178.7188 184.0312 178.3438 C185.9219 176.3125 186.5312 175.4688 186.5312 174.3594 C186.5312 173.0156 185.7812 172.0781 184.1562 172.0781 C182.9062 172.0781 181.7969 172.7031 181.5938 173.9688 C181.7188 174.2031 181.9062 174.3438 182.1562 174.3438 C182.4688 174.3438 182.6562 174.1094 182.7969 173.5938 L183.0938 172.6719 C183.3906 172.5938 183.6562 172.5625 183.8906 172.5625 C184.9219 172.5625 185.5469 173.3125 185.5469 174.4219 C185.5469 175.4375 184.9844 176.4219 183.7031 177.9062 C183.125 178.5781 182.3906 179.4375 181.6406 180.2812 L181.6406 181 L186.9219 181 L186.9219 180.0938 L182.4219 180.0938 Z"
      /><rect x="164" y="183" width="6" style="fill:white; stroke:none;" height="13"
      /><path style="stroke:none;" d="M166.0938 189.2031 C166.0938 187.6562 166.75 186.8125 167.7969 186.8125 C168.7188 186.8125 169.2656 187.4531 169.2656 188.5156 C169.2656 189.7188 168.5 190.4375 167.1875 190.7031 L167.2969 191.3125 C169.2188 191.2344 169.9375 192.2188 169.9375 193.4375 C169.9375 194.625 169.2344 195.4219 167.9531 195.4219 C167.25 195.4219 166.6562 195.1562 166.0938 194.7188 L166.0938 189.2031 ZM165.2031 195.9062 L165.1094 198.375 L165.2656 198.4844 L166.1562 198.2656 L166.0156 195.0938 C166.5469 195.8438 167.3594 196.1719 168.1719 196.1719 C169.5625 196.1719 170.8594 195.2188 170.8594 193.4844 C170.8594 191.9531 169.875 191.1094 168.125 191 C169.5625 190.6094 170.1875 189.4531 170.1875 188.4844 C170.1875 187.0938 169.1562 186.3125 167.9062 186.3125 C166.2969 186.3125 165.2188 187.5469 165.2188 189.5156 L165.2031 195.9062 Z"
      /><rect x="171" y="146" width="7" style="fill:white; stroke:none;" height="9"
      /><path style="stroke:none;" d="M172 151.5156 L174.9531 147.2656 L174.9531 151.5156 L172 151.5156 ZM177.2812 151.5156 L175.8594 151.5156 L175.8594 146.125 L175.2344 146.125 L171.3438 151.6406 L171.3438 152.1875 L174.9531 152.1875 L174.9531 155 L175.8594 155 L175.8594 152.1875 L177.2812 152.1875 L177.2812 151.5156 Z"
      /><rect x="154" y="131" width="6" style="fill:white; stroke:none;" height="13"
      /><path style="stroke:none;" d="M156.0938 137.2031 C156.0938 135.6562 156.75 134.8125 157.7969 134.8125 C158.7188 134.8125 159.2656 135.4531 159.2656 136.5156 C159.2656 137.7188 158.5 138.4375 157.1875 138.7031 L157.2969 139.3125 C159.2188 139.2344 159.9375 140.2188 159.9375 141.4375 C159.9375 142.625 159.2344 143.4219 157.9531 143.4219 C157.25 143.4219 156.6562 143.1562 156.0938 142.7188 L156.0938 137.2031 ZM155.2031 143.9062 L155.1094 146.375 L155.2656 146.4844 L156.1562 146.2656 L156.0156 143.0938 C156.5469 143.8438 157.3594 144.1719 158.1719 144.1719 C159.5625 144.1719 160.8594 143.2188 160.8594 141.4844 C160.8594 139.9531 159.875 139.1094 158.125 139 C159.5625 138.6094 160.1875 137.4531 160.1875 136.4844 C160.1875 135.0938 159.1562 134.3125 157.9062 134.3125 C156.2969 134.3125 155.2188 135.5469 155.2188 137.5156 L155.2031 143.9062 Z"
      /><polygon style="fill:none;" points=" 197 41 145 41"
      /><circle style="fill:white; clip-path:url(#clipPath12); stroke:none;" r="11" cx="197" cy="41"
      /><rect x="186" y="30" width="22" style="clip-path:url(#clipPath12); fill:rgb(0,166,81); stroke:none;" height="22"
      /><rect x="186" y="30" width="22" style="fill:none; clip-path:url(#clipPath12);" height="22"
      /><circle r="11" style="fill:none;" cx="197" cy="41"
      /><polygon style="fill:none;" points=" 145 41 93 41"
      /><rect x="134" y="30" width="22" style="clip-path:url(#clipPath13); fill:white; stroke:none;" height="22"
      /><rect x="134" y="30" width="22" style="clip-path:url(#clipPath13); fill:rgb(0,144,188); stroke:none;" height="22"
      /><rect x="134" y="30" width="22" style="fill:none; clip-path:url(#clipPath13);" height="22"
      /><rect x="134" width="22" height="22" y="30" style="fill:none;"
      /><polygon style="fill:none;" points=" 93 41 41 41"
      /><circle style="fill:white; clip-path:url(#clipPath14); stroke:none;" r="11" cx="93" cy="41"
      /><rect x="82" y="30" width="22" style="clip-path:url(#clipPath14); fill:rgb(255,212,0); stroke:none;" height="22"
      /><rect x="82" y="30" width="22" style="fill:none; clip-path:url(#clipPath14);" height="22"
      /><circle r="11" style="fill:none;" cx="93" cy="41"
      /><polygon style="fill:white; clip-path:url(#clipPath15); stroke:none;" points=" 41 30 52 41 41 52 30 41"
      /><rect x="30" y="30" width="22" style="clip-path:url(#clipPath15); fill:rgb(165,67,153); stroke:none;" height="22"
      /><rect x="30" y="30" width="22" style="fill:none; clip-path:url(#clipPath15);" height="22"
      /><polygon style="fill:none;" points=" 41 30 52 41 41 52 30 41"
      /><rect x="66" y="42" width="16" style="fill:white; stroke:none;" height="13"
      /><path style="stroke:none;" d="M68.2344 46.6562 C68.5156 46.5938 68.7656 46.5625 69.0156 46.5625 C70.0625 46.5625 70.6719 47.1719 70.6719 48.2656 C70.6719 49.4375 69.9062 50.1094 68.7031 50.1094 L68.1875 50.1094 L68.1875 50.6406 L68.7969 50.6406 C70.2188 50.6406 70.9062 51.4219 70.9062 52.6406 C70.9062 53.8438 70.1719 54.6875 68.875 54.6875 C68.6094 54.6875 68.3125 54.6562 68.0156 54.5625 L67.7812 53.8125 C67.625 53.2812 67.5 53.0469 67.1406 53.0469 C66.8906 53.0469 66.7031 53.1719 66.5781 53.4219 C66.8438 54.6406 67.7812 55.1719 69.0312 55.1719 C70.7188 55.1719 71.875 54.125 71.875 52.7031 C71.875 51.5 71.2031 50.625 69.7969 50.375 C70.9531 50.0156 71.6094 49.2031 71.6094 48.2031 C71.6094 46.9219 70.6719 46.0781 69.1875 46.0781 C68.0469 46.0781 67.0625 46.5938 66.7969 47.6875 C66.9062 48 67.1094 48.1094 67.3594 48.1094 C67.7344 48.1094 67.8906 47.8906 68 47.4062 L68.2344 46.6562 ZM72.4993 57.0938 L73.1087 57.0938 L76.6087 45.7344 L75.9837 45.7344 L72.4993 57.0938 ZM79.9878 54.6875 C78.8472 54.6875 78.1753 53.5 78.1753 51.2969 C78.1753 51.2188 78.1753 51.125 78.1753 51.0469 C78.7378 50.5 79.3628 50.3125 79.9878 50.3125 C80.9566 50.3125 81.5972 50.9844 81.5972 52.4531 C81.5972 53.9375 80.9566 54.6875 79.9878 54.6875 ZM82.1753 46.0781 C78.9878 46.4531 77.2066 48.7656 77.2066 51.4531 C77.2066 53.7812 78.2534 55.1719 79.9566 55.1719 C81.4878 55.1719 82.5659 54.1094 82.5659 52.2812 C82.5659 50.6875 81.6128 49.6562 80.2066 49.6562 C79.4722 49.6562 78.7847 49.9844 78.2222 50.5781 C78.4409 48.4062 79.7222 46.9688 82.2378 46.3906 L82.1753 46.0781 Z"
      /><rect x="56" y="45" width="8" style="fill:white; stroke:none;" height="8"
      /><path style="stroke:none;" d="M60.9844 50.7031 C60.9375 51.8906 60.1562 52.6562 59.3125 52.6562 C58.2656 52.6562 57.5 51.6875 57.5 49.7188 C57.5 48.2812 58.1562 47.1562 59.3438 47.1562 C60.1406 47.1562 60.7812 47.6875 61.0938 48.6406 L60.9844 50.7031 ZM62.9062 52.2812 C62.7344 52.375 62.5469 52.4219 62.3438 52.4219 C61.9531 52.4219 61.75 52.2188 61.75 51.4219 C61.75 50.4844 61.9688 48.5312 62.1875 46.8281 L62.0312 46.7188 L61.2344 46.9219 L61.1406 47.7969 C60.7812 47.0312 60.1562 46.6562 59.3906 46.6562 C58.0469 46.6562 56.5625 47.8438 56.5625 49.9531 C56.5625 52.0938 57.7188 53.1719 59.1406 53.1719 C60.0156 53.1719 60.6875 52.8125 61.0938 51.9844 C61.2031 52.8594 61.5156 53.1719 62.0156 53.1719 C62.4688 53.1719 62.7969 52.9062 63.0156 52.5625 L62.9062 52.2812 Z"
      /><rect x="122" y="44" width="7" style="fill:white; stroke:none;" height="9"
      /><path style="stroke:none;" d="M123 49.5156 L125.9531 45.2656 L125.9531 49.5156 L123 49.5156 ZM128.2812 49.5156 L126.8594 49.5156 L126.8594 44.125 L126.2344 44.125 L122.3438 49.6406 L122.3438 50.1875 L125.9531 50.1875 L125.9531 53 L126.8594 53 L126.8594 50.1875 L128.2812 50.1875 L128.2812 49.5156 Z"
      /><rect x="109" y="42" width="6" style="fill:white; stroke:none;" height="13"
      /><path style="stroke:none;" d="M111.0938 48.2031 C111.0938 46.6562 111.75 45.8125 112.7969 45.8125 C113.7188 45.8125 114.2656 46.4531 114.2656 47.5156 C114.2656 48.7188 113.5 49.4375 112.1875 49.7031 L112.2969 50.3125 C114.2188 50.2344 114.9375 51.2188 114.9375 52.4375 C114.9375 53.625 114.2344 54.4219 112.9531 54.4219 C112.25 54.4219 111.6562 54.1562 111.0938 53.7188 L111.0938 48.2031 ZM110.2031 54.9062 L110.1094 57.375 L110.2656 57.4844 L111.1562 57.2656 L111.0156 54.0938 C111.5469 54.8438 112.3594 55.1719 113.1719 55.1719 C114.5625 55.1719 115.8594 54.2188 115.8594 52.4844 C115.8594 50.9531 114.875 50.1094 113.125 50 C114.5625 49.6094 115.1875 48.4531 115.1875 47.4844 C115.1875 46.0938 114.1562 45.3125 112.9062 45.3125 C111.2969 45.3125 110.2188 46.5469 110.2188 48.5156 L110.2031 54.9062 Z"
      /><rect x="175" y="44" width="6" style="fill:white; stroke:none;" height="9"
      /><path style="stroke:none;" d="M176.4219 52.0938 C177.0781 51.375 177.7031 50.7188 178.0312 50.3438 C179.9219 48.3125 180.5312 47.4688 180.5312 46.3594 C180.5312 45.0156 179.7812 44.0781 178.1562 44.0781 C176.9062 44.0781 175.7969 44.7031 175.5938 45.9688 C175.7188 46.2031 175.9062 46.3438 176.1562 46.3438 C176.4688 46.3438 176.6562 46.1094 176.7969 45.5938 L177.0938 44.6719 C177.3906 44.5938 177.6562 44.5625 177.8906 44.5625 C178.9219 44.5625 179.5469 45.3125 179.5469 46.4219 C179.5469 47.4375 178.9844 48.4219 177.7031 49.9062 C177.125 50.5781 176.3906 51.4375 175.6406 52.2812 L175.6406 53 L180.9219 53 L180.9219 52.0938 L176.4219 52.0938 Z"
      /><rect x="161" y="42" width="6" style="fill:white; stroke:none;" height="13"
      /><path style="stroke:none;" d="M163.0938 48.2031 C163.0938 46.6562 163.75 45.8125 164.7969 45.8125 C165.7188 45.8125 166.2656 46.4531 166.2656 47.5156 C166.2656 48.7188 165.5 49.4375 164.1875 49.7031 L164.2969 50.3125 C166.2188 50.2344 166.9375 51.2188 166.9375 52.4375 C166.9375 53.625 166.2344 54.4219 164.9531 54.4219 C164.25 54.4219 163.6562 54.1562 163.0938 53.7188 L163.0938 48.2031 ZM162.2031 54.9062 L162.1094 57.375 L162.2656 57.4844 L163.1562 57.2656 L163.0156 54.0938 C163.5469 54.8438 164.3594 55.1719 165.1719 55.1719 C166.5625 55.1719 167.8594 54.2188 167.8594 52.4844 C167.8594 50.9531 166.875 50.1094 165.125 50 C166.5625 49.6094 167.1875 48.4531 167.1875 47.4844 C167.1875 46.0938 166.1562 45.3125 164.9062 45.3125 C163.2969 45.3125 162.2188 46.5469 162.2188 48.5156 L162.2031 54.9062 Z"
      /><rect x="237" y="116" width="6" style="fill:white; stroke:none;" height="10"
      /><path style="stroke:none;" d="M239.2344 117.6562 C239.5156 117.5938 239.7656 117.5625 240.0156 117.5625 C241.0625 117.5625 241.6719 118.1719 241.6719 119.2656 C241.6719 120.4375 240.9062 121.1094 239.7031 121.1094 L239.1875 121.1094 L239.1875 121.6406 L239.7969 121.6406 C241.2188 121.6406 241.9062 122.4219 241.9062 123.6406 C241.9062 124.8438 241.1719 125.6875 239.875 125.6875 C239.6094 125.6875 239.3125 125.6562 239.0156 125.5625 L238.7812 124.8125 C238.625 124.2812 238.5 124.0469 238.1406 124.0469 C237.8906 124.0469 237.7031 124.1719 237.5781 124.4219 C237.8438 125.6406 238.7812 126.1719 240.0312 126.1719 C241.7188 126.1719 242.875 125.125 242.875 123.7031 C242.875 122.5 242.2031 121.625 240.7969 121.375 C241.9531 121.0156 242.6094 120.2031 242.6094 119.2031 C242.6094 117.9219 241.6719 117.0781 240.1875 117.0781 C239.0469 117.0781 238.0625 117.5938 237.7969 118.6875 C237.9062 119 238.1094 119.1094 238.3594 119.1094 C238.7344 119.1094 238.8906 118.8906 239 118.4062 L239.2344 117.6562 Z"
      /><rect x="213" y="142" width="8" style="fill:white; stroke:none;" height="8"
      /><path style="stroke:none;" d="M217.9844 147.7031 C217.9375 148.8906 217.1562 149.6562 216.3125 149.6562 C215.2656 149.6562 214.5 148.6875 214.5 146.7188 C214.5 145.2812 215.1562 144.1562 216.3438 144.1562 C217.1406 144.1562 217.7812 144.6875 218.0938 145.6406 L217.9844 147.7031 ZM219.9062 149.2812 C219.7344 149.375 219.5469 149.4219 219.3438 149.4219 C218.9531 149.4219 218.75 149.2188 218.75 148.4219 C218.75 147.4844 218.9688 145.5312 219.1875 143.8281 L219.0312 143.7188 L218.2344 143.9219 L218.1406 144.7969 C217.7812 144.0312 217.1562 143.6562 216.3906 143.6562 C215.0469 143.6562 213.5625 144.8438 213.5625 146.9531 C213.5625 149.0938 214.7188 150.1719 216.1406 150.1719 C217.0156 150.1719 217.6875 149.8125 218.0938 148.9844 C218.2031 149.8594 218.5156 150.1719 219.0156 150.1719 C219.4688 150.1719 219.7969 149.9062 220.0156 149.5625 L219.9062 149.2812 Z"
      /><rect x="224" y="82" width="6" style="fill:white; stroke:none;" height="10"
      /><path style="stroke:none;" d="M227.3438 91.6875 C226.2031 91.6875 225.5312 90.5 225.5312 88.2969 C225.5312 88.2188 225.5312 88.125 225.5312 88.0469 C226.0938 87.5 226.7188 87.3125 227.3438 87.3125 C228.3125 87.3125 228.9531 87.9844 228.9531 89.4531 C228.9531 90.9375 228.3125 91.6875 227.3438 91.6875 ZM229.5312 83.0781 C226.3438 83.4531 224.5625 85.7656 224.5625 88.4531 C224.5625 90.7812 225.6094 92.1719 227.3125 92.1719 C228.8438 92.1719 229.9219 91.1094 229.9219 89.2812 C229.9219 87.6875 228.9688 86.6562 227.5625 86.6562 C226.8281 86.6562 226.1406 86.9844 225.5781 87.5781 C225.7969 85.4062 227.0781 83.9688 229.5938 83.3906 L229.5312 83.0781 Z"
      /><rect x="202" y="59" width="8" style="fill:white; stroke:none;" height="8"
      /><path style="stroke:none;" d="M206.9844 64.7031 C206.9375 65.8906 206.1562 66.6562 205.3125 66.6562 C204.2656 66.6562 203.5 65.6875 203.5 63.7188 C203.5 62.2812 204.1562 61.1562 205.3438 61.1562 C206.1406 61.1562 206.7812 61.6875 207.0938 62.6406 L206.9844 64.7031 ZM208.9062 66.2812 C208.7344 66.375 208.5469 66.4219 208.3438 66.4219 C207.9531 66.4219 207.75 66.2188 207.75 65.4219 C207.75 64.4844 207.9688 62.5312 208.1875 60.8281 L208.0312 60.7188 L207.2344 60.9219 L207.1406 61.7969 C206.7812 61.0312 206.1562 60.6562 205.3906 60.6562 C204.0469 60.6562 202.5625 61.8438 202.5625 63.9531 C202.5625 66.0938 203.7188 67.1719 205.1406 67.1719 C206.0156 67.1719 206.6875 66.8125 207.0938 65.9844 C207.2031 66.8594 207.5156 67.1719 208.0156 67.1719 C208.4688 67.1719 208.7969 66.9062 209.0156 66.5625 L208.9062 66.2812 Z"
      /><rect x="278" y="102" width="7" style="fill:white; stroke:none;" height="9"
      /><path style="stroke:none;" d="M279 107.5156 L281.9531 103.2656 L281.9531 107.5156 L279 107.5156 ZM284.2812 107.5156 L282.8594 107.5156 L282.8594 102.125 L282.2344 102.125 L278.3438 107.6406 L278.3438 108.1875 L281.9531 108.1875 L281.9531 111 L282.8594 111 L282.8594 108.1875 L284.2812 108.1875 L284.2812 107.5156 Z"
      /><rect x="265" y="100" width="6" style="fill:white; stroke:none;" height="13"
      /><path style="stroke:none;" d="M267.0938 106.2031 C267.0938 104.6562 267.75 103.8125 268.7969 103.8125 C269.7188 103.8125 270.2656 104.4531 270.2656 105.5156 C270.2656 106.7188 269.5 107.4375 268.1875 107.7031 L268.2969 108.3125 C270.2188 108.2344 270.9375 109.2188 270.9375 110.4375 C270.9375 111.625 270.2344 112.4219 268.9531 112.4219 C268.25 112.4219 267.6562 112.1562 267.0938 111.7188 L267.0938 106.2031 ZM266.2031 112.9062 L266.1094 115.375 L266.2656 115.4844 L267.1562 115.2656 L267.0156 112.0938 C267.5469 112.8438 268.3594 113.1719 269.1719 113.1719 C270.5625 113.1719 271.8594 112.2188 271.8594 110.4844 C271.8594 108.9531 270.875 108.1094 269.125 108 C270.5625 107.6094 271.1875 106.4531 271.1875 105.4844 C271.1875 104.0938 270.1562 103.3125 268.9062 103.3125 C267.2969 103.3125 266.2188 104.5469 266.2188 106.5156 L266.2031 112.9062 Z"
      /><rect x="330" y="102" width="7" style="fill:white; stroke:none;" height="9"
      /><path style="stroke:none;" d="M331 107.5156 L333.9531 103.2656 L333.9531 107.5156 L331 107.5156 ZM336.2812 107.5156 L334.8594 107.5156 L334.8594 102.125 L334.2344 102.125 L330.3438 107.6406 L330.3438 108.1875 L333.9531 108.1875 L333.9531 111 L334.8594 111 L334.8594 108.1875 L336.2812 108.1875 L336.2812 107.5156 Z"
      /><rect x="317" y="100" width="6" style="fill:white; stroke:none;" height="13"
      /><path style="stroke:none;" d="M319.0938 106.2031 C319.0938 104.6562 319.75 103.8125 320.7969 103.8125 C321.7188 103.8125 322.2656 104.4531 322.2656 105.5156 C322.2656 106.7188 321.5 107.4375 320.1875 107.7031 L320.2969 108.3125 C322.2188 108.2344 322.9375 109.2188 322.9375 110.4375 C322.9375 111.625 322.2344 112.4219 320.9531 112.4219 C320.25 112.4219 319.6562 112.1562 319.0938 111.7188 L319.0938 106.2031 ZM318.2031 112.9062 L318.1094 115.375 L318.2656 115.4844 L319.1562 115.2656 L319.0156 112.0938 C319.5469 112.8438 320.3594 113.1719 321.1719 113.1719 C322.5625 113.1719 323.8594 112.2188 323.8594 110.4844 C323.8594 108.9531 322.875 108.1094 321.125 108 C322.5625 107.6094 323.1875 106.4531 323.1875 105.4844 C323.1875 104.0938 322.1562 103.3125 320.9062 103.3125 C319.2969 103.3125 318.2188 104.5469 318.2188 106.5156 L318.2031 112.9062 Z"
      /><rect x="369" y="100" width="6" style="fill:white; stroke:none;" height="13"
      /><path style="stroke:none;" d="M371.0938 106.2031 C371.0938 104.6562 371.75 103.8125 372.7969 103.8125 C373.7188 103.8125 374.2656 104.4531 374.2656 105.5156 C374.2656 106.7188 373.5 107.4375 372.1875 107.7031 L372.2969 108.3125 C374.2188 108.2344 374.9375 109.2188 374.9375 110.4375 C374.9375 111.625 374.2344 112.4219 372.9531 112.4219 C372.25 112.4219 371.6562 112.1562 371.0938 111.7188 L371.0938 106.2031 ZM370.2031 112.9062 L370.1094 115.375 L370.2656 115.4844 L371.1562 115.2656 L371.0156 112.0938 C371.5469 112.8438 372.3594 113.1719 373.1719 113.1719 C374.5625 113.1719 375.8594 112.2188 375.8594 110.4844 C375.8594 108.9531 374.875 108.1094 373.125 108 C374.5625 107.6094 375.1875 106.4531 375.1875 105.4844 C375.1875 104.0938 374.1562 103.3125 372.9062 103.3125 C371.2969 103.3125 370.2188 104.5469 370.2188 106.5156 L370.2031 112.9062 Z"
    /></g
  ></g
></svg
>
