<?xml version="1.0"?>
<!DOCTYPE svg PUBLIC '-//W3C//DTD SVG 1.0//EN'
          'http://www.w3.org/TR/2001/REC-SVG-20010904/DTD/svg10.dtd'>
<svg xmlns:xlink="http://www.w3.org/1999/xlink" style="fill-opacity:1; color-rendering:auto; color-interpolation:auto; text-rendering:auto; stroke:black; stroke-linecap:square; stroke-miterlimit:10; shape-rendering:auto; stroke-opacity:1; fill:black; stroke-dasharray:none; font-weight:normal; stroke-width:1; font-family:'Dialog'; font-style:normal; stroke-linejoin:miter; font-size:12px; stroke-dashoffset:0; image-rendering:auto;" viewBox="0 0 290 186" xmlns="http://www.w3.org/2000/svg"
><!--Generated by the Batik Graphics2D SVG Generator--><defs id="genericDefs"
  /><g
  ><defs id="defs1"
    ><clipPath clipPathUnits="userSpaceOnUse" id="clipPath1"
      ><path d="M208 106 C208 112.0751 203.0751 117 197 117 C190.9249 117 186 112.0751 186 106 C186 99.9249 190.9249 95 197 95 C203.0751 95 208 99.9249 208 106 Z"
      /></clipPath
      ><clipPath clipPathUnits="userSpaceOnUse" id="clipPath2"
      ><path d="M156 145 C156 151.0751 151.0751 156 145 156 C138.9249 156 134 151.0751 134 145 C134 138.9249 138.9249 134 145 134 C151.0751 134 156 138.9249 156 145 Z"
      /></clipPath
      ><clipPath clipPathUnits="userSpaceOnUse" id="clipPath3"
      ><path d="M104 145 C104 151.0751 99.0751 156 93 156 C86.9249 156 82 151.0751 82 145 C82 138.9249 86.9249 134 93 134 C99.0751 134 104 138.9249 104 145 Z"
      /></clipPath
      ><clipPath clipPathUnits="userSpaceOnUse" id="clipPath4"
      ><path d="M52 145 C52 151.0751 47.0751 156 41 156 C34.9249 156 30 151.0751 30 145 C30 138.9249 34.9249 134 41 134 C47.0751 134 52 138.9249 52 145 Z"
      /></clipPath
      ><clipPath clipPathUnits="userSpaceOnUse" id="clipPath5"
      ><path d="M156 67 C156 73.0751 151.0751 78 145 78 C138.9249 78 134 73.0751 134 67 C134 60.9249 138.9249 56 145 56 C151.0751 56 156 60.9249 156 67 Z"
      /></clipPath
      ><clipPath clipPathUnits="userSpaceOnUse" id="clipPath6"
      ><path d="M104 93 C104 99.0751 99.0751 104 93 104 C86.9249 104 82 99.0751 82 93 C82 86.9249 86.9249 82 93 82 C99.0751 82 104 86.9249 104 93 Z"
      /></clipPath
      ><clipPath clipPathUnits="userSpaceOnUse" id="clipPath7"
      ><path d="M52 93 C52 99.0751 47.0751 104 41 104 C34.9249 104 30 99.0751 30 93 C30 86.9249 34.9249 82 41 82 C47.0751 82 52 86.9249 52 93 Z"
      /></clipPath
      ><clipPath clipPathUnits="userSpaceOnUse" id="clipPath8"
      ><path d="M104 41 C104 47.0751 99.0751 52 93 52 C86.9249 52 82 47.0751 82 41 C82 34.9249 86.9249 30 93 30 C99.0751 30 104 34.9249 104 41 Z"
      /></clipPath
      ><clipPath clipPathUnits="userSpaceOnUse" id="clipPath9"
      ><path d="M52 41 C52 47.0751 47.0751 52 41 52 C34.9249 52 30 47.0751 30 41 C30 34.9249 34.9249 30 41 30 C47.0751 30 52 34.9249 52 41 Z"
      /></clipPath
    ></defs
    ><g style="fill:white; text-rendering:optimizeSpeed; stroke:white;"
    ><rect x="0" width="290" height="186" y="0" style="stroke:none;"
      /><polygon style="fill:none; stroke:black;" points=" 249 106 197 106"
      /><path d="M249 95 C243.5 100.5 254.5 111.5 249 117" style="fill:none; stroke:black;"
      /><polygon style="fill:none; stroke:black;" points=" 197 106 145 145"
      /><polygon style="fill:none; stroke:black;" points=" 197 106 145 67"
      /><circle style="clip-path:url(#clipPath1); stroke:none;" r="11" cx="197" cy="106"
      /><rect x="186" y="95" width="22" style="clip-path:url(#clipPath1); fill:rgb(0,166,81); stroke:none;" height="22"
      /><rect x="186" y="95" width="22" style="clip-path:url(#clipPath1); fill:none; stroke:black;" height="22"
      /><circle style="fill:none; stroke:black;" r="11" cx="197" cy="106"
      /><polygon style="fill:none; stroke:black;" points=" 145 145 93 145"
      /><circle style="clip-path:url(#clipPath2); stroke:none;" r="11" cx="145" cy="145"
      /><rect x="134" y="134" width="22" style="clip-path:url(#clipPath2); fill:rgb(0,166,81); stroke:none;" height="22"
      /><rect x="134" y="134" width="22" style="clip-path:url(#clipPath2); fill:none; stroke:black;" height="22"
      /><circle style="fill:none; stroke:black;" r="11" cx="145" cy="145"
      /><polygon style="fill:none; stroke:black;" points=" 93 145 41 145"
      /><circle style="clip-path:url(#clipPath3); stroke:none;" r="11" cx="93" cy="145"
      /><rect x="82" y="134" width="22" style="clip-path:url(#clipPath3); fill:rgb(0,166,81); stroke:none;" height="22"
      /><rect x="82" y="134" width="22" style="clip-path:url(#clipPath3); fill:none; stroke:black;" height="22"
      /><circle style="fill:none; stroke:black;" r="11" cx="93" cy="145"
      /><circle style="clip-path:url(#clipPath4); stroke:none;" r="11" cx="41" cy="145"
      /><rect x="30" y="134" width="22" style="clip-path:url(#clipPath4); fill:rgb(0,166,81); stroke:none;" height="22"
      /><rect x="30" y="134" width="22" style="clip-path:url(#clipPath4); fill:none; stroke:black;" height="22"
      /><circle style="fill:none; stroke:black;" r="11" cx="41" cy="145"
      /><rect x="71" y="148" width="6" style="stroke:none;" height="9"
    /></g
    ><g style="font-family:'Serif'; text-rendering:optimizeSpeed; "
    ><path style="stroke:none;" d="M72.4219 156.0938 C73.0781 155.375 73.7031 154.7188 74.0312 154.3438 C75.9219 152.3125 76.5312 151.4688 76.5312 150.3594 C76.5312 149.0156 75.7812 148.0781 74.1562 148.0781 C72.9062 148.0781 71.7969 148.7031 71.5938 149.9688 C71.7188 150.2031 71.9062 150.3438 72.1562 150.3438 C72.4688 150.3438 72.6562 150.1094 72.7969 149.5938 L73.0938 148.6719 C73.3906 148.5938 73.6562 148.5625 73.8906 148.5625 C74.9219 148.5625 75.5469 149.3125 75.5469 150.4219 C75.5469 151.4375 74.9844 152.4219 73.7031 153.9062 C73.125 154.5781 72.3906 155.4375 71.6406 156.2812 L71.6406 157 L76.9219 157 L76.9219 156.0938 L72.4219 156.0938 Z"
      /><rect x="56" y="149" width="8" style="fill:white; stroke:none;" height="8"
      /><path style="stroke:none;" d="M60.9844 154.7031 C60.9375 155.8906 60.1562 156.6562 59.3125 156.6562 C58.2656 156.6562 57.5 155.6875 57.5 153.7188 C57.5 152.2812 58.1562 151.1562 59.3438 151.1562 C60.1406 151.1562 60.7812 151.6875 61.0938 152.6406 L60.9844 154.7031 ZM62.9062 156.2812 C62.7344 156.375 62.5469 156.4219 62.3438 156.4219 C61.9531 156.4219 61.75 156.2188 61.75 155.4219 C61.75 154.4844 61.9688 152.5312 62.1875 150.8281 L62.0312 150.7188 L61.2344 150.9219 L61.1406 151.7969 C60.7812 151.0312 60.1562 150.6562 59.3906 150.6562 C58.0469 150.6562 56.5625 151.8438 56.5625 153.9531 C56.5625 156.0938 57.7188 157.1719 59.1406 157.1719 C60.0156 157.1719 60.6875 156.8125 61.0938 155.9844 C61.2031 156.8594 61.5156 157.1719 62.0156 157.1719 C62.4688 157.1719 62.7969 156.9062 63.0156 156.5625 L62.9062 156.2812 Z"
      /><rect x="123" y="148" width="6" style="fill:white; stroke:none;" height="9"
      /><path style="stroke:none;" d="M124.4219 156.0938 C125.0781 155.375 125.7031 154.7188 126.0312 154.3438 C127.9219 152.3125 128.5312 151.4688 128.5312 150.3594 C128.5312 149.0156 127.7812 148.0781 126.1562 148.0781 C124.9062 148.0781 123.7969 148.7031 123.5938 149.9688 C123.7188 150.2031 123.9062 150.3438 124.1562 150.3438 C124.4688 150.3438 124.6562 150.1094 124.7969 149.5938 L125.0938 148.6719 C125.3906 148.5938 125.6562 148.5625 125.8906 148.5625 C126.9219 148.5625 127.5469 149.3125 127.5469 150.4219 C127.5469 151.4375 126.9844 152.4219 125.7031 153.9062 C125.125 154.5781 124.3906 155.4375 123.6406 156.2812 L123.6406 157 L128.9219 157 L128.9219 156.0938 L124.4219 156.0938 Z"
      /><rect x="108" y="149" width="8" style="fill:white; stroke:none;" height="8"
      /><path style="stroke:none;" d="M112.9844 154.7031 C112.9375 155.8906 112.1562 156.6562 111.3125 156.6562 C110.2656 156.6562 109.5 155.6875 109.5 153.7188 C109.5 152.2812 110.1562 151.1562 111.3438 151.1562 C112.1406 151.1562 112.7812 151.6875 113.0938 152.6406 L112.9844 154.7031 ZM114.9062 156.2812 C114.7344 156.375 114.5469 156.4219 114.3438 156.4219 C113.9531 156.4219 113.75 156.2188 113.75 155.4219 C113.75 154.4844 113.9688 152.5312 114.1875 150.8281 L114.0312 150.7188 L113.2344 150.9219 L113.1406 151.7969 C112.7812 151.0312 112.1562 150.6562 111.3906 150.6562 C110.0469 150.6562 108.5625 151.8438 108.5625 153.9531 C108.5625 156.0938 109.7188 157.1719 111.1406 157.1719 C112.0156 157.1719 112.6875 156.8125 113.0938 155.9844 C113.2031 156.8594 113.5156 157.1719 114.0156 157.1719 C114.4688 157.1719 114.7969 156.9062 115.0156 156.5625 L114.9062 156.2812 Z"
      /><polygon style="fill:none;" points=" 145 67 93 93"
      /><polygon style="fill:none;" points=" 145 67 93 41"
      /><circle style="fill:white; clip-path:url(#clipPath5); stroke:none;" r="11" cx="145" cy="67"
      /><rect x="134" y="56" width="22" style="clip-path:url(#clipPath5); fill:rgb(0,166,81); stroke:none;" height="22"
      /><rect x="134" y="56" width="22" style="fill:none; clip-path:url(#clipPath5);" height="22"
      /><circle r="11" style="fill:none;" cx="145" cy="67"
      /><polygon style="fill:none;" points=" 93 93 41 93"
      /><circle style="fill:white; clip-path:url(#clipPath6); stroke:none;" r="11" cx="93" cy="93"
      /><rect x="82" y="82" width="22" style="clip-path:url(#clipPath6); fill:rgb(0,166,81); stroke:none;" height="22"
      /><rect x="82" y="82" width="22" style="fill:none; clip-path:url(#clipPath6);" height="22"
      /><circle r="11" style="fill:none;" cx="93" cy="93"
      /><circle style="fill:white; clip-path:url(#clipPath7); stroke:none;" r="11" cx="41" cy="93"
      /><rect x="30" y="82" width="22" style="clip-path:url(#clipPath7); fill:rgb(0,166,81); stroke:none;" height="22"
      /><rect x="30" y="82" width="22" style="fill:none; clip-path:url(#clipPath7);" height="22"
      /><circle r="11" style="fill:none;" cx="41" cy="93"
      /><rect x="71" y="96" width="6" style="fill:white; stroke:none;" height="9"
      /><path style="stroke:none;" d="M72.4219 104.0938 C73.0781 103.375 73.7031 102.7188 74.0312 102.3438 C75.9219 100.3125 76.5312 99.4688 76.5312 98.3594 C76.5312 97.0156 75.7812 96.0781 74.1562 96.0781 C72.9062 96.0781 71.7969 96.7031 71.5938 97.9688 C71.7188 98.2031 71.9062 98.3438 72.1562 98.3438 C72.4688 98.3438 72.6562 98.1094 72.7969 97.5938 L73.0938 96.6719 C73.3906 96.5938 73.6562 96.5625 73.8906 96.5625 C74.9219 96.5625 75.5469 97.3125 75.5469 98.4219 C75.5469 99.4375 74.9844 100.4219 73.7031 101.9062 C73.125 102.5781 72.3906 103.4375 71.6406 104.2812 L71.6406 105 L76.9219 105 L76.9219 104.0938 L72.4219 104.0938 Z"
      /><rect x="56" y="97" width="8" style="fill:white; stroke:none;" height="8"
      /><path style="stroke:none;" d="M60.9844 102.7031 C60.9375 103.8906 60.1562 104.6562 59.3125 104.6562 C58.2656 104.6562 57.5 103.6875 57.5 101.7188 C57.5 100.2812 58.1562 99.1562 59.3438 99.1562 C60.1406 99.1562 60.7812 99.6875 61.0938 100.6406 L60.9844 102.7031 ZM62.9062 104.2812 C62.7344 104.375 62.5469 104.4219 62.3438 104.4219 C61.9531 104.4219 61.75 104.2188 61.75 103.4219 C61.75 102.4844 61.9688 100.5312 62.1875 98.8281 L62.0312 98.7188 L61.2344 98.9219 L61.1406 99.7969 C60.7812 99.0312 60.1562 98.6562 59.3906 98.6562 C58.0469 98.6562 56.5625 99.8438 56.5625 101.9531 C56.5625 104.0938 57.7188 105.1719 59.1406 105.1719 C60.0156 105.1719 60.6875 104.8125 61.0938 103.9844 C61.2031 104.8594 61.5156 105.1719 62.0156 105.1719 C62.4688 105.1719 62.7969 104.9062 63.0156 104.5625 L62.9062 104.2812 Z"
      /><polygon style="fill:none;" points=" 93 41 41 41"
      /><circle style="fill:white; clip-path:url(#clipPath8); stroke:none;" r="11" cx="93" cy="41"
      /><rect x="82" y="30" width="22" style="clip-path:url(#clipPath8); fill:rgb(0,166,81); stroke:none;" height="22"
      /><rect x="82" y="30" width="22" style="fill:none; clip-path:url(#clipPath8);" height="22"
      /><circle r="11" style="fill:none;" cx="93" cy="41"
      /><circle style="fill:white; clip-path:url(#clipPath9); stroke:none;" r="11" cx="41" cy="41"
      /><rect x="30" y="30" width="22" style="clip-path:url(#clipPath9); fill:rgb(0,166,81); stroke:none;" height="22"
      /><rect x="30" y="30" width="22" style="fill:none; clip-path:url(#clipPath9);" height="22"
      /><circle r="11" style="fill:none;" cx="41" cy="41"
      /><rect x="71" y="44" width="6" style="fill:white; stroke:none;" height="9"
      /><path style="stroke:none;" d="M72.4219 52.0938 C73.0781 51.375 73.7031 50.7188 74.0312 50.3438 C75.9219 48.3125 76.5312 47.4688 76.5312 46.3594 C76.5312 45.0156 75.7812 44.0781 74.1562 44.0781 C72.9062 44.0781 71.7969 44.7031 71.5938 45.9688 C71.7188 46.2031 71.9062 46.3438 72.1562 46.3438 C72.4688 46.3438 72.6562 46.1094 72.7969 45.5938 L73.0938 44.6719 C73.3906 44.5938 73.6562 44.5625 73.8906 44.5625 C74.9219 44.5625 75.5469 45.3125 75.5469 46.4219 C75.5469 47.4375 74.9844 48.4219 73.7031 49.9062 C73.125 50.5781 72.3906 51.4375 71.6406 52.2812 L71.6406 53 L76.9219 53 L76.9219 52.0938 L72.4219 52.0938 Z"
      /><rect x="56" y="45" width="8" style="fill:white; stroke:none;" height="8"
      /><path style="stroke:none;" d="M60.9844 50.7031 C60.9375 51.8906 60.1562 52.6562 59.3125 52.6562 C58.2656 52.6562 57.5 51.6875 57.5 49.7188 C57.5 48.2812 58.1562 47.1562 59.3438 47.1562 C60.1406 47.1562 60.7812 47.6875 61.0938 48.6406 L60.9844 50.7031 ZM62.9062 52.2812 C62.7344 52.375 62.5469 52.4219 62.3438 52.4219 C61.9531 52.4219 61.75 52.2188 61.75 51.4219 C61.75 50.4844 61.9688 48.5312 62.1875 46.8281 L62.0312 46.7188 L61.2344 46.9219 L61.1406 47.7969 C60.7812 47.0312 60.1562 46.6562 59.3906 46.6562 C58.0469 46.6562 56.5625 47.8438 56.5625 49.9531 C56.5625 52.0938 57.7188 53.1719 59.1406 53.1719 C60.0156 53.1719 60.6875 52.8125 61.0938 51.9844 C61.2031 52.8594 61.5156 53.1719 62.0156 53.1719 C62.4688 53.1719 62.7969 52.9062 63.0156 52.5625 L62.9062 52.2812 Z"
      /><rect x="127" y="78" width="6" style="fill:white; stroke:none;" height="9"
      /><path style="stroke:none;" d="M128.4219 86.0938 C129.0781 85.375 129.7031 84.7188 130.0312 84.3438 C131.9219 82.3125 132.5312 81.4688 132.5312 80.3594 C132.5312 79.0156 131.7812 78.0781 130.1562 78.0781 C128.9062 78.0781 127.7969 78.7031 127.5938 79.9688 C127.7188 80.2031 127.9062 80.3438 128.1562 80.3438 C128.4688 80.3438 128.6562 80.1094 128.7969 79.5938 L129.0938 78.6719 C129.3906 78.5938 129.6562 78.5625 129.8906 78.5625 C130.9219 78.5625 131.5469 79.3125 131.5469 80.4219 C131.5469 81.4375 130.9844 82.4219 129.7031 83.9062 C129.125 84.5781 128.3906 85.4375 127.6406 86.2812 L127.6406 87 L132.9219 87 L132.9219 86.0938 L128.4219 86.0938 Z"
      /><rect x="110" y="87" width="8" style="fill:white; stroke:none;" height="8"
      /><path style="stroke:none;" d="M114.9844 92.7031 C114.9375 93.8906 114.1562 94.6562 113.3125 94.6562 C112.2656 94.6562 111.5 93.6875 111.5 91.7188 C111.5 90.2812 112.1562 89.1562 113.3438 89.1562 C114.1406 89.1562 114.7812 89.6875 115.0938 90.6406 L114.9844 92.7031 ZM116.9062 94.2812 C116.7344 94.375 116.5469 94.4219 116.3438 94.4219 C115.9531 94.4219 115.75 94.2188 115.75 93.4219 C115.75 92.4844 115.9688 90.5312 116.1875 88.8281 L116.0312 88.7188 L115.2344 88.9219 L115.1406 89.7969 C114.7812 89.0312 114.1562 88.6562 113.3906 88.6562 C112.0469 88.6562 110.5625 89.8438 110.5625 91.9531 C110.5625 94.0938 111.7188 95.1719 113.1406 95.1719 C114.0156 95.1719 114.6875 94.8125 115.0938 93.9844 C115.2031 94.8594 115.5156 95.1719 116.0156 95.1719 C116.4688 95.1719 116.7969 94.9062 117.0156 94.5625 L116.9062 94.2812 Z"
      /><rect x="120" y="60" width="6" style="fill:white; stroke:none;" height="10"
      /><path style="stroke:none;" d="M123.3438 69.6875 C122.2031 69.6875 121.5312 68.5 121.5312 66.2969 C121.5312 66.2188 121.5312 66.125 121.5312 66.0469 C122.0938 65.5 122.7188 65.3125 123.3438 65.3125 C124.3125 65.3125 124.9531 65.9844 124.9531 67.4531 C124.9531 68.9375 124.3125 69.6875 123.3438 69.6875 ZM125.5312 61.0781 C122.3438 61.4531 120.5625 63.7656 120.5625 66.4531 C120.5625 68.7812 121.6094 70.1719 123.3125 70.1719 C124.8438 70.1719 125.9219 69.1094 125.9219 67.2812 C125.9219 65.6875 124.9688 64.6562 123.5625 64.6562 C122.8281 64.6562 122.1406 64.9844 121.5781 65.5781 C121.7969 63.4062 123.0781 61.9688 125.5938 61.3906 L125.5312 61.0781 Z"
      /><rect x="103" y="53" width="8" style="fill:white; stroke:none;" height="8"
      /><path style="stroke:none;" d="M107.9844 58.7031 C107.9375 59.8906 107.1562 60.6562 106.3125 60.6562 C105.2656 60.6562 104.5 59.6875 104.5 57.7188 C104.5 56.2812 105.1562 55.1562 106.3438 55.1562 C107.1406 55.1562 107.7812 55.6875 108.0938 56.6406 L107.9844 58.7031 ZM109.9062 60.2812 C109.7344 60.375 109.5469 60.4219 109.3438 60.4219 C108.9531 60.4219 108.75 60.2188 108.75 59.4219 C108.75 58.4844 108.9688 56.5312 109.1875 54.8281 L109.0312 54.7188 L108.2344 54.9219 L108.1406 55.7969 C107.7812 55.0312 107.1562 54.6562 106.3906 54.6562 C105.0469 54.6562 103.5625 55.8438 103.5625 57.9531 C103.5625 60.0938 104.7188 61.1719 106.1406 61.1719 C107.0156 61.1719 107.6875 60.8125 108.0938 59.9844 C108.2031 60.8594 108.5156 61.1719 109.0156 61.1719 C109.4688 61.1719 109.7969 60.9062 110.0156 60.5625 L109.9062 60.2812 Z"
      /><rect x="181" y="120" width="6" style="fill:white; stroke:none;" height="9"
      /><path style="stroke:none;" d="M182.4219 128.0938 C183.0781 127.375 183.7031 126.7188 184.0312 126.3438 C185.9219 124.3125 186.5312 123.4688 186.5312 122.3594 C186.5312 121.0156 185.7812 120.0781 184.1562 120.0781 C182.9062 120.0781 181.7969 120.7031 181.5938 121.9688 C181.7188 122.2031 181.9062 122.3438 182.1562 122.3438 C182.4688 122.3438 182.6562 122.1094 182.7969 121.5938 L183.0938 120.6719 C183.3906 120.5938 183.6562 120.5625 183.8906 120.5625 C184.9219 120.5625 185.5469 121.3125 185.5469 122.4219 C185.5469 123.4375 184.9844 124.4219 183.7031 125.9062 C183.125 126.5781 182.3906 127.4375 181.6406 128.2812 L181.6406 129 L186.9219 129 L186.9219 128.0938 L182.4219 128.0938 Z"
      /><rect x="163" y="134" width="8" style="fill:white; stroke:none;" height="8"
      /><path style="stroke:none;" d="M167.9844 139.7031 C167.9375 140.8906 167.1562 141.6562 166.3125 141.6562 C165.2656 141.6562 164.5 140.6875 164.5 138.7188 C164.5 137.2812 165.1562 136.1562 166.3438 136.1562 C167.1406 136.1562 167.7812 136.6875 168.0938 137.6406 L167.9844 139.7031 ZM169.9062 141.2812 C169.7344 141.375 169.5469 141.4219 169.3438 141.4219 C168.9531 141.4219 168.75 141.2188 168.75 140.4219 C168.75 139.4844 168.9688 137.5312 169.1875 135.8281 L169.0312 135.7188 L168.2344 135.9219 L168.1406 136.7969 C167.7812 136.0312 167.1562 135.6562 166.3906 135.6562 C165.0469 135.6562 163.5625 136.8438 163.5625 138.9531 C163.5625 141.0938 164.7188 142.1719 166.1406 142.1719 C167.0156 142.1719 167.6875 141.8125 168.0938 140.9844 C168.2031 141.8594 168.5156 142.1719 169.0156 142.1719 C169.4688 142.1719 169.7969 141.9062 170.0156 141.5625 L169.9062 141.2812 Z"
      /><rect x="171" y="94" width="6" style="fill:white; stroke:none;" height="10"
      /><path style="stroke:none;" d="M174.3438 103.6875 C173.2031 103.6875 172.5312 102.5 172.5312 100.2969 C172.5312 100.2188 172.5312 100.125 172.5312 100.0469 C173.0938 99.5 173.7188 99.3125 174.3438 99.3125 C175.3125 99.3125 175.9531 99.9844 175.9531 101.4531 C175.9531 102.9375 175.3125 103.6875 174.3438 103.6875 ZM176.5312 95.0781 C173.3438 95.4531 171.5625 97.7656 171.5625 100.4531 C171.5625 102.7812 172.6094 104.1719 174.3125 104.1719 C175.8438 104.1719 176.9219 103.1094 176.9219 101.2812 C176.9219 99.6875 175.9688 98.6562 174.5625 98.6562 C173.8281 98.6562 173.1406 98.9844 172.5781 99.5781 C172.7969 97.4062 174.0781 95.9688 176.5938 95.3906 L176.5312 95.0781 Z"
      /><rect x="153" y="82" width="8" style="fill:white; stroke:none;" height="8"
      /><path style="stroke:none;" d="M157.9844 87.7031 C157.9375 88.8906 157.1562 89.6562 156.3125 89.6562 C155.2656 89.6562 154.5 88.6875 154.5 86.7188 C154.5 85.2812 155.1562 84.1562 156.3438 84.1562 C157.1406 84.1562 157.7812 84.6875 158.0938 85.6406 L157.9844 87.7031 ZM159.9062 89.2812 C159.7344 89.375 159.5469 89.4219 159.3438 89.4219 C158.9531 89.4219 158.75 89.2188 158.75 88.4219 C158.75 87.4844 158.9688 85.5312 159.1875 83.8281 L159.0312 83.7188 L158.2344 83.9219 L158.1406 84.7969 C157.7812 84.0312 157.1562 83.6562 156.3906 83.6562 C155.0469 83.6562 153.5625 84.8438 153.5625 86.9531 C153.5625 89.0938 154.7188 90.1719 156.1406 90.1719 C157.0156 90.1719 157.6875 89.8125 158.0938 88.9844 C158.2031 89.8594 158.5156 90.1719 159.0156 90.1719 C159.4688 90.1719 159.7969 89.9062 160.0156 89.5625 L159.9062 89.2812 Z"
      /><rect x="212" y="110" width="8" style="fill:white; stroke:none;" height="8"
      /><path style="stroke:none;" d="M216.9844 115.7031 C216.9375 116.8906 216.1562 117.6562 215.3125 117.6562 C214.2656 117.6562 213.5 116.6875 213.5 114.7188 C213.5 113.2812 214.1562 112.1562 215.3438 112.1562 C216.1406 112.1562 216.7812 112.6875 217.0938 113.6406 L216.9844 115.7031 ZM218.9062 117.2812 C218.7344 117.375 218.5469 117.4219 218.3438 117.4219 C217.9531 117.4219 217.75 117.2188 217.75 116.4219 C217.75 115.4844 217.9688 113.5312 218.1875 111.8281 L218.0312 111.7188 L217.2344 111.9219 L217.1406 112.7969 C216.7812 112.0312 216.1562 111.6562 215.3906 111.6562 C214.0469 111.6562 212.5625 112.8438 212.5625 114.9531 C212.5625 117.0938 213.7188 118.1719 215.1406 118.1719 C216.0156 118.1719 216.6875 117.8125 217.0938 116.9844 C217.2031 117.8594 217.5156 118.1719 218.0156 118.1719 C218.4688 118.1719 218.7969 117.9062 219.0156 117.5625 L218.9062 117.2812 Z"
    /></g
  ></g
></svg
>
