<?xml version="1.0"?>
<!DOCTYPE svg PUBLIC '-//W3C//DTD SVG 1.0//EN'
          'http://www.w3.org/TR/2001/REC-SVG-20010904/DTD/svg10.dtd'>
<svg xmlns:xlink="http://www.w3.org/1999/xlink" style="fill-opacity:1; color-rendering:auto; color-interpolation:auto; text-rendering:auto; stroke:black; stroke-linecap:square; stroke-miterlimit:10; shape-rendering:auto; stroke-opacity:1; fill:black; stroke-dasharray:none; font-weight:normal; stroke-width:1; font-family:'Dialog'; font-style:normal; stroke-linejoin:miter; font-size:12px; stroke-dashoffset:0; image-rendering:auto;" viewBox="0 0 186 105" xmlns="http://www.w3.org/2000/svg"
><!--Generated by the Batik Graphics2D SVG Generator--><defs id="genericDefs"
  /><g
  ><defs id="defs1"
    ><clipPath clipPathUnits="userSpaceOnUse" id="clipPath1"
      ><path d="M104 64 C104 70.0751 99.0751 75 93 75 C86.9249 75 82 70.0751 82 64 C82 57.9249 86.9249 53 93 53 C99.0751 53 104 57.9249 104 64 Z"
      /></clipPath
      ><clipPath clipPathUnits="userSpaceOnUse" id="clipPath2"
      ><path style="fill-rule:evenodd;" d="M41 53 L52 64 L41 75 L30 64 Z"
      /></clipPath
    ></defs
    ><g style="fill:white; text-rendering:optimizeSpeed; stroke:white;"
    ><rect x="0" width="186" height="105" y="0" style="stroke:none;"
      /><polygon style="fill:none; stroke:black;" points=" 145 64 93 64"
      /><path d="M145 53 C139.5 58.5 150.5 69.5 145 75" style="fill:none; stroke:black;"
      /><polygon style="fill:none; stroke:black;" points=" 93 64 41 64"
      /><circle style="clip-path:url(#clipPath1); stroke:none;" r="11" cx="93" cy="64"
      /><rect x="82" y="53" width="22" style="clip-path:url(#clipPath1); stroke:none;" height="22"
      /><rect x="82" y="53" width="22" style="clip-path:url(#clipPath1); fill:none; stroke:black;" height="22"
      /><circle style="fill:none; stroke:black;" r="11" cx="93" cy="64"
    /></g
    ><g style="font-family:'SansSerif'; text-rendering:optimizeSpeed; "
    ><path style="stroke:none;" d="M87.5156 40.3594 C88.5781 40.3594 89.1094 41.1094 89.1094 42.2969 C89.1094 43.5 88.4531 44.2969 87.6094 44.2969 C86.5156 44.2969 85.8438 43.3125 85.7188 41.4844 C86.25 40.6875 86.9688 40.3594 87.5156 40.3594 ZM87.6094 45.1562 C88.9844 45.1562 90.125 44 90.125 42.2969 C90.125 40.4688 89.1875 39.5469 87.7031 39.5469 C87 39.5469 86.2344 39.9531 85.6875 40.6094 C85.7344 37.875 86.7656 36.9531 87.9531 36.9531 C88.5 36.9531 89.0312 37.2031 89.375 37.625 L89.9688 36.9375 C89.5 36.4219 88.8438 36.0312 87.9219 36.0312 C86.2188 36.0312 84.6719 37.3594 84.6719 40.7969 C84.6719 43.7031 85.9219 45.1562 87.6094 45.1562 ZM91.7694 45 L92.8632 45 L92.8632 40.2656 C93.4569 39.5938 94.0038 39.2812 94.5038 39.2812 C95.3319 39.2812 95.7069 39.7969 95.7069 41.0156 L95.7069 45 L96.8007 45 L96.8007 40.2656 C97.41 39.5938 97.9413 39.2812 98.4413 39.2812 C99.2694 39.2812 99.66 39.7969 99.66 41.0156 L99.66 45 L100.7538 45 L100.7538 40.875 C100.7538 39.2031 100.1132 38.3125 98.7694 38.3125 C97.9725 38.3125 97.3007 38.8281 96.6288 39.5625 C96.3632 38.7969 95.8163 38.3125 94.8163 38.3125 C94.0507 38.3125 93.3632 38.8125 92.8007 39.4375 L92.7538 39.4375 L92.66 38.4844 L91.7694 38.4844 L91.7694 45 Z"
      /><polygon style="fill:white; clip-path:url(#clipPath2); stroke:none;" points=" 41 53 52 64 41 75 30 64"
      /><rect x="30" y="53" width="22" style="clip-path:url(#clipPath2); fill:white; stroke:none;" height="11"
      /><rect x="30" y="53" width="22" style="fill:none; clip-path:url(#clipPath2);" height="11"
      /><polygon style="fill:none;" points=" 41 53 52 64 41 75 30 64"
      /><rect x="70" y="67" width="7" style="fill:white; stroke:none;" height="9"
      /><path style="stroke:none;" d="M71 72.5156 L73.9531 68.2656 L73.9531 72.5156 L71 72.5156 ZM76.2812 72.5156 L74.8594 72.5156 L74.8594 67.125 L74.2344 67.125 L70.3438 72.6406 L70.3438 73.1875 L73.9531 73.1875 L73.9531 76 L74.8594 76 L74.8594 73.1875 L76.2812 73.1875 L76.2812 72.5156 Z"
      /><rect x="57" y="67" width="5" style="fill:white; stroke:none;" height="10"
      /><path style="stroke:none;" d="M58.8906 75.6875 C58.4844 75.6875 58.1562 76.0469 58.1562 76.4219 C58.1562 76.8125 58.4844 77.1562 58.8906 77.1562 C59.2969 77.1562 59.6406 76.8125 59.6406 76.4219 C59.6406 76.0469 59.2969 75.6875 58.8906 75.6875 ZM60.4688 69.5781 C60.7188 69.8906 60.875 70.2656 60.8906 70.6562 C60.8906 71.1875 60.625 71.5 60.0312 71.7656 L59.4062 72.0156 C58.6406 72.3125 58.3906 72.5469 58.3906 72.9375 C58.3906 73.1094 58.4531 73.3438 58.5781 73.8125 L58.7344 74.3438 L59.1094 74.3438 L59.0938 73.5312 C59.0938 73.0938 59.2031 72.9688 59.7812 72.7344 L60.2031 72.5625 C61.0312 72.2188 61.4531 71.6875 61.4531 70.8438 C61.4531 69.1562 59.6562 68.1875 58.5 68.0312 C58.1094 68.125 57.9062 68.2969 57.9062 68.6406 C57.9062 68.9375 58.0625 69.1562 58.7188 69.2656 L60.4688 69.5781 Z"
      /><rect x="109" y="67" width="5" style="fill:white; stroke:none;" height="10"
      /><path style="stroke:none;" d="M110.8906 75.6875 C110.4844 75.6875 110.1562 76.0469 110.1562 76.4219 C110.1562 76.8125 110.4844 77.1562 110.8906 77.1562 C111.2969 77.1562 111.6406 76.8125 111.6406 76.4219 C111.6406 76.0469 111.2969 75.6875 110.8906 75.6875 ZM112.4688 69.5781 C112.7188 69.8906 112.875 70.2656 112.8906 70.6562 C112.8906 71.1875 112.625 71.5 112.0312 71.7656 L111.4062 72.0156 C110.6406 72.3125 110.3906 72.5469 110.3906 72.9375 C110.3906 73.1094 110.4531 73.3438 110.5781 73.8125 L110.7344 74.3438 L111.1094 74.3438 L111.0938 73.5312 C111.0938 73.0938 111.2031 72.9688 111.7812 72.7344 L112.2031 72.5625 C113.0312 72.2188 113.4531 71.6875 113.4531 70.8438 C113.4531 69.1562 111.6562 68.1875 110.5 68.0312 C110.1094 68.125 109.9062 68.2969 109.9062 68.6406 C109.9062 68.9375 110.0625 69.1562 110.7188 69.2656 L112.4688 69.5781 Z"
    /></g
  ></g
></svg
>
