<?xml version="1.0"?>
<!DOCTYPE svg PUBLIC '-//W3C//DTD SVG 1.0//EN'
          'http://www.w3.org/TR/2001/REC-SVG-20010904/DTD/svg10.dtd'>
<svg xmlns:xlink="http://www.w3.org/1999/xlink" style="fill-opacity:1; color-rendering:auto; color-interpolation:auto; text-rendering:auto; stroke:black; stroke-linecap:square; stroke-miterlimit:10; shape-rendering:auto; stroke-opacity:1; fill:black; stroke-dasharray:none; font-weight:normal; stroke-width:1; font-family:'Dialog'; font-style:normal; stroke-linejoin:miter; font-size:12px; stroke-dashoffset:0; image-rendering:auto;" viewBox="0 0 143 261" xmlns="http://www.w3.org/2000/svg"
><!--Generated by the Batik Graphics2D SVG Generator--><defs id="genericDefs"
  /><g
  ><defs id="defs1"
    ><clipPath clipPathUnits="userSpaceOnUse" id="clipPath1"
      ><path style="fill-rule:evenodd;" d="M58 186 L69 197 L58 208 L47 197 Z"
      /></clipPath
      ><clipPath clipPathUnits="userSpaceOnUse" id="clipPath2"
      ><path style="fill-rule:evenodd;" d="M69 145 L63 152 L52 152 L47 145 L52 137 L63 137 L69 145 Z"
      /></clipPath
      ><clipPath clipPathUnits="userSpaceOnUse" id="clipPath3"
      ><path style="fill-rule:evenodd;" d="M69 93 L63 100 L52 100 L47 93 L52 85 L63 85 L69 93 Z"
      /></clipPath
    ></defs
    ><g style="fill:white; text-rendering:optimizeSpeed; stroke:white;"
    ><rect x="0" width="143" height="261" y="0" style="stroke:none;"
      /><polygon style="clip-path:url(#clipPath1); stroke:none;" points=" 58 186 69 197 58 208 47 197"
      /><rect x="47" y="186" width="22" style="clip-path:url(#clipPath1); fill:rgb(0,166,81); stroke:none;" height="22"
      /><rect x="47" y="186" width="22" style="clip-path:url(#clipPath1); fill:none; stroke:black;" height="22"
      /><polygon style="fill:none; stroke:black;" points=" 58 186 69 197 58 208 47 197"
    /></g
    ><g style="text-rendering:optimizeSpeed; font-size:14px; font-family:'SansSerif';"
    ><path style="stroke:none;" d="M50.6094 225 L57.0625 225 L57.0625 223.8906 L54.2344 223.8906 C53.7031 223.8906 53.0781 223.9531 52.5469 223.9844 C54.9531 221.7031 56.5625 219.625 56.5625 217.5781 C56.5625 215.75 55.4219 214.5469 53.5781 214.5469 C52.2812 214.5469 51.4062 215.1406 50.5625 216.0469 L51.2969 216.7812 C51.8594 216.1094 52.5938 215.5938 53.4375 215.5938 C54.7031 215.5938 55.3125 216.4531 55.3125 217.625 C55.3125 219.3906 53.8438 221.4375 50.6094 224.25 L50.6094 225 ZM62.8168 225.1875 C64.9106 225.1875 66.5043 224.0625 66.5043 220.7656 L66.5043 214.7188 L65.2543 214.7188 L65.2543 220.7969 C65.2543 223.2812 64.1762 224.0469 62.8168 224.0469 C61.4731 224.0469 60.4262 223.2812 60.4262 220.7969 L60.4262 214.7188 L59.1293 214.7188 L59.1293 220.7656 C59.1293 224.0625 60.7231 225.1875 62.8168 225.1875 Z"
    /></g
    ><g style="fill:white; text-rendering:optimizeSpeed; font-family:'Serif'; stroke:white;"
    ><rect x="74" width="5" height="10" y="184" style="stroke:none;"
      /><path d="M75.8906 192.6875 C75.4844 192.6875 75.1562 193.0469 75.1562 193.4219 C75.1562 193.8125 75.4844 194.1562 75.8906 194.1562 C76.2969 194.1562 76.6406 193.8125 76.6406 193.4219 C76.6406 193.0469 76.2969 192.6875 75.8906 192.6875 ZM77.4688 186.5781 C77.7188 186.8906 77.875 187.2656 77.8906 187.6562 C77.8906 188.1875 77.625 188.5 77.0312 188.7656 L76.4062 189.0156 C75.6406 189.3125 75.3906 189.5469 75.3906 189.9375 C75.3906 190.1094 75.4531 190.3438 75.5781 190.8125 L75.7344 191.3438 L76.1094 191.3438 L76.0938 190.5312 C76.0938 190.0938 76.2031 189.9688 76.7812 189.7344 L77.2031 189.5625 C78.0312 189.2188 78.4531 188.6875 78.4531 187.8438 C78.4531 186.1562 76.6562 185.1875 75.5 185.0312 C75.1094 185.125 74.9062 185.2969 74.9062 185.6406 C74.9062 185.9375 75.0625 186.1562 75.7188 186.2656 L77.4688 186.5781 Z" style="fill:black; stroke:none;"
      /><rect x="74" width="5" height="10" y="200" style="stroke:none;"
      /><path d="M75.8906 208.6875 C75.4844 208.6875 75.1562 209.0469 75.1562 209.4219 C75.1562 209.8125 75.4844 210.1562 75.8906 210.1562 C76.2969 210.1562 76.6406 209.8125 76.6406 209.4219 C76.6406 209.0469 76.2969 208.6875 75.8906 208.6875 ZM77.4688 202.5781 C77.7188 202.8906 77.875 203.2656 77.8906 203.6562 C77.8906 204.1875 77.625 204.5 77.0312 204.7656 L76.4062 205.0156 C75.6406 205.3125 75.3906 205.5469 75.3906 205.9375 C75.3906 206.1094 75.4531 206.3438 75.5781 206.8125 L75.7344 207.3438 L76.1094 207.3438 L76.0938 206.5312 C76.0938 206.0938 76.2031 205.9688 76.7812 205.7344 L77.2031 205.5625 C78.0312 205.2188 78.4531 204.6875 78.4531 203.8438 C78.4531 202.1562 76.6562 201.1875 75.5 201.0312 C75.1094 201.125 74.9062 201.2969 74.9062 201.6406 C74.9062 201.9375 75.0625 202.1562 75.7188 202.2656 L77.4688 202.5781 Z" style="fill:black; stroke:none;"
      /><polygon style="clip-path:url(#clipPath2); stroke:none;" points=" 69 145 63 152 52 152 47 145 52 137 63 137 69 145"
      /><rect x="47" y="134" width="22" style="clip-path:url(#clipPath2); fill:rgb(246,158,161); stroke:none;" height="22"
      /><rect x="47" y="134" width="22" style="clip-path:url(#clipPath2); fill:none; stroke:black;" height="22"
      /><polygon style="fill:none; stroke:black;" points=" 69 145 63 152 52 152 47 145 52 137 63 137 69 145"
      /><rect x="74" width="5" height="10" y="132" style="stroke:none;"
      /><path d="M75.8906 140.6875 C75.4844 140.6875 75.1562 141.0469 75.1562 141.4219 C75.1562 141.8125 75.4844 142.1562 75.8906 142.1562 C76.2969 142.1562 76.6406 141.8125 76.6406 141.4219 C76.6406 141.0469 76.2969 140.6875 75.8906 140.6875 ZM77.4688 134.5781 C77.7188 134.8906 77.875 135.2656 77.8906 135.6562 C77.8906 136.1875 77.625 136.5 77.0312 136.7656 L76.4062 137.0156 C75.6406 137.3125 75.3906 137.5469 75.3906 137.9375 C75.3906 138.1094 75.4531 138.3438 75.5781 138.8125 L75.7344 139.3438 L76.1094 139.3438 L76.0938 138.5312 C76.0938 138.0938 76.2031 137.9688 76.7812 137.7344 L77.2031 137.5625 C78.0312 137.2188 78.4531 136.6875 78.4531 135.8438 C78.4531 134.1562 76.6562 133.1875 75.5 133.0312 C75.1094 133.125 74.9062 133.2969 74.9062 133.6406 C74.9062 133.9375 75.0625 134.1562 75.7188 134.2656 L77.4688 134.5781 Z" style="fill:black; stroke:none;"
      /><rect x="74" width="5" height="10" y="148" style="stroke:none;"
      /><path d="M75.8906 156.6875 C75.4844 156.6875 75.1562 157.0469 75.1562 157.4219 C75.1562 157.8125 75.4844 158.1562 75.8906 158.1562 C76.2969 158.1562 76.6406 157.8125 76.6406 157.4219 C76.6406 157.0469 76.2969 156.6875 75.8906 156.6875 ZM77.4688 150.5781 C77.7188 150.8906 77.875 151.2656 77.8906 151.6562 C77.8906 152.1875 77.625 152.5 77.0312 152.7656 L76.4062 153.0156 C75.6406 153.3125 75.3906 153.5469 75.3906 153.9375 C75.3906 154.1094 75.4531 154.3438 75.5781 154.8125 L75.7344 155.3438 L76.1094 155.3438 L76.0938 154.5312 C76.0938 154.0938 76.2031 153.9688 76.7812 153.7344 L77.2031 153.5625 C78.0312 153.2188 78.4531 152.6875 78.4531 151.8438 C78.4531 150.1562 76.6562 149.1875 75.5 149.0312 C75.1094 149.125 74.9062 149.2969 74.9062 149.6406 C74.9062 149.9375 75.0625 150.1562 75.7188 150.2656 L77.4688 150.5781 Z" style="fill:black; stroke:none;"
      /><polygon style="clip-path:url(#clipPath3); stroke:none;" points=" 69 93 63 100 52 100 47 93 52 85 63 85 69 93"
      /><rect x="47" y="82" width="22" style="clip-path:url(#clipPath3); fill:rgb(0,166,81); stroke:none;" height="22"
      /><rect x="47" y="82" width="22" style="clip-path:url(#clipPath3); fill:none; stroke:black;" height="22"
      /><polygon style="fill:none; stroke:black;" points=" 69 93 63 100 52 100 47 93 52 85 63 85 69 93"
      /><rect x="74" width="5" height="10" y="80" style="stroke:none;"
      /><path d="M75.8906 88.6875 C75.4844 88.6875 75.1562 89.0469 75.1562 89.4219 C75.1562 89.8125 75.4844 90.1562 75.8906 90.1562 C76.2969 90.1562 76.6406 89.8125 76.6406 89.4219 C76.6406 89.0469 76.2969 88.6875 75.8906 88.6875 ZM77.4688 82.5781 C77.7188 82.8906 77.875 83.2656 77.8906 83.6562 C77.8906 84.1875 77.625 84.5 77.0312 84.7656 L76.4062 85.0156 C75.6406 85.3125 75.3906 85.5469 75.3906 85.9375 C75.3906 86.1094 75.4531 86.3438 75.5781 86.8125 L75.7344 87.3438 L76.1094 87.3438 L76.0938 86.5312 C76.0938 86.0938 76.2031 85.9688 76.7812 85.7344 L77.2031 85.5625 C78.0312 85.2188 78.4531 84.6875 78.4531 83.8438 C78.4531 82.1562 76.6562 81.1875 75.5 81.0312 C75.1094 81.125 74.9062 81.2969 74.9062 81.6406 C74.9062 81.9375 75.0625 82.1562 75.7188 82.2656 L77.4688 82.5781 Z" style="fill:black; stroke:none;"
      /><rect x="74" width="5" height="10" y="96" style="stroke:none;"
      /><path d="M75.8906 104.6875 C75.4844 104.6875 75.1562 105.0469 75.1562 105.4219 C75.1562 105.8125 75.4844 106.1562 75.8906 106.1562 C76.2969 106.1562 76.6406 105.8125 76.6406 105.4219 C76.6406 105.0469 76.2969 104.6875 75.8906 104.6875 ZM77.4688 98.5781 C77.7188 98.8906 77.875 99.2656 77.8906 99.6562 C77.8906 100.1875 77.625 100.5 77.0312 100.7656 L76.4062 101.0156 C75.6406 101.3125 75.3906 101.5469 75.3906 101.9375 C75.3906 102.1094 75.4531 102.3438 75.5781 102.8125 L75.7344 103.3438 L76.1094 103.3438 L76.0938 102.5312 C76.0938 102.0938 76.2031 101.9688 76.7812 101.7344 L77.2031 101.5625 C78.0312 101.2188 78.4531 100.6875 78.4531 99.8438 C78.4531 98.1562 76.6562 97.1875 75.5 97.0312 C75.1094 97.125 74.9062 97.2969 74.9062 97.6406 C74.9062 97.9375 75.0625 98.1562 75.7188 98.2656 L77.4688 98.5781 Z" style="fill:black; stroke:none;"
    /></g
    ><g style="text-rendering:optimizeSpeed; font-size:14px; font-family:'SansSerif';"
    ><path style="stroke:none;" d="M30.6094 93.1562 L32.9531 89.6562 C33.2344 89.1406 33.5156 88.6406 33.7812 88.1406 L33.8281 88.1406 C33.7969 88.6719 33.7656 89.5 33.7656 90 L33.7656 93.1562 L30.6094 93.1562 ZM33.7656 97 L34.9688 97 L34.9688 94.1719 L36.3281 94.1719 L36.3281 93.1562 L34.9688 93.1562 L34.9688 86.7188 L33.5469 86.7188 L29.2812 93.3281 L29.2812 94.1719 L33.7656 94.1719 L33.7656 97 ZM36.9731 97 L38.3168 97 L39.3481 95.2188 C39.6137 94.7656 39.8637 94.2969 40.1293 93.8594 L40.2075 93.8594 C40.4731 94.2969 40.7543 94.7656 41.0043 95.2188 L42.1293 97 L43.5356 97 L41.02 93.1562 L43.3325 89.3906 L42.0043 89.3906 L41.0668 91.0625 C40.8481 91.5 40.6137 91.9219 40.3793 92.3438 L40.3325 92.3438 C40.0668 91.9219 39.8012 91.5 39.5668 91.0625 L38.5512 89.3906 L37.1762 89.3906 L39.4887 93.0312 L36.9731 97 Z"
      /><rect x="50" y="35" width="14" style="fill:white; stroke:none;" height="10"
      /><path style="stroke:none;" d="M52.4844 42.9062 L53.625 42.9062 C53.375 40.7031 55.8906 39.875 55.8906 37.8281 C55.8906 36.2969 54.8594 35.3281 53.2812 35.3281 C52.1406 35.3281 51.25 35.875 50.6094 36.625 L51.3281 37.2969 C51.8125 36.7344 52.4375 36.3906 53.1406 36.3906 C54.125 36.3906 54.6406 37.0625 54.6406 37.9062 C54.6406 39.5781 52.1719 40.4688 52.4844 42.9062 ZM53.0938 46.1875 C53.6094 46.1875 54.0312 45.7969 54.0312 45.2188 C54.0312 44.625 53.6094 44.2188 53.0938 44.2188 C52.5938 44.2188 52.1719 44.625 52.1719 45.2188 C52.1719 45.7969 52.5938 46.1875 53.0938 46.1875 ZM58.0422 46 L59.3391 46 L59.3391 41.9219 L61.0266 41.9219 C63.2922 41.9219 64.8078 40.9219 64.8078 38.75 C64.8078 36.5156 63.2766 35.7188 60.9797 35.7188 L58.0422 35.7188 L58.0422 46 ZM59.3391 40.875 L59.3391 36.7812 L60.8078 36.7812 C62.6203 36.7812 63.5266 37.2656 63.5266 38.75 C63.5266 40.2188 62.6672 40.875 60.8703 40.875 L59.3391 40.875 Z"
    /></g
  ></g
></svg
>
