<?xml version="1.0"?>
<!DOCTYPE svg PUBLIC '-//W3C//DTD SVG 1.0//EN'
          'http://www.w3.org/TR/2001/REC-SVG-20010904/DTD/svg10.dtd'>
<svg xmlns:xlink="http://www.w3.org/1999/xlink" style="fill-opacity:1; color-rendering:auto; color-interpolation:auto; text-rendering:auto; stroke:black; stroke-linecap:square; stroke-miterlimit:10; shape-rendering:auto; stroke-opacity:1; fill:black; stroke-dasharray:none; font-weight:normal; stroke-width:1; font-family:'Dialog'; font-style:normal; stroke-linejoin:miter; font-size:12px; stroke-dashoffset:0; image-rendering:auto;" viewBox="0 0 394 238" xmlns="http://www.w3.org/2000/svg"
><!--Generated by the Batik Graphics2D SVG Generator--><defs id="genericDefs"
  /><g
  ><defs id="defs1"
    ><clipPath clipPathUnits="userSpaceOnUse" id="clipPath1"
      ><path d="M290 82 L312 82 L312 104 L290 104 L290 82 Z"
      /></clipPath
      ><clipPath clipPathUnits="userSpaceOnUse" id="clipPath2"
      ><path style="fill-rule:evenodd;" d="M301 134 L312 156 L290 156 Z"
      /></clipPath
      ><clipPath clipPathUnits="userSpaceOnUse" id="clipPath3"
      ><path d="M238 82 L260 82 L260 104 L238 104 L238 82 Z"
      /></clipPath
      ><clipPath clipPathUnits="userSpaceOnUse" id="clipPath4"
      ><path d="M208 93 C208 99.0751 203.0751 104 197 104 C190.9249 104 186 99.0751 186 93 C186 86.9249 190.9249 82 197 82 C203.0751 82 208 86.9249 208 93 Z"
      /></clipPath
      ><clipPath clipPathUnits="userSpaceOnUse" id="clipPath5"
      ><path style="fill-rule:evenodd;" d="M197 134 L199 141 L207 141 L200 146 L203 153 L197 149 L190 153 L193 146 L186 141 L194 141 L197 134 Z"
      /></clipPath
      ><clipPath clipPathUnits="userSpaceOnUse" id="clipPath6"
      ><path d="M156 145 C156 151.0751 151.0751 156 145 156 C138.9249 156 134 151.0751 134 145 C134 138.9249 138.9249 134 145 134 C151.0751 134 156 138.9249 156 145 Z"
      /></clipPath
      ><clipPath clipPathUnits="userSpaceOnUse" id="clipPath7"
      ><path d="M82 134 L104 134 L104 156 L82 156 L82 134 Z"
      /></clipPath
      ><clipPath clipPathUnits="userSpaceOnUse" id="clipPath8"
      ><path style="fill-rule:evenodd;" d="M93 186 L104 208 L82 208 Z"
      /></clipPath
      ><clipPath clipPathUnits="userSpaceOnUse" id="clipPath9"
      ><path d="M52 145 C52 151.0751 47.0751 156 41 156 C34.9249 156 30 151.0751 30 145 C30 138.9249 34.9249 134 41 134 C47.0751 134 52 138.9249 52 145 Z"
      /></clipPath
      ><clipPath clipPathUnits="userSpaceOnUse" id="clipPath10"
      ><path d="M156 41 C156 47.0751 151.0751 52 145 52 C138.9249 52 134 47.0751 134 41 C134 34.9249 138.9249 30 145 30 C151.0751 30 156 34.9249 156 41 Z"
      /></clipPath
      ><clipPath clipPathUnits="userSpaceOnUse" id="clipPath11"
      ><path d="M82 30 L104 30 L104 52 L82 52 L82 30 Z"
      /></clipPath
      ><clipPath clipPathUnits="userSpaceOnUse" id="clipPath12"
      ><path style="fill-rule:evenodd;" d="M93 82 L104 104 L82 104 Z"
      /></clipPath
      ><clipPath clipPathUnits="userSpaceOnUse" id="clipPath13"
      ><path d="M52 41 C52 47.0751 47.0751 52 41 52 C34.9249 52 30 47.0751 30 41 C30 34.9249 34.9249 30 41 30 C47.0751 30 52 34.9249 52 41 Z"
      /></clipPath
      ><clipPath clipPathUnits="userSpaceOnUse" id="clipPath14"
      ><path style="fill-rule:evenodd;" d="M301 52 L290 30 L312 30 Z"
      /></clipPath
    ></defs
    ><g style="fill:white; text-rendering:optimizeSpeed; stroke:white;"
    ><rect x="0" width="394" height="238" y="0" style="stroke:none;"
      /><polygon style="fill:none; stroke:black;" points=" 353 93 301 93"
      /><path d="M353 82 C347.5 87.5 358.5 98.5 353 104" style="fill:none; stroke:black;"
      /><polygon style="fill:none; stroke:black;" points=" 301 93 301 145"
      /><polygon style="fill:none; stroke:black;" points=" 301 93 249 93"
      /><polygon style="fill:none; stroke:black;" points=" 301 93 301 41"
      /><rect x="290" y="82" width="22" style="clip-path:url(#clipPath1); stroke:none;" height="22"
      /><rect x="290" y="82" width="22" style="clip-path:url(#clipPath1); fill:rgb(0,144,188); stroke:none;" height="22"
      /><rect x="290" y="82" width="22" style="clip-path:url(#clipPath1); fill:none; stroke:black;" height="22"
      /><rect x="290" y="82" width="22" style="fill:none; stroke:black;" height="22"
      /><polygon style="clip-path:url(#clipPath2); stroke:none;" points=" 301 134 312 156 290 156"
      /><rect x="290" y="134" width="22" style="clip-path:url(#clipPath2); fill:rgb(237,28,36); stroke:none;" height="22"
      /><rect x="290" y="134" width="22" style="clip-path:url(#clipPath2); fill:none; stroke:black;" height="22"
      /><polygon style="fill:none; stroke:black;" points=" 301 134 312 156 290 156"
      /><polygon style="fill:none; stroke:black;" points=" 249 93 197 93"
      /><rect x="238" y="82" width="22" style="clip-path:url(#clipPath3); stroke:none;" height="22"
      /><rect x="238" y="82" width="22" style="clip-path:url(#clipPath3); fill:rgb(0,144,188); stroke:none;" height="22"
      /><rect x="238" y="82" width="22" style="clip-path:url(#clipPath3); fill:none; stroke:black;" height="22"
      /><rect x="238" y="82" width="22" style="fill:none; stroke:black;" height="22"
      /><polygon style="fill:none; stroke:black;" points=" 197 93 197 145"
      /><polygon style="fill:none; stroke:black;" points=" 197 93 145 145"
      /><polygon style="fill:none; stroke:black;" points=" 197 93 145 41"
      /><circle style="clip-path:url(#clipPath4); stroke:none;" r="11" cx="197" cy="93"
      /><rect x="186" y="82" width="22" style="clip-path:url(#clipPath4); fill:rgb(0,166,81); stroke:none;" height="22"
      /><rect x="186" y="82" width="22" style="clip-path:url(#clipPath4); fill:none; stroke:black;" height="22"
      /><circle style="fill:none; stroke:black;" r="11" cx="197" cy="93"
      /><polygon style="clip-path:url(#clipPath5); stroke:none;" points=" 197 134 199 141 207 141 200 146 203 153 197 149 190 153 193 146 186 141 194 141 197 134"
      /><rect x="186" y="134" width="22" style="clip-path:url(#clipPath5); fill:rgb(244,121,32); stroke:none;" height="22"
      /><rect x="186" y="134" width="22" style="clip-path:url(#clipPath5); fill:none; stroke:black;" height="22"
      /><polygon style="fill:none; stroke:black;" points=" 197 134 199 141 207 141 200 146 203 153 197 149 190 153 193 146 186 141 194 141 197 134"
      /><polygon style="fill:none; stroke:black;" points=" 145 145 93 145"
      /><circle style="clip-path:url(#clipPath6); stroke:none;" r="11" cx="145" cy="145"
      /><rect x="134" y="134" width="22" style="clip-path:url(#clipPath6); fill:rgb(0,166,81); stroke:none;" height="22"
      /><rect x="134" y="134" width="22" style="clip-path:url(#clipPath6); fill:none; stroke:black;" height="22"
      /><circle style="fill:none; stroke:black;" r="11" cx="145" cy="145"
      /><polygon style="fill:none; stroke:black;" points=" 93 145 93 197"
      /><polygon style="fill:none; stroke:black;" points=" 93 145 41 145"
      /><rect x="82" y="134" width="22" style="clip-path:url(#clipPath7); stroke:none;" height="22"
      /><rect x="82" y="134" width="22" style="clip-path:url(#clipPath7); fill:rgb(0,144,188); stroke:none;" height="22"
      /><rect x="82" y="134" width="22" style="clip-path:url(#clipPath7); fill:none; stroke:black;" height="22"
      /><rect x="82" y="134" width="22" style="fill:none; stroke:black;" height="22"
      /><polygon style="clip-path:url(#clipPath8); stroke:none;" points=" 93 186 104 208 82 208"
      /><rect x="82" y="186" width="22" style="clip-path:url(#clipPath8); fill:rgb(237,28,36); stroke:none;" height="22"
      /><rect x="82" y="186" width="22" style="clip-path:url(#clipPath8); fill:none; stroke:black;" height="22"
      /><polygon style="fill:none; stroke:black;" points=" 93 186 104 208 82 208"
      /><circle style="clip-path:url(#clipPath9); stroke:none;" r="11" cx="41" cy="145"
      /><rect x="30" y="134" width="22" style="clip-path:url(#clipPath9); fill:rgb(255,212,0); stroke:none;" height="22"
      /><rect x="30" y="134" width="22" style="clip-path:url(#clipPath9); fill:none; stroke:black;" height="22"
      /><circle style="fill:none; stroke:black;" r="11" cx="41" cy="145"
      /><rect x="98" y="159" width="6" style="stroke:none;" height="10"
    /></g
    ><g style="font-family:'Serif'; text-rendering:optimizeSpeed; "
    ><path style="stroke:none;" d="M100.2344 160.6562 C100.5156 160.5938 100.7656 160.5625 101.0156 160.5625 C102.0625 160.5625 102.6719 161.1719 102.6719 162.2656 C102.6719 163.4375 101.9062 164.1094 100.7031 164.1094 L100.1875 164.1094 L100.1875 164.6406 L100.7969 164.6406 C102.2188 164.6406 102.9062 165.4219 102.9062 166.6406 C102.9062 167.8438 102.1719 168.6875 100.875 168.6875 C100.6094 168.6875 100.3125 168.6562 100.0156 168.5625 L99.7812 167.8125 C99.625 167.2812 99.5 167.0469 99.1406 167.0469 C98.8906 167.0469 98.7031 167.1719 98.5781 167.4219 C98.8438 168.6406 99.7812 169.1719 101.0312 169.1719 C102.7188 169.1719 103.875 168.125 103.875 166.7031 C103.875 165.5 103.2031 164.625 101.7969 164.375 C102.9531 164.0156 103.6094 163.2031 103.6094 162.2031 C103.6094 160.9219 102.6719 160.0781 101.1875 160.0781 C100.0469 160.0781 99.0625 160.5938 98.7969 161.6875 C98.9062 162 99.1094 162.1094 99.3594 162.1094 C99.7344 162.1094 99.8906 161.8906 100 161.4062 L100.2344 160.6562 Z"
      /><rect x="97" y="174" width="8" style="fill:white; stroke:none;" height="8"
      /><path style="stroke:none;" d="M101.9844 179.7031 C101.9375 180.8906 101.1562 181.6562 100.3125 181.6562 C99.2656 181.6562 98.5 180.6875 98.5 178.7188 C98.5 177.2812 99.1562 176.1562 100.3438 176.1562 C101.1406 176.1562 101.7812 176.6875 102.0938 177.6406 L101.9844 179.7031 ZM103.9062 181.2812 C103.7344 181.375 103.5469 181.4219 103.3438 181.4219 C102.9531 181.4219 102.75 181.2188 102.75 180.4219 C102.75 179.4844 102.9688 177.5312 103.1875 175.8281 L103.0312 175.7188 L102.2344 175.9219 L102.1406 176.7969 C101.7812 176.0312 101.1562 175.6562 100.3906 175.6562 C99.0469 175.6562 97.5625 176.8438 97.5625 178.9531 C97.5625 181.0938 98.7188 182.1719 100.1406 182.1719 C101.0156 182.1719 101.6875 181.8125 102.0938 180.9844 C102.2031 181.8594 102.5156 182.1719 103.0156 182.1719 C103.4688 182.1719 103.7969 181.9062 104.0156 181.5625 L103.9062 181.2812 Z"
      /><rect x="70" y="148" width="7" style="fill:white; stroke:none;" height="9"
      /><path style="stroke:none;" d="M71 153.5156 L73.9531 149.2656 L73.9531 153.5156 L71 153.5156 ZM76.2812 153.5156 L74.8594 153.5156 L74.8594 148.125 L74.2344 148.125 L70.3438 153.6406 L70.3438 154.1875 L73.9531 154.1875 L73.9531 157 L74.8594 157 L74.8594 154.1875 L76.2812 154.1875 L76.2812 153.5156 Z"
      /><rect x="57" y="146" width="6" style="fill:white; stroke:none;" height="13"
      /><path style="stroke:none;" d="M59.0938 152.2031 C59.0938 150.6562 59.75 149.8125 60.7969 149.8125 C61.7188 149.8125 62.2656 150.4531 62.2656 151.5156 C62.2656 152.7188 61.5 153.4375 60.1875 153.7031 L60.2969 154.3125 C62.2188 154.2344 62.9375 155.2188 62.9375 156.4375 C62.9375 157.625 62.2344 158.4219 60.9531 158.4219 C60.25 158.4219 59.6562 158.1562 59.0938 157.7188 L59.0938 152.2031 ZM58.2031 158.9062 L58.1094 161.375 L58.2656 161.4844 L59.1562 161.2656 L59.0156 158.0938 C59.5469 158.8438 60.3594 159.1719 61.1719 159.1719 C62.5625 159.1719 63.8594 158.2188 63.8594 156.4844 C63.8594 154.9531 62.875 154.1094 61.125 154 C62.5625 153.6094 63.1875 152.4531 63.1875 151.4844 C63.1875 150.0938 62.1562 149.3125 60.9062 149.3125 C59.2969 149.3125 58.2188 150.5469 58.2188 152.5156 L58.2031 158.9062 Z"
      /><rect x="123" y="148" width="6" style="fill:white; stroke:none;" height="9"
      /><path style="stroke:none;" d="M124.4219 156.0938 C125.0781 155.375 125.7031 154.7188 126.0312 154.3438 C127.9219 152.3125 128.5312 151.4688 128.5312 150.3594 C128.5312 149.0156 127.7812 148.0781 126.1562 148.0781 C124.9062 148.0781 123.7969 148.7031 123.5938 149.9688 C123.7188 150.2031 123.9062 150.3438 124.1562 150.3438 C124.4688 150.3438 124.6562 150.1094 124.7969 149.5938 L125.0938 148.6719 C125.3906 148.5938 125.6562 148.5625 125.8906 148.5625 C126.9219 148.5625 127.5469 149.3125 127.5469 150.4219 C127.5469 151.4375 126.9844 152.4219 125.7031 153.9062 C125.125 154.5781 124.3906 155.4375 123.6406 156.2812 L123.6406 157 L128.9219 157 L128.9219 156.0938 L124.4219 156.0938 Z"
      /><rect x="109" y="146" width="6" style="fill:white; stroke:none;" height="13"
      /><path style="stroke:none;" d="M111.0938 152.2031 C111.0938 150.6562 111.75 149.8125 112.7969 149.8125 C113.7188 149.8125 114.2656 150.4531 114.2656 151.5156 C114.2656 152.7188 113.5 153.4375 112.1875 153.7031 L112.2969 154.3125 C114.2188 154.2344 114.9375 155.2188 114.9375 156.4375 C114.9375 157.625 114.2344 158.4219 112.9531 158.4219 C112.25 158.4219 111.6562 158.1562 111.0938 157.7188 L111.0938 152.2031 ZM110.2031 158.9062 L110.1094 161.375 L110.2656 161.4844 L111.1562 161.2656 L111.0156 158.0938 C111.5469 158.8438 112.3594 159.1719 113.1719 159.1719 C114.5625 159.1719 115.8594 158.2188 115.8594 156.4844 C115.8594 154.9531 114.875 154.1094 113.125 154 C114.5625 153.6094 115.1875 152.4531 115.1875 151.4844 C115.1875 150.0938 114.1562 149.3125 112.9062 149.3125 C111.2969 149.3125 110.2188 150.5469 110.2188 152.5156 L110.2031 158.9062 Z"
      /><polygon style="fill:none;" points=" 145 41 93 41"
      /><circle style="fill:white; clip-path:url(#clipPath10); stroke:none;" r="11" cx="145" cy="41"
      /><rect x="134" y="30" width="22" style="clip-path:url(#clipPath10); fill:rgb(0,166,81); stroke:none;" height="22"
      /><rect x="134" y="30" width="22" style="fill:none; clip-path:url(#clipPath10);" height="22"
      /><circle r="11" style="fill:none;" cx="145" cy="41"
      /><polygon style="fill:none;" points=" 93 41 93 93"
      /><polygon style="fill:none;" points=" 93 41 41 41"
      /><rect x="82" y="30" width="22" style="clip-path:url(#clipPath11); fill:white; stroke:none;" height="22"
      /><rect x="82" y="30" width="22" style="clip-path:url(#clipPath11); fill:rgb(0,144,188); stroke:none;" height="22"
      /><rect x="82" y="30" width="22" style="fill:none; clip-path:url(#clipPath11);" height="22"
      /><rect x="82" width="22" height="22" y="30" style="fill:none;"
      /><polygon style="fill:white; clip-path:url(#clipPath12); stroke:none;" points=" 93 82 104 104 82 104"
      /><rect x="82" y="82" width="22" style="clip-path:url(#clipPath12); fill:rgb(237,28,36); stroke:none;" height="22"
      /><rect x="82" y="82" width="22" style="fill:none; clip-path:url(#clipPath12);" height="22"
      /><polygon style="fill:none;" points=" 93 82 104 104 82 104"
      /><circle style="fill:white; clip-path:url(#clipPath13); stroke:none;" r="11" cx="41" cy="41"
      /><rect x="30" y="30" width="22" style="clip-path:url(#clipPath13); fill:rgb(255,212,0); stroke:none;" height="22"
      /><rect x="30" y="30" width="22" style="fill:none; clip-path:url(#clipPath13);" height="22"
      /><circle r="11" style="fill:none;" cx="41" cy="41"
      /><rect x="98" y="55" width="6" style="fill:white; stroke:none;" height="10"
      /><path style="stroke:none;" d="M100.2344 56.6562 C100.5156 56.5938 100.7656 56.5625 101.0156 56.5625 C102.0625 56.5625 102.6719 57.1719 102.6719 58.2656 C102.6719 59.4375 101.9062 60.1094 100.7031 60.1094 L100.1875 60.1094 L100.1875 60.6406 L100.7969 60.6406 C102.2188 60.6406 102.9062 61.4219 102.9062 62.6406 C102.9062 63.8438 102.1719 64.6875 100.875 64.6875 C100.6094 64.6875 100.3125 64.6562 100.0156 64.5625 L99.7812 63.8125 C99.625 63.2812 99.5 63.0469 99.1406 63.0469 C98.8906 63.0469 98.7031 63.1719 98.5781 63.4219 C98.8438 64.6406 99.7812 65.1719 101.0312 65.1719 C102.7188 65.1719 103.875 64.125 103.875 62.7031 C103.875 61.5 103.2031 60.625 101.7969 60.375 C102.9531 60.0156 103.6094 59.2031 103.6094 58.2031 C103.6094 56.9219 102.6719 56.0781 101.1875 56.0781 C100.0469 56.0781 99.0625 56.5938 98.7969 57.6875 C98.9062 58 99.1094 58.1094 99.3594 58.1094 C99.7344 58.1094 99.8906 57.8906 100 57.4062 L100.2344 56.6562 Z"
      /><rect x="97" y="70" width="8" style="fill:white; stroke:none;" height="8"
      /><path style="stroke:none;" d="M101.9844 75.7031 C101.9375 76.8906 101.1562 77.6562 100.3125 77.6562 C99.2656 77.6562 98.5 76.6875 98.5 74.7188 C98.5 73.2812 99.1562 72.1562 100.3438 72.1562 C101.1406 72.1562 101.7812 72.6875 102.0938 73.6406 L101.9844 75.7031 ZM103.9062 77.2812 C103.7344 77.375 103.5469 77.4219 103.3438 77.4219 C102.9531 77.4219 102.75 77.2188 102.75 76.4219 C102.75 75.4844 102.9688 73.5312 103.1875 71.8281 L103.0312 71.7188 L102.2344 71.9219 L102.1406 72.7969 C101.7812 72.0312 101.1562 71.6562 100.3906 71.6562 C99.0469 71.6562 97.5625 72.8438 97.5625 74.9531 C97.5625 77.0938 98.7188 78.1719 100.1406 78.1719 C101.0156 78.1719 101.6875 77.8125 102.0938 76.9844 C102.2031 77.8594 102.5156 78.1719 103.0156 78.1719 C103.4688 78.1719 103.7969 77.9062 104.0156 77.5625 L103.9062 77.2812 Z"
      /><rect x="70" y="44" width="7" style="fill:white; stroke:none;" height="9"
      /><path style="stroke:none;" d="M71 49.5156 L73.9531 45.2656 L73.9531 49.5156 L71 49.5156 ZM76.2812 49.5156 L74.8594 49.5156 L74.8594 44.125 L74.2344 44.125 L70.3438 49.6406 L70.3438 50.1875 L73.9531 50.1875 L73.9531 53 L74.8594 53 L74.8594 50.1875 L76.2812 50.1875 L76.2812 49.5156 Z"
      /><rect x="57" y="42" width="6" style="fill:white; stroke:none;" height="13"
      /><path style="stroke:none;" d="M59.0938 48.2031 C59.0938 46.6562 59.75 45.8125 60.7969 45.8125 C61.7188 45.8125 62.2656 46.4531 62.2656 47.5156 C62.2656 48.7188 61.5 49.4375 60.1875 49.7031 L60.2969 50.3125 C62.2188 50.2344 62.9375 51.2188 62.9375 52.4375 C62.9375 53.625 62.2344 54.4219 60.9531 54.4219 C60.25 54.4219 59.6562 54.1562 59.0938 53.7188 L59.0938 48.2031 ZM58.2031 54.9062 L58.1094 57.375 L58.2656 57.4844 L59.1562 57.2656 L59.0156 54.0938 C59.5469 54.8438 60.3594 55.1719 61.1719 55.1719 C62.5625 55.1719 63.8594 54.2188 63.8594 52.4844 C63.8594 50.9531 62.875 50.1094 61.125 50 C62.5625 49.6094 63.1875 48.4531 63.1875 47.4844 C63.1875 46.0938 62.1562 45.3125 60.9062 45.3125 C59.2969 45.3125 58.2188 46.5469 58.2188 48.5156 L58.2031 54.9062 Z"
      /><rect x="123" y="44" width="6" style="fill:white; stroke:none;" height="9"
      /><path style="stroke:none;" d="M124.4219 52.0938 C125.0781 51.375 125.7031 50.7188 126.0312 50.3438 C127.9219 48.3125 128.5312 47.4688 128.5312 46.3594 C128.5312 45.0156 127.7812 44.0781 126.1562 44.0781 C124.9062 44.0781 123.7969 44.7031 123.5938 45.9688 C123.7188 46.2031 123.9062 46.3438 124.1562 46.3438 C124.4688 46.3438 124.6562 46.1094 124.7969 45.5938 L125.0938 44.6719 C125.3906 44.5938 125.6562 44.5625 125.8906 44.5625 C126.9219 44.5625 127.5469 45.3125 127.5469 46.4219 C127.5469 47.4375 126.9844 48.4219 125.7031 49.9062 C125.125 50.5781 124.3906 51.4375 123.6406 52.2812 L123.6406 53 L128.9219 53 L128.9219 52.0938 L124.4219 52.0938 Z"
      /><rect x="109" y="42" width="6" style="fill:white; stroke:none;" height="13"
      /><path style="stroke:none;" d="M111.0938 48.2031 C111.0938 46.6562 111.75 45.8125 112.7969 45.8125 C113.7188 45.8125 114.2656 46.4531 114.2656 47.5156 C114.2656 48.7188 113.5 49.4375 112.1875 49.7031 L112.2969 50.3125 C114.2188 50.2344 114.9375 51.2188 114.9375 52.4375 C114.9375 53.625 114.2344 54.4219 112.9531 54.4219 C112.25 54.4219 111.6562 54.1562 111.0938 53.7188 L111.0938 48.2031 ZM110.2031 54.9062 L110.1094 57.375 L110.2656 57.4844 L111.1562 57.2656 L111.0156 54.0938 C111.5469 54.8438 112.3594 55.1719 113.1719 55.1719 C114.5625 55.1719 115.8594 54.2188 115.8594 52.4844 C115.8594 50.9531 114.875 50.1094 113.125 50 C114.5625 49.6094 115.1875 48.4531 115.1875 47.4844 C115.1875 46.0938 114.1562 45.3125 112.9062 45.3125 C111.2969 45.3125 110.2188 46.5469 110.2188 48.5156 L110.2031 54.9062 Z"
      /><rect x="202" y="107" width="6" style="fill:white; stroke:none;" height="9"
      /><path style="stroke:none;" d="M203.4219 115.0938 C204.0781 114.375 204.7031 113.7188 205.0312 113.3438 C206.9219 111.3125 207.5312 110.4688 207.5312 109.3594 C207.5312 108.0156 206.7812 107.0781 205.1562 107.0781 C203.9062 107.0781 202.7969 107.7031 202.5938 108.9688 C202.7188 109.2031 202.9062 109.3438 203.1562 109.3438 C203.4688 109.3438 203.6562 109.1094 203.7969 108.5938 L204.0938 107.6719 C204.3906 107.5938 204.6562 107.5625 204.8906 107.5625 C205.9219 107.5625 206.5469 108.3125 206.5469 109.4219 C206.5469 110.4375 205.9844 111.4219 204.7031 112.9062 C204.125 113.5781 203.3906 114.4375 202.6406 115.2812 L202.6406 116 L207.9219 116 L207.9219 115.0938 L203.4219 115.0938 Z"
      /><rect x="202" y="119" width="6" style="fill:white; stroke:none;" height="13"
      /><path style="stroke:none;" d="M204.0938 125.2031 C204.0938 123.6562 204.75 122.8125 205.7969 122.8125 C206.7188 122.8125 207.2656 123.4531 207.2656 124.5156 C207.2656 125.7188 206.5 126.4375 205.1875 126.7031 L205.2969 127.3125 C207.2188 127.2344 207.9375 128.2188 207.9375 129.4375 C207.9375 130.625 207.2344 131.4219 205.9531 131.4219 C205.25 131.4219 204.6562 131.1562 204.0938 130.7188 L204.0938 125.2031 ZM203.2031 131.9062 L203.1094 134.375 L203.2656 134.4844 L204.1562 134.2656 L204.0156 131.0938 C204.5469 131.8438 205.3594 132.1719 206.1719 132.1719 C207.5625 132.1719 208.8594 131.2188 208.8594 129.4844 C208.8594 127.9531 207.875 127.1094 206.125 127 C207.5625 126.6094 208.1875 125.4531 208.1875 124.4844 C208.1875 123.0938 207.1562 122.3125 205.9062 122.3125 C204.2969 122.3125 203.2188 123.5469 203.2188 125.5156 L203.2031 131.9062 Z"
      /><rect x="183" y="110" width="6" style="fill:white; stroke:none;" height="10"
      /><path style="stroke:none;" d="M185.2344 111.6562 C185.5156 111.5938 185.7656 111.5625 186.0156 111.5625 C187.0625 111.5625 187.6719 112.1719 187.6719 113.2656 C187.6719 114.4375 186.9062 115.1094 185.7031 115.1094 L185.1875 115.1094 L185.1875 115.6406 L185.7969 115.6406 C187.2188 115.6406 187.9062 116.4219 187.9062 117.6406 C187.9062 118.8438 187.1719 119.6875 185.875 119.6875 C185.6094 119.6875 185.3125 119.6562 185.0156 119.5625 L184.7812 118.8125 C184.625 118.2812 184.5 118.0469 184.1406 118.0469 C183.8906 118.0469 183.7031 118.1719 183.5781 118.4219 C183.8438 119.6406 184.7812 120.1719 186.0312 120.1719 C187.7188 120.1719 188.875 119.125 188.875 117.7031 C188.875 116.5 188.2031 115.625 186.7969 115.375 C187.9531 115.0156 188.6094 114.2031 188.6094 113.2031 C188.6094 111.9219 187.6719 111.0781 186.1875 111.0781 C185.0469 111.0781 184.0625 111.5938 183.7969 112.6875 C183.9062 113 184.1094 113.1094 184.3594 113.1094 C184.7344 113.1094 184.8906 112.8906 185 112.4062 L185.2344 111.6562 Z"
      /><rect x="163" y="130" width="8" style="fill:white; stroke:none;" height="8"
      /><path style="stroke:none;" d="M167.9844 135.7031 C167.9375 136.8906 167.1562 137.6562 166.3125 137.6562 C165.2656 137.6562 164.5 136.6875 164.5 134.7188 C164.5 133.2812 165.1562 132.1562 166.3438 132.1562 C167.1406 132.1562 167.7812 132.6875 168.0938 133.6406 L167.9844 135.7031 ZM169.9062 137.2812 C169.7344 137.375 169.5469 137.4219 169.3438 137.4219 C168.9531 137.4219 168.75 137.2188 168.75 136.4219 C168.75 135.4844 168.9688 133.5312 169.1875 131.8281 L169.0312 131.7188 L168.2344 131.9219 L168.1406 132.7969 C167.7812 132.0312 167.1562 131.6562 166.3906 131.6562 C165.0469 131.6562 163.5625 132.8438 163.5625 134.9531 C163.5625 137.0938 164.7188 138.1719 166.1406 138.1719 C167.0156 138.1719 167.6875 137.8125 168.0938 136.9844 C168.2031 137.8594 168.5156 138.1719 169.0156 138.1719 C169.4688 138.1719 169.7969 137.9062 170.0156 137.5625 L169.9062 137.2812 Z"
      /><rect x="171" y="77" width="6" style="fill:white; stroke:none;" height="10"
      /><path style="stroke:none;" d="M174.3438 86.6875 C173.2031 86.6875 172.5312 85.5 172.5312 83.2969 C172.5312 83.2188 172.5312 83.125 172.5312 83.0469 C173.0938 82.5 173.7188 82.3125 174.3438 82.3125 C175.3125 82.3125 175.9531 82.9844 175.9531 84.4531 C175.9531 85.9375 175.3125 86.6875 174.3438 86.6875 ZM176.5312 78.0781 C173.3438 78.4531 171.5625 80.7656 171.5625 83.4531 C171.5625 85.7812 172.6094 87.1719 174.3125 87.1719 C175.8438 87.1719 176.9219 86.1094 176.9219 84.2812 C176.9219 82.6875 175.9688 81.6562 174.5625 81.6562 C173.8281 81.6562 173.1406 81.9844 172.5781 82.5781 C172.7969 80.4062 174.0781 78.9688 176.5938 78.3906 L176.5312 78.0781 Z"
      /><rect x="152" y="59" width="8" style="fill:white; stroke:none;" height="8"
      /><path style="stroke:none;" d="M156.9844 64.7031 C156.9375 65.8906 156.1562 66.6562 155.3125 66.6562 C154.2656 66.6562 153.5 65.6875 153.5 63.7188 C153.5 62.2812 154.1562 61.1562 155.3438 61.1562 C156.1406 61.1562 156.7812 61.6875 157.0938 62.6406 L156.9844 64.7031 ZM158.9062 66.2812 C158.7344 66.375 158.5469 66.4219 158.3438 66.4219 C157.9531 66.4219 157.75 66.2188 157.75 65.4219 C157.75 64.4844 157.9688 62.5312 158.1875 60.8281 L158.0312 60.7188 L157.2344 60.9219 L157.1406 61.7969 C156.7812 61.0312 156.1562 60.6562 155.3906 60.6562 C154.0469 60.6562 152.5625 61.8438 152.5625 63.9531 C152.5625 66.0938 153.7188 67.1719 155.1406 67.1719 C156.0156 67.1719 156.6875 66.8125 157.0938 65.9844 C157.2031 66.8594 157.5156 67.1719 158.0156 67.1719 C158.4688 67.1719 158.7969 66.9062 159.0156 66.5625 L158.9062 66.2812 Z"
      /><rect x="226" y="96" width="7" style="fill:white; stroke:none;" height="9"
      /><path style="stroke:none;" d="M227 101.5156 L229.9531 97.2656 L229.9531 101.5156 L227 101.5156 ZM232.2812 101.5156 L230.8594 101.5156 L230.8594 96.125 L230.2344 96.125 L226.3438 101.6406 L226.3438 102.1875 L229.9531 102.1875 L229.9531 105 L230.8594 105 L230.8594 102.1875 L232.2812 102.1875 L232.2812 101.5156 Z"
      /><rect x="213" y="94" width="6" style="fill:white; stroke:none;" height="13"
      /><path style="stroke:none;" d="M215.0938 100.2031 C215.0938 98.6562 215.75 97.8125 216.7969 97.8125 C217.7188 97.8125 218.2656 98.4531 218.2656 99.5156 C218.2656 100.7188 217.5 101.4375 216.1875 101.7031 L216.2969 102.3125 C218.2188 102.2344 218.9375 103.2188 218.9375 104.4375 C218.9375 105.625 218.2344 106.4219 216.9531 106.4219 C216.25 106.4219 215.6562 106.1562 215.0938 105.7188 L215.0938 100.2031 ZM214.2031 106.9062 L214.1094 109.375 L214.2656 109.4844 L215.1562 109.2656 L215.0156 106.0938 C215.5469 106.8438 216.3594 107.1719 217.1719 107.1719 C218.5625 107.1719 219.8594 106.2188 219.8594 104.4844 C219.8594 102.9531 218.875 102.1094 217.125 102 C218.5625 101.6094 219.1875 100.4531 219.1875 99.4844 C219.1875 98.0938 218.1562 97.3125 216.9062 97.3125 C215.2969 97.3125 214.2188 98.5469 214.2188 100.5156 L214.2031 106.9062 Z"
      /><polygon style="fill:white; clip-path:url(#clipPath14); stroke:none;" points=" 301 52 290 30 312 30"
      /><rect x="290" y="30" width="22" style="clip-path:url(#clipPath14); fill:rgb(237,28,36); stroke:none;" height="22"
      /><rect x="290" y="30" width="22" style="fill:none; clip-path:url(#clipPath14);" height="22"
      /><polygon style="fill:none;" points=" 301 52 290 30 312 30"
      /><rect x="306" y="107" width="6" style="fill:white; stroke:none;" height="10"
      /><path style="stroke:none;" d="M308.2344 108.6562 C308.5156 108.5938 308.7656 108.5625 309.0156 108.5625 C310.0625 108.5625 310.6719 109.1719 310.6719 110.2656 C310.6719 111.4375 309.9062 112.1094 308.7031 112.1094 L308.1875 112.1094 L308.1875 112.6406 L308.7969 112.6406 C310.2188 112.6406 310.9062 113.4219 310.9062 114.6406 C310.9062 115.8438 310.1719 116.6875 308.875 116.6875 C308.6094 116.6875 308.3125 116.6562 308.0156 116.5625 L307.7812 115.8125 C307.625 115.2812 307.5 115.0469 307.1406 115.0469 C306.8906 115.0469 306.7031 115.1719 306.5781 115.4219 C306.8438 116.6406 307.7812 117.1719 309.0312 117.1719 C310.7188 117.1719 311.875 116.125 311.875 114.7031 C311.875 113.5 311.2031 112.625 309.7969 112.375 C310.9531 112.0156 311.6094 111.2031 311.6094 110.2031 C311.6094 108.9219 310.6719 108.0781 309.1875 108.0781 C308.0469 108.0781 307.0625 108.5938 306.7969 109.6875 C306.9062 110 307.1094 110.1094 307.3594 110.1094 C307.7344 110.1094 307.8906 109.8906 308 109.4062 L308.2344 108.6562 Z"
      /><rect x="305" y="122" width="8" style="fill:white; stroke:none;" height="8"
      /><path style="stroke:none;" d="M309.9844 127.7031 C309.9375 128.8906 309.1562 129.6562 308.3125 129.6562 C307.2656 129.6562 306.5 128.6875 306.5 126.7188 C306.5 125.2812 307.1562 124.1562 308.3438 124.1562 C309.1406 124.1562 309.7812 124.6875 310.0938 125.6406 L309.9844 127.7031 ZM311.9062 129.2812 C311.7344 129.375 311.5469 129.4219 311.3438 129.4219 C310.9531 129.4219 310.75 129.2188 310.75 128.4219 C310.75 127.4844 310.9688 125.5312 311.1875 123.8281 L311.0312 123.7188 L310.2344 123.9219 L310.1406 124.7969 C309.7812 124.0312 309.1562 123.6562 308.3906 123.6562 C307.0469 123.6562 305.5625 124.8438 305.5625 126.9531 C305.5625 129.0938 306.7188 130.1719 308.1406 130.1719 C309.0156 130.1719 309.6875 129.8125 310.0938 128.9844 C310.2031 129.8594 310.5156 130.1719 311.0156 130.1719 C311.4688 130.1719 311.7969 129.9062 312.0156 129.5625 L311.9062 129.2812 Z"
      /><rect x="278" y="96" width="7" style="fill:white; stroke:none;" height="9"
      /><path style="stroke:none;" d="M279 101.5156 L281.9531 97.2656 L281.9531 101.5156 L279 101.5156 ZM284.2812 101.5156 L282.8594 101.5156 L282.8594 96.125 L282.2344 96.125 L278.3438 101.6406 L278.3438 102.1875 L281.9531 102.1875 L281.9531 105 L282.8594 105 L282.8594 102.1875 L284.2812 102.1875 L284.2812 101.5156 Z"
      /><rect x="265" y="94" width="6" style="fill:white; stroke:none;" height="13"
      /><path style="stroke:none;" d="M267.0938 100.2031 C267.0938 98.6562 267.75 97.8125 268.7969 97.8125 C269.7188 97.8125 270.2656 98.4531 270.2656 99.5156 C270.2656 100.7188 269.5 101.4375 268.1875 101.7031 L268.2969 102.3125 C270.2188 102.2344 270.9375 103.2188 270.9375 104.4375 C270.9375 105.625 270.2344 106.4219 268.9531 106.4219 C268.25 106.4219 267.6562 106.1562 267.0938 105.7188 L267.0938 100.2031 ZM266.2031 106.9062 L266.1094 109.375 L266.2656 109.4844 L267.1562 109.2656 L267.0156 106.0938 C267.5469 106.8438 268.3594 107.1719 269.1719 107.1719 C270.5625 107.1719 271.8594 106.2188 271.8594 104.4844 C271.8594 102.9531 270.875 102.1094 269.125 102 C270.5625 101.6094 271.1875 100.4531 271.1875 99.4844 C271.1875 98.0938 270.1562 97.3125 268.9062 97.3125 C267.2969 97.3125 266.2188 98.5469 266.2188 100.5156 L266.2031 106.9062 Z"
      /><rect x="290" y="69" width="6" style="fill:white; stroke:none;" height="10"
      /><path style="stroke:none;" d="M293.3438 78.6875 C292.2031 78.6875 291.5312 77.5 291.5312 75.2969 C291.5312 75.2188 291.5312 75.125 291.5312 75.0469 C292.0938 74.5 292.7188 74.3125 293.3438 74.3125 C294.3125 74.3125 294.9531 74.9844 294.9531 76.4531 C294.9531 77.9375 294.3125 78.6875 293.3438 78.6875 ZM295.5312 70.0781 C292.3438 70.4531 290.5625 72.7656 290.5625 75.4531 C290.5625 77.7812 291.6094 79.1719 293.3125 79.1719 C294.8438 79.1719 295.9219 78.1094 295.9219 76.2812 C295.9219 74.6875 294.9688 73.6562 293.5625 73.6562 C292.8281 73.6562 292.1406 73.9844 291.5781 74.5781 C291.7969 72.4062 293.0781 70.9688 295.5938 70.3906 L295.5312 70.0781 Z"
      /><rect x="289" y="56" width="8" style="fill:white; stroke:none;" height="8"
      /><path style="stroke:none;" d="M293.9844 61.7031 C293.9375 62.8906 293.1562 63.6562 292.3125 63.6562 C291.2656 63.6562 290.5 62.6875 290.5 60.7188 C290.5 59.2812 291.1562 58.1562 292.3438 58.1562 C293.1406 58.1562 293.7812 58.6875 294.0938 59.6406 L293.9844 61.7031 ZM295.9062 63.2812 C295.7344 63.375 295.5469 63.4219 295.3438 63.4219 C294.9531 63.4219 294.75 63.2188 294.75 62.4219 C294.75 61.4844 294.9688 59.5312 295.1875 57.8281 L295.0312 57.7188 L294.2344 57.9219 L294.1406 58.7969 C293.7812 58.0312 293.1562 57.6562 292.3906 57.6562 C291.0469 57.6562 289.5625 58.8438 289.5625 60.9531 C289.5625 63.0938 290.7188 64.1719 292.1406 64.1719 C293.0156 64.1719 293.6875 63.8125 294.0938 62.9844 C294.2031 63.8594 294.5156 64.1719 295.0156 64.1719 C295.4688 64.1719 295.7969 63.9062 296.0156 63.5625 L295.9062 63.2812 Z"
      /><rect x="317" y="94" width="6" style="fill:white; stroke:none;" height="13"
      /><path style="stroke:none;" d="M319.0938 100.2031 C319.0938 98.6562 319.75 97.8125 320.7969 97.8125 C321.7188 97.8125 322.2656 98.4531 322.2656 99.5156 C322.2656 100.7188 321.5 101.4375 320.1875 101.7031 L320.2969 102.3125 C322.2188 102.2344 322.9375 103.2188 322.9375 104.4375 C322.9375 105.625 322.2344 106.4219 320.9531 106.4219 C320.25 106.4219 319.6562 106.1562 319.0938 105.7188 L319.0938 100.2031 ZM318.2031 106.9062 L318.1094 109.375 L318.2656 109.4844 L319.1562 109.2656 L319.0156 106.0938 C319.5469 106.8438 320.3594 107.1719 321.1719 107.1719 C322.5625 107.1719 323.8594 106.2188 323.8594 104.4844 C323.8594 102.9531 322.875 102.1094 321.125 102 C322.5625 101.6094 323.1875 100.4531 323.1875 99.4844 C323.1875 98.0938 322.1562 97.3125 320.9062 97.3125 C319.2969 97.3125 318.2188 98.5469 318.2188 100.5156 L318.2031 106.9062 Z"
    /></g
  ></g
></svg
>
