<?xml version="1.0"?>
<!DOCTYPE svg PUBLIC '-//W3C//DTD SVG 1.0//EN'
          'http://www.w3.org/TR/2001/REC-SVG-20010904/DTD/svg10.dtd'>
<svg xmlns:xlink="http://www.w3.org/1999/xlink" style="fill-opacity:1; color-rendering:auto; color-interpolation:auto; text-rendering:auto; stroke:black; stroke-linecap:square; stroke-miterlimit:10; shape-rendering:auto; stroke-opacity:1; fill:black; stroke-dasharray:none; font-weight:normal; stroke-width:1; font-family:'Dialog'; font-style:normal; stroke-linejoin:miter; font-size:12px; stroke-dashoffset:0; image-rendering:auto;" viewBox="0 0 186 134" xmlns="http://www.w3.org/2000/svg"
><!--Generated by the Batik Graphics2D SVG Generator--><defs id="genericDefs"
  /><g
  ><defs id="defs1"
    ><clipPath clipPathUnits="userSpaceOnUse" id="clipPath1"
      ><path style="fill-rule:evenodd;" d="M104 67 L98 74 L87 74 L82 67 L87 59 L98 59 L104 67 Z"
      /></clipPath
      ><clipPath clipPathUnits="userSpaceOnUse" id="clipPath2"
      ><path d="M52 93 C52 99.0751 47.0751 104 41 104 C34.9249 104 30 99.0751 30 93 C30 86.9249 34.9249 82 41 82 C47.0751 82 52 86.9249 52 93 Z"
      /></clipPath
      ><clipPath clipPathUnits="userSpaceOnUse" id="clipPath3"
      ><path style="fill-rule:evenodd;" d="M52 41 L46 48 L35 48 L30 41 L35 33 L46 33 L52 41 Z"
      /></clipPath
    ></defs
    ><g style="fill:white; text-rendering:optimizeSpeed; stroke:white;"
    ><rect x="0" width="186" height="134" y="0" style="stroke:none;"
      /><polygon style="fill:none; stroke:black;" points=" 145 67 93 67"
      /><path d="M145 56 C139.5 61.5 150.5 72.5 145 78" style="fill:none; stroke:black;"
      /><polygon style="fill:none; stroke:black;" points=" 93 67 41 93"
      /><polygon style="fill:none; stroke:black;" points=" 93 67 41 41"
      /><polygon style="clip-path:url(#clipPath1); stroke:none;" points=" 104 67 98 74 87 74 82 67 87 59 98 59 104 67"
      /><rect x="82" y="56" width="22" style="clip-path:url(#clipPath1); fill:rgb(255,212,0); stroke:none;" height="22"
      /><rect x="82" y="56" width="22" style="clip-path:url(#clipPath1); fill:none; stroke:black;" height="22"
      /><polygon style="fill:none; stroke:black;" points=" 104 67 98 74 87 74 82 67 87 59 98 59 104 67"
      /><circle style="clip-path:url(#clipPath2); stroke:none;" r="11" cx="41" cy="93"
      /><rect x="30" y="82" width="22" style="clip-path:url(#clipPath2); fill:rgb(0,144,188); stroke:none;" height="22"
      /><rect x="30" y="82" width="22" style="clip-path:url(#clipPath2); fill:none; stroke:black;" height="22"
      /><circle style="fill:none; stroke:black;" r="11" cx="41" cy="93"
      /><polygon style="clip-path:url(#clipPath3); stroke:none;" points=" 52 41 46 48 35 48 30 41 35 33 46 33 52 41"
      /><rect x="30" y="30" width="22" style="clip-path:url(#clipPath3); fill:rgb(255,212,0); stroke:none;" height="22"
      /><rect x="30" y="30" width="22" style="clip-path:url(#clipPath3); fill:none; stroke:black;" height="22"
      /><polygon style="fill:none; stroke:black;" points=" 52 41 46 48 35 48 30 41 35 33 46 33 52 41"
      /><rect x="75" y="78" width="5" style="stroke:none;" height="10"
    /></g
    ><g style="font-family:'Serif'; text-rendering:optimizeSpeed; "
    ><path style="stroke:none;" d="M76.8906 86.6875 C76.4844 86.6875 76.1562 87.0469 76.1562 87.4219 C76.1562 87.8125 76.4844 88.1562 76.8906 88.1562 C77.2969 88.1562 77.6406 87.8125 77.6406 87.4219 C77.6406 87.0469 77.2969 86.6875 76.8906 86.6875 ZM78.4688 80.5781 C78.7188 80.8906 78.875 81.2656 78.8906 81.6562 C78.8906 82.1875 78.625 82.5 78.0312 82.7656 L77.4062 83.0156 C76.6406 83.3125 76.3906 83.5469 76.3906 83.9375 C76.3906 84.1094 76.4531 84.3438 76.5781 84.8125 L76.7344 85.3438 L77.1094 85.3438 L77.0938 84.5312 C77.0938 84.0938 77.2031 83.9688 77.7812 83.7344 L78.2031 83.5625 C79.0312 83.2188 79.4531 82.6875 79.4531 81.8438 C79.4531 80.1562 77.6562 79.1875 76.5 79.0312 C76.1094 79.125 75.9062 79.2969 75.9062 79.6406 C75.9062 79.9375 76.0625 80.1562 76.7188 80.2656 L78.4688 80.5781 Z"
      /><rect x="60" y="86" width="5" style="fill:white; stroke:none;" height="10"
      /><path style="stroke:none;" d="M61.8906 94.6875 C61.4844 94.6875 61.1562 95.0469 61.1562 95.4219 C61.1562 95.8125 61.4844 96.1562 61.8906 96.1562 C62.2969 96.1562 62.6406 95.8125 62.6406 95.4219 C62.6406 95.0469 62.2969 94.6875 61.8906 94.6875 ZM63.4688 88.5781 C63.7188 88.8906 63.875 89.2656 63.8906 89.6562 C63.8906 90.1875 63.625 90.5 63.0312 90.7656 L62.4062 91.0156 C61.6406 91.3125 61.3906 91.5469 61.3906 91.9375 C61.3906 92.1094 61.4531 92.3438 61.5781 92.8125 L61.7344 93.3438 L62.1094 93.3438 L62.0938 92.5312 C62.0938 92.0938 62.2031 91.9688 62.7812 91.7344 L63.2031 91.5625 C64.0312 91.2188 64.4531 90.6875 64.4531 89.8438 C64.4531 88.1562 62.6562 87.1875 61.5 87.0312 C61.1094 87.125 60.9062 87.2969 60.9062 87.6406 C60.9062 87.9375 61.0625 88.1562 61.7188 88.2656 L63.4688 88.5781 Z"
      /><rect x="68" y="60" width="5" style="fill:white; stroke:none;" height="10"
      /><path style="stroke:none;" d="M69.8906 68.6875 C69.4844 68.6875 69.1562 69.0469 69.1562 69.4219 C69.1562 69.8125 69.4844 70.1562 69.8906 70.1562 C70.2969 70.1562 70.6406 69.8125 70.6406 69.4219 C70.6406 69.0469 70.2969 68.6875 69.8906 68.6875 ZM71.4688 62.5781 C71.7188 62.8906 71.875 63.2656 71.8906 63.6562 C71.8906 64.1875 71.625 64.5 71.0312 64.7656 L70.4062 65.0156 C69.6406 65.3125 69.3906 65.5469 69.3906 65.9375 C69.3906 66.1094 69.4531 66.3438 69.5781 66.8125 L69.7344 67.3438 L70.1094 67.3438 L70.0938 66.5312 C70.0938 66.0938 70.2031 65.9688 70.7812 65.7344 L71.2031 65.5625 C72.0312 65.2188 72.4531 64.6875 72.4531 63.8438 C72.4531 62.1562 70.6562 61.1875 69.5 61.0312 C69.1094 61.125 68.9062 61.2969 68.9062 61.6406 C68.9062 61.9375 69.0625 62.1562 69.7188 62.2656 L71.4688 62.5781 Z"
      /><rect x="53" y="52" width="5" style="fill:white; stroke:none;" height="10"
      /><path style="stroke:none;" d="M54.8906 60.6875 C54.4844 60.6875 54.1562 61.0469 54.1562 61.4219 C54.1562 61.8125 54.4844 62.1562 54.8906 62.1562 C55.2969 62.1562 55.6406 61.8125 55.6406 61.4219 C55.6406 61.0469 55.2969 60.6875 54.8906 60.6875 ZM56.4688 54.5781 C56.7188 54.8906 56.875 55.2656 56.8906 55.6562 C56.8906 56.1875 56.625 56.5 56.0312 56.7656 L55.4062 57.0156 C54.6406 57.3125 54.3906 57.5469 54.3906 57.9375 C54.3906 58.1094 54.4531 58.3438 54.5781 58.8125 L54.7344 59.3438 L55.1094 59.3438 L55.0938 58.5312 C55.0938 58.0938 55.2031 57.9688 55.7812 57.7344 L56.2031 57.5625 C57.0312 57.2188 57.4531 56.6875 57.4531 55.8438 C57.4531 54.1562 55.6562 53.1875 54.5 53.0312 C54.1094 53.125 53.9062 53.2969 53.9062 53.6406 C53.9062 53.9375 54.0625 54.1562 54.7188 54.2656 L56.4688 54.5781 Z"
      /><rect x="109" y="70" width="5" style="fill:white; stroke:none;" height="10"
      /><path style="stroke:none;" d="M110.8906 78.6875 C110.4844 78.6875 110.1562 79.0469 110.1562 79.4219 C110.1562 79.8125 110.4844 80.1562 110.8906 80.1562 C111.2969 80.1562 111.6406 79.8125 111.6406 79.4219 C111.6406 79.0469 111.2969 78.6875 110.8906 78.6875 ZM112.4688 72.5781 C112.7188 72.8906 112.875 73.2656 112.8906 73.6562 C112.8906 74.1875 112.625 74.5 112.0312 74.7656 L111.4062 75.0156 C110.6406 75.3125 110.3906 75.5469 110.3906 75.9375 C110.3906 76.1094 110.4531 76.3438 110.5781 76.8125 L110.7344 77.3438 L111.1094 77.3438 L111.0938 76.5312 C111.0938 76.0938 111.2031 75.9688 111.7812 75.7344 L112.2031 75.5625 C113.0312 75.2188 113.4531 74.6875 113.4531 73.8438 C113.4531 72.1562 111.6562 71.1875 110.5 71.0312 C110.1094 71.125 109.9062 71.2969 109.9062 71.6406 C109.9062 71.9375 110.0625 72.1562 110.7188 72.2656 L112.4688 72.5781 Z"
    /></g
  ></g
></svg
>
