<?xml version="1.0"?>
<!DOCTYPE svg PUBLIC '-//W3C//DTD SVG 1.0//EN'
          'http://www.w3.org/TR/2001/REC-SVG-20010904/DTD/svg10.dtd'>
<svg xmlns:xlink="http://www.w3.org/1999/xlink" style="fill-opacity:1; color-rendering:auto; color-interpolation:auto; text-rendering:auto; stroke:black; stroke-linecap:square; stroke-miterlimit:10; shape-rendering:auto; stroke-opacity:1; fill:black; stroke-dasharray:none; font-weight:normal; stroke-width:1; font-family:'Dialog'; font-style:normal; stroke-linejoin:miter; font-size:12px; stroke-dashoffset:0; image-rendering:auto;" viewBox="0 0 394 134" xmlns="http://www.w3.org/2000/svg"
><!--Generated by the Batik Graphics2D SVG Generator--><defs id="genericDefs"
  /><g
  ><defs id="defs1"
    ><clipPath clipPathUnits="userSpaceOnUse" id="clipPath1"
      ><path d="M290 56 L312 56 L312 78 L290 78 L290 56 Z"
      /></clipPath
      ><clipPath clipPathUnits="userSpaceOnUse" id="clipPath2"
      ><path d="M238 56 L260 56 L260 78 L238 78 L238 56 Z"
      /></clipPath
      ><clipPath clipPathUnits="userSpaceOnUse" id="clipPath3"
      ><path d="M208 67 C208 73.0751 203.0751 78 197 78 C190.9249 78 186 73.0751 186 67 C186 60.9249 190.9249 56 197 56 C203.0751 56 208 60.9249 208 67 Z"
      /></clipPath
      ><clipPath clipPathUnits="userSpaceOnUse" id="clipPath4"
      ><path d="M156 93 C156 99.0751 151.0751 104 145 104 C138.9249 104 134 99.0751 134 93 C134 86.9249 138.9249 82 145 82 C151.0751 82 156 86.9249 156 93 Z"
      /></clipPath
      ><clipPath clipPathUnits="userSpaceOnUse" id="clipPath5"
      ><path d="M82 82 L104 82 L104 104 L82 104 L82 82 Z"
      /></clipPath
      ><clipPath clipPathUnits="userSpaceOnUse" id="clipPath6"
      ><path d="M52 93 C52 99.0751 47.0751 104 41 104 C34.9249 104 30 99.0751 30 93 C30 86.9249 34.9249 82 41 82 C47.0751 82 52 86.9249 52 93 Z"
      /></clipPath
      ><clipPath clipPathUnits="userSpaceOnUse" id="clipPath7"
      ><path d="M156 41 C156 47.0751 151.0751 52 145 52 C138.9249 52 134 47.0751 134 41 C134 34.9249 138.9249 30 145 30 C151.0751 30 156 34.9249 156 41 Z"
      /></clipPath
      ><clipPath clipPathUnits="userSpaceOnUse" id="clipPath8"
      ><path d="M82 30 L104 30 L104 52 L82 52 L82 30 Z"
      /></clipPath
      ><clipPath clipPathUnits="userSpaceOnUse" id="clipPath9"
      ><path d="M52 41 C52 47.0751 47.0751 52 41 52 C34.9249 52 30 47.0751 30 41 C30 34.9249 34.9249 30 41 30 C47.0751 30 52 34.9249 52 41 Z"
      /></clipPath
    ></defs
    ><g style="fill:white; text-rendering:optimizeSpeed; stroke:white;"
    ><rect x="0" width="394" height="134" y="0" style="stroke:none;"
      /><polygon style="fill:none; stroke:black;" points=" 353 67 301 67"
      /><path d="M353 56 C347.5 61.5 358.5 72.5 353 78" style="fill:none; stroke:black;"
      /><polygon style="fill:none; stroke:black;" points=" 301 67 249 67"
      /><rect x="290" y="56" width="22" style="clip-path:url(#clipPath1); stroke:none;" height="22"
      /><rect x="290" y="56" width="22" style="clip-path:url(#clipPath1); fill:rgb(0,144,188); stroke:none;" height="22"
      /><rect x="290" y="56" width="22" style="clip-path:url(#clipPath1); fill:none; stroke:black;" height="22"
      /><rect x="290" y="56" width="22" style="fill:none; stroke:black;" height="22"
      /><polygon style="fill:none; stroke:black;" points=" 249 67 197 67"
      /><rect x="238" y="56" width="22" style="clip-path:url(#clipPath2); stroke:none;" height="22"
      /><rect x="238" y="56" width="22" style="clip-path:url(#clipPath2); fill:rgb(0,144,188); stroke:none;" height="22"
      /><rect x="238" y="56" width="22" style="clip-path:url(#clipPath2); fill:none; stroke:black;" height="22"
      /><rect x="238" y="56" width="22" style="fill:none; stroke:black;" height="22"
      /><polygon style="fill:none; stroke:black;" points=" 197 67 145 93"
      /><polygon style="fill:none; stroke:black;" points=" 197 67 145 41"
      /><circle style="clip-path:url(#clipPath3); stroke:none;" r="11" cx="197" cy="67"
      /><rect x="186" y="56" width="22" style="clip-path:url(#clipPath3); fill:rgb(0,166,81); stroke:none;" height="22"
      /><rect x="186" y="56" width="22" style="clip-path:url(#clipPath3); fill:none; stroke:black;" height="22"
      /><circle style="fill:none; stroke:black;" r="11" cx="197" cy="67"
      /><polygon style="fill:none; stroke:black;" points=" 145 93 93 93"
      /><circle style="clip-path:url(#clipPath4); stroke:none;" r="11" cx="145" cy="93"
      /><rect x="134" y="82" width="22" style="clip-path:url(#clipPath4); fill:rgb(0,166,81); stroke:none;" height="22"
      /><rect x="134" y="82" width="22" style="clip-path:url(#clipPath4); fill:none; stroke:black;" height="22"
      /><circle style="fill:none; stroke:black;" r="11" cx="145" cy="93"
      /><polygon style="fill:none; stroke:black;" points=" 93 93 41 93"
      /><rect x="82" y="82" width="22" style="clip-path:url(#clipPath5); stroke:none;" height="22"
      /><rect x="82" y="82" width="22" style="clip-path:url(#clipPath5); fill:rgb(0,144,188); stroke:none;" height="22"
      /><rect x="82" y="82" width="22" style="clip-path:url(#clipPath5); fill:none; stroke:black;" height="22"
      /><rect x="82" y="82" width="22" style="fill:none; stroke:black;" height="22"
      /><circle style="clip-path:url(#clipPath6); stroke:none;" r="11" cx="41" cy="93"
      /><rect x="30" y="82" width="22" style="clip-path:url(#clipPath6); fill:rgb(0,144,188); stroke:none;" height="22"
      /><rect x="30" y="82" width="22" style="clip-path:url(#clipPath6); fill:none; stroke:black;" height="22"
      /><circle style="fill:none; stroke:black;" r="11" cx="41" cy="93"
      /><rect x="70" y="96" width="7" style="stroke:none;" height="9"
    /></g
    ><g style="font-family:'Serif'; text-rendering:optimizeSpeed; "
    ><path style="stroke:none;" d="M71 101.5156 L73.9531 97.2656 L73.9531 101.5156 L71 101.5156 ZM76.2812 101.5156 L74.8594 101.5156 L74.8594 96.125 L74.2344 96.125 L70.3438 101.6406 L70.3438 102.1875 L73.9531 102.1875 L73.9531 105 L74.8594 105 L74.8594 102.1875 L76.2812 102.1875 L76.2812 101.5156 Z"
      /><rect x="57" y="94" width="6" style="fill:white; stroke:none;" height="13"
      /><path style="stroke:none;" d="M59.0938 100.2031 C59.0938 98.6562 59.75 97.8125 60.7969 97.8125 C61.7188 97.8125 62.2656 98.4531 62.2656 99.5156 C62.2656 100.7188 61.5 101.4375 60.1875 101.7031 L60.2969 102.3125 C62.2188 102.2344 62.9375 103.2188 62.9375 104.4375 C62.9375 105.625 62.2344 106.4219 60.9531 106.4219 C60.25 106.4219 59.6562 106.1562 59.0938 105.7188 L59.0938 100.2031 ZM58.2031 106.9062 L58.1094 109.375 L58.2656 109.4844 L59.1562 109.2656 L59.0156 106.0938 C59.5469 106.8438 60.3594 107.1719 61.1719 107.1719 C62.5625 107.1719 63.8594 106.2188 63.8594 104.4844 C63.8594 102.9531 62.875 102.1094 61.125 102 C62.5625 101.6094 63.1875 100.4531 63.1875 99.4844 C63.1875 98.0938 62.1562 97.3125 60.9062 97.3125 C59.2969 97.3125 58.2188 98.5469 58.2188 100.5156 L58.2031 106.9062 Z"
      /><rect x="123" y="96" width="6" style="fill:white; stroke:none;" height="9"
      /><path style="stroke:none;" d="M124.4219 104.0938 C125.0781 103.375 125.7031 102.7188 126.0312 102.3438 C127.9219 100.3125 128.5312 99.4688 128.5312 98.3594 C128.5312 97.0156 127.7812 96.0781 126.1562 96.0781 C124.9062 96.0781 123.7969 96.7031 123.5938 97.9688 C123.7188 98.2031 123.9062 98.3438 124.1562 98.3438 C124.4688 98.3438 124.6562 98.1094 124.7969 97.5938 L125.0938 96.6719 C125.3906 96.5938 125.6562 96.5625 125.8906 96.5625 C126.9219 96.5625 127.5469 97.3125 127.5469 98.4219 C127.5469 99.4375 126.9844 100.4219 125.7031 101.9062 C125.125 102.5781 124.3906 103.4375 123.6406 104.2812 L123.6406 105 L128.9219 105 L128.9219 104.0938 L124.4219 104.0938 Z"
      /><rect x="109" y="94" width="6" style="fill:white; stroke:none;" height="13"
      /><path style="stroke:none;" d="M111.0938 100.2031 C111.0938 98.6562 111.75 97.8125 112.7969 97.8125 C113.7188 97.8125 114.2656 98.4531 114.2656 99.5156 C114.2656 100.7188 113.5 101.4375 112.1875 101.7031 L112.2969 102.3125 C114.2188 102.2344 114.9375 103.2188 114.9375 104.4375 C114.9375 105.625 114.2344 106.4219 112.9531 106.4219 C112.25 106.4219 111.6562 106.1562 111.0938 105.7188 L111.0938 100.2031 ZM110.2031 106.9062 L110.1094 109.375 L110.2656 109.4844 L111.1562 109.2656 L111.0156 106.0938 C111.5469 106.8438 112.3594 107.1719 113.1719 107.1719 C114.5625 107.1719 115.8594 106.2188 115.8594 104.4844 C115.8594 102.9531 114.875 102.1094 113.125 102 C114.5625 101.6094 115.1875 100.4531 115.1875 99.4844 C115.1875 98.0938 114.1562 97.3125 112.9062 97.3125 C111.2969 97.3125 110.2188 98.5469 110.2188 100.5156 L110.2031 106.9062 Z"
      /><polygon style="fill:none;" points=" 145 41 93 41"
      /><circle style="fill:white; clip-path:url(#clipPath7); stroke:none;" r="11" cx="145" cy="41"
      /><rect x="134" y="30" width="22" style="clip-path:url(#clipPath7); fill:rgb(0,166,81); stroke:none;" height="22"
      /><rect x="134" y="30" width="22" style="fill:none; clip-path:url(#clipPath7);" height="22"
      /><circle r="11" style="fill:none;" cx="145" cy="41"
      /><polygon style="fill:none;" points=" 93 41 41 41"
      /><rect x="82" y="30" width="22" style="clip-path:url(#clipPath8); fill:white; stroke:none;" height="22"
      /><rect x="82" y="30" width="22" style="clip-path:url(#clipPath8); fill:rgb(0,144,188); stroke:none;" height="22"
      /><rect x="82" y="30" width="22" style="fill:none; clip-path:url(#clipPath8);" height="22"
      /><rect x="82" width="22" height="22" y="30" style="fill:none;"
      /><circle style="fill:white; clip-path:url(#clipPath9); stroke:none;" r="11" cx="41" cy="41"
      /><rect x="30" y="30" width="22" style="clip-path:url(#clipPath9); fill:rgb(0,144,188); stroke:none;" height="22"
      /><rect x="30" y="30" width="22" style="fill:none; clip-path:url(#clipPath9);" height="22"
      /><circle r="11" style="fill:none;" cx="41" cy="41"
      /><rect x="70" y="44" width="7" style="fill:white; stroke:none;" height="9"
      /><path style="stroke:none;" d="M71 49.5156 L73.9531 45.2656 L73.9531 49.5156 L71 49.5156 ZM76.2812 49.5156 L74.8594 49.5156 L74.8594 44.125 L74.2344 44.125 L70.3438 49.6406 L70.3438 50.1875 L73.9531 50.1875 L73.9531 53 L74.8594 53 L74.8594 50.1875 L76.2812 50.1875 L76.2812 49.5156 Z"
      /><rect x="57" y="42" width="6" style="fill:white; stroke:none;" height="13"
      /><path style="stroke:none;" d="M59.0938 48.2031 C59.0938 46.6562 59.75 45.8125 60.7969 45.8125 C61.7188 45.8125 62.2656 46.4531 62.2656 47.5156 C62.2656 48.7188 61.5 49.4375 60.1875 49.7031 L60.2969 50.3125 C62.2188 50.2344 62.9375 51.2188 62.9375 52.4375 C62.9375 53.625 62.2344 54.4219 60.9531 54.4219 C60.25 54.4219 59.6562 54.1562 59.0938 53.7188 L59.0938 48.2031 ZM58.2031 54.9062 L58.1094 57.375 L58.2656 57.4844 L59.1562 57.2656 L59.0156 54.0938 C59.5469 54.8438 60.3594 55.1719 61.1719 55.1719 C62.5625 55.1719 63.8594 54.2188 63.8594 52.4844 C63.8594 50.9531 62.875 50.1094 61.125 50 C62.5625 49.6094 63.1875 48.4531 63.1875 47.4844 C63.1875 46.0938 62.1562 45.3125 60.9062 45.3125 C59.2969 45.3125 58.2188 46.5469 58.2188 48.5156 L58.2031 54.9062 Z"
      /><rect x="123" y="44" width="6" style="fill:white; stroke:none;" height="9"
      /><path style="stroke:none;" d="M124.4219 52.0938 C125.0781 51.375 125.7031 50.7188 126.0312 50.3438 C127.9219 48.3125 128.5312 47.4688 128.5312 46.3594 C128.5312 45.0156 127.7812 44.0781 126.1562 44.0781 C124.9062 44.0781 123.7969 44.7031 123.5938 45.9688 C123.7188 46.2031 123.9062 46.3438 124.1562 46.3438 C124.4688 46.3438 124.6562 46.1094 124.7969 45.5938 L125.0938 44.6719 C125.3906 44.5938 125.6562 44.5625 125.8906 44.5625 C126.9219 44.5625 127.5469 45.3125 127.5469 46.4219 C127.5469 47.4375 126.9844 48.4219 125.7031 49.9062 C125.125 50.5781 124.3906 51.4375 123.6406 52.2812 L123.6406 53 L128.9219 53 L128.9219 52.0938 L124.4219 52.0938 Z"
      /><rect x="109" y="42" width="6" style="fill:white; stroke:none;" height="13"
      /><path style="stroke:none;" d="M111.0938 48.2031 C111.0938 46.6562 111.75 45.8125 112.7969 45.8125 C113.7188 45.8125 114.2656 46.4531 114.2656 47.5156 C114.2656 48.7188 113.5 49.4375 112.1875 49.7031 L112.2969 50.3125 C114.2188 50.2344 114.9375 51.2188 114.9375 52.4375 C114.9375 53.625 114.2344 54.4219 112.9531 54.4219 C112.25 54.4219 111.6562 54.1562 111.0938 53.7188 L111.0938 48.2031 ZM110.2031 54.9062 L110.1094 57.375 L110.2656 57.4844 L111.1562 57.2656 L111.0156 54.0938 C111.5469 54.8438 112.3594 55.1719 113.1719 55.1719 C114.5625 55.1719 115.8594 54.2188 115.8594 52.4844 C115.8594 50.9531 114.875 50.1094 113.125 50 C114.5625 49.6094 115.1875 48.4531 115.1875 47.4844 C115.1875 46.0938 114.1562 45.3125 112.9062 45.3125 C111.2969 45.3125 110.2188 46.5469 110.2188 48.5156 L110.2031 54.9062 Z"
      /><rect x="179" y="78" width="6" style="fill:white; stroke:none;" height="10"
      /><path style="stroke:none;" d="M181.2344 79.6562 C181.5156 79.5938 181.7656 79.5625 182.0156 79.5625 C183.0625 79.5625 183.6719 80.1719 183.6719 81.2656 C183.6719 82.4375 182.9062 83.1094 181.7031 83.1094 L181.1875 83.1094 L181.1875 83.6406 L181.7969 83.6406 C183.2188 83.6406 183.9062 84.4219 183.9062 85.6406 C183.9062 86.8438 183.1719 87.6875 181.875 87.6875 C181.6094 87.6875 181.3125 87.6562 181.0156 87.5625 L180.7812 86.8125 C180.625 86.2812 180.5 86.0469 180.1406 86.0469 C179.8906 86.0469 179.7031 86.1719 179.5781 86.4219 C179.8438 87.6406 180.7812 88.1719 182.0312 88.1719 C183.7188 88.1719 184.875 87.125 184.875 85.7031 C184.875 84.5 184.2031 83.625 182.7969 83.375 C183.9531 83.0156 184.6094 82.2031 184.6094 81.2031 C184.6094 79.9219 183.6719 79.0781 182.1875 79.0781 C181.0469 79.0781 180.0625 79.5938 179.7969 80.6875 C179.9062 81 180.1094 81.1094 180.3594 81.1094 C180.7344 81.1094 180.8906 80.8906 181 80.4062 L181.2344 79.6562 Z"
      /><rect x="162" y="87" width="8" style="fill:white; stroke:none;" height="8"
      /><path style="stroke:none;" d="M166.9844 92.7031 C166.9375 93.8906 166.1562 94.6562 165.3125 94.6562 C164.2656 94.6562 163.5 93.6875 163.5 91.7188 C163.5 90.2812 164.1562 89.1562 165.3438 89.1562 C166.1406 89.1562 166.7812 89.6875 167.0938 90.6406 L166.9844 92.7031 ZM168.9062 94.2812 C168.7344 94.375 168.5469 94.4219 168.3438 94.4219 C167.9531 94.4219 167.75 94.2188 167.75 93.4219 C167.75 92.4844 167.9688 90.5312 168.1875 88.8281 L168.0312 88.7188 L167.2344 88.9219 L167.1406 89.7969 C166.7812 89.0312 166.1562 88.6562 165.3906 88.6562 C164.0469 88.6562 162.5625 89.8438 162.5625 91.9531 C162.5625 94.0938 163.7188 95.1719 165.1406 95.1719 C166.0156 95.1719 166.6875 94.8125 167.0938 93.9844 C167.2031 94.8594 167.5156 95.1719 168.0156 95.1719 C168.4688 95.1719 168.7969 94.9062 169.0156 94.5625 L168.9062 94.2812 Z"
      /><rect x="172" y="60" width="6" style="fill:white; stroke:none;" height="10"
      /><path style="stroke:none;" d="M175.3438 69.6875 C174.2031 69.6875 173.5312 68.5 173.5312 66.2969 C173.5312 66.2188 173.5312 66.125 173.5312 66.0469 C174.0938 65.5 174.7188 65.3125 175.3438 65.3125 C176.3125 65.3125 176.9531 65.9844 176.9531 67.4531 C176.9531 68.9375 176.3125 69.6875 175.3438 69.6875 ZM177.5312 61.0781 C174.3438 61.4531 172.5625 63.7656 172.5625 66.4531 C172.5625 68.7812 173.6094 70.1719 175.3125 70.1719 C176.8438 70.1719 177.9219 69.1094 177.9219 67.2812 C177.9219 65.6875 176.9688 64.6562 175.5625 64.6562 C174.8281 64.6562 174.1406 64.9844 173.5781 65.5781 C173.7969 63.4062 175.0781 61.9688 177.5938 61.3906 L177.5312 61.0781 Z"
      /><rect x="155" y="53" width="8" style="fill:white; stroke:none;" height="8"
      /><path style="stroke:none;" d="M159.9844 58.7031 C159.9375 59.8906 159.1562 60.6562 158.3125 60.6562 C157.2656 60.6562 156.5 59.6875 156.5 57.7188 C156.5 56.2812 157.1562 55.1562 158.3438 55.1562 C159.1406 55.1562 159.7812 55.6875 160.0938 56.6406 L159.9844 58.7031 ZM161.9062 60.2812 C161.7344 60.375 161.5469 60.4219 161.3438 60.4219 C160.9531 60.4219 160.75 60.2188 160.75 59.4219 C160.75 58.4844 160.9688 56.5312 161.1875 54.8281 L161.0312 54.7188 L160.2344 54.9219 L160.1406 55.7969 C159.7812 55.0312 159.1562 54.6562 158.3906 54.6562 C157.0469 54.6562 155.5625 55.8438 155.5625 57.9531 C155.5625 60.0938 156.7188 61.1719 158.1406 61.1719 C159.0156 61.1719 159.6875 60.8125 160.0938 59.9844 C160.2031 60.8594 160.5156 61.1719 161.0156 61.1719 C161.4688 61.1719 161.7969 60.9062 162.0156 60.5625 L161.9062 60.2812 Z"
      /><rect x="226" y="70" width="7" style="fill:white; stroke:none;" height="9"
      /><path style="stroke:none;" d="M227 75.5156 L229.9531 71.2656 L229.9531 75.5156 L227 75.5156 ZM232.2812 75.5156 L230.8594 75.5156 L230.8594 70.125 L230.2344 70.125 L226.3438 75.6406 L226.3438 76.1875 L229.9531 76.1875 L229.9531 79 L230.8594 79 L230.8594 76.1875 L232.2812 76.1875 L232.2812 75.5156 Z"
      /><rect x="213" y="68" width="6" style="fill:white; stroke:none;" height="13"
      /><path style="stroke:none;" d="M215.0938 74.2031 C215.0938 72.6562 215.75 71.8125 216.7969 71.8125 C217.7188 71.8125 218.2656 72.4531 218.2656 73.5156 C218.2656 74.7188 217.5 75.4375 216.1875 75.7031 L216.2969 76.3125 C218.2188 76.2344 218.9375 77.2188 218.9375 78.4375 C218.9375 79.625 218.2344 80.4219 216.9531 80.4219 C216.25 80.4219 215.6562 80.1562 215.0938 79.7188 L215.0938 74.2031 ZM214.2031 80.9062 L214.1094 83.375 L214.2656 83.4844 L215.1562 83.2656 L215.0156 80.0938 C215.5469 80.8438 216.3594 81.1719 217.1719 81.1719 C218.5625 81.1719 219.8594 80.2188 219.8594 78.4844 C219.8594 76.9531 218.875 76.1094 217.125 76 C218.5625 75.6094 219.1875 74.4531 219.1875 73.4844 C219.1875 72.0938 218.1562 71.3125 216.9062 71.3125 C215.2969 71.3125 214.2188 72.5469 214.2188 74.5156 L214.2031 80.9062 Z"
      /><rect x="278" y="70" width="7" style="fill:white; stroke:none;" height="9"
      /><path style="stroke:none;" d="M279 75.5156 L281.9531 71.2656 L281.9531 75.5156 L279 75.5156 ZM284.2812 75.5156 L282.8594 75.5156 L282.8594 70.125 L282.2344 70.125 L278.3438 75.6406 L278.3438 76.1875 L281.9531 76.1875 L281.9531 79 L282.8594 79 L282.8594 76.1875 L284.2812 76.1875 L284.2812 75.5156 Z"
      /><rect x="265" y="68" width="6" style="fill:white; stroke:none;" height="13"
      /><path style="stroke:none;" d="M267.0938 74.2031 C267.0938 72.6562 267.75 71.8125 268.7969 71.8125 C269.7188 71.8125 270.2656 72.4531 270.2656 73.5156 C270.2656 74.7188 269.5 75.4375 268.1875 75.7031 L268.2969 76.3125 C270.2188 76.2344 270.9375 77.2188 270.9375 78.4375 C270.9375 79.625 270.2344 80.4219 268.9531 80.4219 C268.25 80.4219 267.6562 80.1562 267.0938 79.7188 L267.0938 74.2031 ZM266.2031 80.9062 L266.1094 83.375 L266.2656 83.4844 L267.1562 83.2656 L267.0156 80.0938 C267.5469 80.8438 268.3594 81.1719 269.1719 81.1719 C270.5625 81.1719 271.8594 80.2188 271.8594 78.4844 C271.8594 76.9531 270.875 76.1094 269.125 76 C270.5625 75.6094 271.1875 74.4531 271.1875 73.4844 C271.1875 72.0938 270.1562 71.3125 268.9062 71.3125 C267.2969 71.3125 266.2188 72.5469 266.2188 74.5156 L266.2031 80.9062 Z"
      /><rect x="317" y="70" width="5" style="fill:white; stroke:none;" height="10"
      /><path style="stroke:none;" d="M318.8906 78.6875 C318.4844 78.6875 318.1562 79.0469 318.1562 79.4219 C318.1562 79.8125 318.4844 80.1562 318.8906 80.1562 C319.2969 80.1562 319.6406 79.8125 319.6406 79.4219 C319.6406 79.0469 319.2969 78.6875 318.8906 78.6875 ZM320.4688 72.5781 C320.7188 72.8906 320.875 73.2656 320.8906 73.6562 C320.8906 74.1875 320.625 74.5 320.0312 74.7656 L319.4062 75.0156 C318.6406 75.3125 318.3906 75.5469 318.3906 75.9375 C318.3906 76.1094 318.4531 76.3438 318.5781 76.8125 L318.7344 77.3438 L319.1094 77.3438 L319.0938 76.5312 C319.0938 76.0938 319.2031 75.9688 319.7812 75.7344 L320.2031 75.5625 C321.0312 75.2188 321.4531 74.6875 321.4531 73.8438 C321.4531 72.1562 319.6562 71.1875 318.5 71.0312 C318.1094 71.125 317.9062 71.2969 317.9062 71.6406 C317.9062 71.9375 318.0625 72.1562 318.7188 72.2656 L320.4688 72.5781 Z"
    /></g
  ></g
></svg
>
