<?xml version="1.0"?>
<!DOCTYPE svg PUBLIC '-//W3C//DTD SVG 1.0//EN'
          'http://www.w3.org/TR/2001/REC-SVG-20010904/DTD/svg10.dtd'>
<svg xmlns:xlink="http://www.w3.org/1999/xlink" style="fill-opacity:1; color-rendering:auto; color-interpolation:auto; text-rendering:auto; stroke:black; stroke-linecap:square; stroke-miterlimit:10; shape-rendering:auto; stroke-opacity:1; fill:black; stroke-dasharray:none; font-weight:normal; stroke-width:1; font-family:'Dialog'; font-style:normal; stroke-linejoin:miter; font-size:12px; stroke-dashoffset:0; image-rendering:auto;" viewBox="0 0 126 201" xmlns="http://www.w3.org/2000/svg"
><!--Generated by the Batik Graphics2D SVG Generator--><defs id="genericDefs"
  /><g
  ><defs id="defs1"
    ><clipPath clipPathUnits="userSpaceOnUse" id="clipPath1"
      ><path style="fill-rule:evenodd;" d="M41 134 L52 156 L30 156 Z"
      /></clipPath
      ><clipPath clipPathUnits="userSpaceOnUse" id="clipPath2"
      ><path d="M52 93 C52 99.0751 47.0751 104 41 104 C34.9249 104 30 99.0751 30 93 C30 86.9249 34.9249 82 41 82 C47.0751 82 52 86.9249 52 93 Z"
      /></clipPath
      ><clipPath clipPathUnits="userSpaceOnUse" id="clipPath3"
      ><path style="fill-rule:evenodd;" d="M41 30 L51 37 L47 49 L34 49 L30 37 L41 30 Z"
      /></clipPath
    ></defs
    ><g style="fill:white; text-rendering:optimizeSpeed; stroke:white;"
    ><rect x="0" width="126" height="201" y="0" style="stroke:none;"
      /><polygon style="clip-path:url(#clipPath1); stroke:none;" points=" 41 134 52 156 30 156"
      /><rect x="30" y="134" width="22" style="clip-path:url(#clipPath1); fill:rgb(0,166,81); stroke:none;" height="22"
      /><rect x="30" y="134" width="22" style="clip-path:url(#clipPath1); fill:none; stroke:black;" height="22"
      /><polygon style="fill:none; stroke:black;" points=" 41 134 52 156 30 156"
      /><rect x="57" y="132" width="5" style="stroke:none;" height="10"
    /></g
    ><g style="font-family:'Serif'; text-rendering:optimizeSpeed; "
    ><path style="stroke:none;" d="M58.8906 140.6875 C58.4844 140.6875 58.1562 141.0469 58.1562 141.4219 C58.1562 141.8125 58.4844 142.1562 58.8906 142.1562 C59.2969 142.1562 59.6406 141.8125 59.6406 141.4219 C59.6406 141.0469 59.2969 140.6875 58.8906 140.6875 ZM60.4688 134.5781 C60.7188 134.8906 60.875 135.2656 60.8906 135.6562 C60.8906 136.1875 60.625 136.5 60.0312 136.7656 L59.4062 137.0156 C58.6406 137.3125 58.3906 137.5469 58.3906 137.9375 C58.3906 138.1094 58.4531 138.3438 58.5781 138.8125 L58.7344 139.3438 L59.1094 139.3438 L59.0938 138.5312 C59.0938 138.0938 59.2031 137.9688 59.7812 137.7344 L60.2031 137.5625 C61.0312 137.2188 61.4531 136.6875 61.4531 135.8438 C61.4531 134.1562 59.6562 133.1875 58.5 133.0312 C58.1094 133.125 57.9062 133.2969 57.9062 133.6406 C57.9062 133.9375 58.0625 134.1562 58.7188 134.2656 L60.4688 134.5781 Z"
      /><rect x="57" y="148" width="5" style="fill:white; stroke:none;" height="10"
      /><path style="stroke:none;" d="M58.8906 156.6875 C58.4844 156.6875 58.1562 157.0469 58.1562 157.4219 C58.1562 157.8125 58.4844 158.1562 58.8906 158.1562 C59.2969 158.1562 59.6406 157.8125 59.6406 157.4219 C59.6406 157.0469 59.2969 156.6875 58.8906 156.6875 ZM60.4688 150.5781 C60.7188 150.8906 60.875 151.2656 60.8906 151.6562 C60.8906 152.1875 60.625 152.5 60.0312 152.7656 L59.4062 153.0156 C58.6406 153.3125 58.3906 153.5469 58.3906 153.9375 C58.3906 154.1094 58.4531 154.3438 58.5781 154.8125 L58.7344 155.3438 L59.1094 155.3438 L59.0938 154.5312 C59.0938 154.0938 59.2031 153.9688 59.7812 153.7344 L60.2031 153.5625 C61.0312 153.2188 61.4531 152.6875 61.4531 151.8438 C61.4531 150.1562 59.6562 149.1875 58.5 149.0312 C58.1094 149.125 57.9062 149.2969 57.9062 149.6406 C57.9062 149.9375 58.0625 150.1562 58.7188 150.2656 L60.4688 150.5781 Z"
      /><circle style="fill:white; clip-path:url(#clipPath2); stroke:none;" r="11" cx="41" cy="93"
      /><rect x="30" y="82" width="22" style="clip-path:url(#clipPath2); fill:rgb(0,144,188); stroke:none;" height="22"
      /><rect x="30" y="82" width="22" style="fill:none; clip-path:url(#clipPath2);" height="22"
      /><circle r="11" style="fill:none;" cx="41" cy="93"
      /><rect x="57" y="80" width="5" style="fill:white; stroke:none;" height="10"
      /><path style="stroke:none;" d="M58.8906 88.6875 C58.4844 88.6875 58.1562 89.0469 58.1562 89.4219 C58.1562 89.8125 58.4844 90.1562 58.8906 90.1562 C59.2969 90.1562 59.6406 89.8125 59.6406 89.4219 C59.6406 89.0469 59.2969 88.6875 58.8906 88.6875 ZM60.4688 82.5781 C60.7188 82.8906 60.875 83.2656 60.8906 83.6562 C60.8906 84.1875 60.625 84.5 60.0312 84.7656 L59.4062 85.0156 C58.6406 85.3125 58.3906 85.5469 58.3906 85.9375 C58.3906 86.1094 58.4531 86.3438 58.5781 86.8125 L58.7344 87.3438 L59.1094 87.3438 L59.0938 86.5312 C59.0938 86.0938 59.2031 85.9688 59.7812 85.7344 L60.2031 85.5625 C61.0312 85.2188 61.4531 84.6875 61.4531 83.8438 C61.4531 82.1562 59.6562 81.1875 58.5 81.0312 C58.1094 81.125 57.9062 81.2969 57.9062 81.6406 C57.9062 81.9375 58.0625 82.1562 58.7188 82.2656 L60.4688 82.5781 Z"
      /><rect x="57" y="96" width="5" style="fill:white; stroke:none;" height="10"
      /><path style="stroke:none;" d="M58.8906 104.6875 C58.4844 104.6875 58.1562 105.0469 58.1562 105.4219 C58.1562 105.8125 58.4844 106.1562 58.8906 106.1562 C59.2969 106.1562 59.6406 105.8125 59.6406 105.4219 C59.6406 105.0469 59.2969 104.6875 58.8906 104.6875 ZM60.4688 98.5781 C60.7188 98.8906 60.875 99.2656 60.8906 99.6562 C60.8906 100.1875 60.625 100.5 60.0312 100.7656 L59.4062 101.0156 C58.6406 101.3125 58.3906 101.5469 58.3906 101.9375 C58.3906 102.1094 58.4531 102.3438 58.5781 102.8125 L58.7344 103.3438 L59.1094 103.3438 L59.0938 102.5312 C59.0938 102.0938 59.2031 101.9688 59.7812 101.7344 L60.2031 101.5625 C61.0312 101.2188 61.4531 100.6875 61.4531 99.8438 C61.4531 98.1562 59.6562 97.1875 58.5 97.0312 C58.1094 97.125 57.9062 97.2969 57.9062 97.6406 C57.9062 97.9375 58.0625 98.1562 58.7188 98.2656 L60.4688 98.5781 Z"
      /><polygon style="fill:white; clip-path:url(#clipPath3); stroke:none;" points=" 41 30 51 37 47 49 34 49 30 37 41 30"
      /><rect x="30" y="30" width="22" style="clip-path:url(#clipPath3); fill:white; stroke:none;" height="22"
      /><rect x="30" y="30" width="22" style="fill:none; clip-path:url(#clipPath3);" height="22"
      /><polygon style="fill:none;" points=" 41 30 51 37 47 49 34 49 30 37 41 30"
      /><path style="stroke:none;" d="M41 43.125 C42.3281 43.125 43.7344 42.0938 44.125 40.2969 C44.5 38.4844 43.5469 37.4375 42.2188 37.4375 C40.8906 37.4375 39.4688 38.4844 39.0938 40.2969 C38.7031 42.0938 39.6719 43.125 41 43.125 ZM41.1719 42.375 C40.2344 42.375 39.7656 41.5469 40.0312 40.2969 C40.2969 39.0469 41.1094 38.1875 42.0469 38.1875 C42.9844 38.1875 43.4531 39.0469 43.1875 40.2969 C42.9219 41.5469 42.1094 42.375 41.1719 42.375 Z"
      /><rect x="57" y="28" width="5" style="fill:white; stroke:none;" height="10"
      /><path style="stroke:none;" d="M58.8906 36.6875 C58.4844 36.6875 58.1562 37.0469 58.1562 37.4219 C58.1562 37.8125 58.4844 38.1562 58.8906 38.1562 C59.2969 38.1562 59.6406 37.8125 59.6406 37.4219 C59.6406 37.0469 59.2969 36.6875 58.8906 36.6875 ZM60.4688 30.5781 C60.7188 30.8906 60.875 31.2656 60.8906 31.6562 C60.8906 32.1875 60.625 32.5 60.0312 32.7656 L59.4062 33.0156 C58.6406 33.3125 58.3906 33.5469 58.3906 33.9375 C58.3906 34.1094 58.4531 34.3438 58.5781 34.8125 L58.7344 35.3438 L59.1094 35.3438 L59.0938 34.5312 C59.0938 34.0938 59.2031 33.9688 59.7812 33.7344 L60.2031 33.5625 C61.0312 33.2188 61.4531 32.6875 61.4531 31.8438 C61.4531 30.1562 59.6562 29.1875 58.5 29.0312 C58.1094 29.125 57.9062 29.2969 57.9062 29.6406 C57.9062 29.9375 58.0625 30.1562 58.7188 30.2656 L60.4688 30.5781 Z"
      /><rect x="57" y="44" width="5" style="fill:white; stroke:none;" height="10"
      /><path style="stroke:none;" d="M58.8906 52.6875 C58.4844 52.6875 58.1562 53.0469 58.1562 53.4219 C58.1562 53.8125 58.4844 54.1562 58.8906 54.1562 C59.2969 54.1562 59.6406 53.8125 59.6406 53.4219 C59.6406 53.0469 59.2969 52.6875 58.8906 52.6875 ZM60.4688 46.5781 C60.7188 46.8906 60.875 47.2656 60.8906 47.6562 C60.8906 48.1875 60.625 48.5 60.0312 48.7656 L59.4062 49.0156 C58.6406 49.3125 58.3906 49.5469 58.3906 49.9375 C58.3906 50.1094 58.4531 50.3438 58.5781 50.8125 L58.7344 51.3438 L59.1094 51.3438 L59.0938 50.5312 C59.0938 50.0938 59.2031 49.9688 59.7812 49.7344 L60.2031 49.5625 C61.0312 49.2188 61.4531 48.6875 61.4531 47.8438 C61.4531 46.1562 59.6562 45.1875 58.5 45.0312 C58.1094 45.125 57.9062 45.2969 57.9062 45.6406 C57.9062 45.9375 58.0625 46.1562 58.7188 46.2656 L60.4688 46.5781 Z"
    /></g
    ><g ID="legend-1:0" style="text-rendering:optimizeSpeed; font-size:10px; font-family:'SansSerif';"
    ><path style="stroke:none;" d="M30.875 171 L34.9062 171 L34.9062 170.2344 L33.4375 170.2344 L33.4375 163.6562 L32.7344 163.6562 C32.3281 163.9062 31.8594 164.0625 31.2031 164.1875 L31.2031 164.7656 L32.5156 164.7656 L32.5156 170.2344 L30.875 170.2344 L30.875 171 ZM35.925 166.4531 L40.7219 166.4531 L40.7219 165.7656 L35.925 165.7656 L35.925 166.4531 ZM35.925 168.8438 L40.7219 168.8438 L40.7219 168.1719 L35.925 168.1719 L35.925 168.8438 ZM42.8812 168.7969 L43.6937 168.7969 C43.5062 167.2188 45.3031 166.625 45.3031 165.1562 C45.3031 164.0625 44.5687 163.375 43.4437 163.375 C42.6312 163.375 41.9906 163.7656 41.5375 164.2969 L42.0531 164.7812 C42.3969 164.375 42.8344 164.1406 43.3344 164.1406 C44.0531 164.1406 44.4125 164.625 44.4125 165.2188 C44.4125 166.4062 42.6469 167.0469 42.8812 168.7969 ZM43.3031 171.125 C43.6781 171.125 43.975 170.8438 43.975 170.4375 C43.975 170.0156 43.6781 169.7344 43.3031 169.7344 C42.9437 169.7344 42.6469 170.0156 42.6469 170.4375 C42.6469 170.8438 42.9437 171.125 43.3031 171.125 ZM46.2931 168.5469 L48.8556 168.5469 L48.8556 167.8438 L46.2931 167.8438 L46.2931 168.5469 ZM50.31 171 L54.6537 171 L54.6537 170.2031 L51.2475 170.2031 L51.2475 167.5469 L54.0131 167.5469 L54.0131 166.75 L51.2475 166.75 L51.2475 164.4531 L54.5443 164.4531 L54.5443 163.6562 L50.31 163.6562 L50.31 171 ZM56.1118 171 L57.0181 171 L57.0181 167.5156 C57.3775 166.5781 57.94 166.2656 58.3931 166.2656 C58.6118 166.2656 58.7368 166.2812 58.9243 166.3438 L59.0962 165.5469 C58.9243 165.4531 58.7525 165.4375 58.5025 165.4375 C57.8931 165.4375 57.3462 165.875 56.9712 166.5625 L56.94 166.5625 L56.8618 165.5625 L56.1118 165.5625 L56.1118 171 ZM60.0856 173.3438 C61.1637 173.3438 61.7262 172.5156 62.1012 171.4531 L64.1481 165.5625 L63.2574 165.5625 L62.2887 168.5938 C62.1324 169.0625 61.9762 169.625 61.8356 170.1094 L61.7731 170.1094 C61.6168 169.625 61.4137 169.0625 61.2574 168.5938 L60.1481 165.5625 L59.1949 165.5625 L61.3824 171.0156 L61.2574 171.4219 C61.0387 172.0938 60.6481 172.5938 60.0231 172.5938 C59.8824 172.5938 59.7262 172.5469 59.6168 172.5 L59.4449 173.2344 C59.6168 173.2969 59.8199 173.3438 60.0856 173.3438 ZM64.7331 168.5469 L67.2956 168.5469 L67.2956 167.8438 L64.7331 167.8438 L64.7331 168.5469 ZM70.7812 171.125 C72.1093 171.125 73.2968 170.0938 73.2968 168.2969 C73.2968 166.4844 72.1093 165.4375 70.7812 165.4375 C69.4531 165.4375 68.2656 166.4844 68.2656 168.2969 C68.2656 170.0938 69.4531 171.125 70.7812 171.125 ZM70.7812 170.375 C69.8437 170.375 69.2031 169.5469 69.2031 168.2969 C69.2031 167.0469 69.8437 166.1875 70.7812 166.1875 C71.7187 166.1875 72.3593 167.0469 72.3593 168.2969 C72.3593 169.5469 71.7187 170.375 70.7812 170.375 ZM75.6849 171.125 C75.9349 171.125 76.0912 171.0938 76.2162 171.0469 L76.0912 170.3438 C75.9974 170.375 75.9506 170.375 75.9037 170.375 C75.7631 170.375 75.6381 170.2656 75.6381 169.9844 L75.6381 163.0469 L74.7318 163.0469 L74.7318 169.9219 C74.7318 170.6875 75.0131 171.125 75.6849 171.125 Z"
    /></g
  ></g
></svg
>
