<?xml version="1.0"?>
<!DOCTYPE svg PUBLIC '-//W3C//DTD SVG 1.0//EN'
          'http://www.w3.org/TR/2001/REC-SVG-20010904/DTD/svg10.dtd'>
<svg xmlns:xlink="http://www.w3.org/1999/xlink" style="fill-opacity:1; color-rendering:auto; color-interpolation:auto; text-rendering:auto; stroke:black; stroke-linecap:square; stroke-miterlimit:10; shape-rendering:auto; stroke-opacity:1; fill:black; stroke-dasharray:none; font-weight:normal; stroke-width:1; font-family:'Dialog'; font-style:normal; stroke-linejoin:miter; font-size:12px; stroke-dashoffset:0; image-rendering:auto;" viewBox="0 0 515 128" xmlns="http://www.w3.org/2000/svg"
><!--Generated by the Batik Graphics2D SVG Generator--><defs id="genericDefs"
  /><g
  ><defs id="defs1"
    ><clipPath clipPathUnits="userSpaceOnUse" id="clipPath1"
      ><path d="M432 64 C432 70.0751 427.0751 75 421 75 C414.9249 75 410 70.0751 410 64 C410 57.9249 414.9249 53 421 53 C427.0751 53 432 57.9249 432 64 Z"
      /></clipPath
      ><clipPath clipPathUnits="userSpaceOnUse" id="clipPath2"
      ><path d="M378 64 C378 70.0751 373.0751 75 367 75 C360.9249 75 356 70.0751 356 64 C356 57.9249 360.9249 53 367 53 C373.0751 53 378 57.9249 378 64 Z"
      /></clipPath
      ><clipPath clipPathUnits="userSpaceOnUse" id="clipPath3"
      ><path d="M324 64 C324 70.0751 319.0751 75 313 75 C306.9249 75 302 70.0751 302 64 C302 57.9249 306.9249 53 313 53 C319.0751 53 324 57.9249 324 64 Z"
      /></clipPath
      ><clipPath clipPathUnits="userSpaceOnUse" id="clipPath4"
      ><path d="M249 53 L271 53 L271 75 L249 75 L249 53 Z"
      /></clipPath
      ><clipPath clipPathUnits="userSpaceOnUse" id="clipPath5"
      ><path d="M218 64 C218 70.0751 213.0751 75 207 75 C200.9249 75 196 70.0751 196 64 C196 57.9249 200.9249 53 207 53 C213.0751 53 218 57.9249 218 64 Z"
      /></clipPath
      ><clipPath clipPathUnits="userSpaceOnUse" id="clipPath6"
      ><path style="fill-rule:evenodd;" d="M153 53 L164 64 L153 75 L142 64 Z"
      /></clipPath
      ><clipPath clipPathUnits="userSpaceOnUse" id="clipPath7"
      ><path d="M110 64 C110 70.0751 105.0751 75 99 75 C92.9249 75 88 70.0751 88 64 C88 57.9249 92.9249 53 99 53 C105.0751 53 110 57.9249 110 64 Z"
      /></clipPath
      ><clipPath clipPathUnits="userSpaceOnUse" id="clipPath8"
      ><path d="M54 64 C54 70.0751 49.0751 75 43 75 C36.9249 75 32 70.0751 32 64 C32 57.9249 36.9249 53 43 53 C49.0751 53 54 57.9249 54 64 Z"
      /></clipPath
    ></defs
    ><g style="fill:white; text-rendering:optimizeSpeed; stroke:white;"
    ><rect x="0" width="515" height="128" y="0" style="stroke:none;"
      /><polygon style="fill:none; stroke:black;" points=" 474 64 421 64"
      /><path d="M474 53 C468.5 58.5 479.5 69.5 474 75" style="fill:none; stroke:black;"
      /><polygon style="fill:none; stroke:black;" points=" 421 64 367 64"
      /><circle style="clip-path:url(#clipPath1); stroke:none;" r="11" cx="421" cy="64"
      /><rect x="410" y="53" width="22" style="clip-path:url(#clipPath1); stroke:none;" height="22"
      /><rect x="410" y="53" width="22" style="clip-path:url(#clipPath1); fill:none; stroke:black;" height="22"
      /><circle style="fill:none; stroke:black;" r="11" cx="421" cy="64"
      /><rect x="409" y="81" width="22" style="stroke:none;" height="10"
    /></g
    ><g style="text-rendering:optimizeSpeed; font-size:14px; font-family:'SansSerif';"
    ><path style="stroke:none;" d="M412.7031 92.1875 C414.5156 92.1875 415.9844 91.0938 415.9844 89.25 C415.9844 87.8594 415.0156 86.9375 413.8125 86.6562 L413.8125 86.5938 C414.8906 86.1875 415.6406 85.3594 415.6406 84.125 C415.6406 82.5 414.375 81.5469 412.6562 81.5469 C411.4688 81.5469 410.5469 82.0625 409.7812 82.7812 L410.4688 83.5938 C411.0469 83 411.7656 82.5938 412.5938 82.5938 C413.6562 82.5938 414.3281 83.2344 414.3281 84.2188 C414.3281 85.3281 413.6094 86.1719 411.4844 86.1719 L411.4844 87.1562 C413.8594 87.1562 414.6875 87.9844 414.6875 89.2031 C414.6875 90.3906 413.8125 91.125 412.5938 91.125 C411.4375 91.125 410.6562 90.5781 410.0469 89.9375 L409.4062 90.7812 C410.0781 91.5156 411.0938 92.1875 412.7031 92.1875 ZM419.9418 86.2656 C420.3168 85.0938 420.645 83.9844 420.9731 82.7812 L421.02 82.7812 C421.3637 83.9844 421.6762 85.0938 422.0668 86.2656 L422.5512 87.8281 L419.4418 87.8281 L419.9418 86.2656 ZM416.8168 92 L418.1293 92 L419.1293 88.8594 L422.8793 88.8594 L423.8481 92 L425.2231 92 L421.7387 81.7188 L420.3012 81.7188 L416.8168 92 ZM429.5492 92.1875 C430.4554 92.1875 431.3304 91.8281 432.0179 91.2188 L431.4554 90.3594 C430.9867 90.7969 430.3617 91.125 429.6586 91.125 C428.2679 91.125 427.3148 89.9531 427.3148 88.2031 C427.3148 86.4531 428.3148 85.2656 429.7054 85.2656 C430.3148 85.2656 430.7679 85.5469 431.2211 85.9375 L431.8773 85.0938 C431.3304 84.625 430.6429 84.2031 429.6429 84.2031 C427.7054 84.2031 425.9867 85.6719 425.9867 88.2031 C425.9867 90.7188 427.5336 92.1875 429.5492 92.1875 Z"
      /><polygon style="fill:none;" points=" 367 64 313 64"
    /></g
    ><g style="fill:white; text-rendering:optimizeSpeed; stroke:white;"
    ><circle r="11" style="clip-path:url(#clipPath2); stroke:none;" cx="367" cy="64"
      /><rect x="356" y="53" width="22" style="clip-path:url(#clipPath2); stroke:none;" height="22"
      /><rect x="356" y="53" width="22" style="clip-path:url(#clipPath2); fill:none; stroke:black;" height="22"
      /><circle r="11" style="fill:none; stroke:black;" cx="367" cy="64"
      /><rect x="355" width="22" height="10" y="81" style="stroke:none;"
    /></g
    ><g style="text-rendering:optimizeSpeed; font-size:14px; font-family:'SansSerif';"
    ><path style="stroke:none;" d="M358.7031 92.1875 C360.5156 92.1875 361.9844 91.0938 361.9844 89.25 C361.9844 87.8594 361.0156 86.9375 359.8125 86.6562 L359.8125 86.5938 C360.8906 86.1875 361.6406 85.3594 361.6406 84.125 C361.6406 82.5 360.375 81.5469 358.6562 81.5469 C357.4688 81.5469 356.5469 82.0625 355.7812 82.7812 L356.4688 83.5938 C357.0469 83 357.7656 82.5938 358.5938 82.5938 C359.6562 82.5938 360.3281 83.2344 360.3281 84.2188 C360.3281 85.3281 359.6094 86.1719 357.4844 86.1719 L357.4844 87.1562 C359.8594 87.1562 360.6875 87.9844 360.6875 89.2031 C360.6875 90.3906 359.8125 91.125 358.5938 91.125 C357.4375 91.125 356.6562 90.5781 356.0469 89.9375 L355.4062 90.7812 C356.0781 91.5156 357.0938 92.1875 358.7031 92.1875 ZM365.9418 86.2656 C366.3168 85.0938 366.645 83.9844 366.9731 82.7812 L367.02 82.7812 C367.3637 83.9844 367.6762 85.0938 368.0668 86.2656 L368.5512 87.8281 L365.4418 87.8281 L365.9418 86.2656 ZM362.8168 92 L364.1293 92 L365.1293 88.8594 L368.8793 88.8594 L369.8481 92 L371.2231 92 L367.7387 81.7188 L366.3012 81.7188 L362.8168 92 ZM375.5492 92.1875 C376.4554 92.1875 377.3304 91.8281 378.0179 91.2188 L377.4554 90.3594 C376.9867 90.7969 376.3617 91.125 375.6586 91.125 C374.2679 91.125 373.3148 89.9531 373.3148 88.2031 C373.3148 86.4531 374.3148 85.2656 375.7054 85.2656 C376.3148 85.2656 376.7679 85.5469 377.2211 85.9375 L377.8773 85.0938 C377.3304 84.625 376.6429 84.2031 375.6429 84.2031 C373.7054 84.2031 371.9867 85.6719 371.9867 88.2031 C371.9867 90.7188 373.5336 92.1875 375.5492 92.1875 Z"
      /><polygon style="fill:none;" points=" 313 64 260 64"
    /></g
    ><g style="fill:white; text-rendering:optimizeSpeed; stroke:white;"
    ><circle r="11" style="clip-path:url(#clipPath3); stroke:none;" cx="313" cy="64"
      /><rect x="302" y="53" width="22" style="clip-path:url(#clipPath3); stroke:none;" height="22"
      /><rect x="302" y="53" width="22" style="clip-path:url(#clipPath3); fill:none; stroke:black;" height="22"
      /><circle r="11" style="fill:none; stroke:black;" cx="313" cy="64"
      /><rect x="301" width="22" height="10" y="81" style="stroke:none;"
    /></g
    ><g style="text-rendering:optimizeSpeed; font-size:14px; font-family:'SansSerif';"
    ><path style="stroke:none;" d="M304.7031 92.1875 C306.5156 92.1875 307.9844 91.0938 307.9844 89.25 C307.9844 87.8594 307.0156 86.9375 305.8125 86.6562 L305.8125 86.5938 C306.8906 86.1875 307.6406 85.3594 307.6406 84.125 C307.6406 82.5 306.375 81.5469 304.6562 81.5469 C303.4688 81.5469 302.5469 82.0625 301.7812 82.7812 L302.4688 83.5938 C303.0469 83 303.7656 82.5938 304.5938 82.5938 C305.6562 82.5938 306.3281 83.2344 306.3281 84.2188 C306.3281 85.3281 305.6094 86.1719 303.4844 86.1719 L303.4844 87.1562 C305.8594 87.1562 306.6875 87.9844 306.6875 89.2031 C306.6875 90.3906 305.8125 91.125 304.5938 91.125 C303.4375 91.125 302.6562 90.5781 302.0469 89.9375 L301.4062 90.7812 C302.0781 91.5156 303.0938 92.1875 304.7031 92.1875 ZM311.9418 86.2656 C312.3168 85.0938 312.645 83.9844 312.9731 82.7812 L313.02 82.7812 C313.3637 83.9844 313.6762 85.0938 314.0668 86.2656 L314.5512 87.8281 L311.4418 87.8281 L311.9418 86.2656 ZM308.8168 92 L310.1293 92 L311.1293 88.8594 L314.8793 88.8594 L315.8481 92 L317.2231 92 L313.7387 81.7188 L312.3012 81.7188 L308.8168 92 ZM321.5492 92.1875 C322.4554 92.1875 323.3304 91.8281 324.0179 91.2188 L323.4554 90.3594 C322.9867 90.7969 322.3617 91.125 321.6586 91.125 C320.2679 91.125 319.3148 89.9531 319.3148 88.2031 C319.3148 86.4531 320.3148 85.2656 321.7054 85.2656 C322.3148 85.2656 322.7679 85.5469 323.2211 85.9375 L323.8773 85.0938 C323.3304 84.625 322.6429 84.2031 321.6429 84.2031 C319.7054 84.2031 317.9867 85.6719 317.9867 88.2031 C317.9867 90.7188 319.5336 92.1875 321.5492 92.1875 Z"
      /><polygon style="fill:none;" points=" 260 64 207 64"
    /></g
    ><g style="fill:white; text-rendering:optimizeSpeed; stroke:white;"
    ><rect x="249" y="53" width="22" style="clip-path:url(#clipPath4); stroke:none;" height="22"
      /><rect x="249" y="53" width="22" style="clip-path:url(#clipPath4); stroke:none;" height="22"
      /><rect x="249" y="53" width="22" style="clip-path:url(#clipPath4); fill:none; stroke:black;" height="22"
      /><rect x="249" y="53" width="22" style="fill:none; stroke:black;" height="22"
      /><polygon style="fill:none; stroke:black;" points=" 207 64 153 64"
      /><circle r="11" style="clip-path:url(#clipPath5); stroke:none;" cx="207" cy="64"
      /><rect x="196" y="53" width="22" style="clip-path:url(#clipPath5); stroke:none;" height="22"
      /><rect x="196" y="53" width="22" style="clip-path:url(#clipPath5); fill:none; stroke:black;" height="22"
      /><circle r="11" style="fill:none; stroke:black;" cx="207" cy="64"
      /><rect x="195" width="22" height="10" y="81" style="stroke:none;"
    /></g
    ><g style="text-rendering:optimizeSpeed; font-size:14px; font-family:'SansSerif';"
    ><path style="stroke:none;" d="M198.7031 92.1875 C200.5156 92.1875 201.9844 91.0938 201.9844 89.25 C201.9844 87.8594 201.0156 86.9375 199.8125 86.6562 L199.8125 86.5938 C200.8906 86.1875 201.6406 85.3594 201.6406 84.125 C201.6406 82.5 200.375 81.5469 198.6562 81.5469 C197.4688 81.5469 196.5469 82.0625 195.7812 82.7812 L196.4688 83.5938 C197.0469 83 197.7656 82.5938 198.5938 82.5938 C199.6562 82.5938 200.3281 83.2344 200.3281 84.2188 C200.3281 85.3281 199.6094 86.1719 197.4844 86.1719 L197.4844 87.1562 C199.8594 87.1562 200.6875 87.9844 200.6875 89.2031 C200.6875 90.3906 199.8125 91.125 198.5938 91.125 C197.4375 91.125 196.6562 90.5781 196.0469 89.9375 L195.4062 90.7812 C196.0781 91.5156 197.0938 92.1875 198.7031 92.1875 ZM205.9418 86.2656 C206.3168 85.0938 206.645 83.9844 206.9731 82.7812 L207.02 82.7812 C207.3637 83.9844 207.6762 85.0938 208.0668 86.2656 L208.5512 87.8281 L205.4418 87.8281 L205.9418 86.2656 ZM202.8168 92 L204.1293 92 L205.1293 88.8594 L208.8793 88.8594 L209.8481 92 L211.2231 92 L207.7387 81.7188 L206.3012 81.7188 L202.8168 92 ZM215.5492 92.1875 C216.4554 92.1875 217.3304 91.8281 218.0179 91.2188 L217.4554 90.3594 C216.9867 90.7969 216.3617 91.125 215.6586 91.125 C214.2679 91.125 213.3148 89.9531 213.3148 88.2031 C213.3148 86.4531 214.3148 85.2656 215.7054 85.2656 C216.3148 85.2656 216.7679 85.5469 217.2211 85.9375 L217.8773 85.0938 C217.3304 84.625 216.6429 84.2031 215.6429 84.2031 C213.7054 84.2031 211.9867 85.6719 211.9867 88.2031 C211.9867 90.7188 213.5336 92.1875 215.5492 92.1875 Z"
      /><polygon style="fill:none;" points=" 153 64 99 64"
    /></g
    ><g style="fill:white; text-rendering:optimizeSpeed; stroke:white;"
    ><polygon style="stroke:none; clip-path:url(#clipPath6);" points=" 153 53 164 64 153 75 142 64"
      /><rect x="142" y="53" width="22" style="clip-path:url(#clipPath6); stroke:none;" height="11"
      /><rect x="142" y="53" width="22" style="clip-path:url(#clipPath6); fill:none; stroke:black;" height="11"
      /><polygon style="fill:none; stroke:black;" points=" 153 53 164 64 153 75 142 64"
      /><rect x="141" width="22" height="10" y="81" style="stroke:none;"
    /></g
    ><g style="text-rendering:optimizeSpeed; font-size:14px; font-family:'SansSerif';"
    ><path style="stroke:none;" d="M144.7031 92.1875 C146.5156 92.1875 147.9844 91.0938 147.9844 89.25 C147.9844 87.8594 147.0156 86.9375 145.8125 86.6562 L145.8125 86.5938 C146.8906 86.1875 147.6406 85.3594 147.6406 84.125 C147.6406 82.5 146.375 81.5469 144.6562 81.5469 C143.4688 81.5469 142.5469 82.0625 141.7812 82.7812 L142.4688 83.5938 C143.0469 83 143.7656 82.5938 144.5938 82.5938 C145.6562 82.5938 146.3281 83.2344 146.3281 84.2188 C146.3281 85.3281 145.6094 86.1719 143.4844 86.1719 L143.4844 87.1562 C145.8594 87.1562 146.6875 87.9844 146.6875 89.2031 C146.6875 90.3906 145.8125 91.125 144.5938 91.125 C143.4375 91.125 142.6562 90.5781 142.0469 89.9375 L141.4062 90.7812 C142.0781 91.5156 143.0938 92.1875 144.7031 92.1875 ZM151.9418 86.2656 C152.3168 85.0938 152.645 83.9844 152.9731 82.7812 L153.02 82.7812 C153.3637 83.9844 153.6762 85.0938 154.0668 86.2656 L154.5512 87.8281 L151.4418 87.8281 L151.9418 86.2656 ZM148.8168 92 L150.1293 92 L151.1293 88.8594 L154.8793 88.8594 L155.8481 92 L157.2231 92 L153.7387 81.7188 L152.3012 81.7188 L148.8168 92 ZM161.5492 92.1875 C162.4554 92.1875 163.3304 91.8281 164.0179 91.2188 L163.4554 90.3594 C162.9867 90.7969 162.3617 91.125 161.6586 91.125 C160.2679 91.125 159.3148 89.9531 159.3148 88.2031 C159.3148 86.4531 160.3148 85.2656 161.7054 85.2656 C162.3148 85.2656 162.7679 85.5469 163.2211 85.9375 L163.8773 85.0938 C163.3304 84.625 162.6429 84.2031 161.6429 84.2031 C159.7054 84.2031 157.9867 85.6719 157.9867 88.2031 C157.9867 90.7188 159.5336 92.1875 161.5492 92.1875 Z"
      /><polygon style="fill:none;" points=" 99 64 43 64"
    /></g
    ><g style="fill:white; text-rendering:optimizeSpeed; stroke:white;"
    ><circle r="11" style="clip-path:url(#clipPath7); stroke:none;" cx="99" cy="64"
      /><rect x="88" y="53" width="22" style="clip-path:url(#clipPath7); stroke:none;" height="22"
      /><rect x="88" y="53" width="22" style="clip-path:url(#clipPath7); fill:none; stroke:black;" height="22"
      /><circle r="11" style="fill:none; stroke:black;" cx="99" cy="64"
      /><rect x="87" width="22" height="10" y="81" style="stroke:none;"
    /></g
    ><g style="text-rendering:optimizeSpeed; font-size:14px; font-family:'SansSerif';"
    ><path style="stroke:none;" d="M90.7031 92.1875 C92.5156 92.1875 93.9844 91.0938 93.9844 89.25 C93.9844 87.8594 93.0156 86.9375 91.8125 86.6562 L91.8125 86.5938 C92.8906 86.1875 93.6406 85.3594 93.6406 84.125 C93.6406 82.5 92.375 81.5469 90.6562 81.5469 C89.4688 81.5469 88.5469 82.0625 87.7812 82.7812 L88.4688 83.5938 C89.0469 83 89.7656 82.5938 90.5938 82.5938 C91.6562 82.5938 92.3281 83.2344 92.3281 84.2188 C92.3281 85.3281 91.6094 86.1719 89.4844 86.1719 L89.4844 87.1562 C91.8594 87.1562 92.6875 87.9844 92.6875 89.2031 C92.6875 90.3906 91.8125 91.125 90.5938 91.125 C89.4375 91.125 88.6562 90.5781 88.0469 89.9375 L87.4062 90.7812 C88.0781 91.5156 89.0938 92.1875 90.7031 92.1875 ZM97.9418 86.2656 C98.3168 85.0938 98.645 83.9844 98.9731 82.7812 L99.02 82.7812 C99.3637 83.9844 99.6762 85.0938 100.0668 86.2656 L100.5512 87.8281 L97.4418 87.8281 L97.9418 86.2656 ZM94.8168 92 L96.1293 92 L97.1293 88.8594 L100.8793 88.8594 L101.8481 92 L103.2231 92 L99.7387 81.7188 L98.3012 81.7188 L94.8168 92 ZM107.5492 92.1875 C108.4554 92.1875 109.3304 91.8281 110.0179 91.2188 L109.4554 90.3594 C108.9867 90.7969 108.3617 91.125 107.6586 91.125 C106.2679 91.125 105.3148 89.9531 105.3148 88.2031 C105.3148 86.4531 106.3148 85.2656 107.7054 85.2656 C108.3148 85.2656 108.7679 85.5469 109.2211 85.9375 L109.8773 85.0938 C109.3304 84.625 108.6429 84.2031 107.6429 84.2031 C105.7054 84.2031 103.9867 85.6719 103.9867 88.2031 C103.9867 90.7188 105.5336 92.1875 107.5492 92.1875 Z"
    /></g
    ><g style="fill:white; text-rendering:optimizeSpeed; stroke:white;"
    ><circle r="11" style="clip-path:url(#clipPath8); stroke:none;" cx="43" cy="64"
      /><rect x="32" y="53" width="22" style="clip-path:url(#clipPath8); stroke:none;" height="22"
      /><rect x="32" y="53" width="22" style="clip-path:url(#clipPath8); fill:none; stroke:black;" height="22"
      /><circle r="11" style="fill:none; stroke:black;" cx="43" cy="64"
      /><rect x="31" width="22" height="10" y="81" style="stroke:none;"
    /></g
    ><g style="text-rendering:optimizeSpeed; font-size:14px; font-family:'SansSerif';"
    ><path style="stroke:none;" d="M34.7031 92.1875 C36.5156 92.1875 37.9844 91.0938 37.9844 89.25 C37.9844 87.8594 37.0156 86.9375 35.8125 86.6562 L35.8125 86.5938 C36.8906 86.1875 37.6406 85.3594 37.6406 84.125 C37.6406 82.5 36.375 81.5469 34.6562 81.5469 C33.4688 81.5469 32.5469 82.0625 31.7812 82.7812 L32.4688 83.5938 C33.0469 83 33.7656 82.5938 34.5938 82.5938 C35.6562 82.5938 36.3281 83.2344 36.3281 84.2188 C36.3281 85.3281 35.6094 86.1719 33.4844 86.1719 L33.4844 87.1562 C35.8594 87.1562 36.6875 87.9844 36.6875 89.2031 C36.6875 90.3906 35.8125 91.125 34.5938 91.125 C33.4375 91.125 32.6562 90.5781 32.0469 89.9375 L31.4062 90.7812 C32.0781 91.5156 33.0938 92.1875 34.7031 92.1875 ZM41.9418 86.2656 C42.3168 85.0938 42.645 83.9844 42.9731 82.7812 L43.02 82.7812 C43.3637 83.9844 43.6762 85.0938 44.0668 86.2656 L44.5512 87.8281 L41.4418 87.8281 L41.9418 86.2656 ZM38.8168 92 L40.1293 92 L41.1293 88.8594 L44.8793 88.8594 L45.8481 92 L47.2231 92 L43.7387 81.7188 L42.3012 81.7188 L38.8168 92 ZM51.5492 92.1875 C52.4554 92.1875 53.3304 91.8281 54.0179 91.2188 L53.4554 90.3594 C52.9867 90.7969 52.3617 91.125 51.6586 91.125 C50.2679 91.125 49.3148 89.9531 49.3148 88.2031 C49.3148 86.4531 50.3148 85.2656 51.7054 85.2656 C52.3148 85.2656 52.7679 85.5469 53.2211 85.9375 L53.8773 85.0938 C53.3304 84.625 52.6429 84.2031 51.6429 84.2031 C49.7054 84.2031 47.9867 85.6719 47.9867 88.2031 C47.9867 90.7188 49.5336 92.1875 51.5492 92.1875 Z"
      /><rect x="29" y="35" width="26" style="fill:white; stroke:none;" height="10"
      /><path style="stroke:none;" d="M30.6094 42.1562 L32.9531 38.6562 C33.2344 38.1406 33.5156 37.6406 33.7812 37.1406 L33.8281 37.1406 C33.7969 37.6719 33.7656 38.5 33.7656 39 L33.7656 42.1562 L30.6094 42.1562 ZM33.7656 46 L34.9688 46 L34.9688 43.1719 L36.3281 43.1719 L36.3281 42.1562 L34.9688 42.1562 L34.9688 35.7188 L33.5469 35.7188 L29.2812 42.3281 L29.2812 43.1719 L33.7656 43.1719 L33.7656 46 ZM38.1762 46 L39.3481 46 L39.3481 40.3125 C39.3481 39.4375 39.2543 38.1875 39.1918 37.2969 L39.2543 37.2969 L40.0668 39.625 L42.0043 44.9688 L42.8793 44.9688 L44.8168 39.625 L45.6293 37.2969 L45.6918 37.2969 C45.6137 38.1875 45.52 39.4375 45.52 40.3125 L45.52 46 L46.7387 46 L46.7387 35.7188 L45.1762 35.7188 L43.2075 41.2188 C42.9731 41.9375 42.7543 42.6562 42.5043 43.375 L42.4418 43.375 C42.1918 42.6562 41.9575 41.9375 41.7075 41.2188 L39.7387 35.7188 L38.1762 35.7188 L38.1762 46 ZM52.4973 46.1875 C53.5285 46.1875 54.341 45.8281 55.0129 45.3906 L54.5442 44.5625 C53.9973 44.9375 53.3879 45.1562 52.6535 45.1562 C51.2004 45.1562 50.216 44.125 50.1223 42.5 L55.2473 42.5 C55.2785 42.3125 55.3098 42.0469 55.3098 41.7656 C55.3098 39.6094 54.216 38.2031 52.2785 38.2031 C50.5129 38.2031 48.8567 39.7344 48.8567 42.2031 C48.8567 44.7188 50.4817 46.1875 52.4973 46.1875 ZM50.1067 41.5781 C50.2629 40.0938 51.216 39.2188 52.2942 39.2188 C53.4817 39.2188 54.1848 40.0469 54.1848 41.5781 L50.1067 41.5781 Z"
    /></g
    ><g style="fill:white; text-rendering:optimizeSpeed; font-family:'Serif'; stroke:white;"
    ><rect x="75" width="7" height="9" y="67" style="stroke:none;"
      /><path d="M76 72.5156 L78.9531 68.2656 L78.9531 72.5156 L76 72.5156 ZM81.2812 72.5156 L79.8594 72.5156 L79.8594 67.125 L79.2344 67.125 L75.3438 72.6406 L75.3438 73.1875 L78.9531 73.1875 L78.9531 76 L79.8594 76 L79.8594 73.1875 L81.2812 73.1875 L81.2812 72.5156 Z" style="fill:black; stroke:none;"
      /><rect x="62" width="5" height="10" y="67" style="stroke:none;"
      /><path d="M63.8906 75.6875 C63.4844 75.6875 63.1562 76.0469 63.1562 76.4219 C63.1562 76.8125 63.4844 77.1562 63.8906 77.1562 C64.2969 77.1562 64.6406 76.8125 64.6406 76.4219 C64.6406 76.0469 64.2969 75.6875 63.8906 75.6875 ZM65.4688 69.5781 C65.7188 69.8906 65.875 70.2656 65.8906 70.6562 C65.8906 71.1875 65.625 71.5 65.0312 71.7656 L64.4062 72.0156 C63.6406 72.3125 63.3906 72.5469 63.3906 72.9375 C63.3906 73.1094 63.4531 73.3438 63.5781 73.8125 L63.7344 74.3438 L64.1094 74.3438 L64.0938 73.5312 C64.0938 73.0938 64.2031 72.9688 64.7812 72.7344 L65.2031 72.5625 C66.0312 72.2188 66.4531 71.6875 66.4531 70.8438 C66.4531 69.1562 64.6562 68.1875 63.5 68.0312 C63.1094 68.125 62.9062 68.2969 62.9062 68.6406 C62.9062 68.9375 63.0625 69.1562 63.7188 69.2656 L65.4688 69.5781 Z" style="fill:black; stroke:none;"
      /><rect x="129" width="7" height="9" y="67" style="stroke:none;"
      /><path d="M130 72.5156 L132.9531 68.2656 L132.9531 72.5156 L130 72.5156 ZM135.2812 72.5156 L133.8594 72.5156 L133.8594 67.125 L133.2344 67.125 L129.3438 72.6406 L129.3438 73.1875 L132.9531 73.1875 L132.9531 76 L133.8594 76 L133.8594 73.1875 L135.2812 73.1875 L135.2812 72.5156 Z" style="fill:black; stroke:none;"
      /><rect x="116" width="5" height="10" y="67" style="stroke:none;"
      /><path d="M117.8906 75.6875 C117.4844 75.6875 117.1562 76.0469 117.1562 76.4219 C117.1562 76.8125 117.4844 77.1562 117.8906 77.1562 C118.2969 77.1562 118.6406 76.8125 118.6406 76.4219 C118.6406 76.0469 118.2969 75.6875 117.8906 75.6875 ZM119.4688 69.5781 C119.7188 69.8906 119.875 70.2656 119.8906 70.6562 C119.8906 71.1875 119.625 71.5 119.0312 71.7656 L118.4062 72.0156 C117.6406 72.3125 117.3906 72.5469 117.3906 72.9375 C117.3906 73.1094 117.4531 73.3438 117.5781 73.8125 L117.7344 74.3438 L118.1094 74.3438 L118.0938 73.5312 C118.0938 73.0938 118.2031 72.9688 118.7812 72.7344 L119.2031 72.5625 C120.0312 72.2188 120.4531 71.6875 120.4531 70.8438 C120.4531 69.1562 118.6562 68.1875 117.5 68.0312 C117.1094 68.125 116.9062 68.2969 116.9062 68.6406 C116.9062 68.9375 117.0625 69.1562 117.7188 69.2656 L119.4688 69.5781 Z" style="fill:black; stroke:none;"
      /><rect x="183" width="7" height="9" y="67" style="stroke:none;"
      /><path d="M184 72.5156 L186.9531 68.2656 L186.9531 72.5156 L184 72.5156 ZM189.2812 72.5156 L187.8594 72.5156 L187.8594 67.125 L187.2344 67.125 L183.3438 72.6406 L183.3438 73.1875 L186.9531 73.1875 L186.9531 76 L187.8594 76 L187.8594 73.1875 L189.2812 73.1875 L189.2812 72.5156 Z" style="fill:black; stroke:none;"
      /><rect x="170" width="5" height="10" y="67" style="stroke:none;"
      /><path d="M171.8906 75.6875 C171.4844 75.6875 171.1562 76.0469 171.1562 76.4219 C171.1562 76.8125 171.4844 77.1562 171.8906 77.1562 C172.2969 77.1562 172.6406 76.8125 172.6406 76.4219 C172.6406 76.0469 172.2969 75.6875 171.8906 75.6875 ZM173.4688 69.5781 C173.7188 69.8906 173.875 70.2656 173.8906 70.6562 C173.8906 71.1875 173.625 71.5 173.0312 71.7656 L172.4062 72.0156 C171.6406 72.3125 171.3906 72.5469 171.3906 72.9375 C171.3906 73.1094 171.4531 73.3438 171.5781 73.8125 L171.7344 74.3438 L172.1094 74.3438 L172.0938 73.5312 C172.0938 73.0938 172.2031 72.9688 172.7812 72.7344 L173.2031 72.5625 C174.0312 72.2188 174.4531 71.6875 174.4531 70.8438 C174.4531 69.1562 172.6562 68.1875 171.5 68.0312 C171.1094 68.125 170.9062 68.2969 170.9062 68.6406 C170.9062 68.9375 171.0625 69.1562 171.7188 69.2656 L173.4688 69.5781 Z" style="fill:black; stroke:none;"
      /><rect x="237" width="7" height="9" y="67" style="stroke:none;"
      /><path d="M238 72.5156 L240.9531 68.2656 L240.9531 72.5156 L238 72.5156 ZM243.2812 72.5156 L241.8594 72.5156 L241.8594 67.125 L241.2344 67.125 L237.3438 72.6406 L237.3438 73.1875 L240.9531 73.1875 L240.9531 76 L241.8594 76 L241.8594 73.1875 L243.2812 73.1875 L243.2812 72.5156 Z" style="fill:black; stroke:none;"
      /><rect x="224" width="5" height="10" y="67" style="stroke:none;"
      /><path d="M225.8906 75.6875 C225.4844 75.6875 225.1562 76.0469 225.1562 76.4219 C225.1562 76.8125 225.4844 77.1562 225.8906 77.1562 C226.2969 77.1562 226.6406 76.8125 226.6406 76.4219 C226.6406 76.0469 226.2969 75.6875 225.8906 75.6875 ZM227.4688 69.5781 C227.7188 69.8906 227.875 70.2656 227.8906 70.6562 C227.8906 71.1875 227.625 71.5 227.0312 71.7656 L226.4062 72.0156 C225.6406 72.3125 225.3906 72.5469 225.3906 72.9375 C225.3906 73.1094 225.4531 73.3438 225.5781 73.8125 L225.7344 74.3438 L226.1094 74.3438 L226.0938 73.5312 C226.0938 73.0938 226.2031 72.9688 226.7812 72.7344 L227.2031 72.5625 C228.0312 72.2188 228.4531 71.6875 228.4531 70.8438 C228.4531 69.1562 226.6562 68.1875 225.5 68.0312 C225.1094 68.125 224.9062 68.2969 224.9062 68.6406 C224.9062 68.9375 225.0625 69.1562 225.7188 69.2656 L227.4688 69.5781 Z" style="fill:black; stroke:none;"
      /><rect x="289" width="7" height="9" y="67" style="stroke:none;"
      /><path d="M290 72.5156 L292.9531 68.2656 L292.9531 72.5156 L290 72.5156 ZM295.2812 72.5156 L293.8594 72.5156 L293.8594 67.125 L293.2344 67.125 L289.3438 72.6406 L289.3438 73.1875 L292.9531 73.1875 L292.9531 76 L293.8594 76 L293.8594 73.1875 L295.2812 73.1875 L295.2812 72.5156 Z" style="fill:black; stroke:none;"
      /><rect x="276" width="5" height="10" y="67" style="stroke:none;"
      /><path d="M277.8906 75.6875 C277.4844 75.6875 277.1562 76.0469 277.1562 76.4219 C277.1562 76.8125 277.4844 77.1562 277.8906 77.1562 C278.2969 77.1562 278.6406 76.8125 278.6406 76.4219 C278.6406 76.0469 278.2969 75.6875 277.8906 75.6875 ZM279.4688 69.5781 C279.7188 69.8906 279.875 70.2656 279.8906 70.6562 C279.8906 71.1875 279.625 71.5 279.0312 71.7656 L278.4062 72.0156 C277.6406 72.3125 277.3906 72.5469 277.3906 72.9375 C277.3906 73.1094 277.4531 73.3438 277.5781 73.8125 L277.7344 74.3438 L278.1094 74.3438 L278.0938 73.5312 C278.0938 73.0938 278.2031 72.9688 278.7812 72.7344 L279.2031 72.5625 C280.0312 72.2188 280.4531 71.6875 280.4531 70.8438 C280.4531 69.1562 278.6562 68.1875 277.5 68.0312 C277.1094 68.125 276.9062 68.2969 276.9062 68.6406 C276.9062 68.9375 277.0625 69.1562 277.7188 69.2656 L279.4688 69.5781 Z" style="fill:black; stroke:none;"
      /><rect x="343" width="7" height="9" y="67" style="stroke:none;"
      /><path d="M344 72.5156 L346.9531 68.2656 L346.9531 72.5156 L344 72.5156 ZM349.2812 72.5156 L347.8594 72.5156 L347.8594 67.125 L347.2344 67.125 L343.3438 72.6406 L343.3438 73.1875 L346.9531 73.1875 L346.9531 76 L347.8594 76 L347.8594 73.1875 L349.2812 73.1875 L349.2812 72.5156 Z" style="fill:black; stroke:none;"
      /><rect x="330" width="5" height="10" y="67" style="stroke:none;"
      /><path d="M331.8906 75.6875 C331.4844 75.6875 331.1562 76.0469 331.1562 76.4219 C331.1562 76.8125 331.4844 77.1562 331.8906 77.1562 C332.2969 77.1562 332.6406 76.8125 332.6406 76.4219 C332.6406 76.0469 332.2969 75.6875 331.8906 75.6875 ZM333.4688 69.5781 C333.7188 69.8906 333.875 70.2656 333.8906 70.6562 C333.8906 71.1875 333.625 71.5 333.0312 71.7656 L332.4062 72.0156 C331.6406 72.3125 331.3906 72.5469 331.3906 72.9375 C331.3906 73.1094 331.4531 73.3438 331.5781 73.8125 L331.7344 74.3438 L332.1094 74.3438 L332.0938 73.5312 C332.0938 73.0938 332.2031 72.9688 332.7812 72.7344 L333.2031 72.5625 C334.0312 72.2188 334.4531 71.6875 334.4531 70.8438 C334.4531 69.1562 332.6562 68.1875 331.5 68.0312 C331.1094 68.125 330.9062 68.2969 330.9062 68.6406 C330.9062 68.9375 331.0625 69.1562 331.7188 69.2656 L333.4688 69.5781 Z" style="fill:black; stroke:none;"
      /><rect x="397" width="7" height="9" y="67" style="stroke:none;"
      /><path d="M398 72.5156 L400.9531 68.2656 L400.9531 72.5156 L398 72.5156 ZM403.2812 72.5156 L401.8594 72.5156 L401.8594 67.125 L401.2344 67.125 L397.3438 72.6406 L397.3438 73.1875 L400.9531 73.1875 L400.9531 76 L401.8594 76 L401.8594 73.1875 L403.2812 73.1875 L403.2812 72.5156 Z" style="fill:black; stroke:none;"
      /><rect x="384" width="5" height="10" y="67" style="stroke:none;"
      /><path d="M385.8906 75.6875 C385.4844 75.6875 385.1562 76.0469 385.1562 76.4219 C385.1562 76.8125 385.4844 77.1562 385.8906 77.1562 C386.2969 77.1562 386.6406 76.8125 386.6406 76.4219 C386.6406 76.0469 386.2969 75.6875 385.8906 75.6875 ZM387.4688 69.5781 C387.7188 69.8906 387.875 70.2656 387.8906 70.6562 C387.8906 71.1875 387.625 71.5 387.0312 71.7656 L386.4062 72.0156 C385.6406 72.3125 385.3906 72.5469 385.3906 72.9375 C385.3906 73.1094 385.4531 73.3438 385.5781 73.8125 L385.7344 74.3438 L386.1094 74.3438 L386.0938 73.5312 C386.0938 73.0938 386.2031 72.9688 386.7812 72.7344 L387.2031 72.5625 C388.0312 72.2188 388.4531 71.6875 388.4531 70.8438 C388.4531 69.1562 386.6562 68.1875 385.5 68.0312 C385.1094 68.125 384.9062 68.2969 384.9062 68.6406 C384.9062 68.9375 385.0625 69.1562 385.7188 69.2656 L387.4688 69.5781 Z" style="fill:black; stroke:none;"
      /><rect x="438" width="5" height="10" y="67" style="stroke:none;"
      /><path d="M439.8906 75.6875 C439.4844 75.6875 439.1562 76.0469 439.1562 76.4219 C439.1562 76.8125 439.4844 77.1562 439.8906 77.1562 C440.2969 77.1562 440.6406 76.8125 440.6406 76.4219 C440.6406 76.0469 440.2969 75.6875 439.8906 75.6875 ZM441.4688 69.5781 C441.7188 69.8906 441.875 70.2656 441.8906 70.6562 C441.8906 71.1875 441.625 71.5 441.0312 71.7656 L440.4062 72.0156 C439.6406 72.3125 439.3906 72.5469 439.3906 72.9375 C439.3906 73.1094 439.4531 73.3438 439.5781 73.8125 L439.7344 74.3438 L440.1094 74.3438 L440.0938 73.5312 C440.0938 73.0938 440.2031 72.9688 440.7812 72.7344 L441.2031 72.5625 C442.0312 72.2188 442.4531 71.6875 442.4531 70.8438 C442.4531 69.1562 440.6562 68.1875 439.5 68.0312 C439.1094 68.125 438.9062 68.2969 438.9062 68.6406 C438.9062 68.9375 439.0625 69.1562 439.7188 69.2656 L441.4688 69.5781 Z" style="fill:black; stroke:none;"
    /></g
  ></g
></svg
>
