<?xml version="1.0"?>
<!DOCTYPE svg PUBLIC '-//W3C//DTD SVG 1.0//EN'
          'http://www.w3.org/TR/2001/REC-SVG-20010904/DTD/svg10.dtd'>
<svg xmlns:xlink="http://www.w3.org/1999/xlink" style="fill-opacity:1; color-rendering:auto; color-interpolation:auto; text-rendering:auto; stroke:black; stroke-linecap:square; stroke-miterlimit:10; shape-rendering:auto; stroke-opacity:1; fill:black; stroke-dasharray:none; font-weight:normal; stroke-width:1; font-family:'Dialog'; font-style:normal; stroke-linejoin:miter; font-size:12px; stroke-dashoffset:0; image-rendering:auto;" viewBox="0 0 243 157" xmlns="http://www.w3.org/2000/svg"
><!--Generated by the Batik Graphics2D SVG Generator--><defs id="genericDefs"
  /><g
  ><defs id="defs1"
    ><clipPath clipPathUnits="userSpaceOnUse" id="clipPath1"
      ><path style="fill-rule:evenodd;" d="M150 56 L161 67 L150 78 L139 67 Z"
      /></clipPath
      ><clipPath clipPathUnits="userSpaceOnUse" id="clipPath2"
      ><path d="M109 67 C109 73.0751 104.0751 78 98 78 C91.9249 78 87 73.0751 87 67 C87 60.9249 91.9249 56 98 56 C104.0751 56 109 60.9249 109 67 Z"
      /></clipPath
      ><clipPath clipPathUnits="userSpaceOnUse" id="clipPath3"
      ><path d="M54 93 C54 99.0751 49.0751 104 43 104 C36.9249 104 32 99.0751 32 93 C32 86.9249 36.9249 82 43 82 C49.0751 82 54 86.9249 54 93 Z"
      /></clipPath
      ><clipPath clipPathUnits="userSpaceOnUse" id="clipPath4"
      ><path style="fill-rule:evenodd;" d="M43 30 L54 41 L43 52 L32 41 Z"
      /></clipPath
    ></defs
    ><g style="fill:white; text-rendering:optimizeSpeed; stroke:white;"
    ><rect x="0" width="243" height="157" y="0" style="stroke:none;"
      /><polygon style="fill:none; stroke:black;" points=" 202 67 150 67"
      /><path d="M202 56 C196.5 61.5 207.5 72.5 202 78" style="fill:none; stroke:black;"
      /><polygon style="fill:none; stroke:black;" points=" 150 67 98 67"
      /><polygon style="clip-path:url(#clipPath1); stroke:none;" points=" 150 56 161 67 150 78 139 67"
      /><rect x="139" y="56" width="22" style="clip-path:url(#clipPath1); fill:rgb(0,144,188); stroke:none;" height="11"
      /><rect x="139" y="56" width="22" style="clip-path:url(#clipPath1); fill:none; stroke:black;" height="11"
      /><polygon style="fill:none; stroke:black;" points=" 150 56 161 67 150 78 139 67"
      /><polygon style="fill:none; stroke:black;" points=" 98 67 43 93"
      /><polygon style="fill:none; stroke:black;" points=" 98 67 43 41"
      /><circle style="clip-path:url(#clipPath2); stroke:none;" r="11" cx="98" cy="67"
      /><rect x="87" y="56" width="22" style="clip-path:url(#clipPath2); fill:rgb(0,166,81); stroke:none;" height="22"
      /><rect x="87" y="56" width="22" style="clip-path:url(#clipPath2); fill:none; stroke:black;" height="22"
      /><circle style="fill:none; stroke:black;" r="11" cx="98" cy="67"
      /><circle style="clip-path:url(#clipPath3); stroke:none;" r="11" cx="43" cy="93"
      /><rect x="32" y="82" width="22" style="clip-path:url(#clipPath3); fill:rgb(0,166,81); stroke:none;" height="22"
      /><rect x="32" y="82" width="22" style="clip-path:url(#clipPath3); fill:none; stroke:black;" height="22"
      /><circle style="fill:none; stroke:black;" r="11" cx="43" cy="93"
    /></g
    ><g style="text-rendering:optimizeSpeed; font-size:10px; font-family:'SansSerif';"
    ><path style="stroke:none;" d="M41 96 L45.125 96 L45.125 95.2031 L41.9375 95.2031 L41.9375 88.6562 L41 88.6562 L41 96 Z"
      /><rect x="30" y="110" width="25" style="fill:white; stroke:none;" height="10"
      /><path style="stroke:none;" d="M33.7031 121.1875 C35.5156 121.1875 36.9844 120.0938 36.9844 118.25 C36.9844 116.8594 36.0156 115.9375 34.8125 115.6562 L34.8125 115.5938 C35.8906 115.1875 36.6406 114.3594 36.6406 113.125 C36.6406 111.5 35.375 110.5469 33.6562 110.5469 C32.4688 110.5469 31.5469 111.0625 30.7812 111.7812 L31.4688 112.5938 C32.0469 112 32.7656 111.5938 33.5938 111.5938 C34.6562 111.5938 35.3281 112.2344 35.3281 113.2188 C35.3281 114.3281 34.6094 115.1719 32.4844 115.1719 L32.4844 116.1562 C34.8594 116.1562 35.6875 116.9844 35.6875 118.2031 C35.6875 119.3906 34.8125 120.125 33.5938 120.125 C32.4375 120.125 31.6562 119.5781 31.0469 118.9375 L30.4062 119.7812 C31.0781 120.5156 32.0938 121.1875 33.7031 121.1875 ZM39.1762 121 L40.3481 121 L40.3481 115.3125 C40.3481 114.4375 40.2543 113.1875 40.1918 112.2969 L40.2543 112.2969 L41.0668 114.625 L43.0043 119.9688 L43.8793 119.9688 L45.8168 114.625 L46.6293 112.2969 L46.6918 112.2969 C46.6137 113.1875 46.52 114.4375 46.52 115.3125 L46.52 121 L47.7387 121 L47.7387 110.7188 L46.1762 110.7188 L44.2075 116.2188 C43.9731 116.9375 43.7543 117.6562 43.5043 118.375 L43.4418 118.375 C43.1918 117.6562 42.9575 116.9375 42.7075 116.2188 L40.7387 110.7188 L39.1762 110.7188 L39.1762 121 ZM53.4973 121.1875 C54.5285 121.1875 55.341 120.8281 56.0129 120.3906 L55.5442 119.5625 C54.9973 119.9375 54.3879 120.1562 53.6535 120.1562 C52.2004 120.1562 51.216 119.125 51.1223 117.5 L56.2473 117.5 C56.2785 117.3125 56.3098 117.0469 56.3098 116.7656 C56.3098 114.6094 55.216 113.2031 53.2785 113.2031 C51.5129 113.2031 49.8567 114.7344 49.8567 117.2031 C49.8567 119.7188 51.4817 121.1875 53.4973 121.1875 ZM51.1067 116.5781 C51.2629 115.0938 52.216 114.2188 53.2942 114.2188 C54.4817 114.2188 55.1848 115.0469 55.1848 116.5781 L51.1067 116.5781 Z"
    /></g
    ><g style="fill:white; text-rendering:optimizeSpeed; stroke:white;"
    ><polygon style="stroke:none; clip-path:url(#clipPath4);" points=" 43 30 54 41 43 52 32 41"
      /><rect x="32" y="30" width="22" style="clip-path:url(#clipPath4); fill:rgb(0,144,188); stroke:none;" height="11"
      /><rect x="32" y="30" width="22" style="clip-path:url(#clipPath4); fill:none; stroke:black;" height="11"
      /><polygon style="fill:none; stroke:black;" points=" 43 30 54 41 43 52 32 41"
      /><rect x="80" width="5" height="10" y="77" style="stroke:none;"
      /><path d="M81.8906 85.6875 C81.4844 85.6875 81.1562 86.0469 81.1562 86.4219 C81.1562 86.8125 81.4844 87.1562 81.8906 87.1562 C82.2969 87.1562 82.6406 86.8125 82.6406 86.4219 C82.6406 86.0469 82.2969 85.6875 81.8906 85.6875 ZM83.4688 79.5781 C83.7188 79.8906 83.875 80.2656 83.8906 80.6562 C83.8906 81.1875 83.625 81.5 83.0312 81.7656 L82.4062 82.0156 C81.6406 82.3125 81.3906 82.5469 81.3906 82.9375 C81.3906 83.1094 81.4531 83.3438 81.5781 83.8125 L81.7344 84.3438 L82.1094 84.3438 L82.0938 83.5312 C82.0938 83.0938 82.2031 82.9688 82.7812 82.7344 L83.2031 82.5625 C84.0312 82.2188 84.4531 81.6875 84.4531 80.8438 C84.4531 79.1562 82.6562 78.1875 81.5 78.0312 C81.1094 78.125 80.9062 78.2969 80.9062 78.6406 C80.9062 78.9375 81.0625 79.1562 81.7188 79.2656 L83.4688 79.5781 Z" style="fill:black; stroke:none;"
      /><rect x="65" width="5" height="10" y="85" style="stroke:none;"
      /><path d="M66.8906 93.6875 C66.4844 93.6875 66.1562 94.0469 66.1562 94.4219 C66.1562 94.8125 66.4844 95.1562 66.8906 95.1562 C67.2969 95.1562 67.6406 94.8125 67.6406 94.4219 C67.6406 94.0469 67.2969 93.6875 66.8906 93.6875 ZM68.4688 87.5781 C68.7188 87.8906 68.875 88.2656 68.8906 88.6562 C68.8906 89.1875 68.625 89.5 68.0312 89.7656 L67.4062 90.0156 C66.6406 90.3125 66.3906 90.5469 66.3906 90.9375 C66.3906 91.1094 66.4531 91.3438 66.5781 91.8125 L66.7344 92.3438 L67.1094 92.3438 L67.0938 91.5312 C67.0938 91.0938 67.2031 90.9688 67.7812 90.7344 L68.2031 90.5625 C69.0312 90.2188 69.4531 89.6875 69.4531 88.8438 C69.4531 87.1562 67.6562 86.1875 66.5 86.0312 C66.1094 86.125 65.9062 86.2969 65.9062 86.6406 C65.9062 86.9375 66.0625 87.1562 66.7188 87.2656 L68.4688 87.5781 Z" style="fill:black; stroke:none;"
      /><rect x="73" width="5" height="10" y="60" style="stroke:none;"
      /><path d="M74.8906 68.6875 C74.4844 68.6875 74.1562 69.0469 74.1562 69.4219 C74.1562 69.8125 74.4844 70.1562 74.8906 70.1562 C75.2969 70.1562 75.6406 69.8125 75.6406 69.4219 C75.6406 69.0469 75.2969 68.6875 74.8906 68.6875 ZM76.4688 62.5781 C76.7188 62.8906 76.875 63.2656 76.8906 63.6562 C76.8906 64.1875 76.625 64.5 76.0312 64.7656 L75.4062 65.0156 C74.6406 65.3125 74.3906 65.5469 74.3906 65.9375 C74.3906 66.1094 74.4531 66.3438 74.5781 66.8125 L74.7344 67.3438 L75.1094 67.3438 L75.0938 66.5312 C75.0938 66.0938 75.2031 65.9688 75.7812 65.7344 L76.2031 65.5625 C77.0312 65.2188 77.4531 64.6875 77.4531 63.8438 C77.4531 62.1562 75.6562 61.1875 74.5 61.0312 C74.1094 61.125 73.9062 61.2969 73.9062 61.6406 C73.9062 61.9375 74.0625 62.1562 74.7188 62.2656 L76.4688 62.5781 Z" style="fill:black; stroke:none;"
      /><rect x="55" width="5" height="10" y="51" style="stroke:none;"
      /><path d="M56.8906 59.6875 C56.4844 59.6875 56.1562 60.0469 56.1562 60.4219 C56.1562 60.8125 56.4844 61.1562 56.8906 61.1562 C57.2969 61.1562 57.6406 60.8125 57.6406 60.4219 C57.6406 60.0469 57.2969 59.6875 56.8906 59.6875 ZM58.4688 53.5781 C58.7188 53.8906 58.875 54.2656 58.8906 54.6562 C58.8906 55.1875 58.625 55.5 58.0312 55.7656 L57.4062 56.0156 C56.6406 56.3125 56.3906 56.5469 56.3906 56.9375 C56.3906 57.1094 56.4531 57.3438 56.5781 57.8125 L56.7344 58.3438 L57.1094 58.3438 L57.0938 57.5312 C57.0938 57.0938 57.2031 56.9688 57.7812 56.7344 L58.2031 56.5625 C59.0312 56.2188 59.4531 55.6875 59.4531 54.8438 C59.4531 53.1562 57.6562 52.1875 56.5 52.0312 C56.1094 52.125 55.9062 52.2969 55.9062 52.6406 C55.9062 52.9375 56.0625 53.1562 56.7188 53.2656 L58.4688 53.5781 Z" style="fill:black; stroke:none;"
      /><rect x="128" width="5" height="10" y="70" style="stroke:none;"
      /><path d="M129.8906 78.6875 C129.4844 78.6875 129.1562 79.0469 129.1562 79.4219 C129.1562 79.8125 129.4844 80.1562 129.8906 80.1562 C130.2969 80.1562 130.6406 79.8125 130.6406 79.4219 C130.6406 79.0469 130.2969 78.6875 129.8906 78.6875 ZM131.4688 72.5781 C131.7188 72.8906 131.875 73.2656 131.8906 73.6562 C131.8906 74.1875 131.625 74.5 131.0312 74.7656 L130.4062 75.0156 C129.6406 75.3125 129.3906 75.5469 129.3906 75.9375 C129.3906 76.1094 129.4531 76.3438 129.5781 76.8125 L129.7344 77.3438 L130.1094 77.3438 L130.0938 76.5312 C130.0938 76.0938 130.2031 75.9688 130.7812 75.7344 L131.2031 75.5625 C132.0312 75.2188 132.4531 74.6875 132.4531 73.8438 C132.4531 72.1562 130.6562 71.1875 129.5 71.0312 C129.1094 71.125 128.9062 71.2969 128.9062 71.6406 C128.9062 71.9375 129.0625 72.1562 129.7188 72.2656 L131.4688 72.5781 Z" style="fill:black; stroke:none;"
      /><rect x="114" width="5" height="10" y="70" style="stroke:none;"
      /><path d="M115.8906 78.6875 C115.4844 78.6875 115.1562 79.0469 115.1562 79.4219 C115.1562 79.8125 115.4844 80.1562 115.8906 80.1562 C116.2969 80.1562 116.6406 79.8125 116.6406 79.4219 C116.6406 79.0469 116.2969 78.6875 115.8906 78.6875 ZM117.4688 72.5781 C117.7188 72.8906 117.875 73.2656 117.8906 73.6562 C117.8906 74.1875 117.625 74.5 117.0312 74.7656 L116.4062 75.0156 C115.6406 75.3125 115.3906 75.5469 115.3906 75.9375 C115.3906 76.1094 115.4531 76.3438 115.5781 76.8125 L115.7344 77.3438 L116.1094 77.3438 L116.0938 76.5312 C116.0938 76.0938 116.2031 75.9688 116.7812 75.7344 L117.2031 75.5625 C118.0312 75.2188 118.4531 74.6875 118.4531 73.8438 C118.4531 72.1562 116.6562 71.1875 115.5 71.0312 C115.1094 71.125 114.9062 71.2969 114.9062 71.6406 C114.9062 71.9375 115.0625 72.1562 115.7188 72.2656 L117.4688 72.5781 Z" style="fill:black; stroke:none;"
      /><rect x="166" width="5" height="10" y="70" style="stroke:none;"
      /><path d="M167.8906 78.6875 C167.4844 78.6875 167.1562 79.0469 167.1562 79.4219 C167.1562 79.8125 167.4844 80.1562 167.8906 80.1562 C168.2969 80.1562 168.6406 79.8125 168.6406 79.4219 C168.6406 79.0469 168.2969 78.6875 167.8906 78.6875 ZM169.4688 72.5781 C169.7188 72.8906 169.875 73.2656 169.8906 73.6562 C169.8906 74.1875 169.625 74.5 169.0312 74.7656 L168.4062 75.0156 C167.6406 75.3125 167.3906 75.5469 167.3906 75.9375 C167.3906 76.1094 167.4531 76.3438 167.5781 76.8125 L167.7344 77.3438 L168.1094 77.3438 L168.0938 76.5312 C168.0938 76.0938 168.2031 75.9688 168.7812 75.7344 L169.2031 75.5625 C170.0312 75.2188 170.4531 74.6875 170.4531 73.8438 C170.4531 72.1562 168.6562 71.1875 167.5 71.0312 C167.1094 71.125 166.9062 71.2969 166.9062 71.6406 C166.9062 71.9375 167.0625 72.1562 167.7188 72.2656 L169.4688 72.5781 Z" style="fill:black; stroke:none;"
    /></g
  ></g
></svg
>
