<?xml version="1.0"?>
<!DOCTYPE svg PUBLIC '-//W3C//DTD SVG 1.0//EN'
          'http://www.w3.org/TR/2001/REC-SVG-20010904/DTD/svg10.dtd'>
<svg xmlns:xlink="http://www.w3.org/1999/xlink" style="fill-opacity:1; color-rendering:auto; color-interpolation:auto; text-rendering:auto; stroke:black; stroke-linecap:square; stroke-miterlimit:10; shape-rendering:auto; stroke-opacity:1; fill:black; stroke-dasharray:none; font-weight:normal; stroke-width:1; font-family:'Dialog'; font-style:normal; stroke-linejoin:miter; font-size:12px; stroke-dashoffset:0; image-rendering:auto;" viewBox="0 0 191 157" xmlns="http://www.w3.org/2000/svg"
><!--Generated by the Batik Graphics2D SVG Generator--><defs id="genericDefs"
  /><g
  ><defs id="defs1"
    ><clipPath clipPathUnits="userSpaceOnUse" id="clipPath1"
      ><path d="M106 64 C106 70.0751 101.0751 75 95 75 C88.9249 75 84 70.0751 84 64 C84 57.9249 88.9249 53 95 53 C101.0751 53 106 57.9249 106 64 Z"
      /></clipPath
      ><clipPath clipPathUnits="userSpaceOnUse" id="clipPath2"
      ><path style="fill-rule:evenodd;" d="M95 105 L106 127 L84 127 Z"
      /></clipPath
      ><clipPath clipPathUnits="userSpaceOnUse" id="clipPath3"
      ><path d="M52 64 C52 70.0751 47.0751 75 41 75 C34.9249 75 30 70.0751 30 64 C30 57.9249 34.9249 53 41 53 C47.0751 53 52 57.9249 52 64 Z"
      /></clipPath
    ></defs
    ><g style="fill:white; text-rendering:optimizeSpeed; stroke:white;"
    ><rect x="0" width="191" height="157" y="0" style="stroke:none;"
      /><polygon style="fill:none; stroke:black;" points=" 150 64 95 64"
      /><path d="M150 53 C144.5 58.5 155.5 69.5 150 75" style="fill:none; stroke:black;"
      /><polygon style="fill:none; stroke:black;" points=" 95 64 95 116"
      /><polygon style="fill:none; stroke:black;" points=" 95 64 41 64"
      /><circle style="clip-path:url(#clipPath1); stroke:none;" r="11" cx="95" cy="64"
      /><rect x="84" y="53" width="22" style="clip-path:url(#clipPath1); fill:rgb(255,212,0); stroke:none;" height="22"
      /><rect x="84" y="53" width="22" style="clip-path:url(#clipPath1); fill:none; stroke:black;" height="22"
      /><circle style="fill:none; stroke:black;" r="11" cx="95" cy="64"
      /><rect x="82" y="35" width="25" style="stroke:none;" height="10"
    /></g
    ><g style="text-rendering:optimizeSpeed; font-size:14px; font-family:'SansSerif';"
    ><path style="stroke:none;" d="M86.1094 40.5781 C87.3438 40.5781 87.9688 41.4688 87.9688 42.8438 C87.9688 44.25 87.1875 45.1875 86.2188 45.1875 C84.9219 45.1875 84.1562 44.0312 84 41.8906 C84.625 40.9531 85.4531 40.5781 86.1094 40.5781 ZM86.2188 46.1875 C87.8125 46.1875 89.1562 44.8438 89.1562 42.8438 C89.1562 40.7031 88.0469 39.625 86.3125 39.625 C85.5 39.625 84.6094 40.1094 83.9688 40.875 C84.0312 37.6875 85.2188 36.6094 86.625 36.6094 C87.25 36.6094 87.8594 36.9062 88.2656 37.3906 L88.9688 36.5938 C88.4062 35.9844 87.6406 35.5469 86.5781 35.5469 C84.5938 35.5469 82.7812 37.0781 82.7812 41.0938 C82.7812 44.4844 84.2344 46.1875 86.2188 46.1875 ZM91.1762 46 L92.3481 46 L92.3481 40.3125 C92.3481 39.4375 92.2543 38.1875 92.1918 37.2969 L92.2543 37.2969 L93.0668 39.625 L95.0043 44.9688 L95.8793 44.9688 L97.8168 39.625 L98.6293 37.2969 L98.6918 37.2969 C98.6137 38.1875 98.52 39.4375 98.52 40.3125 L98.52 46 L99.7387 46 L99.7387 35.7188 L98.1762 35.7188 L96.2075 41.2188 C95.9731 41.9375 95.7543 42.6562 95.5043 43.375 L95.4418 43.375 C95.1918 42.6562 94.9575 41.9375 94.7075 41.2188 L92.7387 35.7188 L91.1762 35.7188 L91.1762 46 ZM105.4973 46.1875 C106.5285 46.1875 107.341 45.8281 108.0129 45.3906 L107.5442 44.5625 C106.9973 44.9375 106.3879 45.1562 105.6535 45.1562 C104.2004 45.1562 103.216 44.125 103.1223 42.5 L108.2473 42.5 C108.2785 42.3125 108.3098 42.0469 108.3098 41.7656 C108.3098 39.6094 107.216 38.2031 105.2785 38.2031 C103.5129 38.2031 101.8567 39.7344 101.8567 42.2031 C101.8567 44.7188 103.4817 46.1875 105.4973 46.1875 ZM103.1067 41.5781 C103.2629 40.0938 104.216 39.2188 105.2942 39.2188 C106.4817 39.2188 107.1848 40.0469 107.1848 41.5781 L103.1067 41.5781 Z"
    /></g
    ><g style="fill:white; text-rendering:optimizeSpeed; stroke:white;"
    ><polygon style="stroke:none; clip-path:url(#clipPath2);" points=" 95 105 106 127 84 127"
      /><rect x="84" y="105" width="22" style="clip-path:url(#clipPath2); fill:rgb(237,28,36); stroke:none;" height="22"
      /><rect x="84" y="105" width="22" style="clip-path:url(#clipPath2); fill:none; stroke:black;" height="22"
      /><polygon style="fill:none; stroke:black;" points=" 95 105 106 127 84 127"
      /><circle r="11" style="clip-path:url(#clipPath3); stroke:none;" cx="41" cy="64"
      /><rect x="30" y="53" width="22" style="clip-path:url(#clipPath3); fill:rgb(255,212,0); stroke:none;" height="22"
      /><rect x="30" y="53" width="22" style="clip-path:url(#clipPath3); fill:none; stroke:black;" height="22"
      /><circle r="11" style="fill:none; stroke:black;" cx="41" cy="64"
      /><rect x="100" width="6" height="9" y="78" style="stroke:none;"
      /><path d="M101.4219 86.0938 C102.0781 85.375 102.7031 84.7188 103.0312 84.3438 C104.9219 82.3125 105.5312 81.4688 105.5312 80.3594 C105.5312 79.0156 104.7812 78.0781 103.1562 78.0781 C101.9062 78.0781 100.7969 78.7031 100.5938 79.9688 C100.7188 80.2031 100.9062 80.3438 101.1562 80.3438 C101.4688 80.3438 101.6562 80.1094 101.7969 79.5938 L102.0938 78.6719 C102.3906 78.5938 102.6562 78.5625 102.8906 78.5625 C103.9219 78.5625 104.5469 79.3125 104.5469 80.4219 C104.5469 81.4375 103.9844 82.4219 102.7031 83.9062 C102.125 84.5781 101.3906 85.4375 100.6406 86.2812 L100.6406 87 L105.9219 87 L105.9219 86.0938 L101.4219 86.0938 Z" style="fill:black; stroke:none;"
      /><rect x="99" width="8" height="8" y="93" style="stroke:none;"
      /><path d="M103.9844 98.7031 C103.9375 99.8906 103.1562 100.6562 102.3125 100.6562 C101.2656 100.6562 100.5 99.6875 100.5 97.7188 C100.5 96.2812 101.1562 95.1562 102.3438 95.1562 C103.1406 95.1562 103.7812 95.6875 104.0938 96.6406 L103.9844 98.7031 ZM105.9062 100.2812 C105.7344 100.375 105.5469 100.4219 105.3438 100.4219 C104.9531 100.4219 104.75 100.2188 104.75 99.4219 C104.75 98.4844 104.9688 96.5312 105.1875 94.8281 L105.0312 94.7188 L104.2344 94.9219 L104.1406 95.7969 C103.7812 95.0312 103.1562 94.6562 102.3906 94.6562 C101.0469 94.6562 99.5625 95.8438 99.5625 97.9531 C99.5625 100.0938 100.7188 101.1719 102.1406 101.1719 C103.0156 101.1719 103.6875 100.8125 104.0938 99.9844 C104.2031 100.8594 104.5156 101.1719 105.0156 101.1719 C105.4688 101.1719 105.7969 100.9062 106.0156 100.5625 L105.9062 100.2812 Z" style="fill:black; stroke:none;"
      /><rect x="71" width="6" height="10" y="67" style="stroke:none;"
      /><path d="M73.2344 68.6562 C73.5156 68.5938 73.7656 68.5625 74.0156 68.5625 C75.0625 68.5625 75.6719 69.1719 75.6719 70.2656 C75.6719 71.4375 74.9062 72.1094 73.7031 72.1094 L73.1875 72.1094 L73.1875 72.6406 L73.7969 72.6406 C75.2188 72.6406 75.9062 73.4219 75.9062 74.6406 C75.9062 75.8438 75.1719 76.6875 73.875 76.6875 C73.6094 76.6875 73.3125 76.6562 73.0156 76.5625 L72.7812 75.8125 C72.625 75.2812 72.5 75.0469 72.1406 75.0469 C71.8906 75.0469 71.7031 75.1719 71.5781 75.4219 C71.8438 76.6406 72.7812 77.1719 74.0312 77.1719 C75.7188 77.1719 76.875 76.125 76.875 74.7031 C76.875 73.5 76.2031 72.625 74.7969 72.375 C75.9531 72.0156 76.6094 71.2031 76.6094 70.2031 C76.6094 68.9219 75.6719 68.0781 74.1875 68.0781 C73.0469 68.0781 72.0625 68.5938 71.7969 69.6875 C71.9062 70 72.1094 70.1094 72.3594 70.1094 C72.7344 70.1094 72.8906 69.8906 73 69.4062 L73.2344 68.6562 Z" style="fill:black; stroke:none;"
      /><rect x="56" width="8" height="8" y="68" style="stroke:none;"
      /><path d="M60.9844 73.7031 C60.9375 74.8906 60.1562 75.6562 59.3125 75.6562 C58.2656 75.6562 57.5 74.6875 57.5 72.7188 C57.5 71.2812 58.1562 70.1562 59.3438 70.1562 C60.1406 70.1562 60.7812 70.6875 61.0938 71.6406 L60.9844 73.7031 ZM62.9062 75.2812 C62.7344 75.375 62.5469 75.4219 62.3438 75.4219 C61.9531 75.4219 61.75 75.2188 61.75 74.4219 C61.75 73.4844 61.9688 71.5312 62.1875 69.8281 L62.0312 69.7188 L61.2344 69.9219 L61.1406 70.7969 C60.7812 70.0312 60.1562 69.6562 59.3906 69.6562 C58.0469 69.6562 56.5625 70.8438 56.5625 72.9531 C56.5625 75.0938 57.7188 76.1719 59.1406 76.1719 C60.0156 76.1719 60.6875 75.8125 61.0938 74.9844 C61.2031 75.8594 61.5156 76.1719 62.0156 76.1719 C62.4688 76.1719 62.7969 75.9062 63.0156 75.5625 L62.9062 75.2812 Z" style="fill:black; stroke:none;"
      /><rect x="114" width="5" height="10" y="67" style="stroke:none;"
      /><path d="M115.8906 75.6875 C115.4844 75.6875 115.1562 76.0469 115.1562 76.4219 C115.1562 76.8125 115.4844 77.1562 115.8906 77.1562 C116.2969 77.1562 116.6406 76.8125 116.6406 76.4219 C116.6406 76.0469 116.2969 75.6875 115.8906 75.6875 ZM117.4688 69.5781 C117.7188 69.8906 117.875 70.2656 117.8906 70.6562 C117.8906 71.1875 117.625 71.5 117.0312 71.7656 L116.4062 72.0156 C115.6406 72.3125 115.3906 72.5469 115.3906 72.9375 C115.3906 73.1094 115.4531 73.3438 115.5781 73.8125 L115.7344 74.3438 L116.1094 74.3438 L116.0938 73.5312 C116.0938 73.0938 116.2031 72.9688 116.7812 72.7344 L117.2031 72.5625 C118.0312 72.2188 118.4531 71.6875 118.4531 70.8438 C118.4531 69.1562 116.6562 68.1875 115.5 68.0312 C115.1094 68.125 114.9062 68.2969 114.9062 68.6406 C114.9062 68.9375 115.0625 69.1562 115.7188 69.2656 L117.4688 69.5781 Z" style="fill:black; stroke:none;"
    /></g
  ></g
></svg
>
