<?xml version="1.0"?>
<!DOCTYPE svg PUBLIC '-//W3C//DTD SVG 1.0//EN'
          'http://www.w3.org/TR/2001/REC-SVG-20010904/DTD/svg10.dtd'>
<svg xmlns:xlink="http://www.w3.org/1999/xlink" style="fill-opacity:1; color-rendering:auto; color-interpolation:auto; text-rendering:auto; stroke:black; stroke-linecap:square; stroke-miterlimit:10; shape-rendering:auto; stroke-opacity:1; fill:black; stroke-dasharray:none; font-weight:normal; stroke-width:1; font-family:'Dialog'; font-style:normal; stroke-linejoin:miter; font-size:12px; stroke-dashoffset:0; image-rendering:auto;" viewBox="0 0 342 160" xmlns="http://www.w3.org/2000/svg"
><!--Generated by the Batik Graphics2D SVG Generator--><defs id="genericDefs"
  /><g
  ><defs id="defs1"
    ><clipPath clipPathUnits="userSpaceOnUse" id="clipPath1"
      ><path d="M238 56 L260 56 L260 78 L238 78 L238 56 Z"
      /></clipPath
      ><clipPath clipPathUnits="userSpaceOnUse" id="clipPath2"
      ><path d="M186 56 L208 56 L208 78 L186 78 L186 56 Z"
      /></clipPath
      ><clipPath clipPathUnits="userSpaceOnUse" id="clipPath3"
      ><path d="M156 67 C156 73.0751 151.0751 78 145 78 C138.9249 78 134 73.0751 134 67 C134 60.9249 138.9249 56 145 56 C151.0751 56 156 60.9249 156 67 Z"
      /></clipPath
      ><clipPath clipPathUnits="userSpaceOnUse" id="clipPath4"
      ><path d="M104 93 C104 99.0751 99.0751 104 93 104 C86.9249 104 82 99.0751 82 93 C82 86.9249 86.9249 82 93 82 C99.0751 82 104 86.9249 104 93 Z"
      /></clipPath
      ><clipPath clipPathUnits="userSpaceOnUse" id="clipPath5"
      ><path d="M52 119 C52 125.0751 47.0751 130 41 130 C34.9249 130 30 125.0751 30 119 C30 112.9249 34.9249 108 41 108 C47.0751 108 52 112.9249 52 119 Z"
      /></clipPath
      ><clipPath clipPathUnits="userSpaceOnUse" id="clipPath6"
      ><path d="M52 67 C52 73.0751 47.0751 78 41 78 C34.9249 78 30 73.0751 30 67 C30 60.9249 34.9249 56 41 56 C47.0751 56 52 60.9249 52 67 Z"
      /></clipPath
      ><clipPath clipPathUnits="userSpaceOnUse" id="clipPath7"
      ><path d="M104 41 C104 47.0751 99.0751 52 93 52 C86.9249 52 82 47.0751 82 41 C82 34.9249 86.9249 30 93 30 C99.0751 30 104 34.9249 104 41 Z"
      /></clipPath
    ></defs
    ><g style="fill:white; text-rendering:optimizeSpeed; stroke:white;"
    ><rect x="0" width="342" height="160" y="0" style="stroke:none;"
      /><polygon style="fill:none; stroke:black;" points=" 301 67 249 67"
      /><path d="M301 56 C295.5 61.5 306.5 72.5 301 78" style="fill:none; stroke:black;"
      /><polygon style="fill:none; stroke:black;" points=" 249 67 197 67"
      /><rect x="238" y="56" width="22" style="clip-path:url(#clipPath1); stroke:none;" height="22"
      /><rect x="238" y="56" width="22" style="clip-path:url(#clipPath1); fill:rgb(0,144,188); stroke:none;" height="22"
      /><rect x="238" y="56" width="22" style="clip-path:url(#clipPath1); fill:none; stroke:black;" height="22"
      /><rect x="238" y="56" width="22" style="fill:none; stroke:black;" height="22"
      /><polygon style="fill:none; stroke:black;" points=" 197 67 145 67"
      /><rect x="186" y="56" width="22" style="clip-path:url(#clipPath2); stroke:none;" height="22"
      /><rect x="186" y="56" width="22" style="clip-path:url(#clipPath2); fill:rgb(0,144,188); stroke:none;" height="22"
      /><rect x="186" y="56" width="22" style="clip-path:url(#clipPath2); fill:none; stroke:black;" height="22"
      /><rect x="186" y="56" width="22" style="fill:none; stroke:black;" height="22"
      /><polygon style="fill:none; stroke:black;" points=" 145 67 93 93"
      /><polygon style="fill:none; stroke:black;" points=" 145 67 93 41"
      /><circle style="clip-path:url(#clipPath3); stroke:none;" r="11" cx="145" cy="67"
      /><rect x="134" y="56" width="22" style="clip-path:url(#clipPath3); fill:rgb(0,166,81); stroke:none;" height="22"
      /><rect x="134" y="56" width="22" style="clip-path:url(#clipPath3); fill:none; stroke:black;" height="22"
      /><circle style="fill:none; stroke:black;" r="11" cx="145" cy="67"
      /><polygon style="fill:none; stroke:black;" points=" 93 93 41 119"
      /><polygon style="fill:none; stroke:black;" points=" 93 93 41 67"
      /><circle style="clip-path:url(#clipPath4); stroke:none;" r="11" cx="93" cy="93"
      /><rect x="82" y="82" width="22" style="clip-path:url(#clipPath4); fill:rgb(0,166,81); stroke:none;" height="22"
      /><rect x="82" y="82" width="22" style="clip-path:url(#clipPath4); fill:none; stroke:black;" height="22"
      /><circle style="fill:none; stroke:black;" r="11" cx="93" cy="93"
      /><circle style="clip-path:url(#clipPath5); stroke:none;" r="11" cx="41" cy="119"
      /><rect x="30" y="108" width="22" style="clip-path:url(#clipPath5); fill:rgb(0,166,81); stroke:none;" height="22"
      /><rect x="30" y="108" width="22" style="clip-path:url(#clipPath5); fill:none; stroke:black;" height="22"
      /><circle style="fill:none; stroke:black;" r="11" cx="41" cy="119"
      /><circle style="clip-path:url(#clipPath6); stroke:none;" r="11" cx="41" cy="67"
      /><rect x="30" y="56" width="22" style="clip-path:url(#clipPath6); fill:rgb(0,166,81); stroke:none;" height="22"
      /><rect x="30" y="56" width="22" style="clip-path:url(#clipPath6); fill:none; stroke:black;" height="22"
      /><circle style="fill:none; stroke:black;" r="11" cx="41" cy="67"
      /><rect x="75" y="104" width="5" style="stroke:none;" height="10"
    /></g
    ><g style="font-family:'Serif'; text-rendering:optimizeSpeed; "
    ><path style="stroke:none;" d="M76.8906 112.6875 C76.4844 112.6875 76.1562 113.0469 76.1562 113.4219 C76.1562 113.8125 76.4844 114.1562 76.8906 114.1562 C77.2969 114.1562 77.6406 113.8125 77.6406 113.4219 C77.6406 113.0469 77.2969 112.6875 76.8906 112.6875 ZM78.4688 106.5781 C78.7188 106.8906 78.875 107.2656 78.8906 107.6562 C78.8906 108.1875 78.625 108.5 78.0312 108.7656 L77.4062 109.0156 C76.6406 109.3125 76.3906 109.5469 76.3906 109.9375 C76.3906 110.1094 76.4531 110.3438 76.5781 110.8125 L76.7344 111.3438 L77.1094 111.3438 L77.0938 110.5312 C77.0938 110.0938 77.2031 109.9688 77.7812 109.7344 L78.2031 109.5625 C79.0312 109.2188 79.4531 108.6875 79.4531 107.8438 C79.4531 106.1562 77.6562 105.1875 76.5 105.0312 C76.1094 105.125 75.9062 105.2969 75.9062 105.6406 C75.9062 105.9375 76.0625 106.1562 76.7188 106.2656 L78.4688 106.5781 Z"
      /><rect x="60" y="112" width="5" style="fill:white; stroke:none;" height="10"
      /><path style="stroke:none;" d="M61.8906 120.6875 C61.4844 120.6875 61.1562 121.0469 61.1562 121.4219 C61.1562 121.8125 61.4844 122.1562 61.8906 122.1562 C62.2969 122.1562 62.6406 121.8125 62.6406 121.4219 C62.6406 121.0469 62.2969 120.6875 61.8906 120.6875 ZM63.4688 114.5781 C63.7188 114.8906 63.875 115.2656 63.8906 115.6562 C63.8906 116.1875 63.625 116.5 63.0312 116.7656 L62.4062 117.0156 C61.6406 117.3125 61.3906 117.5469 61.3906 117.9375 C61.3906 118.1094 61.4531 118.3438 61.5781 118.8125 L61.7344 119.3438 L62.1094 119.3438 L62.0938 118.5312 C62.0938 118.0938 62.2031 117.9688 62.7812 117.7344 L63.2031 117.5625 C64.0312 117.2188 64.4531 116.6875 64.4531 115.8438 C64.4531 114.1562 62.6562 113.1875 61.5 113.0312 C61.1094 113.125 60.9062 113.2969 60.9062 113.6406 C60.9062 113.9375 61.0625 114.1562 61.7188 114.2656 L63.4688 114.5781 Z"
      /><rect x="68" y="86" width="5" style="fill:white; stroke:none;" height="10"
      /><path style="stroke:none;" d="M69.8906 94.6875 C69.4844 94.6875 69.1562 95.0469 69.1562 95.4219 C69.1562 95.8125 69.4844 96.1562 69.8906 96.1562 C70.2969 96.1562 70.6406 95.8125 70.6406 95.4219 C70.6406 95.0469 70.2969 94.6875 69.8906 94.6875 ZM71.4688 88.5781 C71.7188 88.8906 71.875 89.2656 71.8906 89.6562 C71.8906 90.1875 71.625 90.5 71.0312 90.7656 L70.4062 91.0156 C69.6406 91.3125 69.3906 91.5469 69.3906 91.9375 C69.3906 92.1094 69.4531 92.3438 69.5781 92.8125 L69.7344 93.3438 L70.1094 93.3438 L70.0938 92.5312 C70.0938 92.0938 70.2031 91.9688 70.7812 91.7344 L71.2031 91.5625 C72.0312 91.2188 72.4531 90.6875 72.4531 89.8438 C72.4531 88.1562 70.6562 87.1875 69.5 87.0312 C69.1094 87.125 68.9062 87.2969 68.9062 87.6406 C68.9062 87.9375 69.0625 88.1562 69.7188 88.2656 L71.4688 88.5781 Z"
      /><rect x="53" y="78" width="5" style="fill:white; stroke:none;" height="10"
      /><path style="stroke:none;" d="M54.8906 86.6875 C54.4844 86.6875 54.1562 87.0469 54.1562 87.4219 C54.1562 87.8125 54.4844 88.1562 54.8906 88.1562 C55.2969 88.1562 55.6406 87.8125 55.6406 87.4219 C55.6406 87.0469 55.2969 86.6875 54.8906 86.6875 ZM56.4688 80.5781 C56.7188 80.8906 56.875 81.2656 56.8906 81.6562 C56.8906 82.1875 56.625 82.5 56.0312 82.7656 L55.4062 83.0156 C54.6406 83.3125 54.3906 83.5469 54.3906 83.9375 C54.3906 84.1094 54.4531 84.3438 54.5781 84.8125 L54.7344 85.3438 L55.1094 85.3438 L55.0938 84.5312 C55.0938 84.0938 55.2031 83.9688 55.7812 83.7344 L56.2031 83.5625 C57.0312 83.2188 57.4531 82.6875 57.4531 81.8438 C57.4531 80.1562 55.6562 79.1875 54.5 79.0312 C54.1094 79.125 53.9062 79.2969 53.9062 79.6406 C53.9062 79.9375 54.0625 80.1562 54.7188 80.2656 L56.4688 80.5781 Z"
      /><circle style="fill:white; clip-path:url(#clipPath7); stroke:none;" r="11" cx="93" cy="41"
      /><rect x="82" y="30" width="22" style="clip-path:url(#clipPath7); fill:rgb(0,166,81); stroke:none;" height="22"
      /><rect x="82" y="30" width="22" style="fill:none; clip-path:url(#clipPath7);" height="22"
      /><circle r="11" style="fill:none;" cx="93" cy="41"
      /><rect x="127" y="78" width="5" style="fill:white; stroke:none;" height="10"
      /><path style="stroke:none;" d="M128.8906 86.6875 C128.4844 86.6875 128.1562 87.0469 128.1562 87.4219 C128.1562 87.8125 128.4844 88.1562 128.8906 88.1562 C129.2969 88.1562 129.6406 87.8125 129.6406 87.4219 C129.6406 87.0469 129.2969 86.6875 128.8906 86.6875 ZM130.4688 80.5781 C130.7188 80.8906 130.875 81.2656 130.8906 81.6562 C130.8906 82.1875 130.625 82.5 130.0312 82.7656 L129.4062 83.0156 C128.6406 83.3125 128.3906 83.5469 128.3906 83.9375 C128.3906 84.1094 128.4531 84.3438 128.5781 84.8125 L128.7344 85.3438 L129.1094 85.3438 L129.0938 84.5312 C129.0938 84.0938 129.2031 83.9688 129.7812 83.7344 L130.2031 83.5625 C131.0312 83.2188 131.4531 82.6875 131.4531 81.8438 C131.4531 80.1562 129.6562 79.1875 128.5 79.0312 C128.1094 79.125 127.9062 79.2969 127.9062 79.6406 C127.9062 79.9375 128.0625 80.1562 128.7188 80.2656 L130.4688 80.5781 Z"
      /><rect x="112" y="86" width="5" style="fill:white; stroke:none;" height="10"
      /><path style="stroke:none;" d="M113.8906 94.6875 C113.4844 94.6875 113.1562 95.0469 113.1562 95.4219 C113.1562 95.8125 113.4844 96.1562 113.8906 96.1562 C114.2969 96.1562 114.6406 95.8125 114.6406 95.4219 C114.6406 95.0469 114.2969 94.6875 113.8906 94.6875 ZM115.4688 88.5781 C115.7188 88.8906 115.875 89.2656 115.8906 89.6562 C115.8906 90.1875 115.625 90.5 115.0312 90.7656 L114.4062 91.0156 C113.6406 91.3125 113.3906 91.5469 113.3906 91.9375 C113.3906 92.1094 113.4531 92.3438 113.5781 92.8125 L113.7344 93.3438 L114.1094 93.3438 L114.0938 92.5312 C114.0938 92.0938 114.2031 91.9688 114.7812 91.7344 L115.2031 91.5625 C116.0312 91.2188 116.4531 90.6875 116.4531 89.8438 C116.4531 88.1562 114.6562 87.1875 113.5 87.0312 C113.1094 87.125 112.9062 87.2969 112.9062 87.6406 C112.9062 87.9375 113.0625 88.1562 113.7188 88.2656 L115.4688 88.5781 Z"
      /><rect x="120" y="60" width="5" style="fill:white; stroke:none;" height="10"
      /><path style="stroke:none;" d="M121.8906 68.6875 C121.4844 68.6875 121.1562 69.0469 121.1562 69.4219 C121.1562 69.8125 121.4844 70.1562 121.8906 70.1562 C122.2969 70.1562 122.6406 69.8125 122.6406 69.4219 C122.6406 69.0469 122.2969 68.6875 121.8906 68.6875 ZM123.4688 62.5781 C123.7188 62.8906 123.875 63.2656 123.8906 63.6562 C123.8906 64.1875 123.625 64.5 123.0312 64.7656 L122.4062 65.0156 C121.6406 65.3125 121.3906 65.5469 121.3906 65.9375 C121.3906 66.1094 121.4531 66.3438 121.5781 66.8125 L121.7344 67.3438 L122.1094 67.3438 L122.0938 66.5312 C122.0938 66.0938 122.2031 65.9688 122.7812 65.7344 L123.2031 65.5625 C124.0312 65.2188 124.4531 64.6875 124.4531 63.8438 C124.4531 62.1562 122.6562 61.1875 121.5 61.0312 C121.1094 61.125 120.9062 61.2969 120.9062 61.6406 C120.9062 61.9375 121.0625 62.1562 121.7188 62.2656 L123.4688 62.5781 Z"
      /><rect x="105" y="52" width="5" style="fill:white; stroke:none;" height="10"
      /><path style="stroke:none;" d="M106.8906 60.6875 C106.4844 60.6875 106.1562 61.0469 106.1562 61.4219 C106.1562 61.8125 106.4844 62.1562 106.8906 62.1562 C107.2969 62.1562 107.6406 61.8125 107.6406 61.4219 C107.6406 61.0469 107.2969 60.6875 106.8906 60.6875 ZM108.4688 54.5781 C108.7188 54.8906 108.875 55.2656 108.8906 55.6562 C108.8906 56.1875 108.625 56.5 108.0312 56.7656 L107.4062 57.0156 C106.6406 57.3125 106.3906 57.5469 106.3906 57.9375 C106.3906 58.1094 106.4531 58.3438 106.5781 58.8125 L106.7344 59.3438 L107.1094 59.3438 L107.0938 58.5312 C107.0938 58.0938 107.2031 57.9688 107.7812 57.7344 L108.2031 57.5625 C109.0312 57.2188 109.4531 56.6875 109.4531 55.8438 C109.4531 54.1562 107.6562 53.1875 106.5 53.0312 C106.1094 53.125 105.9062 53.2969 105.9062 53.6406 C105.9062 53.9375 106.0625 54.1562 106.7188 54.2656 L108.4688 54.5781 Z"
      /><rect x="175" y="70" width="5" style="fill:white; stroke:none;" height="10"
      /><path style="stroke:none;" d="M176.8906 78.6875 C176.4844 78.6875 176.1562 79.0469 176.1562 79.4219 C176.1562 79.8125 176.4844 80.1562 176.8906 80.1562 C177.2969 80.1562 177.6406 79.8125 177.6406 79.4219 C177.6406 79.0469 177.2969 78.6875 176.8906 78.6875 ZM178.4688 72.5781 C178.7188 72.8906 178.875 73.2656 178.8906 73.6562 C178.8906 74.1875 178.625 74.5 178.0312 74.7656 L177.4062 75.0156 C176.6406 75.3125 176.3906 75.5469 176.3906 75.9375 C176.3906 76.1094 176.4531 76.3438 176.5781 76.8125 L176.7344 77.3438 L177.1094 77.3438 L177.0938 76.5312 C177.0938 76.0938 177.2031 75.9688 177.7812 75.7344 L178.2031 75.5625 C179.0312 75.2188 179.4531 74.6875 179.4531 73.8438 C179.4531 72.1562 177.6562 71.1875 176.5 71.0312 C176.1094 71.125 175.9062 71.2969 175.9062 71.6406 C175.9062 71.9375 176.0625 72.1562 176.7188 72.2656 L178.4688 72.5781 Z"
      /><rect x="161" y="70" width="5" style="fill:white; stroke:none;" height="10"
      /><path style="stroke:none;" d="M162.8906 78.6875 C162.4844 78.6875 162.1562 79.0469 162.1562 79.4219 C162.1562 79.8125 162.4844 80.1562 162.8906 80.1562 C163.2969 80.1562 163.6406 79.8125 163.6406 79.4219 C163.6406 79.0469 163.2969 78.6875 162.8906 78.6875 ZM164.4688 72.5781 C164.7188 72.8906 164.875 73.2656 164.8906 73.6562 C164.8906 74.1875 164.625 74.5 164.0312 74.7656 L163.4062 75.0156 C162.6406 75.3125 162.3906 75.5469 162.3906 75.9375 C162.3906 76.1094 162.4531 76.3438 162.5781 76.8125 L162.7344 77.3438 L163.1094 77.3438 L163.0938 76.5312 C163.0938 76.0938 163.2031 75.9688 163.7812 75.7344 L164.2031 75.5625 C165.0312 75.2188 165.4531 74.6875 165.4531 73.8438 C165.4531 72.1562 163.6562 71.1875 162.5 71.0312 C162.1094 71.125 161.9062 71.2969 161.9062 71.6406 C161.9062 71.9375 162.0625 72.1562 162.7188 72.2656 L164.4688 72.5781 Z"
      /><rect x="227" y="70" width="5" style="fill:white; stroke:none;" height="10"
      /><path style="stroke:none;" d="M228.8906 78.6875 C228.4844 78.6875 228.1562 79.0469 228.1562 79.4219 C228.1562 79.8125 228.4844 80.1562 228.8906 80.1562 C229.2969 80.1562 229.6406 79.8125 229.6406 79.4219 C229.6406 79.0469 229.2969 78.6875 228.8906 78.6875 ZM230.4688 72.5781 C230.7188 72.8906 230.875 73.2656 230.8906 73.6562 C230.8906 74.1875 230.625 74.5 230.0312 74.7656 L229.4062 75.0156 C228.6406 75.3125 228.3906 75.5469 228.3906 75.9375 C228.3906 76.1094 228.4531 76.3438 228.5781 76.8125 L228.7344 77.3438 L229.1094 77.3438 L229.0938 76.5312 C229.0938 76.0938 229.2031 75.9688 229.7812 75.7344 L230.2031 75.5625 C231.0312 75.2188 231.4531 74.6875 231.4531 73.8438 C231.4531 72.1562 229.6562 71.1875 228.5 71.0312 C228.1094 71.125 227.9062 71.2969 227.9062 71.6406 C227.9062 71.9375 228.0625 72.1562 228.7188 72.2656 L230.4688 72.5781 Z"
      /><rect x="213" y="70" width="5" style="fill:white; stroke:none;" height="10"
      /><path style="stroke:none;" d="M214.8906 78.6875 C214.4844 78.6875 214.1562 79.0469 214.1562 79.4219 C214.1562 79.8125 214.4844 80.1562 214.8906 80.1562 C215.2969 80.1562 215.6406 79.8125 215.6406 79.4219 C215.6406 79.0469 215.2969 78.6875 214.8906 78.6875 ZM216.4688 72.5781 C216.7188 72.8906 216.875 73.2656 216.8906 73.6562 C216.8906 74.1875 216.625 74.5 216.0312 74.7656 L215.4062 75.0156 C214.6406 75.3125 214.3906 75.5469 214.3906 75.9375 C214.3906 76.1094 214.4531 76.3438 214.5781 76.8125 L214.7344 77.3438 L215.1094 77.3438 L215.0938 76.5312 C215.0938 76.0938 215.2031 75.9688 215.7812 75.7344 L216.2031 75.5625 C217.0312 75.2188 217.4531 74.6875 217.4531 73.8438 C217.4531 72.1562 215.6562 71.1875 214.5 71.0312 C214.1094 71.125 213.9062 71.2969 213.9062 71.6406 C213.9062 71.9375 214.0625 72.1562 214.7188 72.2656 L216.4688 72.5781 Z"
      /><rect x="265" y="70" width="5" style="fill:white; stroke:none;" height="10"
      /><path style="stroke:none;" d="M266.8906 78.6875 C266.4844 78.6875 266.1562 79.0469 266.1562 79.4219 C266.1562 79.8125 266.4844 80.1562 266.8906 80.1562 C267.2969 80.1562 267.6406 79.8125 267.6406 79.4219 C267.6406 79.0469 267.2969 78.6875 266.8906 78.6875 ZM268.4688 72.5781 C268.7188 72.8906 268.875 73.2656 268.8906 73.6562 C268.8906 74.1875 268.625 74.5 268.0312 74.7656 L267.4062 75.0156 C266.6406 75.3125 266.3906 75.5469 266.3906 75.9375 C266.3906 76.1094 266.4531 76.3438 266.5781 76.8125 L266.7344 77.3438 L267.1094 77.3438 L267.0938 76.5312 C267.0938 76.0938 267.2031 75.9688 267.7812 75.7344 L268.2031 75.5625 C269.0312 75.2188 269.4531 74.6875 269.4531 73.8438 C269.4531 72.1562 267.6562 71.1875 266.5 71.0312 C266.1094 71.125 265.9062 71.2969 265.9062 71.6406 C265.9062 71.9375 266.0625 72.1562 266.7188 72.2656 L268.4688 72.5781 Z"
    /></g
  ></g
></svg
>
