<?xml version="1.0"?>
<!DOCTYPE svg PUBLIC '-//W3C//DTD SVG 1.0//EN'
          'http://www.w3.org/TR/2001/REC-SVG-20010904/DTD/svg10.dtd'>
<svg xmlns:xlink="http://www.w3.org/1999/xlink" style="fill-opacity:1; color-rendering:auto; color-interpolation:auto; text-rendering:auto; stroke:black; stroke-linecap:square; stroke-miterlimit:10; shape-rendering:auto; stroke-opacity:1; fill:black; stroke-dasharray:none; font-weight:normal; stroke-width:1; font-family:'Dialog'; font-style:normal; stroke-linejoin:miter; font-size:12px; stroke-dashoffset:0; image-rendering:auto;" viewBox="0 0 196 128" xmlns="http://www.w3.org/2000/svg"
><!--Generated by the Batik Graphics2D SVG Generator--><defs id="genericDefs"
  /><g
  ><defs id="defs1"
    ><clipPath clipPathUnits="userSpaceOnUse" id="clipPath1"
      ><path style="fill-rule:evenodd;" d="M100 53 L111 75 L89 75 Z"
      /></clipPath
      ><clipPath clipPathUnits="userSpaceOnUse" id="clipPath2"
      ><path style="fill-rule:evenodd;" d="M43 53 L54 75 L32 75 Z"
      /></clipPath
    ></defs
    ><g style="fill:white; text-rendering:optimizeSpeed; stroke:white;"
    ><rect x="0" width="196" height="128" y="0" style="stroke:none;"
      /><polygon style="fill:none; stroke:black;" points=" 155 64 100 64"
      /><path d="M155 53 C149.5 58.5 160.5 69.5 155 75" style="fill:none; stroke:black;"
      /><polygon style="fill:none; stroke:black;" points=" 100 64 43 64"
      /><polygon style="clip-path:url(#clipPath1); stroke:none;" points=" 100 53 111 75 89 75"
      /><rect x="89" y="53" width="22" style="clip-path:url(#clipPath1); fill:rgb(0,166,81); stroke:none;" height="22"
      /><rect x="89" y="53" width="22" style="clip-path:url(#clipPath1); fill:none; stroke:black;" height="22"
      /><polygon style="fill:none; stroke:black;" points=" 100 53 111 75 89 75"
      /><rect x="87" y="81" width="25" style="stroke:none;" height="10"
    /></g
    ><g style="text-rendering:optimizeSpeed; font-size:14px; font-family:'SansSerif';"
    ><path style="stroke:none;" d="M90.7031 92.1875 C92.5156 92.1875 93.9844 91.0938 93.9844 89.25 C93.9844 87.8594 93.0156 86.9375 91.8125 86.6562 L91.8125 86.5938 C92.8906 86.1875 93.6406 85.3594 93.6406 84.125 C93.6406 82.5 92.375 81.5469 90.6562 81.5469 C89.4688 81.5469 88.5469 82.0625 87.7812 82.7812 L88.4688 83.5938 C89.0469 83 89.7656 82.5938 90.5938 82.5938 C91.6562 82.5938 92.3281 83.2344 92.3281 84.2188 C92.3281 85.3281 91.6094 86.1719 89.4844 86.1719 L89.4844 87.1562 C91.8594 87.1562 92.6875 87.9844 92.6875 89.2031 C92.6875 90.3906 91.8125 91.125 90.5938 91.125 C89.4375 91.125 88.6562 90.5781 88.0469 89.9375 L87.4062 90.7812 C88.0781 91.5156 89.0938 92.1875 90.7031 92.1875 ZM96.1762 92 L97.3481 92 L97.3481 86.3125 C97.3481 85.4375 97.2543 84.1875 97.1918 83.2969 L97.2543 83.2969 L98.0668 85.625 L100.0043 90.9688 L100.8793 90.9688 L102.8168 85.625 L103.6293 83.2969 L103.6918 83.2969 C103.6137 84.1875 103.52 85.4375 103.52 86.3125 L103.52 92 L104.7387 92 L104.7387 81.7188 L103.1762 81.7188 L101.2075 87.2188 C100.9731 87.9375 100.7543 88.6562 100.5043 89.375 L100.4418 89.375 C100.1918 88.6562 99.9575 87.9375 99.7075 87.2188 L97.7387 81.7188 L96.1762 81.7188 L96.1762 92 ZM110.4973 92.1875 C111.5285 92.1875 112.341 91.8281 113.0129 91.3906 L112.5442 90.5625 C111.9973 90.9375 111.3879 91.1562 110.6535 91.1562 C109.2004 91.1562 108.216 90.125 108.1223 88.5 L113.2473 88.5 C113.2785 88.3125 113.3098 88.0469 113.3098 87.7656 C113.3098 85.6094 112.216 84.2031 110.2785 84.2031 C108.5129 84.2031 106.8567 85.7344 106.8567 88.2031 C106.8567 90.7188 108.4817 92.1875 110.4973 92.1875 ZM108.1067 87.5781 C108.2629 86.0938 109.216 85.2188 110.2942 85.2188 C111.4817 85.2188 112.1848 86.0469 112.1848 87.5781 L108.1067 87.5781 Z"
      /><rect x="86" y="35" width="26" style="fill:white; stroke:none;" height="10"
      /><path style="stroke:none;" d="M87.6094 42.1562 L89.9531 38.6562 C90.2344 38.1406 90.5156 37.6406 90.7812 37.1406 L90.8281 37.1406 C90.7969 37.6719 90.7656 38.5 90.7656 39 L90.7656 42.1562 L87.6094 42.1562 ZM90.7656 46 L91.9688 46 L91.9688 43.1719 L93.3281 43.1719 L93.3281 42.1562 L91.9688 42.1562 L91.9688 35.7188 L90.5469 35.7188 L86.2812 42.3281 L86.2812 43.1719 L90.7656 43.1719 L90.7656 46 ZM95.1762 46 L96.3481 46 L96.3481 40.3125 C96.3481 39.4375 96.2543 38.1875 96.1918 37.2969 L96.2543 37.2969 L97.0668 39.625 L99.0043 44.9688 L99.8793 44.9688 L101.8168 39.625 L102.6293 37.2969 L102.6918 37.2969 C102.6137 38.1875 102.52 39.4375 102.52 40.3125 L102.52 46 L103.7387 46 L103.7387 35.7188 L102.1762 35.7188 L100.2075 41.2188 C99.9731 41.9375 99.7543 42.6562 99.5043 43.375 L99.4418 43.375 C99.1918 42.6562 98.9575 41.9375 98.7075 41.2188 L96.7387 35.7188 L95.1762 35.7188 L95.1762 46 ZM109.4973 46.1875 C110.5285 46.1875 111.341 45.8281 112.0129 45.3906 L111.5442 44.5625 C110.9973 44.9375 110.3879 45.1562 109.6535 45.1562 C108.2004 45.1562 107.216 44.125 107.1223 42.5 L112.2473 42.5 C112.2785 42.3125 112.3098 42.0469 112.3098 41.7656 C112.3098 39.6094 111.216 38.2031 109.2785 38.2031 C107.5129 38.2031 105.8567 39.7344 105.8567 42.2031 C105.8567 44.7188 107.4817 46.1875 109.4973 46.1875 ZM107.1067 41.5781 C107.2629 40.0938 108.216 39.2188 109.2942 39.2188 C110.4817 39.2188 111.1848 40.0469 111.1848 41.5781 L107.1067 41.5781 Z"
    /></g
    ><g style="fill:white; text-rendering:optimizeSpeed; stroke:white;"
    ><polygon style="stroke:none; clip-path:url(#clipPath2);" points=" 43 53 54 75 32 75"
      /><rect x="32" y="53" width="22" style="clip-path:url(#clipPath2); fill:rgb(0,166,81); stroke:none;" height="22"
      /><rect x="32" y="53" width="22" style="clip-path:url(#clipPath2); fill:none; stroke:black;" height="22"
      /><polygon style="fill:none; stroke:black;" points=" 43 53 54 75 32 75"
      /><rect x="30" width="25" height="10" y="81" style="stroke:none;"
    /></g
    ><g style="text-rendering:optimizeSpeed; font-size:14px; font-family:'SansSerif';"
    ><path style="stroke:none;" d="M33.7031 92.1875 C35.5156 92.1875 36.9844 91.0938 36.9844 89.25 C36.9844 87.8594 36.0156 86.9375 34.8125 86.6562 L34.8125 86.5938 C35.8906 86.1875 36.6406 85.3594 36.6406 84.125 C36.6406 82.5 35.375 81.5469 33.6562 81.5469 C32.4688 81.5469 31.5469 82.0625 30.7812 82.7812 L31.4688 83.5938 C32.0469 83 32.7656 82.5938 33.5938 82.5938 C34.6562 82.5938 35.3281 83.2344 35.3281 84.2188 C35.3281 85.3281 34.6094 86.1719 32.4844 86.1719 L32.4844 87.1562 C34.8594 87.1562 35.6875 87.9844 35.6875 89.2031 C35.6875 90.3906 34.8125 91.125 33.5938 91.125 C32.4375 91.125 31.6562 90.5781 31.0469 89.9375 L30.4062 90.7812 C31.0781 91.5156 32.0938 92.1875 33.7031 92.1875 ZM39.1762 92 L40.3481 92 L40.3481 86.3125 C40.3481 85.4375 40.2543 84.1875 40.1918 83.2969 L40.2543 83.2969 L41.0668 85.625 L43.0043 90.9688 L43.8793 90.9688 L45.8168 85.625 L46.6293 83.2969 L46.6918 83.2969 C46.6137 84.1875 46.52 85.4375 46.52 86.3125 L46.52 92 L47.7387 92 L47.7387 81.7188 L46.1762 81.7188 L44.2075 87.2188 C43.9731 87.9375 43.7543 88.6562 43.5043 89.375 L43.4418 89.375 C43.1918 88.6562 42.9575 87.9375 42.7075 87.2188 L40.7387 81.7188 L39.1762 81.7188 L39.1762 92 ZM53.4973 92.1875 C54.5285 92.1875 55.341 91.8281 56.0129 91.3906 L55.5442 90.5625 C54.9973 90.9375 54.3879 91.1562 53.6535 91.1562 C52.2004 91.1562 51.216 90.125 51.1223 88.5 L56.2473 88.5 C56.2785 88.3125 56.3098 88.0469 56.3098 87.7656 C56.3098 85.6094 55.216 84.2031 53.2785 84.2031 C51.5129 84.2031 49.8567 85.7344 49.8567 88.2031 C49.8567 90.7188 51.4817 92.1875 53.4973 92.1875 ZM51.1067 87.5781 C51.2629 86.0938 52.216 85.2188 53.2942 85.2188 C54.4817 85.2188 55.1848 86.0469 55.1848 87.5781 L51.1067 87.5781 Z"
      /><rect x="29" y="35" width="26" style="fill:white; stroke:none;" height="10"
      /><path style="stroke:none;" d="M30.6094 42.1562 L32.9531 38.6562 C33.2344 38.1406 33.5156 37.6406 33.7812 37.1406 L33.8281 37.1406 C33.7969 37.6719 33.7656 38.5 33.7656 39 L33.7656 42.1562 L30.6094 42.1562 ZM33.7656 46 L34.9688 46 L34.9688 43.1719 L36.3281 43.1719 L36.3281 42.1562 L34.9688 42.1562 L34.9688 35.7188 L33.5469 35.7188 L29.2812 42.3281 L29.2812 43.1719 L33.7656 43.1719 L33.7656 46 ZM38.1762 46 L39.3481 46 L39.3481 40.3125 C39.3481 39.4375 39.2543 38.1875 39.1918 37.2969 L39.2543 37.2969 L40.0668 39.625 L42.0043 44.9688 L42.8793 44.9688 L44.8168 39.625 L45.6293 37.2969 L45.6918 37.2969 C45.6137 38.1875 45.52 39.4375 45.52 40.3125 L45.52 46 L46.7387 46 L46.7387 35.7188 L45.1762 35.7188 L43.2075 41.2188 C42.9731 41.9375 42.7543 42.6562 42.5043 43.375 L42.4418 43.375 C42.1918 42.6562 41.9575 41.9375 41.7075 41.2188 L39.7387 35.7188 L38.1762 35.7188 L38.1762 46 ZM52.4973 46.1875 C53.5285 46.1875 54.341 45.8281 55.0129 45.3906 L54.5442 44.5625 C53.9973 44.9375 53.3879 45.1562 52.6535 45.1562 C51.2004 45.1562 50.216 44.125 50.1223 42.5 L55.2473 42.5 C55.2785 42.3125 55.3098 42.0469 55.3098 41.7656 C55.3098 39.6094 54.216 38.2031 52.2785 38.2031 C50.5129 38.2031 48.8567 39.7344 48.8567 42.2031 C48.8567 44.7188 50.4817 46.1875 52.4973 46.1875 ZM50.1067 41.5781 C50.2629 40.0938 51.216 39.2188 52.2942 39.2188 C53.4817 39.2188 54.1848 40.0469 54.1848 41.5781 L50.1067 41.5781 Z"
    /></g
    ><g style="fill:white; text-rendering:optimizeSpeed; font-family:'Serif'; stroke:white;"
    ><rect x="76" width="5" height="10" y="67" style="stroke:none;"
      /><path d="M77.8906 75.6875 C77.4844 75.6875 77.1562 76.0469 77.1562 76.4219 C77.1562 76.8125 77.4844 77.1562 77.8906 77.1562 C78.2969 77.1562 78.6406 76.8125 78.6406 76.4219 C78.6406 76.0469 78.2969 75.6875 77.8906 75.6875 ZM79.4688 69.5781 C79.7188 69.8906 79.875 70.2656 79.8906 70.6562 C79.8906 71.1875 79.625 71.5 79.0312 71.7656 L78.4062 72.0156 C77.6406 72.3125 77.3906 72.5469 77.3906 72.9375 C77.3906 73.1094 77.4531 73.3438 77.5781 73.8125 L77.7344 74.3438 L78.1094 74.3438 L78.0938 73.5312 C78.0938 73.0938 78.2031 72.9688 78.7812 72.7344 L79.2031 72.5625 C80.0312 72.2188 80.4531 71.6875 80.4531 70.8438 C80.4531 69.1562 78.6562 68.1875 77.5 68.0312 C77.1094 68.125 76.9062 68.2969 76.9062 68.6406 C76.9062 68.9375 77.0625 69.1562 77.7188 69.2656 L79.4688 69.5781 Z" style="fill:black; stroke:none;"
      /><rect x="62" width="5" height="10" y="67" style="stroke:none;"
      /><path d="M63.8906 75.6875 C63.4844 75.6875 63.1562 76.0469 63.1562 76.4219 C63.1562 76.8125 63.4844 77.1562 63.8906 77.1562 C64.2969 77.1562 64.6406 76.8125 64.6406 76.4219 C64.6406 76.0469 64.2969 75.6875 63.8906 75.6875 ZM65.4688 69.5781 C65.7188 69.8906 65.875 70.2656 65.8906 70.6562 C65.8906 71.1875 65.625 71.5 65.0312 71.7656 L64.4062 72.0156 C63.6406 72.3125 63.3906 72.5469 63.3906 72.9375 C63.3906 73.1094 63.4531 73.3438 63.5781 73.8125 L63.7344 74.3438 L64.1094 74.3438 L64.0938 73.5312 C64.0938 73.0938 64.2031 72.9688 64.7812 72.7344 L65.2031 72.5625 C66.0312 72.2188 66.4531 71.6875 66.4531 70.8438 C66.4531 69.1562 64.6562 68.1875 63.5 68.0312 C63.1094 68.125 62.9062 68.2969 62.9062 68.6406 C62.9062 68.9375 63.0625 69.1562 63.7188 69.2656 L65.4688 69.5781 Z" style="fill:black; stroke:none;"
      /><rect x="119" width="5" height="10" y="67" style="stroke:none;"
      /><path d="M120.8906 75.6875 C120.4844 75.6875 120.1562 76.0469 120.1562 76.4219 C120.1562 76.8125 120.4844 77.1562 120.8906 77.1562 C121.2969 77.1562 121.6406 76.8125 121.6406 76.4219 C121.6406 76.0469 121.2969 75.6875 120.8906 75.6875 ZM122.4688 69.5781 C122.7188 69.8906 122.875 70.2656 122.8906 70.6562 C122.8906 71.1875 122.625 71.5 122.0312 71.7656 L121.4062 72.0156 C120.6406 72.3125 120.3906 72.5469 120.3906 72.9375 C120.3906 73.1094 120.4531 73.3438 120.5781 73.8125 L120.7344 74.3438 L121.1094 74.3438 L121.0938 73.5312 C121.0938 73.0938 121.2031 72.9688 121.7812 72.7344 L122.2031 72.5625 C123.0312 72.2188 123.4531 71.6875 123.4531 70.8438 C123.4531 69.1562 121.6562 68.1875 120.5 68.0312 C120.1094 68.125 119.9062 68.2969 119.9062 68.6406 C119.9062 68.9375 120.0625 69.1562 120.7188 69.2656 L122.4688 69.5781 Z" style="fill:black; stroke:none;"
    /></g
  ></g
></svg
>
