<?xml version="1.0"?>
<!DOCTYPE svg PUBLIC '-//W3C//DTD SVG 1.0//EN'
          'http://www.w3.org/TR/2001/REC-SVG-20010904/DTD/svg10.dtd'>
<svg xmlns:xlink="http://www.w3.org/1999/xlink" style="fill-opacity:1; color-rendering:auto; color-interpolation:auto; text-rendering:auto; stroke:black; stroke-linecap:square; stroke-miterlimit:10; shape-rendering:auto; stroke-opacity:1; fill:black; stroke-dasharray:none; font-weight:normal; stroke-width:1; font-family:'Dialog'; font-style:normal; stroke-linejoin:miter; font-size:12px; stroke-dashoffset:0; image-rendering:auto;" viewBox="0 0 238 209" xmlns="http://www.w3.org/2000/svg"
><!--Generated by the Batik Graphics2D SVG Generator--><defs id="genericDefs"
  /><g
  ><defs id="defs1"
    ><clipPath clipPathUnits="userSpaceOnUse" id="clipPath1"
      ><path d="M134 105 L156 105 L156 127 L134 127 L134 105 Z"
      /></clipPath
      ><clipPath clipPathUnits="userSpaceOnUse" id="clipPath2"
      ><path d="M104 168 C104 174.0751 99.0751 179 93 179 C86.9249 179 82 174.0751 82 168 C82 161.9249 86.9249 157 93 157 C99.0751 157 104 161.9249 104 168 Z"
      /></clipPath
      ><clipPath clipPathUnits="userSpaceOnUse" id="clipPath3"
      ><path style="fill-rule:evenodd;" d="M41 157 L52 168 L41 179 L30 168 Z"
      /></clipPath
      ><clipPath clipPathUnits="userSpaceOnUse" id="clipPath4"
      ><path d="M82 53 L104 53 L104 75 L82 75 L82 53 Z"
      /></clipPath
      ><clipPath clipPathUnits="userSpaceOnUse" id="clipPath5"
      ><path style="fill-rule:evenodd;" d="M93 105 L104 127 L82 127 Z"
      /></clipPath
      ><clipPath clipPathUnits="userSpaceOnUse" id="clipPath6"
      ><path d="M52 64 C52 70.0751 47.0751 75 41 75 C34.9249 75 30 70.0751 30 64 C30 57.9249 34.9249 53 41 53 C47.0751 53 52 57.9249 52 64 Z"
      /></clipPath
      ><clipPath clipPathUnits="userSpaceOnUse" id="clipPath7"
      ><path style="fill-rule:evenodd;" d="M41 105 L52 127 L30 127 Z"
      /></clipPath
    ></defs
    ><g style="fill:white; text-rendering:optimizeSpeed; stroke:white;"
    ><rect x="0" width="238" height="209" y="0" style="stroke:none;"
      /><polygon style="fill:none; stroke:black;" points=" 197 116 145 116"
      /><path d="M197 105 C191.5 110.5 202.5 121.5 197 127" style="fill:none; stroke:black;"
      /><polygon style="fill:none; stroke:black;" points=" 145 116 93 168"
      /><polygon style="fill:none; stroke:black;" points=" 145 116 93 64"
      /><rect x="134" y="105" width="22" style="clip-path:url(#clipPath1); stroke:none;" height="22"
      /><rect x="134" y="105" width="22" style="clip-path:url(#clipPath1); fill:rgb(255,212,0); stroke:none;" height="22"
      /><rect x="134" y="105" width="22" style="clip-path:url(#clipPath1); fill:none; stroke:black;" height="22"
      /><rect x="134" y="105" width="22" style="fill:none; stroke:black;" height="22"
      /><polygon style="fill:none; stroke:black;" points=" 93 168 41 168"
      /><circle style="clip-path:url(#clipPath2); stroke:none;" r="11" cx="93" cy="168"
      /><rect x="82" y="157" width="22" style="clip-path:url(#clipPath2); fill:rgb(255,212,0); stroke:none;" height="22"
      /><rect x="82" y="157" width="22" style="clip-path:url(#clipPath2); fill:none; stroke:black;" height="22"
      /><circle style="fill:none; stroke:black;" r="11" cx="93" cy="168"
      /><polygon style="clip-path:url(#clipPath3); stroke:none;" points=" 41 157 52 168 41 179 30 168"
      /><rect x="30" y="157" width="22" style="clip-path:url(#clipPath3); fill:rgb(165,67,153); stroke:none;" height="22"
      /><rect x="30" y="157" width="22" style="clip-path:url(#clipPath3); fill:none; stroke:black;" height="22"
      /><polygon style="fill:none; stroke:black;" points=" 41 157 52 168 41 179 30 168"
      /><rect x="71" y="171" width="6" style="stroke:none;" height="10"
    /></g
    ><g style="font-family:'Serif'; text-rendering:optimizeSpeed; "
    ><path style="stroke:none;" d="M73.2344 172.6562 C73.5156 172.5938 73.7656 172.5625 74.0156 172.5625 C75.0625 172.5625 75.6719 173.1719 75.6719 174.2656 C75.6719 175.4375 74.9062 176.1094 73.7031 176.1094 L73.1875 176.1094 L73.1875 176.6406 L73.7969 176.6406 C75.2188 176.6406 75.9062 177.4219 75.9062 178.6406 C75.9062 179.8438 75.1719 180.6875 73.875 180.6875 C73.6094 180.6875 73.3125 180.6562 73.0156 180.5625 L72.7812 179.8125 C72.625 179.2812 72.5 179.0469 72.1406 179.0469 C71.8906 179.0469 71.7031 179.1719 71.5781 179.4219 C71.8438 180.6406 72.7812 181.1719 74.0312 181.1719 C75.7188 181.1719 76.875 180.125 76.875 178.7031 C76.875 177.5 76.2031 176.625 74.7969 176.375 C75.9531 176.0156 76.6094 175.2031 76.6094 174.2031 C76.6094 172.9219 75.6719 172.0781 74.1875 172.0781 C73.0469 172.0781 72.0625 172.5938 71.7969 173.6875 C71.9062 174 72.1094 174.1094 72.3594 174.1094 C72.7344 174.1094 72.8906 173.8906 73 173.4062 L73.2344 172.6562 Z"
      /><rect x="56" y="172" width="8" style="fill:white; stroke:none;" height="8"
      /><path style="stroke:none;" d="M60.9844 177.7031 C60.9375 178.8906 60.1562 179.6562 59.3125 179.6562 C58.2656 179.6562 57.5 178.6875 57.5 176.7188 C57.5 175.2812 58.1562 174.1562 59.3438 174.1562 C60.1406 174.1562 60.7812 174.6875 61.0938 175.6406 L60.9844 177.7031 ZM62.9062 179.2812 C62.7344 179.375 62.5469 179.4219 62.3438 179.4219 C61.9531 179.4219 61.75 179.2188 61.75 178.4219 C61.75 177.4844 61.9688 175.5312 62.1875 173.8281 L62.0312 173.7188 L61.2344 173.9219 L61.1406 174.7969 C60.7812 174.0312 60.1562 173.6562 59.3906 173.6562 C58.0469 173.6562 56.5625 174.8438 56.5625 176.9531 C56.5625 179.0938 57.7188 180.1719 59.1406 180.1719 C60.0156 180.1719 60.6875 179.8125 61.0938 178.9844 C61.2031 179.8594 61.5156 180.1719 62.0156 180.1719 C62.4688 180.1719 62.7969 179.9062 63.0156 179.5625 L62.9062 179.2812 Z"
      /><polygon style="fill:none;" points=" 93 64 93 116"
      /><polygon style="fill:none;" points=" 93 64 41 64"
      /><rect x="82" y="53" width="22" style="clip-path:url(#clipPath4); fill:white; stroke:none;" height="22"
      /><rect x="82" y="53" width="22" style="clip-path:url(#clipPath4); fill:rgb(0,144,188); stroke:none;" height="22"
      /><rect x="82" y="53" width="22" style="fill:none; clip-path:url(#clipPath4);" height="22"
      /><rect x="82" width="22" height="22" y="53" style="fill:none;"
    /></g
    ><g style="fill:white; text-rendering:optimizeSpeed; font-size:14px; font-family:'SansSerif'; stroke:white;"
    ><rect x="85" width="14" height="10" y="35" style="stroke:none;"
      /><path d="M89.1094 40.5781 C90.3438 40.5781 90.9688 41.4688 90.9688 42.8438 C90.9688 44.25 90.1875 45.1875 89.2188 45.1875 C87.9219 45.1875 87.1562 44.0312 87 41.8906 C87.625 40.9531 88.4531 40.5781 89.1094 40.5781 ZM89.2188 46.1875 C90.8125 46.1875 92.1562 44.8438 92.1562 42.8438 C92.1562 40.7031 91.0469 39.625 89.3125 39.625 C88.5 39.625 87.6094 40.1094 86.9688 40.875 C87.0312 37.6875 88.2188 36.6094 89.625 36.6094 C90.25 36.6094 90.8594 36.9062 91.2656 37.3906 L91.9688 36.5938 C91.4062 35.9844 90.6406 35.5469 89.5781 35.5469 C87.5938 35.5469 85.7812 37.0781 85.7812 41.0938 C85.7812 44.4844 87.2344 46.1875 89.2188 46.1875 ZM97.02 46.1875 C99.1606 46.1875 100.5043 44.8906 100.5043 43.2656 C100.5043 41.75 99.5825 41.0469 98.395 40.5312 L96.9262 39.8906 C96.1293 39.5625 95.2387 39.1875 95.2387 38.1875 C95.2387 37.2656 95.9887 36.6719 97.145 36.6719 C98.0981 36.6719 98.8637 37.0469 99.4887 37.6406 L100.1762 36.8125 C99.4418 36.0625 98.3637 35.5469 97.145 35.5469 C95.2856 35.5469 93.9106 36.6875 93.9106 38.2656 C93.9106 39.7656 95.0512 40.5 96.0043 40.9062 L97.4887 41.5469 C98.4575 41.9844 99.1918 42.3125 99.1918 43.375 C99.1918 44.375 98.3793 45.0469 97.0356 45.0469 C95.9731 45.0469 94.9418 44.5469 94.2075 43.7812 L93.4262 44.6562 C94.3168 45.5938 95.5668 46.1875 97.02 46.1875 Z" style="fill:black; stroke:none;"
      /><polygon style="stroke:none; clip-path:url(#clipPath5);" points=" 93 105 104 127 82 127"
    /></g
    ><g style="fill:rgb(237,28,36); text-rendering:optimizeSpeed; stroke:rgb(237,28,36);"
    ><rect x="82" y="105" width="22" style="clip-path:url(#clipPath5); stroke:none;" height="22"
      /><rect x="82" y="105" width="22" style="clip-path:url(#clipPath5); fill:none; stroke:black;" height="22"
      /><polygon style="fill:none; stroke:black;" points=" 93 105 104 127 82 127"
      /><polygon style="fill:none; stroke:black;" points=" 41 64 41 116"
      /><circle style="fill:white; clip-path:url(#clipPath6); stroke:none;" r="11" cx="41" cy="64"
      /><rect x="30" y="53" width="22" style="clip-path:url(#clipPath6); fill:rgb(255,212,0); stroke:none;" height="22"
      /><rect x="30" y="53" width="22" style="clip-path:url(#clipPath6); fill:none; stroke:black;" height="22"
      /><circle r="11" style="fill:none; stroke:black;" cx="41" cy="64"
      /><polygon style="fill:white; clip-path:url(#clipPath7); stroke:none;" points=" 41 105 52 127 30 127"
      /><rect x="30" y="105" width="22" style="clip-path:url(#clipPath7); stroke:none;" height="22"
      /><rect x="30" y="105" width="22" style="clip-path:url(#clipPath7); fill:none; stroke:black;" height="22"
      /><polygon style="fill:none; stroke:black;" points=" 41 105 52 127 30 127"
      /><rect x="46" y="78" width="6" style="fill:white; stroke:none;" height="9"
      /><path d="M47.4219 86.0938 C48.0781 85.375 48.7031 84.7188 49.0312 84.3438 C50.9219 82.3125 51.5312 81.4688 51.5312 80.3594 C51.5312 79.0156 50.7812 78.0781 49.1562 78.0781 C47.9062 78.0781 46.7969 78.7031 46.5938 79.9688 C46.7188 80.2031 46.9062 80.3438 47.1562 80.3438 C47.4688 80.3438 47.6562 80.1094 47.7969 79.5938 L48.0938 78.6719 C48.3906 78.5938 48.6562 78.5625 48.8906 78.5625 C49.9219 78.5625 50.5469 79.3125 50.5469 80.4219 C50.5469 81.4375 49.9844 82.4219 48.7031 83.9062 C48.125 84.5781 47.3906 85.4375 46.6406 86.2812 L46.6406 87 L51.9219 87 L51.9219 86.0938 L47.4219 86.0938 Z" style="fill:black; stroke:none;"
      /><rect x="45" y="93" width="8" style="fill:white; stroke:none;" height="8"
      /><path d="M49.9844 98.7031 C49.9375 99.8906 49.1562 100.6562 48.3125 100.6562 C47.2656 100.6562 46.5 99.6875 46.5 97.7188 C46.5 96.2812 47.1562 95.1562 48.3438 95.1562 C49.1406 95.1562 49.7812 95.6875 50.0938 96.6406 L49.9844 98.7031 ZM51.9062 100.2812 C51.7344 100.375 51.5469 100.4219 51.3438 100.4219 C50.9531 100.4219 50.75 100.2188 50.75 99.4219 C50.75 98.4844 50.9688 96.5312 51.1875 94.8281 L51.0312 94.7188 L50.2344 94.9219 L50.1406 95.7969 C49.7812 95.0312 49.1562 94.6562 48.3906 94.6562 C47.0469 94.6562 45.5625 95.8438 45.5625 97.9531 C45.5625 100.0938 46.7188 101.1719 48.1406 101.1719 C49.0156 101.1719 49.6875 100.8125 50.0938 99.9844 C50.2031 100.8594 50.5156 101.1719 51.0156 101.1719 C51.4688 101.1719 51.7969 100.9062 52.0156 100.5625 L51.9062 100.2812 Z" style="fill:black; stroke:none;"
      /><rect x="98" y="78" width="6" style="fill:white; stroke:none;" height="10"
      /><path d="M100.2344 79.6562 C100.5156 79.5938 100.7656 79.5625 101.0156 79.5625 C102.0625 79.5625 102.6719 80.1719 102.6719 81.2656 C102.6719 82.4375 101.9062 83.1094 100.7031 83.1094 L100.1875 83.1094 L100.1875 83.6406 L100.7969 83.6406 C102.2188 83.6406 102.9062 84.4219 102.9062 85.6406 C102.9062 86.8438 102.1719 87.6875 100.875 87.6875 C100.6094 87.6875 100.3125 87.6562 100.0156 87.5625 L99.7812 86.8125 C99.625 86.2812 99.5 86.0469 99.1406 86.0469 C98.8906 86.0469 98.7031 86.1719 98.5781 86.4219 C98.8438 87.6406 99.7812 88.1719 101.0312 88.1719 C102.7188 88.1719 103.875 87.125 103.875 85.7031 C103.875 84.5 103.2031 83.625 101.7969 83.375 C102.9531 83.0156 103.6094 82.2031 103.6094 81.2031 C103.6094 79.9219 102.6719 79.0781 101.1875 79.0781 C100.0469 79.0781 99.0625 79.5938 98.7969 80.6875 C98.9062 81 99.1094 81.1094 99.3594 81.1094 C99.7344 81.1094 99.8906 80.8906 100 80.4062 L100.2344 79.6562 Z" style="fill:black; stroke:none;"
      /><rect x="97" y="93" width="8" style="fill:white; stroke:none;" height="8"
      /><path d="M101.9844 98.7031 C101.9375 99.8906 101.1562 100.6562 100.3125 100.6562 C99.2656 100.6562 98.5 99.6875 98.5 97.7188 C98.5 96.2812 99.1562 95.1562 100.3438 95.1562 C101.1406 95.1562 101.7812 95.6875 102.0938 96.6406 L101.9844 98.7031 ZM103.9062 100.2812 C103.7344 100.375 103.5469 100.4219 103.3438 100.4219 C102.9531 100.4219 102.75 100.2188 102.75 99.4219 C102.75 98.4844 102.9688 96.5312 103.1875 94.8281 L103.0312 94.7188 L102.2344 94.9219 L102.1406 95.7969 C101.7812 95.0312 101.1562 94.6562 100.3906 94.6562 C99.0469 94.6562 97.5625 95.8438 97.5625 97.9531 C97.5625 100.0938 98.7188 101.1719 100.1406 101.1719 C101.0156 101.1719 101.6875 100.8125 102.0938 99.9844 C102.2031 100.8594 102.5156 101.1719 103.0156 101.1719 C103.4688 101.1719 103.7969 100.9062 104.0156 100.5625 L103.9062 100.2812 Z" style="fill:black; stroke:none;"
      /><rect x="70" y="67" width="7" style="fill:white; stroke:none;" height="9"
      /><path d="M71 72.5156 L73.9531 68.2656 L73.9531 72.5156 L71 72.5156 ZM76.2812 72.5156 L74.8594 72.5156 L74.8594 67.125 L74.2344 67.125 L70.3438 72.6406 L70.3438 73.1875 L73.9531 73.1875 L73.9531 76 L74.8594 76 L74.8594 73.1875 L76.2812 73.1875 L76.2812 72.5156 Z" style="fill:black; stroke:none;"
      /><rect x="57" y="65" width="6" style="fill:white; stroke:none;" height="13"
      /><path d="M59.0938 71.2031 C59.0938 69.6562 59.75 68.8125 60.7969 68.8125 C61.7188 68.8125 62.2656 69.4531 62.2656 70.5156 C62.2656 71.7188 61.5 72.4375 60.1875 72.7031 L60.2969 73.3125 C62.2188 73.2344 62.9375 74.2188 62.9375 75.4375 C62.9375 76.625 62.2344 77.4219 60.9531 77.4219 C60.25 77.4219 59.6562 77.1562 59.0938 76.7188 L59.0938 71.2031 ZM58.2031 77.9062 L58.1094 80.375 L58.2656 80.4844 L59.1562 80.2656 L59.0156 77.0938 C59.5469 77.8438 60.3594 78.1719 61.1719 78.1719 C62.5625 78.1719 63.8594 77.2188 63.8594 75.4844 C63.8594 73.9531 62.875 73.1094 61.125 73 C62.5625 72.6094 63.1875 71.4531 63.1875 70.4844 C63.1875 69.0938 62.1562 68.3125 60.9062 68.3125 C59.2969 68.3125 58.2188 69.5469 58.2188 71.5156 L58.2031 77.9062 Z" style="fill:black; stroke:none;"
      /><rect x="131" y="133" width="6" style="fill:white; stroke:none;" height="10"
      /><path d="M133.2344 134.6562 C133.5156 134.5938 133.7656 134.5625 134.0156 134.5625 C135.0625 134.5625 135.6719 135.1719 135.6719 136.2656 C135.6719 137.4375 134.9062 138.1094 133.7031 138.1094 L133.1875 138.1094 L133.1875 138.6406 L133.7969 138.6406 C135.2188 138.6406 135.9062 139.4219 135.9062 140.6406 C135.9062 141.8438 135.1719 142.6875 133.875 142.6875 C133.6094 142.6875 133.3125 142.6562 133.0156 142.5625 L132.7812 141.8125 C132.625 141.2812 132.5 141.0469 132.1406 141.0469 C131.8906 141.0469 131.7031 141.1719 131.5781 141.4219 C131.8438 142.6406 132.7812 143.1719 134.0312 143.1719 C135.7188 143.1719 136.875 142.125 136.875 140.7031 C136.875 139.5 136.2031 138.625 134.7969 138.375 C135.9531 138.0156 136.6094 137.2031 136.6094 136.2031 C136.6094 134.9219 135.6719 134.0781 134.1875 134.0781 C133.0469 134.0781 132.0625 134.5938 131.7969 135.6875 C131.9062 136 132.1094 136.1094 132.3594 136.1094 C132.7344 136.1094 132.8906 135.8906 133 135.4062 L133.2344 134.6562 Z" style="fill:black; stroke:none;"
      /><rect x="112" y="150" width="6" style="fill:white; stroke:none;" height="13"
      /><path d="M114.0938 156.2031 C114.0938 154.6562 114.75 153.8125 115.7969 153.8125 C116.7188 153.8125 117.2656 154.4531 117.2656 155.5156 C117.2656 156.7188 116.5 157.4375 115.1875 157.7031 L115.2969 158.3125 C117.2188 158.2344 117.9375 159.2188 117.9375 160.4375 C117.9375 161.625 117.2344 162.4219 115.9531 162.4219 C115.25 162.4219 114.6562 162.1562 114.0938 161.7188 L114.0938 156.2031 ZM113.2031 162.9062 L113.1094 165.375 L113.2656 165.4844 L114.1562 165.2656 L114.0156 162.0938 C114.5469 162.8438 115.3594 163.1719 116.1719 163.1719 C117.5625 163.1719 118.8594 162.2188 118.8594 160.4844 C118.8594 158.9531 117.875 158.1094 116.125 158 C117.5625 157.6094 118.1875 156.4531 118.1875 155.4844 C118.1875 154.0938 117.1562 153.3125 115.9062 153.3125 C114.2969 153.3125 113.2188 154.5469 113.2188 156.5156 L113.2031 162.9062 Z" style="fill:black; stroke:none;"
      /><rect x="119" y="100" width="6" style="fill:white; stroke:none;" height="10"
      /><path d="M122.3438 109.6875 C121.2031 109.6875 120.5312 108.5 120.5312 106.2969 C120.5312 106.2188 120.5312 106.125 120.5312 106.0469 C121.0938 105.5 121.7188 105.3125 122.3438 105.3125 C123.3125 105.3125 123.9531 105.9844 123.9531 107.4531 C123.9531 108.9375 123.3125 109.6875 122.3438 109.6875 ZM124.5312 101.0781 C121.3438 101.4531 119.5625 103.7656 119.5625 106.4531 C119.5625 108.7812 120.6094 110.1719 122.3125 110.1719 C123.8438 110.1719 124.9219 109.1094 124.9219 107.2812 C124.9219 105.6875 123.9688 104.6562 122.5625 104.6562 C121.8281 104.6562 121.1406 104.9844 120.5781 105.5781 C120.7969 103.4062 122.0781 101.9688 124.5938 101.3906 L124.5312 101.0781 Z" style="fill:black; stroke:none;"
      /><rect x="101" y="79" width="6" style="fill:white; stroke:none;" height="13"
      /><path d="M103.0938 85.2031 C103.0938 83.6562 103.75 82.8125 104.7969 82.8125 C105.7188 82.8125 106.2656 83.4531 106.2656 84.5156 C106.2656 85.7188 105.5 86.4375 104.1875 86.7031 L104.2969 87.3125 C106.2188 87.2344 106.9375 88.2188 106.9375 89.4375 C106.9375 90.625 106.2344 91.4219 104.9531 91.4219 C104.25 91.4219 103.6562 91.1562 103.0938 90.7188 L103.0938 85.2031 ZM102.2031 91.9062 L102.1094 94.375 L102.2656 94.4844 L103.1562 94.2656 L103.0156 91.0938 C103.5469 91.8438 104.3594 92.1719 105.1719 92.1719 C106.5625 92.1719 107.8594 91.2188 107.8594 89.4844 C107.8594 87.9531 106.875 87.1094 105.125 87 C106.5625 86.6094 107.1875 85.4531 107.1875 84.4844 C107.1875 83.0938 106.1562 82.3125 104.9062 82.3125 C103.2969 82.3125 102.2188 83.5469 102.2188 85.5156 L102.2031 91.9062 Z" style="fill:black; stroke:none;"
      /><rect x="161" y="117" width="6" style="fill:white; stroke:none;" height="13"
      /><path d="M163.0938 123.2031 C163.0938 121.6562 163.75 120.8125 164.7969 120.8125 C165.7188 120.8125 166.2656 121.4531 166.2656 122.5156 C166.2656 123.7188 165.5 124.4375 164.1875 124.7031 L164.2969 125.3125 C166.2188 125.2344 166.9375 126.2188 166.9375 127.4375 C166.9375 128.625 166.2344 129.4219 164.9531 129.4219 C164.25 129.4219 163.6562 129.1562 163.0938 128.7188 L163.0938 123.2031 ZM162.2031 129.9062 L162.1094 132.375 L162.2656 132.4844 L163.1562 132.2656 L163.0156 129.0938 C163.5469 129.8438 164.3594 130.1719 165.1719 130.1719 C166.5625 130.1719 167.8594 129.2188 167.8594 127.4844 C167.8594 125.9531 166.875 125.1094 165.125 125 C166.5625 124.6094 167.1875 123.4531 167.1875 122.4844 C167.1875 121.0938 166.1562 120.3125 164.9062 120.3125 C163.2969 120.3125 162.2188 121.5469 162.2188 123.5156 L162.2031 129.9062 Z" style="fill:black; stroke:none;"
    /></g
  ></g
></svg
>
