<?xml version="1.0"?>
<!DOCTYPE svg PUBLIC '-//W3C//DTD SVG 1.0//EN'
          'http://www.w3.org/TR/2001/REC-SVG-20010904/DTD/svg10.dtd'>
<svg xmlns:xlink="http://www.w3.org/1999/xlink" style="fill-opacity:1; color-rendering:auto; color-interpolation:auto; text-rendering:auto; stroke:black; stroke-linecap:square; stroke-miterlimit:10; shape-rendering:auto; stroke-opacity:1; fill:black; stroke-dasharray:none; font-weight:normal; stroke-width:1; font-family:'Dialog'; font-style:normal; stroke-linejoin:miter; font-size:12px; stroke-dashoffset:0; image-rendering:auto;" viewBox="0 0 173 313" xmlns="http://www.w3.org/2000/svg"
><!--Generated by the Batik Graphics2D SVG Generator--><defs id="genericDefs"
  /><g
  ><defs id="defs1"
    ><clipPath clipPathUnits="userSpaceOnUse" id="clipPath1"
      ><path style="fill-rule:evenodd;" d="M58 238 L69 249 L58 260 L47 249 Z"
      /></clipPath
      ><clipPath clipPathUnits="userSpaceOnUse" id="clipPath2"
      ><path style="fill-rule:evenodd;" d="M69 197 L63 204 L52 204 L47 197 L52 189 L63 189 L69 197 Z"
      /></clipPath
      ><clipPath clipPathUnits="userSpaceOnUse" id="clipPath3"
      ><path d="M47 134 L69 134 L69 156 L47 156 L47 134 Z"
      /></clipPath
      ><clipPath clipPathUnits="userSpaceOnUse" id="clipPath4"
      ><path d="M69 93 C69 99.0751 64.0751 104 58 104 C51.9249 104 47 99.0751 47 93 C47 86.9249 51.9249 82 58 82 C64.0751 82 69 86.9249 69 93 Z"
      /></clipPath
      ><clipPath clipPathUnits="userSpaceOnUse" id="clipPath5"
      ><path d="M69 41 C69 47.0751 64.0751 52 58 52 C51.9249 52 47 47.0751 47 41 C47 34.9249 51.9249 30 58 30 C64.0751 30 69 34.9249 69 41 Z"
      /></clipPath
    ></defs
    ><g style="fill:white; text-rendering:optimizeSpeed; stroke:white;"
    ><rect x="0" width="173" height="313" y="0" style="stroke:none;"
      /><polygon style="clip-path:url(#clipPath1); stroke:none;" points=" 58 238 69 249 58 260 47 249"
      /><rect x="47" y="238" width="22" style="clip-path:url(#clipPath1); fill:rgb(0,166,81); stroke:none;" height="22"
      /><rect x="47" y="238" width="22" style="clip-path:url(#clipPath1); fill:none; stroke:black;" height="22"
      /><polygon style="fill:none; stroke:black;" points=" 58 238 69 249 58 260 47 249"
    /></g
    ><g style="text-rendering:optimizeSpeed; font-size:14px; font-family:'SansSerif';"
    ><path style="stroke:none;" d="M50.6094 277 L57.0625 277 L57.0625 275.8906 L54.2344 275.8906 C53.7031 275.8906 53.0781 275.9531 52.5469 275.9844 C54.9531 273.7031 56.5625 271.625 56.5625 269.5781 C56.5625 267.75 55.4219 266.5469 53.5781 266.5469 C52.2812 266.5469 51.4062 267.1406 50.5625 268.0469 L51.2969 268.7812 C51.8594 268.1094 52.5938 267.5938 53.4375 267.5938 C54.7031 267.5938 55.3125 268.4531 55.3125 269.625 C55.3125 271.3906 53.8438 273.4375 50.6094 276.25 L50.6094 277 ZM62.8168 277.1875 C64.9106 277.1875 66.5043 276.0625 66.5043 272.7656 L66.5043 266.7188 L65.2543 266.7188 L65.2543 272.7969 C65.2543 275.2812 64.1762 276.0469 62.8168 276.0469 C61.4731 276.0469 60.4262 275.2812 60.4262 272.7969 L60.4262 266.7188 L59.1293 266.7188 L59.1293 272.7656 C59.1293 276.0625 60.7231 277.1875 62.8168 277.1875 Z"
    /></g
    ><g style="fill:white; text-rendering:optimizeSpeed; font-family:'Serif'; stroke:white;"
    ><rect x="74" width="5" height="10" y="236" style="stroke:none;"
      /><path d="M75.8906 244.6875 C75.4844 244.6875 75.1562 245.0469 75.1562 245.4219 C75.1562 245.8125 75.4844 246.1562 75.8906 246.1562 C76.2969 246.1562 76.6406 245.8125 76.6406 245.4219 C76.6406 245.0469 76.2969 244.6875 75.8906 244.6875 ZM77.4688 238.5781 C77.7188 238.8906 77.875 239.2656 77.8906 239.6562 C77.8906 240.1875 77.625 240.5 77.0312 240.7656 L76.4062 241.0156 C75.6406 241.3125 75.3906 241.5469 75.3906 241.9375 C75.3906 242.1094 75.4531 242.3438 75.5781 242.8125 L75.7344 243.3438 L76.1094 243.3438 L76.0938 242.5312 C76.0938 242.0938 76.2031 241.9688 76.7812 241.7344 L77.2031 241.5625 C78.0312 241.2188 78.4531 240.6875 78.4531 239.8438 C78.4531 238.1562 76.6562 237.1875 75.5 237.0312 C75.1094 237.125 74.9062 237.2969 74.9062 237.6406 C74.9062 237.9375 75.0625 238.1562 75.7188 238.2656 L77.4688 238.5781 Z" style="fill:black; stroke:none;"
      /><rect x="74" width="5" height="10" y="252" style="stroke:none;"
      /><path d="M75.8906 260.6875 C75.4844 260.6875 75.1562 261.0469 75.1562 261.4219 C75.1562 261.8125 75.4844 262.1562 75.8906 262.1562 C76.2969 262.1562 76.6406 261.8125 76.6406 261.4219 C76.6406 261.0469 76.2969 260.6875 75.8906 260.6875 ZM77.4688 254.5781 C77.7188 254.8906 77.875 255.2656 77.8906 255.6562 C77.8906 256.1875 77.625 256.5 77.0312 256.7656 L76.4062 257.0156 C75.6406 257.3125 75.3906 257.5469 75.3906 257.9375 C75.3906 258.1094 75.4531 258.3438 75.5781 258.8125 L75.7344 259.3438 L76.1094 259.3438 L76.0938 258.5312 C76.0938 258.0938 76.2031 257.9688 76.7812 257.7344 L77.2031 257.5625 C78.0312 257.2188 78.4531 256.6875 78.4531 255.8438 C78.4531 254.1562 76.6562 253.1875 75.5 253.0312 C75.1094 253.125 74.9062 253.2969 74.9062 253.6406 C74.9062 253.9375 75.0625 254.1562 75.7188 254.2656 L77.4688 254.5781 Z" style="fill:black; stroke:none;"
      /><polygon style="clip-path:url(#clipPath2); stroke:none;" points=" 69 197 63 204 52 204 47 197 52 189 63 189 69 197"
      /><rect x="47" y="186" width="22" style="clip-path:url(#clipPath2); fill:rgb(0,166,81); stroke:none;" height="22"
      /><rect x="47" y="186" width="22" style="clip-path:url(#clipPath2); fill:none; stroke:black;" height="22"
      /><polygon style="fill:none; stroke:black;" points=" 69 197 63 204 52 204 47 197 52 189 63 189 69 197"
      /><rect x="74" width="5" height="10" y="184" style="stroke:none;"
      /><path d="M75.8906 192.6875 C75.4844 192.6875 75.1562 193.0469 75.1562 193.4219 C75.1562 193.8125 75.4844 194.1562 75.8906 194.1562 C76.2969 194.1562 76.6406 193.8125 76.6406 193.4219 C76.6406 193.0469 76.2969 192.6875 75.8906 192.6875 ZM77.4688 186.5781 C77.7188 186.8906 77.875 187.2656 77.8906 187.6562 C77.8906 188.1875 77.625 188.5 77.0312 188.7656 L76.4062 189.0156 C75.6406 189.3125 75.3906 189.5469 75.3906 189.9375 C75.3906 190.1094 75.4531 190.3438 75.5781 190.8125 L75.7344 191.3438 L76.1094 191.3438 L76.0938 190.5312 C76.0938 190.0938 76.2031 189.9688 76.7812 189.7344 L77.2031 189.5625 C78.0312 189.2188 78.4531 188.6875 78.4531 187.8438 C78.4531 186.1562 76.6562 185.1875 75.5 185.0312 C75.1094 185.125 74.9062 185.2969 74.9062 185.6406 C74.9062 185.9375 75.0625 186.1562 75.7188 186.2656 L77.4688 186.5781 Z" style="fill:black; stroke:none;"
      /><rect x="74" width="5" height="10" y="200" style="stroke:none;"
      /><path d="M75.8906 208.6875 C75.4844 208.6875 75.1562 209.0469 75.1562 209.4219 C75.1562 209.8125 75.4844 210.1562 75.8906 210.1562 C76.2969 210.1562 76.6406 209.8125 76.6406 209.4219 C76.6406 209.0469 76.2969 208.6875 75.8906 208.6875 ZM77.4688 202.5781 C77.7188 202.8906 77.875 203.2656 77.8906 203.6562 C77.8906 204.1875 77.625 204.5 77.0312 204.7656 L76.4062 205.0156 C75.6406 205.3125 75.3906 205.5469 75.3906 205.9375 C75.3906 206.1094 75.4531 206.3438 75.5781 206.8125 L75.7344 207.3438 L76.1094 207.3438 L76.0938 206.5312 C76.0938 206.0938 76.2031 205.9688 76.7812 205.7344 L77.2031 205.5625 C78.0312 205.2188 78.4531 204.6875 78.4531 203.8438 C78.4531 202.1562 76.6562 201.1875 75.5 201.0312 C75.1094 201.125 74.9062 201.2969 74.9062 201.6406 C74.9062 201.9375 75.0625 202.1562 75.7188 202.2656 L77.4688 202.5781 Z" style="fill:black; stroke:none;"
    /></g
    ><g style="text-rendering:optimizeSpeed; font-size:14px; font-family:'SansSerif';"
    ><path style="stroke:none;" d="M29.6094 202 L36.0625 202 L36.0625 200.8906 L33.2344 200.8906 C32.7031 200.8906 32.0781 200.9531 31.5469 200.9844 C33.9531 198.7031 35.5625 196.625 35.5625 194.5781 C35.5625 192.75 34.4219 191.5469 32.5781 191.5469 C31.2812 191.5469 30.4062 192.1406 29.5625 193.0469 L30.2969 193.7812 C30.8594 193.1094 31.5938 192.5938 32.4375 192.5938 C33.7031 192.5938 34.3125 193.4531 34.3125 194.625 C34.3125 196.3906 32.8438 198.4375 29.6094 201.25 L29.6094 202 ZM36.9731 202 L38.3168 202 L39.3481 200.2188 C39.6137 199.7656 39.8637 199.2969 40.1293 198.8594 L40.2075 198.8594 C40.4731 199.2969 40.7543 199.7656 41.0043 200.2188 L42.1293 202 L43.5356 202 L41.02 198.1562 L43.3325 194.3906 L42.0043 194.3906 L41.0668 196.0625 C40.8481 196.5 40.6137 196.9219 40.3793 197.3438 L40.3325 197.3438 C40.0668 196.9219 39.8012 196.5 39.5668 196.0625 L38.5512 194.3906 L37.1762 194.3906 L39.4887 198.0312 L36.9731 202 Z"
      /><rect x="47" y="134" width="22" style="clip-path:url(#clipPath3); fill:white; stroke:none;" height="22"
      /><rect x="47" y="134" width="22" style="clip-path:url(#clipPath3); fill:rgb(0,144,188); stroke:none;" height="22"
      /><rect x="47" y="134" width="22" style="fill:none; clip-path:url(#clipPath3);" height="22"
      /><rect x="47" width="22" height="22" y="134" style="fill:none;"
    /></g
    ><g style="fill:white; text-rendering:optimizeSpeed; font-family:'Serif'; stroke:white;"
    ><rect x="74" width="5" height="10" y="132" style="stroke:none;"
      /><path d="M75.8906 140.6875 C75.4844 140.6875 75.1562 141.0469 75.1562 141.4219 C75.1562 141.8125 75.4844 142.1562 75.8906 142.1562 C76.2969 142.1562 76.6406 141.8125 76.6406 141.4219 C76.6406 141.0469 76.2969 140.6875 75.8906 140.6875 ZM77.4688 134.5781 C77.7188 134.8906 77.875 135.2656 77.8906 135.6562 C77.8906 136.1875 77.625 136.5 77.0312 136.7656 L76.4062 137.0156 C75.6406 137.3125 75.3906 137.5469 75.3906 137.9375 C75.3906 138.1094 75.4531 138.3438 75.5781 138.8125 L75.7344 139.3438 L76.1094 139.3438 L76.0938 138.5312 C76.0938 138.0938 76.2031 137.9688 76.7812 137.7344 L77.2031 137.5625 C78.0312 137.2188 78.4531 136.6875 78.4531 135.8438 C78.4531 134.1562 76.6562 133.1875 75.5 133.0312 C75.1094 133.125 74.9062 133.2969 74.9062 133.6406 C74.9062 133.9375 75.0625 134.1562 75.7188 134.2656 L77.4688 134.5781 Z" style="fill:black; stroke:none;"
      /><rect x="74" width="5" height="10" y="148" style="stroke:none;"
      /><path d="M75.8906 156.6875 C75.4844 156.6875 75.1562 157.0469 75.1562 157.4219 C75.1562 157.8125 75.4844 158.1562 75.8906 158.1562 C76.2969 158.1562 76.6406 157.8125 76.6406 157.4219 C76.6406 157.0469 76.2969 156.6875 75.8906 156.6875 ZM77.4688 150.5781 C77.7188 150.8906 77.875 151.2656 77.8906 151.6562 C77.8906 152.1875 77.625 152.5 77.0312 152.7656 L76.4062 153.0156 C75.6406 153.3125 75.3906 153.5469 75.3906 153.9375 C75.3906 154.1094 75.4531 154.3438 75.5781 154.8125 L75.7344 155.3438 L76.1094 155.3438 L76.0938 154.5312 C76.0938 154.0938 76.2031 153.9688 76.7812 153.7344 L77.2031 153.5625 C78.0312 153.2188 78.4531 152.6875 78.4531 151.8438 C78.4531 150.1562 76.6562 149.1875 75.5 149.0312 C75.1094 149.125 74.9062 149.2969 74.9062 149.6406 C74.9062 149.9375 75.0625 150.1562 75.7188 150.2656 L77.4688 150.5781 Z" style="fill:black; stroke:none;"
    /></g
    ><g style="text-rendering:optimizeSpeed; font-size:14px; font-family:'SansSerif';"
    ><path style="stroke:none;" d="M29.6094 150 L36.0625 150 L36.0625 148.8906 L33.2344 148.8906 C32.7031 148.8906 32.0781 148.9531 31.5469 148.9844 C33.9531 146.7031 35.5625 144.625 35.5625 142.5781 C35.5625 140.75 34.4219 139.5469 32.5781 139.5469 C31.2812 139.5469 30.4062 140.1406 29.5625 141.0469 L30.2969 141.7812 C30.8594 141.1094 31.5938 140.5938 32.4375 140.5938 C33.7031 140.5938 34.3125 141.4531 34.3125 142.625 C34.3125 144.3906 32.8438 146.4375 29.6094 149.25 L29.6094 150 ZM36.9731 150 L38.3168 150 L39.3481 148.2188 C39.6137 147.7656 39.8637 147.2969 40.1293 146.8594 L40.2075 146.8594 C40.4731 147.2969 40.7543 147.7656 41.0043 148.2188 L42.1293 150 L43.5356 150 L41.02 146.1562 L43.3325 142.3906 L42.0043 142.3906 L41.0668 144.0625 C40.8481 144.5 40.6137 144.9219 40.3793 145.3438 L40.3325 145.3438 C40.0668 144.9219 39.8012 144.5 39.5668 144.0625 L38.5512 142.3906 L37.1762 142.3906 L39.4887 146.0312 L36.9731 150 Z"
      /><circle style="fill:white; clip-path:url(#clipPath4); stroke:none;" r="11" cx="58" cy="93"
      /><rect x="47" y="82" width="22" style="clip-path:url(#clipPath4); fill:rgb(0,144,188); stroke:none;" height="22"
      /><rect x="47" y="82" width="22" style="fill:none; clip-path:url(#clipPath4);" height="22"
      /><circle r="11" style="fill:none;" cx="58" cy="93"
    /></g
    ><g style="fill:white; text-rendering:optimizeSpeed; font-family:'Serif'; stroke:white;"
    ><rect x="74" width="5" height="10" y="80" style="stroke:none;"
      /><path d="M75.8906 88.6875 C75.4844 88.6875 75.1562 89.0469 75.1562 89.4219 C75.1562 89.8125 75.4844 90.1562 75.8906 90.1562 C76.2969 90.1562 76.6406 89.8125 76.6406 89.4219 C76.6406 89.0469 76.2969 88.6875 75.8906 88.6875 ZM77.4688 82.5781 C77.7188 82.8906 77.875 83.2656 77.8906 83.6562 C77.8906 84.1875 77.625 84.5 77.0312 84.7656 L76.4062 85.0156 C75.6406 85.3125 75.3906 85.5469 75.3906 85.9375 C75.3906 86.1094 75.4531 86.3438 75.5781 86.8125 L75.7344 87.3438 L76.1094 87.3438 L76.0938 86.5312 C76.0938 86.0938 76.2031 85.9688 76.7812 85.7344 L77.2031 85.5625 C78.0312 85.2188 78.4531 84.6875 78.4531 83.8438 C78.4531 82.1562 76.6562 81.1875 75.5 81.0312 C75.1094 81.125 74.9062 81.2969 74.9062 81.6406 C74.9062 81.9375 75.0625 82.1562 75.7188 82.2656 L77.4688 82.5781 Z" style="fill:black; stroke:none;"
      /><rect x="74" width="5" height="10" y="96" style="stroke:none;"
      /><path d="M75.8906 104.6875 C75.4844 104.6875 75.1562 105.0469 75.1562 105.4219 C75.1562 105.8125 75.4844 106.1562 75.8906 106.1562 C76.2969 106.1562 76.6406 105.8125 76.6406 105.4219 C76.6406 105.0469 76.2969 104.6875 75.8906 104.6875 ZM77.4688 98.5781 C77.7188 98.8906 77.875 99.2656 77.8906 99.6562 C77.8906 100.1875 77.625 100.5 77.0312 100.7656 L76.4062 101.0156 C75.6406 101.3125 75.3906 101.5469 75.3906 101.9375 C75.3906 102.1094 75.4531 102.3438 75.5781 102.8125 L75.7344 103.3438 L76.1094 103.3438 L76.0938 102.5312 C76.0938 102.0938 76.2031 101.9688 76.7812 101.7344 L77.2031 101.5625 C78.0312 101.2188 78.4531 100.6875 78.4531 99.8438 C78.4531 98.1562 76.6562 97.1875 75.5 97.0312 C75.1094 97.125 74.9062 97.2969 74.9062 97.6406 C74.9062 97.9375 75.0625 98.1562 75.7188 98.2656 L77.4688 98.5781 Z" style="fill:black; stroke:none;"
    /></g
    ><g style="text-rendering:optimizeSpeed; font-size:14px; font-family:'SansSerif';"
    ><path style="stroke:none;" d="M32.7031 98.1875 C34.5156 98.1875 35.9844 97.0938 35.9844 95.25 C35.9844 93.8594 35.0156 92.9375 33.8125 92.6562 L33.8125 92.5938 C34.8906 92.1875 35.6406 91.3594 35.6406 90.125 C35.6406 88.5 34.375 87.5469 32.6562 87.5469 C31.4688 87.5469 30.5469 88.0625 29.7812 88.7812 L30.4688 89.5938 C31.0469 89 31.7656 88.5938 32.5938 88.5938 C33.6562 88.5938 34.3281 89.2344 34.3281 90.2188 C34.3281 91.3281 33.6094 92.1719 31.4844 92.1719 L31.4844 93.1562 C33.8594 93.1562 34.6875 93.9844 34.6875 95.2031 C34.6875 96.3906 33.8125 97.125 32.5938 97.125 C31.4375 97.125 30.6562 96.5781 30.0469 95.9375 L29.4062 96.7812 C30.0781 97.5156 31.0938 98.1875 32.7031 98.1875 ZM36.9731 98 L38.3168 98 L39.3481 96.2188 C39.6137 95.7656 39.8637 95.2969 40.1293 94.8594 L40.2075 94.8594 C40.4731 95.2969 40.7543 95.7656 41.0043 96.2188 L42.1293 98 L43.5356 98 L41.02 94.1562 L43.3325 90.3906 L42.0043 90.3906 L41.0668 92.0625 C40.8481 92.5 40.6137 92.9219 40.3793 93.3438 L40.3325 93.3438 C40.0668 92.9219 39.8012 92.5 39.5668 92.0625 L38.5512 90.3906 L37.1762 90.3906 L39.4887 94.0312 L36.9731 98 Z"
      /><circle style="fill:white; clip-path:url(#clipPath5); stroke:none;" r="11" cx="58" cy="41"
      /><rect x="47" y="30" width="22" style="clip-path:url(#clipPath5); fill:rgb(255,212,0); stroke:none;" height="22"
      /><rect x="47" y="30" width="22" style="fill:none; clip-path:url(#clipPath5);" height="22"
      /><circle r="11" style="fill:none;" cx="58" cy="41"
    /></g
    ><g style="fill:white; text-rendering:optimizeSpeed; font-family:'Serif'; stroke:white;"
    ><rect x="74" width="5" height="10" y="28" style="stroke:none;"
      /><path d="M75.8906 36.6875 C75.4844 36.6875 75.1562 37.0469 75.1562 37.4219 C75.1562 37.8125 75.4844 38.1562 75.8906 38.1562 C76.2969 38.1562 76.6406 37.8125 76.6406 37.4219 C76.6406 37.0469 76.2969 36.6875 75.8906 36.6875 ZM77.4688 30.5781 C77.7188 30.8906 77.875 31.2656 77.8906 31.6562 C77.8906 32.1875 77.625 32.5 77.0312 32.7656 L76.4062 33.0156 C75.6406 33.3125 75.3906 33.5469 75.3906 33.9375 C75.3906 34.1094 75.4531 34.3438 75.5781 34.8125 L75.7344 35.3438 L76.1094 35.3438 L76.0938 34.5312 C76.0938 34.0938 76.2031 33.9688 76.7812 33.7344 L77.2031 33.5625 C78.0312 33.2188 78.4531 32.6875 78.4531 31.8438 C78.4531 30.1562 76.6562 29.1875 75.5 29.0312 C75.1094 29.125 74.9062 29.2969 74.9062 29.6406 C74.9062 29.9375 75.0625 30.1562 75.7188 30.2656 L77.4688 30.5781 Z" style="fill:black; stroke:none;"
      /><rect x="74" width="5" height="10" y="44" style="stroke:none;"
      /><path d="M75.8906 52.6875 C75.4844 52.6875 75.1562 53.0469 75.1562 53.4219 C75.1562 53.8125 75.4844 54.1562 75.8906 54.1562 C76.2969 54.1562 76.6406 53.8125 76.6406 53.4219 C76.6406 53.0469 76.2969 52.6875 75.8906 52.6875 ZM77.4688 46.5781 C77.7188 46.8906 77.875 47.2656 77.8906 47.6562 C77.8906 48.1875 77.625 48.5 77.0312 48.7656 L76.4062 49.0156 C75.6406 49.3125 75.3906 49.5469 75.3906 49.9375 C75.3906 50.1094 75.4531 50.3438 75.5781 50.8125 L75.7344 51.3438 L76.1094 51.3438 L76.0938 50.5312 C76.0938 50.0938 76.2031 49.9688 76.7812 49.7344 L77.2031 49.5625 C78.0312 49.2188 78.4531 48.6875 78.4531 47.8438 C78.4531 46.1562 76.6562 45.1875 75.5 45.0312 C75.1094 45.125 74.9062 45.2969 74.9062 45.6406 C74.9062 45.9375 75.0625 46.1562 75.7188 46.2656 L77.4688 46.5781 Z" style="fill:black; stroke:none;"
    /></g
    ><g style="text-rendering:optimizeSpeed; font-size:14px; font-family:'SansSerif';"
    ><path style="stroke:none;" d="M29.6094 46 L36.0625 46 L36.0625 44.8906 L33.2344 44.8906 C32.7031 44.8906 32.0781 44.9531 31.5469 44.9844 C33.9531 42.7031 35.5625 40.625 35.5625 38.5781 C35.5625 36.75 34.4219 35.5469 32.5781 35.5469 C31.2812 35.5469 30.4062 36.1406 29.5625 37.0469 L30.2969 37.7812 C30.8594 37.1094 31.5938 36.5938 32.4375 36.5938 C33.7031 36.5938 34.3125 37.4531 34.3125 38.625 C34.3125 40.3906 32.8438 42.4375 29.6094 45.25 L29.6094 46 ZM36.9731 46 L38.3168 46 L39.3481 44.2188 C39.6137 43.7656 39.8637 43.2969 40.1293 42.8594 L40.2075 42.8594 C40.4731 43.2969 40.7543 43.7656 41.0043 44.2188 L42.1293 46 L43.5356 46 L41.02 42.1562 L43.3325 38.3906 L42.0043 38.3906 L41.0668 40.0625 C40.8481 40.5 40.6137 40.9219 40.3793 41.3438 L40.3325 41.3438 C40.0668 40.9219 39.8012 40.5 39.5668 40.0625 L38.5512 38.3906 L37.1762 38.3906 L39.4887 42.0312 L36.9731 46 Z"
    /></g
    ><g ID="legend-1:0" style="text-rendering:optimizeSpeed; font-size:10px; font-family:'SansSerif';"
    ><path style="stroke:none;" d="M30.9219 298 L31.8281 298 L31.8281 294.0625 C32.375 293.5156 32.7656 293.2344 33.3125 293.2344 C34.0469 293.2344 34.3438 293.6562 34.3438 294.6875 L34.3438 298 L35.2656 298 L35.2656 294.5625 C35.2656 293.1719 34.7344 292.4375 33.5938 292.4375 C32.8594 292.4375 32.2969 292.8438 31.7812 293.3438 L31.75 293.3438 L31.6719 292.5625 L30.9219 292.5625 L30.9219 298 ZM39.1413 298.125 C40.4694 298.125 41.6569 297.0938 41.6569 295.2969 C41.6569 293.4844 40.4694 292.4375 39.1413 292.4375 C37.8131 292.4375 36.6256 293.4844 36.6256 295.2969 C36.6256 297.0938 37.8131 298.125 39.1413 298.125 ZM39.1413 297.375 C38.2038 297.375 37.5631 296.5469 37.5631 295.2969 C37.5631 294.0469 38.2038 293.1875 39.1413 293.1875 C40.0788 293.1875 40.7194 294.0469 40.7194 295.2969 C40.7194 296.5469 40.0788 297.375 39.1413 297.375 ZM47.16 300.5 C48.8475 300.5 49.91 299.625 49.91 298.625 C49.91 297.7344 49.2694 297.3281 48.0038 297.3281 L46.9569 297.3281 C46.2225 297.3281 46.0038 297.0938 46.0038 296.7344 C46.0038 296.4375 46.1444 296.2656 46.3475 296.0938 C46.5975 296.2031 46.8944 296.2812 47.16 296.2812 C48.2538 296.2812 49.1444 295.5469 49.1444 294.3906 C49.1444 293.9219 48.9569 293.5156 48.7069 293.2656 L49.8163 293.2656 L49.8163 292.5625 L47.9256 292.5625 C47.7225 292.5 47.4569 292.4375 47.16 292.4375 C46.0663 292.4375 45.1131 293.1875 45.1131 294.375 C45.1131 295.0156 45.4725 295.5469 45.8319 295.8281 L45.8319 295.875 C45.5506 296.0625 45.2225 296.4375 45.2225 296.875 C45.2225 297.3125 45.4256 297.5938 45.7225 297.7656 L45.7225 297.8125 C45.2069 298.1406 44.9256 298.5781 44.9256 299.0469 C44.9256 299.9844 45.8319 300.5 47.16 300.5 ZM47.16 295.6562 C46.535 295.6562 46.0038 295.1562 46.0038 294.375 C46.0038 293.5625 46.5194 293.0938 47.16 293.0938 C47.8006 293.0938 48.3163 293.5781 48.3163 294.375 C48.3163 295.1562 47.785 295.6562 47.16 295.6562 ZM47.285 299.875 C46.3163 299.875 45.7225 299.5 45.7225 298.9219 C45.7225 298.5938 45.8788 298.2812 46.2694 298 C46.5038 298.0625 46.7694 298.0938 46.9725 298.0938 L47.91 298.0938 C48.6288 298.0938 49.0194 298.2656 49.0194 298.7656 C49.0194 299.3281 48.3319 299.875 47.285 299.875 ZM51.915 298.125 C52.165 298.125 52.3212 298.0938 52.4462 298.0469 L52.3212 297.3438 C52.2275 297.375 52.1806 297.375 52.1337 297.375 C51.9931 297.375 51.8681 297.2656 51.8681 296.9844 L51.8681 290.0469 L50.9619 290.0469 L50.9619 296.9219 C50.9619 297.6875 51.2431 298.125 51.915 298.125 ZM53.9056 300.3438 C54.9837 300.3438 55.5462 299.5156 55.9212 298.4531 L57.9681 292.5625 L57.0775 292.5625 L56.1087 295.5938 C55.9525 296.0625 55.7962 296.625 55.6556 297.1094 L55.5931 297.1094 C55.4369 296.625 55.2337 296.0625 55.0775 295.5938 L53.9681 292.5625 L53.015 292.5625 L55.2025 298.0156 L55.0775 298.4219 C54.8587 299.0938 54.4681 299.5938 53.8431 299.5938 C53.7025 299.5938 53.5462 299.5469 53.4369 299.5 L53.265 300.2344 C53.4369 300.2969 53.64 300.3438 53.9056 300.3438 ZM61.1625 298.125 C61.8031 298.125 62.4281 297.875 62.9125 297.4375 L62.5219 296.8281 C62.1781 297.1406 61.7406 297.375 61.2406 297.375 C60.2406 297.375 59.5531 296.5469 59.5531 295.2969 C59.5531 294.0469 60.2875 293.1875 61.2719 293.1875 C61.6937 293.1875 62.0375 293.3906 62.35 293.6719 L62.8187 293.0625 C62.4281 292.7344 61.9437 292.4375 61.225 292.4375 C59.8344 292.4375 58.6156 293.4844 58.6156 295.2969 C58.6156 297.0938 59.725 298.125 61.1625 298.125 ZM66.2212 298.125 C67.5493 298.125 68.7368 297.0938 68.7368 295.2969 C68.7368 293.4844 67.5493 292.4375 66.2212 292.4375 C64.8931 292.4375 63.7056 293.4844 63.7056 295.2969 C63.7056 297.0938 64.8931 298.125 66.2212 298.125 ZM66.2212 297.375 C65.2837 297.375 64.6431 296.5469 64.6431 295.2969 C64.6431 294.0469 65.2837 293.1875 66.2212 293.1875 C67.1587 293.1875 67.7993 294.0469 67.7993 295.2969 C67.7993 296.5469 67.1587 297.375 66.2212 297.375 ZM71.5937 298.125 C72.875 298.125 73.5625 297.4062 73.5625 296.5156 C73.5625 295.4844 72.7031 295.1719 71.9062 294.875 C71.2968 294.6406 70.7343 294.4531 70.7343 293.9375 C70.7343 293.5156 71.0625 293.1562 71.75 293.1562 C72.2343 293.1562 72.6093 293.3438 72.9843 293.625 L73.4218 293.0469 C73 292.7031 72.4062 292.4375 71.7343 292.4375 C70.5625 292.4375 69.8593 293.1094 69.8593 293.9688 C69.8593 294.8906 70.6875 295.2656 71.4531 295.5469 C72.0468 295.7656 72.6875 296.0156 72.6875 296.5625 C72.6875 297.0469 72.3437 297.4219 71.625 297.4219 C70.9687 297.4219 70.4843 297.1562 70.0156 296.7812 L69.5625 297.375 C70.0781 297.8125 70.8125 298.125 71.5937 298.125 ZM74.8518 298 L75.7581 298 L75.7581 292.5625 L74.8518 292.5625 L74.8518 298 ZM75.305 291.4531 C75.6643 291.4531 75.9143 291.2031 75.9143 290.8438 C75.9143 290.4844 75.6643 290.25 75.305 290.25 C74.9456 290.25 74.6956 290.4844 74.6956 290.8438 C74.6956 291.2031 74.9456 291.4531 75.305 291.4531 ZM79.4456 298.125 C80.1018 298.125 80.6643 297.7812 81.1018 297.3594 L81.1331 297.3594 L81.2112 298 L81.9456 298 L81.9456 290.0469 L81.055 290.0469 L81.055 292.125 L81.0862 293.0625 C80.6175 292.6719 80.1956 292.4375 79.555 292.4375 C78.3206 292.4375 77.2112 293.5312 77.2112 295.2969 C77.2112 297.0938 78.0862 298.125 79.4456 298.125 ZM79.6487 297.375 C78.6956 297.375 78.1487 296.5938 78.1487 295.2812 C78.1487 294.0469 78.8362 293.2031 79.7268 293.2031 C80.1643 293.2031 80.5862 293.3594 81.055 293.7656 L81.055 296.625 C80.5862 297.125 80.1487 297.375 79.6487 297.375 ZM83.8018 298 L84.7081 298 L84.7081 292.5625 L83.8018 292.5625 L83.8018 298 ZM84.255 291.4531 C84.6143 291.4531 84.8643 291.2031 84.8643 290.8438 C84.8643 290.4844 84.6143 290.25 84.255 290.25 C83.8956 290.25 83.6456 290.4844 83.6456 290.8438 C83.6456 291.2031 83.8956 291.4531 84.255 291.4531 ZM88.6925 298.125 C89.3331 298.125 89.9581 297.875 90.4425 297.4375 L90.0518 296.8281 C89.7081 297.1406 89.2706 297.375 88.7706 297.375 C87.7706 297.375 87.0831 296.5469 87.0831 295.2969 C87.0831 294.0469 87.8175 293.1875 88.8018 293.1875 C89.2237 293.1875 89.5675 293.3906 89.88 293.6719 L90.3487 293.0625 C89.9581 292.7344 89.4737 292.4375 88.755 292.4375 C87.3643 292.4375 86.1456 293.4844 86.1456 295.2969 C86.1456 297.0938 87.255 298.125 88.6925 298.125 ZM94.835 298.125 C95.085 298.125 95.2412 298.0938 95.3662 298.0469 L95.2412 297.3438 C95.1475 297.375 95.1006 297.375 95.0537 297.375 C94.9131 297.375 94.7881 297.2656 94.7881 296.9844 L94.7881 290.0469 L93.8818 290.0469 L93.8818 296.9219 C93.8818 297.6875 94.1631 298.125 94.835 298.125 ZM96.7318 298 L97.6381 298 L97.6381 292.5625 L96.7318 292.5625 L96.7318 298 ZM97.185 291.4531 C97.5443 291.4531 97.7943 291.2031 97.7943 290.8438 C97.7943 290.4844 97.5443 290.25 97.185 290.25 C96.8256 290.25 96.5756 290.4844 96.5756 290.8438 C96.5756 291.2031 96.8256 291.4531 97.185 291.4531 ZM99.4818 298 L100.3881 298 L100.3881 294.0625 C100.935 293.5156 101.3256 293.2344 101.8725 293.2344 C102.6068 293.2344 102.9037 293.6562 102.9037 294.6875 L102.9037 298 L103.8256 298 L103.8256 294.5625 C103.8256 293.1719 103.2943 292.4375 102.1537 292.4375 C101.4193 292.4375 100.8568 292.8438 100.3412 293.3438 L100.31 293.3438 L100.2318 292.5625 L99.4818 292.5625 L99.4818 298 ZM105.5918 298 L106.4825 298 L106.4825 296.5625 L107.5137 295.375 L109.1075 298 L110.0918 298 L108.045 294.7656 L109.8575 292.5625 L108.8262 292.5625 L106.5137 295.4375 L106.4825 295.4375 L106.4825 290.0469 L105.5918 290.0469 L105.5918 298 ZM112.3618 298.125 C113.0337 298.125 113.6431 297.7812 114.1587 297.3438 L114.1899 297.3438 L114.2681 298 L115.0181 298 L115.0181 294.6562 C115.0181 293.3125 114.4556 292.4375 113.1431 292.4375 C112.2681 292.4375 111.5024 292.8125 111.0024 293.1406 L111.3618 293.7656 C111.7837 293.4844 112.3618 293.1875 112.9868 293.1875 C113.8774 293.1875 114.1118 293.8594 114.1118 294.5625 C111.7993 294.8125 110.7681 295.4062 110.7681 296.5938 C110.7681 297.5625 111.4556 298.125 112.3618 298.125 ZM112.6274 297.4062 C112.0806 297.4062 111.6587 297.1562 111.6587 296.5312 C111.6587 295.8281 112.2837 295.375 114.1118 295.1562 L114.1118 296.6875 C113.5806 297.1562 113.1431 297.4062 112.6274 297.4062 ZM118.5799 300.5 C120.2674 300.5 121.3299 299.625 121.3299 298.625 C121.3299 297.7344 120.6893 297.3281 119.4237 297.3281 L118.3768 297.3281 C117.6424 297.3281 117.4237 297.0938 117.4237 296.7344 C117.4237 296.4375 117.5643 296.2656 117.7674 296.0938 C118.0174 296.2031 118.3143 296.2812 118.5799 296.2812 C119.6737 296.2812 120.5643 295.5469 120.5643 294.3906 C120.5643 293.9219 120.3768 293.5156 120.1268 293.2656 L121.2362 293.2656 L121.2362 292.5625 L119.3456 292.5625 C119.1424 292.5 118.8768 292.4375 118.5799 292.4375 C117.4862 292.4375 116.5331 293.1875 116.5331 294.375 C116.5331 295.0156 116.8924 295.5469 117.2518 295.8281 L117.2518 295.875 C116.9706 296.0625 116.6424 296.4375 116.6424 296.875 C116.6424 297.3125 116.8456 297.5938 117.1424 297.7656 L117.1424 297.8125 C116.6268 298.1406 116.3456 298.5781 116.3456 299.0469 C116.3456 299.9844 117.2518 300.5 118.5799 300.5 ZM118.5799 295.6562 C117.9549 295.6562 117.4237 295.1562 117.4237 294.375 C117.4237 293.5625 117.9393 293.0938 118.5799 293.0938 C119.2206 293.0938 119.7362 293.5781 119.7362 294.375 C119.7362 295.1562 119.2049 295.6562 118.5799 295.6562 ZM118.7049 299.875 C117.7362 299.875 117.1424 299.5 117.1424 298.9219 C117.1424 298.5938 117.2987 298.2812 117.6893 298 C117.9237 298.0625 118.1893 298.0938 118.3924 298.0938 L119.3299 298.0938 C120.0487 298.0938 120.4393 298.2656 120.4393 298.7656 C120.4393 299.3281 119.7518 299.875 118.7049 299.875 ZM124.5693 298.125 C125.3037 298.125 125.8974 297.875 126.3662 297.5625 L126.0381 296.9688 C125.6474 297.2344 125.2099 297.4062 124.6787 297.4062 C123.6474 297.4062 122.9443 296.6562 122.8818 295.5 L126.5381 295.5 C126.5537 295.375 126.5849 295.1875 126.5849 294.9844 C126.5849 293.4375 125.8037 292.4375 124.4131 292.4375 C123.1631 292.4375 121.9756 293.5312 121.9756 295.2969 C121.9756 297.0781 123.1318 298.125 124.5693 298.125 ZM122.8662 294.8438 C122.9756 293.7812 123.6631 293.1562 124.4287 293.1562 C125.2724 293.1562 125.7724 293.75 125.7724 294.8438 L122.8662 294.8438 ZM129.3437 298.125 C130.6249 298.125 131.3124 297.4062 131.3124 296.5156 C131.3124 295.4844 130.453 295.1719 129.6562 294.875 C129.0468 294.6406 128.4843 294.4531 128.4843 293.9375 C128.4843 293.5156 128.8124 293.1562 129.4999 293.1562 C129.9843 293.1562 130.3593 293.3438 130.7343 293.625 L131.1718 293.0469 C130.7499 292.7031 130.1562 292.4375 129.4843 292.4375 C128.3124 292.4375 127.6093 293.1094 127.6093 293.9688 C127.6093 294.8906 128.4374 295.2656 129.203 295.5469 C129.7968 295.7656 130.4374 296.0156 130.4374 296.5625 C130.4374 297.0469 130.0937 297.4219 129.3749 297.4219 C128.7187 297.4219 128.2343 297.1562 127.7655 296.7812 L127.3124 297.375 C127.828 297.8125 128.5624 298.125 129.3437 298.125 Z"
    /></g
  ></g
></svg
>
