<?xml version="1.0"?>
<!DOCTYPE svg PUBLIC '-//W3C//DTD SVG 1.0//EN'
          'http://www.w3.org/TR/2001/REC-SVG-20010904/DTD/svg10.dtd'>
<svg xmlns:xlink="http://www.w3.org/1999/xlink" style="fill-opacity:1; color-rendering:auto; color-interpolation:auto; text-rendering:auto; stroke:black; stroke-linecap:square; stroke-miterlimit:10; shape-rendering:auto; stroke-opacity:1; fill:black; stroke-dasharray:none; font-weight:normal; stroke-width:1; font-family:'Dialog'; font-style:normal; stroke-linejoin:miter; font-size:12px; stroke-dashoffset:0; image-rendering:auto;" viewBox="0 0 290 134" xmlns="http://www.w3.org/2000/svg"
><!--Generated by the Batik Graphics2D SVG Generator--><defs id="genericDefs"
  /><g
  ><defs id="defs1"
    ><clipPath clipPathUnits="userSpaceOnUse" id="clipPath1"
      ><path d="M208 93 C208 99.0751 203.0751 104 197 104 C190.9249 104 186 99.0751 186 93 C186 86.9249 190.9249 82 197 82 C203.0751 82 208 86.9249 208 93 Z"
      /></clipPath
      ><clipPath clipPathUnits="userSpaceOnUse" id="clipPath2"
      ><path d="M156 93 C156 99.0751 151.0751 104 145 104 C138.9249 104 134 99.0751 134 93 C134 86.9249 138.9249 82 145 82 C151.0751 82 156 86.9249 156 93 Z"
      /></clipPath
      ><clipPath clipPathUnits="userSpaceOnUse" id="clipPath3"
      ><path d="M82 82 L104 82 L104 104 L82 104 L82 82 Z"
      /></clipPath
      ><clipPath clipPathUnits="userSpaceOnUse" id="clipPath4"
      ><path style="fill-rule:evenodd;" d="M93 52 L82 30 L104 30 Z"
      /></clipPath
      ><clipPath clipPathUnits="userSpaceOnUse" id="clipPath5"
      ><path d="M52 93 C52 99.0751 47.0751 104 41 104 C34.9249 104 30 99.0751 30 93 C30 86.9249 34.9249 82 41 82 C47.0751 82 52 86.9249 52 93 Z"
      /></clipPath
      ><clipPath clipPathUnits="userSpaceOnUse" id="clipPath6"
      ><path style="fill-rule:evenodd;" d="M145 52 L134 30 L156 30 Z"
      /></clipPath
    ></defs
    ><g style="fill:white; text-rendering:optimizeSpeed; stroke:white;"
    ><rect x="0" width="290" height="134" y="0" style="stroke:none;"
      /><polygon style="fill:none; stroke:black;" points=" 249 93 197 93"
      /><path d="M249 82 C243.5 87.5 254.5 98.5 249 104" style="fill:none; stroke:black;"
      /><polygon style="fill:none; stroke:black;" points=" 197 93 145 93"
      /><circle style="clip-path:url(#clipPath1); stroke:none;" r="11" cx="197" cy="93"
      /><rect x="186" y="82" width="22" style="clip-path:url(#clipPath1); fill:rgb(0,144,188); stroke:none;" height="22"
      /><rect x="186" y="82" width="22" style="clip-path:url(#clipPath1); fill:none; stroke:black;" height="22"
      /><circle style="fill:none; stroke:black;" r="11" cx="197" cy="93"
      /><polygon style="fill:none; stroke:black;" points=" 145 93 93 93"
      /><polygon style="fill:none; stroke:black;" points=" 145 93 145 41"
      /><circle style="clip-path:url(#clipPath2); stroke:none;" r="11" cx="145" cy="93"
      /><rect x="134" y="82" width="22" style="clip-path:url(#clipPath2); fill:rgb(255,212,0); stroke:none;" height="22"
      /><rect x="134" y="82" width="22" style="clip-path:url(#clipPath2); fill:none; stroke:black;" height="22"
      /><circle style="fill:none; stroke:black;" r="11" cx="145" cy="93"
      /><polygon style="fill:none; stroke:black;" points=" 93 93 93 41"
      /><polygon style="fill:none; stroke:black;" points=" 93 93 41 93"
      /><rect x="82" y="82" width="22" style="clip-path:url(#clipPath3); stroke:none;" height="22"
      /><rect x="82" y="82" width="22" style="clip-path:url(#clipPath3); fill:rgb(0,144,188); stroke:none;" height="22"
      /><rect x="82" y="82" width="22" style="clip-path:url(#clipPath3); fill:none; stroke:black;" height="22"
      /><rect x="82" y="82" width="22" style="fill:none; stroke:black;" height="22"
      /><polygon style="clip-path:url(#clipPath4); stroke:none;" points=" 93 52 82 30 104 30"
      /><rect x="82" y="30" width="22" style="clip-path:url(#clipPath4); fill:rgb(237,28,36); stroke:none;" height="22"
      /><rect x="82" y="30" width="22" style="clip-path:url(#clipPath4); fill:none; stroke:black;" height="22"
      /><polygon style="fill:none; stroke:black;" points=" 93 52 82 30 104 30"
      /><circle style="clip-path:url(#clipPath5); stroke:none;" r="11" cx="41" cy="93"
      /><rect x="30" y="82" width="22" style="clip-path:url(#clipPath5); fill:rgb(255,212,0); stroke:none;" height="22"
      /><rect x="30" y="82" width="22" style="clip-path:url(#clipPath5); fill:none; stroke:black;" height="22"
      /><circle style="fill:none; stroke:black;" r="11" cx="41" cy="93"
      /><rect x="82" y="69" width="5" style="stroke:none;" height="10"
    /></g
    ><g style="font-family:'Serif'; text-rendering:optimizeSpeed; "
    ><path style="stroke:none;" d="M83.8906 77.6875 C83.4844 77.6875 83.1562 78.0469 83.1562 78.4219 C83.1562 78.8125 83.4844 79.1562 83.8906 79.1562 C84.2969 79.1562 84.6406 78.8125 84.6406 78.4219 C84.6406 78.0469 84.2969 77.6875 83.8906 77.6875 ZM85.4688 71.5781 C85.7188 71.8906 85.875 72.2656 85.8906 72.6562 C85.8906 73.1875 85.625 73.5 85.0312 73.7656 L84.4062 74.0156 C83.6406 74.3125 83.3906 74.5469 83.3906 74.9375 C83.3906 75.1094 83.4531 75.3438 83.5781 75.8125 L83.7344 76.3438 L84.1094 76.3438 L84.0938 75.5312 C84.0938 75.0938 84.2031 74.9688 84.7812 74.7344 L85.2031 74.5625 C86.0312 74.2188 86.4531 73.6875 86.4531 72.8438 C86.4531 71.1562 84.6562 70.1875 83.5 70.0312 C83.1094 70.125 82.9062 70.2969 82.9062 70.6406 C82.9062 70.9375 83.0625 71.1562 83.7188 71.2656 L85.4688 71.5781 Z"
      /><rect x="82" y="55" width="5" style="fill:white; stroke:none;" height="10"
      /><path style="stroke:none;" d="M83.8906 63.6875 C83.4844 63.6875 83.1562 64.0469 83.1562 64.4219 C83.1562 64.8125 83.4844 65.1562 83.8906 65.1562 C84.2969 65.1562 84.6406 64.8125 84.6406 64.4219 C84.6406 64.0469 84.2969 63.6875 83.8906 63.6875 ZM85.4688 57.5781 C85.7188 57.8906 85.875 58.2656 85.8906 58.6562 C85.8906 59.1875 85.625 59.5 85.0312 59.7656 L84.4062 60.0156 C83.6406 60.3125 83.3906 60.5469 83.3906 60.9375 C83.3906 61.1094 83.4531 61.3438 83.5781 61.8125 L83.7344 62.3438 L84.1094 62.3438 L84.0938 61.5312 C84.0938 61.0938 84.2031 60.9688 84.7812 60.7344 L85.2031 60.5625 C86.0312 60.2188 86.4531 59.6875 86.4531 58.8438 C86.4531 57.1562 84.6562 56.1875 83.5 56.0312 C83.1094 56.125 82.9062 56.2969 82.9062 56.6406 C82.9062 56.9375 83.0625 57.1562 83.7188 57.2656 L85.4688 57.5781 Z"
      /><rect x="71" y="96" width="5" style="fill:white; stroke:none;" height="10"
      /><path style="stroke:none;" d="M72.8906 104.6875 C72.4844 104.6875 72.1562 105.0469 72.1562 105.4219 C72.1562 105.8125 72.4844 106.1562 72.8906 106.1562 C73.2969 106.1562 73.6406 105.8125 73.6406 105.4219 C73.6406 105.0469 73.2969 104.6875 72.8906 104.6875 ZM74.4688 98.5781 C74.7188 98.8906 74.875 99.2656 74.8906 99.6562 C74.8906 100.1875 74.625 100.5 74.0312 100.7656 L73.4062 101.0156 C72.6406 101.3125 72.3906 101.5469 72.3906 101.9375 C72.3906 102.1094 72.4531 102.3438 72.5781 102.8125 L72.7344 103.3438 L73.1094 103.3438 L73.0938 102.5312 C73.0938 102.0938 73.2031 101.9688 73.7812 101.7344 L74.2031 101.5625 C75.0312 101.2188 75.4531 100.6875 75.4531 99.8438 C75.4531 98.1562 73.6562 97.1875 72.5 97.0312 C72.1094 97.125 71.9062 97.2969 71.9062 97.6406 C71.9062 97.9375 72.0625 98.1562 72.7188 98.2656 L74.4688 98.5781 Z"
      /><rect x="57" y="96" width="5" style="fill:white; stroke:none;" height="10"
      /><path style="stroke:none;" d="M58.8906 104.6875 C58.4844 104.6875 58.1562 105.0469 58.1562 105.4219 C58.1562 105.8125 58.4844 106.1562 58.8906 106.1562 C59.2969 106.1562 59.6406 105.8125 59.6406 105.4219 C59.6406 105.0469 59.2969 104.6875 58.8906 104.6875 ZM60.4688 98.5781 C60.7188 98.8906 60.875 99.2656 60.8906 99.6562 C60.8906 100.1875 60.625 100.5 60.0312 100.7656 L59.4062 101.0156 C58.6406 101.3125 58.3906 101.5469 58.3906 101.9375 C58.3906 102.1094 58.4531 102.3438 58.5781 102.8125 L58.7344 103.3438 L59.1094 103.3438 L59.0938 102.5312 C59.0938 102.0938 59.2031 101.9688 59.7812 101.7344 L60.2031 101.5625 C61.0312 101.2188 61.4531 100.6875 61.4531 99.8438 C61.4531 98.1562 59.6562 97.1875 58.5 97.0312 C58.1094 97.125 57.9062 97.2969 57.9062 97.6406 C57.9062 97.9375 58.0625 98.1562 58.7188 98.2656 L60.4688 98.5781 Z"
      /><polygon style="fill:white; clip-path:url(#clipPath6); stroke:none;" points=" 145 52 134 30 156 30"
      /><rect x="134" y="30" width="22" style="clip-path:url(#clipPath6); fill:rgb(237,28,36); stroke:none;" height="22"
      /><rect x="134" y="30" width="22" style="fill:none; clip-path:url(#clipPath6);" height="22"
      /><polygon style="fill:none;" points=" 145 52 134 30 156 30"
      /><rect x="123" y="96" width="5" style="fill:white; stroke:none;" height="10"
      /><path style="stroke:none;" d="M124.8906 104.6875 C124.4844 104.6875 124.1562 105.0469 124.1562 105.4219 C124.1562 105.8125 124.4844 106.1562 124.8906 106.1562 C125.2969 106.1562 125.6406 105.8125 125.6406 105.4219 C125.6406 105.0469 125.2969 104.6875 124.8906 104.6875 ZM126.4688 98.5781 C126.7188 98.8906 126.875 99.2656 126.8906 99.6562 C126.8906 100.1875 126.625 100.5 126.0312 100.7656 L125.4062 101.0156 C124.6406 101.3125 124.3906 101.5469 124.3906 101.9375 C124.3906 102.1094 124.4531 102.3438 124.5781 102.8125 L124.7344 103.3438 L125.1094 103.3438 L125.0938 102.5312 C125.0938 102.0938 125.2031 101.9688 125.7812 101.7344 L126.2031 101.5625 C127.0312 101.2188 127.4531 100.6875 127.4531 99.8438 C127.4531 98.1562 125.6562 97.1875 124.5 97.0312 C124.1094 97.125 123.9062 97.2969 123.9062 97.6406 C123.9062 97.9375 124.0625 98.1562 124.7188 98.2656 L126.4688 98.5781 Z"
      /><rect x="109" y="96" width="5" style="fill:white; stroke:none;" height="10"
      /><path style="stroke:none;" d="M110.8906 104.6875 C110.4844 104.6875 110.1562 105.0469 110.1562 105.4219 C110.1562 105.8125 110.4844 106.1562 110.8906 106.1562 C111.2969 106.1562 111.6406 105.8125 111.6406 105.4219 C111.6406 105.0469 111.2969 104.6875 110.8906 104.6875 ZM112.4688 98.5781 C112.7188 98.8906 112.875 99.2656 112.8906 99.6562 C112.8906 100.1875 112.625 100.5 112.0312 100.7656 L111.4062 101.0156 C110.6406 101.3125 110.3906 101.5469 110.3906 101.9375 C110.3906 102.1094 110.4531 102.3438 110.5781 102.8125 L110.7344 103.3438 L111.1094 103.3438 L111.0938 102.5312 C111.0938 102.0938 111.2031 101.9688 111.7812 101.7344 L112.2031 101.5625 C113.0312 101.2188 113.4531 100.6875 113.4531 99.8438 C113.4531 98.1562 111.6562 97.1875 110.5 97.0312 C110.1094 97.125 109.9062 97.2969 109.9062 97.6406 C109.9062 97.9375 110.0625 98.1562 110.7188 98.2656 L112.4688 98.5781 Z"
      /><rect x="134" y="69" width="5" style="fill:white; stroke:none;" height="10"
      /><path style="stroke:none;" d="M135.8906 77.6875 C135.4844 77.6875 135.1562 78.0469 135.1562 78.4219 C135.1562 78.8125 135.4844 79.1562 135.8906 79.1562 C136.2969 79.1562 136.6406 78.8125 136.6406 78.4219 C136.6406 78.0469 136.2969 77.6875 135.8906 77.6875 ZM137.4688 71.5781 C137.7188 71.8906 137.875 72.2656 137.8906 72.6562 C137.8906 73.1875 137.625 73.5 137.0312 73.7656 L136.4062 74.0156 C135.6406 74.3125 135.3906 74.5469 135.3906 74.9375 C135.3906 75.1094 135.4531 75.3438 135.5781 75.8125 L135.7344 76.3438 L136.1094 76.3438 L136.0938 75.5312 C136.0938 75.0938 136.2031 74.9688 136.7812 74.7344 L137.2031 74.5625 C138.0312 74.2188 138.4531 73.6875 138.4531 72.8438 C138.4531 71.1562 136.6562 70.1875 135.5 70.0312 C135.1094 70.125 134.9062 70.2969 134.9062 70.6406 C134.9062 70.9375 135.0625 71.1562 135.7188 71.2656 L137.4688 71.5781 Z"
      /><rect x="134" y="55" width="5" style="fill:white; stroke:none;" height="10"
      /><path style="stroke:none;" d="M135.8906 63.6875 C135.4844 63.6875 135.1562 64.0469 135.1562 64.4219 C135.1562 64.8125 135.4844 65.1562 135.8906 65.1562 C136.2969 65.1562 136.6406 64.8125 136.6406 64.4219 C136.6406 64.0469 136.2969 63.6875 135.8906 63.6875 ZM137.4688 57.5781 C137.7188 57.8906 137.875 58.2656 137.8906 58.6562 C137.8906 59.1875 137.625 59.5 137.0312 59.7656 L136.4062 60.0156 C135.6406 60.3125 135.3906 60.5469 135.3906 60.9375 C135.3906 61.1094 135.4531 61.3438 135.5781 61.8125 L135.7344 62.3438 L136.1094 62.3438 L136.0938 61.5312 C136.0938 61.0938 136.2031 60.9688 136.7812 60.7344 L137.2031 60.5625 C138.0312 60.2188 138.4531 59.6875 138.4531 58.8438 C138.4531 57.1562 136.6562 56.1875 135.5 56.0312 C135.1094 56.125 134.9062 56.2969 134.9062 56.6406 C134.9062 56.9375 135.0625 57.1562 135.7188 57.2656 L137.4688 57.5781 Z"
      /><rect x="175" y="96" width="5" style="fill:white; stroke:none;" height="10"
      /><path style="stroke:none;" d="M176.8906 104.6875 C176.4844 104.6875 176.1562 105.0469 176.1562 105.4219 C176.1562 105.8125 176.4844 106.1562 176.8906 106.1562 C177.2969 106.1562 177.6406 105.8125 177.6406 105.4219 C177.6406 105.0469 177.2969 104.6875 176.8906 104.6875 ZM178.4688 98.5781 C178.7188 98.8906 178.875 99.2656 178.8906 99.6562 C178.8906 100.1875 178.625 100.5 178.0312 100.7656 L177.4062 101.0156 C176.6406 101.3125 176.3906 101.5469 176.3906 101.9375 C176.3906 102.1094 176.4531 102.3438 176.5781 102.8125 L176.7344 103.3438 L177.1094 103.3438 L177.0938 102.5312 C177.0938 102.0938 177.2031 101.9688 177.7812 101.7344 L178.2031 101.5625 C179.0312 101.2188 179.4531 100.6875 179.4531 99.8438 C179.4531 98.1562 177.6562 97.1875 176.5 97.0312 C176.1094 97.125 175.9062 97.2969 175.9062 97.6406 C175.9062 97.9375 176.0625 98.1562 176.7188 98.2656 L178.4688 98.5781 Z"
      /><rect x="161" y="96" width="5" style="fill:white; stroke:none;" height="10"
      /><path style="stroke:none;" d="M162.8906 104.6875 C162.4844 104.6875 162.1562 105.0469 162.1562 105.4219 C162.1562 105.8125 162.4844 106.1562 162.8906 106.1562 C163.2969 106.1562 163.6406 105.8125 163.6406 105.4219 C163.6406 105.0469 163.2969 104.6875 162.8906 104.6875 ZM164.4688 98.5781 C164.7188 98.8906 164.875 99.2656 164.8906 99.6562 C164.8906 100.1875 164.625 100.5 164.0312 100.7656 L163.4062 101.0156 C162.6406 101.3125 162.3906 101.5469 162.3906 101.9375 C162.3906 102.1094 162.4531 102.3438 162.5781 102.8125 L162.7344 103.3438 L163.1094 103.3438 L163.0938 102.5312 C163.0938 102.0938 163.2031 101.9688 163.7812 101.7344 L164.2031 101.5625 C165.0312 101.2188 165.4531 100.6875 165.4531 99.8438 C165.4531 98.1562 163.6562 97.1875 162.5 97.0312 C162.1094 97.125 161.9062 97.2969 161.9062 97.6406 C161.9062 97.9375 162.0625 98.1562 162.7188 98.2656 L164.4688 98.5781 Z"
      /><rect x="213" y="96" width="5" style="fill:white; stroke:none;" height="10"
      /><path style="stroke:none;" d="M214.8906 104.6875 C214.4844 104.6875 214.1562 105.0469 214.1562 105.4219 C214.1562 105.8125 214.4844 106.1562 214.8906 106.1562 C215.2969 106.1562 215.6406 105.8125 215.6406 105.4219 C215.6406 105.0469 215.2969 104.6875 214.8906 104.6875 ZM216.4688 98.5781 C216.7188 98.8906 216.875 99.2656 216.8906 99.6562 C216.8906 100.1875 216.625 100.5 216.0312 100.7656 L215.4062 101.0156 C214.6406 101.3125 214.3906 101.5469 214.3906 101.9375 C214.3906 102.1094 214.4531 102.3438 214.5781 102.8125 L214.7344 103.3438 L215.1094 103.3438 L215.0938 102.5312 C215.0938 102.0938 215.2031 101.9688 215.7812 101.7344 L216.2031 101.5625 C217.0312 101.2188 217.4531 100.6875 217.4531 99.8438 C217.4531 98.1562 215.6562 97.1875 214.5 97.0312 C214.1094 97.125 213.9062 97.2969 213.9062 97.6406 C213.9062 97.9375 214.0625 98.1562 214.7188 98.2656 L216.4688 98.5781 Z"
    /></g
  ></g
></svg
>
