<?xml version="1.0"?>
<!DOCTYPE svg PUBLIC '-//W3C//DTD SVG 1.0//EN'
          'http://www.w3.org/TR/2001/REC-SVG-20010904/DTD/svg10.dtd'>
<svg xmlns:xlink="http://www.w3.org/1999/xlink" style="fill-opacity:1; color-rendering:auto; color-interpolation:auto; text-rendering:auto; stroke:black; stroke-linecap:square; stroke-miterlimit:10; shape-rendering:auto; stroke-opacity:1; fill:black; stroke-dasharray:none; font-weight:normal; stroke-width:1; font-family:'Dialog'; font-style:normal; stroke-linejoin:miter; font-size:12px; stroke-dashoffset:0; image-rendering:auto;" viewBox="0 0 408 128" xmlns="http://www.w3.org/2000/svg"
><!--Generated by the Batik Graphics2D SVG Generator--><defs id="genericDefs"
  /><g
  ><defs id="defs1"
    ><clipPath clipPathUnits="userSpaceOnUse" id="clipPath1"
      ><path style="fill-rule:evenodd;" d="M315 53 L317 60 L325 60 L318 65 L321 72 L315 68 L308 72 L311 65 L304 60 L312 60 L315 53 Z"
      /></clipPath
      ><clipPath clipPathUnits="userSpaceOnUse" id="clipPath2"
      ><path d="M274 64 C274 70.0751 269.0751 75 263 75 C256.9249 75 252 70.0751 252 64 C252 57.9249 256.9249 53 263 53 C269.0751 53 274 57.9249 274 64 Z"
      /></clipPath
      ><clipPath clipPathUnits="userSpaceOnUse" id="clipPath3"
      ><path d="M222 64 C222 70.0751 217.0751 75 211 75 C204.9249 75 200 70.0751 200 64 C200 57.9249 204.9249 53 211 53 C217.0751 53 222 57.9249 222 64 Z"
      /></clipPath
      ><clipPath clipPathUnits="userSpaceOnUse" id="clipPath4"
      ><path style="fill-rule:evenodd;" d="M159 53 L170 64 L159 75 L148 64 Z"
      /></clipPath
      ><clipPath clipPathUnits="userSpaceOnUse" id="clipPath5"
      ><path d="M96 53 L118 53 L118 75 L96 75 L96 53 Z"
      /></clipPath
      ><clipPath clipPathUnits="userSpaceOnUse" id="clipPath6"
      ><path style="fill-rule:evenodd;" d="M48 53 L58 60 L54 72 L41 72 L37 60 L48 53 Z"
      /></clipPath
    ></defs
    ><g style="fill:white; text-rendering:optimizeSpeed; stroke:white;"
    ><rect x="0" width="408" height="128" y="0" style="stroke:none;"
      /><polygon style="fill:none; stroke:black;" points=" 367 64 315 64"
      /><path d="M367 53 C361.5 58.5 372.5 69.5 367 75" style="fill:none; stroke:black;"
      /><polygon style="fill:none; stroke:black;" points=" 315 64 263 64"
      /><polygon style="clip-path:url(#clipPath1); stroke:none;" points=" 315 53 317 60 325 60 318 65 321 72 315 68 308 72 311 65 304 60 312 60 315 53"
      /><rect x="304" y="53" width="22" style="clip-path:url(#clipPath1); fill:rgb(244,121,32); stroke:none;" height="22"
      /><rect x="304" y="53" width="22" style="clip-path:url(#clipPath1); fill:none; stroke:black;" height="22"
      /><polygon style="fill:none; stroke:black;" points=" 315 53 317 60 325 60 318 65 321 72 315 68 308 72 311 65 304 60 312 60 315 53"
      /><rect x="307" y="81" width="15" style="stroke:none;" height="10"
    /></g
    ><g style="text-rendering:optimizeSpeed; font-size:14px; font-family:'SansSerif';"
    ><path style="stroke:none;" d="M307.6094 92 L314.0625 92 L314.0625 90.8906 L311.2344 90.8906 C310.7031 90.8906 310.0781 90.9531 309.5469 90.9844 C311.9531 88.7031 313.5625 86.625 313.5625 84.5781 C313.5625 82.75 312.4219 81.5469 310.5781 81.5469 C309.2812 81.5469 308.4062 82.1406 307.5625 83.0469 L308.2969 83.7812 C308.8594 83.1094 309.5938 82.5938 310.4375 82.5938 C311.7031 82.5938 312.3125 83.4531 312.3125 84.625 C312.3125 86.3906 310.8438 88.4375 307.6094 91.25 L307.6094 92 ZM316.1762 92 L317.4731 92 L317.4731 87.9219 L319.1606 87.9219 C321.4262 87.9219 322.9418 86.9219 322.9418 84.75 C322.9418 82.5156 321.4106 81.7188 319.1137 81.7188 L316.1762 81.7188 L316.1762 92 ZM317.4731 86.875 L317.4731 82.7812 L318.9418 82.7812 C320.7543 82.7812 321.6606 83.2656 321.6606 84.75 C321.6606 86.2188 320.8012 86.875 319.0043 86.875 L317.4731 86.875 Z"
      /><polygon style="fill:none;" points=" 263 64 211 64"
    /></g
    ><g style="fill:white; text-rendering:optimizeSpeed; stroke:white;"
    ><circle r="11" style="clip-path:url(#clipPath2); stroke:none;" cx="263" cy="64"
      /><rect x="252" y="53" width="22" style="clip-path:url(#clipPath2); fill:rgb(255,212,0); stroke:none;" height="22"
      /><rect x="252" y="53" width="22" style="clip-path:url(#clipPath2); fill:none; stroke:black;" height="22"
      /><circle r="11" style="fill:none; stroke:black;" cx="263" cy="64"
      /><polygon style="fill:none; stroke:black;" points=" 211 64 159 64"
      /><circle r="11" style="clip-path:url(#clipPath3); stroke:none;" cx="211" cy="64"
      /><rect x="200" y="53" width="22" style="clip-path:url(#clipPath3); fill:rgb(255,212,0); stroke:none;" height="22"
      /><rect x="200" y="53" width="22" style="clip-path:url(#clipPath3); fill:none; stroke:black;" height="22"
      /><circle r="11" style="fill:none; stroke:black;" cx="211" cy="64"
      /><polygon style="fill:none; stroke:black;" points=" 159 64 107 64"
      /><polygon style="clip-path:url(#clipPath4); stroke:none;" points=" 159 53 170 64 159 75 148 64"
      /><rect x="148" y="53" width="22" style="clip-path:url(#clipPath4); fill:rgb(0,144,188); stroke:none;" height="11"
      /><rect x="148" y="53" width="22" style="clip-path:url(#clipPath4); fill:none; stroke:black;" height="11"
      /><polygon style="fill:none; stroke:black;" points=" 159 53 170 64 159 75 148 64"
      /><polygon style="fill:none; stroke:black;" points=" 107 64 48 64"
      /><rect x="96" y="53" width="22" style="clip-path:url(#clipPath5); stroke:none;" height="22"
      /><rect x="96" y="53" width="22" style="clip-path:url(#clipPath5); fill:rgb(255,212,0); stroke:none;" height="22"
      /><rect x="96" y="53" width="22" style="clip-path:url(#clipPath5); fill:none; stroke:black;" height="22"
      /><rect x="96" y="53" width="22" style="fill:none; stroke:black;" height="22"
      /><rect x="99" width="14" height="10" y="35" style="stroke:none;"
    /></g
    ><g style="text-rendering:optimizeSpeed; font-size:14px; font-family:'SansSerif';"
    ><path style="stroke:none;" d="M103.1094 40.5781 C104.3438 40.5781 104.9688 41.4688 104.9688 42.8438 C104.9688 44.25 104.1875 45.1875 103.2188 45.1875 C101.9219 45.1875 101.1562 44.0312 101 41.8906 C101.625 40.9531 102.4531 40.5781 103.1094 40.5781 ZM103.2188 46.1875 C104.8125 46.1875 106.1562 44.8438 106.1562 42.8438 C106.1562 40.7031 105.0469 39.625 103.3125 39.625 C102.5 39.625 101.6094 40.1094 100.9688 40.875 C101.0312 37.6875 102.2188 36.6094 103.625 36.6094 C104.25 36.6094 104.8594 36.9062 105.2656 37.3906 L105.9688 36.5938 C105.4062 35.9844 104.6406 35.5469 103.5781 35.5469 C101.5938 35.5469 99.7812 37.0781 99.7812 41.0938 C99.7812 44.4844 101.2344 46.1875 103.2188 46.1875 ZM111.02 46.1875 C113.1606 46.1875 114.5043 44.8906 114.5043 43.2656 C114.5043 41.75 113.5825 41.0469 112.395 40.5312 L110.9262 39.8906 C110.1293 39.5625 109.2387 39.1875 109.2387 38.1875 C109.2387 37.2656 109.9887 36.6719 111.145 36.6719 C112.0981 36.6719 112.8637 37.0469 113.4887 37.6406 L114.1762 36.8125 C113.4418 36.0625 112.3637 35.5469 111.145 35.5469 C109.2856 35.5469 107.9106 36.6875 107.9106 38.2656 C107.9106 39.7656 109.0512 40.5 110.0043 40.9062 L111.4887 41.5469 C112.4575 41.9844 113.1918 42.3125 113.1918 43.375 C113.1918 44.375 112.3793 45.0469 111.0356 45.0469 C109.9731 45.0469 108.9418 44.5469 108.2075 43.7812 L107.4262 44.6562 C108.3168 45.5938 109.5668 46.1875 111.02 46.1875 Z"
    /></g
    ><g style="fill:white; text-rendering:optimizeSpeed; stroke:white;"
    ><polygon style="stroke:none; clip-path:url(#clipPath6);" points=" 48 53 58 60 54 72 41 72 37 60 48 53"
      /><rect x="37" y="53" width="22" style="clip-path:url(#clipPath6); stroke:none;" height="22"
      /><rect x="37" y="53" width="22" style="clip-path:url(#clipPath6); fill:none; stroke:black;" height="22"
      /><polygon style="fill:none; stroke:black;" points=" 48 53 58 60 54 72 41 72 37 60 48 53"
    /></g
    ><g style="text-rendering:optimizeSpeed; font-size:14px; font-family:'SansSerif';"
    ><path style="stroke:none;" d="M46.2344 69 L51.8594 69 L51.8594 67.9375 L49.7969 67.9375 L49.7969 58.7188 L48.8281 58.7188 C48.2656 59.0625 47.6094 59.2969 46.6875 59.4688 L46.6875 60.2812 L48.5156 60.2812 L48.5156 67.9375 L46.2344 67.9375 L46.2344 69 Z"
      /><rect x="30" y="34" width="34" style="fill:white; stroke:none;" height="12"
      /><path style="stroke:none;" d="M33.6562 47.1875 C35.3906 47.1875 37.0156 45.9062 37.0156 43.6562 C37.0156 41.4062 35.625 40.3906 33.9219 40.3906 C33.2969 40.3906 32.8594 40.5469 32.3906 40.7969 L32.6406 37.8281 L36.5312 37.8281 L36.5312 36.7188 L31.5312 36.7188 L31.2031 41.5469 L31.8906 41.9531 C32.4844 41.5625 32.9062 41.3594 33.5938 41.3594 C34.8906 41.3594 35.7188 42.2188 35.7188 43.7031 C35.7188 45.1875 34.75 46.125 33.5469 46.125 C32.3594 46.125 31.6094 45.5781 31.0156 44.9844 L30.3906 45.8281 C31.0781 46.5156 32.0625 47.1875 33.6562 47.1875 ZM38.8168 49.6562 C40.0825 49.125 40.8637 48.0781 40.8637 46.7344 C40.8637 45.7969 40.4575 45.2188 39.7856 45.2188 C39.27 45.2188 38.8168 45.5781 38.8168 46.125 C38.8168 46.7031 39.27 47.0156 39.7543 47.0156 C39.8168 47.0156 39.8637 47.0156 39.9106 47 C39.9106 47.8281 39.395 48.5156 38.5043 48.9062 L38.8168 49.6562 ZM43.2713 43.1562 L45.6151 39.6562 C45.8963 39.1406 46.1776 38.6406 46.4432 38.1406 L46.4901 38.1406 C46.4588 38.6719 46.4276 39.5 46.4276 40 L46.4276 43.1562 L43.2713 43.1562 ZM46.4276 47 L47.6307 47 L47.6307 44.1719 L48.9901 44.1719 L48.9901 43.1562 L47.6307 43.1562 L47.6307 36.7188 L46.2088 36.7188 L41.9432 43.3281 L41.9432 44.1719 L46.4276 44.1719 L46.4276 47 ZM53.7913 47.1875 C54.8226 47.1875 55.6351 46.8281 56.3069 46.3906 L55.8382 45.5625 C55.2913 45.9375 54.6819 46.1562 53.9476 46.1562 C52.4944 46.1562 51.5101 45.125 51.4163 43.5 L56.5413 43.5 C56.5726 43.3125 56.6038 43.0469 56.6038 42.7656 C56.6038 40.6094 55.5101 39.2031 53.5726 39.2031 C51.8069 39.2031 50.1507 40.7344 50.1507 43.2031 C50.1507 45.7188 51.7757 47.1875 53.7913 47.1875 ZM51.4007 42.5781 C51.5569 41.0938 52.5101 40.2188 53.5882 40.2188 C54.7757 40.2188 55.4788 41.0469 55.4788 42.5781 L51.4007 42.5781 ZM58.4691 47 L59.7504 47 L59.7504 41.4844 C60.516 40.7188 61.0473 40.3281 61.8285 40.3281 C62.8441 40.3281 63.2816 40.9219 63.2816 42.3594 L63.2816 47 L64.5473 47 L64.5473 42.1875 C64.5473 40.2344 63.8285 39.2031 62.2348 39.2031 C61.1879 39.2031 60.4066 39.7812 59.6723 40.4844 L59.641 40.4844 L59.5316 39.3906 L58.4691 39.3906 L58.4691 47 Z"
    /></g
    ><g style="fill:white; text-rendering:optimizeSpeed; font-family:'Serif'; stroke:white;"
    ><rect x="85" width="6" height="10" y="67" style="stroke:none;"
      /><path d="M87.2344 68.6562 C87.5156 68.5938 87.7656 68.5625 88.0156 68.5625 C89.0625 68.5625 89.6719 69.1719 89.6719 70.2656 C89.6719 71.4375 88.9062 72.1094 87.7031 72.1094 L87.1875 72.1094 L87.1875 72.6406 L87.7969 72.6406 C89.2188 72.6406 89.9062 73.4219 89.9062 74.6406 C89.9062 75.8438 89.1719 76.6875 87.875 76.6875 C87.6094 76.6875 87.3125 76.6562 87.0156 76.5625 L86.7812 75.8125 C86.625 75.2812 86.5 75.0469 86.1406 75.0469 C85.8906 75.0469 85.7031 75.1719 85.5781 75.4219 C85.8438 76.6406 86.7812 77.1719 88.0312 77.1719 C89.7188 77.1719 90.875 76.125 90.875 74.7031 C90.875 73.5 90.2031 72.625 88.7969 72.375 C89.9531 72.0156 90.6094 71.2031 90.6094 70.2031 C90.6094 68.9219 89.6719 68.0781 88.1875 68.0781 C87.0469 68.0781 86.0625 68.5938 85.7969 69.6875 C85.9062 70 86.1094 70.1094 86.3594 70.1094 C86.7344 70.1094 86.8906 69.8906 87 69.4062 L87.2344 68.6562 Z" style="fill:black; stroke:none;"
      /><rect x="70" width="8" height="8" y="68" style="stroke:none;"
      /><path d="M74.9844 73.7031 C74.9375 74.8906 74.1562 75.6562 73.3125 75.6562 C72.2656 75.6562 71.5 74.6875 71.5 72.7188 C71.5 71.2812 72.1562 70.1562 73.3438 70.1562 C74.1406 70.1562 74.7812 70.6875 75.0938 71.6406 L74.9844 73.7031 ZM76.9062 75.2812 C76.7344 75.375 76.5469 75.4219 76.3438 75.4219 C75.9531 75.4219 75.75 75.2188 75.75 74.4219 C75.75 73.4844 75.9688 71.5312 76.1875 69.8281 L76.0312 69.7188 L75.2344 69.9219 L75.1406 70.7969 C74.7812 70.0312 74.1562 69.6562 73.3906 69.6562 C72.0469 69.6562 70.5625 70.8438 70.5625 72.9531 C70.5625 75.0938 71.7188 76.1719 73.1406 76.1719 C74.0156 76.1719 74.6875 75.8125 75.0938 74.9844 C75.2031 75.8594 75.5156 76.1719 76.0156 76.1719 C76.4688 76.1719 76.7969 75.9062 77.0156 75.5625 L76.9062 75.2812 Z" style="fill:black; stroke:none;"
      /><rect x="136" width="7" height="9" y="67" style="stroke:none;"
      /><path d="M137 72.5156 L139.9531 68.2656 L139.9531 72.5156 L137 72.5156 ZM142.2812 72.5156 L140.8594 72.5156 L140.8594 67.125 L140.2344 67.125 L136.3438 72.6406 L136.3438 73.1875 L139.9531 73.1875 L139.9531 76 L140.8594 76 L140.8594 73.1875 L142.2812 73.1875 L142.2812 72.5156 Z" style="fill:black; stroke:none;"
      /><rect x="123" width="6" height="13" y="65" style="stroke:none;"
      /><path d="M125.0938 71.2031 C125.0938 69.6562 125.75 68.8125 126.7969 68.8125 C127.7188 68.8125 128.2656 69.4531 128.2656 70.5156 C128.2656 71.7188 127.5 72.4375 126.1875 72.7031 L126.2969 73.3125 C128.2188 73.2344 128.9375 74.2188 128.9375 75.4375 C128.9375 76.625 128.2344 77.4219 126.9531 77.4219 C126.25 77.4219 125.6562 77.1562 125.0938 76.7188 L125.0938 71.2031 ZM124.2031 77.9062 L124.1094 80.375 L124.2656 80.4844 L125.1562 80.2656 L125.0156 77.0938 C125.5469 77.8438 126.3594 78.1719 127.1719 78.1719 C128.5625 78.1719 129.8594 77.2188 129.8594 75.4844 C129.8594 73.9531 128.875 73.1094 127.125 73 C128.5625 72.6094 129.1875 71.4531 129.1875 70.4844 C129.1875 69.0938 128.1562 68.3125 126.9062 68.3125 C125.2969 68.3125 124.2188 69.5469 124.2188 71.5156 L124.2031 77.9062 Z" style="fill:black; stroke:none;"
      /><rect x="189" width="6" height="10" y="67" style="stroke:none;"
      /><path d="M191.2344 68.6562 C191.5156 68.5938 191.7656 68.5625 192.0156 68.5625 C193.0625 68.5625 193.6719 69.1719 193.6719 70.2656 C193.6719 71.4375 192.9062 72.1094 191.7031 72.1094 L191.1875 72.1094 L191.1875 72.6406 L191.7969 72.6406 C193.2188 72.6406 193.9062 73.4219 193.9062 74.6406 C193.9062 75.8438 193.1719 76.6875 191.875 76.6875 C191.6094 76.6875 191.3125 76.6562 191.0156 76.5625 L190.7812 75.8125 C190.625 75.2812 190.5 75.0469 190.1406 75.0469 C189.8906 75.0469 189.7031 75.1719 189.5781 75.4219 C189.8438 76.6406 190.7812 77.1719 192.0312 77.1719 C193.7188 77.1719 194.875 76.125 194.875 74.7031 C194.875 73.5 194.2031 72.625 192.7969 72.375 C193.9531 72.0156 194.6094 71.2031 194.6094 70.2031 C194.6094 68.9219 193.6719 68.0781 192.1875 68.0781 C191.0469 68.0781 190.0625 68.5938 189.7969 69.6875 C189.9062 70 190.1094 70.1094 190.3594 70.1094 C190.7344 70.1094 190.8906 69.8906 191 69.4062 L191.2344 68.6562 Z" style="fill:black; stroke:none;"
      /><rect x="175" width="6" height="13" y="65" style="stroke:none;"
      /><path d="M177.0938 71.2031 C177.0938 69.6562 177.75 68.8125 178.7969 68.8125 C179.7188 68.8125 180.2656 69.4531 180.2656 70.5156 C180.2656 71.7188 179.5 72.4375 178.1875 72.7031 L178.2969 73.3125 C180.2188 73.2344 180.9375 74.2188 180.9375 75.4375 C180.9375 76.625 180.2344 77.4219 178.9531 77.4219 C178.25 77.4219 177.6562 77.1562 177.0938 76.7188 L177.0938 71.2031 ZM176.2031 77.9062 L176.1094 80.375 L176.2656 80.4844 L177.1562 80.2656 L177.0156 77.0938 C177.5469 77.8438 178.3594 78.1719 179.1719 78.1719 C180.5625 78.1719 181.8594 77.2188 181.8594 75.4844 C181.8594 73.9531 180.875 73.1094 179.125 73 C180.5625 72.6094 181.1875 71.4531 181.1875 70.4844 C181.1875 69.0938 180.1562 68.3125 178.9062 68.3125 C177.2969 68.3125 176.2188 69.5469 176.2188 71.5156 L176.2031 77.9062 Z" style="fill:black; stroke:none;"
      /><rect x="241" width="6" height="10" y="67" style="stroke:none;"
      /><path d="M243.2344 68.6562 C243.5156 68.5938 243.7656 68.5625 244.0156 68.5625 C245.0625 68.5625 245.6719 69.1719 245.6719 70.2656 C245.6719 71.4375 244.9062 72.1094 243.7031 72.1094 L243.1875 72.1094 L243.1875 72.6406 L243.7969 72.6406 C245.2188 72.6406 245.9062 73.4219 245.9062 74.6406 C245.9062 75.8438 245.1719 76.6875 243.875 76.6875 C243.6094 76.6875 243.3125 76.6562 243.0156 76.5625 L242.7812 75.8125 C242.625 75.2812 242.5 75.0469 242.1406 75.0469 C241.8906 75.0469 241.7031 75.1719 241.5781 75.4219 C241.8438 76.6406 242.7812 77.1719 244.0312 77.1719 C245.7188 77.1719 246.875 76.125 246.875 74.7031 C246.875 73.5 246.2031 72.625 244.7969 72.375 C245.9531 72.0156 246.6094 71.2031 246.6094 70.2031 C246.6094 68.9219 245.6719 68.0781 244.1875 68.0781 C243.0469 68.0781 242.0625 68.5938 241.7969 69.6875 C241.9062 70 242.1094 70.1094 242.3594 70.1094 C242.7344 70.1094 242.8906 69.8906 243 69.4062 L243.2344 68.6562 Z" style="fill:black; stroke:none;"
      /><rect x="227" width="6" height="13" y="65" style="stroke:none;"
      /><path d="M229.0938 71.2031 C229.0938 69.6562 229.75 68.8125 230.7969 68.8125 C231.7188 68.8125 232.2656 69.4531 232.2656 70.5156 C232.2656 71.7188 231.5 72.4375 230.1875 72.7031 L230.2969 73.3125 C232.2188 73.2344 232.9375 74.2188 232.9375 75.4375 C232.9375 76.625 232.2344 77.4219 230.9531 77.4219 C230.25 77.4219 229.6562 77.1562 229.0938 76.7188 L229.0938 71.2031 ZM228.2031 77.9062 L228.1094 80.375 L228.2656 80.4844 L229.1562 80.2656 L229.0156 77.0938 C229.5469 77.8438 230.3594 78.1719 231.1719 78.1719 C232.5625 78.1719 233.8594 77.2188 233.8594 75.4844 C233.8594 73.9531 232.875 73.1094 231.125 73 C232.5625 72.6094 233.1875 71.4531 233.1875 70.4844 C233.1875 69.0938 232.1562 68.3125 230.9062 68.3125 C229.2969 68.3125 228.2188 69.5469 228.2188 71.5156 L228.2031 77.9062 Z" style="fill:black; stroke:none;"
      /><rect x="293" width="6" height="10" y="67" style="stroke:none;"
      /><path d="M295.2344 68.6562 C295.5156 68.5938 295.7656 68.5625 296.0156 68.5625 C297.0625 68.5625 297.6719 69.1719 297.6719 70.2656 C297.6719 71.4375 296.9062 72.1094 295.7031 72.1094 L295.1875 72.1094 L295.1875 72.6406 L295.7969 72.6406 C297.2188 72.6406 297.9062 73.4219 297.9062 74.6406 C297.9062 75.8438 297.1719 76.6875 295.875 76.6875 C295.6094 76.6875 295.3125 76.6562 295.0156 76.5625 L294.7812 75.8125 C294.625 75.2812 294.5 75.0469 294.1406 75.0469 C293.8906 75.0469 293.7031 75.1719 293.5781 75.4219 C293.8438 76.6406 294.7812 77.1719 296.0312 77.1719 C297.7188 77.1719 298.875 76.125 298.875 74.7031 C298.875 73.5 298.2031 72.625 296.7969 72.375 C297.9531 72.0156 298.6094 71.2031 298.6094 70.2031 C298.6094 68.9219 297.6719 68.0781 296.1875 68.0781 C295.0469 68.0781 294.0625 68.5938 293.7969 69.6875 C293.9062 70 294.1094 70.1094 294.3594 70.1094 C294.7344 70.1094 294.8906 69.8906 295 69.4062 L295.2344 68.6562 Z" style="fill:black; stroke:none;"
      /><rect x="279" width="6" height="13" y="65" style="stroke:none;"
      /><path d="M281.0938 71.2031 C281.0938 69.6562 281.75 68.8125 282.7969 68.8125 C283.7188 68.8125 284.2656 69.4531 284.2656 70.5156 C284.2656 71.7188 283.5 72.4375 282.1875 72.7031 L282.2969 73.3125 C284.2188 73.2344 284.9375 74.2188 284.9375 75.4375 C284.9375 76.625 284.2344 77.4219 282.9531 77.4219 C282.25 77.4219 281.6562 77.1562 281.0938 76.7188 L281.0938 71.2031 ZM280.2031 77.9062 L280.1094 80.375 L280.2656 80.4844 L281.1562 80.2656 L281.0156 77.0938 C281.5469 77.8438 282.3594 78.1719 283.1719 78.1719 C284.5625 78.1719 285.8594 77.2188 285.8594 75.4844 C285.8594 73.9531 284.875 73.1094 283.125 73 C284.5625 72.6094 285.1875 71.4531 285.1875 70.4844 C285.1875 69.0938 284.1562 68.3125 282.9062 68.3125 C281.2969 68.3125 280.2188 69.5469 280.2188 71.5156 L280.2031 77.9062 Z" style="fill:black; stroke:none;"
      /><rect x="331" width="5" height="10" y="67" style="stroke:none;"
      /><path d="M332.8906 75.6875 C332.4844 75.6875 332.1562 76.0469 332.1562 76.4219 C332.1562 76.8125 332.4844 77.1562 332.8906 77.1562 C333.2969 77.1562 333.6406 76.8125 333.6406 76.4219 C333.6406 76.0469 333.2969 75.6875 332.8906 75.6875 ZM334.4688 69.5781 C334.7188 69.8906 334.875 70.2656 334.8906 70.6562 C334.8906 71.1875 334.625 71.5 334.0312 71.7656 L333.4062 72.0156 C332.6406 72.3125 332.3906 72.5469 332.3906 72.9375 C332.3906 73.1094 332.4531 73.3438 332.5781 73.8125 L332.7344 74.3438 L333.1094 74.3438 L333.0938 73.5312 C333.0938 73.0938 333.2031 72.9688 333.7812 72.7344 L334.2031 72.5625 C335.0312 72.2188 335.4531 71.6875 335.4531 70.8438 C335.4531 69.1562 333.6562 68.1875 332.5 68.0312 C332.1094 68.125 331.9062 68.2969 331.9062 68.6406 C331.9062 68.9375 332.0625 69.1562 332.7188 69.2656 L334.4688 69.5781 Z" style="fill:black; stroke:none;"
    /></g
    ><g ID="legend-1:0" style="text-rendering:optimizeSpeed; font-size:10px; font-family:'SansSerif';"
    ><path style="stroke:none;" d="M30.875 113 L34.9062 113 L34.9062 112.2344 L33.4375 112.2344 L33.4375 105.6562 L32.7344 105.6562 C32.3281 105.9062 31.8594 106.0625 31.2031 106.1875 L31.2031 106.7656 L32.5156 106.7656 L32.5156 112.2344 L30.875 112.2344 L30.875 113 ZM35.925 108.4531 L40.7219 108.4531 L40.7219 107.7656 L35.925 107.7656 L35.925 108.4531 ZM35.925 110.8438 L40.7219 110.8438 L40.7219 110.1719 L35.925 110.1719 L35.925 110.8438 ZM43.7094 113.125 C44.4125 113.125 44.975 112.7656 45.3969 112.0312 L45.4281 112.0312 C45.4125 112.7969 45.85 113.125 46.5062 113.125 C46.8187 113.125 47.0375 113.0625 47.1937 112.9844 L47.0531 112.2969 C46.9437 112.3438 46.8031 112.375 46.6937 112.375 C46.3969 112.375 46.1469 112.1875 46.1469 111.8125 C46.1469 110.8125 46.5375 109 46.8344 107.5625 L45.9281 107.5625 L45.6937 108.8594 L45.6625 108.8594 C45.3656 107.8125 44.6625 107.4375 43.9906 107.4375 C42.7406 107.4375 41.6156 108.5156 41.6156 110.375 C41.6156 112.1562 42.475 113.125 43.7094 113.125 ZM43.8969 112.375 C43.0531 112.375 42.5531 111.6406 42.5531 110.375 C42.5531 108.9375 43.3031 108.2031 44.0844 108.2031 C44.6 108.2031 45.1625 108.4688 45.4594 109.6562 L45.3812 110.6875 C45.3031 111.5938 44.6156 112.375 43.8969 112.375 ZM47.8031 110.5469 L50.3656 110.5469 L50.3656 109.8438 L47.8031 109.8438 L47.8031 110.5469 ZM51.82 113 L55.945 113 L55.945 112.2031 L52.7575 112.2031 L52.7575 105.6562 L51.82 105.6562 L51.82 113 ZM56.7031 110.5469 L59.2656 110.5469 L59.2656 109.8438 L56.7031 109.8438 L56.7031 110.5469 ZM62.345 113.125 C62.6731 113.125 63.0325 113.0312 63.345 112.9375 L63.1731 112.25 C62.9856 112.3125 62.7356 112.3906 62.5481 112.3906 C61.9231 112.3906 61.7043 112.0156 61.7043 111.3438 L61.7043 108.3125 L63.1731 108.3125 L63.1731 107.5625 L61.7043 107.5625 L61.7043 106.0469 L60.9543 106.0469 L60.845 107.5625 L59.9856 107.625 L59.9856 108.3125 L60.7981 108.3125 L60.7981 111.3125 C60.7981 112.4062 61.1887 113.125 62.345 113.125 ZM64.4118 113 L65.3181 113 L65.3181 109.0625 C65.865 108.5156 66.2556 108.2344 66.8025 108.2344 C67.5368 108.2344 67.8337 108.6562 67.8337 109.6875 L67.8337 113 L68.7556 113 L68.7556 109.5625 C68.7556 108.1719 68.2243 107.4375 67.0837 107.4375 C66.3493 107.4375 65.7868 107.8438 65.2868 108.3438 L65.3181 107.2188 L65.3181 105.0469 L64.4118 105.0469 L64.4118 113 ZM70.4818 113 L71.3881 113 L71.3881 109.5156 C71.7475 108.5781 72.31 108.2656 72.7631 108.2656 C72.9818 108.2656 73.1068 108.2812 73.2943 108.3438 L73.4662 107.5469 C73.2943 107.4531 73.1225 107.4375 72.8725 107.4375 C72.2631 107.4375 71.7162 107.875 71.3412 108.5625 L71.31 108.5625 L71.2318 107.5625 L70.4818 107.5625 L70.4818 113 ZM74.4399 113 L75.3774 113 L75.3774 109.5469 L78.7837 109.5469 L78.7837 113 L79.7056 113 L79.7056 105.6562 L78.7837 105.6562 L78.7837 108.7344 L75.3774 108.7344 L75.3774 105.6562 L74.4399 105.6562 L74.4399 113 ZM83.8293 113.125 C84.5637 113.125 85.1574 112.875 85.6262 112.5625 L85.2981 111.9688 C84.9074 112.2344 84.4699 112.4062 83.9387 112.4062 C82.9074 112.4062 82.2043 111.6562 82.1418 110.5 L85.7981 110.5 C85.8137 110.375 85.8449 110.1875 85.8449 109.9844 C85.8449 108.4375 85.0637 107.4375 83.6731 107.4375 C82.4231 107.4375 81.2356 108.5312 81.2356 110.2969 C81.2356 112.0781 82.3918 113.125 83.8293 113.125 ZM82.1262 109.8438 C82.2356 108.7812 82.9231 108.1562 83.6887 108.1562 C84.5324 108.1562 85.0324 108.75 85.0324 109.8438 L82.1262 109.8438 ZM86.4162 113 L87.3693 113 L88.1037 111.7344 C88.2912 111.4062 88.4631 111.0625 88.6662 110.7656 L88.7131 110.7656 C88.9162 111.0625 89.1037 111.4062 89.2912 111.7344 L90.0881 113 L91.0881 113 L89.3068 110.2656 L90.9474 107.5625 L89.9943 107.5625 L89.3224 108.7656 C89.1662 109.0625 89.0099 109.375 88.8381 109.6719 L88.8068 109.6719 C88.6193 109.375 88.4318 109.0625 88.2599 108.7656 L87.5256 107.5625 L86.5568 107.5625 L88.1974 110.1719 L86.4162 113 ZM93.0212 110.7969 L93.8337 110.7969 C93.6462 109.2188 95.4431 108.625 95.4431 107.1562 C95.4431 106.0625 94.7087 105.375 93.5837 105.375 C92.7712 105.375 92.1306 105.7656 91.6774 106.2969 L92.1931 106.7812 C92.5368 106.375 92.9743 106.1406 93.4743 106.1406 C94.1931 106.1406 94.5524 106.625 94.5524 107.2188 C94.5524 108.4062 92.7868 109.0469 93.0212 110.7969 ZM93.4431 113.125 C93.8181 113.125 94.1149 112.8438 94.1149 112.4375 C94.1149 112.0156 93.8181 111.7344 93.4431 111.7344 C93.0837 111.7344 92.7868 112.0156 92.7868 112.4375 C92.7868 112.8438 93.0837 113.125 93.4431 113.125 ZM98.2455 108.9062 C98.5112 108.0625 98.7455 107.2812 98.9799 106.4219 L99.0268 106.4219 C99.2612 107.2656 99.4955 108.0625 99.7612 108.9062 L100.1049 110.0156 L97.8862 110.0156 L98.2455 108.9062 ZM96.0112 113 L96.9487 113 L97.6674 110.7656 L100.3393 110.7656 L101.0424 113 L102.0268 113 L99.5268 105.6562 L98.4955 105.6562 L96.0112 113 ZM103.2062 110.25 L104.8624 107.75 C105.0812 107.3906 105.2843 107.0312 105.4562 106.6719 L105.503 106.6719 C105.4874 107.0469 105.4562 107.6406 105.4562 108 L105.4562 110.25 L103.2062 110.25 ZM105.4562 113 L106.3155 113 L106.3155 110.9844 L107.2843 110.9844 L107.2843 110.25 L106.3155 110.25 L106.3155 105.6562 L105.2999 105.6562 L102.253 110.375 L102.253 110.9844 L105.4562 110.9844 L105.4562 113 ZM109.9905 114.9688 L110.553 114.7031 C109.6936 113.2812 109.2874 111.5938 109.2874 109.8906 C109.2874 108.1875 109.6936 106.5156 110.553 105.0781 L109.9905 104.8125 C109.0686 106.3125 108.5218 107.9375 108.5218 109.8906 C108.5218 111.8594 109.0686 113.4688 109.9905 114.9688 ZM111.1518 113 L112.1205 113 L113.183 111.0156 C113.3705 110.6562 113.558 110.2812 113.7768 109.8438 L113.808 109.8438 C114.0424 110.2812 114.2455 110.6562 114.433 111.0156 L115.5268 113 L116.5424 113 L114.4018 109.2656 L116.4018 105.6562 L115.433 105.6562 L114.4486 107.5469 C114.2768 107.875 114.1361 108.1875 113.933 108.6094 L113.8861 108.6094 C113.6518 108.1875 113.4955 107.875 113.308 107.5469 L112.308 105.6562 L111.2924 105.6562 L113.2924 109.2031 L111.1518 113 ZM117.6943 114.9688 C118.6318 113.4688 119.1786 111.8594 119.1786 109.8906 C119.1786 107.9375 118.6318 106.3125 117.6943 104.8125 L117.1474 105.0781 C118.0068 106.5156 118.413 108.1875 118.413 109.8906 C118.413 111.5938 118.0068 113.2812 117.1474 114.7031 L117.6943 114.9688 ZM123.1992 113.125 C123.9336 113.125 124.5274 112.875 124.9961 112.5625 L124.668 111.9688 C124.2774 112.2344 123.8399 112.4062 123.3086 112.4062 C122.2774 112.4062 121.5742 111.6562 121.5117 110.5 L125.168 110.5 C125.1836 110.375 125.2149 110.1875 125.2149 109.9844 C125.2149 108.4375 124.4336 107.4375 123.043 107.4375 C121.793 107.4375 120.6055 108.5312 120.6055 110.2969 C120.6055 112.0781 121.7617 113.125 123.1992 113.125 ZM121.4961 109.8438 C121.6055 108.7812 122.293 108.1562 123.0586 108.1562 C123.9024 108.1562 124.4024 108.75 124.4024 109.8438 L121.4961 109.8438 ZM126.5517 113 L127.458 113 L127.458 109.0625 C128.0049 108.5156 128.3955 108.2344 128.9424 108.2344 C129.6767 108.2344 129.9736 108.6562 129.9736 109.6875 L129.9736 113 L130.8955 113 L130.8955 109.5625 C130.8955 108.1719 130.3642 107.4375 129.2236 107.4375 C128.4892 107.4375 127.9267 107.8438 127.4111 108.3438 L127.3799 108.3438 L127.3017 107.5625 L126.5517 107.5625 L126.5517 113 Z"
    /></g
  ></g
></svg
>
