<?xml version="1.0"?>
<!DOCTYPE svg PUBLIC '-//W3C//DTD SVG 1.0//EN'
          'http://www.w3.org/TR/2001/REC-SVG-20010904/DTD/svg10.dtd'>
<svg xmlns:xlink="http://www.w3.org/1999/xlink" style="fill-opacity:1; color-rendering:auto; color-interpolation:auto; text-rendering:auto; stroke:black; stroke-linecap:square; stroke-miterlimit:10; shape-rendering:auto; stroke-opacity:1; fill:black; stroke-dasharray:none; font-weight:normal; stroke-width:1; font-family:'Dialog'; font-style:normal; stroke-linejoin:miter; font-size:12px; stroke-dashoffset:0; image-rendering:auto;" viewBox="0 0 550 342" xmlns="http://www.w3.org/2000/svg"
><!--Generated by the Batik Graphics2D SVG Generator--><defs id="genericDefs"
  /><g
  ><defs id="defs1"
    ><clipPath clipPathUnits="userSpaceOnUse" id="clipPath1"
      ><path d="M446 134 L468 134 L468 156 L446 156 L446 134 Z"
      /></clipPath
      ><clipPath clipPathUnits="userSpaceOnUse" id="clipPath2"
      ><path d="M394 134 L416 134 L416 156 L394 156 L394 134 Z"
      /></clipPath
      ><clipPath clipPathUnits="userSpaceOnUse" id="clipPath3"
      ><path d="M364 145 C364 151.0751 359.0751 156 353 156 C346.9249 156 342 151.0751 342 145 C342 138.9249 346.9249 134 353 134 C359.0751 134 364 138.9249 364 145 Z"
      /></clipPath
      ><clipPath clipPathUnits="userSpaceOnUse" id="clipPath4"
      ><path d="M312 197 C312 203.0751 307.0751 208 301 208 C294.9249 208 290 203.0751 290 197 C290 190.9249 294.9249 186 301 186 C307.0751 186 312 190.9249 312 197 Z"
      /></clipPath
      ><clipPath clipPathUnits="userSpaceOnUse" id="clipPath5"
      ><path d="M238 238 L260 238 L260 260 L238 260 L238 238 Z"
      /></clipPath
      ><clipPath clipPathUnits="userSpaceOnUse" id="clipPath6"
      ><path d="M208 249 C208 255.0751 203.0751 260 197 260 C190.9249 260 186 255.0751 186 249 C186 242.9249 190.9249 238 197 238 C203.0751 238 208 242.9249 208 249 Z"
      /></clipPath
      ><clipPath clipPathUnits="userSpaceOnUse" id="clipPath7"
      ><path d="M134 238 L156 238 L156 260 L134 260 L134 238 Z"
      /></clipPath
      ><clipPath clipPathUnits="userSpaceOnUse" id="clipPath8"
      ><path style="fill-rule:evenodd;" d="M145 290 L156 312 L134 312 Z"
      /></clipPath
      ><clipPath clipPathUnits="userSpaceOnUse" id="clipPath9"
      ><path d="M104 249 C104 255.0751 99.0751 260 93 260 C86.9249 260 82 255.0751 82 249 C82 242.9249 86.9249 238 93 238 C99.0751 238 104 242.9249 104 249 Z"
      /></clipPath
      ><clipPath clipPathUnits="userSpaceOnUse" id="clipPath10"
      ><path style="fill-rule:evenodd;" d="M41 238 L52 249 L41 260 L30 249 Z"
      /></clipPath
      ><clipPath clipPathUnits="userSpaceOnUse" id="clipPath11"
      ><path d="M238 134 L260 134 L260 156 L238 156 L238 134 Z"
      /></clipPath
      ><clipPath clipPathUnits="userSpaceOnUse" id="clipPath12"
      ><path d="M208 145 C208 151.0751 203.0751 156 197 156 C190.9249 156 186 151.0751 186 145 C186 138.9249 190.9249 134 197 134 C203.0751 134 208 138.9249 208 145 Z"
      /></clipPath
      ><clipPath clipPathUnits="userSpaceOnUse" id="clipPath13"
      ><path d="M134 134 L156 134 L156 156 L134 156 L134 134 Z"
      /></clipPath
      ><clipPath clipPathUnits="userSpaceOnUse" id="clipPath14"
      ><path style="fill-rule:evenodd;" d="M145 186 L156 208 L134 208 Z"
      /></clipPath
      ><clipPath clipPathUnits="userSpaceOnUse" id="clipPath15"
      ><path d="M104 145 C104 151.0751 99.0751 156 93 156 C86.9249 156 82 151.0751 82 145 C82 138.9249 86.9249 134 93 134 C99.0751 134 104 138.9249 104 145 Z"
      /></clipPath
      ><clipPath clipPathUnits="userSpaceOnUse" id="clipPath16"
      ><path style="fill-rule:evenodd;" d="M41 134 L52 145 L41 156 L30 145 Z"
      /></clipPath
      ><clipPath clipPathUnits="userSpaceOnUse" id="clipPath17"
      ><path d="M290 134 L312 134 L312 156 L290 156 L290 134 Z"
      /></clipPath
      ><clipPath clipPathUnits="userSpaceOnUse" id="clipPath18"
      ><path d="M312 67 C312 73.0751 307.0751 78 301 78 C294.9249 78 290 73.0751 290 67 C290 60.9249 294.9249 56 301 56 C307.0751 56 312 60.9249 312 67 Z"
      /></clipPath
      ><clipPath clipPathUnits="userSpaceOnUse" id="clipPath19"
      ><path d="M260 93 C260 99.0751 255.0751 104 249 104 C242.9249 104 238 99.0751 238 93 C238 86.9249 242.9249 82 249 82 C255.0751 82 260 86.9249 260 93 Z"
      /></clipPath
      ><clipPath clipPathUnits="userSpaceOnUse" id="clipPath20"
      ><path d="M260 41 C260 47.0751 255.0751 52 249 52 C242.9249 52 238 47.0751 238 41 C238 34.9249 242.9249 30 249 30 C255.0751 30 260 34.9249 260 41 Z"
      /></clipPath
      ><clipPath clipPathUnits="userSpaceOnUse" id="clipPath21"
      ><path style="fill-rule:evenodd;" d="M457 104 L446 82 L468 82 Z"
      /></clipPath
    ></defs
    ><g style="fill:white; text-rendering:optimizeSpeed; stroke:white;"
    ><rect x="0" width="550" height="342" y="0" style="stroke:none;"
      /><polygon style="fill:none; stroke:black;" points=" 509 145 457 145"
      /><path d="M509 134 C503.5 139.5 514.5 150.5 509 156" style="fill:none; stroke:black;"
      /><polygon style="fill:none; stroke:black;" points=" 457 145 405 145"
      /><polygon style="fill:none; stroke:black;" points=" 457 145 457 93"
      /><rect x="446" y="134" width="22" style="clip-path:url(#clipPath1); stroke:none;" height="22"
      /><rect x="446" y="134" width="22" style="clip-path:url(#clipPath1); fill:rgb(0,144,188); stroke:none;" height="22"
      /><rect x="446" y="134" width="22" style="clip-path:url(#clipPath1); fill:none; stroke:black;" height="22"
      /><rect x="446" y="134" width="22" style="fill:none; stroke:black;" height="22"
      /><polygon style="fill:none; stroke:black;" points=" 405 145 353 145"
      /><rect x="394" y="134" width="22" style="clip-path:url(#clipPath2); stroke:none;" height="22"
      /><rect x="394" y="134" width="22" style="clip-path:url(#clipPath2); fill:rgb(0,144,188); stroke:none;" height="22"
      /><rect x="394" y="134" width="22" style="clip-path:url(#clipPath2); fill:none; stroke:black;" height="22"
      /><rect x="394" y="134" width="22" style="fill:none; stroke:black;" height="22"
      /><polygon style="fill:none; stroke:black;" points=" 353 145 301 197"
      /><polygon style="fill:none; stroke:black;" points=" 353 145 301 145"
      /><polygon style="fill:none; stroke:black;" points=" 353 145 301 67"
      /><circle style="clip-path:url(#clipPath3); stroke:none;" r="11" cx="353" cy="145"
      /><rect x="342" y="134" width="22" style="clip-path:url(#clipPath3); fill:rgb(0,166,81); stroke:none;" height="22"
      /><rect x="342" y="134" width="22" style="clip-path:url(#clipPath3); fill:none; stroke:black;" height="22"
      /><circle style="fill:none; stroke:black;" r="11" cx="353" cy="145"
      /><polygon style="fill:none; stroke:black;" points=" 301 197 249 249"
      /><polygon style="fill:none; stroke:black;" points=" 301 197 249 145"
      /><circle style="clip-path:url(#clipPath4); stroke:none;" r="11" cx="301" cy="197"
      /><rect x="290" y="186" width="22" style="clip-path:url(#clipPath4); fill:rgb(0,166,81); stroke:none;" height="22"
      /><rect x="290" y="186" width="22" style="clip-path:url(#clipPath4); fill:none; stroke:black;" height="22"
      /><circle style="fill:none; stroke:black;" r="11" cx="301" cy="197"
      /><polygon style="fill:none; stroke:black;" points=" 249 249 197 249"
      /><rect x="238" y="238" width="22" style="clip-path:url(#clipPath5); stroke:none;" height="22"
      /><rect x="238" y="238" width="22" style="clip-path:url(#clipPath5); fill:rgb(0,144,188); stroke:none;" height="22"
      /><rect x="238" y="238" width="22" style="clip-path:url(#clipPath5); fill:none; stroke:black;" height="22"
      /><rect x="238" y="238" width="22" style="fill:none; stroke:black;" height="22"
      /><polygon style="fill:none; stroke:black;" points=" 197 249 145 249"
      /><circle style="clip-path:url(#clipPath6); stroke:none;" r="11" cx="197" cy="249"
      /><rect x="186" y="238" width="22" style="clip-path:url(#clipPath6); fill:rgb(255,212,0); stroke:none;" height="22"
      /><rect x="186" y="238" width="22" style="clip-path:url(#clipPath6); fill:none; stroke:black;" height="22"
      /><circle style="fill:none; stroke:black;" r="11" cx="197" cy="249"
      /><polygon style="fill:none; stroke:black;" points=" 145 249 145 301"
      /><polygon style="fill:none; stroke:black;" points=" 145 249 93 249"
      /><rect x="134" y="238" width="22" style="clip-path:url(#clipPath7); stroke:none;" height="22"
      /><rect x="134" y="238" width="22" style="clip-path:url(#clipPath7); fill:rgb(0,144,188); stroke:none;" height="22"
      /><rect x="134" y="238" width="22" style="clip-path:url(#clipPath7); fill:none; stroke:black;" height="22"
      /><rect x="134" y="238" width="22" style="fill:none; stroke:black;" height="22"
      /><polygon style="clip-path:url(#clipPath8); stroke:none;" points=" 145 290 156 312 134 312"
      /><rect x="134" y="290" width="22" style="clip-path:url(#clipPath8); fill:rgb(237,28,36); stroke:none;" height="22"
      /><rect x="134" y="290" width="22" style="clip-path:url(#clipPath8); fill:none; stroke:black;" height="22"
      /><polygon style="fill:none; stroke:black;" points=" 145 290 156 312 134 312"
      /><polygon style="fill:none; stroke:black;" points=" 93 249 41 249"
      /><circle style="clip-path:url(#clipPath9); stroke:none;" r="11" cx="93" cy="249"
      /><rect x="82" y="238" width="22" style="clip-path:url(#clipPath9); fill:rgb(255,212,0); stroke:none;" height="22"
      /><rect x="82" y="238" width="22" style="clip-path:url(#clipPath9); fill:none; stroke:black;" height="22"
      /><circle style="fill:none; stroke:black;" r="11" cx="93" cy="249"
      /><polygon style="clip-path:url(#clipPath10); stroke:none;" points=" 41 238 52 249 41 260 30 249"
      /><rect x="30" y="238" width="22" style="clip-path:url(#clipPath10); fill:rgb(143,204,233); stroke:none;" height="22"
      /><rect x="30" y="238" width="22" style="clip-path:url(#clipPath10); fill:none; stroke:black;" height="22"
      /><polygon style="fill:none; stroke:black;" points=" 41 238 52 249 41 260 30 249"
      /><rect x="66" y="250" width="16" style="stroke:none;" height="13"
    /></g
    ><g style="font-family:'Serif'; text-rendering:optimizeSpeed; "
    ><path style="stroke:none;" d="M68.2344 254.6562 C68.5156 254.5938 68.7656 254.5625 69.0156 254.5625 C70.0625 254.5625 70.6719 255.1719 70.6719 256.2656 C70.6719 257.4375 69.9062 258.1094 68.7031 258.1094 L68.1875 258.1094 L68.1875 258.6406 L68.7969 258.6406 C70.2188 258.6406 70.9062 259.4219 70.9062 260.6406 C70.9062 261.8438 70.1719 262.6875 68.875 262.6875 C68.6094 262.6875 68.3125 262.6562 68.0156 262.5625 L67.7812 261.8125 C67.625 261.2812 67.5 261.0469 67.1406 261.0469 C66.8906 261.0469 66.7031 261.1719 66.5781 261.4219 C66.8438 262.6406 67.7812 263.1719 69.0312 263.1719 C70.7188 263.1719 71.875 262.125 71.875 260.7031 C71.875 259.5 71.2031 258.625 69.7969 258.375 C70.9531 258.0156 71.6094 257.2031 71.6094 256.2031 C71.6094 254.9219 70.6719 254.0781 69.1875 254.0781 C68.0469 254.0781 67.0625 254.5938 66.7969 255.6875 C66.9062 256 67.1094 256.1094 67.3594 256.1094 C67.7344 256.1094 67.8906 255.8906 68 255.4062 L68.2344 254.6562 ZM72.4993 265.0938 L73.1087 265.0938 L76.6087 253.7344 L75.9837 253.7344 L72.4993 265.0938 ZM79.9878 262.6875 C78.8472 262.6875 78.1753 261.5 78.1753 259.2969 C78.1753 259.2188 78.1753 259.125 78.1753 259.0469 C78.7378 258.5 79.3628 258.3125 79.9878 258.3125 C80.9566 258.3125 81.5972 258.9844 81.5972 260.4531 C81.5972 261.9375 80.9566 262.6875 79.9878 262.6875 ZM82.1753 254.0781 C78.9878 254.4531 77.2066 256.7656 77.2066 259.4531 C77.2066 261.7812 78.2534 263.1719 79.9566 263.1719 C81.4878 263.1719 82.5659 262.1094 82.5659 260.2812 C82.5659 258.6875 81.6128 257.6562 80.2066 257.6562 C79.4722 257.6562 78.7847 257.9844 78.2222 258.5781 C78.4409 256.4062 79.7222 254.9688 82.2378 254.3906 L82.1753 254.0781 Z"
      /><rect x="56" y="253" width="8" style="fill:white; stroke:none;" height="8"
      /><path style="stroke:none;" d="M60.9844 258.7031 C60.9375 259.8906 60.1562 260.6562 59.3125 260.6562 C58.2656 260.6562 57.5 259.6875 57.5 257.7188 C57.5 256.2812 58.1562 255.1562 59.3438 255.1562 C60.1406 255.1562 60.7812 255.6875 61.0938 256.6406 L60.9844 258.7031 ZM62.9062 260.2812 C62.7344 260.375 62.5469 260.4219 62.3438 260.4219 C61.9531 260.4219 61.75 260.2188 61.75 259.4219 C61.75 258.4844 61.9688 256.5312 62.1875 254.8281 L62.0312 254.7188 L61.2344 254.9219 L61.1406 255.7969 C60.7812 255.0312 60.1562 254.6562 59.3906 254.6562 C58.0469 254.6562 56.5625 255.8438 56.5625 257.9531 C56.5625 260.0938 57.7188 261.1719 59.1406 261.1719 C60.0156 261.1719 60.6875 260.8125 61.0938 259.9844 C61.2031 260.8594 61.5156 261.1719 62.0156 261.1719 C62.4688 261.1719 62.7969 260.9062 63.0156 260.5625 L62.9062 260.2812 Z"
      /><rect x="150" y="263" width="6" style="fill:white; stroke:none;" height="10"
      /><path style="stroke:none;" d="M152.2344 264.6562 C152.5156 264.5938 152.7656 264.5625 153.0156 264.5625 C154.0625 264.5625 154.6719 265.1719 154.6719 266.2656 C154.6719 267.4375 153.9062 268.1094 152.7031 268.1094 L152.1875 268.1094 L152.1875 268.6406 L152.7969 268.6406 C154.2188 268.6406 154.9062 269.4219 154.9062 270.6406 C154.9062 271.8438 154.1719 272.6875 152.875 272.6875 C152.6094 272.6875 152.3125 272.6562 152.0156 272.5625 L151.7812 271.8125 C151.625 271.2812 151.5 271.0469 151.1406 271.0469 C150.8906 271.0469 150.7031 271.1719 150.5781 271.4219 C150.8438 272.6406 151.7812 273.1719 153.0312 273.1719 C154.7188 273.1719 155.875 272.125 155.875 270.7031 C155.875 269.5 155.2031 268.625 153.7969 268.375 C154.9531 268.0156 155.6094 267.2031 155.6094 266.2031 C155.6094 264.9219 154.6719 264.0781 153.1875 264.0781 C152.0469 264.0781 151.0625 264.5938 150.7969 265.6875 C150.9062 266 151.1094 266.1094 151.3594 266.1094 C151.7344 266.1094 151.8906 265.8906 152 265.4062 L152.2344 264.6562 Z"
      /><rect x="149" y="278" width="8" style="fill:white; stroke:none;" height="8"
      /><path style="stroke:none;" d="M153.9844 283.7031 C153.9375 284.8906 153.1562 285.6562 152.3125 285.6562 C151.2656 285.6562 150.5 284.6875 150.5 282.7188 C150.5 281.2812 151.1562 280.1562 152.3438 280.1562 C153.1406 280.1562 153.7812 280.6875 154.0938 281.6406 L153.9844 283.7031 ZM155.9062 285.2812 C155.7344 285.375 155.5469 285.4219 155.3438 285.4219 C154.9531 285.4219 154.75 285.2188 154.75 284.4219 C154.75 283.4844 154.9688 281.5312 155.1875 279.8281 L155.0312 279.7188 L154.2344 279.9219 L154.1406 280.7969 C153.7812 280.0312 153.1562 279.6562 152.3906 279.6562 C151.0469 279.6562 149.5625 280.8438 149.5625 282.9531 C149.5625 285.0938 150.7188 286.1719 152.1406 286.1719 C153.0156 286.1719 153.6875 285.8125 154.0938 284.9844 C154.2031 285.8594 154.5156 286.1719 155.0156 286.1719 C155.4688 286.1719 155.7969 285.9062 156.0156 285.5625 L155.9062 285.2812 Z"
      /><rect x="122" y="252" width="7" style="fill:white; stroke:none;" height="9"
      /><path style="stroke:none;" d="M123 257.5156 L125.9531 253.2656 L125.9531 257.5156 L123 257.5156 ZM128.2812 257.5156 L126.8594 257.5156 L126.8594 252.125 L126.2344 252.125 L122.3438 257.6406 L122.3438 258.1875 L125.9531 258.1875 L125.9531 261 L126.8594 261 L126.8594 258.1875 L128.2812 258.1875 L128.2812 257.5156 Z"
      /><rect x="109" y="250" width="6" style="fill:white; stroke:none;" height="13"
      /><path style="stroke:none;" d="M111.0938 256.2031 C111.0938 254.6562 111.75 253.8125 112.7969 253.8125 C113.7188 253.8125 114.2656 254.4531 114.2656 255.5156 C114.2656 256.7188 113.5 257.4375 112.1875 257.7031 L112.2969 258.3125 C114.2188 258.2344 114.9375 259.2188 114.9375 260.4375 C114.9375 261.625 114.2344 262.4219 112.9531 262.4219 C112.25 262.4219 111.6562 262.1562 111.0938 261.7188 L111.0938 256.2031 ZM110.2031 262.9062 L110.1094 265.375 L110.2656 265.4844 L111.1562 265.2656 L111.0156 262.0938 C111.5469 262.8438 112.3594 263.1719 113.1719 263.1719 C114.5625 263.1719 115.8594 262.2188 115.8594 260.4844 C115.8594 258.9531 114.875 258.1094 113.125 258 C114.5625 257.6094 115.1875 256.4531 115.1875 255.4844 C115.1875 254.0938 114.1562 253.3125 112.9062 253.3125 C111.2969 253.3125 110.2188 254.5469 110.2188 256.5156 L110.2031 262.9062 Z"
      /><rect x="175" y="252" width="6" style="fill:white; stroke:none;" height="10"
      /><path style="stroke:none;" d="M177.2344 253.6562 C177.5156 253.5938 177.7656 253.5625 178.0156 253.5625 C179.0625 253.5625 179.6719 254.1719 179.6719 255.2656 C179.6719 256.4375 178.9062 257.1094 177.7031 257.1094 L177.1875 257.1094 L177.1875 257.6406 L177.7969 257.6406 C179.2188 257.6406 179.9062 258.4219 179.9062 259.6406 C179.9062 260.8438 179.1719 261.6875 177.875 261.6875 C177.6094 261.6875 177.3125 261.6562 177.0156 261.5625 L176.7812 260.8125 C176.625 260.2812 176.5 260.0469 176.1406 260.0469 C175.8906 260.0469 175.7031 260.1719 175.5781 260.4219 C175.8438 261.6406 176.7812 262.1719 178.0312 262.1719 C179.7188 262.1719 180.875 261.125 180.875 259.7031 C180.875 258.5 180.2031 257.625 178.7969 257.375 C179.9531 257.0156 180.6094 256.2031 180.6094 255.2031 C180.6094 253.9219 179.6719 253.0781 178.1875 253.0781 C177.0469 253.0781 176.0625 253.5938 175.7969 254.6875 C175.9062 255 176.1094 255.1094 176.3594 255.1094 C176.7344 255.1094 176.8906 254.8906 177 254.4062 L177.2344 253.6562 Z"
      /><rect x="161" y="250" width="6" style="fill:white; stroke:none;" height="13"
      /><path style="stroke:none;" d="M163.0938 256.2031 C163.0938 254.6562 163.75 253.8125 164.7969 253.8125 C165.7188 253.8125 166.2656 254.4531 166.2656 255.5156 C166.2656 256.7188 165.5 257.4375 164.1875 257.7031 L164.2969 258.3125 C166.2188 258.2344 166.9375 259.2188 166.9375 260.4375 C166.9375 261.625 166.2344 262.4219 164.9531 262.4219 C164.25 262.4219 163.6562 262.1562 163.0938 261.7188 L163.0938 256.2031 ZM162.2031 262.9062 L162.1094 265.375 L162.2656 265.4844 L163.1562 265.2656 L163.0156 262.0938 C163.5469 262.8438 164.3594 263.1719 165.1719 263.1719 C166.5625 263.1719 167.8594 262.2188 167.8594 260.4844 C167.8594 258.9531 166.875 258.1094 165.125 258 C166.5625 257.6094 167.1875 256.4531 167.1875 255.4844 C167.1875 254.0938 166.1562 253.3125 164.9062 253.3125 C163.2969 253.3125 162.2188 254.5469 162.2188 256.5156 L162.2031 262.9062 Z"
      /><rect x="226" y="252" width="7" style="fill:white; stroke:none;" height="9"
      /><path style="stroke:none;" d="M227 257.5156 L229.9531 253.2656 L229.9531 257.5156 L227 257.5156 ZM232.2812 257.5156 L230.8594 257.5156 L230.8594 252.125 L230.2344 252.125 L226.3438 257.6406 L226.3438 258.1875 L229.9531 258.1875 L229.9531 261 L230.8594 261 L230.8594 258.1875 L232.2812 258.1875 L232.2812 257.5156 Z"
      /><rect x="213" y="250" width="6" style="fill:white; stroke:none;" height="13"
      /><path style="stroke:none;" d="M215.0938 256.2031 C215.0938 254.6562 215.75 253.8125 216.7969 253.8125 C217.7188 253.8125 218.2656 254.4531 218.2656 255.5156 C218.2656 256.7188 217.5 257.4375 216.1875 257.7031 L216.2969 258.3125 C218.2188 258.2344 218.9375 259.2188 218.9375 260.4375 C218.9375 261.625 218.2344 262.4219 216.9531 262.4219 C216.25 262.4219 215.6562 262.1562 215.0938 261.7188 L215.0938 256.2031 ZM214.2031 262.9062 L214.1094 265.375 L214.2656 265.4844 L215.1562 265.2656 L215.0156 262.0938 C215.5469 262.8438 216.3594 263.1719 217.1719 263.1719 C218.5625 263.1719 219.8594 262.2188 219.8594 260.4844 C219.8594 258.9531 218.875 258.1094 217.125 258 C218.5625 257.6094 219.1875 256.4531 219.1875 255.4844 C219.1875 254.0938 218.1562 253.3125 216.9062 253.3125 C215.2969 253.3125 214.2188 254.5469 214.2188 256.5156 L214.2031 262.9062 Z"
      /><polygon style="fill:none;" points=" 249 145 197 145"
      /><rect x="238" y="134" width="22" style="clip-path:url(#clipPath11); fill:white; stroke:none;" height="22"
      /><rect x="238" y="134" width="22" style="clip-path:url(#clipPath11); fill:rgb(0,144,188); stroke:none;" height="22"
      /><rect x="238" y="134" width="22" style="fill:none; clip-path:url(#clipPath11);" height="22"
      /><rect x="238" width="22" height="22" y="134" style="fill:none;"
      /><polygon style="fill:none;" points=" 197 145 145 145"
      /><circle style="fill:white; clip-path:url(#clipPath12); stroke:none;" r="11" cx="197" cy="145"
      /><rect x="186" y="134" width="22" style="clip-path:url(#clipPath12); fill:rgb(255,212,0); stroke:none;" height="22"
      /><rect x="186" y="134" width="22" style="fill:none; clip-path:url(#clipPath12);" height="22"
      /><circle r="11" style="fill:none;" cx="197" cy="145"
      /><polygon style="fill:none;" points=" 145 145 145 197"
      /><polygon style="fill:none;" points=" 145 145 93 145"
      /><rect x="134" y="134" width="22" style="clip-path:url(#clipPath13); fill:white; stroke:none;" height="22"
      /><rect x="134" y="134" width="22" style="clip-path:url(#clipPath13); fill:rgb(0,144,188); stroke:none;" height="22"
      /><rect x="134" y="134" width="22" style="fill:none; clip-path:url(#clipPath13);" height="22"
      /><rect x="134" width="22" height="22" y="134" style="fill:none;"
      /><polygon style="fill:white; clip-path:url(#clipPath14); stroke:none;" points=" 145 186 156 208 134 208"
      /><rect x="134" y="186" width="22" style="clip-path:url(#clipPath14); fill:rgb(237,28,36); stroke:none;" height="22"
      /><rect x="134" y="186" width="22" style="fill:none; clip-path:url(#clipPath14);" height="22"
      /><polygon style="fill:none;" points=" 145 186 156 208 134 208"
      /><polygon style="fill:none;" points=" 93 145 41 145"
      /><circle style="fill:white; clip-path:url(#clipPath15); stroke:none;" r="11" cx="93" cy="145"
      /><rect x="82" y="134" width="22" style="clip-path:url(#clipPath15); fill:rgb(255,212,0); stroke:none;" height="22"
      /><rect x="82" y="134" width="22" style="fill:none; clip-path:url(#clipPath15);" height="22"
      /><circle r="11" style="fill:none;" cx="93" cy="145"
      /><polygon style="fill:white; clip-path:url(#clipPath16); stroke:none;" points=" 41 134 52 145 41 156 30 145"
      /><rect x="30" y="134" width="22" style="clip-path:url(#clipPath16); fill:rgb(143,204,233); stroke:none;" height="22"
      /><rect x="30" y="134" width="22" style="fill:none; clip-path:url(#clipPath16);" height="22"
      /><polygon style="fill:none;" points=" 41 134 52 145 41 156 30 145"
      /><rect x="66" y="146" width="16" style="fill:white; stroke:none;" height="13"
      /><path style="stroke:none;" d="M68.2344 150.6562 C68.5156 150.5938 68.7656 150.5625 69.0156 150.5625 C70.0625 150.5625 70.6719 151.1719 70.6719 152.2656 C70.6719 153.4375 69.9062 154.1094 68.7031 154.1094 L68.1875 154.1094 L68.1875 154.6406 L68.7969 154.6406 C70.2188 154.6406 70.9062 155.4219 70.9062 156.6406 C70.9062 157.8438 70.1719 158.6875 68.875 158.6875 C68.6094 158.6875 68.3125 158.6562 68.0156 158.5625 L67.7812 157.8125 C67.625 157.2812 67.5 157.0469 67.1406 157.0469 C66.8906 157.0469 66.7031 157.1719 66.5781 157.4219 C66.8438 158.6406 67.7812 159.1719 69.0312 159.1719 C70.7188 159.1719 71.875 158.125 71.875 156.7031 C71.875 155.5 71.2031 154.625 69.7969 154.375 C70.9531 154.0156 71.6094 153.2031 71.6094 152.2031 C71.6094 150.9219 70.6719 150.0781 69.1875 150.0781 C68.0469 150.0781 67.0625 150.5938 66.7969 151.6875 C66.9062 152 67.1094 152.1094 67.3594 152.1094 C67.7344 152.1094 67.8906 151.8906 68 151.4062 L68.2344 150.6562 ZM72.4993 161.0938 L73.1087 161.0938 L76.6087 149.7344 L75.9837 149.7344 L72.4993 161.0938 ZM79.9878 158.6875 C78.8472 158.6875 78.1753 157.5 78.1753 155.2969 C78.1753 155.2188 78.1753 155.125 78.1753 155.0469 C78.7378 154.5 79.3628 154.3125 79.9878 154.3125 C80.9566 154.3125 81.5972 154.9844 81.5972 156.4531 C81.5972 157.9375 80.9566 158.6875 79.9878 158.6875 ZM82.1753 150.0781 C78.9878 150.4531 77.2066 152.7656 77.2066 155.4531 C77.2066 157.7812 78.2534 159.1719 79.9566 159.1719 C81.4878 159.1719 82.5659 158.1094 82.5659 156.2812 C82.5659 154.6875 81.6128 153.6562 80.2066 153.6562 C79.4722 153.6562 78.7847 153.9844 78.2222 154.5781 C78.4409 152.4062 79.7222 150.9688 82.2378 150.3906 L82.1753 150.0781 Z"
      /><rect x="56" y="149" width="8" style="fill:white; stroke:none;" height="8"
      /><path style="stroke:none;" d="M60.9844 154.7031 C60.9375 155.8906 60.1562 156.6562 59.3125 156.6562 C58.2656 156.6562 57.5 155.6875 57.5 153.7188 C57.5 152.2812 58.1562 151.1562 59.3438 151.1562 C60.1406 151.1562 60.7812 151.6875 61.0938 152.6406 L60.9844 154.7031 ZM62.9062 156.2812 C62.7344 156.375 62.5469 156.4219 62.3438 156.4219 C61.9531 156.4219 61.75 156.2188 61.75 155.4219 C61.75 154.4844 61.9688 152.5312 62.1875 150.8281 L62.0312 150.7188 L61.2344 150.9219 L61.1406 151.7969 C60.7812 151.0312 60.1562 150.6562 59.3906 150.6562 C58.0469 150.6562 56.5625 151.8438 56.5625 153.9531 C56.5625 156.0938 57.7188 157.1719 59.1406 157.1719 C60.0156 157.1719 60.6875 156.8125 61.0938 155.9844 C61.2031 156.8594 61.5156 157.1719 62.0156 157.1719 C62.4688 157.1719 62.7969 156.9062 63.0156 156.5625 L62.9062 156.2812 Z"
      /><rect x="150" y="159" width="6" style="fill:white; stroke:none;" height="10"
      /><path style="stroke:none;" d="M152.2344 160.6562 C152.5156 160.5938 152.7656 160.5625 153.0156 160.5625 C154.0625 160.5625 154.6719 161.1719 154.6719 162.2656 C154.6719 163.4375 153.9062 164.1094 152.7031 164.1094 L152.1875 164.1094 L152.1875 164.6406 L152.7969 164.6406 C154.2188 164.6406 154.9062 165.4219 154.9062 166.6406 C154.9062 167.8438 154.1719 168.6875 152.875 168.6875 C152.6094 168.6875 152.3125 168.6562 152.0156 168.5625 L151.7812 167.8125 C151.625 167.2812 151.5 167.0469 151.1406 167.0469 C150.8906 167.0469 150.7031 167.1719 150.5781 167.4219 C150.8438 168.6406 151.7812 169.1719 153.0312 169.1719 C154.7188 169.1719 155.875 168.125 155.875 166.7031 C155.875 165.5 155.2031 164.625 153.7969 164.375 C154.9531 164.0156 155.6094 163.2031 155.6094 162.2031 C155.6094 160.9219 154.6719 160.0781 153.1875 160.0781 C152.0469 160.0781 151.0625 160.5938 150.7969 161.6875 C150.9062 162 151.1094 162.1094 151.3594 162.1094 C151.7344 162.1094 151.8906 161.8906 152 161.4062 L152.2344 160.6562 Z"
      /><rect x="149" y="174" width="8" style="fill:white; stroke:none;" height="8"
      /><path style="stroke:none;" d="M153.9844 179.7031 C153.9375 180.8906 153.1562 181.6562 152.3125 181.6562 C151.2656 181.6562 150.5 180.6875 150.5 178.7188 C150.5 177.2812 151.1562 176.1562 152.3438 176.1562 C153.1406 176.1562 153.7812 176.6875 154.0938 177.6406 L153.9844 179.7031 ZM155.9062 181.2812 C155.7344 181.375 155.5469 181.4219 155.3438 181.4219 C154.9531 181.4219 154.75 181.2188 154.75 180.4219 C154.75 179.4844 154.9688 177.5312 155.1875 175.8281 L155.0312 175.7188 L154.2344 175.9219 L154.1406 176.7969 C153.7812 176.0312 153.1562 175.6562 152.3906 175.6562 C151.0469 175.6562 149.5625 176.8438 149.5625 178.9531 C149.5625 181.0938 150.7188 182.1719 152.1406 182.1719 C153.0156 182.1719 153.6875 181.8125 154.0938 180.9844 C154.2031 181.8594 154.5156 182.1719 155.0156 182.1719 C155.4688 182.1719 155.7969 181.9062 156.0156 181.5625 L155.9062 181.2812 Z"
      /><rect x="122" y="148" width="7" style="fill:white; stroke:none;" height="9"
      /><path style="stroke:none;" d="M123 153.5156 L125.9531 149.2656 L125.9531 153.5156 L123 153.5156 ZM128.2812 153.5156 L126.8594 153.5156 L126.8594 148.125 L126.2344 148.125 L122.3438 153.6406 L122.3438 154.1875 L125.9531 154.1875 L125.9531 157 L126.8594 157 L126.8594 154.1875 L128.2812 154.1875 L128.2812 153.5156 Z"
      /><rect x="109" y="146" width="6" style="fill:white; stroke:none;" height="13"
      /><path style="stroke:none;" d="M111.0938 152.2031 C111.0938 150.6562 111.75 149.8125 112.7969 149.8125 C113.7188 149.8125 114.2656 150.4531 114.2656 151.5156 C114.2656 152.7188 113.5 153.4375 112.1875 153.7031 L112.2969 154.3125 C114.2188 154.2344 114.9375 155.2188 114.9375 156.4375 C114.9375 157.625 114.2344 158.4219 112.9531 158.4219 C112.25 158.4219 111.6562 158.1562 111.0938 157.7188 L111.0938 152.2031 ZM110.2031 158.9062 L110.1094 161.375 L110.2656 161.4844 L111.1562 161.2656 L111.0156 158.0938 C111.5469 158.8438 112.3594 159.1719 113.1719 159.1719 C114.5625 159.1719 115.8594 158.2188 115.8594 156.4844 C115.8594 154.9531 114.875 154.1094 113.125 154 C114.5625 153.6094 115.1875 152.4531 115.1875 151.4844 C115.1875 150.0938 114.1562 149.3125 112.9062 149.3125 C111.2969 149.3125 110.2188 150.5469 110.2188 152.5156 L110.2031 158.9062 Z"
      /><rect x="175" y="148" width="6" style="fill:white; stroke:none;" height="10"
      /><path style="stroke:none;" d="M177.2344 149.6562 C177.5156 149.5938 177.7656 149.5625 178.0156 149.5625 C179.0625 149.5625 179.6719 150.1719 179.6719 151.2656 C179.6719 152.4375 178.9062 153.1094 177.7031 153.1094 L177.1875 153.1094 L177.1875 153.6406 L177.7969 153.6406 C179.2188 153.6406 179.9062 154.4219 179.9062 155.6406 C179.9062 156.8438 179.1719 157.6875 177.875 157.6875 C177.6094 157.6875 177.3125 157.6562 177.0156 157.5625 L176.7812 156.8125 C176.625 156.2812 176.5 156.0469 176.1406 156.0469 C175.8906 156.0469 175.7031 156.1719 175.5781 156.4219 C175.8438 157.6406 176.7812 158.1719 178.0312 158.1719 C179.7188 158.1719 180.875 157.125 180.875 155.7031 C180.875 154.5 180.2031 153.625 178.7969 153.375 C179.9531 153.0156 180.6094 152.2031 180.6094 151.2031 C180.6094 149.9219 179.6719 149.0781 178.1875 149.0781 C177.0469 149.0781 176.0625 149.5938 175.7969 150.6875 C175.9062 151 176.1094 151.1094 176.3594 151.1094 C176.7344 151.1094 176.8906 150.8906 177 150.4062 L177.2344 149.6562 Z"
      /><rect x="161" y="146" width="6" style="fill:white; stroke:none;" height="13"
      /><path style="stroke:none;" d="M163.0938 152.2031 C163.0938 150.6562 163.75 149.8125 164.7969 149.8125 C165.7188 149.8125 166.2656 150.4531 166.2656 151.5156 C166.2656 152.7188 165.5 153.4375 164.1875 153.7031 L164.2969 154.3125 C166.2188 154.2344 166.9375 155.2188 166.9375 156.4375 C166.9375 157.625 166.2344 158.4219 164.9531 158.4219 C164.25 158.4219 163.6562 158.1562 163.0938 157.7188 L163.0938 152.2031 ZM162.2031 158.9062 L162.1094 161.375 L162.2656 161.4844 L163.1562 161.2656 L163.0156 158.0938 C163.5469 158.8438 164.3594 159.1719 165.1719 159.1719 C166.5625 159.1719 167.8594 158.2188 167.8594 156.4844 C167.8594 154.9531 166.875 154.1094 165.125 154 C166.5625 153.6094 167.1875 152.4531 167.1875 151.4844 C167.1875 150.0938 166.1562 149.3125 164.9062 149.3125 C163.2969 149.3125 162.2188 150.5469 162.2188 152.5156 L162.2031 158.9062 Z"
      /><rect x="226" y="148" width="7" style="fill:white; stroke:none;" height="9"
      /><path style="stroke:none;" d="M227 153.5156 L229.9531 149.2656 L229.9531 153.5156 L227 153.5156 ZM232.2812 153.5156 L230.8594 153.5156 L230.8594 148.125 L230.2344 148.125 L226.3438 153.6406 L226.3438 154.1875 L229.9531 154.1875 L229.9531 157 L230.8594 157 L230.8594 154.1875 L232.2812 154.1875 L232.2812 153.5156 Z"
      /><rect x="213" y="146" width="6" style="fill:white; stroke:none;" height="13"
      /><path style="stroke:none;" d="M215.0938 152.2031 C215.0938 150.6562 215.75 149.8125 216.7969 149.8125 C217.7188 149.8125 218.2656 150.4531 218.2656 151.5156 C218.2656 152.7188 217.5 153.4375 216.1875 153.7031 L216.2969 154.3125 C218.2188 154.2344 218.9375 155.2188 218.9375 156.4375 C218.9375 157.625 218.2344 158.4219 216.9531 158.4219 C216.25 158.4219 215.6562 158.1562 215.0938 157.7188 L215.0938 152.2031 ZM214.2031 158.9062 L214.1094 161.375 L214.2656 161.4844 L215.1562 161.2656 L215.0156 158.0938 C215.5469 158.8438 216.3594 159.1719 217.1719 159.1719 C218.5625 159.1719 219.8594 158.2188 219.8594 156.4844 C219.8594 154.9531 218.875 154.1094 217.125 154 C218.5625 153.6094 219.1875 152.4531 219.1875 151.4844 C219.1875 150.0938 218.1562 149.3125 216.9062 149.3125 C215.2969 149.3125 214.2188 150.5469 214.2188 152.5156 L214.2031 158.9062 Z"
      /><rect x="287" y="214" width="6" style="fill:white; stroke:none;" height="9"
      /><path style="stroke:none;" d="M288.4219 222.0938 C289.0781 221.375 289.7031 220.7188 290.0312 220.3438 C291.9219 218.3125 292.5312 217.4688 292.5312 216.3594 C292.5312 215.0156 291.7812 214.0781 290.1562 214.0781 C288.9062 214.0781 287.7969 214.7031 287.5938 215.9688 C287.7188 216.2031 287.9062 216.3438 288.1562 216.3438 C288.4688 216.3438 288.6562 216.1094 288.7969 215.5938 L289.0938 214.6719 C289.3906 214.5938 289.6562 214.5625 289.8906 214.5625 C290.9219 214.5625 291.5469 215.3125 291.5469 216.4219 C291.5469 217.4375 290.9844 218.4219 289.7031 219.9062 C289.125 220.5781 288.3906 221.4375 287.6406 222.2812 L287.6406 223 L292.9219 223 L292.9219 222.0938 L288.4219 222.0938 Z"
      /><rect x="268" y="231" width="6" style="fill:white; stroke:none;" height="13"
      /><path style="stroke:none;" d="M270.0938 237.2031 C270.0938 235.6562 270.75 234.8125 271.7969 234.8125 C272.7188 234.8125 273.2656 235.4531 273.2656 236.5156 C273.2656 237.7188 272.5 238.4375 271.1875 238.7031 L271.2969 239.3125 C273.2188 239.2344 273.9375 240.2188 273.9375 241.4375 C273.9375 242.625 273.2344 243.4219 271.9531 243.4219 C271.25 243.4219 270.6562 243.1562 270.0938 242.7188 L270.0938 237.2031 ZM269.2031 243.9062 L269.1094 246.375 L269.2656 246.4844 L270.1562 246.2656 L270.0156 243.0938 C270.5469 243.8438 271.3594 244.1719 272.1719 244.1719 C273.5625 244.1719 274.8594 243.2188 274.8594 241.4844 C274.8594 239.9531 273.875 239.1094 272.125 239 C273.5625 238.6094 274.1875 237.4531 274.1875 236.4844 C274.1875 235.0938 273.1562 234.3125 271.9062 234.3125 C270.2969 234.3125 269.2188 235.5469 269.2188 237.5156 L269.2031 243.9062 Z"
      /><rect x="275" y="181" width="7" style="fill:white; stroke:none;" height="9"
      /><path style="stroke:none;" d="M276 186.5156 L278.9531 182.2656 L278.9531 186.5156 L276 186.5156 ZM281.2812 186.5156 L279.8594 186.5156 L279.8594 181.125 L279.2344 181.125 L275.3438 186.6406 L275.3438 187.1875 L278.9531 187.1875 L278.9531 190 L279.8594 190 L279.8594 187.1875 L281.2812 187.1875 L281.2812 186.5156 Z"
      /><rect x="257" y="160" width="6" style="fill:white; stroke:none;" height="13"
      /><path style="stroke:none;" d="M259.0938 166.2031 C259.0938 164.6562 259.75 163.8125 260.7969 163.8125 C261.7188 163.8125 262.2656 164.4531 262.2656 165.5156 C262.2656 166.7188 261.5 167.4375 260.1875 167.7031 L260.2969 168.3125 C262.2188 168.2344 262.9375 169.2188 262.9375 170.4375 C262.9375 171.625 262.2344 172.4219 260.9531 172.4219 C260.25 172.4219 259.6562 172.1562 259.0938 171.7188 L259.0938 166.2031 ZM258.2031 172.9062 L258.1094 175.375 L258.2656 175.4844 L259.1562 175.2656 L259.0156 172.0938 C259.5469 172.8438 260.3594 173.1719 261.1719 173.1719 C262.5625 173.1719 263.8594 172.2188 263.8594 170.4844 C263.8594 168.9531 262.875 168.1094 261.125 168 C262.5625 167.6094 263.1875 166.4531 263.1875 165.4844 C263.1875 164.0938 262.1562 163.3125 260.9062 163.3125 C259.2969 163.3125 258.2188 164.5469 258.2188 166.5156 L258.2031 172.9062 Z"
      /><rect x="290" y="134" width="22" style="clip-path:url(#clipPath17); fill:white; stroke:none;" height="22"
      /><rect x="290" y="134" width="22" style="clip-path:url(#clipPath17); fill:rgb(0,144,188); stroke:none;" height="22"
      /><rect x="290" y="134" width="22" style="fill:none; clip-path:url(#clipPath17);" height="22"
      /><rect x="290" width="22" height="22" y="134" style="fill:none;"
      /><polygon style="fill:none;" points=" 301 67 249 93"
      /><polygon style="fill:none;" points=" 301 67 249 41"
      /><circle style="fill:white; clip-path:url(#clipPath18); stroke:none;" r="11" cx="301" cy="67"
      /><rect x="290" y="56" width="22" style="clip-path:url(#clipPath18); fill:rgb(0,166,81); stroke:none;" height="22"
      /><rect x="290" y="56" width="22" style="fill:none; clip-path:url(#clipPath18);" height="22"
      /><circle r="11" style="fill:none;" cx="301" cy="67"
      /><circle style="fill:white; clip-path:url(#clipPath19); stroke:none;" r="11" cx="249" cy="93"
      /><rect x="238" y="82" width="22" style="clip-path:url(#clipPath19); fill:rgb(0,166,81); stroke:none;" height="22"
      /><rect x="238" y="82" width="22" style="fill:none; clip-path:url(#clipPath19);" height="22"
      /><circle r="11" style="fill:none;" cx="249" cy="93"
      /><circle style="fill:white; clip-path:url(#clipPath20); stroke:none;" r="11" cx="249" cy="41"
      /><rect x="238" y="30" width="22" style="clip-path:url(#clipPath20); fill:rgb(0,166,81); stroke:none;" height="22"
      /><rect x="238" y="30" width="22" style="fill:none; clip-path:url(#clipPath20);" height="22"
      /><circle r="11" style="fill:none;" cx="249" cy="41"
      /><rect x="283" y="78" width="6" style="fill:white; stroke:none;" height="10"
      /><path style="stroke:none;" d="M285.2344 79.6562 C285.5156 79.5938 285.7656 79.5625 286.0156 79.5625 C287.0625 79.5625 287.6719 80.1719 287.6719 81.2656 C287.6719 82.4375 286.9062 83.1094 285.7031 83.1094 L285.1875 83.1094 L285.1875 83.6406 L285.7969 83.6406 C287.2188 83.6406 287.9062 84.4219 287.9062 85.6406 C287.9062 86.8438 287.1719 87.6875 285.875 87.6875 C285.6094 87.6875 285.3125 87.6562 285.0156 87.5625 L284.7812 86.8125 C284.625 86.2812 284.5 86.0469 284.1406 86.0469 C283.8906 86.0469 283.7031 86.1719 283.5781 86.4219 C283.8438 87.6406 284.7812 88.1719 286.0312 88.1719 C287.7188 88.1719 288.875 87.125 288.875 85.7031 C288.875 84.5 288.2031 83.625 286.7969 83.375 C287.9531 83.0156 288.6094 82.2031 288.6094 81.2031 C288.6094 79.9219 287.6719 79.0781 286.1875 79.0781 C285.0469 79.0781 284.0625 79.5938 283.7969 80.6875 C283.9062 81 284.1094 81.1094 284.3594 81.1094 C284.7344 81.1094 284.8906 80.8906 285 80.4062 L285.2344 79.6562 Z"
      /><rect x="266" y="87" width="8" style="fill:white; stroke:none;" height="8"
      /><path style="stroke:none;" d="M270.9844 92.7031 C270.9375 93.8906 270.1562 94.6562 269.3125 94.6562 C268.2656 94.6562 267.5 93.6875 267.5 91.7188 C267.5 90.2812 268.1562 89.1562 269.3438 89.1562 C270.1406 89.1562 270.7812 89.6875 271.0938 90.6406 L270.9844 92.7031 ZM272.9062 94.2812 C272.7344 94.375 272.5469 94.4219 272.3438 94.4219 C271.9531 94.4219 271.75 94.2188 271.75 93.4219 C271.75 92.4844 271.9688 90.5312 272.1875 88.8281 L272.0312 88.7188 L271.2344 88.9219 L271.1406 89.7969 C270.7812 89.0312 270.1562 88.6562 269.3906 88.6562 C268.0469 88.6562 266.5625 89.8438 266.5625 91.9531 C266.5625 94.0938 267.7188 95.1719 269.1406 95.1719 C270.0156 95.1719 270.6875 94.8125 271.0938 93.9844 C271.2031 94.8594 271.5156 95.1719 272.0156 95.1719 C272.4688 95.1719 272.7969 94.9062 273.0156 94.5625 L272.9062 94.2812 Z"
      /><rect x="276" y="60" width="6" style="fill:white; stroke:none;" height="10"
      /><path style="stroke:none;" d="M279.3438 69.6875 C278.2031 69.6875 277.5312 68.5 277.5312 66.2969 C277.5312 66.2188 277.5312 66.125 277.5312 66.0469 C278.0938 65.5 278.7188 65.3125 279.3438 65.3125 C280.3125 65.3125 280.9531 65.9844 280.9531 67.4531 C280.9531 68.9375 280.3125 69.6875 279.3438 69.6875 ZM281.5312 61.0781 C278.3438 61.4531 276.5625 63.7656 276.5625 66.4531 C276.5625 68.7812 277.6094 70.1719 279.3125 70.1719 C280.8438 70.1719 281.9219 69.1094 281.9219 67.2812 C281.9219 65.6875 280.9688 64.6562 279.5625 64.6562 C278.8281 64.6562 278.1406 64.9844 277.5781 65.5781 C277.7969 63.4062 279.0781 61.9688 281.5938 61.3906 L281.5312 61.0781 Z"
      /><rect x="259" y="53" width="8" style="fill:white; stroke:none;" height="8"
      /><path style="stroke:none;" d="M263.9844 58.7031 C263.9375 59.8906 263.1562 60.6562 262.3125 60.6562 C261.2656 60.6562 260.5 59.6875 260.5 57.7188 C260.5 56.2812 261.1562 55.1562 262.3438 55.1562 C263.1406 55.1562 263.7812 55.6875 264.0938 56.6406 L263.9844 58.7031 ZM265.9062 60.2812 C265.7344 60.375 265.5469 60.4219 265.3438 60.4219 C264.9531 60.4219 264.75 60.2188 264.75 59.4219 C264.75 58.4844 264.9688 56.5312 265.1875 54.8281 L265.0312 54.7188 L264.2344 54.9219 L264.1406 55.7969 C263.7812 55.0312 263.1562 54.6562 262.3906 54.6562 C261.0469 54.6562 259.5625 55.8438 259.5625 57.9531 C259.5625 60.0938 260.7188 61.1719 262.1406 61.1719 C263.0156 61.1719 263.6875 60.8125 264.0938 59.9844 C264.2031 60.8594 264.5156 61.1719 265.0156 61.1719 C265.4688 61.1719 265.7969 60.9062 266.0156 60.5625 L265.9062 60.2812 Z"
      /><rect x="339" y="162" width="6" style="fill:white; stroke:none;" height="10"
      /><path style="stroke:none;" d="M341.2344 163.6562 C341.5156 163.5938 341.7656 163.5625 342.0156 163.5625 C343.0625 163.5625 343.6719 164.1719 343.6719 165.2656 C343.6719 166.4375 342.9062 167.1094 341.7031 167.1094 L341.1875 167.1094 L341.1875 167.6406 L341.7969 167.6406 C343.2188 167.6406 343.9062 168.4219 343.9062 169.6406 C343.9062 170.8438 343.1719 171.6875 341.875 171.6875 C341.6094 171.6875 341.3125 171.6562 341.0156 171.5625 L340.7812 170.8125 C340.625 170.2812 340.5 170.0469 340.1406 170.0469 C339.8906 170.0469 339.7031 170.1719 339.5781 170.4219 C339.8438 171.6406 340.7812 172.1719 342.0312 172.1719 C343.7188 172.1719 344.875 171.125 344.875 169.7031 C344.875 168.5 344.2031 167.625 342.7969 167.375 C343.9531 167.0156 344.6094 166.2031 344.6094 165.2031 C344.6094 163.9219 343.6719 163.0781 342.1875 163.0781 C341.0469 163.0781 340.0625 163.5938 339.7969 164.6875 C339.9062 165 340.1094 165.1094 340.3594 165.1094 C340.7344 165.1094 340.8906 164.8906 341 164.4062 L341.2344 163.6562 Z"
      /><rect x="319" y="182" width="8" style="fill:white; stroke:none;" height="8"
      /><path style="stroke:none;" d="M323.9844 187.7031 C323.9375 188.8906 323.1562 189.6562 322.3125 189.6562 C321.2656 189.6562 320.5 188.6875 320.5 186.7188 C320.5 185.2812 321.1562 184.1562 322.3438 184.1562 C323.1406 184.1562 323.7812 184.6875 324.0938 185.6406 L323.9844 187.7031 ZM325.9062 189.2812 C325.7344 189.375 325.5469 189.4219 325.3438 189.4219 C324.9531 189.4219 324.75 189.2188 324.75 188.4219 C324.75 187.4844 324.9688 185.5312 325.1875 183.8281 L325.0312 183.7188 L324.2344 183.9219 L324.1406 184.7969 C323.7812 184.0312 323.1562 183.6562 322.3906 183.6562 C321.0469 183.6562 319.5625 184.8438 319.5625 186.9531 C319.5625 189.0938 320.7188 190.1719 322.1406 190.1719 C323.0156 190.1719 323.6875 189.8125 324.0938 188.9844 C324.2031 189.8594 324.5156 190.1719 325.0156 190.1719 C325.4688 190.1719 325.7969 189.9062 326.0156 189.5625 L325.9062 189.2812 Z"
      /><rect x="330" y="148" width="7" style="fill:white; stroke:none;" height="9"
      /><path style="stroke:none;" d="M331 153.5156 L333.9531 149.2656 L333.9531 153.5156 L331 153.5156 ZM336.2812 153.5156 L334.8594 153.5156 L334.8594 148.125 L334.2344 148.125 L330.3438 153.6406 L330.3438 154.1875 L333.9531 154.1875 L333.9531 157 L334.8594 157 L334.8594 154.1875 L336.2812 154.1875 L336.2812 153.5156 Z"
      /><rect x="317" y="146" width="6" style="fill:white; stroke:none;" height="13"
      /><path style="stroke:none;" d="M319.0938 152.2031 C319.0938 150.6562 319.75 149.8125 320.7969 149.8125 C321.7188 149.8125 322.2656 150.4531 322.2656 151.5156 C322.2656 152.7188 321.5 153.4375 320.1875 153.7031 L320.2969 154.3125 C322.2188 154.2344 322.9375 155.2188 322.9375 156.4375 C322.9375 157.625 322.2344 158.4219 320.9531 158.4219 C320.25 158.4219 319.6562 158.1562 319.0938 157.7188 L319.0938 152.2031 ZM318.2031 158.9062 L318.1094 161.375 L318.2656 161.4844 L319.1562 161.2656 L319.0156 158.0938 C319.5469 158.8438 320.3594 159.1719 321.1719 159.1719 C322.5625 159.1719 323.8594 158.2188 323.8594 156.4844 C323.8594 154.9531 322.875 154.1094 321.125 154 C322.5625 153.6094 323.1875 152.4531 323.1875 151.4844 C323.1875 150.0938 322.1562 149.3125 320.9062 149.3125 C319.2969 149.3125 318.2188 150.5469 318.2188 152.5156 L318.2031 158.9062 Z"
      /><rect x="331" y="126" width="6" style="fill:white; stroke:none;" height="10"
      /><path style="stroke:none;" d="M334.3438 135.6875 C333.2031 135.6875 332.5312 134.5 332.5312 132.2969 C332.5312 132.2188 332.5312 132.125 332.5312 132.0469 C333.0938 131.5 333.7188 131.3125 334.3438 131.3125 C335.3125 131.3125 335.9531 131.9844 335.9531 133.4531 C335.9531 134.9375 335.3125 135.6875 334.3438 135.6875 ZM336.5312 127.0781 C333.3438 127.4531 331.5625 129.7656 331.5625 132.4531 C331.5625 134.7812 332.6094 136.1719 334.3125 136.1719 C335.8438 136.1719 336.9219 135.1094 336.9219 133.2812 C336.9219 131.6875 335.9688 130.6562 334.5625 130.6562 C333.8281 130.6562 333.1406 130.9844 332.5781 131.5781 C332.7969 129.4062 334.0781 127.9688 336.5938 127.3906 L336.5312 127.0781 Z"
      /><rect x="302" y="85" width="8" style="fill:white; stroke:none;" height="8"
      /><path style="stroke:none;" d="M306.9844 90.7031 C306.9375 91.8906 306.1562 92.6562 305.3125 92.6562 C304.2656 92.6562 303.5 91.6875 303.5 89.7188 C303.5 88.2812 304.1562 87.1562 305.3438 87.1562 C306.1406 87.1562 306.7812 87.6875 307.0938 88.6406 L306.9844 90.7031 ZM308.9062 92.2812 C308.7344 92.375 308.5469 92.4219 308.3438 92.4219 C307.9531 92.4219 307.75 92.2188 307.75 91.4219 C307.75 90.4844 307.9688 88.5312 308.1875 86.8281 L308.0312 86.7188 L307.2344 86.9219 L307.1406 87.7969 C306.7812 87.0312 306.1562 86.6562 305.3906 86.6562 C304.0469 86.6562 302.5625 87.8438 302.5625 89.9531 C302.5625 92.0938 303.7188 93.1719 305.1406 93.1719 C306.0156 93.1719 306.6875 92.8125 307.0938 91.9844 C307.2031 92.8594 307.5156 93.1719 308.0156 93.1719 C308.4688 93.1719 308.7969 92.9062 309.0156 92.5625 L308.9062 92.2812 Z"
      /><rect x="382" y="148" width="7" style="fill:white; stroke:none;" height="9"
      /><path style="stroke:none;" d="M383 153.5156 L385.9531 149.2656 L385.9531 153.5156 L383 153.5156 ZM388.2812 153.5156 L386.8594 153.5156 L386.8594 148.125 L386.2344 148.125 L382.3438 153.6406 L382.3438 154.1875 L385.9531 154.1875 L385.9531 157 L386.8594 157 L386.8594 154.1875 L388.2812 154.1875 L388.2812 153.5156 Z"
      /><rect x="369" y="146" width="6" style="fill:white; stroke:none;" height="13"
      /><path style="stroke:none;" d="M371.0938 152.2031 C371.0938 150.6562 371.75 149.8125 372.7969 149.8125 C373.7188 149.8125 374.2656 150.4531 374.2656 151.5156 C374.2656 152.7188 373.5 153.4375 372.1875 153.7031 L372.2969 154.3125 C374.2188 154.2344 374.9375 155.2188 374.9375 156.4375 C374.9375 157.625 374.2344 158.4219 372.9531 158.4219 C372.25 158.4219 371.6562 158.1562 371.0938 157.7188 L371.0938 152.2031 ZM370.2031 158.9062 L370.1094 161.375 L370.2656 161.4844 L371.1562 161.2656 L371.0156 158.0938 C371.5469 158.8438 372.3594 159.1719 373.1719 159.1719 C374.5625 159.1719 375.8594 158.2188 375.8594 156.4844 C375.8594 154.9531 374.875 154.1094 373.125 154 C374.5625 153.6094 375.1875 152.4531 375.1875 151.4844 C375.1875 150.0938 374.1562 149.3125 372.9062 149.3125 C371.2969 149.3125 370.2188 150.5469 370.2188 152.5156 L370.2031 158.9062 Z"
      /><polygon style="fill:white; clip-path:url(#clipPath21); stroke:none;" points=" 457 104 446 82 468 82"
      /><rect x="446" y="82" width="22" style="clip-path:url(#clipPath21); fill:rgb(237,28,36); stroke:none;" height="22"
      /><rect x="446" y="82" width="22" style="fill:none; clip-path:url(#clipPath21);" height="22"
      /><polygon style="fill:none;" points=" 457 104 446 82 468 82"
      /><rect x="434" y="148" width="7" style="fill:white; stroke:none;" height="9"
      /><path style="stroke:none;" d="M435 153.5156 L437.9531 149.2656 L437.9531 153.5156 L435 153.5156 ZM440.2812 153.5156 L438.8594 153.5156 L438.8594 148.125 L438.2344 148.125 L434.3438 153.6406 L434.3438 154.1875 L437.9531 154.1875 L437.9531 157 L438.8594 157 L438.8594 154.1875 L440.2812 154.1875 L440.2812 153.5156 Z"
      /><rect x="421" y="146" width="6" style="fill:white; stroke:none;" height="13"
      /><path style="stroke:none;" d="M423.0938 152.2031 C423.0938 150.6562 423.75 149.8125 424.7969 149.8125 C425.7188 149.8125 426.2656 150.4531 426.2656 151.5156 C426.2656 152.7188 425.5 153.4375 424.1875 153.7031 L424.2969 154.3125 C426.2188 154.2344 426.9375 155.2188 426.9375 156.4375 C426.9375 157.625 426.2344 158.4219 424.9531 158.4219 C424.25 158.4219 423.6562 158.1562 423.0938 157.7188 L423.0938 152.2031 ZM422.2031 158.9062 L422.1094 161.375 L422.2656 161.4844 L423.1562 161.2656 L423.0156 158.0938 C423.5469 158.8438 424.3594 159.1719 425.1719 159.1719 C426.5625 159.1719 427.8594 158.2188 427.8594 156.4844 C427.8594 154.9531 426.875 154.1094 425.125 154 C426.5625 153.6094 427.1875 152.4531 427.1875 151.4844 C427.1875 150.0938 426.1562 149.3125 424.9062 149.3125 C423.2969 149.3125 422.2188 150.5469 422.2188 152.5156 L422.2031 158.9062 Z"
      /><rect x="446" y="121" width="6" style="fill:white; stroke:none;" height="10"
      /><path style="stroke:none;" d="M449.3438 130.6875 C448.2031 130.6875 447.5312 129.5 447.5312 127.2969 C447.5312 127.2188 447.5312 127.125 447.5312 127.0469 C448.0938 126.5 448.7188 126.3125 449.3438 126.3125 C450.3125 126.3125 450.9531 126.9844 450.9531 128.4531 C450.9531 129.9375 450.3125 130.6875 449.3438 130.6875 ZM451.5312 122.0781 C448.3438 122.4531 446.5625 124.7656 446.5625 127.4531 C446.5625 129.7812 447.6094 131.1719 449.3125 131.1719 C450.8438 131.1719 451.9219 130.1094 451.9219 128.2812 C451.9219 126.6875 450.9688 125.6562 449.5625 125.6562 C448.8281 125.6562 448.1406 125.9844 447.5781 126.5781 C447.7969 124.4062 449.0781 122.9688 451.5938 122.3906 L451.5312 122.0781 Z"
      /><rect x="445" y="108" width="8" style="fill:white; stroke:none;" height="8"
      /><path style="stroke:none;" d="M449.9844 113.7031 C449.9375 114.8906 449.1562 115.6562 448.3125 115.6562 C447.2656 115.6562 446.5 114.6875 446.5 112.7188 C446.5 111.2812 447.1562 110.1562 448.3438 110.1562 C449.1406 110.1562 449.7812 110.6875 450.0938 111.6406 L449.9844 113.7031 ZM451.9062 115.2812 C451.7344 115.375 451.5469 115.4219 451.3438 115.4219 C450.9531 115.4219 450.75 115.2188 450.75 114.4219 C450.75 113.4844 450.9688 111.5312 451.1875 109.8281 L451.0312 109.7188 L450.2344 109.9219 L450.1406 110.7969 C449.7812 110.0312 449.1562 109.6562 448.3906 109.6562 C447.0469 109.6562 445.5625 110.8438 445.5625 112.9531 C445.5625 115.0938 446.7188 116.1719 448.1406 116.1719 C449.0156 116.1719 449.6875 115.8125 450.0938 114.9844 C450.2031 115.8594 450.5156 116.1719 451.0156 116.1719 C451.4688 116.1719 451.7969 115.9062 452.0156 115.5625 L451.9062 115.2812 Z"
      /><rect x="473" y="148" width="5" style="fill:white; stroke:none;" height="10"
      /><path style="stroke:none;" d="M474.8906 156.6875 C474.4844 156.6875 474.1562 157.0469 474.1562 157.4219 C474.1562 157.8125 474.4844 158.1562 474.8906 158.1562 C475.2969 158.1562 475.6406 157.8125 475.6406 157.4219 C475.6406 157.0469 475.2969 156.6875 474.8906 156.6875 ZM476.4688 150.5781 C476.7188 150.8906 476.875 151.2656 476.8906 151.6562 C476.8906 152.1875 476.625 152.5 476.0312 152.7656 L475.4062 153.0156 C474.6406 153.3125 474.3906 153.5469 474.3906 153.9375 C474.3906 154.1094 474.4531 154.3438 474.5781 154.8125 L474.7344 155.3438 L475.1094 155.3438 L475.0938 154.5312 C475.0938 154.0938 475.2031 153.9688 475.7812 153.7344 L476.2031 153.5625 C477.0312 153.2188 477.4531 152.6875 477.4531 151.8438 C477.4531 150.1562 475.6562 149.1875 474.5 149.0312 C474.1094 149.125 473.9062 149.2969 473.9062 149.6406 C473.9062 149.9375 474.0625 150.1562 474.7188 150.2656 L476.4688 150.5781 Z"
    /></g
  ></g
></svg
>
