<?xml version="1.0"?>
<!DOCTYPE svg PUBLIC '-//W3C//DTD SVG 1.0//EN'
          'http://www.w3.org/TR/2001/REC-SVG-20010904/DTD/svg10.dtd'>
<svg xmlns:xlink="http://www.w3.org/1999/xlink" style="fill-opacity:1; color-rendering:auto; color-interpolation:auto; text-rendering:auto; stroke:black; stroke-linecap:square; stroke-miterlimit:10; shape-rendering:auto; stroke-opacity:1; fill:black; stroke-dasharray:none; font-weight:normal; stroke-width:1; font-family:'Dialog'; font-style:normal; stroke-linejoin:miter; font-size:12px; stroke-dashoffset:0; image-rendering:auto;" viewBox="0 0 238 209" xmlns="http://www.w3.org/2000/svg"
><!--Generated by the Batik Graphics2D SVG Generator--><defs id="genericDefs"
  /><g
  ><defs id="defs1"
    ><clipPath clipPathUnits="userSpaceOnUse" id="clipPath1"
      ><path d="M134 79 L156 79 L156 101 L134 101 L134 79 Z"
      /></clipPath
      ><clipPath clipPathUnits="userSpaceOnUse" id="clipPath2"
      ><path d="M104 116 C104 122.0751 99.0751 127 93 127 C86.9249 127 82 122.0751 82 116 C82 109.9249 86.9249 105 93 105 C99.0751 105 104 109.9249 104 116 Z"
      /></clipPath
      ><clipPath clipPathUnits="userSpaceOnUse" id="clipPath3"
      ><path style="fill-rule:evenodd;" d="M93 157 L104 179 L82 179 Z"
      /></clipPath
      ><clipPath clipPathUnits="userSpaceOnUse" id="clipPath4"
      ><path d="M52 116 C52 122.0751 47.0751 127 41 127 C34.9249 127 30 122.0751 30 116 C30 109.9249 34.9249 105 41 105 C47.0751 105 52 109.9249 52 116 Z"
      /></clipPath
      ><clipPath clipPathUnits="userSpaceOnUse" id="clipPath5"
      ><path d="M82 53 L104 53 L104 75 L82 75 L82 53 Z"
      /></clipPath
    ></defs
    ><g style="fill:white; text-rendering:optimizeSpeed; stroke:white;"
    ><rect x="0" width="238" height="209" y="0" style="stroke:none;"
      /><polygon style="fill:none; stroke:black;" points=" 197 90 145 90"
      /><path d="M197 79 C191.5 84.5 202.5 95.5 197 101" style="fill:none; stroke:black;"
      /><polygon style="fill:none; stroke:black;" points=" 145 90 93 116"
      /><polygon style="fill:none; stroke:black;" points=" 145 90 93 64"
      /><rect x="134" y="79" width="22" style="clip-path:url(#clipPath1); stroke:none;" height="22"
      /><rect x="134" y="79" width="22" style="clip-path:url(#clipPath1); fill:rgb(255,212,0); stroke:none;" height="22"
      /><rect x="134" y="79" width="22" style="clip-path:url(#clipPath1); fill:none; stroke:black;" height="22"
      /><rect x="134" y="79" width="22" style="fill:none; stroke:black;" height="22"
      /><polygon style="fill:none; stroke:black;" points=" 93 116 93 168"
      /><polygon style="fill:none; stroke:black;" points=" 93 116 41 116"
      /><circle style="clip-path:url(#clipPath2); stroke:none;" r="11" cx="93" cy="116"
      /><rect x="82" y="105" width="22" style="clip-path:url(#clipPath2); fill:rgb(255,212,0); stroke:none;" height="22"
      /><rect x="82" y="105" width="22" style="clip-path:url(#clipPath2); fill:none; stroke:black;" height="22"
      /><circle style="fill:none; stroke:black;" r="11" cx="93" cy="116"
      /><polygon style="clip-path:url(#clipPath3); stroke:none;" points=" 93 157 104 179 82 179"
      /><rect x="82" y="157" width="22" style="clip-path:url(#clipPath3); fill:rgb(237,28,36); stroke:none;" height="22"
      /><rect x="82" y="157" width="22" style="clip-path:url(#clipPath3); fill:none; stroke:black;" height="22"
      /><polygon style="fill:none; stroke:black;" points=" 93 157 104 179 82 179"
      /><circle style="clip-path:url(#clipPath4); stroke:none;" r="11" cx="41" cy="116"
      /><rect x="30" y="105" width="22" style="clip-path:url(#clipPath4); fill:rgb(255,212,0); stroke:none;" height="22"
      /><rect x="30" y="105" width="22" style="clip-path:url(#clipPath4); fill:none; stroke:black;" height="22"
      /><circle style="fill:none; stroke:black;" r="11" cx="41" cy="116"
      /><rect x="98" y="130" width="6" style="stroke:none;" height="9"
    /></g
    ><g style="font-family:'Serif'; text-rendering:optimizeSpeed; "
    ><path style="stroke:none;" d="M99.4219 138.0938 C100.0781 137.375 100.7031 136.7188 101.0312 136.3438 C102.9219 134.3125 103.5312 133.4688 103.5312 132.3594 C103.5312 131.0156 102.7812 130.0781 101.1562 130.0781 C99.9062 130.0781 98.7969 130.7031 98.5938 131.9688 C98.7188 132.2031 98.9062 132.3438 99.1562 132.3438 C99.4688 132.3438 99.6562 132.1094 99.7969 131.5938 L100.0938 130.6719 C100.3906 130.5938 100.6562 130.5625 100.8906 130.5625 C101.9219 130.5625 102.5469 131.3125 102.5469 132.4219 C102.5469 133.4375 101.9844 134.4219 100.7031 135.9062 C100.125 136.5781 99.3906 137.4375 98.6406 138.2812 L98.6406 139 L103.9219 139 L103.9219 138.0938 L99.4219 138.0938 Z"
      /><rect x="97" y="145" width="8" style="fill:white; stroke:none;" height="8"
      /><path style="stroke:none;" d="M101.9844 150.7031 C101.9375 151.8906 101.1562 152.6562 100.3125 152.6562 C99.2656 152.6562 98.5 151.6875 98.5 149.7188 C98.5 148.2812 99.1562 147.1562 100.3438 147.1562 C101.1406 147.1562 101.7812 147.6875 102.0938 148.6406 L101.9844 150.7031 ZM103.9062 152.2812 C103.7344 152.375 103.5469 152.4219 103.3438 152.4219 C102.9531 152.4219 102.75 152.2188 102.75 151.4219 C102.75 150.4844 102.9688 148.5312 103.1875 146.8281 L103.0312 146.7188 L102.2344 146.9219 L102.1406 147.7969 C101.7812 147.0312 101.1562 146.6562 100.3906 146.6562 C99.0469 146.6562 97.5625 147.8438 97.5625 149.9531 C97.5625 152.0938 98.7188 153.1719 100.1406 153.1719 C101.0156 153.1719 101.6875 152.8125 102.0938 151.9844 C102.2031 152.8594 102.5156 153.1719 103.0156 153.1719 C103.4688 153.1719 103.7969 152.9062 104.0156 152.5625 L103.9062 152.2812 Z"
      /><rect x="71" y="119" width="6" style="fill:white; stroke:none;" height="10"
      /><path style="stroke:none;" d="M73.2344 120.6562 C73.5156 120.5938 73.7656 120.5625 74.0156 120.5625 C75.0625 120.5625 75.6719 121.1719 75.6719 122.2656 C75.6719 123.4375 74.9062 124.1094 73.7031 124.1094 L73.1875 124.1094 L73.1875 124.6406 L73.7969 124.6406 C75.2188 124.6406 75.9062 125.4219 75.9062 126.6406 C75.9062 127.8438 75.1719 128.6875 73.875 128.6875 C73.6094 128.6875 73.3125 128.6562 73.0156 128.5625 L72.7812 127.8125 C72.625 127.2812 72.5 127.0469 72.1406 127.0469 C71.8906 127.0469 71.7031 127.1719 71.5781 127.4219 C71.8438 128.6406 72.7812 129.1719 74.0312 129.1719 C75.7188 129.1719 76.875 128.125 76.875 126.7031 C76.875 125.5 76.2031 124.625 74.7969 124.375 C75.9531 124.0156 76.6094 123.2031 76.6094 122.2031 C76.6094 120.9219 75.6719 120.0781 74.1875 120.0781 C73.0469 120.0781 72.0625 120.5938 71.7969 121.6875 C71.9062 122 72.1094 122.1094 72.3594 122.1094 C72.7344 122.1094 72.8906 121.8906 73 121.4062 L73.2344 120.6562 Z"
      /><rect x="56" y="120" width="8" style="fill:white; stroke:none;" height="8"
      /><path style="stroke:none;" d="M60.9844 125.7031 C60.9375 126.8906 60.1562 127.6562 59.3125 127.6562 C58.2656 127.6562 57.5 126.6875 57.5 124.7188 C57.5 123.2812 58.1562 122.1562 59.3438 122.1562 C60.1406 122.1562 60.7812 122.6875 61.0938 123.6406 L60.9844 125.7031 ZM62.9062 127.2812 C62.7344 127.375 62.5469 127.4219 62.3438 127.4219 C61.9531 127.4219 61.75 127.2188 61.75 126.4219 C61.75 125.4844 61.9688 123.5312 62.1875 121.8281 L62.0312 121.7188 L61.2344 121.9219 L61.1406 122.7969 C60.7812 122.0312 60.1562 121.6562 59.3906 121.6562 C58.0469 121.6562 56.5625 122.8438 56.5625 124.9531 C56.5625 127.0938 57.7188 128.1719 59.1406 128.1719 C60.0156 128.1719 60.6875 127.8125 61.0938 126.9844 C61.2031 127.8594 61.5156 128.1719 62.0156 128.1719 C62.4688 128.1719 62.7969 127.9062 63.0156 127.5625 L62.9062 127.2812 Z"
      /><rect x="82" y="53" width="22" style="clip-path:url(#clipPath5); fill:white; stroke:none;" height="22"
      /><rect x="82" y="53" width="22" style="clip-path:url(#clipPath5); fill:rgb(0,144,188); stroke:none;" height="22"
      /><rect x="82" y="53" width="22" style="fill:none; clip-path:url(#clipPath5);" height="22"
      /><rect x="82" width="22" height="22" y="53" style="fill:none;"
    /></g
    ><g style="fill:white; text-rendering:optimizeSpeed; font-size:14px; font-family:'SansSerif'; stroke:white;"
    ><rect x="85" width="14" height="10" y="35" style="stroke:none;"
      /><path d="M89.1094 40.5781 C90.3438 40.5781 90.9688 41.4688 90.9688 42.8438 C90.9688 44.25 90.1875 45.1875 89.2188 45.1875 C87.9219 45.1875 87.1562 44.0312 87 41.8906 C87.625 40.9531 88.4531 40.5781 89.1094 40.5781 ZM89.2188 46.1875 C90.8125 46.1875 92.1562 44.8438 92.1562 42.8438 C92.1562 40.7031 91.0469 39.625 89.3125 39.625 C88.5 39.625 87.6094 40.1094 86.9688 40.875 C87.0312 37.6875 88.2188 36.6094 89.625 36.6094 C90.25 36.6094 90.8594 36.9062 91.2656 37.3906 L91.9688 36.5938 C91.4062 35.9844 90.6406 35.5469 89.5781 35.5469 C87.5938 35.5469 85.7812 37.0781 85.7812 41.0938 C85.7812 44.4844 87.2344 46.1875 89.2188 46.1875 ZM97.02 46.1875 C99.1606 46.1875 100.5043 44.8906 100.5043 43.2656 C100.5043 41.75 99.5825 41.0469 98.395 40.5312 L96.9262 39.8906 C96.1293 39.5625 95.2387 39.1875 95.2387 38.1875 C95.2387 37.2656 95.9887 36.6719 97.145 36.6719 C98.0981 36.6719 98.8637 37.0469 99.4887 37.6406 L100.1762 36.8125 C99.4418 36.0625 98.3637 35.5469 97.145 35.5469 C95.2856 35.5469 93.9106 36.6875 93.9106 38.2656 C93.9106 39.7656 95.0512 40.5 96.0043 40.9062 L97.4887 41.5469 C98.4575 41.9844 99.1918 42.3125 99.1918 43.375 C99.1918 44.375 98.3793 45.0469 97.0356 45.0469 C95.9731 45.0469 94.9418 44.5469 94.2075 43.7812 L93.4262 44.6562 C94.3168 45.5938 95.5668 46.1875 97.02 46.1875 Z" style="fill:black; stroke:none;"
      /><rect x="127" width="6" height="10" y="101" style="stroke:none;"
    /></g
    ><g style="font-family:'Serif'; text-rendering:optimizeSpeed; "
    ><path style="stroke:none;" d="M129.2344 102.6562 C129.5156 102.5938 129.7656 102.5625 130.0156 102.5625 C131.0625 102.5625 131.6719 103.1719 131.6719 104.2656 C131.6719 105.4375 130.9062 106.1094 129.7031 106.1094 L129.1875 106.1094 L129.1875 106.6406 L129.7969 106.6406 C131.2188 106.6406 131.9062 107.4219 131.9062 108.6406 C131.9062 109.8438 131.1719 110.6875 129.875 110.6875 C129.6094 110.6875 129.3125 110.6562 129.0156 110.5625 L128.7812 109.8125 C128.625 109.2812 128.5 109.0469 128.1406 109.0469 C127.8906 109.0469 127.7031 109.1719 127.5781 109.4219 C127.8438 110.6406 128.7812 111.1719 130.0312 111.1719 C131.7188 111.1719 132.875 110.125 132.875 108.7031 C132.875 107.5 132.2031 106.625 130.7969 106.375 C131.9531 106.0156 132.6094 105.2031 132.6094 104.2031 C132.6094 102.9219 131.6719 102.0781 130.1875 102.0781 C129.0469 102.0781 128.0625 102.5938 127.7969 103.6875 C127.9062 104 128.1094 104.1094 128.3594 104.1094 C128.7344 104.1094 128.8906 103.8906 129 103.4062 L129.2344 102.6562 Z"
      /><rect x="111" y="107" width="6" style="fill:white; stroke:none;" height="13"
      /><path style="stroke:none;" d="M113.0938 113.2031 C113.0938 111.6562 113.75 110.8125 114.7969 110.8125 C115.7188 110.8125 116.2656 111.4531 116.2656 112.5156 C116.2656 113.7188 115.5 114.4375 114.1875 114.7031 L114.2969 115.3125 C116.2188 115.2344 116.9375 116.2188 116.9375 117.4375 C116.9375 118.625 116.2344 119.4219 114.9531 119.4219 C114.25 119.4219 113.6562 119.1562 113.0938 118.7188 L113.0938 113.2031 ZM112.2031 119.9062 L112.1094 122.375 L112.2656 122.4844 L113.1562 122.2656 L113.0156 119.0938 C113.5469 119.8438 114.3594 120.1719 115.1719 120.1719 C116.5625 120.1719 117.8594 119.2188 117.8594 117.4844 C117.8594 115.9531 116.875 115.1094 115.125 115 C116.5625 114.6094 117.1875 113.4531 117.1875 112.4844 C117.1875 111.0938 116.1562 110.3125 114.9062 110.3125 C113.2969 110.3125 112.2188 111.5469 112.2188 113.5156 L112.2031 119.9062 Z"
      /><rect x="120" y="83" width="6" style="fill:white; stroke:none;" height="10"
      /><path style="stroke:none;" d="M123.3438 92.6875 C122.2031 92.6875 121.5312 91.5 121.5312 89.2969 C121.5312 89.2188 121.5312 89.125 121.5312 89.0469 C122.0938 88.5 122.7188 88.3125 123.3438 88.3125 C124.3125 88.3125 124.9531 88.9844 124.9531 90.4531 C124.9531 91.9375 124.3125 92.6875 123.3438 92.6875 ZM125.5312 84.0781 C122.3438 84.4531 120.5625 86.7656 120.5625 89.4531 C120.5625 91.7812 121.6094 93.1719 123.3125 93.1719 C124.8438 93.1719 125.9219 92.1094 125.9219 90.2812 C125.9219 88.6875 124.9688 87.6562 123.5625 87.6562 C122.8281 87.6562 122.1406 87.9844 121.5781 88.5781 C121.7969 86.4062 123.0781 84.9688 125.5938 84.3906 L125.5312 84.0781 Z"
      /><rect x="104" y="73" width="6" style="fill:white; stroke:none;" height="13"
      /><path style="stroke:none;" d="M106.0938 79.2031 C106.0938 77.6562 106.75 76.8125 107.7969 76.8125 C108.7188 76.8125 109.2656 77.4531 109.2656 78.5156 C109.2656 79.7188 108.5 80.4375 107.1875 80.7031 L107.2969 81.3125 C109.2188 81.2344 109.9375 82.2188 109.9375 83.4375 C109.9375 84.625 109.2344 85.4219 107.9531 85.4219 C107.25 85.4219 106.6562 85.1562 106.0938 84.7188 L106.0938 79.2031 ZM105.2031 85.9062 L105.1094 88.375 L105.2656 88.4844 L106.1562 88.2656 L106.0156 85.0938 C106.5469 85.8438 107.3594 86.1719 108.1719 86.1719 C109.5625 86.1719 110.8594 85.2188 110.8594 83.4844 C110.8594 81.9531 109.875 81.1094 108.125 81 C109.5625 80.6094 110.1875 79.4531 110.1875 78.4844 C110.1875 77.0938 109.1562 76.3125 107.9062 76.3125 C106.2969 76.3125 105.2188 77.5469 105.2188 79.5156 L105.2031 85.9062 Z"
      /><rect x="161" y="91" width="6" style="fill:white; stroke:none;" height="13"
      /><path style="stroke:none;" d="M163.0938 97.2031 C163.0938 95.6562 163.75 94.8125 164.7969 94.8125 C165.7188 94.8125 166.2656 95.4531 166.2656 96.5156 C166.2656 97.7188 165.5 98.4375 164.1875 98.7031 L164.2969 99.3125 C166.2188 99.2344 166.9375 100.2188 166.9375 101.4375 C166.9375 102.625 166.2344 103.4219 164.9531 103.4219 C164.25 103.4219 163.6562 103.1562 163.0938 102.7188 L163.0938 97.2031 ZM162.2031 103.9062 L162.1094 106.375 L162.2656 106.4844 L163.1562 106.2656 L163.0156 103.0938 C163.5469 103.8438 164.3594 104.1719 165.1719 104.1719 C166.5625 104.1719 167.8594 103.2188 167.8594 101.4844 C167.8594 99.9531 166.875 99.1094 165.125 99 C166.5625 98.6094 167.1875 97.4531 167.1875 96.4844 C167.1875 95.0938 166.1562 94.3125 164.9062 94.3125 C163.2969 94.3125 162.2188 95.5469 162.2188 97.5156 L162.2031 103.9062 Z"
    /></g
  ></g
></svg
>
