<?xml version="1.0"?>
<!DOCTYPE svg PUBLIC '-//W3C//DTD SVG 1.0//EN'
          'http://www.w3.org/TR/2001/REC-SVG-20010904/DTD/svg10.dtd'>
<svg xmlns:xlink="http://www.w3.org/1999/xlink" style="fill-opacity:1; color-rendering:auto; color-interpolation:auto; text-rendering:auto; stroke:black; stroke-linecap:square; stroke-miterlimit:10; shape-rendering:auto; stroke-opacity:1; fill:black; stroke-dasharray:none; font-weight:normal; stroke-width:1; font-family:'Dialog'; font-style:normal; stroke-linejoin:miter; font-size:12px; stroke-dashoffset:0; image-rendering:auto;" viewBox="0 0 146 105" xmlns="http://www.w3.org/2000/svg"
><!--Generated by the Batik Graphics2D SVG Generator--><defs id="genericDefs"
  /><g
  ><defs id="defs1"
    ><clipPath clipPathUnits="userSpaceOnUse" id="clipPath1"
      ><path d="M36 35.5 L58 35.5 L58 46.5 L36 46.5 L36 35.5 Z"
      /></clipPath
    ></defs
    ><g style="fill:white; text-rendering:optimizeSpeed; stroke:white;"
    ><rect x="0" width="146" height="105" y="0" style="stroke:none;"
      /><polygon style="fill:none; stroke:black;" points=" 105 41 47 41"
      /><path d="M105 30 C99.5 35.5 110.5 46.5 105 52" style="fill:none; stroke:black;"
      /><rect x="36" y="35.5" width="22" style="clip-path:url(#clipPath1); stroke:none;" height="11"
      /><rect x="36" y="30" width="22" style="clip-path:url(#clipPath1); fill:rgb(0,144,188); stroke:none;" height="22"
      /><rect x="36" y="30" width="22" style="clip-path:url(#clipPath1); fill:none; stroke:black;" height="22"
      /><rect x="36" y="35.5" width="22" style="fill:none; stroke:black;" height="11"
      /><rect x="30" y="58" width="32" style="stroke:none;" height="10"
    /></g
    ><g style="text-rendering:optimizeSpeed; font-size:14px; font-family:'SansSerif';"
    ><path style="stroke:none;" d="M33.7031 69.1875 C35.5156 69.1875 36.9844 68.0938 36.9844 66.25 C36.9844 64.8594 36.0156 63.9375 34.8125 63.6562 L34.8125 63.5938 C35.8906 63.1875 36.6406 62.3594 36.6406 61.125 C36.6406 59.5 35.375 58.5469 33.6562 58.5469 C32.4688 58.5469 31.5469 59.0625 30.7812 59.7812 L31.4688 60.5938 C32.0469 60 32.7656 59.5938 33.5938 59.5938 C34.6562 59.5938 35.3281 60.2344 35.3281 61.2188 C35.3281 62.3281 34.6094 63.1719 32.4844 63.1719 L32.4844 64.1562 C34.8594 64.1562 35.6875 64.9844 35.6875 66.2031 C35.6875 67.3906 34.8125 68.125 33.5938 68.125 C32.4375 68.125 31.6562 67.5781 31.0469 66.9375 L30.4062 67.7812 C31.0781 68.5156 32.0938 69.1875 33.7031 69.1875 ZM39.1762 69 L40.395 69 L40.395 63.6094 C40.395 62.5312 40.3012 61.4375 40.2543 60.4062 L40.3012 60.4062 L41.4106 62.5156 L45.145 69 L46.4731 69 L46.4731 58.7188 L45.2387 58.7188 L45.2387 64.0781 C45.2387 65.1406 45.3481 66.2812 45.4106 67.3125 L45.3481 67.3125 L44.2543 65.2031 L40.52 58.7188 L39.1762 58.7188 L39.1762 69 ZM51.0498 63.2656 C51.4248 62.0938 51.7529 60.9844 52.0811 59.7812 L52.1279 59.7812 C52.4717 60.9844 52.7842 62.0938 53.1748 63.2656 L53.6592 64.8281 L50.5498 64.8281 L51.0498 63.2656 ZM47.9248 69 L49.2373 69 L50.2373 65.8594 L53.9873 65.8594 L54.9561 69 L56.3311 69 L52.8467 58.7188 L51.4092 58.7188 L47.9248 69 ZM60.6572 69.1875 C61.5634 69.1875 62.4384 68.8281 63.1259 68.2188 L62.5634 67.3594 C62.0947 67.7969 61.4697 68.125 60.7665 68.125 C59.3759 68.125 58.4228 66.9531 58.4228 65.2031 C58.4228 63.4531 59.4228 62.2656 60.8134 62.2656 C61.4228 62.2656 61.8759 62.5469 62.329 62.9375 L62.9853 62.0938 C62.4384 61.625 61.7509 61.2031 60.7509 61.2031 C58.8134 61.2031 57.0947 62.6719 57.0947 65.2031 C57.0947 67.7188 58.6415 69.1875 60.6572 69.1875 Z"
    /></g
    ><g style="fill:white; text-rendering:optimizeSpeed; font-family:'Serif'; stroke:white;"
    ><rect x="69" width="6" height="13" y="42" style="stroke:none;"
      /><path d="M71.0938 48.2031 C71.0938 46.6562 71.75 45.8125 72.7969 45.8125 C73.7188 45.8125 74.2656 46.4531 74.2656 47.5156 C74.2656 48.7188 73.5 49.4375 72.1875 49.7031 L72.2969 50.3125 C74.2188 50.2344 74.9375 51.2188 74.9375 52.4375 C74.9375 53.625 74.2344 54.4219 72.9531 54.4219 C72.25 54.4219 71.6562 54.1562 71.0938 53.7188 L71.0938 48.2031 ZM70.2031 54.9062 L70.1094 57.375 L70.2656 57.4844 L71.1562 57.2656 L71.0156 54.0938 C71.5469 54.8438 72.3594 55.1719 73.1719 55.1719 C74.5625 55.1719 75.8594 54.2188 75.8594 52.4844 C75.8594 50.9531 74.875 50.1094 73.125 50 C74.5625 49.6094 75.1875 48.4531 75.1875 47.4844 C75.1875 46.0938 74.1562 45.3125 72.9062 45.3125 C71.2969 45.3125 70.2188 46.5469 70.2188 48.5156 L70.2031 54.9062 Z" style="fill:black; stroke:none;"
    /></g
  ></g
></svg
>
