<?xml version="1.0"?>
<!DOCTYPE svg PUBLIC '-//W3C//DTD SVG 1.0//EN'
          'http://www.w3.org/TR/2001/REC-SVG-20010904/DTD/svg10.dtd'>
<svg xmlns:xlink="http://www.w3.org/1999/xlink" style="fill-opacity:1; color-rendering:auto; color-interpolation:auto; text-rendering:auto; stroke:black; stroke-linecap:square; stroke-miterlimit:10; shape-rendering:auto; stroke-opacity:1; fill:black; stroke-dasharray:none; font-weight:normal; stroke-width:1; font-family:'Dialog'; font-style:normal; stroke-linejoin:miter; font-size:12px; stroke-dashoffset:0; image-rendering:auto;" viewBox="0 0 240 105" xmlns="http://www.w3.org/2000/svg"
><!--Generated by the Batik Graphics2D SVG Generator--><defs id="genericDefs"
  /><g
  ><defs id="defs1"
    ><clipPath clipPathUnits="userSpaceOnUse" id="clipPath1"
      ><path d="M135 53 L157 53 L157 75 L135 75 L135 53 Z"
      /></clipPath
      ><clipPath clipPathUnits="userSpaceOnUse" id="clipPath2"
      ><path style="fill-rule:evenodd;" d="M93 53 L104 75 L82 75 Z"
      /></clipPath
      ><clipPath clipPathUnits="userSpaceOnUse" id="clipPath3"
      ><path d="M30 53 L52 53 L52 75 L30 75 L30 53 Z"
      /></clipPath
    ></defs
    ><g style="fill:white; text-rendering:optimizeSpeed; stroke:white;"
    ><rect x="0" width="240" height="105" y="0" style="stroke:none;"
      /><polygon style="fill:none; stroke:black;" points=" 199 64 146 64"
      /><path d="M199 53 C193.5 58.5 204.5 69.5 199 75" style="fill:none; stroke:black;"
      /><polygon style="fill:none; stroke:black;" points=" 146 64 93 64"
      /><rect x="135" y="53" width="22" style="clip-path:url(#clipPath1); stroke:none;" height="22"
      /><rect x="135" y="53" width="22" style="clip-path:url(#clipPath1); fill:rgb(0,144,188); stroke:none;" height="22"
      /><rect x="135" y="53" width="22" style="clip-path:url(#clipPath1); fill:none; stroke:black;" height="22"
      /><rect x="135" y="53" width="22" style="fill:none; stroke:black;" height="22"
      /><rect x="134" y="35" width="22" style="stroke:none;" height="10"
    /></g
    ><g style="text-rendering:optimizeSpeed; font-size:14px; font-family:'SansSerif';"
    ><path style="stroke:none;" d="M138.1094 40.5781 C139.3438 40.5781 139.9688 41.4688 139.9688 42.8438 C139.9688 44.25 139.1875 45.1875 138.2188 45.1875 C136.9219 45.1875 136.1562 44.0312 136 41.8906 C136.625 40.9531 137.4531 40.5781 138.1094 40.5781 ZM138.2188 46.1875 C139.8125 46.1875 141.1562 44.8438 141.1562 42.8438 C141.1562 40.7031 140.0469 39.625 138.3125 39.625 C137.5 39.625 136.6094 40.1094 135.9688 40.875 C136.0312 37.6875 137.2188 36.6094 138.625 36.6094 C139.25 36.6094 139.8594 36.9062 140.2656 37.3906 L140.9688 36.5938 C140.4062 35.9844 139.6406 35.5469 138.5781 35.5469 C136.5938 35.5469 134.7812 37.0781 134.7812 41.0938 C134.7812 44.4844 136.2344 46.1875 138.2188 46.1875 ZM144.9418 40.2656 C145.3168 39.0938 145.645 37.9844 145.9731 36.7812 L146.02 36.7812 C146.3637 37.9844 146.6762 39.0938 147.0668 40.2656 L147.5512 41.8281 L144.4418 41.8281 L144.9418 40.2656 ZM141.8168 46 L143.1293 46 L144.1293 42.8594 L147.8793 42.8594 L148.8481 46 L150.2231 46 L146.7387 35.7188 L145.3012 35.7188 L141.8168 46 ZM154.5492 46.1875 C155.4554 46.1875 156.3304 45.8281 157.0179 45.2188 L156.4554 44.3594 C155.9867 44.7969 155.3617 45.125 154.6586 45.125 C153.2679 45.125 152.3148 43.9531 152.3148 42.2031 C152.3148 40.4531 153.3148 39.2656 154.7054 39.2656 C155.3148 39.2656 155.7679 39.5469 156.2211 39.9375 L156.8773 39.0938 C156.3304 38.625 155.6429 38.2031 154.6429 38.2031 C152.7054 38.2031 150.9867 39.6719 150.9867 42.2031 C150.9867 44.7188 152.5336 46.1875 154.5492 46.1875 Z"
      /><polygon style="fill:none;" points=" 93 64 41 64"
    /></g
    ><g style="fill:white; text-rendering:optimizeSpeed; stroke:white;"
    ><polygon style="stroke:none; clip-path:url(#clipPath2);" points=" 93 53 104 75 82 75"
      /><rect x="82" y="53" width="22" style="clip-path:url(#clipPath2); fill:rgb(0,166,81); stroke:none;" height="22"
      /><rect x="82" y="53" width="22" style="clip-path:url(#clipPath2); fill:none; stroke:black;" height="22"
      /><polygon style="fill:none; stroke:black;" points=" 93 53 104 75 82 75"
      /><rect x="30" y="53" width="22" style="clip-path:url(#clipPath3); stroke:none;" height="22"
      /><rect x="30" y="53" width="22" style="clip-path:url(#clipPath3); fill:rgb(255,212,0); stroke:none;" height="22"
      /><rect x="30" y="53" width="22" style="clip-path:url(#clipPath3); fill:none; stroke:black;" height="22"
      /><rect x="30" y="53" width="22" style="fill:none; stroke:black;" height="22"
      /><rect x="70" width="7" height="9" y="67" style="stroke:none;"
      /><path d="M71 72.5156 L73.9531 68.2656 L73.9531 72.5156 L71 72.5156 ZM76.2812 72.5156 L74.8594 72.5156 L74.8594 67.125 L74.2344 67.125 L70.3438 72.6406 L70.3438 73.1875 L73.9531 73.1875 L73.9531 76 L74.8594 76 L74.8594 73.1875 L76.2812 73.1875 L76.2812 72.5156 Z" style="fill:black; stroke:none;"
      /><rect x="57" width="6" height="13" y="65" style="stroke:none;"
      /><path d="M59.0938 71.2031 C59.0938 69.6562 59.75 68.8125 60.7969 68.8125 C61.7188 68.8125 62.2656 69.4531 62.2656 70.5156 C62.2656 71.7188 61.5 72.4375 60.1875 72.7031 L60.2969 73.3125 C62.2188 73.2344 62.9375 74.2188 62.9375 75.4375 C62.9375 76.625 62.2344 77.4219 60.9531 77.4219 C60.25 77.4219 59.6562 77.1562 59.0938 76.7188 L59.0938 71.2031 ZM58.2031 77.9062 L58.1094 80.375 L58.2656 80.4844 L59.1562 80.2656 L59.0156 77.0938 C59.5469 77.8438 60.3594 78.1719 61.1719 78.1719 C62.5625 78.1719 63.8594 77.2188 63.8594 75.4844 C63.8594 73.9531 62.875 73.1094 61.125 73 C62.5625 72.6094 63.1875 71.4531 63.1875 70.4844 C63.1875 69.0938 62.1562 68.3125 60.9062 68.3125 C59.2969 68.3125 58.2188 69.5469 58.2188 71.5156 L58.2031 77.9062 Z" style="fill:black; stroke:none;"
      /><rect x="123" width="6" height="10" y="67" style="stroke:none;"
      /><path d="M125.2344 68.6562 C125.5156 68.5938 125.7656 68.5625 126.0156 68.5625 C127.0625 68.5625 127.6719 69.1719 127.6719 70.2656 C127.6719 71.4375 126.9062 72.1094 125.7031 72.1094 L125.1875 72.1094 L125.1875 72.6406 L125.7969 72.6406 C127.2188 72.6406 127.9062 73.4219 127.9062 74.6406 C127.9062 75.8438 127.1719 76.6875 125.875 76.6875 C125.6094 76.6875 125.3125 76.6562 125.0156 76.5625 L124.7812 75.8125 C124.625 75.2812 124.5 75.0469 124.1406 75.0469 C123.8906 75.0469 123.7031 75.1719 123.5781 75.4219 C123.8438 76.6406 124.7812 77.1719 126.0312 77.1719 C127.7188 77.1719 128.875 76.125 128.875 74.7031 C128.875 73.5 128.2031 72.625 126.7969 72.375 C127.9531 72.0156 128.6094 71.2031 128.6094 70.2031 C128.6094 68.9219 127.6719 68.0781 126.1875 68.0781 C125.0469 68.0781 124.0625 68.5938 123.7969 69.6875 C123.9062 70 124.1094 70.1094 124.3594 70.1094 C124.7344 70.1094 124.8906 69.8906 125 69.4062 L125.2344 68.6562 Z" style="fill:black; stroke:none;"
      /><rect x="108" width="8" height="8" y="68" style="stroke:none;"
      /><path d="M112.9844 73.7031 C112.9375 74.8906 112.1562 75.6562 111.3125 75.6562 C110.2656 75.6562 109.5 74.6875 109.5 72.7188 C109.5 71.2812 110.1562 70.1562 111.3438 70.1562 C112.1406 70.1562 112.7812 70.6875 113.0938 71.6406 L112.9844 73.7031 ZM114.9062 75.2812 C114.7344 75.375 114.5469 75.4219 114.3438 75.4219 C113.9531 75.4219 113.75 75.2188 113.75 74.4219 C113.75 73.4844 113.9688 71.5312 114.1875 69.8281 L114.0312 69.7188 L113.2344 69.9219 L113.1406 70.7969 C112.7812 70.0312 112.1562 69.6562 111.3906 69.6562 C110.0469 69.6562 108.5625 70.8438 108.5625 72.9531 C108.5625 75.0938 109.7188 76.1719 111.1406 76.1719 C112.0156 76.1719 112.6875 75.8125 113.0938 74.9844 C113.2031 75.8594 113.5156 76.1719 114.0156 76.1719 C114.4688 76.1719 114.7969 75.9062 115.0156 75.5625 L114.9062 75.2812 Z" style="fill:black; stroke:none;"
      /><rect x="163" width="6" height="13" y="65" style="stroke:none;"
      /><path d="M165.0938 71.2031 C165.0938 69.6562 165.75 68.8125 166.7969 68.8125 C167.7188 68.8125 168.2656 69.4531 168.2656 70.5156 C168.2656 71.7188 167.5 72.4375 166.1875 72.7031 L166.2969 73.3125 C168.2188 73.2344 168.9375 74.2188 168.9375 75.4375 C168.9375 76.625 168.2344 77.4219 166.9531 77.4219 C166.25 77.4219 165.6562 77.1562 165.0938 76.7188 L165.0938 71.2031 ZM164.2031 77.9062 L164.1094 80.375 L164.2656 80.4844 L165.1562 80.2656 L165.0156 77.0938 C165.5469 77.8438 166.3594 78.1719 167.1719 78.1719 C168.5625 78.1719 169.8594 77.2188 169.8594 75.4844 C169.8594 73.9531 168.875 73.1094 167.125 73 C168.5625 72.6094 169.1875 71.4531 169.1875 70.4844 C169.1875 69.0938 168.1562 68.3125 166.9062 68.3125 C165.2969 68.3125 164.2188 69.5469 164.2188 71.5156 L164.2031 77.9062 Z" style="fill:black; stroke:none;"
    /></g
  ></g
></svg
>
