<?xml version="1.0"?>
<!DOCTYPE svg PUBLIC '-//W3C//DTD SVG 1.0//EN'
          'http://www.w3.org/TR/2001/REC-SVG-20010904/DTD/svg10.dtd'>
<svg xmlns:xlink="http://www.w3.org/1999/xlink" style="fill-opacity:1; color-rendering:auto; color-interpolation:auto; text-rendering:auto; stroke:black; stroke-linecap:square; stroke-miterlimit:10; shape-rendering:auto; stroke-opacity:1; fill:black; stroke-dasharray:none; font-weight:normal; stroke-width:1; font-family:'Dialog'; font-style:normal; stroke-linejoin:miter; font-size:12px; stroke-dashoffset:0; image-rendering:auto;" viewBox="0 0 358 247" xmlns="http://www.w3.org/2000/svg"
><!--Generated by the Batik Graphics2D SVG Generator--><defs id="genericDefs"
  /><g
  ><defs id="defs1"
    ><clipPath clipPathUnits="userSpaceOnUse" id="clipPath1"
      ><path style="fill-rule:evenodd;" d="M265 79 L276 90 L265 101 L254 90 Z"
      /></clipPath
      ><clipPath clipPathUnits="userSpaceOnUse" id="clipPath2"
      ><path style="fill-rule:evenodd;" d="M224 116 L218 123 L207 123 L202 116 L207 108 L218 108 L224 116 Z"
      /></clipPath
      ><clipPath clipPathUnits="userSpaceOnUse" id="clipPath3"
      ><path style="fill-rule:evenodd;" d="M164 154 L158 161 L147 161 L142 154 L147 146 L158 146 L164 154 Z"
      /></clipPath
      ><clipPath clipPathUnits="userSpaceOnUse" id="clipPath4"
      ><path style="fill-rule:evenodd;" d="M93 169 L104 180 L93 191 L82 180 Z"
      /></clipPath
      ><clipPath clipPathUnits="userSpaceOnUse" id="clipPath5"
      ><path style="fill-rule:evenodd;" d="M52 206 L46 213 L35 213 L30 206 L35 198 L46 198 L52 206 Z"
      /></clipPath
      ><clipPath clipPathUnits="userSpaceOnUse" id="clipPath6"
      ><path d="M30 143 L52 143 L52 165 L30 165 L30 143 Z"
      /></clipPath
      ><clipPath clipPathUnits="userSpaceOnUse" id="clipPath7"
      ><path style="fill-rule:evenodd;" d="M104 128 L98 135 L87 135 L82 128 L87 120 L98 120 L104 128 Z"
      /></clipPath
      ><clipPath clipPathUnits="userSpaceOnUse" id="clipPath8"
      ><path d="M164 79 C164 85.0751 159.0751 90 153 90 C146.9249 90 142 85.0751 142 79 C142 72.9249 146.9249 68 153 68 C159.0751 68 164 72.9249 164 79 Z"
      /></clipPath
      ><clipPath clipPathUnits="userSpaceOnUse" id="clipPath9"
      ><path style="fill-rule:evenodd;" d="M213 53 L215 60 L223 60 L216 65 L219 72 L213 68 L206 72 L209 65 L202 60 L210 60 L213 53 Z"
      /></clipPath
    ></defs
    ><g style="fill:white; text-rendering:optimizeSpeed; stroke:white;"
    ><rect x="0" width="358" height="247" y="0" style="stroke:none;"
      /><polygon style="fill:none; stroke:black;" points=" 317 90 265 90"
      /><path d="M317 79 C311.5 84.5 322.5 95.5 317 101" style="fill:none; stroke:black;"
      /><polygon style="fill:none; stroke:black;" points=" 265 90 213 116"
      /><polygon style="fill:none; stroke:black;" points=" 265 90 213 64"
      /><polygon style="clip-path:url(#clipPath1); stroke:none;" points=" 265 79 276 90 265 101 254 90"
      /><rect x="254" y="79" width="22" style="clip-path:url(#clipPath1); fill:rgb(0,166,81); stroke:none;" height="22"
      /><rect x="254" y="79" width="22" style="clip-path:url(#clipPath1); fill:none; stroke:black;" height="22"
      /><polygon style="fill:none; stroke:black;" points=" 265 79 276 90 265 101 254 90"
    /></g
    ><g style="text-rendering:optimizeSpeed; font-size:14px; font-family:'SansSerif';"
    ><path style="stroke:none;" d="M257.6094 118 L264.0625 118 L264.0625 116.8906 L261.2344 116.8906 C260.7031 116.8906 260.0781 116.9531 259.5469 116.9844 C261.9531 114.7031 263.5625 112.625 263.5625 110.5781 C263.5625 108.75 262.4219 107.5469 260.5781 107.5469 C259.2812 107.5469 258.4062 108.1406 257.5625 109.0469 L258.2969 109.7812 C258.8594 109.1094 259.5938 108.5938 260.4375 108.5938 C261.7031 108.5938 262.3125 109.4531 262.3125 110.625 C262.3125 112.3906 260.8438 114.4375 257.6094 117.25 L257.6094 118 ZM269.8168 118.1875 C271.9106 118.1875 273.5043 117.0625 273.5043 113.7656 L273.5043 107.7188 L272.2543 107.7188 L272.2543 113.7969 C272.2543 116.2812 271.1762 117.0469 269.8168 117.0469 C268.4731 117.0469 267.4262 116.2812 267.4262 113.7969 L267.4262 107.7188 L266.1293 107.7188 L266.1293 113.7656 C266.1293 117.0625 267.7231 118.1875 269.8168 118.1875 Z"
      /><polygon style="fill:none;" points=" 213 116 153 154"
      /><polygon style="fill:none;" points=" 213 116 153 79"
    /></g
    ><g style="fill:white; text-rendering:optimizeSpeed; stroke:white;"
    ><polygon style="stroke:none; clip-path:url(#clipPath2);" points=" 224 116 218 123 207 123 202 116 207 108 218 108 224 116"
      /><rect x="202" y="105" width="22" style="clip-path:url(#clipPath2); fill:rgb(0,166,81); stroke:none;" height="22"
      /><rect x="202" y="105" width="22" style="clip-path:url(#clipPath2); fill:none; stroke:black;" height="22"
      /><polygon style="fill:none; stroke:black;" points=" 224 116 218 123 207 123 202 116 207 108 218 108 224 116"
      /><polygon style="fill:none; stroke:black;" points=" 153 154 93 180"
      /><polygon style="fill:none; stroke:black;" points=" 153 154 93 128"
      /><polygon style="clip-path:url(#clipPath3); stroke:none;" points=" 164 154 158 161 147 161 142 154 147 146 158 146 164 154"
      /><rect x="142" y="143" width="22" style="clip-path:url(#clipPath3); fill:rgb(0,166,81); stroke:none;" height="22"
      /><rect x="142" y="143" width="22" style="clip-path:url(#clipPath3); fill:none; stroke:black;" height="22"
      /><polygon style="fill:none; stroke:black;" points=" 164 154 158 161 147 161 142 154 147 146 158 146 164 154"
      /><rect x="134" width="36" height="10" y="125" style="stroke:none;"
    /></g
    ><g style="text-rendering:optimizeSpeed; font-size:14px; font-family:'SansSerif';"
    ><path style="stroke:none;" d="M138.1094 130.5781 C139.3438 130.5781 139.9688 131.4688 139.9688 132.8438 C139.9688 134.25 139.1875 135.1875 138.2188 135.1875 C136.9219 135.1875 136.1562 134.0312 136 131.8906 C136.625 130.9531 137.4531 130.5781 138.1094 130.5781 ZM138.2188 136.1875 C139.8125 136.1875 141.1562 134.8438 141.1562 132.8438 C141.1562 130.7031 140.0469 129.625 138.3125 129.625 C137.5 129.625 136.6094 130.1094 135.9688 130.875 C136.0312 127.6875 137.2188 126.6094 138.625 126.6094 C139.25 126.6094 139.8594 126.9062 140.2656 127.3906 L140.9688 126.5938 C140.4062 125.9844 139.6406 125.5469 138.5781 125.5469 C136.5938 125.5469 134.7812 127.0781 134.7812 131.0938 C134.7812 134.4844 136.2344 136.1875 138.2188 136.1875 ZM143.1762 136 L144.4731 136 L144.4731 131.9219 L146.1606 131.9219 C148.4262 131.9219 149.9418 130.9219 149.9418 128.75 C149.9418 126.5156 148.4106 125.7188 146.1137 125.7188 L143.1762 125.7188 L143.1762 136 ZM144.4731 130.875 L144.4731 126.7812 L145.9418 126.7812 C147.7543 126.7812 148.6606 127.2656 148.6606 128.75 C148.6606 130.2188 147.8012 130.875 146.0043 130.875 L144.4731 130.875 ZM152.0242 136 L158.0867 136 L158.0867 134.8906 L153.3211 134.8906 L153.3211 131.1562 L157.2117 131.1562 L157.2117 130.0469 L153.3211 130.0469 L153.3211 126.8281 L157.9461 126.8281 L157.9461 125.7188 L152.0242 125.7188 L152.0242 136 ZM162.5374 136.1875 C162.9905 136.1875 163.4905 136.0469 163.928 135.9062 L163.678 134.9531 C163.428 135.0469 163.0843 135.1406 162.8186 135.1406 C161.928 135.1406 161.6311 134.6094 161.6311 133.6719 L161.6311 129.4375 L163.6936 129.4375 L163.6936 128.3906 L161.6311 128.3906 L161.6311 126.25 L160.5686 126.25 L160.4124 128.3906 L159.2249 128.4688 L159.2249 129.4375 L160.3655 129.4375 L160.3655 133.6406 C160.3655 135.1562 160.9124 136.1875 162.5374 136.1875 ZM165.4091 136 L166.6904 136 L166.6904 130.4844 C167.456 129.7188 167.9873 129.3281 168.7685 129.3281 C169.7841 129.3281 170.2216 129.9219 170.2216 131.3594 L170.2216 136 L171.4873 136 L171.4873 131.1875 C171.4873 129.2344 170.7685 128.2031 169.1748 128.2031 C168.1279 128.2031 167.3466 128.7812 166.6123 129.4844 L166.581 129.4844 L166.4716 128.3906 L165.4091 128.3906 L165.4091 136 Z"
      /><polygon style="fill:none;" points=" 93 180 41 206"
      /><polygon style="fill:none;" points=" 93 180 41 154"
    /></g
    ><g style="fill:white; text-rendering:optimizeSpeed; stroke:white;"
    ><polygon style="stroke:none; clip-path:url(#clipPath4);" points=" 93 169 104 180 93 191 82 180"
      /><rect x="82" y="169" width="22" style="clip-path:url(#clipPath4); fill:rgb(255,212,0); stroke:none;" height="11"
      /><rect x="82" y="169" width="22" style="clip-path:url(#clipPath4); fill:none; stroke:black;" height="11"
      /><polygon style="fill:none; stroke:black;" points=" 93 169 104 180 93 191 82 180"
      /><polygon style="clip-path:url(#clipPath5); stroke:none;" points=" 52 206 46 213 35 213 30 206 35 198 46 198 52 206"
      /><rect x="30" y="195" width="22" style="clip-path:url(#clipPath5); fill:rgb(246,158,161); stroke:none;" height="22"
      /><rect x="30" y="195" width="22" style="clip-path:url(#clipPath5); fill:none; stroke:black;" height="22"
      /><polygon style="fill:none; stroke:black;" points=" 52 206 46 213 35 213 30 206 35 198 46 198 52 206"
      /><rect x="30" y="143" width="22" style="clip-path:url(#clipPath6); stroke:none;" height="22"
      /><polygon style="fill:rgb(255,212,0); clip-path:url(#clipPath6); stroke:none;" points=" 30 143 52 143 52 165"
      /><polygon style="fill:none; clip-path:url(#clipPath6); stroke:black;" points=" 30 143 52 143 52 165"
      /><rect x="30" y="143" width="22" style="fill:none; stroke:black;" height="22"
      /><rect x="75" width="6" height="9" y="191" style="stroke:none;"
      /><path d="M76.4219 199.0938 C77.0781 198.375 77.7031 197.7188 78.0312 197.3438 C79.9219 195.3125 80.5312 194.4688 80.5312 193.3594 C80.5312 192.0156 79.7812 191.0781 78.1562 191.0781 C76.9062 191.0781 75.7969 191.7031 75.5938 192.9688 C75.7188 193.2031 75.9062 193.3438 76.1562 193.3438 C76.4688 193.3438 76.6562 193.1094 76.7969 192.5938 L77.0938 191.6719 C77.3906 191.5938 77.6562 191.5625 77.8906 191.5625 C78.9219 191.5625 79.5469 192.3125 79.5469 193.4219 C79.5469 194.4375 78.9844 195.4219 77.7031 196.9062 C77.125 197.5781 76.3906 198.4375 75.6406 199.2812 L75.6406 200 L80.9219 200 L80.9219 199.0938 L76.4219 199.0938 Z" style="fill:black; stroke:none;"
      /><rect x="58" width="8" height="8" y="200" style="stroke:none;"
      /><path d="M62.9844 205.7031 C62.9375 206.8906 62.1562 207.6562 61.3125 207.6562 C60.2656 207.6562 59.5 206.6875 59.5 204.7188 C59.5 203.2812 60.1562 202.1562 61.3438 202.1562 C62.1406 202.1562 62.7812 202.6875 63.0938 203.6406 L62.9844 205.7031 ZM64.9062 207.2812 C64.7344 207.375 64.5469 207.4219 64.3438 207.4219 C63.9531 207.4219 63.75 207.2188 63.75 206.4219 C63.75 205.4844 63.9688 203.5312 64.1875 201.8281 L64.0312 201.7188 L63.2344 201.9219 L63.1406 202.7969 C62.7812 202.0312 62.1562 201.6562 61.3906 201.6562 C60.0469 201.6562 58.5625 202.8438 58.5625 204.9531 C58.5625 207.0938 59.7188 208.1719 61.1406 208.1719 C62.0156 208.1719 62.6875 207.8125 63.0938 206.9844 C63.2031 207.8594 63.5156 208.1719 64.0156 208.1719 C64.4688 208.1719 64.7969 207.9062 65.0156 207.5625 L64.9062 207.2812 Z" style="fill:black; stroke:none;"
      /><rect x="67" width="7" height="9" y="173" style="stroke:none;"
      /><path d="M68 178.5156 L70.9531 174.2656 L70.9531 178.5156 L68 178.5156 ZM73.2812 178.5156 L71.8594 178.5156 L71.8594 173.125 L71.2344 173.125 L67.3438 178.6406 L67.3438 179.1875 L70.9531 179.1875 L70.9531 182 L71.8594 182 L71.8594 179.1875 L73.2812 179.1875 L73.2812 178.5156 Z" style="fill:black; stroke:none;"
      /><rect x="51" width="8" height="8" y="166" style="stroke:none;"
      /><path d="M55.9844 171.7031 C55.9375 172.8906 55.1562 173.6562 54.3125 173.6562 C53.2656 173.6562 52.5 172.6875 52.5 170.7188 C52.5 169.2812 53.1562 168.1562 54.3438 168.1562 C55.1406 168.1562 55.7812 168.6875 56.0938 169.6406 L55.9844 171.7031 ZM57.9062 173.2812 C57.7344 173.375 57.5469 173.4219 57.3438 173.4219 C56.9531 173.4219 56.75 173.2188 56.75 172.4219 C56.75 171.4844 56.9688 169.5312 57.1875 167.8281 L57.0312 167.7188 L56.2344 167.9219 L56.1406 168.7969 C55.7812 168.0312 55.1562 167.6562 54.3906 167.6562 C53.0469 167.6562 51.5625 168.8438 51.5625 170.9531 C51.5625 173.0938 52.7188 174.1719 54.1406 174.1719 C55.0156 174.1719 55.6875 173.8125 56.0938 172.9844 C56.2031 173.8594 56.5156 174.1719 57.0156 174.1719 C57.4688 174.1719 57.7969 173.9062 58.0156 173.5625 L57.9062 173.2812 Z" style="fill:black; stroke:none;"
      /><polygon style="clip-path:url(#clipPath7); stroke:none;" points=" 104 128 98 135 87 135 82 128 87 120 98 120 104 128"
      /><rect x="82" y="117" width="22" style="clip-path:url(#clipPath7); fill:rgb(0,166,81); stroke:none;" height="22"
      /><rect x="82" y="117" width="22" style="clip-path:url(#clipPath7); fill:none; stroke:black;" height="22"
      /><polygon style="fill:none; stroke:black;" points=" 104 128 98 135 87 135 82 128 87 120 98 120 104 128"
      /><rect x="126" width="6" height="10" y="167" style="stroke:none;"
      /><path d="M128.2344 168.6562 C128.5156 168.5938 128.7656 168.5625 129.0156 168.5625 C130.0625 168.5625 130.6719 169.1719 130.6719 170.2656 C130.6719 171.4375 129.9062 172.1094 128.7031 172.1094 L128.1875 172.1094 L128.1875 172.6406 L128.7969 172.6406 C130.2188 172.6406 130.9062 173.4219 130.9062 174.6406 C130.9062 175.8438 130.1719 176.6875 128.875 176.6875 C128.6094 176.6875 128.3125 176.6562 128.0156 176.5625 L127.7812 175.8125 C127.625 175.2812 127.5 175.0469 127.1406 175.0469 C126.8906 175.0469 126.7031 175.1719 126.5781 175.4219 C126.8438 176.6406 127.7812 177.1719 129.0312 177.1719 C130.7188 177.1719 131.875 176.125 131.875 174.7031 C131.875 173.5 131.2031 172.625 129.7969 172.375 C130.9531 172.0156 131.6094 171.2031 131.6094 170.2031 C131.6094 168.9219 130.6719 168.0781 129.1875 168.0781 C128.0469 168.0781 127.0625 168.5938 126.7969 169.6875 C126.9062 170 127.1094 170.1094 127.3594 170.1094 C127.7344 170.1094 127.8906 169.8906 128 169.4062 L128.2344 168.6562 Z" style="fill:black; stroke:none;"
      /><rect x="110" width="8" height="8" y="175" style="stroke:none;"
      /><path d="M114.9844 180.7031 C114.9375 181.8906 114.1562 182.6562 113.3125 182.6562 C112.2656 182.6562 111.5 181.6875 111.5 179.7188 C111.5 178.2812 112.1562 177.1562 113.3438 177.1562 C114.1406 177.1562 114.7812 177.6875 115.0938 178.6406 L114.9844 180.7031 ZM116.9062 182.2812 C116.7344 182.375 116.5469 182.4219 116.3438 182.4219 C115.9531 182.4219 115.75 182.2188 115.75 181.4219 C115.75 180.4844 115.9688 178.5312 116.1875 176.8281 L116.0312 176.7188 L115.2344 176.9219 L115.1406 177.7969 C114.7812 177.0312 114.1562 176.6562 113.3906 176.6562 C112.0469 176.6562 110.5625 177.8438 110.5625 179.9531 C110.5625 182.0938 111.7188 183.1719 113.1406 183.1719 C114.0156 183.1719 114.6875 182.8125 115.0938 181.9844 C115.2031 182.8594 115.5156 183.1719 116.0156 183.1719 C116.4688 183.1719 116.7969 182.9062 117.0156 182.5625 L116.9062 182.2812 Z" style="fill:black; stroke:none;"
      /><rect x="120" width="6" height="9" y="145" style="stroke:none;"
      /><path d="M120.6406 145.25 L120.6406 146.1406 L125.2031 146.1406 L121.7812 153.875 L121.8906 154 L122.75 154 L125.875 145.7969 L125.875 145.25 L120.6406 145.25 Z" style="fill:black; stroke:none;"
      /><rect x="104" width="8" height="8" y="139" style="stroke:none;"
      /><path d="M108.9844 144.7031 C108.9375 145.8906 108.1562 146.6562 107.3125 146.6562 C106.2656 146.6562 105.5 145.6875 105.5 143.7188 C105.5 142.2812 106.1562 141.1562 107.3438 141.1562 C108.1406 141.1562 108.7812 141.6875 109.0938 142.6406 L108.9844 144.7031 ZM110.9062 146.2812 C110.7344 146.375 110.5469 146.4219 110.3438 146.4219 C109.9531 146.4219 109.75 146.2188 109.75 145.4219 C109.75 144.4844 109.9688 142.5312 110.1875 140.8281 L110.0312 140.7188 L109.2344 140.9219 L109.1406 141.7969 C108.7812 141.0312 108.1562 140.6562 107.3906 140.6562 C106.0469 140.6562 104.5625 141.8438 104.5625 143.9531 C104.5625 146.0938 105.7188 147.1719 107.1406 147.1719 C108.0156 147.1719 108.6875 146.8125 109.0938 145.9844 C109.2031 146.8594 109.5156 147.1719 110.0156 147.1719 C110.4688 147.1719 110.7969 146.9062 111.0156 146.5625 L110.9062 146.2812 Z" style="fill:black; stroke:none;"
      /><circle r="11" style="clip-path:url(#clipPath8); stroke:none;" cx="153" cy="79"
      /><rect x="142" y="68" width="22" style="clip-path:url(#clipPath8); fill:rgb(0,144,188); stroke:none;" height="22"
      /><rect x="142" y="68" width="22" style="clip-path:url(#clipPath8); fill:none; stroke:black;" height="22"
      /><circle r="11" style="fill:none; stroke:black;" cx="153" cy="79"
      /><rect x="196" width="6" height="10" y="129" style="stroke:none;"
      /><path d="M198.2344 130.6562 C198.5156 130.5938 198.7656 130.5625 199.0156 130.5625 C200.0625 130.5625 200.6719 131.1719 200.6719 132.2656 C200.6719 133.4375 199.9062 134.1094 198.7031 134.1094 L198.1875 134.1094 L198.1875 134.6406 L198.7969 134.6406 C200.2188 134.6406 200.9062 135.4219 200.9062 136.6406 C200.9062 137.8438 200.1719 138.6875 198.875 138.6875 C198.6094 138.6875 198.3125 138.6562 198.0156 138.5625 L197.7812 137.8125 C197.625 137.2812 197.5 137.0469 197.1406 137.0469 C196.8906 137.0469 196.7031 137.1719 196.5781 137.4219 C196.8438 138.6406 197.7812 139.1719 199.0312 139.1719 C200.7188 139.1719 201.875 138.125 201.875 136.7031 C201.875 135.5 201.2031 134.625 199.7969 134.375 C200.9531 134.0156 201.6094 133.2031 201.6094 132.2031 C201.6094 130.9219 200.6719 130.0781 199.1875 130.0781 C198.0469 130.0781 197.0625 130.5938 196.7969 131.6875 C196.9062 132 197.1094 132.1094 197.3594 132.1094 C197.7344 132.1094 197.8906 131.8906 198 131.4062 L198.2344 130.6562 Z" style="fill:black; stroke:none;"
      /><rect x="179" width="8" height="8" y="140" style="stroke:none;"
      /><path d="M183.9844 145.7031 C183.9375 146.8906 183.1562 147.6562 182.3125 147.6562 C181.2656 147.6562 180.5 146.6875 180.5 144.7188 C180.5 143.2812 181.1562 142.1562 182.3438 142.1562 C183.1406 142.1562 183.7812 142.6875 184.0938 143.6406 L183.9844 145.7031 ZM185.9062 147.2812 C185.7344 147.375 185.5469 147.4219 185.3438 147.4219 C184.9531 147.4219 184.75 147.2188 184.75 146.4219 C184.75 145.4844 184.9688 143.5312 185.1875 141.8281 L185.0312 141.7188 L184.2344 141.9219 L184.1406 142.7969 C183.7812 142.0312 183.1562 141.6562 182.3906 141.6562 C181.0469 141.6562 179.5625 142.8438 179.5625 144.9531 C179.5625 147.0938 180.7188 148.1719 182.1406 148.1719 C183.0156 148.1719 183.6875 147.8125 184.0938 146.9844 C184.2031 147.8594 184.5156 148.1719 185.0156 148.1719 C185.4688 148.1719 185.7969 147.9062 186.0156 147.5625 L185.9062 147.2812 Z" style="fill:black; stroke:none;"
      /><rect x="187" width="7" height="9" y="107" style="stroke:none;"
      /><path d="M188 112.5156 L190.9531 108.2656 L190.9531 112.5156 L188 112.5156 ZM193.2812 112.5156 L191.8594 112.5156 L191.8594 107.125 L191.2344 107.125 L187.3438 112.6406 L187.3438 113.1875 L190.9531 113.1875 L190.9531 116 L191.8594 116 L191.8594 113.1875 L193.2812 113.1875 L193.2812 112.5156 Z" style="fill:black; stroke:none;"
      /><rect x="163" width="6" height="13" y="90" style="stroke:none;"
      /><path d="M165.0938 96.2031 C165.0938 94.6562 165.75 93.8125 166.7969 93.8125 C167.7188 93.8125 168.2656 94.4531 168.2656 95.5156 C168.2656 96.7188 167.5 97.4375 166.1875 97.7031 L166.2969 98.3125 C168.2188 98.2344 168.9375 99.2188 168.9375 100.4375 C168.9375 101.625 168.2344 102.4219 166.9531 102.4219 C166.25 102.4219 165.6562 102.1562 165.0938 101.7188 L165.0938 96.2031 ZM164.2031 102.9062 L164.1094 105.375 L164.2656 105.4844 L165.1562 105.2656 L165.0156 102.0938 C165.5469 102.8438 166.3594 103.1719 167.1719 103.1719 C168.5625 103.1719 169.8594 102.2188 169.8594 100.4844 C169.8594 98.9531 168.875 98.1094 167.125 98 C168.5625 97.6094 169.1875 96.4531 169.1875 95.4844 C169.1875 94.0938 168.1562 93.3125 166.9062 93.3125 C165.2969 93.3125 164.2188 94.5469 164.2188 96.5156 L164.2031 102.9062 Z" style="fill:black; stroke:none;"
      /><polygon style="clip-path:url(#clipPath9); stroke:none;" points=" 213 53 215 60 223 60 216 65 219 72 213 68 206 72 209 65 202 60 210 60 213 53"
      /><rect x="202" y="53" width="22" style="clip-path:url(#clipPath9); fill:rgb(0,166,81); stroke:none;" height="22"
      /><rect x="202" y="53" width="22" style="clip-path:url(#clipPath9); fill:none; stroke:black;" height="22"
      /><polygon style="fill:none; stroke:black;" points=" 213 53 215 60 223 60 216 65 219 72 213 68 206 72 209 65 202 60 210 60 213 53"
      /><rect x="204" width="16" height="10" y="35" style="stroke:none;"
    /></g
    ><g style="text-rendering:optimizeSpeed; font-size:14px; font-family:'SansSerif';"
    ><path style="stroke:none;" d="M205.6094 42.1562 L207.9531 38.6562 C208.2344 38.1406 208.5156 37.6406 208.7812 37.1406 L208.8281 37.1406 C208.7969 37.6719 208.7656 38.5 208.7656 39 L208.7656 42.1562 L205.6094 42.1562 ZM208.7656 46 L209.9688 46 L209.9688 43.1719 L211.3281 43.1719 L211.3281 42.1562 L209.9688 42.1562 L209.9688 35.7188 L208.5469 35.7188 L204.2812 42.3281 L204.2812 43.1719 L208.7656 43.1719 L208.7656 46 ZM213.1762 46 L214.395 46 L214.395 40.6094 C214.395 39.5312 214.3012 38.4375 214.2543 37.4062 L214.3012 37.4062 L215.4106 39.5156 L219.145 46 L220.4731 46 L220.4731 35.7188 L219.2387 35.7188 L219.2387 41.0781 C219.2387 42.1406 219.3481 43.2812 219.4106 44.3125 L219.3481 44.3125 L218.2543 42.2031 L214.52 35.7188 L213.1762 35.7188 L213.1762 46 Z"
    /></g
    ><g style="fill:white; text-rendering:optimizeSpeed; font-family:'Serif'; stroke:white;"
    ><rect x="247" width="6" height="10" y="101" style="stroke:none;"
      /><path d="M248.9219 103.1406 L252.6562 103.1406 L252.6562 102.25 L248.4531 102.25 L248.1719 106.3125 L248.5156 106.3906 C248.9219 106.25 249.3906 106.1875 249.8125 106.1875 C251.0781 106.1875 251.9219 106.9531 251.9219 108.3906 C251.9219 109.7812 251.1719 110.6875 249.8281 110.6875 C249.5156 110.6875 249.2344 110.6406 248.9375 110.5625 L248.6875 109.7812 C248.5312 109.2188 248.3906 109.0469 248.0625 109.0469 C247.7969 109.0469 247.5938 109.1719 247.4844 109.4375 C247.7656 110.5938 248.625 111.1719 249.8906 111.1719 C251.7031 111.1719 252.875 109.9844 252.875 108.2812 C252.875 106.5312 251.75 105.5469 250.0938 105.5469 C249.6094 105.5469 249.1719 105.625 248.7344 105.7656 L248.9219 103.1406 Z" style="fill:black; stroke:none;"
      /><rect x="230" width="8" height="8" y="110" style="stroke:none;"
      /><path d="M234.9844 115.7031 C234.9375 116.8906 234.1562 117.6562 233.3125 117.6562 C232.2656 117.6562 231.5 116.6875 231.5 114.7188 C231.5 113.2812 232.1562 112.1562 233.3438 112.1562 C234.1406 112.1562 234.7812 112.6875 235.0938 113.6406 L234.9844 115.7031 ZM236.9062 117.2812 C236.7344 117.375 236.5469 117.4219 236.3438 117.4219 C235.9531 117.4219 235.75 117.2188 235.75 116.4219 C235.75 115.4844 235.9688 113.5312 236.1875 111.8281 L236.0312 111.7188 L235.2344 111.9219 L235.1406 112.7969 C234.7812 112.0312 234.1562 111.6562 233.3906 111.6562 C232.0469 111.6562 230.5625 112.8438 230.5625 114.9531 C230.5625 117.0938 231.7188 118.1719 233.1406 118.1719 C234.0156 118.1719 234.6875 117.8125 235.0938 116.9844 C235.2031 117.8594 235.5156 118.1719 236.0156 118.1719 C236.4688 118.1719 236.7969 117.9062 237.0156 117.5625 L236.9062 117.2812 Z" style="fill:black; stroke:none;"
      /><rect x="240" width="6" height="10" y="83" style="stroke:none;"
      /><path d="M243.2656 92.7031 C242.2031 92.7031 241.5 91.9688 241.5 90.9062 C241.5 89.9688 241.9375 89.4219 242.9062 88.8438 C244.4688 89.5625 244.9531 90.1719 244.9531 91.0156 C244.9531 92 244.2969 92.7031 243.2656 92.7031 ZM241.75 86.0469 C241.75 85.1094 242.4531 84.5625 243.2344 84.5625 C244.1562 84.5625 244.6562 85.2656 244.6562 86.0938 C244.6562 86.9688 244.3281 87.5469 243.4688 88.1562 C242.0938 87.5156 241.75 86.7969 241.75 86.0469 ZM243.8594 88.3438 C245.0938 87.6562 245.4531 86.8125 245.4531 86.0938 C245.4531 84.9219 244.6094 84.0781 243.2656 84.0781 C241.9375 84.0781 240.8906 84.9062 240.8906 86.2031 C240.8906 87.2031 241.375 88.0469 242.5156 88.6562 C241.2656 89.2812 240.5938 90 240.5938 91.0156 C240.5938 92.3906 241.6562 93.1719 243.2344 93.1719 C244.75 93.1719 245.875 92.25 245.875 90.8906 C245.875 89.7344 245.2656 89 243.8594 88.3438 Z" style="fill:black; stroke:none;"
      /><rect x="224" width="6" height="13" y="73" style="stroke:none;"
      /><path d="M226.0938 79.2031 C226.0938 77.6562 226.75 76.8125 227.7969 76.8125 C228.7188 76.8125 229.2656 77.4531 229.2656 78.5156 C229.2656 79.7188 228.5 80.4375 227.1875 80.7031 L227.2969 81.3125 C229.2188 81.2344 229.9375 82.2188 229.9375 83.4375 C229.9375 84.625 229.2344 85.4219 227.9531 85.4219 C227.25 85.4219 226.6562 85.1562 226.0938 84.7188 L226.0938 79.2031 ZM225.2031 85.9062 L225.1094 88.375 L225.2656 88.4844 L226.1562 88.2656 L226.0156 85.0938 C226.5469 85.8438 227.3594 86.1719 228.1719 86.1719 C229.5625 86.1719 230.8594 85.2188 230.8594 83.4844 C230.8594 81.9531 229.875 81.1094 228.125 81 C229.5625 80.6094 230.1875 79.4531 230.1875 78.4844 C230.1875 77.0938 229.1562 76.3125 227.9062 76.3125 C226.2969 76.3125 225.2188 77.5469 225.2188 79.5156 L225.2031 85.9062 Z" style="fill:black; stroke:none;"
      /><rect x="281" width="5" height="10" y="93" style="stroke:none;"
      /><path d="M282.8906 101.6875 C282.4844 101.6875 282.1562 102.0469 282.1562 102.4219 C282.1562 102.8125 282.4844 103.1562 282.8906 103.1562 C283.2969 103.1562 283.6406 102.8125 283.6406 102.4219 C283.6406 102.0469 283.2969 101.6875 282.8906 101.6875 ZM284.4688 95.5781 C284.7188 95.8906 284.875 96.2656 284.8906 96.6562 C284.8906 97.1875 284.625 97.5 284.0312 97.7656 L283.4062 98.0156 C282.6406 98.3125 282.3906 98.5469 282.3906 98.9375 C282.3906 99.1094 282.4531 99.3438 282.5781 99.8125 L282.7344 100.3438 L283.1094 100.3438 L283.0938 99.5312 C283.0938 99.0938 283.2031 98.9688 283.7812 98.7344 L284.2031 98.5625 C285.0312 98.2188 285.4531 97.6875 285.4531 96.8438 C285.4531 95.1562 283.6562 94.1875 282.5 94.0312 C282.1094 94.125 281.9062 94.2969 281.9062 94.6406 C281.9062 94.9375 282.0625 95.1562 282.7188 95.2656 L284.4688 95.5781 Z" style="fill:black; stroke:none;"
    /></g
  ></g
></svg
>
