<?xml version="1.0"?>
<!DOCTYPE svg PUBLIC '-//W3C//DTD SVG 1.0//EN'
          'http://www.w3.org/TR/2001/REC-SVG-20010904/DTD/svg10.dtd'>
<svg xmlns:xlink="http://www.w3.org/1999/xlink" style="fill-opacity:1; color-rendering:auto; color-interpolation:auto; text-rendering:auto; stroke:black; stroke-linecap:square; stroke-miterlimit:10; shape-rendering:auto; stroke-opacity:1; fill:black; stroke-dasharray:none; font-weight:normal; stroke-width:1; font-family:'Dialog'; font-style:normal; stroke-linejoin:miter; font-size:12px; stroke-dashoffset:0; image-rendering:auto;" viewBox="0 0 446 186" xmlns="http://www.w3.org/2000/svg"
><!--Generated by the Batik Graphics2D SVG Generator--><defs id="genericDefs"
  /><g
  ><defs id="defs1"
    ><clipPath clipPathUnits="userSpaceOnUse" id="clipPath1"
      ><path d="M342 95 L364 95 L364 117 L342 117 L342 95 Z"
      /></clipPath
      ><clipPath clipPathUnits="userSpaceOnUse" id="clipPath2"
      ><path d="M290 95 L312 95 L312 117 L290 117 L290 95 Z"
      /></clipPath
      ><clipPath clipPathUnits="userSpaceOnUse" id="clipPath3"
      ><path d="M260 106 C260 112.0751 255.0751 117 249 117 C242.9249 117 238 112.0751 238 106 C238 99.9249 242.9249 95 249 95 C255.0751 95 260 99.9249 260 106 Z"
      /></clipPath
      ><clipPath clipPathUnits="userSpaceOnUse" id="clipPath4"
      ><path d="M208 145 C208 151.0751 203.0751 156 197 156 C190.9249 156 186 151.0751 186 145 C186 138.9249 190.9249 134 197 134 C203.0751 134 208 138.9249 208 145 Z"
      /></clipPath
      ><clipPath clipPathUnits="userSpaceOnUse" id="clipPath5"
      ><path d="M134 134 L156 134 L156 156 L134 156 L134 134 Z"
      /></clipPath
      ><clipPath clipPathUnits="userSpaceOnUse" id="clipPath6"
      ><path d="M104 145 C104 151.0751 99.0751 156 93 156 C86.9249 156 82 151.0751 82 145 C82 138.9249 86.9249 134 93 134 C99.0751 134 104 138.9249 104 145 Z"
      /></clipPath
      ><clipPath clipPathUnits="userSpaceOnUse" id="clipPath7"
      ><path style="fill-rule:evenodd;" d="M41 134 L52 145 L41 156 L30 145 Z"
      /></clipPath
      ><clipPath clipPathUnits="userSpaceOnUse" id="clipPath8"
      ><path d="M208 67 C208 73.0751 203.0751 78 197 78 C190.9249 78 186 73.0751 186 67 C186 60.9249 190.9249 56 197 56 C203.0751 56 208 60.9249 208 67 Z"
      /></clipPath
      ><clipPath clipPathUnits="userSpaceOnUse" id="clipPath9"
      ><path d="M156 93 C156 99.0751 151.0751 104 145 104 C138.9249 104 134 99.0751 134 93 C134 86.9249 138.9249 82 145 82 C151.0751 82 156 86.9249 156 93 Z"
      /></clipPath
      ><clipPath clipPathUnits="userSpaceOnUse" id="clipPath10"
      ><path d="M156 41 C156 47.0751 151.0751 52 145 52 C138.9249 52 134 47.0751 134 41 C134 34.9249 138.9249 30 145 30 C151.0751 30 156 34.9249 156 41 Z"
      /></clipPath
      ><clipPath clipPathUnits="userSpaceOnUse" id="clipPath11"
      ><path style="fill-rule:evenodd;" d="M353 65 L342 43 L364 43 Z"
      /></clipPath
    ></defs
    ><g style="fill:white; text-rendering:optimizeSpeed; stroke:white;"
    ><rect x="0" width="446" height="186" y="0" style="stroke:none;"
      /><polygon style="fill:none; stroke:black;" points=" 405 106 353 106"
      /><path d="M405 95 C399.5 100.5 410.5 111.5 405 117" style="fill:none; stroke:black;"
      /><polygon style="fill:none; stroke:black;" points=" 353 106 301 106"
      /><polygon style="fill:none; stroke:black;" points=" 353 106 353 54"
      /><rect x="342" y="95" width="22" style="clip-path:url(#clipPath1); stroke:none;" height="22"
      /><rect x="342" y="95" width="22" style="clip-path:url(#clipPath1); fill:rgb(0,144,188); stroke:none;" height="22"
      /><rect x="342" y="95" width="22" style="clip-path:url(#clipPath1); fill:none; stroke:black;" height="22"
      /><rect x="342" y="95" width="22" style="fill:none; stroke:black;" height="22"
      /><polygon style="fill:none; stroke:black;" points=" 301 106 249 106"
      /><rect x="290" y="95" width="22" style="clip-path:url(#clipPath2); stroke:none;" height="22"
      /><rect x="290" y="95" width="22" style="clip-path:url(#clipPath2); fill:rgb(0,144,188); stroke:none;" height="22"
      /><rect x="290" y="95" width="22" style="clip-path:url(#clipPath2); fill:none; stroke:black;" height="22"
      /><rect x="290" y="95" width="22" style="fill:none; stroke:black;" height="22"
      /><polygon style="fill:none; stroke:black;" points=" 249 106 197 145"
      /><polygon style="fill:none; stroke:black;" points=" 249 106 197 67"
      /><circle style="clip-path:url(#clipPath3); stroke:none;" r="11" cx="249" cy="106"
      /><rect x="238" y="95" width="22" style="clip-path:url(#clipPath3); fill:rgb(0,166,81); stroke:none;" height="22"
      /><rect x="238" y="95" width="22" style="clip-path:url(#clipPath3); fill:none; stroke:black;" height="22"
      /><circle style="fill:none; stroke:black;" r="11" cx="249" cy="106"
      /><polygon style="fill:none; stroke:black;" points=" 197 145 145 145"
      /><circle style="clip-path:url(#clipPath4); stroke:none;" r="11" cx="197" cy="145"
      /><rect x="186" y="134" width="22" style="clip-path:url(#clipPath4); fill:rgb(0,166,81); stroke:none;" height="22"
      /><rect x="186" y="134" width="22" style="clip-path:url(#clipPath4); fill:none; stroke:black;" height="22"
      /><circle style="fill:none; stroke:black;" r="11" cx="197" cy="145"
      /><polygon style="fill:none; stroke:black;" points=" 145 145 93 145"
      /><rect x="134" y="134" width="22" style="clip-path:url(#clipPath5); stroke:none;" height="22"
      /><rect x="134" y="134" width="22" style="clip-path:url(#clipPath5); fill:rgb(0,144,188); stroke:none;" height="22"
      /><rect x="134" y="134" width="22" style="clip-path:url(#clipPath5); fill:none; stroke:black;" height="22"
      /><rect x="134" y="134" width="22" style="fill:none; stroke:black;" height="22"
      /><polygon style="fill:none; stroke:black;" points=" 93 145 41 145"
      /><circle style="clip-path:url(#clipPath6); stroke:none;" r="11" cx="93" cy="145"
      /><rect x="82" y="134" width="22" style="clip-path:url(#clipPath6); fill:rgb(255,212,0); stroke:none;" height="22"
      /><rect x="82" y="134" width="22" style="clip-path:url(#clipPath6); fill:none; stroke:black;" height="22"
      /><circle style="fill:none; stroke:black;" r="11" cx="93" cy="145"
      /><polygon style="clip-path:url(#clipPath7); stroke:none;" points=" 41 134 52 145 41 156 30 145"
      /><rect x="30" y="134" width="22" style="clip-path:url(#clipPath7); fill:rgb(165,67,153); stroke:none;" height="22"
      /><rect x="30" y="134" width="22" style="clip-path:url(#clipPath7); fill:none; stroke:black;" height="22"
      /><polygon style="fill:none; stroke:black;" points=" 41 134 52 145 41 156 30 145"
      /><rect x="71" y="148" width="5" style="stroke:none;" height="10"
    /></g
    ><g style="font-family:'Serif'; text-rendering:optimizeSpeed; "
    ><path style="stroke:none;" d="M72.8906 156.6875 C72.4844 156.6875 72.1562 157.0469 72.1562 157.4219 C72.1562 157.8125 72.4844 158.1562 72.8906 158.1562 C73.2969 158.1562 73.6406 157.8125 73.6406 157.4219 C73.6406 157.0469 73.2969 156.6875 72.8906 156.6875 ZM74.4688 150.5781 C74.7188 150.8906 74.875 151.2656 74.8906 151.6562 C74.8906 152.1875 74.625 152.5 74.0312 152.7656 L73.4062 153.0156 C72.6406 153.3125 72.3906 153.5469 72.3906 153.9375 C72.3906 154.1094 72.4531 154.3438 72.5781 154.8125 L72.7344 155.3438 L73.1094 155.3438 L73.0938 154.5312 C73.0938 154.0938 73.2031 153.9688 73.7812 153.7344 L74.2031 153.5625 C75.0312 153.2188 75.4531 152.6875 75.4531 151.8438 C75.4531 150.1562 73.6562 149.1875 72.5 149.0312 C72.1094 149.125 71.9062 149.2969 71.9062 149.6406 C71.9062 149.9375 72.0625 150.1562 72.7188 150.2656 L74.4688 150.5781 Z"
      /><rect x="57" y="148" width="5" style="fill:white; stroke:none;" height="10"
      /><path style="stroke:none;" d="M58.8906 156.6875 C58.4844 156.6875 58.1562 157.0469 58.1562 157.4219 C58.1562 157.8125 58.4844 158.1562 58.8906 158.1562 C59.2969 158.1562 59.6406 157.8125 59.6406 157.4219 C59.6406 157.0469 59.2969 156.6875 58.8906 156.6875 ZM60.4688 150.5781 C60.7188 150.8906 60.875 151.2656 60.8906 151.6562 C60.8906 152.1875 60.625 152.5 60.0312 152.7656 L59.4062 153.0156 C58.6406 153.3125 58.3906 153.5469 58.3906 153.9375 C58.3906 154.1094 58.4531 154.3438 58.5781 154.8125 L58.7344 155.3438 L59.1094 155.3438 L59.0938 154.5312 C59.0938 154.0938 59.2031 153.9688 59.7812 153.7344 L60.2031 153.5625 C61.0312 153.2188 61.4531 152.6875 61.4531 151.8438 C61.4531 150.1562 59.6562 149.1875 58.5 149.0312 C58.1094 149.125 57.9062 149.2969 57.9062 149.6406 C57.9062 149.9375 58.0625 150.1562 58.7188 150.2656 L60.4688 150.5781 Z"
      /><rect x="123" y="148" width="5" style="fill:white; stroke:none;" height="10"
      /><path style="stroke:none;" d="M124.8906 156.6875 C124.4844 156.6875 124.1562 157.0469 124.1562 157.4219 C124.1562 157.8125 124.4844 158.1562 124.8906 158.1562 C125.2969 158.1562 125.6406 157.8125 125.6406 157.4219 C125.6406 157.0469 125.2969 156.6875 124.8906 156.6875 ZM126.4688 150.5781 C126.7188 150.8906 126.875 151.2656 126.8906 151.6562 C126.8906 152.1875 126.625 152.5 126.0312 152.7656 L125.4062 153.0156 C124.6406 153.3125 124.3906 153.5469 124.3906 153.9375 C124.3906 154.1094 124.4531 154.3438 124.5781 154.8125 L124.7344 155.3438 L125.1094 155.3438 L125.0938 154.5312 C125.0938 154.0938 125.2031 153.9688 125.7812 153.7344 L126.2031 153.5625 C127.0312 153.2188 127.4531 152.6875 127.4531 151.8438 C127.4531 150.1562 125.6562 149.1875 124.5 149.0312 C124.1094 149.125 123.9062 149.2969 123.9062 149.6406 C123.9062 149.9375 124.0625 150.1562 124.7188 150.2656 L126.4688 150.5781 Z"
      /><rect x="109" y="148" width="5" style="fill:white; stroke:none;" height="10"
      /><path style="stroke:none;" d="M110.8906 156.6875 C110.4844 156.6875 110.1562 157.0469 110.1562 157.4219 C110.1562 157.8125 110.4844 158.1562 110.8906 158.1562 C111.2969 158.1562 111.6406 157.8125 111.6406 157.4219 C111.6406 157.0469 111.2969 156.6875 110.8906 156.6875 ZM112.4688 150.5781 C112.7188 150.8906 112.875 151.2656 112.8906 151.6562 C112.8906 152.1875 112.625 152.5 112.0312 152.7656 L111.4062 153.0156 C110.6406 153.3125 110.3906 153.5469 110.3906 153.9375 C110.3906 154.1094 110.4531 154.3438 110.5781 154.8125 L110.7344 155.3438 L111.1094 155.3438 L111.0938 154.5312 C111.0938 154.0938 111.2031 153.9688 111.7812 153.7344 L112.2031 153.5625 C113.0312 153.2188 113.4531 152.6875 113.4531 151.8438 C113.4531 150.1562 111.6562 149.1875 110.5 149.0312 C110.1094 149.125 109.9062 149.2969 109.9062 149.6406 C109.9062 149.9375 110.0625 150.1562 110.7188 150.2656 L112.4688 150.5781 Z"
      /><rect x="175" y="148" width="5" style="fill:white; stroke:none;" height="10"
      /><path style="stroke:none;" d="M176.8906 156.6875 C176.4844 156.6875 176.1562 157.0469 176.1562 157.4219 C176.1562 157.8125 176.4844 158.1562 176.8906 158.1562 C177.2969 158.1562 177.6406 157.8125 177.6406 157.4219 C177.6406 157.0469 177.2969 156.6875 176.8906 156.6875 ZM178.4688 150.5781 C178.7188 150.8906 178.875 151.2656 178.8906 151.6562 C178.8906 152.1875 178.625 152.5 178.0312 152.7656 L177.4062 153.0156 C176.6406 153.3125 176.3906 153.5469 176.3906 153.9375 C176.3906 154.1094 176.4531 154.3438 176.5781 154.8125 L176.7344 155.3438 L177.1094 155.3438 L177.0938 154.5312 C177.0938 154.0938 177.2031 153.9688 177.7812 153.7344 L178.2031 153.5625 C179.0312 153.2188 179.4531 152.6875 179.4531 151.8438 C179.4531 150.1562 177.6562 149.1875 176.5 149.0312 C176.1094 149.125 175.9062 149.2969 175.9062 149.6406 C175.9062 149.9375 176.0625 150.1562 176.7188 150.2656 L178.4688 150.5781 Z"
      /><rect x="161" y="148" width="5" style="fill:white; stroke:none;" height="10"
      /><path style="stroke:none;" d="M162.8906 156.6875 C162.4844 156.6875 162.1562 157.0469 162.1562 157.4219 C162.1562 157.8125 162.4844 158.1562 162.8906 158.1562 C163.2969 158.1562 163.6406 157.8125 163.6406 157.4219 C163.6406 157.0469 163.2969 156.6875 162.8906 156.6875 ZM164.4688 150.5781 C164.7188 150.8906 164.875 151.2656 164.8906 151.6562 C164.8906 152.1875 164.625 152.5 164.0312 152.7656 L163.4062 153.0156 C162.6406 153.3125 162.3906 153.5469 162.3906 153.9375 C162.3906 154.1094 162.4531 154.3438 162.5781 154.8125 L162.7344 155.3438 L163.1094 155.3438 L163.0938 154.5312 C163.0938 154.0938 163.2031 153.9688 163.7812 153.7344 L164.2031 153.5625 C165.0312 153.2188 165.4531 152.6875 165.4531 151.8438 C165.4531 150.1562 163.6562 149.1875 162.5 149.0312 C162.1094 149.125 161.9062 149.2969 161.9062 149.6406 C161.9062 149.9375 162.0625 150.1562 162.7188 150.2656 L164.4688 150.5781 Z"
      /><polygon style="fill:none;" points=" 197 67 145 93"
      /><polygon style="fill:none;" points=" 197 67 145 41"
      /><circle style="fill:white; clip-path:url(#clipPath8); stroke:none;" r="11" cx="197" cy="67"
      /><rect x="186" y="56" width="22" style="clip-path:url(#clipPath8); fill:rgb(0,166,81); stroke:none;" height="22"
      /><rect x="186" y="56" width="22" style="fill:none; clip-path:url(#clipPath8);" height="22"
      /><circle r="11" style="fill:none;" cx="197" cy="67"
      /><circle style="fill:white; clip-path:url(#clipPath9); stroke:none;" r="11" cx="145" cy="93"
      /><rect x="134" y="82" width="22" style="clip-path:url(#clipPath9); fill:rgb(0,166,81); stroke:none;" height="22"
      /><rect x="134" y="82" width="22" style="fill:none; clip-path:url(#clipPath9);" height="22"
      /><circle r="11" style="fill:none;" cx="145" cy="93"
      /><circle style="fill:white; clip-path:url(#clipPath10); stroke:none;" r="11" cx="145" cy="41"
      /><rect x="134" y="30" width="22" style="clip-path:url(#clipPath10); fill:rgb(0,166,81); stroke:none;" height="22"
      /><rect x="134" y="30" width="22" style="fill:none; clip-path:url(#clipPath10);" height="22"
      /><circle r="11" style="fill:none;" cx="145" cy="41"
      /><rect x="179" y="78" width="6" style="fill:white; stroke:none;" height="10"
      /><path style="stroke:none;" d="M181.2344 79.6562 C181.5156 79.5938 181.7656 79.5625 182.0156 79.5625 C183.0625 79.5625 183.6719 80.1719 183.6719 81.2656 C183.6719 82.4375 182.9062 83.1094 181.7031 83.1094 L181.1875 83.1094 L181.1875 83.6406 L181.7969 83.6406 C183.2188 83.6406 183.9062 84.4219 183.9062 85.6406 C183.9062 86.8438 183.1719 87.6875 181.875 87.6875 C181.6094 87.6875 181.3125 87.6562 181.0156 87.5625 L180.7812 86.8125 C180.625 86.2812 180.5 86.0469 180.1406 86.0469 C179.8906 86.0469 179.7031 86.1719 179.5781 86.4219 C179.8438 87.6406 180.7812 88.1719 182.0312 88.1719 C183.7188 88.1719 184.875 87.125 184.875 85.7031 C184.875 84.5 184.2031 83.625 182.7969 83.375 C183.9531 83.0156 184.6094 82.2031 184.6094 81.2031 C184.6094 79.9219 183.6719 79.0781 182.1875 79.0781 C181.0469 79.0781 180.0625 79.5938 179.7969 80.6875 C179.9062 81 180.1094 81.1094 180.3594 81.1094 C180.7344 81.1094 180.8906 80.8906 181 80.4062 L181.2344 79.6562 Z"
      /><rect x="162" y="87" width="8" style="fill:white; stroke:none;" height="8"
      /><path style="stroke:none;" d="M166.9844 92.7031 C166.9375 93.8906 166.1562 94.6562 165.3125 94.6562 C164.2656 94.6562 163.5 93.6875 163.5 91.7188 C163.5 90.2812 164.1562 89.1562 165.3438 89.1562 C166.1406 89.1562 166.7812 89.6875 167.0938 90.6406 L166.9844 92.7031 ZM168.9062 94.2812 C168.7344 94.375 168.5469 94.4219 168.3438 94.4219 C167.9531 94.4219 167.75 94.2188 167.75 93.4219 C167.75 92.4844 167.9688 90.5312 168.1875 88.8281 L168.0312 88.7188 L167.2344 88.9219 L167.1406 89.7969 C166.7812 89.0312 166.1562 88.6562 165.3906 88.6562 C164.0469 88.6562 162.5625 89.8438 162.5625 91.9531 C162.5625 94.0938 163.7188 95.1719 165.1406 95.1719 C166.0156 95.1719 166.6875 94.8125 167.0938 93.9844 C167.2031 94.8594 167.5156 95.1719 168.0156 95.1719 C168.4688 95.1719 168.7969 94.9062 169.0156 94.5625 L168.9062 94.2812 Z"
      /><rect x="172" y="60" width="6" style="fill:white; stroke:none;" height="10"
      /><path style="stroke:none;" d="M175.3438 69.6875 C174.2031 69.6875 173.5312 68.5 173.5312 66.2969 C173.5312 66.2188 173.5312 66.125 173.5312 66.0469 C174.0938 65.5 174.7188 65.3125 175.3438 65.3125 C176.3125 65.3125 176.9531 65.9844 176.9531 67.4531 C176.9531 68.9375 176.3125 69.6875 175.3438 69.6875 ZM177.5312 61.0781 C174.3438 61.4531 172.5625 63.7656 172.5625 66.4531 C172.5625 68.7812 173.6094 70.1719 175.3125 70.1719 C176.8438 70.1719 177.9219 69.1094 177.9219 67.2812 C177.9219 65.6875 176.9688 64.6562 175.5625 64.6562 C174.8281 64.6562 174.1406 64.9844 173.5781 65.5781 C173.7969 63.4062 175.0781 61.9688 177.5938 61.3906 L177.5312 61.0781 Z"
      /><rect x="155" y="53" width="8" style="fill:white; stroke:none;" height="8"
      /><path style="stroke:none;" d="M159.9844 58.7031 C159.9375 59.8906 159.1562 60.6562 158.3125 60.6562 C157.2656 60.6562 156.5 59.6875 156.5 57.7188 C156.5 56.2812 157.1562 55.1562 158.3438 55.1562 C159.1406 55.1562 159.7812 55.6875 160.0938 56.6406 L159.9844 58.7031 ZM161.9062 60.2812 C161.7344 60.375 161.5469 60.4219 161.3438 60.4219 C160.9531 60.4219 160.75 60.2188 160.75 59.4219 C160.75 58.4844 160.9688 56.5312 161.1875 54.8281 L161.0312 54.7188 L160.2344 54.9219 L160.1406 55.7969 C159.7812 55.0312 159.1562 54.6562 158.3906 54.6562 C157.0469 54.6562 155.5625 55.8438 155.5625 57.9531 C155.5625 60.0938 156.7188 61.1719 158.1406 61.1719 C159.0156 61.1719 159.6875 60.8125 160.0938 59.9844 C160.2031 60.8594 160.5156 61.1719 161.0156 61.1719 C161.4688 61.1719 161.7969 60.9062 162.0156 60.5625 L161.9062 60.2812 Z"
      /><rect x="233" y="120" width="6" style="fill:white; stroke:none;" height="10"
      /><path style="stroke:none;" d="M235.2344 121.6562 C235.5156 121.5938 235.7656 121.5625 236.0156 121.5625 C237.0625 121.5625 237.6719 122.1719 237.6719 123.2656 C237.6719 124.4375 236.9062 125.1094 235.7031 125.1094 L235.1875 125.1094 L235.1875 125.6406 L235.7969 125.6406 C237.2188 125.6406 237.9062 126.4219 237.9062 127.6406 C237.9062 128.8438 237.1719 129.6875 235.875 129.6875 C235.6094 129.6875 235.3125 129.6562 235.0156 129.5625 L234.7812 128.8125 C234.625 128.2812 234.5 128.0469 234.1406 128.0469 C233.8906 128.0469 233.7031 128.1719 233.5781 128.4219 C233.8438 129.6406 234.7812 130.1719 236.0312 130.1719 C237.7188 130.1719 238.875 129.125 238.875 127.7031 C238.875 126.5 238.2031 125.625 236.7969 125.375 C237.9531 125.0156 238.6094 124.2031 238.6094 123.2031 C238.6094 121.9219 237.6719 121.0781 236.1875 121.0781 C235.0469 121.0781 234.0625 121.5938 233.7969 122.6875 C233.9062 123 234.1094 123.1094 234.3594 123.1094 C234.7344 123.1094 234.8906 122.8906 235 122.4062 L235.2344 121.6562 Z"
      /><rect x="215" y="134" width="8" style="fill:white; stroke:none;" height="8"
      /><path style="stroke:none;" d="M219.9844 139.7031 C219.9375 140.8906 219.1562 141.6562 218.3125 141.6562 C217.2656 141.6562 216.5 140.6875 216.5 138.7188 C216.5 137.2812 217.1562 136.1562 218.3438 136.1562 C219.1406 136.1562 219.7812 136.6875 220.0938 137.6406 L219.9844 139.7031 ZM221.9062 141.2812 C221.7344 141.375 221.5469 141.4219 221.3438 141.4219 C220.9531 141.4219 220.75 141.2188 220.75 140.4219 C220.75 139.4844 220.9688 137.5312 221.1875 135.8281 L221.0312 135.7188 L220.2344 135.9219 L220.1406 136.7969 C219.7812 136.0312 219.1562 135.6562 218.3906 135.6562 C217.0469 135.6562 215.5625 136.8438 215.5625 138.9531 C215.5625 141.0938 216.7188 142.1719 218.1406 142.1719 C219.0156 142.1719 219.6875 141.8125 220.0938 140.9844 C220.2031 141.8594 220.5156 142.1719 221.0156 142.1719 C221.4688 142.1719 221.7969 141.9062 222.0156 141.5625 L221.9062 141.2812 Z"
      /><rect x="223" y="94" width="6" style="fill:white; stroke:none;" height="10"
      /><path style="stroke:none;" d="M226.3438 103.6875 C225.2031 103.6875 224.5312 102.5 224.5312 100.2969 C224.5312 100.2188 224.5312 100.125 224.5312 100.0469 C225.0938 99.5 225.7188 99.3125 226.3438 99.3125 C227.3125 99.3125 227.9531 99.9844 227.9531 101.4531 C227.9531 102.9375 227.3125 103.6875 226.3438 103.6875 ZM228.5312 95.0781 C225.3438 95.4531 223.5625 97.7656 223.5625 100.4531 C223.5625 102.7812 224.6094 104.1719 226.3125 104.1719 C227.8438 104.1719 228.9219 103.1094 228.9219 101.2812 C228.9219 99.6875 227.9688 98.6562 226.5625 98.6562 C225.8281 98.6562 225.1406 98.9844 224.5781 99.5781 C224.7969 97.4062 226.0781 95.9688 228.5938 95.3906 L228.5312 95.0781 Z"
      /><rect x="205" y="82" width="8" style="fill:white; stroke:none;" height="8"
      /><path style="stroke:none;" d="M209.9844 87.7031 C209.9375 88.8906 209.1562 89.6562 208.3125 89.6562 C207.2656 89.6562 206.5 88.6875 206.5 86.7188 C206.5 85.2812 207.1562 84.1562 208.3438 84.1562 C209.1406 84.1562 209.7812 84.6875 210.0938 85.6406 L209.9844 87.7031 ZM211.9062 89.2812 C211.7344 89.375 211.5469 89.4219 211.3438 89.4219 C210.9531 89.4219 210.75 89.2188 210.75 88.4219 C210.75 87.4844 210.9688 85.5312 211.1875 83.8281 L211.0312 83.7188 L210.2344 83.9219 L210.1406 84.7969 C209.7812 84.0312 209.1562 83.6562 208.3906 83.6562 C207.0469 83.6562 205.5625 84.8438 205.5625 86.9531 C205.5625 89.0938 206.7188 90.1719 208.1406 90.1719 C209.0156 90.1719 209.6875 89.8125 210.0938 88.9844 C210.2031 89.8594 210.5156 90.1719 211.0156 90.1719 C211.4688 90.1719 211.7969 89.9062 212.0156 89.5625 L211.9062 89.2812 Z"
      /><rect x="278" y="109" width="7" style="fill:white; stroke:none;" height="9"
      /><path style="stroke:none;" d="M279 114.5156 L281.9531 110.2656 L281.9531 114.5156 L279 114.5156 ZM284.2812 114.5156 L282.8594 114.5156 L282.8594 109.125 L282.2344 109.125 L278.3438 114.6406 L278.3438 115.1875 L281.9531 115.1875 L281.9531 118 L282.8594 118 L282.8594 115.1875 L284.2812 115.1875 L284.2812 114.5156 Z"
      /><rect x="265" y="107" width="6" style="fill:white; stroke:none;" height="13"
      /><path style="stroke:none;" d="M267.0938 113.2031 C267.0938 111.6562 267.75 110.8125 268.7969 110.8125 C269.7188 110.8125 270.2656 111.4531 270.2656 112.5156 C270.2656 113.7188 269.5 114.4375 268.1875 114.7031 L268.2969 115.3125 C270.2188 115.2344 270.9375 116.2188 270.9375 117.4375 C270.9375 118.625 270.2344 119.4219 268.9531 119.4219 C268.25 119.4219 267.6562 119.1562 267.0938 118.7188 L267.0938 113.2031 ZM266.2031 119.9062 L266.1094 122.375 L266.2656 122.4844 L267.1562 122.2656 L267.0156 119.0938 C267.5469 119.8438 268.3594 120.1719 269.1719 120.1719 C270.5625 120.1719 271.8594 119.2188 271.8594 117.4844 C271.8594 115.9531 270.875 115.1094 269.125 115 C270.5625 114.6094 271.1875 113.4531 271.1875 112.4844 C271.1875 111.0938 270.1562 110.3125 268.9062 110.3125 C267.2969 110.3125 266.2188 111.5469 266.2188 113.5156 L266.2031 119.9062 Z"
      /><polygon style="fill:white; clip-path:url(#clipPath11); stroke:none;" points=" 353 65 342 43 364 43"
      /><rect x="342" y="43" width="22" style="clip-path:url(#clipPath11); fill:rgb(237,28,36); stroke:none;" height="22"
      /><rect x="342" y="43" width="22" style="fill:none; clip-path:url(#clipPath11);" height="22"
      /><polygon style="fill:none;" points=" 353 65 342 43 364 43"
      /><rect x="330" y="109" width="7" style="fill:white; stroke:none;" height="9"
      /><path style="stroke:none;" d="M331 114.5156 L333.9531 110.2656 L333.9531 114.5156 L331 114.5156 ZM336.2812 114.5156 L334.8594 114.5156 L334.8594 109.125 L334.2344 109.125 L330.3438 114.6406 L330.3438 115.1875 L333.9531 115.1875 L333.9531 118 L334.8594 118 L334.8594 115.1875 L336.2812 115.1875 L336.2812 114.5156 Z"
      /><rect x="317" y="107" width="6" style="fill:white; stroke:none;" height="13"
      /><path style="stroke:none;" d="M319.0938 113.2031 C319.0938 111.6562 319.75 110.8125 320.7969 110.8125 C321.7188 110.8125 322.2656 111.4531 322.2656 112.5156 C322.2656 113.7188 321.5 114.4375 320.1875 114.7031 L320.2969 115.3125 C322.2188 115.2344 322.9375 116.2188 322.9375 117.4375 C322.9375 118.625 322.2344 119.4219 320.9531 119.4219 C320.25 119.4219 319.6562 119.1562 319.0938 118.7188 L319.0938 113.2031 ZM318.2031 119.9062 L318.1094 122.375 L318.2656 122.4844 L319.1562 122.2656 L319.0156 119.0938 C319.5469 119.8438 320.3594 120.1719 321.1719 120.1719 C322.5625 120.1719 323.8594 119.2188 323.8594 117.4844 C323.8594 115.9531 322.875 115.1094 321.125 115 C322.5625 114.6094 323.1875 113.4531 323.1875 112.4844 C323.1875 111.0938 322.1562 110.3125 320.9062 110.3125 C319.2969 110.3125 318.2188 111.5469 318.2188 113.5156 L318.2031 119.9062 Z"
      /><rect x="342" y="82" width="6" style="fill:white; stroke:none;" height="10"
      /><path style="stroke:none;" d="M345.3438 91.6875 C344.2031 91.6875 343.5312 90.5 343.5312 88.2969 C343.5312 88.2188 343.5312 88.125 343.5312 88.0469 C344.0938 87.5 344.7188 87.3125 345.3438 87.3125 C346.3125 87.3125 346.9531 87.9844 346.9531 89.4531 C346.9531 90.9375 346.3125 91.6875 345.3438 91.6875 ZM347.5312 83.0781 C344.3438 83.4531 342.5625 85.7656 342.5625 88.4531 C342.5625 90.7812 343.6094 92.1719 345.3125 92.1719 C346.8438 92.1719 347.9219 91.1094 347.9219 89.2812 C347.9219 87.6875 346.9688 86.6562 345.5625 86.6562 C344.8281 86.6562 344.1406 86.9844 343.5781 87.5781 C343.7969 85.4062 345.0781 83.9688 347.5938 83.3906 L347.5312 83.0781 Z"
      /><rect x="341" y="69" width="8" style="fill:white; stroke:none;" height="8"
      /><path style="stroke:none;" d="M345.9844 74.7031 C345.9375 75.8906 345.1562 76.6562 344.3125 76.6562 C343.2656 76.6562 342.5 75.6875 342.5 73.7188 C342.5 72.2812 343.1562 71.1562 344.3438 71.1562 C345.1406 71.1562 345.7812 71.6875 346.0938 72.6406 L345.9844 74.7031 ZM347.9062 76.2812 C347.7344 76.375 347.5469 76.4219 347.3438 76.4219 C346.9531 76.4219 346.75 76.2188 346.75 75.4219 C346.75 74.4844 346.9688 72.5312 347.1875 70.8281 L347.0312 70.7188 L346.2344 70.9219 L346.1406 71.7969 C345.7812 71.0312 345.1562 70.6562 344.3906 70.6562 C343.0469 70.6562 341.5625 71.8438 341.5625 73.9531 C341.5625 76.0938 342.7188 77.1719 344.1406 77.1719 C345.0156 77.1719 345.6875 76.8125 346.0938 75.9844 C346.2031 76.8594 346.5156 77.1719 347.0156 77.1719 C347.4688 77.1719 347.7969 76.9062 348.0156 76.5625 L347.9062 76.2812 Z"
      /><rect x="369" y="109" width="5" style="fill:white; stroke:none;" height="10"
      /><path style="stroke:none;" d="M370.8906 117.6875 C370.4844 117.6875 370.1562 118.0469 370.1562 118.4219 C370.1562 118.8125 370.4844 119.1562 370.8906 119.1562 C371.2969 119.1562 371.6406 118.8125 371.6406 118.4219 C371.6406 118.0469 371.2969 117.6875 370.8906 117.6875 ZM372.4688 111.5781 C372.7188 111.8906 372.875 112.2656 372.8906 112.6562 C372.8906 113.1875 372.625 113.5 372.0312 113.7656 L371.4062 114.0156 C370.6406 114.3125 370.3906 114.5469 370.3906 114.9375 C370.3906 115.1094 370.4531 115.3438 370.5781 115.8125 L370.7344 116.3438 L371.1094 116.3438 L371.0938 115.5312 C371.0938 115.0938 371.2031 114.9688 371.7812 114.7344 L372.2031 114.5625 C373.0312 114.2188 373.4531 113.6875 373.4531 112.8438 C373.4531 111.1562 371.6562 110.1875 370.5 110.0312 C370.1094 110.125 369.9062 110.2969 369.9062 110.6406 C369.9062 110.9375 370.0625 111.1562 370.7188 111.2656 L372.4688 111.5781 Z"
    /></g
  ></g
></svg
>
