<?xml version="1.0"?>
<!DOCTYPE svg PUBLIC '-//W3C//DTD SVG 1.0//EN'
          'http://www.w3.org/TR/2001/REC-SVG-20010904/DTD/svg10.dtd'>
<svg xmlns:xlink="http://www.w3.org/1999/xlink" style="fill-opacity:1; color-rendering:auto; color-interpolation:auto; text-rendering:auto; stroke:black; stroke-linecap:square; stroke-miterlimit:10; shape-rendering:auto; stroke-opacity:1; fill:black; stroke-dasharray:none; font-weight:normal; stroke-width:1; font-family:'Dialog'; font-style:normal; stroke-linejoin:miter; font-size:12px; stroke-dashoffset:0; image-rendering:auto;" viewBox="0 0 319 105" xmlns="http://www.w3.org/2000/svg"
><!--Generated by the Batik Graphics2D SVG Generator--><defs id="genericDefs"
  /><g
  ><defs id="defs1"
    ><clipPath clipPathUnits="userSpaceOnUse" id="clipPath1"
      ><path style="fill-rule:evenodd;" d="M213 41 L207 48 L196 48 L191 41 L196 33 L207 33 L213 41 Z"
      /></clipPath
      ><clipPath clipPathUnits="userSpaceOnUse" id="clipPath2"
      ><path style="fill-rule:evenodd;" d="M150 30 L161 52 L139 52 Z"
      /></clipPath
      ><clipPath clipPathUnits="userSpaceOnUse" id="clipPath3"
      ><path style="fill-rule:evenodd;" d="M98 30 L109 52 L87 52 Z"
      /></clipPath
      ><clipPath clipPathUnits="userSpaceOnUse" id="clipPath4"
      ><path style="fill-rule:evenodd;" d="M43 30 L54 52 L32 52 Z"
      /></clipPath
    ></defs
    ><g style="fill:white; text-rendering:optimizeSpeed; stroke:white;"
    ><rect x="0" width="319" height="105" y="0" style="stroke:none;"
      /><polygon style="fill:none; stroke:black;" points=" 202 41 150 41"
      /><polygon style="clip-path:url(#clipPath1); stroke:none;" points=" 213 41 207 48 196 48 191 41 196 33 207 33 213 41"
      /><rect x="191" y="30" width="22" style="clip-path:url(#clipPath1); stroke:none;" height="22"
      /><rect x="191" y="30" width="22" style="clip-path:url(#clipPath1); fill:none; stroke:black;" height="22"
      /><polygon style="fill:none; stroke:black;" points=" 213 41 207 48 196 48 191 41 196 33 207 33 213 41"
      /><polygon style="fill:none; stroke:black;" points=" 150 41 98 41"
      /><polygon style="clip-path:url(#clipPath2); stroke:none;" points=" 150 30 161 52 139 52"
      /><rect x="139" y="30" width="22" style="clip-path:url(#clipPath2); fill:rgb(0,166,81); stroke:none;" height="22"
      /><rect x="139" y="30" width="22" style="clip-path:url(#clipPath2); fill:none; stroke:black;" height="22"
      /><polygon style="fill:none; stroke:black;" points=" 150 30 161 52 139 52"
    /></g
    ><g style="text-rendering:optimizeSpeed; font-size:10px; font-family:'SansSerif';"
    ><path style="stroke:none;" d="M148 44 L149.875 44 C152.0938 44 153.2969 42.625 153.2969 40.3125 C153.2969 37.9844 152.0938 36.6562 149.8438 36.6562 L148 36.6562 L148 44 ZM148.9375 43.2344 L148.9375 37.4219 L149.7656 37.4219 C151.4844 37.4219 152.3438 38.4531 152.3438 40.3125 C152.3438 42.1562 151.4844 43.2344 149.7656 43.2344 L148.9375 43.2344 Z"
      /><polygon style="fill:none;" points=" 98 41 43 41"
    /></g
    ><g style="fill:white; text-rendering:optimizeSpeed; stroke:white;"
    ><polygon style="stroke:none; clip-path:url(#clipPath3);" points=" 98 30 109 52 87 52"
      /><rect x="87" y="30" width="22" style="clip-path:url(#clipPath3); fill:rgb(0,166,81); stroke:none;" height="22"
      /><rect x="87" y="30" width="22" style="clip-path:url(#clipPath3); fill:none; stroke:black;" height="22"
      /><polygon style="fill:none; stroke:black;" points=" 98 30 109 52 87 52"
    /></g
    ><g style="text-rendering:optimizeSpeed; font-size:10px; font-family:'SansSerif';"
    ><path style="stroke:none;" d="M96 44 L97.875 44 C100.0938 44 101.2969 42.625 101.2969 40.3125 C101.2969 37.9844 100.0938 36.6562 97.8438 36.6562 L96 36.6562 L96 44 ZM96.9375 43.2344 L96.9375 37.4219 L97.7656 37.4219 C99.4844 37.4219 100.3438 38.4531 100.3438 40.3125 C100.3438 42.1562 99.4844 43.2344 97.7656 43.2344 L96.9375 43.2344 Z"
    /></g
    ><g style="fill:white; text-rendering:optimizeSpeed; stroke:white;"
    ><polygon style="stroke:none; clip-path:url(#clipPath4);" points=" 43 30 54 52 32 52"
      /><rect x="32" y="30" width="22" style="clip-path:url(#clipPath4); fill:rgb(0,166,81); stroke:none;" height="22"
      /><rect x="32" y="30" width="22" style="clip-path:url(#clipPath4); fill:none; stroke:black;" height="22"
      /><polygon style="fill:none; stroke:black;" points=" 43 30 54 52 32 52"
    /></g
    ><g style="text-rendering:optimizeSpeed; font-size:10px; font-family:'SansSerif';"
    ><path style="stroke:none;" d="M41 44 L42.875 44 C45.0938 44 46.2969 42.625 46.2969 40.3125 C46.2969 37.9844 45.0938 36.6562 42.8438 36.6562 L41 36.6562 L41 44 ZM41.9375 43.2344 L41.9375 37.4219 L42.7656 37.4219 C44.4844 37.4219 45.3438 38.4531 45.3438 40.3125 C45.3438 42.1562 44.4844 43.2344 42.7656 43.2344 L41.9375 43.2344 Z"
      /><rect x="30" y="58" width="25" style="fill:white; stroke:none;" height="10"
      /><path style="stroke:none;" d="M33.7031 69.1875 C35.5156 69.1875 36.9844 68.0938 36.9844 66.25 C36.9844 64.8594 36.0156 63.9375 34.8125 63.6562 L34.8125 63.5938 C35.8906 63.1875 36.6406 62.3594 36.6406 61.125 C36.6406 59.5 35.375 58.5469 33.6562 58.5469 C32.4688 58.5469 31.5469 59.0625 30.7812 59.7812 L31.4688 60.5938 C32.0469 60 32.7656 59.5938 33.5938 59.5938 C34.6562 59.5938 35.3281 60.2344 35.3281 61.2188 C35.3281 62.3281 34.6094 63.1719 32.4844 63.1719 L32.4844 64.1562 C34.8594 64.1562 35.6875 64.9844 35.6875 66.2031 C35.6875 67.3906 34.8125 68.125 33.5938 68.125 C32.4375 68.125 31.6562 67.5781 31.0469 66.9375 L30.4062 67.7812 C31.0781 68.5156 32.0938 69.1875 33.7031 69.1875 ZM39.1762 69 L40.3481 69 L40.3481 63.3125 C40.3481 62.4375 40.2543 61.1875 40.1918 60.2969 L40.2543 60.2969 L41.0668 62.625 L43.0043 67.9688 L43.8793 67.9688 L45.8168 62.625 L46.6293 60.2969 L46.6918 60.2969 C46.6137 61.1875 46.52 62.4375 46.52 63.3125 L46.52 69 L47.7387 69 L47.7387 58.7188 L46.1762 58.7188 L44.2075 64.2188 C43.9731 64.9375 43.7543 65.6562 43.5043 66.375 L43.4418 66.375 C43.1918 65.6562 42.9575 64.9375 42.7075 64.2188 L40.7387 58.7188 L39.1762 58.7188 L39.1762 69 ZM53.4973 69.1875 C54.5285 69.1875 55.341 68.8281 56.0129 68.3906 L55.5442 67.5625 C54.9973 67.9375 54.3879 68.1562 53.6535 68.1562 C52.2004 68.1562 51.216 67.125 51.1223 65.5 L56.2473 65.5 C56.2785 65.3125 56.3098 65.0469 56.3098 64.7656 C56.3098 62.6094 55.216 61.2031 53.2785 61.2031 C51.5129 61.2031 49.8567 62.7344 49.8567 65.2031 C49.8567 67.7188 51.4817 69.1875 53.4973 69.1875 ZM51.1067 64.5781 C51.2629 63.0938 52.216 62.2188 53.2942 62.2188 C54.4817 62.2188 55.1848 63.0469 55.1848 64.5781 L51.1067 64.5781 Z"
    /></g
    ><g style="fill:white; text-rendering:optimizeSpeed; font-family:'Serif'; stroke:white;"
    ><rect x="76" width="6" height="10" y="44" style="stroke:none;"
      /><path d="M78.2344 45.6562 C78.5156 45.5938 78.7656 45.5625 79.0156 45.5625 C80.0625 45.5625 80.6719 46.1719 80.6719 47.2656 C80.6719 48.4375 79.9062 49.1094 78.7031 49.1094 L78.1875 49.1094 L78.1875 49.6406 L78.7969 49.6406 C80.2188 49.6406 80.9062 50.4219 80.9062 51.6406 C80.9062 52.8438 80.1719 53.6875 78.875 53.6875 C78.6094 53.6875 78.3125 53.6562 78.0156 53.5625 L77.7812 52.8125 C77.625 52.2812 77.5 52.0469 77.1406 52.0469 C76.8906 52.0469 76.7031 52.1719 76.5781 52.4219 C76.8438 53.6406 77.7812 54.1719 79.0312 54.1719 C80.7188 54.1719 81.875 53.125 81.875 51.7031 C81.875 50.5 81.2031 49.625 79.7969 49.375 C80.9531 49.0156 81.6094 48.2031 81.6094 47.2031 C81.6094 45.9219 80.6719 45.0781 79.1875 45.0781 C78.0469 45.0781 77.0625 45.5938 76.7969 46.6875 C76.9062 47 77.1094 47.1094 77.3594 47.1094 C77.7344 47.1094 77.8906 46.8906 78 46.4062 L78.2344 45.6562 Z" style="fill:black; stroke:none;"
      /><rect x="61" width="8" height="8" y="45" style="stroke:none;"
      /><path d="M65.9844 50.7031 C65.9375 51.8906 65.1562 52.6562 64.3125 52.6562 C63.2656 52.6562 62.5 51.6875 62.5 49.7188 C62.5 48.2812 63.1562 47.1562 64.3438 47.1562 C65.1406 47.1562 65.7812 47.6875 66.0938 48.6406 L65.9844 50.7031 ZM67.9062 52.2812 C67.7344 52.375 67.5469 52.4219 67.3438 52.4219 C66.9531 52.4219 66.75 52.2188 66.75 51.4219 C66.75 50.4844 66.9688 48.5312 67.1875 46.8281 L67.0312 46.7188 L66.2344 46.9219 L66.1406 47.7969 C65.7812 47.0312 65.1562 46.6562 64.3906 46.6562 C63.0469 46.6562 61.5625 47.8438 61.5625 49.9531 C61.5625 52.0938 62.7188 53.1719 64.1406 53.1719 C65.0156 53.1719 65.6875 52.8125 66.0938 51.9844 C66.2031 52.8594 66.5156 53.1719 67.0156 53.1719 C67.4688 53.1719 67.7969 52.9062 68.0156 52.5625 L67.9062 52.2812 Z" style="fill:black; stroke:none;"
      /><rect x="128" width="6" height="10" y="44" style="stroke:none;"
      /><path d="M130.2344 45.6562 C130.5156 45.5938 130.7656 45.5625 131.0156 45.5625 C132.0625 45.5625 132.6719 46.1719 132.6719 47.2656 C132.6719 48.4375 131.9062 49.1094 130.7031 49.1094 L130.1875 49.1094 L130.1875 49.6406 L130.7969 49.6406 C132.2188 49.6406 132.9062 50.4219 132.9062 51.6406 C132.9062 52.8438 132.1719 53.6875 130.875 53.6875 C130.6094 53.6875 130.3125 53.6562 130.0156 53.5625 L129.7812 52.8125 C129.625 52.2812 129.5 52.0469 129.1406 52.0469 C128.8906 52.0469 128.7031 52.1719 128.5781 52.4219 C128.8438 53.6406 129.7812 54.1719 131.0312 54.1719 C132.7188 54.1719 133.875 53.125 133.875 51.7031 C133.875 50.5 133.2031 49.625 131.7969 49.375 C132.9531 49.0156 133.6094 48.2031 133.6094 47.2031 C133.6094 45.9219 132.6719 45.0781 131.1875 45.0781 C130.0469 45.0781 129.0625 45.5938 128.7969 46.6875 C128.9062 47 129.1094 47.1094 129.3594 47.1094 C129.7344 47.1094 129.8906 46.8906 130 46.4062 L130.2344 45.6562 Z" style="fill:black; stroke:none;"
      /><rect x="113" width="8" height="8" y="45" style="stroke:none;"
      /><path d="M117.9844 50.7031 C117.9375 51.8906 117.1562 52.6562 116.3125 52.6562 C115.2656 52.6562 114.5 51.6875 114.5 49.7188 C114.5 48.2812 115.1562 47.1562 116.3438 47.1562 C117.1406 47.1562 117.7812 47.6875 118.0938 48.6406 L117.9844 50.7031 ZM119.9062 52.2812 C119.7344 52.375 119.5469 52.4219 119.3438 52.4219 C118.9531 52.4219 118.75 52.2188 118.75 51.4219 C118.75 50.4844 118.9688 48.5312 119.1875 46.8281 L119.0312 46.7188 L118.2344 46.9219 L118.1406 47.7969 C117.7812 47.0312 117.1562 46.6562 116.3906 46.6562 C115.0469 46.6562 113.5625 47.8438 113.5625 49.9531 C113.5625 52.0938 114.7188 53.1719 116.1406 53.1719 C117.0156 53.1719 117.6875 52.8125 118.0938 51.9844 C118.2031 52.8594 118.5156 53.1719 119.0156 53.1719 C119.4688 53.1719 119.7969 52.9062 120.0156 52.5625 L119.9062 52.2812 Z" style="fill:black; stroke:none;"
      /><rect x="165" width="8" height="8" y="45" style="stroke:none;"
      /><path d="M169.9844 50.7031 C169.9375 51.8906 169.1562 52.6562 168.3125 52.6562 C167.2656 52.6562 166.5 51.6875 166.5 49.7188 C166.5 48.2812 167.1562 47.1562 168.3438 47.1562 C169.1406 47.1562 169.7812 47.6875 170.0938 48.6406 L169.9844 50.7031 ZM171.9062 52.2812 C171.7344 52.375 171.5469 52.4219 171.3438 52.4219 C170.9531 52.4219 170.75 52.2188 170.75 51.4219 C170.75 50.4844 170.9688 48.5312 171.1875 46.8281 L171.0312 46.7188 L170.2344 46.9219 L170.1406 47.7969 C169.7812 47.0312 169.1562 46.6562 168.3906 46.6562 C167.0469 46.6562 165.5625 47.8438 165.5625 49.9531 C165.5625 52.0938 166.7188 53.1719 168.1406 53.1719 C169.0156 53.1719 169.6875 52.8125 170.0938 51.9844 C170.2031 52.8594 170.5156 53.1719 171.0156 53.1719 C171.4688 53.1719 171.7969 52.9062 172.0156 52.5625 L171.9062 52.2812 Z" style="fill:black; stroke:none;"
    /></g
  ></g
></svg
>
