<?xml version="1.0"?>
<!DOCTYPE svg PUBLIC '-//W3C//DTD SVG 1.0//EN'
          'http://www.w3.org/TR/2001/REC-SVG-20010904/DTD/svg10.dtd'>
<svg xmlns:xlink="http://www.w3.org/1999/xlink" style="fill-opacity:1; color-rendering:auto; color-interpolation:auto; text-rendering:auto; stroke:black; stroke-linecap:square; stroke-miterlimit:10; shape-rendering:auto; stroke-opacity:1; fill:black; stroke-dasharray:none; font-weight:normal; stroke-width:1; font-family:'Dialog'; font-style:normal; stroke-linejoin:miter; font-size:12px; stroke-dashoffset:0; image-rendering:auto;" viewBox="0 0 342 160" xmlns="http://www.w3.org/2000/svg"
><!--Generated by the Batik Graphics2D SVG Generator--><defs id="genericDefs"
  /><g
  ><defs id="defs1"
    ><clipPath clipPathUnits="userSpaceOnUse" id="clipPath1"
      ><path style="fill-rule:evenodd;" d="M260 67 L254 74 L243 74 L238 67 L243 59 L254 59 L260 67 Z"
      /></clipPath
      ><clipPath clipPathUnits="userSpaceOnUse" id="clipPath2"
      ><path style="fill-rule:evenodd;" d="M208 67 L202 74 L191 74 L186 67 L191 59 L202 59 L208 67 Z"
      /></clipPath
      ><clipPath clipPathUnits="userSpaceOnUse" id="clipPath3"
      ><path d="M156 93 C156 99.0751 151.0751 104 145 104 C138.9249 104 134 99.0751 134 93 C134 86.9249 138.9249 82 145 82 C151.0751 82 156 86.9249 156 93 Z"
      /></clipPath
      ><clipPath clipPathUnits="userSpaceOnUse" id="clipPath4"
      ><path d="M104 119 C104 125.0751 99.0751 130 93 130 C86.9249 130 82 125.0751 82 119 C82 112.9249 86.9249 108 93 108 C99.0751 108 104 112.9249 104 119 Z"
      /></clipPath
      ><clipPath clipPathUnits="userSpaceOnUse" id="clipPath5"
      ><path d="M104 67 C104 73.0751 99.0751 78 93 78 C86.9249 78 82 73.0751 82 67 C82 60.9249 86.9249 56 93 56 C99.0751 56 104 60.9249 104 67 Z"
      /></clipPath
      ><clipPath clipPathUnits="userSpaceOnUse" id="clipPath6"
      ><path d="M52 67 C52 73.0751 47.0751 78 41 78 C34.9249 78 30 73.0751 30 67 C30 60.9249 34.9249 56 41 56 C47.0751 56 52 60.9249 52 67 Z"
      /></clipPath
      ><clipPath clipPathUnits="userSpaceOnUse" id="clipPath7"
      ><path style="fill-rule:evenodd;" d="M156 41 L150 48 L139 48 L134 41 L139 33 L150 33 L156 41 Z"
      /></clipPath
    ></defs
    ><g style="fill:white; text-rendering:optimizeSpeed; stroke:white;"
    ><rect x="0" width="342" height="160" y="0" style="stroke:none;"
      /><polygon style="fill:none; stroke:black;" points=" 301 67 249 67"
      /><path d="M301 56 C295.5 61.5 306.5 72.5 301 78" style="fill:none; stroke:black;"
      /><polygon style="fill:none; stroke:black;" points=" 249 67 197 67"
      /><polygon style="clip-path:url(#clipPath1); stroke:none;" points=" 260 67 254 74 243 74 238 67 243 59 254 59 260 67"
      /><rect x="238" y="56" width="22" style="clip-path:url(#clipPath1); fill:rgb(0,166,81); stroke:none;" height="22"
      /><rect x="238" y="56" width="22" style="clip-path:url(#clipPath1); fill:none; stroke:black;" height="22"
      /><polygon style="fill:none; stroke:black;" points=" 260 67 254 74 243 74 238 67 243 59 254 59 260 67"
      /><polygon style="fill:none; stroke:black;" points=" 197 67 145 93"
      /><polygon style="fill:none; stroke:black;" points=" 197 67 145 41"
      /><polygon style="clip-path:url(#clipPath2); stroke:none;" points=" 208 67 202 74 191 74 186 67 191 59 202 59 208 67"
      /><rect x="186" y="56" width="22" style="clip-path:url(#clipPath2); fill:rgb(0,166,81); stroke:none;" height="22"
      /><rect x="186" y="56" width="22" style="clip-path:url(#clipPath2); fill:none; stroke:black;" height="22"
      /><polygon style="fill:none; stroke:black;" points=" 208 67 202 74 191 74 186 67 191 59 202 59 208 67"
      /><polygon style="fill:none; stroke:black;" points=" 145 93 93 119"
      /><polygon style="fill:none; stroke:black;" points=" 145 93 93 67"
      /><circle style="clip-path:url(#clipPath3); stroke:none;" r="11" cx="145" cy="93"
      /><rect x="134" y="82" width="22" style="clip-path:url(#clipPath3); fill:rgb(0,144,188); stroke:none;" height="22"
      /><rect x="134" y="82" width="22" style="clip-path:url(#clipPath3); fill:none; stroke:black;" height="22"
      /><circle style="fill:none; stroke:black;" r="11" cx="145" cy="93"
      /><circle style="clip-path:url(#clipPath4); stroke:none;" r="11" cx="93" cy="119"
      /><rect x="82" y="108" width="22" style="clip-path:url(#clipPath4); fill:rgb(0,144,188); stroke:none;" height="22"
      /><rect x="82" y="108" width="22" style="clip-path:url(#clipPath4); fill:none; stroke:black;" height="22"
      /><circle style="fill:none; stroke:black;" r="11" cx="93" cy="119"
      /><polygon style="fill:none; stroke:black;" points=" 93 67 41 67"
      /><circle style="clip-path:url(#clipPath5); stroke:none;" r="11" cx="93" cy="67"
      /><rect x="82" y="56" width="22" style="clip-path:url(#clipPath5); fill:rgb(0,144,188); stroke:none;" height="22"
      /><rect x="82" y="56" width="22" style="clip-path:url(#clipPath5); fill:none; stroke:black;" height="22"
      /><circle style="fill:none; stroke:black;" r="11" cx="93" cy="67"
      /><circle style="clip-path:url(#clipPath6); stroke:none;" r="11" cx="41" cy="67"
      /><rect x="30" y="56" width="22" style="clip-path:url(#clipPath6); fill:rgb(0,144,188); stroke:none;" height="22"
      /><rect x="30" y="56" width="22" style="clip-path:url(#clipPath6); fill:none; stroke:black;" height="22"
      /><circle style="fill:none; stroke:black;" r="11" cx="41" cy="67"
      /><rect x="71" y="70" width="6" style="stroke:none;" height="10"
    /></g
    ><g style="font-family:'Serif'; text-rendering:optimizeSpeed; "
    ><path style="stroke:none;" d="M74.3438 79.6875 C73.2031 79.6875 72.5312 78.5 72.5312 76.2969 C72.5312 76.2188 72.5312 76.125 72.5312 76.0469 C73.0938 75.5 73.7188 75.3125 74.3438 75.3125 C75.3125 75.3125 75.9531 75.9844 75.9531 77.4531 C75.9531 78.9375 75.3125 79.6875 74.3438 79.6875 ZM76.5312 71.0781 C73.3438 71.4531 71.5625 73.7656 71.5625 76.4531 C71.5625 78.7812 72.6094 80.1719 74.3125 80.1719 C75.8438 80.1719 76.9219 79.1094 76.9219 77.2812 C76.9219 75.6875 75.9688 74.6562 74.5625 74.6562 C73.8281 74.6562 73.1406 74.9844 72.5781 75.5781 C72.7969 73.4062 74.0781 71.9688 76.5938 71.3906 L76.5312 71.0781 Z"
      /><rect x="56" y="71" width="8" style="fill:white; stroke:none;" height="8"
      /><path style="stroke:none;" d="M60.9844 76.7031 C60.9375 77.8906 60.1562 78.6562 59.3125 78.6562 C58.2656 78.6562 57.5 77.6875 57.5 75.7188 C57.5 74.2812 58.1562 73.1562 59.3438 73.1562 C60.1406 73.1562 60.7812 73.6875 61.0938 74.6406 L60.9844 76.7031 ZM62.9062 78.2812 C62.7344 78.375 62.5469 78.4219 62.3438 78.4219 C61.9531 78.4219 61.75 78.2188 61.75 77.4219 C61.75 76.4844 61.9688 74.5312 62.1875 72.8281 L62.0312 72.7188 L61.2344 72.9219 L61.1406 73.7969 C60.7812 73.0312 60.1562 72.6562 59.3906 72.6562 C58.0469 72.6562 56.5625 73.8438 56.5625 75.9531 C56.5625 78.0938 57.7188 79.1719 59.1406 79.1719 C60.0156 79.1719 60.6875 78.8125 61.0938 77.9844 C61.2031 78.8594 61.5156 79.1719 62.0156 79.1719 C62.4688 79.1719 62.7969 78.9062 63.0156 78.5625 L62.9062 78.2812 Z"
      /><rect x="127" y="104" width="6" style="fill:white; stroke:none;" height="9"
      /><path style="stroke:none;" d="M128.4219 112.0938 C129.0781 111.375 129.7031 110.7188 130.0312 110.3438 C131.9219 108.3125 132.5312 107.4688 132.5312 106.3594 C132.5312 105.0156 131.7812 104.0781 130.1562 104.0781 C128.9062 104.0781 127.7969 104.7031 127.5938 105.9688 C127.7188 106.2031 127.9062 106.3438 128.1562 106.3438 C128.4688 106.3438 128.6562 106.1094 128.7969 105.5938 L129.0938 104.6719 C129.3906 104.5938 129.6562 104.5625 129.8906 104.5625 C130.9219 104.5625 131.5469 105.3125 131.5469 106.4219 C131.5469 107.4375 130.9844 108.4219 129.7031 109.9062 C129.125 110.5781 128.3906 111.4375 127.6406 112.2812 L127.6406 113 L132.9219 113 L132.9219 112.0938 L128.4219 112.0938 Z"
      /><rect x="110" y="113" width="8" style="fill:white; stroke:none;" height="8"
      /><path style="stroke:none;" d="M114.9844 118.7031 C114.9375 119.8906 114.1562 120.6562 113.3125 120.6562 C112.2656 120.6562 111.5 119.6875 111.5 117.7188 C111.5 116.2812 112.1562 115.1562 113.3438 115.1562 C114.1406 115.1562 114.7812 115.6875 115.0938 116.6406 L114.9844 118.7031 ZM116.9062 120.2812 C116.7344 120.375 116.5469 120.4219 116.3438 120.4219 C115.9531 120.4219 115.75 120.2188 115.75 119.4219 C115.75 118.4844 115.9688 116.5312 116.1875 114.8281 L116.0312 114.7188 L115.2344 114.9219 L115.1406 115.7969 C114.7812 115.0312 114.1562 114.6562 113.3906 114.6562 C112.0469 114.6562 110.5625 115.8438 110.5625 117.9531 C110.5625 120.0938 111.7188 121.1719 113.1406 121.1719 C114.0156 121.1719 114.6875 120.8125 115.0938 119.9844 C115.2031 120.8594 115.5156 121.1719 116.0156 121.1719 C116.4688 121.1719 116.7969 120.9062 117.0156 120.5625 L116.9062 120.2812 Z"
      /><rect x="119" y="86" width="7" style="fill:white; stroke:none;" height="9"
      /><path style="stroke:none;" d="M120 91.5156 L122.9531 87.2656 L122.9531 91.5156 L120 91.5156 ZM125.2812 91.5156 L123.8594 91.5156 L123.8594 86.125 L123.2344 86.125 L119.3438 91.6406 L119.3438 92.1875 L122.9531 92.1875 L122.9531 95 L123.8594 95 L123.8594 92.1875 L125.2812 92.1875 L125.2812 91.5156 Z"
      /><rect x="104" y="76" width="6" style="fill:white; stroke:none;" height="13"
      /><path style="stroke:none;" d="M106.0938 82.2031 C106.0938 80.6562 106.75 79.8125 107.7969 79.8125 C108.7188 79.8125 109.2656 80.4531 109.2656 81.5156 C109.2656 82.7188 108.5 83.4375 107.1875 83.7031 L107.2969 84.3125 C109.2188 84.2344 109.9375 85.2188 109.9375 86.4375 C109.9375 87.625 109.2344 88.4219 107.9531 88.4219 C107.25 88.4219 106.6562 88.1562 106.0938 87.7188 L106.0938 82.2031 ZM105.2031 88.9062 L105.1094 91.375 L105.2656 91.4844 L106.1562 91.2656 L106.0156 88.0938 C106.5469 88.8438 107.3594 89.1719 108.1719 89.1719 C109.5625 89.1719 110.8594 88.2188 110.8594 86.4844 C110.8594 84.9531 109.875 84.1094 108.125 84 C109.5625 83.6094 110.1875 82.4531 110.1875 81.4844 C110.1875 80.0938 109.1562 79.3125 107.9062 79.3125 C106.2969 79.3125 105.2188 80.5469 105.2188 82.5156 L105.2031 88.9062 Z"
      /><polygon style="fill:white; clip-path:url(#clipPath7); stroke:none;" points=" 156 41 150 48 139 48 134 41 139 33 150 33 156 41"
      /><rect x="134" y="30" width="22" style="clip-path:url(#clipPath7); fill:rgb(0,166,81); stroke:none;" height="22"
      /><rect x="134" y="30" width="22" style="fill:none; clip-path:url(#clipPath7);" height="22"
      /><polygon style="fill:none;" points=" 156 41 150 48 139 48 134 41 139 33 150 33 156 41"
      /><rect x="179" y="78" width="6" style="fill:white; stroke:none;" height="10"
      /><path style="stroke:none;" d="M181.2344 79.6562 C181.5156 79.5938 181.7656 79.5625 182.0156 79.5625 C183.0625 79.5625 183.6719 80.1719 183.6719 81.2656 C183.6719 82.4375 182.9062 83.1094 181.7031 83.1094 L181.1875 83.1094 L181.1875 83.6406 L181.7969 83.6406 C183.2188 83.6406 183.9062 84.4219 183.9062 85.6406 C183.9062 86.8438 183.1719 87.6875 181.875 87.6875 C181.6094 87.6875 181.3125 87.6562 181.0156 87.5625 L180.7812 86.8125 C180.625 86.2812 180.5 86.0469 180.1406 86.0469 C179.8906 86.0469 179.7031 86.1719 179.5781 86.4219 C179.8438 87.6406 180.7812 88.1719 182.0312 88.1719 C183.7188 88.1719 184.875 87.125 184.875 85.7031 C184.875 84.5 184.2031 83.625 182.7969 83.375 C183.9531 83.0156 184.6094 82.2031 184.6094 81.2031 C184.6094 79.9219 183.6719 79.0781 182.1875 79.0781 C181.0469 79.0781 180.0625 79.5938 179.7969 80.6875 C179.9062 81 180.1094 81.1094 180.3594 81.1094 C180.7344 81.1094 180.8906 80.8906 181 80.4062 L181.2344 79.6562 Z"
      /><rect x="162" y="87" width="8" style="fill:white; stroke:none;" height="8"
      /><path style="stroke:none;" d="M166.9844 92.7031 C166.9375 93.8906 166.1562 94.6562 165.3125 94.6562 C164.2656 94.6562 163.5 93.6875 163.5 91.7188 C163.5 90.2812 164.1562 89.1562 165.3438 89.1562 C166.1406 89.1562 166.7812 89.6875 167.0938 90.6406 L166.9844 92.7031 ZM168.9062 94.2812 C168.7344 94.375 168.5469 94.4219 168.3438 94.4219 C167.9531 94.4219 167.75 94.2188 167.75 93.4219 C167.75 92.4844 167.9688 90.5312 168.1875 88.8281 L168.0312 88.7188 L167.2344 88.9219 L167.1406 89.7969 C166.7812 89.0312 166.1562 88.6562 165.3906 88.6562 C164.0469 88.6562 162.5625 89.8438 162.5625 91.9531 C162.5625 94.0938 163.7188 95.1719 165.1406 95.1719 C166.0156 95.1719 166.6875 94.8125 167.0938 93.9844 C167.2031 94.8594 167.5156 95.1719 168.0156 95.1719 C168.4688 95.1719 168.7969 94.9062 169.0156 94.5625 L168.9062 94.2812 Z"
      /><rect x="172" y="60" width="6" style="fill:white; stroke:none;" height="9"
      /><path style="stroke:none;" d="M172.6406 60.25 L172.6406 61.1406 L177.2031 61.1406 L173.7812 68.875 L173.8906 69 L174.75 69 L177.875 60.7969 L177.875 60.25 L172.6406 60.25 Z"
      /><rect x="155" y="53" width="8" style="fill:white; stroke:none;" height="8"
      /><path style="stroke:none;" d="M159.9844 58.7031 C159.9375 59.8906 159.1562 60.6562 158.3125 60.6562 C157.2656 60.6562 156.5 59.6875 156.5 57.7188 C156.5 56.2812 157.1562 55.1562 158.3438 55.1562 C159.1406 55.1562 159.7812 55.6875 160.0938 56.6406 L159.9844 58.7031 ZM161.9062 60.2812 C161.7344 60.375 161.5469 60.4219 161.3438 60.4219 C160.9531 60.4219 160.75 60.2188 160.75 59.4219 C160.75 58.4844 160.9688 56.5312 161.1875 54.8281 L161.0312 54.7188 L160.2344 54.9219 L160.1406 55.7969 C159.7812 55.0312 159.1562 54.6562 158.3906 54.6562 C157.0469 54.6562 155.5625 55.8438 155.5625 57.9531 C155.5625 60.0938 156.7188 61.1719 158.1406 61.1719 C159.0156 61.1719 159.6875 60.8125 160.0938 59.9844 C160.2031 60.8594 160.5156 61.1719 161.0156 61.1719 C161.4688 61.1719 161.7969 60.9062 162.0156 60.5625 L161.9062 60.2812 Z"
      /><rect x="227" y="70" width="6" style="fill:white; stroke:none;" height="10"
      /><path style="stroke:none;" d="M229.2344 71.6562 C229.5156 71.5938 229.7656 71.5625 230.0156 71.5625 C231.0625 71.5625 231.6719 72.1719 231.6719 73.2656 C231.6719 74.4375 230.9062 75.1094 229.7031 75.1094 L229.1875 75.1094 L229.1875 75.6406 L229.7969 75.6406 C231.2188 75.6406 231.9062 76.4219 231.9062 77.6406 C231.9062 78.8438 231.1719 79.6875 229.875 79.6875 C229.6094 79.6875 229.3125 79.6562 229.0156 79.5625 L228.7812 78.8125 C228.625 78.2812 228.5 78.0469 228.1406 78.0469 C227.8906 78.0469 227.7031 78.1719 227.5781 78.4219 C227.8438 79.6406 228.7812 80.1719 230.0312 80.1719 C231.7188 80.1719 232.875 79.125 232.875 77.7031 C232.875 76.5 232.2031 75.625 230.7969 75.375 C231.9531 75.0156 232.6094 74.2031 232.6094 73.2031 C232.6094 71.9219 231.6719 71.0781 230.1875 71.0781 C229.0469 71.0781 228.0625 71.5938 227.7969 72.6875 C227.9062 73 228.1094 73.1094 228.3594 73.1094 C228.7344 73.1094 228.8906 72.8906 229 72.4062 L229.2344 71.6562 Z"
      /><rect x="212" y="71" width="8" style="fill:white; stroke:none;" height="8"
      /><path style="stroke:none;" d="M216.9844 76.7031 C216.9375 77.8906 216.1562 78.6562 215.3125 78.6562 C214.2656 78.6562 213.5 77.6875 213.5 75.7188 C213.5 74.2812 214.1562 73.1562 215.3438 73.1562 C216.1406 73.1562 216.7812 73.6875 217.0938 74.6406 L216.9844 76.7031 ZM218.9062 78.2812 C218.7344 78.375 218.5469 78.4219 218.3438 78.4219 C217.9531 78.4219 217.75 78.2188 217.75 77.4219 C217.75 76.4844 217.9688 74.5312 218.1875 72.8281 L218.0312 72.7188 L217.2344 72.9219 L217.1406 73.7969 C216.7812 73.0312 216.1562 72.6562 215.3906 72.6562 C214.0469 72.6562 212.5625 73.8438 212.5625 75.9531 C212.5625 78.0938 213.7188 79.1719 215.1406 79.1719 C216.0156 79.1719 216.6875 78.8125 217.0938 77.9844 C217.2031 78.8594 217.5156 79.1719 218.0156 79.1719 C218.4688 79.1719 218.7969 78.9062 219.0156 78.5625 L218.9062 78.2812 Z"
      /><rect x="265" y="70" width="5" style="fill:white; stroke:none;" height="10"
      /><path style="stroke:none;" d="M266.8906 78.6875 C266.4844 78.6875 266.1562 79.0469 266.1562 79.4219 C266.1562 79.8125 266.4844 80.1562 266.8906 80.1562 C267.2969 80.1562 267.6406 79.8125 267.6406 79.4219 C267.6406 79.0469 267.2969 78.6875 266.8906 78.6875 ZM268.4688 72.5781 C268.7188 72.8906 268.875 73.2656 268.8906 73.6562 C268.8906 74.1875 268.625 74.5 268.0312 74.7656 L267.4062 75.0156 C266.6406 75.3125 266.3906 75.5469 266.3906 75.9375 C266.3906 76.1094 266.4531 76.3438 266.5781 76.8125 L266.7344 77.3438 L267.1094 77.3438 L267.0938 76.5312 C267.0938 76.0938 267.2031 75.9688 267.7812 75.7344 L268.2031 75.5625 C269.0312 75.2188 269.4531 74.6875 269.4531 73.8438 C269.4531 72.1562 267.6562 71.1875 266.5 71.0312 C266.1094 71.125 265.9062 71.2969 265.9062 71.6406 C265.9062 71.9375 266.0625 72.1562 266.7188 72.2656 L268.4688 72.5781 Z"
    /></g
  ></g
></svg
>
