<?xml version="1.0"?>
<!DOCTYPE svg PUBLIC '-//W3C//DTD SVG 1.0//EN'
          'http://www.w3.org/TR/2001/REC-SVG-20010904/DTD/svg10.dtd'>
<svg xmlns:xlink="http://www.w3.org/1999/xlink" style="fill-opacity:1; color-rendering:auto; color-interpolation:auto; text-rendering:auto; stroke:black; stroke-linecap:square; stroke-miterlimit:10; shape-rendering:auto; stroke-opacity:1; fill:black; stroke-dasharray:none; font-weight:normal; stroke-width:1; font-family:'Dialog'; font-style:normal; stroke-linejoin:miter; font-size:12px; stroke-dashoffset:0; image-rendering:auto;" viewBox="0 0 654 596" xmlns="http://www.w3.org/2000/svg"
><!--Generated by the Batik Graphics2D SVG Generator--><defs id="genericDefs"
  /><g
  ><defs id="defs1"
    ><clipPath clipPathUnits="userSpaceOnUse" id="clipPath1"
      ><path d="M550 154 L572 154 L572 176 L550 176 L550 154 Z"
      /></clipPath
      ><clipPath clipPathUnits="userSpaceOnUse" id="clipPath2"
      ><path d="M498 154 L520 154 L520 176 L498 176 L498 154 Z"
      /></clipPath
      ><clipPath clipPathUnits="userSpaceOnUse" id="clipPath3"
      ><path d="M468 165 C468 171.0751 463.0751 176 457 176 C450.9249 176 446 171.0751 446 165 C446 158.9249 450.9249 154 457 154 C463.0751 154 468 158.9249 468 165 Z"
      /></clipPath
      ><clipPath clipPathUnits="userSpaceOnUse" id="clipPath4"
      ><path d="M416 253 C416 259.0751 411.0751 264 405 264 C398.9249 264 394 259.0751 394 253 C394 246.9249 398.9249 242 405 242 C411.0751 242 416 246.9249 416 253 Z"
      /></clipPath
      ><clipPath clipPathUnits="userSpaceOnUse" id="clipPath5"
      ><path d="M364 316 C364 322.0751 359.0751 327 353 327 C346.9249 327 342 322.0751 342 316 C342 309.9249 346.9249 305 353 305 C359.0751 305 364 309.9249 364 316 Z"
      /></clipPath
      ><clipPath clipPathUnits="userSpaceOnUse" id="clipPath6"
      ><path d="M312 389 C312 395.0751 307.0751 400 301 400 C294.9249 400 290 395.0751 290 389 C290 382.9249 294.9249 378 301 378 C307.0751 378 312 382.9249 312 389 Z"
      /></clipPath
      ><clipPath clipPathUnits="userSpaceOnUse" id="clipPath7"
      ><path d="M260 457 C260 463.0751 255.0751 468 249 468 C242.9249 468 238 463.0751 238 457 C238 450.9249 242.9249 446 249 446 C255.0751 446 260 450.9249 260 457 Z"
      /></clipPath
      ><clipPath clipPathUnits="userSpaceOnUse" id="clipPath8"
      ><path d="M208 516 C208 522.0751 203.0751 527 197 527 C190.9249 527 186 522.0751 186 516 C186 509.9249 190.9249 505 197 505 C203.0751 505 208 509.9249 208 516 Z"
      /></clipPath
      ><clipPath clipPathUnits="userSpaceOnUse" id="clipPath9"
      ><path d="M156 555 C156 561.0751 151.0751 566 145 566 C138.9249 566 134 561.0751 134 555 C134 548.9249 138.9249 544 145 544 C151.0751 544 156 548.9249 156 555 Z"
      /></clipPath
      ><clipPath clipPathUnits="userSpaceOnUse" id="clipPath10"
      ><path d="M104 555 C104 561.0751 99.0751 566 93 566 C86.9249 566 82 561.0751 82 555 C82 548.9249 86.9249 544 93 544 C99.0751 544 104 548.9249 104 555 Z"
      /></clipPath
      ><clipPath clipPathUnits="userSpaceOnUse" id="clipPath11"
      ><path d="M52 555 C52 561.0751 47.0751 566 41 566 C34.9249 566 30 561.0751 30 555 C30 548.9249 34.9249 544 41 544 C47.0751 544 52 548.9249 52 555 Z"
      /></clipPath
      ><clipPath clipPathUnits="userSpaceOnUse" id="clipPath12"
      ><path d="M156 477 C156 483.0751 151.0751 488 145 488 C138.9249 488 134 483.0751 134 477 C134 470.9249 138.9249 466 145 466 C151.0751 466 156 470.9249 156 477 Z"
      /></clipPath
      ><clipPath clipPathUnits="userSpaceOnUse" id="clipPath13"
      ><path d="M104 503 C104 509.0751 99.0751 514 93 514 C86.9249 514 82 509.0751 82 503 C82 496.9249 86.9249 492 93 492 C99.0751 492 104 496.9249 104 503 Z"
      /></clipPath
      ><clipPath clipPathUnits="userSpaceOnUse" id="clipPath14"
      ><path d="M104 451 C104 457.0751 99.0751 462 93 462 C86.9249 462 82 457.0751 82 451 C82 444.9249 86.9249 440 93 440 C99.0751 440 104 444.9249 104 451 Z"
      /></clipPath
      ><clipPath clipPathUnits="userSpaceOnUse" id="clipPath15"
      ><path d="M208 399 C208 405.0751 203.0751 410 197 410 C190.9249 410 186 405.0751 186 399 C186 392.9249 190.9249 388 197 388 C203.0751 388 208 392.9249 208 399 Z"
      /></clipPath
      ><clipPath clipPathUnits="userSpaceOnUse" id="clipPath16"
      ><path d="M156 399 C156 405.0751 151.0751 410 145 410 C138.9249 410 134 405.0751 134 399 C134 392.9249 138.9249 388 145 388 C151.0751 388 156 392.9249 156 399 Z"
      /></clipPath
      ><clipPath clipPathUnits="userSpaceOnUse" id="clipPath17"
      ><path d="M104 399 C104 405.0751 99.0751 410 93 410 C86.9249 410 82 405.0751 82 399 C82 392.9249 86.9249 388 93 388 C99.0751 388 104 392.9249 104 399 Z"
      /></clipPath
      ><clipPath clipPathUnits="userSpaceOnUse" id="clipPath18"
      ><path d="M260 321 C260 327.0751 255.0751 332 249 332 C242.9249 332 238 327.0751 238 321 C238 314.9249 242.9249 310 249 310 C255.0751 310 260 314.9249 260 321 Z"
      /></clipPath
      ><clipPath clipPathUnits="userSpaceOnUse" id="clipPath19"
      ><path d="M208 347 C208 353.0751 203.0751 358 197 358 C190.9249 358 186 353.0751 186 347 C186 340.9249 190.9249 336 197 336 C203.0751 336 208 340.9249 208 347 Z"
      /></clipPath
      ><clipPath clipPathUnits="userSpaceOnUse" id="clipPath20"
      ><path d="M156 347 C156 353.0751 151.0751 358 145 358 C138.9249 358 134 353.0751 134 347 C134 340.9249 138.9249 336 145 336 C151.0751 336 156 340.9249 156 347 Z"
      /></clipPath
      ><clipPath clipPathUnits="userSpaceOnUse" id="clipPath21"
      ><path d="M156 295 C156 301.0751 151.0751 306 145 306 C138.9249 306 134 301.0751 134 295 C134 288.9249 138.9249 284 145 284 C151.0751 284 156 288.9249 156 295 Z"
      /></clipPath
      ><clipPath clipPathUnits="userSpaceOnUse" id="clipPath22"
      ><path d="M104 295 C104 301.0751 99.0751 306 93 306 C86.9249 306 82 301.0751 82 295 C82 288.9249 86.9249 284 93 284 C99.0751 284 104 288.9249 104 295 Z"
      /></clipPath
      ><clipPath clipPathUnits="userSpaceOnUse" id="clipPath23"
      ><path d="M312 243 C312 249.0751 307.0751 254 301 254 C294.9249 254 290 249.0751 290 243 C290 236.9249 294.9249 232 301 232 C307.0751 232 312 236.9249 312 243 Z"
      /></clipPath
      ><clipPath clipPathUnits="userSpaceOnUse" id="clipPath24"
      ><path d="M260 243 C260 249.0751 255.0751 254 249 254 C242.9249 254 238 249.0751 238 243 C238 236.9249 242.9249 232 249 232 C255.0751 232 260 236.9249 260 243 Z"
      /></clipPath
      ><clipPath clipPathUnits="userSpaceOnUse" id="clipPath25"
      ><path d="M208 243 C208 249.0751 203.0751 254 197 254 C190.9249 254 186 249.0751 186 243 C186 236.9249 190.9249 232 197 232 C203.0751 232 208 236.9249 208 243 Z"
      /></clipPath
      ><clipPath clipPathUnits="userSpaceOnUse" id="clipPath26"
      ><path d="M364 191 C364 197.0751 359.0751 202 353 202 C346.9249 202 342 197.0751 342 191 C342 184.9249 346.9249 180 353 180 C359.0751 180 364 184.9249 364 191 Z"
      /></clipPath
      ><clipPath clipPathUnits="userSpaceOnUse" id="clipPath27"
      ><path d="M312 191 C312 197.0751 307.0751 202 301 202 C294.9249 202 290 197.0751 290 191 C290 184.9249 294.9249 180 301 180 C307.0751 180 312 184.9249 312 191 Z"
      /></clipPath
      ><clipPath clipPathUnits="userSpaceOnUse" id="clipPath28"
      ><path d="M416 78 C416 84.0751 411.0751 89 405 89 C398.9249 89 394 84.0751 394 78 C394 71.9249 398.9249 67 405 67 C411.0751 67 416 71.9249 416 78 Z"
      /></clipPath
      ><clipPath clipPathUnits="userSpaceOnUse" id="clipPath29"
      ><path d="M364 116 C364 122.0751 359.0751 127 353 127 C346.9249 127 342 122.0751 342 116 C342 109.9249 346.9249 105 353 105 C359.0751 105 364 109.9249 364 116 Z"
      /></clipPath
      ><clipPath clipPathUnits="userSpaceOnUse" id="clipPath30"
      ><path d="M312 116 C312 122.0751 307.0751 127 301 127 C294.9249 127 290 122.0751 290 116 C290 109.9249 294.9249 105 301 105 C307.0751 105 312 109.9249 312 116 Z"
      /></clipPath
      ><clipPath clipPathUnits="userSpaceOnUse" id="clipPath31"
      ><path d="M364 41 C364 47.0751 359.0751 52 353 52 C346.9249 52 342 47.0751 342 41 C342 34.9249 346.9249 30 353 30 C359.0751 30 364 34.9249 364 41 Z"
      /></clipPath
    ></defs
    ><g style="fill:white; text-rendering:optimizeSpeed; stroke:white;"
    ><rect x="0" width="654" height="596" y="0" style="stroke:none;"
      /><polygon style="fill:none; stroke:black;" points=" 613 165 561 165"
      /><path d="M613 154 C607.5 159.5 618.5 170.5 613 176" style="fill:none; stroke:black;"
      /><polygon style="fill:none; stroke:black;" points=" 561 165 509 165"
      /><rect x="550" y="154" width="22" style="clip-path:url(#clipPath1); stroke:none;" height="22"
      /><rect x="550" y="154" width="22" style="clip-path:url(#clipPath1); fill:rgb(0,144,188); stroke:none;" height="22"
      /><rect x="550" y="154" width="22" style="clip-path:url(#clipPath1); fill:none; stroke:black;" height="22"
      /><rect x="550" y="154" width="22" style="fill:none; stroke:black;" height="22"
      /><polygon style="fill:none; stroke:black;" points=" 509 165 457 165"
      /><rect x="498" y="154" width="22" style="clip-path:url(#clipPath2); stroke:none;" height="22"
      /><rect x="498" y="154" width="22" style="clip-path:url(#clipPath2); fill:rgb(0,144,188); stroke:none;" height="22"
      /><rect x="498" y="154" width="22" style="clip-path:url(#clipPath2); fill:none; stroke:black;" height="22"
      /><rect x="498" y="154" width="22" style="fill:none; stroke:black;" height="22"
      /><polygon style="fill:none; stroke:black;" points=" 457 165 405 253"
      /><polygon style="fill:none; stroke:black;" points=" 457 165 405 78"
      /><circle style="clip-path:url(#clipPath3); stroke:none;" r="11" cx="457" cy="165"
      /><rect x="446" y="154" width="22" style="clip-path:url(#clipPath3); fill:rgb(0,166,81); stroke:none;" height="22"
      /><rect x="446" y="154" width="22" style="clip-path:url(#clipPath3); fill:none; stroke:black;" height="22"
      /><circle style="fill:none; stroke:black;" r="11" cx="457" cy="165"
      /><polygon style="fill:none; stroke:black;" points=" 405 253 353 316"
      /><polygon style="fill:none; stroke:black;" points=" 405 253 353 191"
      /><circle style="clip-path:url(#clipPath4); stroke:none;" r="11" cx="405" cy="253"
      /><rect x="394" y="242" width="22" style="clip-path:url(#clipPath4); fill:rgb(0,166,81); stroke:none;" height="22"
      /><rect x="394" y="242" width="22" style="clip-path:url(#clipPath4); fill:none; stroke:black;" height="22"
      /><circle style="fill:none; stroke:black;" r="11" cx="405" cy="253"
      /><polygon style="fill:none; stroke:black;" points=" 353 316 301 389"
      /><polygon style="fill:none; stroke:black;" points=" 353 316 301 243"
      /><circle style="clip-path:url(#clipPath5); stroke:none;" r="11" cx="353" cy="316"
      /><rect x="342" y="305" width="22" style="clip-path:url(#clipPath5); fill:rgb(0,166,81); stroke:none;" height="22"
      /><rect x="342" y="305" width="22" style="clip-path:url(#clipPath5); fill:none; stroke:black;" height="22"
      /><circle style="fill:none; stroke:black;" r="11" cx="353" cy="316"
      /><polygon style="fill:none; stroke:black;" points=" 301 389 249 457"
      /><polygon style="fill:none; stroke:black;" points=" 301 389 249 321"
      /><circle style="clip-path:url(#clipPath6); stroke:none;" r="11" cx="301" cy="389"
      /><rect x="290" y="378" width="22" style="clip-path:url(#clipPath6); fill:rgb(0,166,81); stroke:none;" height="22"
      /><rect x="290" y="378" width="22" style="clip-path:url(#clipPath6); fill:none; stroke:black;" height="22"
      /><circle style="fill:none; stroke:black;" r="11" cx="301" cy="389"
      /><polygon style="fill:none; stroke:black;" points=" 249 457 197 516"
      /><polygon style="fill:none; stroke:black;" points=" 249 457 197 399"
      /><circle style="clip-path:url(#clipPath7); stroke:none;" r="11" cx="249" cy="457"
      /><rect x="238" y="446" width="22" style="clip-path:url(#clipPath7); fill:rgb(0,166,81); stroke:none;" height="22"
      /><rect x="238" y="446" width="22" style="clip-path:url(#clipPath7); fill:none; stroke:black;" height="22"
      /><circle style="fill:none; stroke:black;" r="11" cx="249" cy="457"
      /><polygon style="fill:none; stroke:black;" points=" 197 516 145 555"
      /><polygon style="fill:none; stroke:black;" points=" 197 516 145 477"
      /><circle style="clip-path:url(#clipPath8); stroke:none;" r="11" cx="197" cy="516"
      /><rect x="186" y="505" width="22" style="clip-path:url(#clipPath8); fill:rgb(0,166,81); stroke:none;" height="22"
      /><rect x="186" y="505" width="22" style="clip-path:url(#clipPath8); fill:none; stroke:black;" height="22"
      /><circle style="fill:none; stroke:black;" r="11" cx="197" cy="516"
      /><polygon style="fill:none; stroke:black;" points=" 145 555 93 555"
      /><circle style="clip-path:url(#clipPath9); stroke:none;" r="11" cx="145" cy="555"
      /><rect x="134" y="544" width="22" style="clip-path:url(#clipPath9); fill:rgb(0,166,81); stroke:none;" height="22"
      /><rect x="134" y="544" width="22" style="clip-path:url(#clipPath9); fill:none; stroke:black;" height="22"
      /><circle style="fill:none; stroke:black;" r="11" cx="145" cy="555"
      /><polygon style="fill:none; stroke:black;" points=" 93 555 41 555"
      /><circle style="clip-path:url(#clipPath10); stroke:none;" r="11" cx="93" cy="555"
      /><rect x="82" y="544" width="22" style="clip-path:url(#clipPath10); fill:rgb(0,166,81); stroke:none;" height="22"
      /><rect x="82" y="544" width="22" style="clip-path:url(#clipPath10); fill:none; stroke:black;" height="22"
      /><circle style="fill:none; stroke:black;" r="11" cx="93" cy="555"
      /><circle style="clip-path:url(#clipPath11); stroke:none;" r="11" cx="41" cy="555"
      /><rect x="30" y="544" width="22" style="clip-path:url(#clipPath11); fill:rgb(0,166,81); stroke:none;" height="22"
      /><rect x="30" y="544" width="22" style="clip-path:url(#clipPath11); fill:none; stroke:black;" height="22"
      /><circle style="fill:none; stroke:black;" r="11" cx="41" cy="555"
      /><rect x="71" y="558" width="5" style="stroke:none;" height="10"
    /></g
    ><g style="font-family:'Serif'; text-rendering:optimizeSpeed; "
    ><path style="stroke:none;" d="M72.8906 566.6875 C72.4844 566.6875 72.1562 567.0469 72.1562 567.4219 C72.1562 567.8125 72.4844 568.1562 72.8906 568.1562 C73.2969 568.1562 73.6406 567.8125 73.6406 567.4219 C73.6406 567.0469 73.2969 566.6875 72.8906 566.6875 ZM74.4688 560.5781 C74.7188 560.8906 74.875 561.2656 74.8906 561.6562 C74.8906 562.1875 74.625 562.5 74.0312 562.7656 L73.4062 563.0156 C72.6406 563.3125 72.3906 563.5469 72.3906 563.9375 C72.3906 564.1094 72.4531 564.3438 72.5781 564.8125 L72.7344 565.3438 L73.1094 565.3438 L73.0938 564.5312 C73.0938 564.0938 73.2031 563.9688 73.7812 563.7344 L74.2031 563.5625 C75.0312 563.2188 75.4531 562.6875 75.4531 561.8438 C75.4531 560.1562 73.6562 559.1875 72.5 559.0312 C72.1094 559.125 71.9062 559.2969 71.9062 559.6406 C71.9062 559.9375 72.0625 560.1562 72.7188 560.2656 L74.4688 560.5781 Z"
      /><rect x="57" y="558" width="5" style="fill:white; stroke:none;" height="10"
      /><path style="stroke:none;" d="M58.8906 566.6875 C58.4844 566.6875 58.1562 567.0469 58.1562 567.4219 C58.1562 567.8125 58.4844 568.1562 58.8906 568.1562 C59.2969 568.1562 59.6406 567.8125 59.6406 567.4219 C59.6406 567.0469 59.2969 566.6875 58.8906 566.6875 ZM60.4688 560.5781 C60.7188 560.8906 60.875 561.2656 60.8906 561.6562 C60.8906 562.1875 60.625 562.5 60.0312 562.7656 L59.4062 563.0156 C58.6406 563.3125 58.3906 563.5469 58.3906 563.9375 C58.3906 564.1094 58.4531 564.3438 58.5781 564.8125 L58.7344 565.3438 L59.1094 565.3438 L59.0938 564.5312 C59.0938 564.0938 59.2031 563.9688 59.7812 563.7344 L60.2031 563.5625 C61.0312 563.2188 61.4531 562.6875 61.4531 561.8438 C61.4531 560.1562 59.6562 559.1875 58.5 559.0312 C58.1094 559.125 57.9062 559.2969 57.9062 559.6406 C57.9062 559.9375 58.0625 560.1562 58.7188 560.2656 L60.4688 560.5781 Z"
      /><rect x="123" y="558" width="5" style="fill:white; stroke:none;" height="10"
      /><path style="stroke:none;" d="M124.8906 566.6875 C124.4844 566.6875 124.1562 567.0469 124.1562 567.4219 C124.1562 567.8125 124.4844 568.1562 124.8906 568.1562 C125.2969 568.1562 125.6406 567.8125 125.6406 567.4219 C125.6406 567.0469 125.2969 566.6875 124.8906 566.6875 ZM126.4688 560.5781 C126.7188 560.8906 126.875 561.2656 126.8906 561.6562 C126.8906 562.1875 126.625 562.5 126.0312 562.7656 L125.4062 563.0156 C124.6406 563.3125 124.3906 563.5469 124.3906 563.9375 C124.3906 564.1094 124.4531 564.3438 124.5781 564.8125 L124.7344 565.3438 L125.1094 565.3438 L125.0938 564.5312 C125.0938 564.0938 125.2031 563.9688 125.7812 563.7344 L126.2031 563.5625 C127.0312 563.2188 127.4531 562.6875 127.4531 561.8438 C127.4531 560.1562 125.6562 559.1875 124.5 559.0312 C124.1094 559.125 123.9062 559.2969 123.9062 559.6406 C123.9062 559.9375 124.0625 560.1562 124.7188 560.2656 L126.4688 560.5781 Z"
      /><rect x="109" y="558" width="5" style="fill:white; stroke:none;" height="10"
      /><path style="stroke:none;" d="M110.8906 566.6875 C110.4844 566.6875 110.1562 567.0469 110.1562 567.4219 C110.1562 567.8125 110.4844 568.1562 110.8906 568.1562 C111.2969 568.1562 111.6406 567.8125 111.6406 567.4219 C111.6406 567.0469 111.2969 566.6875 110.8906 566.6875 ZM112.4688 560.5781 C112.7188 560.8906 112.875 561.2656 112.8906 561.6562 C112.8906 562.1875 112.625 562.5 112.0312 562.7656 L111.4062 563.0156 C110.6406 563.3125 110.3906 563.5469 110.3906 563.9375 C110.3906 564.1094 110.4531 564.3438 110.5781 564.8125 L110.7344 565.3438 L111.1094 565.3438 L111.0938 564.5312 C111.0938 564.0938 111.2031 563.9688 111.7812 563.7344 L112.2031 563.5625 C113.0312 563.2188 113.4531 562.6875 113.4531 561.8438 C113.4531 560.1562 111.6562 559.1875 110.5 559.0312 C110.1094 559.125 109.9062 559.2969 109.9062 559.6406 C109.9062 559.9375 110.0625 560.1562 110.7188 560.2656 L112.4688 560.5781 Z"
      /><polygon style="fill:none;" points=" 145 477 93 503"
      /><polygon style="fill:none;" points=" 145 477 93 451"
      /><circle style="fill:white; clip-path:url(#clipPath12); stroke:none;" r="11" cx="145" cy="477"
      /><rect x="134" y="466" width="22" style="clip-path:url(#clipPath12); fill:rgb(0,166,81); stroke:none;" height="22"
      /><rect x="134" y="466" width="22" style="fill:none; clip-path:url(#clipPath12);" height="22"
      /><circle r="11" style="fill:none;" cx="145" cy="477"
      /><circle style="fill:white; clip-path:url(#clipPath13); stroke:none;" r="11" cx="93" cy="503"
      /><rect x="82" y="492" width="22" style="clip-path:url(#clipPath13); fill:rgb(0,166,81); stroke:none;" height="22"
      /><rect x="82" y="492" width="22" style="fill:none; clip-path:url(#clipPath13);" height="22"
      /><circle r="11" style="fill:none;" cx="93" cy="503"
      /><circle style="fill:white; clip-path:url(#clipPath14); stroke:none;" r="11" cx="93" cy="451"
      /><rect x="82" y="440" width="22" style="clip-path:url(#clipPath14); fill:rgb(0,166,81); stroke:none;" height="22"
      /><rect x="82" y="440" width="22" style="fill:none; clip-path:url(#clipPath14);" height="22"
      /><circle r="11" style="fill:none;" cx="93" cy="451"
      /><rect x="127" y="488" width="5" style="fill:white; stroke:none;" height="10"
      /><path style="stroke:none;" d="M128.8906 496.6875 C128.4844 496.6875 128.1562 497.0469 128.1562 497.4219 C128.1562 497.8125 128.4844 498.1562 128.8906 498.1562 C129.2969 498.1562 129.6406 497.8125 129.6406 497.4219 C129.6406 497.0469 129.2969 496.6875 128.8906 496.6875 ZM130.4688 490.5781 C130.7188 490.8906 130.875 491.2656 130.8906 491.6562 C130.8906 492.1875 130.625 492.5 130.0312 492.7656 L129.4062 493.0156 C128.6406 493.3125 128.3906 493.5469 128.3906 493.9375 C128.3906 494.1094 128.4531 494.3438 128.5781 494.8125 L128.7344 495.3438 L129.1094 495.3438 L129.0938 494.5312 C129.0938 494.0938 129.2031 493.9688 129.7812 493.7344 L130.2031 493.5625 C131.0312 493.2188 131.4531 492.6875 131.4531 491.8438 C131.4531 490.1562 129.6562 489.1875 128.5 489.0312 C128.1094 489.125 127.9062 489.2969 127.9062 489.6406 C127.9062 489.9375 128.0625 490.1562 128.7188 490.2656 L130.4688 490.5781 Z"
      /><rect x="112" y="496" width="5" style="fill:white; stroke:none;" height="10"
      /><path style="stroke:none;" d="M113.8906 504.6875 C113.4844 504.6875 113.1562 505.0469 113.1562 505.4219 C113.1562 505.8125 113.4844 506.1562 113.8906 506.1562 C114.2969 506.1562 114.6406 505.8125 114.6406 505.4219 C114.6406 505.0469 114.2969 504.6875 113.8906 504.6875 ZM115.4688 498.5781 C115.7188 498.8906 115.875 499.2656 115.8906 499.6562 C115.8906 500.1875 115.625 500.5 115.0312 500.7656 L114.4062 501.0156 C113.6406 501.3125 113.3906 501.5469 113.3906 501.9375 C113.3906 502.1094 113.4531 502.3438 113.5781 502.8125 L113.7344 503.3438 L114.1094 503.3438 L114.0938 502.5312 C114.0938 502.0938 114.2031 501.9688 114.7812 501.7344 L115.2031 501.5625 C116.0312 501.2188 116.4531 500.6875 116.4531 499.8438 C116.4531 498.1562 114.6562 497.1875 113.5 497.0312 C113.1094 497.125 112.9062 497.2969 112.9062 497.6406 C112.9062 497.9375 113.0625 498.1562 113.7188 498.2656 L115.4688 498.5781 Z"
      /><rect x="120" y="470" width="5" style="fill:white; stroke:none;" height="10"
      /><path style="stroke:none;" d="M121.8906 478.6875 C121.4844 478.6875 121.1562 479.0469 121.1562 479.4219 C121.1562 479.8125 121.4844 480.1562 121.8906 480.1562 C122.2969 480.1562 122.6406 479.8125 122.6406 479.4219 C122.6406 479.0469 122.2969 478.6875 121.8906 478.6875 ZM123.4688 472.5781 C123.7188 472.8906 123.875 473.2656 123.8906 473.6562 C123.8906 474.1875 123.625 474.5 123.0312 474.7656 L122.4062 475.0156 C121.6406 475.3125 121.3906 475.5469 121.3906 475.9375 C121.3906 476.1094 121.4531 476.3438 121.5781 476.8125 L121.7344 477.3438 L122.1094 477.3438 L122.0938 476.5312 C122.0938 476.0938 122.2031 475.9688 122.7812 475.7344 L123.2031 475.5625 C124.0312 475.2188 124.4531 474.6875 124.4531 473.8438 C124.4531 472.1562 122.6562 471.1875 121.5 471.0312 C121.1094 471.125 120.9062 471.2969 120.9062 471.6406 C120.9062 471.9375 121.0625 472.1562 121.7188 472.2656 L123.4688 472.5781 Z"
      /><rect x="105" y="462" width="5" style="fill:white; stroke:none;" height="10"
      /><path style="stroke:none;" d="M106.8906 470.6875 C106.4844 470.6875 106.1562 471.0469 106.1562 471.4219 C106.1562 471.8125 106.4844 472.1562 106.8906 472.1562 C107.2969 472.1562 107.6406 471.8125 107.6406 471.4219 C107.6406 471.0469 107.2969 470.6875 106.8906 470.6875 ZM108.4688 464.5781 C108.7188 464.8906 108.875 465.2656 108.8906 465.6562 C108.8906 466.1875 108.625 466.5 108.0312 466.7656 L107.4062 467.0156 C106.6406 467.3125 106.3906 467.5469 106.3906 467.9375 C106.3906 468.1094 106.4531 468.3438 106.5781 468.8125 L106.7344 469.3438 L107.1094 469.3438 L107.0938 468.5312 C107.0938 468.0938 107.2031 467.9688 107.7812 467.7344 L108.2031 467.5625 C109.0312 467.2188 109.4531 466.6875 109.4531 465.8438 C109.4531 464.1562 107.6562 463.1875 106.5 463.0312 C106.1094 463.125 105.9062 463.2969 105.9062 463.6406 C105.9062 463.9375 106.0625 464.1562 106.7188 464.2656 L108.4688 464.5781 Z"
      /><rect x="181" y="530" width="5" style="fill:white; stroke:none;" height="10"
      /><path style="stroke:none;" d="M182.8906 538.6875 C182.4844 538.6875 182.1562 539.0469 182.1562 539.4219 C182.1562 539.8125 182.4844 540.1562 182.8906 540.1562 C183.2969 540.1562 183.6406 539.8125 183.6406 539.4219 C183.6406 539.0469 183.2969 538.6875 182.8906 538.6875 ZM184.4688 532.5781 C184.7188 532.8906 184.875 533.2656 184.8906 533.6562 C184.8906 534.1875 184.625 534.5 184.0312 534.7656 L183.4062 535.0156 C182.6406 535.3125 182.3906 535.5469 182.3906 535.9375 C182.3906 536.1094 182.4531 536.3438 182.5781 536.8125 L182.7344 537.3438 L183.1094 537.3438 L183.0938 536.5312 C183.0938 536.0938 183.2031 535.9688 183.7812 535.7344 L184.2031 535.5625 C185.0312 535.2188 185.4531 534.6875 185.4531 533.8438 C185.4531 532.1562 183.6562 531.1875 182.5 531.0312 C182.1094 531.125 181.9062 531.2969 181.9062 531.6406 C181.9062 531.9375 182.0625 532.1562 182.7188 532.2656 L184.4688 532.5781 Z"
      /><rect x="164" y="543" width="5" style="fill:white; stroke:none;" height="10"
      /><path style="stroke:none;" d="M165.8906 551.6875 C165.4844 551.6875 165.1562 552.0469 165.1562 552.4219 C165.1562 552.8125 165.4844 553.1562 165.8906 553.1562 C166.2969 553.1562 166.6406 552.8125 166.6406 552.4219 C166.6406 552.0469 166.2969 551.6875 165.8906 551.6875 ZM167.4688 545.5781 C167.7188 545.8906 167.875 546.2656 167.8906 546.6562 C167.8906 547.1875 167.625 547.5 167.0312 547.7656 L166.4062 548.0156 C165.6406 548.3125 165.3906 548.5469 165.3906 548.9375 C165.3906 549.1094 165.4531 549.3438 165.5781 549.8125 L165.7344 550.3438 L166.1094 550.3438 L166.0938 549.5312 C166.0938 549.0938 166.2031 548.9688 166.7812 548.7344 L167.2031 548.5625 C168.0312 548.2188 168.4531 547.6875 168.4531 546.8438 C168.4531 545.1562 166.6562 544.1875 165.5 544.0312 C165.1094 544.125 164.9062 544.2969 164.9062 544.6406 C164.9062 544.9375 165.0625 545.1562 165.7188 545.2656 L167.4688 545.5781 Z"
      /><rect x="172" y="504" width="5" style="fill:white; stroke:none;" height="10"
      /><path style="stroke:none;" d="M173.8906 512.6875 C173.4844 512.6875 173.1562 513.0469 173.1562 513.4219 C173.1562 513.8125 173.4844 514.1562 173.8906 514.1562 C174.2969 514.1562 174.6406 513.8125 174.6406 513.4219 C174.6406 513.0469 174.2969 512.6875 173.8906 512.6875 ZM175.4688 506.5781 C175.7188 506.8906 175.875 507.2656 175.8906 507.6562 C175.8906 508.1875 175.625 508.5 175.0312 508.7656 L174.4062 509.0156 C173.6406 509.3125 173.3906 509.5469 173.3906 509.9375 C173.3906 510.1094 173.4531 510.3438 173.5781 510.8125 L173.7344 511.3438 L174.1094 511.3438 L174.0938 510.5312 C174.0938 510.0938 174.2031 509.9688 174.7812 509.7344 L175.2031 509.5625 C176.0312 509.2188 176.4531 508.6875 176.4531 507.8438 C176.4531 506.1562 174.6562 505.1875 173.5 505.0312 C173.1094 505.125 172.9062 505.2969 172.9062 505.6406 C172.9062 505.9375 173.0625 506.1562 173.7188 506.2656 L175.4688 506.5781 Z"
      /><rect x="155" y="491" width="5" style="fill:white; stroke:none;" height="10"
      /><path style="stroke:none;" d="M156.8906 499.6875 C156.4844 499.6875 156.1562 500.0469 156.1562 500.4219 C156.1562 500.8125 156.4844 501.1562 156.8906 501.1562 C157.2969 501.1562 157.6406 500.8125 157.6406 500.4219 C157.6406 500.0469 157.2969 499.6875 156.8906 499.6875 ZM158.4688 493.5781 C158.7188 493.8906 158.875 494.2656 158.8906 494.6562 C158.8906 495.1875 158.625 495.5 158.0312 495.7656 L157.4062 496.0156 C156.6406 496.3125 156.3906 496.5469 156.3906 496.9375 C156.3906 497.1094 156.4531 497.3438 156.5781 497.8125 L156.7344 498.3438 L157.1094 498.3438 L157.0938 497.5312 C157.0938 497.0938 157.2031 496.9688 157.7812 496.7344 L158.2031 496.5625 C159.0312 496.2188 159.4531 495.6875 159.4531 494.8438 C159.4531 493.1562 157.6562 492.1875 156.5 492.0312 C156.1094 492.125 155.9062 492.2969 155.9062 492.6406 C155.9062 492.9375 156.0625 493.1562 156.7188 493.2656 L158.4688 493.5781 Z"
      /><polygon style="fill:none;" points=" 197 399 145 399"
      /><circle style="fill:white; clip-path:url(#clipPath15); stroke:none;" r="11" cx="197" cy="399"
      /><rect x="186" y="388" width="22" style="clip-path:url(#clipPath15); fill:rgb(0,166,81); stroke:none;" height="22"
      /><rect x="186" y="388" width="22" style="fill:none; clip-path:url(#clipPath15);" height="22"
      /><circle r="11" style="fill:none;" cx="197" cy="399"
      /><polygon style="fill:none;" points=" 145 399 93 399"
      /><circle style="fill:white; clip-path:url(#clipPath16); stroke:none;" r="11" cx="145" cy="399"
      /><rect x="134" y="388" width="22" style="clip-path:url(#clipPath16); fill:rgb(0,166,81); stroke:none;" height="22"
      /><rect x="134" y="388" width="22" style="fill:none; clip-path:url(#clipPath16);" height="22"
      /><circle r="11" style="fill:none;" cx="145" cy="399"
      /><circle style="fill:white; clip-path:url(#clipPath17); stroke:none;" r="11" cx="93" cy="399"
      /><rect x="82" y="388" width="22" style="clip-path:url(#clipPath17); fill:rgb(0,166,81); stroke:none;" height="22"
      /><rect x="82" y="388" width="22" style="fill:none; clip-path:url(#clipPath17);" height="22"
      /><circle r="11" style="fill:none;" cx="93" cy="399"
      /><rect x="123" y="402" width="5" style="fill:white; stroke:none;" height="10"
      /><path style="stroke:none;" d="M124.8906 410.6875 C124.4844 410.6875 124.1562 411.0469 124.1562 411.4219 C124.1562 411.8125 124.4844 412.1562 124.8906 412.1562 C125.2969 412.1562 125.6406 411.8125 125.6406 411.4219 C125.6406 411.0469 125.2969 410.6875 124.8906 410.6875 ZM126.4688 404.5781 C126.7188 404.8906 126.875 405.2656 126.8906 405.6562 C126.8906 406.1875 126.625 406.5 126.0312 406.7656 L125.4062 407.0156 C124.6406 407.3125 124.3906 407.5469 124.3906 407.9375 C124.3906 408.1094 124.4531 408.3438 124.5781 408.8125 L124.7344 409.3438 L125.1094 409.3438 L125.0938 408.5312 C125.0938 408.0938 125.2031 407.9688 125.7812 407.7344 L126.2031 407.5625 C127.0312 407.2188 127.4531 406.6875 127.4531 405.8438 C127.4531 404.1562 125.6562 403.1875 124.5 403.0312 C124.1094 403.125 123.9062 403.2969 123.9062 403.6406 C123.9062 403.9375 124.0625 404.1562 124.7188 404.2656 L126.4688 404.5781 Z"
      /><rect x="109" y="402" width="5" style="fill:white; stroke:none;" height="10"
      /><path style="stroke:none;" d="M110.8906 410.6875 C110.4844 410.6875 110.1562 411.0469 110.1562 411.4219 C110.1562 411.8125 110.4844 412.1562 110.8906 412.1562 C111.2969 412.1562 111.6406 411.8125 111.6406 411.4219 C111.6406 411.0469 111.2969 410.6875 110.8906 410.6875 ZM112.4688 404.5781 C112.7188 404.8906 112.875 405.2656 112.8906 405.6562 C112.8906 406.1875 112.625 406.5 112.0312 406.7656 L111.4062 407.0156 C110.6406 407.3125 110.3906 407.5469 110.3906 407.9375 C110.3906 408.1094 110.4531 408.3438 110.5781 408.8125 L110.7344 409.3438 L111.1094 409.3438 L111.0938 408.5312 C111.0938 408.0938 111.2031 407.9688 111.7812 407.7344 L112.2031 407.5625 C113.0312 407.2188 113.4531 406.6875 113.4531 405.8438 C113.4531 404.1562 111.6562 403.1875 110.5 403.0312 C110.1094 403.125 109.9062 403.2969 109.9062 403.6406 C109.9062 403.9375 110.0625 404.1562 110.7188 404.2656 L112.4688 404.5781 Z"
      /><rect x="175" y="402" width="5" style="fill:white; stroke:none;" height="10"
      /><path style="stroke:none;" d="M176.8906 410.6875 C176.4844 410.6875 176.1562 411.0469 176.1562 411.4219 C176.1562 411.8125 176.4844 412.1562 176.8906 412.1562 C177.2969 412.1562 177.6406 411.8125 177.6406 411.4219 C177.6406 411.0469 177.2969 410.6875 176.8906 410.6875 ZM178.4688 404.5781 C178.7188 404.8906 178.875 405.2656 178.8906 405.6562 C178.8906 406.1875 178.625 406.5 178.0312 406.7656 L177.4062 407.0156 C176.6406 407.3125 176.3906 407.5469 176.3906 407.9375 C176.3906 408.1094 176.4531 408.3438 176.5781 408.8125 L176.7344 409.3438 L177.1094 409.3438 L177.0938 408.5312 C177.0938 408.0938 177.2031 407.9688 177.7812 407.7344 L178.2031 407.5625 C179.0312 407.2188 179.4531 406.6875 179.4531 405.8438 C179.4531 404.1562 177.6562 403.1875 176.5 403.0312 C176.1094 403.125 175.9062 403.2969 175.9062 403.6406 C175.9062 403.9375 176.0625 404.1562 176.7188 404.2656 L178.4688 404.5781 Z"
      /><rect x="161" y="402" width="5" style="fill:white; stroke:none;" height="10"
      /><path style="stroke:none;" d="M162.8906 410.6875 C162.4844 410.6875 162.1562 411.0469 162.1562 411.4219 C162.1562 411.8125 162.4844 412.1562 162.8906 412.1562 C163.2969 412.1562 163.6406 411.8125 163.6406 411.4219 C163.6406 411.0469 163.2969 410.6875 162.8906 410.6875 ZM164.4688 404.5781 C164.7188 404.8906 164.875 405.2656 164.8906 405.6562 C164.8906 406.1875 164.625 406.5 164.0312 406.7656 L163.4062 407.0156 C162.6406 407.3125 162.3906 407.5469 162.3906 407.9375 C162.3906 408.1094 162.4531 408.3438 162.5781 408.8125 L162.7344 409.3438 L163.1094 409.3438 L163.0938 408.5312 C163.0938 408.0938 163.2031 407.9688 163.7812 407.7344 L164.2031 407.5625 C165.0312 407.2188 165.4531 406.6875 165.4531 405.8438 C165.4531 404.1562 163.6562 403.1875 162.5 403.0312 C162.1094 403.125 161.9062 403.2969 161.9062 403.6406 C161.9062 403.9375 162.0625 404.1562 162.7188 404.2656 L164.4688 404.5781 Z"
      /><rect x="237" y="474" width="5" style="fill:white; stroke:none;" height="10"
      /><path style="stroke:none;" d="M238.8906 482.6875 C238.4844 482.6875 238.1562 483.0469 238.1562 483.4219 C238.1562 483.8125 238.4844 484.1562 238.8906 484.1562 C239.2969 484.1562 239.6406 483.8125 239.6406 483.4219 C239.6406 483.0469 239.2969 482.6875 238.8906 482.6875 ZM240.4688 476.5781 C240.7188 476.8906 240.875 477.2656 240.8906 477.6562 C240.8906 478.1875 240.625 478.5 240.0312 478.7656 L239.4062 479.0156 C238.6406 479.3125 238.3906 479.5469 238.3906 479.9375 C238.3906 480.1094 238.4531 480.3438 238.5781 480.8125 L238.7344 481.3438 L239.1094 481.3438 L239.0938 480.5312 C239.0938 480.0938 239.2031 479.9688 239.7812 479.7344 L240.2031 479.5625 C241.0312 479.2188 241.4531 478.6875 241.4531 477.8438 C241.4531 476.1562 239.6562 475.1875 238.5 475.0312 C238.1094 475.125 237.9062 475.2969 237.9062 475.6406 C237.9062 475.9375 238.0625 476.1562 238.7188 476.2656 L240.4688 476.5781 Z"
      /><rect x="215" y="499" width="5" style="fill:white; stroke:none;" height="10"
      /><path style="stroke:none;" d="M216.8906 507.6875 C216.4844 507.6875 216.1562 508.0469 216.1562 508.4219 C216.1562 508.8125 216.4844 509.1562 216.8906 509.1562 C217.2969 509.1562 217.6406 508.8125 217.6406 508.4219 C217.6406 508.0469 217.2969 507.6875 216.8906 507.6875 ZM218.4688 501.5781 C218.7188 501.8906 218.875 502.2656 218.8906 502.6562 C218.8906 503.1875 218.625 503.5 218.0312 503.7656 L217.4062 504.0156 C216.6406 504.3125 216.3906 504.5469 216.3906 504.9375 C216.3906 505.1094 216.4531 505.3438 216.5781 505.8125 L216.7344 506.3438 L217.1094 506.3438 L217.0938 505.5312 C217.0938 505.0938 217.2031 504.9688 217.7812 504.7344 L218.2031 504.5625 C219.0312 504.2188 219.4531 503.6875 219.4531 502.8438 C219.4531 501.1562 217.6562 500.1875 216.5 500.0312 C216.1094 500.125 215.9062 500.2969 215.9062 500.6406 C215.9062 500.9375 216.0625 501.1562 216.7188 501.2656 L218.4688 501.5781 Z"
      /><rect x="225" y="440" width="5" style="fill:white; stroke:none;" height="10"
      /><path style="stroke:none;" d="M226.8906 448.6875 C226.4844 448.6875 226.1562 449.0469 226.1562 449.4219 C226.1562 449.8125 226.4844 450.1562 226.8906 450.1562 C227.2969 450.1562 227.6406 449.8125 227.6406 449.4219 C227.6406 449.0469 227.2969 448.6875 226.8906 448.6875 ZM228.4688 442.5781 C228.7188 442.8906 228.875 443.2656 228.8906 443.6562 C228.8906 444.1875 228.625 444.5 228.0312 444.7656 L227.4062 445.0156 C226.6406 445.3125 226.3906 445.5469 226.3906 445.9375 C226.3906 446.1094 226.4531 446.3438 226.5781 446.8125 L226.7344 447.3438 L227.1094 447.3438 L227.0938 446.5312 C227.0938 446.0938 227.2031 445.9688 227.7812 445.7344 L228.2031 445.5625 C229.0312 445.2188 229.4531 444.6875 229.4531 443.8438 C229.4531 442.1562 227.6562 441.1875 226.5 441.0312 C226.1094 441.125 225.9062 441.2969 225.9062 441.6406 C225.9062 441.9375 226.0625 442.1562 226.7188 442.2656 L228.4688 442.5781 Z"
      /><rect x="203" y="416" width="5" style="fill:white; stroke:none;" height="10"
      /><path style="stroke:none;" d="M204.8906 424.6875 C204.4844 424.6875 204.1562 425.0469 204.1562 425.4219 C204.1562 425.8125 204.4844 426.1562 204.8906 426.1562 C205.2969 426.1562 205.6406 425.8125 205.6406 425.4219 C205.6406 425.0469 205.2969 424.6875 204.8906 424.6875 ZM206.4688 418.5781 C206.7188 418.8906 206.875 419.2656 206.8906 419.6562 C206.8906 420.1875 206.625 420.5 206.0312 420.7656 L205.4062 421.0156 C204.6406 421.3125 204.3906 421.5469 204.3906 421.9375 C204.3906 422.1094 204.4531 422.3438 204.5781 422.8125 L204.7344 423.3438 L205.1094 423.3438 L205.0938 422.5312 C205.0938 422.0938 205.2031 421.9688 205.7812 421.7344 L206.2031 421.5625 C207.0312 421.2188 207.4531 420.6875 207.4531 419.8438 C207.4531 418.1562 205.6562 417.1875 204.5 417.0312 C204.1094 417.125 203.9062 417.2969 203.9062 417.6406 C203.9062 417.9375 204.0625 418.1562 204.7188 418.2656 L206.4688 418.5781 Z"
      /><polygon style="fill:none;" points=" 249 321 197 347"
      /><polygon style="fill:none;" points=" 249 321 197 295"
      /><circle style="fill:white; clip-path:url(#clipPath18); stroke:none;" r="11" cx="249" cy="321"
      /><rect x="238" y="310" width="22" style="clip-path:url(#clipPath18); fill:rgb(0,166,81); stroke:none;" height="22"
      /><rect x="238" y="310" width="22" style="fill:none; clip-path:url(#clipPath18);" height="22"
      /><circle r="11" style="fill:none;" cx="249" cy="321"
      /><polygon style="fill:none;" points=" 197 347 145 347"
      /><circle style="fill:white; clip-path:url(#clipPath19); stroke:none;" r="11" cx="197" cy="347"
      /><rect x="186" y="336" width="22" style="clip-path:url(#clipPath19); fill:rgb(0,166,81); stroke:none;" height="22"
      /><rect x="186" y="336" width="22" style="fill:none; clip-path:url(#clipPath19);" height="22"
      /><circle r="11" style="fill:none;" cx="197" cy="347"
      /><circle style="fill:white; clip-path:url(#clipPath20); stroke:none;" r="11" cx="145" cy="347"
      /><rect x="134" y="336" width="22" style="clip-path:url(#clipPath20); fill:rgb(0,166,81); stroke:none;" height="22"
      /><rect x="134" y="336" width="22" style="fill:none; clip-path:url(#clipPath20);" height="22"
      /><circle r="11" style="fill:none;" cx="145" cy="347"
      /><rect x="175" y="350" width="5" style="fill:white; stroke:none;" height="10"
      /><path style="stroke:none;" d="M176.8906 358.6875 C176.4844 358.6875 176.1562 359.0469 176.1562 359.4219 C176.1562 359.8125 176.4844 360.1562 176.8906 360.1562 C177.2969 360.1562 177.6406 359.8125 177.6406 359.4219 C177.6406 359.0469 177.2969 358.6875 176.8906 358.6875 ZM178.4688 352.5781 C178.7188 352.8906 178.875 353.2656 178.8906 353.6562 C178.8906 354.1875 178.625 354.5 178.0312 354.7656 L177.4062 355.0156 C176.6406 355.3125 176.3906 355.5469 176.3906 355.9375 C176.3906 356.1094 176.4531 356.3438 176.5781 356.8125 L176.7344 357.3438 L177.1094 357.3438 L177.0938 356.5312 C177.0938 356.0938 177.2031 355.9688 177.7812 355.7344 L178.2031 355.5625 C179.0312 355.2188 179.4531 354.6875 179.4531 353.8438 C179.4531 352.1562 177.6562 351.1875 176.5 351.0312 C176.1094 351.125 175.9062 351.2969 175.9062 351.6406 C175.9062 351.9375 176.0625 352.1562 176.7188 352.2656 L178.4688 352.5781 Z"
      /><rect x="161" y="350" width="5" style="fill:white; stroke:none;" height="10"
      /><path style="stroke:none;" d="M162.8906 358.6875 C162.4844 358.6875 162.1562 359.0469 162.1562 359.4219 C162.1562 359.8125 162.4844 360.1562 162.8906 360.1562 C163.2969 360.1562 163.6406 359.8125 163.6406 359.4219 C163.6406 359.0469 163.2969 358.6875 162.8906 358.6875 ZM164.4688 352.5781 C164.7188 352.8906 164.875 353.2656 164.8906 353.6562 C164.8906 354.1875 164.625 354.5 164.0312 354.7656 L163.4062 355.0156 C162.6406 355.3125 162.3906 355.5469 162.3906 355.9375 C162.3906 356.1094 162.4531 356.3438 162.5781 356.8125 L162.7344 357.3438 L163.1094 357.3438 L163.0938 356.5312 C163.0938 356.0938 163.2031 355.9688 163.7812 355.7344 L164.2031 355.5625 C165.0312 355.2188 165.4531 354.6875 165.4531 353.8438 C165.4531 352.1562 163.6562 351.1875 162.5 351.0312 C162.1094 351.125 161.9062 351.2969 161.9062 351.6406 C161.9062 351.9375 162.0625 352.1562 162.7188 352.2656 L164.4688 352.5781 Z"
      /><polygon style="fill:none;" points=" 197 295 145 295"
    /></g
    ><g style="fill:white; text-rendering:optimizeSpeed; font-size:14px; font-family:'SansSerif'; stroke:white;"
    ><rect x="193" width="6" height="10" y="289" style="stroke:none;"
      /><path d="M194.4062 300 L195.7031 300 L195.7031 295.9219 L197.3906 295.9219 C199.6562 295.9219 201.1719 294.9219 201.1719 292.75 C201.1719 290.5156 199.6406 289.7188 197.3438 289.7188 L194.4062 289.7188 L194.4062 300 ZM195.7031 294.875 L195.7031 290.7812 L197.1719 290.7812 C198.9844 290.7812 199.8906 291.2656 199.8906 292.75 C199.8906 294.2188 199.0312 294.875 197.2344 294.875 L195.7031 294.875 Z" style="fill:black; stroke:none;"
    /></g
    ><g style="text-rendering:optimizeSpeed; "
    ><polygon style="fill:none;" points=" 145 295 93 295"
      /><circle style="fill:white; clip-path:url(#clipPath21); stroke:none;" r="11" cx="145" cy="295"
      /><rect x="134" y="284" width="22" style="clip-path:url(#clipPath21); fill:rgb(0,166,81); stroke:none;" height="22"
      /><rect x="134" y="284" width="22" style="fill:none; clip-path:url(#clipPath21);" height="22"
      /><circle r="11" style="fill:none;" cx="145" cy="295"
      /><circle style="fill:white; clip-path:url(#clipPath22); stroke:none;" r="11" cx="93" cy="295"
      /><rect x="82" y="284" width="22" style="clip-path:url(#clipPath22); fill:rgb(0,166,81); stroke:none;" height="22"
      /><rect x="82" y="284" width="22" style="fill:none; clip-path:url(#clipPath22);" height="22"
      /><circle r="11" style="fill:none;" cx="93" cy="295"
      /><rect x="123" y="298" width="5" style="fill:white; stroke:none;" height="10"
      /><path style="stroke:none;" d="M124.8906 306.6875 C124.4844 306.6875 124.1562 307.0469 124.1562 307.4219 C124.1562 307.8125 124.4844 308.1562 124.8906 308.1562 C125.2969 308.1562 125.6406 307.8125 125.6406 307.4219 C125.6406 307.0469 125.2969 306.6875 124.8906 306.6875 ZM126.4688 300.5781 C126.7188 300.8906 126.875 301.2656 126.8906 301.6562 C126.8906 302.1875 126.625 302.5 126.0312 302.7656 L125.4062 303.0156 C124.6406 303.3125 124.3906 303.5469 124.3906 303.9375 C124.3906 304.1094 124.4531 304.3438 124.5781 304.8125 L124.7344 305.3438 L125.1094 305.3438 L125.0938 304.5312 C125.0938 304.0938 125.2031 303.9688 125.7812 303.7344 L126.2031 303.5625 C127.0312 303.2188 127.4531 302.6875 127.4531 301.8438 C127.4531 300.1562 125.6562 299.1875 124.5 299.0312 C124.1094 299.125 123.9062 299.2969 123.9062 299.6406 C123.9062 299.9375 124.0625 300.1562 124.7188 300.2656 L126.4688 300.5781 Z"
      /><rect x="109" y="298" width="5" style="fill:white; stroke:none;" height="10"
      /><path style="stroke:none;" d="M110.8906 306.6875 C110.4844 306.6875 110.1562 307.0469 110.1562 307.4219 C110.1562 307.8125 110.4844 308.1562 110.8906 308.1562 C111.2969 308.1562 111.6406 307.8125 111.6406 307.4219 C111.6406 307.0469 111.2969 306.6875 110.8906 306.6875 ZM112.4688 300.5781 C112.7188 300.8906 112.875 301.2656 112.8906 301.6562 C112.8906 302.1875 112.625 302.5 112.0312 302.7656 L111.4062 303.0156 C110.6406 303.3125 110.3906 303.5469 110.3906 303.9375 C110.3906 304.1094 110.4531 304.3438 110.5781 304.8125 L110.7344 305.3438 L111.1094 305.3438 L111.0938 304.5312 C111.0938 304.0938 111.2031 303.9688 111.7812 303.7344 L112.2031 303.5625 C113.0312 303.2188 113.4531 302.6875 113.4531 301.8438 C113.4531 300.1562 111.6562 299.1875 110.5 299.0312 C110.1094 299.125 109.9062 299.2969 109.9062 299.6406 C109.9062 299.9375 110.0625 300.1562 110.7188 300.2656 L112.4688 300.5781 Z"
      /><rect x="175" y="298" width="5" style="fill:white; stroke:none;" height="9"
      /><path style="stroke:none;" d="M178.8594 306.3906 C178.8594 305.6719 178.8438 304.9531 178.8438 304.25 L178.8438 300.1406 L178.8906 298.2656 L178.7031 298.125 L176.1094 298.7969 L176.1094 299.2344 L177.9219 299.0312 L177.9219 304.25 C177.9219 304.9531 177.9062 305.6719 177.8906 306.3906 L176 306.6094 L176 307 L180.7344 307 L180.7344 306.6094 L178.8594 306.3906 Z"
      /><rect x="161" y="298" width="5" style="fill:white; stroke:none;" height="10"
      /><path style="stroke:none;" d="M162.8906 306.6875 C162.4844 306.6875 162.1562 307.0469 162.1562 307.4219 C162.1562 307.8125 162.4844 308.1562 162.8906 308.1562 C163.2969 308.1562 163.6406 307.8125 163.6406 307.4219 C163.6406 307.0469 163.2969 306.6875 162.8906 306.6875 ZM164.4688 300.5781 C164.7188 300.8906 164.875 301.2656 164.8906 301.6562 C164.8906 302.1875 164.625 302.5 164.0312 302.7656 L163.4062 303.0156 C162.6406 303.3125 162.3906 303.5469 162.3906 303.9375 C162.3906 304.1094 162.4531 304.3438 162.5781 304.8125 L162.7344 305.3438 L163.1094 305.3438 L163.0938 304.5312 C163.0938 304.0938 163.2031 303.9688 163.7812 303.7344 L164.2031 303.5625 C165.0312 303.2188 165.4531 302.6875 165.4531 301.8438 C165.4531 300.1562 163.6562 299.1875 162.5 299.0312 C162.1094 299.125 161.9062 299.2969 161.9062 299.6406 C161.9062 299.9375 162.0625 300.1562 162.7188 300.2656 L164.4688 300.5781 Z"
      /><rect x="231" y="332" width="5" style="fill:white; stroke:none;" height="10"
      /><path style="stroke:none;" d="M232.8906 340.6875 C232.4844 340.6875 232.1562 341.0469 232.1562 341.4219 C232.1562 341.8125 232.4844 342.1562 232.8906 342.1562 C233.2969 342.1562 233.6406 341.8125 233.6406 341.4219 C233.6406 341.0469 233.2969 340.6875 232.8906 340.6875 ZM234.4688 334.5781 C234.7188 334.8906 234.875 335.2656 234.8906 335.6562 C234.8906 336.1875 234.625 336.5 234.0312 336.7656 L233.4062 337.0156 C232.6406 337.3125 232.3906 337.5469 232.3906 337.9375 C232.3906 338.1094 232.4531 338.3438 232.5781 338.8125 L232.7344 339.3438 L233.1094 339.3438 L233.0938 338.5312 C233.0938 338.0938 233.2031 337.9688 233.7812 337.7344 L234.2031 337.5625 C235.0312 337.2188 235.4531 336.6875 235.4531 335.8438 C235.4531 334.1562 233.6562 333.1875 232.5 333.0312 C232.1094 333.125 231.9062 333.2969 231.9062 333.6406 C231.9062 333.9375 232.0625 334.1562 232.7188 334.2656 L234.4688 334.5781 Z"
      /><rect x="216" y="340" width="5" style="fill:white; stroke:none;" height="10"
      /><path style="stroke:none;" d="M217.8906 348.6875 C217.4844 348.6875 217.1562 349.0469 217.1562 349.4219 C217.1562 349.8125 217.4844 350.1562 217.8906 350.1562 C218.2969 350.1562 218.6406 349.8125 218.6406 349.4219 C218.6406 349.0469 218.2969 348.6875 217.8906 348.6875 ZM219.4688 342.5781 C219.7188 342.8906 219.875 343.2656 219.8906 343.6562 C219.8906 344.1875 219.625 344.5 219.0312 344.7656 L218.4062 345.0156 C217.6406 345.3125 217.3906 345.5469 217.3906 345.9375 C217.3906 346.1094 217.4531 346.3438 217.5781 346.8125 L217.7344 347.3438 L218.1094 347.3438 L218.0938 346.5312 C218.0938 346.0938 218.2031 345.9688 218.7812 345.7344 L219.2031 345.5625 C220.0312 345.2188 220.4531 344.6875 220.4531 343.8438 C220.4531 342.1562 218.6562 341.1875 217.5 341.0312 C217.1094 341.125 216.9062 341.2969 216.9062 341.6406 C216.9062 341.9375 217.0625 342.1562 217.7188 342.2656 L219.4688 342.5781 Z"
      /><rect x="224" y="314" width="5" style="fill:white; stroke:none;" height="10"
      /><path style="stroke:none;" d="M225.8906 322.6875 C225.4844 322.6875 225.1562 323.0469 225.1562 323.4219 C225.1562 323.8125 225.4844 324.1562 225.8906 324.1562 C226.2969 324.1562 226.6406 323.8125 226.6406 323.4219 C226.6406 323.0469 226.2969 322.6875 225.8906 322.6875 ZM227.4688 316.5781 C227.7188 316.8906 227.875 317.2656 227.8906 317.6562 C227.8906 318.1875 227.625 318.5 227.0312 318.7656 L226.4062 319.0156 C225.6406 319.3125 225.3906 319.5469 225.3906 319.9375 C225.3906 320.1094 225.4531 320.3438 225.5781 320.8125 L225.7344 321.3438 L226.1094 321.3438 L226.0938 320.5312 C226.0938 320.0938 226.2031 319.9688 226.7812 319.7344 L227.2031 319.5625 C228.0312 319.2188 228.4531 318.6875 228.4531 317.8438 C228.4531 316.1562 226.6562 315.1875 225.5 315.0312 C225.1094 315.125 224.9062 315.2969 224.9062 315.6406 C224.9062 315.9375 225.0625 316.1562 225.7188 316.2656 L227.4688 316.5781 Z"
      /><rect x="291" y="406" width="5" style="fill:white; stroke:none;" height="10"
      /><path style="stroke:none;" d="M292.8906 414.6875 C292.4844 414.6875 292.1562 415.0469 292.1562 415.4219 C292.1562 415.8125 292.4844 416.1562 292.8906 416.1562 C293.2969 416.1562 293.6406 415.8125 293.6406 415.4219 C293.6406 415.0469 293.2969 414.6875 292.8906 414.6875 ZM294.4688 408.5781 C294.7188 408.8906 294.875 409.2656 294.8906 409.6562 C294.8906 410.1875 294.625 410.5 294.0312 410.7656 L293.4062 411.0156 C292.6406 411.3125 292.3906 411.5469 292.3906 411.9375 C292.3906 412.1094 292.4531 412.3438 292.5781 412.8125 L292.7344 413.3438 L293.1094 413.3438 L293.0938 412.5312 C293.0938 412.0938 293.2031 411.9688 293.7812 411.7344 L294.2031 411.5625 C295.0312 411.2188 295.4531 410.6875 295.4531 409.8438 C295.4531 408.1562 293.6562 407.1875 292.5 407.0312 C292.1094 407.125 291.9062 407.2969 291.9062 407.6406 C291.9062 407.9375 292.0625 408.1562 292.7188 408.2656 L294.4688 408.5781 Z"
      /><rect x="266" y="439" width="5" style="fill:white; stroke:none;" height="10"
      /><path style="stroke:none;" d="M267.8906 447.6875 C267.4844 447.6875 267.1562 448.0469 267.1562 448.4219 C267.1562 448.8125 267.4844 449.1562 267.8906 449.1562 C268.2969 449.1562 268.6406 448.8125 268.6406 448.4219 C268.6406 448.0469 268.2969 447.6875 267.8906 447.6875 ZM269.4688 441.5781 C269.7188 441.8906 269.875 442.2656 269.8906 442.6562 C269.8906 443.1875 269.625 443.5 269.0312 443.7656 L268.4062 444.0156 C267.6406 444.3125 267.3906 444.5469 267.3906 444.9375 C267.3906 445.1094 267.4531 445.3438 267.5781 445.8125 L267.7344 446.3438 L268.1094 446.3438 L268.0938 445.5312 C268.0938 445.0938 268.2031 444.9688 268.7812 444.7344 L269.2031 444.5625 C270.0312 444.2188 270.4531 443.6875 270.4531 442.8438 C270.4531 441.1562 268.6562 440.1875 267.5 440.0312 C267.1094 440.125 266.9062 440.2969 266.9062 440.6406 C266.9062 440.9375 267.0625 441.1562 267.7188 441.2656 L269.4688 441.5781 Z"
      /><rect x="278" y="371" width="5" style="fill:white; stroke:none;" height="10"
      /><path style="stroke:none;" d="M279.8906 379.6875 C279.4844 379.6875 279.1562 380.0469 279.1562 380.4219 C279.1562 380.8125 279.4844 381.1562 279.8906 381.1562 C280.2969 381.1562 280.6406 380.8125 280.6406 380.4219 C280.6406 380.0469 280.2969 379.6875 279.8906 379.6875 ZM281.4688 373.5781 C281.7188 373.8906 281.875 374.2656 281.8906 374.6562 C281.8906 375.1875 281.625 375.5 281.0312 375.7656 L280.4062 376.0156 C279.6406 376.3125 279.3906 376.5469 279.3906 376.9375 C279.3906 377.1094 279.4531 377.3438 279.5781 377.8125 L279.7344 378.3438 L280.1094 378.3438 L280.0938 377.5312 C280.0938 377.0938 280.2031 376.9688 280.7812 376.7344 L281.2031 376.5625 C282.0312 376.2188 282.4531 375.6875 282.4531 374.8438 C282.4531 373.1562 280.6562 372.1875 279.5 372.0312 C279.1094 372.125 278.9062 372.2969 278.9062 372.6406 C278.9062 372.9375 279.0625 373.1562 279.7188 373.2656 L281.4688 373.5781 Z"
      /><rect x="253" y="338" width="5" style="fill:white; stroke:none;" height="10"
      /><path style="stroke:none;" d="M254.8906 346.6875 C254.4844 346.6875 254.1562 347.0469 254.1562 347.4219 C254.1562 347.8125 254.4844 348.1562 254.8906 348.1562 C255.2969 348.1562 255.6406 347.8125 255.6406 347.4219 C255.6406 347.0469 255.2969 346.6875 254.8906 346.6875 ZM256.4688 340.5781 C256.7188 340.8906 256.875 341.2656 256.8906 341.6562 C256.8906 342.1875 256.625 342.5 256.0312 342.7656 L255.4062 343.0156 C254.6406 343.3125 254.3906 343.5469 254.3906 343.9375 C254.3906 344.1094 254.4531 344.3438 254.5781 344.8125 L254.7344 345.3438 L255.1094 345.3438 L255.0938 344.5312 C255.0938 344.0938 255.2031 343.9688 255.7812 343.7344 L256.2031 343.5625 C257.0312 343.2188 257.4531 342.6875 257.4531 341.8438 C257.4531 340.1562 255.6562 339.1875 254.5 339.0312 C254.1094 339.125 253.9062 339.2969 253.9062 339.6406 C253.9062 339.9375 254.0625 340.1562 254.7188 340.2656 L256.4688 340.5781 Z"
      /><polygon style="fill:none;" points=" 301 243 249 243"
      /><circle style="fill:white; clip-path:url(#clipPath23); stroke:none;" r="11" cx="301" cy="243"
      /><rect x="290" y="232" width="22" style="clip-path:url(#clipPath23); fill:rgb(0,166,81); stroke:none;" height="22"
      /><rect x="290" y="232" width="22" style="fill:none; clip-path:url(#clipPath23);" height="22"
      /><circle r="11" style="fill:none;" cx="301" cy="243"
      /><polygon style="fill:none;" points=" 249 243 197 243"
      /><circle style="fill:white; clip-path:url(#clipPath24); stroke:none;" r="11" cx="249" cy="243"
      /><rect x="238" y="232" width="22" style="clip-path:url(#clipPath24); fill:rgb(0,166,81); stroke:none;" height="22"
      /><rect x="238" y="232" width="22" style="fill:none; clip-path:url(#clipPath24);" height="22"
      /><circle r="11" style="fill:none;" cx="249" cy="243"
      /><circle style="fill:white; clip-path:url(#clipPath25); stroke:none;" r="11" cx="197" cy="243"
      /><rect x="186" y="232" width="22" style="clip-path:url(#clipPath25); fill:rgb(0,166,81); stroke:none;" height="22"
      /><rect x="186" y="232" width="22" style="fill:none; clip-path:url(#clipPath25);" height="22"
      /><circle r="11" style="fill:none;" cx="197" cy="243"
      /><rect x="227" y="246" width="5" style="fill:white; stroke:none;" height="10"
      /><path style="stroke:none;" d="M228.8906 254.6875 C228.4844 254.6875 228.1562 255.0469 228.1562 255.4219 C228.1562 255.8125 228.4844 256.1562 228.8906 256.1562 C229.2969 256.1562 229.6406 255.8125 229.6406 255.4219 C229.6406 255.0469 229.2969 254.6875 228.8906 254.6875 ZM230.4688 248.5781 C230.7188 248.8906 230.875 249.2656 230.8906 249.6562 C230.8906 250.1875 230.625 250.5 230.0312 250.7656 L229.4062 251.0156 C228.6406 251.3125 228.3906 251.5469 228.3906 251.9375 C228.3906 252.1094 228.4531 252.3438 228.5781 252.8125 L228.7344 253.3438 L229.1094 253.3438 L229.0938 252.5312 C229.0938 252.0938 229.2031 251.9688 229.7812 251.7344 L230.2031 251.5625 C231.0312 251.2188 231.4531 250.6875 231.4531 249.8438 C231.4531 248.1562 229.6562 247.1875 228.5 247.0312 C228.1094 247.125 227.9062 247.2969 227.9062 247.6406 C227.9062 247.9375 228.0625 248.1562 228.7188 248.2656 L230.4688 248.5781 Z"
      /><rect x="213" y="246" width="5" style="fill:white; stroke:none;" height="10"
      /><path style="stroke:none;" d="M214.8906 254.6875 C214.4844 254.6875 214.1562 255.0469 214.1562 255.4219 C214.1562 255.8125 214.4844 256.1562 214.8906 256.1562 C215.2969 256.1562 215.6406 255.8125 215.6406 255.4219 C215.6406 255.0469 215.2969 254.6875 214.8906 254.6875 ZM216.4688 248.5781 C216.7188 248.8906 216.875 249.2656 216.8906 249.6562 C216.8906 250.1875 216.625 250.5 216.0312 250.7656 L215.4062 251.0156 C214.6406 251.3125 214.3906 251.5469 214.3906 251.9375 C214.3906 252.1094 214.4531 252.3438 214.5781 252.8125 L214.7344 253.3438 L215.1094 253.3438 L215.0938 252.5312 C215.0938 252.0938 215.2031 251.9688 215.7812 251.7344 L216.2031 251.5625 C217.0312 251.2188 217.4531 250.6875 217.4531 249.8438 C217.4531 248.1562 215.6562 247.1875 214.5 247.0312 C214.1094 247.125 213.9062 247.2969 213.9062 247.6406 C213.9062 247.9375 214.0625 248.1562 214.7188 248.2656 L216.4688 248.5781 Z"
      /><rect x="279" y="246" width="5" style="fill:white; stroke:none;" height="10"
      /><path style="stroke:none;" d="M280.8906 254.6875 C280.4844 254.6875 280.1562 255.0469 280.1562 255.4219 C280.1562 255.8125 280.4844 256.1562 280.8906 256.1562 C281.2969 256.1562 281.6406 255.8125 281.6406 255.4219 C281.6406 255.0469 281.2969 254.6875 280.8906 254.6875 ZM282.4688 248.5781 C282.7188 248.8906 282.875 249.2656 282.8906 249.6562 C282.8906 250.1875 282.625 250.5 282.0312 250.7656 L281.4062 251.0156 C280.6406 251.3125 280.3906 251.5469 280.3906 251.9375 C280.3906 252.1094 280.4531 252.3438 280.5781 252.8125 L280.7344 253.3438 L281.1094 253.3438 L281.0938 252.5312 C281.0938 252.0938 281.2031 251.9688 281.7812 251.7344 L282.2031 251.5625 C283.0312 251.2188 283.4531 250.6875 283.4531 249.8438 C283.4531 248.1562 281.6562 247.1875 280.5 247.0312 C280.1094 247.125 279.9062 247.2969 279.9062 247.6406 C279.9062 247.9375 280.0625 248.1562 280.7188 248.2656 L282.4688 248.5781 Z"
      /><rect x="265" y="246" width="5" style="fill:white; stroke:none;" height="10"
      /><path style="stroke:none;" d="M266.8906 254.6875 C266.4844 254.6875 266.1562 255.0469 266.1562 255.4219 C266.1562 255.8125 266.4844 256.1562 266.8906 256.1562 C267.2969 256.1562 267.6406 255.8125 267.6406 255.4219 C267.6406 255.0469 267.2969 254.6875 266.8906 254.6875 ZM268.4688 248.5781 C268.7188 248.8906 268.875 249.2656 268.8906 249.6562 C268.8906 250.1875 268.625 250.5 268.0312 250.7656 L267.4062 251.0156 C266.6406 251.3125 266.3906 251.5469 266.3906 251.9375 C266.3906 252.1094 266.4531 252.3438 266.5781 252.8125 L266.7344 253.3438 L267.1094 253.3438 L267.0938 252.5312 C267.0938 252.0938 267.2031 251.9688 267.7812 251.7344 L268.2031 251.5625 C269.0312 251.2188 269.4531 250.6875 269.4531 249.8438 C269.4531 248.1562 267.6562 247.1875 266.5 247.0312 C266.1094 247.125 265.9062 247.2969 265.9062 247.6406 C265.9062 247.9375 266.0625 248.1562 266.7188 248.2656 L268.4688 248.5781 Z"
      /><rect x="344" y="333" width="5" style="fill:white; stroke:none;" height="10"
      /><path style="stroke:none;" d="M345.8906 341.6875 C345.4844 341.6875 345.1562 342.0469 345.1562 342.4219 C345.1562 342.8125 345.4844 343.1562 345.8906 343.1562 C346.2969 343.1562 346.6406 342.8125 346.6406 342.4219 C346.6406 342.0469 346.2969 341.6875 345.8906 341.6875 ZM347.4688 335.5781 C347.7188 335.8906 347.875 336.2656 347.8906 336.6562 C347.8906 337.1875 347.625 337.5 347.0312 337.7656 L346.4062 338.0156 C345.6406 338.3125 345.3906 338.5469 345.3906 338.9375 C345.3906 339.1094 345.4531 339.3438 345.5781 339.8125 L345.7344 340.3438 L346.1094 340.3438 L346.0938 339.5312 C346.0938 339.0938 346.2031 338.9688 346.7812 338.7344 L347.2031 338.5625 C348.0312 338.2188 348.4531 337.6875 348.4531 336.8438 C348.4531 335.1562 346.6562 334.1875 345.5 334.0312 C345.1094 334.125 344.9062 334.2969 344.9062 334.6406 C344.9062 334.9375 345.0625 335.1562 345.7188 335.2656 L347.4688 335.5781 Z"
      /><rect x="317" y="371" width="5" style="fill:white; stroke:none;" height="10"
      /><path style="stroke:none;" d="M318.8906 379.6875 C318.4844 379.6875 318.1562 380.0469 318.1562 380.4219 C318.1562 380.8125 318.4844 381.1562 318.8906 381.1562 C319.2969 381.1562 319.6406 380.8125 319.6406 380.4219 C319.6406 380.0469 319.2969 379.6875 318.8906 379.6875 ZM320.4688 373.5781 C320.7188 373.8906 320.875 374.2656 320.8906 374.6562 C320.8906 375.1875 320.625 375.5 320.0312 375.7656 L319.4062 376.0156 C318.6406 376.3125 318.3906 376.5469 318.3906 376.9375 C318.3906 377.1094 318.4531 377.3438 318.5781 377.8125 L318.7344 378.3438 L319.1094 378.3438 L319.0938 377.5312 C319.0938 377.0938 319.2031 376.9688 319.7812 376.7344 L320.2031 376.5625 C321.0312 376.2188 321.4531 375.6875 321.4531 374.8438 C321.4531 373.1562 319.6562 372.1875 318.5 372.0312 C318.1094 372.125 317.9062 372.2969 317.9062 372.6406 C317.9062 372.9375 318.0625 373.1562 318.7188 373.2656 L320.4688 373.5781 Z"
      /><rect x="331" y="298" width="5" style="fill:white; stroke:none;" height="10"
      /><path style="stroke:none;" d="M332.8906 306.6875 C332.4844 306.6875 332.1562 307.0469 332.1562 307.4219 C332.1562 307.8125 332.4844 308.1562 332.8906 308.1562 C333.2969 308.1562 333.6406 307.8125 333.6406 307.4219 C333.6406 307.0469 333.2969 306.6875 332.8906 306.6875 ZM334.4688 300.5781 C334.7188 300.8906 334.875 301.2656 334.8906 301.6562 C334.8906 302.1875 334.625 302.5 334.0312 302.7656 L333.4062 303.0156 C332.6406 303.3125 332.3906 303.5469 332.3906 303.9375 C332.3906 304.1094 332.4531 304.3438 332.5781 304.8125 L332.7344 305.3438 L333.1094 305.3438 L333.0938 304.5312 C333.0938 304.0938 333.2031 303.9688 333.7812 303.7344 L334.2031 303.5625 C335.0312 303.2188 335.4531 302.6875 335.4531 301.8438 C335.4531 300.1562 333.6562 299.1875 332.5 299.0312 C332.1094 299.125 331.9062 299.2969 331.9062 299.6406 C331.9062 299.9375 332.0625 300.1562 332.7188 300.2656 L334.4688 300.5781 Z"
      /><rect x="304" y="260" width="5" style="fill:white; stroke:none;" height="10"
      /><path style="stroke:none;" d="M305.8906 268.6875 C305.4844 268.6875 305.1562 269.0469 305.1562 269.4219 C305.1562 269.8125 305.4844 270.1562 305.8906 270.1562 C306.2969 270.1562 306.6406 269.8125 306.6406 269.4219 C306.6406 269.0469 306.2969 268.6875 305.8906 268.6875 ZM307.4688 262.5781 C307.7188 262.8906 307.875 263.2656 307.8906 263.6562 C307.8906 264.1875 307.625 264.5 307.0312 264.7656 L306.4062 265.0156 C305.6406 265.3125 305.3906 265.5469 305.3906 265.9375 C305.3906 266.1094 305.4531 266.3438 305.5781 266.8125 L305.7344 267.3438 L306.1094 267.3438 L306.0938 266.5312 C306.0938 266.0938 306.2031 265.9688 306.7812 265.7344 L307.2031 265.5625 C308.0312 265.2188 308.4531 264.6875 308.4531 263.8438 C308.4531 262.1562 306.6562 261.1875 305.5 261.0312 C305.1094 261.125 304.9062 261.2969 304.9062 261.6406 C304.9062 261.9375 305.0625 262.1562 305.7188 262.2656 L307.4688 262.5781 Z"
      /><polygon style="fill:none;" points=" 353 191 301 191"
      /><circle style="fill:white; clip-path:url(#clipPath26); stroke:none;" r="11" cx="353" cy="191"
      /><rect x="342" y="180" width="22" style="clip-path:url(#clipPath26); fill:rgb(0,166,81); stroke:none;" height="22"
      /><rect x="342" y="180" width="22" style="fill:none; clip-path:url(#clipPath26);" height="22"
      /><circle r="11" style="fill:none;" cx="353" cy="191"
    /></g
    ><g style="fill:white; text-rendering:optimizeSpeed; font-size:14px; font-family:'SansSerif'; stroke:white;"
    ><rect x="345" width="14" height="10" y="162" style="stroke:none;"
      /><path d="M347.4844 169.9062 L348.625 169.9062 C348.375 167.7031 350.8906 166.875 350.8906 164.8281 C350.8906 163.2969 349.8594 162.3281 348.2812 162.3281 C347.1406 162.3281 346.25 162.875 345.6094 163.625 L346.3281 164.2969 C346.8125 163.7344 347.4375 163.3906 348.1406 163.3906 C349.125 163.3906 349.6406 164.0625 349.6406 164.9062 C349.6406 166.5781 347.1719 167.4688 347.4844 169.9062 ZM348.0938 173.1875 C348.6094 173.1875 349.0312 172.7969 349.0312 172.2188 C349.0312 171.625 348.6094 171.2188 348.0938 171.2188 C347.5938 171.2188 347.1719 171.625 347.1719 172.2188 C347.1719 172.7969 347.5938 173.1875 348.0938 173.1875 ZM353.0422 173 L354.3391 173 L354.3391 168.9219 L356.0266 168.9219 C358.2922 168.9219 359.8079 167.9219 359.8079 165.75 C359.8079 163.5156 358.2766 162.7188 355.9797 162.7188 L353.0422 162.7188 L353.0422 173 ZM354.3391 167.875 L354.3391 163.7812 L355.8079 163.7812 C357.6204 163.7812 358.5266 164.2656 358.5266 165.75 C358.5266 167.2188 357.6672 167.875 355.8704 167.875 L354.3391 167.875 Z" style="fill:black; stroke:none;"
      /><circle r="11" style="clip-path:url(#clipPath27); stroke:none;" cx="301" cy="191"
    /></g
    ><g style="fill:rgb(0,166,81); text-rendering:optimizeSpeed; stroke:rgb(0,166,81);"
    ><rect x="290" y="180" width="22" style="clip-path:url(#clipPath27); stroke:none;" height="22"
      /><rect x="290" y="180" width="22" style="clip-path:url(#clipPath27); fill:none; stroke:black;" height="22"
      /><circle r="11" style="fill:none; stroke:black;" cx="301" cy="191"
      /><rect x="331" y="194" width="5" style="fill:white; stroke:none;" height="10"
      /><path d="M332.8906 202.6875 C332.4844 202.6875 332.1562 203.0469 332.1562 203.4219 C332.1562 203.8125 332.4844 204.1562 332.8906 204.1562 C333.2969 204.1562 333.6406 203.8125 333.6406 203.4219 C333.6406 203.0469 333.2969 202.6875 332.8906 202.6875 ZM334.4688 196.5781 C334.7188 196.8906 334.875 197.2656 334.8906 197.6562 C334.8906 198.1875 334.625 198.5 334.0312 198.7656 L333.4062 199.0156 C332.6406 199.3125 332.3906 199.5469 332.3906 199.9375 C332.3906 200.1094 332.4531 200.3438 332.5781 200.8125 L332.7344 201.3438 L333.1094 201.3438 L333.0938 200.5312 C333.0938 200.0938 333.2031 199.9688 333.7812 199.7344 L334.2031 199.5625 C335.0312 199.2188 335.4531 198.6875 335.4531 197.8438 C335.4531 196.1562 333.6562 195.1875 332.5 195.0312 C332.1094 195.125 331.9062 195.2969 331.9062 195.6406 C331.9062 195.9375 332.0625 196.1562 332.7188 196.2656 L334.4688 196.5781 Z" style="fill:black; stroke:none;"
      /><rect x="317" y="194" width="5" style="fill:white; stroke:none;" height="10"
      /><path d="M318.8906 202.6875 C318.4844 202.6875 318.1562 203.0469 318.1562 203.4219 C318.1562 203.8125 318.4844 204.1562 318.8906 204.1562 C319.2969 204.1562 319.6406 203.8125 319.6406 203.4219 C319.6406 203.0469 319.2969 202.6875 318.8906 202.6875 ZM320.4688 196.5781 C320.7188 196.8906 320.875 197.2656 320.8906 197.6562 C320.8906 198.1875 320.625 198.5 320.0312 198.7656 L319.4062 199.0156 C318.6406 199.3125 318.3906 199.5469 318.3906 199.9375 C318.3906 200.1094 318.4531 200.3438 318.5781 200.8125 L318.7344 201.3438 L319.1094 201.3438 L319.0938 200.5312 C319.0938 200.0938 319.2031 199.9688 319.7812 199.7344 L320.2031 199.5625 C321.0312 199.2188 321.4531 198.6875 321.4531 197.8438 C321.4531 196.1562 319.6562 195.1875 318.5 195.0312 C318.1094 195.125 317.9062 195.2969 317.9062 195.6406 C317.9062 195.9375 318.0625 196.1562 318.7188 196.2656 L320.4688 196.5781 Z" style="fill:black; stroke:none;"
      /><rect x="394" y="270" width="5" style="fill:white; stroke:none;" height="10"
      /><path d="M395.8906 278.6875 C395.4844 278.6875 395.1562 279.0469 395.1562 279.4219 C395.1562 279.8125 395.4844 280.1562 395.8906 280.1562 C396.2969 280.1562 396.6406 279.8125 396.6406 279.4219 C396.6406 279.0469 396.2969 278.6875 395.8906 278.6875 ZM397.4688 272.5781 C397.7188 272.8906 397.875 273.2656 397.8906 273.6562 C397.8906 274.1875 397.625 274.5 397.0312 274.7656 L396.4062 275.0156 C395.6406 275.3125 395.3906 275.5469 395.3906 275.9375 C395.3906 276.1094 395.4531 276.3438 395.5781 276.8125 L395.7344 277.3438 L396.1094 277.3438 L396.0938 276.5312 C396.0938 276.0938 396.2031 275.9688 396.7812 275.7344 L397.2031 275.5625 C398.0312 275.2188 398.4531 274.6875 398.4531 273.8438 C398.4531 272.1562 396.6562 271.1875 395.5 271.0312 C395.1094 271.125 394.9062 271.2969 394.9062 271.6406 C394.9062 271.9375 395.0625 272.1562 395.7188 272.2656 L397.4688 272.5781 Z" style="fill:black; stroke:none;"
      /><rect x="370" y="298" width="5" style="fill:white; stroke:none;" height="10"
      /><path d="M371.8906 306.6875 C371.4844 306.6875 371.1562 307.0469 371.1562 307.4219 C371.1562 307.8125 371.4844 308.1562 371.8906 308.1562 C372.2969 308.1562 372.6406 307.8125 372.6406 307.4219 C372.6406 307.0469 372.2969 306.6875 371.8906 306.6875 ZM373.4688 300.5781 C373.7188 300.8906 373.875 301.2656 373.8906 301.6562 C373.8906 302.1875 373.625 302.5 373.0312 302.7656 L372.4062 303.0156 C371.6406 303.3125 371.3906 303.5469 371.3906 303.9375 C371.3906 304.1094 371.4531 304.3438 371.5781 304.8125 L371.7344 305.3438 L372.1094 305.3438 L372.0938 304.5312 C372.0938 304.0938 372.2031 303.9688 372.7812 303.7344 L373.2031 303.5625 C374.0312 303.2188 374.4531 302.6875 374.4531 301.8438 C374.4531 300.1562 372.6562 299.1875 371.5 299.0312 C371.1094 299.125 370.9062 299.2969 370.9062 299.6406 C370.9062 299.9375 371.0625 300.1562 371.7188 300.2656 L373.4688 300.5781 Z" style="fill:black; stroke:none;"
      /><rect x="382" y="236" width="5" style="fill:white; stroke:none;" height="10"
      /><path d="M383.8906 244.6875 C383.4844 244.6875 383.1562 245.0469 383.1562 245.4219 C383.1562 245.8125 383.4844 246.1562 383.8906 246.1562 C384.2969 246.1562 384.6406 245.8125 384.6406 245.4219 C384.6406 245.0469 384.2969 244.6875 383.8906 244.6875 ZM385.4688 238.5781 C385.7188 238.8906 385.875 239.2656 385.8906 239.6562 C385.8906 240.1875 385.625 240.5 385.0312 240.7656 L384.4062 241.0156 C383.6406 241.3125 383.3906 241.5469 383.3906 241.9375 C383.3906 242.1094 383.4531 242.3438 383.5781 242.8125 L383.7344 243.3438 L384.1094 243.3438 L384.0938 242.5312 C384.0938 242.0938 384.2031 241.9688 384.7812 241.7344 L385.2031 241.5625 C386.0312 241.2188 386.4531 240.6875 386.4531 239.8438 C386.4531 238.1562 384.6562 237.1875 383.5 237.0312 C383.1094 237.125 382.9062 237.2969 382.9062 237.6406 C382.9062 237.9375 383.0625 238.1562 383.7188 238.2656 L385.4688 238.5781 Z" style="fill:black; stroke:none;"
      /><rect x="358" y="208" width="5" style="fill:white; stroke:none;" height="10"
      /><path d="M359.8906 216.6875 C359.4844 216.6875 359.1562 217.0469 359.1562 217.4219 C359.1562 217.8125 359.4844 218.1562 359.8906 218.1562 C360.2969 218.1562 360.6406 217.8125 360.6406 217.4219 C360.6406 217.0469 360.2969 216.6875 359.8906 216.6875 ZM361.4688 210.5781 C361.7188 210.8906 361.875 211.2656 361.8906 211.6562 C361.8906 212.1875 361.625 212.5 361.0312 212.7656 L360.4062 213.0156 C359.6406 213.3125 359.3906 213.5469 359.3906 213.9375 C359.3906 214.1094 359.4531 214.3438 359.5781 214.8125 L359.7344 215.3438 L360.1094 215.3438 L360.0938 214.5312 C360.0938 214.0938 360.2031 213.9688 360.7812 213.7344 L361.2031 213.5625 C362.0312 213.2188 362.4531 212.6875 362.4531 211.8438 C362.4531 210.1562 360.6562 209.1875 359.5 209.0312 C359.1094 209.125 358.9062 209.2969 358.9062 209.6406 C358.9062 209.9375 359.0625 210.1562 359.7188 210.2656 L361.4688 210.5781 Z" style="fill:black; stroke:none;"
      /><polygon style="fill:none; stroke:black;" points=" 405 78 353 116"
      /><polygon style="fill:none; stroke:black;" points=" 405 78 353 41"
      /><circle style="fill:white; clip-path:url(#clipPath28); stroke:none;" r="11" cx="405" cy="78"
      /><rect x="394" y="67" width="22" style="clip-path:url(#clipPath28); stroke:none;" height="22"
      /><rect x="394" y="67" width="22" style="clip-path:url(#clipPath28); fill:none; stroke:black;" height="22"
      /><circle r="11" style="fill:none; stroke:black;" cx="405" cy="78"
      /><polygon style="fill:none; stroke:black;" points=" 353 116 301 116"
      /><circle style="fill:white; clip-path:url(#clipPath29); stroke:none;" r="11" cx="353" cy="116"
      /><rect x="342" y="105" width="22" style="clip-path:url(#clipPath29); stroke:none;" height="22"
      /><rect x="342" y="105" width="22" style="clip-path:url(#clipPath29); fill:none; stroke:black;" height="22"
      /><circle r="11" style="fill:none; stroke:black;" cx="353" cy="116"
    /></g
    ><g style="fill:white; text-rendering:optimizeSpeed; font-size:14px; font-family:'SansSerif'; stroke:white;"
    ><rect x="345" width="14" height="10" y="87" style="stroke:none;"
      /><path d="M347.4844 94.9062 L348.625 94.9062 C348.375 92.7031 350.8906 91.875 350.8906 89.8281 C350.8906 88.2969 349.8594 87.3281 348.2812 87.3281 C347.1406 87.3281 346.25 87.875 345.6094 88.625 L346.3281 89.2969 C346.8125 88.7344 347.4375 88.3906 348.1406 88.3906 C349.125 88.3906 349.6406 89.0625 349.6406 89.9062 C349.6406 91.5781 347.1719 92.4688 347.4844 94.9062 ZM348.0938 98.1875 C348.6094 98.1875 349.0312 97.7969 349.0312 97.2188 C349.0312 96.625 348.6094 96.2188 348.0938 96.2188 C347.5938 96.2188 347.1719 96.625 347.1719 97.2188 C347.1719 97.7969 347.5938 98.1875 348.0938 98.1875 ZM353.0422 98 L354.3391 98 L354.3391 93.9219 L356.0266 93.9219 C358.2922 93.9219 359.8079 92.9219 359.8079 90.75 C359.8079 88.5156 358.2766 87.7188 355.9797 87.7188 L353.0422 87.7188 L353.0422 98 ZM354.3391 92.875 L354.3391 88.7812 L355.8079 88.7812 C357.6204 88.7812 358.5266 89.2656 358.5266 90.75 C358.5266 92.2188 357.6672 92.875 355.8704 92.875 L354.3391 92.875 Z" style="fill:black; stroke:none;"
      /><circle r="11" style="clip-path:url(#clipPath30); stroke:none;" cx="301" cy="116"
    /></g
    ><g style="fill:rgb(0,166,81); text-rendering:optimizeSpeed; stroke:rgb(0,166,81);"
    ><rect x="290" y="105" width="22" style="clip-path:url(#clipPath30); stroke:none;" height="22"
      /><rect x="290" y="105" width="22" style="clip-path:url(#clipPath30); fill:none; stroke:black;" height="22"
      /><circle r="11" style="fill:none; stroke:black;" cx="301" cy="116"
      /><rect x="331" y="119" width="5" style="fill:white; stroke:none;" height="10"
      /><path d="M332.8906 127.6875 C332.4844 127.6875 332.1562 128.0469 332.1562 128.4219 C332.1562 128.8125 332.4844 129.1562 332.8906 129.1562 C333.2969 129.1562 333.6406 128.8125 333.6406 128.4219 C333.6406 128.0469 333.2969 127.6875 332.8906 127.6875 ZM334.4688 121.5781 C334.7188 121.8906 334.875 122.2656 334.8906 122.6562 C334.8906 123.1875 334.625 123.5 334.0312 123.7656 L333.4062 124.0156 C332.6406 124.3125 332.3906 124.5469 332.3906 124.9375 C332.3906 125.1094 332.4531 125.3438 332.5781 125.8125 L332.7344 126.3438 L333.1094 126.3438 L333.0938 125.5312 C333.0938 125.0938 333.2031 124.9688 333.7812 124.7344 L334.2031 124.5625 C335.0312 124.2188 335.4531 123.6875 335.4531 122.8438 C335.4531 121.1562 333.6562 120.1875 332.5 120.0312 C332.1094 120.125 331.9062 120.2969 331.9062 120.6406 C331.9062 120.9375 332.0625 121.1562 332.7188 121.2656 L334.4688 121.5781 Z" style="fill:black; stroke:none;"
      /><rect x="317" y="119" width="5" style="fill:white; stroke:none;" height="10"
      /><path d="M318.8906 127.6875 C318.4844 127.6875 318.1562 128.0469 318.1562 128.4219 C318.1562 128.8125 318.4844 129.1562 318.8906 129.1562 C319.2969 129.1562 319.6406 128.8125 319.6406 128.4219 C319.6406 128.0469 319.2969 127.6875 318.8906 127.6875 ZM320.4688 121.5781 C320.7188 121.8906 320.875 122.2656 320.8906 122.6562 C320.8906 123.1875 320.625 123.5 320.0312 123.7656 L319.4062 124.0156 C318.6406 124.3125 318.3906 124.5469 318.3906 124.9375 C318.3906 125.1094 318.4531 125.3438 318.5781 125.8125 L318.7344 126.3438 L319.1094 126.3438 L319.0938 125.5312 C319.0938 125.0938 319.2031 124.9688 319.7812 124.7344 L320.2031 124.5625 C321.0312 124.2188 321.4531 123.6875 321.4531 122.8438 C321.4531 121.1562 319.6562 120.1875 318.5 120.0312 C318.1094 120.125 317.9062 120.2969 317.9062 120.6406 C317.9062 120.9375 318.0625 121.1562 318.7188 121.2656 L320.4688 121.5781 Z" style="fill:black; stroke:none;"
      /><circle style="fill:white; clip-path:url(#clipPath31); stroke:none;" r="11" cx="353" cy="41"
      /><rect x="342" y="30" width="22" style="clip-path:url(#clipPath31); stroke:none;" height="22"
      /><rect x="342" y="30" width="22" style="clip-path:url(#clipPath31); fill:none; stroke:black;" height="22"
      /><circle r="11" style="fill:none; stroke:black;" cx="353" cy="41"
      /><rect x="389" y="92" width="5" style="fill:white; stroke:none;" height="10"
      /><path d="M390.8906 100.6875 C390.4844 100.6875 390.1562 101.0469 390.1562 101.4219 C390.1562 101.8125 390.4844 102.1562 390.8906 102.1562 C391.2969 102.1562 391.6406 101.8125 391.6406 101.4219 C391.6406 101.0469 391.2969 100.6875 390.8906 100.6875 ZM392.4688 94.5781 C392.7188 94.8906 392.875 95.2656 392.8906 95.6562 C392.8906 96.1875 392.625 96.5 392.0312 96.7656 L391.4062 97.0156 C390.6406 97.3125 390.3906 97.5469 390.3906 97.9375 C390.3906 98.1094 390.4531 98.3438 390.5781 98.8125 L390.7344 99.3438 L391.1094 99.3438 L391.0938 98.5312 C391.0938 98.0938 391.2031 97.9688 391.7812 97.7344 L392.2031 97.5625 C393.0312 97.2188 393.4531 96.6875 393.4531 95.8438 C393.4531 94.1562 391.6562 93.1875 390.5 93.0312 C390.1094 93.125 389.9062 93.2969 389.9062 93.6406 C389.9062 93.9375 390.0625 94.1562 390.7188 94.2656 L392.4688 94.5781 Z" style="fill:black; stroke:none;"
      /><rect x="372" y="104" width="5" style="fill:white; stroke:none;" height="10"
      /><path d="M373.8906 112.6875 C373.4844 112.6875 373.1562 113.0469 373.1562 113.4219 C373.1562 113.8125 373.4844 114.1562 373.8906 114.1562 C374.2969 114.1562 374.6406 113.8125 374.6406 113.4219 C374.6406 113.0469 374.2969 112.6875 373.8906 112.6875 ZM375.4688 106.5781 C375.7188 106.8906 375.875 107.2656 375.8906 107.6562 C375.8906 108.1875 375.625 108.5 375.0312 108.7656 L374.4062 109.0156 C373.6406 109.3125 373.3906 109.5469 373.3906 109.9375 C373.3906 110.1094 373.4531 110.3438 373.5781 110.8125 L373.7344 111.3438 L374.1094 111.3438 L374.0938 110.5312 C374.0938 110.0938 374.2031 109.9688 374.7812 109.7344 L375.2031 109.5625 C376.0312 109.2188 376.4531 108.6875 376.4531 107.8438 C376.4531 106.1562 374.6562 105.1875 373.5 105.0312 C373.1094 105.125 372.9062 105.2969 372.9062 105.6406 C372.9062 105.9375 373.0625 106.1562 373.7188 106.2656 L375.4688 106.5781 Z" style="fill:black; stroke:none;"
      /><rect x="380" y="67" width="5" style="fill:white; stroke:none;" height="10"
      /><path d="M381.8906 75.6875 C381.4844 75.6875 381.1562 76.0469 381.1562 76.4219 C381.1562 76.8125 381.4844 77.1562 381.8906 77.1562 C382.2969 77.1562 382.6406 76.8125 382.6406 76.4219 C382.6406 76.0469 382.2969 75.6875 381.8906 75.6875 ZM383.4688 69.5781 C383.7188 69.8906 383.875 70.2656 383.8906 70.6562 C383.8906 71.1875 383.625 71.5 383.0312 71.7656 L382.4062 72.0156 C381.6406 72.3125 381.3906 72.5469 381.3906 72.9375 C381.3906 73.1094 381.4531 73.3438 381.5781 73.8125 L381.7344 74.3438 L382.1094 74.3438 L382.0938 73.5312 C382.0938 73.0938 382.2031 72.9688 382.7812 72.7344 L383.2031 72.5625 C384.0312 72.2188 384.4531 71.6875 384.4531 70.8438 C384.4531 69.1562 382.6562 68.1875 381.5 68.0312 C381.1094 68.125 380.9062 68.2969 380.9062 68.6406 C380.9062 68.9375 381.0625 69.1562 381.7188 69.2656 L383.4688 69.5781 Z" style="fill:black; stroke:none;"
      /><rect x="363" y="54" width="5" style="fill:white; stroke:none;" height="10"
      /><path d="M364.8906 62.6875 C364.4844 62.6875 364.1562 63.0469 364.1562 63.4219 C364.1562 63.8125 364.4844 64.1562 364.8906 64.1562 C365.2969 64.1562 365.6406 63.8125 365.6406 63.4219 C365.6406 63.0469 365.2969 62.6875 364.8906 62.6875 ZM366.4688 56.5781 C366.7188 56.8906 366.875 57.2656 366.8906 57.6562 C366.8906 58.1875 366.625 58.5 366.0312 58.7656 L365.4062 59.0156 C364.6406 59.3125 364.3906 59.5469 364.3906 59.9375 C364.3906 60.1094 364.4531 60.3438 364.5781 60.8125 L364.7344 61.3438 L365.1094 61.3438 L365.0938 60.5312 C365.0938 60.0938 365.2031 59.9688 365.7812 59.7344 L366.2031 59.5625 C367.0312 59.2188 367.4531 58.6875 367.4531 57.8438 C367.4531 56.1562 365.6562 55.1875 364.5 55.0312 C364.1094 55.125 363.9062 55.2969 363.9062 55.6406 C363.9062 55.9375 364.0625 56.1562 364.7188 56.2656 L366.4688 56.5781 Z" style="fill:black; stroke:none;"
      /><rect x="450" y="181" width="5" style="fill:white; stroke:none;" height="10"
      /><path d="M451.8906 189.6875 C451.4844 189.6875 451.1562 190.0469 451.1562 190.4219 C451.1562 190.8125 451.4844 191.1562 451.8906 191.1562 C452.2969 191.1562 452.6406 190.8125 452.6406 190.4219 C452.6406 190.0469 452.2969 189.6875 451.8906 189.6875 ZM453.4688 183.5781 C453.7188 183.8906 453.875 184.2656 453.8906 184.6562 C453.8906 185.1875 453.625 185.5 453.0312 185.7656 L452.4062 186.0156 C451.6406 186.3125 451.3906 186.5469 451.3906 186.9375 C451.3906 187.1094 451.4531 187.3438 451.5781 187.8125 L451.7344 188.3438 L452.1094 188.3438 L452.0938 187.5312 C452.0938 187.0938 452.2031 186.9688 452.7812 186.7344 L453.2031 186.5625 C454.0312 186.2188 454.4531 185.6875 454.4531 184.8438 C454.4531 183.1562 452.6562 182.1875 451.5 182.0312 C451.1094 182.125 450.9062 182.2969 450.9062 182.6406 C450.9062 182.9375 451.0625 183.1562 451.7188 183.2656 L453.4688 183.5781 Z" style="fill:black; stroke:none;"
      /><rect x="419" y="234" width="5" style="fill:white; stroke:none;" height="10"
      /><path d="M420.8906 242.6875 C420.4844 242.6875 420.1562 243.0469 420.1562 243.4219 C420.1562 243.8125 420.4844 244.1562 420.8906 244.1562 C421.2969 244.1562 421.6406 243.8125 421.6406 243.4219 C421.6406 243.0469 421.2969 242.6875 420.8906 242.6875 ZM422.4688 236.5781 C422.7188 236.8906 422.875 237.2656 422.8906 237.6562 C422.8906 238.1875 422.625 238.5 422.0312 238.7656 L421.4062 239.0156 C420.6406 239.3125 420.3906 239.5469 420.3906 239.9375 C420.3906 240.1094 420.4531 240.3438 420.5781 240.8125 L420.7344 241.3438 L421.1094 241.3438 L421.0938 240.5312 C421.0938 240.0938 421.2031 239.9688 421.7812 239.7344 L422.2031 239.5625 C423.0312 239.2188 423.4531 238.6875 423.4531 237.8438 C423.4531 236.1562 421.6562 235.1875 420.5 235.0312 C420.1094 235.125 419.9062 235.2969 419.9062 235.6406 C419.9062 235.9375 420.0625 236.1562 420.7188 236.2656 L422.4688 236.5781 Z" style="fill:black; stroke:none;"
      /><rect x="436" y="146" width="5" style="fill:white; stroke:none;" height="10"
      /><path d="M437.8906 154.6875 C437.4844 154.6875 437.1562 155.0469 437.1562 155.4219 C437.1562 155.8125 437.4844 156.1562 437.8906 156.1562 C438.2969 156.1562 438.6406 155.8125 438.6406 155.4219 C438.6406 155.0469 438.2969 154.6875 437.8906 154.6875 ZM439.4688 148.5781 C439.7188 148.8906 439.875 149.2656 439.8906 149.6562 C439.8906 150.1875 439.625 150.5 439.0312 150.7656 L438.4062 151.0156 C437.6406 151.3125 437.3906 151.5469 437.3906 151.9375 C437.3906 152.1094 437.4531 152.3438 437.5781 152.8125 L437.7344 153.3438 L438.1094 153.3438 L438.0938 152.5312 C438.0938 152.0938 438.2031 151.9688 438.7812 151.7344 L439.2031 151.5625 C440.0312 151.2188 440.4531 150.6875 440.4531 149.8438 C440.4531 148.1562 438.6562 147.1875 437.5 147.0312 C437.1094 147.125 436.9062 147.2969 436.9062 147.6406 C436.9062 147.9375 437.0625 148.1562 437.7188 148.2656 L439.4688 148.5781 Z" style="fill:black; stroke:none;"
      /><rect x="406" y="94" width="5" style="fill:white; stroke:none;" height="10"
      /><path d="M407.8906 102.6875 C407.4844 102.6875 407.1562 103.0469 407.1562 103.4219 C407.1562 103.8125 407.4844 104.1562 407.8906 104.1562 C408.2969 104.1562 408.6406 103.8125 408.6406 103.4219 C408.6406 103.0469 408.2969 102.6875 407.8906 102.6875 ZM409.4688 96.5781 C409.7188 96.8906 409.875 97.2656 409.8906 97.6562 C409.8906 98.1875 409.625 98.5 409.0312 98.7656 L408.4062 99.0156 C407.6406 99.3125 407.3906 99.5469 407.3906 99.9375 C407.3906 100.1094 407.4531 100.3438 407.5781 100.8125 L407.7344 101.3438 L408.1094 101.3438 L408.0938 100.5312 C408.0938 100.0938 408.2031 99.9688 408.7812 99.7344 L409.2031 99.5625 C410.0312 99.2188 410.4531 98.6875 410.4531 97.8438 C410.4531 96.1562 408.6562 95.1875 407.5 95.0312 C407.1094 95.125 406.9062 95.2969 406.9062 95.6406 C406.9062 95.9375 407.0625 96.1562 407.7188 96.2656 L409.4688 96.5781 Z" style="fill:black; stroke:none;"
      /><rect x="487" y="168" width="5" style="fill:white; stroke:none;" height="10"
      /><path d="M488.8906 176.6875 C488.4844 176.6875 488.1562 177.0469 488.1562 177.4219 C488.1562 177.8125 488.4844 178.1562 488.8906 178.1562 C489.2969 178.1562 489.6406 177.8125 489.6406 177.4219 C489.6406 177.0469 489.2969 176.6875 488.8906 176.6875 ZM490.4688 170.5781 C490.7188 170.8906 490.875 171.2656 490.8906 171.6562 C490.8906 172.1875 490.625 172.5 490.0312 172.7656 L489.4062 173.0156 C488.6406 173.3125 488.3906 173.5469 488.3906 173.9375 C488.3906 174.1094 488.4531 174.3438 488.5781 174.8125 L488.7344 175.3438 L489.1094 175.3438 L489.0938 174.5312 C489.0938 174.0938 489.2031 173.9688 489.7812 173.7344 L490.2031 173.5625 C491.0312 173.2188 491.4531 172.6875 491.4531 171.8438 C491.4531 170.1562 489.6562 169.1875 488.5 169.0312 C488.1094 169.125 487.9062 169.2969 487.9062 169.6406 C487.9062 169.9375 488.0625 170.1562 488.7188 170.2656 L490.4688 170.5781 Z" style="fill:black; stroke:none;"
      /><rect x="473" y="168" width="5" style="fill:white; stroke:none;" height="10"
      /><path d="M474.8906 176.6875 C474.4844 176.6875 474.1562 177.0469 474.1562 177.4219 C474.1562 177.8125 474.4844 178.1562 474.8906 178.1562 C475.2969 178.1562 475.6406 177.8125 475.6406 177.4219 C475.6406 177.0469 475.2969 176.6875 474.8906 176.6875 ZM476.4688 170.5781 C476.7188 170.8906 476.875 171.2656 476.8906 171.6562 C476.8906 172.1875 476.625 172.5 476.0312 172.7656 L475.4062 173.0156 C474.6406 173.3125 474.3906 173.5469 474.3906 173.9375 C474.3906 174.1094 474.4531 174.3438 474.5781 174.8125 L474.7344 175.3438 L475.1094 175.3438 L475.0938 174.5312 C475.0938 174.0938 475.2031 173.9688 475.7812 173.7344 L476.2031 173.5625 C477.0312 173.2188 477.4531 172.6875 477.4531 171.8438 C477.4531 170.1562 475.6562 169.1875 474.5 169.0312 C474.1094 169.125 473.9062 169.2969 473.9062 169.6406 C473.9062 169.9375 474.0625 170.1562 474.7188 170.2656 L476.4688 170.5781 Z" style="fill:black; stroke:none;"
      /><rect x="539" y="168" width="5" style="fill:white; stroke:none;" height="10"
      /><path d="M540.8906 176.6875 C540.4844 176.6875 540.1562 177.0469 540.1562 177.4219 C540.1562 177.8125 540.4844 178.1562 540.8906 178.1562 C541.2969 178.1562 541.6406 177.8125 541.6406 177.4219 C541.6406 177.0469 541.2969 176.6875 540.8906 176.6875 ZM542.4688 170.5781 C542.7188 170.8906 542.875 171.2656 542.8906 171.6562 C542.8906 172.1875 542.625 172.5 542.0312 172.7656 L541.4062 173.0156 C540.6406 173.3125 540.3906 173.5469 540.3906 173.9375 C540.3906 174.1094 540.4531 174.3438 540.5781 174.8125 L540.7344 175.3438 L541.1094 175.3438 L541.0938 174.5312 C541.0938 174.0938 541.2031 173.9688 541.7812 173.7344 L542.2031 173.5625 C543.0312 173.2188 543.4531 172.6875 543.4531 171.8438 C543.4531 170.1562 541.6562 169.1875 540.5 169.0312 C540.1094 169.125 539.9062 169.2969 539.9062 169.6406 C539.9062 169.9375 540.0625 170.1562 540.7188 170.2656 L542.4688 170.5781 Z" style="fill:black; stroke:none;"
      /><rect x="525" y="168" width="5" style="fill:white; stroke:none;" height="10"
      /><path d="M526.8906 176.6875 C526.4844 176.6875 526.1562 177.0469 526.1562 177.4219 C526.1562 177.8125 526.4844 178.1562 526.8906 178.1562 C527.2969 178.1562 527.6406 177.8125 527.6406 177.4219 C527.6406 177.0469 527.2969 176.6875 526.8906 176.6875 ZM528.4688 170.5781 C528.7188 170.8906 528.875 171.2656 528.8906 171.6562 C528.8906 172.1875 528.625 172.5 528.0312 172.7656 L527.4062 173.0156 C526.6406 173.3125 526.3906 173.5469 526.3906 173.9375 C526.3906 174.1094 526.4531 174.3438 526.5781 174.8125 L526.7344 175.3438 L527.1094 175.3438 L527.0938 174.5312 C527.0938 174.0938 527.2031 173.9688 527.7812 173.7344 L528.2031 173.5625 C529.0312 173.2188 529.4531 172.6875 529.4531 171.8438 C529.4531 170.1562 527.6562 169.1875 526.5 169.0312 C526.1094 169.125 525.9062 169.2969 525.9062 169.6406 C525.9062 169.9375 526.0625 170.1562 526.7188 170.2656 L528.4688 170.5781 Z" style="fill:black; stroke:none;"
      /><rect x="577" y="168" width="5" style="fill:white; stroke:none;" height="10"
      /><path d="M578.8906 176.6875 C578.4844 176.6875 578.1562 177.0469 578.1562 177.4219 C578.1562 177.8125 578.4844 178.1562 578.8906 178.1562 C579.2969 178.1562 579.6406 177.8125 579.6406 177.4219 C579.6406 177.0469 579.2969 176.6875 578.8906 176.6875 ZM580.4688 170.5781 C580.7188 170.8906 580.875 171.2656 580.8906 171.6562 C580.8906 172.1875 580.625 172.5 580.0312 172.7656 L579.4062 173.0156 C578.6406 173.3125 578.3906 173.5469 578.3906 173.9375 C578.3906 174.1094 578.4531 174.3438 578.5781 174.8125 L578.7344 175.3438 L579.1094 175.3438 L579.0938 174.5312 C579.0938 174.0938 579.2031 173.9688 579.7812 173.7344 L580.2031 173.5625 C581.0312 173.2188 581.4531 172.6875 581.4531 171.8438 C581.4531 170.1562 579.6562 169.1875 578.5 169.0312 C578.1094 169.125 577.9062 169.2969 577.9062 169.6406 C577.9062 169.9375 578.0625 170.1562 578.7188 170.2656 L580.4688 170.5781 Z" style="fill:black; stroke:none;"
    /></g
  ></g
></svg
>
