<?xml version="1.0"?>
<!DOCTYPE svg PUBLIC '-//W3C//DTD SVG 1.0//EN'
          'http://www.w3.org/TR/2001/REC-SVG-20010904/DTD/svg10.dtd'>
<svg xmlns:xlink="http://www.w3.org/1999/xlink" style="fill-opacity:1; color-rendering:auto; color-interpolation:auto; text-rendering:auto; stroke:black; stroke-linecap:square; stroke-miterlimit:10; shape-rendering:auto; stroke-opacity:1; fill:black; stroke-dasharray:none; font-weight:normal; stroke-width:1; font-family:'Dialog'; font-style:normal; stroke-linejoin:miter; font-size:12px; stroke-dashoffset:0; image-rendering:auto;" viewBox="0 0 243 105" xmlns="http://www.w3.org/2000/svg"
><!--Generated by the Batik Graphics2D SVG Generator--><defs id="genericDefs"
  /><g
  ><defs id="defs1"
    ><clipPath clipPathUnits="userSpaceOnUse" id="clipPath1"
      ><path d="M161 41 C161 47.0751 156.0751 52 150 52 C143.9249 52 139 47.0751 139 41 C139 34.9249 143.9249 30 150 30 C156.0751 30 161 34.9249 161 41 Z"
      /></clipPath
      ><clipPath clipPathUnits="userSpaceOnUse" id="clipPath2"
      ><path d="M106 41 C106 47.0751 101.0751 52 95 52 C88.9249 52 84 47.0751 84 41 C84 34.9249 88.9249 30 95 30 C101.0751 30 106 34.9249 106 41 Z"
      /></clipPath
      ><clipPath clipPathUnits="userSpaceOnUse" id="clipPath3"
      ><path d="M30 30 L52 30 L52 52 L30 52 L30 30 Z"
      /></clipPath
    ></defs
    ><g style="fill:white; text-rendering:optimizeSpeed; stroke:white;"
    ><rect x="0" width="243" height="105" y="0" style="stroke:none;"
      /><polygon style="fill:none; stroke:black;" points=" 202 41 150 41"
      /><path d="M202 30 C196.5 35.5 207.5 46.5 202 52" style="fill:none; stroke:black;"
      /><polygon style="fill:none; stroke:black;" points=" 150 41 95 41"
      /><circle style="clip-path:url(#clipPath1); stroke:none;" r="11" cx="150" cy="41"
      /><rect x="139" y="30" width="22" style="clip-path:url(#clipPath1); fill:rgb(0,144,188); stroke:none;" height="22"
      /><rect x="139" y="30" width="22" style="clip-path:url(#clipPath1); fill:none; stroke:black;" height="22"
      /><circle style="fill:none; stroke:black;" r="11" cx="150" cy="41"
      /><polygon style="fill:none; stroke:black;" points=" 95 41 41 41"
      /><circle style="clip-path:url(#clipPath2); stroke:none;" r="11" cx="95" cy="41"
      /><rect x="84" y="30" width="22" style="clip-path:url(#clipPath2); fill:rgb(0,166,81); stroke:none;" height="22"
      /><rect x="84" y="30" width="22" style="clip-path:url(#clipPath2); fill:none; stroke:black;" height="22"
      /><circle style="fill:none; stroke:black;" r="11" cx="95" cy="41"
      /><rect x="82" y="58" width="25" style="stroke:none;" height="10"
    /></g
    ><g style="text-rendering:optimizeSpeed; font-size:14px; font-family:'SansSerif';"
    ><path style="stroke:none;" d="M85.7031 69.1875 C87.5156 69.1875 88.9844 68.0938 88.9844 66.25 C88.9844 64.8594 88.0156 63.9375 86.8125 63.6562 L86.8125 63.5938 C87.8906 63.1875 88.6406 62.3594 88.6406 61.125 C88.6406 59.5 87.375 58.5469 85.6562 58.5469 C84.4688 58.5469 83.5469 59.0625 82.7812 59.7812 L83.4688 60.5938 C84.0469 60 84.7656 59.5938 85.5938 59.5938 C86.6562 59.5938 87.3281 60.2344 87.3281 61.2188 C87.3281 62.3281 86.6094 63.1719 84.4844 63.1719 L84.4844 64.1562 C86.8594 64.1562 87.6875 64.9844 87.6875 66.2031 C87.6875 67.3906 86.8125 68.125 85.5938 68.125 C84.4375 68.125 83.6562 67.5781 83.0469 66.9375 L82.4062 67.7812 C83.0781 68.5156 84.0938 69.1875 85.7031 69.1875 ZM91.1762 69 L92.3481 69 L92.3481 63.3125 C92.3481 62.4375 92.2543 61.1875 92.1918 60.2969 L92.2543 60.2969 L93.0668 62.625 L95.0043 67.9688 L95.8793 67.9688 L97.8168 62.625 L98.6293 60.2969 L98.6918 60.2969 C98.6137 61.1875 98.52 62.4375 98.52 63.3125 L98.52 69 L99.7387 69 L99.7387 58.7188 L98.1762 58.7188 L96.2075 64.2188 C95.9731 64.9375 95.7543 65.6562 95.5043 66.375 L95.4418 66.375 C95.1918 65.6562 94.9575 64.9375 94.7075 64.2188 L92.7387 58.7188 L91.1762 58.7188 L91.1762 69 ZM105.4973 69.1875 C106.5285 69.1875 107.341 68.8281 108.0129 68.3906 L107.5442 67.5625 C106.9973 67.9375 106.3879 68.1562 105.6535 68.1562 C104.2004 68.1562 103.216 67.125 103.1223 65.5 L108.2473 65.5 C108.2785 65.3125 108.3098 65.0469 108.3098 64.7656 C108.3098 62.6094 107.216 61.2031 105.2785 61.2031 C103.5129 61.2031 101.8567 62.7344 101.8567 65.2031 C101.8567 67.7188 103.4817 69.1875 105.4973 69.1875 ZM103.1067 64.5781 C103.2629 63.0938 104.216 62.2188 105.2942 62.2188 C106.4817 62.2188 107.1848 63.0469 107.1848 64.5781 L103.1067 64.5781 Z"
    /></g
    ><g style="fill:white; text-rendering:optimizeSpeed; stroke:white;"
    ><rect x="30" y="30" width="22" style="clip-path:url(#clipPath3); stroke:none;" height="22"
      /><rect x="30" y="30" width="22" style="clip-path:url(#clipPath3); fill:rgb(0,144,188); stroke:none;" height="22"
      /><rect x="30" y="30" width="22" style="clip-path:url(#clipPath3); fill:none; stroke:black;" height="22"
      /><rect x="30" y="30" width="22" style="fill:none; stroke:black;" height="22"
      /><rect x="71" width="6" height="9" y="44" style="stroke:none;"
      /><path d="M72.4219 52.0938 C73.0781 51.375 73.7031 50.7188 74.0312 50.3438 C75.9219 48.3125 76.5312 47.4688 76.5312 46.3594 C76.5312 45.0156 75.7812 44.0781 74.1562 44.0781 C72.9062 44.0781 71.7969 44.7031 71.5938 45.9688 C71.7188 46.2031 71.9062 46.3438 72.1562 46.3438 C72.4688 46.3438 72.6562 46.1094 72.7969 45.5938 L73.0938 44.6719 C73.3906 44.5938 73.6562 44.5625 73.8906 44.5625 C74.9219 44.5625 75.5469 45.3125 75.5469 46.4219 C75.5469 47.4375 74.9844 48.4219 73.7031 49.9062 C73.125 50.5781 72.3906 51.4375 71.6406 52.2812 L71.6406 53 L76.9219 53 L76.9219 52.0938 L72.4219 52.0938 Z" style="fill:black; stroke:none;"
      /><rect x="57" width="6" height="13" y="42" style="stroke:none;"
      /><path d="M59.0938 48.2031 C59.0938 46.6562 59.75 45.8125 60.7969 45.8125 C61.7188 45.8125 62.2656 46.4531 62.2656 47.5156 C62.2656 48.7188 61.5 49.4375 60.1875 49.7031 L60.2969 50.3125 C62.2188 50.2344 62.9375 51.2188 62.9375 52.4375 C62.9375 53.625 62.2344 54.4219 60.9531 54.4219 C60.25 54.4219 59.6562 54.1562 59.0938 53.7188 L59.0938 48.2031 ZM58.2031 54.9062 L58.1094 57.375 L58.2656 57.4844 L59.1562 57.2656 L59.0156 54.0938 C59.5469 54.8438 60.3594 55.1719 61.1719 55.1719 C62.5625 55.1719 63.8594 54.2188 63.8594 52.4844 C63.8594 50.9531 62.875 50.1094 61.125 50 C62.5625 49.6094 63.1875 48.4531 63.1875 47.4844 C63.1875 46.0938 62.1562 45.3125 60.9062 45.3125 C59.2969 45.3125 58.2188 46.5469 58.2188 48.5156 L58.2031 54.9062 Z" style="fill:black; stroke:none;"
      /><rect x="128" width="6" height="10" y="44" style="stroke:none;"
      /><path d="M131.3438 53.6875 C130.2031 53.6875 129.5312 52.5 129.5312 50.2969 C129.5312 50.2188 129.5312 50.125 129.5312 50.0469 C130.0938 49.5 130.7188 49.3125 131.3438 49.3125 C132.3125 49.3125 132.9531 49.9844 132.9531 51.4531 C132.9531 52.9375 132.3125 53.6875 131.3438 53.6875 ZM133.5312 45.0781 C130.3438 45.4531 128.5625 47.7656 128.5625 50.4531 C128.5625 52.7812 129.6094 54.1719 131.3125 54.1719 C132.8438 54.1719 133.9219 53.1094 133.9219 51.2812 C133.9219 49.6875 132.9688 48.6562 131.5625 48.6562 C130.8281 48.6562 130.1406 48.9844 129.5781 49.5781 C129.7969 47.4062 131.0781 45.9688 133.5938 45.3906 L133.5312 45.0781 Z" style="fill:black; stroke:none;"
      /><rect x="114" width="6" height="13" y="42" style="stroke:none;"
      /><path d="M116.0938 48.2031 C116.0938 46.6562 116.75 45.8125 117.7969 45.8125 C118.7188 45.8125 119.2656 46.4531 119.2656 47.5156 C119.2656 48.7188 118.5 49.4375 117.1875 49.7031 L117.2969 50.3125 C119.2188 50.2344 119.9375 51.2188 119.9375 52.4375 C119.9375 53.625 119.2344 54.4219 117.9531 54.4219 C117.25 54.4219 116.6562 54.1562 116.0938 53.7188 L116.0938 48.2031 ZM115.2031 54.9062 L115.1094 57.375 L115.2656 57.4844 L116.1562 57.2656 L116.0156 54.0938 C116.5469 54.8438 117.3594 55.1719 118.1719 55.1719 C119.5625 55.1719 120.8594 54.2188 120.8594 52.4844 C120.8594 50.9531 119.875 50.1094 118.125 50 C119.5625 49.6094 120.1875 48.4531 120.1875 47.4844 C120.1875 46.0938 119.1562 45.3125 117.9062 45.3125 C116.2969 45.3125 115.2188 46.5469 115.2188 48.5156 L115.2031 54.9062 Z" style="fill:black; stroke:none;"
      /><rect x="166" width="6" height="13" y="42" style="stroke:none;"
      /><path d="M168.0938 48.2031 C168.0938 46.6562 168.75 45.8125 169.7969 45.8125 C170.7188 45.8125 171.2656 46.4531 171.2656 47.5156 C171.2656 48.7188 170.5 49.4375 169.1875 49.7031 L169.2969 50.3125 C171.2188 50.2344 171.9375 51.2188 171.9375 52.4375 C171.9375 53.625 171.2344 54.4219 169.9531 54.4219 C169.25 54.4219 168.6562 54.1562 168.0938 53.7188 L168.0938 48.2031 ZM167.2031 54.9062 L167.1094 57.375 L167.2656 57.4844 L168.1562 57.2656 L168.0156 54.0938 C168.5469 54.8438 169.3594 55.1719 170.1719 55.1719 C171.5625 55.1719 172.8594 54.2188 172.8594 52.4844 C172.8594 50.9531 171.875 50.1094 170.125 50 C171.5625 49.6094 172.1875 48.4531 172.1875 47.4844 C172.1875 46.0938 171.1562 45.3125 169.9062 45.3125 C168.2969 45.3125 167.2188 46.5469 167.2188 48.5156 L167.2031 54.9062 Z" style="fill:black; stroke:none;"
    /></g
  ></g
></svg
>
