<?xml version="1.0"?>
<!DOCTYPE svg PUBLIC '-//W3C//DTD SVG 1.0//EN'
          'http://www.w3.org/TR/2001/REC-SVG-20010904/DTD/svg10.dtd'>
<svg xmlns:xlink="http://www.w3.org/1999/xlink" style="fill-opacity:1; color-rendering:auto; color-interpolation:auto; text-rendering:auto; stroke:black; stroke-linecap:square; stroke-miterlimit:10; shape-rendering:auto; stroke-opacity:1; fill:black; stroke-dasharray:none; font-weight:normal; stroke-width:1; font-family:'Dialog'; font-style:normal; stroke-linejoin:miter; font-size:12px; stroke-dashoffset:0; image-rendering:auto;" viewBox="0 0 342 186" xmlns="http://www.w3.org/2000/svg"
><!--Generated by the Batik Graphics2D SVG Generator--><defs id="genericDefs"
  /><g
  ><defs id="defs1"
    ><clipPath clipPathUnits="userSpaceOnUse" id="clipPath1"
      ><path d="M238 69 L260 69 L260 91 L238 91 L238 69 Z"
      /></clipPath
      ><clipPath clipPathUnits="userSpaceOnUse" id="clipPath2"
      ><path d="M186 69 L208 69 L208 91 L186 91 L186 69 Z"
      /></clipPath
      ><clipPath clipPathUnits="userSpaceOnUse" id="clipPath3"
      ><path d="M156 80 C156 86.0751 151.0751 91 145 91 C138.9249 91 134 86.0751 134 80 C134 73.9249 138.9249 69 145 69 C151.0751 69 156 73.9249 156 80 Z"
      /></clipPath
      ><clipPath clipPathUnits="userSpaceOnUse" id="clipPath4"
      ><path d="M104 119 C104 125.0751 99.0751 130 93 130 C86.9249 130 82 125.0751 82 119 C82 112.9249 86.9249 108 93 108 C99.0751 108 104 112.9249 104 119 Z"
      /></clipPath
      ><clipPath clipPathUnits="userSpaceOnUse" id="clipPath5"
      ><path d="M30 134 L52 134 L52 156 L30 156 L30 134 Z"
      /></clipPath
      ><clipPath clipPathUnits="userSpaceOnUse" id="clipPath6"
      ><path d="M30 82 L52 82 L52 104 L30 104 L30 82 Z"
      /></clipPath
      ><clipPath clipPathUnits="userSpaceOnUse" id="clipPath7"
      ><path d="M104 41 C104 47.0751 99.0751 52 93 52 C86.9249 52 82 47.0751 82 41 C82 34.9249 86.9249 30 93 30 C99.0751 30 104 34.9249 104 41 Z"
      /></clipPath
      ><clipPath clipPathUnits="userSpaceOnUse" id="clipPath8"
      ><path d="M30 30 L52 30 L52 52 L30 52 L30 30 Z"
      /></clipPath
    ></defs
    ><g style="fill:white; text-rendering:optimizeSpeed; stroke:white;"
    ><rect x="0" width="342" height="186" y="0" style="stroke:none;"
      /><polygon style="fill:none; stroke:black;" points=" 301 80 249 80"
      /><path d="M301 69 C295.5 74.5 306.5 85.5 301 91" style="fill:none; stroke:black;"
      /><polygon style="fill:none; stroke:black;" points=" 249 80 197 80"
      /><rect x="238" y="69" width="22" style="clip-path:url(#clipPath1); stroke:none;" height="22"
      /><rect x="238" y="69" width="22" style="clip-path:url(#clipPath1); fill:rgb(0,144,188); stroke:none;" height="22"
      /><rect x="238" y="69" width="22" style="clip-path:url(#clipPath1); fill:none; stroke:black;" height="22"
      /><rect x="238" y="69" width="22" style="fill:none; stroke:black;" height="22"
      /><polygon style="fill:none; stroke:black;" points=" 197 80 145 80"
      /><rect x="186" y="69" width="22" style="clip-path:url(#clipPath2); stroke:none;" height="22"
      /><rect x="186" y="69" width="22" style="clip-path:url(#clipPath2); fill:rgb(0,144,188); stroke:none;" height="22"
      /><rect x="186" y="69" width="22" style="clip-path:url(#clipPath2); fill:none; stroke:black;" height="22"
      /><rect x="186" y="69" width="22" style="fill:none; stroke:black;" height="22"
      /><polygon style="fill:none; stroke:black;" points=" 145 80 93 119"
      /><polygon style="fill:none; stroke:black;" points=" 145 80 93 41"
      /><circle style="clip-path:url(#clipPath3); stroke:none;" r="11" cx="145" cy="80"
      /><rect x="134" y="69" width="22" style="clip-path:url(#clipPath3); fill:rgb(0,166,81); stroke:none;" height="22"
      /><rect x="134" y="69" width="22" style="clip-path:url(#clipPath3); fill:none; stroke:black;" height="22"
      /><circle style="fill:none; stroke:black;" r="11" cx="145" cy="80"
      /><polygon style="fill:none; stroke:black;" points=" 93 119 41 145"
      /><polygon style="fill:none; stroke:black;" points=" 93 119 41 93"
      /><circle style="clip-path:url(#clipPath4); stroke:none;" r="11" cx="93" cy="119"
      /><rect x="82" y="108" width="22" style="clip-path:url(#clipPath4); fill:rgb(0,166,81); stroke:none;" height="22"
      /><rect x="82" y="108" width="22" style="clip-path:url(#clipPath4); fill:none; stroke:black;" height="22"
      /><circle style="fill:none; stroke:black;" r="11" cx="93" cy="119"
      /><rect x="30" y="134" width="22" style="clip-path:url(#clipPath5); stroke:none;" height="22"
      /><rect x="30" y="134" width="22" style="clip-path:url(#clipPath5); fill:rgb(0,144,188); stroke:none;" height="22"
      /><rect x="30" y="134" width="22" style="clip-path:url(#clipPath5); fill:none; stroke:black;" height="22"
      /><rect x="30" y="134" width="22" style="fill:none; stroke:black;" height="22"
      /><rect x="30" y="82" width="22" style="clip-path:url(#clipPath6); stroke:none;" height="22"
      /><rect x="30" y="82" width="22" style="clip-path:url(#clipPath6); fill:rgb(0,144,188); stroke:none;" height="22"
      /><rect x="30" y="82" width="22" style="clip-path:url(#clipPath6); fill:none; stroke:black;" height="22"
      /><rect x="30" y="82" width="22" style="fill:none; stroke:black;" height="22"
      /><rect x="75" y="130" width="5" style="stroke:none;" height="10"
    /></g
    ><g style="font-family:'Serif'; text-rendering:optimizeSpeed; "
    ><path style="stroke:none;" d="M76.8906 138.6875 C76.4844 138.6875 76.1562 139.0469 76.1562 139.4219 C76.1562 139.8125 76.4844 140.1562 76.8906 140.1562 C77.2969 140.1562 77.6406 139.8125 77.6406 139.4219 C77.6406 139.0469 77.2969 138.6875 76.8906 138.6875 ZM78.4688 132.5781 C78.7188 132.8906 78.875 133.2656 78.8906 133.6562 C78.8906 134.1875 78.625 134.5 78.0312 134.7656 L77.4062 135.0156 C76.6406 135.3125 76.3906 135.5469 76.3906 135.9375 C76.3906 136.1094 76.4531 136.3438 76.5781 136.8125 L76.7344 137.3438 L77.1094 137.3438 L77.0938 136.5312 C77.0938 136.0938 77.2031 135.9688 77.7812 135.7344 L78.2031 135.5625 C79.0312 135.2188 79.4531 134.6875 79.4531 133.8438 C79.4531 132.1562 77.6562 131.1875 76.5 131.0312 C76.1094 131.125 75.9062 131.2969 75.9062 131.6406 C75.9062 131.9375 76.0625 132.1562 76.7188 132.2656 L78.4688 132.5781 Z"
      /><rect x="60" y="138" width="5" style="fill:white; stroke:none;" height="10"
      /><path style="stroke:none;" d="M61.8906 146.6875 C61.4844 146.6875 61.1562 147.0469 61.1562 147.4219 C61.1562 147.8125 61.4844 148.1562 61.8906 148.1562 C62.2969 148.1562 62.6406 147.8125 62.6406 147.4219 C62.6406 147.0469 62.2969 146.6875 61.8906 146.6875 ZM63.4688 140.5781 C63.7188 140.8906 63.875 141.2656 63.8906 141.6562 C63.8906 142.1875 63.625 142.5 63.0312 142.7656 L62.4062 143.0156 C61.6406 143.3125 61.3906 143.5469 61.3906 143.9375 C61.3906 144.1094 61.4531 144.3438 61.5781 144.8125 L61.7344 145.3438 L62.1094 145.3438 L62.0938 144.5312 C62.0938 144.0938 62.2031 143.9688 62.7812 143.7344 L63.2031 143.5625 C64.0312 143.2188 64.4531 142.6875 64.4531 141.8438 C64.4531 140.1562 62.6562 139.1875 61.5 139.0312 C61.1094 139.125 60.9062 139.2969 60.9062 139.6406 C60.9062 139.9375 61.0625 140.1562 61.7188 140.2656 L63.4688 140.5781 Z"
      /><rect x="68" y="112" width="5" style="fill:white; stroke:none;" height="10"
      /><path style="stroke:none;" d="M69.8906 120.6875 C69.4844 120.6875 69.1562 121.0469 69.1562 121.4219 C69.1562 121.8125 69.4844 122.1562 69.8906 122.1562 C70.2969 122.1562 70.6406 121.8125 70.6406 121.4219 C70.6406 121.0469 70.2969 120.6875 69.8906 120.6875 ZM71.4688 114.5781 C71.7188 114.8906 71.875 115.2656 71.8906 115.6562 C71.8906 116.1875 71.625 116.5 71.0312 116.7656 L70.4062 117.0156 C69.6406 117.3125 69.3906 117.5469 69.3906 117.9375 C69.3906 118.1094 69.4531 118.3438 69.5781 118.8125 L69.7344 119.3438 L70.1094 119.3438 L70.0938 118.5312 C70.0938 118.0938 70.2031 117.9688 70.7812 117.7344 L71.2031 117.5625 C72.0312 117.2188 72.4531 116.6875 72.4531 115.8438 C72.4531 114.1562 70.6562 113.1875 69.5 113.0312 C69.1094 113.125 68.9062 113.2969 68.9062 113.6406 C68.9062 113.9375 69.0625 114.1562 69.7188 114.2656 L71.4688 114.5781 Z"
      /><rect x="53" y="104" width="5" style="fill:white; stroke:none;" height="10"
      /><path style="stroke:none;" d="M54.8906 112.6875 C54.4844 112.6875 54.1562 113.0469 54.1562 113.4219 C54.1562 113.8125 54.4844 114.1562 54.8906 114.1562 C55.2969 114.1562 55.6406 113.8125 55.6406 113.4219 C55.6406 113.0469 55.2969 112.6875 54.8906 112.6875 ZM56.4688 106.5781 C56.7188 106.8906 56.875 107.2656 56.8906 107.6562 C56.8906 108.1875 56.625 108.5 56.0312 108.7656 L55.4062 109.0156 C54.6406 109.3125 54.3906 109.5469 54.3906 109.9375 C54.3906 110.1094 54.4531 110.3438 54.5781 110.8125 L54.7344 111.3438 L55.1094 111.3438 L55.0938 110.5312 C55.0938 110.0938 55.2031 109.9688 55.7812 109.7344 L56.2031 109.5625 C57.0312 109.2188 57.4531 108.6875 57.4531 107.8438 C57.4531 106.1562 55.6562 105.1875 54.5 105.0312 C54.1094 105.125 53.9062 105.2969 53.9062 105.6406 C53.9062 105.9375 54.0625 106.1562 54.7188 106.2656 L56.4688 106.5781 Z"
      /><polygon style="fill:none;" points=" 93 41 41 41"
      /><circle style="fill:white; clip-path:url(#clipPath7); stroke:none;" r="11" cx="93" cy="41"
      /><rect x="82" y="30" width="22" style="clip-path:url(#clipPath7); fill:rgb(0,166,81); stroke:none;" height="22"
      /><rect x="82" y="30" width="22" style="fill:none; clip-path:url(#clipPath7);" height="22"
      /><circle r="11" style="fill:none;" cx="93" cy="41"
      /><rect x="30" y="30" width="22" style="clip-path:url(#clipPath8); fill:white; stroke:none;" height="22"
      /><rect x="30" y="30" width="22" style="clip-path:url(#clipPath8); fill:rgb(0,144,188); stroke:none;" height="22"
      /><rect x="30" y="30" width="22" style="fill:none; clip-path:url(#clipPath8);" height="22"
      /><rect x="30" width="22" height="22" y="30" style="fill:none;"
      /><rect x="71" y="44" width="5" style="fill:white; stroke:none;" height="10"
      /><path style="stroke:none;" d="M72.8906 52.6875 C72.4844 52.6875 72.1562 53.0469 72.1562 53.4219 C72.1562 53.8125 72.4844 54.1562 72.8906 54.1562 C73.2969 54.1562 73.6406 53.8125 73.6406 53.4219 C73.6406 53.0469 73.2969 52.6875 72.8906 52.6875 ZM74.4688 46.5781 C74.7188 46.8906 74.875 47.2656 74.8906 47.6562 C74.8906 48.1875 74.625 48.5 74.0312 48.7656 L73.4062 49.0156 C72.6406 49.3125 72.3906 49.5469 72.3906 49.9375 C72.3906 50.1094 72.4531 50.3438 72.5781 50.8125 L72.7344 51.3438 L73.1094 51.3438 L73.0938 50.5312 C73.0938 50.0938 73.2031 49.9688 73.7812 49.7344 L74.2031 49.5625 C75.0312 49.2188 75.4531 48.6875 75.4531 47.8438 C75.4531 46.1562 73.6562 45.1875 72.5 45.0312 C72.1094 45.125 71.9062 45.2969 71.9062 45.6406 C71.9062 45.9375 72.0625 46.1562 72.7188 46.2656 L74.4688 46.5781 Z"
      /><rect x="57" y="44" width="5" style="fill:white; stroke:none;" height="10"
      /><path style="stroke:none;" d="M58.8906 52.6875 C58.4844 52.6875 58.1562 53.0469 58.1562 53.4219 C58.1562 53.8125 58.4844 54.1562 58.8906 54.1562 C59.2969 54.1562 59.6406 53.8125 59.6406 53.4219 C59.6406 53.0469 59.2969 52.6875 58.8906 52.6875 ZM60.4688 46.5781 C60.7188 46.8906 60.875 47.2656 60.8906 47.6562 C60.8906 48.1875 60.625 48.5 60.0312 48.7656 L59.4062 49.0156 C58.6406 49.3125 58.3906 49.5469 58.3906 49.9375 C58.3906 50.1094 58.4531 50.3438 58.5781 50.8125 L58.7344 51.3438 L59.1094 51.3438 L59.0938 50.5312 C59.0938 50.0938 59.2031 49.9688 59.7812 49.7344 L60.2031 49.5625 C61.0312 49.2188 61.4531 48.6875 61.4531 47.8438 C61.4531 46.1562 59.6562 45.1875 58.5 45.0312 C58.1094 45.125 57.9062 45.2969 57.9062 45.6406 C57.9062 45.9375 58.0625 46.1562 58.7188 46.2656 L60.4688 46.5781 Z"
      /><rect x="129" y="94" width="6" style="fill:white; stroke:none;" height="10"
      /><path style="stroke:none;" d="M131.2344 95.6562 C131.5156 95.5938 131.7656 95.5625 132.0156 95.5625 C133.0625 95.5625 133.6719 96.1719 133.6719 97.2656 C133.6719 98.4375 132.9062 99.1094 131.7031 99.1094 L131.1875 99.1094 L131.1875 99.6406 L131.7969 99.6406 C133.2188 99.6406 133.9062 100.4219 133.9062 101.6406 C133.9062 102.8438 133.1719 103.6875 131.875 103.6875 C131.6094 103.6875 131.3125 103.6562 131.0156 103.5625 L130.7812 102.8125 C130.625 102.2812 130.5 102.0469 130.1406 102.0469 C129.8906 102.0469 129.7031 102.1719 129.5781 102.4219 C129.8438 103.6406 130.7812 104.1719 132.0312 104.1719 C133.7188 104.1719 134.875 103.125 134.875 101.7031 C134.875 100.5 134.2031 99.625 132.7969 99.375 C133.9531 99.0156 134.6094 98.2031 134.6094 97.2031 C134.6094 95.9219 133.6719 95.0781 132.1875 95.0781 C131.0469 95.0781 130.0625 95.5938 129.7969 96.6875 C129.9062 97 130.1094 97.1094 130.3594 97.1094 C130.7344 97.1094 130.8906 96.8906 131 96.4062 L131.2344 95.6562 Z"
      /><rect x="111" y="108" width="8" style="fill:white; stroke:none;" height="8"
      /><path style="stroke:none;" d="M115.9844 113.7031 C115.9375 114.8906 115.1562 115.6562 114.3125 115.6562 C113.2656 115.6562 112.5 114.6875 112.5 112.7188 C112.5 111.2812 113.1562 110.1562 114.3438 110.1562 C115.1406 110.1562 115.7812 110.6875 116.0938 111.6406 L115.9844 113.7031 ZM117.9062 115.2812 C117.7344 115.375 117.5469 115.4219 117.3438 115.4219 C116.9531 115.4219 116.75 115.2188 116.75 114.4219 C116.75 113.4844 116.9688 111.5312 117.1875 109.8281 L117.0312 109.7188 L116.2344 109.9219 L116.1406 110.7969 C115.7812 110.0312 115.1562 109.6562 114.3906 109.6562 C113.0469 109.6562 111.5625 110.8438 111.5625 112.9531 C111.5625 115.0938 112.7188 116.1719 114.1406 116.1719 C115.0156 116.1719 115.6875 115.8125 116.0938 114.9844 C116.2031 115.8594 116.5156 116.1719 117.0156 116.1719 C117.4688 116.1719 117.7969 115.9062 118.0156 115.5625 L117.9062 115.2812 Z"
      /><rect x="119" y="68" width="6" style="fill:white; stroke:none;" height="10"
      /><path style="stroke:none;" d="M122.3438 77.6875 C121.2031 77.6875 120.5312 76.5 120.5312 74.2969 C120.5312 74.2188 120.5312 74.125 120.5312 74.0469 C121.0938 73.5 121.7188 73.3125 122.3438 73.3125 C123.3125 73.3125 123.9531 73.9844 123.9531 75.4531 C123.9531 76.9375 123.3125 77.6875 122.3438 77.6875 ZM124.5312 69.0781 C121.3438 69.4531 119.5625 71.7656 119.5625 74.4531 C119.5625 76.7812 120.6094 78.1719 122.3125 78.1719 C123.8438 78.1719 124.9219 77.1094 124.9219 75.2812 C124.9219 73.6875 123.9688 72.6562 122.5625 72.6562 C121.8281 72.6562 121.1406 72.9844 120.5781 73.5781 C120.7969 71.4062 122.0781 69.9688 124.5938 69.3906 L124.5312 69.0781 Z"
      /><rect x="101" y="56" width="8" style="fill:white; stroke:none;" height="8"
      /><path style="stroke:none;" d="M105.9844 61.7031 C105.9375 62.8906 105.1562 63.6562 104.3125 63.6562 C103.2656 63.6562 102.5 62.6875 102.5 60.7188 C102.5 59.2812 103.1562 58.1562 104.3438 58.1562 C105.1406 58.1562 105.7812 58.6875 106.0938 59.6406 L105.9844 61.7031 ZM107.9062 63.2812 C107.7344 63.375 107.5469 63.4219 107.3438 63.4219 C106.9531 63.4219 106.75 63.2188 106.75 62.4219 C106.75 61.4844 106.9688 59.5312 107.1875 57.8281 L107.0312 57.7188 L106.2344 57.9219 L106.1406 58.7969 C105.7812 58.0312 105.1562 57.6562 104.3906 57.6562 C103.0469 57.6562 101.5625 58.8438 101.5625 60.9531 C101.5625 63.0938 102.7188 64.1719 104.1406 64.1719 C105.0156 64.1719 105.6875 63.8125 106.0938 62.9844 C106.2031 63.8594 106.5156 64.1719 107.0156 64.1719 C107.4688 64.1719 107.7969 63.9062 108.0156 63.5625 L107.9062 63.2812 Z"
      /><rect x="174" y="83" width="7" style="fill:white; stroke:none;" height="9"
      /><path style="stroke:none;" d="M175 88.5156 L177.9531 84.2656 L177.9531 88.5156 L175 88.5156 ZM180.2812 88.5156 L178.8594 88.5156 L178.8594 83.125 L178.2344 83.125 L174.3438 88.6406 L174.3438 89.1875 L177.9531 89.1875 L177.9531 92 L178.8594 92 L178.8594 89.1875 L180.2812 89.1875 L180.2812 88.5156 Z"
      /><rect x="161" y="81" width="6" style="fill:white; stroke:none;" height="13"
      /><path style="stroke:none;" d="M163.0938 87.2031 C163.0938 85.6562 163.75 84.8125 164.7969 84.8125 C165.7188 84.8125 166.2656 85.4531 166.2656 86.5156 C166.2656 87.7188 165.5 88.4375 164.1875 88.7031 L164.2969 89.3125 C166.2188 89.2344 166.9375 90.2188 166.9375 91.4375 C166.9375 92.625 166.2344 93.4219 164.9531 93.4219 C164.25 93.4219 163.6562 93.1562 163.0938 92.7188 L163.0938 87.2031 ZM162.2031 93.9062 L162.1094 96.375 L162.2656 96.4844 L163.1562 96.2656 L163.0156 93.0938 C163.5469 93.8438 164.3594 94.1719 165.1719 94.1719 C166.5625 94.1719 167.8594 93.2188 167.8594 91.4844 C167.8594 89.9531 166.875 89.1094 165.125 89 C166.5625 88.6094 167.1875 87.4531 167.1875 86.4844 C167.1875 85.0938 166.1562 84.3125 164.9062 84.3125 C163.2969 84.3125 162.2188 85.5469 162.2188 87.5156 L162.2031 93.9062 Z"
      /><rect x="226" y="83" width="7" style="fill:white; stroke:none;" height="9"
      /><path style="stroke:none;" d="M227 88.5156 L229.9531 84.2656 L229.9531 88.5156 L227 88.5156 ZM232.2812 88.5156 L230.8594 88.5156 L230.8594 83.125 L230.2344 83.125 L226.3438 88.6406 L226.3438 89.1875 L229.9531 89.1875 L229.9531 92 L230.8594 92 L230.8594 89.1875 L232.2812 89.1875 L232.2812 88.5156 Z"
      /><rect x="213" y="81" width="6" style="fill:white; stroke:none;" height="13"
      /><path style="stroke:none;" d="M215.0938 87.2031 C215.0938 85.6562 215.75 84.8125 216.7969 84.8125 C217.7188 84.8125 218.2656 85.4531 218.2656 86.5156 C218.2656 87.7188 217.5 88.4375 216.1875 88.7031 L216.2969 89.3125 C218.2188 89.2344 218.9375 90.2188 218.9375 91.4375 C218.9375 92.625 218.2344 93.4219 216.9531 93.4219 C216.25 93.4219 215.6562 93.1562 215.0938 92.7188 L215.0938 87.2031 ZM214.2031 93.9062 L214.1094 96.375 L214.2656 96.4844 L215.1562 96.2656 L215.0156 93.0938 C215.5469 93.8438 216.3594 94.1719 217.1719 94.1719 C218.5625 94.1719 219.8594 93.2188 219.8594 91.4844 C219.8594 89.9531 218.875 89.1094 217.125 89 C218.5625 88.6094 219.1875 87.4531 219.1875 86.4844 C219.1875 85.0938 218.1562 84.3125 216.9062 84.3125 C215.2969 84.3125 214.2188 85.5469 214.2188 87.5156 L214.2031 93.9062 Z"
      /><rect x="265" y="83" width="5" style="fill:white; stroke:none;" height="10"
      /><path style="stroke:none;" d="M266.8906 91.6875 C266.4844 91.6875 266.1562 92.0469 266.1562 92.4219 C266.1562 92.8125 266.4844 93.1562 266.8906 93.1562 C267.2969 93.1562 267.6406 92.8125 267.6406 92.4219 C267.6406 92.0469 267.2969 91.6875 266.8906 91.6875 ZM268.4688 85.5781 C268.7188 85.8906 268.875 86.2656 268.8906 86.6562 C268.8906 87.1875 268.625 87.5 268.0312 87.7656 L267.4062 88.0156 C266.6406 88.3125 266.3906 88.5469 266.3906 88.9375 C266.3906 89.1094 266.4531 89.3438 266.5781 89.8125 L266.7344 90.3438 L267.1094 90.3438 L267.0938 89.5312 C267.0938 89.0938 267.2031 88.9688 267.7812 88.7344 L268.2031 88.5625 C269.0312 88.2188 269.4531 87.6875 269.4531 86.8438 C269.4531 85.1562 267.6562 84.1875 266.5 84.0312 C266.1094 84.125 265.9062 84.2969 265.9062 84.6406 C265.9062 84.9375 266.0625 85.1562 266.7188 85.2656 L268.4688 85.5781 Z"
    /></g
  ></g
></svg
>
