<?xml version="1.0"?>
<!DOCTYPE svg PUBLIC '-//W3C//DTD SVG 1.0//EN'
          'http://www.w3.org/TR/2001/REC-SVG-20010904/DTD/svg10.dtd'>
<svg xmlns:xlink="http://www.w3.org/1999/xlink" style="fill-opacity:1; color-rendering:auto; color-interpolation:auto; text-rendering:auto; stroke:black; stroke-linecap:square; stroke-miterlimit:10; shape-rendering:auto; stroke-opacity:1; fill:black; stroke-dasharray:none; font-weight:normal; stroke-width:1; font-family:'Dialog'; font-style:normal; stroke-linejoin:miter; font-size:12px; stroke-dashoffset:0; image-rendering:auto;" viewBox="0 0 395 157" xmlns="http://www.w3.org/2000/svg"
><!--Generated by the Batik Graphics2D SVG Generator--><defs id="genericDefs"
  /><g
  ><defs id="defs1"
    ><clipPath clipPathUnits="userSpaceOnUse" id="clipPath1"
      ><path d="M313 56 Q291 78 313 100"
      /></clipPath
      ><clipPath clipPathUnits="userSpaceOnUse" id="clipPath2"
      ><path d="M239 67 L261 67 L261 89 L239 89 L239 67 Z"
      /></clipPath
      ><clipPath clipPathUnits="userSpaceOnUse" id="clipPath3"
      ><path d="M209 78 C209 84.0751 204.0751 89 198 89 C191.9249 89 187 84.0751 187 78 C187 71.9249 191.9249 67 198 67 C204.0751 67 209 71.9249 209 78 Z"
      /></clipPath
      ><clipPath clipPathUnits="userSpaceOnUse" id="clipPath4"
      ><path d="M157 78 C157 84.0751 152.0751 89 146 89 C139.9249 89 135 84.0751 135 78 C135 71.9249 139.9249 67 146 67 C152.0751 67 157 71.9249 157 78 Z"
      /></clipPath
      ><clipPath clipPathUnits="userSpaceOnUse" id="clipPath5"
      ><path d="M56 94 Q78 116 56 138"
      /></clipPath
      ><clipPath clipPathUnits="userSpaceOnUse" id="clipPath6"
      ><path style="fill-rule:evenodd;" d="M67 30 L78 52 L56 52 Z"
      /></clipPath
    ></defs
    ><g style="fill:white; text-rendering:optimizeSpeed; stroke:white;"
    ><rect x="0" width="395" height="157" y="0" style="stroke:none;"
      /><polygon style="fill:none; stroke:black;" points=" 302 78 250 78"
      /><path d="M313 56 Q291 78 313 100" style="clip-path:url(#clipPath1); stroke:none;"
      /><path d="M313 56 Q291 78 313 100" style="fill:none; stroke:black;"
      /><polygon style="fill:none; stroke:black;" points=" 250 78 198 78"
      /><rect x="239" y="67" width="22" style="clip-path:url(#clipPath2); stroke:none;" height="22"
      /><rect x="239" y="67" width="22" style="clip-path:url(#clipPath2); fill:rgb(0,144,188); stroke:none;" height="22"
      /><rect x="239" y="67" width="22" style="clip-path:url(#clipPath2); fill:none; stroke:black;" height="22"
      /><rect x="239" y="67" width="22" style="fill:none; stroke:black;" height="22"
      /><polygon style="fill:none; stroke:black;" points=" 198 78 146 78"
      /><circle style="clip-path:url(#clipPath3); stroke:none;" r="11" cx="198" cy="78"
      /><rect x="187" y="67" width="22" style="clip-path:url(#clipPath3); fill:rgb(0,166,81); stroke:none;" height="22"
      /><rect x="187" y="67" width="22" style="clip-path:url(#clipPath3); fill:none; stroke:black;" height="22"
      /><circle style="fill:none; stroke:black;" r="11" cx="198" cy="78"
      /><polygon style="fill:none; stroke:black;" points=" 146 78 67 116"
      /><polygon style="fill:none; stroke:black;" points=" 146 78 67 41"
      /><circle style="clip-path:url(#clipPath4); stroke:none;" r="11" cx="146" cy="78"
      /><rect x="135" y="67" width="22" style="clip-path:url(#clipPath4); fill:rgb(0,166,81); stroke:none;" height="22"
      /><rect x="135" y="67" width="22" style="clip-path:url(#clipPath4); fill:none; stroke:black;" height="22"
      /><circle style="fill:none; stroke:black;" r="11" cx="146" cy="78"
      /><path d="M56 94 Q78 116 56 138" style="clip-path:url(#clipPath5); stroke:none;"
      /><path d="M56 94 Q78 116 56 138" style="fill:none; stroke:black;"
      /><polygon style="clip-path:url(#clipPath6); stroke:none;" points=" 67 30 78 52 56 52"
      /><rect x="56" y="30" width="22" style="clip-path:url(#clipPath6); fill:rgb(0,166,81); stroke:none;" height="22"
      /><rect x="56" y="30" width="22" style="clip-path:url(#clipPath6); fill:none; stroke:black;" height="22"
      /><polygon style="fill:none; stroke:black;" points=" 67 30 78 52 56 52"
      /><rect x="81" y="58" width="22" style="stroke:none;" height="10"
    /></g
    ><g style="text-rendering:optimizeSpeed; font-size:14px; font-family:'SansSerif';"
    ><path style="stroke:none;" d="M81.6094 69 L88.0625 69 L88.0625 67.8906 L85.2344 67.8906 C84.7031 67.8906 84.0781 67.9531 83.5469 67.9844 C85.9531 65.7031 87.5625 63.625 87.5625 61.5781 C87.5625 59.75 86.4219 58.5469 84.5781 58.5469 C83.2812 58.5469 82.4062 59.1406 81.5625 60.0469 L82.2969 60.7812 C82.8594 60.1094 83.5938 59.5938 84.4375 59.5938 C85.7031 59.5938 86.3125 60.4531 86.3125 61.625 C86.3125 63.3906 84.8438 65.4375 81.6094 68.25 L81.6094 69 ZM91.9418 63.2656 C92.3168 62.0938 92.645 60.9844 92.9731 59.7812 L93.02 59.7812 C93.3637 60.9844 93.6762 62.0938 94.0668 63.2656 L94.5512 64.8281 L91.4418 64.8281 L91.9418 63.2656 ZM88.8168 69 L90.1293 69 L91.1293 65.8594 L94.8793 65.8594 L95.8481 69 L97.2231 69 L93.7387 58.7188 L92.3012 58.7188 L88.8168 69 ZM101.5492 69.1875 C102.4554 69.1875 103.3304 68.8281 104.0179 68.2188 L103.4554 67.3594 C102.9867 67.7969 102.3617 68.125 101.6586 68.125 C100.2679 68.125 99.3148 66.9531 99.3148 65.2031 C99.3148 63.4531 100.3148 62.2656 101.7054 62.2656 C102.3148 62.2656 102.7679 62.5469 103.2211 62.9375 L103.8773 62.0938 C103.3304 61.625 102.6429 61.2031 101.6429 61.2031 C99.7054 61.2031 97.9867 62.6719 97.9867 65.2031 C97.9867 67.7188 99.5336 69.1875 101.5492 69.1875 Z"
      /><rect x="31" y="56" width="47" style="fill:white; stroke:none;" height="14"
      /><path style="stroke:none;" d="M34.7031 71.1875 C36.5156 71.1875 37.9844 70.0938 37.9844 68.25 C37.9844 66.8594 37.0156 65.9375 35.8125 65.6562 L35.8125 65.5938 C36.8906 65.1875 37.6406 64.3594 37.6406 63.125 C37.6406 61.5 36.375 60.5469 34.6562 60.5469 C33.4688 60.5469 32.5469 61.0625 31.7812 61.7812 L32.4688 62.5938 C33.0469 62 33.7656 61.5938 34.5938 61.5938 C35.6562 61.5938 36.3281 62.2344 36.3281 63.2188 C36.3281 64.3281 35.6094 65.1719 33.4844 65.1719 L33.4844 66.1562 C35.8594 66.1562 36.6875 66.9844 36.6875 68.2031 C36.6875 69.3906 35.8125 70.125 34.5938 70.125 C33.4375 70.125 32.6562 69.5781 32.0469 68.9375 L31.4062 69.7812 C32.0781 70.5156 33.0938 71.1875 34.7031 71.1875 ZM42.1137 73.7656 L42.9106 73.375 C41.6918 71.3906 41.1293 69.0312 41.1293 66.6406 C41.1293 64.2656 41.6918 61.9062 42.9106 59.9062 L42.1137 59.5469 C40.8325 61.6406 40.0512 63.9062 40.0512 66.6406 C40.0512 69.4062 40.8325 71.6562 42.1137 73.7656 ZM44.9082 71 L46.2051 71 L46.2051 66.6406 L48.0488 66.6406 L50.5488 71 L52.0176 71 L49.377 66.5 C50.7832 66.1719 51.7051 65.2188 51.7051 63.625 C51.7051 61.4844 50.2051 60.7188 48.127 60.7188 L44.9082 60.7188 L44.9082 71 ZM46.2051 65.5938 L46.2051 61.7812 L47.9238 61.7812 C49.5332 61.7812 50.4238 62.2656 50.4238 63.625 C50.4238 64.9531 49.5332 65.5938 47.9238 65.5938 L46.2051 65.5938 ZM53.7965 73.7656 C55.0934 71.6562 55.859 69.4062 55.859 66.6406 C55.859 63.9062 55.0934 61.6406 53.7965 59.5469 L53.0153 59.9062 C54.2184 61.9062 54.7965 64.2656 54.7965 66.6406 C54.7965 69.0312 54.2184 71.3906 53.0153 73.375 L53.7965 73.7656 ZM58.5441 71 L64.3254 71 L64.3254 69.8906 L59.841 69.8906 L59.841 60.7188 L58.5441 60.7188 L58.5441 71 ZM67.7711 71.1875 C68.7086 71.1875 69.568 70.6875 70.3024 70.0938 L70.3336 70.0938 L70.4586 71 L71.5055 71 L71.5055 66.3281 C71.5055 64.4531 70.7242 63.2031 68.8649 63.2031 C67.6461 63.2031 66.568 63.75 65.8805 64.2031 L66.3805 65.0781 C66.9742 64.6719 67.7711 64.2656 68.6617 64.2656 C69.9117 64.2656 70.2242 65.2031 70.2242 66.1875 C66.9899 66.5469 65.5524 67.375 65.5524 69.0312 C65.5524 70.3906 66.5055 71.1875 67.7711 71.1875 ZM68.1461 70.1562 C67.3805 70.1562 66.8024 69.8125 66.8024 68.9375 C66.8024 67.9688 67.6617 67.3281 70.2242 67.0312 L70.2242 69.1562 C69.4899 69.8125 68.8805 70.1562 68.1461 70.1562 ZM76.9171 71.1875 C77.8233 71.1875 78.6983 70.8281 79.3858 70.2188 L78.8233 69.3594 C78.3546 69.7969 77.7296 70.125 77.0265 70.125 C75.6358 70.125 74.6827 68.9531 74.6827 67.2031 C74.6827 65.4531 75.6827 64.2656 77.0733 64.2656 C77.6827 64.2656 78.1358 64.5469 78.589 64.9375 L79.2452 64.0938 C78.6983 63.625 78.0108 63.2031 77.0108 63.2031 C75.0733 63.2031 73.3546 64.6719 73.3546 67.2031 C73.3546 69.7188 74.9015 71.1875 76.9171 71.1875 Z"
    /></g
    ><g style="fill:white; text-rendering:optimizeSpeed; font-family:'Serif'; stroke:white;"
    ><rect x="127" width="7" height="9" y="89" style="stroke:none;"
      /><path d="M128 94.5156 L130.9531 90.2656 L130.9531 94.5156 L128 94.5156 ZM133.2812 94.5156 L131.8594 94.5156 L131.8594 89.125 L131.2344 89.125 L127.3438 94.6406 L127.3438 95.1875 L130.9531 95.1875 L130.9531 98 L131.8594 98 L131.8594 95.1875 L133.2812 95.1875 L133.2812 94.5156 Z" style="fill:black; stroke:none;"
      /><rect x="121" width="6" height="10" y="71" style="stroke:none;"
      /><path d="M123.2344 72.6562 C123.5156 72.5938 123.7656 72.5625 124.0156 72.5625 C125.0625 72.5625 125.6719 73.1719 125.6719 74.2656 C125.6719 75.4375 124.9062 76.1094 123.7031 76.1094 L123.1875 76.1094 L123.1875 76.6406 L123.7969 76.6406 C125.2188 76.6406 125.9062 77.4219 125.9062 78.6406 C125.9062 79.8438 125.1719 80.6875 123.875 80.6875 C123.6094 80.6875 123.3125 80.6562 123.0156 80.5625 L122.7812 79.8125 C122.625 79.2812 122.5 79.0469 122.1406 79.0469 C121.8906 79.0469 121.7031 79.1719 121.5781 79.4219 C121.8438 80.6406 122.7812 81.1719 124.0312 81.1719 C125.7188 81.1719 126.875 80.125 126.875 78.7031 C126.875 77.5 126.2031 76.625 124.7969 76.375 C125.9531 76.0156 126.6094 75.2031 126.6094 74.2031 C126.6094 72.9219 125.6719 72.0781 124.1875 72.0781 C123.0469 72.0781 122.0625 72.5938 121.7969 73.6875 C121.9062 74 122.1094 74.1094 122.3594 74.1094 C122.7344 74.1094 122.8906 73.8906 123 73.4062 L123.2344 72.6562 Z" style="fill:black; stroke:none;"
      /><rect x="104" width="8" height="8" y="65" style="stroke:none;"
      /><path d="M108.9844 70.7031 C108.9375 71.8906 108.1562 72.6562 107.3125 72.6562 C106.2656 72.6562 105.5 71.6875 105.5 69.7188 C105.5 68.2812 106.1562 67.1562 107.3438 67.1562 C108.1406 67.1562 108.7812 67.6875 109.0938 68.6406 L108.9844 70.7031 ZM110.9062 72.2812 C110.7344 72.375 110.5469 72.4219 110.3438 72.4219 C109.9531 72.4219 109.75 72.2188 109.75 71.4219 C109.75 70.4844 109.9688 68.5312 110.1875 66.8281 L110.0312 66.7188 L109.2344 66.9219 L109.1406 67.7969 C108.7812 67.0312 108.1562 66.6562 107.3906 66.6562 C106.0469 66.6562 104.5625 67.8438 104.5625 69.9531 C104.5625 72.0938 105.7188 73.1719 107.1406 73.1719 C108.0156 73.1719 108.6875 72.8125 109.0938 71.9844 C109.2031 72.8594 109.5156 73.1719 110.0156 73.1719 C110.4688 73.1719 110.7969 72.9062 111.0156 72.5625 L110.9062 72.2812 Z" style="fill:black; stroke:none;"
      /><rect x="175" width="7" height="9" y="81" style="stroke:none;"
      /><path d="M176 86.5156 L178.9531 82.2656 L178.9531 86.5156 L176 86.5156 ZM181.2812 86.5156 L179.8594 86.5156 L179.8594 81.125 L179.2344 81.125 L175.3438 86.6406 L175.3438 87.1875 L178.9531 87.1875 L178.9531 90 L179.8594 90 L179.8594 87.1875 L181.2812 87.1875 L181.2812 86.5156 Z" style="fill:black; stroke:none;"
      /><rect x="162" width="6" height="13" y="79" style="stroke:none;"
      /><path d="M164.0938 85.2031 C164.0938 83.6562 164.75 82.8125 165.7969 82.8125 C166.7188 82.8125 167.2656 83.4531 167.2656 84.5156 C167.2656 85.7188 166.5 86.4375 165.1875 86.7031 L165.2969 87.3125 C167.2188 87.2344 167.9375 88.2188 167.9375 89.4375 C167.9375 90.625 167.2344 91.4219 165.9531 91.4219 C165.25 91.4219 164.6562 91.1562 164.0938 90.7188 L164.0938 85.2031 ZM163.2031 91.9062 L163.1094 94.375 L163.2656 94.4844 L164.1562 94.2656 L164.0156 91.0938 C164.5469 91.8438 165.3594 92.1719 166.1719 92.1719 C167.5625 92.1719 168.8594 91.2188 168.8594 89.4844 C168.8594 87.9531 167.875 87.1094 166.125 87 C167.5625 86.6094 168.1875 85.4531 168.1875 84.4844 C168.1875 83.0938 167.1562 82.3125 165.9062 82.3125 C164.2969 82.3125 163.2188 83.5469 163.2188 85.5156 L163.2031 91.9062 Z" style="fill:black; stroke:none;"
      /><rect x="228" width="6" height="10" y="81" style="stroke:none;"
      /><path d="M230.2344 82.6562 C230.5156 82.5938 230.7656 82.5625 231.0156 82.5625 C232.0625 82.5625 232.6719 83.1719 232.6719 84.2656 C232.6719 85.4375 231.9062 86.1094 230.7031 86.1094 L230.1875 86.1094 L230.1875 86.6406 L230.7969 86.6406 C232.2188 86.6406 232.9062 87.4219 232.9062 88.6406 C232.9062 89.8438 232.1719 90.6875 230.875 90.6875 C230.6094 90.6875 230.3125 90.6562 230.0156 90.5625 L229.7812 89.8125 C229.625 89.2812 229.5 89.0469 229.1406 89.0469 C228.8906 89.0469 228.7031 89.1719 228.5781 89.4219 C228.8438 90.6406 229.7812 91.1719 231.0312 91.1719 C232.7188 91.1719 233.875 90.125 233.875 88.7031 C233.875 87.5 233.2031 86.625 231.7969 86.375 C232.9531 86.0156 233.6094 85.2031 233.6094 84.2031 C233.6094 82.9219 232.6719 82.0781 231.1875 82.0781 C230.0469 82.0781 229.0625 82.5938 228.7969 83.6875 C228.9062 84 229.1094 84.1094 229.3594 84.1094 C229.7344 84.1094 229.8906 83.8906 230 83.4062 L230.2344 82.6562 Z" style="fill:black; stroke:none;"
      /><rect x="213" width="8" height="8" y="82" style="stroke:none;"
      /><path d="M217.9844 87.7031 C217.9375 88.8906 217.1562 89.6562 216.3125 89.6562 C215.2656 89.6562 214.5 88.6875 214.5 86.7188 C214.5 85.2812 215.1562 84.1562 216.3438 84.1562 C217.1406 84.1562 217.7812 84.6875 218.0938 85.6406 L217.9844 87.7031 ZM219.9062 89.2812 C219.7344 89.375 219.5469 89.4219 219.3438 89.4219 C218.9531 89.4219 218.75 89.2188 218.75 88.4219 C218.75 87.4844 218.9688 85.5312 219.1875 83.8281 L219.0312 83.7188 L218.2344 83.9219 L218.1406 84.7969 C217.7812 84.0312 217.1562 83.6562 216.3906 83.6562 C215.0469 83.6562 213.5625 84.8438 213.5625 86.9531 C213.5625 89.0938 214.7188 90.1719 216.1406 90.1719 C217.0156 90.1719 217.6875 89.8125 218.0938 88.9844 C218.2031 89.8594 218.5156 90.1719 219.0156 90.1719 C219.4688 90.1719 219.7969 89.9062 220.0156 89.5625 L219.9062 89.2812 Z" style="fill:black; stroke:none;"
      /><rect x="266" width="6" height="13" y="79" style="stroke:none;"
      /><path d="M268.0938 85.2031 C268.0938 83.6562 268.75 82.8125 269.7969 82.8125 C270.7188 82.8125 271.2656 83.4531 271.2656 84.5156 C271.2656 85.7188 270.5 86.4375 269.1875 86.7031 L269.2969 87.3125 C271.2188 87.2344 271.9375 88.2188 271.9375 89.4375 C271.9375 90.625 271.2344 91.4219 269.9531 91.4219 C269.25 91.4219 268.6562 91.1562 268.0938 90.7188 L268.0938 85.2031 ZM267.2031 91.9062 L267.1094 94.375 L267.2656 94.4844 L268.1562 94.2656 L268.0156 91.0938 C268.5469 91.8438 269.3594 92.1719 270.1719 92.1719 C271.5625 92.1719 272.8594 91.2188 272.8594 89.4844 C272.8594 87.9531 271.875 87.1094 270.125 87 C271.5625 86.6094 272.1875 85.4531 272.1875 84.4844 C272.1875 83.0938 271.1562 82.3125 269.9062 82.3125 C268.2969 82.3125 267.2188 83.5469 267.2188 85.5156 L267.2031 91.9062 Z" style="fill:black; stroke:none;"
    /></g
  ></g
></svg
>
