<?xml version="1.0"?>
<!DOCTYPE svg PUBLIC '-//W3C//DTD SVG 1.0//EN'
          'http://www.w3.org/TR/2001/REC-SVG-20010904/DTD/svg10.dtd'>
<svg xmlns:xlink="http://www.w3.org/1999/xlink" style="fill-opacity:1; color-rendering:auto; color-interpolation:auto; text-rendering:auto; stroke:black; stroke-linecap:square; stroke-miterlimit:10; shape-rendering:auto; stroke-opacity:1; fill:black; stroke-dasharray:none; font-weight:normal; stroke-width:1; font-family:'Dialog'; font-style:normal; stroke-linejoin:miter; font-size:12px; stroke-dashoffset:0; image-rendering:auto;" viewBox="0 0 157 143" xmlns="http://www.w3.org/2000/svg"
><!--Generated by the Batik Graphics2D SVG Generator--><defs id="genericDefs"
  /><g
  ><defs id="defs1"
    ><clipPath clipPathUnits="userSpaceOnUse" id="clipPath1"
      ><path style="fill-rule:evenodd;" d="M52 53 L62 60 L58 72 L45 72 L41 60 L52 53 Z"
      /></clipPath
    ></defs
    ><g style="fill:white; text-rendering:optimizeSpeed; stroke:white;"
    ><rect x="0" width="157" height="143" y="0" style="stroke:none;"
      /><polygon style="fill:none; stroke:black;" points=" 116 64 52 64"
      /><path d="M116 53 C110.5 58.5 121.5 69.5 116 75" style="fill:none; stroke:black;"
      /><polygon style="clip-path:url(#clipPath1); stroke:none;" points=" 52 53 62 60 58 72 45 72 41 60 52 53"
      /><rect x="41" y="53" width="22" style="clip-path:url(#clipPath1); stroke:none;" height="22"
      /><rect x="41" y="53" width="22" style="clip-path:url(#clipPath1); fill:none; stroke:black;" height="22"
      /><polygon style="fill:none; stroke:black;" points=" 52 53 62 60 58 72 45 72 41 60 52 53"
    /></g
    ><g style="text-rendering:optimizeSpeed; font-size:14px; font-family:'SansSerif';"
    ><path style="stroke:none;" d="M50.2344 69 L55.8594 69 L55.8594 67.9375 L53.7969 67.9375 L53.7969 58.7188 L52.8281 58.7188 C52.2656 59.0625 51.6094 59.2969 50.6875 59.4688 L50.6875 60.2812 L52.5156 60.2812 L52.5156 67.9375 L50.2344 67.9375 L50.2344 69 Z"
      /><rect x="39" y="81" width="25" style="fill:white; stroke:none;" height="10"
      /><path style="stroke:none;" d="M39.6094 92 L46.0625 92 L46.0625 90.8906 L43.2344 90.8906 C42.7031 90.8906 42.0781 90.9531 41.5469 90.9844 C43.9531 88.7031 45.5625 86.625 45.5625 84.5781 C45.5625 82.75 44.4219 81.5469 42.5781 81.5469 C41.2812 81.5469 40.4062 82.1406 39.5625 83.0469 L40.2969 83.7812 C40.8594 83.1094 41.5938 82.5938 42.4375 82.5938 C43.7031 82.5938 44.3125 83.4531 44.3125 84.625 C44.3125 86.3906 42.8438 88.4375 39.6094 91.25 L39.6094 92 ZM48.1762 92 L49.3481 92 L49.3481 86.3125 C49.3481 85.4375 49.2543 84.1875 49.1918 83.2969 L49.2543 83.2969 L50.0668 85.625 L52.0043 90.9688 L52.8793 90.9688 L54.8168 85.625 L55.6293 83.2969 L55.6918 83.2969 C55.6137 84.1875 55.52 85.4375 55.52 86.3125 L55.52 92 L56.7387 92 L56.7387 81.7188 L55.1762 81.7188 L53.2075 87.2188 C52.9731 87.9375 52.7543 88.6562 52.5043 89.375 L52.4418 89.375 C52.1918 88.6562 51.9575 87.9375 51.7075 87.2188 L49.7387 81.7188 L48.1762 81.7188 L48.1762 92 ZM62.4973 92.1875 C63.5285 92.1875 64.341 91.8281 65.0129 91.3906 L64.5442 90.5625 C63.9973 90.9375 63.3879 91.1562 62.6535 91.1562 C61.2004 91.1562 60.216 90.125 60.1223 88.5 L65.2473 88.5 C65.2785 88.3125 65.3098 88.0469 65.3098 87.7656 C65.3098 85.6094 64.216 84.2031 62.2785 84.2031 C60.5129 84.2031 58.8567 85.7344 58.8567 88.2031 C58.8567 90.7188 60.4817 92.1875 62.4973 92.1875 ZM60.1067 87.5781 C60.2629 86.0938 61.216 85.2188 62.2942 85.2188 C63.4817 85.2188 64.1848 86.0469 64.1848 87.5781 L60.1067 87.5781 Z"
      /><rect x="33" y="35" width="14" style="fill:white; stroke:none;" height="11"
      /><path style="stroke:none;" d="M34.6094 42.1562 L36.9531 38.6562 C37.2344 38.1406 37.5156 37.6406 37.7812 37.1406 L37.8281 37.1406 C37.7969 37.6719 37.7656 38.5 37.7656 39 L37.7656 42.1562 L34.6094 42.1562 ZM37.7656 46 L38.9688 46 L38.9688 43.1719 L40.3281 43.1719 L40.3281 42.1562 L38.9688 42.1562 L38.9688 35.7188 L37.5469 35.7188 L33.2812 42.3281 L33.2812 43.1719 L37.7656 43.1719 L37.7656 46 ZM44.645 46.1875 C45.5512 46.1875 46.3637 45.6875 46.9575 45.1094 L47.0043 45.1094 L47.1137 46 L48.145 46 L48.145 34.8594 L46.895 34.8594 L46.895 37.7812 L46.9418 39.0938 C46.27 38.5312 45.6918 38.2031 44.8012 38.2031 C43.0668 38.2031 41.5043 39.7344 41.5043 42.2031 C41.5043 44.7344 42.7387 46.1875 44.645 46.1875 ZM44.9262 45.125 C43.5825 45.125 42.8325 44.0312 42.8325 42.1875 C42.8325 40.4531 43.8012 39.2812 45.02 39.2812 C45.6606 39.2812 46.2231 39.5 46.895 40.0781 L46.895 44.0625 C46.2387 44.7656 45.6293 45.125 44.9262 45.125 Z"
      /><path style="stroke:none;" d="M58.5156 40.3594 C59.5781 40.3594 60.1094 41.1094 60.1094 42.2969 C60.1094 43.5 59.4531 44.2969 58.6094 44.2969 C57.5156 44.2969 56.8438 43.3125 56.7188 41.4844 C57.25 40.6875 57.9688 40.3594 58.5156 40.3594 ZM58.6094 45.1562 C59.9844 45.1562 61.125 44 61.125 42.2969 C61.125 40.4688 60.1875 39.5469 58.7031 39.5469 C58 39.5469 57.2344 39.9531 56.6875 40.6094 C56.7344 37.875 57.7656 36.9531 58.9531 36.9531 C59.5 36.9531 60.0312 37.2031 60.375 37.625 L60.9688 36.9375 C60.5 36.4219 59.8438 36.0312 58.9219 36.0312 C57.2188 36.0312 55.6719 37.3594 55.6719 40.7969 C55.6719 43.7031 56.9219 45.1562 58.6094 45.1562 ZM62.7694 45 L63.8632 45 L63.8632 40.2656 C64.4569 39.5938 65.0038 39.2812 65.5038 39.2812 C66.3319 39.2812 66.7069 39.7969 66.7069 41.0156 L66.7069 45 L67.8007 45 L67.8007 40.2656 C68.41 39.5938 68.9413 39.2812 69.4413 39.2812 C70.2694 39.2812 70.66 39.7969 70.66 41.0156 L70.66 45 L71.7538 45 L71.7538 40.875 C71.7538 39.2031 71.1132 38.3125 69.7694 38.3125 C68.9725 38.3125 68.3007 38.8281 67.6288 39.5625 C67.3632 38.7969 66.8163 38.3125 65.8163 38.3125 C65.0507 38.3125 64.3632 38.8125 63.8007 39.4375 L63.7538 39.4375 L63.66 38.4844 L62.7694 38.4844 L62.7694 45 Z"
    /></g
    ><g style="fill:white; text-rendering:optimizeSpeed; font-family:'Serif'; stroke:white;"
    ><rect x="79" width="8" height="8" y="68" style="stroke:none;"
      /><path d="M83.9844 73.7031 C83.9375 74.8906 83.1562 75.6562 82.3125 75.6562 C81.2656 75.6562 80.5 74.6875 80.5 72.7188 C80.5 71.2812 81.1562 70.1562 82.3438 70.1562 C83.1406 70.1562 83.7812 70.6875 84.0938 71.6406 L83.9844 73.7031 ZM85.9062 75.2812 C85.7344 75.375 85.5469 75.4219 85.3438 75.4219 C84.9531 75.4219 84.75 75.2188 84.75 74.4219 C84.75 73.4844 84.9688 71.5312 85.1875 69.8281 L85.0312 69.7188 L84.2344 69.9219 L84.1406 70.7969 C83.7812 70.0312 83.1562 69.6562 82.3906 69.6562 C81.0469 69.6562 79.5625 70.8438 79.5625 72.9531 C79.5625 75.0938 80.7188 76.1719 82.1406 76.1719 C83.0156 76.1719 83.6875 75.8125 84.0938 74.9844 C84.2031 75.8594 84.5156 76.1719 85.0156 76.1719 C85.4688 76.1719 85.7969 75.9062 86.0156 75.5625 L85.9062 75.2812 Z" style="fill:black; stroke:none;"
    /></g
    ><g ID="legend-1:0" style="text-rendering:optimizeSpeed; font-size:10px; font-family:'SansSerif';"
    ><path style="stroke:none;" d="M30.875 113 L34.9062 113 L34.9062 112.2344 L33.4375 112.2344 L33.4375 105.6562 L32.7344 105.6562 C32.3281 105.9062 31.8594 106.0625 31.2031 106.1875 L31.2031 106.7656 L32.5156 106.7656 L32.5156 112.2344 L30.875 112.2344 L30.875 113 ZM35.925 108.4531 L40.7219 108.4531 L40.7219 107.7656 L35.925 107.7656 L35.925 108.4531 ZM35.925 110.8438 L40.7219 110.8438 L40.7219 110.1719 L35.925 110.1719 L35.925 110.8438 ZM43.7094 113.125 C44.4125 113.125 44.975 112.7656 45.3969 112.0312 L45.4281 112.0312 C45.4125 112.7969 45.85 113.125 46.5062 113.125 C46.8187 113.125 47.0375 113.0625 47.1937 112.9844 L47.0531 112.2969 C46.9437 112.3438 46.8031 112.375 46.6937 112.375 C46.3969 112.375 46.1469 112.1875 46.1469 111.8125 C46.1469 110.8125 46.5375 109 46.8344 107.5625 L45.9281 107.5625 L45.6937 108.8594 L45.6625 108.8594 C45.3656 107.8125 44.6625 107.4375 43.9906 107.4375 C42.7406 107.4375 41.6156 108.5156 41.6156 110.375 C41.6156 112.1562 42.475 113.125 43.7094 113.125 ZM43.8969 112.375 C43.0531 112.375 42.5531 111.6406 42.5531 110.375 C42.5531 108.9375 43.3031 108.2031 44.0844 108.2031 C44.6 108.2031 45.1625 108.4688 45.4594 109.6562 L45.3812 110.6875 C45.3031 111.5938 44.6156 112.375 43.8969 112.375 ZM47.8031 110.5469 L50.3656 110.5469 L50.3656 109.8438 L47.8031 109.8438 L47.8031 110.5469 ZM51.9762 110.25 L53.6325 107.75 C53.8512 107.3906 54.0544 107.0312 54.2262 106.6719 L54.2731 106.6719 C54.2575 107.0469 54.2262 107.6406 54.2262 108 L54.2262 110.25 L51.9762 110.25 ZM54.2262 113 L55.0856 113 L55.0856 110.9844 L56.0544 110.9844 L56.0544 110.25 L55.0856 110.25 L55.0856 105.6562 L54.07 105.6562 L51.0231 110.375 L51.0231 110.9844 L54.2262 110.9844 L54.2262 113 ZM57.12 114.9062 C58.0262 114.5156 58.5731 113.7656 58.5731 112.8125 C58.5731 112.1406 58.2918 111.7344 57.8075 111.7344 C57.4325 111.7344 57.12 111.9844 57.12 112.375 C57.12 112.7969 57.4325 113.0156 57.7918 113.0156 C57.8231 113.0156 57.8543 113.0156 57.9012 113 C57.9012 113.5938 57.5262 114.0781 56.9012 114.3594 L57.12 114.9062 ZM62.0875 109.125 C62.9625 109.125 63.4156 109.7656 63.4156 110.75 C63.4156 111.75 62.8531 112.4219 62.1656 112.4219 C61.2437 112.4219 60.6968 111.5938 60.5875 110.0625 C61.025 109.4062 61.6187 109.125 62.0875 109.125 ZM62.1656 113.125 C63.3062 113.125 64.2593 112.1719 64.2593 110.75 C64.2593 109.2188 63.4625 108.4531 62.2281 108.4531 C61.65 108.4531 61.0093 108.7969 60.5562 109.3438 C60.6031 107.0625 61.4468 106.2969 62.4468 106.2969 C62.9 106.2969 63.3375 106.5 63.6343 106.8438 L64.1343 106.2812 C63.7281 105.8438 63.1812 105.5312 62.4156 105.5312 C60.9937 105.5312 59.7125 106.625 59.7125 109.5 C59.7125 111.9219 60.7437 113.125 62.1656 113.125 ZM65.1531 110.5469 L67.7156 110.5469 L67.7156 109.8438 L65.1531 109.8438 L65.1531 110.5469 ZM70.9356 113.125 C71.5918 113.125 72.1543 112.7812 72.5918 112.3594 L72.6231 112.3594 L72.7012 113 L73.4356 113 L73.4356 105.0469 L72.545 105.0469 L72.545 107.125 L72.5762 108.0625 C72.1075 107.6719 71.6856 107.4375 71.045 107.4375 C69.8106 107.4375 68.7012 108.5312 68.7012 110.2969 C68.7012 112.0938 69.5762 113.125 70.9356 113.125 ZM71.1387 112.375 C70.1856 112.375 69.6387 111.5938 69.6387 110.2812 C69.6387 109.0469 70.3262 108.2031 71.2168 108.2031 C71.6543 108.2031 72.0762 108.3594 72.545 108.7656 L72.545 111.625 C72.0762 112.125 71.6387 112.375 71.1387 112.375 ZM75.2918 113 L76.1981 113 L76.1981 107.5625 L75.2918 107.5625 L75.2918 113 ZM75.7449 106.4531 C76.1043 106.4531 76.3543 106.2031 76.3543 105.8438 C76.3543 105.4844 76.1043 105.25 75.7449 105.25 C75.3856 105.25 75.1356 105.4844 75.1356 105.8438 C75.1356 106.2031 75.3856 106.4531 75.7449 106.4531 ZM79.8856 113.125 C80.5418 113.125 81.1043 112.7812 81.5418 112.3594 L81.5731 112.3594 L81.6512 113 L82.3856 113 L82.3856 105.0469 L81.4949 105.0469 L81.4949 107.125 L81.5262 108.0625 C81.0574 107.6719 80.6356 107.4375 79.9949 107.4375 C78.7606 107.4375 77.6512 108.5312 77.6512 110.2969 C77.6512 112.0938 78.5262 113.125 79.8856 113.125 ZM80.0887 112.375 C79.1356 112.375 78.5887 111.5938 78.5887 110.2812 C78.5887 109.0469 79.2762 108.2031 80.1668 108.2031 C80.6043 108.2031 81.0262 108.3594 81.4949 108.7656 L81.4949 111.625 C81.0262 112.125 80.5887 112.375 80.0887 112.375 ZM86.4293 113.125 C87.1637 113.125 87.7574 112.875 88.2262 112.5625 L87.8981 111.9688 C87.5074 112.2344 87.0699 112.4062 86.5387 112.4062 C85.5074 112.4062 84.8043 111.6562 84.7418 110.5 L88.3981 110.5 C88.4137 110.375 88.4449 110.1875 88.4449 109.9844 C88.4449 108.4375 87.6637 107.4375 86.2731 107.4375 C85.0231 107.4375 83.8356 108.5312 83.8356 110.2969 C83.8356 112.0781 84.9918 113.125 86.4293 113.125 ZM84.7262 109.8438 C84.8356 108.7812 85.5231 108.1562 86.2887 108.1562 C87.1324 108.1562 87.6324 108.75 87.6324 109.8438 L84.7262 109.8438 ZM91.8912 113.125 C93.2193 113.125 94.4068 112.0938 94.4068 110.2969 C94.4068 108.4844 93.2193 107.4375 91.8912 107.4375 C90.5631 107.4375 89.3756 108.4844 89.3756 110.2969 C89.3756 112.0938 90.5631 113.125 91.8912 113.125 ZM91.8912 112.375 C90.9537 112.375 90.3131 111.5469 90.3131 110.2969 C90.3131 109.0469 90.9537 108.1875 91.8912 108.1875 C92.8287 108.1875 93.4693 109.0469 93.4693 110.2969 C93.4693 111.5469 92.8287 112.375 91.8912 112.375 ZM95.0762 113 L96.0293 113 L96.7637 111.7344 C96.9512 111.4062 97.1231 111.0625 97.3262 110.7656 L97.3731 110.7656 C97.5762 111.0625 97.7637 111.4062 97.9512 111.7344 L98.7481 113 L99.7481 113 L97.9668 110.2656 L99.6074 107.5625 L98.6543 107.5625 L97.9824 108.7656 C97.8262 109.0625 97.6699 109.375 97.4981 109.6719 L97.4668 109.6719 C97.2793 109.375 97.0918 109.0625 96.9199 108.7656 L96.1856 107.5625 L95.2168 107.5625 L96.8574 110.1719 L95.0762 113 ZM100.9156 115.3438 C101.9937 115.3438 102.5562 114.5156 102.9312 113.4531 L104.9781 107.5625 L104.0874 107.5625 L103.1187 110.5938 C102.9624 111.0625 102.8062 111.625 102.6656 112.1094 L102.6031 112.1094 C102.4468 111.625 102.2437 111.0625 102.0874 110.5938 L100.9781 107.5625 L100.0249 107.5625 L102.2124 113.0156 L102.0874 113.4219 C101.8687 114.0938 101.4781 114.5938 100.8531 114.5938 C100.7124 114.5938 100.5562 114.5469 100.4468 114.5 L100.2749 115.2344 C100.4468 115.2969 100.6499 115.3438 100.9156 115.3438 ZM105.563 110.5469 L108.1255 110.5469 L108.1255 109.8438 L105.563 109.8438 L105.563 110.5469 ZM109.5799 113 L111.4549 113 C113.6737 113 114.8768 111.625 114.8768 109.3125 C114.8768 106.9844 113.6737 105.6562 111.4237 105.6562 L109.5799 105.6562 L109.5799 113 ZM110.5174 112.2344 L110.5174 106.4219 L111.3456 106.4219 C113.0643 106.4219 113.9237 107.4531 113.9237 109.3125 C113.9237 111.1562 113.0643 112.2344 111.3456 112.2344 L110.5174 112.2344 ZM115.903 110.5469 L118.4655 110.5469 L118.4655 109.8438 L115.903 109.8438 L115.903 110.5469 ZM121.0918 113.125 C121.7637 113.125 122.373 112.7812 122.8887 112.3438 L122.9199 112.3438 L122.998 113 L123.748 113 L123.748 109.6562 C123.748 108.3125 123.1855 107.4375 121.873 107.4375 C120.998 107.4375 120.2324 107.8125 119.7324 108.1406 L120.0918 108.7656 C120.5137 108.4844 121.0918 108.1875 121.7168 108.1875 C122.6074 108.1875 122.8418 108.8594 122.8418 109.5625 C120.5293 109.8125 119.498 110.4062 119.498 111.5938 C119.498 112.5625 120.1855 113.125 121.0918 113.125 ZM121.3574 112.4062 C120.8105 112.4062 120.3887 112.1562 120.3887 111.5312 C120.3887 110.8281 121.0137 110.375 122.8418 110.1562 L122.8418 111.6875 C122.3105 112.1562 121.873 112.4062 121.3574 112.4062 ZM125.4818 113 L126.388 113 L126.388 109.5156 C126.7474 108.5781 127.3099 108.2656 127.763 108.2656 C127.9818 108.2656 128.1068 108.2812 128.2943 108.3438 L128.4662 107.5469 C128.2943 107.4531 128.1224 107.4375 127.8724 107.4375 C127.263 107.4375 126.7162 107.875 126.3412 108.5625 L126.3099 108.5625 L126.2318 107.5625 L125.4818 107.5625 L125.4818 113 ZM130.6118 113.125 C131.2837 113.125 131.893 112.7812 132.4087 112.3438 L132.4399 112.3438 L132.518 113 L133.268 113 L133.268 109.6562 C133.268 108.3125 132.7055 107.4375 131.393 107.4375 C130.518 107.4375 129.7524 107.8125 129.2524 108.1406 L129.6118 108.7656 C130.0337 108.4844 130.6118 108.1875 131.2368 108.1875 C132.1274 108.1875 132.3618 108.8594 132.3618 109.5625 C130.0493 109.8125 129.018 110.4062 129.018 111.5938 C129.018 112.5625 129.7055 113.125 130.6118 113.125 ZM130.8774 112.4062 C130.3305 112.4062 129.9087 112.1562 129.9087 111.5312 C129.9087 110.8281 130.5337 110.375 132.3618 110.1562 L132.3618 111.6875 C131.8305 112.1562 131.393 112.4062 130.8774 112.4062 ZM135.0799 113 L136.0174 113 L136.0174 109.5469 L139.4237 109.5469 L139.4237 113 L140.3455 113 L140.3455 105.6562 L139.4237 105.6562 L139.4237 108.7344 L136.0174 108.7344 L136.0174 105.6562 L135.0799 105.6562 L135.0799 113 ZM144.4693 113.125 C145.2037 113.125 145.7974 112.875 146.2662 112.5625 L145.938 111.9688 C145.5474 112.2344 145.1099 112.4062 144.5787 112.4062 C143.5474 112.4062 142.8443 111.6562 142.7818 110.5 L146.438 110.5 C146.4537 110.375 146.4849 110.1875 146.4849 109.9844 C146.4849 108.4375 145.7037 107.4375 144.313 107.4375 C143.063 107.4375 141.8755 108.5312 141.8755 110.2969 C141.8755 112.0781 143.0318 113.125 144.4693 113.125 ZM142.7662 109.8438 C142.8755 108.7812 143.563 108.1562 144.3287 108.1562 C145.1724 108.1562 145.6724 108.75 145.6724 109.8438 L142.7662 109.8438 ZM147.0562 113 L148.0093 113 L148.7437 111.7344 C148.9312 111.4062 149.103 111.0625 149.3062 110.7656 L149.353 110.7656 C149.5562 111.0625 149.7437 111.4062 149.9312 111.7344 L150.728 113 L151.728 113 L149.9468 110.2656 L151.5874 107.5625 L150.6343 107.5625 L149.9624 108.7656 C149.8062 109.0625 149.6499 109.375 149.478 109.6719 L149.4468 109.6719 C149.2593 109.375 149.0718 109.0625 148.8999 108.7656 L148.1655 107.5625 L147.1968 107.5625 L148.8374 110.1719 L147.0562 113 ZM152.8018 115.2969 L153.708 115.2969 L153.708 113.4531 L153.6924 112.5 C154.1768 112.9062 154.6924 113.125 155.1924 113.125 C156.4424 113.125 157.5518 112.0625 157.5518 110.2031 C157.5518 108.5312 156.7861 107.4375 155.3955 107.4375 C154.7549 107.4375 154.1455 107.7969 153.6611 108.1875 L153.6299 108.1875 L153.5518 107.5625 L152.8018 107.5625 L152.8018 115.2969 ZM155.0361 112.375 C154.6768 112.375 154.1924 112.2188 153.708 111.7969 L153.708 108.9531 C154.2393 108.4531 154.708 108.2031 155.1768 108.2031 C156.1924 108.2031 156.5986 109.0156 156.5986 110.2031 C156.5986 111.5625 155.9424 112.375 155.0361 112.375 ZM158.5174 113 L163.1268 113 L163.1268 112.2031 L161.0955 112.2031 C160.7361 112.2031 160.283 112.25 159.8924 112.2812 C161.6268 110.6562 162.7674 109.1562 162.7674 107.7031 C162.7674 106.3906 161.9549 105.5312 160.6424 105.5312 C159.7049 105.5312 159.0799 105.9531 158.4861 106.6094 L159.0174 107.125 C159.408 106.6562 159.9236 106.2812 160.533 106.2812 C161.4393 106.2812 161.8768 106.8906 161.8768 107.7344 C161.8768 108.9844 160.8143 110.4531 158.5174 112.4531 L158.5174 113 ZM164.6299 113 L165.4736 113 L165.4736 108.9375 C165.4736 108.3125 165.3955 107.4219 165.3643 106.7812 L165.3955 106.7812 L165.9736 108.4531 L167.3643 112.2656 L167.9893 112.2656 L169.3799 108.4531 L169.958 106.7812 L170.0049 106.7812 C169.9424 107.4219 169.8799 108.3125 169.8799 108.9375 L169.8799 113 L170.7549 113 L170.7549 105.6562 L169.6299 105.6562 L168.2236 109.5938 C168.0674 110.0938 167.8955 110.6094 167.7236 111.125 L167.6768 111.125 C167.5049 110.6094 167.333 110.0938 167.1611 109.5938 L165.7549 105.6562 L164.6299 105.6562 L164.6299 113 ZM174.8593 113.125 C175.5936 113.125 176.1874 112.875 176.6561 112.5625 L176.328 111.9688 C175.9374 112.2344 175.4999 112.4062 174.9686 112.4062 C173.9374 112.4062 173.2343 111.6562 173.1718 110.5 L176.828 110.5 C176.8436 110.375 176.8749 110.1875 176.8749 109.9844 C176.8749 108.4375 176.0936 107.4375 174.703 107.4375 C173.453 107.4375 172.2655 108.5312 172.2655 110.2969 C172.2655 112.0781 173.4218 113.125 174.8593 113.125 ZM173.1561 109.8438 C173.2655 108.7812 173.953 108.1562 174.7186 108.1562 C175.5624 108.1562 176.0624 108.75 176.0624 109.8438 L173.1561 109.8438 Z"
    /></g
  ></g
></svg
>
