<?xml version="1.0"?>
<!DOCTYPE svg PUBLIC '-//W3C//DTD SVG 1.0//EN'
          'http://www.w3.org/TR/2001/REC-SVG-20010904/DTD/svg10.dtd'>
<svg xmlns:xlink="http://www.w3.org/1999/xlink" style="fill-opacity:1; color-rendering:auto; color-interpolation:auto; text-rendering:auto; stroke:black; stroke-linecap:square; stroke-miterlimit:10; shape-rendering:auto; stroke-opacity:1; fill:black; stroke-dasharray:none; font-weight:normal; stroke-width:1; font-family:'Dialog'; font-style:normal; stroke-linejoin:miter; font-size:12px; stroke-dashoffset:0; image-rendering:auto;" viewBox="0 0 394 134" xmlns="http://www.w3.org/2000/svg"
><!--Generated by the Batik Graphics2D SVG Generator--><defs id="genericDefs"
  /><g
  ><defs id="defs1"
    ><clipPath clipPathUnits="userSpaceOnUse" id="clipPath1"
      ><path d="M312 67 C312 73.0751 307.0751 78 301 78 C294.9249 78 290 73.0751 290 67 C290 60.9249 294.9249 56 301 56 C307.0751 56 312 60.9249 312 67 Z"
      /></clipPath
      ><clipPath clipPathUnits="userSpaceOnUse" id="clipPath2"
      ><path d="M260 67 C260 73.0751 255.0751 78 249 78 C242.9249 78 238 73.0751 238 67 C238 60.9249 242.9249 56 249 56 C255.0751 56 260 60.9249 260 67 Z"
      /></clipPath
      ><clipPath clipPathUnits="userSpaceOnUse" id="clipPath3"
      ><path d="M208 93 C208 99.0751 203.0751 104 197 104 C190.9249 104 186 99.0751 186 93 C186 86.9249 190.9249 82 197 82 C203.0751 82 208 86.9249 208 93 Z"
      /></clipPath
      ><clipPath clipPathUnits="userSpaceOnUse" id="clipPath4"
      ><path d="M134 82 L156 82 L156 104 L134 104 L134 82 Z"
      /></clipPath
      ><clipPath clipPathUnits="userSpaceOnUse" id="clipPath5"
      ><path d="M104 93 C104 99.0751 99.0751 104 93 104 C86.9249 104 82 99.0751 82 93 C82 86.9249 86.9249 82 93 82 C99.0751 82 104 86.9249 104 93 Z"
      /></clipPath
      ><clipPath clipPathUnits="userSpaceOnUse" id="clipPath6"
      ><path style="fill-rule:evenodd;" d="M41 82 L52 93 L41 104 L30 93 Z"
      /></clipPath
      ><clipPath clipPathUnits="userSpaceOnUse" id="clipPath7"
      ><path style="fill-rule:evenodd;" d="M145 52 L134 30 L156 30 Z"
      /></clipPath
      ><clipPath clipPathUnits="userSpaceOnUse" id="clipPath8"
      ><path d="M186 30 L208 30 L208 52 L186 52 L186 30 Z"
      /></clipPath
    ></defs
    ><g style="fill:white; text-rendering:optimizeSpeed; stroke:white;"
    ><rect x="0" width="394" height="134" y="0" style="stroke:none;"
      /><polygon style="fill:none; stroke:black;" points=" 353 67 301 67"
      /><path d="M353 56 C347.5 61.5 358.5 72.5 353 78" style="fill:none; stroke:black;"
      /><polygon style="fill:none; stroke:black;" points=" 301 67 249 67"
      /><circle style="clip-path:url(#clipPath1); stroke:none;" r="11" cx="301" cy="67"
      /><rect x="290" y="56" width="22" style="clip-path:url(#clipPath1); fill:rgb(0,144,188); stroke:none;" height="22"
      /><rect x="290" y="56" width="22" style="clip-path:url(#clipPath1); fill:none; stroke:black;" height="22"
      /><circle style="fill:none; stroke:black;" r="11" cx="301" cy="67"
      /><polygon style="fill:none; stroke:black;" points=" 249 67 197 93"
      /><polygon style="fill:none; stroke:black;" points=" 249 67 197 41"
      /><circle style="clip-path:url(#clipPath2); stroke:none;" r="11" cx="249" cy="67"
      /><rect x="238" y="56" width="22" style="clip-path:url(#clipPath2); fill:rgb(255,212,0); stroke:none;" height="22"
      /><rect x="238" y="56" width="22" style="clip-path:url(#clipPath2); fill:none; stroke:black;" height="22"
      /><circle style="fill:none; stroke:black;" r="11" cx="249" cy="67"
      /><polygon style="fill:none; stroke:black;" points=" 197 93 145 93"
      /><circle style="clip-path:url(#clipPath3); stroke:none;" r="11" cx="197" cy="93"
      /><rect x="186" y="82" width="22" style="clip-path:url(#clipPath3); fill:rgb(255,212,0); stroke:none;" height="22"
      /><rect x="186" y="82" width="22" style="clip-path:url(#clipPath3); fill:none; stroke:black;" height="22"
      /><circle style="fill:none; stroke:black;" r="11" cx="197" cy="93"
      /><polygon style="fill:none; stroke:black;" points=" 145 93 93 93"
      /><polygon style="fill:none; stroke:black;" points=" 145 93 145 41"
      /><rect x="134" y="82" width="22" style="clip-path:url(#clipPath4); stroke:none;" height="22"
      /><rect x="134" y="82" width="22" style="clip-path:url(#clipPath4); fill:rgb(0,144,188); stroke:none;" height="22"
      /><rect x="134" y="82" width="22" style="clip-path:url(#clipPath4); fill:none; stroke:black;" height="22"
      /><rect x="134" y="82" width="22" style="fill:none; stroke:black;" height="22"
      /><polygon style="fill:none; stroke:black;" points=" 93 93 41 93"
      /><circle style="clip-path:url(#clipPath5); stroke:none;" r="11" cx="93" cy="93"
      /><rect x="82" y="82" width="22" style="clip-path:url(#clipPath5); fill:rgb(255,212,0); stroke:none;" height="22"
      /><rect x="82" y="82" width="22" style="clip-path:url(#clipPath5); fill:none; stroke:black;" height="22"
      /><circle style="fill:none; stroke:black;" r="11" cx="93" cy="93"
      /><polygon style="clip-path:url(#clipPath6); stroke:none;" points=" 41 82 52 93 41 104 30 93"
      /><rect x="30" y="82" width="22" style="clip-path:url(#clipPath6); fill:rgb(165,67,153); stroke:none;" height="22"
      /><rect x="30" y="82" width="22" style="clip-path:url(#clipPath6); fill:none; stroke:black;" height="22"
      /><polygon style="fill:none; stroke:black;" points=" 41 82 52 93 41 104 30 93"
      /><rect x="71" y="96" width="5" style="stroke:none;" height="10"
    /></g
    ><g style="font-family:'Serif'; text-rendering:optimizeSpeed; "
    ><path style="stroke:none;" d="M72.8906 104.6875 C72.4844 104.6875 72.1562 105.0469 72.1562 105.4219 C72.1562 105.8125 72.4844 106.1562 72.8906 106.1562 C73.2969 106.1562 73.6406 105.8125 73.6406 105.4219 C73.6406 105.0469 73.2969 104.6875 72.8906 104.6875 ZM74.4688 98.5781 C74.7188 98.8906 74.875 99.2656 74.8906 99.6562 C74.8906 100.1875 74.625 100.5 74.0312 100.7656 L73.4062 101.0156 C72.6406 101.3125 72.3906 101.5469 72.3906 101.9375 C72.3906 102.1094 72.4531 102.3438 72.5781 102.8125 L72.7344 103.3438 L73.1094 103.3438 L73.0938 102.5312 C73.0938 102.0938 73.2031 101.9688 73.7812 101.7344 L74.2031 101.5625 C75.0312 101.2188 75.4531 100.6875 75.4531 99.8438 C75.4531 98.1562 73.6562 97.1875 72.5 97.0312 C72.1094 97.125 71.9062 97.2969 71.9062 97.6406 C71.9062 97.9375 72.0625 98.1562 72.7188 98.2656 L74.4688 98.5781 Z"
      /><rect x="57" y="96" width="5" style="fill:white; stroke:none;" height="10"
      /><path style="stroke:none;" d="M58.8906 104.6875 C58.4844 104.6875 58.1562 105.0469 58.1562 105.4219 C58.1562 105.8125 58.4844 106.1562 58.8906 106.1562 C59.2969 106.1562 59.6406 105.8125 59.6406 105.4219 C59.6406 105.0469 59.2969 104.6875 58.8906 104.6875 ZM60.4688 98.5781 C60.7188 98.8906 60.875 99.2656 60.8906 99.6562 C60.8906 100.1875 60.625 100.5 60.0312 100.7656 L59.4062 101.0156 C58.6406 101.3125 58.3906 101.5469 58.3906 101.9375 C58.3906 102.1094 58.4531 102.3438 58.5781 102.8125 L58.7344 103.3438 L59.1094 103.3438 L59.0938 102.5312 C59.0938 102.0938 59.2031 101.9688 59.7812 101.7344 L60.2031 101.5625 C61.0312 101.2188 61.4531 100.6875 61.4531 99.8438 C61.4531 98.1562 59.6562 97.1875 58.5 97.0312 C58.1094 97.125 57.9062 97.2969 57.9062 97.6406 C57.9062 97.9375 58.0625 98.1562 58.7188 98.2656 L60.4688 98.5781 Z"
      /><polygon style="fill:white; clip-path:url(#clipPath7); stroke:none;" points=" 145 52 134 30 156 30"
      /><rect x="134" y="30" width="22" style="clip-path:url(#clipPath7); fill:rgb(237,28,36); stroke:none;" height="22"
      /><rect x="134" y="30" width="22" style="fill:none; clip-path:url(#clipPath7);" height="22"
      /><polygon style="fill:none;" points=" 145 52 134 30 156 30"
      /><rect x="123" y="96" width="5" style="fill:white; stroke:none;" height="10"
      /><path style="stroke:none;" d="M124.8906 104.6875 C124.4844 104.6875 124.1562 105.0469 124.1562 105.4219 C124.1562 105.8125 124.4844 106.1562 124.8906 106.1562 C125.2969 106.1562 125.6406 105.8125 125.6406 105.4219 C125.6406 105.0469 125.2969 104.6875 124.8906 104.6875 ZM126.4688 98.5781 C126.7188 98.8906 126.875 99.2656 126.8906 99.6562 C126.8906 100.1875 126.625 100.5 126.0312 100.7656 L125.4062 101.0156 C124.6406 101.3125 124.3906 101.5469 124.3906 101.9375 C124.3906 102.1094 124.4531 102.3438 124.5781 102.8125 L124.7344 103.3438 L125.1094 103.3438 L125.0938 102.5312 C125.0938 102.0938 125.2031 101.9688 125.7812 101.7344 L126.2031 101.5625 C127.0312 101.2188 127.4531 100.6875 127.4531 99.8438 C127.4531 98.1562 125.6562 97.1875 124.5 97.0312 C124.1094 97.125 123.9062 97.2969 123.9062 97.6406 C123.9062 97.9375 124.0625 98.1562 124.7188 98.2656 L126.4688 98.5781 Z"
      /><rect x="109" y="96" width="5" style="fill:white; stroke:none;" height="10"
      /><path style="stroke:none;" d="M110.8906 104.6875 C110.4844 104.6875 110.1562 105.0469 110.1562 105.4219 C110.1562 105.8125 110.4844 106.1562 110.8906 106.1562 C111.2969 106.1562 111.6406 105.8125 111.6406 105.4219 C111.6406 105.0469 111.2969 104.6875 110.8906 104.6875 ZM112.4688 98.5781 C112.7188 98.8906 112.875 99.2656 112.8906 99.6562 C112.8906 100.1875 112.625 100.5 112.0312 100.7656 L111.4062 101.0156 C110.6406 101.3125 110.3906 101.5469 110.3906 101.9375 C110.3906 102.1094 110.4531 102.3438 110.5781 102.8125 L110.7344 103.3438 L111.1094 103.3438 L111.0938 102.5312 C111.0938 102.0938 111.2031 101.9688 111.7812 101.7344 L112.2031 101.5625 C113.0312 101.2188 113.4531 100.6875 113.4531 99.8438 C113.4531 98.1562 111.6562 97.1875 110.5 97.0312 C110.1094 97.125 109.9062 97.2969 109.9062 97.6406 C109.9062 97.9375 110.0625 98.1562 110.7188 98.2656 L112.4688 98.5781 Z"
      /><rect x="134" y="69" width="5" style="fill:white; stroke:none;" height="10"
      /><path style="stroke:none;" d="M135.8906 77.6875 C135.4844 77.6875 135.1562 78.0469 135.1562 78.4219 C135.1562 78.8125 135.4844 79.1562 135.8906 79.1562 C136.2969 79.1562 136.6406 78.8125 136.6406 78.4219 C136.6406 78.0469 136.2969 77.6875 135.8906 77.6875 ZM137.4688 71.5781 C137.7188 71.8906 137.875 72.2656 137.8906 72.6562 C137.8906 73.1875 137.625 73.5 137.0312 73.7656 L136.4062 74.0156 C135.6406 74.3125 135.3906 74.5469 135.3906 74.9375 C135.3906 75.1094 135.4531 75.3438 135.5781 75.8125 L135.7344 76.3438 L136.1094 76.3438 L136.0938 75.5312 C136.0938 75.0938 136.2031 74.9688 136.7812 74.7344 L137.2031 74.5625 C138.0312 74.2188 138.4531 73.6875 138.4531 72.8438 C138.4531 71.1562 136.6562 70.1875 135.5 70.0312 C135.1094 70.125 134.9062 70.2969 134.9062 70.6406 C134.9062 70.9375 135.0625 71.1562 135.7188 71.2656 L137.4688 71.5781 Z"
      /><rect x="134" y="55" width="5" style="fill:white; stroke:none;" height="10"
      /><path style="stroke:none;" d="M135.8906 63.6875 C135.4844 63.6875 135.1562 64.0469 135.1562 64.4219 C135.1562 64.8125 135.4844 65.1562 135.8906 65.1562 C136.2969 65.1562 136.6406 64.8125 136.6406 64.4219 C136.6406 64.0469 136.2969 63.6875 135.8906 63.6875 ZM137.4688 57.5781 C137.7188 57.8906 137.875 58.2656 137.8906 58.6562 C137.8906 59.1875 137.625 59.5 137.0312 59.7656 L136.4062 60.0156 C135.6406 60.3125 135.3906 60.5469 135.3906 60.9375 C135.3906 61.1094 135.4531 61.3438 135.5781 61.8125 L135.7344 62.3438 L136.1094 62.3438 L136.0938 61.5312 C136.0938 61.0938 136.2031 60.9688 136.7812 60.7344 L137.2031 60.5625 C138.0312 60.2188 138.4531 59.6875 138.4531 58.8438 C138.4531 57.1562 136.6562 56.1875 135.5 56.0312 C135.1094 56.125 134.9062 56.2969 134.9062 56.6406 C134.9062 56.9375 135.0625 57.1562 135.7188 57.2656 L137.4688 57.5781 Z"
      /><rect x="175" y="96" width="5" style="fill:white; stroke:none;" height="10"
      /><path style="stroke:none;" d="M176.8906 104.6875 C176.4844 104.6875 176.1562 105.0469 176.1562 105.4219 C176.1562 105.8125 176.4844 106.1562 176.8906 106.1562 C177.2969 106.1562 177.6406 105.8125 177.6406 105.4219 C177.6406 105.0469 177.2969 104.6875 176.8906 104.6875 ZM178.4688 98.5781 C178.7188 98.8906 178.875 99.2656 178.8906 99.6562 C178.8906 100.1875 178.625 100.5 178.0312 100.7656 L177.4062 101.0156 C176.6406 101.3125 176.3906 101.5469 176.3906 101.9375 C176.3906 102.1094 176.4531 102.3438 176.5781 102.8125 L176.7344 103.3438 L177.1094 103.3438 L177.0938 102.5312 C177.0938 102.0938 177.2031 101.9688 177.7812 101.7344 L178.2031 101.5625 C179.0312 101.2188 179.4531 100.6875 179.4531 99.8438 C179.4531 98.1562 177.6562 97.1875 176.5 97.0312 C176.1094 97.125 175.9062 97.2969 175.9062 97.6406 C175.9062 97.9375 176.0625 98.1562 176.7188 98.2656 L178.4688 98.5781 Z"
      /><rect x="161" y="96" width="5" style="fill:white; stroke:none;" height="10"
      /><path style="stroke:none;" d="M162.8906 104.6875 C162.4844 104.6875 162.1562 105.0469 162.1562 105.4219 C162.1562 105.8125 162.4844 106.1562 162.8906 106.1562 C163.2969 106.1562 163.6406 105.8125 163.6406 105.4219 C163.6406 105.0469 163.2969 104.6875 162.8906 104.6875 ZM164.4688 98.5781 C164.7188 98.8906 164.875 99.2656 164.8906 99.6562 C164.8906 100.1875 164.625 100.5 164.0312 100.7656 L163.4062 101.0156 C162.6406 101.3125 162.3906 101.5469 162.3906 101.9375 C162.3906 102.1094 162.4531 102.3438 162.5781 102.8125 L162.7344 103.3438 L163.1094 103.3438 L163.0938 102.5312 C163.0938 102.0938 163.2031 101.9688 163.7812 101.7344 L164.2031 101.5625 C165.0312 101.2188 165.4531 100.6875 165.4531 99.8438 C165.4531 98.1562 163.6562 97.1875 162.5 97.0312 C162.1094 97.125 161.9062 97.2969 161.9062 97.6406 C161.9062 97.9375 162.0625 98.1562 162.7188 98.2656 L164.4688 98.5781 Z"
      /><rect x="186" y="30" width="22" style="clip-path:url(#clipPath8); fill:white; stroke:none;" height="22"
      /><rect x="186" y="30" width="22" style="clip-path:url(#clipPath8); fill:rgb(0,144,188); stroke:none;" height="22"
      /><rect x="186" y="30" width="22" style="fill:none; clip-path:url(#clipPath8);" height="22"
      /><rect x="186" width="22" height="22" y="30" style="fill:none;"
      /><rect x="231" y="78" width="5" style="fill:white; stroke:none;" height="10"
      /><path style="stroke:none;" d="M232.8906 86.6875 C232.4844 86.6875 232.1562 87.0469 232.1562 87.4219 C232.1562 87.8125 232.4844 88.1562 232.8906 88.1562 C233.2969 88.1562 233.6406 87.8125 233.6406 87.4219 C233.6406 87.0469 233.2969 86.6875 232.8906 86.6875 ZM234.4688 80.5781 C234.7188 80.8906 234.875 81.2656 234.8906 81.6562 C234.8906 82.1875 234.625 82.5 234.0312 82.7656 L233.4062 83.0156 C232.6406 83.3125 232.3906 83.5469 232.3906 83.9375 C232.3906 84.1094 232.4531 84.3438 232.5781 84.8125 L232.7344 85.3438 L233.1094 85.3438 L233.0938 84.5312 C233.0938 84.0938 233.2031 83.9688 233.7812 83.7344 L234.2031 83.5625 C235.0312 83.2188 235.4531 82.6875 235.4531 81.8438 C235.4531 80.1562 233.6562 79.1875 232.5 79.0312 C232.1094 79.125 231.9062 79.2969 231.9062 79.6406 C231.9062 79.9375 232.0625 80.1562 232.7188 80.2656 L234.4688 80.5781 Z"
      /><rect x="216" y="86" width="5" style="fill:white; stroke:none;" height="10"
      /><path style="stroke:none;" d="M217.8906 94.6875 C217.4844 94.6875 217.1562 95.0469 217.1562 95.4219 C217.1562 95.8125 217.4844 96.1562 217.8906 96.1562 C218.2969 96.1562 218.6406 95.8125 218.6406 95.4219 C218.6406 95.0469 218.2969 94.6875 217.8906 94.6875 ZM219.4688 88.5781 C219.7188 88.8906 219.875 89.2656 219.8906 89.6562 C219.8906 90.1875 219.625 90.5 219.0312 90.7656 L218.4062 91.0156 C217.6406 91.3125 217.3906 91.5469 217.3906 91.9375 C217.3906 92.1094 217.4531 92.3438 217.5781 92.8125 L217.7344 93.3438 L218.1094 93.3438 L218.0938 92.5312 C218.0938 92.0938 218.2031 91.9688 218.7812 91.7344 L219.2031 91.5625 C220.0312 91.2188 220.4531 90.6875 220.4531 89.8438 C220.4531 88.1562 218.6562 87.1875 217.5 87.0312 C217.1094 87.125 216.9062 87.2969 216.9062 87.6406 C216.9062 87.9375 217.0625 88.1562 217.7188 88.2656 L219.4688 88.5781 Z"
      /><rect x="224" y="60" width="5" style="fill:white; stroke:none;" height="10"
      /><path style="stroke:none;" d="M225.8906 68.6875 C225.4844 68.6875 225.1562 69.0469 225.1562 69.4219 C225.1562 69.8125 225.4844 70.1562 225.8906 70.1562 C226.2969 70.1562 226.6406 69.8125 226.6406 69.4219 C226.6406 69.0469 226.2969 68.6875 225.8906 68.6875 ZM227.4688 62.5781 C227.7188 62.8906 227.875 63.2656 227.8906 63.6562 C227.8906 64.1875 227.625 64.5 227.0312 64.7656 L226.4062 65.0156 C225.6406 65.3125 225.3906 65.5469 225.3906 65.9375 C225.3906 66.1094 225.4531 66.3438 225.5781 66.8125 L225.7344 67.3438 L226.1094 67.3438 L226.0938 66.5312 C226.0938 66.0938 226.2031 65.9688 226.7812 65.7344 L227.2031 65.5625 C228.0312 65.2188 228.4531 64.6875 228.4531 63.8438 C228.4531 62.1562 226.6562 61.1875 225.5 61.0312 C225.1094 61.125 224.9062 61.2969 224.9062 61.6406 C224.9062 61.9375 225.0625 62.1562 225.7188 62.2656 L227.4688 62.5781 Z"
      /><rect x="209" y="52" width="5" style="fill:white; stroke:none;" height="10"
      /><path style="stroke:none;" d="M210.8906 60.6875 C210.4844 60.6875 210.1562 61.0469 210.1562 61.4219 C210.1562 61.8125 210.4844 62.1562 210.8906 62.1562 C211.2969 62.1562 211.6406 61.8125 211.6406 61.4219 C211.6406 61.0469 211.2969 60.6875 210.8906 60.6875 ZM212.4688 54.5781 C212.7188 54.8906 212.875 55.2656 212.8906 55.6562 C212.8906 56.1875 212.625 56.5 212.0312 56.7656 L211.4062 57.0156 C210.6406 57.3125 210.3906 57.5469 210.3906 57.9375 C210.3906 58.1094 210.4531 58.3438 210.5781 58.8125 L210.7344 59.3438 L211.1094 59.3438 L211.0938 58.5312 C211.0938 58.0938 211.2031 57.9688 211.7812 57.7344 L212.2031 57.5625 C213.0312 57.2188 213.4531 56.6875 213.4531 55.8438 C213.4531 54.1562 211.6562 53.1875 210.5 53.0312 C210.1094 53.125 209.9062 53.2969 209.9062 53.6406 C209.9062 53.9375 210.0625 54.1562 210.7188 54.2656 L212.4688 54.5781 Z"
      /><rect x="279" y="70" width="5" style="fill:white; stroke:none;" height="10"
      /><path style="stroke:none;" d="M280.8906 78.6875 C280.4844 78.6875 280.1562 79.0469 280.1562 79.4219 C280.1562 79.8125 280.4844 80.1562 280.8906 80.1562 C281.2969 80.1562 281.6406 79.8125 281.6406 79.4219 C281.6406 79.0469 281.2969 78.6875 280.8906 78.6875 ZM282.4688 72.5781 C282.7188 72.8906 282.875 73.2656 282.8906 73.6562 C282.8906 74.1875 282.625 74.5 282.0312 74.7656 L281.4062 75.0156 C280.6406 75.3125 280.3906 75.5469 280.3906 75.9375 C280.3906 76.1094 280.4531 76.3438 280.5781 76.8125 L280.7344 77.3438 L281.1094 77.3438 L281.0938 76.5312 C281.0938 76.0938 281.2031 75.9688 281.7812 75.7344 L282.2031 75.5625 C283.0312 75.2188 283.4531 74.6875 283.4531 73.8438 C283.4531 72.1562 281.6562 71.1875 280.5 71.0312 C280.1094 71.125 279.9062 71.2969 279.9062 71.6406 C279.9062 71.9375 280.0625 72.1562 280.7188 72.2656 L282.4688 72.5781 Z"
      /><rect x="265" y="70" width="5" style="fill:white; stroke:none;" height="10"
      /><path style="stroke:none;" d="M266.8906 78.6875 C266.4844 78.6875 266.1562 79.0469 266.1562 79.4219 C266.1562 79.8125 266.4844 80.1562 266.8906 80.1562 C267.2969 80.1562 267.6406 79.8125 267.6406 79.4219 C267.6406 79.0469 267.2969 78.6875 266.8906 78.6875 ZM268.4688 72.5781 C268.7188 72.8906 268.875 73.2656 268.8906 73.6562 C268.8906 74.1875 268.625 74.5 268.0312 74.7656 L267.4062 75.0156 C266.6406 75.3125 266.3906 75.5469 266.3906 75.9375 C266.3906 76.1094 266.4531 76.3438 266.5781 76.8125 L266.7344 77.3438 L267.1094 77.3438 L267.0938 76.5312 C267.0938 76.0938 267.2031 75.9688 267.7812 75.7344 L268.2031 75.5625 C269.0312 75.2188 269.4531 74.6875 269.4531 73.8438 C269.4531 72.1562 267.6562 71.1875 266.5 71.0312 C266.1094 71.125 265.9062 71.2969 265.9062 71.6406 C265.9062 71.9375 266.0625 72.1562 266.7188 72.2656 L268.4688 72.5781 Z"
      /><rect x="317" y="70" width="5" style="fill:white; stroke:none;" height="10"
      /><path style="stroke:none;" d="M318.8906 78.6875 C318.4844 78.6875 318.1562 79.0469 318.1562 79.4219 C318.1562 79.8125 318.4844 80.1562 318.8906 80.1562 C319.2969 80.1562 319.6406 79.8125 319.6406 79.4219 C319.6406 79.0469 319.2969 78.6875 318.8906 78.6875 ZM320.4688 72.5781 C320.7188 72.8906 320.875 73.2656 320.8906 73.6562 C320.8906 74.1875 320.625 74.5 320.0312 74.7656 L319.4062 75.0156 C318.6406 75.3125 318.3906 75.5469 318.3906 75.9375 C318.3906 76.1094 318.4531 76.3438 318.5781 76.8125 L318.7344 77.3438 L319.1094 77.3438 L319.0938 76.5312 C319.0938 76.0938 319.2031 75.9688 319.7812 75.7344 L320.2031 75.5625 C321.0312 75.2188 321.4531 74.6875 321.4531 73.8438 C321.4531 72.1562 319.6562 71.1875 318.5 71.0312 C318.1094 71.125 317.9062 71.2969 317.9062 71.6406 C317.9062 71.9375 318.0625 72.1562 318.7188 72.2656 L320.4688 72.5781 Z"
    /></g
  ></g
></svg
>
