<?xml version="1.0"?>
<!DOCTYPE svg PUBLIC '-//W3C//DTD SVG 1.0//EN'
          'http://www.w3.org/TR/2001/REC-SVG-20010904/DTD/svg10.dtd'>
<svg xmlns:xlink="http://www.w3.org/1999/xlink" style="fill-opacity:1; color-rendering:auto; color-interpolation:auto; text-rendering:auto; stroke:black; stroke-linecap:square; stroke-miterlimit:10; shape-rendering:auto; stroke-opacity:1; fill:black; stroke-dasharray:none; font-weight:normal; stroke-width:1; font-family:'Dialog'; font-style:normal; stroke-linejoin:miter; font-size:12px; stroke-dashoffset:0; image-rendering:auto;" viewBox="0 0 147 238" xmlns="http://www.w3.org/2000/svg"
><!--Generated by the Batik Graphics2D SVG Generator--><defs id="genericDefs"
  /><g
  ><defs id="defs1"
    ><clipPath clipPathUnits="userSpaceOnUse" id="clipPath1"
      ><path d="M51 186 L73 186 L73 208 L51 208 L51 186 Z"
      /></clipPath
      ><clipPath clipPathUnits="userSpaceOnUse" id="clipPath2"
      ><path d="M51 134 L73 134 L73 156 L51 156 L51 134 Z"
      /></clipPath
      ><clipPath clipPathUnits="userSpaceOnUse" id="clipPath3"
      ><path d="M73 93 C73 99.0751 68.0751 104 62 104 C55.9249 104 51 99.0751 51 93 C51 86.9249 55.9249 82 62 82 C68.0751 82 73 86.9249 73 93 Z"
      /></clipPath
    ></defs
    ><g style="fill:white; text-rendering:optimizeSpeed; stroke:white;"
    ><rect x="0" width="147" height="238" y="0" style="stroke:none;"
      /><rect x="51" y="186" width="22" style="clip-path:url(#clipPath1); stroke:none;" height="22"
      /><rect x="51" y="186" width="22" style="clip-path:url(#clipPath1); stroke:none;" height="22"
      /><rect x="51" y="186" width="22" style="clip-path:url(#clipPath1); fill:none; stroke:black;" height="22"
      /><rect x="51" y="186" width="22" style="fill:none; stroke:black;" height="22"
    /></g
    ><g style="font-style:italic; text-rendering:optimizeSpeed; font-size:10px; font-family:'SansSerif';"
    ><path style="stroke:none;" d="M62 199.125 C63.3281 199.125 64.7344 198.0938 65.125 196.2969 C65.5 194.4844 64.5469 193.4375 63.2188 193.4375 C61.8906 193.4375 60.4688 194.4844 60.0938 196.2969 C59.7031 198.0938 60.6719 199.125 62 199.125 ZM62.1719 198.375 C61.2344 198.375 60.7656 197.5469 61.0312 196.2969 C61.2969 195.0469 62.1094 194.1875 63.0469 194.1875 C63.9844 194.1875 64.4531 195.0469 64.1875 196.2969 C63.9219 197.5469 63.1094 198.375 62.1719 198.375 Z"
    /></g
    ><g style="fill:white; text-rendering:optimizeSpeed; font-family:'Serif'; stroke:white;"
    ><rect x="78" width="5" height="10" y="184" style="stroke:none;"
      /><path d="M79.8906 192.6875 C79.4844 192.6875 79.1562 193.0469 79.1562 193.4219 C79.1562 193.8125 79.4844 194.1562 79.8906 194.1562 C80.2969 194.1562 80.6406 193.8125 80.6406 193.4219 C80.6406 193.0469 80.2969 192.6875 79.8906 192.6875 ZM81.4688 186.5781 C81.7188 186.8906 81.875 187.2656 81.8906 187.6562 C81.8906 188.1875 81.625 188.5 81.0312 188.7656 L80.4062 189.0156 C79.6406 189.3125 79.3906 189.5469 79.3906 189.9375 C79.3906 190.1094 79.4531 190.3438 79.5781 190.8125 L79.7344 191.3438 L80.1094 191.3438 L80.0938 190.5312 C80.0938 190.0938 80.2031 189.9688 80.7812 189.7344 L81.2031 189.5625 C82.0312 189.2188 82.4531 188.6875 82.4531 187.8438 C82.4531 186.1562 80.6562 185.1875 79.5 185.0312 C79.1094 185.125 78.9062 185.2969 78.9062 185.6406 C78.9062 185.9375 79.0625 186.1562 79.7188 186.2656 L81.4688 186.5781 Z" style="fill:black; stroke:none;"
      /><rect x="78" width="5" height="10" y="200" style="stroke:none;"
      /><path d="M79.8906 208.6875 C79.4844 208.6875 79.1562 209.0469 79.1562 209.4219 C79.1562 209.8125 79.4844 210.1562 79.8906 210.1562 C80.2969 210.1562 80.6406 209.8125 80.6406 209.4219 C80.6406 209.0469 80.2969 208.6875 79.8906 208.6875 ZM81.4688 202.5781 C81.7188 202.8906 81.875 203.2656 81.8906 203.6562 C81.8906 204.1875 81.625 204.5 81.0312 204.7656 L80.4062 205.0156 C79.6406 205.3125 79.3906 205.5469 79.3906 205.9375 C79.3906 206.1094 79.4531 206.3438 79.5781 206.8125 L79.7344 207.3438 L80.1094 207.3438 L80.0938 206.5312 C80.0938 206.0938 80.2031 205.9688 80.7812 205.7344 L81.2031 205.5625 C82.0312 205.2188 82.4531 204.6875 82.4531 203.8438 C82.4531 202.1562 80.6562 201.1875 79.5 201.0312 C79.1094 201.125 78.9062 201.2969 78.9062 201.6406 C78.9062 201.9375 79.0625 202.1562 79.7188 202.2656 L81.4688 202.5781 Z" style="fill:black; stroke:none;"
      /><rect x="51" y="134" width="22" style="clip-path:url(#clipPath2); stroke:none;" height="22"
      /><rect x="51" y="134" width="22" style="clip-path:url(#clipPath2); stroke:none;" height="22"
      /><rect x="51" y="134" width="22" style="clip-path:url(#clipPath2); fill:none; stroke:black;" height="22"
      /><rect x="51" y="134" width="22" style="fill:none; stroke:black;" height="22"
      /><rect x="78" width="5" height="10" y="132" style="stroke:none;"
      /><path d="M79.8906 140.6875 C79.4844 140.6875 79.1562 141.0469 79.1562 141.4219 C79.1562 141.8125 79.4844 142.1562 79.8906 142.1562 C80.2969 142.1562 80.6406 141.8125 80.6406 141.4219 C80.6406 141.0469 80.2969 140.6875 79.8906 140.6875 ZM81.4688 134.5781 C81.7188 134.8906 81.875 135.2656 81.8906 135.6562 C81.8906 136.1875 81.625 136.5 81.0312 136.7656 L80.4062 137.0156 C79.6406 137.3125 79.3906 137.5469 79.3906 137.9375 C79.3906 138.1094 79.4531 138.3438 79.5781 138.8125 L79.7344 139.3438 L80.1094 139.3438 L80.0938 138.5312 C80.0938 138.0938 80.2031 137.9688 80.7812 137.7344 L81.2031 137.5625 C82.0312 137.2188 82.4531 136.6875 82.4531 135.8438 C82.4531 134.1562 80.6562 133.1875 79.5 133.0312 C79.1094 133.125 78.9062 133.2969 78.9062 133.6406 C78.9062 133.9375 79.0625 134.1562 79.7188 134.2656 L81.4688 134.5781 Z" style="fill:black; stroke:none;"
      /><rect x="78" width="5" height="10" y="148" style="stroke:none;"
      /><path d="M79.8906 156.6875 C79.4844 156.6875 79.1562 157.0469 79.1562 157.4219 C79.1562 157.8125 79.4844 158.1562 79.8906 158.1562 C80.2969 158.1562 80.6406 157.8125 80.6406 157.4219 C80.6406 157.0469 80.2969 156.6875 79.8906 156.6875 ZM81.4688 150.5781 C81.7188 150.8906 81.875 151.2656 81.8906 151.6562 C81.8906 152.1875 81.625 152.5 81.0312 152.7656 L80.4062 153.0156 C79.6406 153.3125 79.3906 153.5469 79.3906 153.9375 C79.3906 154.1094 79.4531 154.3438 79.5781 154.8125 L79.7344 155.3438 L80.1094 155.3438 L80.0938 154.5312 C80.0938 154.0938 80.2031 153.9688 80.7812 153.7344 L81.2031 153.5625 C82.0312 153.2188 82.4531 152.6875 82.4531 151.8438 C82.4531 150.1562 80.6562 149.1875 79.5 149.0312 C79.1094 149.125 78.9062 149.2969 78.9062 149.6406 C78.9062 149.9375 79.0625 150.1562 79.7188 150.2656 L81.4688 150.5781 Z" style="fill:black; stroke:none;"
    /></g
    ><g style="text-rendering:optimizeSpeed; font-size:14px; font-family:'SansSerif';"
    ><path style="stroke:none;" d="M33.6094 150 L40.0625 150 L40.0625 148.8906 L37.2344 148.8906 C36.7031 148.8906 36.0781 148.9531 35.5469 148.9844 C37.9531 146.7031 39.5625 144.625 39.5625 142.5781 C39.5625 140.75 38.4219 139.5469 36.5781 139.5469 C35.2812 139.5469 34.4062 140.1406 33.5625 141.0469 L34.2969 141.7812 C34.8594 141.1094 35.5938 140.5938 36.4375 140.5938 C37.7031 140.5938 38.3125 141.4531 38.3125 142.625 C38.3125 144.3906 36.8438 146.4375 33.6094 149.25 L33.6094 150 ZM40.9731 150 L42.3168 150 L43.3481 148.2188 C43.6137 147.7656 43.8637 147.2969 44.1293 146.8594 L44.2075 146.8594 C44.4731 147.2969 44.7543 147.7656 45.0043 148.2188 L46.1293 150 L47.5356 150 L45.02 146.1562 L47.3325 142.3906 L46.0043 142.3906 L45.0668 144.0625 C44.8481 144.5 44.6137 144.9219 44.3793 145.3438 L44.3325 145.3438 C44.0668 144.9219 43.8012 144.5 43.5668 144.0625 L42.5512 142.3906 L41.1762 142.3906 L43.4887 146.0312 L40.9731 150 Z"
      /><circle style="fill:white; clip-path:url(#clipPath3); stroke:none;" r="11" cx="62" cy="93"
      /><rect x="51" y="82" width="22" style="clip-path:url(#clipPath3); fill:white; stroke:none;" height="22"
      /><rect x="51" y="82" width="22" style="fill:none; clip-path:url(#clipPath3);" height="22"
      /><circle r="11" style="fill:none;" cx="62" cy="93"
    /></g
    ><g style="fill:white; text-rendering:optimizeSpeed; font-family:'Serif'; stroke:white;"
    ><rect x="78" width="5" height="10" y="80" style="stroke:none;"
      /><path d="M79.8906 88.6875 C79.4844 88.6875 79.1562 89.0469 79.1562 89.4219 C79.1562 89.8125 79.4844 90.1562 79.8906 90.1562 C80.2969 90.1562 80.6406 89.8125 80.6406 89.4219 C80.6406 89.0469 80.2969 88.6875 79.8906 88.6875 ZM81.4688 82.5781 C81.7188 82.8906 81.875 83.2656 81.8906 83.6562 C81.8906 84.1875 81.625 84.5 81.0312 84.7656 L80.4062 85.0156 C79.6406 85.3125 79.3906 85.5469 79.3906 85.9375 C79.3906 86.1094 79.4531 86.3438 79.5781 86.8125 L79.7344 87.3438 L80.1094 87.3438 L80.0938 86.5312 C80.0938 86.0938 80.2031 85.9688 80.7812 85.7344 L81.2031 85.5625 C82.0312 85.2188 82.4531 84.6875 82.4531 83.8438 C82.4531 82.1562 80.6562 81.1875 79.5 81.0312 C79.1094 81.125 78.9062 81.2969 78.9062 81.6406 C78.9062 81.9375 79.0625 82.1562 79.7188 82.2656 L81.4688 82.5781 Z" style="fill:black; stroke:none;"
      /><rect x="78" width="5" height="10" y="96" style="stroke:none;"
      /><path d="M79.8906 104.6875 C79.4844 104.6875 79.1562 105.0469 79.1562 105.4219 C79.1562 105.8125 79.4844 106.1562 79.8906 106.1562 C80.2969 106.1562 80.6406 105.8125 80.6406 105.4219 C80.6406 105.0469 80.2969 104.6875 79.8906 104.6875 ZM81.4688 98.5781 C81.7188 98.8906 81.875 99.2656 81.8906 99.6562 C81.8906 100.1875 81.625 100.5 81.0312 100.7656 L80.4062 101.0156 C79.6406 101.3125 79.3906 101.5469 79.3906 101.9375 C79.3906 102.1094 79.4531 102.3438 79.5781 102.8125 L79.7344 103.3438 L80.1094 103.3438 L80.0938 102.5312 C80.0938 102.0938 80.2031 101.9688 80.7812 101.7344 L81.2031 101.5625 C82.0312 101.2188 82.4531 100.6875 82.4531 99.8438 C82.4531 98.1562 80.6562 97.1875 79.5 97.0312 C79.1094 97.125 78.9062 97.2969 78.9062 97.6406 C78.9062 97.9375 79.0625 98.1562 79.7188 98.2656 L81.4688 98.5781 Z" style="fill:black; stroke:none;"
    /></g
    ><g style="text-rendering:optimizeSpeed; font-size:14px; font-family:'SansSerif';"
    ><path style="stroke:none;" d="M34.6094 93.1562 L36.9531 89.6562 C37.2344 89.1406 37.5156 88.6406 37.7812 88.1406 L37.8281 88.1406 C37.7969 88.6719 37.7656 89.5 37.7656 90 L37.7656 93.1562 L34.6094 93.1562 ZM37.7656 97 L38.9688 97 L38.9688 94.1719 L40.3281 94.1719 L40.3281 93.1562 L38.9688 93.1562 L38.9688 86.7188 L37.5469 86.7188 L33.2812 93.3281 L33.2812 94.1719 L37.7656 94.1719 L37.7656 97 ZM40.9731 97 L42.3168 97 L43.3481 95.2188 C43.6137 94.7656 43.8637 94.2969 44.1293 93.8594 L44.2075 93.8594 C44.4731 94.2969 44.7543 94.7656 45.0043 95.2188 L46.1293 97 L47.5356 97 L45.02 93.1562 L47.3325 89.3906 L46.0043 89.3906 L45.0668 91.0625 C44.8481 91.5 44.6137 91.9219 44.3793 92.3438 L44.3325 92.3438 C44.0668 91.9219 43.8012 91.5 43.5668 91.0625 L42.5512 89.3906 L41.1762 89.3906 L43.4887 93.0312 L40.9731 97 Z"
      /><rect x="47" y="35" width="24" style="fill:white; stroke:none;" height="10"
      /><path style="stroke:none;" d="M49.4844 42.9062 L50.625 42.9062 C50.375 40.7031 52.8906 39.875 52.8906 37.8281 C52.8906 36.2969 51.8594 35.3281 50.2812 35.3281 C49.1406 35.3281 48.25 35.875 47.6094 36.625 L48.3281 37.2969 C48.8125 36.7344 49.4375 36.3906 50.1406 36.3906 C51.125 36.3906 51.6406 37.0625 51.6406 37.9062 C51.6406 39.5781 49.1719 40.4688 49.4844 42.9062 ZM50.0938 46.1875 C50.6094 46.1875 51.0312 45.7969 51.0312 45.2188 C51.0312 44.625 50.6094 44.2188 50.0938 44.2188 C49.5938 44.2188 49.1719 44.625 49.1719 45.2188 C49.1719 45.7969 49.5938 46.1875 50.0938 46.1875 ZM55.0422 46 L56.2141 46 L56.2141 40.3125 C56.2141 39.4375 56.1203 38.1875 56.0578 37.2969 L56.1203 37.2969 L56.9328 39.625 L58.8703 44.9688 L59.7453 44.9688 L61.6828 39.625 L62.4953 37.2969 L62.5578 37.2969 C62.4797 38.1875 62.386 39.4375 62.386 40.3125 L62.386 46 L63.6047 46 L63.6047 35.7188 L62.0422 35.7188 L60.0735 41.2188 C59.8391 41.9375 59.6203 42.6562 59.3703 43.375 L59.3078 43.375 C59.0578 42.6562 58.8235 41.9375 58.5735 41.2188 L56.6047 35.7188 L55.0422 35.7188 L55.0422 46 ZM69.3633 46.1875 C70.3945 46.1875 71.207 45.8281 71.8789 45.3906 L71.4102 44.5625 C70.8633 44.9375 70.2539 45.1562 69.5195 45.1562 C68.0664 45.1562 67.082 44.125 66.9883 42.5 L72.1133 42.5 C72.1445 42.3125 72.1758 42.0469 72.1758 41.7656 C72.1758 39.6094 71.082 38.2031 69.1445 38.2031 C67.3789 38.2031 65.7227 39.7344 65.7227 42.2031 C65.7227 44.7188 67.3477 46.1875 69.3633 46.1875 ZM66.9727 41.5781 C67.1289 40.0938 68.082 39.2188 69.1602 39.2188 C70.3477 39.2188 71.0508 40.0469 71.0508 41.5781 L66.9727 41.5781 Z"
    /></g
  ></g
></svg
>
