<?xml version="1.0"?>
<!DOCTYPE svg PUBLIC '-//W3C//DTD SVG 1.0//EN'
          'http://www.w3.org/TR/2001/REC-SVG-20010904/DTD/svg10.dtd'>
<svg xmlns:xlink="http://www.w3.org/1999/xlink" style="fill-opacity:1; color-rendering:auto; color-interpolation:auto; text-rendering:auto; stroke:black; stroke-linecap:square; stroke-miterlimit:10; shape-rendering:auto; stroke-opacity:1; fill:black; stroke-dasharray:none; font-weight:normal; stroke-width:1; font-family:'Dialog'; font-style:normal; stroke-linejoin:miter; font-size:12px; stroke-dashoffset:0; image-rendering:auto;" viewBox="0 0 143 261" xmlns="http://www.w3.org/2000/svg"
><!--Generated by the Batik Graphics2D SVG Generator--><defs id="genericDefs"
  /><g
  ><defs id="defs1"
    ><clipPath clipPathUnits="userSpaceOnUse" id="clipPath1"
      ><path style="fill-rule:evenodd;" d="M69 197 L63 204 L52 204 L47 197 L52 189 L63 189 L69 197 Z"
      /></clipPath
      ><clipPath clipPathUnits="userSpaceOnUse" id="clipPath2"
      ><path d="M47 134 L69 134 L69 156 L47 156 L47 134 Z"
      /></clipPath
      ><clipPath clipPathUnits="userSpaceOnUse" id="clipPath3"
      ><path d="M69 93 C69 99.0751 64.0751 104 58 104 C51.9249 104 47 99.0751 47 93 C47 86.9249 51.9249 82 58 82 C64.0751 82 69 86.9249 69 93 Z"
      /></clipPath
      ><clipPath clipPathUnits="userSpaceOnUse" id="clipPath4"
      ><path d="M69 41 C69 47.0751 64.0751 52 58 52 C51.9249 52 47 47.0751 47 41 C47 34.9249 51.9249 30 58 30 C64.0751 30 69 34.9249 69 41 Z"
      /></clipPath
    ></defs
    ><g style="fill:white; text-rendering:optimizeSpeed; stroke:white;"
    ><rect x="0" width="143" height="261" y="0" style="stroke:none;"
      /><polygon style="clip-path:url(#clipPath1); stroke:none;" points=" 69 197 63 204 52 204 47 197 52 189 63 189 69 197"
      /><rect x="47" y="186" width="22" style="clip-path:url(#clipPath1); fill:rgb(255,212,0); stroke:none;" height="22"
      /><rect x="47" y="186" width="22" style="clip-path:url(#clipPath1); fill:none; stroke:black;" height="22"
      /><polygon style="fill:none; stroke:black;" points=" 69 197 63 204 52 204 47 197 52 189 63 189 69 197"
    /></g
    ><g style="text-rendering:optimizeSpeed; font-size:14px; font-family:'SansSerif';"
    ><path style="stroke:none;" d="M50.6094 225 L57.0625 225 L57.0625 223.8906 L54.2344 223.8906 C53.7031 223.8906 53.0781 223.9531 52.5469 223.9844 C54.9531 221.7031 56.5625 219.625 56.5625 217.5781 C56.5625 215.75 55.4219 214.5469 53.5781 214.5469 C52.2812 214.5469 51.4062 215.1406 50.5625 216.0469 L51.2969 216.7812 C51.8594 216.1094 52.5938 215.5938 53.4375 215.5938 C54.7031 215.5938 55.3125 216.4531 55.3125 217.625 C55.3125 219.3906 53.8438 221.4375 50.6094 224.25 L50.6094 225 ZM62.8168 225.1875 C64.9106 225.1875 66.5043 224.0625 66.5043 220.7656 L66.5043 214.7188 L65.2543 214.7188 L65.2543 220.7969 C65.2543 223.2812 64.1762 224.0469 62.8168 224.0469 C61.4731 224.0469 60.4262 223.2812 60.4262 220.7969 L60.4262 214.7188 L59.1293 214.7188 L59.1293 220.7656 C59.1293 224.0625 60.7231 225.1875 62.8168 225.1875 Z"
    /></g
    ><g style="fill:white; text-rendering:optimizeSpeed; font-family:'Serif'; stroke:white;"
    ><rect x="74" width="5" height="10" y="184" style="stroke:none;"
      /><path d="M75.8906 192.6875 C75.4844 192.6875 75.1562 193.0469 75.1562 193.4219 C75.1562 193.8125 75.4844 194.1562 75.8906 194.1562 C76.2969 194.1562 76.6406 193.8125 76.6406 193.4219 C76.6406 193.0469 76.2969 192.6875 75.8906 192.6875 ZM77.4688 186.5781 C77.7188 186.8906 77.875 187.2656 77.8906 187.6562 C77.8906 188.1875 77.625 188.5 77.0312 188.7656 L76.4062 189.0156 C75.6406 189.3125 75.3906 189.5469 75.3906 189.9375 C75.3906 190.1094 75.4531 190.3438 75.5781 190.8125 L75.7344 191.3438 L76.1094 191.3438 L76.0938 190.5312 C76.0938 190.0938 76.2031 189.9688 76.7812 189.7344 L77.2031 189.5625 C78.0312 189.2188 78.4531 188.6875 78.4531 187.8438 C78.4531 186.1562 76.6562 185.1875 75.5 185.0312 C75.1094 185.125 74.9062 185.2969 74.9062 185.6406 C74.9062 185.9375 75.0625 186.1562 75.7188 186.2656 L77.4688 186.5781 Z" style="fill:black; stroke:none;"
      /><rect x="74" width="5" height="10" y="200" style="stroke:none;"
      /><path d="M75.8906 208.6875 C75.4844 208.6875 75.1562 209.0469 75.1562 209.4219 C75.1562 209.8125 75.4844 210.1562 75.8906 210.1562 C76.2969 210.1562 76.6406 209.8125 76.6406 209.4219 C76.6406 209.0469 76.2969 208.6875 75.8906 208.6875 ZM77.4688 202.5781 C77.7188 202.8906 77.875 203.2656 77.8906 203.6562 C77.8906 204.1875 77.625 204.5 77.0312 204.7656 L76.4062 205.0156 C75.6406 205.3125 75.3906 205.5469 75.3906 205.9375 C75.3906 206.1094 75.4531 206.3438 75.5781 206.8125 L75.7344 207.3438 L76.1094 207.3438 L76.0938 206.5312 C76.0938 206.0938 76.2031 205.9688 76.7812 205.7344 L77.2031 205.5625 C78.0312 205.2188 78.4531 204.6875 78.4531 203.8438 C78.4531 202.1562 76.6562 201.1875 75.5 201.0312 C75.1094 201.125 74.9062 201.2969 74.9062 201.6406 C74.9062 201.9375 75.0625 202.1562 75.7188 202.2656 L77.4688 202.5781 Z" style="fill:black; stroke:none;"
    /></g
    ><g style="text-rendering:optimizeSpeed; font-size:14px; font-family:'SansSerif';"
    ><path style="stroke:none;" d="M32.7031 213.1875 C34.5156 213.1875 35.9844 212.0938 35.9844 210.25 C35.9844 208.8594 35.0156 207.9375 33.8125 207.6562 L33.8125 207.5938 C34.8906 207.1875 35.6406 206.3594 35.6406 205.125 C35.6406 203.5 34.375 202.5469 32.6562 202.5469 C31.4688 202.5469 30.5469 203.0625 29.7812 203.7812 L30.4688 204.5938 C31.0469 204 31.7656 203.5938 32.5938 203.5938 C33.6562 203.5938 34.3281 204.2344 34.3281 205.2188 C34.3281 206.3281 33.6094 207.1719 31.4844 207.1719 L31.4844 208.1562 C33.8594 208.1562 34.6875 208.9844 34.6875 210.2031 C34.6875 211.3906 33.8125 212.125 32.5938 212.125 C31.4375 212.125 30.6562 211.5781 30.0469 210.9375 L29.4062 211.7812 C30.0781 212.5156 31.0938 213.1875 32.7031 213.1875 ZM36.9731 213 L38.3168 213 L39.3481 211.2188 C39.6137 210.7656 39.8637 210.2969 40.1293 209.8594 L40.2075 209.8594 C40.4731 210.2969 40.7543 210.7656 41.0043 211.2188 L42.1293 213 L43.5356 213 L41.02 209.1562 L43.3325 205.3906 L42.0043 205.3906 L41.0668 207.0625 C40.8481 207.5 40.6137 207.9219 40.3793 208.3438 L40.3325 208.3438 C40.0668 207.9219 39.8012 207.5 39.5668 207.0625 L38.5512 205.3906 L37.1762 205.3906 L39.4887 209.0312 L36.9731 213 Z"
      /><rect x="47" y="134" width="22" style="clip-path:url(#clipPath2); fill:white; stroke:none;" height="22"
      /><polygon style="fill:rgb(0,144,188); clip-path:url(#clipPath2); stroke:none;" points=" 47 134 69 134 69 156"
      /><polygon style="fill:none; clip-path:url(#clipPath2);" points=" 47 134 69 134 69 156"
      /><rect x="47" width="22" height="22" y="134" style="fill:none;"
    /></g
    ><g style="fill:white; text-rendering:optimizeSpeed; font-family:'Serif'; stroke:white;"
    ><rect x="74" width="5" height="10" y="132" style="stroke:none;"
      /><path d="M75.8906 140.6875 C75.4844 140.6875 75.1562 141.0469 75.1562 141.4219 C75.1562 141.8125 75.4844 142.1562 75.8906 142.1562 C76.2969 142.1562 76.6406 141.8125 76.6406 141.4219 C76.6406 141.0469 76.2969 140.6875 75.8906 140.6875 ZM77.4688 134.5781 C77.7188 134.8906 77.875 135.2656 77.8906 135.6562 C77.8906 136.1875 77.625 136.5 77.0312 136.7656 L76.4062 137.0156 C75.6406 137.3125 75.3906 137.5469 75.3906 137.9375 C75.3906 138.1094 75.4531 138.3438 75.5781 138.8125 L75.7344 139.3438 L76.1094 139.3438 L76.0938 138.5312 C76.0938 138.0938 76.2031 137.9688 76.7812 137.7344 L77.2031 137.5625 C78.0312 137.2188 78.4531 136.6875 78.4531 135.8438 C78.4531 134.1562 76.6562 133.1875 75.5 133.0312 C75.1094 133.125 74.9062 133.2969 74.9062 133.6406 C74.9062 133.9375 75.0625 134.1562 75.7188 134.2656 L77.4688 134.5781 Z" style="fill:black; stroke:none;"
      /><rect x="74" width="5" height="10" y="148" style="stroke:none;"
      /><path d="M75.8906 156.6875 C75.4844 156.6875 75.1562 157.0469 75.1562 157.4219 C75.1562 157.8125 75.4844 158.1562 75.8906 158.1562 C76.2969 158.1562 76.6406 157.8125 76.6406 157.4219 C76.6406 157.0469 76.2969 156.6875 75.8906 156.6875 ZM77.4688 150.5781 C77.7188 150.8906 77.875 151.2656 77.8906 151.6562 C77.8906 152.1875 77.625 152.5 77.0312 152.7656 L76.4062 153.0156 C75.6406 153.3125 75.3906 153.5469 75.3906 153.9375 C75.3906 154.1094 75.4531 154.3438 75.5781 154.8125 L75.7344 155.3438 L76.1094 155.3438 L76.0938 154.5312 C76.0938 154.0938 76.2031 153.9688 76.7812 153.7344 L77.2031 153.5625 C78.0312 153.2188 78.4531 152.6875 78.4531 151.8438 C78.4531 150.1562 76.6562 149.1875 75.5 149.0312 C75.1094 149.125 74.9062 149.2969 74.9062 149.6406 C74.9062 149.9375 75.0625 150.1562 75.7188 150.2656 L77.4688 150.5781 Z" style="fill:black; stroke:none;"
    /></g
    ><g style="text-rendering:optimizeSpeed; font-size:14px; font-family:'SansSerif';"
    ><path style="stroke:none;" d="M32.7031 150.1875 C34.5156 150.1875 35.9844 149.0938 35.9844 147.25 C35.9844 145.8594 35.0156 144.9375 33.8125 144.6562 L33.8125 144.5938 C34.8906 144.1875 35.6406 143.3594 35.6406 142.125 C35.6406 140.5 34.375 139.5469 32.6562 139.5469 C31.4688 139.5469 30.5469 140.0625 29.7812 140.7812 L30.4688 141.5938 C31.0469 141 31.7656 140.5938 32.5938 140.5938 C33.6562 140.5938 34.3281 141.2344 34.3281 142.2188 C34.3281 143.3281 33.6094 144.1719 31.4844 144.1719 L31.4844 145.1562 C33.8594 145.1562 34.6875 145.9844 34.6875 147.2031 C34.6875 148.3906 33.8125 149.125 32.5938 149.125 C31.4375 149.125 30.6562 148.5781 30.0469 147.9375 L29.4062 148.7812 C30.0781 149.5156 31.0938 150.1875 32.7031 150.1875 ZM36.9731 150 L38.3168 150 L39.3481 148.2188 C39.6137 147.7656 39.8637 147.2969 40.1293 146.8594 L40.2075 146.8594 C40.4731 147.2969 40.7543 147.7656 41.0043 148.2188 L42.1293 150 L43.5356 150 L41.02 146.1562 L43.3325 142.3906 L42.0043 142.3906 L41.0668 144.0625 C40.8481 144.5 40.6137 144.9219 40.3793 145.3438 L40.3325 145.3438 C40.0668 144.9219 39.8012 144.5 39.5668 144.0625 L38.5512 142.3906 L37.1762 142.3906 L39.4887 146.0312 L36.9731 150 Z"
      /><circle style="fill:white; clip-path:url(#clipPath3); stroke:none;" r="11" cx="58" cy="93"
      /><rect x="47" y="82" width="22" style="clip-path:url(#clipPath3); fill:rgb(0,166,81); stroke:none;" height="22"
      /><rect x="47" y="82" width="22" style="fill:none; clip-path:url(#clipPath3);" height="22"
      /><circle r="11" style="fill:none;" cx="58" cy="93"
    /></g
    ><g style="fill:white; text-rendering:optimizeSpeed; font-family:'Serif'; stroke:white;"
    ><rect x="74" width="5" height="10" y="80" style="stroke:none;"
      /><path d="M75.8906 88.6875 C75.4844 88.6875 75.1562 89.0469 75.1562 89.4219 C75.1562 89.8125 75.4844 90.1562 75.8906 90.1562 C76.2969 90.1562 76.6406 89.8125 76.6406 89.4219 C76.6406 89.0469 76.2969 88.6875 75.8906 88.6875 ZM77.4688 82.5781 C77.7188 82.8906 77.875 83.2656 77.8906 83.6562 C77.8906 84.1875 77.625 84.5 77.0312 84.7656 L76.4062 85.0156 C75.6406 85.3125 75.3906 85.5469 75.3906 85.9375 C75.3906 86.1094 75.4531 86.3438 75.5781 86.8125 L75.7344 87.3438 L76.1094 87.3438 L76.0938 86.5312 C76.0938 86.0938 76.2031 85.9688 76.7812 85.7344 L77.2031 85.5625 C78.0312 85.2188 78.4531 84.6875 78.4531 83.8438 C78.4531 82.1562 76.6562 81.1875 75.5 81.0312 C75.1094 81.125 74.9062 81.2969 74.9062 81.6406 C74.9062 81.9375 75.0625 82.1562 75.7188 82.2656 L77.4688 82.5781 Z" style="fill:black; stroke:none;"
      /><rect x="74" width="5" height="10" y="96" style="stroke:none;"
      /><path d="M75.8906 104.6875 C75.4844 104.6875 75.1562 105.0469 75.1562 105.4219 C75.1562 105.8125 75.4844 106.1562 75.8906 106.1562 C76.2969 106.1562 76.6406 105.8125 76.6406 105.4219 C76.6406 105.0469 76.2969 104.6875 75.8906 104.6875 ZM77.4688 98.5781 C77.7188 98.8906 77.875 99.2656 77.8906 99.6562 C77.8906 100.1875 77.625 100.5 77.0312 100.7656 L76.4062 101.0156 C75.6406 101.3125 75.3906 101.5469 75.3906 101.9375 C75.3906 102.1094 75.4531 102.3438 75.5781 102.8125 L75.7344 103.3438 L76.1094 103.3438 L76.0938 102.5312 C76.0938 102.0938 76.2031 101.9688 76.7812 101.7344 L77.2031 101.5625 C78.0312 101.2188 78.4531 100.6875 78.4531 99.8438 C78.4531 98.1562 76.6562 97.1875 75.5 97.0312 C75.1094 97.125 74.9062 97.2969 74.9062 97.6406 C74.9062 97.9375 75.0625 98.1562 75.7188 98.2656 L77.4688 98.5781 Z" style="fill:black; stroke:none;"
    /></g
    ><g style="text-rendering:optimizeSpeed; font-size:14px; font-family:'SansSerif';"
    ><path style="stroke:none;" d="M32.7031 98.1875 C34.5156 98.1875 35.9844 97.0938 35.9844 95.25 C35.9844 93.8594 35.0156 92.9375 33.8125 92.6562 L33.8125 92.5938 C34.8906 92.1875 35.6406 91.3594 35.6406 90.125 C35.6406 88.5 34.375 87.5469 32.6562 87.5469 C31.4688 87.5469 30.5469 88.0625 29.7812 88.7812 L30.4688 89.5938 C31.0469 89 31.7656 88.5938 32.5938 88.5938 C33.6562 88.5938 34.3281 89.2344 34.3281 90.2188 C34.3281 91.3281 33.6094 92.1719 31.4844 92.1719 L31.4844 93.1562 C33.8594 93.1562 34.6875 93.9844 34.6875 95.2031 C34.6875 96.3906 33.8125 97.125 32.5938 97.125 C31.4375 97.125 30.6562 96.5781 30.0469 95.9375 L29.4062 96.7812 C30.0781 97.5156 31.0938 98.1875 32.7031 98.1875 ZM36.9731 98 L38.3168 98 L39.3481 96.2188 C39.6137 95.7656 39.8637 95.2969 40.1293 94.8594 L40.2075 94.8594 C40.4731 95.2969 40.7543 95.7656 41.0043 96.2188 L42.1293 98 L43.5356 98 L41.02 94.1562 L43.3325 90.3906 L42.0043 90.3906 L41.0668 92.0625 C40.8481 92.5 40.6137 92.9219 40.3793 93.3438 L40.3325 93.3438 C40.0668 92.9219 39.8012 92.5 39.5668 92.0625 L38.5512 90.3906 L37.1762 90.3906 L39.4887 94.0312 L36.9731 98 Z"
      /><circle style="fill:white; clip-path:url(#clipPath4); stroke:none;" r="11" cx="58" cy="41"
      /><rect x="47" y="30" width="22" style="clip-path:url(#clipPath4); fill:rgb(255,212,0); stroke:none;" height="22"
      /><rect x="47" y="30" width="22" style="fill:none; clip-path:url(#clipPath4);" height="22"
      /><circle r="11" style="fill:none;" cx="58" cy="41"
    /></g
    ><g style="fill:white; text-rendering:optimizeSpeed; font-family:'Serif'; stroke:white;"
    ><rect x="74" width="5" height="10" y="28" style="stroke:none;"
      /><path d="M75.8906 36.6875 C75.4844 36.6875 75.1562 37.0469 75.1562 37.4219 C75.1562 37.8125 75.4844 38.1562 75.8906 38.1562 C76.2969 38.1562 76.6406 37.8125 76.6406 37.4219 C76.6406 37.0469 76.2969 36.6875 75.8906 36.6875 ZM77.4688 30.5781 C77.7188 30.8906 77.875 31.2656 77.8906 31.6562 C77.8906 32.1875 77.625 32.5 77.0312 32.7656 L76.4062 33.0156 C75.6406 33.3125 75.3906 33.5469 75.3906 33.9375 C75.3906 34.1094 75.4531 34.3438 75.5781 34.8125 L75.7344 35.3438 L76.1094 35.3438 L76.0938 34.5312 C76.0938 34.0938 76.2031 33.9688 76.7812 33.7344 L77.2031 33.5625 C78.0312 33.2188 78.4531 32.6875 78.4531 31.8438 C78.4531 30.1562 76.6562 29.1875 75.5 29.0312 C75.1094 29.125 74.9062 29.2969 74.9062 29.6406 C74.9062 29.9375 75.0625 30.1562 75.7188 30.2656 L77.4688 30.5781 Z" style="fill:black; stroke:none;"
      /><rect x="74" width="5" height="10" y="44" style="stroke:none;"
      /><path d="M75.8906 52.6875 C75.4844 52.6875 75.1562 53.0469 75.1562 53.4219 C75.1562 53.8125 75.4844 54.1562 75.8906 54.1562 C76.2969 54.1562 76.6406 53.8125 76.6406 53.4219 C76.6406 53.0469 76.2969 52.6875 75.8906 52.6875 ZM77.4688 46.5781 C77.7188 46.8906 77.875 47.2656 77.8906 47.6562 C77.8906 48.1875 77.625 48.5 77.0312 48.7656 L76.4062 49.0156 C75.6406 49.3125 75.3906 49.5469 75.3906 49.9375 C75.3906 50.1094 75.4531 50.3438 75.5781 50.8125 L75.7344 51.3438 L76.1094 51.3438 L76.0938 50.5312 C76.0938 50.0938 76.2031 49.9688 76.7812 49.7344 L77.2031 49.5625 C78.0312 49.2188 78.4531 48.6875 78.4531 47.8438 C78.4531 46.1562 76.6562 45.1875 75.5 45.0312 C75.1094 45.125 74.9062 45.2969 74.9062 45.6406 C74.9062 45.9375 75.0625 46.1562 75.7188 46.2656 L77.4688 46.5781 Z" style="fill:black; stroke:none;"
    /></g
    ><g style="text-rendering:optimizeSpeed; font-size:14px; font-family:'SansSerif';"
    ><path style="stroke:none;" d="M29.6094 46 L36.0625 46 L36.0625 44.8906 L33.2344 44.8906 C32.7031 44.8906 32.0781 44.9531 31.5469 44.9844 C33.9531 42.7031 35.5625 40.625 35.5625 38.5781 C35.5625 36.75 34.4219 35.5469 32.5781 35.5469 C31.2812 35.5469 30.4062 36.1406 29.5625 37.0469 L30.2969 37.7812 C30.8594 37.1094 31.5938 36.5938 32.4375 36.5938 C33.7031 36.5938 34.3125 37.4531 34.3125 38.625 C34.3125 40.3906 32.8438 42.4375 29.6094 45.25 L29.6094 46 ZM36.9731 46 L38.3168 46 L39.3481 44.2188 C39.6137 43.7656 39.8637 43.2969 40.1293 42.8594 L40.2075 42.8594 C40.4731 43.2969 40.7543 43.7656 41.0043 44.2188 L42.1293 46 L43.5356 46 L41.02 42.1562 L43.3325 38.3906 L42.0043 38.3906 L41.0668 40.0625 C40.8481 40.5 40.6137 40.9219 40.3793 41.3438 L40.3325 41.3438 C40.0668 40.9219 39.8012 40.5 39.5668 40.0625 L38.5512 38.3906 L37.1762 38.3906 L39.4887 42.0312 L36.9731 46 Z"
    /></g
  ></g
></svg
>
