<?xml version="1.0"?>
<!DOCTYPE svg PUBLIC '-//W3C//DTD SVG 1.0//EN'
          'http://www.w3.org/TR/2001/REC-SVG-20010904/DTD/svg10.dtd'>
<svg xmlns:xlink="http://www.w3.org/1999/xlink" style="fill-opacity:1; color-rendering:auto; color-interpolation:auto; text-rendering:auto; stroke:black; stroke-linecap:square; stroke-miterlimit:10; shape-rendering:auto; stroke-opacity:1; fill:black; stroke-dasharray:none; font-weight:normal; stroke-width:1; font-family:'Dialog'; font-style:normal; stroke-linejoin:miter; font-size:12px; stroke-dashoffset:0; image-rendering:auto;" viewBox="0 0 134 128" xmlns="http://www.w3.org/2000/svg"
><!--Generated by the Batik Graphics2D SVG Generator--><defs id="genericDefs"
  /><g
  ><defs id="defs1"
    ><clipPath clipPathUnits="userSpaceOnUse" id="clipPath1"
      ><path style="fill-rule:evenodd;" d="M41 53 L43 60 L51 60 L44 65 L47 72 L41 68 L34 72 L37 65 L30 60 L38 60 L41 53 Z"
      /></clipPath
    ></defs
    ><g style="fill:white; text-rendering:optimizeSpeed; stroke:white;"
    ><rect x="0" width="134" height="128" y="0" style="stroke:none;"
      /><polygon style="fill:none; stroke:black;" points=" 93 64 41 64"
      /><path d="M93 53 C87.5 58.5 98.5 69.5 93 75" style="fill:none; stroke:black;"
      /><polygon style="clip-path:url(#clipPath1); stroke:none;" points=" 41 53 43 60 51 60 44 65 47 72 41 68 34 72 37 65 30 60 38 60 41 53"
      /><rect x="30" y="53" width="22" style="clip-path:url(#clipPath1); stroke:none;" height="22"
      /><rect x="30" y="53" width="22" style="clip-path:url(#clipPath1); fill:none; stroke:black;" height="22"
      /><polygon style="fill:none; stroke:black;" points=" 41 53 43 60 51 60 44 65 47 72 41 68 34 72 37 65 30 60 38 60 41 53"
    /></g
    ><g style="text-rendering:optimizeSpeed; font-size:10px; font-family:'SansSerif';"
    ><path style="stroke:none;" d="M40.0625 68 L40.9844 68 L40.9844 63.3125 L42.125 63.3125 L42.125 62.5625 L40.9844 62.5625 L40.9844 61.7031 C40.9844 61.0156 41.2344 60.6406 41.75 60.6406 C41.9375 60.6406 42.1562 60.6875 42.3594 60.7812 L42.5625 60.0938 C42.3125 59.9844 41.9844 59.9062 41.6562 59.9062 C40.5625 59.9062 40.0625 60.5938 40.0625 61.7031 L40.0625 62.5625 L39.3281 62.625 L39.3281 63.3125 L40.0625 63.3125 L40.0625 68 Z"
      /><rect x="32" y="81" width="16" style="fill:white; stroke:none;" height="10"
      /><path style="stroke:none;" d="M35.7031 92.1875 C37.5156 92.1875 38.9844 91.0938 38.9844 89.25 C38.9844 87.8594 38.0156 86.9375 36.8125 86.6562 L36.8125 86.5938 C37.8906 86.1875 38.6406 85.3594 38.6406 84.125 C38.6406 82.5 37.375 81.5469 35.6562 81.5469 C34.4688 81.5469 33.5469 82.0625 32.7812 82.7812 L33.4688 83.5938 C34.0469 83 34.7656 82.5938 35.5938 82.5938 C36.6562 82.5938 37.3281 83.2344 37.3281 84.2188 C37.3281 85.3281 36.6094 86.1719 34.4844 86.1719 L34.4844 87.1562 C36.8594 87.1562 37.6875 87.9844 37.6875 89.2031 C37.6875 90.3906 36.8125 91.125 35.5938 91.125 C34.4375 91.125 33.6562 90.5781 33.0469 89.9375 L32.4062 90.7812 C33.0781 91.5156 34.0938 92.1875 35.7031 92.1875 ZM41.1762 92 L42.395 92 L42.395 86.6094 C42.395 85.5312 42.3012 84.4375 42.2543 83.4062 L42.3012 83.4062 L43.4106 85.5156 L47.145 92 L48.4731 92 L48.4731 81.7188 L47.2387 81.7188 L47.2387 87.0781 C47.2387 88.1406 47.3481 89.2812 47.4106 90.3125 L47.3481 90.3125 L46.2543 88.2031 L42.52 81.7188 L41.1762 81.7188 L41.1762 92 Z"
      /><path style="stroke:none;" d="M35.125 45.1562 C36.625 45.1562 38.0156 44.0625 38.0156 42.125 C38.0156 40.2031 36.8281 39.3438 35.3594 39.3438 C34.8281 39.3438 34.4531 39.4688 34.0469 39.6875 L34.2656 37.1406 L37.5938 37.1406 L37.5938 36.1875 L33.3125 36.1875 L33.0312 40.3125 L33.625 40.6875 C34.125 40.3438 34.5 40.1562 35.0781 40.1562 C36.1875 40.1562 36.9062 40.9062 36.9062 42.1719 C36.9062 43.4531 36.0625 44.25 35.0312 44.25 C34.0156 44.25 33.375 43.7812 32.875 43.2656 L32.3438 43.9844 C32.9219 44.5781 33.7656 45.1562 35.125 45.1562 ZM39.7694 45 L40.8632 45 L40.8632 40.2656 C41.4569 39.5938 42.0038 39.2812 42.5038 39.2812 C43.3319 39.2812 43.7069 39.7969 43.7069 41.0156 L43.7069 45 L44.8007 45 L44.8007 40.2656 C45.41 39.5938 45.9413 39.2812 46.4413 39.2812 C47.2694 39.2812 47.66 39.7969 47.66 41.0156 L47.66 45 L48.7538 45 L48.7538 40.875 C48.7538 39.2031 48.1132 38.3125 46.7694 38.3125 C45.9725 38.3125 45.3007 38.8281 44.6288 39.5625 C44.3632 38.7969 43.8163 38.3125 42.8163 38.3125 C42.0507 38.3125 41.3632 38.8125 40.8007 39.4375 L40.7538 39.4375 L40.66 38.4844 L39.7694 38.4844 L39.7694 45 Z"
    /></g
    ><g style="fill:white; text-rendering:optimizeSpeed; font-family:'Serif'; stroke:white;"
    ><rect x="57" width="5" height="10" y="67" style="stroke:none;"
      /><path d="M58.8906 75.6875 C58.4844 75.6875 58.1562 76.0469 58.1562 76.4219 C58.1562 76.8125 58.4844 77.1562 58.8906 77.1562 C59.2969 77.1562 59.6406 76.8125 59.6406 76.4219 C59.6406 76.0469 59.2969 75.6875 58.8906 75.6875 ZM60.4688 69.5781 C60.7188 69.8906 60.875 70.2656 60.8906 70.6562 C60.8906 71.1875 60.625 71.5 60.0312 71.7656 L59.4062 72.0156 C58.6406 72.3125 58.3906 72.5469 58.3906 72.9375 C58.3906 73.1094 58.4531 73.3438 58.5781 73.8125 L58.7344 74.3438 L59.1094 74.3438 L59.0938 73.5312 C59.0938 73.0938 59.2031 72.9688 59.7812 72.7344 L60.2031 72.5625 C61.0312 72.2188 61.4531 71.6875 61.4531 70.8438 C61.4531 69.1562 59.6562 68.1875 58.5 68.0312 C58.1094 68.125 57.9062 68.2969 57.9062 68.6406 C57.9062 68.9375 58.0625 69.1562 58.7188 69.2656 L60.4688 69.5781 Z" style="fill:black; stroke:none;"
    /></g
  ></g
></svg
>
