<?xml version="1.0"?>
<!DOCTYPE svg PUBLIC '-//W3C//DTD SVG 1.0//EN'
          'http://www.w3.org/TR/2001/REC-SVG-20010904/DTD/svg10.dtd'>
<svg xmlns:xlink="http://www.w3.org/1999/xlink" style="fill-opacity:1; color-rendering:auto; color-interpolation:auto; text-rendering:auto; stroke:black; stroke-linecap:square; stroke-miterlimit:10; shape-rendering:auto; stroke-opacity:1; fill:black; stroke-dasharray:none; font-weight:normal; stroke-width:1; font-family:'Dialog'; font-style:normal; stroke-linejoin:miter; font-size:12px; stroke-dashoffset:0; image-rendering:auto;" viewBox="0 0 161 128" xmlns="http://www.w3.org/2000/svg"
><!--Generated by the Batik Graphics2D SVG Generator--><defs id="genericDefs"
  /><g
  ><defs id="defs1"
    ><clipPath clipPathUnits="userSpaceOnUse" id="clipPath1"
      ><path d="M65 64 C65 70.0751 60.0751 75 54 75 C47.9249 75 43 70.0751 43 64 C43 57.9249 47.9249 53 54 53 C60.0751 53 65 57.9249 65 64 Z"
      /></clipPath
    ></defs
    ><g style="fill:white; text-rendering:optimizeSpeed; stroke:white;"
    ><rect x="0" width="161" height="128" y="0" style="stroke:none;"
      /><polygon style="fill:none; stroke:black;" points=" 120 64 54 64"
      /><path d="M120 53 C114.5 58.5 125.5 69.5 120 75" style="fill:none; stroke:black;"
      /><circle style="clip-path:url(#clipPath1); stroke:none;" r="11" cx="54" cy="64"
      /><rect x="43" y="53" width="22" style="clip-path:url(#clipPath1); fill:rgb(143,204,233); stroke:none;" height="22"
      /><rect x="43" y="53" width="22" style="clip-path:url(#clipPath1); fill:none; stroke:black;" height="22"
      /><circle style="fill:none; stroke:black;" r="11" cx="54" cy="64"
    /></g
    ><g style="text-rendering:optimizeSpeed; font-size:10px; font-family:'SansSerif';"
    ><path style="stroke:none;" d="M52 67 L56.125 67 L56.125 66.2031 L52.9375 66.2031 L52.9375 59.6562 L52 59.6562 L52 67 Z"
      /><rect x="55" y="81" width="22" style="fill:white; stroke:none;" height="10"
      /><path style="stroke:none;" d="M55.6094 92 L62.0625 92 L62.0625 90.8906 L59.2344 90.8906 C58.7031 90.8906 58.0781 90.9531 57.5469 90.9844 C59.9531 88.7031 61.5625 86.625 61.5625 84.5781 C61.5625 82.75 60.4219 81.5469 58.5781 81.5469 C57.2812 81.5469 56.4062 82.1406 55.5625 83.0469 L56.2969 83.7812 C56.8594 83.1094 57.5938 82.5938 58.4375 82.5938 C59.7031 82.5938 60.3125 83.4531 60.3125 84.625 C60.3125 86.3906 58.8438 88.4375 55.6094 91.25 L55.6094 92 ZM65.9418 86.2656 C66.3168 85.0938 66.645 83.9844 66.9731 82.7812 L67.02 82.7812 C67.3637 83.9844 67.6762 85.0938 68.0668 86.2656 L68.5512 87.8281 L65.4418 87.8281 L65.9418 86.2656 ZM62.8168 92 L64.1293 92 L65.1293 88.8594 L68.8793 88.8594 L69.8481 92 L71.2231 92 L67.7387 81.7188 L66.3012 81.7188 L62.8168 92 ZM75.5492 92.1875 C76.4554 92.1875 77.3304 91.8281 78.0179 91.2188 L77.4554 90.3594 C76.9867 90.7969 76.3617 91.125 75.6586 91.125 C74.2679 91.125 73.3148 89.9531 73.3148 88.2031 C73.3148 86.4531 74.3148 85.2656 75.7054 85.2656 C76.3148 85.2656 76.7679 85.5469 77.2211 85.9375 L77.8773 85.0938 C77.3304 84.625 76.6429 84.2031 75.6429 84.2031 C73.7054 84.2031 71.9867 85.6719 71.9867 88.2031 C71.9867 90.7188 73.5336 92.1875 75.5492 92.1875 Z"
      /><rect x="30" y="81" width="22" style="fill:white; stroke:none;" height="10"
      /><path style="stroke:none;" d="M33.7031 92.1875 C35.5156 92.1875 36.9844 91.0938 36.9844 89.25 C36.9844 87.8594 36.0156 86.9375 34.8125 86.6562 L34.8125 86.5938 C35.8906 86.1875 36.6406 85.3594 36.6406 84.125 C36.6406 82.5 35.375 81.5469 33.6562 81.5469 C32.4688 81.5469 31.5469 82.0625 30.7812 82.7812 L31.4688 83.5938 C32.0469 83 32.7656 82.5938 33.5938 82.5938 C34.6562 82.5938 35.3281 83.2344 35.3281 84.2188 C35.3281 85.3281 34.6094 86.1719 32.4844 86.1719 L32.4844 87.1562 C34.8594 87.1562 35.6875 87.9844 35.6875 89.2031 C35.6875 90.3906 34.8125 91.125 33.5938 91.125 C32.4375 91.125 31.6562 90.5781 31.0469 89.9375 L30.4062 90.7812 C31.0781 91.5156 32.0938 92.1875 33.7031 92.1875 ZM40.9418 86.2656 C41.3168 85.0938 41.645 83.9844 41.9731 82.7812 L42.02 82.7812 C42.3637 83.9844 42.6762 85.0938 43.0668 86.2656 L43.5512 87.8281 L40.4418 87.8281 L40.9418 86.2656 ZM37.8168 92 L39.1293 92 L40.1293 88.8594 L43.8793 88.8594 L44.8481 92 L46.2231 92 L42.7387 81.7188 L41.3012 81.7188 L37.8168 92 ZM50.5492 92.1875 C51.4554 92.1875 52.3304 91.8281 53.0179 91.2188 L52.4554 90.3594 C51.9867 90.7969 51.3617 91.125 50.6586 91.125 C49.2679 91.125 48.3148 89.9531 48.3148 88.2031 C48.3148 86.4531 49.3148 85.2656 50.7054 85.2656 C51.3148 85.2656 51.7679 85.5469 52.2211 85.9375 L52.8773 85.0938 C52.3304 84.625 51.6429 84.2031 50.6429 84.2031 C48.7054 84.2031 46.9867 85.6719 46.9867 88.2031 C46.9867 90.7188 48.5336 92.1875 50.5492 92.1875 Z"
      /><rect x="42" y="35" width="22" style="fill:white; stroke:none;" height="10"
      /><path style="stroke:none;" d="M43.6094 42.1562 L45.9531 38.6562 C46.2344 38.1406 46.5156 37.6406 46.7812 37.1406 L46.8281 37.1406 C46.7969 37.6719 46.7656 38.5 46.7656 39 L46.7656 42.1562 L43.6094 42.1562 ZM46.7656 46 L47.9688 46 L47.9688 43.1719 L49.3281 43.1719 L49.3281 42.1562 L47.9688 42.1562 L47.9688 35.7188 L46.5469 35.7188 L42.2812 42.3281 L42.2812 43.1719 L46.7656 43.1719 L46.7656 46 ZM52.9418 40.2656 C53.3168 39.0938 53.645 37.9844 53.9731 36.7812 L54.02 36.7812 C54.3637 37.9844 54.6762 39.0938 55.0668 40.2656 L55.5512 41.8281 L52.4418 41.8281 L52.9418 40.2656 ZM49.8168 46 L51.1293 46 L52.1293 42.8594 L55.8793 42.8594 L56.8481 46 L58.2231 46 L54.7387 35.7188 L53.3012 35.7188 L49.8168 46 ZM62.5492 46.1875 C63.4554 46.1875 64.3304 45.8281 65.0179 45.2188 L64.4554 44.3594 C63.9867 44.7969 63.3617 45.125 62.6586 45.125 C61.2679 45.125 60.3148 43.9531 60.3148 42.2031 C60.3148 40.4531 61.3148 39.2656 62.7054 39.2656 C63.3148 39.2656 63.7679 39.5469 64.2211 39.9375 L64.8773 39.0938 C64.3304 38.625 63.6429 38.2031 62.6429 38.2031 C60.7054 38.2031 58.9867 39.6719 58.9867 42.2031 C58.9867 44.7188 60.5336 46.1875 62.5492 46.1875 Z"
    /></g
    ><g style="fill:white; text-rendering:optimizeSpeed; font-family:'Serif'; stroke:white;"
    ><rect x="83" width="8" height="8" y="68" style="stroke:none;"
      /><path d="M87.9844 73.7031 C87.9375 74.8906 87.1562 75.6562 86.3125 75.6562 C85.2656 75.6562 84.5 74.6875 84.5 72.7188 C84.5 71.2812 85.1562 70.1562 86.3438 70.1562 C87.1406 70.1562 87.7812 70.6875 88.0938 71.6406 L87.9844 73.7031 ZM89.9062 75.2812 C89.7344 75.375 89.5469 75.4219 89.3438 75.4219 C88.9531 75.4219 88.75 75.2188 88.75 74.4219 C88.75 73.4844 88.9688 71.5312 89.1875 69.8281 L89.0312 69.7188 L88.2344 69.9219 L88.1406 70.7969 C87.7812 70.0312 87.1562 69.6562 86.3906 69.6562 C85.0469 69.6562 83.5625 70.8438 83.5625 72.9531 C83.5625 75.0938 84.7188 76.1719 86.1406 76.1719 C87.0156 76.1719 87.6875 75.8125 88.0938 74.9844 C88.2031 75.8594 88.5156 76.1719 89.0156 76.1719 C89.4688 76.1719 89.7969 75.9062 90.0156 75.5625 L89.9062 75.2812 Z" style="fill:black; stroke:none;"
    /></g
  ></g
></svg
>
