<?xml version="1.0"?>
<!DOCTYPE svg PUBLIC '-//W3C//DTD SVG 1.0//EN'
          'http://www.w3.org/TR/2001/REC-SVG-20010904/DTD/svg10.dtd'>
<svg xmlns:xlink="http://www.w3.org/1999/xlink" style="fill-opacity:1; color-rendering:auto; color-interpolation:auto; text-rendering:auto; stroke:black; stroke-linecap:square; stroke-miterlimit:10; shape-rendering:auto; stroke-opacity:1; fill:black; stroke-dasharray:none; font-weight:normal; stroke-width:1; font-family:'Dialog'; font-style:normal; stroke-linejoin:miter; font-size:12px; stroke-dashoffset:0; image-rendering:auto;" viewBox="0 0 446 238" xmlns="http://www.w3.org/2000/svg"
><!--Generated by the Batik Graphics2D SVG Generator--><defs id="genericDefs"
  /><g
  ><defs id="defs1"
    ><clipPath clipPathUnits="userSpaceOnUse" id="clipPath1"
      ><path d="M342 108 L364 108 L364 130 L342 130 L342 108 Z"
      /></clipPath
      ><clipPath clipPathUnits="userSpaceOnUse" id="clipPath2"
      ><path d="M290 108 L312 108 L312 130 L290 130 L290 108 Z"
      /></clipPath
      ><clipPath clipPathUnits="userSpaceOnUse" id="clipPath3"
      ><path d="M260 119 C260 125.0751 255.0751 130 249 130 C242.9249 130 238 125.0751 238 119 C238 112.9249 242.9249 108 249 108 C255.0751 108 260 112.9249 260 119 Z"
      /></clipPath
      ><clipPath clipPathUnits="userSpaceOnUse" id="clipPath4"
      ><path d="M208 171 C208 177.0751 203.0751 182 197 182 C190.9249 182 186 177.0751 186 171 C186 164.9249 190.9249 160 197 160 C203.0751 160 208 164.9249 208 171 Z"
      /></clipPath
      ><clipPath clipPathUnits="userSpaceOnUse" id="clipPath5"
      ><path d="M134 186 L156 186 L156 208 L134 208 L134 186 Z"
      /></clipPath
      ><clipPath clipPathUnits="userSpaceOnUse" id="clipPath6"
      ><path d="M104 197 C104 203.0751 99.0751 208 93 208 C86.9249 208 82 203.0751 82 197 C82 190.9249 86.9249 186 93 186 C99.0751 186 104 190.9249 104 197 Z"
      /></clipPath
      ><clipPath clipPathUnits="userSpaceOnUse" id="clipPath7"
      ><path style="fill-rule:evenodd;" d="M41 186 L52 197 L41 208 L30 197 Z"
      /></clipPath
      ><clipPath clipPathUnits="userSpaceOnUse" id="clipPath8"
      ><path d="M134 134 L156 134 L156 156 L134 156 L134 134 Z"
      /></clipPath
      ><clipPath clipPathUnits="userSpaceOnUse" id="clipPath9"
      ><path d="M104 145 C104 151.0751 99.0751 156 93 156 C86.9249 156 82 151.0751 82 145 C82 138.9249 86.9249 134 93 134 C99.0751 134 104 138.9249 104 145 Z"
      /></clipPath
      ><clipPath clipPathUnits="userSpaceOnUse" id="clipPath10"
      ><path d="M208 67 C208 73.0751 203.0751 78 197 78 C190.9249 78 186 73.0751 186 67 C186 60.9249 190.9249 56 197 56 C203.0751 56 208 60.9249 208 67 Z"
      /></clipPath
      ><clipPath clipPathUnits="userSpaceOnUse" id="clipPath11"
      ><path d="M134 82 L156 82 L156 104 L134 104 L134 82 Z"
      /></clipPath
      ><clipPath clipPathUnits="userSpaceOnUse" id="clipPath12"
      ><path d="M134 30 L156 30 L156 52 L134 52 L134 30 Z"
      /></clipPath
    ></defs
    ><g style="fill:white; text-rendering:optimizeSpeed; stroke:white;"
    ><rect x="0" width="446" height="238" y="0" style="stroke:none;"
      /><polygon style="fill:none; stroke:black;" points=" 405 119 353 119"
      /><path d="M405 108 C399.5 113.5 410.5 124.5 405 130" style="fill:none; stroke:black;"
      /><polygon style="fill:none; stroke:black;" points=" 353 119 301 119"
      /><rect x="342" y="108" width="22" style="clip-path:url(#clipPath1); stroke:none;" height="22"
      /><rect x="342" y="108" width="22" style="clip-path:url(#clipPath1); fill:rgb(0,144,188); stroke:none;" height="22"
      /><rect x="342" y="108" width="22" style="clip-path:url(#clipPath1); fill:none; stroke:black;" height="22"
      /><rect x="342" y="108" width="22" style="fill:none; stroke:black;" height="22"
      /><polygon style="fill:none; stroke:black;" points=" 301 119 249 119"
      /><rect x="290" y="108" width="22" style="clip-path:url(#clipPath2); stroke:none;" height="22"
      /><rect x="290" y="108" width="22" style="clip-path:url(#clipPath2); fill:rgb(0,144,188); stroke:none;" height="22"
      /><rect x="290" y="108" width="22" style="clip-path:url(#clipPath2); fill:none; stroke:black;" height="22"
      /><rect x="290" y="108" width="22" style="fill:none; stroke:black;" height="22"
      /><polygon style="fill:none; stroke:black;" points=" 249 119 197 171"
      /><polygon style="fill:none; stroke:black;" points=" 249 119 197 67"
      /><circle style="clip-path:url(#clipPath3); stroke:none;" r="11" cx="249" cy="119"
      /><rect x="238" y="108" width="22" style="clip-path:url(#clipPath3); fill:rgb(0,166,81); stroke:none;" height="22"
      /><rect x="238" y="108" width="22" style="clip-path:url(#clipPath3); fill:none; stroke:black;" height="22"
      /><circle style="fill:none; stroke:black;" r="11" cx="249" cy="119"
      /><polygon style="fill:none; stroke:black;" points=" 197 171 145 197"
      /><polygon style="fill:none; stroke:black;" points=" 197 171 145 145"
      /><circle style="clip-path:url(#clipPath4); stroke:none;" r="11" cx="197" cy="171"
      /><rect x="186" y="160" width="22" style="clip-path:url(#clipPath4); fill:rgb(0,166,81); stroke:none;" height="22"
      /><rect x="186" y="160" width="22" style="clip-path:url(#clipPath4); fill:none; stroke:black;" height="22"
      /><circle style="fill:none; stroke:black;" r="11" cx="197" cy="171"
      /><polygon style="fill:none; stroke:black;" points=" 145 197 93 197"
      /><rect x="134" y="186" width="22" style="clip-path:url(#clipPath5); stroke:none;" height="22"
      /><rect x="134" y="186" width="22" style="clip-path:url(#clipPath5); fill:rgb(0,144,188); stroke:none;" height="22"
      /><rect x="134" y="186" width="22" style="clip-path:url(#clipPath5); fill:none; stroke:black;" height="22"
      /><rect x="134" y="186" width="22" style="fill:none; stroke:black;" height="22"
      /><polygon style="fill:none; stroke:black;" points=" 93 197 41 197"
      /><circle style="clip-path:url(#clipPath6); stroke:none;" r="11" cx="93" cy="197"
      /><rect x="82" y="186" width="22" style="clip-path:url(#clipPath6); fill:rgb(255,212,0); stroke:none;" height="22"
      /><rect x="82" y="186" width="22" style="clip-path:url(#clipPath6); fill:none; stroke:black;" height="22"
      /><circle style="fill:none; stroke:black;" r="11" cx="93" cy="197"
      /><polygon style="clip-path:url(#clipPath7); stroke:none;" points=" 41 186 52 197 41 208 30 197"
      /><rect x="30" y="186" width="22" style="clip-path:url(#clipPath7); fill:rgb(165,67,153); stroke:none;" height="22"
      /><rect x="30" y="186" width="22" style="clip-path:url(#clipPath7); fill:none; stroke:black;" height="22"
      /><polygon style="fill:none; stroke:black;" points=" 41 186 52 197 41 208 30 197"
      /><rect x="71" y="200" width="5" style="stroke:none;" height="10"
    /></g
    ><g style="font-family:'Serif'; text-rendering:optimizeSpeed; "
    ><path style="stroke:none;" d="M72.8906 208.6875 C72.4844 208.6875 72.1562 209.0469 72.1562 209.4219 C72.1562 209.8125 72.4844 210.1562 72.8906 210.1562 C73.2969 210.1562 73.6406 209.8125 73.6406 209.4219 C73.6406 209.0469 73.2969 208.6875 72.8906 208.6875 ZM74.4688 202.5781 C74.7188 202.8906 74.875 203.2656 74.8906 203.6562 C74.8906 204.1875 74.625 204.5 74.0312 204.7656 L73.4062 205.0156 C72.6406 205.3125 72.3906 205.5469 72.3906 205.9375 C72.3906 206.1094 72.4531 206.3438 72.5781 206.8125 L72.7344 207.3438 L73.1094 207.3438 L73.0938 206.5312 C73.0938 206.0938 73.2031 205.9688 73.7812 205.7344 L74.2031 205.5625 C75.0312 205.2188 75.4531 204.6875 75.4531 203.8438 C75.4531 202.1562 73.6562 201.1875 72.5 201.0312 C72.1094 201.125 71.9062 201.2969 71.9062 201.6406 C71.9062 201.9375 72.0625 202.1562 72.7188 202.2656 L74.4688 202.5781 Z"
      /><rect x="57" y="200" width="5" style="fill:white; stroke:none;" height="10"
      /><path style="stroke:none;" d="M58.8906 208.6875 C58.4844 208.6875 58.1562 209.0469 58.1562 209.4219 C58.1562 209.8125 58.4844 210.1562 58.8906 210.1562 C59.2969 210.1562 59.6406 209.8125 59.6406 209.4219 C59.6406 209.0469 59.2969 208.6875 58.8906 208.6875 ZM60.4688 202.5781 C60.7188 202.8906 60.875 203.2656 60.8906 203.6562 C60.8906 204.1875 60.625 204.5 60.0312 204.7656 L59.4062 205.0156 C58.6406 205.3125 58.3906 205.5469 58.3906 205.9375 C58.3906 206.1094 58.4531 206.3438 58.5781 206.8125 L58.7344 207.3438 L59.1094 207.3438 L59.0938 206.5312 C59.0938 206.0938 59.2031 205.9688 59.7812 205.7344 L60.2031 205.5625 C61.0312 205.2188 61.4531 204.6875 61.4531 203.8438 C61.4531 202.1562 59.6562 201.1875 58.5 201.0312 C58.1094 201.125 57.9062 201.2969 57.9062 201.6406 C57.9062 201.9375 58.0625 202.1562 58.7188 202.2656 L60.4688 202.5781 Z"
      /><rect x="123" y="200" width="5" style="fill:white; stroke:none;" height="10"
      /><path style="stroke:none;" d="M124.8906 208.6875 C124.4844 208.6875 124.1562 209.0469 124.1562 209.4219 C124.1562 209.8125 124.4844 210.1562 124.8906 210.1562 C125.2969 210.1562 125.6406 209.8125 125.6406 209.4219 C125.6406 209.0469 125.2969 208.6875 124.8906 208.6875 ZM126.4688 202.5781 C126.7188 202.8906 126.875 203.2656 126.8906 203.6562 C126.8906 204.1875 126.625 204.5 126.0312 204.7656 L125.4062 205.0156 C124.6406 205.3125 124.3906 205.5469 124.3906 205.9375 C124.3906 206.1094 124.4531 206.3438 124.5781 206.8125 L124.7344 207.3438 L125.1094 207.3438 L125.0938 206.5312 C125.0938 206.0938 125.2031 205.9688 125.7812 205.7344 L126.2031 205.5625 C127.0312 205.2188 127.4531 204.6875 127.4531 203.8438 C127.4531 202.1562 125.6562 201.1875 124.5 201.0312 C124.1094 201.125 123.9062 201.2969 123.9062 201.6406 C123.9062 201.9375 124.0625 202.1562 124.7188 202.2656 L126.4688 202.5781 Z"
      /><rect x="109" y="200" width="5" style="fill:white; stroke:none;" height="10"
      /><path style="stroke:none;" d="M110.8906 208.6875 C110.4844 208.6875 110.1562 209.0469 110.1562 209.4219 C110.1562 209.8125 110.4844 210.1562 110.8906 210.1562 C111.2969 210.1562 111.6406 209.8125 111.6406 209.4219 C111.6406 209.0469 111.2969 208.6875 110.8906 208.6875 ZM112.4688 202.5781 C112.7188 202.8906 112.875 203.2656 112.8906 203.6562 C112.8906 204.1875 112.625 204.5 112.0312 204.7656 L111.4062 205.0156 C110.6406 205.3125 110.3906 205.5469 110.3906 205.9375 C110.3906 206.1094 110.4531 206.3438 110.5781 206.8125 L110.7344 207.3438 L111.1094 207.3438 L111.0938 206.5312 C111.0938 206.0938 111.2031 205.9688 111.7812 205.7344 L112.2031 205.5625 C113.0312 205.2188 113.4531 204.6875 113.4531 203.8438 C113.4531 202.1562 111.6562 201.1875 110.5 201.0312 C110.1094 201.125 109.9062 201.2969 109.9062 201.6406 C109.9062 201.9375 110.0625 202.1562 110.7188 202.2656 L112.4688 202.5781 Z"
      /><polygon style="fill:none;" points=" 145 145 93 145"
      /><rect x="134" y="134" width="22" style="clip-path:url(#clipPath8); fill:white; stroke:none;" height="22"
      /><rect x="134" y="134" width="22" style="clip-path:url(#clipPath8); fill:rgb(0,144,188); stroke:none;" height="22"
      /><rect x="134" y="134" width="22" style="fill:none; clip-path:url(#clipPath8);" height="22"
      /><rect x="134" width="22" height="22" y="134" style="fill:none;"
      /><circle style="fill:white; clip-path:url(#clipPath9); stroke:none;" r="11" cx="93" cy="145"
      /><rect x="82" y="134" width="22" style="clip-path:url(#clipPath9); fill:rgb(255,212,0); stroke:none;" height="22"
      /><rect x="82" y="134" width="22" style="fill:none; clip-path:url(#clipPath9);" height="22"
      /><circle r="11" style="fill:none;" cx="93" cy="145"
      /><rect x="123" y="148" width="5" style="fill:white; stroke:none;" height="10"
      /><path style="stroke:none;" d="M124.8906 156.6875 C124.4844 156.6875 124.1562 157.0469 124.1562 157.4219 C124.1562 157.8125 124.4844 158.1562 124.8906 158.1562 C125.2969 158.1562 125.6406 157.8125 125.6406 157.4219 C125.6406 157.0469 125.2969 156.6875 124.8906 156.6875 ZM126.4688 150.5781 C126.7188 150.8906 126.875 151.2656 126.8906 151.6562 C126.8906 152.1875 126.625 152.5 126.0312 152.7656 L125.4062 153.0156 C124.6406 153.3125 124.3906 153.5469 124.3906 153.9375 C124.3906 154.1094 124.4531 154.3438 124.5781 154.8125 L124.7344 155.3438 L125.1094 155.3438 L125.0938 154.5312 C125.0938 154.0938 125.2031 153.9688 125.7812 153.7344 L126.2031 153.5625 C127.0312 153.2188 127.4531 152.6875 127.4531 151.8438 C127.4531 150.1562 125.6562 149.1875 124.5 149.0312 C124.1094 149.125 123.9062 149.2969 123.9062 149.6406 C123.9062 149.9375 124.0625 150.1562 124.7188 150.2656 L126.4688 150.5781 Z"
      /><rect x="109" y="148" width="5" style="fill:white; stroke:none;" height="10"
      /><path style="stroke:none;" d="M110.8906 156.6875 C110.4844 156.6875 110.1562 157.0469 110.1562 157.4219 C110.1562 157.8125 110.4844 158.1562 110.8906 158.1562 C111.2969 158.1562 111.6406 157.8125 111.6406 157.4219 C111.6406 157.0469 111.2969 156.6875 110.8906 156.6875 ZM112.4688 150.5781 C112.7188 150.8906 112.875 151.2656 112.8906 151.6562 C112.8906 152.1875 112.625 152.5 112.0312 152.7656 L111.4062 153.0156 C110.6406 153.3125 110.3906 153.5469 110.3906 153.9375 C110.3906 154.1094 110.4531 154.3438 110.5781 154.8125 L110.7344 155.3438 L111.1094 155.3438 L111.0938 154.5312 C111.0938 154.0938 111.2031 153.9688 111.7812 153.7344 L112.2031 153.5625 C113.0312 153.2188 113.4531 152.6875 113.4531 151.8438 C113.4531 150.1562 111.6562 149.1875 110.5 149.0312 C110.1094 149.125 109.9062 149.2969 109.9062 149.6406 C109.9062 149.9375 110.0625 150.1562 110.7188 150.2656 L112.4688 150.5781 Z"
      /><rect x="179" y="182" width="5" style="fill:white; stroke:none;" height="10"
      /><path style="stroke:none;" d="M180.8906 190.6875 C180.4844 190.6875 180.1562 191.0469 180.1562 191.4219 C180.1562 191.8125 180.4844 192.1562 180.8906 192.1562 C181.2969 192.1562 181.6406 191.8125 181.6406 191.4219 C181.6406 191.0469 181.2969 190.6875 180.8906 190.6875 ZM182.4688 184.5781 C182.7188 184.8906 182.875 185.2656 182.8906 185.6562 C182.8906 186.1875 182.625 186.5 182.0312 186.7656 L181.4062 187.0156 C180.6406 187.3125 180.3906 187.5469 180.3906 187.9375 C180.3906 188.1094 180.4531 188.3438 180.5781 188.8125 L180.7344 189.3438 L181.1094 189.3438 L181.0938 188.5312 C181.0938 188.0938 181.2031 187.9688 181.7812 187.7344 L182.2031 187.5625 C183.0312 187.2188 183.4531 186.6875 183.4531 185.8438 C183.4531 184.1562 181.6562 183.1875 180.5 183.0312 C180.1094 183.125 179.9062 183.2969 179.9062 183.6406 C179.9062 183.9375 180.0625 184.1562 180.7188 184.2656 L182.4688 184.5781 Z"
      /><rect x="164" y="190" width="5" style="fill:white; stroke:none;" height="10"
      /><path style="stroke:none;" d="M165.8906 198.6875 C165.4844 198.6875 165.1562 199.0469 165.1562 199.4219 C165.1562 199.8125 165.4844 200.1562 165.8906 200.1562 C166.2969 200.1562 166.6406 199.8125 166.6406 199.4219 C166.6406 199.0469 166.2969 198.6875 165.8906 198.6875 ZM167.4688 192.5781 C167.7188 192.8906 167.875 193.2656 167.8906 193.6562 C167.8906 194.1875 167.625 194.5 167.0312 194.7656 L166.4062 195.0156 C165.6406 195.3125 165.3906 195.5469 165.3906 195.9375 C165.3906 196.1094 165.4531 196.3438 165.5781 196.8125 L165.7344 197.3438 L166.1094 197.3438 L166.0938 196.5312 C166.0938 196.0938 166.2031 195.9688 166.7812 195.7344 L167.2031 195.5625 C168.0312 195.2188 168.4531 194.6875 168.4531 193.8438 C168.4531 192.1562 166.6562 191.1875 165.5 191.0312 C165.1094 191.125 164.9062 191.2969 164.9062 191.6406 C164.9062 191.9375 165.0625 192.1562 165.7188 192.2656 L167.4688 192.5781 Z"
      /><rect x="172" y="164" width="5" style="fill:white; stroke:none;" height="10"
      /><path style="stroke:none;" d="M173.8906 172.6875 C173.4844 172.6875 173.1562 173.0469 173.1562 173.4219 C173.1562 173.8125 173.4844 174.1562 173.8906 174.1562 C174.2969 174.1562 174.6406 173.8125 174.6406 173.4219 C174.6406 173.0469 174.2969 172.6875 173.8906 172.6875 ZM175.4688 166.5781 C175.7188 166.8906 175.875 167.2656 175.8906 167.6562 C175.8906 168.1875 175.625 168.5 175.0312 168.7656 L174.4062 169.0156 C173.6406 169.3125 173.3906 169.5469 173.3906 169.9375 C173.3906 170.1094 173.4531 170.3438 173.5781 170.8125 L173.7344 171.3438 L174.1094 171.3438 L174.0938 170.5312 C174.0938 170.0938 174.2031 169.9688 174.7812 169.7344 L175.2031 169.5625 C176.0312 169.2188 176.4531 168.6875 176.4531 167.8438 C176.4531 166.1562 174.6562 165.1875 173.5 165.0312 C173.1094 165.125 172.9062 165.2969 172.9062 165.6406 C172.9062 165.9375 173.0625 166.1562 173.7188 166.2656 L175.4688 166.5781 Z"
      /><rect x="157" y="156" width="5" style="fill:white; stroke:none;" height="10"
      /><path style="stroke:none;" d="M158.8906 164.6875 C158.4844 164.6875 158.1562 165.0469 158.1562 165.4219 C158.1562 165.8125 158.4844 166.1562 158.8906 166.1562 C159.2969 166.1562 159.6406 165.8125 159.6406 165.4219 C159.6406 165.0469 159.2969 164.6875 158.8906 164.6875 ZM160.4688 158.5781 C160.7188 158.8906 160.875 159.2656 160.8906 159.6562 C160.8906 160.1875 160.625 160.5 160.0312 160.7656 L159.4062 161.0156 C158.6406 161.3125 158.3906 161.5469 158.3906 161.9375 C158.3906 162.1094 158.4531 162.3438 158.5781 162.8125 L158.7344 163.3438 L159.1094 163.3438 L159.0938 162.5312 C159.0938 162.0938 159.2031 161.9688 159.7812 161.7344 L160.2031 161.5625 C161.0312 161.2188 161.4531 160.6875 161.4531 159.8438 C161.4531 158.1562 159.6562 157.1875 158.5 157.0312 C158.1094 157.125 157.9062 157.2969 157.9062 157.6406 C157.9062 157.9375 158.0625 158.1562 158.7188 158.2656 L160.4688 158.5781 Z"
      /><polygon style="fill:none;" points=" 197 67 145 93"
      /><polygon style="fill:none;" points=" 197 67 145 41"
      /><circle style="fill:white; clip-path:url(#clipPath10); stroke:none;" r="11" cx="197" cy="67"
      /><rect x="186" y="56" width="22" style="clip-path:url(#clipPath10); fill:rgb(0,166,81); stroke:none;" height="22"
      /><rect x="186" y="56" width="22" style="fill:none; clip-path:url(#clipPath10);" height="22"
      /><circle r="11" style="fill:none;" cx="197" cy="67"
      /><rect x="134" y="82" width="22" style="clip-path:url(#clipPath11); fill:white; stroke:none;" height="22"
      /><rect x="134" y="82" width="22" style="clip-path:url(#clipPath11); fill:rgb(0,144,188); stroke:none;" height="22"
      /><rect x="134" y="82" width="22" style="fill:none; clip-path:url(#clipPath11);" height="22"
      /><rect x="134" width="22" height="22" y="82" style="fill:none;"
      /><rect x="134" y="30" width="22" style="clip-path:url(#clipPath12); fill:white; stroke:none;" height="22"
      /><rect x="134" y="30" width="22" style="clip-path:url(#clipPath12); fill:rgb(0,144,188); stroke:none;" height="22"
      /><rect x="134" y="30" width="22" style="fill:none; clip-path:url(#clipPath12);" height="22"
      /><rect x="134" width="22" height="22" y="30" style="fill:none;"
      /><rect x="179" y="78" width="5" style="fill:white; stroke:none;" height="10"
      /><path style="stroke:none;" d="M180.8906 86.6875 C180.4844 86.6875 180.1562 87.0469 180.1562 87.4219 C180.1562 87.8125 180.4844 88.1562 180.8906 88.1562 C181.2969 88.1562 181.6406 87.8125 181.6406 87.4219 C181.6406 87.0469 181.2969 86.6875 180.8906 86.6875 ZM182.4688 80.5781 C182.7188 80.8906 182.875 81.2656 182.8906 81.6562 C182.8906 82.1875 182.625 82.5 182.0312 82.7656 L181.4062 83.0156 C180.6406 83.3125 180.3906 83.5469 180.3906 83.9375 C180.3906 84.1094 180.4531 84.3438 180.5781 84.8125 L180.7344 85.3438 L181.1094 85.3438 L181.0938 84.5312 C181.0938 84.0938 181.2031 83.9688 181.7812 83.7344 L182.2031 83.5625 C183.0312 83.2188 183.4531 82.6875 183.4531 81.8438 C183.4531 80.1562 181.6562 79.1875 180.5 79.0312 C180.1094 79.125 179.9062 79.2969 179.9062 79.6406 C179.9062 79.9375 180.0625 80.1562 180.7188 80.2656 L182.4688 80.5781 Z"
      /><rect x="164" y="86" width="5" style="fill:white; stroke:none;" height="10"
      /><path style="stroke:none;" d="M165.8906 94.6875 C165.4844 94.6875 165.1562 95.0469 165.1562 95.4219 C165.1562 95.8125 165.4844 96.1562 165.8906 96.1562 C166.2969 96.1562 166.6406 95.8125 166.6406 95.4219 C166.6406 95.0469 166.2969 94.6875 165.8906 94.6875 ZM167.4688 88.5781 C167.7188 88.8906 167.875 89.2656 167.8906 89.6562 C167.8906 90.1875 167.625 90.5 167.0312 90.7656 L166.4062 91.0156 C165.6406 91.3125 165.3906 91.5469 165.3906 91.9375 C165.3906 92.1094 165.4531 92.3438 165.5781 92.8125 L165.7344 93.3438 L166.1094 93.3438 L166.0938 92.5312 C166.0938 92.0938 166.2031 91.9688 166.7812 91.7344 L167.2031 91.5625 C168.0312 91.2188 168.4531 90.6875 168.4531 89.8438 C168.4531 88.1562 166.6562 87.1875 165.5 87.0312 C165.1094 87.125 164.9062 87.2969 164.9062 87.6406 C164.9062 87.9375 165.0625 88.1562 165.7188 88.2656 L167.4688 88.5781 Z"
      /><rect x="172" y="60" width="5" style="fill:white; stroke:none;" height="10"
      /><path style="stroke:none;" d="M173.8906 68.6875 C173.4844 68.6875 173.1562 69.0469 173.1562 69.4219 C173.1562 69.8125 173.4844 70.1562 173.8906 70.1562 C174.2969 70.1562 174.6406 69.8125 174.6406 69.4219 C174.6406 69.0469 174.2969 68.6875 173.8906 68.6875 ZM175.4688 62.5781 C175.7188 62.8906 175.875 63.2656 175.8906 63.6562 C175.8906 64.1875 175.625 64.5 175.0312 64.7656 L174.4062 65.0156 C173.6406 65.3125 173.3906 65.5469 173.3906 65.9375 C173.3906 66.1094 173.4531 66.3438 173.5781 66.8125 L173.7344 67.3438 L174.1094 67.3438 L174.0938 66.5312 C174.0938 66.0938 174.2031 65.9688 174.7812 65.7344 L175.2031 65.5625 C176.0312 65.2188 176.4531 64.6875 176.4531 63.8438 C176.4531 62.1562 174.6562 61.1875 173.5 61.0312 C173.1094 61.125 172.9062 61.2969 172.9062 61.6406 C172.9062 61.9375 173.0625 62.1562 173.7188 62.2656 L175.4688 62.5781 Z"
      /><rect x="157" y="52" width="5" style="fill:white; stroke:none;" height="10"
      /><path style="stroke:none;" d="M158.8906 60.6875 C158.4844 60.6875 158.1562 61.0469 158.1562 61.4219 C158.1562 61.8125 158.4844 62.1562 158.8906 62.1562 C159.2969 62.1562 159.6406 61.8125 159.6406 61.4219 C159.6406 61.0469 159.2969 60.6875 158.8906 60.6875 ZM160.4688 54.5781 C160.7188 54.8906 160.875 55.2656 160.8906 55.6562 C160.8906 56.1875 160.625 56.5 160.0312 56.7656 L159.4062 57.0156 C158.6406 57.3125 158.3906 57.5469 158.3906 57.9375 C158.3906 58.1094 158.4531 58.3438 158.5781 58.8125 L158.7344 59.3438 L159.1094 59.3438 L159.0938 58.5312 C159.0938 58.0938 159.2031 57.9688 159.7812 57.7344 L160.2031 57.5625 C161.0312 57.2188 161.4531 56.6875 161.4531 55.8438 C161.4531 54.1562 159.6562 53.1875 158.5 53.0312 C158.1094 53.125 157.9062 53.2969 157.9062 53.6406 C157.9062 53.9375 158.0625 54.1562 158.7188 54.2656 L160.4688 54.5781 Z"
      /><rect x="235" y="136" width="5" style="fill:white; stroke:none;" height="10"
      /><path style="stroke:none;" d="M236.8906 144.6875 C236.4844 144.6875 236.1562 145.0469 236.1562 145.4219 C236.1562 145.8125 236.4844 146.1562 236.8906 146.1562 C237.2969 146.1562 237.6406 145.8125 237.6406 145.4219 C237.6406 145.0469 237.2969 144.6875 236.8906 144.6875 ZM238.4688 138.5781 C238.7188 138.8906 238.875 139.2656 238.8906 139.6562 C238.8906 140.1875 238.625 140.5 238.0312 140.7656 L237.4062 141.0156 C236.6406 141.3125 236.3906 141.5469 236.3906 141.9375 C236.3906 142.1094 236.4531 142.3438 236.5781 142.8125 L236.7344 143.3438 L237.1094 143.3438 L237.0938 142.5312 C237.0938 142.0938 237.2031 141.9688 237.7812 141.7344 L238.2031 141.5625 C239.0312 141.2188 239.4531 140.6875 239.4531 139.8438 C239.4531 138.1562 237.6562 137.1875 236.5 137.0312 C236.1094 137.125 235.9062 137.2969 235.9062 137.6406 C235.9062 137.9375 236.0625 138.1562 236.7188 138.2656 L238.4688 138.5781 Z"
      /><rect x="216" y="155" width="5" style="fill:white; stroke:none;" height="10"
      /><path style="stroke:none;" d="M217.8906 163.6875 C217.4844 163.6875 217.1562 164.0469 217.1562 164.4219 C217.1562 164.8125 217.4844 165.1562 217.8906 165.1562 C218.2969 165.1562 218.6406 164.8125 218.6406 164.4219 C218.6406 164.0469 218.2969 163.6875 217.8906 163.6875 ZM219.4688 157.5781 C219.7188 157.8906 219.875 158.2656 219.8906 158.6562 C219.8906 159.1875 219.625 159.5 219.0312 159.7656 L218.4062 160.0156 C217.6406 160.3125 217.3906 160.5469 217.3906 160.9375 C217.3906 161.1094 217.4531 161.3438 217.5781 161.8125 L217.7344 162.3438 L218.1094 162.3438 L218.0938 161.5312 C218.0938 161.0938 218.2031 160.9688 218.7812 160.7344 L219.2031 160.5625 C220.0312 160.2188 220.4531 159.6875 220.4531 158.8438 C220.4531 157.1562 218.6562 156.1875 217.5 156.0312 C217.1094 156.125 216.9062 156.2969 216.9062 156.6406 C216.9062 156.9375 217.0625 157.1562 217.7188 157.2656 L219.4688 157.5781 Z"
      /><rect x="224" y="103" width="5" style="fill:white; stroke:none;" height="10"
      /><path style="stroke:none;" d="M225.8906 111.6875 C225.4844 111.6875 225.1562 112.0469 225.1562 112.4219 C225.1562 112.8125 225.4844 113.1562 225.8906 113.1562 C226.2969 113.1562 226.6406 112.8125 226.6406 112.4219 C226.6406 112.0469 226.2969 111.6875 225.8906 111.6875 ZM227.4688 105.5781 C227.7188 105.8906 227.875 106.2656 227.8906 106.6562 C227.8906 107.1875 227.625 107.5 227.0312 107.7656 L226.4062 108.0156 C225.6406 108.3125 225.3906 108.5469 225.3906 108.9375 C225.3906 109.1094 225.4531 109.3438 225.5781 109.8125 L225.7344 110.3438 L226.1094 110.3438 L226.0938 109.5312 C226.0938 109.0938 226.2031 108.9688 226.7812 108.7344 L227.2031 108.5625 C228.0312 108.2188 228.4531 107.6875 228.4531 106.8438 C228.4531 105.1562 226.6562 104.1875 225.5 104.0312 C225.1094 104.125 224.9062 104.2969 224.9062 104.6406 C224.9062 104.9375 225.0625 105.1562 225.7188 105.2656 L227.4688 105.5781 Z"
      /><rect x="205" y="84" width="5" style="fill:white; stroke:none;" height="10"
      /><path style="stroke:none;" d="M206.8906 92.6875 C206.4844 92.6875 206.1562 93.0469 206.1562 93.4219 C206.1562 93.8125 206.4844 94.1562 206.8906 94.1562 C207.2969 94.1562 207.6406 93.8125 207.6406 93.4219 C207.6406 93.0469 207.2969 92.6875 206.8906 92.6875 ZM208.4688 86.5781 C208.7188 86.8906 208.875 87.2656 208.8906 87.6562 C208.8906 88.1875 208.625 88.5 208.0312 88.7656 L207.4062 89.0156 C206.6406 89.3125 206.3906 89.5469 206.3906 89.9375 C206.3906 90.1094 206.4531 90.3438 206.5781 90.8125 L206.7344 91.3438 L207.1094 91.3438 L207.0938 90.5312 C207.0938 90.0938 207.2031 89.9688 207.7812 89.7344 L208.2031 89.5625 C209.0312 89.2188 209.4531 88.6875 209.4531 87.8438 C209.4531 86.1562 207.6562 85.1875 206.5 85.0312 C206.1094 85.125 205.9062 85.2969 205.9062 85.6406 C205.9062 85.9375 206.0625 86.1562 206.7188 86.2656 L208.4688 86.5781 Z"
      /><rect x="279" y="122" width="5" style="fill:white; stroke:none;" height="10"
      /><path style="stroke:none;" d="M280.8906 130.6875 C280.4844 130.6875 280.1562 131.0469 280.1562 131.4219 C280.1562 131.8125 280.4844 132.1562 280.8906 132.1562 C281.2969 132.1562 281.6406 131.8125 281.6406 131.4219 C281.6406 131.0469 281.2969 130.6875 280.8906 130.6875 ZM282.4688 124.5781 C282.7188 124.8906 282.875 125.2656 282.8906 125.6562 C282.8906 126.1875 282.625 126.5 282.0312 126.7656 L281.4062 127.0156 C280.6406 127.3125 280.3906 127.5469 280.3906 127.9375 C280.3906 128.1094 280.4531 128.3438 280.5781 128.8125 L280.7344 129.3438 L281.1094 129.3438 L281.0938 128.5312 C281.0938 128.0938 281.2031 127.9688 281.7812 127.7344 L282.2031 127.5625 C283.0312 127.2188 283.4531 126.6875 283.4531 125.8438 C283.4531 124.1562 281.6562 123.1875 280.5 123.0312 C280.1094 123.125 279.9062 123.2969 279.9062 123.6406 C279.9062 123.9375 280.0625 124.1562 280.7188 124.2656 L282.4688 124.5781 Z"
      /><rect x="265" y="122" width="5" style="fill:white; stroke:none;" height="10"
      /><path style="stroke:none;" d="M266.8906 130.6875 C266.4844 130.6875 266.1562 131.0469 266.1562 131.4219 C266.1562 131.8125 266.4844 132.1562 266.8906 132.1562 C267.2969 132.1562 267.6406 131.8125 267.6406 131.4219 C267.6406 131.0469 267.2969 130.6875 266.8906 130.6875 ZM268.4688 124.5781 C268.7188 124.8906 268.875 125.2656 268.8906 125.6562 C268.8906 126.1875 268.625 126.5 268.0312 126.7656 L267.4062 127.0156 C266.6406 127.3125 266.3906 127.5469 266.3906 127.9375 C266.3906 128.1094 266.4531 128.3438 266.5781 128.8125 L266.7344 129.3438 L267.1094 129.3438 L267.0938 128.5312 C267.0938 128.0938 267.2031 127.9688 267.7812 127.7344 L268.2031 127.5625 C269.0312 127.2188 269.4531 126.6875 269.4531 125.8438 C269.4531 124.1562 267.6562 123.1875 266.5 123.0312 C266.1094 123.125 265.9062 123.2969 265.9062 123.6406 C265.9062 123.9375 266.0625 124.1562 266.7188 124.2656 L268.4688 124.5781 Z"
      /><rect x="331" y="122" width="5" style="fill:white; stroke:none;" height="10"
      /><path style="stroke:none;" d="M332.8906 130.6875 C332.4844 130.6875 332.1562 131.0469 332.1562 131.4219 C332.1562 131.8125 332.4844 132.1562 332.8906 132.1562 C333.2969 132.1562 333.6406 131.8125 333.6406 131.4219 C333.6406 131.0469 333.2969 130.6875 332.8906 130.6875 ZM334.4688 124.5781 C334.7188 124.8906 334.875 125.2656 334.8906 125.6562 C334.8906 126.1875 334.625 126.5 334.0312 126.7656 L333.4062 127.0156 C332.6406 127.3125 332.3906 127.5469 332.3906 127.9375 C332.3906 128.1094 332.4531 128.3438 332.5781 128.8125 L332.7344 129.3438 L333.1094 129.3438 L333.0938 128.5312 C333.0938 128.0938 333.2031 127.9688 333.7812 127.7344 L334.2031 127.5625 C335.0312 127.2188 335.4531 126.6875 335.4531 125.8438 C335.4531 124.1562 333.6562 123.1875 332.5 123.0312 C332.1094 123.125 331.9062 123.2969 331.9062 123.6406 C331.9062 123.9375 332.0625 124.1562 332.7188 124.2656 L334.4688 124.5781 Z"
      /><rect x="317" y="122" width="5" style="fill:white; stroke:none;" height="10"
      /><path style="stroke:none;" d="M318.8906 130.6875 C318.4844 130.6875 318.1562 131.0469 318.1562 131.4219 C318.1562 131.8125 318.4844 132.1562 318.8906 132.1562 C319.2969 132.1562 319.6406 131.8125 319.6406 131.4219 C319.6406 131.0469 319.2969 130.6875 318.8906 130.6875 ZM320.4688 124.5781 C320.7188 124.8906 320.875 125.2656 320.8906 125.6562 C320.8906 126.1875 320.625 126.5 320.0312 126.7656 L319.4062 127.0156 C318.6406 127.3125 318.3906 127.5469 318.3906 127.9375 C318.3906 128.1094 318.4531 128.3438 318.5781 128.8125 L318.7344 129.3438 L319.1094 129.3438 L319.0938 128.5312 C319.0938 128.0938 319.2031 127.9688 319.7812 127.7344 L320.2031 127.5625 C321.0312 127.2188 321.4531 126.6875 321.4531 125.8438 C321.4531 124.1562 319.6562 123.1875 318.5 123.0312 C318.1094 123.125 317.9062 123.2969 317.9062 123.6406 C317.9062 123.9375 318.0625 124.1562 318.7188 124.2656 L320.4688 124.5781 Z"
      /><rect x="369" y="122" width="5" style="fill:white; stroke:none;" height="10"
      /><path style="stroke:none;" d="M370.8906 130.6875 C370.4844 130.6875 370.1562 131.0469 370.1562 131.4219 C370.1562 131.8125 370.4844 132.1562 370.8906 132.1562 C371.2969 132.1562 371.6406 131.8125 371.6406 131.4219 C371.6406 131.0469 371.2969 130.6875 370.8906 130.6875 ZM372.4688 124.5781 C372.7188 124.8906 372.875 125.2656 372.8906 125.6562 C372.8906 126.1875 372.625 126.5 372.0312 126.7656 L371.4062 127.0156 C370.6406 127.3125 370.3906 127.5469 370.3906 127.9375 C370.3906 128.1094 370.4531 128.3438 370.5781 128.8125 L370.7344 129.3438 L371.1094 129.3438 L371.0938 128.5312 C371.0938 128.0938 371.2031 127.9688 371.7812 127.7344 L372.2031 127.5625 C373.0312 127.2188 373.4531 126.6875 373.4531 125.8438 C373.4531 124.1562 371.6562 123.1875 370.5 123.0312 C370.1094 123.125 369.9062 123.2969 369.9062 123.6406 C369.9062 123.9375 370.0625 124.1562 370.7188 124.2656 L372.4688 124.5781 Z"
    /></g
  ></g
></svg
>
