<?xml version="1.0"?>
<!DOCTYPE svg PUBLIC '-//W3C//DTD SVG 1.0//EN'
          'http://www.w3.org/TR/2001/REC-SVG-20010904/DTD/svg10.dtd'>
<svg xmlns:xlink="http://www.w3.org/1999/xlink" style="fill-opacity:1; color-rendering:auto; color-interpolation:auto; text-rendering:auto; stroke:black; stroke-linecap:square; stroke-miterlimit:10; shape-rendering:auto; stroke-opacity:1; fill:black; stroke-dasharray:none; font-weight:normal; stroke-width:1; font-family:'Dialog'; font-style:normal; stroke-linejoin:miter; font-size:12px; stroke-dashoffset:0; image-rendering:auto;" viewBox="0 0 134 105" xmlns="http://www.w3.org/2000/svg"
><!--Generated by the Batik Graphics2D SVG Generator--><defs id="genericDefs"
  /><g
  ><defs id="defs1"
    ><clipPath clipPathUnits="userSpaceOnUse" id="clipPath1"
      ><path style="fill-rule:evenodd;" d="M41 53 L52 75 L30 75 Z"
      /></clipPath
    ></defs
    ><g style="fill:white; text-rendering:optimizeSpeed; stroke:white;"
    ><rect x="0" width="134" height="105" y="0" style="stroke:none;"
      /><polygon style="fill:none; stroke:black;" points=" 93 64 41 64"
      /><path d="M93 53 C87.5 58.5 98.5 69.5 93 75" style="fill:none; stroke:black;"
      /><polygon style="clip-path:url(#clipPath1); stroke:none;" points=" 41 53 52 75 30 75"
      /><rect x="30" y="53" width="22" style="clip-path:url(#clipPath1); fill:rgb(0,144,188); stroke:none;" height="22"
      /><rect x="30" y="53" width="22" style="clip-path:url(#clipPath1); fill:none; stroke:black;" height="22"
      /><polygon style="fill:none; stroke:black;" points=" 41 53 52 75 30 75"
    /></g
    ><g style="text-rendering:optimizeSpeed; font-size:10px; font-family:'SansSerif';"
    ><path style="stroke:none;" d="M39 67 L43.125 67 L43.125 66.2031 L39.9375 66.2031 L39.9375 59.6562 L39 59.6562 L39 67 Z"
      /><rect x="35" y="35" width="10" style="fill:white; stroke:none;" height="10"
      /><path style="stroke:none;" d="M36.6094 42.1562 L38.9531 38.6562 C39.2344 38.1406 39.5156 37.6406 39.7812 37.1406 L39.8281 37.1406 C39.7969 37.6719 39.7656 38.5 39.7656 39 L39.7656 42.1562 L36.6094 42.1562 ZM39.7656 46 L40.9688 46 L40.9688 43.1719 L42.3281 43.1719 L42.3281 42.1562 L40.9688 42.1562 L40.9688 35.7188 L39.5469 35.7188 L35.2812 42.3281 L35.2812 43.1719 L39.7656 43.1719 L39.7656 46 ZM44.1762 46 L45.4731 46 L45.4731 35.7188 L44.1762 35.7188 L44.1762 46 Z"
    /></g
    ><g style="fill:white; text-rendering:optimizeSpeed; font-family:'Serif'; stroke:white;"
    ><rect x="57" width="5" height="10" y="67" style="stroke:none;"
      /><path d="M58.8906 75.6875 C58.4844 75.6875 58.1562 76.0469 58.1562 76.4219 C58.1562 76.8125 58.4844 77.1562 58.8906 77.1562 C59.2969 77.1562 59.6406 76.8125 59.6406 76.4219 C59.6406 76.0469 59.2969 75.6875 58.8906 75.6875 ZM60.4688 69.5781 C60.7188 69.8906 60.875 70.2656 60.8906 70.6562 C60.8906 71.1875 60.625 71.5 60.0312 71.7656 L59.4062 72.0156 C58.6406 72.3125 58.3906 72.5469 58.3906 72.9375 C58.3906 73.1094 58.4531 73.3438 58.5781 73.8125 L58.7344 74.3438 L59.1094 74.3438 L59.0938 73.5312 C59.0938 73.0938 59.2031 72.9688 59.7812 72.7344 L60.2031 72.5625 C61.0312 72.2188 61.4531 71.6875 61.4531 70.8438 C61.4531 69.1562 59.6562 68.1875 58.5 68.0312 C58.1094 68.125 57.9062 68.2969 57.9062 68.6406 C57.9062 68.9375 58.0625 69.1562 58.7188 69.2656 L60.4688 69.5781 Z" style="fill:black; stroke:none;"
    /></g
  ></g
></svg
>
