<?xml version="1.0"?>
<!DOCTYPE svg PUBLIC '-//W3C//DTD SVG 1.0//EN'
          'http://www.w3.org/TR/2001/REC-SVG-20010904/DTD/svg10.dtd'>
<svg xmlns:xlink="http://www.w3.org/1999/xlink" style="fill-opacity:1; color-rendering:auto; color-interpolation:auto; text-rendering:auto; stroke:black; stroke-linecap:square; stroke-miterlimit:10; shape-rendering:auto; stroke-opacity:1; fill:black; stroke-dasharray:none; font-weight:normal; stroke-width:1; font-family:'Dialog'; font-style:normal; stroke-linejoin:miter; font-size:12px; stroke-dashoffset:0; image-rendering:auto;" viewBox="0 0 646 212" xmlns="http://www.w3.org/2000/svg"
><!--Generated by the Batik Graphics2D SVG Generator--><defs id="genericDefs"
  /><g
  ><defs id="defs1"
    ><clipPath clipPathUnits="userSpaceOnUse" id="clipPath1"
      ><path d="M542 82 L564 82 L564 104 L542 104 L542 82 Z"
      /></clipPath
      ><clipPath clipPathUnits="userSpaceOnUse" id="clipPath2"
      ><path d="M490 82 L512 82 L512 104 L490 104 L490 82 Z"
      /></clipPath
      ><clipPath clipPathUnits="userSpaceOnUse" id="clipPath3"
      ><path d="M460 93 C460 99.0751 455.0751 104 449 104 C442.9249 104 438 99.0751 438 93 C438 86.9249 442.9249 82 449 82 C455.0751 82 460 86.9249 460 93 Z"
      /></clipPath
      ><clipPath clipPathUnits="userSpaceOnUse" id="clipPath4"
      ><path d="M408 119 C408 125.0751 403.0751 130 397 130 C390.9249 130 386 125.0751 386 119 C386 112.9249 390.9249 108 397 108 C403.0751 108 408 112.9249 408 119 Z"
      /></clipPath
      ><clipPath clipPathUnits="userSpaceOnUse" id="clipPath5"
      ><path d="M334 108 L356 108 L356 130 L334 130 L334 108 Z"
      /></clipPath
      ><clipPath clipPathUnits="userSpaceOnUse" id="clipPath6"
      ><path style="fill-rule:evenodd;" d="M345 160 L356 182 L334 182 Z"
      /></clipPath
      ><clipPath clipPathUnits="userSpaceOnUse" id="clipPath7"
      ><path d="M304 119 C304 125.0751 299.0751 130 293 130 C286.9249 130 282 125.0751 282 119 C282 112.9249 286.9249 108 293 108 C299.0751 108 304 112.9249 304 119 Z"
      /></clipPath
      ><clipPath clipPathUnits="userSpaceOnUse" id="clipPath8"
      ><path style="fill-rule:evenodd;" d="M241 108 L252 119 L241 130 L230 119 Z"
      /></clipPath
      ><clipPath clipPathUnits="userSpaceOnUse" id="clipPath9"
      ><path d="M408 67 C408 73.0751 403.0751 78 397 78 C390.9249 78 386 73.0751 386 67 C386 60.9249 390.9249 56 397 56 C403.0751 56 408 60.9249 408 67 Z"
      /></clipPath
      ><clipPath clipPathUnits="userSpaceOnUse" id="clipPath10"
      ><path d="M334 56 L356 56 L356 78 L334 78 L334 56 Z"
      /></clipPath
      ><clipPath clipPathUnits="userSpaceOnUse" id="clipPath11"
      ><path style="fill-rule:evenodd;" d="M553 52 L542 30 L564 30 Z"
      /></clipPath
      ><clipPath clipPathUnits="userSpaceOnUse" id="clipPath12"
      ><path d="M134 95 L156 95 L156 117 L134 117 L134 95 Z"
      /></clipPath
      ><clipPath clipPathUnits="userSpaceOnUse" id="clipPath13"
      ><path style="fill-rule:evenodd;" d="M145 147 L156 169 L134 169 Z"
      /></clipPath
      ><clipPath clipPathUnits="userSpaceOnUse" id="clipPath14"
      ><path d="M104 106 C104 112.0751 99.0751 117 93 117 C86.9249 117 82 112.0751 82 106 C82 99.9249 86.9249 95 93 95 C99.0751 95 104 99.9249 104 106 Z"
      /></clipPath
      ><clipPath clipPathUnits="userSpaceOnUse" id="clipPath15"
      ><path style="fill-rule:evenodd;" d="M41 95 L52 106 L41 117 L30 106 Z"
      /></clipPath
    ></defs
    ><g style="fill:white; text-rendering:optimizeSpeed; stroke:white;"
    ><rect x="0" width="646" height="212" y="0" style="stroke:none;"
      /><polygon style="fill:none; stroke:black;" points=" 605 93 553 93"
      /><path d="M605 82 C599.5 87.5 610.5 98.5 605 104" style="fill:none; stroke:black;"
      /><polygon style="fill:none; stroke:black;" points=" 553 93 501 93"
      /><polygon style="fill:none; stroke:black;" points=" 553 93 553 41"
      /><rect x="542" y="82" width="22" style="clip-path:url(#clipPath1); stroke:none;" height="22"
      /><rect x="542" y="82" width="22" style="clip-path:url(#clipPath1); fill:rgb(0,144,188); stroke:none;" height="22"
      /><rect x="542" y="82" width="22" style="clip-path:url(#clipPath1); fill:none; stroke:black;" height="22"
      /><rect x="542" y="82" width="22" style="fill:none; stroke:black;" height="22"
      /><polygon style="fill:none; stroke:black;" points=" 501 93 449 93"
      /><rect x="490" y="82" width="22" style="clip-path:url(#clipPath2); stroke:none;" height="22"
      /><rect x="490" y="82" width="22" style="clip-path:url(#clipPath2); fill:rgb(0,144,188); stroke:none;" height="22"
      /><rect x="490" y="82" width="22" style="clip-path:url(#clipPath2); fill:none; stroke:black;" height="22"
      /><rect x="490" y="82" width="22" style="fill:none; stroke:black;" height="22"
      /><polygon style="fill:none; stroke:black;" points=" 449 93 397 119"
      /><polygon style="fill:none; stroke:black;" points=" 449 93 397 67"
      /><circle style="clip-path:url(#clipPath3); stroke:none;" r="11" cx="449" cy="93"
      /><rect x="438" y="82" width="22" style="clip-path:url(#clipPath3); fill:rgb(0,166,81); stroke:none;" height="22"
      /><rect x="438" y="82" width="22" style="clip-path:url(#clipPath3); fill:none; stroke:black;" height="22"
      /><circle style="fill:none; stroke:black;" r="11" cx="449" cy="93"
      /><polygon style="fill:none; stroke:black;" points=" 397 119 345 119"
      /><circle style="clip-path:url(#clipPath4); stroke:none;" r="11" cx="397" cy="119"
      /><rect x="386" y="108" width="22" style="clip-path:url(#clipPath4); fill:rgb(0,166,81); stroke:none;" height="22"
      /><rect x="386" y="108" width="22" style="clip-path:url(#clipPath4); fill:none; stroke:black;" height="22"
      /><circle style="fill:none; stroke:black;" r="11" cx="397" cy="119"
      /><polygon style="fill:none; stroke:black;" points=" 345 119 345 171"
      /><polygon style="fill:none; stroke:black;" points=" 345 119 293 119"
      /><rect x="334" y="108" width="22" style="clip-path:url(#clipPath5); stroke:none;" height="22"
      /><rect x="334" y="108" width="22" style="clip-path:url(#clipPath5); fill:rgb(0,144,188); stroke:none;" height="22"
      /><rect x="334" y="108" width="22" style="clip-path:url(#clipPath5); fill:none; stroke:black;" height="22"
      /><rect x="334" y="108" width="22" style="fill:none; stroke:black;" height="22"
      /><polygon style="clip-path:url(#clipPath6); stroke:none;" points=" 345 160 356 182 334 182"
      /><rect x="334" y="160" width="22" style="clip-path:url(#clipPath6); fill:rgb(237,28,36); stroke:none;" height="22"
      /><rect x="334" y="160" width="22" style="clip-path:url(#clipPath6); fill:none; stroke:black;" height="22"
      /><polygon style="fill:none; stroke:black;" points=" 345 160 356 182 334 182"
      /><polygon style="fill:none; stroke:black;" points=" 293 119 241 119"
      /><circle style="clip-path:url(#clipPath7); stroke:none;" r="11" cx="293" cy="119"
      /><rect x="282" y="108" width="22" style="clip-path:url(#clipPath7); fill:rgb(255,212,0); stroke:none;" height="22"
      /><rect x="282" y="108" width="22" style="clip-path:url(#clipPath7); fill:none; stroke:black;" height="22"
      /><circle style="fill:none; stroke:black;" r="11" cx="293" cy="119"
      /><polygon style="clip-path:url(#clipPath8); stroke:none;" points=" 241 108 252 119 241 130 230 119"
      /><rect x="230" y="108" width="22" style="clip-path:url(#clipPath8); fill:rgb(143,204,233); stroke:none;" height="22"
      /><rect x="230" y="108" width="22" style="clip-path:url(#clipPath8); fill:none; stroke:black;" height="22"
      /><polygon style="fill:none; stroke:black;" points=" 241 108 252 119 241 130 230 119"
      /><rect x="266" y="120" width="16" style="stroke:none;" height="13"
    /></g
    ><g style="font-family:'Serif'; text-rendering:optimizeSpeed; "
    ><path style="stroke:none;" d="M268.2344 124.6562 C268.5156 124.5938 268.7656 124.5625 269.0156 124.5625 C270.0625 124.5625 270.6719 125.1719 270.6719 126.2656 C270.6719 127.4375 269.9062 128.1094 268.7031 128.1094 L268.1875 128.1094 L268.1875 128.6406 L268.7969 128.6406 C270.2188 128.6406 270.9062 129.4219 270.9062 130.6406 C270.9062 131.8438 270.1719 132.6875 268.875 132.6875 C268.6094 132.6875 268.3125 132.6562 268.0156 132.5625 L267.7812 131.8125 C267.625 131.2812 267.5 131.0469 267.1406 131.0469 C266.8906 131.0469 266.7031 131.1719 266.5781 131.4219 C266.8438 132.6406 267.7812 133.1719 269.0312 133.1719 C270.7188 133.1719 271.875 132.125 271.875 130.7031 C271.875 129.5 271.2031 128.625 269.7969 128.375 C270.9531 128.0156 271.6094 127.2031 271.6094 126.2031 C271.6094 124.9219 270.6719 124.0781 269.1875 124.0781 C268.0469 124.0781 267.0625 124.5938 266.7969 125.6875 C266.9062 126 267.1094 126.1094 267.3594 126.1094 C267.7344 126.1094 267.8906 125.8906 268 125.4062 L268.2344 124.6562 ZM272.4993 135.0938 L273.1087 135.0938 L276.6087 123.7344 L275.9837 123.7344 L272.4993 135.0938 ZM279.9878 132.6875 C278.8472 132.6875 278.1753 131.5 278.1753 129.2969 C278.1753 129.2188 278.1753 129.125 278.1753 129.0469 C278.7378 128.5 279.3628 128.3125 279.9878 128.3125 C280.9566 128.3125 281.5972 128.9844 281.5972 130.4531 C281.5972 131.9375 280.9566 132.6875 279.9878 132.6875 ZM282.1753 124.0781 C278.9878 124.4531 277.2066 126.7656 277.2066 129.4531 C277.2066 131.7812 278.2534 133.1719 279.9566 133.1719 C281.4878 133.1719 282.5659 132.1094 282.5659 130.2812 C282.5659 128.6875 281.6128 127.6562 280.2066 127.6562 C279.4722 127.6562 278.7847 127.9844 278.2222 128.5781 C278.4409 126.4062 279.7222 124.9688 282.2378 124.3906 L282.1753 124.0781 Z"
      /><rect x="256" y="123" width="8" style="fill:white; stroke:none;" height="8"
      /><path style="stroke:none;" d="M260.9844 128.7031 C260.9375 129.8906 260.1562 130.6562 259.3125 130.6562 C258.2656 130.6562 257.5 129.6875 257.5 127.7188 C257.5 126.2812 258.1562 125.1562 259.3438 125.1562 C260.1406 125.1562 260.7812 125.6875 261.0938 126.6406 L260.9844 128.7031 ZM262.9062 130.2812 C262.7344 130.375 262.5469 130.4219 262.3438 130.4219 C261.9531 130.4219 261.75 130.2188 261.75 129.4219 C261.75 128.4844 261.9688 126.5312 262.1875 124.8281 L262.0312 124.7188 L261.2344 124.9219 L261.1406 125.7969 C260.7812 125.0312 260.1562 124.6562 259.3906 124.6562 C258.0469 124.6562 256.5625 125.8438 256.5625 127.9531 C256.5625 130.0938 257.7188 131.1719 259.1406 131.1719 C260.0156 131.1719 260.6875 130.8125 261.0938 129.9844 C261.2031 130.8594 261.5156 131.1719 262.0156 131.1719 C262.4688 131.1719 262.7969 130.9062 263.0156 130.5625 L262.9062 130.2812 Z"
      /><rect x="350" y="133" width="6" style="fill:white; stroke:none;" height="10"
      /><path style="stroke:none;" d="M352.2344 134.6562 C352.5156 134.5938 352.7656 134.5625 353.0156 134.5625 C354.0625 134.5625 354.6719 135.1719 354.6719 136.2656 C354.6719 137.4375 353.9062 138.1094 352.7031 138.1094 L352.1875 138.1094 L352.1875 138.6406 L352.7969 138.6406 C354.2188 138.6406 354.9062 139.4219 354.9062 140.6406 C354.9062 141.8438 354.1719 142.6875 352.875 142.6875 C352.6094 142.6875 352.3125 142.6562 352.0156 142.5625 L351.7812 141.8125 C351.625 141.2812 351.5 141.0469 351.1406 141.0469 C350.8906 141.0469 350.7031 141.1719 350.5781 141.4219 C350.8438 142.6406 351.7812 143.1719 353.0312 143.1719 C354.7188 143.1719 355.875 142.125 355.875 140.7031 C355.875 139.5 355.2031 138.625 353.7969 138.375 C354.9531 138.0156 355.6094 137.2031 355.6094 136.2031 C355.6094 134.9219 354.6719 134.0781 353.1875 134.0781 C352.0469 134.0781 351.0625 134.5938 350.7969 135.6875 C350.9062 136 351.1094 136.1094 351.3594 136.1094 C351.7344 136.1094 351.8906 135.8906 352 135.4062 L352.2344 134.6562 Z"
      /><rect x="349" y="148" width="8" style="fill:white; stroke:none;" height="8"
      /><path style="stroke:none;" d="M353.9844 153.7031 C353.9375 154.8906 353.1562 155.6562 352.3125 155.6562 C351.2656 155.6562 350.5 154.6875 350.5 152.7188 C350.5 151.2812 351.1562 150.1562 352.3438 150.1562 C353.1406 150.1562 353.7812 150.6875 354.0938 151.6406 L353.9844 153.7031 ZM355.9062 155.2812 C355.7344 155.375 355.5469 155.4219 355.3438 155.4219 C354.9531 155.4219 354.75 155.2188 354.75 154.4219 C354.75 153.4844 354.9688 151.5312 355.1875 149.8281 L355.0312 149.7188 L354.2344 149.9219 L354.1406 150.7969 C353.7812 150.0312 353.1562 149.6562 352.3906 149.6562 C351.0469 149.6562 349.5625 150.8438 349.5625 152.9531 C349.5625 155.0938 350.7188 156.1719 352.1406 156.1719 C353.0156 156.1719 353.6875 155.8125 354.0938 154.9844 C354.2031 155.8594 354.5156 156.1719 355.0156 156.1719 C355.4688 156.1719 355.7969 155.9062 356.0156 155.5625 L355.9062 155.2812 Z"
      /><rect x="322" y="122" width="7" style="fill:white; stroke:none;" height="9"
      /><path style="stroke:none;" d="M323 127.5156 L325.9531 123.2656 L325.9531 127.5156 L323 127.5156 ZM328.2812 127.5156 L326.8594 127.5156 L326.8594 122.125 L326.2344 122.125 L322.3438 127.6406 L322.3438 128.1875 L325.9531 128.1875 L325.9531 131 L326.8594 131 L326.8594 128.1875 L328.2812 128.1875 L328.2812 127.5156 Z"
      /><rect x="309" y="120" width="6" style="fill:white; stroke:none;" height="13"
      /><path style="stroke:none;" d="M311.0938 126.2031 C311.0938 124.6562 311.75 123.8125 312.7969 123.8125 C313.7188 123.8125 314.2656 124.4531 314.2656 125.5156 C314.2656 126.7188 313.5 127.4375 312.1875 127.7031 L312.2969 128.3125 C314.2188 128.2344 314.9375 129.2188 314.9375 130.4375 C314.9375 131.625 314.2344 132.4219 312.9531 132.4219 C312.25 132.4219 311.6562 132.1562 311.0938 131.7188 L311.0938 126.2031 ZM310.2031 132.9062 L310.1094 135.375 L310.2656 135.4844 L311.1562 135.2656 L311.0156 132.0938 C311.5469 132.8438 312.3594 133.1719 313.1719 133.1719 C314.5625 133.1719 315.8594 132.2188 315.8594 130.4844 C315.8594 128.9531 314.875 128.1094 313.125 128 C314.5625 127.6094 315.1875 126.4531 315.1875 125.4844 C315.1875 124.0938 314.1562 123.3125 312.9062 123.3125 C311.2969 123.3125 310.2188 124.5469 310.2188 126.5156 L310.2031 132.9062 Z"
      /><rect x="375" y="122" width="6" style="fill:white; stroke:none;" height="9"
      /><path style="stroke:none;" d="M376.4219 130.0938 C377.0781 129.375 377.7031 128.7188 378.0312 128.3438 C379.9219 126.3125 380.5312 125.4688 380.5312 124.3594 C380.5312 123.0156 379.7812 122.0781 378.1562 122.0781 C376.9062 122.0781 375.7969 122.7031 375.5938 123.9688 C375.7188 124.2031 375.9062 124.3438 376.1562 124.3438 C376.4688 124.3438 376.6562 124.1094 376.7969 123.5938 L377.0938 122.6719 C377.3906 122.5938 377.6562 122.5625 377.8906 122.5625 C378.9219 122.5625 379.5469 123.3125 379.5469 124.4219 C379.5469 125.4375 378.9844 126.4219 377.7031 127.9062 C377.125 128.5781 376.3906 129.4375 375.6406 130.2812 L375.6406 131 L380.9219 131 L380.9219 130.0938 L376.4219 130.0938 Z"
      /><rect x="361" y="120" width="6" style="fill:white; stroke:none;" height="13"
      /><path style="stroke:none;" d="M363.0938 126.2031 C363.0938 124.6562 363.75 123.8125 364.7969 123.8125 C365.7188 123.8125 366.2656 124.4531 366.2656 125.5156 C366.2656 126.7188 365.5 127.4375 364.1875 127.7031 L364.2969 128.3125 C366.2188 128.2344 366.9375 129.2188 366.9375 130.4375 C366.9375 131.625 366.2344 132.4219 364.9531 132.4219 C364.25 132.4219 363.6562 132.1562 363.0938 131.7188 L363.0938 126.2031 ZM362.2031 132.9062 L362.1094 135.375 L362.2656 135.4844 L363.1562 135.2656 L363.0156 132.0938 C363.5469 132.8438 364.3594 133.1719 365.1719 133.1719 C366.5625 133.1719 367.8594 132.2188 367.8594 130.4844 C367.8594 128.9531 366.875 128.1094 365.125 128 C366.5625 127.6094 367.1875 126.4531 367.1875 125.4844 C367.1875 124.0938 366.1562 123.3125 364.9062 123.3125 C363.2969 123.3125 362.2188 124.5469 362.2188 126.5156 L362.2031 132.9062 Z"
      /><polygon style="fill:none;" points=" 397 67 345 67"
      /><circle style="fill:white; clip-path:url(#clipPath9); stroke:none;" r="11" cx="397" cy="67"
      /><rect x="386" y="56" width="22" style="clip-path:url(#clipPath9); fill:rgb(0,166,81); stroke:none;" height="22"
      /><rect x="386" y="56" width="22" style="fill:none; clip-path:url(#clipPath9);" height="22"
      /><circle r="11" style="fill:none;" cx="397" cy="67"
      /><rect x="334" y="56" width="22" style="clip-path:url(#clipPath10); fill:white; stroke:none;" height="22"
      /><rect x="334" y="56" width="22" style="clip-path:url(#clipPath10); fill:rgb(0,144,188); stroke:none;" height="22"
      /><rect x="334" y="56" width="22" style="fill:none; clip-path:url(#clipPath10);" height="22"
      /><rect x="334" width="22" height="22" y="56" style="fill:none;"
      /><rect x="375" y="70" width="6" style="fill:white; stroke:none;" height="9"
      /><path style="stroke:none;" d="M376.4219 78.0938 C377.0781 77.375 377.7031 76.7188 378.0312 76.3438 C379.9219 74.3125 380.5312 73.4688 380.5312 72.3594 C380.5312 71.0156 379.7812 70.0781 378.1562 70.0781 C376.9062 70.0781 375.7969 70.7031 375.5938 71.9688 C375.7188 72.2031 375.9062 72.3438 376.1562 72.3438 C376.4688 72.3438 376.6562 72.1094 376.7969 71.5938 L377.0938 70.6719 C377.3906 70.5938 377.6562 70.5625 377.8906 70.5625 C378.9219 70.5625 379.5469 71.3125 379.5469 72.4219 C379.5469 73.4375 378.9844 74.4219 377.7031 75.9062 C377.125 76.5781 376.3906 77.4375 375.6406 78.2812 L375.6406 79 L380.9219 79 L380.9219 78.0938 L376.4219 78.0938 Z"
      /><rect x="361" y="68" width="6" style="fill:white; stroke:none;" height="13"
      /><path style="stroke:none;" d="M363.0938 74.2031 C363.0938 72.6562 363.75 71.8125 364.7969 71.8125 C365.7188 71.8125 366.2656 72.4531 366.2656 73.5156 C366.2656 74.7188 365.5 75.4375 364.1875 75.7031 L364.2969 76.3125 C366.2188 76.2344 366.9375 77.2188 366.9375 78.4375 C366.9375 79.625 366.2344 80.4219 364.9531 80.4219 C364.25 80.4219 363.6562 80.1562 363.0938 79.7188 L363.0938 74.2031 ZM362.2031 80.9062 L362.1094 83.375 L362.2656 83.4844 L363.1562 83.2656 L363.0156 80.0938 C363.5469 80.8438 364.3594 81.1719 365.1719 81.1719 C366.5625 81.1719 367.8594 80.2188 367.8594 78.4844 C367.8594 76.9531 366.875 76.1094 365.125 76 C366.5625 75.6094 367.1875 74.4531 367.1875 73.4844 C367.1875 72.0938 366.1562 71.3125 364.9062 71.3125 C363.2969 71.3125 362.2188 72.5469 362.2188 74.5156 L362.2031 80.9062 Z"
      /><rect x="431" y="104" width="6" style="fill:white; stroke:none;" height="10"
      /><path style="stroke:none;" d="M433.2344 105.6562 C433.5156 105.5938 433.7656 105.5625 434.0156 105.5625 C435.0625 105.5625 435.6719 106.1719 435.6719 107.2656 C435.6719 108.4375 434.9062 109.1094 433.7031 109.1094 L433.1875 109.1094 L433.1875 109.6406 L433.7969 109.6406 C435.2188 109.6406 435.9062 110.4219 435.9062 111.6406 C435.9062 112.8438 435.1719 113.6875 433.875 113.6875 C433.6094 113.6875 433.3125 113.6562 433.0156 113.5625 L432.7812 112.8125 C432.625 112.2812 432.5 112.0469 432.1406 112.0469 C431.8906 112.0469 431.7031 112.1719 431.5781 112.4219 C431.8438 113.6406 432.7812 114.1719 434.0312 114.1719 C435.7188 114.1719 436.875 113.125 436.875 111.7031 C436.875 110.5 436.2031 109.625 434.7969 109.375 C435.9531 109.0156 436.6094 108.2031 436.6094 107.2031 C436.6094 105.9219 435.6719 105.0781 434.1875 105.0781 C433.0469 105.0781 432.0625 105.5938 431.7969 106.6875 C431.9062 107 432.1094 107.1094 432.3594 107.1094 C432.7344 107.1094 432.8906 106.8906 433 106.4062 L433.2344 105.6562 Z"
      /><rect x="414" y="113" width="8" style="fill:white; stroke:none;" height="8"
      /><path style="stroke:none;" d="M418.9844 118.7031 C418.9375 119.8906 418.1562 120.6562 417.3125 120.6562 C416.2656 120.6562 415.5 119.6875 415.5 117.7188 C415.5 116.2812 416.1562 115.1562 417.3438 115.1562 C418.1406 115.1562 418.7812 115.6875 419.0938 116.6406 L418.9844 118.7031 ZM420.9062 120.2812 C420.7344 120.375 420.5469 120.4219 420.3438 120.4219 C419.9531 120.4219 419.75 120.2188 419.75 119.4219 C419.75 118.4844 419.9688 116.5312 420.1875 114.8281 L420.0312 114.7188 L419.2344 114.9219 L419.1406 115.7969 C418.7812 115.0312 418.1562 114.6562 417.3906 114.6562 C416.0469 114.6562 414.5625 115.8438 414.5625 117.9531 C414.5625 120.0938 415.7188 121.1719 417.1406 121.1719 C418.0156 121.1719 418.6875 120.8125 419.0938 119.9844 C419.2031 120.8594 419.5156 121.1719 420.0156 121.1719 C420.4688 121.1719 420.7969 120.9062 421.0156 120.5625 L420.9062 120.2812 Z"
      /><rect x="424" y="86" width="6" style="fill:white; stroke:none;" height="10"
      /><path style="stroke:none;" d="M427.3438 95.6875 C426.2031 95.6875 425.5312 94.5 425.5312 92.2969 C425.5312 92.2188 425.5312 92.125 425.5312 92.0469 C426.0938 91.5 426.7188 91.3125 427.3438 91.3125 C428.3125 91.3125 428.9531 91.9844 428.9531 93.4531 C428.9531 94.9375 428.3125 95.6875 427.3438 95.6875 ZM429.5312 87.0781 C426.3438 87.4531 424.5625 89.7656 424.5625 92.4531 C424.5625 94.7812 425.6094 96.1719 427.3125 96.1719 C428.8438 96.1719 429.9219 95.1094 429.9219 93.2812 C429.9219 91.6875 428.9688 90.6562 427.5625 90.6562 C426.8281 90.6562 426.1406 90.9844 425.5781 91.5781 C425.7969 89.4062 427.0781 87.9688 429.5938 87.3906 L429.5312 87.0781 Z"
      /><rect x="407" y="79" width="8" style="fill:white; stroke:none;" height="8"
      /><path style="stroke:none;" d="M411.9844 84.7031 C411.9375 85.8906 411.1562 86.6562 410.3125 86.6562 C409.2656 86.6562 408.5 85.6875 408.5 83.7188 C408.5 82.2812 409.1562 81.1562 410.3438 81.1562 C411.1406 81.1562 411.7812 81.6875 412.0938 82.6406 L411.9844 84.7031 ZM413.9062 86.2812 C413.7344 86.375 413.5469 86.4219 413.3438 86.4219 C412.9531 86.4219 412.75 86.2188 412.75 85.4219 C412.75 84.4844 412.9688 82.5312 413.1875 80.8281 L413.0312 80.7188 L412.2344 80.9219 L412.1406 81.7969 C411.7812 81.0312 411.1562 80.6562 410.3906 80.6562 C409.0469 80.6562 407.5625 81.8438 407.5625 83.9531 C407.5625 86.0938 408.7188 87.1719 410.1406 87.1719 C411.0156 87.1719 411.6875 86.8125 412.0938 85.9844 C412.2031 86.8594 412.5156 87.1719 413.0156 87.1719 C413.4688 87.1719 413.7969 86.9062 414.0156 86.5625 L413.9062 86.2812 Z"
      /><rect x="478" y="96" width="7" style="fill:white; stroke:none;" height="9"
      /><path style="stroke:none;" d="M479 101.5156 L481.9531 97.2656 L481.9531 101.5156 L479 101.5156 ZM484.2812 101.5156 L482.8594 101.5156 L482.8594 96.125 L482.2344 96.125 L478.3438 101.6406 L478.3438 102.1875 L481.9531 102.1875 L481.9531 105 L482.8594 105 L482.8594 102.1875 L484.2812 102.1875 L484.2812 101.5156 Z"
      /><rect x="465" y="94" width="6" style="fill:white; stroke:none;" height="13"
      /><path style="stroke:none;" d="M467.0938 100.2031 C467.0938 98.6562 467.75 97.8125 468.7969 97.8125 C469.7188 97.8125 470.2656 98.4531 470.2656 99.5156 C470.2656 100.7188 469.5 101.4375 468.1875 101.7031 L468.2969 102.3125 C470.2188 102.2344 470.9375 103.2188 470.9375 104.4375 C470.9375 105.625 470.2344 106.4219 468.9531 106.4219 C468.25 106.4219 467.6562 106.1562 467.0938 105.7188 L467.0938 100.2031 ZM466.2031 106.9062 L466.1094 109.375 L466.2656 109.4844 L467.1562 109.2656 L467.0156 106.0938 C467.5469 106.8438 468.3594 107.1719 469.1719 107.1719 C470.5625 107.1719 471.8594 106.2188 471.8594 104.4844 C471.8594 102.9531 470.875 102.1094 469.125 102 C470.5625 101.6094 471.1875 100.4531 471.1875 99.4844 C471.1875 98.0938 470.1562 97.3125 468.9062 97.3125 C467.2969 97.3125 466.2188 98.5469 466.2188 100.5156 L466.2031 106.9062 Z"
      /><polygon style="fill:white; clip-path:url(#clipPath11); stroke:none;" points=" 553 52 542 30 564 30"
      /><rect x="542" y="30" width="22" style="clip-path:url(#clipPath11); fill:rgb(237,28,36); stroke:none;" height="22"
      /><rect x="542" y="30" width="22" style="fill:none; clip-path:url(#clipPath11);" height="22"
      /><polygon style="fill:none;" points=" 553 52 542 30 564 30"
      /><rect x="530" y="96" width="7" style="fill:white; stroke:none;" height="9"
      /><path style="stroke:none;" d="M531 101.5156 L533.9531 97.2656 L533.9531 101.5156 L531 101.5156 ZM536.2812 101.5156 L534.8594 101.5156 L534.8594 96.125 L534.2344 96.125 L530.3438 101.6406 L530.3438 102.1875 L533.9531 102.1875 L533.9531 105 L534.8594 105 L534.8594 102.1875 L536.2812 102.1875 L536.2812 101.5156 Z"
      /><rect x="517" y="94" width="6" style="fill:white; stroke:none;" height="13"
      /><path style="stroke:none;" d="M519.0938 100.2031 C519.0938 98.6562 519.75 97.8125 520.7969 97.8125 C521.7188 97.8125 522.2656 98.4531 522.2656 99.5156 C522.2656 100.7188 521.5 101.4375 520.1875 101.7031 L520.2969 102.3125 C522.2188 102.2344 522.9375 103.2188 522.9375 104.4375 C522.9375 105.625 522.2344 106.4219 520.9531 106.4219 C520.25 106.4219 519.6562 106.1562 519.0938 105.7188 L519.0938 100.2031 ZM518.2031 106.9062 L518.1094 109.375 L518.2656 109.4844 L519.1562 109.2656 L519.0156 106.0938 C519.5469 106.8438 520.3594 107.1719 521.1719 107.1719 C522.5625 107.1719 523.8594 106.2188 523.8594 104.4844 C523.8594 102.9531 522.875 102.1094 521.125 102 C522.5625 101.6094 523.1875 100.4531 523.1875 99.4844 C523.1875 98.0938 522.1562 97.3125 520.9062 97.3125 C519.2969 97.3125 518.2188 98.5469 518.2188 100.5156 L518.2031 106.9062 Z"
      /><rect x="542" y="69" width="6" style="fill:white; stroke:none;" height="10"
      /><path style="stroke:none;" d="M545.3438 78.6875 C544.2031 78.6875 543.5312 77.5 543.5312 75.2969 C543.5312 75.2188 543.5312 75.125 543.5312 75.0469 C544.0938 74.5 544.7188 74.3125 545.3438 74.3125 C546.3125 74.3125 546.9531 74.9844 546.9531 76.4531 C546.9531 77.9375 546.3125 78.6875 545.3438 78.6875 ZM547.5312 70.0781 C544.3438 70.4531 542.5625 72.7656 542.5625 75.4531 C542.5625 77.7812 543.6094 79.1719 545.3125 79.1719 C546.8438 79.1719 547.9219 78.1094 547.9219 76.2812 C547.9219 74.6875 546.9688 73.6562 545.5625 73.6562 C544.8281 73.6562 544.1406 73.9844 543.5781 74.5781 C543.7969 72.4062 545.0781 70.9688 547.5938 70.3906 L547.5312 70.0781 Z"
      /><rect x="541" y="56" width="8" style="fill:white; stroke:none;" height="8"
      /><path style="stroke:none;" d="M545.9844 61.7031 C545.9375 62.8906 545.1562 63.6562 544.3125 63.6562 C543.2656 63.6562 542.5 62.6875 542.5 60.7188 C542.5 59.2812 543.1562 58.1562 544.3438 58.1562 C545.1406 58.1562 545.7812 58.6875 546.0938 59.6406 L545.9844 61.7031 ZM547.9062 63.2812 C547.7344 63.375 547.5469 63.4219 547.3438 63.4219 C546.9531 63.4219 546.75 63.2188 546.75 62.4219 C546.75 61.4844 546.9688 59.5312 547.1875 57.8281 L547.0312 57.7188 L546.2344 57.9219 L546.1406 58.7969 C545.7812 58.0312 545.1562 57.6562 544.3906 57.6562 C543.0469 57.6562 541.5625 58.8438 541.5625 60.9531 C541.5625 63.0938 542.7188 64.1719 544.1406 64.1719 C545.0156 64.1719 545.6875 63.8125 546.0938 62.9844 C546.2031 63.8594 546.5156 64.1719 547.0156 64.1719 C547.4688 64.1719 547.7969 63.9062 548.0156 63.5625 L547.9062 63.2812 Z"
      /><rect x="569" y="96" width="5" style="fill:white; stroke:none;" height="10"
      /><path style="stroke:none;" d="M570.8906 104.6875 C570.4844 104.6875 570.1562 105.0469 570.1562 105.4219 C570.1562 105.8125 570.4844 106.1562 570.8906 106.1562 C571.2969 106.1562 571.6406 105.8125 571.6406 105.4219 C571.6406 105.0469 571.2969 104.6875 570.8906 104.6875 ZM572.4688 98.5781 C572.7188 98.8906 572.875 99.2656 572.8906 99.6562 C572.8906 100.1875 572.625 100.5 572.0312 100.7656 L571.4062 101.0156 C570.6406 101.3125 570.3906 101.5469 570.3906 101.9375 C570.3906 102.1094 570.4531 102.3438 570.5781 102.8125 L570.7344 103.3438 L571.1094 103.3438 L571.0938 102.5312 C571.0938 102.0938 571.2031 101.9688 571.7812 101.7344 L572.2031 101.5625 C573.0312 101.2188 573.4531 100.6875 573.4531 99.8438 C573.4531 98.1562 571.6562 97.1875 570.5 97.0312 C570.1094 97.125 569.9062 97.2969 569.9062 97.6406 C569.9062 97.9375 570.0625 98.1562 570.7188 98.2656 L572.4688 98.5781 Z"
      /><polygon style="fill:none;" points=" 230 182 219 182 219 30 230 30 219 30 219 182"
      /><polygon style="fill:none;" points=" 197 106 145 106"
      /><polygon style="fill:none;" points=" 145 106 145 158"
      /><polygon style="fill:none;" points=" 145 106 93 106"
      /><rect x="134" y="95" width="22" style="clip-path:url(#clipPath12); fill:white; stroke:none;" height="22"
      /><rect x="134" y="95" width="22" style="clip-path:url(#clipPath12); fill:rgb(0,144,188); stroke:none;" height="22"
      /><rect x="134" y="95" width="22" style="fill:none; clip-path:url(#clipPath12);" height="22"
      /><rect x="134" width="22" height="22" y="95" style="fill:none;"
      /><polygon style="fill:white; clip-path:url(#clipPath13); stroke:none;" points=" 145 147 156 169 134 169"
      /><rect x="134" y="147" width="22" style="clip-path:url(#clipPath13); fill:rgb(237,28,36); stroke:none;" height="22"
      /><rect x="134" y="147" width="22" style="fill:none; clip-path:url(#clipPath13);" height="22"
      /><polygon style="fill:none;" points=" 145 147 156 169 134 169"
      /><polygon style="fill:none;" points=" 93 106 41 106"
      /><circle style="fill:white; clip-path:url(#clipPath14); stroke:none;" r="11" cx="93" cy="106"
      /><rect x="82" y="95" width="22" style="clip-path:url(#clipPath14); fill:rgb(255,212,0); stroke:none;" height="22"
      /><rect x="82" y="95" width="22" style="fill:none; clip-path:url(#clipPath14);" height="22"
      /><circle r="11" style="fill:none;" cx="93" cy="106"
      /><polygon style="fill:white; clip-path:url(#clipPath15); stroke:none;" points=" 41 95 52 106 41 117 30 106"
      /><rect x="30" y="95" width="22" style="clip-path:url(#clipPath15); fill:rgb(165,67,153); stroke:none;" height="22"
      /><rect x="30" y="95" width="22" style="fill:none; clip-path:url(#clipPath15);" height="22"
      /><polygon style="fill:none;" points=" 41 95 52 106 41 117 30 106"
      /><rect x="66" y="107" width="16" style="fill:white; stroke:none;" height="13"
      /><path style="stroke:none;" d="M68.2344 111.6562 C68.5156 111.5938 68.7656 111.5625 69.0156 111.5625 C70.0625 111.5625 70.6719 112.1719 70.6719 113.2656 C70.6719 114.4375 69.9062 115.1094 68.7031 115.1094 L68.1875 115.1094 L68.1875 115.6406 L68.7969 115.6406 C70.2188 115.6406 70.9062 116.4219 70.9062 117.6406 C70.9062 118.8438 70.1719 119.6875 68.875 119.6875 C68.6094 119.6875 68.3125 119.6562 68.0156 119.5625 L67.7812 118.8125 C67.625 118.2812 67.5 118.0469 67.1406 118.0469 C66.8906 118.0469 66.7031 118.1719 66.5781 118.4219 C66.8438 119.6406 67.7812 120.1719 69.0312 120.1719 C70.7188 120.1719 71.875 119.125 71.875 117.7031 C71.875 116.5 71.2031 115.625 69.7969 115.375 C70.9531 115.0156 71.6094 114.2031 71.6094 113.2031 C71.6094 111.9219 70.6719 111.0781 69.1875 111.0781 C68.0469 111.0781 67.0625 111.5938 66.7969 112.6875 C66.9062 113 67.1094 113.1094 67.3594 113.1094 C67.7344 113.1094 67.8906 112.8906 68 112.4062 L68.2344 111.6562 ZM72.4993 122.0938 L73.1087 122.0938 L76.6087 110.7344 L75.9837 110.7344 L72.4993 122.0938 ZM79.9878 119.6875 C78.8472 119.6875 78.1753 118.5 78.1753 116.2969 C78.1753 116.2188 78.1753 116.125 78.1753 116.0469 C78.7378 115.5 79.3628 115.3125 79.9878 115.3125 C80.9566 115.3125 81.5972 115.9844 81.5972 117.4531 C81.5972 118.9375 80.9566 119.6875 79.9878 119.6875 ZM82.1753 111.0781 C78.9878 111.4531 77.2066 113.7656 77.2066 116.4531 C77.2066 118.7812 78.2534 120.1719 79.9566 120.1719 C81.4878 120.1719 82.5659 119.1094 82.5659 117.2812 C82.5659 115.6875 81.6128 114.6562 80.2066 114.6562 C79.4722 114.6562 78.7847 114.9844 78.2222 115.5781 C78.4409 113.4062 79.7222 111.9688 82.2378 111.3906 L82.1753 111.0781 Z"
      /><rect x="56" y="110" width="8" style="fill:white; stroke:none;" height="8"
      /><path style="stroke:none;" d="M60.9844 115.7031 C60.9375 116.8906 60.1562 117.6562 59.3125 117.6562 C58.2656 117.6562 57.5 116.6875 57.5 114.7188 C57.5 113.2812 58.1562 112.1562 59.3438 112.1562 C60.1406 112.1562 60.7812 112.6875 61.0938 113.6406 L60.9844 115.7031 ZM62.9062 117.2812 C62.7344 117.375 62.5469 117.4219 62.3438 117.4219 C61.9531 117.4219 61.75 117.2188 61.75 116.4219 C61.75 115.4844 61.9688 113.5312 62.1875 111.8281 L62.0312 111.7188 L61.2344 111.9219 L61.1406 112.7969 C60.7812 112.0312 60.1562 111.6562 59.3906 111.6562 C58.0469 111.6562 56.5625 112.8438 56.5625 114.9531 C56.5625 117.0938 57.7188 118.1719 59.1406 118.1719 C60.0156 118.1719 60.6875 117.8125 61.0938 116.9844 C61.2031 117.8594 61.5156 118.1719 62.0156 118.1719 C62.4688 118.1719 62.7969 117.9062 63.0156 117.5625 L62.9062 117.2812 Z"
      /><rect x="150" y="120" width="6" style="fill:white; stroke:none;" height="10"
      /><path style="stroke:none;" d="M152.2344 121.6562 C152.5156 121.5938 152.7656 121.5625 153.0156 121.5625 C154.0625 121.5625 154.6719 122.1719 154.6719 123.2656 C154.6719 124.4375 153.9062 125.1094 152.7031 125.1094 L152.1875 125.1094 L152.1875 125.6406 L152.7969 125.6406 C154.2188 125.6406 154.9062 126.4219 154.9062 127.6406 C154.9062 128.8438 154.1719 129.6875 152.875 129.6875 C152.6094 129.6875 152.3125 129.6562 152.0156 129.5625 L151.7812 128.8125 C151.625 128.2812 151.5 128.0469 151.1406 128.0469 C150.8906 128.0469 150.7031 128.1719 150.5781 128.4219 C150.8438 129.6406 151.7812 130.1719 153.0312 130.1719 C154.7188 130.1719 155.875 129.125 155.875 127.7031 C155.875 126.5 155.2031 125.625 153.7969 125.375 C154.9531 125.0156 155.6094 124.2031 155.6094 123.2031 C155.6094 121.9219 154.6719 121.0781 153.1875 121.0781 C152.0469 121.0781 151.0625 121.5938 150.7969 122.6875 C150.9062 123 151.1094 123.1094 151.3594 123.1094 C151.7344 123.1094 151.8906 122.8906 152 122.4062 L152.2344 121.6562 Z"
      /><rect x="149" y="135" width="8" style="fill:white; stroke:none;" height="8"
      /><path style="stroke:none;" d="M153.9844 140.7031 C153.9375 141.8906 153.1562 142.6562 152.3125 142.6562 C151.2656 142.6562 150.5 141.6875 150.5 139.7188 C150.5 138.2812 151.1562 137.1562 152.3438 137.1562 C153.1406 137.1562 153.7812 137.6875 154.0938 138.6406 L153.9844 140.7031 ZM155.9062 142.2812 C155.7344 142.375 155.5469 142.4219 155.3438 142.4219 C154.9531 142.4219 154.75 142.2188 154.75 141.4219 C154.75 140.4844 154.9688 138.5312 155.1875 136.8281 L155.0312 136.7188 L154.2344 136.9219 L154.1406 137.7969 C153.7812 137.0312 153.1562 136.6562 152.3906 136.6562 C151.0469 136.6562 149.5625 137.8438 149.5625 139.9531 C149.5625 142.0938 150.7188 143.1719 152.1406 143.1719 C153.0156 143.1719 153.6875 142.8125 154.0938 141.9844 C154.2031 142.8594 154.5156 143.1719 155.0156 143.1719 C155.4688 143.1719 155.7969 142.9062 156.0156 142.5625 L155.9062 142.2812 Z"
      /><rect x="122" y="109" width="7" style="fill:white; stroke:none;" height="9"
      /><path style="stroke:none;" d="M123 114.5156 L125.9531 110.2656 L125.9531 114.5156 L123 114.5156 ZM128.2812 114.5156 L126.8594 114.5156 L126.8594 109.125 L126.2344 109.125 L122.3438 114.6406 L122.3438 115.1875 L125.9531 115.1875 L125.9531 118 L126.8594 118 L126.8594 115.1875 L128.2812 115.1875 L128.2812 114.5156 Z"
      /><rect x="109" y="107" width="6" style="fill:white; stroke:none;" height="13"
      /><path style="stroke:none;" d="M111.0938 113.2031 C111.0938 111.6562 111.75 110.8125 112.7969 110.8125 C113.7188 110.8125 114.2656 111.4531 114.2656 112.5156 C114.2656 113.7188 113.5 114.4375 112.1875 114.7031 L112.2969 115.3125 C114.2188 115.2344 114.9375 116.2188 114.9375 117.4375 C114.9375 118.625 114.2344 119.4219 112.9531 119.4219 C112.25 119.4219 111.6562 119.1562 111.0938 118.7188 L111.0938 113.2031 ZM110.2031 119.9062 L110.1094 122.375 L110.2656 122.4844 L111.1562 122.2656 L111.0156 119.0938 C111.5469 119.8438 112.3594 120.1719 113.1719 120.1719 C114.5625 120.1719 115.8594 119.2188 115.8594 117.4844 C115.8594 115.9531 114.875 115.1094 113.125 115 C114.5625 114.6094 115.1875 113.4531 115.1875 112.4844 C115.1875 111.0938 114.1562 110.3125 112.9062 110.3125 C111.2969 110.3125 110.2188 111.5469 110.2188 113.5156 L110.2031 119.9062 Z"
      /><rect x="170" y="107" width="16" style="fill:white; stroke:none;" height="13"
      /><path style="stroke:none;" d="M171 116.5156 L173.9531 112.2656 L173.9531 116.5156 L171 116.5156 ZM176.2812 116.5156 L174.8594 116.5156 L174.8594 111.125 L174.2344 111.125 L170.3438 116.6406 L170.3438 117.1875 L173.9531 117.1875 L173.9531 120 L174.8594 120 L174.8594 117.1875 L176.2812 117.1875 L176.2812 116.5156 ZM176.4993 122.0938 L177.1087 122.0938 L180.6087 110.7344 L179.9837 110.7344 L176.4993 122.0938 ZM183.9878 119.6875 C182.8472 119.6875 182.1753 118.5 182.1753 116.2969 C182.1753 116.2188 182.1753 116.125 182.1753 116.0469 C182.7378 115.5 183.3628 115.3125 183.9878 115.3125 C184.9566 115.3125 185.5972 115.9844 185.5972 117.4531 C185.5972 118.9375 184.9566 119.6875 183.9878 119.6875 ZM186.1753 111.0781 C182.9878 111.4531 181.2066 113.7656 181.2066 116.4531 C181.2066 118.7812 182.2534 120.1719 183.9566 120.1719 C185.4878 120.1719 186.5659 119.1094 186.5659 117.2812 C186.5659 115.6875 185.6128 114.6562 184.2066 114.6562 C183.4722 114.6562 182.7847 114.9844 182.2222 115.5781 C182.4409 113.4062 183.7222 111.9688 186.2378 111.3906 L186.1753 111.0781 Z"
      /><rect x="161" y="107" width="6" style="fill:white; stroke:none;" height="13"
      /><path style="stroke:none;" d="M163.0938 113.2031 C163.0938 111.6562 163.75 110.8125 164.7969 110.8125 C165.7188 110.8125 166.2656 111.4531 166.2656 112.5156 C166.2656 113.7188 165.5 114.4375 164.1875 114.7031 L164.2969 115.3125 C166.2188 115.2344 166.9375 116.2188 166.9375 117.4375 C166.9375 118.625 166.2344 119.4219 164.9531 119.4219 C164.25 119.4219 163.6562 119.1562 163.0938 118.7188 L163.0938 113.2031 ZM162.2031 119.9062 L162.1094 122.375 L162.2656 122.4844 L163.1562 122.2656 L163.0156 119.0938 C163.5469 119.8438 164.3594 120.1719 165.1719 120.1719 C166.5625 120.1719 167.8594 119.2188 167.8594 117.4844 C167.8594 115.9531 166.875 115.1094 165.125 115 C166.5625 114.6094 167.1875 113.4531 167.1875 112.4844 C167.1875 111.0938 166.1562 110.3125 164.9062 110.3125 C163.2969 110.3125 162.2188 111.5469 162.2188 113.5156 L162.2031 119.9062 Z"
    /></g
  ></g
></svg
>
