<?xml version="1.0"?>
<!DOCTYPE svg PUBLIC '-//W3C//DTD SVG 1.0//EN'
          'http://www.w3.org/TR/2001/REC-SVG-20010904/DTD/svg10.dtd'>
<svg xmlns:xlink="http://www.w3.org/1999/xlink" style="fill-opacity:1; color-rendering:auto; color-interpolation:auto; text-rendering:auto; stroke:black; stroke-linecap:square; stroke-miterlimit:10; shape-rendering:auto; stroke-opacity:1; fill:black; stroke-dasharray:none; font-weight:normal; stroke-width:1; font-family:'Dialog'; font-style:normal; stroke-linejoin:miter; font-size:12px; stroke-dashoffset:0; image-rendering:auto;" viewBox="0 0 200 105" xmlns="http://www.w3.org/2000/svg"
><!--Generated by the Batik Graphics2D SVG Generator--><defs id="genericDefs"
  /><g
  ><defs id="defs1"
    ><clipPath clipPathUnits="userSpaceOnUse" id="clipPath1"
      ><path d="M96 53 L118 53 L118 75 L96 75 L96 53 Z"
      /></clipPath
      ><clipPath clipPathUnits="userSpaceOnUse" id="clipPath2"
      ><path style="fill-rule:evenodd;" d="M48 53 L58 60 L54 72 L41 72 L37 60 L48 53 Z"
      /></clipPath
    ></defs
    ><g style="fill:white; text-rendering:optimizeSpeed; stroke:white;"
    ><rect x="0" width="200" height="105" y="0" style="stroke:none;"
      /><polygon style="fill:none; stroke:black;" points=" 159 64 107 64"
      /><path d="M159 53 C153.5 58.5 164.5 69.5 159 75" style="fill:none; stroke:black;"
      /><polygon style="fill:none; stroke:black;" points=" 107 64 48 64"
      /><rect x="96" y="53" width="22" style="clip-path:url(#clipPath1); stroke:none;" height="22"
      /><rect x="96" y="53" width="22" style="clip-path:url(#clipPath1); fill:rgb(0,144,188); stroke:none;" height="22"
      /><rect x="96" y="53" width="22" style="clip-path:url(#clipPath1); fill:none; stroke:black;" height="22"
      /><rect x="96" y="53" width="22" style="fill:none; stroke:black;" height="22"
      /><polygon style="clip-path:url(#clipPath2); stroke:none;" points=" 48 53 58 60 54 72 41 72 37 60 48 53"
      /><rect x="37" y="53" width="22" style="clip-path:url(#clipPath2); stroke:none;" height="22"
      /><rect x="37" y="53" width="22" style="clip-path:url(#clipPath2); fill:none; stroke:black;" height="22"
      /><polygon style="fill:none; stroke:black;" points=" 48 53 58 60 54 72 41 72 37 60 48 53"
    /></g
    ><g style="text-rendering:optimizeSpeed; font-size:14px; font-family:'SansSerif';"
    ><path style="stroke:none;" d="M46.2344 69 L51.8594 69 L51.8594 67.9375 L49.7969 67.9375 L49.7969 58.7188 L48.8281 58.7188 C48.2656 59.0625 47.6094 59.2969 46.6875 59.4688 L46.6875 60.2812 L48.5156 60.2812 L48.5156 67.9375 L46.2344 67.9375 L46.2344 69 Z"
      /><rect x="30" y="34" width="34" style="fill:white; stroke:none;" height="12"
      /><path style="stroke:none;" d="M33.6562 47.1875 C35.3906 47.1875 37.0156 45.9062 37.0156 43.6562 C37.0156 41.4062 35.625 40.3906 33.9219 40.3906 C33.2969 40.3906 32.8594 40.5469 32.3906 40.7969 L32.6406 37.8281 L36.5312 37.8281 L36.5312 36.7188 L31.5312 36.7188 L31.2031 41.5469 L31.8906 41.9531 C32.4844 41.5625 32.9062 41.3594 33.5938 41.3594 C34.8906 41.3594 35.7188 42.2188 35.7188 43.7031 C35.7188 45.1875 34.75 46.125 33.5469 46.125 C32.3594 46.125 31.6094 45.5781 31.0156 44.9844 L30.3906 45.8281 C31.0781 46.5156 32.0625 47.1875 33.6562 47.1875 ZM38.8168 49.6562 C40.0825 49.125 40.8637 48.0781 40.8637 46.7344 C40.8637 45.7969 40.4575 45.2188 39.7856 45.2188 C39.27 45.2188 38.8168 45.5781 38.8168 46.125 C38.8168 46.7031 39.27 47.0156 39.7543 47.0156 C39.8168 47.0156 39.8637 47.0156 39.9106 47 C39.9106 47.8281 39.395 48.5156 38.5043 48.9062 L38.8168 49.6562 ZM43.2713 43.1562 L45.6151 39.6562 C45.8963 39.1406 46.1776 38.6406 46.4432 38.1406 L46.4901 38.1406 C46.4588 38.6719 46.4276 39.5 46.4276 40 L46.4276 43.1562 L43.2713 43.1562 ZM46.4276 47 L47.6307 47 L47.6307 44.1719 L48.9901 44.1719 L48.9901 43.1562 L47.6307 43.1562 L47.6307 36.7188 L46.2088 36.7188 L41.9432 43.3281 L41.9432 44.1719 L46.4276 44.1719 L46.4276 47 ZM53.7913 47.1875 C54.8226 47.1875 55.6351 46.8281 56.3069 46.3906 L55.8382 45.5625 C55.2913 45.9375 54.6819 46.1562 53.9476 46.1562 C52.4944 46.1562 51.5101 45.125 51.4163 43.5 L56.5413 43.5 C56.5726 43.3125 56.6038 43.0469 56.6038 42.7656 C56.6038 40.6094 55.5101 39.2031 53.5726 39.2031 C51.8069 39.2031 50.1507 40.7344 50.1507 43.2031 C50.1507 45.7188 51.7757 47.1875 53.7913 47.1875 ZM51.4007 42.5781 C51.5569 41.0938 52.5101 40.2188 53.5882 40.2188 C54.7757 40.2188 55.4788 41.0469 55.4788 42.5781 L51.4007 42.5781 ZM58.4691 47 L59.7504 47 L59.7504 41.4844 C60.516 40.7188 61.0473 40.3281 61.8285 40.3281 C62.8441 40.3281 63.2816 40.9219 63.2816 42.3594 L63.2816 47 L64.5473 47 L64.5473 42.1875 C64.5473 40.2344 63.8285 39.2031 62.2348 39.2031 C61.1879 39.2031 60.4066 39.7812 59.6723 40.4844 L59.641 40.4844 L59.5316 39.3906 L58.4691 39.3906 L58.4691 47 Z"
    /></g
    ><g style="fill:white; text-rendering:optimizeSpeed; font-family:'Serif'; stroke:white;"
    ><rect x="84" width="7" height="9" y="67" style="stroke:none;"
      /><path d="M85 72.5156 L87.9531 68.2656 L87.9531 72.5156 L85 72.5156 ZM90.2812 72.5156 L88.8594 72.5156 L88.8594 67.125 L88.2344 67.125 L84.3438 72.6406 L84.3438 73.1875 L87.9531 73.1875 L87.9531 76 L88.8594 76 L88.8594 73.1875 L90.2812 73.1875 L90.2812 72.5156 Z" style="fill:black; stroke:none;"
      /><rect x="70" width="8" height="8" y="68" style="stroke:none;"
      /><path d="M74.9844 73.7031 C74.9375 74.8906 74.1562 75.6562 73.3125 75.6562 C72.2656 75.6562 71.5 74.6875 71.5 72.7188 C71.5 71.2812 72.1562 70.1562 73.3438 70.1562 C74.1406 70.1562 74.7812 70.6875 75.0938 71.6406 L74.9844 73.7031 ZM76.9062 75.2812 C76.7344 75.375 76.5469 75.4219 76.3438 75.4219 C75.9531 75.4219 75.75 75.2188 75.75 74.4219 C75.75 73.4844 75.9688 71.5312 76.1875 69.8281 L76.0312 69.7188 L75.2344 69.9219 L75.1406 70.7969 C74.7812 70.0312 74.1562 69.6562 73.3906 69.6562 C72.0469 69.6562 70.5625 70.8438 70.5625 72.9531 C70.5625 75.0938 71.7188 76.1719 73.1406 76.1719 C74.0156 76.1719 74.6875 75.8125 75.0938 74.9844 C75.2031 75.8594 75.5156 76.1719 76.0156 76.1719 C76.4688 76.1719 76.7969 75.9062 77.0156 75.5625 L76.9062 75.2812 Z" style="fill:black; stroke:none;"
      /><rect x="122" width="8" height="8" y="68" style="stroke:none;"
      /><path d="M126.9844 73.7031 C126.9375 74.8906 126.1562 75.6562 125.3125 75.6562 C124.2656 75.6562 123.5 74.6875 123.5 72.7188 C123.5 71.2812 124.1562 70.1562 125.3438 70.1562 C126.1406 70.1562 126.7812 70.6875 127.0938 71.6406 L126.9844 73.7031 ZM128.9062 75.2812 C128.7344 75.375 128.5469 75.4219 128.3438 75.4219 C127.9531 75.4219 127.75 75.2188 127.75 74.4219 C127.75 73.4844 127.9688 71.5312 128.1875 69.8281 L128.0312 69.7188 L127.2344 69.9219 L127.1406 70.7969 C126.7812 70.0312 126.1562 69.6562 125.3906 69.6562 C124.0469 69.6562 122.5625 70.8438 122.5625 72.9531 C122.5625 75.0938 123.7188 76.1719 125.1406 76.1719 C126.0156 76.1719 126.6875 75.8125 127.0938 74.9844 C127.2031 75.8594 127.5156 76.1719 128.0156 76.1719 C128.4688 76.1719 128.7969 75.9062 129.0156 75.5625 L128.9062 75.2812 Z" style="fill:black; stroke:none;"
    /></g
    ><g ID="legend-1:0" style="text-rendering:optimizeSpeed; font-size:10px; font-family:'SansSerif';"
    ><path style="stroke:none;" d="M30.875 90 L34.9062 90 L34.9062 89.2344 L33.4375 89.2344 L33.4375 82.6562 L32.7344 82.6562 C32.3281 82.9062 31.8594 83.0625 31.2031 83.1875 L31.2031 83.7656 L32.5156 83.7656 L32.5156 89.2344 L30.875 89.2344 L30.875 90 ZM35.925 85.4531 L40.7219 85.4531 L40.7219 84.7656 L35.925 84.7656 L35.925 85.4531 ZM35.925 87.8438 L40.7219 87.8438 L40.7219 87.1719 L35.925 87.1719 L35.925 87.8438 ZM43.7094 90.125 C44.4125 90.125 44.975 89.7656 45.3969 89.0312 L45.4281 89.0312 C45.4125 89.7969 45.85 90.125 46.5062 90.125 C46.8187 90.125 47.0375 90.0625 47.1937 89.9844 L47.0531 89.2969 C46.9437 89.3438 46.8031 89.375 46.6937 89.375 C46.3969 89.375 46.1469 89.1875 46.1469 88.8125 C46.1469 87.8125 46.5375 86 46.8344 84.5625 L45.9281 84.5625 L45.6937 85.8594 L45.6625 85.8594 C45.3656 84.8125 44.6625 84.4375 43.9906 84.4375 C42.7406 84.4375 41.6156 85.5156 41.6156 87.375 C41.6156 89.1562 42.475 90.125 43.7094 90.125 ZM43.8969 89.375 C43.0531 89.375 42.5531 88.6406 42.5531 87.375 C42.5531 85.9375 43.3031 85.2031 44.0844 85.2031 C44.6 85.2031 45.1625 85.4688 45.4594 86.6562 L45.3812 87.6875 C45.3031 88.5938 44.6156 89.375 43.8969 89.375 ZM47.8031 87.5469 L50.3656 87.5469 L50.3656 86.8438 L47.8031 86.8438 L47.8031 87.5469 ZM51.82 90 L55.945 90 L55.945 89.2031 L52.7575 89.2031 L52.7575 82.6562 L51.82 82.6562 L51.82 90 ZM56.7031 87.5469 L59.2656 87.5469 L59.2656 86.8438 L56.7031 86.8438 L56.7031 87.5469 ZM62.345 90.125 C62.6731 90.125 63.0325 90.0312 63.345 89.9375 L63.1731 89.25 C62.9856 89.3125 62.7356 89.3906 62.5481 89.3906 C61.9231 89.3906 61.7043 89.0156 61.7043 88.3438 L61.7043 85.3125 L63.1731 85.3125 L63.1731 84.5625 L61.7043 84.5625 L61.7043 83.0469 L60.9543 83.0469 L60.845 84.5625 L59.9856 84.625 L59.9856 85.3125 L60.7981 85.3125 L60.7981 88.3125 C60.7981 89.4062 61.1887 90.125 62.345 90.125 ZM64.4118 90 L65.3181 90 L65.3181 86.0625 C65.865 85.5156 66.2556 85.2344 66.8025 85.2344 C67.5368 85.2344 67.8337 85.6562 67.8337 86.6875 L67.8337 90 L68.7556 90 L68.7556 86.5625 C68.7556 85.1719 68.2243 84.4375 67.0837 84.4375 C66.3493 84.4375 65.7868 84.8438 65.2868 85.3438 L65.3181 84.2188 L65.3181 82.0469 L64.4118 82.0469 L64.4118 90 ZM70.4818 90 L71.3881 90 L71.3881 86.5156 C71.7475 85.5781 72.31 85.2656 72.7631 85.2656 C72.9818 85.2656 73.1068 85.2812 73.2943 85.3438 L73.4662 84.5469 C73.2943 84.4531 73.1225 84.4375 72.8725 84.4375 C72.2631 84.4375 71.7162 84.875 71.3412 85.5625 L71.31 85.5625 L71.2318 84.5625 L70.4818 84.5625 L70.4818 90 ZM74.4399 90 L75.3774 90 L75.3774 86.5469 L78.7837 86.5469 L78.7837 90 L79.7056 90 L79.7056 82.6562 L78.7837 82.6562 L78.7837 85.7344 L75.3774 85.7344 L75.3774 82.6562 L74.4399 82.6562 L74.4399 90 ZM83.8293 90.125 C84.5637 90.125 85.1574 89.875 85.6262 89.5625 L85.2981 88.9688 C84.9074 89.2344 84.4699 89.4062 83.9387 89.4062 C82.9074 89.4062 82.2043 88.6562 82.1418 87.5 L85.7981 87.5 C85.8137 87.375 85.8449 87.1875 85.8449 86.9844 C85.8449 85.4375 85.0637 84.4375 83.6731 84.4375 C82.4231 84.4375 81.2356 85.5312 81.2356 87.2969 C81.2356 89.0781 82.3918 90.125 83.8293 90.125 ZM82.1262 86.8438 C82.2356 85.7812 82.9231 85.1562 83.6887 85.1562 C84.5324 85.1562 85.0324 85.75 85.0324 86.8438 L82.1262 86.8438 ZM86.4162 90 L87.3693 90 L88.1037 88.7344 C88.2912 88.4062 88.4631 88.0625 88.6662 87.7656 L88.7131 87.7656 C88.9162 88.0625 89.1037 88.4062 89.2912 88.7344 L90.0881 90 L91.0881 90 L89.3068 87.2656 L90.9474 84.5625 L89.9943 84.5625 L89.3224 85.7656 C89.1662 86.0625 89.0099 86.375 88.8381 86.6719 L88.8068 86.6719 C88.6193 86.375 88.4318 86.0625 88.2599 85.7656 L87.5256 84.5625 L86.5568 84.5625 L88.1974 87.1719 L86.4162 90 ZM92.1618 92.2969 L93.0681 92.2969 L93.0681 90.4531 L93.0524 89.5 C93.5368 89.9062 94.0524 90.125 94.5524 90.125 C95.8024 90.125 96.9118 89.0625 96.9118 87.2031 C96.9118 85.5312 96.1462 84.4375 94.7556 84.4375 C94.1149 84.4375 93.5056 84.7969 93.0212 85.1875 L92.9899 85.1875 L92.9118 84.5625 L92.1618 84.5625 L92.1618 92.2969 ZM94.3962 89.375 C94.0368 89.375 93.5524 89.2188 93.0681 88.7969 L93.0681 85.9531 C93.5993 85.4531 94.0681 85.2031 94.5368 85.2031 C95.5524 85.2031 95.9587 86.0156 95.9587 87.2031 C95.9587 88.5625 95.3024 89.375 94.3962 89.375 ZM99.7056 85.9062 C99.9712 85.0625 100.2056 84.2812 100.4399 83.4219 L100.4868 83.4219 C100.7212 84.2656 100.9556 85.0625 101.2212 85.9062 L101.5649 87.0156 L99.3462 87.0156 L99.7056 85.9062 ZM97.4712 90 L98.4087 90 L99.1274 87.7656 L101.7993 87.7656 L102.5024 90 L103.4868 90 L100.9868 82.6562 L99.9556 82.6562 L97.4712 90 ZM104.6662 87.25 L106.3224 84.75 C106.5412 84.3906 106.7443 84.0312 106.9162 83.6719 L106.963 83.6719 C106.9474 84.0469 106.9162 84.6406 106.9162 85 L106.9162 87.25 L104.6662 87.25 ZM106.9162 90 L107.7755 90 L107.7755 87.9844 L108.7443 87.9844 L108.7443 87.25 L107.7755 87.25 L107.7755 82.6562 L106.7599 82.6562 L103.713 87.375 L103.713 87.9844 L106.9162 87.9844 L106.9162 90 ZM111.4505 91.9688 L112.013 91.7031 C111.1537 90.2812 110.7474 88.5938 110.7474 86.8906 C110.7474 85.1875 111.1537 83.5156 112.013 82.0781 L111.4505 81.8125 C110.5287 83.3125 109.9818 84.9375 109.9818 86.8906 C109.9818 88.8594 110.5287 90.4688 111.4505 91.9688 ZM113.4399 90 L117.7836 90 L117.7836 89.2031 L114.3774 89.2031 L114.3774 86.5469 L117.143 86.5469 L117.143 85.75 L114.3774 85.75 L114.3774 83.4531 L117.6743 83.4531 L117.6743 82.6562 L113.4399 82.6562 L113.4399 90 ZM119.3043 91.9688 C120.2418 90.4688 120.7886 88.8594 120.7886 86.8906 C120.7886 84.9375 120.2418 83.3125 119.3043 81.8125 L118.7574 82.0781 C119.6168 83.5156 120.023 85.1875 120.023 86.8906 C120.023 88.5938 119.6168 90.2812 118.7574 91.7031 L119.3043 91.9688 ZM124.8092 90.125 C125.5436 90.125 126.1374 89.875 126.6061 89.5625 L126.278 88.9688 C125.8874 89.2344 125.4499 89.4062 124.9186 89.4062 C123.8874 89.4062 123.1842 88.6562 123.1217 87.5 L126.778 87.5 C126.7936 87.375 126.8249 87.1875 126.8249 86.9844 C126.8249 85.4375 126.0436 84.4375 124.653 84.4375 C123.403 84.4375 122.2155 85.5312 122.2155 87.2969 C122.2155 89.0781 123.3717 90.125 124.8092 90.125 ZM123.1061 86.8438 C123.2155 85.7812 123.903 85.1562 124.6686 85.1562 C125.5124 85.1562 126.0124 85.75 126.0124 86.8438 L123.1061 86.8438 ZM128.1617 90 L129.068 90 L129.068 86.0625 C129.6149 85.5156 130.0055 85.2344 130.5524 85.2344 C131.2867 85.2344 131.5836 85.6562 131.5836 86.6875 L131.5836 90 L132.5055 90 L132.5055 86.5625 C132.5055 85.1719 131.9742 84.4375 130.8336 84.4375 C130.0992 84.4375 129.5367 84.8438 129.0211 85.3438 L128.9899 85.3438 L128.9117 84.5625 L128.1617 84.5625 L128.1617 90 Z"
    /></g
  ></g
></svg
>
