<?xml version="1.0"?>
<!DOCTYPE svg PUBLIC '-//W3C//DTD SVG 1.0//EN'
          'http://www.w3.org/TR/2001/REC-SVG-20010904/DTD/svg10.dtd'>
<svg xmlns:xlink="http://www.w3.org/1999/xlink" style="fill-opacity:1; color-rendering:auto; color-interpolation:auto; text-rendering:auto; stroke:black; stroke-linecap:square; stroke-miterlimit:10; shape-rendering:auto; stroke-opacity:1; fill:black; stroke-dasharray:none; font-weight:normal; stroke-width:1; font-family:'Dialog'; font-style:normal; stroke-linejoin:miter; font-size:12px; stroke-dashoffset:0; image-rendering:auto;" viewBox="0 0 134 105" xmlns="http://www.w3.org/2000/svg"
><!--Generated by the Batik Graphics2D SVG Generator--><defs id="genericDefs"
  /><g
  ><defs id="defs1"
    ><clipPath clipPathUnits="userSpaceOnUse" id="clipPath1"
      ><path style="fill-rule:evenodd;" d="M41 30 L52 52 L30 52 Z"
      /></clipPath
    ></defs
    ><g style="fill:white; text-rendering:optimizeSpeed; stroke:white;"
    ><rect x="0" width="134" height="105" y="0" style="stroke:none;"
      /><polygon style="fill:none; stroke:black;" points=" 93 41 41 41"
      /><path d="M93 30 C87.5 35.5 98.5 46.5 93 52" style="fill:none; stroke:black;"
      /><polygon style="clip-path:url(#clipPath1); stroke:none;" points=" 41 30 52 52 30 52"
      /><rect x="30" y="30" width="22" style="clip-path:url(#clipPath1); fill:rgb(237,28,36); stroke:none;" height="22"
      /><rect x="30" y="30" width="22" style="clip-path:url(#clipPath1); fill:none; stroke:black;" height="22"
      /><polygon style="fill:none; stroke:black;" points=" 41 30 52 52 30 52"
    /></g
    ><g style="text-rendering:optimizeSpeed; font-size:10px; font-family:'SansSerif';"
    ><path style="stroke:none;" d="M39 44 L40.875 44 C43.0938 44 44.2969 42.625 44.2969 40.3125 C44.2969 37.9844 43.0938 36.6562 40.8438 36.6562 L39 36.6562 L39 44 ZM39.9375 43.2344 L39.9375 37.4219 L40.7656 37.4219 C42.4844 37.4219 43.3438 38.4531 43.3438 40.3125 C43.3438 42.1562 42.4844 43.2344 40.7656 43.2344 L39.9375 43.2344 Z"
      /><rect x="33" y="58" width="15" style="fill:white; stroke:none;" height="10"
      /><path style="stroke:none;" d="M33.6094 69 L40.0625 69 L40.0625 67.8906 L37.2344 67.8906 C36.7031 67.8906 36.0781 67.9531 35.5469 67.9844 C37.9531 65.7031 39.5625 63.625 39.5625 61.5781 C39.5625 59.75 38.4219 58.5469 36.5781 58.5469 C35.2812 58.5469 34.4062 59.1406 33.5625 60.0469 L34.2969 60.7812 C34.8594 60.1094 35.5938 59.5938 36.4375 59.5938 C37.7031 59.5938 38.3125 60.4531 38.3125 61.625 C38.3125 63.3906 36.8438 65.4375 33.6094 68.25 L33.6094 69 ZM42.1762 69 L43.395 69 L43.395 63.6094 C43.395 62.5312 43.3012 61.4375 43.2543 60.4062 L43.3012 60.4062 L44.4106 62.5156 L48.145 69 L49.4731 69 L49.4731 58.7188 L48.2387 58.7188 L48.2387 64.0781 C48.2387 65.1406 48.3481 66.2812 48.4106 67.3125 L48.3481 67.3125 L47.2543 65.2031 L43.52 58.7188 L42.1762 58.7188 L42.1762 69 Z"
    /></g
    ><g style="fill:white; text-rendering:optimizeSpeed; font-family:'Serif'; stroke:white;"
    ><rect x="57" width="6" height="13" y="42" style="stroke:none;"
      /><path d="M59.0938 48.2031 C59.0938 46.6562 59.75 45.8125 60.7969 45.8125 C61.7188 45.8125 62.2656 46.4531 62.2656 47.5156 C62.2656 48.7188 61.5 49.4375 60.1875 49.7031 L60.2969 50.3125 C62.2188 50.2344 62.9375 51.2188 62.9375 52.4375 C62.9375 53.625 62.2344 54.4219 60.9531 54.4219 C60.25 54.4219 59.6562 54.1562 59.0938 53.7188 L59.0938 48.2031 ZM58.2031 54.9062 L58.1094 57.375 L58.2656 57.4844 L59.1562 57.2656 L59.0156 54.0938 C59.5469 54.8438 60.3594 55.1719 61.1719 55.1719 C62.5625 55.1719 63.8594 54.2188 63.8594 52.4844 C63.8594 50.9531 62.875 50.1094 61.125 50 C62.5625 49.6094 63.1875 48.4531 63.1875 47.4844 C63.1875 46.0938 62.1562 45.3125 60.9062 45.3125 C59.2969 45.3125 58.2188 46.5469 58.2188 48.5156 L58.2031 54.9062 Z" style="fill:black; stroke:none;"
    /></g
  ></g
></svg
>
