<?xml version="1.0"?>
<!DOCTYPE svg PUBLIC '-//W3C//DTD SVG 1.0//EN'
          'http://www.w3.org/TR/2001/REC-SVG-20010904/DTD/svg10.dtd'>
<svg xmlns:xlink="http://www.w3.org/1999/xlink" style="fill-opacity:1; color-rendering:auto; color-interpolation:auto; text-rendering:auto; stroke:black; stroke-linecap:square; stroke-miterlimit:10; shape-rendering:auto; stroke-opacity:1; fill:black; stroke-dasharray:none; font-weight:normal; stroke-width:1; font-family:'Dialog'; font-style:normal; stroke-linejoin:miter; font-size:12px; stroke-dashoffset:0; image-rendering:auto;" viewBox="0 0 394 82" xmlns="http://www.w3.org/2000/svg"
><!--Generated by the Batik Graphics2D SVG Generator--><defs id="genericDefs"
  /><g
  ><defs id="defs1"
    ><clipPath clipPathUnits="userSpaceOnUse" id="clipPath1"
      ><path d="M312 41 C312 47.0751 307.0751 52 301 52 C294.9249 52 290 47.0751 290 41 C290 34.9249 294.9249 30 301 30 C307.0751 30 312 34.9249 312 41 Z"
      /></clipPath
      ><clipPath clipPathUnits="userSpaceOnUse" id="clipPath2"
      ><path d="M260 41 C260 47.0751 255.0751 52 249 52 C242.9249 52 238 47.0751 238 41 C238 34.9249 242.9249 30 249 30 C255.0751 30 260 34.9249 260 41 Z"
      /></clipPath
      ><clipPath clipPathUnits="userSpaceOnUse" id="clipPath3"
      ><path d="M186 30 L208 30 L208 52 L186 52 L186 30 Z"
      /></clipPath
      ><clipPath clipPathUnits="userSpaceOnUse" id="clipPath4"
      ><path d="M156 41 C156 47.0751 151.0751 52 145 52 C138.9249 52 134 47.0751 134 41 C134 34.9249 138.9249 30 145 30 C151.0751 30 156 34.9249 156 41 Z"
      /></clipPath
      ><clipPath clipPathUnits="userSpaceOnUse" id="clipPath5"
      ><path d="M82 30 L104 30 L104 52 L82 52 L82 30 Z"
      /></clipPath
      ><clipPath clipPathUnits="userSpaceOnUse" id="clipPath6"
      ><path d="M52 41 C52 47.0751 47.0751 52 41 52 C34.9249 52 30 47.0751 30 41 C30 34.9249 34.9249 30 41 30 C47.0751 30 52 34.9249 52 41 Z"
      /></clipPath
    ></defs
    ><g style="fill:white; text-rendering:optimizeSpeed; stroke:white;"
    ><rect x="0" width="394" height="82" y="0" style="stroke:none;"
      /><polygon style="fill:none; stroke:black;" points=" 353 41 301 41"
      /><path d="M353 30 C347.5 35.5 358.5 46.5 353 52" style="fill:none; stroke:black;"
      /><polygon style="fill:none; stroke:black;" points=" 301 41 249 41"
      /><circle style="clip-path:url(#clipPath1); stroke:none;" r="11" cx="301" cy="41"
      /><rect x="290" y="30" width="22" style="clip-path:url(#clipPath1); fill:rgb(0,144,188); stroke:none;" height="22"
      /><rect x="290" y="30" width="22" style="clip-path:url(#clipPath1); fill:none; stroke:black;" height="22"
      /><circle style="fill:none; stroke:black;" r="11" cx="301" cy="41"
      /><polygon style="fill:none; stroke:black;" points=" 249 41 197 41"
      /><circle style="clip-path:url(#clipPath2); stroke:none;" r="11" cx="249" cy="41"
      /><rect x="238" y="30" width="22" style="clip-path:url(#clipPath2); fill:rgb(255,212,0); stroke:none;" height="22"
      /><rect x="238" y="30" width="22" style="clip-path:url(#clipPath2); fill:none; stroke:black;" height="22"
      /><circle style="fill:none; stroke:black;" r="11" cx="249" cy="41"
      /><polygon style="fill:none; stroke:black;" points=" 197 41 145 41"
      /><rect x="186" y="30" width="22" style="clip-path:url(#clipPath3); stroke:none;" height="22"
      /><rect x="186" y="30" width="22" style="clip-path:url(#clipPath3); fill:rgb(255,212,0); stroke:none;" height="22"
      /><rect x="186" y="30" width="22" style="clip-path:url(#clipPath3); fill:none; stroke:black;" height="22"
      /><rect x="186" y="30" width="22" style="fill:none; stroke:black;" height="22"
      /><polygon style="fill:none; stroke:black;" points=" 145 41 93 41"
      /><circle style="clip-path:url(#clipPath4); stroke:none;" r="11" cx="145" cy="41"
      /><rect x="134" y="30" width="22" style="clip-path:url(#clipPath4); fill:rgb(244,121,32); stroke:none;" height="22"
      /><rect x="134" y="30" width="22" style="clip-path:url(#clipPath4); fill:none; stroke:black;" height="22"
      /><circle style="fill:none; stroke:black;" r="11" cx="145" cy="41"
      /><polygon style="fill:none; stroke:black;" points=" 93 41 41 41"
      /><rect x="82" y="30" width="22" style="clip-path:url(#clipPath5); stroke:none;" height="22"
      /><rect x="82" y="30" width="22" style="clip-path:url(#clipPath5); fill:rgb(255,212,0); stroke:none;" height="22"
      /><rect x="82" y="30" width="22" style="clip-path:url(#clipPath5); fill:none; stroke:black;" height="22"
      /><rect x="82" y="30" width="22" style="fill:none; stroke:black;" height="22"
      /><circle style="clip-path:url(#clipPath6); stroke:none;" r="11" cx="41" cy="41"
      /><rect x="30" y="30" width="22" style="clip-path:url(#clipPath6); fill:rgb(143,204,233); stroke:none;" height="22"
      /><rect x="30" y="30" width="22" style="clip-path:url(#clipPath6); fill:none; stroke:black;" height="22"
      /><circle style="fill:none; stroke:black;" r="11" cx="41" cy="41"
      /><rect x="70" y="44" width="7" style="stroke:none;" height="9"
    /></g
    ><g style="font-family:'Serif'; text-rendering:optimizeSpeed; "
    ><path style="stroke:none;" d="M71 49.5156 L73.9531 45.2656 L73.9531 49.5156 L71 49.5156 ZM76.2812 49.5156 L74.8594 49.5156 L74.8594 44.125 L74.2344 44.125 L70.3438 49.6406 L70.3438 50.1875 L73.9531 50.1875 L73.9531 53 L74.8594 53 L74.8594 50.1875 L76.2812 50.1875 L76.2812 49.5156 Z"
      /><rect x="57" y="42" width="6" style="fill:white; stroke:none;" height="13"
      /><path style="stroke:none;" d="M59.0938 48.2031 C59.0938 46.6562 59.75 45.8125 60.7969 45.8125 C61.7188 45.8125 62.2656 46.4531 62.2656 47.5156 C62.2656 48.7188 61.5 49.4375 60.1875 49.7031 L60.2969 50.3125 C62.2188 50.2344 62.9375 51.2188 62.9375 52.4375 C62.9375 53.625 62.2344 54.4219 60.9531 54.4219 C60.25 54.4219 59.6562 54.1562 59.0938 53.7188 L59.0938 48.2031 ZM58.2031 54.9062 L58.1094 57.375 L58.2656 57.4844 L59.1562 57.2656 L59.0156 54.0938 C59.5469 54.8438 60.3594 55.1719 61.1719 55.1719 C62.5625 55.1719 63.8594 54.2188 63.8594 52.4844 C63.8594 50.9531 62.875 50.1094 61.125 50 C62.5625 49.6094 63.1875 48.4531 63.1875 47.4844 C63.1875 46.0938 62.1562 45.3125 60.9062 45.3125 C59.2969 45.3125 58.2188 46.5469 58.2188 48.5156 L58.2031 54.9062 Z"
      /><rect x="123" y="44" width="6" style="fill:white; stroke:none;" height="10"
      /><path style="stroke:none;" d="M125.2344 45.6562 C125.5156 45.5938 125.7656 45.5625 126.0156 45.5625 C127.0625 45.5625 127.6719 46.1719 127.6719 47.2656 C127.6719 48.4375 126.9062 49.1094 125.7031 49.1094 L125.1875 49.1094 L125.1875 49.6406 L125.7969 49.6406 C127.2188 49.6406 127.9062 50.4219 127.9062 51.6406 C127.9062 52.8438 127.1719 53.6875 125.875 53.6875 C125.6094 53.6875 125.3125 53.6562 125.0156 53.5625 L124.7812 52.8125 C124.625 52.2812 124.5 52.0469 124.1406 52.0469 C123.8906 52.0469 123.7031 52.1719 123.5781 52.4219 C123.8438 53.6406 124.7812 54.1719 126.0312 54.1719 C127.7188 54.1719 128.875 53.125 128.875 51.7031 C128.875 50.5 128.2031 49.625 126.7969 49.375 C127.9531 49.0156 128.6094 48.2031 128.6094 47.2031 C128.6094 45.9219 127.6719 45.0781 126.1875 45.0781 C125.0469 45.0781 124.0625 45.5938 123.7969 46.6875 C123.9062 47 124.1094 47.1094 124.3594 47.1094 C124.7344 47.1094 124.8906 46.8906 125 46.4062 L125.2344 45.6562 Z"
      /><rect x="109" y="42" width="6" style="fill:white; stroke:none;" height="13"
      /><path style="stroke:none;" d="M111.0938 48.2031 C111.0938 46.6562 111.75 45.8125 112.7969 45.8125 C113.7188 45.8125 114.2656 46.4531 114.2656 47.5156 C114.2656 48.7188 113.5 49.4375 112.1875 49.7031 L112.2969 50.3125 C114.2188 50.2344 114.9375 51.2188 114.9375 52.4375 C114.9375 53.625 114.2344 54.4219 112.9531 54.4219 C112.25 54.4219 111.6562 54.1562 111.0938 53.7188 L111.0938 48.2031 ZM110.2031 54.9062 L110.1094 57.375 L110.2656 57.4844 L111.1562 57.2656 L111.0156 54.0938 C111.5469 54.8438 112.3594 55.1719 113.1719 55.1719 C114.5625 55.1719 115.8594 54.2188 115.8594 52.4844 C115.8594 50.9531 114.875 50.1094 113.125 50 C114.5625 49.6094 115.1875 48.4531 115.1875 47.4844 C115.1875 46.0938 114.1562 45.3125 112.9062 45.3125 C111.2969 45.3125 110.2188 46.5469 110.2188 48.5156 L110.2031 54.9062 Z"
      /><rect x="174" y="44" width="7" style="fill:white; stroke:none;" height="9"
      /><path style="stroke:none;" d="M175 49.5156 L177.9531 45.2656 L177.9531 49.5156 L175 49.5156 ZM180.2812 49.5156 L178.8594 49.5156 L178.8594 44.125 L178.2344 44.125 L174.3438 49.6406 L174.3438 50.1875 L177.9531 50.1875 L177.9531 53 L178.8594 53 L178.8594 50.1875 L180.2812 50.1875 L180.2812 49.5156 Z"
      /><rect x="161" y="42" width="6" style="fill:white; stroke:none;" height="13"
      /><path style="stroke:none;" d="M163.0938 48.2031 C163.0938 46.6562 163.75 45.8125 164.7969 45.8125 C165.7188 45.8125 166.2656 46.4531 166.2656 47.5156 C166.2656 48.7188 165.5 49.4375 164.1875 49.7031 L164.2969 50.3125 C166.2188 50.2344 166.9375 51.2188 166.9375 52.4375 C166.9375 53.625 166.2344 54.4219 164.9531 54.4219 C164.25 54.4219 163.6562 54.1562 163.0938 53.7188 L163.0938 48.2031 ZM162.2031 54.9062 L162.1094 57.375 L162.2656 57.4844 L163.1562 57.2656 L163.0156 54.0938 C163.5469 54.8438 164.3594 55.1719 165.1719 55.1719 C166.5625 55.1719 167.8594 54.2188 167.8594 52.4844 C167.8594 50.9531 166.875 50.1094 165.125 50 C166.5625 49.6094 167.1875 48.4531 167.1875 47.4844 C167.1875 46.0938 166.1562 45.3125 164.9062 45.3125 C163.2969 45.3125 162.2188 46.5469 162.2188 48.5156 L162.2031 54.9062 Z"
      /><rect x="227" y="44" width="6" style="fill:white; stroke:none;" height="10"
      /><path style="stroke:none;" d="M229.2344 45.6562 C229.5156 45.5938 229.7656 45.5625 230.0156 45.5625 C231.0625 45.5625 231.6719 46.1719 231.6719 47.2656 C231.6719 48.4375 230.9062 49.1094 229.7031 49.1094 L229.1875 49.1094 L229.1875 49.6406 L229.7969 49.6406 C231.2188 49.6406 231.9062 50.4219 231.9062 51.6406 C231.9062 52.8438 231.1719 53.6875 229.875 53.6875 C229.6094 53.6875 229.3125 53.6562 229.0156 53.5625 L228.7812 52.8125 C228.625 52.2812 228.5 52.0469 228.1406 52.0469 C227.8906 52.0469 227.7031 52.1719 227.5781 52.4219 C227.8438 53.6406 228.7812 54.1719 230.0312 54.1719 C231.7188 54.1719 232.875 53.125 232.875 51.7031 C232.875 50.5 232.2031 49.625 230.7969 49.375 C231.9531 49.0156 232.6094 48.2031 232.6094 47.2031 C232.6094 45.9219 231.6719 45.0781 230.1875 45.0781 C229.0469 45.0781 228.0625 45.5938 227.7969 46.6875 C227.9062 47 228.1094 47.1094 228.3594 47.1094 C228.7344 47.1094 228.8906 46.8906 229 46.4062 L229.2344 45.6562 Z"
      /><rect x="213" y="42" width="6" style="fill:white; stroke:none;" height="13"
      /><path style="stroke:none;" d="M215.0938 48.2031 C215.0938 46.6562 215.75 45.8125 216.7969 45.8125 C217.7188 45.8125 218.2656 46.4531 218.2656 47.5156 C218.2656 48.7188 217.5 49.4375 216.1875 49.7031 L216.2969 50.3125 C218.2188 50.2344 218.9375 51.2188 218.9375 52.4375 C218.9375 53.625 218.2344 54.4219 216.9531 54.4219 C216.25 54.4219 215.6562 54.1562 215.0938 53.7188 L215.0938 48.2031 ZM214.2031 54.9062 L214.1094 57.375 L214.2656 57.4844 L215.1562 57.2656 L215.0156 54.0938 C215.5469 54.8438 216.3594 55.1719 217.1719 55.1719 C218.5625 55.1719 219.8594 54.2188 219.8594 52.4844 C219.8594 50.9531 218.875 50.1094 217.125 50 C218.5625 49.6094 219.1875 48.4531 219.1875 47.4844 C219.1875 46.0938 218.1562 45.3125 216.9062 45.3125 C215.2969 45.3125 214.2188 46.5469 214.2188 48.5156 L214.2031 54.9062 Z"
      /><rect x="278" y="44" width="7" style="fill:white; stroke:none;" height="9"
      /><path style="stroke:none;" d="M279 49.5156 L281.9531 45.2656 L281.9531 49.5156 L279 49.5156 ZM284.2812 49.5156 L282.8594 49.5156 L282.8594 44.125 L282.2344 44.125 L278.3438 49.6406 L278.3438 50.1875 L281.9531 50.1875 L281.9531 53 L282.8594 53 L282.8594 50.1875 L284.2812 50.1875 L284.2812 49.5156 Z"
      /><rect x="265" y="42" width="6" style="fill:white; stroke:none;" height="13"
      /><path style="stroke:none;" d="M267.0938 48.2031 C267.0938 46.6562 267.75 45.8125 268.7969 45.8125 C269.7188 45.8125 270.2656 46.4531 270.2656 47.5156 C270.2656 48.7188 269.5 49.4375 268.1875 49.7031 L268.2969 50.3125 C270.2188 50.2344 270.9375 51.2188 270.9375 52.4375 C270.9375 53.625 270.2344 54.4219 268.9531 54.4219 C268.25 54.4219 267.6562 54.1562 267.0938 53.7188 L267.0938 48.2031 ZM266.2031 54.9062 L266.1094 57.375 L266.2656 57.4844 L267.1562 57.2656 L267.0156 54.0938 C267.5469 54.8438 268.3594 55.1719 269.1719 55.1719 C270.5625 55.1719 271.8594 54.2188 271.8594 52.4844 C271.8594 50.9531 270.875 50.1094 269.125 50 C270.5625 49.6094 271.1875 48.4531 271.1875 47.4844 C271.1875 46.0938 270.1562 45.3125 268.9062 45.3125 C267.2969 45.3125 266.2188 46.5469 266.2188 48.5156 L266.2031 54.9062 Z"
      /><rect x="316" y="45" width="8" style="fill:white; stroke:none;" height="8"
      /><path style="stroke:none;" d="M320.9844 50.7031 C320.9375 51.8906 320.1562 52.6562 319.3125 52.6562 C318.2656 52.6562 317.5 51.6875 317.5 49.7188 C317.5 48.2812 318.1562 47.1562 319.3438 47.1562 C320.1406 47.1562 320.7812 47.6875 321.0938 48.6406 L320.9844 50.7031 ZM322.9062 52.2812 C322.7344 52.375 322.5469 52.4219 322.3438 52.4219 C321.9531 52.4219 321.75 52.2188 321.75 51.4219 C321.75 50.4844 321.9688 48.5312 322.1875 46.8281 L322.0312 46.7188 L321.2344 46.9219 L321.1406 47.7969 C320.7812 47.0312 320.1562 46.6562 319.3906 46.6562 C318.0469 46.6562 316.5625 47.8438 316.5625 49.9531 C316.5625 52.0938 317.7188 53.1719 319.1406 53.1719 C320.0156 53.1719 320.6875 52.8125 321.0938 51.9844 C321.2031 52.8594 321.5156 53.1719 322.0156 53.1719 C322.4688 53.1719 322.7969 52.9062 323.0156 52.5625 L322.9062 52.2812 Z"
    /></g
  ></g
></svg
>
