<?xml version="1.0"?>
<!DOCTYPE svg PUBLIC '-//W3C//DTD SVG 1.0//EN'
          'http://www.w3.org/TR/2001/REC-SVG-20010904/DTD/svg10.dtd'>
<svg xmlns:xlink="http://www.w3.org/1999/xlink" style="fill-opacity:1; color-rendering:auto; color-interpolation:auto; text-rendering:auto; stroke:black; stroke-linecap:square; stroke-miterlimit:10; shape-rendering:auto; stroke-opacity:1; fill:black; stroke-dasharray:none; font-weight:normal; stroke-width:1; font-family:'Dialog'; font-style:normal; stroke-linejoin:miter; font-size:12px; stroke-dashoffset:0; image-rendering:auto;" viewBox="0 0 134 105" xmlns="http://www.w3.org/2000/svg"
><!--Generated by the Batik Graphics2D SVG Generator--><defs id="genericDefs"
  /><g
  ><defs id="defs1"
    ><clipPath clipPathUnits="userSpaceOnUse" id="clipPath1"
      ><path d="M52 41 C52 47.0751 47.0751 52 41 52 C34.9249 52 30 47.0751 30 41 C30 34.9249 34.9249 30 41 30 C47.0751 30 52 34.9249 52 41 Z"
      /></clipPath
    ></defs
    ><g style="fill:white; text-rendering:optimizeSpeed; stroke:white;"
    ><rect x="0" width="134" height="105" y="0" style="stroke:none;"
      /><polygon style="fill:none; stroke:black;" points=" 93 41 41 41"
      /><path d="M93 30 C87.5 35.5 98.5 46.5 93 52" style="fill:none; stroke:black;"
      /><circle style="clip-path:url(#clipPath1); stroke:none;" r="11" cx="41" cy="41"
      /><rect x="30" y="30" width="22" style="clip-path:url(#clipPath1); fill:rgb(0,144,188); stroke:none;" height="22"
      /><rect x="30" y="30" width="22" style="clip-path:url(#clipPath1); fill:none; stroke:black;" height="22"
      /><circle style="fill:none; stroke:black;" r="11" cx="41" cy="41"
      /><rect x="33" y="58" width="14" style="stroke:none;" height="10"
    /></g
    ><g style="text-rendering:optimizeSpeed; font-size:14px; font-family:'SansSerif';"
    ><path style="stroke:none;" d="M36.7031 69.1875 C38.5156 69.1875 39.9844 68.0938 39.9844 66.25 C39.9844 64.8594 39.0156 63.9375 37.8125 63.6562 L37.8125 63.5938 C38.8906 63.1875 39.6406 62.3594 39.6406 61.125 C39.6406 59.5 38.375 58.5469 36.6562 58.5469 C35.4688 58.5469 34.5469 59.0625 33.7812 59.7812 L34.4688 60.5938 C35.0469 60 35.7656 59.5938 36.5938 59.5938 C37.6562 59.5938 38.3281 60.2344 38.3281 61.2188 C38.3281 62.3281 37.6094 63.1719 35.4844 63.1719 L35.4844 64.1562 C37.8594 64.1562 38.6875 64.9844 38.6875 66.2031 C38.6875 67.3906 37.8125 68.125 36.5938 68.125 C35.4375 68.125 34.6562 67.5781 34.0469 66.9375 L33.4062 67.7812 C34.0781 68.5156 35.0938 69.1875 36.7031 69.1875 ZM42.1762 69 L43.4731 69 L43.4731 64.3906 L47.395 64.3906 L47.395 63.2969 L43.4731 63.2969 L43.4731 59.8281 L48.0981 59.8281 L48.0981 58.7188 L42.1762 58.7188 L42.1762 69 Z"
    /></g
    ><g style="fill:white; text-rendering:optimizeSpeed; font-family:'Serif'; stroke:white;"
    ><rect x="56" width="8" height="8" y="45" style="stroke:none;"
      /><path d="M60.9844 50.7031 C60.9375 51.8906 60.1562 52.6562 59.3125 52.6562 C58.2656 52.6562 57.5 51.6875 57.5 49.7188 C57.5 48.2812 58.1562 47.1562 59.3438 47.1562 C60.1406 47.1562 60.7812 47.6875 61.0938 48.6406 L60.9844 50.7031 ZM62.9062 52.2812 C62.7344 52.375 62.5469 52.4219 62.3438 52.4219 C61.9531 52.4219 61.75 52.2188 61.75 51.4219 C61.75 50.4844 61.9688 48.5312 62.1875 46.8281 L62.0312 46.7188 L61.2344 46.9219 L61.1406 47.7969 C60.7812 47.0312 60.1562 46.6562 59.3906 46.6562 C58.0469 46.6562 56.5625 47.8438 56.5625 49.9531 C56.5625 52.0938 57.7188 53.1719 59.1406 53.1719 C60.0156 53.1719 60.6875 52.8125 61.0938 51.9844 C61.2031 52.8594 61.5156 53.1719 62.0156 53.1719 C62.4688 53.1719 62.7969 52.9062 63.0156 52.5625 L62.9062 52.2812 Z" style="fill:black; stroke:none;"
    /></g
  ></g
></svg
>
