<?xml version="1.0"?>
<!DOCTYPE svg PUBLIC '-//W3C//DTD SVG 1.0//EN'
          'http://www.w3.org/TR/2001/REC-SVG-20010904/DTD/svg10.dtd'>
<svg xmlns:xlink="http://www.w3.org/1999/xlink" style="fill-opacity:1; color-rendering:auto; color-interpolation:auto; text-rendering:auto; stroke:black; stroke-linecap:square; stroke-miterlimit:10; shape-rendering:auto; stroke-opacity:1; fill:black; stroke-dasharray:none; font-weight:normal; stroke-width:1; font-family:'Dialog'; font-style:normal; stroke-linejoin:miter; font-size:12px; stroke-dashoffset:0; image-rendering:auto;" viewBox="0 0 146 105" xmlns="http://www.w3.org/2000/svg"
><!--Generated by the Batik Graphics2D SVG Generator--><defs id="genericDefs"
  /><g
  ><defs id="defs1"
    ><clipPath clipPathUnits="userSpaceOnUse" id="clipPath1"
      ><path style="fill-rule:evenodd;" d="M47 53 L49 60 L57 60 L50 65 L53 72 L47 68 L40 72 L43 65 L36 60 L44 60 L47 53 Z"
      /></clipPath
    ></defs
    ><g style="fill:white; text-rendering:optimizeSpeed; stroke:white;"
    ><rect x="0" width="146" height="105" y="0" style="stroke:none;"
      /><polygon style="fill:none; stroke:black;" points=" 105 64 47 64"
      /><path d="M105 53 C99.5 58.5 110.5 69.5 105 75" style="fill:none; stroke:black;"
      /><polygon style="clip-path:url(#clipPath1); stroke:none;" points=" 47 53 49 60 57 60 50 65 53 72 47 68 40 72 43 65 36 60 44 60 47 53"
      /><rect x="36" y="53" width="22" style="clip-path:url(#clipPath1); fill:rgb(246,158,161); stroke:none;" height="22"
      /><rect x="36" y="53" width="22" style="clip-path:url(#clipPath1); fill:none; stroke:black;" height="22"
      /><polygon style="fill:none; stroke:black;" points=" 47 53 49 60 57 60 50 65 53 72 47 68 40 72 43 65 36 60 44 60 47 53"
    /></g
    ><g style="text-rendering:optimizeSpeed; font-size:10px; font-family:'SansSerif';"
    ><path style="stroke:none;" d="M46.0625 68 L46.9844 68 L46.9844 63.3125 L48.125 63.3125 L48.125 62.5625 L46.9844 62.5625 L46.9844 61.7031 C46.9844 61.0156 47.2344 60.6406 47.75 60.6406 C47.9375 60.6406 48.1562 60.6875 48.3594 60.7812 L48.5625 60.0938 C48.3125 59.9844 47.9844 59.9062 47.6562 59.9062 C46.5625 59.9062 46.0625 60.5938 46.0625 61.7031 L46.0625 62.5625 L45.3281 62.625 L45.3281 63.3125 L46.0625 63.3125 L46.0625 68 Z"
      /><rect x="30" y="35" width="32" style="fill:white; stroke:none;" height="10"
      /><path style="stroke:none;" d="M33.6562 46.1875 C35.3906 46.1875 37.0156 44.9062 37.0156 42.6562 C37.0156 40.4062 35.625 39.3906 33.9219 39.3906 C33.2969 39.3906 32.8594 39.5469 32.3906 39.7969 L32.6406 36.8281 L36.5312 36.8281 L36.5312 35.7188 L31.5312 35.7188 L31.2031 40.5469 L31.8906 40.9531 C32.4844 40.5625 32.9062 40.3594 33.5938 40.3594 C34.8906 40.3594 35.7188 41.2188 35.7188 42.7031 C35.7188 44.1875 34.75 45.125 33.5469 45.125 C32.3594 45.125 31.6094 44.5781 31.0156 43.9844 L30.3906 44.8281 C31.0781 45.5156 32.0625 46.1875 33.6562 46.1875 ZM39.1762 46 L40.395 46 L40.395 40.6094 C40.395 39.5312 40.3012 38.4375 40.2543 37.4062 L40.3012 37.4062 L41.4106 39.5156 L45.145 46 L46.4731 46 L46.4731 35.7188 L45.2387 35.7188 L45.2387 41.0781 C45.2387 42.1406 45.3481 43.2812 45.4106 44.3125 L45.3481 44.3125 L44.2543 42.2031 L40.52 35.7188 L39.1762 35.7188 L39.1762 46 ZM51.0498 40.2656 C51.4248 39.0938 51.7529 37.9844 52.0811 36.7812 L52.1279 36.7812 C52.4717 37.9844 52.7842 39.0938 53.1748 40.2656 L53.6592 41.8281 L50.5498 41.8281 L51.0498 40.2656 ZM47.9248 46 L49.2373 46 L50.2373 42.8594 L53.9873 42.8594 L54.9561 46 L56.3311 46 L52.8467 35.7188 L51.4092 35.7188 L47.9248 46 ZM60.6572 46.1875 C61.5634 46.1875 62.4384 45.8281 63.1259 45.2188 L62.5634 44.3594 C62.0947 44.7969 61.4697 45.125 60.7665 45.125 C59.3759 45.125 58.4228 43.9531 58.4228 42.2031 C58.4228 40.4531 59.4228 39.2656 60.8134 39.2656 C61.4228 39.2656 61.8759 39.5469 62.329 39.9375 L62.9853 39.0938 C62.4384 38.625 61.7509 38.2031 60.7509 38.2031 C58.8134 38.2031 57.0947 39.6719 57.0947 42.2031 C57.0947 44.7188 58.6415 46.1875 60.6572 46.1875 Z"
    /></g
    ><g style="fill:white; text-rendering:optimizeSpeed; font-family:'Serif'; stroke:white;"
    ><rect x="69" width="6" height="13" y="65" style="stroke:none;"
      /><path d="M71.0938 71.2031 C71.0938 69.6562 71.75 68.8125 72.7969 68.8125 C73.7188 68.8125 74.2656 69.4531 74.2656 70.5156 C74.2656 71.7188 73.5 72.4375 72.1875 72.7031 L72.2969 73.3125 C74.2188 73.2344 74.9375 74.2188 74.9375 75.4375 C74.9375 76.625 74.2344 77.4219 72.9531 77.4219 C72.25 77.4219 71.6562 77.1562 71.0938 76.7188 L71.0938 71.2031 ZM70.2031 77.9062 L70.1094 80.375 L70.2656 80.4844 L71.1562 80.2656 L71.0156 77.0938 C71.5469 77.8438 72.3594 78.1719 73.1719 78.1719 C74.5625 78.1719 75.8594 77.2188 75.8594 75.4844 C75.8594 73.9531 74.875 73.1094 73.125 73 C74.5625 72.6094 75.1875 71.4531 75.1875 70.4844 C75.1875 69.0938 74.1562 68.3125 72.9062 68.3125 C71.2969 68.3125 70.2188 69.5469 70.2188 71.5156 L70.2031 77.9062 Z" style="fill:black; stroke:none;"
    /></g
  ></g
></svg
>
