<?xml version="1.0"?>
<!DOCTYPE svg PUBLIC '-//W3C//DTD SVG 1.0//EN'
          'http://www.w3.org/TR/2001/REC-SVG-20010904/DTD/svg10.dtd'>
<svg xmlns:xlink="http://www.w3.org/1999/xlink" style="fill-opacity:1; color-rendering:auto; color-interpolation:auto; text-rendering:auto; stroke:black; stroke-linecap:square; stroke-miterlimit:10; shape-rendering:auto; stroke-opacity:1; fill:black; stroke-dasharray:none; font-weight:normal; stroke-width:1; font-family:'Dialog'; font-style:normal; stroke-linejoin:miter; font-size:12px; stroke-dashoffset:0; image-rendering:auto;" viewBox="0 0 314 134" xmlns="http://www.w3.org/2000/svg"
><!--Generated by the Batik Graphics2D SVG Generator--><defs id="genericDefs"
  /><g
  ><defs id="defs1"
    ><clipPath clipPathUnits="userSpaceOnUse" id="clipPath1"
      ><path d="M186 30 L208 30 L208 52 L186 52 L186 30 Z"
      /></clipPath
      ><clipPath clipPathUnits="userSpaceOnUse" id="clipPath2"
      ><path d="M134 30 L156 30 L156 52 L134 52 L134 30 Z"
      /></clipPath
      ><clipPath clipPathUnits="userSpaceOnUse" id="clipPath3"
      ><path d="M104 41 C104 47.0751 99.0751 52 93 52 C86.9249 52 82 47.0751 82 41 C82 34.9249 86.9249 30 93 30 C99.0751 30 104 34.9249 104 41 Z"
      /></clipPath
      ><clipPath clipPathUnits="userSpaceOnUse" id="clipPath4"
      ><path style="fill-rule:evenodd;" d="M93 82 L104 104 L82 104 Z"
      /></clipPath
      ><clipPath clipPathUnits="userSpaceOnUse" id="clipPath5"
      ><path d="M30 30 L52 30 L52 52 L30 52 L30 30 Z"
      /></clipPath
    ></defs
    ><g style="fill:white; text-rendering:optimizeSpeed; stroke:white;"
    ><rect x="0" width="314" height="134" y="0" style="stroke:none;"
      /><polygon style="fill:none; stroke:black;" points=" 197 41 145 41"
      /><rect x="186" y="30" width="22" style="clip-path:url(#clipPath1); stroke:none;" height="22"
      /><rect x="186" y="30" width="22" style="clip-path:url(#clipPath1); fill:rgb(255,212,0); stroke:none;" height="22"
      /><rect x="186" y="30" width="22" style="clip-path:url(#clipPath1); fill:none; stroke:black;" height="22"
      /><rect x="186" y="30" width="22" style="fill:none; stroke:black;" height="22"
    /></g
    ><g style="font-style:italic; text-rendering:optimizeSpeed; font-size:10px; font-family:'SansSerif';"
    ><path style="stroke:none;" d="M197 43.125 C198.3281 43.125 199.7344 42.0938 200.125 40.2969 C200.5 38.4844 199.5469 37.4375 198.2188 37.4375 C196.8906 37.4375 195.4688 38.4844 195.0938 40.2969 C194.7031 42.0938 195.6719 43.125 197 43.125 ZM197.1719 42.375 C196.2344 42.375 195.7656 41.5469 196.0312 40.2969 C196.2969 39.0469 197.1094 38.1875 198.0469 38.1875 C198.9844 38.1875 199.4531 39.0469 199.1875 40.2969 C198.9219 41.5469 198.1094 42.375 197.1719 42.375 Z"
      /><polygon style="fill:none;" points=" 145 41 93 41"
    /></g
    ><g style="fill:white; text-rendering:optimizeSpeed; stroke:white;"
    ><rect x="134" y="30" width="22" style="clip-path:url(#clipPath2); stroke:none;" height="22"
      /><rect x="134" y="30" width="22" style="clip-path:url(#clipPath2); fill:rgb(0,144,188); stroke:none;" height="22"
      /><rect x="134" y="30" width="22" style="clip-path:url(#clipPath2); fill:none; stroke:black;" height="22"
      /><rect x="134" y="30" width="22" style="fill:none; stroke:black;" height="22"
      /><polygon style="fill:none; stroke:black;" points=" 93 41 93 93"
      /><polygon style="fill:none; stroke:black;" points=" 93 41 41 41"
      /><circle r="11" style="clip-path:url(#clipPath3); stroke:none;" cx="93" cy="41"
      /><rect x="82" y="30" width="22" style="clip-path:url(#clipPath3); fill:rgb(255,212,0); stroke:none;" height="22"
      /><rect x="82" y="30" width="22" style="clip-path:url(#clipPath3); fill:none; stroke:black;" height="22"
      /><circle r="11" style="fill:none; stroke:black;" cx="93" cy="41"
      /><polygon style="clip-path:url(#clipPath4); stroke:none;" points=" 93 82 104 104 82 104"
      /><rect x="82" y="82" width="22" style="clip-path:url(#clipPath4); fill:rgb(237,28,36); stroke:none;" height="22"
      /><rect x="82" y="82" width="22" style="clip-path:url(#clipPath4); fill:none; stroke:black;" height="22"
      /><polygon style="fill:none; stroke:black;" points=" 93 82 104 104 82 104"
      /><rect x="30" y="30" width="22" style="clip-path:url(#clipPath5); stroke:none;" height="22"
      /><rect x="30" y="30" width="22" style="clip-path:url(#clipPath5); fill:rgb(255,212,0); stroke:none;" height="22"
      /><rect x="30" y="30" width="22" style="clip-path:url(#clipPath5); fill:none; stroke:black;" height="22"
      /><rect x="30" y="30" width="22" style="fill:none; stroke:black;" height="22"
      /><rect x="98" width="6" height="9" y="55" style="stroke:none;"
      /><path d="M99.4219 63.0938 C100.0781 62.375 100.7031 61.7188 101.0312 61.3438 C102.9219 59.3125 103.5312 58.4688 103.5312 57.3594 C103.5312 56.0156 102.7812 55.0781 101.1562 55.0781 C99.9062 55.0781 98.7969 55.7031 98.5938 56.9688 C98.7188 57.2031 98.9062 57.3438 99.1562 57.3438 C99.4688 57.3438 99.6562 57.1094 99.7969 56.5938 L100.0938 55.6719 C100.3906 55.5938 100.6562 55.5625 100.8906 55.5625 C101.9219 55.5625 102.5469 56.3125 102.5469 57.4219 C102.5469 58.4375 101.9844 59.4219 100.7031 60.9062 C100.125 61.5781 99.3906 62.4375 98.6406 63.2812 L98.6406 64 L103.9219 64 L103.9219 63.0938 L99.4219 63.0938 Z" style="fill:black; stroke:none;"
      /><rect x="97" width="8" height="8" y="70" style="stroke:none;"
      /><path d="M101.9844 75.7031 C101.9375 76.8906 101.1562 77.6562 100.3125 77.6562 C99.2656 77.6562 98.5 76.6875 98.5 74.7188 C98.5 73.2812 99.1562 72.1562 100.3438 72.1562 C101.1406 72.1562 101.7812 72.6875 102.0938 73.6406 L101.9844 75.7031 ZM103.9062 77.2812 C103.7344 77.375 103.5469 77.4219 103.3438 77.4219 C102.9531 77.4219 102.75 77.2188 102.75 76.4219 C102.75 75.4844 102.9688 73.5312 103.1875 71.8281 L103.0312 71.7188 L102.2344 71.9219 L102.1406 72.7969 C101.7812 72.0312 101.1562 71.6562 100.3906 71.6562 C99.0469 71.6562 97.5625 72.8438 97.5625 74.9531 C97.5625 77.0938 98.7188 78.1719 100.1406 78.1719 C101.0156 78.1719 101.6875 77.8125 102.0938 76.9844 C102.2031 77.8594 102.5156 78.1719 103.0156 78.1719 C103.4688 78.1719 103.7969 77.9062 104.0156 77.5625 L103.9062 77.2812 Z" style="fill:black; stroke:none;"
      /><rect x="71" width="6" height="10" y="44" style="stroke:none;"
      /><path d="M73.2344 45.6562 C73.5156 45.5938 73.7656 45.5625 74.0156 45.5625 C75.0625 45.5625 75.6719 46.1719 75.6719 47.2656 C75.6719 48.4375 74.9062 49.1094 73.7031 49.1094 L73.1875 49.1094 L73.1875 49.6406 L73.7969 49.6406 C75.2188 49.6406 75.9062 50.4219 75.9062 51.6406 C75.9062 52.8438 75.1719 53.6875 73.875 53.6875 C73.6094 53.6875 73.3125 53.6562 73.0156 53.5625 L72.7812 52.8125 C72.625 52.2812 72.5 52.0469 72.1406 52.0469 C71.8906 52.0469 71.7031 52.1719 71.5781 52.4219 C71.8438 53.6406 72.7812 54.1719 74.0312 54.1719 C75.7188 54.1719 76.875 53.125 76.875 51.7031 C76.875 50.5 76.2031 49.625 74.7969 49.375 C75.9531 49.0156 76.6094 48.2031 76.6094 47.2031 C76.6094 45.9219 75.6719 45.0781 74.1875 45.0781 C73.0469 45.0781 72.0625 45.5938 71.7969 46.6875 C71.9062 47 72.1094 47.1094 72.3594 47.1094 C72.7344 47.1094 72.8906 46.8906 73 46.4062 L73.2344 45.6562 Z" style="fill:black; stroke:none;"
      /><rect x="56" width="8" height="8" y="45" style="stroke:none;"
      /><path d="M60.9844 50.7031 C60.9375 51.8906 60.1562 52.6562 59.3125 52.6562 C58.2656 52.6562 57.5 51.6875 57.5 49.7188 C57.5 48.2812 58.1562 47.1562 59.3438 47.1562 C60.1406 47.1562 60.7812 47.6875 61.0938 48.6406 L60.9844 50.7031 ZM62.9062 52.2812 C62.7344 52.375 62.5469 52.4219 62.3438 52.4219 C61.9531 52.4219 61.75 52.2188 61.75 51.4219 C61.75 50.4844 61.9688 48.5312 62.1875 46.8281 L62.0312 46.7188 L61.2344 46.9219 L61.1406 47.7969 C60.7812 47.0312 60.1562 46.6562 59.3906 46.6562 C58.0469 46.6562 56.5625 47.8438 56.5625 49.9531 C56.5625 52.0938 57.7188 53.1719 59.1406 53.1719 C60.0156 53.1719 60.6875 52.8125 61.0938 51.9844 C61.2031 52.8594 61.5156 53.1719 62.0156 53.1719 C62.4688 53.1719 62.7969 52.9062 63.0156 52.5625 L62.9062 52.2812 Z" style="fill:black; stroke:none;"
      /><rect x="122" width="7" height="9" y="44" style="stroke:none;"
      /><path d="M123 49.5156 L125.9531 45.2656 L125.9531 49.5156 L123 49.5156 ZM128.2812 49.5156 L126.8594 49.5156 L126.8594 44.125 L126.2344 44.125 L122.3438 49.6406 L122.3438 50.1875 L125.9531 50.1875 L125.9531 53 L126.8594 53 L126.8594 50.1875 L128.2812 50.1875 L128.2812 49.5156 Z" style="fill:black; stroke:none;"
      /><rect x="109" width="6" height="13" y="42" style="stroke:none;"
      /><path d="M111.0938 48.2031 C111.0938 46.6562 111.75 45.8125 112.7969 45.8125 C113.7188 45.8125 114.2656 46.4531 114.2656 47.5156 C114.2656 48.7188 113.5 49.4375 112.1875 49.7031 L112.2969 50.3125 C114.2188 50.2344 114.9375 51.2188 114.9375 52.4375 C114.9375 53.625 114.2344 54.4219 112.9531 54.4219 C112.25 54.4219 111.6562 54.1562 111.0938 53.7188 L111.0938 48.2031 ZM110.2031 54.9062 L110.1094 57.375 L110.2656 57.4844 L111.1562 57.2656 L111.0156 54.0938 C111.5469 54.8438 112.3594 55.1719 113.1719 55.1719 C114.5625 55.1719 115.8594 54.2188 115.8594 52.4844 C115.8594 50.9531 114.875 50.1094 113.125 50 C114.5625 49.6094 115.1875 48.4531 115.1875 47.4844 C115.1875 46.0938 114.1562 45.3125 112.9062 45.3125 C111.2969 45.3125 110.2188 46.5469 110.2188 48.5156 L110.2031 54.9062 Z" style="fill:black; stroke:none;"
      /><rect x="175" width="6" height="10" y="44" style="stroke:none;"
      /><path d="M177.2344 45.6562 C177.5156 45.5938 177.7656 45.5625 178.0156 45.5625 C179.0625 45.5625 179.6719 46.1719 179.6719 47.2656 C179.6719 48.4375 178.9062 49.1094 177.7031 49.1094 L177.1875 49.1094 L177.1875 49.6406 L177.7969 49.6406 C179.2188 49.6406 179.9062 50.4219 179.9062 51.6406 C179.9062 52.8438 179.1719 53.6875 177.875 53.6875 C177.6094 53.6875 177.3125 53.6562 177.0156 53.5625 L176.7812 52.8125 C176.625 52.2812 176.5 52.0469 176.1406 52.0469 C175.8906 52.0469 175.7031 52.1719 175.5781 52.4219 C175.8438 53.6406 176.7812 54.1719 178.0312 54.1719 C179.7188 54.1719 180.875 53.125 180.875 51.7031 C180.875 50.5 180.2031 49.625 178.7969 49.375 C179.9531 49.0156 180.6094 48.2031 180.6094 47.2031 C180.6094 45.9219 179.6719 45.0781 178.1875 45.0781 C177.0469 45.0781 176.0625 45.5938 175.7969 46.6875 C175.9062 47 176.1094 47.1094 176.3594 47.1094 C176.7344 47.1094 176.8906 46.8906 177 46.4062 L177.2344 45.6562 Z" style="fill:black; stroke:none;"
      /><rect x="161" width="6" height="13" y="42" style="stroke:none;"
      /><path d="M163.0938 48.2031 C163.0938 46.6562 163.75 45.8125 164.7969 45.8125 C165.7188 45.8125 166.2656 46.4531 166.2656 47.5156 C166.2656 48.7188 165.5 49.4375 164.1875 49.7031 L164.2969 50.3125 C166.2188 50.2344 166.9375 51.2188 166.9375 52.4375 C166.9375 53.625 166.2344 54.4219 164.9531 54.4219 C164.25 54.4219 163.6562 54.1562 163.0938 53.7188 L163.0938 48.2031 ZM162.2031 54.9062 L162.1094 57.375 L162.2656 57.4844 L163.1562 57.2656 L163.0156 54.0938 C163.5469 54.8438 164.3594 55.1719 165.1719 55.1719 C166.5625 55.1719 167.8594 54.2188 167.8594 52.4844 C167.8594 50.9531 166.875 50.1094 165.125 50 C166.5625 49.6094 167.1875 48.4531 167.1875 47.4844 C167.1875 46.0938 166.1562 45.3125 164.9062 45.3125 C163.2969 45.3125 162.2188 46.5469 162.2188 48.5156 L162.2031 54.9062 Z" style="fill:black; stroke:none;"
    /></g
  ></g
></svg
>
