<?xml version="1.0"?>
<!DOCTYPE svg PUBLIC '-//W3C//DTD SVG 1.0//EN'
          'http://www.w3.org/TR/2001/REC-SVG-20010904/DTD/svg10.dtd'>
<svg xmlns:xlink="http://www.w3.org/1999/xlink" style="fill-opacity:1; color-rendering:auto; color-interpolation:auto; text-rendering:auto; stroke:black; stroke-linecap:square; stroke-miterlimit:10; shape-rendering:auto; stroke-opacity:1; fill:black; stroke-dasharray:none; font-weight:normal; stroke-width:1; font-family:'Dialog'; font-style:normal; stroke-linejoin:miter; font-size:12px; stroke-dashoffset:0; image-rendering:auto;" viewBox="0 0 159 143" xmlns="http://www.w3.org/2000/svg"
><!--Generated by the Batik Graphics2D SVG Generator--><defs id="genericDefs"
  /><g
  ><defs id="defs1"
    ><clipPath clipPathUnits="userSpaceOnUse" id="clipPath1"
      ><path style="fill-rule:evenodd;" d="M53 53 L63 60 L59 72 L46 72 L42 60 L53 53 Z"
      /></clipPath
    ></defs
    ><g style="fill:white; text-rendering:optimizeSpeed; stroke:white;"
    ><rect x="0" width="159" height="143" y="0" style="stroke:none;"
      /><polygon style="fill:none; stroke:black;" points=" 118 64 53 64"
      /><path d="M118 53 C112.5 58.5 123.5 69.5 118 75" style="fill:none; stroke:black;"
      /><polygon style="clip-path:url(#clipPath1); stroke:none;" points=" 53 53 63 60 59 72 46 72 42 60 53 53"
      /><rect x="42" y="53" width="22" style="clip-path:url(#clipPath1); stroke:none;" height="22"
      /><rect x="42" y="53" width="22" style="clip-path:url(#clipPath1); fill:none; stroke:black;" height="22"
      /><polygon style="fill:none; stroke:black;" points=" 53 53 63 60 59 72 46 72 42 60 53 53"
    /></g
    ><g style="text-rendering:optimizeSpeed; font-size:14px; font-family:'SansSerif';"
    ><path style="stroke:none;" d="M51.2344 69 L56.8594 69 L56.8594 67.9375 L54.7969 67.9375 L54.7969 58.7188 L53.8281 58.7188 C53.2656 59.0625 52.6094 59.2969 51.6875 59.4688 L51.6875 60.2812 L53.5156 60.2812 L53.5156 67.9375 L51.2344 67.9375 L51.2344 69 Z"
      /><rect x="53" y="81" width="22" style="fill:white; stroke:none;" height="10"
      /><path style="stroke:none;" d="M56.7031 92.1875 C58.5156 92.1875 59.9844 91.0938 59.9844 89.25 C59.9844 87.8594 59.0156 86.9375 57.8125 86.6562 L57.8125 86.5938 C58.8906 86.1875 59.6406 85.3594 59.6406 84.125 C59.6406 82.5 58.375 81.5469 56.6562 81.5469 C55.4688 81.5469 54.5469 82.0625 53.7812 82.7812 L54.4688 83.5938 C55.0469 83 55.7656 82.5938 56.5938 82.5938 C57.6562 82.5938 58.3281 83.2344 58.3281 84.2188 C58.3281 85.3281 57.6094 86.1719 55.4844 86.1719 L55.4844 87.1562 C57.8594 87.1562 58.6875 87.9844 58.6875 89.2031 C58.6875 90.3906 57.8125 91.125 56.5938 91.125 C55.4375 91.125 54.6562 90.5781 54.0469 89.9375 L53.4062 90.7812 C54.0781 91.5156 55.0938 92.1875 56.7031 92.1875 ZM63.9418 86.2656 C64.3168 85.0938 64.645 83.9844 64.9731 82.7812 L65.02 82.7812 C65.3637 83.9844 65.6762 85.0938 66.0668 86.2656 L66.5512 87.8281 L63.4418 87.8281 L63.9418 86.2656 ZM60.8168 92 L62.1293 92 L63.1293 88.8594 L66.8793 88.8594 L67.8481 92 L69.2231 92 L65.7387 81.7188 L64.3012 81.7188 L60.8168 92 ZM73.5492 92.1875 C74.4554 92.1875 75.3304 91.8281 76.0179 91.2188 L75.4554 90.3594 C74.9867 90.7969 74.3617 91.125 73.6586 91.125 C72.2679 91.125 71.3148 89.9531 71.3148 88.2031 C71.3148 86.4531 72.3148 85.2656 73.7054 85.2656 C74.3148 85.2656 74.7679 85.5469 75.2211 85.9375 L75.8773 85.0938 C75.3304 84.625 74.6429 84.2031 73.6429 84.2031 C71.7054 84.2031 69.9867 85.6719 69.9867 88.2031 C69.9867 90.7188 71.5336 92.1875 73.5492 92.1875 Z"
      /><rect x="41" y="35" width="22" style="fill:white; stroke:none;" height="10"
      /><path style="stroke:none;" d="M42.6094 42.1562 L44.9531 38.6562 C45.2344 38.1406 45.5156 37.6406 45.7812 37.1406 L45.8281 37.1406 C45.7969 37.6719 45.7656 38.5 45.7656 39 L45.7656 42.1562 L42.6094 42.1562 ZM45.7656 46 L46.9688 46 L46.9688 43.1719 L48.3281 43.1719 L48.3281 42.1562 L46.9688 42.1562 L46.9688 35.7188 L45.5469 35.7188 L41.2812 42.3281 L41.2812 43.1719 L45.7656 43.1719 L45.7656 46 ZM51.9418 40.2656 C52.3168 39.0938 52.645 37.9844 52.9731 36.7812 L53.02 36.7812 C53.3637 37.9844 53.6762 39.0938 54.0668 40.2656 L54.5512 41.8281 L51.4418 41.8281 L51.9418 40.2656 ZM48.8168 46 L50.1293 46 L51.1293 42.8594 L54.8793 42.8594 L55.8481 46 L57.2231 46 L53.7387 35.7188 L52.3012 35.7188 L48.8168 46 ZM61.5492 46.1875 C62.4554 46.1875 63.3304 45.8281 64.0179 45.2188 L63.4554 44.3594 C62.9867 44.7969 62.3617 45.125 61.6586 45.125 C60.2679 45.125 59.3148 43.9531 59.3148 42.2031 C59.3148 40.4531 60.3148 39.2656 61.7054 39.2656 C62.3148 39.2656 62.7679 39.5469 63.2211 39.9375 L63.8773 39.0938 C63.3304 38.625 62.6429 38.2031 61.6429 38.2031 C59.7054 38.2031 57.9867 39.6719 57.9867 42.2031 C57.9867 44.7188 59.5336 46.1875 61.5492 46.1875 Z"
      /><rect x="33" y="81" width="14" style="fill:white; stroke:none;" height="11"
      /><path style="stroke:none;" d="M33.6094 92 L40.0625 92 L40.0625 90.8906 L37.2344 90.8906 C36.7031 90.8906 36.0781 90.9531 35.5469 90.9844 C37.9531 88.7031 39.5625 86.625 39.5625 84.5781 C39.5625 82.75 38.4219 81.5469 36.5781 81.5469 C35.2812 81.5469 34.4062 82.1406 33.5625 83.0469 L34.2969 83.7812 C34.8594 83.1094 35.5938 82.5938 36.4375 82.5938 C37.7031 82.5938 38.3125 83.4531 38.3125 84.625 C38.3125 86.3906 36.8438 88.4375 33.6094 91.25 L33.6094 92 ZM44.645 92.1875 C45.5512 92.1875 46.3637 91.6875 46.9575 91.1094 L47.0043 91.1094 L47.1137 92 L48.145 92 L48.145 80.8594 L46.895 80.8594 L46.895 83.7812 L46.9418 85.0938 C46.27 84.5312 45.6918 84.2031 44.8012 84.2031 C43.0668 84.2031 41.5043 85.7344 41.5043 88.2031 C41.5043 90.7344 42.7387 92.1875 44.645 92.1875 ZM44.9262 91.125 C43.5825 91.125 42.8325 90.0312 42.8325 88.1875 C42.8325 86.4531 43.8012 85.2812 45.02 85.2812 C45.6606 85.2812 46.2231 85.5 46.895 86.0781 L46.895 90.0625 C46.2387 90.7656 45.6293 91.125 44.9262 91.125 Z"
    /></g
    ><g style="fill:white; text-rendering:optimizeSpeed; font-family:'Serif'; stroke:white;"
    ><rect x="82" width="6" height="13" y="65" style="stroke:none;"
      /><path d="M84.0938 71.2031 C84.0938 69.6562 84.75 68.8125 85.7969 68.8125 C86.7188 68.8125 87.2656 69.4531 87.2656 70.5156 C87.2656 71.7188 86.5 72.4375 85.1875 72.7031 L85.2969 73.3125 C87.2188 73.2344 87.9375 74.2188 87.9375 75.4375 C87.9375 76.625 87.2344 77.4219 85.9531 77.4219 C85.25 77.4219 84.6562 77.1562 84.0938 76.7188 L84.0938 71.2031 ZM83.2031 77.9062 L83.1094 80.375 L83.2656 80.4844 L84.1562 80.2656 L84.0156 77.0938 C84.5469 77.8438 85.3594 78.1719 86.1719 78.1719 C87.5625 78.1719 88.8594 77.2188 88.8594 75.4844 C88.8594 73.9531 87.875 73.1094 86.125 73 C87.5625 72.6094 88.1875 71.4531 88.1875 70.4844 C88.1875 69.0938 87.1562 68.3125 85.9062 68.3125 C84.2969 68.3125 83.2188 69.5469 83.2188 71.5156 L83.2031 77.9062 Z" style="fill:black; stroke:none;"
    /></g
    ><g ID="legend-1:0" style="text-rendering:optimizeSpeed; font-size:10px; font-family:'SansSerif';"
    ><path style="stroke:none;" d="M30.875 113 L34.9062 113 L34.9062 112.2344 L33.4375 112.2344 L33.4375 105.6562 L32.7344 105.6562 C32.3281 105.9062 31.8594 106.0625 31.2031 106.1875 L31.2031 106.7656 L32.5156 106.7656 L32.5156 112.2344 L30.875 112.2344 L30.875 113 ZM35.925 108.4531 L40.7219 108.4531 L40.7219 107.7656 L35.925 107.7656 L35.925 108.4531 ZM35.925 110.8438 L40.7219 110.8438 L40.7219 110.1719 L35.925 110.1719 L35.925 110.8438 ZM41.9906 114.9844 L42.9125 114.9844 C42.8969 114.0781 42.8812 113.2188 42.85 112.2969 C43.4125 112.9219 44.1156 113.125 44.7875 113.125 C45.8969 113.125 46.9125 112.3125 46.9125 110.8438 C46.9125 109.7031 46.2562 108.8906 45.1625 108.7344 L45.1625 108.6875 C45.8656 108.2656 46.2562 107.6406 46.2562 106.8281 C46.2562 105.5312 45.2719 104.9062 44.225 104.9062 C42.6937 104.9062 41.9906 106.0156 41.9906 107.5156 L41.9906 114.9844 ZM44.5844 112.375 C44.0062 112.375 43.3812 112.1875 42.85 111.5156 C42.85 110.2031 42.8656 108.9375 42.8812 107.6406 C42.8969 106.3438 43.3969 105.6406 44.225 105.6406 C44.8344 105.6406 45.3656 106.0625 45.3656 106.9062 C45.3656 107.625 44.9281 108.4062 43.7875 108.625 L43.9125 109.3281 C44.1 109.2812 44.2875 109.2656 44.475 109.2656 C45.5062 109.2656 46.0062 109.9219 46.0062 110.7969 C46.0062 111.7812 45.3656 112.375 44.5844 112.375 ZM47.8631 110.5469 L50.4256 110.5469 L50.4256 109.8438 L47.8631 109.8438 L47.8631 110.5469 ZM51.3175 113 L55.9268 113 L55.9268 112.2031 L53.8956 112.2031 C53.5362 112.2031 53.0831 112.25 52.6925 112.2812 C54.4268 110.6562 55.5675 109.1562 55.5675 107.7031 C55.5675 106.3906 54.755 105.5312 53.4425 105.5312 C52.505 105.5312 51.88 105.9531 51.2862 106.6094 L51.8175 107.125 C52.2081 106.6562 52.7237 106.2812 53.3331 106.2812 C54.2393 106.2812 54.6768 106.8906 54.6768 107.7344 C54.6768 108.9844 53.6143 110.4531 51.3175 112.4531 L51.3175 113 ZM56.8831 110.5469 L59.4456 110.5469 L59.4456 109.8438 L56.8831 109.8438 L56.8831 110.5469 ZM62.6656 113.125 C63.3218 113.125 63.8843 112.7812 64.3218 112.3594 L64.3531 112.3594 L64.4312 113 L65.1656 113 L65.1656 105.0469 L64.275 105.0469 L64.275 107.125 L64.3062 108.0625 C63.8375 107.6719 63.4156 107.4375 62.775 107.4375 C61.5406 107.4375 60.4312 108.5312 60.4312 110.2969 C60.4312 112.0938 61.3062 113.125 62.6656 113.125 ZM62.8687 112.375 C61.9156 112.375 61.3687 111.5938 61.3687 110.2812 C61.3687 109.0469 62.0562 108.2031 62.9468 108.2031 C63.3843 108.2031 63.8062 108.3594 64.275 108.7656 L64.275 111.625 C63.8062 112.125 63.3687 112.375 62.8687 112.375 ZM69.2093 113.125 C69.9437 113.125 70.5375 112.875 71.0062 112.5625 L70.6781 111.9688 C70.2875 112.2344 69.85 112.4062 69.3187 112.4062 C68.2875 112.4062 67.5843 111.6562 67.5218 110.5 L71.1781 110.5 C71.1937 110.375 71.225 110.1875 71.225 109.9844 C71.225 108.4375 70.4437 107.4375 69.0531 107.4375 C67.8031 107.4375 66.6156 108.5312 66.6156 110.2969 C66.6156 112.0781 67.7718 113.125 69.2093 113.125 ZM67.5062 109.8438 C67.6156 108.7812 68.3031 108.1562 69.0687 108.1562 C69.9125 108.1562 70.4125 108.75 70.4125 109.8438 L67.5062 109.8438 ZM74.6712 113.125 C75.9993 113.125 77.1868 112.0938 77.1868 110.2969 C77.1868 108.4844 75.9993 107.4375 74.6712 107.4375 C73.3431 107.4375 72.1556 108.4844 72.1556 110.2969 C72.1556 112.0938 73.3431 113.125 74.6712 113.125 ZM74.6712 112.375 C73.7337 112.375 73.0931 111.5469 73.0931 110.2969 C73.0931 109.0469 73.7337 108.1875 74.6712 108.1875 C75.6087 108.1875 76.2493 109.0469 76.2493 110.2969 C76.2493 111.5469 75.6087 112.375 74.6712 112.375 ZM77.8562 113 L78.8093 113 L79.5437 111.7344 C79.7312 111.4062 79.9031 111.0625 80.1062 110.7656 L80.1531 110.7656 C80.3562 111.0625 80.5437 111.4062 80.7312 111.7344 L81.5281 113 L82.5281 113 L80.7468 110.2656 L82.3875 107.5625 L81.4343 107.5625 L80.7625 108.7656 C80.6062 109.0625 80.45 109.375 80.2781 109.6719 L80.2468 109.6719 C80.0593 109.375 79.8718 109.0625 79.7 108.7656 L78.9656 107.5625 L77.9968 107.5625 L79.6375 110.1719 L77.8562 113 ZM83.6956 115.3438 C84.7737 115.3438 85.3362 114.5156 85.7112 113.4531 L87.7581 107.5625 L86.8674 107.5625 L85.8987 110.5938 C85.7424 111.0625 85.5862 111.625 85.4456 112.1094 L85.3831 112.1094 C85.2268 111.625 85.0237 111.0625 84.8674 110.5938 L83.7581 107.5625 L82.8049 107.5625 L84.9924 113.0156 L84.8674 113.4219 C84.6487 114.0938 84.2581 114.5938 83.6331 114.5938 C83.4924 114.5938 83.3362 114.5469 83.2268 114.5 L83.0549 115.2344 C83.2268 115.2969 83.4299 115.3438 83.6956 115.3438 ZM88.3431 110.5469 L90.9056 110.5469 L90.9056 109.8438 L88.3431 109.8438 L88.3431 110.5469 ZM92.3599 113 L96.4849 113 L96.4849 112.2031 L93.2974 112.2031 L93.2974 105.6562 L92.3599 105.6562 L92.3599 113 ZM97.2431 110.5469 L99.8056 110.5469 L99.8056 109.8438 L97.2431 109.8438 L97.2431 110.5469 ZM103.3693 113.125 C104.1037 113.125 104.6974 112.875 105.1662 112.5625 L104.8381 111.9688 C104.4474 112.2344 104.0099 112.4062 103.4787 112.4062 C102.4474 112.4062 101.7443 111.6562 101.6818 110.5 L105.3381 110.5 C105.3537 110.375 105.3849 110.1875 105.3849 109.9844 C105.3849 108.4375 104.6037 107.4375 103.2131 107.4375 C101.9631 107.4375 100.7756 108.5312 100.7756 110.2969 C100.7756 112.0781 101.9318 113.125 103.3693 113.125 ZM101.6662 109.8438 C101.7756 108.7812 102.4631 108.1562 103.2287 108.1562 C104.0724 108.1562 104.5724 108.75 104.5724 109.8438 L101.6662 109.8438 ZM106.7218 113 L107.6281 113 L107.6281 109.5156 C107.9874 108.5781 108.5499 108.2656 109.0031 108.2656 C109.2218 108.2656 109.3468 108.2812 109.5343 108.3438 L109.7062 107.5469 C109.5343 107.4531 109.3624 107.4375 109.1124 107.4375 C108.5031 107.4375 107.9562 107.875 107.5812 108.5625 L107.5499 108.5625 L107.4718 107.5625 L106.7218 107.5625 L106.7218 113 ZM110.6955 115.3438 C111.7737 115.3438 112.3362 114.5156 112.7112 113.4531 L114.758 107.5625 L113.8674 107.5625 L112.8987 110.5938 C112.7424 111.0625 112.5862 111.625 112.4455 112.1094 L112.383 112.1094 C112.2268 111.625 112.0237 111.0625 111.8674 110.5938 L110.758 107.5625 L109.8049 107.5625 L111.9924 113.0156 L111.8674 113.4219 C111.6487 114.0938 111.258 114.5938 110.633 114.5938 C110.4924 114.5938 110.3362 114.5469 110.2268 114.5 L110.0549 115.2344 C110.2268 115.2969 110.4299 115.3438 110.6955 115.3438 ZM115.8899 113 L116.8274 113 L116.8274 110.0938 L118.0305 110.0938 C119.6399 110.0938 120.7337 109.375 120.7337 107.8125 C120.7337 106.2188 119.6243 105.6562 117.9837 105.6562 L115.8899 105.6562 L115.8899 113 ZM116.8274 109.3438 L116.8274 106.4219 L117.8743 106.4219 C119.1555 106.4219 119.8118 106.7656 119.8118 107.8125 C119.8118 108.875 119.2024 109.3438 117.9055 109.3438 L116.8274 109.3438 ZM124.3193 113.125 C125.0536 113.125 125.6474 112.875 126.1161 112.5625 L125.788 111.9688 C125.3974 112.2344 124.9599 112.4062 124.4286 112.4062 C123.3974 112.4062 122.6943 111.6562 122.6318 110.5 L126.288 110.5 C126.3036 110.375 126.3349 110.1875 126.3349 109.9844 C126.3349 108.4375 125.5536 107.4375 124.163 107.4375 C122.913 107.4375 121.7255 108.5312 121.7255 110.2969 C121.7255 112.0781 122.8818 113.125 124.3193 113.125 ZM122.6161 109.8438 C122.7255 108.7812 123.413 108.1562 124.1786 108.1562 C125.0224 108.1562 125.5224 108.75 125.5224 109.8438 L122.6161 109.8438 ZM127.6718 113 L128.578 113 L128.578 109.0625 C129.1249 108.5156 129.5155 108.2344 130.0624 108.2344 C130.7968 108.2344 131.0936 108.6562 131.0936 109.6875 L131.0936 113 L132.0155 113 L132.0155 109.5625 C132.0155 108.1719 131.4843 107.4375 130.3436 107.4375 C129.6093 107.4375 129.0468 107.8438 128.5311 108.3438 L128.4999 108.3438 L128.4218 107.5625 L127.6718 107.5625 L127.6718 113 ZM133.7818 115.2969 L134.688 115.2969 L134.688 113.4531 L134.6724 112.5 C135.1568 112.9062 135.6724 113.125 136.1724 113.125 C137.4224 113.125 138.5318 112.0625 138.5318 110.2031 C138.5318 108.5312 137.7661 107.4375 136.3755 107.4375 C135.7349 107.4375 135.1255 107.7969 134.6411 108.1875 L134.6099 108.1875 L134.5318 107.5625 L133.7818 107.5625 L133.7818 115.2969 ZM136.0161 112.375 C135.6568 112.375 135.1724 112.2188 134.688 111.7969 L134.688 108.9531 C135.2193 108.4531 135.688 108.2031 136.1568 108.2031 C137.1724 108.2031 137.5786 109.0156 137.5786 110.2031 C137.5786 111.5625 136.9224 112.375 136.0161 112.375 ZM141.7005 113.125 C142.9974 113.125 144.0443 112.3438 144.0443 111.0469 C144.0443 110.0469 143.3568 109.375 142.4974 109.1875 L142.4974 109.1406 C143.263 108.8438 143.7943 108.2656 143.7943 107.375 C143.7943 106.2031 142.9036 105.5312 141.6693 105.5312 C140.8255 105.5312 140.1693 105.9062 139.6224 106.4062 L140.1068 106.9844 C140.513 106.5625 141.0443 106.2812 141.6224 106.2812 C142.388 106.2812 142.8724 106.7344 142.8724 107.4375 C142.8724 108.2344 142.3568 108.8438 140.8411 108.8438 L140.8411 109.5469 C142.5286 109.5469 143.1224 110.125 143.1224 111 C143.1224 111.8438 142.4974 112.375 141.6224 112.375 C140.7943 112.375 140.2474 111.9844 139.8099 111.5312 L139.3568 112.125 C139.8255 112.6562 140.5443 113.125 141.7005 113.125 ZM145.3599 114.9062 C146.2661 114.5156 146.813 113.7656 146.813 112.8125 C146.813 112.1406 146.5318 111.7344 146.0474 111.7344 C145.6724 111.7344 145.3599 111.9844 145.3599 112.375 C145.3599 112.7969 145.6724 113.0156 146.0318 113.0156 C146.063 113.0156 146.0943 113.0156 146.1411 113 C146.1411 113.5938 145.7661 114.0781 145.1411 114.3594 L145.3599 114.9062 ZM148.5461 110.25 L150.2024 107.75 C150.4211 107.3906 150.6243 107.0312 150.7961 106.6719 L150.843 106.6719 C150.8274 107.0469 150.7961 107.6406 150.7961 108 L150.7961 110.25 L148.5461 110.25 ZM150.7961 113 L151.6555 113 L151.6555 110.9844 L152.6243 110.9844 L152.6243 110.25 L151.6555 110.25 L151.6555 105.6562 L150.6399 105.6562 L147.593 110.375 L147.593 110.9844 L150.7961 110.9844 L150.7961 113 ZM155.2055 108.9062 C155.4711 108.0625 155.7055 107.2812 155.9399 106.4219 L155.9867 106.4219 C156.2211 107.2656 156.4555 108.0625 156.7211 108.9062 L157.0649 110.0156 L154.8461 110.0156 L155.2055 108.9062 ZM152.9711 113 L153.9086 113 L154.6274 110.7656 L157.2992 110.7656 L158.0024 113 L158.9867 113 L156.4867 105.6562 L155.4555 105.6562 L152.9711 113 ZM162.0724 113.125 C162.713 113.125 163.338 112.875 163.8224 112.4375 L163.4317 111.8281 C163.088 112.1406 162.6505 112.375 162.1505 112.375 C161.1505 112.375 160.463 111.5469 160.463 110.2969 C160.463 109.0469 161.1974 108.1875 162.1817 108.1875 C162.6036 108.1875 162.9474 108.3906 163.2599 108.6719 L163.7286 108.0625 C163.338 107.7344 162.8536 107.4375 162.1349 107.4375 C160.7442 107.4375 159.5255 108.4844 159.5255 110.2969 C159.5255 112.0938 160.6349 113.125 162.0724 113.125 ZM164.5374 113 L169.1467 113 L169.1467 112.2031 L167.1155 112.2031 C166.7561 112.2031 166.303 112.25 165.9124 112.2812 C167.6467 110.6562 168.7874 109.1562 168.7874 107.7031 C168.7874 106.3906 167.9749 105.5312 166.6624 105.5312 C165.7249 105.5312 165.0999 105.9531 164.5061 106.6094 L165.0374 107.125 C165.428 106.6562 165.9436 106.2812 166.553 106.2812 C167.4592 106.2812 167.8967 106.8906 167.8967 107.7344 C167.8967 108.9844 166.8342 110.4531 164.5374 112.4531 L164.5374 113 Z"
    /></g
  ></g
></svg
>
