<?xml version="1.0"?>
<!DOCTYPE svg PUBLIC '-//W3C//DTD SVG 1.0//EN'
          'http://www.w3.org/TR/2001/REC-SVG-20010904/DTD/svg10.dtd'>
<svg xmlns:xlink="http://www.w3.org/1999/xlink" style="fill-opacity:1; color-rendering:auto; color-interpolation:auto; text-rendering:auto; stroke:black; stroke-linecap:square; stroke-miterlimit:10; shape-rendering:auto; stroke-opacity:1; fill:black; stroke-dasharray:none; font-weight:normal; stroke-width:1; font-family:'Dialog'; font-style:normal; stroke-linejoin:miter; font-size:12px; stroke-dashoffset:0; image-rendering:auto;" viewBox="0 0 173 186" xmlns="http://www.w3.org/2000/svg"
><!--Generated by the Batik Graphics2D SVG Generator--><defs id="genericDefs"
  /><g
  ><defs id="defs1"
    ><clipPath clipPathUnits="userSpaceOnUse" id="clipPath1"
      ><path d="M69 145 C69 151.0751 64.0751 156 58 156 C51.9249 156 47 151.0751 47 145 C47 138.9249 51.9249 134 58 134 C64.0751 134 69 138.9249 69 145 Z"
      /></clipPath
      ><clipPath clipPathUnits="userSpaceOnUse" id="clipPath2"
      ><path d="M69 93 C69 99.0751 64.0751 104 58 104 C51.9249 104 47 99.0751 47 93 C47 86.9249 51.9249 82 58 82 C64.0751 82 69 86.9249 69 93 Z"
      /></clipPath
      ><clipPath clipPathUnits="userSpaceOnUse" id="clipPath3"
      ><path style="fill-rule:evenodd;" d="M58 30 L60 37 L68 37 L61 42 L64 49 L58 45 L51 49 L54 42 L47 37 L55 37 L58 30 Z"
      /></clipPath
    ></defs
    ><g style="fill:white; text-rendering:optimizeSpeed; stroke:white;"
    ><rect x="0" width="173" height="186" y="0" style="stroke:none;"
      /><circle style="clip-path:url(#clipPath1); stroke:none;" r="11" cx="58" cy="145"
      /><rect x="47" y="134" width="22" style="clip-path:url(#clipPath1); fill:rgb(0,144,188); stroke:none;" height="22"
      /><rect x="47" y="134" width="22" style="clip-path:url(#clipPath1); fill:none; stroke:black;" height="22"
      /><circle style="fill:none; stroke:black;" r="11" cx="58" cy="145"
      /><rect x="74" y="132" width="5" style="stroke:none;" height="10"
    /></g
    ><g style="font-family:'Serif'; text-rendering:optimizeSpeed; "
    ><path style="stroke:none;" d="M75.8906 140.6875 C75.4844 140.6875 75.1562 141.0469 75.1562 141.4219 C75.1562 141.8125 75.4844 142.1562 75.8906 142.1562 C76.2969 142.1562 76.6406 141.8125 76.6406 141.4219 C76.6406 141.0469 76.2969 140.6875 75.8906 140.6875 ZM77.4688 134.5781 C77.7188 134.8906 77.875 135.2656 77.8906 135.6562 C77.8906 136.1875 77.625 136.5 77.0312 136.7656 L76.4062 137.0156 C75.6406 137.3125 75.3906 137.5469 75.3906 137.9375 C75.3906 138.1094 75.4531 138.3438 75.5781 138.8125 L75.7344 139.3438 L76.1094 139.3438 L76.0938 138.5312 C76.0938 138.0938 76.2031 137.9688 76.7812 137.7344 L77.2031 137.5625 C78.0312 137.2188 78.4531 136.6875 78.4531 135.8438 C78.4531 134.1562 76.6562 133.1875 75.5 133.0312 C75.1094 133.125 74.9062 133.2969 74.9062 133.6406 C74.9062 133.9375 75.0625 134.1562 75.7188 134.2656 L77.4688 134.5781 Z"
      /><rect x="74" y="148" width="5" style="fill:white; stroke:none;" height="10"
      /><path style="stroke:none;" d="M75.8906 156.6875 C75.4844 156.6875 75.1562 157.0469 75.1562 157.4219 C75.1562 157.8125 75.4844 158.1562 75.8906 158.1562 C76.2969 158.1562 76.6406 157.8125 76.6406 157.4219 C76.6406 157.0469 76.2969 156.6875 75.8906 156.6875 ZM77.4688 150.5781 C77.7188 150.8906 77.875 151.2656 77.8906 151.6562 C77.8906 152.1875 77.625 152.5 77.0312 152.7656 L76.4062 153.0156 C75.6406 153.3125 75.3906 153.5469 75.3906 153.9375 C75.3906 154.1094 75.4531 154.3438 75.5781 154.8125 L75.7344 155.3438 L76.1094 155.3438 L76.0938 154.5312 C76.0938 154.0938 76.2031 153.9688 76.7812 153.7344 L77.2031 153.5625 C78.0312 153.2188 78.4531 152.6875 78.4531 151.8438 C78.4531 150.1562 76.6562 149.1875 75.5 149.0312 C75.1094 149.125 74.9062 149.2969 74.9062 149.6406 C74.9062 149.9375 75.0625 150.1562 75.7188 150.2656 L77.4688 150.5781 Z"
      /><path style="stroke:none;" d="M29.6094 150 L36.0625 150 L36.0625 148.8906 L33.2344 148.8906 C32.7031 148.8906 32.0781 148.9531 31.5469 148.9844 C33.9531 146.7031 35.5625 144.625 35.5625 142.5781 C35.5625 140.75 34.4219 139.5469 32.5781 139.5469 C31.2812 139.5469 30.4062 140.1406 29.5625 141.0469 L30.2969 141.7812 C30.8594 141.1094 31.5938 140.5938 32.4375 140.5938 C33.7031 140.5938 34.3125 141.4531 34.3125 142.625 C34.3125 144.3906 32.8438 146.4375 29.6094 149.25 L29.6094 150 ZM36.9731 150 L38.3168 150 L39.3481 148.2188 C39.6137 147.7656 39.8637 147.2969 40.1293 146.8594 L40.2075 146.8594 C40.4731 147.2969 40.7543 147.7656 41.0043 148.2188 L42.1293 150 L43.5356 150 L41.02 146.1562 L43.3325 142.3906 L42.0043 142.3906 L41.0668 144.0625 C40.8481 144.5 40.6137 144.9219 40.3793 145.3438 L40.3325 145.3438 C40.0668 144.9219 39.8012 144.5 39.5668 144.0625 L38.5512 142.3906 L37.1762 142.3906 L39.4887 146.0312 L36.9731 150 Z"
    /></g
    ><g style="fill:white; text-rendering:optimizeSpeed; font-size:14px; font-family:'SansSerif'; stroke:white;"
    ><circle r="11" style="clip-path:url(#clipPath2); stroke:none;" cx="58" cy="93"
      /><rect x="47" y="82" width="22" style="clip-path:url(#clipPath2); fill:rgb(255,212,0); stroke:none;" height="22"
      /><rect x="47" y="82" width="22" style="clip-path:url(#clipPath2); fill:none; stroke:black;" height="22"
      /><circle r="11" style="fill:none; stroke:black;" cx="58" cy="93"
      /><rect x="74" width="5" height="10" y="80" style="stroke:none;"
    /></g
    ><g style="font-family:'Serif'; text-rendering:optimizeSpeed; "
    ><path style="stroke:none;" d="M75.8906 88.6875 C75.4844 88.6875 75.1562 89.0469 75.1562 89.4219 C75.1562 89.8125 75.4844 90.1562 75.8906 90.1562 C76.2969 90.1562 76.6406 89.8125 76.6406 89.4219 C76.6406 89.0469 76.2969 88.6875 75.8906 88.6875 ZM77.4688 82.5781 C77.7188 82.8906 77.875 83.2656 77.8906 83.6562 C77.8906 84.1875 77.625 84.5 77.0312 84.7656 L76.4062 85.0156 C75.6406 85.3125 75.3906 85.5469 75.3906 85.9375 C75.3906 86.1094 75.4531 86.3438 75.5781 86.8125 L75.7344 87.3438 L76.1094 87.3438 L76.0938 86.5312 C76.0938 86.0938 76.2031 85.9688 76.7812 85.7344 L77.2031 85.5625 C78.0312 85.2188 78.4531 84.6875 78.4531 83.8438 C78.4531 82.1562 76.6562 81.1875 75.5 81.0312 C75.1094 81.125 74.9062 81.2969 74.9062 81.6406 C74.9062 81.9375 75.0625 82.1562 75.7188 82.2656 L77.4688 82.5781 Z"
      /><rect x="74" y="96" width="5" style="fill:white; stroke:none;" height="10"
      /><path style="stroke:none;" d="M75.8906 104.6875 C75.4844 104.6875 75.1562 105.0469 75.1562 105.4219 C75.1562 105.8125 75.4844 106.1562 75.8906 106.1562 C76.2969 106.1562 76.6406 105.8125 76.6406 105.4219 C76.6406 105.0469 76.2969 104.6875 75.8906 104.6875 ZM77.4688 98.5781 C77.7188 98.8906 77.875 99.2656 77.8906 99.6562 C77.8906 100.1875 77.625 100.5 77.0312 100.7656 L76.4062 101.0156 C75.6406 101.3125 75.3906 101.5469 75.3906 101.9375 C75.3906 102.1094 75.4531 102.3438 75.5781 102.8125 L75.7344 103.3438 L76.1094 103.3438 L76.0938 102.5312 C76.0938 102.0938 76.2031 101.9688 76.7812 101.7344 L77.2031 101.5625 C78.0312 101.2188 78.4531 100.6875 78.4531 99.8438 C78.4531 98.1562 76.6562 97.1875 75.5 97.0312 C75.1094 97.125 74.9062 97.2969 74.9062 97.6406 C74.9062 97.9375 75.0625 98.1562 75.7188 98.2656 L77.4688 98.5781 Z"
      /><path style="stroke:none;" d="M29.6094 98 L36.0625 98 L36.0625 96.8906 L33.2344 96.8906 C32.7031 96.8906 32.0781 96.9531 31.5469 96.9844 C33.9531 94.7031 35.5625 92.625 35.5625 90.5781 C35.5625 88.75 34.4219 87.5469 32.5781 87.5469 C31.2812 87.5469 30.4062 88.1406 29.5625 89.0469 L30.2969 89.7812 C30.8594 89.1094 31.5938 88.5938 32.4375 88.5938 C33.7031 88.5938 34.3125 89.4531 34.3125 90.625 C34.3125 92.3906 32.8438 94.4375 29.6094 97.25 L29.6094 98 ZM36.9731 98 L38.3168 98 L39.3481 96.2188 C39.6137 95.7656 39.8637 95.2969 40.1293 94.8594 L40.2075 94.8594 C40.4731 95.2969 40.7543 95.7656 41.0043 96.2188 L42.1293 98 L43.5356 98 L41.02 94.1562 L43.3325 90.3906 L42.0043 90.3906 L41.0668 92.0625 C40.8481 92.5 40.6137 92.9219 40.3793 93.3438 L40.3325 93.3438 C40.0668 92.9219 39.8012 92.5 39.5668 92.0625 L38.5512 90.3906 L37.1762 90.3906 L39.4887 94.0312 L36.9731 98 Z"
    /></g
    ><g style="fill:white; text-rendering:optimizeSpeed; font-size:14px; font-family:'SansSerif'; stroke:white;"
    ><polygon style="stroke:none; clip-path:url(#clipPath3);" points=" 58 30 60 37 68 37 61 42 64 49 58 45 51 49 54 42 47 37 55 37 58 30"
      /><rect x="47" y="30" width="22" style="clip-path:url(#clipPath3); fill:rgb(244,121,32); stroke:none;" height="22"
      /><rect x="47" y="30" width="22" style="clip-path:url(#clipPath3); fill:none; stroke:black;" height="22"
      /><polygon style="fill:none; stroke:black;" points=" 58 30 60 37 68 37 61 42 64 49 58 45 51 49 54 42 47 37 55 37 58 30"
      /><rect x="74" width="5" height="10" y="28" style="stroke:none;"
    /></g
    ><g style="font-family:'Serif'; text-rendering:optimizeSpeed; "
    ><path style="stroke:none;" d="M75.8906 36.6875 C75.4844 36.6875 75.1562 37.0469 75.1562 37.4219 C75.1562 37.8125 75.4844 38.1562 75.8906 38.1562 C76.2969 38.1562 76.6406 37.8125 76.6406 37.4219 C76.6406 37.0469 76.2969 36.6875 75.8906 36.6875 ZM77.4688 30.5781 C77.7188 30.8906 77.875 31.2656 77.8906 31.6562 C77.8906 32.1875 77.625 32.5 77.0312 32.7656 L76.4062 33.0156 C75.6406 33.3125 75.3906 33.5469 75.3906 33.9375 C75.3906 34.1094 75.4531 34.3438 75.5781 34.8125 L75.7344 35.3438 L76.1094 35.3438 L76.0938 34.5312 C76.0938 34.0938 76.2031 33.9688 76.7812 33.7344 L77.2031 33.5625 C78.0312 33.2188 78.4531 32.6875 78.4531 31.8438 C78.4531 30.1562 76.6562 29.1875 75.5 29.0312 C75.1094 29.125 74.9062 29.2969 74.9062 29.6406 C74.9062 29.9375 75.0625 30.1562 75.7188 30.2656 L77.4688 30.5781 Z"
      /><rect x="74" y="44" width="5" style="fill:white; stroke:none;" height="10"
      /><path style="stroke:none;" d="M75.8906 52.6875 C75.4844 52.6875 75.1562 53.0469 75.1562 53.4219 C75.1562 53.8125 75.4844 54.1562 75.8906 54.1562 C76.2969 54.1562 76.6406 53.8125 76.6406 53.4219 C76.6406 53.0469 76.2969 52.6875 75.8906 52.6875 ZM77.4688 46.5781 C77.7188 46.8906 77.875 47.2656 77.8906 47.6562 C77.8906 48.1875 77.625 48.5 77.0312 48.7656 L76.4062 49.0156 C75.6406 49.3125 75.3906 49.5469 75.3906 49.9375 C75.3906 50.1094 75.4531 50.3438 75.5781 50.8125 L75.7344 51.3438 L76.1094 51.3438 L76.0938 50.5312 C76.0938 50.0938 76.2031 49.9688 76.7812 49.7344 L77.2031 49.5625 C78.0312 49.2188 78.4531 48.6875 78.4531 47.8438 C78.4531 46.1562 76.6562 45.1875 75.5 45.0312 C75.1094 45.125 74.9062 45.2969 74.9062 45.6406 C74.9062 45.9375 75.0625 46.1562 75.7188 46.2656 L77.4688 46.5781 Z"
    /></g
    ><g ID="legend-1:0" style="text-rendering:optimizeSpeed; font-size:10px; font-family:'SansSerif';"
    ><path style="stroke:none;" d="M30.9219 171 L31.8281 171 L31.8281 167.0625 C32.375 166.5156 32.7656 166.2344 33.3125 166.2344 C34.0469 166.2344 34.3438 166.6562 34.3438 167.6875 L34.3438 171 L35.2656 171 L35.2656 167.5625 C35.2656 166.1719 34.7344 165.4375 33.5938 165.4375 C32.8594 165.4375 32.2969 165.8438 31.7812 166.3438 L31.75 166.3438 L31.6719 165.5625 L30.9219 165.5625 L30.9219 171 ZM39.1413 171.125 C40.4694 171.125 41.6569 170.0938 41.6569 168.2969 C41.6569 166.4844 40.4694 165.4375 39.1413 165.4375 C37.8131 165.4375 36.6256 166.4844 36.6256 168.2969 C36.6256 170.0938 37.8131 171.125 39.1413 171.125 ZM39.1413 170.375 C38.2038 170.375 37.5631 169.5469 37.5631 168.2969 C37.5631 167.0469 38.2038 166.1875 39.1413 166.1875 C40.0788 166.1875 40.7194 167.0469 40.7194 168.2969 C40.7194 169.5469 40.0788 170.375 39.1413 170.375 ZM47.16 173.5 C48.8475 173.5 49.91 172.625 49.91 171.625 C49.91 170.7344 49.2694 170.3281 48.0038 170.3281 L46.9569 170.3281 C46.2225 170.3281 46.0038 170.0938 46.0038 169.7344 C46.0038 169.4375 46.1444 169.2656 46.3475 169.0938 C46.5975 169.2031 46.8944 169.2812 47.16 169.2812 C48.2538 169.2812 49.1444 168.5469 49.1444 167.3906 C49.1444 166.9219 48.9569 166.5156 48.7069 166.2656 L49.8163 166.2656 L49.8163 165.5625 L47.9256 165.5625 C47.7225 165.5 47.4569 165.4375 47.16 165.4375 C46.0663 165.4375 45.1131 166.1875 45.1131 167.375 C45.1131 168.0156 45.4725 168.5469 45.8319 168.8281 L45.8319 168.875 C45.5506 169.0625 45.2225 169.4375 45.2225 169.875 C45.2225 170.3125 45.4256 170.5938 45.7225 170.7656 L45.7225 170.8125 C45.2069 171.1406 44.9256 171.5781 44.9256 172.0469 C44.9256 172.9844 45.8319 173.5 47.16 173.5 ZM47.16 168.6562 C46.535 168.6562 46.0038 168.1562 46.0038 167.375 C46.0038 166.5625 46.5194 166.0938 47.16 166.0938 C47.8006 166.0938 48.3163 166.5781 48.3163 167.375 C48.3163 168.1562 47.785 168.6562 47.16 168.6562 ZM47.285 172.875 C46.3163 172.875 45.7225 172.5 45.7225 171.9219 C45.7225 171.5938 45.8788 171.2812 46.2694 171 C46.5038 171.0625 46.7694 171.0938 46.9725 171.0938 L47.91 171.0938 C48.6288 171.0938 49.0194 171.2656 49.0194 171.7656 C49.0194 172.3281 48.3319 172.875 47.285 172.875 ZM51.915 171.125 C52.165 171.125 52.3212 171.0938 52.4462 171.0469 L52.3212 170.3438 C52.2275 170.375 52.1806 170.375 52.1337 170.375 C51.9931 170.375 51.8681 170.2656 51.8681 169.9844 L51.8681 163.0469 L50.9619 163.0469 L50.9619 169.9219 C50.9619 170.6875 51.2431 171.125 51.915 171.125 ZM53.9056 173.3438 C54.9837 173.3438 55.5462 172.5156 55.9212 171.4531 L57.9681 165.5625 L57.0775 165.5625 L56.1087 168.5938 C55.9525 169.0625 55.7962 169.625 55.6556 170.1094 L55.5931 170.1094 C55.4369 169.625 55.2337 169.0625 55.0775 168.5938 L53.9681 165.5625 L53.015 165.5625 L55.2025 171.0156 L55.0775 171.4219 C54.8587 172.0938 54.4681 172.5938 53.8431 172.5938 C53.7025 172.5938 53.5462 172.5469 53.4369 172.5 L53.265 173.2344 C53.4369 173.2969 53.64 173.3438 53.9056 173.3438 ZM61.1625 171.125 C61.8031 171.125 62.4281 170.875 62.9125 170.4375 L62.5219 169.8281 C62.1781 170.1406 61.7406 170.375 61.2406 170.375 C60.2406 170.375 59.5531 169.5469 59.5531 168.2969 C59.5531 167.0469 60.2875 166.1875 61.2719 166.1875 C61.6937 166.1875 62.0375 166.3906 62.35 166.6719 L62.8187 166.0625 C62.4281 165.7344 61.9437 165.4375 61.225 165.4375 C59.8344 165.4375 58.6156 166.4844 58.6156 168.2969 C58.6156 170.0938 59.725 171.125 61.1625 171.125 ZM66.2212 171.125 C67.5493 171.125 68.7368 170.0938 68.7368 168.2969 C68.7368 166.4844 67.5493 165.4375 66.2212 165.4375 C64.8931 165.4375 63.7056 166.4844 63.7056 168.2969 C63.7056 170.0938 64.8931 171.125 66.2212 171.125 ZM66.2212 170.375 C65.2837 170.375 64.6431 169.5469 64.6431 168.2969 C64.6431 167.0469 65.2837 166.1875 66.2212 166.1875 C67.1587 166.1875 67.7993 167.0469 67.7993 168.2969 C67.7993 169.5469 67.1587 170.375 66.2212 170.375 ZM71.5937 171.125 C72.875 171.125 73.5625 170.4062 73.5625 169.5156 C73.5625 168.4844 72.7031 168.1719 71.9062 167.875 C71.2968 167.6406 70.7343 167.4531 70.7343 166.9375 C70.7343 166.5156 71.0625 166.1562 71.75 166.1562 C72.2343 166.1562 72.6093 166.3438 72.9843 166.625 L73.4218 166.0469 C73 165.7031 72.4062 165.4375 71.7343 165.4375 C70.5625 165.4375 69.8593 166.1094 69.8593 166.9688 C69.8593 167.8906 70.6875 168.2656 71.4531 168.5469 C72.0468 168.7656 72.6875 169.0156 72.6875 169.5625 C72.6875 170.0469 72.3437 170.4219 71.625 170.4219 C70.9687 170.4219 70.4843 170.1562 70.0156 169.7812 L69.5625 170.375 C70.0781 170.8125 70.8125 171.125 71.5937 171.125 ZM74.8518 171 L75.7581 171 L75.7581 165.5625 L74.8518 165.5625 L74.8518 171 ZM75.305 164.4531 C75.6643 164.4531 75.9143 164.2031 75.9143 163.8438 C75.9143 163.4844 75.6643 163.25 75.305 163.25 C74.9456 163.25 74.6956 163.4844 74.6956 163.8438 C74.6956 164.2031 74.9456 164.4531 75.305 164.4531 ZM79.4456 171.125 C80.1018 171.125 80.6643 170.7812 81.1018 170.3594 L81.1331 170.3594 L81.2112 171 L81.9456 171 L81.9456 163.0469 L81.055 163.0469 L81.055 165.125 L81.0862 166.0625 C80.6175 165.6719 80.1956 165.4375 79.555 165.4375 C78.3206 165.4375 77.2112 166.5312 77.2112 168.2969 C77.2112 170.0938 78.0862 171.125 79.4456 171.125 ZM79.6487 170.375 C78.6956 170.375 78.1487 169.5938 78.1487 168.2812 C78.1487 167.0469 78.8362 166.2031 79.7268 166.2031 C80.1643 166.2031 80.5862 166.3594 81.055 166.7656 L81.055 169.625 C80.5862 170.125 80.1487 170.375 79.6487 170.375 ZM83.8018 171 L84.7081 171 L84.7081 165.5625 L83.8018 165.5625 L83.8018 171 ZM84.255 164.4531 C84.6143 164.4531 84.8643 164.2031 84.8643 163.8438 C84.8643 163.4844 84.6143 163.25 84.255 163.25 C83.8956 163.25 83.6456 163.4844 83.6456 163.8438 C83.6456 164.2031 83.8956 164.4531 84.255 164.4531 ZM88.6925 171.125 C89.3331 171.125 89.9581 170.875 90.4425 170.4375 L90.0518 169.8281 C89.7081 170.1406 89.2706 170.375 88.7706 170.375 C87.7706 170.375 87.0831 169.5469 87.0831 168.2969 C87.0831 167.0469 87.8175 166.1875 88.8018 166.1875 C89.2237 166.1875 89.5675 166.3906 89.88 166.6719 L90.3487 166.0625 C89.9581 165.7344 89.4737 165.4375 88.755 165.4375 C87.3643 165.4375 86.1456 166.4844 86.1456 168.2969 C86.1456 170.0938 87.255 171.125 88.6925 171.125 ZM94.835 171.125 C95.085 171.125 95.2412 171.0938 95.3662 171.0469 L95.2412 170.3438 C95.1475 170.375 95.1006 170.375 95.0537 170.375 C94.9131 170.375 94.7881 170.2656 94.7881 169.9844 L94.7881 163.0469 L93.8818 163.0469 L93.8818 169.9219 C93.8818 170.6875 94.1631 171.125 94.835 171.125 ZM96.7318 171 L97.6381 171 L97.6381 165.5625 L96.7318 165.5625 L96.7318 171 ZM97.185 164.4531 C97.5443 164.4531 97.7943 164.2031 97.7943 163.8438 C97.7943 163.4844 97.5443 163.25 97.185 163.25 C96.8256 163.25 96.5756 163.4844 96.5756 163.8438 C96.5756 164.2031 96.8256 164.4531 97.185 164.4531 ZM99.4818 171 L100.3881 171 L100.3881 167.0625 C100.935 166.5156 101.3256 166.2344 101.8725 166.2344 C102.6068 166.2344 102.9037 166.6562 102.9037 167.6875 L102.9037 171 L103.8256 171 L103.8256 167.5625 C103.8256 166.1719 103.2943 165.4375 102.1537 165.4375 C101.4193 165.4375 100.8568 165.8438 100.3412 166.3438 L100.31 166.3438 L100.2318 165.5625 L99.4818 165.5625 L99.4818 171 ZM105.5918 171 L106.4825 171 L106.4825 169.5625 L107.5137 168.375 L109.1075 171 L110.0918 171 L108.045 167.7656 L109.8575 165.5625 L108.8262 165.5625 L106.5137 168.4375 L106.4825 168.4375 L106.4825 163.0469 L105.5918 163.0469 L105.5918 171 ZM112.3618 171.125 C113.0337 171.125 113.6431 170.7812 114.1587 170.3438 L114.1899 170.3438 L114.2681 171 L115.0181 171 L115.0181 167.6562 C115.0181 166.3125 114.4556 165.4375 113.1431 165.4375 C112.2681 165.4375 111.5024 165.8125 111.0024 166.1406 L111.3618 166.7656 C111.7837 166.4844 112.3618 166.1875 112.9868 166.1875 C113.8774 166.1875 114.1118 166.8594 114.1118 167.5625 C111.7993 167.8125 110.7681 168.4062 110.7681 169.5938 C110.7681 170.5625 111.4556 171.125 112.3618 171.125 ZM112.6274 170.4062 C112.0806 170.4062 111.6587 170.1562 111.6587 169.5312 C111.6587 168.8281 112.2837 168.375 114.1118 168.1562 L114.1118 169.6875 C113.5806 170.1562 113.1431 170.4062 112.6274 170.4062 ZM118.5799 173.5 C120.2674 173.5 121.3299 172.625 121.3299 171.625 C121.3299 170.7344 120.6893 170.3281 119.4237 170.3281 L118.3768 170.3281 C117.6424 170.3281 117.4237 170.0938 117.4237 169.7344 C117.4237 169.4375 117.5643 169.2656 117.7674 169.0938 C118.0174 169.2031 118.3143 169.2812 118.5799 169.2812 C119.6737 169.2812 120.5643 168.5469 120.5643 167.3906 C120.5643 166.9219 120.3768 166.5156 120.1268 166.2656 L121.2362 166.2656 L121.2362 165.5625 L119.3456 165.5625 C119.1424 165.5 118.8768 165.4375 118.5799 165.4375 C117.4862 165.4375 116.5331 166.1875 116.5331 167.375 C116.5331 168.0156 116.8924 168.5469 117.2518 168.8281 L117.2518 168.875 C116.9706 169.0625 116.6424 169.4375 116.6424 169.875 C116.6424 170.3125 116.8456 170.5938 117.1424 170.7656 L117.1424 170.8125 C116.6268 171.1406 116.3456 171.5781 116.3456 172.0469 C116.3456 172.9844 117.2518 173.5 118.5799 173.5 ZM118.5799 168.6562 C117.9549 168.6562 117.4237 168.1562 117.4237 167.375 C117.4237 166.5625 117.9393 166.0938 118.5799 166.0938 C119.2206 166.0938 119.7362 166.5781 119.7362 167.375 C119.7362 168.1562 119.2049 168.6562 118.5799 168.6562 ZM118.7049 172.875 C117.7362 172.875 117.1424 172.5 117.1424 171.9219 C117.1424 171.5938 117.2987 171.2812 117.6893 171 C117.9237 171.0625 118.1893 171.0938 118.3924 171.0938 L119.3299 171.0938 C120.0487 171.0938 120.4393 171.2656 120.4393 171.7656 C120.4393 172.3281 119.7518 172.875 118.7049 172.875 ZM124.5693 171.125 C125.3037 171.125 125.8974 170.875 126.3662 170.5625 L126.0381 169.9688 C125.6474 170.2344 125.2099 170.4062 124.6787 170.4062 C123.6474 170.4062 122.9443 169.6562 122.8818 168.5 L126.5381 168.5 C126.5537 168.375 126.5849 168.1875 126.5849 167.9844 C126.5849 166.4375 125.8037 165.4375 124.4131 165.4375 C123.1631 165.4375 121.9756 166.5312 121.9756 168.2969 C121.9756 170.0781 123.1318 171.125 124.5693 171.125 ZM122.8662 167.8438 C122.9756 166.7812 123.6631 166.1562 124.4287 166.1562 C125.2724 166.1562 125.7724 166.75 125.7724 167.8438 L122.8662 167.8438 ZM129.3437 171.125 C130.6249 171.125 131.3124 170.4062 131.3124 169.5156 C131.3124 168.4844 130.453 168.1719 129.6562 167.875 C129.0468 167.6406 128.4843 167.4531 128.4843 166.9375 C128.4843 166.5156 128.8124 166.1562 129.4999 166.1562 C129.9843 166.1562 130.3593 166.3438 130.7343 166.625 L131.1718 166.0469 C130.7499 165.7031 130.1562 165.4375 129.4843 165.4375 C128.3124 165.4375 127.6093 166.1094 127.6093 166.9688 C127.6093 167.8906 128.4374 168.2656 129.203 168.5469 C129.7968 168.7656 130.4374 169.0156 130.4374 169.5625 C130.4374 170.0469 130.0937 170.4219 129.3749 170.4219 C128.7187 170.4219 128.2343 170.1562 127.7655 169.7812 L127.3124 170.375 C127.828 170.8125 128.5624 171.125 129.3437 171.125 Z"
    /></g
  ></g
></svg
>
