<?xml version="1.0"?>
<!DOCTYPE svg PUBLIC '-//W3C//DTD SVG 1.0//EN'
          'http://www.w3.org/TR/2001/REC-SVG-20010904/DTD/svg10.dtd'>
<svg xmlns:xlink="http://www.w3.org/1999/xlink" style="fill-opacity:1; color-rendering:auto; color-interpolation:auto; text-rendering:auto; stroke:black; stroke-linecap:square; stroke-miterlimit:10; shape-rendering:auto; stroke-opacity:1; fill:black; stroke-dasharray:none; font-weight:normal; stroke-width:1; font-family:'Dialog'; font-style:normal; stroke-linejoin:miter; font-size:12px; stroke-dashoffset:0; image-rendering:auto;" viewBox="0 0 290 180" xmlns="http://www.w3.org/2000/svg"
><!--Generated by the Batik Graphics2D SVG Generator--><defs id="genericDefs"
  /><g
  ><defs id="defs1"
    ><clipPath clipPathUnits="userSpaceOnUse" id="clipPath1"
      ><path style="fill-rule:evenodd;" d="M191 56 L197 56 L197 100 L191 100 L197 100 L197 56 Z"
      /></clipPath
      ><clipPath clipPathUnits="userSpaceOnUse" id="clipPath2"
      ><path style="fill-rule:evenodd;" d="M156 78 L150 85 L139 85 L134 78 L139 70 L150 70 L156 78 Z"
      /></clipPath
      ><clipPath clipPathUnits="userSpaceOnUse" id="clipPath3"
      ><path style="fill-rule:evenodd;" d="M46 138 L41 138 L40 94 L46 94 L40 94 L41 138 Z"
      /></clipPath
      ><clipPath clipPathUnits="userSpaceOnUse" id="clipPath4"
      ><path d="M104 41 C104 47.0751 99.0751 52 93 52 C86.9249 52 82 47.0751 82 41 C82 34.9249 86.9249 30 93 30 C99.0751 30 104 34.9249 104 41 Z"
      /></clipPath
      ><clipPath clipPathUnits="userSpaceOnUse" id="clipPath5"
      ><path d="M30 30 L52 30 L52 52 L30 52 L30 30 Z"
      /></clipPath
    ></defs
    ><g style="fill:white; text-rendering:optimizeSpeed; stroke:white;"
    ><rect x="0" width="290" height="180" y="0" style="stroke:none;"
      /><polygon style="fill:none; stroke:black;" points=" 249 78 197 78"
      /><path d="M249 67 C243.5 72.5 254.5 83.5 249 89" style="fill:none; stroke:black;"
      /><polygon style="fill:none; stroke:black;" points=" 197 78 145 78"
      /><polygon style="clip-path:url(#clipPath1); stroke:none;" points=" 191 56 197 56 197 100 191 100 197 100 197 56"
      /><rect x="186" y="44" width="22" style="clip-path:url(#clipPath1); fill:black; stroke:none;" height="68"
      /><rect x="186" y="44" width="22" style="clip-path:url(#clipPath1); fill:none; stroke:black;" height="68"
      /><polygon style="fill:none; stroke:black;" points=" 191 56 197 56 197 100 191 100 197 100 197 56"
      /><polygon style="fill:none; stroke:black;" points=" 145 78 93 116"
      /><polygon style="fill:none; stroke:black;" points=" 145 78 93 41"
      /><polygon style="clip-path:url(#clipPath2); stroke:none;" points=" 156 78 150 85 139 85 134 78 139 70 150 70 156 78"
      /><rect x="134" y="67" width="22" style="clip-path:url(#clipPath2); stroke:none;" height="22"
      /><rect x="134" y="67" width="22" style="clip-path:url(#clipPath2); fill:none; stroke:black;" height="22"
      /><polygon style="fill:none; stroke:black;" points=" 156 78 150 85 139 85 134 78 139 70 150 70 156 78"
      /><polygon style="fill:none; stroke:black;" points=" 93 116 41 116"
      /><rect x="89" y="110" width="6" style="stroke:none;" height="10"
    /></g
    ><g style="text-rendering:optimizeSpeed; font-size:14px; font-family:'SansSerif';"
    ><path style="stroke:none;" d="M90.4062 121 L91.7031 121 L91.7031 116.9219 L93.3906 116.9219 C95.6562 116.9219 97.1719 115.9219 97.1719 113.75 C97.1719 111.5156 95.6406 110.7188 93.3438 110.7188 L90.4062 110.7188 L90.4062 121 ZM91.7031 115.875 L91.7031 111.7812 L93.1719 111.7812 C94.9844 111.7812 95.8906 112.2656 95.8906 113.75 C95.8906 115.2188 95.0312 115.875 93.2344 115.875 L91.7031 115.875 Z"
    /></g
    ><g style="fill:white; text-rendering:optimizeSpeed; stroke:white;"
    ><polygon style="stroke:none; clip-path:url(#clipPath3);" points=" 46 138 41 138 40 94 46 94 40 94 41 138"
      /><rect x="30" y="82" width="22" style="clip-path:url(#clipPath3); fill:black; stroke:none;" height="68"
      /><rect x="30" y="82" width="22" style="clip-path:url(#clipPath3); fill:none; stroke:black;" height="68"
      /><polygon style="fill:none; stroke:black;" points=" 46 138 41 138 40 94 46 94 40 94 41 138"
      /><path d="M43.5469 147.9531 C43.5156 147.2969 43.5 146.3906 43.5 145.7656 L43.5 144.5156 C43.5 142.8281 42.9531 142.1562 41.8594 142.1562 C41.0625 142.1562 40.1562 142.625 39.4531 143.4062 L39.3594 142.2969 L39.2031 142.1719 L37.4688 142.8125 L37.4688 143.2031 L38.5312 143.2812 C38.5625 143.8438 38.5781 144.3438 38.5781 145.1094 L38.5781 145.7656 C38.5781 146.375 38.5781 147.2969 38.5469 147.9688 L37.5469 148.1094 L37.5469 148.5 L40.4688 148.5 L40.4688 148.1094 L39.5156 147.9531 C39.5156 147.2969 39.5 146.375 39.5 145.7656 L39.5 143.875 C40.2656 143.1562 40.875 142.9062 41.4688 142.9062 C42.2344 142.9062 42.5938 143.3125 42.5938 144.5625 L42.5938 145.7656 C42.5938 146.3906 42.5781 147.3125 42.5625 147.9688 L41.5469 148.1094 L41.5469 148.5 L44.4844 148.5 L44.4844 148.1094 L43.5469 147.9531 Z" style="fill:black; stroke:none;"
      /><rect x="71" width="5" height="9" y="119" style="stroke:none;"
      /><path d="M74.8594 127.3906 C74.8594 126.6719 74.8438 125.9531 74.8438 125.25 L74.8438 121.1406 L74.8906 119.2656 L74.7031 119.125 L72.1094 119.7969 L72.1094 120.2344 L73.9219 120.0312 L73.9219 125.25 C73.9219 125.9531 73.9062 126.6719 73.8906 127.3906 L72 127.6094 L72 128 L76.7344 128 L76.7344 127.6094 L74.8594 127.3906 Z" style="fill:black; stroke:none;"
      /><polygon style="fill:none; stroke:black;" points=" 93 41 41 41"
      /><circle r="11" style="clip-path:url(#clipPath4); stroke:none;" cx="93" cy="41"
      /><rect x="82" y="30" width="22" style="clip-path:url(#clipPath4); fill:rgb(0,144,188); stroke:none;" height="22"
      /><rect x="82" y="30" width="22" style="clip-path:url(#clipPath4); fill:none; stroke:black;" height="22"
      /><circle r="11" style="fill:none; stroke:black;" cx="93" cy="41"
      /><rect x="30" y="30" width="22" style="clip-path:url(#clipPath5); stroke:none;" height="22"
      /><rect x="30" y="30" width="22" style="clip-path:url(#clipPath5); fill:rgb(0,144,188); stroke:none;" height="22"
      /><rect x="30" y="30" width="22" style="clip-path:url(#clipPath5); fill:none; stroke:black;" height="22"
      /><rect x="30" y="30" width="22" style="fill:none; stroke:black;" height="22"
      /><rect x="71" width="6" height="10" y="44" style="stroke:none;"
      /><path d="M73.2344 45.6562 C73.5156 45.5938 73.7656 45.5625 74.0156 45.5625 C75.0625 45.5625 75.6719 46.1719 75.6719 47.2656 C75.6719 48.4375 74.9062 49.1094 73.7031 49.1094 L73.1875 49.1094 L73.1875 49.6406 L73.7969 49.6406 C75.2188 49.6406 75.9062 50.4219 75.9062 51.6406 C75.9062 52.8438 75.1719 53.6875 73.875 53.6875 C73.6094 53.6875 73.3125 53.6562 73.0156 53.5625 L72.7812 52.8125 C72.625 52.2812 72.5 52.0469 72.1406 52.0469 C71.8906 52.0469 71.7031 52.1719 71.5781 52.4219 C71.8438 53.6406 72.7812 54.1719 74.0312 54.1719 C75.7188 54.1719 76.875 53.125 76.875 51.7031 C76.875 50.5 76.2031 49.625 74.7969 49.375 C75.9531 49.0156 76.6094 48.2031 76.6094 47.2031 C76.6094 45.9219 75.6719 45.0781 74.1875 45.0781 C73.0469 45.0781 72.0625 45.5938 71.7969 46.6875 C71.9062 47 72.1094 47.1094 72.3594 47.1094 C72.7344 47.1094 72.8906 46.8906 73 46.4062 L73.2344 45.6562 Z" style="fill:black; stroke:none;"
      /><rect x="56" width="8" height="8" y="45" style="stroke:none;"
      /><path d="M60.9844 50.7031 C60.9375 51.8906 60.1562 52.6562 59.3125 52.6562 C58.2656 52.6562 57.5 51.6875 57.5 49.7188 C57.5 48.2812 58.1562 47.1562 59.3438 47.1562 C60.1406 47.1562 60.7812 47.6875 61.0938 48.6406 L60.9844 50.7031 ZM62.9062 52.2812 C62.7344 52.375 62.5469 52.4219 62.3438 52.4219 C61.9531 52.4219 61.75 52.2188 61.75 51.4219 C61.75 50.4844 61.9688 48.5312 62.1875 46.8281 L62.0312 46.7188 L61.2344 46.9219 L61.1406 47.7969 C60.7812 47.0312 60.1562 46.6562 59.3906 46.6562 C58.0469 46.6562 56.5625 47.8438 56.5625 49.9531 C56.5625 52.0938 57.7188 53.1719 59.1406 53.1719 C60.0156 53.1719 60.6875 52.8125 61.0938 51.9844 C61.2031 52.8594 61.5156 53.1719 62.0156 53.1719 C62.4688 53.1719 62.7969 52.9062 63.0156 52.5625 L62.9062 52.2812 Z" style="fill:black; stroke:none;"
      /><rect x="101" width="8" height="8" y="55" style="stroke:none;"
      /><path d="M105.9844 60.7031 C105.9375 61.8906 105.1562 62.6562 104.3125 62.6562 C103.2656 62.6562 102.5 61.6875 102.5 59.7188 C102.5 58.2812 103.1562 57.1562 104.3438 57.1562 C105.1406 57.1562 105.7812 57.6875 106.0938 58.6406 L105.9844 60.7031 ZM107.9062 62.2812 C107.7344 62.375 107.5469 62.4219 107.3438 62.4219 C106.9531 62.4219 106.75 62.2188 106.75 61.4219 C106.75 60.4844 106.9688 58.5312 107.1875 56.8281 L107.0312 56.7188 L106.2344 56.9219 L106.1406 57.7969 C105.7812 57.0312 105.1562 56.6562 104.3906 56.6562 C103.0469 56.6562 101.5625 57.8438 101.5625 59.9531 C101.5625 62.0938 102.7188 63.1719 104.1406 63.1719 C105.0156 63.1719 105.6875 62.8125 106.0938 61.9844 C106.2031 62.8594 106.5156 63.1719 107.0156 63.1719 C107.4688 63.1719 107.7969 62.9062 108.0156 62.5625 L107.9062 62.2812 Z" style="fill:black; stroke:none;"
      /><rect x="161" width="5" height="10" y="65" style="stroke:none;"
      /><path d="M162.8906 73.6875 C162.4844 73.6875 162.1562 74.0469 162.1562 74.4219 C162.1562 74.8125 162.4844 75.1562 162.8906 75.1562 C163.2969 75.1562 163.6406 74.8125 163.6406 74.4219 C163.6406 74.0469 163.2969 73.6875 162.8906 73.6875 ZM164.4688 67.5781 C164.7188 67.8906 164.875 68.2656 164.8906 68.6562 C164.8906 69.1875 164.625 69.5 164.0312 69.7656 L163.4062 70.0156 C162.6406 70.3125 162.3906 70.5469 162.3906 70.9375 C162.3906 71.1094 162.4531 71.3438 162.5781 71.8125 L162.7344 72.3438 L163.1094 72.3438 L163.0938 71.5312 C163.0938 71.0938 163.2031 70.9688 163.7812 70.7344 L164.2031 70.5625 C165.0312 70.2188 165.4531 69.6875 165.4531 68.8438 C165.4531 67.1562 163.6562 66.1875 162.5 66.0312 C162.1094 66.125 161.9062 66.2969 161.9062 66.6406 C161.9062 66.9375 162.0625 67.1562 162.7188 67.2656 L164.4688 67.5781 Z" style="fill:black; stroke:none;"
      /><rect x="161" width="5" height="10" y="81" style="stroke:none;"
      /><path d="M162.8906 89.6875 C162.4844 89.6875 162.1562 90.0469 162.1562 90.4219 C162.1562 90.8125 162.4844 91.1562 162.8906 91.1562 C163.2969 91.1562 163.6406 90.8125 163.6406 90.4219 C163.6406 90.0469 163.2969 89.6875 162.8906 89.6875 ZM164.4688 83.5781 C164.7188 83.8906 164.875 84.2656 164.8906 84.6562 C164.8906 85.1875 164.625 85.5 164.0312 85.7656 L163.4062 86.0156 C162.6406 86.3125 162.3906 86.5469 162.3906 86.9375 C162.3906 87.1094 162.4531 87.3438 162.5781 87.8125 L162.7344 88.3438 L163.1094 88.3438 L163.0938 87.5312 C163.0938 87.0938 163.2031 86.9688 163.7812 86.7344 L164.2031 86.5625 C165.0312 86.2188 165.4531 85.6875 165.4531 84.8438 C165.4531 83.1562 163.6562 82.1875 162.5 82.0312 C162.1094 82.125 161.9062 82.2969 161.9062 82.6406 C161.9062 82.9375 162.0625 83.1562 162.7188 83.2656 L164.4688 83.5781 Z" style="fill:black; stroke:none;"
    /></g
  ></g
></svg
>
