<?xml version="1.0"?>
<!DOCTYPE svg PUBLIC '-//W3C//DTD SVG 1.0//EN'
          'http://www.w3.org/TR/2001/REC-SVG-20010904/DTD/svg10.dtd'>
<svg xmlns:xlink="http://www.w3.org/1999/xlink" style="fill-opacity:1; color-rendering:auto; color-interpolation:auto; text-rendering:auto; stroke:black; stroke-linecap:square; stroke-miterlimit:10; shape-rendering:auto; stroke-opacity:1; fill:black; stroke-dasharray:none; font-weight:normal; stroke-width:1; font-family:'Dialog'; font-style:normal; stroke-linejoin:miter; font-size:12px; stroke-dashoffset:0; image-rendering:auto;" viewBox="0 0 394 186" xmlns="http://www.w3.org/2000/svg"
><!--Generated by the Batik Graphics2D SVG Generator--><defs id="genericDefs"
  /><g
  ><defs id="defs1"
    ><clipPath clipPathUnits="userSpaceOnUse" id="clipPath1"
      ><path d="M312 93 C312 99.0751 307.0751 104 301 104 C294.9249 104 290 99.0751 290 93 C290 86.9249 294.9249 82 301 82 C307.0751 82 312 86.9249 312 93 Z"
      /></clipPath
      ><clipPath clipPathUnits="userSpaceOnUse" id="clipPath2"
      ><path d="M260 93 C260 99.0751 255.0751 104 249 104 C242.9249 104 238 99.0751 238 93 C238 86.9249 242.9249 82 249 82 C255.0751 82 260 86.9249 260 93 Z"
      /></clipPath
      ><clipPath clipPathUnits="userSpaceOnUse" id="clipPath3"
      ><path d="M186 134 L208 134 L208 156 L186 156 L186 134 Z"
      /></clipPath
      ><clipPath clipPathUnits="userSpaceOnUse" id="clipPath4"
      ><path d="M156 145 C156 151.0751 151.0751 156 145 156 C138.9249 156 134 151.0751 134 145 C134 138.9249 138.9249 134 145 134 C151.0751 134 156 138.9249 156 145 Z"
      /></clipPath
      ><clipPath clipPathUnits="userSpaceOnUse" id="clipPath5"
      ><path d="M186 30 L208 30 L208 52 L186 52 L186 30 Z"
      /></clipPath
      ><clipPath clipPathUnits="userSpaceOnUse" id="clipPath6"
      ><path style="fill-rule:evenodd;" d="M197 82 L208 104 L186 104 Z"
      /></clipPath
      ><clipPath clipPathUnits="userSpaceOnUse" id="clipPath7"
      ><path d="M156 41 C156 47.0751 151.0751 52 145 52 C138.9249 52 134 47.0751 134 41 C134 34.9249 138.9249 30 145 30 C151.0751 30 156 34.9249 156 41 Z"
      /></clipPath
      ><clipPath clipPathUnits="userSpaceOnUse" id="clipPath8"
      ><path d="M82 30 L104 30 L104 52 L82 52 L82 30 Z"
      /></clipPath
      ><clipPath clipPathUnits="userSpaceOnUse" id="clipPath9"
      ><path d="M52 41 C52 47.0751 47.0751 52 41 52 C34.9249 52 30 47.0751 30 41 C30 34.9249 34.9249 30 41 30 C47.0751 30 52 34.9249 52 41 Z"
      /></clipPath
    ></defs
    ><g style="fill:white; text-rendering:optimizeSpeed; stroke:white;"
    ><rect x="0" width="394" height="186" y="0" style="stroke:none;"
      /><polygon style="fill:none; stroke:black;" points=" 353 93 301 93"
      /><path d="M353 82 C347.5 87.5 358.5 98.5 353 104" style="fill:none; stroke:black;"
      /><polygon style="fill:none; stroke:black;" points=" 301 93 249 93"
      /><circle style="clip-path:url(#clipPath1); stroke:none;" r="11" cx="301" cy="93"
      /><rect x="290" y="82" width="22" style="clip-path:url(#clipPath1); fill:rgb(0,144,188); stroke:none;" height="22"
      /><rect x="290" y="82" width="22" style="clip-path:url(#clipPath1); fill:none; stroke:black;" height="22"
      /><circle style="fill:none; stroke:black;" r="11" cx="301" cy="93"
      /><polygon style="fill:none; stroke:black;" points=" 249 93 197 145"
      /><polygon style="fill:none; stroke:black;" points=" 249 93 197 41"
      /><circle style="clip-path:url(#clipPath2); stroke:none;" r="11" cx="249" cy="93"
      /><rect x="238" y="82" width="22" style="clip-path:url(#clipPath2); fill:rgb(255,212,0); stroke:none;" height="22"
      /><rect x="238" y="82" width="22" style="clip-path:url(#clipPath2); fill:none; stroke:black;" height="22"
      /><circle style="fill:none; stroke:black;" r="11" cx="249" cy="93"
      /><polygon style="fill:none; stroke:black;" points=" 197 145 145 145"
      /><rect x="186" y="134" width="22" style="clip-path:url(#clipPath3); stroke:none;" height="22"
      /><rect x="186" y="134" width="22" style="clip-path:url(#clipPath3); fill:rgb(0,144,188); stroke:none;" height="22"
      /><rect x="186" y="134" width="22" style="clip-path:url(#clipPath3); fill:none; stroke:black;" height="22"
      /><rect x="186" y="134" width="22" style="fill:none; stroke:black;" height="22"
      /><circle style="clip-path:url(#clipPath4); stroke:none;" r="11" cx="145" cy="145"
      /><rect x="134" y="134" width="22" style="clip-path:url(#clipPath4); fill:rgb(255,212,0); stroke:none;" height="22"
      /><rect x="134" y="134" width="22" style="clip-path:url(#clipPath4); fill:none; stroke:black;" height="22"
      /><circle style="fill:none; stroke:black;" r="11" cx="145" cy="145"
      /><rect x="175" y="148" width="6" style="stroke:none;" height="10"
    /></g
    ><g style="font-family:'Serif'; text-rendering:optimizeSpeed; "
    ><path style="stroke:none;" d="M177.2344 149.6562 C177.5156 149.5938 177.7656 149.5625 178.0156 149.5625 C179.0625 149.5625 179.6719 150.1719 179.6719 151.2656 C179.6719 152.4375 178.9062 153.1094 177.7031 153.1094 L177.1875 153.1094 L177.1875 153.6406 L177.7969 153.6406 C179.2188 153.6406 179.9062 154.4219 179.9062 155.6406 C179.9062 156.8438 179.1719 157.6875 177.875 157.6875 C177.6094 157.6875 177.3125 157.6562 177.0156 157.5625 L176.7812 156.8125 C176.625 156.2812 176.5 156.0469 176.1406 156.0469 C175.8906 156.0469 175.7031 156.1719 175.5781 156.4219 C175.8438 157.6406 176.7812 158.1719 178.0312 158.1719 C179.7188 158.1719 180.875 157.125 180.875 155.7031 C180.875 154.5 180.2031 153.625 178.7969 153.375 C179.9531 153.0156 180.6094 152.2031 180.6094 151.2031 C180.6094 149.9219 179.6719 149.0781 178.1875 149.0781 C177.0469 149.0781 176.0625 149.5938 175.7969 150.6875 C175.9062 151 176.1094 151.1094 176.3594 151.1094 C176.7344 151.1094 176.8906 150.8906 177 150.4062 L177.2344 149.6562 Z"
      /><rect x="161" y="146" width="6" style="fill:white; stroke:none;" height="13"
      /><path style="stroke:none;" d="M163.0938 152.2031 C163.0938 150.6562 163.75 149.8125 164.7969 149.8125 C165.7188 149.8125 166.2656 150.4531 166.2656 151.5156 C166.2656 152.7188 165.5 153.4375 164.1875 153.7031 L164.2969 154.3125 C166.2188 154.2344 166.9375 155.2188 166.9375 156.4375 C166.9375 157.625 166.2344 158.4219 164.9531 158.4219 C164.25 158.4219 163.6562 158.1562 163.0938 157.7188 L163.0938 152.2031 ZM162.2031 158.9062 L162.1094 161.375 L162.2656 161.4844 L163.1562 161.2656 L163.0156 158.0938 C163.5469 158.8438 164.3594 159.1719 165.1719 159.1719 C166.5625 159.1719 167.8594 158.2188 167.8594 156.4844 C167.8594 154.9531 166.875 154.1094 165.125 154 C166.5625 153.6094 167.1875 152.4531 167.1875 151.4844 C167.1875 150.0938 166.1562 149.3125 164.9062 149.3125 C163.2969 149.3125 162.2188 150.5469 162.2188 152.5156 L162.2031 158.9062 Z"
      /><polygon style="fill:none;" points=" 197 41 197 93"
      /><polygon style="fill:none;" points=" 197 41 145 41"
      /><rect x="186" y="30" width="22" style="clip-path:url(#clipPath5); fill:white; stroke:none;" height="22"
      /><rect x="186" y="30" width="22" style="clip-path:url(#clipPath5); fill:rgb(0,144,188); stroke:none;" height="22"
      /><rect x="186" y="30" width="22" style="fill:none; clip-path:url(#clipPath5);" height="22"
      /><rect x="186" width="22" height="22" y="30" style="fill:none;"
      /><polygon style="fill:white; clip-path:url(#clipPath6); stroke:none;" points=" 197 82 208 104 186 104"
      /><rect x="186" y="82" width="22" style="clip-path:url(#clipPath6); fill:rgb(237,28,36); stroke:none;" height="22"
      /><rect x="186" y="82" width="22" style="fill:none; clip-path:url(#clipPath6);" height="22"
      /><polygon style="fill:none;" points=" 197 82 208 104 186 104"
      /><polygon style="fill:none;" points=" 145 41 93 41"
      /><circle style="fill:white; clip-path:url(#clipPath7); stroke:none;" r="11" cx="145" cy="41"
      /><rect x="134" y="30" width="22" style="clip-path:url(#clipPath7); fill:rgb(255,212,0); stroke:none;" height="22"
      /><rect x="134" y="30" width="22" style="fill:none; clip-path:url(#clipPath7);" height="22"
      /><circle r="11" style="fill:none;" cx="145" cy="41"
      /><polygon style="fill:none;" points=" 93 41 41 41"
      /><rect x="82" y="30" width="22" style="clip-path:url(#clipPath8); fill:white; stroke:none;" height="22"
      /><rect x="82" y="30" width="22" style="clip-path:url(#clipPath8); fill:rgb(0,144,188); stroke:none;" height="22"
      /><rect x="82" y="30" width="22" style="fill:none; clip-path:url(#clipPath8);" height="22"
      /><rect x="82" width="22" height="22" y="30" style="fill:none;"
      /><circle style="fill:white; clip-path:url(#clipPath9); stroke:none;" r="11" cx="41" cy="41"
      /><rect x="30" y="30" width="22" style="clip-path:url(#clipPath9); fill:rgb(255,212,0); stroke:none;" height="22"
      /><rect x="30" y="30" width="22" style="fill:none; clip-path:url(#clipPath9);" height="22"
      /><circle r="11" style="fill:none;" cx="41" cy="41"
      /><rect x="71" y="44" width="6" style="fill:white; stroke:none;" height="10"
      /><path style="stroke:none;" d="M73.2344 45.6562 C73.5156 45.5938 73.7656 45.5625 74.0156 45.5625 C75.0625 45.5625 75.6719 46.1719 75.6719 47.2656 C75.6719 48.4375 74.9062 49.1094 73.7031 49.1094 L73.1875 49.1094 L73.1875 49.6406 L73.7969 49.6406 C75.2188 49.6406 75.9062 50.4219 75.9062 51.6406 C75.9062 52.8438 75.1719 53.6875 73.875 53.6875 C73.6094 53.6875 73.3125 53.6562 73.0156 53.5625 L72.7812 52.8125 C72.625 52.2812 72.5 52.0469 72.1406 52.0469 C71.8906 52.0469 71.7031 52.1719 71.5781 52.4219 C71.8438 53.6406 72.7812 54.1719 74.0312 54.1719 C75.7188 54.1719 76.875 53.125 76.875 51.7031 C76.875 50.5 76.2031 49.625 74.7969 49.375 C75.9531 49.0156 76.6094 48.2031 76.6094 47.2031 C76.6094 45.9219 75.6719 45.0781 74.1875 45.0781 C73.0469 45.0781 72.0625 45.5938 71.7969 46.6875 C71.9062 47 72.1094 47.1094 72.3594 47.1094 C72.7344 47.1094 72.8906 46.8906 73 46.4062 L73.2344 45.6562 Z"
      /><rect x="57" y="42" width="6" style="fill:white; stroke:none;" height="13"
      /><path style="stroke:none;" d="M59.0938 48.2031 C59.0938 46.6562 59.75 45.8125 60.7969 45.8125 C61.7188 45.8125 62.2656 46.4531 62.2656 47.5156 C62.2656 48.7188 61.5 49.4375 60.1875 49.7031 L60.2969 50.3125 C62.2188 50.2344 62.9375 51.2188 62.9375 52.4375 C62.9375 53.625 62.2344 54.4219 60.9531 54.4219 C60.25 54.4219 59.6562 54.1562 59.0938 53.7188 L59.0938 48.2031 ZM58.2031 54.9062 L58.1094 57.375 L58.2656 57.4844 L59.1562 57.2656 L59.0156 54.0938 C59.5469 54.8438 60.3594 55.1719 61.1719 55.1719 C62.5625 55.1719 63.8594 54.2188 63.8594 52.4844 C63.8594 50.9531 62.875 50.1094 61.125 50 C62.5625 49.6094 63.1875 48.4531 63.1875 47.4844 C63.1875 46.0938 62.1562 45.3125 60.9062 45.3125 C59.2969 45.3125 58.2188 46.5469 58.2188 48.5156 L58.2031 54.9062 Z"
      /><rect x="123" y="44" width="6" style="fill:white; stroke:none;" height="10"
      /><path style="stroke:none;" d="M125.2344 45.6562 C125.5156 45.5938 125.7656 45.5625 126.0156 45.5625 C127.0625 45.5625 127.6719 46.1719 127.6719 47.2656 C127.6719 48.4375 126.9062 49.1094 125.7031 49.1094 L125.1875 49.1094 L125.1875 49.6406 L125.7969 49.6406 C127.2188 49.6406 127.9062 50.4219 127.9062 51.6406 C127.9062 52.8438 127.1719 53.6875 125.875 53.6875 C125.6094 53.6875 125.3125 53.6562 125.0156 53.5625 L124.7812 52.8125 C124.625 52.2812 124.5 52.0469 124.1406 52.0469 C123.8906 52.0469 123.7031 52.1719 123.5781 52.4219 C123.8438 53.6406 124.7812 54.1719 126.0312 54.1719 C127.7188 54.1719 128.875 53.125 128.875 51.7031 C128.875 50.5 128.2031 49.625 126.7969 49.375 C127.9531 49.0156 128.6094 48.2031 128.6094 47.2031 C128.6094 45.9219 127.6719 45.0781 126.1875 45.0781 C125.0469 45.0781 124.0625 45.5938 123.7969 46.6875 C123.9062 47 124.1094 47.1094 124.3594 47.1094 C124.7344 47.1094 124.8906 46.8906 125 46.4062 L125.2344 45.6562 Z"
      /><rect x="109" y="42" width="6" style="fill:white; stroke:none;" height="13"
      /><path style="stroke:none;" d="M111.0938 48.2031 C111.0938 46.6562 111.75 45.8125 112.7969 45.8125 C113.7188 45.8125 114.2656 46.4531 114.2656 47.5156 C114.2656 48.7188 113.5 49.4375 112.1875 49.7031 L112.2969 50.3125 C114.2188 50.2344 114.9375 51.2188 114.9375 52.4375 C114.9375 53.625 114.2344 54.4219 112.9531 54.4219 C112.25 54.4219 111.6562 54.1562 111.0938 53.7188 L111.0938 48.2031 ZM110.2031 54.9062 L110.1094 57.375 L110.2656 57.4844 L111.1562 57.2656 L111.0156 54.0938 C111.5469 54.8438 112.3594 55.1719 113.1719 55.1719 C114.5625 55.1719 115.8594 54.2188 115.8594 52.4844 C115.8594 50.9531 114.875 50.1094 113.125 50 C114.5625 49.6094 115.1875 48.4531 115.1875 47.4844 C115.1875 46.0938 114.1562 45.3125 112.9062 45.3125 C111.2969 45.3125 110.2188 46.5469 110.2188 48.5156 L110.2031 54.9062 Z"
      /><rect x="202" y="55" width="6" style="fill:white; stroke:none;" height="10"
      /><path style="stroke:none;" d="M204.2344 56.6562 C204.5156 56.5938 204.7656 56.5625 205.0156 56.5625 C206.0625 56.5625 206.6719 57.1719 206.6719 58.2656 C206.6719 59.4375 205.9062 60.1094 204.7031 60.1094 L204.1875 60.1094 L204.1875 60.6406 L204.7969 60.6406 C206.2188 60.6406 206.9062 61.4219 206.9062 62.6406 C206.9062 63.8438 206.1719 64.6875 204.875 64.6875 C204.6094 64.6875 204.3125 64.6562 204.0156 64.5625 L203.7812 63.8125 C203.625 63.2812 203.5 63.0469 203.1406 63.0469 C202.8906 63.0469 202.7031 63.1719 202.5781 63.4219 C202.8438 64.6406 203.7812 65.1719 205.0312 65.1719 C206.7188 65.1719 207.875 64.125 207.875 62.7031 C207.875 61.5 207.2031 60.625 205.7969 60.375 C206.9531 60.0156 207.6094 59.2031 207.6094 58.2031 C207.6094 56.9219 206.6719 56.0781 205.1875 56.0781 C204.0469 56.0781 203.0625 56.5938 202.7969 57.6875 C202.9062 58 203.1094 58.1094 203.3594 58.1094 C203.7344 58.1094 203.8906 57.8906 204 57.4062 L204.2344 56.6562 Z"
      /><rect x="201" y="70" width="8" style="fill:white; stroke:none;" height="8"
      /><path style="stroke:none;" d="M205.9844 75.7031 C205.9375 76.8906 205.1562 77.6562 204.3125 77.6562 C203.2656 77.6562 202.5 76.6875 202.5 74.7188 C202.5 73.2812 203.1562 72.1562 204.3438 72.1562 C205.1406 72.1562 205.7812 72.6875 206.0938 73.6406 L205.9844 75.7031 ZM207.9062 77.2812 C207.7344 77.375 207.5469 77.4219 207.3438 77.4219 C206.9531 77.4219 206.75 77.2188 206.75 76.4219 C206.75 75.4844 206.9688 73.5312 207.1875 71.8281 L207.0312 71.7188 L206.2344 71.9219 L206.1406 72.7969 C205.7812 72.0312 205.1562 71.6562 204.3906 71.6562 C203.0469 71.6562 201.5625 72.8438 201.5625 74.9531 C201.5625 77.0938 202.7188 78.1719 204.1406 78.1719 C205.0156 78.1719 205.6875 77.8125 206.0938 76.9844 C206.2031 77.8594 206.5156 78.1719 207.0156 78.1719 C207.4688 78.1719 207.7969 77.9062 208.0156 77.5625 L207.9062 77.2812 Z"
      /><rect x="174" y="44" width="7" style="fill:white; stroke:none;" height="9"
      /><path style="stroke:none;" d="M175 49.5156 L177.9531 45.2656 L177.9531 49.5156 L175 49.5156 ZM180.2812 49.5156 L178.8594 49.5156 L178.8594 44.125 L178.2344 44.125 L174.3438 49.6406 L174.3438 50.1875 L177.9531 50.1875 L177.9531 53 L178.8594 53 L178.8594 50.1875 L180.2812 50.1875 L180.2812 49.5156 Z"
      /><rect x="161" y="44" width="5" style="fill:white; stroke:none;" height="10"
      /><path style="stroke:none;" d="M162.8906 52.6875 C162.4844 52.6875 162.1562 53.0469 162.1562 53.4219 C162.1562 53.8125 162.4844 54.1562 162.8906 54.1562 C163.2969 54.1562 163.6406 53.8125 163.6406 53.4219 C163.6406 53.0469 163.2969 52.6875 162.8906 52.6875 ZM164.4688 46.5781 C164.7188 46.8906 164.875 47.2656 164.8906 47.6562 C164.8906 48.1875 164.625 48.5 164.0312 48.7656 L163.4062 49.0156 C162.6406 49.3125 162.3906 49.5469 162.3906 49.9375 C162.3906 50.1094 162.4531 50.3438 162.5781 50.8125 L162.7344 51.3438 L163.1094 51.3438 L163.0938 50.5312 C163.0938 50.0938 163.2031 49.9688 163.7812 49.7344 L164.2031 49.5625 C165.0312 49.2188 165.4531 48.6875 165.4531 47.8438 C165.4531 46.1562 163.6562 45.1875 162.5 45.0312 C162.1094 45.125 161.9062 45.2969 161.9062 45.6406 C161.9062 45.9375 162.0625 46.1562 162.7188 46.2656 L164.4688 46.5781 Z"
      /><rect x="235" y="110" width="6" style="fill:white; stroke:none;" height="10"
      /><path style="stroke:none;" d="M237.2344 111.6562 C237.5156 111.5938 237.7656 111.5625 238.0156 111.5625 C239.0625 111.5625 239.6719 112.1719 239.6719 113.2656 C239.6719 114.4375 238.9062 115.1094 237.7031 115.1094 L237.1875 115.1094 L237.1875 115.6406 L237.7969 115.6406 C239.2188 115.6406 239.9062 116.4219 239.9062 117.6406 C239.9062 118.8438 239.1719 119.6875 237.875 119.6875 C237.6094 119.6875 237.3125 119.6562 237.0156 119.5625 L236.7812 118.8125 C236.625 118.2812 236.5 118.0469 236.1406 118.0469 C235.8906 118.0469 235.7031 118.1719 235.5781 118.4219 C235.8438 119.6406 236.7812 120.1719 238.0312 120.1719 C239.7188 120.1719 240.875 119.125 240.875 117.7031 C240.875 116.5 240.2031 115.625 238.7969 115.375 C239.9531 115.0156 240.6094 114.2031 240.6094 113.2031 C240.6094 111.9219 239.6719 111.0781 238.1875 111.0781 C237.0469 111.0781 236.0625 111.5938 235.7969 112.6875 C235.9062 113 236.1094 113.1094 236.3594 113.1094 C236.7344 113.1094 236.8906 112.8906 237 112.4062 L237.2344 111.6562 Z"
      /><rect x="216" y="127" width="6" style="fill:white; stroke:none;" height="13"
      /><path style="stroke:none;" d="M218.0938 133.2031 C218.0938 131.6562 218.75 130.8125 219.7969 130.8125 C220.7188 130.8125 221.2656 131.4531 221.2656 132.5156 C221.2656 133.7188 220.5 134.4375 219.1875 134.7031 L219.2969 135.3125 C221.2188 135.2344 221.9375 136.2188 221.9375 137.4375 C221.9375 138.625 221.2344 139.4219 219.9531 139.4219 C219.25 139.4219 218.6562 139.1562 218.0938 138.7188 L218.0938 133.2031 ZM217.2031 139.9062 L217.1094 142.375 L217.2656 142.4844 L218.1562 142.2656 L218.0156 139.0938 C218.5469 139.8438 219.3594 140.1719 220.1719 140.1719 C221.5625 140.1719 222.8594 139.2188 222.8594 137.4844 C222.8594 135.9531 221.875 135.1094 220.125 135 C221.5625 134.6094 222.1875 133.4531 222.1875 132.4844 C222.1875 131.0938 221.1562 130.3125 219.9062 130.3125 C218.2969 130.3125 217.2188 131.5469 217.2188 133.5156 L217.2031 139.9062 Z"
      /><rect x="223" y="77" width="6" style="fill:white; stroke:none;" height="10"
      /><path style="stroke:none;" d="M226.3438 86.6875 C225.2031 86.6875 224.5312 85.5 224.5312 83.2969 C224.5312 83.2188 224.5312 83.125 224.5312 83.0469 C225.0938 82.5 225.7188 82.3125 226.3438 82.3125 C227.3125 82.3125 227.9531 82.9844 227.9531 84.4531 C227.9531 85.9375 227.3125 86.6875 226.3438 86.6875 ZM228.5312 78.0781 C225.3438 78.4531 223.5625 80.7656 223.5625 83.4531 C223.5625 85.7812 224.6094 87.1719 226.3125 87.1719 C227.8438 87.1719 228.9219 86.1094 228.9219 84.2812 C228.9219 82.6875 227.9688 81.6562 226.5625 81.6562 C225.8281 81.6562 225.1406 81.9844 224.5781 82.5781 C224.7969 80.4062 226.0781 78.9688 228.5938 78.3906 L228.5312 78.0781 Z"
      /><rect x="205" y="56" width="6" style="fill:white; stroke:none;" height="13"
      /><path style="stroke:none;" d="M207.0938 62.2031 C207.0938 60.6562 207.75 59.8125 208.7969 59.8125 C209.7188 59.8125 210.2656 60.4531 210.2656 61.5156 C210.2656 62.7188 209.5 63.4375 208.1875 63.7031 L208.2969 64.3125 C210.2188 64.2344 210.9375 65.2188 210.9375 66.4375 C210.9375 67.625 210.2344 68.4219 208.9531 68.4219 C208.25 68.4219 207.6562 68.1562 207.0938 67.7188 L207.0938 62.2031 ZM206.2031 68.9062 L206.1094 71.375 L206.2656 71.4844 L207.1562 71.2656 L207.0156 68.0938 C207.5469 68.8438 208.3594 69.1719 209.1719 69.1719 C210.5625 69.1719 211.8594 68.2188 211.8594 66.4844 C211.8594 64.9531 210.875 64.1094 209.125 64 C210.5625 63.6094 211.1875 62.4531 211.1875 61.4844 C211.1875 60.0938 210.1562 59.3125 208.9062 59.3125 C207.2969 59.3125 206.2188 60.5469 206.2188 62.5156 L206.2031 68.9062 Z"
      /><rect x="278" y="96" width="7" style="fill:white; stroke:none;" height="9"
      /><path style="stroke:none;" d="M279 101.5156 L281.9531 97.2656 L281.9531 101.5156 L279 101.5156 ZM284.2812 101.5156 L282.8594 101.5156 L282.8594 96.125 L282.2344 96.125 L278.3438 101.6406 L278.3438 102.1875 L281.9531 102.1875 L281.9531 105 L282.8594 105 L282.8594 102.1875 L284.2812 102.1875 L284.2812 101.5156 Z"
      /><rect x="265" y="94" width="6" style="fill:white; stroke:none;" height="13"
      /><path style="stroke:none;" d="M267.0938 100.2031 C267.0938 98.6562 267.75 97.8125 268.7969 97.8125 C269.7188 97.8125 270.2656 98.4531 270.2656 99.5156 C270.2656 100.7188 269.5 101.4375 268.1875 101.7031 L268.2969 102.3125 C270.2188 102.2344 270.9375 103.2188 270.9375 104.4375 C270.9375 105.625 270.2344 106.4219 268.9531 106.4219 C268.25 106.4219 267.6562 106.1562 267.0938 105.7188 L267.0938 100.2031 ZM266.2031 106.9062 L266.1094 109.375 L266.2656 109.4844 L267.1562 109.2656 L267.0156 106.0938 C267.5469 106.8438 268.3594 107.1719 269.1719 107.1719 C270.5625 107.1719 271.8594 106.2188 271.8594 104.4844 C271.8594 102.9531 270.875 102.1094 269.125 102 C270.5625 101.6094 271.1875 100.4531 271.1875 99.4844 C271.1875 98.0938 270.1562 97.3125 268.9062 97.3125 C267.2969 97.3125 266.2188 98.5469 266.2188 100.5156 L266.2031 106.9062 Z"
      /><rect x="317" y="96" width="5" style="fill:white; stroke:none;" height="10"
      /><path style="stroke:none;" d="M318.8906 104.6875 C318.4844 104.6875 318.1562 105.0469 318.1562 105.4219 C318.1562 105.8125 318.4844 106.1562 318.8906 106.1562 C319.2969 106.1562 319.6406 105.8125 319.6406 105.4219 C319.6406 105.0469 319.2969 104.6875 318.8906 104.6875 ZM320.4688 98.5781 C320.7188 98.8906 320.875 99.2656 320.8906 99.6562 C320.8906 100.1875 320.625 100.5 320.0312 100.7656 L319.4062 101.0156 C318.6406 101.3125 318.3906 101.5469 318.3906 101.9375 C318.3906 102.1094 318.4531 102.3438 318.5781 102.8125 L318.7344 103.3438 L319.1094 103.3438 L319.0938 102.5312 C319.0938 102.0938 319.2031 101.9688 319.7812 101.7344 L320.2031 101.5625 C321.0312 101.2188 321.4531 100.6875 321.4531 99.8438 C321.4531 98.1562 319.6562 97.1875 318.5 97.0312 C318.1094 97.125 317.9062 97.2969 317.9062 97.6406 C317.9062 97.9375 318.0625 98.1562 318.7188 98.2656 L320.4688 98.5781 Z"
    /></g
  ></g
></svg
>
