<?xml version="1.0"?>
<!DOCTYPE svg PUBLIC '-//W3C//DTD SVG 1.0//EN'
          'http://www.w3.org/TR/2001/REC-SVG-20010904/DTD/svg10.dtd'>
<svg xmlns:xlink="http://www.w3.org/1999/xlink" style="fill-opacity:1; color-rendering:auto; color-interpolation:auto; text-rendering:auto; stroke:black; stroke-linecap:square; stroke-miterlimit:10; shape-rendering:auto; stroke-opacity:1; fill:black; stroke-dasharray:none; font-weight:normal; stroke-width:1; font-family:'Dialog'; font-style:normal; stroke-linejoin:miter; font-size:12px; stroke-dashoffset:0; image-rendering:auto;" viewBox="0 0 143 313" xmlns="http://www.w3.org/2000/svg"
><!--Generated by the Batik Graphics2D SVG Generator--><defs id="genericDefs"
  /><g
  ><defs id="defs1"
    ><clipPath clipPathUnits="userSpaceOnUse" id="clipPath1"
      ><path d="M69 272 C69 278.0751 64.0751 283 58 283 C51.9249 283 47 278.0751 47 272 C47 265.9249 51.9249 261 58 261 C64.0751 261 69 265.9249 69 272 Z"
      /></clipPath
      ><clipPath clipPathUnits="userSpaceOnUse" id="clipPath2"
      ><path d="M69 197 C69 203.0751 64.0751 208 58 208 C51.9249 208 47 203.0751 47 197 C47 190.9249 51.9249 186 58 186 C64.0751 186 69 190.9249 69 197 Z"
      /></clipPath
      ><clipPath clipPathUnits="userSpaceOnUse" id="clipPath3"
      ><path d="M47 134 L69 134 L69 156 L47 156 L47 134 Z"
      /></clipPath
      ><clipPath clipPathUnits="userSpaceOnUse" id="clipPath4"
      ><path d="M69 93 C69 99.0751 64.0751 104 58 104 C51.9249 104 47 99.0751 47 93 C47 86.9249 51.9249 82 58 82 C64.0751 82 69 86.9249 69 93 Z"
      /></clipPath
    ></defs
    ><g style="fill:white; text-rendering:optimizeSpeed; stroke:white;"
    ><rect x="0" width="143" height="313" y="0" style="stroke:none;"
      /><circle style="clip-path:url(#clipPath1); stroke:none;" r="11" cx="58" cy="272"
      /><rect x="47" y="261" width="22" style="clip-path:url(#clipPath1); stroke:none;" height="22"
      /><rect x="47" y="261" width="22" style="clip-path:url(#clipPath1); fill:none; stroke:black;" height="22"
      /><circle style="fill:none; stroke:black;" r="11" cx="58" cy="272"
    /></g
    ><g style="font-family:'SansSerif'; text-rendering:optimizeSpeed; "
    ><path style="stroke:none;" d="M52.5156 248.3594 C53.5781 248.3594 54.1094 249.1094 54.1094 250.2969 C54.1094 251.5 53.4531 252.2969 52.6094 252.2969 C51.5156 252.2969 50.8438 251.3125 50.7188 249.4844 C51.25 248.6875 51.9688 248.3594 52.5156 248.3594 ZM52.6094 253.1562 C53.9844 253.1562 55.125 252 55.125 250.2969 C55.125 248.4688 54.1875 247.5469 52.7031 247.5469 C52 247.5469 51.2344 247.9531 50.6875 248.6094 C50.7344 245.875 51.7656 244.9531 52.9531 244.9531 C53.5 244.9531 54.0312 245.2031 54.375 245.625 L54.9688 244.9375 C54.5 244.4219 53.8438 244.0312 52.9219 244.0312 C51.2188 244.0312 49.6719 245.3594 49.6719 248.7969 C49.6719 251.7031 50.9219 253.1562 52.6094 253.1562 ZM56.7694 253 L57.8632 253 L57.8632 248.2656 C58.4569 247.5938 59.0038 247.2812 59.5038 247.2812 C60.3319 247.2812 60.7069 247.7969 60.7069 249.0156 L60.7069 253 L61.8007 253 L61.8007 248.2656 C62.41 247.5938 62.9413 247.2812 63.4413 247.2812 C64.2694 247.2812 64.66 247.7969 64.66 249.0156 L64.66 253 L65.7538 253 L65.7538 248.875 C65.7538 247.2031 65.1132 246.3125 63.7694 246.3125 C62.9725 246.3125 62.3007 246.8281 61.6288 247.5625 C61.3632 246.7969 60.8163 246.3125 59.8163 246.3125 C59.0507 246.3125 58.3632 246.8125 57.8007 247.4375 L57.7538 247.4375 L57.66 246.4844 L56.7694 246.4844 L56.7694 253 Z"
      /><rect x="74" y="259" width="5" style="fill:white; stroke:none;" height="10"
      /><path style="stroke:none;" d="M75.8906 267.6875 C75.4844 267.6875 75.1562 268.0469 75.1562 268.4219 C75.1562 268.8125 75.4844 269.1562 75.8906 269.1562 C76.2969 269.1562 76.6406 268.8125 76.6406 268.4219 C76.6406 268.0469 76.2969 267.6875 75.8906 267.6875 ZM77.4688 261.5781 C77.7188 261.8906 77.875 262.2656 77.8906 262.6562 C77.8906 263.1875 77.625 263.5 77.0312 263.7656 L76.4062 264.0156 C75.6406 264.3125 75.3906 264.5469 75.3906 264.9375 C75.3906 265.1094 75.4531 265.3438 75.5781 265.8125 L75.7344 266.3438 L76.1094 266.3438 L76.0938 265.5312 C76.0938 265.0938 76.2031 264.9688 76.7812 264.7344 L77.2031 264.5625 C78.0312 264.2188 78.4531 263.6875 78.4531 262.8438 C78.4531 261.1562 76.6562 260.1875 75.5 260.0312 C75.1094 260.125 74.9062 260.2969 74.9062 260.6406 C74.9062 260.9375 75.0625 261.1562 75.7188 261.2656 L77.4688 261.5781 Z"
      /><rect x="74" y="275" width="5" style="fill:white; stroke:none;" height="10"
      /><path style="stroke:none;" d="M75.8906 283.6875 C75.4844 283.6875 75.1562 284.0469 75.1562 284.4219 C75.1562 284.8125 75.4844 285.1562 75.8906 285.1562 C76.2969 285.1562 76.6406 284.8125 76.6406 284.4219 C76.6406 284.0469 76.2969 283.6875 75.8906 283.6875 ZM77.4688 277.5781 C77.7188 277.8906 77.875 278.2656 77.8906 278.6562 C77.8906 279.1875 77.625 279.5 77.0312 279.7656 L76.4062 280.0156 C75.6406 280.3125 75.3906 280.5469 75.3906 280.9375 C75.3906 281.1094 75.4531 281.3438 75.5781 281.8125 L75.7344 282.3438 L76.1094 282.3438 L76.0938 281.5312 C76.0938 281.0938 76.2031 280.9688 76.7812 280.7344 L77.2031 280.5625 C78.0312 280.2188 78.4531 279.6875 78.4531 278.8438 C78.4531 277.1562 76.6562 276.1875 75.5 276.0312 C75.1094 276.125 74.9062 276.2969 74.9062 276.6406 C74.9062 276.9375 75.0625 277.1562 75.7188 277.2656 L77.4688 277.5781 Z"
      /><circle style="fill:white; clip-path:url(#clipPath2); stroke:none;" r="11" cx="58" cy="197"
      /><rect x="47" y="186" width="22" style="clip-path:url(#clipPath2); fill:white; stroke:none;" height="22"
      /><rect x="47" y="186" width="22" style="fill:none; clip-path:url(#clipPath2);" height="22"
      /><circle r="11" style="fill:none;" cx="58" cy="197"
      /><path style="stroke:none;" d="M58 199.125 C59.3281 199.125 60.7344 198.0938 61.125 196.2969 C61.5 194.4844 60.5469 193.4375 59.2188 193.4375 C57.8906 193.4375 56.4688 194.4844 56.0938 196.2969 C55.7031 198.0938 56.6719 199.125 58 199.125 ZM58.1719 198.375 C57.2344 198.375 56.7656 197.5469 57.0312 196.2969 C57.2969 195.0469 58.1094 194.1875 59.0469 194.1875 C59.9844 194.1875 60.4531 195.0469 60.1875 196.2969 C59.9219 197.5469 59.1094 198.375 58.1719 198.375 Z"
      /><rect x="74" y="184" width="5" style="fill:white; stroke:none;" height="10"
      /><path style="stroke:none;" d="M75.8906 192.6875 C75.4844 192.6875 75.1562 193.0469 75.1562 193.4219 C75.1562 193.8125 75.4844 194.1562 75.8906 194.1562 C76.2969 194.1562 76.6406 193.8125 76.6406 193.4219 C76.6406 193.0469 76.2969 192.6875 75.8906 192.6875 ZM77.4688 186.5781 C77.7188 186.8906 77.875 187.2656 77.8906 187.6562 C77.8906 188.1875 77.625 188.5 77.0312 188.7656 L76.4062 189.0156 C75.6406 189.3125 75.3906 189.5469 75.3906 189.9375 C75.3906 190.1094 75.4531 190.3438 75.5781 190.8125 L75.7344 191.3438 L76.1094 191.3438 L76.0938 190.5312 C76.0938 190.0938 76.2031 189.9688 76.7812 189.7344 L77.2031 189.5625 C78.0312 189.2188 78.4531 188.6875 78.4531 187.8438 C78.4531 186.1562 76.6562 185.1875 75.5 185.0312 C75.1094 185.125 74.9062 185.2969 74.9062 185.6406 C74.9062 185.9375 75.0625 186.1562 75.7188 186.2656 L77.4688 186.5781 Z"
      /><rect x="74" y="200" width="5" style="fill:white; stroke:none;" height="10"
      /><path style="stroke:none;" d="M75.8906 208.6875 C75.4844 208.6875 75.1562 209.0469 75.1562 209.4219 C75.1562 209.8125 75.4844 210.1562 75.8906 210.1562 C76.2969 210.1562 76.6406 209.8125 76.6406 209.4219 C76.6406 209.0469 76.2969 208.6875 75.8906 208.6875 ZM77.4688 202.5781 C77.7188 202.8906 77.875 203.2656 77.8906 203.6562 C77.8906 204.1875 77.625 204.5 77.0312 204.7656 L76.4062 205.0156 C75.6406 205.3125 75.3906 205.5469 75.3906 205.9375 C75.3906 206.1094 75.4531 206.3438 75.5781 206.8125 L75.7344 207.3438 L76.1094 207.3438 L76.0938 206.5312 C76.0938 206.0938 76.2031 205.9688 76.7812 205.7344 L77.2031 205.5625 C78.0312 205.2188 78.4531 204.6875 78.4531 203.8438 C78.4531 202.1562 76.6562 201.1875 75.5 201.0312 C75.1094 201.125 74.9062 201.2969 74.9062 201.6406 C74.9062 201.9375 75.0625 202.1562 75.7188 202.2656 L77.4688 202.5781 Z"
      /><rect x="47" y="134" width="22" style="clip-path:url(#clipPath3); fill:white; stroke:none;" height="22"
      /><rect x="47" y="134" width="22" style="clip-path:url(#clipPath3); fill:white; stroke:none;" height="22"
      /><rect x="47" y="134" width="22" style="fill:none; clip-path:url(#clipPath3);" height="22"
      /><rect x="47" width="22" height="22" y="134" style="fill:none;"
      /><rect x="74" y="132" width="5" style="fill:white; stroke:none;" height="10"
      /><path style="stroke:none;" d="M75.8906 140.6875 C75.4844 140.6875 75.1562 141.0469 75.1562 141.4219 C75.1562 141.8125 75.4844 142.1562 75.8906 142.1562 C76.2969 142.1562 76.6406 141.8125 76.6406 141.4219 C76.6406 141.0469 76.2969 140.6875 75.8906 140.6875 ZM77.4688 134.5781 C77.7188 134.8906 77.875 135.2656 77.8906 135.6562 C77.8906 136.1875 77.625 136.5 77.0312 136.7656 L76.4062 137.0156 C75.6406 137.3125 75.3906 137.5469 75.3906 137.9375 C75.3906 138.1094 75.4531 138.3438 75.5781 138.8125 L75.7344 139.3438 L76.1094 139.3438 L76.0938 138.5312 C76.0938 138.0938 76.2031 137.9688 76.7812 137.7344 L77.2031 137.5625 C78.0312 137.2188 78.4531 136.6875 78.4531 135.8438 C78.4531 134.1562 76.6562 133.1875 75.5 133.0312 C75.1094 133.125 74.9062 133.2969 74.9062 133.6406 C74.9062 133.9375 75.0625 134.1562 75.7188 134.2656 L77.4688 134.5781 Z"
      /><rect x="74" y="148" width="5" style="fill:white; stroke:none;" height="10"
      /><path style="stroke:none;" d="M75.8906 156.6875 C75.4844 156.6875 75.1562 157.0469 75.1562 157.4219 C75.1562 157.8125 75.4844 158.1562 75.8906 158.1562 C76.2969 158.1562 76.6406 157.8125 76.6406 157.4219 C76.6406 157.0469 76.2969 156.6875 75.8906 156.6875 ZM77.4688 150.5781 C77.7188 150.8906 77.875 151.2656 77.8906 151.6562 C77.8906 152.1875 77.625 152.5 77.0312 152.7656 L76.4062 153.0156 C75.6406 153.3125 75.3906 153.5469 75.3906 153.9375 C75.3906 154.1094 75.4531 154.3438 75.5781 154.8125 L75.7344 155.3438 L76.1094 155.3438 L76.0938 154.5312 C76.0938 154.0938 76.2031 153.9688 76.7812 153.7344 L77.2031 153.5625 C78.0312 153.2188 78.4531 152.6875 78.4531 151.8438 C78.4531 150.1562 76.6562 149.1875 75.5 149.0312 C75.1094 149.125 74.9062 149.2969 74.9062 149.6406 C74.9062 149.9375 75.0625 150.1562 75.7188 150.2656 L77.4688 150.5781 Z"
      /><path style="stroke:none;" d="M32.7031 150.1875 C34.5156 150.1875 35.9844 149.0938 35.9844 147.25 C35.9844 145.8594 35.0156 144.9375 33.8125 144.6562 L33.8125 144.5938 C34.8906 144.1875 35.6406 143.3594 35.6406 142.125 C35.6406 140.5 34.375 139.5469 32.6562 139.5469 C31.4688 139.5469 30.5469 140.0625 29.7812 140.7812 L30.4688 141.5938 C31.0469 141 31.7656 140.5938 32.5938 140.5938 C33.6562 140.5938 34.3281 141.2344 34.3281 142.2188 C34.3281 143.3281 33.6094 144.1719 31.4844 144.1719 L31.4844 145.1562 C33.8594 145.1562 34.6875 145.9844 34.6875 147.2031 C34.6875 148.3906 33.8125 149.125 32.5938 149.125 C31.4375 149.125 30.6562 148.5781 30.0469 147.9375 L29.4062 148.7812 C30.0781 149.5156 31.0938 150.1875 32.7031 150.1875 ZM36.9731 150 L38.3168 150 L39.3481 148.2188 C39.6137 147.7656 39.8637 147.2969 40.1293 146.8594 L40.2075 146.8594 C40.4731 147.2969 40.7543 147.7656 41.0043 148.2188 L42.1293 150 L43.5356 150 L41.02 146.1562 L43.3325 142.3906 L42.0043 142.3906 L41.0668 144.0625 C40.8481 144.5 40.6137 144.9219 40.3793 145.3438 L40.3325 145.3438 C40.0668 144.9219 39.8012 144.5 39.5668 144.0625 L38.5512 142.3906 L37.1762 142.3906 L39.4887 146.0312 L36.9731 150 Z"
      /><circle style="fill:white; clip-path:url(#clipPath4); stroke:none;" r="11" cx="58" cy="93"
      /><rect x="47" y="82" width="22" style="clip-path:url(#clipPath4); fill:white; stroke:none;" height="22"
      /><rect x="47" y="82" width="22" style="fill:none; clip-path:url(#clipPath4);" height="22"
      /><circle r="11" style="fill:none;" cx="58" cy="93"
      /><rect x="74" y="80" width="5" style="fill:white; stroke:none;" height="10"
      /><path style="stroke:none;" d="M75.8906 88.6875 C75.4844 88.6875 75.1562 89.0469 75.1562 89.4219 C75.1562 89.8125 75.4844 90.1562 75.8906 90.1562 C76.2969 90.1562 76.6406 89.8125 76.6406 89.4219 C76.6406 89.0469 76.2969 88.6875 75.8906 88.6875 ZM77.4688 82.5781 C77.7188 82.8906 77.875 83.2656 77.8906 83.6562 C77.8906 84.1875 77.625 84.5 77.0312 84.7656 L76.4062 85.0156 C75.6406 85.3125 75.3906 85.5469 75.3906 85.9375 C75.3906 86.1094 75.4531 86.3438 75.5781 86.8125 L75.7344 87.3438 L76.1094 87.3438 L76.0938 86.5312 C76.0938 86.0938 76.2031 85.9688 76.7812 85.7344 L77.2031 85.5625 C78.0312 85.2188 78.4531 84.6875 78.4531 83.8438 C78.4531 82.1562 76.6562 81.1875 75.5 81.0312 C75.1094 81.125 74.9062 81.2969 74.9062 81.6406 C74.9062 81.9375 75.0625 82.1562 75.7188 82.2656 L77.4688 82.5781 Z"
      /><rect x="74" y="96" width="5" style="fill:white; stroke:none;" height="10"
      /><path style="stroke:none;" d="M75.8906 104.6875 C75.4844 104.6875 75.1562 105.0469 75.1562 105.4219 C75.1562 105.8125 75.4844 106.1562 75.8906 106.1562 C76.2969 106.1562 76.6406 105.8125 76.6406 105.4219 C76.6406 105.0469 76.2969 104.6875 75.8906 104.6875 ZM77.4688 98.5781 C77.7188 98.8906 77.875 99.2656 77.8906 99.6562 C77.8906 100.1875 77.625 100.5 77.0312 100.7656 L76.4062 101.0156 C75.6406 101.3125 75.3906 101.5469 75.3906 101.9375 C75.3906 102.1094 75.4531 102.3438 75.5781 102.8125 L75.7344 103.3438 L76.1094 103.3438 L76.0938 102.5312 C76.0938 102.0938 76.2031 101.9688 76.7812 101.7344 L77.2031 101.5625 C78.0312 101.2188 78.4531 100.6875 78.4531 99.8438 C78.4531 98.1562 76.6562 97.1875 75.5 97.0312 C75.1094 97.125 74.9062 97.2969 74.9062 97.6406 C74.9062 97.9375 75.0625 98.1562 75.7188 98.2656 L77.4688 98.5781 Z"
      /><path style="stroke:none;" d="M29.6094 98 L36.0625 98 L36.0625 96.8906 L33.2344 96.8906 C32.7031 96.8906 32.0781 96.9531 31.5469 96.9844 C33.9531 94.7031 35.5625 92.625 35.5625 90.5781 C35.5625 88.75 34.4219 87.5469 32.5781 87.5469 C31.2812 87.5469 30.4062 88.1406 29.5625 89.0469 L30.2969 89.7812 C30.8594 89.1094 31.5938 88.5938 32.4375 88.5938 C33.7031 88.5938 34.3125 89.4531 34.3125 90.625 C34.3125 92.3906 32.8438 94.4375 29.6094 97.25 L29.6094 98 ZM36.9731 98 L38.3168 98 L39.3481 96.2188 C39.6137 95.7656 39.8637 95.2969 40.1293 94.8594 L40.2075 94.8594 C40.4731 95.2969 40.7543 95.7656 41.0043 96.2188 L42.1293 98 L43.5356 98 L41.02 94.1562 L43.3325 90.3906 L42.0043 90.3906 L41.0668 92.0625 C40.8481 92.5 40.6137 92.9219 40.3793 93.3438 L40.3325 93.3438 C40.0668 92.9219 39.8012 92.5 39.5668 92.0625 L38.5512 90.3906 L37.1762 90.3906 L39.4887 94.0312 L36.9731 98 Z"
      /><rect x="51" y="35" width="13" style="fill:white; stroke:none;" height="10"
      /><path style="stroke:none;" d="M53.4844 42.9062 L54.625 42.9062 C54.375 40.7031 56.8906 39.875 56.8906 37.8281 C56.8906 36.2969 55.8594 35.3281 54.2812 35.3281 C53.1406 35.3281 52.25 35.875 51.6094 36.625 L52.3281 37.2969 C52.8125 36.7344 53.4375 36.3906 54.1406 36.3906 C55.125 36.3906 55.6406 37.0625 55.6406 37.9062 C55.6406 39.5781 53.1719 40.4688 53.4844 42.9062 ZM54.0938 46.1875 C54.6094 46.1875 55.0312 45.7969 55.0312 45.2188 C55.0312 44.625 54.6094 44.2188 54.0938 44.2188 C53.5938 44.2188 53.1719 44.625 53.1719 45.2188 C53.1719 45.7969 53.5938 46.1875 54.0938 46.1875 ZM61.886 46.1875 C64.0266 46.1875 65.3703 44.8906 65.3703 43.2656 C65.3703 41.75 64.4485 41.0469 63.261 40.5312 L61.7922 39.8906 C60.9953 39.5625 60.1047 39.1875 60.1047 38.1875 C60.1047 37.2656 60.8547 36.6719 62.011 36.6719 C62.9641 36.6719 63.7297 37.0469 64.3547 37.6406 L65.0422 36.8125 C64.3078 36.0625 63.2297 35.5469 62.011 35.5469 C60.1516 35.5469 58.7766 36.6875 58.7766 38.2656 C58.7766 39.7656 59.9172 40.5 60.8703 40.9062 L62.3547 41.5469 C63.3235 41.9844 64.0578 42.3125 64.0578 43.375 C64.0578 44.375 63.2453 45.0469 61.9016 45.0469 C60.8391 45.0469 59.8078 44.5469 59.0735 43.7812 L58.2922 44.6562 C59.1828 45.5938 60.4328 46.1875 61.886 46.1875 Z"
      /><path style="stroke:none;" d="M32.7031 46.1875 C34.5156 46.1875 35.9844 45.0938 35.9844 43.25 C35.9844 41.8594 35.0156 40.9375 33.8125 40.6562 L33.8125 40.5938 C34.8906 40.1875 35.6406 39.3594 35.6406 38.125 C35.6406 36.5 34.375 35.5469 32.6562 35.5469 C31.4688 35.5469 30.5469 36.0625 29.7812 36.7812 L30.4688 37.5938 C31.0469 37 31.7656 36.5938 32.5938 36.5938 C33.6562 36.5938 34.3281 37.2344 34.3281 38.2188 C34.3281 39.3281 33.6094 40.1719 31.4844 40.1719 L31.4844 41.1562 C33.8594 41.1562 34.6875 41.9844 34.6875 43.2031 C34.6875 44.3906 33.8125 45.125 32.5938 45.125 C31.4375 45.125 30.6562 44.5781 30.0469 43.9375 L29.4062 44.7812 C30.0781 45.5156 31.0938 46.1875 32.7031 46.1875 ZM36.9731 46 L38.3168 46 L39.3481 44.2188 C39.6137 43.7656 39.8637 43.2969 40.1293 42.8594 L40.2075 42.8594 C40.4731 43.2969 40.7543 43.7656 41.0043 44.2188 L42.1293 46 L43.5356 46 L41.02 42.1562 L43.3325 38.3906 L42.0043 38.3906 L41.0668 40.0625 C40.8481 40.5 40.6137 40.9219 40.3793 41.3438 L40.3325 41.3438 C40.0668 40.9219 39.8012 40.5 39.5668 40.0625 L38.5512 38.3906 L37.1762 38.3906 L39.4887 42.0312 L36.9731 46 Z"
    /></g
  ></g
></svg
>
