<?xml version="1.0"?>
<!DOCTYPE svg PUBLIC '-//W3C//DTD SVG 1.0//EN'
          'http://www.w3.org/TR/2001/REC-SVG-20010904/DTD/svg10.dtd'>
<svg xmlns:xlink="http://www.w3.org/1999/xlink" style="fill-opacity:1; color-rendering:auto; color-interpolation:auto; text-rendering:auto; stroke:black; stroke-linecap:square; stroke-miterlimit:10; shape-rendering:auto; stroke-opacity:1; fill:black; stroke-dasharray:none; font-weight:normal; stroke-width:1; font-family:'Dialog'; font-style:normal; stroke-linejoin:miter; font-size:12px; stroke-dashoffset:0; image-rendering:auto;" viewBox="0 0 565 342" xmlns="http://www.w3.org/2000/svg"
><!--Generated by the Batik Graphics2D SVG Generator--><defs id="genericDefs"
  /><g
  ><defs id="defs1"
    ><clipPath clipPathUnits="userSpaceOnUse" id="clipPath1"
      ><path style="fill-rule:evenodd;" d="M483 107 L477 114 L466 114 L461 107 L466 99 L477 99 L483 107 Z"
      /></clipPath
      ><clipPath clipPathUnits="userSpaceOnUse" id="clipPath2"
      ><path style="fill-rule:evenodd;" d="M418 145 L412 152 L401 152 L396 145 L401 137 L412 137 L418 145 Z"
      /></clipPath
      ><clipPath clipPathUnits="userSpaceOnUse" id="clipPath3"
      ><path style="fill-rule:evenodd;" d="M346 145 L340 152 L329 152 L324 145 L329 137 L340 137 L346 145 Z"
      /></clipPath
      ><clipPath clipPathUnits="userSpaceOnUse" id="clipPath4"
      ><path d="M286 171 C286 177.0751 281.0751 182 275 182 C268.9249 182 264 177.0751 264 171 C264 164.9249 268.9249 160 275 160 C281.0751 160 286 164.9249 286 171 Z"
      /></clipPath
      ><clipPath clipPathUnits="userSpaceOnUse" id="clipPath5"
      ><path d="M234 171 C234 177.0751 229.0751 182 223 182 C216.9249 182 212 177.0751 212 171 C212 164.9249 216.9249 160 223 160 C229.0751 160 234 164.9249 234 171 Z"
      /></clipPath
      ><clipPath clipPathUnits="userSpaceOnUse" id="clipPath6"
      ><path d="M182 171 C182 177.0751 177.0751 182 171 182 C164.9249 182 160 177.0751 160 171 C160 164.9249 164.9249 160 171 160 C177.0751 160 182 164.9249 182 171 Z"
      /></clipPath
      ><clipPath clipPathUnits="userSpaceOnUse" id="clipPath7"
      ><path d="M108 290 L130 290 L130 312 L108 312 L108 290 Z"
      /></clipPath
      ><clipPath clipPathUnits="userSpaceOnUse" id="clipPath8"
      ><path d="M108 30 L130 30 L130 52 L108 52 L108 30 Z"
      /></clipPath
      ><clipPath clipPathUnits="userSpaceOnUse" id="clipPath9"
      ><path d="M78 41 C78 47.0751 73.0751 52 67 52 C60.9249 52 56 47.0751 56 41 C56 34.9249 60.9249 30 67 30 C73.0751 30 78 34.9249 78 41 Z"
      /></clipPath
      ><clipPath clipPathUnits="userSpaceOnUse" id="clipPath10"
      ><path style="fill-rule:evenodd;" d="M67 82 L78 104 L56 104 Z"
      /></clipPath
      ><clipPath clipPathUnits="userSpaceOnUse" id="clipPath11"
      ><path d="M78 145 C78 151.0751 73.0751 156 67 156 C60.9249 156 56 151.0751 56 145 C56 138.9249 60.9249 134 67 134 C73.0751 134 78 138.9249 78 145 Z"
      /></clipPath
      ><clipPath clipPathUnits="userSpaceOnUse" id="clipPath12"
      ><path style="fill-rule:evenodd;" d="M67 186 L78 208 L56 208 Z"
      /></clipPath
      ><clipPath clipPathUnits="userSpaceOnUse" id="clipPath13"
      ><path d="M82 238 L104 238 L104 260 L82 260 L82 238 Z"
      /></clipPath
      ><clipPath clipPathUnits="userSpaceOnUse" id="clipPath14"
      ><path style="fill-rule:evenodd;" d="M41 238 L52 249 L41 260 L30 249 Z"
      /></clipPath
      ><clipPath clipPathUnits="userSpaceOnUse" id="clipPath15"
      ><path style="fill-rule:evenodd;" d="M286 119 L280 126 L269 126 L264 119 L269 111 L280 111 L286 119 Z"
      /></clipPath
      ><clipPath clipPathUnits="userSpaceOnUse" id="clipPath16"
      ><path style="fill-rule:evenodd;" d="M223 108 L234 119 L223 130 L212 119 Z"
      /></clipPath
      ><clipPath clipPathUnits="userSpaceOnUse" id="clipPath17"
      ><path style="fill-rule:evenodd;" d="M407 59 L409 66 L417 66 L410 71 L413 78 L407 74 L400 78 L403 71 L396 66 L404 66 L407 59 Z"
      /></clipPath
    ></defs
    ><g style="fill:white; text-rendering:optimizeSpeed; stroke:white;"
    ><rect x="0" width="565" height="342" y="0" style="stroke:none;"
      /><polygon style="fill:none; stroke:black;" points=" 524 107 472 107"
      /><path d="M524 96 C518.5 101.5 529.5 112.5 524 118" style="fill:none; stroke:black;"
      /><polygon style="fill:none; stroke:black;" points=" 472 107 407 145"
      /><polygon style="fill:none; stroke:black;" points=" 472 107 407 70"
      /><polygon style="clip-path:url(#clipPath1); stroke:none;" points=" 483 107 477 114 466 114 461 107 466 99 477 99 483 107"
      /><rect x="461" y="96" width="22" style="clip-path:url(#clipPath1); fill:rgb(255,212,0); stroke:none;" height="22"
      /><rect x="461" y="96" width="22" style="clip-path:url(#clipPath1); fill:none; stroke:black;" height="22"
      /><polygon style="fill:none; stroke:black;" points=" 483 107 477 114 466 114 461 107 466 99 477 99 483 107"
      /><polygon style="fill:none; stroke:black;" points=" 407 145 335 145"
      /><polygon style="clip-path:url(#clipPath2); stroke:none;" points=" 418 145 412 152 401 152 396 145 401 137 412 137 418 145"
      /><rect x="396" y="134" width="22" style="clip-path:url(#clipPath2); fill:rgb(0,166,81); stroke:none;" height="22"
      /><rect x="396" y="134" width="22" style="clip-path:url(#clipPath2); fill:none; stroke:black;" height="22"
      /><polygon style="fill:none; stroke:black;" points=" 418 145 412 152 401 152 396 145 401 137 412 137 418 145"
      /><rect x="383" y="116" width="46" style="stroke:none;" height="10"
    /></g
    ><g style="text-rendering:optimizeSpeed; font-size:14px; font-family:'SansSerif';"
    ><path style="stroke:none;" d="M384.6094 123.1562 L386.9531 119.6562 C387.2344 119.1406 387.5156 118.6406 387.7812 118.1406 L387.8281 118.1406 C387.7969 118.6719 387.7656 119.5 387.7656 120 L387.7656 123.1562 L384.6094 123.1562 ZM387.7656 127 L388.9688 127 L388.9688 124.1719 L390.3281 124.1719 L390.3281 123.1562 L388.9688 123.1562 L388.9688 116.7188 L387.5469 116.7188 L383.2812 123.3281 L383.2812 124.1719 L387.7656 124.1719 L387.7656 127 ZM392.1762 127 L393.4731 127 L393.4731 122.9219 L395.1606 122.9219 C397.4262 122.9219 398.9418 121.9219 398.9418 119.75 C398.9418 117.5156 397.4106 116.7188 395.1137 116.7188 L392.1762 116.7188 L392.1762 127 ZM393.4731 121.875 L393.4731 117.7812 L394.9418 117.7812 C396.7543 117.7812 397.6606 118.2656 397.6606 119.75 C397.6606 121.2188 396.8012 121.875 395.0043 121.875 L393.4731 121.875 ZM401.0242 127 L402.321 127 L402.321 122.9219 L404.0085 122.9219 C406.2742 122.9219 407.7898 121.9219 407.7898 119.75 C407.7898 117.5156 406.2585 116.7188 403.9617 116.7188 L401.0242 116.7188 L401.0242 127 ZM402.321 121.875 L402.321 117.7812 L403.7898 117.7812 C405.6023 117.7812 406.5085 118.2656 406.5085 119.75 C406.5085 121.2188 405.6492 121.875 403.8523 121.875 L402.321 121.875 ZM409.8721 127 L415.9346 127 L415.9346 125.8906 L411.169 125.8906 L411.169 122.1562 L415.0596 122.1562 L415.0596 121.0469 L411.169 121.0469 L411.169 117.8281 L415.794 117.8281 L415.794 116.7188 L409.8721 116.7188 L409.8721 127 ZM420.3854 127.1875 C420.8385 127.1875 421.3385 127.0469 421.776 126.9062 L421.526 125.9531 C421.276 126.0469 420.9323 126.1406 420.6666 126.1406 C419.776 126.1406 419.4791 125.6094 419.4791 124.6719 L419.4791 120.4375 L421.5416 120.4375 L421.5416 119.3906 L419.4791 119.3906 L419.4791 117.25 L418.4166 117.25 L418.2604 119.3906 L417.0729 119.4688 L417.0729 120.4375 L418.2135 120.4375 L418.2135 124.6406 C418.2135 126.1562 418.7604 127.1875 420.3854 127.1875 ZM423.2571 127 L424.5383 127 L424.5383 121.4844 C425.304 120.7188 425.8352 120.3281 426.6165 120.3281 C427.6321 120.3281 428.0696 120.9219 428.0696 122.3594 L428.0696 127 L429.3352 127 L429.3352 122.1875 C429.3352 120.2344 428.6165 119.2031 427.0227 119.2031 C425.9758 119.2031 425.1946 119.7812 424.4602 120.4844 L424.429 120.4844 L424.3196 119.3906 L423.2571 119.3906 L423.2571 127 Z"
      /><polygon style="fill:none;" points=" 335 145 275 171"
      /><polygon style="fill:none;" points=" 335 145 275 119"
    /></g
    ><g style="fill:white; text-rendering:optimizeSpeed; stroke:white;"
    ><polygon style="stroke:none; clip-path:url(#clipPath3);" points=" 346 145 340 152 329 152 324 145 329 137 340 137 346 145"
      /><rect x="324" y="134" width="22" style="clip-path:url(#clipPath3); fill:rgb(0,166,81); stroke:none;" height="22"
      /><rect x="324" y="134" width="22" style="clip-path:url(#clipPath3); fill:none; stroke:black;" height="22"
      /><polygon style="fill:none; stroke:black;" points=" 346 145 340 152 329 152 324 145 329 137 340 137 346 145"
      /><rect x="316" width="36" height="10" y="116" style="stroke:none;"
    /></g
    ><g style="text-rendering:optimizeSpeed; font-size:14px; font-family:'SansSerif';"
    ><path style="stroke:none;" d="M320.1094 121.5781 C321.3438 121.5781 321.9688 122.4688 321.9688 123.8438 C321.9688 125.25 321.1875 126.1875 320.2188 126.1875 C318.9219 126.1875 318.1562 125.0312 318 122.8906 C318.625 121.9531 319.4531 121.5781 320.1094 121.5781 ZM320.2188 127.1875 C321.8125 127.1875 323.1562 125.8438 323.1562 123.8438 C323.1562 121.7031 322.0469 120.625 320.3125 120.625 C319.5 120.625 318.6094 121.1094 317.9688 121.875 C318.0312 118.6875 319.2188 117.6094 320.625 117.6094 C321.25 117.6094 321.8594 117.9062 322.2656 118.3906 L322.9688 117.5938 C322.4062 116.9844 321.6406 116.5469 320.5781 116.5469 C318.5938 116.5469 316.7812 118.0781 316.7812 122.0938 C316.7812 125.4844 318.2344 127.1875 320.2188 127.1875 ZM325.1762 127 L326.4731 127 L326.4731 122.9219 L328.1606 122.9219 C330.4262 122.9219 331.9418 121.9219 331.9418 119.75 C331.9418 117.5156 330.4106 116.7188 328.1137 116.7188 L325.1762 116.7188 L325.1762 127 ZM326.4731 121.875 L326.4731 117.7812 L327.9418 117.7812 C329.7543 117.7812 330.6606 118.2656 330.6606 119.75 C330.6606 121.2188 329.8012 121.875 328.0043 121.875 L326.4731 121.875 ZM334.0242 127 L340.0867 127 L340.0867 125.8906 L335.321 125.8906 L335.321 122.1562 L339.2117 122.1562 L339.2117 121.0469 L335.321 121.0469 L335.321 117.8281 L339.946 117.8281 L339.946 116.7188 L334.0242 116.7188 L334.0242 127 ZM344.5374 127.1875 C344.9905 127.1875 345.4905 127.0469 345.928 126.9062 L345.678 125.9531 C345.428 126.0469 345.0843 126.1406 344.8187 126.1406 C343.928 126.1406 343.6312 125.6094 343.6312 124.6719 L343.6312 120.4375 L345.6937 120.4375 L345.6937 119.3906 L343.6312 119.3906 L343.6312 117.25 L342.5687 117.25 L342.4124 119.3906 L341.2249 119.4688 L341.2249 120.4375 L342.3655 120.4375 L342.3655 124.6406 C342.3655 126.1562 342.9124 127.1875 344.5374 127.1875 ZM347.4091 127 L348.6904 127 L348.6904 121.4844 C349.456 120.7188 349.9872 120.3281 350.7685 120.3281 C351.7841 120.3281 352.2216 120.9219 352.2216 122.3594 L352.2216 127 L353.4872 127 L353.4872 122.1875 C353.4872 120.2344 352.7685 119.2031 351.1747 119.2031 C350.1279 119.2031 349.3466 119.7812 348.6122 120.4844 L348.581 120.4844 L348.4716 119.3906 L347.4091 119.3906 L347.4091 127 Z"
      /><polygon style="fill:none;" points=" 275 171 223 171"
    /></g
    ><g style="fill:white; text-rendering:optimizeSpeed; stroke:white;"
    ><circle r="11" style="clip-path:url(#clipPath4); stroke:none;" cx="275" cy="171"
      /><rect x="264" y="160" width="22" style="clip-path:url(#clipPath4); fill:rgb(0,144,188); stroke:none;" height="22"
      /><rect x="264" y="160" width="22" style="clip-path:url(#clipPath4); fill:none; stroke:black;" height="22"
      /><circle r="11" style="fill:none; stroke:black;" cx="275" cy="171"
      /><polygon style="fill:none; stroke:black;" points=" 223 171 171 171"
      /><circle r="11" style="clip-path:url(#clipPath5); stroke:none;" cx="223" cy="171"
      /><rect x="212" y="160" width="22" style="clip-path:url(#clipPath5); fill:rgb(255,212,0); stroke:none;" height="22"
      /><rect x="212" y="160" width="22" style="clip-path:url(#clipPath5); fill:none; stroke:black;" height="22"
      /><circle r="11" style="fill:none; stroke:black;" cx="223" cy="171"
      /><polygon style="fill:none; stroke:black;" points=" 171 171 119 301"
      /><polygon style="fill:none; stroke:black;" points=" 171 171 119 41"
      /><circle r="11" style="clip-path:url(#clipPath6); stroke:none;" cx="171" cy="171"
      /><rect x="160" y="160" width="22" style="clip-path:url(#clipPath6); fill:rgb(0,144,188); stroke:none;" height="22"
      /><rect x="160" y="160" width="22" style="clip-path:url(#clipPath6); fill:none; stroke:black;" height="22"
      /><circle r="11" style="fill:none; stroke:black;" cx="171" cy="171"
      /><rect x="108" y="290" width="22" style="clip-path:url(#clipPath7); stroke:none;" height="22"
      /><rect x="108" y="290" width="22" style="clip-path:url(#clipPath7); fill:rgb(0,144,188); stroke:none;" height="22"
      /><rect x="108" y="290" width="22" style="clip-path:url(#clipPath7); fill:none; stroke:black;" height="22"
      /><rect x="108" y="290" width="22" style="fill:none; stroke:black;" height="22"
      /><polygon style="fill:none; stroke:black;" points=" 119 41 67 41"
      /><rect x="108" y="30" width="22" style="clip-path:url(#clipPath8); stroke:none;" height="22"
      /><rect x="108" y="30" width="22" style="clip-path:url(#clipPath8); fill:rgb(0,144,188); stroke:none;" height="22"
      /><rect x="108" y="30" width="22" style="clip-path:url(#clipPath8); fill:none; stroke:black;" height="22"
      /><rect x="108" y="30" width="22" style="fill:none; stroke:black;" height="22"
      /><polygon style="fill:none; stroke:black;" points=" 67 41 67 93"
      /><circle r="11" style="clip-path:url(#clipPath9); stroke:none;" cx="67" cy="41"
      /><rect x="56" y="30" width="22" style="clip-path:url(#clipPath9); fill:rgb(0,144,188); stroke:none;" height="22"
      /><rect x="56" y="30" width="22" style="clip-path:url(#clipPath9); fill:none; stroke:black;" height="22"
      /><circle r="11" style="fill:none; stroke:black;" cx="67" cy="41"
      /><polygon style="fill:none; stroke:black;" points=" 67 93 67 145"
      /><polygon style="clip-path:url(#clipPath10); stroke:none;" points=" 67 82 78 104 56 104"
      /><rect x="56" y="82" width="22" style="clip-path:url(#clipPath10); fill:rgb(237,28,36); stroke:none;" height="22"
      /><rect x="56" y="82" width="22" style="clip-path:url(#clipPath10); fill:none; stroke:black;" height="22"
      /><polygon style="fill:none; stroke:black;" points=" 67 82 78 104 56 104"
      /><polygon style="fill:none; stroke:black;" points=" 67 145 67 197"
      /><circle r="11" style="clip-path:url(#clipPath11); stroke:none;" cx="67" cy="145"
      /><rect x="56" y="134" width="22" style="clip-path:url(#clipPath11); fill:rgb(0,166,81); stroke:none;" height="22"
      /><rect x="56" y="134" width="22" style="clip-path:url(#clipPath11); fill:none; stroke:black;" height="22"
      /><circle r="11" style="fill:none; stroke:black;" cx="67" cy="145"
      /><polygon style="fill:none; stroke:black;" points=" 67 197 93 249"
      /><polygon style="fill:none; stroke:black;" points=" 67 197 41 249"
      /><polygon style="clip-path:url(#clipPath12); stroke:none;" points=" 67 186 78 208 56 208"
      /><rect x="56" y="186" width="22" style="clip-path:url(#clipPath12); fill:rgb(237,28,36); stroke:none;" height="22"
      /><rect x="56" y="186" width="22" style="clip-path:url(#clipPath12); fill:none; stroke:black;" height="22"
      /><polygon style="fill:none; stroke:black;" points=" 67 186 78 208 56 208"
      /><rect x="82" y="238" width="22" style="clip-path:url(#clipPath13); stroke:none;" height="22"
      /><rect x="82" y="238" width="22" style="clip-path:url(#clipPath13); fill:rgb(255,212,0); stroke:none;" height="22"
      /><rect x="82" y="238" width="22" style="clip-path:url(#clipPath13); fill:none; stroke:black;" height="22"
      /><rect x="82" y="238" width="22" style="fill:none; stroke:black;" height="22"
      /><polygon style="clip-path:url(#clipPath14); stroke:none;" points=" 41 238 52 249 41 260 30 249"
      /><rect x="30" y="238" width="22" style="clip-path:url(#clipPath14); fill:rgb(0,144,188); stroke:none;" height="11"
      /><rect x="30" y="238" width="22" style="clip-path:url(#clipPath14); fill:none; stroke:black;" height="11"
      /><polygon style="fill:none; stroke:black;" points=" 41 238 52 249 41 260 30 249"
      /><rect x="80" width="6" height="10" y="206" style="stroke:none;"
      /><path d="M82.2344 207.6562 C82.5156 207.5938 82.7656 207.5625 83.0156 207.5625 C84.0625 207.5625 84.6719 208.1719 84.6719 209.2656 C84.6719 210.4375 83.9062 211.1094 82.7031 211.1094 L82.1875 211.1094 L82.1875 211.6406 L82.7969 211.6406 C84.2188 211.6406 84.9062 212.4219 84.9062 213.6406 C84.9062 214.8438 84.1719 215.6875 82.875 215.6875 C82.6094 215.6875 82.3125 215.6562 82.0156 215.5625 L81.7812 214.8125 C81.625 214.2812 81.5 214.0469 81.1406 214.0469 C80.8906 214.0469 80.7031 214.1719 80.5781 214.4219 C80.8438 215.6406 81.7812 216.1719 83.0312 216.1719 C84.7188 216.1719 85.875 215.125 85.875 213.7031 C85.875 212.5 85.2031 211.625 83.7969 211.375 C84.9531 211.0156 85.6094 210.2031 85.6094 209.2031 C85.6094 207.9219 84.6719 207.0781 83.1875 207.0781 C82.0469 207.0781 81.0625 207.5938 80.7969 208.6875 C80.9062 209 81.1094 209.1094 81.3594 209.1094 C81.7344 209.1094 81.8906 208.8906 82 208.4062 L82.2344 207.6562 Z" style="fill:black; stroke:none;"
      /><rect x="87" width="8" height="8" y="223" style="stroke:none;"
      /><path d="M91.9844 228.7031 C91.9375 229.8906 91.1562 230.6562 90.3125 230.6562 C89.2656 230.6562 88.5 229.6875 88.5 227.7188 C88.5 226.2812 89.1562 225.1562 90.3438 225.1562 C91.1406 225.1562 91.7812 225.6875 92.0938 226.6406 L91.9844 228.7031 ZM93.9062 230.2812 C93.7344 230.375 93.5469 230.4219 93.3438 230.4219 C92.9531 230.4219 92.75 230.2188 92.75 229.4219 C92.75 228.4844 92.9688 226.5312 93.1875 224.8281 L93.0312 224.7188 L92.2344 224.9219 L92.1406 225.7969 C91.7812 225.0312 91.1562 224.6562 90.3906 224.6562 C89.0469 224.6562 87.5625 225.8438 87.5625 227.9531 C87.5625 230.0938 88.7188 231.1719 90.1406 231.1719 C91.0156 231.1719 91.6875 230.8125 92.0938 229.9844 C92.2031 230.8594 92.5156 231.1719 93.0156 231.1719 C93.4688 231.1719 93.7969 230.9062 94.0156 230.5625 L93.9062 230.2812 Z" style="fill:black; stroke:none;"
      /><rect x="61" width="7" height="9" y="214" style="stroke:none;"
      /><path d="M62 219.5156 L64.9531 215.2656 L64.9531 219.5156 L62 219.5156 ZM67.2812 219.5156 L65.8594 219.5156 L65.8594 214.125 L65.2344 214.125 L61.3438 219.6406 L61.3438 220.1875 L64.9531 220.1875 L64.9531 223 L65.8594 223 L65.8594 220.1875 L67.2812 220.1875 L67.2812 219.5156 Z" style="fill:black; stroke:none;"
      /><rect x="54" width="6" height="13" y="227" style="stroke:none;"
      /><path d="M56.0938 233.2031 C56.0938 231.6562 56.75 230.8125 57.7969 230.8125 C58.7188 230.8125 59.2656 231.4531 59.2656 232.5156 C59.2656 233.7188 58.5 234.4375 57.1875 234.7031 L57.2969 235.3125 C59.2188 235.2344 59.9375 236.2188 59.9375 237.4375 C59.9375 238.625 59.2344 239.4219 57.9531 239.4219 C57.25 239.4219 56.6562 239.1562 56.0938 238.7188 L56.0938 233.2031 ZM55.2031 239.9062 L55.1094 242.375 L55.2656 242.4844 L56.1562 242.2656 L56.0156 239.0938 C56.5469 239.8438 57.3594 240.1719 58.1719 240.1719 C59.5625 240.1719 60.8594 239.2188 60.8594 237.4844 C60.8594 235.9531 59.875 235.1094 58.125 235 C59.5625 234.6094 60.1875 233.4531 60.1875 232.4844 C60.1875 231.0938 59.1562 230.3125 57.9062 230.3125 C56.2969 230.3125 55.2188 231.5469 55.2188 233.5156 L55.2031 239.9062 Z" style="fill:black; stroke:none;"
      /><rect x="72" width="6" height="9" y="159" style="stroke:none;"
      /><path d="M73.4219 167.0938 C74.0781 166.375 74.7031 165.7188 75.0312 165.3438 C76.9219 163.3125 77.5312 162.4688 77.5312 161.3594 C77.5312 160.0156 76.7812 159.0781 75.1562 159.0781 C73.9062 159.0781 72.7969 159.7031 72.5938 160.9688 C72.7188 161.2031 72.9062 161.3438 73.1562 161.3438 C73.4688 161.3438 73.6562 161.1094 73.7969 160.5938 L74.0938 159.6719 C74.3906 159.5938 74.6562 159.5625 74.8906 159.5625 C75.9219 159.5625 76.5469 160.3125 76.5469 161.4219 C76.5469 162.4375 75.9844 163.4219 74.7031 164.9062 C74.125 165.5781 73.3906 166.4375 72.6406 167.2812 L72.6406 168 L77.9219 168 L77.9219 167.0938 L73.4219 167.0938 Z" style="fill:black; stroke:none;"
      /><rect x="71" width="8" height="8" y="174" style="stroke:none;"
      /><path d="M75.9844 179.7031 C75.9375 180.8906 75.1562 181.6562 74.3125 181.6562 C73.2656 181.6562 72.5 180.6875 72.5 178.7188 C72.5 177.2812 73.1562 176.1562 74.3438 176.1562 C75.1406 176.1562 75.7812 176.6875 76.0938 177.6406 L75.9844 179.7031 ZM77.9062 181.2812 C77.7344 181.375 77.5469 181.4219 77.3438 181.4219 C76.9531 181.4219 76.75 181.2188 76.75 180.4219 C76.75 179.4844 76.9688 177.5312 77.1875 175.8281 L77.0312 175.7188 L76.2344 175.9219 L76.1406 176.7969 C75.7812 176.0312 75.1562 175.6562 74.3906 175.6562 C73.0469 175.6562 71.5625 176.8438 71.5625 178.9531 C71.5625 181.0938 72.7188 182.1719 74.1406 182.1719 C75.0156 182.1719 75.6875 181.8125 76.0938 180.9844 C76.2031 181.8594 76.5156 182.1719 77.0156 182.1719 C77.4688 182.1719 77.7969 181.9062 78.0156 181.5625 L77.9062 181.2812 Z" style="fill:black; stroke:none;"
      /><rect x="72" width="6" height="9" y="107" style="stroke:none;"
      /><path d="M73.4219 115.0938 C74.0781 114.375 74.7031 113.7188 75.0312 113.3438 C76.9219 111.3125 77.5312 110.4688 77.5312 109.3594 C77.5312 108.0156 76.7812 107.0781 75.1562 107.0781 C73.9062 107.0781 72.7969 107.7031 72.5938 108.9688 C72.7188 109.2031 72.9062 109.3438 73.1562 109.3438 C73.4688 109.3438 73.6562 109.1094 73.7969 108.5938 L74.0938 107.6719 C74.3906 107.5938 74.6562 107.5625 74.8906 107.5625 C75.9219 107.5625 76.5469 108.3125 76.5469 109.4219 C76.5469 110.4375 75.9844 111.4219 74.7031 112.9062 C74.125 113.5781 73.3906 114.4375 72.6406 115.2812 L72.6406 116 L77.9219 116 L77.9219 115.0938 L73.4219 115.0938 Z" style="fill:black; stroke:none;"
      /><rect x="71" width="8" height="8" y="122" style="stroke:none;"
      /><path d="M75.9844 127.7031 C75.9375 128.8906 75.1562 129.6562 74.3125 129.6562 C73.2656 129.6562 72.5 128.6875 72.5 126.7188 C72.5 125.2812 73.1562 124.1562 74.3438 124.1562 C75.1406 124.1562 75.7812 124.6875 76.0938 125.6406 L75.9844 127.7031 ZM77.9062 129.2812 C77.7344 129.375 77.5469 129.4219 77.3438 129.4219 C76.9531 129.4219 76.75 129.2188 76.75 128.4219 C76.75 127.4844 76.9688 125.5312 77.1875 123.8281 L77.0312 123.7188 L76.2344 123.9219 L76.1406 124.7969 C75.7812 124.0312 75.1562 123.6562 74.3906 123.6562 C73.0469 123.6562 71.5625 124.8438 71.5625 126.9531 C71.5625 129.0938 72.7188 130.1719 74.1406 130.1719 C75.0156 130.1719 75.6875 129.8125 76.0938 128.9844 C76.2031 129.8594 76.5156 130.1719 77.0156 130.1719 C77.4688 130.1719 77.7969 129.9062 78.0156 129.5625 L77.9062 129.2812 Z" style="fill:black; stroke:none;"
      /><rect x="72" width="6" height="9" y="55" style="stroke:none;"
      /><path d="M73.4219 63.0938 C74.0781 62.375 74.7031 61.7188 75.0312 61.3438 C76.9219 59.3125 77.5312 58.4688 77.5312 57.3594 C77.5312 56.0156 76.7812 55.0781 75.1562 55.0781 C73.9062 55.0781 72.7969 55.7031 72.5938 56.9688 C72.7188 57.2031 72.9062 57.3438 73.1562 57.3438 C73.4688 57.3438 73.6562 57.1094 73.7969 56.5938 L74.0938 55.6719 C74.3906 55.5938 74.6562 55.5625 74.8906 55.5625 C75.9219 55.5625 76.5469 56.3125 76.5469 57.4219 C76.5469 58.4375 75.9844 59.4219 74.7031 60.9062 C74.125 61.5781 73.3906 62.4375 72.6406 63.2812 L72.6406 64 L77.9219 64 L77.9219 63.0938 L73.4219 63.0938 Z" style="fill:black; stroke:none;"
      /><rect x="71" width="8" height="8" y="70" style="stroke:none;"
      /><path d="M75.9844 75.7031 C75.9375 76.8906 75.1562 77.6562 74.3125 77.6562 C73.2656 77.6562 72.5 76.6875 72.5 74.7188 C72.5 73.2812 73.1562 72.1562 74.3438 72.1562 C75.1406 72.1562 75.7812 72.6875 76.0938 73.6406 L75.9844 75.7031 ZM77.9062 77.2812 C77.7344 77.375 77.5469 77.4219 77.3438 77.4219 C76.9531 77.4219 76.75 77.2188 76.75 76.4219 C76.75 75.4844 76.9688 73.5312 77.1875 71.8281 L77.0312 71.7188 L76.2344 71.9219 L76.1406 72.7969 C75.7812 72.0312 75.1562 71.6562 74.3906 71.6562 C73.0469 71.6562 71.5625 72.8438 71.5625 74.9531 C71.5625 77.0938 72.7188 78.1719 74.1406 78.1719 C75.0156 78.1719 75.6875 77.8125 76.0938 76.9844 C76.2031 77.8594 76.5156 78.1719 77.0156 78.1719 C77.4688 78.1719 77.7969 77.9062 78.0156 77.5625 L77.9062 77.2812 Z" style="fill:black; stroke:none;"
      /><rect x="97" width="6" height="10" y="44" style="stroke:none;"
      /><path d="M99.2344 45.6562 C99.5156 45.5938 99.7656 45.5625 100.0156 45.5625 C101.0625 45.5625 101.6719 46.1719 101.6719 47.2656 C101.6719 48.4375 100.9062 49.1094 99.7031 49.1094 L99.1875 49.1094 L99.1875 49.6406 L99.7969 49.6406 C101.2188 49.6406 101.9062 50.4219 101.9062 51.6406 C101.9062 52.8438 101.1719 53.6875 99.875 53.6875 C99.6094 53.6875 99.3125 53.6562 99.0156 53.5625 L98.7812 52.8125 C98.625 52.2812 98.5 52.0469 98.1406 52.0469 C97.8906 52.0469 97.7031 52.1719 97.5781 52.4219 C97.8438 53.6406 98.7812 54.1719 100.0312 54.1719 C101.7188 54.1719 102.875 53.125 102.875 51.7031 C102.875 50.5 102.2031 49.625 100.7969 49.375 C101.9531 49.0156 102.6094 48.2031 102.6094 47.2031 C102.6094 45.9219 101.6719 45.0781 100.1875 45.0781 C99.0469 45.0781 98.0625 45.5938 97.7969 46.6875 C97.9062 47 98.1094 47.1094 98.3594 47.1094 C98.7344 47.1094 98.8906 46.8906 99 46.4062 L99.2344 45.6562 Z" style="fill:black; stroke:none;"
      /><rect x="83" width="6" height="13" y="42" style="stroke:none;"
      /><path d="M85.0938 48.2031 C85.0938 46.6562 85.75 45.8125 86.7969 45.8125 C87.7188 45.8125 88.2656 46.4531 88.2656 47.5156 C88.2656 48.7188 87.5 49.4375 86.1875 49.7031 L86.2969 50.3125 C88.2188 50.2344 88.9375 51.2188 88.9375 52.4375 C88.9375 53.625 88.2344 54.4219 86.9531 54.4219 C86.25 54.4219 85.6562 54.1562 85.0938 53.7188 L85.0938 48.2031 ZM84.2031 54.9062 L84.1094 57.375 L84.2656 57.4844 L85.1562 57.2656 L85.0156 54.0938 C85.5469 54.8438 86.3594 55.1719 87.1719 55.1719 C88.5625 55.1719 89.8594 54.2188 89.8594 52.4844 C89.8594 50.9531 88.875 50.1094 87.125 50 C88.5625 49.6094 89.1875 48.4531 89.1875 47.4844 C89.1875 46.0938 88.1562 45.3125 86.9062 45.3125 C85.2969 45.3125 84.2188 46.5469 84.2188 48.5156 L84.2031 54.9062 Z" style="fill:black; stroke:none;"
      /><rect x="168" width="6" height="9" y="187" style="stroke:none;"
      /><path d="M169.4219 195.0938 C170.0781 194.375 170.7031 193.7188 171.0312 193.3438 C172.9219 191.3125 173.5312 190.4688 173.5312 189.3594 C173.5312 188.0156 172.7812 187.0781 171.1562 187.0781 C169.9062 187.0781 168.7969 187.7031 168.5938 188.9688 C168.7188 189.2031 168.9062 189.3438 169.1562 189.3438 C169.4688 189.3438 169.6562 189.1094 169.7969 188.5938 L170.0938 187.6719 C170.3906 187.5938 170.6562 187.5625 170.8906 187.5625 C171.9219 187.5625 172.5469 188.3125 172.5469 189.4219 C172.5469 190.4375 171.9844 191.4219 170.7031 192.9062 C170.125 193.5781 169.3906 194.4375 168.6406 195.2812 L168.6406 196 L173.9219 196 L173.9219 195.0938 L169.4219 195.0938 Z" style="fill:black; stroke:none;"
      /><rect x="129" width="8" height="8" y="281" style="stroke:none;"
      /><path d="M133.9844 286.7031 C133.9375 287.8906 133.1562 288.6562 132.3125 288.6562 C131.2656 288.6562 130.5 287.6875 130.5 285.7188 C130.5 284.2812 131.1562 283.1562 132.3438 283.1562 C133.1406 283.1562 133.7812 283.6875 134.0938 284.6406 L133.9844 286.7031 ZM135.9062 288.2812 C135.7344 288.375 135.5469 288.4219 135.3438 288.4219 C134.9531 288.4219 134.75 288.2188 134.75 287.4219 C134.75 286.4844 134.9688 284.5312 135.1875 282.8281 L135.0312 282.7188 L134.2344 282.9219 L134.1406 283.7969 C133.7812 283.0312 133.1562 282.6562 132.3906 282.6562 C131.0469 282.6562 129.5625 283.8438 129.5625 285.9531 C129.5625 288.0938 130.7188 289.1719 132.1406 289.1719 C133.0156 289.1719 133.6875 288.8125 134.0938 287.9844 C134.2031 288.8594 134.5156 289.1719 135.0156 289.1719 C135.4688 289.1719 135.7969 288.9062 136.0156 288.5625 L135.9062 288.2812 Z" style="fill:black; stroke:none;"
      /><rect x="152" width="7" height="9" y="151" style="stroke:none;"
      /><path d="M153 156.5156 L155.9531 152.2656 L155.9531 156.5156 L153 156.5156 ZM158.2812 156.5156 L156.8594 156.5156 L156.8594 151.125 L156.2344 151.125 L152.3438 156.6406 L152.3438 157.1875 L155.9531 157.1875 L155.9531 160 L156.8594 160 L156.8594 157.1875 L158.2812 157.1875 L158.2812 156.5156 Z" style="fill:black; stroke:none;"
      /><rect x="115" width="6" height="13" y="55" style="stroke:none;"
      /><path d="M117.0938 61.2031 C117.0938 59.6562 117.75 58.8125 118.7969 58.8125 C119.7188 58.8125 120.2656 59.4531 120.2656 60.5156 C120.2656 61.7188 119.5 62.4375 118.1875 62.7031 L118.2969 63.3125 C120.2188 63.2344 120.9375 64.2188 120.9375 65.4375 C120.9375 66.625 120.2344 67.4219 118.9531 67.4219 C118.25 67.4219 117.6562 67.1562 117.0938 66.7188 L117.0938 61.2031 ZM116.2031 67.9062 L116.1094 70.375 L116.2656 70.4844 L117.1562 70.2656 L117.0156 67.0938 C117.5469 67.8438 118.3594 68.1719 119.1719 68.1719 C120.5625 68.1719 121.8594 67.2188 121.8594 65.4844 C121.8594 63.9531 120.875 63.1094 119.125 63 C120.5625 62.6094 121.1875 61.4531 121.1875 60.4844 C121.1875 59.0938 120.1562 58.3125 118.9062 58.3125 C117.2969 58.3125 116.2188 59.5469 116.2188 61.5156 L116.2031 67.9062 Z" style="fill:black; stroke:none;"
      /><rect x="201" width="6" height="9" y="174" style="stroke:none;"
      /><path d="M202.4219 182.0938 C203.0781 181.375 203.7031 180.7188 204.0312 180.3438 C205.9219 178.3125 206.5312 177.4688 206.5312 176.3594 C206.5312 175.0156 205.7812 174.0781 204.1562 174.0781 C202.9062 174.0781 201.7969 174.7031 201.5938 175.9688 C201.7188 176.2031 201.9062 176.3438 202.1562 176.3438 C202.4688 176.3438 202.6562 176.1094 202.7969 175.5938 L203.0938 174.6719 C203.3906 174.5938 203.6562 174.5625 203.8906 174.5625 C204.9219 174.5625 205.5469 175.3125 205.5469 176.4219 C205.5469 177.4375 204.9844 178.4219 203.7031 179.9062 C203.125 180.5781 202.3906 181.4375 201.6406 182.2812 L201.6406 183 L206.9219 183 L206.9219 182.0938 L202.4219 182.0938 Z" style="fill:black; stroke:none;"
      /><rect x="186" width="8" height="8" y="175" style="stroke:none;"
      /><path d="M190.9844 180.7031 C190.9375 181.8906 190.1562 182.6562 189.3125 182.6562 C188.2656 182.6562 187.5 181.6875 187.5 179.7188 C187.5 178.2812 188.1562 177.1562 189.3438 177.1562 C190.1406 177.1562 190.7812 177.6875 191.0938 178.6406 L190.9844 180.7031 ZM192.9062 182.2812 C192.7344 182.375 192.5469 182.4219 192.3438 182.4219 C191.9531 182.4219 191.75 182.2188 191.75 181.4219 C191.75 180.4844 191.9688 178.5312 192.1875 176.8281 L192.0312 176.7188 L191.2344 176.9219 L191.1406 177.7969 C190.7812 177.0312 190.1562 176.6562 189.3906 176.6562 C188.0469 176.6562 186.5625 177.8438 186.5625 179.9531 C186.5625 182.0938 187.7188 183.1719 189.1406 183.1719 C190.0156 183.1719 190.6875 182.8125 191.0938 181.9844 C191.2031 182.8594 191.5156 183.1719 192.0156 183.1719 C192.4688 183.1719 192.7969 182.9062 193.0156 182.5625 L192.9062 182.2812 Z" style="fill:black; stroke:none;"
      /><rect x="253" width="6" height="10" y="174" style="stroke:none;"
      /><path d="M255.2344 175.6562 C255.5156 175.5938 255.7656 175.5625 256.0156 175.5625 C257.0625 175.5625 257.6719 176.1719 257.6719 177.2656 C257.6719 178.4375 256.9062 179.1094 255.7031 179.1094 L255.1875 179.1094 L255.1875 179.6406 L255.7969 179.6406 C257.2188 179.6406 257.9062 180.4219 257.9062 181.6406 C257.9062 182.8438 257.1719 183.6875 255.875 183.6875 C255.6094 183.6875 255.3125 183.6562 255.0156 183.5625 L254.7812 182.8125 C254.625 182.2812 254.5 182.0469 254.1406 182.0469 C253.8906 182.0469 253.7031 182.1719 253.5781 182.4219 C253.8438 183.6406 254.7812 184.1719 256.0312 184.1719 C257.7188 184.1719 258.875 183.125 258.875 181.7031 C258.875 180.5 258.2031 179.625 256.7969 179.375 C257.9531 179.0156 258.6094 178.2031 258.6094 177.2031 C258.6094 175.9219 257.6719 175.0781 256.1875 175.0781 C255.0469 175.0781 254.0625 175.5938 253.7969 176.6875 C253.9062 177 254.1094 177.1094 254.3594 177.1094 C254.7344 177.1094 254.8906 176.8906 255 176.4062 L255.2344 175.6562 Z" style="fill:black; stroke:none;"
      /><rect x="238" width="8" height="8" y="175" style="stroke:none;"
      /><path d="M242.9844 180.7031 C242.9375 181.8906 242.1562 182.6562 241.3125 182.6562 C240.2656 182.6562 239.5 181.6875 239.5 179.7188 C239.5 178.2812 240.1562 177.1562 241.3438 177.1562 C242.1406 177.1562 242.7812 177.6875 243.0938 178.6406 L242.9844 180.7031 ZM244.9062 182.2812 C244.7344 182.375 244.5469 182.4219 244.3438 182.4219 C243.9531 182.4219 243.75 182.2188 243.75 181.4219 C243.75 180.4844 243.9688 178.5312 244.1875 176.8281 L244.0312 176.7188 L243.2344 176.9219 L243.1406 177.7969 C242.7812 177.0312 242.1562 176.6562 241.3906 176.6562 C240.0469 176.6562 238.5625 177.8438 238.5625 179.9531 C238.5625 182.0938 239.7188 183.1719 241.1406 183.1719 C242.0156 183.1719 242.6875 182.8125 243.0938 181.9844 C243.2031 182.8594 243.5156 183.1719 244.0156 183.1719 C244.4688 183.1719 244.7969 182.9062 245.0156 182.5625 L244.9062 182.2812 Z" style="fill:black; stroke:none;"
      /><polygon style="fill:none; stroke:black;" points=" 275 119 223 119"
      /><polygon style="clip-path:url(#clipPath15); stroke:none;" points=" 286 119 280 126 269 126 264 119 269 111 280 111 286 119"
      /><rect x="264" y="108" width="22" style="clip-path:url(#clipPath15); fill:rgb(0,166,81); stroke:none;" height="22"
      /><rect x="264" y="108" width="22" style="clip-path:url(#clipPath15); fill:none; stroke:black;" height="22"
      /><polygon style="fill:none; stroke:black;" points=" 286 119 280 126 269 126 264 119 269 111 280 111 286 119"
      /><polygon style="clip-path:url(#clipPath16); stroke:none;" points=" 223 108 234 119 223 130 212 119"
      /><rect x="212" y="108" width="22" style="clip-path:url(#clipPath16); fill:rgb(255,212,0); stroke:none;" height="11"
      /><rect x="212" y="108" width="22" style="clip-path:url(#clipPath16); fill:none; stroke:black;" height="11"
      /><polygon style="fill:none; stroke:black;" points=" 223 108 234 119 223 130 212 119"
      /><rect x="253" width="6" height="9" y="122" style="stroke:none;"
      /><path d="M253.6406 122.25 L253.6406 123.1406 L258.2031 123.1406 L254.7812 130.875 L254.8906 131 L255.75 131 L258.875 122.7969 L258.875 122.25 L253.6406 122.25 Z" style="fill:black; stroke:none;"
      /><rect x="239" width="6" height="13" y="120" style="stroke:none;"
      /><path d="M241.0938 126.2031 C241.0938 124.6562 241.75 123.8125 242.7969 123.8125 C243.7188 123.8125 244.2656 124.4531 244.2656 125.5156 C244.2656 126.7188 243.5 127.4375 242.1875 127.7031 L242.2969 128.3125 C244.2188 128.2344 244.9375 129.2188 244.9375 130.4375 C244.9375 131.625 244.2344 132.4219 242.9531 132.4219 C242.25 132.4219 241.6562 132.1562 241.0938 131.7188 L241.0938 126.2031 ZM240.2031 132.9062 L240.1094 135.375 L240.2656 135.4844 L241.1562 135.2656 L241.0156 132.0938 C241.5469 132.8438 242.3594 133.1719 243.1719 133.1719 C244.5625 133.1719 245.8594 132.2188 245.8594 130.4844 C245.8594 128.9531 244.875 128.1094 243.125 128 C244.5625 127.6094 245.1875 126.4531 245.1875 125.4844 C245.1875 124.0938 244.1562 123.3125 242.9062 123.3125 C241.2969 123.3125 240.2188 124.5469 240.2188 126.5156 L240.2031 132.9062 Z" style="fill:black; stroke:none;"
      /><rect x="308" width="6" height="10" y="158" style="stroke:none;"
      /><path d="M310.2344 159.6562 C310.5156 159.5938 310.7656 159.5625 311.0156 159.5625 C312.0625 159.5625 312.6719 160.1719 312.6719 161.2656 C312.6719 162.4375 311.9062 163.1094 310.7031 163.1094 L310.1875 163.1094 L310.1875 163.6406 L310.7969 163.6406 C312.2188 163.6406 312.9062 164.4219 312.9062 165.6406 C312.9062 166.8438 312.1719 167.6875 310.875 167.6875 C310.6094 167.6875 310.3125 167.6562 310.0156 167.5625 L309.7812 166.8125 C309.625 166.2812 309.5 166.0469 309.1406 166.0469 C308.8906 166.0469 308.7031 166.1719 308.5781 166.4219 C308.8438 167.6406 309.7812 168.1719 311.0312 168.1719 C312.7188 168.1719 313.875 167.125 313.875 165.7031 C313.875 164.5 313.2031 163.625 311.7969 163.375 C312.9531 163.0156 313.6094 162.2031 313.6094 161.2031 C313.6094 159.9219 312.6719 159.0781 311.1875 159.0781 C310.0469 159.0781 309.0625 159.5938 308.7969 160.6875 C308.9062 161 309.1094 161.1094 309.3594 161.1094 C309.7344 161.1094 309.8906 160.8906 310 160.4062 L310.2344 159.6562 Z" style="fill:black; stroke:none;"
      /><rect x="292" width="8" height="8" y="166" style="stroke:none;"
      /><path d="M296.9844 171.7031 C296.9375 172.8906 296.1562 173.6562 295.3125 173.6562 C294.2656 173.6562 293.5 172.6875 293.5 170.7188 C293.5 169.2812 294.1562 168.1562 295.3438 168.1562 C296.1406 168.1562 296.7812 168.6875 297.0938 169.6406 L296.9844 171.7031 ZM298.9062 173.2812 C298.7344 173.375 298.5469 173.4219 298.3438 173.4219 C297.9531 173.4219 297.75 173.2188 297.75 172.4219 C297.75 171.4844 297.9688 169.5312 298.1875 167.8281 L298.0312 167.7188 L297.2344 167.9219 L297.1406 168.7969 C296.7812 168.0312 296.1562 167.6562 295.3906 167.6562 C294.0469 167.6562 292.5625 168.8438 292.5625 170.9531 C292.5625 173.0938 293.7188 174.1719 295.1406 174.1719 C296.0156 174.1719 296.6875 173.8125 297.0938 172.9844 C297.2031 173.8594 297.5156 174.1719 298.0156 174.1719 C298.4688 174.1719 298.7969 173.9062 299.0156 173.5625 L298.9062 173.2812 Z" style="fill:black; stroke:none;"
      /><rect x="302" width="6" height="9" y="136" style="stroke:none;"
      /><path d="M302.6406 136.25 L302.6406 137.1406 L307.2031 137.1406 L303.7812 144.875 L303.8906 145 L304.75 145 L307.875 136.7969 L307.875 136.25 L302.6406 136.25 Z" style="fill:black; stroke:none;"
      /><rect x="286" width="8" height="8" y="130" style="stroke:none;"
      /><path d="M290.9844 135.7031 C290.9375 136.8906 290.1562 137.6562 289.3125 137.6562 C288.2656 137.6562 287.5 136.6875 287.5 134.7188 C287.5 133.2812 288.1562 132.1562 289.3438 132.1562 C290.1406 132.1562 290.7812 132.6875 291.0938 133.6406 L290.9844 135.7031 ZM292.9062 137.2812 C292.7344 137.375 292.5469 137.4219 292.3438 137.4219 C291.9531 137.4219 291.75 137.2188 291.75 136.4219 C291.75 135.4844 291.9688 133.5312 292.1875 131.8281 L292.0312 131.7188 L291.2344 131.9219 L291.1406 132.7969 C290.7812 132.0312 290.1562 131.6562 289.3906 131.6562 C288.0469 131.6562 286.5625 132.8438 286.5625 134.9531 C286.5625 137.0938 287.7188 138.1719 289.1406 138.1719 C290.0156 138.1719 290.6875 137.8125 291.0938 136.9844 C291.2031 137.8594 291.5156 138.1719 292.0156 138.1719 C292.4688 138.1719 292.7969 137.9062 293.0156 137.5625 L292.9062 137.2812 Z" style="fill:black; stroke:none;"
      /><rect x="373" width="6" height="10" y="148" style="stroke:none;"
      /><path d="M375.2344 149.6562 C375.5156 149.5938 375.7656 149.5625 376.0156 149.5625 C377.0625 149.5625 377.6719 150.1719 377.6719 151.2656 C377.6719 152.4375 376.9062 153.1094 375.7031 153.1094 L375.1875 153.1094 L375.1875 153.6406 L375.7969 153.6406 C377.2188 153.6406 377.9062 154.4219 377.9062 155.6406 C377.9062 156.8438 377.1719 157.6875 375.875 157.6875 C375.6094 157.6875 375.3125 157.6562 375.0156 157.5625 L374.7812 156.8125 C374.625 156.2812 374.5 156.0469 374.1406 156.0469 C373.8906 156.0469 373.7031 156.1719 373.5781 156.4219 C373.8438 157.6406 374.7812 158.1719 376.0312 158.1719 C377.7188 158.1719 378.875 157.125 378.875 155.7031 C378.875 154.5 378.2031 153.625 376.7969 153.375 C377.9531 153.0156 378.6094 152.2031 378.6094 151.2031 C378.6094 149.9219 377.6719 149.0781 376.1875 149.0781 C375.0469 149.0781 374.0625 149.5938 373.7969 150.6875 C373.9062 151 374.1094 151.1094 374.3594 151.1094 C374.7344 151.1094 374.8906 150.8906 375 150.4062 L375.2344 149.6562 Z" style="fill:black; stroke:none;"
      /><rect x="358" width="8" height="8" y="149" style="stroke:none;"
      /><path d="M362.9844 154.7031 C362.9375 155.8906 362.1562 156.6562 361.3125 156.6562 C360.2656 156.6562 359.5 155.6875 359.5 153.7188 C359.5 152.2812 360.1562 151.1562 361.3438 151.1562 C362.1406 151.1562 362.7812 151.6875 363.0938 152.6406 L362.9844 154.7031 ZM364.9062 156.2812 C364.7344 156.375 364.5469 156.4219 364.3438 156.4219 C363.9531 156.4219 363.75 156.2188 363.75 155.4219 C363.75 154.4844 363.9688 152.5312 364.1875 150.8281 L364.0312 150.7188 L363.2344 150.9219 L363.1406 151.7969 C362.7812 151.0312 362.1562 150.6562 361.3906 150.6562 C360.0469 150.6562 358.5625 151.8438 358.5625 153.9531 C358.5625 156.0938 359.7188 157.1719 361.1406 157.1719 C362.0156 157.1719 362.6875 156.8125 363.0938 155.9844 C363.2031 156.8594 363.5156 157.1719 364.0156 157.1719 C364.4688 157.1719 364.7969 156.9062 365.0156 156.5625 L364.9062 156.2812 Z" style="fill:black; stroke:none;"
      /><polygon style="clip-path:url(#clipPath17); stroke:none;" points=" 407 59 409 66 417 66 410 71 413 78 407 74 400 78 403 71 396 66 404 66 407 59"
      /><rect x="396" y="59" width="22" style="clip-path:url(#clipPath17); fill:rgb(0,166,81); stroke:none;" height="22"
      /><rect x="396" y="59" width="22" style="clip-path:url(#clipPath17); fill:none; stroke:black;" height="22"
      /><polygon style="fill:none; stroke:black;" points=" 407 59 409 66 417 66 410 71 413 78 407 74 400 78 403 71 396 66 404 66 407 59"
      /><rect x="398" width="16" height="10" y="41" style="stroke:none;"
    /></g
    ><g style="text-rendering:optimizeSpeed; font-size:14px; font-family:'SansSerif';"
    ><path style="stroke:none;" d="M399.6094 48.1562 L401.9531 44.6562 C402.2344 44.1406 402.5156 43.6406 402.7812 43.1406 L402.8281 43.1406 C402.7969 43.6719 402.7656 44.5 402.7656 45 L402.7656 48.1562 L399.6094 48.1562 ZM402.7656 52 L403.9688 52 L403.9688 49.1719 L405.3281 49.1719 L405.3281 48.1562 L403.9688 48.1562 L403.9688 41.7188 L402.5469 41.7188 L398.2812 48.3281 L398.2812 49.1719 L402.7656 49.1719 L402.7656 52 ZM407.1762 52 L408.395 52 L408.395 46.6094 C408.395 45.5312 408.3012 44.4375 408.2543 43.4062 L408.3012 43.4062 L409.4106 45.5156 L413.145 52 L414.4731 52 L414.4731 41.7188 L413.2387 41.7188 L413.2387 47.0781 C413.2387 48.1406 413.3481 49.2812 413.4106 50.3125 L413.3481 50.3125 L412.2543 48.2031 L408.52 41.7188 L407.1762 41.7188 L407.1762 52 Z"
    /></g
    ><g style="fill:white; text-rendering:optimizeSpeed; font-family:'Serif'; stroke:white;"
    ><rect x="455" width="6" height="10" y="119" style="stroke:none;"
      /><path d="M456.9219 121.1406 L460.6562 121.1406 L460.6562 120.25 L456.4531 120.25 L456.1719 124.3125 L456.5156 124.3906 C456.9219 124.25 457.3906 124.1875 457.8125 124.1875 C459.0781 124.1875 459.9219 124.9531 459.9219 126.3906 C459.9219 127.7812 459.1719 128.6875 457.8281 128.6875 C457.5156 128.6875 457.2344 128.6406 456.9375 128.5625 L456.6875 127.7812 C456.5312 127.2188 456.3906 127.0469 456.0625 127.0469 C455.7969 127.0469 455.5938 127.1719 455.4844 127.4375 C455.7656 128.5938 456.625 129.1719 457.8906 129.1719 C459.7031 129.1719 460.875 127.9844 460.875 126.2812 C460.875 124.5312 459.75 123.5469 458.0938 123.5469 C457.6094 123.5469 457.1719 123.625 456.7344 123.7656 L456.9219 121.1406 Z" style="fill:black; stroke:none;"
      /><rect x="437" width="8" height="8" y="129" style="stroke:none;"
      /><path d="M441.9844 134.7031 C441.9375 135.8906 441.1562 136.6562 440.3125 136.6562 C439.2656 136.6562 438.5 135.6875 438.5 133.7188 C438.5 132.2812 439.1562 131.1562 440.3438 131.1562 C441.1406 131.1562 441.7812 131.6875 442.0938 132.6406 L441.9844 134.7031 ZM443.9062 136.2812 C443.7344 136.375 443.5469 136.4219 443.3438 136.4219 C442.9531 136.4219 442.75 136.2188 442.75 135.4219 C442.75 134.4844 442.9688 132.5312 443.1875 130.8281 L443.0312 130.7188 L442.2344 130.9219 L442.1406 131.7969 C441.7812 131.0312 441.1562 130.6562 440.3906 130.6562 C439.0469 130.6562 437.5625 131.8438 437.5625 133.9531 C437.5625 136.0938 438.7188 137.1719 440.1406 137.1719 C441.0156 137.1719 441.6875 136.8125 442.0938 135.9844 C442.2031 136.8594 442.5156 137.1719 443.0156 137.1719 C443.4688 137.1719 443.7969 136.9062 444.0156 136.5625 L443.9062 136.2812 Z" style="fill:black; stroke:none;"
      /><rect x="447" width="6" height="10" y="98" style="stroke:none;"
      /><path d="M450.2656 107.7031 C449.2031 107.7031 448.5 106.9688 448.5 105.9062 C448.5 104.9688 448.9375 104.4219 449.9062 103.8438 C451.4688 104.5625 451.9531 105.1719 451.9531 106.0156 C451.9531 107 451.2969 107.7031 450.2656 107.7031 ZM448.75 101.0469 C448.75 100.1094 449.4531 99.5625 450.2344 99.5625 C451.1562 99.5625 451.6562 100.2656 451.6562 101.0938 C451.6562 101.9688 451.3281 102.5469 450.4688 103.1562 C449.0938 102.5156 448.75 101.7969 448.75 101.0469 ZM450.8594 103.3438 C452.0938 102.6562 452.4531 101.8125 452.4531 101.0938 C452.4531 99.9219 451.6094 99.0781 450.2656 99.0781 C448.9375 99.0781 447.8906 99.9062 447.8906 101.2031 C447.8906 102.2031 448.375 103.0469 449.5156 103.6562 C448.2656 104.2812 447.5938 105 447.5938 106.0156 C447.5938 107.3906 448.6562 108.1719 450.2344 108.1719 C451.75 108.1719 452.875 107.25 452.875 105.8906 C452.875 104.7344 452.2656 104 450.8594 103.3438 Z" style="fill:black; stroke:none;"
      /><rect x="417" width="6" height="13" y="80" style="stroke:none;"
      /><path d="M419.0938 86.2031 C419.0938 84.6562 419.75 83.8125 420.7969 83.8125 C421.7188 83.8125 422.2656 84.4531 422.2656 85.5156 C422.2656 86.7188 421.5 87.4375 420.1875 87.7031 L420.2969 88.3125 C422.2188 88.2344 422.9375 89.2188 422.9375 90.4375 C422.9375 91.625 422.2344 92.4219 420.9531 92.4219 C420.25 92.4219 419.6562 92.1562 419.0938 91.7188 L419.0938 86.2031 ZM418.2031 92.9062 L418.1094 95.375 L418.2656 95.4844 L419.1562 95.2656 L419.0156 92.0938 C419.5469 92.8438 420.3594 93.1719 421.1719 93.1719 C422.5625 93.1719 423.8594 92.2188 423.8594 90.4844 C423.8594 88.9531 422.875 88.1094 421.125 88 C422.5625 87.6094 423.1875 86.4531 423.1875 85.4844 C423.1875 84.0938 422.1562 83.3125 420.9062 83.3125 C419.2969 83.3125 418.2188 84.5469 418.2188 86.5156 L418.2031 92.9062 Z" style="fill:black; stroke:none;"
      /><rect x="487" width="8" height="8" y="111" style="stroke:none;"
      /><path d="M491.9844 116.7031 C491.9375 117.8906 491.1562 118.6562 490.3125 118.6562 C489.2656 118.6562 488.5 117.6875 488.5 115.7188 C488.5 114.2812 489.1562 113.1562 490.3438 113.1562 C491.1406 113.1562 491.7812 113.6875 492.0938 114.6406 L491.9844 116.7031 ZM493.9062 118.2812 C493.7344 118.375 493.5469 118.4219 493.3438 118.4219 C492.9531 118.4219 492.75 118.2188 492.75 117.4219 C492.75 116.4844 492.9688 114.5312 493.1875 112.8281 L493.0312 112.7188 L492.2344 112.9219 L492.1406 113.7969 C491.7812 113.0312 491.1562 112.6562 490.3906 112.6562 C489.0469 112.6562 487.5625 113.8438 487.5625 115.9531 C487.5625 118.0938 488.7188 119.1719 490.1406 119.1719 C491.0156 119.1719 491.6875 118.8125 492.0938 117.9844 C492.2031 118.8594 492.5156 119.1719 493.0156 119.1719 C493.4688 119.1719 493.7969 118.9062 494.0156 118.5625 L493.9062 118.2812 Z" style="fill:black; stroke:none;"
    /></g
  ></g
></svg
>
