<?xml version="1.0"?>
<!DOCTYPE svg PUBLIC '-//W3C//DTD SVG 1.0//EN'
          'http://www.w3.org/TR/2001/REC-SVG-20010904/DTD/svg10.dtd'>
<svg xmlns:xlink="http://www.w3.org/1999/xlink" style="fill-opacity:1; color-rendering:auto; color-interpolation:auto; text-rendering:auto; stroke:black; stroke-linecap:square; stroke-miterlimit:10; shape-rendering:auto; stroke-opacity:1; fill:black; stroke-dasharray:none; font-weight:normal; stroke-width:1; font-family:'Dialog'; font-style:normal; stroke-linejoin:miter; font-size:12px; stroke-dashoffset:0; image-rendering:auto;" viewBox="0 0 342 160" xmlns="http://www.w3.org/2000/svg"
><!--Generated by the Batik Graphics2D SVG Generator--><defs id="genericDefs"
  /><g
  ><defs id="defs1"
    ><clipPath clipPathUnits="userSpaceOnUse" id="clipPath1"
      ><path d="M238 56 L260 56 L260 78 L238 78 L238 56 Z"
      /></clipPath
      ><clipPath clipPathUnits="userSpaceOnUse" id="clipPath2"
      ><path d="M186 82 L208 82 L208 104 L186 104 L186 82 Z"
      /></clipPath
      ><clipPath clipPathUnits="userSpaceOnUse" id="clipPath3"
      ><path d="M156 93 C156 99.0751 151.0751 104 145 104 C138.9249 104 134 99.0751 134 93 C134 86.9249 138.9249 82 145 82 C151.0751 82 156 86.9249 156 93 Z"
      /></clipPath
      ><clipPath clipPathUnits="userSpaceOnUse" id="clipPath4"
      ><path d="M104 119 C104 125.0751 99.0751 130 93 130 C86.9249 130 82 125.0751 82 119 C82 112.9249 86.9249 108 93 108 C99.0751 108 104 112.9249 104 119 Z"
      /></clipPath
      ><clipPath clipPathUnits="userSpaceOnUse" id="clipPath5"
      ><path d="M104 67 C104 73.0751 99.0751 78 93 78 C86.9249 78 82 73.0751 82 67 C82 60.9249 86.9249 56 93 56 C99.0751 56 104 60.9249 104 67 Z"
      /></clipPath
      ><clipPath clipPathUnits="userSpaceOnUse" id="clipPath6"
      ><path d="M52 93 C52 99.0751 47.0751 104 41 104 C34.9249 104 30 99.0751 30 93 C30 86.9249 34.9249 82 41 82 C47.0751 82 52 86.9249 52 93 Z"
      /></clipPath
      ><clipPath clipPathUnits="userSpaceOnUse" id="clipPath7"
      ><path d="M52 41 C52 47.0751 47.0751 52 41 52 C34.9249 52 30 47.0751 30 41 C30 34.9249 34.9249 30 41 30 C47.0751 30 52 34.9249 52 41 Z"
      /></clipPath
      ><clipPath clipPathUnits="userSpaceOnUse" id="clipPath8"
      ><path style="fill-rule:evenodd;" d="M197 30 L208 52 L186 52 Z"
      /></clipPath
    ></defs
    ><g style="fill:white; text-rendering:optimizeSpeed; stroke:white;"
    ><rect x="0" width="342" height="160" y="0" style="stroke:none;"
      /><polygon style="fill:none; stroke:black;" points=" 301 67 249 67"
      /><path d="M301 56 C295.5 61.5 306.5 72.5 301 78" style="fill:none; stroke:black;"
      /><polygon style="fill:none; stroke:black;" points=" 249 67 197 93"
      /><polygon style="fill:none; stroke:black;" points=" 249 67 197 41"
      /><rect x="238" y="56" width="22" style="clip-path:url(#clipPath1); stroke:none;" height="22"
      /><rect x="238" y="56" width="22" style="clip-path:url(#clipPath1); fill:rgb(0,144,188); stroke:none;" height="22"
      /><rect x="238" y="56" width="22" style="clip-path:url(#clipPath1); fill:none; stroke:black;" height="22"
      /><rect x="238" y="56" width="22" style="fill:none; stroke:black;" height="22"
      /><polygon style="fill:none; stroke:black;" points=" 197 93 145 93"
      /><rect x="186" y="82" width="22" style="clip-path:url(#clipPath2); stroke:none;" height="22"
      /><rect x="186" y="82" width="22" style="clip-path:url(#clipPath2); fill:rgb(0,144,188); stroke:none;" height="22"
      /><rect x="186" y="82" width="22" style="clip-path:url(#clipPath2); fill:none; stroke:black;" height="22"
      /><rect x="186" y="82" width="22" style="fill:none; stroke:black;" height="22"
      /><polygon style="fill:none; stroke:black;" points=" 145 93 93 119"
      /><polygon style="fill:none; stroke:black;" points=" 145 93 93 67"
      /><circle style="clip-path:url(#clipPath3); stroke:none;" r="11" cx="145" cy="93"
      /><rect x="134" y="82" width="22" style="clip-path:url(#clipPath3); fill:rgb(0,166,81); stroke:none;" height="22"
      /><rect x="134" y="82" width="22" style="clip-path:url(#clipPath3); fill:none; stroke:black;" height="22"
      /><circle style="fill:none; stroke:black;" r="11" cx="145" cy="93"
      /><circle style="clip-path:url(#clipPath4); stroke:none;" r="11" cx="93" cy="119"
      /><rect x="82" y="108" width="22" style="clip-path:url(#clipPath4); fill:rgb(0,144,188); stroke:none;" height="22"
      /><rect x="82" y="108" width="22" style="clip-path:url(#clipPath4); fill:none; stroke:black;" height="22"
      /><circle style="fill:none; stroke:black;" r="11" cx="93" cy="119"
    /></g
    ><g style="text-rendering:optimizeSpeed; font-size:10px; font-family:'SansSerif';"
    ><path style="stroke:none;" d="M91 122 L95.125 122 L95.125 121.2031 L91.9375 121.2031 L91.9375 114.6562 L91 114.6562 L91 122 Z"
      /><polygon style="fill:none;" points=" 93 67 41 93"
      /><polygon style="fill:none;" points=" 93 67 41 41"
    /></g
    ><g style="fill:white; text-rendering:optimizeSpeed; stroke:white;"
    ><circle r="11" style="clip-path:url(#clipPath5); stroke:none;" cx="93" cy="67"
      /><rect x="82" y="56" width="22" style="clip-path:url(#clipPath5); fill:rgb(0,166,81); stroke:none;" height="22"
      /><rect x="82" y="56" width="22" style="clip-path:url(#clipPath5); fill:none; stroke:black;" height="22"
      /><circle r="11" style="fill:none; stroke:black;" cx="93" cy="67"
      /><circle r="11" style="clip-path:url(#clipPath6); stroke:none;" cx="41" cy="93"
      /><rect x="30" y="82" width="22" style="clip-path:url(#clipPath6); fill:rgb(0,144,188); stroke:none;" height="22"
      /><rect x="30" y="82" width="22" style="clip-path:url(#clipPath6); fill:none; stroke:black;" height="22"
      /><circle r="11" style="fill:none; stroke:black;" cx="41" cy="93"
    /></g
    ><g style="text-rendering:optimizeSpeed; font-size:10px; font-family:'SansSerif';"
    ><path style="stroke:none;" d="M39 96 L43.125 96 L43.125 95.2031 L39.9375 95.2031 L39.9375 88.6562 L39 88.6562 L39 96 Z"
    /></g
    ><g style="fill:white; text-rendering:optimizeSpeed; stroke:white;"
    ><circle r="11" style="clip-path:url(#clipPath7); stroke:none;" cx="41" cy="41"
      /><rect x="30" y="30" width="22" style="clip-path:url(#clipPath7); fill:rgb(0,144,188); stroke:none;" height="22"
      /><rect x="30" y="30" width="22" style="clip-path:url(#clipPath7); fill:none; stroke:black;" height="22"
      /><circle r="11" style="fill:none; stroke:black;" cx="41" cy="41"
    /></g
    ><g style="text-rendering:optimizeSpeed; font-size:10px; font-family:'SansSerif';"
    ><path style="stroke:none;" d="M39 44 L43.125 44 L43.125 43.2031 L39.9375 43.2031 L39.9375 36.6562 L39 36.6562 L39 44 Z"
    /></g
    ><g style="fill:white; text-rendering:optimizeSpeed; font-family:'Serif'; stroke:white;"
    ><rect x="75" width="6" height="9" y="78" style="stroke:none;"
      /><path d="M76.4219 86.0938 C77.0781 85.375 77.7031 84.7188 78.0312 84.3438 C79.9219 82.3125 80.5312 81.4688 80.5312 80.3594 C80.5312 79.0156 79.7812 78.0781 78.1562 78.0781 C76.9062 78.0781 75.7969 78.7031 75.5938 79.9688 C75.7188 80.2031 75.9062 80.3438 76.1562 80.3438 C76.4688 80.3438 76.6562 80.1094 76.7969 79.5938 L77.0938 78.6719 C77.3906 78.5938 77.6562 78.5625 77.8906 78.5625 C78.9219 78.5625 79.5469 79.3125 79.5469 80.4219 C79.5469 81.4375 78.9844 82.4219 77.7031 83.9062 C77.125 84.5781 76.3906 85.4375 75.6406 86.2812 L75.6406 87 L80.9219 87 L80.9219 86.0938 L76.4219 86.0938 Z" style="fill:black; stroke:none;"
      /><rect x="59" width="6" height="13" y="84" style="stroke:none;"
      /><path d="M61.0938 90.2031 C61.0938 88.6562 61.75 87.8125 62.7969 87.8125 C63.7188 87.8125 64.2656 88.4531 64.2656 89.5156 C64.2656 90.7188 63.5 91.4375 62.1875 91.7031 L62.2969 92.3125 C64.2188 92.2344 64.9375 93.2188 64.9375 94.4375 C64.9375 95.625 64.2344 96.4219 62.9531 96.4219 C62.25 96.4219 61.6562 96.1562 61.0938 95.7188 L61.0938 90.2031 ZM60.2031 96.9062 L60.1094 99.375 L60.2656 99.4844 L61.1562 99.2656 L61.0156 96.0938 C61.5469 96.8438 62.3594 97.1719 63.1719 97.1719 C64.5625 97.1719 65.8594 96.2188 65.8594 94.4844 C65.8594 92.9531 64.875 92.1094 63.125 92 C64.5625 91.6094 65.1875 90.4531 65.1875 89.4844 C65.1875 88.0938 64.1562 87.3125 62.9062 87.3125 C61.2969 87.3125 60.2188 88.5469 60.2188 90.5156 L60.2031 96.9062 Z" style="fill:black; stroke:none;"
      /><rect x="68" width="6" height="10" y="60" style="stroke:none;"
      /><path d="M71.3438 69.6875 C70.2031 69.6875 69.5312 68.5 69.5312 66.2969 C69.5312 66.2188 69.5312 66.125 69.5312 66.0469 C70.0938 65.5 70.7188 65.3125 71.3438 65.3125 C72.3125 65.3125 72.9531 65.9844 72.9531 67.4531 C72.9531 68.9375 72.3125 69.6875 71.3438 69.6875 ZM73.5312 61.0781 C70.3438 61.4531 68.5625 63.7656 68.5625 66.4531 C68.5625 68.7812 69.6094 70.1719 71.3125 70.1719 C72.8438 70.1719 73.9219 69.1094 73.9219 67.2812 C73.9219 65.6875 72.9688 64.6562 71.5625 64.6562 C70.8281 64.6562 70.1406 64.9844 69.5781 65.5781 C69.7969 63.4062 71.0781 61.9688 73.5938 61.3906 L73.5312 61.0781 Z" style="fill:black; stroke:none;"
      /><rect x="52" width="6" height="13" y="50" style="stroke:none;"
      /><path d="M54.0938 56.2031 C54.0938 54.6562 54.75 53.8125 55.7969 53.8125 C56.7188 53.8125 57.2656 54.4531 57.2656 55.5156 C57.2656 56.7188 56.5 57.4375 55.1875 57.7031 L55.2969 58.3125 C57.2188 58.2344 57.9375 59.2188 57.9375 60.4375 C57.9375 61.625 57.2344 62.4219 55.9531 62.4219 C55.25 62.4219 54.6562 62.1562 54.0938 61.7188 L54.0938 56.2031 ZM53.2031 62.9062 L53.1094 65.375 L53.2656 65.4844 L54.1562 65.2656 L54.0156 62.0938 C54.5469 62.8438 55.3594 63.1719 56.1719 63.1719 C57.5625 63.1719 58.8594 62.2188 58.8594 60.4844 C58.8594 58.9531 57.875 58.1094 56.125 58 C57.5625 57.6094 58.1875 56.4531 58.1875 55.4844 C58.1875 54.0938 57.1562 53.3125 55.9062 53.3125 C54.2969 53.3125 53.2188 54.5469 53.2188 56.5156 L53.2031 62.9062 Z" style="fill:black; stroke:none;"
      /><rect x="127" width="6" height="10" y="104" style="stroke:none;"
      /><path d="M129.2344 105.6562 C129.5156 105.5938 129.7656 105.5625 130.0156 105.5625 C131.0625 105.5625 131.6719 106.1719 131.6719 107.2656 C131.6719 108.4375 130.9062 109.1094 129.7031 109.1094 L129.1875 109.1094 L129.1875 109.6406 L129.7969 109.6406 C131.2188 109.6406 131.9062 110.4219 131.9062 111.6406 C131.9062 112.8438 131.1719 113.6875 129.875 113.6875 C129.6094 113.6875 129.3125 113.6562 129.0156 113.5625 L128.7812 112.8125 C128.625 112.2812 128.5 112.0469 128.1406 112.0469 C127.8906 112.0469 127.7031 112.1719 127.5781 112.4219 C127.8438 113.6406 128.7812 114.1719 130.0312 114.1719 C131.7188 114.1719 132.875 113.125 132.875 111.7031 C132.875 110.5 132.2031 109.625 130.7969 109.375 C131.9531 109.0156 132.6094 108.2031 132.6094 107.2031 C132.6094 105.9219 131.6719 105.0781 130.1875 105.0781 C129.0469 105.0781 128.0625 105.5938 127.7969 106.6875 C127.9062 107 128.1094 107.1094 128.3594 107.1094 C128.7344 107.1094 128.8906 106.8906 129 106.4062 L129.2344 105.6562 Z" style="fill:black; stroke:none;"
      /><rect x="111" width="6" height="13" y="110" style="stroke:none;"
      /><path d="M113.0938 116.2031 C113.0938 114.6562 113.75 113.8125 114.7969 113.8125 C115.7188 113.8125 116.2656 114.4531 116.2656 115.5156 C116.2656 116.7188 115.5 117.4375 114.1875 117.7031 L114.2969 118.3125 C116.2188 118.2344 116.9375 119.2188 116.9375 120.4375 C116.9375 121.625 116.2344 122.4219 114.9531 122.4219 C114.25 122.4219 113.6562 122.1562 113.0938 121.7188 L113.0938 116.2031 ZM112.2031 122.9062 L112.1094 125.375 L112.2656 125.4844 L113.1562 125.2656 L113.0156 122.0938 C113.5469 122.8438 114.3594 123.1719 115.1719 123.1719 C116.5625 123.1719 117.8594 122.2188 117.8594 120.4844 C117.8594 118.9531 116.875 118.1094 115.125 118 C116.5625 117.6094 117.1875 116.4531 117.1875 115.4844 C117.1875 114.0938 116.1562 113.3125 114.9062 113.3125 C113.2969 113.3125 112.2188 114.5469 112.2188 116.5156 L112.2031 122.9062 Z" style="fill:black; stroke:none;"
      /><rect x="120" width="6" height="10" y="86" style="stroke:none;"
      /><path d="M123.3438 95.6875 C122.2031 95.6875 121.5312 94.5 121.5312 92.2969 C121.5312 92.2188 121.5312 92.125 121.5312 92.0469 C122.0938 91.5 122.7188 91.3125 123.3438 91.3125 C124.3125 91.3125 124.9531 91.9844 124.9531 93.4531 C124.9531 94.9375 124.3125 95.6875 123.3438 95.6875 ZM125.5312 87.0781 C122.3438 87.4531 120.5625 89.7656 120.5625 92.4531 C120.5625 94.7812 121.6094 96.1719 123.3125 96.1719 C124.8438 96.1719 125.9219 95.1094 125.9219 93.2812 C125.9219 91.6875 124.9688 90.6562 123.5625 90.6562 C122.8281 90.6562 122.1406 90.9844 121.5781 91.5781 C121.7969 89.4062 123.0781 87.9688 125.5938 87.3906 L125.5312 87.0781 Z" style="fill:black; stroke:none;"
      /><rect x="103" width="8" height="8" y="79" style="stroke:none;"
      /><path d="M107.9844 84.7031 C107.9375 85.8906 107.1562 86.6562 106.3125 86.6562 C105.2656 86.6562 104.5 85.6875 104.5 83.7188 C104.5 82.2812 105.1562 81.1562 106.3438 81.1562 C107.1406 81.1562 107.7812 81.6875 108.0938 82.6406 L107.9844 84.7031 ZM109.9062 86.2812 C109.7344 86.375 109.5469 86.4219 109.3438 86.4219 C108.9531 86.4219 108.75 86.2188 108.75 85.4219 C108.75 84.4844 108.9688 82.5312 109.1875 80.8281 L109.0312 80.7188 L108.2344 80.9219 L108.1406 81.7969 C107.7812 81.0312 107.1562 80.6562 106.3906 80.6562 C105.0469 80.6562 103.5625 81.8438 103.5625 83.9531 C103.5625 86.0938 104.7188 87.1719 106.1406 87.1719 C107.0156 87.1719 107.6875 86.8125 108.0938 85.9844 C108.2031 86.8594 108.5156 87.1719 109.0156 87.1719 C109.4688 87.1719 109.7969 86.9062 110.0156 86.5625 L109.9062 86.2812 Z" style="fill:black; stroke:none;"
      /><rect x="174" width="7" height="9" y="96" style="stroke:none;"
      /><path d="M175 101.5156 L177.9531 97.2656 L177.9531 101.5156 L175 101.5156 ZM180.2812 101.5156 L178.8594 101.5156 L178.8594 96.125 L178.2344 96.125 L174.3438 101.6406 L174.3438 102.1875 L177.9531 102.1875 L177.9531 105 L178.8594 105 L178.8594 102.1875 L180.2812 102.1875 L180.2812 101.5156 Z" style="fill:black; stroke:none;"
      /><rect x="161" width="6" height="13" y="94" style="stroke:none;"
      /><path d="M163.0938 100.2031 C163.0938 98.6562 163.75 97.8125 164.7969 97.8125 C165.7188 97.8125 166.2656 98.4531 166.2656 99.5156 C166.2656 100.7188 165.5 101.4375 164.1875 101.7031 L164.2969 102.3125 C166.2188 102.2344 166.9375 103.2188 166.9375 104.4375 C166.9375 105.625 166.2344 106.4219 164.9531 106.4219 C164.25 106.4219 163.6562 106.1562 163.0938 105.7188 L163.0938 100.2031 ZM162.2031 106.9062 L162.1094 109.375 L162.2656 109.4844 L163.1562 109.2656 L163.0156 106.0938 C163.5469 106.8438 164.3594 107.1719 165.1719 107.1719 C166.5625 107.1719 167.8594 106.2188 167.8594 104.4844 C167.8594 102.9531 166.875 102.1094 165.125 102 C166.5625 101.6094 167.1875 100.4531 167.1875 99.4844 C167.1875 98.0938 166.1562 97.3125 164.9062 97.3125 C163.2969 97.3125 162.2188 98.5469 162.2188 100.5156 L162.2031 106.9062 Z" style="fill:black; stroke:none;"
      /><polygon style="clip-path:url(#clipPath8); stroke:none;" points=" 197 30 208 52 186 52"
      /><rect x="186" y="30" width="22" style="clip-path:url(#clipPath8); fill:rgb(244,121,32); stroke:none;" height="22"
      /><rect x="186" y="30" width="22" style="clip-path:url(#clipPath8); fill:none; stroke:black;" height="22"
      /><polygon style="fill:none; stroke:black;" points=" 197 30 208 52 186 52"
    /></g
    ><g style="text-rendering:optimizeSpeed; font-size:10px; font-family:'SansSerif';"
    ><path style="stroke:none;" d="M195 44 L199.125 44 L199.125 43.2031 L195.9375 43.2031 L195.9375 36.6562 L195 36.6562 L195 44 Z"
    /></g
    ><g style="fill:white; text-rendering:optimizeSpeed; font-family:'Serif'; stroke:white;"
    ><rect x="230" width="7" height="9" y="78" style="stroke:none;"
      /><path d="M231 83.5156 L233.9531 79.2656 L233.9531 83.5156 L231 83.5156 ZM236.2812 83.5156 L234.8594 83.5156 L234.8594 78.125 L234.2344 78.125 L230.3438 83.6406 L230.3438 84.1875 L233.9531 84.1875 L233.9531 87 L234.8594 87 L234.8594 84.1875 L236.2812 84.1875 L236.2812 83.5156 Z" style="fill:black; stroke:none;"
      /><rect x="215" width="6" height="13" y="84" style="stroke:none;"
      /><path d="M217.0938 90.2031 C217.0938 88.6562 217.75 87.8125 218.7969 87.8125 C219.7188 87.8125 220.2656 88.4531 220.2656 89.5156 C220.2656 90.7188 219.5 91.4375 218.1875 91.7031 L218.2969 92.3125 C220.2188 92.2344 220.9375 93.2188 220.9375 94.4375 C220.9375 95.625 220.2344 96.4219 218.9531 96.4219 C218.25 96.4219 217.6562 96.1562 217.0938 95.7188 L217.0938 90.2031 ZM216.2031 96.9062 L216.1094 99.375 L216.2656 99.4844 L217.1562 99.2656 L217.0156 96.0938 C217.5469 96.8438 218.3594 97.1719 219.1719 97.1719 C220.5625 97.1719 221.8594 96.2188 221.8594 94.4844 C221.8594 92.9531 220.875 92.1094 219.125 92 C220.5625 91.6094 221.1875 90.4531 221.1875 89.4844 C221.1875 88.0938 220.1562 87.3125 218.9062 87.3125 C217.2969 87.3125 216.2188 88.5469 216.2188 90.5156 L216.2031 96.9062 Z" style="fill:black; stroke:none;"
      /><rect x="224" width="6" height="10" y="60" style="stroke:none;"
      /><path d="M227.3438 69.6875 C226.2031 69.6875 225.5312 68.5 225.5312 66.2969 C225.5312 66.2188 225.5312 66.125 225.5312 66.0469 C226.0938 65.5 226.7188 65.3125 227.3438 65.3125 C228.3125 65.3125 228.9531 65.9844 228.9531 67.4531 C228.9531 68.9375 228.3125 69.6875 227.3438 69.6875 ZM229.5312 61.0781 C226.3438 61.4531 224.5625 63.7656 224.5625 66.4531 C224.5625 68.7812 225.6094 70.1719 227.3125 70.1719 C228.8438 70.1719 229.9219 69.1094 229.9219 67.2812 C229.9219 65.6875 228.9688 64.6562 227.5625 64.6562 C226.8281 64.6562 226.1406 64.9844 225.5781 65.5781 C225.7969 63.4062 227.0781 61.9688 229.5938 61.3906 L229.5312 61.0781 Z" style="fill:black; stroke:none;"
      /><rect x="207" width="8" height="8" y="53" style="stroke:none;"
      /><path d="M211.9844 58.7031 C211.9375 59.8906 211.1562 60.6562 210.3125 60.6562 C209.2656 60.6562 208.5 59.6875 208.5 57.7188 C208.5 56.2812 209.1562 55.1562 210.3438 55.1562 C211.1406 55.1562 211.7812 55.6875 212.0938 56.6406 L211.9844 58.7031 ZM213.9062 60.2812 C213.7344 60.375 213.5469 60.4219 213.3438 60.4219 C212.9531 60.4219 212.75 60.2188 212.75 59.4219 C212.75 58.4844 212.9688 56.5312 213.1875 54.8281 L213.0312 54.7188 L212.2344 54.9219 L212.1406 55.7969 C211.7812 55.0312 211.1562 54.6562 210.3906 54.6562 C209.0469 54.6562 207.5625 55.8438 207.5625 57.9531 C207.5625 60.0938 208.7188 61.1719 210.1406 61.1719 C211.0156 61.1719 211.6875 60.8125 212.0938 59.9844 C212.2031 60.8594 212.5156 61.1719 213.0156 61.1719 C213.4688 61.1719 213.7969 60.9062 214.0156 60.5625 L213.9062 60.2812 Z" style="fill:black; stroke:none;"
      /><rect x="265" width="6" height="13" y="68" style="stroke:none;"
      /><path d="M267.0938 74.2031 C267.0938 72.6562 267.75 71.8125 268.7969 71.8125 C269.7188 71.8125 270.2656 72.4531 270.2656 73.5156 C270.2656 74.7188 269.5 75.4375 268.1875 75.7031 L268.2969 76.3125 C270.2188 76.2344 270.9375 77.2188 270.9375 78.4375 C270.9375 79.625 270.2344 80.4219 268.9531 80.4219 C268.25 80.4219 267.6562 80.1562 267.0938 79.7188 L267.0938 74.2031 ZM266.2031 80.9062 L266.1094 83.375 L266.2656 83.4844 L267.1562 83.2656 L267.0156 80.0938 C267.5469 80.8438 268.3594 81.1719 269.1719 81.1719 C270.5625 81.1719 271.8594 80.2188 271.8594 78.4844 C271.8594 76.9531 270.875 76.1094 269.125 76 C270.5625 75.6094 271.1875 74.4531 271.1875 73.4844 C271.1875 72.0938 270.1562 71.3125 268.9062 71.3125 C267.2969 71.3125 266.2188 72.5469 266.2188 74.5156 L266.2031 80.9062 Z" style="fill:black; stroke:none;"
    /></g
  ></g
></svg
>
