<?xml version="1.0"?>
<!DOCTYPE svg PUBLIC '-//W3C//DTD SVG 1.0//EN'
          'http://www.w3.org/TR/2001/REC-SVG-20010904/DTD/svg10.dtd'>
<svg xmlns:xlink="http://www.w3.org/1999/xlink" style="fill-opacity:1; color-rendering:auto; color-interpolation:auto; text-rendering:auto; stroke:black; stroke-linecap:square; stroke-miterlimit:10; shape-rendering:auto; stroke-opacity:1; fill:black; stroke-dasharray:none; font-weight:normal; stroke-width:1; font-family:'Dialog'; font-style:normal; stroke-linejoin:miter; font-size:12px; stroke-dashoffset:0; image-rendering:auto;" viewBox="0 0 342 238" xmlns="http://www.w3.org/2000/svg"
><!--Generated by the Batik Graphics2D SVG Generator--><defs id="genericDefs"
  /><g
  ><defs id="defs1"
    ><clipPath clipPathUnits="userSpaceOnUse" id="clipPath1"
      ><path d="M238 108 L260 108 L260 130 L238 130 L238 108 Z"
      /></clipPath
      ><clipPath clipPathUnits="userSpaceOnUse" id="clipPath2"
      ><path d="M208 119 C208 125.0751 203.0751 130 197 130 C190.9249 130 186 125.0751 186 119 C186 112.9249 190.9249 108 197 108 C203.0751 108 208 112.9249 208 119 Z"
      /></clipPath
      ><clipPath clipPathUnits="userSpaceOnUse" id="clipPath3"
      ><path d="M156 171 C156 177.0751 151.0751 182 145 182 C138.9249 182 134 177.0751 134 171 C134 164.9249 138.9249 160 145 160 C151.0751 160 156 164.9249 156 171 Z"
      /></clipPath
      ><clipPath clipPathUnits="userSpaceOnUse" id="clipPath4"
      ><path d="M104 197 C104 203.0751 99.0751 208 93 208 C86.9249 208 82 203.0751 82 197 C82 190.9249 86.9249 186 93 186 C99.0751 186 104 190.9249 104 197 Z"
      /></clipPath
      ><clipPath clipPathUnits="userSpaceOnUse" id="clipPath5"
      ><path d="M52 197 C52 203.0751 47.0751 208 41 208 C34.9249 208 30 203.0751 30 197 C30 190.9249 34.9249 186 41 186 C47.0751 186 52 190.9249 52 197 Z"
      /></clipPath
      ><clipPath clipPathUnits="userSpaceOnUse" id="clipPath6"
      ><path d="M104 145 C104 151.0751 99.0751 156 93 156 C86.9249 156 82 151.0751 82 145 C82 138.9249 86.9249 134 93 134 C99.0751 134 104 138.9249 104 145 Z"
      /></clipPath
      ><clipPath clipPathUnits="userSpaceOnUse" id="clipPath7"
      ><path d="M52 145 C52 151.0751 47.0751 156 41 156 C34.9249 156 30 151.0751 30 145 C30 138.9249 34.9249 134 41 134 C47.0751 134 52 138.9249 52 145 Z"
      /></clipPath
      ><clipPath clipPathUnits="userSpaceOnUse" id="clipPath8"
      ><path d="M156 67 C156 73.0751 151.0751 78 145 78 C138.9249 78 134 73.0751 134 67 C134 60.9249 138.9249 56 145 56 C151.0751 56 156 60.9249 156 67 Z"
      /></clipPath
      ><clipPath clipPathUnits="userSpaceOnUse" id="clipPath9"
      ><path d="M104 93 C104 99.0751 99.0751 104 93 104 C86.9249 104 82 99.0751 82 93 C82 86.9249 86.9249 82 93 82 C99.0751 82 104 86.9249 104 93 Z"
      /></clipPath
      ><clipPath clipPathUnits="userSpaceOnUse" id="clipPath10"
      ><path d="M52 93 C52 99.0751 47.0751 104 41 104 C34.9249 104 30 99.0751 30 93 C30 86.9249 34.9249 82 41 82 C47.0751 82 52 86.9249 52 93 Z"
      /></clipPath
      ><clipPath clipPathUnits="userSpaceOnUse" id="clipPath11"
      ><path d="M104 41 C104 47.0751 99.0751 52 93 52 C86.9249 52 82 47.0751 82 41 C82 34.9249 86.9249 30 93 30 C99.0751 30 104 34.9249 104 41 Z"
      /></clipPath
      ><clipPath clipPathUnits="userSpaceOnUse" id="clipPath12"
      ><path d="M52 41 C52 47.0751 47.0751 52 41 52 C34.9249 52 30 47.0751 30 41 C30 34.9249 34.9249 30 41 30 C47.0751 30 52 34.9249 52 41 Z"
      /></clipPath
    ></defs
    ><g style="fill:white; text-rendering:optimizeSpeed; stroke:white;"
    ><rect x="0" width="342" height="238" y="0" style="stroke:none;"
      /><polygon style="fill:none; stroke:black;" points=" 301 119 249 119"
      /><path d="M301 108 C295.5 113.5 306.5 124.5 301 130" style="fill:none; stroke:black;"
      /><polygon style="fill:none; stroke:black;" points=" 249 119 197 119"
      /><rect x="238" y="108" width="22" style="clip-path:url(#clipPath1); stroke:none;" height="22"
      /><rect x="238" y="108" width="22" style="clip-path:url(#clipPath1); fill:rgb(0,144,188); stroke:none;" height="22"
      /><rect x="238" y="108" width="22" style="clip-path:url(#clipPath1); fill:none; stroke:black;" height="22"
      /><rect x="238" y="108" width="22" style="fill:none; stroke:black;" height="22"
      /><polygon style="fill:none; stroke:black;" points=" 197 119 145 171"
      /><polygon style="fill:none; stroke:black;" points=" 197 119 145 67"
      /><circle style="clip-path:url(#clipPath2); stroke:none;" r="11" cx="197" cy="119"
      /><rect x="186" y="108" width="22" style="clip-path:url(#clipPath2); fill:rgb(0,166,81); stroke:none;" height="22"
      /><rect x="186" y="108" width="22" style="clip-path:url(#clipPath2); fill:none; stroke:black;" height="22"
      /><circle style="fill:none; stroke:black;" r="11" cx="197" cy="119"
      /><polygon style="fill:none; stroke:black;" points=" 145 171 93 197"
      /><polygon style="fill:none; stroke:black;" points=" 145 171 93 145"
      /><circle style="clip-path:url(#clipPath3); stroke:none;" r="11" cx="145" cy="171"
      /><rect x="134" y="160" width="22" style="clip-path:url(#clipPath3); fill:rgb(0,166,81); stroke:none;" height="22"
      /><rect x="134" y="160" width="22" style="clip-path:url(#clipPath3); fill:none; stroke:black;" height="22"
      /><circle style="fill:none; stroke:black;" r="11" cx="145" cy="171"
      /><polygon style="fill:none; stroke:black;" points=" 93 197 41 197"
      /><circle style="clip-path:url(#clipPath4); stroke:none;" r="11" cx="93" cy="197"
      /><rect x="82" y="186" width="22" style="clip-path:url(#clipPath4); fill:rgb(0,166,81); stroke:none;" height="22"
      /><rect x="82" y="186" width="22" style="clip-path:url(#clipPath4); fill:none; stroke:black;" height="22"
      /><circle style="fill:none; stroke:black;" r="11" cx="93" cy="197"
      /><circle style="clip-path:url(#clipPath5); stroke:none;" r="11" cx="41" cy="197"
      /><rect x="30" y="186" width="22" style="clip-path:url(#clipPath5); fill:rgb(0,166,81); stroke:none;" height="22"
      /><rect x="30" y="186" width="22" style="clip-path:url(#clipPath5); fill:none; stroke:black;" height="22"
      /><circle style="fill:none; stroke:black;" r="11" cx="41" cy="197"
      /><rect x="71" y="200" width="5" style="stroke:none;" height="10"
    /></g
    ><g style="font-family:'Serif'; text-rendering:optimizeSpeed; "
    ><path style="stroke:none;" d="M72.8906 208.6875 C72.4844 208.6875 72.1562 209.0469 72.1562 209.4219 C72.1562 209.8125 72.4844 210.1562 72.8906 210.1562 C73.2969 210.1562 73.6406 209.8125 73.6406 209.4219 C73.6406 209.0469 73.2969 208.6875 72.8906 208.6875 ZM74.4688 202.5781 C74.7188 202.8906 74.875 203.2656 74.8906 203.6562 C74.8906 204.1875 74.625 204.5 74.0312 204.7656 L73.4062 205.0156 C72.6406 205.3125 72.3906 205.5469 72.3906 205.9375 C72.3906 206.1094 72.4531 206.3438 72.5781 206.8125 L72.7344 207.3438 L73.1094 207.3438 L73.0938 206.5312 C73.0938 206.0938 73.2031 205.9688 73.7812 205.7344 L74.2031 205.5625 C75.0312 205.2188 75.4531 204.6875 75.4531 203.8438 C75.4531 202.1562 73.6562 201.1875 72.5 201.0312 C72.1094 201.125 71.9062 201.2969 71.9062 201.6406 C71.9062 201.9375 72.0625 202.1562 72.7188 202.2656 L74.4688 202.5781 Z"
      /><rect x="57" y="200" width="5" style="fill:white; stroke:none;" height="10"
      /><path style="stroke:none;" d="M58.8906 208.6875 C58.4844 208.6875 58.1562 209.0469 58.1562 209.4219 C58.1562 209.8125 58.4844 210.1562 58.8906 210.1562 C59.2969 210.1562 59.6406 209.8125 59.6406 209.4219 C59.6406 209.0469 59.2969 208.6875 58.8906 208.6875 ZM60.4688 202.5781 C60.7188 202.8906 60.875 203.2656 60.8906 203.6562 C60.8906 204.1875 60.625 204.5 60.0312 204.7656 L59.4062 205.0156 C58.6406 205.3125 58.3906 205.5469 58.3906 205.9375 C58.3906 206.1094 58.4531 206.3438 58.5781 206.8125 L58.7344 207.3438 L59.1094 207.3438 L59.0938 206.5312 C59.0938 206.0938 59.2031 205.9688 59.7812 205.7344 L60.2031 205.5625 C61.0312 205.2188 61.4531 204.6875 61.4531 203.8438 C61.4531 202.1562 59.6562 201.1875 58.5 201.0312 C58.1094 201.125 57.9062 201.2969 57.9062 201.6406 C57.9062 201.9375 58.0625 202.1562 58.7188 202.2656 L60.4688 202.5781 Z"
      /><polygon style="fill:none;" points=" 93 145 41 145"
      /><circle style="fill:white; clip-path:url(#clipPath6); stroke:none;" r="11" cx="93" cy="145"
      /><rect x="82" y="134" width="22" style="clip-path:url(#clipPath6); fill:rgb(0,166,81); stroke:none;" height="22"
      /><rect x="82" y="134" width="22" style="fill:none; clip-path:url(#clipPath6);" height="22"
      /><circle r="11" style="fill:none;" cx="93" cy="145"
      /><circle style="fill:white; clip-path:url(#clipPath7); stroke:none;" r="11" cx="41" cy="145"
      /><rect x="30" y="134" width="22" style="clip-path:url(#clipPath7); fill:rgb(0,166,81); stroke:none;" height="22"
      /><rect x="30" y="134" width="22" style="fill:none; clip-path:url(#clipPath7);" height="22"
      /><circle r="11" style="fill:none;" cx="41" cy="145"
      /><rect x="71" y="148" width="5" style="fill:white; stroke:none;" height="10"
      /><path style="stroke:none;" d="M72.8906 156.6875 C72.4844 156.6875 72.1562 157.0469 72.1562 157.4219 C72.1562 157.8125 72.4844 158.1562 72.8906 158.1562 C73.2969 158.1562 73.6406 157.8125 73.6406 157.4219 C73.6406 157.0469 73.2969 156.6875 72.8906 156.6875 ZM74.4688 150.5781 C74.7188 150.8906 74.875 151.2656 74.8906 151.6562 C74.8906 152.1875 74.625 152.5 74.0312 152.7656 L73.4062 153.0156 C72.6406 153.3125 72.3906 153.5469 72.3906 153.9375 C72.3906 154.1094 72.4531 154.3438 72.5781 154.8125 L72.7344 155.3438 L73.1094 155.3438 L73.0938 154.5312 C73.0938 154.0938 73.2031 153.9688 73.7812 153.7344 L74.2031 153.5625 C75.0312 153.2188 75.4531 152.6875 75.4531 151.8438 C75.4531 150.1562 73.6562 149.1875 72.5 149.0312 C72.1094 149.125 71.9062 149.2969 71.9062 149.6406 C71.9062 149.9375 72.0625 150.1562 72.7188 150.2656 L74.4688 150.5781 Z"
      /><rect x="57" y="148" width="5" style="fill:white; stroke:none;" height="10"
      /><path style="stroke:none;" d="M58.8906 156.6875 C58.4844 156.6875 58.1562 157.0469 58.1562 157.4219 C58.1562 157.8125 58.4844 158.1562 58.8906 158.1562 C59.2969 158.1562 59.6406 157.8125 59.6406 157.4219 C59.6406 157.0469 59.2969 156.6875 58.8906 156.6875 ZM60.4688 150.5781 C60.7188 150.8906 60.875 151.2656 60.8906 151.6562 C60.8906 152.1875 60.625 152.5 60.0312 152.7656 L59.4062 153.0156 C58.6406 153.3125 58.3906 153.5469 58.3906 153.9375 C58.3906 154.1094 58.4531 154.3438 58.5781 154.8125 L58.7344 155.3438 L59.1094 155.3438 L59.0938 154.5312 C59.0938 154.0938 59.2031 153.9688 59.7812 153.7344 L60.2031 153.5625 C61.0312 153.2188 61.4531 152.6875 61.4531 151.8438 C61.4531 150.1562 59.6562 149.1875 58.5 149.0312 C58.1094 149.125 57.9062 149.2969 57.9062 149.6406 C57.9062 149.9375 58.0625 150.1562 58.7188 150.2656 L60.4688 150.5781 Z"
      /><rect x="127" y="182" width="5" style="fill:white; stroke:none;" height="10"
      /><path style="stroke:none;" d="M128.8906 190.6875 C128.4844 190.6875 128.1562 191.0469 128.1562 191.4219 C128.1562 191.8125 128.4844 192.1562 128.8906 192.1562 C129.2969 192.1562 129.6406 191.8125 129.6406 191.4219 C129.6406 191.0469 129.2969 190.6875 128.8906 190.6875 ZM130.4688 184.5781 C130.7188 184.8906 130.875 185.2656 130.8906 185.6562 C130.8906 186.1875 130.625 186.5 130.0312 186.7656 L129.4062 187.0156 C128.6406 187.3125 128.3906 187.5469 128.3906 187.9375 C128.3906 188.1094 128.4531 188.3438 128.5781 188.8125 L128.7344 189.3438 L129.1094 189.3438 L129.0938 188.5312 C129.0938 188.0938 129.2031 187.9688 129.7812 187.7344 L130.2031 187.5625 C131.0312 187.2188 131.4531 186.6875 131.4531 185.8438 C131.4531 184.1562 129.6562 183.1875 128.5 183.0312 C128.1094 183.125 127.9062 183.2969 127.9062 183.6406 C127.9062 183.9375 128.0625 184.1562 128.7188 184.2656 L130.4688 184.5781 Z"
      /><rect x="112" y="190" width="5" style="fill:white; stroke:none;" height="10"
      /><path style="stroke:none;" d="M113.8906 198.6875 C113.4844 198.6875 113.1562 199.0469 113.1562 199.4219 C113.1562 199.8125 113.4844 200.1562 113.8906 200.1562 C114.2969 200.1562 114.6406 199.8125 114.6406 199.4219 C114.6406 199.0469 114.2969 198.6875 113.8906 198.6875 ZM115.4688 192.5781 C115.7188 192.8906 115.875 193.2656 115.8906 193.6562 C115.8906 194.1875 115.625 194.5 115.0312 194.7656 L114.4062 195.0156 C113.6406 195.3125 113.3906 195.5469 113.3906 195.9375 C113.3906 196.1094 113.4531 196.3438 113.5781 196.8125 L113.7344 197.3438 L114.1094 197.3438 L114.0938 196.5312 C114.0938 196.0938 114.2031 195.9688 114.7812 195.7344 L115.2031 195.5625 C116.0312 195.2188 116.4531 194.6875 116.4531 193.8438 C116.4531 192.1562 114.6562 191.1875 113.5 191.0312 C113.1094 191.125 112.9062 191.2969 112.9062 191.6406 C112.9062 191.9375 113.0625 192.1562 113.7188 192.2656 L115.4688 192.5781 Z"
      /><rect x="120" y="164" width="5" style="fill:white; stroke:none;" height="10"
      /><path style="stroke:none;" d="M121.8906 172.6875 C121.4844 172.6875 121.1562 173.0469 121.1562 173.4219 C121.1562 173.8125 121.4844 174.1562 121.8906 174.1562 C122.2969 174.1562 122.6406 173.8125 122.6406 173.4219 C122.6406 173.0469 122.2969 172.6875 121.8906 172.6875 ZM123.4688 166.5781 C123.7188 166.8906 123.875 167.2656 123.8906 167.6562 C123.8906 168.1875 123.625 168.5 123.0312 168.7656 L122.4062 169.0156 C121.6406 169.3125 121.3906 169.5469 121.3906 169.9375 C121.3906 170.1094 121.4531 170.3438 121.5781 170.8125 L121.7344 171.3438 L122.1094 171.3438 L122.0938 170.5312 C122.0938 170.0938 122.2031 169.9688 122.7812 169.7344 L123.2031 169.5625 C124.0312 169.2188 124.4531 168.6875 124.4531 167.8438 C124.4531 166.1562 122.6562 165.1875 121.5 165.0312 C121.1094 165.125 120.9062 165.2969 120.9062 165.6406 C120.9062 165.9375 121.0625 166.1562 121.7188 166.2656 L123.4688 166.5781 Z"
      /><rect x="105" y="156" width="5" style="fill:white; stroke:none;" height="10"
      /><path style="stroke:none;" d="M106.8906 164.6875 C106.4844 164.6875 106.1562 165.0469 106.1562 165.4219 C106.1562 165.8125 106.4844 166.1562 106.8906 166.1562 C107.2969 166.1562 107.6406 165.8125 107.6406 165.4219 C107.6406 165.0469 107.2969 164.6875 106.8906 164.6875 ZM108.4688 158.5781 C108.7188 158.8906 108.875 159.2656 108.8906 159.6562 C108.8906 160.1875 108.625 160.5 108.0312 160.7656 L107.4062 161.0156 C106.6406 161.3125 106.3906 161.5469 106.3906 161.9375 C106.3906 162.1094 106.4531 162.3438 106.5781 162.8125 L106.7344 163.3438 L107.1094 163.3438 L107.0938 162.5312 C107.0938 162.0938 107.2031 161.9688 107.7812 161.7344 L108.2031 161.5625 C109.0312 161.2188 109.4531 160.6875 109.4531 159.8438 C109.4531 158.1562 107.6562 157.1875 106.5 157.0312 C106.1094 157.125 105.9062 157.2969 105.9062 157.6406 C105.9062 157.9375 106.0625 158.1562 106.7188 158.2656 L108.4688 158.5781 Z"
      /><polygon style="fill:none;" points=" 145 67 93 93"
      /><polygon style="fill:none;" points=" 145 67 93 41"
      /><circle style="fill:white; clip-path:url(#clipPath8); stroke:none;" r="11" cx="145" cy="67"
      /><rect x="134" y="56" width="22" style="clip-path:url(#clipPath8); fill:rgb(0,166,81); stroke:none;" height="22"
      /><rect x="134" y="56" width="22" style="fill:none; clip-path:url(#clipPath8);" height="22"
      /><circle r="11" style="fill:none;" cx="145" cy="67"
      /><polygon style="fill:none;" points=" 93 93 41 93"
      /><circle style="fill:white; clip-path:url(#clipPath9); stroke:none;" r="11" cx="93" cy="93"
      /><rect x="82" y="82" width="22" style="clip-path:url(#clipPath9); fill:rgb(0,166,81); stroke:none;" height="22"
      /><rect x="82" y="82" width="22" style="fill:none; clip-path:url(#clipPath9);" height="22"
      /><circle r="11" style="fill:none;" cx="93" cy="93"
      /><circle style="fill:white; clip-path:url(#clipPath10); stroke:none;" r="11" cx="41" cy="93"
      /><rect x="30" y="82" width="22" style="clip-path:url(#clipPath10); fill:rgb(0,166,81); stroke:none;" height="22"
      /><rect x="30" y="82" width="22" style="fill:none; clip-path:url(#clipPath10);" height="22"
      /><circle r="11" style="fill:none;" cx="41" cy="93"
      /><rect x="71" y="96" width="5" style="fill:white; stroke:none;" height="10"
      /><path style="stroke:none;" d="M72.8906 104.6875 C72.4844 104.6875 72.1562 105.0469 72.1562 105.4219 C72.1562 105.8125 72.4844 106.1562 72.8906 106.1562 C73.2969 106.1562 73.6406 105.8125 73.6406 105.4219 C73.6406 105.0469 73.2969 104.6875 72.8906 104.6875 ZM74.4688 98.5781 C74.7188 98.8906 74.875 99.2656 74.8906 99.6562 C74.8906 100.1875 74.625 100.5 74.0312 100.7656 L73.4062 101.0156 C72.6406 101.3125 72.3906 101.5469 72.3906 101.9375 C72.3906 102.1094 72.4531 102.3438 72.5781 102.8125 L72.7344 103.3438 L73.1094 103.3438 L73.0938 102.5312 C73.0938 102.0938 73.2031 101.9688 73.7812 101.7344 L74.2031 101.5625 C75.0312 101.2188 75.4531 100.6875 75.4531 99.8438 C75.4531 98.1562 73.6562 97.1875 72.5 97.0312 C72.1094 97.125 71.9062 97.2969 71.9062 97.6406 C71.9062 97.9375 72.0625 98.1562 72.7188 98.2656 L74.4688 98.5781 Z"
      /><rect x="57" y="96" width="5" style="fill:white; stroke:none;" height="10"
      /><path style="stroke:none;" d="M58.8906 104.6875 C58.4844 104.6875 58.1562 105.0469 58.1562 105.4219 C58.1562 105.8125 58.4844 106.1562 58.8906 106.1562 C59.2969 106.1562 59.6406 105.8125 59.6406 105.4219 C59.6406 105.0469 59.2969 104.6875 58.8906 104.6875 ZM60.4688 98.5781 C60.7188 98.8906 60.875 99.2656 60.8906 99.6562 C60.8906 100.1875 60.625 100.5 60.0312 100.7656 L59.4062 101.0156 C58.6406 101.3125 58.3906 101.5469 58.3906 101.9375 C58.3906 102.1094 58.4531 102.3438 58.5781 102.8125 L58.7344 103.3438 L59.1094 103.3438 L59.0938 102.5312 C59.0938 102.0938 59.2031 101.9688 59.7812 101.7344 L60.2031 101.5625 C61.0312 101.2188 61.4531 100.6875 61.4531 99.8438 C61.4531 98.1562 59.6562 97.1875 58.5 97.0312 C58.1094 97.125 57.9062 97.2969 57.9062 97.6406 C57.9062 97.9375 58.0625 98.1562 58.7188 98.2656 L60.4688 98.5781 Z"
      /><polygon style="fill:none;" points=" 93 41 41 41"
      /><circle style="fill:white; clip-path:url(#clipPath11); stroke:none;" r="11" cx="93" cy="41"
      /><rect x="82" y="30" width="22" style="clip-path:url(#clipPath11); fill:rgb(0,166,81); stroke:none;" height="22"
      /><rect x="82" y="30" width="22" style="fill:none; clip-path:url(#clipPath11);" height="22"
      /><circle r="11" style="fill:none;" cx="93" cy="41"
      /><circle style="fill:white; clip-path:url(#clipPath12); stroke:none;" r="11" cx="41" cy="41"
      /><rect x="30" y="30" width="22" style="clip-path:url(#clipPath12); fill:rgb(0,166,81); stroke:none;" height="22"
      /><rect x="30" y="30" width="22" style="fill:none; clip-path:url(#clipPath12);" height="22"
      /><circle r="11" style="fill:none;" cx="41" cy="41"
      /><rect x="71" y="44" width="5" style="fill:white; stroke:none;" height="10"
      /><path style="stroke:none;" d="M72.8906 52.6875 C72.4844 52.6875 72.1562 53.0469 72.1562 53.4219 C72.1562 53.8125 72.4844 54.1562 72.8906 54.1562 C73.2969 54.1562 73.6406 53.8125 73.6406 53.4219 C73.6406 53.0469 73.2969 52.6875 72.8906 52.6875 ZM74.4688 46.5781 C74.7188 46.8906 74.875 47.2656 74.8906 47.6562 C74.8906 48.1875 74.625 48.5 74.0312 48.7656 L73.4062 49.0156 C72.6406 49.3125 72.3906 49.5469 72.3906 49.9375 C72.3906 50.1094 72.4531 50.3438 72.5781 50.8125 L72.7344 51.3438 L73.1094 51.3438 L73.0938 50.5312 C73.0938 50.0938 73.2031 49.9688 73.7812 49.7344 L74.2031 49.5625 C75.0312 49.2188 75.4531 48.6875 75.4531 47.8438 C75.4531 46.1562 73.6562 45.1875 72.5 45.0312 C72.1094 45.125 71.9062 45.2969 71.9062 45.6406 C71.9062 45.9375 72.0625 46.1562 72.7188 46.2656 L74.4688 46.5781 Z"
      /><rect x="57" y="44" width="5" style="fill:white; stroke:none;" height="10"
      /><path style="stroke:none;" d="M58.8906 52.6875 C58.4844 52.6875 58.1562 53.0469 58.1562 53.4219 C58.1562 53.8125 58.4844 54.1562 58.8906 54.1562 C59.2969 54.1562 59.6406 53.8125 59.6406 53.4219 C59.6406 53.0469 59.2969 52.6875 58.8906 52.6875 ZM60.4688 46.5781 C60.7188 46.8906 60.875 47.2656 60.8906 47.6562 C60.8906 48.1875 60.625 48.5 60.0312 48.7656 L59.4062 49.0156 C58.6406 49.3125 58.3906 49.5469 58.3906 49.9375 C58.3906 50.1094 58.4531 50.3438 58.5781 50.8125 L58.7344 51.3438 L59.1094 51.3438 L59.0938 50.5312 C59.0938 50.0938 59.2031 49.9688 59.7812 49.7344 L60.2031 49.5625 C61.0312 49.2188 61.4531 48.6875 61.4531 47.8438 C61.4531 46.1562 59.6562 45.1875 58.5 45.0312 C58.1094 45.125 57.9062 45.2969 57.9062 45.6406 C57.9062 45.9375 58.0625 46.1562 58.7188 46.2656 L60.4688 46.5781 Z"
      /><rect x="127" y="78" width="5" style="fill:white; stroke:none;" height="10"
      /><path style="stroke:none;" d="M128.8906 86.6875 C128.4844 86.6875 128.1562 87.0469 128.1562 87.4219 C128.1562 87.8125 128.4844 88.1562 128.8906 88.1562 C129.2969 88.1562 129.6406 87.8125 129.6406 87.4219 C129.6406 87.0469 129.2969 86.6875 128.8906 86.6875 ZM130.4688 80.5781 C130.7188 80.8906 130.875 81.2656 130.8906 81.6562 C130.8906 82.1875 130.625 82.5 130.0312 82.7656 L129.4062 83.0156 C128.6406 83.3125 128.3906 83.5469 128.3906 83.9375 C128.3906 84.1094 128.4531 84.3438 128.5781 84.8125 L128.7344 85.3438 L129.1094 85.3438 L129.0938 84.5312 C129.0938 84.0938 129.2031 83.9688 129.7812 83.7344 L130.2031 83.5625 C131.0312 83.2188 131.4531 82.6875 131.4531 81.8438 C131.4531 80.1562 129.6562 79.1875 128.5 79.0312 C128.1094 79.125 127.9062 79.2969 127.9062 79.6406 C127.9062 79.9375 128.0625 80.1562 128.7188 80.2656 L130.4688 80.5781 Z"
      /><rect x="112" y="86" width="5" style="fill:white; stroke:none;" height="10"
      /><path style="stroke:none;" d="M113.8906 94.6875 C113.4844 94.6875 113.1562 95.0469 113.1562 95.4219 C113.1562 95.8125 113.4844 96.1562 113.8906 96.1562 C114.2969 96.1562 114.6406 95.8125 114.6406 95.4219 C114.6406 95.0469 114.2969 94.6875 113.8906 94.6875 ZM115.4688 88.5781 C115.7188 88.8906 115.875 89.2656 115.8906 89.6562 C115.8906 90.1875 115.625 90.5 115.0312 90.7656 L114.4062 91.0156 C113.6406 91.3125 113.3906 91.5469 113.3906 91.9375 C113.3906 92.1094 113.4531 92.3438 113.5781 92.8125 L113.7344 93.3438 L114.1094 93.3438 L114.0938 92.5312 C114.0938 92.0938 114.2031 91.9688 114.7812 91.7344 L115.2031 91.5625 C116.0312 91.2188 116.4531 90.6875 116.4531 89.8438 C116.4531 88.1562 114.6562 87.1875 113.5 87.0312 C113.1094 87.125 112.9062 87.2969 112.9062 87.6406 C112.9062 87.9375 113.0625 88.1562 113.7188 88.2656 L115.4688 88.5781 Z"
      /><rect x="120" y="60" width="5" style="fill:white; stroke:none;" height="10"
      /><path style="stroke:none;" d="M121.8906 68.6875 C121.4844 68.6875 121.1562 69.0469 121.1562 69.4219 C121.1562 69.8125 121.4844 70.1562 121.8906 70.1562 C122.2969 70.1562 122.6406 69.8125 122.6406 69.4219 C122.6406 69.0469 122.2969 68.6875 121.8906 68.6875 ZM123.4688 62.5781 C123.7188 62.8906 123.875 63.2656 123.8906 63.6562 C123.8906 64.1875 123.625 64.5 123.0312 64.7656 L122.4062 65.0156 C121.6406 65.3125 121.3906 65.5469 121.3906 65.9375 C121.3906 66.1094 121.4531 66.3438 121.5781 66.8125 L121.7344 67.3438 L122.1094 67.3438 L122.0938 66.5312 C122.0938 66.0938 122.2031 65.9688 122.7812 65.7344 L123.2031 65.5625 C124.0312 65.2188 124.4531 64.6875 124.4531 63.8438 C124.4531 62.1562 122.6562 61.1875 121.5 61.0312 C121.1094 61.125 120.9062 61.2969 120.9062 61.6406 C120.9062 61.9375 121.0625 62.1562 121.7188 62.2656 L123.4688 62.5781 Z"
      /><rect x="105" y="52" width="5" style="fill:white; stroke:none;" height="10"
      /><path style="stroke:none;" d="M106.8906 60.6875 C106.4844 60.6875 106.1562 61.0469 106.1562 61.4219 C106.1562 61.8125 106.4844 62.1562 106.8906 62.1562 C107.2969 62.1562 107.6406 61.8125 107.6406 61.4219 C107.6406 61.0469 107.2969 60.6875 106.8906 60.6875 ZM108.4688 54.5781 C108.7188 54.8906 108.875 55.2656 108.8906 55.6562 C108.8906 56.1875 108.625 56.5 108.0312 56.7656 L107.4062 57.0156 C106.6406 57.3125 106.3906 57.5469 106.3906 57.9375 C106.3906 58.1094 106.4531 58.3438 106.5781 58.8125 L106.7344 59.3438 L107.1094 59.3438 L107.0938 58.5312 C107.0938 58.0938 107.2031 57.9688 107.7812 57.7344 L108.2031 57.5625 C109.0312 57.2188 109.4531 56.6875 109.4531 55.8438 C109.4531 54.1562 107.6562 53.1875 106.5 53.0312 C106.1094 53.125 105.9062 53.2969 105.9062 53.6406 C105.9062 53.9375 106.0625 54.1562 106.7188 54.2656 L108.4688 54.5781 Z"
      /><rect x="183" y="136" width="5" style="fill:white; stroke:none;" height="10"
      /><path style="stroke:none;" d="M184.8906 144.6875 C184.4844 144.6875 184.1562 145.0469 184.1562 145.4219 C184.1562 145.8125 184.4844 146.1562 184.8906 146.1562 C185.2969 146.1562 185.6406 145.8125 185.6406 145.4219 C185.6406 145.0469 185.2969 144.6875 184.8906 144.6875 ZM186.4688 138.5781 C186.7188 138.8906 186.875 139.2656 186.8906 139.6562 C186.8906 140.1875 186.625 140.5 186.0312 140.7656 L185.4062 141.0156 C184.6406 141.3125 184.3906 141.5469 184.3906 141.9375 C184.3906 142.1094 184.4531 142.3438 184.5781 142.8125 L184.7344 143.3438 L185.1094 143.3438 L185.0938 142.5312 C185.0938 142.0938 185.2031 141.9688 185.7812 141.7344 L186.2031 141.5625 C187.0312 141.2188 187.4531 140.6875 187.4531 139.8438 C187.4531 138.1562 185.6562 137.1875 184.5 137.0312 C184.1094 137.125 183.9062 137.2969 183.9062 137.6406 C183.9062 137.9375 184.0625 138.1562 184.7188 138.2656 L186.4688 138.5781 Z"
      /><rect x="164" y="155" width="5" style="fill:white; stroke:none;" height="10"
      /><path style="stroke:none;" d="M165.8906 163.6875 C165.4844 163.6875 165.1562 164.0469 165.1562 164.4219 C165.1562 164.8125 165.4844 165.1562 165.8906 165.1562 C166.2969 165.1562 166.6406 164.8125 166.6406 164.4219 C166.6406 164.0469 166.2969 163.6875 165.8906 163.6875 ZM167.4688 157.5781 C167.7188 157.8906 167.875 158.2656 167.8906 158.6562 C167.8906 159.1875 167.625 159.5 167.0312 159.7656 L166.4062 160.0156 C165.6406 160.3125 165.3906 160.5469 165.3906 160.9375 C165.3906 161.1094 165.4531 161.3438 165.5781 161.8125 L165.7344 162.3438 L166.1094 162.3438 L166.0938 161.5312 C166.0938 161.0938 166.2031 160.9688 166.7812 160.7344 L167.2031 160.5625 C168.0312 160.2188 168.4531 159.6875 168.4531 158.8438 C168.4531 157.1562 166.6562 156.1875 165.5 156.0312 C165.1094 156.125 164.9062 156.2969 164.9062 156.6406 C164.9062 156.9375 165.0625 157.1562 165.7188 157.2656 L167.4688 157.5781 Z"
      /><rect x="172" y="103" width="5" style="fill:white; stroke:none;" height="10"
      /><path style="stroke:none;" d="M173.8906 111.6875 C173.4844 111.6875 173.1562 112.0469 173.1562 112.4219 C173.1562 112.8125 173.4844 113.1562 173.8906 113.1562 C174.2969 113.1562 174.6406 112.8125 174.6406 112.4219 C174.6406 112.0469 174.2969 111.6875 173.8906 111.6875 ZM175.4688 105.5781 C175.7188 105.8906 175.875 106.2656 175.8906 106.6562 C175.8906 107.1875 175.625 107.5 175.0312 107.7656 L174.4062 108.0156 C173.6406 108.3125 173.3906 108.5469 173.3906 108.9375 C173.3906 109.1094 173.4531 109.3438 173.5781 109.8125 L173.7344 110.3438 L174.1094 110.3438 L174.0938 109.5312 C174.0938 109.0938 174.2031 108.9688 174.7812 108.7344 L175.2031 108.5625 C176.0312 108.2188 176.4531 107.6875 176.4531 106.8438 C176.4531 105.1562 174.6562 104.1875 173.5 104.0312 C173.1094 104.125 172.9062 104.2969 172.9062 104.6406 C172.9062 104.9375 173.0625 105.1562 173.7188 105.2656 L175.4688 105.5781 Z"
      /><rect x="153" y="84" width="5" style="fill:white; stroke:none;" height="10"
      /><path style="stroke:none;" d="M154.8906 92.6875 C154.4844 92.6875 154.1562 93.0469 154.1562 93.4219 C154.1562 93.8125 154.4844 94.1562 154.8906 94.1562 C155.2969 94.1562 155.6406 93.8125 155.6406 93.4219 C155.6406 93.0469 155.2969 92.6875 154.8906 92.6875 ZM156.4688 86.5781 C156.7188 86.8906 156.875 87.2656 156.8906 87.6562 C156.8906 88.1875 156.625 88.5 156.0312 88.7656 L155.4062 89.0156 C154.6406 89.3125 154.3906 89.5469 154.3906 89.9375 C154.3906 90.1094 154.4531 90.3438 154.5781 90.8125 L154.7344 91.3438 L155.1094 91.3438 L155.0938 90.5312 C155.0938 90.0938 155.2031 89.9688 155.7812 89.7344 L156.2031 89.5625 C157.0312 89.2188 157.4531 88.6875 157.4531 87.8438 C157.4531 86.1562 155.6562 85.1875 154.5 85.0312 C154.1094 85.125 153.9062 85.2969 153.9062 85.6406 C153.9062 85.9375 154.0625 86.1562 154.7188 86.2656 L156.4688 86.5781 Z"
      /><rect x="227" y="122" width="5" style="fill:white; stroke:none;" height="10"
      /><path style="stroke:none;" d="M228.8906 130.6875 C228.4844 130.6875 228.1562 131.0469 228.1562 131.4219 C228.1562 131.8125 228.4844 132.1562 228.8906 132.1562 C229.2969 132.1562 229.6406 131.8125 229.6406 131.4219 C229.6406 131.0469 229.2969 130.6875 228.8906 130.6875 ZM230.4688 124.5781 C230.7188 124.8906 230.875 125.2656 230.8906 125.6562 C230.8906 126.1875 230.625 126.5 230.0312 126.7656 L229.4062 127.0156 C228.6406 127.3125 228.3906 127.5469 228.3906 127.9375 C228.3906 128.1094 228.4531 128.3438 228.5781 128.8125 L228.7344 129.3438 L229.1094 129.3438 L229.0938 128.5312 C229.0938 128.0938 229.2031 127.9688 229.7812 127.7344 L230.2031 127.5625 C231.0312 127.2188 231.4531 126.6875 231.4531 125.8438 C231.4531 124.1562 229.6562 123.1875 228.5 123.0312 C228.1094 123.125 227.9062 123.2969 227.9062 123.6406 C227.9062 123.9375 228.0625 124.1562 228.7188 124.2656 L230.4688 124.5781 Z"
      /><rect x="213" y="122" width="5" style="fill:white; stroke:none;" height="10"
      /><path style="stroke:none;" d="M214.8906 130.6875 C214.4844 130.6875 214.1562 131.0469 214.1562 131.4219 C214.1562 131.8125 214.4844 132.1562 214.8906 132.1562 C215.2969 132.1562 215.6406 131.8125 215.6406 131.4219 C215.6406 131.0469 215.2969 130.6875 214.8906 130.6875 ZM216.4688 124.5781 C216.7188 124.8906 216.875 125.2656 216.8906 125.6562 C216.8906 126.1875 216.625 126.5 216.0312 126.7656 L215.4062 127.0156 C214.6406 127.3125 214.3906 127.5469 214.3906 127.9375 C214.3906 128.1094 214.4531 128.3438 214.5781 128.8125 L214.7344 129.3438 L215.1094 129.3438 L215.0938 128.5312 C215.0938 128.0938 215.2031 127.9688 215.7812 127.7344 L216.2031 127.5625 C217.0312 127.2188 217.4531 126.6875 217.4531 125.8438 C217.4531 124.1562 215.6562 123.1875 214.5 123.0312 C214.1094 123.125 213.9062 123.2969 213.9062 123.6406 C213.9062 123.9375 214.0625 124.1562 214.7188 124.2656 L216.4688 124.5781 Z"
      /><rect x="265" y="122" width="5" style="fill:white; stroke:none;" height="10"
      /><path style="stroke:none;" d="M266.8906 130.6875 C266.4844 130.6875 266.1562 131.0469 266.1562 131.4219 C266.1562 131.8125 266.4844 132.1562 266.8906 132.1562 C267.2969 132.1562 267.6406 131.8125 267.6406 131.4219 C267.6406 131.0469 267.2969 130.6875 266.8906 130.6875 ZM268.4688 124.5781 C268.7188 124.8906 268.875 125.2656 268.8906 125.6562 C268.8906 126.1875 268.625 126.5 268.0312 126.7656 L267.4062 127.0156 C266.6406 127.3125 266.3906 127.5469 266.3906 127.9375 C266.3906 128.1094 266.4531 128.3438 266.5781 128.8125 L266.7344 129.3438 L267.1094 129.3438 L267.0938 128.5312 C267.0938 128.0938 267.2031 127.9688 267.7812 127.7344 L268.2031 127.5625 C269.0312 127.2188 269.4531 126.6875 269.4531 125.8438 C269.4531 124.1562 267.6562 123.1875 266.5 123.0312 C266.1094 123.125 265.9062 123.2969 265.9062 123.6406 C265.9062 123.9375 266.0625 124.1562 266.7188 124.2656 L268.4688 124.5781 Z"
    /></g
  ></g
></svg
>
