<?xml version="1.0"?>
<!DOCTYPE svg PUBLIC '-//W3C//DTD SVG 1.0//EN'
          'http://www.w3.org/TR/2001/REC-SVG-20010904/DTD/svg10.dtd'>
<svg xmlns:xlink="http://www.w3.org/1999/xlink" style="fill-opacity:1; color-rendering:auto; color-interpolation:auto; text-rendering:auto; stroke:black; stroke-linecap:square; stroke-miterlimit:10; shape-rendering:auto; stroke-opacity:1; fill:black; stroke-dasharray:none; font-weight:normal; stroke-width:1; font-family:'Dialog'; font-style:normal; stroke-linejoin:miter; font-size:12px; stroke-dashoffset:0; image-rendering:auto;" viewBox="0 0 342 128" xmlns="http://www.w3.org/2000/svg"
><!--Generated by the Batik Graphics2D SVG Generator--><defs id="genericDefs"
  /><g
  ><defs id="defs1"
    ><clipPath clipPathUnits="userSpaceOnUse" id="clipPath1"
      ><path d="M238 53 L260 53 L260 75 L238 75 L238 53 Z"
      /></clipPath
      ><clipPath clipPathUnits="userSpaceOnUse" id="clipPath2"
      ><path style="fill-rule:evenodd;" d="M197 53 L208 64 L197 75 L186 64 Z"
      /></clipPath
      ><clipPath clipPathUnits="userSpaceOnUse" id="clipPath3"
      ><path d="M134 53 L156 53 L156 75 L134 75 L134 53 Z"
      /></clipPath
      ><clipPath clipPathUnits="userSpaceOnUse" id="clipPath4"
      ><path style="fill-rule:evenodd;" d="M93 53 L104 64 L93 75 L82 64 Z"
      /></clipPath
      ><clipPath clipPathUnits="userSpaceOnUse" id="clipPath5"
      ><path d="M30 53 L52 53 L52 75 L30 75 L30 53 Z"
      /></clipPath
    ></defs
    ><g style="fill:white; text-rendering:optimizeSpeed; stroke:white;"
    ><rect x="0" width="342" height="128" y="0" style="stroke:none;"
      /><polygon style="fill:none; stroke:black;" points=" 301 64 249 64"
      /><path d="M301 53 C295.5 58.5 306.5 69.5 301 75" style="fill:none; stroke:black;"
      /><polygon style="fill:none; stroke:black;" points=" 249 64 197 64"
      /><rect x="238" y="53" width="22" style="clip-path:url(#clipPath1); stroke:none;" height="22"
      /><polygon style="fill:rgb(0,144,188); clip-path:url(#clipPath1); stroke:none;" points=" 238 53 260 53 260 75"
      /><polygon style="fill:none; clip-path:url(#clipPath1); stroke:black;" points=" 238 53 260 53 260 75"
      /><rect x="238" y="53" width="22" style="fill:none; stroke:black;" height="22"
      /><rect x="241" y="81" width="14" style="stroke:none;" height="10"
    /></g
    ><g style="text-rendering:optimizeSpeed; font-size:14px; font-family:'SansSerif';"
    ><path style="stroke:none;" d="M241.6094 92 L248.0625 92 L248.0625 90.8906 L245.2344 90.8906 C244.7031 90.8906 244.0781 90.9531 243.5469 90.9844 C245.9531 88.7031 247.5625 86.625 247.5625 84.5781 C247.5625 82.75 246.4219 81.5469 244.5781 81.5469 C243.2812 81.5469 242.4062 82.1406 241.5625 83.0469 L242.2969 83.7812 C242.8594 83.1094 243.5938 82.5938 244.4375 82.5938 C245.7031 82.5938 246.3125 83.4531 246.3125 84.625 C246.3125 86.3906 244.8438 88.4375 241.6094 91.25 L241.6094 92 ZM253.02 92.1875 C255.1606 92.1875 256.5043 90.8906 256.5043 89.2656 C256.5043 87.75 255.5825 87.0469 254.395 86.5312 L252.9262 85.8906 C252.1293 85.5625 251.2387 85.1875 251.2387 84.1875 C251.2387 83.2656 251.9887 82.6719 253.145 82.6719 C254.0981 82.6719 254.8637 83.0469 255.4887 83.6406 L256.1762 82.8125 C255.4418 82.0625 254.3637 81.5469 253.145 81.5469 C251.2856 81.5469 249.9106 82.6875 249.9106 84.2656 C249.9106 85.7656 251.0512 86.5 252.0043 86.9062 L253.4887 87.5469 C254.4575 87.9844 255.1918 88.3125 255.1918 89.375 C255.1918 90.375 254.3793 91.0469 253.0356 91.0469 C251.9731 91.0469 250.9418 90.5469 250.2075 89.7812 L249.4262 90.6562 C250.3168 91.5938 251.5668 92.1875 253.02 92.1875 Z"
      /><rect x="241" y="35" width="14" style="fill:white; stroke:none;" height="10"
      /><path style="stroke:none;" d="M245.1094 40.5781 C246.3438 40.5781 246.9688 41.4688 246.9688 42.8438 C246.9688 44.25 246.1875 45.1875 245.2188 45.1875 C243.9219 45.1875 243.1562 44.0312 243 41.8906 C243.625 40.9531 244.4531 40.5781 245.1094 40.5781 ZM245.2188 46.1875 C246.8125 46.1875 248.1562 44.8438 248.1562 42.8438 C248.1562 40.7031 247.0469 39.625 245.3125 39.625 C244.5 39.625 243.6094 40.1094 242.9688 40.875 C243.0312 37.6875 244.2188 36.6094 245.625 36.6094 C246.25 36.6094 246.8594 36.9062 247.2656 37.3906 L247.9688 36.5938 C247.4062 35.9844 246.6406 35.5469 245.5781 35.5469 C243.5938 35.5469 241.7812 37.0781 241.7812 41.0938 C241.7812 44.4844 243.2344 46.1875 245.2188 46.1875 ZM253.02 46.1875 C255.1606 46.1875 256.5043 44.8906 256.5043 43.2656 C256.5043 41.75 255.5825 41.0469 254.395 40.5312 L252.9262 39.8906 C252.1293 39.5625 251.2387 39.1875 251.2387 38.1875 C251.2387 37.2656 251.9887 36.6719 253.145 36.6719 C254.0981 36.6719 254.8637 37.0469 255.4887 37.6406 L256.1762 36.8125 C255.4418 36.0625 254.3637 35.5469 253.145 35.5469 C251.2856 35.5469 249.9106 36.6875 249.9106 38.2656 C249.9106 39.7656 251.0512 40.5 252.0043 40.9062 L253.4887 41.5469 C254.4575 41.9844 255.1918 42.3125 255.1918 43.375 C255.1918 44.375 254.3793 45.0469 253.0356 45.0469 C251.9731 45.0469 250.9418 44.5469 250.2075 43.7812 L249.4262 44.6562 C250.3168 45.5938 251.5668 46.1875 253.02 46.1875 Z"
      /><polygon style="fill:none;" points=" 197 64 145 64"
    /></g
    ><g style="fill:white; text-rendering:optimizeSpeed; stroke:white;"
    ><polygon style="stroke:none; clip-path:url(#clipPath2);" points=" 197 53 208 64 197 75 186 64"
      /><rect x="186" y="64" width="22" style="clip-path:url(#clipPath2); fill:rgb(161,122,77); stroke:none;" height="11"
      /><rect x="186" y="64" width="22" style="clip-path:url(#clipPath2); fill:none; stroke:black;" height="11"
      /><polygon style="fill:none; stroke:black;" points=" 197 53 208 64 197 75 186 64"
      /><rect x="189" width="14" height="10" y="81" style="stroke:none;"
    /></g
    ><g style="text-rendering:optimizeSpeed; font-size:14px; font-family:'SansSerif';"
    ><path style="stroke:none;" d="M189.6094 92 L196.0625 92 L196.0625 90.8906 L193.2344 90.8906 C192.7031 90.8906 192.0781 90.9531 191.5469 90.9844 C193.9531 88.7031 195.5625 86.625 195.5625 84.5781 C195.5625 82.75 194.4219 81.5469 192.5781 81.5469 C191.2812 81.5469 190.4062 82.1406 189.5625 83.0469 L190.2969 83.7812 C190.8594 83.1094 191.5938 82.5938 192.4375 82.5938 C193.7031 82.5938 194.3125 83.4531 194.3125 84.625 C194.3125 86.3906 192.8438 88.4375 189.6094 91.25 L189.6094 92 ZM201.02 92.1875 C203.1606 92.1875 204.5043 90.8906 204.5043 89.2656 C204.5043 87.75 203.5825 87.0469 202.395 86.5312 L200.9262 85.8906 C200.1293 85.5625 199.2387 85.1875 199.2387 84.1875 C199.2387 83.2656 199.9887 82.6719 201.145 82.6719 C202.0981 82.6719 202.8637 83.0469 203.4887 83.6406 L204.1762 82.8125 C203.4418 82.0625 202.3637 81.5469 201.145 81.5469 C199.2856 81.5469 197.9106 82.6875 197.9106 84.2656 C197.9106 85.7656 199.0512 86.5 200.0043 86.9062 L201.4887 87.5469 C202.4575 87.9844 203.1918 88.3125 203.1918 89.375 C203.1918 90.375 202.3793 91.0469 201.0356 91.0469 C199.9731 91.0469 198.9418 90.5469 198.2075 89.7812 L197.4262 90.6562 C198.3168 91.5938 199.5668 92.1875 201.02 92.1875 Z"
      /><polygon style="fill:none;" points=" 145 64 93 64"
    /></g
    ><g style="fill:white; text-rendering:optimizeSpeed; stroke:white;"
    ><rect x="134" y="53" width="22" style="clip-path:url(#clipPath3); stroke:none;" height="22"
      /><polygon style="fill:rgb(0,144,188); clip-path:url(#clipPath3); stroke:none;" points=" 134 53 156 53 156 75"
      /><polygon style="fill:none; clip-path:url(#clipPath3); stroke:black;" points=" 134 53 156 53 156 75"
      /><rect x="134" y="53" width="22" style="fill:none; stroke:black;" height="22"
      /><rect x="137" width="15" height="10" y="81" style="stroke:none;"
    /></g
    ><g style="text-rendering:optimizeSpeed; font-size:14px; font-family:'SansSerif';"
    ><path style="stroke:none;" d="M140.7031 92.1875 C142.5156 92.1875 143.9844 91.0938 143.9844 89.25 C143.9844 87.8594 143.0156 86.9375 141.8125 86.6562 L141.8125 86.5938 C142.8906 86.1875 143.6406 85.3594 143.6406 84.125 C143.6406 82.5 142.375 81.5469 140.6562 81.5469 C139.4688 81.5469 138.5469 82.0625 137.7812 82.7812 L138.4688 83.5938 C139.0469 83 139.7656 82.5938 140.5938 82.5938 C141.6562 82.5938 142.3281 83.2344 142.3281 84.2188 C142.3281 85.3281 141.6094 86.1719 139.4844 86.1719 L139.4844 87.1562 C141.8594 87.1562 142.6875 87.9844 142.6875 89.2031 C142.6875 90.3906 141.8125 91.125 140.5938 91.125 C139.4375 91.125 138.6562 90.5781 138.0469 89.9375 L137.4062 90.7812 C138.0781 91.5156 139.0938 92.1875 140.7031 92.1875 ZM149.02 92.1875 C151.1606 92.1875 152.5043 90.8906 152.5043 89.2656 C152.5043 87.75 151.5825 87.0469 150.395 86.5312 L148.9262 85.8906 C148.1293 85.5625 147.2387 85.1875 147.2387 84.1875 C147.2387 83.2656 147.9887 82.6719 149.145 82.6719 C150.0981 82.6719 150.8637 83.0469 151.4887 83.6406 L152.1762 82.8125 C151.4418 82.0625 150.3637 81.5469 149.145 81.5469 C147.2856 81.5469 145.9106 82.6875 145.9106 84.2656 C145.9106 85.7656 147.0512 86.5 148.0043 86.9062 L149.4887 87.5469 C150.4575 87.9844 151.1918 88.3125 151.1918 89.375 C151.1918 90.375 150.3793 91.0469 149.0356 91.0469 C147.9731 91.0469 146.9418 90.5469 146.2075 89.7812 L145.4262 90.6562 C146.3168 91.5938 147.5668 92.1875 149.02 92.1875 Z"
      /><rect x="137" y="35" width="14" style="fill:white; stroke:none;" height="10"
      /><path style="stroke:none;" d="M141.1094 40.5781 C142.3438 40.5781 142.9688 41.4688 142.9688 42.8438 C142.9688 44.25 142.1875 45.1875 141.2188 45.1875 C139.9219 45.1875 139.1562 44.0312 139 41.8906 C139.625 40.9531 140.4531 40.5781 141.1094 40.5781 ZM141.2188 46.1875 C142.8125 46.1875 144.1562 44.8438 144.1562 42.8438 C144.1562 40.7031 143.0469 39.625 141.3125 39.625 C140.5 39.625 139.6094 40.1094 138.9688 40.875 C139.0312 37.6875 140.2188 36.6094 141.625 36.6094 C142.25 36.6094 142.8594 36.9062 143.2656 37.3906 L143.9688 36.5938 C143.4062 35.9844 142.6406 35.5469 141.5781 35.5469 C139.5938 35.5469 137.7812 37.0781 137.7812 41.0938 C137.7812 44.4844 139.2344 46.1875 141.2188 46.1875 ZM149.02 46.1875 C151.1606 46.1875 152.5043 44.8906 152.5043 43.2656 C152.5043 41.75 151.5825 41.0469 150.395 40.5312 L148.9262 39.8906 C148.1293 39.5625 147.2387 39.1875 147.2387 38.1875 C147.2387 37.2656 147.9887 36.6719 149.145 36.6719 C150.0981 36.6719 150.8637 37.0469 151.4887 37.6406 L152.1762 36.8125 C151.4418 36.0625 150.3637 35.5469 149.145 35.5469 C147.2856 35.5469 145.9106 36.6875 145.9106 38.2656 C145.9106 39.7656 147.0512 40.5 148.0043 40.9062 L149.4887 41.5469 C150.4575 41.9844 151.1918 42.3125 151.1918 43.375 C151.1918 44.375 150.3793 45.0469 149.0356 45.0469 C147.9731 45.0469 146.9418 44.5469 146.2075 43.7812 L145.4262 44.6562 C146.3168 45.5938 147.5668 46.1875 149.02 46.1875 Z"
      /><polygon style="fill:none;" points=" 93 64 41 64"
    /></g
    ><g style="fill:white; text-rendering:optimizeSpeed; stroke:white;"
    ><polygon style="stroke:none; clip-path:url(#clipPath4);" points=" 93 53 104 64 93 75 82 64"
      /><rect x="82" y="53" width="22" style="clip-path:url(#clipPath4); fill:rgb(0,144,188); stroke:none;" height="11"
      /><rect x="82" y="53" width="22" style="clip-path:url(#clipPath4); fill:none; stroke:black;" height="11"
      /><polygon style="fill:none; stroke:black;" points=" 93 53 104 64 93 75 82 64"
      /><rect x="30" y="53" width="22" style="clip-path:url(#clipPath5); stroke:none;" height="22"
      /><polygon style="fill:rgb(0,144,188); clip-path:url(#clipPath5); stroke:none;" points=" 30 53 52 53 52 75"
      /><polygon style="fill:none; clip-path:url(#clipPath5); stroke:black;" points=" 30 53 52 53 52 75"
      /><rect x="30" y="53" width="22" style="fill:none; stroke:black;" height="22"
      /><rect x="33" width="14" height="10" y="81" style="stroke:none;"
    /></g
    ><g style="text-rendering:optimizeSpeed; font-size:14px; font-family:'SansSerif';"
    ><path style="stroke:none;" d="M33.6094 92 L40.0625 92 L40.0625 90.8906 L37.2344 90.8906 C36.7031 90.8906 36.0781 90.9531 35.5469 90.9844 C37.9531 88.7031 39.5625 86.625 39.5625 84.5781 C39.5625 82.75 38.4219 81.5469 36.5781 81.5469 C35.2812 81.5469 34.4062 82.1406 33.5625 83.0469 L34.2969 83.7812 C34.8594 83.1094 35.5938 82.5938 36.4375 82.5938 C37.7031 82.5938 38.3125 83.4531 38.3125 84.625 C38.3125 86.3906 36.8438 88.4375 33.6094 91.25 L33.6094 92 ZM45.02 92.1875 C47.1606 92.1875 48.5043 90.8906 48.5043 89.2656 C48.5043 87.75 47.5825 87.0469 46.395 86.5312 L44.9262 85.8906 C44.1293 85.5625 43.2387 85.1875 43.2387 84.1875 C43.2387 83.2656 43.9887 82.6719 45.145 82.6719 C46.0981 82.6719 46.8637 83.0469 47.4887 83.6406 L48.1762 82.8125 C47.4418 82.0625 46.3637 81.5469 45.145 81.5469 C43.2856 81.5469 41.9106 82.6875 41.9106 84.2656 C41.9106 85.7656 43.0512 86.5 44.0043 86.9062 L45.4887 87.5469 C46.4575 87.9844 47.1918 88.3125 47.1918 89.375 C47.1918 90.375 46.3793 91.0469 45.0356 91.0469 C43.9731 91.0469 42.9418 90.5469 42.2075 89.7812 L41.4262 90.6562 C42.3168 91.5938 43.5668 92.1875 45.02 92.1875 Z"
      /><rect x="33" y="35" width="14" style="fill:white; stroke:none;" height="10"
      /><path style="stroke:none;" d="M37.1094 40.5781 C38.3438 40.5781 38.9688 41.4688 38.9688 42.8438 C38.9688 44.25 38.1875 45.1875 37.2188 45.1875 C35.9219 45.1875 35.1562 44.0312 35 41.8906 C35.625 40.9531 36.4531 40.5781 37.1094 40.5781 ZM37.2188 46.1875 C38.8125 46.1875 40.1562 44.8438 40.1562 42.8438 C40.1562 40.7031 39.0469 39.625 37.3125 39.625 C36.5 39.625 35.6094 40.1094 34.9688 40.875 C35.0312 37.6875 36.2188 36.6094 37.625 36.6094 C38.25 36.6094 38.8594 36.9062 39.2656 37.3906 L39.9688 36.5938 C39.4062 35.9844 38.6406 35.5469 37.5781 35.5469 C35.5938 35.5469 33.7812 37.0781 33.7812 41.0938 C33.7812 44.4844 35.2344 46.1875 37.2188 46.1875 ZM45.02 46.1875 C47.1606 46.1875 48.5043 44.8906 48.5043 43.2656 C48.5043 41.75 47.5825 41.0469 46.395 40.5312 L44.9262 39.8906 C44.1293 39.5625 43.2387 39.1875 43.2387 38.1875 C43.2387 37.2656 43.9887 36.6719 45.145 36.6719 C46.0981 36.6719 46.8637 37.0469 47.4887 37.6406 L48.1762 36.8125 C47.4418 36.0625 46.3637 35.5469 45.145 35.5469 C43.2856 35.5469 41.9106 36.6875 41.9106 38.2656 C41.9106 39.7656 43.0512 40.5 44.0043 40.9062 L45.4887 41.5469 C46.4575 41.9844 47.1918 42.3125 47.1918 43.375 C47.1918 44.375 46.3793 45.0469 45.0356 45.0469 C43.9731 45.0469 42.9418 44.5469 42.2075 43.7812 L41.4262 44.6562 C42.3168 45.5938 43.5668 46.1875 45.02 46.1875 Z"
    /></g
    ><g style="fill:white; text-rendering:optimizeSpeed; font-family:'Serif'; stroke:white;"
    ><rect x="70" width="7" height="9" y="67" style="stroke:none;"
      /><path d="M71 72.5156 L73.9531 68.2656 L73.9531 72.5156 L71 72.5156 ZM76.2812 72.5156 L74.8594 72.5156 L74.8594 67.125 L74.2344 67.125 L70.3438 72.6406 L70.3438 73.1875 L73.9531 73.1875 L73.9531 76 L74.8594 76 L74.8594 73.1875 L76.2812 73.1875 L76.2812 72.5156 Z" style="fill:black; stroke:none;"
      /><rect x="56" width="8" height="8" y="68" style="stroke:none;"
      /><path d="M60.9844 73.7031 C60.9375 74.8906 60.1562 75.6562 59.3125 75.6562 C58.2656 75.6562 57.5 74.6875 57.5 72.7188 C57.5 71.2812 58.1562 70.1562 59.3438 70.1562 C60.1406 70.1562 60.7812 70.6875 61.0938 71.6406 L60.9844 73.7031 ZM62.9062 75.2812 C62.7344 75.375 62.5469 75.4219 62.3438 75.4219 C61.9531 75.4219 61.75 75.2188 61.75 74.4219 C61.75 73.4844 61.9688 71.5312 62.1875 69.8281 L62.0312 69.7188 L61.2344 69.9219 L61.1406 70.7969 C60.7812 70.0312 60.1562 69.6562 59.3906 69.6562 C58.0469 69.6562 56.5625 70.8438 56.5625 72.9531 C56.5625 75.0938 57.7188 76.1719 59.1406 76.1719 C60.0156 76.1719 60.6875 75.8125 61.0938 74.9844 C61.2031 75.8594 61.5156 76.1719 62.0156 76.1719 C62.4688 76.1719 62.7969 75.9062 63.0156 75.5625 L62.9062 75.2812 Z" style="fill:black; stroke:none;"
      /><rect x="122" width="7" height="9" y="67" style="stroke:none;"
      /><path d="M123 72.5156 L125.9531 68.2656 L125.9531 72.5156 L123 72.5156 ZM128.2812 72.5156 L126.8594 72.5156 L126.8594 67.125 L126.2344 67.125 L122.3438 72.6406 L122.3438 73.1875 L125.9531 73.1875 L125.9531 76 L126.8594 76 L126.8594 73.1875 L128.2812 73.1875 L128.2812 72.5156 Z" style="fill:black; stroke:none;"
      /><rect x="109" width="6" height="13" y="65" style="stroke:none;"
      /><path d="M111.0938 71.2031 C111.0938 69.6562 111.75 68.8125 112.7969 68.8125 C113.7188 68.8125 114.2656 69.4531 114.2656 70.5156 C114.2656 71.7188 113.5 72.4375 112.1875 72.7031 L112.2969 73.3125 C114.2188 73.2344 114.9375 74.2188 114.9375 75.4375 C114.9375 76.625 114.2344 77.4219 112.9531 77.4219 C112.25 77.4219 111.6562 77.1562 111.0938 76.7188 L111.0938 71.2031 ZM110.2031 77.9062 L110.1094 80.375 L110.2656 80.4844 L111.1562 80.2656 L111.0156 77.0938 C111.5469 77.8438 112.3594 78.1719 113.1719 78.1719 C114.5625 78.1719 115.8594 77.2188 115.8594 75.4844 C115.8594 73.9531 114.875 73.1094 113.125 73 C114.5625 72.6094 115.1875 71.4531 115.1875 70.4844 C115.1875 69.0938 114.1562 68.3125 112.9062 68.3125 C111.2969 68.3125 110.2188 69.5469 110.2188 71.5156 L110.2031 77.9062 Z" style="fill:black; stroke:none;"
      /><rect x="174" width="7" height="9" y="67" style="stroke:none;"
      /><path d="M175 72.5156 L177.9531 68.2656 L177.9531 72.5156 L175 72.5156 ZM180.2812 72.5156 L178.8594 72.5156 L178.8594 67.125 L178.2344 67.125 L174.3438 72.6406 L174.3438 73.1875 L177.9531 73.1875 L177.9531 76 L178.8594 76 L178.8594 73.1875 L180.2812 73.1875 L180.2812 72.5156 Z" style="fill:black; stroke:none;"
      /><rect x="161" width="6" height="13" y="65" style="stroke:none;"
      /><path d="M163.0938 71.2031 C163.0938 69.6562 163.75 68.8125 164.7969 68.8125 C165.7188 68.8125 166.2656 69.4531 166.2656 70.5156 C166.2656 71.7188 165.5 72.4375 164.1875 72.7031 L164.2969 73.3125 C166.2188 73.2344 166.9375 74.2188 166.9375 75.4375 C166.9375 76.625 166.2344 77.4219 164.9531 77.4219 C164.25 77.4219 163.6562 77.1562 163.0938 76.7188 L163.0938 71.2031 ZM162.2031 77.9062 L162.1094 80.375 L162.2656 80.4844 L163.1562 80.2656 L163.0156 77.0938 C163.5469 77.8438 164.3594 78.1719 165.1719 78.1719 C166.5625 78.1719 167.8594 77.2188 167.8594 75.4844 C167.8594 73.9531 166.875 73.1094 165.125 73 C166.5625 72.6094 167.1875 71.4531 167.1875 70.4844 C167.1875 69.0938 166.1562 68.3125 164.9062 68.3125 C163.2969 68.3125 162.2188 69.5469 162.2188 71.5156 L162.2031 77.9062 Z" style="fill:black; stroke:none;"
      /><rect x="226" width="7" height="9" y="67" style="stroke:none;"
      /><path d="M227 72.5156 L229.9531 68.2656 L229.9531 72.5156 L227 72.5156 ZM232.2812 72.5156 L230.8594 72.5156 L230.8594 67.125 L230.2344 67.125 L226.3438 72.6406 L226.3438 73.1875 L229.9531 73.1875 L229.9531 76 L230.8594 76 L230.8594 73.1875 L232.2812 73.1875 L232.2812 72.5156 Z" style="fill:black; stroke:none;"
      /><rect x="212" width="8" height="8" y="68" style="stroke:none;"
      /><path d="M216.9844 73.7031 C216.9375 74.8906 216.1562 75.6562 215.3125 75.6562 C214.2656 75.6562 213.5 74.6875 213.5 72.7188 C213.5 71.2812 214.1562 70.1562 215.3438 70.1562 C216.1406 70.1562 216.7812 70.6875 217.0938 71.6406 L216.9844 73.7031 ZM218.9062 75.2812 C218.7344 75.375 218.5469 75.4219 218.3438 75.4219 C217.9531 75.4219 217.75 75.2188 217.75 74.4219 C217.75 73.4844 217.9688 71.5312 218.1875 69.8281 L218.0312 69.7188 L217.2344 69.9219 L217.1406 70.7969 C216.7812 70.0312 216.1562 69.6562 215.3906 69.6562 C214.0469 69.6562 212.5625 70.8438 212.5625 72.9531 C212.5625 75.0938 213.7188 76.1719 215.1406 76.1719 C216.0156 76.1719 216.6875 75.8125 217.0938 74.9844 C217.2031 75.8594 217.5156 76.1719 218.0156 76.1719 C218.4688 76.1719 218.7969 75.9062 219.0156 75.5625 L218.9062 75.2812 Z" style="fill:black; stroke:none;"
      /><rect x="264" width="8" height="8" y="68" style="stroke:none;"
      /><path d="M268.9844 73.7031 C268.9375 74.8906 268.1562 75.6562 267.3125 75.6562 C266.2656 75.6562 265.5 74.6875 265.5 72.7188 C265.5 71.2812 266.1562 70.1562 267.3438 70.1562 C268.1406 70.1562 268.7812 70.6875 269.0938 71.6406 L268.9844 73.7031 ZM270.9062 75.2812 C270.7344 75.375 270.5469 75.4219 270.3438 75.4219 C269.9531 75.4219 269.75 75.2188 269.75 74.4219 C269.75 73.4844 269.9688 71.5312 270.1875 69.8281 L270.0312 69.7188 L269.2344 69.9219 L269.1406 70.7969 C268.7812 70.0312 268.1562 69.6562 267.3906 69.6562 C266.0469 69.6562 264.5625 70.8438 264.5625 72.9531 C264.5625 75.0938 265.7188 76.1719 267.1406 76.1719 C268.0156 76.1719 268.6875 75.8125 269.0938 74.9844 C269.2031 75.8594 269.5156 76.1719 270.0156 76.1719 C270.4688 76.1719 270.7969 75.9062 271.0156 75.5625 L270.9062 75.2812 Z" style="fill:black; stroke:none;"
    /></g
  ></g
></svg
>
