<?xml version="1.0"?>
<!DOCTYPE svg PUBLIC '-//W3C//DTD SVG 1.0//EN'
          'http://www.w3.org/TR/2001/REC-SVG-20010904/DTD/svg10.dtd'>
<svg xmlns:xlink="http://www.w3.org/1999/xlink" style="fill-opacity:1; color-rendering:auto; color-interpolation:auto; text-rendering:auto; stroke:black; stroke-linecap:square; stroke-miterlimit:10; shape-rendering:auto; stroke-opacity:1; fill:black; stroke-dasharray:none; font-weight:normal; stroke-width:1; font-family:'Dialog'; font-style:normal; stroke-linejoin:miter; font-size:12px; stroke-dashoffset:0; image-rendering:auto;" viewBox="0 0 212 105" xmlns="http://www.w3.org/2000/svg"
><!--Generated by the Batik Graphics2D SVG Generator--><defs id="genericDefs"
  /><g
  ><defs id="defs1"
    ><clipPath clipPathUnits="userSpaceOnUse" id="clipPath1"
      ><path d="M79 64 C79 70.0751 74.0751 75 68 75 C61.9249 75 57 70.0751 57 64 C57 57.9249 61.9249 53 68 53 C74.0751 53 79 57.9249 79 64 Z"
      /></clipPath
    ></defs
    ><g style="fill:white; text-rendering:optimizeSpeed; stroke:white;"
    ><rect x="0" width="212" height="105" y="0" style="stroke:none;"
      /><circle style="clip-path:url(#clipPath1); stroke:none;" r="11" cx="68" cy="64"
      /><rect x="57" y="53" width="22" style="clip-path:url(#clipPath1); fill:rgb(0,144,188); stroke:none;" height="22"
      /><rect x="57" y="53" width="22" style="clip-path:url(#clipPath1); fill:none; stroke:black;" height="22"
      /><circle style="fill:none; stroke:black;" r="11" cx="68" cy="64"
    /></g
    ><g style="font-style:italic; text-rendering:optimizeSpeed; font-size:10px; font-family:'SansSerif';"
    ><path style="stroke:none;" d="M68 66.125 C69.3281 66.125 70.7344 65.0938 71.125 63.2969 C71.5 61.4844 70.5469 60.4375 69.2188 60.4375 C67.8906 60.4375 66.4688 61.4844 66.0938 63.2969 C65.7031 65.0938 66.6719 66.125 68 66.125 ZM68.1719 65.375 C67.2344 65.375 66.7656 64.5469 67.0312 63.2969 C67.2969 62.0469 68.1094 61.1875 69.0469 61.1875 C69.9844 61.1875 70.4531 62.0469 70.1875 63.2969 C69.9219 64.5469 69.1094 65.375 68.1719 65.375 Z"
    /></g
    ><g style="fill:white; text-rendering:optimizeSpeed; font-size:14px; font-family:'SansSerif'; stroke:white;"
    ><rect x="31" width="73" height="14" y="33" style="stroke:none;"
      /><path d="M31.6094 48 L38.0625 48 L38.0625 46.8906 L35.2344 46.8906 C34.7031 46.8906 34.0781 46.9531 33.5469 46.9844 C35.9531 44.7031 37.5625 42.625 37.5625 40.5781 C37.5625 38.75 36.4219 37.5469 34.5781 37.5469 C33.2812 37.5469 32.4062 38.1406 31.5625 39.0469 L32.2969 39.7812 C32.8594 39.1094 33.5938 38.5938 34.4375 38.5938 C35.7031 38.5938 36.3125 39.4531 36.3125 40.625 C36.3125 42.3906 34.8438 44.4375 31.6094 47.25 L31.6094 48 ZM39.8168 50.6562 C41.0825 50.125 41.8637 49.0781 41.8637 47.7344 C41.8637 46.7969 41.4575 46.2188 40.7856 46.2188 C40.27 46.2188 39.8168 46.5781 39.8168 47.125 C39.8168 47.7031 40.27 48.0156 40.7543 48.0156 C40.8168 48.0156 40.8637 48.0156 40.9106 48 C40.9106 48.8281 40.395 49.5156 39.5043 49.9062 L39.8168 50.6562 ZM46.7713 42.5781 C48.0057 42.5781 48.6307 43.4688 48.6307 44.8438 C48.6307 46.25 47.8495 47.1875 46.8807 47.1875 C45.5838 47.1875 44.8182 46.0312 44.662 43.8906 C45.287 42.9531 46.1151 42.5781 46.7713 42.5781 ZM46.8807 48.1875 C48.4745 48.1875 49.8182 46.8438 49.8182 44.8438 C49.8182 42.7031 48.7088 41.625 46.9745 41.625 C46.162 41.625 45.2713 42.1094 44.6307 42.875 C44.6932 39.6875 45.8807 38.6094 47.287 38.6094 C47.912 38.6094 48.5213 38.9062 48.9276 39.3906 L49.6307 38.5938 C49.0682 37.9844 48.3026 37.5469 47.2401 37.5469 C45.2557 37.5469 43.4432 39.0781 43.4432 43.0938 C43.4432 46.4844 44.8963 48.1875 46.8807 48.1875 ZM53.6038 42.2656 C53.9788 41.0938 54.3069 39.9844 54.6351 38.7812 L54.6819 38.7812 C55.0257 39.9844 55.3382 41.0938 55.7288 42.2656 L56.2132 43.8281 L53.1038 43.8281 L53.6038 42.2656 ZM50.4788 48 L51.7913 48 L52.7913 44.8594 L56.5413 44.8594 L57.5101 48 L58.8851 48 L55.4007 37.7188 L53.9632 37.7188 L50.4788 48 ZM60.2112 48 L61.4924 48 L61.4924 42.4844 C62.258 41.7188 62.7893 41.3281 63.5705 41.3281 C64.5862 41.3281 65.0237 41.9219 65.0237 43.3594 L65.0237 48 L66.2893 48 L66.2893 43.1875 C66.2893 41.2344 65.5705 40.2031 63.9768 40.2031 C62.9299 40.2031 62.1487 40.7812 61.4143 41.4844 L61.383 41.4844 L61.2737 40.3906 L60.2112 40.3906 L60.2112 48 ZM68.7651 48 L70.0464 48 L70.0464 42.4844 C70.812 41.7188 71.3432 41.3281 72.1245 41.3281 C73.1401 41.3281 73.5776 41.9219 73.5776 43.3594 L73.5776 48 L74.8432 48 L74.8432 43.1875 C74.8432 41.2344 74.1245 40.2031 72.5307 40.2031 C71.4839 40.2031 70.7026 40.7812 69.9995 41.4688 L70.0464 39.9062 L70.0464 36.8594 L68.7651 36.8594 L68.7651 48 ZM77.3881 51.2812 C78.9037 51.2812 79.7006 50.125 80.2162 48.625 L83.0912 40.3906 L81.8412 40.3906 L80.4975 44.625 C80.2787 45.2969 80.06 46.0625 79.8412 46.75 L79.7787 46.75 C79.5443 46.0625 79.2787 45.2812 79.0443 44.625 L77.4975 40.3906 L76.1693 40.3906 L79.2162 48.0156 L79.0443 48.5938 C78.7475 49.5312 78.2006 50.2188 77.3256 50.2188 C77.1225 50.2188 76.9037 50.1562 76.7475 50.0938 L76.4975 51.125 C76.7318 51.2188 77.0287 51.2812 77.3881 51.2812 ZM87.1508 48.1875 C88.0571 48.1875 88.8696 47.6875 89.4633 47.1094 L89.5102 47.1094 L89.6196 48 L90.6508 48 L90.6508 36.8594 L89.4008 36.8594 L89.4008 39.7812 L89.4477 41.0938 C88.7758 40.5312 88.1977 40.2031 87.3071 40.2031 C85.5727 40.2031 84.0102 41.7344 84.0102 44.2031 C84.0102 46.7344 85.2446 48.1875 87.1508 48.1875 ZM87.4321 47.125 C86.0883 47.125 85.3383 46.0312 85.3383 44.1875 C85.3383 42.4531 86.3071 41.2812 87.5258 41.2812 C88.1664 41.2812 88.7289 41.5 89.4008 42.0781 L89.4008 46.0625 C88.7446 46.7656 88.1352 47.125 87.4321 47.125 ZM93.237 48 L94.5183 48 L94.5183 43.1094 C95.0183 41.8125 95.7995 41.3594 96.4402 41.3594 C96.737 41.3594 96.9245 41.3906 97.1745 41.4844 L97.4089 40.375 C97.1745 40.25 96.9402 40.2031 96.5964 40.2031 C95.7527 40.2031 94.987 40.8125 94.4402 41.7812 L94.4089 41.7812 L94.2995 40.3906 L93.237 40.3906 L93.237 48 ZM101.6221 48.1875 C103.4971 48.1875 105.1534 46.7188 105.1534 44.2031 C105.1534 41.6719 103.4971 40.2031 101.6221 40.2031 C99.7628 40.2031 98.1065 41.6719 98.1065 44.2031 C98.1065 46.7188 99.7628 48.1875 101.6221 48.1875 ZM101.6221 47.125 C100.3096 47.125 99.4346 45.9531 99.4346 44.2031 C99.4346 42.4531 100.3096 41.2656 101.6221 41.2656 C102.9503 41.2656 103.8409 42.4531 103.8409 44.2031 C103.8409 45.9531 102.9503 47.125 101.6221 47.125 Z" style="fill:black; stroke:none;"
    /></g
  ></g
></svg
>
