<?xml version="1.0"?>
<!DOCTYPE svg PUBLIC '-//W3C//DTD SVG 1.0//EN'
          'http://www.w3.org/TR/2001/REC-SVG-20010904/DTD/svg10.dtd'>
<svg xmlns:xlink="http://www.w3.org/1999/xlink" style="fill-opacity:1; color-rendering:auto; color-interpolation:auto; text-rendering:auto; stroke:black; stroke-linecap:square; stroke-miterlimit:10; shape-rendering:auto; stroke-opacity:1; fill:black; stroke-dasharray:none; font-weight:normal; stroke-width:1; font-family:'Dialog'; font-style:normal; stroke-linejoin:miter; font-size:12px; stroke-dashoffset:0; image-rendering:auto;" viewBox="0 0 262 186" xmlns="http://www.w3.org/2000/svg"
><!--Generated by the Batik Graphics2D SVG Generator--><defs id="genericDefs"
  /><g
  ><defs id="defs1"
    ><clipPath clipPathUnits="userSpaceOnUse" id="clipPath1"
      ><path d="M134 82 L156 82 L156 104 L134 104 L134 82 Z"
      /></clipPath
      ><clipPath clipPathUnits="userSpaceOnUse" id="clipPath2"
      ><path d="M82 134 L104 134 L104 156 L82 156 L82 134 Z"
      /></clipPath
      ><clipPath clipPathUnits="userSpaceOnUse" id="clipPath3"
      ><path d="M82 30 L104 30 L104 52 L82 52 L82 30 Z"
      /></clipPath
      ><clipPath clipPathUnits="userSpaceOnUse" id="clipPath4"
      ><path style="fill-rule:evenodd;" d="M93 82 L104 104 L82 104 Z"
      /></clipPath
      ><clipPath clipPathUnits="userSpaceOnUse" id="clipPath5"
      ><path d="M52 41 C52 47.0751 47.0751 52 41 52 C34.9249 52 30 47.0751 30 41 C30 34.9249 34.9249 30 41 30 C47.0751 30 52 34.9249 52 41 Z"
      /></clipPath
      ><clipPath clipPathUnits="userSpaceOnUse" id="clipPath6"
      ><path style="fill-rule:evenodd;" d="M41 82 L52 104 L30 104 Z"
      /></clipPath
    ></defs
    ><g style="fill:white; text-rendering:optimizeSpeed; stroke:white;"
    ><rect x="0" width="262" height="186" y="0" style="stroke:none;"
      /><polygon style="fill:none; stroke:black;" points=" 145 93 93 145"
      /><polygon style="fill:none; stroke:black;" points=" 145 93 93 41"
      /><rect x="134" y="82" width="22" style="clip-path:url(#clipPath1); stroke:none;" height="22"
      /><rect x="134" y="82" width="22" style="clip-path:url(#clipPath1); fill:rgb(255,212,0); stroke:none;" height="22"
      /><rect x="134" y="82" width="22" style="clip-path:url(#clipPath1); fill:none; stroke:black;" height="22"
      /><rect x="134" y="82" width="22" style="fill:none; stroke:black;" height="22"
    /></g
    ><g style="font-style:italic; text-rendering:optimizeSpeed; font-size:10px; font-family:'SansSerif';"
    ><path style="stroke:none;" d="M145 95.125 C146.3281 95.125 147.7344 94.0938 148.125 92.2969 C148.5 90.4844 147.5469 89.4375 146.2188 89.4375 C144.8906 89.4375 143.4688 90.4844 143.0938 92.2969 C142.7031 94.0938 143.6719 95.125 145 95.125 ZM145.1719 94.375 C144.2344 94.375 143.7656 93.5469 144.0312 92.2969 C144.2969 91.0469 145.1094 90.1875 146.0469 90.1875 C146.9844 90.1875 147.4531 91.0469 147.1875 92.2969 C146.9219 93.5469 146.1094 94.375 145.1719 94.375 Z"
    /></g
    ><g style="fill:white; text-rendering:optimizeSpeed; stroke:white;"
    ><rect x="82" y="134" width="22" style="clip-path:url(#clipPath2); stroke:none;" height="22"
      /><rect x="82" y="134" width="22" style="clip-path:url(#clipPath2); fill:rgb(0,144,188); stroke:none;" height="22"
      /><rect x="82" y="134" width="22" style="clip-path:url(#clipPath2); fill:none; stroke:black;" height="22"
      /><rect x="82" y="134" width="22" style="fill:none; stroke:black;" height="22"
      /><polygon style="fill:none; stroke:black;" points=" 93 41 93 93"
      /><polygon style="fill:none; stroke:black;" points=" 93 41 41 41"
      /><rect x="82" y="30" width="22" style="clip-path:url(#clipPath3); stroke:none;" height="22"
      /><rect x="82" y="30" width="22" style="clip-path:url(#clipPath3); fill:rgb(0,144,188); stroke:none;" height="22"
      /><rect x="82" y="30" width="22" style="clip-path:url(#clipPath3); fill:none; stroke:black;" height="22"
      /><rect x="82" y="30" width="22" style="fill:none; stroke:black;" height="22"
      /><polygon style="clip-path:url(#clipPath4); stroke:none;" points=" 93 82 104 104 82 104"
      /><rect x="82" y="82" width="22" style="clip-path:url(#clipPath4); fill:rgb(237,28,36); stroke:none;" height="22"
      /><rect x="82" y="82" width="22" style="clip-path:url(#clipPath4); fill:none; stroke:black;" height="22"
      /><polygon style="fill:none; stroke:black;" points=" 93 82 104 104 82 104"
      /><polygon style="fill:none; stroke:black;" points=" 41 41 41 93"
      /><circle r="11" style="clip-path:url(#clipPath5); stroke:none;" cx="41" cy="41"
      /><rect x="30" y="30" width="22" style="clip-path:url(#clipPath5); fill:rgb(255,212,0); stroke:none;" height="22"
      /><rect x="30" y="30" width="22" style="clip-path:url(#clipPath5); fill:none; stroke:black;" height="22"
      /><circle r="11" style="fill:none; stroke:black;" cx="41" cy="41"
      /><polygon style="clip-path:url(#clipPath6); stroke:none;" points=" 41 82 52 104 30 104"
      /><rect x="30" y="82" width="22" style="clip-path:url(#clipPath6); fill:rgb(237,28,36); stroke:none;" height="22"
      /><rect x="30" y="82" width="22" style="clip-path:url(#clipPath6); fill:none; stroke:black;" height="22"
      /><polygon style="fill:none; stroke:black;" points=" 41 82 52 104 30 104"
      /><rect x="46" width="6" height="9" y="55" style="stroke:none;"
      /><path d="M47.4219 63.0938 C48.0781 62.375 48.7031 61.7188 49.0312 61.3438 C50.9219 59.3125 51.5312 58.4688 51.5312 57.3594 C51.5312 56.0156 50.7812 55.0781 49.1562 55.0781 C47.9062 55.0781 46.7969 55.7031 46.5938 56.9688 C46.7188 57.2031 46.9062 57.3438 47.1562 57.3438 C47.4688 57.3438 47.6562 57.1094 47.7969 56.5938 L48.0938 55.6719 C48.3906 55.5938 48.6562 55.5625 48.8906 55.5625 C49.9219 55.5625 50.5469 56.3125 50.5469 57.4219 C50.5469 58.4375 49.9844 59.4219 48.7031 60.9062 C48.125 61.5781 47.3906 62.4375 46.6406 63.2812 L46.6406 64 L51.9219 64 L51.9219 63.0938 L47.4219 63.0938 Z" style="fill:black; stroke:none;"
      /><rect x="45" width="8" height="8" y="70" style="stroke:none;"
      /><path d="M49.9844 75.7031 C49.9375 76.8906 49.1562 77.6562 48.3125 77.6562 C47.2656 77.6562 46.5 76.6875 46.5 74.7188 C46.5 73.2812 47.1562 72.1562 48.3438 72.1562 C49.1406 72.1562 49.7812 72.6875 50.0938 73.6406 L49.9844 75.7031 ZM51.9062 77.2812 C51.7344 77.375 51.5469 77.4219 51.3438 77.4219 C50.9531 77.4219 50.75 77.2188 50.75 76.4219 C50.75 75.4844 50.9688 73.5312 51.1875 71.8281 L51.0312 71.7188 L50.2344 71.9219 L50.1406 72.7969 C49.7812 72.0312 49.1562 71.6562 48.3906 71.6562 C47.0469 71.6562 45.5625 72.8438 45.5625 74.9531 C45.5625 77.0938 46.7188 78.1719 48.1406 78.1719 C49.0156 78.1719 49.6875 77.8125 50.0938 76.9844 C50.2031 77.8594 50.5156 78.1719 51.0156 78.1719 C51.4688 78.1719 51.7969 77.9062 52.0156 77.5625 L51.9062 77.2812 Z" style="fill:black; stroke:none;"
      /><rect x="98" width="6" height="10" y="55" style="stroke:none;"
      /><path d="M100.2344 56.6562 C100.5156 56.5938 100.7656 56.5625 101.0156 56.5625 C102.0625 56.5625 102.6719 57.1719 102.6719 58.2656 C102.6719 59.4375 101.9062 60.1094 100.7031 60.1094 L100.1875 60.1094 L100.1875 60.6406 L100.7969 60.6406 C102.2188 60.6406 102.9062 61.4219 102.9062 62.6406 C102.9062 63.8438 102.1719 64.6875 100.875 64.6875 C100.6094 64.6875 100.3125 64.6562 100.0156 64.5625 L99.7812 63.8125 C99.625 63.2812 99.5 63.0469 99.1406 63.0469 C98.8906 63.0469 98.7031 63.1719 98.5781 63.4219 C98.8438 64.6406 99.7812 65.1719 101.0312 65.1719 C102.7188 65.1719 103.875 64.125 103.875 62.7031 C103.875 61.5 103.2031 60.625 101.7969 60.375 C102.9531 60.0156 103.6094 59.2031 103.6094 58.2031 C103.6094 56.9219 102.6719 56.0781 101.1875 56.0781 C100.0469 56.0781 99.0625 56.5938 98.7969 57.6875 C98.9062 58 99.1094 58.1094 99.3594 58.1094 C99.7344 58.1094 99.8906 57.8906 100 57.4062 L100.2344 56.6562 Z" style="fill:black; stroke:none;"
      /><rect x="97" width="8" height="8" y="70" style="stroke:none;"
      /><path d="M101.9844 75.7031 C101.9375 76.8906 101.1562 77.6562 100.3125 77.6562 C99.2656 77.6562 98.5 76.6875 98.5 74.7188 C98.5 73.2812 99.1562 72.1562 100.3438 72.1562 C101.1406 72.1562 101.7812 72.6875 102.0938 73.6406 L101.9844 75.7031 ZM103.9062 77.2812 C103.7344 77.375 103.5469 77.4219 103.3438 77.4219 C102.9531 77.4219 102.75 77.2188 102.75 76.4219 C102.75 75.4844 102.9688 73.5312 103.1875 71.8281 L103.0312 71.7188 L102.2344 71.9219 L102.1406 72.7969 C101.7812 72.0312 101.1562 71.6562 100.3906 71.6562 C99.0469 71.6562 97.5625 72.8438 97.5625 74.9531 C97.5625 77.0938 98.7188 78.1719 100.1406 78.1719 C101.0156 78.1719 101.6875 77.8125 102.0938 76.9844 C102.2031 77.8594 102.5156 78.1719 103.0156 78.1719 C103.4688 78.1719 103.7969 77.9062 104.0156 77.5625 L103.9062 77.2812 Z" style="fill:black; stroke:none;"
      /><rect x="70" width="7" height="9" y="44" style="stroke:none;"
      /><path d="M71 49.5156 L73.9531 45.2656 L73.9531 49.5156 L71 49.5156 ZM76.2812 49.5156 L74.8594 49.5156 L74.8594 44.125 L74.2344 44.125 L70.3438 49.6406 L70.3438 50.1875 L73.9531 50.1875 L73.9531 53 L74.8594 53 L74.8594 50.1875 L76.2812 50.1875 L76.2812 49.5156 Z" style="fill:black; stroke:none;"
      /><rect x="57" width="6" height="13" y="42" style="stroke:none;"
      /><path d="M59.0938 48.2031 C59.0938 46.6562 59.75 45.8125 60.7969 45.8125 C61.7188 45.8125 62.2656 46.4531 62.2656 47.5156 C62.2656 48.7188 61.5 49.4375 60.1875 49.7031 L60.2969 50.3125 C62.2188 50.2344 62.9375 51.2188 62.9375 52.4375 C62.9375 53.625 62.2344 54.4219 60.9531 54.4219 C60.25 54.4219 59.6562 54.1562 59.0938 53.7188 L59.0938 48.2031 ZM58.2031 54.9062 L58.1094 57.375 L58.2656 57.4844 L59.1562 57.2656 L59.0156 54.0938 C59.5469 54.8438 60.3594 55.1719 61.1719 55.1719 C62.5625 55.1719 63.8594 54.2188 63.8594 52.4844 C63.8594 50.9531 62.875 50.1094 61.125 50 C62.5625 49.6094 63.1875 48.4531 63.1875 47.4844 C63.1875 46.0938 62.1562 45.3125 60.9062 45.3125 C59.2969 45.3125 58.2188 46.5469 58.2188 48.5156 L58.2031 54.9062 Z" style="fill:black; stroke:none;"
      /><rect x="131" width="6" height="10" y="110" style="stroke:none;"
      /><path d="M133.2344 111.6562 C133.5156 111.5938 133.7656 111.5625 134.0156 111.5625 C135.0625 111.5625 135.6719 112.1719 135.6719 113.2656 C135.6719 114.4375 134.9062 115.1094 133.7031 115.1094 L133.1875 115.1094 L133.1875 115.6406 L133.7969 115.6406 C135.2188 115.6406 135.9062 116.4219 135.9062 117.6406 C135.9062 118.8438 135.1719 119.6875 133.875 119.6875 C133.6094 119.6875 133.3125 119.6562 133.0156 119.5625 L132.7812 118.8125 C132.625 118.2812 132.5 118.0469 132.1406 118.0469 C131.8906 118.0469 131.7031 118.1719 131.5781 118.4219 C131.8438 119.6406 132.7812 120.1719 134.0312 120.1719 C135.7188 120.1719 136.875 119.125 136.875 117.7031 C136.875 116.5 136.2031 115.625 134.7969 115.375 C135.9531 115.0156 136.6094 114.2031 136.6094 113.2031 C136.6094 111.9219 135.6719 111.0781 134.1875 111.0781 C133.0469 111.0781 132.0625 111.5938 131.7969 112.6875 C131.9062 113 132.1094 113.1094 132.3594 113.1094 C132.7344 113.1094 132.8906 112.8906 133 112.4062 L133.2344 111.6562 Z" style="fill:black; stroke:none;"
      /><rect x="112" width="6" height="13" y="127" style="stroke:none;"
      /><path d="M114.0938 133.2031 C114.0938 131.6562 114.75 130.8125 115.7969 130.8125 C116.7188 130.8125 117.2656 131.4531 117.2656 132.5156 C117.2656 133.7188 116.5 134.4375 115.1875 134.7031 L115.2969 135.3125 C117.2188 135.2344 117.9375 136.2188 117.9375 137.4375 C117.9375 138.625 117.2344 139.4219 115.9531 139.4219 C115.25 139.4219 114.6562 139.1562 114.0938 138.7188 L114.0938 133.2031 ZM113.2031 139.9062 L113.1094 142.375 L113.2656 142.4844 L114.1562 142.2656 L114.0156 139.0938 C114.5469 139.8438 115.3594 140.1719 116.1719 140.1719 C117.5625 140.1719 118.8594 139.2188 118.8594 137.4844 C118.8594 135.9531 117.875 135.1094 116.125 135 C117.5625 134.6094 118.1875 133.4531 118.1875 132.4844 C118.1875 131.0938 117.1562 130.3125 115.9062 130.3125 C114.2969 130.3125 113.2188 131.5469 113.2188 133.5156 L113.2031 139.9062 Z" style="fill:black; stroke:none;"
      /><rect x="119" width="6" height="10" y="77" style="stroke:none;"
      /><path d="M122.3438 86.6875 C121.2031 86.6875 120.5312 85.5 120.5312 83.2969 C120.5312 83.2188 120.5312 83.125 120.5312 83.0469 C121.0938 82.5 121.7188 82.3125 122.3438 82.3125 C123.3125 82.3125 123.9531 82.9844 123.9531 84.4531 C123.9531 85.9375 123.3125 86.6875 122.3438 86.6875 ZM124.5312 78.0781 C121.3438 78.4531 119.5625 80.7656 119.5625 83.4531 C119.5625 85.7812 120.6094 87.1719 122.3125 87.1719 C123.8438 87.1719 124.9219 86.1094 124.9219 84.2812 C124.9219 82.6875 123.9688 81.6562 122.5625 81.6562 C121.8281 81.6562 121.1406 81.9844 120.5781 82.5781 C120.7969 80.4062 122.0781 78.9688 124.5938 78.3906 L124.5312 78.0781 Z" style="fill:black; stroke:none;"
      /><rect x="101" width="6" height="13" y="56" style="stroke:none;"
      /><path d="M103.0938 62.2031 C103.0938 60.6562 103.75 59.8125 104.7969 59.8125 C105.7188 59.8125 106.2656 60.4531 106.2656 61.5156 C106.2656 62.7188 105.5 63.4375 104.1875 63.7031 L104.2969 64.3125 C106.2188 64.2344 106.9375 65.2188 106.9375 66.4375 C106.9375 67.625 106.2344 68.4219 104.9531 68.4219 C104.25 68.4219 103.6562 68.1562 103.0938 67.7188 L103.0938 62.2031 ZM102.2031 68.9062 L102.1094 71.375 L102.2656 71.4844 L103.1562 71.2656 L103.0156 68.0938 C103.5469 68.8438 104.3594 69.1719 105.1719 69.1719 C106.5625 69.1719 107.8594 68.2188 107.8594 66.4844 C107.8594 64.9531 106.875 64.1094 105.125 64 C106.5625 63.6094 107.1875 62.4531 107.1875 61.4844 C107.1875 60.0938 106.1562 59.3125 104.9062 59.3125 C103.2969 59.3125 102.2188 60.5469 102.2188 62.5156 L102.2031 68.9062 Z" style="fill:black; stroke:none;"
    /></g
  ></g
></svg
>
