<?xml version="1.0"?>
<!DOCTYPE svg PUBLIC '-//W3C//DTD SVG 1.0//EN'
          'http://www.w3.org/TR/2001/REC-SVG-20010904/DTD/svg10.dtd'>
<svg xmlns:xlink="http://www.w3.org/1999/xlink" style="fill-opacity:1; color-rendering:auto; color-interpolation:auto; text-rendering:auto; stroke:black; stroke-linecap:square; stroke-miterlimit:10; shape-rendering:auto; stroke-opacity:1; fill:black; stroke-dasharray:none; font-weight:normal; stroke-width:1; font-family:'Dialog'; font-style:normal; stroke-linejoin:miter; font-size:12px; stroke-dashoffset:0; image-rendering:auto;" viewBox="0 0 602 238" xmlns="http://www.w3.org/2000/svg"
><!--Generated by the Batik Graphics2D SVG Generator--><defs id="genericDefs"
  /><g
  ><defs id="defs1"
    ><clipPath clipPathUnits="userSpaceOnUse" id="clipPath1"
      ><path d="M498 108 L520 108 L520 130 L498 130 L498 108 Z"
      /></clipPath
      ><clipPath clipPathUnits="userSpaceOnUse" id="clipPath2"
      ><path d="M446 108 L468 108 L468 130 L446 130 L446 108 Z"
      /></clipPath
      ><clipPath clipPathUnits="userSpaceOnUse" id="clipPath3"
      ><path d="M416 119 C416 125.0751 411.0751 130 405 130 C398.9249 130 394 125.0751 394 119 C394 112.9249 398.9249 108 405 108 C411.0751 108 416 112.9249 416 119 Z"
      /></clipPath
      ><clipPath clipPathUnits="userSpaceOnUse" id="clipPath4"
      ><path d="M364 171 C364 177.0751 359.0751 182 353 182 C346.9249 182 342 177.0751 342 171 C342 164.9249 346.9249 160 353 160 C359.0751 160 364 164.9249 364 171 Z"
      /></clipPath
      ><clipPath clipPathUnits="userSpaceOnUse" id="clipPath5"
      ><path d="M290 186 L312 186 L312 208 L290 208 L290 186 Z"
      /></clipPath
      ><clipPath clipPathUnits="userSpaceOnUse" id="clipPath6"
      ><path d="M260 197 C260 203.0751 255.0751 208 249 208 C242.9249 208 238 203.0751 238 197 C238 190.9249 242.9249 186 249 186 C255.0751 186 260 190.9249 260 197 Z"
      /></clipPath
      ><clipPath clipPathUnits="userSpaceOnUse" id="clipPath7"
      ><path d="M186 186 L208 186 L208 208 L186 208 L186 186 Z"
      /></clipPath
      ><clipPath clipPathUnits="userSpaceOnUse" id="clipPath8"
      ><path d="M156 197 C156 203.0751 151.0751 208 145 208 C138.9249 208 134 203.0751 134 197 C134 190.9249 138.9249 186 145 186 C151.0751 186 156 190.9249 156 197 Z"
      /></clipPath
      ><clipPath clipPathUnits="userSpaceOnUse" id="clipPath9"
      ><path style="fill-rule:evenodd;" d="M93 186 L104 197 L93 208 L82 197 Z"
      /></clipPath
      ><clipPath clipPathUnits="userSpaceOnUse" id="clipPath10"
      ><path style="fill-rule:evenodd;" d="M41 186 L52 197 L41 208 L30 197 Z"
      /></clipPath
      ><clipPath clipPathUnits="userSpaceOnUse" id="clipPath11"
      ><path d="M290 134 L312 134 L312 156 L290 156 L290 134 Z"
      /></clipPath
      ><clipPath clipPathUnits="userSpaceOnUse" id="clipPath12"
      ><path d="M260 145 C260 151.0751 255.0751 156 249 156 C242.9249 156 238 151.0751 238 145 C238 138.9249 242.9249 134 249 134 C255.0751 134 260 138.9249 260 145 Z"
      /></clipPath
      ><clipPath clipPathUnits="userSpaceOnUse" id="clipPath13"
      ><path d="M186 134 L208 134 L208 156 L186 156 L186 134 Z"
      /></clipPath
      ><clipPath clipPathUnits="userSpaceOnUse" id="clipPath14"
      ><path d="M156 145 C156 151.0751 151.0751 156 145 156 C138.9249 156 134 151.0751 134 145 C134 138.9249 138.9249 134 145 134 C151.0751 134 156 138.9249 156 145 Z"
      /></clipPath
      ><clipPath clipPathUnits="userSpaceOnUse" id="clipPath15"
      ><path style="fill-rule:evenodd;" d="M93 134 L104 145 L93 156 L82 145 Z"
      /></clipPath
      ><clipPath clipPathUnits="userSpaceOnUse" id="clipPath16"
      ><path style="fill-rule:evenodd;" d="M197 104 L186 82 L208 82 Z"
      /></clipPath
      ><clipPath clipPathUnits="userSpaceOnUse" id="clipPath17"
      ><path d="M364 67 C364 73.0751 359.0751 78 353 78 C346.9249 78 342 73.0751 342 67 C342 60.9249 346.9249 56 353 56 C359.0751 56 364 60.9249 364 67 Z"
      /></clipPath
      ><clipPath clipPathUnits="userSpaceOnUse" id="clipPath18"
      ><path d="M312 93 C312 99.0751 307.0751 104 301 104 C294.9249 104 290 99.0751 290 93 C290 86.9249 294.9249 82 301 82 C307.0751 82 312 86.9249 312 93 Z"
      /></clipPath
      ><clipPath clipPathUnits="userSpaceOnUse" id="clipPath19"
      ><path d="M312 41 C312 47.0751 307.0751 52 301 52 C294.9249 52 290 47.0751 290 41 C290 34.9249 294.9249 30 301 30 C307.0751 30 312 34.9249 312 41 Z"
      /></clipPath
    ></defs
    ><g style="fill:white; text-rendering:optimizeSpeed; stroke:white;"
    ><rect x="0" width="602" height="238" y="0" style="stroke:none;"
      /><polygon style="fill:none; stroke:black;" points=" 561 119 509 119"
      /><path d="M561 108 C555.5 113.5 566.5 124.5 561 130" style="fill:none; stroke:black;"
      /><polygon style="fill:none; stroke:black;" points=" 509 119 457 119"
      /><rect x="498" y="108" width="22" style="clip-path:url(#clipPath1); stroke:none;" height="22"
      /><rect x="498" y="108" width="22" style="clip-path:url(#clipPath1); fill:rgb(0,144,188); stroke:none;" height="22"
      /><rect x="498" y="108" width="22" style="clip-path:url(#clipPath1); fill:none; stroke:black;" height="22"
      /><rect x="498" y="108" width="22" style="fill:none; stroke:black;" height="22"
      /><polygon style="fill:none; stroke:black;" points=" 457 119 405 119"
      /><rect x="446" y="108" width="22" style="clip-path:url(#clipPath2); stroke:none;" height="22"
      /><rect x="446" y="108" width="22" style="clip-path:url(#clipPath2); fill:rgb(0,144,188); stroke:none;" height="22"
      /><rect x="446" y="108" width="22" style="clip-path:url(#clipPath2); fill:none; stroke:black;" height="22"
      /><rect x="446" y="108" width="22" style="fill:none; stroke:black;" height="22"
      /><polygon style="fill:none; stroke:black;" points=" 405 119 353 171"
      /><polygon style="fill:none; stroke:black;" points=" 405 119 353 67"
      /><circle style="clip-path:url(#clipPath3); stroke:none;" r="11" cx="405" cy="119"
      /><rect x="394" y="108" width="22" style="clip-path:url(#clipPath3); fill:rgb(0,166,81); stroke:none;" height="22"
      /><rect x="394" y="108" width="22" style="clip-path:url(#clipPath3); fill:none; stroke:black;" height="22"
      /><circle style="fill:none; stroke:black;" r="11" cx="405" cy="119"
      /><polygon style="fill:none; stroke:black;" points=" 353 171 301 197"
      /><polygon style="fill:none; stroke:black;" points=" 353 171 301 145"
      /><circle style="clip-path:url(#clipPath4); stroke:none;" r="11" cx="353" cy="171"
      /><rect x="342" y="160" width="22" style="clip-path:url(#clipPath4); fill:rgb(0,166,81); stroke:none;" height="22"
      /><rect x="342" y="160" width="22" style="clip-path:url(#clipPath4); fill:none; stroke:black;" height="22"
      /><circle style="fill:none; stroke:black;" r="11" cx="353" cy="171"
      /><polygon style="fill:none; stroke:black;" points=" 301 197 249 197"
      /><rect x="290" y="186" width="22" style="clip-path:url(#clipPath5); stroke:none;" height="22"
      /><rect x="290" y="186" width="22" style="clip-path:url(#clipPath5); fill:rgb(0,144,188); stroke:none;" height="22"
      /><rect x="290" y="186" width="22" style="clip-path:url(#clipPath5); fill:none; stroke:black;" height="22"
      /><rect x="290" y="186" width="22" style="fill:none; stroke:black;" height="22"
      /><polygon style="fill:none; stroke:black;" points=" 249 197 197 197"
      /><circle style="clip-path:url(#clipPath6); stroke:none;" r="11" cx="249" cy="197"
      /><rect x="238" y="186" width="22" style="clip-path:url(#clipPath6); fill:rgb(255,212,0); stroke:none;" height="22"
      /><rect x="238" y="186" width="22" style="clip-path:url(#clipPath6); fill:none; stroke:black;" height="22"
      /><circle style="fill:none; stroke:black;" r="11" cx="249" cy="197"
      /><polygon style="fill:none; stroke:black;" points=" 197 197 145 197"
      /><rect x="186" y="186" width="22" style="clip-path:url(#clipPath7); stroke:none;" height="22"
      /><rect x="186" y="186" width="22" style="clip-path:url(#clipPath7); fill:rgb(0,144,188); stroke:none;" height="22"
      /><rect x="186" y="186" width="22" style="clip-path:url(#clipPath7); fill:none; stroke:black;" height="22"
      /><rect x="186" y="186" width="22" style="fill:none; stroke:black;" height="22"
      /><polygon style="fill:none; stroke:black;" points=" 145 197 93 197"
      /><circle style="clip-path:url(#clipPath8); stroke:none;" r="11" cx="145" cy="197"
      /><rect x="134" y="186" width="22" style="clip-path:url(#clipPath8); fill:rgb(255,212,0); stroke:none;" height="22"
      /><rect x="134" y="186" width="22" style="clip-path:url(#clipPath8); fill:none; stroke:black;" height="22"
      /><circle style="fill:none; stroke:black;" r="11" cx="145" cy="197"
      /><polygon style="fill:none; stroke:black;" points=" 93 197 41 197"
      /><polygon style="clip-path:url(#clipPath9); stroke:none;" points=" 93 186 104 197 93 208 82 197"
      /><rect x="82" y="186" width="22" style="clip-path:url(#clipPath9); fill:rgb(143,204,233); stroke:none;" height="22"
      /><rect x="82" y="186" width="22" style="clip-path:url(#clipPath9); fill:none; stroke:black;" height="22"
      /><polygon style="fill:none; stroke:black;" points=" 93 186 104 197 93 208 82 197"
      /><polygon style="clip-path:url(#clipPath10); stroke:none;" points=" 41 186 52 197 41 208 30 197"
      /><rect x="30" y="186" width="22" style="clip-path:url(#clipPath10); fill:rgb(143,204,233); stroke:none;" height="22"
      /><rect x="30" y="186" width="22" style="clip-path:url(#clipPath10); fill:none; stroke:black;" height="22"
      /><polygon style="fill:none; stroke:black;" points=" 41 186 52 197 41 208 30 197"
      /><rect x="71" y="200" width="5" style="stroke:none;" height="10"
    /></g
    ><g style="font-family:'Serif'; text-rendering:optimizeSpeed; "
    ><path style="stroke:none;" d="M72.8906 208.6875 C72.4844 208.6875 72.1562 209.0469 72.1562 209.4219 C72.1562 209.8125 72.4844 210.1562 72.8906 210.1562 C73.2969 210.1562 73.6406 209.8125 73.6406 209.4219 C73.6406 209.0469 73.2969 208.6875 72.8906 208.6875 ZM74.4688 202.5781 C74.7188 202.8906 74.875 203.2656 74.8906 203.6562 C74.8906 204.1875 74.625 204.5 74.0312 204.7656 L73.4062 205.0156 C72.6406 205.3125 72.3906 205.5469 72.3906 205.9375 C72.3906 206.1094 72.4531 206.3438 72.5781 206.8125 L72.7344 207.3438 L73.1094 207.3438 L73.0938 206.5312 C73.0938 206.0938 73.2031 205.9688 73.7812 205.7344 L74.2031 205.5625 C75.0312 205.2188 75.4531 204.6875 75.4531 203.8438 C75.4531 202.1562 73.6562 201.1875 72.5 201.0312 C72.1094 201.125 71.9062 201.2969 71.9062 201.6406 C71.9062 201.9375 72.0625 202.1562 72.7188 202.2656 L74.4688 202.5781 Z"
      /><rect x="57" y="200" width="5" style="fill:white; stroke:none;" height="10"
      /><path style="stroke:none;" d="M58.8906 208.6875 C58.4844 208.6875 58.1562 209.0469 58.1562 209.4219 C58.1562 209.8125 58.4844 210.1562 58.8906 210.1562 C59.2969 210.1562 59.6406 209.8125 59.6406 209.4219 C59.6406 209.0469 59.2969 208.6875 58.8906 208.6875 ZM60.4688 202.5781 C60.7188 202.8906 60.875 203.2656 60.8906 203.6562 C60.8906 204.1875 60.625 204.5 60.0312 204.7656 L59.4062 205.0156 C58.6406 205.3125 58.3906 205.5469 58.3906 205.9375 C58.3906 206.1094 58.4531 206.3438 58.5781 206.8125 L58.7344 207.3438 L59.1094 207.3438 L59.0938 206.5312 C59.0938 206.0938 59.2031 205.9688 59.7812 205.7344 L60.2031 205.5625 C61.0312 205.2188 61.4531 204.6875 61.4531 203.8438 C61.4531 202.1562 59.6562 201.1875 58.5 201.0312 C58.1094 201.125 57.9062 201.2969 57.9062 201.6406 C57.9062 201.9375 58.0625 202.1562 58.7188 202.2656 L60.4688 202.5781 Z"
      /><rect x="123" y="200" width="5" style="fill:white; stroke:none;" height="10"
      /><path style="stroke:none;" d="M124.8906 208.6875 C124.4844 208.6875 124.1562 209.0469 124.1562 209.4219 C124.1562 209.8125 124.4844 210.1562 124.8906 210.1562 C125.2969 210.1562 125.6406 209.8125 125.6406 209.4219 C125.6406 209.0469 125.2969 208.6875 124.8906 208.6875 ZM126.4688 202.5781 C126.7188 202.8906 126.875 203.2656 126.8906 203.6562 C126.8906 204.1875 126.625 204.5 126.0312 204.7656 L125.4062 205.0156 C124.6406 205.3125 124.3906 205.5469 124.3906 205.9375 C124.3906 206.1094 124.4531 206.3438 124.5781 206.8125 L124.7344 207.3438 L125.1094 207.3438 L125.0938 206.5312 C125.0938 206.0938 125.2031 205.9688 125.7812 205.7344 L126.2031 205.5625 C127.0312 205.2188 127.4531 204.6875 127.4531 203.8438 C127.4531 202.1562 125.6562 201.1875 124.5 201.0312 C124.1094 201.125 123.9062 201.2969 123.9062 201.6406 C123.9062 201.9375 124.0625 202.1562 124.7188 202.2656 L126.4688 202.5781 Z"
      /><rect x="109" y="200" width="5" style="fill:white; stroke:none;" height="10"
      /><path style="stroke:none;" d="M110.8906 208.6875 C110.4844 208.6875 110.1562 209.0469 110.1562 209.4219 C110.1562 209.8125 110.4844 210.1562 110.8906 210.1562 C111.2969 210.1562 111.6406 209.8125 111.6406 209.4219 C111.6406 209.0469 111.2969 208.6875 110.8906 208.6875 ZM112.4688 202.5781 C112.7188 202.8906 112.875 203.2656 112.8906 203.6562 C112.8906 204.1875 112.625 204.5 112.0312 204.7656 L111.4062 205.0156 C110.6406 205.3125 110.3906 205.5469 110.3906 205.9375 C110.3906 206.1094 110.4531 206.3438 110.5781 206.8125 L110.7344 207.3438 L111.1094 207.3438 L111.0938 206.5312 C111.0938 206.0938 111.2031 205.9688 111.7812 205.7344 L112.2031 205.5625 C113.0312 205.2188 113.4531 204.6875 113.4531 203.8438 C113.4531 202.1562 111.6562 201.1875 110.5 201.0312 C110.1094 201.125 109.9062 201.2969 109.9062 201.6406 C109.9062 201.9375 110.0625 202.1562 110.7188 202.2656 L112.4688 202.5781 Z"
      /><rect x="175" y="200" width="5" style="fill:white; stroke:none;" height="10"
      /><path style="stroke:none;" d="M176.8906 208.6875 C176.4844 208.6875 176.1562 209.0469 176.1562 209.4219 C176.1562 209.8125 176.4844 210.1562 176.8906 210.1562 C177.2969 210.1562 177.6406 209.8125 177.6406 209.4219 C177.6406 209.0469 177.2969 208.6875 176.8906 208.6875 ZM178.4688 202.5781 C178.7188 202.8906 178.875 203.2656 178.8906 203.6562 C178.8906 204.1875 178.625 204.5 178.0312 204.7656 L177.4062 205.0156 C176.6406 205.3125 176.3906 205.5469 176.3906 205.9375 C176.3906 206.1094 176.4531 206.3438 176.5781 206.8125 L176.7344 207.3438 L177.1094 207.3438 L177.0938 206.5312 C177.0938 206.0938 177.2031 205.9688 177.7812 205.7344 L178.2031 205.5625 C179.0312 205.2188 179.4531 204.6875 179.4531 203.8438 C179.4531 202.1562 177.6562 201.1875 176.5 201.0312 C176.1094 201.125 175.9062 201.2969 175.9062 201.6406 C175.9062 201.9375 176.0625 202.1562 176.7188 202.2656 L178.4688 202.5781 Z"
      /><rect x="161" y="200" width="5" style="fill:white; stroke:none;" height="10"
      /><path style="stroke:none;" d="M162.8906 208.6875 C162.4844 208.6875 162.1562 209.0469 162.1562 209.4219 C162.1562 209.8125 162.4844 210.1562 162.8906 210.1562 C163.2969 210.1562 163.6406 209.8125 163.6406 209.4219 C163.6406 209.0469 163.2969 208.6875 162.8906 208.6875 ZM164.4688 202.5781 C164.7188 202.8906 164.875 203.2656 164.8906 203.6562 C164.8906 204.1875 164.625 204.5 164.0312 204.7656 L163.4062 205.0156 C162.6406 205.3125 162.3906 205.5469 162.3906 205.9375 C162.3906 206.1094 162.4531 206.3438 162.5781 206.8125 L162.7344 207.3438 L163.1094 207.3438 L163.0938 206.5312 C163.0938 206.0938 163.2031 205.9688 163.7812 205.7344 L164.2031 205.5625 C165.0312 205.2188 165.4531 204.6875 165.4531 203.8438 C165.4531 202.1562 163.6562 201.1875 162.5 201.0312 C162.1094 201.125 161.9062 201.2969 161.9062 201.6406 C161.9062 201.9375 162.0625 202.1562 162.7188 202.2656 L164.4688 202.5781 Z"
      /><rect x="227" y="200" width="5" style="fill:white; stroke:none;" height="10"
      /><path style="stroke:none;" d="M228.8906 208.6875 C228.4844 208.6875 228.1562 209.0469 228.1562 209.4219 C228.1562 209.8125 228.4844 210.1562 228.8906 210.1562 C229.2969 210.1562 229.6406 209.8125 229.6406 209.4219 C229.6406 209.0469 229.2969 208.6875 228.8906 208.6875 ZM230.4688 202.5781 C230.7188 202.8906 230.875 203.2656 230.8906 203.6562 C230.8906 204.1875 230.625 204.5 230.0312 204.7656 L229.4062 205.0156 C228.6406 205.3125 228.3906 205.5469 228.3906 205.9375 C228.3906 206.1094 228.4531 206.3438 228.5781 206.8125 L228.7344 207.3438 L229.1094 207.3438 L229.0938 206.5312 C229.0938 206.0938 229.2031 205.9688 229.7812 205.7344 L230.2031 205.5625 C231.0312 205.2188 231.4531 204.6875 231.4531 203.8438 C231.4531 202.1562 229.6562 201.1875 228.5 201.0312 C228.1094 201.125 227.9062 201.2969 227.9062 201.6406 C227.9062 201.9375 228.0625 202.1562 228.7188 202.2656 L230.4688 202.5781 Z"
      /><rect x="213" y="200" width="5" style="fill:white; stroke:none;" height="10"
      /><path style="stroke:none;" d="M214.8906 208.6875 C214.4844 208.6875 214.1562 209.0469 214.1562 209.4219 C214.1562 209.8125 214.4844 210.1562 214.8906 210.1562 C215.2969 210.1562 215.6406 209.8125 215.6406 209.4219 C215.6406 209.0469 215.2969 208.6875 214.8906 208.6875 ZM216.4688 202.5781 C216.7188 202.8906 216.875 203.2656 216.8906 203.6562 C216.8906 204.1875 216.625 204.5 216.0312 204.7656 L215.4062 205.0156 C214.6406 205.3125 214.3906 205.5469 214.3906 205.9375 C214.3906 206.1094 214.4531 206.3438 214.5781 206.8125 L214.7344 207.3438 L215.1094 207.3438 L215.0938 206.5312 C215.0938 206.0938 215.2031 205.9688 215.7812 205.7344 L216.2031 205.5625 C217.0312 205.2188 217.4531 204.6875 217.4531 203.8438 C217.4531 202.1562 215.6562 201.1875 214.5 201.0312 C214.1094 201.125 213.9062 201.2969 213.9062 201.6406 C213.9062 201.9375 214.0625 202.1562 214.7188 202.2656 L216.4688 202.5781 Z"
      /><rect x="279" y="200" width="5" style="fill:white; stroke:none;" height="10"
      /><path style="stroke:none;" d="M280.8906 208.6875 C280.4844 208.6875 280.1562 209.0469 280.1562 209.4219 C280.1562 209.8125 280.4844 210.1562 280.8906 210.1562 C281.2969 210.1562 281.6406 209.8125 281.6406 209.4219 C281.6406 209.0469 281.2969 208.6875 280.8906 208.6875 ZM282.4688 202.5781 C282.7188 202.8906 282.875 203.2656 282.8906 203.6562 C282.8906 204.1875 282.625 204.5 282.0312 204.7656 L281.4062 205.0156 C280.6406 205.3125 280.3906 205.5469 280.3906 205.9375 C280.3906 206.1094 280.4531 206.3438 280.5781 206.8125 L280.7344 207.3438 L281.1094 207.3438 L281.0938 206.5312 C281.0938 206.0938 281.2031 205.9688 281.7812 205.7344 L282.2031 205.5625 C283.0312 205.2188 283.4531 204.6875 283.4531 203.8438 C283.4531 202.1562 281.6562 201.1875 280.5 201.0312 C280.1094 201.125 279.9062 201.2969 279.9062 201.6406 C279.9062 201.9375 280.0625 202.1562 280.7188 202.2656 L282.4688 202.5781 Z"
      /><rect x="265" y="200" width="5" style="fill:white; stroke:none;" height="10"
      /><path style="stroke:none;" d="M266.8906 208.6875 C266.4844 208.6875 266.1562 209.0469 266.1562 209.4219 C266.1562 209.8125 266.4844 210.1562 266.8906 210.1562 C267.2969 210.1562 267.6406 209.8125 267.6406 209.4219 C267.6406 209.0469 267.2969 208.6875 266.8906 208.6875 ZM268.4688 202.5781 C268.7188 202.8906 268.875 203.2656 268.8906 203.6562 C268.8906 204.1875 268.625 204.5 268.0312 204.7656 L267.4062 205.0156 C266.6406 205.3125 266.3906 205.5469 266.3906 205.9375 C266.3906 206.1094 266.4531 206.3438 266.5781 206.8125 L266.7344 207.3438 L267.1094 207.3438 L267.0938 206.5312 C267.0938 206.0938 267.2031 205.9688 267.7812 205.7344 L268.2031 205.5625 C269.0312 205.2188 269.4531 204.6875 269.4531 203.8438 C269.4531 202.1562 267.6562 201.1875 266.5 201.0312 C266.1094 201.125 265.9062 201.2969 265.9062 201.6406 C265.9062 201.9375 266.0625 202.1562 266.7188 202.2656 L268.4688 202.5781 Z"
      /><polygon style="fill:none;" points=" 301 145 249 145"
      /><rect x="290" y="134" width="22" style="clip-path:url(#clipPath11); fill:white; stroke:none;" height="22"
      /><rect x="290" y="134" width="22" style="clip-path:url(#clipPath11); fill:rgb(0,144,188); stroke:none;" height="22"
      /><rect x="290" y="134" width="22" style="fill:none; clip-path:url(#clipPath11);" height="22"
      /><rect x="290" width="22" height="22" y="134" style="fill:none;"
      /><polygon style="fill:none;" points=" 249 145 197 145"
      /><circle style="fill:white; clip-path:url(#clipPath12); stroke:none;" r="11" cx="249" cy="145"
      /><rect x="238" y="134" width="22" style="clip-path:url(#clipPath12); fill:rgb(255,212,0); stroke:none;" height="22"
      /><rect x="238" y="134" width="22" style="fill:none; clip-path:url(#clipPath12);" height="22"
      /><circle r="11" style="fill:none;" cx="249" cy="145"
      /><polygon style="fill:none;" points=" 197 145 145 145"
      /><polygon style="fill:none;" points=" 197 145 197 93"
      /><rect x="186" y="134" width="22" style="clip-path:url(#clipPath13); fill:white; stroke:none;" height="22"
      /><rect x="186" y="134" width="22" style="clip-path:url(#clipPath13); fill:rgb(0,144,188); stroke:none;" height="22"
      /><rect x="186" y="134" width="22" style="fill:none; clip-path:url(#clipPath13);" height="22"
      /><rect x="186" width="22" height="22" y="134" style="fill:none;"
      /><polygon style="fill:none;" points=" 145 145 93 145"
      /><circle style="fill:white; clip-path:url(#clipPath14); stroke:none;" r="11" cx="145" cy="145"
      /><rect x="134" y="134" width="22" style="clip-path:url(#clipPath14); fill:rgb(255,212,0); stroke:none;" height="22"
      /><rect x="134" y="134" width="22" style="fill:none; clip-path:url(#clipPath14);" height="22"
      /><circle r="11" style="fill:none;" cx="145" cy="145"
      /><polygon style="fill:white; clip-path:url(#clipPath15); stroke:none;" points=" 93 134 104 145 93 156 82 145"
      /><rect x="82" y="134" width="22" style="clip-path:url(#clipPath15); fill:rgb(143,204,233); stroke:none;" height="22"
      /><rect x="82" y="134" width="22" style="fill:none; clip-path:url(#clipPath15);" height="22"
      /><polygon style="fill:none;" points=" 93 134 104 145 93 156 82 145"
      /><rect x="123" y="148" width="5" style="fill:white; stroke:none;" height="10"
      /><path style="stroke:none;" d="M124.8906 156.6875 C124.4844 156.6875 124.1562 157.0469 124.1562 157.4219 C124.1562 157.8125 124.4844 158.1562 124.8906 158.1562 C125.2969 158.1562 125.6406 157.8125 125.6406 157.4219 C125.6406 157.0469 125.2969 156.6875 124.8906 156.6875 ZM126.4688 150.5781 C126.7188 150.8906 126.875 151.2656 126.8906 151.6562 C126.8906 152.1875 126.625 152.5 126.0312 152.7656 L125.4062 153.0156 C124.6406 153.3125 124.3906 153.5469 124.3906 153.9375 C124.3906 154.1094 124.4531 154.3438 124.5781 154.8125 L124.7344 155.3438 L125.1094 155.3438 L125.0938 154.5312 C125.0938 154.0938 125.2031 153.9688 125.7812 153.7344 L126.2031 153.5625 C127.0312 153.2188 127.4531 152.6875 127.4531 151.8438 C127.4531 150.1562 125.6562 149.1875 124.5 149.0312 C124.1094 149.125 123.9062 149.2969 123.9062 149.6406 C123.9062 149.9375 124.0625 150.1562 124.7188 150.2656 L126.4688 150.5781 Z"
      /><rect x="109" y="148" width="5" style="fill:white; stroke:none;" height="10"
      /><path style="stroke:none;" d="M110.8906 156.6875 C110.4844 156.6875 110.1562 157.0469 110.1562 157.4219 C110.1562 157.8125 110.4844 158.1562 110.8906 158.1562 C111.2969 158.1562 111.6406 157.8125 111.6406 157.4219 C111.6406 157.0469 111.2969 156.6875 110.8906 156.6875 ZM112.4688 150.5781 C112.7188 150.8906 112.875 151.2656 112.8906 151.6562 C112.8906 152.1875 112.625 152.5 112.0312 152.7656 L111.4062 153.0156 C110.6406 153.3125 110.3906 153.5469 110.3906 153.9375 C110.3906 154.1094 110.4531 154.3438 110.5781 154.8125 L110.7344 155.3438 L111.1094 155.3438 L111.0938 154.5312 C111.0938 154.0938 111.2031 153.9688 111.7812 153.7344 L112.2031 153.5625 C113.0312 153.2188 113.4531 152.6875 113.4531 151.8438 C113.4531 150.1562 111.6562 149.1875 110.5 149.0312 C110.1094 149.125 109.9062 149.2969 109.9062 149.6406 C109.9062 149.9375 110.0625 150.1562 110.7188 150.2656 L112.4688 150.5781 Z"
      /><polygon style="fill:white; clip-path:url(#clipPath16); stroke:none;" points=" 197 104 186 82 208 82"
      /><rect x="186" y="82" width="22" style="clip-path:url(#clipPath16); fill:rgb(237,28,36); stroke:none;" height="22"
      /><rect x="186" y="82" width="22" style="fill:none; clip-path:url(#clipPath16);" height="22"
      /><polygon style="fill:none;" points=" 197 104 186 82 208 82"
      /><rect x="175" y="148" width="5" style="fill:white; stroke:none;" height="10"
      /><path style="stroke:none;" d="M176.8906 156.6875 C176.4844 156.6875 176.1562 157.0469 176.1562 157.4219 C176.1562 157.8125 176.4844 158.1562 176.8906 158.1562 C177.2969 158.1562 177.6406 157.8125 177.6406 157.4219 C177.6406 157.0469 177.2969 156.6875 176.8906 156.6875 ZM178.4688 150.5781 C178.7188 150.8906 178.875 151.2656 178.8906 151.6562 C178.8906 152.1875 178.625 152.5 178.0312 152.7656 L177.4062 153.0156 C176.6406 153.3125 176.3906 153.5469 176.3906 153.9375 C176.3906 154.1094 176.4531 154.3438 176.5781 154.8125 L176.7344 155.3438 L177.1094 155.3438 L177.0938 154.5312 C177.0938 154.0938 177.2031 153.9688 177.7812 153.7344 L178.2031 153.5625 C179.0312 153.2188 179.4531 152.6875 179.4531 151.8438 C179.4531 150.1562 177.6562 149.1875 176.5 149.0312 C176.1094 149.125 175.9062 149.2969 175.9062 149.6406 C175.9062 149.9375 176.0625 150.1562 176.7188 150.2656 L178.4688 150.5781 Z"
      /><rect x="161" y="148" width="5" style="fill:white; stroke:none;" height="10"
      /><path style="stroke:none;" d="M162.8906 156.6875 C162.4844 156.6875 162.1562 157.0469 162.1562 157.4219 C162.1562 157.8125 162.4844 158.1562 162.8906 158.1562 C163.2969 158.1562 163.6406 157.8125 163.6406 157.4219 C163.6406 157.0469 163.2969 156.6875 162.8906 156.6875 ZM164.4688 150.5781 C164.7188 150.8906 164.875 151.2656 164.8906 151.6562 C164.8906 152.1875 164.625 152.5 164.0312 152.7656 L163.4062 153.0156 C162.6406 153.3125 162.3906 153.5469 162.3906 153.9375 C162.3906 154.1094 162.4531 154.3438 162.5781 154.8125 L162.7344 155.3438 L163.1094 155.3438 L163.0938 154.5312 C163.0938 154.0938 163.2031 153.9688 163.7812 153.7344 L164.2031 153.5625 C165.0312 153.2188 165.4531 152.6875 165.4531 151.8438 C165.4531 150.1562 163.6562 149.1875 162.5 149.0312 C162.1094 149.125 161.9062 149.2969 161.9062 149.6406 C161.9062 149.9375 162.0625 150.1562 162.7188 150.2656 L164.4688 150.5781 Z"
      /><rect x="186" y="121" width="5" style="fill:white; stroke:none;" height="10"
      /><path style="stroke:none;" d="M187.8906 129.6875 C187.4844 129.6875 187.1562 130.0469 187.1562 130.4219 C187.1562 130.8125 187.4844 131.1562 187.8906 131.1562 C188.2969 131.1562 188.6406 130.8125 188.6406 130.4219 C188.6406 130.0469 188.2969 129.6875 187.8906 129.6875 ZM189.4688 123.5781 C189.7188 123.8906 189.875 124.2656 189.8906 124.6562 C189.8906 125.1875 189.625 125.5 189.0312 125.7656 L188.4062 126.0156 C187.6406 126.3125 187.3906 126.5469 187.3906 126.9375 C187.3906 127.1094 187.4531 127.3438 187.5781 127.8125 L187.7344 128.3438 L188.1094 128.3438 L188.0938 127.5312 C188.0938 127.0938 188.2031 126.9688 188.7812 126.7344 L189.2031 126.5625 C190.0312 126.2188 190.4531 125.6875 190.4531 124.8438 C190.4531 123.1562 188.6562 122.1875 187.5 122.0312 C187.1094 122.125 186.9062 122.2969 186.9062 122.6406 C186.9062 122.9375 187.0625 123.1562 187.7188 123.2656 L189.4688 123.5781 Z"
      /><rect x="186" y="107" width="5" style="fill:white; stroke:none;" height="10"
      /><path style="stroke:none;" d="M187.8906 115.6875 C187.4844 115.6875 187.1562 116.0469 187.1562 116.4219 C187.1562 116.8125 187.4844 117.1562 187.8906 117.1562 C188.2969 117.1562 188.6406 116.8125 188.6406 116.4219 C188.6406 116.0469 188.2969 115.6875 187.8906 115.6875 ZM189.4688 109.5781 C189.7188 109.8906 189.875 110.2656 189.8906 110.6562 C189.8906 111.1875 189.625 111.5 189.0312 111.7656 L188.4062 112.0156 C187.6406 112.3125 187.3906 112.5469 187.3906 112.9375 C187.3906 113.1094 187.4531 113.3438 187.5781 113.8125 L187.7344 114.3438 L188.1094 114.3438 L188.0938 113.5312 C188.0938 113.0938 188.2031 112.9688 188.7812 112.7344 L189.2031 112.5625 C190.0312 112.2188 190.4531 111.6875 190.4531 110.8438 C190.4531 109.1562 188.6562 108.1875 187.5 108.0312 C187.1094 108.125 186.9062 108.2969 186.9062 108.6406 C186.9062 108.9375 187.0625 109.1562 187.7188 109.2656 L189.4688 109.5781 Z"
      /><rect x="227" y="148" width="5" style="fill:white; stroke:none;" height="10"
      /><path style="stroke:none;" d="M228.8906 156.6875 C228.4844 156.6875 228.1562 157.0469 228.1562 157.4219 C228.1562 157.8125 228.4844 158.1562 228.8906 158.1562 C229.2969 158.1562 229.6406 157.8125 229.6406 157.4219 C229.6406 157.0469 229.2969 156.6875 228.8906 156.6875 ZM230.4688 150.5781 C230.7188 150.8906 230.875 151.2656 230.8906 151.6562 C230.8906 152.1875 230.625 152.5 230.0312 152.7656 L229.4062 153.0156 C228.6406 153.3125 228.3906 153.5469 228.3906 153.9375 C228.3906 154.1094 228.4531 154.3438 228.5781 154.8125 L228.7344 155.3438 L229.1094 155.3438 L229.0938 154.5312 C229.0938 154.0938 229.2031 153.9688 229.7812 153.7344 L230.2031 153.5625 C231.0312 153.2188 231.4531 152.6875 231.4531 151.8438 C231.4531 150.1562 229.6562 149.1875 228.5 149.0312 C228.1094 149.125 227.9062 149.2969 227.9062 149.6406 C227.9062 149.9375 228.0625 150.1562 228.7188 150.2656 L230.4688 150.5781 Z"
      /><rect x="213" y="148" width="5" style="fill:white; stroke:none;" height="10"
      /><path style="stroke:none;" d="M214.8906 156.6875 C214.4844 156.6875 214.1562 157.0469 214.1562 157.4219 C214.1562 157.8125 214.4844 158.1562 214.8906 158.1562 C215.2969 158.1562 215.6406 157.8125 215.6406 157.4219 C215.6406 157.0469 215.2969 156.6875 214.8906 156.6875 ZM216.4688 150.5781 C216.7188 150.8906 216.875 151.2656 216.8906 151.6562 C216.8906 152.1875 216.625 152.5 216.0312 152.7656 L215.4062 153.0156 C214.6406 153.3125 214.3906 153.5469 214.3906 153.9375 C214.3906 154.1094 214.4531 154.3438 214.5781 154.8125 L214.7344 155.3438 L215.1094 155.3438 L215.0938 154.5312 C215.0938 154.0938 215.2031 153.9688 215.7812 153.7344 L216.2031 153.5625 C217.0312 153.2188 217.4531 152.6875 217.4531 151.8438 C217.4531 150.1562 215.6562 149.1875 214.5 149.0312 C214.1094 149.125 213.9062 149.2969 213.9062 149.6406 C213.9062 149.9375 214.0625 150.1562 214.7188 150.2656 L216.4688 150.5781 Z"
      /><rect x="279" y="148" width="5" style="fill:white; stroke:none;" height="10"
      /><path style="stroke:none;" d="M280.8906 156.6875 C280.4844 156.6875 280.1562 157.0469 280.1562 157.4219 C280.1562 157.8125 280.4844 158.1562 280.8906 158.1562 C281.2969 158.1562 281.6406 157.8125 281.6406 157.4219 C281.6406 157.0469 281.2969 156.6875 280.8906 156.6875 ZM282.4688 150.5781 C282.7188 150.8906 282.875 151.2656 282.8906 151.6562 C282.8906 152.1875 282.625 152.5 282.0312 152.7656 L281.4062 153.0156 C280.6406 153.3125 280.3906 153.5469 280.3906 153.9375 C280.3906 154.1094 280.4531 154.3438 280.5781 154.8125 L280.7344 155.3438 L281.1094 155.3438 L281.0938 154.5312 C281.0938 154.0938 281.2031 153.9688 281.7812 153.7344 L282.2031 153.5625 C283.0312 153.2188 283.4531 152.6875 283.4531 151.8438 C283.4531 150.1562 281.6562 149.1875 280.5 149.0312 C280.1094 149.125 279.9062 149.2969 279.9062 149.6406 C279.9062 149.9375 280.0625 150.1562 280.7188 150.2656 L282.4688 150.5781 Z"
      /><rect x="265" y="148" width="5" style="fill:white; stroke:none;" height="10"
      /><path style="stroke:none;" d="M266.8906 156.6875 C266.4844 156.6875 266.1562 157.0469 266.1562 157.4219 C266.1562 157.8125 266.4844 158.1562 266.8906 158.1562 C267.2969 158.1562 267.6406 157.8125 267.6406 157.4219 C267.6406 157.0469 267.2969 156.6875 266.8906 156.6875 ZM268.4688 150.5781 C268.7188 150.8906 268.875 151.2656 268.8906 151.6562 C268.8906 152.1875 268.625 152.5 268.0312 152.7656 L267.4062 153.0156 C266.6406 153.3125 266.3906 153.5469 266.3906 153.9375 C266.3906 154.1094 266.4531 154.3438 266.5781 154.8125 L266.7344 155.3438 L267.1094 155.3438 L267.0938 154.5312 C267.0938 154.0938 267.2031 153.9688 267.7812 153.7344 L268.2031 153.5625 C269.0312 153.2188 269.4531 152.6875 269.4531 151.8438 C269.4531 150.1562 267.6562 149.1875 266.5 149.0312 C266.1094 149.125 265.9062 149.2969 265.9062 149.6406 C265.9062 149.9375 266.0625 150.1562 266.7188 150.2656 L268.4688 150.5781 Z"
      /><rect x="335" y="182" width="5" style="fill:white; stroke:none;" height="10"
      /><path style="stroke:none;" d="M336.8906 190.6875 C336.4844 190.6875 336.1562 191.0469 336.1562 191.4219 C336.1562 191.8125 336.4844 192.1562 336.8906 192.1562 C337.2969 192.1562 337.6406 191.8125 337.6406 191.4219 C337.6406 191.0469 337.2969 190.6875 336.8906 190.6875 ZM338.4688 184.5781 C338.7188 184.8906 338.875 185.2656 338.8906 185.6562 C338.8906 186.1875 338.625 186.5 338.0312 186.7656 L337.4062 187.0156 C336.6406 187.3125 336.3906 187.5469 336.3906 187.9375 C336.3906 188.1094 336.4531 188.3438 336.5781 188.8125 L336.7344 189.3438 L337.1094 189.3438 L337.0938 188.5312 C337.0938 188.0938 337.2031 187.9688 337.7812 187.7344 L338.2031 187.5625 C339.0312 187.2188 339.4531 186.6875 339.4531 185.8438 C339.4531 184.1562 337.6562 183.1875 336.5 183.0312 C336.1094 183.125 335.9062 183.2969 335.9062 183.6406 C335.9062 183.9375 336.0625 184.1562 336.7188 184.2656 L338.4688 184.5781 Z"
      /><rect x="320" y="190" width="5" style="fill:white; stroke:none;" height="10"
      /><path style="stroke:none;" d="M321.8906 198.6875 C321.4844 198.6875 321.1562 199.0469 321.1562 199.4219 C321.1562 199.8125 321.4844 200.1562 321.8906 200.1562 C322.2969 200.1562 322.6406 199.8125 322.6406 199.4219 C322.6406 199.0469 322.2969 198.6875 321.8906 198.6875 ZM323.4688 192.5781 C323.7188 192.8906 323.875 193.2656 323.8906 193.6562 C323.8906 194.1875 323.625 194.5 323.0312 194.7656 L322.4062 195.0156 C321.6406 195.3125 321.3906 195.5469 321.3906 195.9375 C321.3906 196.1094 321.4531 196.3438 321.5781 196.8125 L321.7344 197.3438 L322.1094 197.3438 L322.0938 196.5312 C322.0938 196.0938 322.2031 195.9688 322.7812 195.7344 L323.2031 195.5625 C324.0312 195.2188 324.4531 194.6875 324.4531 193.8438 C324.4531 192.1562 322.6562 191.1875 321.5 191.0312 C321.1094 191.125 320.9062 191.2969 320.9062 191.6406 C320.9062 191.9375 321.0625 192.1562 321.7188 192.2656 L323.4688 192.5781 Z"
      /><rect x="328" y="164" width="5" style="fill:white; stroke:none;" height="10"
      /><path style="stroke:none;" d="M329.8906 172.6875 C329.4844 172.6875 329.1562 173.0469 329.1562 173.4219 C329.1562 173.8125 329.4844 174.1562 329.8906 174.1562 C330.2969 174.1562 330.6406 173.8125 330.6406 173.4219 C330.6406 173.0469 330.2969 172.6875 329.8906 172.6875 ZM331.4688 166.5781 C331.7188 166.8906 331.875 167.2656 331.8906 167.6562 C331.8906 168.1875 331.625 168.5 331.0312 168.7656 L330.4062 169.0156 C329.6406 169.3125 329.3906 169.5469 329.3906 169.9375 C329.3906 170.1094 329.4531 170.3438 329.5781 170.8125 L329.7344 171.3438 L330.1094 171.3438 L330.0938 170.5312 C330.0938 170.0938 330.2031 169.9688 330.7812 169.7344 L331.2031 169.5625 C332.0312 169.2188 332.4531 168.6875 332.4531 167.8438 C332.4531 166.1562 330.6562 165.1875 329.5 165.0312 C329.1094 165.125 328.9062 165.2969 328.9062 165.6406 C328.9062 165.9375 329.0625 166.1562 329.7188 166.2656 L331.4688 166.5781 Z"
      /><rect x="313" y="156" width="5" style="fill:white; stroke:none;" height="10"
      /><path style="stroke:none;" d="M314.8906 164.6875 C314.4844 164.6875 314.1562 165.0469 314.1562 165.4219 C314.1562 165.8125 314.4844 166.1562 314.8906 166.1562 C315.2969 166.1562 315.6406 165.8125 315.6406 165.4219 C315.6406 165.0469 315.2969 164.6875 314.8906 164.6875 ZM316.4688 158.5781 C316.7188 158.8906 316.875 159.2656 316.8906 159.6562 C316.8906 160.1875 316.625 160.5 316.0312 160.7656 L315.4062 161.0156 C314.6406 161.3125 314.3906 161.5469 314.3906 161.9375 C314.3906 162.1094 314.4531 162.3438 314.5781 162.8125 L314.7344 163.3438 L315.1094 163.3438 L315.0938 162.5312 C315.0938 162.0938 315.2031 161.9688 315.7812 161.7344 L316.2031 161.5625 C317.0312 161.2188 317.4531 160.6875 317.4531 159.8438 C317.4531 158.1562 315.6562 157.1875 314.5 157.0312 C314.1094 157.125 313.9062 157.2969 313.9062 157.6406 C313.9062 157.9375 314.0625 158.1562 314.7188 158.2656 L316.4688 158.5781 Z"
      /><polygon style="fill:none;" points=" 353 67 301 93"
      /><polygon style="fill:none;" points=" 353 67 301 41"
      /><circle style="fill:white; clip-path:url(#clipPath17); stroke:none;" r="11" cx="353" cy="67"
      /><rect x="342" y="56" width="22" style="clip-path:url(#clipPath17); fill:rgb(0,166,81); stroke:none;" height="22"
      /><rect x="342" y="56" width="22" style="fill:none; clip-path:url(#clipPath17);" height="22"
      /><circle r="11" style="fill:none;" cx="353" cy="67"
      /><circle style="fill:white; clip-path:url(#clipPath18); stroke:none;" r="11" cx="301" cy="93"
      /><rect x="290" y="82" width="22" style="clip-path:url(#clipPath18); fill:rgb(0,166,81); stroke:none;" height="22"
      /><rect x="290" y="82" width="22" style="fill:none; clip-path:url(#clipPath18);" height="22"
      /><circle r="11" style="fill:none;" cx="301" cy="93"
      /><circle style="fill:white; clip-path:url(#clipPath19); stroke:none;" r="11" cx="301" cy="41"
      /><rect x="290" y="30" width="22" style="clip-path:url(#clipPath19); fill:rgb(0,166,81); stroke:none;" height="22"
      /><rect x="290" y="30" width="22" style="fill:none; clip-path:url(#clipPath19);" height="22"
      /><circle r="11" style="fill:none;" cx="301" cy="41"
      /><rect x="335" y="78" width="5" style="fill:white; stroke:none;" height="10"
      /><path style="stroke:none;" d="M336.8906 86.6875 C336.4844 86.6875 336.1562 87.0469 336.1562 87.4219 C336.1562 87.8125 336.4844 88.1562 336.8906 88.1562 C337.2969 88.1562 337.6406 87.8125 337.6406 87.4219 C337.6406 87.0469 337.2969 86.6875 336.8906 86.6875 ZM338.4688 80.5781 C338.7188 80.8906 338.875 81.2656 338.8906 81.6562 C338.8906 82.1875 338.625 82.5 338.0312 82.7656 L337.4062 83.0156 C336.6406 83.3125 336.3906 83.5469 336.3906 83.9375 C336.3906 84.1094 336.4531 84.3438 336.5781 84.8125 L336.7344 85.3438 L337.1094 85.3438 L337.0938 84.5312 C337.0938 84.0938 337.2031 83.9688 337.7812 83.7344 L338.2031 83.5625 C339.0312 83.2188 339.4531 82.6875 339.4531 81.8438 C339.4531 80.1562 337.6562 79.1875 336.5 79.0312 C336.1094 79.125 335.9062 79.2969 335.9062 79.6406 C335.9062 79.9375 336.0625 80.1562 336.7188 80.2656 L338.4688 80.5781 Z"
      /><rect x="320" y="86" width="5" style="fill:white; stroke:none;" height="10"
      /><path style="stroke:none;" d="M321.8906 94.6875 C321.4844 94.6875 321.1562 95.0469 321.1562 95.4219 C321.1562 95.8125 321.4844 96.1562 321.8906 96.1562 C322.2969 96.1562 322.6406 95.8125 322.6406 95.4219 C322.6406 95.0469 322.2969 94.6875 321.8906 94.6875 ZM323.4688 88.5781 C323.7188 88.8906 323.875 89.2656 323.8906 89.6562 C323.8906 90.1875 323.625 90.5 323.0312 90.7656 L322.4062 91.0156 C321.6406 91.3125 321.3906 91.5469 321.3906 91.9375 C321.3906 92.1094 321.4531 92.3438 321.5781 92.8125 L321.7344 93.3438 L322.1094 93.3438 L322.0938 92.5312 C322.0938 92.0938 322.2031 91.9688 322.7812 91.7344 L323.2031 91.5625 C324.0312 91.2188 324.4531 90.6875 324.4531 89.8438 C324.4531 88.1562 322.6562 87.1875 321.5 87.0312 C321.1094 87.125 320.9062 87.2969 320.9062 87.6406 C320.9062 87.9375 321.0625 88.1562 321.7188 88.2656 L323.4688 88.5781 Z"
      /><rect x="328" y="60" width="5" style="fill:white; stroke:none;" height="10"
      /><path style="stroke:none;" d="M329.8906 68.6875 C329.4844 68.6875 329.1562 69.0469 329.1562 69.4219 C329.1562 69.8125 329.4844 70.1562 329.8906 70.1562 C330.2969 70.1562 330.6406 69.8125 330.6406 69.4219 C330.6406 69.0469 330.2969 68.6875 329.8906 68.6875 ZM331.4688 62.5781 C331.7188 62.8906 331.875 63.2656 331.8906 63.6562 C331.8906 64.1875 331.625 64.5 331.0312 64.7656 L330.4062 65.0156 C329.6406 65.3125 329.3906 65.5469 329.3906 65.9375 C329.3906 66.1094 329.4531 66.3438 329.5781 66.8125 L329.7344 67.3438 L330.1094 67.3438 L330.0938 66.5312 C330.0938 66.0938 330.2031 65.9688 330.7812 65.7344 L331.2031 65.5625 C332.0312 65.2188 332.4531 64.6875 332.4531 63.8438 C332.4531 62.1562 330.6562 61.1875 329.5 61.0312 C329.1094 61.125 328.9062 61.2969 328.9062 61.6406 C328.9062 61.9375 329.0625 62.1562 329.7188 62.2656 L331.4688 62.5781 Z"
      /><rect x="313" y="52" width="5" style="fill:white; stroke:none;" height="10"
      /><path style="stroke:none;" d="M314.8906 60.6875 C314.4844 60.6875 314.1562 61.0469 314.1562 61.4219 C314.1562 61.8125 314.4844 62.1562 314.8906 62.1562 C315.2969 62.1562 315.6406 61.8125 315.6406 61.4219 C315.6406 61.0469 315.2969 60.6875 314.8906 60.6875 ZM316.4688 54.5781 C316.7188 54.8906 316.875 55.2656 316.8906 55.6562 C316.8906 56.1875 316.625 56.5 316.0312 56.7656 L315.4062 57.0156 C314.6406 57.3125 314.3906 57.5469 314.3906 57.9375 C314.3906 58.1094 314.4531 58.3438 314.5781 58.8125 L314.7344 59.3438 L315.1094 59.3438 L315.0938 58.5312 C315.0938 58.0938 315.2031 57.9688 315.7812 57.7344 L316.2031 57.5625 C317.0312 57.2188 317.4531 56.6875 317.4531 55.8438 C317.4531 54.1562 315.6562 53.1875 314.5 53.0312 C314.1094 53.125 313.9062 53.2969 313.9062 53.6406 C313.9062 53.9375 314.0625 54.1562 314.7188 54.2656 L316.4688 54.5781 Z"
      /><rect x="391" y="136" width="5" style="fill:white; stroke:none;" height="10"
      /><path style="stroke:none;" d="M392.8906 144.6875 C392.4844 144.6875 392.1562 145.0469 392.1562 145.4219 C392.1562 145.8125 392.4844 146.1562 392.8906 146.1562 C393.2969 146.1562 393.6406 145.8125 393.6406 145.4219 C393.6406 145.0469 393.2969 144.6875 392.8906 144.6875 ZM394.4688 138.5781 C394.7188 138.8906 394.875 139.2656 394.8906 139.6562 C394.8906 140.1875 394.625 140.5 394.0312 140.7656 L393.4062 141.0156 C392.6406 141.3125 392.3906 141.5469 392.3906 141.9375 C392.3906 142.1094 392.4531 142.3438 392.5781 142.8125 L392.7344 143.3438 L393.1094 143.3438 L393.0938 142.5312 C393.0938 142.0938 393.2031 141.9688 393.7812 141.7344 L394.2031 141.5625 C395.0312 141.2188 395.4531 140.6875 395.4531 139.8438 C395.4531 138.1562 393.6562 137.1875 392.5 137.0312 C392.1094 137.125 391.9062 137.2969 391.9062 137.6406 C391.9062 137.9375 392.0625 138.1562 392.7188 138.2656 L394.4688 138.5781 Z"
      /><rect x="372" y="155" width="5" style="fill:white; stroke:none;" height="10"
      /><path style="stroke:none;" d="M373.8906 163.6875 C373.4844 163.6875 373.1562 164.0469 373.1562 164.4219 C373.1562 164.8125 373.4844 165.1562 373.8906 165.1562 C374.2969 165.1562 374.6406 164.8125 374.6406 164.4219 C374.6406 164.0469 374.2969 163.6875 373.8906 163.6875 ZM375.4688 157.5781 C375.7188 157.8906 375.875 158.2656 375.8906 158.6562 C375.8906 159.1875 375.625 159.5 375.0312 159.7656 L374.4062 160.0156 C373.6406 160.3125 373.3906 160.5469 373.3906 160.9375 C373.3906 161.1094 373.4531 161.3438 373.5781 161.8125 L373.7344 162.3438 L374.1094 162.3438 L374.0938 161.5312 C374.0938 161.0938 374.2031 160.9688 374.7812 160.7344 L375.2031 160.5625 C376.0312 160.2188 376.4531 159.6875 376.4531 158.8438 C376.4531 157.1562 374.6562 156.1875 373.5 156.0312 C373.1094 156.125 372.9062 156.2969 372.9062 156.6406 C372.9062 156.9375 373.0625 157.1562 373.7188 157.2656 L375.4688 157.5781 Z"
      /><rect x="380" y="103" width="5" style="fill:white; stroke:none;" height="10"
      /><path style="stroke:none;" d="M381.8906 111.6875 C381.4844 111.6875 381.1562 112.0469 381.1562 112.4219 C381.1562 112.8125 381.4844 113.1562 381.8906 113.1562 C382.2969 113.1562 382.6406 112.8125 382.6406 112.4219 C382.6406 112.0469 382.2969 111.6875 381.8906 111.6875 ZM383.4688 105.5781 C383.7188 105.8906 383.875 106.2656 383.8906 106.6562 C383.8906 107.1875 383.625 107.5 383.0312 107.7656 L382.4062 108.0156 C381.6406 108.3125 381.3906 108.5469 381.3906 108.9375 C381.3906 109.1094 381.4531 109.3438 381.5781 109.8125 L381.7344 110.3438 L382.1094 110.3438 L382.0938 109.5312 C382.0938 109.0938 382.2031 108.9688 382.7812 108.7344 L383.2031 108.5625 C384.0312 108.2188 384.4531 107.6875 384.4531 106.8438 C384.4531 105.1562 382.6562 104.1875 381.5 104.0312 C381.1094 104.125 380.9062 104.2969 380.9062 104.6406 C380.9062 104.9375 381.0625 105.1562 381.7188 105.2656 L383.4688 105.5781 Z"
      /><rect x="361" y="84" width="5" style="fill:white; stroke:none;" height="10"
      /><path style="stroke:none;" d="M362.8906 92.6875 C362.4844 92.6875 362.1562 93.0469 362.1562 93.4219 C362.1562 93.8125 362.4844 94.1562 362.8906 94.1562 C363.2969 94.1562 363.6406 93.8125 363.6406 93.4219 C363.6406 93.0469 363.2969 92.6875 362.8906 92.6875 ZM364.4688 86.5781 C364.7188 86.8906 364.875 87.2656 364.8906 87.6562 C364.8906 88.1875 364.625 88.5 364.0312 88.7656 L363.4062 89.0156 C362.6406 89.3125 362.3906 89.5469 362.3906 89.9375 C362.3906 90.1094 362.4531 90.3438 362.5781 90.8125 L362.7344 91.3438 L363.1094 91.3438 L363.0938 90.5312 C363.0938 90.0938 363.2031 89.9688 363.7812 89.7344 L364.2031 89.5625 C365.0312 89.2188 365.4531 88.6875 365.4531 87.8438 C365.4531 86.1562 363.6562 85.1875 362.5 85.0312 C362.1094 85.125 361.9062 85.2969 361.9062 85.6406 C361.9062 85.9375 362.0625 86.1562 362.7188 86.2656 L364.4688 86.5781 Z"
      /><rect x="435" y="122" width="5" style="fill:white; stroke:none;" height="10"
      /><path style="stroke:none;" d="M436.8906 130.6875 C436.4844 130.6875 436.1562 131.0469 436.1562 131.4219 C436.1562 131.8125 436.4844 132.1562 436.8906 132.1562 C437.2969 132.1562 437.6406 131.8125 437.6406 131.4219 C437.6406 131.0469 437.2969 130.6875 436.8906 130.6875 ZM438.4688 124.5781 C438.7188 124.8906 438.875 125.2656 438.8906 125.6562 C438.8906 126.1875 438.625 126.5 438.0312 126.7656 L437.4062 127.0156 C436.6406 127.3125 436.3906 127.5469 436.3906 127.9375 C436.3906 128.1094 436.4531 128.3438 436.5781 128.8125 L436.7344 129.3438 L437.1094 129.3438 L437.0938 128.5312 C437.0938 128.0938 437.2031 127.9688 437.7812 127.7344 L438.2031 127.5625 C439.0312 127.2188 439.4531 126.6875 439.4531 125.8438 C439.4531 124.1562 437.6562 123.1875 436.5 123.0312 C436.1094 123.125 435.9062 123.2969 435.9062 123.6406 C435.9062 123.9375 436.0625 124.1562 436.7188 124.2656 L438.4688 124.5781 Z"
      /><rect x="421" y="122" width="5" style="fill:white; stroke:none;" height="10"
      /><path style="stroke:none;" d="M422.8906 130.6875 C422.4844 130.6875 422.1562 131.0469 422.1562 131.4219 C422.1562 131.8125 422.4844 132.1562 422.8906 132.1562 C423.2969 132.1562 423.6406 131.8125 423.6406 131.4219 C423.6406 131.0469 423.2969 130.6875 422.8906 130.6875 ZM424.4688 124.5781 C424.7188 124.8906 424.875 125.2656 424.8906 125.6562 C424.8906 126.1875 424.625 126.5 424.0312 126.7656 L423.4062 127.0156 C422.6406 127.3125 422.3906 127.5469 422.3906 127.9375 C422.3906 128.1094 422.4531 128.3438 422.5781 128.8125 L422.7344 129.3438 L423.1094 129.3438 L423.0938 128.5312 C423.0938 128.0938 423.2031 127.9688 423.7812 127.7344 L424.2031 127.5625 C425.0312 127.2188 425.4531 126.6875 425.4531 125.8438 C425.4531 124.1562 423.6562 123.1875 422.5 123.0312 C422.1094 123.125 421.9062 123.2969 421.9062 123.6406 C421.9062 123.9375 422.0625 124.1562 422.7188 124.2656 L424.4688 124.5781 Z"
      /><rect x="487" y="122" width="5" style="fill:white; stroke:none;" height="10"
      /><path style="stroke:none;" d="M488.8906 130.6875 C488.4844 130.6875 488.1562 131.0469 488.1562 131.4219 C488.1562 131.8125 488.4844 132.1562 488.8906 132.1562 C489.2969 132.1562 489.6406 131.8125 489.6406 131.4219 C489.6406 131.0469 489.2969 130.6875 488.8906 130.6875 ZM490.4688 124.5781 C490.7188 124.8906 490.875 125.2656 490.8906 125.6562 C490.8906 126.1875 490.625 126.5 490.0312 126.7656 L489.4062 127.0156 C488.6406 127.3125 488.3906 127.5469 488.3906 127.9375 C488.3906 128.1094 488.4531 128.3438 488.5781 128.8125 L488.7344 129.3438 L489.1094 129.3438 L489.0938 128.5312 C489.0938 128.0938 489.2031 127.9688 489.7812 127.7344 L490.2031 127.5625 C491.0312 127.2188 491.4531 126.6875 491.4531 125.8438 C491.4531 124.1562 489.6562 123.1875 488.5 123.0312 C488.1094 123.125 487.9062 123.2969 487.9062 123.6406 C487.9062 123.9375 488.0625 124.1562 488.7188 124.2656 L490.4688 124.5781 Z"
      /><rect x="473" y="122" width="5" style="fill:white; stroke:none;" height="10"
      /><path style="stroke:none;" d="M474.8906 130.6875 C474.4844 130.6875 474.1562 131.0469 474.1562 131.4219 C474.1562 131.8125 474.4844 132.1562 474.8906 132.1562 C475.2969 132.1562 475.6406 131.8125 475.6406 131.4219 C475.6406 131.0469 475.2969 130.6875 474.8906 130.6875 ZM476.4688 124.5781 C476.7188 124.8906 476.875 125.2656 476.8906 125.6562 C476.8906 126.1875 476.625 126.5 476.0312 126.7656 L475.4062 127.0156 C474.6406 127.3125 474.3906 127.5469 474.3906 127.9375 C474.3906 128.1094 474.4531 128.3438 474.5781 128.8125 L474.7344 129.3438 L475.1094 129.3438 L475.0938 128.5312 C475.0938 128.0938 475.2031 127.9688 475.7812 127.7344 L476.2031 127.5625 C477.0312 127.2188 477.4531 126.6875 477.4531 125.8438 C477.4531 124.1562 475.6562 123.1875 474.5 123.0312 C474.1094 123.125 473.9062 123.2969 473.9062 123.6406 C473.9062 123.9375 474.0625 124.1562 474.7188 124.2656 L476.4688 124.5781 Z"
      /><rect x="525" y="122" width="5" style="fill:white; stroke:none;" height="10"
      /><path style="stroke:none;" d="M526.8906 130.6875 C526.4844 130.6875 526.1562 131.0469 526.1562 131.4219 C526.1562 131.8125 526.4844 132.1562 526.8906 132.1562 C527.2969 132.1562 527.6406 131.8125 527.6406 131.4219 C527.6406 131.0469 527.2969 130.6875 526.8906 130.6875 ZM528.4688 124.5781 C528.7188 124.8906 528.875 125.2656 528.8906 125.6562 C528.8906 126.1875 528.625 126.5 528.0312 126.7656 L527.4062 127.0156 C526.6406 127.3125 526.3906 127.5469 526.3906 127.9375 C526.3906 128.1094 526.4531 128.3438 526.5781 128.8125 L526.7344 129.3438 L527.1094 129.3438 L527.0938 128.5312 C527.0938 128.0938 527.2031 127.9688 527.7812 127.7344 L528.2031 127.5625 C529.0312 127.2188 529.4531 126.6875 529.4531 125.8438 C529.4531 124.1562 527.6562 123.1875 526.5 123.0312 C526.1094 123.125 525.9062 123.2969 525.9062 123.6406 C525.9062 123.9375 526.0625 124.1562 526.7188 124.2656 L528.4688 124.5781 Z"
    /></g
  ></g
></svg
>
