<?xml version="1.0"?>
<!DOCTYPE svg PUBLIC '-//W3C//DTD SVG 1.0//EN'
          'http://www.w3.org/TR/2001/REC-SVG-20010904/DTD/svg10.dtd'>
<svg xmlns:xlink="http://www.w3.org/1999/xlink" style="fill-opacity:1; color-rendering:auto; color-interpolation:auto; text-rendering:auto; stroke:black; stroke-linecap:square; stroke-miterlimit:10; shape-rendering:auto; stroke-opacity:1; fill:black; stroke-dasharray:none; font-weight:normal; stroke-width:1; font-family:'Dialog'; font-style:normal; stroke-linejoin:miter; font-size:12px; stroke-dashoffset:0; image-rendering:auto;" viewBox="0 0 446 105" xmlns="http://www.w3.org/2000/svg"
><!--Generated by the Batik Graphics2D SVG Generator--><defs id="genericDefs"
  /><g
  ><defs id="defs1"
    ><clipPath clipPathUnits="userSpaceOnUse" id="clipPath1"
      ><path d="M342 30 L364 30 L364 52 L342 52 L342 30 Z"
      /></clipPath
      ><clipPath clipPathUnits="userSpaceOnUse" id="clipPath2"
      ><path d="M290 30 L312 30 L312 52 L290 52 L290 30 Z"
      /></clipPath
      ><clipPath clipPathUnits="userSpaceOnUse" id="clipPath3"
      ><path d="M260 41 C260 47.0751 255.0751 52 249 52 C242.9249 52 238 47.0751 238 41 C238 34.9249 242.9249 30 249 30 C255.0751 30 260 34.9249 260 41 Z"
      /></clipPath
      ><clipPath clipPathUnits="userSpaceOnUse" id="clipPath4"
      ><path d="M208 41 C208 47.0751 203.0751 52 197 52 C190.9249 52 186 47.0751 186 41 C186 34.9249 190.9249 30 197 30 C203.0751 30 208 34.9249 208 41 Z"
      /></clipPath
      ><clipPath clipPathUnits="userSpaceOnUse" id="clipPath5"
      ><path d="M134 30 L156 30 L156 52 L134 52 L134 30 Z"
      /></clipPath
      ><clipPath clipPathUnits="userSpaceOnUse" id="clipPath6"
      ><path d="M104 41 C104 47.0751 99.0751 52 93 52 C86.9249 52 82 47.0751 82 41 C82 34.9249 86.9249 30 93 30 C99.0751 30 104 34.9249 104 41 Z"
      /></clipPath
      ><clipPath clipPathUnits="userSpaceOnUse" id="clipPath7"
      ><path style="fill-rule:evenodd;" d="M41 30 L52 41 L41 52 L30 41 Z"
      /></clipPath
    ></defs
    ><g style="fill:white; text-rendering:optimizeSpeed; stroke:white;"
    ><rect x="0" width="446" height="105" y="0" style="stroke:none;"
      /><polygon style="fill:none; stroke:black;" points=" 405 41 353 41"
      /><path d="M405 30 C399.5 35.5 410.5 46.5 405 52" style="fill:none; stroke:black;"
      /><polygon style="fill:none; stroke:black;" points=" 353 41 301 41"
      /><rect x="342" y="30" width="22" style="clip-path:url(#clipPath1); stroke:none;" height="22"
      /><rect x="342" y="30" width="22" style="clip-path:url(#clipPath1); fill:rgb(0,144,188); stroke:none;" height="22"
      /><rect x="342" y="30" width="22" style="clip-path:url(#clipPath1); fill:none; stroke:black;" height="22"
      /><rect x="342" y="30" width="22" style="fill:none; stroke:black;" height="22"
      /><rect x="345" y="58" width="15" style="stroke:none;" height="10"
    /></g
    ><g style="text-rendering:optimizeSpeed; font-size:14px; font-family:'SansSerif';"
    ><path style="stroke:none;" d="M346.2344 69 L351.8594 69 L351.8594 67.9375 L349.7969 67.9375 L349.7969 58.7188 L348.8281 58.7188 C348.2656 59.0625 347.6094 59.2969 346.6875 59.4688 L346.6875 60.2812 L348.5156 60.2812 L348.5156 67.9375 L346.2344 67.9375 L346.2344 69 ZM354.1762 69 L355.395 69 L355.395 63.6094 C355.395 62.5312 355.3012 61.4375 355.2543 60.4062 L355.3012 60.4062 L356.4106 62.5156 L360.145 69 L361.4731 69 L361.4731 58.7188 L360.2387 58.7188 L360.2387 64.0781 C360.2387 65.1406 360.3481 66.2812 360.4106 67.3125 L360.3481 67.3125 L359.2543 65.2031 L355.52 58.7188 L354.1762 58.7188 L354.1762 69 Z"
      /><polygon style="fill:none;" points=" 301 41 249 41"
    /></g
    ><g style="fill:white; text-rendering:optimizeSpeed; stroke:white;"
    ><rect x="290" y="30" width="22" style="clip-path:url(#clipPath2); stroke:none;" height="22"
      /><rect x="290" y="30" width="22" style="clip-path:url(#clipPath2); fill:rgb(0,144,188); stroke:none;" height="22"
      /><rect x="290" y="30" width="22" style="clip-path:url(#clipPath2); fill:none; stroke:black;" height="22"
      /><rect x="290" y="30" width="22" style="fill:none; stroke:black;" height="22"
      /><polygon style="fill:none; stroke:black;" points=" 249 41 197 41"
      /><circle r="11" style="clip-path:url(#clipPath3); stroke:none;" cx="249" cy="41"
      /><rect x="238" y="30" width="22" style="clip-path:url(#clipPath3); fill:rgb(0,166,81); stroke:none;" height="22"
      /><rect x="238" y="30" width="22" style="clip-path:url(#clipPath3); fill:none; stroke:black;" height="22"
      /><circle r="11" style="fill:none; stroke:black;" cx="249" cy="41"
      /><polygon style="fill:none; stroke:black;" points=" 197 41 145 41"
      /><circle r="11" style="clip-path:url(#clipPath4); stroke:none;" cx="197" cy="41"
      /><rect x="186" y="30" width="22" style="clip-path:url(#clipPath4); fill:rgb(0,166,81); stroke:none;" height="22"
      /><rect x="186" y="30" width="22" style="clip-path:url(#clipPath4); fill:none; stroke:black;" height="22"
      /><circle r="11" style="fill:none; stroke:black;" cx="197" cy="41"
      /><polygon style="fill:none; stroke:black;" points=" 145 41 93 41"
      /><rect x="134" y="30" width="22" style="clip-path:url(#clipPath5); stroke:none;" height="22"
      /><rect x="134" y="30" width="22" style="clip-path:url(#clipPath5); fill:rgb(0,144,188); stroke:none;" height="22"
      /><rect x="134" y="30" width="22" style="clip-path:url(#clipPath5); fill:none; stroke:black;" height="22"
      /><rect x="134" y="30" width="22" style="fill:none; stroke:black;" height="22"
      /><polygon style="fill:none; stroke:black;" points=" 93 41 41 41"
      /><circle r="11" style="clip-path:url(#clipPath6); stroke:none;" cx="93" cy="41"
      /><rect x="82" y="30" width="22" style="clip-path:url(#clipPath6); fill:rgb(255,212,0); stroke:none;" height="22"
      /><rect x="82" y="30" width="22" style="clip-path:url(#clipPath6); fill:none; stroke:black;" height="22"
      /><circle r="11" style="fill:none; stroke:black;" cx="93" cy="41"
      /><polygon style="clip-path:url(#clipPath7); stroke:none;" points=" 41 30 52 41 41 52 30 41"
      /><rect x="30" y="30" width="22" style="clip-path:url(#clipPath7); fill:rgb(165,67,153); stroke:none;" height="22"
      /><rect x="30" y="30" width="22" style="clip-path:url(#clipPath7); fill:none; stroke:black;" height="22"
      /><polygon style="fill:none; stroke:black;" points=" 41 30 52 41 41 52 30 41"
      /><rect x="71" width="6" height="10" y="44" style="stroke:none;"
      /><path d="M74.3438 53.6875 C73.2031 53.6875 72.5312 52.5 72.5312 50.2969 C72.5312 50.2188 72.5312 50.125 72.5312 50.0469 C73.0938 49.5 73.7188 49.3125 74.3438 49.3125 C75.3125 49.3125 75.9531 49.9844 75.9531 51.4531 C75.9531 52.9375 75.3125 53.6875 74.3438 53.6875 ZM76.5312 45.0781 C73.3438 45.4531 71.5625 47.7656 71.5625 50.4531 C71.5625 52.7812 72.6094 54.1719 74.3125 54.1719 C75.8438 54.1719 76.9219 53.1094 76.9219 51.2812 C76.9219 49.6875 75.9688 48.6562 74.5625 48.6562 C73.8281 48.6562 73.1406 48.9844 72.5781 49.5781 C72.7969 47.4062 74.0781 45.9688 76.5938 45.3906 L76.5312 45.0781 Z" style="fill:black; stroke:none;"
      /><rect x="56" width="8" height="8" y="45" style="stroke:none;"
      /><path d="M60.9844 50.7031 C60.9375 51.8906 60.1562 52.6562 59.3125 52.6562 C58.2656 52.6562 57.5 51.6875 57.5 49.7188 C57.5 48.2812 58.1562 47.1562 59.3438 47.1562 C60.1406 47.1562 60.7812 47.6875 61.0938 48.6406 L60.9844 50.7031 ZM62.9062 52.2812 C62.7344 52.375 62.5469 52.4219 62.3438 52.4219 C61.9531 52.4219 61.75 52.2188 61.75 51.4219 C61.75 50.4844 61.9688 48.5312 62.1875 46.8281 L62.0312 46.7188 L61.2344 46.9219 L61.1406 47.7969 C60.7812 47.0312 60.1562 46.6562 59.3906 46.6562 C58.0469 46.6562 56.5625 47.8438 56.5625 49.9531 C56.5625 52.0938 57.7188 53.1719 59.1406 53.1719 C60.0156 53.1719 60.6875 52.8125 61.0938 51.9844 C61.2031 52.8594 61.5156 53.1719 62.0156 53.1719 C62.4688 53.1719 62.7969 52.9062 63.0156 52.5625 L62.9062 52.2812 Z" style="fill:black; stroke:none;"
      /><rect x="122" width="7" height="9" y="44" style="stroke:none;"
      /><path d="M123 49.5156 L125.9531 45.2656 L125.9531 49.5156 L123 49.5156 ZM128.2812 49.5156 L126.8594 49.5156 L126.8594 44.125 L126.2344 44.125 L122.3438 49.6406 L122.3438 50.1875 L125.9531 50.1875 L125.9531 53 L126.8594 53 L126.8594 50.1875 L128.2812 50.1875 L128.2812 49.5156 Z" style="fill:black; stroke:none;"
      /><rect x="109" width="6" height="13" y="42" style="stroke:none;"
      /><path d="M111.0938 48.2031 C111.0938 46.6562 111.75 45.8125 112.7969 45.8125 C113.7188 45.8125 114.2656 46.4531 114.2656 47.5156 C114.2656 48.7188 113.5 49.4375 112.1875 49.7031 L112.2969 50.3125 C114.2188 50.2344 114.9375 51.2188 114.9375 52.4375 C114.9375 53.625 114.2344 54.4219 112.9531 54.4219 C112.25 54.4219 111.6562 54.1562 111.0938 53.7188 L111.0938 48.2031 ZM110.2031 54.9062 L110.1094 57.375 L110.2656 57.4844 L111.1562 57.2656 L111.0156 54.0938 C111.5469 54.8438 112.3594 55.1719 113.1719 55.1719 C114.5625 55.1719 115.8594 54.2188 115.8594 52.4844 C115.8594 50.9531 114.875 50.1094 113.125 50 C114.5625 49.6094 115.1875 48.4531 115.1875 47.4844 C115.1875 46.0938 114.1562 45.3125 112.9062 45.3125 C111.2969 45.3125 110.2188 46.5469 110.2188 48.5156 L110.2031 54.9062 Z" style="fill:black; stroke:none;"
      /><rect x="175" width="6" height="9" y="44" style="stroke:none;"
      /><path d="M176.4219 52.0938 C177.0781 51.375 177.7031 50.7188 178.0312 50.3438 C179.9219 48.3125 180.5312 47.4688 180.5312 46.3594 C180.5312 45.0156 179.7812 44.0781 178.1562 44.0781 C176.9062 44.0781 175.7969 44.7031 175.5938 45.9688 C175.7188 46.2031 175.9062 46.3438 176.1562 46.3438 C176.4688 46.3438 176.6562 46.1094 176.7969 45.5938 L177.0938 44.6719 C177.3906 44.5938 177.6562 44.5625 177.8906 44.5625 C178.9219 44.5625 179.5469 45.3125 179.5469 46.4219 C179.5469 47.4375 178.9844 48.4219 177.7031 49.9062 C177.125 50.5781 176.3906 51.4375 175.6406 52.2812 L175.6406 53 L180.9219 53 L180.9219 52.0938 L176.4219 52.0938 Z" style="fill:black; stroke:none;"
      /><rect x="161" width="6" height="13" y="42" style="stroke:none;"
      /><path d="M163.0938 48.2031 C163.0938 46.6562 163.75 45.8125 164.7969 45.8125 C165.7188 45.8125 166.2656 46.4531 166.2656 47.5156 C166.2656 48.7188 165.5 49.4375 164.1875 49.7031 L164.2969 50.3125 C166.2188 50.2344 166.9375 51.2188 166.9375 52.4375 C166.9375 53.625 166.2344 54.4219 164.9531 54.4219 C164.25 54.4219 163.6562 54.1562 163.0938 53.7188 L163.0938 48.2031 ZM162.2031 54.9062 L162.1094 57.375 L162.2656 57.4844 L163.1562 57.2656 L163.0156 54.0938 C163.5469 54.8438 164.3594 55.1719 165.1719 55.1719 C166.5625 55.1719 167.8594 54.2188 167.8594 52.4844 C167.8594 50.9531 166.875 50.1094 165.125 50 C166.5625 49.6094 167.1875 48.4531 167.1875 47.4844 C167.1875 46.0938 166.1562 45.3125 164.9062 45.3125 C163.2969 45.3125 162.2188 46.5469 162.2188 48.5156 L162.2031 54.9062 Z" style="fill:black; stroke:none;"
      /><rect x="227" width="6" height="10" y="44" style="stroke:none;"
      /><path d="M230.3438 53.6875 C229.2031 53.6875 228.5312 52.5 228.5312 50.2969 C228.5312 50.2188 228.5312 50.125 228.5312 50.0469 C229.0938 49.5 229.7188 49.3125 230.3438 49.3125 C231.3125 49.3125 231.9531 49.9844 231.9531 51.4531 C231.9531 52.9375 231.3125 53.6875 230.3438 53.6875 ZM232.5312 45.0781 C229.3438 45.4531 227.5625 47.7656 227.5625 50.4531 C227.5625 52.7812 228.6094 54.1719 230.3125 54.1719 C231.8438 54.1719 232.9219 53.1094 232.9219 51.2812 C232.9219 49.6875 231.9688 48.6562 230.5625 48.6562 C229.8281 48.6562 229.1406 48.9844 228.5781 49.5781 C228.7969 47.4062 230.0781 45.9688 232.5938 45.3906 L232.5312 45.0781 Z" style="fill:black; stroke:none;"
      /><rect x="213" width="6" height="13" y="42" style="stroke:none;"
      /><path d="M215.0938 48.2031 C215.0938 46.6562 215.75 45.8125 216.7969 45.8125 C217.7188 45.8125 218.2656 46.4531 218.2656 47.5156 C218.2656 48.7188 217.5 49.4375 216.1875 49.7031 L216.2969 50.3125 C218.2188 50.2344 218.9375 51.2188 218.9375 52.4375 C218.9375 53.625 218.2344 54.4219 216.9531 54.4219 C216.25 54.4219 215.6562 54.1562 215.0938 53.7188 L215.0938 48.2031 ZM214.2031 54.9062 L214.1094 57.375 L214.2656 57.4844 L215.1562 57.2656 L215.0156 54.0938 C215.5469 54.8438 216.3594 55.1719 217.1719 55.1719 C218.5625 55.1719 219.8594 54.2188 219.8594 52.4844 C219.8594 50.9531 218.875 50.1094 217.125 50 C218.5625 49.6094 219.1875 48.4531 219.1875 47.4844 C219.1875 46.0938 218.1562 45.3125 216.9062 45.3125 C215.2969 45.3125 214.2188 46.5469 214.2188 48.5156 L214.2031 54.9062 Z" style="fill:black; stroke:none;"
      /><rect x="278" width="7" height="9" y="44" style="stroke:none;"
      /><path d="M279 49.5156 L281.9531 45.2656 L281.9531 49.5156 L279 49.5156 ZM284.2812 49.5156 L282.8594 49.5156 L282.8594 44.125 L282.2344 44.125 L278.3438 49.6406 L278.3438 50.1875 L281.9531 50.1875 L281.9531 53 L282.8594 53 L282.8594 50.1875 L284.2812 50.1875 L284.2812 49.5156 Z" style="fill:black; stroke:none;"
      /><rect x="265" width="6" height="13" y="42" style="stroke:none;"
      /><path d="M267.0938 48.2031 C267.0938 46.6562 267.75 45.8125 268.7969 45.8125 C269.7188 45.8125 270.2656 46.4531 270.2656 47.5156 C270.2656 48.7188 269.5 49.4375 268.1875 49.7031 L268.2969 50.3125 C270.2188 50.2344 270.9375 51.2188 270.9375 52.4375 C270.9375 53.625 270.2344 54.4219 268.9531 54.4219 C268.25 54.4219 267.6562 54.1562 267.0938 53.7188 L267.0938 48.2031 ZM266.2031 54.9062 L266.1094 57.375 L266.2656 57.4844 L267.1562 57.2656 L267.0156 54.0938 C267.5469 54.8438 268.3594 55.1719 269.1719 55.1719 C270.5625 55.1719 271.8594 54.2188 271.8594 52.4844 C271.8594 50.9531 270.875 50.1094 269.125 50 C270.5625 49.6094 271.1875 48.4531 271.1875 47.4844 C271.1875 46.0938 270.1562 45.3125 268.9062 45.3125 C267.2969 45.3125 266.2188 46.5469 266.2188 48.5156 L266.2031 54.9062 Z" style="fill:black; stroke:none;"
      /><rect x="330" width="7" height="9" y="44" style="stroke:none;"
      /><path d="M331 49.5156 L333.9531 45.2656 L333.9531 49.5156 L331 49.5156 ZM336.2812 49.5156 L334.8594 49.5156 L334.8594 44.125 L334.2344 44.125 L330.3438 49.6406 L330.3438 50.1875 L333.9531 50.1875 L333.9531 53 L334.8594 53 L334.8594 50.1875 L336.2812 50.1875 L336.2812 49.5156 Z" style="fill:black; stroke:none;"
      /><rect x="317" width="6" height="13" y="42" style="stroke:none;"
      /><path d="M319.0938 48.2031 C319.0938 46.6562 319.75 45.8125 320.7969 45.8125 C321.7188 45.8125 322.2656 46.4531 322.2656 47.5156 C322.2656 48.7188 321.5 49.4375 320.1875 49.7031 L320.2969 50.3125 C322.2188 50.2344 322.9375 51.2188 322.9375 52.4375 C322.9375 53.625 322.2344 54.4219 320.9531 54.4219 C320.25 54.4219 319.6562 54.1562 319.0938 53.7188 L319.0938 48.2031 ZM318.2031 54.9062 L318.1094 57.375 L318.2656 57.4844 L319.1562 57.2656 L319.0156 54.0938 C319.5469 54.8438 320.3594 55.1719 321.1719 55.1719 C322.5625 55.1719 323.8594 54.2188 323.8594 52.4844 C323.8594 50.9531 322.875 50.1094 321.125 50 C322.5625 49.6094 323.1875 48.4531 323.1875 47.4844 C323.1875 46.0938 322.1562 45.3125 320.9062 45.3125 C319.2969 45.3125 318.2188 46.5469 318.2188 48.5156 L318.2031 54.9062 Z" style="fill:black; stroke:none;"
      /><rect x="369" width="6" height="13" y="42" style="stroke:none;"
      /><path d="M371.0938 48.2031 C371.0938 46.6562 371.75 45.8125 372.7969 45.8125 C373.7188 45.8125 374.2656 46.4531 374.2656 47.5156 C374.2656 48.7188 373.5 49.4375 372.1875 49.7031 L372.2969 50.3125 C374.2188 50.2344 374.9375 51.2188 374.9375 52.4375 C374.9375 53.625 374.2344 54.4219 372.9531 54.4219 C372.25 54.4219 371.6562 54.1562 371.0938 53.7188 L371.0938 48.2031 ZM370.2031 54.9062 L370.1094 57.375 L370.2656 57.4844 L371.1562 57.2656 L371.0156 54.0938 C371.5469 54.8438 372.3594 55.1719 373.1719 55.1719 C374.5625 55.1719 375.8594 54.2188 375.8594 52.4844 C375.8594 50.9531 374.875 50.1094 373.125 50 C374.5625 49.6094 375.1875 48.4531 375.1875 47.4844 C375.1875 46.0938 374.1562 45.3125 372.9062 45.3125 C371.2969 45.3125 370.2188 46.5469 370.2188 48.5156 L370.2031 54.9062 Z" style="fill:black; stroke:none;"
    /></g
  ></g
></svg
>
