<?xml version="1.0"?>
<!DOCTYPE svg PUBLIC '-//W3C//DTD SVG 1.0//EN'
          'http://www.w3.org/TR/2001/REC-SVG-20010904/DTD/svg10.dtd'>
<svg xmlns:xlink="http://www.w3.org/1999/xlink" style="fill-opacity:1; color-rendering:auto; color-interpolation:auto; text-rendering:auto; stroke:black; stroke-linecap:square; stroke-miterlimit:10; shape-rendering:auto; stroke-opacity:1; fill:black; stroke-dasharray:none; font-weight:normal; stroke-width:1; font-family:'Dialog'; font-style:normal; stroke-linejoin:miter; font-size:12px; stroke-dashoffset:0; image-rendering:auto;" viewBox="0 0 446 128" xmlns="http://www.w3.org/2000/svg"
><!--Generated by the Batik Graphics2D SVG Generator--><defs id="genericDefs"
  /><g
  ><defs id="defs1"
    ><clipPath clipPathUnits="userSpaceOnUse" id="clipPath1"
      ><path style="fill-rule:evenodd;" d="M347 42 L353 42 L353 86 L347 86 L353 86 L353 42 Z"
      /></clipPath
      ><clipPath clipPathUnits="userSpaceOnUse" id="clipPath2"
      ><path d="M312 64 C312 70.0751 307.0751 75 301 75 C294.9249 75 290 70.0751 290 64 C290 57.9249 294.9249 53 301 53 C307.0751 53 312 57.9249 312 64 Z"
      /></clipPath
      ><clipPath clipPathUnits="userSpaceOnUse" id="clipPath3"
      ><path d="M260 64 C260 70.0751 255.0751 75 249 75 C242.9249 75 238 70.0751 238 64 C238 57.9249 242.9249 53 249 53 C255.0751 53 260 57.9249 260 64 Z"
      /></clipPath
      ><clipPath clipPathUnits="userSpaceOnUse" id="clipPath4"
      ><path d="M208 64 C208 70.0751 203.0751 75 197 75 C190.9249 75 186 70.0751 186 64 C186 57.9249 190.9249 53 197 53 C203.0751 53 208 57.9249 208 64 Z"
      /></clipPath
      ><clipPath clipPathUnits="userSpaceOnUse" id="clipPath5"
      ><path d="M156 64 C156 70.0751 151.0751 75 145 75 C138.9249 75 134 70.0751 134 64 C134 57.9249 138.9249 53 145 53 C151.0751 53 156 57.9249 156 64 Z"
      /></clipPath
      ><clipPath clipPathUnits="userSpaceOnUse" id="clipPath6"
      ><path d="M104 64 C104 70.0751 99.0751 75 93 75 C86.9249 75 82 70.0751 82 64 C82 57.9249 86.9249 53 93 53 C99.0751 53 104 57.9249 104 64 Z"
      /></clipPath
      ><clipPath clipPathUnits="userSpaceOnUse" id="clipPath7"
      ><path style="fill-rule:evenodd;" d="M46 86 L41 86 L40 42 L46 42 L40 42 L41 86 Z"
      /></clipPath
    ></defs
    ><g style="fill:white; text-rendering:optimizeSpeed; stroke:white;"
    ><rect x="0" width="446" height="128" y="0" style="stroke:none;"
      /><polygon style="fill:none; stroke:black;" points=" 405 64 353 64"
      /><path d="M405 53 C399.5 58.5 410.5 69.5 405 75" style="fill:none; stroke:black;"
      /><polygon style="fill:none; stroke:black;" points=" 353 64 301 64"
      /><polygon style="clip-path:url(#clipPath1); stroke:none;" points=" 347 42 353 42 353 86 347 86 353 86 353 42"
      /><rect x="342" y="30" width="22" style="clip-path:url(#clipPath1); fill:black; stroke:none;" height="68"
      /><rect x="342" y="30" width="22" style="clip-path:url(#clipPath1); fill:none; stroke:black;" height="68"
      /><polygon style="fill:none; stroke:black;" points=" 347 42 353 42 353 86 347 86 353 86 353 42"
      /><polygon style="fill:none; stroke:black;" points=" 301 64 249 64"
      /><circle style="clip-path:url(#clipPath2); stroke:none;" r="11" cx="301" cy="64"
      /><rect x="290" y="53" width="22" style="clip-path:url(#clipPath2); fill:rgb(0,166,81); stroke:none;" height="22"
      /><rect x="290" y="53" width="22" style="clip-path:url(#clipPath2); fill:none; stroke:black;" height="22"
      /><circle style="fill:none; stroke:black;" r="11" cx="301" cy="64"
      /><polygon style="fill:none; stroke:black;" points=" 249 64 197 64"
      /><circle style="clip-path:url(#clipPath3); stroke:none;" r="11" cx="249" cy="64"
      /><rect x="238" y="53" width="22" style="clip-path:url(#clipPath3); fill:rgb(0,166,81); stroke:none;" height="22"
      /><rect x="238" y="53" width="22" style="clip-path:url(#clipPath3); fill:none; stroke:black;" height="22"
      /><circle style="fill:none; stroke:black;" r="11" cx="249" cy="64"
      /><polygon style="fill:none; stroke:black;" points=" 197 64 145 64"
      /><circle style="clip-path:url(#clipPath4); stroke:none;" r="11" cx="197" cy="64"
      /><rect x="186" y="53" width="22" style="clip-path:url(#clipPath4); fill:rgb(0,166,81); stroke:none;" height="22"
      /><rect x="186" y="53" width="22" style="clip-path:url(#clipPath4); fill:none; stroke:black;" height="22"
      /><circle style="fill:none; stroke:black;" r="11" cx="197" cy="64"
      /><polygon style="fill:none; stroke:black;" points=" 145 64 93 64"
      /><circle style="clip-path:url(#clipPath5); stroke:none;" r="11" cx="145" cy="64"
      /><rect x="134" y="53" width="22" style="clip-path:url(#clipPath5); fill:rgb(0,166,81); stroke:none;" height="22"
      /><rect x="134" y="53" width="22" style="clip-path:url(#clipPath5); fill:none; stroke:black;" height="22"
      /><circle style="fill:none; stroke:black;" r="11" cx="145" cy="64"
      /><polygon style="fill:none; stroke:black;" points=" 93 64 41 64"
      /><circle style="clip-path:url(#clipPath6); stroke:none;" r="11" cx="93" cy="64"
      /><rect x="82" y="53" width="22" style="clip-path:url(#clipPath6); fill:rgb(0,166,81); stroke:none;" height="22"
      /><rect x="82" y="53" width="22" style="clip-path:url(#clipPath6); fill:none; stroke:black;" height="22"
      /><circle style="fill:none; stroke:black;" r="11" cx="93" cy="64"
      /><polygon style="clip-path:url(#clipPath7); stroke:none;" points=" 46 86 41 86 40 42 46 42 40 42 41 86"
      /><rect x="30" y="30" width="22" style="clip-path:url(#clipPath7); fill:black; stroke:none;" height="68"
      /><rect x="30" y="30" width="22" style="clip-path:url(#clipPath7); fill:none; stroke:black;" height="68"
      /><polygon style="fill:none; stroke:black;" points=" 46 86 41 86 40 42 46 42 40 42 41 86"
      /><path d="M43.5469 95.9531 C43.5156 95.2969 43.5 94.3906 43.5 93.7656 L43.5 92.5156 C43.5 90.8281 42.9531 90.1562 41.8594 90.1562 C41.0625 90.1562 40.1562 90.625 39.4531 91.4062 L39.3594 90.2969 L39.2031 90.1719 L37.4688 90.8125 L37.4688 91.2031 L38.5312 91.2812 C38.5625 91.8438 38.5781 92.3438 38.5781 93.1094 L38.5781 93.7656 C38.5781 94.375 38.5781 95.2969 38.5469 95.9688 L37.5469 96.1094 L37.5469 96.5 L40.4688 96.5 L40.4688 96.1094 L39.5156 95.9531 C39.5156 95.2969 39.5 94.375 39.5 93.7656 L39.5 91.875 C40.2656 91.1562 40.875 90.9062 41.4688 90.9062 C42.2344 90.9062 42.5938 91.3125 42.5938 92.5625 L42.5938 93.7656 C42.5938 94.3906 42.5781 95.3125 42.5625 95.9688 L41.5469 96.1094 L41.5469 96.5 L44.4844 96.5 L44.4844 96.1094 L43.5469 95.9531 Z" style="fill:black; stroke:none;"
      /><rect x="70" y="67" width="7" style="stroke:none;" height="9"
    /></g
    ><g style="font-family:'Serif'; text-rendering:optimizeSpeed; "
    ><path style="stroke:none;" d="M71 72.5156 L73.9531 68.2656 L73.9531 72.5156 L71 72.5156 ZM76.2812 72.5156 L74.8594 72.5156 L74.8594 67.125 L74.2344 67.125 L70.3438 72.6406 L70.3438 73.1875 L73.9531 73.1875 L73.9531 76 L74.8594 76 L74.8594 73.1875 L76.2812 73.1875 L76.2812 72.5156 Z"
      /><rect x="123" y="67" width="6" style="fill:white; stroke:none;" height="9"
      /><path style="stroke:none;" d="M124.4219 75.0938 C125.0781 74.375 125.7031 73.7188 126.0312 73.3438 C127.9219 71.3125 128.5312 70.4688 128.5312 69.3594 C128.5312 68.0156 127.7812 67.0781 126.1562 67.0781 C124.9062 67.0781 123.7969 67.7031 123.5938 68.9688 C123.7188 69.2031 123.9062 69.3438 124.1562 69.3438 C124.4688 69.3438 124.6562 69.1094 124.7969 68.5938 L125.0938 67.6719 C125.3906 67.5938 125.6562 67.5625 125.8906 67.5625 C126.9219 67.5625 127.5469 68.3125 127.5469 69.4219 C127.5469 70.4375 126.9844 71.4219 125.7031 72.9062 C125.125 73.5781 124.3906 74.4375 123.6406 75.2812 L123.6406 76 L128.9219 76 L128.9219 75.0938 L124.4219 75.0938 Z"
      /><rect x="108" y="68" width="8" style="fill:white; stroke:none;" height="8"
      /><path style="stroke:none;" d="M112.9844 73.7031 C112.9375 74.8906 112.1562 75.6562 111.3125 75.6562 C110.2656 75.6562 109.5 74.6875 109.5 72.7188 C109.5 71.2812 110.1562 70.1562 111.3438 70.1562 C112.1406 70.1562 112.7812 70.6875 113.0938 71.6406 L112.9844 73.7031 ZM114.9062 75.2812 C114.7344 75.375 114.5469 75.4219 114.3438 75.4219 C113.9531 75.4219 113.75 75.2188 113.75 74.4219 C113.75 73.4844 113.9688 71.5312 114.1875 69.8281 L114.0312 69.7188 L113.2344 69.9219 L113.1406 70.7969 C112.7812 70.0312 112.1562 69.6562 111.3906 69.6562 C110.0469 69.6562 108.5625 70.8438 108.5625 72.9531 C108.5625 75.0938 109.7188 76.1719 111.1406 76.1719 C112.0156 76.1719 112.6875 75.8125 113.0938 74.9844 C113.2031 75.8594 113.5156 76.1719 114.0156 76.1719 C114.4688 76.1719 114.7969 75.9062 115.0156 75.5625 L114.9062 75.2812 Z"
      /><rect x="175" y="67" width="6" style="fill:white; stroke:none;" height="9"
      /><path style="stroke:none;" d="M176.4219 75.0938 C177.0781 74.375 177.7031 73.7188 178.0312 73.3438 C179.9219 71.3125 180.5312 70.4688 180.5312 69.3594 C180.5312 68.0156 179.7812 67.0781 178.1562 67.0781 C176.9062 67.0781 175.7969 67.7031 175.5938 68.9688 C175.7188 69.2031 175.9062 69.3438 176.1562 69.3438 C176.4688 69.3438 176.6562 69.1094 176.7969 68.5938 L177.0938 67.6719 C177.3906 67.5938 177.6562 67.5625 177.8906 67.5625 C178.9219 67.5625 179.5469 68.3125 179.5469 69.4219 C179.5469 70.4375 178.9844 71.4219 177.7031 72.9062 C177.125 73.5781 176.3906 74.4375 175.6406 75.2812 L175.6406 76 L180.9219 76 L180.9219 75.0938 L176.4219 75.0938 Z"
      /><rect x="160" y="68" width="8" style="fill:white; stroke:none;" height="8"
      /><path style="stroke:none;" d="M164.9844 73.7031 C164.9375 74.8906 164.1562 75.6562 163.3125 75.6562 C162.2656 75.6562 161.5 74.6875 161.5 72.7188 C161.5 71.2812 162.1562 70.1562 163.3438 70.1562 C164.1406 70.1562 164.7812 70.6875 165.0938 71.6406 L164.9844 73.7031 ZM166.9062 75.2812 C166.7344 75.375 166.5469 75.4219 166.3438 75.4219 C165.9531 75.4219 165.75 75.2188 165.75 74.4219 C165.75 73.4844 165.9688 71.5312 166.1875 69.8281 L166.0312 69.7188 L165.2344 69.9219 L165.1406 70.7969 C164.7812 70.0312 164.1562 69.6562 163.3906 69.6562 C162.0469 69.6562 160.5625 70.8438 160.5625 72.9531 C160.5625 75.0938 161.7188 76.1719 163.1406 76.1719 C164.0156 76.1719 164.6875 75.8125 165.0938 74.9844 C165.2031 75.8594 165.5156 76.1719 166.0156 76.1719 C166.4688 76.1719 166.7969 75.9062 167.0156 75.5625 L166.9062 75.2812 Z"
      /><rect x="227" y="67" width="6" style="fill:white; stroke:none;" height="9"
      /><path style="stroke:none;" d="M228.4219 75.0938 C229.0781 74.375 229.7031 73.7188 230.0312 73.3438 C231.9219 71.3125 232.5312 70.4688 232.5312 69.3594 C232.5312 68.0156 231.7812 67.0781 230.1562 67.0781 C228.9062 67.0781 227.7969 67.7031 227.5938 68.9688 C227.7188 69.2031 227.9062 69.3438 228.1562 69.3438 C228.4688 69.3438 228.6562 69.1094 228.7969 68.5938 L229.0938 67.6719 C229.3906 67.5938 229.6562 67.5625 229.8906 67.5625 C230.9219 67.5625 231.5469 68.3125 231.5469 69.4219 C231.5469 70.4375 230.9844 71.4219 229.7031 72.9062 C229.125 73.5781 228.3906 74.4375 227.6406 75.2812 L227.6406 76 L232.9219 76 L232.9219 75.0938 L228.4219 75.0938 Z"
      /><rect x="212" y="68" width="8" style="fill:white; stroke:none;" height="8"
      /><path style="stroke:none;" d="M216.9844 73.7031 C216.9375 74.8906 216.1562 75.6562 215.3125 75.6562 C214.2656 75.6562 213.5 74.6875 213.5 72.7188 C213.5 71.2812 214.1562 70.1562 215.3438 70.1562 C216.1406 70.1562 216.7812 70.6875 217.0938 71.6406 L216.9844 73.7031 ZM218.9062 75.2812 C218.7344 75.375 218.5469 75.4219 218.3438 75.4219 C217.9531 75.4219 217.75 75.2188 217.75 74.4219 C217.75 73.4844 217.9688 71.5312 218.1875 69.8281 L218.0312 69.7188 L217.2344 69.9219 L217.1406 70.7969 C216.7812 70.0312 216.1562 69.6562 215.3906 69.6562 C214.0469 69.6562 212.5625 70.8438 212.5625 72.9531 C212.5625 75.0938 213.7188 76.1719 215.1406 76.1719 C216.0156 76.1719 216.6875 75.8125 217.0938 74.9844 C217.2031 75.8594 217.5156 76.1719 218.0156 76.1719 C218.4688 76.1719 218.7969 75.9062 219.0156 75.5625 L218.9062 75.2812 Z"
      /><rect x="279" y="67" width="6" style="fill:white; stroke:none;" height="9"
      /><path style="stroke:none;" d="M280.4219 75.0938 C281.0781 74.375 281.7031 73.7188 282.0312 73.3438 C283.9219 71.3125 284.5312 70.4688 284.5312 69.3594 C284.5312 68.0156 283.7812 67.0781 282.1562 67.0781 C280.9062 67.0781 279.7969 67.7031 279.5938 68.9688 C279.7188 69.2031 279.9062 69.3438 280.1562 69.3438 C280.4688 69.3438 280.6562 69.1094 280.7969 68.5938 L281.0938 67.6719 C281.3906 67.5938 281.6562 67.5625 281.8906 67.5625 C282.9219 67.5625 283.5469 68.3125 283.5469 69.4219 C283.5469 70.4375 282.9844 71.4219 281.7031 72.9062 C281.125 73.5781 280.3906 74.4375 279.6406 75.2812 L279.6406 76 L284.9219 76 L284.9219 75.0938 L280.4219 75.0938 Z"
      /><rect x="264" y="68" width="8" style="fill:white; stroke:none;" height="8"
      /><path style="stroke:none;" d="M268.9844 73.7031 C268.9375 74.8906 268.1562 75.6562 267.3125 75.6562 C266.2656 75.6562 265.5 74.6875 265.5 72.7188 C265.5 71.2812 266.1562 70.1562 267.3438 70.1562 C268.1406 70.1562 268.7812 70.6875 269.0938 71.6406 L268.9844 73.7031 ZM270.9062 75.2812 C270.7344 75.375 270.5469 75.4219 270.3438 75.4219 C269.9531 75.4219 269.75 75.2188 269.75 74.4219 C269.75 73.4844 269.9688 71.5312 270.1875 69.8281 L270.0312 69.7188 L269.2344 69.9219 L269.1406 70.7969 C268.7812 70.0312 268.1562 69.6562 267.3906 69.6562 C266.0469 69.6562 264.5625 70.8438 264.5625 72.9531 C264.5625 75.0938 265.7188 76.1719 267.1406 76.1719 C268.0156 76.1719 268.6875 75.8125 269.0938 74.9844 C269.2031 75.8594 269.5156 76.1719 270.0156 76.1719 C270.4688 76.1719 270.7969 75.9062 271.0156 75.5625 L270.9062 75.2812 Z"
      /><rect x="316" y="68" width="8" style="fill:white; stroke:none;" height="8"
      /><path style="stroke:none;" d="M320.9844 73.7031 C320.9375 74.8906 320.1562 75.6562 319.3125 75.6562 C318.2656 75.6562 317.5 74.6875 317.5 72.7188 C317.5 71.2812 318.1562 70.1562 319.3438 70.1562 C320.1406 70.1562 320.7812 70.6875 321.0938 71.6406 L320.9844 73.7031 ZM322.9062 75.2812 C322.7344 75.375 322.5469 75.4219 322.3438 75.4219 C321.9531 75.4219 321.75 75.2188 321.75 74.4219 C321.75 73.4844 321.9688 71.5312 322.1875 69.8281 L322.0312 69.7188 L321.2344 69.9219 L321.1406 70.7969 C320.7812 70.0312 320.1562 69.6562 319.3906 69.6562 C318.0469 69.6562 316.5625 70.8438 316.5625 72.9531 C316.5625 75.0938 317.7188 76.1719 319.1406 76.1719 C320.0156 76.1719 320.6875 75.8125 321.0938 74.9844 C321.2031 75.8594 321.5156 76.1719 322.0156 76.1719 C322.4688 76.1719 322.7969 75.9062 323.0156 75.5625 L322.9062 75.2812 Z"
    /></g
  ></g
></svg
>
