<?xml version="1.0"?>
<!DOCTYPE svg PUBLIC '-//W3C//DTD SVG 1.0//EN'
          'http://www.w3.org/TR/2001/REC-SVG-20010904/DTD/svg10.dtd'>
<svg xmlns:xlink="http://www.w3.org/1999/xlink" style="fill-opacity:1; color-rendering:auto; color-interpolation:auto; text-rendering:auto; stroke:black; stroke-linecap:square; stroke-miterlimit:10; shape-rendering:auto; stroke-opacity:1; fill:black; stroke-dasharray:none; font-weight:normal; stroke-width:1; font-family:'Dialog'; font-style:normal; stroke-linejoin:miter; font-size:12px; stroke-dashoffset:0; image-rendering:auto;" viewBox="0 0 238 157" xmlns="http://www.w3.org/2000/svg"
><!--Generated by the Batik Graphics2D SVG Generator--><defs id="genericDefs"
  /><g
  ><defs id="defs1"
    ><clipPath clipPathUnits="userSpaceOnUse" id="clipPath1"
      ><path d="M134 67 L156 67 L156 89 L134 89 L134 67 Z"
      /></clipPath
      ><clipPath clipPathUnits="userSpaceOnUse" id="clipPath2"
      ><path d="M82 105 L104 105 L104 127 L82 127 L82 105 Z"
      /></clipPath
      ><clipPath clipPathUnits="userSpaceOnUse" id="clipPath3"
      ><path d="M52 116 C52 122.0751 47.0751 127 41 127 C34.9249 127 30 122.0751 30 116 C30 109.9249 34.9249 105 41 105 C47.0751 105 52 109.9249 52 116 Z"
      /></clipPath
      ><clipPath clipPathUnits="userSpaceOnUse" id="clipPath4"
      ><path d="M82 30 L104 30 L104 52 L82 52 L82 30 Z"
      /></clipPath
      ><clipPath clipPathUnits="userSpaceOnUse" id="clipPath5"
      ><path d="M52 41 C52 47.0751 47.0751 52 41 52 C34.9249 52 30 47.0751 30 41 C30 34.9249 34.9249 30 41 30 C47.0751 30 52 34.9249 52 41 Z"
      /></clipPath
    ></defs
    ><g style="fill:white; text-rendering:optimizeSpeed; stroke:white;"
    ><rect x="0" width="238" height="157" y="0" style="stroke:none;"
      /><polygon style="fill:none; stroke:black;" points=" 197 78 145 78"
      /><path d="M197 67 C191.5 72.5 202.5 83.5 197 89" style="fill:none; stroke:black;"
      /><polygon style="fill:none; stroke:black;" points=" 145 78 93 116"
      /><polygon style="fill:none; stroke:black;" points=" 145 78 93 41"
      /><rect x="134" y="67" width="22" style="clip-path:url(#clipPath1); stroke:none;" height="22"
      /><rect x="134" y="67" width="22" style="clip-path:url(#clipPath1); fill:rgb(255,212,0); stroke:none;" height="22"
      /><rect x="134" y="67" width="22" style="clip-path:url(#clipPath1); fill:none; stroke:black;" height="22"
      /><rect x="134" y="67" width="22" style="fill:none; stroke:black;" height="22"
      /><polygon style="fill:none; stroke:black;" points=" 93 116 41 116"
      /><rect x="82" y="105" width="22" style="clip-path:url(#clipPath2); stroke:none;" height="22"
      /><rect x="82" y="105" width="22" style="clip-path:url(#clipPath2); fill:rgb(0,144,188); stroke:none;" height="22"
      /><rect x="82" y="105" width="22" style="clip-path:url(#clipPath2); fill:none; stroke:black;" height="22"
      /><rect x="82" y="105" width="22" style="fill:none; stroke:black;" height="22"
      /><rect x="85" y="87" width="14" style="stroke:none;" height="10"
    /></g
    ><g style="text-rendering:optimizeSpeed; font-size:14px; font-family:'SansSerif';"
    ><path style="stroke:none;" d="M89.1094 92.5781 C90.3438 92.5781 90.9688 93.4688 90.9688 94.8438 C90.9688 96.25 90.1875 97.1875 89.2188 97.1875 C87.9219 97.1875 87.1562 96.0312 87 93.8906 C87.625 92.9531 88.4531 92.5781 89.1094 92.5781 ZM89.2188 98.1875 C90.8125 98.1875 92.1562 96.8438 92.1562 94.8438 C92.1562 92.7031 91.0469 91.625 89.3125 91.625 C88.5 91.625 87.6094 92.1094 86.9688 92.875 C87.0312 89.6875 88.2188 88.6094 89.625 88.6094 C90.25 88.6094 90.8594 88.9062 91.2656 89.3906 L91.9688 88.5938 C91.4062 87.9844 90.6406 87.5469 89.5781 87.5469 C87.5938 87.5469 85.7812 89.0781 85.7812 93.0938 C85.7812 96.4844 87.2344 98.1875 89.2188 98.1875 ZM97.02 98.1875 C99.1606 98.1875 100.5043 96.8906 100.5043 95.2656 C100.5043 93.75 99.5825 93.0469 98.395 92.5312 L96.9262 91.8906 C96.1293 91.5625 95.2387 91.1875 95.2387 90.1875 C95.2387 89.2656 95.9887 88.6719 97.145 88.6719 C98.0981 88.6719 98.8637 89.0469 99.4887 89.6406 L100.1762 88.8125 C99.4418 88.0625 98.3637 87.5469 97.145 87.5469 C95.2856 87.5469 93.9106 88.6875 93.9106 90.2656 C93.9106 91.7656 95.0512 92.5 96.0043 92.9062 L97.4887 93.5469 C98.4575 93.9844 99.1918 94.3125 99.1918 95.375 C99.1918 96.375 98.3793 97.0469 97.0356 97.0469 C95.9731 97.0469 94.9418 96.5469 94.2075 95.7812 L93.4262 96.6562 C94.3168 97.5938 95.5668 98.1875 97.02 98.1875 Z"
    /></g
    ><g style="fill:white; text-rendering:optimizeSpeed; stroke:white;"
    ><circle r="11" style="clip-path:url(#clipPath3); stroke:none;" cx="41" cy="116"
      /><rect x="30" y="105" width="22" style="clip-path:url(#clipPath3); fill:rgb(255,212,0); stroke:none;" height="22"
      /><rect x="30" y="105" width="22" style="clip-path:url(#clipPath3); fill:none; stroke:black;" height="22"
      /><circle r="11" style="fill:none; stroke:black;" cx="41" cy="116"
      /><rect x="71" width="5" height="10" y="119" style="stroke:none;"
      /><path d="M72.8906 127.6875 C72.4844 127.6875 72.1562 128.0469 72.1562 128.4219 C72.1562 128.8125 72.4844 129.1562 72.8906 129.1562 C73.2969 129.1562 73.6406 128.8125 73.6406 128.4219 C73.6406 128.0469 73.2969 127.6875 72.8906 127.6875 ZM74.4688 121.5781 C74.7188 121.8906 74.875 122.2656 74.8906 122.6562 C74.8906 123.1875 74.625 123.5 74.0312 123.7656 L73.4062 124.0156 C72.6406 124.3125 72.3906 124.5469 72.3906 124.9375 C72.3906 125.1094 72.4531 125.3438 72.5781 125.8125 L72.7344 126.3438 L73.1094 126.3438 L73.0938 125.5312 C73.0938 125.0938 73.2031 124.9688 73.7812 124.7344 L74.2031 124.5625 C75.0312 124.2188 75.4531 123.6875 75.4531 122.8438 C75.4531 121.1562 73.6562 120.1875 72.5 120.0312 C72.1094 120.125 71.9062 120.2969 71.9062 120.6406 C71.9062 120.9375 72.0625 121.1562 72.7188 121.2656 L74.4688 121.5781 Z" style="fill:black; stroke:none;"
      /><rect x="57" width="5" height="10" y="119" style="stroke:none;"
      /><path d="M58.8906 127.6875 C58.4844 127.6875 58.1562 128.0469 58.1562 128.4219 C58.1562 128.8125 58.4844 129.1562 58.8906 129.1562 C59.2969 129.1562 59.6406 128.8125 59.6406 128.4219 C59.6406 128.0469 59.2969 127.6875 58.8906 127.6875 ZM60.4688 121.5781 C60.7188 121.8906 60.875 122.2656 60.8906 122.6562 C60.8906 123.1875 60.625 123.5 60.0312 123.7656 L59.4062 124.0156 C58.6406 124.3125 58.3906 124.5469 58.3906 124.9375 C58.3906 125.1094 58.4531 125.3438 58.5781 125.8125 L58.7344 126.3438 L59.1094 126.3438 L59.0938 125.5312 C59.0938 125.0938 59.2031 124.9688 59.7812 124.7344 L60.2031 124.5625 C61.0312 124.2188 61.4531 123.6875 61.4531 122.8438 C61.4531 121.1562 59.6562 120.1875 58.5 120.0312 C58.1094 120.125 57.9062 120.2969 57.9062 120.6406 C57.9062 120.9375 58.0625 121.1562 58.7188 121.2656 L60.4688 121.5781 Z" style="fill:black; stroke:none;"
      /><polygon style="fill:none; stroke:black;" points=" 93 41 41 41"
      /><rect x="82" y="30" width="22" style="clip-path:url(#clipPath4); stroke:none;" height="22"
      /><rect x="82" y="30" width="22" style="clip-path:url(#clipPath4); fill:rgb(0,144,188); stroke:none;" height="22"
      /><rect x="82" y="30" width="22" style="clip-path:url(#clipPath4); fill:none; stroke:black;" height="22"
      /><rect x="82" y="30" width="22" style="fill:none; stroke:black;" height="22"
      /><circle r="11" style="clip-path:url(#clipPath5); stroke:none;" cx="41" cy="41"
      /><rect x="30" y="30" width="22" style="clip-path:url(#clipPath5); fill:rgb(255,212,0); stroke:none;" height="22"
      /><rect x="30" y="30" width="22" style="clip-path:url(#clipPath5); fill:none; stroke:black;" height="22"
      /><circle r="11" style="fill:none; stroke:black;" cx="41" cy="41"
      /><rect x="71" width="5" height="10" y="44" style="stroke:none;"
      /><path d="M72.8906 52.6875 C72.4844 52.6875 72.1562 53.0469 72.1562 53.4219 C72.1562 53.8125 72.4844 54.1562 72.8906 54.1562 C73.2969 54.1562 73.6406 53.8125 73.6406 53.4219 C73.6406 53.0469 73.2969 52.6875 72.8906 52.6875 ZM74.4688 46.5781 C74.7188 46.8906 74.875 47.2656 74.8906 47.6562 C74.8906 48.1875 74.625 48.5 74.0312 48.7656 L73.4062 49.0156 C72.6406 49.3125 72.3906 49.5469 72.3906 49.9375 C72.3906 50.1094 72.4531 50.3438 72.5781 50.8125 L72.7344 51.3438 L73.1094 51.3438 L73.0938 50.5312 C73.0938 50.0938 73.2031 49.9688 73.7812 49.7344 L74.2031 49.5625 C75.0312 49.2188 75.4531 48.6875 75.4531 47.8438 C75.4531 46.1562 73.6562 45.1875 72.5 45.0312 C72.1094 45.125 71.9062 45.2969 71.9062 45.6406 C71.9062 45.9375 72.0625 46.1562 72.7188 46.2656 L74.4688 46.5781 Z" style="fill:black; stroke:none;"
      /><rect x="57" width="5" height="10" y="44" style="stroke:none;"
      /><path d="M58.8906 52.6875 C58.4844 52.6875 58.1562 53.0469 58.1562 53.4219 C58.1562 53.8125 58.4844 54.1562 58.8906 54.1562 C59.2969 54.1562 59.6406 53.8125 59.6406 53.4219 C59.6406 53.0469 59.2969 52.6875 58.8906 52.6875 ZM60.4688 46.5781 C60.7188 46.8906 60.875 47.2656 60.8906 47.6562 C60.8906 48.1875 60.625 48.5 60.0312 48.7656 L59.4062 49.0156 C58.6406 49.3125 58.3906 49.5469 58.3906 49.9375 C58.3906 50.1094 58.4531 50.3438 58.5781 50.8125 L58.7344 51.3438 L59.1094 51.3438 L59.0938 50.5312 C59.0938 50.0938 59.2031 49.9688 59.7812 49.7344 L60.2031 49.5625 C61.0312 49.2188 61.4531 48.6875 61.4531 47.8438 C61.4531 46.1562 59.6562 45.1875 58.5 45.0312 C58.1094 45.125 57.9062 45.2969 57.9062 45.6406 C57.9062 45.9375 58.0625 46.1562 58.7188 46.2656 L60.4688 46.5781 Z" style="fill:black; stroke:none;"
      /><rect x="129" width="5" height="10" y="92" style="stroke:none;"
      /><path d="M130.8906 100.6875 C130.4844 100.6875 130.1562 101.0469 130.1562 101.4219 C130.1562 101.8125 130.4844 102.1562 130.8906 102.1562 C131.2969 102.1562 131.6406 101.8125 131.6406 101.4219 C131.6406 101.0469 131.2969 100.6875 130.8906 100.6875 ZM132.4688 94.5781 C132.7188 94.8906 132.875 95.2656 132.8906 95.6562 C132.8906 96.1875 132.625 96.5 132.0312 96.7656 L131.4062 97.0156 C130.6406 97.3125 130.3906 97.5469 130.3906 97.9375 C130.3906 98.1094 130.4531 98.3438 130.5781 98.8125 L130.7344 99.3438 L131.1094 99.3438 L131.0938 98.5312 C131.0938 98.0938 131.2031 97.9688 131.7812 97.7344 L132.2031 97.5625 C133.0312 97.2188 133.4531 96.6875 133.4531 95.8438 C133.4531 94.1562 131.6562 93.1875 130.5 93.0312 C130.1094 93.125 129.9062 93.2969 129.9062 93.6406 C129.9062 93.9375 130.0625 94.1562 130.7188 94.2656 L132.4688 94.5781 Z" style="fill:black; stroke:none;"
      /><rect x="112" width="5" height="10" y="104" style="stroke:none;"
      /><path d="M113.8906 112.6875 C113.4844 112.6875 113.1562 113.0469 113.1562 113.4219 C113.1562 113.8125 113.4844 114.1562 113.8906 114.1562 C114.2969 114.1562 114.6406 113.8125 114.6406 113.4219 C114.6406 113.0469 114.2969 112.6875 113.8906 112.6875 ZM115.4688 106.5781 C115.7188 106.8906 115.875 107.2656 115.8906 107.6562 C115.8906 108.1875 115.625 108.5 115.0312 108.7656 L114.4062 109.0156 C113.6406 109.3125 113.3906 109.5469 113.3906 109.9375 C113.3906 110.1094 113.4531 110.3438 113.5781 110.8125 L113.7344 111.3438 L114.1094 111.3438 L114.0938 110.5312 C114.0938 110.0938 114.2031 109.9688 114.7812 109.7344 L115.2031 109.5625 C116.0312 109.2188 116.4531 108.6875 116.4531 107.8438 C116.4531 106.1562 114.6562 105.1875 113.5 105.0312 C113.1094 105.125 112.9062 105.2969 112.9062 105.6406 C112.9062 105.9375 113.0625 106.1562 113.7188 106.2656 L115.4688 106.5781 Z" style="fill:black; stroke:none;"
      /><rect x="120" width="5" height="10" y="67" style="stroke:none;"
      /><path d="M121.8906 75.6875 C121.4844 75.6875 121.1562 76.0469 121.1562 76.4219 C121.1562 76.8125 121.4844 77.1562 121.8906 77.1562 C122.2969 77.1562 122.6406 76.8125 122.6406 76.4219 C122.6406 76.0469 122.2969 75.6875 121.8906 75.6875 ZM123.4688 69.5781 C123.7188 69.8906 123.875 70.2656 123.8906 70.6562 C123.8906 71.1875 123.625 71.5 123.0312 71.7656 L122.4062 72.0156 C121.6406 72.3125 121.3906 72.5469 121.3906 72.9375 C121.3906 73.1094 121.4531 73.3438 121.5781 73.8125 L121.7344 74.3438 L122.1094 74.3438 L122.0938 73.5312 C122.0938 73.0938 122.2031 72.9688 122.7812 72.7344 L123.2031 72.5625 C124.0312 72.2188 124.4531 71.6875 124.4531 70.8438 C124.4531 69.1562 122.6562 68.1875 121.5 68.0312 C121.1094 68.125 120.9062 68.2969 120.9062 68.6406 C120.9062 68.9375 121.0625 69.1562 121.7188 69.2656 L123.4688 69.5781 Z" style="fill:black; stroke:none;"
      /><rect x="103" width="5" height="10" y="54" style="stroke:none;"
      /><path d="M104.8906 62.6875 C104.4844 62.6875 104.1562 63.0469 104.1562 63.4219 C104.1562 63.8125 104.4844 64.1562 104.8906 64.1562 C105.2969 64.1562 105.6406 63.8125 105.6406 63.4219 C105.6406 63.0469 105.2969 62.6875 104.8906 62.6875 ZM106.4688 56.5781 C106.7188 56.8906 106.875 57.2656 106.8906 57.6562 C106.8906 58.1875 106.625 58.5 106.0312 58.7656 L105.4062 59.0156 C104.6406 59.3125 104.3906 59.5469 104.3906 59.9375 C104.3906 60.1094 104.4531 60.3438 104.5781 60.8125 L104.7344 61.3438 L105.1094 61.3438 L105.0938 60.5312 C105.0938 60.0938 105.2031 59.9688 105.7812 59.7344 L106.2031 59.5625 C107.0312 59.2188 107.4531 58.6875 107.4531 57.8438 C107.4531 56.1562 105.6562 55.1875 104.5 55.0312 C104.1094 55.125 103.9062 55.2969 103.9062 55.6406 C103.9062 55.9375 104.0625 56.1562 104.7188 56.2656 L106.4688 56.5781 Z" style="fill:black; stroke:none;"
      /><rect x="161" width="5" height="10" y="81" style="stroke:none;"
      /><path d="M162.8906 89.6875 C162.4844 89.6875 162.1562 90.0469 162.1562 90.4219 C162.1562 90.8125 162.4844 91.1562 162.8906 91.1562 C163.2969 91.1562 163.6406 90.8125 163.6406 90.4219 C163.6406 90.0469 163.2969 89.6875 162.8906 89.6875 ZM164.4688 83.5781 C164.7188 83.8906 164.875 84.2656 164.8906 84.6562 C164.8906 85.1875 164.625 85.5 164.0312 85.7656 L163.4062 86.0156 C162.6406 86.3125 162.3906 86.5469 162.3906 86.9375 C162.3906 87.1094 162.4531 87.3438 162.5781 87.8125 L162.7344 88.3438 L163.1094 88.3438 L163.0938 87.5312 C163.0938 87.0938 163.2031 86.9688 163.7812 86.7344 L164.2031 86.5625 C165.0312 86.2188 165.4531 85.6875 165.4531 84.8438 C165.4531 83.1562 163.6562 82.1875 162.5 82.0312 C162.1094 82.125 161.9062 82.2969 161.9062 82.6406 C161.9062 82.9375 162.0625 83.1562 162.7188 83.2656 L164.4688 83.5781 Z" style="fill:black; stroke:none;"
    /></g
  ></g
></svg
>
