<?xml version="1.0"?>
<!DOCTYPE svg PUBLIC '-//W3C//DTD SVG 1.0//EN'
          'http://www.w3.org/TR/2001/REC-SVG-20010904/DTD/svg10.dtd'>
<svg xmlns:xlink="http://www.w3.org/1999/xlink" style="fill-opacity:1; color-rendering:auto; color-interpolation:auto; text-rendering:auto; stroke:black; stroke-linecap:square; stroke-miterlimit:10; shape-rendering:auto; stroke-opacity:1; fill:black; stroke-dasharray:none; font-weight:normal; stroke-width:1; font-family:'Dialog'; font-style:normal; stroke-linejoin:miter; font-size:12px; stroke-dashoffset:0; image-rendering:auto;" viewBox="0 0 446 238" xmlns="http://www.w3.org/2000/svg"
><!--Generated by the Batik Graphics2D SVG Generator--><defs id="genericDefs"
  /><g
  ><defs id="defs1"
    ><clipPath clipPathUnits="userSpaceOnUse" id="clipPath1"
      ><path d="M342 108 L364 108 L364 130 L342 130 L342 108 Z"
      /></clipPath
      ><clipPath clipPathUnits="userSpaceOnUse" id="clipPath2"
      ><path d="M290 108 L312 108 L312 130 L290 130 L290 108 Z"
      /></clipPath
      ><clipPath clipPathUnits="userSpaceOnUse" id="clipPath3"
      ><path d="M260 119 C260 125.0751 255.0751 130 249 130 C242.9249 130 238 125.0751 238 119 C238 112.9249 242.9249 108 249 108 C255.0751 108 260 112.9249 260 119 Z"
      /></clipPath
      ><clipPath clipPathUnits="userSpaceOnUse" id="clipPath4"
      ><path d="M208 171 C208 177.0751 203.0751 182 197 182 C190.9249 182 186 177.0751 186 171 C186 164.9249 190.9249 160 197 160 C203.0751 160 208 164.9249 208 171 Z"
      /></clipPath
      ><clipPath clipPathUnits="userSpaceOnUse" id="clipPath5"
      ><path d="M134 186 L156 186 L156 208 L134 208 L134 186 Z"
      /></clipPath
      ><clipPath clipPathUnits="userSpaceOnUse" id="clipPath6"
      ><path d="M104 197 C104 203.0751 99.0751 208 93 208 C86.9249 208 82 203.0751 82 197 C82 190.9249 86.9249 186 93 186 C99.0751 186 104 190.9249 104 197 Z"
      /></clipPath
      ><clipPath clipPathUnits="userSpaceOnUse" id="clipPath7"
      ><path style="fill-rule:evenodd;" d="M41 186 L52 197 L41 208 L30 197 Z"
      /></clipPath
      ><clipPath clipPathUnits="userSpaceOnUse" id="clipPath8"
      ><path d="M134 134 L156 134 L156 156 L134 156 L134 134 Z"
      /></clipPath
      ><clipPath clipPathUnits="userSpaceOnUse" id="clipPath9"
      ><path d="M104 145 C104 151.0751 99.0751 156 93 156 C86.9249 156 82 151.0751 82 145 C82 138.9249 86.9249 134 93 134 C99.0751 134 104 138.9249 104 145 Z"
      /></clipPath
      ><clipPath clipPathUnits="userSpaceOnUse" id="clipPath10"
      ><path style="fill-rule:evenodd;" d="M41 134 L52 145 L41 156 L30 145 Z"
      /></clipPath
      ><clipPath clipPathUnits="userSpaceOnUse" id="clipPath11"
      ><path d="M208 67 C208 73.0751 203.0751 78 197 78 C190.9249 78 186 73.0751 186 67 C186 60.9249 190.9249 56 197 56 C203.0751 56 208 60.9249 208 67 Z"
      /></clipPath
      ><clipPath clipPathUnits="userSpaceOnUse" id="clipPath12"
      ><path d="M134 82 L156 82 L156 104 L134 104 L134 82 Z"
      /></clipPath
      ><clipPath clipPathUnits="userSpaceOnUse" id="clipPath13"
      ><path d="M104 93 C104 99.0751 99.0751 104 93 104 C86.9249 104 82 99.0751 82 93 C82 86.9249 86.9249 82 93 82 C99.0751 82 104 86.9249 104 93 Z"
      /></clipPath
      ><clipPath clipPathUnits="userSpaceOnUse" id="clipPath14"
      ><path style="fill-rule:evenodd;" d="M41 82 L52 93 L41 104 L30 93 Z"
      /></clipPath
      ><clipPath clipPathUnits="userSpaceOnUse" id="clipPath15"
      ><path d="M134 30 L156 30 L156 52 L134 52 L134 30 Z"
      /></clipPath
      ><clipPath clipPathUnits="userSpaceOnUse" id="clipPath16"
      ><path style="fill-rule:evenodd;" d="M353 78 L342 56 L364 56 Z"
      /></clipPath
    ></defs
    ><g style="fill:white; text-rendering:optimizeSpeed; stroke:white;"
    ><rect x="0" width="446" height="238" y="0" style="stroke:none;"
      /><polygon style="fill:none; stroke:black;" points=" 405 119 353 119"
      /><path d="M405 108 C399.5 113.5 410.5 124.5 405 130" style="fill:none; stroke:black;"
      /><polygon style="fill:none; stroke:black;" points=" 353 119 301 119"
      /><polygon style="fill:none; stroke:black;" points=" 353 119 353 67"
      /><rect x="342" y="108" width="22" style="clip-path:url(#clipPath1); stroke:none;" height="22"
      /><rect x="342" y="108" width="22" style="clip-path:url(#clipPath1); fill:rgb(0,144,188); stroke:none;" height="22"
      /><rect x="342" y="108" width="22" style="clip-path:url(#clipPath1); fill:none; stroke:black;" height="22"
      /><rect x="342" y="108" width="22" style="fill:none; stroke:black;" height="22"
      /><polygon style="fill:none; stroke:black;" points=" 301 119 249 119"
      /><rect x="290" y="108" width="22" style="clip-path:url(#clipPath2); stroke:none;" height="22"
      /><rect x="290" y="108" width="22" style="clip-path:url(#clipPath2); fill:rgb(0,144,188); stroke:none;" height="22"
      /><rect x="290" y="108" width="22" style="clip-path:url(#clipPath2); fill:none; stroke:black;" height="22"
      /><rect x="290" y="108" width="22" style="fill:none; stroke:black;" height="22"
      /><polygon style="fill:none; stroke:black;" points=" 249 119 197 171"
      /><polygon style="fill:none; stroke:black;" points=" 249 119 197 67"
      /><circle style="clip-path:url(#clipPath3); stroke:none;" r="11" cx="249" cy="119"
      /><rect x="238" y="108" width="22" style="clip-path:url(#clipPath3); fill:rgb(0,166,81); stroke:none;" height="22"
      /><rect x="238" y="108" width="22" style="clip-path:url(#clipPath3); fill:none; stroke:black;" height="22"
      /><circle style="fill:none; stroke:black;" r="11" cx="249" cy="119"
      /><polygon style="fill:none; stroke:black;" points=" 197 171 145 197"
      /><polygon style="fill:none; stroke:black;" points=" 197 171 145 145"
      /><circle style="clip-path:url(#clipPath4); stroke:none;" r="11" cx="197" cy="171"
      /><rect x="186" y="160" width="22" style="clip-path:url(#clipPath4); fill:rgb(0,166,81); stroke:none;" height="22"
      /><rect x="186" y="160" width="22" style="clip-path:url(#clipPath4); fill:none; stroke:black;" height="22"
      /><circle style="fill:none; stroke:black;" r="11" cx="197" cy="171"
      /><polygon style="fill:none; stroke:black;" points=" 145 197 93 197"
      /><rect x="134" y="186" width="22" style="clip-path:url(#clipPath5); stroke:none;" height="22"
      /><rect x="134" y="186" width="22" style="clip-path:url(#clipPath5); fill:rgb(0,166,81); stroke:none;" height="22"
      /><rect x="134" y="186" width="22" style="clip-path:url(#clipPath5); fill:none; stroke:black;" height="22"
      /><rect x="134" y="186" width="22" style="fill:none; stroke:black;" height="22"
      /><polygon style="fill:none; stroke:black;" points=" 93 197 41 197"
      /><circle style="clip-path:url(#clipPath6); stroke:none;" r="11" cx="93" cy="197"
      /><rect x="82" y="186" width="22" style="clip-path:url(#clipPath6); fill:rgb(255,212,0); stroke:none;" height="22"
      /><rect x="82" y="186" width="22" style="clip-path:url(#clipPath6); fill:none; stroke:black;" height="22"
      /><circle style="fill:none; stroke:black;" r="11" cx="93" cy="197"
      /><polygon style="clip-path:url(#clipPath7); stroke:none;" points=" 41 186 52 197 41 208 30 197"
      /><rect x="30" y="186" width="22" style="clip-path:url(#clipPath7); fill:rgb(165,67,153); stroke:none;" height="22"
      /><rect x="30" y="186" width="22" style="clip-path:url(#clipPath7); fill:none; stroke:black;" height="22"
      /><polygon style="fill:none; stroke:black;" points=" 41 186 52 197 41 208 30 197"
      /><rect x="71" y="200" width="6" style="stroke:none;" height="10"
    /></g
    ><g style="font-family:'Serif'; text-rendering:optimizeSpeed; "
    ><path style="stroke:none;" d="M73.2344 201.6562 C73.5156 201.5938 73.7656 201.5625 74.0156 201.5625 C75.0625 201.5625 75.6719 202.1719 75.6719 203.2656 C75.6719 204.4375 74.9062 205.1094 73.7031 205.1094 L73.1875 205.1094 L73.1875 205.6406 L73.7969 205.6406 C75.2188 205.6406 75.9062 206.4219 75.9062 207.6406 C75.9062 208.8438 75.1719 209.6875 73.875 209.6875 C73.6094 209.6875 73.3125 209.6562 73.0156 209.5625 L72.7812 208.8125 C72.625 208.2812 72.5 208.0469 72.1406 208.0469 C71.8906 208.0469 71.7031 208.1719 71.5781 208.4219 C71.8438 209.6406 72.7812 210.1719 74.0312 210.1719 C75.7188 210.1719 76.875 209.125 76.875 207.7031 C76.875 206.5 76.2031 205.625 74.7969 205.375 C75.9531 205.0156 76.6094 204.2031 76.6094 203.2031 C76.6094 201.9219 75.6719 201.0781 74.1875 201.0781 C73.0469 201.0781 72.0625 201.5938 71.7969 202.6875 C71.9062 203 72.1094 203.1094 72.3594 203.1094 C72.7344 203.1094 72.8906 202.8906 73 202.4062 L73.2344 201.6562 Z"
      /><rect x="56" y="201" width="8" style="fill:white; stroke:none;" height="8"
      /><path style="stroke:none;" d="M60.9844 206.7031 C60.9375 207.8906 60.1562 208.6562 59.3125 208.6562 C58.2656 208.6562 57.5 207.6875 57.5 205.7188 C57.5 204.2812 58.1562 203.1562 59.3438 203.1562 C60.1406 203.1562 60.7812 203.6875 61.0938 204.6406 L60.9844 206.7031 ZM62.9062 208.2812 C62.7344 208.375 62.5469 208.4219 62.3438 208.4219 C61.9531 208.4219 61.75 208.2188 61.75 207.4219 C61.75 206.4844 61.9688 204.5312 62.1875 202.8281 L62.0312 202.7188 L61.2344 202.9219 L61.1406 203.7969 C60.7812 203.0312 60.1562 202.6562 59.3906 202.6562 C58.0469 202.6562 56.5625 203.8438 56.5625 205.9531 C56.5625 208.0938 57.7188 209.1719 59.1406 209.1719 C60.0156 209.1719 60.6875 208.8125 61.0938 207.9844 C61.2031 208.8594 61.5156 209.1719 62.0156 209.1719 C62.4688 209.1719 62.7969 208.9062 63.0156 208.5625 L62.9062 208.2812 Z"
      /><rect x="123" y="200" width="6" style="fill:white; stroke:none;" height="10"
      /><path style="stroke:none;" d="M125.2344 201.6562 C125.5156 201.5938 125.7656 201.5625 126.0156 201.5625 C127.0625 201.5625 127.6719 202.1719 127.6719 203.2656 C127.6719 204.4375 126.9062 205.1094 125.7031 205.1094 L125.1875 205.1094 L125.1875 205.6406 L125.7969 205.6406 C127.2188 205.6406 127.9062 206.4219 127.9062 207.6406 C127.9062 208.8438 127.1719 209.6875 125.875 209.6875 C125.6094 209.6875 125.3125 209.6562 125.0156 209.5625 L124.7812 208.8125 C124.625 208.2812 124.5 208.0469 124.1406 208.0469 C123.8906 208.0469 123.7031 208.1719 123.5781 208.4219 C123.8438 209.6406 124.7812 210.1719 126.0312 210.1719 C127.7188 210.1719 128.875 209.125 128.875 207.7031 C128.875 206.5 128.2031 205.625 126.7969 205.375 C127.9531 205.0156 128.6094 204.2031 128.6094 203.2031 C128.6094 201.9219 127.6719 201.0781 126.1875 201.0781 C125.0469 201.0781 124.0625 201.5938 123.7969 202.6875 C123.9062 203 124.1094 203.1094 124.3594 203.1094 C124.7344 203.1094 124.8906 202.8906 125 202.4062 L125.2344 201.6562 Z"
      /><rect x="109" y="198" width="6" style="fill:white; stroke:none;" height="13"
      /><path style="stroke:none;" d="M111.0938 204.2031 C111.0938 202.6562 111.75 201.8125 112.7969 201.8125 C113.7188 201.8125 114.2656 202.4531 114.2656 203.5156 C114.2656 204.7188 113.5 205.4375 112.1875 205.7031 L112.2969 206.3125 C114.2188 206.2344 114.9375 207.2188 114.9375 208.4375 C114.9375 209.625 114.2344 210.4219 112.9531 210.4219 C112.25 210.4219 111.6562 210.1562 111.0938 209.7188 L111.0938 204.2031 ZM110.2031 210.9062 L110.1094 213.375 L110.2656 213.4844 L111.1562 213.2656 L111.0156 210.0938 C111.5469 210.8438 112.3594 211.1719 113.1719 211.1719 C114.5625 211.1719 115.8594 210.2188 115.8594 208.4844 C115.8594 206.9531 114.875 206.1094 113.125 206 C114.5625 205.6094 115.1875 204.4531 115.1875 203.4844 C115.1875 202.0938 114.1562 201.3125 112.9062 201.3125 C111.2969 201.3125 110.2188 202.5469 110.2188 204.5156 L110.2031 210.9062 Z"
      /><polygon style="fill:none;" points=" 145 145 93 145"
      /><rect x="134" y="134" width="22" style="clip-path:url(#clipPath8); fill:white; stroke:none;" height="22"
      /><rect x="134" y="134" width="22" style="clip-path:url(#clipPath8); fill:rgb(0,144,188); stroke:none;" height="22"
      /><rect x="134" y="134" width="22" style="fill:none; clip-path:url(#clipPath8);" height="22"
      /><rect x="134" width="22" height="22" y="134" style="fill:none;"
      /><polygon style="fill:none;" points=" 93 145 41 145"
      /><circle style="fill:white; clip-path:url(#clipPath9); stroke:none;" r="11" cx="93" cy="145"
      /><rect x="82" y="134" width="22" style="clip-path:url(#clipPath9); fill:rgb(255,212,0); stroke:none;" height="22"
      /><rect x="82" y="134" width="22" style="fill:none; clip-path:url(#clipPath9);" height="22"
      /><circle r="11" style="fill:none;" cx="93" cy="145"
      /><polygon style="fill:white; clip-path:url(#clipPath10); stroke:none;" points=" 41 134 52 145 41 156 30 145"
      /><rect x="30" y="134" width="22" style="clip-path:url(#clipPath10); fill:rgb(165,67,153); stroke:none;" height="22"
      /><rect x="30" y="134" width="22" style="fill:none; clip-path:url(#clipPath10);" height="22"
      /><polygon style="fill:none;" points=" 41 134 52 145 41 156 30 145"
      /><rect x="71" y="148" width="6" style="fill:white; stroke:none;" height="10"
      /><path style="stroke:none;" d="M73.2344 149.6562 C73.5156 149.5938 73.7656 149.5625 74.0156 149.5625 C75.0625 149.5625 75.6719 150.1719 75.6719 151.2656 C75.6719 152.4375 74.9062 153.1094 73.7031 153.1094 L73.1875 153.1094 L73.1875 153.6406 L73.7969 153.6406 C75.2188 153.6406 75.9062 154.4219 75.9062 155.6406 C75.9062 156.8438 75.1719 157.6875 73.875 157.6875 C73.6094 157.6875 73.3125 157.6562 73.0156 157.5625 L72.7812 156.8125 C72.625 156.2812 72.5 156.0469 72.1406 156.0469 C71.8906 156.0469 71.7031 156.1719 71.5781 156.4219 C71.8438 157.6406 72.7812 158.1719 74.0312 158.1719 C75.7188 158.1719 76.875 157.125 76.875 155.7031 C76.875 154.5 76.2031 153.625 74.7969 153.375 C75.9531 153.0156 76.6094 152.2031 76.6094 151.2031 C76.6094 149.9219 75.6719 149.0781 74.1875 149.0781 C73.0469 149.0781 72.0625 149.5938 71.7969 150.6875 C71.9062 151 72.1094 151.1094 72.3594 151.1094 C72.7344 151.1094 72.8906 150.8906 73 150.4062 L73.2344 149.6562 Z"
      /><rect x="56" y="149" width="8" style="fill:white; stroke:none;" height="8"
      /><path style="stroke:none;" d="M60.9844 154.7031 C60.9375 155.8906 60.1562 156.6562 59.3125 156.6562 C58.2656 156.6562 57.5 155.6875 57.5 153.7188 C57.5 152.2812 58.1562 151.1562 59.3438 151.1562 C60.1406 151.1562 60.7812 151.6875 61.0938 152.6406 L60.9844 154.7031 ZM62.9062 156.2812 C62.7344 156.375 62.5469 156.4219 62.3438 156.4219 C61.9531 156.4219 61.75 156.2188 61.75 155.4219 C61.75 154.4844 61.9688 152.5312 62.1875 150.8281 L62.0312 150.7188 L61.2344 150.9219 L61.1406 151.7969 C60.7812 151.0312 60.1562 150.6562 59.3906 150.6562 C58.0469 150.6562 56.5625 151.8438 56.5625 153.9531 C56.5625 156.0938 57.7188 157.1719 59.1406 157.1719 C60.0156 157.1719 60.6875 156.8125 61.0938 155.9844 C61.2031 156.8594 61.5156 157.1719 62.0156 157.1719 C62.4688 157.1719 62.7969 156.9062 63.0156 156.5625 L62.9062 156.2812 Z"
      /><rect x="123" y="148" width="6" style="fill:white; stroke:none;" height="10"
      /><path style="stroke:none;" d="M125.2344 149.6562 C125.5156 149.5938 125.7656 149.5625 126.0156 149.5625 C127.0625 149.5625 127.6719 150.1719 127.6719 151.2656 C127.6719 152.4375 126.9062 153.1094 125.7031 153.1094 L125.1875 153.1094 L125.1875 153.6406 L125.7969 153.6406 C127.2188 153.6406 127.9062 154.4219 127.9062 155.6406 C127.9062 156.8438 127.1719 157.6875 125.875 157.6875 C125.6094 157.6875 125.3125 157.6562 125.0156 157.5625 L124.7812 156.8125 C124.625 156.2812 124.5 156.0469 124.1406 156.0469 C123.8906 156.0469 123.7031 156.1719 123.5781 156.4219 C123.8438 157.6406 124.7812 158.1719 126.0312 158.1719 C127.7188 158.1719 128.875 157.125 128.875 155.7031 C128.875 154.5 128.2031 153.625 126.7969 153.375 C127.9531 153.0156 128.6094 152.2031 128.6094 151.2031 C128.6094 149.9219 127.6719 149.0781 126.1875 149.0781 C125.0469 149.0781 124.0625 149.5938 123.7969 150.6875 C123.9062 151 124.1094 151.1094 124.3594 151.1094 C124.7344 151.1094 124.8906 150.8906 125 150.4062 L125.2344 149.6562 Z"
      /><rect x="109" y="146" width="6" style="fill:white; stroke:none;" height="13"
      /><path style="stroke:none;" d="M111.0938 152.2031 C111.0938 150.6562 111.75 149.8125 112.7969 149.8125 C113.7188 149.8125 114.2656 150.4531 114.2656 151.5156 C114.2656 152.7188 113.5 153.4375 112.1875 153.7031 L112.2969 154.3125 C114.2188 154.2344 114.9375 155.2188 114.9375 156.4375 C114.9375 157.625 114.2344 158.4219 112.9531 158.4219 C112.25 158.4219 111.6562 158.1562 111.0938 157.7188 L111.0938 152.2031 ZM110.2031 158.9062 L110.1094 161.375 L110.2656 161.4844 L111.1562 161.2656 L111.0156 158.0938 C111.5469 158.8438 112.3594 159.1719 113.1719 159.1719 C114.5625 159.1719 115.8594 158.2188 115.8594 156.4844 C115.8594 154.9531 114.875 154.1094 113.125 154 C114.5625 153.6094 115.1875 152.4531 115.1875 151.4844 C115.1875 150.0938 114.1562 149.3125 112.9062 149.3125 C111.2969 149.3125 110.2188 150.5469 110.2188 152.5156 L110.2031 158.9062 Z"
      /><rect x="179" y="182" width="6" style="fill:white; stroke:none;" height="9"
      /><path style="stroke:none;" d="M180.4219 190.0938 C181.0781 189.375 181.7031 188.7188 182.0312 188.3438 C183.9219 186.3125 184.5312 185.4688 184.5312 184.3594 C184.5312 183.0156 183.7812 182.0781 182.1562 182.0781 C180.9062 182.0781 179.7969 182.7031 179.5938 183.9688 C179.7188 184.2031 179.9062 184.3438 180.1562 184.3438 C180.4688 184.3438 180.6562 184.1094 180.7969 183.5938 L181.0938 182.6719 C181.3906 182.5938 181.6562 182.5625 181.8906 182.5625 C182.9219 182.5625 183.5469 183.3125 183.5469 184.4219 C183.5469 185.4375 182.9844 186.4219 181.7031 187.9062 C181.125 188.5781 180.3906 189.4375 179.6406 190.2812 L179.6406 191 L184.9219 191 L184.9219 190.0938 L180.4219 190.0938 Z"
      /><rect x="163" y="188" width="6" style="fill:white; stroke:none;" height="13"
      /><path style="stroke:none;" d="M165.0938 194.2031 C165.0938 192.6562 165.75 191.8125 166.7969 191.8125 C167.7188 191.8125 168.2656 192.4531 168.2656 193.5156 C168.2656 194.7188 167.5 195.4375 166.1875 195.7031 L166.2969 196.3125 C168.2188 196.2344 168.9375 197.2188 168.9375 198.4375 C168.9375 199.625 168.2344 200.4219 166.9531 200.4219 C166.25 200.4219 165.6562 200.1562 165.0938 199.7188 L165.0938 194.2031 ZM164.2031 200.9062 L164.1094 203.375 L164.2656 203.4844 L165.1562 203.2656 L165.0156 200.0938 C165.5469 200.8438 166.3594 201.1719 167.1719 201.1719 C168.5625 201.1719 169.8594 200.2188 169.8594 198.4844 C169.8594 196.9531 168.875 196.1094 167.125 196 C168.5625 195.6094 169.1875 194.4531 169.1875 193.4844 C169.1875 192.0938 168.1562 191.3125 166.9062 191.3125 C165.2969 191.3125 164.2188 192.5469 164.2188 194.5156 L164.2031 200.9062 Z"
      /><rect x="171" y="164" width="7" style="fill:white; stroke:none;" height="9"
      /><path style="stroke:none;" d="M172 169.5156 L174.9531 165.2656 L174.9531 169.5156 L172 169.5156 ZM177.2812 169.5156 L175.8594 169.5156 L175.8594 164.125 L175.2344 164.125 L171.3438 169.6406 L171.3438 170.1875 L174.9531 170.1875 L174.9531 173 L175.8594 173 L175.8594 170.1875 L177.2812 170.1875 L177.2812 169.5156 Z"
      /><rect x="156" y="154" width="6" style="fill:white; stroke:none;" height="13"
      /><path style="stroke:none;" d="M158.0938 160.2031 C158.0938 158.6562 158.75 157.8125 159.7969 157.8125 C160.7188 157.8125 161.2656 158.4531 161.2656 159.5156 C161.2656 160.7188 160.5 161.4375 159.1875 161.7031 L159.2969 162.3125 C161.2188 162.2344 161.9375 163.2188 161.9375 164.4375 C161.9375 165.625 161.2344 166.4219 159.9531 166.4219 C159.25 166.4219 158.6562 166.1562 158.0938 165.7188 L158.0938 160.2031 ZM157.2031 166.9062 L157.1094 169.375 L157.2656 169.4844 L158.1562 169.2656 L158.0156 166.0938 C158.5469 166.8438 159.3594 167.1719 160.1719 167.1719 C161.5625 167.1719 162.8594 166.2188 162.8594 164.4844 C162.8594 162.9531 161.875 162.1094 160.125 162 C161.5625 161.6094 162.1875 160.4531 162.1875 159.4844 C162.1875 158.0938 161.1562 157.3125 159.9062 157.3125 C158.2969 157.3125 157.2188 158.5469 157.2188 160.5156 L157.2031 166.9062 Z"
      /><polygon style="fill:none;" points=" 197 67 145 93"
      /><polygon style="fill:none;" points=" 197 67 145 41"
      /><circle style="fill:white; clip-path:url(#clipPath11); stroke:none;" r="11" cx="197" cy="67"
      /><rect x="186" y="56" width="22" style="clip-path:url(#clipPath11); fill:rgb(0,166,81); stroke:none;" height="22"
      /><rect x="186" y="56" width="22" style="fill:none; clip-path:url(#clipPath11);" height="22"
      /><circle r="11" style="fill:none;" cx="197" cy="67"
      /><polygon style="fill:none;" points=" 145 93 93 93"
      /><rect x="134" y="82" width="22" style="clip-path:url(#clipPath12); fill:white; stroke:none;" height="22"
      /><rect x="134" y="82" width="22" style="clip-path:url(#clipPath12); fill:rgb(0,144,188); stroke:none;" height="22"
      /><rect x="134" y="82" width="22" style="fill:none; clip-path:url(#clipPath12);" height="22"
      /><rect x="134" width="22" height="22" y="82" style="fill:none;"
      /><polygon style="fill:none;" points=" 93 93 41 93"
      /><circle style="fill:white; clip-path:url(#clipPath13); stroke:none;" r="11" cx="93" cy="93"
      /><rect x="82" y="82" width="22" style="clip-path:url(#clipPath13); fill:rgb(255,212,0); stroke:none;" height="22"
      /><rect x="82" y="82" width="22" style="fill:none; clip-path:url(#clipPath13);" height="22"
      /><circle r="11" style="fill:none;" cx="93" cy="93"
      /><polygon style="fill:white; clip-path:url(#clipPath14); stroke:none;" points=" 41 82 52 93 41 104 30 93"
      /><rect x="30" y="82" width="22" style="clip-path:url(#clipPath14); fill:rgb(165,67,153); stroke:none;" height="22"
      /><rect x="30" y="82" width="22" style="fill:none; clip-path:url(#clipPath14);" height="22"
      /><polygon style="fill:none;" points=" 41 82 52 93 41 104 30 93"
      /><rect x="71" y="96" width="6" style="fill:white; stroke:none;" height="10"
      /><path style="stroke:none;" d="M73.2344 97.6562 C73.5156 97.5938 73.7656 97.5625 74.0156 97.5625 C75.0625 97.5625 75.6719 98.1719 75.6719 99.2656 C75.6719 100.4375 74.9062 101.1094 73.7031 101.1094 L73.1875 101.1094 L73.1875 101.6406 L73.7969 101.6406 C75.2188 101.6406 75.9062 102.4219 75.9062 103.6406 C75.9062 104.8438 75.1719 105.6875 73.875 105.6875 C73.6094 105.6875 73.3125 105.6562 73.0156 105.5625 L72.7812 104.8125 C72.625 104.2812 72.5 104.0469 72.1406 104.0469 C71.8906 104.0469 71.7031 104.1719 71.5781 104.4219 C71.8438 105.6406 72.7812 106.1719 74.0312 106.1719 C75.7188 106.1719 76.875 105.125 76.875 103.7031 C76.875 102.5 76.2031 101.625 74.7969 101.375 C75.9531 101.0156 76.6094 100.2031 76.6094 99.2031 C76.6094 97.9219 75.6719 97.0781 74.1875 97.0781 C73.0469 97.0781 72.0625 97.5938 71.7969 98.6875 C71.9062 99 72.1094 99.1094 72.3594 99.1094 C72.7344 99.1094 72.8906 98.8906 73 98.4062 L73.2344 97.6562 Z"
      /><rect x="56" y="97" width="8" style="fill:white; stroke:none;" height="8"
      /><path style="stroke:none;" d="M60.9844 102.7031 C60.9375 103.8906 60.1562 104.6562 59.3125 104.6562 C58.2656 104.6562 57.5 103.6875 57.5 101.7188 C57.5 100.2812 58.1562 99.1562 59.3438 99.1562 C60.1406 99.1562 60.7812 99.6875 61.0938 100.6406 L60.9844 102.7031 ZM62.9062 104.2812 C62.7344 104.375 62.5469 104.4219 62.3438 104.4219 C61.9531 104.4219 61.75 104.2188 61.75 103.4219 C61.75 102.4844 61.9688 100.5312 62.1875 98.8281 L62.0312 98.7188 L61.2344 98.9219 L61.1406 99.7969 C60.7812 99.0312 60.1562 98.6562 59.3906 98.6562 C58.0469 98.6562 56.5625 99.8438 56.5625 101.9531 C56.5625 104.0938 57.7188 105.1719 59.1406 105.1719 C60.0156 105.1719 60.6875 104.8125 61.0938 103.9844 C61.2031 104.8594 61.5156 105.1719 62.0156 105.1719 C62.4688 105.1719 62.7969 104.9062 63.0156 104.5625 L62.9062 104.2812 Z"
      /><rect x="123" y="96" width="6" style="fill:white; stroke:none;" height="10"
      /><path style="stroke:none;" d="M125.2344 97.6562 C125.5156 97.5938 125.7656 97.5625 126.0156 97.5625 C127.0625 97.5625 127.6719 98.1719 127.6719 99.2656 C127.6719 100.4375 126.9062 101.1094 125.7031 101.1094 L125.1875 101.1094 L125.1875 101.6406 L125.7969 101.6406 C127.2188 101.6406 127.9062 102.4219 127.9062 103.6406 C127.9062 104.8438 127.1719 105.6875 125.875 105.6875 C125.6094 105.6875 125.3125 105.6562 125.0156 105.5625 L124.7812 104.8125 C124.625 104.2812 124.5 104.0469 124.1406 104.0469 C123.8906 104.0469 123.7031 104.1719 123.5781 104.4219 C123.8438 105.6406 124.7812 106.1719 126.0312 106.1719 C127.7188 106.1719 128.875 105.125 128.875 103.7031 C128.875 102.5 128.2031 101.625 126.7969 101.375 C127.9531 101.0156 128.6094 100.2031 128.6094 99.2031 C128.6094 97.9219 127.6719 97.0781 126.1875 97.0781 C125.0469 97.0781 124.0625 97.5938 123.7969 98.6875 C123.9062 99 124.1094 99.1094 124.3594 99.1094 C124.7344 99.1094 124.8906 98.8906 125 98.4062 L125.2344 97.6562 Z"
      /><rect x="109" y="94" width="6" style="fill:white; stroke:none;" height="13"
      /><path style="stroke:none;" d="M111.0938 100.2031 C111.0938 98.6562 111.75 97.8125 112.7969 97.8125 C113.7188 97.8125 114.2656 98.4531 114.2656 99.5156 C114.2656 100.7188 113.5 101.4375 112.1875 101.7031 L112.2969 102.3125 C114.2188 102.2344 114.9375 103.2188 114.9375 104.4375 C114.9375 105.625 114.2344 106.4219 112.9531 106.4219 C112.25 106.4219 111.6562 106.1562 111.0938 105.7188 L111.0938 100.2031 ZM110.2031 106.9062 L110.1094 109.375 L110.2656 109.4844 L111.1562 109.2656 L111.0156 106.0938 C111.5469 106.8438 112.3594 107.1719 113.1719 107.1719 C114.5625 107.1719 115.8594 106.2188 115.8594 104.4844 C115.8594 102.9531 114.875 102.1094 113.125 102 C114.5625 101.6094 115.1875 100.4531 115.1875 99.4844 C115.1875 98.0938 114.1562 97.3125 112.9062 97.3125 C111.2969 97.3125 110.2188 98.5469 110.2188 100.5156 L110.2031 106.9062 Z"
      /><rect x="134" y="30" width="22" style="clip-path:url(#clipPath15); fill:white; stroke:none;" height="22"
      /><rect x="134" y="30" width="22" style="clip-path:url(#clipPath15); fill:rgb(0,144,188); stroke:none;" height="22"
      /><rect x="134" y="30" width="22" style="fill:none; clip-path:url(#clipPath15);" height="22"
      /><rect x="134" width="22" height="22" y="30" style="fill:none;"
      /><rect x="179" y="78" width="6" style="fill:white; stroke:none;" height="9"
      /><path style="stroke:none;" d="M180.4219 86.0938 C181.0781 85.375 181.7031 84.7188 182.0312 84.3438 C183.9219 82.3125 184.5312 81.4688 184.5312 80.3594 C184.5312 79.0156 183.7812 78.0781 182.1562 78.0781 C180.9062 78.0781 179.7969 78.7031 179.5938 79.9688 C179.7188 80.2031 179.9062 80.3438 180.1562 80.3438 C180.4688 80.3438 180.6562 80.1094 180.7969 79.5938 L181.0938 78.6719 C181.3906 78.5938 181.6562 78.5625 181.8906 78.5625 C182.9219 78.5625 183.5469 79.3125 183.5469 80.4219 C183.5469 81.4375 182.9844 82.4219 181.7031 83.9062 C181.125 84.5781 180.3906 85.4375 179.6406 86.2812 L179.6406 87 L184.9219 87 L184.9219 86.0938 L180.4219 86.0938 Z"
      /><rect x="163" y="84" width="6" style="fill:white; stroke:none;" height="13"
      /><path style="stroke:none;" d="M165.0938 90.2031 C165.0938 88.6562 165.75 87.8125 166.7969 87.8125 C167.7188 87.8125 168.2656 88.4531 168.2656 89.5156 C168.2656 90.7188 167.5 91.4375 166.1875 91.7031 L166.2969 92.3125 C168.2188 92.2344 168.9375 93.2188 168.9375 94.4375 C168.9375 95.625 168.2344 96.4219 166.9531 96.4219 C166.25 96.4219 165.6562 96.1562 165.0938 95.7188 L165.0938 90.2031 ZM164.2031 96.9062 L164.1094 99.375 L164.2656 99.4844 L165.1562 99.2656 L165.0156 96.0938 C165.5469 96.8438 166.3594 97.1719 167.1719 97.1719 C168.5625 97.1719 169.8594 96.2188 169.8594 94.4844 C169.8594 92.9531 168.875 92.1094 167.125 92 C168.5625 91.6094 169.1875 90.4531 169.1875 89.4844 C169.1875 88.0938 168.1562 87.3125 166.9062 87.3125 C165.2969 87.3125 164.2188 88.5469 164.2188 90.5156 L164.2031 96.9062 Z"
      /><rect x="172" y="60" width="6" style="fill:white; stroke:none;" height="10"
      /><path style="stroke:none;" d="M175.3438 69.6875 C174.2031 69.6875 173.5312 68.5 173.5312 66.2969 C173.5312 66.2188 173.5312 66.125 173.5312 66.0469 C174.0938 65.5 174.7188 65.3125 175.3438 65.3125 C176.3125 65.3125 176.9531 65.9844 176.9531 67.4531 C176.9531 68.9375 176.3125 69.6875 175.3438 69.6875 ZM177.5312 61.0781 C174.3438 61.4531 172.5625 63.7656 172.5625 66.4531 C172.5625 68.7812 173.6094 70.1719 175.3125 70.1719 C176.8438 70.1719 177.9219 69.1094 177.9219 67.2812 C177.9219 65.6875 176.9688 64.6562 175.5625 64.6562 C174.8281 64.6562 174.1406 64.9844 173.5781 65.5781 C173.7969 63.4062 175.0781 61.9688 177.5938 61.3906 L177.5312 61.0781 Z"
      /><rect x="156" y="50" width="6" style="fill:white; stroke:none;" height="13"
      /><path style="stroke:none;" d="M158.0938 56.2031 C158.0938 54.6562 158.75 53.8125 159.7969 53.8125 C160.7188 53.8125 161.2656 54.4531 161.2656 55.5156 C161.2656 56.7188 160.5 57.4375 159.1875 57.7031 L159.2969 58.3125 C161.2188 58.2344 161.9375 59.2188 161.9375 60.4375 C161.9375 61.625 161.2344 62.4219 159.9531 62.4219 C159.25 62.4219 158.6562 62.1562 158.0938 61.7188 L158.0938 56.2031 ZM157.2031 62.9062 L157.1094 65.375 L157.2656 65.4844 L158.1562 65.2656 L158.0156 62.0938 C158.5469 62.8438 159.3594 63.1719 160.1719 63.1719 C161.5625 63.1719 162.8594 62.2188 162.8594 60.4844 C162.8594 58.9531 161.875 58.1094 160.125 58 C161.5625 57.6094 162.1875 56.4531 162.1875 55.4844 C162.1875 54.0938 161.1562 53.3125 159.9062 53.3125 C158.2969 53.3125 157.2188 54.5469 157.2188 56.5156 L157.2031 62.9062 Z"
      /><rect x="235" y="136" width="6" style="fill:white; stroke:none;" height="10"
      /><path style="stroke:none;" d="M237.2344 137.6562 C237.5156 137.5938 237.7656 137.5625 238.0156 137.5625 C239.0625 137.5625 239.6719 138.1719 239.6719 139.2656 C239.6719 140.4375 238.9062 141.1094 237.7031 141.1094 L237.1875 141.1094 L237.1875 141.6406 L237.7969 141.6406 C239.2188 141.6406 239.9062 142.4219 239.9062 143.6406 C239.9062 144.8438 239.1719 145.6875 237.875 145.6875 C237.6094 145.6875 237.3125 145.6562 237.0156 145.5625 L236.7812 144.8125 C236.625 144.2812 236.5 144.0469 236.1406 144.0469 C235.8906 144.0469 235.7031 144.1719 235.5781 144.4219 C235.8438 145.6406 236.7812 146.1719 238.0312 146.1719 C239.7188 146.1719 240.875 145.125 240.875 143.7031 C240.875 142.5 240.2031 141.625 238.7969 141.375 C239.9531 141.0156 240.6094 140.2031 240.6094 139.2031 C240.6094 137.9219 239.6719 137.0781 238.1875 137.0781 C237.0469 137.0781 236.0625 137.5938 235.7969 138.6875 C235.9062 139 236.1094 139.1094 236.3594 139.1094 C236.7344 139.1094 236.8906 138.8906 237 138.4062 L237.2344 137.6562 Z"
      /><rect x="215" y="156" width="8" style="fill:white; stroke:none;" height="8"
      /><path style="stroke:none;" d="M219.9844 161.7031 C219.9375 162.8906 219.1562 163.6562 218.3125 163.6562 C217.2656 163.6562 216.5 162.6875 216.5 160.7188 C216.5 159.2812 217.1562 158.1562 218.3438 158.1562 C219.1406 158.1562 219.7812 158.6875 220.0938 159.6406 L219.9844 161.7031 ZM221.9062 163.2812 C221.7344 163.375 221.5469 163.4219 221.3438 163.4219 C220.9531 163.4219 220.75 163.2188 220.75 162.4219 C220.75 161.4844 220.9688 159.5312 221.1875 157.8281 L221.0312 157.7188 L220.2344 157.9219 L220.1406 158.7969 C219.7812 158.0312 219.1562 157.6562 218.3906 157.6562 C217.0469 157.6562 215.5625 158.8438 215.5625 160.9531 C215.5625 163.0938 216.7188 164.1719 218.1406 164.1719 C219.0156 164.1719 219.6875 163.8125 220.0938 162.9844 C220.2031 163.8594 220.5156 164.1719 221.0156 164.1719 C221.4688 164.1719 221.7969 163.9062 222.0156 163.5625 L221.9062 163.2812 Z"
      /><rect x="223" y="103" width="6" style="fill:white; stroke:none;" height="10"
      /><path style="stroke:none;" d="M226.3438 112.6875 C225.2031 112.6875 224.5312 111.5 224.5312 109.2969 C224.5312 109.2188 224.5312 109.125 224.5312 109.0469 C225.0938 108.5 225.7188 108.3125 226.3438 108.3125 C227.3125 108.3125 227.9531 108.9844 227.9531 110.4531 C227.9531 111.9375 227.3125 112.6875 226.3438 112.6875 ZM228.5312 104.0781 C225.3438 104.4531 223.5625 106.7656 223.5625 109.4531 C223.5625 111.7812 224.6094 113.1719 226.3125 113.1719 C227.8438 113.1719 228.9219 112.1094 228.9219 110.2812 C228.9219 108.6875 227.9688 107.6562 226.5625 107.6562 C225.8281 107.6562 225.1406 107.9844 224.5781 108.5781 C224.7969 106.4062 226.0781 104.9688 228.5938 104.3906 L228.5312 104.0781 Z"
      /><rect x="204" y="85" width="8" style="fill:white; stroke:none;" height="8"
      /><path style="stroke:none;" d="M208.9844 90.7031 C208.9375 91.8906 208.1562 92.6562 207.3125 92.6562 C206.2656 92.6562 205.5 91.6875 205.5 89.7188 C205.5 88.2812 206.1562 87.1562 207.3438 87.1562 C208.1406 87.1562 208.7812 87.6875 209.0938 88.6406 L208.9844 90.7031 ZM210.9062 92.2812 C210.7344 92.375 210.5469 92.4219 210.3438 92.4219 C209.9531 92.4219 209.75 92.2188 209.75 91.4219 C209.75 90.4844 209.9688 88.5312 210.1875 86.8281 L210.0312 86.7188 L209.2344 86.9219 L209.1406 87.7969 C208.7812 87.0312 208.1562 86.6562 207.3906 86.6562 C206.0469 86.6562 204.5625 87.8438 204.5625 89.9531 C204.5625 92.0938 205.7188 93.1719 207.1406 93.1719 C208.0156 93.1719 208.6875 92.8125 209.0938 91.9844 C209.2031 92.8594 209.5156 93.1719 210.0156 93.1719 C210.4688 93.1719 210.7969 92.9062 211.0156 92.5625 L210.9062 92.2812 Z"
      /><rect x="278" y="122" width="7" style="fill:white; stroke:none;" height="9"
      /><path style="stroke:none;" d="M279 127.5156 L281.9531 123.2656 L281.9531 127.5156 L279 127.5156 ZM284.2812 127.5156 L282.8594 127.5156 L282.8594 122.125 L282.2344 122.125 L278.3438 127.6406 L278.3438 128.1875 L281.9531 128.1875 L281.9531 131 L282.8594 131 L282.8594 128.1875 L284.2812 128.1875 L284.2812 127.5156 Z"
      /><rect x="265" y="120" width="6" style="fill:white; stroke:none;" height="13"
      /><path style="stroke:none;" d="M267.0938 126.2031 C267.0938 124.6562 267.75 123.8125 268.7969 123.8125 C269.7188 123.8125 270.2656 124.4531 270.2656 125.5156 C270.2656 126.7188 269.5 127.4375 268.1875 127.7031 L268.2969 128.3125 C270.2188 128.2344 270.9375 129.2188 270.9375 130.4375 C270.9375 131.625 270.2344 132.4219 268.9531 132.4219 C268.25 132.4219 267.6562 132.1562 267.0938 131.7188 L267.0938 126.2031 ZM266.2031 132.9062 L266.1094 135.375 L266.2656 135.4844 L267.1562 135.2656 L267.0156 132.0938 C267.5469 132.8438 268.3594 133.1719 269.1719 133.1719 C270.5625 133.1719 271.8594 132.2188 271.8594 130.4844 C271.8594 128.9531 270.875 128.1094 269.125 128 C270.5625 127.6094 271.1875 126.4531 271.1875 125.4844 C271.1875 124.0938 270.1562 123.3125 268.9062 123.3125 C267.2969 123.3125 266.2188 124.5469 266.2188 126.5156 L266.2031 132.9062 Z"
      /><polygon style="fill:white; clip-path:url(#clipPath16); stroke:none;" points=" 353 78 342 56 364 56"
      /><rect x="342" y="56" width="22" style="clip-path:url(#clipPath16); fill:rgb(237,28,36); stroke:none;" height="22"
      /><rect x="342" y="56" width="22" style="fill:none; clip-path:url(#clipPath16);" height="22"
      /><polygon style="fill:none;" points=" 353 78 342 56 364 56"
      /><rect x="330" y="122" width="7" style="fill:white; stroke:none;" height="9"
      /><path style="stroke:none;" d="M331 127.5156 L333.9531 123.2656 L333.9531 127.5156 L331 127.5156 ZM336.2812 127.5156 L334.8594 127.5156 L334.8594 122.125 L334.2344 122.125 L330.3438 127.6406 L330.3438 128.1875 L333.9531 128.1875 L333.9531 131 L334.8594 131 L334.8594 128.1875 L336.2812 128.1875 L336.2812 127.5156 Z"
      /><rect x="317" y="120" width="6" style="fill:white; stroke:none;" height="13"
      /><path style="stroke:none;" d="M319.0938 126.2031 C319.0938 124.6562 319.75 123.8125 320.7969 123.8125 C321.7188 123.8125 322.2656 124.4531 322.2656 125.5156 C322.2656 126.7188 321.5 127.4375 320.1875 127.7031 L320.2969 128.3125 C322.2188 128.2344 322.9375 129.2188 322.9375 130.4375 C322.9375 131.625 322.2344 132.4219 320.9531 132.4219 C320.25 132.4219 319.6562 132.1562 319.0938 131.7188 L319.0938 126.2031 ZM318.2031 132.9062 L318.1094 135.375 L318.2656 135.4844 L319.1562 135.2656 L319.0156 132.0938 C319.5469 132.8438 320.3594 133.1719 321.1719 133.1719 C322.5625 133.1719 323.8594 132.2188 323.8594 130.4844 C323.8594 128.9531 322.875 128.1094 321.125 128 C322.5625 127.6094 323.1875 126.4531 323.1875 125.4844 C323.1875 124.0938 322.1562 123.3125 320.9062 123.3125 C319.2969 123.3125 318.2188 124.5469 318.2188 126.5156 L318.2031 132.9062 Z"
      /><rect x="342" y="95" width="6" style="fill:white; stroke:none;" height="10"
      /><path style="stroke:none;" d="M345.3438 104.6875 C344.2031 104.6875 343.5312 103.5 343.5312 101.2969 C343.5312 101.2188 343.5312 101.125 343.5312 101.0469 C344.0938 100.5 344.7188 100.3125 345.3438 100.3125 C346.3125 100.3125 346.9531 100.9844 346.9531 102.4531 C346.9531 103.9375 346.3125 104.6875 345.3438 104.6875 ZM347.5312 96.0781 C344.3438 96.4531 342.5625 98.7656 342.5625 101.4531 C342.5625 103.7812 343.6094 105.1719 345.3125 105.1719 C346.8438 105.1719 347.9219 104.1094 347.9219 102.2812 C347.9219 100.6875 346.9688 99.6562 345.5625 99.6562 C344.8281 99.6562 344.1406 99.9844 343.5781 100.5781 C343.7969 98.4062 345.0781 96.9688 347.5938 96.3906 L347.5312 96.0781 Z"
      /><rect x="341" y="82" width="8" style="fill:white; stroke:none;" height="8"
      /><path style="stroke:none;" d="M345.9844 87.7031 C345.9375 88.8906 345.1562 89.6562 344.3125 89.6562 C343.2656 89.6562 342.5 88.6875 342.5 86.7188 C342.5 85.2812 343.1562 84.1562 344.3438 84.1562 C345.1406 84.1562 345.7812 84.6875 346.0938 85.6406 L345.9844 87.7031 ZM347.9062 89.2812 C347.7344 89.375 347.5469 89.4219 347.3438 89.4219 C346.9531 89.4219 346.75 89.2188 346.75 88.4219 C346.75 87.4844 346.9688 85.5312 347.1875 83.8281 L347.0312 83.7188 L346.2344 83.9219 L346.1406 84.7969 C345.7812 84.0312 345.1562 83.6562 344.3906 83.6562 C343.0469 83.6562 341.5625 84.8438 341.5625 86.9531 C341.5625 89.0938 342.7188 90.1719 344.1406 90.1719 C345.0156 90.1719 345.6875 89.8125 346.0938 88.9844 C346.2031 89.8594 346.5156 90.1719 347.0156 90.1719 C347.4688 90.1719 347.7969 89.9062 348.0156 89.5625 L347.9062 89.2812 Z"
      /><rect x="369" y="122" width="5" style="fill:white; stroke:none;" height="10"
      /><path style="stroke:none;" d="M370.8906 130.6875 C370.4844 130.6875 370.1562 131.0469 370.1562 131.4219 C370.1562 131.8125 370.4844 132.1562 370.8906 132.1562 C371.2969 132.1562 371.6406 131.8125 371.6406 131.4219 C371.6406 131.0469 371.2969 130.6875 370.8906 130.6875 ZM372.4688 124.5781 C372.7188 124.8906 372.875 125.2656 372.8906 125.6562 C372.8906 126.1875 372.625 126.5 372.0312 126.7656 L371.4062 127.0156 C370.6406 127.3125 370.3906 127.5469 370.3906 127.9375 C370.3906 128.1094 370.4531 128.3438 370.5781 128.8125 L370.7344 129.3438 L371.1094 129.3438 L371.0938 128.5312 C371.0938 128.0938 371.2031 127.9688 371.7812 127.7344 L372.2031 127.5625 C373.0312 127.2188 373.4531 126.6875 373.4531 125.8438 C373.4531 124.1562 371.6562 123.1875 370.5 123.0312 C370.1094 123.125 369.9062 123.2969 369.9062 123.6406 C369.9062 123.9375 370.0625 124.1562 370.7188 124.2656 L372.4688 124.5781 Z"
    /></g
  ></g
></svg
>
