<?xml version="1.0"?>
<!DOCTYPE svg PUBLIC '-//W3C//DTD SVG 1.0//EN'
          'http://www.w3.org/TR/2001/REC-SVG-20010904/DTD/svg10.dtd'>
<svg xmlns:xlink="http://www.w3.org/1999/xlink" style="fill-opacity:1; color-rendering:auto; color-interpolation:auto; text-rendering:auto; stroke:black; stroke-linecap:square; stroke-miterlimit:10; shape-rendering:auto; stroke-opacity:1; fill:black; stroke-dasharray:none; font-weight:normal; stroke-width:1; font-family:'Dialog'; font-style:normal; stroke-linejoin:miter; font-size:12px; stroke-dashoffset:0; image-rendering:auto;" viewBox="0 0 290 134" xmlns="http://www.w3.org/2000/svg"
><!--Generated by the Batik Graphics2D SVG Generator--><defs id="genericDefs"
  /><g
  ><defs id="defs1"
    ><clipPath clipPathUnits="userSpaceOnUse" id="clipPath1"
      ><path d="M186 56 L208 56 L208 78 L186 78 L186 56 Z"
      /></clipPath
      ><clipPath clipPathUnits="userSpaceOnUse" id="clipPath2"
      ><path d="M134 82 L156 82 L156 104 L134 104 L134 82 Z"
      /></clipPath
      ><clipPath clipPathUnits="userSpaceOnUse" id="clipPath3"
      ><path d="M104 93 C104 99.0751 99.0751 104 93 104 C86.9249 104 82 99.0751 82 93 C82 86.9249 86.9249 82 93 82 C99.0751 82 104 86.9249 104 93 Z"
      /></clipPath
      ><clipPath clipPathUnits="userSpaceOnUse" id="clipPath4"
      ><path d="M30 82 L52 82 L52 104 L30 104 L30 82 Z"
      /></clipPath
      ><clipPath clipPathUnits="userSpaceOnUse" id="clipPath5"
      ><path style="fill-rule:evenodd;" d="M145 30 L156 41 L145 52 L134 41 Z"
      /></clipPath
    ></defs
    ><g style="fill:white; text-rendering:optimizeSpeed; stroke:white;"
    ><rect x="0" width="290" height="134" y="0" style="stroke:none;"
      /><polygon style="fill:none; stroke:black;" points=" 249 67 197 67"
      /><path d="M249 56 C243.5 61.5 254.5 72.5 249 78" style="fill:none; stroke:black;"
      /><polygon style="fill:none; stroke:black;" points=" 197 67 145 93"
      /><polygon style="fill:none; stroke:black;" points=" 197 67 145 41"
      /><rect x="186" y="56" width="22" style="clip-path:url(#clipPath1); stroke:none;" height="22"
      /><rect x="186" y="56" width="22" style="clip-path:url(#clipPath1); fill:rgb(255,212,0); stroke:none;" height="22"
      /><rect x="186" y="56" width="22" style="clip-path:url(#clipPath1); fill:none; stroke:black;" height="22"
      /><rect x="186" y="56" width="22" style="fill:none; stroke:black;" height="22"
      /><polygon style="fill:none; stroke:black;" points=" 145 93 93 93"
      /><rect x="134" y="82" width="22" style="clip-path:url(#clipPath2); stroke:none;" height="22"
      /><rect x="134" y="82" width="22" style="clip-path:url(#clipPath2); fill:rgb(0,144,188); stroke:none;" height="22"
      /><rect x="134" y="82" width="22" style="clip-path:url(#clipPath2); fill:none; stroke:black;" height="22"
      /><rect x="134" y="82" width="22" style="fill:none; stroke:black;" height="22"
      /><polygon style="fill:none; stroke:black;" points=" 93 93 41 93"
      /><circle style="clip-path:url(#clipPath3); stroke:none;" r="11" cx="93" cy="93"
      /><rect x="82" y="82" width="22" style="clip-path:url(#clipPath3); fill:rgb(255,212,0); stroke:none;" height="22"
      /><rect x="82" y="82" width="22" style="clip-path:url(#clipPath3); fill:none; stroke:black;" height="22"
      /><circle style="fill:none; stroke:black;" r="11" cx="93" cy="93"
      /><rect x="30" y="82" width="22" style="clip-path:url(#clipPath4); stroke:none;" height="22"
      /><rect x="30" y="82" width="22" style="clip-path:url(#clipPath4); fill:rgb(0,144,188); stroke:none;" height="22"
      /><rect x="30" y="82" width="22" style="clip-path:url(#clipPath4); fill:none; stroke:black;" height="22"
      /><rect x="30" y="82" width="22" style="fill:none; stroke:black;" height="22"
      /><rect x="33" y="64" width="14" style="stroke:none;" height="10"
    /></g
    ><g style="text-rendering:optimizeSpeed; font-size:14px; font-family:'SansSerif';"
    ><path style="stroke:none;" d="M37.1094 69.5781 C38.3438 69.5781 38.9688 70.4688 38.9688 71.8438 C38.9688 73.25 38.1875 74.1875 37.2188 74.1875 C35.9219 74.1875 35.1562 73.0312 35 70.8906 C35.625 69.9531 36.4531 69.5781 37.1094 69.5781 ZM37.2188 75.1875 C38.8125 75.1875 40.1562 73.8438 40.1562 71.8438 C40.1562 69.7031 39.0469 68.625 37.3125 68.625 C36.5 68.625 35.6094 69.1094 34.9688 69.875 C35.0312 66.6875 36.2188 65.6094 37.625 65.6094 C38.25 65.6094 38.8594 65.9062 39.2656 66.3906 L39.9688 65.5938 C39.4062 64.9844 38.6406 64.5469 37.5781 64.5469 C35.5938 64.5469 33.7812 66.0781 33.7812 70.0938 C33.7812 73.4844 35.2344 75.1875 37.2188 75.1875 ZM45.02 75.1875 C47.1606 75.1875 48.5043 73.8906 48.5043 72.2656 C48.5043 70.75 47.5825 70.0469 46.395 69.5312 L44.9262 68.8906 C44.1293 68.5625 43.2387 68.1875 43.2387 67.1875 C43.2387 66.2656 43.9887 65.6719 45.145 65.6719 C46.0981 65.6719 46.8637 66.0469 47.4887 66.6406 L48.1762 65.8125 C47.4418 65.0625 46.3637 64.5469 45.145 64.5469 C43.2856 64.5469 41.9106 65.6875 41.9106 67.2656 C41.9106 68.7656 43.0512 69.5 44.0043 69.9062 L45.4887 70.5469 C46.4575 70.9844 47.1918 71.3125 47.1918 72.375 C47.1918 73.375 46.3793 74.0469 45.0356 74.0469 C43.9731 74.0469 42.9418 73.5469 42.2075 72.7812 L41.4262 73.6562 C42.3168 74.5938 43.5668 75.1875 45.02 75.1875 Z"
    /></g
    ><g style="fill:white; text-rendering:optimizeSpeed; font-family:'Serif'; stroke:white;"
    ><rect x="71" width="6" height="10" y="96" style="stroke:none;"
      /><path d="M73.2344 97.6562 C73.5156 97.5938 73.7656 97.5625 74.0156 97.5625 C75.0625 97.5625 75.6719 98.1719 75.6719 99.2656 C75.6719 100.4375 74.9062 101.1094 73.7031 101.1094 L73.1875 101.1094 L73.1875 101.6406 L73.7969 101.6406 C75.2188 101.6406 75.9062 102.4219 75.9062 103.6406 C75.9062 104.8438 75.1719 105.6875 73.875 105.6875 C73.6094 105.6875 73.3125 105.6562 73.0156 105.5625 L72.7812 104.8125 C72.625 104.2812 72.5 104.0469 72.1406 104.0469 C71.8906 104.0469 71.7031 104.1719 71.5781 104.4219 C71.8438 105.6406 72.7812 106.1719 74.0312 106.1719 C75.7188 106.1719 76.875 105.125 76.875 103.7031 C76.875 102.5 76.2031 101.625 74.7969 101.375 C75.9531 101.0156 76.6094 100.2031 76.6094 99.2031 C76.6094 97.9219 75.6719 97.0781 74.1875 97.0781 C73.0469 97.0781 72.0625 97.5938 71.7969 98.6875 C71.9062 99 72.1094 99.1094 72.3594 99.1094 C72.7344 99.1094 72.8906 98.8906 73 98.4062 L73.2344 97.6562 Z" style="fill:black; stroke:none;"
      /><rect x="57" width="6" height="13" y="94" style="stroke:none;"
      /><path d="M59.0938 100.2031 C59.0938 98.6562 59.75 97.8125 60.7969 97.8125 C61.7188 97.8125 62.2656 98.4531 62.2656 99.5156 C62.2656 100.7188 61.5 101.4375 60.1875 101.7031 L60.2969 102.3125 C62.2188 102.2344 62.9375 103.2188 62.9375 104.4375 C62.9375 105.625 62.2344 106.4219 60.9531 106.4219 C60.25 106.4219 59.6562 106.1562 59.0938 105.7188 L59.0938 100.2031 ZM58.2031 106.9062 L58.1094 109.375 L58.2656 109.4844 L59.1562 109.2656 L59.0156 106.0938 C59.5469 106.8438 60.3594 107.1719 61.1719 107.1719 C62.5625 107.1719 63.8594 106.2188 63.8594 104.4844 C63.8594 102.9531 62.875 102.1094 61.125 102 C62.5625 101.6094 63.1875 100.4531 63.1875 99.4844 C63.1875 98.0938 62.1562 97.3125 60.9062 97.3125 C59.2969 97.3125 58.2188 98.5469 58.2188 100.5156 L58.2031 106.9062 Z" style="fill:black; stroke:none;"
      /><rect x="122" width="7" height="9" y="96" style="stroke:none;"
      /><path d="M123 101.5156 L125.9531 97.2656 L125.9531 101.5156 L123 101.5156 ZM128.2812 101.5156 L126.8594 101.5156 L126.8594 96.125 L126.2344 96.125 L122.3438 101.6406 L122.3438 102.1875 L125.9531 102.1875 L125.9531 105 L126.8594 105 L126.8594 102.1875 L128.2812 102.1875 L128.2812 101.5156 Z" style="fill:black; stroke:none;"
      /><rect x="109" width="6" height="13" y="94" style="stroke:none;"
      /><path d="M111.0938 100.2031 C111.0938 98.6562 111.75 97.8125 112.7969 97.8125 C113.7188 97.8125 114.2656 98.4531 114.2656 99.5156 C114.2656 100.7188 113.5 101.4375 112.1875 101.7031 L112.2969 102.3125 C114.2188 102.2344 114.9375 103.2188 114.9375 104.4375 C114.9375 105.625 114.2344 106.4219 112.9531 106.4219 C112.25 106.4219 111.6562 106.1562 111.0938 105.7188 L111.0938 100.2031 ZM110.2031 106.9062 L110.1094 109.375 L110.2656 109.4844 L111.1562 109.2656 L111.0156 106.0938 C111.5469 106.8438 112.3594 107.1719 113.1719 107.1719 C114.5625 107.1719 115.8594 106.2188 115.8594 104.4844 C115.8594 102.9531 114.875 102.1094 113.125 102 C114.5625 101.6094 115.1875 100.4531 115.1875 99.4844 C115.1875 98.0938 114.1562 97.3125 112.9062 97.3125 C111.2969 97.3125 110.2188 98.5469 110.2188 100.5156 L110.2031 106.9062 Z" style="fill:black; stroke:none;"
      /><polygon style="clip-path:url(#clipPath5); stroke:none;" points=" 145 30 156 41 145 52 134 41"
      /><rect x="134" y="30" width="22" style="clip-path:url(#clipPath5); fill:rgb(165,67,153); stroke:none;" height="22"
      /><rect x="134" y="30" width="22" style="clip-path:url(#clipPath5); fill:none; stroke:black;" height="22"
      /><polygon style="fill:none; stroke:black;" points=" 145 30 156 41 145 52 134 41"
      /><rect x="179" width="6" height="10" y="78" style="stroke:none;"
      /><path d="M181.2344 79.6562 C181.5156 79.5938 181.7656 79.5625 182.0156 79.5625 C183.0625 79.5625 183.6719 80.1719 183.6719 81.2656 C183.6719 82.4375 182.9062 83.1094 181.7031 83.1094 L181.1875 83.1094 L181.1875 83.6406 L181.7969 83.6406 C183.2188 83.6406 183.9062 84.4219 183.9062 85.6406 C183.9062 86.8438 183.1719 87.6875 181.875 87.6875 C181.6094 87.6875 181.3125 87.6562 181.0156 87.5625 L180.7812 86.8125 C180.625 86.2812 180.5 86.0469 180.1406 86.0469 C179.8906 86.0469 179.7031 86.1719 179.5781 86.4219 C179.8438 87.6406 180.7812 88.1719 182.0312 88.1719 C183.7188 88.1719 184.875 87.125 184.875 85.7031 C184.875 84.5 184.2031 83.625 182.7969 83.375 C183.9531 83.0156 184.6094 82.2031 184.6094 81.2031 C184.6094 79.9219 183.6719 79.0781 182.1875 79.0781 C181.0469 79.0781 180.0625 79.5938 179.7969 80.6875 C179.9062 81 180.1094 81.1094 180.3594 81.1094 C180.7344 81.1094 180.8906 80.8906 181 80.4062 L181.2344 79.6562 Z" style="fill:black; stroke:none;"
      /><rect x="163" width="6" height="13" y="84" style="stroke:none;"
      /><path d="M165.0938 90.2031 C165.0938 88.6562 165.75 87.8125 166.7969 87.8125 C167.7188 87.8125 168.2656 88.4531 168.2656 89.5156 C168.2656 90.7188 167.5 91.4375 166.1875 91.7031 L166.2969 92.3125 C168.2188 92.2344 168.9375 93.2188 168.9375 94.4375 C168.9375 95.625 168.2344 96.4219 166.9531 96.4219 C166.25 96.4219 165.6562 96.1562 165.0938 95.7188 L165.0938 90.2031 ZM164.2031 96.9062 L164.1094 99.375 L164.2656 99.4844 L165.1562 99.2656 L165.0156 96.0938 C165.5469 96.8438 166.3594 97.1719 167.1719 97.1719 C168.5625 97.1719 169.8594 96.2188 169.8594 94.4844 C169.8594 92.9531 168.875 92.1094 167.125 92 C168.5625 91.6094 169.1875 90.4531 169.1875 89.4844 C169.1875 88.0938 168.1562 87.3125 166.9062 87.3125 C165.2969 87.3125 164.2188 88.5469 164.2188 90.5156 L164.2031 96.9062 Z" style="fill:black; stroke:none;"
      /><rect x="172" width="6" height="10" y="60" style="stroke:none;"
      /><path d="M175.3438 69.6875 C174.2031 69.6875 173.5312 68.5 173.5312 66.2969 C173.5312 66.2188 173.5312 66.125 173.5312 66.0469 C174.0938 65.5 174.7188 65.3125 175.3438 65.3125 C176.3125 65.3125 176.9531 65.9844 176.9531 67.4531 C176.9531 68.9375 176.3125 69.6875 175.3438 69.6875 ZM177.5312 61.0781 C174.3438 61.4531 172.5625 63.7656 172.5625 66.4531 C172.5625 68.7812 173.6094 70.1719 175.3125 70.1719 C176.8438 70.1719 177.9219 69.1094 177.9219 67.2812 C177.9219 65.6875 176.9688 64.6562 175.5625 64.6562 C174.8281 64.6562 174.1406 64.9844 173.5781 65.5781 C173.7969 63.4062 175.0781 61.9688 177.5938 61.3906 L177.5312 61.0781 Z" style="fill:black; stroke:none;"
      /><rect x="155" width="8" height="8" y="53" style="stroke:none;"
      /><path d="M159.9844 58.7031 C159.9375 59.8906 159.1562 60.6562 158.3125 60.6562 C157.2656 60.6562 156.5 59.6875 156.5 57.7188 C156.5 56.2812 157.1562 55.1562 158.3438 55.1562 C159.1406 55.1562 159.7812 55.6875 160.0938 56.6406 L159.9844 58.7031 ZM161.9062 60.2812 C161.7344 60.375 161.5469 60.4219 161.3438 60.4219 C160.9531 60.4219 160.75 60.2188 160.75 59.4219 C160.75 58.4844 160.9688 56.5312 161.1875 54.8281 L161.0312 54.7188 L160.2344 54.9219 L160.1406 55.7969 C159.7812 55.0312 159.1562 54.6562 158.3906 54.6562 C157.0469 54.6562 155.5625 55.8438 155.5625 57.9531 C155.5625 60.0938 156.7188 61.1719 158.1406 61.1719 C159.0156 61.1719 159.6875 60.8125 160.0938 59.9844 C160.2031 60.8594 160.5156 61.1719 161.0156 61.1719 C161.4688 61.1719 161.7969 60.9062 162.0156 60.5625 L161.9062 60.2812 Z" style="fill:black; stroke:none;"
      /><rect x="213" width="5" height="10" y="70" style="stroke:none;"
      /><path d="M214.8906 78.6875 C214.4844 78.6875 214.1562 79.0469 214.1562 79.4219 C214.1562 79.8125 214.4844 80.1562 214.8906 80.1562 C215.2969 80.1562 215.6406 79.8125 215.6406 79.4219 C215.6406 79.0469 215.2969 78.6875 214.8906 78.6875 ZM216.4688 72.5781 C216.7188 72.8906 216.875 73.2656 216.8906 73.6562 C216.8906 74.1875 216.625 74.5 216.0312 74.7656 L215.4062 75.0156 C214.6406 75.3125 214.3906 75.5469 214.3906 75.9375 C214.3906 76.1094 214.4531 76.3438 214.5781 76.8125 L214.7344 77.3438 L215.1094 77.3438 L215.0938 76.5312 C215.0938 76.0938 215.2031 75.9688 215.7812 75.7344 L216.2031 75.5625 C217.0312 75.2188 217.4531 74.6875 217.4531 73.8438 C217.4531 72.1562 215.6562 71.1875 214.5 71.0312 C214.1094 71.125 213.9062 71.2969 213.9062 71.6406 C213.9062 71.9375 214.0625 72.1562 214.7188 72.2656 L216.4688 72.5781 Z" style="fill:black; stroke:none;"
    /></g
  ></g
></svg
>
